38 -1 244 -1 1338 -1 1577 -1 2 -1 420 -1 1610 -1 1801 -1 843 -1 27 -1 47 -1 995 -1 87 -1 394 -1 684 -1 2 -1 33 -1 41 -1 192 -1 27 -1 6231 -1 47 -1 293 -1 21 -1 5213 -1 1896 -1 1 -2
47 -1 22 -1 20 -1 6231 -1 47 -1 293 -1 202 -1 17 -1 33 -1 1600 -1 3674 -1 53 -1 129 -1 27 -1 3 -1 512 -1 499 -1 38 -1 40 -1 5261 -1 1238 -1 31 -1 4115 -1 21 -1 27 -1 47 -1 293 -1 5 -1 64 -1 1 -2
934 -1 1 -2
40 -1 509 -1 33 -1 27 -1 4614 -1 196 -1 275 -1 21 -1 47 -1 293 -1 1 -2
244 -1 6733 -1 33 -1 6732 -1 27 -1 5213 -1 1896 -1 31 -1 41 -1 1004 -1 27 -1 6141 -1 38 -1 47 -1 1238 -1 512 -1 499 -1 1 -2
239 -1 2 -1 754 -1 11 -1 31 -1 9 -1 2 -1 33 -1 38 -1 47 -1 1984 -1 20 -1 431 -1 244 -1 253 -1 20 -1 251 -1 1 -2
128 -1 2696 -1 21 -1 40 -1 338 -1 1 -2
154 -1 364 -1 39 -1 501 -1 291 -1 6734 -1 33 -1 487 -1 2522 -1 1 -2
394 -1 38 -1 47 -1 4 -1 40 -1 275 -1 31 -1 2 -1 33 -1 825 -1 27 -1 56 -1 361 -1 404 -1 487 -1 508 -1 1293 -1 2 -1 1 -2
6735 -1 0 -1 2 -1 241 -1 1607 -1 87 -1 2 -1 33 -1 1740 -1 1600 -1 1801 -1 1 -2
2 -1 172 -1 87 -1 3 -1 1074 -1 6736 -1 21 -1 244 -1 22 -1 345 -1 21 -1 40 -1 2803 -1 27 -1 33 -1 3 -1 2760 -1 1 -2
65 -1 26 -1 35 -1 41 -1 56 -1 35 -1 0 -1 169 -1 35 -1 41 -1 56 -1 35 -1 47 -1 134 -1 87 -1 2 -1 142 -1 1 -2
2 -1 56 -1 84 -1 1801 -1 1 -2
21 -1 3 -1 73 -1 1641 -1 0 -1 117 -1 73 -1 1309 -1 295 -1 235 -1 33 -1 87 -1 2 -1 334 -1 40 -1 6737 -1 1 -2
2 -1 33 -1 717 -1 40 -1 73 -1 27 -1 1194 -1 344 -1 502 -1 2803 -1 87 -1 2 -1 17 -1 1 -2
38 -1 40 -1 2494 -1 0 -1 209 -1 227 -1 27 -1 2 -1 3 -1 153 -1 6738 -1 38 -1 508 -1 2 -1 476 -1 44 -1 297 -1 1 -2
2 -1 33 -1 717 -1 40 -1 73 -1 27 -1 56 -1 176 -1 31 -1 5269 -1 21 -1 47 -1 10 -1 1052 -1 1 -2
117 -1 20 -1 40 -1 1905 -1 380 -1 33 -1 27 -1 228 -1 1476 -1 1648 -1 31 -1 275 -1 1 -2
2116 -1 33 -1 316 -1 635 -1 27 -1 2 -1 1 -2
91 -1 275 -1 1 -2
47 -1 3919 -1 20 -1 745 -1 92 -1 33 -1 3054 -1 639 -1 1 -2
806 -1 344 -1 275 -1 33 -1 62 -1 1076 -1 1806 -1 275 -1 87 -1 2 -1 156 -1 38 -1 2530 -1 161 -1 297 -1 47 -1 293 -1 0 -1 169 -1 275 -1 2 -1 77 -1 38 -1 204 -1 1 -2
123 -1 33 -1 6080 -1 635 -1 1 -2
160 -1 2 -1 33 -1 21 -1 47 -1 1806 -1 275 -1 179 -1 1 -2
2 -1 420 -1 5221 -1 27 -1 1331 -1 361 -1 6739 -1 87 -1 315 -1 27 -1 2 -1 21 -1 47 -1 293 -1 1 -2
2 -1 228 -1 3 -1 299 -1 2257 -1 361 -1 5213 -1 1896 -1 1 -2
262 -1 87 -1 5213 -1 1896 -1 33 -1 47 -1 1074 -1 293 -1 6740 -1 38 -1 47 -1 149 -1 1 -2
2 -1 33 -1 316 -1 2113 -1 87 -1 244 -1 204 -1 315 -1 27 -1 114 -1 38 -1 1548 -1 6741 -1 20 -1 2 -1 1 -2
254 -1 2034 -1 11 -1 3 -1 6742 -1 105 -1 3 -1 4798 -1 520 -1 38 -1 508 -1 254 -1 228 -1 38 -1 204 -1 1 -2
254 -1 17 -1 3 -1 73 -1 189 -1 1 -2
244 -1 6 -1 792 -1 98 -1 47 -1 149 -1 33 -1 1850 -1 622 -1 39 -1 750 -1 1 -2
38 -1 5348 -1 1 -2
2 -1 1352 -1 156 -1 38 -1 2530 -1 161 -1 1806 -1 275 -1 38 -1 511 -1 530 -1 31 -1 6743 -1 31 -1 6744 -1 1 -2
39 -1 33 -1 316 -1 258 -1 27 -1 6745 -1 161 -1 123 -1 1 -2
32 -1 127 -1 476 -1 711 -1 136 -1 1 -2
2 -1 33 -1 316 -1 146 -1 3 -1 6746 -1 1 -2
2 -1 183 -1 242 -1 5967 -1 31 -1 2 -1 1290 -1 183 -1 512 -1 1 -2
14 -1 20 -1 332 -1 4235 -1 27 -1 2 -1 32 -1 2 -1 1331 -1 231 -1 33 -1 275 -1 1 -2
2 -1 305 -1 2 -1 202 -1 121 -1 47 -1 6747 -1 179 -1 38 -1 244 -1 253 -1 20 -1 251 -1 33 -1 2116 -1 1 -2
27 -1 136 -1 47 -1 2263 -1 1 -2
76 -1 265 -1 20 -1 40 -1 1806 -1 275 -1 33 -1 6488 -1 5 -1 40 -1 6748 -1 0 -1 33 -1 39 -1 53 -1 1181 -1 2530 -1 169 -1 6 -1 83 -1 41 -1 300 -1 27 -1 2 -1 265 -1 61 -1 0 -1 2 -1 92 -1 33 -1 1435 -1 2172 -1 1 -2
934 -1 1 -2
2 -1 77 -1 39 -1 476 -1 41 -1 78 -1 1961 -1 1 -2
256 -1 39 -1 750 -1 87 -1 591 -1 241 -1 78 -1 1961 -1 1 -2
2 -1 305 -1 256 -1 254 -1 6 -1 17 -1 27 -1 19 -1 21 -1 1 -2