40 -1 1208 -1 6 -1 151 -1 2 -1 27 -1 623 -1 176 -1 47 -1 883 -1 2978 -1 31 -1 35 -1 40 -1 66 -1 1 -2
1495 -1 33 -1 21 -1 31 -1 64 -1 33 -1 3 -1 821 -1 31 -1 3 -1 322 -1 1691 -1 112 -1 196 -1 218 -1 1 -2
40 -1 1208 -1 33 -1 9 -1 5611 -1 161 -1 211 -1 3756 -1 2786 -1 404 -1 1 -2
103 -1 1647 -1 27 -1 378 -1 5612 -1 2683 -1 14 -1 2 -1 172 -1 87 -1 123 -1 33 -1 129 -1 27 -1 2569 -1 1 -2
2 -1 129 -1 1771 -1 27 -1 4 -1 112 -1 515 -1 31 -1 596 -1 169 -1 41 -1 244 -1 33 -1 47 -1 3892 -1 733 -1 611 -1 1 -2
2 -1 172 -1 1137 -1 494 -1 40 -1 62 -1 1076 -1 1208 -1 172 -1 87 -1 2 -1 33 -1 5613 -1 3517 -1 1 -1 1 -1 103 -1 717 -1 27 -1 679 -1 877 -1 26 -1 27 -1 446 -1 295 -1 14 -1 591 -1 33 -1 138 -1 27 -1 338 -1 1 -2
40 -1 1208 -1 33 -1 51 -1 86 -1 211 -1 1841 -1 161 -1 5614 -1 5615 -1 1 -2
2 -1 95 -1 1225 -1 98 -1 216 -1 476 -1 513 -1 6 -1 32 -1 146 -1 32 -1 2 -1 35 -1 611 -1 216 -1 17 -1 47 -1 987 -1 20 -1 3 -1 3688 -1 2453 -1 1332 -1 1 -2
211 -1 5616 -1 555 -1 33 -1 5617 -1 1 -2
40 -1 1347 -1 20 -1 245 -1 33 -1 3803 -1 298 -1 1 -2
224 -1 56 -1 70 -1 21 -1 89 -1 298 -1 1 -2
39 -1 33 -1 391 -1 2613 -1 2015 -1 31 -1 386 -1 33 -1 375 -1 1754 -1 494 -1 40 -1 1482 -1 33 -1 295 -1 27 -1 2718 -1 2 -1 203 -1 3 -1 3742 -1 1 -2
2 -1 717 -1 27 -1 431 -1 32 -1 926 -1 32 -1 2 -1 476 -1 161 -1 81 -1 3 -1 517 -1 1 -2
40 -1 1208 -1 6 -1 151 -1 76 -1 216 -1 202 -1 249 -1 671 -1 611 -1 2 -1 84 -1 95 -1 142 -1 216 -1 27 -1 1 -2
216 -1 711 -1 1171 -1 105 -1 2 -1 31 -1 1076 -1 2 -1 361 -1 1232 -1 1 -2
216 -1 33 -1 9 -1 513 -1 211 -1 515 -1 38 -1 267 -1 20 -1 2 -1 31 -1 216 -1 2261 -1 211 -1 4042 -1 2755 -1 67 -1 297 -1 211 -1 1476 -1 1854 -1 1 -2
5622 -1 5621 -1 211 -1 5612 -1 2683 -1 80 -1 62 -1 73 -1 10 -1 9 -1 161 -1 5618 -1 31 -1 5620 -1 31 -1 2 -1 172 -1 5623 -1 4669 -1 169 -1 39 -1 501 -1 33 -1 5619 -1 1 -2
2 -1 476 -1 41 -1 84 -1 56 -1 3 -1 73 -1 80 -1 105 -1 39 -1 379 -2
103 -1 3 -1 5625 -1 5624 -1 27 -1 33 -1 3 -1 2024 -1 31 -1 40 -1 1208 -1 33 -1 3 -1 668 -1 1 -2
611 -1 0 -1 103 -1 171 -1 71 -1 87 -1 1157 -1 38 -1 379 -2
2 -1 420 -1 1038 -1 47 -1 26 -1 33 -1 216 -1 33 -1 62 -1 1872 -1 1 -2
216 -1 33 -1 4134 -1 20 -1 211 -1 71 -1 1 -2
211 -1 2277 -1 33 -1 3143 -1 31 -1 671 -1 33 -1 2750 -1 1 -2
103 -1 133 -1 27 -1 33 -1 3 -1 1715 -1 5626 -1 31 -1 216 -1 142 -1 27 -1 1844 -1 47 -1 149 -1 53 -1 1844 -1 47 -1 2364 -1 3576 -1 31 -1 257 -1 2058 -1 112 -1 67 -1 3642 -1 1 -2
2 -1 6 -1 1375 -1 38 -1 5 -1 3296 -1 244 -1 170 -1 31 -1 160 -1 2 -1 33 -1 64 -1 2 -1 171 -1 332 -1 20 -1 40 -1 5220 -1 675 -1 1428 -1 31 -1 1401 -1 71 -1 1 -2
216 -1 530 -1 81 -1 20 -1 196 -1 20 -1 211 -1 71 -1 1 -2
35 -1 127 -1 140 -1 240 -1 103 -1 56 -1 105 -1 1 -2
2 -1 420 -1 1200 -1 256 -1 295 -1 40 -1 4365 -1 1 -2
2 -1 77 -1 2 -1 476 -1 35 -1 242 -1 2 -1 142 -1 2 -1 6 -1 207 -1 2 -1 92 -1 20 -1 171 -1 163 -1 20 -1 39 -1 65 -1 2 -1 33 -1 857 -1 1 -2
40 -1 745 -1 92 -1 33 -1 1542 -1 13 -1 76 -1 2 -1 17 -1 6 -1 35 -1 40 -1 66 -1 65 -1 5 -1 47 -1 44 -1 1 -2
40 -1 668 -1 93 -1 2 -1 171 -1 766 -1 5627 -1 1 -2
31 -1 983 -1 588 -1 20 -1 123 -1 1 -2
291 -1 1038 -1 1500 -1 2 -1 172 -1 66 -1 105 -1 3 -1 2521 -1 48 -1 751 -1 31 -1 256 -1 752 -1 38 -1 47 -1 640 -1 17 -1 196 -1 475 -1 21 -1 39 -1 1 -2
40 -1 78 -1 170 -1 105 -1 3296 -1 2 -1 1258 -1 3 -1 919 -1 1 -2
751 -1 31 -1 244 -1 93 -1 2 -1 759 -1 21 -1 56 -1 3 -1 30 -1 1 -2
3269 -1 6 -1 27 -1 2075 -1 27 -1 235 -1 31 -1 877 -1 87 -1 2 -1 476 -1 5628 -1 161 -1 47 -1 73 -1 20 -1 123 -1 1 -2