103 -1 35 -1 244 -1 494 -1 112 -1 47 -1 551 -1 189 -1 67 -1 175 -1 40 -1 6198 -1 56 -1 81 -1 8533 -1 8532 -1 91 -1 47 -1 844 -1 33 -1 52 -1 1 -2
2 -1 63 -1 47 -1 217 -1 175 -1 35 -1 37 -1 32 -1 13 -1 32 -1 332 -1 20 -1 47 -1 4 -1 1 -2
103 -1 84 -1 516 -1 10 -1 9 -1 508 -1 882 -1 494 -1 306 -1 8534 -1 33 -1 404 -1 10 -1 9 -1 1 -2
103 -1 84 -1 414 -1 2 -1 56 -1 8535 -1 161 -1 40 -1 1208 -1 78 -1 175 -1 1 -2
2 -1 129 -1 8536 -1 240 -1 359 -1 1076 -1 2824 -1 3042 -1 1040 -1 830 -1 3808 -1 1 -2
2 -1 1181 -1 418 -1 2607 -1 38 -1 1350 -1 1184 -1 31 -1 92 -1 513 -1 274 -1 117 -1 8232 -1 2925 -1 1765 -1 4 -1 1 -2
2 -1 33 -1 84 -1 8537 -1 1 -2
2 -1 1394 -1 67 -1 40 -1 4450 -1 1134 -1 0 -1 508 -1 171 -1 2 -1 1350 -1 1184 -1 27 -1 351 -1 1 -2
2 -1 56 -1 3 -1 382 -1 1641 -1 5 -1 216 -1 78 -1 1184 -1 121 -1 216 -1 142 -1 27 -1 56 -1 8538 -1 27 -1 7721 -1 1 -2
2 -1 1076 -1 216 -1 300 -1 31 -1 21 -1 2570 -1 175 -1 254 -1 129 -1 27 -1 8539 -1 1 -2
39 -1 33 -1 117 -1 20 -1 47 -1 73 -1 1196 -1 288 -1 140 -1 2 -1 100 -1 3 -1 181 -1 189 -1 1 -2
2 -1 172 -1 2 -1 318 -1 1193 -1 87 -1 883 -1 1 -2
8540 -1 103 -1 1687 -1 1 -2
2 -1 207 -1 2 -1 202 -1 56 -1 3 -1 2320 -1 27 -1 513 -1 1 -2
2 -1 17 -1 27 -1 33 -1 11 -1 3 -1 762 -1 785 -1 393 -1 3324 -1 169 -1 71 -1 0 -1 87 -1 84 -1 882 -1 87 -1 2 -1 8542 -1 27 -1 8541 -1 11 -1 632 -1 640 -1 105 -1 762 -1 160 -1 40 -1 323 -1 601 -1 1423 -1 646 -1 1 -2
1137 -1 41 -1 1894 -1 379 -2
2 -1 172 -1 2 -1 8543 -1 1076 -1 8544 -1 8545 -1 393 -1 1 -2
2 -1 180 -1 300 -1 27 -1 216 -1 23 -1 2570 -1 1 -2
2 -1 645 -1 216 -1 1 -2
18 -1 8546 -1 1051 -1 38 -1 40 -1 159 -1 10 -1 9 -1 1 -2
78 -1 175 -1 39 -1 33 -1 8547 -1 1 -2
40 -1 323 -1 1023 -1 297 -1 498 -1 275 -1 31 -1 8549 -1 8548 -1 422 -1 160 -1 2 -1 33 -1 717 -1 27 -1 133 -1 98 -1 1437 -1 1 -2
216 -1 33 -1 8550 -1 7164 -1 1 -2
216 -1 8551 -1 135 -1 27 -1 129 -1 21 -1 3 -1 3246 -1 1 -2
2 -1 140 -1 244 -1 84 -1 3236 -1 322 -1 105 -1 47 -1 1196 -1 78 -1 175 -1 1 -2
2454 -1 105 -1 744 -1 8552 -1 1 -2
2 -1 247 -1 497 -1 304 -1 171 -1 176 -1 498 -1 387 -1 1040 -1 47 -1 727 -1 7970 -1 47 -1 792 -1 4563 -1 8553 -1 33 -1 1133 -1 1 -2
103 -1 56 -1 1916 -1 20 -1 709 -1 27 -1 5192 -1 4248 -1 31 -1 103 -1 8554 -1 84 -1 997 -1 1 -2
274 -1 2 -1 270 -1 3299 -1 40 -1 394 -1 71 -1 393 -1 1 -2
2 -1 33 -1 1226 -1 244 -1 8556 -1 31 -1 184 -1 751 -1 2 -1 44 -1 1527 -1 84 -1 8555 -1 1 -2
2 -1 95 -1 1225 -1 98 -1 2 -1 476 -1 68 -1 33 -1 997 -1 105 -1 751 -1 752 -1 14 -1 339 -1 171 -1 919 -1 58 -1 1103 -1 2 -1 1322 -1 2329 -1 1 -2
13 -1 103 -1 129 -1 27 -1 1066 -1 1 -2