0 -1 #SUP: 14
1 -1 #SUP: 4
2 -1 #SUP: 35
3 -1 #SUP: 11
13 -1 #SUP: 3
14 -1 #SUP: 3
17 -1 #SUP: 3
18 -1 #SUP: 3
20 -1 #SUP: 14
21 -1 #SUP: 4
22 -1 #SUP: 3
26 -1 #SUP: 2
27 -1 #SUP: 19
31 -1 #SUP: 8
33 -1 #SUP: 21
35 -1 #SUP: 4
38 -1 #SUP: 4
39 -1 #SUP: 2
40 -1 #SUP: 5
41 -1 #SUP: 4
47 -1 #SUP: 9
56 -1 #SUP: 4
60 -1 #SUP: 2
61 -1 #SUP: 3
62 -1 #SUP: 6
63 -1 #SUP: 3
66 -1 #SUP: 3
67 -1 #SUP: 3
73 -1 #SUP: 7
76 -1 #SUP: 2
81 -1 #SUP: 5
87 -1 #SUP: 5
95 -1 #SUP: 3
98 -1 #SUP: 3
102 -1 #SUP: 15
103 -1 #SUP: 8
105 -1 #SUP: 7
112 -1 #SUP: 3
119 -1 #SUP: 2
129 -1 #SUP: 5
132 -1 #SUP: 2
135 -1 #SUP: 2
136 -1 #SUP: 2
137 -1 #SUP: 2
138 -1 #SUP: 3
140 -1 #SUP: 3
142 -1 #SUP: 5
146 -1 #SUP: 4
161 -1 #SUP: 2
162 -1 #SUP: 2
166 -1 #SUP: 2
167 -1 #SUP: 5
171 -1 #SUP: 4
172 -1 #SUP: 4
175 -1 #SUP: 2
186 -1 #SUP: 3
189 -1 #SUP: 2
190 -1 #SUP: 2
193 -1 #SUP: 2
203 -1 #SUP: 2
211 -1 #SUP: 2
216 -1 #SUP: 16
240 -1 #SUP: 3
247 -1 #SUP: 7
256 -1 #SUP: 2
261 -1 #SUP: 4
267 -1 #SUP: 2
270 -1 #SUP: 3
271 -1 #SUP: 3
274 -1 #SUP: 5
279 -1 #SUP: 3
284 -1 #SUP: 2
295 -1 #SUP: 5
299 -1 #SUP: 3
300 -1 #SUP: 2
304 -1 #SUP: 2
306 -1 #SUP: 3
311 -1 #SUP: 2
312 -1 #SUP: 2
316 -1 #SUP: 2
378 -1 #SUP: 2
388 -1 #SUP: 2
399 -1 #SUP: 3
494 -1 #SUP: 3
497 -1 #SUP: 18
502 -1 #SUP: 5
537 -1 #SUP: 8
588 -1 #SUP: 2
622 -1 #SUP: 2
678 -1 #SUP: 2
684 -1 #SUP: 2
688 -1 #SUP: 2
711 -1 #SUP: 3
737 -1 #SUP: 2
740 -1 #SUP: 2
750 -1 #SUP: 4
792 -1 #SUP: 2
798 -1 #SUP: 2
882 -1 #SUP: 3
955 -1 #SUP: 2
1077 -1 #SUP: 7
1157 -1 #SUP: 4
1175 -1 #SUP: 2
1180 -1 #SUP: 2
1181 -1 #SUP: 2
1193 -1 #SUP: 4
1531 -1 #SUP: 4
1690 -1 #SUP: 2
1780 -1 #SUP: 2
2172 -1 #SUP: 2
2443 -1 #SUP: 2
2661 -1 #SUP: 2
2956 -1 #SUP: 2
3151 -1 #SUP: 5
3450 -1 #SUP: 2
3892 -1 #SUP: 2
4005 -1 #SUP: 2
6378 -1 #SUP: 2
7356 -1 #SUP: 3
7435 -1 #SUP: 2
10427 -1 #SUP: 2
10432 -1 #SUP: 2
10434 -1 #SUP: 2
10452 -1 #SUP: 2
0 -1 0 -1 #SUP: 2
0 -1 102 -1 #SUP: 4
2 -1 0 -1 #SUP: 2
2 -1 2 -1 #SUP: 4
2 -1 3 -1 #SUP: 3
2 -1 20 -1 #SUP: 4
2 -1 27 -1 #SUP: 3
2 -1 33 -1 #SUP: 4
2 -1 35 -1 #SUP: 2
2 -1 38 -1 #SUP: 2
2 -1 56 -1 #SUP: 2
2 -1 98 -1 #SUP: 2
2 -1 102 -1 #SUP: 2
2 -1 103 -1 #SUP: 2
2 -1 129 -1 #SUP: 2
2 -1 137 -1 #SUP: 2
2 -1 171 -1 #SUP: 2
2 -1 172 -1 #SUP: 3
2 -1 216 -1 #SUP: 4
2 -1 247 -1 #SUP: 2
2 -1 270 -1 #SUP: 2
2 -1 271 -1 #SUP: 3
2 -1 295 -1 #SUP: 2
2 -1 497 -1 #SUP: 6
2 -1 1077 -1 #SUP: 3
3 -1 0 -1 #SUP: 3
3 -1 3 -1 #SUP: 2
3 -1 20 -1 #SUP: 3
3 -1 31 -1 #SUP: 2
3 -1 38 -1 #SUP: 2
3 -1 103 -1 #SUP: 2
3 -1 175 -1 #SUP: 2
3 -1 267 -1 #SUP: 2
3 -1 1180 -1 #SUP: 2
17 -1 27 -1 #SUP: 2
18 -1 20 -1 #SUP: 2
18 -1 494 -1 #SUP: 2
20 -1 20 -1 #SUP: 2
20 -1 47 -1 #SUP: 3
20 -1 87 -1 #SUP: 2
20 -1 105 -1 #SUP: 2
20 -1 497 -1 #SUP: 2
21 -1 20 -1 #SUP: 2
21 -1 87 -1 #SUP: 2
27 -1 0 -1 #SUP: 2
27 -1 1 -1 #SUP: 2
27 -1 2 -1 #SUP: 2
27 -1 3 -1 #SUP: 2
27 -1 20 -1 #SUP: 2
27 -1 27 -1 #SUP: 2
27 -1 31 -1 #SUP: 2
27 -1 33 -1 #SUP: 2
27 -1 40 -1 #SUP: 2
27 -1 63 -1 #SUP: 3
27 -1 129 -1 #SUP: 2
27 -1 167 -1 #SUP: 2
27 -1 497 -1 #SUP: 2
31 -1 0 -1 #SUP: 2
31 -1 2 -1 #SUP: 2
31 -1 33 -1 #SUP: 2
33 -1 0 -1 #SUP: 2
33 -1 2 -1 #SUP: 2
33 -1 20 -1 #SUP: 3
33 -1 21 -1 #SUP: 2
33 -1 27 -1 #SUP: 3
33 -1 47 -1 #SUP: 2
33 -1 81 -1 #SUP: 2
33 -1 87 -1 #SUP: 2
33 -1 102 -1 #SUP: 3
33 -1 129 -1 #SUP: 2
33 -1 193 -1 #SUP: 2
38 -1 20 -1 #SUP: 2
38 -1 267 -1 #SUP: 2
40 -1 33 -1 #SUP: 2
40 -1 295 -1 #SUP: 2
47 -1 20 -1 #SUP: 2
47 -1 47 -1 #SUP: 2
47 -1 73 -1 #SUP: 3
47 -1 388 -1 #SUP: 2
63 -1 167 -1 #SUP: 2
73 -1 33 -1 #SUP: 2
81 -1 0 -1 #SUP: 2
102 -1 27 -1 #SUP: 3
102 -1 146 -1 #SUP: 3
102 -1 186 -1 #SUP: 2
102 -1 1531 -1 #SUP: 2
103 -1 0 -1 #SUP: 2
103 -1 3 -1 #SUP: 2
103 -1 20 -1 #SUP: 2
103 -1 67 -1 #SUP: 2
103 -1 497 -1 #SUP: 2
105 -1 67 -1 #SUP: 2
129 -1 0 -1 #SUP: 2
129 -1 3 -1 #SUP: 2
129 -1 27 -1 #SUP: 2
129 -1 81 -1 #SUP: 2
135 -1 27 -1 #SUP: 2
138 -1 27 -1 #SUP: 2
142 -1 1 -1 #SUP: 2
142 -1 27 -1 #SUP: 3
142 -1 497 -1 #SUP: 2
161 -1 47 -1 #SUP: 2
172 -1 103 -1 #SUP: 2
175 -1 0 -1 #SUP: 2
175 -1 103 -1 #SUP: 2
186 -1 2661 -1 #SUP: 2
216 -1 2 -1 #SUP: 2
216 -1 33 -1 #SUP: 5
216 -1 112 -1 #SUP: 2
216 -1 295 -1 #SUP: 2
216 -1 1077 -1 #SUP: 2
240 -1 2 -1 #SUP: 2
240 -1 216 -1 #SUP: 2
247 -1 171 -1 #SUP: 2
247 -1 216 -1 #SUP: 2
247 -1 284 -1 #SUP: 2
247 -1 497 -1 #SUP: 3
247 -1 1077 -1 #SUP: 5
267 -1 20 -1 #SUP: 2
270 -1 61 -1 #SUP: 2
274 -1 47 -1 #SUP: 2
274 -1 162 -1 #SUP: 2
274 -1 1193 -1 #SUP: 2
295 -1 2 -1 #SUP: 2
312 -1 311 -1 #SUP: 2
378 -1 20 -1 #SUP: 2
388 -1 73 -1 #SUP: 2
399 -1 13 -1 #SUP: 3
494 -1 27 -1 #SUP: 2
497 -1 2 -1 #SUP: 5
497 -1 27 -1 #SUP: 3
497 -1 31 -1 #SUP: 3
497 -1 33 -1 #SUP: 2
497 -1 40 -1 #SUP: 2
497 -1 87 -1 #SUP: 2
497 -1 140 -1 #SUP: 2
497 -1 171 -1 #SUP: 2
497 -1 190 -1 #SUP: 2
497 -1 1077 -1 #SUP: 4
537 -1 22 -1 #SUP: 2
588 -1 1 -1 #SUP: 2
688 -1 20 -1 #SUP: 2
711 -1 81 -1 #SUP: 2
750 -1 2 -1 #SUP: 2
955 -1 1 -1 #SUP: 2
1077 -1 2 -1 #SUP: 2
1077 -1 295 -1 #SUP: 2
1180 -1 0 -1 #SUP: 2
1180 -1 103 -1 #SUP: 2
1180 -1 175 -1 #SUP: 2
1531 -1 27 -1 #SUP: 2
3151 -1 2 -1 #SUP: 2
3151 -1 33 -1 #SUP: 2
6378 -1 537 -1 #SUP: 2
10452 -1 2443 -1 #SUP: 2
2 -1 0 -1 102 -1 #SUP: 2
2 -1 172 -1 103 -1 #SUP: 2
2 -1 247 -1 497 -1 #SUP: 2
2 -1 247 -1 1077 -1 #SUP: 2
2 -1 295 -1 2 -1 #SUP: 2
2 -1 497 -1 2 -1 #SUP: 2
2 -1 497 -1 1077 -1 #SUP: 3
2 -1 1077 -1 2 -1 #SUP: 2
3 -1 20 -1 20 -1 #SUP: 2
3 -1 38 -1 20 -1 #SUP: 2
3 -1 38 -1 267 -1 #SUP: 2
3 -1 175 -1 0 -1 #SUP: 2
3 -1 175 -1 103 -1 #SUP: 2
3 -1 267 -1 20 -1 #SUP: 2
3 -1 1180 -1 0 -1 #SUP: 2
3 -1 1180 -1 103 -1 #SUP: 2
3 -1 1180 -1 175 -1 #SUP: 2
21 -1 20 -1 87 -1 #SUP: 2
27 -1 3 -1 0 -1 #SUP: 2
27 -1 63 -1 167 -1 #SUP: 2
33 -1 27 -1 20 -1 #SUP: 2
33 -1 47 -1 20 -1 #SUP: 2
38 -1 267 -1 20 -1 #SUP: 2
47 -1 388 -1 73 -1 #SUP: 2
102 -1 1531 -1 27 -1 #SUP: 2
103 -1 3 -1 0 -1 #SUP: 2
129 -1 3 -1 0 -1 #SUP: 2
142 -1 27 -1 497 -1 #SUP: 2
247 -1 497 -1 1077 -1 #SUP: 3
497 -1 1077 -1 2 -1 #SUP: 2
1180 -1 175 -1 0 -1 #SUP: 2
1180 -1 175 -1 103 -1 #SUP: 2
2 -1 247 -1 497 -1 1077 -1 #SUP: 2
2 -1 497 -1 1077 -1 2 -1 #SUP: 2
3 -1 38 -1 267 -1 20 -1 #SUP: 2
3 -1 1180 -1 175 -1 0 -1 #SUP: 2
3 -1 1180 -1 175 -1 103 -1 #SUP: 2
