6 -1 56 -1 70 -1 5 -1 47 -1 2225 -1 0 -1 1137 -1 785 -1 13872 -1 2570 -1 31 -1 2 -1 17 -1 3 -1 2988 -1 20 -1 113 -1 66 -1 1 -2
40 -1 13873 -1 499 -1 33 -1 843 -1 244 -1 1184 -1 0 -1 14 -1 47 -1 499 -1 33 -1 1548 -1 684 -1 1 -2
378 -1 2 -1 597 -1 1 -2
306 -1 996 -1 169 -1 242 -1 0 -1 6 -1 5324 -1 31 -1 1137 -1 8842 -1 1 -2
2 -1 133 -1 13136 -1 275 -1 112 -1 40 -1 877 -1 10688 -1 71 -1 1 -2
47 -1 86 -1 33 -1 50 -1 14 -1 189 -1 1122 -1 1 -2
103 -1 822 -1 295 -1 40 -1 36 -1 38 -1 64 -1 1 -2
41 -1 62 -1 146 -1 38 -1 87 -1 2 -1 172 -1 103 -1 1038 -1 0 -1 14 -1 87 -1 47 -1 4731 -1 537 -1 2311 -1 33 -1 3468 -1 1 -2
2 -1 77 -1 244 -1 5 -1 186 -1 10688 -1 568 -1 199 -1 17 -1 17 -1 497 -1 38 -1 47 -1 101 -1 1 -2
279 -1 1352 -1 77 -1 112 -1 33 -1 316 -1 74 -1 21 -1 188 -1 38 -1 498 -1 1414 -1 58 -1 1 -2
317 -1 103 -1 41 -1 8386 -1 161 -1 1 -2
359 -1 203 -1 27 -1 300 -1 27 -1 497 -1 295 -1 47 -1 71 -1 91 -1 13875 -1 295 -1 497 -1 2644 -1 2 -1 3 -1 1476 -1 1114 -1 6 -1 494 -1 2 -1 95 -1 17 -1 47 -1 6616 -1 13874 -1 38 -1 9022 -1 2651 -1 497 -1 17 -1 1 -2
409 -1 67 -1 0 -1 103 -1 6 -1 3 -1 2024 -1 1 -2
132 -1 513 -1 11 -1 332 -1 20 -1 40 -1 1455 -1 1 -2
64 -1 33 -1 68 -1 3 -1 602 -1 169 -1 3 -1 2311 -1 169 -1 3 -1 499 -1 169 -1 3 -1 7975 -1 412 -1 87 -1 33 -1 843 -1 1 -2
39 -1 68 -1 156 -1 2 -1 7709 -1 1 -2
1113 -1 40 -1 1938 -1 33 -1 35 -1 211 -1 2603 -1 1 -2
21 -1 830 -1 4459 -1 1 -2
47 -1 5421 -1 885 -1 33 -1 38 -1 830 -1 8694 -1 3991 -1 81 -1 64 -1 1 -2
103 -1 62 -1 1224 -1 758 -1 19 -1 1 -2
244 -1 530 -1 882 -1 1 -2
2 -1 95 -1 203 -1 47 -1 134 -1 47 -1 13876 -1 33 -1 8406 -1 1 -2
31 -1 98 -1 47 -1 1476 -1 119 -1 241 -1 884 -1 27 -1 47 -1 13877 -1 1 -2
117 -1 1411 -1 17 -1 13878 -1 0 -1 128 -1 4663 -1 1780 -1 212 -1 3 -1 60 -1 1 -2
47 -1 13876 -1 241 -1 41 -1 3505 -1 344 -1 2696 -1 0 -1 31 -1 241 -1 1945 -1 1904 -1 1509 -1 189 -1 127 -1 136 -1 123 -1 295 -1 39 -1 1 -2
203 -1 123 -1 304 -1 231 -1 77 -1 1 -2
67 -1 2 -1 77 -1 33 -1 87 -1 2 -1 17 -1 27 -1 85 -1 99 -1 393 -1 21 -1 109 -1 494 -1 2 -1 17 -1 27 -1 541 -1 40 -1 499 -1 0 -1 2 -1 318 -1 33 -1 21 -1 109 -1 1423 -1 785 -1 2015 -1 13879 -1 112 -1 67 -1 2 -1 77 -1 1 -2
499 -1 35 -1 1548 -1 105 -1 785 -1 13880 -1 1 -2
62 -1 2 -1 734 -1 85 -1 265 -1 273 -1 622 -1 87 -1 1 -2
2 -1 373 -1 499 -1 1 -2
1137 -1 203 -1 123 -1 378 -1 39 -1 32 -1 74 -1 32 -1 1004 -1 27 -1 56 -1 242 -1 13881 -1 35 -1 1 -2
332 -1 20 -1 47 -1 4985 -1 1077 -1 66 -1 0 -1 31 -1 240 -1 35 -1 66 -1 33 -1 33 -1 190 -1 53 -1 264 -1 384 -1 1 -2
47 -1 66 -1 1738 -1 33 -1 333 -1 87 -1 74 -1 0 -1 1137 -1 6 -1 56 -1 101 -1 67 -1 47 -1 13883 -1 203 -1 502 -1 4552 -1 0 -1 4024 -1 0 -1 5158 -1 0 -1 13882 -1 3680 -1 0 -1 2912 -1 1 -1 1 -1 31 -1 47 -1 58 -1 112 -1 47 -1 302 -1 882 -1 1 -2
11674 -1 404 -1 295 -1 751 -1 58 -1 967 -1 0 -1 31 -1 1335 -1 2570 -1 1 -2
2 -1 373 -1 39 -1 1 -2