1249 -1 344 -1 512 -1 499 -1 21 -1 109 -1 33 -1 62 -1 343 -1 0 -1 1933 -1 750 -1 1125 -1 1 -2
2 -1 305 -1 1137 -1 711 -1 494 -1 1137 -1 2570 -1 1 -2
2 -1 420 -1 997 -1 102 -1 207 -1 2 -1 202 -1 129 -1 27 -1 601 -1 1 -2
2 -1 305 -1 2 -1 92 -1 76 -1 2 -1 304 -1 17 -1 67 -1 244 -1 66 -1 27 -1 35 -1 1 -2
110 -1 596 -1 1137 -1 231 -1 1350 -1 1184 -1 212 -1 132 -1 1 -2
39 -1 51 -1 420 -1 203 -1 369 -1 1 -2
13 -1 2 -1 305 -1 1103 -1 2 -1 77 -1 39 -1 1137 -1 129 -1 27 -1 33 -1 786 -1 1 -2
1249 -1 2 -1 135 -1 27 -1 1076 -1 7265 -1 31 -1 56 -1 87 -1 4656 -1 20 -1 497 -1 1 -2
309 -1 87 -1 1175 -1 33 -1 261 -1 918 -1 1 -2
216 -1 711 -1 33 -1 41 -1 87 -1 918 -1 14 -1 2 -1 305 -1 33 -1 38 -1 47 -1 3570 -1 132 -1 127 -1 56 -1 27 -1 1980 -1 240 -1 127 -1 476 -1 56 -1 1 -2
1249 -1 2 -1 207 -1 2 -1 304 -1 35 -1 3570 -1 1 -2
110 -1 596 -1 1137 -1 33 -1 30 -1 93 -1 1 -2
2 -1 84 -1 373 -1 39 -1 14 -1 2 -1 305 -1 39 -1 241 -1 56 -1 2 -1 3 -1 430 -1 1 -2
2 -1 305 -1 87 -1 33 -1 144 -1 2 -1 35 -1 3570 -1 1 -2
2 -1 207 -1 2 -1 17 -1 35 -1 8254 -1 1 -2
2 -1 110 -1 2272 -1 14 -1 51 -1 1137 -1 750 -1 62 -1 146 -1 61 -1 193 -1 1 -2
2 -1 190 -1 27 -1 882 -1 105 -1 2272 -1 38 -1 255 -1 132 -1 1 -2
2 -1 305 -1 1137 -1 3 -1 1920 -1 1 -2
1249 -1 2 -1 207 -1 201 -1 90 -1 1175 -1 92 -1 1030 -1 11 -1 123 -1 17 -1 33 -1 203 -1 23038 -1 112 -1 418 -1 341 -1 1 -2
2 -1 373 -1 119 -1 199 -1 1489 -1 2 -1 801 -1 123 -1 6 -1 300 -1 1035 -1 0 -1 154 -1 364 -1 1137 -1 499 -1 1 -2
1137 -1 316 -1 9029 -1 1 -2
652 -1 365 -1 216 -1 922 -1 1 -2
1249 -1 2 -1 110 -1 596 -1 1392 -1 1181 -1 87 -1 370 -1 1 -2
123 -1 277 -1 62 -1 730 -1 17739 -1 1 -2
62 -1 146 -1 112 -1 82 -1 1311 -1 21917 -1 23039 -1 3584 -1 1 -2
123 -1 33 -1 333 -1 129 -1 27 -1 312 -1 76 -1 123 -1 95 -1 56 -1 3 -1 1476 -1 20984 -1 1 -2
4845 -1 882 -1 0 -1 1137 -1 33 -1 203 -1 23040 -1 123 -1 270 -1 334 -1 497 -1 110 -1 277 -1 1 -2
13 -1 205 -1 39 -1 1 -2
2 -1 62 -1 142 -1 27 -1 33 -1 35 -1 161 -1 132 -1 0 -1 2 -1 110 -1 596 -1 344 -1 668 -1 71 -1 1 -2
123 -1 67 -1 80 -1 203 -1 3 -1 1430 -1 20 -1 1281 -1 0 -1 123 -1 750 -1 62 -1 730 -1 21486 -1 31 -1 414 -1 27 -1 33 -1 38 -1 132 -1 1 -2
39 -1 241 -1 33 -1 943 -1 27 -1 140 -1 123 -1 38 -1 30 -1 93 -1 31 -1 140 -1 240 -1 123 -1 172 -1 339 -1 1 -2
87 -1 1175 -1 38 -1 959 -1 71 -1 0 -1 2 -1 17 -1 333 -1 140 -1 950 -1 62 -1 414 -1 27 -1 33 -1 171 -1 3 -1 71 -1 1 -2
2 -1 271 -1 76 -1 2 -1 33 -1 203 -1 244 -1 65 -1 33 -1 33 -1 668 -1 1 -2
2 -1 305 -1 2 -1 33 -1 604 -1 27 -1 33 -1 38 -1 209 -1 1 -2
68 -1 142 -1 27 -1 214 -1 31 -1 86 -1 1 -2
14 -1 2 -1 95 -1 77 -1 76 -1 2 -1 33 -1 32 -1 210 -1 32 -1 5336 -1 537 -1 122 -1 1 -2
216 -1 33 -1 13 -1 21 -1 211 -1 134 -1 27 -1 47 -1 668 -1 588 -1 1 -1 210 -1 1175 -1 1 -2
14 -1 2 -1 95 -1 172 -1 2 -1 3250 -1 32 -1 146 -1 0 -1 274 -1 2 -1 35 -1 1 -2
2 -1 420 -1 350 -1 1 -2
2 -1 84 -1 135 -1 27 -1 56 -1 81 -1 20 -1 182 -1 1 -2
56 -1 997 -1 20 -1 244 -1 736 -1 1 -2