0 -1 #SUP: 18
10 -1 #SUP: 9
12 -1 #SUP: 3
30 -1 #SUP: 3
37 -1 #SUP: 7
42 -1 #SUP: 5
52 -1 #SUP: 3
70 -1 #SUP: 3
84 -1 #SUP: 3
85 -1 #SUP: 4
95 -1 #SUP: 2
102 -1 #SUP: 4
105 -1 #SUP: 2
113 -1 #SUP: 4
117 -1 #SUP: 3
126 -1 #SUP: 3
203 -1 #SUP: 2
210 -1 #SUP: 3
216 -1 #SUP: 3
257 -1 #SUP: 4
277 -1 #SUP: 2
475 -1 #SUP: 3
689 -1 #SUP: 2
848 -1 #SUP: 2
991 -1 #SUP: 2
1334 -1 #SUP: 5
1683 -1 #SUP: 2
2539 -1 #SUP: 2
2541 -1 #SUP: 3
2545 -1 #SUP: 2
2559 -1 #SUP: 2
0 -1 0 -1 #SUP: 2
0 -1 10 -1 #SUP: 2
0 -1 42 -1 #SUP: 2
0 -1 52 -1 #SUP: 2
0 -1 1683 -1 #SUP: 2
0 -1 2541 -1 #SUP: 2
10 -1 84 -1 #SUP: 2
30 -1 0 -1 #SUP: 2
37 -1 0 -1 #SUP: 3
52 -1 42 -1 #SUP: 2
84 -1 12 -1 #SUP: 3
85 -1 0 -1 #SUP: 2
102 -1 0 -1 #SUP: 2
102 -1 10 -1 #SUP: 2
210 -1 0 -1 #SUP: 2
216 -1 0 -1 #SUP: 3
1334 -1 0 -1 #SUP: 2
0 -1 52 -1 42 -1 #SUP: 2
