0 -1 #SUP: 12
5 -1 #SUP: 3
13 -1 #SUP: 2
40 -1 #SUP: 2
52 -1 #SUP: 3
66 -1 #SUP: 4
102 -1 #SUP: 3
170 -1 #SUP: 2
178 -1 #SUP: 3
277 -1 #SUP: 2
595 -1 #SUP: 2
713 -1 #SUP: 2
11111 -1 #SUP: 2
0 -1 52 -1 #SUP: 2
0 -1 66 -1 #SUP: 2
0 -1 102 -1 #SUP: 3
5 -1 0 -1 #SUP: 3
5 -1 66 -1 #SUP: 2
66 -1 0 -1 #SUP: 3
66 -1 102 -1 #SUP: 2
277 -1 0 -1 #SUP: 2
5 -1 0 -1 66 -1 #SUP: 2
