0 -1 #SUP: 19
2 -1 #SUP: 5
13 -1 #SUP: 3
20 -1 #SUP: 3
39 -1 #SUP: 2
42 -1 #SUP: 4
52 -1 #SUP: 5
70 -1 #SUP: 7
80 -1 #SUP: 2
81 -1 #SUP: 2
82 -1 #SUP: 2
85 -1 #SUP: 4
102 -1 #SUP: 5
113 -1 #SUP: 3
115 -1 #SUP: 2
130 -1 #SUP: 2
155 -1 #SUP: 3
167 -1 #SUP: 2
189 -1 #SUP: 3
190 -1 #SUP: 2
202 -1 #SUP: 2
208 -1 #SUP: 2
257 -1 #SUP: 3
273 -1 #SUP: 2
291 -1 #SUP: 3
501 -1 #SUP: 2
507 -1 #SUP: 4
592 -1 #SUP: 2
749 -1 #SUP: 3
811 -1 #SUP: 2
818 -1 #SUP: 2
1115 -1 #SUP: 2
1475 -1 #SUP: 3
2482 -1 #SUP: 2
0 -1 0 -1 #SUP: 3
0 -1 102 -1 #SUP: 2
2 -1 749 -1 #SUP: 2
20 -1 85 -1 #SUP: 2
52 -1 42 -1 #SUP: 2
70 -1 42 -1 #SUP: 2
70 -1 1475 -1 #SUP: 2
189 -1 0 -1 #SUP: 2
818 -1 70 -1 #SUP: 2
189 -1 0 -1 0 -1 #SUP: 2
