0 -1 #SUP: 54
1 -1 #SUP: 4
2 -1 #SUP: 2
10 -1 #SUP: 9
13 -1 #SUP: 7
30 -1 #SUP: 3
32 -1 #SUP: 4
33 -1 #SUP: 8
34 -1 #SUP: 3
35 -1 #SUP: 2
39 -1 #SUP: 3
42 -1 #SUP: 6
48 -1 #SUP: 4
52 -1 #SUP: 11
66 -1 #SUP: 8
79 -1 #SUP: 2
80 -1 #SUP: 2
81 -1 #SUP: 3
88 -1 #SUP: 6
89 -1 #SUP: 2
92 -1 #SUP: 2
100 -1 #SUP: 7
102 -1 #SUP: 3
110 -1 #SUP: 3
117 -1 #SUP: 4
120 -1 #SUP: 2
126 -1 #SUP: 6
170 -1 #SUP: 2
181 -1 #SUP: 4
182 -1 #SUP: 9
183 -1 #SUP: 4
190 -1 #SUP: 3
193 -1 #SUP: 3
199 -1 #SUP: 2
204 -1 #SUP: 2
217 -1 #SUP: 2
230 -1 #SUP: 3
246 -1 #SUP: 3
281 -1 #SUP: 2
307 -1 #SUP: 3
475 -1 #SUP: 2
559 -1 #SUP: 3
626 -1 #SUP: 5
633 -1 #SUP: 4
635 -1 #SUP: 2
643 -1 #SUP: 3
673 -1 #SUP: 2
730 -1 #SUP: 3
792 -1 #SUP: 2
901 -1 #SUP: 2
910 -1 #SUP: 2
960 -1 #SUP: 2
1009 -1 #SUP: 3
1056 -1 #SUP: 2
1740 -1 #SUP: 6
1852 -1 #SUP: 2
2209 -1 #SUP: 2
2219 -1 #SUP: 2
2364 -1 #SUP: 2
3367 -1 #SUP: 2
3979 -1 #SUP: 4
4768 -1 #SUP: 2
5702 -1 #SUP: 3
6651 -1 #SUP: 4
8757 -1 #SUP: 2
12739 -1 #SUP: 2
0 -1 0 -1 #SUP: 17
0 -1 10 -1 #SUP: 5
0 -1 13 -1 #SUP: 4
0 -1 33 -1 #SUP: 3
0 -1 42 -1 #SUP: 3
0 -1 48 -1 #SUP: 2
0 -1 52 -1 #SUP: 5
0 -1 66 -1 #SUP: 2
0 -1 80 -1 #SUP: 2
0 -1 81 -1 #SUP: 2
0 -1 88 -1 #SUP: 3
0 -1 92 -1 #SUP: 2
0 -1 100 -1 #SUP: 2
0 -1 102 -1 #SUP: 3
0 -1 117 -1 #SUP: 2
0 -1 126 -1 #SUP: 4
0 -1 181 -1 #SUP: 2
0 -1 182 -1 #SUP: 5
0 -1 183 -1 #SUP: 3
0 -1 230 -1 #SUP: 3
0 -1 246 -1 #SUP: 3
0 -1 307 -1 #SUP: 2
0 -1 475 -1 #SUP: 2
0 -1 633 -1 #SUP: 3
0 -1 643 -1 #SUP: 2
0 -1 792 -1 #SUP: 2
0 -1 901 -1 #SUP: 2
0 -1 1009 -1 #SUP: 2
0 -1 1740 -1 #SUP: 3
0 -1 1852 -1 #SUP: 2
0 -1 3367 -1 #SUP: 2
0 -1 5702 -1 #SUP: 2
0 -1 6651 -1 #SUP: 3
1 -1 1 -1 #SUP: 2
1 -1 3979 -1 #SUP: 2
2 -1 0 -1 #SUP: 2
2 -1 52 -1 #SUP: 2
10 -1 0 -1 #SUP: 4
10 -1 66 -1 #SUP: 2
10 -1 92 -1 #SUP: 2
10 -1 126 -1 #SUP: 2
10 -1 182 -1 #SUP: 2
13 -1 0 -1 #SUP: 3
13 -1 10 -1 #SUP: 2
13 -1 42 -1 #SUP: 2
13 -1 52 -1 #SUP: 2
13 -1 92 -1 #SUP: 2
30 -1 0 -1 #SUP: 2
32 -1 960 -1 #SUP: 2
32 -1 2219 -1 #SUP: 2
33 -1 0 -1 #SUP: 3
33 -1 13 -1 #SUP: 2
33 -1 52 -1 #SUP: 2
34 -1 0 -1 #SUP: 2
34 -1 13 -1 #SUP: 2
34 -1 100 -1 #SUP: 2
35 -1 79 -1 #SUP: 2
35 -1 307 -1 #SUP: 2
39 -1 0 -1 #SUP: 2
39 -1 730 -1 #SUP: 2
42 -1 0 -1 #SUP: 3
48 -1 0 -1 #SUP: 2
52 -1 0 -1 #SUP: 4
52 -1 2 -1 #SUP: 2
52 -1 42 -1 #SUP: 4
52 -1 52 -1 #SUP: 2
52 -1 81 -1 #SUP: 2
52 -1 182 -1 #SUP: 2
66 -1 0 -1 #SUP: 3
79 -1 307 -1 #SUP: 2
88 -1 0 -1 #SUP: 2
88 -1 8757 -1 #SUP: 2
100 -1 0 -1 #SUP: 4
100 -1 13 -1 #SUP: 3
100 -1 42 -1 #SUP: 2
100 -1 52 -1 #SUP: 2
110 -1 0 -1 #SUP: 2
117 -1 0 -1 #SUP: 2
126 -1 0 -1 #SUP: 2
126 -1 88 -1 #SUP: 2
126 -1 183 -1 #SUP: 2
170 -1 0 -1 #SUP: 2
170 -1 52 -1 #SUP: 2
181 -1 0 -1 #SUP: 2
181 -1 182 -1 #SUP: 3
182 -1 0 -1 #SUP: 5
182 -1 33 -1 #SUP: 2
182 -1 52 -1 #SUP: 2
182 -1 117 -1 #SUP: 2
182 -1 1056 -1 #SUP: 2
182 -1 6651 -1 #SUP: 2
183 -1 0 -1 #SUP: 2
183 -1 182 -1 #SUP: 2
190 -1 193 -1 #SUP: 2
217 -1 0 -1 #SUP: 2
217 -1 182 -1 #SUP: 2
230 -1 0 -1 #SUP: 2
246 -1 182 -1 #SUP: 2
281 -1 0 -1 #SUP: 2
281 -1 6651 -1 #SUP: 2
307 -1 32 -1 #SUP: 2
307 -1 960 -1 #SUP: 2
307 -1 2219 -1 #SUP: 2
307 -1 2364 -1 #SUP: 2
626 -1 0 -1 #SUP: 3
626 -1 117 -1 #SUP: 2
626 -1 230 -1 #SUP: 2
633 -1 0 -1 #SUP: 2
635 -1 0 -1 #SUP: 2
730 -1 0 -1 #SUP: 2
901 -1 0 -1 #SUP: 2
960 -1 2219 -1 #SUP: 2
1009 -1 0 -1 #SUP: 2
1056 -1 0 -1 #SUP: 2
1740 -1 0 -1 #SUP: 3
1740 -1 1740 -1 #SUP: 2
2364 -1 32 -1 #SUP: 2
2364 -1 960 -1 #SUP: 2
2364 -1 2219 -1 #SUP: 2
3367 -1 643 -1 #SUP: 2
3979 -1 3979 -1 #SUP: 3
5702 -1 0 -1 #SUP: 3
5702 -1 475 -1 #SUP: 2
6651 -1 0 -1 #SUP: 2
6651 -1 633 -1 #SUP: 2
6651 -1 1852 -1 #SUP: 2
0 -1 0 -1 0 -1 #SUP: 2
0 -1 0 -1 13 -1 #SUP: 2
0 -1 0 -1 33 -1 #SUP: 2
0 -1 0 -1 52 -1 #SUP: 4
0 -1 0 -1 475 -1 #SUP: 2
0 -1 0 -1 1740 -1 #SUP: 2
0 -1 10 -1 0 -1 #SUP: 3
0 -1 10 -1 182 -1 #SUP: 2
0 -1 13 -1 0 -1 #SUP: 2
0 -1 13 -1 42 -1 #SUP: 2
0 -1 13 -1 52 -1 #SUP: 2
0 -1 33 -1 52 -1 #SUP: 2
0 -1 100 -1 13 -1 #SUP: 2
0 -1 100 -1 52 -1 #SUP: 2
0 -1 183 -1 182 -1 #SUP: 2
0 -1 230 -1 0 -1 #SUP: 2
0 -1 246 -1 182 -1 #SUP: 2
0 -1 1740 -1 0 -1 #SUP: 2
0 -1 3367 -1 643 -1 #SUP: 2
0 -1 5702 -1 0 -1 #SUP: 2
0 -1 5702 -1 475 -1 #SUP: 2
0 -1 6651 -1 633 -1 #SUP: 2
0 -1 6651 -1 1852 -1 #SUP: 2
1 -1 3979 -1 3979 -1 #SUP: 2
2 -1 0 -1 52 -1 #SUP: 2
13 -1 0 -1 10 -1 #SUP: 2
13 -1 0 -1 92 -1 #SUP: 2
32 -1 960 -1 2219 -1 #SUP: 2
34 -1 100 -1 13 -1 #SUP: 2
35 -1 79 -1 307 -1 #SUP: 2
39 -1 730 -1 0 -1 #SUP: 2
52 -1 0 -1 52 -1 #SUP: 2
52 -1 2 -1 0 -1 #SUP: 2
52 -1 2 -1 52 -1 #SUP: 2
52 -1 42 -1 0 -1 #SUP: 2
52 -1 182 -1 0 -1 #SUP: 2
66 -1 0 -1 0 -1 #SUP: 2
100 -1 0 -1 0 -1 #SUP: 2
100 -1 0 -1 13 -1 #SUP: 2
100 -1 0 -1 42 -1 #SUP: 2
117 -1 0 -1 0 -1 #SUP: 2
170 -1 0 -1 0 -1 #SUP: 2
170 -1 0 -1 52 -1 #SUP: 2
181 -1 0 -1 0 -1 #SUP: 2
181 -1 0 -1 182 -1 #SUP: 2
182 -1 0 -1 0 -1 #SUP: 2
182 -1 0 -1 52 -1 #SUP: 2
182 -1 117 -1 0 -1 #SUP: 2
182 -1 1056 -1 0 -1 #SUP: 2
217 -1 182 -1 0 -1 #SUP: 2
307 -1 32 -1 960 -1 #SUP: 2
307 -1 32 -1 2219 -1 #SUP: 2
307 -1 960 -1 2219 -1 #SUP: 2
307 -1 2364 -1 32 -1 #SUP: 2
307 -1 2364 -1 960 -1 #SUP: 2
307 -1 2364 -1 2219 -1 #SUP: 2
626 -1 0 -1 0 -1 #SUP: 2
626 -1 0 -1 230 -1 #SUP: 2
626 -1 230 -1 0 -1 #SUP: 2
2364 -1 32 -1 960 -1 #SUP: 2
2364 -1 32 -1 2219 -1 #SUP: 2
2364 -1 960 -1 2219 -1 #SUP: 2
3979 -1 3979 -1 3979 -1 #SUP: 2
52 -1 2 -1 0 -1 52 -1 #SUP: 2
170 -1 0 -1 0 -1 52 -1 #SUP: 2
307 -1 32 -1 960 -1 2219 -1 #SUP: 2
307 -1 2364 -1 32 -1 960 -1 #SUP: 2
307 -1 2364 -1 32 -1 2219 -1 #SUP: 2
307 -1 2364 -1 960 -1 2219 -1 #SUP: 2
626 -1 0 -1 230 -1 0 -1 #SUP: 2
2364 -1 32 -1 960 -1 2219 -1 #SUP: 2
307 -1 2364 -1 32 -1 960 -1 2219 -1 #SUP: 2
