0 -1 #SUP: 45
1 -1 #SUP: 2
10 -1 #SUP: 19
13 -1 #SUP: 2
23 -1 #SUP: 2
30 -1 #SUP: 2
39 -1 #SUP: 5
42 -1 #SUP: 2
44 -1 #SUP: 3
45 -1 #SUP: 2
48 -1 #SUP: 6
52 -1 #SUP: 3
59 -1 #SUP: 3
66 -1 #SUP: 4
73 -1 #SUP: 3
75 -1 #SUP: 2
80 -1 #SUP: 2
84 -1 #SUP: 3
99 -1 #SUP: 2
102 -1 #SUP: 5
105 -1 #SUP: 4
111 -1 #SUP: 2
117 -1 #SUP: 5
126 -1 #SUP: 4
155 -1 #SUP: 2
158 -1 #SUP: 2
161 -1 #SUP: 2
167 -1 #SUP: 3
240 -1 #SUP: 4
246 -1 #SUP: 5
249 -1 #SUP: 3
259 -1 #SUP: 2
277 -1 #SUP: 4
308 -1 #SUP: 5
322 -1 #SUP: 3
467 -1 #SUP: 7
482 -1 #SUP: 3
534 -1 #SUP: 2
535 -1 #SUP: 2
714 -1 #SUP: 2
789 -1 #SUP: 2
818 -1 #SUP: 2
993 -1 #SUP: 2
1020 -1 #SUP: 2
1048 -1 #SUP: 2
1116 -1 #SUP: 2
1296 -1 #SUP: 3
1318 -1 #SUP: 4
1391 -1 #SUP: 2
1505 -1 #SUP: 2
1565 -1 #SUP: 2
1592 -1 #SUP: 2
1729 -1 #SUP: 2
1823 -1 #SUP: 2
1852 -1 #SUP: 3
2009 -1 #SUP: 2
2102 -1 #SUP: 3
2854 -1 #SUP: 3
3249 -1 #SUP: 2
3473 -1 #SUP: 2
3687 -1 #SUP: 2
4237 -1 #SUP: 2
5704 -1 #SUP: 4
5844 -1 #SUP: 2
7016 -1 #SUP: 2
7129 -1 #SUP: 2
7721 -1 #SUP: 5
8543 -1 #SUP: 7
9322 -1 #SUP: 2
11817 -1 #SUP: 2
11973 -1 #SUP: 2
12849 -1 #SUP: 3
12894 -1 #SUP: 4
14767 -1 #SUP: 2
14768 -1 #SUP: 6
14777 -1 #SUP: 3
14803 -1 #SUP: 2
14814 -1 #SUP: 2
14818 -1 #SUP: 2
14820 -1 #SUP: 3
14824 -1 #SUP: 2
14836 -1 #SUP: 2
0 -1 0 -1 #SUP: 9
0 -1 10 -1 #SUP: 6
0 -1 48 -1 #SUP: 3
0 -1 66 -1 #SUP: 2
0 -1 73 -1 #SUP: 2
0 -1 102 -1 #SUP: 2
0 -1 105 -1 #SUP: 2
0 -1 482 -1 #SUP: 2
0 -1 7721 -1 #SUP: 3
0 -1 14824 -1 #SUP: 2
10 -1 0 -1 #SUP: 3
10 -1 39 -1 #SUP: 2
10 -1 105 -1 #SUP: 2
42 -1 0 -1 #SUP: 2
42 -1 66 -1 #SUP: 2
48 -1 0 -1 #SUP: 3
73 -1 1852 -1 #SUP: 2
102 -1 0 -1 #SUP: 2
105 -1 7721 -1 #SUP: 2
249 -1 0 -1 #SUP: 3
308 -1 308 -1 #SUP: 2
467 -1 467 -1 #SUP: 3
818 -1 0 -1 #SUP: 2
1565 -1 14836 -1 #SUP: 2
1852 -1 0 -1 #SUP: 2
2009 -1 789 -1 #SUP: 2
2102 -1 2102 -1 #SUP: 2
3473 -1 11817 -1 #SUP: 2
3473 -1 14777 -1 #SUP: 2
5704 -1 0 -1 #SUP: 2
7129 -1 0 -1 #SUP: 2
7721 -1 0 -1 #SUP: 2
7721 -1 249 -1 #SUP: 2
8543 -1 10 -1 #SUP: 2
8543 -1 14814 -1 #SUP: 2
11817 -1 14777 -1 #SUP: 2
14768 -1 0 -1 #SUP: 2
14777 -1 0 -1 #SUP: 2
14803 -1 0 -1 #SUP: 2
0 -1 0 -1 0 -1 #SUP: 7
0 -1 0 -1 10 -1 #SUP: 3
0 -1 0 -1 14824 -1 #SUP: 2
0 -1 10 -1 0 -1 #SUP: 2
42 -1 0 -1 66 -1 #SUP: 2
249 -1 0 -1 0 -1 #SUP: 2
467 -1 467 -1 467 -1 #SUP: 2
1852 -1 0 -1 0 -1 #SUP: 2
3473 -1 11817 -1 14777 -1 #SUP: 2
7721 -1 249 -1 0 -1 #SUP: 2
0 -1 0 -1 0 -1 0 -1 #SUP: 3
249 -1 0 -1 0 -1 0 -1 #SUP: 2
0 -1 0 -1 0 -1 0 -1 0 -1 #SUP: 3
