0 -1 #SUP: 14
2 -1 #SUP: 3
5 -1 #SUP: 3
13 -1 #SUP: 4
39 -1 #SUP: 3
42 -1 #SUP: 2
70 -1 #SUP: 3
80 -1 #SUP: 4
85 -1 #SUP: 4
95 -1 #SUP: 3
98 -1 #SUP: 2
102 -1 #SUP: 3
105 -1 #SUP: 3
112 -1 #SUP: 2
117 -1 #SUP: 5
126 -1 #SUP: 2
127 -1 #SUP: 2
132 -1 #SUP: 6
155 -1 #SUP: 2
167 -1 #SUP: 3
170 -1 #SUP: 2
237 -1 #SUP: 2
297 -1 #SUP: 4
360 -1 #SUP: 2
372 -1 #SUP: 3
592 -1 #SUP: 10
791 -1 #SUP: 2
901 -1 #SUP: 6
991 -1 #SUP: 2
1000 -1 #SUP: 2
1020 -1 #SUP: 5
1041 -1 #SUP: 5
1062 -1 #SUP: 2
1182 -1 #SUP: 2
1283 -1 #SUP: 6
1682 -1 #SUP: 2
1836 -1 #SUP: 2
4332 -1 #SUP: 2
4387 -1 #SUP: 2
8156 -1 #SUP: 3
9964 -1 #SUP: 2
0 -1 0 -1 #SUP: 4
0 -1 70 -1 #SUP: 2
0 -1 155 -1 #SUP: 2
0 -1 592 -1 #SUP: 2
0 -1 1020 -1 #SUP: 2
0 -1 1836 -1 #SUP: 2
13 -1 1062 -1 #SUP: 2
70 -1 0 -1 #SUP: 2
70 -1 1283 -1 #SUP: 2
80 -1 592 -1 #SUP: 3
98 -1 0 -1 #SUP: 2
102 -1 0 -1 #SUP: 2
102 -1 1682 -1 #SUP: 2
117 -1 0 -1 #SUP: 2
132 -1 592 -1 #SUP: 2
167 -1 80 -1 #SUP: 2
167 -1 592 -1 #SUP: 2
167 -1 1283 -1 #SUP: 2
237 -1 0 -1 #SUP: 2
297 -1 9964 -1 #SUP: 2
360 -1 297 -1 #SUP: 2
360 -1 9964 -1 #SUP: 2
372 -1 2 -1 #SUP: 2
372 -1 167 -1 #SUP: 2
592 -1 0 -1 #SUP: 3
592 -1 70 -1 #SUP: 2
592 -1 592 -1 #SUP: 2
592 -1 991 -1 #SUP: 2
592 -1 1041 -1 #SUP: 2
791 -1 0 -1 #SUP: 2
901 -1 85 -1 #SUP: 2
901 -1 132 -1 #SUP: 2
901 -1 1020 -1 #SUP: 2
901 -1 1041 -1 #SUP: 3
1020 -1 0 -1 #SUP: 2
1041 -1 132 -1 #SUP: 3
1041 -1 592 -1 #SUP: 2
1041 -1 1020 -1 #SUP: 2
1182 -1 2 -1 #SUP: 2
1283 -1 592 -1 #SUP: 3
1283 -1 1283 -1 #SUP: 2
1682 -1 0 -1 #SUP: 2
8156 -1 592 -1 #SUP: 2
0 -1 70 -1 0 -1 #SUP: 2
102 -1 1682 -1 0 -1 #SUP: 2
167 -1 80 -1 592 -1 #SUP: 2
360 -1 297 -1 9964 -1 #SUP: 2
901 -1 1041 -1 132 -1 #SUP: 2
901 -1 1041 -1 1020 -1 #SUP: 2
1041 -1 132 -1 592 -1 #SUP: 2
