165 -1 163 -1 1480 -1 102 -1 1 -2
91 -1 322 -1 263 -1 1063 -1 2465 -1 3145 -1 0 -1 165 -1 163 -1 1 -2
866 -1 612 -1 3145 -1 15915 -1 1 -2
810 -1 0 -1 85 -1 1575 -1 165 -1 163 -1 2661 -1 146 -1 1 -2
294 -1 165 -1 3546 -1 5072 -1 0 -1 294 -1 0 -1 592 -1 2656 -1 2007 -1 1481 -1 1 -2
294 -1 163 -1 365 -1 1407 -1 4908 -1 0 -1 462 -1 1 -2
37 -1 0 -1 948 -1 590 -1 0 -1 199 -1 180 -1 1407 -1 230 -1 159 -1 1 -2
1407 -1 230 -1 241 -1 1 -2
4111 -1 122 -1 1372 -1 1 -2
422 -1 1407 -1 230 -1 4908 -1 230 -1 1 -2
70 -1 287 -1 4908 -1 230 -1 638 -1 462 -1 2003 -1 0 -1 1588 -1 4908 -1 1 -2
39 -1 769 -1 4908 -1 365 -1 230 -1 42 -1 146 -1 1513 -1 1372 -1 462 -1 879 -1 1 -2
4908 -1 365 -1 230 -1 70 -1 15916 -1 1221 -1 889 -1 0 -1 15918 -1 963 -1 0 -1 115 -1 15917 -1 3068 -1 1 -2
2 -1 15919 -1 6486 -1 1 -2
165 -1 163 -1 1082 -1 592 -1 2719 -1 1 -2
4387 -1 0 -1 2656 -1 2007 -1 165 -1 163 -1 1 -2
9972 -1 1556 -1 117 -1 3448 -1 1539 -1 1 -2
1372 -1 294 -1 2719 -1 256 -1 165 -1 0 -1 165 -1 163 -1 1 -2
165 -1 1758 -1 910 -1 0 -1 10216 -1 482 -1 0 -1 2 -1 1136 -1 9960 -1 472 -1 165 -1 1 -2