0 -1 #SUP: 16
42 -1 #SUP: 3
66 -1 #SUP: 2
85 -1 #SUP: 3
88 -1 #SUP: 2
130 -1 #SUP: 2
159 -1 #SUP: 2
179 -1 #SUP: 2
181 -1 #SUP: 2
274 -1 #SUP: 3
588 -1 #SUP: 2
590 -1 #SUP: 5
846 -1 #SUP: 3
997 -1 #SUP: 2
1040 -1 #SUP: 2
1349 -1 #SUP: 2
2022 -1 #SUP: 2
4238 -1 #SUP: 2
4613 -1 #SUP: 2
6518 -1 #SUP: 3
0 -1 0 -1 #SUP: 6
0 -1 66 -1 #SUP: 2
0 -1 88 -1 #SUP: 2
0 -1 588 -1 #SUP: 2
0 -1 997 -1 #SUP: 2
0 -1 4238 -1 #SUP: 2
0 -1 4613 -1 #SUP: 2
42 -1 0 -1 #SUP: 2
42 -1 1349 -1 #SUP: 2
66 -1 0 -1 #SUP: 2
159 -1 590 -1 #SUP: 2
274 -1 0 -1 #SUP: 2
590 -1 0 -1 #SUP: 2
4613 -1 0 -1 #SUP: 2
6518 -1 0 -1 #SUP: 2
6518 -1 85 -1 #SUP: 2
6518 -1 590 -1 #SUP: 2
0 -1 0 -1 0 -1 #SUP: 2
0 -1 0 -1 588 -1 #SUP: 2
0 -1 0 -1 997 -1 #SUP: 2
0 -1 66 -1 0 -1 #SUP: 2
0 -1 4613 -1 0 -1 #SUP: 2
4613 -1 0 -1 0 -1 #SUP: 2
0 -1 4613 -1 0 -1 0 -1 #SUP: 2
