66 -1 102 -1 673 -1 290 -1 105 -1 40 -1 143 -1 157 -1 84 -1 3464 -1 0 -1 145 -1 4311 -1 137 -1 158 -1 1 -2
3489 -1 337 -1 1 -2
466 -1 0 -1 117 -1 0 -1 126 -1 514 -1 3363 -1 1 -2
102 -1 7153 -1 0 -1 90 -1 81 -1 1 -2
567 -1 830 -1 5 -1 7153 -1 1 -2
562 -1 192 -1 109 -1 1612 -1 37 -1 0 -1 4165 -1 3346 -1 0 -1 15997 -1 1 -2
337 -1 3489 -1 260 -2
4863 -1 526 -1 1 -2
37 -1 1577 -1 33 -1 601 -1 834 -1 1 -2
52 -1 42 -1 192 -1 5399 -1 290 -1 1 -2
532 -1 1 -2
102 -1 297 -1 4278 -1 84 -1 158 -1 1 -2
10 -1 171 -1 15998 -1 1 -2
466 -1 0 -1 322 -1 3111 -1 1 -2
316 -1 102 -1 8154 -1 1 -2
1296 -1 1251 -1 99 -1 52 -1 161 -1 1 -2
205 -1 176 -1 161 -1 354 -1 1 -2
179 -1 0 -1 179 -1 1 -2
4494 -1 1875 -1 2679 -1 126 -1 126 -1 401 -1 117 -1 6492 -1 195 -1 1 -2
195 -1 1 -2
66 -1 1509 -1 195 -1 1 -2
73 -1 39 -1 1 -2
34 -1 80 -1 117 -1 1684 -1 1 -2
1752 -1 89 -1 2146 -1 70 -1 83 -1 493 -1 13 -1 592 -1 1 -2
696 -1 322 -1 102 -1 0 -1 431 -1 157 -1 3765 -1 278 -1 73 -1 308 -1 1 -2
1281 -1 117 -1 407 -1 308 -1 1 -2
516 -1 1 -1 231 -1 1 -2
66 -1 240 -1 1176 -1 1 -2
52 -1 102 -1 1 -2
176 -1 47 -1 601 -1 111 -1 0 -1 85 -1 1 -2
52 -1 126 -1 1221 -1 1 -2
102 -1 1175 -1 13 -1 7100 -1 1 -2
0 -1 26 -1 1 -2
66 -1 102 -1 1 -2
102 -1 0 -1 10 -1 827 -1 1 -2
42 -1 10 -1 230 -1 124 -2
30 -1 1629 -1 265 -1 1 -2
534 -1 30 -1 1629 -1 1 -2
102 -1 3776 -1 1 -2
80 -1 4298 -1 1862 -1 15999 -1 1 -2
207 -1 260 -2
835 -1 70 -1 1 -2
5404 -1 1661 -1 1185 -1 70 -1 0 -1 81 -1 23 -1 297 -1 8154 -1 0 -1 39 -1 75 -1 0 -1 291 -1 127 -1 1 -2
66 -1 1214 -1 592 -1 1 -2
176 -1 70 -1 2481 -1 1 -2
126 -1 1042 -1 16000 -1 0 -1 42 -1 70 -1 232 -1 1 -2
70 -1 3837 -1 2330 -1 1401 -1 1 -2
812 -1 102 -1 70 -1 526 -1 37 -1 1039 -1 1 -2
533 -1 0 -1 232 -1 1 -2
1406 -1 3413 -1 2806 -1 1 -2
401 -1 0 -1 189 -1 4616 -1 1159 -1 3402 -1 0 -1 0 -1 230 -1 1 -2
10 -1 1374 -1 1 -2
190 -1 230 -1 2365 -1 102 -1 4268 -1 6698 -1 1 -2
1374 -1 230 -1 124 -2
13 -1 1374 -1 0 -1 992 -1 1 -2
299 -1 2806 -1 230 -1 124 -2
102 -1 1 -2
204 -1 66 -1 1682 -1 1039 -1 70 -1 592 -1 39 -1 1 -2
1350 -1 492 -1 1 -2
1598 -1 247 -1 813 -1 70 -1 247 -1 1 -2
39 -1 1475 -1 3118 -1 0 -1 39 -1 69 -1 1 -2
90 -1 1 -2
0 -1 126 -1 88 -1 1039 -1 1 -2
34 -1 520 -1 50 -1 166 -1 78 -1 1039 -1 0 -1 44 -1 1041 -1 297 -1 80 -1 301 -1 0 -1 52 -1 602 -1 1 -2
204 -1 0 -1 65 -1 183 -1 1 -2
146 -1 10 -1 516 -1 10 -1 86 -1 111 -1 2210 -1 529 -1 10 -1 86 -1 177 -1 1 -2
516 -1 1 -1 124 -2
1253 -1 1 -2
10 -1 40 -1 211 -1 70 -1 230 -1 297 -1 126 -1 10 -1 623 -1 397 -1 1 -2
66 -1 820 -1 1 -2
1 -2
297 -1 32 -1 820 -1 1 -2
2581 -1 1305 -1 6693 -1 520 -1 50 -1 166 -1 78 -1 1 -2
473 -1 0 -1 820 -1 1401 -1 1 -2
179 -1 10 -1 278 -1 4051 -1 66 -1 820 -1 1 -2
567 -1 1 -2
2480 -1 1 -2
22 -1 2290 -1 1 -2
124 -2
577 -1 16001 -1 6721 -1 124 -2
41 -1 0 -1 102 -1 117 -1 1 -2
31 -1 0 -1 19 -1 1 -2
1 -2