0 -1 #SUP: 16
5 -1 #SUP: 3
10 -1 #SUP: 4
13 -1 #SUP: 2
21 -1 #SUP: 2
30 -1 #SUP: 4
32 -1 #SUP: 2
35 -1 #SUP: 2
37 -1 #SUP: 2
42 -1 #SUP: 2
44 -1 #SUP: 2
52 -1 #SUP: 2
66 -1 #SUP: 9
73 -1 #SUP: 3
81 -1 #SUP: 5
84 -1 #SUP: 2
85 -1 #SUP: 2
95 -1 #SUP: 4
102 -1 #SUP: 2
105 -1 #SUP: 8
117 -1 #SUP: 2
137 -1 #SUP: 2
178 -1 #SUP: 2
180 -1 #SUP: 2
185 -1 #SUP: 2
186 -1 #SUP: 2
209 -1 #SUP: 2
217 -1 #SUP: 2
254 -1 #SUP: 5
272 -1 #SUP: 3
277 -1 #SUP: 3
290 -1 #SUP: 2
384 -1 #SUP: 2
407 -1 #SUP: 4
451 -1 #SUP: 2
452 -1 #SUP: 2
496 -1 #SUP: 2
497 -1 #SUP: 2
516 -1 #SUP: 2
535 -1 #SUP: 4
561 -1 #SUP: 2
743 -1 #SUP: 4
784 -1 #SUP: 2
789 -1 #SUP: 2
900 -1 #SUP: 2
1009 -1 #SUP: 2
1136 -1 #SUP: 2
1683 -1 #SUP: 2
1920 -1 #SUP: 2
2139 -1 #SUP: 2
3440 -1 #SUP: 2
0 -1 0 -1 #SUP: 4
0 -1 10 -1 #SUP: 2
0 -1 66 -1 #SUP: 3
0 -1 105 -1 #SUP: 2
0 -1 180 -1 #SUP: 2
0 -1 1920 -1 #SUP: 2
0 -1 2139 -1 #SUP: 2
10 -1 0 -1 #SUP: 2
37 -1 0 -1 #SUP: 2
66 -1 0 -1 #SUP: 2
66 -1 66 -1 #SUP: 2
66 -1 105 -1 #SUP: 3
66 -1 384 -1 #SUP: 2
81 -1 186 -1 #SUP: 2
105 -1 0 -1 #SUP: 3
105 -1 535 -1 #SUP: 2
117 -1 73 -1 #SUP: 2
117 -1 209 -1 #SUP: 2
209 -1 73 -1 #SUP: 2
272 -1 0 -1 #SUP: 2
277 -1 0 -1 #SUP: 3
277 -1 10 -1 #SUP: 2
277 -1 180 -1 #SUP: 2
407 -1 290 -1 #SUP: 2
452 -1 451 -1 #SUP: 2
535 -1 0 -1 #SUP: 2
561 -1 105 -1 #SUP: 2
561 -1 535 -1 #SUP: 2
1009 -1 254 -1 #SUP: 2
3440 -1 44 -1 #SUP: 2
66 -1 0 -1 66 -1 #SUP: 2
105 -1 0 -1 0 -1 #SUP: 2
117 -1 209 -1 73 -1 #SUP: 2
277 -1 0 -1 10 -1 #SUP: 2
277 -1 0 -1 180 -1 #SUP: 2
277 -1 10 -1 0 -1 #SUP: 2
561 -1 105 -1 535 -1 #SUP: 2
