3931 -1 1 -2
73 -1 633 -1 278 -1 1 -2
14 -1 4766 -1 10 -1 3440 -1 583 -1 1041 -1 146 -1 1231 -1 161 -1 858 -1 176 -1 1184 -1 2013 -1 51 -1 3998 -1 1555 -1 294 -1 126 -1 1020 -1 1 -2
427 -1 6710 -1 307 -1 2787 -1 13 -1 57 -1 50 -1 102 -1 1715 -1 35 -1 2110 -1 132 -1 240 -1 40 -1 1230 -1 2699 -1 81 -1 161 -1 686 -1 2132 -1 2062 -1 186 -1 991 -1 1923 -1 7349 -1 743 -1 120 -1 1230 -1 17042 -1 20995 -1 1 -2
322 -1 372 -1 1562 -1 751 -1 1160 -1 557 -1 947 -1 1496 -1 23124 -1 1950 -1 1562 -1 561 -1 47 -1 1226 -1 106 -1 778 -1 851 -1 1721 -1 170 -1 198 -1 216 -1 745 -1 1104 -1 4519 -1 277 -1 1496 -1 102 -1 126 -1 4766 -1 1721 -1 126 -1 4766 -1 8323 -1 2944 -1 170 -1 198 -1 583 -1 1348 -1 216 -1 2726 -1 996 -1 216 -1 2726 -1 7093 -1 484 -1 743 -1 603 -1 1321 -1 2726 -1 743 -1 1321 -1 23126 -1 102 -1 146 -1 1852 -1 5 -1 273 -1 126 -1 1348 -1 203 -1 42 -1 743 -1 23127 -1 768 -1 32 -1 23125 -1 126 -1 924 -1 2123 -1 557 -1 12339 -1 6439 -1 561 -1 209 -1 73 -1 42 -1 70 -1 8992 -1 39 -1 180 -1 110 -1 588 -1 180 -1 57 -1 50 -1 4937 -1 78 -1 201 -1 221 -1 78 -1 721 -1 572 -1 785 -1 1616 -1 1095 -1 1956 -1 78 -1 2309 -1 3206 -1 2284 -1 102 -1 1 -2
572 -1 785 -1 203 -1 85 -1 170 -1 126 -1 785 -1 88 -1 572 -1 20 -1 155 -1 231 -1 749 -1 126 -1 2013 -1 66 -1 2013 -1 13 -1 126 -1 1515 -1 2013 -1 1338 -1 23123 -1 4526 -1 270 -1 80 -1 4044 -1 1220 -1 1182 -1 4766 -1 10 -1 901 -1 2013 -1 203 -1 879 -1 427 -1 5 -1 105 -1 27 -1 1200 -1 0 -1 16563 -1 1191 -1 0 -1 5563 -1 5915 -1 0 -1 513 -1 6050 -1 9969 -1 193 -1 671 -1 1834 -1 11229 -1 6050 -1 52 -1 42 -1 5 -1 2198 -1 102 -1 1281 -1 607 -1 1005 -1 105 -1 490 -1 4766 -1 1 -2
73 -1 457 -1 462 -1 5005 -1 146 -1 147 -1 31 -1 1511 -1 1925 -1 4885 -1 146 -1 4885 -1 1729 -1 157 -1 1758 -1 8724 -1 52 -1 1596 -1 102 -1 227 -1 102 -1 4427 -1 861 -1 1341 -1 308 -1 127 -1 1341 -1 294 -1 193 -1 861 -1 1596 -2