1 -2
3384 -1 1 -2
239 -1 66 -1 522 -1 3384 -1 297 -1 126 -1 9134 -1 0 -1 297 -1 32 -1 562 -1 1 -2
1990 -1 10 -1 1858 -1 32 -1 40 -1 102 -1 1 -2
1432 -1 1 -2
126 -1 472 -1 1 -2
297 -1 126 -1 1032 -1 1 -2
161 -1 1063 -1 37 -1 1236 -1 1 -2
657 -1 1236 -1 1230 -1 0 -1 10 -1 26 -1 37 -1 1 -2
0 -1 204 -1 10 -1 39 -1 10 -1 40 -1 1 -2
37 -1 469 -1 150 -1 1432 -1 1 -2
66 -1 973 -1 2087 -1 1 -2
66 -1 931 -1 66 -1 105 -1 372 -1 18 -1 179 -1 990 -1 1 -2
18256 -1 1 -2
0 -1 66 -1 567 -1 79 -1 33 -1 1 -2
297 -1 126 -1 79 -1 33 -1 204 -1 209 -1 73 -1 42 -1 10 -1 10970 -1 2087 -1 1 -2
1065 -1 0 -1 105 -1 170 -1 759 -1 1 -2
10 -1 1226 -1 231 -1 1 -2
6552 -1 1 -2
0 -1 26 -1 158 -1 88 -1 1230 -1 1 -2
322 -1 610 -1 105 -1 278 -1 1 -2
73 -1 40 -1 1 -2
217 -1 6156 -1 106 -1 1 -2
1845 -1 239 -1 2235 -1 311 -1 135 -1 1032 -1 450 -1 1459 -1 1 -2
297 -1 372 -1 713 -1 1 -2
401 -1 0 -1 1348 -1 86 -1 1 -2
0 -1 496 -1 82 -1 603 -1 571 -1 571 -1 571 -1 1 -2
743 -1 635 -1 52 -1 85 -1 208 -1 1897 -1 1 -2
85 -1 119 -1 1552 -1 1 -2
42 -1 10 -1 861 -1 32 -1 1490 -1 1223 -1 1552 -1 126 -1 1 -2
204 -1 35 -1 39 -1 1 -2
113 -1 112 -1 1 -2
10 -1 912 -1 397 -1 1 -2
39 -1 397 -1 381 -1 1566 -1 44 -1 1 -2
64 -1 584 -1 3879 -1 70 -1 1 -2
112 -1 39 -1 208 -1 1 -2
501 -1 69 -1 889 -1 2251 -1 1 -2
1065 -1 0 -1 889 -1 1054 -1 711 -1 1 -2
6 -1 66 -1 2230 -1 1 -2
0 -1 235 -1 3437 -1 170 -1 372 -1 1000 -1 1511 -1 1 -2
7923 -1 604 -1 1292 -1 582 -1 1715 -1 2332 -1 1787 -1 129 -1 23819 -1 1 -2
217 -1 0 -1 6984 -1 0 -1 912 -1 1 -2
583 -1 1 -2
66 -1 1040 -1 52 -1 257 -1 7496 -1 1 -2
159 -1 100 -1 604 -1 1292 -1 1 -1 198 -1 119 -1 45 -1 97 -1 50 -1 145 -1 69 -1 45 -1 1 -2
746 -1 1095 -1 132 -1 117 -1 10 -1 105 -1 988 -1 50 -1 0 -1 4129 -1 1 -2
6984 -1 129 -1 216 -1 14 -1 1 -2
0 -1 86 -1 0 -1 10 -1 673 -1 129 -1 216 -1 1 -2
10 -1 22001 -1 22000 -1 126 -1 3726 -1 589 -1 1 -2
540 -1 1593 -1 10 -1 80 -1 0 -1 73 -1 567 -1 208 -1 4345 -1 102 -1 1732 -1 1 -2
1065 -1 0 -1 789 -1 26 -1 322 -1 0 -1 117 -1 1556 -1 1 -2
66 -1 450 -1 1224 -1 31 -1 0 -1 297 -1 126 -1 6117 -1 1 -2
13 -1 450 -1 0 -1 102 -1 1902 -1 33 -1 1 -2
1432 -1 472 -1 124 -1 260 -1 124 -1 260 -1 124 -1 260 -2
1769 -1 231 -1 1 -2
207 -1 0 -1 26 -1 1 -2
98 -1 95 -1 1027 -1 873 -1 3288 -1 789 -1 2046 -1 33 -1 155 -1 1 -2
10 -1 170 -1 14527 -1 44 -1 0 -1 35 -1 1 -2
110 -1 119 -1 1525 -1 111 -1 117 -1 1 -2
467 -1 3437 -1 155 -1 1 -2
73 -1 1070 -1 2296 -1 1645 -1 260 -2
1065 -1 0 -1 297 -1 43 -1 2997 -1 52 -1 35 -1 1 -2
1525 -1 360 -1 297 -1 39 -1 260 -2
579 -1 604 -1 1292 -1 260 -2
1009 -1 22297 -1 758 -1 260 -2
66 -1 997 -1 100 -1 1 -2
8468 -1 3012 -1 115 -1 3026 -1 1 -2
10 -1 6354 -1 260 -2
23820 -1 0 -1 10 -1 294 -1 1827 -1 589 -1 1069 -1 18 -1 1 -2
88 -1 7494 -1 33 -1 70 -1 1721 -1 113 -1 1 -2
360 -1 291 -1 190 -1 1283 -1 103 -1 180 -1 687 -1 39 -1 13 -1 64 -1 1 -2
687 -1 4519 -1 1 -2
0 -1 113 -1 190 -1 39 -1 3878 -1 23820 -1 1 -2
991 -1 1005 -1 858 -1 52 -1 102 -1 126 -1 1 -2
88 -1 7552 -1 1230 -1 5672 -1 126 -1 1721 -1 1 -2
216 -1 1005 -1 10 -1 635 -1 1 -2
126 -1 626 -1 785 -1 39 -1 48 -1 1 -2
10 -1 540 -1 133 -1 1 -2
126 -1 133 -1 1 -2
469 -1 32 -1 133 -1 124 -2
10 -1 1657 -1 0 -1 10 -1 540 -1 528 -1 216 -1 1 -2
0 -1 88 -1 572 -1 1508 -1 166 -1 78 -1 1334 -1 1 -2
1593 -1 1593 -1 1 -2
66 -1 308 -1 127 -1 5190 -1 0 -1 1104 -1 80 -1 44 -1 1 -2
10 -1 126 -1 66 -1 5190 -1 1 -2
102 -1 561 -1 1227 -1 1593 -1 102 -1 66 -1 6064 -1 1 -2
66 -1 1253 -1 360 -1 149 -1 1 -2
42 -1 66 -1 297 -1 0 -1 567 -1 322 -1 0 -1 901 -1 84 -1 5 -1 1 -2
277 -1 1 -2
42 -1 297 -1 1 -2
0 -1 102 -1 42 -1 1 -2