66 -1 189 -1 66 -1 240 -1 308 -1 1 -2
267 -1 0 -1 878 -1 0 -1 297 -1 126 -1 124 -2
66 -1 6529 -1 5611 -1 1 -2
88 -1 6529 -1 126 -1 746 -1 31 -1 1 -2
257 -1 5611 -1 22 -1 40 -1 3515 -1 1 -2
5611 -1 30 -1 40 -1 111 -1 117 -1 1511 -1 1 -2
5622 -1 8628 -1 1 -2
10 -1 14 -1 126 -1 5611 -1 0 -1 5622 -1 105 -1 6529 -1 126 -1 2661 -1 1163 -1 231 -1 1 -2
0 -1 88 -1 819 -1 22997 -1 10 -1 6529 -1 5611 -1 1947 -1 5622 -1 111 -1 117 -1 1 -2
1508 -1 185 -1 1 -2
1211 -1 11300 -1 126 -1 1163 -1 2 -1 1511 -1 1 -2
1508 -1 180 -1 0 -1 692 -1 0 -1 2629 -1 1 -2
52 -1 585 -1 1 -2
540 -1 297 -1 372 -1 80 -1 1 -2
52 -1 102 -1 10 -1 1178 -1 3440 -1 1 -2
1508 -1 2952 -1 81 -1 1 -2
102 -1 10 -1 155 -1 2952 -1 1 -2
117 -1 44 -1 1508 -1 180 -1 0 -1 501 -1 126 -1 1 -2
1065 -1 0 -1 120 -1 50 -1 0 -1 166 -1 78 -1 4276 -1 1 -2
50 -1 508 -1 39 -1 50 -1 1 -2
1065 -1 0 -1 0 -1 4887 -1 0 -1 22998 -1 784 -1 3034 -1 1 -2
39 -1 117 -1 1 -2
540 -1 501 -1 524 -1 1 -2
9992 -1 22999 -1 117 -1 1 -2
957 -1 4436 -1 1 -2
66 -1 189 -1 99 -1 4887 -1 0 -1 66 -1 931 -1 147 -1 13 -1 209 -1 73 -1 1 -2
137 -1 66 -1 973 -1 1 -2
159 -1 12243 -1 441 -1 1 -2
542 -1 0 -1 159 -1 4887 -1 84 -1 1278 -1 1995 -1 1 -2
39 -1 1 -2
73 -1 1281 -1 105 -1 6096 -1 253 -1 1 -2
66 -1 2827 -1 180 -1 105 -1 1713 -1 23000 -1 23001 -1 1 -2
3404 -1 13 -1 0 -1 42 -1 2827 -1 2 -1 23002 -1 585 -1 1 -2
120 -1 582 -1 1 -2
297 -1 4135 -1 180 -1 126 -1 23000 -1 1 -2
23003 -1 48 -1 1 -2
70 -1 88 -1 42 -1 592 -1 1 -2
42 -1 52 -1 0 -1 0 -1 82 -1 10 -1 1 -2
126 -1 297 -1 1350 -1 1259 -1 2961 -1 238 -1 69 -1 126 -1 69 -1 1 -2
10 -1 198 -1 1540 -1 1 -2
66 -1 2561 -1 23004 -1 585 -1 1 -2
249 -1 0 -1 23004 -1 19560 -1 1020 -1 23005 -1 126 -1 1095 -1 1 -2
42 -1 146 -1 33 -1 1 -2
159 -1 925 -1 297 -1 80 -1 23006 -1 1259 -1 1682 -1 1 -2
199 -1 17486 -1 520 -1 6017 -1 37 -1 66 -1 102 -1 179 -1 37 -1 229 -1 105 -1 26 -1 1 -2
113 -1 599 -1 368 -1 1 -1 23007 -1 1 -2
15077 -1 0 -1 10 -1 635 -1 1 -2
126 -1 879 -1 37 -1 10 -1 126 -1 85 -1 251 -1 124 -2
207 -1 0 -1 126 -1 102 -1 124 -2
277 -1 0 -1 4902 -1 1222 -1 14 -1 825 -1 1819 -1 5531 -1 70 -1 10 -1 278 -1 1 -2
1222 -1 540 -1 687 -1 23008 -1 4778 -1 1 -2
52 -1 42 -1 0 -1 179 -1 23009 -1 534 -1 1 -2
257 -1 6182 -1 48 -1 318 -1 320 -1 102 -1 10 -1 540 -1 768 -1 1 -2
52 -1 42 -1 10 -1 768 -1 1 -2
146 -1 88 -1 743 -1 117 -1 102 -1 88 -1 8372 -1 534 -1 278 -1 1 -2
126 -1 52 -1 85 -1 2827 -1 6182 -1 253 -1 1 -2
146 -1 4887 -1 85 -1 0 -1 52 -1 1020 -1 1 -2
102 -1 66 -1 170 -1 26 -1 105 -1 84 -1 592 -1 1 -2
126 -1 18 -1 146 -1 52 -1 132 -1 0 -1 10 -1 105 -1 212 -1 124 -2
146 -1 0 -1 66 -1 105 -1 307 -1 0 -1 513 -1 39 -1 429 -1 78 -1 1 -2
146 -1 137 -1 52 -1 0 -1 102 -1 99 -1 516 -1 1 -1 146 -1 0 -1 10 -1 126 -1 66 -1 105 -1 773 -1 1 -2
1647 -1 0 -1 585 -1 52 -1 102 -1 99 -1 119 -1 35 -1 1095 -1 48 -1 1 -2
1065 -1 0 -1 10 -1 3065 -1 2470 -1 1 -2
30 -1 213 -1 95 -1 0 -1 95 -1 64 -1 1 -2
110 -1 1 -2
0 -1 3804 -1 80 -1 1 -2
1065 -1 0 -1 110 -1 891 -1 676 -1 213 -1 1259 -1 52 -1 85 -1 900 -1 537 -1 66 -1 199 -1 3804 -1 1 -2
66 -1 189 -1 66 -1 931 -1 0 -1 199 -1 3804 -1 3804 -1 199 -1 1 -2
0 -1 3804 -1 10 -1 635 -1 1 -2
12653 -1 10 -1 217 -1 1 -2
1065 -1 0 -1 130 -1 217 -1 126 -1 1 -2
1089 -1 0 -1 3804 -1 81 -1 22 -1 778 -1 1 -2
85 -1 180 -1 1 -2
1568 -1 3804 -1 10 -1 180 -1 1 -2
2053 -1 6527 -1 48 -1 1 -2
207 -1 0 -1 10 -1 635 -1 0 -1 1104 -1 10 -1 2049 -1 1 -2
88 -1 85 -1 431 -1 2136 -1 126 -1 6527 -1 1 -2
52 -1 42 -1 0 -1 10 -1 126 -1 822 -1 1415 -1 22528 -1 183 -1 2136 -1 1 -2
126 -1 183 -1 5249 -1 2136 -1 21465 -2