1 -1 #SUP: 2
3 -1 #SUP: 7
5 -1 #SUP: 14
9 -1 #SUP: 2
17 -1 #SUP: 4
18 -1 #SUP: 4
19 -1 #SUP: 11
21 -1 #SUP: 2
31 -1 #SUP: 2
33 -1 #SUP: 3
36 -1 #SUP: 2
42 -1 #SUP: 2
48 -1 #SUP: 15
49 -1 #SUP: 2
50 -1 #SUP: 50
53 -1 #SUP: 2
89 -1 #SUP: 4
93 -1 #SUP: 2
94 -1 #SUP: 2
104 -1 #SUP: 3
107 -1 #SUP: 3
112 -1 #SUP: 2
120 -1 #SUP: 2
138 -1 #SUP: 7
142 -1 #SUP: 3
149 -1 #SUP: 4
151 -1 #SUP: 7
158 -1 #SUP: 2
166 -1 #SUP: 2
210 -1 #SUP: 2
218 -1 #SUP: 4
233 -1 #SUP: 5
247 -1 #SUP: 2
248 -1 #SUP: 8
254 -1 #SUP: 23
277 -1 #SUP: 2
296 -1 #SUP: 5
304 -1 #SUP: 2
337 -1 #SUP: 2
372 -1 #SUP: 3
381 -1 #SUP: 2
384 -1 #SUP: 2
396 -1 #SUP: 2
422 -1 #SUP: 2
428 -1 #SUP: 3
435 -1 #SUP: 2
444 -1 #SUP: 2
465 -1 #SUP: 3
472 -1 #SUP: 4
483 -1 #SUP: 2
505 -1 #SUP: 2
557 -1 #SUP: 3
577 -1 #SUP: 3
580 -1 #SUP: 2
593 -1 #SUP: 3
603 -1 #SUP: 4
622 -1 #SUP: 2
657 -1 #SUP: 2
677 -1 #SUP: 4
708 -1 #SUP: 3
718 -1 #SUP: 2
748 -1 #SUP: 3
760 -1 #SUP: 2
812 -1 #SUP: 2
893 -1 #SUP: 3
906 -1 #SUP: 4
928 -1 #SUP: 3
929 -1 #SUP: 2
932 -1 #SUP: 2
966 -1 #SUP: 2
982 -1 #SUP: 2
1251 -1 #SUP: 2
1452 -1 #SUP: 2
1474 -1 #SUP: 2
1481 -1 #SUP: 3
2011 -1 #SUP: 3
2090 -1 #SUP: 4
2222 -1 #SUP: 2
2257 -1 #SUP: 2
2472 -1 #SUP: 2
2706 -1 #SUP: 2
4053 -1 #SUP: 2
5548 -1 #SUP: 2
7629 -1 #SUP: 2
21466 -1 #SUP: 2
35238 -1 #SUP: 2
46330 -1 #SUP: 2
46339 -1 #SUP: 2
3 -1 50 -1 #SUP: 3
5 -1 5 -1 #SUP: 2
5 -1 17 -1 #SUP: 4
5 -1 18 -1 #SUP: 4
5 -1 50 -1 #SUP: 2
5 -1 166 -1 #SUP: 2
5 -1 1474 -1 #SUP: 2
5 -1 2011 -1 #SUP: 2
5 -1 5548 -1 #SUP: 2
5 -1 46330 -1 #SUP: 2
5 -1 46339 -1 #SUP: 2
17 -1 5 -1 #SUP: 2
17 -1 5548 -1 #SUP: 2
18 -1 5 -1 #SUP: 2
18 -1 17 -1 #SUP: 4
18 -1 5548 -1 #SUP: 2
19 -1 19 -1 #SUP: 2
48 -1 19 -1 #SUP: 2
48 -1 48 -1 #SUP: 2
48 -1 50 -1 #SUP: 2
48 -1 53 -1 #SUP: 2
48 -1 138 -1 #SUP: 3
48 -1 254 -1 #SUP: 3
48 -1 296 -1 #SUP: 2
48 -1 372 -1 #SUP: 2
48 -1 893 -1 #SUP: 2
48 -1 928 -1 #SUP: 2
50 -1 19 -1 #SUP: 3
50 -1 21 -1 #SUP: 2
50 -1 48 -1 #SUP: 5
50 -1 50 -1 #SUP: 10
50 -1 138 -1 #SUP: 3
50 -1 149 -1 #SUP: 2
50 -1 151 -1 #SUP: 3
50 -1 158 -1 #SUP: 2
50 -1 248 -1 #SUP: 2
50 -1 254 -1 #SUP: 6
50 -1 472 -1 #SUP: 2
50 -1 593 -1 #SUP: 2
50 -1 603 -1 #SUP: 2
50 -1 677 -1 #SUP: 3
50 -1 906 -1 #SUP: 2
50 -1 1452 -1 #SUP: 2
53 -1 372 -1 #SUP: 2
53 -1 893 -1 #SUP: 2
89 -1 50 -1 #SUP: 2
89 -1 966 -1 #SUP: 2
94 -1 50 -1 #SUP: 2
104 -1 50 -1 #SUP: 2
104 -1 107 -1 #SUP: 3
107 -1 50 -1 #SUP: 2
151 -1 3 -1 #SUP: 2
151 -1 50 -1 #SUP: 3
210 -1 50 -1 #SUP: 2
218 -1 19 -1 #SUP: 2
218 -1 35238 -1 #SUP: 2
233 -1 50 -1 #SUP: 3
233 -1 254 -1 #SUP: 2
248 -1 50 -1 #SUP: 2
254 -1 3 -1 #SUP: 2
254 -1 19 -1 #SUP: 3
254 -1 48 -1 #SUP: 2
254 -1 50 -1 #SUP: 7
254 -1 138 -1 #SUP: 2
254 -1 151 -1 #SUP: 4
254 -1 158 -1 #SUP: 2
254 -1 248 -1 #SUP: 3
254 -1 254 -1 #SUP: 4
254 -1 396 -1 #SUP: 2
254 -1 472 -1 #SUP: 4
254 -1 677 -1 #SUP: 2
254 -1 748 -1 #SUP: 2
254 -1 906 -1 #SUP: 4
254 -1 21466 -1 #SUP: 2
277 -1 50 -1 #SUP: 2
296 -1 812 -1 #SUP: 2
296 -1 932 -1 #SUP: 2
372 -1 893 -1 #SUP: 3
428 -1 50 -1 #SUP: 3
465 -1 50 -1 #SUP: 2
472 -1 19 -1 #SUP: 2
472 -1 254 -1 #SUP: 2
472 -1 906 -1 #SUP: 3
557 -1 49 -1 #SUP: 2
577 -1 19 -1 #SUP: 2
748 -1 151 -1 #SUP: 2
748 -1 2472 -1 #SUP: 2
812 -1 932 -1 #SUP: 2
906 -1 19 -1 #SUP: 2
906 -1 254 -1 #SUP: 2
928 -1 50 -1 #SUP: 2
966 -1 50 -1 #SUP: 2
2090 -1 5 -1 #SUP: 3
2090 -1 2011 -1 #SUP: 2
2222 -1 138 -1 #SUP: 2
2257 -1 50 -1 #SUP: 2
2472 -1 151 -1 #SUP: 2
5548 -1 50 -1 #SUP: 2
46339 -1 1474 -1 #SUP: 2
5 -1 17 -1 5 -1 #SUP: 2
5 -1 17 -1 5548 -1 #SUP: 2
5 -1 18 -1 5 -1 #SUP: 2
5 -1 18 -1 17 -1 #SUP: 4
5 -1 18 -1 5548 -1 #SUP: 2
5 -1 46339 -1 1474 -1 #SUP: 2
18 -1 17 -1 5 -1 #SUP: 2
18 -1 17 -1 5548 -1 #SUP: 2
48 -1 53 -1 372 -1 #SUP: 2
48 -1 53 -1 893 -1 #SUP: 2
48 -1 372 -1 893 -1 #SUP: 2
50 -1 50 -1 138 -1 #SUP: 3
50 -1 254 -1 50 -1 #SUP: 2
50 -1 254 -1 151 -1 #SUP: 2
50 -1 254 -1 906 -1 #SUP: 2
53 -1 372 -1 893 -1 #SUP: 2
89 -1 966 -1 50 -1 #SUP: 2
104 -1 107 -1 50 -1 #SUP: 2
233 -1 50 -1 254 -1 #SUP: 2
254 -1 19 -1 19 -1 #SUP: 2
254 -1 50 -1 50 -1 #SUP: 2
254 -1 50 -1 138 -1 #SUP: 2
254 -1 50 -1 158 -1 #SUP: 2
254 -1 151 -1 3 -1 #SUP: 2
254 -1 151 -1 50 -1 #SUP: 2
254 -1 472 -1 19 -1 #SUP: 2
254 -1 472 -1 254 -1 #SUP: 2
254 -1 472 -1 906 -1 #SUP: 3
254 -1 906 -1 19 -1 #SUP: 2
254 -1 906 -1 254 -1 #SUP: 2
296 -1 812 -1 932 -1 #SUP: 2
472 -1 19 -1 19 -1 #SUP: 2
472 -1 906 -1 19 -1 #SUP: 2
472 -1 906 -1 254 -1 #SUP: 2
748 -1 2472 -1 151 -1 #SUP: 2
906 -1 19 -1 19 -1 #SUP: 2
2090 -1 5 -1 2011 -1 #SUP: 2
5 -1 18 -1 17 -1 5 -1 #SUP: 2
5 -1 18 -1 17 -1 5548 -1 #SUP: 2
48 -1 53 -1 372 -1 893 -1 #SUP: 2
254 -1 472 -1 19 -1 19 -1 #SUP: 2
254 -1 472 -1 906 -1 19 -1 #SUP: 2
254 -1 472 -1 906 -1 254 -1 #SUP: 2
254 -1 906 -1 19 -1 19 -1 #SUP: 2
472 -1 906 -1 19 -1 19 -1 #SUP: 2
254 -1 472 -1 906 -1 19 -1 19 -1 #SUP: 2
