11 -1 #SUP: 7
19 -1 #SUP: 3
21 -1 #SUP: 3
27 -1 #SUP: 3
29 -1 #SUP: 6
33 -1 #SUP: 5
48 -1 #SUP: 16
49 -1 #SUP: 12
50 -1 #SUP: 36
65 -1 #SUP: 2
79 -1 #SUP: 11
89 -1 #SUP: 12
94 -1 #SUP: 2
108 -1 #SUP: 2
115 -1 #SUP: 2
122 -1 #SUP: 3
128 -1 #SUP: 6
132 -1 #SUP: 2
135 -1 #SUP: 2
138 -1 #SUP: 2
142 -1 #SUP: 3
149 -1 #SUP: 3
167 -1 #SUP: 3
178 -1 #SUP: 7
202 -1 #SUP: 3
210 -1 #SUP: 3
218 -1 #SUP: 7
233 -1 #SUP: 7
248 -1 #SUP: 15
254 -1 #SUP: 17
256 -1 #SUP: 2
279 -1 #SUP: 3
281 -1 #SUP: 2
283 -1 #SUP: 5
288 -1 #SUP: 2
289 -1 #SUP: 3
296 -1 #SUP: 3
315 -1 #SUP: 2
339 -1 #SUP: 4
381 -1 #SUP: 2
387 -1 #SUP: 5
389 -1 #SUP: 2
428 -1 #SUP: 2
429 -1 #SUP: 2
434 -1 #SUP: 3
439 -1 #SUP: 2
444 -1 #SUP: 3
471 -1 #SUP: 2
480 -1 #SUP: 2
505 -1 #SUP: 3
520 -1 #SUP: 2
540 -1 #SUP: 2
581 -1 #SUP: 2
597 -1 #SUP: 2
606 -1 #SUP: 5
637 -1 #SUP: 2
640 -1 #SUP: 2
645 -1 #SUP: 2
668 -1 #SUP: 3
696 -1 #SUP: 4
735 -1 #SUP: 3
738 -1 #SUP: 2
739 -1 #SUP: 10
748 -1 #SUP: 3
804 -1 #SUP: 3
883 -1 #SUP: 2
918 -1 #SUP: 2
921 -1 #SUP: 2
923 -1 #SUP: 2
927 -1 #SUP: 2
928 -1 #SUP: 3
933 -1 #SUP: 4
962 -1 #SUP: 2
1047 -1 #SUP: 2
1079 -1 #SUP: 2
1099 -1 #SUP: 2
1154 -1 #SUP: 2
1161 -1 #SUP: 3
1237 -1 #SUP: 6
1320 -1 #SUP: 2
1397 -1 #SUP: 2
1477 -1 #SUP: 2
1478 -1 #SUP: 2
1615 -1 #SUP: 2
1761 -1 #SUP: 3
1777 -1 #SUP: 2
1824 -1 #SUP: 2
1850 -1 #SUP: 3
2020 -1 #SUP: 5
2075 -1 #SUP: 4
2090 -1 #SUP: 4
2142 -1 #SUP: 3
2252 -1 #SUP: 8
2307 -1 #SUP: 3
2396 -1 #SUP: 4
2478 -1 #SUP: 3
2680 -1 #SUP: 2
2772 -1 #SUP: 2
2876 -1 #SUP: 2
2925 -1 #SUP: 2
3392 -1 #SUP: 2
3493 -1 #SUP: 2
3938 -1 #SUP: 2
4130 -1 #SUP: 6
4590 -1 #SUP: 2
5311 -1 #SUP: 3
6811 -1 #SUP: 2
7080 -1 #SUP: 3
8078 -1 #SUP: 2
8282 -1 #SUP: 2
19654 -1 #SUP: 3
20391 -1 #SUP: 2
52968 -1 #SUP: 3
11 -1 21 -1 #SUP: 2
11 -1 49 -1 #SUP: 2
11 -1 79 -1 #SUP: 5
11 -1 4130 -1 #SUP: 4
21 -1 48 -1 #SUP: 2
27 -1 49 -1 #SUP: 2
27 -1 50 -1 #SUP: 2
27 -1 739 -1 #SUP: 2
29 -1 48 -1 #SUP: 3
29 -1 50 -1 #SUP: 3
29 -1 505 -1 #SUP: 2
48 -1 50 -1 #SUP: 5
48 -1 89 -1 #SUP: 2
48 -1 233 -1 #SUP: 2
48 -1 248 -1 #SUP: 2
48 -1 254 -1 #SUP: 2
48 -1 1237 -1 #SUP: 2
49 -1 49 -1 #SUP: 3
49 -1 50 -1 #SUP: 2
49 -1 89 -1 #SUP: 2
49 -1 178 -1 #SUP: 3
49 -1 248 -1 #SUP: 2
49 -1 254 -1 #SUP: 2
49 -1 387 -1 #SUP: 2
49 -1 597 -1 #SUP: 2
49 -1 739 -1 #SUP: 3
49 -1 3938 -1 #SUP: 2
49 -1 4130 -1 #SUP: 2
50 -1 48 -1 #SUP: 5
50 -1 49 -1 #SUP: 4
50 -1 50 -1 #SUP: 6
50 -1 89 -1 #SUP: 5
50 -1 108 -1 #SUP: 2
50 -1 115 -1 #SUP: 2
50 -1 138 -1 #SUP: 2
50 -1 233 -1 #SUP: 2
50 -1 248 -1 #SUP: 3
50 -1 254 -1 #SUP: 3
50 -1 389 -1 #SUP: 2
50 -1 505 -1 #SUP: 2
50 -1 739 -1 #SUP: 3
50 -1 1047 -1 #SUP: 2
50 -1 1079 -1 #SUP: 2
50 -1 1850 -1 #SUP: 2
79 -1 21 -1 #SUP: 2
79 -1 49 -1 #SUP: 4
79 -1 50 -1 #SUP: 2
79 -1 178 -1 #SUP: 2
79 -1 696 -1 #SUP: 2
89 -1 89 -1 #SUP: 2
89 -1 233 -1 #SUP: 3
128 -1 29 -1 #SUP: 2
128 -1 50 -1 #SUP: 6
128 -1 1477 -1 #SUP: 2
128 -1 2478 -1 #SUP: 2
138 -1 50 -1 #SUP: 2
167 -1 739 -1 #SUP: 2
178 -1 49 -1 #SUP: 3
178 -1 178 -1 #SUP: 3
178 -1 248 -1 #SUP: 2
178 -1 597 -1 #SUP: 2
178 -1 739 -1 #SUP: 2
178 -1 1154 -1 #SUP: 2
178 -1 1161 -1 #SUP: 2
178 -1 3938 -1 #SUP: 2
218 -1 27 -1 #SUP: 2
218 -1 48 -1 #SUP: 2
218 -1 49 -1 #SUP: 3
218 -1 50 -1 #SUP: 4
218 -1 606 -1 #SUP: 2
218 -1 739 -1 #SUP: 2
233 -1 50 -1 #SUP: 2
233 -1 89 -1 #SUP: 2
248 -1 50 -1 #SUP: 4
248 -1 739 -1 #SUP: 2
248 -1 1047 -1 #SUP: 2
248 -1 1237 -1 #SUP: 2
254 -1 27 -1 #SUP: 2
254 -1 48 -1 #SUP: 2
254 -1 49 -1 #SUP: 3
254 -1 50 -1 #SUP: 5
254 -1 79 -1 #SUP: 2
254 -1 178 -1 #SUP: 3
254 -1 233 -1 #SUP: 2
254 -1 248 -1 #SUP: 3
254 -1 254 -1 #SUP: 3
254 -1 739 -1 #SUP: 2
254 -1 918 -1 #SUP: 2
254 -1 1154 -1 #SUP: 2
254 -1 1237 -1 #SUP: 2
254 -1 1850 -1 #SUP: 2
254 -1 2772 -1 #SUP: 2
254 -1 2925 -1 #SUP: 2
254 -1 4130 -1 #SUP: 3
256 -1 79 -1 #SUP: 2
279 -1 50 -1 #SUP: 2
279 -1 248 -1 #SUP: 2
289 -1 50 -1 #SUP: 2
387 -1 29 -1 #SUP: 2
387 -1 50 -1 #SUP: 2
387 -1 505 -1 #SUP: 2
439 -1 48 -1 #SUP: 2
439 -1 50 -1 #SUP: 2
439 -1 233 -1 #SUP: 2
444 -1 48 -1 #SUP: 2
520 -1 606 -1 #SUP: 2
597 -1 49 -1 #SUP: 2
597 -1 178 -1 #SUP: 2
597 -1 3938 -1 #SUP: 2
606 -1 49 -1 #SUP: 2
606 -1 739 -1 #SUP: 2
640 -1 248 -1 #SUP: 2
696 -1 49 -1 #SUP: 2
696 -1 178 -1 #SUP: 2
696 -1 1154 -1 #SUP: 2
696 -1 1161 -1 #SUP: 2
739 -1 50 -1 #SUP: 4
739 -1 89 -1 #SUP: 2
739 -1 128 -1 #SUP: 2
739 -1 739 -1 #SUP: 2
739 -1 928 -1 #SUP: 2
748 -1 48 -1 #SUP: 2
804 -1 29 -1 #SUP: 2
804 -1 50 -1 #SUP: 2
883 -1 11 -1 #SUP: 2
883 -1 79 -1 #SUP: 2
883 -1 4130 -1 #SUP: 2
928 -1 923 -1 #SUP: 2
962 -1 49 -1 #SUP: 2
962 -1 606 -1 #SUP: 2
1154 -1 1161 -1 #SUP: 2
1237 -1 50 -1 #SUP: 3
1237 -1 128 -1 #SUP: 2
1237 -1 739 -1 #SUP: 3
1477 -1 50 -1 #SUP: 2
1850 -1 33 -1 #SUP: 2
2075 -1 79 -1 #SUP: 2
2075 -1 202 -1 #SUP: 2
2090 -1 33 -1 #SUP: 2
2090 -1 50 -1 #SUP: 2
2090 -1 89 -1 #SUP: 2
2142 -1 2020 -1 #SUP: 2
2252 -1 254 -1 #SUP: 2
2252 -1 256 -1 #SUP: 2
2252 -1 4590 -1 #SUP: 2
2252 -1 8078 -1 #SUP: 2
2478 -1 50 -1 #SUP: 2
2772 -1 739 -1 #SUP: 2
2772 -1 4130 -1 #SUP: 2
4130 -1 27 -1 #SUP: 2
4130 -1 49 -1 #SUP: 2
4130 -1 79 -1 #SUP: 5
4130 -1 178 -1 #SUP: 2
4130 -1 606 -1 #SUP: 2
4130 -1 739 -1 #SUP: 2
5311 -1 50 -1 #SUP: 2
6811 -1 283 -1 #SUP: 2
8078 -1 4590 -1 #SUP: 2
8282 -1 20391 -1 #SUP: 2
19654 -1 19654 -1 #SUP: 2
52968 -1 218 -1 #SUP: 2
52968 -1 606 -1 #SUP: 2
11 -1 79 -1 21 -1 #SUP: 2
11 -1 79 -1 49 -1 #SUP: 2
11 -1 4130 -1 49 -1 #SUP: 2
11 -1 4130 -1 79 -1 #SUP: 4
27 -1 50 -1 739 -1 #SUP: 2
48 -1 50 -1 233 -1 #SUP: 2
49 -1 49 -1 178 -1 #SUP: 3
49 -1 178 -1 49 -1 #SUP: 2
49 -1 178 -1 178 -1 #SUP: 2
49 -1 178 -1 597 -1 #SUP: 2
49 -1 178 -1 3938 -1 #SUP: 2
49 -1 597 -1 49 -1 #SUP: 2
49 -1 597 -1 178 -1 #SUP: 2
50 -1 48 -1 50 -1 #SUP: 2
50 -1 48 -1 248 -1 #SUP: 2
128 -1 29 -1 50 -1 #SUP: 2
128 -1 1477 -1 50 -1 #SUP: 2
128 -1 2478 -1 50 -1 #SUP: 2
178 -1 49 -1 178 -1 #SUP: 2
178 -1 49 -1 3938 -1 #SUP: 2
178 -1 178 -1 49 -1 #SUP: 2
178 -1 178 -1 178 -1 #SUP: 2
178 -1 178 -1 597 -1 #SUP: 2
178 -1 178 -1 3938 -1 #SUP: 2
178 -1 597 -1 49 -1 #SUP: 2
178 -1 597 -1 178 -1 #SUP: 2
178 -1 597 -1 3938 -1 #SUP: 2
178 -1 1154 -1 1161 -1 #SUP: 2
218 -1 27 -1 50 -1 #SUP: 2
218 -1 27 -1 739 -1 #SUP: 2
218 -1 48 -1 50 -1 #SUP: 2
218 -1 50 -1 739 -1 #SUP: 2
233 -1 50 -1 89 -1 #SUP: 2
248 -1 50 -1 50 -1 #SUP: 2
254 -1 50 -1 48 -1 #SUP: 2
254 -1 79 -1 178 -1 #SUP: 2
254 -1 178 -1 1154 -1 #SUP: 2
254 -1 2772 -1 4130 -1 #SUP: 2
254 -1 4130 -1 79 -1 #SUP: 2
254 -1 4130 -1 178 -1 #SUP: 2
279 -1 248 -1 50 -1 #SUP: 2
597 -1 49 -1 178 -1 #SUP: 2
597 -1 49 -1 3938 -1 #SUP: 2
597 -1 178 -1 3938 -1 #SUP: 2
606 -1 49 -1 739 -1 #SUP: 2
696 -1 178 -1 1154 -1 #SUP: 2
696 -1 178 -1 1161 -1 #SUP: 2
696 -1 1154 -1 1161 -1 #SUP: 2
739 -1 50 -1 89 -1 #SUP: 2
739 -1 128 -1 50 -1 #SUP: 2
883 -1 11 -1 79 -1 #SUP: 2
883 -1 11 -1 4130 -1 #SUP: 2
883 -1 4130 -1 79 -1 #SUP: 2
962 -1 606 -1 49 -1 #SUP: 2
1237 -1 128 -1 50 -1 #SUP: 2
1237 -1 739 -1 50 -1 #SUP: 3
1237 -1 739 -1 128 -1 #SUP: 2
2252 -1 8078 -1 4590 -1 #SUP: 2
2772 -1 4130 -1 739 -1 #SUP: 2
4130 -1 79 -1 49 -1 #SUP: 2
4130 -1 79 -1 178 -1 #SUP: 2
52968 -1 218 -1 606 -1 #SUP: 2
11 -1 4130 -1 79 -1 49 -1 #SUP: 2
49 -1 178 -1 49 -1 178 -1 #SUP: 2
49 -1 178 -1 597 -1 49 -1 #SUP: 2
49 -1 178 -1 597 -1 178 -1 #SUP: 2
49 -1 597 -1 49 -1 178 -1 #SUP: 2
178 -1 49 -1 178 -1 3938 -1 #SUP: 2
178 -1 178 -1 49 -1 178 -1 #SUP: 2
178 -1 178 -1 597 -1 49 -1 #SUP: 2
178 -1 178 -1 597 -1 178 -1 #SUP: 2
178 -1 597 -1 49 -1 178 -1 #SUP: 2
178 -1 597 -1 49 -1 3938 -1 #SUP: 2
178 -1 597 -1 178 -1 3938 -1 #SUP: 2
218 -1 27 -1 50 -1 739 -1 #SUP: 2
254 -1 4130 -1 79 -1 178 -1 #SUP: 2
597 -1 49 -1 178 -1 3938 -1 #SUP: 2
696 -1 178 -1 1154 -1 1161 -1 #SUP: 2
883 -1 11 -1 4130 -1 79 -1 #SUP: 2
1237 -1 739 -1 128 -1 50 -1 #SUP: 2
49 -1 178 -1 597 -1 49 -1 178 -1 #SUP: 2
178 -1 178 -1 597 -1 49 -1 178 -1 #SUP: 2
178 -1 597 -1 49 -1 178 -1 3938 -1 #SUP: 2
