2 -1 #SUP: 2
4 -1 #SUP: 2
7 -1 #SUP: 2
9 -1 #SUP: 2
29 -1 #SUP: 2
30 -1 #SUP: 5
33 -1 #SUP: 6
42 -1 #SUP: 4
48 -1 #SUP: 2
49 -1 #SUP: 9
50 -1 #SUP: 35
54 -1 #SUP: 2
89 -1 #SUP: 5
93 -1 #SUP: 3
94 -1 #SUP: 2
105 -1 #SUP: 2
112 -1 #SUP: 3
115 -1 #SUP: 6
118 -1 #SUP: 3
138 -1 #SUP: 3
142 -1 #SUP: 2
149 -1 #SUP: 7
195 -1 #SUP: 2
210 -1 #SUP: 3
218 -1 #SUP: 3
233 -1 #SUP: 5
247 -1 #SUP: 2
248 -1 #SUP: 7
255 -1 #SUP: 3
262 -1 #SUP: 4
264 -1 #SUP: 2
279 -1 #SUP: 2
296 -1 #SUP: 2
304 -1 #SUP: 2
339 -1 #SUP: 3
384 -1 #SUP: 2
387 -1 #SUP: 4
423 -1 #SUP: 3
439 -1 #SUP: 4
449 -1 #SUP: 2
465 -1 #SUP: 2
483 -1 #SUP: 3
484 -1 #SUP: 2
505 -1 #SUP: 4
551 -1 #SUP: 4
557 -1 #SUP: 2
603 -1 #SUP: 6
625 -1 #SUP: 2
637 -1 #SUP: 2
640 -1 #SUP: 4
665 -1 #SUP: 2
927 -1 #SUP: 4
928 -1 #SUP: 4
1034 -1 #SUP: 6
1049 -1 #SUP: 2
1061 -1 #SUP: 3
1242 -1 #SUP: 3
1252 -1 #SUP: 2
1285 -1 #SUP: 2
1303 -1 #SUP: 2
1398 -1 #SUP: 2
1500 -1 #SUP: 2
1522 -1 #SUP: 2
1737 -1 #SUP: 2
2169 -1 #SUP: 3
2478 -1 #SUP: 2
2576 -1 #SUP: 2
3241 -1 #SUP: 2
3920 -1 #SUP: 2
5848 -1 #SUP: 3
5849 -1 #SUP: 2
10440 -1 #SUP: 2
30 -1 7 -1 #SUP: 2
42 -1 50 -1 #SUP: 2
49 -1 50 -1 #SUP: 2
50 -1 33 -1 #SUP: 2
50 -1 42 -1 #SUP: 2
50 -1 50 -1 #SUP: 6
50 -1 115 -1 #SUP: 2
50 -1 149 -1 #SUP: 2
50 -1 233 -1 #SUP: 2
50 -1 248 -1 #SUP: 4
50 -1 387 -1 #SUP: 2
50 -1 439 -1 #SUP: 2
50 -1 1034 -1 #SUP: 2
50 -1 1285 -1 #SUP: 2
89 -1 115 -1 #SUP: 2
93 -1 928 -1 #SUP: 2
93 -1 1252 -1 #SUP: 2
115 -1 42 -1 #SUP: 2
115 -1 50 -1 #SUP: 2
115 -1 233 -1 #SUP: 2
115 -1 3920 -1 #SUP: 2
149 -1 33 -1 #SUP: 2
149 -1 505 -1 #SUP: 2
195 -1 50 -1 #SUP: 2
195 -1 115 -1 #SUP: 2
218 -1 218 -1 #SUP: 2
233 -1 50 -1 #SUP: 2
248 -1 50 -1 #SUP: 2
262 -1 50 -1 #SUP: 3
262 -1 115 -1 #SUP: 2
262 -1 195 -1 #SUP: 2
304 -1 50 -1 #SUP: 2
439 -1 49 -1 #SUP: 2
483 -1 149 -1 #SUP: 2
551 -1 50 -1 #SUP: 2
640 -1 248 -1 #SUP: 2
1034 -1 50 -1 #SUP: 3
1034 -1 149 -1 #SUP: 2
1034 -1 483 -1 #SUP: 2
1285 -1 233 -1 #SUP: 2
1398 -1 483 -1 #SUP: 2
1522 -1 4 -1 #SUP: 2
2169 -1 423 -1 #SUP: 2
3241 -1 50 -1 #SUP: 2
5848 -1 603 -1 #SUP: 2
50 -1 50 -1 50 -1 #SUP: 2
50 -1 50 -1 149 -1 #SUP: 2
50 -1 1285 -1 233 -1 #SUP: 2
115 -1 50 -1 50 -1 #SUP: 2
115 -1 233 -1 50 -1 #SUP: 2
233 -1 50 -1 50 -1 #SUP: 2
262 -1 195 -1 50 -1 #SUP: 2
262 -1 195 -1 115 -1 #SUP: 2
1034 -1 483 -1 149 -1 #SUP: 2
