625 -1 50 -1 1500 -1 477 -1 115 -1 233 -1 640 -1 248 -1 89 -1 233 -1 19 -2
471 -1 423 -1 50 -1 50 -1 105 -1 490 -1 9 -1 233 -1 19 -2
93 -1 48 -1 233 -1 417 -1 428 -1 777 -1 19 -2
2092 -1 1251 -1 50 -1 48 -1 1027 -1 304 -1 118 -1 2956 -1 19 -2
233 -1 472 -1 3894 -1 927 -1 19 -2
640 -1 135 -1 718 -1 3889 -1 777 -1 50 -1 202 -1 9 -1 19 -2
48 -1 135 -1 1890 -1 248 -1 381 -1 19 -2
138 -1 33 -1 906 -1 48 -1 516 -1 1092 -1 304 -1 307 -1 19 -2
307 -1 33 -1 1092 -1 115 -1 19 -2
1092 -1 115 -1 304 -1 19 -2
48 -1 1062 -1 2252 -1 19 -2
4277 -1 136 -1 149 -1 1049 -1 1 -2
1049 -1 1 -2
89 -1 138 -1 65 -1 19 -2
853 -1 1009 -1 4381 -1 1142 -1 19 -2
1009 -1 4381 -1 1142 -1 50 -1 19 -2
1785 -1 637 -1 893 -1 50 -1 50 -1 48 -1 1014 -1 1107 -1 19 -2
640 -1 1577 -1 296 -1 701 -1 909 -1 31 -1 175 -1 50 -1 748 -1 33 -1 748 -1 19 -2
33 -1 50 -1 906 -1 19 -2
635 -1 9 -1 5762 -1 5762 -1 557 -1 233 -1 19 -2
312 -1 50 -1 283 -1 4998 -1 264 -1 6380 -1 1555 -1 2291 -1 5834 -1 19 -2
304 -1 816 -1 112 -1 149 -1 3555 -1 50 -1 89 -1 233 -1 1392 -1 1351 -1 927 -1 19 -2
48 -1 248 -1 495 -1 1351 -1 927 -1 19 -2
421 -1 421 -1 50 -1 287 -1 7210 -1 19 -2
93 -1 7 -1 2509 -1 7 -1 1014 -1 588 -1 875 -1 89 -1 233 -1 19 -2
89 -1 1009 -1 9 -1 5537 -1 19 -2
1572 -1 19046 -1 290 -1 1059 -1 19 -2
4771 -1 149 -1 50 -1 4731 -1 792 -1 19 -2
138 -1 149 -1 2725 -1 283 -1 19 -2
48 -1 516 -1 72 -1 428 -1 283 -1 1143 -1 33 -1 4128 -1 291 -1 1024 -1 19 -2
19 -2
138 -1 118 -1 2412 -1 33 -1 1102 -1 1254 -1 33 -1 702 -1 19 -2
1452 -1 93 -1 367 -1 112 -1 19 -1 19 -1 73 -1 190 -2
233 -1 7 -1 1092 -1 699 -1 966 -1 112 -1 19 -2
1490 -1 569 -1 19 -2
906 -1 3088 -1 19 -2
89 -1 233 -1 9 -1 2 -1 19 -2
1490 -1 50 -1 816 -1 190 -2
1774 -1 19 -2
48 -1 89 -1 1557 -1 1804 -1 19 -2
522 -1 1557 -1 296 -1 50 -1 149 -1 19 -2
1319 -1 660 -1 7 -1 952 -1 11146 -1 50 -1 708 -1 717 -1 2487 -1 7 -1 19 -2
875 -1 370 -1 19 -2
4906 -1 2113 -1 19 -2
248 -1 50 -1 1480 -1 50 -1 708 -1 678 -1 50 -1 248 -1 19 -2
1059 -1 248 -1 708 -1 2951 -1 19 -2
1452 -1 3247 -1 928 -1 6776 -1 1540 -1 335 -1 19 -2
890 -1 50 -1 667 -1 31 -1 248 -1 21220 -1 50 -1 1997 -1 29 -1 2715 -1 19 -2
539 -1 33 -1 50 -1 2718 -1 50 -1 714 -1 375 -1 50 -1 640 -1 7641 -1 19 -2
19 -2
104 -1 107 -1 735 -1 50 -1 3015 -1 1804 -1 19 -2
151 -1 371 -1 50 -1 372 -1 50 -1 374 -1 50 -1 376 -1 7 -1 377 -1 50 -1 931 -1 50 -1 893 -1 50 -1 405 -1 111 -1 818 -1 477 -1 121 -1 19 -2
233 -1 382 -1 50 -1 832 -1 43622 -1 391 -1 50 -1 510 -1 43622 -1 149 -1 19 -2
48 -1 7 -1 118 -1 1271 -1 8089 -1 50 -1 1303 -1 19 -2
377 -1 640 -1 248 -1 1133 -1 6365 -1 818 -1 477 -1 19 -2
174 -1 3470 -1 359 -1 1096 -1 50 -1 377 -1 1090 -1 50 -1 13518 -1 19 -1 19 -1 625 -1 50 -1 3130 -1 1044 -1 48 -1 382 -1 19 -2
1024 -1 50 -1 434 -1 2888 -1 2119 -1 622 -1 444 -1 2829 -1 2828 -1 1143 -1 19 -2
138 -1 398 -1 248 -1 277 -1 434 -1 8077 -1 444 -1 19 -2
48 -1 434 -1 995 -1 19 -2
48 -1 48 -1 288 -1 304 -1 643 -1 444 -1 2829 -1 19 -2
48 -1 708 -1 486 -1 19 -2
19 -2
30 -1 19 -2
495 -1 19 -2
678 -1 19 -2
3098 -1 19 -2
89 -1 138 -1 19 -2
9 -1 718 -1 918 -1 1242 -1 7 -1 19 -2
9 -1 871 -1 398 -1 248 -1 3587 -1 506 -1 19 -2
906 -1 233 -1 1433 -1 19 -2
1452 -1 54 -1 505 -1 19 -2
1008 -1 475 -1 33 -1 149 -1 382 -1 19 -2
680 -1 6046 -1 921 -1 307 -1 50 -1 7 -1 1092 -1 1027 -1 112 -1 19 -2
6046 -1 645 -1 853 -1 812 -1 384 -1 19 -2
30 -1 19 -2
150 -1 19 -2
19474 -1 72 -1 3096 -1 19 -2
4435 -1 5322 -1 19 -2
50 -1 1666 -1 19 -2
891 -1 115 -1 233 -1 50 -1 115 -1 505 -1 891 -1 19 -2
640 -1 248 -1 495 -1 175 -1 2423 -1 270 -1 118 -1 3453 -1 50 -1 89 -1 19 -2
4 -1 893 -1 2319 -1 149 -1 495 -1 1279 -1 1326 -1 19 -2
2330 -1 921 -1 417 -1 4458 -1 1682 -1 47 -1 304 -1 19 -2
477 -1 11240 -1 1443 -1 19 -2
48 -1 643 -1 6215 -1 2171 -1 477 -1 50 -1 89 -1 428 -1 993 -1 6215 -1 19 -2
19 -2
384 -1 50 -1 5875 -1 50 -1 3079 -1 16055 -1 20561 -1 4333 -1 2422 -1 3098 -1 702 -1 345 -1 50 -1 31 -1 2349 -1 487 -1 756 -1 19 -2
625 -1 444 -1 4435 -1 467 -1 19 -2
508 -1 609 -1 123 -1 2848 -1 718 -1 1992 -1 2848 -1 27499 -1 2349 -1 725 -1 19 -2
138 -1 7 -1 1156 -1 6029 -1 19 -2
248 -1 247 -1 104 -1 1194 -1 975 -1 3262 -1 19 -2
637 -1 50 -1 7793 -1 3597 -1 1412 -1 112 -1 5837 -1 19 -2
969 -1 969 -1 50 -1 625 -1 19 -2
73 -1 142 -1 2602 -1 382 -1 50 -1 149 -1 3455 -1 50 -1 404 -1 635 -1 147 -1 89 -1 233 -1 50 -1 1754 -1 640 -1 125 -1 17933 -1 50 -1 19 -2
38042 -1 668 -1 667 -1 2602 -1 472 -1 10388 -1 573 -1 149 -1 89 -1 233 -1 573 -1 19 -2
4906 -1 5184 -1 247 -1 288 -1 538 -1 50 -1 19 -2
233 -1 927 -1 50 -1 1718 -1 1107 -1 687 -1 50 -1 19 -2
48 -1 196 -1 573 -1 777 -1 7167 -1 1107 -1 19 -2
202 -1 1107 -1 687 -1 48 -1 94 -1 982 -1 19 -2
2725 -1 147 -1 233 -1 573 -1 247 -1 26596 -1 149 -1 48 -1 3156 -1 19 -2
471 -1 19 -2
5367 -1 23409 -1 50 -1 19 -2
714 -1 50 -1 1455 -1 2431 -1 247 -1 50 -1 31 -1 149 -1 48 -1 3156 -1 19 -2
4821 -1 48 -1 516 -1 2603 -1 233 -1 2913 -1 19 -2
1254 -1 378 -1 290 -1 9 -1 2223 -1 19 -2
4820 -1 11691 -1 19 -2
748 -1 93 -1 48 -1 516 -1 235 -1 360 -1 4080 -1 50 -1 710 -1 50 -1 27020 -1 50 -1 798 -1 3306 -1 47 -1 1063 -1 4249 -1 771 -1 2029 -1 19 -2
360 -1 19 -2
603 -1 1268 -1 295 -1 3508 -1 19 -2
438 -1 233 -1 139 -1 19 -2
2487 -1 149 -1 2253 -1 434 -1 513 -1 49 -1 551 -1 19 -2
3248 -1 1793 -1 1885 -1 640 -1 50 -1 640 -1 135 -1 444 -1 19 -2
1452 -1 48 -1 516 -1 304 -1 118 -1 149 -1 50 -1 304 -1 50 -1 19 -2
3130 -1 894 -1 31 -1 19 -2
138 -1 270 -1 2372 -1 19 -2
906 -1 3314 -1 1415 -1 1092 -1 50 -1 196 -1 305 -1 258 -1 253 -1 1368 -1 2165 -1 871 -1 2539 -1 50 -1 12041 -1 50 -1 16384 -1 19 -2
1038 -1 1343 -1 9 -1 50 -1 702 -1 633 -1 49 -1 551 -1 19 -2
625 -1 50 -1 2142 -1 1038 -1 49 -1 50 -1 19 -2