312 -1 11275 -1 9761 -1 6640 -1 6796 -1 1878 -1 6640 -1 1478 -1 6 -1 18 -1 17 -1 74963 -1 16325 -1 9761 -1 9761 -1 9805 -1 149 -1 112 -1 53 -1 19 -2
166 -1 22862 -1 608 -1 422 -1 50 -1 422 -1 15465 -1 608 -1 166 -1 18353 -1 19 -2
4548 -1 149 -1 9 -1 11097 -1 439 -1 1652 -1 49 -1 52996 -1 9211 -1 248 -1 381 -1 19 -2
335 -1 627 -1 781 -1 5859 -1 19 -2
8643 -1 1327 -1 19 -2
254 -1 640 -1 3696 -1 2526 -1 147 -1 19 -2
135 -1 167 -1 6677 -1 1304 -1 218 -1 2510 -1 217 -1 2743 -1 50 -1 15110 -1 50 -1 6027 -1 556 -1 422 -1 8372 -1 27340 -1 50 -1 1124 -1 3475 -1 241 -1 50 -1 8902 -1 66368 -1 50 -1 2075 -1 444 -1 50 -1 12954 -1 6403 -1 50 -1 5056 -1 657 -1 19 -1 89 -1 296 -1 19 -2
384 -1 1882 -1 31003 -1 12911 -1 786 -1 31003 -1 10102 -1 8129 -1 12911 -1 4357 -1 118 -1 486 -1 241 -1 50 -1 19 -2
750 -1 194 -1 2850 -1 14859 -1 50 -1 30 -1 50 -1 425 -1 304 -1 7615 -1 521 -1 4332 -1 3369 -1 19 -1 312 -1 509 -1 3369 -1 381 -1 7 -1 50 -1 538 -1 30 -1 19 -2
948 -1 262 -1 49 -1 266 -1 468 -1 697 -1 1336 -1 6832 -1 48 -1 9 -1 19 -2
2509 -1 970 -1 556 -1 926 -1 928 -1 9643 -1 12503 -1 2741 -1 19 -2
254 -1 871 -1 74965 -1 7213 -1 1960 -1 340 -1 4446 -1 3369 -1 9761 -1 312 -1 701 -1 10124 -1 74964 -1 1878 -1 717 -1 2032 -1 50 -1 5549 -1 24836 -1 1878 -1 5549 -1 50 -1 10120 -1 19 -2
4660 -1 30 -1 10393 -1 970 -1 2480 -1 2029 -1 33 -1 258 -1 20215 -1 307 -1 3768 -1 381 -1 2818 -1 5431 -1 638 -1 19 -2
4446 -1 312 -1 22029 -1 9761 -1 2188 -1 1602 -1 1878 -1 921 -1 486 -1 7 -1 6 -1 18 -1 17 -1 74966 -1 3369 -1 9761 -1 5109 -1 108 -1 5969 -1 470 -1 304 -1 1251 -1 31 -1 19 -2
608 -1 19 -2
89 -1 777 -1 2509 -1 3416 -1 26021 -1 19 -2
470 -1 34558 -1 19 -2
477 -1 149 -1 8120 -1 10662 -1 149 -1 50 -1 138 -1 48 -1 49 -1 16071 -1 246 -1 20117 -1 19 -2
2421 -1 10662 -1 1409 -1 74967 -1 255 -1 19 -2
1480 -1 48 -1 5693 -1 8055 -1 3609 -1 462 -1 664 -1 19 -2
470 -1 6212 -1 48 -1 580 -1 50 -1 48 -1 74968 -1 1833 -1 468 -1 4 -1 19 -2
2673 -1 112 -1 8055 -1 3609 -1 6027 -1 462 -1 19 -2
580 -1 48 -1 8055 -1 3609 -1 5693 -1 19 -2
657 -1 48 -1 8055 -1 3609 -1 5682 -1 19 -2
1833 -1 580 -1 48 -1 3609 -1 398 -1 19 -2
1044 -1 3389 -1 2604 -1 19 -2
48 -1 472 -1 655 -1 19 -2
266 -1 4542 -1 9761 -1 50 -1 425 -1 1001 -1 312 -1 19 -2
3389 -1 487 -1 50 -1 657 -1 4542 -1 2281 -1 462 -1 2237 -1 50 -1 580 -1 19 -1 48 -1 3924 -1 21 -1 50 -1 684 -1 7095 -1 435 -1 7095 -1 27 -1 19 -2
444 -1 4942 -1 212 -1 6 -1 18 -1 17 -1 74969 -1 1490 -1 19 -2
49809 -1 53570 -1 50 -1 10951 -1 12181 -1 19 -2
296 -1 471 -1 258 -1 7341 -1 3137 -1 191 -1 736 -1 288 -1 49809 -1 1878 -1 718 -1 1735 -1 19 -2
89 -1 19 -2
202 -1 255 -1 1014 -1 1573 -1 1429 -1 9916 -1 6055 -1 19 -2
312 -1 50 -1 384 -1 1562 -1 1173 -1 48 -1 808 -1 677 -1 6055 -1 1001 -1 19 -2
304 -1 392 -1 19 -2
108 -1 540 -1 138 -1 142 -1 266 -1 19 -2
30 -1 54 -1 1663 -1 1583 -1 19 -2
645 -1 112 -1 1892 -1 50 -1 625 -1 50 -1 717 -1 19 -2
1024 -1 22424 -1 864 -1 1892 -1 106 -1 218 -1 19 -1 868 -1 1892 -1 19 -2
19 -2
254 -1 2673 -1 865 -1 112 -1 19 -2
9231 -1 112 -1 1615 -1 2397 -1 3086 -1 330 -1 1 -2
9231 -1 112 -1 467 -1 31003 -1 12911 -1 48 -1 112 -1 988 -1 8998 -1 1 -1 19 -2
15682 -1 6072 -1 89 -1 640 -1 3375 -1 1557 -1 1112 -1 732 -1 732 -1 289 -1 289 -1 301 -1 13992 -1 551 -1 19 -2
444 -1 1573 -1 3458 -1 3093 -1 287 -1 19 -2
1426 -1 50 -1 13512 -1 2488 -1 512 -1 180 -1 197 -1 950 -1 15465 -1 19 -2
3374 -1 1803 -1 950 -1 50 -1 2225 -1 19 -2
467 -1 50 -1 1024 -1 19 -2
112 -1 657 -1 223 -1 807 -1 3089 -1 19 -2
14346 -1 680 -1 3089 -1 807 -1 147 -1 50 -1 625 -1 19 -2
388 -1 218 -1 645 -1 89 -1 19 -2
718 -1 50 -1 382 -1 7767 -1 89 -1 115 -1 680 -1 50 -1 70869 -1 19 -2
10393 -1 968 -1 67328 -1 898 -1 961 -1 680 -1 50 -1 961 -1 124 -1 7997 -1 18825 -1 898 -1 124 -1 48 -1 1474 -1 19 -2
19 -2
382 -1 89 -1 384 -1 422 -1 89 -1 233 -1 1290 -1 19 -2
48 -1 2439 -1 270 -1 2429 -1 414 -1 2225 -1 804 -1 3488 -1 941 -1 2429 -1 10393 -1 19 -2
13512 -1 19 -2
89 -1 657 -1 1939 -1 1822 -1 468 -1 3909 -1 19 -2
50 -1 714 -1 1330 -1 31 -1 1368 -1 112 -1 124 -1 3909 -1 19 -2
339 -1 15195 -1 5777 -1 1290 -1 1643 -1 1324 -1 1044 -1 48 -1 422 -1 19 -1 2686 -1 112 -1 1279 -1 10393 -1 970 -1 4546 -1 3370 -1 9761 -1 19 -2
696 -1 31 -1 2054 -1 19 -2
5 -1 14811 -1 74971 -1 74972 -1 5 -1 14811 -1 74970 -1 74973 -1 38909 -1 50 -1 38909 -1 50 -1 1540 -1 382 -1 142 -1 248 -1 7651 -1 996 -1 724 -1 19 -2
38909 -1 50 -1 38909 -1 50 -1 1540 -1 382 -1 210 -1 52821 -1 19 -2
5064 -1 355 -1 50 -1 142 -1 48 -1 5431 -1 10394 -1 19 -2
912 -1 50 -1 48 -1 132 -1 19 -2
470 -1 233 -1 112 -1 190 -2
233 -1 928 -1 149 -1 2142 -1 74974 -1 74975 -1 27722 -1 27725 -1 50 -1 21292 -1 129 -1 242 -1 27722 -1 254 -1 135 -1 315 -1 471 -1 19 -2
254 -1 471 -1 267 -1 2024 -1 4 -1 3453 -1 19 -2
6409 -1 50 -1 29 -1 495 -1 19 -2
4219 -1 470 -1 29 -1 48 -1 19 -2
48 -1 816 -1 505 -1 786 -1 325 -1 1123 -1 487 -1 19 -2
11992 -1 11991 -1 7133 -1 36953 -1 113 -1 1123 -1 1443 -1 506 -1 112 -1 580 -1 19 -1 11992 -1 11991 -1 27844 -1 19 -2
532 -1 912 -1 19 -2
5460 -1 377 -1 74976 -1 1514 -1 1 -2
6 -1 2918 -1 1459 -1 74977 -1 2917 -1 1490 -1 19 -2
254 -1 522 -1 2638 -1 2412 -1 1147 -1 1145 -1 19 -2
263 -1 3345 -1 3374 -1 19 -2
6 -1 18 -1 17 -1 74979 -1 6 -1 48 -1 1459 -1 3762 -1 3761 -1 48994 -1 2601 -1 37380 -1 3801 -1 74978 -1 254 -1 601 -1 750 -1 112 -1 1025 -1 112 -1 89 -1 138 -1 2679 -1 339 -1 30 -1 879 -1 47015 -1 19 -2
274 -1 50 -1 304 -1 30 -1 355 -1 27636 -1 19 -2
19 -2
6 -1 29342 -1 48994 -1 9558 -1 5075 -1 17173 -1 74980 -1 149 -1 54 -1 1144 -1 2611 -1 50 -1 54 -1 2568 -1 837 -1 50 -1 114 -1 263 -1 3008 -1 652 -1 19 -1 19 -1 1690 -1 740 -1 21420 -1 7089 -1 74981 -1 19 -2
6 -1 18 -1 17 -1 74982 -1 4528 -1 48920 -1 696 -1 105 -1 30 -1 355 -1 50265 -1 31 -1 175 -1 19 -2
254 -1 444 -1 190 -2
540 -1 19 -2
36 -1 190 -2
42 -1 133 -1 2703 -1 19 -2
2459 -1 6163 -1 495 -1 263 -1 7771 -1 30 -1 928 -1 19 -2
233 -1 2459 -1 1754 -1 163 -1 556 -1 50 -1 18461 -1 50 -1 384 -1 248 -1 374 -1 50 -1 19 -2
696 -1 114 -1 667 -1 3566 -1 48 -1 317 -1 2516 -1 161 -1 2000 -1 20418 -1 2476 -1 2905 -1 6948 -1 161 -1 19 -2
18311 -1 31 -1 439 -1 22182 -1 50 -1 2716 -1 19 -2
114 -1 1928 -1 439 -1 49 -1 4396 -1 2695 -1 3086 -1 941 -1 1268 -1 114 -1 900 -1 19 -2
19 -2
1892 -1 2784 -1 3500 -1 1810 -1 50 -1 89 -1 771 -1 50 -1 2784 -1 6 -1 18 -1 17 -1 74983 -1 4921 -1 4920 -1 4922 -1 498 -1 312 -1 112 -1 422 -1 15825 -1 19 -2
112 -1 422 -1 149 -1 5404 -1 2350 -1 74984 -1 15825 -1 19 -2
18311 -1 2115 -1 2439 -1 19 -2
465 -1 50 -1 61655 -1 18998 -1 6 -1 18 -1 17 -1 74985 -2