6384 -1 79 -1 4133 -1 19 -2
89 -1 1088 -1 19 -2
5499 -1 190 -2
367 -1 18798 -1 702 -1 1429 -1 89 -1 927 -1 19 -2
1049 -1 255 -1 702 -1 6295 -1 155 -1 254 -1 118 -1 19 -2
158 -1 147 -1 19 -2
995 -1 1503 -1 11677 -1 19 -2
118 -1 289 -1 9 -1 584 -1 254 -1 5853 -1 262 -1 3168 -1 19 -2
381 -1 19 -2
1147 -1 48 -1 1819 -1 782 -1 1147 -1 19 -2
19 -2
2142 -1 131 -1 7681 -1 19 -2
1790 -1 19 -2
114 -1 233 -1 1145 -1 19 -2
534 -1 19 -2
387 -1 114 -1 680 -1 2389 -1 5051 -1 1220 -1 49 -1 19 -2
927 -1 142 -1 5004 -1 4690 -1 19 -2
873 -1 50 -1 304 -1 587 -1 177 -1 19 -2
2497 -1 50 -1 48 -1 1414 -1 918 -1 248 -1 19 -2
570 -1 19 -2
233 -1 149 -1 19 -2
444 -1 1626 -1 932 -1 190 -2
248 -1 444 -1 19 -2
3079 -1 3 -1 702 -1 2113 -1 1 -2
622 -1 19 -2
48 -1 114 -1 563 -1 1433 -1 3795 -1 105 -1 484 -1 1062 -1 19 -2
2253 -1 49 -1 19 -2
1581 -1 72 -1 19 -2
428 -1 138 -1 19 -2
48 -1 1027 -1 19 -2
114 -1 47 -1 1503 -1 1397 -1 444 -1 19 -2
1530 -1 627 -1 883 -1 444 -1 48 -1 4691 -1 19 -2
806 -1 1620 -1 3730 -1 2532 -1 19 -2
11 -1 231 -1 33 -1 28 -1 19 -2
180 -1 336 -1 19 -2
115 -1 11 -1 1636 -1 22396 -1 1638 -1 25585 -1 19 -2
753 -1 19 -2
717 -1 19 -2
1373 -1 1647 -1 521 -1 697 -1 2118 -1 1019 -1 19 -2
2671 -1 1303 -1 89 -1 927 -1 449 -1 128 -1 19 -2
1509 -1 19 -2
1544 -1 900 -1 457 -1 19 -2
2701 -1 2020 -1 19 -2
470 -1 248 -1 507 -1 616 -1 19 -2
258 -1 137 -1 131 -1 19 -2
50 -1 148 -1 71043 -1 19 -2
978 -1 248 -1 28 -1 5 -1 23022 -1 460 -1 77802 -1 77801 -1 12187 -1 77803 -1 978 -1 248 -1 28 -1 19 -2
5 -1 23022 -1 460 -1 77802 -1 77801 -1 12187 -1 77803 -1 1220 -1 49 -1 1503 -1 19 -2
48 -1 718 -1 5143 -1 9240 -1 284 -1 19 -2
277 -1 304 -1 296 -1 19 -2
5533 -1 1316 -1 503 -1 19 -2
551 -1 19 -2
329 -1 77804 -1 667 -1 31 -1 1547 -1 18341 -1 6153 -1 9818 -1 19 -2
2671 -1 233 -1 254 -1 7 -1 19 -2
625 -1 50 -1 233 -1 254 -1 873 -1 13992 -1 112 -1 19 -2
48 -1 4486 -1 925 -1 19 -2
2113 -1 345 -1 270 -1 19 -2
1106 -1 19 -2
254 -1 1516 -1 19 -2
89 -1 1207 -1 19 -2
1319 -1 19 -2
387 -1 896 -1 19 -2
470 -1 1373 -1 568 -1 381 -1 19 -2
288 -1 33 -1 99 -1 7615 -1 19 -2
387 -1 48 -1 666 -1 111 -1 3128 -1 478 -1 149 -1 1303 -1 304 -1 825 -1 19 -2
233 -1 777 -1 296 -1 2478 -1 15907 -1 2162 -1 7 -1 19 -2
49 -1 1890 -1 553 -1 66 -1 50 -1 551 -1 50 -1 280 -1 19 -2
163 -1 19 -2
1237 -1 1430 -1 719 -1 1237 -1 719 -1 19 -2
449 -1 2346 -1 1324 -1 719 -1 2240 -1 719 -1 19 -2
50 -1 640 -1 248 -1 77805 -1 19 -2
19 -2
668 -1 1623 -1 163 -1 9067 -1 1031 -1 19 -2
1490 -1 190 -2
717 -1 19 -2
1931 -1 1784 -1 625 -1 19 -2
2266 -1 932 -1 19 -2
1898 -1 148 -1 1768 -1 19 -2
714 -1 50 -1 248 -1 3 -1 340 -1 627 -1 2323 -1 19 -2
110 -1 19 -2
50 -1 108 -1 19 -2
619 -1 190 -2
233 -1 444 -1 19 -2
444 -1 255 -1 50 -1 89 -1 637 -1 19 -2
540 -1 2333 -1 19 -2
3130 -1 1044 -1 44161 -1 19 -2
459 -1 4489 -1 49 -1 551 -1 1623 -1 19 -2
19 -2
122 -1 2522 -1 19 -2
832 -1 1303 -1 89 -1 449 -1 1677 -1 2478 -1 1037 -1 473 -1 478 -1 262 -1 289 -1 2 -1 4296 -1 7 -1 2478 -1 19 -2
918 -1 113 -1 4107 -1 325 -1 262 -1 864 -1 2283 -1 19 -2
2784 -1 4342 -1 1096 -1 2171 -1 19 -2
19 -2
585 -1 19 -2
504 -1 4130 -1 19 -2
2093 -1 6745 -1 19 -2
2364 -1 19 -2
1943 -1 19 -2
667 -1 667 -1 667 -1 19 -2
1729 -1 28 -1 19 -2
677 -1 346 -1 123 -1 19 -2
4824 -1 19 -2
254 -1 2725 -1 2673 -1 627 -1 535 -1 19 -2
50 -1 535 -1 19 -2
121 -1 2024 -1 50 -1 718 -1 277 -1 13992 -1 974 -1 19 -2
677 -1 19 -2
6844 -1 142 -1 8779 -1 3924 -1 1113 -1 388 -1 444 -1 27 -1 19 -2
8220 -1 264 -1 1106 -1 384 -1 11097 -1 3205 -1 19 -2
3249 -1 149 -1 7142 -1 296 -1 19 -2
4130 -1 8672 -1 18378 -1 667 -1 2602 -1 6774 -1 19 -2
457 -1 1091 -1 6284 -1 933 -1 1546 -1 77806 -1 19 -2
444 -1 388 -1 1 -2
625 -1 19 -2
1099 -1 307 -1 1 -2
19 -2
77807 -1 1 -2
19 -2
2509 -1 844 -1 19 -2
48 -1 111 -1 714 -1 640 -1 233 -1 9542 -1 305 -1 975 -1 341 -1 19 -2
233 -1 19 -2
89 -1 1237 -1 19 -2
844 -1 459 -1 19 -2
785 -1 54 -1 9125 -1 131 -1 248 -1 19 -2