1014 -1 33 -1 740 -1 1643 -1 254 -1 9788 -1 50 -1 304 -1 982 -1 667 -1 2800 -1 551 -1 5601 -1 32266 -1 19 -2
3819 -1 2800 -1 26072 -1 384 -1 19 -2
1147 -1 148 -1 194 -1 2582 -1 1878 -1 19 -2
94 -1 1623 -1 3118 -1 8559 -1 6683 -1 19 -2
3130 -1 571 -1 3954 -1 336 -1 5918 -1 806 -1 851 -1 1221 -1 2075 -1 19 -2
148 -1 194 -1 2582 -1 1878 -1 19 -2
94 -1 1623 -1 3118 -1 8559 -1 6683 -1 19 -2
3130 -1 571 -1 3954 -1 336 -1 5918 -1 806 -1 851 -1 1221 -1 2075 -1 19 -2
21698 -1 25428 -1 880 -1 129 -1 19 -2
48 -1 622 -1 3086 -1 19 -2
361 -1 50 -1 417 -1 50 -1 3202 -1 50 -1 270 -1 58624 -1 4373 -1 50 -1 13350 -1 9279 -1 19 -2
290 -1 25547 -1 149 -1 11921 -1 1501 -1 381 -1 3618 -1 1 -2
5 -1 29068 -1 75 -1 1467 -1 1467 -1 588 -1 5163 -1 279 -1 10953 -1 141239 -1 3400 -1 274 -1 50 -1 1477 -1 19 -2
4649 -1 3507 -1 50 -1 138 -1 19 -2
557 -1 47 -1 304 -1 270 -1 48 -1 367 -1 112 -1 50 -1 48 -1 483 -1 148 -1 19 -2
603 -1 928 -1 190 -2
999 -1 906 -1 1409 -1 1546 -1 51499 -1 662 -1 48 -1 298 -1 807 -1 10134 -1 50 -1 567 -1 626 -1 141240 -1 674 -1 50 -1 398 -1 384 -1 922 -1 19 -2
3261 -1 19 -2
50 -1 1014 -1 254 -1 105 -1 296 -1 8020 -1 2663 -1 29228 -1 2393 -1 298 -1 1264 -1 27 -1 298 -1 3261 -1 425 -1 380 -1 2169 -1 190 -2
871 -2
1800 -1 3154 -1 669 -1 181 -1 1799 -1 1806 -1 1366 -1 337 -1 428 -1 6855 -1 398 -1 210 -1 19 -2
50 -1 54 -1 1338 -1 39807 -1 270 -1 2593 -1 286 -1 1285 -1 373 -1 9767 -1 382 -1 1629 -1 1069 -1 19 -2
105 -1 19 -2
625 -1 50 -1 926 -1 19 -2
138 -1 142 -1 288 -1 276 -1 254 -1 9788 -1 750 -1 319 -1 93 -1 422 -1 657 -1 289 -1 281 -1 627 -1 568 -1 19 -2
27 -1 288 -1 19 -2
665 -1 50 -1 640 -1 248 -1 302 -1 1366 -1 175 -1 1366 -1 50 -1 510 -1 513 -1 44651 -1 19 -2
50 -1 50 -1 568 -1 254 -1 80 -1 248 -1 33 -1 4295 -1 19 -2
50 -1 1371 -1 984 -1 337 -1 89 -1 233 -1 138 -1 3909 -1 1342 -1 19 -2
39012 -1 17504 -1 87306 -1 30 -1 30 -1 19 -2
19 -2
19 -2
330 -1 15092 -1 19 -2
661 -1 14586 -1 194 -1 190 -2
11 -1 3118 -1 7036 -1 50 -1 8559 -1 50 -1 148 -1 928 -1 1928 -1 305 -1 756 -1 11 -1 118 -1 950 -1 50 -1 118 -1 5120 -1 1646 -1 19 -2
472 -1 816 -1 19 -2
10773 -1 296 -1 19 -2
332 -1 44 -1 33 -1 105 -1 2800 -1 4971 -1 296 -1 19 -2
48 -1 618 -1 4817 -1 19 -2
1553 -1 50 -1 748 -1 458 -1 1246 -1 5445 -1 428 -1 1412 -1 4592 -1 3818 -1 142 -1 918 -1 3027 -1 6413 -1 19 -2
458 -1 130 -1 498 -1 3453 -1 7618 -1 50 -1 50 -1 933 -1 48 -1 115 -1 175 -1 50 -1 1368 -1 6312 -1 457 -1 114 -1 667 -1 19 -2
1900 -1 2722 -1 677 -1 1666 -1 637 -1 50 -1 50 -1 547 -1 19 -2
918 -1 398 -1 6312 -1 50 -1 142 -1 54 -1 553 -1 301 -1 149 -1 19 -2
8623 -1 521 -1 3402 -1 1679 -1 627 -1 147 -1 85365 -1 18077 -1 19 -2
93 -1 29 -1 4 -1 899 -1 48 -1 487 -1 1716 -1 28562 -1 80442 -1 4053 -1 4386 -1 27520 -1 640 -1 33 -1 19 -2
667 -1 175 -1 50 -1 88035 -1 435 -1 105 -1 637 -1 190 -2
5 -1 18 -1 17 -1 141241 -1 1099 -1 53 -1 49 -1 982 -1 2559 -1 19 -2
254 -1 19 -2
89 -1 248 -1 19 -2
11420 -1 50 -1 304 -1 6026 -1 2559 -1 4649 -1 50 -1 49 -1 19 -2
48 -1 1452 -1 4161 -1 19 -2
388 -1 138 -1 48 -1 49 -1 4677 -1 27066 -1 19 -2
1336 -1 49539 -1 19 -2
896 -1 48 -1 48 -1 50 -1 93 -1 13803 -1 50 -1 428 -1 927 -1 645 -1 35596 -1 1413 -1 471 -1 947 -1 1557 -1 155 -1 19 -2
21744 -1 210 -1 1133 -1 50 -1 1368 -1 2501 -1 2620 -1 190 -2
816 -1 31 -1 50 -1 603 -1 19 -2
2283 -1 48 -1 471 -1 190 -2
999 -1 35948 -1 48 -1 93 -1 422 -1 434 -1 175 -1 296 -1 1096 -1 190 -2
138 -1 179 -1 630 -1 1433 -1 627 -1 462 -1 288 -1 19 -2
619 -1 50 -1 302 -1 8063 -1 2265 -1 8062 -1 19 -2
933 -1 48 -1 289 -1 264 -1 966 -1 714 -1 495 -1 19 -2
254 -1 9819 -1 50 -1 2393 -1 423 -1 4427 -1 254 -1 9819 -1 19 -1 19 -1 48 -1 248 -1 4447 -1 19 -2
444 -1 19 -2
254 -1 66 -1 48 -1 4221 -1 1650 -1 50 -1 1303 -1 599 -1 1653 -1 148 -1 13040 -1 398 -1 50 -1 599 -1 118 -1 457 -1 202 -1 50 -1 2512 -1 4571 -1 630 -1 403 -1 19 -2
7242 -1 149 -1 50 -1 15258 -1 1107 -1 495 -1 138 -1 19 -2
118 -1 1107 -1 19 -2
941 -1 557 -1 2009 -1 1959 -1 521 -1 19 -2
37789 -1 14974 -1 336 -1 23111 -1 3262 -1 14974 -1 336 -1 3758 -1 7891 -1 4732 -1 14974 -1 332 -1 1107 -1 50 -1 5322 -1 816 -1 19 -2
142 -1 138 -1 368 -1 388 -1 9701 -1 593 -1 2336 -1 89 -1 771 -1 921 -1 2205 -1 840 -1 19 -1 19 -1 33 -1 97 -1 301 -1 3155 -1 263 -1 6284 -1 3170 -1 296 -1 263 -1 492 -1 551 -1 1099 -1 27534 -1 385 -1 19 -2
6303 -1 19 -2
3490 -1 3490 -1 50 -1 853 -1 1577 -1 2075 -1 44 -1 50 -1 48 -1 1414 -1 428 -1 5420 -1 190 -1 19 -2
260 -1 2169 -1 493 -1 148 -1 498 -1 50 -1 4309 -1 44 -1 844 -1 50 -1 11071 -1 521 -1 2782 -1 27 -1 3552 -1 1659 -1 148 -1 2620 -1 2075 -1 288 -1 50 -1 19 -2
465 -1 625 -1 465 -1 625 -1 465 -1 625 -1 190 -2
48 -1 3130 -1 19 -2
619 -1 50 -1 148 -1 163 -1 876 -1 49 -1 49 -1 118 -1 439 -1 760 -1 3920 -1 50 -1 1037 -1 1024 -1 1759 -1 495 -1 918 -1 1928 -1 316 -1 1759 -1 2385 -1 19 -2
202 -1 1759 -1 645 -1 316 -1 50 -1 19 -2
48 -1 560 -1 1786 -1 470 -1 233 -1 91996 -1 495 -1 19 -2
1267 -1 9819 -1 50 -1 955 -1 50 -1 55738 -1 1338 -1 19 -2
382 -1 19 -2
5921 -1 336 -1 112 -1 3801 -1 112 -1 1264 -1 1833 -1 49 -1 459 -1 6641 -1 640 -1 3801 -1 50 -1 169 -1 50 -1 9819 -1 9717 -1 388 -1 335 -1 2439 -1 19 -2
254 -1 619 -1 645 -1 3801 -1 19 -2
50 -1 19 -2
434 -1 31 -1 6312 -1 190 -2
50 -1 50 -1 50 -1 444 -1 2522 -1 217 -1 22430 -1 19 -2
270 -1 155 -1 1 -2
1713 -1 50 -1 93 -1 50 -1 6528 -1 166 -1 428 -1 325 -1 19 -2
125829 -1 325 -1 19 -2
254 -1 2639 -1 50 -1 158 -1 2961 -1 4332 -1 2163 -1 1404 -1 4199 -1 774 -1 50 -1 1452 -1 48 -1 486 -1 388 -1 19 -2
332 -1 630 -1 1570 -1 345 -1 27 -1 286 -1 2045 -1 138 -1 2331 -1 147 -1 4915 -1 846 -1 19 -2
332 -1 388 -1 19 -2
141242 -1 11635 -1 223 -1 50479 -1 141243 -1 19 -2
444 -1 190 -2
1707 -1 966 -1 337 -1 304 -1 333 -1 19 -2
932 -1 626 -1 664 -1 6413 -1 19 -2
194 -1 193 -1 667 -1 457 -1 50 -1 3130 -1 39630 -1 24 -1 50 -1 2274 -1 2805 -1 261 -1 1014 -1 141244 -1 15995 -1 2395 -1 1107 -1 19 -2
335 -1 702 -1 54 -1 3938 -1 19 -2
50 -1 48 -1 758 -1 1185 -1 3235 -1 927 -1 428 -1 1316 -1 19 -1 19 -1 23701 -1 1091 -1 521 -1 141245 -1 4122 -1 72 -1 490 -1 149 -1 652 -1 553 -1 248 -1 19 -2
428 -1 1354 -1 19 -2
3856 -1 50 -1 3453 -1 248 -1 1015 -1 44651 -1 72 -1 50 -1 421 -1 53 -1 49 -1 1863 -1 783 -1 6627 -1 19 -2
10394 -1 10393 -1 5451 -1 10944 -1 112 -1 27160 -1 4541 -1 449 -1 337 -1 982 -1 660 -1 112 -1 2423 -1 658 -1 19 -2
254 -1 112 -1 657 -1 50 -1 19 -2