2 -1 #SUP: 7
4 -1 #SUP: 2
7 -1 #SUP: 10
19 -1 #SUP: 12
29 -1 #SUP: 3
30 -1 #SUP: 2
31 -1 #SUP: 2
47 -1 #SUP: 3
48 -1 #SUP: 3
49 -1 #SUP: 5
50 -1 #SUP: 64
89 -1 #SUP: 7
110 -1 #SUP: 2
111 -1 #SUP: 2
112 -1 #SUP: 3
115 -1 #SUP: 3
118 -1 #SUP: 4
138 -1 #SUP: 10
147 -1 #SUP: 2
148 -1 #SUP: 2
149 -1 #SUP: 12
163 -1 #SUP: 2
166 -1 #SUP: 2
167 -1 #SUP: 2
175 -1 #SUP: 2
210 -1 #SUP: 2
233 -1 #SUP: 3
248 -1 #SUP: 7
258 -1 #SUP: 3
270 -1 #SUP: 3
296 -1 #SUP: 4
301 -1 #SUP: 3
302 -1 #SUP: 3
330 -1 #SUP: 3
335 -1 #SUP: 2
373 -1 #SUP: 4
382 -1 #SUP: 4
384 -1 #SUP: 2
391 -1 #SUP: 2
434 -1 #SUP: 2
439 -1 #SUP: 2
470 -1 #SUP: 5
471 -1 #SUP: 4
477 -1 #SUP: 2
507 -1 #SUP: 3
516 -1 #SUP: 2
535 -1 #SUP: 2
540 -1 #SUP: 3
553 -1 #SUP: 3
557 -1 #SUP: 2
559 -1 #SUP: 2
570 -1 #SUP: 2
590 -1 #SUP: 2
625 -1 #SUP: 2
652 -1 #SUP: 2
702 -1 #SUP: 2
708 -1 #SUP: 3
710 -1 #SUP: 3
718 -1 #SUP: 2
739 -1 #SUP: 2
792 -1 #SUP: 2
832 -1 #SUP: 3
867 -1 #SUP: 2
894 -1 #SUP: 2
918 -1 #SUP: 2
930 -1 #SUP: 2
933 -1 #SUP: 2
975 -1 #SUP: 2
998 -1 #SUP: 3
1024 -1 #SUP: 2
1096 -1 #SUP: 4
1186 -1 #SUP: 3
1199 -1 #SUP: 2
1252 -1 #SUP: 2
1272 -1 #SUP: 2
1286 -1 #SUP: 3
1292 -1 #SUP: 7
1319 -1 #SUP: 2
1349 -1 #SUP: 2
1373 -1 #SUP: 2
1427 -1 #SUP: 2
1443 -1 #SUP: 2
1659 -1 #SUP: 3
1682 -1 #SUP: 2
1742 -1 #SUP: 2
1762 -1 #SUP: 2
1798 -1 #SUP: 2
1808 -1 #SUP: 2
1881 -1 #SUP: 2
1892 -1 #SUP: 4
2113 -1 #SUP: 6
2223 -1 #SUP: 2
2336 -1 #SUP: 2
2369 -1 #SUP: 2
2679 -1 #SUP: 2
2905 -1 #SUP: 4
2994 -1 #SUP: 2
3078 -1 #SUP: 2
3099 -1 #SUP: 2
3180 -1 #SUP: 2
3373 -1 #SUP: 2
3552 -1 #SUP: 3
3577 -1 #SUP: 3
3694 -1 #SUP: 2
4335 -1 #SUP: 2
4428 -1 #SUP: 2
5279 -1 #SUP: 3
5589 -1 #SUP: 2
7658 -1 #SUP: 2
7677 -1 #SUP: 2
7686 -1 #SUP: 2
7689 -1 #SUP: 6
7709 -1 #SUP: 3
2 -1 50 -1 #SUP: 2
2 -1 1286 -1 #SUP: 2
7 -1 2 -1 #SUP: 2
7 -1 50 -1 #SUP: 2
7 -1 718 -1 #SUP: 2
7 -1 1286 -1 #SUP: 2
7 -1 1892 -1 #SUP: 2
19 -1 19 -1 #SUP: 4
19 -1 50 -1 #SUP: 2
29 -1 50 -1 #SUP: 2
50 -1 7 -1 #SUP: 4
50 -1 49 -1 #SUP: 3
50 -1 50 -1 #SUP: 16
50 -1 110 -1 #SUP: 2
50 -1 149 -1 #SUP: 2
50 -1 270 -1 #SUP: 3
50 -1 330 -1 #SUP: 2
50 -1 382 -1 #SUP: 2
50 -1 718 -1 #SUP: 2
50 -1 792 -1 #SUP: 2
50 -1 975 -1 #SUP: 2
50 -1 1762 -1 #SUP: 2
50 -1 1892 -1 #SUP: 2
50 -1 2113 -1 #SUP: 3
50 -1 2905 -1 #SUP: 2
50 -1 7677 -1 #SUP: 2
50 -1 7689 -1 #SUP: 2
50 -1 7709 -1 #SUP: 2
89 -1 7 -1 #SUP: 2
89 -1 248 -1 #SUP: 2
89 -1 373 -1 #SUP: 2
138 -1 7 -1 #SUP: 2
138 -1 149 -1 #SUP: 2
149 -1 50 -1 #SUP: 5
149 -1 89 -1 #SUP: 2
149 -1 7689 -1 #SUP: 3
166 -1 19 -1 #SUP: 2
167 -1 19 -1 #SUP: 2
233 -1 50 -1 #SUP: 3
330 -1 50 -1 #SUP: 3
335 -1 50 -1 #SUP: 2
470 -1 559 -1 #SUP: 2
471 -1 739 -1 #SUP: 2
535 -1 7689 -1 #SUP: 2
832 -1 49 -1 #SUP: 2
918 -1 50 -1 #SUP: 2
1096 -1 50 -1 #SUP: 2
1292 -1 2994 -1 #SUP: 2
1292 -1 4428 -1 #SUP: 2
1659 -1 7689 -1 #SUP: 2
1808 -1 2905 -1 #SUP: 2
3577 -1 50 -1 #SUP: 3
7677 -1 50 -1 #SUP: 2
7689 -1 50 -1 #SUP: 2
7689 -1 7689 -1 #SUP: 3
7709 -1 2 -1 #SUP: 2
7709 -1 7 -1 #SUP: 3
7709 -1 1286 -1 #SUP: 2
7709 -1 1892 -1 #SUP: 2
7 -1 50 -1 50 -1 #SUP: 2
50 -1 7 -1 1892 -1 #SUP: 2
50 -1 50 -1 7 -1 #SUP: 2
50 -1 50 -1 50 -1 #SUP: 5
50 -1 50 -1 718 -1 #SUP: 2
50 -1 50 -1 2113 -1 #SUP: 2
50 -1 330 -1 50 -1 #SUP: 2
50 -1 7709 -1 7 -1 #SUP: 2
50 -1 7709 -1 1892 -1 #SUP: 2
149 -1 50 -1 7689 -1 #SUP: 2
149 -1 7689 -1 50 -1 #SUP: 2
149 -1 7689 -1 7689 -1 #SUP: 3
330 -1 50 -1 50 -1 #SUP: 2
3577 -1 50 -1 50 -1 #SUP: 2
7689 -1 50 -1 7689 -1 #SUP: 2
7709 -1 7 -1 2 -1 #SUP: 2
7709 -1 7 -1 1286 -1 #SUP: 2
7709 -1 7 -1 1892 -1 #SUP: 2
50 -1 50 -1 50 -1 50 -1 #SUP: 3
50 -1 7709 -1 7 -1 1892 -1 #SUP: 2
149 -1 7689 -1 50 -1 7689 -1 #SUP: 2
