6 -1 1098 -1 65085 -1 640 -1 484 -1 490 -1 2507 -1 13706 -1 2541 -1 1252 -1 270 -1 278 -1 1290 -1 4129 -1 19 -2
6 -1 1098 -1 65087 -1 65086 -1 640 -1 27936 -1 210 -1 19 -2
934 -1 4468 -1 14708 -1 603 -1 955 -1 361 -1 339 -1 48 -1 471 -1 806 -1 1099 -1 771 -1 50 -1 64 -1 19 -2
3958 -1 4060 -1 19 -2
114 -1 262 -1 771 -1 934 -1 31 -1 14708 -1 94 -1 684 -1 928 -1 1748 -1 551 -1 1818 -1 1034 -1 114 -1 750 -1 1771 -1 1581 -1 1949 -1 529 -1 19 -2
37396 -1 1019 -1 1154 -1 1 -2
114 -1 263 -1 1366 -1 135 -1 4174 -1 11 -1 210 -1 254 -1 1154 -1 279 -1 45835 -1 5 -1 1098 -1 65088 -1 428 -1 5107 -1 995 -1 1664 -1 2173 -1 1554 -1 2173 -1 114 -1 105 -1 8096 -1 65089 -1 4963 -1 417 -1 943 -1 19 -2
697 -1 947 -1 10388 -1 871 -1 5 -1 18 -1 17 -1 65090 -1 248 -1 19 -2
4465 -1 1024 -1 48 -1 14266 -1 557 -1 6272 -1 261 -1 2663 -1 19 -2
159 -1 16805 -1 1226 -1 873 -1 19 -2
54 -1 112 -1 8825 -1 263 -1 11097 -1 23548 -1 19 -2
907 -1 1865 -1 19 -2
2746 -1 19 -2
147 -1 2030 -1 7136 -1 65091 -1 851 -1 4051 -1 48 -1 10404 -1 1785 -1 2030 -1 13948 -1 543 -1 1737 -1 3431 -1 2393 -1 417 -1 2982 -1 491 -1 57126 -1 4949 -1 1881 -1 194 -1 9 -1 1754 -1 1251 -1 1804 -1 1916 -1 10916 -1 158 -1 9 -1 158 -1 1892 -1 54 -1 2603 -1 27 -1 114 -1 136 -1 657 -1 606 -1 804 -1 19 -2
3200 -1 208 -1 11105 -1 1044 -1 118 -1 155 -1 114 -1 108 -1 19 -2
29 -1 2139 -1 120 -1 19 -2
813 -1 27 -1 5335 -1 19 -2
6 -1 4851 -1 139 -1 65093 -1 4850 -1 24101 -1 65092 -1 19 -2
724 -1 503 -1 1157 -1 346 -1 724 -1 388 -1 710 -1 254 -1 571 -1 637 -1 571 -1 15457 -1 571 -1 1299 -1 4979 -1 1299 -1 6491 -1 48 -1 548 -1 1939 -1 130 -1 1415 -1 27 -1 9101 -1 1376 -1 462 -1 423 -1 1483 -1 9433 -1 194 -1 4242 -1 2232 -1 1980 -1 39591 -1 115 -1 99 -1 2283 -1 2801 -1 27471 -1 16084 -1 105 -1 717 -1 16084 -1 89 -1 957 -1 1718 -1 1397 -1 5142 -1 5142 -1 29 -1 304 -1 48 -1 4447 -1 19 -2
5 -1 18 -1 17 -1 65095 -1 3346 -1 266 -1 5 -1 18 -1 17 -1 65094 -1 428 -1 136 -1 1818 -1 19 -2
425 -1 563 -1 113 -1 1818 -1 49 -1 1143 -1 261 -1 19 -2
21 -1 434 -1 27 -1 114 -1 233 -1 428 -1 136 -1 1380 -1 439 -1 425 -1 3431 -1 417 -1 5486 -1 13338 -1 2025 -1 1960 -1 21 -1 15881 -1 286 -1 72 -1 19 -2
34545 -1 2741 -1 19 -2
302 -1 677 -1 1448 -1 9253 -1 218 -1 289 -1 281 -1 19 -2
3630 -1 1224 -1 513 -1 975 -1 747 -1 19 -2
1090 -1 278 -1 1448 -1 9253 -1 483 -1 19 -2
233 -1 29 -1 718 -1 771 -1 918 -1 640 -1 248 -1 19 -2
315 -1 483 -1 714 -1 1014 -1 254 -1 2334 -1 640 -1 248 -1 19 -2
5 -1 1098 -1 65096 -1 254 -1 471 -1 378 -1 1143 -1 378 -1 254 -1 4060 -1 8711 -1 5349 -1 83 -1 2663 -1 19 -2
5 -1 65099 -1 65098 -1 65097 -1 1819 -1 601 -1 19 -2
105 -1 114 -1 118 -1 2422 -1 2584 -1 29 -1 50 -1 1348 -1 781 -1 2982 -1 50 -1 48 -1 2115 -1 444 -1 149 -1 50 -1 29 -1 50 -1 72 -1 248 -1 19 -2
114 -1 505 -1 697 -1 6309 -1 175 -1 1452 -1 505 -1 5988 -1 242 -1 19 -2
218 -1 289 -1 281 -1 15102 -1 7353 -1 3672 -1 19 -2
933 -1 114 -1 3025 -1 12576 -1 7671 -1 333 -1 696 -1 251 -1 6923 -1 3814 -1 713 -1 53 -1 918 -1 302 -1 19 -2
4 -1 388 -1 1718 -1 19 -2
138 -1 422 -1 149 -1 2113 -1 218 -1 29 -1 1736 -1 115 -1 19 -2
473 -1 478 -1 89 -1 115 -1 29 -1 1736 -1 19 -2
49 -1 3173 -1 1129 -1 6228 -1 1741 -1 19 -2
652 -1 1147 -1 19 -2
19636 -1 19 -2
1741 -1 1147 -1 652 -1 19 -2
138 -1 48 -1 13939 -1 254 -1 194 -1 2333 -1 19 -2
5848 -1 360 -1 50 -1 444 -1 99 -1 2337 -1 37396 -1 3286 -1 52121 -1 19 -2
3922 -1 48 -1 21997 -1 11434 -1 3816 -1 8711 -1 5349 -1 83 -1 19 -2
460 -1 1664 -1 3089 -1 289 -1 657 -1 460 -1 19 -2
5 -1 18 -1 17 -1 65100 -1 921 -1 1423 -1 11203 -1 1 -2
428 -1 921 -1 21142 -1 1313 -1 190 -2
248 -1 2253 -1 49 -1 724 -1 49 -1 149 -1 19 -2
719 -1 2787 -1 1 -2
6033 -1 6033 -1 1892 -1 1960 -1 147 -1 1 -2
21 -1 1 -2
254 -1 118 -1 19 -2
2801 -1 50 -1 1992 -1 50 -1 38597 -1 50 -1 118 -1 19 -2
138 -1 210 -1 1 -2
2955 -1 65 -1 254 -1 1102 -1 388 -1 19 -2
640 -1 19 -2
254 -1 29 -1 254 -1 2395 -1 6552 -1 254 -1 5205 -1 8926 -1 1571 -1 325 -1 19 -2
1401 -1 927 -1 149 -1 557 -1 481 -1 19 -2
25060 -1 2603 -1 503 -1 2169 -1 713 -1 210 -1 25060 -1 1397 -1 1793 -1 19 -2
138 -1 37033 -1 207 -1 7653 -1 19 -2
2169 -1 19 -2
2698 -1 121 -1 2055 -1 167 -1 1061 -1 19 -2
471 -1 1062 -1 50 -1 999 -1 50 -1 5002 -1 4060 -1 3878 -1 248 -1 2698 -1 17847 -1 50 -1 6825 -1 878 -1 279 -1 152 -1 112 -1 2698 -1 19 -2
5 -1 18 -1 17 -1 65102 -1 5 -1 18 -1 17 -1 65101 -1 248 -1 89 -1 557 -1 2281 -1 1023 -1 851 -1 115 -1 7211 -1 3979 -1 1299 -1 19 -2
254 -1 947 -1 716 -1 19 -2
1090 -1 677 -1 880 -1 118 -1 29 -1 19 -2
471 -1 267 -1 3920 -1 218 -1 289 -1 281 -1 19 -2
27 -1 471 -1 267 -1 50 -1 760 -1 105 -1 927 -1 233 -1 19 -2
108 -1 19 -2
167 -1 606 -1 263 -1 66 -1 1874 -1 7010 -1 167 -1 657 -1 19 -1 262 -1 606 -1 439 -1 921 -1 19 -2
1874 -1 38 -1 7010 -1 1029 -1 388 -1 724 -1 503 -1 19 -2
465 -1 5606 -1 89 -1 302 -1 19 -2
10106 -1 289 -1 180 -1 280 -1 27 -1 2288 -1 571 -1 384 -1 3921 -1 2607 -1 528 -1 7319 -1 528 -1 380 -1 19 -2
4727 -1 1061 -1 50 -1 89 -1 8762 -1 681 -1 1061 -1 19 -2
105 -1 3601 -1 19 -2
1529 -1 50 -1 1246 -1 1881 -1 304 -1 270 -1 7757 -1 19 -2
3873 -1 19 -2