677 -1 9241 -1 19 -2
138 -1 503 -1 553 -1 149 -1 4483 -1 248 -1 771 -1 3630 -1 473 -1 478 -1 10097 -1 871 -1 603 -1 270 -1 325 -1 14862 -1 190 -2
955 -1 5633 -1 190 -2
36 -1 612 -1 510 -1 190 -2
233 -1 928 -1 3005 -1 640 -1 645 -1 19 -2
2539 -1 4 -1 710 -1 3337 -1 1428 -1 9 -1 50 -1 19 -2
50 -1 505 -1 4175 -1 667 -1 316 -1 609 -1 19 -2
444 -1 725 -1 248 -1 4844 -1 255 -1 19 -2
1243 -1 19 -2
50 -1 995 -1 439 -1 49 -1 625 -1 50 -1 1220 -1 149 -1 3952 -1 2786 -1 1014 -1 6130 -1 561 -1 19 -2
54 -1 559 -1 29579 -1 2393 -1 50 -1 19 -2
553 -1 149 -1 50 -1 505 -1 105 -1 1627 -1 8687 -1 19 -2
4832 -1 936 -1 710 -1 709 -1 19 -2
149 -1 382 -1 1717 -1 5510 -1 4435 -1 19 -2
449 -1 29 -1 505 -1 19 -2
1131 -1 190 -2
1131 -1 190 -2
377 -1 1303 -1 814 -1 296 -1 645 -1 247 -1 5006 -1 2537 -1 1299 -1 19 -2
263 -1 377 -1 16027 -1 190 -2
387 -1 19 -2
640 -1 248 -1 1697 -1 241 -1 19 -2
14500 -1 49 -1 888 -1 1479 -1 1014 -1 254 -1 851 -1 346 -1 142 -1 3197 -1 505 -1 50 -1 3197 -1 190 -2
4527 -1 387 -1 19 -2
355 -1 1131 -1 1131 -1 190 -2
717 -1 190 -2
4525 -1 4577 -1 138 -1 19 -2
657 -1 22654 -1 167 -1 19 -2
2090 -1 157 -1 50 -1 738 -1 483 -1 190 -2
999 -1 1987 -1 50 -1 89 -1 233 -1 31 -1 630 -1 1513 -1 6049 -1 161 -1 13020 -1 663 -1 19 -2
1599 -1 118 -1 2602 -1 19 -2
928 -1 149 -1 534 -1 329 -1 19 -2
411 -1 50 -1 248 -1 329 -1 19 -2
149 -1 1014 -1 138 -1 1 -2
1237 -1 1107 -1 190 -2
296 -1 505 -1 190 -2
1 -2
19 -2
1368 -1 184 -1 5008 -1 19 -2
248 -1 247 -1 483 -1 149 -1 19 -2
233 -1 2 -1 637 -1 2663 -1 760 -1 18053 -1 280 -1 19 -2
1062 -1 387 -1 603 -1 1676 -1 4454 -1 190 -2
262 -1 325 -1 210 -1 427 -1 19 -2
2211 -1 129 -1 1720 -1 19 -2
94 -1 928 -1 449 -1 19 -2
1767 -1 1326 -1 50 -1 89 -1 128726 -1 19 -2
149 -1 54 -1 1291 -1 65140 -1 19 -2
770 -1 33 -1 50 -1 248 -1 149 -1 94 -1 50 -1 1078 -1 50 -1 13755 -1 19 -2
439 -1 12106 -1 50 -1 548 -1 50 -1 194 -1 19 -2
41181 -1 19 -2
4350 -1 13700 -1 19 -2
1244 -1 3768 -1 484 -1 19 -2
3005 -1 19 -2
114 -1 2678 -1 248 -1 3500 -1 19 -2
934 -1 2412 -1 928 -1 296 -1 1638 -1 4249 -1 19 -2
444 -1 1465 -1 597 -1 1696 -1 19 -2
43558 -1 1465 -1 91231 -1 19 -2
529 -1 48 -1 4284 -1 19 -1 23962 -1 43687 -1 19 -2
20621 -1 118 -1 29 -1 30 -1 19 -2
263 -1 233 -1 50 -1 640 -1 825 -1 792 -1 14350 -1 667 -1 637 -1 121 -1 2024 -1 588 -1 138 -1 19 -2
19 -2
16465 -1 50 -1 444 -1 120 -1 190 -2
196 -1 16204 -1 278 -1 120 -1 190 -2
118 -1 5415 -1 36437 -1 490 -1 3246 -1 19 -2
1127 -1 444 -1 9826 -1 709 -1 190 -2
710 -1 709 -1 19 -2
138 -1 802 -1 9147 -1 19 -2
7080 -1 2130 -1 155 -1 128727 -1 19 -2
968 -1 9116 -1 702 -1 148 -1 19 -2
114 -1 3005 -1 627 -1 7230 -1 50 -1 1850 -1 1216 -1 50 -1 1850 -1 5223 -1 551 -1 195 -1 50 -1 640 -1 248 -1 254 -1 158 -1 19 -2
65 -1 1690 -1 969 -1 1688 -1 261 -1 19 -2
65 -1 5853 -1 639 -1 3155 -1 19 -2
65 -1 676 -1 1051 -1 6305 -1 261 -1 2767 -1 19 -2
304 -1 1129 -1 50 -1 1559 -1 149 -1 27 -1 6161 -1 1684 -1 48 -1 2346 -1 388 -1 1559 -1 1 -2
93 -1 8962 -1 1 -2
233 -1 50 -1 471 -1 290 -1 163 -1 19 -2
9005 -1 17292 -1 5705 -1 12453 -1 7980 -1 26879 -1 19 -2
21707 -1 190 -2
48 -1 8266 -1 19 -2
387 -1 289 -1 50 -1 1720 -1 1623 -1 587 -1 19 -2
114 -1 97 -1 799 -1 3141 -1 423 -1 2346 -1 557 -1 1737 -1 4245 -1 50 -1 89 -1 233 -1 19 -2
248 -1 1768 -1 49 -1 49 -1 50 -1 254 -1 43429 -1 5563 -1 2240 -1 449 -1 19 -2
640 -1 248 -1 428 -1 3920 -1 1533 -1 3920 -1 19 -2
557 -1 563 -1 19 -2
934 -1 888 -1 770 -1 2197 -1 678 -1 540 -1 355 -1 6383 -1 1649 -1 128728 -1 50 -1 89 -1 851 -1 702 -1 19 -2
444 -1 41 -1 3203 -1 677 -1 435 -1 317 -1 6062 -1 317 -1 5726 -1 19 -2
355 -1 1915 -1 19 -2
2536 -1 448 -1 19 -2
48 -1 5134 -1 5134 -1 128729 -1 190 -2
48 -1 434 -1 1702 -1 149 -1 6807 -1 448 -1 1 -2
1219 -1 1348 -1 3954 -1 19 -2
49532 -1 50 -1 603 -1 677 -1 3149 -1 31 -1 190 -2
557 -1 1247 -1 1319 -1 19 -2
33 -1 782 -1 9 -1 210 -1 50 -1 210 -1 557 -1 2489 -1 19 -2
665 -1 190 -2
7505 -1 9 -1 640 -1 4896 -1 551 -1 1382 -1 563 -1 1546 -1 4108 -1 190 -2
270 -1 2075 -1 923 -1 19 -2
115 -1 1416 -1 19 -2
625 -1 50 -1 640 -1 11556 -1 19 -2
17758 -1 64 -1 248 -1 19 -2
975 -1 5839 -1 30 -1 4609 -1 19 -2
1237 -1 505 -1 640 -1 50 -1 381 -1 19 -2
1928 -1 2009 -1 19 -2
49 -1 1707 -1 2107 -1 128730 -1 157 -1 2419 -1 190 -2
388 -1 1397 -1 628 -1 444 -1 1 -2
1518 -1 429 -1 417 -1 1 -2
1 -2
2724 -1 2385 -1 1 -2
89 -1 11311 -1 190 -2
1455 -1 50 -1 254 -1 19 -2
2532 -1 968 -1 6448 -1 280 -1 19 -2
557 -1 2904 -1 6448 -1 1741 -1 14312 -1 280 -1 3952 -1 1550 -1 19 -2
42268 -1 50 -1 10512 -1 190 -2
387 -1 142 -1 233 -1 302 -1 19 -2
254 -1 19 -2
1987 -1 50 -1 254 -1 142 -1 91 -1 30 -1 738 -1 483 -1 118 -1 4790 -1 593 -1 332 -1 340 -1 495 -1 899 -1 593 -1 495 -1 2498 -1 19 -2
11105 -1 248 -1 50 -1 470 -1 115 -1 1185 -1 19 -2
18903 -1 49 -1 19 -2
11355 -1 1403 -1 504 -1 2169 -1 1804 -1 19 -2
802 -1 2009 -1 2706 -1 19 -2
1717 -1 2882 -1 2592 -1 19 -2
245 -1 2163 -1 50 -1 5589 -1 7968 -1 19 -2
1452 -1 114 -1 10369 -1 32350 -1 270 -1 384 -1 296 -1 4469 -1 19 -2
444 -1 17570 -1 1091 -1 19 -2
114 -1 179 -1 3919 -1 19 -2
248 -1 484 -1 521 -1 4469 -1 19 -2
233 -1 510 -1 1218 -1 1 -2
84 -1 147 -1 829 -1 4346 -1 19 -2
485 -1 19 -2
471 -1 19 -2
640 -1 642 -1 19 -2
1728 -1 50989 -1 3193 -1 2346 -1 2029 -1 1717 -1 23403 -1 50 -1 17319 -1 11119 -1 1730 -1 1960 -1 19 -2
27718 -1 444 -1 272 -1 271 -1 19 -2
32190 -1 254 -1 15990 -1 444 -1 2029 -1 2115 -1 254 -1 6130 -1 484 -1 14260 -1 61396 -1 928 -1 197 -1 747 -1 449 -1 29 -1 233 -1 19 -2
3884 -1 115 -1 19 -2
175 -1 471 -1 1147 -1 19 -2
1718 -1 33 -1 19 -2
254 -1 12675 -1 16939 -1 5628 -1 233 -1 1865 -1 49 -1 254 -1 130 -1 4367 -1 19 -2
108 -1 4157 -1 417 -1 640 -1 534 -1 3078 -1 233 -1 327 -1 1019 -1 927 -1 483 -1 8577 -1 771 -1 358 -1 149 -1 2947 -1 1129 -1 19 -2
929 -1 50 -1 643 -1 1044 -1 268 -1 19 -2
2840 -1 29 -1 9009 -1 212 -1 19 -2
142 -1 99 -1 1135 -1 4133 -1 193 -1 19 -2
465 -1 5606 -1 190 -2
21707 -1 2385 -1 389 -1 1 -2
1186 -1 4579 -1 190 -2
1980 -1 2360 -1 540 -1 667 -1 31 -1 19 -2
603 -1 266 -1 19 -2
1987 -1 2385 -1 389 -1 279 -1 19 -2
19 -2
2509 -1 551 -1 472 -1 30 -1 495 -1 904 -1 19 -2
449 -1 389 -1 29 -1 495 -1 19 -2
5079 -1 132 -1 155 -1 270 -1 3598 -1 50 -1 2296 -1 50 -1 19 -2
1131 -1 1131 -1 19 -2
557 -1 304 -1 1326 -1 2385 -1 389 -1 19 -2
622 -1 8096 -1 2419 -1 190 -2
33 -1 254 -1 5681 -1 738 -1 76628 -1 568 -1 1992 -1 128731 -1 1725 -1 37621 -1 4319 -1 50 -1 1987 -1 50 -1 248 -1 510 -1 50 -1 47 -1 19 -2