1598 -1 8706 -1 717 -1 190 -2
4517 -1 19 -2
19 -2
4435 -1 389 -1 425 -1 9530 -1 195 -1 19 -2
538 -1 195 -1 4435 -1 19 -2
2298 -1 190 -2
19 -2
3869 -1 739 -1 179 -1 627 -1 803 -1 166 -1 19 -1 3382 -1 167 -1 19 -1 486 -1 2075 -1 1349 -1 1031 -1 166 -1 108 -1 3986 -1 739 -1 195 -1 955 -1 19 -2
375 -1 668 -1 1129 -1 50 -1 792 -1 2159 -1 142 -1 421 -1 406 -1 1117 -1 1931 -1 304 -1 17932 -1 3 -1 474 -1 7 -1 50 -1 678 -1 50 -1 151 -1 1477 -1 50 -1 458 -1 50 -1 888 -1 8075 -1 37509 -1 888 -1 1 -2
603 -1 50 -1 4241 -1 166 -1 19 -1 428 -1 6743 -1 50 -1 248 -1 2777 -1 19 -2
1429 -1 522 -1 254 -1 543 -1 49 -1 50 -1 425 -1 270 -1 1135 -1 637 -1 50 -1 1412 -1 1079 -1 1412 -1 1412 -1 1412 -1 1412 -1 19 -2
166 -1 19 -1 948 -1 7 -1 48 -1 1 -2
248 -1 2330 -1 19 -2
248 -1 633 -1 138 -1 851 -1 2886 -1 50 -1 248 -1 933 -1 117053 -1 50 -1 302 -1 194 -1 543 -1 360 -1 11170 -1 757 -1 8955 -1 117054 -1 4274 -1 2110 -1 194 -1 429 -1 19 -2
625 -1 50 -1 89 -1 194 -1 2110 -1 50 -1 48 -1 933 -1 48 -1 485 -1 50 -1 640 -1 50 -1 89 -1 233 -1 2281 -1 50 -1 19 -2
157 -1 50 -1 89 -1 255 -1 927 -1 640 -1 486 -1 50 -1 48 -1 248 -1 9217 -1 19 -2
459 -1 539 -1 439 -1 539 -1 4527 -1 190 -2
5053 -1 113432 -1 19 -2
50 -1 918 -1 1526 -1 19 -2
1526 -1 1 -2
4527 -1 8890 -1 149 -1 263 -1 19 -2
290 -1 2807 -1 847 -1 19 -2
9551 -1 19 -2
1892 -1 1931 -1 3235 -1 33 -1 4241 -1 19 -2
218 -1 50 -1 382 -1 89 -1 117056 -1 117055 -1 50 -1 425 -1 13522 -1 1249 -1 19 -2
535 -1 19 -2
254 -1 42 -1 50 -1 568 -1 5709 -1 114 -1 1430 -1 50 -1 425 -1 54 -1 483 -1 19 -2
190 -2
166 -1 19 -1 114 -1 263 -1 50 -1 48 -1 663 -1 382 -1 19 -2
947 -1 50 -1 2688 -1 933 -1 912 -1 50 -1 1463 -1 928 -1 449 -1 29 -1 1 -2
4517 -1 190 -2
339 -1 48 -1 2031 -1 48 -1 1551 -1 391 -1 19 -2
195 -1 4349 -1 50 -1 1577 -1 19 -2
54 -1 421 -1 816 -1 776 -1 311 -1 742 -1 3172 -1 155 -1 19 -2
425 -1 742 -1 3485 -1 635 -1 5253 -1 190 -2
4031 -1 4523 -1 3529 -1 625 -1 19 -2
311 -1 3463 -1 2419 -1 474 -1 1136 -1 1316 -1 1279 -1 49 -1 19 -2
2024 -1 50 -1 1279 -1 241 -1 2492 -1 428 -1 19 -2
2169 -1 1818 -1 50 -1 8220 -1 50 -1 668 -1 1503 -1 155 -1 51 -1 288 -1 188 -1 718 -1 2603 -1 155 -1 13263 -1 19 -2
1190 -1 12885 -1 988 -1 50 -1 194 -1 19 -2
926 -1 190 -2
1246 -1 678 -1 2385 -1 847 -1 1480 -1 115 -1 1354 -1 254 -1 6370 -1 105 -1 2204 -1 1120 -1 812 -1 53 -1 337 -1 19 -2
875 -1 304 -1 2999 -1 2253 -1 49 -1 4581 -1 472 -1 4691 -1 2439 -1 1024 -1 1009 -1 19 -2
1452 -1 50 -1 310 -1 969 -1 1481 -1 19 -2
48 -1 2334 -1 19 -1 190 -2
19 -2
947 -1 50 -1 19 -2
53 -1 50 -1 19 -2
2816 -1 19 -2
2302 -1 50 -1 593 -1 4871 -1 72 -1 19 -2
54 -1 49 -1 1286 -1 138 -1 932 -1 876 -1 142 -1 1718 -1 50 -1 142 -1 117057 -1 613 -1 19 -2
93 -1 750 -1 1433 -1 263 -1 2801 -1 11081 -1 19 -2
449 -1 29 -1 472 -1 2385 -1 888 -1 472 -1 1035 -1 19 -2
2092 -1 114 -1 3138 -1 280 -1 7 -1 3 -1 151 -1 1326 -1 50 -1 19 -2
4090 -1 193 -1 713 -1 50 -1 1623 -1 2346 -1 47 -1 1344 -1 50 -1 9311 -1 3431 -1 1480 -1 3819 -1 167 -1 19 -1 94 -1 50 -1 89 -1 138 -1 1487 -1 19 -2
449 -1 29 -1 1279 -1 918 -1 7615 -1 50 -1 2165 -1 928 -1 49 -1 19 -2
988 -1 9279 -1 551 -1 142 -1 557 -1 1247 -1 637 -1 925 -1 190 -2
19 -2
50 -1 50 -1 48 -1 33 -1 1931 -1 2418 -1 5205 -1 655 -1 417 -1 50 -1 2330 -1 264 -1 3532 -1 19 -2
1147 -1 50 -1 19 -2
117058 -1 5946 -1 190 -2
254 -1 5018 -1 50 -1 2767 -1 190 -2
114 -1 263 -1 29 -1 50 -1 1635 -1 93 -1 1900 -1 50 -1 625 -1 19 -2
50 -1 7 -1 29 -1 484 -1 1426 -1 50 -1 3 -1 143 -1 636 -1 218 -1 422 -1 4840 -1 19 -2
151 -1 241 -1 929 -1 2723 -1 478 -1 625 -1 50 -1 2142 -1 110 -1 539 -1 4241 -1 3 -1 1709 -1 2999 -1 190 -2
626 -1 50 -1 310 -1 163 -1 636 -1 7615 -1 50 -1 19 -2
5564 -1 6844 -1 296 -1 190 -2
50 -1 89 -1 1992 -1 2377 -1 467 -1 22531 -1 3572 -1 3499 -1 19 -2
178 -1 50 -1 1438 -1 1930 -1 233 -1 1132 -1 652 -1 19 -2
19571 -1 190 -2
95 -1 110 -1 5157 -1 1874 -1 595 -1 1127 -1 9653 -1 9039 -1 12234 -1 48 -1 477 -1 1570 -1 3256 -1 505 -1 48 -1 288 -1 718 -1 3037 -1 6409 -1 1799 -1 286 -1 425 -1 812 -1 280 -1 111430 -1 4470 -1 853 -1 2031 -1 1037 -1 3460 -1 1019 -1 117059 -1 2639 -1 67339 -1 441 -1 101374 -1 117060 -1 1 -2
53 -1 384 -1 1763 -1 19 -2
9911 -1 9653 -1 9039 -1 12234 -1 248 -1 489 -1 9151 -1 50 -1 149 -1 280 -1 50 -1 969 -1 3 -1 143 -1 636 -1 19 -2
2886 -1 112 -1 50 -1 4581 -1 583 -1 19 -2
7861 -1 50 -1 933 -1 929 -1 19 -2
138 -1 48 -1 9146 -1 3 -1 125 -1 114 -1 680 -1 2470 -1 1579 -1 4842 -1 601 -1 19 -2
2905 -1 202 -1 50 -1 611 -1 478 -1 89 -1 2222 -1 50 -1 425 -1 3172 -1 1777 -1 8292 -1 387 -1 19 -2
109487 -1 4834 -1 1303 -1 381 -1 489 -1 428 -1 483 -1 2207 -1 296 -1 50 -1 191 -1 932 -1 296 -1 1038 -1 1540 -1 429 -1 428 -1 2649 -1 30 -1 29 -1 14350 -1 19 -2
19886 -1 24957 -1 5380 -1 3 -1 1 -2
1481 -1 1 -2
233 -1 1 -2
2643 -1 5767 -1 190 -2
290 -1 9148 -1 25193 -1 19 -2
4090 -1 193 -1 906 -1 190 -2
142 -1 2871 -1 29 -1 7 -1 19 -2
114 -1 337 -1 2941 -1 50 -1 664 -1 1 -2
3 -1 254 -1 1102 -1 301 -1 33 -1 1931 -1 19 -2
2758 -1 263 -1 11419 -2
50 -1 254 -1 472 -1 906 -1 112 -1 2766 -1 19 -2
117053 -1 50 -1 2769 -1 94 -1 2541 -1 468 -1 2769 -1 50 -1 248 -1 118 -1 29 -1 3098 -1 19 -2
5769 -1 1931 -1 425 -1 19 -2
10785 -1 42 -1 277 -1 50 -1 254 -1 301 -1 19 -2
142 -1 948 -1 7305 -1 6043 -1 142 -1 3 -1 50 -1 254 -1 472 -1 2687 -1 304 -1 53 -1 481 -1 468 -1 2769 -1 3 -1 151 -1 48 -1 112 -1 19 -2
118 -1 29 -1 9 -1 2385 -1 50 -1 3480 -1 19 -2
678 -1 151 -1 1156 -1 17932 -1 19 -2
89 -1 233 -1 304 -1 53 -1 5769 -1 19 -2
507 -1 2266 -1 1 -2
109487 -1 50 -1 947 -1 254 -1 898 -1 50 -1 3 -1 429 -1 428 -1 2337 -1 486 -1 1540 -1 12 -1 233 -1 46647 -1 11153 -1 486 -1 1237 -1 149 -1 19 -2
3 -1 115 -1 19 -2