7 -1 #SUP: 8
9 -1 #SUP: 3
27 -1 #SUP: 2
31 -1 #SUP: 4
33 -1 #SUP: 2
47 -1 #SUP: 2
48 -1 #SUP: 14
49 -1 #SUP: 5
50 -1 #SUP: 68
89 -1 #SUP: 6
93 -1 #SUP: 5
94 -1 #SUP: 2
105 -1 #SUP: 2
112 -1 #SUP: 3
114 -1 #SUP: 4
115 -1 #SUP: 9
118 -1 #SUP: 6
121 -1 #SUP: 3
138 -1 #SUP: 9
142 -1 #SUP: 2
147 -1 #SUP: 2
149 -1 #SUP: 9
163 -1 #SUP: 5
175 -1 #SUP: 2
210 -1 #SUP: 6
233 -1 #SUP: 3
248 -1 #SUP: 5
254 -1 #SUP: 8
279 -1 #SUP: 2
288 -1 #SUP: 4
296 -1 #SUP: 3
302 -1 #SUP: 2
304 -1 #SUP: 3
312 -1 #SUP: 2
325 -1 #SUP: 2
360 -1 #SUP: 2
373 -1 #SUP: 3
384 -1 #SUP: 2
388 -1 #SUP: 2
398 -1 #SUP: 3
428 -1 #SUP: 2
439 -1 #SUP: 4
444 -1 #SUP: 5
449 -1 #SUP: 2
465 -1 #SUP: 2
471 -1 #SUP: 3
472 -1 #SUP: 3
474 -1 #SUP: 2
478 -1 #SUP: 2
484 -1 #SUP: 2
485 -1 #SUP: 2
490 -1 #SUP: 2
509 -1 #SUP: 2
518 -1 #SUP: 2
521 -1 #SUP: 5
551 -1 #SUP: 3
553 -1 #SUP: 2
617 -1 #SUP: 2
640 -1 #SUP: 2
658 -1 #SUP: 2
667 -1 #SUP: 2
668 -1 #SUP: 2
678 -1 #SUP: 3
682 -1 #SUP: 2
717 -1 #SUP: 5
718 -1 #SUP: 4
771 -1 #SUP: 3
816 -1 #SUP: 3
845 -1 #SUP: 3
891 -1 #SUP: 2
906 -1 #SUP: 2
928 -1 #SUP: 5
950 -1 #SUP: 2
982 -1 #SUP: 2
999 -1 #SUP: 2
1007 -1 #SUP: 2
1024 -1 #SUP: 2
1026 -1 #SUP: 2
1044 -1 #SUP: 4
1046 -1 #SUP: 2
1063 -1 #SUP: 2
1092 -1 #SUP: 2
1095 -1 #SUP: 2
1106 -1 #SUP: 2
1107 -1 #SUP: 3
1237 -1 #SUP: 3
1455 -1 #SUP: 2
1579 -1 #SUP: 5
1678 -1 #SUP: 2
1682 -1 #SUP: 2
1696 -1 #SUP: 2
1862 -1 #SUP: 2
2115 -1 #SUP: 3
2346 -1 #SUP: 2
2604 -1 #SUP: 3
2660 -1 #SUP: 2
2687 -1 #SUP: 2
2743 -1 #SUP: 2
2945 -1 #SUP: 2
3262 -1 #SUP: 2
3490 -1 #SUP: 2
4243 -1 #SUP: 2
4820 -1 #SUP: 2
6548 -1 #SUP: 2
8266 -1 #SUP: 2
21807 -1 #SUP: 2
25638 -1 #SUP: 2
7 -1 50 -1 #SUP: 3
31 -1 1106 -1 #SUP: 2
48 -1 50 -1 #SUP: 4
48 -1 93 -1 #SUP: 2
48 -1 138 -1 #SUP: 2
48 -1 210 -1 #SUP: 2
48 -1 254 -1 #SUP: 2
48 -1 302 -1 #SUP: 2
48 -1 384 -1 #SUP: 2
49 -1 50 -1 #SUP: 4
49 -1 138 -1 #SUP: 2
50 -1 7 -1 #SUP: 2
50 -1 31 -1 #SUP: 3
50 -1 48 -1 #SUP: 2
50 -1 50 -1 #SUP: 15
50 -1 112 -1 #SUP: 2
50 -1 115 -1 #SUP: 2
50 -1 121 -1 #SUP: 2
50 -1 138 -1 #SUP: 3
50 -1 149 -1 #SUP: 2
50 -1 163 -1 #SUP: 2
50 -1 210 -1 #SUP: 2
50 -1 254 -1 #SUP: 4
50 -1 296 -1 #SUP: 2
50 -1 302 -1 #SUP: 2
50 -1 444 -1 #SUP: 2
50 -1 472 -1 #SUP: 2
50 -1 521 -1 #SUP: 4
50 -1 640 -1 #SUP: 2
50 -1 1007 -1 #SUP: 2
50 -1 1092 -1 #SUP: 2
50 -1 1106 -1 #SUP: 2
50 -1 1237 -1 #SUP: 2
50 -1 1862 -1 #SUP: 2
50 -1 2346 -1 #SUP: 2
89 -1 115 -1 #SUP: 2
93 -1 48 -1 #SUP: 2
93 -1 439 -1 #SUP: 2
112 -1 50 -1 #SUP: 2
115 -1 50 -1 #SUP: 3
115 -1 147 -1 #SUP: 2
118 -1 50 -1 #SUP: 4
138 -1 50 -1 #SUP: 3
149 -1 49 -1 #SUP: 2
149 -1 50 -1 #SUP: 2
149 -1 149 -1 #SUP: 2
149 -1 928 -1 #SUP: 2
163 -1 50 -1 #SUP: 2
210 -1 50 -1 #SUP: 2
254 -1 7 -1 #SUP: 2
254 -1 31 -1 #SUP: 2
254 -1 50 -1 #SUP: 2
254 -1 93 -1 #SUP: 2
254 -1 474 -1 #SUP: 2
254 -1 521 -1 #SUP: 2
254 -1 1106 -1 #SUP: 2
254 -1 2660 -1 #SUP: 2
288 -1 50 -1 #SUP: 3
312 -1 50 -1 #SUP: 2
444 -1 50 -1 #SUP: 2
444 -1 1237 -1 #SUP: 2
465 -1 50 -1 #SUP: 2
478 -1 50 -1 #SUP: 2
484 -1 521 -1 #SUP: 2
490 -1 50 -1 #SUP: 2
551 -1 50 -1 #SUP: 3
617 -1 50 -1 #SUP: 2
640 -1 50 -1 #SUP: 2
891 -1 50 -1 #SUP: 2
928 -1 49 -1 #SUP: 2
928 -1 50 -1 #SUP: 4
999 -1 50 -1 #SUP: 2
1044 -1 50 -1 #SUP: 3
1063 -1 50 -1 #SUP: 2
1579 -1 50 -1 #SUP: 2
1682 -1 47 -1 #SUP: 2
1696 -1 25638 -1 #SUP: 2
2115 -1 373 -1 #SUP: 2
6548 -1 845 -1 #SUP: 2
48 -1 50 -1 302 -1 #SUP: 2
48 -1 254 -1 93 -1 #SUP: 2
50 -1 31 -1 1106 -1 #SUP: 2
50 -1 50 -1 1007 -1 #SUP: 2
50 -1 254 -1 31 -1 #SUP: 2
50 -1 254 -1 521 -1 #SUP: 2
50 -1 254 -1 1106 -1 #SUP: 2
50 -1 640 -1 50 -1 #SUP: 2
118 -1 50 -1 50 -1 #SUP: 3
149 -1 49 -1 50 -1 #SUP: 2
149 -1 928 -1 49 -1 #SUP: 2
149 -1 928 -1 50 -1 #SUP: 2
254 -1 31 -1 1106 -1 #SUP: 2
444 -1 50 -1 50 -1 #SUP: 2
478 -1 50 -1 50 -1 #SUP: 2
551 -1 50 -1 50 -1 #SUP: 2
928 -1 49 -1 50 -1 #SUP: 2
50 -1 254 -1 31 -1 1106 -1 #SUP: 2
149 -1 928 -1 49 -1 50 -1 #SUP: 2
