2 -1 #SUP: 2
6 -1 #SUP: 3
17 -1 #SUP: 3
18 -1 #SUP: 3
19 -1 #SUP: 3
20 -1 #SUP: 2
27 -1 #SUP: 2
33 -1 #SUP: 4
44 -1 #SUP: 3
47 -1 #SUP: 2
48 -1 #SUP: 16
49 -1 #SUP: 3
50 -1 #SUP: 111
53 -1 #SUP: 3
54 -1 #SUP: 3
65 -1 #SUP: 2
67 -1 #SUP: 3
79 -1 #SUP: 2
83 -1 #SUP: 2
89 -1 #SUP: 8
99 -1 #SUP: 3
108 -1 #SUP: 2
113 -1 #SUP: 2
114 -1 #SUP: 8
115 -1 #SUP: 6
118 -1 #SUP: 2
138 -1 #SUP: 4
148 -1 #SUP: 2
149 -1 #SUP: 9
155 -1 #SUP: 2
166 -1 #SUP: 3
175 -1 #SUP: 2
178 -1 #SUP: 2
194 -1 #SUP: 4
210 -1 #SUP: 3
233 -1 #SUP: 9
247 -1 #SUP: 2
248 -1 #SUP: 6
254 -1 #SUP: 19
255 -1 #SUP: 8
258 -1 #SUP: 3
262 -1 #SUP: 2
263 -1 #SUP: 2
264 -1 #SUP: 2
276 -1 #SUP: 4
279 -1 #SUP: 4
287 -1 #SUP: 2
290 -1 #SUP: 2
301 -1 #SUP: 3
302 -1 #SUP: 2
329 -1 #SUP: 2
360 -1 #SUP: 2
362 -1 #SUP: 2
373 -1 #SUP: 2
384 -1 #SUP: 2
417 -1 #SUP: 2
421 -1 #SUP: 4
425 -1 #SUP: 7
444 -1 #SUP: 2
468 -1 #SUP: 2
486 -1 #SUP: 2
514 -1 #SUP: 2
571 -1 #SUP: 2
583 -1 #SUP: 2
627 -1 #SUP: 2
640 -1 #SUP: 4
645 -1 #SUP: 2
652 -1 #SUP: 2
665 -1 #SUP: 2
678 -1 #SUP: 8
702 -1 #SUP: 3
707 -1 #SUP: 2
720 -1 #SUP: 2
739 -1 #SUP: 2
864 -1 #SUP: 3
926 -1 #SUP: 2
927 -1 #SUP: 2
928 -1 #SUP: 2
933 -1 #SUP: 2
950 -1 #SUP: 3
1004 -1 #SUP: 2
1019 -1 #SUP: 2
1034 -1 #SUP: 3
1096 -1 #SUP: 2
1107 -1 #SUP: 2
1237 -1 #SUP: 2
1252 -1 #SUP: 2
1268 -1 #SUP: 3
1483 -1 #SUP: 3
1530 -1 #SUP: 2
1559 -1 #SUP: 2
1717 -1 #SUP: 2
1738 -1 #SUP: 2
1923 -1 #SUP: 2
2059 -1 #SUP: 2
2075 -1 #SUP: 2
2234 -1 #SUP: 4
2285 -1 #SUP: 2
2519 -1 #SUP: 2
2559 -1 #SUP: 3
3078 -1 #SUP: 2
3156 -1 #SUP: 2
3485 -1 #SUP: 2
3577 -1 #SUP: 2
3721 -1 #SUP: 2
4669 -1 #SUP: 2
5051 -1 #SUP: 2
5762 -1 #SUP: 2
5809 -1 #SUP: 2
5817 -1 #SUP: 2
9323 -1 #SUP: 2
11463 -1 #SUP: 2
14479 -1 #SUP: 2
14856 -1 #SUP: 2
21668 -1 #SUP: 2
28685 -1 #SUP: 2
6 -1 6 -1 #SUP: 2
6 -1 17 -1 #SUP: 3
6 -1 18 -1 #SUP: 3
17 -1 6 -1 #SUP: 2
17 -1 17 -1 #SUP: 2
17 -1 18 -1 #SUP: 2
17 -1 50 -1 #SUP: 2
18 -1 6 -1 #SUP: 2
18 -1 17 -1 #SUP: 3
18 -1 18 -1 #SUP: 2
19 -1 50 -1 #SUP: 2
33 -1 50 -1 #SUP: 4
48 -1 33 -1 #SUP: 2
48 -1 50 -1 #SUP: 4
48 -1 53 -1 #SUP: 3
48 -1 1034 -1 #SUP: 2
49 -1 50 -1 #SUP: 3
50 -1 33 -1 #SUP: 3
50 -1 44 -1 #SUP: 2
50 -1 48 -1 #SUP: 4
50 -1 49 -1 #SUP: 3
50 -1 50 -1 #SUP: 27
50 -1 54 -1 #SUP: 3
50 -1 67 -1 #SUP: 2
50 -1 79 -1 #SUP: 2
50 -1 114 -1 #SUP: 2
50 -1 194 -1 #SUP: 2
50 -1 210 -1 #SUP: 2
50 -1 233 -1 #SUP: 2
50 -1 248 -1 #SUP: 2
50 -1 254 -1 #SUP: 3
50 -1 255 -1 #SUP: 4
50 -1 258 -1 #SUP: 3
50 -1 417 -1 #SUP: 2
50 -1 425 -1 #SUP: 4
50 -1 652 -1 #SUP: 2
50 -1 678 -1 #SUP: 2
50 -1 702 -1 #SUP: 2
50 -1 926 -1 #SUP: 2
50 -1 1004 -1 #SUP: 2
50 -1 1268 -1 #SUP: 2
50 -1 1483 -1 #SUP: 2
50 -1 5762 -1 #SUP: 2
50 -1 5809 -1 #SUP: 2
50 -1 5817 -1 #SUP: 2
50 -1 14856 -1 #SUP: 2
50 -1 21668 -1 #SUP: 2
53 -1 1034 -1 #SUP: 2
79 -1 50 -1 #SUP: 2
79 -1 5817 -1 #SUP: 2
89 -1 50 -1 #SUP: 3
89 -1 233 -1 #SUP: 3
89 -1 640 -1 #SUP: 2
99 -1 50 -1 #SUP: 2
114 -1 50 -1 #SUP: 3
114 -1 108 -1 #SUP: 2
138 -1 50 -1 #SUP: 2
166 -1 19 -1 #SUP: 3
166 -1 50 -1 #SUP: 2
233 -1 50 -1 #SUP: 2
233 -1 640 -1 #SUP: 2
248 -1 50 -1 #SUP: 4
254 -1 47 -1 #SUP: 2
254 -1 50 -1 #SUP: 7
254 -1 254 -1 #SUP: 3
255 -1 50 -1 #SUP: 4
262 -1 50 -1 #SUP: 2
276 -1 50 -1 #SUP: 3
279 -1 276 -1 #SUP: 2
301 -1 50 -1 #SUP: 2
425 -1 50 -1 #SUP: 3
486 -1 47 -1 #SUP: 2
486 -1 54 -1 #SUP: 2
678 -1 50 -1 #SUP: 3
864 -1 50 -1 #SUP: 3
926 -1 678 -1 #SUP: 2
1004 -1 50 -1 #SUP: 2
1096 -1 50 -1 #SUP: 2
1268 -1 50 -1 #SUP: 2
1483 -1 210 -1 #SUP: 2
2234 -1 50 -1 #SUP: 3
3156 -1 50 -1 #SUP: 2
5817 -1 50 -1 #SUP: 2
9323 -1 50 -1 #SUP: 2
6 -1 6 -1 17 -1 #SUP: 2
6 -1 6 -1 18 -1 #SUP: 2
6 -1 17 -1 6 -1 #SUP: 2
6 -1 17 -1 17 -1 #SUP: 2
6 -1 17 -1 18 -1 #SUP: 2
6 -1 18 -1 6 -1 #SUP: 2
6 -1 18 -1 17 -1 #SUP: 3
6 -1 18 -1 18 -1 #SUP: 2
17 -1 6 -1 17 -1 #SUP: 2
17 -1 6 -1 18 -1 #SUP: 2
17 -1 18 -1 17 -1 #SUP: 2
18 -1 6 -1 17 -1 #SUP: 2
18 -1 6 -1 18 -1 #SUP: 2
18 -1 17 -1 6 -1 #SUP: 2
18 -1 17 -1 17 -1 #SUP: 2
18 -1 17 -1 18 -1 #SUP: 2
18 -1 18 -1 17 -1 #SUP: 2
48 -1 33 -1 50 -1 #SUP: 2
48 -1 50 -1 50 -1 #SUP: 2
48 -1 53 -1 1034 -1 #SUP: 2
50 -1 33 -1 50 -1 #SUP: 3
50 -1 48 -1 33 -1 #SUP: 2
50 -1 48 -1 50 -1 #SUP: 2
50 -1 49 -1 50 -1 #SUP: 3
50 -1 50 -1 48 -1 #SUP: 2
50 -1 50 -1 50 -1 #SUP: 10
50 -1 50 -1 54 -1 #SUP: 3
50 -1 50 -1 258 -1 #SUP: 2
50 -1 50 -1 425 -1 #SUP: 3
50 -1 79 -1 50 -1 #SUP: 2
50 -1 79 -1 5817 -1 #SUP: 2
50 -1 926 -1 678 -1 #SUP: 2
50 -1 1004 -1 50 -1 #SUP: 2
50 -1 5817 -1 50 -1 #SUP: 2
79 -1 5817 -1 50 -1 #SUP: 2
166 -1 19 -1 50 -1 #SUP: 2
254 -1 50 -1 254 -1 #SUP: 2
255 -1 50 -1 50 -1 #SUP: 2
678 -1 50 -1 50 -1 #SUP: 2
1096 -1 50 -1 50 -1 #SUP: 2
6 -1 6 -1 18 -1 17 -1 #SUP: 2
6 -1 17 -1 6 -1 17 -1 #SUP: 2
6 -1 17 -1 6 -1 18 -1 #SUP: 2
6 -1 17 -1 18 -1 17 -1 #SUP: 2
6 -1 18 -1 6 -1 17 -1 #SUP: 2
6 -1 18 -1 6 -1 18 -1 #SUP: 2
6 -1 18 -1 17 -1 6 -1 #SUP: 2
6 -1 18 -1 17 -1 17 -1 #SUP: 2
6 -1 18 -1 17 -1 18 -1 #SUP: 2
6 -1 18 -1 18 -1 17 -1 #SUP: 2
17 -1 6 -1 18 -1 17 -1 #SUP: 2
18 -1 6 -1 18 -1 17 -1 #SUP: 2
18 -1 17 -1 6 -1 17 -1 #SUP: 2
18 -1 17 -1 6 -1 18 -1 #SUP: 2
18 -1 17 -1 18 -1 17 -1 #SUP: 2
50 -1 48 -1 33 -1 50 -1 #SUP: 2
50 -1 50 -1 50 -1 50 -1 #SUP: 4
50 -1 50 -1 50 -1 425 -1 #SUP: 2
50 -1 79 -1 5817 -1 50 -1 #SUP: 2
6 -1 17 -1 6 -1 18 -1 17 -1 #SUP: 2
6 -1 18 -1 6 -1 18 -1 17 -1 #SUP: 2
6 -1 18 -1 17 -1 6 -1 17 -1 #SUP: 2
6 -1 18 -1 17 -1 6 -1 18 -1 #SUP: 2
6 -1 18 -1 17 -1 18 -1 17 -1 #SUP: 2
18 -1 17 -1 6 -1 18 -1 17 -1 #SUP: 2
50 -1 50 -1 50 -1 50 -1 50 -1 #SUP: 3
6 -1 18 -1 17 -1 6 -1 18 -1 17 -1 #SUP: 2
