2 -1 #SUP: 2
3 -1 #SUP: 4
5 -1 #SUP: 6
9 -1 #SUP: 4
17 -1 #SUP: 3
18 -1 #SUP: 3
19 -1 #SUP: 6
27 -1 #SUP: 4
29 -1 #SUP: 2
30 -1 #SUP: 2
33 -1 #SUP: 4
48 -1 #SUP: 19
49 -1 #SUP: 3
50 -1 #SUP: 34
92 -1 #SUP: 2
94 -1 #SUP: 2
114 -1 #SUP: 2
118 -1 #SUP: 6
138 -1 #SUP: 4
142 -1 #SUP: 3
147 -1 #SUP: 2
149 -1 #SUP: 2
163 -1 #SUP: 2
175 -1 #SUP: 3
218 -1 #SUP: 2
233 -1 #SUP: 5
248 -1 #SUP: 9
254 -1 #SUP: 7
255 -1 #SUP: 2
263 -1 #SUP: 2
270 -1 #SUP: 2
289 -1 #SUP: 3
301 -1 #SUP: 3
302 -1 #SUP: 2
304 -1 #SUP: 6
382 -1 #SUP: 2
389 -1 #SUP: 2
425 -1 #SUP: 4
434 -1 #SUP: 5
444 -1 #SUP: 3
465 -1 #SUP: 2
472 -1 #SUP: 5
484 -1 #SUP: 2
486 -1 #SUP: 3
505 -1 #SUP: 2
563 -1 #SUP: 2
564 -1 #SUP: 2
571 -1 #SUP: 2
622 -1 #SUP: 2
625 -1 #SUP: 3
680 -1 #SUP: 2
702 -1 #SUP: 2
748 -1 #SUP: 2
934 -1 #SUP: 3
966 -1 #SUP: 2
1004 -1 #SUP: 2
1046 -1 #SUP: 2
1124 -1 #SUP: 2
1326 -1 #SUP: 3
1341 -1 #SUP: 2
1344 -1 #SUP: 2
1349 -1 #SUP: 2
1499 -1 #SUP: 2
1666 -1 #SUP: 2
1738 -1 #SUP: 2
1768 -1 #SUP: 3
2113 -1 #SUP: 2
2334 -1 #SUP: 2
2767 -1 #SUP: 2
2863 -1 #SUP: 2
3819 -1 #SUP: 2
4032 -1 #SUP: 2
5848 -1 #SUP: 2
9332 -1 #SUP: 2
9374 -1 #SUP: 2
79127 -1 #SUP: 2
5 -1 17 -1 #SUP: 3
5 -1 18 -1 #SUP: 3
18 -1 17 -1 #SUP: 3
19 -1 19 -1 #SUP: 2
30 -1 3 -1 #SUP: 2
48 -1 48 -1 #SUP: 3
48 -1 248 -1 #SUP: 2
48 -1 304 -1 #SUP: 2
48 -1 425 -1 #SUP: 2
50 -1 48 -1 #SUP: 5
50 -1 50 -1 #SUP: 6
50 -1 142 -1 #SUP: 2
50 -1 472 -1 #SUP: 2
118 -1 50 -1 #SUP: 2
142 -1 50 -1 #SUP: 2
149 -1 233 -1 #SUP: 2
163 -1 1499 -1 #SUP: 2
248 -1 9 -1 #SUP: 2
248 -1 48 -1 #SUP: 2
248 -1 50 -1 #SUP: 2
254 -1 48 -1 #SUP: 2
304 -1 248 -1 #SUP: 2
389 -1 1326 -1 #SUP: 2
702 -1 50 -1 #SUP: 2
934 -1 472 -1 #SUP: 2
9374 -1 79127 -1 #SUP: 2
5 -1 18 -1 17 -1 #SUP: 3
50 -1 50 -1 50 -1 #SUP: 4
50 -1 50 -1 50 -1 50 -1 #SUP: 3
50 -1 50 -1 50 -1 50 -1 50 -1 #SUP: 3
