31 -1 7327 -1 3941 -1 48 -1 27 -1 50 -1 89078 -1 1371 -1 49 -1 19 -2
1303 -1 4022 -1 178 -1 3191 -1 3555 -1 767 -1 1154 -1 2614 -1 19 -2
2697 -1 4022 -1 1799 -1 4817 -1 3374 -1 4335 -1 219 -1 4817 -1 434 -1 4335 -1 19 -2
50 -1 19 -2
280 -1 439 -1 49 -1 281 -1 19 -2
19 -1 19 -1 2905 -1 180 -1 280 -1 50 -1 142 -1 304 -1 1344 -1 516 -1 812 -1 2204 -1 166 -1 7797 -1 167 -1 3577 -1 218 -1 1029 -1 6277 -1 1344 -1 19 -2
19 -2
254 -1 2576 -1 1477 -1 19 -2
254 -1 906 -1 505 -1 19 -2
1285 -1 233 -1 819 -1 1107 -1 19 -2
12844 -1 254 -1 471 -1 484 -1 18975 -1 806 -1 24634 -1 1046 -1 8052 -1 323 -1 190 -2
428 -1 339 -1 58050 -1 5999 -1 24634 -1 1292 -1 3400 -1 289 -1 806 -1 19 -2
7326 -1 2097 -1 20149 -1 1078 -1 1200 -1 50 -1 2204 -1 1292 -1 210 -1 918 -1 16625 -1 19 -2
138 -1 7326 -1 2745 -1 149 -1 19 -2
2252 -1 254 -1 999 -1 89079 -1 593 -1 19 -2
20122 -1 918 -1 1717 -1 3894 -1 50 -1 48 -1 111 -1 425 -1 548 -1 563 -1 551 -1 3758 -1 606 -1 1546 -1 1652 -1 3345 -1 19 -1 19 -1 19 -1 19 -1 2252 -1 254 -1 270 -1 770 -1 6180 -1 505 -1 593 -1 1361 -1 1743 -1 729 -1 1426 -1 105 -1 1107 -1 50 -1 19 -2
51 -1 372 -1 371 -1 2227 -1 107 -1 19 -2
2602 -1 2227 -1 107 -1 1871 -1 161 -1 1293 -1 3470 -1 50 -1 233 -1 19 -2
2252 -1 304 -1 159 -1 2876 -1 44085 -1 551 -1 2031 -1 439 -1 49 -1 19 -2
44085 -1 548 -1 1061 -1 19 -2
568 -1 1339 -1 2905 -1 13983 -1 19 -2
568 -1 1850 -1 19 -2
6266 -1 190 -2
1477 -1 10546 -1 611 -1 2204 -1 19 -2
2252 -1 486 -1 2283 -1 20935 -1 210 -1 19 -2
906 -1 19 -2
2252 -1 3042 -1 551 -1 27 -1 19 -2
125 -1 897 -1 53 -1 1254 -1 551 -1 19 -2
19 -2
112 -1 580 -1 166 -1 167 -1 25766 -1 19 -2
4725 -1 640 -1 248 -1 167 -1 472 -1 2313 -1 12181 -1 417 -1 3483 -1 19 -2
112 -1 747 -1 535 -1 1 -2
462 -1 149 -1 429 -1 428 -1 1536 -1 1858 -1 551 -1 1 -2
149 -1 449 -1 503 -1 1 -2
1452 -1 89 -1 233 -1 559 -1 19 -2
12844 -1 66 -1 551 -1 422 -1 582 -1 21 -1 19 -2
5253 -1 5109 -1 11038 -1 190 -2
2252 -1 2663 -1 9641 -1 1879 -1 6996 -1 5103 -1 19 -2
12844 -1 247 -1 2211 -1 1767 -1 1581 -1 19 -2
12844 -1 401 -1 304 -1 4435 -1 39709 -1 5335 -1 24336 -1 19 -2
5804 -1 1795 -1 44666 -1 19 -2
557 -1 871 -1 89 -1 49 -1 112 -1 19 -2
4956 -1 343 -1 290 -1 657 -1 17617 -1 337 -1 248 -1 966 -1 50 -1 1724 -1 2868 -1 7830 -1 19 -2
384 -1 290 -1 657 -1 161 -1 19 -2
660 -1 388 -1 398 -1 248 -1 8114 -1 19 -2
89 -1 1336 -1 4956 -1 83 -1 19 -2
11328 -1 8069 -1 19 -2
543 -1 44085 -1 906 -1 3124 -1 2202 -1 1186 -1 11328 -1 7204 -1 1292 -1 11328 -1 19 -2
8101 -1 284 -1 50 -1 19 -2
853 -1 812 -1 19 -2
708 -1 1546 -1 5604 -1 54 -1 1492 -1 1403 -1 925 -1 80 -1 1403 -1 50 -1 163 -1 551 -1 50 -1 3538 -1 19 -2
89 -1 138 -1 509 -1 658 -1 149 -1 50 -1 15679 -1 15714 -1 19 -2
1987 -1 89 -1 179 -1 1071 -1 278 -1 50 -1 568 -1 563 -1 483 -1 19 -2
853 -1 557 -1 2673 -1 19 -2
2142 -1 113 -1 8847 -1 1998 -1 5959 -1 158 -1 254 -1 551 -1 6027 -1 1268 -1 50 -1 927 -1 551 -1 587 -1 2673 -1 19 -2
12844 -1 434 -1 4133 -1 19 -2
1684 -1 263 -1 3577 -1 10134 -1 50 -1 2614 -1 50 -1 4078 -1 1969 -1 9102 -1 12597 -1 7206 -1 19 -2
3392 -1 263 -1 54062 -1 767 -1 194 -1 193 -1 19 -2
2252 -1 8176 -1 608 -1 3162 -1 21 -1 19 -2
263 -1 580 -1 136 -1 681 -1 606 -1 19 -2
12844 -1 133 -1 551 -1 5804 -1 95 -1 50 -1 470 -1 245 -1 19 -2
4576 -1 840 -1 19 -2
2252 -1 428 -1 304 -1 19319 -1 2124 -1 101 -1 333 -1 6449 -1 19 -2
105 -1 8613 -1 6181 -1 50 -1 1581 -1 50 -1 1581 -1 167 -1 2110 -1 50 -1 928 -1 3135 -1 871 -1 551 -1 174 -1 1992 -1 3171 -1 1 -2
1992 -1 2122 -1 4032 -1 1281 -1 551 -1 27 -1 263 -1 1986 -1 19 -2
619 -1 50 -1 10923 -1 1056 -1 6033 -1 19 -2
12844 -1 19 -2
927 -1 108 -1 2955 -1 1478 -1 3211 -1 1 -2
118 -1 2955 -1 19 -2
115 -1 231 -1 1 -2
89 -1 138 -1 115 -1 2663 -1 551 -1 19 -2
708 -1 2163 -1 301 -1 490 -1 277 -1 680 -1 50 -1 138 -1 906 -1 449 -1 19 -2
83 -1 384 -1 3856 -1 5482 -1 19 -2
938 -1 23396 -1 384 -1 484 -1 1697 -1 19 -2
1992 -1 3617 -1 83 -1 3967 -1 2165 -1 4118 -1 20657 -1 19 -2
1452 -1 53971 -1 1992 -1 19 -2
1303 -1 1992 -1 9919 -1 551 -1 23220 -1 50 -1 6381 -1 7287 -1 50 -1 24975 -1 50 -1 1366 -1 1599 -1 50 -1 3967 -1 19107 -1 19 -2
2593 -1 732 -1 248 -1 1286 -1 701 -1 33 -1 329 -1 501 -1 19 -1 19 -1 1044 -1 635 -1 19 -2
248 -1 15714 -1 9769 -1 310 -1 2720 -1 1009 -1 449 -1 85 -1 9769 -1 1037 -1 15714 -1 926 -1 315 -1 871 -1 1960 -1 718 -1 2431 -1 19 -2
33 -1 248 -1 264 -1 19 -2
2359 -1 50 -1 29 -1 382 -1 505 -1 19 -2
1286 -1 391 -1 1242 -1 19 -2
142 -1 1463 -1 7350 -1 3834 -1 4038 -1 5531 -1 138 -1 2337 -1 1463 -1 423 -1 19 -2
1143 -1 638 -1 17046 -1 3834 -1 933 -1 1490 -1 19 -2
254 -1 194 -1 472 -1 484 -1 10455 -1 19 -2
2253 -1 167 -1 2110 -1 1009 -1 420 -1 2110 -1 6449 -1 5590 -1 804 -1 2124 -1 218 -1 2252 -1 110 -1 142 -1 551 -1 21 -1 19 -2
254 -1 1099 -1 1986 -1 263 -1 637 -1 50 -1 557 -1 551 -1 1024 -1 11337 -1 3106 -2
12844 -1 623 -1 49 -1 662 -1 19 -2
89 -1 138 -1 551 -1 19 -2
2576 -1 50 -1 926 -1 13521 -1 218 -1 13522 -1 879 -1 19 -1 13522 -1 657 -1 50 -1 13521 -1 419 -1 13522 -1 19 -2
12844 -1 3168 -1 49 -1 149 -1 4102 -1 2663 -1 19 -2
1718 -1 19 -2
2252 -1 48 -1 5225 -1 27 -1 4133 -1 48 -1 19 -2
754 -1 19 -2
478 -1 12844 -1 434 -1 49 -1 3920 -1 21 -1 149 -1 4102 -1 19 -2
471 -1 5389 -1 1091 -1 4853 -1 471 -1 3168 -1 5208 -1 3191 -1 19 -2
486 -1 429 -1 428 -1 19 -2
114 -1 108 -1 560 -1 1581 -1 529 -1 289 -1 1803 -1 38942 -1 19 -2
529 -1 429 -1 428 -1 8056 -1 835 -1 19 -2
254 -1 6055 -1 434 -1 529 -1 19 -2
1099 -1 180 -1 11819 -1 708 -1 429 -1 428 -1 483 -1 1034 -1 19 -2
48 -1 434 -1 10239 -1 11819 -1 1120 -1 483 -1 2470 -1 19 -2
1099 -1 18340 -1 429 -1 428 -1 483 -1 19 -2
263 -1 808 -1 420 -1 50 -1 89080 -1 657 -1 50 -1 4279 -1 218 -1 19 -1 254 -1 906 -1 254 -1 1981 -1 3794 -1 871 -1 2252 -1 622 -1 551 -1 27 -1 19 -2
3124 -1 3344 -1 1336 -1 44085 -1 551 -1 50 -1 2509 -1 2253 -1 27 -1 677 -1 1040 -1 19 -1 19 -1 12844 -1 3168 -1 4133 -1 19 -2
1684 -1 105 -1 19 -2
470 -1 1154 -1 50 -1 444 -1 50 -1 194 -1 1878 -1 193 -1 50 -1 761 -1 50 -1 25440 -1 19 -2
623 -1 9598 -1 767 -1 19 -2
2252 -1 2288 -1 2727 -1 3355 -1 3170 -1 19 -2
254 -1 471 -1 1546 -1 28697 -1 3355 -1 3170 -1 19 -2
12844 -1 48 -1 5273 -1 19 -2
12844 -1 1684 -1 105 -1 19 -2
12844 -1 304 -1 19 -2
2252 -1 1099 -1 477 -1 54 -1 84 -1 804 -1 56715 -1 19 -2
142 -1 248 -1 1546 -1 3355 -1 3170 -1 4108 -1 804 -1 3630 -1 782 -1 30267 -1 2920 -1 645 -1 5912 -1 19 -2
603 -1 1929 -1 190 -2
12844 -1 796 -1 925 -1 2163 -1 190 -2
3856 -1 19 -2
797 -1 27 -1 4102 -1 167 -1 344 -1 27 -1 19 -2
12844 -1 263 -1 553 -1 1684 -1 48 -1 2981 -1 3920 -1 19 -2
12844 -1 4990 -1 1124 -1 19 -2
742 -1 381 -1 190 -2
2252 -1 138 -1 529 -1 4990 -1 1124 -1 7652 -1 2314 -1 391 -1 1291 -1 9067 -1 391 -1 921 -1 529 -1 19 -2