142 -1 190 -2
624 -1 100406 -1 225 -1 190 -2
603 -1 2611 -1 1 -2
144394 -1 190 -2
2334 -1 263 -1 142 -1 115997 -1 3 -1 175 -1 190 -2
5 -1 18 -1 17 -1 4070 -1 144396 -1 5 -1 18 -1 17 -1 144398 -1 144401 -1 5 -1 18 -1 17 -1 144395 -1 5 -1 18 -1 17 -1 144397 -1 5 -1 18 -1 17 -1 144399 -1 5 -1 18 -1 17 -1 144400 -1 5 -1 18 -1 17 -1 144402 -1 16980 -1 1960 -1 444 -1 3 -1 19 -2
3 -1 50 -1 1960 -1 89 -1 557 -1 49127 -1 1044 -1 248 -1 33 -1 382 -1 19 -2
89 -1 540 -1 19 -2
142 -1 71421 -1 289 -1 281 -1 190 -2
5 -1 3603 -1 1324 -1 20310 -1 460 -1 144403 -1 144406 -1 144405 -1 144404 -1 14041 -1 48 -1 27528 -1 536 -1 19 -2
5 -1 18 -1 17 -1 144407 -1 1490 -1 2660 -1 190 -2
12823 -1 12823 -1 142 -1 5185 -1 149 -1 105 -1 640 -1 3173 -1 149 -1 210 -1 11138 -1 4249 -1 21035 -1 142 -1 5 -1 13207 -1 617 -1 144411 -1 144413 -1 144408 -1 144414 -1 144412 -1 13213 -1 1480 -1 144409 -1 5 -1 13207 -1 617 -1 144411 -1 144413 -1 144408 -1 144414 -1 144412 -1 13213 -1 1480 -1 144409 -1 144410 -1 434 -1 149 -1 142 -1 2429 -1 368 -1 32546 -1 142 -1 190 -2
567 -1 140 -1 439 -1 49 -1 49127 -1 470 -1 49 -1 1413 -1 97 -1 3256 -1 19 -2
1718 -1 49 -1 2253 -1 19 -2
3 -1 7649 -1 2433 -1 25 -1 384 -1 92768 -1 142 -1 190 -2
144415 -1 1 -1 19 -2
669 -1 118 -1 435 -1 48 -1 5281 -1 190 -2
136 -1 190 -2
1062 -1 5376 -1 36423 -1 368 -1 1 -2
532 -1 260 -1 509 -1 1 -2
144416 -1 89 -1 777 -1 1728 -1 1 -2
1518 -1 144417 -1 44260 -1 8989 -1 2743 -1 569 -1 142 -1 190 -2
27 -1 281 -1 142 -1 4221 -1 20178 -1 434 -1 635 -1 368 -1 27935 -1 2360 -1 167 -1 6036 -1 4010 -1 50 -1 144418 -1 48 -1 457 -1 143962 -1 689 -1 6036 -1 724 -1 2811 -1 18769 -1 17333 -1 1788 -1 5 -1 18 -1 17 -1 65303 -1 4768 -1 26149 -1 2127 -1 928 -1 50 -1 4020 -1 190 -2
254 -1 4020 -1 3259 -1 368 -1 999 -1 9139 -1 190 -2
665 -1 50 -1 254 -1 3 -1 19 -1 444 -1 444 -1 444 -1 3 -1 29 -1 25 -1 29 -1 9961 -1 2787 -1 260 -1 190 -2
999 -1 9139 -1 190 -2
7335 -1 260 -1 190 -2
48 -1 144419 -1 1147 -1 2093 -1 6394 -1 144420 -1 16413 -1 3599 -1 444 -1 2266 -1 29 -1 1718 -1 190 -2
5 -1 18 -1 17 -1 144421 -1 5 -1 18 -1 17 -1 144423 -1 144422 -1 999 -1 444 -1 123857 -1 81830 -1 278 -1 5056 -1 50 -1 1062 -1 3205 -1 142 -1 505 -1 444 -1 190 -2
999 -1 999 -1 2630 -1 368 -1 6061 -1 50 -1 12823 -1 190 -2
1663 -1 2743 -1 113651 -1 540 -1 123857 -1 112921 -1 368 -1 13023 -1 34223 -1 444 -1 2150 -1 190 -2
260 -1 444 -1 1320 -1 190 -2
41585 -1 142 -1 190 -2
8914 -1 50 -1 33437 -1 50 -1 144424 -1 50 -1 144426 -1 190 -1 50 -1 82 -1 368 -1 540 -1 144425 -1 6684 -1 233 -1 225 -1 444 -1 149 -1 190 -2
144427 -1 540 -1 190 -2
5 -1 22878 -1 144428 -1 12077 -1 1767 -1 144429 -1 248 -1 190 -2
625 -1 680 -1 516 -1 1623 -1 2435 -1 235 -1 668 -1 1413 -1 335 -1 521 -1 7008 -1 50 -1 906 -1 389 -1 643 -1 815 -1 138 -1 6280 -1 19 -2
62155 -1 1147 -1 1147 -1 5609 -1 57717 -1 719 -1 719 -1 190 -2
999 -1 304 -1 921 -1 417 -1 48 -1 636 -1 260 -1 118 -1 144430 -1 190 -2
115 -1 36423 -1 15937 -1 368 -1 21 -1 677 -1 439 -1 31 -1 9 -1 144431 -1 260 -1 4181 -1 190 -2
144432 -1 3153 -1 444 -1 53 -1 1147 -1 738 -1 19 -2
603 -1 6378 -1 435 -1 190 -2
4527 -1 540 -1 190 -2
444 -1 190 -2
260 -1 5 -1 18 -1 17 -1 144433 -1 435 -1 48 -1 3986 -1 360 -1 8767 -1 142 -1 7535 -1 4468 -1 665 -1 1518 -1 190 -2
999 -1 5 -1 18 -1 17 -1 144434 -1 444 -1 144435 -1 142 -1 190 -2
473 -1 27201 -1 50 -1 144437 -1 144436 -1 81830 -1 190 -2
44260 -1 603 -1 142 -1 2346 -1 2637 -1 233 -1 19 -1 1 -2
1518 -2