27820 -1 929 -1 50 -1 246 -1 19 -2
6993 -1 3468 -1 802 -1 815 -1 3615 -1 91 -1 22466 -1 50 -1 2113 -1 10567 -1 1503 -1 19 -2
122 -1 5225 -1 968 -1 50 -1 2767 -1 19 -2
444 -1 178 -1 19 -2
664 -1 19 -2
2142 -1 9730 -1 50 -1 22973 -1 384 -1 941 -1 5862 -1 50 -1 7844 -1 384 -1 27 -1 19 -2
2498 -1 384 -1 91 -1 50 -1 563 -1 12779 -1 3608 -1 9162 -1 19 -2
3186 -1 3149 -1 940 -1 4425 -1 19 -2
50 -1 510 -1 7 -1 5680 -1 233 -1 33 -1 50 -1 1291 -1 50 -1 4644 -1 346 -1 627 -1 50 -1 19 -2
41 -1 268 -1 19 -2
1014 -1 233 -1 233 -1 1 -2
194 -1 5100 -1 8838 -1 5142 -1 19 -2
264 -1 845 -1 79 -1 19 -2
11 -1 288 -1 19 -2
11022 -1 4723 -1 717 -1 147 -1 2814 -1 490 -1 158 -1 19 -2
25199 -1 254 -1 1436 -1 50 -1 666 -1 1339 -1 1297 -1 51 -1 19 -2
50 -1 89 -1 2373 -1 468 -1 2935 -1 1516 -1 31022 -1 51 -1 19 -2
75577 -1 50 -1 81217 -1 50 -1 33356 -1 50 -1 3636 -1 50 -1 19 -2
3186 -1 48 -1 816 -1 296 -1 513 -1 593 -1 19 -2
138 -1 48 -1 507 -1 30 -1 296 -1 19 -2
296 -1 513 -1 270 -1 33 -1 50 -1 551 -1 50 -1 19 -2
2703 -1 190 -2
468 -1 3578 -1 50 -1 1207 -1 50 -1 468 -1 22392 -1 50 -1 19 -2
50 -1 138 -1 175 -1 3247 -1 6019 -1 1268 -1 483 -1 19 -2
41 -1 50 -1 8071 -1 19 -2
483 -1 1 -2
7699 -1 35122 -1 477 -1 50 -1 288 -1 2600 -1 3117 -1 819 -1 3184 -1 50 -1 147 -1 19 -2
3186 -1 1366 -1 31 -1 50 -1 6278 -1 19 -2
906 -1 50 -1 1246 -1 2511 -1 130 -1 19 -2
1208 -1 777 -1 19 -2
48 -1 25411 -1 906 -1 19 -2
142 -1 951 -1 950 -1 3827 -1 50 -1 3110 -1 1289 -1 17046 -1 19 -2
12861 -1 50 -1 26564 -1 50 -1 11022 -1 4723 -1 50 -1 19 -2
929 -1 50 -1 138 -1 2267 -1 11256 -1 50 -1 2905 -1 8999 -1 3597 -1 54 -1 1788 -1 19 -2
815 -1 369 -1 819 -1 8186 -1 864 -1 50 -1 384 -1 19 -2
339 -1 81218 -1 30 -1 19 -2
81218 -1 619 -1 50 -1 434 -1 49 -1 19 -2
81219 -1 355 -1 1754 -1 339 -1 48 -1 30 -1 12882 -1 50 -1 335 -1 1415 -1 12882 -1 19 -2
194 -1 18188 -1 19 -2
194 -1 329 -1 1741 -1 50 -1 5754 -1 1854 -1 81220 -1 50 -1 24425 -1 50 -1 54 -1 1435 -1 2925 -1 900 -1 19 -1 19 -1 254 -1 3871 -1 50 -1 472 -1 3215 -1 19 -2
389 -1 1132 -1 390 -1 3837 -1 50 -1 19 -2
41 -1 81221 -1 50 -1 993 -1 434 -1 26374 -1 12882 -1 49 -1 19 -2
2525 -1 114 -1 31 -1 35628 -1 9032 -1 50 -1 19 -2
7198 -1 7196 -1 7197 -1 7196 -1 625 -1 50 -1 1019 -1 9363 -1 19 -2
2026 -1 4096 -1 1 -2
599 -1 1556 -1 1046 -1 1009 -1 7657 -1 899 -1 50 -1 735 -1 1001 -1 1026 -1 19 -2
81222 -1 10339 -1 1 -2
1007 -1 2775 -1 710 -1 1707 -1 1767 -1 5474 -1 2141 -1 330 -1 50 -1 782 -1 710 -1 13800 -1 19 -2
9030 -1 2205 -1 2272 -1 190 -2
304 -1 369 -1 17444 -1 50 -1 54 -1 522 -1 901 -1 19 -2
6 -1 18 -1 17 -1 81223 -1 1707 -1 5460 -1 81227 -1 40281 -1 32523 -1 81224 -1 50 -1 6897 -1 19 -1 8289 -1 5 -1 81225 -1 1 -1 81226 -1 669 -1 149 -1 1707 -1 50 -1 10265 -1 4790 -1 19 -2
325 -1 81231 -1 105 -1 7797 -1 81229 -1 50 -1 504 -1 4784 -1 9359 -1 81228 -1 50 -1 94 -1 81230 -1 22328 -1 4330 -1 50 -1 1186 -1 3589 -1 3597 -1 25396 -1 19 -2
7542 -1 27 -1 27 -1 155 -1 50 -1 625 -1 19 -2
1373 -1 1514 -1 1219 -1 50 -1 3109 -1 1503 -1 2593 -1 50 -1 19 -2
5382 -1 1895 -1 384 -1 7542 -1 50 -1 1503 -1 868 -1 19 -1 19 -1 786 -1 2206 -1 1120 -1 13551 -1 5829 -1 1 -2
50 -1 786 -1 1 -2
8063 -1 202 -1 50 -1 1246 -1 740 -1 50 -1 22476 -1 66 -1 1 -2
50 -1 19 -2
667 -1 5473 -1 31 -1 19 -2
1263 -1 1173 -1 12041 -1 864 -1 50 -1 19 -2
7358 -1 1190 -1 19 -2
31 -1 4555 -1 681 -1 31 -1 50 -1 1044 -1 50 -1 505 -1 1784 -1 19 -2
19 -2
927 -1 1550 -1 50 -1 517 -1 1550 -1 19 -2
70896 -1 1173 -1 1707 -1 2862 -1 1225 -1 1717 -1 18082 -1 855 -1 637 -1 50 -1 1263 -1 1 -2
625 -1 50 -1 19 -2
1173 -1 19 -2
3186 -1 247 -1 1707 -1 388 -1 1342 -1 2905 -1 50 -1 19 -2
50 -1 19 -2
1251 -1 19 -2
233 -1 115 -1 339 -1 1707 -1 19 -2
918 -1 710 -1 19 -2
871 -1 70896 -1 968 -1 18692 -1 284 -1 1707 -1 1005 -1 642 -1 3067 -1 50 -1 16111 -1 589 -1 19 -2
3507 -1 81232 -1 50 -1 31693 -1 19 -2
3186 -1 6 -1 18 -1 17 -1 81233 -1 31 -1 6654 -1 851 -1 49355 -1 50 -1 29 -1 19 -2
1516 -1 1207 -1 481 -1 341 -1 32304 -1 829 -1 81234 -1 50 -1 13392 -1 8863 -1 12195 -1 19 -2
735 -1 6124 -1 1291 -1 19 -2
667 -1 31 -1 50 -1 2291 -1 325 -1 955 -1 81235 -1 50 -1 81217 -1 32304 -1 1449 -1 955 -1 48 -1 1877 -1 2048 -1 4051 -1 50 -1 11083 -1 50 -1 31982 -1 845 -1 6905 -1 19 -2
933 -1 1554 -1 812 -1 15377 -1 3630 -1 864 -1 1225 -1 1133 -1 577 -1 993 -1 346 -1 627 -1 1474 -1 814 -1 19 -2
456 -1 50 -1 339 -1 14188 -1 19 -2
6 -1 18 -1 17 -1 81236 -1 557 -1 868 -1 50 -1 1019 -1 389 -1 19 -2
48 -1 2942 -1 50 -1 304 -1 11643 -1 2693 -1 19 -2
2512 -1 5564 -1 724 -1 19 -2
49 -1 1368 -1 9177 -1 22668 -1 772 -1 19 -2
1019 -1 612 -1 30 -1 50 -1 4893 -1 20441 -1 19 -2
1102 -1 50 -1 384 -1 457 -1 585 -1 50 -1 1410 -1 871 -1 6 -1 18 -1 17 -1 81237 -1 477 -1 190 -2
6556 -1 50 -1 142 -1 1354 -1 3453 -1 518 -1 27 -1 19 -2
136 -1 584 -1 335 -1 147 -1 50 -1 776 -1 4570 -1 847 -1 19 -2
135 -1 138 -1 8934 -1 792 -1 1291 -1 640 -1 19 -2
2818 -1 1 -2
31 -1 770 -1 1 -2
2029 -1 50 -1 2029 -1 19 -2
999 -1 3924 -1 50 -1 3920 -1 19 -2
325 -1 560 -1 4004 -1 19 -2
906 -1 19 -2
1623 -1 6409 -1 19 -2
8723 -1 83 -1 50 -1 142 -1 384 -1 1056 -1 13011 -1 19 -2
11877 -1 19 -2
1426 -1 19 -2
508 -1 11478 -1 5526 -1 19 -2
54 -1 50 -1 118 -1 29 -1 81238 -1 19 -2
9 -1 2 -1 4 -1 50 -1 118 -1 296 -1 1096 -1 19 -2
19 -2
54 -1 19 -2
5491 -1 6465 -1 2026 -1 1652 -1 49 -1 19 -2
41298 -1 50 -1 10014 -1 118 -1 72 -1 19 -2
889 -1 4771 -1 2582 -1 8636 -1 807 -1 19 -2
6 -1 18 -1 17 -1 81242 -1 6 -1 18 -1 17 -1 81239 -1 81241 -1 254 -1 296 -1 80 -1 81240 -1 21221 -1 30 -1 10394 -1 926 -1 444 -1 6993 -1 6994 -1 1715 -1 19 -2
1707 -1 5032 -1 246 -1 2240 -1 247 -1 1738 -1 296 -1 325 -1 287 -1 162 -1 50 -1 1666 -1 19 -2
148 -1 19 -2
46136 -1 4773 -1 5040 -1 50 -1 1761 -1 6383 -1 276 -1 19 -2
81243 -1 5235 -1 1024 -1 75267 -1 50 -1 81244 -1 60196 -1 50 -1 9505 -1 6969 -1 12507 -1 19 -2
926 -1 5409 -1 19 -2
30 -1 1543 -1 19 -2
50 -1 142 -1 248 -1 1547 -1 3208 -1 3319 -1 302 -1 19 -2
11379 -1 9076 -1 11492 -1 190 -2
853 -1 593 -1 19 -2
938 -1 94 -1 254 -1 54 -1 723 -1 1021 -1 19 -2
4832 -1 932 -1 50 -1 2077 -1 311 -1 19 -2
50 -1 114 -1 2207 -1 2207 -1 50 -1 287 -1 19 -2
19 -2
7113 -1 19410 -1 7466 -1 1232 -1 50 -1 4251 -1 2197 -1 19 -2
94 -1 50 -1 19 -2
3463 -1 2714 -1 1724 -1 1748 -1 50 -1 19 -2
19 -2
5345 -1 8616 -1 4027 -1 6360 -1 11389 -1 147 -1 1718 -1 19 -2
4320 -1 2445 -1 330 -1 6502 -1 3980 -1 2232 -1 50 -1 5376 -1 19 -2
637 -1 19 -2
548 -1 382 -1 1781 -1 571 -1 4784 -1 2562 -1 50 -1 771 -1 19 -2
254 -1 1056 -1 3320 -1 622 -1 2696 -1 50 -1 568 -1 19 -2