9 -1 #SUP: 3
19 -1 #SUP: 9
27 -1 #SUP: 2
33 -1 #SUP: 8
48 -1 #SUP: 13
49 -1 #SUP: 2
50 -1 #SUP: 73
53 -1 #SUP: 2
54 -1 #SUP: 8
65 -1 #SUP: 2
89 -1 #SUP: 8
99 -1 #SUP: 3
105 -1 #SUP: 4
112 -1 #SUP: 2
115 -1 #SUP: 8
118 -1 #SUP: 6
129 -1 #SUP: 3
138 -1 #SUP: 3
149 -1 #SUP: 9
158 -1 #SUP: 3
166 -1 #SUP: 3
167 -1 #SUP: 3
210 -1 #SUP: 3
218 -1 #SUP: 3
233 -1 #SUP: 6
248 -1 #SUP: 13
254 -1 #SUP: 7
255 -1 #SUP: 4
262 -1 #SUP: 2
263 -1 #SUP: 3
280 -1 #SUP: 2
288 -1 #SUP: 2
296 -1 #SUP: 4
297 -1 #SUP: 2
301 -1 #SUP: 2
304 -1 #SUP: 4
315 -1 #SUP: 2
330 -1 #SUP: 2
332 -1 #SUP: 3
339 -1 #SUP: 3
355 -1 #SUP: 3
360 -1 #SUP: 2
381 -1 #SUP: 2
382 -1 #SUP: 4
388 -1 #SUP: 2
421 -1 #SUP: 2
428 -1 #SUP: 7
439 -1 #SUP: 2
444 -1 #SUP: 4
457 -1 #SUP: 2
471 -1 #SUP: 3
484 -1 #SUP: 3
486 -1 #SUP: 2
505 -1 #SUP: 2
508 -1 #SUP: 2
509 -1 #SUP: 8
548 -1 #SUP: 3
551 -1 #SUP: 4
599 -1 #SUP: 2
603 -1 #SUP: 2
640 -1 #SUP: 3
667 -1 #SUP: 2
668 -1 #SUP: 2
684 -1 #SUP: 3
702 -1 #SUP: 2
710 -1 #SUP: 2
748 -1 #SUP: 2
754 -1 #SUP: 2
847 -1 #SUP: 2
849 -1 #SUP: 2
871 -1 #SUP: 3
906 -1 #SUP: 2
928 -1 #SUP: 3
932 -1 #SUP: 3
933 -1 #SUP: 2
1004 -1 #SUP: 2
1007 -1 #SUP: 2
1034 -1 #SUP: 2
1044 -1 #SUP: 2
1061 -1 #SUP: 2
1062 -1 #SUP: 2
1081 -1 #SUP: 2
1237 -1 #SUP: 4
1251 -1 #SUP: 2
1303 -1 #SUP: 2
1373 -1 #SUP: 3
1427 -1 #SUP: 3
1481 -1 #SUP: 2
1518 -1 #SUP: 2
1707 -1 #SUP: 2
1731 -1 #SUP: 5
1754 -1 #SUP: 3
1788 -1 #SUP: 2
1818 -1 #SUP: 2
1895 -1 #SUP: 2
1998 -1 #SUP: 2
2029 -1 #SUP: 2
2413 -1 #SUP: 2
2607 -1 #SUP: 2
2784 -1 #SUP: 2
2931 -1 #SUP: 2
3098 -1 #SUP: 2
3156 -1 #SUP: 3
3211 -1 #SUP: 2
3306 -1 #SUP: 2
3946 -1 #SUP: 2
4470 -1 #SUP: 3
4493 -1 #SUP: 3
5064 -1 #SUP: 2
5068 -1 #SUP: 2
5092 -1 #SUP: 2
5106 -1 #SUP: 2
5170 -1 #SUP: 2
19 -1 149 -1 #SUP: 2
33 -1 50 -1 #SUP: 2
48 -1 50 -1 #SUP: 3
50 -1 48 -1 #SUP: 4
50 -1 50 -1 #SUP: 16
50 -1 89 -1 #SUP: 4
50 -1 115 -1 #SUP: 3
50 -1 118 -1 #SUP: 3
50 -1 233 -1 #SUP: 3
50 -1 248 -1 #SUP: 3
50 -1 254 -1 #SUP: 4
50 -1 296 -1 #SUP: 4
50 -1 304 -1 #SUP: 2
50 -1 332 -1 #SUP: 2
50 -1 382 -1 #SUP: 2
50 -1 428 -1 #SUP: 3
50 -1 471 -1 #SUP: 2
50 -1 509 -1 #SUP: 3
50 -1 603 -1 #SUP: 2
50 -1 871 -1 #SUP: 2
50 -1 1818 -1 #SUP: 2
50 -1 3098 -1 #SUP: 2
50 -1 5170 -1 #SUP: 2
54 -1 50 -1 #SUP: 5
54 -1 105 -1 #SUP: 2
54 -1 149 -1 #SUP: 2
54 -1 255 -1 #SUP: 2
65 -1 50 -1 #SUP: 2
89 -1 115 -1 #SUP: 2
89 -1 248 -1 #SUP: 2
115 -1 50 -1 #SUP: 2
115 -1 115 -1 #SUP: 2
138 -1 50 -1 #SUP: 2
149 -1 50 -1 #SUP: 3
166 -1 19 -1 #SUP: 2
167 -1 19 -1 #SUP: 2
210 -1 50 -1 #SUP: 2
218 -1 19 -1 #SUP: 2
233 -1 50 -1 #SUP: 3
248 -1 33 -1 #SUP: 3
248 -1 248 -1 #SUP: 2
248 -1 484 -1 #SUP: 2
248 -1 508 -1 #SUP: 2
248 -1 509 -1 #SUP: 2
255 -1 50 -1 #SUP: 2
304 -1 50 -1 #SUP: 2
304 -1 296 -1 #SUP: 2
339 -1 296 -1 #SUP: 2
355 -1 1731 -1 #SUP: 2
428 -1 339 -1 #SUP: 2
428 -1 1303 -1 #SUP: 2
444 -1 509 -1 #SUP: 2
509 -1 33 -1 #SUP: 2
509 -1 50 -1 #SUP: 3
509 -1 509 -1 #SUP: 3
551 -1 50 -1 #SUP: 2
640 -1 248 -1 #SUP: 2
684 -1 50 -1 #SUP: 2
754 -1 50 -1 #SUP: 2
849 -1 1754 -1 #SUP: 2
849 -1 3306 -1 #SUP: 2
1373 -1 248 -1 #SUP: 3
1427 -1 50 -1 #SUP: 2
1731 -1 1731 -1 #SUP: 3
1818 -1 50 -1 #SUP: 2
1895 -1 50 -1 #SUP: 2
3156 -1 50 -1 #SUP: 2
3306 -1 1754 -1 #SUP: 2
3946 -1 112 -1 #SUP: 2
5106 -1 50 -1 #SUP: 2
50 -1 50 -1 50 -1 #SUP: 4
50 -1 50 -1 89 -1 #SUP: 2
50 -1 50 -1 296 -1 #SUP: 3
50 -1 50 -1 304 -1 #SUP: 2
50 -1 50 -1 3098 -1 #SUP: 2
50 -1 304 -1 296 -1 #SUP: 2
50 -1 1818 -1 50 -1 #SUP: 2
54 -1 50 -1 50 -1 #SUP: 2
115 -1 50 -1 115 -1 #SUP: 2
149 -1 50 -1 50 -1 #SUP: 2
233 -1 50 -1 50 -1 #SUP: 3
509 -1 50 -1 509 -1 #SUP: 2
849 -1 3306 -1 1754 -1 #SUP: 2
1731 -1 1731 -1 1731 -1 #SUP: 2
50 -1 50 -1 304 -1 296 -1 #SUP: 2
