5 -1 #SUP: 22
11 -1 #SUP: 2
17 -1 #SUP: 20
18 -1 #SUP: 22
19 -1 #SUP: 4
21 -1 #SUP: 2
27 -1 #SUP: 3
29 -1 #SUP: 2
33 -1 #SUP: 6
47 -1 #SUP: 5
48 -1 #SUP: 2
49 -1 #SUP: 4
50 -1 #SUP: 7
79 -1 #SUP: 2
89 -1 #SUP: 7
103 -1 #SUP: 2
105 -1 #SUP: 2
107 -1 #SUP: 2
110 -1 #SUP: 2
115 -1 #SUP: 3
129 -1 #SUP: 2
138 -1 #SUP: 4
140 -1 #SUP: 2
148 -1 #SUP: 2
149 -1 #SUP: 4
166 -1 #SUP: 3
233 -1 #SUP: 8
246 -1 #SUP: 2
248 -1 #SUP: 26
254 -1 #SUP: 4
255 -1 #SUP: 2
261 -1 #SUP: 2
289 -1 #SUP: 2
304 -1 #SUP: 3
317 -1 #SUP: 2
346 -1 #SUP: 3
384 -1 #SUP: 2
387 -1 #SUP: 7
439 -1 #SUP: 2
460 -1 #SUP: 2
472 -1 #SUP: 2
521 -1 #SUP: 4
539 -1 #SUP: 3
677 -1 #SUP: 2
708 -1 #SUP: 3
771 -1 #SUP: 2
812 -1 #SUP: 2
816 -1 #SUP: 5
927 -1 #SUP: 3
1081 -1 #SUP: 2
1129 -1 #SUP: 2
1336 -1 #SUP: 4
1349 -1 #SUP: 3
1559 -1 #SUP: 2
1818 -1 #SUP: 3
2155 -1 #SUP: 2
2197 -1 #SUP: 2
2274 -1 #SUP: 2
2439 -1 #SUP: 2
2663 -1 #SUP: 3
3098 -1 #SUP: 2
3346 -1 #SUP: 6
3566 -1 #SUP: 3
3794 -1 #SUP: 2
5322 -1 #SUP: 2
6460 -1 #SUP: 2
6802 -1 #SUP: 2
10375 -1 #SUP: 2
19060 -1 #SUP: 2
26541 -1 #SUP: 2
26754 -1 #SUP: 2
5 -1 5 -1 #SUP: 7
5 -1 17 -1 #SUP: 12
5 -1 18 -1 #SUP: 13
5 -1 166 -1 #SUP: 2
5 -1 233 -1 #SUP: 2
5 -1 248 -1 #SUP: 2
5 -1 387 -1 #SUP: 2
5 -1 1336 -1 #SUP: 3
5 -1 3346 -1 #SUP: 6
5 -1 3794 -1 #SUP: 2
5 -1 6460 -1 #SUP: 2
5 -1 6802 -1 #SUP: 2
17 -1 5 -1 #SUP: 6
17 -1 17 -1 #SUP: 6
17 -1 18 -1 #SUP: 6
17 -1 233 -1 #SUP: 2
17 -1 387 -1 #SUP: 2
17 -1 1336 -1 #SUP: 3
17 -1 3346 -1 #SUP: 6
17 -1 6802 -1 #SUP: 2
18 -1 5 -1 #SUP: 7
18 -1 17 -1 #SUP: 12
18 -1 18 -1 #SUP: 7
18 -1 166 -1 #SUP: 2
18 -1 233 -1 #SUP: 2
18 -1 248 -1 #SUP: 2
18 -1 387 -1 #SUP: 2
18 -1 1336 -1 #SUP: 3
18 -1 3346 -1 #SUP: 6
18 -1 3794 -1 #SUP: 2
18 -1 6460 -1 #SUP: 2
18 -1 6802 -1 #SUP: 2
19 -1 233 -1 #SUP: 2
21 -1 816 -1 #SUP: 2
47 -1 248 -1 #SUP: 2
50 -1 19 -1 #SUP: 2
50 -1 50 -1 #SUP: 2
50 -1 233 -1 #SUP: 3
89 -1 771 -1 #SUP: 2
110 -1 439 -1 #SUP: 2
129 -1 460 -1 #SUP: 2
140 -1 19 -1 #SUP: 2
140 -1 50 -1 #SUP: 2
166 -1 3794 -1 #SUP: 2
233 -1 50 -1 #SUP: 2
233 -1 138 -1 #SUP: 2
248 -1 27 -1 #SUP: 2
248 -1 233 -1 #SUP: 2
248 -1 248 -1 #SUP: 2
248 -1 254 -1 #SUP: 2
387 -1 2663 -1 #SUP: 2
816 -1 5322 -1 #SUP: 2
1129 -1 129 -1 #SUP: 2
1129 -1 460 -1 #SUP: 2
3346 -1 5 -1 #SUP: 3
3346 -1 17 -1 #SUP: 3
3346 -1 18 -1 #SUP: 3
3346 -1 1336 -1 #SUP: 3
3346 -1 6802 -1 #SUP: 2
6460 -1 166 -1 #SUP: 2
6460 -1 3794 -1 #SUP: 2
19060 -1 107 -1 #SUP: 2
5 -1 5 -1 17 -1 #SUP: 6
5 -1 5 -1 18 -1 #SUP: 7
5 -1 17 -1 5 -1 #SUP: 6
5 -1 17 -1 17 -1 #SUP: 6
5 -1 17 -1 18 -1 #SUP: 6
5 -1 17 -1 233 -1 #SUP: 2
5 -1 17 -1 387 -1 #SUP: 2
5 -1 17 -1 1336 -1 #SUP: 3
5 -1 17 -1 3346 -1 #SUP: 6
5 -1 17 -1 6802 -1 #SUP: 2
5 -1 18 -1 5 -1 #SUP: 7
5 -1 18 -1 17 -1 #SUP: 12
5 -1 18 -1 18 -1 #SUP: 7
5 -1 18 -1 166 -1 #SUP: 2
5 -1 18 -1 233 -1 #SUP: 2
5 -1 18 -1 248 -1 #SUP: 2
5 -1 18 -1 387 -1 #SUP: 2
5 -1 18 -1 1336 -1 #SUP: 3
5 -1 18 -1 3346 -1 #SUP: 6
5 -1 18 -1 3794 -1 #SUP: 2
5 -1 18 -1 6460 -1 #SUP: 2
5 -1 18 -1 6802 -1 #SUP: 2
5 -1 166 -1 3794 -1 #SUP: 2
5 -1 3346 -1 5 -1 #SUP: 2
5 -1 3346 -1 17 -1 #SUP: 2
5 -1 3346 -1 18 -1 #SUP: 2
5 -1 3346 -1 1336 -1 #SUP: 3
5 -1 3346 -1 6802 -1 #SUP: 2
5 -1 6460 -1 166 -1 #SUP: 2
5 -1 6460 -1 3794 -1 #SUP: 2
17 -1 5 -1 5 -1 #SUP: 3
17 -1 5 -1 17 -1 #SUP: 6
17 -1 5 -1 18 -1 #SUP: 6
17 -1 5 -1 387 -1 #SUP: 2
17 -1 5 -1 3346 -1 #SUP: 2
17 -1 17 -1 5 -1 #SUP: 3
17 -1 17 -1 18 -1 #SUP: 3
17 -1 17 -1 387 -1 #SUP: 2
17 -1 17 -1 3346 -1 #SUP: 2
17 -1 18 -1 5 -1 #SUP: 3
17 -1 18 -1 17 -1 #SUP: 6
17 -1 18 -1 18 -1 #SUP: 3
17 -1 18 -1 387 -1 #SUP: 2
17 -1 18 -1 3346 -1 #SUP: 2
17 -1 3346 -1 5 -1 #SUP: 3
17 -1 3346 -1 17 -1 #SUP: 2
17 -1 3346 -1 18 -1 #SUP: 3
17 -1 3346 -1 1336 -1 #SUP: 3
17 -1 3346 -1 6802 -1 #SUP: 2
18 -1 5 -1 5 -1 #SUP: 3
18 -1 5 -1 17 -1 #SUP: 6
18 -1 5 -1 18 -1 #SUP: 7
18 -1 5 -1 3346 -1 #SUP: 2
18 -1 17 -1 5 -1 #SUP: 6
18 -1 17 -1 17 -1 #SUP: 6
18 -1 17 -1 18 -1 #SUP: 6
18 -1 17 -1 233 -1 #SUP: 2
18 -1 17 -1 387 -1 #SUP: 2
18 -1 17 -1 1336 -1 #SUP: 3
18 -1 17 -1 3346 -1 #SUP: 6
18 -1 17 -1 6802 -1 #SUP: 2
18 -1 18 -1 5 -1 #SUP: 3
18 -1 18 -1 17 -1 #SUP: 6
18 -1 18 -1 3346 -1 #SUP: 2
18 -1 166 -1 3794 -1 #SUP: 2
18 -1 3346 -1 5 -1 #SUP: 3
18 -1 3346 -1 17 -1 #SUP: 2
18 -1 3346 -1 18 -1 #SUP: 2
18 -1 3346 -1 1336 -1 #SUP: 3
18 -1 3346 -1 6802 -1 #SUP: 2
18 -1 6460 -1 166 -1 #SUP: 2
18 -1 6460 -1 3794 -1 #SUP: 2
50 -1 19 -1 233 -1 #SUP: 2
140 -1 50 -1 19 -1 #SUP: 2
1129 -1 129 -1 460 -1 #SUP: 2
3346 -1 5 -1 17 -1 #SUP: 3
3346 -1 5 -1 18 -1 #SUP: 3
3346 -1 18 -1 17 -1 #SUP: 3
6460 -1 166 -1 3794 -1 #SUP: 2
5 -1 5 -1 18 -1 17 -1 #SUP: 6
5 -1 17 -1 5 -1 17 -1 #SUP: 6
5 -1 17 -1 5 -1 18 -1 #SUP: 6
5 -1 17 -1 18 -1 17 -1 #SUP: 6
5 -1 17 -1 3346 -1 5 -1 #SUP: 2
5 -1 17 -1 3346 -1 17 -1 #SUP: 2
5 -1 17 -1 3346 -1 18 -1 #SUP: 2
5 -1 17 -1 3346 -1 1336 -1 #SUP: 3
5 -1 17 -1 3346 -1 6802 -1 #SUP: 2
5 -1 18 -1 5 -1 17 -1 #SUP: 6
5 -1 18 -1 5 -1 18 -1 #SUP: 7
5 -1 18 -1 17 -1 5 -1 #SUP: 6
5 -1 18 -1 17 -1 17 -1 #SUP: 6
5 -1 18 -1 17 -1 18 -1 #SUP: 6
5 -1 18 -1 17 -1 233 -1 #SUP: 2
5 -1 18 -1 17 -1 387 -1 #SUP: 2
5 -1 18 -1 17 -1 1336 -1 #SUP: 3
5 -1 18 -1 17 -1 3346 -1 #SUP: 6
5 -1 18 -1 17 -1 6802 -1 #SUP: 2
5 -1 18 -1 18 -1 17 -1 #SUP: 6
5 -1 18 -1 166 -1 3794 -1 #SUP: 2
5 -1 18 -1 3346 -1 5 -1 #SUP: 2
5 -1 18 -1 3346 -1 17 -1 #SUP: 2
5 -1 18 -1 3346 -1 18 -1 #SUP: 2
5 -1 18 -1 3346 -1 1336 -1 #SUP: 3
5 -1 18 -1 3346 -1 6802 -1 #SUP: 2
5 -1 18 -1 6460 -1 166 -1 #SUP: 2
5 -1 18 -1 6460 -1 3794 -1 #SUP: 2
5 -1 3346 -1 5 -1 17 -1 #SUP: 2
5 -1 3346 -1 5 -1 18 -1 #SUP: 2
5 -1 3346 -1 18 -1 17 -1 #SUP: 2
5 -1 6460 -1 166 -1 3794 -1 #SUP: 2
17 -1 5 -1 5 -1 18 -1 #SUP: 3
17 -1 5 -1 17 -1 5 -1 #SUP: 3
17 -1 5 -1 17 -1 18 -1 #SUP: 3
17 -1 5 -1 17 -1 387 -1 #SUP: 2
17 -1 5 -1 17 -1 3346 -1 #SUP: 2
17 -1 5 -1 18 -1 5 -1 #SUP: 3
17 -1 5 -1 18 -1 17 -1 #SUP: 6
17 -1 5 -1 18 -1 18 -1 #SUP: 3
17 -1 5 -1 18 -1 387 -1 #SUP: 2
17 -1 5 -1 18 -1 3346 -1 #SUP: 2
17 -1 17 -1 5 -1 18 -1 #SUP: 3
17 -1 18 -1 5 -1 18 -1 #SUP: 3
17 -1 18 -1 17 -1 5 -1 #SUP: 3
17 -1 18 -1 17 -1 18 -1 #SUP: 3
17 -1 18 -1 17 -1 387 -1 #SUP: 2
17 -1 18 -1 17 -1 3346 -1 #SUP: 2
17 -1 3346 -1 5 -1 17 -1 #SUP: 2
17 -1 3346 -1 5 -1 18 -1 #SUP: 3
17 -1 3346 -1 18 -1 17 -1 #SUP: 2
18 -1 5 -1 17 -1 5 -1 #SUP: 3
18 -1 5 -1 17 -1 3346 -1 #SUP: 2
18 -1 5 -1 18 -1 5 -1 #SUP: 3
18 -1 5 -1 18 -1 17 -1 #SUP: 6
18 -1 5 -1 18 -1 3346 -1 #SUP: 2
18 -1 17 -1 5 -1 5 -1 #SUP: 3
18 -1 17 -1 5 -1 17 -1 #SUP: 6
18 -1 17 -1 5 -1 18 -1 #SUP: 6
18 -1 17 -1 5 -1 3346 -1 #SUP: 2
18 -1 17 -1 17 -1 5 -1 #SUP: 3
18 -1 17 -1 17 -1 3346 -1 #SUP: 2
18 -1 17 -1 18 -1 5 -1 #SUP: 3
18 -1 17 -1 18 -1 17 -1 #SUP: 6
18 -1 17 -1 18 -1 3346 -1 #SUP: 2
18 -1 17 -1 3346 -1 5 -1 #SUP: 3
18 -1 17 -1 3346 -1 17 -1 #SUP: 2
18 -1 17 -1 3346 -1 18 -1 #SUP: 2
18 -1 17 -1 3346 -1 1336 -1 #SUP: 3
18 -1 17 -1 3346 -1 6802 -1 #SUP: 2
18 -1 18 -1 17 -1 5 -1 #SUP: 3
18 -1 18 -1 17 -1 3346 -1 #SUP: 2
18 -1 3346 -1 5 -1 17 -1 #SUP: 2
18 -1 3346 -1 5 -1 18 -1 #SUP: 2
18 -1 3346 -1 18 -1 17 -1 #SUP: 2
18 -1 6460 -1 166 -1 3794 -1 #SUP: 2
3346 -1 5 -1 18 -1 17 -1 #SUP: 3
5 -1 17 -1 5 -1 18 -1 17 -1 #SUP: 6
5 -1 17 -1 3346 -1 5 -1 17 -1 #SUP: 2
5 -1 17 -1 3346 -1 5 -1 18 -1 #SUP: 2
5 -1 17 -1 3346 -1 18 -1 17 -1 #SUP: 2
5 -1 18 -1 5 -1 18 -1 17 -1 #SUP: 6
5 -1 18 -1 17 -1 5 -1 17 -1 #SUP: 6
5 -1 18 -1 17 -1 5 -1 18 -1 #SUP: 6
5 -1 18 -1 17 -1 18 -1 17 -1 #SUP: 6
5 -1 18 -1 17 -1 3346 -1 5 -1 #SUP: 2
5 -1 18 -1 17 -1 3346 -1 17 -1 #SUP: 2
5 -1 18 -1 17 -1 3346 -1 18 -1 #SUP: 2
5 -1 18 -1 17 -1 3346 -1 1336 -1 #SUP: 3
5 -1 18 -1 17 -1 3346 -1 6802 -1 #SUP: 2
5 -1 18 -1 3346 -1 5 -1 17 -1 #SUP: 2
5 -1 18 -1 3346 -1 5 -1 18 -1 #SUP: 2
5 -1 18 -1 3346 -1 18 -1 17 -1 #SUP: 2
5 -1 18 -1 6460 -1 166 -1 3794 -1 #SUP: 2
5 -1 3346 -1 5 -1 18 -1 17 -1 #SUP: 2
17 -1 5 -1 17 -1 5 -1 18 -1 #SUP: 3
17 -1 5 -1 18 -1 5 -1 18 -1 #SUP: 3
17 -1 5 -1 18 -1 17 -1 5 -1 #SUP: 3
17 -1 5 -1 18 -1 17 -1 18 -1 #SUP: 3
17 -1 5 -1 18 -1 17 -1 387 -1 #SUP: 2
17 -1 5 -1 18 -1 17 -1 3346 -1 #SUP: 2
17 -1 18 -1 17 -1 5 -1 18 -1 #SUP: 3
17 -1 3346 -1 5 -1 18 -1 17 -1 #SUP: 2
18 -1 5 -1 18 -1 17 -1 5 -1 #SUP: 3
18 -1 5 -1 18 -1 17 -1 3346 -1 #SUP: 2
18 -1 17 -1 5 -1 17 -1 5 -1 #SUP: 3
18 -1 17 -1 5 -1 17 -1 3346 -1 #SUP: 2
18 -1 17 -1 5 -1 18 -1 5 -1 #SUP: 3
18 -1 17 -1 5 -1 18 -1 17 -1 #SUP: 6
18 -1 17 -1 5 -1 18 -1 3346 -1 #SUP: 2
18 -1 17 -1 18 -1 17 -1 5 -1 #SUP: 3
18 -1 17 -1 18 -1 17 -1 3346 -1 #SUP: 2
18 -1 17 -1 3346 -1 5 -1 17 -1 #SUP: 2
18 -1 17 -1 3346 -1 5 -1 18 -1 #SUP: 2
18 -1 17 -1 3346 -1 18 -1 17 -1 #SUP: 2
18 -1 3346 -1 5 -1 18 -1 17 -1 #SUP: 2
5 -1 17 -1 3346 -1 5 -1 18 -1 17 -1 #SUP: 2
5 -1 18 -1 17 -1 5 -1 18 -1 17 -1 #SUP: 6
5 -1 18 -1 17 -1 3346 -1 5 -1 17 -1 #SUP: 2
5 -1 18 -1 17 -1 3346 -1 5 -1 18 -1 #SUP: 2
5 -1 18 -1 17 -1 3346 -1 18 -1 17 -1 #SUP: 2
5 -1 18 -1 3346 -1 5 -1 18 -1 17 -1 #SUP: 2
17 -1 5 -1 18 -1 17 -1 5 -1 18 -1 #SUP: 3
18 -1 17 -1 5 -1 18 -1 17 -1 5 -1 #SUP: 3
18 -1 17 -1 5 -1 18 -1 17 -1 3346 -1 #SUP: 2
18 -1 17 -1 3346 -1 5 -1 18 -1 17 -1 #SUP: 2
5 -1 18 -1 17 -1 3346 -1 5 -1 18 -1 17 -1 #SUP: 2
