3 -1 #SUP: 2
4 -1 #SUP: 4
6 -1 #SUP: 2
19 -1 #SUP: 5
29 -1 #SUP: 3
31 -1 #SUP: 2
33 -1 #SUP: 3
44 -1 #SUP: 2
48 -1 #SUP: 11
49 -1 #SUP: 2
50 -1 #SUP: 53
54 -1 #SUP: 4
89 -1 #SUP: 8
94 -1 #SUP: 3
108 -1 #SUP: 2
111 -1 #SUP: 2
112 -1 #SUP: 4
114 -1 #SUP: 8
118 -1 #SUP: 4
138 -1 #SUP: 4
142 -1 #SUP: 3
149 -1 #SUP: 4
155 -1 #SUP: 2
158 -1 #SUP: 2
161 -1 #SUP: 2
163 -1 #SUP: 2
180 -1 #SUP: 2
202 -1 #SUP: 2
210 -1 #SUP: 2
218 -1 #SUP: 2
233 -1 #SUP: 5
248 -1 #SUP: 7
254 -1 #SUP: 7
255 -1 #SUP: 2
258 -1 #SUP: 3
279 -1 #SUP: 2
289 -1 #SUP: 2
296 -1 #SUP: 7
304 -1 #SUP: 3
307 -1 #SUP: 2
312 -1 #SUP: 2
362 -1 #SUP: 3
380 -1 #SUP: 2
384 -1 #SUP: 2
387 -1 #SUP: 2
421 -1 #SUP: 2
428 -1 #SUP: 3
429 -1 #SUP: 3
439 -1 #SUP: 2
455 -1 #SUP: 2
458 -1 #SUP: 2
471 -1 #SUP: 5
483 -1 #SUP: 3
495 -1 #SUP: 3
505 -1 #SUP: 2
548 -1 #SUP: 2
551 -1 #SUP: 3
557 -1 #SUP: 2
593 -1 #SUP: 2
627 -1 #SUP: 4
630 -1 #SUP: 2
640 -1 #SUP: 6
678 -1 #SUP: 2
746 -1 #SUP: 2
767 -1 #SUP: 2
802 -1 #SUP: 2
807 -1 #SUP: 2
836 -1 #SUP: 2
855 -1 #SUP: 3
873 -1 #SUP: 3
918 -1 #SUP: 2
927 -1 #SUP: 3
931 -1 #SUP: 3
933 -1 #SUP: 3
999 -1 #SUP: 3
1002 -1 #SUP: 2
1014 -1 #SUP: 3
1092 -1 #SUP: 2
1107 -1 #SUP: 4
1145 -1 #SUP: 2
1188 -1 #SUP: 2
1228 -1 #SUP: 2
1279 -1 #SUP: 3
1303 -1 #SUP: 2
1336 -1 #SUP: 2
1481 -1 #SUP: 2
1503 -1 #SUP: 2
1514 -1 #SUP: 2
1540 -1 #SUP: 3
1643 -1 #SUP: 2
1664 -1 #SUP: 2
1731 -1 #SUP: 2
1803 -1 #SUP: 2
1808 -1 #SUP: 2
1827 -1 #SUP: 2
1871 -1 #SUP: 3
2006 -1 #SUP: 2
2127 -1 #SUP: 2
2319 -1 #SUP: 2
2346 -1 #SUP: 3
2671 -1 #SUP: 2
3110 -1 #SUP: 2
3555 -1 #SUP: 3
4015 -1 #SUP: 3
4904 -1 #SUP: 2
4985 -1 #SUP: 3
7467 -1 #SUP: 3
7496 -1 #SUP: 2
14020 -1 #SUP: 2
21491 -1 #SUP: 2
3 -1 50 -1 #SUP: 2
19 -1 627 -1 #SUP: 2
19 -1 640 -1 #SUP: 2
48 -1 50 -1 #SUP: 5
48 -1 114 -1 #SUP: 2
48 -1 258 -1 #SUP: 2
50 -1 3 -1 #SUP: 2
50 -1 48 -1 #SUP: 2
50 -1 49 -1 #SUP: 2
50 -1 50 -1 #SUP: 10
50 -1 89 -1 #SUP: 4
50 -1 112 -1 #SUP: 3
50 -1 158 -1 #SUP: 2
50 -1 161 -1 #SUP: 2
50 -1 254 -1 #SUP: 2
50 -1 296 -1 #SUP: 2
50 -1 630 -1 #SUP: 2
50 -1 855 -1 #SUP: 2
50 -1 1107 -1 #SUP: 2
50 -1 1228 -1 #SUP: 2
50 -1 4015 -1 #SUP: 3
50 -1 7467 -1 #SUP: 2
50 -1 21491 -1 #SUP: 2
54 -1 50 -1 #SUP: 2
54 -1 112 -1 #SUP: 2
89 -1 50 -1 #SUP: 3
89 -1 233 -1 #SUP: 2
94 -1 50 -1 #SUP: 2
112 -1 50 -1 #SUP: 2
114 -1 421 -1 #SUP: 2
233 -1 50 -1 #SUP: 2
248 -1 50 -1 #SUP: 2
248 -1 149 -1 #SUP: 2
254 -1 50 -1 #SUP: 3
255 -1 50 -1 #SUP: 2
304 -1 50 -1 #SUP: 2
312 -1 50 -1 #SUP: 2
312 -1 855 -1 #SUP: 2
312 -1 4015 -1 #SUP: 2
312 -1 21491 -1 #SUP: 2
428 -1 50 -1 #SUP: 2
428 -1 483 -1 #SUP: 2
429 -1 50 -1 #SUP: 2
429 -1 428 -1 #SUP: 2
471 -1 50 -1 #SUP: 2
640 -1 248 -1 #SUP: 2
802 -1 50 -1 #SUP: 2
855 -1 4015 -1 #SUP: 2
855 -1 21491 -1 #SUP: 2
931 -1 258 -1 #SUP: 2
931 -1 2319 -1 #SUP: 2
933 -1 50 -1 #SUP: 2
1014 -1 50 -1 #SUP: 2
1107 -1 50 -1 #SUP: 3
1145 -1 50 -1 #SUP: 2
1228 -1 50 -1 #SUP: 2
1336 -1 50 -1 #SUP: 2
1540 -1 50 -1 #SUP: 2
1731 -1 50 -1 #SUP: 2
1731 -1 14020 -1 #SUP: 2
1803 -1 50 -1 #SUP: 2
7467 -1 50 -1 #SUP: 2
21491 -1 4015 -1 #SUP: 2
50 -1 3 -1 50 -1 #SUP: 2
50 -1 112 -1 50 -1 #SUP: 2
50 -1 855 -1 4015 -1 #SUP: 2
50 -1 855 -1 21491 -1 #SUP: 2
50 -1 1228 -1 50 -1 #SUP: 2
50 -1 21491 -1 4015 -1 #SUP: 2
312 -1 50 -1 855 -1 #SUP: 2
312 -1 50 -1 4015 -1 #SUP: 2
312 -1 50 -1 21491 -1 #SUP: 2
312 -1 855 -1 4015 -1 #SUP: 2
312 -1 855 -1 21491 -1 #SUP: 2
312 -1 21491 -1 4015 -1 #SUP: 2
855 -1 21491 -1 4015 -1 #SUP: 2
1107 -1 50 -1 50 -1 #SUP: 2
50 -1 855 -1 21491 -1 4015 -1 #SUP: 2
312 -1 50 -1 855 -1 4015 -1 #SUP: 2
312 -1 50 -1 855 -1 21491 -1 #SUP: 2
312 -1 50 -1 21491 -1 4015 -1 #SUP: 2
312 -1 855 -1 21491 -1 4015 -1 #SUP: 2
312 -1 50 -1 855 -1 21491 -1 4015 -1 #SUP: 2
