6 -1 18 -1 17 -1 138144 -1 287 -1 4 -1 2443 -1 1185 -1 832 -1 50 -1 302 -1 248 -1 19 -2
377 -1 1399 -1 377 -1 19 -2
50 -1 760 -1 2947 -1 439 -1 1186 -1 50 -1 7895 -1 19 -2
142 -1 302 -1 1373 -1 19 -2
50 -1 142 -1 4907 -1 344 -1 130 -1 19 -2
344 -1 2240 -1 1246 -1 158 -1 1640 -1 1480 -1 50 -1 3314 -1 1877 -1 158 -1 1640 -1 19 -2
103 -1 876 -1 896 -1 19 -2
747 -1 247 -1 770 -1 50 -1 1923 -1 2374 -1 305 -1 30195 -1 19 -2
2240 -1 8836 -1 10578 -1 8075 -1 50 -1 15071 -1 362 -1 395 -1 19 -2
139 -1 10257 -1 3593 -1 19 -2
140 -1 841 -1 395 -1 19 -2
4088 -1 1717 -1 4335 -1 420 -1 4817 -1 2955 -1 422 -1 325 -1 4639 -1 896 -1 1478 -1 1476 -1 1481 -1 1480 -1 2257 -1 1 -2
1481 -1 1 -2
30 -1 254 -1 2687 -1 1480 -1 50 -1 130 -1 49 -1 1731 -1 248 -1 2020 -1 2698 -1 19 -2
471 -1 19 -2
640 -1 248 -1 1031 -1 149 -1 5897 -1 4906 -1 304 -1 149 -1 255 -1 1336 -1 50 -1 564 -1 13539 -1 19 -2
388 -1 29 -1 315 -1 1865 -1 19 -2
626 -1 50 -1 89 -1 19 -2
377 -1 2167 -1 2370 -1 2240 -1 947 -1 512 -1 10672 -1 6789 -1 12341 -1 4 -1 50 -1 9931 -1 116411 -1 25521 -1 19 -2
444 -1 33 -1 19 -2
50 -1 6658 -1 1386 -1 155 -1 893 -1 2491 -1 2225 -1 21 -1 893 -1 23984 -1 8742 -1 50 -1 138 -1 486 -1 149 -1 1 -2
50 -1 19 -2
114 -1 115 -1 33773 -1 50 -1 263 -1 54 -1 19 -2
254 -1 434 -1 405 -1 72 -1 19 -2
142 -1 522 -1 151 -1 11731 -1 30 -1 2163 -1 1397 -1 19 -2
1231 -1 1865 -1 89 -1 1185 -1 30 -1 3064 -1 669 -1 279 -1 19 -2
112 -1 2719 -1 2482 -1 50 -1 1623 -1 30 -1 48 -1 19 -2
73 -1 25 -1 19 -2
738 -1 148 -1 19 -2
6 -1 18 -1 17 -1 138146 -1 18024 -1 138145 -1 15673 -1 3837 -1 48 -1 3064 -1 289 -1 279 -1 428 -1 14355 -1 19 -2
175 -1 11108 -1 19 -2
275 -1 50 -1 406 -1 50 -1 8639 -1 19 -2
48 -1 717 -1 50 -1 19 -2
114 -1 667 -1 50 -1 248 -1 50 -1 142 -1 1429 -1 1014 -1 775 -1 3310 -1 19 -2
2024 -1 50 -1 161 -1 33 -1 509 -1 19318 -1 2264 -1 19 -2
255 -1 4466 -1 2693 -1 50 -1 568 -1 2536 -1 2784 -1 19 -2
36 -1 50 -1 73 -1 25 -1 19 -2
148 -1 583 -1 19 -2
36 -1 50 -1 738 -1 148 -1 49 -1 25 -1 19 -2
50 -1 315 -1 24707 -1 6648 -1 405 -1 50 -1 48 -1 33603 -1 11626 -1 564 -1 50 -1 841 -1 15395 -1 10198 -1 50 -1 304 -1 5060 -1 7239 -1 18951 -1 19 -2
625 -1 19 -2
2173 -1 5871 -1 2173 -1 270 -1 8789 -1 50 -1 248 -1 8789 -1 2173 -1 2498 -1 474 -1 19 -2
2030 -1 50 -1 1542 -1 19 -2
175 -1 1247 -1 677 -1 7 -1 1106 -1 400 -1 289 -1 281 -1 7 -1 47 -1 30 -1 19 -2
425 -1 667 -1 19 -2
468 -1 4 -1 19 -2
907 -1 41298 -1 19 -2
5 -1 138149 -1 138147 -1 1585 -1 78913 -1 218 -1 422 -1 138150 -1 138148 -1 4053 -1 19 -2
262 -1 27 -1 121 -1 19 -2
5 -1 138152 -1 138151 -1 231 -1 72 -1 19 -2
14492 -1 30 -1 807 -1 175 -1 19 -2
5 -1 138152 -1 138151 -1 1874 -1 732 -1 19 -2
5 -1 138152 -1 138153 -1 1874 -1 7516 -1 3392 -1 19 -2
1718 -1 6316 -1 52201 -1 949 -1 72 -1 752 -1 6259 -1 50 -1 105 -1 5672 -1 1034 -1 19 -2
3856 -1 50 -1 323 -1 1373 -1 824 -1 1415 -1 14672 -1 19 -2
114 -1 50 -1 19 -2
626 -1 50 -1 26160 -1 21218 -1 19 -2
254 -1 1828 -1 19 -2
853 -1 262 -1 681 -1 27 -1 2393 -1 1061 -1 388 -1 667 -1 577 -1 1716 -1 27 -1 64970 -1 19 -2
626 -1 50 -1 159 -1 14672 -1 824 -1 19 -2
48 -1 142 -1 593 -1 296 -1 1216 -1 577 -1 1716 -1 1219 -1 995 -1 27 -1 50 -1 667 -1 19 -2
48 -1 717 -1 626 -1 50 -1 315 -1 19 -2
1219 -1 637 -1 2166 -1 619 -1 864 -1 50 -1 94 -1 1373 -1 263 -1 548 -1 19 -2
31099 -1 50 -1 19 -2
6 -1 18 -1 17 -1 138154 -1 3856 -1 50 -1 19 -2
510 -1 50 -1 640 -1 50 -1 557 -1 6844 -1 9159 -1 29 -1 19 -2
1429 -1 398 -1 248 -1 48 -1 471 -1 3429 -1 680 -1 19 -2
254 -1 471 -1 267 -1 2385 -1 50 -1 468 -1 4 -1 50 -1 30 -1 89 -1 54 -1 1291 -1 149 -1 89 -1 115 -1 1291 -1 50 -1 19 -2
2419 -1 50 -1 330 -1 19 -2
640 -1 248 -1 677 -1 50 -1 2024 -1 19 -2
1452 -1 48 -1 406 -1 434 -1 510 -1 19 -2
928 -1 64 -1 9290 -1 1303 -1 19 -2
194 -1 2257 -1 1481 -1 120 -1 21 -1 405 -1 927 -1 1247 -1 697 -1 1646 -1 65 -1 19 -2
1246 -1 262 -1 1480 -1 6431 -1 6432 -1 27 -1 19 -2
7649 -1 30 -1 19 -2
6407 -1 3133 -1 4199 -1 1818 -1 27 -1 50 -1 718 -1 19 -2
115 -1 483 -1 439 -1 1186 -1 233 -1 428 -1 1253 -1 50 -1 1303 -1 483 -1 871 -1 658 -1 660 -1 510 -1 476 -1 111556 -1 19 -2
968 -1 2252 -1 19 -2
149 -1 1044 -1 50 -1 3817 -1 3453 -1 19 -2
50 -1 1009 -1 19 -2
73 -1 25 -1 50 -1 296 -1 19 -2
1046 -1 909 -1 31 -1 50 -1 747 -1 149 -1 105 -1 115 -1 719 -1 5509 -1 425 -1 485 -1 341 -1 19 -2
248 -1 50 -1 640 -1 818 -1 855 -1 19 -2
875 -1 961 -1 2673 -1 975 -1 747 -1 7603 -1 179 -1 202 -1 166 -1 255 -1 287 -1 952 -1 449 -1 19 -2
167 -1 3088 -1 560 -1 19 -2
603 -1 19 -2
425 -1 194 -1 613 -1 50 -1 49 -1 259 -1 19 -2
420 -1 10261 -1 733 -1 19 -2
7303 -1 19 -2
270 -1 640 -1 248 -1 1309 -1 1161 -1 149 -1 997 -1 510 -1 22220 -1 1441 -1 1895 -1 19 -2
2012 -1 20593 -1 112 -1 50 -1 640 -1 3166 -1 19 -2
428 -1 2385 -1 233 -1 19 -2
995 -1 19 -2
50 -1 89 -1 233 -1 2818 -1 2419 -1 50 -1 93 -1 3458 -1 33 -1 50 -1 19 -2
50 -1 925 -1 163 -1 593 -1 89 -1 771 -1 50 -1 1427 -1 1435 -1 51561 -1 4328 -1 19 -2
10272 -1 174 -1 1758 -1 330 -1 19 -2
853 -1 439 -1 19 -2
510 -1 1303 -1 89 -1 1857 -1 33360 -1 1454 -1 790 -1 19 -2
1630 -1 289 -1 279 -1 645 -1 276 -1 8085 -1 50 -1 2854 -1 289 -1 13436 -1 19 -2
36 -1 50 -1 73 -1 25 -1 19 -2
738 -1 148 -1 583 -1 19 -2
30 -1 2113 -1 7465 -1 2113 -1 30 -1 21099 -1 43 -1 468 -1 4 -1 7 -1 19 -2
553 -1 50 -1 2697 -1 747 -1 138 -1 2059 -1 248 -1 2159 -1 377 -1 3015 -1 50 -1 19 -2
5 -1 18 -1 17 -1 138155 -2