5 -1 #SUP: 5
11 -1 #SUP: 4
17 -1 #SUP: 5
18 -1 #SUP: 5
27 -1 #SUP: 2
33 -1 #SUP: 5
48 -1 #SUP: 6
49 -1 #SUP: 4
50 -1 #SUP: 133
54 -1 #SUP: 3
94 -1 #SUP: 3
105 -1 #SUP: 5
113 -1 #SUP: 2
115 -1 #SUP: 6
118 -1 #SUP: 3
130 -1 #SUP: 2
132 -1 #SUP: 4
138 -1 #SUP: 12
149 -1 #SUP: 7
223 -1 #SUP: 2
231 -1 #SUP: 2
233 -1 #SUP: 7
235 -1 #SUP: 15
247 -1 #SUP: 2
248 -1 #SUP: 14
254 -1 #SUP: 10
255 -1 #SUP: 3
278 -1 #SUP: 3
286 -1 #SUP: 2
288 -1 #SUP: 2
290 -1 #SUP: 6
296 -1 #SUP: 2
381 -1 #SUP: 5
384 -1 #SUP: 2
388 -1 #SUP: 2
435 -1 #SUP: 3
441 -1 #SUP: 2
444 -1 #SUP: 9
474 -1 #SUP: 2
483 -1 #SUP: 4
540 -1 #SUP: 6
557 -1 #SUP: 7
625 -1 #SUP: 6
626 -1 #SUP: 3
640 -1 #SUP: 6
675 -1 #SUP: 3
677 -1 #SUP: 2
713 -1 #SUP: 2
718 -1 #SUP: 3
725 -1 #SUP: 3
738 -1 #SUP: 2
845 -1 #SUP: 2
871 -1 #SUP: 3
929 -1 #SUP: 2
932 -1 #SUP: 4
999 -1 #SUP: 2
1005 -1 #SUP: 2
1014 -1 #SUP: 2
1252 -1 #SUP: 3
1326 -1 #SUP: 2
1348 -1 #SUP: 2
1429 -1 #SUP: 2
1448 -1 #SUP: 2
1500 -1 #SUP: 2
1707 -1 #SUP: 2
1738 -1 #SUP: 2
1831 -1 #SUP: 2
1874 -1 #SUP: 4
2223 -1 #SUP: 2
2394 -1 #SUP: 4
2396 -1 #SUP: 3
2431 -1 #SUP: 2
3599 -1 #SUP: 4
4258 -1 #SUP: 2
5871 -1 #SUP: 3
6204 -1 #SUP: 3
49127 -1 #SUP: 7
59984 -1 #SUP: 2
76287 -1 #SUP: 2
92768 -1 #SUP: 2
114879 -1 #SUP: 2
124028 -1 #SUP: 2
5 -1 5 -1 #SUP: 2
5 -1 17 -1 #SUP: 4
5 -1 18 -1 #SUP: 4
5 -1 50 -1 #SUP: 3
5 -1 124028 -1 #SUP: 2
11 -1 50 -1 #SUP: 3
11 -1 278 -1 #SUP: 2
11 -1 2394 -1 #SUP: 2
11 -1 3599 -1 #SUP: 3
17 -1 5 -1 #SUP: 2
17 -1 17 -1 #SUP: 2
17 -1 18 -1 #SUP: 2
17 -1 50 -1 #SUP: 4
17 -1 124028 -1 #SUP: 2
18 -1 5 -1 #SUP: 2
18 -1 17 -1 #SUP: 4
18 -1 18 -1 #SUP: 2
18 -1 50 -1 #SUP: 4
18 -1 124028 -1 #SUP: 2
27 -1 50 -1 #SUP: 2
33 -1 50 -1 #SUP: 2
48 -1 50 -1 #SUP: 3
49 -1 50 -1 #SUP: 3
50 -1 11 -1 #SUP: 3
50 -1 27 -1 #SUP: 2
50 -1 33 -1 #SUP: 5
50 -1 48 -1 #SUP: 4
50 -1 49 -1 #SUP: 2
50 -1 50 -1 #SUP: 26
50 -1 54 -1 #SUP: 2
50 -1 94 -1 #SUP: 2
50 -1 105 -1 #SUP: 4
50 -1 115 -1 #SUP: 2
50 -1 132 -1 #SUP: 2
50 -1 138 -1 #SUP: 9
50 -1 149 -1 #SUP: 5
50 -1 231 -1 #SUP: 2
50 -1 233 -1 #SUP: 5
50 -1 235 -1 #SUP: 9
50 -1 247 -1 #SUP: 2
50 -1 248 -1 #SUP: 8
50 -1 254 -1 #SUP: 7
50 -1 255 -1 #SUP: 2
50 -1 278 -1 #SUP: 2
50 -1 288 -1 #SUP: 2
50 -1 290 -1 #SUP: 5
50 -1 381 -1 #SUP: 4
50 -1 435 -1 #SUP: 2
50 -1 441 -1 #SUP: 2
50 -1 444 -1 #SUP: 2
50 -1 474 -1 #SUP: 2
50 -1 483 -1 #SUP: 3
50 -1 557 -1 #SUP: 5
50 -1 625 -1 #SUP: 3
50 -1 626 -1 #SUP: 3
50 -1 640 -1 #SUP: 4
50 -1 675 -1 #SUP: 2
50 -1 677 -1 #SUP: 2
50 -1 718 -1 #SUP: 2
50 -1 725 -1 #SUP: 2
50 -1 845 -1 #SUP: 2
50 -1 871 -1 #SUP: 3
50 -1 932 -1 #SUP: 3
50 -1 1005 -1 #SUP: 2
50 -1 1252 -1 #SUP: 3
50 -1 1429 -1 #SUP: 2
50 -1 1448 -1 #SUP: 2
50 -1 1738 -1 #SUP: 2
50 -1 1831 -1 #SUP: 2
50 -1 1874 -1 #SUP: 3
50 -1 2223 -1 #SUP: 2
50 -1 2394 -1 #SUP: 3
50 -1 2396 -1 #SUP: 2
50 -1 3599 -1 #SUP: 4
50 -1 5871 -1 #SUP: 3
50 -1 6204 -1 #SUP: 2
50 -1 49127 -1 #SUP: 5
50 -1 59984 -1 #SUP: 2
54 -1 50 -1 #SUP: 2
94 -1 50 -1 #SUP: 3
94 -1 248 -1 #SUP: 2
105 -1 50 -1 #SUP: 3
113 -1 50 -1 #SUP: 2
115 -1 50 -1 #SUP: 2
115 -1 235 -1 #SUP: 2
118 -1 50 -1 #SUP: 3
132 -1 50 -1 #SUP: 3
132 -1 254 -1 #SUP: 2
138 -1 50 -1 #SUP: 8
138 -1 115 -1 #SUP: 2
138 -1 255 -1 #SUP: 2
138 -1 640 -1 #SUP: 2
149 -1 33 -1 #SUP: 2
149 -1 50 -1 #SUP: 7
149 -1 235 -1 #SUP: 3
223 -1 50 -1 #SUP: 2
223 -1 5871 -1 #SUP: 2
233 -1 50 -1 #SUP: 6
235 -1 50 -1 #SUP: 10
235 -1 54 -1 #SUP: 2
235 -1 105 -1 #SUP: 2
235 -1 115 -1 #SUP: 2
235 -1 138 -1 #SUP: 2
235 -1 233 -1 #SUP: 2
235 -1 235 -1 #SUP: 2
235 -1 381 -1 #SUP: 2
235 -1 444 -1 #SUP: 2
235 -1 640 -1 #SUP: 2
235 -1 4258 -1 #SUP: 2
235 -1 49127 -1 #SUP: 2
247 -1 50 -1 #SUP: 2
248 -1 50 -1 #SUP: 8
248 -1 105 -1 #SUP: 2
248 -1 138 -1 #SUP: 2
248 -1 231 -1 #SUP: 2
248 -1 248 -1 #SUP: 2
248 -1 626 -1 #SUP: 2
248 -1 1738 -1 #SUP: 2
254 -1 50 -1 #SUP: 8
254 -1 254 -1 #SUP: 2
254 -1 290 -1 #SUP: 2
254 -1 49127 -1 #SUP: 3
255 -1 50 -1 #SUP: 3
278 -1 50 -1 #SUP: 3
278 -1 231 -1 #SUP: 2
278 -1 248 -1 #SUP: 2
278 -1 254 -1 #SUP: 2
278 -1 3599 -1 #SUP: 2
288 -1 50 -1 #SUP: 2
290 -1 50 -1 #SUP: 4
290 -1 290 -1 #SUP: 2
290 -1 444 -1 #SUP: 2
296 -1 50 -1 #SUP: 2
381 -1 50 -1 #SUP: 3
388 -1 50 -1 #SUP: 2
435 -1 50 -1 #SUP: 2
444 -1 50 -1 #SUP: 4
444 -1 248 -1 #SUP: 2
444 -1 254 -1 #SUP: 2
483 -1 50 -1 #SUP: 2
540 -1 50 -1 #SUP: 2
540 -1 540 -1 #SUP: 3
557 -1 50 -1 #SUP: 4
625 -1 33 -1 #SUP: 2
625 -1 50 -1 #SUP: 5
625 -1 248 -1 #SUP: 2
625 -1 49127 -1 #SUP: 2
626 -1 50 -1 #SUP: 2
640 -1 50 -1 #SUP: 4
640 -1 288 -1 #SUP: 2
675 -1 50 -1 #SUP: 3
675 -1 2396 -1 #SUP: 2
677 -1 50 -1 #SUP: 2
713 -1 50 -1 #SUP: 2
718 -1 50 -1 #SUP: 2
718 -1 557 -1 #SUP: 2
725 -1 50 -1 #SUP: 3
845 -1 50 -1 #SUP: 2
871 -1 50 -1 #SUP: 3
871 -1 132 -1 #SUP: 2
871 -1 640 -1 #SUP: 2
929 -1 50 -1 #SUP: 2
932 -1 50 -1 #SUP: 4
932 -1 254 -1 #SUP: 2
932 -1 49127 -1 #SUP: 2
999 -1 50 -1 #SUP: 2
1005 -1 50 -1 #SUP: 2
1014 -1 50 -1 #SUP: 2
1252 -1 50 -1 #SUP: 3
1326 -1 50 -1 #SUP: 2
1448 -1 50 -1 #SUP: 2
1707 -1 50 -1 #SUP: 2
1874 -1 50 -1 #SUP: 3
1874 -1 248 -1 #SUP: 2
2223 -1 50 -1 #SUP: 2
2394 -1 50 -1 #SUP: 3
2396 -1 50 -1 #SUP: 3
2431 -1 50 -1 #SUP: 2
2431 -1 5871 -1 #SUP: 2
3599 -1 50 -1 #SUP: 4
3599 -1 254 -1 #SUP: 2
3599 -1 2394 -1 #SUP: 3
5871 -1 50 -1 #SUP: 2
6204 -1 50 -1 #SUP: 3
6204 -1 235 -1 #SUP: 3
49127 -1 50 -1 #SUP: 6
49127 -1 233 -1 #SUP: 2
59984 -1 50 -1 #SUP: 2
59984 -1 1252 -1 #SUP: 2
76287 -1 50 -1 #SUP: 2
92768 -1 50 -1 #SUP: 2
92768 -1 248 -1 #SUP: 2
114879 -1 50 -1 #SUP: 2
124028 -1 50 -1 #SUP: 2
5 -1 5 -1 17 -1 #SUP: 2
5 -1 5 -1 18 -1 #SUP: 2
5 -1 17 -1 5 -1 #SUP: 2
5 -1 17 -1 17 -1 #SUP: 2
5 -1 17 -1 18 -1 #SUP: 2
5 -1 17 -1 50 -1 #SUP: 3
5 -1 17 -1 124028 -1 #SUP: 2
5 -1 18 -1 5 -1 #SUP: 2
5 -1 18 -1 17 -1 #SUP: 4
5 -1 18 -1 18 -1 #SUP: 2
5 -1 18 -1 50 -1 #SUP: 3
5 -1 18 -1 124028 -1 #SUP: 2
5 -1 50 -1 50 -1 #SUP: 2
11 -1 50 -1 50 -1 #SUP: 2
11 -1 278 -1 50 -1 #SUP: 2
11 -1 278 -1 3599 -1 #SUP: 2
11 -1 3599 -1 50 -1 #SUP: 2
11 -1 3599 -1 2394 -1 #SUP: 2
17 -1 5 -1 17 -1 #SUP: 2
17 -1 5 -1 18 -1 #SUP: 2
17 -1 18 -1 17 -1 #SUP: 2
17 -1 50 -1 50 -1 #SUP: 2
17 -1 124028 -1 50 -1 #SUP: 2
18 -1 5 -1 17 -1 #SUP: 2
18 -1 5 -1 18 -1 #SUP: 2
18 -1 17 -1 5 -1 #SUP: 2
18 -1 17 -1 17 -1 #SUP: 2
18 -1 17 -1 18 -1 #SUP: 2
18 -1 17 -1 50 -1 #SUP: 4
18 -1 17 -1 124028 -1 #SUP: 2
18 -1 18 -1 17 -1 #SUP: 2
18 -1 50 -1 50 -1 #SUP: 2
18 -1 124028 -1 50 -1 #SUP: 2
27 -1 50 -1 50 -1 #SUP: 2
49 -1 50 -1 50 -1 #SUP: 2
50 -1 11 -1 50 -1 #SUP: 3
50 -1 11 -1 278 -1 #SUP: 2
50 -1 11 -1 3599 -1 #SUP: 3
50 -1 27 -1 50 -1 #SUP: 2
50 -1 33 -1 50 -1 #SUP: 2
50 -1 48 -1 50 -1 #SUP: 2
50 -1 50 -1 11 -1 #SUP: 2
50 -1 50 -1 27 -1 #SUP: 2
50 -1 50 -1 33 -1 #SUP: 3
50 -1 50 -1 48 -1 #SUP: 3
50 -1 50 -1 50 -1 #SUP: 20
50 -1 50 -1 54 -1 #SUP: 2
50 -1 50 -1 94 -1 #SUP: 2
50 -1 50 -1 132 -1 #SUP: 2
50 -1 50 -1 138 -1 #SUP: 4
50 -1 50 -1 149 -1 #SUP: 4
50 -1 50 -1 233 -1 #SUP: 4
50 -1 50 -1 235 -1 #SUP: 7
50 -1 50 -1 248 -1 #SUP: 6
50 -1 50 -1 254 -1 #SUP: 7
50 -1 50 -1 288 -1 #SUP: 2
50 -1 50 -1 290 -1 #SUP: 2
50 -1 50 -1 381 -1 #SUP: 4
50 -1 50 -1 441 -1 #SUP: 2
50 -1 50 -1 474 -1 #SUP: 2
50 -1 50 -1 483 -1 #SUP: 3
50 -1 50 -1 557 -1 #SUP: 3
50 -1 50 -1 640 -1 #SUP: 3
50 -1 50 -1 677 -1 #SUP: 2
50 -1 50 -1 871 -1 #SUP: 2
50 -1 50 -1 932 -1 #SUP: 3
50 -1 50 -1 1448 -1 #SUP: 2
50 -1 50 -1 1874 -1 #SUP: 3
50 -1 50 -1 2223 -1 #SUP: 2
50 -1 50 -1 2394 -1 #SUP: 3
50 -1 50 -1 3599 -1 #SUP: 3
50 -1 50 -1 5871 -1 #SUP: 2
50 -1 50 -1 6204 -1 #SUP: 2
50 -1 50 -1 49127 -1 #SUP: 3
50 -1 54 -1 50 -1 #SUP: 2
50 -1 94 -1 50 -1 #SUP: 2
50 -1 105 -1 50 -1 #SUP: 2
50 -1 132 -1 50 -1 #SUP: 2
50 -1 138 -1 50 -1 #SUP: 7
50 -1 138 -1 640 -1 #SUP: 2
50 -1 149 -1 33 -1 #SUP: 2
50 -1 149 -1 50 -1 #SUP: 4
50 -1 149 -1 235 -1 #SUP: 2
50 -1 233 -1 50 -1 #SUP: 5
50 -1 235 -1 50 -1 #SUP: 7
50 -1 235 -1 54 -1 #SUP: 2
50 -1 247 -1 50 -1 #SUP: 2
50 -1 248 -1 50 -1 #SUP: 6
50 -1 248 -1 626 -1 #SUP: 2
50 -1 248 -1 1738 -1 #SUP: 2
50 -1 254 -1 50 -1 #SUP: 6
50 -1 254 -1 290 -1 #SUP: 2
50 -1 255 -1 50 -1 #SUP: 2
50 -1 278 -1 50 -1 #SUP: 2
50 -1 278 -1 3599 -1 #SUP: 2
50 -1 288 -1 50 -1 #SUP: 2
50 -1 290 -1 50 -1 #SUP: 3
50 -1 290 -1 290 -1 #SUP: 2
50 -1 381 -1 50 -1 #SUP: 3
50 -1 557 -1 50 -1 #SUP: 2
50 -1 625 -1 50 -1 #SUP: 2
50 -1 626 -1 50 -1 #SUP: 2
50 -1 640 -1 50 -1 #SUP: 4
50 -1 640 -1 288 -1 #SUP: 2
50 -1 675 -1 50 -1 #SUP: 2
50 -1 677 -1 50 -1 #SUP: 2
50 -1 725 -1 50 -1 #SUP: 2
50 -1 845 -1 50 -1 #SUP: 2
50 -1 871 -1 50 -1 #SUP: 3
50 -1 871 -1 132 -1 #SUP: 2
50 -1 871 -1 640 -1 #SUP: 2
50 -1 932 -1 50 -1 #SUP: 3
50 -1 932 -1 254 -1 #SUP: 2
50 -1 1005 -1 50 -1 #SUP: 2
50 -1 1252 -1 50 -1 #SUP: 2
50 -1 1448 -1 50 -1 #SUP: 2
50 -1 1874 -1 50 -1 #SUP: 3
50 -1 1874 -1 248 -1 #SUP: 2
50 -1 2223 -1 50 -1 #SUP: 2
50 -1 2394 -1 50 -1 #SUP: 3
50 -1 2396 -1 50 -1 #SUP: 2
50 -1 3599 -1 50 -1 #SUP: 4
50 -1 3599 -1 2394 -1 #SUP: 3
50 -1 5871 -1 50 -1 #SUP: 2
50 -1 6204 -1 235 -1 #SUP: 2
50 -1 49127 -1 50 -1 #SUP: 5
50 -1 59984 -1 50 -1 #SUP: 2
113 -1 50 -1 50 -1 #SUP: 2
118 -1 50 -1 50 -1 #SUP: 2
132 -1 50 -1 50 -1 #SUP: 3
132 -1 50 -1 254 -1 #SUP: 2
138 -1 50 -1 50 -1 #SUP: 5
138 -1 50 -1 115 -1 #SUP: 2
138 -1 640 -1 50 -1 #SUP: 2
149 -1 50 -1 33 -1 #SUP: 2
149 -1 50 -1 50 -1 #SUP: 4
149 -1 235 -1 50 -1 #SUP: 3
223 -1 50 -1 5871 -1 #SUP: 2
233 -1 50 -1 50 -1 #SUP: 5
235 -1 50 -1 50 -1 #SUP: 6
235 -1 50 -1 54 -1 #SUP: 2
235 -1 50 -1 381 -1 #SUP: 2
235 -1 138 -1 50 -1 #SUP: 2
235 -1 233 -1 50 -1 #SUP: 2
235 -1 381 -1 50 -1 #SUP: 2
235 -1 640 -1 50 -1 #SUP: 2
235 -1 49127 -1 50 -1 #SUP: 2
248 -1 50 -1 50 -1 #SUP: 5
248 -1 50 -1 105 -1 #SUP: 2
248 -1 626 -1 50 -1 #SUP: 2
254 -1 50 -1 50 -1 #SUP: 2
254 -1 50 -1 254 -1 #SUP: 2
254 -1 50 -1 49127 -1 #SUP: 3
254 -1 290 -1 290 -1 #SUP: 2
278 -1 50 -1 50 -1 #SUP: 2
278 -1 50 -1 231 -1 #SUP: 2
278 -1 50 -1 254 -1 #SUP: 2
278 -1 248 -1 231 -1 #SUP: 2
278 -1 3599 -1 50 -1 #SUP: 2
290 -1 50 -1 50 -1 #SUP: 2
290 -1 290 -1 444 -1 #SUP: 2
296 -1 50 -1 50 -1 #SUP: 2
381 -1 50 -1 50 -1 #SUP: 2
444 -1 50 -1 50 -1 #SUP: 3
444 -1 50 -1 254 -1 #SUP: 2
540 -1 540 -1 50 -1 #SUP: 2
540 -1 540 -1 540 -1 #SUP: 3
625 -1 50 -1 33 -1 #SUP: 2
625 -1 50 -1 50 -1 #SUP: 2
640 -1 50 -1 50 -1 #SUP: 3
640 -1 288 -1 50 -1 #SUP: 2
675 -1 2396 -1 50 -1 #SUP: 2
713 -1 50 -1 50 -1 #SUP: 2
725 -1 50 -1 50 -1 #SUP: 2
871 -1 50 -1 50 -1 #SUP: 3
871 -1 50 -1 640 -1 #SUP: 2
871 -1 132 -1 50 -1 #SUP: 2
871 -1 640 -1 50 -1 #SUP: 2
929 -1 50 -1 50 -1 #SUP: 2
932 -1 50 -1 50 -1 #SUP: 2
932 -1 50 -1 254 -1 #SUP: 2
932 -1 50 -1 49127 -1 #SUP: 2
932 -1 254 -1 50 -1 #SUP: 2
1252 -1 50 -1 50 -1 #SUP: 2
1326 -1 50 -1 50 -1 #SUP: 2
1448 -1 50 -1 50 -1 #SUP: 2
1707 -1 50 -1 50 -1 #SUP: 2
1874 -1 50 -1 50 -1 #SUP: 3
1874 -1 248 -1 50 -1 #SUP: 2
2431 -1 50 -1 50 -1 #SUP: 2
2431 -1 50 -1 5871 -1 #SUP: 2
3599 -1 50 -1 254 -1 #SUP: 2
3599 -1 2394 -1 50 -1 #SUP: 3
6204 -1 235 -1 50 -1 #SUP: 3
49127 -1 50 -1 50 -1 #SUP: 3
49127 -1 50 -1 233 -1 #SUP: 2
49127 -1 233 -1 50 -1 #SUP: 2
59984 -1 50 -1 50 -1 #SUP: 2
59984 -1 50 -1 1252 -1 #SUP: 2
59984 -1 1252 -1 50 -1 #SUP: 2
5 -1 5 -1 18 -1 17 -1 #SUP: 2
5 -1 17 -1 5 -1 17 -1 #SUP: 2
5 -1 17 -1 5 -1 18 -1 #SUP: 2
5 -1 17 -1 18 -1 17 -1 #SUP: 2
5 -1 17 -1 50 -1 50 -1 #SUP: 2
5 -1 18 -1 5 -1 17 -1 #SUP: 2
5 -1 18 -1 5 -1 18 -1 #SUP: 2
5 -1 18 -1 17 -1 5 -1 #SUP: 2
5 -1 18 -1 17 -1 17 -1 #SUP: 2
5 -1 18 -1 17 -1 18 -1 #SUP: 2
5 -1 18 -1 17 -1 50 -1 #SUP: 3
5 -1 18 -1 17 -1 124028 -1 #SUP: 2
5 -1 18 -1 18 -1 17 -1 #SUP: 2
5 -1 18 -1 50 -1 50 -1 #SUP: 2
17 -1 5 -1 18 -1 17 -1 #SUP: 2
18 -1 5 -1 18 -1 17 -1 #SUP: 2
18 -1 17 -1 5 -1 17 -1 #SUP: 2
18 -1 17 -1 5 -1 18 -1 #SUP: 2
18 -1 17 -1 18 -1 17 -1 #SUP: 2
18 -1 17 -1 50 -1 50 -1 #SUP: 2
18 -1 17 -1 124028 -1 50 -1 #SUP: 2
50 -1 11 -1 278 -1 50 -1 #SUP: 2
50 -1 11 -1 278 -1 3599 -1 #SUP: 2
50 -1 11 -1 3599 -1 50 -1 #SUP: 2
50 -1 27 -1 50 -1 50 -1 #SUP: 2
50 -1 50 -1 27 -1 50 -1 #SUP: 2
50 -1 50 -1 50 -1 33 -1 #SUP: 2
50 -1 50 -1 50 -1 50 -1 #SUP: 10
50 -1 50 -1 50 -1 94 -1 #SUP: 2
50 -1 50 -1 50 -1 149 -1 #SUP: 2
50 -1 50 -1 50 -1 233 -1 #SUP: 2
50 -1 50 -1 50 -1 235 -1 #SUP: 3
50 -1 50 -1 50 -1 248 -1 #SUP: 3
50 -1 50 -1 50 -1 254 -1 #SUP: 3
50 -1 50 -1 50 -1 381 -1 #SUP: 2
50 -1 50 -1 50 -1 640 -1 #SUP: 2
50 -1 50 -1 50 -1 871 -1 #SUP: 2
50 -1 50 -1 50 -1 1874 -1 #SUP: 2
50 -1 50 -1 50 -1 2223 -1 #SUP: 2
50 -1 50 -1 138 -1 50 -1 #SUP: 3
50 -1 50 -1 149 -1 50 -1 #SUP: 3
50 -1 50 -1 233 -1 50 -1 #SUP: 4
50 -1 50 -1 235 -1 50 -1 #SUP: 4
50 -1 50 -1 248 -1 50 -1 #SUP: 2
50 -1 50 -1 254 -1 50 -1 #SUP: 3
50 -1 50 -1 381 -1 50 -1 #SUP: 3
50 -1 50 -1 640 -1 288 -1 #SUP: 2
50 -1 50 -1 871 -1 50 -1 #SUP: 2
50 -1 50 -1 1448 -1 50 -1 #SUP: 2
50 -1 50 -1 1874 -1 50 -1 #SUP: 3
50 -1 50 -1 2223 -1 50 -1 #SUP: 2
50 -1 50 -1 2394 -1 50 -1 #SUP: 3
50 -1 50 -1 3599 -1 50 -1 #SUP: 3
50 -1 50 -1 3599 -1 2394 -1 #SUP: 3
50 -1 50 -1 49127 -1 50 -1 #SUP: 3
50 -1 138 -1 50 -1 50 -1 #SUP: 4
50 -1 149 -1 50 -1 33 -1 #SUP: 2
50 -1 149 -1 50 -1 50 -1 #SUP: 3
50 -1 233 -1 50 -1 50 -1 #SUP: 3
50 -1 235 -1 50 -1 50 -1 #SUP: 4
50 -1 235 -1 50 -1 54 -1 #SUP: 2
50 -1 248 -1 50 -1 50 -1 #SUP: 2
50 -1 254 -1 290 -1 290 -1 #SUP: 2
50 -1 278 -1 3599 -1 50 -1 #SUP: 2
50 -1 290 -1 50 -1 50 -1 #SUP: 2
50 -1 381 -1 50 -1 50 -1 #SUP: 2
50 -1 640 -1 50 -1 50 -1 #SUP: 3
50 -1 640 -1 288 -1 50 -1 #SUP: 2
50 -1 871 -1 50 -1 640 -1 #SUP: 2
50 -1 932 -1 50 -1 50 -1 #SUP: 2
50 -1 1252 -1 50 -1 50 -1 #SUP: 2
50 -1 1448 -1 50 -1 50 -1 #SUP: 2
50 -1 1874 -1 50 -1 50 -1 #SUP: 2
50 -1 1874 -1 248 -1 50 -1 #SUP: 2
50 -1 3599 -1 2394 -1 50 -1 #SUP: 3
50 -1 49127 -1 50 -1 50 -1 #SUP: 2
138 -1 50 -1 50 -1 50 -1 #SUP: 3
149 -1 50 -1 50 -1 33 -1 #SUP: 2
149 -1 50 -1 50 -1 50 -1 #SUP: 2
233 -1 50 -1 50 -1 50 -1 #SUP: 3
235 -1 50 -1 50 -1 50 -1 #SUP: 2
235 -1 50 -1 50 -1 381 -1 #SUP: 2
235 -1 50 -1 381 -1 50 -1 #SUP: 2
235 -1 138 -1 50 -1 50 -1 #SUP: 2
540 -1 540 -1 540 -1 50 -1 #SUP: 2
540 -1 540 -1 540 -1 540 -1 #SUP: 2
640 -1 50 -1 50 -1 50 -1 #SUP: 2
871 -1 50 -1 640 -1 50 -1 #SUP: 2
929 -1 50 -1 50 -1 50 -1 #SUP: 2
932 -1 50 -1 50 -1 50 -1 #SUP: 2
932 -1 50 -1 50 -1 254 -1 #SUP: 2
932 -1 50 -1 254 -1 50 -1 #SUP: 2
1448 -1 50 -1 50 -1 50 -1 #SUP: 2
49127 -1 50 -1 50 -1 50 -1 #SUP: 2
49127 -1 50 -1 233 -1 50 -1 #SUP: 2
59984 -1 50 -1 50 -1 50 -1 #SUP: 2
59984 -1 50 -1 1252 -1 50 -1 #SUP: 2
5 -1 17 -1 5 -1 18 -1 17 -1 #SUP: 2
5 -1 18 -1 5 -1 18 -1 17 -1 #SUP: 2
5 -1 18 -1 17 -1 5 -1 17 -1 #SUP: 2
5 -1 18 -1 17 -1 5 -1 18 -1 #SUP: 2
5 -1 18 -1 17 -1 18 -1 17 -1 #SUP: 2
5 -1 18 -1 17 -1 50 -1 50 -1 #SUP: 2
18 -1 17 -1 5 -1 18 -1 17 -1 #SUP: 2
50 -1 50 -1 50 -1 50 -1 50 -1 #SUP: 2
50 -1 50 -1 50 -1 233 -1 50 -1 #SUP: 2
50 -1 50 -1 50 -1 381 -1 50 -1 #SUP: 2
50 -1 50 -1 233 -1 50 -1 50 -1 #SUP: 2
50 -1 50 -1 381 -1 50 -1 50 -1 #SUP: 2
50 -1 50 -1 3599 -1 2394 -1 50 -1 #SUP: 3
50 -1 149 -1 50 -1 50 -1 33 -1 #SUP: 2
50 -1 233 -1 50 -1 50 -1 50 -1 #SUP: 2
50 -1 640 -1 50 -1 50 -1 50 -1 #SUP: 2
235 -1 50 -1 50 -1 381 -1 50 -1 #SUP: 2
540 -1 540 -1 540 -1 540 -1 50 -1 #SUP: 2
932 -1 50 -1 50 -1 254 -1 50 -1 #SUP: 2
5 -1 18 -1 17 -1 5 -1 18 -1 17 -1 #SUP: 2
