50 -1 138 -1 389 -1 3849 -1 521 -1 19 -2
233 -1 29 -1 50 -1 94 -1 19 -2
1303 -1 2092 -1 428 -1 483 -1 19 -2
398 -1 19 -2
926 -1 138 -1 151 -1 33 -1 19 -2
30 -1 992 -1 4031 -1 24715 -1 9 -1 19 -2
3952 -1 179 -1 573 -1 484 -1 845 -1 163 -1 19 -2
3962 -1 2745 -1 4741 -1 1399 -1 5191 -1 19 -2
2554 -1 1305 -1 7616 -1 70309 -1 19 -2
1825 -1 50 -1 41 -1 50 -1 710 -1 19 -2
603 -1 31 -1 19 -2
1427 -1 1652 -1 19 -2
248 -1 471 -1 3691 -1 3318 -1 50 -1 115 -1 449 -1 149 -1 640 -1 802 -1 1613 -1 3318 -1 1427 -1 19 -2
121 -1 1044 -1 19 -2
4465 -1 1124 -1 6137 -1 19 -2
7683 -1 1427 -1 1415 -1 373 -1 50 -1 4373 -1 138 -1 19 -2
640 -1 248 -1 17478 -1 478 -1 6390 -1 1657 -1 1129 -1 19 -2
2697 -1 3086 -1 29 -1 50 -1 2346 -1 50 -1 6180 -1 50 -1 3098 -1 19 -2
1129 -1 1405 -1 50 -1 428 -1 668 -1 718 -1 19 -2
248 -1 3507 -1 697 -1 3096 -1 33 -1 19 -2
597 -1 149 -1 3210 -1 467 -1 19 -2
1684 -1 678 -1 1014 -1 138 -1 4984 -1 19 -2
121 -1 777 -1 94 -1 19 -2
3650 -1 19 -2
668 -1 49 -1 380 -1 7436 -1 1615 -1 640 -1 248 -1 4465 -1 2541 -1 217 -1 1679 -1 1615 -1 302 -1 24342 -1 933 -1 9 -1 563 -1 640 -1 149 -1 48 -1 1252 -1 373 -1 19 -2
149 -1 16005 -1 1252 -1 373 -1 1415 -1 2012 -1 112 -1 50 -1 8898 -1 1412 -1 50 -1 19 -2
138 -1 10682 -1 33 -1 30 -1 471 -1 3691 -1 3318 -1 248 -1 2264 -1 403 -1 29 -1 1144 -1 149 -1 423 -1 19 -2
640 -1 19 -2
121 -1 777 -1 94 -1 19 -2
41 -1 13251 -1 435 -1 50 -1 435 -1 1678 -1 50 -1 444 -1 435 -1 50 -1 3098 -1 19 -2
640 -1 2541 -1 180 -1 1429 -1 623 -1 19 -2
3367 -1 50 -1 121 -1 19 -2
8220 -1 4727 -1 1718 -1 19 -2
2206 -1 1120 -1 49 -1 1034 -1 50 -1 484 -1 49 -1 3135 -1 7785 -1 8220 -1 4727 -1 19 -2
54 -1 19 -2
387 -1 50 -1 4579 -1 190 -2
89 -1 1687 -1 50 -1 714 -1 1427 -1 148 -1 1768 -1 112 -1 19 -2
708 -1 3200 -1 593 -1 248 -1 3235 -1 3155 -1 19 -2
138 -1 19 -2
507 -1 506 -1 680 -1 149 -1 25947 -1 1246 -1 510 -1 927 -1 19 -2
6525 -1 1530 -1 10485 -1 477 -1 1429 -1 2240 -1 1808 -1 19 -2
933 -1 387 -1 50 -1 33 -1 111 -1 2562 -1 50 -1 248 -1 1546 -1 28501 -1 50 -1 21780 -1 50 -1 3355 -1 3170 -1 50 -1 3098 -1 19 -2
33 -1 111 -1 2562 -1 509 -1 626 -1 19 -2
926 -1 19 -2
509 -1 640 -1 3042 -1 3808 -1 19 -2
509 -1 573 -1 484 -1 33 -1 233 -1 27 -1 50 -1 1823 -1 233 -1 19 -2
1872 -1 278 -1 19 -2
6745 -1 4885 -1 166 -1 19 -1 444 -1 34984 -1 1480 -1 167 -1 19 -1 1761 -1 1646 -1 2811 -1 10173 -1 218 -1 19 -1 444 -1 47920 -1 139 -1 8700 -1 48 -1 422 -1 19 -1 435 -1 27657 -1 2824 -1 657 -1 19 -1 19 -2
138 -1 439 -1 31 -1 1518 -1 19 -2
680 -1 30 -1 2113 -1 678 -1 72 -1 398 -1 248 -1 471 -1 50 -1 54 -1 483 -1 777 -1 19 -2
19 -2
747 -1 258 -1 253 -1 19 -2
498 -1 19 -2
1251 -1 1916 -1 50 -1 161 -1 50 -1 3098 -1 19 -2
512 -1 498 -1 727 -1 50 -1 19 -2
304 -1 13932 -1 53 -1 33 -1 19 -2
1303 -1 54 -1 1299 -1 4120 -1 1285 -1 49 -1 1415 -1 2240 -1 19 -2
640 -1 1707 -1 2240 -1 2982 -1 1717 -1 951 -1 296 -1 735 -1 1659 -1 593 -1 1427 -1 50 -1 20775 -1 19 -2
1870 -1 19 -2
310 -1 194 -1 1565 -1 16486 -1 50 -1 193 -1 1397 -1 444 -1 420 -1 934 -1 5444 -1 15106 -1 4998 -1 19 -2
4089 -1 289 -1 613 -1 50 -1 19 -2
233 -1 30 -1 1737 -1 50 -1 14371 -1 3748 -1 483 -1 233 -1 1228 -1 3067 -1 149 -1 771 -1 19 -2
387 -1 3130 -1 94 -1 6525 -1 48 -1 2020 -1 167 -1 434 -1 15316 -1 19 -2
262 -1 248 -1 19 -2
332 -1 6525 -1 48 -1 2020 -1 472 -1 845 -1 167 -1 1828 -1 2698 -1 19 -2
138 -1 19 -2
667 -1 149 -1 194 -1 7499 -1 1602 -1 1161 -1 10039 -1 50403 -1 3577 -1 1426 -1 457 -1 50 -1 3577 -1 5282 -1 50 -1 3098 -1 19 -2
851 -1 3277 -1 155 -1 3920 -1 6525 -1 2346 -1 2020 -1 50 -1 19 -2
932 -1 179 -1 3377 -1 50 -1 89 -1 1015 -1 150 -1 9449 -1 19 -2
2142 -1 9449 -1 1518 -1 19 -2
10639 -1 19 -2
387 -1 50 -1 150 -1 19 -2
161 -1 7 -1 50 -1 1823 -1 608 -1 4558 -1 714 -1 777 -1 149 -1 373 -1 428 -1 3262 -1 933 -1 2113 -1 678 -1 1684 -1 289 -1 947 -1 444 -1 44 -1 19 -2
714 -1 50 -1 7307 -1 50 -1 10519 -1 50 -1 1278 -1 5718 -1 50 -1 2059 -1 19 -2
444 -1 678 -1 360 -1 19 -2
933 -1 1825 -1 50 -1 337 -1 1246 -1 50 -1 926 -1 304 -1 504 -1 19 -2
934 -1 3 -1 1476 -1 19 -2
428 -1 339 -1 50 -1 138 -1 557 -1 1285 -1 19 -2
288 -1 490 -1 1 -2
471 -1 27718 -1 1291 -1 1684 -1 802 -1 413 -1 19 -2
926 -1 732 -1 6208 -1 19 -2
444 -1 739 -1 50 -1 89 -1 1251 -1 19 -2
50 -1 304 -1 428 -1 739 -1 50 -1 89 -1 115 -1 739 -1 50 -1 133 -1 732 -1 19 -2
923 -1 3377 -1 218 -1 580 -1 606 -1 871 -1 4396 -1 1107 -1 19 -2
161 -1 806 -1 9 -1 4 -1 1 -2
6143 -1 1 -2
1246 -1 161 -1 1 -2
794 -1 735 -1 1 -2
6604 -1 1 -2
159 -1 19 -2
83 -1 724 -1 9 -1 19 -2
50 -1 652 -1 149 -1 1237 -1 115 -1 1731 -1 202 -1 714 -1 645 -1 19 -2
19 -2
83 -1 724 -1 9 -1 19 -2
50 -1 652 -1 149 -1 1237 -1 115 -1 1731 -1 202 -1 714 -1 645 -1 19 -2
19 -2
539 -1 33 -1 83 -1 2011 -1 50 -1 1366 -1 1151 -1 2786 -1 2025 -1 3967 -1 207 -1 14224 -1 48 -1 562 -1 603 -1 19 -2
802 -1 390 -1 449 -1 29 -1 777 -1 19 -2
2539 -1 551 -1 19 -2
112 -1 2094 -1 50 -1 550 -1 255 -1 2165 -1 115 -1 449 -1 296 -1 19 -2
640 -1 296 -1 19 -2
255 -1 645 -1 161 -1 645 -1 10387 -1 9 -1 50 -1 1099 -1 264 -1 50 -1 1303 -1 434 -1 64 -1 19 -2
477 -1 19 -2
645 -1 3306 -1 11 -1 645 -1 149 -1 853 -1 593 -1 19 -2
3129 -1 54 -1 6493 -1 304 -1 933 -1 6525 -1 678 -1 19 -2
2113 -1 218 -1 289 -1 623 -1 19 -2
587 -1 49 -1 645 -1 50 -1 2439 -1 202 -1 47 -1 19 -2
18087 -1 48 -1 5526 -1 5991 -1 4799 -1 12701 -1 457 -1 384 -1 121 -1 645 -1 147 -1 677 -1 121 -1 645 -1 680 -1 19 -2
625 -1 190 -2
304 -1 1607 -1 19 -2
601 -1 567 -1 640 -1 296 -1 190 -2
29 -1 50 -1 538 -1 2876 -1 19 -2
149 -1 19 -2
310 -1 1120 -1 3138 -1 6831 -1 1368 -1 33 -1 310 -1 50 -1 248 -1 18925 -1 19 -2
1120 -1 3488 -1 50 -1 5255 -1 2369 -1 50 -1 4727 -1 19 -2
471 -1 1107 -1 557 -1 4027 -1 770 -1 50 -1 1526 -1 50 -1 3098 -1 19 -2
988 -1 19 -2
23029 -1 50 -1 38596 -1 50 -1 118 -1 29 -1 50 -1 19 -2
4296 -1 486 -1 50 -1 714 -1 91 -1 19 -2
138 -1 202 -1 6743 -1 360 -1 115 -1 19 -2
288 -1 136 -1 871 -1 4913 -1 105 -1 449 -1 64 -1 19 -2
149 -1 4320 -1 29 -1 3920 -1 3480 -1 50 -1 449 -1 29 -1 19 -2
64 -1 50 -1 89 -1 4904 -1 19 -2
2471 -1 3123 -1 279 -1 474 -1 853 -1 389 -1 19 -2
2478 -1 50 -1 3126 -1 50 -1 2706 -1 50 -1 50 -1 70310 -1 47 -1 505 -1 1319 -1 50 -1 337 -1 3209 -1 19 -2