7 -1 #SUP: 4
31 -1 #SUP: 2
33 -1 #SUP: 2
48 -1 #SUP: 18
49 -1 #SUP: 2
50 -1 #SUP: 44
53 -1 #SUP: 2
54 -1 #SUP: 2
73 -1 #SUP: 3
79 -1 #SUP: 2
89 -1 #SUP: 5
105 -1 #SUP: 2
107 -1 #SUP: 2
112 -1 #SUP: 8
114 -1 #SUP: 4
118 -1 #SUP: 3
138 -1 #SUP: 7
147 -1 #SUP: 3
151 -1 #SUP: 3
167 -1 #SUP: 3
175 -1 #SUP: 4
194 -1 #SUP: 2
210 -1 #SUP: 2
233 -1 #SUP: 4
248 -1 #SUP: 11
254 -1 #SUP: 5
263 -1 #SUP: 2
270 -1 #SUP: 4
280 -1 #SUP: 2
335 -1 #SUP: 3
337 -1 #SUP: 2
339 -1 #SUP: 3
340 -1 #SUP: 2
360 -1 #SUP: 2
372 -1 #SUP: 2
384 -1 #SUP: 3
388 -1 #SUP: 2
398 -1 #SUP: 2
434 -1 #SUP: 4
470 -1 #SUP: 3
471 -1 #SUP: 3
472 -1 #SUP: 2
474 -1 #SUP: 3
484 -1 #SUP: 3
486 -1 #SUP: 4
490 -1 #SUP: 2
517 -1 #SUP: 2
522 -1 #SUP: 2
637 -1 #SUP: 2
660 -1 #SUP: 2
680 -1 #SUP: 3
697 -1 #SUP: 2
732 -1 #SUP: 2
836 -1 #SUP: 4
841 -1 #SUP: 2
853 -1 #SUP: 3
864 -1 #SUP: 2
893 -1 #SUP: 2
921 -1 #SUP: 2
947 -1 #SUP: 2
972 -1 #SUP: 2
1007 -1 #SUP: 2
1017 -1 #SUP: 3
1034 -1 #SUP: 3
1099 -1 #SUP: 2
1404 -1 #SUP: 2
1452 -1 #SUP: 2
1551 -1 #SUP: 2
1659 -1 #SUP: 2
1955 -1 #SUP: 2
2031 -1 #SUP: 2
2110 -1 #SUP: 2
2153 -1 #SUP: 2
2195 -1 #SUP: 2
2257 -1 #SUP: 2
2296 -1 #SUP: 2
2437 -1 #SUP: 2
2688 -1 #SUP: 2
2697 -1 #SUP: 2
2905 -1 #SUP: 2
2909 -1 #SUP: 2
2929 -1 #SUP: 2
3154 -1 #SUP: 2
3458 -1 #SUP: 2
3520 -1 #SUP: 2
3869 -1 #SUP: 3
4015 -1 #SUP: 2
5028 -1 #SUP: 2
9939 -1 #SUP: 2
12234 -1 #SUP: 2
48 -1 50 -1 #SUP: 2
48 -1 248 -1 #SUP: 2
48 -1 972 -1 #SUP: 2
50 -1 48 -1 #SUP: 5
50 -1 50 -1 #SUP: 7
50 -1 112 -1 #SUP: 2
50 -1 138 -1 #SUP: 3
50 -1 248 -1 #SUP: 5
50 -1 254 -1 #SUP: 2
50 -1 270 -1 #SUP: 2
50 -1 384 -1 #SUP: 2
50 -1 1034 -1 #SUP: 2
50 -1 3458 -1 #SUP: 2
89 -1 233 -1 #SUP: 2
114 -1 50 -1 #SUP: 2
138 -1 48 -1 #SUP: 3
138 -1 147 -1 #SUP: 2
138 -1 335 -1 #SUP: 2
248 -1 48 -1 #SUP: 2
248 -1 50 -1 #SUP: 3
280 -1 50 -1 #SUP: 2
335 -1 147 -1 #SUP: 2
337 -1 50 -1 #SUP: 2
339 -1 50 -1 #SUP: 2
360 -1 1955 -1 #SUP: 2
398 -1 248 -1 #SUP: 2
434 -1 50 -1 #SUP: 2
484 -1 50 -1 #SUP: 2
836 -1 48 -1 #SUP: 2
836 -1 50 -1 #SUP: 2
853 -1 2909 -1 #SUP: 2
864 -1 50 -1 #SUP: 2
1007 -1 50 -1 #SUP: 2
2031 -1 50 -1 #SUP: 2
50 -1 50 -1 50 -1 #SUP: 2
50 -1 248 -1 50 -1 #SUP: 2
138 -1 335 -1 147 -1 #SUP: 2
836 -1 50 -1 48 -1 #SUP: 2
