5 -1 #SUP: 3
9 -1 #SUP: 2
11 -1 #SUP: 5
17 -1 #SUP: 3
18 -1 #SUP: 3
19 -1 #SUP: 2
27 -1 #SUP: 4
30 -1 #SUP: 2
31 -1 #SUP: 2
33 -1 #SUP: 5
38 -1 #SUP: 2
48 -1 #SUP: 15
49 -1 #SUP: 2
50 -1 #SUP: 36
73 -1 #SUP: 5
89 -1 #SUP: 6
105 -1 #SUP: 3
108 -1 #SUP: 2
112 -1 #SUP: 2
113 -1 #SUP: 2
114 -1 #SUP: 3
115 -1 #SUP: 6
118 -1 #SUP: 3
138 -1 #SUP: 2
147 -1 #SUP: 2
149 -1 #SUP: 4
166 -1 #SUP: 2
194 -1 #SUP: 2
233 -1 #SUP: 11
248 -1 #SUP: 4
254 -1 #SUP: 2
262 -1 #SUP: 2
263 -1 #SUP: 2
267 -1 #SUP: 2
287 -1 #SUP: 3
288 -1 #SUP: 2
302 -1 #SUP: 2
304 -1 #SUP: 2
325 -1 #SUP: 2
329 -1 #SUP: 3
335 -1 #SUP: 2
384 -1 #SUP: 4
422 -1 #SUP: 3
423 -1 #SUP: 2
428 -1 #SUP: 4
434 -1 #SUP: 3
435 -1 #SUP: 4
483 -1 #SUP: 2
504 -1 #SUP: 3
505 -1 #SUP: 2
510 -1 #SUP: 2
551 -1 #SUP: 2
557 -1 #SUP: 2
603 -1 #SUP: 7
630 -1 #SUP: 2
640 -1 #SUP: 5
659 -1 #SUP: 2
667 -1 #SUP: 3
718 -1 #SUP: 2
732 -1 #SUP: 2
777 -1 #SUP: 3
921 -1 #SUP: 3
928 -1 #SUP: 3
993 -1 #SUP: 2
1047 -1 #SUP: 2
1102 -1 #SUP: 2
1129 -1 #SUP: 4
1181 -1 #SUP: 2
1237 -1 #SUP: 2
1336 -1 #SUP: 2
1366 -1 #SUP: 2
1452 -1 #SUP: 2
1483 -1 #SUP: 2
1515 -1 #SUP: 2
1581 -1 #SUP: 2
1686 -1 #SUP: 3
1827 -1 #SUP: 2
1878 -1 #SUP: 2
1958 -1 #SUP: 2
2283 -1 #SUP: 2
2543 -1 #SUP: 2
2698 -1 #SUP: 4
3053 -1 #SUP: 2
3346 -1 #SUP: 2
4199 -1 #SUP: 2
4447 -1 #SUP: 2
5834 -1 #SUP: 2
7003 -1 #SUP: 2
7247 -1 #SUP: 2
7921 -1 #SUP: 2
9375 -1 #SUP: 2
11227 -1 #SUP: 3
16789 -1 #SUP: 2
45800 -1 #SUP: 6
47307 -1 #SUP: 2
54181 -1 #SUP: 2
61123 -1 #SUP: 2
62444 -1 #SUP: 2
75907 -1 #SUP: 2
75911 -1 #SUP: 2
75915 -1 #SUP: 3
5 -1 17 -1 #SUP: 3
5 -1 18 -1 #SUP: 3
5 -1 1336 -1 #SUP: 2
5 -1 3346 -1 #SUP: 2
11 -1 11 -1 #SUP: 3
11 -1 45800 -1 #SUP: 2
11 -1 75915 -1 #SUP: 2
17 -1 1336 -1 #SUP: 2
17 -1 3346 -1 #SUP: 2
18 -1 17 -1 #SUP: 3
18 -1 1336 -1 #SUP: 2
18 -1 3346 -1 #SUP: 2
33 -1 50 -1 #SUP: 3
33 -1 166 -1 #SUP: 2
48 -1 33 -1 #SUP: 2
48 -1 48 -1 #SUP: 3
48 -1 50 -1 #SUP: 2
48 -1 1129 -1 #SUP: 2
48 -1 47307 -1 #SUP: 2
50 -1 11 -1 #SUP: 2
50 -1 31 -1 #SUP: 2
50 -1 48 -1 #SUP: 4
50 -1 50 -1 #SUP: 7
50 -1 73 -1 #SUP: 2
50 -1 108 -1 #SUP: 2
50 -1 113 -1 #SUP: 2
50 -1 115 -1 #SUP: 2
50 -1 149 -1 #SUP: 2
50 -1 233 -1 #SUP: 2
50 -1 325 -1 #SUP: 2
50 -1 335 -1 #SUP: 2
50 -1 423 -1 #SUP: 2
50 -1 428 -1 #SUP: 3
50 -1 603 -1 #SUP: 4
50 -1 928 -1 #SUP: 2
50 -1 1452 -1 #SUP: 2
73 -1 48 -1 #SUP: 2
89 -1 50 -1 #SUP: 4
89 -1 115 -1 #SUP: 2
89 -1 233 -1 #SUP: 2
89 -1 921 -1 #SUP: 2
114 -1 33 -1 #SUP: 2
115 -1 50 -1 #SUP: 2
147 -1 50 -1 #SUP: 2
149 -1 50 -1 #SUP: 2
149 -1 325 -1 #SUP: 2
233 -1 50 -1 #SUP: 4
262 -1 48 -1 #SUP: 2
325 -1 233 -1 #SUP: 2
335 -1 603 -1 #SUP: 2
384 -1 75911 -1 #SUP: 2
422 -1 1515 -1 #SUP: 2
422 -1 1686 -1 #SUP: 2
423 -1 48 -1 #SUP: 2
435 -1 50 -1 #SUP: 2
435 -1 45800 -1 #SUP: 2
603 -1 50 -1 #SUP: 3
640 -1 50 -1 #SUP: 2
777 -1 254 -1 #SUP: 2
1515 -1 149 -1 #SUP: 2
1686 -1 149 -1 #SUP: 2
1686 -1 1515 -1 #SUP: 2
1958 -1 993 -1 #SUP: 2
2543 -1 61123 -1 #SUP: 2
2698 -1 50 -1 #SUP: 2
2698 -1 2698 -1 #SUP: 2
3053 -1 7247 -1 #SUP: 2
3346 -1 1336 -1 #SUP: 2
45800 -1 11 -1 #SUP: 2
45800 -1 50 -1 #SUP: 2
45800 -1 435 -1 #SUP: 2
45800 -1 75915 -1 #SUP: 3
75915 -1 11 -1 #SUP: 2
75915 -1 435 -1 #SUP: 2
5 -1 17 -1 1336 -1 #SUP: 2
5 -1 17 -1 3346 -1 #SUP: 2
5 -1 18 -1 17 -1 #SUP: 3
5 -1 18 -1 1336 -1 #SUP: 2
5 -1 18 -1 3346 -1 #SUP: 2
5 -1 3346 -1 1336 -1 #SUP: 2
11 -1 11 -1 45800 -1 #SUP: 2
11 -1 45800 -1 11 -1 #SUP: 2
11 -1 45800 -1 75915 -1 #SUP: 2
11 -1 75915 -1 11 -1 #SUP: 2
17 -1 3346 -1 1336 -1 #SUP: 2
18 -1 17 -1 1336 -1 #SUP: 2
18 -1 17 -1 3346 -1 #SUP: 2
18 -1 3346 -1 1336 -1 #SUP: 2
50 -1 50 -1 50 -1 #SUP: 2
50 -1 335 -1 603 -1 #SUP: 2
50 -1 423 -1 48 -1 #SUP: 2
73 -1 48 -1 48 -1 #SUP: 2
89 -1 50 -1 115 -1 #SUP: 2
89 -1 233 -1 50 -1 #SUP: 2
149 -1 50 -1 325 -1 #SUP: 2
422 -1 1686 -1 1515 -1 #SUP: 2
1686 -1 1515 -1 149 -1 #SUP: 2
45800 -1 75915 -1 11 -1 #SUP: 2
45800 -1 75915 -1 435 -1 #SUP: 2
5 -1 17 -1 3346 -1 1336 -1 #SUP: 2
5 -1 18 -1 17 -1 1336 -1 #SUP: 2
5 -1 18 -1 17 -1 3346 -1 #SUP: 2
5 -1 18 -1 3346 -1 1336 -1 #SUP: 2
11 -1 45800 -1 75915 -1 11 -1 #SUP: 2
18 -1 17 -1 3346 -1 1336 -1 #SUP: 2
5 -1 18 -1 17 -1 3346 -1 1336 -1 #SUP: 2
