718 -1 89 -1 248 -1 495 -1 48 -1 112 -1 50 -1 190 -2
115 -1 1659 -1 190 -2
471 -1 801 -1 254 -1 718 -1 3167 -1 548 -1 1481 -1 1684 -1 50 -1 748 -1 389 -1 4 -1 1481 -1 48 -1 2113 -1 710 -1 190 -2
3470 -1 1293 -1 1344 -1 470 -1 304 -1 19 -2
398 -1 248 -1 2024 -1 255 -1 50 -1 138 -1 684 -1 48 -1 150 -1 815 -1 19 -2
142 -1 248 -1 936 -1 22203 -1 932 -1 48 -1 19 -2
1327 -1 19 -2
2673 -1 1106 -1 7535 -1 384 -1 276 -1 1 -2
1928 -1 233 -1 89 -1 50 -1 384 -1 248 -1 8085 -1 289 -1 279 -1 254 -1 2471 -1 19 -1 968 -1 495 -1 48 -1 50 -1 1 -2
1452 -1 1717 -1 1646 -1 50 -1 93 -1 48 -1 3106 -1 389 -1 50 -1 505 -1 48 -1 42 -1 19 -2
1433 -1 640 -1 593 -1 505 -1 254 -1 48 -1 384 -1 50 -1 89 -1 115 -1 19 -2
382 -1 48 -1 42 -1 50 -1 470 -1 94 -1 19 -2
2137 -1 389 -1 19 -2
2660 -1 233 -1 2956 -1 19 -2
114 -1 1061 -1 50 -1 48 -1 1684 -1 48 -1 1007 -1 1156 -1 389 -1 19 -2
89 -1 248 -1 714 -1 54 -1 2 -1 50 -1 19 -2
508 -1 927 -1 19 -2
4496 -1 50 -1 48 -1 14436 -1 660 -1 19 -2
248 -1 2703 -1 50 -1 48 -1 1326 -1 233 -1 149 -1 138 -1 1348 -1 2 -1 2075 -1 138 -1 149 -1 680 -1 1366 -1 242 -1 50 -1 335 -1 19 -2
387 -1 1960 -1 617 -1 3860 -1 29 -1 50 -1 1931 -1 27678 -1 3087 -1 19 -2
1794 -1 89 -1 115 -1 2 -1 2075 -1 149 -1 19 -2
384 -1 248 -1 508 -1 50 -1 3079 -1 6466 -1 395 -1 1 -2
387 -1 19 -2
48 -1 138 -1 19 -2
444 -1 8672 -1 50 -1 1414 -1 19 -2
1452 -1 425 -1 179 -1 804 -1 2639 -1 619 -1 50 -1 23032 -1 23032 -1 190 -2
888 -1 1684 -1 50 -1 48 -1 434 -1 428 -1 483 -1 522 -1 1251 -1 19 -2
551 -1 50 -1 48 -1 233 -1 19 -2
603 -1 87349 -1 19 -2
748 -1 112 -1 557 -1 928 -1 3844 -1 50 -1 4419 -1 927 -1 928 -1 1 -2
1237 -1 2503 -1 389 -1 3235 -1 927 -1 27 -1 48 -1 19 -2
254 -1 2113 -1 888 -1 50 -1 254 -1 622 -1 906 -1 112 -1 19 -2
33 -1 50 -1 114 -1 2113 -1 1014 -1 313 -1 190 -2
254 -1 521 -1 13787 -1 13786 -1 47 -1 1237 -1 19 -2
94 -1 1427 -1 138 -1 24168 -1 50 -1 1225 -1 30102 -1 149 -1 19 -2
50 -1 2012 -1 44 -1 50 -1 138 -1 48 -1 19 -2
3067 -1 19 -2
1527 -1 478 -1 1 -2
465 -1 14110 -1 836 -1 48 -1 483 -1 818 -1 2141 -1 1807 -1 718 -1 1242 -1 468 -1 876 -1 1 -2
4621 -1 137 -1 384 -1 49 -1 19 -2
128 -1 836 -1 48 -1 425 -1 2113 -1 50 -1 254 -1 296 -1 2279 -1 19 -2
680 -1 105 -1 1452 -1 264 -1 4727 -1 19 -2
836 -1 48 -1 1106 -1 42 -1 11733 -1 19 -2
1279 -1 19 -2
2660 -1 4 -1 888 -1 29 -1 19 -2
48 -1 434 -1 1768 -1 50 -1 932 -1 927 -1 50 -1 1627 -1 50 -1 3254 -1 2543 -1 2436 -1 50 -1 1430 -1 928 -1 1797 -1 19 -2
932 -1 458 -1 29 -1 50 -1 470 -1 640 -1 248 -1 2169 -1 19 -2
3137 -1 19 -2
29 -1 114 -1 439 -1 1279 -1 233 -1 869 -1 280 -1 19 -2
3077 -1 89 -1 233 -1 138 -1 836 -1 1037 -1 10434 -1 718 -1 2486 -1 19 -2
928 -1 5828 -1 918 -1 551 -1 50 -1 19 -2
5 -1 44239 -1 140023 -1 1600 -1 2011 -1 11492 -1 48 -1 2660 -1 138 -1 19 -2
48 -1 9766 -1 490 -1 873 -1 19 -2
48 -1 138 -1 19 -2
5 -1 18 -1 17 -1 140024 -1 48 -1 2509 -1 1279 -1 19 -2
89 -1 233 -1 19 -2
1717 -1 248 -1 2800 -1 3015 -1 708 -1 2800 -1 3015 -1 19 -2
6035 -1 19 -2
48 -1 717 -1 50 -1 93 -1 933 -1 138 -1 678 -1 7 -1 19 -2
42152 -1 1279 -1 73 -1 19 -2
2660 -1 19 -2
389 -1 121 -1 13029 -1 50 -1 138 -1 48 -1 521 -1 5537 -1 19 -2
248 -1 389 -1 248 -1 1 -2
2533 -1 7843 -1 387 -1 640 -1 2059 -1 836 -1 48 -1 928 -1 19 -2
6033 -1 50 -1 932 -1 2395 -1 248 -1 932 -1 2534 -1 2457 -1 48 -1 19 -2
918 -1 551 -1 19 -2
304 -1 118 -1 85 -1 19 -2
233 -1 928 -1 1279 -1 48 -1 701 -1 428 -1 140025 -1 9686 -1 593 -1 19 -2
48 -1 248 -1 638 -1 2997 -1 50 -1 1228 -1 837 -1 37370 -1 19 -2
5227 -1 932 -1 50 -1 4161 -1 19 -2
1481 -1 233 -1 1030 -1 1014 -1 567 -1 108 -1 1638 -1 19 -2
248 -1 79766 -1 912 -1 19 -2
387 -1 19 -2
89 -1 724 -1 6284 -1 457 -1 59468 -1 4009 -1 1 -2
465 -1 50 -1 89 -1 1960 -1 7235 -1 1883 -1 21 -1 19 -2
710 -1 434 -1 1890 -1 736 -1 190 -2
55974 -1 50 -1 48 -1 1 -2
7846 -1 2068 -1 1215 -1 50 -1 19 -2
263 -1 267 -1 444 -1 280 -1 50 -1 210 -1 1 -2
304 -1 333 -1 50 -1 48 -1 2905 -1 149 -1 48 -1 6948 -1 1279 -1 6993 -1 50 -1 132 -1 50 -1 11633 -1 50 -1 7071 -1 50 -1 140026 -1 50 -1 10434 -1 7264 -1 1145 -1 50 -1 18222 -1 19 -2
48 -1 19 -2
248 -1 1477 -1 48 -1 836 -1 1037 -1 428 -1 786 -1 112 -1 248 -1 19 -2
1477 -1 48 -1 535 -1 233 -1 398 -1 7279 -1 48 -1 717 -1 19 -2
1285 -1 636 -1 19 -2
254 -1 54 -1 112 -1 263 -1 449 -1 50 -1 138 -1 48 -1 836 -1 19 -2
125 -1 968 -1 389 -1 1 -2
5716 -1 149 -1 48 -1 1277 -1 19 -2
425 -1 5716 -1 19 -2
12333 -1 1187 -1 539 -1 5770 -1 48 -1 2470 -1 19 -2
1376 -1 637 -1 140027 -1 50 -1 5171 -1 58970 -1 50 -1 270 -1 1014 -1 19 -2
138 -1 1254 -1 645 -1 33 -1 50 -1 388 -1 53 -1 777 -1 19 -2
48 -1 248 -1 112 -1 118 -1 486 -1 50 -1 645 -1 588 -1 521 -1 4580 -1 19 -2
73 -1 142 -1 928 -1 932 -1 2709 -1 3235 -1 33 -1 19 -2
89 -1 874 -1 248 -1 2501 -1 5630 -1 149 -1 158 -1 50 -1 927 -1 19 -2
254 -1 54 -1 1279 -1 48 -1 1546 -1 1638 -1 33 -1 1132 -1 381 -1 311 -1 495 -1 48 -1 19 -2
89 -1 248 -1 3 -1 48 -1 233 -1 702 -1 645 -1 19 -2
50 -1 468 -1 112 -1 19 -2
89 -1 928 -1 19 -2
625 -1 50 -1 551 -1 19 -2
138 -1 551 -1 645 -1 33 -1 19 -2
312 -1 89 -1 1015 -1 138 -1 33 -1 381 -1 2031 -1 50 -1 138 -1 19 -2
551 -1 33 -1 41 -1 6774 -1 50 -1 1014 -1 588 -1 6774 -1 109 -1 1 -2
248 -1 3744 -1 13513 -1 32958 -1 1 -2
248 -1 428 -1 2 -1 19 -2
275 -1 50 -1 248 -1 368 -1 142 -1 138 -1 48 -1 2313 -1 377 -1 33 -1 471 -1 50 -1 254 -1 1452 -1 1553 -1 1326 -1 255 -1 50 -1 304 -1 495 -1 1279 -1 19986 -1 1326 -1 19 -2
1717 -1 33 -1 2173 -1 1 -2
94 -1 19 -2
19 -2
149 -1 89 -1 505 -1 48 -1 53 -1 777 -1 50 -1 421 -1 2687 -1 138 -1 19 -2
380 -1 8671 -1 505 -1 505 -1 138 -1 19 -2