3 -1 #SUP: 3
4 -1 #SUP: 2
7 -1 #SUP: 12
11 -1 #SUP: 2
19 -1 #SUP: 2
29 -1 #SUP: 12
31 -1 #SUP: 3
33 -1 #SUP: 4
36 -1 #SUP: 2
44 -1 #SUP: 3
48 -1 #SUP: 25
49 -1 #SUP: 2
50 -1 #SUP: 57
54 -1 #SUP: 2
65 -1 #SUP: 2
89 -1 #SUP: 9
94 -1 #SUP: 3
112 -1 #SUP: 4
114 -1 #SUP: 2
115 -1 #SUP: 5
118 -1 #SUP: 4
135 -1 #SUP: 2
138 -1 #SUP: 23
142 -1 #SUP: 6
149 -1 #SUP: 18
169 -1 #SUP: 2
182 -1 #SUP: 2
194 -1 #SUP: 2
210 -1 #SUP: 3
233 -1 #SUP: 8
248 -1 #SUP: 16
254 -1 #SUP: 13
263 -1 #SUP: 2
280 -1 #SUP: 3
288 -1 #SUP: 2
296 -1 #SUP: 2
302 -1 #SUP: 3
304 -1 #SUP: 2
306 -1 #SUP: 2
330 -1 #SUP: 2
341 -1 #SUP: 2
382 -1 #SUP: 4
384 -1 #SUP: 3
387 -1 #SUP: 3
388 -1 #SUP: 2
423 -1 #SUP: 2
425 -1 #SUP: 7
434 -1 #SUP: 2
444 -1 #SUP: 2
449 -1 #SUP: 3
470 -1 #SUP: 2
471 -1 #SUP: 2
472 -1 #SUP: 5
477 -1 #SUP: 2
478 -1 #SUP: 2
483 -1 #SUP: 2
486 -1 #SUP: 2
490 -1 #SUP: 3
505 -1 #SUP: 6
516 -1 #SUP: 2
538 -1 #SUP: 3
540 -1 #SUP: 2
551 -1 #SUP: 3
557 -1 #SUP: 2
560 -1 #SUP: 4
593 -1 #SUP: 3
603 -1 #SUP: 5
617 -1 #SUP: 13
625 -1 #SUP: 6
640 -1 #SUP: 11
667 -1 #SUP: 4
717 -1 #SUP: 6
718 -1 #SUP: 2
738 -1 #SUP: 2
741 -1 #SUP: 4
777 -1 #SUP: 5
815 -1 #SUP: 2
816 -1 #SUP: 2
832 -1 #SUP: 3
864 -1 #SUP: 2
906 -1 #SUP: 3
923 -1 #SUP: 2
927 -1 #SUP: 4
933 -1 #SUP: 3
975 -1 #SUP: 2
1014 -1 #SUP: 5
1015 -1 #SUP: 2
1017 -1 #SUP: 3
1030 -1 #SUP: 2
1044 -1 #SUP: 3
1099 -1 #SUP: 2
1106 -1 #SUP: 2
1107 -1 #SUP: 3
1136 -1 #SUP: 3
1142 -1 #SUP: 2
1237 -1 #SUP: 2
1250 -1 #SUP: 2
1285 -1 #SUP: 3
1303 -1 #SUP: 2
1326 -1 #SUP: 2
1433 -1 #SUP: 2
1526 -1 #SUP: 3
1643 -1 #SUP: 2
1900 -1 #SUP: 2
2107 -1 #SUP: 2
2113 -1 #SUP: 5
2392 -1 #SUP: 2
2760 -1 #SUP: 2
3078 -1 #SUP: 2
3173 -1 #SUP: 2
3241 -1 #SUP: 3
3310 -1 #SUP: 2
3844 -1 #SUP: 2
4020 -1 #SUP: 2
4380 -1 #SUP: 2
4522 -1 #SUP: 2
4527 -1 #SUP: 2
4584 -1 #SUP: 2
5568 -1 #SUP: 2
8085 -1 #SUP: 2
8526 -1 #SUP: 2
9567 -1 #SUP: 2
11627 -1 #SUP: 2
128701 -1 #SUP: 2
7 -1 29 -1 #SUP: 3
7 -1 48 -1 #SUP: 2
7 -1 50 -1 #SUP: 3
7 -1 89 -1 #SUP: 2
7 -1 248 -1 #SUP: 3
7 -1 254 -1 #SUP: 2
7 -1 472 -1 #SUP: 3
7 -1 505 -1 #SUP: 2
7 -1 1526 -1 #SUP: 2
19 -1 29 -1 #SUP: 2
29 -1 50 -1 #SUP: 5
29 -1 472 -1 #SUP: 2
29 -1 505 -1 #SUP: 2
33 -1 50 -1 #SUP: 3
33 -1 149 -1 #SUP: 2
33 -1 248 -1 #SUP: 2
36 -1 29 -1 #SUP: 2
36 -1 50 -1 #SUP: 2
44 -1 50 -1 #SUP: 2
44 -1 138 -1 #SUP: 2
44 -1 248 -1 #SUP: 2
48 -1 48 -1 #SUP: 2
48 -1 50 -1 #SUP: 3
48 -1 138 -1 #SUP: 3
48 -1 149 -1 #SUP: 2
48 -1 248 -1 #SUP: 3
48 -1 254 -1 #SUP: 2
48 -1 717 -1 #SUP: 2
48 -1 927 -1 #SUP: 2
48 -1 1017 -1 #SUP: 2
48 -1 1326 -1 #SUP: 2
48 -1 1526 -1 #SUP: 2
50 -1 4 -1 #SUP: 2
50 -1 7 -1 #SUP: 3
50 -1 29 -1 #SUP: 5
50 -1 48 -1 #SUP: 5
50 -1 50 -1 #SUP: 9
50 -1 89 -1 #SUP: 2
50 -1 112 -1 #SUP: 3
50 -1 115 -1 #SUP: 2
50 -1 138 -1 #SUP: 3
50 -1 142 -1 #SUP: 2
50 -1 149 -1 #SUP: 2
50 -1 210 -1 #SUP: 2
50 -1 233 -1 #SUP: 2
50 -1 248 -1 #SUP: 8
50 -1 254 -1 #SUP: 4
50 -1 472 -1 #SUP: 2
50 -1 505 -1 #SUP: 2
50 -1 560 -1 #SUP: 2
50 -1 593 -1 #SUP: 2
50 -1 640 -1 #SUP: 4
50 -1 717 -1 #SUP: 2
50 -1 741 -1 #SUP: 2
50 -1 906 -1 #SUP: 2
50 -1 1014 -1 #SUP: 2
50 -1 1285 -1 #SUP: 2
89 -1 50 -1 #SUP: 3
89 -1 138 -1 #SUP: 4
89 -1 182 -1 #SUP: 2
89 -1 423 -1 #SUP: 2
112 -1 640 -1 #SUP: 2
115 -1 50 -1 #SUP: 2
115 -1 516 -1 #SUP: 2
118 -1 50 -1 #SUP: 2
118 -1 593 -1 #SUP: 2
138 -1 7 -1 #SUP: 2
138 -1 48 -1 #SUP: 5
138 -1 50 -1 #SUP: 6
138 -1 89 -1 #SUP: 2
138 -1 138 -1 #SUP: 4
138 -1 149 -1 #SUP: 3
138 -1 248 -1 #SUP: 3
138 -1 254 -1 #SUP: 2
138 -1 423 -1 #SUP: 2
138 -1 777 -1 #SUP: 2
138 -1 927 -1 #SUP: 2
138 -1 1136 -1 #SUP: 2
142 -1 248 -1 #SUP: 3
149 -1 4 -1 #SUP: 2
149 -1 48 -1 #SUP: 2
149 -1 50 -1 #SUP: 4
149 -1 112 -1 #SUP: 2
149 -1 1017 -1 #SUP: 2
233 -1 48 -1 #SUP: 2
233 -1 248 -1 #SUP: 2
248 -1 29 -1 #SUP: 2
248 -1 50 -1 #SUP: 5
248 -1 472 -1 #SUP: 2
248 -1 927 -1 #SUP: 2
254 -1 29 -1 #SUP: 2
254 -1 50 -1 #SUP: 4
254 -1 89 -1 #SUP: 2
254 -1 138 -1 #SUP: 2
254 -1 149 -1 #SUP: 2
254 -1 254 -1 #SUP: 2
254 -1 640 -1 #SUP: 2
254 -1 741 -1 #SUP: 2
254 -1 906 -1 #SUP: 2
254 -1 8085 -1 #SUP: 2
263 -1 33 -1 #SUP: 2
263 -1 50 -1 #SUP: 2
302 -1 48 -1 #SUP: 3
302 -1 50 -1 #SUP: 3
302 -1 115 -1 #SUP: 2
302 -1 149 -1 #SUP: 2
382 -1 50 -1 #SUP: 2
388 -1 640 -1 #SUP: 2
425 -1 50 -1 #SUP: 3
449 -1 29 -1 #SUP: 3
449 -1 50 -1 #SUP: 2
472 -1 50 -1 #SUP: 2
483 -1 149 -1 #SUP: 2
490 -1 50 -1 #SUP: 2
505 -1 248 -1 #SUP: 2
551 -1 128701 -1 #SUP: 2
560 -1 560 -1 #SUP: 2
603 -1 50 -1 #SUP: 4
617 -1 617 -1 #SUP: 3
625 -1 50 -1 #SUP: 2
640 -1 248 -1 #SUP: 2
640 -1 640 -1 #SUP: 2
667 -1 341 -1 #SUP: 2
717 -1 50 -1 #SUP: 2
717 -1 112 -1 #SUP: 2
717 -1 248 -1 #SUP: 2
717 -1 640 -1 #SUP: 2
738 -1 50 -1 #SUP: 2
741 -1 50 -1 #SUP: 2
777 -1 777 -1 #SUP: 2
815 -1 48 -1 #SUP: 2
815 -1 248 -1 #SUP: 2
906 -1 50 -1 #SUP: 2
933 -1 50 -1 #SUP: 2
1014 -1 382 -1 #SUP: 2
1015 -1 50 -1 #SUP: 2
1099 -1 50 -1 #SUP: 2
2113 -1 7 -1 #SUP: 2
3173 -1 50 -1 #SUP: 2
4584 -1 741 -1 #SUP: 2
8526 -1 923 -1 #SUP: 2
9567 -1 50 -1 #SUP: 2
7 -1 29 -1 472 -1 #SUP: 2
33 -1 149 -1 50 -1 #SUP: 2
36 -1 50 -1 29 -1 #SUP: 2
44 -1 50 -1 248 -1 #SUP: 2
48 -1 138 -1 48 -1 #SUP: 2
50 -1 7 -1 254 -1 #SUP: 2
50 -1 29 -1 50 -1 #SUP: 2
50 -1 50 -1 50 -1 #SUP: 3
50 -1 50 -1 1014 -1 #SUP: 2
50 -1 112 -1 640 -1 #SUP: 2
50 -1 149 -1 4 -1 #SUP: 2
50 -1 248 -1 29 -1 #SUP: 2
50 -1 248 -1 50 -1 #SUP: 2
50 -1 254 -1 50 -1 #SUP: 2
50 -1 254 -1 254 -1 #SUP: 2
50 -1 560 -1 560 -1 #SUP: 2
50 -1 640 -1 248 -1 #SUP: 2
89 -1 138 -1 423 -1 #SUP: 2
138 -1 48 -1 138 -1 #SUP: 2
254 -1 89 -1 50 -1 #SUP: 2
254 -1 906 -1 50 -1 #SUP: 2
302 -1 50 -1 48 -1 #SUP: 2
302 -1 50 -1 115 -1 #SUP: 2
302 -1 149 -1 48 -1 #SUP: 2
449 -1 50 -1 29 -1 #SUP: 2
617 -1 617 -1 617 -1 #SUP: 3
717 -1 112 -1 640 -1 #SUP: 2
815 -1 48 -1 248 -1 #SUP: 2
50 -1 50 -1 50 -1 50 -1 #SUP: 3
617 -1 617 -1 617 -1 617 -1 #SUP: 3
50 -1 50 -1 50 -1 50 -1 50 -1 #SUP: 3
617 -1 617 -1 617 -1 617 -1 617 -1 #SUP: 3
617 -1 617 -1 617 -1 617 -1 617 -1 617 -1 #SUP: 3
617 -1 617 -1 617 -1 617 -1 617 -1 617 -1 617 -1 #SUP: 3
617 -1 617 -1 617 -1 617 -1 617 -1 617 -1 617 -1 617 -1 #SUP: 3
617 -1 617 -1 617 -1 617 -1 617 -1 617 -1 617 -1 617 -1 617 -1 #SUP: 3
617 -1 617 -1 617 -1 617 -1 617 -1 617 -1 617 -1 617 -1 617 -1 617 -1 #SUP: 3
