7 -1 #SUP: 5
9 -1 #SUP: 2
19 -1 #SUP: 9
29 -1 #SUP: 6
30 -1 #SUP: 3
31 -1 #SUP: 3
33 -1 #SUP: 2
36 -1 #SUP: 2
41 -1 #SUP: 4
48 -1 #SUP: 16
49 -1 #SUP: 4
50 -1 #SUP: 59
53 -1 #SUP: 6
54 -1 #SUP: 2
72 -1 #SUP: 2
73 -1 #SUP: 3
89 -1 #SUP: 9
93 -1 #SUP: 2
94 -1 #SUP: 2
105 -1 #SUP: 2
112 -1 #SUP: 7
114 -1 #SUP: 10
118 -1 #SUP: 8
130 -1 #SUP: 2
136 -1 #SUP: 2
138 -1 #SUP: 10
142 -1 #SUP: 4
149 -1 #SUP: 6
158 -1 #SUP: 2
166 -1 #SUP: 4
167 -1 #SUP: 5
200 -1 #SUP: 2
202 -1 #SUP: 2
210 -1 #SUP: 3
218 -1 #SUP: 2
231 -1 #SUP: 2
233 -1 #SUP: 11
248 -1 #SUP: 11
254 -1 #SUP: 15
255 -1 #SUP: 3
263 -1 #SUP: 3
279 -1 #SUP: 3
289 -1 #SUP: 4
296 -1 #SUP: 3
302 -1 #SUP: 5
304 -1 #SUP: 2
329 -1 #SUP: 3
340 -1 #SUP: 2
346 -1 #SUP: 2
381 -1 #SUP: 3
382 -1 #SUP: 3
384 -1 #SUP: 3
387 -1 #SUP: 7
388 -1 #SUP: 2
389 -1 #SUP: 4
398 -1 #SUP: 4
411 -1 #SUP: 4
425 -1 #SUP: 3
428 -1 #SUP: 2
429 -1 #SUP: 2
434 -1 #SUP: 4
444 -1 #SUP: 4
458 -1 #SUP: 2
465 -1 #SUP: 3
467 -1 #SUP: 3
471 -1 #SUP: 3
472 -1 #SUP: 2
474 -1 #SUP: 2
505 -1 #SUP: 4
538 -1 #SUP: 2
551 -1 #SUP: 8
603 -1 #SUP: 8
625 -1 #SUP: 2
640 -1 #SUP: 5
645 -1 #SUP: 3
661 -1 #SUP: 2
667 -1 #SUP: 2
677 -1 #SUP: 2
708 -1 #SUP: 2
718 -1 #SUP: 2
725 -1 #SUP: 2
738 -1 #SUP: 4
740 -1 #SUP: 2
748 -1 #SUP: 2
807 -1 #SUP: 4
816 -1 #SUP: 2
906 -1 #SUP: 3
912 -1 #SUP: 3
918 -1 #SUP: 3
928 -1 #SUP: 3
929 -1 #SUP: 3
951 -1 #SUP: 2
982 -1 #SUP: 2
1014 -1 #SUP: 2
1062 -1 #SUP: 2
1106 -1 #SUP: 4
1107 -1 #SUP: 6
1120 -1 #SUP: 2
1279 -1 #SUP: 12
1392 -1 #SUP: 3
1433 -1 #SUP: 3
1452 -1 #SUP: 2
1478 -1 #SUP: 3
1490 -1 #SUP: 3
1516 -1 #SUP: 2
1707 -1 #SUP: 2
1777 -1 #SUP: 2
2029 -1 #SUP: 2
2419 -1 #SUP: 3
2688 -1 #SUP: 2
2703 -1 #SUP: 2
2767 -1 #SUP: 2
2901 -1 #SUP: 2
3200 -1 #SUP: 2
4121 -1 #SUP: 2
4570 -1 #SUP: 4
5737 -1 #SUP: 2
5848 -1 #SUP: 2
12066 -1 #SUP: 2
22737 -1 #SUP: 2
133329 -1 #SUP: 2
19 -1 112 -1 #SUP: 2
19 -1 118 -1 #SUP: 2
19 -1 384 -1 #SUP: 2
29 -1 7 -1 #SUP: 2
48 -1 33 -1 #SUP: 2
48 -1 49 -1 #SUP: 2
48 -1 50 -1 #SUP: 5
48 -1 53 -1 #SUP: 2
48 -1 118 -1 #SUP: 2
48 -1 138 -1 #SUP: 2
48 -1 248 -1 #SUP: 2
48 -1 254 -1 #SUP: 2
48 -1 302 -1 #SUP: 2
48 -1 1279 -1 #SUP: 2
49 -1 254 -1 #SUP: 2
49 -1 302 -1 #SUP: 2
50 -1 50 -1 #SUP: 13
50 -1 53 -1 #SUP: 2
50 -1 112 -1 #SUP: 2
50 -1 114 -1 #SUP: 2
50 -1 138 -1 #SUP: 4
50 -1 254 -1 #SUP: 5
50 -1 387 -1 #SUP: 3
50 -1 411 -1 #SUP: 2
50 -1 425 -1 #SUP: 2
50 -1 551 -1 #SUP: 2
50 -1 645 -1 #SUP: 2
50 -1 951 -1 #SUP: 2
50 -1 1120 -1 #SUP: 2
50 -1 1279 -1 #SUP: 2
50 -1 1433 -1 #SUP: 2
50 -1 2029 -1 #SUP: 2
50 -1 2419 -1 #SUP: 2
54 -1 50 -1 #SUP: 2
54 -1 112 -1 #SUP: 2
54 -1 279 -1 #SUP: 2
54 -1 289 -1 #SUP: 2
73 -1 1106 -1 #SUP: 2
89 -1 48 -1 #SUP: 2
89 -1 50 -1 #SUP: 2
89 -1 130 -1 #SUP: 2
89 -1 233 -1 #SUP: 3
89 -1 248 -1 #SUP: 2
112 -1 50 -1 #SUP: 4
112 -1 149 -1 #SUP: 2
112 -1 167 -1 #SUP: 2
112 -1 254 -1 #SUP: 2
112 -1 279 -1 #SUP: 3
112 -1 289 -1 #SUP: 3
112 -1 951 -1 #SUP: 2
112 -1 2029 -1 #SUP: 2
114 -1 50 -1 #SUP: 2
114 -1 1777 -1 #SUP: 2
118 -1 7 -1 #SUP: 2
118 -1 29 -1 #SUP: 3
118 -1 50 -1 #SUP: 2
118 -1 233 -1 #SUP: 2
138 -1 50 -1 #SUP: 3
138 -1 398 -1 #SUP: 2
142 -1 444 -1 #SUP: 2
166 -1 19 -1 #SUP: 3
166 -1 149 -1 #SUP: 2
167 -1 19 -1 #SUP: 2
167 -1 50 -1 #SUP: 2
167 -1 279 -1 #SUP: 2
167 -1 289 -1 #SUP: 2
167 -1 2029 -1 #SUP: 2
202 -1 50 -1 #SUP: 2
202 -1 387 -1 #SUP: 2
233 -1 48 -1 #SUP: 2
233 -1 50 -1 #SUP: 3
233 -1 248 -1 #SUP: 2
233 -1 254 -1 #SUP: 2
233 -1 1279 -1 #SUP: 2
248 -1 467 -1 #SUP: 2
254 -1 50 -1 #SUP: 3
254 -1 138 -1 #SUP: 2
254 -1 302 -1 #SUP: 2
254 -1 551 -1 #SUP: 2
254 -1 951 -1 #SUP: 2
279 -1 50 -1 #SUP: 3
279 -1 2029 -1 #SUP: 2
289 -1 50 -1 #SUP: 4
289 -1 279 -1 #SUP: 3
289 -1 2029 -1 #SUP: 2
302 -1 50 -1 #SUP: 2
398 -1 248 -1 #SUP: 2
411 -1 50 -1 #SUP: 2
434 -1 29 -1 #SUP: 2
603 -1 346 -1 #SUP: 2
667 -1 50 -1 #SUP: 2
738 -1 89 -1 #SUP: 2
807 -1 50 -1 #SUP: 2
918 -1 48 -1 #SUP: 2
918 -1 50 -1 #SUP: 2
928 -1 398 -1 #SUP: 2
929 -1 50 -1 #SUP: 3
1062 -1 50 -1 #SUP: 2
1279 -1 48 -1 #SUP: 2
1279 -1 50 -1 #SUP: 2
1279 -1 254 -1 #SUP: 2
1392 -1 2419 -1 #SUP: 2
1452 -1 50 -1 #SUP: 2
2901 -1 50 -1 #SUP: 2
49 -1 254 -1 302 -1 #SUP: 2
50 -1 50 -1 50 -1 #SUP: 4
50 -1 50 -1 254 -1 #SUP: 2
50 -1 50 -1 425 -1 #SUP: 2
50 -1 112 -1 50 -1 #SUP: 2
50 -1 254 -1 951 -1 #SUP: 2
54 -1 112 -1 50 -1 #SUP: 2
54 -1 112 -1 279 -1 #SUP: 2
54 -1 112 -1 289 -1 #SUP: 2
54 -1 279 -1 50 -1 #SUP: 2
54 -1 289 -1 50 -1 #SUP: 2
54 -1 289 -1 279 -1 #SUP: 2
112 -1 50 -1 254 -1 #SUP: 2
112 -1 50 -1 951 -1 #SUP: 2
112 -1 50 -1 2029 -1 #SUP: 2
112 -1 167 -1 50 -1 #SUP: 2
112 -1 167 -1 279 -1 #SUP: 2
112 -1 167 -1 289 -1 #SUP: 2
112 -1 167 -1 2029 -1 #SUP: 2
112 -1 254 -1 951 -1 #SUP: 2
112 -1 279 -1 50 -1 #SUP: 3
112 -1 279 -1 2029 -1 #SUP: 2
112 -1 289 -1 50 -1 #SUP: 3
112 -1 289 -1 279 -1 #SUP: 3
112 -1 289 -1 2029 -1 #SUP: 2
114 -1 50 -1 50 -1 #SUP: 2
118 -1 29 -1 7 -1 #SUP: 2
167 -1 50 -1 2029 -1 #SUP: 2
167 -1 279 -1 50 -1 #SUP: 2
167 -1 279 -1 2029 -1 #SUP: 2
167 -1 289 -1 50 -1 #SUP: 2
167 -1 289 -1 279 -1 #SUP: 2
167 -1 289 -1 2029 -1 #SUP: 2
202 -1 50 -1 387 -1 #SUP: 2
254 -1 50 -1 50 -1 #SUP: 2
279 -1 50 -1 2029 -1 #SUP: 2
289 -1 50 -1 2029 -1 #SUP: 2
289 -1 279 -1 50 -1 #SUP: 3
289 -1 279 -1 2029 -1 #SUP: 2
929 -1 50 -1 50 -1 #SUP: 3
50 -1 50 -1 50 -1 425 -1 #SUP: 2
54 -1 112 -1 279 -1 50 -1 #SUP: 2
54 -1 112 -1 289 -1 50 -1 #SUP: 2
54 -1 112 -1 289 -1 279 -1 #SUP: 2
54 -1 289 -1 279 -1 50 -1 #SUP: 2
112 -1 50 -1 254 -1 951 -1 #SUP: 2
112 -1 167 -1 50 -1 2029 -1 #SUP: 2
112 -1 167 -1 279 -1 50 -1 #SUP: 2
112 -1 167 -1 279 -1 2029 -1 #SUP: 2
112 -1 167 -1 289 -1 50 -1 #SUP: 2
112 -1 167 -1 289 -1 279 -1 #SUP: 2
112 -1 167 -1 289 -1 2029 -1 #SUP: 2
112 -1 279 -1 50 -1 2029 -1 #SUP: 2
112 -1 289 -1 50 -1 2029 -1 #SUP: 2
112 -1 289 -1 279 -1 50 -1 #SUP: 3
112 -1 289 -1 279 -1 2029 -1 #SUP: 2
167 -1 279 -1 50 -1 2029 -1 #SUP: 2
167 -1 289 -1 50 -1 2029 -1 #SUP: 2
167 -1 289 -1 279 -1 50 -1 #SUP: 2
167 -1 289 -1 279 -1 2029 -1 #SUP: 2
289 -1 279 -1 50 -1 2029 -1 #SUP: 2
929 -1 50 -1 50 -1 50 -1 #SUP: 2
54 -1 112 -1 289 -1 279 -1 50 -1 #SUP: 2
112 -1 167 -1 279 -1 50 -1 2029 -1 #SUP: 2
112 -1 167 -1 289 -1 50 -1 2029 -1 #SUP: 2
112 -1 167 -1 289 -1 279 -1 50 -1 #SUP: 2
112 -1 167 -1 289 -1 279 -1 2029 -1 #SUP: 2
112 -1 289 -1 279 -1 50 -1 2029 -1 #SUP: 2
167 -1 289 -1 279 -1 50 -1 2029 -1 #SUP: 2
112 -1 167 -1 289 -1 279 -1 50 -1 2029 -1 #SUP: 2
