248 -1 270 -1 19 -2
358 -1 194 -1 4146 -1 9625 -1 2955 -1 5185 -1 388 -1 138 -1 807 -1 149 -1 760 -1 807 -1 1850 -1 48 -1 346 -1 19 -2
1043 -1 503 -1 13449 -1 2789 -1 1623 -1 627 -1 19 -2
1047 -1 1145 -1 19 -2
115 -1 1145 -1 264 -1 130 -1 6202 -1 50 -1 264 -1 4741 -1 468 -1 1009 -1 19 -2
824 -1 1742 -1 3952 -1 1145 -1 50 -1 138 -1 19 -2
89 -1 1237 -1 50 -1 1356 -1 89 -1 8691 -1 3235 -1 927 -1 8552 -1 19 -2
138 -1 626 -1 1627 -1 29694 -1 50 -1 1427 -1 231 -1 19 -2
1598 -1 444 -1 389 -1 19 -2
114 -1 444 -1 9 -1 29 -1 19 -2
304 -1 19 -2
114 -1 696 -1 3014 -1 3314 -1 2385 -1 577 -1 289 -1 444 -1 19 -2
5 -1 1098 -1 59144 -1 254 -1 906 -1 149 -1 680 -1 277 -1 1156 -1 19 -2
444 -1 553 -1 389 -1 19 -2
48 -1 6416 -1 5689 -1 676 -1 2473 -1 6479 -1 19 -2
254 -1 4351 -1 4496 -1 2285 -1 6066 -1 9586 -1 2568 -1 19 -2
934 -1 4009 -1 233 -1 19 -2
138 -1 121 -1 11361 -1 19 -2
5 -1 1098 -1 59145 -1 114 -1 444 -1 435 -1 923 -1 19 -2
2197 -1 934 -1 151 -1 254 -1 7 -1 19 -2
406 -1 9922 -1 112 -1 8904 -1 19 -2
3504 -1 79 -1 149 -1 3504 -1 516 -1 667 -1 19 -2
246 -1 3266 -1 19 -2
138 -1 149 -1 2871 -1 2750 -1 50 -1 5385 -1 2854 -1 3132 -1 1544 -1 33 -1 962 -1 255 -1 19 -2
89 -1 233 -1 3499 -1 50 -1 288 -1 439 -1 543 -1 64 -1 30 -1 19 -2
286 -1 3416 -1 10823 -1 19 -2
263 -1 254 -1 105 -1 1136 -1 19 -2
138 -1 1942 -1 33 -1 1447 -1 50 -1 138 -1 5811 -1 1447 -1 1415 -1 1017 -1 792 -1 149 -1 19 -2
7 -1 752 -1 89 -1 920 -1 266 -1 3262 -1 19 -2
1303 -1 434 -1 337 -1 202 -1 50 -1 1623 -1 1029 -1 325 -1 2148 -1 19 -2
9533 -1 2395 -1 427 -1 59146 -1 1237 -1 389 -1 50 -1 375 -1 1237 -1 19 -2
19 -2
1051 -1 1924 -1 9531 -1 302 -1 3235 -1 1219 -1 1938 -1 564 -1 59147 -1 1253 -1 19 -2
1252 -1 50 -1 708 -1 19 -2
421 -1 5838 -1 263 -1 1839 -1 389 -1 471 -1 19 -2
94 -1 1427 -1 2706 -1 423 -1 9641 -1 593 -1 19 -2
41 -1 449 -1 1759 -1 19 -2
444 -1 112 -1 444 -1 50 -1 951 -1 112 -1 4483 -1 640 -1 296 -1 1430 -1 45702 -1 43419 -1 19 -2
304 -1 149 -1 1081 -1 2268 -1 19 -2
1246 -1 406 -1 132 -1 149 -1 19 -2
599 -1 1485 -1 8639 -1 19 -2
927 -1 19 -2
149 -1 248 -1 335 -1 54146 -1 19 -2
640 -1 747 -1 360 -1 1092 -1 1447 -1 19 -2
360 -1 444 -1 818 -1 477 -1 1092 -1 444 -1 777 -1 1234 -1 105 -1 627 -1 477 -1 19 -2
233 -1 19 -2
3153 -1 138 -1 25480 -1 10054 -1 19 -2
89 -1 19 -2
233 -1 927 -1 2395 -1 296 -1 304 -1 4579 -1 19 -2
2364 -1 927 -1 423 -1 19 -2
471 -1 440 -1 975 -1 1304 -1 708 -1 1343 -1 19 -2
398 -1 248 -1 48 -1 19 -2
1684 -1 19 -2
2478 -1 3314 -1 2385 -1 19 -2
1246 -1 151 -1 339 -1 132 -1 149 -1 906 -1 19 -2
428 -1 522 -1 10310 -1 138 -1 926 -1 519 -1 1804 -1 2853 -1 19 -2
3 -1 29 -1 444 -1 9 -1 816 -1 19 -2
248 -1 147 -1 10970 -1 306 -1 19 -2
421 -1 2266 -1 31920 -1 19 -2
304 -1 7048 -1 4163 -1 248 -1 8285 -1 346 -1 19 -2
4579 -1 19 -2
248 -1 4108 -1 24860 -1 50 -1 3190 -1 4714 -1 50 -1 59148 -1 54584 -1 13959 -1 13958 -1 19 -2
619 -1 89 -1 233 -1 93 -1 1079 -1 19 -2
50 -1 573 -1 149 -1 378 -1 305 -1 2913 -1 89 -1 305 -1 19 -2
7 -1 6027 -1 19 -2
6894 -1 1304 -1 2266 -1 248 -1 3507 -1 33 -1 2439 -1 19 -2
748 -1 1416 -1 19 -2
48 -1 5474 -1 1304 -1 19 -2
1024 -1 315 -1 110 -1 1188 -1 17050 -1 47 -1 19 -2
3875 -1 420 -1 289 -1 3014 -1 167 -1 263 -1 289 -1 166 -1 167 -1 19 -1 263 -1 19 -2
975 -1 248 -1 254 -1 257 -1 19 -2
926 -1 7071 -1 266 -1 19 -2
48 -1 1303 -1 747 -1 47 -1 263 -1 975 -1 19 -2
2113 -1 149 -1 19 -2
2419 -1 1156 -1 771 -1 112 -1 61 -1 472 -1 37601 -1 1370 -1 2816 -1 19 -2
389 -1 266 -1 2222 -1 89 -1 1299 -1 59149 -1 233 -1 254 -1 471 -1 267 -1 190 -2
48 -1 922 -1 118 -1 262 -1 7264 -1 674 -1 1 -2
277 -1 553 -1 7 -1 50 -1 31920 -1 19 -2
538 -1 553 -1 3200 -1 1820 -1 9275 -1 19 -2
138 -1 112 -1 2676 -1 112 -1 928 -1 1895 -1 304 -1 112 -1 521 -1 1697 -1 933 -1 142 -1 5633 -1 620 -1 19 -2
3864 -1 22780 -1 19 -2
8352 -1 49 -1 6655 -1 3485 -1 8349 -1 9 -1 296 -1 290 -1 255 -1 384 -1 748 -1 2560 -1 19 -2
339 -1 846 -1 918 -1 771 -1 5790 -1 4915 -1 9016 -1 19 -2
5766 -1 1319 -1 89 -1 84 -1 1219 -1 1893 -1 2 -1 1216 -1 1219 -1 19 -2
254 -1 7 -1 640 -1 4415 -1 5871 -1 2266 -1 3453 -1 2710 -1 1 -2
339 -1 1300 -1 59150 -1 1319 -1 19 -2
1133 -1 13234 -1 1341 -1 648 -1 3046 -1 2683 -1 130 -1 19 -2
84 -1 1219 -1 1216 -1 1219 -1 339 -1 19 -2
2029 -1 97 -1 928 -1 19 -2
2706 -1 1530 -1 1401 -1 19 -2
33 -1 486 -1 59151 -1 1145 -1 19 -2
640 -1 248 -1 5263 -1 2331 -1 19 -2
933 -1 10232 -1 573 -1 623 -1 958 -1 453 -1 254 -1 1019 -1 1019 -1 248 -1 422 -1 166 -1 3468 -1 19 -2
1237 -1 1014 -1 1107 -1 4155 -1 296 -1 982 -1 6521 -1 19 -2
6259 -1 375 -1 85 -1 50 -1 3818 -1 1303 -1 388 -1 5049 -1 50 -1 421 -1 480 -1 50 -1 1129 -1 927 -1 32146 -1 4949 -1 50 -1 532 -1 6053 -1 388 -1 115 -1 1354 -1 19 -2
339 -1 49 -1 1185 -1 3103 -1 112 -1 471 -1 758 -1 19 -2
138 -1 758 -1 483 -1 130 -1 19 -2
48 -1 118 -1 19 -2
89 -1 233 -1 735 -1 248 -1 1046 -1 640 -1 1272 -1 8898 -1 9239 -1 714 -1 1025 -1 942 -1 388 -1 2012 -1 626 -1 19 -2
2831 -1 19 -2
12505 -1 233 -1 16924 -1 702 -1 1348 -1 5766 -1 2495 -1 17910 -1 21979 -1 118 -1 1376 -1 20261 -1 19 -2
381 -1 19 -2
1336 -1 9564 -1 19 -2
1942 -1 5195 -1 875 -1 19 -2
9148 -1 89 -1 296 -1 1942 -1 161 -1 19 -2
19 -2
640 -1 248 -1 708 -1 678 -1 19 -2
48 -1 53 -1 233 -1 906 -1 233 -1 50 -1 114 -1 108 -1 640 -1 248 -1 708 -1 19 -2
3724 -1 262 -1 337 -1 804 -1 1031 -1 19 -2
2642 -1 1156 -1 3467 -1 149 -1 19 -2
1532 -1 506 -1 19 -2
147 -1 306 -1 147 -1 19 -2
304 -1 2942 -1 468 -1 9 -1 2642 -1 1144 -1 19 -2
254 -1 7 -1 748 -1 680 -1 7 -1 19 -2
521 -1 1038 -1 50 -1 709 -1 6029 -1 296 -1 14293 -1 12097 -1 6029 -1 19 -2
3104 -1 7050 -1 19 -2
254 -1 7003 -1 1081 -1 19 -2
66 -1 142 -1 59152 -1 48 -1 1129 -1 190 -2
254 -1 906 -1 6428 -1 1550 -1 2863 -1 2660 -1 19 -2
48 -1 33442 -1 19 -2
233 -1 114 -1 571 -1 290 -1 535 -1 4514 -1 49 -1 46821 -1 3213 -1 219 -1 219 -1 571 -1 44 -1 19 -2
113 -1 15401 -1 6054 -1 3540 -1 8372 -1 10969 -1 11 -1 928 -1 248 -1 19 -2
248 -1 112 -1 278 -1 48 -1 923 -1 19 -2
254 -1 435 -1 923 -1 2811 -1 3259 -1 459 -1 4294 -1 2425 -1 1242 -1 19 -2
89 -1 233 -1 248 -1 114 -1 2413 -1 593 -1 439 -1 115 -1 112 -1 2 -1 19 -2
93 -1 557 -1 2279 -1 248 -1 428 -1 50 -1 933 -2