6777 -1 1232 -1 2787 -1 19 -2
1243 -1 19 -2
5 -1 101278 -1 71 -1 62 -1 68 -1 6749 -1 4088 -1 1243 -1 101277 -1 77080 -1 1 -2
254 -1 77080 -1 190 -2
48 -1 52770 -1 5754 -1 4130 -1 6261 -1 50 -1 603 -1 19 -2
5 -1 13596 -1 101282 -1 101283 -1 101281 -1 101280 -1 9267 -1 101279 -1 1297 -1 1232 -1 7347 -1 3304 -1 1029 -1 19 -2
19 -2
114 -1 680 -1 149 -1 471 -1 678 -1 428 -1 1029 -1 1567 -1 483 -1 50 -1 52987 -1 428 -1 1029 -1 1 -2
72 -1 248 -1 19 -2
7607 -1 1029 -1 391 -1 50 -1 906 -1 50 -1 1037 -1 2881 -1 1079 -1 138 -1 6971 -1 1540 -1 48976 -1 4399 -1 6406 -1 19 -2
891 -1 678 -1 48 -1 3521 -1 98694 -1 50 -1 138 -1 50 -1 3295 -1 3598 -1 19 -2
149 -1 2333 -1 8287 -1 48 -1 11 -1 22894 -1 4130 -1 705 -1 1 -2
138 -1 2421 -1 1297 -1 5482 -1 23396 -1 50 -1 2425 -1 6360 -1 1602 -1 65 -1 19 -2
101287 -1 5 -1 101284 -1 1474 -1 139 -1 6525 -1 101285 -1 2030 -1 560 -1 50 -1 38427 -1 264 -1 6027 -1 101286 -1 942 -1 1494 -1 1383 -1 19 -2
247 -1 50 -1 3098 -1 19 -2
10963 -1 296 -1 551 -1 19 -2
50 -1 457 -1 19 -2
847 -1 122 -1 2522 -1 118 -1 16233 -1 9958 -1 2093 -1 54 -1 1014 -1 115 -1 50 -1 93 -1 1 -2
114 -1 1400 -1 9819 -1 21244 -1 4936 -1 50 -1 929 -1 19 -2
48 -1 630 -1 2397 -1 4269 -1 50 -1 175 -1 32159 -1 2248 -1 5693 -1 5882 -1 50 -1 1707 -1 19 -2
101288 -1 1 -2
54 -1 1099 -1 1400 -1 48 -1 521 -1 14748 -1 19 -2
3130 -1 483 -1 7019 -1 19 -2
477 -1 3630 -1 717 -1 335 -1 147 -1 101289 -1 19 -2
6129 -1 4 -1 710 -1 13090 -1 50 -1 1037 -1 708 -1 114 -1 1761 -1 19 -2
1476 -1 50 -1 1874 -1 697 -1 19 -2
465 -1 1079 -1 4465 -1 254 -1 678 -1 2498 -1 2680 -1 1143 -1 254 -1 678 -1 2498 -1 2680 -1 19 -2
48 -1 3787 -1 1718 -1 175 -1 3986 -1 19 -2
421 -1 39308 -1 340 -1 5412 -1 879 -1 19 -2
138 -1 875 -1 1664 -1 4484 -1 2139 -1 2030 -1 5 -1 18 -1 17 -1 101290 -1 50 -1 1429 -1 401 -1 19 -2
142 -1 3820 -1 19 -1 435 -1 142 -1 1376 -1 19 -2
3300 -1 19 -2
444 -1 2582 -1 3386 -1 7330 -1 180 -1 280 -1 19 -2
668 -1 680 -1 678 -1 2582 -1 1686 -1 5202 -1 678 -1 48 -1 175 -1 19 -2
382 -1 9904 -1 50 -1 7517 -1 190 -2
301 -1 5908 -1 836 -1 5946 -1 2257 -1 1 -2
101292 -1 384 -1 248 -1 6129 -1 101291 -1 19 -2
13511 -1 1854 -1 1021 -1 431 -1 946 -1 101293 -1 50 -1 12325 -1 9229 -1 1 -2
505 -1 50 -1 5420 -1 2267 -1 16540 -1 33 -1 247 -1 2693 -1 19 -2
138 -1 50 -1 247 -1 19 -2
94 -1 50 -1 875 -1 19 -2
254 -1 301 -1 5908 -1 50 -1 3069 -1 46656 -1 1111 -1 521 -1 12974 -1 50 -1 13566 -1 50 -1 5488 -1 4543 -1 1404 -1 50 -1 1878 -1 5214 -1 19 -2
114 -1 263 -1 811 -1 9411 -1 1879 -1 4834 -1 166 -1 167 -1 879 -1 3796 -1 4834 -1 166 -1 218 -1 657 -1 101295 -1 101294 -1 4496 -1 101296 -1 518 -1 19 -2
5 -1 18 -1 17 -1 101297 -1 3346 -1 4070 -1 917 -1 917 -1 1026 -1 101298 -1 471 -1 2729 -1 50 -1 2729 -1 16026 -1 19 -2
29212 -1 1326 -1 113 -1 50 -1 113 -1 5755 -1 640 -1 248 -1 19 -2
5 -1 18 -1 17 -1 101299 -1 3346 -1 1336 -1 29541 -1 434 -1 663 -1 50 -1 315 -1 1 -2
2562 -1 50 -1 114 -1 138 -1 14137 -1 14144 -1 495 -1 50 -1 678 -1 19 -2
893 -1 19 -2
465 -1 50 -1 568 -1 19 -2
1264 -1 50 -1 48 -1 2436 -1 1415 -1 7301 -1 1799 -1 4358 -1 2491 -1 2905 -1 1106 -1 19 -2
50 -1 248 -1 48 -1 1228 -1 33 -1 19 -2
1 -2
48 -1 19 -2
434 -1 6777 -1 667 -1 19 -2
942 -1 4447 -1 19 -2
955 -1 444 -1 19 -2
444 -1 5376 -1 19 -2
50952 -1 748 -1 5376 -1 19 -2
50952 -1 748 -1 955 -1 19 -2
3269 -1 254 -1 19 -2
48 -1 498 -1 19 -2
50 -1 498 -1 19 -2
19 -2
142 -1 519 -1 678 -1 50 -1 48 -1 587 -1 505 -1 19 -2
337 -1 1 -2
1044 -1 1 -2
283 -1 50 -1 7240 -1 270 -1 1049 -1 505 -1 19 -2
50 -1 702 -1 1266 -1 50 -1 21791 -1 5622 -1 11638 -1 1865 -1 1474 -1 11639 -1 74236 -1 36 -1 7055 -1 190 -2
725 -1 262 -1 19 -2
5 -1 18 -1 17 -1 617 -1 101300 -1 2252 -1 2093 -1 19 -2
42 -1 1547 -1 31 -1 50 -1 333 -1 48 -1 2344 -1 1237 -1 946 -1 210 -1 19 -2
101301 -1 8337 -1 1879 -1 1879 -1 3400 -1 50 -1 472 -1 25108 -1 3400 -1 19 -1 871 -1 1475 -1 1251 -1 19 -2
18408 -1 166 -1 166 -1 1879 -1 101302 -1 1879 -1 166 -1 19 -1 19 -2
540 -1 487 -1 2649 -1 1271 -1 540 -1 50 -1 1218 -1 31906 -1 50 -1 2303 -1 6516 -1 50 -1 67 -1 55647 -1 19 -2
48 -1 718 -1 540 -1 50 -1 19 -2
1693 -1 101303 -1 9684 -1 19 -2
233 -1 18752 -1 678 -1 200 -1 5753 -1 9795 -1 8695 -1 5360 -1 19 -2
101304 -1 19 -2
22306 -1 678 -1 50 -1 151 -1 50 -1 1 -2
465 -1 50 -1 138 -1 9802 -1 2147 -1 472 -1 2685 -1 678 -1 19 -2
19 -2
142 -1 110 -1 261 -1 190 -2
568 -1 710 -1 1528 -1 3589 -1 518 -1 19 -2
1528 -1 112 -1 819 -1 19 -2
302 -1 304 -1 30503 -1 1289 -1 871 -1 1044 -1 50 -1 193 -1 50 -1 887 -1 2119 -1 680 -1 19 -2
1024 -1 166 -1 115 -1 3024 -1 19 -2
3271 -1 50 -1 288 -1 1368 -1 7541 -1 19 -2
254 -1 2905 -1 248 -1 289 -1 281 -1 19 -2
681 -1 175 -1 50175 -1 41198 -1 1014 -1 428 -1 233 -1 48 -1 471 -1 19 -2
89 -1 771 -1 19 -2
50 -1 1681 -1 9246 -1 101294 -1 6932 -1 19370 -1 422 -1 50 -1 1741 -1 3794 -1 50 -1 11 -1 101305 -1 19370 -1 19 -2
101294 -1 48 -1 15237 -1 6932 -1 19370 -1 472 -1 555 -1 132 -1 19 -2
1758 -1 1777 -1 8677 -1 19 -2
557 -1 167 -1 9794 -1 2268 -1 818 -1 19 -2
1289 -1 1879 -1 101306 -1 3796 -1 19870 -1 5519 -1 101307 -1 1879 -1 3796 -1 5519 -1 1265 -1 1821 -1 1265 -1 11610 -1 21468 -1 19 -2
1879 -1 3796 -1 218 -1 19 -2