4 -1 #SUP: 2
6 -1 #SUP: 2
9 -1 #SUP: 3
11 -1 #SUP: 2
17 -1 #SUP: 2
18 -1 #SUP: 2
19 -1 #SUP: 3
29 -1 #SUP: 3
30 -1 #SUP: 4
37 -1 #SUP: 2
38 -1 #SUP: 2
48 -1 #SUP: 4
49 -1 #SUP: 5
50 -1 #SUP: 17
53 -1 #SUP: 4
89 -1 #SUP: 3
104 -1 #SUP: 2
107 -1 #SUP: 10
112 -1 #SUP: 3
114 -1 #SUP: 4
115 -1 #SUP: 2
118 -1 #SUP: 5
138 -1 #SUP: 8
142 -1 #SUP: 3
149 -1 #SUP: 3
166 -1 #SUP: 2
233 -1 #SUP: 3
247 -1 #SUP: 2
248 -1 #SUP: 2
254 -1 #SUP: 4
258 -1 #SUP: 2
262 -1 #SUP: 4
263 -1 #SUP: 3
270 -1 #SUP: 3
286 -1 #SUP: 2
289 -1 #SUP: 3
296 -1 #SUP: 5
312 -1 #SUP: 2
371 -1 #SUP: 4
374 -1 #SUP: 3
377 -1 #SUP: 4
382 -1 #SUP: 2
384 -1 #SUP: 3
387 -1 #SUP: 2
400 -1 #SUP: 3
411 -1 #SUP: 2
439 -1 #SUP: 3
483 -1 #SUP: 3
486 -1 #SUP: 2
495 -1 #SUP: 6
513 -1 #SUP: 2
543 -1 #SUP: 2
551 -1 #SUP: 2
627 -1 #SUP: 2
637 -1 #SUP: 5
640 -1 #SUP: 5
645 -1 #SUP: 2
677 -1 #SUP: 2
678 -1 #SUP: 2
697 -1 #SUP: 3
701 -1 #SUP: 2
713 -1 #SUP: 2
735 -1 #SUP: 2
777 -1 #SUP: 3
851 -1 #SUP: 2
873 -1 #SUP: 2
893 -1 #SUP: 3
906 -1 #SUP: 2
927 -1 #SUP: 3
928 -1 #SUP: 4
966 -1 #SUP: 3
1024 -1 #SUP: 3
1143 -1 #SUP: 2
1175 -1 #SUP: 2
1225 -1 #SUP: 3
1247 -1 #SUP: 2
1290 -1 #SUP: 2
1297 -1 #SUP: 4
1322 -1 #SUP: 2
1344 -1 #SUP: 2
1414 -1 #SUP: 3
1477 -1 #SUP: 2
1623 -1 #SUP: 2
1636 -1 #SUP: 2
1681 -1 #SUP: 2
1690 -1 #SUP: 2
2020 -1 #SUP: 2
2134 -1 #SUP: 2
2331 -1 #SUP: 2
2439 -1 #SUP: 2
2807 -1 #SUP: 2
2864 -1 #SUP: 2
2942 -1 #SUP: 2
3289 -1 #SUP: 2
3581 -1 #SUP: 2
5359 -1 #SUP: 2
5628 -1 #SUP: 2
5871 -1 #SUP: 2
6924 -1 #SUP: 2
18018 -1 #SUP: 4
24639 -1 #SUP: 2
29127 -1 #SUP: 2
6 -1 17 -1 #SUP: 2
6 -1 18 -1 #SUP: 2
18 -1 17 -1 #SUP: 2
37 -1 637 -1 #SUP: 2
50 -1 50 -1 #SUP: 3
50 -1 53 -1 #SUP: 3
50 -1 112 -1 #SUP: 2
50 -1 114 -1 #SUP: 2
50 -1 400 -1 #SUP: 2
50 -1 640 -1 #SUP: 2
104 -1 107 -1 #SUP: 2
107 -1 107 -1 #SUP: 3
107 -1 296 -1 #SUP: 2
107 -1 1225 -1 #SUP: 2
114 -1 50 -1 #SUP: 2
114 -1 289 -1 #SUP: 2
114 -1 400 -1 #SUP: 2
138 -1 777 -1 #SUP: 2
142 -1 384 -1 #SUP: 2
312 -1 107 -1 #SUP: 2
371 -1 107 -1 #SUP: 2
377 -1 24639 -1 #SUP: 2
411 -1 1297 -1 #SUP: 2
411 -1 2942 -1 #SUP: 2
411 -1 5359 -1 #SUP: 2
411 -1 6924 -1 #SUP: 2
439 -1 2134 -1 #SUP: 2
495 -1 30 -1 #SUP: 3
495 -1 1143 -1 #SUP: 2
697 -1 5871 -1 #SUP: 2
893 -1 374 -1 #SUP: 2
906 -1 114 -1 #SUP: 2
906 -1 400 -1 #SUP: 2
1024 -1 30 -1 #SUP: 2
1024 -1 495 -1 #SUP: 2
1024 -1 1143 -1 #SUP: 2
1024 -1 18018 -1 #SUP: 2
1024 -1 29127 -1 #SUP: 2
1143 -1 30 -1 #SUP: 2
1225 -1 107 -1 #SUP: 2
1247 -1 411 -1 #SUP: 2
1247 -1 1297 -1 #SUP: 2
1247 -1 2942 -1 #SUP: 2
1247 -1 5359 -1 #SUP: 2
1247 -1 6924 -1 #SUP: 2
1297 -1 411 -1 #SUP: 2
1297 -1 1297 -1 #SUP: 2
1297 -1 2942 -1 #SUP: 2
1297 -1 5359 -1 #SUP: 2
1297 -1 6924 -1 #SUP: 2
1477 -1 2807 -1 #SUP: 2
2942 -1 6924 -1 #SUP: 2
5359 -1 2942 -1 #SUP: 2
5359 -1 6924 -1 #SUP: 2
18018 -1 30 -1 #SUP: 2
18018 -1 411 -1 #SUP: 2
18018 -1 495 -1 #SUP: 2
18018 -1 1143 -1 #SUP: 2
18018 -1 1247 -1 #SUP: 2
18018 -1 1297 -1 #SUP: 2
18018 -1 2942 -1 #SUP: 2
18018 -1 5359 -1 #SUP: 2
18018 -1 6924 -1 #SUP: 2
29127 -1 30 -1 #SUP: 2
29127 -1 495 -1 #SUP: 2
29127 -1 1143 -1 #SUP: 2
29127 -1 18018 -1 #SUP: 2
6 -1 18 -1 17 -1 #SUP: 2
50 -1 50 -1 50 -1 #SUP: 2
50 -1 114 -1 400 -1 #SUP: 2
411 -1 1297 -1 2942 -1 #SUP: 2
411 -1 1297 -1 5359 -1 #SUP: 2
411 -1 1297 -1 6924 -1 #SUP: 2
411 -1 2942 -1 6924 -1 #SUP: 2
411 -1 5359 -1 2942 -1 #SUP: 2
411 -1 5359 -1 6924 -1 #SUP: 2
495 -1 1143 -1 30 -1 #SUP: 2
906 -1 114 -1 400 -1 #SUP: 2
1024 -1 495 -1 30 -1 #SUP: 2
1024 -1 495 -1 1143 -1 #SUP: 2
1024 -1 1143 -1 30 -1 #SUP: 2
1024 -1 18018 -1 30 -1 #SUP: 2
1024 -1 18018 -1 495 -1 #SUP: 2
1024 -1 18018 -1 1143 -1 #SUP: 2
1024 -1 29127 -1 30 -1 #SUP: 2
1024 -1 29127 -1 495 -1 #SUP: 2
1024 -1 29127 -1 1143 -1 #SUP: 2
1024 -1 29127 -1 18018 -1 #SUP: 2
1247 -1 411 -1 1297 -1 #SUP: 2
1247 -1 411 -1 2942 -1 #SUP: 2
1247 -1 411 -1 5359 -1 #SUP: 2
1247 -1 411 -1 6924 -1 #SUP: 2
1247 -1 1297 -1 411 -1 #SUP: 2
1247 -1 1297 -1 1297 -1 #SUP: 2
1247 -1 1297 -1 2942 -1 #SUP: 2
1247 -1 1297 -1 5359 -1 #SUP: 2
1247 -1 1297 -1 6924 -1 #SUP: 2
1247 -1 2942 -1 6924 -1 #SUP: 2
1247 -1 5359 -1 2942 -1 #SUP: 2
1247 -1 5359 -1 6924 -1 #SUP: 2
1297 -1 411 -1 1297 -1 #SUP: 2
1297 -1 411 -1 2942 -1 #SUP: 2
1297 -1 411 -1 5359 -1 #SUP: 2
1297 -1 411 -1 6924 -1 #SUP: 2
1297 -1 1297 -1 2942 -1 #SUP: 2
1297 -1 1297 -1 5359 -1 #SUP: 2
1297 -1 1297 -1 6924 -1 #SUP: 2
1297 -1 2942 -1 6924 -1 #SUP: 2
1297 -1 5359 -1 2942 -1 #SUP: 2
1297 -1 5359 -1 6924 -1 #SUP: 2
5359 -1 2942 -1 6924 -1 #SUP: 2
18018 -1 411 -1 1297 -1 #SUP: 2
18018 -1 411 -1 2942 -1 #SUP: 2
18018 -1 411 -1 5359 -1 #SUP: 2
18018 -1 411 -1 6924 -1 #SUP: 2
18018 -1 495 -1 30 -1 #SUP: 2
18018 -1 495 -1 1143 -1 #SUP: 2
18018 -1 1143 -1 30 -1 #SUP: 2
18018 -1 1247 -1 411 -1 #SUP: 2
18018 -1 1247 -1 1297 -1 #SUP: 2
18018 -1 1247 -1 2942 -1 #SUP: 2
18018 -1 1247 -1 5359 -1 #SUP: 2
18018 -1 1247 -1 6924 -1 #SUP: 2
18018 -1 1297 -1 411 -1 #SUP: 2
18018 -1 1297 -1 1297 -1 #SUP: 2
18018 -1 1297 -1 2942 -1 #SUP: 2
18018 -1 1297 -1 5359 -1 #SUP: 2
18018 -1 1297 -1 6924 -1 #SUP: 2
18018 -1 2942 -1 6924 -1 #SUP: 2
18018 -1 5359 -1 2942 -1 #SUP: 2
18018 -1 5359 -1 6924 -1 #SUP: 2
29127 -1 495 -1 30 -1 #SUP: 2
29127 -1 495 -1 1143 -1 #SUP: 2
29127 -1 1143 -1 30 -1 #SUP: 2
29127 -1 18018 -1 30 -1 #SUP: 2
29127 -1 18018 -1 495 -1 #SUP: 2
29127 -1 18018 -1 1143 -1 #SUP: 2
411 -1 1297 -1 2942 -1 6924 -1 #SUP: 2
411 -1 1297 -1 5359 -1 2942 -1 #SUP: 2
411 -1 1297 -1 5359 -1 6924 -1 #SUP: 2
411 -1 5359 -1 2942 -1 6924 -1 #SUP: 2
1024 -1 495 -1 1143 -1 30 -1 #SUP: 2
1024 -1 18018 -1 495 -1 30 -1 #SUP: 2
1024 -1 18018 -1 495 -1 1143 -1 #SUP: 2
1024 -1 18018 -1 1143 -1 30 -1 #SUP: 2
1024 -1 29127 -1 495 -1 30 -1 #SUP: 2
1024 -1 29127 -1 495 -1 1143 -1 #SUP: 2
1024 -1 29127 -1 1143 -1 30 -1 #SUP: 2
1024 -1 29127 -1 18018 -1 30 -1 #SUP: 2
1024 -1 29127 -1 18018 -1 495 -1 #SUP: 2
1024 -1 29127 -1 18018 -1 1143 -1 #SUP: 2
1247 -1 411 -1 1297 -1 2942 -1 #SUP: 2
1247 -1 411 -1 1297 -1 5359 -1 #SUP: 2
1247 -1 411 -1 1297 -1 6924 -1 #SUP: 2
1247 -1 411 -1 2942 -1 6924 -1 #SUP: 2
1247 -1 411 -1 5359 -1 2942 -1 #SUP: 2
1247 -1 411 -1 5359 -1 6924 -1 #SUP: 2
1247 -1 1297 -1 411 -1 1297 -1 #SUP: 2
1247 -1 1297 -1 411 -1 2942 -1 #SUP: 2
1247 -1 1297 -1 411 -1 5359 -1 #SUP: 2
1247 -1 1297 -1 411 -1 6924 -1 #SUP: 2
1247 -1 1297 -1 1297 -1 2942 -1 #SUP: 2
1247 -1 1297 -1 1297 -1 5359 -1 #SUP: 2
1247 -1 1297 -1 1297 -1 6924 -1 #SUP: 2
1247 -1 1297 -1 2942 -1 6924 -1 #SUP: 2
1247 -1 1297 -1 5359 -1 2942 -1 #SUP: 2
1247 -1 1297 -1 5359 -1 6924 -1 #SUP: 2
1247 -1 5359 -1 2942 -1 6924 -1 #SUP: 2
1297 -1 411 -1 1297 -1 2942 -1 #SUP: 2
1297 -1 411 -1 1297 -1 5359 -1 #SUP: 2
1297 -1 411 -1 1297 -1 6924 -1 #SUP: 2
1297 -1 411 -1 2942 -1 6924 -1 #SUP: 2
1297 -1 411 -1 5359 -1 2942 -1 #SUP: 2
1297 -1 411 -1 5359 -1 6924 -1 #SUP: 2
1297 -1 1297 -1 2942 -1 6924 -1 #SUP: 2
1297 -1 1297 -1 5359 -1 2942 -1 #SUP: 2
1297 -1 1297 -1 5359 -1 6924 -1 #SUP: 2
1297 -1 5359 -1 2942 -1 6924 -1 #SUP: 2
18018 -1 411 -1 1297 -1 2942 -1 #SUP: 2
18018 -1 411 -1 1297 -1 5359 -1 #SUP: 2
18018 -1 411 -1 1297 -1 6924 -1 #SUP: 2
18018 -1 411 -1 2942 -1 6924 -1 #SUP: 2
18018 -1 411 -1 5359 -1 2942 -1 #SUP: 2
18018 -1 411 -1 5359 -1 6924 -1 #SUP: 2
18018 -1 495 -1 1143 -1 30 -1 #SUP: 2
18018 -1 1247 -1 411 -1 1297 -1 #SUP: 2
18018 -1 1247 -1 411 -1 2942 -1 #SUP: 2
18018 -1 1247 -1 411 -1 5359 -1 #SUP: 2
18018 -1 1247 -1 411 -1 6924 -1 #SUP: 2
18018 -1 1247 -1 1297 -1 411 -1 #SUP: 2
18018 -1 1247 -1 1297 -1 1297 -1 #SUP: 2
18018 -1 1247 -1 1297 -1 2942 -1 #SUP: 2
18018 -1 1247 -1 1297 -1 5359 -1 #SUP: 2
18018 -1 1247 -1 1297 -1 6924 -1 #SUP: 2
18018 -1 1247 -1 2942 -1 6924 -1 #SUP: 2
18018 -1 1247 -1 5359 -1 2942 -1 #SUP: 2
18018 -1 1247 -1 5359 -1 6924 -1 #SUP: 2
18018 -1 1297 -1 411 -1 1297 -1 #SUP: 2
18018 -1 1297 -1 411 -1 2942 -1 #SUP: 2
18018 -1 1297 -1 411 -1 5359 -1 #SUP: 2
18018 -1 1297 -1 411 -1 6924 -1 #SUP: 2
18018 -1 1297 -1 1297 -1 2942 -1 #SUP: 2
18018 -1 1297 -1 1297 -1 5359 -1 #SUP: 2
18018 -1 1297 -1 1297 -1 6924 -1 #SUP: 2
18018 -1 1297 -1 2942 -1 6924 -1 #SUP: 2
18018 -1 1297 -1 5359 -1 2942 -1 #SUP: 2
18018 -1 1297 -1 5359 -1 6924 -1 #SUP: 2
18018 -1 5359 -1 2942 -1 6924 -1 #SUP: 2
29127 -1 495 -1 1143 -1 30 -1 #SUP: 2
29127 -1 18018 -1 495 -1 30 -1 #SUP: 2
29127 -1 18018 -1 495 -1 1143 -1 #SUP: 2
29127 -1 18018 -1 1143 -1 30 -1 #SUP: 2
411 -1 1297 -1 5359 -1 2942 -1 6924 -1 #SUP: 2
1024 -1 18018 -1 495 -1 1143 -1 30 -1 #SUP: 2
1024 -1 29127 -1 495 -1 1143 -1 30 -1 #SUP: 2
1024 -1 29127 -1 18018 -1 495 -1 30 -1 #SUP: 2
1024 -1 29127 -1 18018 -1 495 -1 1143 -1 #SUP: 2
1024 -1 29127 -1 18018 -1 1143 -1 30 -1 #SUP: 2
1247 -1 411 -1 1297 -1 2942 -1 6924 -1 #SUP: 2
1247 -1 411 -1 1297 -1 5359 -1 2942 -1 #SUP: 2
1247 -1 411 -1 1297 -1 5359 -1 6924 -1 #SUP: 2
1247 -1 411 -1 5359 -1 2942 -1 6924 -1 #SUP: 2
1247 -1 1297 -1 411 -1 1297 -1 2942 -1 #SUP: 2
1247 -1 1297 -1 411 -1 1297 -1 5359 -1 #SUP: 2
1247 -1 1297 -1 411 -1 1297 -1 6924 -1 #SUP: 2
1247 -1 1297 -1 411 -1 2942 -1 6924 -1 #SUP: 2
1247 -1 1297 -1 411 -1 5359 -1 2942 -1 #SUP: 2
1247 -1 1297 -1 411 -1 5359 -1 6924 -1 #SUP: 2
1247 -1 1297 -1 1297 -1 2942 -1 6924 -1 #SUP: 2
1247 -1 1297 -1 1297 -1 5359 -1 2942 -1 #SUP: 2
1247 -1 1297 -1 1297 -1 5359 -1 6924 -1 #SUP: 2
1247 -1 1297 -1 5359 -1 2942 -1 6924 -1 #SUP: 2
1297 -1 411 -1 1297 -1 2942 -1 6924 -1 #SUP: 2
1297 -1 411 -1 1297 -1 5359 -1 2942 -1 #SUP: 2
1297 -1 411 -1 1297 -1 5359 -1 6924 -1 #SUP: 2
1297 -1 411 -1 5359 -1 2942 -1 6924 -1 #SUP: 2
1297 -1 1297 -1 5359 -1 2942 -1 6924 -1 #SUP: 2
18018 -1 411 -1 1297 -1 2942 -1 6924 -1 #SUP: 2
18018 -1 411 -1 1297 -1 5359 -1 2942 -1 #SUP: 2
18018 -1 411 -1 1297 -1 5359 -1 6924 -1 #SUP: 2
18018 -1 411 -1 5359 -1 2942 -1 6924 -1 #SUP: 2
18018 -1 1247 -1 411 -1 1297 -1 2942 -1 #SUP: 2
18018 -1 1247 -1 411 -1 1297 -1 5359 -1 #SUP: 2
18018 -1 1247 -1 411 -1 1297 -1 6924 -1 #SUP: 2
18018 -1 1247 -1 411 -1 2942 -1 6924 -1 #SUP: 2
18018 -1 1247 -1 411 -1 5359 -1 2942 -1 #SUP: 2
18018 -1 1247 -1 411 -1 5359 -1 6924 -1 #SUP: 2
18018 -1 1247 -1 1297 -1 411 -1 1297 -1 #SUP: 2
18018 -1 1247 -1 1297 -1 411 -1 2942 -1 #SUP: 2
18018 -1 1247 -1 1297 -1 411 -1 5359 -1 #SUP: 2
18018 -1 1247 -1 1297 -1 411 -1 6924 -1 #SUP: 2
18018 -1 1247 -1 1297 -1 1297 -1 2942 -1 #SUP: 2
18018 -1 1247 -1 1297 -1 1297 -1 5359 -1 #SUP: 2
18018 -1 1247 -1 1297 -1 1297 -1 6924 -1 #SUP: 2
18018 -1 1247 -1 1297 -1 2942 -1 6924 -1 #SUP: 2
18018 -1 1247 -1 1297 -1 5359 -1 2942 -1 #SUP: 2
18018 -1 1247 -1 1297 -1 5359 -1 6924 -1 #SUP: 2
18018 -1 1247 -1 5359 -1 2942 -1 6924 -1 #SUP: 2
18018 -1 1297 -1 411 -1 1297 -1 2942 -1 #SUP: 2
18018 -1 1297 -1 411 -1 1297 -1 5359 -1 #SUP: 2
18018 -1 1297 -1 411 -1 1297 -1 6924 -1 #SUP: 2
18018 -1 1297 -1 411 -1 2942 -1 6924 -1 #SUP: 2
18018 -1 1297 -1 411 -1 5359 -1 2942 -1 #SUP: 2
18018 -1 1297 -1 411 -1 5359 -1 6924 -1 #SUP: 2
18018 -1 1297 -1 1297 -1 2942 -1 6924 -1 #SUP: 2
18018 -1 1297 -1 1297 -1 5359 -1 2942 -1 #SUP: 2
18018 -1 1297 -1 1297 -1 5359 -1 6924 -1 #SUP: 2
18018 -1 1297 -1 5359 -1 2942 -1 6924 -1 #SUP: 2
29127 -1 18018 -1 495 -1 1143 -1 30 -1 #SUP: 2
1024 -1 29127 -1 18018 -1 495 -1 1143 -1 30 -1 #SUP: 2
1247 -1 411 -1 1297 -1 5359 -1 2942 -1 6924 -1 #SUP: 2
1247 -1 1297 -1 411 -1 1297 -1 2942 -1 6924 -1 #SUP: 2
1247 -1 1297 -1 411 -1 1297 -1 5359 -1 2942 -1 #SUP: 2
1247 -1 1297 -1 411 -1 1297 -1 5359 -1 6924 -1 #SUP: 2
1247 -1 1297 -1 411 -1 5359 -1 2942 -1 6924 -1 #SUP: 2
1247 -1 1297 -1 1297 -1 5359 -1 2942 -1 6924 -1 #SUP: 2
1297 -1 411 -1 1297 -1 5359 -1 2942 -1 6924 -1 #SUP: 2
18018 -1 411 -1 1297 -1 5359 -1 2942 -1 6924 -1 #SUP: 2
18018 -1 1247 -1 411 -1 1297 -1 2942 -1 6924 -1 #SUP: 2
18018 -1 1247 -1 411 -1 1297 -1 5359 -1 2942 -1 #SUP: 2
18018 -1 1247 -1 411 -1 1297 -1 5359 -1 6924 -1 #SUP: 2
18018 -1 1247 -1 411 -1 5359 -1 2942 -1 6924 -1 #SUP: 2
18018 -1 1247 -1 1297 -1 411 -1 1297 -1 2942 -1 #SUP: 2
18018 -1 1247 -1 1297 -1 411 -1 1297 -1 5359 -1 #SUP: 2
18018 -1 1247 -1 1297 -1 411 -1 1297 -1 6924 -1 #SUP: 2
18018 -1 1247 -1 1297 -1 411 -1 2942 -1 6924 -1 #SUP: 2
18018 -1 1247 -1 1297 -1 411 -1 5359 -1 2942 -1 #SUP: 2
18018 -1 1247 -1 1297 -1 411 -1 5359 -1 6924 -1 #SUP: 2
18018 -1 1247 -1 1297 -1 1297 -1 2942 -1 6924 -1 #SUP: 2
18018 -1 1247 -1 1297 -1 1297 -1 5359 -1 2942 -1 #SUP: 2
18018 -1 1247 -1 1297 -1 1297 -1 5359 -1 6924 -1 #SUP: 2
18018 -1 1247 -1 1297 -1 5359 -1 2942 -1 6924 -1 #SUP: 2
18018 -1 1297 -1 411 -1 1297 -1 2942 -1 6924 -1 #SUP: 2
18018 -1 1297 -1 411 -1 1297 -1 5359 -1 2942 -1 #SUP: 2
18018 -1 1297 -1 411 -1 1297 -1 5359 -1 6924 -1 #SUP: 2
18018 -1 1297 -1 411 -1 5359 -1 2942 -1 6924 -1 #SUP: 2
18018 -1 1297 -1 1297 -1 5359 -1 2942 -1 6924 -1 #SUP: 2
1247 -1 1297 -1 411 -1 1297 -1 5359 -1 2942 -1 6924 -1 #SUP: 2
18018 -1 1247 -1 411 -1 1297 -1 5359 -1 2942 -1 6924 -1 #SUP: 2
18018 -1 1247 -1 1297 -1 411 -1 1297 -1 2942 -1 6924 -1 #SUP: 2
18018 -1 1247 -1 1297 -1 411 -1 1297 -1 5359 -1 2942 -1 #SUP: 2
18018 -1 1247 -1 1297 -1 411 -1 1297 -1 5359 -1 6924 -1 #SUP: 2
18018 -1 1247 -1 1297 -1 411 -1 5359 -1 2942 -1 6924 -1 #SUP: 2
18018 -1 1247 -1 1297 -1 1297 -1 5359 -1 2942 -1 6924 -1 #SUP: 2
18018 -1 1297 -1 411 -1 1297 -1 5359 -1 2942 -1 6924 -1 #SUP: 2
18018 -1 1247 -1 1297 -1 411 -1 1297 -1 5359 -1 2942 -1 6924 -1 #SUP: 2
