384 -1 124008 -1 3470 -1 444 -1 54 -1 384 -1 19 -2
676 -1 2285 -1 50 -1 738 -1 1038 -1 19 -2
115 -1 19 -2
235 -1 115 -1 1500 -1 115 -1 4258 -1 750 -1 922 -1 444 -1 19 -2
115 -1 149 -1 235 -1 33968 -1 637 -1 50 -1 417 -1 1831 -1 625 -1 19 -2
50 -1 124009 -1 50 -1 49127 -1 124010 -1 999 -1 1326 -1 50 -1 993 -1 1339 -1 152 -1 2800 -1 990 -1 50 -1 138 -1 42420 -1 19 -2
286 -1 124011 -1 106717 -1 50 -1 35810 -1 50 -1 138 -1 1 -1 50 -1 49117 -1 3729 -1 96313 -1 50 -1 270 -1 1528 -1 1793 -1 1500 -1 682 -1 625 -1 50 -1 124014 -1 2649 -1 50 -1 49127 -1 301 -1 1874 -1 248 -1 27 -1 50 -1 50 -1 79 -1 626 -1 1686 -1 9086 -1 13015 -1 50 -1 1874 -1 580 -1 606 -1 625 -1 718 -1 105 -1 248 -1 124013 -1 50 -1 124015 -1 76958 -1 124012 -1 105 -1 718 -1 557 -1 39962 -1 5750 -1 83 -1 19 -2
444 -1 435 -1 138 -1 132 -1 19 -2
130 -1 1635 -1 5 -1 18 -1 17 -1 124018 -1 124016 -1 5 -1 18 -1 17 -1 124019 -1 73 -1 147 -1 29 -1 50 -1 8282 -1 50 -1 11 -1 3599 -1 2394 -1 124017 -1 557 -1 675 -1 50 -1 483 -1 1 -2
48 -1 49 -1 718 -1 557 -1 50 -1 626 -1 27528 -1 3200 -1 1 -2
118 -1 1107 -1 625 -1 50 -1 668 -1 2000 -1 24928 -1 3037 -1 33 -1 485 -1 1 -2
3844 -1 505 -1 1540 -1 381 -1 25241 -1 1348 -1 11 -1 1 -2
48 -1 2394 -1 1756 -1 540 -1 540 -1 540 -1 540 -1 3808 -1 540 -1 296 -1 233 -1 713 -1 50 -1 50 -1 81913 -1 2338 -1 1320 -1 19 -2
124020 -1 1707 -1 1342 -1 1326 -1 50 -1 3 -1 50 -1 48 -1 1034 -1 50 -1 149 -1 790 -1 235 -1 135 -1 503 -1 50 -1 50 -1 286 -1 33 -1 388 -1 1415 -1 235 -1 1015 -1 149 -1 6204 -1 235 -1 2 -1 1931 -1 50 -1 19 -2
248 -1 50 -1 5847 -1 2431 -1 2266 -1 50 -1 34536 -1 5871 -1 248 -1 962 -1 33 -1 50 -1 105 -1 1738 -1 19 -2
1014 -1 44 -1 50 -1 248 -1 871 -1 138 -1 50 -1 4915 -1 50 -1 640 -1 1831 -1 2767 -1 400 -1 50 -1 255 -1 304 -1 640 -1 288 -1 50 -1 9357 -1 1429 -1 124021 -1 19 -2
3993 -1 640 -1 19 -2
625 -1 235 -1 138 -1 118 -1 49127 -1 255 -1 444 -1 50 -1 115 -1 124024 -1 50 -1 233 -1 124023 -1 50 -1 381 -1 928 -1 50 -1 235 -1 233 -1 50 -1 4258 -1 739 -1 1133 -1 124025 -1 3555 -1 247 -1 105 -1 50 -1 124022 -1 725 -1 50 -1 53214 -1 1943 -1 2232 -1 19 -2
50 -1 235 -1 50 -1 50 -1 381 -1 50 -1 851 -1 4268 -1 124026 -1 54 -1 677 -1 1751 -1 1514 -1 435 -1 50 -1 33137 -1 1 -2
132 -1 124027 -1 149 -1 2431 -1 2703 -1 64 -1 223 -1 50 -1 772 -1 50 -1 1673 -1 50 -1 5871 -1 50 -1 1270 -1 50 -1 5568 -1 50 -1 483 -1 114879 -1 435 -1 557 -1 441 -1 2498 -1 474 -1 557 -1 1252 -1 932 -1 50 -1 14632 -1 19 -2
248 -1 5 -1 18 -1 17 -1 124028 -1 5 -1 18 -1 17 -1 617 -1 39554 -1 124030 -1 50 -1 138 -1 640 -1 50 -1 124029 -1 3135 -1 89969 -1 50 -1 50 -1 551 -1 5142 -1 9 -1 248 -1 1373 -1 130 -1 19 -2
124031 -1 444 -1 388 -1 999 -1 5 -1 18 -1 17 -1 124028 -1 738 -1 483 -1 248 -1 50 -1 19 -2
94 -1 124032 -1 50 -1 439 -1 223 -1 50 -1 34756 -1 484 -1 1144 -1 557 -1 512 -1 1219 -1 5871 -1 19 -2
235 -1 233 -1 76287 -1 929 -1 50 -1 640 -1 50 -1 7044 -1 1874 -1 1663 -1 149 -1 50 -1 233 -1 50 -1 927 -1 1546 -1 1638 -1 50 -1 2743 -1 25455 -1 50 -1 1522 -1 837 -1 50 -1 1874 -1 871 -1 50 -1 235 -1 640 -1 288 -1 132 -1 389 -1 932 -1 50 -1 982 -1 50 -1 932 -1 49127 -1 254 -1 645 -1 50 -1 540 -1 49127 -1 19 -2
254 -1 124033 -1 339 -1 50 -1 254 -1 4309 -1 255 -1 50 -1 254 -1 7972 -1 290 -1 290 -1 290 -1 1136 -1 2383 -1 65 -1 444 -1 444 -1 50 -1 53 -1 4437 -1 149 -1 50 -1 254 -1 19 -2
3518 -1 50 -1 14798 -1 3216 -1 50 -1 3599 -1 1942 -1 2394 -1 50 -1 5033 -1 4042 -1 254 -1 4130 -1 677 -1 138 -1 3156 -1 8762 -1 50 -1 1429 -1 115 -1 19 -2
254 -1 124034 -1 1120 -1 50 -1 49127 -1 1551 -1 50 -1 233 -1 124035 -1 50 -1 2223 -1 3098 -1 50 -1 296 -1 21580 -1 27 -1 50 -1 786 -1 2223 -1 248 -1 50 -1 19 -2
113 -1 1707 -1 49 -1 50 -1 290 -1 6491 -1 2028 -1 50 -1 696 -1 114 -1 2253 -1 49 -1 11 -1 278 -1 3599 -1 50 -1 932 -1 50 -1 444 -1 124036 -1 28926 -1 50 -1 254 -1 8659 -1 3965 -1 50 -1 62448 -1 19 -2
725 -1 600 -1 7107 -1 50 -1 13140 -1 50 -1 1452 -1 9631 -1 1448 -1 118 -1 5297 -1 50 -1 1646 -1 50 -1 1014 -1 50 -1 13054 -1 1579 -1 1 -2
1555 -1 50 -1 138 -1 2905 -1 714 -1 59984 -1 235 -1 713 -1 1850 -1 50 -1 59984 -1 1252 -1 50 -1 381 -1 50 -1 1252 -1 290 -1 50 -1 941 -1 871 -1 132 -1 725 -1 50 -1 254 -1 124038 -1 2785 -1 2526 -1 50 -1 312 -1 6204 -1 235 -1 124037 -1 49127 -1 5974 -1 48 -1 2027 -1 50 -1 497 -2
124039 -1 431 -1 14316 -1 444 -1 114879 -1 278 -1 1421 -1 92768 -1 2964 -1 398 -1 248 -1 38113 -1 19085 -1 50 -1 231 -1 50 -1 2122 -1 1602 -1 138 -1 964 -1 845 -1 844 -1 50 -1 108 -1 19 -2
490 -1 124040 -1 3203 -1 50 -1 675 -1 2396 -1 26766 -1 233 -1 50 -1 48 -1 474 -1 441 -1 9818 -1 1 -2
675 -1 2396 -1 76287 -1 16674 -1 50 -1 6066 -1 19 -2
929 -1 50 -1 290 -1 4342 -1 50 -1 235 -1 138 -1 5385 -1 2854 -1 50 -1 138 -1 1448 -1 50 -1 4122 -1 124041 -1 483 -1 50 -1 149 -1 1348 -1 50 -1 116013 -1 2395 -1 50 -1 48 -1 41279 -1 33 -1 381 -1 1 -2
2925 -1 50 -1 138 -1 1052 -1 157 -1 140 -1 1058 -1 19 -2
6204 -1 235 -1 105 -1 947 -1 423 -1 124042 -1 912 -1 50 -1 553 -1 118941 -1 11 -1 35541 -1 50 -1 278 -1 50 -1 254 -1 3599 -1 360 -1 2394 -1 2396 -1 50 -1 248 -1 231 -1 8989 -1 49 -1 248 -1 124043 -1 1738 -1 3078 -1 19 -2
182 -1 124045 -1 16731 -1 625 -1 50 -1 33 -1 557 -1 1005 -1 50 -1 12425 -1 50 -1 1755 -1 124044 -1 50 -1 94 -1 1005 -1 2439 -1 248 -1 5460 -1 5762 -1 4181 -1 626 -1 50 -1 113 -1 100304 -1 845 -1 50 -1 235 -1 1251 -1 50 -1 94 -1 50376 -1 121 -1 92768 -1 54 -1 564 -1 2150 -1 247 -1 50 -1 248 -1 9544 -1 262 -1 27692 -1 19 -2