3553 -1 19 -2
30 -1 93 -1 112 -1 414 -1 19 -2
95926 -1 4621 -1 208 -1 4474 -1 50 -1 95927 -1 50 -1 779 -1 6893 -1 19 -2
19 -2
42 -1 3537 -1 2703 -1 4157 -1 50 -1 1339 -1 233 -1 2774 -1 19 -2
906 -1 1924 -1 19 -2
505 -1 3352 -1 95928 -1 1 -2
19 -2
42 -1 54 -1 384 -1 1638 -1 757 -1 2687 -1 923 -1 19 -2
879 -1 1061 -1 281 -1 13015 -1 39014 -1 296 -1 15666 -1 2714 -1 50 -1 1819 -1 420 -1 1061 -1 281 -1 50 -1 933 -1 38153 -1 287 -1 1339 -1 50 -1 1368 -1 381 -1 95929 -1 419 -1 2663 -1 281 -1 50 -1 93 -1 2373 -1 1 -2
456 -1 1931 -1 95930 -1 3552 -1 19 -2
95931 -1 3395 -1 289 -1 133 -1 2472 -1 93 -1 1 -2
1987 -1 50 -1 19 -2
139 -1 1659 -1 127 -1 118 -1 29 -1 19 -2
55873 -1 4396 -1 1643 -1 21 -1 50 -1 2439 -1 50 -1 112 -1 559 -1 93 -1 19 -2
138 -1 112 -1 708 -1 10133 -1 3450 -1 19 -2
95932 -1 1 -2
95933 -1 10394 -1 55910 -1 414 -1 10114 -1 1 -2
442 -1 9231 -1 2578 -1 4216 -1 10065 -1 5451 -1 38904 -1 2466 -1 95935 -1 12181 -1 9939 -1 62213 -1 12182 -1 95934 -1 2576 -1 42 -1 132 -1 816 -1 94 -1 5823 -1 296 -1 248 -1 3613 -1 317 -1 1718 -1 19 -2
95936 -1 3458 -1 735 -1 95939 -1 112 -1 50 -1 95941 -1 112 -1 167 -1 50 -1 95943 -1 112 -1 218 -1 50 -1 65917 -1 112 -1 422 -1 50 -1 95937 -1 112 -1 657 -1 50 -1 58122 -1 112 -1 580 -1 50 -1 95940 -1 112 -1 419 -1 50 -1 95938 -1 112 -1 420 -1 50 -1 95942 -1 112 -1 879 -1 19 -1 55873 -1 50 -1 58122 -1 6202 -1 420 -1 645 -1 112 -1 85 -1 112 -1 879 -1 1099 -1 506 -1 420 -1 112 -1 19 -2
36 -1 19 -2
708 -1 233 -1 95944 -1 5151 -1 3207 -1 5381 -1 1058 -1 8919 -1 18342 -1 1879 -1 18342 -1 3796 -1 50 -1 301 -1 58122 -1 6062 -1 459 -1 95942 -1 50 -1 16674 -1 8018 -1 50 -1 19 -2
2816 -1 50 -1 132 -1 680 -1 9589 -1 175 -1 422 -1 709 -1 248 -1 50 -1 138 -1 19804 -1 4791 -1 50 -1 4791 -1 667 -1 871 -1 10944 -1 112 -1 637 -1 95945 -1 95951 -1 775 -1 11078 -1 95949 -1 417 -1 95952 -1 4111 -1 95948 -1 717 -1 95947 -1 4514 -1 95950 -1 1316 -1 95946 -1 429 -1 19 -2
15192 -1 571 -1 1349 -1 2337 -1 851 -1 13299 -1 4242 -1 1672 -1 504 -1 4129 -1 932 -1 551 -1 9 -1 1242 -1 423 -1 1278 -1 1452 -1 19 -2
934 -1 708 -1 1481 -1 93 -1 50 -1 1483 -1 2197 -1 458 -1 50 -1 335 -1 2197 -1 3 -1 50 -1 1646 -1 1483 -1 1480 -1 484 -1 4844 -1 93 -1 3 -1 151 -1 19 -2
1452 -1 19 -2
54 -1 112 -1 879 -1 95953 -1 19 -2
2660 -1 668 -1 1465 -1 50 -1 95954 -1 4474 -1 1478 -1 10393 -1 8570 -1 1 -1 50 -1 24257 -1 13077 -1 7 -1 50 -1 4621 -1 3 -1 1 -2
2466 -1 50 -1 15729 -1 2385 -1 1 -2
10114 -1 12181 -1 50 -1 19 -2
40906 -1 50 -1 339 -1 551 -1 19 -2
263 -1 501 -1 2257 -1 640 -1 2414 -1 19694 -1 366 -1 15170 -1 4091 -1 368 -1 2601 -1 4091 -1 19 -2
262 -1 337 -1 1120 -1 289 -1 281 -1 262 -1 2805 -1 19 -2
2905 -1 1906 -1 33 -1 31 -1 135 -1 50 -1 1135 -1 50 -1 33 -1 50 -1 138 -1 67 -1 112 -1 179 -1 50 -1 19 -2
19 -2
3553 -1 853 -1 19 -2
3849 -1 149 -1 961 -1 961 -1 50 -1 1553 -1 50 -1 3 -1 48 -1 2905 -1 112 -1 2905 -1 1553 -1 857 -1 19 -2
15825 -1 5171 -1 42 -1 16321 -1 10662 -1 738 -1 470 -1 105 -1 296 -1 19 -2
470 -1 233 -1 8684 -1 10381 -1 50 -1 11748 -1 603 -1 19 -2
95955 -1 4178 -1 3766 -1 6815 -1 2498 -1 219 -1 3374 -1 9729 -1 50 -1 5754 -1 50 -1 1366 -1 1249 -1 50 -1 47986 -1 329 -1 50 -1 1803 -1 7304 -1 10994 -1 2208 -1 13313 -1 30127 -1 208 -1 195 -1 995 -1 19 -2
465 -1 50 -1 929 -1 42 -1 19 -2
1960 -1 2639 -1 11748 -1 8684 -1 603 -1 868 -1 630 -1 19 -2
1761 -1 50490 -1 50 -1 667 -1 3392 -1 667 -1 21 -1 19 -2
95957 -1 95956 -1 50 -1 103 -1 382 -1 288 -1 645 -1 2173 -1 19 -2
360 -1 2811 -1 19 -2
5392 -1 112 -1 50 -1 13190 -1 79956 -1 112 -1 50 -1 38314 -1 5830 -1 7401 -1 18332 -1 112 -1 50 -1 2431 -1 389 -1 38314 -1 112 -1 50 -1 6300 -1 2431 -1 389 -1 112 -1 50 -1 38314 -1 112 -1 50 -1 8709 -1 2029 -1 112 -1 19 -2
923 -1 551 -1 993 -1 95958 -1 42239 -1 2639 -1 1129 -1 819 -1 3149 -1 50 -1 254 -1 1728 -1 551 -1 2173 -1 270 -1 388 -1 138 -1 19 -2
2816 -1 50 -1 138 -1 112 -1 1237 -1 2381 -1 482 -1 3293 -1 853 -1 2171 -1 570 -1 1251 -1 95960 -1 1447 -1 39654 -1 93 -1 2472 -1 65573 -1 93 -1 12181 -1 93 -1 95959 -1 3249 -1 474 -1 19 -2
1452 -1 495 -1 47938 -1 19 -2
738 -1 6896 -1 486 -1 2811 -1 19 -2
115 -1 233 -1 630 -1 19 -2
95961 -1 1555 -1 161 -1 663 -1 50 -1 19 -2
3458 -1 1939 -1 343 -1 1 -2
2576 -1 556 -1 50 -1 1807 -1 13112 -1 970 -1 970 -1 93 -1 1 -2
3304 -1 3458 -1 1368 -1 180 -1 19 -2
166 -1 19 -1 380 -1 9 -1 1 -2
384 -1 1 -2
254 -1 380 -1 1706 -1 27 -1 118 -1 248 -1 50 -1 380 -1 1706 -1 444 -1 47 -1 296 -1 4124 -1 19 -2
603 -1 19 -2
47937 -1 50 -1 286 -1 1180 -1 2422 -1 296 -1 3023 -1 2217 -1 2422 -1 19 -2
718 -1 1019 -1 75183 -1 95962 -1 19 -2
472 -1 1717 -1 248 -1 19 -2
310 -1 270 -1 677 -1 697 -1 2173 -1 248 -1 112 -1 1 -2
248 -1 2422 -1 5814 -1 1034 -1 195 -1 180 -1 280 -1 19 -2
159 -1 2173 -1 50 -1 3579 -1 19 -2
750 -1 31 -1 19 -2
4396 -1 422 -1 30 -1 95963 -1 1 -2
166 -1 19 -1 657 -1 1051 -1 2584 -1 50 -1 2421 -1 3015 -1 1 -2
9630 -1 6252 -1 26122 -1 1005 -1 3338 -1 132 -1 1485 -1 599 -1 1485 -1 1920 -1 1485 -1 150 -1 19 -2
2649 -1 2687 -1 95964 -1 4315 -1 1 -2
258 -1 17495 -1 557 -1 5859 -1 3572 -1 166 -1 19 -1 1427 -1 1771 -1 3135 -1 4307 -1 2253 -1 1 -1 19 -2
683 -1 301 -1 95966 -1 4053 -1 95965 -1 246 -1 727 -1 95969 -1 3618 -1 8549 -1 95968 -1 16222 -1 50 -1 2 -1 95967 -1 49 -1 50 -1 4053 -1 918 -1 1557 -1 95970 -1 19 -2
3553 -1 1339 -1 50 -1 138 -1 233 -1 50 -1 588 -1 50 -1 1677 -1 920 -1 482 -1 13456 -1 30 -1 1096 -1 3103 -1 112 -1 19 -2
19 -2
31 -1 233 -1 166 -1 30 -1 4853 -1 19 -2
4432 -1 1014 -1 2788 -1 1555 -1 138 -1 94 -1 927 -1 167 -1 879 -1 19 -1 254 -1 42 -1 138 -1 19 -2
708 -1 19 -2
1713 -1 718 -1 248 -1 998 -1 521 -1 19 -2
138 -1 4967 -1 369 -1 296 -1 927 -1 1352 -1 3235 -1 2879 -1 48 -1 1096 -1 112 -1 19 -2
626 -1 50 -1 1452 -1 166 -1 19 -1 3127 -1 19 -2
138 -1 247 -1 19 -2
290 -1 486 -1 54600 -1 50 -1 2899 -1 95971 -1 50 -1 1218 -1 1961 -1 10173 -1 16234 -1 667 -1 637 -1 1019 -1 4803 -1 1133 -1 1 -2
2525 -1 871 -1 3553 -1 2713 -1 19 -2
2 -1 31 -1 2017 -1 4869 -1 1997 -1 24916 -1 31 -1 175 -1 302 -1 2352 -1 382 -1 19 -2
42 -1 637 -1 417 -1 3483 -1 19 -2
339 -1 10393 -1 964 -1 218 -1 1416 -1 19 -2
777 -1 94 -1 50 -1 603 -1 270 -1 138 -1 1697 -1 1931 -1 3817 -1 422 -1 27566 -1 465 -1 19 -2
1452 -1 2576 -1 928 -1 149 -1 1173 -1 580 -1 19 -1 138 -1 1659 -1 3384 -1 27146 -1 18555 -1 1398 -1 435 -1 3384 -1 50 -1 5335 -1 14040 -1 15333 -1 1907 -1 218 -1 5862 -1 3089 -1 95972 -1 21680 -1 19 -2
603 -1 4967 -1 10133 -1 296 -1 2351 -1 19 -2
1339 -1 2816 -1 1409 -1 2713 -1 50 -1 263 -1 4319 -1 3458 -1 337 -1 112 -1 422 -1 50 -1 666 -1 2187 -1 19 -2
5716 -1 50 -1 422 -1 2905 -1 1031 -1 19 -2
465 -1 603 -1 19 -2
138 -1 1538 -1 19 -2
3241 -1 125 -1 5871 -1 486 -1 2811 -1 4844 -1 1659 -1 19 -2
35256 -1 50 -1 879 -1 50 -1 2283 -1 19 -2