7 -1 #SUP: 16
9 -1 #SUP: 2
30 -1 #SUP: 6
31 -1 #SUP: 7
33 -1 #SUP: 4
48 -1 #SUP: 17
49 -1 #SUP: 2
50 -1 #SUP: 56
51 -1 #SUP: 3
54 -1 #SUP: 3
89 -1 #SUP: 9
94 -1 #SUP: 4
104 -1 #SUP: 2
107 -1 #SUP: 5
112 -1 #SUP: 15
113 -1 #SUP: 3
115 -1 #SUP: 6
118 -1 #SUP: 3
138 -1 #SUP: 13
149 -1 #SUP: 8
151 -1 #SUP: 2
157 -1 #SUP: 2
161 -1 #SUP: 3
233 -1 #SUP: 7
247 -1 #SUP: 3
248 -1 #SUP: 5
254 -1 #SUP: 6
296 -1 #SUP: 4
304 -1 #SUP: 4
337 -1 #SUP: 4
339 -1 #SUP: 2
340 -1 #SUP: 2
366 -1 #SUP: 3
374 -1 #SUP: 2
377 -1 #SUP: 6
382 -1 #SUP: 3
389 -1 #SUP: 3
405 -1 #SUP: 5
428 -1 #SUP: 3
453 -1 #SUP: 4
470 -1 #SUP: 4
471 -1 #SUP: 3
478 -1 #SUP: 3
483 -1 #SUP: 2
484 -1 #SUP: 2
495 -1 #SUP: 4
508 -1 #SUP: 2
516 -1 #SUP: 2
551 -1 #SUP: 2
645 -1 #SUP: 3
658 -1 #SUP: 2
678 -1 #SUP: 2
681 -1 #SUP: 2
682 -1 #SUP: 2
708 -1 #SUP: 2
717 -1 #SUP: 2
777 -1 #SUP: 2
786 -1 #SUP: 2
810 -1 #SUP: 2
812 -1 #SUP: 4
816 -1 #SUP: 3
873 -1 #SUP: 4
891 -1 #SUP: 2
893 -1 #SUP: 4
906 -1 #SUP: 3
918 -1 #SUP: 2
927 -1 #SUP: 3
928 -1 #SUP: 2
931 -1 #SUP: 4
942 -1 #SUP: 2
966 -1 #SUP: 8
999 -1 #SUP: 2
1007 -1 #SUP: 2
1024 -1 #SUP: 3
1037 -1 #SUP: 3
1044 -1 #SUP: 5
1102 -1 #SUP: 2
1106 -1 #SUP: 2
1194 -1 #SUP: 2
1268 -1 #SUP: 2
1316 -1 #SUP: 2
1336 -1 #SUP: 2
1373 -1 #SUP: 2
1410 -1 #SUP: 2
1433 -1 #SUP: 2
1443 -1 #SUP: 4
1573 -1 #SUP: 2
1579 -1 #SUP: 2
2227 -1 #SUP: 2
2410 -1 #SUP: 2
2685 -1 #SUP: 2
2713 -1 #SUP: 2
2775 -1 #SUP: 2
3510 -1 #SUP: 2
4015 -1 #SUP: 3
4731 -1 #SUP: 2
5986 -1 #SUP: 2
6062 -1 #SUP: 2
7451 -1 #SUP: 2
9885 -1 #SUP: 2
7 -1 48 -1 #SUP: 3
7 -1 50 -1 #SUP: 3
7 -1 254 -1 #SUP: 2
30 -1 7 -1 #SUP: 2
30 -1 48 -1 #SUP: 2
30 -1 112 -1 #SUP: 2
31 -1 50 -1 #SUP: 2
31 -1 112 -1 #SUP: 2
48 -1 50 -1 #SUP: 4
48 -1 112 -1 #SUP: 4
48 -1 248 -1 #SUP: 2
48 -1 382 -1 #SUP: 2
48 -1 777 -1 #SUP: 2
48 -1 1037 -1 #SUP: 2
50 -1 7 -1 #SUP: 3
50 -1 48 -1 #SUP: 6
50 -1 50 -1 #SUP: 7
50 -1 89 -1 #SUP: 2
50 -1 94 -1 #SUP: 2
50 -1 112 -1 #SUP: 7
50 -1 138 -1 #SUP: 2
50 -1 149 -1 #SUP: 2
50 -1 233 -1 #SUP: 2
50 -1 247 -1 #SUP: 2
50 -1 254 -1 #SUP: 2
50 -1 296 -1 #SUP: 3
50 -1 377 -1 #SUP: 2
50 -1 453 -1 #SUP: 2
50 -1 470 -1 #SUP: 2
50 -1 508 -1 #SUP: 2
50 -1 645 -1 #SUP: 2
50 -1 708 -1 #SUP: 2
50 -1 873 -1 #SUP: 2
50 -1 918 -1 #SUP: 2
50 -1 966 -1 #SUP: 3
50 -1 999 -1 #SUP: 2
50 -1 1024 -1 #SUP: 2
50 -1 1037 -1 #SUP: 2
50 -1 6062 -1 #SUP: 2
89 -1 50 -1 #SUP: 2
89 -1 149 -1 #SUP: 3
89 -1 233 -1 #SUP: 2
104 -1 107 -1 #SUP: 2
112 -1 7 -1 #SUP: 2
112 -1 48 -1 #SUP: 2
112 -1 50 -1 #SUP: 3
112 -1 94 -1 #SUP: 2
115 -1 233 -1 #SUP: 2
118 -1 50 -1 #SUP: 2
138 -1 30 -1 #SUP: 2
138 -1 48 -1 #SUP: 3
138 -1 50 -1 #SUP: 5
138 -1 112 -1 #SUP: 3
157 -1 50 -1 #SUP: 2
161 -1 112 -1 #SUP: 2
233 -1 50 -1 #SUP: 3
248 -1 50 -1 #SUP: 2
248 -1 382 -1 #SUP: 2
254 -1 50 -1 #SUP: 2
337 -1 5986 -1 #SUP: 2
377 -1 50 -1 #SUP: 2
377 -1 405 -1 #SUP: 2
377 -1 893 -1 #SUP: 2
377 -1 931 -1 #SUP: 3
428 -1 107 -1 #SUP: 2
471 -1 50 -1 #SUP: 2
471 -1 51 -1 #SUP: 2
471 -1 296 -1 #SUP: 2
717 -1 50 -1 #SUP: 2
812 -1 50 -1 #SUP: 2
873 -1 50 -1 #SUP: 2
891 -1 340 -1 #SUP: 2
893 -1 405 -1 #SUP: 3
906 -1 30 -1 #SUP: 2
927 -1 50 -1 #SUP: 2
928 -1 254 -1 #SUP: 2
931 -1 405 -1 #SUP: 2
931 -1 893 -1 #SUP: 2
966 -1 50 -1 #SUP: 3
1024 -1 50 -1 #SUP: 2
1044 -1 50 -1 #SUP: 2
1044 -1 966 -1 #SUP: 2
1044 -1 2713 -1 #SUP: 2
1194 -1 7 -1 #SUP: 2
2227 -1 107 -1 #SUP: 2
2713 -1 50 -1 #SUP: 2
3510 -1 927 -1 #SUP: 2
4015 -1 112 -1 #SUP: 2
7451 -1 478 -1 #SUP: 2
30 -1 48 -1 112 -1 #SUP: 2
48 -1 248 -1 382 -1 #SUP: 2
50 -1 48 -1 112 -1 #SUP: 2
50 -1 50 -1 50 -1 #SUP: 4
50 -1 50 -1 138 -1 #SUP: 2
50 -1 50 -1 1024 -1 #SUP: 2
50 -1 1024 -1 50 -1 #SUP: 2
138 -1 30 -1 48 -1 #SUP: 2
138 -1 30 -1 112 -1 #SUP: 2
138 -1 48 -1 112 -1 #SUP: 2
138 -1 112 -1 50 -1 #SUP: 2
233 -1 50 -1 50 -1 #SUP: 2
377 -1 893 -1 405 -1 #SUP: 2
377 -1 931 -1 405 -1 #SUP: 2
377 -1 931 -1 893 -1 #SUP: 2
931 -1 893 -1 405 -1 #SUP: 2
1024 -1 50 -1 50 -1 #SUP: 2
50 -1 50 -1 1024 -1 50 -1 #SUP: 2
138 -1 30 -1 48 -1 112 -1 #SUP: 2
377 -1 931 -1 893 -1 405 -1 #SUP: 2
