7 -1 #SUP: 3
11 -1 #SUP: 5
19 -1 #SUP: 4
20 -1 #SUP: 3
29 -1 #SUP: 7
31 -1 #SUP: 5
33 -1 #SUP: 9
38 -1 #SUP: 2
44 -1 #SUP: 2
48 -1 #SUP: 17
49 -1 #SUP: 4
50 -1 #SUP: 78
51 -1 #SUP: 2
79 -1 #SUP: 3
89 -1 #SUP: 12
94 -1 #SUP: 3
105 -1 #SUP: 4
110 -1 #SUP: 2
112 -1 #SUP: 8
113 -1 #SUP: 2
114 -1 #SUP: 5
115 -1 #SUP: 5
137 -1 #SUP: 3
138 -1 #SUP: 14
142 -1 #SUP: 3
149 -1 #SUP: 6
167 -1 #SUP: 3
175 -1 #SUP: 11
202 -1 #SUP: 3
210 -1 #SUP: 2
233 -1 #SUP: 11
248 -1 #SUP: 3
254 -1 #SUP: 13
296 -1 #SUP: 4
302 -1 #SUP: 2
304 -1 #SUP: 6
312 -1 #SUP: 3
341 -1 #SUP: 3
377 -1 #SUP: 2
382 -1 #SUP: 4
384 -1 #SUP: 7
388 -1 #SUP: 5
421 -1 #SUP: 3
422 -1 #SUP: 2
425 -1 #SUP: 2
428 -1 #SUP: 3
439 -1 #SUP: 2
470 -1 #SUP: 2
471 -1 #SUP: 3
477 -1 #SUP: 5
478 -1 #SUP: 2
483 -1 #SUP: 2
486 -1 #SUP: 2
521 -1 #SUP: 2
557 -1 #SUP: 2
559 -1 #SUP: 2
603 -1 #SUP: 2
627 -1 #SUP: 2
637 -1 #SUP: 3
640 -1 #SUP: 4
667 -1 #SUP: 8
680 -1 #SUP: 2
681 -1 #SUP: 2
710 -1 #SUP: 3
714 -1 #SUP: 2
747 -1 #SUP: 2
752 -1 #SUP: 3
777 -1 #SUP: 5
786 -1 #SUP: 2
816 -1 #SUP: 2
836 -1 #SUP: 2
864 -1 #SUP: 2
899 -1 #SUP: 2
906 -1 #SUP: 3
918 -1 #SUP: 5
928 -1 #SUP: 9
930 -1 #SUP: 2
933 -1 #SUP: 3
946 -1 #SUP: 2
949 -1 #SUP: 4
966 -1 #SUP: 2
975 -1 #SUP: 2
1014 -1 #SUP: 2
1024 -1 #SUP: 4
1099 -1 #SUP: 3
1106 -1 #SUP: 2
1107 -1 #SUP: 3
1145 -1 #SUP: 2
1221 -1 #SUP: 2
1251 -1 #SUP: 3
1268 -1 #SUP: 2
1368 -1 #SUP: 2
1427 -1 #SUP: 2
1433 -1 #SUP: 2
1478 -1 #SUP: 2
1854 -1 #SUP: 2
2092 -1 #SUP: 2
2137 -1 #SUP: 2
2421 -1 #SUP: 2
2687 -1 #SUP: 2
2688 -1 #SUP: 2
2920 -1 #SUP: 2
2951 -1 #SUP: 2
3271 -1 #SUP: 2
3597 -1 #SUP: 2
4598 -1 #SUP: 2
7665 -1 #SUP: 3
13350 -1 #SUP: 2
23060 -1 #SUP: 2
75054 -1 #SUP: 3
101947 -1 #SUP: 2
11 -1 79 -1 #SUP: 2
29 -1 19 -1 #SUP: 2
29 -1 50 -1 #SUP: 4
29 -1 233 -1 #SUP: 2
31 -1 384 -1 #SUP: 2
33 -1 50 -1 #SUP: 5
48 -1 29 -1 #SUP: 3
48 -1 50 -1 #SUP: 5
48 -1 248 -1 #SUP: 2
48 -1 384 -1 #SUP: 3
48 -1 1251 -1 #SUP: 2
49 -1 50 -1 #SUP: 3
50 -1 7 -1 #SUP: 2
50 -1 11 -1 #SUP: 2
50 -1 19 -1 #SUP: 2
50 -1 29 -1 #SUP: 3
50 -1 33 -1 #SUP: 3
50 -1 48 -1 #SUP: 4
50 -1 50 -1 #SUP: 18
50 -1 89 -1 #SUP: 4
50 -1 105 -1 #SUP: 4
50 -1 112 -1 #SUP: 2
50 -1 115 -1 #SUP: 3
50 -1 138 -1 #SUP: 2
50 -1 142 -1 #SUP: 2
50 -1 149 -1 #SUP: 3
50 -1 233 -1 #SUP: 3
50 -1 254 -1 #SUP: 6
50 -1 296 -1 #SUP: 2
50 -1 304 -1 #SUP: 3
50 -1 384 -1 #SUP: 4
50 -1 388 -1 #SUP: 2
50 -1 421 -1 #SUP: 2
50 -1 477 -1 #SUP: 3
50 -1 667 -1 #SUP: 3
50 -1 714 -1 #SUP: 2
50 -1 752 -1 #SUP: 3
50 -1 918 -1 #SUP: 3
50 -1 949 -1 #SUP: 2
50 -1 1014 -1 #SUP: 2
50 -1 1024 -1 #SUP: 2
50 -1 1099 -1 #SUP: 2
50 -1 1368 -1 #SUP: 2
50 -1 1427 -1 #SUP: 2
50 -1 1478 -1 #SUP: 2
50 -1 2092 -1 #SUP: 2
50 -1 2137 -1 #SUP: 2
89 -1 50 -1 #SUP: 4
89 -1 233 -1 #SUP: 5
89 -1 312 -1 #SUP: 2
89 -1 421 -1 #SUP: 2
89 -1 425 -1 #SUP: 2
110 -1 33 -1 #SUP: 2
112 -1 50 -1 #SUP: 4
112 -1 167 -1 #SUP: 3
112 -1 384 -1 #SUP: 2
114 -1 50 -1 #SUP: 2
115 -1 50 -1 #SUP: 2
115 -1 149 -1 #SUP: 2
115 -1 777 -1 #SUP: 2
137 -1 50 -1 #SUP: 2
137 -1 13350 -1 #SUP: 2
138 -1 48 -1 #SUP: 2
138 -1 50 -1 #SUP: 5
138 -1 89 -1 #SUP: 3
138 -1 233 -1 #SUP: 2
138 -1 1107 -1 #SUP: 2
142 -1 50 -1 #SUP: 2
149 -1 50 -1 #SUP: 2
175 -1 50 -1 #SUP: 4
210 -1 50 -1 #SUP: 2
233 -1 50 -1 #SUP: 6
233 -1 105 -1 #SUP: 3
233 -1 112 -1 #SUP: 2
233 -1 1427 -1 #SUP: 2
248 -1 50 -1 #SUP: 2
248 -1 384 -1 #SUP: 2
254 -1 31 -1 #SUP: 2
254 -1 33 -1 #SUP: 2
254 -1 50 -1 #SUP: 7
254 -1 105 -1 #SUP: 2
254 -1 112 -1 #SUP: 2
254 -1 296 -1 #SUP: 2
254 -1 384 -1 #SUP: 2
254 -1 906 -1 #SUP: 2
296 -1 50 -1 #SUP: 2
382 -1 341 -1 #SUP: 2
384 -1 50 -1 #SUP: 2
388 -1 710 -1 #SUP: 2
388 -1 928 -1 #SUP: 3
422 -1 50 -1 #SUP: 2
439 -1 50 -1 #SUP: 2
477 -1 33 -1 #SUP: 2
477 -1 50 -1 #SUP: 3
477 -1 477 -1 #SUP: 2
478 -1 50 -1 #SUP: 2
478 -1 233 -1 #SUP: 2
637 -1 79 -1 #SUP: 2
640 -1 50 -1 #SUP: 2
667 -1 50 -1 #SUP: 2
667 -1 175 -1 #SUP: 4
680 -1 50 -1 #SUP: 2
680 -1 175 -1 #SUP: 2
777 -1 50 -1 #SUP: 3
906 -1 1433 -1 #SUP: 2
928 -1 50 -1 #SUP: 2
928 -1 710 -1 #SUP: 2
928 -1 864 -1 #SUP: 2
949 -1 50 -1 #SUP: 3
966 -1 50 -1 #SUP: 2
1024 -1 175 -1 #SUP: 2
1145 -1 50 -1 #SUP: 2
1478 -1 29 -1 #SUP: 2
2421 -1 50 -1 #SUP: 2
4598 -1 79 -1 #SUP: 2
4598 -1 637 -1 #SUP: 2
23060 -1 50 -1 #SUP: 2
29 -1 50 -1 233 -1 #SUP: 2
33 -1 50 -1 50 -1 #SUP: 2
48 -1 29 -1 50 -1 #SUP: 2
49 -1 50 -1 50 -1 #SUP: 2
50 -1 50 -1 33 -1 #SUP: 2
50 -1 50 -1 50 -1 #SUP: 2
50 -1 50 -1 89 -1 #SUP: 2
50 -1 50 -1 105 -1 #SUP: 2
50 -1 50 -1 388 -1 #SUP: 2
50 -1 50 -1 667 -1 #SUP: 2
50 -1 89 -1 233 -1 #SUP: 2
50 -1 254 -1 33 -1 #SUP: 2
50 -1 254 -1 50 -1 #SUP: 2
50 -1 254 -1 296 -1 #SUP: 2
50 -1 477 -1 50 -1 #SUP: 2
50 -1 477 -1 477 -1 #SUP: 2
89 -1 233 -1 50 -1 #SUP: 2
112 -1 50 -1 384 -1 #SUP: 2
114 -1 50 -1 50 -1 #SUP: 2
138 -1 50 -1 89 -1 #SUP: 2
138 -1 89 -1 233 -1 #SUP: 2
233 -1 50 -1 105 -1 #SUP: 2
254 -1 50 -1 33 -1 #SUP: 2
254 -1 50 -1 105 -1 #SUP: 2
254 -1 112 -1 50 -1 #SUP: 2
388 -1 928 -1 710 -1 #SUP: 2
439 -1 50 -1 50 -1 #SUP: 2
477 -1 50 -1 33 -1 #SUP: 2
478 -1 233 -1 50 -1 #SUP: 2
680 -1 175 -1 50 -1 #SUP: 2
949 -1 50 -1 50 -1 #SUP: 2
4598 -1 637 -1 79 -1 #SUP: 2
50 -1 254 -1 50 -1 33 -1 #SUP: 2
