3 -1 #SUP: 3
6 -1 #SUP: 2
7 -1 #SUP: 2
9 -1 #SUP: 2
11 -1 #SUP: 4
17 -1 #SUP: 2
18 -1 #SUP: 2
19 -1 #SUP: 9
29 -1 #SUP: 4
30 -1 #SUP: 2
48 -1 #SUP: 11
49 -1 #SUP: 7
50 -1 #SUP: 30
89 -1 #SUP: 8
114 -1 #SUP: 5
115 -1 #SUP: 2
132 -1 #SUP: 3
138 -1 #SUP: 3
142 -1 #SUP: 4
148 -1 #SUP: 2
149 -1 #SUP: 4
155 -1 #SUP: 2
166 -1 #SUP: 2
167 -1 #SUP: 3
178 -1 #SUP: 4
203 -1 #SUP: 2
218 -1 #SUP: 3
233 -1 #SUP: 5
235 -1 #SUP: 2
248 -1 #SUP: 8
254 -1 #SUP: 16
263 -1 #SUP: 2
266 -1 #SUP: 2
274 -1 #SUP: 3
278 -1 #SUP: 4
279 -1 #SUP: 3
296 -1 #SUP: 3
304 -1 #SUP: 2
346 -1 #SUP: 3
387 -1 #SUP: 6
389 -1 #SUP: 2
422 -1 #SUP: 2
425 -1 #SUP: 2
439 -1 #SUP: 2
444 -1 #SUP: 3
449 -1 #SUP: 2
465 -1 #SUP: 2
540 -1 #SUP: 2
543 -1 #SUP: 2
551 -1 #SUP: 2
561 -1 #SUP: 2
568 -1 #SUP: 2
573 -1 #SUP: 2
606 -1 #SUP: 2
625 -1 #SUP: 2
637 -1 #SUP: 6
640 -1 #SUP: 5
645 -1 #SUP: 2
668 -1 #SUP: 3
709 -1 #SUP: 2
816 -1 #SUP: 2
906 -1 #SUP: 5
926 -1 #SUP: 3
928 -1 #SUP: 2
929 -1 #SUP: 2
949 -1 #SUP: 2
999 -1 #SUP: 2
1019 -1 #SUP: 4
1024 -1 #SUP: 2
1079 -1 #SUP: 2
1092 -1 #SUP: 2
1129 -1 #SUP: 2
1232 -1 #SUP: 2
1452 -1 #SUP: 2
1480 -1 #SUP: 2
1771 -1 #SUP: 2
1785 -1 #SUP: 2
1828 -1 #SUP: 3
1960 -1 #SUP: 3
2108 -1 #SUP: 2
2122 -1 #SUP: 2
2169 -1 #SUP: 2
2224 -1 #SUP: 3
2346 -1 #SUP: 5
2854 -1 #SUP: 3
3216 -1 #SUP: 2
3990 -1 #SUP: 2
4435 -1 #SUP: 3
10573 -1 #SUP: 2
15173 -1 #SUP: 2
17420 -1 #SUP: 2
3 -1 48 -1 #SUP: 2
6 -1 17 -1 #SUP: 2
6 -1 18 -1 #SUP: 2
18 -1 17 -1 #SUP: 2
19 -1 50 -1 #SUP: 4
19 -1 178 -1 #SUP: 2
19 -1 254 -1 #SUP: 2
19 -1 2224 -1 #SUP: 2
29 -1 2346 -1 #SUP: 2
48 -1 816 -1 #SUP: 2
49 -1 48 -1 #SUP: 2
49 -1 254 -1 #SUP: 2
50 -1 29 -1 #SUP: 2
50 -1 48 -1 #SUP: 2
50 -1 50 -1 #SUP: 3
50 -1 89 -1 #SUP: 2
50 -1 248 -1 #SUP: 3
50 -1 254 -1 #SUP: 2
50 -1 640 -1 #SUP: 2
50 -1 906 -1 #SUP: 2
50 -1 1024 -1 #SUP: 2
50 -1 1960 -1 #SUP: 2
50 -1 2224 -1 #SUP: 2
89 -1 346 -1 #SUP: 2
89 -1 637 -1 #SUP: 3
166 -1 19 -1 #SUP: 2
167 -1 19 -1 #SUP: 2
218 -1 19 -1 #SUP: 3
233 -1 637 -1 #SUP: 2
248 -1 50 -1 #SUP: 2
254 -1 50 -1 #SUP: 4
254 -1 142 -1 #SUP: 2
254 -1 346 -1 #SUP: 2
254 -1 640 -1 #SUP: 3
254 -1 906 -1 #SUP: 3
274 -1 274 -1 #SUP: 2
278 -1 543 -1 #SUP: 2
346 -1 48 -1 #SUP: 2
422 -1 19 -1 #SUP: 2
640 -1 296 -1 #SUP: 2
929 -1 50 -1 #SUP: 2
1019 -1 278 -1 #SUP: 2
1079 -1 3990 -1 #SUP: 2
2122 -1 1092 -1 #SUP: 2
2224 -1 50 -1 #SUP: 2
2224 -1 2224 -1 #SUP: 2
2854 -1 949 -1 #SUP: 2
6 -1 18 -1 17 -1 #SUP: 2
19 -1 50 -1 2224 -1 #SUP: 2
19 -1 2224 -1 50 -1 #SUP: 2
19 -1 2224 -1 2224 -1 #SUP: 2
2224 -1 50 -1 2224 -1 #SUP: 2
19 -1 2224 -1 50 -1 2224 -1 #SUP: 2
