2215 -1 906 -1 6341 -1 30 -1 19 -2
740 -1 149 -1 1348 -1 3817 -1 495 -1 19 -2
708 -1 7364 -1 1 -2
279 -1 175 -1 465 -1 5606 -1 50 -1 410 -1 7 -1 503 -1 19 -2
5246 -1 458 -1 2257 -1 19 -2
286 -1 519 -1 2257 -1 640 -1 248 -1 377 -1 19 -2
104444 -1 888 -1 50 -1 929 -1 19 -2
104445 -1 112 -1 19 -2
112 -1 21167 -1 21166 -1 1 -2
667 -1 495 -1 202 -1 89 -1 1581 -1 19 -2
3728 -1 376 -1 1716 -1 627 -1 2352 -1 104446 -1 1474 -1 105 -1 1550 -1 1268 -1 19 -2
1474 -1 1415 -1 50 -1 1916 -1 559 -1 19 -2
138 -1 296 -1 278 -1 120 -1 43371 -1 2115 -1 371 -1 19 -2
444 -1 105 -1 279 -1 1090 -1 304 -1 16102 -1 50 -1 1090 -1 296 -1 640 -1 2608 -1 19 -2
196 -1 495 -1 414 -1 970 -1 19 -2
2808 -1 414 -1 190 -2
519 -1 495 -1 113 -1 376 -1 19 -2
382 -1 1279 -1 1 -2
405 -1 376 -1 1 -2
1247 -1 31003 -1 19 -2
929 -1 50 -1 48 -1 91 -1 30 -1 48 -1 374 -1 19 -2
2775 -1 48 -1 377 -1 372 -1 632 -1 50 -1 94 -1 374 -1 5662 -1 7770 -1 190 -2
2090 -1 142 -1 48 -1 3 -1 19 -2
138 -1 3656 -1 2173 -1 3 -1 8130 -1 931 -1 1 -2
5134 -1 371 -1 2319 -1 19 -2
138 -1 2128 -1 11 -1 8058 -1 29317 -1 2385 -1 906 -1 50 -1 19 -2
19 -2
138 -1 48 -1 495 -1 50 -1 190 -2
4521 -1 50 -1 30 -1 233 -1 7829 -1 1 -2
5322 -1 50 -1 48 -1 30 -1 7770 -1 374 -1 50 -1 2920 -1 19 -2
355 -1 660 -1 377 -1 372 -1 632 -1 19 -2
48 -1 1928 -1 91 -1 6409 -1 50 -1 507 -1 710 -1 19 -2
48 -1 49 -1 632 -1 50 -1 315 -1 91 -1 50 -1 405 -1 19 -2
48 -1 717 -1 304 -1 632 -1 85 -1 539 -1 2173 -1 50 -1 1037 -1 89 -1 138 -1 48 -1 418 -1 50 -1 138 -1 48 -1 377 -1 372 -1 632 -1 906 -1 19 -2
418 -1 248 -1 4594 -1 372 -1 19 -2
138 -1 48 -1 30 -1 10394 -1 50 -1 315 -1 19 -2
836 -1 30 -1 372 -1 377 -1 377 -1 372 -1 14381 -1 161 -1 2827 -1 19 -2
112 -1 589 -1 7703 -1 305 -1 54 -1 50 -1 484 -1 1142 -1 4691 -1 876 -1 19 -2
19 -2
22638 -1 2153 -1 104 -1 107 -1 19 -2
48 -1 2227 -1 627 -1 50 -1 48 -1 2237 -1 627 -1 19 -2
112 -1 19 -2
784 -1 374 -1 893 -1 19 -2
933 -1 50 -1 3156 -1 339 -1 677 -1 235 -1 51006 -1 377 -1 372 -1 50 -1 30 -1 19 -2
510 -1 233 -1 149 -1 3591 -1 1024 -1 1292 -1 3249 -1 50 -1 19 -2
138 -1 48 -1 30 -1 377 -1 372 -1 632 -1 19 -2
3005 -1 398 -1 248 -1 50 -1 997 -1 8644 -1 4 -1 17435 -1 969 -1 19 -2
89 -1 371 -1 50 -1 19 -2
377 -1 2319 -1 19 -2
7 -1 30 -1 50 -1 519 -1 7 -1 202 -1 625 -1 50 -1 89 -1 928 -1 374 -1 19 -2
3130 -1 1044 -1 19 -2
138 -1 495 -1 22309 -1 22306 -1 890 -1 50 -1 254 -1 2092 -1 48 -1 708 -1 1279 -1 405 -1 50 -1 371 -1 190 -2
928 -1 2942 -1 868 -1 120 -1 41790 -1 1024 -1 120 -1 19 -2
5871 -1 19 -2
398 -1 472 -1 374 -1 19 -2
662 -1 692 -1 50 -1 374 -1 190 -2
19 -2
194 -1 6 -1 18 -1 17 -1 104447 -1 248 -1 286 -1 15192 -1 19 -2
844 -1 120 -1 248 -1 374 -1 377 -1 6818 -1 19 -2
296 -1 329 -1 590 -1 377 -1 50 -1 19 -2
30 -1 377 -1 372 -1 632 -1 1 -2
254 -1 906 -1 658 -1 19 -2
336 -1 1478 -1 3015 -1 50 -1 254 -1 30 -1 19 -2
48 -1 708 -1 114 -1 7026 -1 1478 -1 1246 -1 50 -1 33 -1 115 -1 19 -2
472 -1 2491 -1 382 -1 190 -2
928 -1 7858 -1 1444 -1 1750 -1 1802 -1 19 -2
2831 -1 50 -1 3644 -1 3566 -1 1254 -1 490 -1 1252 -1 106 -1 19 -2
4913 -1 4938 -1 65 -1 19 -2
4320 -1 47 -1 19 -2
555 -1 50 -1 918 -1 710 -1 19 -2
18074 -1 928 -1 9089 -1 48 -1 2173 -1 707 -1 6015 -1 11592 -1 50 -1 495 -1 667 -1 6220 -1 6309 -1 893 -1 371 -1 93996 -1 190 -2
465 -1 50 -1 816 -1 19 -2
668 -1 382 -1 1348 -1 5185 -1 15462 -1 1637 -1 89 -1 2381 -1 482 -1 210 -1 19 -2
343 -1 505 -1 473 -1 478 -1 3490 -1 50 -1 138 -1 382 -1 1081 -1 50 -1 4527 -1 190 -2
1518 -1 625 -1 190 -2
1056 -1 746 -1 588 -1 19 -2
138 -1 374 -1 5099 -1 3078 -1 190 -1 19 -2
9089 -1 495 -1 10394 -1 19 -2
428 -1 372 -1 2319 -1 588 -1 19 -2
1187 -1 346 -1 30 -1 377 -1 372 -1 632 -1 926 -1 113 -1 371 -1 19 -2
372 -1 2319 -1 926 -1 568 -1 19 -1 1 -2
138 -1 14745 -1 2096 -1 1741 -1 48 -1 718 -1 681 -1 943 -1 104 -1 107 -1 149 -1 48 -1 2096 -1 1741 -1 2093 -1 483 -1 112 -1 19 -2
465 -1 128 -1 50 -1 569 -1 2227 -1 405 -1 307 -1 19 -2
48 -1 717 -1 19 -2
48 -1 555 -1 717 -1 19 -2
2000 -1 377 -1 2319 -1 50 -1 149 -1 384 -1 2800 -1 3015 -1 190 -2
48 -1 938 -1 6945 -1 50 -1 19 -2
625 -1 190 -2
551 -1 50 -1 5419 -1 19 -2
2395 -1 50 -1 1252 -1 1034 -1 2526 -1 50 -1 254 -1 30082 -1 19 -2
105 -1 66 -1 8111 -1 50 -1 1490 -1 19 -2
718 -1 4571 -1 2142 -1 19 -2
138 -1 142 -1 343 -1 19 -2
254 -1 5592 -1 190 -2
233 -1 928 -1 510 -1 872 -1 50 -1 19 -2
997 -1 557 -1 560 -1 50 -1 927 -1 627 -1 346 -1 288 -1 19 -2
48 -1 816 -1 1107 -1 202 -1 50 -1 277 -1 4396 -1 19 -2
2509 -1 48 -1 4646 -1 1254 -1 296 -1 389 -1 388 -1 640 -1 50 -1 142 -1 640 -1 2541 -1 1677 -1 627 -1 19 -2
625 -1 50 -1 2509 -1 19 -2
472 -1 5384 -1 7719 -1 1503 -1 50 -1 48 -1 21391 -1 640 -1 2932 -1 640 -1 248 -1 563 -1 777 -1 1005 -1 938 -1 2788 -1 19 -2
112 -1 7342 -1 50 -1 47 -1 19 -2
346 -1 1 -2
142 -1 248 -1 1724 -1 254 -1 2059 -1 360 -1 6945 -1 50 -1 50 -1 3598 -1 1850 -1 190 -2
619 -1 50 -1 1272 -1 19 -2
89 -1 2818 -1 47 -1 405 -1 50 -1 47 -1 91 -1 19 -2
94 -1 50 -1 89 -1 138 -1 440 -1 1740 -1 50 -1 254 -1 906 -1 19 -2
398 -1 248 -1 2746 -1 14107 -1 50 -1 555 -1 2990 -1 19 -2
3248 -1 50 -1 640 -1 248 -1 142 -1 777 -1 1005 -1 938 -1 2788 -1 375 -1 19 -2
306 -1 1 -1 190 -2
190 -2
121 -1 2024 -1 50 -1 874 -1 2059 -1 2818 -1 832 -1 3507 -1 486 -1 398 -1 19 -2
377 -1 893 -1 816 -1 964 -1 19 -2
202 -1 50 -1 19 -2
1 -2
1490 -1 50 -1 19 -2
254 -1 231 -1 112 -1 1681 -1 19 -2
3 -1 29 -1 20220 -1 50 -1 19 -2
254 -1 472 -1 906 -1 444 -1 50 -1 48 -1 1005 -1 50 -1 8639 -1 50 -1 6477 -1 19 -2
50 -1 48 -1 3507 -1 19 -2
114 -1 2113 -1 1220 -1 7139 -1 61 -1 421 -1 48 -1 968 -1 506 -1 304 -1 2693 -1 19 -2
254 -1 2687 -1 50 -1 927 -1 18902 -1 1 -2
382 -1 48 -1 7139 -1 19 -2
444 -1 360 -1 5462 -1 322 -1 50 -1 1303 -1 94 -1 10257 -1 5582 -1 19 -2
5011 -1 19 -2
7139 -1 19 -2
2519 -1 360 -1 4313 -1 50 -1 357 -1 50 -1 938 -1 50 -1 3598 -1 50 -1 11274 -1 50 -1 3455 -1 50 -1 975 -1 16424 -1 2283 -1 19082 -1 19 -2
6368 -1 1291 -1 50 -1 6367 -1 5384 -1 19 -2
1807 -1 1408 -1 19 -2
19690 -1 5644 -1 19 -2
19 -2
254 -1 10394 -1 970 -1 50 -1 1725 -1 19 -2
138 -1 682 -1 713 -1 3507 -1 50 -1 659 -1 50 -1 5769 -1 33 -1 19 -2
444 -1 33 -1 19358 -1 7826 -1 325 -1 1129 -1 50 -1 713 -1 50 -1 12934 -1 50 -1 19 -2
254 -1 748 -1 507 -1 377 -1 2319 -1 1 -2
114 -1 748 -1 296 -1 2227 -1 405 -1 3031 -1 50 -1 7788 -1 33 -1 50 -1 2236 -1 1142 -1 19 -2
30 -1 10394 -1 970 -1 260 -1 48 -1 816 -1 304 -1 1336 -1 121 -1 10394 -1 553 -1 701 -1 518 -1 50 -1 406 -1 50 -1 7 -1 50 -1 3098 -1 50 -1 315 -1 626 -1 19 -2
254 -1 302 -1 138 -1 2704 -1 1129 -1 17350 -1 444 -1 1299 -1 128 -1 510 -1 304 -1 928 -1 30 -1 2139 -1 50 -1 3156 -1 50 -1 807 -1 19 -2
697 -1 9 -1 19 -2
48 -1 718 -1 521 -1 332 -1 19 -2
771 -1 384 -1 50 -1 4469 -1 50 -1 116 -1 50 -1 918 -1 1871 -1 50 -1 918 -1 2859 -1 1871 -1 296 -1 19 -2
3140 -1 19 -2