9 -1 #SUP: 2
11 -1 #SUP: 2
27 -1 #SUP: 2
29 -1 #SUP: 3
31 -1 #SUP: 3
33 -1 #SUP: 4
48 -1 #SUP: 18
49 -1 #SUP: 3
50 -1 #SUP: 48
53 -1 #SUP: 2
54 -1 #SUP: 3
65 -1 #SUP: 2
72 -1 #SUP: 2
89 -1 #SUP: 8
105 -1 #SUP: 3
107 -1 #SUP: 3
112 -1 #SUP: 2
114 -1 #SUP: 9
115 -1 #SUP: 6
118 -1 #SUP: 3
138 -1 #SUP: 8
142 -1 #SUP: 6
147 -1 #SUP: 2
149 -1 #SUP: 7
151 -1 #SUP: 6
175 -1 #SUP: 2
210 -1 #SUP: 2
219 -1 #SUP: 2
233 -1 #SUP: 4
247 -1 #SUP: 2
248 -1 #SUP: 7
253 -1 #SUP: 2
254 -1 #SUP: 11
258 -1 #SUP: 2
263 -1 #SUP: 2
289 -1 #SUP: 6
296 -1 #SUP: 6
304 -1 #SUP: 2
315 -1 #SUP: 2
343 -1 #SUP: 2
361 -1 #SUP: 2
371 -1 #SUP: 2
372 -1 #SUP: 2
382 -1 #SUP: 4
384 -1 #SUP: 2
388 -1 #SUP: 2
389 -1 #SUP: 5
400 -1 #SUP: 4
420 -1 #SUP: 2
428 -1 #SUP: 3
449 -1 #SUP: 2
459 -1 #SUP: 2
471 -1 #SUP: 6
472 -1 #SUP: 6
486 -1 #SUP: 2
548 -1 #SUP: 2
551 -1 #SUP: 7
557 -1 #SUP: 3
571 -1 #SUP: 5
593 -1 #SUP: 2
640 -1 #SUP: 2
642 -1 #SUP: 2
667 -1 #SUP: 3
678 -1 #SUP: 2
714 -1 #SUP: 2
871 -1 #SUP: 2
891 -1 #SUP: 2
906 -1 #SUP: 4
918 -1 #SUP: 3
925 -1 #SUP: 2
927 -1 #SUP: 3
929 -1 #SUP: 2
947 -1 #SUP: 2
966 -1 #SUP: 2
1007 -1 #SUP: 4
1019 -1 #SUP: 2
1024 -1 #SUP: 2
1029 -1 #SUP: 2
1034 -1 #SUP: 4
1044 -1 #SUP: 3
1107 -1 #SUP: 3
1120 -1 #SUP: 2
1130 -1 #SUP: 2
1143 -1 #SUP: 2
1190 -1 #SUP: 3
1207 -1 #SUP: 3
1251 -1 #SUP: 5
1285 -1 #SUP: 2
1299 -1 #SUP: 2
1398 -1 #SUP: 2
1415 -1 #SUP: 3
1452 -1 #SUP: 2
2092 -1 #SUP: 2
2370 -1 #SUP: 2
2439 -1 #SUP: 2
2665 -1 #SUP: 3
2905 -1 #SUP: 2
2951 -1 #SUP: 2
2969 -1 #SUP: 2
3235 -1 #SUP: 2
3400 -1 #SUP: 3
4130 -1 #SUP: 3
5814 -1 #SUP: 2
5918 -1 #SUP: 2
6027 -1 #SUP: 2
6774 -1 #SUP: 2
7193 -1 #SUP: 2
7401 -1 #SUP: 2
7814 -1 #SUP: 2
8029 -1 #SUP: 2
9269 -1 #SUP: 2
21780 -1 #SUP: 2
24644 -1 #SUP: 2
28670 -1 #SUP: 2
29 -1 289 -1 #SUP: 2
33 -1 50 -1 #SUP: 2
48 -1 50 -1 #SUP: 3
48 -1 114 -1 #SUP: 2
48 -1 142 -1 #SUP: 2
48 -1 571 -1 #SUP: 3
48 -1 2969 -1 #SUP: 2
50 -1 31 -1 #SUP: 2
50 -1 33 -1 #SUP: 2
50 -1 48 -1 #SUP: 4
50 -1 50 -1 #SUP: 8
50 -1 89 -1 #SUP: 3
50 -1 107 -1 #SUP: 2
50 -1 138 -1 #SUP: 3
50 -1 149 -1 #SUP: 3
50 -1 248 -1 #SUP: 2
50 -1 254 -1 #SUP: 4
50 -1 289 -1 #SUP: 3
50 -1 400 -1 #SUP: 2
50 -1 420 -1 #SUP: 2
50 -1 428 -1 #SUP: 3
50 -1 471 -1 #SUP: 3
50 -1 551 -1 #SUP: 4
50 -1 557 -1 #SUP: 2
50 -1 593 -1 #SUP: 2
50 -1 906 -1 #SUP: 2
50 -1 927 -1 #SUP: 2
50 -1 1007 -1 #SUP: 2
50 -1 1029 -1 #SUP: 2
50 -1 1120 -1 #SUP: 2
50 -1 1285 -1 #SUP: 2
50 -1 4130 -1 #SUP: 3
50 -1 6774 -1 #SUP: 2
50 -1 7193 -1 #SUP: 2
65 -1 29 -1 #SUP: 2
65 -1 289 -1 #SUP: 2
89 -1 50 -1 #SUP: 2
89 -1 138 -1 #SUP: 2
89 -1 248 -1 #SUP: 2
114 -1 50 -1 #SUP: 3
118 -1 247 -1 #SUP: 2
138 -1 33 -1 #SUP: 2
138 -1 248 -1 #SUP: 2
142 -1 571 -1 #SUP: 3
149 -1 50 -1 #SUP: 2
151 -1 389 -1 #SUP: 2
151 -1 1452 -1 #SUP: 2
233 -1 50 -1 #SUP: 3
248 -1 50 -1 #SUP: 3
254 -1 472 -1 #SUP: 2
254 -1 906 -1 #SUP: 3
254 -1 1007 -1 #SUP: 2
258 -1 253 -1 #SUP: 2
289 -1 118 -1 #SUP: 2
296 -1 48 -1 #SUP: 2
296 -1 50 -1 #SUP: 3
361 -1 7401 -1 #SUP: 2
389 -1 29 -1 #SUP: 2
389 -1 254 -1 #SUP: 2
400 -1 289 -1 #SUP: 2
471 -1 50 -1 #SUP: 2
472 -1 449 -1 #SUP: 2
551 -1 50 -1 #SUP: 2
667 -1 254 -1 #SUP: 2
678 -1 29 -1 #SUP: 2
678 -1 289 -1 #SUP: 2
927 -1 50 -1 #SUP: 2
1251 -1 50 -1 #SUP: 2
1398 -1 50 -1 #SUP: 2
2370 -1 50 -1 #SUP: 2
5814 -1 50 -1 #SUP: 2
5814 -1 21780 -1 #SUP: 2
9269 -1 24644 -1 #SUP: 2
21780 -1 50 -1 #SUP: 2
50 -1 254 -1 906 -1 #SUP: 2
65 -1 29 -1 289 -1 #SUP: 2
233 -1 50 -1 50 -1 #SUP: 2
248 -1 50 -1 50 -1 #SUP: 2
678 -1 29 -1 289 -1 #SUP: 2
5814 -1 50 -1 50 -1 #SUP: 2
5814 -1 21780 -1 50 -1 #SUP: 2
21780 -1 50 -1 50 -1 #SUP: 2
5814 -1 21780 -1 50 -1 50 -1 #SUP: 2
