2 -1 #SUP: 2
4 -1 #SUP: 3
19 -1 #SUP: 14
31 -1 #SUP: 5
33 -1 #SUP: 10
41 -1 #SUP: 2
42 -1 #SUP: 3
48 -1 #SUP: 7
49 -1 #SUP: 4
50 -1 #SUP: 107
54 -1 #SUP: 3
89 -1 #SUP: 6
94 -1 #SUP: 6
104 -1 #SUP: 4
105 -1 #SUP: 2
107 -1 #SUP: 3
112 -1 #SUP: 4
113 -1 #SUP: 2
114 -1 #SUP: 3
115 -1 #SUP: 3
118 -1 #SUP: 3
137 -1 #SUP: 2
138 -1 #SUP: 9
142 -1 #SUP: 5
158 -1 #SUP: 2
166 -1 #SUP: 2
167 -1 #SUP: 2
193 -1 #SUP: 2
202 -1 #SUP: 3
218 -1 #SUP: 2
233 -1 #SUP: 5
248 -1 #SUP: 9
254 -1 #SUP: 7
262 -1 #SUP: 4
263 -1 #SUP: 3
266 -1 #SUP: 5
277 -1 #SUP: 2
289 -1 #SUP: 5
296 -1 #SUP: 3
304 -1 #SUP: 8
305 -1 #SUP: 2
315 -1 #SUP: 2
335 -1 #SUP: 2
337 -1 #SUP: 2
341 -1 #SUP: 4
345 -1 #SUP: 2
384 -1 #SUP: 2
417 -1 #SUP: 4
425 -1 #SUP: 3
434 -1 #SUP: 5
435 -1 #SUP: 4
457 -1 #SUP: 2
470 -1 #SUP: 3
483 -1 #SUP: 2
486 -1 #SUP: 3
513 -1 #SUP: 2
553 -1 #SUP: 2
557 -1 #SUP: 2
563 -1 #SUP: 2
571 -1 #SUP: 3
578 -1 #SUP: 3
627 -1 #SUP: 2
637 -1 #SUP: 3
640 -1 #SUP: 2
646 -1 #SUP: 2
667 -1 #SUP: 4
675 -1 #SUP: 2
680 -1 #SUP: 2
718 -1 #SUP: 2
732 -1 #SUP: 2
738 -1 #SUP: 2
746 -1 #SUP: 2
777 -1 #SUP: 4
807 -1 #SUP: 3
813 -1 #SUP: 2
893 -1 #SUP: 2
928 -1 #SUP: 5
929 -1 #SUP: 2
948 -1 #SUP: 2
964 -1 #SUP: 2
1014 -1 #SUP: 2
1024 -1 #SUP: 2
1081 -1 #SUP: 2
1092 -1 #SUP: 2
1129 -1 #SUP: 4
1220 -1 #SUP: 2
1221 -1 #SUP: 3
1247 -1 #SUP: 2
1268 -1 #SUP: 2
1303 -1 #SUP: 2
1336 -1 #SUP: 2
1349 -1 #SUP: 2
1368 -1 #SUP: 3
1468 -1 #SUP: 2
1503 -1 #SUP: 3
1516 -1 #SUP: 2
1657 -1 #SUP: 2
1678 -1 #SUP: 2
1706 -1 #SUP: 3
1793 -1 #SUP: 3
1825 -1 #SUP: 2
1871 -1 #SUP: 2
1916 -1 #SUP: 3
1924 -1 #SUP: 2
2429 -1 #SUP: 2
2489 -1 #SUP: 2
2512 -1 #SUP: 2
2785 -1 #SUP: 2
3098 -1 #SUP: 2
3168 -1 #SUP: 2
3202 -1 #SUP: 2
3453 -1 #SUP: 3
3483 -1 #SUP: 2
4415 -1 #SUP: 2
5897 -1 #SUP: 2
6428 -1 #SUP: 2
7558 -1 #SUP: 2
8623 -1 #SUP: 3
10160 -1 #SUP: 3
10295 -1 #SUP: 2
13146 -1 #SUP: 2
13314 -1 #SUP: 3
18954 -1 #SUP: 2
25782 -1 #SUP: 3
42444 -1 #SUP: 2
53751 -1 #SUP: 2
66150 -1 #SUP: 3
4 -1 50 -1 #SUP: 2
19 -1 19 -1 #SUP: 4
19 -1 50 -1 #SUP: 4
31 -1 50 -1 #SUP: 2
33 -1 50 -1 #SUP: 2
33 -1 54 -1 #SUP: 2
33 -1 4415 -1 #SUP: 2
41 -1 50 -1 #SUP: 2
42 -1 41 -1 #SUP: 2
42 -1 50 -1 #SUP: 2
48 -1 50 -1 #SUP: 4
48 -1 193 -1 #SUP: 2
49 -1 50 -1 #SUP: 3
50 -1 2 -1 #SUP: 2
50 -1 4 -1 #SUP: 3
50 -1 19 -1 #SUP: 3
50 -1 31 -1 #SUP: 2
50 -1 33 -1 #SUP: 3
50 -1 42 -1 #SUP: 2
50 -1 48 -1 #SUP: 4
50 -1 49 -1 #SUP: 2
50 -1 50 -1 #SUP: 27
50 -1 54 -1 #SUP: 2
50 -1 89 -1 #SUP: 2
50 -1 94 -1 #SUP: 3
50 -1 104 -1 #SUP: 3
50 -1 107 -1 #SUP: 2
50 -1 112 -1 #SUP: 2
50 -1 115 -1 #SUP: 3
50 -1 138 -1 #SUP: 3
50 -1 142 -1 #SUP: 2
50 -1 193 -1 #SUP: 2
50 -1 248 -1 #SUP: 4
50 -1 254 -1 #SUP: 2
50 -1 266 -1 #SUP: 3
50 -1 296 -1 #SUP: 2
50 -1 304 -1 #SUP: 5
50 -1 315 -1 #SUP: 2
50 -1 417 -1 #SUP: 2
50 -1 434 -1 #SUP: 4
50 -1 435 -1 #SUP: 2
50 -1 470 -1 #SUP: 2
50 -1 640 -1 #SUP: 2
50 -1 667 -1 #SUP: 2
50 -1 746 -1 #SUP: 2
50 -1 777 -1 #SUP: 2
50 -1 893 -1 #SUP: 2
50 -1 1014 -1 #SUP: 2
50 -1 1024 -1 #SUP: 2
50 -1 1129 -1 #SUP: 2
50 -1 1221 -1 #SUP: 2
50 -1 1349 -1 #SUP: 2
50 -1 1657 -1 #SUP: 2
50 -1 2429 -1 #SUP: 2
50 -1 3098 -1 #SUP: 2
50 -1 3168 -1 #SUP: 2
50 -1 3483 -1 #SUP: 2
50 -1 7558 -1 #SUP: 2
50 -1 10295 -1 #SUP: 2
50 -1 13146 -1 #SUP: 2
50 -1 25782 -1 #SUP: 2
89 -1 50 -1 #SUP: 2
89 -1 233 -1 #SUP: 2
89 -1 248 -1 #SUP: 2
94 -1 50 -1 #SUP: 3
104 -1 107 -1 #SUP: 3
114 -1 50 -1 #SUP: 2
118 -1 50 -1 #SUP: 3
138 -1 50 -1 #SUP: 3
138 -1 138 -1 #SUP: 2
142 -1 50 -1 #SUP: 2
166 -1 19 -1 #SUP: 2
167 -1 19 -1 #SUP: 2
233 -1 50 -1 #SUP: 3
248 -1 50 -1 #SUP: 5
248 -1 266 -1 #SUP: 2
248 -1 470 -1 #SUP: 2
248 -1 1024 -1 #SUP: 2
254 -1 50 -1 #SUP: 4
254 -1 115 -1 #SUP: 2
254 -1 248 -1 #SUP: 2
289 -1 50 -1 #SUP: 2
296 -1 50 -1 #SUP: 3
304 -1 50 -1 #SUP: 6
315 -1 50 -1 #SUP: 2
417 -1 50 -1 #SUP: 3
434 -1 50 -1 #SUP: 2
435 -1 50 -1 #SUP: 2
435 -1 10295 -1 #SUP: 2
553 -1 50 -1 #SUP: 2
553 -1 435 -1 #SUP: 2
571 -1 50 -1 #SUP: 2
571 -1 3202 -1 #SUP: 2
578 -1 50 -1 #SUP: 3
627 -1 50 -1 #SUP: 2
667 -1 31 -1 #SUP: 3
732 -1 50 -1 #SUP: 2
928 -1 50 -1 #SUP: 4
928 -1 142 -1 #SUP: 2
929 -1 50 -1 #SUP: 2
1129 -1 50 -1 #SUP: 3
1129 -1 1129 -1 #SUP: 2
1220 -1 50 -1 #SUP: 2
1268 -1 50 -1 #SUP: 2
1468 -1 457 -1 #SUP: 2
1503 -1 289 -1 #SUP: 2
1516 -1 50 -1 #SUP: 2
1657 -1 50 -1 #SUP: 2
1657 -1 1129 -1 #SUP: 2
1706 -1 50 -1 #SUP: 2
1706 -1 138 -1 #SUP: 2
1706 -1 557 -1 #SUP: 2
1793 -1 50 -1 #SUP: 2
1871 -1 50 -1 #SUP: 2
1916 -1 50 -1 #SUP: 3
1924 -1 262 -1 #SUP: 2
3453 -1 50 -1 #SUP: 2
7558 -1 50 -1 #SUP: 2
10160 -1 10160 -1 #SUP: 2
10160 -1 13314 -1 #SUP: 3
13314 -1 10160 -1 #SUP: 2
13314 -1 13314 -1 #SUP: 2
42444 -1 813 -1 #SUP: 2
53751 -1 50 -1 #SUP: 2
66150 -1 50 -1 #SUP: 2
19 -1 19 -1 50 -1 #SUP: 2
42 -1 41 -1 50 -1 #SUP: 2
48 -1 50 -1 193 -1 #SUP: 2
50 -1 4 -1 50 -1 #SUP: 2
50 -1 19 -1 19 -1 #SUP: 2
50 -1 48 -1 50 -1 #SUP: 2
50 -1 48 -1 193 -1 #SUP: 2
50 -1 49 -1 50 -1 #SUP: 2
50 -1 50 -1 48 -1 #SUP: 3
50 -1 50 -1 50 -1 #SUP: 12
50 -1 50 -1 94 -1 #SUP: 2
50 -1 50 -1 193 -1 #SUP: 2
50 -1 50 -1 248 -1 #SUP: 2
50 -1 50 -1 254 -1 #SUP: 2
50 -1 50 -1 417 -1 #SUP: 2
50 -1 50 -1 1024 -1 #SUP: 2
50 -1 50 -1 1221 -1 #SUP: 2
50 -1 50 -1 2429 -1 #SUP: 2
50 -1 50 -1 3098 -1 #SUP: 2
50 -1 50 -1 3483 -1 #SUP: 2
50 -1 50 -1 7558 -1 #SUP: 2
50 -1 50 -1 13146 -1 #SUP: 2
50 -1 104 -1 107 -1 #SUP: 2
50 -1 248 -1 50 -1 #SUP: 3
50 -1 248 -1 1024 -1 #SUP: 2
50 -1 296 -1 50 -1 #SUP: 2
50 -1 304 -1 50 -1 #SUP: 3
50 -1 315 -1 50 -1 #SUP: 2
50 -1 434 -1 50 -1 #SUP: 2
50 -1 667 -1 31 -1 #SUP: 2
50 -1 1129 -1 50 -1 #SUP: 2
50 -1 1657 -1 50 -1 #SUP: 2
50 -1 1657 -1 1129 -1 #SUP: 2
50 -1 7558 -1 50 -1 #SUP: 2
248 -1 50 -1 50 -1 #SUP: 2
248 -1 50 -1 470 -1 #SUP: 2
254 -1 50 -1 115 -1 #SUP: 2
296 -1 50 -1 50 -1 #SUP: 2
417 -1 50 -1 50 -1 #SUP: 3
928 -1 50 -1 142 -1 #SUP: 2
929 -1 50 -1 50 -1 #SUP: 2
1129 -1 1129 -1 50 -1 #SUP: 2
1657 -1 1129 -1 50 -1 #SUP: 2
1793 -1 50 -1 50 -1 #SUP: 2
1916 -1 50 -1 50 -1 #SUP: 3
7558 -1 50 -1 50 -1 #SUP: 2
10160 -1 10160 -1 13314 -1 #SUP: 2
10160 -1 13314 -1 10160 -1 #SUP: 2
10160 -1 13314 -1 13314 -1 #SUP: 2
13314 -1 10160 -1 13314 -1 #SUP: 2
50 -1 48 -1 50 -1 193 -1 #SUP: 2
50 -1 50 -1 248 -1 1024 -1 #SUP: 2
50 -1 50 -1 7558 -1 50 -1 #SUP: 2
50 -1 296 -1 50 -1 50 -1 #SUP: 2
50 -1 1657 -1 1129 -1 50 -1 #SUP: 2
50 -1 7558 -1 50 -1 50 -1 #SUP: 2
1793 -1 50 -1 50 -1 50 -1 #SUP: 2
7558 -1 50 -1 50 -1 50 -1 #SUP: 2
10160 -1 13314 -1 10160 -1 13314 -1 #SUP: 2
