1 -1 #SUP: 2
27 -1 #SUP: 2
29 -1 #SUP: 7
33 -1 #SUP: 4
38 -1 #SUP: 2
41 -1 #SUP: 2
44 -1 #SUP: 3
47 -1 #SUP: 2
48 -1 #SUP: 8
49 -1 #SUP: 14
50 -1 #SUP: 15
53 -1 #SUP: 3
54 -1 #SUP: 2
89 -1 #SUP: 7
105 -1 #SUP: 2
108 -1 #SUP: 3
114 -1 #SUP: 6
115 -1 #SUP: 2
118 -1 #SUP: 5
138 -1 #SUP: 7
139 -1 #SUP: 2
142 -1 #SUP: 2
149 -1 #SUP: 6
155 -1 #SUP: 4
158 -1 #SUP: 4
167 -1 #SUP: 2
175 -1 #SUP: 2
180 -1 #SUP: 4
202 -1 #SUP: 3
233 -1 #SUP: 2
248 -1 #SUP: 10
254 -1 #SUP: 6
262 -1 #SUP: 3
263 -1 #SUP: 3
266 -1 #SUP: 3
276 -1 #SUP: 3
280 -1 #SUP: 3
288 -1 #SUP: 3
290 -1 #SUP: 2
296 -1 #SUP: 3
302 -1 #SUP: 6
304 -1 #SUP: 10
325 -1 #SUP: 2
375 -1 #SUP: 3
380 -1 #SUP: 2
381 -1 #SUP: 2
382 -1 #SUP: 3
388 -1 #SUP: 6
421 -1 #SUP: 2
428 -1 #SUP: 5
434 -1 #SUP: 3
439 -1 #SUP: 5
444 -1 #SUP: 3
468 -1 #SUP: 2
470 -1 #SUP: 2
472 -1 #SUP: 2
483 -1 #SUP: 3
486 -1 #SUP: 3
505 -1 #SUP: 4
516 -1 #SUP: 3
535 -1 #SUP: 2
551 -1 #SUP: 4
563 -1 #SUP: 2
571 -1 #SUP: 2
583 -1 #SUP: 2
588 -1 #SUP: 2
606 -1 #SUP: 2
640 -1 #SUP: 5
697 -1 #SUP: 2
708 -1 #SUP: 2
718 -1 #SUP: 2
748 -1 #SUP: 2
771 -1 #SUP: 2
926 -1 #SUP: 2
927 -1 #SUP: 3
932 -1 #SUP: 2
947 -1 #SUP: 4
1034 -1 #SUP: 3
1044 -1 #SUP: 3
1120 -1 #SUP: 2
1142 -1 #SUP: 2
1286 -1 #SUP: 2
1303 -1 #SUP: 2
1335 -1 #SUP: 6
1392 -1 #SUP: 3
1427 -1 #SUP: 2
1429 -1 #SUP: 3
1490 -1 #SUP: 2
1577 -1 #SUP: 2
1623 -1 #SUP: 2
1638 -1 #SUP: 2
1738 -1 #SUP: 2
1785 -1 #SUP: 2
1850 -1 #SUP: 2
2029 -1 #SUP: 2
2077 -1 #SUP: 2
2092 -1 #SUP: 2
2223 -1 #SUP: 2
2905 -1 #SUP: 2
3819 -1 #SUP: 2
4469 -1 #SUP: 3
5047 -1 #SUP: 2
7784 -1 #SUP: 3
9524 -1 #SUP: 2
10639 -1 #SUP: 2
14494 -1 #SUP: 2
48 -1 49 -1 #SUP: 2
48 -1 89 -1 #SUP: 3
48 -1 771 -1 #SUP: 2
49 -1 50 -1 #SUP: 2
49 -1 1623 -1 #SUP: 2
50 -1 29 -1 #SUP: 2
50 -1 288 -1 #SUP: 2
50 -1 428 -1 #SUP: 2
89 -1 771 -1 #SUP: 2
138 -1 468 -1 #SUP: 2
138 -1 947 -1 #SUP: 2
167 -1 180 -1 #SUP: 2
180 -1 280 -1 #SUP: 3
248 -1 29 -1 #SUP: 2
248 -1 158 -1 #SUP: 2
248 -1 2029 -1 #SUP: 2
254 -1 29 -1 #SUP: 2
254 -1 138 -1 #SUP: 2
276 -1 180 -1 #SUP: 2
276 -1 748 -1 #SUP: 2
302 -1 155 -1 #SUP: 2
304 -1 29 -1 #SUP: 2
304 -1 1335 -1 #SUP: 2
388 -1 2029 -1 #SUP: 2
516 -1 155 -1 #SUP: 2
516 -1 302 -1 #SUP: 2
640 -1 155 -1 #SUP: 2
640 -1 248 -1 #SUP: 2
640 -1 2029 -1 #SUP: 2
48 -1 89 -1 771 -1 #SUP: 2
516 -1 302 -1 155 -1 #SUP: 2
640 -1 248 -1 2029 -1 #SUP: 2
