109189 -1 233 -1 33 -1 140 -1 1127 -1 109086 -1 929 -1 19 -2
130 -1 264 -1 7331 -1 1404 -1 19 -2
1404 -1 46634 -1 163 -1 195 -1 19 -2
48 -1 254 -1 1102 -1 8549 -1 774 -1 19 -2
54804 -1 310 -1 508 -1 345 -1 3088 -1 19 -2
425 -1 3894 -1 806 -1 19 -2
2302 -1 50 -1 138 -1 406 -1 138 -1 248 -1 50 -1 195 -1 7372 -1 19 -2
497 -1 54804 -1 254 -1 138 -1 774 -1 290 -1 9542 -1 4199 -1 1514 -1 19 -2
774 -1 1065 -1 19 -2
254 -1 1777 -1 519 -1 7335 -1 4332 -1 1099 -1 264 -1 871 -1 54804 -1 1354 -1 49 -1 19 -2
457 -1 6295 -1 702 -1 264 -1 774 -1 19 -2
50 -1 667 -1 1404 -1 1490 -1 19 -2
114 -1 264 -1 33 -1 6240 -1 19 -2
929 -1 50 -1 19 -2
18983 -1 603 -1 190 -2
1099 -1 53 -1 49 -1 1019 -1 8617 -1 19 -2
54126 -1 108 -1 2604 -1 50 -1 48 -1 1777 -1 53 -1 19 -2
637 -1 1014 -1 5863 -1 330 -1 1 -2
150205 -1 19 -2
157 -1 3855 -1 12223 -1 1 -2
17534 -1 2439 -1 4949 -1 6383 -1 6381 -1 150206 -1 4949 -1 3537 -1 398 -1 48 -1 1 -2
603 -1 190 -2
114 -1 760 -1 425 -1 1014 -1 54126 -1 200 -1 301 -1 774 -1 19 -2
3987 -1 1638 -1 1647 -1 774 -1 304 -1 2023 -1 50 -1 389 -1 568 -1 637 -1 5863 -1 330 -1 50 -1 210 -1 1 -2
603 -1 190 -2
54126 -1 3869 -1 84 -1 2614 -1 180 -1 19 -2
4016 -1 252 -1 19 -2
3987 -1 264 -1 12223 -1 27 -1 1380 -1 1 -2
384 -1 2984 -1 264 -1 142 -1 150208 -1 150207 -1 1777 -1 816 -1 19 -2
254 -1 2739 -1 1320 -1 5502 -1 1777 -1 6295 -1 702 -1 19 -2
502 -1 50 -1 19 -2
477 -1 1774 -1 947 -1 54 -1 194 -1 2639 -1 774 -1 19 -2
150208 -1 63429 -1 19 -2
555 -1 7424 -1 33 -1 19 -2
53 -1 264 -1 774 -1 49 -1 1 -2
2311 -1 947 -1 3932 -1 1 -2
465 -1 19 -2
993 -1 50 -1 138 -1 3855 -1 5905 -1 19 -2
425 -1 54 -1 3470 -1 72 -1 254 -1 471 -1 267 -1 302 -1 7737 -1 19 -2
1430 -1 21288 -1 5227 -1 1107 -1 19 -2
603 -1 4315 -1 190 -2
54126 -1 429 -1 428 -1 637 -1 1717 -1 7847 -1 1 -2
1490 -1 36311 -1 150207 -1 4727 -1 280 -1 19 -2
567 -1 1546 -1 1638 -1 195 -1 19 -2
1786 -1 54126 -1 718 -1 1102 -1 774 -1 1024 -1 19 -2
114 -1 19 -2
67986 -1 718 -1 138 -1 190 -2
774 -1 3524 -1 325 -1 7335 -1 388 -1 516 -1 264 -1 19 -2
50 -1 2234 -1 118 -1 417 -1 483 -1 1 -1 19 -2
150209 -1 254 -1 471 -1 267 -1 1426 -1 521 -1 19 -2
3605 -1 7847 -1 1707 -1 1 -2
1490 -1 89 -1 233 -1 1106 -1 425 -1 2272 -1 19 -2
254 -1 1099 -1 2127 -1 1057 -1 254 -1 472 -1 768 -1 49 -1 1892 -1 259 -1 4520 -1 2035 -1 19 -2
1014 -1 19 -2
425 -1 123 -1 19 -2
4527 -1 4177 -1 702 -1 50 -1 2017 -1 425 -1 304 -1 3460 -1 1577 -1 702 -1 1252 -1 950 -1 19 -2
152 -1 14414 -1 50 -1 477 -1 13590 -1 19 -2
149 -1 19 -2
157 -1 19 -2
254 -1 477 -1 19 -2
3986 -1 590 -1 50 -1 254 -1 151 -1 1777 -1 3005 -1 513 -1 149 -1 19 -2
254 -1 3214 -1 5224 -1 304 -1 816 -1 19 -2
149 -1 304 -1 19 -2
138 -1 1777 -1 640 -1 118 -1 254 -1 1099 -1 477 -1 4527 -1 33406 -1 4517 -1 19 -2
26388 -1 603 -1 190 -2
263 -1 7174 -1 233 -1 406 -1 1427 -1 4031 -1 247 -1 19 -2
3869 -1 1427 -1 384 -1 108 -1 10850 -1 1136 -1 19 -2
210 -1 50 -1 254 -1 3848 -1 3592 -1 645 -1 286 -1 19 -2
15211 -1 712 -1 19 -2
48 -1 922 -1 93 -1 89 -1 471 -1 8321 -1 19 -2
1099 -1 1145 -1 932 -1 19 -2
330 -1 50 -1 1129 -1 138 -1 2941 -1 389 -1 233 -1 72 -1 19 -2
149 -1 1427 -1 6452 -1 19 -2
9206 -1 94 -1 429 -1 428 -1 130 -1 279 -1 1761 -1 45 -1 1004 -1 19 -2
4527 -1 36 -1 19 -2
254 -1 1997 -1 582 -1 210 -1 190 -2
150210 -1 555 -1 19 -2
535 -1 19 -2
138 -1 48 -1 193 -1 547 -1 19 -2
428 -1 668 -1 19 -2
19947 -1 434 -1 41 -1 19 -2
254 -1 19 -2
180 -1 2807 -1 190 -2
138 -1 158 -1 147 -1 3488 -1 248 -1 79 -1 5817 -1 48 -1 5080 -1 486 -1 19 -2
12542 -1 31463 -1 149 -1 1803 -1 3819 -1 19 -2
48 -1 19 -2
150210 -1 384 -1 248 -1 5080 -1 844 -1 29073 -1 682 -1 1 -2
150211 -1 3615 -1 910 -1 371 -1 374 -1 632 -1 19 -2
630 -1 918 -1 551 -1 738 -1 304 -1 118 -1 3037 -1 1293 -1 19 -2
603 -1 1101 -1 190 -2
801 -1 1 -2
49 -1 6010 -1 294 -1 627 -1 384 -1 19 -2
50 -1 50 -1 15107 -1 33 -1 503 -1 149 -1 993 -1 346 -1 19 -2
933 -1 153 -1 962 -1 406 -1 50 -1 2951 -1 1850 -1 484 -1 9708 -1 1 -2
114 -1 304 -1 384 -1 149 -1 248 -1 1803 -1 256 -1 20391 -1 19 -2
1267 -1 19 -2
150210 -1 1452 -1 2431 -1 19 -2
637 -1 4839 -1 1036 -1 1 -2
387 -1 1490 -1 19 -2
25634 -1 105 -1 19 -2
48 -1 2706 -1 19 -2
1490 -1 233 -1 50 -1 114 -1 748 -1 149 -1 640 -1 1120 -1 19 -2
2031 -1 233 -1 5814 -1 158 -1 75355 -1 19 -2
2031 -1 50 -1 158 -1 19 -2
1777 -1 306 -1 1044 -1 19 -2
50 -1 1452 -1 4660 -1 918 -1 551 -1 2035 -1 19 -2
1490 -1 19 -2
268 -1 150212 -1 4527 -1 470 -1 421 -1 1755 -1 5157 -1 1024 -1 19 -2
388 -1 149 -1 540 -1 94 -1 19 -2
94 -1 3952 -1 22317 -1 1 -2
22017 -1 50 -1 254 -1 4549 -1 19 -2
3985 -1 982 -1 19 -2
2539 -1 149 -1 48 -1 9 -1 19 -2
48 -1 1129 -1 2961 -1 19 -2
19014 -1 157 -1 190 -2
1 -2
1449 -1 4540 -1 19 -2
270 -1 3135 -1 817 -1 50 -1 19 -2
150213 -1 19 -2
150212 -1 5863 -1 457 -1 19 -2
1691 -1 3235 -1 19 -2
254 -1 118 -1 388 -1 149 -1 339 -1 19 -2
1490 -1 114 -1 748 -1 37973 -1 29 -1 19 -2
2234 -1 270 -1 198 -1 1 -2
4527 -1 2331 -1 73 -1 440 -1 2827 -1 112 -1 3521 -1 1 -2
4598 -1 210 -1 1 -2
1490 -1 19 -2
603 -1 19931 -1 263 -1 484 -1 2539 -1 635 -1 19 -2
465 -1 603 -1 190 -2
425 -1 508 -1 630 -1 19 -2
48 -1 2173 -1 4357 -1 151 -1 1 -2
603 -1 190 -2
16335 -1 8312 -1 336 -1 5077 -1 16327 -1 16336 -1 2408 -1 12683 -1 336 -1 80689 -1 16327 -1 16335 -1 16336 -1 506 -1 151 -1 19 -2
138 -1 557 -1 19 -2
555 -1 19 -2
48 -1 53 -1 9 -1 19 -2
48 -1 118 -1 33 -1 486 -1 19 -2
138 -1 425 -1 19 -2