1 -1 #SUP: 3
29 -1 #SUP: 4
30 -1 #SUP: 9
31 -1 #SUP: 3
33 -1 #SUP: 6
47 -1 #SUP: 4
48 -1 #SUP: 16
49 -1 #SUP: 5
50 -1 #SUP: 31
53 -1 #SUP: 4
54 -1 #SUP: 6
89 -1 #SUP: 9
93 -1 #SUP: 2
105 -1 #SUP: 2
107 -1 #SUP: 3
112 -1 #SUP: 2
113 -1 #SUP: 3
114 -1 #SUP: 6
115 -1 #SUP: 3
118 -1 #SUP: 4
138 -1 #SUP: 12
147 -1 #SUP: 4
149 -1 #SUP: 2
151 -1 #SUP: 2
155 -1 #SUP: 2
175 -1 #SUP: 4
210 -1 #SUP: 2
247 -1 #SUP: 2
248 -1 #SUP: 9
254 -1 #SUP: 12
255 -1 #SUP: 5
262 -1 #SUP: 2
263 -1 #SUP: 2
266 -1 #SUP: 2
296 -1 #SUP: 2
302 -1 #SUP: 3
304 -1 #SUP: 4
305 -1 #SUP: 2
341 -1 #SUP: 2
346 -1 #SUP: 2
359 -1 #SUP: 2
372 -1 #SUP: 3
373 -1 #SUP: 5
374 -1 #SUP: 11
377 -1 #SUP: 7
382 -1 #SUP: 4
388 -1 #SUP: 6
404 -1 #SUP: 3
405 -1 #SUP: 5
423 -1 #SUP: 2
425 -1 #SUP: 2
428 -1 #SUP: 2
440 -1 #SUP: 2
453 -1 #SUP: 2
471 -1 #SUP: 2
477 -1 #SUP: 2
483 -1 #SUP: 3
484 -1 #SUP: 8
486 -1 #SUP: 2
490 -1 #SUP: 3
505 -1 #SUP: 2
516 -1 #SUP: 2
557 -1 #SUP: 3
599 -1 #SUP: 2
606 -1 #SUP: 2
627 -1 #SUP: 9
635 -1 #SUP: 3
637 -1 #SUP: 2
640 -1 #SUP: 8
658 -1 #SUP: 2
667 -1 #SUP: 2
678 -1 #SUP: 3
702 -1 #SUP: 2
718 -1 #SUP: 2
747 -1 #SUP: 2
750 -1 #SUP: 2
810 -1 #SUP: 2
814 -1 #SUP: 3
864 -1 #SUP: 2
893 -1 #SUP: 4
927 -1 #SUP: 2
928 -1 #SUP: 3
931 -1 #SUP: 3
947 -1 #SUP: 4
966 -1 #SUP: 2
968 -1 #SUP: 2
975 -1 #SUP: 2
1017 -1 #SUP: 2
1024 -1 #SUP: 3
1044 -1 #SUP: 2
1099 -1 #SUP: 3
1107 -1 #SUP: 2
1135 -1 #SUP: 2
1285 -1 #SUP: 2
1299 -1 #SUP: 2
1326 -1 #SUP: 2
1338 -1 #SUP: 2
1348 -1 #SUP: 2
1397 -1 #SUP: 2
1427 -1 #SUP: 3
1430 -1 #SUP: 2
1433 -1 #SUP: 2
1483 -1 #SUP: 5
1559 -1 #SUP: 2
1696 -1 #SUP: 10
1883 -1 #SUP: 2
2026 -1 #SUP: 2
2092 -1 #SUP: 2
2319 -1 #SUP: 2
2410 -1 #SUP: 2
2491 -1 #SUP: 2
2661 -1 #SUP: 2
2679 -1 #SUP: 2
2956 -1 #SUP: 2
3086 -1 #SUP: 2
3173 -1 #SUP: 2
3314 -1 #SUP: 2
4250 -1 #SUP: 2
4899 -1 #SUP: 3
7082 -1 #SUP: 3
8263 -1 #SUP: 2
8727 -1 #SUP: 2
9005 -1 #SUP: 2
18114 -1 #SUP: 2
31 -1 50 -1 #SUP: 2
33 -1 50 -1 #SUP: 2
48 -1 49 -1 #SUP: 2
48 -1 50 -1 #SUP: 5
48 -1 248 -1 #SUP: 2
48 -1 255 -1 #SUP: 2
48 -1 702 -1 #SUP: 2
48 -1 2026 -1 #SUP: 2
49 -1 50 -1 #SUP: 2
50 -1 48 -1 #SUP: 4
50 -1 50 -1 #SUP: 3
50 -1 107 -1 #SUP: 2
50 -1 113 -1 #SUP: 2
50 -1 138 -1 #SUP: 2
50 -1 373 -1 #SUP: 3
50 -1 374 -1 #SUP: 2
50 -1 382 -1 #SUP: 2
50 -1 388 -1 #SUP: 2
50 -1 484 -1 #SUP: 2
50 -1 814 -1 #SUP: 2
50 -1 1099 -1 #SUP: 2
50 -1 1696 -1 #SUP: 2
53 -1 50 -1 #SUP: 2
53 -1 107 -1 #SUP: 2
54 -1 30 -1 #SUP: 2
89 -1 138 -1 #SUP: 2
89 -1 248 -1 #SUP: 2
89 -1 627 -1 #SUP: 2
113 -1 48 -1 #SUP: 2
113 -1 50 -1 #SUP: 2
115 -1 627 -1 #SUP: 2
118 -1 29 -1 #SUP: 2
138 -1 48 -1 #SUP: 2
138 -1 49 -1 #SUP: 2
138 -1 50 -1 #SUP: 2
138 -1 254 -1 #SUP: 2
147 -1 50 -1 #SUP: 3
248 -1 33 -1 #SUP: 2
248 -1 374 -1 #SUP: 2
248 -1 377 -1 #SUP: 2
248 -1 627 -1 #SUP: 2
254 -1 50 -1 #SUP: 2
254 -1 54 -1 #SUP: 2
254 -1 373 -1 #SUP: 2
254 -1 471 -1 #SUP: 2
255 -1 1 -1 #SUP: 2
255 -1 50 -1 #SUP: 2
302 -1 3086 -1 #SUP: 2
304 -1 248 -1 #SUP: 2
304 -1 968 -1 #SUP: 2
373 -1 50 -1 #SUP: 2
374 -1 48 -1 #SUP: 3
374 -1 50 -1 #SUP: 3
374 -1 405 -1 #SUP: 3
374 -1 1427 -1 #SUP: 2
374 -1 2491 -1 #SUP: 2
377 -1 50 -1 #SUP: 2
377 -1 374 -1 #SUP: 5
377 -1 405 -1 #SUP: 2
484 -1 50 -1 #SUP: 2
490 -1 2661 -1 #SUP: 2
627 -1 1696 -1 #SUP: 2
627 -1 4899 -1 #SUP: 2
640 -1 47 -1 #SUP: 2
640 -1 50 -1 #SUP: 2
814 -1 374 -1 #SUP: 2
931 -1 893 -1 #SUP: 2
1427 -1 48 -1 #SUP: 2
1433 -1 50 -1 #SUP: 2
1483 -1 255 -1 #SUP: 2
1483 -1 1483 -1 #SUP: 2
1696 -1 50 -1 #SUP: 3
1696 -1 627 -1 #SUP: 2
4899 -1 1696 -1 #SUP: 3
48 -1 255 -1 50 -1 #SUP: 2
53 -1 50 -1 107 -1 #SUP: 2
113 -1 50 -1 48 -1 #SUP: 2
248 -1 377 -1 374 -1 #SUP: 2
627 -1 4899 -1 1696 -1 #SUP: 2
