2 -1 #SUP: 2
3 -1 #SUP: 5
4 -1 #SUP: 3
6 -1 #SUP: 3
7 -1 #SUP: 5
9 -1 #SUP: 2
17 -1 #SUP: 2
18 -1 #SUP: 2
19 -1 #SUP: 5
30 -1 #SUP: 2
33 -1 #SUP: 3
48 -1 #SUP: 5
50 -1 #SUP: 26
104 -1 #SUP: 4
107 -1 #SUP: 8
111 -1 #SUP: 4
112 -1 #SUP: 6
138 -1 #SUP: 2
142 -1 #SUP: 2
149 -1 #SUP: 7
151 -1 #SUP: 4
161 -1 #SUP: 2
163 -1 #SUP: 3
247 -1 #SUP: 3
254 -1 #SUP: 4
263 -1 #SUP: 2
296 -1 #SUP: 2
301 -1 #SUP: 3
325 -1 #SUP: 2
337 -1 #SUP: 2
339 -1 #SUP: 4
371 -1 #SUP: 3
422 -1 #SUP: 2
453 -1 #SUP: 2
458 -1 #SUP: 2
471 -1 #SUP: 2
495 -1 #SUP: 5
589 -1 #SUP: 2
627 -1 #SUP: 5
666 -1 #SUP: 2
678 -1 #SUP: 10
708 -1 #SUP: 2
714 -1 #SUP: 2
718 -1 #SUP: 2
836 -1 #SUP: 4
847 -1 #SUP: 5
856 -1 #SUP: 5
873 -1 #SUP: 2
906 -1 #SUP: 3
927 -1 #SUP: 2
928 -1 #SUP: 2
931 -1 #SUP: 2
1044 -1 #SUP: 2
1135 -1 #SUP: 2
1138 -1 #SUP: 2
1140 -1 #SUP: 3
1198 -1 #SUP: 4
1245 -1 #SUP: 3
1252 -1 #SUP: 2
1277 -1 #SUP: 2
1319 -1 #SUP: 2
1410 -1 #SUP: 2
1412 -1 #SUP: 2
1443 -1 #SUP: 2
1481 -1 #SUP: 3
1750 -1 #SUP: 2
1833 -1 #SUP: 2
1956 -1 #SUP: 2
2171 -1 #SUP: 2
2257 -1 #SUP: 2
2385 -1 #SUP: 2
2526 -1 #SUP: 2
2660 -1 #SUP: 2
2707 -1 #SUP: 2
2863 -1 #SUP: 2
2905 -1 #SUP: 2
3111 -1 #SUP: 2
3510 -1 #SUP: 6
3578 -1 #SUP: 3
4068 -1 #SUP: 2
4576 -1 #SUP: 2
5136 -1 #SUP: 2
5202 -1 #SUP: 2
6763 -1 #SUP: 2
7068 -1 #SUP: 2
10257 -1 #SUP: 2
15649 -1 #SUP: 2
20443 -1 #SUP: 2
3 -1 50 -1 #SUP: 2
3 -1 678 -1 #SUP: 2
3 -1 836 -1 #SUP: 2
4 -1 718 -1 #SUP: 2
4 -1 20443 -1 #SUP: 2
6 -1 17 -1 #SUP: 2
6 -1 18 -1 #SUP: 2
7 -1 50 -1 #SUP: 2
7 -1 836 -1 #SUP: 2
7 -1 847 -1 #SUP: 3
17 -1 50 -1 #SUP: 2
18 -1 17 -1 #SUP: 2
19 -1 19 -1 #SUP: 3
33 -1 50 -1 #SUP: 2
48 -1 3 -1 #SUP: 2
48 -1 50 -1 #SUP: 2
48 -1 254 -1 #SUP: 2
48 -1 856 -1 #SUP: 2
48 -1 3510 -1 #SUP: 2
48 -1 5136 -1 #SUP: 2
50 -1 2 -1 #SUP: 2
50 -1 7 -1 #SUP: 2
50 -1 50 -1 #SUP: 7
50 -1 149 -1 #SUP: 2
50 -1 163 -1 #SUP: 2
50 -1 254 -1 #SUP: 2
50 -1 371 -1 #SUP: 2
50 -1 471 -1 #SUP: 2
50 -1 1245 -1 #SUP: 2
50 -1 1252 -1 #SUP: 2
50 -1 5136 -1 #SUP: 2
50 -1 6763 -1 #SUP: 2
104 -1 107 -1 #SUP: 4
104 -1 856 -1 #SUP: 2
107 -1 107 -1 #SUP: 2
107 -1 856 -1 #SUP: 3
112 -1 50 -1 #SUP: 3
112 -1 104 -1 #SUP: 2
112 -1 107 -1 #SUP: 3
112 -1 856 -1 #SUP: 3
149 -1 50 -1 #SUP: 2
149 -1 339 -1 #SUP: 2
151 -1 3 -1 #SUP: 2
151 -1 836 -1 #SUP: 2
151 -1 2385 -1 #SUP: 2
163 -1 1252 -1 #SUP: 2
247 -1 149 -1 #SUP: 2
247 -1 263 -1 #SUP: 2
254 -1 3 -1 #SUP: 2
254 -1 666 -1 #SUP: 2
301 -1 325 -1 #SUP: 2
337 -1 1198 -1 #SUP: 2
495 -1 7 -1 #SUP: 2
495 -1 151 -1 #SUP: 2
495 -1 247 -1 #SUP: 2
495 -1 263 -1 #SUP: 2
589 -1 4576 -1 #SUP: 2
627 -1 1833 -1 #SUP: 2
666 -1 111 -1 #SUP: 2
678 -1 3 -1 #SUP: 3
678 -1 7 -1 #SUP: 3
678 -1 151 -1 #SUP: 3
678 -1 247 -1 #SUP: 2
678 -1 458 -1 #SUP: 2
678 -1 495 -1 #SUP: 3
678 -1 678 -1 #SUP: 3
678 -1 836 -1 #SUP: 2
718 -1 20443 -1 #SUP: 2
836 -1 1481 -1 #SUP: 2
847 -1 254 -1 #SUP: 2
847 -1 458 -1 #SUP: 2
847 -1 678 -1 #SUP: 2
906 -1 4 -1 #SUP: 2
906 -1 718 -1 #SUP: 2
906 -1 20443 -1 #SUP: 2
1135 -1 1833 -1 #SUP: 2
1140 -1 589 -1 #SUP: 2
1140 -1 1443 -1 #SUP: 2
1140 -1 1750 -1 #SUP: 2
1140 -1 2171 -1 #SUP: 2
1140 -1 2660 -1 #SUP: 2
1140 -1 2707 -1 #SUP: 2
1140 -1 3578 -1 #SUP: 3
1140 -1 4576 -1 #SUP: 2
1198 -1 1198 -1 #SUP: 3
1245 -1 163 -1 #SUP: 2
1245 -1 1252 -1 #SUP: 2
1412 -1 48 -1 #SUP: 2
1443 -1 589 -1 #SUP: 2
1443 -1 2171 -1 #SUP: 2
1443 -1 2660 -1 #SUP: 2
1443 -1 4576 -1 #SUP: 2
1481 -1 847 -1 #SUP: 2
1750 -1 589 -1 #SUP: 2
1750 -1 1443 -1 #SUP: 2
1750 -1 2171 -1 #SUP: 2
1750 -1 2660 -1 #SUP: 2
1750 -1 2707 -1 #SUP: 2
1750 -1 4576 -1 #SUP: 2
1956 -1 50 -1 #SUP: 2
1956 -1 10257 -1 #SUP: 2
2171 -1 589 -1 #SUP: 2
2171 -1 4576 -1 #SUP: 2
2257 -1 847 -1 #SUP: 2
2257 -1 1481 -1 #SUP: 2
2660 -1 589 -1 #SUP: 2
2660 -1 2171 -1 #SUP: 2
2660 -1 4576 -1 #SUP: 2
2707 -1 589 -1 #SUP: 2
2707 -1 1443 -1 #SUP: 2
2707 -1 2171 -1 #SUP: 2
2707 -1 2660 -1 #SUP: 2
2707 -1 4576 -1 #SUP: 2
2863 -1 50 -1 #SUP: 2
3510 -1 50 -1 #SUP: 2
3510 -1 107 -1 #SUP: 2
3510 -1 627 -1 #SUP: 2
3510 -1 1135 -1 #SUP: 2
3510 -1 2863 -1 #SUP: 2
3578 -1 589 -1 #SUP: 2
3578 -1 1443 -1 #SUP: 2
3578 -1 1750 -1 #SUP: 2
3578 -1 2171 -1 #SUP: 2
3578 -1 2660 -1 #SUP: 2
3578 -1 2707 -1 #SUP: 2
3578 -1 4576 -1 #SUP: 2
5202 -1 453 -1 #SUP: 2
5202 -1 15649 -1 #SUP: 2
6763 -1 50 -1 #SUP: 2
10257 -1 50 -1 #SUP: 2
15649 -1 453 -1 #SUP: 2
4 -1 718 -1 20443 -1 #SUP: 2
6 -1 18 -1 17 -1 #SUP: 2
19 -1 19 -1 19 -1 #SUP: 3
48 -1 254 -1 3 -1 #SUP: 2
50 -1 50 -1 50 -1 #SUP: 4
50 -1 163 -1 1252 -1 #SUP: 2
50 -1 1245 -1 163 -1 #SUP: 2
50 -1 1245 -1 1252 -1 #SUP: 2
50 -1 6763 -1 50 -1 #SUP: 2
104 -1 107 -1 107 -1 #SUP: 2
104 -1 107 -1 856 -1 #SUP: 2
112 -1 104 -1 107 -1 #SUP: 2
112 -1 107 -1 856 -1 #SUP: 2
149 -1 50 -1 50 -1 #SUP: 2
337 -1 1198 -1 1198 -1 #SUP: 2
495 -1 247 -1 263 -1 #SUP: 2
678 -1 151 -1 3 -1 #SUP: 2
678 -1 495 -1 7 -1 #SUP: 2
678 -1 678 -1 678 -1 #SUP: 2
847 -1 678 -1 458 -1 #SUP: 2
906 -1 4 -1 718 -1 #SUP: 2
906 -1 4 -1 20443 -1 #SUP: 2
906 -1 718 -1 20443 -1 #SUP: 2
1140 -1 589 -1 4576 -1 #SUP: 2
1140 -1 1443 -1 589 -1 #SUP: 2
1140 -1 1443 -1 2171 -1 #SUP: 2
1140 -1 1443 -1 2660 -1 #SUP: 2
1140 -1 1443 -1 4576 -1 #SUP: 2
1140 -1 1750 -1 589 -1 #SUP: 2
1140 -1 1750 -1 1443 -1 #SUP: 2
1140 -1 1750 -1 2171 -1 #SUP: 2
1140 -1 1750 -1 2660 -1 #SUP: 2
1140 -1 1750 -1 2707 -1 #SUP: 2
1140 -1 1750 -1 4576 -1 #SUP: 2
1140 -1 2171 -1 589 -1 #SUP: 2
1140 -1 2171 -1 4576 -1 #SUP: 2
1140 -1 2660 -1 589 -1 #SUP: 2
1140 -1 2660 -1 2171 -1 #SUP: 2
1140 -1 2660 -1 4576 -1 #SUP: 2
1140 -1 2707 -1 589 -1 #SUP: 2
1140 -1 2707 -1 1443 -1 #SUP: 2
1140 -1 2707 -1 2171 -1 #SUP: 2
1140 -1 2707 -1 2660 -1 #SUP: 2
1140 -1 2707 -1 4576 -1 #SUP: 2
1140 -1 3578 -1 589 -1 #SUP: 2
1140 -1 3578 -1 1443 -1 #SUP: 2
1140 -1 3578 -1 1750 -1 #SUP: 2
1140 -1 3578 -1 2171 -1 #SUP: 2
1140 -1 3578 -1 2660 -1 #SUP: 2
1140 -1 3578 -1 2707 -1 #SUP: 2
1140 -1 3578 -1 4576 -1 #SUP: 2
1198 -1 1198 -1 1198 -1 #SUP: 2
1245 -1 163 -1 1252 -1 #SUP: 2
1443 -1 589 -1 4576 -1 #SUP: 2
1443 -1 2171 -1 589 -1 #SUP: 2
1443 -1 2171 -1 4576 -1 #SUP: 2
1443 -1 2660 -1 589 -1 #SUP: 2
1443 -1 2660 -1 2171 -1 #SUP: 2
1443 -1 2660 -1 4576 -1 #SUP: 2
1750 -1 589 -1 4576 -1 #SUP: 2
1750 -1 1443 -1 589 -1 #SUP: 2
1750 -1 1443 -1 2171 -1 #SUP: 2
1750 -1 1443 -1 2660 -1 #SUP: 2
1750 -1 1443 -1 4576 -1 #SUP: 2
1750 -1 2171 -1 589 -1 #SUP: 2
1750 -1 2171 -1 4576 -1 #SUP: 2
1750 -1 2660 -1 589 -1 #SUP: 2
1750 -1 2660 -1 2171 -1 #SUP: 2
1750 -1 2660 -1 4576 -1 #SUP: 2
1750 -1 2707 -1 589 -1 #SUP: 2
1750 -1 2707 -1 1443 -1 #SUP: 2
1750 -1 2707 -1 2171 -1 #SUP: 2
1750 -1 2707 -1 2660 -1 #SUP: 2
1750 -1 2707 -1 4576 -1 #SUP: 2
1956 -1 10257 -1 50 -1 #SUP: 2
2171 -1 589 -1 4576 -1 #SUP: 2
2257 -1 1481 -1 847 -1 #SUP: 2
2660 -1 589 -1 4576 -1 #SUP: 2
2660 -1 2171 -1 589 -1 #SUP: 2
2660 -1 2171 -1 4576 -1 #SUP: 2
2707 -1 589 -1 4576 -1 #SUP: 2
2707 -1 1443 -1 589 -1 #SUP: 2
2707 -1 1443 -1 2171 -1 #SUP: 2
2707 -1 1443 -1 2660 -1 #SUP: 2
2707 -1 1443 -1 4576 -1 #SUP: 2
2707 -1 2171 -1 589 -1 #SUP: 2
2707 -1 2171 -1 4576 -1 #SUP: 2
2707 -1 2660 -1 589 -1 #SUP: 2
2707 -1 2660 -1 2171 -1 #SUP: 2
2707 -1 2660 -1 4576 -1 #SUP: 2
3578 -1 589 -1 4576 -1 #SUP: 2
3578 -1 1443 -1 589 -1 #SUP: 2
3578 -1 1443 -1 2171 -1 #SUP: 2
3578 -1 1443 -1 2660 -1 #SUP: 2
3578 -1 1443 -1 4576 -1 #SUP: 2
3578 -1 1750 -1 589 -1 #SUP: 2
3578 -1 1750 -1 1443 -1 #SUP: 2
3578 -1 1750 -1 2171 -1 #SUP: 2
3578 -1 1750 -1 2660 -1 #SUP: 2
3578 -1 1750 -1 2707 -1 #SUP: 2
3578 -1 1750 -1 4576 -1 #SUP: 2
3578 -1 2171 -1 589 -1 #SUP: 2
3578 -1 2171 -1 4576 -1 #SUP: 2
3578 -1 2660 -1 589 -1 #SUP: 2
3578 -1 2660 -1 2171 -1 #SUP: 2
3578 -1 2660 -1 4576 -1 #SUP: 2
3578 -1 2707 -1 589 -1 #SUP: 2
3578 -1 2707 -1 1443 -1 #SUP: 2
3578 -1 2707 -1 2171 -1 #SUP: 2
3578 -1 2707 -1 2660 -1 #SUP: 2
3578 -1 2707 -1 4576 -1 #SUP: 2
5202 -1 15649 -1 453 -1 #SUP: 2
19 -1 19 -1 19 -1 19 -1 #SUP: 2
50 -1 1245 -1 163 -1 1252 -1 #SUP: 2
337 -1 1198 -1 1198 -1 1198 -1 #SUP: 2
906 -1 4 -1 718 -1 20443 -1 #SUP: 2
1140 -1 1443 -1 589 -1 4576 -1 #SUP: 2
1140 -1 1443 -1 2171 -1 589 -1 #SUP: 2
1140 -1 1443 -1 2171 -1 4576 -1 #SUP: 2
1140 -1 1443 -1 2660 -1 589 -1 #SUP: 2
1140 -1 1443 -1 2660 -1 2171 -1 #SUP: 2
1140 -1 1443 -1 2660 -1 4576 -1 #SUP: 2
1140 -1 1750 -1 589 -1 4576 -1 #SUP: 2
1140 -1 1750 -1 1443 -1 589 -1 #SUP: 2
1140 -1 1750 -1 1443 -1 2171 -1 #SUP: 2
1140 -1 1750 -1 1443 -1 2660 -1 #SUP: 2
1140 -1 1750 -1 1443 -1 4576 -1 #SUP: 2
1140 -1 1750 -1 2171 -1 589 -1 #SUP: 2
1140 -1 1750 -1 2171 -1 4576 -1 #SUP: 2
1140 -1 1750 -1 2660 -1 589 -1 #SUP: 2
1140 -1 1750 -1 2660 -1 2171 -1 #SUP: 2
1140 -1 1750 -1 2660 -1 4576 -1 #SUP: 2
1140 -1 1750 -1 2707 -1 589 -1 #SUP: 2
1140 -1 1750 -1 2707 -1 1443 -1 #SUP: 2
1140 -1 1750 -1 2707 -1 2171 -1 #SUP: 2
1140 -1 1750 -1 2707 -1 2660 -1 #SUP: 2
1140 -1 1750 -1 2707 -1 4576 -1 #SUP: 2
1140 -1 2171 -1 589 -1 4576 -1 #SUP: 2
1140 -1 2660 -1 589 -1 4576 -1 #SUP: 2
1140 -1 2660 -1 2171 -1 589 -1 #SUP: 2
1140 -1 2660 -1 2171 -1 4576 -1 #SUP: 2
1140 -1 2707 -1 589 -1 4576 -1 #SUP: 2
1140 -1 2707 -1 1443 -1 589 -1 #SUP: 2
1140 -1 2707 -1 1443 -1 2171 -1 #SUP: 2
1140 -1 2707 -1 1443 -1 2660 -1 #SUP: 2
1140 -1 2707 -1 1443 -1 4576 -1 #SUP: 2
1140 -1 2707 -1 2171 -1 589 -1 #SUP: 2
1140 -1 2707 -1 2171 -1 4576 -1 #SUP: 2
1140 -1 2707 -1 2660 -1 589 -1 #SUP: 2
1140 -1 2707 -1 2660 -1 2171 -1 #SUP: 2
1140 -1 2707 -1 2660 -1 4576 -1 #SUP: 2
1140 -1 3578 -1 589 -1 4576 -1 #SUP: 2
1140 -1 3578 -1 1443 -1 589 -1 #SUP: 2
1140 -1 3578 -1 1443 -1 2171 -1 #SUP: 2
1140 -1 3578 -1 1443 -1 2660 -1 #SUP: 2
1140 -1 3578 -1 1443 -1 4576 -1 #SUP: 2
1140 -1 3578 -1 1750 -1 589 -1 #SUP: 2
1140 -1 3578 -1 1750 -1 1443 -1 #SUP: 2
1140 -1 3578 -1 1750 -1 2171 -1 #SUP: 2
1140 -1 3578 -1 1750 -1 2660 -1 #SUP: 2
1140 -1 3578 -1 1750 -1 2707 -1 #SUP: 2
1140 -1 3578 -1 1750 -1 4576 -1 #SUP: 2
1140 -1 3578 -1 2171 -1 589 -1 #SUP: 2
1140 -1 3578 -1 2171 -1 4576 -1 #SUP: 2
1140 -1 3578 -1 2660 -1 589 -1 #SUP: 2
1140 -1 3578 -1 2660 -1 2171 -1 #SUP: 2
1140 -1 3578 -1 2660 -1 4576 -1 #SUP: 2
1140 -1 3578 -1 2707 -1 589 -1 #SUP: 2
1140 -1 3578 -1 2707 -1 1443 -1 #SUP: 2
1140 -1 3578 -1 2707 -1 2171 -1 #SUP: 2
1140 -1 3578 -1 2707 -1 2660 -1 #SUP: 2
1140 -1 3578 -1 2707 -1 4576 -1 #SUP: 2
1443 -1 2171 -1 589 -1 4576 -1 #SUP: 2
1443 -1 2660 -1 589 -1 4576 -1 #SUP: 2
1443 -1 2660 -1 2171 -1 589 -1 #SUP: 2
1443 -1 2660 -1 2171 -1 4576 -1 #SUP: 2
1750 -1 1443 -1 589 -1 4576 -1 #SUP: 2
1750 -1 1443 -1 2171 -1 589 -1 #SUP: 2
1750 -1 1443 -1 2171 -1 4576 -1 #SUP: 2
1750 -1 1443 -1 2660 -1 589 -1 #SUP: 2
1750 -1 1443 -1 2660 -1 2171 -1 #SUP: 2
1750 -1 1443 -1 2660 -1 4576 -1 #SUP: 2
1750 -1 2171 -1 589 -1 4576 -1 #SUP: 2
1750 -1 2660 -1 589 -1 4576 -1 #SUP: 2
1750 -1 2660 -1 2171 -1 589 -1 #SUP: 2
1750 -1 2660 -1 2171 -1 4576 -1 #SUP: 2
1750 -1 2707 -1 589 -1 4576 -1 #SUP: 2
1750 -1 2707 -1 1443 -1 589 -1 #SUP: 2
1750 -1 2707 -1 1443 -1 2171 -1 #SUP: 2
1750 -1 2707 -1 1443 -1 2660 -1 #SUP: 2
1750 -1 2707 -1 1443 -1 4576 -1 #SUP: 2
1750 -1 2707 -1 2171 -1 589 -1 #SUP: 2
1750 -1 2707 -1 2171 -1 4576 -1 #SUP: 2
1750 -1 2707 -1 2660 -1 589 -1 #SUP: 2
1750 -1 2707 -1 2660 -1 2171 -1 #SUP: 2
1750 -1 2707 -1 2660 -1 4576 -1 #SUP: 2
2660 -1 2171 -1 589 -1 4576 -1 #SUP: 2
2707 -1 1443 -1 589 -1 4576 -1 #SUP: 2
2707 -1 1443 -1 2171 -1 589 -1 #SUP: 2
2707 -1 1443 -1 2171 -1 4576 -1 #SUP: 2
2707 -1 1443 -1 2660 -1 589 -1 #SUP: 2
2707 -1 1443 -1 2660 -1 2171 -1 #SUP: 2
2707 -1 1443 -1 2660 -1 4576 -1 #SUP: 2
2707 -1 2171 -1 589 -1 4576 -1 #SUP: 2
2707 -1 2660 -1 589 -1 4576 -1 #SUP: 2
2707 -1 2660 -1 2171 -1 589 -1 #SUP: 2
2707 -1 2660 -1 2171 -1 4576 -1 #SUP: 2
3578 -1 1443 -1 589 -1 4576 -1 #SUP: 2
3578 -1 1443 -1 2171 -1 589 -1 #SUP: 2
3578 -1 1443 -1 2171 -1 4576 -1 #SUP: 2
3578 -1 1443 -1 2660 -1 589 -1 #SUP: 2
3578 -1 1443 -1 2660 -1 2171 -1 #SUP: 2
3578 -1 1443 -1 2660 -1 4576 -1 #SUP: 2
3578 -1 1750 -1 589 -1 4576 -1 #SUP: 2
3578 -1 1750 -1 1443 -1 589 -1 #SUP: 2
3578 -1 1750 -1 1443 -1 2171 -1 #SUP: 2
3578 -1 1750 -1 1443 -1 2660 -1 #SUP: 2
3578 -1 1750 -1 1443 -1 4576 -1 #SUP: 2
3578 -1 1750 -1 2171 -1 589 -1 #SUP: 2
3578 -1 1750 -1 2171 -1 4576 -1 #SUP: 2
3578 -1 1750 -1 2660 -1 589 -1 #SUP: 2
3578 -1 1750 -1 2660 -1 2171 -1 #SUP: 2
3578 -1 1750 -1 2660 -1 4576 -1 #SUP: 2
3578 -1 1750 -1 2707 -1 589 -1 #SUP: 2
3578 -1 1750 -1 2707 -1 1443 -1 #SUP: 2
3578 -1 1750 -1 2707 -1 2171 -1 #SUP: 2
3578 -1 1750 -1 2707 -1 2660 -1 #SUP: 2
3578 -1 1750 -1 2707 -1 4576 -1 #SUP: 2
3578 -1 2171 -1 589 -1 4576 -1 #SUP: 2
3578 -1 2660 -1 589 -1 4576 -1 #SUP: 2
3578 -1 2660 -1 2171 -1 589 -1 #SUP: 2
3578 -1 2660 -1 2171 -1 4576 -1 #SUP: 2
3578 -1 2707 -1 589 -1 4576 -1 #SUP: 2
3578 -1 2707 -1 1443 -1 589 -1 #SUP: 2
3578 -1 2707 -1 1443 -1 2171 -1 #SUP: 2
3578 -1 2707 -1 1443 -1 2660 -1 #SUP: 2
3578 -1 2707 -1 1443 -1 4576 -1 #SUP: 2
3578 -1 2707 -1 2171 -1 589 -1 #SUP: 2
3578 -1 2707 -1 2171 -1 4576 -1 #SUP: 2
3578 -1 2707 -1 2660 -1 589 -1 #SUP: 2
3578 -1 2707 -1 2660 -1 2171 -1 #SUP: 2
3578 -1 2707 -1 2660 -1 4576 -1 #SUP: 2
1140 -1 1443 -1 2171 -1 589 -1 4576 -1 #SUP: 2
1140 -1 1443 -1 2660 -1 589 -1 4576 -1 #SUP: 2
1140 -1 1443 -1 2660 -1 2171 -1 589 -1 #SUP: 2
1140 -1 1443 -1 2660 -1 2171 -1 4576 -1 #SUP: 2
1140 -1 1750 -1 1443 -1 589 -1 4576 -1 #SUP: 2
1140 -1 1750 -1 1443 -1 2171 -1 589 -1 #SUP: 2
1140 -1 1750 -1 1443 -1 2171 -1 4576 -1 #SUP: 2
1140 -1 1750 -1 1443 -1 2660 -1 589 -1 #SUP: 2
1140 -1 1750 -1 1443 -1 2660 -1 2171 -1 #SUP: 2
1140 -1 1750 -1 1443 -1 2660 -1 4576 -1 #SUP: 2
1140 -1 1750 -1 2171 -1 589 -1 4576 -1 #SUP: 2
1140 -1 1750 -1 2660 -1 589 -1 4576 -1 #SUP: 2
1140 -1 1750 -1 2660 -1 2171 -1 589 -1 #SUP: 2
1140 -1 1750 -1 2660 -1 2171 -1 4576 -1 #SUP: 2
1140 -1 1750 -1 2707 -1 589 -1 4576 -1 #SUP: 2
1140 -1 1750 -1 2707 -1 1443 -1 589 -1 #SUP: 2
1140 -1 1750 -1 2707 -1 1443 -1 2171 -1 #SUP: 2
1140 -1 1750 -1 2707 -1 1443 -1 2660 -1 #SUP: 2
1140 -1 1750 -1 2707 -1 1443 -1 4576 -1 #SUP: 2
1140 -1 1750 -1 2707 -1 2171 -1 589 -1 #SUP: 2
1140 -1 1750 -1 2707 -1 2171 -1 4576 -1 #SUP: 2
1140 -1 1750 -1 2707 -1 2660 -1 589 -1 #SUP: 2
1140 -1 1750 -1 2707 -1 2660 -1 2171 -1 #SUP: 2
1140 -1 1750 -1 2707 -1 2660 -1 4576 -1 #SUP: 2
1140 -1 2660 -1 2171 -1 589 -1 4576 -1 #SUP: 2
1140 -1 2707 -1 1443 -1 589 -1 4576 -1 #SUP: 2
1140 -1 2707 -1 1443 -1 2171 -1 589 -1 #SUP: 2
1140 -1 2707 -1 1443 -1 2171 -1 4576 -1 #SUP: 2
1140 -1 2707 -1 1443 -1 2660 -1 589 -1 #SUP: 2
1140 -1 2707 -1 1443 -1 2660 -1 2171 -1 #SUP: 2
1140 -1 2707 -1 1443 -1 2660 -1 4576 -1 #SUP: 2
1140 -1 2707 -1 2171 -1 589 -1 4576 -1 #SUP: 2
1140 -1 2707 -1 2660 -1 589 -1 4576 -1 #SUP: 2
1140 -1 2707 -1 2660 -1 2171 -1 589 -1 #SUP: 2
1140 -1 2707 -1 2660 -1 2171 -1 4576 -1 #SUP: 2
1140 -1 3578 -1 1443 -1 589 -1 4576 -1 #SUP: 2
1140 -1 3578 -1 1443 -1 2171 -1 589 -1 #SUP: 2
1140 -1 3578 -1 1443 -1 2171 -1 4576 -1 #SUP: 2
1140 -1 3578 -1 1443 -1 2660 -1 589 -1 #SUP: 2
1140 -1 3578 -1 1443 -1 2660 -1 2171 -1 #SUP: 2
1140 -1 3578 -1 1443 -1 2660 -1 4576 -1 #SUP: 2
1140 -1 3578 -1 1750 -1 589 -1 4576 -1 #SUP: 2
1140 -1 3578 -1 1750 -1 1443 -1 589 -1 #SUP: 2
1140 -1 3578 -1 1750 -1 1443 -1 2171 -1 #SUP: 2
1140 -1 3578 -1 1750 -1 1443 -1 2660 -1 #SUP: 2
1140 -1 3578 -1 1750 -1 1443 -1 4576 -1 #SUP: 2
1140 -1 3578 -1 1750 -1 2171 -1 589 -1 #SUP: 2
1140 -1 3578 -1 1750 -1 2171 -1 4576 -1 #SUP: 2
1140 -1 3578 -1 1750 -1 2660 -1 589 -1 #SUP: 2
1140 -1 3578 -1 1750 -1 2660 -1 2171 -1 #SUP: 2
1140 -1 3578 -1 1750 -1 2660 -1 4576 -1 #SUP: 2
1140 -1 3578 -1 1750 -1 2707 -1 589 -1 #SUP: 2
1140 -1 3578 -1 1750 -1 2707 -1 1443 -1 #SUP: 2
1140 -1 3578 -1 1750 -1 2707 -1 2171 -1 #SUP: 2
1140 -1 3578 -1 1750 -1 2707 -1 2660 -1 #SUP: 2
1140 -1 3578 -1 1750 -1 2707 -1 4576 -1 #SUP: 2
1140 -1 3578 -1 2171 -1 589 -1 4576 -1 #SUP: 2
1140 -1 3578 -1 2660 -1 589 -1 4576 -1 #SUP: 2
1140 -1 3578 -1 2660 -1 2171 -1 589 -1 #SUP: 2
1140 -1 3578 -1 2660 -1 2171 -1 4576 -1 #SUP: 2
1140 -1 3578 -1 2707 -1 589 -1 4576 -1 #SUP: 2
1140 -1 3578 -1 2707 -1 1443 -1 589 -1 #SUP: 2
1140 -1 3578 -1 2707 -1 1443 -1 2171 -1 #SUP: 2
1140 -1 3578 -1 2707 -1 1443 -1 2660 -1 #SUP: 2
1140 -1 3578 -1 2707 -1 1443 -1 4576 -1 #SUP: 2
1140 -1 3578 -1 2707 -1 2171 -1 589 -1 #SUP: 2
1140 -1 3578 -1 2707 -1 2171 -1 4576 -1 #SUP: 2
1140 -1 3578 -1 2707 -1 2660 -1 589 -1 #SUP: 2
1140 -1 3578 -1 2707 -1 2660 -1 2171 -1 #SUP: 2
1140 -1 3578 -1 2707 -1 2660 -1 4576 -1 #SUP: 2
1443 -1 2660 -1 2171 -1 589 -1 4576 -1 #SUP: 2
1750 -1 1443 -1 2171 -1 589 -1 4576 -1 #SUP: 2
1750 -1 1443 -1 2660 -1 589 -1 4576 -1 #SUP: 2
1750 -1 1443 -1 2660 -1 2171 -1 589 -1 #SUP: 2
1750 -1 1443 -1 2660 -1 2171 -1 4576 -1 #SUP: 2
1750 -1 2660 -1 2171 -1 589 -1 4576 -1 #SUP: 2
1750 -1 2707 -1 1443 -1 589 -1 4576 -1 #SUP: 2
1750 -1 2707 -1 1443 -1 2171 -1 589 -1 #SUP: 2
1750 -1 2707 -1 1443 -1 2171 -1 4576 -1 #SUP: 2
1750 -1 2707 -1 1443 -1 2660 -1 589 -1 #SUP: 2
1750 -1 2707 -1 1443 -1 2660 -1 2171 -1 #SUP: 2
1750 -1 2707 -1 1443 -1 2660 -1 4576 -1 #SUP: 2
1750 -1 2707 -1 2171 -1 589 -1 4576 -1 #SUP: 2
1750 -1 2707 -1 2660 -1 589 -1 4576 -1 #SUP: 2
1750 -1 2707 -1 2660 -1 2171 -1 589 -1 #SUP: 2
1750 -1 2707 -1 2660 -1 2171 -1 4576 -1 #SUP: 2
2707 -1 1443 -1 2171 -1 589 -1 4576 -1 #SUP: 2
2707 -1 1443 -1 2660 -1 589 -1 4576 -1 #SUP: 2
2707 -1 1443 -1 2660 -1 2171 -1 589 -1 #SUP: 2
2707 -1 1443 -1 2660 -1 2171 -1 4576 -1 #SUP: 2
2707 -1 2660 -1 2171 -1 589 -1 4576 -1 #SUP: 2
3578 -1 1443 -1 2171 -1 589 -1 4576 -1 #SUP: 2
3578 -1 1443 -1 2660 -1 589 -1 4576 -1 #SUP: 2
3578 -1 1443 -1 2660 -1 2171 -1 589 -1 #SUP: 2
3578 -1 1443 -1 2660 -1 2171 -1 4576 -1 #SUP: 2
3578 -1 1750 -1 1443 -1 589 -1 4576 -1 #SUP: 2
3578 -1 1750 -1 1443 -1 2171 -1 589 -1 #SUP: 2
3578 -1 1750 -1 1443 -1 2171 -1 4576 -1 #SUP: 2
3578 -1 1750 -1 1443 -1 2660 -1 589 -1 #SUP: 2
3578 -1 1750 -1 1443 -1 2660 -1 2171 -1 #SUP: 2
3578 -1 1750 -1 1443 -1 2660 -1 4576 -1 #SUP: 2
3578 -1 1750 -1 2171 -1 589 -1 4576 -1 #SUP: 2
3578 -1 1750 -1 2660 -1 589 -1 4576 -1 #SUP: 2
3578 -1 1750 -1 2660 -1 2171 -1 589 -1 #SUP: 2
3578 -1 1750 -1 2660 -1 2171 -1 4576 -1 #SUP: 2
3578 -1 1750 -1 2707 -1 589 -1 4576 -1 #SUP: 2
3578 -1 1750 -1 2707 -1 1443 -1 589 -1 #SUP: 2
3578 -1 1750 -1 2707 -1 1443 -1 2171 -1 #SUP: 2
3578 -1 1750 -1 2707 -1 1443 -1 2660 -1 #SUP: 2
3578 -1 1750 -1 2707 -1 1443 -1 4576 -1 #SUP: 2
3578 -1 1750 -1 2707 -1 2171 -1 589 -1 #SUP: 2
3578 -1 1750 -1 2707 -1 2171 -1 4576 -1 #SUP: 2
3578 -1 1750 -1 2707 -1 2660 -1 589 -1 #SUP: 2
3578 -1 1750 -1 2707 -1 2660 -1 2171 -1 #SUP: 2
3578 -1 1750 -1 2707 -1 2660 -1 4576 -1 #SUP: 2
3578 -1 2660 -1 2171 -1 589 -1 4576 -1 #SUP: 2
3578 -1 2707 -1 1443 -1 589 -1 4576 -1 #SUP: 2
3578 -1 2707 -1 1443 -1 2171 -1 589 -1 #SUP: 2
3578 -1 2707 -1 1443 -1 2171 -1 4576 -1 #SUP: 2
3578 -1 2707 -1 1443 -1 2660 -1 589 -1 #SUP: 2
3578 -1 2707 -1 1443 -1 2660 -1 2171 -1 #SUP: 2
3578 -1 2707 -1 1443 -1 2660 -1 4576 -1 #SUP: 2
3578 -1 2707 -1 2171 -1 589 -1 4576 -1 #SUP: 2
3578 -1 2707 -1 2660 -1 589 -1 4576 -1 #SUP: 2
3578 -1 2707 -1 2660 -1 2171 -1 589 -1 #SUP: 2
3578 -1 2707 -1 2660 -1 2171 -1 4576 -1 #SUP: 2
1140 -1 1443 -1 2660 -1 2171 -1 589 -1 4576 -1 #SUP: 2
1140 -1 1750 -1 1443 -1 2171 -1 589 -1 4576 -1 #SUP: 2
1140 -1 1750 -1 1443 -1 2660 -1 589 -1 4576 -1 #SUP: 2
1140 -1 1750 -1 1443 -1 2660 -1 2171 -1 589 -1 #SUP: 2
1140 -1 1750 -1 1443 -1 2660 -1 2171 -1 4576 -1 #SUP: 2
1140 -1 1750 -1 2660 -1 2171 -1 589 -1 4576 -1 #SUP: 2
1140 -1 1750 -1 2707 -1 1443 -1 589 -1 4576 -1 #SUP: 2
1140 -1 1750 -1 2707 -1 1443 -1 2171 -1 589 -1 #SUP: 2
1140 -1 1750 -1 2707 -1 1443 -1 2171 -1 4576 -1 #SUP: 2
1140 -1 1750 -1 2707 -1 1443 -1 2660 -1 589 -1 #SUP: 2
1140 -1 1750 -1 2707 -1 1443 -1 2660 -1 2171 -1 #SUP: 2
1140 -1 1750 -1 2707 -1 1443 -1 2660 -1 4576 -1 #SUP: 2
1140 -1 1750 -1 2707 -1 2171 -1 589 -1 4576 -1 #SUP: 2
1140 -1 1750 -1 2707 -1 2660 -1 589 -1 4576 -1 #SUP: 2
1140 -1 1750 -1 2707 -1 2660 -1 2171 -1 589 -1 #SUP: 2
1140 -1 1750 -1 2707 -1 2660 -1 2171 -1 4576 -1 #SUP: 2
1140 -1 2707 -1 1443 -1 2171 -1 589 -1 4576 -1 #SUP: 2
1140 -1 2707 -1 1443 -1 2660 -1 589 -1 4576 -1 #SUP: 2
1140 -1 2707 -1 1443 -1 2660 -1 2171 -1 589 -1 #SUP: 2
1140 -1 2707 -1 1443 -1 2660 -1 2171 -1 4576 -1 #SUP: 2
1140 -1 2707 -1 2660 -1 2171 -1 589 -1 4576 -1 #SUP: 2
1140 -1 3578 -1 1443 -1 2171 -1 589 -1 4576 -1 #SUP: 2
1140 -1 3578 -1 1443 -1 2660 -1 589 -1 4576 -1 #SUP: 2
1140 -1 3578 -1 1443 -1 2660 -1 2171 -1 589 -1 #SUP: 2
1140 -1 3578 -1 1443 -1 2660 -1 2171 -1 4576 -1 #SUP: 2
1140 -1 3578 -1 1750 -1 1443 -1 589 -1 4576 -1 #SUP: 2
1140 -1 3578 -1 1750 -1 1443 -1 2171 -1 589 -1 #SUP: 2
1140 -1 3578 -1 1750 -1 1443 -1 2171 -1 4576 -1 #SUP: 2
1140 -1 3578 -1 1750 -1 1443 -1 2660 -1 589 -1 #SUP: 2
1140 -1 3578 -1 1750 -1 1443 -1 2660 -1 2171 -1 #SUP: 2
1140 -1 3578 -1 1750 -1 1443 -1 2660 -1 4576 -1 #SUP: 2
1140 -1 3578 -1 1750 -1 2171 -1 589 -1 4576 -1 #SUP: 2
1140 -1 3578 -1 1750 -1 2660 -1 589 -1 4576 -1 #SUP: 2
1140 -1 3578 -1 1750 -1 2660 -1 2171 -1 589 -1 #SUP: 2
1140 -1 3578 -1 1750 -1 2660 -1 2171 -1 4576 -1 #SUP: 2
1140 -1 3578 -1 1750 -1 2707 -1 589 -1 4576 -1 #SUP: 2
1140 -1 3578 -1 1750 -1 2707 -1 1443 -1 589 -1 #SUP: 2
1140 -1 3578 -1 1750 -1 2707 -1 1443 -1 2171 -1 #SUP: 2
1140 -1 3578 -1 1750 -1 2707 -1 1443 -1 2660 -1 #SUP: 2
1140 -1 3578 -1 1750 -1 2707 -1 1443 -1 4576 -1 #SUP: 2
1140 -1 3578 -1 1750 -1 2707 -1 2171 -1 589 -1 #SUP: 2
1140 -1 3578 -1 1750 -1 2707 -1 2171 -1 4576 -1 #SUP: 2
1140 -1 3578 -1 1750 -1 2707 -1 2660 -1 589 -1 #SUP: 2
1140 -1 3578 -1 1750 -1 2707 -1 2660 -1 2171 -1 #SUP: 2
1140 -1 3578 -1 1750 -1 2707 -1 2660 -1 4576 -1 #SUP: 2
1140 -1 3578 -1 2660 -1 2171 -1 589 -1 4576 -1 #SUP: 2
1140 -1 3578 -1 2707 -1 1443 -1 589 -1 4576 -1 #SUP: 2
1140 -1 3578 -1 2707 -1 1443 -1 2171 -1 589 -1 #SUP: 2
1140 -1 3578 -1 2707 -1 1443 -1 2171 -1 4576 -1 #SUP: 2
1140 -1 3578 -1 2707 -1 1443 -1 2660 -1 589 -1 #SUP: 2
1140 -1 3578 -1 2707 -1 1443 -1 2660 -1 2171 -1 #SUP: 2
1140 -1 3578 -1 2707 -1 1443 -1 2660 -1 4576 -1 #SUP: 2
1140 -1 3578 -1 2707 -1 2171 -1 589 -1 4576 -1 #SUP: 2
1140 -1 3578 -1 2707 -1 2660 -1 589 -1 4576 -1 #SUP: 2
1140 -1 3578 -1 2707 -1 2660 -1 2171 -1 589 -1 #SUP: 2
1140 -1 3578 -1 2707 -1 2660 -1 2171 -1 4576 -1 #SUP: 2
1750 -1 1443 -1 2660 -1 2171 -1 589 -1 4576 -1 #SUP: 2
1750 -1 2707 -1 1443 -1 2171 -1 589 -1 4576 -1 #SUP: 2
1750 -1 2707 -1 1443 -1 2660 -1 589 -1 4576 -1 #SUP: 2
1750 -1 2707 -1 1443 -1 2660 -1 2171 -1 589 -1 #SUP: 2
1750 -1 2707 -1 1443 -1 2660 -1 2171 -1 4576 -1 #SUP: 2
1750 -1 2707 -1 2660 -1 2171 -1 589 -1 4576 -1 #SUP: 2
2707 -1 1443 -1 2660 -1 2171 -1 589 -1 4576 -1 #SUP: 2
3578 -1 1443 -1 2660 -1 2171 -1 589 -1 4576 -1 #SUP: 2
3578 -1 1750 -1 1443 -1 2171 -1 589 -1 4576 -1 #SUP: 2
3578 -1 1750 -1 1443 -1 2660 -1 589 -1 4576 -1 #SUP: 2
3578 -1 1750 -1 1443 -1 2660 -1 2171 -1 589 -1 #SUP: 2
3578 -1 1750 -1 1443 -1 2660 -1 2171 -1 4576 -1 #SUP: 2
3578 -1 1750 -1 2660 -1 2171 -1 589 -1 4576 -1 #SUP: 2
3578 -1 1750 -1 2707 -1 1443 -1 589 -1 4576 -1 #SUP: 2
3578 -1 1750 -1 2707 -1 1443 -1 2171 -1 589 -1 #SUP: 2
3578 -1 1750 -1 2707 -1 1443 -1 2171 -1 4576 -1 #SUP: 2
3578 -1 1750 -1 2707 -1 1443 -1 2660 -1 589 -1 #SUP: 2
3578 -1 1750 -1 2707 -1 1443 -1 2660 -1 2171 -1 #SUP: 2
3578 -1 1750 -1 2707 -1 1443 -1 2660 -1 4576 -1 #SUP: 2
3578 -1 1750 -1 2707 -1 2171 -1 589 -1 4576 -1 #SUP: 2
3578 -1 1750 -1 2707 -1 2660 -1 589 -1 4576 -1 #SUP: 2
3578 -1 1750 -1 2707 -1 2660 -1 2171 -1 589 -1 #SUP: 2
3578 -1 1750 -1 2707 -1 2660 -1 2171 -1 4576 -1 #SUP: 2
3578 -1 2707 -1 1443 -1 2171 -1 589 -1 4576 -1 #SUP: 2
3578 -1 2707 -1 1443 -1 2660 -1 589 -1 4576 -1 #SUP: 2
3578 -1 2707 -1 1443 -1 2660 -1 2171 -1 589 -1 #SUP: 2
3578 -1 2707 -1 1443 -1 2660 -1 2171 -1 4576 -1 #SUP: 2
3578 -1 2707 -1 2660 -1 2171 -1 589 -1 4576 -1 #SUP: 2
1140 -1 1750 -1 1443 -1 2660 -1 2171 -1 589 -1 4576 -1 #SUP: 2
1140 -1 1750 -1 2707 -1 1443 -1 2171 -1 589 -1 4576 -1 #SUP: 2
1140 -1 1750 -1 2707 -1 1443 -1 2660 -1 589 -1 4576 -1 #SUP: 2
1140 -1 1750 -1 2707 -1 1443 -1 2660 -1 2171 -1 589 -1 #SUP: 2
1140 -1 1750 -1 2707 -1 1443 -1 2660 -1 2171 -1 4576 -1 #SUP: 2
1140 -1 1750 -1 2707 -1 2660 -1 2171 -1 589 -1 4576 -1 #SUP: 2
1140 -1 2707 -1 1443 -1 2660 -1 2171 -1 589 -1 4576 -1 #SUP: 2
1140 -1 3578 -1 1443 -1 2660 -1 2171 -1 589 -1 4576 -1 #SUP: 2
1140 -1 3578 -1 1750 -1 1443 -1 2171 -1 589 -1 4576 -1 #SUP: 2
1140 -1 3578 -1 1750 -1 1443 -1 2660 -1 589 -1 4576 -1 #SUP: 2
1140 -1 3578 -1 1750 -1 1443 -1 2660 -1 2171 -1 589 -1 #SUP: 2
1140 -1 3578 -1 1750 -1 1443 -1 2660 -1 2171 -1 4576 -1 #SUP: 2
1140 -1 3578 -1 1750 -1 2660 -1 2171 -1 589 -1 4576 -1 #SUP: 2
1140 -1 3578 -1 1750 -1 2707 -1 1443 -1 589 -1 4576 -1 #SUP: 2
1140 -1 3578 -1 1750 -1 2707 -1 1443 -1 2171 -1 589 -1 #SUP: 2
1140 -1 3578 -1 1750 -1 2707 -1 1443 -1 2171 -1 4576 -1 #SUP: 2
1140 -1 3578 -1 1750 -1 2707 -1 1443 -1 2660 -1 589 -1 #SUP: 2
1140 -1 3578 -1 1750 -1 2707 -1 1443 -1 2660 -1 2171 -1 #SUP: 2
1140 -1 3578 -1 1750 -1 2707 -1 1443 -1 2660 -1 4576 -1 #SUP: 2
1140 -1 3578 -1 1750 -1 2707 -1 2171 -1 589 -1 4576 -1 #SUP: 2
1140 -1 3578 -1 1750 -1 2707 -1 2660 -1 589 -1 4576 -1 #SUP: 2
1140 -1 3578 -1 1750 -1 2707 -1 2660 -1 2171 -1 589 -1 #SUP: 2
1140 -1 3578 -1 1750 -1 2707 -1 2660 -1 2171 -1 4576 -1 #SUP: 2
1140 -1 3578 -1 2707 -1 1443 -1 2171 -1 589 -1 4576 -1 #SUP: 2
1140 -1 3578 -1 2707 -1 1443 -1 2660 -1 589 -1 4576 -1 #SUP: 2
1140 -1 3578 -1 2707 -1 1443 -1 2660 -1 2171 -1 589 -1 #SUP: 2
1140 -1 3578 -1 2707 -1 1443 -1 2660 -1 2171 -1 4576 -1 #SUP: 2
1140 -1 3578 -1 2707 -1 2660 -1 2171 -1 589 -1 4576 -1 #SUP: 2
1750 -1 2707 -1 1443 -1 2660 -1 2171 -1 589 -1 4576 -1 #SUP: 2
3578 -1 1750 -1 1443 -1 2660 -1 2171 -1 589 -1 4576 -1 #SUP: 2
3578 -1 1750 -1 2707 -1 1443 -1 2171 -1 589 -1 4576 -1 #SUP: 2
3578 -1 1750 -1 2707 -1 1443 -1 2660 -1 589 -1 4576 -1 #SUP: 2
3578 -1 1750 -1 2707 -1 1443 -1 2660 -1 2171 -1 589 -1 #SUP: 2
3578 -1 1750 -1 2707 -1 1443 -1 2660 -1 2171 -1 4576 -1 #SUP: 2
3578 -1 1750 -1 2707 -1 2660 -1 2171 -1 589 -1 4576 -1 #SUP: 2
3578 -1 2707 -1 1443 -1 2660 -1 2171 -1 589 -1 4576 -1 #SUP: 2
1140 -1 1750 -1 2707 -1 1443 -1 2660 -1 2171 -1 589 -1 4576 -1 #SUP: 2
1140 -1 3578 -1 1750 -1 1443 -1 2660 -1 2171 -1 589 -1 4576 -1 #SUP: 2
1140 -1 3578 -1 1750 -1 2707 -1 1443 -1 2171 -1 589 -1 4576 -1 #SUP: 2
1140 -1 3578 -1 1750 -1 2707 -1 1443 -1 2660 -1 589 -1 4576 -1 #SUP: 2
1140 -1 3578 -1 1750 -1 2707 -1 1443 -1 2660 -1 2171 -1 589 -1 #SUP: 2
1140 -1 3578 -1 1750 -1 2707 -1 1443 -1 2660 -1 2171 -1 4576 -1 #SUP: 2
1140 -1 3578 -1 1750 -1 2707 -1 2660 -1 2171 -1 589 -1 4576 -1 #SUP: 2
1140 -1 3578 -1 2707 -1 1443 -1 2660 -1 2171 -1 589 -1 4576 -1 #SUP: 2
3578 -1 1750 -1 2707 -1 1443 -1 2660 -1 2171 -1 589 -1 4576 -1 #SUP: 2
1140 -1 3578 -1 1750 -1 2707 -1 1443 -1 2660 -1 2171 -1 589 -1 4576 -1 #SUP: 2
