19 -1 #SUP: 7
29 -1 #SUP: 5
31 -1 #SUP: 2
33 -1 #SUP: 3
47 -1 #SUP: 3
48 -1 #SUP: 7
49 -1 #SUP: 8
50 -1 #SUP: 37
54 -1 #SUP: 2
73 -1 #SUP: 6
89 -1 #SUP: 5
112 -1 #SUP: 5
114 -1 #SUP: 2
118 -1 #SUP: 4
138 -1 #SUP: 3
148 -1 #SUP: 6
149 -1 #SUP: 6
158 -1 #SUP: 3
161 -1 #SUP: 7
166 -1 #SUP: 3
175 -1 #SUP: 3
193 -1 #SUP: 3
248 -1 #SUP: 3
254 -1 #SUP: 10
255 -1 #SUP: 3
262 -1 #SUP: 2
281 -1 #SUP: 2
289 -1 #SUP: 3
296 -1 #SUP: 2
304 -1 #SUP: 4
339 -1 #SUP: 2
422 -1 #SUP: 2
434 -1 #SUP: 4
444 -1 #SUP: 4
449 -1 #SUP: 2
462 -1 #SUP: 2
474 -1 #SUP: 3
637 -1 #SUP: 2
645 -1 #SUP: 2
665 -1 #SUP: 3
680 -1 #SUP: 3
702 -1 #SUP: 2
738 -1 #SUP: 5
836 -1 #SUP: 4
928 -1 #SUP: 2
933 -1 #SUP: 2
934 -1 #SUP: 2
999 -1 #SUP: 3
1106 -1 #SUP: 3
1348 -1 #SUP: 2
1477 -1 #SUP: 6
1509 -1 #SUP: 4
1540 -1 #SUP: 2
1684 -1 #SUP: 7
2206 -1 #SUP: 2
2208 -1 #SUP: 2
2323 -1 #SUP: 2
2346 -1 #SUP: 2
3591 -1 #SUP: 2
5568 -1 #SUP: 2
7060 -1 #SUP: 2
11424 -1 #SUP: 2
15907 -1 #SUP: 2
21625 -1 #SUP: 2
19 -1 19 -1 #SUP: 3
29 -1 50 -1 #SUP: 2
29 -1 444 -1 #SUP: 2
48 -1 255 -1 #SUP: 2
49 -1 50 -1 #SUP: 3
50 -1 33 -1 #SUP: 2
50 -1 50 -1 #SUP: 8
50 -1 281 -1 #SUP: 2
50 -1 304 -1 #SUP: 2
50 -1 462 -1 #SUP: 2
50 -1 21625 -1 #SUP: 2
73 -1 161 -1 #SUP: 2
73 -1 1106 -1 #SUP: 2
73 -1 5568 -1 #SUP: 2
112 -1 50 -1 #SUP: 2
112 -1 1477 -1 #SUP: 3
118 -1 29 -1 #SUP: 3
118 -1 444 -1 #SUP: 2
148 -1 49 -1 #SUP: 3
149 -1 149 -1 #SUP: 3
161 -1 50 -1 #SUP: 3
161 -1 112 -1 #SUP: 3
161 -1 304 -1 #SUP: 2
161 -1 5568 -1 #SUP: 2
166 -1 19 -1 #SUP: 2
166 -1 1477 -1 #SUP: 2
254 -1 50 -1 #SUP: 5
254 -1 254 -1 #SUP: 2
254 -1 1684 -1 #SUP: 2
262 -1 289 -1 #SUP: 2
289 -1 50 -1 #SUP: 2
422 -1 19 -1 #SUP: 2
449 -1 29 -1 #SUP: 2
665 -1 50 -1 #SUP: 2
680 -1 193 -1 #SUP: 2
702 -1 50 -1 #SUP: 2
738 -1 49 -1 #SUP: 4
738 -1 148 -1 #SUP: 3
836 -1 50 -1 #SUP: 2
836 -1 254 -1 #SUP: 2
836 -1 1684 -1 #SUP: 3
1509 -1 50 -1 #SUP: 3
1684 -1 29 -1 #SUP: 3
1684 -1 50 -1 #SUP: 3
1684 -1 118 -1 #SUP: 3
1684 -1 254 -1 #SUP: 2
1684 -1 2323 -1 #SUP: 2
2206 -1 1509 -1 #SUP: 2
2323 -1 29 -1 #SUP: 2
2323 -1 118 -1 #SUP: 2
11424 -1 2208 -1 #SUP: 2
21625 -1 50 -1 #SUP: 2
19 -1 19 -1 19 -1 #SUP: 3
49 -1 50 -1 50 -1 #SUP: 2
50 -1 50 -1 50 -1 #SUP: 4
50 -1 50 -1 21625 -1 #SUP: 2
50 -1 21625 -1 50 -1 #SUP: 2
73 -1 161 -1 5568 -1 #SUP: 2
118 -1 29 -1 444 -1 #SUP: 2
149 -1 149 -1 149 -1 #SUP: 2
161 -1 50 -1 304 -1 #SUP: 2
161 -1 112 -1 50 -1 #SUP: 2
702 -1 50 -1 50 -1 #SUP: 2
738 -1 148 -1 49 -1 #SUP: 3
836 -1 50 -1 50 -1 #SUP: 2
836 -1 1684 -1 50 -1 #SUP: 2
1684 -1 29 -1 50 -1 #SUP: 2
1684 -1 50 -1 50 -1 #SUP: 2
1684 -1 118 -1 29 -1 #SUP: 2
1684 -1 2323 -1 29 -1 #SUP: 2
1684 -1 2323 -1 118 -1 #SUP: 2
2323 -1 118 -1 29 -1 #SUP: 2
21625 -1 50 -1 50 -1 #SUP: 2
50 -1 50 -1 50 -1 50 -1 #SUP: 3
50 -1 50 -1 50 -1 21625 -1 #SUP: 2
50 -1 50 -1 21625 -1 50 -1 #SUP: 2
50 -1 21625 -1 50 -1 50 -1 #SUP: 2
702 -1 50 -1 50 -1 50 -1 #SUP: 2
836 -1 1684 -1 50 -1 50 -1 #SUP: 2
1684 -1 2323 -1 118 -1 29 -1 #SUP: 2
50 -1 50 -1 50 -1 21625 -1 50 -1 #SUP: 2
