3 -1 #SUP: 2
5 -1 #SUP: 3
11 -1 #SUP: 3
19 -1 #SUP: 10
27 -1 #SUP: 3
29 -1 #SUP: 4
33 -1 #SUP: 4
48 -1 #SUP: 7
49 -1 #SUP: 6
50 -1 #SUP: 80
79 -1 #SUP: 2
89 -1 #SUP: 2
105 -1 #SUP: 2
110 -1 #SUP: 2
138 -1 #SUP: 10
148 -1 #SUP: 2
149 -1 #SUP: 2
155 -1 #SUP: 2
161 -1 #SUP: 2
166 -1 #SUP: 4
167 -1 #SUP: 3
210 -1 #SUP: 2
218 -1 #SUP: 2
248 -1 #SUP: 7
254 -1 #SUP: 5
261 -1 #SUP: 4
263 -1 #SUP: 3
290 -1 #SUP: 2
302 -1 #SUP: 2
325 -1 #SUP: 2
329 -1 #SUP: 2
330 -1 #SUP: 3
332 -1 #SUP: 2
380 -1 #SUP: 2
384 -1 #SUP: 3
420 -1 #SUP: 2
471 -1 #SUP: 2
477 -1 #SUP: 2
495 -1 #SUP: 2
548 -1 #SUP: 3
569 -1 #SUP: 2
580 -1 #SUP: 2
597 -1 #SUP: 2
625 -1 #SUP: 6
665 -1 #SUP: 2
667 -1 #SUP: 6
668 -1 #SUP: 2
678 -1 #SUP: 2
725 -1 #SUP: 2
727 -1 #SUP: 2
791 -1 #SUP: 2
879 -1 #SUP: 2
896 -1 #SUP: 3
926 -1 #SUP: 2
927 -1 #SUP: 2
928 -1 #SUP: 2
1061 -1 #SUP: 2
1129 -1 #SUP: 4
1147 -1 #SUP: 5
1199 -1 #SUP: 3
1252 -1 #SUP: 2
1303 -1 #SUP: 4
1481 -1 #SUP: 2
1643 -1 #SUP: 2
1686 -1 #SUP: 2
1707 -1 #SUP: 2
1778 -1 #SUP: 2
1795 -1 #SUP: 2
1883 -1 #SUP: 2
2407 -1 #SUP: 2
2479 -1 #SUP: 2
2498 -1 #SUP: 2
3078 -1 #SUP: 2
3079 -1 #SUP: 2
3246 -1 #SUP: 3
4053 -1 #SUP: 6
4129 -1 #SUP: 2
4130 -1 #SUP: 3
4164 -1 #SUP: 2
4249 -1 #SUP: 2
4295 -1 #SUP: 2
5273 -1 #SUP: 2
5418 -1 #SUP: 2
6966 -1 #SUP: 3
7329 -1 #SUP: 2
14527 -1 #SUP: 2
30490 -1 #SUP: 2
39112 -1 #SUP: 3
39124 -1 #SUP: 2
5 -1 4164 -1 #SUP: 2
5 -1 39124 -1 #SUP: 2
11 -1 50 -1 #SUP: 2
11 -1 39112 -1 #SUP: 2
19 -1 19 -1 #SUP: 3
19 -1 50 -1 #SUP: 3
19 -1 89 -1 #SUP: 2
19 -1 138 -1 #SUP: 2
19 -1 668 -1 #SUP: 2
19 -1 1129 -1 #SUP: 2
33 -1 50 -1 #SUP: 3
48 -1 50 -1 #SUP: 3
48 -1 4295 -1 #SUP: 2
49 -1 50 -1 #SUP: 3
50 -1 19 -1 #SUP: 2
50 -1 48 -1 #SUP: 3
50 -1 49 -1 #SUP: 3
50 -1 50 -1 #SUP: 18
50 -1 138 -1 #SUP: 5
50 -1 161 -1 #SUP: 2
50 -1 248 -1 #SUP: 2
50 -1 329 -1 #SUP: 2
50 -1 330 -1 #SUP: 2
50 -1 477 -1 #SUP: 2
50 -1 548 -1 #SUP: 2
50 -1 668 -1 #SUP: 2
50 -1 727 -1 #SUP: 2
50 -1 1129 -1 #SUP: 3
50 -1 1147 -1 #SUP: 2
50 -1 1252 -1 #SUP: 2
50 -1 1303 -1 #SUP: 2
50 -1 1883 -1 #SUP: 2
50 -1 2407 -1 #SUP: 2
50 -1 4053 -1 #SUP: 3
50 -1 6966 -1 #SUP: 3
50 -1 14527 -1 #SUP: 2
50 -1 30490 -1 #SUP: 2
89 -1 50 -1 #SUP: 2
138 -1 50 -1 #SUP: 3
138 -1 248 -1 #SUP: 2
161 -1 50 -1 #SUP: 2
161 -1 4053 -1 #SUP: 2
166 -1 19 -1 #SUP: 2
166 -1 625 -1 #SUP: 2
210 -1 50 -1 #SUP: 2
210 -1 330 -1 #SUP: 2
248 -1 50 -1 #SUP: 2
254 -1 19 -1 #SUP: 3
254 -1 50 -1 #SUP: 4
254 -1 89 -1 #SUP: 2
325 -1 50 -1 #SUP: 2
330 -1 50 -1 #SUP: 3
330 -1 330 -1 #SUP: 2
330 -1 6966 -1 #SUP: 2
477 -1 50 -1 #SUP: 2
548 -1 329 -1 #SUP: 2
597 -1 50 -1 #SUP: 2
625 -1 50 -1 #SUP: 2
667 -1 384 -1 #SUP: 2
667 -1 667 -1 #SUP: 2
667 -1 2479 -1 #SUP: 2
725 -1 50 -1 #SUP: 2
725 -1 4053 -1 #SUP: 2
727 -1 50 -1 #SUP: 2
896 -1 495 -1 #SUP: 2
1129 -1 50 -1 #SUP: 3
1129 -1 668 -1 #SUP: 2
1147 -1 50 -1 #SUP: 2
1147 -1 1147 -1 #SUP: 2
1199 -1 50 -1 #SUP: 3
1199 -1 725 -1 #SUP: 2
1199 -1 4053 -1 #SUP: 2
1303 -1 50 -1 #SUP: 2
1883 -1 50 -1 #SUP: 2
4053 -1 50 -1 #SUP: 3
4053 -1 161 -1 #SUP: 2
4053 -1 4053 -1 #SUP: 3
4053 -1 30490 -1 #SUP: 2
4129 -1 7329 -1 #SUP: 2
4130 -1 50 -1 #SUP: 2
4130 -1 261 -1 #SUP: 2
4249 -1 261 -1 #SUP: 2
5418 -1 50 -1 #SUP: 2
6966 -1 50 -1 #SUP: 3
6966 -1 6966 -1 #SUP: 2
30490 -1 50 -1 #SUP: 2
30490 -1 161 -1 #SUP: 2
30490 -1 4053 -1 #SUP: 2
39124 -1 4164 -1 #SUP: 2
5 -1 39124 -1 4164 -1 #SUP: 2
19 -1 19 -1 50 -1 #SUP: 2
19 -1 19 -1 89 -1 #SUP: 2
19 -1 50 -1 668 -1 #SUP: 2
19 -1 89 -1 50 -1 #SUP: 2
19 -1 1129 -1 50 -1 #SUP: 2
19 -1 1129 -1 668 -1 #SUP: 2
50 -1 50 -1 50 -1 #SUP: 8
50 -1 50 -1 161 -1 #SUP: 2
50 -1 50 -1 668 -1 #SUP: 2
50 -1 50 -1 4053 -1 #SUP: 3
50 -1 50 -1 6966 -1 #SUP: 3
50 -1 138 -1 50 -1 #SUP: 2
50 -1 161 -1 50 -1 #SUP: 2
50 -1 161 -1 4053 -1 #SUP: 2
50 -1 330 -1 50 -1 #SUP: 2
50 -1 477 -1 50 -1 #SUP: 2
50 -1 727 -1 50 -1 #SUP: 2
50 -1 1129 -1 50 -1 #SUP: 3
50 -1 1129 -1 668 -1 #SUP: 2
50 -1 1303 -1 50 -1 #SUP: 2
50 -1 1883 -1 50 -1 #SUP: 2
50 -1 4053 -1 50 -1 #SUP: 3
50 -1 4053 -1 161 -1 #SUP: 2
50 -1 4053 -1 4053 -1 #SUP: 3
50 -1 6966 -1 50 -1 #SUP: 3
50 -1 6966 -1 6966 -1 #SUP: 2
50 -1 30490 -1 50 -1 #SUP: 2
50 -1 30490 -1 4053 -1 #SUP: 2
138 -1 50 -1 50 -1 #SUP: 2
161 -1 4053 -1 50 -1 #SUP: 2
210 -1 50 -1 50 -1 #SUP: 2
210 -1 330 -1 50 -1 #SUP: 2
254 -1 19 -1 19 -1 #SUP: 2
254 -1 19 -1 50 -1 #SUP: 2
254 -1 19 -1 89 -1 #SUP: 2
254 -1 89 -1 50 -1 #SUP: 2
330 -1 50 -1 50 -1 #SUP: 3
330 -1 50 -1 330 -1 #SUP: 2
330 -1 50 -1 6966 -1 #SUP: 2
330 -1 330 -1 50 -1 #SUP: 2
625 -1 50 -1 50 -1 #SUP: 2
725 -1 50 -1 4053 -1 #SUP: 2
1129 -1 50 -1 668 -1 #SUP: 2
1199 -1 50 -1 4053 -1 #SUP: 2
1199 -1 725 -1 50 -1 #SUP: 2
1199 -1 725 -1 4053 -1 #SUP: 2
1883 -1 50 -1 50 -1 #SUP: 2
4053 -1 50 -1 50 -1 #SUP: 3
4053 -1 50 -1 161 -1 #SUP: 2
4053 -1 50 -1 4053 -1 #SUP: 3
4053 -1 50 -1 30490 -1 #SUP: 2
4053 -1 161 -1 50 -1 #SUP: 2
4053 -1 161 -1 4053 -1 #SUP: 2
4053 -1 4053 -1 50 -1 #SUP: 3
4053 -1 4053 -1 161 -1 #SUP: 2
4053 -1 4053 -1 4053 -1 #SUP: 3
4053 -1 30490 -1 50 -1 #SUP: 2
4053 -1 30490 -1 4053 -1 #SUP: 2
6966 -1 50 -1 50 -1 #SUP: 2
6966 -1 50 -1 6966 -1 #SUP: 2
6966 -1 6966 -1 50 -1 #SUP: 2
30490 -1 50 -1 50 -1 #SUP: 2
30490 -1 50 -1 161 -1 #SUP: 2
30490 -1 50 -1 4053 -1 #SUP: 2
30490 -1 4053 -1 50 -1 #SUP: 2
30490 -1 4053 -1 161 -1 #SUP: 2
30490 -1 4053 -1 4053 -1 #SUP: 2
19 -1 19 -1 89 -1 50 -1 #SUP: 2
19 -1 1129 -1 50 -1 668 -1 #SUP: 2
50 -1 50 -1 50 -1 50 -1 #SUP: 4
50 -1 50 -1 50 -1 4053 -1 #SUP: 3
50 -1 50 -1 161 -1 50 -1 #SUP: 2
50 -1 50 -1 161 -1 4053 -1 #SUP: 2
50 -1 50 -1 4053 -1 50 -1 #SUP: 3
50 -1 50 -1 4053 -1 4053 -1 #SUP: 2
50 -1 50 -1 6966 -1 50 -1 #SUP: 3
50 -1 138 -1 50 -1 50 -1 #SUP: 2
50 -1 161 -1 4053 -1 50 -1 #SUP: 2
50 -1 330 -1 50 -1 50 -1 #SUP: 2
50 -1 1129 -1 50 -1 668 -1 #SUP: 2
50 -1 1883 -1 50 -1 50 -1 #SUP: 2
50 -1 4053 -1 50 -1 50 -1 #SUP: 3
50 -1 4053 -1 50 -1 161 -1 #SUP: 2
50 -1 4053 -1 50 -1 4053 -1 #SUP: 3
50 -1 4053 -1 161 -1 50 -1 #SUP: 2
50 -1 4053 -1 161 -1 4053 -1 #SUP: 2
50 -1 4053 -1 4053 -1 50 -1 #SUP: 3
50 -1 6966 -1 50 -1 50 -1 #SUP: 2
50 -1 6966 -1 50 -1 6966 -1 #SUP: 2
50 -1 6966 -1 6966 -1 50 -1 #SUP: 2
50 -1 30490 -1 50 -1 50 -1 #SUP: 2
50 -1 30490 -1 50 -1 4053 -1 #SUP: 2
50 -1 30490 -1 4053 -1 50 -1 #SUP: 2
50 -1 30490 -1 4053 -1 4053 -1 #SUP: 2
210 -1 330 -1 50 -1 50 -1 #SUP: 2
254 -1 19 -1 89 -1 50 -1 #SUP: 2
330 -1 50 -1 50 -1 6966 -1 #SUP: 2
330 -1 50 -1 330 -1 50 -1 #SUP: 2
1199 -1 725 -1 50 -1 4053 -1 #SUP: 2
4053 -1 50 -1 50 -1 50 -1 #SUP: 3
4053 -1 50 -1 50 -1 161 -1 #SUP: 2
4053 -1 50 -1 50 -1 4053 -1 #SUP: 3
4053 -1 50 -1 161 -1 50 -1 #SUP: 2
4053 -1 50 -1 161 -1 4053 -1 #SUP: 2
4053 -1 50 -1 4053 -1 50 -1 #SUP: 3
4053 -1 50 -1 4053 -1 161 -1 #SUP: 2
4053 -1 50 -1 4053 -1 4053 -1 #SUP: 3
4053 -1 50 -1 30490 -1 50 -1 #SUP: 2
4053 -1 50 -1 30490 -1 4053 -1 #SUP: 2
4053 -1 161 -1 4053 -1 50 -1 #SUP: 2
4053 -1 4053 -1 50 -1 50 -1 #SUP: 2
4053 -1 4053 -1 50 -1 161 -1 #SUP: 2
4053 -1 4053 -1 50 -1 4053 -1 #SUP: 3
4053 -1 4053 -1 161 -1 50 -1 #SUP: 2
4053 -1 4053 -1 161 -1 4053 -1 #SUP: 2
4053 -1 30490 -1 50 -1 50 -1 #SUP: 2
4053 -1 30490 -1 50 -1 4053 -1 #SUP: 2
4053 -1 30490 -1 4053 -1 50 -1 #SUP: 2
4053 -1 30490 -1 4053 -1 4053 -1 #SUP: 2
6966 -1 50 -1 6966 -1 50 -1 #SUP: 2
30490 -1 50 -1 50 -1 50 -1 #SUP: 2
30490 -1 50 -1 50 -1 4053 -1 #SUP: 2
30490 -1 50 -1 4053 -1 50 -1 #SUP: 2
30490 -1 4053 -1 50 -1 50 -1 #SUP: 2
30490 -1 4053 -1 50 -1 161 -1 #SUP: 2
30490 -1 4053 -1 50 -1 4053 -1 #SUP: 2
30490 -1 4053 -1 4053 -1 50 -1 #SUP: 2
50 -1 50 -1 50 -1 4053 -1 50 -1 #SUP: 3
50 -1 50 -1 161 -1 4053 -1 50 -1 #SUP: 2
50 -1 50 -1 4053 -1 50 -1 50 -1 #SUP: 2
50 -1 50 -1 4053 -1 50 -1 4053 -1 #SUP: 2
50 -1 50 -1 4053 -1 4053 -1 50 -1 #SUP: 2
50 -1 4053 -1 50 -1 50 -1 50 -1 #SUP: 2
50 -1 4053 -1 50 -1 50 -1 4053 -1 #SUP: 2
50 -1 4053 -1 50 -1 161 -1 50 -1 #SUP: 2
50 -1 4053 -1 50 -1 161 -1 4053 -1 #SUP: 2
50 -1 4053 -1 50 -1 4053 -1 50 -1 #SUP: 3
50 -1 4053 -1 161 -1 4053 -1 50 -1 #SUP: 2
50 -1 6966 -1 50 -1 6966 -1 50 -1 #SUP: 2
50 -1 30490 -1 50 -1 50 -1 50 -1 #SUP: 2
50 -1 30490 -1 50 -1 50 -1 4053 -1 #SUP: 2
50 -1 30490 -1 50 -1 4053 -1 50 -1 #SUP: 2
50 -1 30490 -1 4053 -1 50 -1 50 -1 #SUP: 2
50 -1 30490 -1 4053 -1 50 -1 4053 -1 #SUP: 2
50 -1 30490 -1 4053 -1 4053 -1 50 -1 #SUP: 2
4053 -1 50 -1 50 -1 50 -1 4053 -1 #SUP: 2
4053 -1 50 -1 50 -1 161 -1 50 -1 #SUP: 2
4053 -1 50 -1 50 -1 161 -1 4053 -1 #SUP: 2
4053 -1 50 -1 50 -1 4053 -1 50 -1 #SUP: 2
4053 -1 50 -1 161 -1 4053 -1 50 -1 #SUP: 2
4053 -1 50 -1 4053 -1 50 -1 50 -1 #SUP: 2
4053 -1 50 -1 4053 -1 50 -1 161 -1 #SUP: 2
4053 -1 50 -1 4053 -1 50 -1 4053 -1 #SUP: 3
4053 -1 50 -1 4053 -1 161 -1 50 -1 #SUP: 2
4053 -1 50 -1 4053 -1 161 -1 4053 -1 #SUP: 2
4053 -1 50 -1 30490 -1 50 -1 50 -1 #SUP: 2
4053 -1 50 -1 30490 -1 50 -1 4053 -1 #SUP: 2
4053 -1 50 -1 30490 -1 4053 -1 50 -1 #SUP: 2
4053 -1 50 -1 30490 -1 4053 -1 4053 -1 #SUP: 2
4053 -1 4053 -1 50 -1 161 -1 50 -1 #SUP: 2
4053 -1 4053 -1 50 -1 161 -1 4053 -1 #SUP: 2
4053 -1 30490 -1 50 -1 50 -1 4053 -1 #SUP: 2
4053 -1 30490 -1 4053 -1 50 -1 4053 -1 #SUP: 2
30490 -1 50 -1 50 -1 4053 -1 50 -1 #SUP: 2
30490 -1 4053 -1 50 -1 4053 -1 50 -1 #SUP: 2
50 -1 50 -1 4053 -1 50 -1 4053 -1 50 -1 #SUP: 2
50 -1 4053 -1 50 -1 50 -1 4053 -1 50 -1 #SUP: 2
50 -1 4053 -1 50 -1 161 -1 4053 -1 50 -1 #SUP: 2
50 -1 30490 -1 50 -1 50 -1 4053 -1 50 -1 #SUP: 2
50 -1 30490 -1 4053 -1 50 -1 4053 -1 50 -1 #SUP: 2
4053 -1 50 -1 4053 -1 50 -1 161 -1 50 -1 #SUP: 2
4053 -1 50 -1 4053 -1 50 -1 161 -1 4053 -1 #SUP: 2
4053 -1 50 -1 30490 -1 50 -1 50 -1 4053 -1 #SUP: 2
4053 -1 50 -1 30490 -1 4053 -1 50 -1 4053 -1 #SUP: 2
