304 -1 305 -1 258 -1 1550 -1 968 -1 18784 -1 3455 -1 149 -1 19 -2
1285 -1 19 -2
425 -1 543 -1 2198 -1 2011 -1 50 -1 11736 -1 1706 -1 8300 -1 713 -1 19 -2
290 -1 4435 -1 484 -1 678 -1 50 -1 465 -1 740 -1 1397 -1 1333 -1 19 -2
1303 -1 115 -1 50 -1 50 -1 4521 -1 1 -2
50 -1 381 -1 210 -1 19 -2
1 -2
12223 -1 4660 -1 2413 -1 429 -1 428 -1 138 -1 296 -1 254 -1 2090 -1 254 -1 1232 -1 19 -2
194 -1 4435 -1 484 -1 678 -1 48 -1 218 -1 151 -1 219 -1 3345 -1 1322 -1 7891 -1 889 -1 19 -2
5036 -1 384 -1 104 -1 107 -1 1143 -1 19 -2
516 -1 296 -1 3817 -1 50 -1 1623 -1 2905 -1 4015 -1 2173 -1 50 -1 112 -1 384 -1 19 -2
263 -1 19 -2
3310 -1 678 -1 19 -2
50 -1 277 -1 680 -1 19 -2
558 -1 3967 -1 8354 -1 6 -1 5512 -1 107318 -1 107319 -1 83 -1 1601 -1 301 -1 2122 -1 19 -2
1400 -1 640 -1 248 -1 3522 -1 609 -1 248 -1 223 -1 248 -1 149 -1 50 -1 557 -1 928 -1 49 -1 19 -2
89 -1 637 -1 27 -1 50 -1 6065 -1 127 -1 633 -1 19 -2
247 -1 254 -1 1102 -1 50 -1 19 -2
93 -1 114 -1 3817 -1 50 -1 1336 -1 14654 -1 1117 -1 2369 -1 19 -2
640 -1 248 -1 1397 -1 50 -1 254 -1 151 -1 19 -2
33 -1 50 -1 148 -1 1754 -1 19 -2
49 -1 1368 -1 288 -1 2422 -1 1486 -1 115 -1 490 -1 19 -2
2945 -1 2861 -1 33 -1 50 -1 304 -1 11247 -1 19 -2
933 -1 254 -1 2687 -1 19 -2
54 -1 1725 -1 50 -1 1330 -1 583 -1 1102 -1 218 -1 188 -1 19 -2
254 -1 118 -1 112 -1 19 -2
254 -1 2539 -1 105 -1 19 -2
114 -1 1755 -1 151 -1 928 -1 49 -1 50 -1 6033 -1 2429 -1 709 -1 19 -2
3078 -1 928 -1 1717 -1 1627 -1 19 -2
50 -1 105 -1 1484 -1 4877 -1 19 -2
2336 -1 19 -2
3856 -1 19 -2
907 -1 7727 -1 19 -2
2 -1 72795 -1 1 -2
1557 -1 25637 -1 619 -1 19 -2
603 -1 19 -2
296 -1 19 -2
682 -1 50 -1 257 -1 19 -2
847 -1 118 -1 29 -1 678 -1 19 -2
6 -1 5481 -1 107320 -1 6 -1 14482 -1 107321 -1 1232 -1 567 -1 2240 -1 19 -2
3490 -1 1412 -1 4163 -1 1 -2
495 -1 6 -1 18 -1 17 -1 107322 -1 19 -2
505 -1 262 -1 337 -1 2115 -1 702 -1 19 -2
1129 -1 290 -1 254 -1 4306 -1 19 -2
248 -1 790 -1 9 -1 33 -1 1272 -1 19 -2
988 -1 381 -1 305 -1 2381 -1 19 -2
22188 -1 2424 -1 928 -1 49 -1 48 -1 118 -1 627 -1 1430 -1 2381 -1 19 -2
1479 -1 1481 -1 4646 -1 33 -1 5518 -1 950 -1 583 -1 988 -1 19 -2
505 -1 927 -1 50 -1 262 -1 3487 -1 263 -1 19 -2
2879 -1 1 -2
1738 -1 1 -2
3 -1 19 -2
6 -1 18 -1 17 -1 107322 -1 89 -1 2169 -1 724 -1 1054 -1 19 -2
235 -1 48 -1 4607 -1 19 -2
114 -1 680 -1 947 -1 851 -1 355 -1 9796 -1 181 -1 3300 -1 2589 -1 19 -2
398 -1 248 -1 48 -1 49 -1 3618 -1 19 -2
847 -1 50 -1 48 -1 5019 -1 50 -1 4085 -1 990 -1 19 -2
202 -1 1827 -1 248 -1 50 -1 1850 -1 202 -1 19 -2
2511 -1 682 -1 50 -1 89 -1 768 -1 49 -1 19 -2
19 -2
951 -1 19 -2
254 -1 847 -1 329 -1 84 -1 1478 -1 2498 -1 19 -2
1102 -1 902 -1 2436 -1 19 -2
50 -1 421 -1 747 -1 19 -2
4991 -1 724 -1 50 -1 19 -2
678 -1 2713 -1 4031 -1 50 -1 138 -1 48 -1 968 -1 1048 -1 19 -2
928 -1 3522 -1 832 -1 54 -1 132 -1 50 -1 357 -1 3455 -1 777 -1 19 -1 19 -1 89 -1 11 -1 1865 -1 73 -1 19 -2
4407 -1 343 -1 626 -1 19 -2
73 -1 190 -2
157 -1 50 -1 73 -1 73 -1 190 -2
73 -1 190 -2
148 -1 583 -1 50 -1 612 -1 847 -1 4465 -1 640 -1 248 -1 927 -1 114 -1 512 -1 31 -1 245 -1 190 -2
36 -1 190 -2
73 -1 73 -1 190 -2
738 -1 148 -1 583 -1 36 -1 50 -1 73 -1 190 -2
36 -1 190 -2
73 -1 1106 -1 50 -1 612 -1 847 -1 73 -1 1106 -1 50 -1 612 -1 847 -1 830 -1 582 -1 640 -1 248 -1 1099 -1 4437 -1 19 -2
36 -1 190 -2
73 -1 20652 -1 107329 -1 107323 -1 9515 -1 13349 -1 40584 -1 107326 -1 50 -1 22535 -1 40598 -1 107325 -1 107327 -1 19313 -1 107324 -1 582 -1 107328 -1 15604 -1 58215 -1 35666 -1 22535 -1 190 -2
13053 -1 15604 -1 19 -2
79489 -1 15604 -1 40593 -1 35666 -1 29602 -1 107330 -1 40606 -1 107332 -1 1131 -1 83692 -1 1799 -1 107331 -1 107329 -1 23101 -1 29882 -1 19 -2
107337 -1 40598 -1 107341 -1 23101 -1 107339 -1 107334 -1 50 -1 107338 -1 107335 -1 23101 -1 29882 -1 83755 -1 107333 -1 11929 -1 29872 -1 107340 -1 50 -1 107336 -1 171 -1 40598 -1 19 -2
107343 -1 107344 -1 72847 -1 582 -1 83719 -1 107342 -1 19 -2
923 -1 114 -1 2332 -1 18138 -1 18937 -1 19 -2
16368 -1 163 -1 876 -1 50 -1 428 -1 553 -1 1407 -1 19 -2
619 -1 2253 -1 49 -1 118 -1 29 -1 50 -1 115 -1 19 -2