,pattern,sup,author
310,"(0, 5, 41)",2,1998_491269
311,"(0, 5, 51)",2,1998_491269
312,"(0, 5, 66)",2,1998_491269
313,"(0, 47, 125)",2,1998_491269
314,"(0, 51, 41)",2,1998_491269
315,"(0, 2124, 128)",2,1998_491269
316,"(5, 0, 5)",2,1998_491269
317,"(5, 0, 41)",2,1998_491269
318,"(5, 0, 51)",2,1998_491269
319,"(5, 0, 66)",3,1998_491269
320,"(5, 0, 125)",2,1998_491269
321,"(5, 2, 0)",2,1998_491269
322,"(5, 2, 21)",2,1998_491269
323,"(5, 2, 226)",2,1998_491269
324,"(5, 5, 0)",2,1998_491269
325,"(5, 5, 2)",2,1998_491269
326,"(5, 5, 17)",2,1998_491269
327,"(5, 5, 18)",2,1998_491269
328,"(5, 5, 21)",2,1998_491269
329,"(5, 5, 22)",2,1998_491269
330,"(5, 5, 28)",3,1998_491269
331,"(5, 5, 41)",3,1998_491269
332,"(5, 5, 47)",2,1998_491269
333,"(5, 5, 51)",3,1998_491269
334,"(5, 5, 66)",2,1998_491269
335,"(5, 5, 131)",2,1998_491269
336,"(5, 5, 1150)",2,1998_491269
337,"(5, 6, 47)",2,1998_491269
338,"(5, 6, 125)",2,1998_491269
339,"(5, 11, 2)",2,1998_491269
340,"(5, 17, 28)",2,1998_491269
341,"(5, 18, 2)",2,1998_491269
342,"(5, 18, 21)",3,1998_491269
343,"(5, 22, 1150)",2,1998_491269
344,"(5, 22, 3615)",2,1998_491269
345,"(5, 28, 0)",2,1998_491269
346,"(5, 28, 2)",2,1998_491269
347,"(5, 28, 5)",4,1998_491269
348,"(5, 28, 11)",2,1998_491269
349,"(5, 28, 21)",3,1998_491269
350,"(5, 28, 22)",2,1998_491269
351,"(5, 28, 32)",4,1998_491269
352,"(5, 28, 38)",2,1998_491269
353,"(5, 28, 47)",3,1998_491269
354,"(5, 28, 66)",2,1998_491269
355,"(5, 28, 113)",2,1998_491269
356,"(5, 28, 140)",3,1998_491269
357,"(5, 28, 1150)",2,1998_491269
358,"(5, 28, 3615)",2,1998_491269
359,"(5, 32, 0)",2,1998_491269
360,"(5, 32, 5)",3,1998_491269
361,"(5, 32, 18)",2,1998_491269
362,"(5, 32, 21)",2,1998_491269
363,"(5, 32, 113)",2,1998_491269
364,"(5, 32, 128)",2,1998_491269
365,"(5, 38, 32)",2,1998_491269
366,"(5, 38, 40)",2,1998_491269
367,"(5, 41, 2)",2,1998_491269
368,"(5, 47, 5)",3,1998_491269
369,"(5, 47, 22)",2,1998_491269
370,"(5, 47, 32)",2,1998_491269
371,"(5, 47, 47)",3,1998_491269
372,"(5, 47, 72)",2,1998_491269
373,"(5, 47, 113)",2,1998_491269
374,"(5, 47, 125)",2,1998_491269
375,"(5, 47, 555)",3,1998_491269
376,"(5, 47, 1150)",2,1998_491269
377,"(5, 51, 41)",3,1998_491269
378,"(5, 58, 66)",2,1998_491269
379,"(5, 66, 5)",2,1998_491269
380,"(5, 66, 41)",2,1998_491269
381,"(5, 66, 51)",2,1998_491269
382,"(5, 122, 2)",2,1998_491269
383,"(5, 122, 38)",2,1998_491269
384,"(5, 140, 2)",2,1998_491269
385,"(5, 140, 38)",2,1998_491269
386,"(5, 140, 122)",2,1998_491269
387,"(5, 179, 2)",2,1998_491269
388,"(5, 214, 2)",3,1998_491269
389,"(5, 214, 28)",2,1998_491269
390,"(5, 214, 40)",2,1998_491269
391,"(5, 214, 47)",2,1998_491269
392,"(5, 236, 11)",2,1998_491269
393,"(5, 336, 5)",2,1998_491269
394,"(5, 413, 5)",2,1998_491269
395,"(5, 529, 2)",2,1998_491269
396,"(5, 529, 11)",2,1998_491269
397,"(5, 529, 28)",2,1998_491269
398,"(5, 529, 41)",2,1998_491269
399,"(5, 555, 5)",2,1998_491269
400,"(5, 555, 22)",2,1998_491269
401,"(5, 555, 47)",2,1998_491269
402,"(5, 555, 1150)",2,1998_491269
403,"(5, 1150, 3615)",2,1998_491269
404,"(6, 47, 125)",2,1998_491269
405,"(14, 0, 5)",2,1998_491269
406,"(14, 5, 58)",2,1998_491269
407,"(14, 5, 66)",2,1998_491269
408,"(14, 58, 66)",2,1998_491269
409,"(18, 2, 21)",2,1998_491269
410,"(22, 1150, 3615)",2,1998_491269
411,"(28, 0, 66)",2,1998_491269
412,"(28, 5, 47)",2,1998_491269
413,"(28, 22, 1150)",2,1998_491269
414,"(28, 22, 3615)",2,1998_491269
415,"(28, 28, 47)",2,1998_491269
416,"(28, 32, 5)",4,1998_491269
417,"(28, 32, 21)",2,1998_491269
418,"(28, 32, 47)",2,1998_491269
419,"(28, 32, 280)",2,1998_491269
420,"(28, 38, 32)",2,1998_491269
421,"(28, 47, 5)",3,1998_491269
422,"(28, 47, 32)",2,1998_491269
423,"(28, 47, 47)",3,1998_491269
424,"(28, 47, 113)",2,1998_491269
425,"(28, 113, 5)",2,1998_491269
426,"(28, 113, 47)",2,1998_491269
427,"(28, 140, 2)",2,1998_491269
428,"(28, 140, 38)",2,1998_491269
429,"(28, 140, 122)",2,1998_491269
430,"(28, 181, 32)",2,1998_491269
431,"(28, 1150, 3615)",2,1998_491269
432,"(32, 0, 239)",2,1998_491269
433,"(32, 5, 18)",2,1998_491269
434,"(32, 5, 28)",2,1998_491269
435,"(32, 47, 5)",2,1998_491269
436,"(32, 47, 28)",2,1998_491269
437,"(32, 47, 47)",2,1998_491269
438,"(32, 125, 239)",2,1998_491269
439,"(32, 1444, 239)",2,1998_491269
440,"(38, 47, 0)",2,1998_491269
441,"(38, 76, 0)",2,1998_491269
442,"(40, 5, 47)",2,1998_491269
443,"(47, 0, 66)",3,1998_491269
444,"(47, 5, 2)",2,1998_491269
445,"(47, 5, 5)",2,1998_491269
446,"(47, 5, 11)",2,1998_491269
447,"(47, 5, 22)",2,1998_491269
448,"(47, 5, 28)",3,1998_491269
449,"(47, 5, 47)",2,1998_491269
450,"(47, 5, 1150)",2,1998_491269
451,"(47, 5, 3615)",2,1998_491269
452,"(47, 22, 1150)",2,1998_491269
453,"(47, 22, 3615)",2,1998_491269
454,"(47, 28, 5)",2,1998_491269
455,"(47, 32, 5)",2,1998_491269
456,"(47, 32, 47)",2,1998_491269
457,"(47, 47, 5)",3,1998_491269
458,"(47, 47, 28)",2,1998_491269
459,"(47, 47, 1150)",2,1998_491269
460,"(47, 47, 3615)",2,1998_491269
461,"(47, 94, 92)",2,1998_491269
462,"(47, 94, 125)",2,1998_491269
463,"(47, 113, 5)",2,1998_491269
464,"(47, 113, 28)",2,1998_491269
465,"(47, 113, 47)",2,1998_491269
466,"(47, 176, 92)",3,1998_491269
467,"(47, 176, 94)",2,1998_491269
468,"(47, 176, 125)",2,1998_491269
469,"(47, 176, 179)",2,1998_491269
470,"(47, 489, 47)",2,1998_491269
471,"(47, 555, 5)",2,1998_491269
472,"(47, 555, 22)",2,1998_491269
473,"(47, 555, 47)",2,1998_491269
474,"(47, 555, 1150)",2,1998_491269
475,"(47, 555, 3615)",2,1998_491269
476,"(47, 1150, 3615)",2,1998_491269
477,"(66, 5, 41)",2,1998_491269
478,"(66, 5, 51)",2,1998_491269
479,"(66, 51, 41)",2,1998_491269
480,"(69, 5, 5)",2,1998_491269
481,"(69, 5, 22)",2,1998_491269
482,"(69, 5, 28)",2,1998_491269
483,"(69, 5, 47)",2,1998_491269
484,"(69, 5, 555)",2,1998_491269
485,"(69, 28, 22)",2,1998_491269
486,"(69, 47, 5)",2,1998_491269
487,"(69, 47, 22)",2,1998_491269
488,"(69, 47, 47)",2,1998_491269
489,"(69, 47, 555)",2,1998_491269
490,"(69, 555, 5)",2,1998_491269
491,"(69, 555, 22)",2,1998_491269
492,"(69, 555, 47)",2,1998_491269
493,"(76, 0, 66)",2,1998_491269
494,"(92, 125, 47)",2,1998_491269
495,"(113, 5, 28)",2,1998_491269
496,"(113, 47, 5)",2,1998_491269
497,"(140, 122, 38)",2,1998_491269
498,"(172, 47, 32)",2,1998_491269
499,"(176, 94, 92)",2,1998_491269
500,"(176, 94, 125)",2,1998_491269
501,"(489, 47, 28)",2,1998_491269
502,"(529, 11, 2)",2,1998_491269
503,"(555, 5, 22)",2,1998_491269
504,"(555, 5, 1150)",2,1998_491269
505,"(555, 5, 3615)",2,1998_491269
506,"(555, 22, 1150)",2,1998_491269
507,"(555, 22, 3615)",2,1998_491269
508,"(555, 47, 1150)",2,1998_491269
509,"(555, 47, 3615)",2,1998_491269
510,"(555, 1150, 3615)",2,1998_491269
511,"(1756, 179, 234)",2,1998_491269
512,"(0, 5, 51, 41)",2,1998_491269
513,"(5, 0, 5, 41)",2,1998_491269
514,"(5, 0, 5, 51)",2,1998_491269
515,"(5, 0, 51, 41)",2,1998_491269
516,"(5, 5, 17, 28)",2,1998_491269
517,"(5, 5, 22, 1150)",2,1998_491269
518,"(5, 5, 51, 41)",3,1998_491269
519,"(5, 6, 47, 125)",2,1998_491269
520,"(5, 18, 2, 21)",2,1998_491269
521,"(5, 22, 1150, 3615)",2,1998_491269
522,"(5, 28, 0, 66)",2,1998_491269
523,"(5, 28, 22, 1150)",2,1998_491269
524,"(5, 28, 22, 3615)",2,1998_491269
525,"(5, 28, 32, 5)",2,1998_491269
526,"(5, 28, 32, 21)",2,1998_491269
527,"(5, 28, 47, 5)",2,1998_491269
528,"(5, 28, 47, 32)",2,1998_491269
529,"(5, 28, 47, 47)",2,1998_491269
530,"(5, 28, 47, 113)",2,1998_491269
531,"(5, 28, 140, 2)",2,1998_491269
532,"(5, 28, 1150, 3615)",2,1998_491269
533,"(5, 32, 5, 18)",2,1998_491269
534,"(5, 47, 5, 22)",2,1998_491269
535,"(5, 47, 5, 1150)",2,1998_491269
536,"(5, 47, 22, 1150)",2,1998_491269
537,"(5, 47, 47, 1150)",2,1998_491269
538,"(5, 47, 555, 5)",2,1998_491269
539,"(5, 47, 555, 22)",2,1998_491269
540,"(5, 47, 555, 47)",2,1998_491269
541,"(5, 47, 555, 1150)",2,1998_491269
542,"(5, 66, 5, 41)",2,1998_491269
543,"(5, 66, 5, 51)",2,1998_491269
544,"(5, 66, 51, 41)",2,1998_491269
545,"(5, 140, 122, 38)",2,1998_491269
546,"(5, 529, 11, 2)",2,1998_491269
547,"(5, 555, 5, 22)",2,1998_491269
548,"(5, 555, 5, 1150)",2,1998_491269
549,"(5, 555, 22, 1150)",2,1998_491269
550,"(5, 555, 47, 1150)",2,1998_491269
551,"(14, 5, 58, 66)",2,1998_491269
552,"(28, 22, 1150, 3615)",2,1998_491269
553,"(28, 47, 5, 47)",2,1998_491269
554,"(28, 47, 32, 5)",2,1998_491269
555,"(28, 47, 113, 5)",2,1998_491269
556,"(28, 47, 113, 47)",2,1998_491269
557,"(47, 5, 22, 1150)",2,1998_491269
558,"(47, 5, 22, 3615)",2,1998_491269
559,"(47, 5, 28, 5)",2,1998_491269
560,"(47, 5, 1150, 3615)",2,1998_491269
561,"(47, 22, 1150, 3615)",2,1998_491269
562,"(47, 47, 5, 28)",2,1998_491269
563,"(47, 47, 1150, 3615)",2,1998_491269
564,"(47, 113, 5, 28)",2,1998_491269
565,"(47, 113, 47, 5)",2,1998_491269
566,"(47, 176, 94, 92)",2,1998_491269
567,"(47, 176, 94, 125)",2,1998_491269
568,"(47, 555, 5, 22)",2,1998_491269
569,"(47, 555, 5, 1150)",2,1998_491269
570,"(47, 555, 5, 3615)",2,1998_491269
571,"(47, 555, 22, 1150)",2,1998_491269
572,"(47, 555, 22, 3615)",2,1998_491269
573,"(47, 555, 47, 1150)",2,1998_491269
574,"(47, 555, 47, 3615)",2,1998_491269
575,"(47, 555, 1150, 3615)",2,1998_491269
576,"(66, 5, 51, 41)",2,1998_491269
577,"(69, 5, 5, 22)",2,1998_491269
578,"(69, 5, 28, 22)",2,1998_491269
579,"(69, 5, 47, 5)",2,1998_491269
580,"(69, 5, 47, 22)",2,1998_491269
581,"(69, 5, 47, 47)",2,1998_491269
582,"(69, 5, 47, 555)",2,1998_491269
583,"(69, 5, 555, 5)",2,1998_491269
584,"(69, 5, 555, 22)",2,1998_491269
585,"(69, 5, 555, 47)",2,1998_491269
586,"(69, 47, 5, 22)",2,1998_491269
587,"(69, 47, 555, 5)",2,1998_491269
588,"(69, 47, 555, 22)",2,1998_491269
589,"(69, 47, 555, 47)",2,1998_491269
590,"(69, 555, 5, 22)",2,1998_491269
591,"(555, 5, 22, 1150)",2,1998_491269
592,"(555, 5, 22, 3615)",2,1998_491269
593,"(555, 5, 1150, 3615)",2,1998_491269
594,"(555, 22, 1150, 3615)",2,1998_491269
595,"(555, 47, 1150, 3615)",2,1998_491269
596,"(5, 0, 5, 51, 41)",2,1998_491269
597,"(5, 28, 22, 1150, 3615)",2,1998_491269
598,"(5, 47, 5, 22, 1150)",2,1998_491269
599,"(5, 47, 555, 5, 22)",2,1998_491269
600,"(5, 47, 555, 5, 1150)",2,1998_491269
601,"(5, 47, 555, 22, 1150)",2,1998_491269
602,"(5, 47, 555, 47, 1150)",2,1998_491269
603,"(5, 66, 5, 51, 41)",2,1998_491269
604,"(5, 555, 5, 22, 1150)",2,1998_491269
605,"(47, 5, 22, 1150, 3615)",2,1998_491269
606,"(47, 555, 5, 22, 1150)",2,1998_491269
607,"(47, 555, 5, 22, 3615)",2,1998_491269
608,"(47, 555, 5, 1150, 3615)",2,1998_491269
609,"(47, 555, 22, 1150, 3615)",2,1998_491269
610,"(47, 555, 47, 1150, 3615)",2,1998_491269
611,"(69, 5, 47, 5, 22)",2,1998_491269
612,"(69, 5, 47, 555, 5)",2,1998_491269
613,"(69, 5, 47, 555, 22)",2,1998_491269
614,"(69, 5, 47, 555, 47)",2,1998_491269
615,"(69, 5, 555, 5, 22)",2,1998_491269
616,"(69, 47, 555, 5, 22)",2,1998_491269
617,"(555, 5, 22, 1150, 3615)",2,1998_491269
618,"(5, 47, 555, 5, 22, 1150)",2,1998_491269
619,"(47, 555, 5, 22, 1150, 3615)",2,1998_491269
620,"(69, 5, 47, 555, 5, 22)",2,1998_491269
