,pattern,sup,author
516,"(0, 0, 40)",2,1998_191094
517,"(0, 5, 5)",2,1998_191094
518,"(0, 5, 28)",2,1998_191094
519,"(0, 5, 40)",2,1998_191094
520,"(0, 5, 41)",2,1998_191094
521,"(0, 5, 47)",3,1998_191094
522,"(0, 5, 99)",2,1998_191094
523,"(0, 5, 214)",2,1998_191094
524,"(0, 5, 989)",2,1998_191094
525,"(0, 14, 5)",5,1998_191094
526,"(0, 14, 47)",3,1998_191094
527,"(0, 14, 989)",2,1998_191094
528,"(0, 28, 32)",2,1998_191094
529,"(0, 28, 71)",2,1998_191094
530,"(0, 47, 28)",2,1998_191094
531,"(0, 47, 210)",2,1998_191094
532,"(0, 71, 32)",2,1998_191094
533,"(0, 329, 5)",2,1998_191094
534,"(0, 407, 0)",2,1998_191094
535,"(0, 407, 40)",2,1998_191094
536,"(2, 0, 5)",2,1998_191094
537,"(2, 0, 14)",2,1998_191094
538,"(2, 5, 5)",2,1998_191094
539,"(2, 5, 214)",2,1998_191094
540,"(2, 14, 5)",3,1998_191094
541,"(2, 14, 41)",2,1998_191094
542,"(2, 14, 47)",2,1998_191094
543,"(2, 39, 5)",2,1998_191094
544,"(2, 774, 21)",2,1998_191094
545,"(5, 0, 2)",2,1998_191094
546,"(5, 0, 5)",8,1998_191094
547,"(5, 0, 6)",2,1998_191094
548,"(5, 0, 14)",4,1998_191094
549,"(5, 0, 40)",2,1998_191094
550,"(5, 0, 41)",2,1998_191094
551,"(5, 0, 47)",3,1998_191094
552,"(5, 0, 60)",2,1998_191094
553,"(5, 0, 99)",2,1998_191094
554,"(5, 2, 14)",2,1998_191094
555,"(5, 2, 41)",2,1998_191094
556,"(5, 2, 47)",3,1998_191094
557,"(5, 2, 64)",3,1998_191094
558,"(5, 5, 0)",3,1998_191094
559,"(5, 5, 2)",3,1998_191094
560,"(5, 5, 5)",4,1998_191094
561,"(5, 5, 6)",2,1998_191094
562,"(5, 5, 18)",2,1998_191094
563,"(5, 5, 28)",2,1998_191094
564,"(5, 5, 39)",2,1998_191094
565,"(5, 5, 41)",3,1998_191094
566,"(5, 5, 47)",4,1998_191094
567,"(5, 5, 86)",2,1998_191094
568,"(5, 5, 99)",2,1998_191094
569,"(5, 5, 214)",3,1998_191094
570,"(5, 5, 226)",2,1998_191094
571,"(5, 5, 797)",2,1998_191094
572,"(5, 14, 5)",4,1998_191094
573,"(5, 14, 39)",2,1998_191094
574,"(5, 14, 41)",3,1998_191094
575,"(5, 14, 47)",4,1998_191094
576,"(5, 18, 5)",2,1998_191094
577,"(5, 18, 28)",2,1998_191094
578,"(5, 18, 38)",2,1998_191094
579,"(5, 18, 92)",2,1998_191094
580,"(5, 18, 116)",2,1998_191094
581,"(5, 18, 226)",2,1998_191094
582,"(5, 18, 265)",2,1998_191094
583,"(5, 21, 0)",2,1998_191094
584,"(5, 21, 2)",2,1998_191094
585,"(5, 21, 5)",2,1998_191094
586,"(5, 21, 14)",2,1998_191094
587,"(5, 21, 32)",2,1998_191094
588,"(5, 21, 41)",2,1998_191094
589,"(5, 28, 0)",2,1998_191094
590,"(5, 28, 2)",4,1998_191094
591,"(5, 28, 32)",2,1998_191094
592,"(5, 28, 47)",2,1998_191094
593,"(5, 28, 71)",2,1998_191094
594,"(5, 28, 116)",2,1998_191094
595,"(5, 28, 140)",2,1998_191094
596,"(5, 28, 984)",2,1998_191094
597,"(5, 32, 0)",2,1998_191094
598,"(5, 32, 2)",2,1998_191094
599,"(5, 32, 5)",2,1998_191094
600,"(5, 39, 0)",3,1998_191094
601,"(5, 39, 5)",2,1998_191094
602,"(5, 39, 14)",2,1998_191094
603,"(5, 39, 39)",2,1998_191094
604,"(5, 39, 47)",2,1998_191094
605,"(5, 39, 86)",2,1998_191094
606,"(5, 39, 92)",2,1998_191094
607,"(5, 39, 266)",2,1998_191094
608,"(5, 39, 797)",2,1998_191094
609,"(5, 41, 0)",2,1998_191094
610,"(5, 41, 6)",2,1998_191094
611,"(5, 41, 38)",2,1998_191094
612,"(5, 41, 39)",2,1998_191094
613,"(5, 41, 86)",2,1998_191094
614,"(5, 41, 92)",3,1998_191094
615,"(5, 41, 116)",2,1998_191094
616,"(5, 41, 226)",2,1998_191094
617,"(5, 41, 1870)",2,1998_191094
618,"(5, 47, 0)",2,1998_191094
619,"(5, 47, 41)",2,1998_191094
620,"(5, 47, 66)",2,1998_191094
621,"(5, 47, 99)",2,1998_191094
622,"(5, 47, 222)",2,1998_191094
623,"(5, 47, 270)",2,1998_191094
624,"(5, 47, 430)",2,1998_191094
625,"(5, 51, 41)",2,1998_191094
626,"(5, 66, 5)",4,1998_191094
627,"(5, 66, 163)",3,1998_191094
628,"(5, 86, 5)",2,1998_191094
629,"(5, 86, 92)",2,1998_191094
630,"(5, 92, 5)",2,1998_191094
631,"(5, 92, 28)",2,1998_191094
632,"(5, 92, 226)",2,1998_191094
633,"(5, 99, 2)",2,1998_191094
634,"(5, 99, 11)",2,1998_191094
635,"(5, 99, 28)",2,1998_191094
636,"(5, 99, 41)",3,1998_191094
637,"(5, 99, 116)",3,1998_191094
638,"(5, 99, 226)",2,1998_191094
639,"(5, 102, 105)",2,1998_191094
640,"(5, 102, 163)",2,1998_191094
641,"(5, 105, 5)",2,1998_191094
642,"(5, 116, 226)",2,1998_191094
643,"(5, 140, 0)",2,1998_191094
644,"(5, 140, 2)",3,1998_191094
645,"(5, 140, 5)",2,1998_191094
646,"(5, 140, 14)",2,1998_191094
647,"(5, 140, 41)",2,1998_191094
648,"(5, 140, 47)",2,1998_191094
649,"(5, 214, 0)",2,1998_191094
650,"(5, 214, 2)",3,1998_191094
651,"(5, 214, 21)",2,1998_191094
652,"(5, 214, 28)",2,1998_191094
653,"(5, 214, 32)",2,1998_191094
654,"(5, 214, 774)",2,1998_191094
655,"(5, 251, 28)",2,1998_191094
656,"(5, 265, 28)",2,1998_191094
657,"(5, 265, 116)",2,1998_191094
658,"(5, 265, 226)",2,1998_191094
659,"(5, 266, 47)",2,1998_191094
660,"(5, 266, 797)",2,1998_191094
661,"(5, 273, 0)",2,1998_191094
662,"(5, 273, 5)",2,1998_191094
663,"(5, 325, 5)",2,1998_191094
664,"(5, 336, 5)",2,1998_191094
665,"(5, 417, 5)",2,1998_191094
666,"(5, 417, 39)",2,1998_191094
667,"(5, 417, 133)",2,1998_191094
668,"(5, 482, 47)",2,1998_191094
669,"(5, 774, 2)",2,1998_191094
670,"(5, 774, 21)",3,1998_191094
671,"(5, 797, 47)",3,1998_191094
672,"(5, 9717, 1870)",2,1998_191094
673,"(6, 47, 21)",2,1998_191094
674,"(6, 113, 21)",2,1998_191094
675,"(6, 113, 47)",2,1998_191094
676,"(14, 5, 2)",2,1998_191094
677,"(14, 5, 47)",3,1998_191094
678,"(14, 5, 214)",3,1998_191094
679,"(14, 5, 306)",2,1998_191094
680,"(14, 5, 989)",2,1998_191094
681,"(14, 39, 41)",2,1998_191094
682,"(14, 39, 92)",2,1998_191094
683,"(14, 41, 92)",2,1998_191094
684,"(14, 329, 5)",2,1998_191094
685,"(14, 376, 5)",2,1998_191094
686,"(14, 376, 329)",2,1998_191094
687,"(18, 28, 116)",2,1998_191094
688,"(18, 265, 28)",2,1998_191094
689,"(18, 265, 116)",2,1998_191094
690,"(18, 265, 226)",2,1998_191094
691,"(21, 0, 5)",2,1998_191094
692,"(21, 0, 553)",2,1998_191094
693,"(21, 5, 6582)",2,1998_191094
694,"(21, 14, 41)",2,1998_191094
695,"(21, 32, 5)",2,1998_191094
696,"(28, 0, 5)",2,1998_191094
697,"(28, 0, 40)",2,1998_191094
698,"(28, 2, 47)",2,1998_191094
699,"(28, 14, 5)",2,1998_191094
700,"(28, 28, 32)",2,1998_191094
701,"(28, 32, 47)",2,1998_191094
702,"(28, 38, 329)",2,1998_191094
703,"(28, 47, 5)",2,1998_191094
704,"(28, 47, 32)",3,1998_191094
705,"(28, 47, 39)",2,1998_191094
706,"(28, 71, 32)",3,1998_191094
707,"(28, 71, 47)",2,1998_191094
708,"(28, 116, 5)",2,1998_191094
709,"(28, 116, 32)",2,1998_191094
710,"(28, 116, 38)",2,1998_191094
711,"(28, 116, 154)",2,1998_191094
712,"(28, 116, 329)",2,1998_191094
713,"(28, 116, 923)",2,1998_191094
714,"(28, 123, 5)",2,1998_191094
715,"(28, 140, 2)",2,1998_191094
716,"(28, 140, 5)",2,1998_191094
717,"(28, 154, 32)",2,1998_191094
718,"(28, 154, 923)",2,1998_191094
719,"(28, 407, 0)",2,1998_191094
720,"(28, 407, 40)",2,1998_191094
721,"(28, 923, 32)",2,1998_191094
722,"(32, 0, 5)",2,1998_191094
723,"(32, 0, 14)",2,1998_191094
724,"(32, 5, 0)",2,1998_191094
725,"(32, 5, 5)",2,1998_191094
726,"(32, 5, 14)",2,1998_191094
727,"(32, 5, 39)",3,1998_191094
728,"(32, 5, 41)",2,1998_191094
729,"(32, 5, 47)",2,1998_191094
730,"(32, 5, 99)",2,1998_191094
731,"(32, 14, 5)",2,1998_191094
732,"(32, 39, 5)",2,1998_191094
733,"(32, 39, 47)",2,1998_191094
734,"(32, 47, 92)",2,1998_191094
735,"(32, 47, 210)",2,1998_191094
736,"(32, 47, 226)",2,1998_191094
737,"(32, 71, 47)",2,1998_191094
738,"(32, 226, 92)",2,1998_191094
739,"(32, 376, 47)",2,1998_191094
740,"(39, 0, 5)",3,1998_191094
741,"(39, 0, 14)",2,1998_191094
742,"(39, 5, 5)",2,1998_191094
743,"(39, 5, 47)",2,1998_191094
744,"(39, 5, 99)",2,1998_191094
745,"(39, 5, 116)",2,1998_191094
746,"(39, 5, 336)",2,1998_191094
747,"(39, 14, 5)",2,1998_191094
748,"(39, 41, 92)",3,1998_191094
749,"(39, 47, 21)",2,1998_191094
750,"(39, 47, 133)",2,1998_191094
751,"(39, 99, 116)",2,1998_191094
752,"(39, 266, 47)",2,1998_191094
753,"(39, 266, 797)",2,1998_191094
754,"(39, 336, 5)",2,1998_191094
755,"(39, 797, 47)",2,1998_191094
756,"(41, 0, 6)",2,1998_191094
757,"(41, 5, 0)",2,1998_191094
758,"(41, 5, 5)",3,1998_191094
759,"(41, 5, 6)",2,1998_191094
760,"(41, 86, 92)",2,1998_191094
761,"(41, 92, 5)",2,1998_191094
762,"(47, 0, 5)",2,1998_191094
763,"(47, 5, 5)",2,1998_191094
764,"(47, 5, 39)",3,1998_191094
765,"(47, 5, 47)",3,1998_191094
766,"(47, 5, 99)",3,1998_191094
767,"(47, 5, 116)",2,1998_191094
768,"(47, 32, 5)",3,1998_191094
769,"(47, 32, 39)",3,1998_191094
770,"(47, 32, 99)",2,1998_191094
771,"(47, 39, 5)",2,1998_191094
772,"(47, 39, 47)",2,1998_191094
773,"(47, 39, 116)",2,1998_191094
774,"(47, 47, 99)",2,1998_191094
775,"(47, 49, 47)",2,1998_191094
776,"(47, 66, 5)",2,1998_191094
777,"(47, 222, 550)",2,1998_191094
778,"(47, 226, 92)",2,1998_191094
779,"(47, 981, 325)",2,1998_191094
780,"(47, 9703, 9702)",2,1998_191094
781,"(49, 5, 99)",2,1998_191094
782,"(49, 5, 116)",2,1998_191094
783,"(49, 39, 5)",2,1998_191094
784,"(49, 99, 116)",2,1998_191094
785,"(66, 5, 5)",2,1998_191094
786,"(66, 5, 214)",2,1998_191094
787,"(71, 47, 32)",3,1998_191094
788,"(76, 5, 5)",2,1998_191094
789,"(86, 47, 210)",2,1998_191094
790,"(92, 0, 5)",2,1998_191094
791,"(92, 5, 28)",2,1998_191094
792,"(92, 5, 41)",2,1998_191094
793,"(92, 28, 116)",2,1998_191094
794,"(99, 28, 923)",2,1998_191094
795,"(99, 41, 92)",2,1998_191094
796,"(99, 41, 116)",2,1998_191094
797,"(99, 41, 226)",2,1998_191094
798,"(105, 5, 214)",2,1998_191094
799,"(113, 47, 21)",2,1998_191094
800,"(116, 38, 329)",2,1998_191094
801,"(116, 154, 32)",2,1998_191094
802,"(116, 154, 923)",2,1998_191094
803,"(116, 923, 32)",2,1998_191094
804,"(125, 2, 32)",2,1998_191094
805,"(125, 5, 5)",2,1998_191094
806,"(125, 5, 39)",2,1998_191094
807,"(125, 32, 5)",2,1998_191094
808,"(125, 32, 39)",2,1998_191094
809,"(125, 47, 32)",3,1998_191094
810,"(125, 66, 39)",2,1998_191094
811,"(140, 0, 5)",2,1998_191094
812,"(140, 2, 5)",2,1998_191094
813,"(140, 2, 14)",2,1998_191094
814,"(140, 2, 41)",2,1998_191094
815,"(140, 2, 47)",2,1998_191094
816,"(140, 14, 5)",2,1998_191094
817,"(140, 14, 41)",2,1998_191094
818,"(140, 14, 47)",2,1998_191094
819,"(154, 923, 32)",2,1998_191094
820,"(214, 21, 2)",2,1998_191094
821,"(214, 32, 0)",2,1998_191094
822,"(214, 774, 2)",2,1998_191094
823,"(214, 774, 21)",2,1998_191094
824,"(226, 19, 28)",2,1998_191094
825,"(226, 28, 32)",2,1998_191094
826,"(226, 28, 47)",2,1998_191094
827,"(226, 28, 71)",2,1998_191094
828,"(226, 71, 47)",2,1998_191094
829,"(265, 28, 116)",2,1998_191094
830,"(265, 47, 105)",2,1998_191094
831,"(266, 797, 47)",2,1998_191094
832,"(270, 0, 5)",2,1998_191094
833,"(270, 0, 14)",2,1998_191094
834,"(270, 5, 5)",2,1998_191094
835,"(270, 5, 39)",2,1998_191094
836,"(270, 14, 5)",2,1998_191094
837,"(270, 32, 5)",2,1998_191094
838,"(270, 32, 39)",2,1998_191094
839,"(270, 39, 5)",2,1998_191094
840,"(270, 125, 2)",2,1998_191094
841,"(270, 125, 5)",2,1998_191094
842,"(270, 125, 32)",2,1998_191094
843,"(270, 125, 39)",2,1998_191094
844,"(270, 125, 89)",2,1998_191094
845,"(273, 0, 5)",2,1998_191094
846,"(325, 5, 41)",2,1998_191094
847,"(325, 5, 99)",2,1998_191094
848,"(325, 39, 5)",2,1998_191094
849,"(325, 99, 41)",2,1998_191094
850,"(376, 5, 214)",2,1998_191094
851,"(376, 329, 5)",2,1998_191094
852,"(407, 0, 40)",2,1998_191094
853,"(774, 21, 2)",2,1998_191094
854,"(774, 21, 14)",2,1998_191094
855,"(981, 47, 32)",2,1998_191094
856,"(0, 14, 5, 47)",3,1998_191094
857,"(0, 14, 5, 989)",2,1998_191094
858,"(0, 28, 71, 32)",2,1998_191094
859,"(0, 407, 0, 40)",2,1998_191094
860,"(2, 0, 14, 5)",2,1998_191094
861,"(5, 0, 5, 5)",2,1998_191094
862,"(5, 0, 5, 41)",2,1998_191094
863,"(5, 0, 5, 47)",3,1998_191094
864,"(5, 0, 5, 99)",2,1998_191094
865,"(5, 0, 14, 5)",4,1998_191094
866,"(5, 0, 14, 47)",3,1998_191094
867,"(5, 2, 14, 41)",2,1998_191094
868,"(5, 2, 14, 47)",2,1998_191094
869,"(5, 5, 0, 6)",2,1998_191094
870,"(5, 5, 5, 86)",2,1998_191094
871,"(5, 5, 214, 28)",2,1998_191094
872,"(5, 5, 797, 47)",2,1998_191094
873,"(5, 14, 5, 47)",3,1998_191094
874,"(5, 18, 28, 116)",2,1998_191094
875,"(5, 18, 265, 28)",2,1998_191094
876,"(5, 18, 265, 116)",2,1998_191094
877,"(5, 18, 265, 226)",2,1998_191094
878,"(5, 21, 14, 41)",2,1998_191094
879,"(5, 28, 2, 47)",2,1998_191094
880,"(5, 28, 140, 2)",2,1998_191094
881,"(5, 39, 0, 5)",2,1998_191094
882,"(5, 39, 266, 47)",2,1998_191094
883,"(5, 39, 266, 797)",2,1998_191094
884,"(5, 39, 797, 47)",2,1998_191094
885,"(5, 41, 0, 6)",2,1998_191094
886,"(5, 99, 41, 116)",2,1998_191094
887,"(5, 99, 41, 226)",2,1998_191094
888,"(5, 140, 0, 5)",2,1998_191094
889,"(5, 140, 2, 14)",2,1998_191094
890,"(5, 140, 2, 41)",2,1998_191094
891,"(5, 140, 2, 47)",2,1998_191094
892,"(5, 140, 14, 41)",2,1998_191094
893,"(5, 140, 14, 47)",2,1998_191094
894,"(5, 214, 21, 2)",2,1998_191094
895,"(5, 214, 32, 0)",2,1998_191094
896,"(5, 214, 774, 2)",2,1998_191094
897,"(5, 214, 774, 21)",2,1998_191094
898,"(5, 265, 28, 116)",2,1998_191094
899,"(5, 266, 797, 47)",2,1998_191094
900,"(5, 273, 0, 5)",2,1998_191094
901,"(5, 774, 21, 2)",2,1998_191094
902,"(6, 113, 47, 21)",2,1998_191094
903,"(14, 39, 41, 92)",2,1998_191094
904,"(14, 376, 329, 5)",2,1998_191094
905,"(18, 265, 28, 116)",2,1998_191094
906,"(28, 71, 47, 32)",2,1998_191094
907,"(28, 116, 38, 329)",2,1998_191094
908,"(28, 116, 154, 32)",2,1998_191094
909,"(28, 116, 154, 923)",2,1998_191094
910,"(28, 116, 923, 32)",2,1998_191094
911,"(28, 154, 923, 32)",2,1998_191094
912,"(28, 407, 0, 40)",2,1998_191094
913,"(32, 0, 14, 5)",2,1998_191094
914,"(32, 5, 0, 5)",2,1998_191094
915,"(32, 5, 0, 14)",2,1998_191094
916,"(32, 5, 14, 5)",2,1998_191094
917,"(32, 39, 5, 47)",2,1998_191094
918,"(32, 47, 226, 92)",2,1998_191094
919,"(39, 0, 14, 5)",2,1998_191094
920,"(39, 5, 99, 116)",2,1998_191094
921,"(39, 5, 336, 5)",2,1998_191094
922,"(39, 266, 797, 47)",2,1998_191094
923,"(41, 5, 0, 6)",2,1998_191094
924,"(41, 5, 5, 6)",2,1998_191094
925,"(47, 5, 47, 99)",2,1998_191094
926,"(47, 32, 5, 39)",2,1998_191094
927,"(47, 32, 5, 99)",2,1998_191094
928,"(49, 5, 99, 116)",2,1998_191094
929,"(116, 154, 923, 32)",2,1998_191094
930,"(125, 32, 5, 39)",2,1998_191094
931,"(140, 2, 14, 5)",2,1998_191094
932,"(140, 2, 14, 41)",2,1998_191094
933,"(140, 2, 14, 47)",2,1998_191094
934,"(214, 774, 21, 2)",2,1998_191094
935,"(226, 28, 71, 47)",2,1998_191094
936,"(270, 0, 14, 5)",2,1998_191094
937,"(270, 32, 5, 39)",2,1998_191094
938,"(270, 125, 5, 5)",2,1998_191094
939,"(270, 125, 5, 39)",2,1998_191094
940,"(270, 125, 32, 5)",2,1998_191094
941,"(270, 125, 32, 39)",2,1998_191094
942,"(325, 5, 99, 41)",2,1998_191094
943,"(5, 0, 14, 5, 47)",3,1998_191094
944,"(5, 18, 265, 28, 116)",2,1998_191094
945,"(5, 39, 266, 797, 47)",2,1998_191094
946,"(5, 140, 2, 14, 41)",2,1998_191094
947,"(5, 140, 2, 14, 47)",2,1998_191094
948,"(5, 214, 774, 21, 2)",2,1998_191094
949,"(28, 116, 154, 923, 32)",2,1998_191094
950,"(32, 5, 0, 14, 5)",2,1998_191094
951,"(270, 125, 32, 5, 39)",2,1998_191094
