,pattern,sup,author
186,"(0, 5, 40)",2,1998_955304
187,"(0, 22, 40)",2,1998_955304
188,"(0, 22, 156)",2,1998_955304
189,"(0, 32, 5)",2,1998_955304
190,"(0, 32, 22)",2,1998_955304
191,"(0, 32, 39)",2,1998_955304
192,"(0, 32, 40)",2,1998_955304
193,"(0, 32, 156)",2,1998_955304
194,"(0, 40, 156)",2,1998_955304
195,"(5, 0, 5)",2,1998_955304
196,"(5, 0, 32)",4,1998_955304
197,"(5, 0, 40)",2,1998_955304
198,"(5, 2, 21)",2,1998_955304
199,"(5, 5, 0)",3,1998_955304
200,"(5, 5, 2)",2,1998_955304
201,"(5, 5, 21)",3,1998_955304
202,"(5, 5, 28)",4,1998_955304
203,"(5, 5, 32)",2,1998_955304
204,"(5, 5, 38)",2,1998_955304
205,"(5, 5, 39)",2,1998_955304
206,"(5, 5, 41)",4,1998_955304
207,"(5, 5, 71)",3,1998_955304
208,"(5, 5, 125)",2,1998_955304
209,"(5, 5, 171)",2,1998_955304
210,"(5, 5, 214)",4,1998_955304
211,"(5, 5, 266)",3,1998_955304
212,"(5, 22, 40)",3,1998_955304
213,"(5, 22, 156)",3,1998_955304
214,"(5, 28, 5)",2,1998_955304
215,"(5, 28, 22)",2,1998_955304
216,"(5, 28, 28)",2,1998_955304
217,"(5, 28, 32)",2,1998_955304
218,"(5, 28, 40)",2,1998_955304
219,"(5, 28, 266)",2,1998_955304
220,"(5, 28, 830)",2,1998_955304
221,"(5, 32, 5)",3,1998_955304
222,"(5, 32, 21)",2,1998_955304
223,"(5, 32, 266)",2,1998_955304
224,"(5, 38, 21)",2,1998_955304
225,"(5, 38, 32)",2,1998_955304
226,"(5, 40, 156)",3,1998_955304
227,"(5, 41, 22)",2,1998_955304
228,"(5, 41, 28)",4,1998_955304
229,"(5, 41, 40)",3,1998_955304
230,"(5, 41, 830)",2,1998_955304
231,"(5, 66, 32)",2,1998_955304
232,"(5, 66, 163)",2,1998_955304
233,"(5, 71, 0)",2,1998_955304
234,"(5, 71, 5)",2,1998_955304
235,"(5, 71, 21)",2,1998_955304
236,"(5, 92, 5)",2,1998_955304
237,"(5, 92, 28)",2,1998_955304
238,"(5, 116, 28)",2,1998_955304
239,"(5, 116, 213)",2,1998_955304
240,"(5, 163, 32)",2,1998_955304
241,"(5, 171, 40)",2,1998_955304
242,"(5, 171, 41)",2,1998_955304
243,"(5, 213, 28)",2,1998_955304
244,"(5, 214, 0)",4,1998_955304
245,"(5, 214, 2)",2,1998_955304
246,"(5, 214, 5)",4,1998_955304
247,"(5, 214, 21)",3,1998_955304
248,"(5, 214, 22)",2,1998_955304
249,"(5, 214, 28)",4,1998_955304
250,"(5, 214, 32)",3,1998_955304
251,"(5, 214, 39)",2,1998_955304
252,"(5, 214, 40)",3,1998_955304
253,"(5, 214, 41)",4,1998_955304
254,"(5, 214, 92)",2,1998_955304
255,"(5, 214, 125)",2,1998_955304
256,"(5, 214, 156)",2,1998_955304
257,"(5, 214, 171)",2,1998_955304
258,"(5, 226, 0)",2,1998_955304
259,"(5, 226, 5)",2,1998_955304
260,"(5, 226, 32)",2,1998_955304
261,"(5, 226, 66)",2,1998_955304
262,"(5, 226, 125)",2,1998_955304
263,"(5, 226, 163)",2,1998_955304
264,"(5, 266, 28)",2,1998_955304
265,"(5, 266, 116)",3,1998_955304
266,"(5, 266, 213)",2,1998_955304
267,"(5, 270, 0)",2,1998_955304
268,"(5, 383, 5)",2,1998_955304
269,"(5, 383, 38)",2,1998_955304
270,"(5, 470, 5)",2,1998_955304
271,"(5, 470, 32)",2,1998_955304
272,"(5, 470, 66)",2,1998_955304
273,"(5, 470, 125)",2,1998_955304
274,"(5, 470, 163)",2,1998_955304
275,"(5, 470, 226)",2,1998_955304
276,"(5, 550, 2)",2,1998_955304
277,"(5, 550, 5)",2,1998_955304
278,"(5, 767, 40)",2,1998_955304
279,"(5, 830, 22)",2,1998_955304
280,"(5, 961, 0)",2,1998_955304
281,"(5, 1743, 0)",2,1998_955304
282,"(22, 40, 156)",3,1998_955304
283,"(28, 5, 116)",2,1998_955304
284,"(28, 5, 266)",2,1998_955304
285,"(28, 32, 5)",2,1998_955304
286,"(28, 32, 116)",2,1998_955304
287,"(28, 32, 266)",2,1998_955304
288,"(28, 266, 116)",2,1998_955304
289,"(28, 830, 22)",2,1998_955304
290,"(32, 5, 22)",3,1998_955304
291,"(32, 5, 28)",2,1998_955304
292,"(32, 5, 40)",2,1998_955304
293,"(32, 5, 41)",2,1998_955304
294,"(32, 5, 116)",2,1998_955304
295,"(32, 5, 156)",2,1998_955304
296,"(32, 5, 214)",2,1998_955304
297,"(32, 5, 266)",2,1998_955304
298,"(32, 5, 830)",2,1998_955304
299,"(32, 22, 40)",3,1998_955304
300,"(32, 22, 156)",3,1998_955304
301,"(32, 28, 22)",2,1998_955304
302,"(32, 28, 830)",2,1998_955304
303,"(32, 40, 156)",3,1998_955304
304,"(32, 41, 22)",2,1998_955304
305,"(32, 41, 28)",2,1998_955304
306,"(32, 41, 830)",2,1998_955304
307,"(32, 214, 22)",2,1998_955304
308,"(32, 214, 40)",2,1998_955304
309,"(32, 214, 156)",2,1998_955304
310,"(32, 266, 116)",2,1998_955304
311,"(32, 830, 22)",2,1998_955304
312,"(38, 32, 5)",2,1998_955304
313,"(38, 32, 21)",2,1998_955304
314,"(38, 32, 71)",2,1998_955304
315,"(41, 28, 22)",2,1998_955304
316,"(41, 28, 40)",2,1998_955304
317,"(41, 28, 830)",2,1998_955304
318,"(41, 830, 22)",2,1998_955304
319,"(66, 163, 32)",2,1998_955304
320,"(68, 125, 28)",2,1998_955304
321,"(71, 5, 2)",2,1998_955304
322,"(71, 5, 214)",2,1998_955304
323,"(92, 5, 28)",2,1998_955304
324,"(116, 213, 28)",2,1998_955304
325,"(125, 5, 28)",2,1998_955304
326,"(125, 5, 41)",2,1998_955304
327,"(125, 28, 22)",2,1998_955304
328,"(125, 32, 5)",3,1998_955304
329,"(125, 32, 28)",2,1998_955304
330,"(125, 32, 41)",2,1998_955304
331,"(125, 41, 28)",2,1998_955304
332,"(171, 41, 40)",2,1998_955304
333,"(214, 0, 32)",3,1998_955304
334,"(214, 2, 21)",2,1998_955304
335,"(214, 5, 21)",2,1998_955304
336,"(214, 5, 28)",3,1998_955304
337,"(214, 5, 41)",3,1998_955304
338,"(214, 5, 171)",2,1998_955304
339,"(214, 22, 40)",2,1998_955304
340,"(214, 22, 156)",2,1998_955304
341,"(214, 28, 40)",2,1998_955304
342,"(214, 40, 156)",2,1998_955304
343,"(214, 41, 28)",3,1998_955304
344,"(214, 41, 40)",2,1998_955304
345,"(214, 92, 5)",2,1998_955304
346,"(214, 92, 28)",2,1998_955304
347,"(214, 171, 41)",2,1998_955304
348,"(226, 66, 32)",2,1998_955304
349,"(226, 66, 163)",2,1998_955304
350,"(226, 163, 32)",2,1998_955304
351,"(266, 28, 116)",2,1998_955304
352,"(266, 116, 28)",2,1998_955304
353,"(266, 116, 213)",2,1998_955304
354,"(266, 213, 28)",2,1998_955304
355,"(270, 32, 5)",3,1998_955304
356,"(270, 125, 5)",2,1998_955304
357,"(270, 125, 32)",2,1998_955304
358,"(383, 5, 38)",2,1998_955304
359,"(406, 0, 5)",2,1998_955304
360,"(470, 66, 32)",2,1998_955304
361,"(470, 66, 163)",2,1998_955304
362,"(470, 163, 32)",2,1998_955304
363,"(470, 226, 5)",2,1998_955304
364,"(470, 226, 32)",2,1998_955304
365,"(470, 226, 66)",2,1998_955304
366,"(470, 226, 125)",2,1998_955304
367,"(470, 226, 163)",2,1998_955304
368,"(550, 5, 2)",2,1998_955304
369,"(550, 5, 21)",2,1998_955304
370,"(550, 5, 32)",2,1998_955304
371,"(550, 5, 38)",3,1998_955304
372,"(550, 5, 822)",2,1998_955304
373,"(550, 38, 32)",2,1998_955304
374,"(961, 5, 214)",2,1998_955304
375,"(0, 22, 40, 156)",2,1998_955304
376,"(0, 32, 22, 40)",2,1998_955304
377,"(0, 32, 22, 156)",2,1998_955304
378,"(0, 32, 40, 156)",2,1998_955304
379,"(5, 5, 41, 28)",3,1998_955304
380,"(5, 5, 71, 21)",2,1998_955304
381,"(5, 5, 171, 41)",2,1998_955304
382,"(5, 5, 214, 0)",2,1998_955304
383,"(5, 5, 214, 32)",2,1998_955304
384,"(5, 5, 214, 39)",2,1998_955304
385,"(5, 5, 266, 28)",2,1998_955304
386,"(5, 22, 40, 156)",3,1998_955304
387,"(5, 28, 5, 266)",2,1998_955304
388,"(5, 28, 32, 5)",2,1998_955304
389,"(5, 28, 32, 266)",2,1998_955304
390,"(5, 28, 830, 22)",2,1998_955304
391,"(5, 32, 5, 266)",2,1998_955304
392,"(5, 38, 32, 21)",2,1998_955304
393,"(5, 41, 28, 22)",2,1998_955304
394,"(5, 41, 28, 40)",2,1998_955304
395,"(5, 41, 28, 830)",2,1998_955304
396,"(5, 41, 830, 22)",2,1998_955304
397,"(5, 66, 163, 32)",2,1998_955304
398,"(5, 92, 5, 28)",2,1998_955304
399,"(5, 116, 213, 28)",2,1998_955304
400,"(5, 171, 41, 40)",2,1998_955304
401,"(5, 214, 0, 32)",2,1998_955304
402,"(5, 214, 2, 21)",2,1998_955304
403,"(5, 214, 5, 21)",2,1998_955304
404,"(5, 214, 5, 28)",3,1998_955304
405,"(5, 214, 5, 41)",3,1998_955304
406,"(5, 214, 5, 171)",2,1998_955304
407,"(5, 214, 22, 40)",2,1998_955304
408,"(5, 214, 22, 156)",2,1998_955304
409,"(5, 214, 28, 40)",2,1998_955304
410,"(5, 214, 40, 156)",2,1998_955304
411,"(5, 214, 41, 28)",3,1998_955304
412,"(5, 214, 41, 40)",2,1998_955304
413,"(5, 214, 92, 5)",2,1998_955304
414,"(5, 214, 92, 28)",2,1998_955304
415,"(5, 214, 171, 41)",2,1998_955304
416,"(5, 226, 66, 32)",2,1998_955304
417,"(5, 226, 66, 163)",2,1998_955304
418,"(5, 226, 163, 32)",2,1998_955304
419,"(5, 266, 116, 28)",2,1998_955304
420,"(5, 266, 116, 213)",2,1998_955304
421,"(5, 266, 213, 28)",2,1998_955304
422,"(5, 383, 5, 38)",2,1998_955304
423,"(5, 470, 66, 32)",2,1998_955304
424,"(5, 470, 66, 163)",2,1998_955304
425,"(5, 470, 163, 32)",2,1998_955304
426,"(5, 470, 226, 5)",2,1998_955304
427,"(5, 470, 226, 32)",2,1998_955304
428,"(5, 470, 226, 66)",2,1998_955304
429,"(5, 470, 226, 125)",2,1998_955304
430,"(5, 470, 226, 163)",2,1998_955304
431,"(5, 550, 5, 2)",2,1998_955304
432,"(28, 5, 266, 116)",2,1998_955304
433,"(28, 32, 5, 116)",2,1998_955304
434,"(28, 32, 5, 266)",2,1998_955304
435,"(28, 32, 266, 116)",2,1998_955304
436,"(32, 5, 22, 40)",2,1998_955304
437,"(32, 5, 22, 156)",2,1998_955304
438,"(32, 5, 28, 22)",2,1998_955304
439,"(32, 5, 28, 830)",2,1998_955304
440,"(32, 5, 40, 156)",2,1998_955304
441,"(32, 5, 41, 22)",2,1998_955304
442,"(32, 5, 41, 28)",2,1998_955304
443,"(32, 5, 41, 830)",2,1998_955304
444,"(32, 5, 214, 22)",2,1998_955304
445,"(32, 5, 214, 40)",2,1998_955304
446,"(32, 5, 214, 156)",2,1998_955304
447,"(32, 5, 266, 116)",2,1998_955304
448,"(32, 5, 830, 22)",2,1998_955304
449,"(32, 22, 40, 156)",3,1998_955304
450,"(32, 28, 830, 22)",2,1998_955304
451,"(32, 41, 28, 22)",2,1998_955304
452,"(32, 41, 28, 830)",2,1998_955304
453,"(32, 41, 830, 22)",2,1998_955304
454,"(32, 214, 22, 40)",2,1998_955304
455,"(32, 214, 22, 156)",2,1998_955304
456,"(32, 214, 40, 156)",2,1998_955304
457,"(41, 28, 830, 22)",2,1998_955304
458,"(125, 5, 41, 28)",2,1998_955304
459,"(125, 32, 5, 28)",2,1998_955304
460,"(125, 32, 5, 41)",2,1998_955304
461,"(125, 32, 41, 28)",2,1998_955304
462,"(214, 5, 41, 28)",2,1998_955304
463,"(214, 5, 171, 41)",2,1998_955304
464,"(214, 22, 40, 156)",2,1998_955304
465,"(214, 41, 28, 40)",2,1998_955304
466,"(214, 92, 5, 28)",2,1998_955304
467,"(226, 66, 163, 32)",2,1998_955304
468,"(266, 116, 213, 28)",2,1998_955304
469,"(270, 125, 32, 5)",2,1998_955304
470,"(470, 66, 163, 32)",2,1998_955304
471,"(470, 226, 66, 32)",2,1998_955304
472,"(470, 226, 66, 163)",2,1998_955304
473,"(470, 226, 163, 32)",2,1998_955304
474,"(550, 5, 38, 32)",2,1998_955304
475,"(0, 32, 22, 40, 156)",2,1998_955304
476,"(5, 28, 32, 5, 266)",2,1998_955304
477,"(5, 41, 28, 830, 22)",2,1998_955304
478,"(5, 214, 5, 41, 28)",2,1998_955304
479,"(5, 214, 5, 171, 41)",2,1998_955304
480,"(5, 214, 22, 40, 156)",2,1998_955304
481,"(5, 214, 41, 28, 40)",2,1998_955304
482,"(5, 214, 92, 5, 28)",2,1998_955304
483,"(5, 226, 66, 163, 32)",2,1998_955304
484,"(5, 266, 116, 213, 28)",2,1998_955304
485,"(5, 470, 66, 163, 32)",2,1998_955304
486,"(5, 470, 226, 66, 32)",2,1998_955304
487,"(5, 470, 226, 66, 163)",2,1998_955304
488,"(5, 470, 226, 163, 32)",2,1998_955304
489,"(28, 32, 5, 266, 116)",2,1998_955304
490,"(32, 5, 22, 40, 156)",2,1998_955304
491,"(32, 5, 28, 830, 22)",2,1998_955304
492,"(32, 5, 41, 28, 22)",2,1998_955304
493,"(32, 5, 41, 28, 830)",2,1998_955304
494,"(32, 5, 41, 830, 22)",2,1998_955304
495,"(32, 5, 214, 22, 40)",2,1998_955304
496,"(32, 5, 214, 22, 156)",2,1998_955304
497,"(32, 5, 214, 40, 156)",2,1998_955304
498,"(32, 41, 28, 830, 22)",2,1998_955304
499,"(32, 214, 22, 40, 156)",2,1998_955304
500,"(125, 32, 5, 41, 28)",2,1998_955304
501,"(470, 226, 66, 163, 32)",2,1998_955304
502,"(5, 470, 226, 66, 163, 32)",2,1998_955304
503,"(32, 5, 41, 28, 830, 22)",2,1998_955304
504,"(32, 5, 214, 22, 40, 156)",2,1998_955304
