,pattern,sup,author
361,"(2, 5, 32)",2,1999_852277
362,"(2, 5, 171)",2,1999_852277
363,"(2, 14, 5)",2,1999_852277
364,"(2, 21, 28)",3,1999_852277
365,"(2, 21, 91)",2,1999_852277
366,"(2, 21, 171)",3,1999_852277
367,"(2, 28, 171)",3,1999_852277
368,"(2, 32, 125)",2,1999_852277
369,"(2, 64, 5)",2,1999_852277
370,"(2, 64, 21)",3,1999_852277
371,"(2, 64, 28)",4,1999_852277
372,"(2, 64, 91)",2,1999_852277
373,"(2, 64, 171)",3,1999_852277
374,"(2, 64, 331)",2,1999_852277
375,"(2, 89, 78)",2,1999_852277
376,"(2, 91, 28)",2,1999_852277
377,"(2, 91, 171)",2,1999_852277
378,"(5, 2, 5)",3,1999_852277
379,"(5, 2, 21)",3,1999_852277
380,"(5, 2, 28)",4,1999_852277
381,"(5, 2, 64)",4,1999_852277
382,"(5, 2, 65)",2,1999_852277
383,"(5, 2, 91)",2,1999_852277
384,"(5, 2, 171)",2,1999_852277
385,"(5, 2, 331)",2,1999_852277
386,"(5, 5, 18)",2,1999_852277
387,"(5, 5, 28)",2,1999_852277
388,"(5, 5, 225)",2,1999_852277
389,"(5, 5, 1837)",2,1999_852277
390,"(5, 6, 2)",2,1999_852277
391,"(5, 6, 28)",2,1999_852277
392,"(5, 6, 32)",2,1999_852277
393,"(5, 6, 122)",2,1999_852277
394,"(5, 14, 5)",2,1999_852277
395,"(5, 18, 2)",4,1999_852277
396,"(5, 18, 21)",4,1999_852277
397,"(5, 18, 28)",7,1999_852277
398,"(5, 18, 47)",2,1999_852277
399,"(5, 18, 64)",3,1999_852277
400,"(5, 18, 91)",2,1999_852277
401,"(5, 18, 144)",2,1999_852277
402,"(5, 18, 171)",2,1999_852277
403,"(5, 18, 267)",2,1999_852277
404,"(5, 18, 325)",2,1999_852277
405,"(5, 21, 5)",2,1999_852277
406,"(5, 21, 28)",3,1999_852277
407,"(5, 21, 47)",3,1999_852277
408,"(5, 21, 91)",2,1999_852277
409,"(5, 21, 171)",2,1999_852277
410,"(5, 28, 28)",2,1999_852277
411,"(5, 28, 32)",2,1999_852277
412,"(5, 28, 40)",2,1999_852277
413,"(5, 28, 47)",3,1999_852277
414,"(5, 28, 86)",2,1999_852277
415,"(5, 28, 144)",2,1999_852277
416,"(5, 28, 157)",2,1999_852277
417,"(5, 28, 171)",2,1999_852277
418,"(5, 28, 325)",2,1999_852277
419,"(5, 28, 329)",2,1999_852277
420,"(5, 28, 429)",2,1999_852277
421,"(5, 28, 3428)",3,1999_852277
422,"(5, 32, 28)",4,1999_852277
423,"(5, 32, 43)",2,1999_852277
424,"(5, 32, 47)",2,1999_852277
425,"(5, 32, 92)",3,1999_852277
426,"(5, 32, 125)",2,1999_852277
427,"(5, 32, 128)",2,1999_852277
428,"(5, 32, 203)",2,1999_852277
429,"(5, 38, 21)",2,1999_852277
430,"(5, 38, 47)",2,1999_852277
431,"(5, 39, 28)",2,1999_852277
432,"(5, 40, 32)",2,1999_852277
433,"(5, 64, 5)",2,1999_852277
434,"(5, 64, 21)",3,1999_852277
435,"(5, 64, 28)",4,1999_852277
436,"(5, 64, 91)",2,1999_852277
437,"(5, 64, 171)",2,1999_852277
438,"(5, 64, 331)",2,1999_852277
439,"(5, 69, 28)",2,1999_852277
440,"(5, 86, 28)",2,1999_852277
441,"(5, 86, 32)",2,1999_852277
442,"(5, 89, 230)",2,1999_852277
443,"(5, 91, 28)",2,1999_852277
444,"(5, 91, 325)",2,1999_852277
445,"(5, 92, 28)",3,1999_852277
446,"(5, 92, 128)",2,1999_852277
447,"(5, 106, 1272)",2,1999_852277
448,"(5, 157, 329)",2,1999_852277
449,"(5, 159, 28)",2,1999_852277
450,"(5, 159, 157)",2,1999_852277
451,"(5, 159, 329)",2,1999_852277
452,"(5, 226, 28)",2,1999_852277
453,"(5, 226, 32)",2,1999_852277
454,"(5, 226, 40)",2,1999_852277
455,"(5, 230, 5)",2,1999_852277
456,"(5, 230, 28)",2,1999_852277
457,"(5, 230, 225)",2,1999_852277
458,"(5, 273, 32)",3,1999_852277
459,"(5, 273, 43)",2,1999_852277
460,"(5, 325, 28)",2,1999_852277
461,"(5, 2728, 1716)",2,1999_852277
462,"(6, 28, 5)",2,1999_852277
463,"(6, 28, 32)",2,1999_852277
464,"(6, 28, 267)",2,1999_852277
465,"(14, 5, 28)",2,1999_852277
466,"(18, 2, 21)",3,1999_852277
467,"(18, 2, 28)",3,1999_852277
468,"(18, 2, 64)",3,1999_852277
469,"(18, 2, 91)",2,1999_852277
470,"(18, 2, 171)",2,1999_852277
471,"(18, 21, 28)",3,1999_852277
472,"(18, 21, 91)",2,1999_852277
473,"(18, 21, 171)",2,1999_852277
474,"(18, 28, 28)",2,1999_852277
475,"(18, 28, 32)",2,1999_852277
476,"(18, 28, 144)",2,1999_852277
477,"(18, 28, 171)",2,1999_852277
478,"(18, 28, 325)",2,1999_852277
479,"(18, 64, 21)",3,1999_852277
480,"(18, 64, 28)",3,1999_852277
481,"(18, 64, 91)",2,1999_852277
482,"(18, 64, 171)",2,1999_852277
483,"(18, 91, 28)",2,1999_852277
484,"(21, 28, 171)",3,1999_852277
485,"(21, 91, 28)",2,1999_852277
486,"(21, 91, 171)",2,1999_852277
487,"(28, 66, 163)",2,1999_852277
488,"(28, 66, 215)",2,1999_852277
489,"(28, 92, 2972)",2,1999_852277
490,"(28, 157, 329)",2,1999_852277
491,"(28, 163, 215)",2,1999_852277
492,"(28, 325, 39)",2,1999_852277
493,"(32, 5, 32)",2,1999_852277
494,"(32, 92, 28)",3,1999_852277
495,"(32, 92, 128)",2,1999_852277
496,"(38, 21, 47)",2,1999_852277
497,"(39, 28, 128)",2,1999_852277
498,"(39, 32, 5)",2,1999_852277
499,"(39, 32, 125)",2,1999_852277
500,"(39, 125, 28)",2,1999_852277
501,"(39, 125, 128)",2,1999_852277
502,"(41, 28, 267)",2,1999_852277
503,"(64, 21, 28)",3,1999_852277
504,"(64, 21, 91)",2,1999_852277
505,"(64, 21, 171)",3,1999_852277
506,"(64, 28, 171)",3,1999_852277
507,"(64, 91, 28)",2,1999_852277
508,"(64, 91, 171)",2,1999_852277
509,"(66, 163, 215)",2,1999_852277
510,"(86, 6, 28)",2,1999_852277
511,"(86, 32, 28)",2,1999_852277
512,"(91, 28, 171)",2,1999_852277
513,"(92, 28, 86)",2,1999_852277
514,"(92, 28, 92)",2,1999_852277
515,"(92, 28, 2972)",2,1999_852277
516,"(92, 47, 489)",2,1999_852277
517,"(92, 92, 18)",2,1999_852277
518,"(92, 92, 2972)",2,1999_852277
519,"(122, 251, 28)",2,1999_852277
520,"(124, 6, 28)",2,1999_852277
521,"(124, 28, 18)",2,1999_852277
522,"(124, 28, 28)",2,1999_852277
523,"(124, 41, 5)",2,1999_852277
524,"(124, 41, 28)",2,1999_852277
525,"(124, 86, 18)",2,1999_852277
526,"(124, 86, 32)",2,1999_852277
527,"(124, 316, 5)",2,1999_852277
528,"(124, 679, 325)",2,1999_852277
529,"(125, 2, 78)",2,1999_852277
530,"(125, 28, 128)",2,1999_852277
531,"(159, 28, 157)",2,1999_852277
532,"(159, 28, 329)",2,1999_852277
533,"(159, 157, 329)",2,1999_852277
534,"(230, 5, 225)",2,1999_852277
535,"(239, 125, 47)",2,1999_852277
536,"(270, 2, 78)",2,1999_852277
537,"(270, 125, 2)",2,1999_852277
538,"(273, 32, 43)",2,1999_852277
539,"(346, 86, 92)",2,1999_852277
540,"(346, 86, 2972)",2,1999_852277
541,"(2, 21, 28, 171)",3,1999_852277
542,"(2, 21, 91, 28)",2,1999_852277
543,"(2, 21, 91, 171)",2,1999_852277
544,"(2, 64, 21, 28)",3,1999_852277
545,"(2, 64, 21, 91)",2,1999_852277
546,"(2, 64, 21, 171)",3,1999_852277
547,"(2, 64, 28, 171)",3,1999_852277
548,"(2, 64, 91, 28)",2,1999_852277
549,"(2, 64, 91, 171)",2,1999_852277
550,"(2, 91, 28, 171)",2,1999_852277
551,"(5, 2, 21, 28)",3,1999_852277
552,"(5, 2, 21, 91)",2,1999_852277
553,"(5, 2, 21, 171)",2,1999_852277
554,"(5, 2, 28, 171)",2,1999_852277
555,"(5, 2, 64, 5)",2,1999_852277
556,"(5, 2, 64, 21)",3,1999_852277
557,"(5, 2, 64, 28)",4,1999_852277
558,"(5, 2, 64, 91)",2,1999_852277
559,"(5, 2, 64, 171)",2,1999_852277
560,"(5, 2, 64, 331)",2,1999_852277
561,"(5, 2, 91, 28)",2,1999_852277
562,"(5, 18, 2, 21)",3,1999_852277
563,"(5, 18, 2, 28)",3,1999_852277
564,"(5, 18, 2, 64)",3,1999_852277
565,"(5, 18, 2, 91)",2,1999_852277
566,"(5, 18, 2, 171)",2,1999_852277
567,"(5, 18, 21, 28)",3,1999_852277
568,"(5, 18, 21, 91)",2,1999_852277
569,"(5, 18, 21, 171)",2,1999_852277
570,"(5, 18, 28, 28)",2,1999_852277
571,"(5, 18, 28, 144)",2,1999_852277
572,"(5, 18, 28, 171)",2,1999_852277
573,"(5, 18, 28, 325)",2,1999_852277
574,"(5, 18, 64, 21)",3,1999_852277
575,"(5, 18, 64, 28)",3,1999_852277
576,"(5, 18, 64, 91)",2,1999_852277
577,"(5, 18, 64, 171)",2,1999_852277
578,"(5, 18, 91, 28)",2,1999_852277
579,"(5, 21, 28, 171)",2,1999_852277
580,"(5, 21, 91, 28)",2,1999_852277
581,"(5, 28, 157, 329)",2,1999_852277
582,"(5, 32, 92, 28)",2,1999_852277
583,"(5, 32, 92, 128)",2,1999_852277
584,"(5, 38, 21, 47)",2,1999_852277
585,"(5, 64, 21, 28)",3,1999_852277
586,"(5, 64, 21, 91)",2,1999_852277
587,"(5, 64, 21, 171)",2,1999_852277
588,"(5, 64, 28, 171)",2,1999_852277
589,"(5, 64, 91, 28)",2,1999_852277
590,"(5, 159, 28, 157)",2,1999_852277
591,"(5, 159, 28, 329)",2,1999_852277
592,"(5, 159, 157, 329)",2,1999_852277
593,"(5, 230, 5, 225)",2,1999_852277
594,"(5, 273, 32, 43)",2,1999_852277
595,"(18, 2, 21, 28)",3,1999_852277
596,"(18, 2, 21, 91)",2,1999_852277
597,"(18, 2, 21, 171)",2,1999_852277
598,"(18, 2, 28, 171)",2,1999_852277
599,"(18, 2, 64, 21)",3,1999_852277
600,"(18, 2, 64, 28)",3,1999_852277
601,"(18, 2, 64, 91)",2,1999_852277
602,"(18, 2, 64, 171)",2,1999_852277
603,"(18, 2, 91, 28)",2,1999_852277
604,"(18, 21, 28, 171)",2,1999_852277
605,"(18, 21, 91, 28)",2,1999_852277
606,"(18, 64, 21, 28)",3,1999_852277
607,"(18, 64, 21, 91)",2,1999_852277
608,"(18, 64, 21, 171)",2,1999_852277
609,"(18, 64, 28, 171)",2,1999_852277
610,"(18, 64, 91, 28)",2,1999_852277
611,"(21, 91, 28, 171)",2,1999_852277
612,"(28, 66, 163, 215)",2,1999_852277
613,"(39, 125, 28, 128)",2,1999_852277
614,"(64, 21, 28, 171)",3,1999_852277
615,"(64, 21, 91, 28)",2,1999_852277
616,"(64, 21, 91, 171)",2,1999_852277
617,"(64, 91, 28, 171)",2,1999_852277
618,"(92, 28, 92, 2972)",2,1999_852277
619,"(159, 28, 157, 329)",2,1999_852277
620,"(2, 21, 91, 28, 171)",2,1999_852277
621,"(2, 64, 21, 28, 171)",3,1999_852277
622,"(2, 64, 21, 91, 28)",2,1999_852277
623,"(2, 64, 21, 91, 171)",2,1999_852277
624,"(2, 64, 91, 28, 171)",2,1999_852277
625,"(5, 2, 21, 28, 171)",2,1999_852277
626,"(5, 2, 21, 91, 28)",2,1999_852277
627,"(5, 2, 64, 21, 28)",3,1999_852277
628,"(5, 2, 64, 21, 91)",2,1999_852277
629,"(5, 2, 64, 21, 171)",2,1999_852277
630,"(5, 2, 64, 28, 171)",2,1999_852277
631,"(5, 2, 64, 91, 28)",2,1999_852277
632,"(5, 18, 2, 21, 28)",3,1999_852277
633,"(5, 18, 2, 21, 91)",2,1999_852277
634,"(5, 18, 2, 21, 171)",2,1999_852277
635,"(5, 18, 2, 28, 171)",2,1999_852277
636,"(5, 18, 2, 64, 21)",3,1999_852277
637,"(5, 18, 2, 64, 28)",3,1999_852277
638,"(5, 18, 2, 64, 91)",2,1999_852277
639,"(5, 18, 2, 64, 171)",2,1999_852277
640,"(5, 18, 2, 91, 28)",2,1999_852277
641,"(5, 18, 21, 28, 171)",2,1999_852277
642,"(5, 18, 21, 91, 28)",2,1999_852277
643,"(5, 18, 64, 21, 28)",3,1999_852277
644,"(5, 18, 64, 21, 91)",2,1999_852277
645,"(5, 18, 64, 21, 171)",2,1999_852277
646,"(5, 18, 64, 28, 171)",2,1999_852277
647,"(5, 18, 64, 91, 28)",2,1999_852277
648,"(5, 64, 21, 28, 171)",2,1999_852277
649,"(5, 64, 21, 91, 28)",2,1999_852277
650,"(5, 159, 28, 157, 329)",2,1999_852277
651,"(18, 2, 21, 28, 171)",2,1999_852277
652,"(18, 2, 21, 91, 28)",2,1999_852277
653,"(18, 2, 64, 21, 28)",3,1999_852277
654,"(18, 2, 64, 21, 91)",2,1999_852277
655,"(18, 2, 64, 21, 171)",2,1999_852277
656,"(18, 2, 64, 28, 171)",2,1999_852277
657,"(18, 2, 64, 91, 28)",2,1999_852277
658,"(18, 64, 21, 28, 171)",2,1999_852277
659,"(18, 64, 21, 91, 28)",2,1999_852277
660,"(64, 21, 91, 28, 171)",2,1999_852277
661,"(2, 64, 21, 91, 28, 171)",2,1999_852277
662,"(5, 2, 64, 21, 28, 171)",2,1999_852277
663,"(5, 2, 64, 21, 91, 28)",2,1999_852277
664,"(5, 18, 2, 21, 28, 171)",2,1999_852277
665,"(5, 18, 2, 21, 91, 28)",2,1999_852277
666,"(5, 18, 2, 64, 21, 28)",3,1999_852277
667,"(5, 18, 2, 64, 21, 91)",2,1999_852277
668,"(5, 18, 2, 64, 21, 171)",2,1999_852277
669,"(5, 18, 2, 64, 28, 171)",2,1999_852277
670,"(5, 18, 2, 64, 91, 28)",2,1999_852277
671,"(5, 18, 64, 21, 28, 171)",2,1999_852277
672,"(5, 18, 64, 21, 91, 28)",2,1999_852277
673,"(18, 2, 64, 21, 28, 171)",2,1999_852277
674,"(18, 2, 64, 21, 91, 28)",2,1999_852277
675,"(5, 18, 2, 64, 21, 28, 171)",2,1999_852277
676,"(5, 18, 2, 64, 21, 91, 28)",2,1999_852277
