,pattern,sup,author
566,"(0, 0, 14)",2,1999_813486
567,"(0, 0, 125)",2,1999_813486
568,"(0, 5, 5)",3,1999_813486
569,"(0, 5, 6)",2,1999_813486
570,"(0, 5, 28)",2,1999_813486
571,"(0, 6, 28)",2,1999_813486
572,"(0, 14, 5)",2,1999_813486
573,"(0, 14, 28)",2,1999_813486
574,"(0, 14, 39)",2,1999_813486
575,"(0, 14, 47)",2,1999_813486
576,"(0, 14, 72)",2,1999_813486
577,"(0, 14, 368)",2,1999_813486
578,"(0, 28, 171)",2,1999_813486
579,"(0, 32, 125)",2,1999_813486
580,"(0, 47, 149)",2,1999_813486
581,"(0, 47, 171)",2,1999_813486
582,"(0, 71, 21)",2,1999_813486
583,"(0, 72, 47)",2,1999_813486
584,"(0, 79, 70)",2,1999_813486
585,"(0, 122, 92)",2,1999_813486
586,"(0, 251, 28)",2,1999_813486
587,"(2, 0, 32)",2,1999_813486
588,"(2, 5, 47)",2,1999_813486
589,"(2, 5, 148)",2,1999_813486
590,"(2, 38, 147)",2,1999_813486
591,"(5, 0, 0)",2,1999_813486
592,"(5, 0, 5)",4,1999_813486
593,"(5, 0, 6)",2,1999_813486
594,"(5, 0, 14)",6,1999_813486
595,"(5, 0, 39)",2,1999_813486
596,"(5, 0, 70)",2,1999_813486
597,"(5, 0, 72)",2,1999_813486
598,"(5, 0, 79)",2,1999_813486
599,"(5, 2, 5)",2,1999_813486
600,"(5, 2, 38)",2,1999_813486
601,"(5, 2, 147)",2,1999_813486
602,"(5, 5, 5)",3,1999_813486
603,"(5, 5, 6)",3,1999_813486
604,"(5, 5, 99)",2,1999_813486
605,"(5, 5, 226)",2,1999_813486
606,"(5, 5, 529)",2,1999_813486
607,"(5, 5, 1680)",2,1999_813486
608,"(5, 6, 5)",2,1999_813486
609,"(5, 14, 5)",2,1999_813486
610,"(5, 14, 39)",2,1999_813486
611,"(5, 14, 72)",2,1999_813486
612,"(5, 18, 0)",2,1999_813486
613,"(5, 18, 5)",2,1999_813486
614,"(5, 18, 6)",2,1999_813486
615,"(5, 18, 28)",3,1999_813486
616,"(5, 18, 325)",2,1999_813486
617,"(5, 18, 1371)",2,1999_813486
618,"(5, 28, 0)",5,1999_813486
619,"(5, 28, 5)",4,1999_813486
620,"(5, 28, 14)",3,1999_813486
621,"(5, 28, 21)",2,1999_813486
622,"(5, 28, 38)",2,1999_813486
623,"(5, 28, 39)",3,1999_813486
624,"(5, 28, 40)",2,1999_813486
625,"(5, 28, 47)",2,1999_813486
626,"(5, 28, 72)",2,1999_813486
627,"(5, 28, 83)",2,1999_813486
628,"(5, 28, 122)",2,1999_813486
629,"(5, 28, 171)",2,1999_813486
630,"(5, 28, 325)",2,1999_813486
631,"(5, 28, 339)",2,1999_813486
632,"(5, 28, 439)",2,1999_813486
633,"(5, 28, 1083)",2,1999_813486
634,"(5, 38, 2)",2,1999_813486
635,"(5, 38, 5)",2,1999_813486
636,"(5, 38, 76)",2,1999_813486
637,"(5, 38, 147)",3,1999_813486
638,"(5, 38, 1680)",2,1999_813486
639,"(5, 39, 0)",3,1999_813486
640,"(5, 39, 5)",3,1999_813486
641,"(5, 39, 6)",2,1999_813486
642,"(5, 40, 0)",2,1999_813486
643,"(5, 47, 0)",3,1999_813486
644,"(5, 47, 28)",2,1999_813486
645,"(5, 47, 83)",3,1999_813486
646,"(5, 47, 176)",2,1999_813486
647,"(5, 47, 193)",2,1999_813486
648,"(5, 47, 1083)",2,1999_813486
649,"(5, 71, 21)",2,1999_813486
650,"(5, 72, 0)",2,1999_813486
651,"(5, 72, 14)",2,1999_813486
652,"(5, 72, 28)",4,1999_813486
653,"(5, 72, 39)",2,1999_813486
654,"(5, 72, 40)",2,1999_813486
655,"(5, 72, 47)",2,1999_813486
656,"(5, 72, 124)",2,1999_813486
657,"(5, 72, 152)",2,1999_813486
658,"(5, 72, 194)",2,1999_813486
659,"(5, 72, 251)",2,1999_813486
660,"(5, 72, 260)",2,1999_813486
661,"(5, 72, 262)",2,1999_813486
662,"(5, 72, 827)",2,1999_813486
663,"(5, 79, 70)",2,1999_813486
664,"(5, 83, 1083)",2,1999_813486
665,"(5, 89, 5)",2,1999_813486
666,"(5, 89, 28)",2,1999_813486
667,"(5, 92, 0)",2,1999_813486
668,"(5, 92, 28)",2,1999_813486
669,"(5, 92, 439)",2,1999_813486
670,"(5, 102, 5)",2,1999_813486
671,"(5, 102, 28)",3,1999_813486
672,"(5, 106, 28)",2,1999_813486
673,"(5, 106, 47)",2,1999_813486
674,"(5, 106, 124)",2,1999_813486
675,"(5, 106, 232)",2,1999_813486
676,"(5, 122, 0)",3,1999_813486
677,"(5, 122, 5)",2,1999_813486
678,"(5, 124, 0)",2,1999_813486
679,"(5, 124, 14)",2,1999_813486
680,"(5, 124, 28)",3,1999_813486
681,"(5, 124, 39)",2,1999_813486
682,"(5, 124, 251)",3,1999_813486
683,"(5, 140, 21)",2,1999_813486
684,"(5, 140, 86)",2,1999_813486
685,"(5, 152, 0)",2,1999_813486
686,"(5, 152, 14)",2,1999_813486
687,"(5, 152, 28)",2,1999_813486
688,"(5, 152, 39)",2,1999_813486
689,"(5, 152, 124)",2,1999_813486
690,"(5, 152, 251)",2,1999_813486
691,"(5, 152, 260)",2,1999_813486
692,"(5, 171, 21)",2,1999_813486
693,"(5, 194, 28)",2,1999_813486
694,"(5, 194, 47)",3,1999_813486
695,"(5, 194, 83)",3,1999_813486
696,"(5, 194, 111)",2,1999_813486
697,"(5, 194, 1083)",2,1999_813486
698,"(5, 230, 5)",3,1999_813486
699,"(5, 239, 128)",2,1999_813486
700,"(5, 239, 325)",2,1999_813486
701,"(5, 251, 0)",2,1999_813486
702,"(5, 251, 5)",2,1999_813486
703,"(5, 251, 14)",2,1999_813486
704,"(5, 251, 28)",5,1999_813486
705,"(5, 251, 39)",2,1999_813486
706,"(5, 260, 0)",2,1999_813486
707,"(5, 260, 14)",2,1999_813486
708,"(5, 260, 28)",2,1999_813486
709,"(5, 260, 39)",2,1999_813486
710,"(5, 260, 124)",2,1999_813486
711,"(5, 260, 251)",2,1999_813486
712,"(5, 262, 194)",2,1999_813486
713,"(5, 321, 2)",2,1999_813486
714,"(5, 321, 38)",2,1999_813486
715,"(5, 321, 76)",2,1999_813486
716,"(5, 325, 128)",3,1999_813486
717,"(5, 339, 0)",2,1999_813486
718,"(5, 339, 39)",2,1999_813486
719,"(5, 439, 0)",2,1999_813486
720,"(5, 529, 6)",2,1999_813486
721,"(5, 1371, 0)",2,1999_813486
722,"(5, 1680, 47)",2,1999_813486
723,"(5, 1680, 193)",2,1999_813486
724,"(6, 5, 81)",2,1999_813486
725,"(6, 251, 28)",2,1999_813486
726,"(12, 5, 18)",2,1999_813486
727,"(12, 5, 28)",2,1999_813486
728,"(12, 18, 28)",2,1999_813486
729,"(14, 21, 40)",2,1999_813486
730,"(14, 47, 40)",2,1999_813486
731,"(14, 72, 47)",2,1999_813486
732,"(18, 5, 6)",2,1999_813486
733,"(18, 28, 0)",2,1999_813486
734,"(18, 28, 167)",2,1999_813486
735,"(18, 28, 325)",3,1999_813486
736,"(18, 32, 3309)",2,1999_813486
737,"(18, 167, 325)",2,1999_813486
738,"(18, 1371, 0)",2,1999_813486
739,"(19, 28, 116)",2,1999_813486
740,"(19, 251, 28)",3,1999_813486
741,"(19, 251, 116)",2,1999_813486
742,"(21, 5, 148)",2,1999_813486
743,"(27, 0, 28)",2,1999_813486
744,"(27, 60, 28)",2,1999_813486
745,"(28, 0, 5)",2,1999_813486
746,"(28, 0, 6)",2,1999_813486
747,"(28, 0, 11)",2,1999_813486
748,"(28, 0, 14)",4,1999_813486
749,"(28, 0, 28)",2,1999_813486
750,"(28, 0, 32)",2,1999_813486
751,"(28, 0, 39)",2,1999_813486
752,"(28, 0, 47)",2,1999_813486
753,"(28, 0, 72)",3,1999_813486
754,"(28, 0, 368)",2,1999_813486
755,"(28, 14, 39)",2,1999_813486
756,"(28, 14, 47)",2,1999_813486
757,"(28, 14, 72)",2,1999_813486
758,"(28, 14, 368)",2,1999_813486
759,"(28, 39, 0)",2,1999_813486
760,"(28, 40, 240)",2,1999_813486
761,"(28, 40, 844)",2,1999_813486
762,"(28, 47, 83)",2,1999_813486
763,"(28, 47, 1083)",2,1999_813486
764,"(28, 72, 47)",2,1999_813486
765,"(28, 83, 1083)",2,1999_813486
766,"(28, 122, 0)",2,1999_813486
767,"(28, 122, 5)",2,1999_813486
768,"(28, 122, 6)",2,1999_813486
769,"(28, 167, 325)",3,1999_813486
770,"(28, 171, 21)",2,1999_813486
771,"(28, 240, 844)",2,1999_813486
772,"(28, 339, 0)",2,1999_813486
773,"(28, 339, 39)",3,1999_813486
774,"(28, 342, 0)",2,1999_813486
775,"(28, 439, 0)",2,1999_813486
776,"(38, 0, 28)",2,1999_813486
777,"(38, 5, 47)",2,1999_813486
778,"(38, 5, 193)",2,1999_813486
779,"(38, 5, 1680)",2,1999_813486
780,"(38, 47, 193)",2,1999_813486
781,"(38, 1680, 47)",2,1999_813486
782,"(38, 1680, 193)",2,1999_813486
783,"(39, 0, 5)",2,1999_813486
784,"(39, 0, 6)",2,1999_813486
785,"(39, 5, 5)",2,1999_813486
786,"(39, 5, 6)",2,1999_813486
787,"(40, 0, 47)",2,1999_813486
788,"(40, 99, 47)",2,1999_813486
789,"(40, 99, 135)",2,1999_813486
790,"(40, 99, 140)",2,1999_813486
791,"(40, 135, 47)",2,1999_813486
792,"(40, 140, 47)",2,1999_813486
793,"(40, 240, 844)",2,1999_813486
794,"(40, 1988, 0)",2,1999_813486
795,"(40, 1988, 47)",2,1999_813486
796,"(47, 0, 14)",2,1999_813486
797,"(47, 0, 122)",2,1999_813486
798,"(47, 28, 0)",2,1999_813486
799,"(47, 28, 40)",2,1999_813486
800,"(47, 28, 171)",2,1999_813486
801,"(47, 40, 1988)",2,1999_813486
802,"(47, 83, 1083)",3,1999_813486
803,"(47, 92, 28)",2,1999_813486
804,"(47, 122, 92)",2,1999_813486
805,"(47, 149, 40)",2,1999_813486
806,"(47, 171, 92)",2,1999_813486
807,"(47, 171, 122)",2,1999_813486
808,"(47, 1047, 0)",2,1999_813486
809,"(60, 0, 28)",2,1999_813486
810,"(69, 2, 38)",2,1999_813486
811,"(69, 2, 147)",2,1999_813486
812,"(69, 5, 194)",2,1999_813486
813,"(69, 38, 147)",2,1999_813486
814,"(71, 21, 40)",2,1999_813486
815,"(71, 21, 270)",2,1999_813486
816,"(72, 0, 14)",2,1999_813486
817,"(72, 0, 39)",2,1999_813486
818,"(72, 14, 39)",2,1999_813486
819,"(72, 28, 0)",2,1999_813486
820,"(72, 28, 14)",2,1999_813486
821,"(72, 28, 39)",2,1999_813486
822,"(72, 28, 40)",2,1999_813486
823,"(72, 28, 171)",2,1999_813486
824,"(72, 47, 28)",2,1999_813486
825,"(72, 47, 83)",2,1999_813486
826,"(72, 47, 171)",2,1999_813486
827,"(72, 47, 1083)",2,1999_813486
828,"(72, 83, 1083)",2,1999_813486
829,"(72, 124, 0)",2,1999_813486
830,"(72, 124, 14)",2,1999_813486
831,"(72, 124, 28)",2,1999_813486
832,"(72, 124, 39)",2,1999_813486
833,"(72, 124, 251)",2,1999_813486
834,"(72, 152, 0)",2,1999_813486
835,"(72, 152, 14)",2,1999_813486
836,"(72, 152, 28)",2,1999_813486
837,"(72, 152, 39)",2,1999_813486
838,"(72, 152, 124)",2,1999_813486
839,"(72, 152, 251)",2,1999_813486
840,"(72, 152, 260)",2,1999_813486
841,"(72, 251, 0)",2,1999_813486
842,"(72, 251, 14)",2,1999_813486
843,"(72, 251, 28)",2,1999_813486
844,"(72, 251, 39)",2,1999_813486
845,"(72, 260, 0)",2,1999_813486
846,"(72, 260, 14)",2,1999_813486
847,"(72, 260, 28)",2,1999_813486
848,"(72, 260, 39)",2,1999_813486
849,"(72, 260, 124)",2,1999_813486
850,"(72, 260, 251)",2,1999_813486
851,"(72, 262, 194)",2,1999_813486
852,"(72, 681, 28)",2,1999_813486
853,"(72, 681, 47)",2,1999_813486
854,"(72, 681, 171)",2,1999_813486
855,"(72, 681, 1680)",2,1999_813486
856,"(72, 1680, 28)",2,1999_813486
857,"(72, 1680, 47)",2,1999_813486
858,"(72, 1680, 171)",2,1999_813486
859,"(83, 0, 14)",2,1999_813486
860,"(89, 28, 5)",2,1999_813486
861,"(89, 251, 28)",2,1999_813486
862,"(92, 28, 0)",3,1999_813486
863,"(92, 28, 39)",2,1999_813486
864,"(92, 28, 339)",2,1999_813486
865,"(92, 28, 439)",2,1999_813486
866,"(92, 39, 0)",2,1999_813486
867,"(92, 339, 0)",2,1999_813486
868,"(92, 339, 39)",2,1999_813486
869,"(92, 439, 0)",2,1999_813486
870,"(99, 135, 47)",2,1999_813486
871,"(99, 140, 47)",2,1999_813486
872,"(102, 28, 5)",2,1999_813486
873,"(122, 0, 5)",2,1999_813486
874,"(122, 5, 28)",2,1999_813486
875,"(122, 28, 0)",2,1999_813486
876,"(122, 47, 28)",2,1999_813486
877,"(122, 92, 0)",2,1999_813486
878,"(122, 92, 28)",3,1999_813486
879,"(122, 143, 5)",2,1999_813486
880,"(122, 143, 1371)",2,1999_813486
881,"(122, 1371, 5)",2,1999_813486
882,"(124, 0, 14)",2,1999_813486
883,"(124, 0, 39)",2,1999_813486
884,"(124, 14, 39)",2,1999_813486
885,"(124, 28, 0)",2,1999_813486
886,"(124, 28, 11)",2,1999_813486
887,"(124, 28, 14)",2,1999_813486
888,"(124, 28, 39)",2,1999_813486
889,"(124, 251, 0)",2,1999_813486
890,"(124, 251, 11)",2,1999_813486
891,"(124, 251, 14)",2,1999_813486
892,"(124, 251, 28)",4,1999_813486
893,"(124, 251, 39)",2,1999_813486
894,"(125, 40, 1988)",2,1999_813486
895,"(125, 47, 40)",2,1999_813486
896,"(125, 47, 149)",2,1999_813486
897,"(125, 149, 40)",2,1999_813486
898,"(125, 251, 28)",2,1999_813486
899,"(140, 28, 0)",2,1999_813486
900,"(140, 86, 21)",2,1999_813486
901,"(143, 1371, 5)",2,1999_813486
902,"(152, 0, 14)",2,1999_813486
903,"(152, 0, 39)",2,1999_813486
904,"(152, 14, 39)",2,1999_813486
905,"(152, 28, 0)",2,1999_813486
906,"(152, 28, 14)",2,1999_813486
907,"(152, 28, 39)",2,1999_813486
908,"(152, 124, 0)",2,1999_813486
909,"(152, 124, 14)",2,1999_813486
910,"(152, 124, 28)",2,1999_813486
911,"(152, 124, 39)",2,1999_813486
912,"(152, 124, 251)",2,1999_813486
913,"(152, 251, 0)",2,1999_813486
914,"(152, 251, 14)",2,1999_813486
915,"(152, 251, 28)",2,1999_813486
916,"(152, 251, 39)",2,1999_813486
917,"(152, 260, 0)",2,1999_813486
918,"(152, 260, 14)",2,1999_813486
919,"(152, 260, 28)",2,1999_813486
920,"(152, 260, 39)",2,1999_813486
921,"(152, 260, 124)",2,1999_813486
922,"(152, 260, 251)",2,1999_813486
923,"(171, 5, 28)",2,1999_813486
924,"(171, 92, 28)",2,1999_813486
925,"(171, 122, 28)",2,1999_813486
926,"(171, 122, 92)",2,1999_813486
927,"(172, 5, 5)",2,1999_813486
928,"(194, 28, 47)",2,1999_813486
929,"(194, 28, 83)",2,1999_813486
930,"(194, 28, 1083)",2,1999_813486
931,"(194, 47, 83)",3,1999_813486
932,"(194, 47, 1083)",2,1999_813486
933,"(194, 83, 1083)",2,1999_813486
934,"(239, 18, 28)",2,1999_813486
935,"(239, 18, 167)",2,1999_813486
936,"(239, 18, 325)",2,1999_813486
937,"(239, 28, 167)",3,1999_813486
938,"(239, 28, 325)",3,1999_813486
939,"(239, 167, 325)",3,1999_813486
940,"(239, 325, 128)",2,1999_813486
941,"(239, 335, 18)",2,1999_813486
942,"(239, 335, 28)",2,1999_813486
943,"(239, 335, 167)",2,1999_813486
944,"(239, 335, 325)",2,1999_813486
945,"(251, 0, 14)",2,1999_813486
946,"(251, 0, 39)",2,1999_813486
947,"(251, 14, 39)",2,1999_813486
948,"(251, 28, 0)",2,1999_813486
949,"(251, 28, 5)",2,1999_813486
950,"(251, 28, 11)",2,1999_813486
951,"(251, 28, 14)",2,1999_813486
952,"(251, 28, 21)",2,1999_813486
953,"(251, 28, 39)",2,1999_813486
954,"(251, 28, 40)",2,1999_813486
955,"(251, 28, 47)",2,1999_813486
956,"(251, 28, 116)",2,1999_813486
957,"(260, 0, 14)",2,1999_813486
958,"(260, 0, 39)",2,1999_813486
959,"(260, 14, 39)",2,1999_813486
960,"(260, 28, 0)",2,1999_813486
961,"(260, 28, 14)",2,1999_813486
962,"(260, 28, 39)",2,1999_813486
963,"(260, 124, 0)",2,1999_813486
964,"(260, 124, 14)",2,1999_813486
965,"(260, 124, 28)",2,1999_813486
966,"(260, 124, 39)",2,1999_813486
967,"(260, 124, 251)",2,1999_813486
968,"(260, 251, 0)",2,1999_813486
969,"(260, 251, 14)",2,1999_813486
970,"(260, 251, 28)",2,1999_813486
971,"(260, 251, 39)",2,1999_813486
972,"(270, 47, 40)",2,1999_813486
973,"(270, 47, 149)",3,1999_813486
974,"(270, 149, 40)",2,1999_813486
975,"(298, 0, 14)",2,1999_813486
976,"(298, 83, 0)",2,1999_813486
977,"(298, 83, 14)",2,1999_813486
978,"(321, 38, 2)",2,1999_813486
979,"(321, 38, 76)",2,1999_813486
980,"(335, 18, 28)",2,1999_813486
981,"(335, 18, 167)",2,1999_813486
982,"(335, 18, 325)",2,1999_813486
983,"(335, 28, 167)",2,1999_813486
984,"(335, 28, 325)",2,1999_813486
985,"(335, 167, 325)",2,1999_813486
986,"(339, 39, 0)",2,1999_813486
987,"(439, 0, 47)",2,1999_813486
988,"(439, 32, 47)",2,1999_813486
989,"(529, 32, 3309)",2,1999_813486
990,"(681, 28, 171)",2,1999_813486
991,"(681, 47, 28)",2,1999_813486
992,"(681, 47, 171)",2,1999_813486
993,"(681, 1680, 28)",2,1999_813486
994,"(681, 1680, 47)",2,1999_813486
995,"(681, 1680, 171)",2,1999_813486
996,"(1455, 0, 5)",2,1999_813486
997,"(1455, 5, 5)",2,1999_813486
998,"(1621, 28, 39)",2,1999_813486
999,"(1621, 28, 339)",2,1999_813486
1000,"(1621, 339, 39)",2,1999_813486
1001,"(1680, 28, 171)",2,1999_813486
1002,"(1680, 47, 28)",2,1999_813486
1003,"(1680, 47, 83)",2,1999_813486
1004,"(1680, 47, 171)",2,1999_813486
1005,"(1680, 47, 193)",2,1999_813486
1006,"(1988, 0, 47)",2,1999_813486
1007,"(0, 14, 72, 47)",2,1999_813486
1008,"(5, 0, 5, 6)",2,1999_813486
1009,"(5, 0, 14, 5)",2,1999_813486
1010,"(5, 0, 14, 39)",2,1999_813486
1011,"(5, 0, 14, 72)",2,1999_813486
1012,"(5, 0, 79, 70)",2,1999_813486
1013,"(5, 2, 38, 147)",2,1999_813486
1014,"(5, 18, 5, 6)",2,1999_813486
1015,"(5, 18, 28, 325)",2,1999_813486
1016,"(5, 18, 1371, 0)",2,1999_813486
1017,"(5, 28, 0, 5)",2,1999_813486
1018,"(5, 28, 0, 14)",3,1999_813486
1019,"(5, 28, 0, 39)",2,1999_813486
1020,"(5, 28, 0, 72)",2,1999_813486
1021,"(5, 28, 14, 39)",2,1999_813486
1022,"(5, 28, 14, 72)",2,1999_813486
1023,"(5, 28, 39, 0)",2,1999_813486
1024,"(5, 28, 47, 83)",2,1999_813486
1025,"(5, 28, 47, 1083)",2,1999_813486
1026,"(5, 28, 83, 1083)",2,1999_813486
1027,"(5, 28, 122, 0)",2,1999_813486
1028,"(5, 28, 122, 5)",2,1999_813486
1029,"(5, 28, 171, 21)",2,1999_813486
1030,"(5, 28, 339, 0)",2,1999_813486
1031,"(5, 28, 339, 39)",2,1999_813486
1032,"(5, 28, 439, 0)",2,1999_813486
1033,"(5, 38, 5, 1680)",2,1999_813486
1034,"(5, 39, 0, 5)",2,1999_813486
1035,"(5, 39, 0, 6)",2,1999_813486
1036,"(5, 39, 5, 5)",2,1999_813486
1037,"(5, 39, 5, 6)",2,1999_813486
1038,"(5, 47, 83, 1083)",2,1999_813486
1039,"(5, 72, 0, 14)",2,1999_813486
1040,"(5, 72, 0, 39)",2,1999_813486
1041,"(5, 72, 14, 39)",2,1999_813486
1042,"(5, 72, 28, 0)",2,1999_813486
1043,"(5, 72, 28, 14)",2,1999_813486
1044,"(5, 72, 28, 39)",2,1999_813486
1045,"(5, 72, 28, 40)",2,1999_813486
1046,"(5, 72, 124, 0)",2,1999_813486
1047,"(5, 72, 124, 14)",2,1999_813486
1048,"(5, 72, 124, 28)",2,1999_813486
1049,"(5, 72, 124, 39)",2,1999_813486
1050,"(5, 72, 124, 251)",2,1999_813486
1051,"(5, 72, 152, 0)",2,1999_813486
1052,"(5, 72, 152, 14)",2,1999_813486
1053,"(5, 72, 152, 28)",2,1999_813486
1054,"(5, 72, 152, 39)",2,1999_813486
1055,"(5, 72, 152, 124)",2,1999_813486
1056,"(5, 72, 152, 251)",2,1999_813486
1057,"(5, 72, 152, 260)",2,1999_813486
1058,"(5, 72, 251, 0)",2,1999_813486
1059,"(5, 72, 251, 14)",2,1999_813486
1060,"(5, 72, 251, 28)",2,1999_813486
1061,"(5, 72, 251, 39)",2,1999_813486
1062,"(5, 72, 260, 0)",2,1999_813486
1063,"(5, 72, 260, 14)",2,1999_813486
1064,"(5, 72, 260, 28)",2,1999_813486
1065,"(5, 72, 260, 39)",2,1999_813486
1066,"(5, 72, 260, 124)",2,1999_813486
1067,"(5, 72, 260, 251)",2,1999_813486
1068,"(5, 72, 262, 194)",2,1999_813486
1069,"(5, 89, 28, 5)",2,1999_813486
1070,"(5, 92, 28, 0)",2,1999_813486
1071,"(5, 92, 28, 439)",2,1999_813486
1072,"(5, 92, 439, 0)",2,1999_813486
1073,"(5, 102, 28, 5)",2,1999_813486
1074,"(5, 122, 0, 5)",2,1999_813486
1075,"(5, 124, 0, 14)",2,1999_813486
1076,"(5, 124, 0, 39)",2,1999_813486
1077,"(5, 124, 14, 39)",2,1999_813486
1078,"(5, 124, 28, 0)",2,1999_813486
1079,"(5, 124, 28, 14)",2,1999_813486
1080,"(5, 124, 28, 39)",2,1999_813486
1081,"(5, 124, 251, 0)",2,1999_813486
1082,"(5, 124, 251, 14)",2,1999_813486
1083,"(5, 124, 251, 28)",3,1999_813486
1084,"(5, 124, 251, 39)",2,1999_813486
1085,"(5, 152, 0, 14)",2,1999_813486
1086,"(5, 152, 0, 39)",2,1999_813486
1087,"(5, 152, 14, 39)",2,1999_813486
1088,"(5, 152, 28, 0)",2,1999_813486
1089,"(5, 152, 28, 14)",2,1999_813486
1090,"(5, 152, 28, 39)",2,1999_813486
1091,"(5, 152, 124, 0)",2,1999_813486
1092,"(5, 152, 124, 14)",2,1999_813486
1093,"(5, 152, 124, 28)",2,1999_813486
1094,"(5, 152, 124, 39)",2,1999_813486
1095,"(5, 152, 124, 251)",2,1999_813486
1096,"(5, 152, 251, 0)",2,1999_813486
1097,"(5, 152, 251, 14)",2,1999_813486
1098,"(5, 152, 251, 28)",2,1999_813486
1099,"(5, 152, 251, 39)",2,1999_813486
1100,"(5, 152, 260, 0)",2,1999_813486
1101,"(5, 152, 260, 14)",2,1999_813486
1102,"(5, 152, 260, 28)",2,1999_813486
1103,"(5, 152, 260, 39)",2,1999_813486
1104,"(5, 152, 260, 124)",2,1999_813486
1105,"(5, 152, 260, 251)",2,1999_813486
1106,"(5, 194, 28, 47)",2,1999_813486
1107,"(5, 194, 28, 83)",2,1999_813486
1108,"(5, 194, 28, 1083)",2,1999_813486
1109,"(5, 194, 47, 83)",3,1999_813486
1110,"(5, 194, 47, 1083)",2,1999_813486
1111,"(5, 194, 83, 1083)",2,1999_813486
1112,"(5, 239, 325, 128)",2,1999_813486
1113,"(5, 251, 0, 14)",2,1999_813486
1114,"(5, 251, 0, 39)",2,1999_813486
1115,"(5, 251, 14, 39)",2,1999_813486
1116,"(5, 251, 28, 0)",2,1999_813486
1117,"(5, 251, 28, 5)",2,1999_813486
1118,"(5, 251, 28, 14)",2,1999_813486
1119,"(5, 251, 28, 39)",2,1999_813486
1120,"(5, 260, 0, 14)",2,1999_813486
1121,"(5, 260, 0, 39)",2,1999_813486
1122,"(5, 260, 14, 39)",2,1999_813486
1123,"(5, 260, 28, 0)",2,1999_813486
1124,"(5, 260, 28, 14)",2,1999_813486
1125,"(5, 260, 28, 39)",2,1999_813486
1126,"(5, 260, 124, 0)",2,1999_813486
1127,"(5, 260, 124, 14)",2,1999_813486
1128,"(5, 260, 124, 28)",2,1999_813486
1129,"(5, 260, 124, 39)",2,1999_813486
1130,"(5, 260, 124, 251)",2,1999_813486
1131,"(5, 260, 251, 0)",2,1999_813486
1132,"(5, 260, 251, 14)",2,1999_813486
1133,"(5, 260, 251, 28)",2,1999_813486
1134,"(5, 260, 251, 39)",2,1999_813486
1135,"(5, 321, 38, 2)",2,1999_813486
1136,"(5, 321, 38, 76)",2,1999_813486
1137,"(5, 339, 39, 0)",2,1999_813486
1138,"(5, 1680, 47, 193)",2,1999_813486
1139,"(12, 5, 18, 28)",2,1999_813486
1140,"(18, 28, 167, 325)",2,1999_813486
1141,"(19, 251, 28, 116)",2,1999_813486
1142,"(28, 0, 14, 39)",2,1999_813486
1143,"(28, 0, 14, 47)",2,1999_813486
1144,"(28, 0, 14, 72)",2,1999_813486
1145,"(28, 0, 14, 368)",2,1999_813486
1146,"(28, 0, 72, 47)",2,1999_813486
1147,"(28, 14, 72, 47)",2,1999_813486
1148,"(28, 40, 240, 844)",2,1999_813486
1149,"(28, 47, 83, 1083)",2,1999_813486
1150,"(28, 122, 0, 5)",2,1999_813486
1151,"(28, 339, 39, 0)",2,1999_813486
1152,"(38, 5, 47, 193)",2,1999_813486
1153,"(38, 5, 1680, 47)",2,1999_813486
1154,"(38, 5, 1680, 193)",2,1999_813486
1155,"(38, 1680, 47, 193)",2,1999_813486
1156,"(39, 0, 5, 6)",2,1999_813486
1157,"(40, 99, 135, 47)",2,1999_813486
1158,"(40, 99, 140, 47)",2,1999_813486
1159,"(40, 1988, 0, 47)",2,1999_813486
1160,"(47, 171, 122, 92)",2,1999_813486
1161,"(69, 2, 38, 147)",2,1999_813486
1162,"(72, 0, 14, 39)",2,1999_813486
1163,"(72, 28, 0, 14)",2,1999_813486
1164,"(72, 28, 0, 39)",2,1999_813486
1165,"(72, 28, 14, 39)",2,1999_813486
1166,"(72, 47, 28, 171)",2,1999_813486
1167,"(72, 47, 83, 1083)",2,1999_813486
1168,"(72, 124, 0, 14)",2,1999_813486
1169,"(72, 124, 0, 39)",2,1999_813486
1170,"(72, 124, 14, 39)",2,1999_813486
1171,"(72, 124, 28, 0)",2,1999_813486
1172,"(72, 124, 28, 14)",2,1999_813486
1173,"(72, 124, 28, 39)",2,1999_813486
1174,"(72, 124, 251, 0)",2,1999_813486
1175,"(72, 124, 251, 14)",2,1999_813486
1176,"(72, 124, 251, 28)",2,1999_813486
1177,"(72, 124, 251, 39)",2,1999_813486
1178,"(72, 152, 0, 14)",2,1999_813486
1179,"(72, 152, 0, 39)",2,1999_813486
1180,"(72, 152, 14, 39)",2,1999_813486
1181,"(72, 152, 28, 0)",2,1999_813486
1182,"(72, 152, 28, 14)",2,1999_813486
1183,"(72, 152, 28, 39)",2,1999_813486
1184,"(72, 152, 124, 0)",2,1999_813486
1185,"(72, 152, 124, 14)",2,1999_813486
1186,"(72, 152, 124, 28)",2,1999_813486
1187,"(72, 152, 124, 39)",2,1999_813486
1188,"(72, 152, 124, 251)",2,1999_813486
1189,"(72, 152, 251, 0)",2,1999_813486
1190,"(72, 152, 251, 14)",2,1999_813486
1191,"(72, 152, 251, 28)",2,1999_813486
1192,"(72, 152, 251, 39)",2,1999_813486
1193,"(72, 152, 260, 0)",2,1999_813486
1194,"(72, 152, 260, 14)",2,1999_813486
1195,"(72, 152, 260, 28)",2,1999_813486
1196,"(72, 152, 260, 39)",2,1999_813486
1197,"(72, 152, 260, 124)",2,1999_813486
1198,"(72, 152, 260, 251)",2,1999_813486
1199,"(72, 251, 0, 14)",2,1999_813486
1200,"(72, 251, 0, 39)",2,1999_813486
1201,"(72, 251, 14, 39)",2,1999_813486
1202,"(72, 251, 28, 0)",2,1999_813486
1203,"(72, 251, 28, 14)",2,1999_813486
1204,"(72, 251, 28, 39)",2,1999_813486
1205,"(72, 260, 0, 14)",2,1999_813486
1206,"(72, 260, 0, 39)",2,1999_813486
1207,"(72, 260, 14, 39)",2,1999_813486
1208,"(72, 260, 28, 0)",2,1999_813486
1209,"(72, 260, 28, 14)",2,1999_813486
1210,"(72, 260, 28, 39)",2,1999_813486
1211,"(72, 260, 124, 0)",2,1999_813486
1212,"(72, 260, 124, 14)",2,1999_813486
1213,"(72, 260, 124, 28)",2,1999_813486
1214,"(72, 260, 124, 39)",2,1999_813486
1215,"(72, 260, 124, 251)",2,1999_813486
1216,"(72, 260, 251, 0)",2,1999_813486
1217,"(72, 260, 251, 14)",2,1999_813486
1218,"(72, 260, 251, 28)",2,1999_813486
1219,"(72, 260, 251, 39)",2,1999_813486
1220,"(72, 681, 28, 171)",2,1999_813486
1221,"(72, 681, 47, 28)",2,1999_813486
1222,"(72, 681, 47, 171)",2,1999_813486
1223,"(72, 681, 1680, 28)",2,1999_813486
1224,"(72, 681, 1680, 47)",2,1999_813486
1225,"(72, 681, 1680, 171)",2,1999_813486
1226,"(72, 1680, 28, 171)",2,1999_813486
1227,"(72, 1680, 47, 28)",2,1999_813486
1228,"(72, 1680, 47, 171)",2,1999_813486
1229,"(92, 28, 39, 0)",2,1999_813486
1230,"(92, 28, 339, 0)",2,1999_813486
1231,"(92, 28, 339, 39)",2,1999_813486
1232,"(92, 28, 439, 0)",2,1999_813486
1233,"(92, 339, 39, 0)",2,1999_813486
1234,"(122, 92, 28, 0)",2,1999_813486
1235,"(122, 143, 1371, 5)",2,1999_813486
1236,"(124, 0, 14, 39)",2,1999_813486
1237,"(124, 28, 0, 14)",2,1999_813486
1238,"(124, 28, 0, 39)",2,1999_813486
1239,"(124, 28, 14, 39)",2,1999_813486
1240,"(124, 251, 0, 14)",2,1999_813486
1241,"(124, 251, 0, 39)",2,1999_813486
1242,"(124, 251, 14, 39)",2,1999_813486
1243,"(124, 251, 28, 0)",2,1999_813486
1244,"(124, 251, 28, 11)",2,1999_813486
1245,"(124, 251, 28, 14)",2,1999_813486
1246,"(124, 251, 28, 39)",2,1999_813486
1247,"(125, 47, 149, 40)",2,1999_813486
1248,"(152, 0, 14, 39)",2,1999_813486
1249,"(152, 28, 0, 14)",2,1999_813486
1250,"(152, 28, 0, 39)",2,1999_813486
1251,"(152, 28, 14, 39)",2,1999_813486
1252,"(152, 124, 0, 14)",2,1999_813486
1253,"(152, 124, 0, 39)",2,1999_813486
1254,"(152, 124, 14, 39)",2,1999_813486
1255,"(152, 124, 28, 0)",2,1999_813486
1256,"(152, 124, 28, 14)",2,1999_813486
1257,"(152, 124, 28, 39)",2,1999_813486
1258,"(152, 124, 251, 0)",2,1999_813486
1259,"(152, 124, 251, 14)",2,1999_813486
1260,"(152, 124, 251, 28)",2,1999_813486
1261,"(152, 124, 251, 39)",2,1999_813486
1262,"(152, 251, 0, 14)",2,1999_813486
1263,"(152, 251, 0, 39)",2,1999_813486
1264,"(152, 251, 14, 39)",2,1999_813486
1265,"(152, 251, 28, 0)",2,1999_813486
1266,"(152, 251, 28, 14)",2,1999_813486
1267,"(152, 251, 28, 39)",2,1999_813486
1268,"(152, 260, 0, 14)",2,1999_813486
1269,"(152, 260, 0, 39)",2,1999_813486
1270,"(152, 260, 14, 39)",2,1999_813486
1271,"(152, 260, 28, 0)",2,1999_813486
1272,"(152, 260, 28, 14)",2,1999_813486
1273,"(152, 260, 28, 39)",2,1999_813486
1274,"(152, 260, 124, 0)",2,1999_813486
1275,"(152, 260, 124, 14)",2,1999_813486
1276,"(152, 260, 124, 28)",2,1999_813486
1277,"(152, 260, 124, 39)",2,1999_813486
1278,"(152, 260, 124, 251)",2,1999_813486
1279,"(152, 260, 251, 0)",2,1999_813486
1280,"(152, 260, 251, 14)",2,1999_813486
1281,"(152, 260, 251, 28)",2,1999_813486
1282,"(152, 260, 251, 39)",2,1999_813486
1283,"(171, 122, 92, 28)",2,1999_813486
1284,"(194, 28, 47, 83)",2,1999_813486
1285,"(194, 28, 47, 1083)",2,1999_813486
1286,"(194, 28, 83, 1083)",2,1999_813486
1287,"(194, 47, 83, 1083)",2,1999_813486
1288,"(239, 18, 28, 167)",2,1999_813486
1289,"(239, 18, 28, 325)",2,1999_813486
1290,"(239, 18, 167, 325)",2,1999_813486
1291,"(239, 28, 167, 325)",3,1999_813486
1292,"(239, 335, 18, 28)",2,1999_813486
1293,"(239, 335, 18, 167)",2,1999_813486
1294,"(239, 335, 18, 325)",2,1999_813486
1295,"(239, 335, 28, 167)",2,1999_813486
1296,"(239, 335, 28, 325)",2,1999_813486
1297,"(239, 335, 167, 325)",2,1999_813486
1298,"(251, 0, 14, 39)",2,1999_813486
1299,"(251, 28, 0, 14)",2,1999_813486
1300,"(251, 28, 0, 39)",2,1999_813486
1301,"(251, 28, 14, 39)",2,1999_813486
1302,"(260, 0, 14, 39)",2,1999_813486
1303,"(260, 28, 0, 14)",2,1999_813486
1304,"(260, 28, 0, 39)",2,1999_813486
1305,"(260, 28, 14, 39)",2,1999_813486
1306,"(260, 124, 0, 14)",2,1999_813486
1307,"(260, 124, 0, 39)",2,1999_813486
1308,"(260, 124, 14, 39)",2,1999_813486
1309,"(260, 124, 28, 0)",2,1999_813486
1310,"(260, 124, 28, 14)",2,1999_813486
1311,"(260, 124, 28, 39)",2,1999_813486
1312,"(260, 124, 251, 0)",2,1999_813486
1313,"(260, 124, 251, 14)",2,1999_813486
1314,"(260, 124, 251, 28)",2,1999_813486
1315,"(260, 124, 251, 39)",2,1999_813486
1316,"(260, 251, 0, 14)",2,1999_813486
1317,"(260, 251, 0, 39)",2,1999_813486
1318,"(260, 251, 14, 39)",2,1999_813486
1319,"(260, 251, 28, 0)",2,1999_813486
1320,"(260, 251, 28, 14)",2,1999_813486
1321,"(260, 251, 28, 39)",2,1999_813486
1322,"(270, 47, 149, 40)",2,1999_813486
1323,"(298, 83, 0, 14)",2,1999_813486
1324,"(335, 18, 28, 167)",2,1999_813486
1325,"(335, 18, 28, 325)",2,1999_813486
1326,"(335, 18, 167, 325)",2,1999_813486
1327,"(335, 28, 167, 325)",2,1999_813486
1328,"(681, 47, 28, 171)",2,1999_813486
1329,"(681, 1680, 28, 171)",2,1999_813486
1330,"(681, 1680, 47, 28)",2,1999_813486
1331,"(681, 1680, 47, 171)",2,1999_813486
1332,"(1455, 0, 5, 5)",2,1999_813486
1333,"(1621, 28, 339, 39)",2,1999_813486
1334,"(1680, 47, 28, 171)",2,1999_813486
1335,"(5, 28, 0, 14, 39)",2,1999_813486
1336,"(5, 28, 0, 14, 72)",2,1999_813486
1337,"(5, 28, 47, 83, 1083)",2,1999_813486
1338,"(5, 28, 122, 0, 5)",2,1999_813486
1339,"(5, 28, 339, 39, 0)",2,1999_813486
1340,"(5, 39, 0, 5, 6)",2,1999_813486
1341,"(5, 72, 0, 14, 39)",2,1999_813486
1342,"(5, 72, 28, 0, 14)",2,1999_813486
1343,"(5, 72, 28, 0, 39)",2,1999_813486
1344,"(5, 72, 28, 14, 39)",2,1999_813486
1345,"(5, 72, 124, 0, 14)",2,1999_813486
1346,"(5, 72, 124, 0, 39)",2,1999_813486
1347,"(5, 72, 124, 14, 39)",2,1999_813486
1348,"(5, 72, 124, 28, 0)",2,1999_813486
1349,"(5, 72, 124, 28, 14)",2,1999_813486
1350,"(5, 72, 124, 28, 39)",2,1999_813486
1351,"(5, 72, 124, 251, 0)",2,1999_813486
1352,"(5, 72, 124, 251, 14)",2,1999_813486
1353,"(5, 72, 124, 251, 28)",2,1999_813486
1354,"(5, 72, 124, 251, 39)",2,1999_813486
1355,"(5, 72, 152, 0, 14)",2,1999_813486
1356,"(5, 72, 152, 0, 39)",2,1999_813486
1357,"(5, 72, 152, 14, 39)",2,1999_813486
1358,"(5, 72, 152, 28, 0)",2,1999_813486
1359,"(5, 72, 152, 28, 14)",2,1999_813486
1360,"(5, 72, 152, 28, 39)",2,1999_813486
1361,"(5, 72, 152, 124, 0)",2,1999_813486
1362,"(5, 72, 152, 124, 14)",2,1999_813486
1363,"(5, 72, 152, 124, 28)",2,1999_813486
1364,"(5, 72, 152, 124, 39)",2,1999_813486
1365,"(5, 72, 152, 124, 251)",2,1999_813486
1366,"(5, 72, 152, 251, 0)",2,1999_813486
1367,"(5, 72, 152, 251, 14)",2,1999_813486
1368,"(5, 72, 152, 251, 28)",2,1999_813486
1369,"(5, 72, 152, 251, 39)",2,1999_813486
1370,"(5, 72, 152, 260, 0)",2,1999_813486
1371,"(5, 72, 152, 260, 14)",2,1999_813486
1372,"(5, 72, 152, 260, 28)",2,1999_813486
1373,"(5, 72, 152, 260, 39)",2,1999_813486
1374,"(5, 72, 152, 260, 124)",2,1999_813486
1375,"(5, 72, 152, 260, 251)",2,1999_813486
1376,"(5, 72, 251, 0, 14)",2,1999_813486
1377,"(5, 72, 251, 0, 39)",2,1999_813486
1378,"(5, 72, 251, 14, 39)",2,1999_813486
1379,"(5, 72, 251, 28, 0)",2,1999_813486
1380,"(5, 72, 251, 28, 14)",2,1999_813486
1381,"(5, 72, 251, 28, 39)",2,1999_813486
1382,"(5, 72, 260, 0, 14)",2,1999_813486
1383,"(5, 72, 260, 0, 39)",2,1999_813486
1384,"(5, 72, 260, 14, 39)",2,1999_813486
1385,"(5, 72, 260, 28, 0)",2,1999_813486
1386,"(5, 72, 260, 28, 14)",2,1999_813486
1387,"(5, 72, 260, 28, 39)",2,1999_813486
1388,"(5, 72, 260, 124, 0)",2,1999_813486
1389,"(5, 72, 260, 124, 14)",2,1999_813486
1390,"(5, 72, 260, 124, 28)",2,1999_813486
1391,"(5, 72, 260, 124, 39)",2,1999_813486
1392,"(5, 72, 260, 124, 251)",2,1999_813486
1393,"(5, 72, 260, 251, 0)",2,1999_813486
1394,"(5, 72, 260, 251, 14)",2,1999_813486
1395,"(5, 72, 260, 251, 28)",2,1999_813486
1396,"(5, 72, 260, 251, 39)",2,1999_813486
1397,"(5, 92, 28, 439, 0)",2,1999_813486
1398,"(5, 124, 0, 14, 39)",2,1999_813486
1399,"(5, 124, 28, 0, 14)",2,1999_813486
1400,"(5, 124, 28, 0, 39)",2,1999_813486
1401,"(5, 124, 28, 14, 39)",2,1999_813486
1402,"(5, 124, 251, 0, 14)",2,1999_813486
1403,"(5, 124, 251, 0, 39)",2,1999_813486
1404,"(5, 124, 251, 14, 39)",2,1999_813486
1405,"(5, 124, 251, 28, 0)",2,1999_813486
1406,"(5, 124, 251, 28, 14)",2,1999_813486
1407,"(5, 124, 251, 28, 39)",2,1999_813486
1408,"(5, 152, 0, 14, 39)",2,1999_813486
1409,"(5, 152, 28, 0, 14)",2,1999_813486
1410,"(5, 152, 28, 0, 39)",2,1999_813486
1411,"(5, 152, 28, 14, 39)",2,1999_813486
1412,"(5, 152, 124, 0, 14)",2,1999_813486
1413,"(5, 152, 124, 0, 39)",2,1999_813486
1414,"(5, 152, 124, 14, 39)",2,1999_813486
1415,"(5, 152, 124, 28, 0)",2,1999_813486
1416,"(5, 152, 124, 28, 14)",2,1999_813486
1417,"(5, 152, 124, 28, 39)",2,1999_813486
1418,"(5, 152, 124, 251, 0)",2,1999_813486
1419,"(5, 152, 124, 251, 14)",2,1999_813486
1420,"(5, 152, 124, 251, 28)",2,1999_813486
1421,"(5, 152, 124, 251, 39)",2,1999_813486
1422,"(5, 152, 251, 0, 14)",2,1999_813486
1423,"(5, 152, 251, 0, 39)",2,1999_813486
1424,"(5, 152, 251, 14, 39)",2,1999_813486
1425,"(5, 152, 251, 28, 0)",2,1999_813486
1426,"(5, 152, 251, 28, 14)",2,1999_813486
1427,"(5, 152, 251, 28, 39)",2,1999_813486
1428,"(5, 152, 260, 0, 14)",2,1999_813486
1429,"(5, 152, 260, 0, 39)",2,1999_813486
1430,"(5, 152, 260, 14, 39)",2,1999_813486
1431,"(5, 152, 260, 28, 0)",2,1999_813486
1432,"(5, 152, 260, 28, 14)",2,1999_813486
1433,"(5, 152, 260, 28, 39)",2,1999_813486
1434,"(5, 152, 260, 124, 0)",2,1999_813486
1435,"(5, 152, 260, 124, 14)",2,1999_813486
1436,"(5, 152, 260, 124, 28)",2,1999_813486
1437,"(5, 152, 260, 124, 39)",2,1999_813486
1438,"(5, 152, 260, 124, 251)",2,1999_813486
1439,"(5, 152, 260, 251, 0)",2,1999_813486
1440,"(5, 152, 260, 251, 14)",2,1999_813486
1441,"(5, 152, 260, 251, 28)",2,1999_813486
1442,"(5, 152, 260, 251, 39)",2,1999_813486
1443,"(5, 194, 28, 47, 83)",2,1999_813486
1444,"(5, 194, 28, 47, 1083)",2,1999_813486
1445,"(5, 194, 28, 83, 1083)",2,1999_813486
1446,"(5, 194, 47, 83, 1083)",2,1999_813486
1447,"(5, 251, 0, 14, 39)",2,1999_813486
1448,"(5, 251, 28, 0, 14)",2,1999_813486
1449,"(5, 251, 28, 0, 39)",2,1999_813486
1450,"(5, 251, 28, 14, 39)",2,1999_813486
1451,"(5, 260, 0, 14, 39)",2,1999_813486
1452,"(5, 260, 28, 0, 14)",2,1999_813486
1453,"(5, 260, 28, 0, 39)",2,1999_813486
1454,"(5, 260, 28, 14, 39)",2,1999_813486
1455,"(5, 260, 124, 0, 14)",2,1999_813486
1456,"(5, 260, 124, 0, 39)",2,1999_813486
1457,"(5, 260, 124, 14, 39)",2,1999_813486
1458,"(5, 260, 124, 28, 0)",2,1999_813486
1459,"(5, 260, 124, 28, 14)",2,1999_813486
1460,"(5, 260, 124, 28, 39)",2,1999_813486
1461,"(5, 260, 124, 251, 0)",2,1999_813486
1462,"(5, 260, 124, 251, 14)",2,1999_813486
1463,"(5, 260, 124, 251, 28)",2,1999_813486
1464,"(5, 260, 124, 251, 39)",2,1999_813486
1465,"(5, 260, 251, 0, 14)",2,1999_813486
1466,"(5, 260, 251, 0, 39)",2,1999_813486
1467,"(5, 260, 251, 14, 39)",2,1999_813486
1468,"(5, 260, 251, 28, 0)",2,1999_813486
1469,"(5, 260, 251, 28, 14)",2,1999_813486
1470,"(5, 260, 251, 28, 39)",2,1999_813486
1471,"(28, 0, 14, 72, 47)",2,1999_813486
1472,"(38, 5, 1680, 47, 193)",2,1999_813486
1473,"(72, 28, 0, 14, 39)",2,1999_813486
1474,"(72, 124, 0, 14, 39)",2,1999_813486
1475,"(72, 124, 28, 0, 14)",2,1999_813486
1476,"(72, 124, 28, 0, 39)",2,1999_813486
1477,"(72, 124, 28, 14, 39)",2,1999_813486
1478,"(72, 124, 251, 0, 14)",2,1999_813486
1479,"(72, 124, 251, 0, 39)",2,1999_813486
1480,"(72, 124, 251, 14, 39)",2,1999_813486
1481,"(72, 124, 251, 28, 0)",2,1999_813486
1482,"(72, 124, 251, 28, 14)",2,1999_813486
1483,"(72, 124, 251, 28, 39)",2,1999_813486
1484,"(72, 152, 0, 14, 39)",2,1999_813486
1485,"(72, 152, 28, 0, 14)",2,1999_813486
1486,"(72, 152, 28, 0, 39)",2,1999_813486
1487,"(72, 152, 28, 14, 39)",2,1999_813486
1488,"(72, 152, 124, 0, 14)",2,1999_813486
1489,"(72, 152, 124, 0, 39)",2,1999_813486
1490,"(72, 152, 124, 14, 39)",2,1999_813486
1491,"(72, 152, 124, 28, 0)",2,1999_813486
1492,"(72, 152, 124, 28, 14)",2,1999_813486
1493,"(72, 152, 124, 28, 39)",2,1999_813486
1494,"(72, 152, 124, 251, 0)",2,1999_813486
1495,"(72, 152, 124, 251, 14)",2,1999_813486
1496,"(72, 152, 124, 251, 28)",2,1999_813486
1497,"(72, 152, 124, 251, 39)",2,1999_813486
1498,"(72, 152, 251, 0, 14)",2,1999_813486
1499,"(72, 152, 251, 0, 39)",2,1999_813486
1500,"(72, 152, 251, 14, 39)",2,1999_813486
1501,"(72, 152, 251, 28, 0)",2,1999_813486
1502,"(72, 152, 251, 28, 14)",2,1999_813486
1503,"(72, 152, 251, 28, 39)",2,1999_813486
1504,"(72, 152, 260, 0, 14)",2,1999_813486
1505,"(72, 152, 260, 0, 39)",2,1999_813486
1506,"(72, 152, 260, 14, 39)",2,1999_813486
1507,"(72, 152, 260, 28, 0)",2,1999_813486
1508,"(72, 152, 260, 28, 14)",2,1999_813486
1509,"(72, 152, 260, 28, 39)",2,1999_813486
1510,"(72, 152, 260, 124, 0)",2,1999_813486
1511,"(72, 152, 260, 124, 14)",2,1999_813486
1512,"(72, 152, 260, 124, 28)",2,1999_813486
1513,"(72, 152, 260, 124, 39)",2,1999_813486
1514,"(72, 152, 260, 124, 251)",2,1999_813486
1515,"(72, 152, 260, 251, 0)",2,1999_813486
1516,"(72, 152, 260, 251, 14)",2,1999_813486
1517,"(72, 152, 260, 251, 28)",2,1999_813486
1518,"(72, 152, 260, 251, 39)",2,1999_813486
1519,"(72, 251, 0, 14, 39)",2,1999_813486
1520,"(72, 251, 28, 0, 14)",2,1999_813486
1521,"(72, 251, 28, 0, 39)",2,1999_813486
1522,"(72, 251, 28, 14, 39)",2,1999_813486
1523,"(72, 260, 0, 14, 39)",2,1999_813486
1524,"(72, 260, 28, 0, 14)",2,1999_813486
1525,"(72, 260, 28, 0, 39)",2,1999_813486
1526,"(72, 260, 28, 14, 39)",2,1999_813486
1527,"(72, 260, 124, 0, 14)",2,1999_813486
1528,"(72, 260, 124, 0, 39)",2,1999_813486
1529,"(72, 260, 124, 14, 39)",2,1999_813486
1530,"(72, 260, 124, 28, 0)",2,1999_813486
1531,"(72, 260, 124, 28, 14)",2,1999_813486
1532,"(72, 260, 124, 28, 39)",2,1999_813486
1533,"(72, 260, 124, 251, 0)",2,1999_813486
1534,"(72, 260, 124, 251, 14)",2,1999_813486
1535,"(72, 260, 124, 251, 28)",2,1999_813486
1536,"(72, 260, 124, 251, 39)",2,1999_813486
1537,"(72, 260, 251, 0, 14)",2,1999_813486
1538,"(72, 260, 251, 0, 39)",2,1999_813486
1539,"(72, 260, 251, 14, 39)",2,1999_813486
1540,"(72, 260, 251, 28, 0)",2,1999_813486
1541,"(72, 260, 251, 28, 14)",2,1999_813486
1542,"(72, 260, 251, 28, 39)",2,1999_813486
1543,"(72, 681, 47, 28, 171)",2,1999_813486
1544,"(72, 681, 1680, 28, 171)",2,1999_813486
1545,"(72, 681, 1680, 47, 28)",2,1999_813486
1546,"(72, 681, 1680, 47, 171)",2,1999_813486
1547,"(72, 1680, 47, 28, 171)",2,1999_813486
1548,"(92, 28, 339, 39, 0)",2,1999_813486
1549,"(124, 28, 0, 14, 39)",2,1999_813486
1550,"(124, 251, 0, 14, 39)",2,1999_813486
1551,"(124, 251, 28, 0, 14)",2,1999_813486
1552,"(124, 251, 28, 0, 39)",2,1999_813486
1553,"(124, 251, 28, 14, 39)",2,1999_813486
1554,"(152, 28, 0, 14, 39)",2,1999_813486
1555,"(152, 124, 0, 14, 39)",2,1999_813486
1556,"(152, 124, 28, 0, 14)",2,1999_813486
1557,"(152, 124, 28, 0, 39)",2,1999_813486
1558,"(152, 124, 28, 14, 39)",2,1999_813486
1559,"(152, 124, 251, 0, 14)",2,1999_813486
1560,"(152, 124, 251, 0, 39)",2,1999_813486
1561,"(152, 124, 251, 14, 39)",2,1999_813486
1562,"(152, 124, 251, 28, 0)",2,1999_813486
1563,"(152, 124, 251, 28, 14)",2,1999_813486
1564,"(152, 124, 251, 28, 39)",2,1999_813486
1565,"(152, 251, 0, 14, 39)",2,1999_813486
1566,"(152, 251, 28, 0, 14)",2,1999_813486
1567,"(152, 251, 28, 0, 39)",2,1999_813486
1568,"(152, 251, 28, 14, 39)",2,1999_813486
1569,"(152, 260, 0, 14, 39)",2,1999_813486
1570,"(152, 260, 28, 0, 14)",2,1999_813486
1571,"(152, 260, 28, 0, 39)",2,1999_813486
1572,"(152, 260, 28, 14, 39)",2,1999_813486
1573,"(152, 260, 124, 0, 14)",2,1999_813486
1574,"(152, 260, 124, 0, 39)",2,1999_813486
1575,"(152, 260, 124, 14, 39)",2,1999_813486
1576,"(152, 260, 124, 28, 0)",2,1999_813486
1577,"(152, 260, 124, 28, 14)",2,1999_813486
1578,"(152, 260, 124, 28, 39)",2,1999_813486
1579,"(152, 260, 124, 251, 0)",2,1999_813486
1580,"(152, 260, 124, 251, 14)",2,1999_813486
1581,"(152, 260, 124, 251, 28)",2,1999_813486
1582,"(152, 260, 124, 251, 39)",2,1999_813486
1583,"(152, 260, 251, 0, 14)",2,1999_813486
1584,"(152, 260, 251, 0, 39)",2,1999_813486
1585,"(152, 260, 251, 14, 39)",2,1999_813486
1586,"(152, 260, 251, 28, 0)",2,1999_813486
1587,"(152, 260, 251, 28, 14)",2,1999_813486
1588,"(152, 260, 251, 28, 39)",2,1999_813486
1589,"(194, 28, 47, 83, 1083)",2,1999_813486
1590,"(239, 18, 28, 167, 325)",2,1999_813486
1591,"(239, 335, 18, 28, 167)",2,1999_813486
1592,"(239, 335, 18, 28, 325)",2,1999_813486
1593,"(239, 335, 18, 167, 325)",2,1999_813486
1594,"(239, 335, 28, 167, 325)",2,1999_813486
1595,"(251, 28, 0, 14, 39)",2,1999_813486
1596,"(260, 28, 0, 14, 39)",2,1999_813486
1597,"(260, 124, 0, 14, 39)",2,1999_813486
1598,"(260, 124, 28, 0, 14)",2,1999_813486
1599,"(260, 124, 28, 0, 39)",2,1999_813486
1600,"(260, 124, 28, 14, 39)",2,1999_813486
1601,"(260, 124, 251, 0, 14)",2,1999_813486
1602,"(260, 124, 251, 0, 39)",2,1999_813486
1603,"(260, 124, 251, 14, 39)",2,1999_813486
1604,"(260, 124, 251, 28, 0)",2,1999_813486
1605,"(260, 124, 251, 28, 14)",2,1999_813486
1606,"(260, 124, 251, 28, 39)",2,1999_813486
1607,"(260, 251, 0, 14, 39)",2,1999_813486
1608,"(260, 251, 28, 0, 14)",2,1999_813486
1609,"(260, 251, 28, 0, 39)",2,1999_813486
1610,"(260, 251, 28, 14, 39)",2,1999_813486
1611,"(335, 18, 28, 167, 325)",2,1999_813486
1612,"(681, 1680, 47, 28, 171)",2,1999_813486
1613,"(5, 72, 28, 0, 14, 39)",2,1999_813486
1614,"(5, 72, 124, 0, 14, 39)",2,1999_813486
1615,"(5, 72, 124, 28, 0, 14)",2,1999_813486
1616,"(5, 72, 124, 28, 0, 39)",2,1999_813486
1617,"(5, 72, 124, 28, 14, 39)",2,1999_813486
1618,"(5, 72, 124, 251, 0, 14)",2,1999_813486
1619,"(5, 72, 124, 251, 0, 39)",2,1999_813486
1620,"(5, 72, 124, 251, 14, 39)",2,1999_813486
1621,"(5, 72, 124, 251, 28, 0)",2,1999_813486
1622,"(5, 72, 124, 251, 28, 14)",2,1999_813486
1623,"(5, 72, 124, 251, 28, 39)",2,1999_813486
1624,"(5, 72, 152, 0, 14, 39)",2,1999_813486
1625,"(5, 72, 152, 28, 0, 14)",2,1999_813486
1626,"(5, 72, 152, 28, 0, 39)",2,1999_813486
1627,"(5, 72, 152, 28, 14, 39)",2,1999_813486
1628,"(5, 72, 152, 124, 0, 14)",2,1999_813486
1629,"(5, 72, 152, 124, 0, 39)",2,1999_813486
1630,"(5, 72, 152, 124, 14, 39)",2,1999_813486
1631,"(5, 72, 152, 124, 28, 0)",2,1999_813486
1632,"(5, 72, 152, 124, 28, 14)",2,1999_813486
1633,"(5, 72, 152, 124, 28, 39)",2,1999_813486
1634,"(5, 72, 152, 124, 251, 0)",2,1999_813486
1635,"(5, 72, 152, 124, 251, 14)",2,1999_813486
1636,"(5, 72, 152, 124, 251, 28)",2,1999_813486
1637,"(5, 72, 152, 124, 251, 39)",2,1999_813486
1638,"(5, 72, 152, 251, 0, 14)",2,1999_813486
1639,"(5, 72, 152, 251, 0, 39)",2,1999_813486
1640,"(5, 72, 152, 251, 14, 39)",2,1999_813486
1641,"(5, 72, 152, 251, 28, 0)",2,1999_813486
1642,"(5, 72, 152, 251, 28, 14)",2,1999_813486
1643,"(5, 72, 152, 251, 28, 39)",2,1999_813486
1644,"(5, 72, 152, 260, 0, 14)",2,1999_813486
1645,"(5, 72, 152, 260, 0, 39)",2,1999_813486
1646,"(5, 72, 152, 260, 14, 39)",2,1999_813486
1647,"(5, 72, 152, 260, 28, 0)",2,1999_813486
1648,"(5, 72, 152, 260, 28, 14)",2,1999_813486
1649,"(5, 72, 152, 260, 28, 39)",2,1999_813486
1650,"(5, 72, 152, 260, 124, 0)",2,1999_813486
1651,"(5, 72, 152, 260, 124, 14)",2,1999_813486
1652,"(5, 72, 152, 260, 124, 28)",2,1999_813486
1653,"(5, 72, 152, 260, 124, 39)",2,1999_813486
1654,"(5, 72, 152, 260, 124, 251)",2,1999_813486
1655,"(5, 72, 152, 260, 251, 0)",2,1999_813486
1656,"(5, 72, 152, 260, 251, 14)",2,1999_813486
1657,"(5, 72, 152, 260, 251, 28)",2,1999_813486
1658,"(5, 72, 152, 260, 251, 39)",2,1999_813486
1659,"(5, 72, 251, 0, 14, 39)",2,1999_813486
1660,"(5, 72, 251, 28, 0, 14)",2,1999_813486
1661,"(5, 72, 251, 28, 0, 39)",2,1999_813486
1662,"(5, 72, 251, 28, 14, 39)",2,1999_813486
1663,"(5, 72, 260, 0, 14, 39)",2,1999_813486
1664,"(5, 72, 260, 28, 0, 14)",2,1999_813486
1665,"(5, 72, 260, 28, 0, 39)",2,1999_813486
1666,"(5, 72, 260, 28, 14, 39)",2,1999_813486
1667,"(5, 72, 260, 124, 0, 14)",2,1999_813486
1668,"(5, 72, 260, 124, 0, 39)",2,1999_813486
1669,"(5, 72, 260, 124, 14, 39)",2,1999_813486
1670,"(5, 72, 260, 124, 28, 0)",2,1999_813486
1671,"(5, 72, 260, 124, 28, 14)",2,1999_813486
1672,"(5, 72, 260, 124, 28, 39)",2,1999_813486
1673,"(5, 72, 260, 124, 251, 0)",2,1999_813486
1674,"(5, 72, 260, 124, 251, 14)",2,1999_813486
1675,"(5, 72, 260, 124, 251, 28)",2,1999_813486
1676,"(5, 72, 260, 124, 251, 39)",2,1999_813486
1677,"(5, 72, 260, 251, 0, 14)",2,1999_813486
1678,"(5, 72, 260, 251, 0, 39)",2,1999_813486
1679,"(5, 72, 260, 251, 14, 39)",2,1999_813486
1680,"(5, 72, 260, 251, 28, 0)",2,1999_813486
1681,"(5, 72, 260, 251, 28, 14)",2,1999_813486
1682,"(5, 72, 260, 251, 28, 39)",2,1999_813486
1683,"(5, 124, 28, 0, 14, 39)",2,1999_813486
1684,"(5, 124, 251, 0, 14, 39)",2,1999_813486
1685,"(5, 124, 251, 28, 0, 14)",2,1999_813486
1686,"(5, 124, 251, 28, 0, 39)",2,1999_813486
1687,"(5, 124, 251, 28, 14, 39)",2,1999_813486
1688,"(5, 152, 28, 0, 14, 39)",2,1999_813486
1689,"(5, 152, 124, 0, 14, 39)",2,1999_813486
1690,"(5, 152, 124, 28, 0, 14)",2,1999_813486
1691,"(5, 152, 124, 28, 0, 39)",2,1999_813486
1692,"(5, 152, 124, 28, 14, 39)",2,1999_813486
1693,"(5, 152, 124, 251, 0, 14)",2,1999_813486
1694,"(5, 152, 124, 251, 0, 39)",2,1999_813486
1695,"(5, 152, 124, 251, 14, 39)",2,1999_813486
1696,"(5, 152, 124, 251, 28, 0)",2,1999_813486
1697,"(5, 152, 124, 251, 28, 14)",2,1999_813486
1698,"(5, 152, 124, 251, 28, 39)",2,1999_813486
1699,"(5, 152, 251, 0, 14, 39)",2,1999_813486
1700,"(5, 152, 251, 28, 0, 14)",2,1999_813486
1701,"(5, 152, 251, 28, 0, 39)",2,1999_813486
1702,"(5, 152, 251, 28, 14, 39)",2,1999_813486
1703,"(5, 152, 260, 0, 14, 39)",2,1999_813486
1704,"(5, 152, 260, 28, 0, 14)",2,1999_813486
1705,"(5, 152, 260, 28, 0, 39)",2,1999_813486
1706,"(5, 152, 260, 28, 14, 39)",2,1999_813486
1707,"(5, 152, 260, 124, 0, 14)",2,1999_813486
1708,"(5, 152, 260, 124, 0, 39)",2,1999_813486
1709,"(5, 152, 260, 124, 14, 39)",2,1999_813486
1710,"(5, 152, 260, 124, 28, 0)",2,1999_813486
1711,"(5, 152, 260, 124, 28, 14)",2,1999_813486
1712,"(5, 152, 260, 124, 28, 39)",2,1999_813486
1713,"(5, 152, 260, 124, 251, 0)",2,1999_813486
1714,"(5, 152, 260, 124, 251, 14)",2,1999_813486
1715,"(5, 152, 260, 124, 251, 28)",2,1999_813486
1716,"(5, 152, 260, 124, 251, 39)",2,1999_813486
1717,"(5, 152, 260, 251, 0, 14)",2,1999_813486
1718,"(5, 152, 260, 251, 0, 39)",2,1999_813486
1719,"(5, 152, 260, 251, 14, 39)",2,1999_813486
1720,"(5, 152, 260, 251, 28, 0)",2,1999_813486
1721,"(5, 152, 260, 251, 28, 14)",2,1999_813486
1722,"(5, 152, 260, 251, 28, 39)",2,1999_813486
1723,"(5, 194, 28, 47, 83, 1083)",2,1999_813486
1724,"(5, 251, 28, 0, 14, 39)",2,1999_813486
1725,"(5, 260, 28, 0, 14, 39)",2,1999_813486
1726,"(5, 260, 124, 0, 14, 39)",2,1999_813486
1727,"(5, 260, 124, 28, 0, 14)",2,1999_813486
1728,"(5, 260, 124, 28, 0, 39)",2,1999_813486
1729,"(5, 260, 124, 28, 14, 39)",2,1999_813486
1730,"(5, 260, 124, 251, 0, 14)",2,1999_813486
1731,"(5, 260, 124, 251, 0, 39)",2,1999_813486
1732,"(5, 260, 124, 251, 14, 39)",2,1999_813486
1733,"(5, 260, 124, 251, 28, 0)",2,1999_813486
1734,"(5, 260, 124, 251, 28, 14)",2,1999_813486
1735,"(5, 260, 124, 251, 28, 39)",2,1999_813486
1736,"(5, 260, 251, 0, 14, 39)",2,1999_813486
1737,"(5, 260, 251, 28, 0, 14)",2,1999_813486
1738,"(5, 260, 251, 28, 0, 39)",2,1999_813486
1739,"(5, 260, 251, 28, 14, 39)",2,1999_813486
1740,"(72, 124, 28, 0, 14, 39)",2,1999_813486
1741,"(72, 124, 251, 0, 14, 39)",2,1999_813486
1742,"(72, 124, 251, 28, 0, 14)",2,1999_813486
1743,"(72, 124, 251, 28, 0, 39)",2,1999_813486
1744,"(72, 124, 251, 28, 14, 39)",2,1999_813486
1745,"(72, 152, 28, 0, 14, 39)",2,1999_813486
1746,"(72, 152, 124, 0, 14, 39)",2,1999_813486
1747,"(72, 152, 124, 28, 0, 14)",2,1999_813486
1748,"(72, 152, 124, 28, 0, 39)",2,1999_813486
1749,"(72, 152, 124, 28, 14, 39)",2,1999_813486
1750,"(72, 152, 124, 251, 0, 14)",2,1999_813486
1751,"(72, 152, 124, 251, 0, 39)",2,1999_813486
1752,"(72, 152, 124, 251, 14, 39)",2,1999_813486
1753,"(72, 152, 124, 251, 28, 0)",2,1999_813486
1754,"(72, 152, 124, 251, 28, 14)",2,1999_813486
1755,"(72, 152, 124, 251, 28, 39)",2,1999_813486
1756,"(72, 152, 251, 0, 14, 39)",2,1999_813486
1757,"(72, 152, 251, 28, 0, 14)",2,1999_813486
1758,"(72, 152, 251, 28, 0, 39)",2,1999_813486
1759,"(72, 152, 251, 28, 14, 39)",2,1999_813486
1760,"(72, 152, 260, 0, 14, 39)",2,1999_813486
1761,"(72, 152, 260, 28, 0, 14)",2,1999_813486
1762,"(72, 152, 260, 28, 0, 39)",2,1999_813486
1763,"(72, 152, 260, 28, 14, 39)",2,1999_813486
1764,"(72, 152, 260, 124, 0, 14)",2,1999_813486
1765,"(72, 152, 260, 124, 0, 39)",2,1999_813486
1766,"(72, 152, 260, 124, 14, 39)",2,1999_813486
1767,"(72, 152, 260, 124, 28, 0)",2,1999_813486
1768,"(72, 152, 260, 124, 28, 14)",2,1999_813486
1769,"(72, 152, 260, 124, 28, 39)",2,1999_813486
1770,"(72, 152, 260, 124, 251, 0)",2,1999_813486
1771,"(72, 152, 260, 124, 251, 14)",2,1999_813486
1772,"(72, 152, 260, 124, 251, 28)",2,1999_813486
1773,"(72, 152, 260, 124, 251, 39)",2,1999_813486
1774,"(72, 152, 260, 251, 0, 14)",2,1999_813486
1775,"(72, 152, 260, 251, 0, 39)",2,1999_813486
1776,"(72, 152, 260, 251, 14, 39)",2,1999_813486
1777,"(72, 152, 260, 251, 28, 0)",2,1999_813486
1778,"(72, 152, 260, 251, 28, 14)",2,1999_813486
1779,"(72, 152, 260, 251, 28, 39)",2,1999_813486
1780,"(72, 251, 28, 0, 14, 39)",2,1999_813486
1781,"(72, 260, 28, 0, 14, 39)",2,1999_813486
1782,"(72, 260, 124, 0, 14, 39)",2,1999_813486
1783,"(72, 260, 124, 28, 0, 14)",2,1999_813486
1784,"(72, 260, 124, 28, 0, 39)",2,1999_813486
1785,"(72, 260, 124, 28, 14, 39)",2,1999_813486
1786,"(72, 260, 124, 251, 0, 14)",2,1999_813486
1787,"(72, 260, 124, 251, 0, 39)",2,1999_813486
1788,"(72, 260, 124, 251, 14, 39)",2,1999_813486
1789,"(72, 260, 124, 251, 28, 0)",2,1999_813486
1790,"(72, 260, 124, 251, 28, 14)",2,1999_813486
1791,"(72, 260, 124, 251, 28, 39)",2,1999_813486
1792,"(72, 260, 251, 0, 14, 39)",2,1999_813486
1793,"(72, 260, 251, 28, 0, 14)",2,1999_813486
1794,"(72, 260, 251, 28, 0, 39)",2,1999_813486
1795,"(72, 260, 251, 28, 14, 39)",2,1999_813486
1796,"(72, 681, 1680, 47, 28, 171)",2,1999_813486
1797,"(124, 251, 28, 0, 14, 39)",2,1999_813486
1798,"(152, 124, 28, 0, 14, 39)",2,1999_813486
1799,"(152, 124, 251, 0, 14, 39)",2,1999_813486
1800,"(152, 124, 251, 28, 0, 14)",2,1999_813486
1801,"(152, 124, 251, 28, 0, 39)",2,1999_813486
1802,"(152, 124, 251, 28, 14, 39)",2,1999_813486
1803,"(152, 251, 28, 0, 14, 39)",2,1999_813486
1804,"(152, 260, 28, 0, 14, 39)",2,1999_813486
1805,"(152, 260, 124, 0, 14, 39)",2,1999_813486
1806,"(152, 260, 124, 28, 0, 14)",2,1999_813486
1807,"(152, 260, 124, 28, 0, 39)",2,1999_813486
1808,"(152, 260, 124, 28, 14, 39)",2,1999_813486
1809,"(152, 260, 124, 251, 0, 14)",2,1999_813486
1810,"(152, 260, 124, 251, 0, 39)",2,1999_813486
1811,"(152, 260, 124, 251, 14, 39)",2,1999_813486
1812,"(152, 260, 124, 251, 28, 0)",2,1999_813486
1813,"(152, 260, 124, 251, 28, 14)",2,1999_813486
1814,"(152, 260, 124, 251, 28, 39)",2,1999_813486
1815,"(152, 260, 251, 0, 14, 39)",2,1999_813486
1816,"(152, 260, 251, 28, 0, 14)",2,1999_813486
1817,"(152, 260, 251, 28, 0, 39)",2,1999_813486
1818,"(152, 260, 251, 28, 14, 39)",2,1999_813486
1819,"(239, 335, 18, 28, 167, 325)",2,1999_813486
1820,"(260, 124, 28, 0, 14, 39)",2,1999_813486
1821,"(260, 124, 251, 0, 14, 39)",2,1999_813486
1822,"(260, 124, 251, 28, 0, 14)",2,1999_813486
1823,"(260, 124, 251, 28, 0, 39)",2,1999_813486
1824,"(260, 124, 251, 28, 14, 39)",2,1999_813486
1825,"(260, 251, 28, 0, 14, 39)",2,1999_813486
1826,"(5, 72, 124, 28, 0, 14, 39)",2,1999_813486
1827,"(5, 72, 124, 251, 0, 14, 39)",2,1999_813486
1828,"(5, 72, 124, 251, 28, 0, 14)",2,1999_813486
1829,"(5, 72, 124, 251, 28, 0, 39)",2,1999_813486
1830,"(5, 72, 124, 251, 28, 14, 39)",2,1999_813486
1831,"(5, 72, 152, 28, 0, 14, 39)",2,1999_813486
1832,"(5, 72, 152, 124, 0, 14, 39)",2,1999_813486
1833,"(5, 72, 152, 124, 28, 0, 14)",2,1999_813486
1834,"(5, 72, 152, 124, 28, 0, 39)",2,1999_813486
1835,"(5, 72, 152, 124, 28, 14, 39)",2,1999_813486
1836,"(5, 72, 152, 124, 251, 0, 14)",2,1999_813486
1837,"(5, 72, 152, 124, 251, 0, 39)",2,1999_813486
1838,"(5, 72, 152, 124, 251, 14, 39)",2,1999_813486
1839,"(5, 72, 152, 124, 251, 28, 0)",2,1999_813486
1840,"(5, 72, 152, 124, 251, 28, 14)",2,1999_813486
1841,"(5, 72, 152, 124, 251, 28, 39)",2,1999_813486
1842,"(5, 72, 152, 251, 0, 14, 39)",2,1999_813486
1843,"(5, 72, 152, 251, 28, 0, 14)",2,1999_813486
1844,"(5, 72, 152, 251, 28, 0, 39)",2,1999_813486
1845,"(5, 72, 152, 251, 28, 14, 39)",2,1999_813486
1846,"(5, 72, 152, 260, 0, 14, 39)",2,1999_813486
1847,"(5, 72, 152, 260, 28, 0, 14)",2,1999_813486
1848,"(5, 72, 152, 260, 28, 0, 39)",2,1999_813486
1849,"(5, 72, 152, 260, 28, 14, 39)",2,1999_813486
1850,"(5, 72, 152, 260, 124, 0, 14)",2,1999_813486
1851,"(5, 72, 152, 260, 124, 0, 39)",2,1999_813486
1852,"(5, 72, 152, 260, 124, 14, 39)",2,1999_813486
1853,"(5, 72, 152, 260, 124, 28, 0)",2,1999_813486
1854,"(5, 72, 152, 260, 124, 28, 14)",2,1999_813486
1855,"(5, 72, 152, 260, 124, 28, 39)",2,1999_813486
1856,"(5, 72, 152, 260, 124, 251, 0)",2,1999_813486
1857,"(5, 72, 152, 260, 124, 251, 14)",2,1999_813486
1858,"(5, 72, 152, 260, 124, 251, 28)",2,1999_813486
1859,"(5, 72, 152, 260, 124, 251, 39)",2,1999_813486
1860,"(5, 72, 152, 260, 251, 0, 14)",2,1999_813486
1861,"(5, 72, 152, 260, 251, 0, 39)",2,1999_813486
1862,"(5, 72, 152, 260, 251, 14, 39)",2,1999_813486
1863,"(5, 72, 152, 260, 251, 28, 0)",2,1999_813486
1864,"(5, 72, 152, 260, 251, 28, 14)",2,1999_813486
1865,"(5, 72, 152, 260, 251, 28, 39)",2,1999_813486
1866,"(5, 72, 251, 28, 0, 14, 39)",2,1999_813486
1867,"(5, 72, 260, 28, 0, 14, 39)",2,1999_813486
1868,"(5, 72, 260, 124, 0, 14, 39)",2,1999_813486
1869,"(5, 72, 260, 124, 28, 0, 14)",2,1999_813486
1870,"(5, 72, 260, 124, 28, 0, 39)",2,1999_813486
1871,"(5, 72, 260, 124, 28, 14, 39)",2,1999_813486
1872,"(5, 72, 260, 124, 251, 0, 14)",2,1999_813486
1873,"(5, 72, 260, 124, 251, 0, 39)",2,1999_813486
1874,"(5, 72, 260, 124, 251, 14, 39)",2,1999_813486
1875,"(5, 72, 260, 124, 251, 28, 0)",2,1999_813486
1876,"(5, 72, 260, 124, 251, 28, 14)",2,1999_813486
1877,"(5, 72, 260, 124, 251, 28, 39)",2,1999_813486
1878,"(5, 72, 260, 251, 0, 14, 39)",2,1999_813486
1879,"(5, 72, 260, 251, 28, 0, 14)",2,1999_813486
1880,"(5, 72, 260, 251, 28, 0, 39)",2,1999_813486
1881,"(5, 72, 260, 251, 28, 14, 39)",2,1999_813486
1882,"(5, 124, 251, 28, 0, 14, 39)",2,1999_813486
1883,"(5, 152, 124, 28, 0, 14, 39)",2,1999_813486
1884,"(5, 152, 124, 251, 0, 14, 39)",2,1999_813486
1885,"(5, 152, 124, 251, 28, 0, 14)",2,1999_813486
1886,"(5, 152, 124, 251, 28, 0, 39)",2,1999_813486
1887,"(5, 152, 124, 251, 28, 14, 39)",2,1999_813486
1888,"(5, 152, 251, 28, 0, 14, 39)",2,1999_813486
1889,"(5, 152, 260, 28, 0, 14, 39)",2,1999_813486
1890,"(5, 152, 260, 124, 0, 14, 39)",2,1999_813486
1891,"(5, 152, 260, 124, 28, 0, 14)",2,1999_813486
1892,"(5, 152, 260, 124, 28, 0, 39)",2,1999_813486
1893,"(5, 152, 260, 124, 28, 14, 39)",2,1999_813486
1894,"(5, 152, 260, 124, 251, 0, 14)",2,1999_813486
1895,"(5, 152, 260, 124, 251, 0, 39)",2,1999_813486
1896,"(5, 152, 260, 124, 251, 14, 39)",2,1999_813486
1897,"(5, 152, 260, 124, 251, 28, 0)",2,1999_813486
1898,"(5, 152, 260, 124, 251, 28, 14)",2,1999_813486
1899,"(5, 152, 260, 124, 251, 28, 39)",2,1999_813486
1900,"(5, 152, 260, 251, 0, 14, 39)",2,1999_813486
1901,"(5, 152, 260, 251, 28, 0, 14)",2,1999_813486
1902,"(5, 152, 260, 251, 28, 0, 39)",2,1999_813486
1903,"(5, 152, 260, 251, 28, 14, 39)",2,1999_813486
1904,"(5, 260, 124, 28, 0, 14, 39)",2,1999_813486
1905,"(5, 260, 124, 251, 0, 14, 39)",2,1999_813486
1906,"(5, 260, 124, 251, 28, 0, 14)",2,1999_813486
1907,"(5, 260, 124, 251, 28, 0, 39)",2,1999_813486
1908,"(5, 260, 124, 251, 28, 14, 39)",2,1999_813486
1909,"(5, 260, 251, 28, 0, 14, 39)",2,1999_813486
1910,"(72, 124, 251, 28, 0, 14, 39)",2,1999_813486
1911,"(72, 152, 124, 28, 0, 14, 39)",2,1999_813486
1912,"(72, 152, 124, 251, 0, 14, 39)",2,1999_813486
1913,"(72, 152, 124, 251, 28, 0, 14)",2,1999_813486
1914,"(72, 152, 124, 251, 28, 0, 39)",2,1999_813486
1915,"(72, 152, 124, 251, 28, 14, 39)",2,1999_813486
1916,"(72, 152, 251, 28, 0, 14, 39)",2,1999_813486
1917,"(72, 152, 260, 28, 0, 14, 39)",2,1999_813486
1918,"(72, 152, 260, 124, 0, 14, 39)",2,1999_813486
1919,"(72, 152, 260, 124, 28, 0, 14)",2,1999_813486
1920,"(72, 152, 260, 124, 28, 0, 39)",2,1999_813486
1921,"(72, 152, 260, 124, 28, 14, 39)",2,1999_813486
1922,"(72, 152, 260, 124, 251, 0, 14)",2,1999_813486
1923,"(72, 152, 260, 124, 251, 0, 39)",2,1999_813486
1924,"(72, 152, 260, 124, 251, 14, 39)",2,1999_813486
1925,"(72, 152, 260, 124, 251, 28, 0)",2,1999_813486
1926,"(72, 152, 260, 124, 251, 28, 14)",2,1999_813486
1927,"(72, 152, 260, 124, 251, 28, 39)",2,1999_813486
1928,"(72, 152, 260, 251, 0, 14, 39)",2,1999_813486
1929,"(72, 152, 260, 251, 28, 0, 14)",2,1999_813486
1930,"(72, 152, 260, 251, 28, 0, 39)",2,1999_813486
1931,"(72, 152, 260, 251, 28, 14, 39)",2,1999_813486
1932,"(72, 260, 124, 28, 0, 14, 39)",2,1999_813486
1933,"(72, 260, 124, 251, 0, 14, 39)",2,1999_813486
1934,"(72, 260, 124, 251, 28, 0, 14)",2,1999_813486
1935,"(72, 260, 124, 251, 28, 0, 39)",2,1999_813486
1936,"(72, 260, 124, 251, 28, 14, 39)",2,1999_813486
1937,"(72, 260, 251, 28, 0, 14, 39)",2,1999_813486
1938,"(152, 124, 251, 28, 0, 14, 39)",2,1999_813486
1939,"(152, 260, 124, 28, 0, 14, 39)",2,1999_813486
1940,"(152, 260, 124, 251, 0, 14, 39)",2,1999_813486
1941,"(152, 260, 124, 251, 28, 0, 14)",2,1999_813486
1942,"(152, 260, 124, 251, 28, 0, 39)",2,1999_813486
1943,"(152, 260, 124, 251, 28, 14, 39)",2,1999_813486
1944,"(152, 260, 251, 28, 0, 14, 39)",2,1999_813486
1945,"(260, 124, 251, 28, 0, 14, 39)",2,1999_813486
1946,"(5, 72, 124, 251, 28, 0, 14, 39)",2,1999_813486
1947,"(5, 72, 152, 124, 28, 0, 14, 39)",2,1999_813486
1948,"(5, 72, 152, 124, 251, 0, 14, 39)",2,1999_813486
1949,"(5, 72, 152, 124, 251, 28, 0, 14)",2,1999_813486
1950,"(5, 72, 152, 124, 251, 28, 0, 39)",2,1999_813486
1951,"(5, 72, 152, 124, 251, 28, 14, 39)",2,1999_813486
1952,"(5, 72, 152, 251, 28, 0, 14, 39)",2,1999_813486
1953,"(5, 72, 152, 260, 28, 0, 14, 39)",2,1999_813486
1954,"(5, 72, 152, 260, 124, 0, 14, 39)",2,1999_813486
1955,"(5, 72, 152, 260, 124, 28, 0, 14)",2,1999_813486
1956,"(5, 72, 152, 260, 124, 28, 0, 39)",2,1999_813486
1957,"(5, 72, 152, 260, 124, 28, 14, 39)",2,1999_813486
1958,"(5, 72, 152, 260, 124, 251, 0, 14)",2,1999_813486
1959,"(5, 72, 152, 260, 124, 251, 0, 39)",2,1999_813486
1960,"(5, 72, 152, 260, 124, 251, 14, 39)",2,1999_813486
1961,"(5, 72, 152, 260, 124, 251, 28, 0)",2,1999_813486
1962,"(5, 72, 152, 260, 124, 251, 28, 14)",2,1999_813486
1963,"(5, 72, 152, 260, 124, 251, 28, 39)",2,1999_813486
1964,"(5, 72, 152, 260, 251, 0, 14, 39)",2,1999_813486
1965,"(5, 72, 152, 260, 251, 28, 0, 14)",2,1999_813486
1966,"(5, 72, 152, 260, 251, 28, 0, 39)",2,1999_813486
1967,"(5, 72, 152, 260, 251, 28, 14, 39)",2,1999_813486
1968,"(5, 72, 260, 124, 28, 0, 14, 39)",2,1999_813486
1969,"(5, 72, 260, 124, 251, 0, 14, 39)",2,1999_813486
1970,"(5, 72, 260, 124, 251, 28, 0, 14)",2,1999_813486
1971,"(5, 72, 260, 124, 251, 28, 0, 39)",2,1999_813486
1972,"(5, 72, 260, 124, 251, 28, 14, 39)",2,1999_813486
1973,"(5, 72, 260, 251, 28, 0, 14, 39)",2,1999_813486
1974,"(5, 152, 124, 251, 28, 0, 14, 39)",2,1999_813486
1975,"(5, 152, 260, 124, 28, 0, 14, 39)",2,1999_813486
1976,"(5, 152, 260, 124, 251, 0, 14, 39)",2,1999_813486
1977,"(5, 152, 260, 124, 251, 28, 0, 14)",2,1999_813486
1978,"(5, 152, 260, 124, 251, 28, 0, 39)",2,1999_813486
1979,"(5, 152, 260, 124, 251, 28, 14, 39)",2,1999_813486
1980,"(5, 152, 260, 251, 28, 0, 14, 39)",2,1999_813486
1981,"(5, 260, 124, 251, 28, 0, 14, 39)",2,1999_813486
1982,"(72, 152, 124, 251, 28, 0, 14, 39)",2,1999_813486
1983,"(72, 152, 260, 124, 28, 0, 14, 39)",2,1999_813486
1984,"(72, 152, 260, 124, 251, 0, 14, 39)",2,1999_813486
1985,"(72, 152, 260, 124, 251, 28, 0, 14)",2,1999_813486
1986,"(72, 152, 260, 124, 251, 28, 0, 39)",2,1999_813486
1987,"(72, 152, 260, 124, 251, 28, 14, 39)",2,1999_813486
1988,"(72, 152, 260, 251, 28, 0, 14, 39)",2,1999_813486
1989,"(72, 260, 124, 251, 28, 0, 14, 39)",2,1999_813486
1990,"(152, 260, 124, 251, 28, 0, 14, 39)",2,1999_813486
1991,"(5, 72, 152, 124, 251, 28, 0, 14, 39)",2,1999_813486
1992,"(5, 72, 152, 260, 124, 28, 0, 14, 39)",2,1999_813486
1993,"(5, 72, 152, 260, 124, 251, 0, 14, 39)",2,1999_813486
1994,"(5, 72, 152, 260, 124, 251, 28, 0, 14)",2,1999_813486
1995,"(5, 72, 152, 260, 124, 251, 28, 0, 39)",2,1999_813486
1996,"(5, 72, 152, 260, 124, 251, 28, 14, 39)",2,1999_813486
1997,"(5, 72, 152, 260, 251, 28, 0, 14, 39)",2,1999_813486
1998,"(5, 72, 260, 124, 251, 28, 0, 14, 39)",2,1999_813486
1999,"(5, 152, 260, 124, 251, 28, 0, 14, 39)",2,1999_813486
2000,"(72, 152, 260, 124, 251, 28, 0, 14, 39)",2,1999_813486
2001,"(5, 72, 152, 260, 124, 251, 28, 0, 14, 39)",2,1999_813486
