,pattern,sup,author
341,"(0, 0, 0)",3,2000_489004
342,"(0, 0, 5)",2,2000_489004
343,"(0, 0, 40)",4,2000_489004
344,"(0, 0, 2180)",2,2000_489004
345,"(0, 2, 21)",2,2000_489004
346,"(0, 2, 28)",2,2000_489004
347,"(0, 2, 40)",2,2000_489004
348,"(0, 2, 122)",2,2000_489004
349,"(0, 5, 2)",4,2000_489004
350,"(0, 5, 18)",2,2000_489004
351,"(0, 5, 28)",2,2000_489004
352,"(0, 5, 38)",2,2000_489004
353,"(0, 5, 40)",2,2000_489004
354,"(0, 5, 47)",2,2000_489004
355,"(0, 12, 33)",2,2000_489004
356,"(0, 18, 2)",2,2000_489004
357,"(0, 21, 128)",2,2000_489004
358,"(0, 28, 2)",3,2000_489004
359,"(0, 32, 0)",3,2000_489004
360,"(0, 32, 40)",3,2000_489004
361,"(0, 32, 47)",2,2000_489004
362,"(0, 32, 122)",2,2000_489004
363,"(0, 32, 125)",2,2000_489004
364,"(0, 33, 12)",2,2000_489004
365,"(0, 33, 33)",2,2000_489004
366,"(0, 33, 39)",2,2000_489004
367,"(0, 33, 40)",3,2000_489004
368,"(0, 39, 40)",2,2000_489004
369,"(0, 40, 0)",4,2000_489004
370,"(0, 40, 40)",4,2000_489004
371,"(0, 69, 553)",2,2000_489004
372,"(0, 92, 2)",2,2000_489004
373,"(0, 122, 40)",3,2000_489004
374,"(0, 125, 2)",2,2000_489004
375,"(0, 187, 38)",2,2000_489004
376,"(0, 489, 122)",2,2000_489004
377,"(0, 489, 859)",2,2000_489004
378,"(0, 553, 2)",2,2000_489004
379,"(0, 553, 32)",2,2000_489004
380,"(0, 553, 554)",2,2000_489004
381,"(0, 859, 122)",2,2000_489004
382,"(0, 2180, 0)",3,2000_489004
383,"(0, 2180, 2180)",2,2000_489004
384,"(2, 0, 2)",2,2000_489004
385,"(2, 0, 5)",2,2000_489004
386,"(2, 0, 28)",2,2000_489004
387,"(2, 2, 28)",2,2000_489004
388,"(2, 5, 28)",2,2000_489004
389,"(2, 18, 28)",2,2000_489004
390,"(2, 28, 2)",2,2000_489004
391,"(2, 28, 28)",2,2000_489004
392,"(2, 122, 40)",2,2000_489004
393,"(2, 1455, 408)",2,2000_489004
394,"(5, 0, 0)",4,2000_489004
395,"(5, 0, 2)",2,2000_489004
396,"(5, 0, 5)",2,2000_489004
397,"(5, 0, 28)",2,2000_489004
398,"(5, 0, 32)",2,2000_489004
399,"(5, 0, 33)",2,2000_489004
400,"(5, 0, 39)",2,2000_489004
401,"(5, 0, 40)",4,2000_489004
402,"(5, 0, 122)",2,2000_489004
403,"(5, 0, 128)",2,2000_489004
404,"(5, 0, 408)",2,2000_489004
405,"(5, 2, 0)",2,2000_489004
406,"(5, 2, 28)",2,2000_489004
407,"(5, 2, 122)",2,2000_489004
408,"(5, 18, 2)",2,2000_489004
409,"(5, 18, 28)",2,2000_489004
410,"(5, 32, 0)",2,2000_489004
411,"(5, 32, 40)",2,2000_489004
412,"(5, 33, 40)",2,2000_489004
413,"(5, 40, 0)",4,2000_489004
414,"(5, 40, 28)",2,2000_489004
415,"(5, 40, 39)",2,2000_489004
416,"(5, 40, 40)",2,2000_489004
417,"(5, 40, 128)",2,2000_489004
418,"(5, 47, 0)",2,2000_489004
419,"(5, 47, 28)",2,2000_489004
420,"(5, 47, 32)",2,2000_489004
421,"(5, 47, 40)",2,2000_489004
422,"(5, 47, 47)",2,2000_489004
423,"(5, 47, 367)",2,2000_489004
424,"(5, 85, 0)",2,2000_489004
425,"(5, 85, 40)",2,2000_489004
426,"(5, 92, 122)",2,2000_489004
427,"(5, 92, 489)",2,2000_489004
428,"(5, 92, 859)",2,2000_489004
429,"(5, 113, 0)",2,2000_489004
430,"(5, 122, 40)",2,2000_489004
431,"(5, 128, 28)",2,2000_489004
432,"(5, 171, 47)",3,2000_489004
433,"(5, 214, 47)",2,2000_489004
434,"(5, 272, 270)",2,2000_489004
435,"(5, 321, 0)",2,2000_489004
436,"(5, 489, 2)",2,2000_489004
437,"(5, 489, 21)",2,2000_489004
438,"(5, 489, 122)",3,2000_489004
439,"(5, 489, 859)",2,2000_489004
440,"(5, 859, 122)",2,2000_489004
441,"(5, 989, 0)",2,2000_489004
442,"(5, 989, 40)",2,2000_489004
443,"(5, 989, 47)",2,2000_489004
444,"(5, 989, 367)",2,2000_489004
445,"(14, 0, 2)",2,2000_489004
446,"(18, 0, 12)",2,2000_489004
447,"(18, 0, 33)",2,2000_489004
448,"(18, 12, 33)",2,2000_489004
449,"(18, 33, 12)",2,2000_489004
450,"(18, 33, 33)",2,2000_489004
451,"(21, 0, 2)",3,2000_489004
452,"(21, 0, 5)",2,2000_489004
453,"(21, 0, 128)",2,2000_489004
454,"(21, 5, 2)",2,2000_489004
455,"(21, 859, 122)",2,2000_489004
456,"(32, 0, 40)",2,2000_489004
457,"(32, 5, 0)",2,2000_489004
458,"(32, 5, 47)",2,2000_489004
459,"(32, 38, 0)",2,2000_489004
460,"(32, 38, 47)",2,2000_489004
461,"(32, 40, 0)",2,2000_489004
462,"(32, 40, 40)",2,2000_489004
463,"(32, 47, 0)",2,2000_489004
464,"(32, 47, 39)",2,2000_489004
465,"(32, 122, 40)",2,2000_489004
466,"(33, 12, 33)",2,2000_489004
467,"(33, 39, 40)",2,2000_489004
468,"(38, 47, 0)",2,2000_489004
469,"(39, 0, 40)",2,2000_489004
470,"(40, 0, 0)",4,2000_489004
471,"(40, 0, 2)",2,2000_489004
472,"(40, 0, 28)",2,2000_489004
473,"(40, 0, 33)",2,2000_489004
474,"(40, 0, 40)",5,2000_489004
475,"(40, 0, 122)",2,2000_489004
476,"(40, 0, 128)",2,2000_489004
477,"(40, 40, 0)",3,2000_489004
478,"(40, 40, 40)",4,2000_489004
479,"(40, 122, 40)",2,2000_489004
480,"(40, 128, 28)",2,2000_489004
481,"(41, 0, 553)",2,2000_489004
482,"(47, 0, 2)",3,2000_489004
483,"(47, 0, 21)",3,2000_489004
484,"(47, 0, 32)",4,2000_489004
485,"(47, 0, 33)",2,2000_489004
486,"(47, 0, 40)",2,2000_489004
487,"(47, 0, 125)",2,2000_489004
488,"(47, 0, 553)",2,2000_489004
489,"(47, 21, 2)",2,2000_489004
490,"(47, 32, 40)",2,2000_489004
491,"(47, 32, 47)",2,2000_489004
492,"(47, 40, 0)",2,2000_489004
493,"(47, 40, 149)",2,2000_489004
494,"(47, 92, 21)",2,2000_489004
495,"(47, 125, 0)",2,2000_489004
496,"(47, 125, 2)",2,2000_489004
497,"(47, 125, 21)",2,2000_489004
498,"(47, 176, 0)",2,2000_489004
499,"(47, 176, 260)",2,2000_489004
500,"(47, 325, 0)",2,2000_489004
501,"(47, 325, 21)",2,2000_489004
502,"(47, 325, 125)",2,2000_489004
503,"(47, 1455, 21)",2,2000_489004
504,"(51, 5, 47)",2,2000_489004
505,"(51, 5, 171)",2,2000_489004
506,"(51, 5, 270)",2,2000_489004
507,"(51, 171, 47)",2,2000_489004
508,"(69, 5, 123)",2,2000_489004
509,"(85, 0, 40)",2,2000_489004
510,"(85, 40, 0)",2,2000_489004
511,"(92, 0, 128)",2,2000_489004
512,"(92, 21, 128)",2,2000_489004
513,"(92, 489, 122)",2,2000_489004
514,"(92, 489, 859)",2,2000_489004
515,"(92, 859, 122)",2,2000_489004
516,"(113, 0, 0)",2,2000_489004
517,"(113, 0, 32)",2,2000_489004
518,"(125, 0, 2)",2,2000_489004
519,"(125, 0, 28)",2,2000_489004
520,"(133, 0, 53)",2,2000_489004
521,"(133, 554, 53)",2,2000_489004
522,"(133, 554, 1868)",2,2000_489004
523,"(133, 1868, 53)",2,2000_489004
524,"(161, 5, 270)",2,2000_489004
525,"(161, 5, 272)",2,2000_489004
526,"(161, 272, 270)",2,2000_489004
527,"(187, 0, 553)",2,2000_489004
528,"(260, 0, 55)",2,2000_489004
529,"(270, 47, 28)",2,2000_489004
530,"(325, 0, 2)",2,2000_489004
531,"(325, 125, 2)",2,2000_489004
532,"(325, 125, 21)",2,2000_489004
533,"(489, 2, 122)",2,2000_489004
534,"(489, 859, 122)",2,2000_489004
535,"(553, 21, 2)",2,2000_489004
536,"(553, 13590, 38)",2,2000_489004
537,"(554, 0, 32)",2,2000_489004
538,"(554, 1868, 53)",2,2000_489004
539,"(718, 0, 28)",2,2000_489004
540,"(989, 47, 367)",2,2000_489004
541,"(1345, 5, 123)",2,2000_489004
542,"(1345, 69, 5)",2,2000_489004
543,"(1345, 69, 123)",2,2000_489004
544,"(2180, 0, 0)",2,2000_489004
545,"(2180, 0, 2180)",2,2000_489004
546,"(2180, 2180, 0)",2,2000_489004
547,"(15551, 0, 408)",2,2000_489004
548,"(0, 0, 2180, 0)",2,2000_489004
549,"(0, 2, 122, 40)",2,2000_489004
550,"(0, 32, 0, 40)",2,2000_489004
551,"(0, 32, 40, 0)",2,2000_489004
552,"(0, 32, 40, 40)",2,2000_489004
553,"(0, 32, 122, 40)",2,2000_489004
554,"(0, 33, 12, 33)",2,2000_489004
555,"(0, 33, 39, 40)",2,2000_489004
556,"(0, 40, 0, 40)",4,2000_489004
557,"(0, 489, 859, 122)",2,2000_489004
558,"(0, 2180, 0, 0)",2,2000_489004
559,"(0, 2180, 0, 2180)",2,2000_489004
560,"(0, 2180, 2180, 0)",2,2000_489004
561,"(2, 0, 28, 2)",2,2000_489004
562,"(5, 0, 32, 0)",2,2000_489004
563,"(5, 0, 32, 40)",2,2000_489004
564,"(5, 0, 33, 40)",2,2000_489004
565,"(5, 0, 40, 0)",2,2000_489004
566,"(5, 0, 40, 40)",2,2000_489004
567,"(5, 32, 40, 0)",2,2000_489004
568,"(5, 40, 0, 0)",2,2000_489004
569,"(5, 40, 0, 40)",2,2000_489004
570,"(5, 40, 40, 40)",2,2000_489004
571,"(5, 40, 128, 28)",2,2000_489004
572,"(5, 85, 0, 40)",2,2000_489004
573,"(5, 85, 40, 0)",2,2000_489004
574,"(5, 92, 489, 122)",2,2000_489004
575,"(5, 92, 489, 859)",2,2000_489004
576,"(5, 92, 859, 122)",2,2000_489004
577,"(5, 113, 0, 0)",2,2000_489004
578,"(5, 489, 2, 122)",2,2000_489004
579,"(5, 489, 859, 122)",2,2000_489004
580,"(5, 989, 47, 367)",2,2000_489004
581,"(18, 0, 12, 33)",2,2000_489004
582,"(18, 0, 33, 12)",2,2000_489004
583,"(18, 0, 33, 33)",2,2000_489004
584,"(18, 33, 12, 33)",2,2000_489004
585,"(21, 0, 5, 2)",2,2000_489004
586,"(32, 38, 47, 0)",2,2000_489004
587,"(32, 40, 0, 40)",2,2000_489004
588,"(40, 0, 0, 40)",3,2000_489004
589,"(40, 0, 40, 0)",3,2000_489004
590,"(40, 0, 40, 40)",3,2000_489004
591,"(40, 0, 122, 40)",2,2000_489004
592,"(40, 40, 0, 40)",3,2000_489004
593,"(40, 40, 40, 0)",2,2000_489004
594,"(40, 40, 40, 40)",2,2000_489004
595,"(47, 0, 32, 40)",2,2000_489004
596,"(47, 0, 125, 2)",2,2000_489004
597,"(47, 325, 125, 21)",2,2000_489004
598,"(51, 5, 171, 47)",2,2000_489004
599,"(92, 489, 859, 122)",2,2000_489004
600,"(133, 554, 1868, 53)",2,2000_489004
601,"(161, 5, 272, 270)",2,2000_489004
602,"(1345, 69, 5, 123)",2,2000_489004
603,"(2180, 0, 2180, 0)",2,2000_489004
604,"(0, 32, 40, 0, 40)",2,2000_489004
605,"(0, 2180, 0, 2180, 0)",2,2000_489004
606,"(5, 0, 32, 40, 0)",2,2000_489004
607,"(5, 40, 0, 40, 40)",2,2000_489004
608,"(5, 92, 489, 859, 122)",2,2000_489004
609,"(18, 0, 33, 12, 33)",2,2000_489004
610,"(40, 0, 40, 0, 40)",3,2000_489004
611,"(40, 40, 40, 0, 40)",2,2000_489004
