,pattern,sup,author
1029,"(0, 0, 5)",3,2003_509
1030,"(0, 0, 6)",2,2003_509
1031,"(0, 0, 14)",2,2003_509
1032,"(0, 0, 190)",2,2003_509
1033,"(0, 2, 5)",2,2003_509
1034,"(0, 5, 0)",2,2003_509
1035,"(0, 5, 2)",2,2003_509
1036,"(0, 5, 5)",4,2003_509
1037,"(0, 5, 6)",2,2003_509
1038,"(0, 5, 9)",2,2003_509
1039,"(0, 5, 18)",3,2003_509
1040,"(0, 5, 28)",6,2003_509
1041,"(0, 5, 39)",3,2003_509
1042,"(0, 5, 41)",3,2003_509
1043,"(0, 5, 47)",2,2003_509
1044,"(0, 5, 49)",2,2003_509
1045,"(0, 5, 89)",5,2003_509
1046,"(0, 5, 99)",3,2003_509
1047,"(0, 5, 102)",2,2003_509
1048,"(0, 5, 116)",2,2003_509
1049,"(0, 5, 171)",4,2003_509
1050,"(0, 5, 190)",4,2003_509
1051,"(0, 5, 270)",2,2003_509
1052,"(0, 5, 325)",4,2003_509
1053,"(0, 5, 336)",2,2003_509
1054,"(0, 5, 482)",2,2003_509
1055,"(0, 5, 699)",2,2003_509
1056,"(0, 5, 797)",2,2003_509
1057,"(0, 14, 2)",2,2003_509
1058,"(0, 14, 5)",7,2003_509
1059,"(0, 14, 6)",2,2003_509
1060,"(0, 14, 28)",2,2003_509
1061,"(0, 14, 41)",2,2003_509
1062,"(0, 14, 89)",3,2003_509
1063,"(0, 14, 99)",2,2003_509
1064,"(0, 14, 102)",2,2003_509
1065,"(0, 14, 171)",3,2003_509
1066,"(0, 14, 190)",3,2003_509
1067,"(0, 14, 325)",3,2003_509
1068,"(0, 14, 336)",2,2003_509
1069,"(0, 18, 28)",3,2003_509
1070,"(0, 28, 5)",2,2003_509
1071,"(0, 28, 28)",5,2003_509
1072,"(0, 28, 39)",2,2003_509
1073,"(0, 28, 47)",3,2003_509
1074,"(0, 28, 92)",2,2003_509
1075,"(0, 28, 171)",2,2003_509
1076,"(0, 28, 325)",3,2003_509
1077,"(0, 28, 482)",2,2003_509
1078,"(0, 32, 5)",2,2003_509
1079,"(0, 32, 270)",2,2003_509
1080,"(0, 32, 699)",2,2003_509
1081,"(0, 32, 2056)",2,2003_509
1082,"(0, 39, 28)",2,2003_509
1083,"(0, 41, 5)",2,2003_509
1084,"(0, 41, 92)",2,2003_509
1085,"(0, 41, 190)",2,2003_509
1086,"(0, 47, 5)",2,2003_509
1087,"(0, 47, 18)",2,2003_509
1088,"(0, 89, 28)",2,2003_509
1089,"(0, 89, 41)",2,2003_509
1090,"(0, 89, 99)",2,2003_509
1091,"(0, 89, 116)",2,2003_509
1092,"(0, 89, 171)",2,2003_509
1093,"(0, 89, 190)",2,2003_509
1094,"(0, 89, 270)",2,2003_509
1095,"(0, 92, 5)",3,2003_509
1096,"(0, 99, 116)",2,2003_509
1097,"(0, 102, 325)",2,2003_509
1098,"(0, 124, 0)",2,2003_509
1099,"(0, 124, 2)",2,2003_509
1100,"(0, 124, 5)",4,2003_509
1101,"(0, 124, 14)",2,2003_509
1102,"(0, 124, 28)",2,2003_509
1103,"(0, 124, 41)",4,2003_509
1104,"(0, 124, 89)",2,2003_509
1105,"(0, 124, 92)",3,2003_509
1106,"(0, 124, 125)",2,2003_509
1107,"(0, 124, 190)",3,2003_509
1108,"(0, 124, 270)",2,2003_509
1109,"(0, 124, 316)",2,2003_509
1110,"(0, 124, 325)",4,2003_509
1111,"(0, 124, 348)",2,2003_509
1112,"(0, 124, 797)",2,2003_509
1113,"(0, 125, 797)",2,2003_509
1114,"(0, 171, 5)",2,2003_509
1115,"(0, 171, 28)",3,2003_509
1116,"(0, 171, 39)",2,2003_509
1117,"(0, 171, 47)",2,2003_509
1118,"(0, 171, 92)",2,2003_509
1119,"(0, 171, 99)",2,2003_509
1120,"(0, 171, 116)",2,2003_509
1121,"(0, 171, 190)",3,2003_509
1122,"(0, 190, 5)",2,2003_509
1123,"(0, 190, 92)",2,2003_509
1124,"(0, 190, 99)",2,2003_509
1125,"(0, 190, 116)",2,2003_509
1126,"(0, 190, 325)",3,2003_509
1127,"(0, 270, 125)",3,2003_509
1128,"(0, 271, 32)",2,2003_509
1129,"(0, 271, 2056)",2,2003_509
1130,"(0, 325, 5)",2,2003_509
1131,"(0, 325, 92)",2,2003_509
1132,"(0, 325, 325)",2,2003_509
1133,"(0, 336, 9)",2,2003_509
1134,"(0, 348, 92)",2,2003_509
1135,"(0, 565, 5)",2,2003_509
1136,"(0, 565, 797)",2,2003_509
1137,"(2, 0, 5)",6,2003_509
1138,"(2, 0, 14)",3,2003_509
1139,"(2, 0, 18)",2,2003_509
1140,"(2, 0, 28)",2,2003_509
1141,"(2, 0, 39)",2,2003_509
1142,"(2, 0, 89)",2,2003_509
1143,"(2, 0, 92)",2,2003_509
1144,"(2, 0, 271)",2,2003_509
1145,"(2, 0, 325)",2,2003_509
1146,"(2, 0, 336)",2,2003_509
1147,"(2, 5, 28)",3,2003_509
1148,"(2, 5, 39)",2,2003_509
1149,"(2, 5, 41)",2,2003_509
1150,"(2, 5, 89)",2,2003_509
1151,"(2, 5, 214)",2,2003_509
1152,"(2, 5, 336)",2,2003_509
1153,"(2, 14, 5)",3,2003_509
1154,"(2, 14, 89)",2,2003_509
1155,"(2, 21, 215)",2,2003_509
1156,"(2, 28, 144)",2,2003_509
1157,"(2, 32, 5)",3,2003_509
1158,"(2, 32, 14)",2,2003_509
1159,"(2, 32, 92)",2,2003_509
1160,"(2, 32, 140)",2,2003_509
1161,"(2, 64, 0)",2,2003_509
1162,"(2, 64, 5)",4,2003_509
1163,"(2, 64, 21)",2,2003_509
1164,"(2, 64, 65)",2,2003_509
1165,"(2, 64, 214)",2,2003_509
1166,"(2, 64, 215)",2,2003_509
1167,"(2, 64, 699)",2,2003_509
1168,"(2, 65, 5)",3,2003_509
1169,"(2, 65, 214)",2,2003_509
1170,"(2, 65, 271)",2,2003_509
1171,"(2, 65, 699)",3,2003_509
1172,"(2, 92, 5)",2,2003_509
1173,"(2, 124, 92)",2,2003_509
1174,"(2, 124, 679)",2,2003_509
1175,"(2, 679, 92)",2,2003_509
1176,"(2, 699, 5)",3,2003_509
1177,"(2, 699, 214)",2,2003_509
1178,"(5, 0, 5)",4,2003_509
1179,"(5, 0, 14)",4,2003_509
1180,"(5, 0, 18)",2,2003_509
1181,"(5, 0, 28)",2,2003_509
1182,"(5, 0, 32)",2,2003_509
1183,"(5, 0, 41)",2,2003_509
1184,"(5, 0, 89)",2,2003_509
1185,"(5, 0, 124)",3,2003_509
1186,"(5, 0, 190)",2,2003_509
1187,"(5, 0, 271)",2,2003_509
1188,"(5, 0, 325)",3,2003_509
1189,"(5, 0, 348)",2,2003_509
1190,"(5, 2, 0)",5,2003_509
1191,"(5, 2, 5)",6,2003_509
1192,"(5, 2, 18)",2,2003_509
1193,"(5, 2, 21)",3,2003_509
1194,"(5, 2, 28)",2,2003_509
1195,"(5, 2, 32)",4,2003_509
1196,"(5, 2, 41)",2,2003_509
1197,"(5, 2, 64)",5,2003_509
1198,"(5, 2, 65)",3,2003_509
1199,"(5, 2, 92)",2,2003_509
1200,"(5, 2, 124)",2,2003_509
1201,"(5, 2, 140)",2,2003_509
1202,"(5, 2, 214)",2,2003_509
1203,"(5, 2, 215)",2,2003_509
1204,"(5, 2, 325)",3,2003_509
1205,"(5, 2, 679)",2,2003_509
1206,"(5, 2, 699)",2,2003_509
1207,"(5, 5, 0)",3,2003_509
1208,"(5, 5, 2)",2,2003_509
1209,"(5, 5, 5)",4,2003_509
1210,"(5, 5, 6)",3,2003_509
1211,"(5, 5, 18)",3,2003_509
1212,"(5, 5, 28)",4,2003_509
1213,"(5, 5, 32)",2,2003_509
1214,"(5, 5, 41)",2,2003_509
1215,"(5, 5, 64)",2,2003_509
1216,"(5, 5, 89)",2,2003_509
1217,"(5, 5, 99)",3,2003_509
1218,"(5, 5, 102)",2,2003_509
1219,"(5, 5, 171)",3,2003_509
1220,"(5, 5, 179)",2,2003_509
1221,"(5, 5, 190)",2,2003_509
1222,"(5, 5, 214)",3,2003_509
1223,"(5, 5, 270)",2,2003_509
1224,"(5, 5, 325)",3,2003_509
1225,"(5, 5, 699)",2,2003_509
1226,"(5, 5, 797)",2,2003_509
1227,"(5, 5, 989)",3,2003_509
1228,"(5, 6, 5)",2,2003_509
1229,"(5, 6, 28)",2,2003_509
1230,"(5, 6, 102)",2,2003_509
1231,"(5, 6, 171)",2,2003_509
1232,"(5, 6, 190)",2,2003_509
1233,"(5, 6, 325)",2,2003_509
1234,"(5, 14, 5)",3,2003_509
1235,"(5, 14, 89)",2,2003_509
1236,"(5, 14, 325)",2,2003_509
1237,"(5, 18, 2)",2,2003_509
1238,"(5, 18, 5)",2,2003_509
1239,"(5, 18, 16)",2,2003_509
1240,"(5, 18, 28)",6,2003_509
1241,"(5, 18, 40)",2,2003_509
1242,"(5, 18, 171)",2,2003_509
1243,"(5, 18, 325)",2,2003_509
1244,"(5, 21, 5)",2,2003_509
1245,"(5, 21, 32)",2,2003_509
1246,"(5, 21, 140)",2,2003_509
1247,"(5, 21, 215)",2,2003_509
1248,"(5, 28, 0)",5,2003_509
1249,"(5, 28, 2)",3,2003_509
1250,"(5, 28, 5)",3,2003_509
1251,"(5, 28, 18)",4,2003_509
1252,"(5, 28, 21)",4,2003_509
1253,"(5, 28, 28)",8,2003_509
1254,"(5, 28, 32)",6,2003_509
1255,"(5, 28, 38)",4,2003_509
1256,"(5, 28, 39)",2,2003_509
1257,"(5, 28, 40)",6,2003_509
1258,"(5, 28, 47)",3,2003_509
1259,"(5, 28, 48)",2,2003_509
1260,"(5, 28, 71)",2,2003_509
1261,"(5, 28, 124)",2,2003_509
1262,"(5, 28, 140)",3,2003_509
1263,"(5, 28, 144)",3,2003_509
1264,"(5, 28, 171)",4,2003_509
1265,"(5, 28, 174)",2,2003_509
1266,"(5, 28, 179)",2,2003_509
1267,"(5, 28, 232)",2,2003_509
1268,"(5, 28, 271)",2,2003_509
1269,"(5, 28, 325)",3,2003_509
1270,"(5, 28, 348)",2,2003_509
1271,"(5, 28, 349)",2,2003_509
1272,"(5, 28, 482)",2,2003_509
1273,"(5, 28, 681)",3,2003_509
1274,"(5, 28, 2095)",2,2003_509
1275,"(5, 32, 5)",4,2003_509
1276,"(5, 32, 18)",2,2003_509
1277,"(5, 32, 21)",2,2003_509
1278,"(5, 32, 28)",2,2003_509
1279,"(5, 32, 32)",3,2003_509
1280,"(5, 32, 40)",2,2003_509
1281,"(5, 32, 86)",2,2003_509
1282,"(5, 32, 124)",2,2003_509
1283,"(5, 32, 140)",3,2003_509
1284,"(5, 32, 271)",2,2003_509
1285,"(5, 32, 493)",2,2003_509
1286,"(5, 32, 2056)",2,2003_509
1287,"(5, 39, 28)",3,2003_509
1288,"(5, 40, 0)",2,2003_509
1289,"(5, 40, 32)",5,2003_509
1290,"(5, 40, 38)",2,2003_509
1291,"(5, 40, 271)",3,2003_509
1292,"(5, 40, 2056)",2,2003_509
1293,"(5, 40, 2095)",2,2003_509
1294,"(5, 47, 5)",2,2003_509
1295,"(5, 47, 18)",2,2003_509
1296,"(5, 47, 21)",3,2003_509
1297,"(5, 47, 28)",2,2003_509
1298,"(5, 47, 47)",2,2003_509
1299,"(5, 49, 2)",2,2003_509
1300,"(5, 64, 0)",2,2003_509
1301,"(5, 64, 5)",4,2003_509
1302,"(5, 64, 21)",2,2003_509
1303,"(5, 64, 65)",2,2003_509
1304,"(5, 64, 214)",2,2003_509
1305,"(5, 64, 215)",2,2003_509
1306,"(5, 64, 699)",2,2003_509
1307,"(5, 65, 5)",2,2003_509
1308,"(5, 65, 214)",2,2003_509
1309,"(5, 65, 699)",2,2003_509
1310,"(5, 71, 21)",2,2003_509
1311,"(5, 71, 40)",2,2003_509
1312,"(5, 71, 47)",2,2003_509
1313,"(5, 89, 0)",2,2003_509
1314,"(5, 89, 2)",2,2003_509
1315,"(5, 89, 21)",2,2003_509
1316,"(5, 89, 28)",5,2003_509
1317,"(5, 89, 32)",2,2003_509
1318,"(5, 89, 86)",2,2003_509
1319,"(5, 89, 92)",2,2003_509
1320,"(5, 89, 99)",2,2003_509
1321,"(5, 89, 116)",3,2003_509
1322,"(5, 89, 119)",2,2003_509
1323,"(5, 89, 124)",2,2003_509
1324,"(5, 89, 171)",2,2003_509
1325,"(5, 89, 190)",3,2003_509
1326,"(5, 89, 270)",2,2003_509
1327,"(5, 89, 325)",4,2003_509
1328,"(5, 89, 461)",2,2003_509
1329,"(5, 89, 681)",2,2003_509
1330,"(5, 92, 5)",4,2003_509
1331,"(5, 92, 21)",3,2003_509
1332,"(5, 92, 32)",3,2003_509
1333,"(5, 92, 92)",2,2003_509
1334,"(5, 92, 99)",3,2003_509
1335,"(5, 92, 116)",3,2003_509
1336,"(5, 92, 122)",2,2003_509
1337,"(5, 92, 215)",2,2003_509
1338,"(5, 99, 2)",2,2003_509
1339,"(5, 99, 5)",2,2003_509
1340,"(5, 99, 21)",2,2003_509
1341,"(5, 99, 28)",2,2003_509
1342,"(5, 99, 64)",2,2003_509
1343,"(5, 99, 116)",4,2003_509
1344,"(5, 99, 989)",2,2003_509
1345,"(5, 102, 5)",2,2003_509
1346,"(5, 102, 18)",3,2003_509
1347,"(5, 102, 28)",3,2003_509
1348,"(5, 102, 91)",2,2003_509
1349,"(5, 102, 171)",2,2003_509
1350,"(5, 102, 190)",2,2003_509
1351,"(5, 102, 325)",3,2003_509
1352,"(5, 105, 5)",2,2003_509
1353,"(5, 116, 0)",2,2003_509
1354,"(5, 116, 2)",2,2003_509
1355,"(5, 116, 21)",3,2003_509
1356,"(5, 116, 28)",3,2003_509
1357,"(5, 116, 32)",2,2003_509
1358,"(5, 116, 270)",2,2003_509
1359,"(5, 119, 2)",2,2003_509
1360,"(5, 119, 28)",2,2003_509
1361,"(5, 119, 681)",2,2003_509
1362,"(5, 123, 32)",3,2003_509
1363,"(5, 124, 92)",2,2003_509
1364,"(5, 124, 348)",2,2003_509
1365,"(5, 124, 679)",2,2003_509
1366,"(5, 125, 5)",2,2003_509
1367,"(5, 125, 28)",2,2003_509
1368,"(5, 125, 270)",2,2003_509
1369,"(5, 135, 5)",2,2003_509
1370,"(5, 140, 18)",2,2003_509
1371,"(5, 140, 21)",2,2003_509
1372,"(5, 140, 28)",3,2003_509
1373,"(5, 140, 47)",3,2003_509
1374,"(5, 140, 235)",2,2003_509
1375,"(5, 144, 28)",2,2003_509
1376,"(5, 151, 28)",2,2003_509
1377,"(5, 151, 232)",2,2003_509
1378,"(5, 171, 0)",3,2003_509
1379,"(5, 171, 5)",3,2003_509
1380,"(5, 171, 9)",2,2003_509
1381,"(5, 171, 21)",2,2003_509
1382,"(5, 171, 28)",3,2003_509
1383,"(5, 171, 39)",2,2003_509
1384,"(5, 171, 41)",3,2003_509
1385,"(5, 171, 71)",2,2003_509
1386,"(5, 171, 92)",2,2003_509
1387,"(5, 171, 99)",2,2003_509
1388,"(5, 171, 116)",3,2003_509
1389,"(5, 171, 190)",3,2003_509
1390,"(5, 171, 681)",2,2003_509
1391,"(5, 174, 40)",2,2003_509
1392,"(5, 174, 2095)",2,2003_509
1393,"(5, 179, 32)",2,2003_509
1394,"(5, 190, 0)",2,2003_509
1395,"(5, 190, 2)",2,2003_509
1396,"(5, 190, 5)",4,2003_509
1397,"(5, 190, 6)",2,2003_509
1398,"(5, 190, 21)",3,2003_509
1399,"(5, 190, 28)",3,2003_509
1400,"(5, 190, 32)",2,2003_509
1401,"(5, 190, 47)",2,2003_509
1402,"(5, 190, 64)",2,2003_509
1403,"(5, 190, 92)",4,2003_509
1404,"(5, 190, 99)",2,2003_509
1405,"(5, 190, 116)",4,2003_509
1406,"(5, 190, 124)",2,2003_509
1407,"(5, 190, 125)",2,2003_509
1408,"(5, 190, 171)",2,2003_509
1409,"(5, 190, 266)",2,2003_509
1410,"(5, 190, 270)",3,2003_509
1411,"(5, 190, 272)",2,2003_509
1412,"(5, 190, 325)",4,2003_509
1413,"(5, 214, 0)",4,2003_509
1414,"(5, 214, 5)",2,2003_509
1415,"(5, 214, 14)",3,2003_509
1416,"(5, 214, 28)",2,2003_509
1417,"(5, 214, 32)",2,2003_509
1418,"(5, 214, 40)",3,2003_509
1419,"(5, 214, 41)",2,2003_509
1420,"(5, 214, 89)",2,2003_509
1421,"(5, 214, 251)",2,2003_509
1422,"(5, 214, 325)",2,2003_509
1423,"(5, 215, 32)",2,2003_509
1424,"(5, 235, 47)",2,2003_509
1425,"(5, 251, 40)",2,2003_509
1426,"(5, 251, 41)",2,2003_509
1427,"(5, 266, 5)",2,2003_509
1428,"(5, 266, 21)",2,2003_509
1429,"(5, 266, 28)",2,2003_509
1430,"(5, 266, 32)",3,2003_509
1431,"(5, 266, 140)",2,2003_509
1432,"(5, 270, 2)",2,2003_509
1433,"(5, 270, 5)",2,2003_509
1434,"(5, 270, 28)",2,2003_509
1435,"(5, 270, 32)",3,2003_509
1436,"(5, 270, 461)",2,2003_509
1437,"(5, 271, 32)",3,2003_509
1438,"(5, 271, 2056)",2,2003_509
1439,"(5, 275, 32)",2,2003_509
1440,"(5, 325, 0)",3,2003_509
1441,"(5, 325, 2)",3,2003_509
1442,"(5, 325, 5)",3,2003_509
1443,"(5, 325, 28)",3,2003_509
1444,"(5, 325, 32)",2,2003_509
1445,"(5, 325, 40)",2,2003_509
1446,"(5, 325, 41)",2,2003_509
1447,"(5, 325, 124)",2,2003_509
1448,"(5, 325, 190)",2,2003_509
1449,"(5, 325, 270)",2,2003_509
1450,"(5, 336, 9)",2,2003_509
1451,"(5, 392, 5)",2,2003_509
1452,"(5, 392, 99)",2,2003_509
1453,"(5, 392, 989)",2,2003_509
1454,"(5, 529, 5)",2,2003_509
1455,"(5, 529, 28)",3,2003_509
1456,"(5, 529, 325)",2,2003_509
1457,"(5, 679, 92)",2,2003_509
1458,"(5, 679, 325)",2,2003_509
1459,"(5, 681, 2)",2,2003_509
1460,"(5, 681, 28)",2,2003_509
1461,"(5, 681, 48)",2,2003_509
1462,"(5, 699, 5)",2,2003_509
1463,"(5, 699, 214)",2,2003_509
1464,"(5, 989, 5)",2,2003_509
1465,"(5, 1083, 28)",2,2003_509
1466,"(5, 1583, 5)",2,2003_509
1467,"(5, 1759, 2)",2,2003_509
1468,"(5, 1759, 64)",2,2003_509
1469,"(6, 0, 5)",2,2003_509
1470,"(6, 28, 32)",2,2003_509
1471,"(6, 28, 40)",2,2003_509
1472,"(6, 32, 40)",2,2003_509
1473,"(6, 92, 40)",2,2003_509
1474,"(6, 102, 190)",2,2003_509
1475,"(6, 102, 325)",2,2003_509
1476,"(6, 190, 325)",2,2003_509
1477,"(9, 5, 28)",2,2003_509
1478,"(9, 5, 529)",2,2003_509
1479,"(9, 529, 28)",2,2003_509
1480,"(14, 0, 41)",2,2003_509
1481,"(14, 2, 5)",2,2003_509
1482,"(14, 2, 41)",2,2003_509
1483,"(14, 5, 2)",2,2003_509
1484,"(14, 5, 5)",2,2003_509
1485,"(14, 5, 6)",2,2003_509
1486,"(14, 5, 28)",2,2003_509
1487,"(14, 5, 41)",3,2003_509
1488,"(14, 5, 89)",3,2003_509
1489,"(14, 5, 99)",2,2003_509
1490,"(14, 5, 102)",2,2003_509
1491,"(14, 5, 171)",3,2003_509
1492,"(14, 5, 190)",3,2003_509
1493,"(14, 5, 325)",3,2003_509
1494,"(14, 5, 336)",2,2003_509
1495,"(14, 89, 28)",2,2003_509
1496,"(14, 89, 41)",2,2003_509
1497,"(14, 102, 325)",2,2003_509
1498,"(14, 124, 2)",2,2003_509
1499,"(14, 124, 41)",2,2003_509
1500,"(14, 125, 699)",2,2003_509
1501,"(14, 171, 41)",2,2003_509
1502,"(14, 171, 190)",2,2003_509
1503,"(14, 190, 325)",2,2003_509
1504,"(18, 2, 28)",2,2003_509
1505,"(18, 2, 32)",2,2003_509
1506,"(18, 28, 22)",2,2003_509
1507,"(18, 28, 28)",2,2003_509
1508,"(18, 28, 40)",2,2003_509
1509,"(18, 28, 171)",2,2003_509
1510,"(18, 92, 5)",2,2003_509
1511,"(21, 5, 28)",2,2003_509
1512,"(21, 32, 5)",2,2003_509
1513,"(21, 32, 92)",2,2003_509
1514,"(21, 32, 140)",2,2003_509
1515,"(21, 40, 2095)",2,2003_509
1516,"(21, 92, 5)",2,2003_509
1517,"(28, 0, 0)",2,2003_509
1518,"(28, 0, 5)",4,2003_509
1519,"(28, 0, 14)",3,2003_509
1520,"(28, 0, 32)",2,2003_509
1521,"(28, 0, 41)",3,2003_509
1522,"(28, 0, 49)",2,2003_509
1523,"(28, 0, 124)",5,2003_509
1524,"(28, 0, 179)",2,2003_509
1525,"(28, 0, 348)",2,2003_509
1526,"(28, 2, 0)",3,2003_509
1527,"(28, 2, 21)",2,2003_509
1528,"(28, 2, 32)",2,2003_509
1529,"(28, 5, 2)",2,2003_509
1530,"(28, 5, 5)",2,2003_509
1531,"(28, 5, 18)",3,2003_509
1532,"(28, 5, 28)",2,2003_509
1533,"(28, 5, 40)",2,2003_509
1534,"(28, 5, 49)",2,2003_509
1535,"(28, 5, 92)",2,2003_509
1536,"(28, 5, 99)",2,2003_509
1537,"(28, 5, 215)",2,2003_509
1538,"(28, 14, 5)",3,2003_509
1539,"(28, 18, 28)",3,2003_509
1540,"(28, 18, 40)",2,2003_509
1541,"(28, 18, 171)",2,2003_509
1542,"(28, 21, 5)",2,2003_509
1543,"(28, 21, 38)",2,2003_509
1544,"(28, 21, 40)",2,2003_509
1545,"(28, 21, 270)",2,2003_509
1546,"(28, 21, 2095)",2,2003_509
1547,"(28, 28, 0)",2,2003_509
1548,"(28, 28, 5)",4,2003_509
1549,"(28, 28, 21)",3,2003_509
1550,"(28, 28, 28)",2,2003_509
1551,"(28, 28, 32)",3,2003_509
1552,"(28, 28, 38)",2,2003_509
1553,"(28, 28, 40)",2,2003_509
1554,"(28, 28, 47)",2,2003_509
1555,"(28, 28, 48)",2,2003_509
1556,"(28, 28, 71)",2,2003_509
1557,"(28, 28, 83)",2,2003_509
1558,"(28, 28, 92)",3,2003_509
1559,"(28, 28, 171)",3,2003_509
1560,"(28, 28, 270)",2,2003_509
1561,"(28, 28, 681)",3,2003_509
1562,"(28, 28, 1083)",2,2003_509
1563,"(28, 32, 5)",3,2003_509
1564,"(28, 32, 18)",2,2003_509
1565,"(28, 32, 40)",2,2003_509
1566,"(28, 32, 86)",2,2003_509
1567,"(28, 32, 92)",2,2003_509
1568,"(28, 32, 140)",2,2003_509
1569,"(28, 32, 271)",2,2003_509
1570,"(28, 38, 0)",2,2003_509
1571,"(28, 38, 2)",2,2003_509
1572,"(28, 38, 5)",2,2003_509
1573,"(28, 38, 40)",2,2003_509
1574,"(28, 38, 822)",2,2003_509
1575,"(28, 40, 0)",3,2003_509
1576,"(28, 40, 5)",3,2003_509
1577,"(28, 40, 32)",2,2003_509
1578,"(28, 40, 38)",2,2003_509
1579,"(28, 40, 171)",2,2003_509
1580,"(28, 40, 271)",2,2003_509
1581,"(28, 40, 822)",2,2003_509
1582,"(28, 40, 2095)",2,2003_509
1583,"(28, 47, 2)",2,2003_509
1584,"(28, 47, 5)",3,2003_509
1585,"(28, 47, 18)",3,2003_509
1586,"(28, 47, 21)",3,2003_509
1587,"(28, 47, 28)",2,2003_509
1588,"(28, 47, 461)",2,2003_509
1589,"(28, 71, 5)",2,2003_509
1590,"(28, 71, 28)",2,2003_509
1591,"(28, 71, 40)",2,2003_509
1592,"(28, 71, 92)",2,2003_509
1593,"(28, 71, 171)",2,2003_509
1594,"(28, 71, 822)",2,2003_509
1595,"(28, 83, 1083)",2,2003_509
1596,"(28, 92, 5)",3,2003_509
1597,"(28, 92, 215)",2,2003_509
1598,"(28, 99, 2)",2,2003_509
1599,"(28, 99, 116)",2,2003_509
1600,"(28, 116, 0)",2,2003_509
1601,"(28, 116, 2)",3,2003_509
1602,"(28, 124, 0)",2,2003_509
1603,"(28, 124, 5)",3,2003_509
1604,"(28, 124, 14)",2,2003_509
1605,"(28, 124, 41)",2,2003_509
1606,"(28, 124, 348)",2,2003_509
1607,"(28, 125, 5)",2,2003_509
1608,"(28, 135, 125)",2,2003_509
1609,"(28, 140, 5)",2,2003_509
1610,"(28, 140, 21)",2,2003_509
1611,"(28, 140, 40)",2,2003_509
1612,"(28, 140, 2095)",2,2003_509
1613,"(28, 144, 0)",2,2003_509
1614,"(28, 144, 28)",3,2003_509
1615,"(28, 144, 32)",2,2003_509
1616,"(28, 171, 5)",2,2003_509
1617,"(28, 171, 28)",3,2003_509
1618,"(28, 171, 71)",2,2003_509
1619,"(28, 171, 83)",2,2003_509
1620,"(28, 171, 171)",2,2003_509
1621,"(28, 171, 681)",2,2003_509
1622,"(28, 171, 1083)",2,2003_509
1623,"(28, 174, 40)",2,2003_509
1624,"(28, 174, 2095)",2,2003_509
1625,"(28, 179, 5)",2,2003_509
1626,"(28, 222, 21)",2,2003_509
1627,"(28, 270, 5)",2,2003_509
1628,"(28, 270, 461)",2,2003_509
1629,"(28, 325, 0)",2,2003_509
1630,"(28, 325, 5)",3,2003_509
1631,"(28, 325, 47)",2,2003_509
1632,"(28, 325, 92)",2,2003_509
1633,"(28, 325, 125)",2,2003_509
1634,"(28, 349, 5)",2,2003_509
1635,"(28, 482, 325)",2,2003_509
1636,"(28, 550, 5)",2,2003_509
1637,"(28, 659, 5)",2,2003_509
1638,"(28, 659, 325)",2,2003_509
1639,"(28, 681, 48)",2,2003_509
1640,"(28, 681, 83)",2,2003_509
1641,"(28, 681, 1083)",2,2003_509
1642,"(32, 0, 5)",2,2003_509
1643,"(32, 0, 28)",2,2003_509
1644,"(32, 2, 0)",2,2003_509
1645,"(32, 2, 5)",2,2003_509
1646,"(32, 5, 2)",2,2003_509
1647,"(32, 5, 5)",3,2003_509
1648,"(32, 5, 17)",2,2003_509
1649,"(32, 5, 28)",3,2003_509
1650,"(32, 5, 32)",2,2003_509
1651,"(32, 5, 99)",2,2003_509
1652,"(32, 5, 214)",2,2003_509
1653,"(32, 5, 699)",2,2003_509
1654,"(32, 21, 40)",2,2003_509
1655,"(32, 28, 32)",2,2003_509
1656,"(32, 28, 47)",2,2003_509
1657,"(32, 32, 47)",2,2003_509
1658,"(32, 39, 28)",2,2003_509
1659,"(32, 39, 125)",2,2003_509
1660,"(32, 40, 32)",3,2003_509
1661,"(32, 40, 47)",2,2003_509
1662,"(32, 40, 125)",2,2003_509
1663,"(32, 40, 271)",2,2003_509
1664,"(32, 40, 325)",2,2003_509
1665,"(32, 40, 493)",2,2003_509
1666,"(32, 47, 703)",2,2003_509
1667,"(32, 65, 5)",2,2003_509
1668,"(32, 65, 699)",2,2003_509
1669,"(32, 86, 270)",2,2003_509
1670,"(32, 92, 5)",4,2003_509
1671,"(32, 92, 32)",2,2003_509
1672,"(32, 92, 40)",2,2003_509
1673,"(32, 122, 378)",2,2003_509
1674,"(32, 122, 468)",2,2003_509
1675,"(32, 123, 32)",2,2003_509
1676,"(32, 124, 5)",3,2003_509
1677,"(32, 124, 28)",2,2003_509
1678,"(32, 124, 92)",2,2003_509
1679,"(32, 124, 125)",2,2003_509
1680,"(32, 124, 251)",2,2003_509
1681,"(32, 125, 0)",3,2003_509
1682,"(32, 125, 2)",2,2003_509
1683,"(32, 125, 5)",4,2003_509
1684,"(32, 125, 28)",2,2003_509
1685,"(32, 125, 66)",2,2003_509
1686,"(32, 125, 92)",2,2003_509
1687,"(32, 125, 125)",2,2003_509
1688,"(32, 125, 325)",2,2003_509
1689,"(32, 125, 493)",2,2003_509
1690,"(32, 265, 5)",2,2003_509
1691,"(32, 265, 125)",2,2003_509
1692,"(32, 271, 32)",2,2003_509
1693,"(32, 325, 5)",2,2003_509
1694,"(32, 325, 265)",2,2003_509
1695,"(32, 392, 5)",2,2003_509
1696,"(32, 468, 378)",2,2003_509
1697,"(32, 493, 5)",2,2003_509
1698,"(32, 493, 125)",2,2003_509
1699,"(32, 493, 265)",2,2003_509
1700,"(32, 493, 325)",3,2003_509
1701,"(32, 699, 5)",2,2003_509
1702,"(32, 699, 92)",2,2003_509
1703,"(32, 989, 5)",2,2003_509
1704,"(32, 2056, 122)",2,2003_509
1705,"(32, 2056, 378)",2,2003_509
1706,"(32, 2056, 468)",2,2003_509
1707,"(33, 99, 2)",2,2003_509
1708,"(33, 99, 116)",2,2003_509
1709,"(33, 116, 2)",2,2003_509
1710,"(38, 0, 41)",2,2003_509
1711,"(38, 0, 171)",2,2003_509
1712,"(38, 40, 822)",2,2003_509
1713,"(38, 47, 2186)",2,2003_509
1714,"(38, 99, 116)",2,2003_509
1715,"(39, 28, 28)",2,2003_509
1716,"(39, 28, 47)",2,2003_509
1717,"(39, 39, 28)",2,2003_509
1718,"(39, 125, 28)",2,2003_509
1719,"(39, 125, 39)",2,2003_509
1720,"(40, 0, 5)",4,2003_509
1721,"(40, 0, 41)",2,2003_509
1722,"(40, 0, 71)",2,2003_509
1723,"(40, 0, 89)",2,2003_509
1724,"(40, 0, 171)",2,2003_509
1725,"(40, 5, 89)",2,2003_509
1726,"(40, 21, 40)",2,2003_509
1727,"(40, 28, 5)",2,2003_509
1728,"(40, 32, 5)",3,2003_509
1729,"(40, 32, 21)",2,2003_509
1730,"(40, 32, 40)",3,2003_509
1731,"(40, 32, 47)",2,2003_509
1732,"(40, 32, 2056)",2,2003_509
1733,"(40, 38, 5)",2,2003_509
1734,"(40, 47, 5)",2,2003_509
1735,"(40, 92, 5)",2,2003_509
1736,"(40, 171, 5)",2,2003_509
1737,"(40, 271, 32)",3,2003_509
1738,"(40, 271, 2056)",2,2003_509
1739,"(40, 493, 325)",2,2003_509
1740,"(40, 822, 5)",2,2003_509
1741,"(40, 822, 92)",2,2003_509
1742,"(41, 0, 0)",2,2003_509
1743,"(41, 0, 5)",2,2003_509
1744,"(41, 5, 28)",2,2003_509
1745,"(41, 28, 0)",2,2003_509
1746,"(41, 28, 5)",2,2003_509
1747,"(41, 41, 0)",2,2003_509
1748,"(41, 41, 5)",2,2003_509
1749,"(41, 124, 0)",2,2003_509
1750,"(41, 124, 5)",2,2003_509
1751,"(41, 124, 41)",2,2003_509
1752,"(47, 0, 5)",2,2003_509
1753,"(47, 0, 14)",2,2003_509
1754,"(47, 5, 16)",2,2003_509
1755,"(47, 5, 18)",4,2003_509
1756,"(47, 5, 28)",3,2003_509
1757,"(47, 18, 16)",2,2003_509
1758,"(47, 18, 28)",2,2003_509
1759,"(47, 21, 40)",2,2003_509
1760,"(47, 21, 270)",2,2003_509
1761,"(47, 28, 40)",2,2003_509
1762,"(47, 28, 482)",2,2003_509
1763,"(47, 47, 270)",2,2003_509
1764,"(47, 66, 5)",2,2003_509
1765,"(47, 66, 28)",2,2003_509
1766,"(47, 384, 21)",2,2003_509
1767,"(47, 461, 5)",2,2003_509
1768,"(47, 461, 16)",2,2003_509
1769,"(47, 461, 18)",2,2003_509
1770,"(47, 1431, 14)",2,2003_509
1771,"(47, 6538, 28)",2,2003_509
1772,"(47, 6538, 39)",2,2003_509
1773,"(47, 6538, 482)",2,2003_509
1774,"(61, 32, 5)",2,2003_509
1775,"(61, 32, 92)",2,2003_509
1776,"(61, 32, 124)",2,2003_509
1777,"(61, 32, 125)",3,2003_509
1778,"(61, 32, 493)",2,2003_509
1779,"(61, 124, 5)",2,2003_509
1780,"(61, 124, 125)",2,2003_509
1781,"(61, 124, 251)",2,2003_509
1782,"(61, 125, 5)",2,2003_509
1783,"(61, 125, 92)",2,2003_509
1784,"(61, 125, 493)",2,2003_509
1785,"(61, 265, 124)",2,2003_509
1786,"(64, 0, 5)",2,2003_509
1787,"(64, 5, 214)",2,2003_509
1788,"(64, 21, 215)",2,2003_509
1789,"(64, 65, 5)",2,2003_509
1790,"(64, 65, 214)",2,2003_509
1791,"(64, 65, 699)",2,2003_509
1792,"(64, 699, 5)",2,2003_509
1793,"(64, 699, 214)",2,2003_509
1794,"(65, 5, 214)",2,2003_509
1795,"(65, 699, 5)",3,2003_509
1796,"(65, 699, 214)",2,2003_509
1797,"(66, 5, 28)",3,2003_509
1798,"(66, 5, 270)",2,2003_509
1799,"(71, 28, 171)",2,2003_509
1800,"(71, 40, 92)",2,2003_509
1801,"(71, 40, 822)",2,2003_509
1802,"(71, 47, 5)",2,2003_509
1803,"(71, 47, 28)",2,2003_509
1804,"(71, 47, 91)",2,2003_509
1805,"(71, 92, 5)",2,2003_509
1806,"(71, 140, 5)",2,2003_509
1807,"(71, 822, 92)",2,2003_509
1808,"(81, 5, 5)",3,2003_509
1809,"(81, 5, 797)",2,2003_509
1810,"(86, 124, 5)",2,2003_509
1811,"(86, 124, 325)",2,2003_509
1812,"(89, 0, 92)",2,2003_509
1813,"(89, 0, 124)",3,2003_509
1814,"(89, 0, 325)",2,2003_509
1815,"(89, 5, 2)",2,2003_509
1816,"(89, 5, 49)",2,2003_509
1817,"(89, 28, 0)",2,2003_509
1818,"(89, 28, 2)",3,2003_509
1819,"(89, 28, 21)",2,2003_509
1820,"(89, 28, 28)",2,2003_509
1821,"(89, 28, 92)",2,2003_509
1822,"(89, 28, 124)",2,2003_509
1823,"(89, 28, 325)",3,2003_509
1824,"(89, 49, 2)",2,2003_509
1825,"(89, 86, 270)",2,2003_509
1826,"(89, 99, 116)",2,2003_509
1827,"(89, 99, 122)",2,2003_509
1828,"(89, 116, 28)",2,2003_509
1829,"(89, 116, 122)",2,2003_509
1830,"(89, 119, 2)",2,2003_509
1831,"(89, 119, 28)",2,2003_509
1832,"(89, 119, 681)",2,2003_509
1833,"(89, 124, 92)",2,2003_509
1834,"(89, 124, 325)",2,2003_509
1835,"(89, 171, 99)",2,2003_509
1836,"(89, 171, 116)",2,2003_509
1837,"(89, 171, 122)",2,2003_509
1838,"(89, 171, 190)",2,2003_509
1839,"(89, 190, 92)",2,2003_509
1840,"(89, 190, 99)",2,2003_509
1841,"(89, 190, 116)",2,2003_509
1842,"(89, 190, 122)",2,2003_509
1843,"(89, 270, 461)",2,2003_509
1844,"(89, 325, 92)",2,2003_509
1845,"(89, 681, 2)",2,2003_509
1846,"(89, 681, 28)",2,2003_509
1847,"(91, 5, 171)",2,2003_509
1848,"(92, 5, 5)",3,2003_509
1849,"(92, 5, 18)",3,2003_509
1850,"(92, 5, 28)",4,2003_509
1851,"(92, 5, 32)",3,2003_509
1852,"(92, 5, 102)",2,2003_509
1853,"(92, 5, 123)",2,2003_509
1854,"(92, 5, 140)",2,2003_509
1855,"(92, 5, 171)",2,2003_509
1856,"(92, 5, 266)",2,2003_509
1857,"(92, 5, 529)",2,2003_509
1858,"(92, 18, 28)",3,2003_509
1859,"(92, 21, 40)",2,2003_509
1860,"(92, 28, 32)",2,2003_509
1861,"(92, 40, 32)",2,2003_509
1862,"(92, 40, 125)",2,2003_509
1863,"(92, 92, 116)",2,2003_509
1864,"(92, 99, 116)",2,2003_509
1865,"(92, 102, 18)",2,2003_509
1866,"(92, 102, 28)",2,2003_509
1867,"(92, 116, 21)",2,2003_509
1868,"(92, 123, 32)",2,2003_509
1869,"(92, 125, 325)",2,2003_509
1870,"(92, 125, 493)",2,2003_509
1871,"(92, 493, 325)",2,2003_509
1872,"(99, 2, 64)",2,2003_509
1873,"(99, 28, 28)",2,2003_509
1874,"(99, 116, 2)",2,2003_509
1875,"(99, 116, 21)",2,2003_509
1876,"(99, 116, 28)",2,2003_509
1877,"(99, 116, 122)",2,2003_509
1878,"(99, 989, 5)",2,2003_509
1879,"(102, 18, 28)",3,2003_509
1880,"(102, 190, 325)",2,2003_509
1881,"(116, 0, 5)",2,2003_509
1882,"(116, 0, 92)",2,2003_509
1883,"(116, 0, 124)",2,2003_509
1884,"(116, 0, 190)",2,2003_509
1885,"(116, 21, 38)",2,2003_509
1886,"(116, 28, 21)",2,2003_509
1887,"(116, 28, 28)",2,2003_509
1888,"(116, 28, 38)",2,2003_509
1889,"(116, 124, 5)",2,2003_509
1890,"(116, 124, 190)",2,2003_509
1891,"(119, 28, 2)",2,2003_509
1892,"(119, 681, 2)",2,2003_509
1893,"(119, 681, 28)",2,2003_509
1894,"(122, 468, 378)",2,2003_509
1895,"(124, 0, 0)",2,2003_509
1896,"(124, 0, 5)",3,2003_509
1897,"(124, 0, 14)",3,2003_509
1898,"(124, 0, 41)",2,2003_509
1899,"(124, 0, 190)",2,2003_509
1900,"(124, 0, 565)",2,2003_509
1901,"(124, 5, 0)",2,2003_509
1902,"(124, 5, 2)",2,2003_509
1903,"(124, 5, 28)",2,2003_509
1904,"(124, 5, 41)",2,2003_509
1905,"(124, 5, 89)",2,2003_509
1906,"(124, 5, 92)",2,2003_509
1907,"(124, 5, 99)",4,2003_509
1908,"(124, 5, 102)",2,2003_509
1909,"(124, 5, 116)",2,2003_509
1910,"(124, 5, 190)",2,2003_509
1911,"(124, 5, 325)",3,2003_509
1912,"(124, 14, 5)",2,2003_509
1913,"(124, 14, 190)",2,2003_509
1914,"(124, 28, 0)",2,2003_509
1915,"(124, 28, 5)",2,2003_509
1916,"(124, 28, 28)",3,2003_509
1917,"(124, 28, 47)",2,2003_509
1918,"(124, 28, 92)",2,2003_509
1919,"(124, 28, 99)",2,2003_509
1920,"(124, 28, 116)",3,2003_509
1921,"(124, 28, 325)",2,2003_509
1922,"(124, 28, 482)",2,2003_509
1923,"(124, 28, 550)",2,2003_509
1924,"(124, 33, 99)",2,2003_509
1925,"(124, 33, 116)",2,2003_509
1926,"(124, 38, 99)",2,2003_509
1927,"(124, 41, 0)",3,2003_509
1928,"(124, 41, 5)",2,2003_509
1929,"(124, 41, 28)",2,2003_509
1930,"(124, 41, 190)",2,2003_509
1931,"(124, 41, 267)",2,2003_509
1932,"(124, 41, 325)",2,2003_509
1933,"(124, 89, 41)",2,2003_509
1934,"(124, 92, 0)",2,2003_509
1935,"(124, 92, 5)",3,2003_509
1936,"(124, 92, 99)",2,2003_509
1937,"(124, 99, 116)",3,2003_509
1938,"(124, 124, 0)",2,2003_509
1939,"(124, 124, 41)",2,2003_509
1940,"(124, 125, 5)",2,2003_509
1941,"(124, 125, 797)",2,2003_509
1942,"(124, 190, 5)",2,2003_509
1943,"(124, 190, 92)",3,2003_509
1944,"(124, 190, 325)",2,2003_509
1945,"(124, 251, 28)",2,2003_509
1946,"(124, 265, 325)",2,2003_509
1947,"(124, 270, 125)",2,2003_509
1948,"(124, 316, 2)",2,2003_509
1949,"(124, 316, 5)",2,2003_509
1950,"(124, 316, 92)",2,2003_509
1951,"(124, 325, 5)",3,2003_509
1952,"(124, 325, 28)",2,2003_509
1953,"(124, 325, 92)",2,2003_509
1954,"(124, 325, 265)",2,2003_509
1955,"(124, 325, 325)",3,2003_509
1956,"(124, 348, 92)",2,2003_509
1957,"(124, 493, 125)",2,2003_509
1958,"(124, 493, 265)",2,2003_509
1959,"(124, 493, 325)",2,2003_509
1960,"(124, 679, 92)",2,2003_509
1961,"(125, 0, 5)",4,2003_509
1962,"(125, 0, 14)",2,2003_509
1963,"(125, 0, 18)",2,2003_509
1964,"(125, 0, 28)",2,2003_509
1965,"(125, 0, 39)",2,2003_509
1966,"(125, 2, 0)",2,2003_509
1967,"(125, 2, 5)",2,2003_509
1968,"(125, 5, 0)",3,2003_509
1969,"(125, 5, 5)",2,2003_509
1970,"(125, 5, 16)",2,2003_509
1971,"(125, 5, 17)",2,2003_509
1972,"(125, 5, 18)",3,2003_509
1973,"(125, 5, 28)",4,2003_509
1974,"(125, 5, 39)",2,2003_509
1975,"(125, 5, 40)",2,2003_509
1976,"(125, 5, 89)",2,2003_509
1977,"(125, 5, 171)",2,2003_509
1978,"(125, 5, 214)",2,2003_509
1979,"(125, 14, 5)",2,2003_509
1980,"(125, 18, 16)",2,2003_509
1981,"(125, 28, 28)",2,2003_509
1982,"(125, 28, 39)",2,2003_509
1983,"(125, 28, 171)",2,2003_509
1984,"(125, 28, 687)",2,2003_509
1985,"(125, 32, 92)",2,2003_509
1986,"(125, 39, 28)",2,2003_509
1987,"(125, 47, 5)",2,2003_509
1988,"(125, 47, 16)",2,2003_509
1989,"(125, 47, 18)",2,2003_509
1990,"(125, 47, 461)",2,2003_509
1991,"(125, 66, 27)",2,2003_509
1992,"(125, 66, 125)",2,2003_509
1993,"(125, 92, 40)",2,2003_509
1994,"(125, 125, 699)",2,2003_509
1995,"(125, 214, 0)",2,2003_509
1996,"(125, 251, 0)",2,2003_509
1997,"(125, 251, 28)",2,2003_509
1998,"(125, 265, 0)",2,2003_509
1999,"(125, 265, 5)",2,2003_509
2000,"(125, 270, 28)",2,2003_509
2001,"(125, 270, 687)",2,2003_509
2002,"(125, 461, 5)",2,2003_509
2003,"(125, 461, 16)",2,2003_509
2004,"(125, 461, 18)",2,2003_509
2005,"(125, 493, 325)",2,2003_509
2006,"(133, 0, 14)",2,2003_509
2007,"(133, 5, 0)",2,2003_509
2008,"(133, 5, 14)",2,2003_509
2009,"(133, 5, 214)",2,2003_509
2010,"(133, 214, 0)",2,2003_509
2011,"(133, 214, 14)",2,2003_509
2012,"(135, 5, 17)",2,2003_509
2013,"(135, 125, 5)",2,2003_509
2014,"(135, 125, 17)",2,2003_509
2015,"(140, 18, 28)",2,2003_509
2016,"(140, 28, 28)",2,2003_509
2017,"(140, 28, 355)",2,2003_509
2018,"(140, 47, 21)",2,2003_509
2019,"(140, 235, 47)",2,2003_509
2020,"(142, 0, 5)",2,2003_509
2021,"(142, 0, 797)",2,2003_509
2022,"(142, 5, 797)",2,2003_509
2023,"(142, 124, 316)",2,2003_509
2024,"(151, 28, 232)",2,2003_509
2025,"(171, 0, 41)",2,2003_509
2026,"(171, 5, 28)",2,2003_509
2027,"(171, 28, 21)",2,2003_509
2028,"(171, 28, 47)",2,2003_509
2029,"(171, 28, 71)",2,2003_509
2030,"(171, 28, 171)",2,2003_509
2031,"(171, 39, 28)",2,2003_509
2032,"(171, 71, 28)",2,2003_509
2033,"(171, 71, 40)",2,2003_509
2034,"(171, 71, 171)",2,2003_509
2035,"(171, 83, 1083)",2,2003_509
2036,"(171, 92, 5)",2,2003_509
2037,"(171, 92, 28)",2,2003_509
2038,"(171, 92, 116)",2,2003_509
2039,"(171, 99, 116)",2,2003_509
2040,"(171, 99, 122)",2,2003_509
2041,"(171, 116, 21)",2,2003_509
2042,"(171, 116, 28)",2,2003_509
2043,"(171, 116, 122)",2,2003_509
2044,"(171, 190, 99)",2,2003_509
2045,"(171, 190, 116)",2,2003_509
2046,"(171, 190, 122)",2,2003_509
2047,"(171, 681, 83)",2,2003_509
2048,"(171, 681, 1083)",2,2003_509
2049,"(174, 40, 2095)",2,2003_509
2050,"(179, 0, 14)",2,2003_509
2051,"(190, 0, 5)",3,2003_509
2052,"(190, 0, 14)",2,2003_509
2053,"(190, 2, 0)",2,2003_509
2054,"(190, 2, 5)",3,2003_509
2055,"(190, 2, 28)",2,2003_509
2056,"(190, 2, 64)",2,2003_509
2057,"(190, 5, 0)",2,2003_509
2058,"(190, 5, 2)",2,2003_509
2059,"(190, 5, 5)",2,2003_509
2060,"(190, 5, 6)",2,2003_509
2061,"(190, 5, 28)",4,2003_509
2062,"(190, 5, 171)",2,2003_509
2063,"(190, 5, 325)",2,2003_509
2064,"(190, 5, 529)",2,2003_509
2065,"(190, 14, 5)",2,2003_509
2066,"(190, 18, 28)",2,2003_509
2067,"(190, 32, 124)",2,2003_509
2068,"(190, 47, 21)",2,2003_509
2069,"(190, 64, 5)",2,2003_509
2070,"(190, 92, 5)",4,2003_509
2071,"(190, 92, 28)",3,2003_509
2072,"(190, 92, 92)",2,2003_509
2073,"(190, 92, 116)",2,2003_509
2074,"(190, 92, 529)",2,2003_509
2075,"(190, 99, 116)",2,2003_509
2076,"(190, 99, 122)",2,2003_509
2077,"(190, 116, 28)",2,2003_509
2078,"(190, 116, 122)",2,2003_509
2079,"(190, 116, 270)",2,2003_509
2080,"(190, 266, 28)",2,2003_509
2081,"(190, 325, 0)",2,2003_509
2082,"(190, 325, 5)",4,2003_509
2083,"(190, 325, 325)",2,2003_509
2084,"(203, 0, 14)",2,2003_509
2085,"(203, 5, 0)",2,2003_509
2086,"(203, 5, 14)",2,2003_509
2087,"(203, 5, 214)",2,2003_509
2088,"(203, 14, 89)",2,2003_509
2089,"(203, 214, 0)",2,2003_509
2090,"(203, 214, 14)",2,2003_509
2091,"(204, 28, 0)",2,2003_509
2092,"(214, 0, 5)",2,2003_509
2093,"(214, 0, 14)",3,2003_509
2094,"(214, 0, 89)",2,2003_509
2095,"(214, 5, 89)",2,2003_509
2096,"(214, 14, 5)",2,2003_509
2097,"(214, 14, 89)",2,2003_509
2098,"(214, 40, 32)",2,2003_509
2099,"(214, 251, 40)",2,2003_509
2100,"(214, 251, 41)",2,2003_509
2101,"(251, 28, 38)",2,2003_509
2102,"(265, 0, 28)",2,2003_509
2103,"(265, 5, 0)",2,2003_509
2104,"(265, 5, 28)",3,2003_509
2105,"(265, 28, 28)",2,2003_509
2106,"(265, 28, 482)",2,2003_509
2107,"(265, 47, 5)",2,2003_509
2108,"(265, 124, 28)",2,2003_509
2109,"(265, 125, 5)",3,2003_509
2110,"(265, 251, 28)",2,2003_509
2111,"(265, 325, 5)",2,2003_509
2112,"(265, 325, 550)",2,2003_509
2113,"(265, 493, 325)",2,2003_509
2114,"(266, 21, 32)",2,2003_509
2115,"(266, 21, 140)",2,2003_509
2116,"(266, 28, 32)",2,2003_509
2117,"(266, 32, 5)",2,2003_509
2118,"(266, 32, 140)",2,2003_509
2119,"(270, 0, 5)",3,2003_509
2120,"(270, 0, 14)",3,2003_509
2121,"(270, 0, 89)",2,2003_509
2122,"(270, 2, 0)",3,2003_509
2123,"(270, 2, 5)",3,2003_509
2124,"(270, 2, 14)",3,2003_509
2125,"(270, 2, 89)",2,2003_509
2126,"(270, 5, 0)",2,2003_509
2127,"(270, 5, 5)",2,2003_509
2128,"(270, 5, 14)",2,2003_509
2129,"(270, 5, 18)",2,2003_509
2130,"(270, 5, 40)",2,2003_509
2131,"(270, 5, 89)",2,2003_509
2132,"(270, 5, 214)",2,2003_509
2133,"(270, 14, 5)",3,2003_509
2134,"(270, 14, 40)",2,2003_509
2135,"(270, 14, 89)",2,2003_509
2136,"(270, 28, 687)",2,2003_509
2137,"(270, 32, 5)",2,2003_509
2138,"(270, 32, 14)",2,2003_509
2139,"(270, 32, 32)",2,2003_509
2140,"(270, 32, 40)",2,2003_509
2141,"(270, 40, 32)",2,2003_509
2142,"(270, 125, 0)",2,2003_509
2143,"(270, 125, 5)",4,2003_509
2144,"(270, 125, 14)",2,2003_509
2145,"(270, 125, 18)",2,2003_509
2146,"(270, 125, 92)",2,2003_509
2147,"(270, 214, 0)",2,2003_509
2148,"(270, 214, 5)",2,2003_509
2149,"(270, 214, 14)",2,2003_509
2150,"(270, 214, 89)",2,2003_509
2151,"(270, 272, 461)",2,2003_509
2152,"(270, 275, 32)",2,2003_509
2153,"(270, 461, 5)",2,2003_509
2154,"(271, 32, 47)",2,2003_509
2155,"(271, 32, 122)",2,2003_509
2156,"(271, 32, 378)",2,2003_509
2157,"(271, 32, 468)",2,2003_509
2158,"(271, 32, 2056)",3,2003_509
2159,"(271, 122, 378)",2,2003_509
2160,"(271, 122, 468)",2,2003_509
2161,"(271, 468, 378)",2,2003_509
2162,"(271, 2056, 122)",2,2003_509
2163,"(271, 2056, 378)",2,2003_509
2164,"(271, 2056, 468)",2,2003_509
2165,"(275, 32, 40)",2,2003_509
2166,"(316, 2, 5)",2,2003_509
2167,"(316, 5, 2)",2,2003_509
2168,"(316, 5, 5)",2,2003_509
2169,"(325, 0, 0)",3,2003_509
2170,"(325, 0, 5)",6,2003_509
2171,"(325, 0, 14)",3,2003_509
2172,"(325, 0, 28)",3,2003_509
2173,"(325, 0, 39)",2,2003_509
2174,"(325, 0, 124)",2,2003_509
2175,"(325, 0, 171)",2,2003_509
2176,"(325, 0, 190)",2,2003_509
2177,"(325, 0, 325)",2,2003_509
2178,"(325, 0, 336)",2,2003_509
2179,"(325, 0, 482)",2,2003_509
2180,"(325, 2, 0)",3,2003_509
2181,"(325, 2, 5)",3,2003_509
2182,"(325, 2, 28)",2,2003_509
2183,"(325, 2, 39)",2,2003_509
2184,"(325, 5, 0)",3,2003_509
2185,"(325, 5, 28)",4,2003_509
2186,"(325, 5, 39)",2,2003_509
2187,"(325, 5, 89)",2,2003_509
2188,"(325, 5, 171)",2,2003_509
2189,"(325, 5, 325)",3,2003_509
2190,"(325, 5, 336)",2,2003_509
2191,"(325, 5, 482)",2,2003_509
2192,"(325, 14, 5)",3,2003_509
2193,"(325, 14, 171)",2,2003_509
2194,"(325, 28, 5)",2,2003_509
2195,"(325, 28, 325)",2,2003_509
2196,"(325, 28, 482)",2,2003_509
2197,"(325, 32, 14)",2,2003_509
2198,"(325, 40, 14)",2,2003_509
2199,"(325, 47, 5)",2,2003_509
2200,"(325, 124, 5)",2,2003_509
2201,"(325, 125, 0)",2,2003_509
2202,"(325, 125, 5)",4,2003_509
2203,"(325, 125, 28)",2,2003_509
2204,"(325, 125, 39)",2,2003_509
2205,"(325, 190, 5)",2,2003_509
2206,"(325, 190, 325)",2,2003_509
2207,"(325, 265, 0)",2,2003_509
2208,"(325, 265, 5)",3,2003_509
2209,"(325, 265, 28)",3,2003_509
2210,"(325, 265, 47)",2,2003_509
2211,"(325, 265, 125)",2,2003_509
2212,"(325, 265, 325)",2,2003_509
2213,"(325, 265, 550)",2,2003_509
2214,"(325, 270, 47)",2,2003_509
2215,"(325, 325, 0)",2,2003_509
2216,"(325, 325, 5)",3,2003_509
2217,"(325, 325, 550)",2,2003_509
2218,"(325, 550, 5)",2,2003_509
2219,"(392, 5, 5)",2,2003_509
2220,"(392, 5, 99)",2,2003_509
2221,"(392, 5, 989)",2,2003_509
2222,"(392, 99, 5)",2,2003_509
2223,"(392, 99, 989)",2,2003_509
2224,"(392, 989, 5)",2,2003_509
2225,"(461, 5, 16)",2,2003_509
2226,"(461, 5, 18)",2,2003_509
2227,"(461, 18, 16)",2,2003_509
2228,"(482, 32, 47)",2,2003_509
2229,"(482, 271, 32)",2,2003_509
2230,"(482, 271, 47)",2,2003_509
2231,"(493, 0, 5)",2,2003_509
2232,"(493, 0, 28)",2,2003_509
2233,"(493, 5, 28)",2,2003_509
2234,"(493, 28, 5)",2,2003_509
2235,"(493, 28, 325)",2,2003_509
2236,"(493, 47, 5)",2,2003_509
2237,"(493, 125, 0)",2,2003_509
2238,"(493, 125, 5)",3,2003_509
2239,"(493, 265, 0)",2,2003_509
2240,"(493, 265, 5)",3,2003_509
2241,"(493, 265, 28)",3,2003_509
2242,"(493, 265, 47)",2,2003_509
2243,"(493, 265, 125)",2,2003_509
2244,"(493, 265, 325)",2,2003_509
2245,"(493, 265, 550)",2,2003_509
2246,"(493, 325, 0)",2,2003_509
2247,"(493, 325, 5)",4,2003_509
2248,"(493, 325, 28)",4,2003_509
2249,"(493, 325, 47)",2,2003_509
2250,"(493, 325, 125)",2,2003_509
2251,"(493, 325, 265)",3,2003_509
2252,"(493, 325, 325)",3,2003_509
2253,"(493, 325, 550)",2,2003_509
2254,"(493, 493, 325)",2,2003_509
2255,"(493, 550, 5)",2,2003_509
2256,"(529, 5, 28)",2,2003_509
2257,"(529, 28, 355)",2,2003_509
2258,"(529, 140, 28)",2,2003_509
2259,"(529, 140, 355)",2,2003_509
2260,"(550, 124, 5)",2,2003_509
2261,"(550, 124, 28)",2,2003_509
2262,"(550, 124, 325)",2,2003_509
2263,"(550, 325, 5)",2,2003_509
2264,"(565, 0, 5)",2,2003_509
2265,"(565, 125, 0)",2,2003_509
2266,"(565, 125, 5)",2,2003_509
2267,"(565, 125, 71)",2,2003_509
2268,"(611, 125, 797)",2,2003_509
2269,"(611, 270, 125)",2,2003_509
2270,"(639, 124, 251)",2,2003_509
2271,"(659, 325, 5)",2,2003_509
2272,"(679, 123, 32)",2,2003_509
2273,"(681, 28, 2)",2,2003_509
2274,"(681, 28, 92)",2,2003_509
2275,"(681, 83, 1083)",2,2003_509
2276,"(699, 0, 14)",2,2003_509
2277,"(699, 5, 214)",2,2003_509
2278,"(740, 0, 124)",3,2003_509
2279,"(822, 92, 5)",2,2003_509
2280,"(1062, 133, 5)",2,2003_509
2281,"(1083, 28, 5)",2,2003_509
2282,"(1083, 28, 28)",2,2003_509
2283,"(1083, 28, 92)",2,2003_509
2284,"(1115, 61, 124)",2,2003_509
2285,"(1115, 61, 265)",2,2003_509
2286,"(1115, 265, 124)",2,2003_509
2287,"(1583, 5, 28)",2,2003_509
2288,"(1583, 5, 99)",2,2003_509
2289,"(1583, 28, 28)",2,2003_509
2290,"(1759, 2, 64)",2,2003_509
2291,"(2056, 122, 378)",2,2003_509
2292,"(2056, 122, 468)",2,2003_509
2293,"(2056, 468, 378)",2,2003_509
2294,"(6538, 28, 482)",2,2003_509
2295,"(0, 0, 5, 6)",2,2003_509
2296,"(0, 0, 5, 190)",2,2003_509
2297,"(0, 0, 14, 5)",2,2003_509
2298,"(0, 0, 14, 190)",2,2003_509
2299,"(0, 5, 2, 5)",2,2003_509
2300,"(0, 5, 18, 28)",2,2003_509
2301,"(0, 5, 28, 28)",2,2003_509
2302,"(0, 5, 28, 39)",2,2003_509
2303,"(0, 5, 39, 28)",2,2003_509
2304,"(0, 5, 89, 28)",2,2003_509
2305,"(0, 5, 89, 99)",2,2003_509
2306,"(0, 5, 89, 116)",2,2003_509
2307,"(0, 5, 89, 171)",2,2003_509
2308,"(0, 5, 89, 190)",2,2003_509
2309,"(0, 5, 89, 270)",2,2003_509
2310,"(0, 5, 99, 116)",2,2003_509
2311,"(0, 5, 102, 325)",2,2003_509
2312,"(0, 5, 171, 28)",2,2003_509
2313,"(0, 5, 171, 39)",2,2003_509
2314,"(0, 5, 171, 99)",2,2003_509
2315,"(0, 5, 171, 116)",2,2003_509
2316,"(0, 5, 171, 190)",3,2003_509
2317,"(0, 5, 190, 99)",2,2003_509
2318,"(0, 5, 190, 116)",2,2003_509
2319,"(0, 5, 190, 325)",2,2003_509
2320,"(0, 5, 336, 9)",2,2003_509
2321,"(0, 14, 2, 5)",2,2003_509
2322,"(0, 14, 5, 2)",2,2003_509
2323,"(0, 14, 5, 5)",2,2003_509
2324,"(0, 14, 5, 6)",2,2003_509
2325,"(0, 14, 5, 28)",2,2003_509
2326,"(0, 14, 5, 41)",2,2003_509
2327,"(0, 14, 5, 89)",3,2003_509
2328,"(0, 14, 5, 99)",2,2003_509
2329,"(0, 14, 5, 102)",2,2003_509
2330,"(0, 14, 5, 171)",3,2003_509
2331,"(0, 14, 5, 190)",3,2003_509
2332,"(0, 14, 5, 325)",3,2003_509
2333,"(0, 14, 5, 336)",2,2003_509
2334,"(0, 14, 102, 325)",2,2003_509
2335,"(0, 14, 171, 190)",2,2003_509
2336,"(0, 14, 190, 325)",2,2003_509
2337,"(0, 28, 92, 5)",2,2003_509
2338,"(0, 28, 171, 28)",2,2003_509
2339,"(0, 39, 28, 28)",2,2003_509
2340,"(0, 47, 5, 18)",2,2003_509
2341,"(0, 89, 99, 116)",2,2003_509
2342,"(0, 89, 171, 99)",2,2003_509
2343,"(0, 89, 171, 116)",2,2003_509
2344,"(0, 89, 171, 190)",2,2003_509
2345,"(0, 89, 190, 99)",2,2003_509
2346,"(0, 89, 190, 116)",2,2003_509
2347,"(0, 124, 0, 5)",2,2003_509
2348,"(0, 124, 0, 14)",2,2003_509
2349,"(0, 124, 0, 190)",2,2003_509
2350,"(0, 124, 5, 41)",2,2003_509
2351,"(0, 124, 5, 190)",2,2003_509
2352,"(0, 124, 5, 325)",2,2003_509
2353,"(0, 124, 14, 5)",2,2003_509
2354,"(0, 124, 14, 190)",2,2003_509
2355,"(0, 124, 28, 325)",2,2003_509
2356,"(0, 124, 41, 190)",2,2003_509
2357,"(0, 124, 89, 41)",2,2003_509
2358,"(0, 124, 190, 92)",2,2003_509
2359,"(0, 124, 190, 325)",2,2003_509
2360,"(0, 124, 270, 125)",2,2003_509
2361,"(0, 124, 325, 92)",2,2003_509
2362,"(0, 124, 325, 325)",2,2003_509
2363,"(0, 124, 348, 92)",2,2003_509
2364,"(0, 171, 39, 28)",2,2003_509
2365,"(0, 171, 99, 116)",2,2003_509
2366,"(0, 171, 190, 99)",2,2003_509
2367,"(0, 171, 190, 116)",2,2003_509
2368,"(0, 190, 99, 116)",2,2003_509
2369,"(0, 190, 325, 5)",2,2003_509
2370,"(0, 271, 32, 2056)",2,2003_509
2371,"(2, 0, 5, 28)",2,2003_509
2372,"(2, 0, 5, 39)",2,2003_509
2373,"(2, 0, 5, 89)",2,2003_509
2374,"(2, 0, 5, 336)",2,2003_509
2375,"(2, 0, 14, 5)",3,2003_509
2376,"(2, 0, 14, 89)",2,2003_509
2377,"(2, 14, 5, 89)",2,2003_509
2378,"(2, 32, 92, 5)",2,2003_509
2379,"(2, 64, 0, 5)",2,2003_509
2380,"(2, 64, 5, 214)",2,2003_509
2381,"(2, 64, 21, 215)",2,2003_509
2382,"(2, 64, 65, 5)",2,2003_509
2383,"(2, 64, 65, 214)",2,2003_509
2384,"(2, 64, 65, 699)",2,2003_509
2385,"(2, 64, 699, 5)",2,2003_509
2386,"(2, 64, 699, 214)",2,2003_509
2387,"(2, 65, 5, 214)",2,2003_509
2388,"(2, 65, 699, 5)",3,2003_509
2389,"(2, 65, 699, 214)",2,2003_509
2390,"(2, 124, 679, 92)",2,2003_509
2391,"(2, 699, 5, 214)",2,2003_509
2392,"(5, 0, 5, 89)",2,2003_509
2393,"(5, 0, 5, 325)",2,2003_509
2394,"(5, 0, 14, 5)",3,2003_509
2395,"(5, 0, 14, 89)",2,2003_509
2396,"(5, 0, 14, 325)",2,2003_509
2397,"(5, 0, 124, 348)",2,2003_509
2398,"(5, 2, 0, 5)",2,2003_509
2399,"(5, 2, 0, 18)",2,2003_509
2400,"(5, 2, 0, 325)",2,2003_509
2401,"(5, 2, 5, 41)",2,2003_509
2402,"(5, 2, 5, 214)",2,2003_509
2403,"(5, 2, 21, 215)",2,2003_509
2404,"(5, 2, 32, 140)",2,2003_509
2405,"(5, 2, 64, 0)",2,2003_509
2406,"(5, 2, 64, 5)",4,2003_509
2407,"(5, 2, 64, 21)",2,2003_509
2408,"(5, 2, 64, 65)",2,2003_509
2409,"(5, 2, 64, 214)",2,2003_509
2410,"(5, 2, 64, 215)",2,2003_509
2411,"(5, 2, 64, 699)",2,2003_509
2412,"(5, 2, 65, 5)",2,2003_509
2413,"(5, 2, 65, 214)",2,2003_509
2414,"(5, 2, 65, 699)",2,2003_509
2415,"(5, 2, 124, 92)",2,2003_509
2416,"(5, 2, 124, 679)",2,2003_509
2417,"(5, 2, 679, 92)",2,2003_509
2418,"(5, 2, 699, 5)",2,2003_509
2419,"(5, 2, 699, 214)",2,2003_509
2420,"(5, 5, 2, 64)",2,2003_509
2421,"(5, 5, 6, 5)",2,2003_509
2422,"(5, 5, 18, 28)",2,2003_509
2423,"(5, 5, 99, 5)",2,2003_509
2424,"(5, 5, 99, 989)",2,2003_509
2425,"(5, 5, 102, 325)",2,2003_509
2426,"(5, 5, 190, 325)",2,2003_509
2427,"(5, 5, 989, 5)",2,2003_509
2428,"(5, 6, 102, 190)",2,2003_509
2429,"(5, 6, 102, 325)",2,2003_509
2430,"(5, 6, 190, 325)",2,2003_509
2431,"(5, 14, 5, 89)",2,2003_509
2432,"(5, 14, 5, 325)",2,2003_509
2433,"(5, 18, 28, 40)",2,2003_509
2434,"(5, 18, 28, 171)",2,2003_509
2435,"(5, 21, 32, 140)",2,2003_509
2436,"(5, 28, 0, 124)",2,2003_509
2437,"(5, 28, 0, 348)",2,2003_509
2438,"(5, 28, 2, 0)",2,2003_509
2439,"(5, 28, 2, 32)",2,2003_509
2440,"(5, 28, 18, 28)",2,2003_509
2441,"(5, 28, 28, 32)",2,2003_509
2442,"(5, 28, 28, 47)",2,2003_509
2443,"(5, 28, 28, 48)",2,2003_509
2444,"(5, 28, 28, 681)",3,2003_509
2445,"(5, 28, 32, 18)",2,2003_509
2446,"(5, 28, 32, 140)",2,2003_509
2447,"(5, 28, 40, 0)",2,2003_509
2448,"(5, 28, 40, 32)",2,2003_509
2449,"(5, 28, 40, 38)",2,2003_509
2450,"(5, 28, 40, 2095)",2,2003_509
2451,"(5, 28, 47, 21)",2,2003_509
2452,"(5, 28, 71, 40)",2,2003_509
2453,"(5, 28, 124, 348)",2,2003_509
2454,"(5, 28, 140, 21)",2,2003_509
2455,"(5, 28, 144, 28)",2,2003_509
2456,"(5, 28, 171, 681)",2,2003_509
2457,"(5, 28, 174, 40)",2,2003_509
2458,"(5, 28, 174, 2095)",2,2003_509
2459,"(5, 28, 681, 48)",2,2003_509
2460,"(5, 32, 40, 32)",2,2003_509
2461,"(5, 39, 28, 28)",2,2003_509
2462,"(5, 40, 32, 2056)",2,2003_509
2463,"(5, 40, 271, 32)",3,2003_509
2464,"(5, 40, 271, 2056)",2,2003_509
2465,"(5, 47, 5, 18)",2,2003_509
2466,"(5, 64, 5, 214)",2,2003_509
2467,"(5, 64, 21, 215)",2,2003_509
2468,"(5, 64, 65, 5)",2,2003_509
2469,"(5, 64, 65, 214)",2,2003_509
2470,"(5, 64, 65, 699)",2,2003_509
2471,"(5, 64, 699, 5)",2,2003_509
2472,"(5, 64, 699, 214)",2,2003_509
2473,"(5, 65, 5, 214)",2,2003_509
2474,"(5, 65, 699, 5)",2,2003_509
2475,"(5, 65, 699, 214)",2,2003_509
2476,"(5, 89, 0, 124)",2,2003_509
2477,"(5, 89, 28, 2)",2,2003_509
2478,"(5, 89, 28, 21)",2,2003_509
2479,"(5, 89, 28, 28)",2,2003_509
2480,"(5, 89, 28, 325)",2,2003_509
2481,"(5, 89, 99, 116)",2,2003_509
2482,"(5, 89, 116, 28)",2,2003_509
2483,"(5, 89, 119, 2)",2,2003_509
2484,"(5, 89, 119, 28)",2,2003_509
2485,"(5, 89, 119, 681)",2,2003_509
2486,"(5, 89, 171, 99)",2,2003_509
2487,"(5, 89, 171, 116)",2,2003_509
2488,"(5, 89, 171, 190)",2,2003_509
2489,"(5, 89, 190, 99)",2,2003_509
2490,"(5, 89, 190, 116)",2,2003_509
2491,"(5, 89, 270, 461)",2,2003_509
2492,"(5, 89, 681, 2)",2,2003_509
2493,"(5, 89, 681, 28)",2,2003_509
2494,"(5, 92, 5, 5)",2,2003_509
2495,"(5, 92, 92, 116)",2,2003_509
2496,"(5, 92, 99, 116)",2,2003_509
2497,"(5, 92, 116, 21)",2,2003_509
2498,"(5, 99, 2, 64)",2,2003_509
2499,"(5, 99, 28, 28)",2,2003_509
2500,"(5, 99, 116, 21)",2,2003_509
2501,"(5, 99, 116, 28)",2,2003_509
2502,"(5, 99, 989, 5)",2,2003_509
2503,"(5, 102, 18, 28)",3,2003_509
2504,"(5, 102, 190, 325)",2,2003_509
2505,"(5, 116, 28, 21)",2,2003_509
2506,"(5, 116, 28, 28)",2,2003_509
2507,"(5, 119, 28, 2)",2,2003_509
2508,"(5, 119, 681, 2)",2,2003_509
2509,"(5, 119, 681, 28)",2,2003_509
2510,"(5, 124, 679, 92)",2,2003_509
2511,"(5, 140, 18, 28)",2,2003_509
2512,"(5, 140, 28, 28)",2,2003_509
2513,"(5, 140, 235, 47)",2,2003_509
2514,"(5, 151, 28, 232)",2,2003_509
2515,"(5, 171, 0, 41)",2,2003_509
2516,"(5, 171, 28, 21)",2,2003_509
2517,"(5, 171, 39, 28)",2,2003_509
2518,"(5, 171, 92, 116)",2,2003_509
2519,"(5, 171, 99, 116)",2,2003_509
2520,"(5, 171, 116, 21)",2,2003_509
2521,"(5, 171, 116, 28)",2,2003_509
2522,"(5, 171, 190, 99)",2,2003_509
2523,"(5, 171, 190, 116)",2,2003_509
2524,"(5, 174, 40, 2095)",2,2003_509
2525,"(5, 190, 0, 5)",2,2003_509
2526,"(5, 190, 2, 5)",2,2003_509
2527,"(5, 190, 2, 64)",2,2003_509
2528,"(5, 190, 5, 6)",2,2003_509
2529,"(5, 190, 5, 28)",2,2003_509
2530,"(5, 190, 5, 171)",2,2003_509
2531,"(5, 190, 32, 124)",2,2003_509
2532,"(5, 190, 47, 21)",2,2003_509
2533,"(5, 190, 64, 5)",2,2003_509
2534,"(5, 190, 92, 5)",2,2003_509
2535,"(5, 190, 92, 92)",2,2003_509
2536,"(5, 190, 92, 116)",2,2003_509
2537,"(5, 190, 99, 116)",2,2003_509
2538,"(5, 190, 116, 28)",2,2003_509
2539,"(5, 190, 116, 270)",2,2003_509
2540,"(5, 190, 325, 0)",2,2003_509
2541,"(5, 190, 325, 5)",3,2003_509
2542,"(5, 214, 0, 5)",2,2003_509
2543,"(5, 214, 0, 14)",3,2003_509
2544,"(5, 214, 0, 89)",2,2003_509
2545,"(5, 214, 5, 89)",2,2003_509
2546,"(5, 214, 14, 5)",2,2003_509
2547,"(5, 214, 14, 89)",2,2003_509
2548,"(5, 214, 40, 32)",2,2003_509
2549,"(5, 214, 251, 40)",2,2003_509
2550,"(5, 214, 251, 41)",2,2003_509
2551,"(5, 266, 21, 32)",2,2003_509
2552,"(5, 266, 21, 140)",2,2003_509
2553,"(5, 266, 28, 32)",2,2003_509
2554,"(5, 266, 32, 5)",2,2003_509
2555,"(5, 266, 32, 140)",2,2003_509
2556,"(5, 271, 32, 2056)",2,2003_509
2557,"(5, 325, 0, 5)",2,2003_509
2558,"(5, 325, 0, 124)",2,2003_509
2559,"(5, 325, 0, 190)",2,2003_509
2560,"(5, 392, 5, 5)",2,2003_509
2561,"(5, 392, 5, 99)",2,2003_509
2562,"(5, 392, 5, 989)",2,2003_509
2563,"(5, 392, 99, 5)",2,2003_509
2564,"(5, 392, 99, 989)",2,2003_509
2565,"(5, 392, 989, 5)",2,2003_509
2566,"(5, 529, 5, 28)",2,2003_509
2567,"(5, 681, 28, 2)",2,2003_509
2568,"(5, 699, 5, 214)",2,2003_509
2569,"(5, 1759, 2, 64)",2,2003_509
2570,"(6, 102, 190, 325)",2,2003_509
2571,"(9, 5, 529, 28)",2,2003_509
2572,"(14, 2, 5, 41)",2,2003_509
2573,"(14, 5, 2, 5)",2,2003_509
2574,"(14, 5, 2, 41)",2,2003_509
2575,"(14, 5, 5, 41)",2,2003_509
2576,"(14, 5, 102, 325)",2,2003_509
2577,"(14, 5, 171, 41)",2,2003_509
2578,"(14, 5, 171, 190)",2,2003_509
2579,"(14, 5, 190, 325)",2,2003_509
2580,"(21, 32, 92, 5)",2,2003_509
2581,"(28, 0, 0, 5)",2,2003_509
2582,"(28, 0, 0, 14)",2,2003_509
2583,"(28, 0, 5, 5)",2,2003_509
2584,"(28, 0, 5, 49)",2,2003_509
2585,"(28, 0, 14, 5)",3,2003_509
2586,"(28, 0, 124, 0)",2,2003_509
2587,"(28, 0, 124, 5)",3,2003_509
2588,"(28, 0, 124, 14)",2,2003_509
2589,"(28, 0, 124, 41)",2,2003_509
2590,"(28, 0, 124, 348)",2,2003_509
2591,"(28, 5, 18, 28)",2,2003_509
2592,"(28, 5, 92, 215)",2,2003_509
2593,"(28, 21, 40, 2095)",2,2003_509
2594,"(28, 28, 5, 92)",2,2003_509
2595,"(28, 28, 32, 5)",2,2003_509
2596,"(28, 28, 47, 21)",2,2003_509
2597,"(28, 28, 83, 1083)",2,2003_509
2598,"(28, 28, 171, 71)",2,2003_509
2599,"(28, 28, 681, 48)",2,2003_509
2600,"(28, 28, 681, 83)",2,2003_509
2601,"(28, 28, 681, 1083)",2,2003_509
2602,"(28, 38, 40, 822)",2,2003_509
2603,"(28, 40, 38, 5)",2,2003_509
2604,"(28, 47, 5, 18)",3,2003_509
2605,"(28, 47, 5, 28)",2,2003_509
2606,"(28, 47, 18, 28)",2,2003_509
2607,"(28, 71, 28, 171)",2,2003_509
2608,"(28, 71, 40, 822)",2,2003_509
2609,"(28, 71, 92, 5)",2,2003_509
2610,"(28, 99, 116, 2)",2,2003_509
2611,"(28, 124, 0, 5)",2,2003_509
2612,"(28, 124, 0, 14)",2,2003_509
2613,"(28, 124, 14, 5)",2,2003_509
2614,"(28, 171, 28, 171)",2,2003_509
2615,"(28, 171, 71, 28)",2,2003_509
2616,"(28, 171, 71, 171)",2,2003_509
2617,"(28, 171, 83, 1083)",2,2003_509
2618,"(28, 171, 681, 83)",2,2003_509
2619,"(28, 171, 681, 1083)",2,2003_509
2620,"(28, 174, 40, 2095)",2,2003_509
2621,"(28, 659, 325, 5)",2,2003_509
2622,"(28, 681, 83, 1083)",2,2003_509
2623,"(32, 0, 5, 28)",2,2003_509
2624,"(32, 5, 5, 699)",2,2003_509
2625,"(32, 40, 32, 47)",2,2003_509
2626,"(32, 40, 271, 32)",2,2003_509
2627,"(32, 40, 493, 325)",2,2003_509
2628,"(32, 65, 699, 5)",2,2003_509
2629,"(32, 122, 468, 378)",2,2003_509
2630,"(32, 124, 92, 5)",2,2003_509
2631,"(32, 124, 125, 5)",2,2003_509
2632,"(32, 125, 0, 5)",2,2003_509
2633,"(32, 125, 0, 28)",2,2003_509
2634,"(32, 125, 2, 0)",2,2003_509
2635,"(32, 125, 5, 28)",2,2003_509
2636,"(32, 125, 493, 325)",2,2003_509
2637,"(32, 265, 125, 5)",2,2003_509
2638,"(32, 325, 265, 5)",2,2003_509
2639,"(32, 493, 125, 5)",2,2003_509
2640,"(32, 493, 265, 5)",2,2003_509
2641,"(32, 493, 325, 5)",2,2003_509
2642,"(32, 493, 325, 265)",2,2003_509
2643,"(32, 2056, 122, 378)",2,2003_509
2644,"(32, 2056, 122, 468)",2,2003_509
2645,"(32, 2056, 468, 378)",2,2003_509
2646,"(33, 99, 116, 2)",2,2003_509
2647,"(39, 125, 39, 28)",2,2003_509
2648,"(40, 0, 5, 89)",2,2003_509
2649,"(40, 32, 21, 40)",2,2003_509
2650,"(40, 271, 32, 2056)",2,2003_509
2651,"(40, 822, 92, 5)",2,2003_509
2652,"(41, 41, 0, 5)",2,2003_509
2653,"(41, 124, 0, 5)",2,2003_509
2654,"(41, 124, 41, 0)",2,2003_509
2655,"(41, 124, 41, 5)",2,2003_509
2656,"(47, 5, 18, 16)",2,2003_509
2657,"(47, 5, 18, 28)",2,2003_509
2658,"(47, 66, 5, 28)",2,2003_509
2659,"(47, 461, 5, 16)",2,2003_509
2660,"(47, 461, 5, 18)",2,2003_509
2661,"(47, 461, 18, 16)",2,2003_509
2662,"(47, 6538, 28, 482)",2,2003_509
2663,"(61, 32, 124, 5)",2,2003_509
2664,"(61, 32, 124, 125)",2,2003_509
2665,"(61, 32, 125, 5)",2,2003_509
2666,"(61, 32, 125, 92)",2,2003_509
2667,"(61, 32, 125, 493)",2,2003_509
2668,"(61, 124, 125, 5)",2,2003_509
2669,"(64, 65, 5, 214)",2,2003_509
2670,"(64, 65, 699, 5)",2,2003_509
2671,"(64, 65, 699, 214)",2,2003_509
2672,"(64, 699, 5, 214)",2,2003_509
2673,"(65, 699, 5, 214)",2,2003_509
2674,"(71, 40, 822, 92)",2,2003_509
2675,"(81, 5, 5, 797)",2,2003_509
2676,"(89, 0, 124, 92)",2,2003_509
2677,"(89, 0, 124, 325)",2,2003_509
2678,"(89, 0, 325, 92)",2,2003_509
2679,"(89, 5, 49, 2)",2,2003_509
2680,"(89, 28, 0, 124)",2,2003_509
2681,"(89, 28, 325, 92)",2,2003_509
2682,"(89, 99, 116, 122)",2,2003_509
2683,"(89, 116, 28, 28)",2,2003_509
2684,"(89, 119, 28, 2)",2,2003_509
2685,"(89, 119, 681, 2)",2,2003_509
2686,"(89, 119, 681, 28)",2,2003_509
2687,"(89, 124, 325, 92)",2,2003_509
2688,"(89, 171, 99, 116)",2,2003_509
2689,"(89, 171, 99, 122)",2,2003_509
2690,"(89, 171, 116, 122)",2,2003_509
2691,"(89, 171, 190, 99)",2,2003_509
2692,"(89, 171, 190, 116)",2,2003_509
2693,"(89, 171, 190, 122)",2,2003_509
2694,"(89, 190, 99, 116)",2,2003_509
2695,"(89, 190, 99, 122)",2,2003_509
2696,"(89, 190, 116, 122)",2,2003_509
2697,"(89, 681, 28, 2)",2,2003_509
2698,"(92, 5, 5, 28)",2,2003_509
2699,"(92, 5, 18, 28)",3,2003_509
2700,"(92, 5, 28, 32)",2,2003_509
2701,"(92, 5, 102, 18)",2,2003_509
2702,"(92, 5, 102, 28)",2,2003_509
2703,"(92, 5, 123, 32)",2,2003_509
2704,"(92, 102, 18, 28)",2,2003_509
2705,"(92, 125, 493, 325)",2,2003_509
2706,"(99, 116, 28, 28)",2,2003_509
2707,"(116, 0, 124, 5)",2,2003_509
2708,"(116, 0, 124, 190)",2,2003_509
2709,"(116, 28, 21, 38)",2,2003_509
2710,"(119, 681, 28, 2)",2,2003_509
2711,"(124, 0, 5, 190)",2,2003_509
2712,"(124, 0, 14, 5)",2,2003_509
2713,"(124, 0, 14, 190)",2,2003_509
2714,"(124, 5, 92, 99)",2,2003_509
2715,"(124, 5, 99, 116)",2,2003_509
2716,"(124, 14, 5, 190)",2,2003_509
2717,"(124, 28, 28, 5)",2,2003_509
2718,"(124, 28, 28, 92)",2,2003_509
2719,"(124, 28, 99, 116)",2,2003_509
2720,"(124, 33, 99, 116)",2,2003_509
2721,"(124, 41, 0, 0)",2,2003_509
2722,"(124, 41, 0, 5)",2,2003_509
2723,"(124, 41, 28, 0)",2,2003_509
2724,"(124, 124, 41, 0)",2,2003_509
2725,"(124, 190, 92, 5)",2,2003_509
2726,"(124, 316, 5, 2)",2,2003_509
2727,"(124, 325, 5, 325)",2,2003_509
2728,"(124, 325, 265, 325)",2,2003_509
2729,"(124, 493, 265, 325)",2,2003_509
2730,"(124, 493, 325, 265)",2,2003_509
2731,"(124, 493, 325, 325)",2,2003_509
2732,"(125, 0, 5, 18)",2,2003_509
2733,"(125, 0, 5, 28)",2,2003_509
2734,"(125, 0, 5, 39)",2,2003_509
2735,"(125, 0, 14, 5)",2,2003_509
2736,"(125, 0, 28, 39)",2,2003_509
2737,"(125, 2, 0, 5)",2,2003_509
2738,"(125, 5, 5, 18)",2,2003_509
2739,"(125, 5, 18, 16)",2,2003_509
2740,"(125, 5, 28, 28)",2,2003_509
2741,"(125, 5, 28, 39)",2,2003_509
2742,"(125, 5, 28, 171)",2,2003_509
2743,"(125, 5, 214, 0)",2,2003_509
2744,"(125, 47, 5, 16)",2,2003_509
2745,"(125, 47, 5, 18)",2,2003_509
2746,"(125, 47, 18, 16)",2,2003_509
2747,"(125, 47, 461, 5)",2,2003_509
2748,"(125, 47, 461, 16)",2,2003_509
2749,"(125, 47, 461, 18)",2,2003_509
2750,"(125, 265, 5, 0)",2,2003_509
2751,"(125, 270, 28, 687)",2,2003_509
2752,"(125, 461, 5, 16)",2,2003_509
2753,"(125, 461, 5, 18)",2,2003_509
2754,"(125, 461, 18, 16)",2,2003_509
2755,"(133, 5, 0, 14)",2,2003_509
2756,"(133, 5, 214, 0)",2,2003_509
2757,"(133, 5, 214, 14)",2,2003_509
2758,"(133, 214, 0, 14)",2,2003_509
2759,"(135, 125, 5, 17)",2,2003_509
2760,"(142, 0, 5, 797)",2,2003_509
2761,"(171, 71, 28, 171)",2,2003_509
2762,"(171, 92, 5, 28)",2,2003_509
2763,"(171, 99, 116, 122)",2,2003_509
2764,"(171, 116, 28, 21)",2,2003_509
2765,"(171, 190, 99, 116)",2,2003_509
2766,"(171, 190, 99, 122)",2,2003_509
2767,"(171, 190, 116, 122)",2,2003_509
2768,"(171, 681, 83, 1083)",2,2003_509
2769,"(190, 0, 14, 5)",2,2003_509
2770,"(190, 2, 0, 5)",2,2003_509
2771,"(190, 2, 5, 28)",2,2003_509
2772,"(190, 2, 64, 5)",2,2003_509
2773,"(190, 5, 2, 0)",2,2003_509
2774,"(190, 5, 5, 28)",2,2003_509
2775,"(190, 92, 5, 5)",2,2003_509
2776,"(190, 92, 5, 28)",3,2003_509
2777,"(190, 92, 5, 529)",2,2003_509
2778,"(190, 92, 92, 116)",2,2003_509
2779,"(190, 99, 116, 122)",2,2003_509
2780,"(190, 325, 0, 5)",2,2003_509
2781,"(190, 325, 5, 325)",2,2003_509
2782,"(203, 5, 0, 14)",2,2003_509
2783,"(203, 5, 214, 0)",2,2003_509
2784,"(203, 5, 214, 14)",2,2003_509
2785,"(203, 214, 0, 14)",2,2003_509
2786,"(214, 0, 5, 89)",2,2003_509
2787,"(214, 0, 14, 5)",2,2003_509
2788,"(214, 0, 14, 89)",2,2003_509
2789,"(214, 14, 5, 89)",2,2003_509
2790,"(265, 5, 28, 28)",2,2003_509
2791,"(266, 21, 32, 140)",2,2003_509
2792,"(270, 0, 5, 89)",2,2003_509
2793,"(270, 0, 14, 5)",3,2003_509
2794,"(270, 0, 14, 89)",2,2003_509
2795,"(270, 2, 0, 5)",3,2003_509
2796,"(270, 2, 0, 14)",3,2003_509
2797,"(270, 2, 0, 89)",2,2003_509
2798,"(270, 2, 5, 89)",2,2003_509
2799,"(270, 2, 14, 5)",3,2003_509
2800,"(270, 2, 14, 89)",2,2003_509
2801,"(270, 5, 0, 5)",2,2003_509
2802,"(270, 5, 0, 14)",2,2003_509
2803,"(270, 5, 0, 89)",2,2003_509
2804,"(270, 5, 5, 89)",2,2003_509
2805,"(270, 5, 14, 5)",2,2003_509
2806,"(270, 5, 14, 89)",2,2003_509
2807,"(270, 5, 214, 0)",2,2003_509
2808,"(270, 5, 214, 5)",2,2003_509
2809,"(270, 5, 214, 14)",2,2003_509
2810,"(270, 5, 214, 89)",2,2003_509
2811,"(270, 14, 5, 89)",2,2003_509
2812,"(270, 32, 40, 32)",2,2003_509
2813,"(270, 125, 0, 5)",2,2003_509
2814,"(270, 125, 0, 14)",2,2003_509
2815,"(270, 125, 5, 18)",2,2003_509
2816,"(270, 125, 14, 5)",2,2003_509
2817,"(270, 214, 0, 5)",2,2003_509
2818,"(270, 214, 0, 14)",2,2003_509
2819,"(270, 214, 0, 89)",2,2003_509
2820,"(270, 214, 5, 89)",2,2003_509
2821,"(270, 214, 14, 5)",2,2003_509
2822,"(270, 214, 14, 89)",2,2003_509
2823,"(271, 32, 122, 378)",2,2003_509
2824,"(271, 32, 122, 468)",2,2003_509
2825,"(271, 32, 468, 378)",2,2003_509
2826,"(271, 32, 2056, 122)",2,2003_509
2827,"(271, 32, 2056, 378)",2,2003_509
2828,"(271, 32, 2056, 468)",2,2003_509
2829,"(271, 122, 468, 378)",2,2003_509
2830,"(271, 2056, 122, 378)",2,2003_509
2831,"(271, 2056, 122, 468)",2,2003_509
2832,"(271, 2056, 468, 378)",2,2003_509
2833,"(316, 5, 2, 5)",2,2003_509
2834,"(325, 0, 0, 5)",2,2003_509
2835,"(325, 0, 5, 0)",2,2003_509
2836,"(325, 0, 5, 28)",2,2003_509
2837,"(325, 0, 5, 39)",2,2003_509
2838,"(325, 0, 5, 171)",2,2003_509
2839,"(325, 0, 5, 336)",2,2003_509
2840,"(325, 0, 5, 482)",2,2003_509
2841,"(325, 0, 14, 5)",3,2003_509
2842,"(325, 0, 14, 171)",2,2003_509
2843,"(325, 0, 28, 482)",2,2003_509
2844,"(325, 0, 124, 5)",2,2003_509
2845,"(325, 0, 190, 5)",2,2003_509
2846,"(325, 0, 190, 325)",2,2003_509
2847,"(325, 0, 325, 5)",2,2003_509
2848,"(325, 2, 0, 5)",3,2003_509
2849,"(325, 2, 0, 39)",2,2003_509
2850,"(325, 2, 5, 39)",2,2003_509
2851,"(325, 5, 325, 0)",2,2003_509
2852,"(325, 14, 5, 171)",2,2003_509
2853,"(325, 28, 325, 5)",2,2003_509
2854,"(325, 125, 0, 5)",2,2003_509
2855,"(325, 125, 0, 39)",2,2003_509
2856,"(325, 125, 5, 28)",2,2003_509
2857,"(325, 125, 5, 39)",2,2003_509
2858,"(325, 190, 325, 5)",2,2003_509
2859,"(325, 265, 0, 28)",2,2003_509
2860,"(325, 265, 5, 28)",2,2003_509
2861,"(325, 265, 47, 5)",2,2003_509
2862,"(325, 265, 125, 5)",2,2003_509
2863,"(325, 265, 325, 550)",2,2003_509
2864,"(392, 5, 99, 5)",2,2003_509
2865,"(392, 5, 99, 989)",2,2003_509
2866,"(392, 5, 989, 5)",2,2003_509
2867,"(392, 99, 989, 5)",2,2003_509
2868,"(461, 5, 18, 16)",2,2003_509
2869,"(482, 271, 32, 47)",2,2003_509
2870,"(493, 28, 325, 5)",2,2003_509
2871,"(493, 265, 0, 28)",2,2003_509
2872,"(493, 265, 5, 28)",2,2003_509
2873,"(493, 265, 47, 5)",2,2003_509
2874,"(493, 265, 125, 5)",2,2003_509
2875,"(493, 265, 325, 550)",2,2003_509
2876,"(493, 325, 0, 5)",2,2003_509
2877,"(493, 325, 0, 28)",2,2003_509
2878,"(493, 325, 5, 28)",2,2003_509
2879,"(493, 325, 28, 5)",2,2003_509
2880,"(493, 325, 28, 325)",2,2003_509
2881,"(493, 325, 47, 5)",2,2003_509
2882,"(493, 325, 125, 5)",2,2003_509
2883,"(493, 325, 265, 0)",2,2003_509
2884,"(493, 325, 265, 5)",3,2003_509
2885,"(493, 325, 265, 28)",3,2003_509
2886,"(493, 325, 265, 47)",2,2003_509
2887,"(493, 325, 265, 125)",2,2003_509
2888,"(493, 325, 265, 325)",2,2003_509
2889,"(493, 325, 265, 550)",2,2003_509
2890,"(493, 325, 325, 5)",2,2003_509
2891,"(493, 325, 325, 550)",2,2003_509
2892,"(493, 325, 550, 5)",2,2003_509
2893,"(529, 140, 28, 355)",2,2003_509
2894,"(550, 124, 325, 5)",2,2003_509
2895,"(1115, 61, 265, 124)",2,2003_509
2896,"(2056, 122, 468, 378)",2,2003_509
2897,"(0, 0, 14, 5, 190)",2,2003_509
2898,"(0, 5, 39, 28, 28)",2,2003_509
2899,"(0, 5, 89, 99, 116)",2,2003_509
2900,"(0, 5, 89, 171, 99)",2,2003_509
2901,"(0, 5, 89, 171, 116)",2,2003_509
2902,"(0, 5, 89, 171, 190)",2,2003_509
2903,"(0, 5, 89, 190, 99)",2,2003_509
2904,"(0, 5, 89, 190, 116)",2,2003_509
2905,"(0, 5, 171, 39, 28)",2,2003_509
2906,"(0, 5, 171, 99, 116)",2,2003_509
2907,"(0, 5, 171, 190, 99)",2,2003_509
2908,"(0, 5, 171, 190, 116)",2,2003_509
2909,"(0, 5, 190, 99, 116)",2,2003_509
2910,"(0, 14, 5, 2, 5)",2,2003_509
2911,"(0, 14, 5, 102, 325)",2,2003_509
2912,"(0, 14, 5, 171, 190)",2,2003_509
2913,"(0, 14, 5, 190, 325)",2,2003_509
2914,"(0, 89, 171, 99, 116)",2,2003_509
2915,"(0, 89, 171, 190, 99)",2,2003_509
2916,"(0, 89, 171, 190, 116)",2,2003_509
2917,"(0, 89, 190, 99, 116)",2,2003_509
2918,"(0, 124, 0, 5, 190)",2,2003_509
2919,"(0, 124, 0, 14, 5)",2,2003_509
2920,"(0, 124, 0, 14, 190)",2,2003_509
2921,"(0, 124, 14, 5, 190)",2,2003_509
2922,"(0, 171, 190, 99, 116)",2,2003_509
2923,"(2, 0, 14, 5, 89)",2,2003_509
2924,"(2, 64, 65, 5, 214)",2,2003_509
2925,"(2, 64, 65, 699, 5)",2,2003_509
2926,"(2, 64, 65, 699, 214)",2,2003_509
2927,"(2, 64, 699, 5, 214)",2,2003_509
2928,"(2, 65, 699, 5, 214)",2,2003_509
2929,"(5, 0, 14, 5, 89)",2,2003_509
2930,"(5, 0, 14, 5, 325)",2,2003_509
2931,"(5, 2, 64, 5, 214)",2,2003_509
2932,"(5, 2, 64, 21, 215)",2,2003_509
2933,"(5, 2, 64, 65, 5)",2,2003_509
2934,"(5, 2, 64, 65, 214)",2,2003_509
2935,"(5, 2, 64, 65, 699)",2,2003_509
2936,"(5, 2, 64, 699, 5)",2,2003_509
2937,"(5, 2, 64, 699, 214)",2,2003_509
2938,"(5, 2, 65, 5, 214)",2,2003_509
2939,"(5, 2, 65, 699, 5)",2,2003_509
2940,"(5, 2, 65, 699, 214)",2,2003_509
2941,"(5, 2, 124, 679, 92)",2,2003_509
2942,"(5, 2, 699, 5, 214)",2,2003_509
2943,"(5, 5, 99, 989, 5)",2,2003_509
2944,"(5, 6, 102, 190, 325)",2,2003_509
2945,"(5, 28, 0, 124, 348)",2,2003_509
2946,"(5, 28, 28, 681, 48)",2,2003_509
2947,"(5, 28, 174, 40, 2095)",2,2003_509
2948,"(5, 40, 271, 32, 2056)",2,2003_509
2949,"(5, 64, 65, 5, 214)",2,2003_509
2950,"(5, 64, 65, 699, 5)",2,2003_509
2951,"(5, 64, 65, 699, 214)",2,2003_509
2952,"(5, 64, 699, 5, 214)",2,2003_509
2953,"(5, 65, 699, 5, 214)",2,2003_509
2954,"(5, 89, 116, 28, 28)",2,2003_509
2955,"(5, 89, 119, 28, 2)",2,2003_509
2956,"(5, 89, 119, 681, 2)",2,2003_509
2957,"(5, 89, 119, 681, 28)",2,2003_509
2958,"(5, 89, 171, 99, 116)",2,2003_509
2959,"(5, 89, 171, 190, 99)",2,2003_509
2960,"(5, 89, 171, 190, 116)",2,2003_509
2961,"(5, 89, 190, 99, 116)",2,2003_509
2962,"(5, 89, 681, 28, 2)",2,2003_509
2963,"(5, 99, 116, 28, 28)",2,2003_509
2964,"(5, 119, 681, 28, 2)",2,2003_509
2965,"(5, 171, 116, 28, 21)",2,2003_509
2966,"(5, 171, 190, 99, 116)",2,2003_509
2967,"(5, 190, 2, 64, 5)",2,2003_509
2968,"(5, 190, 92, 92, 116)",2,2003_509
2969,"(5, 190, 325, 0, 5)",2,2003_509
2970,"(5, 214, 0, 5, 89)",2,2003_509
2971,"(5, 214, 0, 14, 5)",2,2003_509
2972,"(5, 214, 0, 14, 89)",2,2003_509
2973,"(5, 214, 14, 5, 89)",2,2003_509
2974,"(5, 266, 21, 32, 140)",2,2003_509
2975,"(5, 392, 5, 99, 5)",2,2003_509
2976,"(5, 392, 5, 99, 989)",2,2003_509
2977,"(5, 392, 5, 989, 5)",2,2003_509
2978,"(5, 392, 99, 989, 5)",2,2003_509
2979,"(14, 5, 2, 5, 41)",2,2003_509
2980,"(28, 0, 0, 14, 5)",2,2003_509
2981,"(28, 0, 124, 0, 5)",2,2003_509
2982,"(28, 0, 124, 0, 14)",2,2003_509
2983,"(28, 0, 124, 14, 5)",2,2003_509
2984,"(28, 28, 681, 83, 1083)",2,2003_509
2985,"(28, 47, 5, 18, 28)",2,2003_509
2986,"(28, 124, 0, 14, 5)",2,2003_509
2987,"(28, 171, 71, 28, 171)",2,2003_509
2988,"(28, 171, 681, 83, 1083)",2,2003_509
2989,"(32, 125, 0, 5, 28)",2,2003_509
2990,"(32, 493, 325, 265, 5)",2,2003_509
2991,"(32, 2056, 122, 468, 378)",2,2003_509
2992,"(41, 124, 41, 0, 5)",2,2003_509
2993,"(47, 461, 5, 18, 16)",2,2003_509
2994,"(61, 32, 124, 125, 5)",2,2003_509
2995,"(64, 65, 699, 5, 214)",2,2003_509
2996,"(89, 0, 124, 325, 92)",2,2003_509
2997,"(89, 119, 681, 28, 2)",2,2003_509
2998,"(89, 171, 99, 116, 122)",2,2003_509
2999,"(89, 171, 190, 99, 116)",2,2003_509
3000,"(89, 171, 190, 99, 122)",2,2003_509
3001,"(89, 171, 190, 116, 122)",2,2003_509
3002,"(89, 190, 99, 116, 122)",2,2003_509
3003,"(92, 5, 102, 18, 28)",2,2003_509
3004,"(124, 0, 14, 5, 190)",2,2003_509
3005,"(124, 493, 325, 265, 325)",2,2003_509
3006,"(125, 0, 5, 28, 39)",2,2003_509
3007,"(125, 47, 5, 18, 16)",2,2003_509
3008,"(125, 47, 461, 5, 16)",2,2003_509
3009,"(125, 47, 461, 5, 18)",2,2003_509
3010,"(125, 47, 461, 18, 16)",2,2003_509
3011,"(125, 461, 5, 18, 16)",2,2003_509
3012,"(133, 5, 214, 0, 14)",2,2003_509
3013,"(171, 190, 99, 116, 122)",2,2003_509
3014,"(190, 92, 5, 5, 28)",2,2003_509
3015,"(203, 5, 214, 0, 14)",2,2003_509
3016,"(214, 0, 14, 5, 89)",2,2003_509
3017,"(270, 0, 14, 5, 89)",2,2003_509
3018,"(270, 2, 0, 5, 89)",2,2003_509
3019,"(270, 2, 0, 14, 5)",3,2003_509
3020,"(270, 2, 0, 14, 89)",2,2003_509
3021,"(270, 2, 14, 5, 89)",2,2003_509
3022,"(270, 5, 0, 5, 89)",2,2003_509
3023,"(270, 5, 0, 14, 5)",2,2003_509
3024,"(270, 5, 0, 14, 89)",2,2003_509
3025,"(270, 5, 14, 5, 89)",2,2003_509
3026,"(270, 5, 214, 0, 5)",2,2003_509
3027,"(270, 5, 214, 0, 14)",2,2003_509
3028,"(270, 5, 214, 0, 89)",2,2003_509
3029,"(270, 5, 214, 5, 89)",2,2003_509
3030,"(270, 5, 214, 14, 5)",2,2003_509
3031,"(270, 5, 214, 14, 89)",2,2003_509
3032,"(270, 125, 0, 14, 5)",2,2003_509
3033,"(270, 214, 0, 5, 89)",2,2003_509
3034,"(270, 214, 0, 14, 5)",2,2003_509
3035,"(270, 214, 0, 14, 89)",2,2003_509
3036,"(270, 214, 14, 5, 89)",2,2003_509
3037,"(271, 32, 122, 468, 378)",2,2003_509
3038,"(271, 32, 2056, 122, 378)",2,2003_509
3039,"(271, 32, 2056, 122, 468)",2,2003_509
3040,"(271, 32, 2056, 468, 378)",2,2003_509
3041,"(271, 2056, 122, 468, 378)",2,2003_509
3042,"(325, 0, 14, 5, 171)",2,2003_509
3043,"(325, 0, 190, 325, 5)",2,2003_509
3044,"(325, 2, 0, 5, 39)",2,2003_509
3045,"(325, 125, 0, 5, 39)",2,2003_509
3046,"(392, 5, 99, 989, 5)",2,2003_509
3047,"(493, 325, 28, 325, 5)",2,2003_509
3048,"(493, 325, 265, 0, 28)",2,2003_509
3049,"(493, 325, 265, 5, 28)",2,2003_509
3050,"(493, 325, 265, 47, 5)",2,2003_509
3051,"(493, 325, 265, 125, 5)",2,2003_509
3052,"(493, 325, 265, 325, 550)",2,2003_509
3053,"(0, 5, 89, 171, 99, 116)",2,2003_509
3054,"(0, 5, 89, 171, 190, 99)",2,2003_509
3055,"(0, 5, 89, 171, 190, 116)",2,2003_509
3056,"(0, 5, 89, 190, 99, 116)",2,2003_509
3057,"(0, 5, 171, 190, 99, 116)",2,2003_509
3058,"(0, 89, 171, 190, 99, 116)",2,2003_509
3059,"(0, 124, 0, 14, 5, 190)",2,2003_509
3060,"(2, 64, 65, 699, 5, 214)",2,2003_509
3061,"(5, 2, 64, 65, 5, 214)",2,2003_509
3062,"(5, 2, 64, 65, 699, 5)",2,2003_509
3063,"(5, 2, 64, 65, 699, 214)",2,2003_509
3064,"(5, 2, 64, 699, 5, 214)",2,2003_509
3065,"(5, 2, 65, 699, 5, 214)",2,2003_509
3066,"(5, 64, 65, 699, 5, 214)",2,2003_509
3067,"(5, 89, 119, 681, 28, 2)",2,2003_509
3068,"(5, 89, 171, 190, 99, 116)",2,2003_509
3069,"(5, 214, 0, 14, 5, 89)",2,2003_509
3070,"(5, 392, 5, 99, 989, 5)",2,2003_509
3071,"(28, 0, 124, 0, 14, 5)",2,2003_509
3072,"(89, 171, 190, 99, 116, 122)",2,2003_509
3073,"(125, 47, 461, 5, 18, 16)",2,2003_509
3074,"(270, 2, 0, 14, 5, 89)",2,2003_509
3075,"(270, 5, 0, 14, 5, 89)",2,2003_509
3076,"(270, 5, 214, 0, 5, 89)",2,2003_509
3077,"(270, 5, 214, 0, 14, 5)",2,2003_509
3078,"(270, 5, 214, 0, 14, 89)",2,2003_509
3079,"(270, 5, 214, 14, 5, 89)",2,2003_509
3080,"(270, 214, 0, 14, 5, 89)",2,2003_509
3081,"(271, 32, 2056, 122, 468, 378)",2,2003_509
3082,"(0, 5, 89, 171, 190, 99, 116)",2,2003_509
3083,"(5, 2, 64, 65, 699, 5, 214)",2,2003_509
3084,"(270, 5, 214, 0, 14, 5, 89)",2,2003_509
