,pattern,sup,author
1202,"(2, 2, 123)",2,mbtiauth_2091
1203,"(2, 10, 2)",2,mbtiauth_2091
1204,"(2, 10, 47)",2,mbtiauth_2091
1205,"(2, 10, 65)",2,mbtiauth_2091
1206,"(2, 10, 77)",5,mbtiauth_2091
1207,"(2, 10, 198)",2,mbtiauth_2091
1208,"(2, 10, 443)",2,mbtiauth_2091
1209,"(2, 30, 123)",2,mbtiauth_2091
1210,"(2, 47, 2)",2,mbtiauth_2091
1211,"(2, 47, 77)",2,mbtiauth_2091
1212,"(2, 47, 152)",2,mbtiauth_2091
1213,"(2, 64, 2)",2,mbtiauth_2091
1214,"(2, 64, 10)",2,mbtiauth_2091
1215,"(2, 64, 78)",2,mbtiauth_2091
1216,"(2, 64, 222)",2,mbtiauth_2091
1217,"(2, 67, 10)",2,mbtiauth_2091
1218,"(2, 77, 47)",3,mbtiauth_2091
1219,"(2, 77, 77)",3,mbtiauth_2091
1220,"(2, 77, 123)",2,mbtiauth_2091
1221,"(2, 77, 154)",2,mbtiauth_2091
1222,"(2, 77, 170)",2,mbtiauth_2091
1223,"(2, 77, 193)",2,mbtiauth_2091
1224,"(2, 77, 198)",2,mbtiauth_2091
1225,"(2, 77, 222)",2,mbtiauth_2091
1226,"(2, 77, 599)",4,mbtiauth_2091
1227,"(2, 123, 33)",2,mbtiauth_2091
1228,"(2, 123, 47)",2,mbtiauth_2091
1229,"(2, 123, 64)",2,mbtiauth_2091
1230,"(2, 123, 65)",2,mbtiauth_2091
1231,"(2, 123, 77)",3,mbtiauth_2091
1232,"(2, 123, 123)",4,mbtiauth_2091
1233,"(2, 123, 193)",2,mbtiauth_2091
1234,"(2, 123, 262)",2,mbtiauth_2091
1235,"(2, 123, 441)",2,mbtiauth_2091
1236,"(2, 123, 599)",2,mbtiauth_2091
1237,"(2, 164, 77)",2,mbtiauth_2091
1238,"(2, 193, 170)",3,mbtiauth_2091
1239,"(2, 212, 64)",2,mbtiauth_2091
1240,"(2, 222, 10)",2,mbtiauth_2091
1241,"(2, 222, 77)",2,mbtiauth_2091
1242,"(2, 322, 193)",2,mbtiauth_2091
1243,"(2, 443, 77)",2,mbtiauth_2091
1244,"(2, 443, 170)",2,mbtiauth_2091
1245,"(2, 566, 2)",2,mbtiauth_2091
1246,"(2, 566, 47)",2,mbtiauth_2091
1247,"(2, 599, 170)",2,mbtiauth_2091
1248,"(2, 599, 193)",2,mbtiauth_2091
1249,"(2, 768, 206)",2,mbtiauth_2091
1250,"(2, 1318, 50)",2,mbtiauth_2091
1251,"(3, 1103, 162)",2,mbtiauth_2091
1252,"(5, 283, 1)",2,mbtiauth_2091
1253,"(8, 28, 26)",2,mbtiauth_2091
1254,"(10, 2, 77)",2,mbtiauth_2091
1255,"(10, 10, 65)",2,mbtiauth_2091
1256,"(10, 29, 77)",2,mbtiauth_2091
1257,"(10, 47, 2)",2,mbtiauth_2091
1258,"(10, 47, 77)",2,mbtiauth_2091
1259,"(10, 47, 222)",2,mbtiauth_2091
1260,"(10, 64, 50)",2,mbtiauth_2091
1261,"(10, 65, 77)",2,mbtiauth_2091
1262,"(10, 77, 31)",2,mbtiauth_2091
1263,"(10, 77, 65)",2,mbtiauth_2091
1264,"(10, 77, 77)",2,mbtiauth_2091
1265,"(10, 77, 123)",5,mbtiauth_2091
1266,"(10, 77, 198)",2,mbtiauth_2091
1267,"(10, 77, 222)",2,mbtiauth_2091
1268,"(10, 77, 517)",2,mbtiauth_2091
1269,"(10, 77, 599)",2,mbtiauth_2091
1270,"(10, 154, 64)",2,mbtiauth_2091
1271,"(10, 599, 123)",2,mbtiauth_2091
1272,"(16, 64, 77)",2,mbtiauth_2091
1273,"(16, 64, 158)",2,mbtiauth_2091
1274,"(16, 64, 193)",3,mbtiauth_2091
1275,"(16, 77, 64)",2,mbtiauth_2091
1276,"(16, 77, 123)",3,mbtiauth_2091
1277,"(16, 77, 212)",2,mbtiauth_2091
1278,"(16, 77, 441)",2,mbtiauth_2091
1279,"(16, 77, 599)",3,mbtiauth_2091
1280,"(16, 384, 77)",2,mbtiauth_2091
1281,"(16, 384, 123)",2,mbtiauth_2091
1282,"(16, 441, 193)",2,mbtiauth_2091
1283,"(16, 599, 123)",2,mbtiauth_2091
1284,"(22, 2, 170)",2,mbtiauth_2091
1285,"(22, 65, 2)",2,mbtiauth_2091
1286,"(22, 123, 64)",2,mbtiauth_2091
1287,"(22, 123, 193)",2,mbtiauth_2091
1288,"(22, 170, 2)",2,mbtiauth_2091
1289,"(22, 443, 2)",2,mbtiauth_2091
1290,"(27, 262, 41)",2,mbtiauth_2091
1291,"(29, 77, 123)",2,mbtiauth_2091
1292,"(29, 77, 599)",2,mbtiauth_2091
1293,"(29, 599, 123)",2,mbtiauth_2091
1294,"(30, 30, 30)",3,mbtiauth_2091
1295,"(30, 30, 65)",2,mbtiauth_2091
1296,"(30, 65, 30)",2,mbtiauth_2091
1297,"(31, 50, 2)",2,mbtiauth_2091
1298,"(31, 50, 77)",2,mbtiauth_2091
1299,"(31, 77, 2)",2,mbtiauth_2091
1300,"(31, 77, 64)",2,mbtiauth_2091
1301,"(31, 77, 443)",3,mbtiauth_2091
1302,"(31, 77, 599)",2,mbtiauth_2091
1303,"(31, 123, 64)",2,mbtiauth_2091
1304,"(31, 123, 174)",2,mbtiauth_2091
1305,"(31, 222, 10)",2,mbtiauth_2091
1306,"(31, 222, 64)",2,mbtiauth_2091
1307,"(31, 222, 77)",3,mbtiauth_2091
1308,"(31, 222, 140)",2,mbtiauth_2091
1309,"(31, 566, 222)",2,mbtiauth_2091
1310,"(31, 1318, 50)",2,mbtiauth_2091
1311,"(32, 170, 77)",2,mbtiauth_2091
1312,"(33, 22, 2)",2,mbtiauth_2091
1313,"(41, 2, 193)",2,mbtiauth_2091
1314,"(41, 22, 132)",2,mbtiauth_2091
1315,"(41, 41, 29)",2,mbtiauth_2091
1316,"(41, 41, 41)",2,mbtiauth_2091
1317,"(41, 41, 938)",2,mbtiauth_2091
1318,"(41, 41, 1214)",2,mbtiauth_2091
1319,"(41, 50, 441)",2,mbtiauth_2091
1320,"(41, 50, 443)",2,mbtiauth_2091
1321,"(41, 152, 29)",2,mbtiauth_2091
1322,"(41, 183, 193)",2,mbtiauth_2091
1323,"(41, 198, 152)",2,mbtiauth_2091
1324,"(41, 443, 441)",2,mbtiauth_2091
1325,"(47, 2, 10)",2,mbtiauth_2091
1326,"(47, 2, 47)",3,mbtiauth_2091
1327,"(47, 2, 77)",2,mbtiauth_2091
1328,"(47, 2, 222)",2,mbtiauth_2091
1329,"(47, 10, 47)",2,mbtiauth_2091
1330,"(47, 64, 222)",2,mbtiauth_2091
1331,"(47, 77, 2)",2,mbtiauth_2091
1332,"(47, 77, 47)",2,mbtiauth_2091
1333,"(47, 77, 222)",2,mbtiauth_2091
1334,"(50, 2, 77)",2,mbtiauth_2091
1335,"(50, 2, 123)",2,mbtiauth_2091
1336,"(50, 2, 441)",3,mbtiauth_2091
1337,"(50, 2, 443)",2,mbtiauth_2091
1338,"(50, 10, 77)",2,mbtiauth_2091
1339,"(50, 32, 77)",2,mbtiauth_2091
1340,"(50, 77, 123)",2,mbtiauth_2091
1341,"(50, 123, 123)",2,mbtiauth_2091
1342,"(50, 123, 441)",2,mbtiauth_2091
1343,"(50, 123, 638)",2,mbtiauth_2091
1344,"(50, 170, 2)",2,mbtiauth_2091
1345,"(50, 222, 77)",2,mbtiauth_2091
1346,"(50, 443, 441)",2,mbtiauth_2091
1347,"(50, 938, 77)",2,mbtiauth_2091
1348,"(50, 938, 222)",2,mbtiauth_2091
1349,"(50, 1103, 77)",2,mbtiauth_2091
1350,"(50, 1103, 123)",2,mbtiauth_2091
1351,"(50, 1103, 222)",2,mbtiauth_2091
1352,"(50, 1180, 2)",3,mbtiauth_2091
1353,"(50, 1180, 170)",2,mbtiauth_2091
1354,"(50, 1180, 441)",2,mbtiauth_2091
1355,"(64, 2, 64)",3,mbtiauth_2091
1356,"(64, 2, 222)",2,mbtiauth_2091
1357,"(64, 10, 65)",2,mbtiauth_2091
1358,"(64, 31, 50)",2,mbtiauth_2091
1359,"(64, 50, 2)",2,mbtiauth_2091
1360,"(64, 50, 50)",2,mbtiauth_2091
1361,"(64, 50, 77)",2,mbtiauth_2091
1362,"(64, 50, 170)",2,mbtiauth_2091
1363,"(64, 50, 220)",2,mbtiauth_2091
1364,"(64, 50, 1180)",2,mbtiauth_2091
1365,"(64, 64, 2)",2,mbtiauth_2091
1366,"(64, 64, 164)",2,mbtiauth_2091
1367,"(64, 64, 268)",2,mbtiauth_2091
1368,"(64, 67, 50)",2,mbtiauth_2091
1369,"(64, 67, 77)",3,mbtiauth_2091
1370,"(64, 67, 153)",2,mbtiauth_2091
1371,"(64, 67, 510)",2,mbtiauth_2091
1372,"(64, 77, 2)",2,mbtiauth_2091
1373,"(64, 77, 50)",2,mbtiauth_2091
1374,"(64, 77, 64)",2,mbtiauth_2091
1375,"(64, 77, 123)",2,mbtiauth_2091
1376,"(64, 77, 158)",2,mbtiauth_2091
1377,"(64, 77, 160)",2,mbtiauth_2091
1378,"(64, 77, 170)",2,mbtiauth_2091
1379,"(64, 77, 193)",3,mbtiauth_2091
1380,"(64, 77, 441)",2,mbtiauth_2091
1381,"(64, 77, 566)",3,mbtiauth_2091
1382,"(64, 144, 154)",2,mbtiauth_2091
1383,"(64, 144, 291)",2,mbtiauth_2091
1384,"(64, 153, 77)",2,mbtiauth_2091
1385,"(64, 153, 123)",2,mbtiauth_2091
1386,"(64, 158, 2)",2,mbtiauth_2091
1387,"(64, 158, 77)",2,mbtiauth_2091
1388,"(64, 158, 164)",2,mbtiauth_2091
1389,"(64, 162, 77)",2,mbtiauth_2091
1390,"(64, 162, 566)",2,mbtiauth_2091
1391,"(64, 164, 77)",2,mbtiauth_2091
1392,"(64, 212, 77)",2,mbtiauth_2091
1393,"(64, 212, 158)",2,mbtiauth_2091
1394,"(64, 212, 164)",2,mbtiauth_2091
1395,"(64, 222, 2)",2,mbtiauth_2091
1396,"(64, 222, 77)",2,mbtiauth_2091
1397,"(64, 222, 158)",2,mbtiauth_2091
1398,"(64, 236, 77)",2,mbtiauth_2091
1399,"(64, 262, 50)",2,mbtiauth_2091
1400,"(64, 291, 154)",2,mbtiauth_2091
1401,"(64, 384, 64)",2,mbtiauth_2091
1402,"(64, 441, 193)",2,mbtiauth_2091
1403,"(64, 510, 153)",2,mbtiauth_2091
1404,"(64, 1152, 77)",2,mbtiauth_2091
1405,"(64, 1180, 2)",2,mbtiauth_2091
1406,"(64, 1180, 170)",2,mbtiauth_2091
1407,"(65, 2, 64)",2,mbtiauth_2091
1408,"(65, 2, 222)",2,mbtiauth_2091
1409,"(65, 10, 47)",2,mbtiauth_2091
1410,"(65, 10, 222)",2,mbtiauth_2091
1411,"(65, 30, 30)",2,mbtiauth_2091
1412,"(65, 30, 65)",2,mbtiauth_2091
1413,"(65, 30, 797)",2,mbtiauth_2091
1414,"(65, 32, 65)",2,mbtiauth_2091
1415,"(65, 47, 2)",2,mbtiauth_2091
1416,"(65, 47, 64)",2,mbtiauth_2091
1417,"(65, 47, 222)",2,mbtiauth_2091
1418,"(65, 64, 222)",3,mbtiauth_2091
1419,"(65, 77, 2)",2,mbtiauth_2091
1420,"(65, 77, 65)",2,mbtiauth_2091
1421,"(65, 77, 77)",2,mbtiauth_2091
1422,"(65, 77, 123)",2,mbtiauth_2091
1423,"(65, 77, 222)",3,mbtiauth_2091
1424,"(65, 77, 566)",2,mbtiauth_2091
1425,"(65, 77, 599)",3,mbtiauth_2091
1426,"(65, 123, 10)",2,mbtiauth_2091
1427,"(65, 152, 276)",2,mbtiauth_2091
1428,"(65, 154, 65)",2,mbtiauth_2091
1429,"(65, 154, 222)",2,mbtiauth_2091
1430,"(65, 164, 326)",2,mbtiauth_2091
1431,"(65, 566, 222)",2,mbtiauth_2091
1432,"(65, 624, 2)",2,mbtiauth_2091
1433,"(65, 624, 47)",2,mbtiauth_2091
1434,"(65, 624, 212)",2,mbtiauth_2091
1435,"(65, 671, 77)",2,mbtiauth_2091
1436,"(65, 671, 599)",2,mbtiauth_2091
1437,"(65, 797, 30)",2,mbtiauth_2091
1438,"(65, 944, 10)",2,mbtiauth_2091
1439,"(67, 50, 441)",2,mbtiauth_2091
1440,"(67, 50, 443)",2,mbtiauth_2091
1441,"(67, 77, 123)",2,mbtiauth_2091
1442,"(67, 77, 599)",2,mbtiauth_2091
1443,"(67, 164, 77)",2,mbtiauth_2091
1444,"(67, 443, 441)",2,mbtiauth_2091
1445,"(67, 510, 153)",2,mbtiauth_2091
1446,"(70, 77, 120)",2,mbtiauth_2091
1447,"(70, 77, 443)",2,mbtiauth_2091
1448,"(70, 443, 120)",2,mbtiauth_2091
1449,"(77, 2, 77)",2,mbtiauth_2091
1450,"(77, 2, 170)",2,mbtiauth_2091
1451,"(77, 2, 222)",2,mbtiauth_2091
1452,"(77, 2, 566)",2,mbtiauth_2091
1453,"(77, 2, 1318)",2,mbtiauth_2091
1454,"(77, 10, 77)",2,mbtiauth_2091
1455,"(77, 10, 222)",2,mbtiauth_2091
1456,"(77, 16, 441)",2,mbtiauth_2091
1457,"(77, 22, 64)",2,mbtiauth_2091
1458,"(77, 41, 29)",2,mbtiauth_2091
1459,"(77, 41, 41)",2,mbtiauth_2091
1460,"(77, 50, 613)",2,mbtiauth_2091
1461,"(77, 64, 67)",2,mbtiauth_2091
1462,"(77, 64, 77)",3,mbtiauth_2091
1463,"(77, 64, 158)",2,mbtiauth_2091
1464,"(77, 64, 193)",2,mbtiauth_2091
1465,"(77, 64, 222)",2,mbtiauth_2091
1466,"(77, 77, 2)",2,mbtiauth_2091
1467,"(77, 77, 22)",2,mbtiauth_2091
1468,"(77, 77, 64)",5,mbtiauth_2091
1469,"(77, 77, 66)",2,mbtiauth_2091
1470,"(77, 77, 77)",2,mbtiauth_2091
1471,"(77, 77, 123)",4,mbtiauth_2091
1472,"(77, 77, 160)",2,mbtiauth_2091
1473,"(77, 77, 170)",2,mbtiauth_2091
1474,"(77, 77, 193)",3,mbtiauth_2091
1475,"(77, 77, 212)",2,mbtiauth_2091
1476,"(77, 77, 222)",3,mbtiauth_2091
1477,"(77, 77, 322)",2,mbtiauth_2091
1478,"(77, 77, 443)",2,mbtiauth_2091
1479,"(77, 77, 599)",3,mbtiauth_2091
1480,"(77, 77, 768)",2,mbtiauth_2091
1481,"(77, 123, 47)",2,mbtiauth_2091
1482,"(77, 123, 64)",3,mbtiauth_2091
1483,"(77, 123, 65)",2,mbtiauth_2091
1484,"(77, 123, 154)",2,mbtiauth_2091
1485,"(77, 123, 170)",2,mbtiauth_2091
1486,"(77, 123, 765)",2,mbtiauth_2091
1487,"(77, 154, 65)",2,mbtiauth_2091
1488,"(77, 154, 165)",2,mbtiauth_2091
1489,"(77, 154, 170)",2,mbtiauth_2091
1490,"(77, 154, 222)",2,mbtiauth_2091
1491,"(77, 160, 64)",2,mbtiauth_2091
1492,"(77, 164, 193)",2,mbtiauth_2091
1493,"(77, 193, 77)",2,mbtiauth_2091
1494,"(77, 193, 117)",2,mbtiauth_2091
1495,"(77, 193, 711)",2,mbtiauth_2091
1496,"(77, 212, 64)",4,mbtiauth_2091
1497,"(77, 212, 158)",2,mbtiauth_2091
1498,"(77, 222, 10)",2,mbtiauth_2091
1499,"(77, 222, 77)",4,mbtiauth_2091
1500,"(77, 222, 222)",2,mbtiauth_2091
1501,"(77, 233, 193)",2,mbtiauth_2091
1502,"(77, 236, 41)",2,mbtiauth_2091
1503,"(77, 291, 154)",2,mbtiauth_2091
1504,"(77, 441, 167)",2,mbtiauth_2091
1505,"(77, 441, 193)",2,mbtiauth_2091
1506,"(77, 443, 2)",3,mbtiauth_2091
1507,"(77, 443, 22)",2,mbtiauth_2091
1508,"(77, 443, 64)",2,mbtiauth_2091
1509,"(77, 443, 120)",2,mbtiauth_2091
1510,"(77, 443, 154)",2,mbtiauth_2091
1511,"(77, 443, 167)",2,mbtiauth_2091
1512,"(77, 443, 260)",2,mbtiauth_2091
1513,"(77, 443, 291)",3,mbtiauth_2091
1514,"(77, 443, 441)",3,mbtiauth_2091
1515,"(77, 443, 599)",2,mbtiauth_2091
1516,"(77, 443, 638)",2,mbtiauth_2091
1517,"(77, 443, 704)",2,mbtiauth_2091
1518,"(77, 443, 1758)",2,mbtiauth_2091
1519,"(77, 510, 153)",2,mbtiauth_2091
1520,"(77, 566, 10)",2,mbtiauth_2091
1521,"(77, 566, 64)",3,mbtiauth_2091
1522,"(77, 566, 77)",2,mbtiauth_2091
1523,"(77, 566, 160)",2,mbtiauth_2091
1524,"(77, 566, 170)",2,mbtiauth_2091
1525,"(77, 566, 193)",2,mbtiauth_2091
1526,"(77, 566, 222)",3,mbtiauth_2091
1527,"(77, 599, 2)",2,mbtiauth_2091
1528,"(77, 599, 10)",2,mbtiauth_2091
1529,"(77, 599, 22)",2,mbtiauth_2091
1530,"(77, 599, 31)",4,mbtiauth_2091
1531,"(77, 599, 64)",3,mbtiauth_2091
1532,"(77, 599, 65)",3,mbtiauth_2091
1533,"(77, 599, 66)",2,mbtiauth_2091
1534,"(77, 599, 77)",3,mbtiauth_2091
1535,"(77, 599, 117)",2,mbtiauth_2091
1536,"(77, 599, 123)",5,mbtiauth_2091
1537,"(77, 599, 140)",2,mbtiauth_2091
1538,"(77, 599, 154)",6,mbtiauth_2091
1539,"(77, 599, 167)",2,mbtiauth_2091
1540,"(77, 599, 170)",3,mbtiauth_2091
1541,"(77, 599, 193)",3,mbtiauth_2091
1542,"(77, 599, 222)",2,mbtiauth_2091
1543,"(77, 599, 291)",3,mbtiauth_2091
1544,"(77, 599, 356)",2,mbtiauth_2091
1545,"(77, 599, 375)",2,mbtiauth_2091
1546,"(77, 599, 441)",3,mbtiauth_2091
1547,"(77, 599, 443)",4,mbtiauth_2091
1548,"(77, 599, 566)",2,mbtiauth_2091
1549,"(77, 599, 711)",2,mbtiauth_2091
1550,"(77, 599, 1758)",3,mbtiauth_2091
1551,"(77, 944, 10)",2,mbtiauth_2091
1552,"(77, 951, 212)",2,mbtiauth_2091
1553,"(77, 1758, 154)",2,mbtiauth_2091
1554,"(77, 1758, 291)",2,mbtiauth_2091
1555,"(78, 77, 154)",2,mbtiauth_2091
1556,"(78, 77, 170)",2,mbtiauth_2091
1557,"(78, 77, 599)",2,mbtiauth_2091
1558,"(78, 154, 222)",2,mbtiauth_2091
1559,"(78, 599, 154)",2,mbtiauth_2091
1560,"(78, 599, 170)",2,mbtiauth_2091
1561,"(120, 77, 154)",2,mbtiauth_2091
1562,"(120, 77, 193)",2,mbtiauth_2091
1563,"(120, 77, 599)",2,mbtiauth_2091
1564,"(120, 340, 154)",2,mbtiauth_2091
1565,"(120, 340, 291)",2,mbtiauth_2091
1566,"(120, 599, 154)",2,mbtiauth_2091
1567,"(120, 599, 193)",2,mbtiauth_2091
1568,"(123, 2, 10)",2,mbtiauth_2091
1569,"(123, 2, 65)",2,mbtiauth_2091
1570,"(123, 2, 77)",2,mbtiauth_2091
1571,"(123, 3, 162)",2,mbtiauth_2091
1572,"(123, 3, 1103)",2,mbtiauth_2091
1573,"(123, 10, 2)",2,mbtiauth_2091
1574,"(123, 10, 10)",3,mbtiauth_2091
1575,"(123, 10, 47)",2,mbtiauth_2091
1576,"(123, 10, 64)",3,mbtiauth_2091
1577,"(123, 10, 65)",3,mbtiauth_2091
1578,"(123, 10, 77)",3,mbtiauth_2091
1579,"(123, 10, 222)",3,mbtiauth_2091
1580,"(123, 10, 599)",2,mbtiauth_2091
1581,"(123, 16, 65)",2,mbtiauth_2091
1582,"(123, 29, 77)",2,mbtiauth_2091
1583,"(123, 29, 123)",2,mbtiauth_2091
1584,"(123, 29, 599)",2,mbtiauth_2091
1585,"(123, 30, 65)",2,mbtiauth_2091
1586,"(123, 31, 50)",2,mbtiauth_2091
1587,"(123, 31, 222)",2,mbtiauth_2091
1588,"(123, 32, 77)",2,mbtiauth_2091
1589,"(123, 32, 123)",2,mbtiauth_2091
1590,"(123, 50, 50)",2,mbtiauth_2091
1591,"(123, 64, 10)",2,mbtiauth_2091
1592,"(123, 64, 31)",2,mbtiauth_2091
1593,"(123, 64, 50)",4,mbtiauth_2091
1594,"(123, 64, 64)",3,mbtiauth_2091
1595,"(123, 64, 77)",2,mbtiauth_2091
1596,"(123, 64, 144)",3,mbtiauth_2091
1597,"(123, 64, 154)",3,mbtiauth_2091
1598,"(123, 64, 193)",3,mbtiauth_2091
1599,"(123, 64, 222)",3,mbtiauth_2091
1600,"(123, 64, 268)",2,mbtiauth_2091
1601,"(123, 64, 291)",2,mbtiauth_2091
1602,"(123, 64, 384)",2,mbtiauth_2091
1603,"(123, 64, 566)",2,mbtiauth_2091
1604,"(123, 64, 613)",2,mbtiauth_2091
1605,"(123, 64, 1103)",2,mbtiauth_2091
1606,"(123, 64, 1152)",2,mbtiauth_2091
1607,"(123, 65, 30)",2,mbtiauth_2091
1608,"(123, 65, 77)",2,mbtiauth_2091
1609,"(123, 65, 154)",3,mbtiauth_2091
1610,"(123, 67, 77)",2,mbtiauth_2091
1611,"(123, 77, 16)",2,mbtiauth_2091
1612,"(123, 77, 31)",2,mbtiauth_2091
1613,"(123, 77, 65)",2,mbtiauth_2091
1614,"(123, 77, 70)",2,mbtiauth_2091
1615,"(123, 77, 123)",4,mbtiauth_2091
1616,"(123, 77, 154)",3,mbtiauth_2091
1617,"(123, 77, 170)",2,mbtiauth_2091
1618,"(123, 77, 566)",2,mbtiauth_2091
1619,"(123, 77, 599)",5,mbtiauth_2091
1620,"(123, 78, 154)",2,mbtiauth_2091
1621,"(123, 120, 154)",2,mbtiauth_2091
1622,"(123, 120, 193)",2,mbtiauth_2091
1623,"(123, 120, 340)",2,mbtiauth_2091
1624,"(123, 123, 65)",4,mbtiauth_2091
1625,"(123, 123, 77)",2,mbtiauth_2091
1626,"(123, 123, 154)",4,mbtiauth_2091
1627,"(123, 123, 170)",2,mbtiauth_2091
1628,"(123, 123, 193)",2,mbtiauth_2091
1629,"(123, 123, 441)",2,mbtiauth_2091
1630,"(123, 123, 638)",2,mbtiauth_2091
1631,"(123, 144, 10)",2,mbtiauth_2091
1632,"(123, 144, 64)",2,mbtiauth_2091
1633,"(123, 144, 154)",2,mbtiauth_2091
1634,"(123, 144, 291)",2,mbtiauth_2091
1635,"(123, 154, 10)",2,mbtiauth_2091
1636,"(123, 154, 64)",2,mbtiauth_2091
1637,"(123, 154, 170)",2,mbtiauth_2091
1638,"(123, 154, 222)",3,mbtiauth_2091
1639,"(123, 154, 356)",2,mbtiauth_2091
1640,"(123, 154, 559)",2,mbtiauth_2091
1641,"(123, 165, 10)",2,mbtiauth_2091
1642,"(123, 165, 31)",3,mbtiauth_2091
1643,"(123, 165, 222)",2,mbtiauth_2091
1644,"(123, 170, 64)",2,mbtiauth_2091
1645,"(123, 170, 77)",2,mbtiauth_2091
1646,"(123, 170, 222)",2,mbtiauth_2091
1647,"(123, 174, 64)",2,mbtiauth_2091
1648,"(123, 193, 31)",2,mbtiauth_2091
1649,"(123, 193, 154)",2,mbtiauth_2091
1650,"(123, 193, 222)",2,mbtiauth_2091
1651,"(123, 193, 1099)",2,mbtiauth_2091
1652,"(123, 200, 77)",2,mbtiauth_2091
1653,"(123, 200, 170)",2,mbtiauth_2091
1654,"(123, 210, 765)",2,mbtiauth_2091
1655,"(123, 210, 951)",2,mbtiauth_2091
1656,"(123, 212, 64)",2,mbtiauth_2091
1657,"(123, 212, 193)",2,mbtiauth_2091
1658,"(123, 262, 31)",2,mbtiauth_2091
1659,"(123, 262, 64)",2,mbtiauth_2091
1660,"(123, 262, 123)",2,mbtiauth_2091
1661,"(123, 262, 699)",2,mbtiauth_2091
1662,"(123, 280, 77)",2,mbtiauth_2091
1663,"(123, 285, 193)",2,mbtiauth_2091
1664,"(123, 286, 77)",2,mbtiauth_2091
1665,"(123, 286, 193)",2,mbtiauth_2091
1666,"(123, 286, 441)",2,mbtiauth_2091
1667,"(123, 322, 154)",2,mbtiauth_2091
1668,"(123, 322, 222)",2,mbtiauth_2091
1669,"(123, 326, 5)",2,mbtiauth_2091
1670,"(123, 340, 77)",2,mbtiauth_2091
1671,"(123, 340, 154)",3,mbtiauth_2091
1672,"(123, 340, 193)",2,mbtiauth_2091
1673,"(123, 340, 599)",2,mbtiauth_2091
1674,"(123, 356, 193)",2,mbtiauth_2091
1675,"(123, 384, 64)",2,mbtiauth_2091
1676,"(123, 441, 3)",2,mbtiauth_2091
1677,"(123, 441, 65)",3,mbtiauth_2091
1678,"(123, 441, 162)",2,mbtiauth_2091
1679,"(123, 441, 1103)",2,mbtiauth_2091
1680,"(123, 566, 170)",2,mbtiauth_2091
1681,"(123, 566, 222)",2,mbtiauth_2091
1682,"(123, 566, 566)",2,mbtiauth_2091
1683,"(123, 599, 31)",2,mbtiauth_2091
1684,"(123, 599, 123)",3,mbtiauth_2091
1685,"(123, 599, 154)",3,mbtiauth_2091
1686,"(123, 599, 170)",2,mbtiauth_2091
1687,"(123, 613, 222)",2,mbtiauth_2091
1688,"(123, 764, 64)",2,mbtiauth_2091
1689,"(123, 765, 951)",2,mbtiauth_2091
1690,"(123, 768, 206)",2,mbtiauth_2091
1691,"(123, 1103, 162)",2,mbtiauth_2091
1692,"(123, 1705, 5)",2,mbtiauth_2091
1693,"(123, 1705, 326)",2,mbtiauth_2091
1694,"(123, 1705, 2877)",2,mbtiauth_2091
1695,"(123, 1758, 222)",2,mbtiauth_2091
1696,"(123, 1834, 64)",2,mbtiauth_2091
1697,"(123, 1867, 66)",2,mbtiauth_2091
1698,"(123, 2877, 5)",2,mbtiauth_2091
1699,"(123, 2877, 326)",2,mbtiauth_2091
1700,"(123, 4558, 64)",2,mbtiauth_2091
1701,"(144, 10, 64)",2,mbtiauth_2091
1702,"(145, 213, 65)",2,mbtiauth_2091
1703,"(145, 213, 589)",2,mbtiauth_2091
1704,"(152, 123, 47)",2,mbtiauth_2091
1705,"(153, 77, 123)",2,mbtiauth_2091
1706,"(154, 10, 65)",2,mbtiauth_2091
1707,"(154, 32, 29)",2,mbtiauth_2091
1708,"(154, 64, 222)",2,mbtiauth_2091
1709,"(154, 170, 10)",2,mbtiauth_2091
1710,"(154, 170, 65)",2,mbtiauth_2091
1711,"(158, 10, 77)",2,mbtiauth_2091
1712,"(162, 65, 47)",2,mbtiauth_2091
1713,"(162, 77, 64)",2,mbtiauth_2091
1714,"(162, 123, 10)",2,mbtiauth_2091
1715,"(162, 123, 47)",2,mbtiauth_2091
1716,"(162, 123, 64)",2,mbtiauth_2091
1717,"(162, 123, 65)",2,mbtiauth_2091
1718,"(162, 566, 64)",2,mbtiauth_2091
1719,"(162, 566, 77)",2,mbtiauth_2091
1720,"(164, 16, 944)",2,mbtiauth_2091
1721,"(164, 77, 2)",2,mbtiauth_2091
1722,"(164, 77, 77)",3,mbtiauth_2091
1723,"(164, 77, 123)",2,mbtiauth_2091
1724,"(164, 262, 64)",2,mbtiauth_2091
1725,"(165, 31, 222)",2,mbtiauth_2091
1726,"(170, 2, 77)",2,mbtiauth_2091
1727,"(170, 431, 77)",2,mbtiauth_2091
1728,"(183, 2, 193)",2,mbtiauth_2091
1729,"(183, 22, 193)",2,mbtiauth_2091
1730,"(183, 33, 193)",2,mbtiauth_2091
1731,"(183, 41, 41)",2,mbtiauth_2091
1732,"(183, 123, 64)",2,mbtiauth_2091
1733,"(183, 123, 154)",2,mbtiauth_2091
1734,"(183, 123, 322)",2,mbtiauth_2091
1735,"(183, 322, 154)",2,mbtiauth_2091
1736,"(183, 566, 193)",2,mbtiauth_2091
1737,"(193, 77, 123)",3,mbtiauth_2091
1738,"(193, 77, 599)",2,mbtiauth_2091
1739,"(193, 123, 32)",2,mbtiauth_2091
1740,"(193, 123, 322)",2,mbtiauth_2091
1741,"(193, 691, 123)",2,mbtiauth_2091
1742,"(193, 691, 154)",2,mbtiauth_2091
1743,"(193, 691, 852)",2,mbtiauth_2091
1744,"(193, 711, 65)",2,mbtiauth_2091
1745,"(193, 852, 123)",2,mbtiauth_2091
1746,"(193, 852, 154)",2,mbtiauth_2091
1747,"(193, 1099, 123)",2,mbtiauth_2091
1748,"(193, 1210, 64)",2,mbtiauth_2091
1749,"(198, 152, 29)",2,mbtiauth_2091
1750,"(200, 77, 154)",2,mbtiauth_2091
1751,"(200, 369, 77)",2,mbtiauth_2091
1752,"(206, 10, 65)",2,mbtiauth_2091
1753,"(206, 10, 77)",2,mbtiauth_2091
1754,"(206, 10, 517)",2,mbtiauth_2091
1755,"(206, 77, 517)",2,mbtiauth_2091
1756,"(210, 765, 951)",2,mbtiauth_2091
1757,"(212, 10, 2)",2,mbtiauth_2091
1758,"(212, 10, 47)",2,mbtiauth_2091
1759,"(212, 10, 222)",2,mbtiauth_2091
1760,"(212, 47, 2)",2,mbtiauth_2091
1761,"(212, 64, 67)",2,mbtiauth_2091
1762,"(212, 64, 77)",2,mbtiauth_2091
1763,"(212, 64, 158)",3,mbtiauth_2091
1764,"(212, 64, 193)",3,mbtiauth_2091
1765,"(212, 64, 291)",2,mbtiauth_2091
1766,"(212, 67, 77)",2,mbtiauth_2091
1767,"(212, 67, 153)",2,mbtiauth_2091
1768,"(212, 67, 510)",2,mbtiauth_2091
1769,"(212, 77, 10)",2,mbtiauth_2091
1770,"(212, 77, 77)",2,mbtiauth_2091
1771,"(212, 77, 123)",2,mbtiauth_2091
1772,"(212, 77, 153)",2,mbtiauth_2091
1773,"(212, 77, 222)",2,mbtiauth_2091
1774,"(212, 77, 510)",2,mbtiauth_2091
1775,"(212, 154, 10)",2,mbtiauth_2091
1776,"(212, 154, 170)",2,mbtiauth_2091
1777,"(212, 158, 77)",2,mbtiauth_2091
1778,"(212, 158, 164)",2,mbtiauth_2091
1779,"(212, 170, 10)",2,mbtiauth_2091
1780,"(212, 510, 153)",2,mbtiauth_2091
1781,"(212, 1758, 154)",2,mbtiauth_2091
1782,"(222, 10, 77)",2,mbtiauth_2091
1783,"(222, 77, 64)",2,mbtiauth_2091
1784,"(222, 77, 77)",2,mbtiauth_2091
1785,"(222, 77, 222)",3,mbtiauth_2091
1786,"(222, 77, 566)",2,mbtiauth_2091
1787,"(222, 123, 64)",2,mbtiauth_2091
1788,"(222, 158, 2)",2,mbtiauth_2091
1789,"(233, 533, 16)",2,mbtiauth_2091
1790,"(236, 16, 77)",2,mbtiauth_2091
1791,"(236, 16, 212)",2,mbtiauth_2091
1792,"(236, 64, 67)",2,mbtiauth_2091
1793,"(236, 64, 77)",2,mbtiauth_2091
1794,"(236, 64, 162)",2,mbtiauth_2091
1795,"(236, 77, 64)",2,mbtiauth_2091
1796,"(236, 77, 123)",3,mbtiauth_2091
1797,"(236, 77, 212)",3,mbtiauth_2091
1798,"(236, 77, 566)",2,mbtiauth_2091
1799,"(236, 123, 212)",2,mbtiauth_2091
1800,"(236, 162, 77)",2,mbtiauth_2091
1801,"(236, 162, 566)",2,mbtiauth_2091
1802,"(236, 212, 64)",3,mbtiauth_2091
1803,"(236, 212, 67)",2,mbtiauth_2091
1804,"(236, 212, 77)",2,mbtiauth_2091
1805,"(236, 212, 123)",2,mbtiauth_2091
1806,"(236, 416, 77)",2,mbtiauth_2091
1807,"(236, 416, 212)",2,mbtiauth_2091
1808,"(236, 599, 1758)",2,mbtiauth_2091
1809,"(260, 193, 170)",2,mbtiauth_2091
1810,"(262, 31, 77)",2,mbtiauth_2091
1811,"(262, 64, 77)",2,mbtiauth_2091
1812,"(262, 123, 64)",2,mbtiauth_2091
1813,"(274, 77, 2)",2,mbtiauth_2091
1814,"(280, 77, 65)",2,mbtiauth_2091
1815,"(290, 47, 2)",2,mbtiauth_2091
1816,"(290, 65, 2)",2,mbtiauth_2091
1817,"(290, 65, 47)",2,mbtiauth_2091
1818,"(290, 65, 212)",2,mbtiauth_2091
1819,"(290, 65, 624)",2,mbtiauth_2091
1820,"(290, 624, 2)",2,mbtiauth_2091
1821,"(290, 624, 47)",2,mbtiauth_2091
1822,"(290, 624, 212)",2,mbtiauth_2091
1823,"(322, 154, 222)",2,mbtiauth_2091
1824,"(340, 77, 154)",2,mbtiauth_2091
1825,"(340, 77, 599)",2,mbtiauth_2091
1826,"(340, 599, 154)",2,mbtiauth_2091
1827,"(356, 193, 65)",2,mbtiauth_2091
1828,"(356, 193, 711)",2,mbtiauth_2091
1829,"(356, 711, 65)",2,mbtiauth_2091
1830,"(364, 16, 77)",2,mbtiauth_2091
1831,"(364, 77, 123)",2,mbtiauth_2091
1832,"(364, 123, 193)",2,mbtiauth_2091
1833,"(364, 123, 291)",2,mbtiauth_2091
1834,"(364, 652, 1191)",3,mbtiauth_2091
1835,"(364, 1191, 416)",2,mbtiauth_2091
1836,"(364, 1191, 441)",2,mbtiauth_2091
1837,"(364, 1191, 533)",2,mbtiauth_2091
1838,"(364, 1191, 566)",2,mbtiauth_2091
1839,"(375, 2, 10)",2,mbtiauth_2091
1840,"(384, 77, 123)",2,mbtiauth_2091
1841,"(416, 64, 77)",2,mbtiauth_2091
1842,"(416, 77, 64)",2,mbtiauth_2091
1843,"(441, 3, 50)",2,mbtiauth_2091
1844,"(441, 3, 162)",2,mbtiauth_2091
1845,"(441, 3, 566)",2,mbtiauth_2091
1846,"(441, 3, 1103)",2,mbtiauth_2091
1847,"(441, 1103, 162)",2,mbtiauth_2091
1848,"(443, 2, 64)",2,mbtiauth_2091
1849,"(443, 2, 222)",2,mbtiauth_2091
1850,"(443, 2, 566)",2,mbtiauth_2091
1851,"(443, 22, 2)",3,mbtiauth_2091
1852,"(443, 22, 170)",2,mbtiauth_2091
1853,"(443, 64, 2)",2,mbtiauth_2091
1854,"(443, 64, 222)",3,mbtiauth_2091
1855,"(443, 65, 2)",2,mbtiauth_2091
1856,"(443, 65, 64)",2,mbtiauth_2091
1857,"(443, 65, 222)",2,mbtiauth_2091
1858,"(443, 77, 154)",2,mbtiauth_2091
1859,"(443, 77, 599)",2,mbtiauth_2091
1860,"(443, 154, 64)",2,mbtiauth_2091
1861,"(443, 170, 2)",2,mbtiauth_2091
1862,"(443, 193, 170)",2,mbtiauth_2091
1863,"(443, 212, 64)",2,mbtiauth_2091
1864,"(443, 260, 154)",2,mbtiauth_2091
1865,"(443, 260, 170)",2,mbtiauth_2091
1866,"(443, 260, 193)",2,mbtiauth_2091
1867,"(443, 291, 154)",2,mbtiauth_2091
1868,"(443, 291, 1263)",2,mbtiauth_2091
1869,"(443, 441, 22)",2,mbtiauth_2091
1870,"(443, 441, 167)",2,mbtiauth_2091
1871,"(443, 441, 2450)",2,mbtiauth_2091
1872,"(443, 599, 154)",2,mbtiauth_2091
1873,"(443, 599, 291)",2,mbtiauth_2091
1874,"(443, 638, 64)",2,mbtiauth_2091
1875,"(443, 638, 154)",2,mbtiauth_2091
1876,"(443, 704, 64)",2,mbtiauth_2091
1877,"(443, 704, 154)",2,mbtiauth_2091
1878,"(443, 1758, 291)",2,mbtiauth_2091
1879,"(520, 50, 77)",2,mbtiauth_2091
1880,"(520, 77, 123)",2,mbtiauth_2091
1881,"(520, 77, 599)",2,mbtiauth_2091
1882,"(566, 10, 77)",2,mbtiauth_2091
1883,"(566, 41, 566)",2,mbtiauth_2091
1884,"(566, 64, 77)",4,mbtiauth_2091
1885,"(566, 64, 222)",3,mbtiauth_2091
1886,"(566, 76, 566)",2,mbtiauth_2091
1887,"(566, 77, 77)",2,mbtiauth_2091
1888,"(566, 77, 123)",2,mbtiauth_2091
1889,"(566, 123, 64)",2,mbtiauth_2091
1890,"(566, 123, 193)",2,mbtiauth_2091
1891,"(566, 160, 64)",2,mbtiauth_2091
1892,"(566, 170, 64)",2,mbtiauth_2091
1893,"(566, 170, 193)",3,mbtiauth_2091
1894,"(566, 170, 222)",2,mbtiauth_2091
1895,"(566, 212, 64)",2,mbtiauth_2091
1896,"(566, 212, 77)",2,mbtiauth_2091
1897,"(566, 222, 10)",3,mbtiauth_2091
1898,"(566, 222, 77)",3,mbtiauth_2091
1899,"(566, 963, 41)",2,mbtiauth_2091
1900,"(566, 963, 566)",2,mbtiauth_2091
1901,"(566, 1152, 77)",2,mbtiauth_2091
1902,"(566, 1152, 123)",2,mbtiauth_2091
1903,"(599, 31, 50)",2,mbtiauth_2091
1904,"(599, 77, 64)",3,mbtiauth_2091
1905,"(599, 77, 66)",2,mbtiauth_2091
1906,"(599, 77, 77)",2,mbtiauth_2091
1907,"(599, 77, 123)",3,mbtiauth_2091
1908,"(599, 77, 768)",2,mbtiauth_2091
1909,"(599, 117, 77)",2,mbtiauth_2091
1910,"(599, 120, 285)",2,mbtiauth_2091
1911,"(599, 123, 5)",2,mbtiauth_2091
1912,"(599, 123, 64)",2,mbtiauth_2091
1913,"(599, 123, 65)",2,mbtiauth_2091
1914,"(599, 123, 154)",2,mbtiauth_2091
1915,"(599, 123, 170)",2,mbtiauth_2091
1916,"(599, 123, 193)",2,mbtiauth_2091
1917,"(599, 123, 326)",2,mbtiauth_2091
1918,"(599, 123, 2161)",2,mbtiauth_2091
1919,"(599, 154, 65)",2,mbtiauth_2091
1920,"(599, 154, 170)",2,mbtiauth_2091
1921,"(599, 193, 117)",2,mbtiauth_2091
1922,"(599, 212, 64)",2,mbtiauth_2091
1923,"(599, 291, 154)",2,mbtiauth_2091
1924,"(599, 291, 1263)",2,mbtiauth_2091
1925,"(599, 441, 3)",2,mbtiauth_2091
1926,"(599, 441, 167)",2,mbtiauth_2091
1927,"(599, 441, 291)",2,mbtiauth_2091
1928,"(599, 443, 2)",2,mbtiauth_2091
1929,"(599, 443, 154)",2,mbtiauth_2091
1930,"(599, 443, 167)",2,mbtiauth_2091
1931,"(599, 443, 291)",2,mbtiauth_2091
1932,"(599, 443, 441)",3,mbtiauth_2091
1933,"(599, 1758, 154)",2,mbtiauth_2091
1934,"(599, 1758, 291)",2,mbtiauth_2091
1935,"(624, 47, 2)",2,mbtiauth_2091
1936,"(638, 64, 2)",2,mbtiauth_2091
1937,"(652, 651, 64)",2,mbtiauth_2091
1938,"(671, 77, 599)",2,mbtiauth_2091
1939,"(691, 852, 123)",2,mbtiauth_2091
1940,"(691, 852, 154)",2,mbtiauth_2091
1941,"(704, 22, 2)",2,mbtiauth_2091
1942,"(704, 22, 443)",2,mbtiauth_2091
1943,"(704, 154, 82)",2,mbtiauth_2091
1944,"(740, 2, 123)",2,mbtiauth_2091
1945,"(740, 123, 65)",2,mbtiauth_2091
1946,"(740, 123, 123)",2,mbtiauth_2091
1947,"(740, 123, 322)",2,mbtiauth_2091
1948,"(740, 183, 123)",2,mbtiauth_2091
1949,"(740, 183, 322)",2,mbtiauth_2091
1950,"(756, 2, 2)",2,mbtiauth_2091
1951,"(756, 2, 441)",2,mbtiauth_2091
1952,"(756, 909, 2)",2,mbtiauth_2091
1953,"(756, 909, 441)",2,mbtiauth_2091
1954,"(768, 77, 77)",2,mbtiauth_2091
1955,"(768, 77, 1214)",2,mbtiauth_2091
1956,"(909, 2, 441)",2,mbtiauth_2091
1957,"(938, 222, 77)",2,mbtiauth_2091
1958,"(963, 41, 566)",2,mbtiauth_2091
1959,"(1103, 77, 123)",2,mbtiauth_2091
1960,"(1103, 123, 65)",2,mbtiauth_2091
1961,"(1103, 162, 123)",2,mbtiauth_2091
1962,"(1103, 220, 123)",2,mbtiauth_2091
1963,"(1103, 220, 765)",2,mbtiauth_2091
1964,"(1152, 77, 123)",2,mbtiauth_2091
1965,"(1180, 2, 441)",2,mbtiauth_2091
1966,"(1442, 162, 77)",2,mbtiauth_2091
1967,"(1442, 162, 566)",2,mbtiauth_2091
1968,"(1705, 326, 5)",2,mbtiauth_2091
1969,"(1705, 2877, 5)",2,mbtiauth_2091
1970,"(1705, 2877, 326)",2,mbtiauth_2091
1971,"(1758, 222, 10)",2,mbtiauth_2091
1972,"(2056, 2, 65)",2,mbtiauth_2091
1973,"(2056, 2, 123)",2,mbtiauth_2091
1974,"(2056, 123, 65)",2,mbtiauth_2091
1975,"(2056, 123, 123)",2,mbtiauth_2091
1976,"(2877, 326, 5)",2,mbtiauth_2091
1977,"(4558, 64, 193)",2,mbtiauth_2091
1978,"(11881, 77, 117)",2,mbtiauth_2091
1979,"(11881, 77, 193)",2,mbtiauth_2091
1980,"(11881, 77, 599)",2,mbtiauth_2091
1981,"(11881, 193, 117)",2,mbtiauth_2091
1982,"(11881, 599, 117)",2,mbtiauth_2091
1983,"(11881, 599, 193)",2,mbtiauth_2091
1984,"(2, 10, 47, 2)",2,mbtiauth_2091
1985,"(2, 10, 47, 77)",2,mbtiauth_2091
1986,"(2, 10, 77, 198)",2,mbtiauth_2091
1987,"(2, 77, 123, 47)",2,mbtiauth_2091
1988,"(2, 77, 599, 170)",2,mbtiauth_2091
1989,"(2, 77, 599, 193)",2,mbtiauth_2091
1990,"(2, 123, 77, 599)",2,mbtiauth_2091
1991,"(2, 123, 123, 65)",2,mbtiauth_2091
1992,"(2, 222, 10, 77)",2,mbtiauth_2091
1993,"(10, 77, 599, 123)",2,mbtiauth_2091
1994,"(16, 77, 599, 123)",2,mbtiauth_2091
1995,"(16, 384, 77, 123)",2,mbtiauth_2091
1996,"(29, 77, 599, 123)",2,mbtiauth_2091
1997,"(30, 30, 65, 30)",2,mbtiauth_2091
1998,"(30, 65, 30, 30)",2,mbtiauth_2091
1999,"(31, 222, 77, 64)",2,mbtiauth_2091
2000,"(41, 41, 41, 938)",2,mbtiauth_2091
2001,"(41, 50, 443, 441)",2,mbtiauth_2091
2002,"(47, 2, 10, 47)",2,mbtiauth_2091
2003,"(47, 2, 77, 47)",2,mbtiauth_2091
2004,"(47, 77, 2, 222)",2,mbtiauth_2091
2005,"(50, 2, 123, 441)",2,mbtiauth_2091
2006,"(50, 123, 123, 638)",2,mbtiauth_2091
2007,"(50, 938, 222, 77)",2,mbtiauth_2091
2008,"(50, 1180, 2, 441)",2,mbtiauth_2091
2009,"(64, 50, 1180, 2)",2,mbtiauth_2091
2010,"(64, 50, 1180, 170)",2,mbtiauth_2091
2011,"(64, 67, 510, 153)",2,mbtiauth_2091
2012,"(64, 77, 441, 193)",2,mbtiauth_2091
2013,"(64, 153, 77, 123)",2,mbtiauth_2091
2014,"(64, 212, 158, 164)",2,mbtiauth_2091
2015,"(64, 222, 158, 2)",2,mbtiauth_2091
2016,"(65, 2, 64, 222)",2,mbtiauth_2091
2017,"(65, 47, 64, 222)",2,mbtiauth_2091
2018,"(65, 77, 566, 222)",2,mbtiauth_2091
2019,"(65, 624, 47, 2)",2,mbtiauth_2091
2020,"(65, 671, 77, 599)",2,mbtiauth_2091
2021,"(67, 50, 443, 441)",2,mbtiauth_2091
2022,"(70, 77, 443, 120)",2,mbtiauth_2091
2023,"(77, 77, 123, 64)",2,mbtiauth_2091
2024,"(77, 77, 212, 64)",2,mbtiauth_2091
2025,"(77, 77, 599, 443)",2,mbtiauth_2091
2026,"(77, 123, 154, 170)",2,mbtiauth_2091
2027,"(77, 212, 64, 158)",2,mbtiauth_2091
2028,"(77, 222, 77, 222)",2,mbtiauth_2091
2029,"(77, 443, 291, 154)",2,mbtiauth_2091
2030,"(77, 443, 441, 167)",2,mbtiauth_2091
2031,"(77, 443, 1758, 291)",2,mbtiauth_2091
2032,"(77, 566, 64, 77)",2,mbtiauth_2091
2033,"(77, 566, 64, 222)",2,mbtiauth_2091
2034,"(77, 566, 160, 64)",2,mbtiauth_2091
2035,"(77, 566, 222, 10)",2,mbtiauth_2091
2036,"(77, 599, 77, 64)",2,mbtiauth_2091
2037,"(77, 599, 77, 66)",2,mbtiauth_2091
2038,"(77, 599, 77, 123)",2,mbtiauth_2091
2039,"(77, 599, 123, 64)",2,mbtiauth_2091
2040,"(77, 599, 123, 65)",2,mbtiauth_2091
2041,"(77, 599, 123, 154)",2,mbtiauth_2091
2042,"(77, 599, 123, 170)",2,mbtiauth_2091
2043,"(77, 599, 154, 65)",2,mbtiauth_2091
2044,"(77, 599, 154, 170)",2,mbtiauth_2091
2045,"(77, 599, 193, 117)",2,mbtiauth_2091
2046,"(77, 599, 291, 154)",2,mbtiauth_2091
2047,"(77, 599, 441, 167)",2,mbtiauth_2091
2048,"(77, 599, 443, 2)",2,mbtiauth_2091
2049,"(77, 599, 443, 154)",2,mbtiauth_2091
2050,"(77, 599, 443, 167)",2,mbtiauth_2091
2051,"(77, 599, 443, 291)",2,mbtiauth_2091
2052,"(77, 599, 443, 441)",3,mbtiauth_2091
2053,"(77, 599, 1758, 154)",2,mbtiauth_2091
2054,"(77, 599, 1758, 291)",2,mbtiauth_2091
2055,"(78, 77, 599, 154)",2,mbtiauth_2091
2056,"(78, 77, 599, 170)",2,mbtiauth_2091
2057,"(120, 77, 599, 154)",2,mbtiauth_2091
2058,"(120, 77, 599, 193)",2,mbtiauth_2091
2059,"(123, 3, 1103, 162)",2,mbtiauth_2091
2060,"(123, 10, 10, 65)",2,mbtiauth_2091
2061,"(123, 10, 77, 599)",2,mbtiauth_2091
2062,"(123, 29, 77, 123)",2,mbtiauth_2091
2063,"(123, 29, 77, 599)",2,mbtiauth_2091
2064,"(123, 29, 599, 123)",2,mbtiauth_2091
2065,"(123, 64, 31, 50)",2,mbtiauth_2091
2066,"(123, 64, 64, 268)",2,mbtiauth_2091
2067,"(123, 64, 144, 154)",2,mbtiauth_2091
2068,"(123, 64, 144, 291)",2,mbtiauth_2091
2069,"(123, 64, 384, 64)",2,mbtiauth_2091
2070,"(123, 77, 123, 154)",2,mbtiauth_2091
2071,"(123, 77, 123, 170)",2,mbtiauth_2091
2072,"(123, 77, 154, 170)",2,mbtiauth_2091
2073,"(123, 77, 599, 31)",2,mbtiauth_2091
2074,"(123, 77, 599, 123)",3,mbtiauth_2091
2075,"(123, 77, 599, 154)",3,mbtiauth_2091
2076,"(123, 77, 599, 170)",2,mbtiauth_2091
2077,"(123, 120, 340, 154)",2,mbtiauth_2091
2078,"(123, 123, 154, 170)",2,mbtiauth_2091
2079,"(123, 123, 441, 65)",2,mbtiauth_2091
2080,"(123, 144, 10, 64)",2,mbtiauth_2091
2081,"(123, 165, 31, 222)",2,mbtiauth_2091
2082,"(123, 210, 765, 951)",2,mbtiauth_2091
2083,"(123, 212, 64, 193)",2,mbtiauth_2091
2084,"(123, 322, 154, 222)",2,mbtiauth_2091
2085,"(123, 340, 77, 154)",2,mbtiauth_2091
2086,"(123, 340, 77, 599)",2,mbtiauth_2091
2087,"(123, 340, 599, 154)",2,mbtiauth_2091
2088,"(123, 441, 3, 162)",2,mbtiauth_2091
2089,"(123, 441, 3, 1103)",2,mbtiauth_2091
2090,"(123, 441, 1103, 162)",2,mbtiauth_2091
2091,"(123, 566, 170, 222)",2,mbtiauth_2091
2092,"(123, 599, 123, 154)",2,mbtiauth_2091
2093,"(123, 599, 123, 170)",2,mbtiauth_2091
2094,"(123, 599, 154, 170)",2,mbtiauth_2091
2095,"(123, 1705, 326, 5)",2,mbtiauth_2091
2096,"(123, 1705, 2877, 5)",2,mbtiauth_2091
2097,"(123, 1705, 2877, 326)",2,mbtiauth_2091
2098,"(123, 2877, 326, 5)",2,mbtiauth_2091
2099,"(164, 77, 77, 123)",2,mbtiauth_2091
2100,"(183, 123, 322, 154)",2,mbtiauth_2091
2101,"(193, 691, 852, 123)",2,mbtiauth_2091
2102,"(193, 691, 852, 154)",2,mbtiauth_2091
2103,"(206, 10, 77, 517)",2,mbtiauth_2091
2104,"(212, 10, 47, 2)",2,mbtiauth_2091
2105,"(212, 67, 510, 153)",2,mbtiauth_2091
2106,"(212, 77, 10, 222)",2,mbtiauth_2091
2107,"(212, 77, 510, 153)",2,mbtiauth_2091
2108,"(212, 154, 170, 10)",2,mbtiauth_2091
2109,"(222, 77, 77, 222)",2,mbtiauth_2091
2110,"(236, 16, 77, 212)",2,mbtiauth_2091
2111,"(236, 212, 64, 67)",2,mbtiauth_2091
2112,"(236, 212, 77, 123)",2,mbtiauth_2091
2113,"(290, 65, 47, 2)",2,mbtiauth_2091
2114,"(290, 65, 624, 2)",2,mbtiauth_2091
2115,"(290, 65, 624, 47)",2,mbtiauth_2091
2116,"(290, 65, 624, 212)",2,mbtiauth_2091
2117,"(290, 624, 47, 2)",2,mbtiauth_2091
2118,"(340, 77, 599, 154)",2,mbtiauth_2091
2119,"(356, 193, 711, 65)",2,mbtiauth_2091
2120,"(441, 3, 1103, 162)",2,mbtiauth_2091
2121,"(443, 2, 64, 222)",2,mbtiauth_2091
2122,"(443, 22, 170, 2)",2,mbtiauth_2091
2123,"(443, 65, 2, 64)",2,mbtiauth_2091
2124,"(443, 65, 2, 222)",2,mbtiauth_2091
2125,"(443, 65, 64, 222)",2,mbtiauth_2091
2126,"(443, 77, 599, 154)",2,mbtiauth_2091
2127,"(443, 260, 193, 170)",2,mbtiauth_2091
2128,"(566, 64, 222, 77)",2,mbtiauth_2091
2129,"(566, 212, 64, 77)",2,mbtiauth_2091
2130,"(566, 212, 77, 77)",2,mbtiauth_2091
2131,"(566, 222, 10, 77)",2,mbtiauth_2091
2132,"(566, 963, 41, 566)",2,mbtiauth_2091
2133,"(566, 1152, 77, 123)",2,mbtiauth_2091
2134,"(599, 77, 123, 64)",2,mbtiauth_2091
2135,"(599, 123, 154, 170)",2,mbtiauth_2091
2136,"(599, 443, 291, 154)",2,mbtiauth_2091
2137,"(599, 443, 441, 167)",2,mbtiauth_2091
2138,"(740, 2, 123, 123)",2,mbtiauth_2091
2139,"(740, 183, 123, 322)",2,mbtiauth_2091
2140,"(756, 909, 2, 441)",2,mbtiauth_2091
2141,"(1705, 2877, 326, 5)",2,mbtiauth_2091
2142,"(2056, 2, 123, 65)",2,mbtiauth_2091
2143,"(2056, 2, 123, 123)",2,mbtiauth_2091
2144,"(2056, 123, 123, 65)",2,mbtiauth_2091
2145,"(11881, 77, 193, 117)",2,mbtiauth_2091
2146,"(11881, 77, 599, 117)",2,mbtiauth_2091
2147,"(11881, 77, 599, 193)",2,mbtiauth_2091
2148,"(11881, 599, 193, 117)",2,mbtiauth_2091
2149,"(77, 599, 77, 123, 64)",2,mbtiauth_2091
2150,"(77, 599, 123, 154, 170)",2,mbtiauth_2091
2151,"(77, 599, 443, 291, 154)",2,mbtiauth_2091
2152,"(77, 599, 443, 441, 167)",2,mbtiauth_2091
2153,"(123, 29, 77, 599, 123)",2,mbtiauth_2091
2154,"(123, 77, 123, 154, 170)",2,mbtiauth_2091
2155,"(123, 77, 599, 123, 154)",2,mbtiauth_2091
2156,"(123, 77, 599, 123, 170)",2,mbtiauth_2091
2157,"(123, 77, 599, 154, 170)",2,mbtiauth_2091
2158,"(123, 340, 77, 599, 154)",2,mbtiauth_2091
2159,"(123, 441, 3, 1103, 162)",2,mbtiauth_2091
2160,"(123, 599, 123, 154, 170)",2,mbtiauth_2091
2161,"(123, 1705, 2877, 326, 5)",2,mbtiauth_2091
2162,"(290, 65, 624, 47, 2)",2,mbtiauth_2091
2163,"(443, 65, 2, 64, 222)",2,mbtiauth_2091
2164,"(2056, 2, 123, 123, 65)",2,mbtiauth_2091
2165,"(11881, 77, 599, 193, 117)",2,mbtiauth_2091
2166,"(123, 77, 599, 123, 154, 170)",2,mbtiauth_2091
