,pattern,sup,author
603,"(2, 2, 2)",2,mbtiauth_1974
604,"(2, 2, 22)",2,mbtiauth_1974
605,"(2, 2, 31)",2,mbtiauth_1974
606,"(2, 2, 64)",2,mbtiauth_1974
607,"(2, 2, 77)",2,mbtiauth_1974
608,"(2, 2, 167)",2,mbtiauth_1974
609,"(2, 2, 1205)",2,mbtiauth_1974
610,"(2, 31, 22)",2,mbtiauth_1974
611,"(2, 31, 41)",2,mbtiauth_1974
612,"(2, 64, 22)",2,mbtiauth_1974
613,"(2, 65, 2)",2,mbtiauth_1974
614,"(2, 65, 64)",2,mbtiauth_1974
615,"(2, 65, 77)",2,mbtiauth_1974
616,"(2, 65, 1205)",2,mbtiauth_1974
617,"(2, 67, 22)",2,mbtiauth_1974
618,"(2, 77, 2)",3,mbtiauth_1974
619,"(2, 77, 22)",5,mbtiauth_1974
620,"(2, 77, 64)",2,mbtiauth_1974
621,"(2, 77, 123)",2,mbtiauth_1974
622,"(2, 77, 154)",3,mbtiauth_1974
623,"(2, 77, 193)",2,mbtiauth_1974
624,"(2, 77, 599)",2,mbtiauth_1974
625,"(2, 123, 22)",2,mbtiauth_1974
626,"(2, 123, 117)",2,mbtiauth_1974
627,"(2, 123, 123)",2,mbtiauth_1974
628,"(2, 123, 154)",2,mbtiauth_1974
629,"(2, 152, 22)",2,mbtiauth_1974
630,"(2, 154, 22)",2,mbtiauth_1974
631,"(2, 154, 123)",2,mbtiauth_1974
632,"(2, 236, 22)",2,mbtiauth_1974
633,"(2, 381, 2)",2,mbtiauth_1974
634,"(2, 381, 31)",2,mbtiauth_1974
635,"(2, 599, 22)",3,mbtiauth_1974
636,"(2, 693, 32)",2,mbtiauth_1974
637,"(2, 1205, 77)",2,mbtiauth_1974
638,"(8, 26, 77)",4,mbtiauth_1974
639,"(8, 28, 26)",5,mbtiauth_1974
640,"(8, 28, 77)",4,mbtiauth_1974
641,"(9, 28, 26)",3,mbtiauth_1974
642,"(10, 154, 77)",2,mbtiauth_1974
643,"(10, 154, 787)",2,mbtiauth_1974
644,"(10, 787, 77)",2,mbtiauth_1974
645,"(22, 15, 22)",2,mbtiauth_1974
646,"(22, 22, 15)",2,mbtiauth_1974
647,"(22, 22, 22)",2,mbtiauth_1974
648,"(22, 22, 32)",2,mbtiauth_1974
649,"(22, 32, 50)",2,mbtiauth_1974
650,"(22, 32, 67)",2,mbtiauth_1974
651,"(22, 32, 154)",2,mbtiauth_1974
652,"(22, 41, 22)",2,mbtiauth_1974
653,"(22, 64, 22)",2,mbtiauth_1974
654,"(22, 64, 41)",2,mbtiauth_1974
655,"(22, 77, 123)",2,mbtiauth_1974
656,"(22, 77, 154)",2,mbtiauth_1974
657,"(22, 123, 154)",2,mbtiauth_1974
658,"(22, 154, 65)",2,mbtiauth_1974
659,"(22, 154, 67)",2,mbtiauth_1974
660,"(26, 77, 2)",2,mbtiauth_1974
661,"(26, 77, 64)",2,mbtiauth_1974
662,"(26, 123, 2)",2,mbtiauth_1974
663,"(27, 77, 260)",2,mbtiauth_1974
664,"(28, 26, 2)",3,mbtiauth_1974
665,"(28, 26, 41)",2,mbtiauth_1974
666,"(28, 26, 64)",2,mbtiauth_1974
667,"(28, 26, 77)",5,mbtiauth_1974
668,"(28, 26, 123)",2,mbtiauth_1974
669,"(28, 26, 154)",2,mbtiauth_1974
670,"(28, 26, 164)",2,mbtiauth_1974
671,"(28, 26, 183)",2,mbtiauth_1974
672,"(28, 77, 2)",2,mbtiauth_1974
673,"(28, 77, 64)",2,mbtiauth_1974
674,"(28, 123, 2)",2,mbtiauth_1974
675,"(31, 22, 22)",2,mbtiauth_1974
676,"(31, 22, 154)",2,mbtiauth_1974
677,"(31, 41, 22)",2,mbtiauth_1974
678,"(31, 41, 64)",2,mbtiauth_1974
679,"(31, 64, 22)",2,mbtiauth_1974
680,"(31, 64, 41)",2,mbtiauth_1974
681,"(32, 50, 2)",2,mbtiauth_1974
682,"(32, 50, 67)",2,mbtiauth_1974
683,"(32, 50, 77)",2,mbtiauth_1974
684,"(32, 64, 67)",2,mbtiauth_1974
685,"(32, 77, 2)",2,mbtiauth_1974
686,"(32, 77, 64)",2,mbtiauth_1974
687,"(32, 77, 67)",2,mbtiauth_1974
688,"(32, 77, 123)",2,mbtiauth_1974
689,"(32, 77, 154)",2,mbtiauth_1974
690,"(32, 123, 123)",2,mbtiauth_1974
691,"(32, 123, 154)",2,mbtiauth_1974
692,"(32, 154, 67)",2,mbtiauth_1974
693,"(32, 154, 123)",3,mbtiauth_1974
694,"(41, 2, 41)",2,mbtiauth_1974
695,"(41, 22, 22)",2,mbtiauth_1974
696,"(41, 22, 32)",2,mbtiauth_1974
697,"(41, 22, 41)",2,mbtiauth_1974
698,"(41, 22, 64)",2,mbtiauth_1974
699,"(41, 41, 22)",2,mbtiauth_1974
700,"(41, 41, 41)",2,mbtiauth_1974
701,"(41, 41, 77)",2,mbtiauth_1974
702,"(41, 41, 153)",2,mbtiauth_1974
703,"(41, 64, 22)",3,mbtiauth_1974
704,"(41, 64, 41)",3,mbtiauth_1974
705,"(41, 77, 2)",2,mbtiauth_1974
706,"(41, 77, 41)",3,mbtiauth_1974
707,"(41, 77, 153)",2,mbtiauth_1974
708,"(41, 153, 41)",3,mbtiauth_1974
709,"(41, 153, 77)",2,mbtiauth_1974
710,"(41, 153, 153)",2,mbtiauth_1974
711,"(41, 441, 22)",2,mbtiauth_1974
712,"(50, 2, 10)",2,mbtiauth_1974
713,"(50, 2, 77)",2,mbtiauth_1974
714,"(50, 2, 154)",2,mbtiauth_1974
715,"(50, 2, 852)",2,mbtiauth_1974
716,"(50, 10, 77)",2,mbtiauth_1974
717,"(50, 10, 154)",2,mbtiauth_1974
718,"(50, 10, 787)",2,mbtiauth_1974
719,"(50, 77, 2)",2,mbtiauth_1974
720,"(50, 77, 67)",2,mbtiauth_1974
721,"(50, 154, 77)",2,mbtiauth_1974
722,"(50, 154, 787)",2,mbtiauth_1974
723,"(50, 485, 77)",2,mbtiauth_1974
724,"(50, 485, 154)",2,mbtiauth_1974
725,"(50, 485, 787)",2,mbtiauth_1974
726,"(50, 489, 2)",2,mbtiauth_1974
727,"(50, 489, 10)",2,mbtiauth_1974
728,"(50, 787, 77)",2,mbtiauth_1974
729,"(64, 2, 22)",2,mbtiauth_1974
730,"(64, 2, 64)",2,mbtiauth_1974
731,"(64, 2, 77)",2,mbtiauth_1974
732,"(64, 2, 123)",2,mbtiauth_1974
733,"(64, 2, 154)",3,mbtiauth_1974
734,"(64, 15, 32)",2,mbtiauth_1974
735,"(64, 22, 32)",3,mbtiauth_1974
736,"(64, 32, 2)",2,mbtiauth_1974
737,"(64, 32, 50)",2,mbtiauth_1974
738,"(64, 32, 64)",2,mbtiauth_1974
739,"(64, 32, 77)",4,mbtiauth_1974
740,"(64, 32, 123)",2,mbtiauth_1974
741,"(64, 32, 154)",2,mbtiauth_1974
742,"(64, 41, 22)",3,mbtiauth_1974
743,"(64, 41, 32)",2,mbtiauth_1974
744,"(64, 41, 64)",2,mbtiauth_1974
745,"(64, 50, 2)",3,mbtiauth_1974
746,"(64, 50, 77)",2,mbtiauth_1974
747,"(64, 50, 154)",2,mbtiauth_1974
748,"(64, 64, 2)",2,mbtiauth_1974
749,"(64, 64, 67)",2,mbtiauth_1974
750,"(64, 67, 2)",2,mbtiauth_1974
751,"(64, 67, 77)",2,mbtiauth_1974
752,"(64, 77, 2)",3,mbtiauth_1974
753,"(64, 77, 22)",2,mbtiauth_1974
754,"(64, 77, 64)",3,mbtiauth_1974
755,"(64, 77, 154)",2,mbtiauth_1974
756,"(64, 123, 154)",2,mbtiauth_1974
757,"(64, 693, 64)",2,mbtiauth_1974
758,"(65, 2, 64)",2,mbtiauth_1974
759,"(65, 64, 77)",2,mbtiauth_1974
760,"(65, 64, 411)",2,mbtiauth_1974
761,"(65, 65, 32)",3,mbtiauth_1974
762,"(65, 77, 2)",2,mbtiauth_1974
763,"(65, 77, 16)",2,mbtiauth_1974
764,"(65, 77, 22)",2,mbtiauth_1974
765,"(65, 77, 32)",2,mbtiauth_1974
766,"(65, 77, 64)",4,mbtiauth_1974
767,"(65, 77, 77)",2,mbtiauth_1974
768,"(65, 77, 170)",2,mbtiauth_1974
769,"(65, 77, 599)",3,mbtiauth_1974
770,"(65, 154, 16)",2,mbtiauth_1974
771,"(65, 154, 32)",2,mbtiauth_1974
772,"(65, 154, 1205)",2,mbtiauth_1974
773,"(65, 599, 64)",2,mbtiauth_1974
774,"(65, 671, 22)",2,mbtiauth_1974
775,"(65, 1205, 127)",2,mbtiauth_1974
776,"(66, 193, 31)",2,mbtiauth_1974
777,"(67, 22, 123)",2,mbtiauth_1974
778,"(67, 123, 77)",2,mbtiauth_1974
779,"(70, 64, 2)",2,mbtiauth_1974
780,"(70, 65, 32)",2,mbtiauth_1974
781,"(70, 77, 2)",2,mbtiauth_1974
782,"(70, 77, 77)",2,mbtiauth_1974
783,"(70, 77, 369)",2,mbtiauth_1974
784,"(70, 364, 193)",2,mbtiauth_1974
785,"(77, 2, 16)",2,mbtiauth_1974
786,"(77, 2, 22)",3,mbtiauth_1974
787,"(77, 2, 41)",2,mbtiauth_1974
788,"(77, 2, 64)",5,mbtiauth_1974
789,"(77, 2, 77)",2,mbtiauth_1974
790,"(77, 2, 123)",2,mbtiauth_1974
791,"(77, 2, 154)",2,mbtiauth_1974
792,"(77, 2, 693)",2,mbtiauth_1974
793,"(77, 22, 32)",4,mbtiauth_1974
794,"(77, 22, 64)",2,mbtiauth_1974
795,"(77, 22, 123)",2,mbtiauth_1974
796,"(77, 22, 154)",3,mbtiauth_1974
797,"(77, 22, 365)",2,mbtiauth_1974
798,"(77, 31, 22)",2,mbtiauth_1974
799,"(77, 31, 64)",3,mbtiauth_1974
800,"(77, 31, 154)",2,mbtiauth_1974
801,"(77, 31, 364)",2,mbtiauth_1974
802,"(77, 41, 22)",2,mbtiauth_1974
803,"(77, 41, 41)",2,mbtiauth_1974
804,"(77, 64, 2)",3,mbtiauth_1974
805,"(77, 64, 16)",2,mbtiauth_1974
806,"(77, 64, 22)",3,mbtiauth_1974
807,"(77, 64, 32)",2,mbtiauth_1974
808,"(77, 64, 67)",2,mbtiauth_1974
809,"(77, 64, 77)",2,mbtiauth_1974
810,"(77, 64, 411)",3,mbtiauth_1974
811,"(77, 64, 693)",2,mbtiauth_1974
812,"(77, 65, 32)",2,mbtiauth_1974
813,"(77, 65, 64)",3,mbtiauth_1974
814,"(77, 65, 77)",2,mbtiauth_1974
815,"(77, 77, 2)",3,mbtiauth_1974
816,"(77, 77, 64)",2,mbtiauth_1974
817,"(77, 77, 77)",3,mbtiauth_1974
818,"(77, 77, 123)",2,mbtiauth_1974
819,"(77, 77, 599)",2,mbtiauth_1974
820,"(77, 117, 22)",2,mbtiauth_1974
821,"(77, 123, 2)",3,mbtiauth_1974
822,"(77, 123, 3)",2,mbtiauth_1974
823,"(77, 123, 67)",2,mbtiauth_1974
824,"(77, 123, 117)",2,mbtiauth_1974
825,"(77, 123, 154)",3,mbtiauth_1974
826,"(77, 153, 41)",2,mbtiauth_1974
827,"(77, 154, 22)",4,mbtiauth_1974
828,"(77, 154, 32)",3,mbtiauth_1974
829,"(77, 154, 67)",2,mbtiauth_1974
830,"(77, 154, 123)",2,mbtiauth_1974
831,"(77, 154, 170)",2,mbtiauth_1974
832,"(77, 154, 365)",2,mbtiauth_1974
833,"(77, 193, 955)",2,mbtiauth_1974
834,"(77, 340, 226)",2,mbtiauth_1974
835,"(77, 599, 2)",2,mbtiauth_1974
836,"(77, 599, 22)",3,mbtiauth_1974
837,"(77, 599, 32)",2,mbtiauth_1974
838,"(77, 599, 64)",3,mbtiauth_1974
839,"(77, 599, 77)",2,mbtiauth_1974
840,"(77, 599, 123)",2,mbtiauth_1974
841,"(77, 652, 384)",2,mbtiauth_1974
842,"(77, 693, 32)",2,mbtiauth_1974
843,"(77, 765, 117)",2,mbtiauth_1974
844,"(77, 765, 123)",2,mbtiauth_1974
845,"(78, 65, 260)",2,mbtiauth_1974
846,"(117, 671, 154)",2,mbtiauth_1974
847,"(123, 10, 1859)",2,mbtiauth_1974
848,"(123, 22, 32)",2,mbtiauth_1974
849,"(123, 22, 50)",2,mbtiauth_1974
850,"(123, 22, 123)",2,mbtiauth_1974
851,"(123, 32, 50)",2,mbtiauth_1974
852,"(123, 67, 22)",2,mbtiauth_1974
853,"(123, 67, 117)",2,mbtiauth_1974
854,"(123, 77, 2)",2,mbtiauth_1974
855,"(123, 77, 22)",2,mbtiauth_1974
856,"(123, 77, 123)",3,mbtiauth_1974
857,"(123, 77, 152)",2,mbtiauth_1974
858,"(123, 77, 154)",2,mbtiauth_1974
859,"(123, 77, 599)",2,mbtiauth_1974
860,"(123, 77, 965)",2,mbtiauth_1974
861,"(123, 123, 77)",4,mbtiauth_1974
862,"(123, 123, 117)",2,mbtiauth_1974
863,"(123, 123, 356)",2,mbtiauth_1974
864,"(123, 123, 407)",2,mbtiauth_1974
865,"(123, 154, 22)",3,mbtiauth_1974
866,"(123, 154, 50)",2,mbtiauth_1974
867,"(123, 154, 67)",2,mbtiauth_1974
868,"(123, 154, 117)",2,mbtiauth_1974
869,"(123, 154, 123)",3,mbtiauth_1974
870,"(123, 164, 32)",2,mbtiauth_1974
871,"(123, 165, 77)",3,mbtiauth_1974
872,"(123, 193, 77)",2,mbtiauth_1974
873,"(123, 295, 599)",2,mbtiauth_1974
874,"(123, 407, 3)",2,mbtiauth_1974
875,"(123, 441, 50)",2,mbtiauth_1974
876,"(123, 543, 117)",2,mbtiauth_1974
877,"(123, 543, 152)",2,mbtiauth_1974
878,"(123, 599, 22)",2,mbtiauth_1974
879,"(123, 765, 77)",2,mbtiauth_1974
880,"(123, 765, 123)",2,mbtiauth_1974
881,"(123, 1141, 152)",3,mbtiauth_1974
882,"(152, 31, 64)",2,mbtiauth_1974
883,"(152, 77, 154)",2,mbtiauth_1974
884,"(153, 41, 41)",2,mbtiauth_1974
885,"(153, 41, 77)",2,mbtiauth_1974
886,"(153, 41, 153)",2,mbtiauth_1974
887,"(153, 77, 41)",2,mbtiauth_1974
888,"(153, 77, 153)",2,mbtiauth_1974
889,"(153, 153, 41)",2,mbtiauth_1974
890,"(154, 10, 22)",2,mbtiauth_1974
891,"(154, 15, 22)",2,mbtiauth_1974
892,"(154, 22, 123)",2,mbtiauth_1974
893,"(154, 22, 365)",2,mbtiauth_1974
894,"(154, 31, 77)",2,mbtiauth_1974
895,"(154, 64, 2)",2,mbtiauth_1974
896,"(154, 67, 22)",2,mbtiauth_1974
897,"(154, 67, 117)",2,mbtiauth_1974
898,"(154, 77, 2)",2,mbtiauth_1974
899,"(154, 123, 32)",2,mbtiauth_1974
900,"(154, 123, 117)",2,mbtiauth_1974
901,"(154, 170, 2)",2,mbtiauth_1974
902,"(154, 170, 77)",2,mbtiauth_1974
903,"(154, 193, 77)",2,mbtiauth_1974
904,"(154, 260, 32)",2,mbtiauth_1974
905,"(154, 787, 77)",2,mbtiauth_1974
906,"(164, 22, 32)",2,mbtiauth_1974
907,"(164, 32, 77)",2,mbtiauth_1974
908,"(164, 64, 32)",2,mbtiauth_1974
909,"(164, 64, 77)",2,mbtiauth_1974
910,"(164, 77, 2)",2,mbtiauth_1974
911,"(164, 77, 32)",2,mbtiauth_1974
912,"(164, 693, 32)",2,mbtiauth_1974
913,"(170, 65, 154)",2,mbtiauth_1974
914,"(170, 77, 22)",2,mbtiauth_1974
915,"(170, 236, 212)",2,mbtiauth_1974
916,"(170, 2395, 4784)",2,mbtiauth_1974
917,"(170, 4784, 4784)",2,mbtiauth_1974
918,"(193, 15, 22)",2,mbtiauth_1974
919,"(193, 31, 64)",2,mbtiauth_1974
920,"(193, 31, 364)",2,mbtiauth_1974
921,"(193, 65, 260)",2,mbtiauth_1974
922,"(193, 77, 64)",2,mbtiauth_1974
923,"(193, 77, 233)",2,mbtiauth_1974
924,"(193, 77, 965)",2,mbtiauth_1974
925,"(193, 78, 65)",2,mbtiauth_1974
926,"(193, 78, 77)",2,mbtiauth_1974
927,"(193, 78, 260)",2,mbtiauth_1974
928,"(193, 154, 15)",2,mbtiauth_1974
929,"(193, 154, 22)",2,mbtiauth_1974
930,"(208, 22, 441)",2,mbtiauth_1974
931,"(212, 1205, 127)",2,mbtiauth_1974
932,"(233, 2643, 364)",2,mbtiauth_1974
933,"(236, 117, 154)",2,mbtiauth_1974
934,"(236, 117, 671)",2,mbtiauth_1974
935,"(236, 170, 77)",2,mbtiauth_1974
936,"(236, 193, 31)",2,mbtiauth_1974
937,"(236, 193, 154)",2,mbtiauth_1974
938,"(236, 543, 117)",2,mbtiauth_1974
939,"(236, 543, 154)",2,mbtiauth_1974
940,"(236, 543, 671)",2,mbtiauth_1974
941,"(236, 671, 154)",2,mbtiauth_1974
942,"(291, 77, 260)",2,mbtiauth_1974
943,"(291, 222, 77)",2,mbtiauth_1974
944,"(295, 22, 32)",2,mbtiauth_1974
945,"(295, 77, 22)",2,mbtiauth_1974
946,"(295, 77, 32)",2,mbtiauth_1974
947,"(295, 599, 22)",2,mbtiauth_1974
948,"(295, 599, 32)",2,mbtiauth_1974
949,"(295, 1607, 164)",2,mbtiauth_1974
950,"(381, 2, 2)",2,mbtiauth_1974
951,"(381, 2, 31)",2,mbtiauth_1974
952,"(417, 77, 64)",2,mbtiauth_1974
953,"(441, 22, 22)",2,mbtiauth_1974
954,"(485, 154, 77)",2,mbtiauth_1974
955,"(485, 154, 787)",2,mbtiauth_1974
956,"(485, 787, 77)",2,mbtiauth_1974
957,"(489, 2, 10)",2,mbtiauth_1974
958,"(543, 117, 154)",2,mbtiauth_1974
959,"(543, 117, 193)",2,mbtiauth_1974
960,"(543, 117, 671)",2,mbtiauth_1974
961,"(543, 671, 154)",2,mbtiauth_1974
962,"(599, 22, 32)",2,mbtiauth_1974
963,"(599, 22, 123)",2,mbtiauth_1974
964,"(599, 22, 154)",2,mbtiauth_1974
965,"(599, 32, 154)",2,mbtiauth_1974
966,"(599, 64, 2)",2,mbtiauth_1974
967,"(599, 64, 22)",2,mbtiauth_1974
968,"(599, 64, 77)",2,mbtiauth_1974
969,"(599, 64, 154)",2,mbtiauth_1974
970,"(599, 77, 154)",2,mbtiauth_1974
971,"(613, 66, 77)",2,mbtiauth_1974
972,"(693, 32, 77)",2,mbtiauth_1974
973,"(765, 123, 117)",2,mbtiauth_1974
974,"(1141, 77, 152)",2,mbtiauth_1974
975,"(1793, 64, 154)",2,mbtiauth_1974
976,"(2395, 4784, 67)",2,mbtiauth_1974
977,"(4784, 4784, 67)",2,mbtiauth_1974
978,"(2, 2, 2, 31)",2,mbtiauth_1974
979,"(2, 65, 2, 64)",2,mbtiauth_1974
980,"(2, 65, 77, 2)",2,mbtiauth_1974
981,"(2, 65, 77, 64)",2,mbtiauth_1974
982,"(2, 77, 2, 64)",2,mbtiauth_1974
983,"(2, 77, 154, 22)",2,mbtiauth_1974
984,"(2, 77, 154, 123)",2,mbtiauth_1974
985,"(2, 77, 599, 22)",2,mbtiauth_1974
986,"(2, 123, 154, 22)",2,mbtiauth_1974
987,"(2, 123, 154, 123)",2,mbtiauth_1974
988,"(2, 381, 2, 2)",2,mbtiauth_1974
989,"(2, 381, 2, 31)",2,mbtiauth_1974
990,"(8, 28, 26, 77)",4,mbtiauth_1974
991,"(10, 154, 787, 77)",2,mbtiauth_1974
992,"(22, 22, 15, 22)",2,mbtiauth_1974
993,"(22, 32, 154, 67)",2,mbtiauth_1974
994,"(22, 64, 41, 22)",2,mbtiauth_1974
995,"(22, 77, 123, 154)",2,mbtiauth_1974
996,"(28, 26, 77, 2)",2,mbtiauth_1974
997,"(28, 26, 77, 64)",2,mbtiauth_1974
998,"(28, 26, 123, 2)",2,mbtiauth_1974
999,"(31, 41, 64, 22)",2,mbtiauth_1974
1000,"(31, 64, 41, 22)",2,mbtiauth_1974
1001,"(32, 50, 77, 67)",2,mbtiauth_1974
1002,"(32, 77, 154, 123)",2,mbtiauth_1974
1003,"(32, 123, 154, 123)",2,mbtiauth_1974
1004,"(41, 22, 64, 41)",2,mbtiauth_1974
1005,"(41, 41, 77, 41)",2,mbtiauth_1974
1006,"(41, 41, 77, 153)",2,mbtiauth_1974
1007,"(41, 41, 153, 41)",2,mbtiauth_1974
1008,"(41, 64, 41, 22)",2,mbtiauth_1974
1009,"(41, 77, 2, 41)",2,mbtiauth_1974
1010,"(41, 77, 153, 41)",2,mbtiauth_1974
1011,"(41, 153, 41, 41)",2,mbtiauth_1974
1012,"(41, 153, 41, 77)",2,mbtiauth_1974
1013,"(41, 153, 41, 153)",2,mbtiauth_1974
1014,"(41, 153, 77, 41)",2,mbtiauth_1974
1015,"(41, 153, 77, 153)",2,mbtiauth_1974
1016,"(41, 153, 153, 41)",2,mbtiauth_1974
1017,"(41, 441, 22, 22)",2,mbtiauth_1974
1018,"(50, 10, 154, 77)",2,mbtiauth_1974
1019,"(50, 10, 154, 787)",2,mbtiauth_1974
1020,"(50, 10, 787, 77)",2,mbtiauth_1974
1021,"(50, 154, 787, 77)",2,mbtiauth_1974
1022,"(50, 485, 154, 77)",2,mbtiauth_1974
1023,"(50, 485, 154, 787)",2,mbtiauth_1974
1024,"(50, 485, 787, 77)",2,mbtiauth_1974
1025,"(50, 489, 2, 10)",2,mbtiauth_1974
1026,"(64, 2, 77, 154)",2,mbtiauth_1974
1027,"(64, 2, 123, 154)",2,mbtiauth_1974
1028,"(64, 32, 50, 2)",2,mbtiauth_1974
1029,"(64, 32, 50, 77)",2,mbtiauth_1974
1030,"(64, 32, 77, 64)",2,mbtiauth_1974
1031,"(64, 32, 77, 154)",2,mbtiauth_1974
1032,"(64, 32, 123, 154)",2,mbtiauth_1974
1033,"(64, 41, 22, 32)",2,mbtiauth_1974
1034,"(64, 50, 2, 154)",2,mbtiauth_1974
1035,"(65, 77, 2, 64)",2,mbtiauth_1974
1036,"(65, 77, 599, 64)",2,mbtiauth_1974
1037,"(77, 2, 64, 22)",2,mbtiauth_1974
1038,"(77, 65, 77, 64)",2,mbtiauth_1974
1039,"(77, 77, 77, 77)",3,mbtiauth_1974
1040,"(77, 154, 22, 365)",2,mbtiauth_1974
1041,"(77, 599, 22, 123)",2,mbtiauth_1974
1042,"(77, 599, 64, 22)",2,mbtiauth_1974
1043,"(77, 599, 64, 77)",2,mbtiauth_1974
1044,"(77, 765, 123, 117)",2,mbtiauth_1974
1045,"(123, 22, 32, 50)",2,mbtiauth_1974
1046,"(123, 77, 599, 22)",2,mbtiauth_1974
1047,"(123, 154, 22, 123)",2,mbtiauth_1974
1048,"(123, 154, 67, 22)",2,mbtiauth_1974
1049,"(123, 154, 67, 117)",2,mbtiauth_1974
1050,"(123, 154, 123, 117)",2,mbtiauth_1974
1051,"(153, 41, 77, 41)",2,mbtiauth_1974
1052,"(153, 41, 77, 153)",2,mbtiauth_1974
1053,"(153, 41, 153, 41)",2,mbtiauth_1974
1054,"(153, 77, 153, 41)",2,mbtiauth_1974
1055,"(164, 64, 32, 77)",2,mbtiauth_1974
1056,"(193, 78, 65, 260)",2,mbtiauth_1974
1057,"(193, 154, 15, 22)",2,mbtiauth_1974
1058,"(236, 117, 671, 154)",2,mbtiauth_1974
1059,"(236, 543, 117, 154)",2,mbtiauth_1974
1060,"(236, 543, 117, 671)",2,mbtiauth_1974
1061,"(236, 543, 671, 154)",2,mbtiauth_1974
1062,"(295, 77, 22, 32)",2,mbtiauth_1974
1063,"(295, 599, 22, 32)",2,mbtiauth_1974
1064,"(381, 2, 2, 31)",2,mbtiauth_1974
1065,"(485, 154, 787, 77)",2,mbtiauth_1974
1066,"(543, 117, 671, 154)",2,mbtiauth_1974
1067,"(599, 22, 32, 154)",2,mbtiauth_1974
1068,"(2, 65, 77, 2, 64)",2,mbtiauth_1974
1069,"(2, 381, 2, 2, 31)",2,mbtiauth_1974
1070,"(41, 41, 77, 153, 41)",2,mbtiauth_1974
1071,"(41, 153, 41, 77, 41)",2,mbtiauth_1974
1072,"(41, 153, 41, 77, 153)",2,mbtiauth_1974
1073,"(41, 153, 41, 153, 41)",2,mbtiauth_1974
1074,"(41, 153, 77, 153, 41)",2,mbtiauth_1974
1075,"(50, 10, 154, 787, 77)",2,mbtiauth_1974
1076,"(50, 485, 154, 787, 77)",2,mbtiauth_1974
1077,"(77, 77, 77, 77, 77)",3,mbtiauth_1974
1078,"(153, 41, 77, 153, 41)",2,mbtiauth_1974
1079,"(236, 543, 117, 671, 154)",2,mbtiauth_1974
1080,"(41, 153, 41, 77, 153, 41)",2,mbtiauth_1974
1081,"(77, 77, 77, 77, 77, 77)",3,mbtiauth_1974
1082,"(77, 77, 77, 77, 77, 77, 77)",3,mbtiauth_1974
1083,"(77, 77, 77, 77, 77, 77, 77, 77)",3,mbtiauth_1974
