,pattern,sup,author
1583,"(2, 2, 41)",2,mbtiauth_8137
1584,"(2, 2, 77)",3,mbtiauth_8137
1585,"(2, 10, 78)",2,mbtiauth_8137
1586,"(2, 22, 77)",2,mbtiauth_8137
1587,"(2, 29, 77)",2,mbtiauth_8137
1588,"(2, 29, 317)",2,mbtiauth_8137
1589,"(2, 32, 29)",2,mbtiauth_8137
1590,"(2, 41, 32)",2,mbtiauth_8137
1591,"(2, 41, 77)",2,mbtiauth_8137
1592,"(2, 41, 369)",2,mbtiauth_8137
1593,"(2, 64, 2)",2,mbtiauth_8137
1594,"(2, 64, 32)",2,mbtiauth_8137
1595,"(2, 64, 64)",3,mbtiauth_8137
1596,"(2, 64, 65)",2,mbtiauth_8137
1597,"(2, 64, 77)",3,mbtiauth_8137
1598,"(2, 64, 78)",2,mbtiauth_8137
1599,"(2, 64, 144)",2,mbtiauth_8137
1600,"(2, 64, 222)",4,mbtiauth_8137
1601,"(2, 64, 225)",2,mbtiauth_8137
1602,"(2, 64, 356)",2,mbtiauth_8137
1603,"(2, 64, 369)",2,mbtiauth_8137
1604,"(2, 64, 599)",3,mbtiauth_8137
1605,"(2, 65, 2)",2,mbtiauth_8137
1606,"(2, 65, 41)",2,mbtiauth_8137
1607,"(2, 65, 77)",2,mbtiauth_8137
1608,"(2, 65, 78)",2,mbtiauth_8137
1609,"(2, 65, 1219)",2,mbtiauth_8137
1610,"(2, 67, 77)",2,mbtiauth_8137
1611,"(2, 77, 2)",2,mbtiauth_8137
1612,"(2, 77, 41)",2,mbtiauth_8137
1613,"(2, 77, 64)",3,mbtiauth_8137
1614,"(2, 77, 77)",5,mbtiauth_8137
1615,"(2, 77, 123)",2,mbtiauth_8137
1616,"(2, 77, 212)",2,mbtiauth_8137
1617,"(2, 77, 441)",2,mbtiauth_8137
1618,"(2, 77, 599)",4,mbtiauth_8137
1619,"(2, 77, 638)",2,mbtiauth_8137
1620,"(2, 78, 2)",2,mbtiauth_8137
1621,"(2, 78, 78)",2,mbtiauth_8137
1622,"(2, 123, 32)",2,mbtiauth_8137
1623,"(2, 123, 64)",5,mbtiauth_8137
1624,"(2, 123, 65)",2,mbtiauth_8137
1625,"(2, 123, 77)",2,mbtiauth_8137
1626,"(2, 123, 123)",2,mbtiauth_8137
1627,"(2, 123, 144)",2,mbtiauth_8137
1628,"(2, 123, 193)",2,mbtiauth_8137
1629,"(2, 123, 441)",2,mbtiauth_8137
1630,"(2, 123, 599)",2,mbtiauth_8137
1631,"(2, 144, 77)",2,mbtiauth_8137
1632,"(2, 144, 599)",2,mbtiauth_8137
1633,"(2, 145, 32)",2,mbtiauth_8137
1634,"(2, 152, 123)",2,mbtiauth_8137
1635,"(2, 154, 22)",2,mbtiauth_8137
1636,"(2, 154, 123)",2,mbtiauth_8137
1637,"(2, 164, 77)",3,mbtiauth_8137
1638,"(2, 164, 225)",2,mbtiauth_8137
1639,"(2, 164, 599)",2,mbtiauth_8137
1640,"(2, 165, 67)",2,mbtiauth_8137
1641,"(2, 165, 77)",2,mbtiauth_8137
1642,"(2, 165, 441)",2,mbtiauth_8137
1643,"(2, 170, 32)",2,mbtiauth_8137
1644,"(2, 171, 10)",2,mbtiauth_8137
1645,"(2, 171, 365)",2,mbtiauth_8137
1646,"(2, 174, 64)",2,mbtiauth_8137
1647,"(2, 183, 164)",2,mbtiauth_8137
1648,"(2, 198, 32)",2,mbtiauth_8137
1649,"(2, 198, 64)",2,mbtiauth_8137
1650,"(2, 198, 145)",2,mbtiauth_8137
1651,"(2, 198, 220)",2,mbtiauth_8137
1652,"(2, 201, 369)",2,mbtiauth_8137
1653,"(2, 220, 32)",2,mbtiauth_8137
1654,"(2, 222, 356)",2,mbtiauth_8137
1655,"(2, 225, 64)",2,mbtiauth_8137
1656,"(2, 225, 77)",2,mbtiauth_8137
1657,"(2, 225, 222)",2,mbtiauth_8137
1658,"(2, 225, 356)",2,mbtiauth_8137
1659,"(2, 225, 599)",3,mbtiauth_8137
1660,"(2, 226, 64)",2,mbtiauth_8137
1661,"(2, 349, 183)",2,mbtiauth_8137
1662,"(2, 365, 10)",2,mbtiauth_8137
1663,"(2, 369, 32)",3,mbtiauth_8137
1664,"(2, 369, 64)",3,mbtiauth_8137
1665,"(2, 369, 145)",2,mbtiauth_8137
1666,"(2, 369, 222)",2,mbtiauth_8137
1667,"(2, 441, 64)",4,mbtiauth_8137
1668,"(2, 599, 16)",2,mbtiauth_8137
1669,"(2, 599, 64)",3,mbtiauth_8137
1670,"(2, 599, 123)",3,mbtiauth_8137
1671,"(2, 599, 226)",2,mbtiauth_8137
1672,"(2, 599, 441)",2,mbtiauth_8137
1673,"(3, 65, 77)",2,mbtiauth_8137
1674,"(3, 65, 123)",2,mbtiauth_8137
1675,"(3, 77, 123)",2,mbtiauth_8137
1676,"(3, 77, 193)",2,mbtiauth_8137
1677,"(3, 77, 599)",2,mbtiauth_8137
1678,"(3, 123, 193)",2,mbtiauth_8137
1679,"(3, 599, 123)",2,mbtiauth_8137
1680,"(3, 599, 193)",2,mbtiauth_8137
1681,"(10, 10, 280)",2,mbtiauth_8137
1682,"(10, 22, 77)",2,mbtiauth_8137
1683,"(10, 22, 151)",2,mbtiauth_8137
1684,"(10, 27, 41)",2,mbtiauth_8137
1685,"(10, 29, 77)",2,mbtiauth_8137
1686,"(10, 29, 972)",2,mbtiauth_8137
1687,"(10, 65, 151)",2,mbtiauth_8137
1688,"(10, 77, 22)",2,mbtiauth_8137
1689,"(10, 77, 77)",2,mbtiauth_8137
1690,"(10, 77, 151)",2,mbtiauth_8137
1691,"(10, 77, 599)",2,mbtiauth_8137
1692,"(10, 123, 64)",2,mbtiauth_8137
1693,"(10, 123, 77)",2,mbtiauth_8137
1694,"(10, 183, 520)",2,mbtiauth_8137
1695,"(10, 280, 183)",2,mbtiauth_8137
1696,"(10, 280, 520)",2,mbtiauth_8137
1697,"(10, 599, 77)",2,mbtiauth_8137
1698,"(10, 599, 123)",2,mbtiauth_8137
1699,"(10, 683, 280)",2,mbtiauth_8137
1700,"(10, 972, 77)",2,mbtiauth_8137
1701,"(16, 1191, 123)",2,mbtiauth_8137
1702,"(22, 2, 64)",2,mbtiauth_8137
1703,"(22, 10, 22)",2,mbtiauth_8137
1704,"(22, 10, 29)",2,mbtiauth_8137
1705,"(22, 22, 77)",2,mbtiauth_8137
1706,"(22, 22, 151)",2,mbtiauth_8137
1707,"(22, 22, 170)",2,mbtiauth_8137
1708,"(22, 54, 144)",2,mbtiauth_8137
1709,"(22, 54, 170)",2,mbtiauth_8137
1710,"(22, 64, 10)",2,mbtiauth_8137
1711,"(22, 64, 193)",2,mbtiauth_8137
1712,"(22, 65, 151)",2,mbtiauth_8137
1713,"(22, 66, 77)",2,mbtiauth_8137
1714,"(22, 66, 657)",2,mbtiauth_8137
1715,"(22, 77, 22)",2,mbtiauth_8137
1716,"(22, 77, 65)",2,mbtiauth_8137
1717,"(22, 77, 77)",3,mbtiauth_8137
1718,"(22, 77, 151)",2,mbtiauth_8137
1719,"(22, 77, 168)",2,mbtiauth_8137
1720,"(22, 77, 193)",2,mbtiauth_8137
1721,"(22, 123, 2)",2,mbtiauth_8137
1722,"(22, 123, 22)",3,mbtiauth_8137
1723,"(22, 123, 77)",2,mbtiauth_8137
1724,"(22, 123, 151)",2,mbtiauth_8137
1725,"(22, 123, 165)",2,mbtiauth_8137
1726,"(22, 123, 226)",2,mbtiauth_8137
1727,"(22, 123, 340)",2,mbtiauth_8137
1728,"(22, 144, 193)",2,mbtiauth_8137
1729,"(22, 151, 193)",2,mbtiauth_8137
1730,"(22, 170, 64)",2,mbtiauth_8137
1731,"(22, 170, 144)",2,mbtiauth_8137
1732,"(22, 170, 151)",2,mbtiauth_8137
1733,"(22, 193, 10)",3,mbtiauth_8137
1734,"(22, 193, 22)",2,mbtiauth_8137
1735,"(22, 193, 151)",2,mbtiauth_8137
1736,"(22, 193, 591)",2,mbtiauth_8137
1737,"(22, 201, 64)",2,mbtiauth_8137
1738,"(22, 212, 193)",2,mbtiauth_8137
1739,"(22, 225, 22)",2,mbtiauth_8137
1740,"(22, 225, 222)",2,mbtiauth_8137
1741,"(22, 322, 384)",2,mbtiauth_8137
1742,"(22, 340, 22)",2,mbtiauth_8137
1743,"(22, 340, 77)",2,mbtiauth_8137
1744,"(22, 443, 443)",2,mbtiauth_8137
1745,"(22, 599, 22)",2,mbtiauth_8137
1746,"(22, 599, 120)",2,mbtiauth_8137
1747,"(22, 599, 123)",2,mbtiauth_8137
1748,"(22, 599, 144)",2,mbtiauth_8137
1749,"(22, 1411, 193)",2,mbtiauth_8137
1750,"(22, 1411, 591)",2,mbtiauth_8137
1751,"(27, 41, 123)",2,mbtiauth_8137
1752,"(27, 41, 286)",2,mbtiauth_8137
1753,"(27, 144, 41)",2,mbtiauth_8137
1754,"(29, 77, 78)",2,mbtiauth_8137
1755,"(29, 78, 326)",2,mbtiauth_8137
1756,"(29, 972, 77)",2,mbtiauth_8137
1757,"(31, 41, 77)",2,mbtiauth_8137
1758,"(31, 66, 657)",2,mbtiauth_8137
1759,"(31, 77, 64)",2,mbtiauth_8137
1760,"(31, 77, 193)",2,mbtiauth_8137
1761,"(31, 123, 65)",2,mbtiauth_8137
1762,"(31, 170, 10)",2,mbtiauth_8137
1763,"(31, 170, 64)",2,mbtiauth_8137
1764,"(31, 193, 326)",2,mbtiauth_8137
1765,"(31, 262, 64)",2,mbtiauth_8137
1766,"(32, 2, 67)",2,mbtiauth_8137
1767,"(32, 2, 165)",2,mbtiauth_8137
1768,"(32, 22, 2)",2,mbtiauth_8137
1769,"(32, 22, 123)",2,mbtiauth_8137
1770,"(32, 77, 2)",3,mbtiauth_8137
1771,"(32, 120, 64)",2,mbtiauth_8137
1772,"(32, 120, 77)",2,mbtiauth_8137
1773,"(32, 120, 441)",2,mbtiauth_8137
1774,"(32, 123, 2)",2,mbtiauth_8137
1775,"(32, 123, 64)",2,mbtiauth_8137
1776,"(32, 123, 67)",2,mbtiauth_8137
1777,"(32, 123, 77)",2,mbtiauth_8137
1778,"(32, 123, 120)",2,mbtiauth_8137
1779,"(32, 123, 165)",2,mbtiauth_8137
1780,"(32, 123, 441)",2,mbtiauth_8137
1781,"(32, 154, 64)",2,mbtiauth_8137
1782,"(32, 165, 67)",2,mbtiauth_8137
1783,"(32, 280, 77)",2,mbtiauth_8137
1784,"(32, 280, 123)",2,mbtiauth_8137
1785,"(32, 441, 64)",2,mbtiauth_8137
1786,"(33, 10, 22)",2,mbtiauth_8137
1787,"(33, 123, 174)",2,mbtiauth_8137
1788,"(33, 280, 123)",2,mbtiauth_8137
1789,"(33, 599, 123)",2,mbtiauth_8137
1790,"(41, 2, 77)",2,mbtiauth_8137
1791,"(41, 10, 29)",2,mbtiauth_8137
1792,"(41, 29, 78)",2,mbtiauth_8137
1793,"(41, 29, 317)",2,mbtiauth_8137
1794,"(41, 32, 29)",2,mbtiauth_8137
1795,"(41, 64, 29)",2,mbtiauth_8137
1796,"(41, 64, 32)",2,mbtiauth_8137
1797,"(41, 64, 322)",2,mbtiauth_8137
1798,"(41, 77, 77)",3,mbtiauth_8137
1799,"(41, 123, 174)",3,mbtiauth_8137
1800,"(41, 134, 64)",2,mbtiauth_8137
1801,"(41, 154, 22)",2,mbtiauth_8137
1802,"(41, 160, 64)",2,mbtiauth_8137
1803,"(41, 164, 77)",2,mbtiauth_8137
1804,"(41, 170, 29)",2,mbtiauth_8137
1805,"(41, 170, 32)",2,mbtiauth_8137
1806,"(41, 183, 22)",2,mbtiauth_8137
1807,"(41, 183, 64)",2,mbtiauth_8137
1808,"(41, 183, 154)",2,mbtiauth_8137
1809,"(41, 183, 326)",2,mbtiauth_8137
1810,"(41, 183, 520)",2,mbtiauth_8137
1811,"(41, 286, 123)",2,mbtiauth_8137
1812,"(41, 322, 77)",2,mbtiauth_8137
1813,"(41, 322, 1263)",2,mbtiauth_8137
1814,"(41, 369, 32)",2,mbtiauth_8137
1815,"(41, 443, 64)",2,mbtiauth_8137
1816,"(41, 443, 160)",2,mbtiauth_8137
1817,"(41, 1263, 77)",2,mbtiauth_8137
1818,"(41, 3150, 1165)",2,mbtiauth_8137
1819,"(42, 77, 77)",2,mbtiauth_8137
1820,"(48, 2, 64)",2,mbtiauth_8137
1821,"(50, 2, 152)",2,mbtiauth_8137
1822,"(50, 77, 123)",2,mbtiauth_8137
1823,"(50, 123, 22)",2,mbtiauth_8137
1824,"(50, 154, 22)",2,mbtiauth_8137
1825,"(50, 225, 22)",2,mbtiauth_8137
1826,"(50, 2958, 154)",2,mbtiauth_8137
1827,"(57, 41, 29)",2,mbtiauth_8137
1828,"(64, 2, 41)",2,mbtiauth_8137
1829,"(64, 2, 64)",5,mbtiauth_8137
1830,"(64, 2, 77)",2,mbtiauth_8137
1831,"(64, 2, 164)",3,mbtiauth_8137
1832,"(64, 2, 183)",2,mbtiauth_8137
1833,"(64, 2, 256)",2,mbtiauth_8137
1834,"(64, 2, 369)",2,mbtiauth_8137
1835,"(64, 10, 22)",2,mbtiauth_8137
1836,"(64, 10, 32)",2,mbtiauth_8137
1837,"(64, 10, 65)",2,mbtiauth_8137
1838,"(64, 22, 2)",2,mbtiauth_8137
1839,"(64, 22, 33)",2,mbtiauth_8137
1840,"(64, 22, 64)",3,mbtiauth_8137
1841,"(64, 22, 123)",3,mbtiauth_8137
1842,"(64, 22, 225)",2,mbtiauth_8137
1843,"(64, 32, 29)",2,mbtiauth_8137
1844,"(64, 41, 22)",2,mbtiauth_8137
1845,"(64, 41, 77)",3,mbtiauth_8137
1846,"(64, 41, 164)",2,mbtiauth_8137
1847,"(64, 41, 183)",2,mbtiauth_8137
1848,"(64, 64, 10)",2,mbtiauth_8137
1849,"(64, 64, 65)",2,mbtiauth_8137
1850,"(64, 64, 67)",2,mbtiauth_8137
1851,"(64, 64, 78)",2,mbtiauth_8137
1852,"(64, 64, 144)",3,mbtiauth_8137
1853,"(64, 64, 222)",2,mbtiauth_8137
1854,"(64, 64, 599)",2,mbtiauth_8137
1855,"(64, 65, 22)",2,mbtiauth_8137
1856,"(64, 65, 41)",2,mbtiauth_8137
1857,"(64, 65, 64)",2,mbtiauth_8137
1858,"(64, 65, 78)",2,mbtiauth_8137
1859,"(64, 65, 123)",2,mbtiauth_8137
1860,"(64, 65, 220)",2,mbtiauth_8137
1861,"(64, 65, 1219)",2,mbtiauth_8137
1862,"(64, 77, 64)",3,mbtiauth_8137
1863,"(64, 77, 77)",2,mbtiauth_8137
1864,"(64, 77, 123)",2,mbtiauth_8137
1865,"(64, 77, 256)",2,mbtiauth_8137
1866,"(64, 78, 22)",2,mbtiauth_8137
1867,"(64, 78, 41)",2,mbtiauth_8137
1868,"(64, 78, 77)",2,mbtiauth_8137
1869,"(64, 78, 78)",2,mbtiauth_8137
1870,"(64, 78, 220)",2,mbtiauth_8137
1871,"(64, 79, 198)",2,mbtiauth_8137
1872,"(64, 123, 22)",2,mbtiauth_8137
1873,"(64, 123, 64)",2,mbtiauth_8137
1874,"(64, 123, 123)",3,mbtiauth_8137
1875,"(64, 123, 144)",3,mbtiauth_8137
1876,"(64, 123, 154)",2,mbtiauth_8137
1877,"(64, 123, 201)",2,mbtiauth_8137
1878,"(64, 123, 256)",2,mbtiauth_8137
1879,"(64, 144, 22)",2,mbtiauth_8137
1880,"(64, 144, 65)",2,mbtiauth_8137
1881,"(64, 144, 77)",2,mbtiauth_8137
1882,"(64, 144, 225)",2,mbtiauth_8137
1883,"(64, 144, 599)",2,mbtiauth_8137
1884,"(64, 154, 22)",3,mbtiauth_8137
1885,"(64, 154, 31)",2,mbtiauth_8137
1886,"(64, 154, 65)",2,mbtiauth_8137
1887,"(64, 164, 77)",2,mbtiauth_8137
1888,"(64, 183, 164)",2,mbtiauth_8137
1889,"(64, 193, 10)",2,mbtiauth_8137
1890,"(64, 198, 64)",2,mbtiauth_8137
1891,"(64, 213, 225)",3,mbtiauth_8137
1892,"(64, 222, 2)",2,mbtiauth_8137
1893,"(64, 222, 31)",2,mbtiauth_8137
1894,"(64, 222, 64)",2,mbtiauth_8137
1895,"(64, 222, 144)",2,mbtiauth_8137
1896,"(64, 222, 154)",2,mbtiauth_8137
1897,"(64, 222, 356)",2,mbtiauth_8137
1898,"(64, 225, 77)",2,mbtiauth_8137
1899,"(64, 225, 123)",2,mbtiauth_8137
1900,"(64, 225, 154)",3,mbtiauth_8137
1901,"(64, 225, 222)",2,mbtiauth_8137
1902,"(64, 225, 356)",2,mbtiauth_8137
1903,"(64, 225, 599)",2,mbtiauth_8137
1904,"(64, 225, 5779)",2,mbtiauth_8137
1905,"(64, 349, 64)",2,mbtiauth_8137
1906,"(64, 365, 64)",2,mbtiauth_8137
1907,"(64, 369, 64)",3,mbtiauth_8137
1908,"(64, 599, 123)",2,mbtiauth_8137
1909,"(64, 765, 599)",2,mbtiauth_8137
1910,"(64, 1313, 64)",2,mbtiauth_8137
1911,"(65, 2, 41)",2,mbtiauth_8137
1912,"(65, 2, 77)",2,mbtiauth_8137
1913,"(65, 22, 22)",2,mbtiauth_8137
1914,"(65, 22, 77)",2,mbtiauth_8137
1915,"(65, 22, 123)",2,mbtiauth_8137
1916,"(65, 22, 193)",2,mbtiauth_8137
1917,"(65, 32, 64)",2,mbtiauth_8137
1918,"(65, 32, 154)",2,mbtiauth_8137
1919,"(65, 41, 77)",2,mbtiauth_8137
1920,"(65, 41, 170)",2,mbtiauth_8137
1921,"(65, 64, 144)",2,mbtiauth_8137
1922,"(65, 77, 2)",2,mbtiauth_8137
1923,"(65, 77, 10)",2,mbtiauth_8137
1924,"(65, 77, 22)",4,mbtiauth_8137
1925,"(65, 77, 41)",2,mbtiauth_8137
1926,"(65, 77, 77)",2,mbtiauth_8137
1927,"(65, 77, 123)",3,mbtiauth_8137
1928,"(65, 77, 170)",2,mbtiauth_8137
1929,"(65, 77, 193)",2,mbtiauth_8137
1930,"(65, 78, 78)",2,mbtiauth_8137
1931,"(65, 78, 220)",2,mbtiauth_8137
1932,"(65, 123, 22)",3,mbtiauth_8137
1933,"(65, 123, 77)",3,mbtiauth_8137
1934,"(65, 123, 123)",2,mbtiauth_8137
1935,"(65, 123, 193)",2,mbtiauth_8137
1936,"(65, 123, 286)",3,mbtiauth_8137
1937,"(65, 154, 64)",2,mbtiauth_8137
1938,"(65, 193, 10)",2,mbtiauth_8137
1939,"(65, 193, 22)",2,mbtiauth_8137
1940,"(65, 193, 77)",2,mbtiauth_8137
1941,"(65, 193, 308)",2,mbtiauth_8137
1942,"(65, 213, 280)",2,mbtiauth_8137
1943,"(65, 286, 77)",2,mbtiauth_8137
1944,"(65, 286, 123)",2,mbtiauth_8137
1945,"(65, 599, 22)",2,mbtiauth_8137
1946,"(65, 599, 123)",2,mbtiauth_8137
1947,"(65, 599, 193)",2,mbtiauth_8137
1948,"(65, 1219, 32)",2,mbtiauth_8137
1949,"(65, 1219, 77)",2,mbtiauth_8137
1950,"(66, 77, 657)",2,mbtiauth_8137
1951,"(66, 123, 123)",2,mbtiauth_8137
1952,"(66, 123, 174)",2,mbtiauth_8137
1953,"(66, 123, 286)",2,mbtiauth_8137
1954,"(67, 2, 64)",2,mbtiauth_8137
1955,"(77, 2, 2)",3,mbtiauth_8137
1956,"(77, 2, 16)",3,mbtiauth_8137
1957,"(77, 2, 32)",2,mbtiauth_8137
1958,"(77, 2, 41)",3,mbtiauth_8137
1959,"(77, 2, 64)",7,mbtiauth_8137
1960,"(77, 2, 77)",5,mbtiauth_8137
1961,"(77, 2, 117)",2,mbtiauth_8137
1962,"(77, 2, 123)",4,mbtiauth_8137
1963,"(77, 2, 164)",2,mbtiauth_8137
1964,"(77, 2, 170)",3,mbtiauth_8137
1965,"(77, 2, 171)",4,mbtiauth_8137
1966,"(77, 2, 193)",3,mbtiauth_8137
1967,"(77, 2, 225)",2,mbtiauth_8137
1968,"(77, 2, 226)",3,mbtiauth_8137
1969,"(77, 2, 340)",2,mbtiauth_8137
1970,"(77, 2, 441)",3,mbtiauth_8137
1971,"(77, 2, 599)",4,mbtiauth_8137
1972,"(77, 2, 693)",2,mbtiauth_8137
1973,"(77, 10, 64)",2,mbtiauth_8137
1974,"(77, 10, 123)",2,mbtiauth_8137
1975,"(77, 10, 280)",2,mbtiauth_8137
1976,"(77, 10, 349)",2,mbtiauth_8137
1977,"(77, 10, 683)",2,mbtiauth_8137
1978,"(77, 16, 64)",2,mbtiauth_8137
1979,"(77, 22, 2)",3,mbtiauth_8137
1980,"(77, 22, 32)",2,mbtiauth_8137
1981,"(77, 22, 64)",3,mbtiauth_8137
1982,"(77, 22, 77)",2,mbtiauth_8137
1983,"(77, 22, 123)",2,mbtiauth_8137
1984,"(77, 22, 144)",2,mbtiauth_8137
1985,"(77, 22, 151)",2,mbtiauth_8137
1986,"(77, 22, 168)",2,mbtiauth_8137
1987,"(77, 22, 170)",2,mbtiauth_8137
1988,"(77, 22, 193)",3,mbtiauth_8137
1989,"(77, 22, 599)",4,mbtiauth_8137
1990,"(77, 22, 1166)",2,mbtiauth_8137
1991,"(77, 32, 2)",3,mbtiauth_8137
1992,"(77, 32, 29)",2,mbtiauth_8137
1993,"(77, 32, 77)",2,mbtiauth_8137
1994,"(77, 64, 2)",2,mbtiauth_8137
1995,"(77, 64, 10)",3,mbtiauth_8137
1996,"(77, 64, 22)",2,mbtiauth_8137
1997,"(77, 64, 64)",2,mbtiauth_8137
1998,"(77, 64, 67)",3,mbtiauth_8137
1999,"(77, 64, 154)",3,mbtiauth_8137
2000,"(77, 64, 193)",2,mbtiauth_8137
2001,"(77, 64, 308)",2,mbtiauth_8137
2002,"(77, 64, 349)",2,mbtiauth_8137
2003,"(77, 64, 365)",2,mbtiauth_8137
2004,"(77, 64, 599)",2,mbtiauth_8137
2005,"(77, 64, 765)",2,mbtiauth_8137
2006,"(77, 64, 5779)",2,mbtiauth_8137
2007,"(77, 65, 151)",2,mbtiauth_8137
2008,"(77, 65, 671)",2,mbtiauth_8137
2009,"(77, 67, 77)",2,mbtiauth_8137
2010,"(77, 67, 154)",2,mbtiauth_8137
2011,"(77, 77, 2)",4,mbtiauth_8137
2012,"(77, 77, 22)",3,mbtiauth_8137
2013,"(77, 77, 32)",2,mbtiauth_8137
2014,"(77, 77, 50)",2,mbtiauth_8137
2015,"(77, 77, 64)",3,mbtiauth_8137
2016,"(77, 77, 77)",3,mbtiauth_8137
2017,"(77, 77, 117)",2,mbtiauth_8137
2018,"(77, 77, 120)",3,mbtiauth_8137
2019,"(77, 77, 123)",6,mbtiauth_8137
2020,"(77, 77, 154)",3,mbtiauth_8137
2021,"(77, 77, 168)",2,mbtiauth_8137
2022,"(77, 77, 171)",2,mbtiauth_8137
2023,"(77, 77, 193)",4,mbtiauth_8137
2024,"(77, 77, 212)",3,mbtiauth_8137
2025,"(77, 77, 225)",2,mbtiauth_8137
2026,"(77, 77, 226)",2,mbtiauth_8137
2027,"(77, 77, 256)",2,mbtiauth_8137
2028,"(77, 77, 280)",2,mbtiauth_8137
2029,"(77, 77, 599)",2,mbtiauth_8137
2030,"(77, 78, 2)",2,mbtiauth_8137
2031,"(77, 117, 123)",2,mbtiauth_8137
2032,"(77, 120, 2)",2,mbtiauth_8137
2033,"(77, 120, 77)",3,mbtiauth_8137
2034,"(77, 120, 123)",3,mbtiauth_8137
2035,"(77, 120, 174)",2,mbtiauth_8137
2036,"(77, 120, 236)",2,mbtiauth_8137
2037,"(77, 120, 286)",3,mbtiauth_8137
2038,"(77, 120, 384)",3,mbtiauth_8137
2039,"(77, 123, 2)",8,mbtiauth_8137
2040,"(77, 123, 10)",3,mbtiauth_8137
2041,"(77, 123, 16)",3,mbtiauth_8137
2042,"(77, 123, 22)",3,mbtiauth_8137
2043,"(77, 123, 50)",2,mbtiauth_8137
2044,"(77, 123, 64)",7,mbtiauth_8137
2045,"(77, 123, 65)",2,mbtiauth_8137
2046,"(77, 123, 66)",2,mbtiauth_8137
2047,"(77, 123, 77)",5,mbtiauth_8137
2048,"(77, 123, 117)",3,mbtiauth_8137
2049,"(77, 123, 120)",7,mbtiauth_8137
2050,"(77, 123, 123)",7,mbtiauth_8137
2051,"(77, 123, 154)",4,mbtiauth_8137
2052,"(77, 123, 162)",2,mbtiauth_8137
2053,"(77, 123, 164)",2,mbtiauth_8137
2054,"(77, 123, 170)",2,mbtiauth_8137
2055,"(77, 123, 171)",2,mbtiauth_8137
2056,"(77, 123, 174)",6,mbtiauth_8137
2057,"(77, 123, 183)",2,mbtiauth_8137
2058,"(77, 123, 193)",4,mbtiauth_8137
2059,"(77, 123, 213)",2,mbtiauth_8137
2060,"(77, 123, 220)",2,mbtiauth_8137
2061,"(77, 123, 225)",3,mbtiauth_8137
2062,"(77, 123, 226)",6,mbtiauth_8137
2063,"(77, 123, 236)",2,mbtiauth_8137
2064,"(77, 123, 256)",2,mbtiauth_8137
2065,"(77, 123, 268)",3,mbtiauth_8137
2066,"(77, 123, 280)",3,mbtiauth_8137
2067,"(77, 123, 286)",5,mbtiauth_8137
2068,"(77, 123, 322)",2,mbtiauth_8137
2069,"(77, 123, 340)",3,mbtiauth_8137
2070,"(77, 123, 349)",2,mbtiauth_8137
2071,"(77, 123, 356)",2,mbtiauth_8137
2072,"(77, 123, 384)",3,mbtiauth_8137
2073,"(77, 123, 441)",5,mbtiauth_8137
2074,"(77, 123, 520)",2,mbtiauth_8137
2075,"(77, 123, 599)",6,mbtiauth_8137
2076,"(77, 123, 683)",2,mbtiauth_8137
2077,"(77, 123, 1030)",2,mbtiauth_8137
2078,"(77, 123, 1672)",2,mbtiauth_8137
2079,"(77, 123, 1913)",2,mbtiauth_8137
2080,"(77, 144, 193)",3,mbtiauth_8137
2081,"(77, 151, 64)",2,mbtiauth_8137
2082,"(77, 154, 2)",2,mbtiauth_8137
2083,"(77, 154, 22)",2,mbtiauth_8137
2084,"(77, 154, 66)",2,mbtiauth_8137
2085,"(77, 154, 77)",2,mbtiauth_8137
2086,"(77, 154, 120)",2,mbtiauth_8137
2087,"(77, 154, 123)",3,mbtiauth_8137
2088,"(77, 154, 174)",2,mbtiauth_8137
2089,"(77, 154, 599)",2,mbtiauth_8137
2090,"(77, 162, 77)",3,mbtiauth_8137
2091,"(77, 162, 183)",2,mbtiauth_8137
2092,"(77, 162, 201)",2,mbtiauth_8137
2093,"(77, 162, 213)",2,mbtiauth_8137
2094,"(77, 162, 225)",2,mbtiauth_8137
2095,"(77, 164, 2)",2,mbtiauth_8137
2096,"(77, 164, 77)",2,mbtiauth_8137
2097,"(77, 164, 225)",2,mbtiauth_8137
2098,"(77, 170, 10)",2,mbtiauth_8137
2099,"(77, 170, 32)",2,mbtiauth_8137
2100,"(77, 170, 64)",3,mbtiauth_8137
2101,"(77, 170, 123)",2,mbtiauth_8137
2102,"(77, 171, 365)",2,mbtiauth_8137
2103,"(77, 174, 2)",2,mbtiauth_8137
2104,"(77, 174, 171)",2,mbtiauth_8137
2105,"(77, 183, 2)",2,mbtiauth_8137
2106,"(77, 183, 64)",2,mbtiauth_8137
2107,"(77, 193, 10)",3,mbtiauth_8137
2108,"(77, 193, 22)",2,mbtiauth_8137
2109,"(77, 193, 64)",2,mbtiauth_8137
2110,"(77, 193, 76)",2,mbtiauth_8137
2111,"(77, 193, 280)",3,mbtiauth_8137
2112,"(77, 193, 326)",2,mbtiauth_8137
2113,"(77, 193, 441)",2,mbtiauth_8137
2114,"(77, 193, 683)",2,mbtiauth_8137
2115,"(77, 193, 701)",2,mbtiauth_8137
2116,"(77, 196, 2)",2,mbtiauth_8137
2117,"(77, 196, 599)",2,mbtiauth_8137
2118,"(77, 206, 77)",2,mbtiauth_8137
2119,"(77, 212, 2)",4,mbtiauth_8137
2120,"(77, 212, 50)",2,mbtiauth_8137
2121,"(77, 212, 77)",2,mbtiauth_8137
2122,"(77, 212, 171)",2,mbtiauth_8137
2123,"(77, 212, 193)",2,mbtiauth_8137
2124,"(77, 220, 32)",2,mbtiauth_8137
2125,"(77, 222, 2)",2,mbtiauth_8137
2126,"(77, 222, 599)",2,mbtiauth_8137
2127,"(77, 225, 599)",2,mbtiauth_8137
2128,"(77, 226, 64)",3,mbtiauth_8137
2129,"(77, 226, 67)",3,mbtiauth_8137
2130,"(77, 226, 123)",3,mbtiauth_8137
2131,"(77, 226, 154)",2,mbtiauth_8137
2132,"(77, 226, 236)",2,mbtiauth_8137
2133,"(77, 226, 365)",2,mbtiauth_8137
2134,"(77, 226, 1672)",2,mbtiauth_8137
2135,"(77, 236, 123)",2,mbtiauth_8137
2136,"(77, 246, 64)",2,mbtiauth_8137
2137,"(77, 254, 123)",2,mbtiauth_8137
2138,"(77, 262, 64)",2,mbtiauth_8137
2139,"(77, 262, 123)",2,mbtiauth_8137
2140,"(77, 268, 2)",2,mbtiauth_8137
2141,"(77, 268, 77)",2,mbtiauth_8137
2142,"(77, 280, 2)",2,mbtiauth_8137
2143,"(77, 280, 77)",2,mbtiauth_8137
2144,"(77, 280, 123)",2,mbtiauth_8137
2145,"(77, 280, 441)",2,mbtiauth_8137
2146,"(77, 286, 77)",2,mbtiauth_8137
2147,"(77, 286, 123)",2,mbtiauth_8137
2148,"(77, 340, 226)",2,mbtiauth_8137
2149,"(77, 349, 64)",2,mbtiauth_8137
2150,"(77, 349, 183)",2,mbtiauth_8137
2151,"(77, 369, 32)",2,mbtiauth_8137
2152,"(77, 369, 170)",2,mbtiauth_8137
2153,"(77, 384, 123)",2,mbtiauth_8137
2154,"(77, 384, 236)",2,mbtiauth_8137
2155,"(77, 441, 2)",3,mbtiauth_8137
2156,"(77, 441, 16)",2,mbtiauth_8137
2157,"(77, 441, 22)",3,mbtiauth_8137
2158,"(77, 441, 32)",2,mbtiauth_8137
2159,"(77, 441, 64)",6,mbtiauth_8137
2160,"(77, 441, 77)",4,mbtiauth_8137
2161,"(77, 441, 151)",2,mbtiauth_8137
2162,"(77, 441, 154)",2,mbtiauth_8137
2163,"(77, 441, 599)",3,mbtiauth_8137
2164,"(77, 517, 64)",2,mbtiauth_8137
2165,"(77, 517, 441)",2,mbtiauth_8137
2166,"(77, 599, 2)",3,mbtiauth_8137
2167,"(77, 599, 10)",3,mbtiauth_8137
2168,"(77, 599, 16)",2,mbtiauth_8137
2169,"(77, 599, 64)",4,mbtiauth_8137
2170,"(77, 599, 77)",2,mbtiauth_8137
2171,"(77, 599, 123)",7,mbtiauth_8137
2172,"(77, 599, 162)",2,mbtiauth_8137
2173,"(77, 599, 183)",2,mbtiauth_8137
2174,"(77, 599, 193)",4,mbtiauth_8137
2175,"(77, 599, 213)",2,mbtiauth_8137
2176,"(77, 599, 226)",3,mbtiauth_8137
2177,"(77, 599, 280)",2,mbtiauth_8137
2178,"(77, 599, 322)",2,mbtiauth_8137
2179,"(77, 599, 349)",3,mbtiauth_8137
2180,"(77, 599, 441)",2,mbtiauth_8137
2181,"(77, 599, 683)",2,mbtiauth_8137
2182,"(77, 613, 22)",2,mbtiauth_8137
2183,"(77, 613, 599)",2,mbtiauth_8137
2184,"(77, 650, 441)",2,mbtiauth_8137
2185,"(77, 683, 280)",3,mbtiauth_8137
2186,"(77, 701, 280)",2,mbtiauth_8137
2187,"(77, 701, 441)",2,mbtiauth_8137
2188,"(77, 765, 599)",2,mbtiauth_8137
2189,"(77, 823, 441)",2,mbtiauth_8137
2190,"(77, 1030, 226)",2,mbtiauth_8137
2191,"(77, 1166, 64)",2,mbtiauth_8137
2192,"(77, 1672, 123)",2,mbtiauth_8137
2193,"(77, 1758, 340)",2,mbtiauth_8137
2194,"(77, 1913, 123)",2,mbtiauth_8137
2195,"(77, 2910, 64)",2,mbtiauth_8137
2196,"(77, 3369, 2)",2,mbtiauth_8137
2197,"(78, 2, 77)",2,mbtiauth_8137
2198,"(78, 2, 123)",2,mbtiauth_8137
2199,"(78, 22, 10)",2,mbtiauth_8137
2200,"(78, 41, 77)",2,mbtiauth_8137
2201,"(78, 78, 220)",2,mbtiauth_8137
2202,"(78, 123, 2)",2,mbtiauth_8137
2203,"(78, 123, 123)",2,mbtiauth_8137
2204,"(78, 123, 174)",2,mbtiauth_8137
2205,"(78, 174, 2)",2,mbtiauth_8137
2206,"(78, 174, 123)",2,mbtiauth_8137
2207,"(78, 599, 123)",2,mbtiauth_8137
2208,"(79, 64, 2)",2,mbtiauth_8137
2209,"(79, 198, 2)",2,mbtiauth_8137
2210,"(79, 198, 64)",2,mbtiauth_8137
2211,"(79, 198, 443)",2,mbtiauth_8137
2212,"(120, 2, 77)",2,mbtiauth_8137
2213,"(120, 64, 67)",2,mbtiauth_8137
2214,"(120, 64, 77)",2,mbtiauth_8137
2215,"(120, 64, 225)",2,mbtiauth_8137
2216,"(120, 77, 2)",2,mbtiauth_8137
2217,"(120, 77, 64)",3,mbtiauth_8137
2218,"(120, 77, 67)",2,mbtiauth_8137
2219,"(120, 77, 77)",3,mbtiauth_8137
2220,"(120, 77, 411)",2,mbtiauth_8137
2221,"(120, 77, 441)",2,mbtiauth_8137
2222,"(120, 123, 77)",2,mbtiauth_8137
2223,"(120, 123, 174)",2,mbtiauth_8137
2224,"(120, 236, 123)",2,mbtiauth_8137
2225,"(120, 384, 123)",2,mbtiauth_8137
2226,"(120, 384, 236)",2,mbtiauth_8137
2227,"(120, 441, 64)",3,mbtiauth_8137
2228,"(120, 441, 67)",2,mbtiauth_8137
2229,"(120, 441, 77)",3,mbtiauth_8137
2230,"(120, 441, 225)",2,mbtiauth_8137
2231,"(123, 2, 2)",3,mbtiauth_8137
2232,"(123, 2, 16)",3,mbtiauth_8137
2233,"(123, 2, 22)",3,mbtiauth_8137
2234,"(123, 2, 29)",2,mbtiauth_8137
2235,"(123, 2, 32)",2,mbtiauth_8137
2236,"(123, 2, 41)",2,mbtiauth_8137
2237,"(123, 2, 64)",9,mbtiauth_8137
2238,"(123, 2, 65)",2,mbtiauth_8137
2239,"(123, 2, 67)",3,mbtiauth_8137
2240,"(123, 2, 77)",7,mbtiauth_8137
2241,"(123, 2, 117)",2,mbtiauth_8137
2242,"(123, 2, 123)",8,mbtiauth_8137
2243,"(123, 2, 144)",3,mbtiauth_8137
2244,"(123, 2, 154)",2,mbtiauth_8137
2245,"(123, 2, 164)",3,mbtiauth_8137
2246,"(123, 2, 165)",2,mbtiauth_8137
2247,"(123, 2, 171)",2,mbtiauth_8137
2248,"(123, 2, 183)",2,mbtiauth_8137
2249,"(123, 2, 193)",2,mbtiauth_8137
2250,"(123, 2, 222)",3,mbtiauth_8137
2251,"(123, 2, 225)",3,mbtiauth_8137
2252,"(123, 2, 226)",2,mbtiauth_8137
2253,"(123, 2, 369)",2,mbtiauth_8137
2254,"(123, 2, 431)",2,mbtiauth_8137
2255,"(123, 2, 441)",3,mbtiauth_8137
2256,"(123, 2, 599)",4,mbtiauth_8137
2257,"(123, 2, 638)",2,mbtiauth_8137
2258,"(123, 2, 693)",2,mbtiauth_8137
2259,"(123, 2, 1219)",2,mbtiauth_8137
2260,"(123, 3, 77)",2,mbtiauth_8137
2261,"(123, 3, 123)",2,mbtiauth_8137
2262,"(123, 10, 22)",2,mbtiauth_8137
2263,"(123, 10, 65)",2,mbtiauth_8137
2264,"(123, 10, 77)",3,mbtiauth_8137
2265,"(123, 10, 162)",2,mbtiauth_8137
2266,"(123, 10, 599)",2,mbtiauth_8137
2267,"(123, 16, 64)",2,mbtiauth_8137
2268,"(123, 16, 123)",2,mbtiauth_8137
2269,"(123, 16, 175)",2,mbtiauth_8137
2270,"(123, 16, 1191)",2,mbtiauth_8137
2271,"(123, 16, 3006)",2,mbtiauth_8137
2272,"(123, 22, 10)",2,mbtiauth_8137
2273,"(123, 22, 22)",4,mbtiauth_8137
2274,"(123, 22, 32)",2,mbtiauth_8137
2275,"(123, 22, 77)",4,mbtiauth_8137
2276,"(123, 22, 120)",2,mbtiauth_8137
2277,"(123, 22, 123)",4,mbtiauth_8137
2278,"(123, 22, 151)",3,mbtiauth_8137
2279,"(123, 22, 165)",2,mbtiauth_8137
2280,"(123, 22, 193)",3,mbtiauth_8137
2281,"(123, 22, 222)",3,mbtiauth_8137
2282,"(123, 22, 225)",2,mbtiauth_8137
2283,"(123, 22, 226)",2,mbtiauth_8137
2284,"(123, 22, 322)",2,mbtiauth_8137
2285,"(123, 22, 340)",2,mbtiauth_8137
2286,"(123, 22, 520)",2,mbtiauth_8137
2287,"(123, 22, 599)",4,mbtiauth_8137
2288,"(123, 22, 1166)",2,mbtiauth_8137
2289,"(123, 27, 22)",2,mbtiauth_8137
2290,"(123, 32, 2)",2,mbtiauth_8137
2291,"(123, 32, 29)",2,mbtiauth_8137
2292,"(123, 32, 123)",2,mbtiauth_8137
2293,"(123, 32, 165)",2,mbtiauth_8137
2294,"(123, 41, 322)",2,mbtiauth_8137
2295,"(123, 50, 22)",2,mbtiauth_8137
2296,"(123, 50, 77)",2,mbtiauth_8137
2297,"(123, 50, 123)",4,mbtiauth_8137
2298,"(123, 50, 170)",2,mbtiauth_8137
2299,"(123, 50, 225)",2,mbtiauth_8137
2300,"(123, 64, 2)",4,mbtiauth_8137
2301,"(123, 64, 10)",3,mbtiauth_8137
2302,"(123, 64, 16)",2,mbtiauth_8137
2303,"(123, 64, 22)",5,mbtiauth_8137
2304,"(123, 64, 32)",2,mbtiauth_8137
2305,"(123, 64, 50)",2,mbtiauth_8137
2306,"(123, 64, 64)",6,mbtiauth_8137
2307,"(123, 64, 65)",5,mbtiauth_8137
2308,"(123, 64, 67)",2,mbtiauth_8137
2309,"(123, 64, 77)",3,mbtiauth_8137
2310,"(123, 64, 78)",2,mbtiauth_8137
2311,"(123, 64, 79)",2,mbtiauth_8137
2312,"(123, 64, 123)",5,mbtiauth_8137
2313,"(123, 64, 144)",4,mbtiauth_8137
2314,"(123, 64, 154)",3,mbtiauth_8137
2315,"(123, 64, 164)",3,mbtiauth_8137
2316,"(123, 64, 171)",2,mbtiauth_8137
2317,"(123, 64, 175)",2,mbtiauth_8137
2318,"(123, 64, 183)",2,mbtiauth_8137
2319,"(123, 64, 193)",3,mbtiauth_8137
2320,"(123, 64, 198)",2,mbtiauth_8137
2321,"(123, 64, 222)",3,mbtiauth_8137
2322,"(123, 64, 225)",4,mbtiauth_8137
2323,"(123, 64, 417)",2,mbtiauth_8137
2324,"(123, 64, 599)",2,mbtiauth_8137
2325,"(123, 64, 765)",2,mbtiauth_8137
2326,"(123, 64, 1166)",2,mbtiauth_8137
2327,"(123, 64, 1219)",2,mbtiauth_8137
2328,"(123, 65, 77)",3,mbtiauth_8137
2329,"(123, 65, 78)",2,mbtiauth_8137
2330,"(123, 65, 123)",4,mbtiauth_8137
2331,"(123, 65, 1219)",2,mbtiauth_8137
2332,"(123, 67, 32)",2,mbtiauth_8137
2333,"(123, 67, 65)",2,mbtiauth_8137
2334,"(123, 67, 77)",3,mbtiauth_8137
2335,"(123, 77, 2)",5,mbtiauth_8137
2336,"(123, 77, 22)",5,mbtiauth_8137
2337,"(123, 77, 33)",2,mbtiauth_8137
2338,"(123, 77, 64)",5,mbtiauth_8137
2339,"(123, 77, 67)",3,mbtiauth_8137
2340,"(123, 77, 77)",9,mbtiauth_8137
2341,"(123, 77, 117)",2,mbtiauth_8137
2342,"(123, 77, 120)",2,mbtiauth_8137
2343,"(123, 77, 123)",15,mbtiauth_8137
2344,"(123, 77, 151)",3,mbtiauth_8137
2345,"(123, 77, 154)",3,mbtiauth_8137
2346,"(123, 77, 162)",4,mbtiauth_8137
2347,"(123, 77, 165)",2,mbtiauth_8137
2348,"(123, 77, 170)",3,mbtiauth_8137
2349,"(123, 77, 183)",2,mbtiauth_8137
2350,"(123, 77, 193)",3,mbtiauth_8137
2351,"(123, 77, 201)",2,mbtiauth_8137
2352,"(123, 77, 212)",2,mbtiauth_8137
2353,"(123, 77, 213)",2,mbtiauth_8137
2354,"(123, 77, 225)",4,mbtiauth_8137
2355,"(123, 77, 226)",4,mbtiauth_8137
2356,"(123, 77, 254)",2,mbtiauth_8137
2357,"(123, 77, 268)",3,mbtiauth_8137
2358,"(123, 77, 286)",2,mbtiauth_8137
2359,"(123, 77, 308)",2,mbtiauth_8137
2360,"(123, 77, 326)",2,mbtiauth_8137
2361,"(123, 77, 356)",3,mbtiauth_8137
2362,"(123, 77, 411)",2,mbtiauth_8137
2363,"(123, 77, 441)",4,mbtiauth_8137
2364,"(123, 77, 452)",2,mbtiauth_8137
2365,"(123, 77, 520)",3,mbtiauth_8137
2366,"(123, 77, 599)",6,mbtiauth_8137
2367,"(123, 77, 638)",2,mbtiauth_8137
2368,"(123, 77, 1030)",2,mbtiauth_8137
2369,"(123, 77, 1166)",2,mbtiauth_8137
2370,"(123, 77, 1672)",3,mbtiauth_8137
2371,"(123, 78, 123)",2,mbtiauth_8137
2372,"(123, 79, 198)",2,mbtiauth_8137
2373,"(123, 117, 22)",2,mbtiauth_8137
2374,"(123, 117, 123)",2,mbtiauth_8137
2375,"(123, 120, 2)",2,mbtiauth_8137
2376,"(123, 120, 27)",2,mbtiauth_8137
2377,"(123, 120, 64)",3,mbtiauth_8137
2378,"(123, 120, 67)",2,mbtiauth_8137
2379,"(123, 120, 77)",5,mbtiauth_8137
2380,"(123, 120, 123)",4,mbtiauth_8137
2381,"(123, 120, 174)",2,mbtiauth_8137
2382,"(123, 120, 225)",2,mbtiauth_8137
2383,"(123, 120, 236)",2,mbtiauth_8137
2384,"(123, 120, 286)",3,mbtiauth_8137
2385,"(123, 120, 308)",2,mbtiauth_8137
2386,"(123, 120, 340)",2,mbtiauth_8137
2387,"(123, 120, 356)",2,mbtiauth_8137
2388,"(123, 120, 384)",3,mbtiauth_8137
2389,"(123, 120, 411)",2,mbtiauth_8137
2390,"(123, 120, 441)",3,mbtiauth_8137
2391,"(123, 123, 2)",7,mbtiauth_8137
2392,"(123, 123, 16)",2,mbtiauth_8137
2393,"(123, 123, 22)",5,mbtiauth_8137
2394,"(123, 123, 29)",2,mbtiauth_8137
2395,"(123, 123, 32)",4,mbtiauth_8137
2396,"(123, 123, 33)",2,mbtiauth_8137
2397,"(123, 123, 64)",4,mbtiauth_8137
2398,"(123, 123, 65)",3,mbtiauth_8137
2399,"(123, 123, 67)",4,mbtiauth_8137
2400,"(123, 123, 73)",2,mbtiauth_8137
2401,"(123, 123, 77)",7,mbtiauth_8137
2402,"(123, 123, 120)",2,mbtiauth_8137
2403,"(123, 123, 123)",7,mbtiauth_8137
2404,"(123, 123, 144)",4,mbtiauth_8137
2405,"(123, 123, 162)",2,mbtiauth_8137
2406,"(123, 123, 165)",3,mbtiauth_8137
2407,"(123, 123, 170)",2,mbtiauth_8137
2408,"(123, 123, 171)",2,mbtiauth_8137
2409,"(123, 123, 174)",7,mbtiauth_8137
2410,"(123, 123, 193)",3,mbtiauth_8137
2411,"(123, 123, 213)",2,mbtiauth_8137
2412,"(123, 123, 225)",3,mbtiauth_8137
2413,"(123, 123, 268)",3,mbtiauth_8137
2414,"(123, 123, 286)",4,mbtiauth_8137
2415,"(123, 123, 326)",2,mbtiauth_8137
2416,"(123, 123, 334)",2,mbtiauth_8137
2417,"(123, 123, 356)",2,mbtiauth_8137
2418,"(123, 123, 441)",3,mbtiauth_8137
2419,"(123, 123, 526)",2,mbtiauth_8137
2420,"(123, 123, 1165)",2,mbtiauth_8137
2421,"(123, 123, 1219)",2,mbtiauth_8137
2422,"(123, 123, 1672)",2,mbtiauth_8137
2423,"(123, 123, 1758)",2,mbtiauth_8137
2424,"(123, 144, 2)",2,mbtiauth_8137
2425,"(123, 144, 70)",2,mbtiauth_8137
2426,"(123, 144, 77)",2,mbtiauth_8137
2427,"(123, 144, 117)",2,mbtiauth_8137
2428,"(123, 144, 123)",4,mbtiauth_8137
2429,"(123, 144, 170)",3,mbtiauth_8137
2430,"(123, 144, 174)",3,mbtiauth_8137
2431,"(123, 144, 222)",2,mbtiauth_8137
2432,"(123, 144, 225)",3,mbtiauth_8137
2433,"(123, 144, 286)",2,mbtiauth_8137
2434,"(123, 144, 356)",2,mbtiauth_8137
2435,"(123, 151, 193)",2,mbtiauth_8137
2436,"(123, 152, 77)",2,mbtiauth_8137
2437,"(123, 152, 123)",2,mbtiauth_8137
2438,"(123, 152, 3131)",2,mbtiauth_8137
2439,"(123, 154, 2)",2,mbtiauth_8137
2440,"(123, 154, 10)",3,mbtiauth_8137
2441,"(123, 154, 22)",4,mbtiauth_8137
2442,"(123, 154, 66)",2,mbtiauth_8137
2443,"(123, 154, 77)",2,mbtiauth_8137
2444,"(123, 154, 123)",4,mbtiauth_8137
2445,"(123, 154, 162)",2,mbtiauth_8137
2446,"(123, 154, 225)",3,mbtiauth_8137
2447,"(123, 160, 64)",2,mbtiauth_8137
2448,"(123, 162, 64)",2,mbtiauth_8137
2449,"(123, 162, 77)",2,mbtiauth_8137
2450,"(123, 162, 123)",2,mbtiauth_8137
2451,"(123, 162, 201)",2,mbtiauth_8137
2452,"(123, 162, 213)",2,mbtiauth_8137
2453,"(123, 162, 225)",4,mbtiauth_8137
2454,"(123, 164, 64)",2,mbtiauth_8137
2455,"(123, 164, 77)",2,mbtiauth_8137
2456,"(123, 164, 222)",2,mbtiauth_8137
2457,"(123, 164, 225)",2,mbtiauth_8137
2458,"(123, 164, 599)",2,mbtiauth_8137
2459,"(123, 165, 22)",2,mbtiauth_8137
2460,"(123, 165, 64)",2,mbtiauth_8137
2461,"(123, 165, 67)",2,mbtiauth_8137
2462,"(123, 165, 77)",3,mbtiauth_8137
2463,"(123, 170, 50)",2,mbtiauth_8137
2464,"(123, 170, 77)",2,mbtiauth_8137
2465,"(123, 170, 123)",3,mbtiauth_8137
2466,"(123, 170, 162)",2,mbtiauth_8137
2467,"(123, 170, 225)",2,mbtiauth_8137
2468,"(123, 170, 254)",2,mbtiauth_8137
2469,"(123, 170, 1672)",2,mbtiauth_8137
2470,"(123, 174, 2)",8,mbtiauth_8137
2471,"(123, 174, 10)",3,mbtiauth_8137
2472,"(123, 174, 16)",4,mbtiauth_8137
2473,"(123, 174, 22)",2,mbtiauth_8137
2474,"(123, 174, 33)",2,mbtiauth_8137
2475,"(123, 174, 41)",2,mbtiauth_8137
2476,"(123, 174, 64)",5,mbtiauth_8137
2477,"(123, 174, 65)",4,mbtiauth_8137
2478,"(123, 174, 77)",6,mbtiauth_8137
2479,"(123, 174, 123)",8,mbtiauth_8137
2480,"(123, 174, 144)",2,mbtiauth_8137
2481,"(123, 174, 151)",2,mbtiauth_8137
2482,"(123, 174, 164)",2,mbtiauth_8137
2483,"(123, 174, 170)",2,mbtiauth_8137
2484,"(123, 174, 171)",3,mbtiauth_8137
2485,"(123, 174, 193)",2,mbtiauth_8137
2486,"(123, 174, 222)",2,mbtiauth_8137
2487,"(123, 174, 225)",2,mbtiauth_8137
2488,"(123, 174, 236)",2,mbtiauth_8137
2489,"(123, 174, 243)",2,mbtiauth_8137
2490,"(123, 174, 286)",2,mbtiauth_8137
2491,"(123, 174, 326)",2,mbtiauth_8137
2492,"(123, 174, 369)",2,mbtiauth_8137
2493,"(123, 174, 431)",2,mbtiauth_8137
2494,"(123, 174, 441)",2,mbtiauth_8137
2495,"(123, 174, 520)",2,mbtiauth_8137
2496,"(123, 174, 526)",2,mbtiauth_8137
2497,"(123, 174, 533)",2,mbtiauth_8137
2498,"(123, 174, 811)",2,mbtiauth_8137
2499,"(123, 174, 1030)",3,mbtiauth_8137
2500,"(123, 174, 1191)",2,mbtiauth_8137
2501,"(123, 174, 1672)",2,mbtiauth_8137
2502,"(123, 174, 1758)",2,mbtiauth_8137
2503,"(123, 174, 2097)",3,mbtiauth_8137
2504,"(123, 174, 3006)",2,mbtiauth_8137
2505,"(123, 174, 3150)",2,mbtiauth_8137
2506,"(123, 183, 154)",2,mbtiauth_8137
2507,"(123, 183, 164)",2,mbtiauth_8137
2508,"(123, 193, 2)",3,mbtiauth_8137
2509,"(123, 193, 10)",3,mbtiauth_8137
2510,"(123, 193, 22)",2,mbtiauth_8137
2511,"(123, 193, 64)",2,mbtiauth_8137
2512,"(123, 193, 65)",2,mbtiauth_8137
2513,"(123, 193, 76)",2,mbtiauth_8137
2514,"(123, 193, 77)",6,mbtiauth_8137
2515,"(123, 193, 123)",5,mbtiauth_8137
2516,"(123, 193, 170)",4,mbtiauth_8137
2517,"(123, 193, 193)",2,mbtiauth_8137
2518,"(123, 193, 212)",2,mbtiauth_8137
2519,"(123, 193, 254)",2,mbtiauth_8137
2520,"(123, 193, 308)",2,mbtiauth_8137
2521,"(123, 193, 1672)",2,mbtiauth_8137
2522,"(123, 201, 33)",2,mbtiauth_8137
2523,"(123, 212, 22)",2,mbtiauth_8137
2524,"(123, 213, 77)",2,mbtiauth_8137
2525,"(123, 213, 123)",2,mbtiauth_8137
2526,"(123, 213, 225)",2,mbtiauth_8137
2527,"(123, 213, 280)",2,mbtiauth_8137
2528,"(123, 220, 123)",2,mbtiauth_8137
2529,"(123, 222, 123)",2,mbtiauth_8137
2530,"(123, 225, 2)",2,mbtiauth_8137
2531,"(123, 225, 22)",3,mbtiauth_8137
2532,"(123, 225, 64)",5,mbtiauth_8137
2533,"(123, 225, 77)",4,mbtiauth_8137
2534,"(123, 225, 123)",5,mbtiauth_8137
2535,"(123, 225, 154)",2,mbtiauth_8137
2536,"(123, 225, 222)",3,mbtiauth_8137
2537,"(123, 225, 268)",2,mbtiauth_8137
2538,"(123, 225, 691)",3,mbtiauth_8137
2539,"(123, 226, 64)",2,mbtiauth_8137
2540,"(123, 226, 123)",2,mbtiauth_8137
2541,"(123, 226, 158)",2,mbtiauth_8137
2542,"(123, 226, 670)",2,mbtiauth_8137
2543,"(123, 226, 1672)",2,mbtiauth_8137
2544,"(123, 236, 77)",2,mbtiauth_8137
2545,"(123, 236, 123)",3,mbtiauth_8137
2546,"(123, 236, 174)",2,mbtiauth_8137
2547,"(123, 243, 77)",2,mbtiauth_8137
2548,"(123, 254, 123)",3,mbtiauth_8137
2549,"(123, 268, 2)",2,mbtiauth_8137
2550,"(123, 268, 64)",3,mbtiauth_8137
2551,"(123, 268, 77)",3,mbtiauth_8137
2552,"(123, 268, 123)",2,mbtiauth_8137
2553,"(123, 268, 162)",2,mbtiauth_8137
2554,"(123, 268, 691)",2,mbtiauth_8137
2555,"(123, 280, 77)",3,mbtiauth_8137
2556,"(123, 280, 123)",3,mbtiauth_8137
2557,"(123, 286, 2)",5,mbtiauth_8137
2558,"(123, 286, 22)",2,mbtiauth_8137
2559,"(123, 286, 29)",2,mbtiauth_8137
2560,"(123, 286, 32)",3,mbtiauth_8137
2561,"(123, 286, 64)",3,mbtiauth_8137
2562,"(123, 286, 65)",2,mbtiauth_8137
2563,"(123, 286, 67)",3,mbtiauth_8137
2564,"(123, 286, 77)",4,mbtiauth_8137
2565,"(123, 286, 79)",2,mbtiauth_8137
2566,"(123, 286, 123)",8,mbtiauth_8137
2567,"(123, 286, 165)",2,mbtiauth_8137
2568,"(123, 286, 174)",2,mbtiauth_8137
2569,"(123, 286, 193)",2,mbtiauth_8137
2570,"(123, 286, 198)",2,mbtiauth_8137
2571,"(123, 286, 268)",2,mbtiauth_8137
2572,"(123, 286, 326)",2,mbtiauth_8137
2573,"(123, 286, 520)",2,mbtiauth_8137
2574,"(123, 286, 1165)",2,mbtiauth_8137
2575,"(123, 286, 1219)",2,mbtiauth_8137
2576,"(123, 322, 10)",2,mbtiauth_8137
2577,"(123, 322, 384)",2,mbtiauth_8137
2578,"(123, 326, 123)",2,mbtiauth_8137
2579,"(123, 326, 526)",2,mbtiauth_8137
2580,"(123, 334, 22)",2,mbtiauth_8137
2581,"(123, 334, 193)",2,mbtiauth_8137
2582,"(123, 334, 670)",2,mbtiauth_8137
2583,"(123, 340, 22)",2,mbtiauth_8137
2584,"(123, 340, 27)",2,mbtiauth_8137
2585,"(123, 340, 64)",2,mbtiauth_8137
2586,"(123, 340, 123)",2,mbtiauth_8137
2587,"(123, 340, 222)",2,mbtiauth_8137
2588,"(123, 340, 226)",3,mbtiauth_8137
2589,"(123, 340, 599)",2,mbtiauth_8137
2590,"(123, 340, 670)",2,mbtiauth_8137
2591,"(123, 342, 193)",2,mbtiauth_8137
2592,"(123, 349, 183)",2,mbtiauth_8137
2593,"(123, 356, 2)",2,mbtiauth_8137
2594,"(123, 356, 64)",2,mbtiauth_8137
2595,"(123, 356, 225)",2,mbtiauth_8137
2596,"(123, 384, 77)",2,mbtiauth_8137
2597,"(123, 384, 123)",2,mbtiauth_8137
2598,"(123, 384, 236)",2,mbtiauth_8137
2599,"(123, 407, 262)",2,mbtiauth_8137
2600,"(123, 431, 77)",2,mbtiauth_8137
2601,"(123, 441, 2)",2,mbtiauth_8137
2602,"(123, 441, 16)",3,mbtiauth_8137
2603,"(123, 441, 22)",3,mbtiauth_8137
2604,"(123, 441, 32)",2,mbtiauth_8137
2605,"(123, 441, 64)",6,mbtiauth_8137
2606,"(123, 441, 66)",2,mbtiauth_8137
2607,"(123, 441, 67)",2,mbtiauth_8137
2608,"(123, 441, 77)",6,mbtiauth_8137
2609,"(123, 441, 120)",2,mbtiauth_8137
2610,"(123, 441, 123)",5,mbtiauth_8137
2611,"(123, 441, 144)",2,mbtiauth_8137
2612,"(123, 441, 154)",3,mbtiauth_8137
2613,"(123, 441, 164)",2,mbtiauth_8137
2614,"(123, 441, 225)",4,mbtiauth_8137
2615,"(123, 441, 280)",2,mbtiauth_8137
2616,"(123, 441, 340)",2,mbtiauth_8137
2617,"(123, 441, 356)",2,mbtiauth_8137
2618,"(123, 441, 599)",2,mbtiauth_8137
2619,"(123, 441, 886)",2,mbtiauth_8137
2620,"(123, 443, 64)",3,mbtiauth_8137
2621,"(123, 443, 160)",2,mbtiauth_8137
2622,"(123, 517, 64)",2,mbtiauth_8137
2623,"(123, 517, 123)",2,mbtiauth_8137
2624,"(123, 517, 154)",2,mbtiauth_8137
2625,"(123, 517, 441)",2,mbtiauth_8137
2626,"(123, 520, 2)",3,mbtiauth_8137
2627,"(123, 520, 77)",2,mbtiauth_8137
2628,"(123, 520, 123)",3,mbtiauth_8137
2629,"(123, 526, 77)",2,mbtiauth_8137
2630,"(123, 526, 3131)",2,mbtiauth_8137
2631,"(123, 538, 77)",2,mbtiauth_8137
2632,"(123, 564, 22)",2,mbtiauth_8137
2633,"(123, 564, 77)",2,mbtiauth_8137
2634,"(123, 599, 16)",2,mbtiauth_8137
2635,"(123, 599, 22)",2,mbtiauth_8137
2636,"(123, 599, 64)",2,mbtiauth_8137
2637,"(123, 599, 77)",2,mbtiauth_8137
2638,"(123, 599, 120)",2,mbtiauth_8137
2639,"(123, 599, 123)",6,mbtiauth_8137
2640,"(123, 599, 162)",2,mbtiauth_8137
2641,"(123, 599, 213)",2,mbtiauth_8137
2642,"(123, 599, 226)",3,mbtiauth_8137
2643,"(123, 599, 441)",2,mbtiauth_8137
2644,"(123, 599, 670)",2,mbtiauth_8137
2645,"(123, 613, 41)",2,mbtiauth_8137
2646,"(123, 638, 64)",2,mbtiauth_8137
2647,"(123, 648, 10)",2,mbtiauth_8137
2648,"(123, 648, 22)",2,mbtiauth_8137
2649,"(123, 648, 322)",2,mbtiauth_8137
2650,"(123, 654, 193)",2,mbtiauth_8137
2651,"(123, 683, 77)",3,mbtiauth_8137
2652,"(123, 683, 123)",3,mbtiauth_8137
2653,"(123, 683, 280)",2,mbtiauth_8137
2654,"(123, 691, 64)",2,mbtiauth_8137
2655,"(123, 691, 77)",2,mbtiauth_8137
2656,"(123, 691, 123)",2,mbtiauth_8137
2657,"(123, 693, 16)",2,mbtiauth_8137
2658,"(123, 765, 123)",2,mbtiauth_8137
2659,"(123, 765, 193)",2,mbtiauth_8137
2660,"(123, 936, 77)",2,mbtiauth_8137
2661,"(123, 936, 123)",2,mbtiauth_8137
2662,"(123, 1024, 123)",2,mbtiauth_8137
2663,"(123, 1024, 170)",2,mbtiauth_8137
2664,"(123, 1024, 193)",2,mbtiauth_8137
2665,"(123, 1024, 1672)",2,mbtiauth_8137
2666,"(123, 1030, 2)",2,mbtiauth_8137
2667,"(123, 1030, 77)",2,mbtiauth_8137
2668,"(123, 1030, 226)",2,mbtiauth_8137
2669,"(123, 1165, 2)",2,mbtiauth_8137
2670,"(123, 1166, 222)",2,mbtiauth_8137
2671,"(123, 1177, 3131)",2,mbtiauth_8137
2672,"(123, 1191, 123)",2,mbtiauth_8137
2673,"(123, 1672, 123)",2,mbtiauth_8137
2674,"(123, 1672, 254)",2,mbtiauth_8137
2675,"(123, 1913, 123)",2,mbtiauth_8137
2676,"(123, 2097, 77)",2,mbtiauth_8137
2677,"(123, 4520, 77)",2,mbtiauth_8137
2678,"(134, 41, 340)",2,mbtiauth_8137
2679,"(134, 77, 77)",2,mbtiauth_8137
2680,"(134, 77, 340)",2,mbtiauth_8137
2681,"(144, 41, 22)",2,mbtiauth_8137
2682,"(144, 41, 64)",2,mbtiauth_8137
2683,"(144, 64, 144)",2,mbtiauth_8137
2684,"(144, 77, 123)",2,mbtiauth_8137
2685,"(144, 77, 170)",3,mbtiauth_8137
2686,"(144, 77, 193)",2,mbtiauth_8137
2687,"(144, 123, 174)",3,mbtiauth_8137
2688,"(144, 213, 225)",2,mbtiauth_8137
2689,"(144, 225, 2)",2,mbtiauth_8137
2690,"(144, 225, 22)",2,mbtiauth_8137
2691,"(144, 225, 222)",2,mbtiauth_8137
2692,"(144, 286, 123)",3,mbtiauth_8137
2693,"(144, 286, 174)",2,mbtiauth_8137
2694,"(144, 356, 225)",2,mbtiauth_8137
2695,"(151, 2, 64)",2,mbtiauth_8137
2696,"(152, 77, 64)",2,mbtiauth_8137
2697,"(152, 77, 441)",2,mbtiauth_8137
2698,"(152, 123, 2)",2,mbtiauth_8137
2699,"(154, 2, 66)",2,mbtiauth_8137
2700,"(154, 10, 1859)",2,mbtiauth_8137
2701,"(154, 22, 2)",2,mbtiauth_8137
2702,"(154, 22, 10)",2,mbtiauth_8137
2703,"(154, 22, 66)",2,mbtiauth_8137
2704,"(154, 22, 322)",2,mbtiauth_8137
2705,"(154, 22, 384)",2,mbtiauth_8137
2706,"(154, 64, 77)",2,mbtiauth_8137
2707,"(154, 66, 22)",2,mbtiauth_8137
2708,"(154, 67, 193)",2,mbtiauth_8137
2709,"(154, 77, 22)",2,mbtiauth_8137
2710,"(154, 77, 123)",3,mbtiauth_8137
2711,"(154, 120, 77)",2,mbtiauth_8137
2712,"(154, 120, 123)",2,mbtiauth_8137
2713,"(154, 123, 77)",2,mbtiauth_8137
2714,"(154, 123, 120)",3,mbtiauth_8137
2715,"(154, 123, 123)",3,mbtiauth_8137
2716,"(154, 123, 174)",2,mbtiauth_8137
2717,"(154, 123, 322)",2,mbtiauth_8137
2718,"(154, 123, 384)",2,mbtiauth_8137
2719,"(154, 162, 225)",2,mbtiauth_8137
2720,"(154, 165, 67)",2,mbtiauth_8137
2721,"(154, 225, 77)",2,mbtiauth_8137
2722,"(154, 225, 123)",3,mbtiauth_8137
2723,"(154, 225, 691)",2,mbtiauth_8137
2724,"(154, 322, 384)",2,mbtiauth_8137
2725,"(154, 691, 77)",2,mbtiauth_8137
2726,"(154, 691, 123)",2,mbtiauth_8137
2727,"(154, 691, 3408)",2,mbtiauth_8137
2728,"(160, 41, 64)",2,mbtiauth_8137
2729,"(160, 41, 77)",2,mbtiauth_8137
2730,"(160, 64, 64)",2,mbtiauth_8137
2731,"(160, 64, 77)",2,mbtiauth_8137
2732,"(162, 41, 64)",2,mbtiauth_8137
2733,"(162, 77, 77)",2,mbtiauth_8137
2734,"(162, 77, 123)",2,mbtiauth_8137
2735,"(162, 77, 226)",2,mbtiauth_8137
2736,"(162, 77, 349)",2,mbtiauth_8137
2737,"(162, 123, 77)",2,mbtiauth_8137
2738,"(162, 123, 123)",2,mbtiauth_8137
2739,"(162, 123, 158)",2,mbtiauth_8137
2740,"(162, 225, 64)",2,mbtiauth_8137
2741,"(162, 225, 77)",2,mbtiauth_8137
2742,"(162, 443, 77)",2,mbtiauth_8137
2743,"(164, 2, 2)",2,mbtiauth_8137
2744,"(164, 64, 64)",2,mbtiauth_8137
2745,"(164, 64, 1313)",2,mbtiauth_8137
2746,"(164, 77, 10)",3,mbtiauth_8137
2747,"(164, 77, 77)",3,mbtiauth_8137
2748,"(164, 77, 212)",2,mbtiauth_8137
2749,"(164, 77, 599)",2,mbtiauth_8137
2750,"(164, 225, 64)",2,mbtiauth_8137
2751,"(164, 225, 599)",2,mbtiauth_8137
2752,"(164, 225, 1313)",2,mbtiauth_8137
2753,"(164, 599, 10)",2,mbtiauth_8137
2754,"(164, 1313, 64)",2,mbtiauth_8137
2755,"(165, 67, 77)",3,mbtiauth_8137
2756,"(165, 67, 308)",2,mbtiauth_8137
2757,"(165, 441, 77)",2,mbtiauth_8137
2758,"(170, 2, 41)",2,mbtiauth_8137
2759,"(170, 2, 64)",2,mbtiauth_8137
2760,"(170, 2, 123)",2,mbtiauth_8137
2761,"(170, 2, 369)",2,mbtiauth_8137
2762,"(170, 10, 64)",2,mbtiauth_8137
2763,"(170, 32, 29)",2,mbtiauth_8137
2764,"(170, 41, 369)",2,mbtiauth_8137
2765,"(170, 64, 32)",2,mbtiauth_8137
2766,"(170, 64, 198)",2,mbtiauth_8137
2767,"(170, 64, 213)",2,mbtiauth_8137
2768,"(170, 64, 225)",2,mbtiauth_8137
2769,"(170, 65, 225)",2,mbtiauth_8137
2770,"(170, 65, 280)",2,mbtiauth_8137
2771,"(170, 77, 2)",5,mbtiauth_8137
2772,"(170, 77, 77)",2,mbtiauth_8137
2773,"(170, 77, 123)",3,mbtiauth_8137
2774,"(170, 77, 152)",2,mbtiauth_8137
2775,"(170, 123, 2)",2,mbtiauth_8137
2776,"(170, 123, 64)",3,mbtiauth_8137
2777,"(170, 123, 120)",2,mbtiauth_8137
2778,"(170, 123, 1024)",2,mbtiauth_8137
2779,"(170, 144, 193)",2,mbtiauth_8137
2780,"(170, 162, 64)",2,mbtiauth_8137
2781,"(170, 193, 170)",2,mbtiauth_8137
2782,"(170, 198, 32)",2,mbtiauth_8137
2783,"(170, 201, 32)",2,mbtiauth_8137
2784,"(170, 201, 198)",2,mbtiauth_8137
2785,"(170, 201, 369)",2,mbtiauth_8137
2786,"(170, 213, 225)",3,mbtiauth_8137
2787,"(170, 254, 123)",2,mbtiauth_8137
2788,"(170, 369, 32)",2,mbtiauth_8137
2789,"(170, 441, 64)",2,mbtiauth_8137
2790,"(170, 1672, 123)",2,mbtiauth_8137
2791,"(170, 1672, 254)",2,mbtiauth_8137
2792,"(171, 365, 10)",2,mbtiauth_8137
2793,"(174, 2, 2)",3,mbtiauth_8137
2794,"(174, 2, 41)",2,mbtiauth_8137
2795,"(174, 2, 64)",2,mbtiauth_8137
2796,"(174, 2, 77)",2,mbtiauth_8137
2797,"(174, 2, 123)",2,mbtiauth_8137
2798,"(174, 16, 123)",2,mbtiauth_8137
2799,"(174, 16, 1191)",2,mbtiauth_8137
2800,"(174, 16, 3006)",2,mbtiauth_8137
2801,"(174, 64, 2)",2,mbtiauth_8137
2802,"(174, 64, 222)",2,mbtiauth_8137
2803,"(174, 65, 77)",2,mbtiauth_8137
2804,"(174, 65, 123)",2,mbtiauth_8137
2805,"(174, 65, 286)",2,mbtiauth_8137
2806,"(174, 77, 123)",4,mbtiauth_8137
2807,"(174, 77, 599)",2,mbtiauth_8137
2808,"(174, 77, 1030)",2,mbtiauth_8137
2809,"(174, 123, 2)",2,mbtiauth_8137
2810,"(174, 123, 77)",3,mbtiauth_8137
2811,"(174, 123, 123)",3,mbtiauth_8137
2812,"(174, 123, 144)",2,mbtiauth_8137
2813,"(174, 123, 152)",2,mbtiauth_8137
2814,"(174, 123, 286)",2,mbtiauth_8137
2815,"(174, 123, 526)",2,mbtiauth_8137
2816,"(174, 123, 599)",2,mbtiauth_8137
2817,"(174, 123, 1177)",2,mbtiauth_8137
2818,"(174, 123, 3131)",2,mbtiauth_8137
2819,"(174, 152, 3131)",2,mbtiauth_8137
2820,"(174, 193, 123)",2,mbtiauth_8137
2821,"(174, 225, 222)",2,mbtiauth_8137
2822,"(174, 243, 77)",2,mbtiauth_8137
2823,"(174, 286, 123)",2,mbtiauth_8137
2824,"(174, 326, 526)",2,mbtiauth_8137
2825,"(174, 526, 77)",2,mbtiauth_8137
2826,"(174, 526, 3131)",2,mbtiauth_8137
2827,"(174, 599, 123)",2,mbtiauth_8137
2828,"(174, 1030, 2)",2,mbtiauth_8137
2829,"(174, 1177, 3131)",2,mbtiauth_8137
2830,"(174, 1191, 123)",2,mbtiauth_8137
2831,"(174, 1779, 64)",2,mbtiauth_8137
2832,"(174, 2097, 2)",2,mbtiauth_8137
2833,"(174, 2097, 77)",2,mbtiauth_8137
2834,"(183, 22, 77)",2,mbtiauth_8137
2835,"(183, 123, 174)",2,mbtiauth_8137
2836,"(183, 154, 22)",2,mbtiauth_8137
2837,"(183, 520, 123)",2,mbtiauth_8137
2838,"(183, 520, 174)",2,mbtiauth_8137
2839,"(193, 2, 64)",2,mbtiauth_8137
2840,"(193, 10, 22)",2,mbtiauth_8137
2841,"(193, 22, 123)",2,mbtiauth_8137
2842,"(193, 22, 151)",2,mbtiauth_8137
2843,"(193, 22, 193)",3,mbtiauth_8137
2844,"(193, 32, 123)",2,mbtiauth_8137
2845,"(193, 64, 2)",2,mbtiauth_8137
2846,"(193, 65, 64)",2,mbtiauth_8137
2847,"(193, 65, 123)",2,mbtiauth_8137
2848,"(193, 77, 2)",3,mbtiauth_8137
2849,"(193, 77, 123)",4,mbtiauth_8137
2850,"(193, 77, 193)",2,mbtiauth_8137
2851,"(193, 77, 286)",2,mbtiauth_8137
2852,"(193, 123, 64)",2,mbtiauth_8137
2853,"(193, 123, 120)",2,mbtiauth_8137
2854,"(193, 123, 286)",3,mbtiauth_8137
2855,"(193, 123, 334)",2,mbtiauth_8137
2856,"(193, 151, 193)",2,mbtiauth_8137
2857,"(193, 154, 441)",2,mbtiauth_8137
2858,"(193, 170, 2)",2,mbtiauth_8137
2859,"(193, 170, 64)",3,mbtiauth_8137
2860,"(193, 170, 77)",2,mbtiauth_8137
2861,"(193, 170, 123)",4,mbtiauth_8137
2862,"(193, 170, 225)",2,mbtiauth_8137
2863,"(193, 170, 254)",2,mbtiauth_8137
2864,"(193, 170, 1672)",2,mbtiauth_8137
2865,"(193, 254, 123)",3,mbtiauth_8137
2866,"(193, 280, 441)",2,mbtiauth_8137
2867,"(193, 683, 280)",2,mbtiauth_8137
2868,"(193, 701, 280)",2,mbtiauth_8137
2869,"(193, 701, 441)",2,mbtiauth_8137
2870,"(193, 1672, 123)",2,mbtiauth_8137
2871,"(193, 1672, 254)",2,mbtiauth_8137
2872,"(196, 599, 193)",2,mbtiauth_8137
2873,"(198, 64, 2)",3,mbtiauth_8137
2874,"(198, 134, 64)",2,mbtiauth_8137
2875,"(198, 145, 32)",2,mbtiauth_8137
2876,"(198, 201, 369)",2,mbtiauth_8137
2877,"(198, 443, 64)",2,mbtiauth_8137
2878,"(201, 2, 41)",2,mbtiauth_8137
2879,"(201, 64, 222)",2,mbtiauth_8137
2880,"(201, 77, 2)",2,mbtiauth_8137
2881,"(201, 77, 222)",2,mbtiauth_8137
2882,"(201, 77, 280)",2,mbtiauth_8137
2883,"(201, 145, 32)",2,mbtiauth_8137
2884,"(201, 170, 2)",2,mbtiauth_8137
2885,"(201, 170, 77)",2,mbtiauth_8137
2886,"(201, 198, 32)",2,mbtiauth_8137
2887,"(201, 198, 145)",2,mbtiauth_8137
2888,"(201, 369, 32)",2,mbtiauth_8137
2889,"(201, 369, 145)",2,mbtiauth_8137
2890,"(201, 701, 64)",2,mbtiauth_8137
2891,"(201, 701, 222)",2,mbtiauth_8137
2892,"(212, 2, 2)",2,mbtiauth_8137
2893,"(212, 2, 77)",2,mbtiauth_8137
2894,"(212, 2, 171)",2,mbtiauth_8137
2895,"(212, 16, 365)",2,mbtiauth_8137
2896,"(213, 64, 67)",2,mbtiauth_8137
2897,"(213, 77, 10)",2,mbtiauth_8137
2898,"(213, 77, 123)",3,mbtiauth_8137
2899,"(213, 77, 154)",2,mbtiauth_8137
2900,"(213, 123, 10)",2,mbtiauth_8137
2901,"(213, 225, 64)",2,mbtiauth_8137
2902,"(213, 225, 67)",2,mbtiauth_8137
2903,"(213, 280, 10)",2,mbtiauth_8137
2904,"(213, 280, 77)",3,mbtiauth_8137
2905,"(213, 280, 123)",3,mbtiauth_8137
2906,"(213, 280, 154)",2,mbtiauth_8137
2907,"(213, 683, 280)",2,mbtiauth_8137
2908,"(220, 32, 29)",2,mbtiauth_8137
2909,"(222, 77, 123)",2,mbtiauth_8137
2910,"(222, 123, 123)",2,mbtiauth_8137
2911,"(222, 144, 77)",2,mbtiauth_8137
2912,"(222, 154, 31)",2,mbtiauth_8137
2913,"(222, 599, 2)",2,mbtiauth_8137
2914,"(222, 599, 123)",3,mbtiauth_8137
2915,"(225, 2, 64)",3,mbtiauth_8137
2916,"(225, 2, 222)",2,mbtiauth_8137
2917,"(225, 22, 599)",2,mbtiauth_8137
2918,"(225, 64, 2)",2,mbtiauth_8137
2919,"(225, 64, 10)",2,mbtiauth_8137
2920,"(225, 64, 64)",3,mbtiauth_8137
2921,"(225, 64, 67)",3,mbtiauth_8137
2922,"(225, 64, 77)",2,mbtiauth_8137
2923,"(225, 64, 222)",2,mbtiauth_8137
2924,"(225, 64, 1313)",2,mbtiauth_8137
2925,"(225, 77, 10)",2,mbtiauth_8137
2926,"(225, 77, 64)",2,mbtiauth_8137
2927,"(225, 77, 67)",2,mbtiauth_8137
2928,"(225, 77, 123)",4,mbtiauth_8137
2929,"(225, 77, 226)",2,mbtiauth_8137
2930,"(225, 77, 599)",3,mbtiauth_8137
2931,"(225, 123, 22)",2,mbtiauth_8137
2932,"(225, 123, 77)",2,mbtiauth_8137
2933,"(225, 123, 123)",2,mbtiauth_8137
2934,"(225, 123, 256)",2,mbtiauth_8137
2935,"(225, 123, 599)",3,mbtiauth_8137
2936,"(225, 134, 64)",2,mbtiauth_8137
2937,"(225, 160, 64)",2,mbtiauth_8137
2938,"(225, 222, 123)",3,mbtiauth_8137
2939,"(225, 222, 356)",2,mbtiauth_8137
2940,"(225, 222, 599)",3,mbtiauth_8137
2941,"(225, 268, 77)",2,mbtiauth_8137
2942,"(225, 268, 691)",2,mbtiauth_8137
2943,"(225, 443, 64)",2,mbtiauth_8137
2944,"(225, 443, 160)",2,mbtiauth_8137
2945,"(225, 599, 123)",3,mbtiauth_8137
2946,"(225, 599, 226)",2,mbtiauth_8137
2947,"(225, 691, 64)",2,mbtiauth_8137
2948,"(225, 691, 77)",3,mbtiauth_8137
2949,"(225, 691, 123)",2,mbtiauth_8137
2950,"(225, 1166, 222)",2,mbtiauth_8137
2951,"(225, 1313, 64)",2,mbtiauth_8137
2952,"(226, 64, 365)",2,mbtiauth_8137
2953,"(226, 123, 2)",2,mbtiauth_8137
2954,"(236, 77, 123)",2,mbtiauth_8137
2955,"(236, 123, 77)",2,mbtiauth_8137
2956,"(236, 123, 123)",3,mbtiauth_8137
2957,"(236, 123, 152)",2,mbtiauth_8137
2958,"(236, 123, 174)",2,mbtiauth_8137
2959,"(236, 152, 123)",2,mbtiauth_8137
2960,"(236, 170, 77)",2,mbtiauth_8137
2961,"(236, 174, 123)",2,mbtiauth_8137
2962,"(246, 77, 384)",2,mbtiauth_8137
2963,"(246, 123, 174)",3,mbtiauth_8137
2964,"(246, 123, 222)",2,mbtiauth_8137
2965,"(246, 123, 225)",2,mbtiauth_8137
2966,"(246, 225, 222)",2,mbtiauth_8137
2967,"(254, 22, 417)",2,mbtiauth_8137
2968,"(260, 286, 123)",2,mbtiauth_8137
2969,"(262, 65, 77)",2,mbtiauth_8137
2970,"(262, 77, 64)",2,mbtiauth_8137
2971,"(262, 77, 123)",2,mbtiauth_8137
2972,"(262, 77, 599)",2,mbtiauth_8137
2973,"(262, 123, 64)",2,mbtiauth_8137
2974,"(262, 441, 599)",2,mbtiauth_8137
2975,"(262, 599, 123)",3,mbtiauth_8137
2976,"(268, 2, 77)",2,mbtiauth_8137
2977,"(268, 162, 64)",2,mbtiauth_8137
2978,"(268, 162, 77)",2,mbtiauth_8137
2979,"(268, 691, 77)",2,mbtiauth_8137
2980,"(280, 64, 67)",2,mbtiauth_8137
2981,"(280, 77, 10)",2,mbtiauth_8137
2982,"(280, 77, 64)",2,mbtiauth_8137
2983,"(280, 77, 67)",2,mbtiauth_8137
2984,"(280, 77, 123)",3,mbtiauth_8137
2985,"(280, 77, 154)",2,mbtiauth_8137
2986,"(280, 123, 10)",2,mbtiauth_8137
2987,"(280, 123, 64)",3,mbtiauth_8137
2988,"(280, 123, 67)",2,mbtiauth_8137
2989,"(280, 123, 174)",2,mbtiauth_8137
2990,"(280, 183, 123)",2,mbtiauth_8137
2991,"(280, 183, 174)",2,mbtiauth_8137
2992,"(280, 183, 520)",2,mbtiauth_8137
2993,"(280, 349, 183)",2,mbtiauth_8137
2994,"(280, 520, 123)",2,mbtiauth_8137
2995,"(280, 520, 174)",2,mbtiauth_8137
2996,"(285, 220, 123)",2,mbtiauth_8137
2997,"(286, 2, 29)",2,mbtiauth_8137
2998,"(286, 2, 64)",3,mbtiauth_8137
2999,"(286, 2, 65)",2,mbtiauth_8137
3000,"(286, 2, 1219)",2,mbtiauth_8137
3001,"(286, 32, 29)",2,mbtiauth_8137
3002,"(286, 64, 65)",2,mbtiauth_8137
3003,"(286, 64, 79)",2,mbtiauth_8137
3004,"(286, 64, 198)",2,mbtiauth_8137
3005,"(286, 64, 1219)",2,mbtiauth_8137
3006,"(286, 65, 1219)",2,mbtiauth_8137
3007,"(286, 67, 32)",2,mbtiauth_8137
3008,"(286, 77, 2)",2,mbtiauth_8137
3009,"(286, 77, 165)",2,mbtiauth_8137
3010,"(286, 77, 268)",2,mbtiauth_8137
3011,"(286, 79, 198)",2,mbtiauth_8137
3012,"(286, 123, 2)",4,mbtiauth_8137
3013,"(286, 123, 29)",2,mbtiauth_8137
3014,"(286, 123, 32)",2,mbtiauth_8137
3015,"(286, 123, 64)",2,mbtiauth_8137
3016,"(286, 123, 67)",4,mbtiauth_8137
3017,"(286, 123, 77)",4,mbtiauth_8137
3018,"(286, 123, 165)",2,mbtiauth_8137
3019,"(286, 123, 174)",3,mbtiauth_8137
3020,"(286, 123, 268)",2,mbtiauth_8137
3021,"(286, 123, 326)",2,mbtiauth_8137
3022,"(286, 123, 3006)",2,mbtiauth_8137
3023,"(286, 1165, 2)",2,mbtiauth_8137
3024,"(322, 1263, 77)",2,mbtiauth_8137
3025,"(326, 123, 64)",2,mbtiauth_8137
3026,"(340, 226, 670)",2,mbtiauth_8137
3027,"(340, 599, 226)",2,mbtiauth_8137
3028,"(356, 2, 64)",2,mbtiauth_8137
3029,"(356, 2, 77)",2,mbtiauth_8137
3030,"(356, 64, 77)",2,mbtiauth_8137
3031,"(369, 22, 2)",2,mbtiauth_8137
3032,"(369, 64, 222)",2,mbtiauth_8137
3033,"(369, 145, 32)",2,mbtiauth_8137
3034,"(384, 2, 77)",2,mbtiauth_8137
3035,"(384, 2, 152)",2,mbtiauth_8137
3036,"(384, 77, 77)",2,mbtiauth_8137
3037,"(384, 123, 77)",2,mbtiauth_8137
3038,"(384, 123, 152)",2,mbtiauth_8137
3039,"(384, 236, 77)",2,mbtiauth_8137
3040,"(384, 236, 123)",2,mbtiauth_8137
3041,"(384, 236, 152)",2,mbtiauth_8137
3042,"(431, 2, 64)",2,mbtiauth_8137
3043,"(431, 77, 22)",3,mbtiauth_8137
3044,"(431, 77, 77)",2,mbtiauth_8137
3045,"(431, 77, 123)",2,mbtiauth_8137
3046,"(431, 77, 441)",2,mbtiauth_8137
3047,"(431, 384, 22)",2,mbtiauth_8137
3048,"(431, 441, 22)",2,mbtiauth_8137
3049,"(441, 2, 64)",2,mbtiauth_8137
3050,"(441, 2, 66)",2,mbtiauth_8137
3051,"(441, 2, 183)",2,mbtiauth_8137
3052,"(441, 2, 349)",2,mbtiauth_8137
3053,"(441, 16, 123)",2,mbtiauth_8137
3054,"(441, 16, 1191)",2,mbtiauth_8137
3055,"(441, 22, 2)",2,mbtiauth_8137
3056,"(441, 22, 15)",2,mbtiauth_8137
3057,"(441, 22, 22)",3,mbtiauth_8137
3058,"(441, 22, 77)",2,mbtiauth_8137
3059,"(441, 22, 340)",2,mbtiauth_8137
3060,"(441, 32, 64)",2,mbtiauth_8137
3061,"(441, 32, 77)",2,mbtiauth_8137
3062,"(441, 64, 64)",4,mbtiauth_8137
3063,"(441, 64, 67)",2,mbtiauth_8137
3064,"(441, 64, 77)",2,mbtiauth_8137
3065,"(441, 64, 123)",2,mbtiauth_8137
3066,"(441, 64, 144)",3,mbtiauth_8137
3067,"(441, 64, 154)",2,mbtiauth_8137
3068,"(441, 64, 164)",2,mbtiauth_8137
3069,"(441, 64, 183)",2,mbtiauth_8137
3070,"(441, 64, 225)",2,mbtiauth_8137
3071,"(441, 64, 765)",3,mbtiauth_8137
3072,"(441, 64, 5779)",2,mbtiauth_8137
3073,"(441, 65, 1166)",2,mbtiauth_8137
3074,"(441, 77, 22)",3,mbtiauth_8137
3075,"(441, 77, 32)",2,mbtiauth_8137
3076,"(441, 77, 64)",2,mbtiauth_8137
3077,"(441, 77, 77)",3,mbtiauth_8137
3078,"(441, 77, 123)",3,mbtiauth_8137
3079,"(441, 77, 154)",2,mbtiauth_8137
3080,"(441, 77, 225)",2,mbtiauth_8137
3081,"(441, 77, 356)",2,mbtiauth_8137
3082,"(441, 77, 5779)",2,mbtiauth_8137
3083,"(441, 123, 16)",2,mbtiauth_8137
3084,"(441, 123, 22)",2,mbtiauth_8137
3085,"(441, 123, 73)",2,mbtiauth_8137
3086,"(441, 123, 77)",2,mbtiauth_8137
3087,"(441, 123, 123)",3,mbtiauth_8137
3088,"(441, 123, 174)",2,mbtiauth_8137
3089,"(441, 123, 286)",2,mbtiauth_8137
3090,"(441, 123, 1191)",2,mbtiauth_8137
3091,"(441, 151, 64)",2,mbtiauth_8137
3092,"(441, 154, 66)",2,mbtiauth_8137
3093,"(441, 174, 16)",2,mbtiauth_8137
3094,"(441, 174, 123)",2,mbtiauth_8137
3095,"(441, 174, 1191)",2,mbtiauth_8137
3096,"(441, 225, 22)",2,mbtiauth_8137
3097,"(441, 225, 77)",2,mbtiauth_8137
3098,"(441, 225, 123)",3,mbtiauth_8137
3099,"(441, 225, 5779)",2,mbtiauth_8137
3100,"(441, 280, 77)",2,mbtiauth_8137
3101,"(441, 280, 123)",2,mbtiauth_8137
3102,"(441, 286, 123)",2,mbtiauth_8137
3103,"(441, 340, 22)",2,mbtiauth_8137
3104,"(441, 349, 183)",2,mbtiauth_8137
3105,"(441, 599, 16)",2,mbtiauth_8137
3106,"(441, 929, 2)",2,mbtiauth_8137
3107,"(441, 929, 693)",2,mbtiauth_8137
3108,"(441, 1191, 123)",2,mbtiauth_8137
3109,"(443, 64, 1263)",2,mbtiauth_8137
3110,"(443, 77, 77)",2,mbtiauth_8137
3111,"(443, 79, 198)",2,mbtiauth_8137
3112,"(443, 79, 443)",2,mbtiauth_8137
3113,"(443, 160, 64)",3,mbtiauth_8137
3114,"(443, 198, 443)",2,mbtiauth_8137
3115,"(443, 340, 77)",2,mbtiauth_8137
3116,"(517, 441, 64)",2,mbtiauth_8137
3117,"(520, 2, 123)",2,mbtiauth_8137
3118,"(520, 77, 196)",2,mbtiauth_8137
3119,"(520, 123, 174)",3,mbtiauth_8137
3120,"(520, 123, 3006)",2,mbtiauth_8137
3121,"(520, 160, 64)",2,mbtiauth_8137
3122,"(520, 286, 123)",2,mbtiauth_8137
3123,"(520, 286, 3006)",2,mbtiauth_8137
3124,"(520, 443, 64)",2,mbtiauth_8137
3125,"(520, 443, 160)",2,mbtiauth_8137
3126,"(533, 123, 2)",2,mbtiauth_8137
3127,"(567, 77, 120)",2,mbtiauth_8137
3128,"(567, 77, 123)",2,mbtiauth_8137
3129,"(599, 10, 280)",2,mbtiauth_8137
3130,"(599, 10, 349)",2,mbtiauth_8137
3131,"(599, 10, 683)",2,mbtiauth_8137
3132,"(599, 64, 64)",2,mbtiauth_8137
3133,"(599, 64, 349)",2,mbtiauth_8137
3134,"(599, 65, 671)",2,mbtiauth_8137
3135,"(599, 77, 65)",2,mbtiauth_8137
3136,"(599, 77, 123)",3,mbtiauth_8137
3137,"(599, 77, 151)",2,mbtiauth_8137
3138,"(599, 77, 193)",2,mbtiauth_8137
3139,"(599, 77, 671)",2,mbtiauth_8137
3140,"(599, 123, 2)",2,mbtiauth_8137
3141,"(599, 123, 16)",2,mbtiauth_8137
3142,"(599, 123, 22)",2,mbtiauth_8137
3143,"(599, 123, 64)",3,mbtiauth_8137
3144,"(599, 123, 77)",2,mbtiauth_8137
3145,"(599, 123, 123)",2,mbtiauth_8137
3146,"(599, 123, 151)",2,mbtiauth_8137
3147,"(599, 123, 174)",2,mbtiauth_8137
3148,"(599, 123, 183)",2,mbtiauth_8137
3149,"(599, 123, 193)",4,mbtiauth_8137
3150,"(599, 123, 213)",2,mbtiauth_8137
3151,"(599, 123, 280)",2,mbtiauth_8137
3152,"(599, 123, 286)",2,mbtiauth_8137
3153,"(599, 123, 349)",2,mbtiauth_8137
3154,"(599, 123, 441)",2,mbtiauth_8137
3155,"(599, 123, 520)",2,mbtiauth_8137
3156,"(599, 123, 683)",2,mbtiauth_8137
3157,"(599, 162, 213)",2,mbtiauth_8137
3158,"(599, 164, 2)",2,mbtiauth_8137
3159,"(599, 193, 22)",2,mbtiauth_8137
3160,"(599, 286, 123)",2,mbtiauth_8137
3161,"(599, 334, 22)",2,mbtiauth_8137
3162,"(599, 349, 64)",2,mbtiauth_8137
3163,"(599, 349, 183)",2,mbtiauth_8137
3164,"(599, 441, 64)",2,mbtiauth_8137
3165,"(599, 683, 280)",2,mbtiauth_8137
3166,"(613, 22, 599)",2,mbtiauth_8137
3167,"(630, 77, 123)",2,mbtiauth_8137
3168,"(630, 77, 268)",2,mbtiauth_8137
3169,"(630, 123, 268)",2,mbtiauth_8137
3170,"(638, 64, 64)",2,mbtiauth_8137
3171,"(648, 322, 10)",2,mbtiauth_8137
3172,"(654, 193, 193)",2,mbtiauth_8137
3173,"(683, 77, 123)",3,mbtiauth_8137
3174,"(683, 123, 123)",2,mbtiauth_8137
3175,"(683, 123, 174)",2,mbtiauth_8137
3176,"(683, 123, 286)",2,mbtiauth_8137
3177,"(683, 520, 123)",2,mbtiauth_8137
3178,"(683, 599, 123)",2,mbtiauth_8137
3179,"(691, 77, 123)",2,mbtiauth_8137
3180,"(701, 64, 222)",2,mbtiauth_8137
3181,"(701, 280, 441)",2,mbtiauth_8137
3182,"(823, 31, 66)",2,mbtiauth_8137
3183,"(823, 31, 77)",2,mbtiauth_8137
3184,"(823, 31, 441)",2,mbtiauth_8137
3185,"(823, 66, 77)",2,mbtiauth_8137
3186,"(823, 66, 123)",2,mbtiauth_8137
3187,"(823, 66, 174)",2,mbtiauth_8137
3188,"(823, 66, 286)",2,mbtiauth_8137
3189,"(823, 77, 123)",2,mbtiauth_8137
3190,"(823, 77, 154)",2,mbtiauth_8137
3191,"(823, 77, 441)",2,mbtiauth_8137
3192,"(823, 77, 599)",2,mbtiauth_8137
3193,"(823, 117, 22)",2,mbtiauth_8137
3194,"(823, 123, 120)",2,mbtiauth_8137
3195,"(823, 123, 123)",2,mbtiauth_8137
3196,"(823, 123, 174)",2,mbtiauth_8137
3197,"(823, 123, 286)",2,mbtiauth_8137
3198,"(823, 123, 441)",2,mbtiauth_8137
3199,"(823, 123, 599)",2,mbtiauth_8137
3200,"(823, 431, 77)",2,mbtiauth_8137
3201,"(823, 441, 599)",3,mbtiauth_8137
3202,"(850, 77, 123)",3,mbtiauth_8137
3203,"(936, 77, 123)",2,mbtiauth_8137
3204,"(1024, 170, 1672)",2,mbtiauth_8137
3205,"(1024, 193, 170)",2,mbtiauth_8137
3206,"(1024, 193, 1672)",2,mbtiauth_8137
3207,"(1030, 2, 77)",2,mbtiauth_8137
3208,"(1030, 64, 365)",2,mbtiauth_8137
3209,"(1030, 226, 64)",2,mbtiauth_8137
3210,"(1030, 226, 365)",2,mbtiauth_8137
3211,"(1165, 2, 64)",2,mbtiauth_8137
3212,"(1166, 2, 64)",2,mbtiauth_8137
3213,"(1166, 2, 369)",2,mbtiauth_8137
3214,"(1166, 22, 170)",2,mbtiauth_8137
3215,"(1166, 64, 64)",2,mbtiauth_8137
3216,"(1166, 64, 369)",2,mbtiauth_8137
3217,"(1166, 77, 22)",2,mbtiauth_8137
3218,"(1166, 77, 170)",2,mbtiauth_8137
3219,"(1166, 369, 64)",2,mbtiauth_8137
3220,"(1219, 77, 77)",2,mbtiauth_8137
3221,"(1225, 123, 22)",2,mbtiauth_8137
3222,"(1225, 154, 22)",2,mbtiauth_8137
3223,"(1225, 441, 22)",2,mbtiauth_8137
3224,"(1310, 123, 174)",2,mbtiauth_8137
3225,"(1411, 193, 591)",2,mbtiauth_8137
3226,"(1672, 123, 2)",2,mbtiauth_8137
3227,"(1672, 254, 123)",2,mbtiauth_8137
3228,"(2555, 77, 183)",2,mbtiauth_8137
3229,"(2737, 602, 170)",2,mbtiauth_8137
3230,"(2910, 2, 64)",2,mbtiauth_8137
3231,"(2910, 2, 369)",2,mbtiauth_8137
3232,"(2910, 64, 2)",2,mbtiauth_8137
3233,"(2910, 64, 64)",2,mbtiauth_8137
3234,"(2910, 64, 369)",2,mbtiauth_8137
3235,"(2910, 369, 64)",2,mbtiauth_8137
3236,"(2958, 154, 123)",2,mbtiauth_8137
3237,"(3369, 2, 64)",2,mbtiauth_8137
3238,"(3369, 2, 164)",2,mbtiauth_8137
3239,"(4520, 22, 77)",2,mbtiauth_8137
3240,"(4520, 77, 22)",2,mbtiauth_8137
3241,"(4520, 77, 77)",2,mbtiauth_8137
3242,"(14250, 77, 123)",2,mbtiauth_8137
3243,"(14250, 77, 154)",2,mbtiauth_8137
3244,"(2, 2, 77, 41)",2,mbtiauth_8137
3245,"(2, 41, 369, 32)",2,mbtiauth_8137
3246,"(2, 64, 64, 222)",2,mbtiauth_8137
3247,"(2, 64, 78, 78)",2,mbtiauth_8137
3248,"(2, 64, 144, 599)",2,mbtiauth_8137
3249,"(2, 64, 222, 356)",2,mbtiauth_8137
3250,"(2, 64, 225, 599)",2,mbtiauth_8137
3251,"(2, 64, 369, 64)",2,mbtiauth_8137
3252,"(2, 65, 2, 77)",2,mbtiauth_8137
3253,"(2, 65, 78, 78)",2,mbtiauth_8137
3254,"(2, 77, 77, 212)",2,mbtiauth_8137
3255,"(2, 77, 599, 64)",2,mbtiauth_8137
3256,"(2, 77, 599, 123)",2,mbtiauth_8137
3257,"(2, 123, 64, 65)",2,mbtiauth_8137
3258,"(2, 123, 144, 77)",2,mbtiauth_8137
3259,"(2, 123, 441, 64)",2,mbtiauth_8137
3260,"(2, 164, 225, 599)",2,mbtiauth_8137
3261,"(2, 165, 67, 77)",2,mbtiauth_8137
3262,"(2, 171, 365, 10)",2,mbtiauth_8137
3263,"(2, 198, 145, 32)",2,mbtiauth_8137
3264,"(2, 225, 77, 599)",2,mbtiauth_8137
3265,"(2, 225, 222, 356)",2,mbtiauth_8137
3266,"(2, 369, 64, 222)",2,mbtiauth_8137
3267,"(2, 369, 145, 32)",2,mbtiauth_8137
3268,"(2, 599, 123, 64)",2,mbtiauth_8137
3269,"(2, 599, 123, 441)",2,mbtiauth_8137
3270,"(2, 599, 441, 64)",2,mbtiauth_8137
3271,"(3, 77, 123, 193)",2,mbtiauth_8137
3272,"(3, 77, 599, 123)",2,mbtiauth_8137
3273,"(3, 77, 599, 193)",2,mbtiauth_8137
3274,"(3, 599, 123, 193)",2,mbtiauth_8137
3275,"(10, 22, 77, 151)",2,mbtiauth_8137
3276,"(10, 29, 972, 77)",2,mbtiauth_8137
3277,"(10, 280, 183, 520)",2,mbtiauth_8137
3278,"(10, 599, 123, 77)",2,mbtiauth_8137
3279,"(22, 64, 193, 10)",2,mbtiauth_8137
3280,"(22, 123, 22, 151)",2,mbtiauth_8137
3281,"(22, 123, 77, 22)",2,mbtiauth_8137
3282,"(22, 193, 22, 151)",2,mbtiauth_8137
3283,"(22, 1411, 193, 591)",2,mbtiauth_8137
3284,"(32, 2, 165, 67)",2,mbtiauth_8137
3285,"(32, 120, 441, 64)",2,mbtiauth_8137
3286,"(32, 123, 2, 67)",2,mbtiauth_8137
3287,"(32, 123, 2, 165)",2,mbtiauth_8137
3288,"(32, 123, 120, 64)",2,mbtiauth_8137
3289,"(32, 123, 120, 77)",2,mbtiauth_8137
3290,"(32, 123, 120, 441)",2,mbtiauth_8137
3291,"(32, 123, 165, 67)",2,mbtiauth_8137
3292,"(32, 123, 441, 64)",2,mbtiauth_8137
3293,"(41, 170, 32, 29)",2,mbtiauth_8137
3294,"(41, 183, 154, 22)",2,mbtiauth_8137
3295,"(41, 322, 1263, 77)",2,mbtiauth_8137
3296,"(41, 443, 160, 64)",2,mbtiauth_8137
3297,"(64, 2, 164, 77)",2,mbtiauth_8137
3298,"(64, 2, 183, 164)",2,mbtiauth_8137
3299,"(64, 2, 369, 64)",2,mbtiauth_8137
3300,"(64, 41, 164, 77)",2,mbtiauth_8137
3301,"(64, 65, 78, 78)",2,mbtiauth_8137
3302,"(64, 65, 78, 220)",2,mbtiauth_8137
3303,"(64, 78, 41, 77)",2,mbtiauth_8137
3304,"(64, 78, 78, 220)",2,mbtiauth_8137
3305,"(64, 222, 154, 31)",2,mbtiauth_8137
3306,"(64, 225, 77, 123)",2,mbtiauth_8137
3307,"(65, 22, 77, 22)",2,mbtiauth_8137
3308,"(65, 22, 123, 22)",2,mbtiauth_8137
3309,"(65, 22, 123, 77)",2,mbtiauth_8137
3310,"(65, 32, 154, 64)",2,mbtiauth_8137
3311,"(65, 77, 193, 10)",2,mbtiauth_8137
3312,"(65, 78, 78, 220)",2,mbtiauth_8137
3313,"(65, 123, 77, 22)",2,mbtiauth_8137
3314,"(65, 123, 193, 22)",2,mbtiauth_8137
3315,"(65, 123, 286, 77)",2,mbtiauth_8137
3316,"(65, 123, 286, 123)",2,mbtiauth_8137
3317,"(65, 599, 123, 22)",2,mbtiauth_8137
3318,"(65, 599, 123, 193)",2,mbtiauth_8137
3319,"(65, 599, 193, 22)",2,mbtiauth_8137
3320,"(65, 1219, 77, 77)",2,mbtiauth_8137
3321,"(77, 2, 123, 64)",3,mbtiauth_8137
3322,"(77, 2, 123, 193)",2,mbtiauth_8137
3323,"(77, 2, 441, 64)",3,mbtiauth_8137
3324,"(77, 2, 599, 16)",2,mbtiauth_8137
3325,"(77, 2, 599, 226)",2,mbtiauth_8137
3326,"(77, 10, 683, 280)",2,mbtiauth_8137
3327,"(77, 22, 77, 168)",2,mbtiauth_8137
3328,"(77, 22, 144, 193)",2,mbtiauth_8137
3329,"(77, 22, 170, 64)",2,mbtiauth_8137
3330,"(77, 32, 77, 2)",2,mbtiauth_8137
3331,"(77, 64, 349, 64)",2,mbtiauth_8137
3332,"(77, 64, 765, 599)",2,mbtiauth_8137
3333,"(77, 77, 2, 171)",2,mbtiauth_8137
3334,"(77, 77, 123, 77)",2,mbtiauth_8137
3335,"(77, 77, 123, 120)",2,mbtiauth_8137
3336,"(77, 77, 123, 123)",2,mbtiauth_8137
3337,"(77, 77, 123, 280)",2,mbtiauth_8137
3338,"(77, 77, 212, 50)",2,mbtiauth_8137
3339,"(77, 120, 123, 77)",2,mbtiauth_8137
3340,"(77, 120, 123, 174)",2,mbtiauth_8137
3341,"(77, 120, 236, 123)",2,mbtiauth_8137
3342,"(77, 120, 384, 123)",2,mbtiauth_8137
3343,"(77, 120, 384, 236)",2,mbtiauth_8137
3344,"(77, 123, 2, 16)",3,mbtiauth_8137
3345,"(77, 123, 2, 64)",3,mbtiauth_8137
3346,"(77, 123, 2, 77)",2,mbtiauth_8137
3347,"(77, 123, 2, 117)",2,mbtiauth_8137
3348,"(77, 123, 2, 123)",2,mbtiauth_8137
3349,"(77, 123, 2, 225)",2,mbtiauth_8137
3350,"(77, 123, 2, 226)",2,mbtiauth_8137
3351,"(77, 123, 2, 599)",3,mbtiauth_8137
3352,"(77, 123, 22, 599)",2,mbtiauth_8137
3353,"(77, 123, 77, 123)",3,mbtiauth_8137
3354,"(77, 123, 120, 2)",2,mbtiauth_8137
3355,"(77, 123, 120, 77)",3,mbtiauth_8137
3356,"(77, 123, 120, 123)",3,mbtiauth_8137
3357,"(77, 123, 120, 174)",2,mbtiauth_8137
3358,"(77, 123, 120, 236)",2,mbtiauth_8137
3359,"(77, 123, 120, 286)",3,mbtiauth_8137
3360,"(77, 123, 120, 384)",3,mbtiauth_8137
3361,"(77, 123, 123, 77)",4,mbtiauth_8137
3362,"(77, 123, 123, 123)",2,mbtiauth_8137
3363,"(77, 123, 123, 174)",3,mbtiauth_8137
3364,"(77, 123, 123, 441)",2,mbtiauth_8137
3365,"(77, 123, 162, 225)",2,mbtiauth_8137
3366,"(77, 123, 164, 225)",2,mbtiauth_8137
3367,"(77, 123, 174, 2)",2,mbtiauth_8137
3368,"(77, 123, 174, 171)",2,mbtiauth_8137
3369,"(77, 123, 226, 123)",2,mbtiauth_8137
3370,"(77, 123, 236, 123)",2,mbtiauth_8137
3371,"(77, 123, 268, 2)",2,mbtiauth_8137
3372,"(77, 123, 268, 77)",2,mbtiauth_8137
3373,"(77, 123, 280, 77)",2,mbtiauth_8137
3374,"(77, 123, 280, 123)",2,mbtiauth_8137
3375,"(77, 123, 286, 77)",2,mbtiauth_8137
3376,"(77, 123, 286, 123)",2,mbtiauth_8137
3377,"(77, 123, 340, 226)",2,mbtiauth_8137
3378,"(77, 123, 349, 183)",2,mbtiauth_8137
3379,"(77, 123, 384, 123)",2,mbtiauth_8137
3380,"(77, 123, 384, 236)",2,mbtiauth_8137
3381,"(77, 123, 441, 2)",2,mbtiauth_8137
3382,"(77, 123, 441, 16)",2,mbtiauth_8137
3383,"(77, 123, 441, 64)",2,mbtiauth_8137
3384,"(77, 123, 441, 599)",2,mbtiauth_8137
3385,"(77, 123, 599, 16)",2,mbtiauth_8137
3386,"(77, 123, 599, 226)",2,mbtiauth_8137
3387,"(77, 123, 683, 280)",2,mbtiauth_8137
3388,"(77, 123, 1913, 123)",2,mbtiauth_8137
3389,"(77, 154, 123, 120)",2,mbtiauth_8137
3390,"(77, 154, 123, 123)",2,mbtiauth_8137
3391,"(77, 154, 123, 174)",2,mbtiauth_8137
3392,"(77, 193, 280, 441)",2,mbtiauth_8137
3393,"(77, 193, 683, 280)",2,mbtiauth_8137
3394,"(77, 193, 701, 280)",2,mbtiauth_8137
3395,"(77, 193, 701, 441)",2,mbtiauth_8137
3396,"(77, 212, 2, 2)",2,mbtiauth_8137
3397,"(77, 212, 2, 77)",2,mbtiauth_8137
3398,"(77, 212, 2, 171)",2,mbtiauth_8137
3399,"(77, 226, 64, 365)",2,mbtiauth_8137
3400,"(77, 262, 123, 64)",2,mbtiauth_8137
3401,"(77, 268, 2, 77)",2,mbtiauth_8137
3402,"(77, 286, 123, 77)",2,mbtiauth_8137
3403,"(77, 441, 77, 32)",2,mbtiauth_8137
3404,"(77, 517, 441, 64)",2,mbtiauth_8137
3405,"(77, 599, 10, 280)",2,mbtiauth_8137
3406,"(77, 599, 10, 349)",2,mbtiauth_8137
3407,"(77, 599, 10, 683)",2,mbtiauth_8137
3408,"(77, 599, 64, 64)",2,mbtiauth_8137
3409,"(77, 599, 64, 349)",2,mbtiauth_8137
3410,"(77, 599, 77, 123)",2,mbtiauth_8137
3411,"(77, 599, 123, 64)",3,mbtiauth_8137
3412,"(77, 599, 123, 183)",2,mbtiauth_8137
3413,"(77, 599, 123, 193)",2,mbtiauth_8137
3414,"(77, 599, 123, 213)",2,mbtiauth_8137
3415,"(77, 599, 123, 280)",2,mbtiauth_8137
3416,"(77, 599, 123, 349)",2,mbtiauth_8137
3417,"(77, 599, 123, 441)",2,mbtiauth_8137
3418,"(77, 599, 123, 683)",2,mbtiauth_8137
3419,"(77, 599, 162, 213)",2,mbtiauth_8137
3420,"(77, 599, 349, 64)",2,mbtiauth_8137
3421,"(77, 599, 349, 183)",2,mbtiauth_8137
3422,"(77, 599, 441, 64)",2,mbtiauth_8137
3423,"(77, 599, 683, 280)",2,mbtiauth_8137
3424,"(77, 613, 22, 599)",2,mbtiauth_8137
3425,"(77, 701, 280, 441)",2,mbtiauth_8137
3426,"(78, 123, 2, 123)",2,mbtiauth_8137
3427,"(78, 123, 174, 2)",2,mbtiauth_8137
3428,"(78, 123, 174, 123)",2,mbtiauth_8137
3429,"(78, 174, 2, 123)",2,mbtiauth_8137
3430,"(79, 198, 64, 2)",2,mbtiauth_8137
3431,"(120, 77, 64, 67)",2,mbtiauth_8137
3432,"(120, 77, 441, 64)",2,mbtiauth_8137
3433,"(120, 77, 441, 77)",2,mbtiauth_8137
3434,"(120, 384, 236, 123)",2,mbtiauth_8137
3435,"(120, 441, 64, 67)",2,mbtiauth_8137
3436,"(120, 441, 64, 77)",2,mbtiauth_8137
3437,"(120, 441, 64, 225)",2,mbtiauth_8137
3438,"(120, 441, 77, 64)",2,mbtiauth_8137
3439,"(123, 2, 64, 144)",2,mbtiauth_8137
3440,"(123, 2, 64, 222)",3,mbtiauth_8137
3441,"(123, 2, 65, 1219)",2,mbtiauth_8137
3442,"(123, 2, 67, 77)",2,mbtiauth_8137
3443,"(123, 2, 77, 599)",2,mbtiauth_8137
3444,"(123, 2, 77, 638)",2,mbtiauth_8137
3445,"(123, 2, 123, 32)",2,mbtiauth_8137
3446,"(123, 2, 123, 64)",2,mbtiauth_8137
3447,"(123, 2, 123, 144)",2,mbtiauth_8137
3448,"(123, 2, 123, 441)",2,mbtiauth_8137
3449,"(123, 2, 154, 22)",2,mbtiauth_8137
3450,"(123, 2, 165, 67)",2,mbtiauth_8137
3451,"(123, 2, 165, 77)",2,mbtiauth_8137
3452,"(123, 2, 183, 164)",2,mbtiauth_8137
3453,"(123, 2, 225, 64)",2,mbtiauth_8137
3454,"(123, 2, 225, 222)",2,mbtiauth_8137
3455,"(123, 2, 226, 64)",2,mbtiauth_8137
3456,"(123, 2, 441, 64)",2,mbtiauth_8137
3457,"(123, 2, 599, 16)",2,mbtiauth_8137
3458,"(123, 2, 599, 64)",2,mbtiauth_8137
3459,"(123, 2, 599, 123)",2,mbtiauth_8137
3460,"(123, 2, 599, 441)",2,mbtiauth_8137
3461,"(123, 16, 1191, 123)",2,mbtiauth_8137
3462,"(123, 22, 77, 22)",2,mbtiauth_8137
3463,"(123, 22, 123, 22)",2,mbtiauth_8137
3464,"(123, 22, 123, 77)",2,mbtiauth_8137
3465,"(123, 22, 123, 165)",2,mbtiauth_8137
3466,"(123, 22, 151, 193)",2,mbtiauth_8137
3467,"(123, 22, 225, 22)",2,mbtiauth_8137
3468,"(123, 22, 340, 22)",2,mbtiauth_8137
3469,"(123, 22, 599, 120)",2,mbtiauth_8137
3470,"(123, 32, 2, 165)",2,mbtiauth_8137
3471,"(123, 32, 123, 2)",2,mbtiauth_8137
3472,"(123, 32, 123, 165)",2,mbtiauth_8137
3473,"(123, 50, 77, 123)",2,mbtiauth_8137
3474,"(123, 50, 123, 22)",2,mbtiauth_8137
3475,"(123, 64, 2, 64)",2,mbtiauth_8137
3476,"(123, 64, 2, 164)",2,mbtiauth_8137
3477,"(123, 64, 2, 183)",2,mbtiauth_8137
3478,"(123, 64, 10, 65)",2,mbtiauth_8137
3479,"(123, 64, 65, 78)",2,mbtiauth_8137
3480,"(123, 64, 65, 1219)",2,mbtiauth_8137
3481,"(123, 64, 77, 64)",2,mbtiauth_8137
3482,"(123, 64, 79, 198)",2,mbtiauth_8137
3483,"(123, 64, 123, 144)",3,mbtiauth_8137
3484,"(123, 64, 183, 164)",2,mbtiauth_8137
3485,"(123, 64, 225, 123)",2,mbtiauth_8137
3486,"(123, 65, 77, 123)",2,mbtiauth_8137
3487,"(123, 65, 123, 77)",2,mbtiauth_8137
3488,"(123, 77, 2, 77)",3,mbtiauth_8137
3489,"(123, 77, 22, 151)",2,mbtiauth_8137
3490,"(123, 77, 64, 67)",2,mbtiauth_8137
3491,"(123, 77, 67, 77)",2,mbtiauth_8137
3492,"(123, 77, 77, 123)",5,mbtiauth_8137
3493,"(123, 77, 77, 225)",2,mbtiauth_8137
3494,"(123, 77, 117, 123)",2,mbtiauth_8137
3495,"(123, 77, 123, 77)",2,mbtiauth_8137
3496,"(123, 77, 123, 120)",2,mbtiauth_8137
3497,"(123, 77, 123, 123)",3,mbtiauth_8137
3498,"(123, 77, 123, 162)",2,mbtiauth_8137
3499,"(123, 77, 123, 213)",2,mbtiauth_8137
3500,"(123, 77, 123, 225)",2,mbtiauth_8137
3501,"(123, 77, 123, 268)",2,mbtiauth_8137
3502,"(123, 77, 123, 286)",2,mbtiauth_8137
3503,"(123, 77, 123, 356)",2,mbtiauth_8137
3504,"(123, 77, 123, 441)",2,mbtiauth_8137
3505,"(123, 77, 154, 123)",2,mbtiauth_8137
3506,"(123, 77, 162, 201)",2,mbtiauth_8137
3507,"(123, 77, 162, 213)",2,mbtiauth_8137
3508,"(123, 77, 162, 225)",2,mbtiauth_8137
3509,"(123, 77, 226, 1672)",2,mbtiauth_8137
3510,"(123, 77, 254, 123)",2,mbtiauth_8137
3511,"(123, 77, 441, 64)",2,mbtiauth_8137
3512,"(123, 77, 441, 77)",3,mbtiauth_8137
3513,"(123, 77, 599, 77)",2,mbtiauth_8137
3514,"(123, 77, 599, 123)",5,mbtiauth_8137
3515,"(123, 77, 599, 162)",2,mbtiauth_8137
3516,"(123, 77, 599, 213)",2,mbtiauth_8137
3517,"(123, 77, 599, 226)",2,mbtiauth_8137
3518,"(123, 120, 2, 77)",2,mbtiauth_8137
3519,"(123, 120, 64, 67)",2,mbtiauth_8137
3520,"(123, 120, 64, 77)",2,mbtiauth_8137
3521,"(123, 120, 64, 225)",2,mbtiauth_8137
3522,"(123, 120, 77, 64)",3,mbtiauth_8137
3523,"(123, 120, 77, 67)",2,mbtiauth_8137
3524,"(123, 120, 77, 77)",2,mbtiauth_8137
3525,"(123, 120, 77, 411)",2,mbtiauth_8137
3526,"(123, 120, 77, 441)",2,mbtiauth_8137
3527,"(123, 120, 123, 77)",2,mbtiauth_8137
3528,"(123, 120, 123, 174)",2,mbtiauth_8137
3529,"(123, 120, 236, 123)",2,mbtiauth_8137
3530,"(123, 120, 384, 123)",2,mbtiauth_8137
3531,"(123, 120, 384, 236)",2,mbtiauth_8137
3532,"(123, 120, 441, 64)",3,mbtiauth_8137
3533,"(123, 120, 441, 67)",2,mbtiauth_8137
3534,"(123, 120, 441, 77)",3,mbtiauth_8137
3535,"(123, 120, 441, 225)",2,mbtiauth_8137
3536,"(123, 123, 2, 29)",2,mbtiauth_8137
3537,"(123, 123, 2, 64)",2,mbtiauth_8137
3538,"(123, 123, 2, 65)",2,mbtiauth_8137
3539,"(123, 123, 2, 77)",2,mbtiauth_8137
3540,"(123, 123, 2, 123)",2,mbtiauth_8137
3541,"(123, 123, 2, 165)",2,mbtiauth_8137
3542,"(123, 123, 2, 1219)",2,mbtiauth_8137
3543,"(123, 123, 64, 65)",2,mbtiauth_8137
3544,"(123, 123, 64, 1219)",2,mbtiauth_8137
3545,"(123, 123, 65, 1219)",2,mbtiauth_8137
3546,"(123, 123, 67, 32)",2,mbtiauth_8137
3547,"(123, 123, 77, 22)",2,mbtiauth_8137
3548,"(123, 123, 77, 123)",3,mbtiauth_8137
3549,"(123, 123, 77, 165)",2,mbtiauth_8137
3550,"(123, 123, 77, 193)",2,mbtiauth_8137
3551,"(123, 123, 77, 268)",2,mbtiauth_8137
3552,"(123, 123, 123, 32)",2,mbtiauth_8137
3553,"(123, 123, 162, 225)",2,mbtiauth_8137
3554,"(123, 123, 174, 2)",2,mbtiauth_8137
3555,"(123, 123, 174, 77)",2,mbtiauth_8137
3556,"(123, 123, 174, 123)",3,mbtiauth_8137
3557,"(123, 123, 174, 526)",2,mbtiauth_8137
3558,"(123, 123, 286, 123)",2,mbtiauth_8137
3559,"(123, 123, 286, 1165)",2,mbtiauth_8137
3560,"(123, 123, 526, 77)",2,mbtiauth_8137
3561,"(123, 144, 77, 123)",2,mbtiauth_8137
3562,"(123, 144, 77, 170)",2,mbtiauth_8137
3563,"(123, 144, 123, 174)",2,mbtiauth_8137
3564,"(123, 144, 225, 222)",2,mbtiauth_8137
3565,"(123, 144, 286, 123)",2,mbtiauth_8137
3566,"(123, 144, 356, 225)",2,mbtiauth_8137
3567,"(123, 154, 77, 123)",2,mbtiauth_8137
3568,"(123, 154, 162, 225)",2,mbtiauth_8137
3569,"(123, 154, 225, 123)",2,mbtiauth_8137
3570,"(123, 162, 225, 77)",2,mbtiauth_8137
3571,"(123, 164, 77, 599)",2,mbtiauth_8137
3572,"(123, 164, 225, 64)",2,mbtiauth_8137
3573,"(123, 165, 67, 77)",2,mbtiauth_8137
3574,"(123, 170, 77, 123)",2,mbtiauth_8137
3575,"(123, 170, 254, 123)",2,mbtiauth_8137
3576,"(123, 170, 1672, 123)",2,mbtiauth_8137
3577,"(123, 170, 1672, 254)",2,mbtiauth_8137
3578,"(123, 174, 2, 2)",3,mbtiauth_8137
3579,"(123, 174, 2, 41)",2,mbtiauth_8137
3580,"(123, 174, 2, 77)",2,mbtiauth_8137
3581,"(123, 174, 2, 123)",2,mbtiauth_8137
3582,"(123, 174, 16, 123)",2,mbtiauth_8137
3583,"(123, 174, 16, 1191)",2,mbtiauth_8137
3584,"(123, 174, 16, 3006)",2,mbtiauth_8137
3585,"(123, 174, 64, 2)",2,mbtiauth_8137
3586,"(123, 174, 64, 222)",2,mbtiauth_8137
3587,"(123, 174, 65, 77)",2,mbtiauth_8137
3588,"(123, 174, 65, 123)",2,mbtiauth_8137
3589,"(123, 174, 77, 123)",3,mbtiauth_8137
3590,"(123, 174, 77, 1030)",2,mbtiauth_8137
3591,"(123, 174, 123, 77)",2,mbtiauth_8137
3592,"(123, 174, 123, 123)",2,mbtiauth_8137
3593,"(123, 174, 123, 144)",2,mbtiauth_8137
3594,"(123, 174, 193, 123)",2,mbtiauth_8137
3595,"(123, 174, 225, 222)",2,mbtiauth_8137
3596,"(123, 174, 243, 77)",2,mbtiauth_8137
3597,"(123, 174, 286, 123)",2,mbtiauth_8137
3598,"(123, 174, 526, 77)",2,mbtiauth_8137
3599,"(123, 174, 1191, 123)",2,mbtiauth_8137
3600,"(123, 174, 2097, 77)",2,mbtiauth_8137
3601,"(123, 193, 77, 2)",2,mbtiauth_8137
3602,"(123, 193, 77, 123)",4,mbtiauth_8137
3603,"(123, 193, 77, 193)",2,mbtiauth_8137
3604,"(123, 193, 170, 77)",2,mbtiauth_8137
3605,"(123, 193, 170, 123)",3,mbtiauth_8137
3606,"(123, 193, 170, 254)",2,mbtiauth_8137
3607,"(123, 193, 170, 1672)",2,mbtiauth_8137
3608,"(123, 193, 254, 123)",2,mbtiauth_8137
3609,"(123, 193, 1672, 123)",2,mbtiauth_8137
3610,"(123, 193, 1672, 254)",2,mbtiauth_8137
3611,"(123, 213, 77, 123)",2,mbtiauth_8137
3612,"(123, 213, 280, 77)",2,mbtiauth_8137
3613,"(123, 213, 280, 123)",2,mbtiauth_8137
3614,"(123, 225, 64, 222)",2,mbtiauth_8137
3615,"(123, 225, 77, 64)",2,mbtiauth_8137
3616,"(123, 225, 77, 123)",2,mbtiauth_8137
3617,"(123, 225, 123, 22)",2,mbtiauth_8137
3618,"(123, 225, 268, 691)",2,mbtiauth_8137
3619,"(123, 225, 691, 64)",2,mbtiauth_8137
3620,"(123, 225, 691, 77)",2,mbtiauth_8137
3621,"(123, 225, 691, 123)",2,mbtiauth_8137
3622,"(123, 236, 123, 77)",2,mbtiauth_8137
3623,"(123, 236, 123, 123)",2,mbtiauth_8137
3624,"(123, 236, 123, 174)",2,mbtiauth_8137
3625,"(123, 236, 174, 123)",2,mbtiauth_8137
3626,"(123, 268, 2, 77)",2,mbtiauth_8137
3627,"(123, 268, 162, 64)",2,mbtiauth_8137
3628,"(123, 280, 77, 123)",2,mbtiauth_8137
3629,"(123, 286, 2, 29)",2,mbtiauth_8137
3630,"(123, 286, 2, 64)",2,mbtiauth_8137
3631,"(123, 286, 2, 65)",2,mbtiauth_8137
3632,"(123, 286, 2, 1219)",2,mbtiauth_8137
3633,"(123, 286, 32, 29)",2,mbtiauth_8137
3634,"(123, 286, 64, 65)",2,mbtiauth_8137
3635,"(123, 286, 64, 79)",2,mbtiauth_8137
3636,"(123, 286, 64, 198)",2,mbtiauth_8137
3637,"(123, 286, 64, 1219)",2,mbtiauth_8137
3638,"(123, 286, 65, 1219)",2,mbtiauth_8137
3639,"(123, 286, 67, 32)",2,mbtiauth_8137
3640,"(123, 286, 77, 2)",2,mbtiauth_8137
3641,"(123, 286, 77, 165)",2,mbtiauth_8137
3642,"(123, 286, 77, 268)",2,mbtiauth_8137
3643,"(123, 286, 79, 198)",2,mbtiauth_8137
3644,"(123, 286, 123, 2)",4,mbtiauth_8137
3645,"(123, 286, 123, 29)",2,mbtiauth_8137
3646,"(123, 286, 123, 32)",2,mbtiauth_8137
3647,"(123, 286, 123, 67)",3,mbtiauth_8137
3648,"(123, 286, 123, 77)",4,mbtiauth_8137
3649,"(123, 286, 123, 165)",2,mbtiauth_8137
3650,"(123, 286, 123, 174)",2,mbtiauth_8137
3651,"(123, 286, 123, 268)",2,mbtiauth_8137
3652,"(123, 286, 123, 326)",2,mbtiauth_8137
3653,"(123, 286, 1165, 2)",2,mbtiauth_8137
3654,"(123, 340, 226, 670)",2,mbtiauth_8137
3655,"(123, 340, 599, 226)",2,mbtiauth_8137
3656,"(123, 356, 2, 64)",2,mbtiauth_8137
3657,"(123, 384, 236, 123)",2,mbtiauth_8137
3658,"(123, 441, 22, 22)",2,mbtiauth_8137
3659,"(123, 441, 22, 340)",2,mbtiauth_8137
3660,"(123, 441, 64, 64)",2,mbtiauth_8137
3661,"(123, 441, 64, 67)",2,mbtiauth_8137
3662,"(123, 441, 64, 77)",2,mbtiauth_8137
3663,"(123, 441, 64, 123)",2,mbtiauth_8137
3664,"(123, 441, 64, 144)",2,mbtiauth_8137
3665,"(123, 441, 64, 164)",2,mbtiauth_8137
3666,"(123, 441, 64, 225)",2,mbtiauth_8137
3667,"(123, 441, 77, 22)",2,mbtiauth_8137
3668,"(123, 441, 77, 64)",2,mbtiauth_8137
3669,"(123, 441, 77, 123)",3,mbtiauth_8137
3670,"(123, 441, 77, 154)",2,mbtiauth_8137
3671,"(123, 441, 77, 225)",2,mbtiauth_8137
3672,"(123, 441, 77, 356)",2,mbtiauth_8137
3673,"(123, 441, 123, 22)",2,mbtiauth_8137
3674,"(123, 441, 123, 123)",2,mbtiauth_8137
3675,"(123, 441, 154, 66)",2,mbtiauth_8137
3676,"(123, 441, 225, 22)",2,mbtiauth_8137
3677,"(123, 441, 225, 77)",2,mbtiauth_8137
3678,"(123, 441, 225, 123)",3,mbtiauth_8137
3679,"(123, 441, 280, 123)",2,mbtiauth_8137
3680,"(123, 441, 340, 22)",2,mbtiauth_8137
3681,"(123, 443, 160, 64)",2,mbtiauth_8137
3682,"(123, 517, 441, 64)",2,mbtiauth_8137
3683,"(123, 520, 2, 123)",2,mbtiauth_8137
3684,"(123, 599, 77, 123)",2,mbtiauth_8137
3685,"(123, 599, 123, 213)",2,mbtiauth_8137
3686,"(123, 599, 123, 441)",2,mbtiauth_8137
3687,"(123, 599, 162, 213)",2,mbtiauth_8137
3688,"(123, 638, 64, 64)",2,mbtiauth_8137
3689,"(123, 648, 322, 10)",2,mbtiauth_8137
3690,"(123, 683, 77, 123)",3,mbtiauth_8137
3691,"(123, 691, 77, 123)",2,mbtiauth_8137
3692,"(123, 936, 77, 123)",2,mbtiauth_8137
3693,"(123, 1024, 170, 1672)",2,mbtiauth_8137
3694,"(123, 1024, 193, 170)",2,mbtiauth_8137
3695,"(123, 1024, 193, 1672)",2,mbtiauth_8137
3696,"(123, 1030, 2, 77)",2,mbtiauth_8137
3697,"(123, 1672, 254, 123)",2,mbtiauth_8137
3698,"(144, 286, 123, 174)",2,mbtiauth_8137
3699,"(154, 22, 322, 384)",2,mbtiauth_8137
3700,"(154, 123, 120, 77)",2,mbtiauth_8137
3701,"(154, 123, 120, 123)",2,mbtiauth_8137
3702,"(154, 123, 123, 174)",2,mbtiauth_8137
3703,"(154, 123, 322, 384)",2,mbtiauth_8137
3704,"(154, 225, 77, 123)",2,mbtiauth_8137
3705,"(154, 225, 691, 77)",2,mbtiauth_8137
3706,"(154, 225, 691, 123)",2,mbtiauth_8137
3707,"(154, 691, 77, 123)",2,mbtiauth_8137
3708,"(164, 64, 1313, 64)",2,mbtiauth_8137
3709,"(164, 77, 599, 10)",2,mbtiauth_8137
3710,"(164, 225, 64, 64)",2,mbtiauth_8137
3711,"(164, 225, 64, 1313)",2,mbtiauth_8137
3712,"(164, 225, 1313, 64)",2,mbtiauth_8137
3713,"(170, 2, 41, 369)",2,mbtiauth_8137
3714,"(170, 64, 213, 225)",2,mbtiauth_8137
3715,"(170, 77, 2, 123)",2,mbtiauth_8137
3716,"(170, 77, 123, 2)",2,mbtiauth_8137
3717,"(170, 201, 198, 32)",2,mbtiauth_8137
3718,"(170, 201, 369, 32)",2,mbtiauth_8137
3719,"(170, 1672, 254, 123)",2,mbtiauth_8137
3720,"(174, 16, 1191, 123)",2,mbtiauth_8137
3721,"(174, 65, 77, 123)",2,mbtiauth_8137
3722,"(174, 65, 123, 286)",2,mbtiauth_8137
3723,"(174, 77, 599, 123)",2,mbtiauth_8137
3724,"(174, 123, 77, 123)",3,mbtiauth_8137
3725,"(174, 123, 77, 599)",2,mbtiauth_8137
3726,"(174, 123, 152, 3131)",2,mbtiauth_8137
3727,"(174, 123, 526, 3131)",2,mbtiauth_8137
3728,"(174, 123, 599, 123)",2,mbtiauth_8137
3729,"(174, 123, 1177, 3131)",2,mbtiauth_8137
3730,"(183, 520, 123, 174)",2,mbtiauth_8137
3731,"(193, 22, 151, 193)",2,mbtiauth_8137
3732,"(193, 77, 123, 286)",2,mbtiauth_8137
3733,"(193, 170, 77, 2)",2,mbtiauth_8137
3734,"(193, 170, 77, 123)",2,mbtiauth_8137
3735,"(193, 170, 123, 64)",2,mbtiauth_8137
3736,"(193, 170, 254, 123)",2,mbtiauth_8137
3737,"(193, 170, 1672, 123)",2,mbtiauth_8137
3738,"(193, 170, 1672, 254)",2,mbtiauth_8137
3739,"(193, 701, 280, 441)",2,mbtiauth_8137
3740,"(193, 1672, 254, 123)",2,mbtiauth_8137
3741,"(201, 170, 77, 2)",2,mbtiauth_8137
3742,"(201, 198, 145, 32)",2,mbtiauth_8137
3743,"(201, 369, 145, 32)",2,mbtiauth_8137
3744,"(201, 701, 64, 222)",2,mbtiauth_8137
3745,"(213, 77, 123, 10)",2,mbtiauth_8137
3746,"(213, 225, 64, 67)",2,mbtiauth_8137
3747,"(213, 280, 77, 10)",2,mbtiauth_8137
3748,"(213, 280, 77, 123)",3,mbtiauth_8137
3749,"(213, 280, 77, 154)",2,mbtiauth_8137
3750,"(213, 280, 123, 10)",2,mbtiauth_8137
3751,"(225, 2, 64, 222)",2,mbtiauth_8137
3752,"(225, 64, 2, 64)",2,mbtiauth_8137
3753,"(225, 64, 1313, 64)",2,mbtiauth_8137
3754,"(225, 77, 64, 10)",2,mbtiauth_8137
3755,"(225, 77, 64, 67)",2,mbtiauth_8137
3756,"(225, 77, 599, 123)",2,mbtiauth_8137
3757,"(225, 77, 599, 226)",2,mbtiauth_8137
3758,"(225, 123, 22, 599)",2,mbtiauth_8137
3759,"(225, 123, 77, 123)",2,mbtiauth_8137
3760,"(225, 123, 77, 599)",2,mbtiauth_8137
3761,"(225, 123, 599, 123)",2,mbtiauth_8137
3762,"(225, 222, 599, 123)",3,mbtiauth_8137
3763,"(225, 268, 691, 77)",2,mbtiauth_8137
3764,"(225, 443, 160, 64)",2,mbtiauth_8137
3765,"(225, 691, 77, 123)",2,mbtiauth_8137
3766,"(236, 123, 77, 123)",2,mbtiauth_8137
3767,"(236, 123, 152, 123)",2,mbtiauth_8137
3768,"(236, 123, 174, 123)",2,mbtiauth_8137
3769,"(246, 123, 225, 222)",2,mbtiauth_8137
3770,"(280, 77, 64, 67)",2,mbtiauth_8137
3771,"(280, 77, 123, 10)",2,mbtiauth_8137
3772,"(280, 123, 64, 67)",2,mbtiauth_8137
3773,"(280, 183, 123, 174)",2,mbtiauth_8137
3774,"(280, 183, 520, 123)",2,mbtiauth_8137
3775,"(280, 183, 520, 174)",2,mbtiauth_8137
3776,"(280, 520, 123, 174)",2,mbtiauth_8137
3777,"(286, 2, 65, 1219)",2,mbtiauth_8137
3778,"(286, 64, 65, 1219)",2,mbtiauth_8137
3779,"(286, 64, 79, 198)",2,mbtiauth_8137
3780,"(286, 123, 2, 29)",2,mbtiauth_8137
3781,"(286, 123, 2, 64)",2,mbtiauth_8137
3782,"(286, 123, 67, 32)",2,mbtiauth_8137
3783,"(286, 123, 77, 165)",2,mbtiauth_8137
3784,"(356, 2, 64, 77)",2,mbtiauth_8137
3785,"(384, 236, 123, 77)",2,mbtiauth_8137
3786,"(384, 236, 123, 152)",2,mbtiauth_8137
3787,"(431, 77, 77, 22)",2,mbtiauth_8137
3788,"(431, 77, 441, 22)",2,mbtiauth_8137
3789,"(441, 2, 349, 183)",2,mbtiauth_8137
3790,"(441, 16, 1191, 123)",2,mbtiauth_8137
3791,"(441, 22, 340, 22)",2,mbtiauth_8137
3792,"(441, 64, 64, 144)",2,mbtiauth_8137
3793,"(441, 64, 225, 5779)",2,mbtiauth_8137
3794,"(441, 77, 32, 77)",2,mbtiauth_8137
3795,"(441, 77, 64, 5779)",2,mbtiauth_8137
3796,"(441, 123, 16, 123)",2,mbtiauth_8137
3797,"(441, 123, 16, 1191)",2,mbtiauth_8137
3798,"(441, 123, 174, 16)",2,mbtiauth_8137
3799,"(441, 123, 174, 123)",2,mbtiauth_8137
3800,"(441, 123, 174, 1191)",2,mbtiauth_8137
3801,"(441, 123, 286, 123)",2,mbtiauth_8137
3802,"(441, 123, 1191, 123)",2,mbtiauth_8137
3803,"(441, 174, 16, 123)",2,mbtiauth_8137
3804,"(441, 174, 16, 1191)",2,mbtiauth_8137
3805,"(441, 174, 1191, 123)",2,mbtiauth_8137
3806,"(441, 225, 123, 22)",2,mbtiauth_8137
3807,"(443, 79, 198, 443)",2,mbtiauth_8137
3808,"(520, 286, 123, 3006)",2,mbtiauth_8137
3809,"(520, 443, 160, 64)",2,mbtiauth_8137
3810,"(599, 10, 683, 280)",2,mbtiauth_8137
3811,"(599, 64, 349, 64)",2,mbtiauth_8137
3812,"(599, 77, 65, 671)",2,mbtiauth_8137
3813,"(599, 123, 193, 22)",2,mbtiauth_8137
3814,"(599, 123, 286, 123)",2,mbtiauth_8137
3815,"(599, 123, 349, 183)",2,mbtiauth_8137
3816,"(599, 123, 441, 64)",2,mbtiauth_8137
3817,"(599, 123, 683, 280)",2,mbtiauth_8137
3818,"(630, 77, 123, 268)",2,mbtiauth_8137
3819,"(823, 66, 123, 123)",2,mbtiauth_8137
3820,"(823, 66, 123, 174)",2,mbtiauth_8137
3821,"(823, 66, 123, 286)",2,mbtiauth_8137
3822,"(823, 77, 441, 599)",2,mbtiauth_8137
3823,"(823, 123, 441, 599)",2,mbtiauth_8137
3824,"(1024, 193, 170, 1672)",2,mbtiauth_8137
3825,"(1030, 226, 64, 365)",2,mbtiauth_8137
3826,"(1166, 2, 369, 64)",2,mbtiauth_8137
3827,"(1166, 64, 369, 64)",2,mbtiauth_8137
3828,"(1166, 77, 22, 170)",2,mbtiauth_8137
3829,"(2910, 2, 369, 64)",2,mbtiauth_8137
3830,"(2910, 64, 2, 64)",2,mbtiauth_8137
3831,"(2910, 64, 2, 369)",2,mbtiauth_8137
3832,"(2910, 64, 369, 64)",2,mbtiauth_8137
3833,"(4520, 77, 22, 77)",2,mbtiauth_8137
3834,"(2, 599, 123, 441, 64)",2,mbtiauth_8137
3835,"(3, 77, 599, 123, 193)",2,mbtiauth_8137
3836,"(32, 123, 2, 165, 67)",2,mbtiauth_8137
3837,"(32, 123, 120, 441, 64)",2,mbtiauth_8137
3838,"(64, 65, 78, 78, 220)",2,mbtiauth_8137
3839,"(65, 22, 123, 77, 22)",2,mbtiauth_8137
3840,"(65, 599, 123, 193, 22)",2,mbtiauth_8137
3841,"(77, 123, 2, 599, 16)",2,mbtiauth_8137
3842,"(77, 123, 77, 123, 123)",2,mbtiauth_8137
3843,"(77, 123, 120, 123, 77)",2,mbtiauth_8137
3844,"(77, 123, 120, 123, 174)",2,mbtiauth_8137
3845,"(77, 123, 120, 236, 123)",2,mbtiauth_8137
3846,"(77, 123, 120, 384, 123)",2,mbtiauth_8137
3847,"(77, 123, 120, 384, 236)",2,mbtiauth_8137
3848,"(77, 123, 268, 2, 77)",2,mbtiauth_8137
3849,"(77, 123, 286, 123, 77)",2,mbtiauth_8137
3850,"(77, 154, 123, 123, 174)",2,mbtiauth_8137
3851,"(77, 193, 701, 280, 441)",2,mbtiauth_8137
3852,"(77, 599, 10, 683, 280)",2,mbtiauth_8137
3853,"(77, 599, 64, 349, 64)",2,mbtiauth_8137
3854,"(77, 599, 123, 349, 183)",2,mbtiauth_8137
3855,"(77, 599, 123, 441, 64)",2,mbtiauth_8137
3856,"(77, 599, 123, 683, 280)",2,mbtiauth_8137
3857,"(78, 123, 174, 2, 123)",2,mbtiauth_8137
3858,"(123, 2, 165, 67, 77)",2,mbtiauth_8137
3859,"(123, 2, 599, 123, 441)",2,mbtiauth_8137
3860,"(123, 22, 123, 77, 22)",2,mbtiauth_8137
3861,"(123, 32, 123, 2, 165)",2,mbtiauth_8137
3862,"(123, 64, 2, 183, 164)",2,mbtiauth_8137
3863,"(123, 77, 123, 162, 225)",2,mbtiauth_8137
3864,"(123, 77, 599, 77, 123)",2,mbtiauth_8137
3865,"(123, 77, 599, 123, 213)",2,mbtiauth_8137
3866,"(123, 77, 599, 162, 213)",2,mbtiauth_8137
3867,"(123, 120, 77, 64, 67)",2,mbtiauth_8137
3868,"(123, 120, 77, 441, 64)",2,mbtiauth_8137
3869,"(123, 120, 77, 441, 77)",2,mbtiauth_8137
3870,"(123, 120, 384, 236, 123)",2,mbtiauth_8137
3871,"(123, 120, 441, 64, 67)",2,mbtiauth_8137
3872,"(123, 120, 441, 64, 77)",2,mbtiauth_8137
3873,"(123, 120, 441, 64, 225)",2,mbtiauth_8137
3874,"(123, 120, 441, 77, 64)",2,mbtiauth_8137
3875,"(123, 123, 2, 65, 1219)",2,mbtiauth_8137
3876,"(123, 123, 64, 65, 1219)",2,mbtiauth_8137
3877,"(123, 123, 174, 526, 77)",2,mbtiauth_8137
3878,"(123, 170, 1672, 254, 123)",2,mbtiauth_8137
3879,"(123, 174, 16, 1191, 123)",2,mbtiauth_8137
3880,"(123, 174, 65, 77, 123)",2,mbtiauth_8137
3881,"(123, 174, 123, 77, 123)",2,mbtiauth_8137
3882,"(123, 193, 170, 77, 123)",2,mbtiauth_8137
3883,"(123, 193, 170, 254, 123)",2,mbtiauth_8137
3884,"(123, 193, 170, 1672, 123)",2,mbtiauth_8137
3885,"(123, 193, 170, 1672, 254)",2,mbtiauth_8137
3886,"(123, 193, 1672, 254, 123)",2,mbtiauth_8137
3887,"(123, 213, 280, 77, 123)",2,mbtiauth_8137
3888,"(123, 225, 691, 77, 123)",2,mbtiauth_8137
3889,"(123, 236, 123, 174, 123)",2,mbtiauth_8137
3890,"(123, 286, 2, 65, 1219)",2,mbtiauth_8137
3891,"(123, 286, 64, 65, 1219)",2,mbtiauth_8137
3892,"(123, 286, 64, 79, 198)",2,mbtiauth_8137
3893,"(123, 286, 123, 2, 29)",2,mbtiauth_8137
3894,"(123, 286, 123, 67, 32)",2,mbtiauth_8137
3895,"(123, 286, 123, 77, 165)",2,mbtiauth_8137
3896,"(123, 441, 22, 340, 22)",2,mbtiauth_8137
3897,"(123, 441, 225, 123, 22)",2,mbtiauth_8137
3898,"(123, 1024, 193, 170, 1672)",2,mbtiauth_8137
3899,"(154, 225, 691, 77, 123)",2,mbtiauth_8137
3900,"(164, 225, 64, 1313, 64)",2,mbtiauth_8137
3901,"(174, 123, 77, 599, 123)",2,mbtiauth_8137
3902,"(193, 170, 1672, 254, 123)",2,mbtiauth_8137
3903,"(213, 280, 77, 123, 10)",2,mbtiauth_8137
3904,"(225, 123, 77, 599, 123)",2,mbtiauth_8137
3905,"(280, 183, 520, 123, 174)",2,mbtiauth_8137
3906,"(441, 123, 16, 1191, 123)",2,mbtiauth_8137
3907,"(441, 123, 174, 16, 123)",2,mbtiauth_8137
3908,"(441, 123, 174, 16, 1191)",2,mbtiauth_8137
3909,"(441, 123, 174, 1191, 123)",2,mbtiauth_8137
3910,"(441, 174, 16, 1191, 123)",2,mbtiauth_8137
3911,"(2910, 64, 2, 369, 64)",2,mbtiauth_8137
3912,"(123, 193, 170, 1672, 254, 123)",2,mbtiauth_8137
3913,"(441, 123, 174, 16, 1191, 123)",2,mbtiauth_8137
