,pattern,sup,author
889,"(2, 22, 77)",2,mbtiauth_8274
890,"(2, 171, 32)",2,mbtiauth_8274
891,"(9, 28, 26)",2,mbtiauth_8274
892,"(10, 22, 64)",2,mbtiauth_8274
893,"(10, 22, 77)",3,mbtiauth_8274
894,"(10, 22, 526)",2,mbtiauth_8274
895,"(10, 77, 64)",2,mbtiauth_8274
896,"(10, 77, 77)",2,mbtiauth_8274
897,"(10, 77, 123)",2,mbtiauth_8274
898,"(16, 65, 77)",2,mbtiauth_8274
899,"(16, 77, 170)",2,mbtiauth_8274
900,"(22, 2, 22)",2,mbtiauth_8274
901,"(22, 31, 77)",2,mbtiauth_8274
902,"(22, 31, 123)",2,mbtiauth_8274
903,"(22, 31, 535)",2,mbtiauth_8274
904,"(22, 32, 22)",2,mbtiauth_8274
905,"(22, 32, 170)",2,mbtiauth_8274
906,"(22, 77, 2)",3,mbtiauth_8274
907,"(22, 77, 31)",2,mbtiauth_8274
908,"(22, 77, 64)",2,mbtiauth_8274
909,"(22, 77, 77)",2,mbtiauth_8274
910,"(22, 77, 123)",4,mbtiauth_8274
911,"(22, 77, 222)",2,mbtiauth_8274
912,"(22, 77, 535)",2,mbtiauth_8274
913,"(22, 77, 599)",2,mbtiauth_8274
914,"(22, 77, 1214)",2,mbtiauth_8274
915,"(22, 123, 65)",2,mbtiauth_8274
916,"(22, 123, 77)",3,mbtiauth_8274
917,"(22, 123, 123)",3,mbtiauth_8274
918,"(22, 123, 193)",2,mbtiauth_8274
919,"(22, 123, 212)",2,mbtiauth_8274
920,"(22, 123, 262)",3,mbtiauth_8274
921,"(22, 123, 535)",3,mbtiauth_8274
922,"(22, 123, 599)",2,mbtiauth_8274
923,"(22, 170, 22)",2,mbtiauth_8274
924,"(22, 171, 22)",2,mbtiauth_8274
925,"(22, 194, 31)",2,mbtiauth_8274
926,"(22, 194, 123)",2,mbtiauth_8274
927,"(22, 194, 262)",2,mbtiauth_8274
928,"(22, 194, 263)",2,mbtiauth_8274
929,"(22, 194, 535)",2,mbtiauth_8274
930,"(22, 262, 123)",3,mbtiauth_8274
931,"(22, 262, 263)",2,mbtiauth_8274
932,"(22, 262, 535)",2,mbtiauth_8274
933,"(22, 263, 123)",2,mbtiauth_8274
934,"(22, 263, 193)",2,mbtiauth_8274
935,"(22, 263, 535)",2,mbtiauth_8274
936,"(22, 381, 123)",2,mbtiauth_8274
937,"(22, 381, 262)",2,mbtiauth_8274
938,"(22, 535, 123)",2,mbtiauth_8274
939,"(27, 41, 22)",2,mbtiauth_8274
940,"(27, 41, 286)",2,mbtiauth_8274
941,"(27, 77, 27)",2,mbtiauth_8274
942,"(27, 144, 41)",2,mbtiauth_8274
943,"(27, 144, 286)",3,mbtiauth_8274
944,"(31, 22, 123)",2,mbtiauth_8274
945,"(31, 22, 194)",2,mbtiauth_8274
946,"(31, 22, 262)",2,mbtiauth_8274
947,"(31, 22, 263)",2,mbtiauth_8274
948,"(31, 77, 31)",2,mbtiauth_8274
949,"(31, 77, 32)",2,mbtiauth_8274
950,"(31, 77, 77)",2,mbtiauth_8274
951,"(31, 77, 123)",5,mbtiauth_8274
952,"(31, 77, 286)",2,mbtiauth_8274
953,"(31, 77, 535)",2,mbtiauth_8274
954,"(31, 77, 566)",2,mbtiauth_8274
955,"(31, 77, 599)",3,mbtiauth_8274
956,"(31, 77, 765)",2,mbtiauth_8274
957,"(31, 77, 1148)",2,mbtiauth_8274
958,"(31, 123, 77)",2,mbtiauth_8274
959,"(31, 123, 123)",4,mbtiauth_8274
960,"(31, 123, 193)",2,mbtiauth_8274
961,"(31, 123, 262)",2,mbtiauth_8274
962,"(31, 123, 286)",2,mbtiauth_8274
963,"(31, 123, 535)",3,mbtiauth_8274
964,"(31, 123, 765)",2,mbtiauth_8274
965,"(31, 194, 123)",2,mbtiauth_8274
966,"(31, 194, 262)",2,mbtiauth_8274
967,"(31, 194, 263)",2,mbtiauth_8274
968,"(31, 262, 123)",4,mbtiauth_8274
969,"(31, 262, 263)",2,mbtiauth_8274
970,"(31, 262, 535)",2,mbtiauth_8274
971,"(31, 263, 123)",2,mbtiauth_8274
972,"(31, 263, 535)",2,mbtiauth_8274
973,"(31, 535, 123)",3,mbtiauth_8274
974,"(31, 599, 123)",2,mbtiauth_8274
975,"(31, 599, 566)",2,mbtiauth_8274
976,"(31, 599, 765)",2,mbtiauth_8274
977,"(31, 1148, 566)",2,mbtiauth_8274
978,"(32, 22, 65)",2,mbtiauth_8274
979,"(32, 22, 77)",2,mbtiauth_8274
980,"(32, 22, 123)",2,mbtiauth_8274
981,"(32, 65, 64)",2,mbtiauth_8274
982,"(32, 65, 77)",2,mbtiauth_8274
983,"(32, 65, 599)",2,mbtiauth_8274
984,"(32, 77, 64)",2,mbtiauth_8274
985,"(32, 77, 599)",2,mbtiauth_8274
986,"(32, 77, 1214)",2,mbtiauth_8274
987,"(32, 123, 77)",2,mbtiauth_8274
988,"(33, 170, 48)",2,mbtiauth_8274
989,"(63, 22, 123)",2,mbtiauth_8274
990,"(63, 22, 194)",2,mbtiauth_8274
991,"(63, 22, 262)",2,mbtiauth_8274
992,"(63, 22, 263)",2,mbtiauth_8274
993,"(63, 31, 22)",2,mbtiauth_8274
994,"(63, 31, 77)",2,mbtiauth_8274
995,"(63, 31, 123)",3,mbtiauth_8274
996,"(63, 31, 194)",2,mbtiauth_8274
997,"(63, 31, 262)",3,mbtiauth_8274
998,"(63, 31, 263)",2,mbtiauth_8274
999,"(63, 77, 123)",2,mbtiauth_8274
1000,"(63, 123, 262)",2,mbtiauth_8274
1001,"(63, 194, 123)",2,mbtiauth_8274
1002,"(63, 194, 262)",2,mbtiauth_8274
1003,"(63, 194, 263)",2,mbtiauth_8274
1004,"(63, 262, 123)",3,mbtiauth_8274
1005,"(63, 262, 263)",2,mbtiauth_8274
1006,"(63, 263, 123)",3,mbtiauth_8274
1007,"(63, 263, 262)",2,mbtiauth_8274
1008,"(64, 2, 151)",2,mbtiauth_8274
1009,"(64, 10, 22)",2,mbtiauth_8274
1010,"(64, 22, 123)",2,mbtiauth_8274
1011,"(64, 22, 193)",2,mbtiauth_8274
1012,"(64, 67, 77)",2,mbtiauth_8274
1013,"(64, 67, 228)",2,mbtiauth_8274
1014,"(64, 67, 326)",2,mbtiauth_8274
1015,"(64, 67, 768)",2,mbtiauth_8274
1016,"(64, 77, 10)",2,mbtiauth_8274
1017,"(64, 77, 64)",2,mbtiauth_8274
1018,"(64, 77, 65)",3,mbtiauth_8274
1019,"(64, 77, 67)",2,mbtiauth_8274
1020,"(64, 77, 123)",4,mbtiauth_8274
1021,"(64, 77, 165)",2,mbtiauth_8274
1022,"(64, 77, 286)",2,mbtiauth_8274
1023,"(64, 77, 326)",2,mbtiauth_8274
1024,"(64, 77, 566)",2,mbtiauth_8274
1025,"(64, 77, 599)",3,mbtiauth_8274
1026,"(64, 120, 22)",2,mbtiauth_8274
1027,"(64, 123, 10)",2,mbtiauth_8274
1028,"(64, 123, 65)",3,mbtiauth_8274
1029,"(64, 123, 286)",2,mbtiauth_8274
1030,"(64, 123, 326)",2,mbtiauth_8274
1031,"(64, 154, 170)",2,mbtiauth_8274
1032,"(64, 165, 67)",2,mbtiauth_8274
1033,"(64, 228, 31)",2,mbtiauth_8274
1034,"(64, 228, 77)",3,mbtiauth_8274
1035,"(64, 228, 123)",2,mbtiauth_8274
1036,"(64, 286, 22)",2,mbtiauth_8274
1037,"(64, 286, 31)",2,mbtiauth_8274
1038,"(64, 286, 67)",2,mbtiauth_8274
1039,"(64, 286, 326)",2,mbtiauth_8274
1040,"(64, 326, 65)",2,mbtiauth_8274
1041,"(64, 326, 154)",2,mbtiauth_8274
1042,"(64, 326, 170)",2,mbtiauth_8274
1043,"(64, 566, 64)",2,mbtiauth_8274
1044,"(64, 765, 77)",2,mbtiauth_8274
1045,"(64, 765, 599)",2,mbtiauth_8274
1046,"(65, 65, 64)",2,mbtiauth_8274
1047,"(65, 77, 16)",2,mbtiauth_8274
1048,"(65, 77, 77)",2,mbtiauth_8274
1049,"(65, 77, 123)",3,mbtiauth_8274
1050,"(65, 77, 170)",2,mbtiauth_8274
1051,"(65, 77, 599)",5,mbtiauth_8274
1052,"(65, 138, 77)",3,mbtiauth_8274
1053,"(65, 138, 123)",2,mbtiauth_8274
1054,"(65, 138, 397)",3,mbtiauth_8274
1055,"(65, 138, 599)",2,mbtiauth_8274
1056,"(65, 397, 77)",3,mbtiauth_8274
1057,"(65, 397, 123)",2,mbtiauth_8274
1058,"(65, 397, 599)",2,mbtiauth_8274
1059,"(65, 599, 77)",2,mbtiauth_8274
1060,"(65, 599, 170)",2,mbtiauth_8274
1061,"(65, 720, 64)",2,mbtiauth_8274
1062,"(65, 720, 65)",2,mbtiauth_8274
1063,"(67, 65, 67)",2,mbtiauth_8274
1064,"(67, 77, 67)",2,mbtiauth_8274
1065,"(67, 77, 123)",2,mbtiauth_8274
1066,"(67, 228, 77)",2,mbtiauth_8274
1067,"(70, 77, 599)",2,mbtiauth_8274
1068,"(77, 2, 10)",3,mbtiauth_8274
1069,"(77, 2, 65)",2,mbtiauth_8274
1070,"(77, 2, 77)",2,mbtiauth_8274
1071,"(77, 2, 78)",2,mbtiauth_8274
1072,"(77, 2, 123)",2,mbtiauth_8274
1073,"(77, 10, 65)",2,mbtiauth_8274
1074,"(77, 16, 77)",2,mbtiauth_8274
1075,"(77, 16, 326)",2,mbtiauth_8274
1076,"(77, 22, 32)",3,mbtiauth_8274
1077,"(77, 27, 144)",2,mbtiauth_8274
1078,"(77, 27, 286)",2,mbtiauth_8274
1079,"(77, 32, 22)",2,mbtiauth_8274
1080,"(77, 33, 170)",2,mbtiauth_8274
1081,"(77, 47, 22)",2,mbtiauth_8274
1082,"(77, 64, 22)",2,mbtiauth_8274
1083,"(77, 64, 67)",2,mbtiauth_8274
1084,"(77, 64, 77)",3,mbtiauth_8274
1085,"(77, 64, 123)",2,mbtiauth_8274
1086,"(77, 64, 154)",2,mbtiauth_8274
1087,"(77, 64, 286)",2,mbtiauth_8274
1088,"(77, 64, 505)",2,mbtiauth_8274
1089,"(77, 64, 528)",2,mbtiauth_8274
1090,"(77, 64, 566)",2,mbtiauth_8274
1091,"(77, 65, 31)",4,mbtiauth_8274
1092,"(77, 77, 10)",2,mbtiauth_8274
1093,"(77, 77, 27)",3,mbtiauth_8274
1094,"(77, 77, 31)",3,mbtiauth_8274
1095,"(77, 77, 65)",2,mbtiauth_8274
1096,"(77, 77, 123)",4,mbtiauth_8274
1097,"(77, 77, 144)",2,mbtiauth_8274
1098,"(77, 77, 286)",4,mbtiauth_8274
1099,"(77, 77, 441)",2,mbtiauth_8274
1100,"(77, 77, 526)",2,mbtiauth_8274
1101,"(77, 77, 566)",3,mbtiauth_8274
1102,"(77, 123, 5)",2,mbtiauth_8274
1103,"(77, 123, 10)",2,mbtiauth_8274
1104,"(77, 123, 22)",5,mbtiauth_8274
1105,"(77, 123, 31)",2,mbtiauth_8274
1106,"(77, 123, 32)",4,mbtiauth_8274
1107,"(77, 123, 47)",2,mbtiauth_8274
1108,"(77, 123, 64)",3,mbtiauth_8274
1109,"(77, 123, 65)",4,mbtiauth_8274
1110,"(77, 123, 77)",2,mbtiauth_8274
1111,"(77, 123, 123)",3,mbtiauth_8274
1112,"(77, 123, 151)",2,mbtiauth_8274
1113,"(77, 123, 165)",3,mbtiauth_8274
1114,"(77, 123, 170)",2,mbtiauth_8274
1115,"(77, 123, 171)",3,mbtiauth_8274
1116,"(77, 123, 212)",2,mbtiauth_8274
1117,"(77, 123, 262)",2,mbtiauth_8274
1118,"(77, 123, 286)",4,mbtiauth_8274
1119,"(77, 123, 326)",3,mbtiauth_8274
1120,"(77, 123, 488)",2,mbtiauth_8274
1121,"(77, 123, 528)",2,mbtiauth_8274
1122,"(77, 123, 566)",2,mbtiauth_8274
1123,"(77, 123, 599)",2,mbtiauth_8274
1124,"(77, 123, 648)",2,mbtiauth_8274
1125,"(77, 123, 693)",3,mbtiauth_8274
1126,"(77, 123, 765)",3,mbtiauth_8274
1127,"(77, 123, 826)",2,mbtiauth_8274
1128,"(77, 123, 2849)",2,mbtiauth_8274
1129,"(77, 144, 286)",2,mbtiauth_8274
1130,"(77, 152, 683)",2,mbtiauth_8274
1131,"(77, 165, 67)",2,mbtiauth_8274
1132,"(77, 170, 5)",2,mbtiauth_8274
1133,"(77, 170, 48)",2,mbtiauth_8274
1134,"(77, 170, 326)",2,mbtiauth_8274
1135,"(77, 206, 32)",2,mbtiauth_8274
1136,"(77, 206, 65)",2,mbtiauth_8274
1137,"(77, 212, 171)",2,mbtiauth_8274
1138,"(77, 268, 22)",2,mbtiauth_8274
1139,"(77, 286, 22)",2,mbtiauth_8274
1140,"(77, 286, 47)",2,mbtiauth_8274
1141,"(77, 286, 65)",2,mbtiauth_8274
1142,"(77, 286, 67)",2,mbtiauth_8274
1143,"(77, 286, 326)",2,mbtiauth_8274
1144,"(77, 286, 566)",2,mbtiauth_8274
1145,"(77, 326, 5)",2,mbtiauth_8274
1146,"(77, 441, 65)",2,mbtiauth_8274
1147,"(77, 488, 326)",2,mbtiauth_8274
1148,"(77, 535, 123)",2,mbtiauth_8274
1149,"(77, 566, 32)",2,mbtiauth_8274
1150,"(77, 566, 64)",3,mbtiauth_8274
1151,"(77, 566, 65)",2,mbtiauth_8274
1152,"(77, 566, 170)",2,mbtiauth_8274
1153,"(77, 566, 206)",3,mbtiauth_8274
1154,"(77, 566, 488)",2,mbtiauth_8274
1155,"(77, 566, 526)",2,mbtiauth_8274
1156,"(77, 566, 655)",2,mbtiauth_8274
1157,"(77, 599, 22)",2,mbtiauth_8274
1158,"(77, 599, 27)",2,mbtiauth_8274
1159,"(77, 599, 32)",2,mbtiauth_8274
1160,"(77, 599, 33)",2,mbtiauth_8274
1161,"(77, 599, 41)",2,mbtiauth_8274
1162,"(77, 599, 64)",3,mbtiauth_8274
1163,"(77, 599, 65)",3,mbtiauth_8274
1164,"(77, 599, 67)",3,mbtiauth_8274
1165,"(77, 599, 70)",2,mbtiauth_8274
1166,"(77, 599, 77)",3,mbtiauth_8274
1167,"(77, 599, 123)",6,mbtiauth_8274
1168,"(77, 599, 165)",3,mbtiauth_8274
1169,"(77, 599, 170)",4,mbtiauth_8274
1170,"(77, 599, 206)",2,mbtiauth_8274
1171,"(77, 599, 286)",4,mbtiauth_8274
1172,"(77, 599, 326)",2,mbtiauth_8274
1173,"(77, 599, 364)",2,mbtiauth_8274
1174,"(77, 599, 488)",2,mbtiauth_8274
1175,"(77, 599, 566)",5,mbtiauth_8274
1176,"(77, 599, 765)",2,mbtiauth_8274
1177,"(77, 599, 768)",2,mbtiauth_8274
1178,"(77, 765, 77)",2,mbtiauth_8274
1179,"(77, 765, 123)",2,mbtiauth_8274
1180,"(77, 765, 286)",2,mbtiauth_8274
1181,"(77, 765, 566)",2,mbtiauth_8274
1182,"(77, 826, 693)",2,mbtiauth_8274
1183,"(77, 1148, 566)",2,mbtiauth_8274
1184,"(77, 1900, 31)",2,mbtiauth_8274
1185,"(78, 77, 77)",2,mbtiauth_8274
1186,"(78, 326, 2)",2,mbtiauth_8274
1187,"(117, 262, 6447)",2,mbtiauth_8274
1188,"(120, 340, 77)",2,mbtiauth_8274
1189,"(120, 566, 64)",2,mbtiauth_8274
1190,"(120, 599, 566)",2,mbtiauth_8274
1191,"(123, 2, 16)",2,mbtiauth_8274
1192,"(123, 2, 50)",2,mbtiauth_8274
1193,"(123, 2, 78)",2,mbtiauth_8274
1194,"(123, 2, 123)",2,mbtiauth_8274
1195,"(123, 2, 206)",3,mbtiauth_8274
1196,"(123, 2, 262)",2,mbtiauth_8274
1197,"(123, 10, 65)",2,mbtiauth_8274
1198,"(123, 22, 32)",2,mbtiauth_8274
1199,"(123, 29, 206)",2,mbtiauth_8274
1200,"(123, 32, 22)",2,mbtiauth_8274
1201,"(123, 41, 566)",2,mbtiauth_8274
1202,"(123, 47, 22)",2,mbtiauth_8274
1203,"(123, 64, 22)",3,mbtiauth_8274
1204,"(123, 64, 77)",3,mbtiauth_8274
1205,"(123, 64, 123)",3,mbtiauth_8274
1206,"(123, 64, 228)",2,mbtiauth_8274
1207,"(123, 64, 286)",3,mbtiauth_8274
1208,"(123, 64, 528)",2,mbtiauth_8274
1209,"(123, 64, 599)",2,mbtiauth_8274
1210,"(123, 65, 77)",3,mbtiauth_8274
1211,"(123, 65, 138)",3,mbtiauth_8274
1212,"(123, 65, 397)",3,mbtiauth_8274
1213,"(123, 65, 599)",2,mbtiauth_8274
1214,"(123, 77, 2)",3,mbtiauth_8274
1215,"(123, 77, 77)",3,mbtiauth_8274
1216,"(123, 77, 123)",8,mbtiauth_8274
1217,"(123, 77, 286)",3,mbtiauth_8274
1218,"(123, 77, 566)",3,mbtiauth_8274
1219,"(123, 77, 599)",7,mbtiauth_8274
1220,"(123, 77, 648)",2,mbtiauth_8274
1221,"(123, 77, 1641)",2,mbtiauth_8274
1222,"(123, 78, 2)",2,mbtiauth_8274
1223,"(123, 78, 77)",2,mbtiauth_8274
1224,"(123, 78, 246)",2,mbtiauth_8274
1225,"(123, 78, 326)",2,mbtiauth_8274
1226,"(123, 78, 1641)",2,mbtiauth_8274
1227,"(123, 120, 64)",2,mbtiauth_8274
1228,"(123, 120, 566)",2,mbtiauth_8274
1229,"(123, 123, 2)",3,mbtiauth_8274
1230,"(123, 123, 193)",2,mbtiauth_8274
1231,"(123, 123, 286)",3,mbtiauth_8274
1232,"(123, 123, 526)",2,mbtiauth_8274
1233,"(123, 123, 566)",2,mbtiauth_8274
1234,"(123, 123, 599)",2,mbtiauth_8274
1235,"(123, 123, 648)",2,mbtiauth_8274
1236,"(123, 123, 693)",2,mbtiauth_8274
1237,"(123, 138, 77)",3,mbtiauth_8274
1238,"(123, 138, 397)",3,mbtiauth_8274
1239,"(123, 138, 599)",2,mbtiauth_8274
1240,"(123, 154, 170)",2,mbtiauth_8274
1241,"(123, 154, 326)",2,mbtiauth_8274
1242,"(123, 154, 566)",2,mbtiauth_8274
1243,"(123, 154, 1800)",2,mbtiauth_8274
1244,"(123, 164, 77)",3,mbtiauth_8274
1245,"(123, 165, 151)",2,mbtiauth_8274
1246,"(123, 165, 441)",2,mbtiauth_8274
1247,"(123, 170, 326)",3,mbtiauth_8274
1248,"(123, 173, 77)",2,mbtiauth_8274
1249,"(123, 173, 123)",2,mbtiauth_8274
1250,"(123, 193, 123)",2,mbtiauth_8274
1251,"(123, 206, 2205)",2,mbtiauth_8274
1252,"(123, 212, 171)",2,mbtiauth_8274
1253,"(123, 220, 2329)",2,mbtiauth_8274
1254,"(123, 228, 77)",2,mbtiauth_8274
1255,"(123, 228, 123)",2,mbtiauth_8274
1256,"(123, 262, 2)",2,mbtiauth_8274
1257,"(123, 262, 65)",2,mbtiauth_8274
1258,"(123, 262, 77)",2,mbtiauth_8274
1259,"(123, 262, 123)",2,mbtiauth_8274
1260,"(123, 262, 138)",2,mbtiauth_8274
1261,"(123, 262, 206)",2,mbtiauth_8274
1262,"(123, 262, 263)",2,mbtiauth_8274
1263,"(123, 262, 397)",2,mbtiauth_8274
1264,"(123, 262, 535)",2,mbtiauth_8274
1265,"(123, 262, 599)",2,mbtiauth_8274
1266,"(123, 284, 566)",2,mbtiauth_8274
1267,"(123, 286, 22)",3,mbtiauth_8274
1268,"(123, 286, 31)",2,mbtiauth_8274
1269,"(123, 286, 47)",2,mbtiauth_8274
1270,"(123, 286, 65)",3,mbtiauth_8274
1271,"(123, 286, 201)",2,mbtiauth_8274
1272,"(123, 286, 326)",2,mbtiauth_8274
1273,"(123, 286, 566)",3,mbtiauth_8274
1274,"(123, 286, 599)",2,mbtiauth_8274
1275,"(123, 322, 2)",2,mbtiauth_8274
1276,"(123, 322, 77)",2,mbtiauth_8274
1277,"(123, 322, 78)",3,mbtiauth_8274
1278,"(123, 322, 152)",2,mbtiauth_8274
1279,"(123, 322, 262)",2,mbtiauth_8274
1280,"(123, 322, 1641)",2,mbtiauth_8274
1281,"(123, 326, 2)",2,mbtiauth_8274
1282,"(123, 326, 5)",2,mbtiauth_8274
1283,"(123, 326, 65)",2,mbtiauth_8274
1284,"(123, 326, 77)",2,mbtiauth_8274
1285,"(123, 326, 2849)",3,mbtiauth_8274
1286,"(123, 397, 77)",3,mbtiauth_8274
1287,"(123, 397, 599)",2,mbtiauth_8274
1288,"(123, 411, 77)",2,mbtiauth_8274
1289,"(123, 411, 123)",2,mbtiauth_8274
1290,"(123, 441, 154)",2,mbtiauth_8274
1291,"(123, 505, 78)",2,mbtiauth_8274
1292,"(123, 519, 206)",2,mbtiauth_8274
1293,"(123, 526, 599)",2,mbtiauth_8274
1294,"(123, 535, 31)",2,mbtiauth_8274
1295,"(123, 535, 123)",4,mbtiauth_8274
1296,"(123, 535, 193)",2,mbtiauth_8274
1297,"(123, 535, 1738)",2,mbtiauth_8274
1298,"(123, 566, 64)",2,mbtiauth_8274
1299,"(123, 599, 123)",3,mbtiauth_8274
1300,"(123, 599, 566)",3,mbtiauth_8274
1301,"(123, 717, 2205)",2,mbtiauth_8274
1302,"(123, 765, 77)",2,mbtiauth_8274
1303,"(123, 765, 123)",2,mbtiauth_8274
1304,"(123, 765, 286)",2,mbtiauth_8274
1305,"(123, 765, 566)",2,mbtiauth_8274
1306,"(123, 765, 599)",2,mbtiauth_8274
1307,"(123, 826, 693)",2,mbtiauth_8274
1308,"(123, 1348, 262)",2,mbtiauth_8274
1309,"(123, 1364, 77)",2,mbtiauth_8274
1310,"(123, 1364, 164)",2,mbtiauth_8274
1311,"(123, 1738, 77)",2,mbtiauth_8274
1312,"(123, 1738, 123)",3,mbtiauth_8274
1313,"(123, 1738, 173)",2,mbtiauth_8274
1314,"(123, 22861, 2)",2,mbtiauth_8274
1315,"(123, 22861, 123)",2,mbtiauth_8274
1316,"(123, 42065, 33)",2,mbtiauth_8274
1317,"(138, 77, 123)",2,mbtiauth_8274
1318,"(138, 77, 599)",2,mbtiauth_8274
1319,"(138, 397, 77)",3,mbtiauth_8274
1320,"(138, 397, 123)",2,mbtiauth_8274
1321,"(138, 397, 599)",2,mbtiauth_8274
1322,"(140, 2, 78)",2,mbtiauth_8274
1323,"(144, 41, 286)",2,mbtiauth_8274
1324,"(154, 170, 326)",2,mbtiauth_8274
1325,"(154, 768, 2)",2,mbtiauth_8274
1326,"(164, 22, 77)",2,mbtiauth_8274
1327,"(164, 77, 31)",2,mbtiauth_8274
1328,"(164, 77, 123)",2,mbtiauth_8274
1329,"(170, 22, 77)",3,mbtiauth_8274
1330,"(170, 31, 77)",2,mbtiauth_8274
1331,"(170, 31, 123)",2,mbtiauth_8274
1332,"(170, 65, 31)",2,mbtiauth_8274
1333,"(170, 77, 77)",2,mbtiauth_8274
1334,"(170, 77, 123)",3,mbtiauth_8274
1335,"(170, 77, 286)",2,mbtiauth_8274
1336,"(170, 123, 77)",2,mbtiauth_8274
1337,"(170, 123, 123)",2,mbtiauth_8274
1338,"(170, 171, 77)",2,mbtiauth_8274
1339,"(171, 22, 77)",2,mbtiauth_8274
1340,"(171, 77, 2)",2,mbtiauth_8274
1341,"(173, 77, 123)",2,mbtiauth_8274
1342,"(193, 77, 123)",2,mbtiauth_8274
1343,"(193, 77, 165)",2,mbtiauth_8274
1344,"(193, 77, 599)",2,mbtiauth_8274
1345,"(193, 123, 165)",2,mbtiauth_8274
1346,"(193, 356, 222)",2,mbtiauth_8274
1347,"(193, 599, 123)",3,mbtiauth_8274
1348,"(193, 599, 165)",2,mbtiauth_8274
1349,"(194, 123, 262)",2,mbtiauth_8274
1350,"(194, 123, 535)",2,mbtiauth_8274
1351,"(194, 262, 123)",2,mbtiauth_8274
1352,"(194, 262, 263)",2,mbtiauth_8274
1353,"(194, 262, 535)",2,mbtiauth_8274
1354,"(194, 263, 123)",2,mbtiauth_8274
1355,"(194, 263, 535)",2,mbtiauth_8274
1356,"(201, 65, 33)",2,mbtiauth_8274
1357,"(201, 170, 65)",2,mbtiauth_8274
1358,"(201, 702, 65)",2,mbtiauth_8274
1359,"(205, 206, 1082)",2,mbtiauth_8274
1360,"(206, 65, 77)",2,mbtiauth_8274
1361,"(206, 77, 599)",2,mbtiauth_8274
1362,"(212, 22, 171)",2,mbtiauth_8274
1363,"(228, 77, 206)",2,mbtiauth_8274
1364,"(236, 77, 123)",2,mbtiauth_8274
1365,"(249, 365, 365)",2,mbtiauth_8274
1366,"(262, 65, 77)",3,mbtiauth_8274
1367,"(262, 65, 138)",2,mbtiauth_8274
1368,"(262, 65, 397)",2,mbtiauth_8274
1369,"(262, 65, 599)",3,mbtiauth_8274
1370,"(262, 77, 123)",2,mbtiauth_8274
1371,"(262, 77, 599)",3,mbtiauth_8274
1372,"(262, 138, 77)",2,mbtiauth_8274
1373,"(262, 138, 397)",2,mbtiauth_8274
1374,"(262, 138, 599)",2,mbtiauth_8274
1375,"(262, 263, 123)",3,mbtiauth_8274
1376,"(262, 263, 193)",2,mbtiauth_8274
1377,"(262, 263, 254)",2,mbtiauth_8274
1378,"(262, 263, 535)",2,mbtiauth_8274
1379,"(262, 397, 77)",2,mbtiauth_8274
1380,"(262, 397, 599)",2,mbtiauth_8274
1381,"(262, 535, 123)",2,mbtiauth_8274
1382,"(263, 77, 123)",2,mbtiauth_8274
1383,"(263, 262, 123)",2,mbtiauth_8274
1384,"(263, 535, 123)",2,mbtiauth_8274
1385,"(280, 2746, 64)",2,mbtiauth_8274
1386,"(286, 22, 193)",2,mbtiauth_8274
1387,"(286, 47, 22)",2,mbtiauth_8274
1388,"(286, 326, 246)",2,mbtiauth_8274
1389,"(322, 77, 77)",2,mbtiauth_8274
1390,"(322, 78, 77)",2,mbtiauth_8274
1391,"(322, 78, 326)",2,mbtiauth_8274
1392,"(322, 78, 1641)",2,mbtiauth_8274
1393,"(326, 64, 222)",2,mbtiauth_8274
1394,"(326, 65, 31)",2,mbtiauth_8274
1395,"(326, 77, 31)",2,mbtiauth_8274
1396,"(326, 77, 65)",2,mbtiauth_8274
1397,"(326, 123, 286)",2,mbtiauth_8274
1398,"(326, 154, 170)",2,mbtiauth_8274
1399,"(326, 170, 64)",2,mbtiauth_8274
1400,"(334, 77, 32)",2,mbtiauth_8274
1401,"(334, 77, 152)",2,mbtiauth_8274
1402,"(340, 77, 10)",2,mbtiauth_8274
1403,"(365, 249, 365)",2,mbtiauth_8274
1404,"(365, 365, 365)",2,mbtiauth_8274
1405,"(381, 262, 123)",2,mbtiauth_8274
1406,"(397, 77, 123)",2,mbtiauth_8274
1407,"(397, 77, 599)",2,mbtiauth_8274
1408,"(411, 77, 32)",2,mbtiauth_8274
1409,"(411, 77, 123)",2,mbtiauth_8274
1410,"(411, 123, 32)",2,mbtiauth_8274
1411,"(441, 77, 77)",2,mbtiauth_8274
1412,"(444, 77, 10)",2,mbtiauth_8274
1413,"(526, 64, 222)",2,mbtiauth_8274
1414,"(535, 123, 193)",2,mbtiauth_8274
1415,"(535, 1738, 123)",2,mbtiauth_8274
1416,"(566, 64, 22)",2,mbtiauth_8274
1417,"(566, 77, 566)",2,mbtiauth_8274
1418,"(566, 77, 599)",2,mbtiauth_8274
1419,"(566, 170, 326)",2,mbtiauth_8274
1420,"(566, 206, 65)",3,mbtiauth_8274
1421,"(599, 16, 77)",2,mbtiauth_8274
1422,"(599, 33, 170)",2,mbtiauth_8274
1423,"(599, 64, 67)",2,mbtiauth_8274
1424,"(599, 64, 154)",2,mbtiauth_8274
1425,"(599, 77, 41)",2,mbtiauth_8274
1426,"(599, 77, 123)",2,mbtiauth_8274
1427,"(599, 77, 286)",2,mbtiauth_8274
1428,"(599, 77, 566)",2,mbtiauth_8274
1429,"(599, 77, 599)",2,mbtiauth_8274
1430,"(599, 123, 22)",2,mbtiauth_8274
1431,"(599, 123, 77)",2,mbtiauth_8274
1432,"(599, 123, 165)",2,mbtiauth_8274
1433,"(599, 123, 170)",2,mbtiauth_8274
1434,"(599, 123, 286)",2,mbtiauth_8274
1435,"(599, 123, 526)",2,mbtiauth_8274
1436,"(599, 123, 566)",2,mbtiauth_8274
1437,"(599, 123, 599)",2,mbtiauth_8274
1438,"(599, 123, 765)",2,mbtiauth_8274
1439,"(599, 206, 65)",2,mbtiauth_8274
1440,"(599, 236, 123)",2,mbtiauth_8274
1441,"(599, 286, 566)",2,mbtiauth_8274
1442,"(599, 526, 599)",2,mbtiauth_8274
1443,"(599, 566, 64)",3,mbtiauth_8274
1444,"(599, 566, 65)",2,mbtiauth_8274
1445,"(599, 566, 206)",2,mbtiauth_8274
1446,"(599, 768, 170)",2,mbtiauth_8274
1447,"(653, 356, 10)",2,mbtiauth_8274
1448,"(701, 64, 22)",2,mbtiauth_8274
1449,"(720, 65, 64)",2,mbtiauth_8274
1450,"(765, 77, 123)",2,mbtiauth_8274
1451,"(765, 77, 286)",2,mbtiauth_8274
1452,"(765, 77, 566)",2,mbtiauth_8274
1453,"(765, 77, 599)",3,mbtiauth_8274
1454,"(765, 123, 286)",2,mbtiauth_8274
1455,"(765, 123, 566)",2,mbtiauth_8274
1456,"(765, 286, 566)",2,mbtiauth_8274
1457,"(910, 2, 171)",2,mbtiauth_8274
1458,"(1191, 77, 599)",2,mbtiauth_8274
1459,"(1191, 123, 77)",2,mbtiauth_8274
1460,"(1214, 220, 2)",2,mbtiauth_8274
1461,"(1364, 164, 77)",2,mbtiauth_8274
1462,"(1738, 77, 123)",2,mbtiauth_8274
1463,"(1738, 173, 77)",2,mbtiauth_8274
1464,"(1738, 173, 123)",2,mbtiauth_8274
1465,"(1900, 77, 152)",2,mbtiauth_8274
1466,"(2301, 64, 77)",2,mbtiauth_8274
1467,"(2301, 64, 123)",2,mbtiauth_8274
1468,"(2301, 64, 599)",2,mbtiauth_8274
1469,"(2301, 77, 599)",2,mbtiauth_8274
1470,"(2301, 123, 77)",2,mbtiauth_8274
1471,"(2301, 123, 599)",2,mbtiauth_8274
1472,"(2366, 65, 77)",2,mbtiauth_8274
1473,"(2366, 65, 599)",2,mbtiauth_8274
1474,"(2366, 67, 64)",2,mbtiauth_8274
1475,"(2366, 77, 599)",2,mbtiauth_8274
1476,"(2746, 77, 599)",2,mbtiauth_8274
1477,"(2746, 123, 77)",2,mbtiauth_8274
1478,"(2746, 123, 599)",2,mbtiauth_8274
1479,"(4781, 4781, 4781)",2,mbtiauth_8274
1480,"(22861, 123, 2)",2,mbtiauth_8274
1481,"(10, 22, 77, 64)",2,mbtiauth_8274
1482,"(10, 77, 77, 123)",2,mbtiauth_8274
1483,"(22, 31, 123, 535)",2,mbtiauth_8274
1484,"(22, 77, 535, 123)",2,mbtiauth_8274
1485,"(22, 123, 77, 123)",2,mbtiauth_8274
1486,"(22, 123, 77, 599)",2,mbtiauth_8274
1487,"(22, 123, 262, 535)",2,mbtiauth_8274
1488,"(22, 123, 535, 123)",2,mbtiauth_8274
1489,"(22, 194, 123, 262)",2,mbtiauth_8274
1490,"(22, 194, 123, 535)",2,mbtiauth_8274
1491,"(22, 194, 262, 123)",2,mbtiauth_8274
1492,"(22, 194, 262, 263)",2,mbtiauth_8274
1493,"(22, 194, 262, 535)",2,mbtiauth_8274
1494,"(22, 194, 263, 123)",2,mbtiauth_8274
1495,"(22, 194, 263, 535)",2,mbtiauth_8274
1496,"(22, 262, 263, 123)",2,mbtiauth_8274
1497,"(22, 262, 263, 535)",2,mbtiauth_8274
1498,"(22, 381, 262, 123)",2,mbtiauth_8274
1499,"(27, 144, 41, 286)",2,mbtiauth_8274
1500,"(31, 22, 123, 262)",2,mbtiauth_8274
1501,"(31, 22, 194, 123)",2,mbtiauth_8274
1502,"(31, 22, 194, 262)",2,mbtiauth_8274
1503,"(31, 22, 194, 263)",2,mbtiauth_8274
1504,"(31, 22, 262, 123)",2,mbtiauth_8274
1505,"(31, 22, 262, 263)",2,mbtiauth_8274
1506,"(31, 22, 263, 123)",2,mbtiauth_8274
1507,"(31, 77, 123, 123)",2,mbtiauth_8274
1508,"(31, 77, 123, 286)",2,mbtiauth_8274
1509,"(31, 77, 123, 765)",2,mbtiauth_8274
1510,"(31, 77, 535, 123)",2,mbtiauth_8274
1511,"(31, 77, 599, 123)",2,mbtiauth_8274
1512,"(31, 77, 599, 566)",2,mbtiauth_8274
1513,"(31, 77, 599, 765)",2,mbtiauth_8274
1514,"(31, 77, 1148, 566)",2,mbtiauth_8274
1515,"(31, 123, 77, 123)",2,mbtiauth_8274
1516,"(31, 123, 262, 123)",2,mbtiauth_8274
1517,"(31, 123, 262, 535)",2,mbtiauth_8274
1518,"(31, 123, 535, 123)",3,mbtiauth_8274
1519,"(31, 194, 123, 262)",2,mbtiauth_8274
1520,"(31, 194, 262, 123)",2,mbtiauth_8274
1521,"(31, 194, 262, 263)",2,mbtiauth_8274
1522,"(31, 194, 263, 123)",2,mbtiauth_8274
1523,"(31, 262, 263, 123)",2,mbtiauth_8274
1524,"(31, 262, 263, 535)",2,mbtiauth_8274
1525,"(31, 262, 535, 123)",2,mbtiauth_8274
1526,"(31, 263, 535, 123)",2,mbtiauth_8274
1527,"(31, 599, 123, 765)",2,mbtiauth_8274
1528,"(32, 22, 123, 77)",2,mbtiauth_8274
1529,"(32, 65, 77, 599)",2,mbtiauth_8274
1530,"(63, 22, 123, 262)",2,mbtiauth_8274
1531,"(63, 22, 194, 123)",2,mbtiauth_8274
1532,"(63, 22, 194, 262)",2,mbtiauth_8274
1533,"(63, 22, 194, 263)",2,mbtiauth_8274
1534,"(63, 22, 262, 123)",2,mbtiauth_8274
1535,"(63, 22, 262, 263)",2,mbtiauth_8274
1536,"(63, 22, 263, 123)",2,mbtiauth_8274
1537,"(63, 31, 22, 123)",2,mbtiauth_8274
1538,"(63, 31, 22, 194)",2,mbtiauth_8274
1539,"(63, 31, 22, 262)",2,mbtiauth_8274
1540,"(63, 31, 22, 263)",2,mbtiauth_8274
1541,"(63, 31, 77, 123)",2,mbtiauth_8274
1542,"(63, 31, 123, 262)",2,mbtiauth_8274
1543,"(63, 31, 194, 123)",2,mbtiauth_8274
1544,"(63, 31, 194, 262)",2,mbtiauth_8274
1545,"(63, 31, 194, 263)",2,mbtiauth_8274
1546,"(63, 31, 262, 123)",3,mbtiauth_8274
1547,"(63, 31, 262, 263)",2,mbtiauth_8274
1548,"(63, 31, 263, 123)",2,mbtiauth_8274
1549,"(63, 194, 123, 262)",2,mbtiauth_8274
1550,"(63, 194, 262, 123)",2,mbtiauth_8274
1551,"(63, 194, 262, 263)",2,mbtiauth_8274
1552,"(63, 194, 263, 123)",2,mbtiauth_8274
1553,"(63, 262, 263, 123)",2,mbtiauth_8274
1554,"(64, 67, 228, 77)",2,mbtiauth_8274
1555,"(64, 77, 123, 10)",2,mbtiauth_8274
1556,"(64, 77, 123, 65)",3,mbtiauth_8274
1557,"(64, 77, 123, 286)",2,mbtiauth_8274
1558,"(64, 77, 123, 326)",2,mbtiauth_8274
1559,"(64, 77, 165, 67)",2,mbtiauth_8274
1560,"(64, 77, 566, 64)",2,mbtiauth_8274
1561,"(64, 326, 154, 170)",2,mbtiauth_8274
1562,"(64, 765, 77, 599)",2,mbtiauth_8274
1563,"(65, 77, 599, 77)",2,mbtiauth_8274
1564,"(65, 77, 599, 170)",2,mbtiauth_8274
1565,"(65, 138, 77, 123)",2,mbtiauth_8274
1566,"(65, 138, 77, 599)",2,mbtiauth_8274
1567,"(65, 138, 397, 77)",3,mbtiauth_8274
1568,"(65, 138, 397, 123)",2,mbtiauth_8274
1569,"(65, 138, 397, 599)",2,mbtiauth_8274
1570,"(65, 397, 77, 123)",2,mbtiauth_8274
1571,"(65, 397, 77, 599)",2,mbtiauth_8274
1572,"(65, 720, 65, 64)",2,mbtiauth_8274
1573,"(77, 27, 144, 286)",2,mbtiauth_8274
1574,"(77, 64, 77, 123)",2,mbtiauth_8274
1575,"(77, 64, 77, 566)",2,mbtiauth_8274
1576,"(77, 77, 27, 144)",2,mbtiauth_8274
1577,"(77, 77, 27, 286)",2,mbtiauth_8274
1578,"(77, 77, 123, 286)",2,mbtiauth_8274
1579,"(77, 77, 123, 566)",2,mbtiauth_8274
1580,"(77, 77, 144, 286)",2,mbtiauth_8274
1581,"(77, 77, 286, 566)",2,mbtiauth_8274
1582,"(77, 77, 441, 65)",2,mbtiauth_8274
1583,"(77, 123, 22, 32)",2,mbtiauth_8274
1584,"(77, 123, 32, 22)",2,mbtiauth_8274
1585,"(77, 123, 47, 22)",2,mbtiauth_8274
1586,"(77, 123, 64, 22)",2,mbtiauth_8274
1587,"(77, 123, 64, 528)",2,mbtiauth_8274
1588,"(77, 123, 77, 123)",2,mbtiauth_8274
1589,"(77, 123, 77, 286)",2,mbtiauth_8274
1590,"(77, 123, 77, 566)",2,mbtiauth_8274
1591,"(77, 123, 123, 286)",2,mbtiauth_8274
1592,"(77, 123, 123, 566)",2,mbtiauth_8274
1593,"(77, 123, 212, 171)",2,mbtiauth_8274
1594,"(77, 123, 286, 22)",2,mbtiauth_8274
1595,"(77, 123, 286, 47)",2,mbtiauth_8274
1596,"(77, 123, 286, 65)",2,mbtiauth_8274
1597,"(77, 123, 286, 566)",2,mbtiauth_8274
1598,"(77, 123, 326, 5)",2,mbtiauth_8274
1599,"(77, 123, 765, 77)",2,mbtiauth_8274
1600,"(77, 123, 765, 123)",2,mbtiauth_8274
1601,"(77, 123, 765, 286)",2,mbtiauth_8274
1602,"(77, 123, 765, 566)",2,mbtiauth_8274
1603,"(77, 123, 826, 693)",2,mbtiauth_8274
1604,"(77, 286, 47, 22)",2,mbtiauth_8274
1605,"(77, 566, 206, 65)",2,mbtiauth_8274
1606,"(77, 599, 33, 170)",2,mbtiauth_8274
1607,"(77, 599, 64, 67)",2,mbtiauth_8274
1608,"(77, 599, 77, 123)",2,mbtiauth_8274
1609,"(77, 599, 77, 286)",2,mbtiauth_8274
1610,"(77, 599, 123, 22)",2,mbtiauth_8274
1611,"(77, 599, 123, 165)",2,mbtiauth_8274
1612,"(77, 599, 123, 170)",2,mbtiauth_8274
1613,"(77, 599, 123, 286)",2,mbtiauth_8274
1614,"(77, 599, 123, 566)",2,mbtiauth_8274
1615,"(77, 599, 123, 765)",2,mbtiauth_8274
1616,"(77, 599, 206, 65)",2,mbtiauth_8274
1617,"(77, 599, 286, 566)",2,mbtiauth_8274
1618,"(77, 599, 566, 65)",2,mbtiauth_8274
1619,"(77, 599, 566, 206)",2,mbtiauth_8274
1620,"(77, 765, 77, 123)",2,mbtiauth_8274
1621,"(77, 765, 77, 286)",2,mbtiauth_8274
1622,"(77, 765, 77, 566)",2,mbtiauth_8274
1623,"(77, 765, 123, 286)",2,mbtiauth_8274
1624,"(77, 765, 123, 566)",2,mbtiauth_8274
1625,"(77, 765, 286, 566)",2,mbtiauth_8274
1626,"(123, 64, 77, 123)",2,mbtiauth_8274
1627,"(123, 64, 77, 286)",2,mbtiauth_8274
1628,"(123, 64, 77, 599)",2,mbtiauth_8274
1629,"(123, 64, 123, 286)",2,mbtiauth_8274
1630,"(123, 64, 228, 77)",2,mbtiauth_8274
1631,"(123, 64, 228, 123)",2,mbtiauth_8274
1632,"(123, 65, 77, 599)",2,mbtiauth_8274
1633,"(123, 65, 138, 77)",3,mbtiauth_8274
1634,"(123, 65, 138, 397)",3,mbtiauth_8274
1635,"(123, 65, 138, 599)",2,mbtiauth_8274
1636,"(123, 65, 397, 77)",3,mbtiauth_8274
1637,"(123, 65, 397, 599)",2,mbtiauth_8274
1638,"(123, 77, 123, 286)",3,mbtiauth_8274
1639,"(123, 77, 123, 566)",2,mbtiauth_8274
1640,"(123, 77, 123, 648)",2,mbtiauth_8274
1641,"(123, 77, 286, 566)",2,mbtiauth_8274
1642,"(123, 77, 599, 123)",3,mbtiauth_8274
1643,"(123, 77, 599, 566)",2,mbtiauth_8274
1644,"(123, 78, 77, 77)",2,mbtiauth_8274
1645,"(123, 78, 326, 2)",2,mbtiauth_8274
1646,"(123, 120, 566, 64)",2,mbtiauth_8274
1647,"(123, 123, 286, 566)",2,mbtiauth_8274
1648,"(123, 138, 77, 599)",2,mbtiauth_8274
1649,"(123, 138, 397, 77)",3,mbtiauth_8274
1650,"(123, 138, 397, 599)",2,mbtiauth_8274
1651,"(123, 154, 170, 326)",2,mbtiauth_8274
1652,"(123, 262, 65, 77)",2,mbtiauth_8274
1653,"(123, 262, 65, 138)",2,mbtiauth_8274
1654,"(123, 262, 65, 397)",2,mbtiauth_8274
1655,"(123, 262, 65, 599)",2,mbtiauth_8274
1656,"(123, 262, 77, 599)",2,mbtiauth_8274
1657,"(123, 262, 138, 77)",2,mbtiauth_8274
1658,"(123, 262, 138, 397)",2,mbtiauth_8274
1659,"(123, 262, 138, 599)",2,mbtiauth_8274
1660,"(123, 262, 397, 77)",2,mbtiauth_8274
1661,"(123, 262, 397, 599)",2,mbtiauth_8274
1662,"(123, 262, 535, 123)",2,mbtiauth_8274
1663,"(123, 286, 47, 22)",2,mbtiauth_8274
1664,"(123, 322, 77, 77)",2,mbtiauth_8274
1665,"(123, 322, 78, 77)",2,mbtiauth_8274
1666,"(123, 322, 78, 1641)",2,mbtiauth_8274
1667,"(123, 397, 77, 599)",2,mbtiauth_8274
1668,"(123, 411, 77, 123)",2,mbtiauth_8274
1669,"(123, 535, 123, 193)",2,mbtiauth_8274
1670,"(123, 535, 1738, 123)",2,mbtiauth_8274
1671,"(123, 765, 77, 123)",2,mbtiauth_8274
1672,"(123, 765, 77, 286)",2,mbtiauth_8274
1673,"(123, 765, 77, 566)",2,mbtiauth_8274
1674,"(123, 765, 77, 599)",2,mbtiauth_8274
1675,"(123, 765, 123, 286)",2,mbtiauth_8274
1676,"(123, 765, 123, 566)",2,mbtiauth_8274
1677,"(123, 765, 286, 566)",2,mbtiauth_8274
1678,"(123, 1364, 164, 77)",2,mbtiauth_8274
1679,"(123, 1738, 173, 77)",2,mbtiauth_8274
1680,"(123, 1738, 173, 123)",2,mbtiauth_8274
1681,"(123, 22861, 123, 2)",2,mbtiauth_8274
1682,"(138, 397, 77, 123)",2,mbtiauth_8274
1683,"(138, 397, 77, 599)",2,mbtiauth_8274
1684,"(170, 31, 77, 123)",2,mbtiauth_8274
1685,"(170, 123, 77, 123)",2,mbtiauth_8274
1686,"(193, 77, 123, 165)",2,mbtiauth_8274
1687,"(193, 77, 599, 123)",2,mbtiauth_8274
1688,"(193, 77, 599, 165)",2,mbtiauth_8274
1689,"(193, 599, 123, 165)",2,mbtiauth_8274
1690,"(194, 123, 262, 535)",2,mbtiauth_8274
1691,"(194, 262, 263, 123)",2,mbtiauth_8274
1692,"(194, 262, 263, 535)",2,mbtiauth_8274
1693,"(262, 65, 77, 599)",3,mbtiauth_8274
1694,"(262, 65, 138, 77)",2,mbtiauth_8274
1695,"(262, 65, 138, 397)",2,mbtiauth_8274
1696,"(262, 65, 138, 599)",2,mbtiauth_8274
1697,"(262, 65, 397, 77)",2,mbtiauth_8274
1698,"(262, 65, 397, 599)",2,mbtiauth_8274
1699,"(262, 138, 77, 599)",2,mbtiauth_8274
1700,"(262, 138, 397, 77)",2,mbtiauth_8274
1701,"(262, 138, 397, 599)",2,mbtiauth_8274
1702,"(262, 263, 535, 123)",2,mbtiauth_8274
1703,"(262, 397, 77, 599)",2,mbtiauth_8274
1704,"(322, 78, 77, 77)",2,mbtiauth_8274
1705,"(326, 77, 65, 31)",2,mbtiauth_8274
1706,"(365, 249, 365, 365)",2,mbtiauth_8274
1707,"(411, 77, 123, 32)",2,mbtiauth_8274
1708,"(599, 123, 77, 599)",2,mbtiauth_8274
1709,"(599, 123, 286, 566)",2,mbtiauth_8274
1710,"(599, 123, 526, 599)",2,mbtiauth_8274
1711,"(599, 566, 206, 65)",2,mbtiauth_8274
1712,"(765, 77, 123, 286)",2,mbtiauth_8274
1713,"(765, 77, 123, 566)",2,mbtiauth_8274
1714,"(765, 77, 286, 566)",2,mbtiauth_8274
1715,"(765, 123, 286, 566)",2,mbtiauth_8274
1716,"(1738, 173, 77, 123)",2,mbtiauth_8274
1717,"(2301, 64, 77, 599)",2,mbtiauth_8274
1718,"(2301, 123, 77, 599)",2,mbtiauth_8274
1719,"(2366, 65, 77, 599)",2,mbtiauth_8274
1720,"(2746, 123, 77, 599)",2,mbtiauth_8274
1721,"(22, 194, 123, 262, 535)",2,mbtiauth_8274
1722,"(22, 194, 262, 263, 123)",2,mbtiauth_8274
1723,"(22, 194, 262, 263, 535)",2,mbtiauth_8274
1724,"(31, 22, 194, 123, 262)",2,mbtiauth_8274
1725,"(31, 22, 194, 262, 123)",2,mbtiauth_8274
1726,"(31, 22, 194, 262, 263)",2,mbtiauth_8274
1727,"(31, 22, 194, 263, 123)",2,mbtiauth_8274
1728,"(31, 22, 262, 263, 123)",2,mbtiauth_8274
1729,"(31, 77, 599, 123, 765)",2,mbtiauth_8274
1730,"(31, 123, 262, 535, 123)",2,mbtiauth_8274
1731,"(31, 194, 262, 263, 123)",2,mbtiauth_8274
1732,"(31, 262, 263, 535, 123)",2,mbtiauth_8274
1733,"(63, 22, 194, 123, 262)",2,mbtiauth_8274
1734,"(63, 22, 194, 262, 123)",2,mbtiauth_8274
1735,"(63, 22, 194, 262, 263)",2,mbtiauth_8274
1736,"(63, 22, 194, 263, 123)",2,mbtiauth_8274
1737,"(63, 22, 262, 263, 123)",2,mbtiauth_8274
1738,"(63, 31, 22, 123, 262)",2,mbtiauth_8274
1739,"(63, 31, 22, 194, 123)",2,mbtiauth_8274
1740,"(63, 31, 22, 194, 262)",2,mbtiauth_8274
1741,"(63, 31, 22, 194, 263)",2,mbtiauth_8274
1742,"(63, 31, 22, 262, 123)",2,mbtiauth_8274
1743,"(63, 31, 22, 262, 263)",2,mbtiauth_8274
1744,"(63, 31, 22, 263, 123)",2,mbtiauth_8274
1745,"(63, 31, 194, 123, 262)",2,mbtiauth_8274
1746,"(63, 31, 194, 262, 123)",2,mbtiauth_8274
1747,"(63, 31, 194, 262, 263)",2,mbtiauth_8274
1748,"(63, 31, 194, 263, 123)",2,mbtiauth_8274
1749,"(63, 31, 262, 263, 123)",2,mbtiauth_8274
1750,"(63, 194, 262, 263, 123)",2,mbtiauth_8274
1751,"(65, 138, 397, 77, 123)",2,mbtiauth_8274
1752,"(65, 138, 397, 77, 599)",2,mbtiauth_8274
1753,"(77, 77, 27, 144, 286)",2,mbtiauth_8274
1754,"(77, 77, 123, 286, 566)",2,mbtiauth_8274
1755,"(77, 123, 77, 123, 286)",2,mbtiauth_8274
1756,"(77, 123, 77, 123, 566)",2,mbtiauth_8274
1757,"(77, 123, 77, 286, 566)",2,mbtiauth_8274
1758,"(77, 123, 123, 286, 566)",2,mbtiauth_8274
1759,"(77, 123, 286, 47, 22)",2,mbtiauth_8274
1760,"(77, 123, 765, 77, 123)",2,mbtiauth_8274
1761,"(77, 123, 765, 77, 286)",2,mbtiauth_8274
1762,"(77, 123, 765, 77, 566)",2,mbtiauth_8274
1763,"(77, 123, 765, 123, 286)",2,mbtiauth_8274
1764,"(77, 123, 765, 123, 566)",2,mbtiauth_8274
1765,"(77, 123, 765, 286, 566)",2,mbtiauth_8274
1766,"(77, 599, 123, 286, 566)",2,mbtiauth_8274
1767,"(77, 599, 566, 206, 65)",2,mbtiauth_8274
1768,"(77, 765, 77, 123, 286)",2,mbtiauth_8274
1769,"(77, 765, 77, 123, 566)",2,mbtiauth_8274
1770,"(77, 765, 77, 286, 566)",2,mbtiauth_8274
1771,"(77, 765, 123, 286, 566)",2,mbtiauth_8274
1772,"(123, 64, 77, 123, 286)",2,mbtiauth_8274
1773,"(123, 65, 138, 77, 599)",2,mbtiauth_8274
1774,"(123, 65, 138, 397, 77)",3,mbtiauth_8274
1775,"(123, 65, 138, 397, 599)",2,mbtiauth_8274
1776,"(123, 65, 397, 77, 599)",2,mbtiauth_8274
1777,"(123, 77, 123, 286, 566)",2,mbtiauth_8274
1778,"(123, 138, 397, 77, 599)",2,mbtiauth_8274
1779,"(123, 262, 65, 77, 599)",2,mbtiauth_8274
1780,"(123, 262, 65, 138, 77)",2,mbtiauth_8274
1781,"(123, 262, 65, 138, 397)",2,mbtiauth_8274
1782,"(123, 262, 65, 138, 599)",2,mbtiauth_8274
1783,"(123, 262, 65, 397, 77)",2,mbtiauth_8274
1784,"(123, 262, 65, 397, 599)",2,mbtiauth_8274
1785,"(123, 262, 138, 77, 599)",2,mbtiauth_8274
1786,"(123, 262, 138, 397, 77)",2,mbtiauth_8274
1787,"(123, 262, 138, 397, 599)",2,mbtiauth_8274
1788,"(123, 262, 397, 77, 599)",2,mbtiauth_8274
1789,"(123, 322, 78, 77, 77)",2,mbtiauth_8274
1790,"(123, 765, 77, 123, 286)",2,mbtiauth_8274
1791,"(123, 765, 77, 123, 566)",2,mbtiauth_8274
1792,"(123, 765, 77, 286, 566)",2,mbtiauth_8274
1793,"(123, 765, 123, 286, 566)",2,mbtiauth_8274
1794,"(193, 77, 599, 123, 165)",2,mbtiauth_8274
1795,"(262, 65, 138, 77, 599)",2,mbtiauth_8274
1796,"(262, 65, 138, 397, 77)",2,mbtiauth_8274
1797,"(262, 65, 138, 397, 599)",2,mbtiauth_8274
1798,"(262, 65, 397, 77, 599)",2,mbtiauth_8274
1799,"(262, 138, 397, 77, 599)",2,mbtiauth_8274
1800,"(765, 77, 123, 286, 566)",2,mbtiauth_8274
1801,"(31, 22, 194, 262, 263, 123)",2,mbtiauth_8274
1802,"(63, 22, 194, 262, 263, 123)",2,mbtiauth_8274
1803,"(63, 31, 22, 194, 123, 262)",2,mbtiauth_8274
1804,"(63, 31, 22, 194, 262, 123)",2,mbtiauth_8274
1805,"(63, 31, 22, 194, 262, 263)",2,mbtiauth_8274
1806,"(63, 31, 22, 194, 263, 123)",2,mbtiauth_8274
1807,"(63, 31, 22, 262, 263, 123)",2,mbtiauth_8274
1808,"(63, 31, 194, 262, 263, 123)",2,mbtiauth_8274
1809,"(77, 123, 77, 123, 286, 566)",2,mbtiauth_8274
1810,"(77, 123, 765, 77, 123, 286)",2,mbtiauth_8274
1811,"(77, 123, 765, 77, 123, 566)",2,mbtiauth_8274
1812,"(77, 123, 765, 77, 286, 566)",2,mbtiauth_8274
1813,"(77, 123, 765, 123, 286, 566)",2,mbtiauth_8274
1814,"(77, 765, 77, 123, 286, 566)",2,mbtiauth_8274
1815,"(123, 65, 138, 397, 77, 599)",2,mbtiauth_8274
1816,"(123, 262, 65, 138, 77, 599)",2,mbtiauth_8274
1817,"(123, 262, 65, 138, 397, 77)",2,mbtiauth_8274
1818,"(123, 262, 65, 138, 397, 599)",2,mbtiauth_8274
1819,"(123, 262, 65, 397, 77, 599)",2,mbtiauth_8274
1820,"(123, 262, 138, 397, 77, 599)",2,mbtiauth_8274
1821,"(123, 765, 77, 123, 286, 566)",2,mbtiauth_8274
1822,"(262, 65, 138, 397, 77, 599)",2,mbtiauth_8274
1823,"(63, 31, 22, 194, 262, 263, 123)",2,mbtiauth_8274
1824,"(77, 123, 765, 77, 123, 286, 566)",2,mbtiauth_8274
1825,"(123, 262, 65, 138, 397, 77, 599)",2,mbtiauth_8274
