,pattern,sup,author
1076,"(2, 2, 65)",2,mbtiauth_5559
1077,"(2, 22, 10)",2,mbtiauth_5559
1078,"(2, 31, 50)",2,mbtiauth_5559
1079,"(2, 77, 2)",2,mbtiauth_5559
1080,"(2, 77, 65)",2,mbtiauth_5559
1081,"(2, 77, 123)",3,mbtiauth_5559
1082,"(2, 77, 193)",2,mbtiauth_5559
1083,"(2, 123, 2)",2,mbtiauth_5559
1084,"(2, 123, 65)",3,mbtiauth_5559
1085,"(2, 123, 123)",2,mbtiauth_5559
1086,"(2, 123, 193)",2,mbtiauth_5559
1087,"(2, 123, 441)",2,mbtiauth_5559
1088,"(2, 151, 64)",2,mbtiauth_5559
1089,"(2, 154, 220)",2,mbtiauth_5559
1090,"(2, 193, 2)",2,mbtiauth_5559
1091,"(2, 193, 65)",2,mbtiauth_5559
1092,"(2, 220, 10)",2,mbtiauth_5559
1093,"(2, 6235, 77)",2,mbtiauth_5559
1094,"(2, 6235, 123)",2,mbtiauth_5559
1095,"(10, 2, 123)",2,mbtiauth_5559
1096,"(10, 2, 2521)",2,mbtiauth_5559
1097,"(10, 10, 65)",3,mbtiauth_5559
1098,"(10, 10, 77)",2,mbtiauth_5559
1099,"(10, 22, 32)",4,mbtiauth_5559
1100,"(10, 22, 65)",2,mbtiauth_5559
1101,"(10, 22, 77)",2,mbtiauth_5559
1102,"(10, 22, 132)",2,mbtiauth_5559
1103,"(10, 22, 441)",2,mbtiauth_5559
1104,"(10, 32, 10)",3,mbtiauth_5559
1105,"(10, 32, 22)",2,mbtiauth_5559
1106,"(10, 32, 65)",5,mbtiauth_5559
1107,"(10, 32, 77)",4,mbtiauth_5559
1108,"(10, 32, 78)",2,mbtiauth_5559
1109,"(10, 32, 154)",2,mbtiauth_5559
1110,"(10, 32, 4313)",2,mbtiauth_5559
1111,"(10, 41, 22)",2,mbtiauth_5559
1112,"(10, 41, 77)",2,mbtiauth_5559
1113,"(10, 41, 441)",2,mbtiauth_5559
1114,"(10, 65, 10)",3,mbtiauth_5559
1115,"(10, 65, 32)",2,mbtiauth_5559
1116,"(10, 65, 65)",2,mbtiauth_5559
1117,"(10, 65, 77)",4,mbtiauth_5559
1118,"(10, 65, 154)",3,mbtiauth_5559
1119,"(10, 65, 441)",2,mbtiauth_5559
1120,"(10, 65, 4313)",2,mbtiauth_5559
1121,"(10, 67, 77)",2,mbtiauth_5559
1122,"(10, 77, 10)",2,mbtiauth_5559
1123,"(10, 77, 22)",3,mbtiauth_5559
1124,"(10, 77, 32)",2,mbtiauth_5559
1125,"(10, 77, 41)",2,mbtiauth_5559
1126,"(10, 77, 65)",3,mbtiauth_5559
1127,"(10, 77, 77)",3,mbtiauth_5559
1128,"(10, 77, 78)",2,mbtiauth_5559
1129,"(10, 77, 154)",2,mbtiauth_5559
1130,"(10, 77, 164)",2,mbtiauth_5559
1131,"(10, 77, 441)",3,mbtiauth_5559
1132,"(10, 77, 599)",2,mbtiauth_5559
1133,"(10, 77, 657)",2,mbtiauth_5559
1134,"(10, 77, 693)",2,mbtiauth_5559
1135,"(10, 132, 32)",2,mbtiauth_5559
1136,"(10, 154, 10)",2,mbtiauth_5559
1137,"(10, 154, 32)",2,mbtiauth_5559
1138,"(10, 154, 41)",2,mbtiauth_5559
1139,"(10, 154, 65)",3,mbtiauth_5559
1140,"(10, 154, 77)",2,mbtiauth_5559
1141,"(10, 154, 441)",2,mbtiauth_5559
1142,"(10, 262, 77)",2,mbtiauth_5559
1143,"(10, 417, 10)",2,mbtiauth_5559
1144,"(10, 417, 65)",2,mbtiauth_5559
1145,"(10, 417, 77)",2,mbtiauth_5559
1146,"(10, 441, 22)",3,mbtiauth_5559
1147,"(10, 441, 32)",2,mbtiauth_5559
1148,"(10, 863, 22)",2,mbtiauth_5559
1149,"(10, 863, 41)",3,mbtiauth_5559
1150,"(10, 863, 77)",3,mbtiauth_5559
1151,"(10, 863, 154)",2,mbtiauth_5559
1152,"(10, 863, 441)",2,mbtiauth_5559
1153,"(10, 1984, 77)",2,mbtiauth_5559
1154,"(10, 1984, 153)",2,mbtiauth_5559
1155,"(10, 4313, 10)",2,mbtiauth_5559
1156,"(10, 4313, 77)",2,mbtiauth_5559
1157,"(16, 10, 77)",2,mbtiauth_5559
1158,"(16, 22, 32)",3,mbtiauth_5559
1159,"(16, 22, 41)",2,mbtiauth_5559
1160,"(16, 22, 417)",2,mbtiauth_5559
1161,"(16, 32, 41)",2,mbtiauth_5559
1162,"(16, 32, 77)",2,mbtiauth_5559
1163,"(16, 77, 154)",4,mbtiauth_5559
1164,"(16, 120, 77)",3,mbtiauth_5559
1165,"(16, 120, 154)",3,mbtiauth_5559
1166,"(16, 120, 441)",2,mbtiauth_5559
1167,"(16, 154, 77)",3,mbtiauth_5559
1168,"(16, 154, 120)",3,mbtiauth_5559
1169,"(16, 154, 154)",3,mbtiauth_5559
1170,"(16, 154, 441)",2,mbtiauth_5559
1171,"(16, 441, 77)",2,mbtiauth_5559
1172,"(16, 441, 154)",2,mbtiauth_5559
1173,"(22, 2, 123)",2,mbtiauth_5559
1174,"(22, 2, 441)",2,mbtiauth_5559
1175,"(22, 10, 22)",2,mbtiauth_5559
1176,"(22, 10, 32)",2,mbtiauth_5559
1177,"(22, 10, 65)",2,mbtiauth_5559
1178,"(22, 10, 77)",2,mbtiauth_5559
1179,"(22, 10, 170)",2,mbtiauth_5559
1180,"(22, 16, 22)",2,mbtiauth_5559
1181,"(22, 22, 22)",2,mbtiauth_5559
1182,"(22, 22, 32)",3,mbtiauth_5559
1183,"(22, 22, 77)",2,mbtiauth_5559
1184,"(22, 32, 2)",2,mbtiauth_5559
1185,"(22, 32, 22)",3,mbtiauth_5559
1186,"(22, 32, 65)",3,mbtiauth_5559
1187,"(22, 32, 67)",2,mbtiauth_5559
1188,"(22, 32, 77)",3,mbtiauth_5559
1189,"(22, 32, 154)",2,mbtiauth_5559
1190,"(22, 32, 165)",2,mbtiauth_5559
1191,"(22, 64, 32)",2,mbtiauth_5559
1192,"(22, 64, 67)",2,mbtiauth_5559
1193,"(22, 64, 77)",2,mbtiauth_5559
1194,"(22, 67, 22)",2,mbtiauth_5559
1195,"(22, 67, 77)",2,mbtiauth_5559
1196,"(22, 77, 2)",2,mbtiauth_5559
1197,"(22, 77, 16)",2,mbtiauth_5559
1198,"(22, 77, 22)",3,mbtiauth_5559
1199,"(22, 77, 32)",2,mbtiauth_5559
1200,"(22, 77, 64)",2,mbtiauth_5559
1201,"(22, 77, 67)",3,mbtiauth_5559
1202,"(22, 77, 77)",4,mbtiauth_5559
1203,"(22, 77, 123)",2,mbtiauth_5559
1204,"(22, 77, 193)",2,mbtiauth_5559
1205,"(22, 77, 236)",2,mbtiauth_5559
1206,"(22, 77, 254)",2,mbtiauth_5559
1207,"(22, 77, 441)",3,mbtiauth_5559
1208,"(22, 123, 441)",2,mbtiauth_5559
1209,"(22, 132, 32)",2,mbtiauth_5559
1210,"(22, 146, 16)",2,mbtiauth_5559
1211,"(22, 146, 22)",2,mbtiauth_5559
1212,"(22, 146, 154)",2,mbtiauth_5559
1213,"(22, 154, 10)",3,mbtiauth_5559
1214,"(22, 154, 16)",2,mbtiauth_5559
1215,"(22, 154, 22)",2,mbtiauth_5559
1216,"(22, 154, 67)",2,mbtiauth_5559
1217,"(22, 154, 170)",2,mbtiauth_5559
1218,"(22, 154, 755)",2,mbtiauth_5559
1219,"(22, 165, 22)",2,mbtiauth_5559
1220,"(22, 165, 67)",3,mbtiauth_5559
1221,"(22, 165, 77)",2,mbtiauth_5559
1222,"(22, 236, 64)",2,mbtiauth_5559
1223,"(22, 236, 77)",2,mbtiauth_5559
1224,"(22, 254, 64)",2,mbtiauth_5559
1225,"(22, 254, 77)",2,mbtiauth_5559
1226,"(22, 254, 236)",2,mbtiauth_5559
1227,"(22, 693, 10)",2,mbtiauth_5559
1228,"(22, 693, 77)",2,mbtiauth_5559
1229,"(22, 1205, 441)",2,mbtiauth_5559
1230,"(29, 78, 29)",2,mbtiauth_5559
1231,"(30, 30, 41)",3,mbtiauth_5559
1232,"(30, 30, 162)",2,mbtiauth_5559
1233,"(30, 154, 32)",2,mbtiauth_5559
1234,"(30, 162, 41)",2,mbtiauth_5559
1235,"(31, 77, 67)",2,mbtiauth_5559
1236,"(32, 2, 65)",2,mbtiauth_5559
1237,"(32, 2, 154)",2,mbtiauth_5559
1238,"(32, 10, 22)",2,mbtiauth_5559
1239,"(32, 10, 39)",2,mbtiauth_5559
1240,"(32, 10, 41)",2,mbtiauth_5559
1241,"(32, 10, 65)",2,mbtiauth_5559
1242,"(32, 10, 77)",4,mbtiauth_5559
1243,"(32, 10, 154)",2,mbtiauth_5559
1244,"(32, 10, 863)",2,mbtiauth_5559
1245,"(32, 16, 22)",2,mbtiauth_5559
1246,"(32, 22, 16)",2,mbtiauth_5559
1247,"(32, 22, 32)",2,mbtiauth_5559
1248,"(32, 22, 64)",2,mbtiauth_5559
1249,"(32, 22, 77)",3,mbtiauth_5559
1250,"(32, 22, 154)",2,mbtiauth_5559
1251,"(32, 22, 417)",2,mbtiauth_5559
1252,"(32, 33, 154)",2,mbtiauth_5559
1253,"(32, 65, 32)",3,mbtiauth_5559
1254,"(32, 65, 77)",3,mbtiauth_5559
1255,"(32, 65, 154)",3,mbtiauth_5559
1256,"(32, 66, 22)",2,mbtiauth_5559
1257,"(32, 67, 77)",2,mbtiauth_5559
1258,"(32, 77, 2)",2,mbtiauth_5559
1259,"(32, 77, 10)",2,mbtiauth_5559
1260,"(32, 77, 16)",2,mbtiauth_5559
1261,"(32, 77, 22)",3,mbtiauth_5559
1262,"(32, 77, 32)",2,mbtiauth_5559
1263,"(32, 77, 65)",2,mbtiauth_5559
1264,"(32, 77, 77)",3,mbtiauth_5559
1265,"(32, 77, 154)",2,mbtiauth_5559
1266,"(32, 77, 193)",2,mbtiauth_5559
1267,"(32, 146, 77)",2,mbtiauth_5559
1268,"(32, 154, 10)",2,mbtiauth_5559
1269,"(32, 154, 16)",2,mbtiauth_5559
1270,"(32, 154, 41)",2,mbtiauth_5559
1271,"(32, 154, 77)",3,mbtiauth_5559
1272,"(32, 154, 123)",2,mbtiauth_5559
1273,"(32, 165, 67)",2,mbtiauth_5559
1274,"(32, 165, 77)",2,mbtiauth_5559
1275,"(32, 417, 32)",2,mbtiauth_5559
1276,"(32, 700, 10)",2,mbtiauth_5559
1277,"(32, 863, 41)",2,mbtiauth_5559
1278,"(32, 863, 154)",2,mbtiauth_5559
1279,"(32, 1984, 153)",2,mbtiauth_5559
1280,"(32, 4313, 77)",2,mbtiauth_5559
1281,"(41, 10, 22)",2,mbtiauth_5559
1282,"(41, 10, 77)",2,mbtiauth_5559
1283,"(41, 16, 77)",2,mbtiauth_5559
1284,"(41, 22, 213)",2,mbtiauth_5559
1285,"(41, 41, 65)",2,mbtiauth_5559
1286,"(41, 41, 77)",2,mbtiauth_5559
1287,"(41, 41, 154)",2,mbtiauth_5559
1288,"(41, 41, 441)",2,mbtiauth_5559
1289,"(41, 64, 64)",2,mbtiauth_5559
1290,"(41, 65, 64)",2,mbtiauth_5559
1291,"(41, 65, 77)",2,mbtiauth_5559
1292,"(41, 65, 123)",2,mbtiauth_5559
1293,"(41, 65, 599)",2,mbtiauth_5559
1294,"(41, 65, 1335)",2,mbtiauth_5559
1295,"(41, 77, 41)",3,mbtiauth_5559
1296,"(41, 77, 65)",2,mbtiauth_5559
1297,"(41, 77, 77)",2,mbtiauth_5559
1298,"(41, 77, 123)",2,mbtiauth_5559
1299,"(41, 77, 154)",2,mbtiauth_5559
1300,"(41, 77, 236)",3,mbtiauth_5559
1301,"(41, 77, 441)",2,mbtiauth_5559
1302,"(41, 77, 599)",2,mbtiauth_5559
1303,"(41, 154, 16)",2,mbtiauth_5559
1304,"(41, 154, 65)",2,mbtiauth_5559
1305,"(41, 154, 77)",5,mbtiauth_5559
1306,"(41, 154, 123)",2,mbtiauth_5559
1307,"(41, 154, 170)",3,mbtiauth_5559
1308,"(41, 154, 193)",2,mbtiauth_5559
1309,"(41, 154, 326)",2,mbtiauth_5559
1310,"(41, 154, 599)",3,mbtiauth_5559
1311,"(41, 162, 41)",2,mbtiauth_5559
1312,"(41, 170, 77)",2,mbtiauth_5559
1313,"(41, 170, 599)",2,mbtiauth_5559
1314,"(41, 220, 16)",2,mbtiauth_5559
1315,"(41, 220, 154)",2,mbtiauth_5559
1316,"(41, 236, 41)",2,mbtiauth_5559
1317,"(41, 326, 77)",2,mbtiauth_5559
1318,"(41, 326, 911)",2,mbtiauth_5559
1319,"(41, 364, 16)",2,mbtiauth_5559
1320,"(41, 364, 77)",2,mbtiauth_5559
1321,"(41, 368, 1011)",2,mbtiauth_5559
1322,"(41, 441, 10)",2,mbtiauth_5559
1323,"(41, 441, 22)",2,mbtiauth_5559
1324,"(41, 441, 65)",2,mbtiauth_5559
1325,"(41, 441, 77)",3,mbtiauth_5559
1326,"(41, 599, 123)",2,mbtiauth_5559
1327,"(64, 16, 64)",2,mbtiauth_5559
1328,"(64, 22, 10)",2,mbtiauth_5559
1329,"(64, 22, 22)",2,mbtiauth_5559
1330,"(64, 22, 32)",2,mbtiauth_5559
1331,"(64, 32, 22)",2,mbtiauth_5559
1332,"(64, 41, 65)",2,mbtiauth_5559
1333,"(64, 64, 65)",2,mbtiauth_5559
1334,"(64, 64, 256)",2,mbtiauth_5559
1335,"(64, 65, 64)",2,mbtiauth_5559
1336,"(64, 65, 123)",2,mbtiauth_5559
1337,"(64, 65, 164)",2,mbtiauth_5559
1338,"(64, 65, 165)",2,mbtiauth_5559
1339,"(64, 67, 64)",2,mbtiauth_5559
1340,"(64, 67, 65)",2,mbtiauth_5559
1341,"(64, 67, 154)",2,mbtiauth_5559
1342,"(64, 67, 193)",2,mbtiauth_5559
1343,"(64, 77, 16)",2,mbtiauth_5559
1344,"(64, 77, 22)",2,mbtiauth_5559
1345,"(64, 77, 64)",3,mbtiauth_5559
1346,"(64, 77, 67)",2,mbtiauth_5559
1347,"(64, 77, 123)",2,mbtiauth_5559
1348,"(64, 77, 154)",5,mbtiauth_5559
1349,"(64, 77, 165)",2,mbtiauth_5559
1350,"(64, 77, 170)",2,mbtiauth_5559
1351,"(64, 77, 193)",2,mbtiauth_5559
1352,"(64, 77, 599)",2,mbtiauth_5559
1353,"(64, 123, 165)",2,mbtiauth_5559
1354,"(64, 154, 64)",3,mbtiauth_5559
1355,"(64, 154, 65)",3,mbtiauth_5559
1356,"(64, 154, 120)",2,mbtiauth_5559
1357,"(64, 154, 164)",2,mbtiauth_5559
1358,"(64, 154, 170)",2,mbtiauth_5559
1359,"(64, 154, 183)",2,mbtiauth_5559
1360,"(64, 154, 212)",2,mbtiauth_5559
1361,"(64, 193, 154)",3,mbtiauth_5559
1362,"(64, 222, 65)",2,mbtiauth_5559
1363,"(64, 222, 154)",2,mbtiauth_5559
1364,"(64, 773, 64)",2,mbtiauth_5559
1365,"(64, 773, 256)",2,mbtiauth_5559
1366,"(65, 10, 2)",2,mbtiauth_5559
1367,"(65, 10, 22)",2,mbtiauth_5559
1368,"(65, 10, 32)",2,mbtiauth_5559
1369,"(65, 10, 65)",3,mbtiauth_5559
1370,"(65, 10, 441)",2,mbtiauth_5559
1371,"(65, 22, 32)",2,mbtiauth_5559
1372,"(65, 22, 65)",2,mbtiauth_5559
1373,"(65, 30, 30)",2,mbtiauth_5559
1374,"(65, 31, 77)",2,mbtiauth_5559
1375,"(65, 32, 10)",3,mbtiauth_5559
1376,"(65, 32, 16)",2,mbtiauth_5559
1377,"(65, 32, 33)",2,mbtiauth_5559
1378,"(65, 32, 65)",3,mbtiauth_5559
1379,"(65, 32, 77)",2,mbtiauth_5559
1380,"(65, 32, 154)",5,mbtiauth_5559
1381,"(65, 32, 213)",2,mbtiauth_5559
1382,"(65, 33, 154)",2,mbtiauth_5559
1383,"(65, 64, 32)",2,mbtiauth_5559
1384,"(65, 65, 32)",2,mbtiauth_5559
1385,"(65, 77, 30)",2,mbtiauth_5559
1386,"(65, 77, 65)",2,mbtiauth_5559
1387,"(65, 77, 123)",3,mbtiauth_5559
1388,"(65, 77, 599)",3,mbtiauth_5559
1389,"(65, 123, 10)",2,mbtiauth_5559
1390,"(65, 154, 10)",2,mbtiauth_5559
1391,"(65, 154, 32)",2,mbtiauth_5559
1392,"(65, 154, 65)",3,mbtiauth_5559
1393,"(65, 154, 77)",2,mbtiauth_5559
1394,"(65, 154, 123)",3,mbtiauth_5559
1395,"(65, 154, 441)",2,mbtiauth_5559
1396,"(65, 222, 154)",2,mbtiauth_5559
1397,"(65, 599, 123)",3,mbtiauth_5559
1398,"(65, 2975, 32)",2,mbtiauth_5559
1399,"(65, 2975, 77)",2,mbtiauth_5559
1400,"(65, 2975, 213)",2,mbtiauth_5559
1401,"(65, 2975, 3625)",2,mbtiauth_5559
1402,"(65, 3625, 32)",2,mbtiauth_5559
1403,"(65, 3625, 77)",2,mbtiauth_5559
1404,"(65, 3625, 213)",2,mbtiauth_5559
1405,"(65, 4313, 10)",2,mbtiauth_5559
1406,"(65, 4313, 77)",2,mbtiauth_5559
1407,"(65, 7261, 77)",2,mbtiauth_5559
1408,"(66, 22, 32)",2,mbtiauth_5559
1409,"(67, 64, 64)",3,mbtiauth_5559
1410,"(67, 64, 65)",2,mbtiauth_5559
1411,"(67, 65, 64)",2,mbtiauth_5559
1412,"(67, 154, 77)",2,mbtiauth_5559
1413,"(67, 193, 154)",2,mbtiauth_5559
1414,"(70, 16, 154)",2,mbtiauth_5559
1415,"(70, 77, 599)",2,mbtiauth_5559
1416,"(77, 2, 10)",2,mbtiauth_5559
1417,"(77, 2, 22)",2,mbtiauth_5559
1418,"(77, 2, 31)",2,mbtiauth_5559
1419,"(77, 2, 65)",3,mbtiauth_5559
1420,"(77, 2, 117)",2,mbtiauth_5559
1421,"(77, 2, 123)",2,mbtiauth_5559
1422,"(77, 2, 154)",3,mbtiauth_5559
1423,"(77, 2, 193)",2,mbtiauth_5559
1424,"(77, 2, 254)",2,mbtiauth_5559
1425,"(77, 2, 441)",2,mbtiauth_5559
1426,"(77, 2, 6235)",2,mbtiauth_5559
1427,"(77, 10, 10)",2,mbtiauth_5559
1428,"(77, 10, 22)",3,mbtiauth_5559
1429,"(77, 10, 32)",3,mbtiauth_5559
1430,"(77, 10, 65)",3,mbtiauth_5559
1431,"(77, 10, 77)",2,mbtiauth_5559
1432,"(77, 10, 154)",2,mbtiauth_5559
1433,"(77, 10, 326)",2,mbtiauth_5559
1434,"(77, 10, 417)",2,mbtiauth_5559
1435,"(77, 16, 22)",3,mbtiauth_5559
1436,"(77, 16, 64)",2,mbtiauth_5559
1437,"(77, 16, 77)",2,mbtiauth_5559
1438,"(77, 16, 120)",2,mbtiauth_5559
1439,"(77, 16, 154)",3,mbtiauth_5559
1440,"(77, 16, 170)",2,mbtiauth_5559
1441,"(77, 16, 441)",2,mbtiauth_5559
1442,"(77, 16, 541)",2,mbtiauth_5559
1443,"(77, 22, 10)",2,mbtiauth_5559
1444,"(77, 22, 16)",2,mbtiauth_5559
1445,"(77, 22, 22)",3,mbtiauth_5559
1446,"(77, 22, 32)",5,mbtiauth_5559
1447,"(77, 22, 41)",2,mbtiauth_5559
1448,"(77, 22, 67)",2,mbtiauth_5559
1449,"(77, 22, 77)",3,mbtiauth_5559
1450,"(77, 22, 132)",2,mbtiauth_5559
1451,"(77, 22, 146)",2,mbtiauth_5559
1452,"(77, 22, 154)",3,mbtiauth_5559
1453,"(77, 22, 165)",2,mbtiauth_5559
1454,"(77, 30, 30)",2,mbtiauth_5559
1455,"(77, 32, 10)",2,mbtiauth_5559
1456,"(77, 32, 22)",3,mbtiauth_5559
1457,"(77, 32, 65)",3,mbtiauth_5559
1458,"(77, 32, 77)",3,mbtiauth_5559
1459,"(77, 32, 154)",2,mbtiauth_5559
1460,"(77, 41, 64)",2,mbtiauth_5559
1461,"(77, 41, 65)",3,mbtiauth_5559
1462,"(77, 41, 77)",2,mbtiauth_5559
1463,"(77, 41, 154)",3,mbtiauth_5559
1464,"(77, 41, 220)",2,mbtiauth_5559
1465,"(77, 41, 326)",3,mbtiauth_5559
1466,"(77, 41, 441)",2,mbtiauth_5559
1467,"(77, 64, 65)",3,mbtiauth_5559
1468,"(77, 64, 67)",4,mbtiauth_5559
1469,"(77, 64, 77)",3,mbtiauth_5559
1470,"(77, 64, 154)",3,mbtiauth_5559
1471,"(77, 64, 164)",2,mbtiauth_5559
1472,"(77, 64, 165)",2,mbtiauth_5559
1473,"(77, 64, 170)",2,mbtiauth_5559
1474,"(77, 64, 193)",3,mbtiauth_5559
1475,"(77, 65, 10)",2,mbtiauth_5559
1476,"(77, 65, 31)",2,mbtiauth_5559
1477,"(77, 65, 32)",2,mbtiauth_5559
1478,"(77, 65, 164)",2,mbtiauth_5559
1479,"(77, 67, 64)",2,mbtiauth_5559
1480,"(77, 67, 67)",2,mbtiauth_5559
1481,"(77, 67, 154)",2,mbtiauth_5559
1482,"(77, 77, 2)",3,mbtiauth_5559
1483,"(77, 77, 10)",2,mbtiauth_5559
1484,"(77, 77, 65)",3,mbtiauth_5559
1485,"(77, 77, 67)",4,mbtiauth_5559
1486,"(77, 77, 77)",3,mbtiauth_5559
1487,"(77, 77, 154)",6,mbtiauth_5559
1488,"(77, 77, 164)",2,mbtiauth_5559
1489,"(77, 77, 165)",2,mbtiauth_5559
1490,"(77, 77, 193)",4,mbtiauth_5559
1491,"(77, 77, 326)",2,mbtiauth_5559
1492,"(77, 77, 441)",3,mbtiauth_5559
1493,"(77, 77, 599)",3,mbtiauth_5559
1494,"(77, 77, 2366)",2,mbtiauth_5559
1495,"(77, 123, 2)",3,mbtiauth_5559
1496,"(77, 123, 31)",2,mbtiauth_5559
1497,"(77, 123, 64)",2,mbtiauth_5559
1498,"(77, 123, 65)",6,mbtiauth_5559
1499,"(77, 123, 67)",3,mbtiauth_5559
1500,"(77, 123, 123)",3,mbtiauth_5559
1501,"(77, 123, 154)",3,mbtiauth_5559
1502,"(77, 123, 165)",3,mbtiauth_5559
1503,"(77, 123, 193)",3,mbtiauth_5559
1504,"(77, 123, 205)",2,mbtiauth_5559
1505,"(77, 123, 206)",2,mbtiauth_5559
1506,"(77, 123, 262)",2,mbtiauth_5559
1507,"(77, 123, 1177)",2,mbtiauth_5559
1508,"(77, 123, 3368)",2,mbtiauth_5559
1509,"(77, 132, 32)",2,mbtiauth_5559
1510,"(77, 146, 16)",2,mbtiauth_5559
1511,"(77, 146, 154)",2,mbtiauth_5559
1512,"(77, 151, 67)",2,mbtiauth_5559
1513,"(77, 152, 154)",2,mbtiauth_5559
1514,"(77, 154, 2)",2,mbtiauth_5559
1515,"(77, 154, 10)",3,mbtiauth_5559
1516,"(77, 154, 16)",4,mbtiauth_5559
1517,"(77, 154, 41)",3,mbtiauth_5559
1518,"(77, 154, 64)",6,mbtiauth_5559
1519,"(77, 154, 65)",5,mbtiauth_5559
1520,"(77, 154, 67)",3,mbtiauth_5559
1521,"(77, 154, 77)",3,mbtiauth_5559
1522,"(77, 154, 120)",2,mbtiauth_5559
1523,"(77, 154, 154)",3,mbtiauth_5559
1524,"(77, 154, 164)",2,mbtiauth_5559
1525,"(77, 154, 165)",3,mbtiauth_5559
1526,"(77, 154, 170)",4,mbtiauth_5559
1527,"(77, 154, 183)",2,mbtiauth_5559
1528,"(77, 154, 193)",3,mbtiauth_5559
1529,"(77, 154, 262)",3,mbtiauth_5559
1530,"(77, 154, 326)",2,mbtiauth_5559
1531,"(77, 154, 599)",2,mbtiauth_5559
1532,"(77, 154, 773)",2,mbtiauth_5559
1533,"(77, 154, 1177)",2,mbtiauth_5559
1534,"(77, 154, 3368)",2,mbtiauth_5559
1535,"(77, 164, 65)",2,mbtiauth_5559
1536,"(77, 164, 154)",2,mbtiauth_5559
1537,"(77, 165, 67)",3,mbtiauth_5559
1538,"(77, 170, 77)",2,mbtiauth_5559
1539,"(77, 171, 77)",2,mbtiauth_5559
1540,"(77, 183, 2)",2,mbtiauth_5559
1541,"(77, 190, 77)",2,mbtiauth_5559
1542,"(77, 193, 2)",2,mbtiauth_5559
1543,"(77, 193, 64)",3,mbtiauth_5559
1544,"(77, 193, 65)",4,mbtiauth_5559
1545,"(77, 193, 77)",2,mbtiauth_5559
1546,"(77, 193, 154)",3,mbtiauth_5559
1547,"(77, 193, 170)",3,mbtiauth_5559
1548,"(77, 205, 2)",2,mbtiauth_5559
1549,"(77, 205, 77)",2,mbtiauth_5559
1550,"(77, 205, 193)",2,mbtiauth_5559
1551,"(77, 206, 77)",2,mbtiauth_5559
1552,"(77, 206, 154)",2,mbtiauth_5559
1553,"(77, 206, 1177)",2,mbtiauth_5559
1554,"(77, 206, 3368)",2,mbtiauth_5559
1555,"(77, 212, 41)",2,mbtiauth_5559
1556,"(77, 220, 154)",2,mbtiauth_5559
1557,"(77, 222, 154)",2,mbtiauth_5559
1558,"(77, 236, 16)",2,mbtiauth_5559
1559,"(77, 236, 22)",2,mbtiauth_5559
1560,"(77, 236, 41)",3,mbtiauth_5559
1561,"(77, 236, 64)",2,mbtiauth_5559
1562,"(77, 236, 67)",2,mbtiauth_5559
1563,"(77, 236, 77)",4,mbtiauth_5559
1564,"(77, 236, 154)",4,mbtiauth_5559
1565,"(77, 236, 190)",2,mbtiauth_5559
1566,"(77, 236, 326)",2,mbtiauth_5559
1567,"(77, 236, 364)",2,mbtiauth_5559
1568,"(77, 236, 441)",2,mbtiauth_5559
1569,"(77, 254, 64)",2,mbtiauth_5559
1570,"(77, 254, 67)",2,mbtiauth_5559
1571,"(77, 254, 77)",2,mbtiauth_5559
1572,"(77, 254, 236)",2,mbtiauth_5559
1573,"(77, 254, 566)",2,mbtiauth_5559
1574,"(77, 256, 22)",2,mbtiauth_5559
1575,"(77, 262, 2)",2,mbtiauth_5559
1576,"(77, 262, 170)",2,mbtiauth_5559
1577,"(77, 262, 262)",2,mbtiauth_5559
1578,"(77, 291, 193)",2,mbtiauth_5559
1579,"(77, 326, 32)",2,mbtiauth_5559
1580,"(77, 326, 77)",2,mbtiauth_5559
1581,"(77, 364, 16)",2,mbtiauth_5559
1582,"(77, 417, 77)",2,mbtiauth_5559
1583,"(77, 441, 22)",2,mbtiauth_5559
1584,"(77, 441, 65)",2,mbtiauth_5559
1585,"(77, 441, 77)",2,mbtiauth_5559
1586,"(77, 441, 154)",2,mbtiauth_5559
1587,"(77, 441, 193)",2,mbtiauth_5559
1588,"(77, 441, 599)",2,mbtiauth_5559
1589,"(77, 510, 64)",2,mbtiauth_5559
1590,"(77, 589, 154)",2,mbtiauth_5559
1591,"(77, 599, 22)",2,mbtiauth_5559
1592,"(77, 599, 32)",4,mbtiauth_5559
1593,"(77, 599, 64)",2,mbtiauth_5559
1594,"(77, 599, 65)",3,mbtiauth_5559
1595,"(77, 599, 77)",3,mbtiauth_5559
1596,"(77, 599, 123)",2,mbtiauth_5559
1597,"(77, 599, 154)",3,mbtiauth_5559
1598,"(77, 599, 170)",2,mbtiauth_5559
1599,"(77, 599, 171)",2,mbtiauth_5559
1600,"(77, 599, 417)",2,mbtiauth_5559
1601,"(77, 599, 1274)",2,mbtiauth_5559
1602,"(77, 773, 64)",2,mbtiauth_5559
1603,"(77, 778, 65)",2,mbtiauth_5559
1604,"(77, 1177, 64)",2,mbtiauth_5559
1605,"(77, 1177, 3368)",2,mbtiauth_5559
1606,"(77, 1216, 154)",2,mbtiauth_5559
1607,"(77, 1274, 154)",2,mbtiauth_5559
1608,"(77, 1855, 65)",2,mbtiauth_5559
1609,"(77, 2366, 67)",2,mbtiauth_5559
1610,"(77, 3368, 64)",2,mbtiauth_5559
1611,"(77, 7265, 11171)",2,mbtiauth_5559
1612,"(78, 77, 16)",2,mbtiauth_5559
1613,"(78, 77, 154)",2,mbtiauth_5559
1614,"(78, 77, 183)",2,mbtiauth_5559
1615,"(78, 78, 22)",2,mbtiauth_5559
1616,"(78, 78, 77)",2,mbtiauth_5559
1617,"(78, 78, 123)",2,mbtiauth_5559
1618,"(78, 1241, 22)",2,mbtiauth_5559
1619,"(78, 1241, 77)",2,mbtiauth_5559
1620,"(78, 1241, 78)",2,mbtiauth_5559
1621,"(78, 1241, 123)",2,mbtiauth_5559
1622,"(78, 2094, 78)",2,mbtiauth_5559
1623,"(120, 64, 77)",2,mbtiauth_5559
1624,"(120, 64, 154)",2,mbtiauth_5559
1625,"(120, 77, 64)",2,mbtiauth_5559
1626,"(120, 77, 154)",3,mbtiauth_5559
1627,"(120, 154, 64)",2,mbtiauth_5559
1628,"(120, 441, 77)",2,mbtiauth_5559
1629,"(120, 441, 154)",2,mbtiauth_5559
1630,"(123, 2, 65)",3,mbtiauth_5559
1631,"(123, 2, 77)",2,mbtiauth_5559
1632,"(123, 2, 123)",2,mbtiauth_5559
1633,"(123, 2, 441)",2,mbtiauth_5559
1634,"(123, 2, 6235)",2,mbtiauth_5559
1635,"(123, 10, 22)",2,mbtiauth_5559
1636,"(123, 10, 32)",4,mbtiauth_5559
1637,"(123, 10, 41)",2,mbtiauth_5559
1638,"(123, 10, 65)",2,mbtiauth_5559
1639,"(123, 10, 77)",5,mbtiauth_5559
1640,"(123, 10, 154)",2,mbtiauth_5559
1641,"(123, 10, 262)",2,mbtiauth_5559
1642,"(123, 10, 863)",2,mbtiauth_5559
1643,"(123, 10, 1984)",2,mbtiauth_5559
1644,"(123, 22, 10)",3,mbtiauth_5559
1645,"(123, 22, 32)",2,mbtiauth_5559
1646,"(123, 22, 77)",2,mbtiauth_5559
1647,"(123, 22, 154)",2,mbtiauth_5559
1648,"(123, 32, 2)",2,mbtiauth_5559
1649,"(123, 32, 10)",2,mbtiauth_5559
1650,"(123, 32, 65)",4,mbtiauth_5559
1651,"(123, 32, 77)",3,mbtiauth_5559
1652,"(123, 32, 123)",2,mbtiauth_5559
1653,"(123, 32, 152)",2,mbtiauth_5559
1654,"(123, 32, 154)",2,mbtiauth_5559
1655,"(123, 32, 700)",2,mbtiauth_5559
1656,"(123, 32, 1984)",2,mbtiauth_5559
1657,"(123, 50, 10)",3,mbtiauth_5559
1658,"(123, 50, 77)",2,mbtiauth_5559
1659,"(123, 50, 262)",2,mbtiauth_5559
1660,"(123, 64, 77)",2,mbtiauth_5559
1661,"(123, 64, 154)",2,mbtiauth_5559
1662,"(123, 65, 10)",2,mbtiauth_5559
1663,"(123, 65, 32)",2,mbtiauth_5559
1664,"(123, 65, 65)",2,mbtiauth_5559
1665,"(123, 65, 123)",2,mbtiauth_5559
1666,"(123, 77, 2)",4,mbtiauth_5559
1667,"(123, 77, 10)",2,mbtiauth_5559
1668,"(123, 77, 32)",2,mbtiauth_5559
1669,"(123, 77, 65)",3,mbtiauth_5559
1670,"(123, 77, 77)",2,mbtiauth_5559
1671,"(123, 77, 123)",6,mbtiauth_5559
1672,"(123, 77, 152)",2,mbtiauth_5559
1673,"(123, 77, 154)",4,mbtiauth_5559
1674,"(123, 77, 589)",2,mbtiauth_5559
1675,"(123, 77, 599)",3,mbtiauth_5559
1676,"(123, 77, 1855)",2,mbtiauth_5559
1677,"(123, 117, 10)",2,mbtiauth_5559
1678,"(123, 120, 64)",2,mbtiauth_5559
1679,"(123, 120, 77)",2,mbtiauth_5559
1680,"(123, 120, 154)",2,mbtiauth_5559
1681,"(123, 123, 2)",2,mbtiauth_5559
1682,"(123, 123, 10)",4,mbtiauth_5559
1683,"(123, 123, 50)",2,mbtiauth_5559
1684,"(123, 123, 65)",4,mbtiauth_5559
1685,"(123, 123, 77)",2,mbtiauth_5559
1686,"(123, 123, 123)",3,mbtiauth_5559
1687,"(123, 123, 154)",3,mbtiauth_5559
1688,"(123, 123, 262)",2,mbtiauth_5559
1689,"(123, 123, 441)",2,mbtiauth_5559
1690,"(123, 123, 700)",2,mbtiauth_5559
1691,"(123, 151, 2)",2,mbtiauth_5559
1692,"(123, 151, 77)",2,mbtiauth_5559
1693,"(123, 152, 154)",2,mbtiauth_5559
1694,"(123, 154, 2)",2,mbtiauth_5559
1695,"(123, 154, 10)",4,mbtiauth_5559
1696,"(123, 154, 32)",4,mbtiauth_5559
1697,"(123, 154, 64)",2,mbtiauth_5559
1698,"(123, 154, 65)",3,mbtiauth_5559
1699,"(123, 154, 77)",5,mbtiauth_5559
1700,"(123, 154, 123)",4,mbtiauth_5559
1701,"(123, 154, 151)",2,mbtiauth_5559
1702,"(123, 154, 160)",2,mbtiauth_5559
1703,"(123, 154, 170)",2,mbtiauth_5559
1704,"(123, 154, 183)",2,mbtiauth_5559
1705,"(123, 154, 599)",2,mbtiauth_5559
1706,"(123, 154, 1177)",2,mbtiauth_5559
1707,"(123, 154, 3368)",2,mbtiauth_5559
1708,"(123, 160, 64)",2,mbtiauth_5559
1709,"(123, 160, 77)",2,mbtiauth_5559
1710,"(123, 165, 10)",4,mbtiauth_5559
1711,"(123, 165, 77)",3,mbtiauth_5559
1712,"(123, 165, 154)",2,mbtiauth_5559
1713,"(123, 165, 441)",2,mbtiauth_5559
1714,"(123, 165, 765)",4,mbtiauth_5559
1715,"(123, 175, 41)",2,mbtiauth_5559
1716,"(123, 183, 10)",2,mbtiauth_5559
1717,"(123, 193, 2)",2,mbtiauth_5559
1718,"(123, 193, 65)",3,mbtiauth_5559
1719,"(123, 193, 77)",3,mbtiauth_5559
1720,"(123, 205, 2)",2,mbtiauth_5559
1721,"(123, 205, 77)",2,mbtiauth_5559
1722,"(123, 206, 2)",2,mbtiauth_5559
1723,"(123, 206, 77)",3,mbtiauth_5559
1724,"(123, 206, 154)",2,mbtiauth_5559
1725,"(123, 206, 1177)",2,mbtiauth_5559
1726,"(123, 206, 3368)",2,mbtiauth_5559
1727,"(123, 220, 154)",2,mbtiauth_5559
1728,"(123, 262, 2)",2,mbtiauth_5559
1729,"(123, 262, 65)",2,mbtiauth_5559
1730,"(123, 262, 67)",2,mbtiauth_5559
1731,"(123, 262, 77)",5,mbtiauth_5559
1732,"(123, 262, 123)",2,mbtiauth_5559
1733,"(123, 286, 10)",2,mbtiauth_5559
1734,"(123, 417, 77)",2,mbtiauth_5559
1735,"(123, 441, 10)",3,mbtiauth_5559
1736,"(123, 441, 32)",2,mbtiauth_5559
1737,"(123, 441, 41)",2,mbtiauth_5559
1738,"(123, 441, 77)",4,mbtiauth_5559
1739,"(123, 441, 154)",2,mbtiauth_5559
1740,"(123, 441, 863)",2,mbtiauth_5559
1741,"(123, 589, 154)",2,mbtiauth_5559
1742,"(123, 700, 10)",2,mbtiauth_5559
1743,"(123, 765, 77)",2,mbtiauth_5559
1744,"(123, 826, 65)",2,mbtiauth_5559
1745,"(123, 863, 41)",2,mbtiauth_5559
1746,"(123, 863, 77)",2,mbtiauth_5559
1747,"(123, 1045, 151)",2,mbtiauth_5559
1748,"(123, 1177, 3368)",2,mbtiauth_5559
1749,"(123, 1913, 77)",2,mbtiauth_5559
1750,"(123, 6235, 77)",2,mbtiauth_5559
1751,"(126, 22, 32)",2,mbtiauth_5559
1752,"(126, 32, 10)",2,mbtiauth_5559
1753,"(126, 32, 77)",2,mbtiauth_5559
1754,"(126, 77, 10)",2,mbtiauth_5559
1755,"(126, 212, 22)",2,mbtiauth_5559
1756,"(126, 212, 32)",2,mbtiauth_5559
1757,"(140, 657, 123)",2,mbtiauth_5559
1758,"(146, 16, 22)",2,mbtiauth_5559
1759,"(146, 77, 16)",2,mbtiauth_5559
1760,"(146, 154, 16)",2,mbtiauth_5559
1761,"(146, 154, 22)",2,mbtiauth_5559
1762,"(146, 154, 165)",2,mbtiauth_5559
1763,"(146, 37972, 16)",2,mbtiauth_5559
1764,"(146, 37972, 77)",2,mbtiauth_5559
1765,"(151, 10, 77)",2,mbtiauth_5559
1766,"(151, 67, 64)",2,mbtiauth_5559
1767,"(151, 77, 2)",2,mbtiauth_5559
1768,"(154, 2, 154)",3,mbtiauth_5559
1769,"(154, 10, 10)",2,mbtiauth_5559
1770,"(154, 10, 22)",2,mbtiauth_5559
1771,"(154, 10, 32)",2,mbtiauth_5559
1772,"(154, 10, 41)",2,mbtiauth_5559
1773,"(154, 10, 65)",2,mbtiauth_5559
1774,"(154, 10, 77)",4,mbtiauth_5559
1775,"(154, 10, 154)",3,mbtiauth_5559
1776,"(154, 10, 226)",2,mbtiauth_5559
1777,"(154, 10, 599)",2,mbtiauth_5559
1778,"(154, 10, 657)",2,mbtiauth_5559
1779,"(154, 10, 863)",2,mbtiauth_5559
1780,"(154, 16, 22)",2,mbtiauth_5559
1781,"(154, 16, 65)",2,mbtiauth_5559
1782,"(154, 16, 165)",2,mbtiauth_5559
1783,"(154, 22, 32)",2,mbtiauth_5559
1784,"(154, 22, 65)",2,mbtiauth_5559
1785,"(154, 30, 30)",3,mbtiauth_5559
1786,"(154, 30, 41)",2,mbtiauth_5559
1787,"(154, 30, 77)",2,mbtiauth_5559
1788,"(154, 32, 10)",3,mbtiauth_5559
1789,"(154, 32, 32)",2,mbtiauth_5559
1790,"(154, 32, 65)",4,mbtiauth_5559
1791,"(154, 32, 77)",4,mbtiauth_5559
1792,"(154, 32, 154)",3,mbtiauth_5559
1793,"(154, 32, 213)",2,mbtiauth_5559
1794,"(154, 41, 10)",2,mbtiauth_5559
1795,"(154, 41, 64)",2,mbtiauth_5559
1796,"(154, 41, 65)",2,mbtiauth_5559
1797,"(154, 41, 226)",2,mbtiauth_5559
1798,"(154, 64, 65)",2,mbtiauth_5559
1799,"(154, 64, 77)",3,mbtiauth_5559
1800,"(154, 64, 154)",2,mbtiauth_5559
1801,"(154, 64, 165)",2,mbtiauth_5559
1802,"(154, 64, 256)",2,mbtiauth_5559
1803,"(154, 64, 773)",2,mbtiauth_5559
1804,"(154, 65, 10)",2,mbtiauth_5559
1805,"(154, 65, 32)",5,mbtiauth_5559
1806,"(154, 65, 77)",2,mbtiauth_5559
1807,"(154, 65, 154)",3,mbtiauth_5559
1808,"(154, 65, 165)",2,mbtiauth_5559
1809,"(154, 65, 213)",2,mbtiauth_5559
1810,"(154, 65, 2975)",2,mbtiauth_5559
1811,"(154, 65, 3625)",2,mbtiauth_5559
1812,"(154, 67, 64)",2,mbtiauth_5559
1813,"(154, 67, 65)",2,mbtiauth_5559
1814,"(154, 77, 2)",2,mbtiauth_5559
1815,"(154, 77, 10)",3,mbtiauth_5559
1816,"(154, 77, 16)",2,mbtiauth_5559
1817,"(154, 77, 22)",2,mbtiauth_5559
1818,"(154, 77, 32)",2,mbtiauth_5559
1819,"(154, 77, 41)",2,mbtiauth_5559
1820,"(154, 77, 64)",3,mbtiauth_5559
1821,"(154, 77, 65)",3,mbtiauth_5559
1822,"(154, 77, 77)",2,mbtiauth_5559
1823,"(154, 77, 123)",4,mbtiauth_5559
1824,"(154, 77, 152)",2,mbtiauth_5559
1825,"(154, 77, 154)",5,mbtiauth_5559
1826,"(154, 77, 193)",3,mbtiauth_5559
1827,"(154, 77, 326)",2,mbtiauth_5559
1828,"(154, 77, 417)",2,mbtiauth_5559
1829,"(154, 77, 510)",3,mbtiauth_5559
1830,"(154, 77, 599)",5,mbtiauth_5559
1831,"(154, 77, 657)",2,mbtiauth_5559
1832,"(154, 77, 1274)",2,mbtiauth_5559
1833,"(154, 120, 64)",2,mbtiauth_5559
1834,"(154, 120, 77)",4,mbtiauth_5559
1835,"(154, 120, 154)",3,mbtiauth_5559
1836,"(154, 120, 441)",2,mbtiauth_5559
1837,"(154, 123, 10)",3,mbtiauth_5559
1838,"(154, 123, 32)",2,mbtiauth_5559
1839,"(154, 123, 64)",2,mbtiauth_5559
1840,"(154, 123, 77)",4,mbtiauth_5559
1841,"(154, 123, 152)",3,mbtiauth_5559
1842,"(154, 123, 154)",3,mbtiauth_5559
1843,"(154, 123, 175)",2,mbtiauth_5559
1844,"(154, 123, 417)",2,mbtiauth_5559
1845,"(154, 123, 441)",3,mbtiauth_5559
1846,"(154, 140, 2)",2,mbtiauth_5559
1847,"(154, 140, 77)",2,mbtiauth_5559
1848,"(154, 152, 77)",2,mbtiauth_5559
1849,"(154, 152, 154)",3,mbtiauth_5559
1850,"(154, 154, 10)",2,mbtiauth_5559
1851,"(154, 154, 16)",2,mbtiauth_5559
1852,"(154, 154, 41)",3,mbtiauth_5559
1853,"(154, 154, 65)",2,mbtiauth_5559
1854,"(154, 154, 77)",3,mbtiauth_5559
1855,"(154, 154, 170)",2,mbtiauth_5559
1856,"(154, 154, 226)",2,mbtiauth_5559
1857,"(154, 160, 64)",2,mbtiauth_5559
1858,"(154, 160, 77)",2,mbtiauth_5559
1859,"(154, 160, 154)",2,mbtiauth_5559
1860,"(154, 165, 67)",3,mbtiauth_5559
1861,"(154, 170, 47)",2,mbtiauth_5559
1862,"(154, 170, 65)",2,mbtiauth_5559
1863,"(154, 170, 77)",3,mbtiauth_5559
1864,"(154, 170, 123)",2,mbtiauth_5559
1865,"(154, 170, 154)",2,mbtiauth_5559
1866,"(154, 170, 599)",2,mbtiauth_5559
1867,"(154, 170, 1211)",2,mbtiauth_5559
1868,"(154, 170, 3274)",2,mbtiauth_5559
1869,"(154, 183, 22)",2,mbtiauth_5559
1870,"(154, 183, 32)",3,mbtiauth_5559
1871,"(154, 183, 65)",3,mbtiauth_5559
1872,"(154, 183, 154)",2,mbtiauth_5559
1873,"(154, 193, 64)",2,mbtiauth_5559
1874,"(154, 193, 77)",3,mbtiauth_5559
1875,"(154, 193, 154)",2,mbtiauth_5559
1876,"(154, 193, 170)",2,mbtiauth_5559
1877,"(154, 212, 64)",2,mbtiauth_5559
1878,"(154, 212, 77)",2,mbtiauth_5559
1879,"(154, 212, 2137)",2,mbtiauth_5559
1880,"(154, 220, 16)",2,mbtiauth_5559
1881,"(154, 262, 2)",2,mbtiauth_5559
1882,"(154, 262, 65)",3,mbtiauth_5559
1883,"(154, 262, 154)",2,mbtiauth_5559
1884,"(154, 262, 170)",3,mbtiauth_5559
1885,"(154, 326, 32)",2,mbtiauth_5559
1886,"(154, 326, 77)",2,mbtiauth_5559
1887,"(154, 383, 32)",2,mbtiauth_5559
1888,"(154, 441, 10)",3,mbtiauth_5559
1889,"(154, 441, 32)",3,mbtiauth_5559
1890,"(154, 441, 77)",4,mbtiauth_5559
1891,"(154, 441, 154)",3,mbtiauth_5559
1892,"(154, 566, 47)",2,mbtiauth_5559
1893,"(154, 566, 170)",2,mbtiauth_5559
1894,"(154, 599, 64)",2,mbtiauth_5559
1895,"(154, 599, 65)",2,mbtiauth_5559
1896,"(154, 599, 123)",2,mbtiauth_5559
1897,"(154, 599, 154)",2,mbtiauth_5559
1898,"(154, 599, 1274)",2,mbtiauth_5559
1899,"(154, 773, 64)",2,mbtiauth_5559
1900,"(154, 773, 256)",2,mbtiauth_5559
1901,"(154, 863, 41)",2,mbtiauth_5559
1902,"(154, 863, 154)",2,mbtiauth_5559
1903,"(154, 1177, 64)",2,mbtiauth_5559
1904,"(154, 1177, 773)",2,mbtiauth_5559
1905,"(154, 1177, 3368)",2,mbtiauth_5559
1906,"(154, 1211, 3274)",2,mbtiauth_5559
1907,"(154, 2137, 77)",2,mbtiauth_5559
1908,"(154, 2975, 32)",2,mbtiauth_5559
1909,"(154, 2975, 213)",2,mbtiauth_5559
1910,"(154, 2975, 3625)",2,mbtiauth_5559
1911,"(154, 3368, 64)",2,mbtiauth_5559
1912,"(154, 3368, 773)",2,mbtiauth_5559
1913,"(154, 3625, 32)",2,mbtiauth_5559
1914,"(154, 3625, 213)",2,mbtiauth_5559
1915,"(154, 3904, 65)",2,mbtiauth_5559
1916,"(154, 3904, 154)",2,mbtiauth_5559
1917,"(160, 64, 77)",2,mbtiauth_5559
1918,"(160, 64, 154)",2,mbtiauth_5559
1919,"(160, 77, 154)",3,mbtiauth_5559
1920,"(164, 32, 65)",2,mbtiauth_5559
1921,"(164, 41, 65)",2,mbtiauth_5559
1922,"(164, 154, 65)",2,mbtiauth_5559
1923,"(165, 10, 32)",2,mbtiauth_5559
1924,"(165, 10, 77)",3,mbtiauth_5559
1925,"(165, 22, 77)",2,mbtiauth_5559
1926,"(165, 32, 77)",2,mbtiauth_5559
1927,"(165, 67, 22)",2,mbtiauth_5559
1928,"(165, 67, 67)",3,mbtiauth_5559
1929,"(165, 67, 77)",2,mbtiauth_5559
1930,"(165, 77, 10)",2,mbtiauth_5559
1931,"(165, 154, 32)",2,mbtiauth_5559
1932,"(165, 154, 77)",3,mbtiauth_5559
1933,"(165, 441, 10)",2,mbtiauth_5559
1934,"(165, 441, 77)",2,mbtiauth_5559
1935,"(165, 765, 77)",2,mbtiauth_5559
1936,"(170, 2, 220)",2,mbtiauth_5559
1937,"(170, 22, 77)",2,mbtiauth_5559
1938,"(170, 32, 2)",2,mbtiauth_5559
1939,"(170, 32, 77)",2,mbtiauth_5559
1940,"(170, 32, 154)",2,mbtiauth_5559
1941,"(170, 64, 77)",2,mbtiauth_5559
1942,"(170, 77, 77)",2,mbtiauth_5559
1943,"(170, 171, 77)",2,mbtiauth_5559
1944,"(170, 1211, 3274)",2,mbtiauth_5559
1945,"(175, 50, 77)",2,mbtiauth_5559
1946,"(183, 22, 32)",2,mbtiauth_5559
1947,"(183, 22, 65)",2,mbtiauth_5559
1948,"(183, 32, 65)",2,mbtiauth_5559
1949,"(183, 65, 32)",2,mbtiauth_5559
1950,"(190, 77, 154)",2,mbtiauth_5559
1951,"(193, 2, 65)",2,mbtiauth_5559
1952,"(193, 2, 77)",2,mbtiauth_5559
1953,"(193, 22, 32)",2,mbtiauth_5559
1954,"(193, 22, 77)",2,mbtiauth_5559
1955,"(193, 30, 30)",2,mbtiauth_5559
1956,"(193, 41, 65)",2,mbtiauth_5559
1957,"(193, 64, 65)",3,mbtiauth_5559
1958,"(193, 64, 154)",2,mbtiauth_5559
1959,"(193, 64, 170)",2,mbtiauth_5559
1960,"(193, 64, 222)",2,mbtiauth_5559
1961,"(193, 77, 123)",2,mbtiauth_5559
1962,"(193, 77, 193)",2,mbtiauth_5559
1963,"(193, 154, 22)",3,mbtiauth_5559
1964,"(193, 154, 65)",2,mbtiauth_5559
1965,"(193, 154, 77)",3,mbtiauth_5559
1966,"(193, 170, 77)",2,mbtiauth_5559
1967,"(193, 222, 65)",2,mbtiauth_5559
1968,"(193, 222, 154)",2,mbtiauth_5559
1969,"(201, 183, 154)",2,mbtiauth_5559
1970,"(206, 64, 77)",2,mbtiauth_5559
1971,"(206, 77, 2)",2,mbtiauth_5559
1972,"(206, 77, 64)",2,mbtiauth_5559
1973,"(206, 77, 165)",2,mbtiauth_5559
1974,"(206, 77, 193)",2,mbtiauth_5559
1975,"(206, 154, 64)",2,mbtiauth_5559
1976,"(206, 154, 1177)",2,mbtiauth_5559
1977,"(206, 154, 3368)",2,mbtiauth_5559
1978,"(206, 193, 65)",2,mbtiauth_5559
1979,"(206, 1177, 64)",2,mbtiauth_5559
1980,"(206, 1177, 3368)",2,mbtiauth_5559
1981,"(206, 3368, 64)",2,mbtiauth_5559
1982,"(212, 22, 32)",2,mbtiauth_5559
1983,"(212, 77, 123)",2,mbtiauth_5559
1984,"(212, 2137, 77)",2,mbtiauth_5559
1985,"(220, 16, 65)",2,mbtiauth_5559
1986,"(220, 22, 10)",2,mbtiauth_5559
1987,"(220, 64, 77)",2,mbtiauth_5559
1988,"(220, 77, 65)",2,mbtiauth_5559
1989,"(220, 154, 16)",3,mbtiauth_5559
1990,"(220, 154, 65)",2,mbtiauth_5559
1991,"(220, 154, 77)",2,mbtiauth_5559
1992,"(222, 154, 65)",3,mbtiauth_5559
1993,"(236, 16, 77)",2,mbtiauth_5559
1994,"(236, 41, 16)",2,mbtiauth_5559
1995,"(236, 41, 41)",2,mbtiauth_5559
1996,"(236, 41, 77)",4,mbtiauth_5559
1997,"(236, 41, 154)",2,mbtiauth_5559
1998,"(236, 41, 236)",2,mbtiauth_5559
1999,"(236, 41, 326)",2,mbtiauth_5559
2000,"(236, 41, 364)",2,mbtiauth_5559
2001,"(236, 41, 441)",2,mbtiauth_5559
2002,"(236, 64, 67)",2,mbtiauth_5559
2003,"(236, 64, 77)",2,mbtiauth_5559
2004,"(236, 77, 41)",3,mbtiauth_5559
2005,"(236, 77, 67)",2,mbtiauth_5559
2006,"(236, 77, 77)",2,mbtiauth_5559
2007,"(236, 77, 154)",3,mbtiauth_5559
2008,"(236, 77, 236)",2,mbtiauth_5559
2009,"(236, 154, 77)",2,mbtiauth_5559
2010,"(236, 190, 77)",2,mbtiauth_5559
2011,"(236, 326, 77)",2,mbtiauth_5559
2012,"(236, 364, 16)",2,mbtiauth_5559
2013,"(236, 364, 77)",2,mbtiauth_5559
2014,"(254, 64, 67)",2,mbtiauth_5559
2015,"(254, 64, 77)",2,mbtiauth_5559
2016,"(254, 77, 67)",2,mbtiauth_5559
2017,"(254, 236, 64)",2,mbtiauth_5559
2018,"(254, 236, 67)",2,mbtiauth_5559
2019,"(254, 236, 77)",2,mbtiauth_5559
2020,"(256, 22, 32)",2,mbtiauth_5559
2021,"(256, 65, 22)",2,mbtiauth_5559
2022,"(256, 65, 32)",2,mbtiauth_5559
2023,"(262, 2, 154)",2,mbtiauth_5559
2024,"(262, 32, 154)",2,mbtiauth_5559
2025,"(262, 65, 32)",2,mbtiauth_5559
2026,"(262, 65, 154)",2,mbtiauth_5559
2027,"(262, 77, 64)",2,mbtiauth_5559
2028,"(262, 77, 65)",2,mbtiauth_5559
2029,"(262, 77, 123)",2,mbtiauth_5559
2030,"(262, 77, 154)",2,mbtiauth_5559
2031,"(262, 123, 123)",2,mbtiauth_5559
2032,"(262, 154, 65)",2,mbtiauth_5559
2033,"(262, 170, 65)",2,mbtiauth_5559
2034,"(262, 206, 154)",2,mbtiauth_5559
2035,"(262, 262, 170)",2,mbtiauth_5559
2036,"(276, 381, 164)",2,mbtiauth_5559
2037,"(276, 381, 1607)",2,mbtiauth_5559
2038,"(276, 1607, 164)",2,mbtiauth_5559
2039,"(291, 77, 599)",2,mbtiauth_5559
2040,"(291, 441, 65)",2,mbtiauth_5559
2041,"(326, 77, 65)",3,mbtiauth_5559
2042,"(326, 77, 77)",2,mbtiauth_5559
2043,"(326, 77, 599)",2,mbtiauth_5559
2044,"(326, 599, 65)",2,mbtiauth_5559
2045,"(334, 41, 154)",2,mbtiauth_5559
2046,"(334, 65, 154)",2,mbtiauth_5559
2047,"(334, 154, 77)",2,mbtiauth_5559
2048,"(356, 10, 65)",2,mbtiauth_5559
2049,"(356, 32, 65)",2,mbtiauth_5559
2050,"(356, 154, 65)",2,mbtiauth_5559
2051,"(364, 16, 77)",2,mbtiauth_5559
2052,"(364, 16, 417)",2,mbtiauth_5559
2053,"(381, 1607, 164)",2,mbtiauth_5559
2054,"(417, 10, 65)",2,mbtiauth_5559
2055,"(417, 10, 77)",2,mbtiauth_5559
2056,"(417, 77, 10)",2,mbtiauth_5559
2057,"(417, 77, 65)",2,mbtiauth_5559
2058,"(441, 10, 22)",2,mbtiauth_5559
2059,"(441, 10, 41)",2,mbtiauth_5559
2060,"(441, 10, 77)",4,mbtiauth_5559
2061,"(441, 10, 863)",2,mbtiauth_5559
2062,"(441, 32, 10)",2,mbtiauth_5559
2063,"(441, 32, 77)",3,mbtiauth_5559
2064,"(441, 65, 32)",2,mbtiauth_5559
2065,"(441, 65, 77)",3,mbtiauth_5559
2066,"(441, 65, 123)",2,mbtiauth_5559
2067,"(441, 77, 16)",2,mbtiauth_5559
2068,"(441, 77, 32)",2,mbtiauth_5559
2069,"(441, 77, 41)",2,mbtiauth_5559
2070,"(441, 77, 64)",2,mbtiauth_5559
2071,"(441, 77, 77)",3,mbtiauth_5559
2072,"(441, 77, 123)",2,mbtiauth_5559
2073,"(441, 77, 154)",3,mbtiauth_5559
2074,"(441, 77, 326)",2,mbtiauth_5559
2075,"(441, 77, 391)",2,mbtiauth_5559
2076,"(441, 77, 441)",2,mbtiauth_5559
2077,"(441, 77, 599)",4,mbtiauth_5559
2078,"(441, 154, 32)",2,mbtiauth_5559
2079,"(441, 154, 64)",2,mbtiauth_5559
2080,"(441, 154, 77)",3,mbtiauth_5559
2081,"(441, 154, 326)",2,mbtiauth_5559
2082,"(441, 154, 599)",3,mbtiauth_5559
2083,"(441, 193, 77)",2,mbtiauth_5559
2084,"(441, 205, 77)",2,mbtiauth_5559
2085,"(441, 326, 32)",2,mbtiauth_5559
2086,"(441, 441, 77)",2,mbtiauth_5559
2087,"(441, 441, 599)",2,mbtiauth_5559
2088,"(441, 599, 64)",2,mbtiauth_5559
2089,"(441, 863, 41)",2,mbtiauth_5559
2090,"(441, 863, 77)",2,mbtiauth_5559
2091,"(510, 154, 170)",2,mbtiauth_5559
2092,"(526, 2, 64)",2,mbtiauth_5559
2093,"(526, 2, 151)",2,mbtiauth_5559
2094,"(526, 77, 67)",2,mbtiauth_5559
2095,"(526, 151, 64)",2,mbtiauth_5559
2096,"(529, 16, 77)",2,mbtiauth_5559
2097,"(529, 16, 154)",2,mbtiauth_5559
2098,"(529, 77, 16)",2,mbtiauth_5559
2099,"(529, 77, 77)",2,mbtiauth_5559
2100,"(529, 77, 154)",2,mbtiauth_5559
2101,"(529, 77, 599)",2,mbtiauth_5559
2102,"(529, 154, 154)",2,mbtiauth_5559
2103,"(531, 570, 77)",2,mbtiauth_5559
2104,"(531, 570, 524)",2,mbtiauth_5559
2105,"(566, 77, 67)",2,mbtiauth_5559
2106,"(566, 170, 47)",2,mbtiauth_5559
2107,"(589, 154, 32)",2,mbtiauth_5559
2108,"(599, 65, 32)",2,mbtiauth_5559
2109,"(599, 77, 123)",2,mbtiauth_5559
2110,"(599, 77, 193)",2,mbtiauth_5559
2111,"(599, 154, 10)",2,mbtiauth_5559
2112,"(599, 154, 77)",2,mbtiauth_5559
2113,"(599, 154, 170)",2,mbtiauth_5559
2114,"(599, 154, 193)",2,mbtiauth_5559
2115,"(599, 170, 64)",2,mbtiauth_5559
2116,"(599, 170, 77)",2,mbtiauth_5559
2117,"(599, 1274, 154)",2,mbtiauth_5559
2118,"(630, 77, 123)",2,mbtiauth_5559
2119,"(693, 10, 22)",2,mbtiauth_5559
2120,"(693, 77, 22)",2,mbtiauth_5559
2121,"(700, 10, 77)",2,mbtiauth_5559
2122,"(716, 441, 77)",2,mbtiauth_5559
2123,"(773, 64, 256)",2,mbtiauth_5559
2124,"(863, 41, 22)",2,mbtiauth_5559
2125,"(863, 41, 77)",2,mbtiauth_5559
2126,"(863, 41, 441)",2,mbtiauth_5559
2127,"(863, 77, 41)",2,mbtiauth_5559
2128,"(863, 154, 41)",2,mbtiauth_5559
2129,"(863, 441, 22)",2,mbtiauth_5559
2130,"(1166, 120, 77)",2,mbtiauth_5559
2131,"(1166, 154, 77)",2,mbtiauth_5559
2132,"(1166, 154, 120)",2,mbtiauth_5559
2133,"(1177, 64, 64)",2,mbtiauth_5559
2134,"(1177, 64, 773)",2,mbtiauth_5559
2135,"(1177, 77, 16)",2,mbtiauth_5559
2136,"(1177, 773, 64)",2,mbtiauth_5559
2137,"(1177, 3368, 64)",2,mbtiauth_5559
2138,"(1177, 3368, 773)",2,mbtiauth_5559
2139,"(1241, 78, 22)",2,mbtiauth_5559
2140,"(1241, 78, 77)",2,mbtiauth_5559
2141,"(1241, 78, 123)",2,mbtiauth_5559
2142,"(1855, 32, 65)",2,mbtiauth_5559
2143,"(2784, 64, 77)",2,mbtiauth_5559
2144,"(2975, 32, 77)",2,mbtiauth_5559
2145,"(2975, 32, 213)",2,mbtiauth_5559
2146,"(2975, 3625, 32)",2,mbtiauth_5559
2147,"(2975, 3625, 77)",2,mbtiauth_5559
2148,"(2975, 3625, 213)",2,mbtiauth_5559
2149,"(3368, 64, 64)",2,mbtiauth_5559
2150,"(3368, 64, 773)",2,mbtiauth_5559
2151,"(3368, 773, 64)",2,mbtiauth_5559
2152,"(3625, 32, 77)",2,mbtiauth_5559
2153,"(3625, 32, 213)",2,mbtiauth_5559
2154,"(3904, 65, 32)",2,mbtiauth_5559
2155,"(3904, 65, 2975)",2,mbtiauth_5559
2156,"(3904, 65, 3625)",2,mbtiauth_5559
2157,"(3904, 154, 32)",2,mbtiauth_5559
2158,"(3904, 154, 65)",2,mbtiauth_5559
2159,"(3904, 154, 2975)",2,mbtiauth_5559
2160,"(3904, 154, 3625)",2,mbtiauth_5559
2161,"(3904, 2975, 32)",2,mbtiauth_5559
2162,"(3904, 2975, 3625)",2,mbtiauth_5559
2163,"(3904, 3625, 32)",2,mbtiauth_5559
2164,"(5692, 77, 2)",2,mbtiauth_5559
2165,"(5692, 77, 123)",2,mbtiauth_5559
2166,"(5692, 77, 205)",2,mbtiauth_5559
2167,"(5692, 123, 2)",2,mbtiauth_5559
2168,"(5692, 123, 205)",2,mbtiauth_5559
2169,"(5692, 205, 2)",2,mbtiauth_5559
2170,"(6235, 77, 123)",2,mbtiauth_5559
2171,"(7265, 64, 9857)",2,mbtiauth_5559
2172,"(7265, 11171, 64)",2,mbtiauth_5559
2173,"(7265, 11171, 9857)",2,mbtiauth_5559
2174,"(11171, 64, 9857)",2,mbtiauth_5559
2175,"(37972, 77, 16)",2,mbtiauth_5559
2176,"(2, 77, 2, 65)",2,mbtiauth_5559
2177,"(2, 77, 123, 2)",2,mbtiauth_5559
2178,"(2, 77, 123, 65)",2,mbtiauth_5559
2179,"(2, 77, 123, 193)",2,mbtiauth_5559
2180,"(2, 77, 193, 65)",2,mbtiauth_5559
2181,"(2, 123, 2, 65)",2,mbtiauth_5559
2182,"(2, 123, 123, 65)",2,mbtiauth_5559
2183,"(2, 123, 193, 2)",2,mbtiauth_5559
2184,"(2, 123, 193, 65)",2,mbtiauth_5559
2185,"(2, 193, 2, 65)",2,mbtiauth_5559
2186,"(2, 6235, 77, 123)",2,mbtiauth_5559
2187,"(10, 22, 32, 65)",2,mbtiauth_5559
2188,"(10, 22, 132, 32)",2,mbtiauth_5559
2189,"(10, 32, 10, 65)",2,mbtiauth_5559
2190,"(10, 32, 10, 77)",2,mbtiauth_5559
2191,"(10, 32, 65, 77)",3,mbtiauth_5559
2192,"(10, 32, 77, 77)",2,mbtiauth_5559
2193,"(10, 32, 4313, 77)",2,mbtiauth_5559
2194,"(10, 41, 441, 22)",2,mbtiauth_5559
2195,"(10, 65, 10, 65)",2,mbtiauth_5559
2196,"(10, 65, 32, 10)",2,mbtiauth_5559
2197,"(10, 65, 154, 65)",2,mbtiauth_5559
2198,"(10, 65, 154, 441)",2,mbtiauth_5559
2199,"(10, 65, 4313, 10)",2,mbtiauth_5559
2200,"(10, 65, 4313, 77)",2,mbtiauth_5559
2201,"(10, 77, 10, 65)",2,mbtiauth_5559
2202,"(10, 77, 441, 22)",2,mbtiauth_5559
2203,"(10, 154, 32, 77)",2,mbtiauth_5559
2204,"(10, 154, 65, 77)",2,mbtiauth_5559
2205,"(10, 417, 10, 65)",2,mbtiauth_5559
2206,"(10, 417, 77, 10)",2,mbtiauth_5559
2207,"(10, 417, 77, 65)",2,mbtiauth_5559
2208,"(10, 863, 41, 22)",2,mbtiauth_5559
2209,"(10, 863, 41, 77)",2,mbtiauth_5559
2210,"(10, 863, 41, 441)",2,mbtiauth_5559
2211,"(10, 863, 77, 41)",2,mbtiauth_5559
2212,"(10, 863, 154, 41)",2,mbtiauth_5559
2213,"(10, 863, 441, 22)",2,mbtiauth_5559
2214,"(16, 120, 77, 154)",3,mbtiauth_5559
2215,"(16, 120, 441, 77)",2,mbtiauth_5559
2216,"(16, 120, 441, 154)",2,mbtiauth_5559
2217,"(16, 154, 77, 154)",3,mbtiauth_5559
2218,"(16, 154, 120, 77)",3,mbtiauth_5559
2219,"(16, 154, 120, 154)",3,mbtiauth_5559
2220,"(16, 154, 120, 441)",2,mbtiauth_5559
2221,"(16, 154, 441, 77)",2,mbtiauth_5559
2222,"(16, 154, 441, 154)",2,mbtiauth_5559
2223,"(16, 441, 77, 154)",2,mbtiauth_5559
2224,"(22, 2, 123, 441)",2,mbtiauth_5559
2225,"(22, 10, 22, 32)",2,mbtiauth_5559
2226,"(22, 32, 67, 77)",2,mbtiauth_5559
2227,"(22, 32, 165, 67)",2,mbtiauth_5559
2228,"(22, 32, 165, 77)",2,mbtiauth_5559
2229,"(22, 64, 77, 67)",2,mbtiauth_5559
2230,"(22, 77, 22, 32)",2,mbtiauth_5559
2231,"(22, 77, 64, 77)",2,mbtiauth_5559
2232,"(22, 77, 236, 64)",2,mbtiauth_5559
2233,"(22, 77, 236, 77)",2,mbtiauth_5559
2234,"(22, 77, 254, 64)",2,mbtiauth_5559
2235,"(22, 77, 254, 77)",2,mbtiauth_5559
2236,"(22, 77, 254, 236)",2,mbtiauth_5559
2237,"(22, 146, 16, 22)",2,mbtiauth_5559
2238,"(22, 146, 154, 16)",2,mbtiauth_5559
2239,"(22, 146, 154, 22)",2,mbtiauth_5559
2240,"(22, 154, 16, 22)",2,mbtiauth_5559
2241,"(22, 165, 67, 22)",2,mbtiauth_5559
2242,"(22, 165, 67, 77)",2,mbtiauth_5559
2243,"(22, 236, 64, 77)",2,mbtiauth_5559
2244,"(22, 254, 64, 77)",2,mbtiauth_5559
2245,"(22, 254, 236, 64)",2,mbtiauth_5559
2246,"(22, 254, 236, 77)",2,mbtiauth_5559
2247,"(30, 30, 162, 41)",2,mbtiauth_5559
2248,"(32, 10, 154, 41)",2,mbtiauth_5559
2249,"(32, 10, 863, 41)",2,mbtiauth_5559
2250,"(32, 10, 863, 154)",2,mbtiauth_5559
2251,"(32, 22, 77, 16)",2,mbtiauth_5559
2252,"(32, 165, 67, 77)",2,mbtiauth_5559
2253,"(32, 863, 154, 41)",2,mbtiauth_5559
2254,"(41, 65, 599, 123)",2,mbtiauth_5559
2255,"(41, 77, 41, 154)",2,mbtiauth_5559
2256,"(41, 77, 41, 441)",2,mbtiauth_5559
2257,"(41, 77, 236, 41)",2,mbtiauth_5559
2258,"(41, 154, 77, 65)",2,mbtiauth_5559
2259,"(41, 154, 77, 123)",2,mbtiauth_5559
2260,"(41, 154, 77, 599)",2,mbtiauth_5559
2261,"(41, 154, 170, 77)",2,mbtiauth_5559
2262,"(41, 154, 170, 599)",2,mbtiauth_5559
2263,"(41, 220, 154, 16)",2,mbtiauth_5559
2264,"(41, 364, 16, 77)",2,mbtiauth_5559
2265,"(41, 441, 10, 22)",2,mbtiauth_5559
2266,"(41, 441, 10, 77)",2,mbtiauth_5559
2267,"(64, 67, 64, 65)",2,mbtiauth_5559
2268,"(64, 77, 16, 64)",2,mbtiauth_5559
2269,"(64, 77, 154, 64)",3,mbtiauth_5559
2270,"(64, 222, 154, 65)",2,mbtiauth_5559
2271,"(64, 773, 64, 256)",2,mbtiauth_5559
2272,"(65, 22, 32, 65)",2,mbtiauth_5559
2273,"(65, 32, 154, 10)",2,mbtiauth_5559
2274,"(65, 77, 599, 123)",2,mbtiauth_5559
2275,"(65, 2975, 32, 77)",2,mbtiauth_5559
2276,"(65, 2975, 32, 213)",2,mbtiauth_5559
2277,"(65, 2975, 3625, 32)",2,mbtiauth_5559
2278,"(65, 2975, 3625, 77)",2,mbtiauth_5559
2279,"(65, 2975, 3625, 213)",2,mbtiauth_5559
2280,"(65, 3625, 32, 77)",2,mbtiauth_5559
2281,"(65, 3625, 32, 213)",2,mbtiauth_5559
2282,"(67, 64, 65, 64)",2,mbtiauth_5559
2283,"(77, 2, 123, 65)",2,mbtiauth_5559
2284,"(77, 2, 193, 65)",2,mbtiauth_5559
2285,"(77, 10, 22, 32)",2,mbtiauth_5559
2286,"(77, 10, 32, 65)",2,mbtiauth_5559
2287,"(77, 10, 417, 77)",2,mbtiauth_5559
2288,"(77, 16, 77, 154)",2,mbtiauth_5559
2289,"(77, 16, 154, 120)",2,mbtiauth_5559
2290,"(77, 22, 32, 22)",2,mbtiauth_5559
2291,"(77, 22, 132, 32)",2,mbtiauth_5559
2292,"(77, 22, 146, 16)",2,mbtiauth_5559
2293,"(77, 22, 146, 154)",2,mbtiauth_5559
2294,"(77, 22, 154, 10)",2,mbtiauth_5559
2295,"(77, 22, 154, 16)",2,mbtiauth_5559
2296,"(77, 22, 165, 67)",2,mbtiauth_5559
2297,"(77, 32, 10, 65)",2,mbtiauth_5559
2298,"(77, 32, 22, 77)",2,mbtiauth_5559
2299,"(77, 41, 154, 326)",2,mbtiauth_5559
2300,"(77, 41, 220, 154)",2,mbtiauth_5559
2301,"(77, 64, 77, 67)",2,mbtiauth_5559
2302,"(77, 64, 77, 193)",2,mbtiauth_5559
2303,"(77, 64, 154, 164)",2,mbtiauth_5559
2304,"(77, 77, 154, 67)",2,mbtiauth_5559
2305,"(77, 77, 165, 67)",2,mbtiauth_5559
2306,"(77, 77, 599, 65)",2,mbtiauth_5559
2307,"(77, 77, 2366, 67)",2,mbtiauth_5559
2308,"(77, 123, 2, 65)",2,mbtiauth_5559
2309,"(77, 123, 123, 65)",2,mbtiauth_5559
2310,"(77, 123, 154, 1177)",2,mbtiauth_5559
2311,"(77, 123, 154, 3368)",2,mbtiauth_5559
2312,"(77, 123, 193, 65)",3,mbtiauth_5559
2313,"(77, 123, 205, 2)",2,mbtiauth_5559
2314,"(77, 123, 206, 154)",2,mbtiauth_5559
2315,"(77, 123, 206, 1177)",2,mbtiauth_5559
2316,"(77, 123, 206, 3368)",2,mbtiauth_5559
2317,"(77, 123, 1177, 3368)",2,mbtiauth_5559
2318,"(77, 146, 154, 16)",2,mbtiauth_5559
2319,"(77, 154, 10, 65)",2,mbtiauth_5559
2320,"(77, 154, 67, 64)",2,mbtiauth_5559
2321,"(77, 154, 77, 193)",2,mbtiauth_5559
2322,"(77, 154, 77, 599)",2,mbtiauth_5559
2323,"(77, 154, 165, 67)",2,mbtiauth_5559
2324,"(77, 154, 262, 170)",2,mbtiauth_5559
2325,"(77, 154, 773, 64)",2,mbtiauth_5559
2326,"(77, 154, 1177, 64)",2,mbtiauth_5559
2327,"(77, 154, 1177, 3368)",2,mbtiauth_5559
2328,"(77, 154, 3368, 64)",2,mbtiauth_5559
2329,"(77, 165, 67, 67)",2,mbtiauth_5559
2330,"(77, 193, 64, 65)",2,mbtiauth_5559
2331,"(77, 206, 154, 1177)",2,mbtiauth_5559
2332,"(77, 206, 154, 3368)",2,mbtiauth_5559
2333,"(77, 206, 1177, 3368)",2,mbtiauth_5559
2334,"(77, 236, 41, 154)",2,mbtiauth_5559
2335,"(77, 236, 41, 326)",2,mbtiauth_5559
2336,"(77, 236, 41, 441)",2,mbtiauth_5559
2337,"(77, 236, 64, 67)",2,mbtiauth_5559
2338,"(77, 236, 64, 77)",2,mbtiauth_5559
2339,"(77, 236, 77, 67)",2,mbtiauth_5559
2340,"(77, 236, 77, 154)",3,mbtiauth_5559
2341,"(77, 236, 190, 77)",2,mbtiauth_5559
2342,"(77, 236, 364, 16)",2,mbtiauth_5559
2343,"(77, 254, 64, 67)",2,mbtiauth_5559
2344,"(77, 254, 64, 77)",2,mbtiauth_5559
2345,"(77, 254, 77, 67)",2,mbtiauth_5559
2346,"(77, 254, 236, 64)",2,mbtiauth_5559
2347,"(77, 254, 236, 67)",2,mbtiauth_5559
2348,"(77, 254, 236, 77)",2,mbtiauth_5559
2349,"(77, 441, 77, 599)",2,mbtiauth_5559
2350,"(77, 599, 65, 32)",2,mbtiauth_5559
2351,"(77, 599, 170, 77)",2,mbtiauth_5559
2352,"(77, 599, 1274, 154)",2,mbtiauth_5559
2353,"(77, 1177, 3368, 64)",2,mbtiauth_5559
2354,"(78, 1241, 78, 22)",2,mbtiauth_5559
2355,"(78, 1241, 78, 77)",2,mbtiauth_5559
2356,"(78, 1241, 78, 123)",2,mbtiauth_5559
2357,"(120, 77, 154, 64)",2,mbtiauth_5559
2358,"(120, 441, 77, 154)",2,mbtiauth_5559
2359,"(123, 2, 6235, 77)",2,mbtiauth_5559
2360,"(123, 10, 22, 32)",2,mbtiauth_5559
2361,"(123, 10, 32, 65)",2,mbtiauth_5559
2362,"(123, 10, 863, 41)",2,mbtiauth_5559
2363,"(123, 10, 863, 77)",2,mbtiauth_5559
2364,"(123, 22, 154, 10)",2,mbtiauth_5559
2365,"(123, 32, 2, 65)",2,mbtiauth_5559
2366,"(123, 77, 2, 123)",2,mbtiauth_5559
2367,"(123, 77, 10, 32)",2,mbtiauth_5559
2368,"(123, 77, 123, 65)",3,mbtiauth_5559
2369,"(123, 77, 123, 123)",2,mbtiauth_5559
2370,"(123, 77, 152, 154)",2,mbtiauth_5559
2371,"(123, 123, 700, 10)",2,mbtiauth_5559
2372,"(123, 151, 77, 2)",2,mbtiauth_5559
2373,"(123, 154, 10, 32)",2,mbtiauth_5559
2374,"(123, 154, 10, 77)",2,mbtiauth_5559
2375,"(123, 154, 32, 65)",2,mbtiauth_5559
2376,"(123, 154, 123, 10)",2,mbtiauth_5559
2377,"(123, 154, 123, 77)",2,mbtiauth_5559
2378,"(123, 154, 160, 64)",2,mbtiauth_5559
2379,"(123, 154, 1177, 3368)",2,mbtiauth_5559
2380,"(123, 160, 64, 77)",2,mbtiauth_5559
2381,"(123, 165, 10, 77)",2,mbtiauth_5559
2382,"(123, 165, 441, 10)",2,mbtiauth_5559
2383,"(123, 165, 441, 77)",2,mbtiauth_5559
2384,"(123, 165, 765, 77)",2,mbtiauth_5559
2385,"(123, 193, 2, 65)",2,mbtiauth_5559
2386,"(123, 206, 77, 2)",2,mbtiauth_5559
2387,"(123, 206, 154, 1177)",2,mbtiauth_5559
2388,"(123, 206, 154, 3368)",2,mbtiauth_5559
2389,"(123, 206, 1177, 3368)",2,mbtiauth_5559
2390,"(123, 262, 77, 123)",2,mbtiauth_5559
2391,"(123, 441, 10, 41)",2,mbtiauth_5559
2392,"(123, 441, 10, 77)",3,mbtiauth_5559
2393,"(123, 441, 10, 863)",2,mbtiauth_5559
2394,"(123, 441, 32, 77)",2,mbtiauth_5559
2395,"(123, 441, 863, 41)",2,mbtiauth_5559
2396,"(123, 441, 863, 77)",2,mbtiauth_5559
2397,"(126, 32, 77, 10)",2,mbtiauth_5559
2398,"(126, 212, 22, 32)",2,mbtiauth_5559
2399,"(146, 154, 16, 22)",2,mbtiauth_5559
2400,"(146, 37972, 77, 16)",2,mbtiauth_5559
2401,"(154, 10, 77, 657)",2,mbtiauth_5559
2402,"(154, 10, 154, 41)",2,mbtiauth_5559
2403,"(154, 10, 863, 41)",2,mbtiauth_5559
2404,"(154, 10, 863, 154)",2,mbtiauth_5559
2405,"(154, 22, 32, 65)",2,mbtiauth_5559
2406,"(154, 30, 30, 41)",2,mbtiauth_5559
2407,"(154, 32, 10, 77)",2,mbtiauth_5559
2408,"(154, 32, 65, 32)",2,mbtiauth_5559
2409,"(154, 64, 77, 154)",2,mbtiauth_5559
2410,"(154, 65, 32, 154)",2,mbtiauth_5559
2411,"(154, 65, 32, 213)",2,mbtiauth_5559
2412,"(154, 65, 2975, 32)",2,mbtiauth_5559
2413,"(154, 65, 2975, 213)",2,mbtiauth_5559
2414,"(154, 65, 2975, 3625)",2,mbtiauth_5559
2415,"(154, 65, 3625, 32)",2,mbtiauth_5559
2416,"(154, 65, 3625, 213)",2,mbtiauth_5559
2417,"(154, 67, 64, 65)",2,mbtiauth_5559
2418,"(154, 77, 152, 154)",2,mbtiauth_5559
2419,"(154, 77, 154, 41)",2,mbtiauth_5559
2420,"(154, 77, 193, 64)",2,mbtiauth_5559
2421,"(154, 77, 326, 32)",2,mbtiauth_5559
2422,"(154, 77, 599, 64)",2,mbtiauth_5559
2423,"(154, 77, 599, 154)",2,mbtiauth_5559
2424,"(154, 77, 599, 1274)",2,mbtiauth_5559
2425,"(154, 120, 77, 154)",3,mbtiauth_5559
2426,"(154, 120, 441, 77)",2,mbtiauth_5559
2427,"(154, 120, 441, 154)",2,mbtiauth_5559
2428,"(154, 123, 10, 77)",3,mbtiauth_5559
2429,"(154, 123, 32, 77)",2,mbtiauth_5559
2430,"(154, 123, 77, 152)",2,mbtiauth_5559
2431,"(154, 123, 77, 154)",2,mbtiauth_5559
2432,"(154, 123, 152, 154)",2,mbtiauth_5559
2433,"(154, 123, 441, 10)",2,mbtiauth_5559
2434,"(154, 123, 441, 32)",2,mbtiauth_5559
2435,"(154, 123, 441, 77)",2,mbtiauth_5559
2436,"(154, 123, 441, 154)",2,mbtiauth_5559
2437,"(154, 154, 41, 226)",2,mbtiauth_5559
2438,"(154, 154, 77, 77)",2,mbtiauth_5559
2439,"(154, 160, 64, 77)",2,mbtiauth_5559
2440,"(154, 160, 64, 154)",2,mbtiauth_5559
2441,"(154, 160, 77, 154)",2,mbtiauth_5559
2442,"(154, 170, 1211, 3274)",2,mbtiauth_5559
2443,"(154, 183, 22, 32)",2,mbtiauth_5559
2444,"(154, 183, 22, 65)",2,mbtiauth_5559
2445,"(154, 183, 32, 65)",2,mbtiauth_5559
2446,"(154, 183, 65, 32)",2,mbtiauth_5559
2447,"(154, 193, 154, 77)",2,mbtiauth_5559
2448,"(154, 193, 170, 77)",2,mbtiauth_5559
2449,"(154, 212, 2137, 77)",2,mbtiauth_5559
2450,"(154, 262, 170, 65)",2,mbtiauth_5559
2451,"(154, 441, 10, 77)",3,mbtiauth_5559
2452,"(154, 441, 32, 10)",2,mbtiauth_5559
2453,"(154, 441, 32, 77)",3,mbtiauth_5559
2454,"(154, 441, 77, 154)",2,mbtiauth_5559
2455,"(154, 566, 170, 47)",2,mbtiauth_5559
2456,"(154, 773, 64, 256)",2,mbtiauth_5559
2457,"(154, 863, 154, 41)",2,mbtiauth_5559
2458,"(154, 1177, 64, 773)",2,mbtiauth_5559
2459,"(154, 1177, 3368, 64)",2,mbtiauth_5559
2460,"(154, 1177, 3368, 773)",2,mbtiauth_5559
2461,"(154, 2975, 32, 213)",2,mbtiauth_5559
2462,"(154, 2975, 3625, 32)",2,mbtiauth_5559
2463,"(154, 2975, 3625, 213)",2,mbtiauth_5559
2464,"(154, 3368, 64, 773)",2,mbtiauth_5559
2465,"(154, 3625, 32, 213)",2,mbtiauth_5559
2466,"(154, 3904, 154, 65)",2,mbtiauth_5559
2467,"(160, 64, 77, 154)",2,mbtiauth_5559
2468,"(183, 22, 32, 65)",2,mbtiauth_5559
2469,"(193, 64, 154, 65)",2,mbtiauth_5559
2470,"(193, 64, 222, 65)",2,mbtiauth_5559
2471,"(193, 64, 222, 154)",2,mbtiauth_5559
2472,"(193, 222, 154, 65)",2,mbtiauth_5559
2473,"(206, 154, 1177, 64)",2,mbtiauth_5559
2474,"(206, 154, 1177, 3368)",2,mbtiauth_5559
2475,"(206, 154, 3368, 64)",2,mbtiauth_5559
2476,"(206, 1177, 3368, 64)",2,mbtiauth_5559
2477,"(220, 154, 16, 65)",2,mbtiauth_5559
2478,"(236, 41, 16, 77)",2,mbtiauth_5559
2479,"(236, 41, 77, 41)",2,mbtiauth_5559
2480,"(236, 41, 77, 77)",2,mbtiauth_5559
2481,"(236, 41, 77, 236)",2,mbtiauth_5559
2482,"(236, 41, 154, 77)",2,mbtiauth_5559
2483,"(236, 41, 326, 77)",2,mbtiauth_5559
2484,"(236, 41, 364, 16)",2,mbtiauth_5559
2485,"(236, 41, 364, 77)",2,mbtiauth_5559
2486,"(236, 64, 77, 67)",2,mbtiauth_5559
2487,"(236, 364, 16, 77)",2,mbtiauth_5559
2488,"(254, 64, 77, 67)",2,mbtiauth_5559
2489,"(254, 236, 64, 67)",2,mbtiauth_5559
2490,"(254, 236, 64, 77)",2,mbtiauth_5559
2491,"(254, 236, 77, 67)",2,mbtiauth_5559
2492,"(256, 65, 22, 32)",2,mbtiauth_5559
2493,"(262, 65, 32, 154)",2,mbtiauth_5559
2494,"(262, 77, 123, 123)",2,mbtiauth_5559
2495,"(276, 381, 1607, 164)",2,mbtiauth_5559
2496,"(326, 77, 599, 65)",2,mbtiauth_5559
2497,"(417, 77, 10, 65)",2,mbtiauth_5559
2498,"(441, 10, 77, 41)",2,mbtiauth_5559
2499,"(441, 10, 863, 41)",2,mbtiauth_5559
2500,"(441, 10, 863, 77)",2,mbtiauth_5559
2501,"(441, 32, 10, 77)",2,mbtiauth_5559
2502,"(441, 65, 77, 123)",2,mbtiauth_5559
2503,"(441, 77, 77, 599)",2,mbtiauth_5559
2504,"(441, 77, 154, 77)",2,mbtiauth_5559
2505,"(441, 77, 326, 32)",2,mbtiauth_5559
2506,"(441, 77, 599, 64)",2,mbtiauth_5559
2507,"(441, 154, 77, 32)",2,mbtiauth_5559
2508,"(441, 154, 77, 326)",2,mbtiauth_5559
2509,"(441, 154, 77, 599)",3,mbtiauth_5559
2510,"(441, 154, 326, 32)",2,mbtiauth_5559
2511,"(441, 441, 77, 599)",2,mbtiauth_5559
2512,"(441, 863, 77, 41)",2,mbtiauth_5559
2513,"(526, 2, 151, 64)",2,mbtiauth_5559
2514,"(529, 16, 77, 154)",2,mbtiauth_5559
2515,"(529, 77, 16, 77)",2,mbtiauth_5559
2516,"(529, 77, 16, 154)",2,mbtiauth_5559
2517,"(529, 77, 77, 154)",2,mbtiauth_5559
2518,"(599, 154, 77, 193)",2,mbtiauth_5559
2519,"(863, 41, 441, 22)",2,mbtiauth_5559
2520,"(1166, 154, 120, 77)",2,mbtiauth_5559
2521,"(1177, 64, 773, 64)",2,mbtiauth_5559
2522,"(1177, 3368, 64, 64)",2,mbtiauth_5559
2523,"(1177, 3368, 64, 773)",2,mbtiauth_5559
2524,"(1177, 3368, 773, 64)",2,mbtiauth_5559
2525,"(2975, 3625, 32, 77)",2,mbtiauth_5559
2526,"(2975, 3625, 32, 213)",2,mbtiauth_5559
2527,"(3368, 64, 773, 64)",2,mbtiauth_5559
2528,"(3904, 65, 2975, 32)",2,mbtiauth_5559
2529,"(3904, 65, 2975, 3625)",2,mbtiauth_5559
2530,"(3904, 65, 3625, 32)",2,mbtiauth_5559
2531,"(3904, 154, 65, 32)",2,mbtiauth_5559
2532,"(3904, 154, 65, 2975)",2,mbtiauth_5559
2533,"(3904, 154, 65, 3625)",2,mbtiauth_5559
2534,"(3904, 154, 2975, 32)",2,mbtiauth_5559
2535,"(3904, 154, 2975, 3625)",2,mbtiauth_5559
2536,"(3904, 154, 3625, 32)",2,mbtiauth_5559
2537,"(3904, 2975, 3625, 32)",2,mbtiauth_5559
2538,"(5692, 77, 123, 2)",2,mbtiauth_5559
2539,"(5692, 77, 123, 205)",2,mbtiauth_5559
2540,"(5692, 77, 205, 2)",2,mbtiauth_5559
2541,"(5692, 123, 205, 2)",2,mbtiauth_5559
2542,"(7265, 11171, 64, 9857)",2,mbtiauth_5559
2543,"(2, 77, 123, 2, 65)",2,mbtiauth_5559
2544,"(2, 77, 123, 193, 65)",2,mbtiauth_5559
2545,"(2, 123, 193, 2, 65)",2,mbtiauth_5559
2546,"(10, 417, 77, 10, 65)",2,mbtiauth_5559
2547,"(10, 863, 41, 441, 22)",2,mbtiauth_5559
2548,"(16, 120, 441, 77, 154)",2,mbtiauth_5559
2549,"(16, 154, 120, 77, 154)",3,mbtiauth_5559
2550,"(16, 154, 120, 441, 77)",2,mbtiauth_5559
2551,"(16, 154, 120, 441, 154)",2,mbtiauth_5559
2552,"(16, 154, 441, 77, 154)",2,mbtiauth_5559
2553,"(22, 32, 165, 67, 77)",2,mbtiauth_5559
2554,"(22, 77, 236, 64, 77)",2,mbtiauth_5559
2555,"(22, 77, 254, 64, 77)",2,mbtiauth_5559
2556,"(22, 77, 254, 236, 64)",2,mbtiauth_5559
2557,"(22, 77, 254, 236, 77)",2,mbtiauth_5559
2558,"(22, 146, 154, 16, 22)",2,mbtiauth_5559
2559,"(22, 254, 236, 64, 77)",2,mbtiauth_5559
2560,"(32, 10, 863, 154, 41)",2,mbtiauth_5559
2561,"(65, 2975, 3625, 32, 77)",2,mbtiauth_5559
2562,"(65, 2975, 3625, 32, 213)",2,mbtiauth_5559
2563,"(77, 22, 146, 154, 16)",2,mbtiauth_5559
2564,"(77, 123, 154, 1177, 3368)",2,mbtiauth_5559
2565,"(77, 123, 206, 154, 1177)",2,mbtiauth_5559
2566,"(77, 123, 206, 154, 3368)",2,mbtiauth_5559
2567,"(77, 123, 206, 1177, 3368)",2,mbtiauth_5559
2568,"(77, 154, 1177, 3368, 64)",2,mbtiauth_5559
2569,"(77, 206, 154, 1177, 3368)",2,mbtiauth_5559
2570,"(77, 236, 64, 77, 67)",2,mbtiauth_5559
2571,"(77, 254, 64, 77, 67)",2,mbtiauth_5559
2572,"(77, 254, 236, 64, 67)",2,mbtiauth_5559
2573,"(77, 254, 236, 64, 77)",2,mbtiauth_5559
2574,"(77, 254, 236, 77, 67)",2,mbtiauth_5559
2575,"(123, 206, 154, 1177, 3368)",2,mbtiauth_5559
2576,"(123, 441, 10, 863, 41)",2,mbtiauth_5559
2577,"(123, 441, 10, 863, 77)",2,mbtiauth_5559
2578,"(154, 10, 863, 154, 41)",2,mbtiauth_5559
2579,"(154, 65, 2975, 32, 213)",2,mbtiauth_5559
2580,"(154, 65, 2975, 3625, 32)",2,mbtiauth_5559
2581,"(154, 65, 2975, 3625, 213)",2,mbtiauth_5559
2582,"(154, 65, 3625, 32, 213)",2,mbtiauth_5559
2583,"(154, 120, 441, 77, 154)",2,mbtiauth_5559
2584,"(154, 123, 77, 152, 154)",2,mbtiauth_5559
2585,"(154, 123, 441, 10, 77)",2,mbtiauth_5559
2586,"(154, 123, 441, 32, 77)",2,mbtiauth_5559
2587,"(154, 160, 64, 77, 154)",2,mbtiauth_5559
2588,"(154, 183, 22, 32, 65)",2,mbtiauth_5559
2589,"(154, 441, 32, 10, 77)",2,mbtiauth_5559
2590,"(154, 1177, 3368, 64, 773)",2,mbtiauth_5559
2591,"(154, 2975, 3625, 32, 213)",2,mbtiauth_5559
2592,"(193, 64, 222, 154, 65)",2,mbtiauth_5559
2593,"(206, 154, 1177, 3368, 64)",2,mbtiauth_5559
2594,"(236, 41, 364, 16, 77)",2,mbtiauth_5559
2595,"(254, 236, 64, 77, 67)",2,mbtiauth_5559
2596,"(441, 10, 863, 77, 41)",2,mbtiauth_5559
2597,"(441, 154, 77, 326, 32)",2,mbtiauth_5559
2598,"(529, 77, 16, 77, 154)",2,mbtiauth_5559
2599,"(1177, 3368, 64, 773, 64)",2,mbtiauth_5559
2600,"(3904, 65, 2975, 3625, 32)",2,mbtiauth_5559
2601,"(3904, 154, 65, 2975, 32)",2,mbtiauth_5559
2602,"(3904, 154, 65, 2975, 3625)",2,mbtiauth_5559
2603,"(3904, 154, 65, 3625, 32)",2,mbtiauth_5559
2604,"(3904, 154, 2975, 3625, 32)",2,mbtiauth_5559
2605,"(5692, 77, 123, 205, 2)",2,mbtiauth_5559
2606,"(16, 154, 120, 441, 77, 154)",2,mbtiauth_5559
2607,"(22, 77, 254, 236, 64, 77)",2,mbtiauth_5559
2608,"(77, 123, 206, 154, 1177, 3368)",2,mbtiauth_5559
2609,"(77, 254, 236, 64, 77, 67)",2,mbtiauth_5559
2610,"(154, 65, 2975, 3625, 32, 213)",2,mbtiauth_5559
2611,"(3904, 154, 65, 2975, 3625, 32)",2,mbtiauth_5559
