,pattern,sup,author
332,"(2, 2, 50)",2,mbtiauth_3649
333,"(2, 50, 50)",2,mbtiauth_3649
334,"(2, 520, 123)",2,mbtiauth_3649
335,"(8, 26, 22)",2,mbtiauth_3649
336,"(8, 26, 64)",2,mbtiauth_3649
337,"(8, 26, 65)",2,mbtiauth_3649
338,"(8, 26, 123)",2,mbtiauth_3649
339,"(8, 26, 599)",2,mbtiauth_3649
340,"(8, 26, 108266)",2,mbtiauth_3649
341,"(8, 28, 22)",2,mbtiauth_3649
342,"(8, 28, 26)",4,mbtiauth_3649
343,"(8, 28, 64)",2,mbtiauth_3649
344,"(8, 28, 65)",2,mbtiauth_3649
345,"(8, 28, 123)",2,mbtiauth_3649
346,"(8, 28, 599)",2,mbtiauth_3649
347,"(8, 28, 108266)",2,mbtiauth_3649
348,"(8, 123, 65)",2,mbtiauth_3649
349,"(8, 123, 599)",2,mbtiauth_3649
350,"(8, 108266, 123)",2,mbtiauth_3649
351,"(8, 108266, 599)",2,mbtiauth_3649
352,"(26, 123, 599)",2,mbtiauth_3649
353,"(26, 108266, 123)",2,mbtiauth_3649
354,"(26, 108266, 599)",2,mbtiauth_3649
355,"(28, 26, 22)",2,mbtiauth_3649
356,"(28, 26, 64)",2,mbtiauth_3649
357,"(28, 26, 65)",2,mbtiauth_3649
358,"(28, 26, 123)",2,mbtiauth_3649
359,"(28, 26, 599)",2,mbtiauth_3649
360,"(28, 26, 108266)",2,mbtiauth_3649
361,"(28, 123, 599)",2,mbtiauth_3649
362,"(28, 108266, 123)",2,mbtiauth_3649
363,"(28, 108266, 599)",2,mbtiauth_3649
364,"(29, 77, 41)",2,mbtiauth_3649
365,"(29, 77, 196)",2,mbtiauth_3649
366,"(29, 13405, 2)",2,mbtiauth_3649
367,"(29, 13405, 41)",2,mbtiauth_3649
368,"(29, 13405, 77)",2,mbtiauth_3649
369,"(41, 10, 77)",2,mbtiauth_3649
370,"(41, 65, 29)",2,mbtiauth_3649
371,"(64, 22, 16352)",2,mbtiauth_3649
372,"(64, 222, 22)",2,mbtiauth_3649
373,"(65, 32, 599)",2,mbtiauth_3649
374,"(65, 64, 222)",2,mbtiauth_3649
375,"(65, 65, 65)",2,mbtiauth_3649
376,"(65, 123, 65)",2,mbtiauth_3649
377,"(65, 154, 64)",2,mbtiauth_3649
378,"(65, 154, 222)",2,mbtiauth_3649
379,"(65, 1219, 32)",2,mbtiauth_3649
380,"(65, 1219, 599)",2,mbtiauth_3649
381,"(77, 2, 123)",2,mbtiauth_3649
382,"(77, 41, 2)",2,mbtiauth_3649
383,"(77, 64, 222)",2,mbtiauth_3649
384,"(77, 123, 123)",2,mbtiauth_3649
385,"(77, 154, 64)",2,mbtiauth_3649
386,"(77, 154, 222)",2,mbtiauth_3649
387,"(77, 212, 64)",2,mbtiauth_3649
388,"(77, 212, 158)",2,mbtiauth_3649
389,"(120, 77, 539)",2,mbtiauth_3649
390,"(120, 154, 539)",2,mbtiauth_3649
391,"(123, 2, 65)",2,mbtiauth_3649
392,"(123, 10, 65)",2,mbtiauth_3649
393,"(123, 10, 77)",2,mbtiauth_3649
394,"(123, 22, 65)",2,mbtiauth_3649
395,"(123, 32, 599)",2,mbtiauth_3649
396,"(123, 65, 32)",4,mbtiauth_3649
397,"(123, 65, 77)",2,mbtiauth_3649
398,"(123, 65, 519)",2,mbtiauth_3649
399,"(123, 65, 599)",2,mbtiauth_3649
400,"(123, 65, 1219)",2,mbtiauth_3649
401,"(123, 77, 123)",2,mbtiauth_3649
402,"(123, 77, 212)",2,mbtiauth_3649
403,"(123, 120, 64)",2,mbtiauth_3649
404,"(123, 120, 123)",2,mbtiauth_3649
405,"(123, 123, 64)",2,mbtiauth_3649
406,"(123, 123, 120)",3,mbtiauth_3649
407,"(123, 123, 123)",2,mbtiauth_3649
408,"(123, 123, 1867)",2,mbtiauth_3649
409,"(123, 134, 120)",2,mbtiauth_3649
410,"(123, 134, 123)",2,mbtiauth_3649
411,"(123, 193, 2)",2,mbtiauth_3649
412,"(123, 193, 77)",2,mbtiauth_3649
413,"(123, 206, 77)",2,mbtiauth_3649
414,"(123, 206, 123)",2,mbtiauth_3649
415,"(123, 206, 5615)",2,mbtiauth_3649
416,"(123, 212, 2)",3,mbtiauth_3649
417,"(123, 212, 193)",2,mbtiauth_3649
418,"(123, 356, 154)",2,mbtiauth_3649
419,"(123, 391, 599)",2,mbtiauth_3649
420,"(123, 520, 123)",2,mbtiauth_3649
421,"(123, 599, 120)",2,mbtiauth_3649
422,"(123, 599, 123)",2,mbtiauth_3649
423,"(123, 638, 65)",2,mbtiauth_3649
424,"(123, 638, 819)",2,mbtiauth_3649
425,"(123, 819, 65)",2,mbtiauth_3649
426,"(123, 1219, 32)",2,mbtiauth_3649
427,"(123, 1219, 599)",2,mbtiauth_3649
428,"(134, 123, 120)",2,mbtiauth_3649
429,"(134, 599, 123)",2,mbtiauth_3649
430,"(154, 64, 22)",2,mbtiauth_3649
431,"(154, 64, 222)",3,mbtiauth_3649
432,"(154, 222, 22)",2,mbtiauth_3649
433,"(164, 77, 2)",2,mbtiauth_3649
434,"(192, 192, 192)",3,mbtiauth_3649
435,"(212, 65, 77)",3,mbtiauth_3649
436,"(212, 123, 41)",2,mbtiauth_3649
437,"(212, 193, 2)",2,mbtiauth_3649
438,"(280, 2, 164)",2,mbtiauth_3649
439,"(326, 77, 2)",2,mbtiauth_3649
440,"(326, 164, 526)",2,mbtiauth_3649
441,"(364, 123, 326)",2,mbtiauth_3649
442,"(364, 326, 77)",2,mbtiauth_3649
443,"(364, 520, 41)",2,mbtiauth_3649
444,"(364, 2779, 2780)",2,mbtiauth_3649
445,"(430, 164, 77)",2,mbtiauth_3649
446,"(430, 613, 77)",2,mbtiauth_3649
447,"(430, 613, 164)",2,mbtiauth_3649
448,"(430, 613, 108259)",2,mbtiauth_3649
449,"(430, 108259, 77)",2,mbtiauth_3649
450,"(430, 108259, 164)",2,mbtiauth_3649
451,"(520, 236, 41)",2,mbtiauth_3649
452,"(520, 652, 123)",2,mbtiauth_3649
453,"(526, 77, 326)",2,mbtiauth_3649
454,"(599, 120, 64)",2,mbtiauth_3649
455,"(599, 120, 123)",2,mbtiauth_3649
456,"(599, 123, 64)",2,mbtiauth_3649
457,"(599, 123, 77)",2,mbtiauth_3649
458,"(599, 123, 120)",2,mbtiauth_3649
459,"(599, 123, 123)",2,mbtiauth_3649
460,"(599, 123, 212)",2,mbtiauth_3649
461,"(613, 164, 77)",2,mbtiauth_3649
462,"(613, 108259, 77)",2,mbtiauth_3649
463,"(613, 108259, 164)",2,mbtiauth_3649
464,"(638, 819, 65)",2,mbtiauth_3649
465,"(1219, 32, 599)",2,mbtiauth_3649
466,"(13405, 77, 41)",2,mbtiauth_3649
467,"(108259, 164, 77)",2,mbtiauth_3649
468,"(108266, 123, 599)",2,mbtiauth_3649
469,"(8, 26, 123, 599)",2,mbtiauth_3649
470,"(8, 26, 108266, 123)",2,mbtiauth_3649
471,"(8, 26, 108266, 599)",2,mbtiauth_3649
472,"(8, 28, 26, 22)",2,mbtiauth_3649
473,"(8, 28, 26, 64)",2,mbtiauth_3649
474,"(8, 28, 26, 65)",2,mbtiauth_3649
475,"(8, 28, 26, 123)",2,mbtiauth_3649
476,"(8, 28, 26, 599)",2,mbtiauth_3649
477,"(8, 28, 26, 108266)",2,mbtiauth_3649
478,"(8, 28, 123, 599)",2,mbtiauth_3649
479,"(8, 28, 108266, 123)",2,mbtiauth_3649
480,"(8, 28, 108266, 599)",2,mbtiauth_3649
481,"(8, 108266, 123, 599)",2,mbtiauth_3649
482,"(26, 108266, 123, 599)",2,mbtiauth_3649
483,"(28, 26, 123, 599)",2,mbtiauth_3649
484,"(28, 26, 108266, 123)",2,mbtiauth_3649
485,"(28, 26, 108266, 599)",2,mbtiauth_3649
486,"(28, 108266, 123, 599)",2,mbtiauth_3649
487,"(29, 13405, 77, 41)",2,mbtiauth_3649
488,"(65, 154, 64, 222)",2,mbtiauth_3649
489,"(65, 1219, 32, 599)",2,mbtiauth_3649
490,"(77, 154, 64, 222)",2,mbtiauth_3649
491,"(123, 65, 32, 599)",2,mbtiauth_3649
492,"(123, 65, 1219, 32)",2,mbtiauth_3649
493,"(123, 65, 1219, 599)",2,mbtiauth_3649
494,"(123, 123, 120, 64)",2,mbtiauth_3649
495,"(123, 134, 123, 120)",2,mbtiauth_3649
496,"(123, 212, 193, 2)",2,mbtiauth_3649
497,"(123, 599, 123, 120)",2,mbtiauth_3649
498,"(123, 638, 819, 65)",2,mbtiauth_3649
499,"(123, 1219, 32, 599)",2,mbtiauth_3649
500,"(154, 64, 222, 22)",2,mbtiauth_3649
501,"(192, 192, 192, 192)",3,mbtiauth_3649
502,"(430, 613, 164, 77)",2,mbtiauth_3649
503,"(430, 613, 108259, 77)",2,mbtiauth_3649
504,"(430, 613, 108259, 164)",2,mbtiauth_3649
505,"(430, 108259, 164, 77)",2,mbtiauth_3649
506,"(599, 123, 120, 64)",2,mbtiauth_3649
507,"(599, 123, 120, 123)",2,mbtiauth_3649
508,"(613, 108259, 164, 77)",2,mbtiauth_3649
509,"(8, 26, 108266, 123, 599)",2,mbtiauth_3649
510,"(8, 28, 26, 123, 599)",2,mbtiauth_3649
511,"(8, 28, 26, 108266, 123)",2,mbtiauth_3649
512,"(8, 28, 26, 108266, 599)",2,mbtiauth_3649
513,"(8, 28, 108266, 123, 599)",2,mbtiauth_3649
514,"(28, 26, 108266, 123, 599)",2,mbtiauth_3649
515,"(123, 65, 1219, 32, 599)",2,mbtiauth_3649
516,"(192, 192, 192, 192, 192)",3,mbtiauth_3649
517,"(430, 613, 108259, 164, 77)",2,mbtiauth_3649
518,"(8, 28, 26, 108266, 123, 599)",2,mbtiauth_3649
519,"(192, 192, 192, 192, 192, 192)",3,mbtiauth_3649
520,"(192, 192, 192, 192, 192, 192, 192)",3,mbtiauth_3649
521,"(192, 192, 192, 192, 192, 192, 192, 192)",3,mbtiauth_3649
522,"(192, 192, 192, 192, 192, 192, 192, 192, 192)",3,mbtiauth_3649
523,"(192, 192, 192, 192, 192, 192, 192, 192, 192, 192)",3,mbtiauth_3649
524,"(192, 192, 192, 192, 192, 192, 192, 192, 192, 192, 192)",3,mbtiauth_3649
525,"(192, 192, 192, 192, 192, 192, 192, 192, 192, 192, 192, 192)",3,mbtiauth_3649
526,"(192, 192, 192, 192, 192, 192, 192, 192, 192, 192, 192, 192, 192)",3,mbtiauth_3649
527,"(192, 192, 192, 192, 192, 192, 192, 192, 192, 192, 192, 192, 192, 192)",3,mbtiauth_3649
528,"(192, 192, 192, 192, 192, 192, 192, 192, 192, 192, 192, 192, 192, 192, 192)",3,mbtiauth_3649
