,pattern,sup,author
205,"(2, 65, 32)",3,mbtiauth_366
206,"(16, 64, 77)",2,mbtiauth_366
207,"(16, 64, 599)",2,mbtiauth_366
208,"(16, 77, 599)",2,mbtiauth_366
209,"(22, 22, 567)",2,mbtiauth_366
210,"(22, 154, 22)",2,mbtiauth_366
211,"(30, 77, 77)",2,mbtiauth_366
212,"(41, 10, 22)",2,mbtiauth_366
213,"(41, 322, 22)",2,mbtiauth_366
214,"(64, 41, 322)",2,mbtiauth_366
215,"(64, 77, 41)",2,mbtiauth_366
216,"(64, 77, 322)",2,mbtiauth_366
217,"(64, 77, 599)",2,mbtiauth_366
218,"(64, 599, 41)",2,mbtiauth_366
219,"(64, 599, 322)",2,mbtiauth_366
220,"(65, 32, 65)",2,mbtiauth_366
221,"(65, 77, 77)",2,mbtiauth_366
222,"(67, 65, 77)",2,mbtiauth_366
223,"(77, 41, 322)",2,mbtiauth_366
224,"(77, 64, 10)",2,mbtiauth_366
225,"(77, 65, 77)",2,mbtiauth_366
226,"(77, 77, 65)",2,mbtiauth_366
227,"(77, 77, 77)",4,mbtiauth_366
228,"(77, 77, 149)",2,mbtiauth_366
229,"(77, 77, 308)",2,mbtiauth_366
230,"(77, 77, 872)",2,mbtiauth_366
231,"(77, 149, 77)",2,mbtiauth_366
232,"(77, 149, 308)",2,mbtiauth_366
233,"(77, 308, 77)",2,mbtiauth_366
234,"(77, 599, 41)",2,mbtiauth_366
235,"(77, 599, 322)",2,mbtiauth_366
236,"(77, 872, 77)",2,mbtiauth_366
237,"(77, 872, 149)",2,mbtiauth_366
238,"(77, 872, 308)",2,mbtiauth_366
239,"(123, 2, 567)",2,mbtiauth_366
240,"(123, 22, 567)",2,mbtiauth_366
241,"(123, 22, 683)",2,mbtiauth_366
242,"(123, 65, 32)",2,mbtiauth_366
243,"(123, 65, 65)",2,mbtiauth_366
244,"(149, 77, 77)",2,mbtiauth_366
245,"(149, 77, 308)",2,mbtiauth_366
246,"(149, 308, 77)",2,mbtiauth_366
247,"(154, 154, 77)",2,mbtiauth_366
248,"(158, 77, 77)",2,mbtiauth_366
249,"(158, 77, 149)",2,mbtiauth_366
250,"(158, 77, 308)",2,mbtiauth_366
251,"(158, 77, 872)",2,mbtiauth_366
252,"(158, 149, 77)",2,mbtiauth_366
253,"(158, 149, 308)",2,mbtiauth_366
254,"(158, 308, 77)",2,mbtiauth_366
255,"(158, 872, 77)",2,mbtiauth_366
256,"(158, 872, 149)",2,mbtiauth_366
257,"(158, 872, 308)",2,mbtiauth_366
258,"(280, 262, 170)",2,mbtiauth_366
259,"(308, 77, 65)",2,mbtiauth_366
260,"(308, 77, 77)",2,mbtiauth_366
261,"(599, 41, 22)",2,mbtiauth_366
262,"(599, 41, 322)",2,mbtiauth_366
263,"(599, 322, 22)",2,mbtiauth_366
264,"(872, 77, 77)",2,mbtiauth_366
265,"(872, 77, 149)",2,mbtiauth_366
266,"(872, 77, 308)",2,mbtiauth_366
267,"(872, 149, 77)",2,mbtiauth_366
268,"(872, 149, 308)",2,mbtiauth_366
269,"(872, 308, 77)",2,mbtiauth_366
270,"(16, 64, 77, 599)",2,mbtiauth_366
271,"(64, 77, 41, 322)",2,mbtiauth_366
272,"(64, 77, 599, 41)",2,mbtiauth_366
273,"(64, 77, 599, 322)",2,mbtiauth_366
274,"(64, 599, 41, 322)",2,mbtiauth_366
275,"(77, 77, 65, 77)",2,mbtiauth_366
276,"(77, 77, 77, 65)",2,mbtiauth_366
277,"(77, 77, 77, 77)",4,mbtiauth_366
278,"(77, 77, 77, 149)",2,mbtiauth_366
279,"(77, 77, 77, 308)",2,mbtiauth_366
280,"(77, 77, 149, 77)",2,mbtiauth_366
281,"(77, 77, 149, 308)",2,mbtiauth_366
282,"(77, 77, 308, 77)",2,mbtiauth_366
283,"(77, 77, 872, 77)",2,mbtiauth_366
284,"(77, 77, 872, 149)",2,mbtiauth_366
285,"(77, 77, 872, 308)",2,mbtiauth_366
286,"(77, 149, 77, 77)",2,mbtiauth_366
287,"(77, 149, 77, 308)",2,mbtiauth_366
288,"(77, 149, 308, 77)",2,mbtiauth_366
289,"(77, 308, 77, 77)",2,mbtiauth_366
290,"(77, 599, 41, 322)",2,mbtiauth_366
291,"(77, 872, 77, 77)",2,mbtiauth_366
292,"(77, 872, 77, 149)",2,mbtiauth_366
293,"(77, 872, 77, 308)",2,mbtiauth_366
294,"(77, 872, 149, 77)",2,mbtiauth_366
295,"(77, 872, 149, 308)",2,mbtiauth_366
296,"(77, 872, 308, 77)",2,mbtiauth_366
297,"(149, 77, 77, 77)",2,mbtiauth_366
298,"(149, 77, 308, 77)",2,mbtiauth_366
299,"(149, 308, 77, 77)",2,mbtiauth_366
300,"(158, 77, 77, 77)",2,mbtiauth_366
301,"(158, 77, 77, 149)",2,mbtiauth_366
302,"(158, 77, 77, 308)",2,mbtiauth_366
303,"(158, 77, 77, 872)",2,mbtiauth_366
304,"(158, 77, 149, 77)",2,mbtiauth_366
305,"(158, 77, 149, 308)",2,mbtiauth_366
306,"(158, 77, 308, 77)",2,mbtiauth_366
307,"(158, 77, 872, 77)",2,mbtiauth_366
308,"(158, 77, 872, 149)",2,mbtiauth_366
309,"(158, 77, 872, 308)",2,mbtiauth_366
310,"(158, 149, 77, 77)",2,mbtiauth_366
311,"(158, 149, 77, 308)",2,mbtiauth_366
312,"(158, 149, 308, 77)",2,mbtiauth_366
313,"(158, 872, 77, 77)",2,mbtiauth_366
314,"(158, 872, 77, 149)",2,mbtiauth_366
315,"(158, 872, 77, 308)",2,mbtiauth_366
316,"(158, 872, 149, 77)",2,mbtiauth_366
317,"(158, 872, 149, 308)",2,mbtiauth_366
318,"(158, 872, 308, 77)",2,mbtiauth_366
319,"(308, 77, 77, 65)",2,mbtiauth_366
320,"(308, 77, 77, 77)",2,mbtiauth_366
321,"(599, 41, 322, 22)",2,mbtiauth_366
322,"(872, 77, 77, 77)",2,mbtiauth_366
323,"(872, 77, 77, 149)",2,mbtiauth_366
324,"(872, 77, 77, 308)",2,mbtiauth_366
325,"(872, 77, 149, 77)",2,mbtiauth_366
326,"(872, 77, 149, 308)",2,mbtiauth_366
327,"(872, 77, 308, 77)",2,mbtiauth_366
328,"(872, 149, 77, 77)",2,mbtiauth_366
329,"(872, 149, 77, 308)",2,mbtiauth_366
330,"(872, 149, 308, 77)",2,mbtiauth_366
331,"(872, 308, 77, 77)",2,mbtiauth_366
332,"(64, 77, 599, 41, 322)",2,mbtiauth_366
333,"(77, 77, 77, 77, 77)",4,mbtiauth_366
334,"(77, 77, 77, 77, 149)",2,mbtiauth_366
335,"(77, 77, 77, 77, 308)",2,mbtiauth_366
336,"(77, 77, 77, 149, 77)",2,mbtiauth_366
337,"(77, 77, 77, 149, 308)",2,mbtiauth_366
338,"(77, 77, 77, 308, 77)",2,mbtiauth_366
339,"(77, 77, 149, 77, 77)",2,mbtiauth_366
340,"(77, 77, 149, 77, 308)",2,mbtiauth_366
341,"(77, 77, 149, 308, 77)",2,mbtiauth_366
342,"(77, 77, 308, 77, 77)",2,mbtiauth_366
343,"(77, 77, 872, 77, 77)",2,mbtiauth_366
344,"(77, 77, 872, 77, 149)",2,mbtiauth_366
345,"(77, 77, 872, 77, 308)",2,mbtiauth_366
346,"(77, 77, 872, 149, 77)",2,mbtiauth_366
347,"(77, 77, 872, 149, 308)",2,mbtiauth_366
348,"(77, 77, 872, 308, 77)",2,mbtiauth_366
349,"(77, 149, 77, 77, 77)",2,mbtiauth_366
350,"(77, 149, 77, 308, 77)",2,mbtiauth_366
351,"(77, 149, 308, 77, 77)",2,mbtiauth_366
352,"(77, 308, 77, 77, 77)",2,mbtiauth_366
353,"(77, 872, 77, 77, 77)",2,mbtiauth_366
354,"(77, 872, 77, 77, 149)",2,mbtiauth_366
355,"(77, 872, 77, 77, 308)",2,mbtiauth_366
356,"(77, 872, 77, 149, 77)",2,mbtiauth_366
357,"(77, 872, 77, 149, 308)",2,mbtiauth_366
358,"(77, 872, 77, 308, 77)",2,mbtiauth_366
359,"(77, 872, 149, 77, 77)",2,mbtiauth_366
360,"(77, 872, 149, 77, 308)",2,mbtiauth_366
361,"(77, 872, 149, 308, 77)",2,mbtiauth_366
362,"(77, 872, 308, 77, 77)",2,mbtiauth_366
363,"(149, 77, 77, 77, 77)",2,mbtiauth_366
364,"(149, 77, 308, 77, 77)",2,mbtiauth_366
365,"(149, 308, 77, 77, 77)",2,mbtiauth_366
366,"(158, 77, 77, 77, 77)",2,mbtiauth_366
367,"(158, 77, 77, 77, 149)",2,mbtiauth_366
368,"(158, 77, 77, 77, 308)",2,mbtiauth_366
369,"(158, 77, 77, 149, 77)",2,mbtiauth_366
370,"(158, 77, 77, 149, 308)",2,mbtiauth_366
371,"(158, 77, 77, 308, 77)",2,mbtiauth_366
372,"(158, 77, 77, 872, 77)",2,mbtiauth_366
373,"(158, 77, 77, 872, 149)",2,mbtiauth_366
374,"(158, 77, 77, 872, 308)",2,mbtiauth_366
375,"(158, 77, 149, 77, 77)",2,mbtiauth_366
376,"(158, 77, 149, 77, 308)",2,mbtiauth_366
377,"(158, 77, 149, 308, 77)",2,mbtiauth_366
378,"(158, 77, 872, 77, 77)",2,mbtiauth_366
379,"(158, 77, 872, 77, 149)",2,mbtiauth_366
380,"(158, 77, 872, 77, 308)",2,mbtiauth_366
381,"(158, 77, 872, 149, 77)",2,mbtiauth_366
382,"(158, 77, 872, 149, 308)",2,mbtiauth_366
383,"(158, 77, 872, 308, 77)",2,mbtiauth_366
384,"(158, 149, 77, 308, 77)",2,mbtiauth_366
385,"(158, 872, 77, 77, 77)",2,mbtiauth_366
386,"(158, 872, 77, 77, 149)",2,mbtiauth_366
387,"(158, 872, 77, 77, 308)",2,mbtiauth_366
388,"(158, 872, 77, 149, 77)",2,mbtiauth_366
389,"(158, 872, 77, 149, 308)",2,mbtiauth_366
390,"(158, 872, 77, 308, 77)",2,mbtiauth_366
391,"(158, 872, 149, 77, 77)",2,mbtiauth_366
392,"(158, 872, 149, 77, 308)",2,mbtiauth_366
393,"(158, 872, 149, 308, 77)",2,mbtiauth_366
394,"(308, 77, 77, 77, 65)",2,mbtiauth_366
395,"(872, 77, 77, 77, 77)",2,mbtiauth_366
396,"(872, 77, 77, 77, 308)",2,mbtiauth_366
397,"(872, 77, 77, 149, 77)",2,mbtiauth_366
398,"(872, 77, 77, 149, 308)",2,mbtiauth_366
399,"(872, 77, 77, 308, 77)",2,mbtiauth_366
400,"(872, 77, 149, 77, 77)",2,mbtiauth_366
401,"(872, 77, 149, 77, 308)",2,mbtiauth_366
402,"(872, 77, 149, 308, 77)",2,mbtiauth_366
403,"(872, 77, 308, 77, 77)",2,mbtiauth_366
404,"(872, 149, 77, 77, 77)",2,mbtiauth_366
405,"(872, 149, 77, 308, 77)",2,mbtiauth_366
406,"(872, 149, 308, 77, 77)",2,mbtiauth_366
407,"(872, 308, 77, 77, 77)",2,mbtiauth_366
408,"(77, 77, 77, 77, 77, 77)",4,mbtiauth_366
409,"(77, 77, 77, 77, 77, 308)",2,mbtiauth_366
410,"(77, 77, 77, 77, 149, 77)",2,mbtiauth_366
411,"(77, 77, 77, 77, 149, 308)",2,mbtiauth_366
412,"(77, 77, 77, 77, 308, 77)",2,mbtiauth_366
413,"(77, 77, 77, 149, 77, 77)",2,mbtiauth_366
414,"(77, 77, 77, 149, 77, 308)",2,mbtiauth_366
415,"(77, 77, 77, 149, 308, 77)",2,mbtiauth_366
416,"(77, 77, 77, 308, 77, 77)",2,mbtiauth_366
417,"(77, 77, 149, 77, 77, 77)",2,mbtiauth_366
418,"(77, 77, 149, 77, 308, 77)",2,mbtiauth_366
419,"(77, 77, 149, 308, 77, 77)",2,mbtiauth_366
420,"(77, 77, 308, 77, 77, 77)",2,mbtiauth_366
421,"(77, 77, 872, 77, 77, 77)",2,mbtiauth_366
422,"(77, 77, 872, 77, 77, 149)",2,mbtiauth_366
423,"(77, 77, 872, 77, 77, 308)",2,mbtiauth_366
424,"(77, 77, 872, 77, 149, 77)",2,mbtiauth_366
425,"(77, 77, 872, 77, 149, 308)",2,mbtiauth_366
426,"(77, 77, 872, 77, 308, 77)",2,mbtiauth_366
427,"(77, 77, 872, 149, 77, 77)",2,mbtiauth_366
428,"(77, 77, 872, 149, 77, 308)",2,mbtiauth_366
429,"(77, 77, 872, 149, 308, 77)",2,mbtiauth_366
430,"(77, 77, 872, 308, 77, 77)",2,mbtiauth_366
431,"(77, 149, 77, 77, 77, 77)",2,mbtiauth_366
432,"(77, 149, 77, 308, 77, 77)",2,mbtiauth_366
433,"(77, 149, 308, 77, 77, 77)",2,mbtiauth_366
434,"(77, 872, 77, 77, 77, 77)",2,mbtiauth_366
435,"(77, 872, 77, 77, 77, 308)",2,mbtiauth_366
436,"(77, 872, 77, 77, 149, 77)",2,mbtiauth_366
437,"(77, 872, 77, 77, 149, 308)",2,mbtiauth_366
438,"(77, 872, 77, 77, 308, 77)",2,mbtiauth_366
439,"(77, 872, 77, 149, 77, 77)",2,mbtiauth_366
440,"(77, 872, 77, 149, 77, 308)",2,mbtiauth_366
441,"(77, 872, 77, 149, 308, 77)",2,mbtiauth_366
442,"(77, 872, 77, 308, 77, 77)",2,mbtiauth_366
443,"(77, 872, 149, 77, 77, 77)",2,mbtiauth_366
444,"(77, 872, 149, 77, 308, 77)",2,mbtiauth_366
445,"(77, 872, 149, 308, 77, 77)",2,mbtiauth_366
446,"(77, 872, 308, 77, 77, 77)",2,mbtiauth_366
447,"(149, 77, 308, 77, 77, 77)",2,mbtiauth_366
448,"(158, 77, 77, 77, 77, 77)",2,mbtiauth_366
449,"(158, 77, 77, 77, 77, 149)",2,mbtiauth_366
450,"(158, 77, 77, 77, 77, 308)",2,mbtiauth_366
451,"(158, 77, 77, 77, 149, 77)",2,mbtiauth_366
452,"(158, 77, 77, 77, 149, 308)",2,mbtiauth_366
453,"(158, 77, 77, 77, 308, 77)",2,mbtiauth_366
454,"(158, 77, 77, 149, 77, 77)",2,mbtiauth_366
455,"(158, 77, 77, 149, 77, 308)",2,mbtiauth_366
456,"(158, 77, 77, 149, 308, 77)",2,mbtiauth_366
457,"(158, 77, 77, 872, 77, 77)",2,mbtiauth_366
458,"(158, 77, 77, 872, 77, 149)",2,mbtiauth_366
459,"(158, 77, 77, 872, 77, 308)",2,mbtiauth_366
460,"(158, 77, 77, 872, 149, 77)",2,mbtiauth_366
461,"(158, 77, 77, 872, 149, 308)",2,mbtiauth_366
462,"(158, 77, 77, 872, 308, 77)",2,mbtiauth_366
463,"(158, 77, 149, 77, 308, 77)",2,mbtiauth_366
464,"(158, 77, 872, 77, 77, 77)",2,mbtiauth_366
465,"(158, 77, 872, 77, 77, 149)",2,mbtiauth_366
466,"(158, 77, 872, 77, 77, 308)",2,mbtiauth_366
467,"(158, 77, 872, 77, 149, 77)",2,mbtiauth_366
468,"(158, 77, 872, 77, 149, 308)",2,mbtiauth_366
469,"(158, 77, 872, 77, 308, 77)",2,mbtiauth_366
470,"(158, 77, 872, 149, 77, 77)",2,mbtiauth_366
471,"(158, 77, 872, 149, 77, 308)",2,mbtiauth_366
472,"(158, 77, 872, 149, 308, 77)",2,mbtiauth_366
473,"(158, 872, 77, 77, 77, 77)",2,mbtiauth_366
474,"(158, 872, 77, 77, 77, 308)",2,mbtiauth_366
475,"(158, 872, 77, 77, 149, 77)",2,mbtiauth_366
476,"(158, 872, 77, 77, 149, 308)",2,mbtiauth_366
477,"(158, 872, 77, 77, 308, 77)",2,mbtiauth_366
478,"(158, 872, 77, 149, 77, 77)",2,mbtiauth_366
479,"(158, 872, 77, 149, 77, 308)",2,mbtiauth_366
480,"(158, 872, 77, 149, 308, 77)",2,mbtiauth_366
481,"(158, 872, 149, 77, 308, 77)",2,mbtiauth_366
482,"(872, 77, 77, 77, 77, 77)",2,mbtiauth_366
483,"(872, 77, 77, 77, 308, 77)",2,mbtiauth_366
484,"(872, 77, 77, 149, 77, 77)",2,mbtiauth_366
485,"(872, 77, 77, 149, 77, 308)",2,mbtiauth_366
486,"(872, 77, 77, 149, 308, 77)",2,mbtiauth_366
487,"(872, 77, 77, 308, 77, 77)",2,mbtiauth_366
488,"(872, 77, 149, 77, 77, 77)",2,mbtiauth_366
489,"(872, 77, 149, 77, 308, 77)",2,mbtiauth_366
490,"(872, 77, 149, 308, 77, 77)",2,mbtiauth_366
491,"(872, 77, 308, 77, 77, 77)",2,mbtiauth_366
492,"(872, 149, 77, 77, 77, 77)",2,mbtiauth_366
493,"(872, 149, 77, 308, 77, 77)",2,mbtiauth_366
494,"(872, 149, 308, 77, 77, 77)",2,mbtiauth_366
495,"(77, 77, 77, 77, 77, 77, 77)",3,mbtiauth_366
496,"(77, 77, 77, 77, 77, 308, 77)",2,mbtiauth_366
497,"(77, 77, 77, 77, 149, 77, 77)",2,mbtiauth_366
498,"(77, 77, 77, 77, 149, 77, 308)",2,mbtiauth_366
499,"(77, 77, 77, 77, 149, 308, 77)",2,mbtiauth_366
500,"(77, 77, 77, 77, 308, 77, 77)",2,mbtiauth_366
501,"(77, 77, 77, 149, 77, 77, 77)",2,mbtiauth_366
502,"(77, 77, 77, 149, 77, 308, 77)",2,mbtiauth_366
503,"(77, 77, 77, 149, 308, 77, 77)",2,mbtiauth_366
504,"(77, 77, 77, 308, 77, 77, 77)",2,mbtiauth_366
505,"(77, 77, 149, 77, 77, 77, 77)",2,mbtiauth_366
506,"(77, 77, 149, 77, 308, 77, 77)",2,mbtiauth_366
507,"(77, 77, 149, 308, 77, 77, 77)",2,mbtiauth_366
508,"(77, 77, 872, 77, 77, 77, 77)",2,mbtiauth_366
509,"(77, 77, 872, 77, 77, 77, 308)",2,mbtiauth_366
510,"(77, 77, 872, 77, 77, 149, 77)",2,mbtiauth_366
511,"(77, 77, 872, 77, 77, 149, 308)",2,mbtiauth_366
512,"(77, 77, 872, 77, 77, 308, 77)",2,mbtiauth_366
513,"(77, 77, 872, 77, 149, 77, 77)",2,mbtiauth_366
514,"(77, 77, 872, 77, 149, 77, 308)",2,mbtiauth_366
515,"(77, 77, 872, 77, 149, 308, 77)",2,mbtiauth_366
516,"(77, 77, 872, 77, 308, 77, 77)",2,mbtiauth_366
517,"(77, 77, 872, 149, 77, 77, 77)",2,mbtiauth_366
518,"(77, 77, 872, 149, 77, 308, 77)",2,mbtiauth_366
519,"(77, 77, 872, 149, 308, 77, 77)",2,mbtiauth_366
520,"(77, 149, 77, 308, 77, 77, 77)",2,mbtiauth_366
521,"(77, 872, 77, 77, 77, 77, 77)",2,mbtiauth_366
522,"(77, 872, 77, 77, 77, 308, 77)",2,mbtiauth_366
523,"(77, 872, 77, 77, 149, 77, 77)",2,mbtiauth_366
524,"(77, 872, 77, 77, 149, 77, 308)",2,mbtiauth_366
525,"(77, 872, 77, 77, 149, 308, 77)",2,mbtiauth_366
526,"(77, 872, 77, 77, 308, 77, 77)",2,mbtiauth_366
527,"(77, 872, 77, 149, 77, 77, 77)",2,mbtiauth_366
528,"(77, 872, 77, 149, 77, 308, 77)",2,mbtiauth_366
529,"(77, 872, 77, 149, 308, 77, 77)",2,mbtiauth_366
530,"(77, 872, 77, 308, 77, 77, 77)",2,mbtiauth_366
531,"(77, 872, 149, 77, 77, 77, 77)",2,mbtiauth_366
532,"(77, 872, 149, 77, 308, 77, 77)",2,mbtiauth_366
533,"(77, 872, 149, 308, 77, 77, 77)",2,mbtiauth_366
534,"(158, 77, 77, 77, 77, 77, 77)",2,mbtiauth_366
535,"(158, 77, 77, 77, 77, 77, 308)",2,mbtiauth_366
536,"(158, 77, 77, 77, 77, 149, 77)",2,mbtiauth_366
537,"(158, 77, 77, 77, 77, 149, 308)",2,mbtiauth_366
538,"(158, 77, 77, 77, 77, 308, 77)",2,mbtiauth_366
539,"(158, 77, 77, 77, 149, 77, 77)",2,mbtiauth_366
540,"(158, 77, 77, 77, 149, 77, 308)",2,mbtiauth_366
541,"(158, 77, 77, 77, 149, 308, 77)",2,mbtiauth_366
542,"(158, 77, 77, 149, 77, 308, 77)",2,mbtiauth_366
543,"(158, 77, 77, 872, 77, 77, 77)",2,mbtiauth_366
544,"(158, 77, 77, 872, 77, 77, 149)",2,mbtiauth_366
545,"(158, 77, 77, 872, 77, 77, 308)",2,mbtiauth_366
546,"(158, 77, 77, 872, 77, 149, 77)",2,mbtiauth_366
547,"(158, 77, 77, 872, 77, 149, 308)",2,mbtiauth_366
548,"(158, 77, 77, 872, 77, 308, 77)",2,mbtiauth_366
549,"(158, 77, 77, 872, 149, 77, 77)",2,mbtiauth_366
550,"(158, 77, 77, 872, 149, 77, 308)",2,mbtiauth_366
551,"(158, 77, 77, 872, 149, 308, 77)",2,mbtiauth_366
552,"(158, 77, 872, 77, 77, 77, 77)",2,mbtiauth_366
553,"(158, 77, 872, 77, 77, 77, 308)",2,mbtiauth_366
554,"(158, 77, 872, 77, 77, 149, 77)",2,mbtiauth_366
555,"(158, 77, 872, 77, 77, 149, 308)",2,mbtiauth_366
556,"(158, 77, 872, 77, 77, 308, 77)",2,mbtiauth_366
557,"(158, 77, 872, 77, 149, 77, 77)",2,mbtiauth_366
558,"(158, 77, 872, 77, 149, 77, 308)",2,mbtiauth_366
559,"(158, 77, 872, 77, 149, 308, 77)",2,mbtiauth_366
560,"(158, 77, 872, 149, 77, 308, 77)",2,mbtiauth_366
561,"(158, 872, 77, 77, 77, 77, 77)",2,mbtiauth_366
562,"(158, 872, 77, 77, 77, 308, 77)",2,mbtiauth_366
563,"(158, 872, 77, 77, 149, 77, 77)",2,mbtiauth_366
564,"(158, 872, 77, 77, 149, 77, 308)",2,mbtiauth_366
565,"(158, 872, 77, 77, 149, 308, 77)",2,mbtiauth_366
566,"(158, 872, 77, 149, 77, 308, 77)",2,mbtiauth_366
567,"(872, 77, 77, 77, 77, 77, 77)",2,mbtiauth_366
568,"(872, 77, 77, 77, 308, 77, 77)",2,mbtiauth_366
569,"(872, 77, 77, 149, 77, 77, 77)",2,mbtiauth_366
570,"(872, 77, 77, 149, 77, 308, 77)",2,mbtiauth_366
571,"(872, 77, 77, 149, 308, 77, 77)",2,mbtiauth_366
572,"(872, 77, 77, 308, 77, 77, 77)",2,mbtiauth_366
573,"(872, 77, 149, 77, 77, 77, 77)",2,mbtiauth_366
574,"(872, 77, 149, 77, 308, 77, 77)",2,mbtiauth_366
575,"(872, 77, 149, 308, 77, 77, 77)",2,mbtiauth_366
576,"(872, 149, 77, 308, 77, 77, 77)",2,mbtiauth_366
577,"(77, 77, 77, 77, 77, 77, 77, 77)",3,mbtiauth_366
578,"(77, 77, 77, 77, 77, 308, 77, 77)",2,mbtiauth_366
579,"(77, 77, 77, 77, 149, 77, 77, 77)",2,mbtiauth_366
580,"(77, 77, 77, 77, 149, 77, 308, 77)",2,mbtiauth_366
581,"(77, 77, 77, 77, 149, 308, 77, 77)",2,mbtiauth_366
582,"(77, 77, 77, 77, 308, 77, 77, 77)",2,mbtiauth_366
583,"(77, 77, 77, 149, 77, 77, 77, 77)",2,mbtiauth_366
584,"(77, 77, 77, 149, 77, 308, 77, 77)",2,mbtiauth_366
585,"(77, 77, 77, 149, 308, 77, 77, 77)",2,mbtiauth_366
586,"(77, 77, 149, 77, 308, 77, 77, 77)",2,mbtiauth_366
587,"(77, 77, 872, 77, 77, 77, 77, 77)",2,mbtiauth_366
588,"(77, 77, 872, 77, 77, 77, 308, 77)",2,mbtiauth_366
589,"(77, 77, 872, 77, 77, 149, 77, 77)",2,mbtiauth_366
590,"(77, 77, 872, 77, 77, 149, 77, 308)",2,mbtiauth_366
591,"(77, 77, 872, 77, 77, 149, 308, 77)",2,mbtiauth_366
592,"(77, 77, 872, 77, 77, 308, 77, 77)",2,mbtiauth_366
593,"(77, 77, 872, 77, 149, 77, 77, 77)",2,mbtiauth_366
594,"(77, 77, 872, 77, 149, 77, 308, 77)",2,mbtiauth_366
595,"(77, 77, 872, 77, 149, 308, 77, 77)",2,mbtiauth_366
596,"(77, 77, 872, 149, 77, 308, 77, 77)",2,mbtiauth_366
597,"(77, 872, 77, 77, 77, 77, 77, 77)",2,mbtiauth_366
598,"(77, 872, 77, 77, 77, 308, 77, 77)",2,mbtiauth_366
599,"(77, 872, 77, 77, 149, 77, 77, 77)",2,mbtiauth_366
600,"(77, 872, 77, 77, 149, 77, 308, 77)",2,mbtiauth_366
601,"(77, 872, 77, 77, 149, 308, 77, 77)",2,mbtiauth_366
602,"(77, 872, 77, 77, 308, 77, 77, 77)",2,mbtiauth_366
603,"(77, 872, 77, 149, 77, 77, 77, 77)",2,mbtiauth_366
604,"(77, 872, 77, 149, 77, 308, 77, 77)",2,mbtiauth_366
605,"(77, 872, 77, 149, 308, 77, 77, 77)",2,mbtiauth_366
606,"(77, 872, 149, 77, 308, 77, 77, 77)",2,mbtiauth_366
607,"(158, 77, 77, 77, 77, 77, 77, 77)",2,mbtiauth_366
608,"(158, 77, 77, 77, 77, 77, 308, 77)",2,mbtiauth_366
609,"(158, 77, 77, 77, 77, 149, 77, 77)",2,mbtiauth_366
610,"(158, 77, 77, 77, 77, 149, 77, 308)",2,mbtiauth_366
611,"(158, 77, 77, 77, 77, 149, 308, 77)",2,mbtiauth_366
612,"(158, 77, 77, 77, 149, 77, 308, 77)",2,mbtiauth_366
613,"(158, 77, 77, 872, 77, 77, 77, 77)",2,mbtiauth_366
614,"(158, 77, 77, 872, 77, 77, 77, 308)",2,mbtiauth_366
615,"(158, 77, 77, 872, 77, 77, 149, 77)",2,mbtiauth_366
616,"(158, 77, 77, 872, 77, 77, 149, 308)",2,mbtiauth_366
617,"(158, 77, 77, 872, 77, 77, 308, 77)",2,mbtiauth_366
618,"(158, 77, 77, 872, 77, 149, 77, 77)",2,mbtiauth_366
619,"(158, 77, 77, 872, 77, 149, 77, 308)",2,mbtiauth_366
620,"(158, 77, 77, 872, 77, 149, 308, 77)",2,mbtiauth_366
621,"(158, 77, 77, 872, 149, 77, 308, 77)",2,mbtiauth_366
622,"(158, 77, 872, 77, 77, 77, 77, 77)",2,mbtiauth_366
623,"(158, 77, 872, 77, 77, 77, 308, 77)",2,mbtiauth_366
624,"(158, 77, 872, 77, 77, 149, 77, 77)",2,mbtiauth_366
625,"(158, 77, 872, 77, 77, 149, 77, 308)",2,mbtiauth_366
626,"(158, 77, 872, 77, 77, 149, 308, 77)",2,mbtiauth_366
627,"(158, 77, 872, 77, 149, 77, 308, 77)",2,mbtiauth_366
628,"(158, 872, 77, 77, 149, 77, 308, 77)",2,mbtiauth_366
629,"(872, 77, 77, 77, 77, 77, 77, 77)",2,mbtiauth_366
630,"(872, 77, 77, 77, 308, 77, 77, 77)",2,mbtiauth_366
631,"(872, 77, 77, 149, 77, 77, 77, 77)",2,mbtiauth_366
632,"(872, 77, 77, 149, 77, 308, 77, 77)",2,mbtiauth_366
633,"(872, 77, 77, 149, 308, 77, 77, 77)",2,mbtiauth_366
634,"(872, 77, 149, 77, 308, 77, 77, 77)",2,mbtiauth_366
635,"(77, 77, 77, 77, 77, 308, 77, 77, 77)",2,mbtiauth_366
636,"(77, 77, 77, 77, 149, 77, 77, 77, 77)",2,mbtiauth_366
637,"(77, 77, 77, 77, 149, 77, 308, 77, 77)",2,mbtiauth_366
638,"(77, 77, 77, 77, 149, 308, 77, 77, 77)",2,mbtiauth_366
639,"(77, 77, 77, 149, 77, 308, 77, 77, 77)",2,mbtiauth_366
640,"(77, 77, 872, 77, 77, 77, 77, 77, 77)",2,mbtiauth_366
641,"(77, 77, 872, 77, 77, 77, 308, 77, 77)",2,mbtiauth_366
642,"(77, 77, 872, 77, 77, 149, 77, 77, 77)",2,mbtiauth_366
643,"(77, 77, 872, 77, 77, 149, 77, 308, 77)",2,mbtiauth_366
644,"(77, 77, 872, 77, 77, 149, 308, 77, 77)",2,mbtiauth_366
645,"(77, 77, 872, 77, 149, 77, 308, 77, 77)",2,mbtiauth_366
646,"(77, 872, 77, 77, 77, 77, 77, 77, 77)",2,mbtiauth_366
647,"(77, 872, 77, 77, 77, 308, 77, 77, 77)",2,mbtiauth_366
648,"(77, 872, 77, 77, 149, 77, 77, 77, 77)",2,mbtiauth_366
649,"(77, 872, 77, 77, 149, 77, 308, 77, 77)",2,mbtiauth_366
650,"(77, 872, 77, 77, 149, 308, 77, 77, 77)",2,mbtiauth_366
651,"(77, 872, 77, 149, 77, 308, 77, 77, 77)",2,mbtiauth_366
652,"(158, 77, 77, 77, 77, 149, 77, 308, 77)",2,mbtiauth_366
653,"(158, 77, 77, 872, 77, 77, 77, 77, 77)",2,mbtiauth_366
654,"(158, 77, 77, 872, 77, 77, 77, 308, 77)",2,mbtiauth_366
655,"(158, 77, 77, 872, 77, 77, 149, 77, 77)",2,mbtiauth_366
656,"(158, 77, 77, 872, 77, 77, 149, 77, 308)",2,mbtiauth_366
657,"(158, 77, 77, 872, 77, 77, 149, 308, 77)",2,mbtiauth_366
658,"(158, 77, 77, 872, 77, 149, 77, 308, 77)",2,mbtiauth_366
659,"(158, 77, 872, 77, 77, 149, 77, 308, 77)",2,mbtiauth_366
660,"(872, 77, 77, 149, 77, 308, 77, 77, 77)",2,mbtiauth_366
661,"(77, 77, 77, 77, 149, 77, 308, 77, 77, 77)",2,mbtiauth_366
662,"(77, 77, 872, 77, 77, 149, 77, 308, 77, 77)",2,mbtiauth_366
663,"(77, 872, 77, 77, 149, 77, 308, 77, 77, 77)",2,mbtiauth_366
664,"(158, 77, 77, 872, 77, 77, 149, 77, 308, 77)",2,mbtiauth_366
