,pattern,sup,author
1406,"(2, 22, 170)",2,mbtiauth_4803
1407,"(2, 50, 2)",2,mbtiauth_4803
1408,"(2, 50, 64)",2,mbtiauth_4803
1409,"(2, 50, 77)",2,mbtiauth_4803
1410,"(2, 50, 668)",2,mbtiauth_4803
1411,"(2, 64, 32)",2,mbtiauth_4803
1412,"(2, 64, 67)",2,mbtiauth_4803
1413,"(2, 64, 77)",2,mbtiauth_4803
1414,"(2, 64, 152)",2,mbtiauth_4803
1415,"(2, 65, 16)",2,mbtiauth_4803
1416,"(2, 65, 65)",2,mbtiauth_4803
1417,"(2, 65, 301)",2,mbtiauth_4803
1418,"(2, 65, 520)",2,mbtiauth_4803
1419,"(2, 77, 2)",3,mbtiauth_4803
1420,"(2, 77, 123)",2,mbtiauth_4803
1421,"(2, 77, 151)",2,mbtiauth_4803
1422,"(2, 77, 170)",3,mbtiauth_4803
1423,"(2, 77, 193)",2,mbtiauth_4803
1424,"(2, 77, 431)",2,mbtiauth_4803
1425,"(2, 77, 599)",5,mbtiauth_4803
1426,"(2, 102, 123)",2,mbtiauth_4803
1427,"(2, 123, 10)",2,mbtiauth_4803
1428,"(2, 123, 22)",2,mbtiauth_4803
1429,"(2, 123, 50)",2,mbtiauth_4803
1430,"(2, 123, 64)",2,mbtiauth_4803
1431,"(2, 151, 153)",2,mbtiauth_4803
1432,"(2, 151, 222)",2,mbtiauth_4803
1433,"(2, 153, 222)",2,mbtiauth_4803
1434,"(2, 170, 65)",2,mbtiauth_4803
1435,"(2, 193, 170)",2,mbtiauth_4803
1436,"(2, 197, 77)",2,mbtiauth_4803
1437,"(2, 197, 123)",2,mbtiauth_4803
1438,"(2, 244, 22)",2,mbtiauth_4803
1439,"(2, 244, 123)",2,mbtiauth_4803
1440,"(2, 244, 170)",2,mbtiauth_4803
1441,"(2, 301, 520)",2,mbtiauth_4803
1442,"(2, 599, 123)",2,mbtiauth_4803
1443,"(2, 599, 151)",2,mbtiauth_4803
1444,"(2, 599, 170)",2,mbtiauth_4803
1445,"(2, 1163, 123)",2,mbtiauth_4803
1446,"(10, 2, 50)",2,mbtiauth_4803
1447,"(10, 2, 123)",2,mbtiauth_4803
1448,"(10, 2, 244)",2,mbtiauth_4803
1449,"(10, 10, 64)",2,mbtiauth_4803
1450,"(10, 22, 64)",2,mbtiauth_4803
1451,"(10, 22, 301)",2,mbtiauth_4803
1452,"(10, 65, 16)",2,mbtiauth_4803
1453,"(10, 65, 32)",2,mbtiauth_4803
1454,"(10, 65, 77)",2,mbtiauth_4803
1455,"(10, 65, 244)",2,mbtiauth_4803
1456,"(10, 65, 417)",2,mbtiauth_4803
1457,"(10, 65, 599)",2,mbtiauth_4803
1458,"(10, 77, 32)",2,mbtiauth_4803
1459,"(10, 77, 64)",3,mbtiauth_4803
1460,"(10, 77, 154)",2,mbtiauth_4803
1461,"(10, 77, 599)",2,mbtiauth_4803
1462,"(10, 77, 693)",2,mbtiauth_4803
1463,"(10, 244, 123)",2,mbtiauth_4803
1464,"(10, 693, 64)",2,mbtiauth_4803
1465,"(10, 960, 123)",2,mbtiauth_4803
1466,"(16, 10, 65)",2,mbtiauth_4803
1467,"(16, 65, 236)",2,mbtiauth_4803
1468,"(16, 77, 236)",2,mbtiauth_4803
1469,"(16, 77, 599)",4,mbtiauth_4803
1470,"(16, 154, 236)",2,mbtiauth_4803
1471,"(16, 599, 236)",2,mbtiauth_4803
1472,"(22, 2, 50)",2,mbtiauth_4803
1473,"(22, 32, 123)",2,mbtiauth_4803
1474,"(22, 77, 520)",2,mbtiauth_4803
1475,"(22, 123, 50)",2,mbtiauth_4803
1476,"(22, 123, 77)",2,mbtiauth_4803
1477,"(22, 123, 520)",2,mbtiauth_4803
1478,"(22, 417, 170)",2,mbtiauth_4803
1479,"(22, 441, 222)",2,mbtiauth_4803
1480,"(22, 566, 170)",2,mbtiauth_4803
1481,"(31, 65, 260)",2,mbtiauth_4803
1482,"(31, 222, 65)",2,mbtiauth_4803
1483,"(32, 33, 22)",3,mbtiauth_4803
1484,"(32, 50, 2)",2,mbtiauth_4803
1485,"(32, 50, 16)",2,mbtiauth_4803
1486,"(32, 50, 32)",2,mbtiauth_4803
1487,"(32, 50, 65)",2,mbtiauth_4803
1488,"(32, 50, 123)",2,mbtiauth_4803
1489,"(32, 50, 170)",2,mbtiauth_4803
1490,"(32, 50, 668)",2,mbtiauth_4803
1491,"(32, 65, 32)",3,mbtiauth_4803
1492,"(32, 123, 32)",2,mbtiauth_4803
1493,"(32, 123, 65)",2,mbtiauth_4803
1494,"(32, 123, 220)",2,mbtiauth_4803
1495,"(32, 170, 2)",2,mbtiauth_4803
1496,"(32, 170, 22)",2,mbtiauth_4803
1497,"(32, 170, 33)",2,mbtiauth_4803
1498,"(32, 599, 123)",2,mbtiauth_4803
1499,"(33, 2, 50)",2,mbtiauth_4803
1500,"(33, 22, 32)",3,mbtiauth_4803
1501,"(41, 41, 154)",2,mbtiauth_4803
1502,"(41, 41, 340)",2,mbtiauth_4803
1503,"(41, 77, 170)",2,mbtiauth_4803
1504,"(41, 77, 244)",2,mbtiauth_4803
1505,"(41, 244, 170)",2,mbtiauth_4803
1506,"(41, 291, 29)",2,mbtiauth_4803
1507,"(41, 381, 77)",2,mbtiauth_4803
1508,"(41, 381, 787)",2,mbtiauth_4803
1509,"(41, 787, 77)",2,mbtiauth_4803
1510,"(41, 872, 254)",2,mbtiauth_4803
1511,"(50, 10, 50)",2,mbtiauth_4803
1512,"(50, 22, 32)",2,mbtiauth_4803
1513,"(50, 32, 50)",2,mbtiauth_4803
1514,"(50, 32, 64)",2,mbtiauth_4803
1515,"(50, 46, 170)",2,mbtiauth_4803
1516,"(50, 46, 356)",2,mbtiauth_4803
1517,"(50, 50, 77)",2,mbtiauth_4803
1518,"(50, 51, 64)",2,mbtiauth_4803
1519,"(50, 64, 22)",2,mbtiauth_4803
1520,"(50, 64, 32)",2,mbtiauth_4803
1521,"(50, 64, 50)",2,mbtiauth_4803
1522,"(50, 65, 32)",2,mbtiauth_4803
1523,"(50, 65, 254)",2,mbtiauth_4803
1524,"(50, 67, 65)",2,mbtiauth_4803
1525,"(50, 67, 254)",2,mbtiauth_4803
1526,"(50, 77, 2)",2,mbtiauth_4803
1527,"(50, 77, 123)",2,mbtiauth_4803
1528,"(50, 77, 291)",2,mbtiauth_4803
1529,"(50, 123, 32)",2,mbtiauth_4803
1530,"(50, 123, 65)",3,mbtiauth_4803
1531,"(50, 123, 193)",2,mbtiauth_4803
1532,"(50, 123, 356)",2,mbtiauth_4803
1533,"(50, 123, 364)",2,mbtiauth_4803
1534,"(50, 123, 613)",2,mbtiauth_4803
1535,"(50, 123, 910)",2,mbtiauth_4803
1536,"(50, 151, 153)",2,mbtiauth_4803
1537,"(50, 170, 2)",2,mbtiauth_4803
1538,"(50, 170, 64)",2,mbtiauth_4803
1539,"(50, 170, 123)",3,mbtiauth_4803
1540,"(50, 170, 151)",2,mbtiauth_4803
1541,"(50, 170, 153)",2,mbtiauth_4803
1542,"(50, 170, 222)",2,mbtiauth_4803
1543,"(50, 170, 326)",2,mbtiauth_4803
1544,"(50, 196, 123)",2,mbtiauth_4803
1545,"(50, 222, 123)",2,mbtiauth_4803
1546,"(50, 244, 123)",2,mbtiauth_4803
1547,"(50, 254, 123)",2,mbtiauth_4803
1548,"(50, 381, 170)",2,mbtiauth_4803
1549,"(50, 544, 170)",2,mbtiauth_4803
1550,"(50, 544, 326)",2,mbtiauth_4803
1551,"(50, 613, 910)",2,mbtiauth_4803
1552,"(50, 668, 2)",2,mbtiauth_4803
1553,"(50, 668, 77)",3,mbtiauth_4803
1554,"(50, 1226, 170)",2,mbtiauth_4803
1555,"(50, 2556, 77)",3,mbtiauth_4803
1556,"(51, 64, 77)",2,mbtiauth_4803
1557,"(51, 64, 222)",2,mbtiauth_4803
1558,"(64, 2, 123)",2,mbtiauth_4803
1559,"(64, 10, 65)",2,mbtiauth_4803
1560,"(64, 22, 32)",2,mbtiauth_4803
1561,"(64, 22, 417)",2,mbtiauth_4803
1562,"(64, 32, 50)",2,mbtiauth_4803
1563,"(64, 33, 2)",2,mbtiauth_4803
1564,"(64, 33, 22)",2,mbtiauth_4803
1565,"(64, 41, 10)",2,mbtiauth_4803
1566,"(64, 50, 50)",2,mbtiauth_4803
1567,"(64, 50, 77)",3,mbtiauth_4803
1568,"(64, 50, 123)",2,mbtiauth_4803
1569,"(64, 50, 152)",2,mbtiauth_4803
1570,"(64, 50, 668)",2,mbtiauth_4803
1571,"(64, 50, 2556)",2,mbtiauth_4803
1572,"(64, 51, 64)",2,mbtiauth_4803
1573,"(64, 64, 2)",3,mbtiauth_4803
1574,"(64, 64, 50)",3,mbtiauth_4803
1575,"(64, 64, 77)",3,mbtiauth_4803
1576,"(64, 64, 152)",2,mbtiauth_4803
1577,"(64, 64, 2378)",2,mbtiauth_4803
1578,"(64, 67, 32)",3,mbtiauth_4803
1579,"(64, 67, 50)",2,mbtiauth_4803
1580,"(64, 67, 64)",2,mbtiauth_4803
1581,"(64, 77, 16)",2,mbtiauth_4803
1582,"(64, 77, 31)",2,mbtiauth_4803
1583,"(64, 77, 123)",3,mbtiauth_4803
1584,"(64, 77, 152)",2,mbtiauth_4803
1585,"(64, 77, 154)",2,mbtiauth_4803
1586,"(64, 77, 197)",2,mbtiauth_4803
1587,"(64, 77, 236)",2,mbtiauth_4803
1588,"(64, 77, 244)",2,mbtiauth_4803
1589,"(64, 77, 599)",4,mbtiauth_4803
1590,"(64, 152, 50)",2,mbtiauth_4803
1591,"(64, 152, 152)",2,mbtiauth_4803
1592,"(64, 152, 236)",2,mbtiauth_4803
1593,"(64, 154, 67)",2,mbtiauth_4803
1594,"(64, 158, 50)",2,mbtiauth_4803
1595,"(64, 158, 64)",2,mbtiauth_4803
1596,"(64, 158, 77)",2,mbtiauth_4803
1597,"(64, 171, 123)",2,mbtiauth_4803
1598,"(64, 193, 77)",2,mbtiauth_4803
1599,"(64, 193, 236)",2,mbtiauth_4803
1600,"(64, 198, 32)",2,mbtiauth_4803
1601,"(64, 244, 67)",2,mbtiauth_4803
1602,"(64, 244, 123)",2,mbtiauth_4803
1603,"(64, 356, 77)",2,mbtiauth_4803
1604,"(64, 599, 16)",2,mbtiauth_4803
1605,"(64, 1688, 64)",2,mbtiauth_4803
1606,"(64, 9521, 50)",2,mbtiauth_4803
1607,"(64, 9521, 64)",2,mbtiauth_4803
1608,"(64, 9521, 77)",2,mbtiauth_4803
1609,"(64, 9521, 158)",2,mbtiauth_4803
1610,"(65, 2, 2)",2,mbtiauth_4803
1611,"(65, 2, 16)",2,mbtiauth_4803
1612,"(65, 2, 65)",2,mbtiauth_4803
1613,"(65, 2, 123)",2,mbtiauth_4803
1614,"(65, 32, 32)",2,mbtiauth_4803
1615,"(65, 32, 50)",2,mbtiauth_4803
1616,"(65, 32, 65)",4,mbtiauth_4803
1617,"(65, 32, 599)",2,mbtiauth_4803
1618,"(65, 32, 842)",2,mbtiauth_4803
1619,"(65, 65, 2)",2,mbtiauth_4803
1620,"(65, 65, 32)",3,mbtiauth_4803
1621,"(65, 65, 65)",2,mbtiauth_4803
1622,"(65, 65, 77)",2,mbtiauth_4803
1623,"(65, 65, 254)",2,mbtiauth_4803
1624,"(65, 77, 22)",4,mbtiauth_4803
1625,"(65, 77, 41)",2,mbtiauth_4803
1626,"(65, 77, 77)",2,mbtiauth_4803
1627,"(65, 77, 123)",3,mbtiauth_4803
1628,"(65, 77, 254)",3,mbtiauth_4803
1629,"(65, 77, 260)",2,mbtiauth_4803
1630,"(65, 77, 291)",2,mbtiauth_4803
1631,"(65, 77, 349)",2,mbtiauth_4803
1632,"(65, 77, 599)",5,mbtiauth_4803
1633,"(65, 77, 765)",2,mbtiauth_4803
1634,"(65, 123, 120)",2,mbtiauth_4803
1635,"(65, 123, 260)",2,mbtiauth_4803
1636,"(65, 123, 268)",2,mbtiauth_4803
1637,"(65, 123, 291)",2,mbtiauth_4803
1638,"(65, 151, 22)",2,mbtiauth_4803
1639,"(65, 151, 77)",2,mbtiauth_4803
1640,"(65, 152, 1362)",2,mbtiauth_4803
1641,"(65, 170, 41)",2,mbtiauth_4803
1642,"(65, 170, 64)",2,mbtiauth_4803
1643,"(65, 254, 22)",2,mbtiauth_4803
1644,"(65, 254, 123)",3,mbtiauth_4803
1645,"(65, 254, 260)",2,mbtiauth_4803
1646,"(65, 254, 291)",2,mbtiauth_4803
1647,"(65, 301, 520)",2,mbtiauth_4803
1648,"(65, 301, 1219)",2,mbtiauth_4803
1649,"(65, 349, 22)",2,mbtiauth_4803
1650,"(65, 444, 65)",2,mbtiauth_4803
1651,"(65, 444, 123)",2,mbtiauth_4803
1652,"(65, 599, 22)",2,mbtiauth_4803
1653,"(65, 599, 123)",2,mbtiauth_4803
1654,"(65, 599, 349)",2,mbtiauth_4803
1655,"(65, 720, 22)",3,mbtiauth_4803
1656,"(65, 720, 65)",2,mbtiauth_4803
1657,"(65, 720, 77)",4,mbtiauth_4803
1658,"(65, 720, 151)",2,mbtiauth_4803
1659,"(65, 720, 254)",2,mbtiauth_4803
1660,"(65, 720, 599)",2,mbtiauth_4803
1661,"(65, 1331, 32)",2,mbtiauth_4803
1662,"(65, 1331, 65)",2,mbtiauth_4803
1663,"(67, 32, 50)",2,mbtiauth_4803
1664,"(67, 32, 65)",2,mbtiauth_4803
1665,"(67, 65, 254)",2,mbtiauth_4803
1666,"(67, 77, 22)",2,mbtiauth_4803
1667,"(67, 77, 599)",2,mbtiauth_4803
1668,"(67, 599, 22)",2,mbtiauth_4803
1669,"(70, 10, 65)",2,mbtiauth_4803
1670,"(70, 16, 65)",2,mbtiauth_4803
1671,"(70, 16, 123)",2,mbtiauth_4803
1672,"(70, 32, 152)",2,mbtiauth_4803
1673,"(70, 32, 154)",2,mbtiauth_4803
1674,"(70, 41, 340)",2,mbtiauth_4803
1675,"(70, 64, 254)",2,mbtiauth_4803
1676,"(70, 65, 32)",2,mbtiauth_4803
1677,"(70, 151, 32)",2,mbtiauth_4803
1678,"(70, 364, 154)",2,mbtiauth_4803
1679,"(77, 2, 22)",2,mbtiauth_4803
1680,"(77, 2, 50)",2,mbtiauth_4803
1681,"(77, 2, 64)",2,mbtiauth_4803
1682,"(77, 10, 22)",2,mbtiauth_4803
1683,"(77, 10, 32)",2,mbtiauth_4803
1684,"(77, 10, 65)",4,mbtiauth_4803
1685,"(77, 22, 32)",2,mbtiauth_4803
1686,"(77, 22, 65)",2,mbtiauth_4803
1687,"(77, 22, 73)",2,mbtiauth_4803
1688,"(77, 22, 77)",2,mbtiauth_4803
1689,"(77, 22, 170)",3,mbtiauth_4803
1690,"(77, 32, 22)",3,mbtiauth_4803
1691,"(77, 32, 32)",2,mbtiauth_4803
1692,"(77, 32, 33)",2,mbtiauth_4803
1693,"(77, 32, 65)",2,mbtiauth_4803
1694,"(77, 33, 22)",3,mbtiauth_4803
1695,"(77, 50, 170)",2,mbtiauth_4803
1696,"(77, 64, 22)",2,mbtiauth_4803
1697,"(77, 64, 67)",2,mbtiauth_4803
1698,"(77, 64, 154)",2,mbtiauth_4803
1699,"(77, 65, 22)",3,mbtiauth_4803
1700,"(77, 65, 32)",3,mbtiauth_4803
1701,"(77, 65, 65)",2,mbtiauth_4803
1702,"(77, 65, 77)",2,mbtiauth_4803
1703,"(77, 65, 123)",2,mbtiauth_4803
1704,"(77, 65, 151)",2,mbtiauth_4803
1705,"(77, 65, 301)",2,mbtiauth_4803
1706,"(77, 65, 1219)",2,mbtiauth_4803
1707,"(77, 70, 65)",2,mbtiauth_4803
1708,"(77, 77, 22)",2,mbtiauth_4803
1709,"(77, 77, 65)",2,mbtiauth_4803
1710,"(77, 77, 123)",2,mbtiauth_4803
1711,"(77, 77, 599)",2,mbtiauth_4803
1712,"(77, 123, 2)",2,mbtiauth_4803
1713,"(77, 123, 10)",2,mbtiauth_4803
1714,"(77, 123, 22)",4,mbtiauth_4803
1715,"(77, 123, 32)",3,mbtiauth_4803
1716,"(77, 123, 50)",2,mbtiauth_4803
1717,"(77, 123, 64)",3,mbtiauth_4803
1718,"(77, 123, 65)",3,mbtiauth_4803
1719,"(77, 123, 73)",2,mbtiauth_4803
1720,"(77, 123, 77)",2,mbtiauth_4803
1721,"(77, 123, 123)",4,mbtiauth_4803
1722,"(77, 123, 134)",3,mbtiauth_4803
1723,"(77, 123, 154)",5,mbtiauth_4803
1724,"(77, 123, 193)",4,mbtiauth_4803
1725,"(77, 123, 210)",2,mbtiauth_4803
1726,"(77, 123, 212)",2,mbtiauth_4803
1727,"(77, 123, 260)",2,mbtiauth_4803
1728,"(77, 123, 291)",3,mbtiauth_4803
1729,"(77, 123, 340)",3,mbtiauth_4803
1730,"(77, 123, 407)",3,mbtiauth_4803
1731,"(77, 123, 411)",3,mbtiauth_4803
1732,"(77, 123, 441)",2,mbtiauth_4803
1733,"(77, 123, 520)",2,mbtiauth_4803
1734,"(77, 123, 593)",2,mbtiauth_4803
1735,"(77, 123, 765)",2,mbtiauth_4803
1736,"(77, 123, 1913)",2,mbtiauth_4803
1737,"(77, 151, 153)",2,mbtiauth_4803
1738,"(77, 154, 22)",2,mbtiauth_4803
1739,"(77, 154, 30)",2,mbtiauth_4803
1740,"(77, 154, 65)",2,mbtiauth_4803
1741,"(77, 154, 164)",2,mbtiauth_4803
1742,"(77, 154, 170)",2,mbtiauth_4803
1743,"(77, 154, 236)",2,mbtiauth_4803
1744,"(77, 154, 591)",2,mbtiauth_4803
1745,"(77, 170, 65)",2,mbtiauth_4803
1746,"(77, 193, 2)",2,mbtiauth_4803
1747,"(77, 193, 33)",2,mbtiauth_4803
1748,"(77, 193, 4493)",2,mbtiauth_4803
1749,"(77, 201, 170)",2,mbtiauth_4803
1750,"(77, 212, 154)",2,mbtiauth_4803
1751,"(77, 236, 10)",3,mbtiauth_4803
1752,"(77, 236, 64)",2,mbtiauth_4803
1753,"(77, 236, 65)",4,mbtiauth_4803
1754,"(77, 236, 67)",2,mbtiauth_4803
1755,"(77, 244, 22)",2,mbtiauth_4803
1756,"(77, 244, 64)",2,mbtiauth_4803
1757,"(77, 244, 123)",2,mbtiauth_4803
1758,"(77, 244, 170)",2,mbtiauth_4803
1759,"(77, 254, 22)",3,mbtiauth_4803
1760,"(77, 254, 123)",3,mbtiauth_4803
1761,"(77, 254, 260)",2,mbtiauth_4803
1762,"(77, 254, 291)",2,mbtiauth_4803
1763,"(77, 268, 22)",2,mbtiauth_4803
1764,"(77, 291, 123)",2,mbtiauth_4803
1765,"(77, 301, 1219)",2,mbtiauth_4803
1766,"(77, 349, 22)",2,mbtiauth_4803
1767,"(77, 411, 2)",2,mbtiauth_4803
1768,"(77, 520, 123)",2,mbtiauth_4803
1769,"(77, 520, 154)",2,mbtiauth_4803
1770,"(77, 599, 2)",2,mbtiauth_4803
1771,"(77, 599, 10)",2,mbtiauth_4803
1772,"(77, 599, 16)",2,mbtiauth_4803
1773,"(77, 599, 22)",5,mbtiauth_4803
1774,"(77, 599, 32)",2,mbtiauth_4803
1775,"(77, 599, 33)",2,mbtiauth_4803
1776,"(77, 599, 41)",2,mbtiauth_4803
1777,"(77, 599, 50)",2,mbtiauth_4803
1778,"(77, 599, 65)",3,mbtiauth_4803
1779,"(77, 599, 123)",6,mbtiauth_4803
1780,"(77, 599, 151)",2,mbtiauth_4803
1781,"(77, 599, 154)",3,mbtiauth_4803
1782,"(77, 599, 170)",5,mbtiauth_4803
1783,"(77, 599, 201)",2,mbtiauth_4803
1784,"(77, 599, 222)",3,mbtiauth_4803
1785,"(77, 599, 236)",2,mbtiauth_4803
1786,"(77, 599, 349)",2,mbtiauth_4803
1787,"(77, 599, 520)",2,mbtiauth_4803
1788,"(77, 599, 693)",2,mbtiauth_4803
1789,"(77, 603, 1741)",2,mbtiauth_4803
1790,"(77, 693, 33)",2,mbtiauth_4803
1791,"(77, 693, 64)",2,mbtiauth_4803
1792,"(77, 693, 170)",2,mbtiauth_4803
1793,"(77, 1834, 64)",2,mbtiauth_4803
1794,"(78, 78, 65)",2,mbtiauth_4803
1795,"(78, 78, 70)",2,mbtiauth_4803
1796,"(78, 608, 65)",2,mbtiauth_4803
1797,"(78, 608, 70)",2,mbtiauth_4803
1798,"(78, 608, 78)",2,mbtiauth_4803
1799,"(120, 22, 50)",2,mbtiauth_4803
1800,"(120, 65, 32)",2,mbtiauth_4803
1801,"(120, 65, 65)",2,mbtiauth_4803
1802,"(120, 70, 32)",2,mbtiauth_4803
1803,"(120, 77, 123)",4,mbtiauth_4803
1804,"(120, 77, 154)",2,mbtiauth_4803
1805,"(120, 77, 340)",2,mbtiauth_4803
1806,"(120, 77, 599)",3,mbtiauth_4803
1807,"(120, 123, 154)",2,mbtiauth_4803
1808,"(120, 123, 340)",2,mbtiauth_4803
1809,"(120, 286, 32)",2,mbtiauth_4803
1810,"(120, 286, 326)",2,mbtiauth_4803
1811,"(120, 340, 50)",2,mbtiauth_4803
1812,"(120, 340, 77)",3,mbtiauth_4803
1813,"(120, 340, 123)",2,mbtiauth_4803
1814,"(120, 340, 599)",3,mbtiauth_4803
1815,"(120, 599, 123)",2,mbtiauth_4803
1816,"(123, 2, 2)",2,mbtiauth_4803
1817,"(123, 2, 50)",3,mbtiauth_4803
1818,"(123, 2, 64)",2,mbtiauth_4803
1819,"(123, 2, 65)",2,mbtiauth_4803
1820,"(123, 2, 67)",2,mbtiauth_4803
1821,"(123, 2, 77)",4,mbtiauth_4803
1822,"(123, 2, 102)",2,mbtiauth_4803
1823,"(123, 2, 123)",3,mbtiauth_4803
1824,"(123, 2, 154)",2,mbtiauth_4803
1825,"(123, 2, 170)",2,mbtiauth_4803
1826,"(123, 2, 356)",2,mbtiauth_4803
1827,"(123, 2, 431)",2,mbtiauth_4803
1828,"(123, 2, 599)",4,mbtiauth_4803
1829,"(123, 2, 1300)",2,mbtiauth_4803
1830,"(123, 10, 2)",2,mbtiauth_4803
1831,"(123, 10, 22)",3,mbtiauth_4803
1832,"(123, 10, 50)",2,mbtiauth_4803
1833,"(123, 10, 64)",2,mbtiauth_4803
1834,"(123, 10, 77)",2,mbtiauth_4803
1835,"(123, 10, 123)",2,mbtiauth_4803
1836,"(123, 16, 32)",2,mbtiauth_4803
1837,"(123, 16, 65)",2,mbtiauth_4803
1838,"(123, 16, 154)",2,mbtiauth_4803
1839,"(123, 22, 32)",3,mbtiauth_4803
1840,"(123, 22, 50)",2,mbtiauth_4803
1841,"(123, 22, 64)",2,mbtiauth_4803
1842,"(123, 22, 73)",2,mbtiauth_4803
1843,"(123, 22, 77)",2,mbtiauth_4803
1844,"(123, 22, 123)",3,mbtiauth_4803
1845,"(123, 22, 170)",3,mbtiauth_4803
1846,"(123, 22, 520)",2,mbtiauth_4803
1847,"(123, 31, 22)",2,mbtiauth_4803
1848,"(123, 32, 22)",2,mbtiauth_4803
1849,"(123, 32, 50)",3,mbtiauth_4803
1850,"(123, 32, 65)",3,mbtiauth_4803
1851,"(123, 32, 123)",3,mbtiauth_4803
1852,"(123, 32, 254)",2,mbtiauth_4803
1853,"(123, 32, 364)",2,mbtiauth_4803
1854,"(123, 32, 441)",2,mbtiauth_4803
1855,"(123, 32, 599)",2,mbtiauth_4803
1856,"(123, 33, 22)",2,mbtiauth_4803
1857,"(123, 46, 356)",2,mbtiauth_4803
1858,"(123, 50, 46)",2,mbtiauth_4803
1859,"(123, 50, 64)",2,mbtiauth_4803
1860,"(123, 50, 67)",2,mbtiauth_4803
1861,"(123, 50, 77)",4,mbtiauth_4803
1862,"(123, 50, 123)",4,mbtiauth_4803
1863,"(123, 50, 170)",2,mbtiauth_4803
1864,"(123, 50, 356)",2,mbtiauth_4803
1865,"(123, 50, 441)",2,mbtiauth_4803
1866,"(123, 50, 668)",3,mbtiauth_4803
1867,"(123, 64, 2)",2,mbtiauth_4803
1868,"(123, 64, 22)",3,mbtiauth_4803
1869,"(123, 64, 31)",2,mbtiauth_4803
1870,"(123, 64, 32)",5,mbtiauth_4803
1871,"(123, 64, 50)",4,mbtiauth_4803
1872,"(123, 64, 64)",3,mbtiauth_4803
1873,"(123, 64, 65)",3,mbtiauth_4803
1874,"(123, 64, 67)",4,mbtiauth_4803
1875,"(123, 64, 77)",6,mbtiauth_4803
1876,"(123, 64, 123)",2,mbtiauth_4803
1877,"(123, 64, 154)",2,mbtiauth_4803
1878,"(123, 64, 170)",2,mbtiauth_4803
1879,"(123, 64, 171)",2,mbtiauth_4803
1880,"(123, 64, 193)",2,mbtiauth_4803
1881,"(123, 64, 197)",3,mbtiauth_4803
1882,"(123, 64, 356)",2,mbtiauth_4803
1883,"(123, 64, 364)",2,mbtiauth_4803
1884,"(123, 64, 369)",2,mbtiauth_4803
1885,"(123, 64, 441)",2,mbtiauth_4803
1886,"(123, 64, 599)",3,mbtiauth_4803
1887,"(123, 64, 5500)",2,mbtiauth_4803
1888,"(123, 65, 2)",3,mbtiauth_4803
1889,"(123, 65, 32)",4,mbtiauth_4803
1890,"(123, 65, 50)",2,mbtiauth_4803
1891,"(123, 65, 65)",6,mbtiauth_4803
1892,"(123, 65, 77)",2,mbtiauth_4803
1893,"(123, 65, 123)",6,mbtiauth_4803
1894,"(123, 65, 171)",2,mbtiauth_4803
1895,"(123, 65, 254)",2,mbtiauth_4803
1896,"(123, 65, 301)",2,mbtiauth_4803
1897,"(123, 65, 364)",2,mbtiauth_4803
1898,"(123, 65, 444)",3,mbtiauth_4803
1899,"(123, 65, 1219)",2,mbtiauth_4803
1900,"(123, 65, 1331)",2,mbtiauth_4803
1901,"(123, 67, 32)",4,mbtiauth_4803
1902,"(123, 67, 50)",2,mbtiauth_4803
1903,"(123, 67, 65)",2,mbtiauth_4803
1904,"(123, 67, 77)",2,mbtiauth_4803
1905,"(123, 70, 32)",2,mbtiauth_4803
1906,"(123, 70, 65)",2,mbtiauth_4803
1907,"(123, 77, 2)",5,mbtiauth_4803
1908,"(123, 77, 10)",3,mbtiauth_4803
1909,"(123, 77, 16)",2,mbtiauth_4803
1910,"(123, 77, 22)",3,mbtiauth_4803
1911,"(123, 77, 31)",2,mbtiauth_4803
1912,"(123, 77, 32)",3,mbtiauth_4803
1913,"(123, 77, 33)",2,mbtiauth_4803
1914,"(123, 77, 50)",4,mbtiauth_4803
1915,"(123, 77, 64)",3,mbtiauth_4803
1916,"(123, 77, 65)",5,mbtiauth_4803
1917,"(123, 77, 77)",2,mbtiauth_4803
1918,"(123, 77, 123)",10,mbtiauth_4803
1919,"(123, 77, 134)",2,mbtiauth_4803
1920,"(123, 77, 154)",4,mbtiauth_4803
1921,"(123, 77, 170)",2,mbtiauth_4803
1922,"(123, 77, 193)",2,mbtiauth_4803
1923,"(123, 77, 197)",2,mbtiauth_4803
1924,"(123, 77, 236)",3,mbtiauth_4803
1925,"(123, 77, 291)",2,mbtiauth_4803
1926,"(123, 77, 301)",2,mbtiauth_4803
1927,"(123, 77, 340)",2,mbtiauth_4803
1928,"(123, 77, 411)",2,mbtiauth_4803
1929,"(123, 77, 431)",3,mbtiauth_4803
1930,"(123, 77, 520)",3,mbtiauth_4803
1931,"(123, 77, 599)",8,mbtiauth_4803
1932,"(123, 77, 1219)",2,mbtiauth_4803
1933,"(123, 77, 1834)",2,mbtiauth_4803
1934,"(123, 78, 65)",2,mbtiauth_4803
1935,"(123, 120, 10)",2,mbtiauth_4803
1936,"(123, 120, 22)",4,mbtiauth_4803
1937,"(123, 120, 32)",3,mbtiauth_4803
1938,"(123, 120, 50)",3,mbtiauth_4803
1939,"(123, 120, 64)",2,mbtiauth_4803
1940,"(123, 120, 65)",3,mbtiauth_4803
1941,"(123, 120, 70)",3,mbtiauth_4803
1942,"(123, 120, 77)",5,mbtiauth_4803
1943,"(123, 120, 123)",4,mbtiauth_4803
1944,"(123, 120, 154)",3,mbtiauth_4803
1945,"(123, 120, 260)",2,mbtiauth_4803
1946,"(123, 120, 286)",2,mbtiauth_4803
1947,"(123, 120, 291)",2,mbtiauth_4803
1948,"(123, 120, 326)",2,mbtiauth_4803
1949,"(123, 120, 340)",4,mbtiauth_4803
1950,"(123, 120, 381)",2,mbtiauth_4803
1951,"(123, 120, 384)",2,mbtiauth_4803
1952,"(123, 120, 411)",2,mbtiauth_4803
1953,"(123, 120, 505)",2,mbtiauth_4803
1954,"(123, 120, 599)",2,mbtiauth_4803
1955,"(123, 120, 1737)",3,mbtiauth_4803
1956,"(123, 123, 2)",3,mbtiauth_4803
1957,"(123, 123, 22)",2,mbtiauth_4803
1958,"(123, 123, 32)",3,mbtiauth_4803
1959,"(123, 123, 50)",4,mbtiauth_4803
1960,"(123, 123, 64)",2,mbtiauth_4803
1961,"(123, 123, 65)",3,mbtiauth_4803
1962,"(123, 123, 77)",5,mbtiauth_4803
1963,"(123, 123, 120)",2,mbtiauth_4803
1964,"(123, 123, 123)",4,mbtiauth_4803
1965,"(123, 123, 134)",3,mbtiauth_4803
1966,"(123, 123, 154)",2,mbtiauth_4803
1967,"(123, 123, 193)",3,mbtiauth_4803
1968,"(123, 123, 206)",2,mbtiauth_4803
1969,"(123, 123, 212)",2,mbtiauth_4803
1970,"(123, 123, 220)",2,mbtiauth_4803
1971,"(123, 123, 291)",3,mbtiauth_4803
1972,"(123, 123, 340)",3,mbtiauth_4803
1973,"(123, 123, 407)",2,mbtiauth_4803
1974,"(123, 123, 411)",2,mbtiauth_4803
1975,"(123, 123, 441)",2,mbtiauth_4803
1976,"(123, 123, 520)",2,mbtiauth_4803
1977,"(123, 123, 599)",3,mbtiauth_4803
1978,"(123, 123, 613)",2,mbtiauth_4803
1979,"(123, 123, 910)",2,mbtiauth_4803
1980,"(123, 127, 50)",2,mbtiauth_4803
1981,"(123, 134, 32)",2,mbtiauth_4803
1982,"(123, 134, 65)",2,mbtiauth_4803
1983,"(123, 134, 77)",2,mbtiauth_4803
1984,"(123, 134, 123)",2,mbtiauth_4803
1985,"(123, 134, 134)",2,mbtiauth_4803
1986,"(123, 152, 236)",2,mbtiauth_4803
1987,"(123, 154, 22)",3,mbtiauth_4803
1988,"(123, 154, 32)",2,mbtiauth_4803
1989,"(123, 154, 65)",2,mbtiauth_4803
1990,"(123, 154, 170)",2,mbtiauth_4803
1991,"(123, 158, 10)",2,mbtiauth_4803
1992,"(123, 158, 22)",2,mbtiauth_4803
1993,"(123, 158, 64)",3,mbtiauth_4803
1994,"(123, 158, 65)",2,mbtiauth_4803
1995,"(123, 158, 77)",4,mbtiauth_4803
1996,"(123, 158, 164)",2,mbtiauth_4803
1997,"(123, 162, 123)",3,mbtiauth_4803
1998,"(123, 162, 193)",2,mbtiauth_4803
1999,"(123, 162, 200)",2,mbtiauth_4803
2000,"(123, 164, 65)",2,mbtiauth_4803
2001,"(123, 165, 50)",2,mbtiauth_4803
2002,"(123, 165, 65)",3,mbtiauth_4803
2003,"(123, 165, 77)",2,mbtiauth_4803
2004,"(123, 165, 599)",2,mbtiauth_4803
2005,"(123, 193, 2)",3,mbtiauth_4803
2006,"(123, 193, 22)",2,mbtiauth_4803
2007,"(123, 193, 31)",2,mbtiauth_4803
2008,"(123, 193, 32)",2,mbtiauth_4803
2009,"(123, 193, 77)",3,mbtiauth_4803
2010,"(123, 193, 123)",4,mbtiauth_4803
2011,"(123, 193, 154)",2,mbtiauth_4803
2012,"(123, 193, 236)",4,mbtiauth_4803
2013,"(123, 193, 599)",2,mbtiauth_4803
2014,"(123, 196, 123)",2,mbtiauth_4803
2015,"(123, 200, 65)",2,mbtiauth_4803
2016,"(123, 201, 170)",2,mbtiauth_4803
2017,"(123, 206, 2)",2,mbtiauth_4803
2018,"(123, 206, 64)",2,mbtiauth_4803
2019,"(123, 206, 77)",3,mbtiauth_4803
2020,"(123, 206, 154)",2,mbtiauth_4803
2021,"(123, 206, 193)",2,mbtiauth_4803
2022,"(123, 206, 599)",3,mbtiauth_4803
2023,"(123, 210, 765)",2,mbtiauth_4803
2024,"(123, 212, 144)",2,mbtiauth_4803
2025,"(123, 212, 154)",3,mbtiauth_4803
2026,"(123, 223, 2)",3,mbtiauth_4803
2027,"(123, 223, 1300)",2,mbtiauth_4803
2028,"(123, 236, 32)",2,mbtiauth_4803
2029,"(123, 236, 123)",5,mbtiauth_4803
2030,"(123, 236, 193)",2,mbtiauth_4803
2031,"(123, 236, 220)",2,mbtiauth_4803
2032,"(123, 254, 123)",2,mbtiauth_4803
2033,"(123, 256, 77)",2,mbtiauth_4803
2034,"(123, 268, 22)",2,mbtiauth_4803
2035,"(123, 268, 123)",2,mbtiauth_4803
2036,"(123, 268, 193)",2,mbtiauth_4803
2037,"(123, 268, 236)",2,mbtiauth_4803
2038,"(123, 286, 22)",2,mbtiauth_4803
2039,"(123, 286, 32)",2,mbtiauth_4803
2040,"(123, 286, 64)",2,mbtiauth_4803
2041,"(123, 286, 154)",2,mbtiauth_4803
2042,"(123, 286, 170)",2,mbtiauth_4803
2043,"(123, 286, 326)",2,mbtiauth_4803
2044,"(123, 291, 50)",2,mbtiauth_4803
2045,"(123, 291, 65)",2,mbtiauth_4803
2046,"(123, 291, 123)",2,mbtiauth_4803
2047,"(123, 291, 171)",2,mbtiauth_4803
2048,"(123, 291, 236)",2,mbtiauth_4803
2049,"(123, 301, 1219)",2,mbtiauth_4803
2050,"(123, 340, 50)",3,mbtiauth_4803
2051,"(123, 340, 77)",4,mbtiauth_4803
2052,"(123, 340, 123)",4,mbtiauth_4803
2053,"(123, 340, 154)",2,mbtiauth_4803
2054,"(123, 340, 291)",2,mbtiauth_4803
2055,"(123, 340, 599)",2,mbtiauth_4803
2056,"(123, 340, 668)",2,mbtiauth_4803
2057,"(123, 356, 2)",2,mbtiauth_4803
2058,"(123, 356, 64)",2,mbtiauth_4803
2059,"(123, 356, 77)",3,mbtiauth_4803
2060,"(123, 407, 2)",3,mbtiauth_4803
2061,"(123, 407, 3)",2,mbtiauth_4803
2062,"(123, 407, 154)",2,mbtiauth_4803
2063,"(123, 407, 193)",2,mbtiauth_4803
2064,"(123, 411, 2)",3,mbtiauth_4803
2065,"(123, 411, 65)",2,mbtiauth_4803
2066,"(123, 425, 65)",2,mbtiauth_4803
2067,"(123, 441, 2)",2,mbtiauth_4803
2068,"(123, 441, 16)",2,mbtiauth_4803
2069,"(123, 441, 32)",3,mbtiauth_4803
2070,"(123, 441, 65)",2,mbtiauth_4803
2071,"(123, 441, 154)",2,mbtiauth_4803
2072,"(123, 441, 222)",2,mbtiauth_4803
2073,"(123, 444, 65)",2,mbtiauth_4803
2074,"(123, 444, 123)",2,mbtiauth_4803
2075,"(123, 510, 2)",2,mbtiauth_4803
2076,"(123, 599, 22)",2,mbtiauth_4803
2077,"(123, 599, 50)",2,mbtiauth_4803
2078,"(123, 599, 123)",5,mbtiauth_4803
2079,"(123, 599, 154)",2,mbtiauth_4803
2080,"(123, 599, 170)",2,mbtiauth_4803
2081,"(123, 599, 236)",2,mbtiauth_4803
2082,"(123, 613, 910)",2,mbtiauth_4803
2083,"(123, 769, 64)",2,mbtiauth_4803
2084,"(123, 863, 123)",2,mbtiauth_4803
2085,"(123, 879, 291)",2,mbtiauth_4803
2086,"(123, 1217, 65)",2,mbtiauth_4803
2087,"(123, 1217, 123)",2,mbtiauth_4803
2088,"(123, 1217, 291)",3,mbtiauth_4803
2089,"(123, 1252, 22)",2,mbtiauth_4803
2090,"(123, 1252, 158)",2,mbtiauth_4803
2091,"(123, 1331, 32)",2,mbtiauth_4803
2092,"(123, 1737, 65)",2,mbtiauth_4803
2093,"(123, 1737, 171)",2,mbtiauth_4803
2094,"(123, 1737, 291)",2,mbtiauth_4803
2095,"(123, 1834, 64)",4,mbtiauth_4803
2096,"(123, 1834, 67)",2,mbtiauth_4803
2097,"(123, 1834, 77)",2,mbtiauth_4803
2098,"(123, 1834, 599)",2,mbtiauth_4803
2099,"(123, 1913, 65)",2,mbtiauth_4803
2100,"(123, 1913, 164)",2,mbtiauth_4803
2101,"(123, 2097, 2)",2,mbtiauth_4803
2102,"(123, 2097, 77)",2,mbtiauth_4803
2103,"(123, 2097, 599)",2,mbtiauth_4803
2104,"(123, 9521, 64)",2,mbtiauth_4803
2105,"(123, 9521, 158)",2,mbtiauth_4803
2106,"(126, 16, 10)",2,mbtiauth_4803
2107,"(134, 65, 32)",2,mbtiauth_4803
2108,"(134, 77, 32)",3,mbtiauth_4803
2109,"(134, 77, 65)",2,mbtiauth_4803
2110,"(134, 77, 123)",2,mbtiauth_4803
2111,"(134, 77, 134)",2,mbtiauth_4803
2112,"(134, 123, 32)",2,mbtiauth_4803
2113,"(134, 123, 65)",2,mbtiauth_4803
2114,"(134, 123, 134)",2,mbtiauth_4803
2115,"(151, 77, 22)",2,mbtiauth_4803
2116,"(151, 153, 222)",2,mbtiauth_4803
2117,"(154, 10, 65)",2,mbtiauth_4803
2118,"(154, 22, 65)",2,mbtiauth_4803
2119,"(154, 22, 170)",3,mbtiauth_4803
2120,"(154, 65, 75)",2,mbtiauth_4803
2121,"(154, 170, 16)",2,mbtiauth_4803
2122,"(154, 170, 65)",2,mbtiauth_4803
2123,"(158, 50, 77)",2,mbtiauth_4803
2124,"(158, 64, 50)",2,mbtiauth_4803
2125,"(158, 64, 77)",2,mbtiauth_4803
2126,"(162, 77, 65)",2,mbtiauth_4803
2127,"(162, 123, 64)",2,mbtiauth_4803
2128,"(162, 123, 65)",3,mbtiauth_4803
2129,"(162, 123, 77)",2,mbtiauth_4803
2130,"(162, 123, 193)",2,mbtiauth_4803
2131,"(162, 123, 206)",2,mbtiauth_4803
2132,"(162, 123, 236)",2,mbtiauth_4803
2133,"(162, 123, 291)",2,mbtiauth_4803
2134,"(162, 164, 65)",2,mbtiauth_4803
2135,"(162, 193, 64)",3,mbtiauth_4803
2136,"(162, 200, 65)",2,mbtiauth_4803
2137,"(164, 70, 16)",2,mbtiauth_4803
2138,"(164, 164, 123)",2,mbtiauth_4803
2139,"(164, 668, 326)",2,mbtiauth_4803
2140,"(165, 65, 599)",2,mbtiauth_4803
2141,"(165, 77, 599)",2,mbtiauth_4803
2142,"(167, 77, 170)",2,mbtiauth_4803
2143,"(170, 2, 16)",2,mbtiauth_4803
2144,"(170, 10, 2)",2,mbtiauth_4803
2145,"(170, 10, 65)",2,mbtiauth_4803
2146,"(170, 22, 32)",2,mbtiauth_4803
2147,"(170, 33, 22)",2,mbtiauth_4803
2148,"(170, 33, 32)",2,mbtiauth_4803
2149,"(170, 41, 10)",2,mbtiauth_4803
2150,"(170, 64, 10)",2,mbtiauth_4803
2151,"(170, 64, 77)",2,mbtiauth_4803
2152,"(170, 65, 16)",2,mbtiauth_4803
2153,"(170, 123, 1913)",2,mbtiauth_4803
2154,"(170, 151, 153)",3,mbtiauth_4803
2155,"(170, 151, 222)",2,mbtiauth_4803
2156,"(170, 153, 222)",2,mbtiauth_4803
2157,"(170, 244, 123)",2,mbtiauth_4803
2158,"(171, 32, 50)",2,mbtiauth_4803
2159,"(171, 32, 67)",2,mbtiauth_4803
2160,"(171, 65, 65)",2,mbtiauth_4803
2161,"(171, 65, 720)",2,mbtiauth_4803
2162,"(171, 151, 151)",2,mbtiauth_4803
2163,"(171, 720, 65)",2,mbtiauth_4803
2164,"(193, 2, 154)",2,mbtiauth_4803
2165,"(193, 2, 291)",2,mbtiauth_4803
2166,"(193, 10, 65)",2,mbtiauth_4803
2167,"(193, 10, 244)",2,mbtiauth_4803
2168,"(193, 10, 1859)",2,mbtiauth_4803
2169,"(193, 32, 123)",2,mbtiauth_4803
2170,"(193, 32, 220)",2,mbtiauth_4803
2171,"(193, 33, 22)",2,mbtiauth_4803
2172,"(193, 64, 50)",2,mbtiauth_4803
2173,"(193, 64, 67)",2,mbtiauth_4803
2174,"(193, 65, 102)",2,mbtiauth_4803
2175,"(193, 65, 244)",2,mbtiauth_4803
2176,"(193, 65, 291)",2,mbtiauth_4803
2177,"(193, 67, 50)",2,mbtiauth_4803
2178,"(193, 77, 65)",2,mbtiauth_4803
2179,"(193, 77, 154)",2,mbtiauth_4803
2180,"(193, 77, 236)",2,mbtiauth_4803
2181,"(193, 123, 77)",2,mbtiauth_4803
2182,"(193, 123, 220)",2,mbtiauth_4803
2183,"(193, 170, 65)",2,mbtiauth_4803
2184,"(193, 212, 2)",2,mbtiauth_4803
2185,"(193, 236, 65)",2,mbtiauth_4803
2186,"(193, 236, 123)",3,mbtiauth_4803
2187,"(193, 244, 67)",2,mbtiauth_4803
2188,"(193, 599, 236)",2,mbtiauth_4803
2189,"(193, 1351, 77)",2,mbtiauth_4803
2190,"(193, 1351, 123)",2,mbtiauth_4803
2191,"(201, 170, 123)",2,mbtiauth_4803
2192,"(206, 2, 64)",2,mbtiauth_4803
2193,"(206, 2, 77)",2,mbtiauth_4803
2194,"(206, 2, 599)",2,mbtiauth_4803
2195,"(206, 64, 77)",2,mbtiauth_4803
2196,"(206, 64, 599)",2,mbtiauth_4803
2197,"(206, 77, 154)",2,mbtiauth_4803
2198,"(206, 77, 599)",4,mbtiauth_4803
2199,"(206, 291, 77)",2,mbtiauth_4803
2200,"(206, 291, 599)",2,mbtiauth_4803
2201,"(206, 599, 154)",2,mbtiauth_4803
2202,"(210, 668, 50)",2,mbtiauth_4803
2203,"(212, 2, 65)",2,mbtiauth_4803
2204,"(212, 2, 77)",2,mbtiauth_4803
2205,"(212, 2, 170)",4,mbtiauth_4803
2206,"(212, 2, 193)",2,mbtiauth_4803
2207,"(212, 2, 244)",2,mbtiauth_4803
2208,"(212, 193, 170)",2,mbtiauth_4803
2209,"(212, 244, 170)",2,mbtiauth_4803
2210,"(212, 356, 154)",2,mbtiauth_4803
2211,"(212, 381, 77)",2,mbtiauth_4803
2212,"(212, 381, 787)",2,mbtiauth_4803
2213,"(212, 787, 77)",2,mbtiauth_4803
2214,"(212, 1193, 77)",2,mbtiauth_4803
2215,"(212, 1193, 170)",2,mbtiauth_4803
2216,"(222, 65, 260)",2,mbtiauth_4803
2217,"(222, 77, 123)",2,mbtiauth_4803
2218,"(222, 123, 64)",2,mbtiauth_4803
2219,"(222, 123, 206)",2,mbtiauth_4803
2220,"(222, 123, 260)",2,mbtiauth_4803
2221,"(222, 223, 32)",2,mbtiauth_4803
2222,"(222, 254, 123)",2,mbtiauth_4803
2223,"(222, 254, 260)",2,mbtiauth_4803
2224,"(222, 260, 64)",2,mbtiauth_4803
2225,"(223, 2, 1300)",2,mbtiauth_4803
2226,"(226, 41, 254)",2,mbtiauth_4803
2227,"(226, 41, 872)",2,mbtiauth_4803
2228,"(226, 872, 254)",2,mbtiauth_4803
2229,"(226, 2742, 41)",2,mbtiauth_4803
2230,"(226, 2742, 254)",2,mbtiauth_4803
2231,"(226, 2742, 872)",2,mbtiauth_4803
2232,"(236, 10, 65)",3,mbtiauth_4803
2233,"(236, 32, 123)",2,mbtiauth_4803
2234,"(236, 32, 220)",2,mbtiauth_4803
2235,"(236, 41, 77)",2,mbtiauth_4803
2236,"(236, 41, 170)",2,mbtiauth_4803
2237,"(236, 41, 244)",2,mbtiauth_4803
2238,"(236, 64, 67)",2,mbtiauth_4803
2239,"(236, 77, 170)",2,mbtiauth_4803
2240,"(236, 77, 244)",2,mbtiauth_4803
2241,"(236, 123, 123)",2,mbtiauth_4803
2242,"(236, 123, 220)",3,mbtiauth_4803
2243,"(236, 123, 599)",2,mbtiauth_4803
2244,"(236, 123, 1436)",2,mbtiauth_4803
2245,"(236, 170, 5408)",2,mbtiauth_4803
2246,"(236, 193, 32)",2,mbtiauth_4803
2247,"(236, 193, 123)",2,mbtiauth_4803
2248,"(236, 193, 220)",2,mbtiauth_4803
2249,"(236, 200, 152)",2,mbtiauth_4803
2250,"(236, 212, 193)",2,mbtiauth_4803
2251,"(236, 244, 67)",2,mbtiauth_4803
2252,"(236, 244, 170)",2,mbtiauth_4803
2253,"(236, 599, 123)",2,mbtiauth_4803
2254,"(236, 738, 16)",2,mbtiauth_4803
2255,"(244, 22, 170)",2,mbtiauth_4803
2256,"(244, 64, 22)",2,mbtiauth_4803
2257,"(244, 123, 22)",2,mbtiauth_4803
2258,"(244, 123, 32)",2,mbtiauth_4803
2259,"(244, 123, 50)",2,mbtiauth_4803
2260,"(254, 41, 441)",2,mbtiauth_4803
2261,"(254, 123, 260)",3,mbtiauth_4803
2262,"(254, 123, 407)",2,mbtiauth_4803
2263,"(254, 236, 22)",2,mbtiauth_4803
2264,"(268, 123, 193)",2,mbtiauth_4803
2265,"(268, 236, 22)",2,mbtiauth_4803
2266,"(268, 236, 193)",2,mbtiauth_4803
2267,"(280, 65, 22)",2,mbtiauth_4803
2268,"(280, 65, 77)",2,mbtiauth_4803
2269,"(280, 65, 151)",2,mbtiauth_4803
2270,"(280, 65, 720)",2,mbtiauth_4803
2271,"(280, 77, 22)",2,mbtiauth_4803
2272,"(280, 151, 22)",2,mbtiauth_4803
2273,"(280, 151, 77)",2,mbtiauth_4803
2274,"(280, 720, 22)",2,mbtiauth_4803
2275,"(280, 720, 77)",2,mbtiauth_4803
2276,"(280, 720, 151)",2,mbtiauth_4803
2277,"(285, 64, 64)",2,mbtiauth_4803
2278,"(285, 64, 152)",2,mbtiauth_4803
2279,"(285, 64, 1688)",2,mbtiauth_4803
2280,"(285, 1688, 64)",2,mbtiauth_4803
2281,"(286, 22, 77)",2,mbtiauth_4803
2282,"(291, 77, 599)",2,mbtiauth_4803
2283,"(291, 123, 340)",2,mbtiauth_4803
2284,"(291, 171, 32)",2,mbtiauth_4803
2285,"(291, 236, 64)",2,mbtiauth_4803
2286,"(308, 123, 407)",2,mbtiauth_4803
2287,"(308, 189, 50)",2,mbtiauth_4803
2288,"(340, 50, 668)",2,mbtiauth_4803
2289,"(340, 77, 50)",2,mbtiauth_4803
2290,"(340, 77, 123)",2,mbtiauth_4803
2291,"(340, 77, 154)",2,mbtiauth_4803
2292,"(340, 77, 599)",3,mbtiauth_4803
2293,"(340, 123, 50)",2,mbtiauth_4803
2294,"(340, 123, 77)",2,mbtiauth_4803
2295,"(340, 154, 32)",2,mbtiauth_4803
2296,"(340, 599, 123)",2,mbtiauth_4803
2297,"(356, 2, 123)",2,mbtiauth_4803
2298,"(356, 2, 170)",2,mbtiauth_4803
2299,"(356, 2, 212)",2,mbtiauth_4803
2300,"(356, 2, 291)",2,mbtiauth_4803
2301,"(356, 64, 64)",2,mbtiauth_4803
2302,"(356, 64, 77)",2,mbtiauth_4803
2303,"(356, 65, 123)",2,mbtiauth_4803
2304,"(356, 77, 123)",2,mbtiauth_4803
2305,"(356, 152, 291)",2,mbtiauth_4803
2306,"(356, 170, 291)",2,mbtiauth_4803
2307,"(356, 768, 65)",2,mbtiauth_4803
2308,"(356, 768, 291)",2,mbtiauth_4803
2309,"(356, 1217, 65)",2,mbtiauth_4803
2310,"(356, 1217, 123)",2,mbtiauth_4803
2311,"(364, 64, 123)",2,mbtiauth_4803
2312,"(364, 65, 2)",2,mbtiauth_4803
2313,"(364, 123, 64)",2,mbtiauth_4803
2314,"(364, 154, 16)",2,mbtiauth_4803
2315,"(364, 154, 170)",2,mbtiauth_4803
2316,"(364, 170, 16)",2,mbtiauth_4803
2317,"(364, 651, 64)",2,mbtiauth_4803
2318,"(369, 41, 254)",2,mbtiauth_4803
2319,"(369, 41, 872)",2,mbtiauth_4803
2320,"(369, 226, 41)",2,mbtiauth_4803
2321,"(369, 226, 254)",2,mbtiauth_4803
2322,"(369, 226, 872)",2,mbtiauth_4803
2323,"(369, 226, 2742)",2,mbtiauth_4803
2324,"(369, 872, 254)",2,mbtiauth_4803
2325,"(369, 2742, 41)",2,mbtiauth_4803
2326,"(369, 2742, 254)",2,mbtiauth_4803
2327,"(369, 2742, 872)",2,mbtiauth_4803
2328,"(381, 64, 10)",2,mbtiauth_4803
2329,"(381, 77, 260)",2,mbtiauth_4803
2330,"(381, 787, 77)",2,mbtiauth_4803
2331,"(407, 193, 2)",2,mbtiauth_4803
2332,"(441, 32, 65)",2,mbtiauth_4803
2333,"(441, 65, 32)",2,mbtiauth_4803
2334,"(441, 65, 65)",2,mbtiauth_4803
2335,"(441, 77, 123)",2,mbtiauth_4803
2336,"(452, 254, 22)",2,mbtiauth_4803
2337,"(452, 254, 123)",2,mbtiauth_4803
2338,"(452, 951, 22)",2,mbtiauth_4803
2339,"(452, 951, 77)",2,mbtiauth_4803
2340,"(452, 951, 123)",2,mbtiauth_4803
2341,"(452, 951, 254)",2,mbtiauth_4803
2342,"(488, 2, 77)",2,mbtiauth_4803
2343,"(498, 123, 64)",2,mbtiauth_4803
2344,"(520, 50, 668)",2,mbtiauth_4803
2345,"(544, 170, 326)",2,mbtiauth_4803
2346,"(599, 10, 65)",2,mbtiauth_4803
2347,"(599, 32, 22)",2,mbtiauth_4803
2348,"(599, 50, 170)",2,mbtiauth_4803
2349,"(599, 123, 65)",2,mbtiauth_4803
2350,"(599, 123, 123)",2,mbtiauth_4803
2351,"(599, 123, 144)",2,mbtiauth_4803
2352,"(599, 123, 154)",2,mbtiauth_4803
2353,"(599, 123, 411)",2,mbtiauth_4803
2354,"(599, 123, 441)",2,mbtiauth_4803
2355,"(599, 123, 520)",2,mbtiauth_4803
2356,"(599, 123, 863)",2,mbtiauth_4803
2357,"(599, 201, 170)",2,mbtiauth_4803
2358,"(599, 236, 10)",2,mbtiauth_4803
2359,"(599, 236, 65)",2,mbtiauth_4803
2360,"(599, 236, 123)",2,mbtiauth_4803
2361,"(599, 349, 22)",2,mbtiauth_4803
2362,"(599, 411, 65)",2,mbtiauth_4803
2363,"(599, 693, 170)",2,mbtiauth_4803
2364,"(608, 78, 65)",2,mbtiauth_4803
2365,"(608, 78, 70)",2,mbtiauth_4803
2366,"(653, 206, 65)",2,mbtiauth_4803
2367,"(653, 356, 212)",2,mbtiauth_4803
2368,"(693, 10, 65)",2,mbtiauth_4803
2369,"(720, 77, 22)",3,mbtiauth_4803
2370,"(720, 77, 599)",2,mbtiauth_4803
2371,"(720, 151, 22)",2,mbtiauth_4803
2372,"(720, 151, 77)",2,mbtiauth_4803
2373,"(768, 2, 170)",2,mbtiauth_4803
2374,"(768, 65, 291)",2,mbtiauth_4803
2375,"(768, 212, 2)",2,mbtiauth_4803
2376,"(768, 212, 170)",2,mbtiauth_4803
2377,"(951, 77, 22)",2,mbtiauth_4803
2378,"(951, 77, 123)",3,mbtiauth_4803
2379,"(951, 77, 599)",2,mbtiauth_4803
2380,"(951, 120, 22)",2,mbtiauth_4803
2381,"(951, 123, 22)",2,mbtiauth_4803
2382,"(951, 123, 77)",2,mbtiauth_4803
2383,"(951, 123, 120)",2,mbtiauth_4803
2384,"(951, 254, 22)",2,mbtiauth_4803
2385,"(951, 254, 123)",2,mbtiauth_4803
2386,"(951, 291, 22)",2,mbtiauth_4803
2387,"(951, 291, 77)",2,mbtiauth_4803
2388,"(951, 291, 123)",2,mbtiauth_4803
2389,"(951, 599, 123)",2,mbtiauth_4803
2390,"(951, 1027, 123)",2,mbtiauth_4803
2391,"(1217, 65, 123)",2,mbtiauth_4803
2392,"(1220, 77, 123)",2,mbtiauth_4803
2393,"(1220, 77, 154)",2,mbtiauth_4803
2394,"(1226, 2, 32)",2,mbtiauth_4803
2395,"(1226, 64, 32)",2,mbtiauth_4803
2396,"(1252, 158, 22)",2,mbtiauth_4803
2397,"(1331, 32, 65)",2,mbtiauth_4803
2398,"(1351, 123, 77)",2,mbtiauth_4803
2399,"(1389, 2556, 77)",2,mbtiauth_4803
2400,"(1488, 41, 2)",2,mbtiauth_4803
2401,"(1737, 171, 32)",2,mbtiauth_4803
2402,"(1737, 291, 32)",2,mbtiauth_4803
2403,"(1737, 291, 171)",2,mbtiauth_4803
2404,"(1834, 64, 67)",2,mbtiauth_4803
2405,"(1834, 64, 77)",2,mbtiauth_4803
2406,"(1834, 64, 599)",2,mbtiauth_4803
2407,"(1834, 77, 599)",2,mbtiauth_4803
2408,"(2010, 41, 254)",2,mbtiauth_4803
2409,"(2010, 41, 872)",2,mbtiauth_4803
2410,"(2010, 226, 41)",2,mbtiauth_4803
2411,"(2010, 226, 254)",2,mbtiauth_4803
2412,"(2010, 226, 872)",2,mbtiauth_4803
2413,"(2010, 226, 2742)",2,mbtiauth_4803
2414,"(2010, 369, 41)",2,mbtiauth_4803
2415,"(2010, 369, 226)",2,mbtiauth_4803
2416,"(2010, 369, 254)",2,mbtiauth_4803
2417,"(2010, 369, 872)",2,mbtiauth_4803
2418,"(2010, 369, 2742)",2,mbtiauth_4803
2419,"(2010, 872, 254)",2,mbtiauth_4803
2420,"(2010, 2742, 41)",2,mbtiauth_4803
2421,"(2010, 2742, 254)",2,mbtiauth_4803
2422,"(2010, 2742, 872)",2,mbtiauth_4803
2423,"(2097, 2, 77)",2,mbtiauth_4803
2424,"(2097, 2, 599)",2,mbtiauth_4803
2425,"(2097, 77, 599)",2,mbtiauth_4803
2426,"(2556, 77, 123)",2,mbtiauth_4803
2427,"(2742, 41, 254)",2,mbtiauth_4803
2428,"(2742, 41, 872)",2,mbtiauth_4803
2429,"(2742, 872, 254)",2,mbtiauth_4803
2430,"(3993, 33, 22)",2,mbtiauth_4803
2431,"(9521, 50, 77)",2,mbtiauth_4803
2432,"(9521, 64, 50)",2,mbtiauth_4803
2433,"(9521, 64, 77)",2,mbtiauth_4803
2434,"(9521, 158, 50)",2,mbtiauth_4803
2435,"(9521, 158, 64)",3,mbtiauth_4803
2436,"(9521, 158, 77)",2,mbtiauth_4803
2437,"(2, 50, 77, 2)",2,mbtiauth_4803
2438,"(2, 65, 301, 520)",2,mbtiauth_4803
2439,"(2, 77, 599, 123)",2,mbtiauth_4803
2440,"(2, 77, 599, 151)",2,mbtiauth_4803
2441,"(2, 77, 599, 170)",2,mbtiauth_4803
2442,"(2, 123, 50, 64)",2,mbtiauth_4803
2443,"(2, 151, 153, 222)",2,mbtiauth_4803
2444,"(2, 244, 123, 22)",2,mbtiauth_4803
2445,"(10, 2, 244, 123)",2,mbtiauth_4803
2446,"(10, 65, 77, 599)",2,mbtiauth_4803
2447,"(10, 77, 693, 64)",2,mbtiauth_4803
2448,"(16, 77, 599, 236)",2,mbtiauth_4803
2449,"(32, 50, 65, 32)",2,mbtiauth_4803
2450,"(32, 50, 123, 32)",2,mbtiauth_4803
2451,"(32, 50, 123, 65)",2,mbtiauth_4803
2452,"(32, 123, 65, 32)",2,mbtiauth_4803
2453,"(32, 170, 33, 22)",2,mbtiauth_4803
2454,"(41, 77, 244, 170)",2,mbtiauth_4803
2455,"(41, 381, 787, 77)",2,mbtiauth_4803
2456,"(50, 64, 22, 32)",2,mbtiauth_4803
2457,"(50, 67, 65, 254)",2,mbtiauth_4803
2458,"(50, 123, 65, 32)",2,mbtiauth_4803
2459,"(50, 123, 613, 910)",2,mbtiauth_4803
2460,"(50, 170, 151, 153)",2,mbtiauth_4803
2461,"(50, 544, 170, 326)",2,mbtiauth_4803
2462,"(64, 64, 50, 77)",2,mbtiauth_4803
2463,"(64, 77, 599, 16)",2,mbtiauth_4803
2464,"(64, 158, 50, 77)",2,mbtiauth_4803
2465,"(64, 158, 64, 50)",2,mbtiauth_4803
2466,"(64, 158, 64, 77)",2,mbtiauth_4803
2467,"(64, 193, 77, 236)",2,mbtiauth_4803
2468,"(64, 9521, 50, 77)",2,mbtiauth_4803
2469,"(64, 9521, 64, 50)",2,mbtiauth_4803
2470,"(64, 9521, 64, 77)",2,mbtiauth_4803
2471,"(64, 9521, 158, 50)",2,mbtiauth_4803
2472,"(64, 9521, 158, 64)",2,mbtiauth_4803
2473,"(64, 9521, 158, 77)",2,mbtiauth_4803
2474,"(65, 2, 65, 65)",2,mbtiauth_4803
2475,"(65, 32, 65, 32)",2,mbtiauth_4803
2476,"(65, 77, 77, 599)",2,mbtiauth_4803
2477,"(65, 77, 123, 260)",2,mbtiauth_4803
2478,"(65, 77, 254, 22)",2,mbtiauth_4803
2479,"(65, 77, 254, 123)",3,mbtiauth_4803
2480,"(65, 77, 254, 260)",2,mbtiauth_4803
2481,"(65, 77, 254, 291)",2,mbtiauth_4803
2482,"(65, 77, 349, 22)",2,mbtiauth_4803
2483,"(65, 77, 599, 22)",2,mbtiauth_4803
2484,"(65, 77, 599, 349)",2,mbtiauth_4803
2485,"(65, 151, 77, 22)",2,mbtiauth_4803
2486,"(65, 254, 123, 260)",2,mbtiauth_4803
2487,"(65, 599, 349, 22)",2,mbtiauth_4803
2488,"(65, 720, 77, 22)",3,mbtiauth_4803
2489,"(65, 720, 77, 599)",2,mbtiauth_4803
2490,"(65, 720, 151, 22)",2,mbtiauth_4803
2491,"(65, 720, 151, 77)",2,mbtiauth_4803
2492,"(65, 1331, 32, 65)",2,mbtiauth_4803
2493,"(67, 77, 599, 22)",2,mbtiauth_4803
2494,"(77, 32, 33, 22)",2,mbtiauth_4803
2495,"(77, 65, 32, 65)",2,mbtiauth_4803
2496,"(77, 65, 301, 1219)",2,mbtiauth_4803
2497,"(77, 123, 22, 73)",2,mbtiauth_4803
2498,"(77, 123, 65, 32)",2,mbtiauth_4803
2499,"(77, 123, 212, 154)",2,mbtiauth_4803
2500,"(77, 123, 411, 2)",2,mbtiauth_4803
2501,"(77, 154, 22, 170)",2,mbtiauth_4803
2502,"(77, 236, 10, 65)",3,mbtiauth_4803
2503,"(77, 244, 64, 22)",2,mbtiauth_4803
2504,"(77, 254, 123, 260)",2,mbtiauth_4803
2505,"(77, 599, 10, 65)",2,mbtiauth_4803
2506,"(77, 599, 32, 22)",2,mbtiauth_4803
2507,"(77, 599, 50, 170)",2,mbtiauth_4803
2508,"(77, 599, 123, 154)",2,mbtiauth_4803
2509,"(77, 599, 123, 520)",2,mbtiauth_4803
2510,"(77, 599, 201, 170)",2,mbtiauth_4803
2511,"(77, 599, 236, 10)",2,mbtiauth_4803
2512,"(77, 599, 236, 65)",2,mbtiauth_4803
2513,"(77, 599, 349, 22)",2,mbtiauth_4803
2514,"(77, 599, 693, 170)",2,mbtiauth_4803
2515,"(78, 608, 78, 65)",2,mbtiauth_4803
2516,"(78, 608, 78, 70)",2,mbtiauth_4803
2517,"(120, 77, 123, 154)",2,mbtiauth_4803
2518,"(120, 77, 123, 340)",2,mbtiauth_4803
2519,"(120, 77, 599, 123)",2,mbtiauth_4803
2520,"(120, 340, 77, 123)",2,mbtiauth_4803
2521,"(120, 340, 77, 599)",3,mbtiauth_4803
2522,"(120, 340, 599, 123)",2,mbtiauth_4803
2523,"(123, 2, 64, 67)",2,mbtiauth_4803
2524,"(123, 2, 77, 170)",2,mbtiauth_4803
2525,"(123, 2, 77, 599)",4,mbtiauth_4803
2526,"(123, 2, 599, 170)",2,mbtiauth_4803
2527,"(123, 22, 32, 123)",2,mbtiauth_4803
2528,"(123, 32, 599, 123)",2,mbtiauth_4803
2529,"(123, 50, 46, 356)",2,mbtiauth_4803
2530,"(123, 64, 50, 77)",2,mbtiauth_4803
2531,"(123, 64, 64, 77)",2,mbtiauth_4803
2532,"(123, 64, 67, 32)",3,mbtiauth_4803
2533,"(123, 64, 77, 31)",2,mbtiauth_4803
2534,"(123, 64, 77, 197)",2,mbtiauth_4803
2535,"(123, 64, 77, 599)",3,mbtiauth_4803
2536,"(123, 64, 193, 77)",2,mbtiauth_4803
2537,"(123, 64, 356, 77)",2,mbtiauth_4803
2538,"(123, 65, 32, 50)",2,mbtiauth_4803
2539,"(123, 65, 32, 65)",3,mbtiauth_4803
2540,"(123, 65, 65, 254)",2,mbtiauth_4803
2541,"(123, 65, 301, 1219)",2,mbtiauth_4803
2542,"(123, 65, 444, 65)",2,mbtiauth_4803
2543,"(123, 65, 444, 123)",2,mbtiauth_4803
2544,"(123, 65, 1331, 32)",2,mbtiauth_4803
2545,"(123, 67, 32, 50)",2,mbtiauth_4803
2546,"(123, 77, 2, 50)",2,mbtiauth_4803
2547,"(123, 77, 65, 32)",2,mbtiauth_4803
2548,"(123, 77, 65, 301)",2,mbtiauth_4803
2549,"(123, 77, 65, 1219)",2,mbtiauth_4803
2550,"(123, 77, 123, 32)",2,mbtiauth_4803
2551,"(123, 77, 123, 50)",2,mbtiauth_4803
2552,"(123, 77, 123, 65)",3,mbtiauth_4803
2553,"(123, 77, 123, 134)",2,mbtiauth_4803
2554,"(123, 77, 123, 154)",2,mbtiauth_4803
2555,"(123, 77, 123, 340)",2,mbtiauth_4803
2556,"(123, 77, 123, 411)",2,mbtiauth_4803
2557,"(123, 77, 154, 22)",2,mbtiauth_4803
2558,"(123, 77, 301, 1219)",2,mbtiauth_4803
2559,"(123, 77, 599, 22)",2,mbtiauth_4803
2560,"(123, 77, 599, 50)",2,mbtiauth_4803
2561,"(123, 77, 599, 123)",3,mbtiauth_4803
2562,"(123, 77, 599, 154)",2,mbtiauth_4803
2563,"(123, 77, 599, 170)",2,mbtiauth_4803
2564,"(123, 77, 1834, 64)",2,mbtiauth_4803
2565,"(123, 120, 22, 50)",2,mbtiauth_4803
2566,"(123, 120, 65, 65)",2,mbtiauth_4803
2567,"(123, 120, 77, 123)",4,mbtiauth_4803
2568,"(123, 120, 77, 154)",2,mbtiauth_4803
2569,"(123, 120, 77, 340)",2,mbtiauth_4803
2570,"(123, 120, 77, 599)",2,mbtiauth_4803
2571,"(123, 120, 123, 154)",2,mbtiauth_4803
2572,"(123, 120, 123, 340)",2,mbtiauth_4803
2573,"(123, 120, 286, 32)",2,mbtiauth_4803
2574,"(123, 120, 286, 326)",2,mbtiauth_4803
2575,"(123, 120, 340, 50)",2,mbtiauth_4803
2576,"(123, 120, 340, 77)",3,mbtiauth_4803
2577,"(123, 120, 340, 123)",2,mbtiauth_4803
2578,"(123, 120, 340, 599)",2,mbtiauth_4803
2579,"(123, 120, 599, 123)",2,mbtiauth_4803
2580,"(123, 123, 65, 32)",3,mbtiauth_4803
2581,"(123, 123, 77, 123)",3,mbtiauth_4803
2582,"(123, 123, 77, 599)",2,mbtiauth_4803
2583,"(123, 123, 599, 123)",3,mbtiauth_4803
2584,"(123, 123, 613, 910)",2,mbtiauth_4803
2585,"(123, 134, 65, 32)",2,mbtiauth_4803
2586,"(123, 134, 77, 32)",2,mbtiauth_4803
2587,"(123, 134, 77, 65)",2,mbtiauth_4803
2588,"(123, 134, 77, 123)",2,mbtiauth_4803
2589,"(123, 134, 77, 134)",2,mbtiauth_4803
2590,"(123, 134, 123, 32)",2,mbtiauth_4803
2591,"(123, 134, 123, 65)",2,mbtiauth_4803
2592,"(123, 134, 123, 134)",2,mbtiauth_4803
2593,"(123, 154, 22, 170)",2,mbtiauth_4803
2594,"(123, 162, 123, 193)",2,mbtiauth_4803
2595,"(123, 193, 77, 154)",2,mbtiauth_4803
2596,"(123, 193, 77, 236)",2,mbtiauth_4803
2597,"(123, 193, 236, 123)",3,mbtiauth_4803
2598,"(123, 193, 599, 236)",2,mbtiauth_4803
2599,"(123, 206, 77, 154)",2,mbtiauth_4803
2600,"(123, 206, 77, 599)",3,mbtiauth_4803
2601,"(123, 206, 599, 154)",2,mbtiauth_4803
2602,"(123, 223, 2, 1300)",2,mbtiauth_4803
2603,"(123, 236, 123, 220)",2,mbtiauth_4803
2604,"(123, 236, 193, 32)",2,mbtiauth_4803
2605,"(123, 268, 123, 193)",2,mbtiauth_4803
2606,"(123, 268, 236, 193)",2,mbtiauth_4803
2607,"(123, 340, 50, 668)",2,mbtiauth_4803
2608,"(123, 340, 77, 50)",2,mbtiauth_4803
2609,"(123, 340, 77, 123)",2,mbtiauth_4803
2610,"(123, 340, 77, 599)",2,mbtiauth_4803
2611,"(123, 340, 123, 50)",2,mbtiauth_4803
2612,"(123, 340, 123, 77)",2,mbtiauth_4803
2613,"(123, 340, 599, 123)",2,mbtiauth_4803
2614,"(123, 407, 193, 2)",2,mbtiauth_4803
2615,"(123, 441, 32, 65)",2,mbtiauth_4803
2616,"(123, 441, 65, 32)",2,mbtiauth_4803
2617,"(123, 441, 65, 65)",2,mbtiauth_4803
2618,"(123, 1217, 65, 123)",2,mbtiauth_4803
2619,"(123, 1252, 158, 22)",2,mbtiauth_4803
2620,"(123, 1737, 291, 171)",2,mbtiauth_4803
2621,"(123, 1834, 64, 67)",2,mbtiauth_4803
2622,"(123, 1834, 64, 77)",2,mbtiauth_4803
2623,"(123, 1834, 64, 599)",2,mbtiauth_4803
2624,"(123, 1834, 77, 599)",2,mbtiauth_4803
2625,"(123, 2097, 2, 77)",2,mbtiauth_4803
2626,"(123, 2097, 2, 599)",2,mbtiauth_4803
2627,"(123, 2097, 77, 599)",2,mbtiauth_4803
2628,"(123, 9521, 158, 64)",2,mbtiauth_4803
2629,"(134, 77, 65, 32)",2,mbtiauth_4803
2630,"(134, 77, 123, 32)",2,mbtiauth_4803
2631,"(134, 77, 123, 65)",2,mbtiauth_4803
2632,"(134, 77, 123, 134)",2,mbtiauth_4803
2633,"(134, 123, 65, 32)",2,mbtiauth_4803
2634,"(158, 64, 50, 77)",2,mbtiauth_4803
2635,"(162, 123, 77, 65)",2,mbtiauth_4803
2636,"(170, 33, 22, 32)",2,mbtiauth_4803
2637,"(170, 151, 153, 222)",2,mbtiauth_4803
2638,"(171, 65, 720, 65)",2,mbtiauth_4803
2639,"(193, 10, 65, 244)",2,mbtiauth_4803
2640,"(193, 32, 123, 220)",2,mbtiauth_4803
2641,"(193, 64, 67, 50)",2,mbtiauth_4803
2642,"(193, 77, 236, 65)",2,mbtiauth_4803
2643,"(193, 1351, 123, 77)",2,mbtiauth_4803
2644,"(206, 2, 77, 599)",2,mbtiauth_4803
2645,"(206, 64, 77, 599)",2,mbtiauth_4803
2646,"(206, 77, 599, 154)",2,mbtiauth_4803
2647,"(206, 291, 77, 599)",2,mbtiauth_4803
2648,"(212, 2, 193, 170)",2,mbtiauth_4803
2649,"(212, 2, 244, 170)",2,mbtiauth_4803
2650,"(212, 381, 787, 77)",2,mbtiauth_4803
2651,"(222, 254, 123, 260)",2,mbtiauth_4803
2652,"(226, 41, 872, 254)",2,mbtiauth_4803
2653,"(226, 2742, 41, 254)",2,mbtiauth_4803
2654,"(226, 2742, 41, 872)",2,mbtiauth_4803
2655,"(226, 2742, 872, 254)",2,mbtiauth_4803
2656,"(236, 32, 123, 220)",2,mbtiauth_4803
2657,"(236, 41, 77, 170)",2,mbtiauth_4803
2658,"(236, 41, 77, 244)",2,mbtiauth_4803
2659,"(236, 41, 244, 170)",2,mbtiauth_4803
2660,"(236, 77, 244, 170)",2,mbtiauth_4803
2661,"(236, 123, 599, 123)",2,mbtiauth_4803
2662,"(236, 193, 32, 123)",2,mbtiauth_4803
2663,"(236, 193, 32, 220)",2,mbtiauth_4803
2664,"(236, 193, 123, 220)",2,mbtiauth_4803
2665,"(280, 65, 77, 22)",2,mbtiauth_4803
2666,"(280, 65, 151, 22)",2,mbtiauth_4803
2667,"(280, 65, 151, 77)",2,mbtiauth_4803
2668,"(280, 65, 720, 22)",2,mbtiauth_4803
2669,"(280, 65, 720, 77)",2,mbtiauth_4803
2670,"(280, 65, 720, 151)",2,mbtiauth_4803
2671,"(280, 151, 77, 22)",2,mbtiauth_4803
2672,"(280, 720, 77, 22)",2,mbtiauth_4803
2673,"(280, 720, 151, 22)",2,mbtiauth_4803
2674,"(280, 720, 151, 77)",2,mbtiauth_4803
2675,"(285, 64, 1688, 64)",2,mbtiauth_4803
2676,"(340, 77, 599, 123)",2,mbtiauth_4803
2677,"(356, 1217, 65, 123)",2,mbtiauth_4803
2678,"(364, 154, 170, 16)",2,mbtiauth_4803
2679,"(369, 41, 872, 254)",2,mbtiauth_4803
2680,"(369, 226, 41, 254)",2,mbtiauth_4803
2681,"(369, 226, 41, 872)",2,mbtiauth_4803
2682,"(369, 226, 872, 254)",2,mbtiauth_4803
2683,"(369, 226, 2742, 41)",2,mbtiauth_4803
2684,"(369, 226, 2742, 254)",2,mbtiauth_4803
2685,"(369, 226, 2742, 872)",2,mbtiauth_4803
2686,"(369, 2742, 41, 254)",2,mbtiauth_4803
2687,"(369, 2742, 41, 872)",2,mbtiauth_4803
2688,"(369, 2742, 872, 254)",2,mbtiauth_4803
2689,"(441, 65, 32, 65)",2,mbtiauth_4803
2690,"(452, 951, 254, 22)",2,mbtiauth_4803
2691,"(452, 951, 254, 123)",2,mbtiauth_4803
2692,"(599, 123, 411, 65)",2,mbtiauth_4803
2693,"(599, 236, 10, 65)",2,mbtiauth_4803
2694,"(720, 151, 77, 22)",2,mbtiauth_4803
2695,"(768, 212, 2, 170)",2,mbtiauth_4803
2696,"(951, 77, 123, 22)",2,mbtiauth_4803
2697,"(951, 77, 599, 123)",2,mbtiauth_4803
2698,"(951, 123, 120, 22)",2,mbtiauth_4803
2699,"(1737, 291, 171, 32)",2,mbtiauth_4803
2700,"(1834, 64, 77, 599)",2,mbtiauth_4803
2701,"(2010, 41, 872, 254)",2,mbtiauth_4803
2702,"(2010, 226, 41, 254)",2,mbtiauth_4803
2703,"(2010, 226, 41, 872)",2,mbtiauth_4803
2704,"(2010, 226, 872, 254)",2,mbtiauth_4803
2705,"(2010, 226, 2742, 41)",2,mbtiauth_4803
2706,"(2010, 226, 2742, 254)",2,mbtiauth_4803
2707,"(2010, 226, 2742, 872)",2,mbtiauth_4803
2708,"(2010, 369, 41, 254)",2,mbtiauth_4803
2709,"(2010, 369, 41, 872)",2,mbtiauth_4803
2710,"(2010, 369, 226, 41)",2,mbtiauth_4803
2711,"(2010, 369, 226, 254)",2,mbtiauth_4803
2712,"(2010, 369, 226, 872)",2,mbtiauth_4803
2713,"(2010, 369, 226, 2742)",2,mbtiauth_4803
2714,"(2010, 369, 872, 254)",2,mbtiauth_4803
2715,"(2010, 369, 2742, 41)",2,mbtiauth_4803
2716,"(2010, 369, 2742, 254)",2,mbtiauth_4803
2717,"(2010, 369, 2742, 872)",2,mbtiauth_4803
2718,"(2010, 2742, 41, 254)",2,mbtiauth_4803
2719,"(2010, 2742, 41, 872)",2,mbtiauth_4803
2720,"(2010, 2742, 872, 254)",2,mbtiauth_4803
2721,"(2097, 2, 77, 599)",2,mbtiauth_4803
2722,"(2742, 41, 872, 254)",2,mbtiauth_4803
2723,"(9521, 64, 50, 77)",2,mbtiauth_4803
2724,"(9521, 158, 50, 77)",2,mbtiauth_4803
2725,"(9521, 158, 64, 50)",2,mbtiauth_4803
2726,"(9521, 158, 64, 77)",2,mbtiauth_4803
2727,"(32, 50, 123, 65, 32)",2,mbtiauth_4803
2728,"(64, 158, 64, 50, 77)",2,mbtiauth_4803
2729,"(64, 9521, 64, 50, 77)",2,mbtiauth_4803
2730,"(64, 9521, 158, 50, 77)",2,mbtiauth_4803
2731,"(64, 9521, 158, 64, 50)",2,mbtiauth_4803
2732,"(64, 9521, 158, 64, 77)",2,mbtiauth_4803
2733,"(65, 77, 254, 123, 260)",2,mbtiauth_4803
2734,"(65, 77, 599, 349, 22)",2,mbtiauth_4803
2735,"(65, 720, 151, 77, 22)",2,mbtiauth_4803
2736,"(77, 599, 236, 10, 65)",2,mbtiauth_4803
2737,"(120, 340, 77, 599, 123)",2,mbtiauth_4803
2738,"(123, 2, 77, 599, 170)",2,mbtiauth_4803
2739,"(123, 77, 65, 301, 1219)",2,mbtiauth_4803
2740,"(123, 77, 123, 65, 32)",2,mbtiauth_4803
2741,"(123, 120, 77, 123, 154)",2,mbtiauth_4803
2742,"(123, 120, 77, 123, 340)",2,mbtiauth_4803
2743,"(123, 120, 77, 599, 123)",2,mbtiauth_4803
2744,"(123, 120, 340, 77, 123)",2,mbtiauth_4803
2745,"(123, 120, 340, 77, 599)",2,mbtiauth_4803
2746,"(123, 120, 340, 599, 123)",2,mbtiauth_4803
2747,"(123, 123, 77, 599, 123)",2,mbtiauth_4803
2748,"(123, 134, 77, 65, 32)",2,mbtiauth_4803
2749,"(123, 134, 77, 123, 32)",2,mbtiauth_4803
2750,"(123, 134, 77, 123, 65)",2,mbtiauth_4803
2751,"(123, 134, 77, 123, 134)",2,mbtiauth_4803
2752,"(123, 134, 123, 65, 32)",2,mbtiauth_4803
2753,"(123, 206, 77, 599, 154)",2,mbtiauth_4803
2754,"(123, 340, 77, 599, 123)",2,mbtiauth_4803
2755,"(123, 441, 65, 32, 65)",2,mbtiauth_4803
2756,"(123, 1834, 64, 77, 599)",2,mbtiauth_4803
2757,"(123, 2097, 2, 77, 599)",2,mbtiauth_4803
2758,"(134, 77, 123, 65, 32)",2,mbtiauth_4803
2759,"(226, 2742, 41, 872, 254)",2,mbtiauth_4803
2760,"(236, 41, 77, 244, 170)",2,mbtiauth_4803
2761,"(236, 193, 32, 123, 220)",2,mbtiauth_4803
2762,"(280, 65, 151, 77, 22)",2,mbtiauth_4803
2763,"(280, 65, 720, 77, 22)",2,mbtiauth_4803
2764,"(280, 65, 720, 151, 22)",2,mbtiauth_4803
2765,"(280, 65, 720, 151, 77)",2,mbtiauth_4803
2766,"(280, 720, 151, 77, 22)",2,mbtiauth_4803
2767,"(369, 226, 41, 872, 254)",2,mbtiauth_4803
2768,"(369, 226, 2742, 41, 254)",2,mbtiauth_4803
2769,"(369, 226, 2742, 41, 872)",2,mbtiauth_4803
2770,"(369, 226, 2742, 872, 254)",2,mbtiauth_4803
2771,"(369, 2742, 41, 872, 254)",2,mbtiauth_4803
2772,"(2010, 226, 41, 872, 254)",2,mbtiauth_4803
2773,"(2010, 226, 2742, 41, 254)",2,mbtiauth_4803
2774,"(2010, 226, 2742, 41, 872)",2,mbtiauth_4803
2775,"(2010, 226, 2742, 872, 254)",2,mbtiauth_4803
2776,"(2010, 369, 41, 872, 254)",2,mbtiauth_4803
2777,"(2010, 369, 226, 41, 254)",2,mbtiauth_4803
2778,"(2010, 369, 226, 41, 872)",2,mbtiauth_4803
2779,"(2010, 369, 226, 872, 254)",2,mbtiauth_4803
2780,"(2010, 369, 226, 2742, 41)",2,mbtiauth_4803
2781,"(2010, 369, 226, 2742, 254)",2,mbtiauth_4803
2782,"(2010, 369, 226, 2742, 872)",2,mbtiauth_4803
2783,"(2010, 369, 2742, 41, 254)",2,mbtiauth_4803
2784,"(2010, 369, 2742, 41, 872)",2,mbtiauth_4803
2785,"(2010, 369, 2742, 872, 254)",2,mbtiauth_4803
2786,"(2010, 2742, 41, 872, 254)",2,mbtiauth_4803
2787,"(9521, 158, 64, 50, 77)",2,mbtiauth_4803
2788,"(64, 9521, 158, 64, 50, 77)",2,mbtiauth_4803
2789,"(123, 120, 340, 77, 599, 123)",2,mbtiauth_4803
2790,"(123, 134, 77, 123, 65, 32)",2,mbtiauth_4803
2791,"(280, 65, 720, 151, 77, 22)",2,mbtiauth_4803
2792,"(369, 226, 2742, 41, 872, 254)",2,mbtiauth_4803
2793,"(2010, 226, 2742, 41, 872, 254)",2,mbtiauth_4803
2794,"(2010, 369, 226, 41, 872, 254)",2,mbtiauth_4803
2795,"(2010, 369, 226, 2742, 41, 254)",2,mbtiauth_4803
2796,"(2010, 369, 226, 2742, 41, 872)",2,mbtiauth_4803
2797,"(2010, 369, 226, 2742, 872, 254)",2,mbtiauth_4803
2798,"(2010, 369, 2742, 41, 872, 254)",2,mbtiauth_4803
2799,"(2010, 369, 226, 2742, 41, 872, 254)",2,mbtiauth_4803
