,pattern,sup,author
857,"(2, 120, 123)",2,mbtiauth_5835
858,"(2, 123, 64)",2,mbtiauth_5835
859,"(2, 123, 120)",2,mbtiauth_5835
860,"(2, 123, 123)",2,mbtiauth_5835
861,"(8, 8, 26)",3,mbtiauth_5835
862,"(8, 8, 28)",3,mbtiauth_5835
863,"(8, 8, 77)",2,mbtiauth_5835
864,"(8, 8, 262)",3,mbtiauth_5835
865,"(8, 26, 8)",3,mbtiauth_5835
866,"(8, 26, 26)",3,mbtiauth_5835
867,"(8, 26, 28)",3,mbtiauth_5835
868,"(8, 26, 77)",2,mbtiauth_5835
869,"(8, 26, 262)",3,mbtiauth_5835
870,"(8, 28, 8)",3,mbtiauth_5835
871,"(8, 28, 26)",5,mbtiauth_5835
872,"(8, 28, 28)",3,mbtiauth_5835
873,"(8, 28, 77)",2,mbtiauth_5835
874,"(8, 28, 262)",3,mbtiauth_5835
875,"(8, 262, 77)",2,mbtiauth_5835
876,"(10, 13, 164)",2,mbtiauth_5835
877,"(10, 50, 33)",2,mbtiauth_5835
878,"(10, 50, 123)",2,mbtiauth_5835
879,"(10, 123, 22)",2,mbtiauth_5835
880,"(10, 164, 50)",2,mbtiauth_5835
881,"(16, 77, 32)",2,mbtiauth_5835
882,"(22, 2, 170)",2,mbtiauth_5835
883,"(22, 201, 170)",2,mbtiauth_5835
884,"(22, 262, 170)",2,mbtiauth_5835
885,"(22, 599, 123)",3,mbtiauth_5835
886,"(22, 599, 206)",2,mbtiauth_5835
887,"(26, 8, 26)",3,mbtiauth_5835
888,"(26, 8, 28)",3,mbtiauth_5835
889,"(26, 8, 77)",2,mbtiauth_5835
890,"(26, 8, 262)",3,mbtiauth_5835
891,"(26, 26, 77)",2,mbtiauth_5835
892,"(26, 26, 262)",3,mbtiauth_5835
893,"(26, 28, 26)",3,mbtiauth_5835
894,"(26, 28, 77)",2,mbtiauth_5835
895,"(26, 28, 262)",3,mbtiauth_5835
896,"(26, 262, 77)",2,mbtiauth_5835
897,"(28, 8, 26)",3,mbtiauth_5835
898,"(28, 8, 28)",3,mbtiauth_5835
899,"(28, 8, 77)",2,mbtiauth_5835
900,"(28, 8, 262)",3,mbtiauth_5835
901,"(28, 26, 8)",3,mbtiauth_5835
902,"(28, 26, 26)",3,mbtiauth_5835
903,"(28, 26, 28)",3,mbtiauth_5835
904,"(28, 26, 30)",2,mbtiauth_5835
905,"(28, 26, 77)",2,mbtiauth_5835
906,"(28, 26, 262)",3,mbtiauth_5835
907,"(28, 28, 26)",3,mbtiauth_5835
908,"(28, 28, 77)",2,mbtiauth_5835
909,"(28, 28, 262)",3,mbtiauth_5835
910,"(28, 262, 77)",2,mbtiauth_5835
911,"(30, 30, 65)",3,mbtiauth_5835
912,"(30, 30, 123)",2,mbtiauth_5835
913,"(30, 123, 65)",2,mbtiauth_5835
914,"(32, 123, 65)",2,mbtiauth_5835
915,"(32, 123, 193)",2,mbtiauth_5835
916,"(33, 10, 22)",2,mbtiauth_5835
917,"(41, 64, 41)",2,mbtiauth_5835
918,"(41, 123, 64)",2,mbtiauth_5835
919,"(41, 123, 120)",2,mbtiauth_5835
920,"(41, 1014, 64)",2,mbtiauth_5835
921,"(50, 16, 14425)",2,mbtiauth_5835
922,"(50, 170, 16)",2,mbtiauth_5835
923,"(50, 170, 170)",2,mbtiauth_5835
924,"(50, 170, 14425)",2,mbtiauth_5835
925,"(50, 3439, 16)",2,mbtiauth_5835
926,"(50, 3439, 170)",2,mbtiauth_5835
927,"(50, 3439, 14425)",2,mbtiauth_5835
928,"(64, 2, 64)",2,mbtiauth_5835
929,"(64, 2, 123)",2,mbtiauth_5835
930,"(64, 10, 50)",2,mbtiauth_5835
931,"(64, 10, 164)",2,mbtiauth_5835
932,"(64, 22, 64)",3,mbtiauth_5835
933,"(64, 22, 170)",2,mbtiauth_5835
934,"(64, 41, 64)",2,mbtiauth_5835
935,"(64, 41, 123)",3,mbtiauth_5835
936,"(64, 64, 123)",2,mbtiauth_5835
937,"(64, 64, 599)",2,mbtiauth_5835
938,"(64, 65, 2)",2,mbtiauth_5835
939,"(64, 65, 64)",2,mbtiauth_5835
940,"(64, 65, 65)",3,mbtiauth_5835
941,"(64, 65, 123)",3,mbtiauth_5835
942,"(64, 65, 152)",2,mbtiauth_5835
943,"(64, 65, 285)",3,mbtiauth_5835
944,"(64, 67, 22)",2,mbtiauth_5835
945,"(64, 67, 64)",2,mbtiauth_5835
946,"(64, 67, 65)",2,mbtiauth_5835
947,"(64, 67, 67)",2,mbtiauth_5835
948,"(64, 67, 123)",2,mbtiauth_5835
949,"(64, 67, 152)",2,mbtiauth_5835
950,"(64, 67, 244)",3,mbtiauth_5835
951,"(64, 77, 123)",3,mbtiauth_5835
952,"(64, 78, 123)",2,mbtiauth_5835
953,"(64, 123, 64)",4,mbtiauth_5835
954,"(64, 123, 123)",2,mbtiauth_5835
955,"(64, 123, 206)",3,mbtiauth_5835
956,"(64, 152, 65)",2,mbtiauth_5835
957,"(64, 164, 50)",2,mbtiauth_5835
958,"(64, 201, 170)",2,mbtiauth_5835
959,"(64, 244, 67)",2,mbtiauth_5835
960,"(64, 244, 123)",2,mbtiauth_5835
961,"(64, 285, 64)",2,mbtiauth_5835
962,"(64, 285, 123)",2,mbtiauth_5835
963,"(64, 286, 206)",2,mbtiauth_5835
964,"(64, 599, 123)",3,mbtiauth_5835
965,"(64, 599, 170)",2,mbtiauth_5835
966,"(64, 1241, 256)",2,mbtiauth_5835
967,"(65, 2, 123)",3,mbtiauth_5835
968,"(65, 2, 164)",2,mbtiauth_5835
969,"(65, 2, 193)",2,mbtiauth_5835
970,"(65, 65, 164)",2,mbtiauth_5835
971,"(65, 123, 64)",4,mbtiauth_5835
972,"(65, 123, 65)",2,mbtiauth_5835
973,"(65, 123, 206)",2,mbtiauth_5835
974,"(65, 123, 441)",3,mbtiauth_5835
975,"(65, 123, 2010)",2,mbtiauth_5835
976,"(65, 152, 65)",2,mbtiauth_5835
977,"(65, 285, 64)",3,mbtiauth_5835
978,"(65, 285, 123)",2,mbtiauth_5835
979,"(65, 285, 2010)",2,mbtiauth_5835
980,"(65, 441, 64)",2,mbtiauth_5835
981,"(65, 441, 65)",2,mbtiauth_5835
982,"(65, 693, 64)",2,mbtiauth_5835
983,"(65, 1241, 591)",2,mbtiauth_5835
984,"(67, 30, 30)",2,mbtiauth_5835
985,"(67, 30, 65)",2,mbtiauth_5835
986,"(67, 65, 65)",3,mbtiauth_5835
987,"(67, 65, 152)",2,mbtiauth_5835
988,"(67, 120, 65)",2,mbtiauth_5835
989,"(67, 123, 65)",2,mbtiauth_5835
990,"(67, 123, 77)",2,mbtiauth_5835
991,"(67, 123, 120)",2,mbtiauth_5835
992,"(67, 123, 123)",2,mbtiauth_5835
993,"(67, 152, 65)",2,mbtiauth_5835
994,"(67, 244, 67)",2,mbtiauth_5835
995,"(67, 244, 123)",2,mbtiauth_5835
996,"(70, 73, 64)",2,mbtiauth_5835
997,"(70, 123, 64)",2,mbtiauth_5835
998,"(76, 10, 50)",2,mbtiauth_5835
999,"(76, 10, 123)",2,mbtiauth_5835
1000,"(76, 50, 123)",2,mbtiauth_5835
1001,"(77, 27, 170)",2,mbtiauth_5835
1002,"(77, 30, 123)",2,mbtiauth_5835
1003,"(77, 41, 65)",2,mbtiauth_5835
1004,"(77, 65, 32)",2,mbtiauth_5835
1005,"(77, 77, 22)",2,mbtiauth_5835
1006,"(77, 123, 32)",2,mbtiauth_5835
1007,"(77, 123, 64)",3,mbtiauth_5835
1008,"(77, 123, 65)",2,mbtiauth_5835
1009,"(77, 196, 123)",2,mbtiauth_5835
1010,"(77, 262, 170)",2,mbtiauth_5835
1011,"(77, 375, 32)",2,mbtiauth_5835
1012,"(77, 488, 32)",2,mbtiauth_5835
1013,"(77, 488, 65)",2,mbtiauth_5835
1014,"(77, 599, 123)",2,mbtiauth_5835
1015,"(78, 65, 64)",2,mbtiauth_5835
1016,"(78, 65, 123)",2,mbtiauth_5835
1017,"(78, 123, 64)",3,mbtiauth_5835
1018,"(78, 599, 123)",2,mbtiauth_5835
1019,"(117, 77, 142)",2,mbtiauth_5835
1020,"(117, 123, 120)",2,mbtiauth_5835
1021,"(117, 256, 77)",2,mbtiauth_5835
1022,"(120, 2, 120)",2,mbtiauth_5835
1023,"(120, 2, 123)",2,mbtiauth_5835
1024,"(120, 10, 65)",2,mbtiauth_5835
1025,"(120, 41, 123)",2,mbtiauth_5835
1026,"(120, 64, 41)",2,mbtiauth_5835
1027,"(120, 64, 64)",2,mbtiauth_5835
1028,"(120, 64, 123)",2,mbtiauth_5835
1029,"(120, 64, 599)",2,mbtiauth_5835
1030,"(120, 120, 123)",2,mbtiauth_5835
1031,"(120, 123, 10)",2,mbtiauth_5835
1032,"(120, 123, 64)",2,mbtiauth_5835
1033,"(120, 123, 65)",2,mbtiauth_5835
1034,"(120, 123, 120)",2,mbtiauth_5835
1035,"(120, 123, 123)",2,mbtiauth_5835
1036,"(120, 123, 879)",2,mbtiauth_5835
1037,"(120, 160, 41)",2,mbtiauth_5835
1038,"(120, 160, 64)",2,mbtiauth_5835
1039,"(120, 160, 123)",2,mbtiauth_5835
1040,"(120, 286, 10)",2,mbtiauth_5835
1041,"(120, 286, 65)",2,mbtiauth_5835
1042,"(120, 286, 123)",3,mbtiauth_5835
1043,"(120, 286, 879)",2,mbtiauth_5835
1044,"(120, 356, 64)",2,mbtiauth_5835
1045,"(123, 2, 120)",2,mbtiauth_5835
1046,"(123, 2, 123)",2,mbtiauth_5835
1047,"(123, 10, 22)",2,mbtiauth_5835
1048,"(123, 10, 65)",2,mbtiauth_5835
1049,"(123, 22, 206)",2,mbtiauth_5835
1050,"(123, 22, 219)",2,mbtiauth_5835
1051,"(123, 22, 544)",2,mbtiauth_5835
1052,"(123, 22, 599)",2,mbtiauth_5835
1053,"(123, 32, 911)",2,mbtiauth_5835
1054,"(123, 41, 64)",2,mbtiauth_5835
1055,"(123, 41, 123)",2,mbtiauth_5835
1056,"(123, 41, 154)",2,mbtiauth_5835
1057,"(123, 64, 1)",2,mbtiauth_5835
1058,"(123, 64, 2)",2,mbtiauth_5835
1059,"(123, 64, 10)",3,mbtiauth_5835
1060,"(123, 64, 16)",2,mbtiauth_5835
1061,"(123, 64, 22)",3,mbtiauth_5835
1062,"(123, 64, 33)",2,mbtiauth_5835
1063,"(123, 64, 41)",3,mbtiauth_5835
1064,"(123, 64, 64)",6,mbtiauth_5835
1065,"(123, 64, 65)",3,mbtiauth_5835
1066,"(123, 64, 67)",3,mbtiauth_5835
1067,"(123, 64, 123)",5,mbtiauth_5835
1068,"(123, 64, 154)",2,mbtiauth_5835
1069,"(123, 64, 171)",2,mbtiauth_5835
1070,"(123, 64, 206)",3,mbtiauth_5835
1071,"(123, 64, 244)",2,mbtiauth_5835
1072,"(123, 64, 262)",3,mbtiauth_5835
1073,"(123, 64, 285)",3,mbtiauth_5835
1074,"(123, 64, 286)",2,mbtiauth_5835
1075,"(123, 64, 326)",2,mbtiauth_5835
1076,"(123, 64, 411)",2,mbtiauth_5835
1077,"(123, 64, 441)",2,mbtiauth_5835
1078,"(123, 64, 599)",3,mbtiauth_5835
1079,"(123, 64, 654)",2,mbtiauth_5835
1080,"(123, 64, 683)",2,mbtiauth_5835
1081,"(123, 64, 789)",2,mbtiauth_5835
1082,"(123, 64, 991)",2,mbtiauth_5835
1083,"(123, 65, 2)",2,mbtiauth_5835
1084,"(123, 65, 64)",4,mbtiauth_5835
1085,"(123, 65, 65)",3,mbtiauth_5835
1086,"(123, 65, 164)",2,mbtiauth_5835
1087,"(123, 65, 285)",3,mbtiauth_5835
1088,"(123, 67, 22)",2,mbtiauth_5835
1089,"(123, 67, 123)",2,mbtiauth_5835
1090,"(123, 67, 244)",2,mbtiauth_5835
1091,"(123, 77, 291)",2,mbtiauth_5835
1092,"(123, 120, 2)",2,mbtiauth_5835
1093,"(123, 120, 10)",2,mbtiauth_5835
1094,"(123, 120, 41)",2,mbtiauth_5835
1095,"(123, 120, 64)",5,mbtiauth_5835
1096,"(123, 120, 65)",3,mbtiauth_5835
1097,"(123, 120, 120)",2,mbtiauth_5835
1098,"(123, 120, 123)",6,mbtiauth_5835
1099,"(123, 120, 160)",2,mbtiauth_5835
1100,"(123, 120, 225)",2,mbtiauth_5835
1101,"(123, 120, 286)",3,mbtiauth_5835
1102,"(123, 120, 356)",2,mbtiauth_5835
1103,"(123, 120, 599)",2,mbtiauth_5835
1104,"(123, 120, 879)",2,mbtiauth_5835
1105,"(123, 123, 10)",2,mbtiauth_5835
1106,"(123, 123, 64)",4,mbtiauth_5835
1107,"(123, 123, 65)",3,mbtiauth_5835
1108,"(123, 123, 120)",3,mbtiauth_5835
1109,"(123, 123, 123)",2,mbtiauth_5835
1110,"(123, 123, 206)",2,mbtiauth_5835
1111,"(123, 123, 286)",2,mbtiauth_5835
1112,"(123, 123, 879)",2,mbtiauth_5835
1113,"(123, 127, 64)",2,mbtiauth_5835
1114,"(123, 154, 326)",2,mbtiauth_5835
1115,"(123, 154, 364)",2,mbtiauth_5835
1116,"(123, 154, 683)",2,mbtiauth_5835
1117,"(123, 160, 41)",2,mbtiauth_5835
1118,"(123, 160, 64)",2,mbtiauth_5835
1119,"(123, 160, 123)",2,mbtiauth_5835
1120,"(123, 170, 291)",2,mbtiauth_5835
1121,"(123, 189, 683)",2,mbtiauth_5835
1122,"(123, 193, 158)",2,mbtiauth_5835
1123,"(123, 201, 65)",2,mbtiauth_5835
1124,"(123, 206, 22)",3,mbtiauth_5835
1125,"(123, 206, 64)",3,mbtiauth_5835
1126,"(123, 206, 206)",2,mbtiauth_5835
1127,"(123, 206, 219)",2,mbtiauth_5835
1128,"(123, 206, 291)",2,mbtiauth_5835
1129,"(123, 206, 911)",2,mbtiauth_5835
1130,"(123, 210, 10)",2,mbtiauth_5835
1131,"(123, 210, 64)",3,mbtiauth_5835
1132,"(123, 210, 65)",2,mbtiauth_5835
1133,"(123, 210, 77)",2,mbtiauth_5835
1134,"(123, 210, 256)",2,mbtiauth_5835
1135,"(123, 210, 613)",2,mbtiauth_5835
1136,"(123, 220, 520)",2,mbtiauth_5835
1137,"(123, 223, 6613)",2,mbtiauth_5835
1138,"(123, 244, 123)",2,mbtiauth_5835
1139,"(123, 259, 10)",2,mbtiauth_5835
1140,"(123, 285, 64)",3,mbtiauth_5835
1141,"(123, 286, 2)",2,mbtiauth_5835
1142,"(123, 286, 10)",3,mbtiauth_5835
1143,"(123, 286, 32)",2,mbtiauth_5835
1144,"(123, 286, 65)",2,mbtiauth_5835
1145,"(123, 286, 123)",5,mbtiauth_5835
1146,"(123, 286, 206)",2,mbtiauth_5835
1147,"(123, 286, 326)",2,mbtiauth_5835
1148,"(123, 286, 364)",3,mbtiauth_5835
1149,"(123, 286, 683)",3,mbtiauth_5835
1150,"(123, 286, 879)",2,mbtiauth_5835
1151,"(123, 286, 911)",2,mbtiauth_5835
1152,"(123, 291, 22)",2,mbtiauth_5835
1153,"(123, 326, 683)",2,mbtiauth_5835
1154,"(123, 340, 64)",2,mbtiauth_5835
1155,"(123, 340, 123)",2,mbtiauth_5835
1156,"(123, 356, 22)",2,mbtiauth_5835
1157,"(123, 356, 64)",5,mbtiauth_5835
1158,"(123, 356, 77)",3,mbtiauth_5835
1159,"(123, 356, 123)",2,mbtiauth_5835
1160,"(123, 356, 170)",2,mbtiauth_5835
1161,"(123, 364, 10)",2,mbtiauth_5835
1162,"(123, 364, 32)",2,mbtiauth_5835
1163,"(123, 364, 683)",3,mbtiauth_5835
1164,"(123, 383, 32)",2,mbtiauth_5835
1165,"(123, 441, 64)",2,mbtiauth_5835
1166,"(123, 441, 65)",2,mbtiauth_5835
1167,"(123, 441, 171)",2,mbtiauth_5835
1168,"(123, 441, 262)",2,mbtiauth_5835
1169,"(123, 441, 285)",2,mbtiauth_5835
1170,"(123, 441, 693)",2,mbtiauth_5835
1171,"(123, 599, 123)",2,mbtiauth_5835
1172,"(123, 599, 170)",2,mbtiauth_5835
1173,"(123, 599, 193)",2,mbtiauth_5835
1174,"(123, 599, 206)",2,mbtiauth_5835
1175,"(123, 613, 64)",3,mbtiauth_5835
1176,"(123, 1318, 64)",2,mbtiauth_5835
1177,"(123, 1940, 64)",2,mbtiauth_5835
1178,"(123, 1940, 67)",2,mbtiauth_5835
1179,"(123, 2301, 64)",2,mbtiauth_5835
1180,"(123, 2301, 123)",2,mbtiauth_5835
1181,"(123, 32865, 22)",2,mbtiauth_5835
1182,"(123, 32865, 64)",2,mbtiauth_5835
1183,"(123, 32865, 67)",2,mbtiauth_5835
1184,"(123, 32865, 1940)",2,mbtiauth_5835
1185,"(151, 64, 286)",2,mbtiauth_5835
1186,"(151, 7873, 64)",2,mbtiauth_5835
1187,"(151, 7873, 286)",2,mbtiauth_5835
1188,"(154, 326, 683)",2,mbtiauth_5835
1189,"(154, 364, 50)",2,mbtiauth_5835
1190,"(154, 364, 683)",2,mbtiauth_5835
1191,"(160, 41, 123)",2,mbtiauth_5835
1192,"(160, 64, 41)",2,mbtiauth_5835
1193,"(160, 64, 123)",2,mbtiauth_5835
1194,"(162, 10, 22)",2,mbtiauth_5835
1195,"(170, 16, 14425)",2,mbtiauth_5835
1196,"(170, 64, 499)",2,mbtiauth_5835
1197,"(170, 123, 22)",2,mbtiauth_5835
1198,"(170, 154, 170)",2,mbtiauth_5835
1199,"(170, 168, 32)",2,mbtiauth_5835
1200,"(170, 291, 64)",2,mbtiauth_5835
1201,"(171, 10, 13)",2,mbtiauth_5835
1202,"(171, 10, 50)",3,mbtiauth_5835
1203,"(171, 10, 123)",2,mbtiauth_5835
1204,"(171, 10, 164)",2,mbtiauth_5835
1205,"(171, 13, 164)",2,mbtiauth_5835
1206,"(171, 16, 32)",2,mbtiauth_5835
1207,"(171, 50, 123)",2,mbtiauth_5835
1208,"(171, 76, 10)",2,mbtiauth_5835
1209,"(171, 76, 50)",2,mbtiauth_5835
1210,"(171, 76, 123)",2,mbtiauth_5835
1211,"(171, 77, 123)",2,mbtiauth_5835
1212,"(171, 123, 65)",2,mbtiauth_5835
1213,"(171, 334, 65)",2,mbtiauth_5835
1214,"(189, 154, 879)",2,mbtiauth_5835
1215,"(193, 16, 50)",2,mbtiauth_5835
1216,"(193, 64, 50)",2,mbtiauth_5835
1217,"(193, 154, 364)",2,mbtiauth_5835
1218,"(193, 326, 65)",2,mbtiauth_5835
1219,"(193, 326, 683)",2,mbtiauth_5835
1220,"(193, 683, 65)",2,mbtiauth_5835
1221,"(206, 22, 219)",2,mbtiauth_5835
1222,"(210, 613, 64)",2,mbtiauth_5835
1223,"(212, 77, 123)",2,mbtiauth_5835
1224,"(244, 64, 67)",2,mbtiauth_5835
1225,"(244, 77, 170)",2,mbtiauth_5835
1226,"(244, 77, 262)",2,mbtiauth_5835
1227,"(244, 123, 64)",3,mbtiauth_5835
1228,"(244, 123, 67)",2,mbtiauth_5835
1229,"(244, 123, 356)",2,mbtiauth_5835
1230,"(244, 262, 170)",2,mbtiauth_5835
1231,"(244, 356, 64)",2,mbtiauth_5835
1232,"(262, 8, 26)",3,mbtiauth_5835
1233,"(262, 8, 28)",3,mbtiauth_5835
1234,"(262, 28, 26)",3,mbtiauth_5835
1235,"(262, 32, 2)",2,mbtiauth_5835
1236,"(262, 123, 64)",2,mbtiauth_5835
1237,"(262, 123, 1758)",2,mbtiauth_5835
1238,"(262, 170, 22)",2,mbtiauth_5835
1239,"(262, 170, 123)",2,mbtiauth_5835
1240,"(262, 170, 356)",2,mbtiauth_5835
1241,"(262, 262, 170)",2,mbtiauth_5835
1242,"(285, 123, 64)",2,mbtiauth_5835
1243,"(285, 123, 224)",2,mbtiauth_5835
1244,"(285, 123, 2010)",2,mbtiauth_5835
1245,"(286, 10, 65)",2,mbtiauth_5835
1246,"(286, 123, 10)",2,mbtiauth_5835
1247,"(286, 123, 65)",2,mbtiauth_5835
1248,"(286, 123, 879)",2,mbtiauth_5835
1249,"(286, 364, 32)",2,mbtiauth_5835
1250,"(286, 364, 683)",2,mbtiauth_5835
1251,"(318, 599, 123)",2,mbtiauth_5835
1252,"(326, 365, 64)",2,mbtiauth_5835
1253,"(326, 683, 65)",2,mbtiauth_5835
1254,"(340, 123, 64)",2,mbtiauth_5835
1255,"(356, 123, 64)",2,mbtiauth_5835
1256,"(364, 32, 41)",2,mbtiauth_5835
1257,"(364, 32, 683)",2,mbtiauth_5835
1258,"(364, 117, 756)",2,mbtiauth_5835
1259,"(364, 123, 2)",2,mbtiauth_5835
1260,"(364, 123, 286)",2,mbtiauth_5835
1261,"(364, 254, 364)",2,mbtiauth_5835
1262,"(364, 286, 2)",2,mbtiauth_5835
1263,"(364, 326, 683)",2,mbtiauth_5835
1264,"(364, 364, 32)",2,mbtiauth_5835
1265,"(364, 364, 683)",2,mbtiauth_5835
1266,"(364, 484, 8117)",2,mbtiauth_5835
1267,"(364, 599, 123)",2,mbtiauth_5835
1268,"(364, 3547, 64)",2,mbtiauth_5835
1269,"(365, 123, 64)",2,mbtiauth_5835
1270,"(375, 64, 65)",2,mbtiauth_5835
1271,"(408, 123, 64)",2,mbtiauth_5835
1272,"(441, 10, 13)",2,mbtiauth_5835
1273,"(441, 64, 2)",2,mbtiauth_5835
1274,"(441, 64, 64)",2,mbtiauth_5835
1275,"(441, 164, 50)",2,mbtiauth_5835
1276,"(520, 123, 64)",2,mbtiauth_5835
1277,"(599, 50, 16)",2,mbtiauth_5835
1278,"(599, 50, 170)",2,mbtiauth_5835
1279,"(599, 50, 3439)",2,mbtiauth_5835
1280,"(599, 64, 67)",2,mbtiauth_5835
1281,"(599, 123, 22)",2,mbtiauth_5835
1282,"(599, 123, 64)",2,mbtiauth_5835
1283,"(599, 123, 356)",2,mbtiauth_5835
1284,"(599, 170, 16)",2,mbtiauth_5835
1285,"(599, 356, 64)",2,mbtiauth_5835
1286,"(599, 3439, 16)",2,mbtiauth_5835
1287,"(599, 3439, 170)",2,mbtiauth_5835
1288,"(613, 164, 50)",2,mbtiauth_5835
1289,"(683, 77, 65)",2,mbtiauth_5835
1290,"(693, 67, 65)",2,mbtiauth_5835
1291,"(1193, 65, 64)",2,mbtiauth_5835
1292,"(1225, 41, 31)",2,mbtiauth_5835
1293,"(1940, 64, 67)",2,mbtiauth_5835
1294,"(2301, 64, 123)",2,mbtiauth_5835
1295,"(3439, 16, 14425)",2,mbtiauth_5835
1296,"(3439, 170, 16)",2,mbtiauth_5835
1297,"(3439, 170, 170)",2,mbtiauth_5835
1298,"(3439, 170, 14425)",2,mbtiauth_5835
1299,"(4422, 77, 123)",2,mbtiauth_5835
1300,"(7873, 64, 286)",2,mbtiauth_5835
1301,"(32865, 64, 67)",2,mbtiauth_5835
1302,"(32865, 1940, 64)",2,mbtiauth_5835
1303,"(32865, 1940, 67)",2,mbtiauth_5835
1304,"(44514, 326, 365)",2,mbtiauth_5835
1305,"(2, 123, 120, 123)",2,mbtiauth_5835
1306,"(8, 8, 26, 77)",2,mbtiauth_5835
1307,"(8, 8, 26, 262)",3,mbtiauth_5835
1308,"(8, 8, 28, 26)",3,mbtiauth_5835
1309,"(8, 8, 28, 77)",2,mbtiauth_5835
1310,"(8, 8, 28, 262)",3,mbtiauth_5835
1311,"(8, 26, 8, 26)",3,mbtiauth_5835
1312,"(8, 26, 8, 28)",3,mbtiauth_5835
1313,"(8, 26, 8, 77)",2,mbtiauth_5835
1314,"(8, 26, 8, 262)",3,mbtiauth_5835
1315,"(8, 26, 26, 77)",2,mbtiauth_5835
1316,"(8, 26, 26, 262)",3,mbtiauth_5835
1317,"(8, 26, 28, 26)",3,mbtiauth_5835
1318,"(8, 26, 28, 77)",2,mbtiauth_5835
1319,"(8, 26, 28, 262)",3,mbtiauth_5835
1320,"(8, 26, 262, 77)",2,mbtiauth_5835
1321,"(8, 28, 8, 26)",3,mbtiauth_5835
1322,"(8, 28, 8, 28)",3,mbtiauth_5835
1323,"(8, 28, 8, 77)",2,mbtiauth_5835
1324,"(8, 28, 8, 262)",3,mbtiauth_5835
1325,"(8, 28, 26, 8)",3,mbtiauth_5835
1326,"(8, 28, 26, 26)",3,mbtiauth_5835
1327,"(8, 28, 26, 28)",3,mbtiauth_5835
1328,"(8, 28, 26, 77)",2,mbtiauth_5835
1329,"(8, 28, 26, 262)",3,mbtiauth_5835
1330,"(8, 28, 28, 26)",3,mbtiauth_5835
1331,"(8, 28, 28, 77)",2,mbtiauth_5835
1332,"(8, 28, 28, 262)",3,mbtiauth_5835
1333,"(8, 28, 262, 77)",2,mbtiauth_5835
1334,"(26, 8, 26, 77)",2,mbtiauth_5835
1335,"(26, 8, 26, 262)",3,mbtiauth_5835
1336,"(26, 8, 28, 26)",3,mbtiauth_5835
1337,"(26, 8, 28, 77)",2,mbtiauth_5835
1338,"(26, 8, 28, 262)",3,mbtiauth_5835
1339,"(26, 28, 26, 77)",2,mbtiauth_5835
1340,"(26, 28, 26, 262)",3,mbtiauth_5835
1341,"(28, 8, 26, 77)",2,mbtiauth_5835
1342,"(28, 8, 26, 262)",3,mbtiauth_5835
1343,"(28, 8, 28, 26)",3,mbtiauth_5835
1344,"(28, 8, 28, 77)",2,mbtiauth_5835
1345,"(28, 8, 28, 262)",3,mbtiauth_5835
1346,"(28, 26, 8, 26)",3,mbtiauth_5835
1347,"(28, 26, 8, 28)",3,mbtiauth_5835
1348,"(28, 26, 8, 77)",2,mbtiauth_5835
1349,"(28, 26, 8, 262)",3,mbtiauth_5835
1350,"(28, 26, 26, 77)",2,mbtiauth_5835
1351,"(28, 26, 26, 262)",3,mbtiauth_5835
1352,"(28, 26, 28, 26)",3,mbtiauth_5835
1353,"(28, 26, 28, 77)",2,mbtiauth_5835
1354,"(28, 26, 28, 262)",3,mbtiauth_5835
1355,"(28, 26, 262, 77)",2,mbtiauth_5835
1356,"(28, 28, 26, 77)",2,mbtiauth_5835
1357,"(28, 28, 26, 262)",3,mbtiauth_5835
1358,"(30, 30, 123, 65)",2,mbtiauth_5835
1359,"(50, 170, 16, 14425)",2,mbtiauth_5835
1360,"(50, 3439, 16, 14425)",2,mbtiauth_5835
1361,"(50, 3439, 170, 16)",2,mbtiauth_5835
1362,"(50, 3439, 170, 170)",2,mbtiauth_5835
1363,"(50, 3439, 170, 14425)",2,mbtiauth_5835
1364,"(64, 10, 164, 50)",2,mbtiauth_5835
1365,"(64, 64, 599, 123)",2,mbtiauth_5835
1366,"(64, 65, 152, 65)",2,mbtiauth_5835
1367,"(64, 65, 285, 64)",2,mbtiauth_5835
1368,"(64, 65, 285, 123)",2,mbtiauth_5835
1369,"(64, 67, 65, 65)",2,mbtiauth_5835
1370,"(64, 67, 65, 152)",2,mbtiauth_5835
1371,"(64, 67, 152, 65)",2,mbtiauth_5835
1372,"(64, 67, 244, 67)",2,mbtiauth_5835
1373,"(64, 67, 244, 123)",2,mbtiauth_5835
1374,"(65, 123, 441, 64)",2,mbtiauth_5835
1375,"(65, 123, 441, 65)",2,mbtiauth_5835
1376,"(65, 285, 123, 2010)",2,mbtiauth_5835
1377,"(67, 30, 30, 65)",2,mbtiauth_5835
1378,"(67, 65, 152, 65)",2,mbtiauth_5835
1379,"(67, 123, 120, 65)",2,mbtiauth_5835
1380,"(76, 10, 50, 123)",2,mbtiauth_5835
1381,"(78, 65, 123, 64)",2,mbtiauth_5835
1382,"(120, 2, 120, 123)",2,mbtiauth_5835
1383,"(120, 2, 123, 120)",2,mbtiauth_5835
1384,"(120, 2, 123, 123)",2,mbtiauth_5835
1385,"(120, 64, 41, 123)",2,mbtiauth_5835
1386,"(120, 123, 10, 65)",2,mbtiauth_5835
1387,"(120, 123, 120, 123)",2,mbtiauth_5835
1388,"(120, 160, 41, 123)",2,mbtiauth_5835
1389,"(120, 160, 64, 41)",2,mbtiauth_5835
1390,"(120, 160, 64, 123)",2,mbtiauth_5835
1391,"(120, 286, 10, 65)",2,mbtiauth_5835
1392,"(120, 286, 123, 10)",2,mbtiauth_5835
1393,"(120, 286, 123, 65)",2,mbtiauth_5835
1394,"(120, 286, 123, 879)",2,mbtiauth_5835
1395,"(123, 2, 123, 120)",2,mbtiauth_5835
1396,"(123, 22, 599, 206)",2,mbtiauth_5835
1397,"(123, 64, 41, 123)",2,mbtiauth_5835
1398,"(123, 64, 64, 599)",2,mbtiauth_5835
1399,"(123, 64, 65, 64)",2,mbtiauth_5835
1400,"(123, 64, 65, 65)",2,mbtiauth_5835
1401,"(123, 64, 65, 285)",3,mbtiauth_5835
1402,"(123, 64, 67, 22)",2,mbtiauth_5835
1403,"(123, 64, 67, 123)",2,mbtiauth_5835
1404,"(123, 64, 67, 244)",2,mbtiauth_5835
1405,"(123, 64, 123, 64)",2,mbtiauth_5835
1406,"(123, 64, 123, 206)",2,mbtiauth_5835
1407,"(123, 64, 244, 123)",2,mbtiauth_5835
1408,"(123, 64, 285, 64)",2,mbtiauth_5835
1409,"(123, 64, 286, 206)",2,mbtiauth_5835
1410,"(123, 64, 599, 123)",2,mbtiauth_5835
1411,"(123, 65, 285, 64)",2,mbtiauth_5835
1412,"(123, 67, 244, 123)",2,mbtiauth_5835
1413,"(123, 120, 2, 120)",2,mbtiauth_5835
1414,"(123, 120, 2, 123)",2,mbtiauth_5835
1415,"(123, 120, 10, 65)",2,mbtiauth_5835
1416,"(123, 120, 41, 123)",2,mbtiauth_5835
1417,"(123, 120, 64, 41)",2,mbtiauth_5835
1418,"(123, 120, 64, 64)",2,mbtiauth_5835
1419,"(123, 120, 64, 123)",2,mbtiauth_5835
1420,"(123, 120, 64, 599)",2,mbtiauth_5835
1421,"(123, 120, 123, 10)",2,mbtiauth_5835
1422,"(123, 120, 123, 64)",2,mbtiauth_5835
1423,"(123, 120, 123, 65)",2,mbtiauth_5835
1424,"(123, 120, 123, 120)",2,mbtiauth_5835
1425,"(123, 120, 123, 879)",2,mbtiauth_5835
1426,"(123, 120, 160, 41)",2,mbtiauth_5835
1427,"(123, 120, 160, 64)",2,mbtiauth_5835
1428,"(123, 120, 160, 123)",2,mbtiauth_5835
1429,"(123, 120, 286, 10)",2,mbtiauth_5835
1430,"(123, 120, 286, 65)",2,mbtiauth_5835
1431,"(123, 120, 286, 123)",3,mbtiauth_5835
1432,"(123, 120, 286, 879)",2,mbtiauth_5835
1433,"(123, 120, 356, 64)",2,mbtiauth_5835
1434,"(123, 123, 10, 65)",2,mbtiauth_5835
1435,"(123, 123, 120, 123)",2,mbtiauth_5835
1436,"(123, 123, 120, 286)",2,mbtiauth_5835
1437,"(123, 123, 120, 879)",2,mbtiauth_5835
1438,"(123, 123, 123, 879)",2,mbtiauth_5835
1439,"(123, 123, 286, 123)",2,mbtiauth_5835
1440,"(123, 123, 286, 879)",2,mbtiauth_5835
1441,"(123, 154, 364, 683)",2,mbtiauth_5835
1442,"(123, 160, 41, 123)",2,mbtiauth_5835
1443,"(123, 160, 64, 41)",2,mbtiauth_5835
1444,"(123, 160, 64, 123)",2,mbtiauth_5835
1445,"(123, 206, 22, 219)",2,mbtiauth_5835
1446,"(123, 210, 613, 64)",2,mbtiauth_5835
1447,"(123, 286, 10, 65)",2,mbtiauth_5835
1448,"(123, 286, 123, 10)",2,mbtiauth_5835
1449,"(123, 286, 123, 65)",2,mbtiauth_5835
1450,"(123, 286, 123, 879)",2,mbtiauth_5835
1451,"(123, 286, 364, 32)",2,mbtiauth_5835
1452,"(123, 286, 364, 683)",2,mbtiauth_5835
1453,"(123, 356, 123, 64)",2,mbtiauth_5835
1454,"(123, 1940, 64, 67)",2,mbtiauth_5835
1455,"(123, 2301, 64, 123)",2,mbtiauth_5835
1456,"(123, 32865, 64, 67)",2,mbtiauth_5835
1457,"(123, 32865, 1940, 64)",2,mbtiauth_5835
1458,"(123, 32865, 1940, 67)",2,mbtiauth_5835
1459,"(151, 7873, 64, 286)",2,mbtiauth_5835
1460,"(160, 64, 41, 123)",2,mbtiauth_5835
1461,"(171, 10, 13, 164)",2,mbtiauth_5835
1462,"(171, 10, 50, 123)",2,mbtiauth_5835
1463,"(171, 76, 10, 50)",2,mbtiauth_5835
1464,"(171, 76, 10, 123)",2,mbtiauth_5835
1465,"(171, 76, 50, 123)",2,mbtiauth_5835
1466,"(193, 326, 683, 65)",2,mbtiauth_5835
1467,"(244, 77, 262, 170)",2,mbtiauth_5835
1468,"(244, 123, 64, 67)",2,mbtiauth_5835
1469,"(244, 123, 356, 64)",2,mbtiauth_5835
1470,"(262, 8, 28, 26)",3,mbtiauth_5835
1471,"(286, 123, 10, 65)",2,mbtiauth_5835
1472,"(364, 123, 286, 2)",2,mbtiauth_5835
1473,"(599, 50, 170, 16)",2,mbtiauth_5835
1474,"(599, 50, 3439, 16)",2,mbtiauth_5835
1475,"(599, 50, 3439, 170)",2,mbtiauth_5835
1476,"(599, 123, 356, 64)",2,mbtiauth_5835
1477,"(599, 3439, 170, 16)",2,mbtiauth_5835
1478,"(3439, 170, 16, 14425)",2,mbtiauth_5835
1479,"(32865, 1940, 64, 67)",2,mbtiauth_5835
1480,"(8, 8, 28, 26, 77)",2,mbtiauth_5835
1481,"(8, 8, 28, 26, 262)",3,mbtiauth_5835
1482,"(8, 26, 8, 26, 77)",2,mbtiauth_5835
1483,"(8, 26, 8, 26, 262)",3,mbtiauth_5835
1484,"(8, 26, 8, 28, 26)",3,mbtiauth_5835
1485,"(8, 26, 8, 28, 77)",2,mbtiauth_5835
1486,"(8, 26, 8, 28, 262)",3,mbtiauth_5835
1487,"(8, 26, 28, 26, 77)",2,mbtiauth_5835
1488,"(8, 26, 28, 26, 262)",3,mbtiauth_5835
1489,"(8, 28, 8, 26, 77)",2,mbtiauth_5835
1490,"(8, 28, 8, 26, 262)",3,mbtiauth_5835
1491,"(8, 28, 8, 28, 26)",3,mbtiauth_5835
1492,"(8, 28, 8, 28, 77)",2,mbtiauth_5835
1493,"(8, 28, 8, 28, 262)",3,mbtiauth_5835
1494,"(8, 28, 26, 8, 26)",3,mbtiauth_5835
1495,"(8, 28, 26, 8, 28)",3,mbtiauth_5835
1496,"(8, 28, 26, 8, 77)",2,mbtiauth_5835
1497,"(8, 28, 26, 8, 262)",3,mbtiauth_5835
1498,"(8, 28, 26, 26, 77)",2,mbtiauth_5835
1499,"(8, 28, 26, 26, 262)",3,mbtiauth_5835
1500,"(8, 28, 26, 28, 26)",3,mbtiauth_5835
1501,"(8, 28, 26, 28, 77)",2,mbtiauth_5835
1502,"(8, 28, 26, 28, 262)",3,mbtiauth_5835
1503,"(8, 28, 26, 262, 77)",2,mbtiauth_5835
1504,"(8, 28, 28, 26, 77)",2,mbtiauth_5835
1505,"(8, 28, 28, 26, 262)",3,mbtiauth_5835
1506,"(26, 8, 28, 26, 77)",2,mbtiauth_5835
1507,"(26, 8, 28, 26, 262)",3,mbtiauth_5835
1508,"(28, 8, 28, 26, 77)",2,mbtiauth_5835
1509,"(28, 8, 28, 26, 262)",3,mbtiauth_5835
1510,"(28, 26, 8, 26, 77)",2,mbtiauth_5835
1511,"(28, 26, 8, 26, 262)",3,mbtiauth_5835
1512,"(28, 26, 8, 28, 26)",3,mbtiauth_5835
1513,"(28, 26, 8, 28, 77)",2,mbtiauth_5835
1514,"(28, 26, 8, 28, 262)",3,mbtiauth_5835
1515,"(28, 26, 28, 26, 77)",2,mbtiauth_5835
1516,"(28, 26, 28, 26, 262)",3,mbtiauth_5835
1517,"(50, 3439, 170, 16, 14425)",2,mbtiauth_5835
1518,"(64, 67, 65, 152, 65)",2,mbtiauth_5835
1519,"(120, 2, 123, 120, 123)",2,mbtiauth_5835
1520,"(120, 160, 64, 41, 123)",2,mbtiauth_5835
1521,"(120, 286, 123, 10, 65)",2,mbtiauth_5835
1522,"(123, 64, 65, 285, 64)",2,mbtiauth_5835
1523,"(123, 64, 67, 244, 123)",2,mbtiauth_5835
1524,"(123, 120, 2, 123, 120)",2,mbtiauth_5835
1525,"(123, 120, 64, 41, 123)",2,mbtiauth_5835
1526,"(123, 120, 123, 10, 65)",2,mbtiauth_5835
1527,"(123, 120, 160, 41, 123)",2,mbtiauth_5835
1528,"(123, 120, 160, 64, 41)",2,mbtiauth_5835
1529,"(123, 120, 160, 64, 123)",2,mbtiauth_5835
1530,"(123, 120, 286, 10, 65)",2,mbtiauth_5835
1531,"(123, 120, 286, 123, 10)",2,mbtiauth_5835
1532,"(123, 120, 286, 123, 65)",2,mbtiauth_5835
1533,"(123, 120, 286, 123, 879)",2,mbtiauth_5835
1534,"(123, 123, 120, 123, 879)",2,mbtiauth_5835
1535,"(123, 123, 120, 286, 123)",2,mbtiauth_5835
1536,"(123, 123, 120, 286, 879)",2,mbtiauth_5835
1537,"(123, 123, 286, 123, 879)",2,mbtiauth_5835
1538,"(123, 160, 64, 41, 123)",2,mbtiauth_5835
1539,"(123, 286, 123, 10, 65)",2,mbtiauth_5835
1540,"(123, 32865, 1940, 64, 67)",2,mbtiauth_5835
1541,"(171, 76, 10, 50, 123)",2,mbtiauth_5835
1542,"(599, 50, 3439, 170, 16)",2,mbtiauth_5835
1543,"(8, 26, 8, 28, 26, 77)",2,mbtiauth_5835
1544,"(8, 26, 8, 28, 26, 262)",3,mbtiauth_5835
1545,"(8, 28, 8, 28, 26, 77)",2,mbtiauth_5835
1546,"(8, 28, 8, 28, 26, 262)",3,mbtiauth_5835
1547,"(8, 28, 26, 8, 26, 77)",2,mbtiauth_5835
1548,"(8, 28, 26, 8, 26, 262)",3,mbtiauth_5835
1549,"(8, 28, 26, 8, 28, 26)",3,mbtiauth_5835
1550,"(8, 28, 26, 8, 28, 77)",2,mbtiauth_5835
1551,"(8, 28, 26, 8, 28, 262)",3,mbtiauth_5835
1552,"(8, 28, 26, 28, 26, 77)",2,mbtiauth_5835
1553,"(8, 28, 26, 28, 26, 262)",3,mbtiauth_5835
1554,"(28, 26, 8, 28, 26, 77)",2,mbtiauth_5835
1555,"(28, 26, 8, 28, 26, 262)",3,mbtiauth_5835
1556,"(123, 120, 160, 64, 41, 123)",2,mbtiauth_5835
1557,"(123, 120, 286, 123, 10, 65)",2,mbtiauth_5835
1558,"(123, 123, 120, 286, 123, 879)",2,mbtiauth_5835
1559,"(8, 28, 26, 8, 28, 26, 77)",2,mbtiauth_5835
1560,"(8, 28, 26, 8, 28, 26, 262)",3,mbtiauth_5835
