,pattern,sup,author
779,"(2, 65, 397)",2,mbtiauth_6526
780,"(10, 44, 64)",2,mbtiauth_6526
781,"(10, 64, 22)",2,mbtiauth_6526
782,"(10, 65, 44)",2,mbtiauth_6526
783,"(10, 65, 64)",2,mbtiauth_6526
784,"(10, 66, 64)",2,mbtiauth_6526
785,"(10, 77, 22)",3,mbtiauth_6526
786,"(10, 77, 64)",4,mbtiauth_6526
787,"(10, 77, 356)",2,mbtiauth_6526
788,"(10, 154, 64)",2,mbtiauth_6526
789,"(16, 65, 77)",2,mbtiauth_6526
790,"(16, 77, 77)",2,mbtiauth_6526
791,"(22, 22, 32)",2,mbtiauth_6526
792,"(22, 76, 77)",2,mbtiauth_6526
793,"(22, 77, 123)",2,mbtiauth_6526
794,"(30, 77, 32)",2,mbtiauth_6526
795,"(30, 77, 2137)",2,mbtiauth_6526
796,"(30, 123, 193)",2,mbtiauth_6526
797,"(30, 364, 16)",2,mbtiauth_6526
798,"(32, 134, 2137)",2,mbtiauth_6526
799,"(33, 77, 158)",2,mbtiauth_6526
800,"(41, 10, 22)",2,mbtiauth_6526
801,"(41, 65, 2)",2,mbtiauth_6526
802,"(41, 65, 263)",3,mbtiauth_6526
803,"(41, 77, 77)",2,mbtiauth_6526
804,"(41, 144, 193)",4,mbtiauth_6526
805,"(41, 198, 10)",2,mbtiauth_6526
806,"(41, 198, 22)",2,mbtiauth_6526
807,"(41, 200, 356)",2,mbtiauth_6526
808,"(41, 263, 2)",2,mbtiauth_6526
809,"(41, 340, 77)",2,mbtiauth_6526
810,"(41, 340, 162)",2,mbtiauth_6526
811,"(41, 443, 441)",2,mbtiauth_6526
812,"(41, 826, 65)",2,mbtiauth_6526
813,"(41, 826, 263)",2,mbtiauth_6526
814,"(64, 22, 123)",2,mbtiauth_6526
815,"(64, 33, 77)",2,mbtiauth_6526
816,"(64, 64, 22)",2,mbtiauth_6526
817,"(64, 64, 65)",2,mbtiauth_6526
818,"(64, 64, 123)",2,mbtiauth_6526
819,"(64, 65, 32)",2,mbtiauth_6526
820,"(64, 65, 193)",3,mbtiauth_6526
821,"(64, 65, 291)",2,mbtiauth_6526
822,"(64, 77, 123)",2,mbtiauth_6526
823,"(64, 78, 78)",2,mbtiauth_6526
824,"(64, 291, 193)",2,mbtiauth_6526
825,"(64, 711, 65)",2,mbtiauth_6526
826,"(64, 711, 193)",2,mbtiauth_6526
827,"(65, 10, 77)",3,mbtiauth_6526
828,"(65, 32, 123)",2,mbtiauth_6526
829,"(65, 32, 164)",2,mbtiauth_6526
830,"(65, 33, 65)",2,mbtiauth_6526
831,"(65, 44, 64)",2,mbtiauth_6526
832,"(65, 65, 77)",2,mbtiauth_6526
833,"(65, 65, 193)",2,mbtiauth_6526
834,"(65, 65, 951)",2,mbtiauth_6526
835,"(65, 77, 64)",2,mbtiauth_6526
836,"(65, 77, 65)",2,mbtiauth_6526
837,"(65, 77, 66)",2,mbtiauth_6526
838,"(65, 77, 77)",3,mbtiauth_6526
839,"(65, 77, 123)",2,mbtiauth_6526
840,"(65, 77, 193)",2,mbtiauth_6526
841,"(65, 77, 212)",2,mbtiauth_6526
842,"(65, 77, 2137)",2,mbtiauth_6526
843,"(65, 120, 340)",2,mbtiauth_6526
844,"(65, 123, 120)",2,mbtiauth_6526
845,"(65, 123, 340)",2,mbtiauth_6526
846,"(65, 152, 65)",3,mbtiauth_6526
847,"(65, 152, 77)",2,mbtiauth_6526
848,"(65, 263, 2)",2,mbtiauth_6526
849,"(65, 263, 193)",2,mbtiauth_6526
850,"(65, 263, 291)",2,mbtiauth_6526
851,"(65, 291, 193)",3,mbtiauth_6526
852,"(65, 505, 505)",2,mbtiauth_6526
853,"(65, 1156, 77)",3,mbtiauth_6526
854,"(65, 1156, 212)",2,mbtiauth_6526
855,"(65, 1156, 2137)",2,mbtiauth_6526
856,"(66, 164, 222)",2,mbtiauth_6526
857,"(67, 65, 32)",2,mbtiauth_6526
858,"(70, 10, 77)",2,mbtiauth_6526
859,"(70, 22, 77)",2,mbtiauth_6526
860,"(70, 64, 33)",2,mbtiauth_6526
861,"(70, 64, 64)",2,mbtiauth_6526
862,"(70, 64, 77)",2,mbtiauth_6526
863,"(70, 77, 123)",3,mbtiauth_6526
864,"(70, 123, 33)",2,mbtiauth_6526
865,"(70, 123, 64)",2,mbtiauth_6526
866,"(70, 154, 77)",3,mbtiauth_6526
867,"(70, 154, 123)",2,mbtiauth_6526
868,"(70, 154, 193)",2,mbtiauth_6526
869,"(70, 256, 77)",2,mbtiauth_6526
870,"(70, 520, 77)",2,mbtiauth_6526
871,"(70, 520, 123)",2,mbtiauth_6526
872,"(77, 2, 65)",2,mbtiauth_6526
873,"(77, 10, 22)",2,mbtiauth_6526
874,"(77, 10, 64)",2,mbtiauth_6526
875,"(77, 10, 77)",2,mbtiauth_6526
876,"(77, 22, 170)",2,mbtiauth_6526
877,"(77, 22, 193)",2,mbtiauth_6526
878,"(77, 31, 2)",2,mbtiauth_6526
879,"(77, 41, 2)",2,mbtiauth_6526
880,"(77, 41, 65)",2,mbtiauth_6526
881,"(77, 41, 193)",2,mbtiauth_6526
882,"(77, 41, 263)",2,mbtiauth_6526
883,"(77, 41, 826)",2,mbtiauth_6526
884,"(77, 64, 22)",2,mbtiauth_6526
885,"(77, 64, 64)",2,mbtiauth_6526
886,"(77, 64, 65)",2,mbtiauth_6526
887,"(77, 65, 32)",2,mbtiauth_6526
888,"(77, 65, 65)",2,mbtiauth_6526
889,"(77, 65, 193)",2,mbtiauth_6526
890,"(77, 65, 263)",2,mbtiauth_6526
891,"(77, 77, 22)",2,mbtiauth_6526
892,"(77, 77, 64)",3,mbtiauth_6526
893,"(77, 77, 66)",2,mbtiauth_6526
894,"(77, 77, 77)",3,mbtiauth_6526
895,"(77, 77, 123)",3,mbtiauth_6526
896,"(77, 77, 212)",2,mbtiauth_6526
897,"(77, 77, 222)",2,mbtiauth_6526
898,"(77, 123, 2)",4,mbtiauth_6526
899,"(77, 123, 22)",2,mbtiauth_6526
900,"(77, 123, 33)",3,mbtiauth_6526
901,"(77, 123, 64)",3,mbtiauth_6526
902,"(77, 123, 65)",3,mbtiauth_6526
903,"(77, 123, 77)",2,mbtiauth_6526
904,"(77, 123, 123)",4,mbtiauth_6526
905,"(77, 123, 154)",3,mbtiauth_6526
906,"(77, 123, 212)",2,mbtiauth_6526
907,"(77, 123, 286)",2,mbtiauth_6526
908,"(77, 123, 384)",2,mbtiauth_6526
909,"(77, 123, 407)",2,mbtiauth_6526
910,"(77, 123, 499)",2,mbtiauth_6526
911,"(77, 123, 1045)",2,mbtiauth_6526
912,"(77, 164, 222)",2,mbtiauth_6526
913,"(77, 193, 1205)",2,mbtiauth_6526
914,"(77, 198, 32)",2,mbtiauth_6526
915,"(77, 220, 10)",2,mbtiauth_6526
916,"(77, 246, 77)",2,mbtiauth_6526
917,"(77, 286, 123)",2,mbtiauth_6526
918,"(77, 407, 154)",2,mbtiauth_6526
919,"(77, 599, 64)",2,mbtiauth_6526
920,"(77, 599, 193)",2,mbtiauth_6526
921,"(77, 826, 65)",2,mbtiauth_6526
922,"(77, 826, 263)",2,mbtiauth_6526
923,"(77, 951, 32)",2,mbtiauth_6526
924,"(77, 951, 65)",2,mbtiauth_6526
925,"(77, 6966, 77)",2,mbtiauth_6526
926,"(120, 77, 123)",2,mbtiauth_6526
927,"(120, 77, 1045)",2,mbtiauth_6526
928,"(120, 123, 1045)",2,mbtiauth_6526
929,"(120, 340, 77)",2,mbtiauth_6526
930,"(120, 340, 123)",2,mbtiauth_6526
931,"(120, 340, 1045)",2,mbtiauth_6526
932,"(123, 2, 65)",2,mbtiauth_6526
933,"(123, 16, 65)",2,mbtiauth_6526
934,"(123, 22, 76)",2,mbtiauth_6526
935,"(123, 30, 123)",2,mbtiauth_6526
936,"(123, 32, 76)",2,mbtiauth_6526
937,"(123, 33, 64)",2,mbtiauth_6526
938,"(123, 33, 65)",2,mbtiauth_6526
939,"(123, 64, 33)",2,mbtiauth_6526
940,"(123, 64, 64)",2,mbtiauth_6526
941,"(123, 64, 193)",2,mbtiauth_6526
942,"(123, 65, 33)",2,mbtiauth_6526
943,"(123, 65, 65)",3,mbtiauth_6526
944,"(123, 65, 77)",2,mbtiauth_6526
945,"(123, 65, 401)",2,mbtiauth_6526
946,"(123, 66, 76)",2,mbtiauth_6526
947,"(123, 77, 2)",2,mbtiauth_6526
948,"(123, 77, 16)",2,mbtiauth_6526
949,"(123, 77, 22)",2,mbtiauth_6526
950,"(123, 77, 65)",2,mbtiauth_6526
951,"(123, 77, 77)",2,mbtiauth_6526
952,"(123, 77, 123)",5,mbtiauth_6526
953,"(123, 77, 193)",3,mbtiauth_6526
954,"(123, 77, 212)",2,mbtiauth_6526
955,"(123, 77, 222)",2,mbtiauth_6526
956,"(123, 77, 384)",2,mbtiauth_6526
957,"(123, 77, 599)",2,mbtiauth_6526
958,"(123, 77, 1045)",2,mbtiauth_6526
959,"(123, 77, 1205)",2,mbtiauth_6526
960,"(123, 120, 65)",2,mbtiauth_6526
961,"(123, 120, 77)",2,mbtiauth_6526
962,"(123, 120, 123)",3,mbtiauth_6526
963,"(123, 120, 193)",2,mbtiauth_6526
964,"(123, 120, 340)",3,mbtiauth_6526
965,"(123, 120, 1045)",2,mbtiauth_6526
966,"(123, 123, 65)",3,mbtiauth_6526
967,"(123, 123, 120)",2,mbtiauth_6526
968,"(123, 123, 193)",2,mbtiauth_6526
969,"(123, 123, 384)",2,mbtiauth_6526
970,"(123, 123, 1045)",2,mbtiauth_6526
971,"(123, 127, 77)",2,mbtiauth_6526
972,"(123, 127, 138)",2,mbtiauth_6526
973,"(123, 127, 198)",2,mbtiauth_6526
974,"(123, 138, 198)",2,mbtiauth_6526
975,"(123, 144, 22)",2,mbtiauth_6526
976,"(123, 144, 193)",2,mbtiauth_6526
977,"(123, 154, 22)",2,mbtiauth_6526
978,"(123, 154, 32)",2,mbtiauth_6526
979,"(123, 154, 77)",2,mbtiauth_6526
980,"(123, 154, 225)",2,mbtiauth_6526
981,"(123, 156, 1156)",2,mbtiauth_6526
982,"(123, 174, 65)",2,mbtiauth_6526
983,"(123, 174, 77)",2,mbtiauth_6526
984,"(123, 193, 16)",2,mbtiauth_6526
985,"(123, 193, 22)",2,mbtiauth_6526
986,"(123, 193, 66)",2,mbtiauth_6526
987,"(123, 193, 76)",2,mbtiauth_6526
988,"(123, 193, 77)",3,mbtiauth_6526
989,"(123, 193, 1205)",2,mbtiauth_6526
990,"(123, 206, 65)",2,mbtiauth_6526
991,"(123, 206, 76)",2,mbtiauth_6526
992,"(123, 206, 225)",2,mbtiauth_6526
993,"(123, 206, 2779)",2,mbtiauth_6526
994,"(123, 206, 2780)",2,mbtiauth_6526
995,"(123, 212, 164)",2,mbtiauth_6526
996,"(123, 212, 225)",2,mbtiauth_6526
997,"(123, 246, 77)",2,mbtiauth_6526
998,"(123, 280, 77)",2,mbtiauth_6526
999,"(123, 286, 123)",2,mbtiauth_6526
1000,"(123, 286, 154)",2,mbtiauth_6526
1001,"(123, 286, 262)",2,mbtiauth_6526
1002,"(123, 340, 77)",2,mbtiauth_6526
1003,"(123, 340, 123)",2,mbtiauth_6526
1004,"(123, 340, 1045)",2,mbtiauth_6526
1005,"(123, 356, 154)",2,mbtiauth_6526
1006,"(123, 407, 154)",2,mbtiauth_6526
1007,"(123, 2779, 2780)",2,mbtiauth_6526
1008,"(127, 138, 198)",2,mbtiauth_6526
1009,"(138, 198, 22)",2,mbtiauth_6526
1010,"(144, 193, 22)",2,mbtiauth_6526
1011,"(152, 30, 32)",2,mbtiauth_6526
1012,"(152, 30, 77)",2,mbtiauth_6526
1013,"(152, 65, 77)",2,mbtiauth_6526
1014,"(152, 77, 32)",2,mbtiauth_6526
1015,"(152, 152, 30)",2,mbtiauth_6526
1016,"(152, 152, 77)",2,mbtiauth_6526
1017,"(152, 152, 1156)",2,mbtiauth_6526
1018,"(152, 152, 1813)",2,mbtiauth_6526
1019,"(152, 797, 30)",2,mbtiauth_6526
1020,"(152, 797, 77)",2,mbtiauth_6526
1021,"(152, 797, 152)",2,mbtiauth_6526
1022,"(152, 797, 1156)",2,mbtiauth_6526
1023,"(152, 797, 1813)",2,mbtiauth_6526
1024,"(152, 1156, 30)",2,mbtiauth_6526
1025,"(152, 1156, 32)",2,mbtiauth_6526
1026,"(152, 1156, 77)",2,mbtiauth_6526
1027,"(152, 1813, 30)",2,mbtiauth_6526
1028,"(152, 1813, 32)",2,mbtiauth_6526
1029,"(152, 1813, 77)",2,mbtiauth_6526
1030,"(152, 1813, 1156)",2,mbtiauth_6526
1031,"(154, 10, 77)",2,mbtiauth_6526
1032,"(154, 77, 22)",3,mbtiauth_6526
1033,"(154, 77, 123)",2,mbtiauth_6526
1034,"(154, 77, 193)",2,mbtiauth_6526
1035,"(154, 77, 599)",2,mbtiauth_6526
1036,"(154, 123, 64)",2,mbtiauth_6526
1037,"(154, 159, 77)",2,mbtiauth_6526
1038,"(154, 193, 123)",2,mbtiauth_6526
1039,"(154, 198, 22)",2,mbtiauth_6526
1040,"(154, 198, 77)",2,mbtiauth_6526
1041,"(154, 599, 193)",2,mbtiauth_6526
1042,"(156, 1156, 77)",2,mbtiauth_6526
1043,"(174, 65, 77)",2,mbtiauth_6526
1044,"(174, 77, 77)",2,mbtiauth_6526
1045,"(193, 66, 76)",2,mbtiauth_6526
1046,"(193, 77, 16)",2,mbtiauth_6526
1047,"(198, 10, 22)",2,mbtiauth_6526
1048,"(198, 77, 22)",2,mbtiauth_6526
1049,"(200, 1027, 193)",2,mbtiauth_6526
1050,"(202, 123, 193)",2,mbtiauth_6526
1051,"(206, 2779, 2780)",2,mbtiauth_6526
1052,"(212, 77, 123)",2,mbtiauth_6526
1053,"(212, 520, 154)",2,mbtiauth_6526
1054,"(212, 520, 193)",2,mbtiauth_6526
1055,"(225, 10, 44)",2,mbtiauth_6526
1056,"(225, 10, 64)",2,mbtiauth_6526
1057,"(225, 10, 65)",2,mbtiauth_6526
1058,"(225, 22, 193)",2,mbtiauth_6526
1059,"(225, 44, 64)",2,mbtiauth_6526
1060,"(225, 65, 44)",2,mbtiauth_6526
1061,"(225, 65, 64)",2,mbtiauth_6526
1062,"(225, 77, 22)",2,mbtiauth_6526
1063,"(225, 77, 193)",2,mbtiauth_6526
1064,"(225, 144, 193)",2,mbtiauth_6526
1065,"(225, 254, 65)",2,mbtiauth_6526
1066,"(225, 711, 10)",2,mbtiauth_6526
1067,"(225, 711, 44)",2,mbtiauth_6526
1068,"(225, 711, 64)",2,mbtiauth_6526
1069,"(225, 711, 65)",2,mbtiauth_6526
1070,"(225, 711, 793)",2,mbtiauth_6526
1071,"(225, 711, 3494)",2,mbtiauth_6526
1072,"(225, 793, 10)",2,mbtiauth_6526
1073,"(225, 793, 44)",2,mbtiauth_6526
1074,"(225, 793, 64)",2,mbtiauth_6526
1075,"(225, 793, 65)",2,mbtiauth_6526
1076,"(225, 793, 3494)",2,mbtiauth_6526
1077,"(225, 3494, 10)",2,mbtiauth_6526
1078,"(225, 3494, 44)",2,mbtiauth_6526
1079,"(225, 3494, 64)",2,mbtiauth_6526
1080,"(225, 3494, 65)",2,mbtiauth_6526
1081,"(236, 41, 193)",2,mbtiauth_6526
1082,"(236, 65, 193)",2,mbtiauth_6526
1083,"(236, 77, 212)",2,mbtiauth_6526
1084,"(236, 123, 77)",2,mbtiauth_6526
1085,"(236, 123, 212)",2,mbtiauth_6526
1086,"(246, 65, 65)",2,mbtiauth_6526
1087,"(246, 77, 123)",2,mbtiauth_6526
1088,"(262, 64, 67)",2,mbtiauth_6526
1089,"(263, 291, 193)",2,mbtiauth_6526
1090,"(280, 77, 22)",2,mbtiauth_6526
1091,"(280, 77, 123)",2,mbtiauth_6526
1092,"(280, 280, 77)",2,mbtiauth_6526
1093,"(280, 1180, 77)",3,mbtiauth_6526
1094,"(280, 1895, 77)",2,mbtiauth_6526
1095,"(326, 77, 77)",2,mbtiauth_6526
1096,"(340, 66, 76)",2,mbtiauth_6526
1097,"(340, 77, 123)",2,mbtiauth_6526
1098,"(340, 77, 1045)",2,mbtiauth_6526
1099,"(340, 123, 66)",2,mbtiauth_6526
1100,"(340, 123, 76)",2,mbtiauth_6526
1101,"(340, 123, 193)",2,mbtiauth_6526
1102,"(340, 123, 1045)",2,mbtiauth_6526
1103,"(340, 193, 66)",2,mbtiauth_6526
1104,"(340, 193, 76)",2,mbtiauth_6526
1105,"(340, 222, 77)",2,mbtiauth_6526
1106,"(356, 77, 965)",2,mbtiauth_6526
1107,"(364, 65, 77)",3,mbtiauth_6526
1108,"(364, 65, 1156)",3,mbtiauth_6526
1109,"(364, 77, 123)",2,mbtiauth_6526
1110,"(364, 77, 193)",2,mbtiauth_6526
1111,"(364, 77, 599)",2,mbtiauth_6526
1112,"(364, 123, 64)",2,mbtiauth_6526
1113,"(364, 223, 64)",2,mbtiauth_6526
1114,"(364, 236, 123)",2,mbtiauth_6526
1115,"(364, 1156, 77)",2,mbtiauth_6526
1116,"(417, 64, 64)",2,mbtiauth_6526
1117,"(520, 64, 33)",2,mbtiauth_6526
1118,"(520, 77, 123)",2,mbtiauth_6526
1119,"(520, 123, 33)",2,mbtiauth_6526
1120,"(520, 123, 64)",2,mbtiauth_6526
1121,"(520, 123, 499)",2,mbtiauth_6526
1122,"(567, 77, 22)",2,mbtiauth_6526
1123,"(642, 77, 123)",2,mbtiauth_6526
1124,"(671, 154, 77)",2,mbtiauth_6526
1125,"(693, 10, 44)",2,mbtiauth_6526
1126,"(693, 10, 64)",2,mbtiauth_6526
1127,"(693, 10, 65)",2,mbtiauth_6526
1128,"(693, 44, 64)",2,mbtiauth_6526
1129,"(693, 65, 44)",2,mbtiauth_6526
1130,"(693, 65, 64)",2,mbtiauth_6526
1131,"(693, 225, 10)",2,mbtiauth_6526
1132,"(693, 225, 44)",2,mbtiauth_6526
1133,"(693, 225, 64)",2,mbtiauth_6526
1134,"(693, 225, 65)",2,mbtiauth_6526
1135,"(693, 225, 711)",2,mbtiauth_6526
1136,"(693, 225, 793)",2,mbtiauth_6526
1137,"(693, 225, 3494)",2,mbtiauth_6526
1138,"(693, 711, 10)",2,mbtiauth_6526
1139,"(693, 711, 44)",2,mbtiauth_6526
1140,"(693, 711, 64)",2,mbtiauth_6526
1141,"(693, 711, 65)",2,mbtiauth_6526
1142,"(693, 711, 793)",2,mbtiauth_6526
1143,"(693, 711, 3494)",2,mbtiauth_6526
1144,"(693, 793, 10)",2,mbtiauth_6526
1145,"(693, 793, 44)",2,mbtiauth_6526
1146,"(693, 793, 64)",2,mbtiauth_6526
1147,"(693, 793, 65)",2,mbtiauth_6526
1148,"(693, 793, 3494)",2,mbtiauth_6526
1149,"(693, 3494, 10)",2,mbtiauth_6526
1150,"(693, 3494, 44)",2,mbtiauth_6526
1151,"(693, 3494, 64)",2,mbtiauth_6526
1152,"(693, 3494, 65)",2,mbtiauth_6526
1153,"(701, 64, 222)",2,mbtiauth_6526
1154,"(711, 10, 44)",2,mbtiauth_6526
1155,"(711, 10, 64)",2,mbtiauth_6526
1156,"(711, 10, 65)",2,mbtiauth_6526
1157,"(711, 22, 32)",2,mbtiauth_6526
1158,"(711, 22, 65)",2,mbtiauth_6526
1159,"(711, 44, 64)",2,mbtiauth_6526
1160,"(711, 65, 44)",2,mbtiauth_6526
1161,"(711, 65, 64)",2,mbtiauth_6526
1162,"(711, 65, 193)",2,mbtiauth_6526
1163,"(711, 254, 65)",2,mbtiauth_6526
1164,"(711, 793, 10)",2,mbtiauth_6526
1165,"(711, 793, 44)",2,mbtiauth_6526
1166,"(711, 793, 64)",2,mbtiauth_6526
1167,"(711, 793, 65)",2,mbtiauth_6526
1168,"(711, 793, 3494)",2,mbtiauth_6526
1169,"(711, 3494, 10)",2,mbtiauth_6526
1170,"(711, 3494, 44)",2,mbtiauth_6526
1171,"(711, 3494, 64)",2,mbtiauth_6526
1172,"(711, 3494, 65)",2,mbtiauth_6526
1173,"(765, 123, 77)",2,mbtiauth_6526
1174,"(793, 10, 44)",2,mbtiauth_6526
1175,"(793, 10, 64)",2,mbtiauth_6526
1176,"(793, 10, 65)",2,mbtiauth_6526
1177,"(793, 44, 64)",2,mbtiauth_6526
1178,"(793, 65, 44)",2,mbtiauth_6526
1179,"(793, 65, 64)",2,mbtiauth_6526
1180,"(793, 3494, 10)",2,mbtiauth_6526
1181,"(793, 3494, 44)",2,mbtiauth_6526
1182,"(793, 3494, 64)",2,mbtiauth_6526
1183,"(793, 3494, 65)",2,mbtiauth_6526
1184,"(797, 30, 77)",2,mbtiauth_6526
1185,"(797, 152, 30)",2,mbtiauth_6526
1186,"(797, 152, 77)",2,mbtiauth_6526
1187,"(797, 152, 1156)",2,mbtiauth_6526
1188,"(797, 152, 1813)",2,mbtiauth_6526
1189,"(797, 1156, 30)",2,mbtiauth_6526
1190,"(797, 1156, 77)",2,mbtiauth_6526
1191,"(797, 1813, 30)",2,mbtiauth_6526
1192,"(797, 1813, 77)",2,mbtiauth_6526
1193,"(797, 1813, 1156)",2,mbtiauth_6526
1194,"(826, 65, 263)",2,mbtiauth_6526
1195,"(886, 152, 30)",2,mbtiauth_6526
1196,"(886, 152, 77)",2,mbtiauth_6526
1197,"(886, 152, 152)",2,mbtiauth_6526
1198,"(886, 152, 797)",2,mbtiauth_6526
1199,"(886, 152, 1156)",2,mbtiauth_6526
1200,"(886, 152, 1813)",2,mbtiauth_6526
1201,"(886, 797, 30)",2,mbtiauth_6526
1202,"(886, 797, 77)",2,mbtiauth_6526
1203,"(886, 797, 152)",2,mbtiauth_6526
1204,"(886, 797, 1156)",2,mbtiauth_6526
1205,"(886, 797, 1813)",2,mbtiauth_6526
1206,"(886, 1156, 30)",2,mbtiauth_6526
1207,"(886, 1813, 30)",2,mbtiauth_6526
1208,"(886, 1813, 77)",2,mbtiauth_6526
1209,"(886, 1813, 1156)",2,mbtiauth_6526
1210,"(951, 65, 32)",2,mbtiauth_6526
1211,"(1156, 30, 16)",2,mbtiauth_6526
1212,"(1156, 30, 32)",2,mbtiauth_6526
1213,"(1156, 30, 77)",3,mbtiauth_6526
1214,"(1156, 30, 364)",2,mbtiauth_6526
1215,"(1156, 77, 32)",2,mbtiauth_6526
1216,"(1156, 77, 212)",2,mbtiauth_6526
1217,"(1156, 77, 2137)",2,mbtiauth_6526
1218,"(1156, 364, 16)",2,mbtiauth_6526
1219,"(1180, 77, 123)",2,mbtiauth_6526
1220,"(1180, 280, 77)",2,mbtiauth_6526
1221,"(1180, 280, 123)",2,mbtiauth_6526
1222,"(1180, 280, 1180)",2,mbtiauth_6526
1223,"(1180, 280, 1895)",2,mbtiauth_6526
1224,"(1180, 1180, 77)",2,mbtiauth_6526
1225,"(1813, 30, 32)",2,mbtiauth_6526
1226,"(1813, 30, 77)",2,mbtiauth_6526
1227,"(1813, 77, 32)",2,mbtiauth_6526
1228,"(1813, 1156, 30)",2,mbtiauth_6526
1229,"(1813, 1156, 32)",2,mbtiauth_6526
1230,"(1813, 1156, 77)",2,mbtiauth_6526
1231,"(1895, 280, 77)",2,mbtiauth_6526
1232,"(1895, 280, 280)",2,mbtiauth_6526
1233,"(1895, 280, 1180)",2,mbtiauth_6526
1234,"(1895, 280, 1895)",2,mbtiauth_6526
1235,"(1895, 1180, 77)",2,mbtiauth_6526
1236,"(1895, 1895, 77)",2,mbtiauth_6526
1237,"(1895, 1895, 280)",3,mbtiauth_6526
1238,"(1895, 1895, 1180)",2,mbtiauth_6526
1239,"(1895, 1895, 1895)",3,mbtiauth_6526
1240,"(2947, 236, 193)",2,mbtiauth_6526
1241,"(3158, 64, 67)",2,mbtiauth_6526
1242,"(3494, 10, 44)",2,mbtiauth_6526
1243,"(3494, 10, 64)",2,mbtiauth_6526
1244,"(3494, 10, 65)",2,mbtiauth_6526
1245,"(3494, 44, 64)",2,mbtiauth_6526
1246,"(3494, 65, 44)",2,mbtiauth_6526
1247,"(3494, 65, 64)",2,mbtiauth_6526
1248,"(10, 65, 44, 64)",2,mbtiauth_6526
1249,"(10, 77, 64, 22)",2,mbtiauth_6526
1250,"(16, 65, 77, 77)",2,mbtiauth_6526
1251,"(41, 65, 263, 2)",2,mbtiauth_6526
1252,"(41, 198, 10, 22)",2,mbtiauth_6526
1253,"(41, 826, 65, 263)",2,mbtiauth_6526
1254,"(64, 64, 22, 123)",2,mbtiauth_6526
1255,"(64, 65, 291, 193)",2,mbtiauth_6526
1256,"(64, 711, 65, 193)",2,mbtiauth_6526
1257,"(65, 123, 120, 340)",2,mbtiauth_6526
1258,"(65, 152, 65, 77)",2,mbtiauth_6526
1259,"(65, 263, 291, 193)",2,mbtiauth_6526
1260,"(65, 1156, 77, 212)",2,mbtiauth_6526
1261,"(65, 1156, 77, 2137)",2,mbtiauth_6526
1262,"(70, 123, 64, 33)",2,mbtiauth_6526
1263,"(77, 10, 77, 64)",2,mbtiauth_6526
1264,"(77, 41, 65, 263)",2,mbtiauth_6526
1265,"(77, 41, 826, 65)",2,mbtiauth_6526
1266,"(77, 41, 826, 263)",2,mbtiauth_6526
1267,"(77, 123, 2, 65)",2,mbtiauth_6526
1268,"(77, 123, 64, 64)",2,mbtiauth_6526
1269,"(77, 123, 65, 65)",2,mbtiauth_6526
1270,"(77, 123, 77, 123)",2,mbtiauth_6526
1271,"(77, 123, 286, 123)",2,mbtiauth_6526
1272,"(77, 123, 407, 154)",2,mbtiauth_6526
1273,"(77, 826, 65, 263)",2,mbtiauth_6526
1274,"(77, 951, 65, 32)",2,mbtiauth_6526
1275,"(120, 77, 123, 1045)",2,mbtiauth_6526
1276,"(120, 340, 77, 123)",2,mbtiauth_6526
1277,"(120, 340, 77, 1045)",2,mbtiauth_6526
1278,"(120, 340, 123, 1045)",2,mbtiauth_6526
1279,"(123, 65, 33, 65)",2,mbtiauth_6526
1280,"(123, 65, 77, 77)",2,mbtiauth_6526
1281,"(123, 77, 123, 65)",2,mbtiauth_6526
1282,"(123, 77, 123, 384)",2,mbtiauth_6526
1283,"(123, 77, 123, 1045)",2,mbtiauth_6526
1284,"(123, 77, 193, 1205)",2,mbtiauth_6526
1285,"(123, 120, 77, 123)",2,mbtiauth_6526
1286,"(123, 120, 77, 1045)",2,mbtiauth_6526
1287,"(123, 120, 123, 1045)",2,mbtiauth_6526
1288,"(123, 120, 340, 77)",2,mbtiauth_6526
1289,"(123, 120, 340, 123)",2,mbtiauth_6526
1290,"(123, 120, 340, 1045)",2,mbtiauth_6526
1291,"(123, 127, 138, 198)",2,mbtiauth_6526
1292,"(123, 144, 193, 22)",2,mbtiauth_6526
1293,"(123, 174, 65, 77)",2,mbtiauth_6526
1294,"(123, 174, 77, 77)",2,mbtiauth_6526
1295,"(123, 193, 66, 76)",2,mbtiauth_6526
1296,"(123, 193, 77, 16)",2,mbtiauth_6526
1297,"(123, 206, 2779, 2780)",2,mbtiauth_6526
1298,"(123, 340, 77, 123)",2,mbtiauth_6526
1299,"(123, 340, 77, 1045)",2,mbtiauth_6526
1300,"(123, 340, 123, 1045)",2,mbtiauth_6526
1301,"(152, 30, 77, 32)",2,mbtiauth_6526
1302,"(152, 152, 1156, 30)",2,mbtiauth_6526
1303,"(152, 152, 1813, 30)",2,mbtiauth_6526
1304,"(152, 152, 1813, 77)",2,mbtiauth_6526
1305,"(152, 152, 1813, 1156)",2,mbtiauth_6526
1306,"(152, 797, 152, 30)",2,mbtiauth_6526
1307,"(152, 797, 152, 77)",2,mbtiauth_6526
1308,"(152, 797, 152, 1156)",2,mbtiauth_6526
1309,"(152, 797, 152, 1813)",2,mbtiauth_6526
1310,"(152, 797, 1156, 30)",2,mbtiauth_6526
1311,"(152, 797, 1813, 30)",2,mbtiauth_6526
1312,"(152, 797, 1813, 77)",2,mbtiauth_6526
1313,"(152, 797, 1813, 1156)",2,mbtiauth_6526
1314,"(152, 1156, 30, 32)",2,mbtiauth_6526
1315,"(152, 1156, 30, 77)",2,mbtiauth_6526
1316,"(152, 1156, 77, 32)",2,mbtiauth_6526
1317,"(152, 1813, 30, 32)",2,mbtiauth_6526
1318,"(152, 1813, 30, 77)",2,mbtiauth_6526
1319,"(152, 1813, 77, 32)",2,mbtiauth_6526
1320,"(152, 1813, 1156, 30)",2,mbtiauth_6526
1321,"(152, 1813, 1156, 32)",2,mbtiauth_6526
1322,"(152, 1813, 1156, 77)",2,mbtiauth_6526
1323,"(154, 77, 599, 193)",2,mbtiauth_6526
1324,"(154, 198, 77, 22)",2,mbtiauth_6526
1325,"(174, 65, 77, 77)",2,mbtiauth_6526
1326,"(225, 10, 44, 64)",2,mbtiauth_6526
1327,"(225, 10, 65, 44)",2,mbtiauth_6526
1328,"(225, 10, 65, 64)",2,mbtiauth_6526
1329,"(225, 65, 44, 64)",2,mbtiauth_6526
1330,"(225, 77, 22, 193)",2,mbtiauth_6526
1331,"(225, 711, 10, 44)",2,mbtiauth_6526
1332,"(225, 711, 10, 64)",2,mbtiauth_6526
1333,"(225, 711, 10, 65)",2,mbtiauth_6526
1334,"(225, 711, 44, 64)",2,mbtiauth_6526
1335,"(225, 711, 65, 44)",2,mbtiauth_6526
1336,"(225, 711, 65, 64)",2,mbtiauth_6526
1337,"(225, 711, 793, 10)",2,mbtiauth_6526
1338,"(225, 711, 793, 44)",2,mbtiauth_6526
1339,"(225, 711, 793, 64)",2,mbtiauth_6526
1340,"(225, 711, 793, 65)",2,mbtiauth_6526
1341,"(225, 711, 793, 3494)",2,mbtiauth_6526
1342,"(225, 711, 3494, 10)",2,mbtiauth_6526
1343,"(225, 711, 3494, 44)",2,mbtiauth_6526
1344,"(225, 711, 3494, 64)",2,mbtiauth_6526
1345,"(225, 711, 3494, 65)",2,mbtiauth_6526
1346,"(225, 793, 10, 44)",2,mbtiauth_6526
1347,"(225, 793, 10, 64)",2,mbtiauth_6526
1348,"(225, 793, 10, 65)",2,mbtiauth_6526
1349,"(225, 793, 44, 64)",2,mbtiauth_6526
1350,"(225, 793, 65, 44)",2,mbtiauth_6526
1351,"(225, 793, 65, 64)",2,mbtiauth_6526
1352,"(225, 793, 3494, 10)",2,mbtiauth_6526
1353,"(225, 793, 3494, 44)",2,mbtiauth_6526
1354,"(225, 793, 3494, 64)",2,mbtiauth_6526
1355,"(225, 793, 3494, 65)",2,mbtiauth_6526
1356,"(225, 3494, 10, 44)",2,mbtiauth_6526
1357,"(225, 3494, 10, 64)",2,mbtiauth_6526
1358,"(225, 3494, 10, 65)",2,mbtiauth_6526
1359,"(225, 3494, 44, 64)",2,mbtiauth_6526
1360,"(225, 3494, 65, 44)",2,mbtiauth_6526
1361,"(225, 3494, 65, 64)",2,mbtiauth_6526
1362,"(236, 123, 77, 212)",2,mbtiauth_6526
1363,"(340, 77, 123, 1045)",2,mbtiauth_6526
1364,"(340, 123, 66, 76)",2,mbtiauth_6526
1365,"(340, 123, 193, 66)",2,mbtiauth_6526
1366,"(340, 123, 193, 76)",2,mbtiauth_6526
1367,"(340, 193, 66, 76)",2,mbtiauth_6526
1368,"(364, 65, 1156, 77)",2,mbtiauth_6526
1369,"(520, 123, 64, 33)",2,mbtiauth_6526
1370,"(693, 10, 44, 64)",2,mbtiauth_6526
1371,"(693, 10, 65, 44)",2,mbtiauth_6526
1372,"(693, 10, 65, 64)",2,mbtiauth_6526
1373,"(693, 65, 44, 64)",2,mbtiauth_6526
1374,"(693, 225, 10, 44)",2,mbtiauth_6526
1375,"(693, 225, 10, 64)",2,mbtiauth_6526
1376,"(693, 225, 10, 65)",2,mbtiauth_6526
1377,"(693, 225, 44, 64)",2,mbtiauth_6526
1378,"(693, 225, 65, 44)",2,mbtiauth_6526
1379,"(693, 225, 65, 64)",2,mbtiauth_6526
1380,"(693, 225, 711, 10)",2,mbtiauth_6526
1381,"(693, 225, 711, 44)",2,mbtiauth_6526
1382,"(693, 225, 711, 64)",2,mbtiauth_6526
1383,"(693, 225, 711, 65)",2,mbtiauth_6526
1384,"(693, 225, 711, 793)",2,mbtiauth_6526
1385,"(693, 225, 711, 3494)",2,mbtiauth_6526
1386,"(693, 225, 793, 10)",2,mbtiauth_6526
1387,"(693, 225, 793, 44)",2,mbtiauth_6526
1388,"(693, 225, 793, 64)",2,mbtiauth_6526
1389,"(693, 225, 793, 65)",2,mbtiauth_6526
1390,"(693, 225, 793, 3494)",2,mbtiauth_6526
1391,"(693, 225, 3494, 10)",2,mbtiauth_6526
1392,"(693, 225, 3494, 44)",2,mbtiauth_6526
1393,"(693, 225, 3494, 64)",2,mbtiauth_6526
1394,"(693, 225, 3494, 65)",2,mbtiauth_6526
1395,"(693, 711, 10, 44)",2,mbtiauth_6526
1396,"(693, 711, 10, 64)",2,mbtiauth_6526
1397,"(693, 711, 10, 65)",2,mbtiauth_6526
1398,"(693, 711, 44, 64)",2,mbtiauth_6526
1399,"(693, 711, 65, 44)",2,mbtiauth_6526
1400,"(693, 711, 65, 64)",2,mbtiauth_6526
1401,"(693, 711, 793, 10)",2,mbtiauth_6526
1402,"(693, 711, 793, 44)",2,mbtiauth_6526
1403,"(693, 711, 793, 64)",2,mbtiauth_6526
1404,"(693, 711, 793, 65)",2,mbtiauth_6526
1405,"(693, 711, 793, 3494)",2,mbtiauth_6526
1406,"(693, 711, 3494, 10)",2,mbtiauth_6526
1407,"(693, 711, 3494, 44)",2,mbtiauth_6526
1408,"(693, 711, 3494, 64)",2,mbtiauth_6526
1409,"(693, 711, 3494, 65)",2,mbtiauth_6526
1410,"(693, 793, 10, 44)",2,mbtiauth_6526
1411,"(693, 793, 10, 64)",2,mbtiauth_6526
1412,"(693, 793, 10, 65)",2,mbtiauth_6526
1413,"(693, 793, 44, 64)",2,mbtiauth_6526
1414,"(693, 793, 65, 44)",2,mbtiauth_6526
1415,"(693, 793, 65, 64)",2,mbtiauth_6526
1416,"(693, 793, 3494, 10)",2,mbtiauth_6526
1417,"(693, 793, 3494, 44)",2,mbtiauth_6526
1418,"(693, 793, 3494, 64)",2,mbtiauth_6526
1419,"(693, 793, 3494, 65)",2,mbtiauth_6526
1420,"(693, 3494, 10, 44)",2,mbtiauth_6526
1421,"(693, 3494, 10, 64)",2,mbtiauth_6526
1422,"(693, 3494, 10, 65)",2,mbtiauth_6526
1423,"(693, 3494, 44, 64)",2,mbtiauth_6526
1424,"(693, 3494, 65, 44)",2,mbtiauth_6526
1425,"(693, 3494, 65, 64)",2,mbtiauth_6526
1426,"(711, 10, 44, 64)",2,mbtiauth_6526
1427,"(711, 10, 65, 44)",2,mbtiauth_6526
1428,"(711, 10, 65, 64)",2,mbtiauth_6526
1429,"(711, 65, 44, 64)",2,mbtiauth_6526
1430,"(711, 793, 10, 44)",2,mbtiauth_6526
1431,"(711, 793, 10, 64)",2,mbtiauth_6526
1432,"(711, 793, 10, 65)",2,mbtiauth_6526
1433,"(711, 793, 44, 64)",2,mbtiauth_6526
1434,"(711, 793, 65, 44)",2,mbtiauth_6526
1435,"(711, 793, 65, 64)",2,mbtiauth_6526
1436,"(711, 793, 3494, 10)",2,mbtiauth_6526
1437,"(711, 793, 3494, 44)",2,mbtiauth_6526
1438,"(711, 793, 3494, 64)",2,mbtiauth_6526
1439,"(711, 793, 3494, 65)",2,mbtiauth_6526
1440,"(711, 3494, 10, 44)",2,mbtiauth_6526
1441,"(711, 3494, 10, 64)",2,mbtiauth_6526
1442,"(711, 3494, 10, 65)",2,mbtiauth_6526
1443,"(711, 3494, 44, 64)",2,mbtiauth_6526
1444,"(711, 3494, 65, 44)",2,mbtiauth_6526
1445,"(711, 3494, 65, 64)",2,mbtiauth_6526
1446,"(793, 10, 44, 64)",2,mbtiauth_6526
1447,"(793, 10, 65, 44)",2,mbtiauth_6526
1448,"(793, 10, 65, 64)",2,mbtiauth_6526
1449,"(793, 65, 44, 64)",2,mbtiauth_6526
1450,"(793, 3494, 10, 44)",2,mbtiauth_6526
1451,"(793, 3494, 10, 64)",2,mbtiauth_6526
1452,"(793, 3494, 10, 65)",2,mbtiauth_6526
1453,"(793, 3494, 44, 64)",2,mbtiauth_6526
1454,"(793, 3494, 65, 44)",2,mbtiauth_6526
1455,"(793, 3494, 65, 64)",2,mbtiauth_6526
1456,"(797, 152, 30, 77)",2,mbtiauth_6526
1457,"(797, 152, 1156, 30)",2,mbtiauth_6526
1458,"(797, 152, 1156, 77)",2,mbtiauth_6526
1459,"(797, 152, 1813, 30)",2,mbtiauth_6526
1460,"(797, 152, 1813, 77)",2,mbtiauth_6526
1461,"(797, 152, 1813, 1156)",2,mbtiauth_6526
1462,"(797, 1156, 30, 77)",2,mbtiauth_6526
1463,"(797, 1813, 30, 77)",2,mbtiauth_6526
1464,"(797, 1813, 1156, 30)",2,mbtiauth_6526
1465,"(797, 1813, 1156, 77)",2,mbtiauth_6526
1466,"(886, 152, 152, 30)",2,mbtiauth_6526
1467,"(886, 152, 152, 77)",2,mbtiauth_6526
1468,"(886, 152, 152, 1156)",2,mbtiauth_6526
1469,"(886, 152, 152, 1813)",2,mbtiauth_6526
1470,"(886, 152, 797, 30)",2,mbtiauth_6526
1471,"(886, 152, 797, 77)",2,mbtiauth_6526
1472,"(886, 152, 797, 152)",2,mbtiauth_6526
1473,"(886, 152, 797, 1156)",2,mbtiauth_6526
1474,"(886, 152, 797, 1813)",2,mbtiauth_6526
1475,"(886, 152, 1156, 30)",2,mbtiauth_6526
1476,"(886, 152, 1813, 30)",2,mbtiauth_6526
1477,"(886, 152, 1813, 77)",2,mbtiauth_6526
1478,"(886, 152, 1813, 1156)",2,mbtiauth_6526
1479,"(886, 797, 152, 30)",2,mbtiauth_6526
1480,"(886, 797, 152, 77)",2,mbtiauth_6526
1481,"(886, 797, 152, 1156)",2,mbtiauth_6526
1482,"(886, 797, 152, 1813)",2,mbtiauth_6526
1483,"(886, 797, 1156, 30)",2,mbtiauth_6526
1484,"(886, 797, 1813, 30)",2,mbtiauth_6526
1485,"(886, 797, 1813, 77)",2,mbtiauth_6526
1486,"(886, 797, 1813, 1156)",2,mbtiauth_6526
1487,"(886, 1813, 1156, 30)",2,mbtiauth_6526
1488,"(1156, 30, 77, 32)",2,mbtiauth_6526
1489,"(1156, 30, 364, 16)",2,mbtiauth_6526
1490,"(1180, 280, 77, 123)",2,mbtiauth_6526
1491,"(1813, 30, 77, 32)",2,mbtiauth_6526
1492,"(1813, 1156, 30, 32)",2,mbtiauth_6526
1493,"(1813, 1156, 30, 77)",2,mbtiauth_6526
1494,"(1813, 1156, 77, 32)",2,mbtiauth_6526
1495,"(1895, 280, 280, 77)",2,mbtiauth_6526
1496,"(1895, 280, 1180, 77)",2,mbtiauth_6526
1497,"(1895, 280, 1895, 77)",2,mbtiauth_6526
1498,"(1895, 1895, 280, 280)",2,mbtiauth_6526
1499,"(1895, 1895, 280, 1180)",2,mbtiauth_6526
1500,"(1895, 1895, 280, 1895)",2,mbtiauth_6526
1501,"(1895, 1895, 1895, 280)",2,mbtiauth_6526
1502,"(1895, 1895, 1895, 1180)",2,mbtiauth_6526
1503,"(1895, 1895, 1895, 1895)",2,mbtiauth_6526
1504,"(3494, 10, 44, 64)",2,mbtiauth_6526
1505,"(3494, 10, 65, 44)",2,mbtiauth_6526
1506,"(3494, 10, 65, 64)",2,mbtiauth_6526
1507,"(3494, 65, 44, 64)",2,mbtiauth_6526
1508,"(77, 41, 826, 65, 263)",2,mbtiauth_6526
1509,"(120, 340, 77, 123, 1045)",2,mbtiauth_6526
1510,"(123, 120, 77, 123, 1045)",2,mbtiauth_6526
1511,"(123, 120, 340, 77, 123)",2,mbtiauth_6526
1512,"(123, 120, 340, 77, 1045)",2,mbtiauth_6526
1513,"(123, 120, 340, 123, 1045)",2,mbtiauth_6526
1514,"(123, 174, 65, 77, 77)",2,mbtiauth_6526
1515,"(123, 340, 77, 123, 1045)",2,mbtiauth_6526
1516,"(152, 152, 1813, 1156, 30)",2,mbtiauth_6526
1517,"(152, 797, 152, 1156, 30)",2,mbtiauth_6526
1518,"(152, 797, 152, 1813, 30)",2,mbtiauth_6526
1519,"(152, 797, 152, 1813, 77)",2,mbtiauth_6526
1520,"(152, 797, 152, 1813, 1156)",2,mbtiauth_6526
1521,"(152, 797, 1813, 1156, 30)",2,mbtiauth_6526
1522,"(152, 1156, 30, 77, 32)",2,mbtiauth_6526
1523,"(152, 1813, 30, 77, 32)",2,mbtiauth_6526
1524,"(152, 1813, 1156, 30, 32)",2,mbtiauth_6526
1525,"(152, 1813, 1156, 30, 77)",2,mbtiauth_6526
1526,"(152, 1813, 1156, 77, 32)",2,mbtiauth_6526
1527,"(225, 10, 65, 44, 64)",2,mbtiauth_6526
1528,"(225, 711, 10, 44, 64)",2,mbtiauth_6526
1529,"(225, 711, 10, 65, 44)",2,mbtiauth_6526
1530,"(225, 711, 10, 65, 64)",2,mbtiauth_6526
1531,"(225, 711, 65, 44, 64)",2,mbtiauth_6526
1532,"(225, 711, 793, 10, 44)",2,mbtiauth_6526
1533,"(225, 711, 793, 10, 64)",2,mbtiauth_6526
1534,"(225, 711, 793, 10, 65)",2,mbtiauth_6526
1535,"(225, 711, 793, 44, 64)",2,mbtiauth_6526
1536,"(225, 711, 793, 65, 44)",2,mbtiauth_6526
1537,"(225, 711, 793, 65, 64)",2,mbtiauth_6526
1538,"(225, 711, 793, 3494, 10)",2,mbtiauth_6526
1539,"(225, 711, 793, 3494, 44)",2,mbtiauth_6526
1540,"(225, 711, 793, 3494, 64)",2,mbtiauth_6526
1541,"(225, 711, 793, 3494, 65)",2,mbtiauth_6526
1542,"(225, 711, 3494, 10, 44)",2,mbtiauth_6526
1543,"(225, 711, 3494, 10, 64)",2,mbtiauth_6526
1544,"(225, 711, 3494, 10, 65)",2,mbtiauth_6526
1545,"(225, 711, 3494, 44, 64)",2,mbtiauth_6526
1546,"(225, 711, 3494, 65, 44)",2,mbtiauth_6526
1547,"(225, 711, 3494, 65, 64)",2,mbtiauth_6526
1548,"(225, 793, 10, 44, 64)",2,mbtiauth_6526
1549,"(225, 793, 10, 65, 44)",2,mbtiauth_6526
1550,"(225, 793, 10, 65, 64)",2,mbtiauth_6526
1551,"(225, 793, 65, 44, 64)",2,mbtiauth_6526
1552,"(225, 793, 3494, 10, 44)",2,mbtiauth_6526
1553,"(225, 793, 3494, 10, 64)",2,mbtiauth_6526
1554,"(225, 793, 3494, 10, 65)",2,mbtiauth_6526
1555,"(225, 793, 3494, 44, 64)",2,mbtiauth_6526
1556,"(225, 793, 3494, 65, 44)",2,mbtiauth_6526
1557,"(225, 793, 3494, 65, 64)",2,mbtiauth_6526
1558,"(225, 3494, 10, 44, 64)",2,mbtiauth_6526
1559,"(225, 3494, 10, 65, 44)",2,mbtiauth_6526
1560,"(225, 3494, 10, 65, 64)",2,mbtiauth_6526
1561,"(225, 3494, 65, 44, 64)",2,mbtiauth_6526
1562,"(340, 123, 193, 66, 76)",2,mbtiauth_6526
1563,"(693, 10, 65, 44, 64)",2,mbtiauth_6526
1564,"(693, 225, 10, 44, 64)",2,mbtiauth_6526
1565,"(693, 225, 10, 65, 44)",2,mbtiauth_6526
1566,"(693, 225, 10, 65, 64)",2,mbtiauth_6526
1567,"(693, 225, 65, 44, 64)",2,mbtiauth_6526
1568,"(693, 225, 711, 10, 44)",2,mbtiauth_6526
1569,"(693, 225, 711, 10, 64)",2,mbtiauth_6526
1570,"(693, 225, 711, 10, 65)",2,mbtiauth_6526
1571,"(693, 225, 711, 44, 64)",2,mbtiauth_6526
1572,"(693, 225, 711, 65, 44)",2,mbtiauth_6526
1573,"(693, 225, 711, 65, 64)",2,mbtiauth_6526
1574,"(693, 225, 711, 793, 10)",2,mbtiauth_6526
1575,"(693, 225, 711, 793, 44)",2,mbtiauth_6526
1576,"(693, 225, 711, 793, 64)",2,mbtiauth_6526
1577,"(693, 225, 711, 793, 65)",2,mbtiauth_6526
1578,"(693, 225, 711, 793, 3494)",2,mbtiauth_6526
1579,"(693, 225, 711, 3494, 10)",2,mbtiauth_6526
1580,"(693, 225, 711, 3494, 44)",2,mbtiauth_6526
1581,"(693, 225, 711, 3494, 64)",2,mbtiauth_6526
1582,"(693, 225, 711, 3494, 65)",2,mbtiauth_6526
1583,"(693, 225, 793, 10, 44)",2,mbtiauth_6526
1584,"(693, 225, 793, 10, 64)",2,mbtiauth_6526
1585,"(693, 225, 793, 10, 65)",2,mbtiauth_6526
1586,"(693, 225, 793, 44, 64)",2,mbtiauth_6526
1587,"(693, 225, 793, 65, 44)",2,mbtiauth_6526
1588,"(693, 225, 793, 65, 64)",2,mbtiauth_6526
1589,"(693, 225, 793, 3494, 10)",2,mbtiauth_6526
1590,"(693, 225, 793, 3494, 44)",2,mbtiauth_6526
1591,"(693, 225, 793, 3494, 64)",2,mbtiauth_6526
1592,"(693, 225, 793, 3494, 65)",2,mbtiauth_6526
1593,"(693, 225, 3494, 10, 44)",2,mbtiauth_6526
1594,"(693, 225, 3494, 10, 64)",2,mbtiauth_6526
1595,"(693, 225, 3494, 10, 65)",2,mbtiauth_6526
1596,"(693, 225, 3494, 44, 64)",2,mbtiauth_6526
1597,"(693, 225, 3494, 65, 44)",2,mbtiauth_6526
1598,"(693, 225, 3494, 65, 64)",2,mbtiauth_6526
1599,"(693, 711, 10, 44, 64)",2,mbtiauth_6526
1600,"(693, 711, 10, 65, 44)",2,mbtiauth_6526
1601,"(693, 711, 10, 65, 64)",2,mbtiauth_6526
1602,"(693, 711, 65, 44, 64)",2,mbtiauth_6526
1603,"(693, 711, 793, 10, 44)",2,mbtiauth_6526
1604,"(693, 711, 793, 10, 64)",2,mbtiauth_6526
1605,"(693, 711, 793, 10, 65)",2,mbtiauth_6526
1606,"(693, 711, 793, 44, 64)",2,mbtiauth_6526
1607,"(693, 711, 793, 65, 44)",2,mbtiauth_6526
1608,"(693, 711, 793, 65, 64)",2,mbtiauth_6526
1609,"(693, 711, 793, 3494, 10)",2,mbtiauth_6526
1610,"(693, 711, 793, 3494, 44)",2,mbtiauth_6526
1611,"(693, 711, 793, 3494, 64)",2,mbtiauth_6526
1612,"(693, 711, 793, 3494, 65)",2,mbtiauth_6526
1613,"(693, 711, 3494, 10, 44)",2,mbtiauth_6526
1614,"(693, 711, 3494, 10, 64)",2,mbtiauth_6526
1615,"(693, 711, 3494, 10, 65)",2,mbtiauth_6526
1616,"(693, 711, 3494, 44, 64)",2,mbtiauth_6526
1617,"(693, 711, 3494, 65, 44)",2,mbtiauth_6526
1618,"(693, 711, 3494, 65, 64)",2,mbtiauth_6526
1619,"(693, 793, 10, 44, 64)",2,mbtiauth_6526
1620,"(693, 793, 10, 65, 44)",2,mbtiauth_6526
1621,"(693, 793, 10, 65, 64)",2,mbtiauth_6526
1622,"(693, 793, 65, 44, 64)",2,mbtiauth_6526
1623,"(693, 793, 3494, 10, 44)",2,mbtiauth_6526
1624,"(693, 793, 3494, 10, 64)",2,mbtiauth_6526
1625,"(693, 793, 3494, 10, 65)",2,mbtiauth_6526
1626,"(693, 793, 3494, 44, 64)",2,mbtiauth_6526
1627,"(693, 793, 3494, 65, 44)",2,mbtiauth_6526
1628,"(693, 793, 3494, 65, 64)",2,mbtiauth_6526
1629,"(693, 3494, 10, 44, 64)",2,mbtiauth_6526
1630,"(693, 3494, 10, 65, 44)",2,mbtiauth_6526
1631,"(693, 3494, 10, 65, 64)",2,mbtiauth_6526
1632,"(693, 3494, 65, 44, 64)",2,mbtiauth_6526
1633,"(711, 10, 65, 44, 64)",2,mbtiauth_6526
1634,"(711, 793, 10, 44, 64)",2,mbtiauth_6526
1635,"(711, 793, 10, 65, 44)",2,mbtiauth_6526
1636,"(711, 793, 10, 65, 64)",2,mbtiauth_6526
1637,"(711, 793, 65, 44, 64)",2,mbtiauth_6526
1638,"(711, 793, 3494, 10, 44)",2,mbtiauth_6526
1639,"(711, 793, 3494, 10, 64)",2,mbtiauth_6526
1640,"(711, 793, 3494, 10, 65)",2,mbtiauth_6526
1641,"(711, 793, 3494, 44, 64)",2,mbtiauth_6526
1642,"(711, 793, 3494, 65, 44)",2,mbtiauth_6526
1643,"(711, 793, 3494, 65, 64)",2,mbtiauth_6526
1644,"(711, 3494, 10, 44, 64)",2,mbtiauth_6526
1645,"(711, 3494, 10, 65, 44)",2,mbtiauth_6526
1646,"(711, 3494, 10, 65, 64)",2,mbtiauth_6526
1647,"(711, 3494, 65, 44, 64)",2,mbtiauth_6526
1648,"(793, 10, 65, 44, 64)",2,mbtiauth_6526
1649,"(793, 3494, 10, 44, 64)",2,mbtiauth_6526
1650,"(793, 3494, 10, 65, 44)",2,mbtiauth_6526
1651,"(793, 3494, 10, 65, 64)",2,mbtiauth_6526
1652,"(793, 3494, 65, 44, 64)",2,mbtiauth_6526
1653,"(797, 152, 1156, 30, 77)",2,mbtiauth_6526
1654,"(797, 152, 1813, 30, 77)",2,mbtiauth_6526
1655,"(797, 152, 1813, 1156, 30)",2,mbtiauth_6526
1656,"(797, 152, 1813, 1156, 77)",2,mbtiauth_6526
1657,"(797, 1813, 1156, 30, 77)",2,mbtiauth_6526
1658,"(886, 152, 152, 1156, 30)",2,mbtiauth_6526
1659,"(886, 152, 152, 1813, 30)",2,mbtiauth_6526
1660,"(886, 152, 152, 1813, 77)",2,mbtiauth_6526
1661,"(886, 152, 152, 1813, 1156)",2,mbtiauth_6526
1662,"(886, 152, 797, 152, 30)",2,mbtiauth_6526
1663,"(886, 152, 797, 152, 77)",2,mbtiauth_6526
1664,"(886, 152, 797, 152, 1156)",2,mbtiauth_6526
1665,"(886, 152, 797, 152, 1813)",2,mbtiauth_6526
1666,"(886, 152, 797, 1156, 30)",2,mbtiauth_6526
1667,"(886, 152, 797, 1813, 30)",2,mbtiauth_6526
1668,"(886, 152, 797, 1813, 77)",2,mbtiauth_6526
1669,"(886, 152, 797, 1813, 1156)",2,mbtiauth_6526
1670,"(886, 152, 1813, 1156, 30)",2,mbtiauth_6526
1671,"(886, 797, 152, 1156, 30)",2,mbtiauth_6526
1672,"(886, 797, 152, 1813, 30)",2,mbtiauth_6526
1673,"(886, 797, 152, 1813, 77)",2,mbtiauth_6526
1674,"(886, 797, 152, 1813, 1156)",2,mbtiauth_6526
1675,"(886, 797, 1813, 1156, 30)",2,mbtiauth_6526
1676,"(1813, 1156, 30, 77, 32)",2,mbtiauth_6526
1677,"(3494, 10, 65, 44, 64)",2,mbtiauth_6526
1678,"(123, 120, 340, 77, 123, 1045)",2,mbtiauth_6526
1679,"(152, 797, 152, 1813, 1156, 30)",2,mbtiauth_6526
1680,"(152, 1813, 1156, 30, 77, 32)",2,mbtiauth_6526
1681,"(225, 711, 10, 65, 44, 64)",2,mbtiauth_6526
1682,"(225, 711, 793, 10, 44, 64)",2,mbtiauth_6526
1683,"(225, 711, 793, 10, 65, 44)",2,mbtiauth_6526
1684,"(225, 711, 793, 10, 65, 64)",2,mbtiauth_6526
1685,"(225, 711, 793, 65, 44, 64)",2,mbtiauth_6526
1686,"(225, 711, 793, 3494, 10, 44)",2,mbtiauth_6526
1687,"(225, 711, 793, 3494, 10, 64)",2,mbtiauth_6526
1688,"(225, 711, 793, 3494, 10, 65)",2,mbtiauth_6526
1689,"(225, 711, 793, 3494, 44, 64)",2,mbtiauth_6526
1690,"(225, 711, 793, 3494, 65, 44)",2,mbtiauth_6526
1691,"(225, 711, 793, 3494, 65, 64)",2,mbtiauth_6526
1692,"(225, 711, 3494, 10, 44, 64)",2,mbtiauth_6526
1693,"(225, 711, 3494, 10, 65, 44)",2,mbtiauth_6526
1694,"(225, 711, 3494, 10, 65, 64)",2,mbtiauth_6526
1695,"(225, 711, 3494, 65, 44, 64)",2,mbtiauth_6526
1696,"(225, 793, 10, 65, 44, 64)",2,mbtiauth_6526
1697,"(225, 793, 3494, 10, 44, 64)",2,mbtiauth_6526
1698,"(225, 793, 3494, 10, 65, 44)",2,mbtiauth_6526
1699,"(225, 793, 3494, 10, 65, 64)",2,mbtiauth_6526
1700,"(225, 793, 3494, 65, 44, 64)",2,mbtiauth_6526
1701,"(225, 3494, 10, 65, 44, 64)",2,mbtiauth_6526
1702,"(693, 225, 10, 65, 44, 64)",2,mbtiauth_6526
1703,"(693, 225, 711, 10, 44, 64)",2,mbtiauth_6526
1704,"(693, 225, 711, 10, 65, 44)",2,mbtiauth_6526
1705,"(693, 225, 711, 10, 65, 64)",2,mbtiauth_6526
1706,"(693, 225, 711, 65, 44, 64)",2,mbtiauth_6526
1707,"(693, 225, 711, 793, 10, 44)",2,mbtiauth_6526
1708,"(693, 225, 711, 793, 10, 64)",2,mbtiauth_6526
1709,"(693, 225, 711, 793, 10, 65)",2,mbtiauth_6526
1710,"(693, 225, 711, 793, 44, 64)",2,mbtiauth_6526
1711,"(693, 225, 711, 793, 65, 44)",2,mbtiauth_6526
1712,"(693, 225, 711, 793, 65, 64)",2,mbtiauth_6526
1713,"(693, 225, 711, 793, 3494, 10)",2,mbtiauth_6526
1714,"(693, 225, 711, 793, 3494, 44)",2,mbtiauth_6526
1715,"(693, 225, 711, 793, 3494, 64)",2,mbtiauth_6526
1716,"(693, 225, 711, 793, 3494, 65)",2,mbtiauth_6526
1717,"(693, 225, 711, 3494, 10, 44)",2,mbtiauth_6526
1718,"(693, 225, 711, 3494, 10, 64)",2,mbtiauth_6526
1719,"(693, 225, 711, 3494, 10, 65)",2,mbtiauth_6526
1720,"(693, 225, 711, 3494, 44, 64)",2,mbtiauth_6526
1721,"(693, 225, 711, 3494, 65, 44)",2,mbtiauth_6526
1722,"(693, 225, 711, 3494, 65, 64)",2,mbtiauth_6526
1723,"(693, 225, 793, 10, 44, 64)",2,mbtiauth_6526
1724,"(693, 225, 793, 10, 65, 44)",2,mbtiauth_6526
1725,"(693, 225, 793, 10, 65, 64)",2,mbtiauth_6526
1726,"(693, 225, 793, 65, 44, 64)",2,mbtiauth_6526
1727,"(693, 225, 793, 3494, 10, 44)",2,mbtiauth_6526
1728,"(693, 225, 793, 3494, 10, 64)",2,mbtiauth_6526
1729,"(693, 225, 793, 3494, 10, 65)",2,mbtiauth_6526
1730,"(693, 225, 793, 3494, 44, 64)",2,mbtiauth_6526
1731,"(693, 225, 793, 3494, 65, 44)",2,mbtiauth_6526
1732,"(693, 225, 793, 3494, 65, 64)",2,mbtiauth_6526
1733,"(693, 225, 3494, 10, 44, 64)",2,mbtiauth_6526
1734,"(693, 225, 3494, 10, 65, 44)",2,mbtiauth_6526
1735,"(693, 225, 3494, 10, 65, 64)",2,mbtiauth_6526
1736,"(693, 225, 3494, 65, 44, 64)",2,mbtiauth_6526
1737,"(693, 711, 10, 65, 44, 64)",2,mbtiauth_6526
1738,"(693, 711, 793, 10, 44, 64)",2,mbtiauth_6526
1739,"(693, 711, 793, 10, 65, 44)",2,mbtiauth_6526
1740,"(693, 711, 793, 10, 65, 64)",2,mbtiauth_6526
1741,"(693, 711, 793, 65, 44, 64)",2,mbtiauth_6526
1742,"(693, 711, 793, 3494, 10, 44)",2,mbtiauth_6526
1743,"(693, 711, 793, 3494, 10, 64)",2,mbtiauth_6526
1744,"(693, 711, 793, 3494, 10, 65)",2,mbtiauth_6526
1745,"(693, 711, 793, 3494, 44, 64)",2,mbtiauth_6526
1746,"(693, 711, 793, 3494, 65, 44)",2,mbtiauth_6526
1747,"(693, 711, 793, 3494, 65, 64)",2,mbtiauth_6526
1748,"(693, 711, 3494, 10, 44, 64)",2,mbtiauth_6526
1749,"(693, 711, 3494, 10, 65, 44)",2,mbtiauth_6526
1750,"(693, 711, 3494, 10, 65, 64)",2,mbtiauth_6526
1751,"(693, 711, 3494, 65, 44, 64)",2,mbtiauth_6526
1752,"(693, 793, 10, 65, 44, 64)",2,mbtiauth_6526
1753,"(693, 793, 3494, 10, 44, 64)",2,mbtiauth_6526
1754,"(693, 793, 3494, 10, 65, 44)",2,mbtiauth_6526
1755,"(693, 793, 3494, 10, 65, 64)",2,mbtiauth_6526
1756,"(693, 793, 3494, 65, 44, 64)",2,mbtiauth_6526
1757,"(693, 3494, 10, 65, 44, 64)",2,mbtiauth_6526
1758,"(711, 793, 10, 65, 44, 64)",2,mbtiauth_6526
1759,"(711, 793, 3494, 10, 44, 64)",2,mbtiauth_6526
1760,"(711, 793, 3494, 10, 65, 44)",2,mbtiauth_6526
1761,"(711, 793, 3494, 10, 65, 64)",2,mbtiauth_6526
1762,"(711, 793, 3494, 65, 44, 64)",2,mbtiauth_6526
1763,"(711, 3494, 10, 65, 44, 64)",2,mbtiauth_6526
1764,"(793, 3494, 10, 65, 44, 64)",2,mbtiauth_6526
1765,"(797, 152, 1813, 1156, 30, 77)",2,mbtiauth_6526
1766,"(886, 152, 152, 1813, 1156, 30)",2,mbtiauth_6526
1767,"(886, 152, 797, 152, 1156, 30)",2,mbtiauth_6526
1768,"(886, 152, 797, 152, 1813, 30)",2,mbtiauth_6526
1769,"(886, 152, 797, 152, 1813, 77)",2,mbtiauth_6526
1770,"(886, 152, 797, 152, 1813, 1156)",2,mbtiauth_6526
1771,"(886, 152, 797, 1813, 1156, 30)",2,mbtiauth_6526
1772,"(886, 797, 152, 1813, 1156, 30)",2,mbtiauth_6526
1773,"(225, 711, 793, 10, 65, 44, 64)",2,mbtiauth_6526
1774,"(225, 711, 793, 3494, 10, 44, 64)",2,mbtiauth_6526
1775,"(225, 711, 793, 3494, 10, 65, 44)",2,mbtiauth_6526
1776,"(225, 711, 793, 3494, 10, 65, 64)",2,mbtiauth_6526
1777,"(225, 711, 793, 3494, 65, 44, 64)",2,mbtiauth_6526
1778,"(225, 711, 3494, 10, 65, 44, 64)",2,mbtiauth_6526
1779,"(225, 793, 3494, 10, 65, 44, 64)",2,mbtiauth_6526
1780,"(693, 225, 711, 10, 65, 44, 64)",2,mbtiauth_6526
1781,"(693, 225, 711, 793, 10, 44, 64)",2,mbtiauth_6526
1782,"(693, 225, 711, 793, 10, 65, 44)",2,mbtiauth_6526
1783,"(693, 225, 711, 793, 10, 65, 64)",2,mbtiauth_6526
1784,"(693, 225, 711, 793, 65, 44, 64)",2,mbtiauth_6526
1785,"(693, 225, 711, 793, 3494, 10, 44)",2,mbtiauth_6526
1786,"(693, 225, 711, 793, 3494, 10, 64)",2,mbtiauth_6526
1787,"(693, 225, 711, 793, 3494, 10, 65)",2,mbtiauth_6526
1788,"(693, 225, 711, 793, 3494, 44, 64)",2,mbtiauth_6526
1789,"(693, 225, 711, 793, 3494, 65, 44)",2,mbtiauth_6526
1790,"(693, 225, 711, 793, 3494, 65, 64)",2,mbtiauth_6526
1791,"(693, 225, 711, 3494, 10, 44, 64)",2,mbtiauth_6526
1792,"(693, 225, 711, 3494, 10, 65, 44)",2,mbtiauth_6526
1793,"(693, 225, 711, 3494, 10, 65, 64)",2,mbtiauth_6526
1794,"(693, 225, 711, 3494, 65, 44, 64)",2,mbtiauth_6526
1795,"(693, 225, 793, 10, 65, 44, 64)",2,mbtiauth_6526
1796,"(693, 225, 793, 3494, 10, 44, 64)",2,mbtiauth_6526
1797,"(693, 225, 793, 3494, 10, 65, 44)",2,mbtiauth_6526
1798,"(693, 225, 793, 3494, 10, 65, 64)",2,mbtiauth_6526
1799,"(693, 225, 793, 3494, 65, 44, 64)",2,mbtiauth_6526
1800,"(693, 225, 3494, 10, 65, 44, 64)",2,mbtiauth_6526
1801,"(693, 711, 793, 10, 65, 44, 64)",2,mbtiauth_6526
1802,"(693, 711, 793, 3494, 10, 44, 64)",2,mbtiauth_6526
1803,"(693, 711, 793, 3494, 10, 65, 44)",2,mbtiauth_6526
1804,"(693, 711, 793, 3494, 10, 65, 64)",2,mbtiauth_6526
1805,"(693, 711, 793, 3494, 65, 44, 64)",2,mbtiauth_6526
1806,"(693, 711, 3494, 10, 65, 44, 64)",2,mbtiauth_6526
1807,"(693, 793, 3494, 10, 65, 44, 64)",2,mbtiauth_6526
1808,"(711, 793, 3494, 10, 65, 44, 64)",2,mbtiauth_6526
1809,"(886, 152, 797, 152, 1813, 1156, 30)",2,mbtiauth_6526
1810,"(225, 711, 793, 3494, 10, 65, 44, 64)",2,mbtiauth_6526
1811,"(693, 225, 711, 793, 10, 65, 44, 64)",2,mbtiauth_6526
1812,"(693, 225, 711, 793, 3494, 10, 44, 64)",2,mbtiauth_6526
1813,"(693, 225, 711, 793, 3494, 10, 65, 44)",2,mbtiauth_6526
1814,"(693, 225, 711, 793, 3494, 10, 65, 64)",2,mbtiauth_6526
1815,"(693, 225, 711, 793, 3494, 65, 44, 64)",2,mbtiauth_6526
1816,"(693, 225, 711, 3494, 10, 65, 44, 64)",2,mbtiauth_6526
1817,"(693, 225, 793, 3494, 10, 65, 44, 64)",2,mbtiauth_6526
1818,"(693, 711, 793, 3494, 10, 65, 44, 64)",2,mbtiauth_6526
1819,"(693, 225, 711, 793, 3494, 10, 65, 44, 64)",2,mbtiauth_6526
