,pattern,sup,author
1422,"(2, 2, 123)",2,mbtiauth_4668
1423,"(2, 22, 22)",2,mbtiauth_4668
1424,"(2, 22, 77)",2,mbtiauth_4668
1425,"(2, 31, 22)",3,mbtiauth_4668
1426,"(2, 31, 77)",2,mbtiauth_4668
1427,"(2, 32, 22)",2,mbtiauth_4668
1428,"(2, 32, 64)",2,mbtiauth_4668
1429,"(2, 32, 77)",2,mbtiauth_4668
1430,"(2, 41, 77)",2,mbtiauth_4668
1431,"(2, 64, 64)",2,mbtiauth_4668
1432,"(2, 64, 67)",2,mbtiauth_4668
1433,"(2, 64, 77)",3,mbtiauth_4668
1434,"(2, 64, 349)",2,mbtiauth_4668
1435,"(2, 77, 2)",4,mbtiauth_4668
1436,"(2, 77, 22)",2,mbtiauth_4668
1437,"(2, 77, 64)",4,mbtiauth_4668
1438,"(2, 77, 123)",3,mbtiauth_4668
1439,"(2, 77, 151)",2,mbtiauth_4668
1440,"(2, 77, 349)",2,mbtiauth_4668
1441,"(2, 77, 441)",4,mbtiauth_4668
1442,"(2, 77, 443)",2,mbtiauth_4668
1443,"(2, 123, 2)",2,mbtiauth_4668
1444,"(2, 123, 22)",2,mbtiauth_4668
1445,"(2, 123, 31)",3,mbtiauth_4668
1446,"(2, 123, 64)",2,mbtiauth_4668
1447,"(2, 123, 77)",2,mbtiauth_4668
1448,"(2, 123, 123)",2,mbtiauth_4668
1449,"(2, 123, 158)",2,mbtiauth_4668
1450,"(2, 123, 193)",2,mbtiauth_4668
1451,"(2, 123, 441)",3,mbtiauth_4668
1452,"(2, 123, 789)",2,mbtiauth_4668
1453,"(2, 151, 1574)",2,mbtiauth_4668
1454,"(2, 154, 162)",2,mbtiauth_4668
1455,"(2, 158, 162)",2,mbtiauth_4668
1456,"(2, 162, 123)",2,mbtiauth_4668
1457,"(2, 170, 77)",2,mbtiauth_4668
1458,"(2, 193, 22)",2,mbtiauth_4668
1459,"(2, 193, 31)",3,mbtiauth_4668
1460,"(2, 193, 77)",3,mbtiauth_4668
1461,"(2, 193, 123)",2,mbtiauth_4668
1462,"(2, 254, 32)",2,mbtiauth_4668
1463,"(2, 276, 123)",2,mbtiauth_4668
1464,"(2, 276, 441)",2,mbtiauth_4668
1465,"(2, 285, 77)",2,mbtiauth_4668
1466,"(2, 285, 123)",2,mbtiauth_4668
1467,"(2, 291, 77)",2,mbtiauth_4668
1468,"(2, 349, 77)",2,mbtiauth_4668
1469,"(2, 441, 64)",3,mbtiauth_4668
1470,"(2, 441, 193)",2,mbtiauth_4668
1471,"(2, 789, 31)",2,mbtiauth_4668
1472,"(2, 789, 193)",2,mbtiauth_4668
1473,"(2, 1193, 32)",2,mbtiauth_4668
1474,"(2, 2643, 41)",2,mbtiauth_4668
1475,"(2, 2643, 64)",2,mbtiauth_4668
1476,"(2, 2643, 77)",3,mbtiauth_4668
1477,"(2, 2643, 123)",2,mbtiauth_4668
1478,"(2, 3390, 222)",2,mbtiauth_4668
1479,"(3, 65, 32)",2,mbtiauth_4668
1480,"(8, 6100, 11737)",2,mbtiauth_4668
1481,"(8, 6100, 12348)",2,mbtiauth_4668
1482,"(8, 11737, 12348)",2,mbtiauth_4668
1483,"(8, 24219, 6100)",2,mbtiauth_4668
1484,"(8, 24219, 11737)",2,mbtiauth_4668
1485,"(8, 24219, 12348)",2,mbtiauth_4668
1486,"(10, 65, 77)",2,mbtiauth_4668
1487,"(10, 66, 77)",2,mbtiauth_4668
1488,"(10, 66, 6246)",2,mbtiauth_4668
1489,"(10, 77, 64)",2,mbtiauth_4668
1490,"(10, 77, 65)",2,mbtiauth_4668
1491,"(10, 77, 77)",3,mbtiauth_4668
1492,"(10, 77, 78)",2,mbtiauth_4668
1493,"(10, 77, 170)",2,mbtiauth_4668
1494,"(10, 77, 193)",2,mbtiauth_4668
1495,"(10, 193, 64)",2,mbtiauth_4668
1496,"(10, 201, 77)",2,mbtiauth_4668
1497,"(10, 6246, 77)",2,mbtiauth_4668
1498,"(15, 65, 77)",2,mbtiauth_4668
1499,"(16, 134, 77)",2,mbtiauth_4668
1500,"(16, 134, 254)",2,mbtiauth_4668
1501,"(22, 2, 77)",2,mbtiauth_4668
1502,"(22, 2, 123)",2,mbtiauth_4668
1503,"(22, 2, 196)",2,mbtiauth_4668
1504,"(22, 22, 2)",2,mbtiauth_4668
1505,"(22, 22, 22)",4,mbtiauth_4668
1506,"(22, 22, 27)",2,mbtiauth_4668
1507,"(22, 22, 76)",2,mbtiauth_4668
1508,"(22, 22, 77)",2,mbtiauth_4668
1509,"(22, 22, 123)",2,mbtiauth_4668
1510,"(22, 22, 170)",3,mbtiauth_4668
1511,"(22, 22, 398)",2,mbtiauth_4668
1512,"(22, 22, 443)",2,mbtiauth_4668
1513,"(22, 32, 22)",3,mbtiauth_4668
1514,"(22, 32, 77)",2,mbtiauth_4668
1515,"(22, 32, 170)",3,mbtiauth_4668
1516,"(22, 64, 2)",2,mbtiauth_4668
1517,"(22, 64, 77)",2,mbtiauth_4668
1518,"(22, 64, 183)",2,mbtiauth_4668
1519,"(22, 76, 77)",2,mbtiauth_4668
1520,"(22, 76, 123)",2,mbtiauth_4668
1521,"(22, 77, 2)",5,mbtiauth_4668
1522,"(22, 77, 22)",3,mbtiauth_4668
1523,"(22, 77, 77)",5,mbtiauth_4668
1524,"(22, 77, 123)",2,mbtiauth_4668
1525,"(22, 77, 162)",2,mbtiauth_4668
1526,"(22, 77, 193)",2,mbtiauth_4668
1527,"(22, 77, 196)",2,mbtiauth_4668
1528,"(22, 77, 212)",2,mbtiauth_4668
1529,"(22, 77, 441)",2,mbtiauth_4668
1530,"(22, 77, 443)",3,mbtiauth_4668
1531,"(22, 117, 22)",2,mbtiauth_4668
1532,"(22, 123, 64)",2,mbtiauth_4668
1533,"(22, 123, 77)",3,mbtiauth_4668
1534,"(22, 123, 144)",2,mbtiauth_4668
1535,"(22, 123, 164)",2,mbtiauth_4668
1536,"(22, 123, 198)",2,mbtiauth_4668
1537,"(22, 123, 212)",2,mbtiauth_4668
1538,"(22, 123, 520)",2,mbtiauth_4668
1539,"(22, 144, 520)",2,mbtiauth_4668
1540,"(22, 151, 153)",2,mbtiauth_4668
1541,"(22, 162, 77)",2,mbtiauth_4668
1542,"(22, 170, 77)",2,mbtiauth_4668
1543,"(22, 170, 443)",2,mbtiauth_4668
1544,"(22, 187, 22)",2,mbtiauth_4668
1545,"(22, 198, 32)",2,mbtiauth_4668
1546,"(22, 198, 77)",2,mbtiauth_4668
1547,"(22, 213, 77)",2,mbtiauth_4668
1548,"(22, 291, 443)",2,mbtiauth_4668
1549,"(22, 340, 443)",2,mbtiauth_4668
1550,"(22, 398, 443)",2,mbtiauth_4668
1551,"(22, 443, 22)",2,mbtiauth_4668
1552,"(22, 443, 77)",2,mbtiauth_4668
1553,"(22, 443, 340)",2,mbtiauth_4668
1554,"(22, 443, 398)",2,mbtiauth_4668
1555,"(22, 443, 443)",3,mbtiauth_4668
1556,"(22, 749, 123)",2,mbtiauth_4668
1557,"(22, 1587, 123)",2,mbtiauth_4668
1558,"(22, 1587, 749)",2,mbtiauth_4668
1559,"(22, 6103, 22)",2,mbtiauth_4668
1560,"(27, 77, 443)",2,mbtiauth_4668
1561,"(27, 170, 77)",2,mbtiauth_4668
1562,"(27, 170, 443)",2,mbtiauth_4668
1563,"(30, 64, 77)",2,mbtiauth_4668
1564,"(30, 123, 77)",2,mbtiauth_4668
1565,"(30, 123, 123)",2,mbtiauth_4668
1566,"(30, 123, 220)",2,mbtiauth_4668
1567,"(31, 22, 22)",2,mbtiauth_4668
1568,"(31, 77, 22)",2,mbtiauth_4668
1569,"(31, 77, 123)",2,mbtiauth_4668
1570,"(32, 10, 65)",2,mbtiauth_4668
1571,"(32, 10, 77)",2,mbtiauth_4668
1572,"(32, 22, 22)",3,mbtiauth_4668
1573,"(32, 22, 170)",3,mbtiauth_4668
1574,"(32, 44, 356)",2,mbtiauth_4668
1575,"(32, 50, 10)",2,mbtiauth_4668
1576,"(32, 50, 77)",2,mbtiauth_4668
1577,"(32, 64, 77)",4,mbtiauth_4668
1578,"(32, 64, 123)",2,mbtiauth_4668
1579,"(32, 64, 280)",2,mbtiauth_4668
1580,"(32, 64, 291)",2,mbtiauth_4668
1581,"(32, 64, 356)",3,mbtiauth_4668
1582,"(32, 66, 77)",2,mbtiauth_4668
1583,"(32, 77, 10)",3,mbtiauth_4668
1584,"(32, 77, 16)",2,mbtiauth_4668
1585,"(32, 77, 32)",3,mbtiauth_4668
1586,"(32, 77, 65)",4,mbtiauth_4668
1587,"(32, 77, 77)",4,mbtiauth_4668
1588,"(32, 77, 123)",4,mbtiauth_4668
1589,"(32, 77, 151)",3,mbtiauth_4668
1590,"(32, 77, 162)",2,mbtiauth_4668
1591,"(32, 77, 167)",3,mbtiauth_4668
1592,"(32, 77, 280)",2,mbtiauth_4668
1593,"(32, 77, 356)",2,mbtiauth_4668
1594,"(32, 77, 447)",2,mbtiauth_4668
1595,"(32, 123, 10)",2,mbtiauth_4668
1596,"(32, 123, 65)",2,mbtiauth_4668
1597,"(32, 123, 123)",2,mbtiauth_4668
1598,"(32, 123, 280)",2,mbtiauth_4668
1599,"(32, 134, 77)",2,mbtiauth_4668
1600,"(32, 170, 22)",2,mbtiauth_4668
1601,"(32, 170, 64)",2,mbtiauth_4668
1602,"(32, 170, 222)",2,mbtiauth_4668
1603,"(32, 193, 64)",2,mbtiauth_4668
1604,"(32, 213, 77)",2,mbtiauth_4668
1605,"(32, 213, 151)",2,mbtiauth_4668
1606,"(32, 222, 291)",2,mbtiauth_4668
1607,"(32, 1263, 22)",2,mbtiauth_4668
1608,"(32, 11556, 77)",2,mbtiauth_4668
1609,"(33, 32, 547)",2,mbtiauth_4668
1610,"(33, 65, 77)",2,mbtiauth_4668
1611,"(33, 65, 144)",2,mbtiauth_4668
1612,"(33, 77, 2)",2,mbtiauth_4668
1613,"(33, 123, 32)",2,mbtiauth_4668
1614,"(33, 171, 77)",3,mbtiauth_4668
1615,"(33, 220, 77)",2,mbtiauth_4668
1616,"(33, 262, 77)",3,mbtiauth_4668
1617,"(33, 262, 171)",2,mbtiauth_4668
1618,"(33, 262, 220)",2,mbtiauth_4668
1619,"(33, 262, 630)",2,mbtiauth_4668
1620,"(41, 2, 64)",2,mbtiauth_4668
1621,"(41, 2, 349)",2,mbtiauth_4668
1622,"(41, 22, 76)",2,mbtiauth_4668
1623,"(41, 22, 123)",2,mbtiauth_4668
1624,"(41, 22, 198)",3,mbtiauth_4668
1625,"(41, 76, 123)",2,mbtiauth_4668
1626,"(41, 77, 22)",2,mbtiauth_4668
1627,"(41, 77, 50)",2,mbtiauth_4668
1628,"(41, 77, 77)",2,mbtiauth_4668
1629,"(41, 77, 123)",4,mbtiauth_4668
1630,"(41, 77, 198)",2,mbtiauth_4668
1631,"(41, 77, 201)",2,mbtiauth_4668
1632,"(41, 77, 254)",2,mbtiauth_4668
1633,"(41, 77, 349)",2,mbtiauth_4668
1634,"(41, 144, 77)",2,mbtiauth_4668
1635,"(41, 153, 77)",2,mbtiauth_4668
1636,"(41, 153, 123)",2,mbtiauth_4668
1637,"(41, 268, 22)",2,mbtiauth_4668
1638,"(41, 764, 64)",2,mbtiauth_4668
1639,"(50, 32, 64)",2,mbtiauth_4668
1640,"(50, 32, 291)",2,mbtiauth_4668
1641,"(50, 64, 291)",2,mbtiauth_4668
1642,"(50, 65, 32)",2,mbtiauth_4668
1643,"(50, 77, 32)",2,mbtiauth_4668
1644,"(50, 77, 64)",2,mbtiauth_4668
1645,"(50, 77, 123)",2,mbtiauth_4668
1646,"(50, 77, 193)",3,mbtiauth_4668
1647,"(50, 222, 291)",2,mbtiauth_4668
1648,"(50, 863, 32)",2,mbtiauth_4668
1649,"(50, 863, 64)",2,mbtiauth_4668
1650,"(54, 77, 123)",2,mbtiauth_4668
1651,"(54, 77, 193)",2,mbtiauth_4668
1652,"(54, 123, 65)",2,mbtiauth_4668
1653,"(64, 2, 183)",2,mbtiauth_4668
1654,"(64, 2, 193)",2,mbtiauth_4668
1655,"(64, 2, 222)",2,mbtiauth_4668
1656,"(64, 22, 2)",2,mbtiauth_4668
1657,"(64, 22, 22)",2,mbtiauth_4668
1658,"(64, 22, 32)",2,mbtiauth_4668
1659,"(64, 22, 77)",3,mbtiauth_4668
1660,"(64, 22, 123)",4,mbtiauth_4668
1661,"(64, 22, 151)",2,mbtiauth_4668
1662,"(64, 22, 198)",2,mbtiauth_4668
1663,"(64, 22, 749)",2,mbtiauth_4668
1664,"(64, 22, 1587)",2,mbtiauth_4668
1665,"(64, 27, 123)",2,mbtiauth_4668
1666,"(64, 27, 248)",2,mbtiauth_4668
1667,"(64, 32, 22)",2,mbtiauth_4668
1668,"(64, 32, 50)",2,mbtiauth_4668
1669,"(64, 33, 50)",2,mbtiauth_4668
1670,"(64, 33, 65)",2,mbtiauth_4668
1671,"(64, 33, 77)",2,mbtiauth_4668
1672,"(64, 33, 171)",2,mbtiauth_4668
1673,"(64, 33, 262)",2,mbtiauth_4668
1674,"(64, 41, 123)",2,mbtiauth_4668
1675,"(64, 64, 2)",2,mbtiauth_4668
1676,"(64, 64, 10)",2,mbtiauth_4668
1677,"(64, 64, 22)",3,mbtiauth_4668
1678,"(64, 64, 64)",2,mbtiauth_4668
1679,"(64, 64, 77)",5,mbtiauth_4668
1680,"(64, 64, 78)",2,mbtiauth_4668
1681,"(64, 64, 123)",2,mbtiauth_4668
1682,"(64, 64, 144)",2,mbtiauth_4668
1683,"(64, 64, 183)",3,mbtiauth_4668
1684,"(64, 64, 285)",2,mbtiauth_4668
1685,"(64, 64, 349)",2,mbtiauth_4668
1686,"(64, 64, 520)",2,mbtiauth_4668
1687,"(64, 65, 10)",2,mbtiauth_4668
1688,"(64, 65, 32)",2,mbtiauth_4668
1689,"(64, 65, 50)",2,mbtiauth_4668
1690,"(64, 65, 64)",3,mbtiauth_4668
1691,"(64, 65, 77)",2,mbtiauth_4668
1692,"(64, 67, 2)",2,mbtiauth_4668
1693,"(64, 67, 10)",3,mbtiauth_4668
1694,"(64, 67, 22)",2,mbtiauth_4668
1695,"(64, 67, 64)",4,mbtiauth_4668
1696,"(64, 67, 65)",3,mbtiauth_4668
1697,"(64, 67, 77)",5,mbtiauth_4668
1698,"(64, 67, 78)",2,mbtiauth_4668
1699,"(64, 67, 183)",3,mbtiauth_4668
1700,"(64, 67, 356)",2,mbtiauth_4668
1701,"(64, 70, 443)",2,mbtiauth_4668
1702,"(64, 77, 2)",4,mbtiauth_4668
1703,"(64, 77, 10)",2,mbtiauth_4668
1704,"(64, 77, 22)",3,mbtiauth_4668
1705,"(64, 77, 32)",4,mbtiauth_4668
1706,"(64, 77, 33)",2,mbtiauth_4668
1707,"(64, 77, 64)",3,mbtiauth_4668
1708,"(64, 77, 65)",3,mbtiauth_4668
1709,"(64, 77, 67)",2,mbtiauth_4668
1710,"(64, 77, 70)",2,mbtiauth_4668
1711,"(64, 77, 77)",4,mbtiauth_4668
1712,"(64, 77, 78)",2,mbtiauth_4668
1713,"(64, 77, 123)",7,mbtiauth_4668
1714,"(64, 77, 144)",3,mbtiauth_4668
1715,"(64, 77, 151)",2,mbtiauth_4668
1716,"(64, 77, 158)",2,mbtiauth_4668
1717,"(64, 77, 183)",2,mbtiauth_4668
1718,"(64, 77, 193)",2,mbtiauth_4668
1719,"(64, 77, 212)",2,mbtiauth_4668
1720,"(64, 77, 222)",2,mbtiauth_4668
1721,"(64, 77, 280)",3,mbtiauth_4668
1722,"(64, 77, 356)",3,mbtiauth_4668
1723,"(64, 77, 443)",4,mbtiauth_4668
1724,"(64, 77, 1610)",2,mbtiauth_4668
1725,"(64, 78, 2)",2,mbtiauth_4668
1726,"(64, 78, 212)",2,mbtiauth_4668
1727,"(64, 123, 2)",2,mbtiauth_4668
1728,"(64, 123, 64)",3,mbtiauth_4668
1729,"(64, 123, 65)",3,mbtiauth_4668
1730,"(64, 123, 67)",2,mbtiauth_4668
1731,"(64, 123, 77)",3,mbtiauth_4668
1732,"(64, 123, 78)",2,mbtiauth_4668
1733,"(64, 123, 120)",2,mbtiauth_4668
1734,"(64, 123, 144)",5,mbtiauth_4668
1735,"(64, 123, 164)",2,mbtiauth_4668
1736,"(64, 123, 254)",2,mbtiauth_4668
1737,"(64, 123, 280)",2,mbtiauth_4668
1738,"(64, 123, 356)",2,mbtiauth_4668
1739,"(64, 123, 520)",2,mbtiauth_4668
1740,"(64, 144, 22)",2,mbtiauth_4668
1741,"(64, 144, 27)",2,mbtiauth_4668
1742,"(64, 144, 77)",3,mbtiauth_4668
1743,"(64, 144, 123)",3,mbtiauth_4668
1744,"(64, 144, 144)",2,mbtiauth_4668
1745,"(64, 144, 520)",2,mbtiauth_4668
1746,"(64, 154, 77)",2,mbtiauth_4668
1747,"(64, 154, 144)",2,mbtiauth_4668
1748,"(64, 171, 77)",3,mbtiauth_4668
1749,"(64, 183, 77)",2,mbtiauth_4668
1750,"(64, 183, 212)",2,mbtiauth_4668
1751,"(64, 213, 77)",2,mbtiauth_4668
1752,"(64, 213, 151)",2,mbtiauth_4668
1753,"(64, 222, 276)",2,mbtiauth_4668
1754,"(64, 246, 2)",2,mbtiauth_4668
1755,"(64, 246, 77)",2,mbtiauth_4668
1756,"(64, 280, 65)",2,mbtiauth_4668
1757,"(64, 285, 32)",2,mbtiauth_4668
1758,"(64, 285, 50)",2,mbtiauth_4668
1759,"(64, 285, 65)",2,mbtiauth_4668
1760,"(64, 286, 123)",2,mbtiauth_4668
1761,"(64, 322, 27)",2,mbtiauth_4668
1762,"(64, 349, 183)",2,mbtiauth_4668
1763,"(64, 356, 183)",2,mbtiauth_4668
1764,"(64, 443, 64)",2,mbtiauth_4668
1765,"(64, 642, 77)",2,mbtiauth_4668
1766,"(64, 749, 64)",2,mbtiauth_4668
1767,"(64, 749, 77)",2,mbtiauth_4668
1768,"(64, 749, 120)",2,mbtiauth_4668
1769,"(64, 749, 123)",3,mbtiauth_4668
1770,"(64, 1214, 65)",2,mbtiauth_4668
1771,"(64, 1263, 77)",2,mbtiauth_4668
1772,"(64, 1587, 123)",2,mbtiauth_4668
1773,"(64, 1587, 749)",2,mbtiauth_4668
1774,"(64, 1610, 158)",2,mbtiauth_4668
1775,"(64, 9869, 64)",2,mbtiauth_4668
1776,"(65, 2, 64)",2,mbtiauth_4668
1777,"(65, 2, 77)",2,mbtiauth_4668
1778,"(65, 10, 77)",2,mbtiauth_4668
1779,"(65, 32, 10)",3,mbtiauth_4668
1780,"(65, 32, 50)",4,mbtiauth_4668
1781,"(65, 32, 77)",3,mbtiauth_4668
1782,"(65, 32, 134)",2,mbtiauth_4668
1783,"(65, 32, 236)",2,mbtiauth_4668
1784,"(65, 32, 254)",2,mbtiauth_4668
1785,"(65, 32, 441)",3,mbtiauth_4668
1786,"(65, 64, 10)",2,mbtiauth_4668
1787,"(65, 64, 65)",2,mbtiauth_4668
1788,"(65, 64, 67)",2,mbtiauth_4668
1789,"(65, 64, 77)",2,mbtiauth_4668
1790,"(65, 77, 10)",2,mbtiauth_4668
1791,"(65, 77, 15)",2,mbtiauth_4668
1792,"(65, 77, 64)",2,mbtiauth_4668
1793,"(65, 77, 65)",2,mbtiauth_4668
1794,"(65, 77, 77)",2,mbtiauth_4668
1795,"(65, 77, 123)",3,mbtiauth_4668
1796,"(65, 77, 152)",2,mbtiauth_4668
1797,"(65, 123, 65)",2,mbtiauth_4668
1798,"(65, 123, 441)",2,mbtiauth_4668
1799,"(65, 134, 77)",2,mbtiauth_4668
1800,"(65, 152, 10)",2,mbtiauth_4668
1801,"(65, 164, 77)",2,mbtiauth_4668
1802,"(65, 170, 64)",3,mbtiauth_4668
1803,"(65, 170, 77)",2,mbtiauth_4668
1804,"(65, 170, 276)",2,mbtiauth_4668
1805,"(65, 170, 291)",2,mbtiauth_4668
1806,"(65, 291, 276)",2,mbtiauth_4668
1807,"(65, 356, 65)",2,mbtiauth_4668
1808,"(65, 663, 2)",2,mbtiauth_4668
1809,"(65, 663, 65)",2,mbtiauth_4668
1810,"(65, 663, 77)",3,mbtiauth_4668
1811,"(65, 663, 123)",2,mbtiauth_4668
1812,"(65, 663, 164)",2,mbtiauth_4668
1813,"(65, 1219, 32)",2,mbtiauth_4668
1814,"(65, 1219, 441)",2,mbtiauth_4668
1815,"(65, 6291, 32)",2,mbtiauth_4668
1816,"(66, 65, 77)",2,mbtiauth_4668
1817,"(66, 77, 65)",2,mbtiauth_4668
1818,"(66, 77, 77)",2,mbtiauth_4668
1819,"(66, 123, 77)",2,mbtiauth_4668
1820,"(66, 441, 65)",2,mbtiauth_4668
1821,"(66, 441, 77)",2,mbtiauth_4668
1822,"(66, 6246, 77)",2,mbtiauth_4668
1823,"(67, 2, 183)",2,mbtiauth_4668
1824,"(67, 64, 10)",2,mbtiauth_4668
1825,"(67, 64, 77)",2,mbtiauth_4668
1826,"(67, 64, 183)",2,mbtiauth_4668
1827,"(67, 65, 10)",2,mbtiauth_4668
1828,"(67, 65, 64)",2,mbtiauth_4668
1829,"(67, 77, 10)",2,mbtiauth_4668
1830,"(67, 77, 183)",2,mbtiauth_4668
1831,"(67, 77, 356)",2,mbtiauth_4668
1832,"(67, 77, 443)",2,mbtiauth_4668
1833,"(67, 78, 212)",2,mbtiauth_4668
1834,"(67, 183, 77)",2,mbtiauth_4668
1835,"(70, 10, 443)",2,mbtiauth_4668
1836,"(70, 22, 443)",2,mbtiauth_4668
1837,"(70, 64, 64)",2,mbtiauth_4668
1838,"(76, 123, 77)",2,mbtiauth_4668
1839,"(76, 162, 123)",2,mbtiauth_4668
1840,"(77, 2, 2)",2,mbtiauth_4668
1841,"(77, 2, 27)",2,mbtiauth_4668
1842,"(77, 2, 31)",3,mbtiauth_4668
1843,"(77, 2, 32)",2,mbtiauth_4668
1844,"(77, 2, 64)",3,mbtiauth_4668
1845,"(77, 2, 77)",5,mbtiauth_4668
1846,"(77, 2, 123)",4,mbtiauth_4668
1847,"(77, 2, 151)",2,mbtiauth_4668
1848,"(77, 2, 158)",2,mbtiauth_4668
1849,"(77, 2, 162)",3,mbtiauth_4668
1850,"(77, 2, 167)",2,mbtiauth_4668
1851,"(77, 2, 170)",2,mbtiauth_4668
1852,"(77, 2, 193)",6,mbtiauth_4668
1853,"(77, 2, 196)",2,mbtiauth_4668
1854,"(77, 2, 222)",4,mbtiauth_4668
1855,"(77, 2, 254)",3,mbtiauth_4668
1856,"(77, 2, 278)",2,mbtiauth_4668
1857,"(77, 2, 441)",4,mbtiauth_4668
1858,"(77, 2, 567)",2,mbtiauth_4668
1859,"(77, 2, 789)",2,mbtiauth_4668
1860,"(77, 2, 2643)",2,mbtiauth_4668
1861,"(77, 2, 3390)",2,mbtiauth_4668
1862,"(77, 10, 65)",3,mbtiauth_4668
1863,"(77, 10, 66)",2,mbtiauth_4668
1864,"(77, 10, 77)",3,mbtiauth_4668
1865,"(77, 10, 123)",2,mbtiauth_4668
1866,"(77, 10, 170)",2,mbtiauth_4668
1867,"(77, 10, 193)",2,mbtiauth_4668
1868,"(77, 10, 6246)",2,mbtiauth_4668
1869,"(77, 16, 77)",2,mbtiauth_4668
1870,"(77, 16, 134)",2,mbtiauth_4668
1871,"(77, 16, 254)",2,mbtiauth_4668
1872,"(77, 22, 2)",3,mbtiauth_4668
1873,"(77, 22, 22)",4,mbtiauth_4668
1874,"(77, 22, 27)",2,mbtiauth_4668
1875,"(77, 22, 32)",4,mbtiauth_4668
1876,"(77, 22, 41)",2,mbtiauth_4668
1877,"(77, 22, 64)",2,mbtiauth_4668
1878,"(77, 22, 77)",4,mbtiauth_4668
1879,"(77, 22, 117)",2,mbtiauth_4668
1880,"(77, 22, 123)",4,mbtiauth_4668
1881,"(77, 22, 144)",2,mbtiauth_4668
1882,"(77, 22, 170)",3,mbtiauth_4668
1883,"(77, 22, 198)",3,mbtiauth_4668
1884,"(77, 22, 213)",2,mbtiauth_4668
1885,"(77, 22, 301)",2,mbtiauth_4668
1886,"(77, 22, 443)",2,mbtiauth_4668
1887,"(77, 22, 663)",2,mbtiauth_4668
1888,"(77, 22, 1326)",2,mbtiauth_4668
1889,"(77, 22, 9690)",2,mbtiauth_4668
1890,"(77, 27, 123)",2,mbtiauth_4668
1891,"(77, 32, 22)",3,mbtiauth_4668
1892,"(77, 32, 41)",2,mbtiauth_4668
1893,"(77, 32, 50)",2,mbtiauth_4668
1894,"(77, 32, 64)",3,mbtiauth_4668
1895,"(77, 32, 77)",5,mbtiauth_4668
1896,"(77, 32, 123)",2,mbtiauth_4668
1897,"(77, 32, 151)",2,mbtiauth_4668
1898,"(77, 32, 193)",2,mbtiauth_4668
1899,"(77, 32, 213)",2,mbtiauth_4668
1900,"(77, 32, 262)",2,mbtiauth_4668
1901,"(77, 32, 547)",2,mbtiauth_4668
1902,"(77, 33, 32)",2,mbtiauth_4668
1903,"(77, 33, 77)",3,mbtiauth_4668
1904,"(77, 33, 123)",3,mbtiauth_4668
1905,"(77, 33, 171)",2,mbtiauth_4668
1906,"(77, 33, 262)",2,mbtiauth_4668
1907,"(77, 33, 547)",2,mbtiauth_4668
1908,"(77, 41, 77)",2,mbtiauth_4668
1909,"(77, 64, 22)",6,mbtiauth_4668
1910,"(77, 64, 32)",2,mbtiauth_4668
1911,"(77, 64, 41)",2,mbtiauth_4668
1912,"(77, 64, 64)",3,mbtiauth_4668
1913,"(77, 64, 65)",3,mbtiauth_4668
1914,"(77, 64, 66)",2,mbtiauth_4668
1915,"(77, 64, 67)",2,mbtiauth_4668
1916,"(77, 64, 70)",2,mbtiauth_4668
1917,"(77, 64, 77)",6,mbtiauth_4668
1918,"(77, 64, 123)",3,mbtiauth_4668
1919,"(77, 64, 144)",2,mbtiauth_4668
1920,"(77, 64, 162)",2,mbtiauth_4668
1921,"(77, 64, 171)",2,mbtiauth_4668
1922,"(77, 64, 213)",2,mbtiauth_4668
1923,"(77, 64, 1214)",2,mbtiauth_4668
1924,"(77, 65, 32)",3,mbtiauth_4668
1925,"(77, 65, 64)",3,mbtiauth_4668
1926,"(77, 65, 77)",3,mbtiauth_4668
1927,"(77, 65, 6291)",2,mbtiauth_4668
1928,"(77, 66, 77)",2,mbtiauth_4668
1929,"(77, 66, 6246)",2,mbtiauth_4668
1930,"(77, 67, 64)",2,mbtiauth_4668
1931,"(77, 67, 77)",2,mbtiauth_4668
1932,"(77, 67, 443)",2,mbtiauth_4668
1933,"(77, 76, 77)",2,mbtiauth_4668
1934,"(77, 77, 2)",4,mbtiauth_4668
1935,"(77, 77, 10)",3,mbtiauth_4668
1936,"(77, 77, 22)",2,mbtiauth_4668
1937,"(77, 77, 32)",3,mbtiauth_4668
1938,"(77, 77, 33)",2,mbtiauth_4668
1939,"(77, 77, 50)",2,mbtiauth_4668
1940,"(77, 77, 64)",5,mbtiauth_4668
1941,"(77, 77, 65)",4,mbtiauth_4668
1942,"(77, 77, 70)",2,mbtiauth_4668
1943,"(77, 77, 77)",7,mbtiauth_4668
1944,"(77, 77, 120)",2,mbtiauth_4668
1945,"(77, 77, 123)",9,mbtiauth_4668
1946,"(77, 77, 151)",3,mbtiauth_4668
1947,"(77, 77, 152)",3,mbtiauth_4668
1948,"(77, 77, 154)",4,mbtiauth_4668
1949,"(77, 77, 158)",2,mbtiauth_4668
1950,"(77, 77, 162)",3,mbtiauth_4668
1951,"(77, 77, 167)",2,mbtiauth_4668
1952,"(77, 77, 170)",3,mbtiauth_4668
1953,"(77, 77, 171)",2,mbtiauth_4668
1954,"(77, 77, 183)",2,mbtiauth_4668
1955,"(77, 77, 193)",4,mbtiauth_4668
1956,"(77, 77, 213)",3,mbtiauth_4668
1957,"(77, 77, 222)",3,mbtiauth_4668
1958,"(77, 77, 254)",2,mbtiauth_4668
1959,"(77, 77, 274)",2,mbtiauth_4668
1960,"(77, 77, 276)",2,mbtiauth_4668
1961,"(77, 77, 349)",2,mbtiauth_4668
1962,"(77, 77, 441)",6,mbtiauth_4668
1963,"(77, 77, 443)",3,mbtiauth_4668
1964,"(77, 77, 789)",3,mbtiauth_4668
1965,"(77, 77, 1655)",2,mbtiauth_4668
1966,"(77, 82, 123)",2,mbtiauth_4668
1967,"(77, 117, 22)",3,mbtiauth_4668
1968,"(77, 117, 123)",2,mbtiauth_4668
1969,"(77, 117, 124)",2,mbtiauth_4668
1970,"(77, 117, 349)",2,mbtiauth_4668
1971,"(77, 117, 441)",2,mbtiauth_4668
1972,"(77, 120, 64)",2,mbtiauth_4668
1973,"(77, 120, 693)",2,mbtiauth_4668
1974,"(77, 123, 2)",2,mbtiauth_4668
1975,"(77, 123, 10)",2,mbtiauth_4668
1976,"(77, 123, 22)",7,mbtiauth_4668
1977,"(77, 123, 27)",3,mbtiauth_4668
1978,"(77, 123, 31)",2,mbtiauth_4668
1979,"(77, 123, 32)",5,mbtiauth_4668
1980,"(77, 123, 41)",2,mbtiauth_4668
1981,"(77, 123, 50)",3,mbtiauth_4668
1982,"(77, 123, 64)",6,mbtiauth_4668
1983,"(77, 123, 65)",5,mbtiauth_4668
1984,"(77, 123, 66)",2,mbtiauth_4668
1985,"(77, 123, 67)",2,mbtiauth_4668
1986,"(77, 123, 77)",6,mbtiauth_4668
1987,"(77, 123, 117)",2,mbtiauth_4668
1988,"(77, 123, 120)",3,mbtiauth_4668
1989,"(77, 123, 123)",7,mbtiauth_4668
1990,"(77, 123, 144)",5,mbtiauth_4668
1991,"(77, 123, 158)",2,mbtiauth_4668
1992,"(77, 123, 160)",2,mbtiauth_4668
1993,"(77, 123, 164)",2,mbtiauth_4668
1994,"(77, 123, 174)",4,mbtiauth_4668
1995,"(77, 123, 193)",4,mbtiauth_4668
1996,"(77, 123, 198)",2,mbtiauth_4668
1997,"(77, 123, 220)",4,mbtiauth_4668
1998,"(77, 123, 222)",2,mbtiauth_4668
1999,"(77, 123, 224)",2,mbtiauth_4668
2000,"(77, 123, 274)",2,mbtiauth_4668
2001,"(77, 123, 278)",2,mbtiauth_4668
2002,"(77, 123, 280)",2,mbtiauth_4668
2003,"(77, 123, 326)",2,mbtiauth_4668
2004,"(77, 123, 349)",2,mbtiauth_4668
2005,"(77, 123, 356)",2,mbtiauth_4668
2006,"(77, 123, 441)",6,mbtiauth_4668
2007,"(77, 123, 543)",2,mbtiauth_4668
2008,"(77, 123, 613)",2,mbtiauth_4668
2009,"(77, 123, 765)",2,mbtiauth_4668
2010,"(77, 123, 773)",2,mbtiauth_4668
2011,"(77, 123, 789)",4,mbtiauth_4668
2012,"(77, 123, 1193)",2,mbtiauth_4668
2013,"(77, 123, 1655)",2,mbtiauth_4668
2014,"(77, 123, 9690)",2,mbtiauth_4668
2015,"(77, 134, 77)",2,mbtiauth_4668
2016,"(77, 134, 254)",2,mbtiauth_4668
2017,"(77, 144, 22)",3,mbtiauth_4668
2018,"(77, 144, 123)",4,mbtiauth_4668
2019,"(77, 144, 160)",2,mbtiauth_4668
2020,"(77, 144, 278)",2,mbtiauth_4668
2021,"(77, 151, 33)",2,mbtiauth_4668
2022,"(77, 151, 153)",2,mbtiauth_4668
2023,"(77, 152, 123)",2,mbtiauth_4668
2024,"(77, 152, 212)",2,mbtiauth_4668
2025,"(77, 154, 22)",3,mbtiauth_4668
2026,"(77, 154, 41)",2,mbtiauth_4668
2027,"(77, 154, 219)",2,mbtiauth_4668
2028,"(77, 154, 222)",2,mbtiauth_4668
2029,"(77, 154, 441)",2,mbtiauth_4668
2030,"(77, 158, 162)",2,mbtiauth_4668
2031,"(77, 162, 32)",2,mbtiauth_4668
2032,"(77, 162, 123)",2,mbtiauth_4668
2033,"(77, 162, 174)",2,mbtiauth_4668
2034,"(77, 167, 33)",2,mbtiauth_4668
2035,"(77, 167, 77)",2,mbtiauth_4668
2036,"(77, 167, 651)",2,mbtiauth_4668
2037,"(77, 170, 22)",2,mbtiauth_4668
2038,"(77, 170, 32)",2,mbtiauth_4668
2039,"(77, 170, 77)",2,mbtiauth_4668
2040,"(77, 170, 200)",2,mbtiauth_4668
2041,"(77, 171, 77)",2,mbtiauth_4668
2042,"(77, 187, 154)",2,mbtiauth_4668
2043,"(77, 193, 31)",2,mbtiauth_4668
2044,"(77, 193, 32)",2,mbtiauth_4668
2045,"(77, 193, 41)",2,mbtiauth_4668
2046,"(77, 193, 64)",3,mbtiauth_4668
2047,"(77, 193, 77)",3,mbtiauth_4668
2048,"(77, 193, 170)",3,mbtiauth_4668
2049,"(77, 193, 206)",2,mbtiauth_4668
2050,"(77, 198, 32)",2,mbtiauth_4668
2051,"(77, 200, 32)",2,mbtiauth_4668
2052,"(77, 201, 170)",2,mbtiauth_4668
2053,"(77, 206, 64)",2,mbtiauth_4668
2054,"(77, 213, 77)",3,mbtiauth_4668
2055,"(77, 213, 151)",2,mbtiauth_4668
2056,"(77, 213, 167)",2,mbtiauth_4668
2057,"(77, 220, 144)",2,mbtiauth_4668
2058,"(77, 220, 278)",2,mbtiauth_4668
2059,"(77, 222, 22)",2,mbtiauth_4668
2060,"(77, 222, 64)",2,mbtiauth_4668
2061,"(77, 222, 77)",3,mbtiauth_4668
2062,"(77, 222, 123)",3,mbtiauth_4668
2063,"(77, 222, 789)",2,mbtiauth_4668
2064,"(77, 254, 77)",3,mbtiauth_4668
2065,"(77, 254, 123)",2,mbtiauth_4668
2066,"(77, 254, 193)",3,mbtiauth_4668
2067,"(77, 254, 349)",2,mbtiauth_4668
2068,"(77, 262, 123)",2,mbtiauth_4668
2069,"(77, 276, 123)",2,mbtiauth_4668
2070,"(77, 276, 274)",2,mbtiauth_4668
2071,"(77, 276, 441)",2,mbtiauth_4668
2072,"(77, 276, 1655)",2,mbtiauth_4668
2073,"(77, 278, 32)",2,mbtiauth_4668
2074,"(77, 278, 82)",2,mbtiauth_4668
2075,"(77, 278, 123)",3,mbtiauth_4668
2076,"(77, 280, 65)",2,mbtiauth_4668
2077,"(77, 285, 82)",2,mbtiauth_4668
2078,"(77, 285, 123)",3,mbtiauth_4668
2079,"(77, 285, 278)",2,mbtiauth_4668
2080,"(77, 349, 77)",2,mbtiauth_4668
2081,"(77, 349, 123)",2,mbtiauth_4668
2082,"(77, 349, 597)",2,mbtiauth_4668
2083,"(77, 356, 32)",2,mbtiauth_4668
2084,"(77, 441, 22)",5,mbtiauth_4668
2085,"(77, 441, 64)",5,mbtiauth_4668
2086,"(77, 441, 65)",2,mbtiauth_4668
2087,"(77, 441, 77)",2,mbtiauth_4668
2088,"(77, 441, 123)",2,mbtiauth_4668
2089,"(77, 441, 193)",2,mbtiauth_4668
2090,"(77, 441, 274)",2,mbtiauth_4668
2091,"(77, 441, 1655)",2,mbtiauth_4668
2092,"(77, 443, 22)",3,mbtiauth_4668
2093,"(77, 443, 64)",3,mbtiauth_4668
2094,"(77, 443, 67)",2,mbtiauth_4668
2095,"(77, 443, 77)",2,mbtiauth_4668
2096,"(77, 443, 443)",3,mbtiauth_4668
2097,"(77, 613, 154)",2,mbtiauth_4668
2098,"(77, 613, 187)",2,mbtiauth_4668
2099,"(77, 651, 33)",2,mbtiauth_4668
2100,"(77, 752, 77)",2,mbtiauth_4668
2101,"(77, 773, 64)",3,mbtiauth_4668
2102,"(77, 789, 31)",2,mbtiauth_4668
2103,"(77, 789, 193)",2,mbtiauth_4668
2104,"(77, 1214, 65)",2,mbtiauth_4668
2105,"(77, 1587, 123)",2,mbtiauth_4668
2106,"(77, 1610, 158)",2,mbtiauth_4668
2107,"(77, 2643, 64)",2,mbtiauth_4668
2108,"(77, 3390, 222)",2,mbtiauth_4668
2109,"(77, 6246, 77)",2,mbtiauth_4668
2110,"(77, 6291, 32)",2,mbtiauth_4668
2111,"(78, 77, 212)",2,mbtiauth_4668
2112,"(117, 77, 2)",2,mbtiauth_4668
2113,"(117, 77, 64)",2,mbtiauth_4668
2114,"(117, 77, 193)",2,mbtiauth_4668
2115,"(117, 123, 64)",2,mbtiauth_4668
2116,"(117, 123, 77)",2,mbtiauth_4668
2117,"(117, 123, 144)",2,mbtiauth_4668
2118,"(117, 123, 441)",2,mbtiauth_4668
2119,"(117, 441, 64)",2,mbtiauth_4668
2120,"(120, 356, 32)",2,mbtiauth_4668
2121,"(123, 2, 22)",2,mbtiauth_4668
2122,"(123, 2, 31)",3,mbtiauth_4668
2123,"(123, 2, 32)",2,mbtiauth_4668
2124,"(123, 2, 77)",4,mbtiauth_4668
2125,"(123, 2, 123)",3,mbtiauth_4668
2126,"(123, 2, 134)",2,mbtiauth_4668
2127,"(123, 2, 142)",2,mbtiauth_4668
2128,"(123, 2, 158)",2,mbtiauth_4668
2129,"(123, 2, 162)",2,mbtiauth_4668
2130,"(123, 2, 167)",2,mbtiauth_4668
2131,"(123, 2, 193)",3,mbtiauth_4668
2132,"(123, 2, 196)",2,mbtiauth_4668
2133,"(123, 2, 222)",2,mbtiauth_4668
2134,"(123, 2, 441)",3,mbtiauth_4668
2135,"(123, 2, 3390)",2,mbtiauth_4668
2136,"(123, 3, 32)",2,mbtiauth_4668
2137,"(123, 3, 65)",2,mbtiauth_4668
2138,"(123, 3, 201)",2,mbtiauth_4668
2139,"(123, 10, 441)",2,mbtiauth_4668
2140,"(123, 15, 32)",2,mbtiauth_4668
2141,"(123, 15, 65)",2,mbtiauth_4668
2142,"(123, 15, 77)",2,mbtiauth_4668
2143,"(123, 22, 2)",3,mbtiauth_4668
2144,"(123, 22, 15)",2,mbtiauth_4668
2145,"(123, 22, 22)",5,mbtiauth_4668
2146,"(123, 22, 32)",3,mbtiauth_4668
2147,"(123, 22, 76)",2,mbtiauth_4668
2148,"(123, 22, 77)",3,mbtiauth_4668
2149,"(123, 22, 123)",2,mbtiauth_4668
2150,"(123, 22, 196)",2,mbtiauth_4668
2151,"(123, 22, 9690)",2,mbtiauth_4668
2152,"(123, 27, 123)",2,mbtiauth_4668
2153,"(123, 31, 22)",2,mbtiauth_4668
2154,"(123, 32, 10)",2,mbtiauth_4668
2155,"(123, 32, 22)",2,mbtiauth_4668
2156,"(123, 32, 50)",5,mbtiauth_4668
2157,"(123, 32, 77)",3,mbtiauth_4668
2158,"(123, 32, 123)",2,mbtiauth_4668
2159,"(123, 32, 162)",3,mbtiauth_4668
2160,"(123, 32, 170)",3,mbtiauth_4668
2161,"(123, 32, 236)",2,mbtiauth_4668
2162,"(123, 32, 441)",2,mbtiauth_4668
2163,"(123, 32, 756)",2,mbtiauth_4668
2164,"(123, 33, 77)",3,mbtiauth_4668
2165,"(123, 33, 123)",2,mbtiauth_4668
2166,"(123, 33, 308)",2,mbtiauth_4668
2167,"(123, 41, 77)",2,mbtiauth_4668
2168,"(123, 50, 162)",2,mbtiauth_4668
2169,"(123, 50, 170)",2,mbtiauth_4668
2170,"(123, 54, 123)",2,mbtiauth_4668
2171,"(123, 64, 2)",3,mbtiauth_4668
2172,"(123, 64, 22)",4,mbtiauth_4668
2173,"(123, 64, 27)",3,mbtiauth_4668
2174,"(123, 64, 31)",2,mbtiauth_4668
2175,"(123, 64, 32)",3,mbtiauth_4668
2176,"(123, 64, 33)",2,mbtiauth_4668
2177,"(123, 64, 64)",5,mbtiauth_4668
2178,"(123, 64, 65)",3,mbtiauth_4668
2179,"(123, 64, 66)",2,mbtiauth_4668
2180,"(123, 64, 67)",2,mbtiauth_4668
2181,"(123, 64, 77)",6,mbtiauth_4668
2182,"(123, 64, 78)",2,mbtiauth_4668
2183,"(123, 64, 123)",5,mbtiauth_4668
2184,"(123, 64, 144)",2,mbtiauth_4668
2185,"(123, 64, 164)",3,mbtiauth_4668
2186,"(123, 64, 183)",2,mbtiauth_4668
2187,"(123, 64, 212)",2,mbtiauth_4668
2188,"(123, 64, 222)",2,mbtiauth_4668
2189,"(123, 64, 225)",2,mbtiauth_4668
2190,"(123, 64, 246)",2,mbtiauth_4668
2191,"(123, 64, 285)",2,mbtiauth_4668
2192,"(123, 64, 356)",2,mbtiauth_4668
2193,"(123, 65, 10)",2,mbtiauth_4668
2194,"(123, 65, 15)",2,mbtiauth_4668
2195,"(123, 65, 32)",8,mbtiauth_4668
2196,"(123, 65, 50)",4,mbtiauth_4668
2197,"(123, 65, 64)",2,mbtiauth_4668
2198,"(123, 65, 65)",3,mbtiauth_4668
2199,"(123, 65, 77)",4,mbtiauth_4668
2200,"(123, 65, 123)",3,mbtiauth_4668
2201,"(123, 65, 164)",3,mbtiauth_4668
2202,"(123, 65, 236)",2,mbtiauth_4668
2203,"(123, 65, 356)",2,mbtiauth_4668
2204,"(123, 65, 441)",2,mbtiauth_4668
2205,"(123, 65, 547)",2,mbtiauth_4668
2206,"(123, 65, 663)",3,mbtiauth_4668
2207,"(123, 65, 1219)",2,mbtiauth_4668
2208,"(123, 77, 2)",8,mbtiauth_4668
2209,"(123, 77, 10)",2,mbtiauth_4668
2210,"(123, 77, 16)",2,mbtiauth_4668
2211,"(123, 77, 27)",2,mbtiauth_4668
2212,"(123, 77, 33)",2,mbtiauth_4668
2213,"(123, 77, 64)",2,mbtiauth_4668
2214,"(123, 77, 65)",2,mbtiauth_4668
2215,"(123, 77, 77)",8,mbtiauth_4668
2216,"(123, 77, 78)",3,mbtiauth_4668
2217,"(123, 77, 123)",11,mbtiauth_4668
2218,"(123, 77, 144)",3,mbtiauth_4668
2219,"(123, 77, 152)",2,mbtiauth_4668
2220,"(123, 77, 154)",2,mbtiauth_4668
2221,"(123, 77, 160)",2,mbtiauth_4668
2222,"(123, 77, 162)",3,mbtiauth_4668
2223,"(123, 77, 167)",2,mbtiauth_4668
2224,"(123, 77, 170)",2,mbtiauth_4668
2225,"(123, 77, 183)",3,mbtiauth_4668
2226,"(123, 77, 193)",3,mbtiauth_4668
2227,"(123, 77, 196)",3,mbtiauth_4668
2228,"(123, 77, 212)",2,mbtiauth_4668
2229,"(123, 77, 222)",4,mbtiauth_4668
2230,"(123, 77, 278)",3,mbtiauth_4668
2231,"(123, 77, 285)",3,mbtiauth_4668
2232,"(123, 77, 441)",4,mbtiauth_4668
2233,"(123, 77, 596)",2,mbtiauth_4668
2234,"(123, 77, 3390)",2,mbtiauth_4668
2235,"(123, 78, 2)",2,mbtiauth_4668
2236,"(123, 78, 65)",2,mbtiauth_4668
2237,"(123, 78, 77)",2,mbtiauth_4668
2238,"(123, 117, 2)",2,mbtiauth_4668
2239,"(123, 117, 77)",2,mbtiauth_4668
2240,"(123, 117, 123)",2,mbtiauth_4668
2241,"(123, 120, 32)",2,mbtiauth_4668
2242,"(123, 120, 64)",2,mbtiauth_4668
2243,"(123, 120, 65)",2,mbtiauth_4668
2244,"(123, 120, 77)",2,mbtiauth_4668
2245,"(123, 120, 225)",2,mbtiauth_4668
2246,"(123, 120, 356)",2,mbtiauth_4668
2247,"(123, 123, 2)",2,mbtiauth_4668
2248,"(123, 123, 64)",2,mbtiauth_4668
2249,"(123, 123, 65)",3,mbtiauth_4668
2250,"(123, 123, 67)",2,mbtiauth_4668
2251,"(123, 123, 77)",2,mbtiauth_4668
2252,"(123, 123, 123)",3,mbtiauth_4668
2253,"(123, 123, 144)",3,mbtiauth_4668
2254,"(123, 123, 160)",2,mbtiauth_4668
2255,"(123, 123, 164)",2,mbtiauth_4668
2256,"(123, 123, 174)",2,mbtiauth_4668
2257,"(123, 123, 441)",4,mbtiauth_4668
2258,"(123, 123, 477)",2,mbtiauth_4668
2259,"(123, 123, 765)",2,mbtiauth_4668
2260,"(123, 142, 32)",2,mbtiauth_4668
2261,"(123, 142, 162)",2,mbtiauth_4668
2262,"(123, 144, 27)",2,mbtiauth_4668
2263,"(123, 144, 33)",2,mbtiauth_4668
2264,"(123, 144, 65)",2,mbtiauth_4668
2265,"(123, 144, 77)",2,mbtiauth_4668
2266,"(123, 144, 78)",2,mbtiauth_4668
2267,"(123, 144, 123)",3,mbtiauth_4668
2268,"(123, 144, 144)",2,mbtiauth_4668
2269,"(123, 144, 160)",2,mbtiauth_4668
2270,"(123, 144, 170)",2,mbtiauth_4668
2271,"(123, 144, 193)",2,mbtiauth_4668
2272,"(123, 144, 278)",2,mbtiauth_4668
2273,"(123, 144, 520)",3,mbtiauth_4668
2274,"(123, 151, 77)",2,mbtiauth_4668
2275,"(123, 151, 153)",2,mbtiauth_4668
2276,"(123, 152, 123)",2,mbtiauth_4668
2277,"(123, 152, 765)",2,mbtiauth_4668
2278,"(123, 154, 123)",2,mbtiauth_4668
2279,"(123, 154, 222)",2,mbtiauth_4668
2280,"(123, 154, 441)",2,mbtiauth_4668
2281,"(123, 158, 162)",2,mbtiauth_4668
2282,"(123, 162, 123)",2,mbtiauth_4668
2283,"(123, 162, 174)",2,mbtiauth_4668
2284,"(123, 164, 2)",2,mbtiauth_4668
2285,"(123, 164, 31)",2,mbtiauth_4668
2286,"(123, 164, 32)",2,mbtiauth_4668
2287,"(123, 164, 41)",2,mbtiauth_4668
2288,"(123, 164, 65)",3,mbtiauth_4668
2289,"(123, 164, 76)",2,mbtiauth_4668
2290,"(123, 164, 77)",2,mbtiauth_4668
2291,"(123, 164, 123)",2,mbtiauth_4668
2292,"(123, 164, 543)",2,mbtiauth_4668
2293,"(123, 164, 1107)",2,mbtiauth_4668
2294,"(123, 167, 33)",2,mbtiauth_4668
2295,"(123, 167, 77)",2,mbtiauth_4668
2296,"(123, 174, 32)",5,mbtiauth_4668
2297,"(123, 174, 50)",2,mbtiauth_4668
2298,"(123, 174, 64)",3,mbtiauth_4668
2299,"(123, 174, 65)",2,mbtiauth_4668
2300,"(123, 174, 77)",2,mbtiauth_4668
2301,"(123, 174, 152)",2,mbtiauth_4668
2302,"(123, 174, 285)",2,mbtiauth_4668
2303,"(123, 187, 77)",3,mbtiauth_4668
2304,"(123, 187, 123)",3,mbtiauth_4668
2305,"(123, 187, 144)",2,mbtiauth_4668
2306,"(123, 187, 160)",2,mbtiauth_4668
2307,"(123, 193, 31)",2,mbtiauth_4668
2308,"(123, 193, 33)",2,mbtiauth_4668
2309,"(123, 193, 77)",3,mbtiauth_4668
2310,"(123, 193, 123)",2,mbtiauth_4668
2311,"(123, 193, 170)",2,mbtiauth_4668
2312,"(123, 198, 76)",2,mbtiauth_4668
2313,"(123, 220, 50)",2,mbtiauth_4668
2314,"(123, 220, 77)",2,mbtiauth_4668
2315,"(123, 220, 123)",3,mbtiauth_4668
2316,"(123, 220, 144)",3,mbtiauth_4668
2317,"(123, 220, 171)",2,mbtiauth_4668
2318,"(123, 220, 278)",2,mbtiauth_4668
2319,"(123, 220, 765)",3,mbtiauth_4668
2320,"(123, 222, 123)",2,mbtiauth_4668
2321,"(123, 246, 2)",2,mbtiauth_4668
2322,"(123, 246, 77)",2,mbtiauth_4668
2323,"(123, 278, 123)",2,mbtiauth_4668
2324,"(123, 285, 123)",2,mbtiauth_4668
2325,"(123, 286, 15)",2,mbtiauth_4668
2326,"(123, 286, 22)",2,mbtiauth_4668
2327,"(123, 286, 32)",2,mbtiauth_4668
2328,"(123, 286, 33)",2,mbtiauth_4668
2329,"(123, 286, 193)",2,mbtiauth_4668
2330,"(123, 286, 1193)",2,mbtiauth_4668
2331,"(123, 322, 22)",2,mbtiauth_4668
2332,"(123, 322, 32)",2,mbtiauth_4668
2333,"(123, 340, 77)",2,mbtiauth_4668
2334,"(123, 340, 597)",2,mbtiauth_4668
2335,"(123, 340, 3074)",2,mbtiauth_4668
2336,"(123, 356, 32)",2,mbtiauth_4668
2337,"(123, 356, 65)",2,mbtiauth_4668
2338,"(123, 356, 77)",2,mbtiauth_4668
2339,"(123, 407, 2)",2,mbtiauth_4668
2340,"(123, 407, 3)",3,mbtiauth_4668
2341,"(123, 407, 32)",3,mbtiauth_4668
2342,"(123, 407, 50)",2,mbtiauth_4668
2343,"(123, 407, 65)",3,mbtiauth_4668
2344,"(123, 407, 77)",3,mbtiauth_4668
2345,"(123, 407, 201)",2,mbtiauth_4668
2346,"(123, 407, 254)",3,mbtiauth_4668
2347,"(123, 407, 441)",4,mbtiauth_4668
2348,"(123, 407, 1219)",2,mbtiauth_4668
2349,"(123, 411, 2)",2,mbtiauth_4668
2350,"(123, 441, 2)",2,mbtiauth_4668
2351,"(123, 441, 22)",4,mbtiauth_4668
2352,"(123, 441, 64)",6,mbtiauth_4668
2353,"(123, 441, 65)",6,mbtiauth_4668
2354,"(123, 441, 77)",4,mbtiauth_4668
2355,"(123, 441, 123)",4,mbtiauth_4668
2356,"(123, 441, 164)",4,mbtiauth_4668
2357,"(123, 441, 274)",2,mbtiauth_4668
2358,"(123, 441, 543)",2,mbtiauth_4668
2359,"(123, 441, 663)",3,mbtiauth_4668
2360,"(123, 441, 1655)",2,mbtiauth_4668
2361,"(123, 443, 64)",2,mbtiauth_4668
2362,"(123, 483, 123)",2,mbtiauth_4668
2363,"(123, 613, 77)",2,mbtiauth_4668
2364,"(123, 613, 123)",2,mbtiauth_4668
2365,"(123, 613, 144)",2,mbtiauth_4668
2366,"(123, 613, 160)",2,mbtiauth_4668
2367,"(123, 613, 187)",2,mbtiauth_4668
2368,"(123, 638, 77)",2,mbtiauth_4668
2369,"(123, 663, 77)",2,mbtiauth_4668
2370,"(123, 663, 164)",2,mbtiauth_4668
2371,"(123, 694, 41)",2,mbtiauth_4668
2372,"(123, 694, 77)",2,mbtiauth_4668
2373,"(123, 773, 64)",2,mbtiauth_4668
2374,"(123, 789, 31)",2,mbtiauth_4668
2375,"(123, 789, 193)",2,mbtiauth_4668
2376,"(123, 819, 219)",2,mbtiauth_4668
2377,"(123, 1030, 32)",2,mbtiauth_4668
2378,"(123, 1030, 50)",2,mbtiauth_4668
2379,"(123, 1030, 65)",2,mbtiauth_4668
2380,"(123, 1193, 15)",2,mbtiauth_4668
2381,"(123, 1193, 22)",2,mbtiauth_4668
2382,"(123, 1193, 32)",2,mbtiauth_4668
2383,"(123, 1217, 64)",3,mbtiauth_4668
2384,"(123, 1217, 77)",2,mbtiauth_4668
2385,"(123, 1217, 123)",2,mbtiauth_4668
2386,"(123, 1219, 32)",2,mbtiauth_4668
2387,"(123, 1219, 441)",2,mbtiauth_4668
2388,"(123, 1313, 64)",2,mbtiauth_4668
2389,"(123, 1364, 164)",2,mbtiauth_4668
2390,"(123, 3389, 2)",2,mbtiauth_4668
2391,"(123, 3389, 77)",2,mbtiauth_4668
2392,"(123, 3389, 222)",2,mbtiauth_4668
2393,"(123, 3389, 3390)",2,mbtiauth_4668
2394,"(123, 3390, 222)",2,mbtiauth_4668
2395,"(134, 77, 77)",3,mbtiauth_4668
2396,"(134, 77, 134)",2,mbtiauth_4668
2397,"(134, 254, 77)",2,mbtiauth_4668
2398,"(144, 27, 123)",2,mbtiauth_4668
2399,"(144, 41, 22)",2,mbtiauth_4668
2400,"(144, 41, 268)",2,mbtiauth_4668
2401,"(144, 77, 2)",2,mbtiauth_4668
2402,"(144, 77, 78)",2,mbtiauth_4668
2403,"(144, 77, 657)",2,mbtiauth_4668
2404,"(144, 123, 22)",2,mbtiauth_4668
2405,"(144, 123, 144)",2,mbtiauth_4668
2406,"(144, 123, 160)",2,mbtiauth_4668
2407,"(144, 268, 22)",2,mbtiauth_4668
2408,"(151, 22, 2)",2,mbtiauth_4668
2409,"(151, 77, 2)",3,mbtiauth_4668
2410,"(151, 77, 123)",2,mbtiauth_4668
2411,"(151, 222, 123)",2,mbtiauth_4668
2412,"(152, 123, 765)",2,mbtiauth_4668
2413,"(152, 123, 789)",2,mbtiauth_4668
2414,"(153, 77, 123)",2,mbtiauth_4668
2415,"(154, 27, 123)",2,mbtiauth_4668
2416,"(154, 41, 77)",2,mbtiauth_4668
2417,"(154, 77, 123)",2,mbtiauth_4668
2418,"(154, 123, 77)",2,mbtiauth_4668
2419,"(154, 123, 123)",2,mbtiauth_4668
2420,"(154, 123, 160)",2,mbtiauth_4668
2421,"(154, 123, 219)",2,mbtiauth_4668
2422,"(154, 123, 819)",2,mbtiauth_4668
2423,"(154, 144, 77)",2,mbtiauth_4668
2424,"(154, 144, 123)",2,mbtiauth_4668
2425,"(154, 144, 160)",2,mbtiauth_4668
2426,"(154, 441, 22)",2,mbtiauth_4668
2427,"(154, 819, 219)",2,mbtiauth_4668
2428,"(162, 2, 41)",2,mbtiauth_4668
2429,"(162, 2, 2643)",2,mbtiauth_4668
2430,"(162, 64, 77)",2,mbtiauth_4668
2431,"(162, 64, 642)",2,mbtiauth_4668
2432,"(162, 77, 77)",2,mbtiauth_4668
2433,"(162, 123, 32)",2,mbtiauth_4668
2434,"(162, 123, 77)",2,mbtiauth_4668
2435,"(162, 123, 152)",2,mbtiauth_4668
2436,"(162, 123, 174)",3,mbtiauth_4668
2437,"(162, 144, 77)",2,mbtiauth_4668
2438,"(162, 174, 32)",2,mbtiauth_4668
2439,"(162, 193, 32)",2,mbtiauth_4668
2440,"(162, 193, 64)",2,mbtiauth_4668
2441,"(162, 2643, 41)",2,mbtiauth_4668
2442,"(164, 2, 77)",2,mbtiauth_4668
2443,"(164, 2, 2643)",2,mbtiauth_4668
2444,"(164, 41, 2)",2,mbtiauth_4668
2445,"(165, 67, 77)",2,mbtiauth_4668
2446,"(167, 33, 65)",2,mbtiauth_4668
2447,"(167, 651, 33)",2,mbtiauth_4668
2448,"(170, 64, 22)",2,mbtiauth_4668
2449,"(170, 64, 64)",2,mbtiauth_4668
2450,"(170, 64, 77)",3,mbtiauth_4668
2451,"(170, 65, 22)",2,mbtiauth_4668
2452,"(170, 65, 3904)",2,mbtiauth_4668
2453,"(170, 77, 22)",2,mbtiauth_4668
2454,"(170, 77, 123)",2,mbtiauth_4668
2455,"(170, 77, 443)",3,mbtiauth_4668
2456,"(170, 123, 22)",2,mbtiauth_4668
2457,"(170, 123, 65)",2,mbtiauth_4668
2458,"(170, 223, 22)",2,mbtiauth_4668
2459,"(170, 276, 22)",2,mbtiauth_4668
2460,"(170, 291, 276)",2,mbtiauth_4668
2461,"(170, 1030, 65)",2,mbtiauth_4668
2462,"(171, 32, 22)",2,mbtiauth_4668
2463,"(171, 32, 1263)",2,mbtiauth_4668
2464,"(171, 1263, 22)",2,mbtiauth_4668
2465,"(174, 32, 50)",2,mbtiauth_4668
2466,"(174, 64, 32)",2,mbtiauth_4668
2467,"(174, 65, 32)",2,mbtiauth_4668
2468,"(174, 65, 50)",2,mbtiauth_4668
2469,"(183, 77, 152)",2,mbtiauth_4668
2470,"(187, 77, 123)",3,mbtiauth_4668
2471,"(187, 77, 144)",3,mbtiauth_4668
2472,"(187, 77, 154)",2,mbtiauth_4668
2473,"(187, 77, 160)",2,mbtiauth_4668
2474,"(187, 77, 220)",2,mbtiauth_4668
2475,"(187, 77, 278)",2,mbtiauth_4668
2476,"(187, 123, 144)",2,mbtiauth_4668
2477,"(187, 123, 160)",2,mbtiauth_4668
2478,"(187, 123, 220)",2,mbtiauth_4668
2479,"(187, 123, 278)",2,mbtiauth_4668
2480,"(187, 144, 123)",2,mbtiauth_4668
2481,"(187, 144, 160)",2,mbtiauth_4668
2482,"(187, 144, 278)",2,mbtiauth_4668
2483,"(187, 154, 219)",2,mbtiauth_4668
2484,"(187, 220, 144)",2,mbtiauth_4668
2485,"(187, 220, 278)",2,mbtiauth_4668
2486,"(193, 31, 22)",2,mbtiauth_4668
2487,"(193, 32, 77)",2,mbtiauth_4668
2488,"(193, 32, 11556)",2,mbtiauth_4668
2489,"(193, 33, 77)",2,mbtiauth_4668
2490,"(193, 64, 77)",3,mbtiauth_4668
2491,"(193, 64, 171)",2,mbtiauth_4668
2492,"(193, 77, 2)",2,mbtiauth_4668
2493,"(193, 77, 10)",2,mbtiauth_4668
2494,"(193, 77, 32)",3,mbtiauth_4668
2495,"(193, 77, 67)",2,mbtiauth_4668
2496,"(193, 77, 77)",2,mbtiauth_4668
2497,"(193, 77, 123)",3,mbtiauth_4668
2498,"(193, 77, 144)",2,mbtiauth_4668
2499,"(193, 77, 170)",2,mbtiauth_4668
2500,"(193, 77, 201)",2,mbtiauth_4668
2501,"(193, 77, 443)",2,mbtiauth_4668
2502,"(193, 206, 64)",2,mbtiauth_4668
2503,"(193, 443, 77)",2,mbtiauth_4668
2504,"(193, 11556, 77)",2,mbtiauth_4668
2505,"(198, 162, 123)",2,mbtiauth_4668
2506,"(201, 77, 134)",2,mbtiauth_4668
2507,"(213, 77, 151)",2,mbtiauth_4668
2508,"(220, 144, 278)",2,mbtiauth_4668
2509,"(222, 77, 66)",2,mbtiauth_4668
2510,"(222, 123, 789)",2,mbtiauth_4668
2511,"(223, 77, 223)",2,mbtiauth_4668
2512,"(224, 77, 773)",2,mbtiauth_4668
2513,"(226, 77, 123)",2,mbtiauth_4668
2514,"(236, 32, 77)",2,mbtiauth_4668
2515,"(244, 2, 77)",2,mbtiauth_4668
2516,"(246, 77, 2)",2,mbtiauth_4668
2517,"(246, 77, 33)",2,mbtiauth_4668
2518,"(246, 77, 77)",2,mbtiauth_4668
2519,"(246, 77, 123)",3,mbtiauth_4668
2520,"(246, 77, 183)",2,mbtiauth_4668
2521,"(246, 77, 220)",2,mbtiauth_4668
2522,"(246, 123, 77)",2,mbtiauth_4668
2523,"(246, 123, 220)",2,mbtiauth_4668
2524,"(254, 123, 123)",2,mbtiauth_4668
2525,"(254, 193, 64)",2,mbtiauth_4668
2526,"(254, 349, 31)",2,mbtiauth_4668
2527,"(254, 349, 77)",2,mbtiauth_4668
2528,"(260, 349, 183)",2,mbtiauth_4668
2529,"(262, 22, 123)",2,mbtiauth_4668
2530,"(262, 22, 749)",2,mbtiauth_4668
2531,"(262, 22, 1587)",2,mbtiauth_4668
2532,"(262, 54, 123)",2,mbtiauth_4668
2533,"(262, 64, 22)",2,mbtiauth_4668
2534,"(262, 64, 123)",2,mbtiauth_4668
2535,"(262, 64, 749)",2,mbtiauth_4668
2536,"(262, 64, 1587)",2,mbtiauth_4668
2537,"(262, 123, 77)",2,mbtiauth_4668
2538,"(262, 123, 164)",2,mbtiauth_4668
2539,"(262, 171, 77)",2,mbtiauth_4668
2540,"(262, 220, 77)",2,mbtiauth_4668
2541,"(262, 749, 123)",2,mbtiauth_4668
2542,"(262, 1587, 123)",2,mbtiauth_4668
2543,"(262, 1587, 749)",2,mbtiauth_4668
2544,"(268, 66, 77)",2,mbtiauth_4668
2545,"(276, 2, 123)",2,mbtiauth_4668
2546,"(276, 2, 193)",2,mbtiauth_4668
2547,"(276, 2, 789)",2,mbtiauth_4668
2548,"(276, 64, 65)",2,mbtiauth_4668
2549,"(276, 64, 1214)",2,mbtiauth_4668
2550,"(276, 77, 64)",2,mbtiauth_4668
2551,"(276, 77, 65)",3,mbtiauth_4668
2552,"(276, 77, 77)",2,mbtiauth_4668
2553,"(276, 77, 123)",3,mbtiauth_4668
2554,"(276, 77, 1214)",2,mbtiauth_4668
2555,"(276, 123, 22)",2,mbtiauth_4668
2556,"(276, 123, 65)",3,mbtiauth_4668
2557,"(276, 123, 193)",2,mbtiauth_4668
2558,"(276, 123, 274)",2,mbtiauth_4668
2559,"(276, 123, 441)",3,mbtiauth_4668
2560,"(276, 123, 789)",2,mbtiauth_4668
2561,"(276, 123, 1655)",2,mbtiauth_4668
2562,"(276, 441, 22)",2,mbtiauth_4668
2563,"(276, 441, 65)",2,mbtiauth_4668
2564,"(276, 441, 274)",2,mbtiauth_4668
2565,"(276, 441, 1655)",2,mbtiauth_4668
2566,"(276, 789, 193)",2,mbtiauth_4668
2567,"(276, 1214, 65)",2,mbtiauth_4668
2568,"(278, 82, 123)",2,mbtiauth_4668
2569,"(285, 32, 50)",2,mbtiauth_4668
2570,"(285, 65, 32)",2,mbtiauth_4668
2571,"(285, 65, 50)",2,mbtiauth_4668
2572,"(285, 82, 123)",2,mbtiauth_4668
2573,"(285, 123, 22)",2,mbtiauth_4668
2574,"(285, 165, 22)",2,mbtiauth_4668
2575,"(285, 278, 82)",2,mbtiauth_4668
2576,"(285, 278, 123)",2,mbtiauth_4668
2577,"(286, 22, 15)",2,mbtiauth_4668
2578,"(286, 22, 22)",2,mbtiauth_4668
2579,"(286, 22, 32)",2,mbtiauth_4668
2580,"(286, 32, 22)",2,mbtiauth_4668
2581,"(286, 193, 33)",2,mbtiauth_4668
2582,"(286, 1193, 15)",2,mbtiauth_4668
2583,"(286, 1193, 22)",2,mbtiauth_4668
2584,"(291, 64, 1214)",2,mbtiauth_4668
2585,"(291, 77, 64)",2,mbtiauth_4668
2586,"(291, 77, 123)",2,mbtiauth_4668
2587,"(291, 77, 1214)",2,mbtiauth_4668
2588,"(291, 276, 64)",2,mbtiauth_4668
2589,"(291, 276, 77)",2,mbtiauth_4668
2590,"(291, 276, 123)",2,mbtiauth_4668
2591,"(291, 276, 1214)",2,mbtiauth_4668
2592,"(291, 443, 443)",2,mbtiauth_4668
2593,"(322, 27, 123)",2,mbtiauth_4668
2594,"(322, 32, 77)",2,mbtiauth_4668
2595,"(322, 65, 164)",2,mbtiauth_4668
2596,"(322, 77, 27)",2,mbtiauth_4668
2597,"(322, 77, 123)",2,mbtiauth_4668
2598,"(322, 123, 65)",2,mbtiauth_4668
2599,"(322, 123, 77)",2,mbtiauth_4668
2600,"(322, 123, 164)",2,mbtiauth_4668
2601,"(326, 123, 77)",2,mbtiauth_4668
2602,"(340, 77, 22)",2,mbtiauth_4668
2603,"(340, 77, 123)",2,mbtiauth_4668
2604,"(340, 77, 443)",2,mbtiauth_4668
2605,"(340, 123, 77)",2,mbtiauth_4668
2606,"(349, 10, 77)",2,mbtiauth_4668
2607,"(349, 77, 67)",2,mbtiauth_4668
2608,"(349, 77, 123)",2,mbtiauth_4668
2609,"(349, 123, 123)",2,mbtiauth_4668
2610,"(349, 144, 77)",3,mbtiauth_4668
2611,"(349, 144, 193)",2,mbtiauth_4668
2612,"(349, 340, 77)",2,mbtiauth_4668
2613,"(349, 693, 77)",2,mbtiauth_4668
2614,"(356, 22, 22)",2,mbtiauth_4668
2615,"(356, 77, 77)",3,mbtiauth_4668
2616,"(356, 77, 154)",2,mbtiauth_4668
2617,"(364, 64, 123)",2,mbtiauth_4668
2618,"(364, 64, 144)",2,mbtiauth_4668
2619,"(364, 65, 911)",2,mbtiauth_4668
2620,"(364, 77, 123)",2,mbtiauth_4668
2621,"(364, 123, 77)",2,mbtiauth_4668
2622,"(364, 123, 144)",2,mbtiauth_4668
2623,"(364, 123, 220)",2,mbtiauth_4668
2624,"(364, 1779, 64)",2,mbtiauth_4668
2625,"(364, 1779, 123)",2,mbtiauth_4668
2626,"(364, 1779, 144)",2,mbtiauth_4668
2627,"(381, 77, 123)",2,mbtiauth_4668
2628,"(398, 443, 443)",2,mbtiauth_4668
2629,"(407, 2, 77)",2,mbtiauth_4668
2630,"(407, 2, 441)",2,mbtiauth_4668
2631,"(407, 3, 32)",2,mbtiauth_4668
2632,"(407, 3, 65)",2,mbtiauth_4668
2633,"(407, 3, 201)",2,mbtiauth_4668
2634,"(407, 32, 441)",2,mbtiauth_4668
2635,"(407, 65, 32)",3,mbtiauth_4668
2636,"(407, 65, 441)",2,mbtiauth_4668
2637,"(407, 65, 1219)",2,mbtiauth_4668
2638,"(407, 77, 2)",2,mbtiauth_4668
2639,"(407, 77, 77)",2,mbtiauth_4668
2640,"(407, 77, 441)",2,mbtiauth_4668
2641,"(407, 1219, 32)",2,mbtiauth_4668
2642,"(407, 1219, 441)",2,mbtiauth_4668
2643,"(411, 2, 32)",2,mbtiauth_4668
2644,"(441, 22, 64)",2,mbtiauth_4668
2645,"(441, 22, 123)",2,mbtiauth_4668
2646,"(441, 64, 2)",2,mbtiauth_4668
2647,"(441, 64, 22)",4,mbtiauth_4668
2648,"(441, 64, 64)",4,mbtiauth_4668
2649,"(441, 64, 65)",3,mbtiauth_4668
2650,"(441, 64, 67)",3,mbtiauth_4668
2651,"(441, 64, 123)",3,mbtiauth_4668
2652,"(441, 64, 162)",2,mbtiauth_4668
2653,"(441, 64, 164)",2,mbtiauth_4668
2654,"(441, 64, 349)",2,mbtiauth_4668
2655,"(441, 64, 9869)",2,mbtiauth_4668
2656,"(441, 65, 2)",2,mbtiauth_4668
2657,"(441, 65, 64)",3,mbtiauth_4668
2658,"(441, 65, 65)",2,mbtiauth_4668
2659,"(441, 65, 77)",4,mbtiauth_4668
2660,"(441, 65, 123)",2,mbtiauth_4668
2661,"(441, 65, 164)",2,mbtiauth_4668
2662,"(441, 65, 663)",3,mbtiauth_4668
2663,"(441, 67, 2)",2,mbtiauth_4668
2664,"(441, 67, 64)",2,mbtiauth_4668
2665,"(441, 67, 65)",2,mbtiauth_4668
2666,"(441, 77, 2)",2,mbtiauth_4668
2667,"(441, 77, 65)",3,mbtiauth_4668
2668,"(441, 77, 77)",2,mbtiauth_4668
2669,"(441, 78, 77)",2,mbtiauth_4668
2670,"(441, 123, 2)",2,mbtiauth_4668
2671,"(441, 123, 64)",2,mbtiauth_4668
2672,"(441, 164, 77)",2,mbtiauth_4668
2673,"(441, 164, 543)",2,mbtiauth_4668
2674,"(441, 663, 77)",2,mbtiauth_4668
2675,"(441, 663, 164)",2,mbtiauth_4668
2676,"(441, 9869, 64)",2,mbtiauth_4668
2677,"(443, 2, 77)",2,mbtiauth_4668
2678,"(443, 2, 443)",2,mbtiauth_4668
2679,"(443, 22, 77)",2,mbtiauth_4668
2680,"(443, 22, 398)",2,mbtiauth_4668
2681,"(443, 22, 443)",2,mbtiauth_4668
2682,"(443, 64, 22)",2,mbtiauth_4668
2683,"(443, 77, 22)",2,mbtiauth_4668
2684,"(443, 77, 443)",4,mbtiauth_4668
2685,"(443, 340, 443)",2,mbtiauth_4668
2686,"(443, 398, 443)",2,mbtiauth_4668
2687,"(443, 443, 2)",2,mbtiauth_4668
2688,"(443, 443, 77)",2,mbtiauth_4668
2689,"(443, 443, 134)",2,mbtiauth_4668
2690,"(443, 443, 443)",3,mbtiauth_4668
2691,"(498, 64, 77)",2,mbtiauth_4668
2692,"(507, 64, 22)",2,mbtiauth_4668
2693,"(507, 77, 22)",2,mbtiauth_4668
2694,"(507, 77, 64)",2,mbtiauth_4668
2695,"(507, 77, 123)",2,mbtiauth_4668
2696,"(543, 123, 77)",2,mbtiauth_4668
2697,"(547, 64, 64)",2,mbtiauth_4668
2698,"(547, 77, 77)",2,mbtiauth_4668
2699,"(547, 77, 123)",2,mbtiauth_4668
2700,"(547, 77, 441)",2,mbtiauth_4668
2701,"(547, 123, 22)",2,mbtiauth_4668
2702,"(547, 123, 64)",2,mbtiauth_4668
2703,"(547, 123, 77)",2,mbtiauth_4668
2704,"(547, 123, 123)",2,mbtiauth_4668
2705,"(547, 123, 441)",2,mbtiauth_4668
2706,"(567, 64, 77)",2,mbtiauth_4668
2707,"(599, 33, 77)",2,mbtiauth_4668
2708,"(599, 77, 33)",2,mbtiauth_4668
2709,"(599, 77, 77)",2,mbtiauth_4668
2710,"(613, 77, 123)",2,mbtiauth_4668
2711,"(613, 77, 144)",2,mbtiauth_4668
2712,"(613, 77, 160)",2,mbtiauth_4668
2713,"(613, 123, 160)",2,mbtiauth_4668
2714,"(613, 144, 123)",2,mbtiauth_4668
2715,"(613, 144, 160)",2,mbtiauth_4668
2716,"(613, 187, 77)",2,mbtiauth_4668
2717,"(613, 187, 123)",2,mbtiauth_4668
2718,"(613, 187, 144)",2,mbtiauth_4668
2719,"(613, 187, 154)",2,mbtiauth_4668
2720,"(613, 187, 160)",2,mbtiauth_4668
2721,"(642, 3, 201)",2,mbtiauth_4668
2722,"(642, 64, 22)",2,mbtiauth_4668
2723,"(642, 77, 22)",2,mbtiauth_4668
2724,"(642, 77, 64)",2,mbtiauth_4668
2725,"(642, 77, 77)",2,mbtiauth_4668
2726,"(642, 77, 123)",3,mbtiauth_4668
2727,"(642, 123, 3)",2,mbtiauth_4668
2728,"(642, 123, 201)",2,mbtiauth_4668
2729,"(642, 123, 407)",2,mbtiauth_4668
2730,"(642, 123, 441)",2,mbtiauth_4668
2731,"(642, 407, 3)",2,mbtiauth_4668
2732,"(642, 407, 201)",2,mbtiauth_4668
2733,"(642, 507, 22)",2,mbtiauth_4668
2734,"(642, 507, 64)",2,mbtiauth_4668
2735,"(642, 507, 77)",2,mbtiauth_4668
2736,"(642, 507, 123)",2,mbtiauth_4668
2737,"(663, 2, 77)",2,mbtiauth_4668
2738,"(663, 77, 65)",2,mbtiauth_4668
2739,"(663, 77, 77)",2,mbtiauth_4668
2740,"(663, 77, 123)",2,mbtiauth_4668
2741,"(663, 164, 77)",2,mbtiauth_4668
2742,"(663, 170, 77)",2,mbtiauth_4668
2743,"(694, 41, 77)",2,mbtiauth_4668
2744,"(738, 2, 567)",2,mbtiauth_4668
2745,"(738, 193, 77)",2,mbtiauth_4668
2746,"(738, 193, 567)",2,mbtiauth_4668
2747,"(749, 123, 64)",2,mbtiauth_4668
2748,"(749, 123, 120)",2,mbtiauth_4668
2749,"(764, 64, 77)",2,mbtiauth_4668
2750,"(768, 170, 64)",2,mbtiauth_4668
2751,"(768, 170, 276)",2,mbtiauth_4668
2752,"(768, 170, 291)",2,mbtiauth_4668
2753,"(768, 291, 276)",2,mbtiauth_4668
2754,"(789, 193, 31)",2,mbtiauth_4668
2755,"(815, 32, 22)",2,mbtiauth_4668
2756,"(848, 65, 170)",2,mbtiauth_4668
2757,"(1030, 32, 50)",2,mbtiauth_4668
2758,"(1030, 65, 32)",2,mbtiauth_4668
2759,"(1030, 65, 33)",2,mbtiauth_4668
2760,"(1030, 65, 50)",2,mbtiauth_4668
2761,"(1193, 22, 15)",2,mbtiauth_4668
2762,"(1193, 22, 32)",2,mbtiauth_4668
2763,"(1217, 64, 77)",2,mbtiauth_4668
2764,"(1217, 64, 123)",2,mbtiauth_4668
2765,"(1217, 77, 123)",2,mbtiauth_4668
2766,"(1219, 32, 441)",2,mbtiauth_4668
2767,"(1220, 22, 301)",2,mbtiauth_4668
2768,"(1220, 77, 22)",2,mbtiauth_4668
2769,"(1220, 77, 123)",3,mbtiauth_4668
2770,"(1220, 123, 22)",2,mbtiauth_4668
2771,"(1263, 77, 151)",2,mbtiauth_4668
2772,"(1313, 64, 77)",2,mbtiauth_4668
2773,"(1313, 64, 144)",2,mbtiauth_4668
2774,"(1313, 144, 77)",2,mbtiauth_4668
2775,"(1587, 749, 123)",2,mbtiauth_4668
2776,"(1779, 64, 27)",2,mbtiauth_4668
2777,"(1779, 64, 123)",2,mbtiauth_4668
2778,"(1779, 64, 144)",2,mbtiauth_4668
2779,"(1779, 64, 322)",2,mbtiauth_4668
2780,"(1779, 123, 144)",2,mbtiauth_4668
2781,"(1779, 322, 27)",2,mbtiauth_4668
2782,"(1808, 64, 77)",2,mbtiauth_4668
2783,"(2643, 41, 77)",2,mbtiauth_4668
2784,"(3389, 2, 222)",2,mbtiauth_4668
2785,"(3389, 2, 3390)",2,mbtiauth_4668
2786,"(3389, 77, 2)",2,mbtiauth_4668
2787,"(3389, 77, 222)",2,mbtiauth_4668
2788,"(3389, 77, 3390)",2,mbtiauth_4668
2789,"(3389, 3390, 222)",2,mbtiauth_4668
2790,"(6100, 11737, 12348)",2,mbtiauth_4668
2791,"(6291, 32, 349)",2,mbtiauth_4668
2792,"(9869, 64, 64)",2,mbtiauth_4668
2793,"(14203, 77, 22)",2,mbtiauth_4668
2794,"(24219, 6100, 11737)",2,mbtiauth_4668
2795,"(24219, 6100, 12348)",2,mbtiauth_4668
2796,"(24219, 11737, 12348)",2,mbtiauth_4668
2797,"(2, 31, 77, 22)",2,mbtiauth_4668
2798,"(2, 32, 64, 77)",2,mbtiauth_4668
2799,"(2, 77, 123, 64)",2,mbtiauth_4668
2800,"(2, 77, 123, 441)",2,mbtiauth_4668
2801,"(2, 77, 441, 64)",3,mbtiauth_4668
2802,"(2, 123, 31, 22)",2,mbtiauth_4668
2803,"(2, 123, 193, 31)",2,mbtiauth_4668
2804,"(2, 123, 441, 64)",2,mbtiauth_4668
2805,"(2, 123, 789, 31)",2,mbtiauth_4668
2806,"(2, 123, 789, 193)",2,mbtiauth_4668
2807,"(2, 193, 31, 22)",2,mbtiauth_4668
2808,"(2, 276, 123, 441)",2,mbtiauth_4668
2809,"(2, 789, 193, 31)",2,mbtiauth_4668
2810,"(2, 2643, 41, 77)",2,mbtiauth_4668
2811,"(8, 6100, 11737, 12348)",2,mbtiauth_4668
2812,"(8, 24219, 6100, 11737)",2,mbtiauth_4668
2813,"(8, 24219, 6100, 12348)",2,mbtiauth_4668
2814,"(8, 24219, 11737, 12348)",2,mbtiauth_4668
2815,"(10, 66, 6246, 77)",2,mbtiauth_4668
2816,"(10, 77, 65, 77)",2,mbtiauth_4668
2817,"(22, 22, 22, 22)",2,mbtiauth_4668
2818,"(22, 22, 398, 443)",2,mbtiauth_4668
2819,"(22, 32, 22, 22)",2,mbtiauth_4668
2820,"(22, 32, 22, 170)",2,mbtiauth_4668
2821,"(22, 32, 77, 77)",2,mbtiauth_4668
2822,"(22, 64, 77, 2)",2,mbtiauth_4668
2823,"(22, 76, 123, 77)",2,mbtiauth_4668
2824,"(22, 77, 2, 123)",2,mbtiauth_4668
2825,"(22, 77, 2, 196)",2,mbtiauth_4668
2826,"(22, 77, 22, 2)",2,mbtiauth_4668
2827,"(22, 77, 77, 77)",2,mbtiauth_4668
2828,"(22, 77, 77, 441)",2,mbtiauth_4668
2829,"(22, 77, 443, 443)",2,mbtiauth_4668
2830,"(22, 123, 77, 212)",2,mbtiauth_4668
2831,"(22, 123, 144, 520)",2,mbtiauth_4668
2832,"(22, 170, 77, 443)",2,mbtiauth_4668
2833,"(22, 291, 443, 443)",2,mbtiauth_4668
2834,"(22, 398, 443, 443)",2,mbtiauth_4668
2835,"(22, 443, 22, 398)",2,mbtiauth_4668
2836,"(22, 443, 22, 443)",2,mbtiauth_4668
2837,"(22, 443, 77, 443)",2,mbtiauth_4668
2838,"(22, 443, 340, 443)",2,mbtiauth_4668
2839,"(22, 443, 398, 443)",2,mbtiauth_4668
2840,"(22, 443, 443, 443)",2,mbtiauth_4668
2841,"(22, 1587, 749, 123)",2,mbtiauth_4668
2842,"(27, 170, 77, 443)",2,mbtiauth_4668
2843,"(32, 22, 22, 22)",2,mbtiauth_4668
2844,"(32, 64, 77, 123)",2,mbtiauth_4668
2845,"(32, 64, 77, 280)",2,mbtiauth_4668
2846,"(32, 64, 77, 356)",2,mbtiauth_4668
2847,"(32, 64, 123, 280)",2,mbtiauth_4668
2848,"(32, 77, 10, 65)",2,mbtiauth_4668
2849,"(32, 77, 77, 123)",2,mbtiauth_4668
2850,"(32, 77, 123, 65)",2,mbtiauth_4668
2851,"(32, 77, 123, 280)",2,mbtiauth_4668
2852,"(32, 213, 77, 151)",2,mbtiauth_4668
2853,"(33, 262, 171, 77)",2,mbtiauth_4668
2854,"(33, 262, 220, 77)",2,mbtiauth_4668
2855,"(41, 22, 76, 123)",2,mbtiauth_4668
2856,"(41, 77, 22, 198)",2,mbtiauth_4668
2857,"(41, 153, 77, 123)",2,mbtiauth_4668
2858,"(50, 32, 64, 291)",2,mbtiauth_4668
2859,"(64, 22, 77, 2)",2,mbtiauth_4668
2860,"(64, 22, 749, 123)",2,mbtiauth_4668
2861,"(64, 22, 1587, 123)",2,mbtiauth_4668
2862,"(64, 22, 1587, 749)",2,mbtiauth_4668
2863,"(64, 33, 171, 77)",2,mbtiauth_4668
2864,"(64, 64, 77, 2)",2,mbtiauth_4668
2865,"(64, 64, 349, 183)",2,mbtiauth_4668
2866,"(64, 65, 32, 50)",2,mbtiauth_4668
2867,"(64, 65, 64, 10)",2,mbtiauth_4668
2868,"(64, 67, 2, 183)",2,mbtiauth_4668
2869,"(64, 67, 64, 10)",2,mbtiauth_4668
2870,"(64, 67, 64, 77)",2,mbtiauth_4668
2871,"(64, 67, 64, 183)",2,mbtiauth_4668
2872,"(64, 67, 65, 10)",2,mbtiauth_4668
2873,"(64, 67, 65, 64)",2,mbtiauth_4668
2874,"(64, 67, 77, 10)",2,mbtiauth_4668
2875,"(64, 67, 77, 183)",2,mbtiauth_4668
2876,"(64, 67, 77, 356)",2,mbtiauth_4668
2877,"(64, 67, 183, 77)",2,mbtiauth_4668
2878,"(64, 77, 2, 193)",2,mbtiauth_4668
2879,"(64, 77, 2, 222)",2,mbtiauth_4668
2880,"(64, 77, 32, 22)",2,mbtiauth_4668
2881,"(64, 77, 77, 77)",2,mbtiauth_4668
2882,"(64, 77, 123, 65)",2,mbtiauth_4668
2883,"(64, 77, 123, 144)",2,mbtiauth_4668
2884,"(64, 77, 123, 280)",2,mbtiauth_4668
2885,"(64, 77, 144, 22)",2,mbtiauth_4668
2886,"(64, 77, 144, 123)",2,mbtiauth_4668
2887,"(64, 77, 280, 65)",2,mbtiauth_4668
2888,"(64, 77, 443, 64)",2,mbtiauth_4668
2889,"(64, 77, 1610, 158)",2,mbtiauth_4668
2890,"(64, 123, 77, 2)",2,mbtiauth_4668
2891,"(64, 123, 78, 2)",2,mbtiauth_4668
2892,"(64, 123, 144, 520)",2,mbtiauth_4668
2893,"(64, 144, 27, 123)",2,mbtiauth_4668
2894,"(64, 144, 123, 144)",2,mbtiauth_4668
2895,"(64, 213, 77, 151)",2,mbtiauth_4668
2896,"(64, 246, 77, 2)",2,mbtiauth_4668
2897,"(64, 285, 32, 50)",2,mbtiauth_4668
2898,"(64, 285, 65, 32)",2,mbtiauth_4668
2899,"(64, 285, 65, 50)",2,mbtiauth_4668
2900,"(64, 749, 123, 64)",2,mbtiauth_4668
2901,"(64, 749, 123, 120)",2,mbtiauth_4668
2902,"(64, 1587, 749, 123)",2,mbtiauth_4668
2903,"(64, 9869, 64, 64)",2,mbtiauth_4668
2904,"(65, 32, 134, 77)",2,mbtiauth_4668
2905,"(65, 170, 291, 276)",2,mbtiauth_4668
2906,"(65, 663, 77, 65)",2,mbtiauth_4668
2907,"(65, 663, 77, 123)",2,mbtiauth_4668
2908,"(65, 663, 164, 77)",2,mbtiauth_4668
2909,"(65, 1219, 32, 441)",2,mbtiauth_4668
2910,"(66, 77, 65, 77)",2,mbtiauth_4668
2911,"(66, 441, 65, 77)",2,mbtiauth_4668
2912,"(66, 441, 77, 65)",2,mbtiauth_4668
2913,"(66, 441, 77, 77)",2,mbtiauth_4668
2914,"(67, 65, 64, 10)",2,mbtiauth_4668
2915,"(77, 2, 2, 123)",2,mbtiauth_4668
2916,"(77, 2, 77, 64)",2,mbtiauth_4668
2917,"(77, 2, 77, 441)",3,mbtiauth_4668
2918,"(77, 2, 123, 31)",2,mbtiauth_4668
2919,"(77, 2, 123, 123)",2,mbtiauth_4668
2920,"(77, 2, 123, 193)",2,mbtiauth_4668
2921,"(77, 2, 123, 441)",2,mbtiauth_4668
2922,"(77, 2, 123, 789)",2,mbtiauth_4668
2923,"(77, 2, 158, 162)",2,mbtiauth_4668
2924,"(77, 2, 193, 31)",2,mbtiauth_4668
2925,"(77, 2, 441, 64)",2,mbtiauth_4668
2926,"(77, 2, 441, 193)",2,mbtiauth_4668
2927,"(77, 2, 789, 31)",2,mbtiauth_4668
2928,"(77, 2, 789, 193)",2,mbtiauth_4668
2929,"(77, 2, 2643, 64)",2,mbtiauth_4668
2930,"(77, 2, 3390, 222)",2,mbtiauth_4668
2931,"(77, 10, 66, 77)",2,mbtiauth_4668
2932,"(77, 10, 66, 6246)",2,mbtiauth_4668
2933,"(77, 10, 77, 170)",2,mbtiauth_4668
2934,"(77, 10, 77, 193)",2,mbtiauth_4668
2935,"(77, 10, 6246, 77)",2,mbtiauth_4668
2936,"(77, 16, 134, 77)",2,mbtiauth_4668
2937,"(77, 16, 134, 254)",2,mbtiauth_4668
2938,"(77, 22, 22, 22)",2,mbtiauth_4668
2939,"(77, 22, 22, 27)",2,mbtiauth_4668
2940,"(77, 22, 22, 170)",2,mbtiauth_4668
2941,"(77, 22, 32, 22)",2,mbtiauth_4668
2942,"(77, 22, 77, 77)",2,mbtiauth_4668
2943,"(77, 22, 117, 22)",2,mbtiauth_4668
2944,"(77, 22, 123, 144)",2,mbtiauth_4668
2945,"(77, 22, 198, 32)",2,mbtiauth_4668
2946,"(77, 22, 213, 77)",2,mbtiauth_4668
2947,"(77, 32, 22, 22)",2,mbtiauth_4668
2948,"(77, 32, 64, 77)",2,mbtiauth_4668
2949,"(77, 32, 77, 151)",2,mbtiauth_4668
2950,"(77, 32, 213, 77)",2,mbtiauth_4668
2951,"(77, 32, 213, 151)",2,mbtiauth_4668
2952,"(77, 33, 32, 547)",2,mbtiauth_4668
2953,"(77, 64, 65, 64)",2,mbtiauth_4668
2954,"(77, 64, 77, 65)",2,mbtiauth_4668
2955,"(77, 64, 171, 77)",2,mbtiauth_4668
2956,"(77, 64, 213, 77)",2,mbtiauth_4668
2957,"(77, 64, 1214, 65)",2,mbtiauth_4668
2958,"(77, 65, 6291, 32)",2,mbtiauth_4668
2959,"(77, 66, 6246, 77)",2,mbtiauth_4668
2960,"(77, 67, 77, 443)",2,mbtiauth_4668
2961,"(77, 77, 2, 123)",3,mbtiauth_4668
2962,"(77, 77, 2, 441)",2,mbtiauth_4668
2963,"(77, 77, 77, 154)",2,mbtiauth_4668
2964,"(77, 77, 77, 441)",2,mbtiauth_4668
2965,"(77, 77, 77, 1655)",2,mbtiauth_4668
2966,"(77, 77, 123, 65)",3,mbtiauth_4668
2967,"(77, 77, 123, 274)",2,mbtiauth_4668
2968,"(77, 77, 123, 441)",3,mbtiauth_4668
2969,"(77, 77, 123, 789)",3,mbtiauth_4668
2970,"(77, 77, 154, 222)",2,mbtiauth_4668
2971,"(77, 77, 154, 441)",2,mbtiauth_4668
2972,"(77, 77, 213, 77)",2,mbtiauth_4668
2973,"(77, 77, 222, 123)",2,mbtiauth_4668
2974,"(77, 77, 276, 123)",2,mbtiauth_4668
2975,"(77, 77, 276, 274)",2,mbtiauth_4668
2976,"(77, 77, 276, 441)",2,mbtiauth_4668
2977,"(77, 77, 441, 274)",2,mbtiauth_4668
2978,"(77, 117, 123, 441)",2,mbtiauth_4668
2979,"(77, 123, 2, 123)",2,mbtiauth_4668
2980,"(77, 123, 22, 22)",2,mbtiauth_4668
2981,"(77, 123, 22, 9690)",2,mbtiauth_4668
2982,"(77, 123, 32, 50)",2,mbtiauth_4668
2983,"(77, 123, 64, 22)",3,mbtiauth_4668
2984,"(77, 123, 64, 64)",2,mbtiauth_4668
2985,"(77, 123, 64, 66)",2,mbtiauth_4668
2986,"(77, 123, 65, 32)",2,mbtiauth_4668
2987,"(77, 123, 77, 77)",2,mbtiauth_4668
2988,"(77, 123, 77, 123)",2,mbtiauth_4668
2989,"(77, 123, 120, 64)",2,mbtiauth_4668
2990,"(77, 123, 123, 160)",2,mbtiauth_4668
2991,"(77, 123, 144, 123)",2,mbtiauth_4668
2992,"(77, 123, 144, 160)",2,mbtiauth_4668
2993,"(77, 123, 144, 278)",2,mbtiauth_4668
2994,"(77, 123, 193, 31)",2,mbtiauth_4668
2995,"(77, 123, 220, 144)",2,mbtiauth_4668
2996,"(77, 123, 220, 278)",2,mbtiauth_4668
2997,"(77, 123, 441, 22)",3,mbtiauth_4668
2998,"(77, 123, 441, 64)",4,mbtiauth_4668
2999,"(77, 123, 441, 65)",2,mbtiauth_4668
3000,"(77, 123, 441, 77)",2,mbtiauth_4668
3001,"(77, 123, 441, 123)",2,mbtiauth_4668
3002,"(77, 123, 441, 274)",2,mbtiauth_4668
3003,"(77, 123, 441, 1655)",2,mbtiauth_4668
3004,"(77, 123, 773, 64)",2,mbtiauth_4668
3005,"(77, 123, 789, 31)",2,mbtiauth_4668
3006,"(77, 123, 789, 193)",2,mbtiauth_4668
3007,"(77, 144, 123, 22)",2,mbtiauth_4668
3008,"(77, 144, 123, 160)",2,mbtiauth_4668
3009,"(77, 154, 441, 22)",2,mbtiauth_4668
3010,"(77, 162, 123, 174)",2,mbtiauth_4668
3011,"(77, 167, 651, 33)",2,mbtiauth_4668
3012,"(77, 193, 206, 64)",2,mbtiauth_4668
3013,"(77, 213, 77, 151)",2,mbtiauth_4668
3014,"(77, 220, 144, 278)",2,mbtiauth_4668
3015,"(77, 222, 123, 789)",2,mbtiauth_4668
3016,"(77, 254, 349, 77)",2,mbtiauth_4668
3017,"(77, 276, 123, 274)",2,mbtiauth_4668
3018,"(77, 276, 123, 441)",2,mbtiauth_4668
3019,"(77, 276, 123, 1655)",2,mbtiauth_4668
3020,"(77, 276, 441, 274)",2,mbtiauth_4668
3021,"(77, 276, 441, 1655)",2,mbtiauth_4668
3022,"(77, 278, 82, 123)",2,mbtiauth_4668
3023,"(77, 285, 82, 123)",2,mbtiauth_4668
3024,"(77, 285, 278, 82)",2,mbtiauth_4668
3025,"(77, 285, 278, 123)",2,mbtiauth_4668
3026,"(77, 441, 64, 22)",3,mbtiauth_4668
3027,"(77, 441, 64, 64)",2,mbtiauth_4668
3028,"(77, 443, 64, 22)",2,mbtiauth_4668
3029,"(77, 613, 187, 154)",2,mbtiauth_4668
3030,"(77, 789, 193, 31)",2,mbtiauth_4668
3031,"(117, 123, 441, 64)",2,mbtiauth_4668
3032,"(123, 2, 77, 441)",3,mbtiauth_4668
3033,"(123, 2, 3390, 222)",2,mbtiauth_4668
3034,"(123, 3, 65, 32)",2,mbtiauth_4668
3035,"(123, 22, 22, 76)",2,mbtiauth_4668
3036,"(123, 22, 32, 22)",2,mbtiauth_4668
3037,"(123, 22, 77, 2)",3,mbtiauth_4668
3038,"(123, 22, 77, 77)",2,mbtiauth_4668
3039,"(123, 32, 77, 77)",2,mbtiauth_4668
3040,"(123, 32, 77, 162)",2,mbtiauth_4668
3041,"(123, 64, 64, 22)",2,mbtiauth_4668
3042,"(123, 64, 64, 77)",2,mbtiauth_4668
3043,"(123, 64, 64, 123)",2,mbtiauth_4668
3044,"(123, 64, 77, 2)",3,mbtiauth_4668
3045,"(123, 64, 77, 77)",2,mbtiauth_4668
3046,"(123, 64, 77, 123)",2,mbtiauth_4668
3047,"(123, 64, 77, 183)",2,mbtiauth_4668
3048,"(123, 64, 78, 2)",2,mbtiauth_4668
3049,"(123, 64, 123, 144)",2,mbtiauth_4668
3050,"(123, 64, 246, 2)",2,mbtiauth_4668
3051,"(123, 64, 246, 77)",2,mbtiauth_4668
3052,"(123, 65, 32, 10)",2,mbtiauth_4668
3053,"(123, 65, 32, 50)",4,mbtiauth_4668
3054,"(123, 65, 32, 236)",2,mbtiauth_4668
3055,"(123, 65, 32, 441)",2,mbtiauth_4668
3056,"(123, 65, 164, 77)",2,mbtiauth_4668
3057,"(123, 65, 356, 65)",2,mbtiauth_4668
3058,"(123, 65, 663, 77)",2,mbtiauth_4668
3059,"(123, 65, 663, 164)",2,mbtiauth_4668
3060,"(123, 65, 1219, 32)",2,mbtiauth_4668
3061,"(123, 65, 1219, 441)",2,mbtiauth_4668
3062,"(123, 77, 2, 77)",3,mbtiauth_4668
3063,"(123, 77, 2, 123)",2,mbtiauth_4668
3064,"(123, 77, 2, 162)",2,mbtiauth_4668
3065,"(123, 77, 2, 167)",2,mbtiauth_4668
3066,"(123, 77, 2, 193)",2,mbtiauth_4668
3067,"(123, 77, 2, 196)",2,mbtiauth_4668
3068,"(123, 77, 2, 222)",2,mbtiauth_4668
3069,"(123, 77, 2, 441)",3,mbtiauth_4668
3070,"(123, 77, 2, 3390)",2,mbtiauth_4668
3071,"(123, 77, 33, 123)",2,mbtiauth_4668
3072,"(123, 77, 77, 123)",3,mbtiauth_4668
3073,"(123, 77, 77, 162)",2,mbtiauth_4668
3074,"(123, 77, 77, 441)",3,mbtiauth_4668
3075,"(123, 77, 123, 160)",2,mbtiauth_4668
3076,"(123, 77, 123, 441)",2,mbtiauth_4668
3077,"(123, 77, 144, 123)",2,mbtiauth_4668
3078,"(123, 77, 144, 160)",2,mbtiauth_4668
3079,"(123, 77, 154, 222)",2,mbtiauth_4668
3080,"(123, 77, 193, 170)",2,mbtiauth_4668
3081,"(123, 77, 222, 123)",2,mbtiauth_4668
3082,"(123, 77, 278, 123)",2,mbtiauth_4668
3083,"(123, 77, 285, 123)",2,mbtiauth_4668
3084,"(123, 77, 3390, 222)",2,mbtiauth_4668
3085,"(123, 117, 77, 2)",2,mbtiauth_4668
3086,"(123, 120, 356, 32)",2,mbtiauth_4668
3087,"(123, 144, 27, 123)",2,mbtiauth_4668
3088,"(123, 144, 77, 78)",2,mbtiauth_4668
3089,"(123, 144, 123, 160)",2,mbtiauth_4668
3090,"(123, 152, 123, 765)",2,mbtiauth_4668
3091,"(123, 162, 123, 174)",2,mbtiauth_4668
3092,"(123, 174, 32, 50)",2,mbtiauth_4668
3093,"(123, 174, 64, 32)",2,mbtiauth_4668
3094,"(123, 174, 65, 32)",2,mbtiauth_4668
3095,"(123, 174, 65, 50)",2,mbtiauth_4668
3096,"(123, 187, 77, 123)",3,mbtiauth_4668
3097,"(123, 187, 77, 144)",2,mbtiauth_4668
3098,"(123, 187, 77, 160)",2,mbtiauth_4668
3099,"(123, 187, 123, 160)",2,mbtiauth_4668
3100,"(123, 187, 144, 123)",2,mbtiauth_4668
3101,"(123, 187, 144, 160)",2,mbtiauth_4668
3102,"(123, 193, 77, 123)",2,mbtiauth_4668
3103,"(123, 220, 144, 278)",2,mbtiauth_4668
3104,"(123, 246, 77, 2)",2,mbtiauth_4668
3105,"(123, 286, 22, 15)",2,mbtiauth_4668
3106,"(123, 286, 22, 22)",2,mbtiauth_4668
3107,"(123, 286, 22, 32)",2,mbtiauth_4668
3108,"(123, 286, 32, 22)",2,mbtiauth_4668
3109,"(123, 286, 193, 33)",2,mbtiauth_4668
3110,"(123, 286, 1193, 15)",2,mbtiauth_4668
3111,"(123, 286, 1193, 22)",2,mbtiauth_4668
3112,"(123, 407, 2, 77)",2,mbtiauth_4668
3113,"(123, 407, 2, 441)",2,mbtiauth_4668
3114,"(123, 407, 3, 32)",2,mbtiauth_4668
3115,"(123, 407, 3, 65)",2,mbtiauth_4668
3116,"(123, 407, 3, 201)",2,mbtiauth_4668
3117,"(123, 407, 32, 441)",2,mbtiauth_4668
3118,"(123, 407, 65, 32)",3,mbtiauth_4668
3119,"(123, 407, 65, 441)",2,mbtiauth_4668
3120,"(123, 407, 65, 1219)",2,mbtiauth_4668
3121,"(123, 407, 77, 2)",2,mbtiauth_4668
3122,"(123, 407, 77, 77)",2,mbtiauth_4668
3123,"(123, 407, 77, 441)",2,mbtiauth_4668
3124,"(123, 407, 1219, 32)",2,mbtiauth_4668
3125,"(123, 407, 1219, 441)",2,mbtiauth_4668
3126,"(123, 441, 64, 22)",2,mbtiauth_4668
3127,"(123, 441, 64, 64)",2,mbtiauth_4668
3128,"(123, 441, 64, 65)",2,mbtiauth_4668
3129,"(123, 441, 64, 123)",2,mbtiauth_4668
3130,"(123, 441, 64, 164)",2,mbtiauth_4668
3131,"(123, 441, 65, 64)",2,mbtiauth_4668
3132,"(123, 441, 65, 65)",2,mbtiauth_4668
3133,"(123, 441, 65, 77)",3,mbtiauth_4668
3134,"(123, 441, 65, 123)",2,mbtiauth_4668
3135,"(123, 441, 65, 164)",2,mbtiauth_4668
3136,"(123, 441, 65, 663)",3,mbtiauth_4668
3137,"(123, 441, 77, 65)",2,mbtiauth_4668
3138,"(123, 441, 164, 77)",2,mbtiauth_4668
3139,"(123, 441, 164, 543)",2,mbtiauth_4668
3140,"(123, 441, 663, 77)",2,mbtiauth_4668
3141,"(123, 441, 663, 164)",2,mbtiauth_4668
3142,"(123, 613, 77, 123)",2,mbtiauth_4668
3143,"(123, 613, 77, 144)",2,mbtiauth_4668
3144,"(123, 613, 77, 160)",2,mbtiauth_4668
3145,"(123, 613, 123, 160)",2,mbtiauth_4668
3146,"(123, 613, 144, 123)",2,mbtiauth_4668
3147,"(123, 613, 144, 160)",2,mbtiauth_4668
3148,"(123, 613, 187, 77)",2,mbtiauth_4668
3149,"(123, 613, 187, 123)",2,mbtiauth_4668
3150,"(123, 613, 187, 144)",2,mbtiauth_4668
3151,"(123, 613, 187, 160)",2,mbtiauth_4668
3152,"(123, 663, 164, 77)",2,mbtiauth_4668
3153,"(123, 694, 41, 77)",2,mbtiauth_4668
3154,"(123, 789, 193, 31)",2,mbtiauth_4668
3155,"(123, 1030, 32, 50)",2,mbtiauth_4668
3156,"(123, 1030, 65, 32)",2,mbtiauth_4668
3157,"(123, 1030, 65, 50)",2,mbtiauth_4668
3158,"(123, 1193, 22, 15)",2,mbtiauth_4668
3159,"(123, 1217, 64, 77)",2,mbtiauth_4668
3160,"(123, 1217, 64, 123)",2,mbtiauth_4668
3161,"(123, 1217, 77, 123)",2,mbtiauth_4668
3162,"(123, 1219, 32, 441)",2,mbtiauth_4668
3163,"(123, 3389, 2, 222)",2,mbtiauth_4668
3164,"(123, 3389, 2, 3390)",2,mbtiauth_4668
3165,"(123, 3389, 77, 2)",2,mbtiauth_4668
3166,"(123, 3389, 77, 222)",2,mbtiauth_4668
3167,"(123, 3389, 77, 3390)",2,mbtiauth_4668
3168,"(123, 3389, 3390, 222)",2,mbtiauth_4668
3169,"(144, 41, 268, 22)",2,mbtiauth_4668
3170,"(154, 123, 77, 123)",2,mbtiauth_4668
3171,"(154, 123, 819, 219)",2,mbtiauth_4668
3172,"(154, 144, 123, 160)",2,mbtiauth_4668
3173,"(162, 2, 2643, 41)",2,mbtiauth_4668
3174,"(162, 64, 77, 77)",2,mbtiauth_4668
3175,"(162, 123, 174, 32)",2,mbtiauth_4668
3176,"(170, 77, 123, 22)",2,mbtiauth_4668
3177,"(171, 32, 1263, 22)",2,mbtiauth_4668
3178,"(174, 65, 32, 50)",2,mbtiauth_4668
3179,"(187, 77, 123, 144)",2,mbtiauth_4668
3180,"(187, 77, 123, 160)",2,mbtiauth_4668
3181,"(187, 77, 123, 220)",2,mbtiauth_4668
3182,"(187, 77, 123, 278)",2,mbtiauth_4668
3183,"(187, 77, 144, 123)",2,mbtiauth_4668
3184,"(187, 77, 144, 160)",2,mbtiauth_4668
3185,"(187, 77, 144, 278)",2,mbtiauth_4668
3186,"(187, 77, 220, 144)",2,mbtiauth_4668
3187,"(187, 77, 220, 278)",2,mbtiauth_4668
3188,"(187, 123, 144, 278)",2,mbtiauth_4668
3189,"(187, 123, 220, 144)",2,mbtiauth_4668
3190,"(187, 123, 220, 278)",2,mbtiauth_4668
3191,"(187, 144, 123, 160)",2,mbtiauth_4668
3192,"(187, 220, 144, 278)",2,mbtiauth_4668
3193,"(193, 32, 11556, 77)",2,mbtiauth_4668
3194,"(193, 77, 443, 77)",2,mbtiauth_4668
3195,"(246, 77, 123, 220)",2,mbtiauth_4668
3196,"(262, 22, 749, 123)",2,mbtiauth_4668
3197,"(262, 22, 1587, 123)",2,mbtiauth_4668
3198,"(262, 22, 1587, 749)",2,mbtiauth_4668
3199,"(262, 64, 22, 123)",2,mbtiauth_4668
3200,"(262, 64, 22, 749)",2,mbtiauth_4668
3201,"(262, 64, 22, 1587)",2,mbtiauth_4668
3202,"(262, 64, 749, 123)",2,mbtiauth_4668
3203,"(262, 64, 1587, 123)",2,mbtiauth_4668
3204,"(262, 64, 1587, 749)",2,mbtiauth_4668
3205,"(262, 1587, 749, 123)",2,mbtiauth_4668
3206,"(276, 2, 123, 193)",2,mbtiauth_4668
3207,"(276, 2, 123, 789)",2,mbtiauth_4668
3208,"(276, 2, 789, 193)",2,mbtiauth_4668
3209,"(276, 64, 1214, 65)",2,mbtiauth_4668
3210,"(276, 77, 64, 65)",2,mbtiauth_4668
3211,"(276, 77, 64, 1214)",2,mbtiauth_4668
3212,"(276, 77, 123, 65)",2,mbtiauth_4668
3213,"(276, 77, 1214, 65)",2,mbtiauth_4668
3214,"(276, 123, 441, 22)",2,mbtiauth_4668
3215,"(276, 123, 441, 65)",2,mbtiauth_4668
3216,"(276, 123, 441, 274)",2,mbtiauth_4668
3217,"(276, 123, 441, 1655)",2,mbtiauth_4668
3218,"(276, 123, 789, 193)",2,mbtiauth_4668
3219,"(285, 65, 32, 50)",2,mbtiauth_4668
3220,"(285, 278, 82, 123)",2,mbtiauth_4668
3221,"(286, 22, 32, 22)",2,mbtiauth_4668
3222,"(286, 1193, 22, 15)",2,mbtiauth_4668
3223,"(291, 77, 64, 1214)",2,mbtiauth_4668
3224,"(291, 276, 64, 1214)",2,mbtiauth_4668
3225,"(291, 276, 77, 64)",2,mbtiauth_4668
3226,"(291, 276, 77, 123)",2,mbtiauth_4668
3227,"(291, 276, 77, 1214)",2,mbtiauth_4668
3228,"(322, 77, 27, 123)",2,mbtiauth_4668
3229,"(322, 123, 65, 164)",2,mbtiauth_4668
3230,"(349, 77, 123, 123)",2,mbtiauth_4668
3231,"(356, 77, 77, 154)",2,mbtiauth_4668
3232,"(364, 64, 123, 144)",2,mbtiauth_4668
3233,"(364, 1779, 64, 123)",2,mbtiauth_4668
3234,"(364, 1779, 64, 144)",2,mbtiauth_4668
3235,"(364, 1779, 123, 144)",2,mbtiauth_4668
3236,"(407, 2, 77, 441)",2,mbtiauth_4668
3237,"(407, 3, 65, 32)",2,mbtiauth_4668
3238,"(407, 65, 32, 441)",2,mbtiauth_4668
3239,"(407, 65, 1219, 32)",2,mbtiauth_4668
3240,"(407, 65, 1219, 441)",2,mbtiauth_4668
3241,"(407, 77, 2, 77)",2,mbtiauth_4668
3242,"(407, 77, 2, 441)",2,mbtiauth_4668
3243,"(407, 77, 77, 441)",2,mbtiauth_4668
3244,"(407, 1219, 32, 441)",2,mbtiauth_4668
3245,"(441, 22, 123, 64)",2,mbtiauth_4668
3246,"(441, 64, 64, 64)",2,mbtiauth_4668
3247,"(441, 64, 65, 64)",2,mbtiauth_4668
3248,"(441, 64, 67, 2)",2,mbtiauth_4668
3249,"(441, 64, 67, 64)",2,mbtiauth_4668
3250,"(441, 64, 67, 65)",2,mbtiauth_4668
3251,"(441, 64, 123, 64)",2,mbtiauth_4668
3252,"(441, 64, 9869, 64)",2,mbtiauth_4668
3253,"(441, 65, 164, 77)",2,mbtiauth_4668
3254,"(441, 65, 663, 77)",2,mbtiauth_4668
3255,"(441, 65, 663, 164)",2,mbtiauth_4668
3256,"(441, 77, 65, 77)",2,mbtiauth_4668
3257,"(441, 663, 164, 77)",2,mbtiauth_4668
3258,"(441, 9869, 64, 64)",2,mbtiauth_4668
3259,"(443, 2, 77, 443)",2,mbtiauth_4668
3260,"(443, 22, 398, 443)",2,mbtiauth_4668
3261,"(443, 22, 443, 443)",2,mbtiauth_4668
3262,"(443, 77, 443, 443)",2,mbtiauth_4668
3263,"(443, 398, 443, 443)",2,mbtiauth_4668
3264,"(507, 77, 64, 22)",2,mbtiauth_4668
3265,"(547, 77, 123, 441)",2,mbtiauth_4668
3266,"(547, 123, 64, 64)",2,mbtiauth_4668
3267,"(547, 123, 77, 77)",2,mbtiauth_4668
3268,"(599, 77, 33, 77)",2,mbtiauth_4668
3269,"(613, 77, 123, 160)",2,mbtiauth_4668
3270,"(613, 77, 144, 123)",2,mbtiauth_4668
3271,"(613, 77, 144, 160)",2,mbtiauth_4668
3272,"(613, 144, 123, 160)",2,mbtiauth_4668
3273,"(613, 187, 77, 123)",2,mbtiauth_4668
3274,"(613, 187, 77, 144)",2,mbtiauth_4668
3275,"(613, 187, 77, 160)",2,mbtiauth_4668
3276,"(613, 187, 123, 160)",2,mbtiauth_4668
3277,"(613, 187, 144, 123)",2,mbtiauth_4668
3278,"(613, 187, 144, 160)",2,mbtiauth_4668
3279,"(642, 77, 64, 22)",2,mbtiauth_4668
3280,"(642, 123, 3, 201)",2,mbtiauth_4668
3281,"(642, 123, 407, 3)",2,mbtiauth_4668
3282,"(642, 123, 407, 201)",2,mbtiauth_4668
3283,"(642, 407, 3, 201)",2,mbtiauth_4668
3284,"(642, 507, 64, 22)",2,mbtiauth_4668
3285,"(642, 507, 77, 22)",2,mbtiauth_4668
3286,"(642, 507, 77, 64)",2,mbtiauth_4668
3287,"(642, 507, 77, 123)",2,mbtiauth_4668
3288,"(768, 170, 291, 276)",2,mbtiauth_4668
3289,"(1030, 65, 32, 50)",2,mbtiauth_4668
3290,"(1217, 64, 77, 123)",2,mbtiauth_4668
3291,"(1220, 77, 123, 22)",2,mbtiauth_4668
3292,"(1313, 64, 144, 77)",2,mbtiauth_4668
3293,"(1779, 64, 123, 144)",2,mbtiauth_4668
3294,"(1779, 64, 322, 27)",2,mbtiauth_4668
3295,"(3389, 2, 3390, 222)",2,mbtiauth_4668
3296,"(3389, 77, 2, 222)",2,mbtiauth_4668
3297,"(3389, 77, 2, 3390)",2,mbtiauth_4668
3298,"(3389, 77, 3390, 222)",2,mbtiauth_4668
3299,"(24219, 6100, 11737, 12348)",2,mbtiauth_4668
3300,"(2, 77, 123, 441, 64)",2,mbtiauth_4668
3301,"(2, 123, 789, 193, 31)",2,mbtiauth_4668
3302,"(8, 24219, 6100, 11737, 12348)",2,mbtiauth_4668
3303,"(22, 77, 77, 77, 441)",2,mbtiauth_4668
3304,"(22, 443, 22, 398, 443)",2,mbtiauth_4668
3305,"(22, 443, 77, 443, 443)",2,mbtiauth_4668
3306,"(32, 64, 77, 123, 280)",2,mbtiauth_4668
3307,"(64, 22, 1587, 749, 123)",2,mbtiauth_4668
3308,"(64, 67, 65, 64, 10)",2,mbtiauth_4668
3309,"(64, 285, 65, 32, 50)",2,mbtiauth_4668
3310,"(66, 441, 77, 65, 77)",2,mbtiauth_4668
3311,"(77, 2, 123, 193, 31)",2,mbtiauth_4668
3312,"(77, 2, 123, 789, 31)",2,mbtiauth_4668
3313,"(77, 2, 123, 789, 193)",2,mbtiauth_4668
3314,"(77, 2, 789, 193, 31)",2,mbtiauth_4668
3315,"(77, 10, 66, 6246, 77)",2,mbtiauth_4668
3316,"(77, 22, 32, 22, 22)",2,mbtiauth_4668
3317,"(77, 32, 213, 77, 151)",2,mbtiauth_4668
3318,"(77, 77, 2, 123, 441)",2,mbtiauth_4668
3319,"(77, 77, 123, 441, 274)",2,mbtiauth_4668
3320,"(77, 77, 276, 123, 274)",2,mbtiauth_4668
3321,"(77, 77, 276, 123, 441)",2,mbtiauth_4668
3322,"(77, 77, 276, 441, 274)",2,mbtiauth_4668
3323,"(77, 123, 144, 123, 160)",2,mbtiauth_4668
3324,"(77, 123, 220, 144, 278)",2,mbtiauth_4668
3325,"(77, 123, 441, 64, 22)",2,mbtiauth_4668
3326,"(77, 123, 441, 64, 64)",2,mbtiauth_4668
3327,"(77, 123, 789, 193, 31)",2,mbtiauth_4668
3328,"(77, 276, 123, 441, 274)",2,mbtiauth_4668
3329,"(77, 276, 123, 441, 1655)",2,mbtiauth_4668
3330,"(77, 285, 278, 82, 123)",2,mbtiauth_4668
3331,"(123, 64, 246, 77, 2)",2,mbtiauth_4668
3332,"(123, 65, 663, 164, 77)",2,mbtiauth_4668
3333,"(123, 65, 1219, 32, 441)",2,mbtiauth_4668
3334,"(123, 77, 2, 77, 441)",2,mbtiauth_4668
3335,"(123, 77, 2, 3390, 222)",2,mbtiauth_4668
3336,"(123, 77, 144, 123, 160)",2,mbtiauth_4668
3337,"(123, 174, 65, 32, 50)",2,mbtiauth_4668
3338,"(123, 187, 77, 123, 160)",2,mbtiauth_4668
3339,"(123, 187, 77, 144, 123)",2,mbtiauth_4668
3340,"(123, 187, 77, 144, 160)",2,mbtiauth_4668
3341,"(123, 187, 144, 123, 160)",2,mbtiauth_4668
3342,"(123, 286, 22, 32, 22)",2,mbtiauth_4668
3343,"(123, 286, 1193, 22, 15)",2,mbtiauth_4668
3344,"(123, 407, 2, 77, 441)",2,mbtiauth_4668
3345,"(123, 407, 3, 65, 32)",2,mbtiauth_4668
3346,"(123, 407, 65, 32, 441)",2,mbtiauth_4668
3347,"(123, 407, 65, 1219, 32)",2,mbtiauth_4668
3348,"(123, 407, 65, 1219, 441)",2,mbtiauth_4668
3349,"(123, 407, 77, 2, 77)",2,mbtiauth_4668
3350,"(123, 407, 77, 2, 441)",2,mbtiauth_4668
3351,"(123, 407, 77, 77, 441)",2,mbtiauth_4668
3352,"(123, 407, 1219, 32, 441)",2,mbtiauth_4668
3353,"(123, 441, 65, 164, 77)",2,mbtiauth_4668
3354,"(123, 441, 65, 663, 77)",2,mbtiauth_4668
3355,"(123, 441, 65, 663, 164)",2,mbtiauth_4668
3356,"(123, 441, 663, 164, 77)",2,mbtiauth_4668
3357,"(123, 613, 77, 123, 160)",2,mbtiauth_4668
3358,"(123, 613, 77, 144, 123)",2,mbtiauth_4668
3359,"(123, 613, 77, 144, 160)",2,mbtiauth_4668
3360,"(123, 613, 144, 123, 160)",2,mbtiauth_4668
3361,"(123, 613, 187, 77, 123)",2,mbtiauth_4668
3362,"(123, 613, 187, 77, 144)",2,mbtiauth_4668
3363,"(123, 613, 187, 77, 160)",2,mbtiauth_4668
3364,"(123, 613, 187, 123, 160)",2,mbtiauth_4668
3365,"(123, 613, 187, 144, 123)",2,mbtiauth_4668
3366,"(123, 613, 187, 144, 160)",2,mbtiauth_4668
3367,"(123, 1030, 65, 32, 50)",2,mbtiauth_4668
3368,"(123, 1217, 64, 77, 123)",2,mbtiauth_4668
3369,"(123, 3389, 2, 3390, 222)",2,mbtiauth_4668
3370,"(123, 3389, 77, 2, 222)",2,mbtiauth_4668
3371,"(123, 3389, 77, 2, 3390)",2,mbtiauth_4668
3372,"(123, 3389, 77, 3390, 222)",2,mbtiauth_4668
3373,"(187, 77, 123, 144, 278)",2,mbtiauth_4668
3374,"(187, 77, 123, 220, 144)",2,mbtiauth_4668
3375,"(187, 77, 123, 220, 278)",2,mbtiauth_4668
3376,"(187, 77, 144, 123, 160)",2,mbtiauth_4668
3377,"(187, 77, 220, 144, 278)",2,mbtiauth_4668
3378,"(187, 123, 220, 144, 278)",2,mbtiauth_4668
3379,"(262, 22, 1587, 749, 123)",2,mbtiauth_4668
3380,"(262, 64, 22, 749, 123)",2,mbtiauth_4668
3381,"(262, 64, 22, 1587, 123)",2,mbtiauth_4668
3382,"(262, 64, 22, 1587, 749)",2,mbtiauth_4668
3383,"(262, 64, 1587, 749, 123)",2,mbtiauth_4668
3384,"(276, 2, 123, 789, 193)",2,mbtiauth_4668
3385,"(276, 77, 64, 1214, 65)",2,mbtiauth_4668
3386,"(291, 276, 77, 64, 1214)",2,mbtiauth_4668
3387,"(364, 1779, 64, 123, 144)",2,mbtiauth_4668
3388,"(407, 65, 1219, 32, 441)",2,mbtiauth_4668
3389,"(407, 77, 2, 77, 441)",2,mbtiauth_4668
3390,"(441, 64, 9869, 64, 64)",2,mbtiauth_4668
3391,"(441, 65, 663, 164, 77)",2,mbtiauth_4668
3392,"(443, 22, 398, 443, 443)",2,mbtiauth_4668
3393,"(613, 77, 144, 123, 160)",2,mbtiauth_4668
3394,"(613, 187, 77, 123, 160)",2,mbtiauth_4668
3395,"(613, 187, 77, 144, 123)",2,mbtiauth_4668
3396,"(613, 187, 77, 144, 160)",2,mbtiauth_4668
3397,"(613, 187, 144, 123, 160)",2,mbtiauth_4668
3398,"(642, 123, 407, 3, 201)",2,mbtiauth_4668
3399,"(642, 507, 77, 64, 22)",2,mbtiauth_4668
3400,"(3389, 77, 2, 3390, 222)",2,mbtiauth_4668
3401,"(77, 2, 123, 789, 193, 31)",2,mbtiauth_4668
3402,"(77, 77, 276, 123, 441, 274)",2,mbtiauth_4668
3403,"(123, 187, 77, 144, 123, 160)",2,mbtiauth_4668
3404,"(123, 407, 65, 1219, 32, 441)",2,mbtiauth_4668
3405,"(123, 407, 77, 2, 77, 441)",2,mbtiauth_4668
3406,"(123, 441, 65, 663, 164, 77)",2,mbtiauth_4668
3407,"(123, 613, 77, 144, 123, 160)",2,mbtiauth_4668
3408,"(123, 613, 187, 77, 123, 160)",2,mbtiauth_4668
3409,"(123, 613, 187, 77, 144, 123)",2,mbtiauth_4668
3410,"(123, 613, 187, 77, 144, 160)",2,mbtiauth_4668
3411,"(123, 613, 187, 144, 123, 160)",2,mbtiauth_4668
3412,"(123, 3389, 77, 2, 3390, 222)",2,mbtiauth_4668
3413,"(187, 77, 123, 220, 144, 278)",2,mbtiauth_4668
3414,"(262, 64, 22, 1587, 749, 123)",2,mbtiauth_4668
3415,"(613, 187, 77, 144, 123, 160)",2,mbtiauth_4668
3416,"(123, 613, 187, 77, 144, 123, 160)",2,mbtiauth_4668
