,pattern,sup,author
1207,"(2, 10, 2)",2,mbtiauth_7682
1208,"(2, 10, 64)",2,mbtiauth_7682
1209,"(2, 10, 65)",2,mbtiauth_7682
1210,"(2, 10, 77)",2,mbtiauth_7682
1211,"(2, 10, 152)",2,mbtiauth_7682
1212,"(2, 10, 154)",2,mbtiauth_7682
1213,"(2, 22, 77)",2,mbtiauth_7682
1214,"(2, 22, 117)",2,mbtiauth_7682
1215,"(2, 29, 152)",2,mbtiauth_7682
1216,"(2, 41, 2)",2,mbtiauth_7682
1217,"(2, 64, 10)",2,mbtiauth_7682
1218,"(2, 64, 22)",4,mbtiauth_7682
1219,"(2, 64, 32)",2,mbtiauth_7682
1220,"(2, 64, 67)",2,mbtiauth_7682
1221,"(2, 64, 77)",2,mbtiauth_7682
1222,"(2, 64, 117)",2,mbtiauth_7682
1223,"(2, 64, 123)",2,mbtiauth_7682
1224,"(2, 64, 134)",2,mbtiauth_7682
1225,"(2, 64, 152)",2,mbtiauth_7682
1226,"(2, 64, 154)",2,mbtiauth_7682
1227,"(2, 64, 222)",2,mbtiauth_7682
1228,"(2, 64, 349)",2,mbtiauth_7682
1229,"(2, 64, 369)",2,mbtiauth_7682
1230,"(2, 64, 1030)",2,mbtiauth_7682
1231,"(2, 64, 2877)",2,mbtiauth_7682
1232,"(2, 65, 32)",2,mbtiauth_7682
1233,"(2, 65, 164)",2,mbtiauth_7682
1234,"(2, 65, 193)",2,mbtiauth_7682
1235,"(2, 65, 603)",2,mbtiauth_7682
1236,"(2, 65, 955)",2,mbtiauth_7682
1237,"(2, 67, 154)",2,mbtiauth_7682
1238,"(2, 77, 2)",2,mbtiauth_7682
1239,"(2, 77, 64)",3,mbtiauth_7682
1240,"(2, 77, 65)",2,mbtiauth_7682
1241,"(2, 77, 123)",4,mbtiauth_7682
1242,"(2, 77, 599)",2,mbtiauth_7682
1243,"(2, 77, 657)",2,mbtiauth_7682
1244,"(2, 123, 64)",2,mbtiauth_7682
1245,"(2, 123, 65)",3,mbtiauth_7682
1246,"(2, 123, 67)",2,mbtiauth_7682
1247,"(2, 123, 134)",2,mbtiauth_7682
1248,"(2, 123, 154)",2,mbtiauth_7682
1249,"(2, 123, 193)",4,mbtiauth_7682
1250,"(2, 123, 206)",3,mbtiauth_7682
1251,"(2, 123, 220)",2,mbtiauth_7682
1252,"(2, 123, 577)",2,mbtiauth_7682
1253,"(2, 152, 77)",2,mbtiauth_7682
1254,"(2, 154, 32)",2,mbtiauth_7682
1255,"(2, 154, 64)",2,mbtiauth_7682
1256,"(2, 154, 154)",2,mbtiauth_7682
1257,"(2, 160, 64)",2,mbtiauth_7682
1258,"(2, 160, 222)",2,mbtiauth_7682
1259,"(2, 167, 77)",2,mbtiauth_7682
1260,"(2, 193, 65)",2,mbtiauth_7682
1261,"(2, 220, 67)",2,mbtiauth_7682
1262,"(2, 220, 599)",2,mbtiauth_7682
1263,"(2, 349, 154)",2,mbtiauth_7682
1264,"(2, 599, 2)",2,mbtiauth_7682
1265,"(2, 599, 16)",2,mbtiauth_7682
1266,"(2, 2403, 32)",2,mbtiauth_7682
1267,"(2, 2403, 65)",2,mbtiauth_7682
1268,"(10, 2, 65)",3,mbtiauth_7682
1269,"(10, 2, 123)",2,mbtiauth_7682
1270,"(10, 2, 193)",2,mbtiauth_7682
1271,"(10, 2, 356)",2,mbtiauth_7682
1272,"(10, 22, 10)",2,mbtiauth_7682
1273,"(10, 22, 32)",2,mbtiauth_7682
1274,"(10, 22, 77)",2,mbtiauth_7682
1275,"(10, 22, 123)",3,mbtiauth_7682
1276,"(10, 32, 77)",2,mbtiauth_7682
1277,"(10, 32, 123)",4,mbtiauth_7682
1278,"(10, 65, 2)",2,mbtiauth_7682
1279,"(10, 65, 77)",2,mbtiauth_7682
1280,"(10, 65, 123)",2,mbtiauth_7682
1281,"(10, 65, 193)",3,mbtiauth_7682
1282,"(10, 77, 2)",3,mbtiauth_7682
1283,"(10, 77, 65)",2,mbtiauth_7682
1284,"(10, 77, 123)",5,mbtiauth_7682
1285,"(10, 77, 193)",2,mbtiauth_7682
1286,"(10, 77, 326)",2,mbtiauth_7682
1287,"(10, 123, 77)",2,mbtiauth_7682
1288,"(10, 123, 123)",3,mbtiauth_7682
1289,"(10, 123, 193)",2,mbtiauth_7682
1290,"(10, 152, 117)",2,mbtiauth_7682
1291,"(10, 225, 152)",2,mbtiauth_7682
1292,"(10, 936, 123)",2,mbtiauth_7682
1293,"(16, 29, 4420)",2,mbtiauth_7682
1294,"(16, 32, 64)",2,mbtiauth_7682
1295,"(16, 152, 77)",2,mbtiauth_7682
1296,"(16, 1191, 77)",2,mbtiauth_7682
1297,"(16, 1191, 123)",3,mbtiauth_7682
1298,"(16, 1191, 152)",2,mbtiauth_7682
1299,"(16, 1191, 200)",2,mbtiauth_7682
1300,"(22, 2, 32)",2,mbtiauth_7682
1301,"(22, 2, 64)",2,mbtiauth_7682
1302,"(22, 10, 262)",2,mbtiauth_7682
1303,"(22, 22, 2)",2,mbtiauth_7682
1304,"(22, 22, 32)",3,mbtiauth_7682
1305,"(22, 22, 64)",2,mbtiauth_7682
1306,"(22, 22, 152)",2,mbtiauth_7682
1307,"(22, 22, 219)",3,mbtiauth_7682
1308,"(22, 22, 510)",2,mbtiauth_7682
1309,"(22, 32, 2)",2,mbtiauth_7682
1310,"(22, 32, 22)",5,mbtiauth_7682
1311,"(22, 32, 41)",2,mbtiauth_7682
1312,"(22, 32, 65)",2,mbtiauth_7682
1313,"(22, 32, 77)",4,mbtiauth_7682
1314,"(22, 32, 152)",2,mbtiauth_7682
1315,"(22, 32, 219)",2,mbtiauth_7682
1316,"(22, 32, 222)",2,mbtiauth_7682
1317,"(22, 32, 510)",2,mbtiauth_7682
1318,"(22, 32, 657)",2,mbtiauth_7682
1319,"(22, 41, 510)",2,mbtiauth_7682
1320,"(22, 64, 67)",2,mbtiauth_7682
1321,"(22, 64, 154)",2,mbtiauth_7682
1322,"(22, 65, 32)",4,mbtiauth_7682
1323,"(22, 77, 2)",2,mbtiauth_7682
1324,"(22, 77, 16)",2,mbtiauth_7682
1325,"(22, 77, 22)",2,mbtiauth_7682
1326,"(22, 77, 32)",2,mbtiauth_7682
1327,"(22, 77, 123)",4,mbtiauth_7682
1328,"(22, 123, 10)",2,mbtiauth_7682
1329,"(22, 123, 22)",3,mbtiauth_7682
1330,"(22, 123, 32)",4,mbtiauth_7682
1331,"(22, 123, 64)",2,mbtiauth_7682
1332,"(22, 123, 65)",2,mbtiauth_7682
1333,"(22, 123, 123)",2,mbtiauth_7682
1334,"(22, 123, 222)",2,mbtiauth_7682
1335,"(22, 123, 223)",2,mbtiauth_7682
1336,"(22, 123, 407)",3,mbtiauth_7682
1337,"(22, 123, 441)",2,mbtiauth_7682
1338,"(22, 152, 10)",2,mbtiauth_7682
1339,"(22, 152, 22)",2,mbtiauth_7682
1340,"(22, 152, 32)",2,mbtiauth_7682
1341,"(22, 152, 64)",2,mbtiauth_7682
1342,"(22, 152, 77)",2,mbtiauth_7682
1343,"(22, 152, 123)",3,mbtiauth_7682
1344,"(22, 152, 167)",2,mbtiauth_7682
1345,"(22, 152, 222)",2,mbtiauth_7682
1346,"(22, 152, 441)",2,mbtiauth_7682
1347,"(22, 154, 32)",2,mbtiauth_7682
1348,"(22, 154, 254)",2,mbtiauth_7682
1349,"(22, 219, 222)",2,mbtiauth_7682
1350,"(22, 326, 77)",2,mbtiauth_7682
1351,"(22, 355, 32)",2,mbtiauth_7682
1352,"(22, 365, 262)",2,mbtiauth_7682
1353,"(22, 407, 22)",2,mbtiauth_7682
1354,"(22, 407, 32)",2,mbtiauth_7682
1355,"(22, 441, 10)",2,mbtiauth_7682
1356,"(22, 510, 153)",2,mbtiauth_7682
1357,"(22, 599, 123)",2,mbtiauth_7682
1358,"(22, 1239, 154)",2,mbtiauth_7682
1359,"(22, 6078, 22)",2,mbtiauth_7682
1360,"(22, 6078, 32)",2,mbtiauth_7682
1361,"(29, 64, 29)",2,mbtiauth_7682
1362,"(29, 64, 152)",2,mbtiauth_7682
1363,"(29, 254, 152)",2,mbtiauth_7682
1364,"(29, 308, 254)",2,mbtiauth_7682
1365,"(30, 30, 388)",2,mbtiauth_7682
1366,"(31, 22, 262)",2,mbtiauth_7682
1367,"(31, 22, 365)",2,mbtiauth_7682
1368,"(31, 222, 77)",2,mbtiauth_7682
1369,"(31, 365, 262)",2,mbtiauth_7682
1370,"(32, 2, 64)",2,mbtiauth_7682
1371,"(32, 2, 77)",2,mbtiauth_7682
1372,"(32, 2, 123)",2,mbtiauth_7682
1373,"(32, 2, 152)",2,mbtiauth_7682
1374,"(32, 22, 22)",3,mbtiauth_7682
1375,"(32, 22, 32)",3,mbtiauth_7682
1376,"(32, 22, 64)",2,mbtiauth_7682
1377,"(32, 22, 65)",2,mbtiauth_7682
1378,"(32, 22, 78)",2,mbtiauth_7682
1379,"(32, 22, 123)",5,mbtiauth_7682
1380,"(32, 22, 152)",4,mbtiauth_7682
1381,"(32, 22, 153)",2,mbtiauth_7682
1382,"(32, 22, 193)",2,mbtiauth_7682
1383,"(32, 22, 219)",3,mbtiauth_7682
1384,"(32, 22, 407)",2,mbtiauth_7682
1385,"(32, 22, 510)",2,mbtiauth_7682
1386,"(32, 41, 153)",2,mbtiauth_7682
1387,"(32, 41, 510)",2,mbtiauth_7682
1388,"(32, 64, 10)",2,mbtiauth_7682
1389,"(32, 65, 32)",2,mbtiauth_7682
1390,"(32, 77, 77)",2,mbtiauth_7682
1391,"(32, 77, 123)",4,mbtiauth_7682
1392,"(32, 77, 170)",2,mbtiauth_7682
1393,"(32, 123, 22)",2,mbtiauth_7682
1394,"(32, 123, 32)",2,mbtiauth_7682
1395,"(32, 123, 64)",2,mbtiauth_7682
1396,"(32, 123, 65)",2,mbtiauth_7682
1397,"(32, 123, 123)",2,mbtiauth_7682
1398,"(32, 123, 407)",2,mbtiauth_7682
1399,"(32, 152, 22)",2,mbtiauth_7682
1400,"(32, 152, 77)",2,mbtiauth_7682
1401,"(32, 152, 167)",2,mbtiauth_7682
1402,"(32, 154, 123)",2,mbtiauth_7682
1403,"(32, 164, 193)",2,mbtiauth_7682
1404,"(32, 167, 10)",2,mbtiauth_7682
1405,"(32, 222, 123)",2,mbtiauth_7682
1406,"(32, 326, 77)",2,mbtiauth_7682
1407,"(32, 407, 22)",2,mbtiauth_7682
1408,"(32, 510, 153)",2,mbtiauth_7682
1409,"(32, 657, 170)",2,mbtiauth_7682
1410,"(41, 2, 10)",2,mbtiauth_7682
1411,"(41, 2, 64)",2,mbtiauth_7682
1412,"(41, 10, 41)",2,mbtiauth_7682
1413,"(41, 10, 152)",2,mbtiauth_7682
1414,"(41, 10, 225)",2,mbtiauth_7682
1415,"(41, 29, 29)",2,mbtiauth_7682
1416,"(41, 29, 64)",3,mbtiauth_7682
1417,"(41, 29, 152)",2,mbtiauth_7682
1418,"(41, 41, 183)",2,mbtiauth_7682
1419,"(41, 41, 220)",2,mbtiauth_7682
1420,"(41, 64, 152)",2,mbtiauth_7682
1421,"(41, 77, 64)",2,mbtiauth_7682
1422,"(41, 77, 154)",2,mbtiauth_7682
1423,"(41, 154, 248)",2,mbtiauth_7682
1424,"(41, 159, 29)",2,mbtiauth_7682
1425,"(41, 159, 64)",2,mbtiauth_7682
1426,"(41, 159, 152)",2,mbtiauth_7682
1427,"(41, 183, 29)",2,mbtiauth_7682
1428,"(41, 183, 183)",2,mbtiauth_7682
1429,"(41, 183, 254)",2,mbtiauth_7682
1430,"(41, 220, 2)",2,mbtiauth_7682
1431,"(41, 254, 29)",2,mbtiauth_7682
1432,"(41, 254, 183)",2,mbtiauth_7682
1433,"(41, 510, 153)",2,mbtiauth_7682
1434,"(64, 2, 10)",3,mbtiauth_7682
1435,"(64, 2, 32)",3,mbtiauth_7682
1436,"(64, 2, 64)",2,mbtiauth_7682
1437,"(64, 2, 65)",3,mbtiauth_7682
1438,"(64, 2, 154)",2,mbtiauth_7682
1439,"(64, 2, 955)",2,mbtiauth_7682
1440,"(64, 2, 2403)",2,mbtiauth_7682
1441,"(64, 10, 22)",2,mbtiauth_7682
1442,"(64, 10, 64)",2,mbtiauth_7682
1443,"(64, 10, 123)",2,mbtiauth_7682
1444,"(64, 10, 154)",2,mbtiauth_7682
1445,"(64, 22, 2)",2,mbtiauth_7682
1446,"(64, 22, 10)",2,mbtiauth_7682
1447,"(64, 22, 22)",4,mbtiauth_7682
1448,"(64, 22, 32)",5,mbtiauth_7682
1449,"(64, 22, 64)",2,mbtiauth_7682
1450,"(64, 22, 65)",2,mbtiauth_7682
1451,"(64, 22, 77)",2,mbtiauth_7682
1452,"(64, 22, 117)",2,mbtiauth_7682
1453,"(64, 22, 152)",3,mbtiauth_7682
1454,"(64, 22, 219)",3,mbtiauth_7682
1455,"(64, 27, 1166)",2,mbtiauth_7682
1456,"(64, 29, 154)",2,mbtiauth_7682
1457,"(64, 29, 254)",2,mbtiauth_7682
1458,"(64, 29, 308)",2,mbtiauth_7682
1459,"(64, 32, 22)",3,mbtiauth_7682
1460,"(64, 32, 152)",3,mbtiauth_7682
1461,"(64, 32, 219)",2,mbtiauth_7682
1462,"(64, 64, 29)",2,mbtiauth_7682
1463,"(64, 64, 32)",2,mbtiauth_7682
1464,"(64, 64, 64)",2,mbtiauth_7682
1465,"(64, 64, 67)",2,mbtiauth_7682
1466,"(64, 64, 154)",2,mbtiauth_7682
1467,"(64, 64, 248)",2,mbtiauth_7682
1468,"(64, 65, 32)",2,mbtiauth_7682
1469,"(64, 65, 64)",2,mbtiauth_7682
1470,"(64, 65, 154)",2,mbtiauth_7682
1471,"(64, 65, 955)",2,mbtiauth_7682
1472,"(64, 67, 154)",2,mbtiauth_7682
1473,"(64, 75, 154)",2,mbtiauth_7682
1474,"(64, 77, 32)",2,mbtiauth_7682
1475,"(64, 123, 33)",2,mbtiauth_7682
1476,"(64, 123, 154)",2,mbtiauth_7682
1477,"(64, 123, 220)",2,mbtiauth_7682
1478,"(64, 152, 22)",2,mbtiauth_7682
1479,"(64, 154, 33)",2,mbtiauth_7682
1480,"(64, 154, 64)",2,mbtiauth_7682
1481,"(64, 154, 123)",2,mbtiauth_7682
1482,"(64, 154, 220)",2,mbtiauth_7682
1483,"(64, 154, 254)",2,mbtiauth_7682
1484,"(64, 154, 308)",2,mbtiauth_7682
1485,"(64, 158, 33)",2,mbtiauth_7682
1486,"(64, 193, 22)",2,mbtiauth_7682
1487,"(64, 256, 22)",2,mbtiauth_7682
1488,"(64, 308, 254)",2,mbtiauth_7682
1489,"(64, 340, 123)",2,mbtiauth_7682
1490,"(64, 340, 154)",2,mbtiauth_7682
1491,"(64, 340, 220)",2,mbtiauth_7682
1492,"(64, 441, 200)",2,mbtiauth_7682
1493,"(64, 1166, 39)",2,mbtiauth_7682
1494,"(64, 1758, 2)",2,mbtiauth_7682
1495,"(64, 2403, 32)",2,mbtiauth_7682
1496,"(64, 2403, 65)",2,mbtiauth_7682
1497,"(64, 7360, 22)",2,mbtiauth_7682
1498,"(64, 7360, 219)",2,mbtiauth_7682
1499,"(64, 7360, 256)",2,mbtiauth_7682
1500,"(65, 2, 65)",2,mbtiauth_7682
1501,"(65, 2, 123)",2,mbtiauth_7682
1502,"(65, 2, 193)",2,mbtiauth_7682
1503,"(65, 22, 32)",2,mbtiauth_7682
1504,"(65, 32, 32)",2,mbtiauth_7682
1505,"(65, 32, 123)",2,mbtiauth_7682
1506,"(65, 32, 268)",2,mbtiauth_7682
1507,"(65, 64, 154)",2,mbtiauth_7682
1508,"(65, 77, 2)",3,mbtiauth_7682
1509,"(65, 77, 65)",2,mbtiauth_7682
1510,"(65, 77, 123)",2,mbtiauth_7682
1511,"(65, 77, 193)",2,mbtiauth_7682
1512,"(65, 123, 158)",2,mbtiauth_7682
1513,"(65, 123, 193)",2,mbtiauth_7682
1514,"(65, 154, 64)",2,mbtiauth_7682
1515,"(65, 154, 123)",2,mbtiauth_7682
1516,"(65, 154, 158)",2,mbtiauth_7682
1517,"(65, 193, 65)",2,mbtiauth_7682
1518,"(65, 278, 54)",2,mbtiauth_7682
1519,"(65, 671, 2)",2,mbtiauth_7682
1520,"(65, 671, 32)",2,mbtiauth_7682
1521,"(65, 671, 64)",2,mbtiauth_7682
1522,"(65, 671, 123)",2,mbtiauth_7682
1523,"(65, 671, 154)",2,mbtiauth_7682
1524,"(65, 671, 158)",2,mbtiauth_7682
1525,"(65, 3439, 32)",2,mbtiauth_7682
1526,"(67, 30, 30)",2,mbtiauth_7682
1527,"(67, 30, 388)",2,mbtiauth_7682
1528,"(67, 65, 54)",2,mbtiauth_7682
1529,"(67, 65, 278)",2,mbtiauth_7682
1530,"(67, 278, 54)",2,mbtiauth_7682
1531,"(70, 16, 41)",2,mbtiauth_7682
1532,"(70, 22, 22)",2,mbtiauth_7682
1533,"(70, 22, 32)",3,mbtiauth_7682
1534,"(70, 22, 41)",2,mbtiauth_7682
1535,"(70, 22, 65)",3,mbtiauth_7682
1536,"(70, 22, 77)",2,mbtiauth_7682
1537,"(70, 32, 22)",2,mbtiauth_7682
1538,"(70, 32, 41)",2,mbtiauth_7682
1539,"(70, 32, 65)",2,mbtiauth_7682
1540,"(70, 65, 22)",2,mbtiauth_7682
1541,"(70, 65, 77)",2,mbtiauth_7682
1542,"(70, 498, 22)",2,mbtiauth_7682
1543,"(70, 498, 32)",2,mbtiauth_7682
1544,"(70, 498, 64)",2,mbtiauth_7682
1545,"(70, 498, 65)",2,mbtiauth_7682
1546,"(70, 704, 64)",2,mbtiauth_7682
1547,"(75, 154, 123)",2,mbtiauth_7682
1548,"(76, 64, 152)",2,mbtiauth_7682
1549,"(77, 2, 10)",2,mbtiauth_7682
1550,"(77, 2, 64)",2,mbtiauth_7682
1551,"(77, 2, 65)",3,mbtiauth_7682
1552,"(77, 2, 77)",3,mbtiauth_7682
1553,"(77, 2, 123)",4,mbtiauth_7682
1554,"(77, 2, 193)",3,mbtiauth_7682
1555,"(77, 10, 77)",2,mbtiauth_7682
1556,"(77, 10, 152)",2,mbtiauth_7682
1557,"(77, 10, 225)",2,mbtiauth_7682
1558,"(77, 22, 2)",2,mbtiauth_7682
1559,"(77, 22, 22)",2,mbtiauth_7682
1560,"(77, 22, 32)",2,mbtiauth_7682
1561,"(77, 22, 49)",2,mbtiauth_7682
1562,"(77, 22, 219)",2,mbtiauth_7682
1563,"(77, 22, 365)",2,mbtiauth_7682
1564,"(77, 29, 29)",2,mbtiauth_7682
1565,"(77, 29, 64)",2,mbtiauth_7682
1566,"(77, 31, 77)",2,mbtiauth_7682
1567,"(77, 31, 222)",2,mbtiauth_7682
1568,"(77, 32, 22)",2,mbtiauth_7682
1569,"(77, 32, 64)",2,mbtiauth_7682
1570,"(77, 32, 77)",3,mbtiauth_7682
1571,"(77, 32, 219)",2,mbtiauth_7682
1572,"(77, 32, 268)",2,mbtiauth_7682
1573,"(77, 41, 2)",2,mbtiauth_7682
1574,"(77, 41, 10)",2,mbtiauth_7682
1575,"(77, 50, 863)",2,mbtiauth_7682
1576,"(77, 64, 22)",3,mbtiauth_7682
1577,"(77, 64, 32)",2,mbtiauth_7682
1578,"(77, 64, 64)",3,mbtiauth_7682
1579,"(77, 64, 77)",2,mbtiauth_7682
1580,"(77, 64, 219)",2,mbtiauth_7682
1581,"(77, 65, 2)",2,mbtiauth_7682
1582,"(77, 65, 22)",2,mbtiauth_7682
1583,"(77, 65, 32)",2,mbtiauth_7682
1584,"(77, 65, 64)",2,mbtiauth_7682
1585,"(77, 65, 671)",2,mbtiauth_7682
1586,"(77, 70, 2)",2,mbtiauth_7682
1587,"(77, 70, 64)",2,mbtiauth_7682
1588,"(77, 70, 498)",2,mbtiauth_7682
1589,"(77, 77, 22)",2,mbtiauth_7682
1590,"(77, 77, 77)",4,mbtiauth_7682
1591,"(77, 77, 123)",2,mbtiauth_7682
1592,"(77, 77, 152)",2,mbtiauth_7682
1593,"(77, 77, 167)",2,mbtiauth_7682
1594,"(77, 77, 193)",2,mbtiauth_7682
1595,"(77, 77, 222)",2,mbtiauth_7682
1596,"(77, 77, 225)",2,mbtiauth_7682
1597,"(77, 77, 388)",2,mbtiauth_7682
1598,"(77, 123, 2)",2,mbtiauth_7682
1599,"(77, 123, 16)",2,mbtiauth_7682
1600,"(77, 123, 27)",2,mbtiauth_7682
1601,"(77, 123, 31)",2,mbtiauth_7682
1602,"(77, 123, 32)",2,mbtiauth_7682
1603,"(77, 123, 64)",3,mbtiauth_7682
1604,"(77, 123, 65)",3,mbtiauth_7682
1605,"(77, 123, 67)",3,mbtiauth_7682
1606,"(77, 123, 77)",3,mbtiauth_7682
1607,"(77, 123, 123)",3,mbtiauth_7682
1608,"(77, 123, 134)",2,mbtiauth_7682
1609,"(77, 123, 152)",2,mbtiauth_7682
1610,"(77, 123, 160)",2,mbtiauth_7682
1611,"(77, 123, 174)",2,mbtiauth_7682
1612,"(77, 123, 193)",5,mbtiauth_7682
1613,"(77, 123, 200)",2,mbtiauth_7682
1614,"(77, 123, 206)",2,mbtiauth_7682
1615,"(77, 123, 220)",2,mbtiauth_7682
1616,"(77, 123, 222)",2,mbtiauth_7682
1617,"(77, 123, 407)",2,mbtiauth_7682
1618,"(77, 123, 441)",2,mbtiauth_7682
1619,"(77, 123, 599)",2,mbtiauth_7682
1620,"(77, 140, 77)",2,mbtiauth_7682
1621,"(77, 144, 10)",2,mbtiauth_7682
1622,"(77, 144, 41)",2,mbtiauth_7682
1623,"(77, 152, 225)",2,mbtiauth_7682
1624,"(77, 154, 2)",2,mbtiauth_7682
1625,"(77, 154, 22)",2,mbtiauth_7682
1626,"(77, 154, 64)",3,mbtiauth_7682
1627,"(77, 154, 77)",2,mbtiauth_7682
1628,"(77, 154, 248)",2,mbtiauth_7682
1629,"(77, 160, 64)",3,mbtiauth_7682
1630,"(77, 167, 10)",2,mbtiauth_7682
1631,"(77, 167, 77)",2,mbtiauth_7682
1632,"(77, 167, 123)",3,mbtiauth_7682
1633,"(77, 170, 2)",2,mbtiauth_7682
1634,"(77, 193, 77)",2,mbtiauth_7682
1635,"(77, 193, 123)",2,mbtiauth_7682
1636,"(77, 193, 193)",2,mbtiauth_7682
1637,"(77, 193, 222)",2,mbtiauth_7682
1638,"(77, 193, 599)",2,mbtiauth_7682
1639,"(77, 200, 2)",2,mbtiauth_7682
1640,"(77, 200, 193)",2,mbtiauth_7682
1641,"(77, 220, 67)",2,mbtiauth_7682
1642,"(77, 220, 711)",2,mbtiauth_7682
1643,"(77, 222, 2)",3,mbtiauth_7682
1644,"(77, 222, 77)",3,mbtiauth_7682
1645,"(77, 222, 123)",2,mbtiauth_7682
1646,"(77, 222, 167)",2,mbtiauth_7682
1647,"(77, 225, 77)",2,mbtiauth_7682
1648,"(77, 236, 2)",2,mbtiauth_7682
1649,"(77, 236, 77)",2,mbtiauth_7682
1650,"(77, 236, 193)",2,mbtiauth_7682
1651,"(77, 236, 200)",2,mbtiauth_7682
1652,"(77, 244, 193)",2,mbtiauth_7682
1653,"(77, 248, 64)",2,mbtiauth_7682
1654,"(77, 280, 2647)",2,mbtiauth_7682
1655,"(77, 280, 2882)",2,mbtiauth_7682
1656,"(77, 286, 2)",2,mbtiauth_7682
1657,"(77, 326, 77)",2,mbtiauth_7682
1658,"(77, 326, 164)",2,mbtiauth_7682
1659,"(77, 349, 2)",3,mbtiauth_7682
1660,"(77, 349, 529)",2,mbtiauth_7682
1661,"(77, 364, 2)",3,mbtiauth_7682
1662,"(77, 364, 22)",2,mbtiauth_7682
1663,"(77, 364, 77)",3,mbtiauth_7682
1664,"(77, 364, 863)",2,mbtiauth_7682
1665,"(77, 388, 77)",4,mbtiauth_7682
1666,"(77, 388, 388)",2,mbtiauth_7682
1667,"(77, 498, 64)",2,mbtiauth_7682
1668,"(77, 529, 2)",2,mbtiauth_7682
1669,"(77, 529, 220)",2,mbtiauth_7682
1670,"(77, 599, 16)",2,mbtiauth_7682
1671,"(77, 599, 123)",2,mbtiauth_7682
1672,"(77, 599, 152)",2,mbtiauth_7682
1673,"(77, 599, 193)",2,mbtiauth_7682
1674,"(77, 657, 222)",3,mbtiauth_7682
1675,"(77, 671, 2)",2,mbtiauth_7682
1676,"(77, 863, 2)",2,mbtiauth_7682
1677,"(77, 1027, 2)",2,mbtiauth_7682
1678,"(77, 1738, 77)",2,mbtiauth_7682
1679,"(77, 1738, 167)",2,mbtiauth_7682
1680,"(77, 2647, 2882)",2,mbtiauth_7682
1681,"(78, 65, 32)",2,mbtiauth_7682
1682,"(78, 65, 3439)",2,mbtiauth_7682
1683,"(78, 3439, 32)",2,mbtiauth_7682
1684,"(83, 2, 10)",2,mbtiauth_7682
1685,"(83, 64, 2)",2,mbtiauth_7682
1686,"(83, 64, 10)",3,mbtiauth_7682
1687,"(117, 22, 22)",2,mbtiauth_7682
1688,"(120, 22, 32)",2,mbtiauth_7682
1689,"(120, 65, 32)",2,mbtiauth_7682
1690,"(123, 2, 10)",3,mbtiauth_7682
1691,"(123, 2, 123)",2,mbtiauth_7682
1692,"(123, 10, 22)",2,mbtiauth_7682
1693,"(123, 10, 32)",3,mbtiauth_7682
1694,"(123, 10, 65)",2,mbtiauth_7682
1695,"(123, 10, 123)",3,mbtiauth_7682
1696,"(123, 16, 22)",2,mbtiauth_7682
1697,"(123, 16, 123)",2,mbtiauth_7682
1698,"(123, 16, 152)",2,mbtiauth_7682
1699,"(123, 16, 1191)",3,mbtiauth_7682
1700,"(123, 22, 10)",2,mbtiauth_7682
1701,"(123, 22, 16)",2,mbtiauth_7682
1702,"(123, 22, 22)",3,mbtiauth_7682
1703,"(123, 22, 32)",6,mbtiauth_7682
1704,"(123, 22, 41)",2,mbtiauth_7682
1705,"(123, 22, 64)",2,mbtiauth_7682
1706,"(123, 22, 65)",3,mbtiauth_7682
1707,"(123, 22, 77)",3,mbtiauth_7682
1708,"(123, 22, 123)",5,mbtiauth_7682
1709,"(123, 22, 152)",2,mbtiauth_7682
1710,"(123, 22, 154)",3,mbtiauth_7682
1711,"(123, 22, 355)",2,mbtiauth_7682
1712,"(123, 22, 599)",2,mbtiauth_7682
1713,"(123, 29, 154)",2,mbtiauth_7682
1714,"(123, 30, 30)",2,mbtiauth_7682
1715,"(123, 30, 388)",2,mbtiauth_7682
1716,"(123, 32, 22)",4,mbtiauth_7682
1717,"(123, 32, 32)",2,mbtiauth_7682
1718,"(123, 32, 65)",2,mbtiauth_7682
1719,"(123, 32, 77)",2,mbtiauth_7682
1720,"(123, 32, 123)",5,mbtiauth_7682
1721,"(123, 32, 170)",2,mbtiauth_7682
1722,"(123, 32, 268)",2,mbtiauth_7682
1723,"(123, 64, 2)",2,mbtiauth_7682
1724,"(123, 64, 22)",2,mbtiauth_7682
1725,"(123, 64, 32)",2,mbtiauth_7682
1726,"(123, 64, 64)",2,mbtiauth_7682
1727,"(123, 64, 154)",2,mbtiauth_7682
1728,"(123, 64, 222)",2,mbtiauth_7682
1729,"(123, 65, 2)",2,mbtiauth_7682
1730,"(123, 65, 22)",2,mbtiauth_7682
1731,"(123, 65, 32)",6,mbtiauth_7682
1732,"(123, 65, 77)",2,mbtiauth_7682
1733,"(123, 65, 123)",3,mbtiauth_7682
1734,"(123, 65, 154)",2,mbtiauth_7682
1735,"(123, 65, 193)",2,mbtiauth_7682
1736,"(123, 65, 222)",2,mbtiauth_7682
1737,"(123, 65, 671)",3,mbtiauth_7682
1738,"(123, 65, 3439)",2,mbtiauth_7682
1739,"(123, 67, 10)",2,mbtiauth_7682
1740,"(123, 67, 22)",2,mbtiauth_7682
1741,"(123, 67, 30)",2,mbtiauth_7682
1742,"(123, 67, 77)",2,mbtiauth_7682
1743,"(123, 67, 154)",3,mbtiauth_7682
1744,"(123, 67, 365)",2,mbtiauth_7682
1745,"(123, 67, 388)",2,mbtiauth_7682
1746,"(123, 77, 2)",2,mbtiauth_7682
1747,"(123, 77, 16)",2,mbtiauth_7682
1748,"(123, 77, 41)",2,mbtiauth_7682
1749,"(123, 77, 123)",5,mbtiauth_7682
1750,"(123, 78, 32)",2,mbtiauth_7682
1751,"(123, 78, 65)",2,mbtiauth_7682
1752,"(123, 78, 3439)",2,mbtiauth_7682
1753,"(123, 120, 22)",2,mbtiauth_7682
1754,"(123, 120, 32)",2,mbtiauth_7682
1755,"(123, 120, 65)",2,mbtiauth_7682
1756,"(123, 123, 22)",4,mbtiauth_7682
1757,"(123, 123, 32)",2,mbtiauth_7682
1758,"(123, 123, 65)",3,mbtiauth_7682
1759,"(123, 123, 67)",3,mbtiauth_7682
1760,"(123, 123, 123)",2,mbtiauth_7682
1761,"(123, 123, 154)",2,mbtiauth_7682
1762,"(123, 123, 193)",2,mbtiauth_7682
1763,"(123, 123, 441)",3,mbtiauth_7682
1764,"(123, 123, 671)",2,mbtiauth_7682
1765,"(123, 144, 193)",2,mbtiauth_7682
1766,"(123, 151, 77)",2,mbtiauth_7682
1767,"(123, 152, 22)",2,mbtiauth_7682
1768,"(123, 152, 32)",3,mbtiauth_7682
1769,"(123, 154, 32)",2,mbtiauth_7682
1770,"(123, 154, 77)",2,mbtiauth_7682
1771,"(123, 154, 123)",3,mbtiauth_7682
1772,"(123, 154, 170)",2,mbtiauth_7682
1773,"(123, 160, 64)",2,mbtiauth_7682
1774,"(123, 174, 16)",3,mbtiauth_7682
1775,"(123, 174, 22)",3,mbtiauth_7682
1776,"(123, 174, 123)",3,mbtiauth_7682
1777,"(123, 174, 431)",2,mbtiauth_7682
1778,"(123, 174, 1191)",3,mbtiauth_7682
1779,"(123, 189, 77)",2,mbtiauth_7682
1780,"(123, 193, 22)",2,mbtiauth_7682
1781,"(123, 193, 65)",3,mbtiauth_7682
1782,"(123, 206, 2)",2,mbtiauth_7682
1783,"(123, 210, 67)",2,mbtiauth_7682
1784,"(123, 210, 77)",2,mbtiauth_7682
1785,"(123, 220, 67)",3,mbtiauth_7682
1786,"(123, 220, 365)",2,mbtiauth_7682
1787,"(123, 222, 32)",2,mbtiauth_7682
1788,"(123, 222, 65)",2,mbtiauth_7682
1789,"(123, 223, 152)",2,mbtiauth_7682
1790,"(123, 285, 10)",2,mbtiauth_7682
1791,"(123, 286, 22)",3,mbtiauth_7682
1792,"(123, 286, 32)",2,mbtiauth_7682
1793,"(123, 286, 41)",2,mbtiauth_7682
1794,"(123, 286, 65)",2,mbtiauth_7682
1795,"(123, 286, 77)",2,mbtiauth_7682
1796,"(123, 286, 123)",2,mbtiauth_7682
1797,"(123, 286, 154)",2,mbtiauth_7682
1798,"(123, 286, 183)",2,mbtiauth_7682
1799,"(123, 286, 308)",2,mbtiauth_7682
1800,"(123, 355, 32)",2,mbtiauth_7682
1801,"(123, 356, 22)",2,mbtiauth_7682
1802,"(123, 381, 10)",2,mbtiauth_7682
1803,"(123, 407, 22)",2,mbtiauth_7682
1804,"(123, 407, 32)",2,mbtiauth_7682
1805,"(123, 407, 152)",2,mbtiauth_7682
1806,"(123, 441, 10)",2,mbtiauth_7682
1807,"(123, 441, 65)",2,mbtiauth_7682
1808,"(123, 441, 123)",2,mbtiauth_7682
1809,"(123, 441, 154)",2,mbtiauth_7682
1810,"(123, 441, 671)",2,mbtiauth_7682
1811,"(123, 577, 65)",2,mbtiauth_7682
1812,"(123, 577, 671)",2,mbtiauth_7682
1813,"(123, 599, 16)",2,mbtiauth_7682
1814,"(123, 599, 123)",3,mbtiauth_7682
1815,"(123, 599, 193)",2,mbtiauth_7682
1816,"(123, 599, 529)",2,mbtiauth_7682
1817,"(123, 1039, 32)",2,mbtiauth_7682
1818,"(123, 1045, 22)",2,mbtiauth_7682
1819,"(123, 1191, 123)",2,mbtiauth_7682
1820,"(123, 3439, 32)",2,mbtiauth_7682
1821,"(144, 10, 152)",2,mbtiauth_7682
1822,"(144, 10, 225)",2,mbtiauth_7682
1823,"(144, 41, 2)",2,mbtiauth_7682
1824,"(144, 41, 10)",3,mbtiauth_7682
1825,"(144, 41, 41)",2,mbtiauth_7682
1826,"(144, 41, 162)",2,mbtiauth_7682
1827,"(144, 41, 225)",2,mbtiauth_7682
1828,"(151, 77, 22)",2,mbtiauth_7682
1829,"(152, 22, 2)",2,mbtiauth_7682
1830,"(152, 22, 32)",3,mbtiauth_7682
1831,"(152, 22, 193)",2,mbtiauth_7682
1832,"(152, 22, 219)",2,mbtiauth_7682
1833,"(152, 29, 64)",2,mbtiauth_7682
1834,"(152, 32, 22)",2,mbtiauth_7682
1835,"(152, 32, 154)",2,mbtiauth_7682
1836,"(152, 32, 193)",2,mbtiauth_7682
1837,"(152, 77, 10)",2,mbtiauth_7682
1838,"(152, 77, 123)",2,mbtiauth_7682
1839,"(152, 77, 657)",2,mbtiauth_7682
1840,"(152, 123, 10)",2,mbtiauth_7682
1841,"(152, 123, 441)",2,mbtiauth_7682
1842,"(152, 167, 10)",2,mbtiauth_7682
1843,"(152, 198, 22)",2,mbtiauth_7682
1844,"(152, 222, 2)",2,mbtiauth_7682
1845,"(152, 254, 32)",2,mbtiauth_7682
1846,"(152, 441, 10)",2,mbtiauth_7682
1847,"(152, 1238, 152)",2,mbtiauth_7682
1848,"(154, 2, 64)",2,mbtiauth_7682
1849,"(154, 2, 65)",2,mbtiauth_7682
1850,"(154, 2, 123)",2,mbtiauth_7682
1851,"(154, 2, 154)",2,mbtiauth_7682
1852,"(154, 10, 123)",2,mbtiauth_7682
1853,"(154, 22, 2)",2,mbtiauth_7682
1854,"(154, 22, 32)",2,mbtiauth_7682
1855,"(154, 30, 30)",2,mbtiauth_7682
1856,"(154, 32, 16)",2,mbtiauth_7682
1857,"(154, 32, 123)",2,mbtiauth_7682
1858,"(154, 41, 2)",2,mbtiauth_7682
1859,"(154, 64, 22)",2,mbtiauth_7682
1860,"(154, 64, 67)",2,mbtiauth_7682
1861,"(154, 64, 196)",2,mbtiauth_7682
1862,"(154, 65, 2)",2,mbtiauth_7682
1863,"(154, 65, 65)",2,mbtiauth_7682
1864,"(154, 65, 77)",2,mbtiauth_7682
1865,"(154, 65, 671)",2,mbtiauth_7682
1866,"(154, 67, 67)",2,mbtiauth_7682
1867,"(154, 77, 2)",2,mbtiauth_7682
1868,"(154, 77, 65)",3,mbtiauth_7682
1869,"(154, 77, 123)",3,mbtiauth_7682
1870,"(154, 123, 33)",2,mbtiauth_7682
1871,"(154, 123, 65)",2,mbtiauth_7682
1872,"(154, 123, 67)",2,mbtiauth_7682
1873,"(154, 123, 154)",2,mbtiauth_7682
1874,"(154, 123, 158)",2,mbtiauth_7682
1875,"(154, 123, 220)",2,mbtiauth_7682
1876,"(154, 154, 64)",2,mbtiauth_7682
1877,"(154, 220, 2)",2,mbtiauth_7682
1878,"(154, 220, 154)",2,mbtiauth_7682
1879,"(154, 222, 64)",2,mbtiauth_7682
1880,"(154, 248, 64)",2,mbtiauth_7682
1881,"(154, 254, 32)",2,mbtiauth_7682
1882,"(154, 308, 254)",2,mbtiauth_7682
1883,"(154, 349, 154)",2,mbtiauth_7682
1884,"(154, 349, 220)",2,mbtiauth_7682
1885,"(154, 866, 154)",2,mbtiauth_7682
1886,"(154, 866, 220)",2,mbtiauth_7682
1887,"(154, 866, 349)",2,mbtiauth_7682
1888,"(159, 29, 64)",2,mbtiauth_7682
1889,"(159, 29, 152)",2,mbtiauth_7682
1890,"(159, 64, 152)",2,mbtiauth_7682
1891,"(160, 64, 64)",2,mbtiauth_7682
1892,"(160, 64, 222)",2,mbtiauth_7682
1893,"(162, 2, 10)",2,mbtiauth_7682
1894,"(162, 2, 77)",2,mbtiauth_7682
1895,"(162, 10, 41)",2,mbtiauth_7682
1896,"(162, 16, 77)",2,mbtiauth_7682
1897,"(162, 32, 77)",2,mbtiauth_7682
1898,"(162, 41, 64)",2,mbtiauth_7682
1899,"(162, 364, 2)",2,mbtiauth_7682
1900,"(162, 364, 10)",2,mbtiauth_7682
1901,"(162, 364, 77)",2,mbtiauth_7682
1902,"(162, 364, 4920)",2,mbtiauth_7682
1903,"(162, 4920, 10)",2,mbtiauth_7682
1904,"(167, 10, 77)",2,mbtiauth_7682
1905,"(167, 10, 117)",2,mbtiauth_7682
1906,"(167, 10, 152)",2,mbtiauth_7682
1907,"(167, 77, 123)",2,mbtiauth_7682
1908,"(167, 77, 657)",2,mbtiauth_7682
1909,"(167, 152, 117)",2,mbtiauth_7682
1910,"(168, 154, 220)",2,mbtiauth_7682
1911,"(168, 220, 154)",2,mbtiauth_7682
1912,"(168, 349, 154)",2,mbtiauth_7682
1913,"(168, 349, 220)",2,mbtiauth_7682
1914,"(170, 22, 22)",2,mbtiauth_7682
1915,"(170, 64, 64)",2,mbtiauth_7682
1916,"(170, 212, 64)",2,mbtiauth_7682
1917,"(170, 599, 41)",2,mbtiauth_7682
1918,"(170, 1239, 154)",2,mbtiauth_7682
1919,"(171, 22, 22)",2,mbtiauth_7682
1920,"(171, 22, 32)",2,mbtiauth_7682
1921,"(174, 16, 123)",2,mbtiauth_7682
1922,"(174, 16, 1191)",3,mbtiauth_7682
1923,"(174, 22, 123)",2,mbtiauth_7682
1924,"(174, 123, 22)",2,mbtiauth_7682
1925,"(174, 1191, 123)",2,mbtiauth_7682
1926,"(183, 183, 29)",2,mbtiauth_7682
1927,"(183, 254, 29)",2,mbtiauth_7682
1928,"(183, 254, 183)",2,mbtiauth_7682
1929,"(193, 10, 22)",2,mbtiauth_7682
1930,"(193, 22, 10)",2,mbtiauth_7682
1931,"(193, 123, 220)",3,mbtiauth_7682
1932,"(193, 222, 2)",2,mbtiauth_7682
1933,"(193, 222, 123)",2,mbtiauth_7682
1934,"(193, 222, 220)",2,mbtiauth_7682
1935,"(193, 599, 31)",2,mbtiauth_7682
1936,"(193, 711, 64)",2,mbtiauth_7682
1937,"(198, 22, 22)",2,mbtiauth_7682
1938,"(200, 2, 64)",2,mbtiauth_7682
1939,"(200, 2, 123)",2,mbtiauth_7682
1940,"(200, 2, 193)",2,mbtiauth_7682
1941,"(200, 77, 123)",2,mbtiauth_7682
1942,"(200, 77, 193)",2,mbtiauth_7682
1943,"(200, 154, 2)",2,mbtiauth_7682
1944,"(205, 193, 206)",2,mbtiauth_7682
1945,"(210, 67, 77)",2,mbtiauth_7682
1946,"(212, 154, 41)",2,mbtiauth_7682
1947,"(220, 2, 64)",2,mbtiauth_7682
1948,"(220, 67, 365)",2,mbtiauth_7682
1949,"(220, 154, 220)",2,mbtiauth_7682
1950,"(220, 222, 64)",2,mbtiauth_7682
1951,"(220, 276, 2)",2,mbtiauth_7682
1952,"(220, 599, 65)",2,mbtiauth_7682
1953,"(220, 599, 1758)",2,mbtiauth_7682
1954,"(220, 711, 64)",3,mbtiauth_7682
1955,"(220, 711, 222)",2,mbtiauth_7682
1956,"(220, 1758, 65)",2,mbtiauth_7682
1957,"(222, 2, 64)",2,mbtiauth_7682
1958,"(222, 2, 65)",2,mbtiauth_7682
1959,"(222, 2, 67)",2,mbtiauth_7682
1960,"(222, 2, 77)",2,mbtiauth_7682
1961,"(222, 2, 123)",4,mbtiauth_7682
1962,"(222, 2, 220)",2,mbtiauth_7682
1963,"(222, 2, 340)",2,mbtiauth_7682
1964,"(222, 2, 657)",2,mbtiauth_7682
1965,"(222, 64, 67)",2,mbtiauth_7682
1966,"(222, 64, 123)",2,mbtiauth_7682
1967,"(222, 64, 154)",2,mbtiauth_7682
1968,"(222, 64, 220)",2,mbtiauth_7682
1969,"(222, 64, 340)",2,mbtiauth_7682
1970,"(222, 77, 123)",2,mbtiauth_7682
1971,"(222, 77, 222)",2,mbtiauth_7682
1972,"(222, 77, 657)",2,mbtiauth_7682
1973,"(222, 123, 67)",2,mbtiauth_7682
1974,"(222, 123, 158)",2,mbtiauth_7682
1975,"(222, 123, 220)",3,mbtiauth_7682
1976,"(222, 154, 123)",2,mbtiauth_7682
1977,"(222, 154, 220)",2,mbtiauth_7682
1978,"(222, 167, 123)",2,mbtiauth_7682
1979,"(222, 212, 67)",2,mbtiauth_7682
1980,"(222, 220, 67)",2,mbtiauth_7682
1981,"(222, 286, 67)",2,mbtiauth_7682
1982,"(222, 286, 123)",2,mbtiauth_7682
1983,"(222, 286, 220)",2,mbtiauth_7682
1984,"(222, 340, 123)",2,mbtiauth_7682
1985,"(222, 340, 154)",2,mbtiauth_7682
1986,"(222, 340, 220)",2,mbtiauth_7682
1987,"(222, 349, 123)",2,mbtiauth_7682
1988,"(225, 77, 222)",2,mbtiauth_7682
1989,"(236, 41, 154)",2,mbtiauth_7682
1990,"(236, 41, 248)",2,mbtiauth_7682
1991,"(236, 77, 193)",2,mbtiauth_7682
1992,"(236, 152, 77)",2,mbtiauth_7682
1993,"(236, 154, 248)",2,mbtiauth_7682
1994,"(236, 170, 41)",2,mbtiauth_7682
1995,"(236, 170, 599)",2,mbtiauth_7682
1996,"(236, 200, 193)",2,mbtiauth_7682
1997,"(236, 599, 41)",2,mbtiauth_7682
1998,"(248, 22, 32)",2,mbtiauth_7682
1999,"(254, 183, 29)",2,mbtiauth_7682
2000,"(260, 32, 123)",2,mbtiauth_7682
2001,"(262, 10, 22)",2,mbtiauth_7682
2002,"(262, 10, 152)",2,mbtiauth_7682
2003,"(262, 22, 123)",2,mbtiauth_7682
2004,"(262, 22, 152)",2,mbtiauth_7682
2005,"(262, 32, 22)",3,mbtiauth_7682
2006,"(262, 32, 123)",2,mbtiauth_7682
2007,"(262, 32, 152)",2,mbtiauth_7682
2008,"(262, 152, 77)",2,mbtiauth_7682
2009,"(262, 167, 10)",2,mbtiauth_7682
2010,"(262, 167, 152)",2,mbtiauth_7682
2011,"(262, 170, 152)",2,mbtiauth_7682
2012,"(262, 326, 683)",2,mbtiauth_7682
2013,"(278, 77, 123)",2,mbtiauth_7682
2014,"(278, 77, 441)",2,mbtiauth_7682
2015,"(278, 123, 441)",2,mbtiauth_7682
2016,"(280, 2647, 152)",2,mbtiauth_7682
2017,"(280, 2647, 2882)",2,mbtiauth_7682
2018,"(280, 2882, 152)",2,mbtiauth_7682
2019,"(285, 41, 10)",2,mbtiauth_7682
2020,"(285, 144, 10)",2,mbtiauth_7682
2021,"(285, 144, 41)",2,mbtiauth_7682
2022,"(286, 22, 32)",2,mbtiauth_7682
2023,"(286, 22, 41)",2,mbtiauth_7682
2024,"(286, 22, 65)",2,mbtiauth_7682
2025,"(286, 32, 22)",2,mbtiauth_7682
2026,"(286, 32, 65)",2,mbtiauth_7682
2027,"(286, 77, 67)",2,mbtiauth_7682
2028,"(286, 77, 123)",2,mbtiauth_7682
2029,"(286, 123, 65)",2,mbtiauth_7682
2030,"(286, 123, 67)",3,mbtiauth_7682
2031,"(286, 123, 154)",2,mbtiauth_7682
2032,"(286, 123, 220)",2,mbtiauth_7682
2033,"(286, 170, 64)",2,mbtiauth_7682
2034,"(286, 220, 67)",2,mbtiauth_7682
2035,"(308, 254, 152)",2,mbtiauth_7682
2036,"(326, 54, 152)",2,mbtiauth_7682
2037,"(326, 77, 170)",2,mbtiauth_7682
2038,"(340, 123, 220)",2,mbtiauth_7682
2039,"(340, 154, 220)",2,mbtiauth_7682
2040,"(349, 2, 64)",4,mbtiauth_7682
2041,"(349, 2, 123)",2,mbtiauth_7682
2042,"(349, 2, 154)",2,mbtiauth_7682
2043,"(349, 2, 340)",2,mbtiauth_7682
2044,"(349, 64, 2)",2,mbtiauth_7682
2045,"(349, 64, 64)",2,mbtiauth_7682
2046,"(349, 64, 154)",2,mbtiauth_7682
2047,"(349, 64, 286)",2,mbtiauth_7682
2048,"(349, 154, 2)",2,mbtiauth_7682
2049,"(349, 154, 64)",3,mbtiauth_7682
2050,"(349, 220, 2)",2,mbtiauth_7682
2051,"(349, 220, 64)",2,mbtiauth_7682
2052,"(349, 220, 154)",2,mbtiauth_7682
2053,"(349, 220, 222)",2,mbtiauth_7682
2054,"(349, 220, 286)",2,mbtiauth_7682
2055,"(349, 529, 2)",2,mbtiauth_7682
2056,"(349, 529, 64)",2,mbtiauth_7682
2057,"(349, 1834, 64)",2,mbtiauth_7682
2058,"(364, 2, 77)",3,mbtiauth_7682
2059,"(364, 2, 123)",2,mbtiauth_7682
2060,"(364, 77, 2)",2,mbtiauth_7682
2061,"(364, 77, 123)",2,mbtiauth_7682
2062,"(364, 863, 2)",2,mbtiauth_7682
2063,"(364, 4920, 10)",2,mbtiauth_7682
2064,"(388, 77, 77)",3,mbtiauth_7682
2065,"(388, 77, 222)",2,mbtiauth_7682
2066,"(388, 77, 388)",3,mbtiauth_7682
2067,"(388, 388, 77)",3,mbtiauth_7682
2068,"(388, 388, 388)",2,mbtiauth_7682
2069,"(417, 64, 193)",2,mbtiauth_7682
2070,"(441, 44, 64)",2,mbtiauth_7682
2071,"(441, 64, 22)",2,mbtiauth_7682
2072,"(441, 64, 64)",2,mbtiauth_7682
2073,"(441, 65, 154)",2,mbtiauth_7682
2074,"(441, 65, 671)",2,mbtiauth_7682
2075,"(441, 154, 123)",2,mbtiauth_7682
2076,"(477, 41, 64)",2,mbtiauth_7682
2077,"(498, 22, 22)",2,mbtiauth_7682
2078,"(498, 22, 32)",3,mbtiauth_7682
2079,"(498, 22, 65)",2,mbtiauth_7682
2080,"(498, 32, 22)",2,mbtiauth_7682
2081,"(498, 64, 22)",3,mbtiauth_7682
2082,"(498, 64, 32)",2,mbtiauth_7682
2083,"(498, 64, 64)",2,mbtiauth_7682
2084,"(498, 64, 77)",2,mbtiauth_7682
2085,"(498, 64, 193)",2,mbtiauth_7682
2086,"(498, 65, 32)",2,mbtiauth_7682
2087,"(498, 77, 2)",2,mbtiauth_7682
2088,"(498, 77, 32)",2,mbtiauth_7682
2089,"(498, 77, 64)",2,mbtiauth_7682
2090,"(498, 77, 77)",2,mbtiauth_7682
2091,"(498, 77, 123)",3,mbtiauth_7682
2092,"(498, 77, 160)",2,mbtiauth_7682
2093,"(498, 77, 193)",2,mbtiauth_7682
2094,"(498, 77, 222)",2,mbtiauth_7682
2095,"(498, 77, 657)",2,mbtiauth_7682
2096,"(498, 123, 64)",2,mbtiauth_7682
2097,"(498, 123, 160)",2,mbtiauth_7682
2098,"(498, 160, 64)",2,mbtiauth_7682
2099,"(498, 193, 22)",2,mbtiauth_7682
2100,"(498, 222, 77)",2,mbtiauth_7682
2101,"(520, 77, 154)",2,mbtiauth_7682
2102,"(529, 2, 64)",2,mbtiauth_7682
2103,"(529, 276, 170)",2,mbtiauth_7682
2104,"(548, 222, 2)",2,mbtiauth_7682
2105,"(577, 65, 671)",2,mbtiauth_7682
2106,"(599, 67, 22)",2,mbtiauth_7682
2107,"(599, 123, 16)",2,mbtiauth_7682
2108,"(599, 123, 22)",3,mbtiauth_7682
2109,"(599, 123, 67)",2,mbtiauth_7682
2110,"(599, 123, 220)",2,mbtiauth_7682
2111,"(599, 193, 220)",2,mbtiauth_7682
2112,"(599, 276, 170)",2,mbtiauth_7682
2113,"(599, 529, 170)",2,mbtiauth_7682
2114,"(599, 529, 220)",2,mbtiauth_7682
2115,"(599, 529, 276)",2,mbtiauth_7682
2116,"(599, 711, 64)",2,mbtiauth_7682
2117,"(599, 1758, 65)",2,mbtiauth_7682
2118,"(657, 2, 70)",2,mbtiauth_7682
2119,"(657, 1027, 70)",2,mbtiauth_7682
2120,"(671, 123, 158)",2,mbtiauth_7682
2121,"(671, 154, 123)",2,mbtiauth_7682
2122,"(671, 154, 158)",2,mbtiauth_7682
2123,"(711, 64, 64)",2,mbtiauth_7682
2124,"(711, 64, 154)",2,mbtiauth_7682
2125,"(711, 65, 64)",2,mbtiauth_7682
2126,"(711, 65, 154)",2,mbtiauth_7682
2127,"(850, 32, 77)",2,mbtiauth_7682
2128,"(850, 77, 10)",2,mbtiauth_7682
2129,"(850, 77, 32)",3,mbtiauth_7682
2130,"(850, 77, 77)",4,mbtiauth_7682
2131,"(850, 77, 193)",2,mbtiauth_7682
2132,"(850, 77, 225)",2,mbtiauth_7682
2133,"(863, 2, 65)",2,mbtiauth_7682
2134,"(866, 154, 220)",2,mbtiauth_7682
2135,"(866, 154, 349)",2,mbtiauth_7682
2136,"(866, 154, 866)",2,mbtiauth_7682
2137,"(866, 168, 154)",2,mbtiauth_7682
2138,"(866, 168, 220)",2,mbtiauth_7682
2139,"(866, 168, 349)",2,mbtiauth_7682
2140,"(866, 220, 154)",2,mbtiauth_7682
2141,"(866, 349, 154)",2,mbtiauth_7682
2142,"(866, 349, 220)",2,mbtiauth_7682
2143,"(866, 866, 349)",2,mbtiauth_7682
2144,"(921, 65, 54)",2,mbtiauth_7682
2145,"(921, 65, 278)",2,mbtiauth_7682
2146,"(921, 67, 54)",2,mbtiauth_7682
2147,"(921, 67, 65)",2,mbtiauth_7682
2148,"(921, 67, 278)",2,mbtiauth_7682
2149,"(921, 278, 54)",2,mbtiauth_7682
2150,"(951, 22, 22)",2,mbtiauth_7682
2151,"(1182, 291, 152)",2,mbtiauth_7682
2152,"(1238, 152, 198)",2,mbtiauth_7682
2153,"(1256, 22, 32)",2,mbtiauth_7682
2154,"(1335, 2643, 154)",2,mbtiauth_7682
2155,"(1685, 441, 10)",2,mbtiauth_7682
2156,"(1738, 77, 657)",2,mbtiauth_7682
2157,"(1738, 167, 77)",2,mbtiauth_7682
2158,"(1738, 167, 657)",2,mbtiauth_7682
2159,"(2403, 65, 32)",2,mbtiauth_7682
2160,"(2647, 2882, 152)",2,mbtiauth_7682
2161,"(6078, 22, 32)",2,mbtiauth_7682
2162,"(7360, 22, 219)",2,mbtiauth_7682
2163,"(2, 64, 22, 117)",2,mbtiauth_7682
2164,"(2, 64, 67, 154)",2,mbtiauth_7682
2165,"(2, 64, 123, 154)",2,mbtiauth_7682
2166,"(2, 77, 123, 64)",2,mbtiauth_7682
2167,"(2, 123, 193, 65)",2,mbtiauth_7682
2168,"(2, 123, 220, 67)",2,mbtiauth_7682
2169,"(2, 160, 64, 222)",2,mbtiauth_7682
2170,"(2, 2403, 65, 32)",2,mbtiauth_7682
2171,"(10, 2, 123, 193)",2,mbtiauth_7682
2172,"(10, 22, 77, 123)",2,mbtiauth_7682
2173,"(10, 22, 123, 123)",2,mbtiauth_7682
2174,"(10, 32, 77, 123)",2,mbtiauth_7682
2175,"(10, 32, 123, 123)",2,mbtiauth_7682
2176,"(10, 65, 2, 123)",2,mbtiauth_7682
2177,"(10, 65, 2, 193)",2,mbtiauth_7682
2178,"(10, 65, 77, 2)",2,mbtiauth_7682
2179,"(10, 65, 77, 123)",2,mbtiauth_7682
2180,"(10, 65, 77, 193)",2,mbtiauth_7682
2181,"(10, 65, 123, 193)",2,mbtiauth_7682
2182,"(10, 77, 2, 65)",2,mbtiauth_7682
2183,"(10, 77, 2, 123)",2,mbtiauth_7682
2184,"(10, 77, 2, 193)",2,mbtiauth_7682
2185,"(10, 77, 123, 193)",2,mbtiauth_7682
2186,"(10, 123, 77, 123)",2,mbtiauth_7682
2187,"(22, 32, 22, 152)",2,mbtiauth_7682
2188,"(22, 32, 22, 219)",2,mbtiauth_7682
2189,"(22, 32, 22, 510)",2,mbtiauth_7682
2190,"(22, 32, 41, 510)",2,mbtiauth_7682
2191,"(22, 123, 65, 32)",2,mbtiauth_7682
2192,"(22, 123, 407, 22)",2,mbtiauth_7682
2193,"(22, 123, 407, 32)",2,mbtiauth_7682
2194,"(22, 123, 441, 10)",2,mbtiauth_7682
2195,"(22, 152, 77, 123)",2,mbtiauth_7682
2196,"(22, 152, 123, 10)",2,mbtiauth_7682
2197,"(22, 152, 123, 441)",2,mbtiauth_7682
2198,"(22, 152, 441, 10)",2,mbtiauth_7682
2199,"(22, 6078, 22, 32)",2,mbtiauth_7682
2200,"(31, 22, 365, 262)",2,mbtiauth_7682
2201,"(32, 2, 77, 123)",2,mbtiauth_7682
2202,"(32, 22, 65, 32)",2,mbtiauth_7682
2203,"(32, 22, 123, 22)",2,mbtiauth_7682
2204,"(32, 22, 123, 32)",2,mbtiauth_7682
2205,"(32, 22, 123, 407)",2,mbtiauth_7682
2206,"(32, 22, 152, 22)",2,mbtiauth_7682
2207,"(32, 22, 407, 22)",2,mbtiauth_7682
2208,"(32, 22, 510, 153)",2,mbtiauth_7682
2209,"(32, 41, 510, 153)",2,mbtiauth_7682
2210,"(32, 123, 407, 22)",2,mbtiauth_7682
2211,"(41, 29, 64, 152)",2,mbtiauth_7682
2212,"(41, 159, 29, 64)",2,mbtiauth_7682
2213,"(41, 159, 29, 152)",2,mbtiauth_7682
2214,"(41, 159, 64, 152)",2,mbtiauth_7682
2215,"(41, 183, 183, 29)",2,mbtiauth_7682
2216,"(41, 183, 254, 29)",2,mbtiauth_7682
2217,"(41, 183, 254, 183)",2,mbtiauth_7682
2218,"(41, 254, 183, 29)",2,mbtiauth_7682
2219,"(64, 2, 10, 154)",2,mbtiauth_7682
2220,"(64, 2, 65, 32)",2,mbtiauth_7682
2221,"(64, 2, 65, 955)",2,mbtiauth_7682
2222,"(64, 2, 2403, 32)",2,mbtiauth_7682
2223,"(64, 2, 2403, 65)",2,mbtiauth_7682
2224,"(64, 22, 2, 32)",2,mbtiauth_7682
2225,"(64, 22, 22, 152)",2,mbtiauth_7682
2226,"(64, 22, 22, 219)",3,mbtiauth_7682
2227,"(64, 22, 32, 22)",3,mbtiauth_7682
2228,"(64, 22, 32, 152)",2,mbtiauth_7682
2229,"(64, 22, 32, 219)",2,mbtiauth_7682
2230,"(64, 29, 308, 254)",2,mbtiauth_7682
2231,"(64, 32, 22, 152)",2,mbtiauth_7682
2232,"(64, 32, 22, 219)",2,mbtiauth_7682
2233,"(64, 65, 154, 64)",2,mbtiauth_7682
2234,"(64, 154, 123, 33)",2,mbtiauth_7682
2235,"(64, 154, 308, 254)",2,mbtiauth_7682
2236,"(64, 340, 123, 220)",2,mbtiauth_7682
2237,"(64, 340, 154, 220)",2,mbtiauth_7682
2238,"(64, 2403, 65, 32)",2,mbtiauth_7682
2239,"(64, 7360, 22, 219)",2,mbtiauth_7682
2240,"(65, 2, 123, 193)",2,mbtiauth_7682
2241,"(65, 77, 2, 65)",2,mbtiauth_7682
2242,"(65, 77, 2, 123)",2,mbtiauth_7682
2243,"(65, 77, 2, 193)",2,mbtiauth_7682
2244,"(65, 77, 123, 193)",2,mbtiauth_7682
2245,"(65, 154, 123, 158)",2,mbtiauth_7682
2246,"(65, 671, 123, 158)",2,mbtiauth_7682
2247,"(65, 671, 154, 123)",2,mbtiauth_7682
2248,"(65, 671, 154, 158)",2,mbtiauth_7682
2249,"(67, 30, 30, 388)",2,mbtiauth_7682
2250,"(67, 65, 278, 54)",2,mbtiauth_7682
2251,"(70, 22, 32, 22)",2,mbtiauth_7682
2252,"(70, 22, 32, 41)",2,mbtiauth_7682
2253,"(70, 22, 32, 65)",2,mbtiauth_7682
2254,"(70, 498, 22, 32)",2,mbtiauth_7682
2255,"(70, 498, 22, 65)",2,mbtiauth_7682
2256,"(77, 2, 123, 193)",2,mbtiauth_7682
2257,"(77, 22, 22, 219)",2,mbtiauth_7682
2258,"(77, 22, 32, 22)",2,mbtiauth_7682
2259,"(77, 22, 32, 219)",2,mbtiauth_7682
2260,"(77, 32, 22, 219)",2,mbtiauth_7682
2261,"(77, 64, 22, 22)",2,mbtiauth_7682
2262,"(77, 64, 22, 32)",2,mbtiauth_7682
2263,"(77, 64, 22, 219)",2,mbtiauth_7682
2264,"(77, 64, 32, 22)",2,mbtiauth_7682
2265,"(77, 64, 32, 219)",2,mbtiauth_7682
2266,"(77, 65, 671, 2)",2,mbtiauth_7682
2267,"(77, 70, 498, 64)",2,mbtiauth_7682
2268,"(77, 77, 77, 22)",2,mbtiauth_7682
2269,"(77, 123, 160, 64)",2,mbtiauth_7682
2270,"(77, 123, 220, 67)",2,mbtiauth_7682
2271,"(77, 123, 599, 193)",2,mbtiauth_7682
2272,"(77, 144, 41, 10)",2,mbtiauth_7682
2273,"(77, 154, 64, 22)",2,mbtiauth_7682
2274,"(77, 154, 248, 64)",2,mbtiauth_7682
2275,"(77, 160, 64, 64)",2,mbtiauth_7682
2276,"(77, 222, 2, 123)",2,mbtiauth_7682
2277,"(77, 222, 167, 123)",2,mbtiauth_7682
2278,"(77, 236, 200, 193)",2,mbtiauth_7682
2279,"(77, 280, 2647, 2882)",2,mbtiauth_7682
2280,"(77, 349, 529, 2)",2,mbtiauth_7682
2281,"(77, 364, 2, 77)",2,mbtiauth_7682
2282,"(77, 388, 77, 388)",2,mbtiauth_7682
2283,"(77, 1738, 167, 77)",2,mbtiauth_7682
2284,"(78, 65, 3439, 32)",2,mbtiauth_7682
2285,"(83, 64, 2, 10)",2,mbtiauth_7682
2286,"(123, 10, 32, 123)",2,mbtiauth_7682
2287,"(123, 16, 1191, 123)",2,mbtiauth_7682
2288,"(123, 22, 64, 154)",2,mbtiauth_7682
2289,"(123, 22, 65, 32)",2,mbtiauth_7682
2290,"(123, 22, 77, 16)",2,mbtiauth_7682
2291,"(123, 22, 123, 32)",2,mbtiauth_7682
2292,"(123, 22, 123, 65)",2,mbtiauth_7682
2293,"(123, 22, 355, 32)",2,mbtiauth_7682
2294,"(123, 22, 599, 123)",2,mbtiauth_7682
2295,"(123, 30, 30, 388)",2,mbtiauth_7682
2296,"(123, 32, 22, 123)",3,mbtiauth_7682
2297,"(123, 65, 32, 123)",2,mbtiauth_7682
2298,"(123, 65, 3439, 32)",2,mbtiauth_7682
2299,"(123, 67, 30, 30)",2,mbtiauth_7682
2300,"(123, 67, 30, 388)",2,mbtiauth_7682
2301,"(123, 78, 65, 32)",2,mbtiauth_7682
2302,"(123, 78, 65, 3439)",2,mbtiauth_7682
2303,"(123, 78, 3439, 32)",2,mbtiauth_7682
2304,"(123, 120, 22, 32)",2,mbtiauth_7682
2305,"(123, 120, 65, 32)",2,mbtiauth_7682
2306,"(123, 123, 65, 32)",2,mbtiauth_7682
2307,"(123, 123, 65, 671)",2,mbtiauth_7682
2308,"(123, 123, 441, 65)",2,mbtiauth_7682
2309,"(123, 123, 441, 154)",2,mbtiauth_7682
2310,"(123, 123, 441, 671)",2,mbtiauth_7682
2311,"(123, 152, 22, 32)",2,mbtiauth_7682
2312,"(123, 154, 77, 123)",2,mbtiauth_7682
2313,"(123, 174, 16, 123)",2,mbtiauth_7682
2314,"(123, 174, 16, 1191)",3,mbtiauth_7682
2315,"(123, 174, 22, 123)",2,mbtiauth_7682
2316,"(123, 174, 123, 22)",2,mbtiauth_7682
2317,"(123, 174, 1191, 123)",2,mbtiauth_7682
2318,"(123, 210, 67, 77)",2,mbtiauth_7682
2319,"(123, 220, 67, 365)",2,mbtiauth_7682
2320,"(123, 286, 22, 32)",2,mbtiauth_7682
2321,"(123, 286, 22, 41)",2,mbtiauth_7682
2322,"(123, 286, 22, 65)",2,mbtiauth_7682
2323,"(123, 286, 32, 65)",2,mbtiauth_7682
2324,"(123, 441, 65, 671)",2,mbtiauth_7682
2325,"(123, 441, 154, 123)",2,mbtiauth_7682
2326,"(123, 577, 65, 671)",2,mbtiauth_7682
2327,"(144, 41, 10, 225)",2,mbtiauth_7682
2328,"(152, 123, 441, 10)",2,mbtiauth_7682
2329,"(154, 65, 2, 65)",2,mbtiauth_7682
2330,"(154, 65, 77, 2)",2,mbtiauth_7682
2331,"(154, 65, 77, 65)",2,mbtiauth_7682
2332,"(154, 77, 2, 65)",2,mbtiauth_7682
2333,"(154, 77, 123, 65)",2,mbtiauth_7682
2334,"(154, 349, 220, 154)",2,mbtiauth_7682
2335,"(154, 866, 220, 154)",2,mbtiauth_7682
2336,"(154, 866, 349, 154)",2,mbtiauth_7682
2337,"(154, 866, 349, 220)",2,mbtiauth_7682
2338,"(159, 29, 64, 152)",2,mbtiauth_7682
2339,"(162, 364, 2, 77)",2,mbtiauth_7682
2340,"(162, 364, 4920, 10)",2,mbtiauth_7682
2341,"(167, 10, 152, 117)",2,mbtiauth_7682
2342,"(168, 349, 220, 154)",2,mbtiauth_7682
2343,"(171, 22, 22, 32)",2,mbtiauth_7682
2344,"(174, 16, 1191, 123)",2,mbtiauth_7682
2345,"(183, 254, 183, 29)",2,mbtiauth_7682
2346,"(193, 222, 123, 220)",2,mbtiauth_7682
2347,"(220, 599, 1758, 65)",2,mbtiauth_7682
2348,"(222, 2, 77, 123)",2,mbtiauth_7682
2349,"(222, 2, 77, 657)",2,mbtiauth_7682
2350,"(222, 2, 123, 67)",2,mbtiauth_7682
2351,"(222, 2, 123, 220)",2,mbtiauth_7682
2352,"(222, 2, 220, 67)",2,mbtiauth_7682
2353,"(222, 64, 123, 220)",2,mbtiauth_7682
2354,"(222, 64, 340, 123)",2,mbtiauth_7682
2355,"(222, 64, 340, 154)",2,mbtiauth_7682
2356,"(222, 64, 340, 220)",2,mbtiauth_7682
2357,"(222, 123, 220, 67)",2,mbtiauth_7682
2358,"(222, 154, 123, 220)",2,mbtiauth_7682
2359,"(222, 286, 123, 67)",2,mbtiauth_7682
2360,"(222, 286, 123, 220)",2,mbtiauth_7682
2361,"(222, 286, 220, 67)",2,mbtiauth_7682
2362,"(222, 340, 123, 220)",2,mbtiauth_7682
2363,"(236, 41, 154, 248)",2,mbtiauth_7682
2364,"(236, 170, 599, 41)",2,mbtiauth_7682
2365,"(262, 32, 22, 123)",2,mbtiauth_7682
2366,"(262, 32, 22, 152)",2,mbtiauth_7682
2367,"(262, 167, 10, 152)",2,mbtiauth_7682
2368,"(278, 77, 123, 441)",2,mbtiauth_7682
2369,"(280, 2647, 2882, 152)",2,mbtiauth_7682
2370,"(285, 144, 41, 10)",2,mbtiauth_7682
2371,"(286, 77, 123, 67)",2,mbtiauth_7682
2372,"(286, 123, 220, 67)",2,mbtiauth_7682
2373,"(349, 2, 154, 64)",2,mbtiauth_7682
2374,"(349, 154, 2, 64)",2,mbtiauth_7682
2375,"(349, 220, 2, 64)",2,mbtiauth_7682
2376,"(349, 529, 2, 64)",2,mbtiauth_7682
2377,"(364, 2, 77, 123)",2,mbtiauth_7682
2378,"(388, 77, 77, 388)",2,mbtiauth_7682
2379,"(388, 77, 388, 77)",3,mbtiauth_7682
2380,"(388, 77, 388, 388)",2,mbtiauth_7682
2381,"(388, 388, 77, 388)",2,mbtiauth_7682
2382,"(498, 22, 32, 22)",2,mbtiauth_7682
2383,"(498, 22, 65, 32)",2,mbtiauth_7682
2384,"(498, 64, 22, 32)",2,mbtiauth_7682
2385,"(498, 64, 193, 22)",2,mbtiauth_7682
2386,"(498, 77, 123, 64)",2,mbtiauth_7682
2387,"(498, 77, 123, 160)",2,mbtiauth_7682
2388,"(498, 77, 160, 64)",2,mbtiauth_7682
2389,"(498, 77, 222, 77)",2,mbtiauth_7682
2390,"(498, 123, 160, 64)",2,mbtiauth_7682
2391,"(599, 123, 67, 22)",2,mbtiauth_7682
2392,"(599, 529, 276, 170)",2,mbtiauth_7682
2393,"(671, 154, 123, 158)",2,mbtiauth_7682
2394,"(711, 65, 64, 154)",2,mbtiauth_7682
2395,"(850, 77, 32, 77)",2,mbtiauth_7682
2396,"(850, 77, 77, 225)",2,mbtiauth_7682
2397,"(866, 154, 866, 349)",2,mbtiauth_7682
2398,"(866, 168, 154, 220)",2,mbtiauth_7682
2399,"(866, 168, 220, 154)",2,mbtiauth_7682
2400,"(866, 168, 349, 154)",2,mbtiauth_7682
2401,"(866, 168, 349, 220)",2,mbtiauth_7682
2402,"(866, 349, 220, 154)",2,mbtiauth_7682
2403,"(921, 65, 278, 54)",2,mbtiauth_7682
2404,"(921, 67, 65, 54)",2,mbtiauth_7682
2405,"(921, 67, 65, 278)",2,mbtiauth_7682
2406,"(921, 67, 278, 54)",2,mbtiauth_7682
2407,"(1738, 167, 77, 657)",2,mbtiauth_7682
2408,"(10, 65, 2, 123, 193)",2,mbtiauth_7682
2409,"(10, 65, 77, 2, 123)",2,mbtiauth_7682
2410,"(10, 65, 77, 2, 193)",2,mbtiauth_7682
2411,"(10, 65, 77, 123, 193)",2,mbtiauth_7682
2412,"(10, 77, 2, 123, 193)",2,mbtiauth_7682
2413,"(22, 152, 123, 441, 10)",2,mbtiauth_7682
2414,"(32, 22, 123, 407, 22)",2,mbtiauth_7682
2415,"(41, 159, 29, 64, 152)",2,mbtiauth_7682
2416,"(41, 183, 254, 183, 29)",2,mbtiauth_7682
2417,"(64, 2, 2403, 65, 32)",2,mbtiauth_7682
2418,"(64, 22, 32, 22, 152)",2,mbtiauth_7682
2419,"(64, 22, 32, 22, 219)",2,mbtiauth_7682
2420,"(65, 77, 2, 123, 193)",2,mbtiauth_7682
2421,"(65, 671, 154, 123, 158)",2,mbtiauth_7682
2422,"(77, 22, 32, 22, 219)",2,mbtiauth_7682
2423,"(77, 64, 22, 22, 219)",2,mbtiauth_7682
2424,"(77, 64, 22, 32, 22)",2,mbtiauth_7682
2425,"(77, 64, 22, 32, 219)",2,mbtiauth_7682
2426,"(77, 64, 32, 22, 219)",2,mbtiauth_7682
2427,"(123, 22, 123, 65, 32)",2,mbtiauth_7682
2428,"(123, 67, 30, 30, 388)",2,mbtiauth_7682
2429,"(123, 78, 65, 3439, 32)",2,mbtiauth_7682
2430,"(123, 123, 441, 65, 671)",2,mbtiauth_7682
2431,"(123, 174, 16, 1191, 123)",2,mbtiauth_7682
2432,"(154, 65, 77, 2, 65)",2,mbtiauth_7682
2433,"(154, 866, 349, 220, 154)",2,mbtiauth_7682
2434,"(222, 2, 123, 220, 67)",2,mbtiauth_7682
2435,"(222, 64, 340, 123, 220)",2,mbtiauth_7682
2436,"(222, 286, 123, 220, 67)",2,mbtiauth_7682
2437,"(388, 77, 388, 77, 388)",2,mbtiauth_7682
2438,"(498, 77, 123, 160, 64)",2,mbtiauth_7682
2439,"(866, 168, 349, 220, 154)",2,mbtiauth_7682
2440,"(921, 67, 65, 278, 54)",2,mbtiauth_7682
2441,"(10, 65, 77, 2, 123, 193)",2,mbtiauth_7682
2442,"(77, 64, 22, 32, 22, 219)",2,mbtiauth_7682
