,pattern,sup,author
812,"(2, 10, 41)",2,mbtiauth_4738
813,"(2, 41, 22)",2,mbtiauth_4738
814,"(2, 41, 64)",2,mbtiauth_4738
815,"(2, 64, 22)",2,mbtiauth_4738
816,"(2, 64, 711)",2,mbtiauth_4738
817,"(2, 123, 193)",2,mbtiauth_4738
818,"(2, 123, 212)",2,mbtiauth_4738
819,"(2, 123, 593)",2,mbtiauth_4738
820,"(2, 566, 41)",2,mbtiauth_4738
821,"(2, 566, 64)",3,mbtiauth_4738
822,"(2, 921, 41)",2,mbtiauth_4738
823,"(2, 1160, 365)",2,mbtiauth_4738
824,"(10, 22, 41)",2,mbtiauth_4738
825,"(10, 22, 64)",2,mbtiauth_4738
826,"(10, 22, 158)",2,mbtiauth_4738
827,"(10, 22, 566)",2,mbtiauth_4738
828,"(10, 41, 2)",2,mbtiauth_4738
829,"(10, 64, 41)",2,mbtiauth_4738
830,"(10, 77, 64)",2,mbtiauth_4738
831,"(10, 77, 921)",2,mbtiauth_4738
832,"(10, 158, 41)",2,mbtiauth_4738
833,"(10, 158, 64)",2,mbtiauth_4738
834,"(10, 417, 41)",2,mbtiauth_4738
835,"(10, 566, 64)",2,mbtiauth_4738
836,"(13, 65, 31)",2,mbtiauth_4738
837,"(16, 64, 65)",2,mbtiauth_4738
838,"(16, 64, 164)",2,mbtiauth_4738
839,"(16, 164, 65)",2,mbtiauth_4738
840,"(22, 10, 22)",2,mbtiauth_4738
841,"(22, 22, 22)",2,mbtiauth_4738
842,"(22, 33, 22)",2,mbtiauth_4738
843,"(22, 33, 33)",2,mbtiauth_4738
844,"(22, 64, 41)",2,mbtiauth_4738
845,"(22, 77, 2)",2,mbtiauth_4738
846,"(22, 77, 123)",2,mbtiauth_4738
847,"(22, 123, 165)",2,mbtiauth_4738
848,"(22, 132, 54)",2,mbtiauth_4738
849,"(22, 154, 33)",2,mbtiauth_4738
850,"(22, 158, 41)",2,mbtiauth_4738
851,"(22, 158, 64)",2,mbtiauth_4738
852,"(22, 243, 65)",2,mbtiauth_4738
853,"(27, 50, 222)",2,mbtiauth_4738
854,"(31, 22, 132)",2,mbtiauth_4738
855,"(31, 77, 41)",2,mbtiauth_4738
856,"(31, 77, 64)",2,mbtiauth_4738
857,"(31, 77, 921)",2,mbtiauth_4738
858,"(32, 2, 64)",2,mbtiauth_4738
859,"(32, 2, 123)",3,mbtiauth_4738
860,"(32, 2, 154)",3,mbtiauth_4738
861,"(32, 2, 193)",2,mbtiauth_4738
862,"(32, 2, 291)",2,mbtiauth_4738
863,"(32, 41, 64)",2,mbtiauth_4738
864,"(32, 47, 2)",2,mbtiauth_4738
865,"(32, 50, 64)",2,mbtiauth_4738
866,"(32, 64, 64)",2,mbtiauth_4738
867,"(32, 77, 41)",2,mbtiauth_4738
868,"(32, 123, 193)",2,mbtiauth_4738
869,"(41, 2, 22)",2,mbtiauth_4738
870,"(41, 2, 41)",2,mbtiauth_4738
871,"(41, 10, 22)",2,mbtiauth_4738
872,"(41, 10, 32)",2,mbtiauth_4738
873,"(41, 10, 41)",2,mbtiauth_4738
874,"(41, 10, 66)",2,mbtiauth_4738
875,"(41, 10, 417)",2,mbtiauth_4738
876,"(41, 22, 32)",2,mbtiauth_4738
877,"(41, 29, 22)",2,mbtiauth_4738
878,"(41, 29, 32)",2,mbtiauth_4738
879,"(41, 31, 77)",2,mbtiauth_4738
880,"(41, 32, 22)",2,mbtiauth_4738
881,"(41, 41, 22)",2,mbtiauth_4738
882,"(41, 41, 32)",2,mbtiauth_4738
883,"(41, 41, 64)",2,mbtiauth_4738
884,"(41, 41, 1193)",2,mbtiauth_4738
885,"(41, 64, 22)",2,mbtiauth_4738
886,"(41, 64, 31)",2,mbtiauth_4738
887,"(41, 64, 41)",2,mbtiauth_4738
888,"(41, 64, 64)",2,mbtiauth_4738
889,"(41, 64, 77)",2,mbtiauth_4738
890,"(41, 64, 566)",2,mbtiauth_4738
891,"(41, 64, 921)",2,mbtiauth_4738
892,"(41, 65, 2)",2,mbtiauth_4738
893,"(41, 65, 32)",2,mbtiauth_4738
894,"(41, 66, 64)",2,mbtiauth_4738
895,"(41, 77, 31)",2,mbtiauth_4738
896,"(41, 77, 65)",2,mbtiauth_4738
897,"(41, 142, 64)",2,mbtiauth_4738
898,"(41, 190, 10)",2,mbtiauth_4738
899,"(41, 417, 41)",2,mbtiauth_4738
900,"(41, 499, 64)",2,mbtiauth_4738
901,"(41, 566, 921)",2,mbtiauth_4738
902,"(41, 921, 2)",2,mbtiauth_4738
903,"(41, 1191, 22)",2,mbtiauth_4738
904,"(41, 1191, 32)",2,mbtiauth_4738
905,"(41, 1193, 32)",2,mbtiauth_4738
906,"(50, 2, 64)",2,mbtiauth_4738
907,"(50, 64, 2)",2,mbtiauth_4738
908,"(50, 64, 64)",2,mbtiauth_4738
909,"(50, 1389, 64)",2,mbtiauth_4738
910,"(64, 2, 64)",4,mbtiauth_4738
911,"(64, 10, 22)",2,mbtiauth_4738
912,"(64, 13, 31)",2,mbtiauth_4738
913,"(64, 13, 65)",2,mbtiauth_4738
914,"(64, 22, 22)",3,mbtiauth_4738
915,"(64, 22, 33)",2,mbtiauth_4738
916,"(64, 22, 123)",2,mbtiauth_4738
917,"(64, 22, 132)",2,mbtiauth_4738
918,"(64, 27, 41)",2,mbtiauth_4738
919,"(64, 27, 77)",2,mbtiauth_4738
920,"(64, 31, 77)",2,mbtiauth_4738
921,"(64, 33, 31)",2,mbtiauth_4738
922,"(64, 33, 33)",2,mbtiauth_4738
923,"(64, 33, 65)",2,mbtiauth_4738
924,"(64, 41, 64)",2,mbtiauth_4738
925,"(64, 64, 22)",3,mbtiauth_4738
926,"(64, 64, 50)",2,mbtiauth_4738
927,"(64, 65, 31)",2,mbtiauth_4738
928,"(64, 77, 22)",2,mbtiauth_4738
929,"(64, 77, 32)",2,mbtiauth_4738
930,"(64, 77, 65)",2,mbtiauth_4738
931,"(64, 77, 170)",2,mbtiauth_4738
932,"(64, 154, 65)",2,mbtiauth_4738
933,"(64, 164, 65)",2,mbtiauth_4738
934,"(64, 200, 65)",2,mbtiauth_4738
935,"(64, 200, 154)",2,mbtiauth_4738
936,"(64, 268, 65)",2,mbtiauth_4738
937,"(64, 505, 64)",2,mbtiauth_4738
938,"(64, 505, 144)",2,mbtiauth_4738
939,"(64, 566, 22)",2,mbtiauth_4738
940,"(64, 566, 64)",2,mbtiauth_4738
941,"(64, 566, 921)",2,mbtiauth_4738
942,"(64, 921, 22)",2,mbtiauth_4738
943,"(64, 921, 64)",2,mbtiauth_4738
944,"(64, 9287, 33)",2,mbtiauth_4738
945,"(65, 2, 193)",2,mbtiauth_4738
946,"(65, 32, 2)",2,mbtiauth_4738
947,"(65, 65, 32)",2,mbtiauth_4738
948,"(65, 77, 77)",2,mbtiauth_4738
949,"(65, 1224, 6)",2,mbtiauth_4738
950,"(65, 1224, 1793)",2,mbtiauth_4738
951,"(65, 1793, 6)",2,mbtiauth_4738
952,"(66, 22, 41)",2,mbtiauth_4738
953,"(76, 693, 64)",2,mbtiauth_4738
954,"(77, 2, 123)",3,mbtiauth_4738
955,"(77, 27, 41)",2,mbtiauth_4738
956,"(77, 41, 2)",2,mbtiauth_4738
957,"(77, 64, 33)",2,mbtiauth_4738
958,"(77, 64, 65)",2,mbtiauth_4738
959,"(77, 64, 77)",2,mbtiauth_4738
960,"(77, 64, 222)",2,mbtiauth_4738
961,"(77, 64, 262)",2,mbtiauth_4738
962,"(77, 65, 2)",2,mbtiauth_4738
963,"(77, 65, 77)",2,mbtiauth_4738
964,"(77, 77, 2)",3,mbtiauth_4738
965,"(77, 77, 77)",3,mbtiauth_4738
966,"(77, 77, 123)",2,mbtiauth_4738
967,"(77, 77, 170)",2,mbtiauth_4738
968,"(77, 77, 276)",2,mbtiauth_4738
969,"(77, 77, 3917)",2,mbtiauth_4738
970,"(77, 123, 2)",2,mbtiauth_4738
971,"(77, 123, 263)",2,mbtiauth_4738
972,"(77, 160, 64)",2,mbtiauth_4738
973,"(77, 276, 2)",2,mbtiauth_4738
974,"(77, 276, 123)",2,mbtiauth_4738
975,"(77, 291, 77)",2,mbtiauth_4738
976,"(77, 441, 29)",2,mbtiauth_4738
977,"(77, 443, 2)",2,mbtiauth_4738
978,"(77, 443, 77)",2,mbtiauth_4738
979,"(77, 443, 291)",2,mbtiauth_4738
980,"(77, 566, 2)",2,mbtiauth_4738
981,"(77, 566, 64)",2,mbtiauth_4738
982,"(77, 566, 375)",2,mbtiauth_4738
983,"(77, 693, 409)",2,mbtiauth_4738
984,"(77, 856, 31)",2,mbtiauth_4738
985,"(77, 921, 2)",2,mbtiauth_4738
986,"(77, 2252, 64)",2,mbtiauth_4738
987,"(123, 2, 22)",2,mbtiauth_4738
988,"(123, 2, 64)",3,mbtiauth_4738
989,"(123, 2, 123)",2,mbtiauth_4738
990,"(123, 22, 22)",2,mbtiauth_4738
991,"(123, 32, 22)",2,mbtiauth_4738
992,"(123, 32, 50)",2,mbtiauth_4738
993,"(123, 41, 2)",2,mbtiauth_4738
994,"(123, 41, 41)",3,mbtiauth_4738
995,"(123, 41, 921)",2,mbtiauth_4738
996,"(123, 50, 228)",2,mbtiauth_4738
997,"(123, 64, 2)",3,mbtiauth_4738
998,"(123, 64, 22)",5,mbtiauth_4738
999,"(123, 64, 33)",2,mbtiauth_4738
1000,"(123, 64, 64)",3,mbtiauth_4738
1001,"(123, 65, 32)",3,mbtiauth_4738
1002,"(123, 65, 76)",2,mbtiauth_4738
1003,"(123, 67, 431)",2,mbtiauth_4738
1004,"(123, 160, 22)",2,mbtiauth_4738
1005,"(123, 160, 33)",2,mbtiauth_4738
1006,"(123, 160, 64)",3,mbtiauth_4738
1007,"(123, 165, 2)",2,mbtiauth_4738
1008,"(123, 165, 32)",2,mbtiauth_4738
1009,"(123, 165, 441)",2,mbtiauth_4738
1010,"(123, 193, 64)",2,mbtiauth_4738
1011,"(123, 193, 154)",2,mbtiauth_4738
1012,"(123, 198, 152)",2,mbtiauth_4738
1013,"(123, 206, 2)",2,mbtiauth_4738
1014,"(123, 210, 22)",2,mbtiauth_4738
1015,"(123, 210, 64)",2,mbtiauth_4738
1016,"(123, 212, 64)",2,mbtiauth_4738
1017,"(123, 212, 123)",2,mbtiauth_4738
1018,"(123, 237, 22)",2,mbtiauth_4738
1019,"(123, 326, 2)",2,mbtiauth_4738
1020,"(123, 340, 32)",2,mbtiauth_4738
1021,"(123, 340, 599)",2,mbtiauth_4738
1022,"(123, 356, 64)",2,mbtiauth_4738
1023,"(123, 356, 154)",2,mbtiauth_4738
1024,"(123, 441, 2)",2,mbtiauth_4738
1025,"(123, 505, 2)",2,mbtiauth_4738
1026,"(123, 566, 64)",2,mbtiauth_4738
1027,"(123, 638, 32)",2,mbtiauth_4738
1028,"(123, 921, 2)",2,mbtiauth_4738
1029,"(144, 41, 22)",2,mbtiauth_4738
1030,"(154, 33, 2)",2,mbtiauth_4738
1031,"(154, 123, 1913)",2,mbtiauth_4738
1032,"(154, 165, 67)",2,mbtiauth_4738
1033,"(158, 64, 41)",2,mbtiauth_4738
1034,"(159, 64, 154)",2,mbtiauth_4738
1035,"(160, 22, 22)",2,mbtiauth_4738
1036,"(160, 64, 22)",2,mbtiauth_4738
1037,"(160, 64, 33)",2,mbtiauth_4738
1038,"(165, 441, 2)",2,mbtiauth_4738
1039,"(170, 65, 6)",2,mbtiauth_4738
1040,"(170, 65, 1224)",2,mbtiauth_4738
1041,"(170, 65, 1793)",2,mbtiauth_4738
1042,"(170, 1224, 6)",2,mbtiauth_4738
1043,"(170, 1224, 1793)",2,mbtiauth_4738
1044,"(170, 1793, 6)",2,mbtiauth_4738
1045,"(183, 41, 22)",2,mbtiauth_4738
1046,"(183, 41, 32)",2,mbtiauth_4738
1047,"(183, 41, 1191)",2,mbtiauth_4738
1048,"(183, 1191, 22)",2,mbtiauth_4738
1049,"(183, 1191, 32)",2,mbtiauth_4738
1050,"(193, 41, 286)",2,mbtiauth_4738
1051,"(193, 154, 33)",2,mbtiauth_4738
1052,"(198, 164, 50)",2,mbtiauth_4738
1053,"(200, 154, 65)",2,mbtiauth_4738
1054,"(201, 170, 66)",2,mbtiauth_4738
1055,"(206, 65, 2)",2,mbtiauth_4738
1056,"(206, 655, 2)",2,mbtiauth_4738
1057,"(210, 64, 22)",2,mbtiauth_4738
1058,"(246, 77, 262)",2,mbtiauth_4738
1059,"(268, 65, 31)",2,mbtiauth_4738
1060,"(268, 9287, 33)",2,mbtiauth_4738
1061,"(276, 2, 123)",2,mbtiauth_4738
1062,"(356, 64, 651)",2,mbtiauth_4738
1063,"(364, 64, 50)",2,mbtiauth_4738
1064,"(364, 64, 65)",2,mbtiauth_4738
1065,"(364, 64, 154)",2,mbtiauth_4738
1066,"(364, 64, 164)",2,mbtiauth_4738
1067,"(364, 64, 200)",2,mbtiauth_4738
1068,"(364, 64, 268)",2,mbtiauth_4738
1069,"(364, 154, 65)",2,mbtiauth_4738
1070,"(364, 200, 65)",2,mbtiauth_4738
1071,"(364, 200, 154)",2,mbtiauth_4738
1072,"(443, 77, 77)",2,mbtiauth_4738
1073,"(443, 190, 291)",2,mbtiauth_4738
1074,"(443, 2910, 291)",2,mbtiauth_4738
1075,"(505, 2, 64)",3,mbtiauth_4738
1076,"(505, 566, 64)",2,mbtiauth_4738
1077,"(566, 2, 193)",2,mbtiauth_4738
1078,"(566, 64, 22)",2,mbtiauth_4738
1079,"(566, 64, 222)",2,mbtiauth_4738
1080,"(566, 921, 22)",2,mbtiauth_4738
1081,"(566, 921, 64)",2,mbtiauth_4738
1082,"(566, 2936, 64)",2,mbtiauth_4738
1083,"(599, 32, 2)",2,mbtiauth_4738
1084,"(599, 254, 32)",2,mbtiauth_4738
1085,"(651, 65, 2)",2,mbtiauth_4738
1086,"(823, 31, 769)",2,mbtiauth_4738
1087,"(921, 64, 22)",2,mbtiauth_4738
1088,"(1191, 41, 22)",2,mbtiauth_4738
1089,"(1224, 1793, 6)",2,mbtiauth_4738
1090,"(1760, 64, 77)",2,mbtiauth_4738
1091,"(1973, 41, 286)",2,mbtiauth_4738
1092,"(1978, 2, 505)",2,mbtiauth_4738
1093,"(2252, 64, 693)",2,mbtiauth_4738
1094,"(2, 41, 64, 22)",2,mbtiauth_4738
1095,"(10, 22, 64, 41)",2,mbtiauth_4738
1096,"(10, 22, 158, 41)",2,mbtiauth_4738
1097,"(10, 22, 158, 64)",2,mbtiauth_4738
1098,"(10, 158, 64, 41)",2,mbtiauth_4738
1099,"(16, 64, 164, 65)",2,mbtiauth_4738
1100,"(22, 158, 64, 41)",2,mbtiauth_4738
1101,"(32, 2, 123, 193)",2,mbtiauth_4738
1102,"(41, 10, 417, 41)",2,mbtiauth_4738
1103,"(41, 41, 1193, 32)",2,mbtiauth_4738
1104,"(41, 64, 41, 64)",2,mbtiauth_4738
1105,"(41, 64, 566, 921)",2,mbtiauth_4738
1106,"(50, 64, 2, 64)",2,mbtiauth_4738
1107,"(64, 13, 65, 31)",2,mbtiauth_4738
1108,"(64, 22, 33, 33)",2,mbtiauth_4738
1109,"(64, 200, 154, 65)",2,mbtiauth_4738
1110,"(64, 566, 64, 22)",2,mbtiauth_4738
1111,"(64, 566, 921, 22)",2,mbtiauth_4738
1112,"(64, 566, 921, 64)",2,mbtiauth_4738
1113,"(64, 921, 64, 22)",2,mbtiauth_4738
1114,"(65, 1224, 1793, 6)",2,mbtiauth_4738
1115,"(77, 77, 2, 123)",2,mbtiauth_4738
1116,"(77, 77, 77, 77)",3,mbtiauth_4738
1117,"(77, 77, 77, 276)",2,mbtiauth_4738
1118,"(77, 77, 276, 2)",2,mbtiauth_4738
1119,"(77, 77, 276, 123)",2,mbtiauth_4738
1120,"(77, 276, 2, 123)",2,mbtiauth_4738
1121,"(123, 41, 921, 2)",2,mbtiauth_4738
1122,"(123, 64, 2, 64)",2,mbtiauth_4738
1123,"(123, 64, 64, 22)",2,mbtiauth_4738
1124,"(123, 160, 64, 22)",2,mbtiauth_4738
1125,"(123, 160, 64, 33)",2,mbtiauth_4738
1126,"(123, 165, 441, 2)",2,mbtiauth_4738
1127,"(123, 210, 64, 22)",2,mbtiauth_4738
1128,"(160, 64, 22, 22)",2,mbtiauth_4738
1129,"(170, 65, 1224, 6)",2,mbtiauth_4738
1130,"(170, 65, 1224, 1793)",2,mbtiauth_4738
1131,"(170, 65, 1793, 6)",2,mbtiauth_4738
1132,"(170, 1224, 1793, 6)",2,mbtiauth_4738
1133,"(183, 41, 1191, 22)",2,mbtiauth_4738
1134,"(183, 41, 1191, 32)",2,mbtiauth_4738
1135,"(364, 64, 154, 65)",2,mbtiauth_4738
1136,"(364, 64, 200, 65)",2,mbtiauth_4738
1137,"(364, 64, 200, 154)",2,mbtiauth_4738
1138,"(364, 200, 154, 65)",2,mbtiauth_4738
1139,"(566, 921, 64, 22)",2,mbtiauth_4738
1140,"(10, 22, 158, 64, 41)",2,mbtiauth_4738
1141,"(64, 566, 921, 64, 22)",2,mbtiauth_4738
1142,"(77, 77, 77, 77, 77)",2,mbtiauth_4738
1143,"(77, 77, 276, 2, 123)",2,mbtiauth_4738
1144,"(170, 65, 1224, 1793, 6)",2,mbtiauth_4738
1145,"(364, 64, 200, 154, 65)",2,mbtiauth_4738
