,pattern,sup,author
697,"(2, 22, 33)",2,mbtiauth_5063
698,"(2, 77, 2295)",2,mbtiauth_5063
699,"(2, 123, 10)",2,mbtiauth_5063
700,"(2, 123, 693)",2,mbtiauth_5063
701,"(2, 123, 2294)",2,mbtiauth_5063
702,"(2, 262, 2)",2,mbtiauth_5063
703,"(2, 1440, 33)",2,mbtiauth_5063
704,"(2, 2294, 693)",2,mbtiauth_5063
705,"(3, 64, 64)",2,mbtiauth_5063
706,"(10, 2, 50)",2,mbtiauth_5063
707,"(10, 22, 22)",2,mbtiauth_5063
708,"(10, 22, 50)",2,mbtiauth_5063
709,"(10, 22, 71)",2,mbtiauth_5063
710,"(10, 22, 3070)",2,mbtiauth_5063
711,"(10, 32, 22)",3,mbtiauth_5063
712,"(10, 32, 3070)",2,mbtiauth_5063
713,"(10, 71, 50)",2,mbtiauth_5063
714,"(10, 152, 198)",2,mbtiauth_5063
715,"(10, 262, 77)",2,mbtiauth_5063
716,"(10, 4050, 22)",2,mbtiauth_5063
717,"(10, 4050, 32)",2,mbtiauth_5063
718,"(10, 4050, 3070)",2,mbtiauth_5063
719,"(15, 123, 33)",2,mbtiauth_5063
720,"(16, 10, 32)",2,mbtiauth_5063
721,"(16, 117, 66)",2,mbtiauth_5063
722,"(16, 4141, 193)",2,mbtiauth_5063
723,"(22, 10, 22)",3,mbtiauth_5063
724,"(22, 10, 32)",2,mbtiauth_5063
725,"(22, 10, 193)",2,mbtiauth_5063
726,"(22, 10, 3070)",2,mbtiauth_5063
727,"(22, 10, 4050)",2,mbtiauth_5063
728,"(22, 22, 22)",2,mbtiauth_5063
729,"(22, 22, 3070)",2,mbtiauth_5063
730,"(22, 32, 22)",4,mbtiauth_5063
731,"(22, 32, 77)",2,mbtiauth_5063
732,"(22, 32, 78)",2,mbtiauth_5063
733,"(22, 32, 123)",2,mbtiauth_5063
734,"(22, 32, 262)",2,mbtiauth_5063
735,"(22, 32, 3070)",2,mbtiauth_5063
736,"(22, 64, 33)",2,mbtiauth_5063
737,"(22, 64, 77)",2,mbtiauth_5063
738,"(22, 64, 519)",2,mbtiauth_5063
739,"(22, 71, 2)",2,mbtiauth_5063
740,"(22, 71, 22)",3,mbtiauth_5063
741,"(22, 71, 32)",2,mbtiauth_5063
742,"(22, 71, 50)",2,mbtiauth_5063
743,"(22, 71, 162)",2,mbtiauth_5063
744,"(22, 71, 171)",2,mbtiauth_5063
745,"(22, 71, 193)",2,mbtiauth_5063
746,"(22, 71, 349)",2,mbtiauth_5063
747,"(22, 77, 2)",2,mbtiauth_5063
748,"(22, 77, 22)",2,mbtiauth_5063
749,"(22, 77, 32)",2,mbtiauth_5063
750,"(22, 77, 78)",2,mbtiauth_5063
751,"(22, 123, 76)",2,mbtiauth_5063
752,"(22, 162, 171)",2,mbtiauth_5063
753,"(22, 171, 64)",3,mbtiauth_5063
754,"(22, 171, 519)",2,mbtiauth_5063
755,"(22, 171, 1160)",2,mbtiauth_5063
756,"(22, 193, 10)",2,mbtiauth_5063
757,"(22, 193, 22)",2,mbtiauth_5063
758,"(22, 193, 32)",2,mbtiauth_5063
759,"(22, 193, 3070)",2,mbtiauth_5063
760,"(22, 193, 4050)",2,mbtiauth_5063
761,"(22, 262, 263)",2,mbtiauth_5063
762,"(22, 349, 193)",2,mbtiauth_5063
763,"(22, 441, 64)",2,mbtiauth_5063
764,"(22, 3400, 224)",2,mbtiauth_5063
765,"(22, 4050, 22)",2,mbtiauth_5063
766,"(22, 4050, 32)",2,mbtiauth_5063
767,"(22, 4050, 3070)",2,mbtiauth_5063
768,"(27, 41, 77)",2,mbtiauth_5063
769,"(27, 64, 77)",2,mbtiauth_5063
770,"(29, 519, 22)",2,mbtiauth_5063
771,"(29, 519, 1440)",2,mbtiauth_5063
772,"(31, 2, 123)",2,mbtiauth_5063
773,"(32, 2, 65)",2,mbtiauth_5063
774,"(32, 10, 76)",2,mbtiauth_5063
775,"(32, 22, 349)",2,mbtiauth_5063
776,"(32, 22, 3070)",2,mbtiauth_5063
777,"(32, 77, 152)",2,mbtiauth_5063
778,"(32, 262, 263)",2,mbtiauth_5063
779,"(33, 29, 22)",2,mbtiauth_5063
780,"(33, 29, 519)",2,mbtiauth_5063
781,"(33, 29, 1440)",2,mbtiauth_5063
782,"(33, 50, 152)",2,mbtiauth_5063
783,"(33, 519, 22)",2,mbtiauth_5063
784,"(33, 519, 1440)",2,mbtiauth_5063
785,"(41, 10, 152)",2,mbtiauth_5063
786,"(41, 32, 77)",2,mbtiauth_5063
787,"(41, 32, 152)",2,mbtiauth_5063
788,"(41, 65, 29)",2,mbtiauth_5063
789,"(41, 65, 33)",2,mbtiauth_5063
790,"(41, 65, 65)",2,mbtiauth_5063
791,"(41, 65, 519)",2,mbtiauth_5063
792,"(41, 77, 77)",2,mbtiauth_5063
793,"(41, 77, 152)",2,mbtiauth_5063
794,"(41, 441, 262)",2,mbtiauth_5063
795,"(41, 519, 33)",2,mbtiauth_5063
796,"(50, 152, 193)",2,mbtiauth_5063
797,"(64, 2, 50)",2,mbtiauth_5063
798,"(64, 2, 237)",2,mbtiauth_5063
799,"(64, 10, 22)",2,mbtiauth_5063
800,"(64, 10, 50)",2,mbtiauth_5063
801,"(64, 10, 77)",3,mbtiauth_5063
802,"(64, 10, 262)",2,mbtiauth_5063
803,"(64, 22, 10)",2,mbtiauth_5063
804,"(64, 22, 77)",2,mbtiauth_5063
805,"(64, 50, 32)",2,mbtiauth_5063
806,"(64, 50, 262)",2,mbtiauth_5063
807,"(64, 77, 2)",3,mbtiauth_5063
808,"(64, 77, 50)",2,mbtiauth_5063
809,"(64, 77, 154)",2,mbtiauth_5063
810,"(64, 77, 237)",2,mbtiauth_5063
811,"(64, 77, 599)",2,mbtiauth_5063
812,"(64, 225, 10)",2,mbtiauth_5063
813,"(64, 225, 77)",2,mbtiauth_5063
814,"(64, 225, 262)",2,mbtiauth_5063
815,"(64, 262, 77)",2,mbtiauth_5063
816,"(64, 262, 154)",2,mbtiauth_5063
817,"(64, 262, 263)",2,mbtiauth_5063
818,"(64, 1335, 10)",2,mbtiauth_5063
819,"(65, 164, 77)",2,mbtiauth_5063
820,"(65, 519, 33)",2,mbtiauth_5063
821,"(66, 32, 22)",2,mbtiauth_5063
822,"(71, 22, 2)",2,mbtiauth_5063
823,"(71, 32, 22)",2,mbtiauth_5063
824,"(71, 162, 171)",2,mbtiauth_5063
825,"(71, 162, 1160)",2,mbtiauth_5063
826,"(71, 171, 1160)",2,mbtiauth_5063
827,"(71, 349, 193)",2,mbtiauth_5063
828,"(77, 2, 22)",3,mbtiauth_5063
829,"(77, 2, 77)",2,mbtiauth_5063
830,"(77, 2, 237)",2,mbtiauth_5063
831,"(77, 2, 2295)",2,mbtiauth_5063
832,"(77, 22, 10)",2,mbtiauth_5063
833,"(77, 22, 22)",2,mbtiauth_5063
834,"(77, 22, 29)",2,mbtiauth_5063
835,"(77, 22, 32)",3,mbtiauth_5063
836,"(77, 32, 22)",3,mbtiauth_5063
837,"(77, 33, 154)",2,mbtiauth_5063
838,"(77, 50, 22)",2,mbtiauth_5063
839,"(77, 50, 32)",2,mbtiauth_5063
840,"(77, 64, 22)",2,mbtiauth_5063
841,"(77, 77, 154)",2,mbtiauth_5063
842,"(77, 77, 2295)",2,mbtiauth_5063
843,"(77, 123, 22)",2,mbtiauth_5063
844,"(77, 123, 29)",2,mbtiauth_5063
845,"(77, 123, 64)",2,mbtiauth_5063
846,"(77, 154, 16)",2,mbtiauth_5063
847,"(77, 154, 768)",2,mbtiauth_5063
848,"(77, 158, 2)",2,mbtiauth_5063
849,"(77, 170, 22)",2,mbtiauth_5063
850,"(77, 193, 170)",2,mbtiauth_5063
851,"(77, 222, 77)",2,mbtiauth_5063
852,"(77, 225, 183)",2,mbtiauth_5063
853,"(77, 599, 123)",2,mbtiauth_5063
854,"(77, 599, 164)",2,mbtiauth_5063
855,"(77, 768, 16)",2,mbtiauth_5063
856,"(77, 1738, 78)",2,mbtiauth_5063
857,"(77, 2658, 77)",2,mbtiauth_5063
858,"(77, 2658, 222)",2,mbtiauth_5063
859,"(78, 2310, 33)",2,mbtiauth_5063
860,"(83, 64, 10)",2,mbtiauth_5063
861,"(117, 10, 77)",2,mbtiauth_5063
862,"(117, 22, 22)",2,mbtiauth_5063
863,"(117, 22, 32)",2,mbtiauth_5063
864,"(117, 32, 22)",2,mbtiauth_5063
865,"(117, 262, 10)",2,mbtiauth_5063
866,"(117, 262, 77)",2,mbtiauth_5063
867,"(117, 262, 1335)",2,mbtiauth_5063
868,"(117, 1335, 10)",2,mbtiauth_5063
869,"(117, 1335, 77)",2,mbtiauth_5063
870,"(123, 2, 50)",2,mbtiauth_5063
871,"(123, 3, 64)",2,mbtiauth_5063
872,"(123, 10, 2)",2,mbtiauth_5063
873,"(123, 10, 50)",3,mbtiauth_5063
874,"(123, 10, 76)",2,mbtiauth_5063
875,"(123, 22, 10)",2,mbtiauth_5063
876,"(123, 22, 29)",2,mbtiauth_5063
877,"(123, 22, 32)",3,mbtiauth_5063
878,"(123, 22, 64)",3,mbtiauth_5063
879,"(123, 22, 77)",3,mbtiauth_5063
880,"(123, 22, 78)",2,mbtiauth_5063
881,"(123, 32, 65)",2,mbtiauth_5063
882,"(123, 32, 78)",2,mbtiauth_5063
883,"(123, 32, 262)",2,mbtiauth_5063
884,"(123, 32, 263)",2,mbtiauth_5063
885,"(123, 33, 50)",2,mbtiauth_5063
886,"(123, 41, 77)",3,mbtiauth_5063
887,"(123, 50, 262)",2,mbtiauth_5063
888,"(123, 64, 2)",3,mbtiauth_5063
889,"(123, 64, 10)",2,mbtiauth_5063
890,"(123, 64, 22)",4,mbtiauth_5063
891,"(123, 64, 33)",3,mbtiauth_5063
892,"(123, 64, 50)",4,mbtiauth_5063
893,"(123, 64, 64)",3,mbtiauth_5063
894,"(123, 64, 77)",4,mbtiauth_5063
895,"(123, 64, 123)",2,mbtiauth_5063
896,"(123, 64, 154)",2,mbtiauth_5063
897,"(123, 64, 206)",2,mbtiauth_5063
898,"(123, 64, 262)",3,mbtiauth_5063
899,"(123, 64, 285)",2,mbtiauth_5063
900,"(123, 64, 381)",2,mbtiauth_5063
901,"(123, 64, 441)",2,mbtiauth_5063
902,"(123, 64, 519)",2,mbtiauth_5063
903,"(123, 64, 599)",2,mbtiauth_5063
904,"(123, 64, 1062)",2,mbtiauth_5063
905,"(123, 64, 1364)",2,mbtiauth_5063
906,"(123, 64, 3400)",2,mbtiauth_5063
907,"(123, 77, 2)",3,mbtiauth_5063
908,"(123, 77, 123)",2,mbtiauth_5063
909,"(123, 77, 151)",2,mbtiauth_5063
910,"(123, 77, 599)",2,mbtiauth_5063
911,"(123, 83, 64)",2,mbtiauth_5063
912,"(123, 123, 10)",2,mbtiauth_5063
913,"(123, 123, 64)",3,mbtiauth_5063
914,"(123, 123, 65)",2,mbtiauth_5063
915,"(123, 123, 1193)",2,mbtiauth_5063
916,"(123, 144, 153)",2,mbtiauth_5063
917,"(123, 144, 154)",2,mbtiauth_5063
918,"(123, 164, 2)",2,mbtiauth_5063
919,"(123, 164, 41)",2,mbtiauth_5063
920,"(123, 164, 77)",3,mbtiauth_5063
921,"(123, 174, 64)",2,mbtiauth_5063
922,"(123, 174, 154)",2,mbtiauth_5063
923,"(123, 193, 64)",3,mbtiauth_5063
924,"(123, 262, 263)",2,mbtiauth_5063
925,"(123, 286, 64)",2,mbtiauth_5063
926,"(123, 286, 77)",2,mbtiauth_5063
927,"(123, 286, 123)",3,mbtiauth_5063
928,"(123, 286, 151)",2,mbtiauth_5063
929,"(123, 286, 599)",2,mbtiauth_5063
930,"(123, 326, 11)",2,mbtiauth_5063
931,"(123, 356, 10)",2,mbtiauth_5063
932,"(123, 356, 22)",2,mbtiauth_5063
933,"(123, 407, 10)",2,mbtiauth_5063
934,"(123, 407, 65)",2,mbtiauth_5063
935,"(123, 407, 76)",2,mbtiauth_5063
936,"(123, 441, 22)",2,mbtiauth_5063
937,"(123, 441, 64)",3,mbtiauth_5063
938,"(123, 441, 154)",2,mbtiauth_5063
939,"(123, 441, 519)",2,mbtiauth_5063
940,"(123, 1364, 41)",2,mbtiauth_5063
941,"(123, 1364, 164)",2,mbtiauth_5063
942,"(123, 2124, 22)",2,mbtiauth_5063
943,"(123, 2124, 64)",2,mbtiauth_5063
944,"(123, 2294, 693)",2,mbtiauth_5063
945,"(144, 41, 77)",3,mbtiauth_5063
946,"(152, 213, 225)",2,mbtiauth_5063
947,"(154, 77, 154)",2,mbtiauth_5063
948,"(154, 77, 768)",2,mbtiauth_5063
949,"(154, 154, 77)",2,mbtiauth_5063
950,"(154, 154, 154)",2,mbtiauth_5063
951,"(154, 154, 193)",2,mbtiauth_5063
952,"(154, 154, 768)",2,mbtiauth_5063
953,"(154, 170, 384)",2,mbtiauth_5063
954,"(154, 193, 77)",2,mbtiauth_5063
955,"(154, 193, 154)",2,mbtiauth_5063
956,"(154, 193, 768)",2,mbtiauth_5063
957,"(154, 768, 16)",2,mbtiauth_5063
958,"(160, 64, 189)",2,mbtiauth_5063
959,"(162, 171, 65)",2,mbtiauth_5063
960,"(162, 171, 1160)",2,mbtiauth_5063
961,"(165, 16, 4141)",2,mbtiauth_5063
962,"(171, 10, 65)",2,mbtiauth_5063
963,"(171, 64, 519)",2,mbtiauth_5063
964,"(171, 2134, 153)",2,mbtiauth_5063
965,"(174, 64, 1335)",2,mbtiauth_5063
966,"(183, 64, 2)",2,mbtiauth_5063
967,"(183, 64, 77)",2,mbtiauth_5063
968,"(183, 77, 2)",3,mbtiauth_5063
969,"(183, 77, 158)",2,mbtiauth_5063
970,"(183, 158, 2)",2,mbtiauth_5063
971,"(193, 10, 22)",2,mbtiauth_5063
972,"(193, 10, 32)",2,mbtiauth_5063
973,"(193, 10, 3070)",2,mbtiauth_5063
974,"(193, 10, 4050)",2,mbtiauth_5063
975,"(193, 22, 3070)",2,mbtiauth_5063
976,"(193, 32, 22)",2,mbtiauth_5063
977,"(193, 32, 3070)",2,mbtiauth_5063
978,"(193, 64, 10)",2,mbtiauth_5063
979,"(193, 64, 123)",2,mbtiauth_5063
980,"(193, 77, 154)",2,mbtiauth_5063
981,"(193, 77, 768)",2,mbtiauth_5063
982,"(193, 154, 768)",2,mbtiauth_5063
983,"(193, 165, 16)",2,mbtiauth_5063
984,"(193, 170, 22)",3,mbtiauth_5063
985,"(193, 4050, 22)",2,mbtiauth_5063
986,"(193, 4050, 32)",2,mbtiauth_5063
987,"(193, 4050, 3070)",2,mbtiauth_5063
988,"(206, 193, 206)",2,mbtiauth_5063
989,"(223, 22, 32)",2,mbtiauth_5063
990,"(225, 10, 77)",2,mbtiauth_5063
991,"(225, 10, 262)",2,mbtiauth_5063
992,"(225, 262, 77)",2,mbtiauth_5063
993,"(262, 2, 2)",2,mbtiauth_5063
994,"(262, 2, 262)",2,mbtiauth_5063
995,"(262, 10, 77)",2,mbtiauth_5063
996,"(262, 77, 77)",2,mbtiauth_5063
997,"(262, 77, 225)",2,mbtiauth_5063
998,"(262, 262, 2)",2,mbtiauth_5063
999,"(262, 1335, 10)",2,mbtiauth_5063
1000,"(262, 1335, 77)",2,mbtiauth_5063
1001,"(286, 64, 77)",2,mbtiauth_5063
1002,"(286, 64, 599)",2,mbtiauth_5063
1003,"(286, 77, 599)",2,mbtiauth_5063
1004,"(356, 22, 10)",2,mbtiauth_5063
1005,"(407, 10, 76)",2,mbtiauth_5063
1006,"(441, 3, 64)",2,mbtiauth_5063
1007,"(441, 3, 77)",2,mbtiauth_5063
1008,"(441, 29, 519)",2,mbtiauth_5063
1009,"(441, 32, 77)",3,mbtiauth_5063
1010,"(441, 32, 152)",2,mbtiauth_5063
1011,"(441, 64, 154)",2,mbtiauth_5063
1012,"(441, 64, 519)",2,mbtiauth_5063
1013,"(441, 77, 152)",2,mbtiauth_5063
1014,"(441, 519, 519)",2,mbtiauth_5063
1015,"(518, 22, 10)",2,mbtiauth_5063
1016,"(518, 123, 10)",2,mbtiauth_5063
1017,"(518, 123, 22)",3,mbtiauth_5063
1018,"(518, 123, 356)",2,mbtiauth_5063
1019,"(518, 356, 10)",2,mbtiauth_5063
1020,"(518, 356, 22)",2,mbtiauth_5063
1021,"(519, 2, 22)",2,mbtiauth_5063
1022,"(519, 2, 33)",2,mbtiauth_5063
1023,"(519, 2, 1440)",2,mbtiauth_5063
1024,"(519, 33, 33)",2,mbtiauth_5063
1025,"(519, 384, 519)",2,mbtiauth_5063
1026,"(519, 1440, 33)",2,mbtiauth_5063
1027,"(599, 123, 223)",2,mbtiauth_5063
1028,"(1335, 10, 77)",2,mbtiauth_5063
1029,"(1364, 164, 41)",2,mbtiauth_5063
1030,"(2124, 22, 64)",2,mbtiauth_5063
1031,"(2658, 222, 77)",2,mbtiauth_5063
1032,"(4050, 22, 3070)",2,mbtiauth_5063
1033,"(4050, 32, 22)",2,mbtiauth_5063
1034,"(4050, 32, 3070)",2,mbtiauth_5063
1035,"(2, 123, 2294, 693)",2,mbtiauth_5063
1036,"(10, 22, 71, 50)",2,mbtiauth_5063
1037,"(10, 32, 22, 3070)",2,mbtiauth_5063
1038,"(10, 4050, 22, 3070)",2,mbtiauth_5063
1039,"(10, 4050, 32, 22)",2,mbtiauth_5063
1040,"(10, 4050, 32, 3070)",2,mbtiauth_5063
1041,"(22, 10, 22, 3070)",2,mbtiauth_5063
1042,"(22, 10, 32, 22)",2,mbtiauth_5063
1043,"(22, 10, 32, 3070)",2,mbtiauth_5063
1044,"(22, 10, 4050, 22)",2,mbtiauth_5063
1045,"(22, 10, 4050, 32)",2,mbtiauth_5063
1046,"(22, 10, 4050, 3070)",2,mbtiauth_5063
1047,"(22, 32, 22, 3070)",2,mbtiauth_5063
1048,"(22, 71, 32, 22)",2,mbtiauth_5063
1049,"(22, 71, 162, 171)",2,mbtiauth_5063
1050,"(22, 71, 349, 193)",2,mbtiauth_5063
1051,"(22, 77, 32, 22)",2,mbtiauth_5063
1052,"(22, 171, 64, 519)",2,mbtiauth_5063
1053,"(22, 193, 10, 22)",2,mbtiauth_5063
1054,"(22, 193, 10, 32)",2,mbtiauth_5063
1055,"(22, 193, 10, 3070)",2,mbtiauth_5063
1056,"(22, 193, 10, 4050)",2,mbtiauth_5063
1057,"(22, 193, 22, 3070)",2,mbtiauth_5063
1058,"(22, 193, 32, 22)",2,mbtiauth_5063
1059,"(22, 193, 32, 3070)",2,mbtiauth_5063
1060,"(22, 193, 4050, 22)",2,mbtiauth_5063
1061,"(22, 193, 4050, 32)",2,mbtiauth_5063
1062,"(22, 193, 4050, 3070)",2,mbtiauth_5063
1063,"(22, 4050, 22, 3070)",2,mbtiauth_5063
1064,"(22, 4050, 32, 22)",2,mbtiauth_5063
1065,"(22, 4050, 32, 3070)",2,mbtiauth_5063
1066,"(33, 29, 519, 22)",2,mbtiauth_5063
1067,"(33, 29, 519, 1440)",2,mbtiauth_5063
1068,"(41, 32, 77, 152)",2,mbtiauth_5063
1069,"(41, 65, 519, 33)",2,mbtiauth_5063
1070,"(64, 10, 262, 77)",2,mbtiauth_5063
1071,"(64, 77, 2, 237)",2,mbtiauth_5063
1072,"(64, 225, 10, 77)",2,mbtiauth_5063
1073,"(64, 225, 10, 262)",2,mbtiauth_5063
1074,"(64, 225, 262, 77)",2,mbtiauth_5063
1075,"(71, 162, 171, 1160)",2,mbtiauth_5063
1076,"(77, 2, 77, 2295)",2,mbtiauth_5063
1077,"(77, 22, 32, 22)",2,mbtiauth_5063
1078,"(77, 123, 22, 29)",2,mbtiauth_5063
1079,"(77, 154, 768, 16)",2,mbtiauth_5063
1080,"(77, 2658, 222, 77)",2,mbtiauth_5063
1081,"(117, 22, 32, 22)",2,mbtiauth_5063
1082,"(117, 262, 10, 77)",2,mbtiauth_5063
1083,"(117, 262, 1335, 10)",2,mbtiauth_5063
1084,"(117, 262, 1335, 77)",2,mbtiauth_5063
1085,"(117, 1335, 10, 77)",2,mbtiauth_5063
1086,"(123, 10, 2, 50)",2,mbtiauth_5063
1087,"(123, 22, 32, 78)",2,mbtiauth_5063
1088,"(123, 32, 262, 263)",2,mbtiauth_5063
1089,"(123, 64, 2, 50)",2,mbtiauth_5063
1090,"(123, 64, 10, 50)",2,mbtiauth_5063
1091,"(123, 64, 50, 262)",2,mbtiauth_5063
1092,"(123, 64, 77, 2)",2,mbtiauth_5063
1093,"(123, 64, 77, 599)",2,mbtiauth_5063
1094,"(123, 286, 64, 77)",2,mbtiauth_5063
1095,"(123, 286, 64, 599)",2,mbtiauth_5063
1096,"(123, 286, 77, 599)",2,mbtiauth_5063
1097,"(123, 356, 22, 10)",2,mbtiauth_5063
1098,"(123, 407, 10, 76)",2,mbtiauth_5063
1099,"(123, 441, 64, 154)",2,mbtiauth_5063
1100,"(123, 441, 64, 519)",2,mbtiauth_5063
1101,"(123, 1364, 164, 41)",2,mbtiauth_5063
1102,"(123, 2124, 22, 64)",2,mbtiauth_5063
1103,"(154, 77, 154, 768)",2,mbtiauth_5063
1104,"(154, 154, 77, 154)",2,mbtiauth_5063
1105,"(154, 154, 77, 768)",2,mbtiauth_5063
1106,"(154, 154, 154, 768)",2,mbtiauth_5063
1107,"(154, 154, 193, 77)",2,mbtiauth_5063
1108,"(154, 154, 193, 154)",2,mbtiauth_5063
1109,"(154, 154, 193, 768)",2,mbtiauth_5063
1110,"(154, 193, 77, 154)",2,mbtiauth_5063
1111,"(154, 193, 77, 768)",2,mbtiauth_5063
1112,"(154, 193, 154, 768)",2,mbtiauth_5063
1113,"(183, 64, 77, 2)",2,mbtiauth_5063
1114,"(183, 77, 158, 2)",2,mbtiauth_5063
1115,"(193, 10, 22, 3070)",2,mbtiauth_5063
1116,"(193, 10, 32, 22)",2,mbtiauth_5063
1117,"(193, 10, 32, 3070)",2,mbtiauth_5063
1118,"(193, 10, 4050, 22)",2,mbtiauth_5063
1119,"(193, 10, 4050, 32)",2,mbtiauth_5063
1120,"(193, 10, 4050, 3070)",2,mbtiauth_5063
1121,"(193, 32, 22, 3070)",2,mbtiauth_5063
1122,"(193, 77, 154, 768)",2,mbtiauth_5063
1123,"(193, 4050, 22, 3070)",2,mbtiauth_5063
1124,"(193, 4050, 32, 22)",2,mbtiauth_5063
1125,"(193, 4050, 32, 3070)",2,mbtiauth_5063
1126,"(225, 10, 262, 77)",2,mbtiauth_5063
1127,"(262, 2, 262, 2)",2,mbtiauth_5063
1128,"(262, 1335, 10, 77)",2,mbtiauth_5063
1129,"(286, 64, 77, 599)",2,mbtiauth_5063
1130,"(441, 32, 77, 152)",2,mbtiauth_5063
1131,"(518, 123, 22, 10)",2,mbtiauth_5063
1132,"(518, 123, 356, 10)",2,mbtiauth_5063
1133,"(518, 123, 356, 22)",2,mbtiauth_5063
1134,"(518, 356, 22, 10)",2,mbtiauth_5063
1135,"(519, 2, 1440, 33)",2,mbtiauth_5063
1136,"(4050, 32, 22, 3070)",2,mbtiauth_5063
1137,"(10, 4050, 32, 22, 3070)",2,mbtiauth_5063
1138,"(22, 10, 32, 22, 3070)",2,mbtiauth_5063
1139,"(22, 10, 4050, 22, 3070)",2,mbtiauth_5063
1140,"(22, 10, 4050, 32, 22)",2,mbtiauth_5063
1141,"(22, 10, 4050, 32, 3070)",2,mbtiauth_5063
1142,"(22, 193, 10, 22, 3070)",2,mbtiauth_5063
1143,"(22, 193, 10, 32, 22)",2,mbtiauth_5063
1144,"(22, 193, 10, 32, 3070)",2,mbtiauth_5063
1145,"(22, 193, 10, 4050, 22)",2,mbtiauth_5063
1146,"(22, 193, 10, 4050, 32)",2,mbtiauth_5063
1147,"(22, 193, 10, 4050, 3070)",2,mbtiauth_5063
1148,"(22, 193, 32, 22, 3070)",2,mbtiauth_5063
1149,"(22, 193, 4050, 22, 3070)",2,mbtiauth_5063
1150,"(22, 193, 4050, 32, 22)",2,mbtiauth_5063
1151,"(22, 193, 4050, 32, 3070)",2,mbtiauth_5063
1152,"(22, 4050, 32, 22, 3070)",2,mbtiauth_5063
1153,"(64, 225, 10, 262, 77)",2,mbtiauth_5063
1154,"(117, 262, 1335, 10, 77)",2,mbtiauth_5063
1155,"(123, 286, 64, 77, 599)",2,mbtiauth_5063
1156,"(154, 154, 77, 154, 768)",2,mbtiauth_5063
1157,"(154, 154, 193, 77, 154)",2,mbtiauth_5063
1158,"(154, 154, 193, 77, 768)",2,mbtiauth_5063
1159,"(154, 154, 193, 154, 768)",2,mbtiauth_5063
1160,"(154, 193, 77, 154, 768)",2,mbtiauth_5063
1161,"(193, 10, 32, 22, 3070)",2,mbtiauth_5063
1162,"(193, 10, 4050, 22, 3070)",2,mbtiauth_5063
1163,"(193, 10, 4050, 32, 22)",2,mbtiauth_5063
1164,"(193, 10, 4050, 32, 3070)",2,mbtiauth_5063
1165,"(193, 4050, 32, 22, 3070)",2,mbtiauth_5063
1166,"(518, 123, 356, 22, 10)",2,mbtiauth_5063
1167,"(22, 10, 4050, 32, 22, 3070)",2,mbtiauth_5063
1168,"(22, 193, 10, 32, 22, 3070)",2,mbtiauth_5063
1169,"(22, 193, 10, 4050, 22, 3070)",2,mbtiauth_5063
1170,"(22, 193, 10, 4050, 32, 22)",2,mbtiauth_5063
1171,"(22, 193, 10, 4050, 32, 3070)",2,mbtiauth_5063
1172,"(22, 193, 4050, 32, 22, 3070)",2,mbtiauth_5063
1173,"(154, 154, 193, 77, 154, 768)",2,mbtiauth_5063
1174,"(193, 10, 4050, 32, 22, 3070)",2,mbtiauth_5063
1175,"(22, 193, 10, 4050, 32, 22, 3070)",2,mbtiauth_5063
