,pattern,sup,author
554,"(2, 22, 171)",2,mbtiauth_1047
555,"(2, 33, 22)",2,mbtiauth_1047
556,"(2, 123, 32)",2,mbtiauth_1047
557,"(2, 123, 64)",2,mbtiauth_1047
558,"(2, 123, 593)",2,mbtiauth_1047
559,"(2, 206, 50)",2,mbtiauth_1047
560,"(10, 22, 599)",2,mbtiauth_1047
561,"(22, 22, 10)",2,mbtiauth_1047
562,"(22, 22, 50)",2,mbtiauth_1047
563,"(22, 64, 22)",2,mbtiauth_1047
564,"(22, 64, 64)",2,mbtiauth_1047
565,"(22, 77, 2)",2,mbtiauth_1047
566,"(22, 77, 22)",2,mbtiauth_1047
567,"(22, 77, 32)",3,mbtiauth_1047
568,"(22, 77, 77)",3,mbtiauth_1047
569,"(22, 77, 78)",2,mbtiauth_1047
570,"(22, 77, 123)",2,mbtiauth_1047
571,"(22, 77, 193)",3,mbtiauth_1047
572,"(22, 77, 286)",2,mbtiauth_1047
573,"(22, 77, 599)",2,mbtiauth_1047
574,"(22, 123, 286)",2,mbtiauth_1047
575,"(22, 599, 193)",2,mbtiauth_1047
576,"(22, 1610, 32)",2,mbtiauth_1047
577,"(22, 1610, 77)",2,mbtiauth_1047
578,"(32, 64, 50)",3,mbtiauth_1047
579,"(32, 64, 64)",2,mbtiauth_1047
580,"(32, 64, 67)",2,mbtiauth_1047
581,"(32, 64, 326)",2,mbtiauth_1047
582,"(32, 77, 32)",3,mbtiauth_1047
583,"(32, 77, 428)",2,mbtiauth_1047
584,"(32, 285, 41)",2,mbtiauth_1047
585,"(32, 285, 64)",2,mbtiauth_1047
586,"(32, 428, 32)",2,mbtiauth_1047
587,"(32, 656, 64)",2,mbtiauth_1047
588,"(33, 22, 16)",2,mbtiauth_1047
589,"(33, 64, 64)",2,mbtiauth_1047
590,"(33, 364, 33)",2,mbtiauth_1047
591,"(50, 31, 64)",2,mbtiauth_1047
592,"(50, 31, 65)",2,mbtiauth_1047
593,"(50, 64, 50)",2,mbtiauth_1047
594,"(50, 64, 65)",2,mbtiauth_1047
595,"(50, 64, 268)",2,mbtiauth_1047
596,"(50, 65, 64)",2,mbtiauth_1047
597,"(50, 544, 46)",2,mbtiauth_1047
598,"(64, 2, 193)",2,mbtiauth_1047
599,"(64, 22, 22)",2,mbtiauth_1047
600,"(64, 22, 33)",2,mbtiauth_1047
601,"(64, 22, 64)",2,mbtiauth_1047
602,"(64, 22, 77)",3,mbtiauth_1047
603,"(64, 22, 4547)",5,mbtiauth_1047
604,"(64, 64, 22)",2,mbtiauth_1047
605,"(64, 64, 50)",2,mbtiauth_1047
606,"(64, 77, 22)",2,mbtiauth_1047
607,"(64, 77, 193)",2,mbtiauth_1047
608,"(64, 123, 520)",2,mbtiauth_1047
609,"(64, 152, 322)",2,mbtiauth_1047
610,"(64, 268, 32)",2,mbtiauth_1047
611,"(65, 32, 64)",3,mbtiauth_1047
612,"(65, 32, 326)",2,mbtiauth_1047
613,"(65, 32, 656)",2,mbtiauth_1047
614,"(65, 77, 123)",2,mbtiauth_1047
615,"(65, 117, 124)",2,mbtiauth_1047
616,"(65, 268, 65)",2,mbtiauth_1047
617,"(65, 656, 64)",2,mbtiauth_1047
618,"(70, 22, 77)",2,mbtiauth_1047
619,"(77, 22, 16)",2,mbtiauth_1047
620,"(77, 22, 22)",3,mbtiauth_1047
621,"(77, 22, 32)",2,mbtiauth_1047
622,"(77, 22, 365)",2,mbtiauth_1047
623,"(77, 32, 32)",2,mbtiauth_1047
624,"(77, 32, 77)",3,mbtiauth_1047
625,"(77, 32, 154)",2,mbtiauth_1047
626,"(77, 32, 428)",2,mbtiauth_1047
627,"(77, 33, 16)",2,mbtiauth_1047
628,"(77, 33, 22)",3,mbtiauth_1047
629,"(77, 64, 22)",2,mbtiauth_1047
630,"(77, 77, 32)",4,mbtiauth_1047
631,"(77, 77, 77)",5,mbtiauth_1047
632,"(77, 77, 428)",3,mbtiauth_1047
633,"(77, 123, 22)",2,mbtiauth_1047
634,"(77, 123, 32)",2,mbtiauth_1047
635,"(77, 123, 65)",2,mbtiauth_1047
636,"(77, 123, 123)",3,mbtiauth_1047
637,"(77, 123, 268)",2,mbtiauth_1047
638,"(77, 123, 286)",3,mbtiauth_1047
639,"(77, 123, 365)",2,mbtiauth_1047
640,"(77, 123, 593)",3,mbtiauth_1047
641,"(77, 144, 193)",2,mbtiauth_1047
642,"(77, 206, 77)",2,mbtiauth_1047
643,"(77, 286, 123)",2,mbtiauth_1047
644,"(77, 428, 32)",3,mbtiauth_1047
645,"(77, 428, 77)",2,mbtiauth_1047
646,"(77, 428, 428)",2,mbtiauth_1047
647,"(77, 443, 254)",2,mbtiauth_1047
648,"(77, 593, 268)",2,mbtiauth_1047
649,"(77, 599, 193)",3,mbtiauth_1047
650,"(77, 711, 22)",2,mbtiauth_1047
651,"(77, 711, 41)",2,mbtiauth_1047
652,"(77, 711, 123)",2,mbtiauth_1047
653,"(77, 711, 1191)",3,mbtiauth_1047
654,"(77, 850, 77)",2,mbtiauth_1047
655,"(77, 1191, 22)",2,mbtiauth_1047
656,"(77, 1191, 41)",2,mbtiauth_1047
657,"(77, 1191, 123)",2,mbtiauth_1047
658,"(77, 1192, 144)",2,mbtiauth_1047
659,"(77, 1192, 193)",2,mbtiauth_1047
660,"(103, 22, 4547)",5,mbtiauth_1047
661,"(103, 64, 22)",6,mbtiauth_1047
662,"(103, 64, 4547)",5,mbtiauth_1047
663,"(120, 286, 65)",2,mbtiauth_1047
664,"(123, 22, 77)",2,mbtiauth_1047
665,"(123, 22, 171)",3,mbtiauth_1047
666,"(123, 22, 365)",2,mbtiauth_1047
667,"(123, 22, 599)",2,mbtiauth_1047
668,"(123, 32, 64)",2,mbtiauth_1047
669,"(123, 32, 77)",2,mbtiauth_1047
670,"(123, 33, 22)",3,mbtiauth_1047
671,"(123, 50, 50)",2,mbtiauth_1047
672,"(123, 50, 64)",3,mbtiauth_1047
673,"(123, 50, 65)",2,mbtiauth_1047
674,"(123, 64, 2)",3,mbtiauth_1047
675,"(123, 64, 50)",2,mbtiauth_1047
676,"(123, 64, 268)",2,mbtiauth_1047
677,"(123, 65, 32)",2,mbtiauth_1047
678,"(123, 77, 599)",2,mbtiauth_1047
679,"(123, 120, 65)",2,mbtiauth_1047
680,"(123, 120, 286)",2,mbtiauth_1047
681,"(123, 123, 64)",2,mbtiauth_1047
682,"(123, 123, 123)",3,mbtiauth_1047
683,"(123, 152, 520)",2,mbtiauth_1047
684,"(123, 206, 32)",2,mbtiauth_1047
685,"(123, 206, 50)",2,mbtiauth_1047
686,"(123, 206, 77)",2,mbtiauth_1047
687,"(123, 222, 77)",2,mbtiauth_1047
688,"(123, 225, 77)",2,mbtiauth_1047
689,"(123, 225, 222)",2,mbtiauth_1047
690,"(123, 286, 65)",2,mbtiauth_1047
691,"(123, 286, 123)",2,mbtiauth_1047
692,"(123, 286, 326)",2,mbtiauth_1047
693,"(123, 593, 2)",2,mbtiauth_1047
694,"(123, 593, 22)",2,mbtiauth_1047
695,"(123, 593, 32)",2,mbtiauth_1047
696,"(123, 593, 33)",2,mbtiauth_1047
697,"(123, 593, 64)",2,mbtiauth_1047
698,"(123, 593, 65)",2,mbtiauth_1047
699,"(123, 593, 164)",2,mbtiauth_1047
700,"(123, 593, 268)",3,mbtiauth_1047
701,"(123, 593, 499)",2,mbtiauth_1047
702,"(123, 599, 123)",2,mbtiauth_1047
703,"(123, 755, 2)",2,mbtiauth_1047
704,"(154, 77, 10)",2,mbtiauth_1047
705,"(165, 65, 152)",2,mbtiauth_1047
706,"(165, 356, 77)",2,mbtiauth_1047
707,"(165, 356, 123)",2,mbtiauth_1047
708,"(170, 22, 22)",2,mbtiauth_1047
709,"(183, 167, 356)",2,mbtiauth_1047
710,"(206, 77, 32)",2,mbtiauth_1047
711,"(222, 77, 193)",2,mbtiauth_1047
712,"(225, 77, 77)",2,mbtiauth_1047
713,"(225, 77, 599)",2,mbtiauth_1047
714,"(225, 222, 77)",2,mbtiauth_1047
715,"(322, 22, 77)",2,mbtiauth_1047
716,"(322, 22, 1610)",2,mbtiauth_1047
717,"(322, 1610, 77)",2,mbtiauth_1047
718,"(340, 123, 123)",2,mbtiauth_1047
719,"(356, 77, 657)",2,mbtiauth_1047
720,"(356, 123, 520)",2,mbtiauth_1047
721,"(364, 16, 64)",2,mbtiauth_1047
722,"(364, 22, 32)",2,mbtiauth_1047
723,"(364, 32, 64)",3,mbtiauth_1047
724,"(364, 32, 67)",2,mbtiauth_1047
725,"(364, 32, 326)",2,mbtiauth_1047
726,"(364, 33, 64)",2,mbtiauth_1047
727,"(364, 64, 64)",3,mbtiauth_1047
728,"(364, 64, 67)",2,mbtiauth_1047
729,"(364, 65, 67)",2,mbtiauth_1047
730,"(364, 65, 2262)",2,mbtiauth_1047
731,"(364, 437, 64)",2,mbtiauth_1047
732,"(374, 374, 819)",2,mbtiauth_1047
733,"(374, 374, 6532)",2,mbtiauth_1047
734,"(374, 6532, 374)",2,mbtiauth_1047
735,"(374, 6532, 819)",2,mbtiauth_1047
736,"(374, 6532, 6532)",3,mbtiauth_1047
737,"(374, 6532, 26094)",2,mbtiauth_1047
738,"(394, 2, 77)",2,mbtiauth_1047
739,"(428, 32, 32)",2,mbtiauth_1047
740,"(428, 32, 77)",2,mbtiauth_1047
741,"(428, 32, 428)",2,mbtiauth_1047
742,"(428, 77, 32)",2,mbtiauth_1047
743,"(428, 77, 428)",2,mbtiauth_1047
744,"(428, 428, 32)",2,mbtiauth_1047
745,"(437, 64, 64)",2,mbtiauth_1047
746,"(466, 15346, 77)",2,mbtiauth_1047
747,"(520, 64, 2)",2,mbtiauth_1047
748,"(593, 64, 32)",2,mbtiauth_1047
749,"(593, 64, 268)",2,mbtiauth_1047
750,"(593, 268, 32)",2,mbtiauth_1047
751,"(599, 123, 123)",2,mbtiauth_1047
752,"(599, 123, 286)",2,mbtiauth_1047
753,"(683, 2, 32)",2,mbtiauth_1047
754,"(711, 1191, 2)",3,mbtiauth_1047
755,"(711, 1191, 22)",2,mbtiauth_1047
756,"(711, 1191, 41)",2,mbtiauth_1047
757,"(711, 1191, 64)",2,mbtiauth_1047
758,"(711, 1191, 123)",2,mbtiauth_1047
759,"(711, 1191, 183)",2,mbtiauth_1047
760,"(911, 544, 46)",2,mbtiauth_1047
761,"(1192, 144, 193)",2,mbtiauth_1047
762,"(1610, 77, 32)",2,mbtiauth_1047
763,"(6532, 374, 819)",2,mbtiauth_1047
764,"(6532, 374, 6532)",3,mbtiauth_1047
765,"(6532, 6532, 374)",2,mbtiauth_1047
766,"(6532, 6532, 819)",2,mbtiauth_1047
767,"(15346, 77, 12595)",2,mbtiauth_1047
768,"(22, 77, 123, 286)",2,mbtiauth_1047
769,"(22, 77, 599, 193)",2,mbtiauth_1047
770,"(22, 1610, 77, 32)",2,mbtiauth_1047
771,"(32, 64, 64, 50)",2,mbtiauth_1047
772,"(32, 77, 428, 32)",2,mbtiauth_1047
773,"(64, 22, 77, 22)",2,mbtiauth_1047
774,"(65, 32, 656, 64)",2,mbtiauth_1047
775,"(77, 32, 77, 32)",2,mbtiauth_1047
776,"(77, 32, 77, 428)",2,mbtiauth_1047
777,"(77, 32, 428, 32)",2,mbtiauth_1047
778,"(77, 33, 22, 16)",2,mbtiauth_1047
779,"(77, 77, 32, 32)",2,mbtiauth_1047
780,"(77, 77, 32, 77)",2,mbtiauth_1047
781,"(77, 77, 32, 428)",2,mbtiauth_1047
782,"(77, 77, 77, 32)",3,mbtiauth_1047
783,"(77, 77, 77, 77)",2,mbtiauth_1047
784,"(77, 77, 77, 428)",3,mbtiauth_1047
785,"(77, 77, 428, 32)",3,mbtiauth_1047
786,"(77, 77, 428, 77)",2,mbtiauth_1047
787,"(77, 77, 428, 428)",2,mbtiauth_1047
788,"(77, 123, 22, 365)",2,mbtiauth_1047
789,"(77, 123, 286, 123)",2,mbtiauth_1047
790,"(77, 123, 593, 268)",2,mbtiauth_1047
791,"(77, 428, 32, 32)",2,mbtiauth_1047
792,"(77, 428, 32, 77)",2,mbtiauth_1047
793,"(77, 428, 32, 428)",2,mbtiauth_1047
794,"(77, 428, 77, 32)",2,mbtiauth_1047
795,"(77, 428, 77, 428)",2,mbtiauth_1047
796,"(77, 428, 428, 32)",2,mbtiauth_1047
797,"(77, 711, 1191, 22)",2,mbtiauth_1047
798,"(77, 711, 1191, 41)",2,mbtiauth_1047
799,"(77, 711, 1191, 123)",2,mbtiauth_1047
800,"(77, 1192, 144, 193)",2,mbtiauth_1047
801,"(103, 64, 22, 4547)",5,mbtiauth_1047
802,"(123, 22, 77, 599)",2,mbtiauth_1047
803,"(123, 120, 286, 65)",2,mbtiauth_1047
804,"(123, 225, 222, 77)",2,mbtiauth_1047
805,"(123, 593, 64, 268)",2,mbtiauth_1047
806,"(123, 599, 123, 123)",2,mbtiauth_1047
807,"(322, 22, 1610, 77)",2,mbtiauth_1047
808,"(364, 32, 64, 64)",2,mbtiauth_1047
809,"(364, 32, 64, 67)",2,mbtiauth_1047
810,"(364, 33, 64, 64)",2,mbtiauth_1047
811,"(364, 437, 64, 64)",2,mbtiauth_1047
812,"(374, 374, 6532, 819)",2,mbtiauth_1047
813,"(374, 6532, 374, 819)",2,mbtiauth_1047
814,"(374, 6532, 374, 6532)",2,mbtiauth_1047
815,"(374, 6532, 6532, 819)",2,mbtiauth_1047
816,"(428, 32, 77, 32)",2,mbtiauth_1047
817,"(428, 32, 77, 428)",2,mbtiauth_1047
818,"(428, 32, 428, 32)",2,mbtiauth_1047
819,"(428, 77, 428, 32)",2,mbtiauth_1047
820,"(593, 64, 268, 32)",2,mbtiauth_1047
821,"(6532, 374, 6532, 819)",2,mbtiauth_1047
822,"(77, 32, 77, 428, 32)",2,mbtiauth_1047
823,"(77, 77, 32, 77, 32)",2,mbtiauth_1047
824,"(77, 77, 32, 77, 428)",2,mbtiauth_1047
825,"(77, 77, 32, 428, 32)",2,mbtiauth_1047
826,"(77, 77, 77, 32, 32)",2,mbtiauth_1047
827,"(77, 77, 77, 32, 77)",2,mbtiauth_1047
828,"(77, 77, 77, 32, 428)",2,mbtiauth_1047
829,"(77, 77, 77, 77, 32)",2,mbtiauth_1047
830,"(77, 77, 77, 77, 428)",2,mbtiauth_1047
831,"(77, 77, 77, 428, 32)",3,mbtiauth_1047
832,"(77, 77, 77, 428, 77)",2,mbtiauth_1047
833,"(77, 77, 77, 428, 428)",2,mbtiauth_1047
834,"(77, 77, 428, 32, 32)",2,mbtiauth_1047
835,"(77, 77, 428, 32, 77)",2,mbtiauth_1047
836,"(77, 77, 428, 32, 428)",2,mbtiauth_1047
837,"(77, 77, 428, 77, 32)",2,mbtiauth_1047
838,"(77, 77, 428, 77, 428)",2,mbtiauth_1047
839,"(77, 77, 428, 428, 32)",2,mbtiauth_1047
840,"(77, 428, 32, 77, 32)",2,mbtiauth_1047
841,"(77, 428, 32, 77, 428)",2,mbtiauth_1047
842,"(77, 428, 32, 428, 32)",2,mbtiauth_1047
843,"(77, 428, 77, 428, 32)",2,mbtiauth_1047
844,"(374, 6532, 374, 6532, 819)",2,mbtiauth_1047
845,"(428, 32, 77, 428, 32)",2,mbtiauth_1047
846,"(77, 77, 32, 77, 428, 32)",2,mbtiauth_1047
847,"(77, 77, 77, 32, 77, 32)",2,mbtiauth_1047
848,"(77, 77, 77, 32, 77, 428)",2,mbtiauth_1047
849,"(77, 77, 77, 32, 428, 32)",2,mbtiauth_1047
850,"(77, 77, 77, 77, 428, 32)",2,mbtiauth_1047
851,"(77, 77, 77, 428, 32, 32)",2,mbtiauth_1047
852,"(77, 77, 77, 428, 32, 77)",2,mbtiauth_1047
853,"(77, 77, 77, 428, 32, 428)",2,mbtiauth_1047
854,"(77, 77, 77, 428, 77, 32)",2,mbtiauth_1047
855,"(77, 77, 77, 428, 77, 428)",2,mbtiauth_1047
856,"(77, 77, 77, 428, 428, 32)",2,mbtiauth_1047
857,"(77, 77, 428, 32, 77, 32)",2,mbtiauth_1047
858,"(77, 77, 428, 32, 77, 428)",2,mbtiauth_1047
859,"(77, 77, 428, 32, 428, 32)",2,mbtiauth_1047
860,"(77, 77, 428, 77, 428, 32)",2,mbtiauth_1047
861,"(77, 428, 32, 77, 428, 32)",2,mbtiauth_1047
862,"(77, 77, 77, 32, 77, 428, 32)",2,mbtiauth_1047
863,"(77, 77, 77, 428, 32, 77, 32)",2,mbtiauth_1047
864,"(77, 77, 77, 428, 32, 77, 428)",2,mbtiauth_1047
865,"(77, 77, 77, 428, 32, 428, 32)",2,mbtiauth_1047
866,"(77, 77, 77, 428, 77, 428, 32)",2,mbtiauth_1047
867,"(77, 77, 428, 32, 77, 428, 32)",2,mbtiauth_1047
868,"(77, 77, 77, 428, 32, 77, 428, 32)",2,mbtiauth_1047
