,pattern,sup,author
521,"(0, 0, 2)",2,2002_750740
522,"(0, 0, 203)",2,2002_750740
523,"(0, 2, 2)",2,2002_750740
524,"(0, 2, 9)",2,2002_750740
525,"(0, 2, 18)",2,2002_750740
526,"(0, 2, 20)",2,2002_750740
527,"(0, 2, 26)",2,2002_750740
528,"(0, 2, 27)",2,2002_750740
529,"(0, 2, 33)",2,2002_750740
530,"(0, 2, 35)",2,2002_750740
531,"(0, 2, 40)",3,2002_750740
532,"(0, 2, 41)",2,2002_750740
533,"(0, 2, 87)",2,2002_750740
534,"(0, 2, 102)",4,2002_750740
535,"(0, 2, 146)",2,2002_750740
536,"(0, 2, 10993)",2,2002_750740
537,"(0, 3, 0)",2,2002_750740
538,"(0, 14, 18)",2,2002_750740
539,"(0, 14, 41)",3,2002_750740
540,"(0, 17, 2)",2,2002_750740
541,"(0, 17, 3)",2,2002_750740
542,"(0, 17, 27)",2,2002_750740
543,"(0, 18, 41)",2,2002_750740
544,"(0, 20, 0)",2,2002_750740
545,"(0, 20, 40)",3,2002_750740
546,"(0, 26, 27)",3,2002_750740
547,"(0, 27, 2)",3,2002_750740
548,"(0, 27, 20)",2,2002_750740
549,"(0, 27, 26)",2,2002_750740
550,"(0, 27, 27)",2,2002_750740
551,"(0, 27, 40)",2,2002_750740
552,"(0, 31, 2)",3,2002_750740
553,"(0, 31, 17)",2,2002_750740
554,"(0, 31, 33)",2,2002_750740
555,"(0, 31, 47)",2,2002_750740
556,"(0, 31, 87)",3,2002_750740
557,"(0, 33, 2)",4,2002_750740
558,"(0, 33, 17)",2,2002_750740
559,"(0, 33, 26)",2,2002_750740
560,"(0, 33, 35)",2,2002_750740
561,"(0, 33, 41)",2,2002_750740
562,"(0, 33, 87)",2,2002_750740
563,"(0, 33, 102)",2,2002_750740
564,"(0, 35, 26)",2,2002_750740
565,"(0, 35, 10993)",2,2002_750740
566,"(0, 38, 2)",2,2002_750740
567,"(0, 39, 2)",3,2002_750740
568,"(0, 39, 33)",2,2002_750740
569,"(0, 39, 35)",2,2002_750740
570,"(0, 39, 39)",2,2002_750740
571,"(0, 40, 340)",2,2002_750740
572,"(0, 76, 2)",2,2002_750740
573,"(0, 77, 33)",2,2002_750740
574,"(0, 87, 2)",2,2002_750740
575,"(0, 102, 146)",2,2002_750740
576,"(0, 103, 0)",2,2002_750740
577,"(0, 103, 20)",2,2002_750740
578,"(0, 103, 172)",2,2002_750740
579,"(0, 172, 0)",2,2002_750740
580,"(0, 172, 20)",2,2002_750740
581,"(0, 172, 41)",2,2002_750740
582,"(0, 172, 102)",2,2002_750740
583,"(0, 203, 127)",2,2002_750740
584,"(0, 240, 127)",2,2002_750740
585,"(0, 241, 340)",2,2002_750740
586,"(0, 333, 241)",2,2002_750740
587,"(0, 333, 340)",2,2002_750740
588,"(0, 10993, 26)",2,2002_750740
589,"(2, 0, 0)",2,2002_750740
590,"(2, 0, 2)",6,2002_750740
591,"(2, 0, 3)",2,2002_750740
592,"(2, 0, 14)",2,2002_750740
593,"(2, 0, 17)",3,2002_750740
594,"(2, 0, 26)",2,2002_750740
595,"(2, 0, 31)",3,2002_750740
596,"(2, 0, 33)",4,2002_750740
597,"(2, 0, 39)",3,2002_750740
598,"(2, 0, 41)",2,2002_750740
599,"(2, 0, 47)",2,2002_750740
600,"(2, 0, 76)",2,2002_750740
601,"(2, 0, 87)",2,2002_750740
602,"(2, 0, 274)",2,2002_750740
603,"(2, 2, 0)",4,2002_750740
604,"(2, 2, 2)",4,2002_750740
605,"(2, 2, 26)",3,2002_750740
606,"(2, 2, 27)",4,2002_750740
607,"(2, 2, 31)",3,2002_750740
608,"(2, 2, 33)",5,2002_750740
609,"(2, 2, 35)",3,2002_750740
610,"(2, 2, 39)",3,2002_750740
611,"(2, 2, 41)",3,2002_750740
612,"(2, 2, 87)",3,2002_750740
613,"(2, 2, 244)",2,2002_750740
614,"(2, 2, 270)",2,2002_750740
615,"(2, 2, 318)",2,2002_750740
616,"(2, 2, 10993)",2,2002_750740
617,"(2, 3, 0)",5,2002_750740
618,"(2, 3, 3)",2,2002_750740
619,"(2, 3, 17)",3,2002_750740
620,"(2, 3, 31)",2,2002_750740
621,"(2, 3, 33)",2,2002_750740
622,"(2, 3, 73)",2,2002_750740
623,"(2, 3, 861)",2,2002_750740
624,"(2, 3, 17511)",2,2002_750740
625,"(2, 6, 0)",2,2002_750740
626,"(2, 6, 274)",2,2002_750740
627,"(2, 14, 18)",3,2002_750740
628,"(2, 14, 41)",3,2002_750740
629,"(2, 17, 0)",2,2002_750740
630,"(2, 17, 3)",3,2002_750740
631,"(2, 17, 87)",2,2002_750740
632,"(2, 17, 861)",2,2002_750740
633,"(2, 17, 17511)",2,2002_750740
634,"(2, 18, 39)",2,2002_750740
635,"(2, 18, 41)",3,2002_750740
636,"(2, 20, 40)",2,2002_750740
637,"(2, 26, 27)",2,2002_750740
638,"(2, 26, 87)",2,2002_750740
639,"(2, 27, 0)",3,2002_750740
640,"(2, 27, 2)",3,2002_750740
641,"(2, 27, 27)",2,2002_750740
642,"(2, 27, 31)",2,2002_750740
643,"(2, 27, 77)",2,2002_750740
644,"(2, 27, 87)",2,2002_750740
645,"(2, 27, 235)",2,2002_750740
646,"(2, 31, 2)",4,2002_750740
647,"(2, 31, 33)",4,2002_750740
648,"(2, 31, 39)",2,2002_750740
649,"(2, 31, 87)",4,2002_750740
650,"(2, 31, 216)",2,2002_750740
651,"(2, 33, 0)",4,2002_750740
652,"(2, 33, 2)",6,2002_750740
653,"(2, 33, 3)",2,2002_750740
654,"(2, 33, 6)",2,2002_750740
655,"(2, 33, 14)",2,2002_750740
656,"(2, 33, 18)",2,2002_750740
657,"(2, 33, 26)",2,2002_750740
658,"(2, 33, 31)",2,2002_750740
659,"(2, 33, 33)",2,2002_750740
660,"(2, 33, 35)",2,2002_750740
661,"(2, 33, 41)",4,2002_750740
662,"(2, 33, 76)",2,2002_750740
663,"(2, 33, 87)",3,2002_750740
664,"(2, 33, 102)",2,2002_750740
665,"(2, 35, 26)",2,2002_750740
666,"(2, 35, 27)",2,2002_750740
667,"(2, 35, 41)",2,2002_750740
668,"(2, 39, 2)",3,2002_750740
669,"(2, 39, 33)",3,2002_750740
670,"(2, 39, 35)",2,2002_750740
671,"(2, 39, 39)",2,2002_750740
672,"(2, 39, 41)",2,2002_750740
673,"(2, 39, 87)",2,2002_750740
674,"(2, 41, 27)",2,2002_750740
675,"(2, 73, 17)",2,2002_750740
676,"(2, 76, 2)",3,2002_750740
677,"(2, 76, 27)",2,2002_750740
678,"(2, 76, 270)",2,2002_750740
679,"(2, 77, 2)",2,2002_750740
680,"(2, 77, 33)",2,2002_750740
681,"(2, 77, 41)",2,2002_750740
682,"(2, 77, 87)",2,2002_750740
683,"(2, 84, 2)",2,2002_750740
684,"(2, 87, 0)",3,2002_750740
685,"(2, 87, 2)",3,2002_750740
686,"(2, 87, 18)",2,2002_750740
687,"(2, 87, 27)",2,2002_750740
688,"(2, 87, 33)",2,2002_750740
689,"(2, 87, 39)",2,2002_750740
690,"(2, 87, 41)",3,2002_750740
691,"(2, 87, 146)",2,2002_750740
692,"(2, 102, 146)",2,2002_750740
693,"(2, 112, 2)",2,2002_750740
694,"(2, 112, 39)",2,2002_750740
695,"(2, 172, 2)",2,2002_750740
696,"(2, 172, 3)",2,2002_750740
697,"(2, 172, 33)",2,2002_750740
698,"(2, 216, 2)",2,2002_750740
699,"(2, 216, 33)",2,2002_750740
700,"(2, 216, 87)",2,2002_750740
701,"(2, 271, 33)",2,2002_750740
702,"(2, 300, 27)",2,2002_750740
703,"(2, 300, 235)",2,2002_750740
704,"(2, 318, 33)",2,2002_750740
705,"(2, 318, 41)",2,2002_750740
706,"(2, 420, 87)",2,2002_750740
707,"(2, 10993, 26)",2,2002_750740
708,"(2, 17511, 861)",2,2002_750740
709,"(3, 0, 2)",3,2002_750740
710,"(3, 0, 3)",2,2002_750740
711,"(3, 0, 17)",3,2002_750740
712,"(3, 0, 27)",2,2002_750740
713,"(3, 0, 38)",2,2002_750740
714,"(3, 0, 274)",2,2002_750740
715,"(3, 17, 3)",2,2002_750740
716,"(3, 26, 27)",2,2002_750740
717,"(3, 38, 2)",2,2002_750740
718,"(3, 73, 17)",2,2002_750740
719,"(3, 17511, 861)",2,2002_750740
720,"(6, 0, 274)",2,2002_750740
721,"(9, 20, 41)",2,2002_750740
722,"(14, 2, 41)",2,2002_750740
723,"(14, 18, 41)",2,2002_750740
724,"(17, 0, 2)",2,2002_750740
725,"(17, 3, 0)",3,2002_750740
726,"(17, 3, 2)",2,2002_750740
727,"(17, 3, 38)",2,2002_750740
728,"(17, 3, 861)",2,2002_750740
729,"(17, 3, 17511)",2,2002_750740
730,"(17, 38, 2)",2,2002_750740
731,"(17, 17511, 861)",2,2002_750740
732,"(18, 0, 33)",2,2002_750740
733,"(18, 0, 35)",2,2002_750740
734,"(18, 26, 0)",2,2002_750740
735,"(18, 27, 0)",2,2002_750740
736,"(18, 27, 87)",2,2002_750740
737,"(18, 27, 241)",2,2002_750740
738,"(18, 33, 35)",2,2002_750740
739,"(18, 47, 127)",2,2002_750740
740,"(18, 87, 241)",2,2002_750740
741,"(18, 103, 3666)",2,2002_750740
742,"(20, 0, 2)",2,2002_750740
743,"(20, 0, 102)",2,2002_750740
744,"(20, 0, 146)",2,2002_750740
745,"(20, 2, 102)",2,2002_750740
746,"(20, 2, 146)",2,2002_750740
747,"(20, 27, 446)",2,2002_750740
748,"(20, 40, 169)",2,2002_750740
749,"(20, 102, 146)",2,2002_750740
750,"(26, 0, 2)",2,2002_750740
751,"(26, 0, 27)",2,2002_750740
752,"(26, 0, 40)",2,2002_750740
753,"(26, 0, 203)",2,2002_750740
754,"(26, 27, 2)",3,2002_750740
755,"(26, 27, 40)",2,2002_750740
756,"(27, 0, 2)",3,2002_750740
757,"(27, 0, 31)",2,2002_750740
758,"(27, 0, 33)",2,2002_750740
759,"(27, 0, 40)",3,2002_750740
760,"(27, 0, 87)",2,2002_750740
761,"(27, 0, 203)",2,2002_750740
762,"(27, 0, 340)",2,2002_750740
763,"(27, 2, 40)",2,2002_750740
764,"(27, 2, 87)",2,2002_750740
765,"(27, 20, 40)",2,2002_750740
766,"(27, 20, 169)",2,2002_750740
767,"(27, 26, 0)",2,2002_750740
768,"(27, 26, 27)",3,2002_750740
769,"(27, 26, 40)",2,2002_750740
770,"(27, 27, 40)",2,2002_750740
771,"(27, 27, 87)",2,2002_750740
772,"(27, 27, 244)",2,2002_750740
773,"(27, 31, 87)",2,2002_750740
774,"(27, 40, 169)",2,2002_750740
775,"(27, 76, 2)",2,2002_750740
776,"(27, 77, 87)",2,2002_750740
777,"(27, 87, 241)",2,2002_750740
778,"(27, 420, 33)",2,2002_750740
779,"(27, 420, 87)",2,2002_750740
780,"(31, 2, 27)",2,2002_750740
781,"(31, 2, 41)",2,2002_750740
782,"(31, 2, 87)",2,2002_750740
783,"(31, 17, 27)",2,2002_750740
784,"(31, 31, 31)",2,2002_750740
785,"(31, 33, 2)",3,2002_750740
786,"(31, 33, 27)",2,2002_750740
787,"(31, 33, 87)",3,2002_750740
788,"(31, 39, 2)",2,2002_750740
789,"(31, 39, 33)",2,2002_750740
790,"(31, 39, 87)",2,2002_750740
791,"(31, 87, 2)",3,2002_750740
792,"(31, 87, 27)",3,2002_750740
793,"(31, 87, 41)",2,2002_750740
794,"(31, 216, 2)",2,2002_750740
795,"(31, 216, 87)",2,2002_750740
796,"(33, 0, 0)",2,2002_750740
797,"(33, 0, 2)",5,2002_750740
798,"(33, 0, 33)",3,2002_750740
799,"(33, 0, 41)",2,2002_750740
800,"(33, 0, 76)",3,2002_750740
801,"(33, 0, 103)",2,2002_750740
802,"(33, 0, 127)",2,2002_750740
803,"(33, 0, 172)",2,2002_750740
804,"(33, 0, 240)",2,2002_750740
805,"(33, 0, 274)",2,2002_750740
806,"(33, 2, 0)",2,2002_750740
807,"(33, 2, 2)",2,2002_750740
808,"(33, 2, 3)",2,2002_750740
809,"(33, 2, 17)",2,2002_750740
810,"(33, 2, 27)",3,2002_750740
811,"(33, 2, 35)",2,2002_750740
812,"(33, 2, 40)",2,2002_750740
813,"(33, 2, 41)",2,2002_750740
814,"(33, 2, 119)",2,2002_750740
815,"(33, 2, 121)",2,2002_750740
816,"(33, 2, 146)",2,2002_750740
817,"(33, 2, 861)",2,2002_750740
818,"(33, 3, 0)",2,2002_750740
819,"(33, 3, 189)",2,2002_750740
820,"(33, 6, 0)",2,2002_750740
821,"(33, 6, 274)",2,2002_750740
822,"(33, 14, 18)",2,2002_750740
823,"(33, 14, 41)",2,2002_750740
824,"(33, 17, 27)",2,2002_750740
825,"(33, 18, 41)",2,2002_750740
826,"(33, 20, 2)",2,2002_750740
827,"(33, 27, 2)",3,2002_750740
828,"(33, 27, 121)",2,2002_750740
829,"(33, 31, 2)",3,2002_750740
830,"(33, 31, 17)",2,2002_750740
831,"(33, 31, 87)",2,2002_750740
832,"(33, 33, 2)",3,2002_750740
833,"(33, 35, 27)",2,2002_750740
834,"(33, 35, 41)",2,2002_750740
835,"(33, 39, 2)",3,2002_750740
836,"(33, 39, 33)",2,2002_750740
837,"(33, 39, 87)",3,2002_750740
838,"(33, 76, 2)",3,2002_750740
839,"(33, 84, 2)",2,2002_750740
840,"(33, 84, 87)",2,2002_750740
841,"(33, 87, 2)",5,2002_750740
842,"(33, 87, 17)",2,2002_750740
843,"(33, 87, 27)",4,2002_750740
844,"(33, 127, 2)",2,2002_750740
845,"(33, 127, 27)",2,2002_750740
846,"(33, 127, 33)",2,2002_750740
847,"(33, 240, 127)",2,2002_750740
848,"(35, 27, 2)",2,2002_750740
849,"(35, 10993, 26)",2,2002_750740
850,"(38, 134, 20)",2,2002_750740
851,"(39, 2, 3)",2,2002_750740
852,"(39, 2, 27)",2,2002_750740
853,"(39, 2, 35)",2,2002_750740
854,"(39, 2, 41)",2,2002_750740
855,"(39, 3, 0)",2,2002_750740
856,"(39, 17, 3)",2,2002_750740
857,"(39, 33, 2)",5,2002_750740
858,"(39, 33, 27)",2,2002_750740
859,"(39, 33, 35)",2,2002_750740
860,"(39, 33, 41)",2,2002_750740
861,"(39, 33, 87)",3,2002_750740
862,"(39, 35, 41)",2,2002_750740
863,"(39, 39, 2)",2,2002_750740
864,"(39, 39, 27)",2,2002_750740
865,"(39, 87, 2)",4,2002_750740
866,"(39, 87, 27)",2,2002_750740
867,"(39, 169, 127)",2,2002_750740
868,"(39, 176, 127)",2,2002_750740
869,"(39, 176, 169)",2,2002_750740
870,"(39, 420, 87)",2,2002_750740
871,"(40, 0, 31)",2,2002_750740
872,"(40, 0, 127)",2,2002_750740
873,"(40, 0, 340)",2,2002_750740
874,"(40, 2, 87)",2,2002_750740
875,"(40, 31, 2)",2,2002_750740
876,"(40, 31, 17)",2,2002_750740
877,"(40, 31, 87)",2,2002_750740
878,"(40, 33, 17)",2,2002_750740
879,"(40, 33, 20)",2,2002_750740
880,"(40, 33, 31)",2,2002_750740
881,"(40, 40, 340)",2,2002_750740
882,"(40, 338, 33)",2,2002_750740
883,"(47, 0, 2)",2,2002_750740
884,"(47, 0, 33)",2,2002_750740
885,"(47, 26, 2)",2,2002_750740
886,"(47, 26, 27)",2,2002_750740
887,"(47, 27, 2)",2,2002_750740
888,"(47, 33, 0)",3,2002_750740
889,"(47, 33, 2)",2,2002_750740
890,"(47, 33, 33)",2,2002_750740
891,"(47, 87, 2)",2,2002_750740
892,"(65, 33, 31)",2,2002_750740
893,"(65, 33, 33)",2,2002_750740
894,"(65, 33, 127)",2,2002_750740
895,"(73, 17, 2)",2,2002_750740
896,"(76, 2, 27)",2,2002_750740
897,"(76, 2, 270)",2,2002_750740
898,"(77, 2, 27)",2,2002_750740
899,"(77, 2, 41)",2,2002_750740
900,"(77, 33, 27)",2,2002_750740
901,"(77, 41, 27)",2,2002_750740
902,"(84, 172, 2)",2,2002_750740
903,"(87, 0, 2)",2,2002_750740
904,"(87, 0, 33)",3,2002_750740
905,"(87, 3, 0)",2,2002_750740
906,"(87, 18, 41)",2,2002_750740
907,"(87, 27, 2)",3,2002_750740
908,"(87, 33, 0)",2,2002_750740
909,"(87, 33, 2)",2,2002_750740
910,"(87, 39, 420)",2,2002_750740
911,"(103, 0, 40)",2,2002_750740
912,"(103, 20, 0)",2,2002_750740
913,"(103, 27, 27)",2,2002_750740
914,"(103, 27, 40)",2,2002_750740
915,"(103, 172, 0)",2,2002_750740
916,"(103, 172, 20)",2,2002_750740
917,"(112, 2, 2)",2,2002_750740
918,"(112, 2, 33)",2,2002_750740
919,"(112, 2, 35)",2,2002_750740
920,"(112, 2, 39)",2,2002_750740
921,"(112, 2, 41)",2,2002_750740
922,"(112, 33, 2)",2,2002_750740
923,"(112, 33, 35)",2,2002_750740
924,"(112, 33, 41)",2,2002_750740
925,"(112, 35, 41)",2,2002_750740
926,"(112, 39, 2)",2,2002_750740
927,"(112, 39, 33)",2,2002_750740
928,"(112, 39, 35)",2,2002_750740
929,"(112, 39, 41)",2,2002_750740
930,"(119, 0, 2)",2,2002_750740
931,"(127, 0, 127)",3,2002_750740
932,"(127, 27, 2)",2,2002_750740
933,"(127, 27, 244)",2,2002_750740
934,"(127, 35, 127)",2,2002_750740
935,"(127, 77, 127)",2,2002_750740
936,"(127, 127, 340)",2,2002_750740
937,"(127, 169, 127)",2,2002_750740
938,"(127, 176, 127)",2,2002_750740
939,"(127, 176, 169)",2,2002_750740
940,"(172, 20, 0)",2,2002_750740
941,"(172, 181, 14)",2,2002_750740
942,"(172, 203, 0)",2,2002_750740
943,"(172, 341, 14)",2,2002_750740
944,"(176, 169, 127)",2,2002_750740
945,"(203, 0, 172)",2,2002_750740
946,"(203, 0, 203)",2,2002_750740
947,"(203, 2, 2)",2,2002_750740
948,"(203, 26, 27)",2,2002_750740
949,"(203, 27, 26)",2,2002_750740
950,"(203, 27, 27)",3,2002_750740
951,"(203, 33, 31)",2,2002_750740
952,"(203, 103, 27)",2,2002_750740
953,"(216, 33, 2)",2,2002_750740
954,"(216, 33, 87)",2,2002_750740
955,"(216, 87, 2)",2,2002_750740
956,"(240, 27, 2)",2,2002_750740
957,"(240, 39, 87)",2,2002_750740
958,"(240, 76, 121)",2,2002_750740
959,"(240, 127, 2)",2,2002_750740
960,"(240, 127, 27)",2,2002_750740
961,"(240, 127, 33)",2,2002_750740
962,"(300, 27, 235)",2,2002_750740
963,"(333, 241, 340)",2,2002_750740
964,"(338, 17, 87)",2,2002_750740
965,"(341, 33, 3)",2,2002_750740
966,"(341, 33, 181)",2,2002_750740
967,"(420, 87, 241)",2,2002_750740
968,"(420, 203, 87)",2,2002_750740
969,"(623, 20, 40)",2,2002_750740
970,"(717, 27, 2)",2,2002_750740
971,"(922, 0, 2)",2,2002_750740
972,"(0, 2, 20, 40)",2,2002_750740
973,"(0, 2, 102, 146)",2,2002_750740
974,"(0, 2, 10993, 26)",2,2002_750740
975,"(0, 14, 18, 41)",2,2002_750740
976,"(0, 27, 20, 40)",2,2002_750740
977,"(0, 27, 26, 27)",2,2002_750740
978,"(0, 31, 33, 2)",2,2002_750740
979,"(0, 31, 33, 87)",2,2002_750740
980,"(0, 31, 87, 2)",2,2002_750740
981,"(0, 33, 2, 35)",2,2002_750740
982,"(0, 33, 87, 2)",2,2002_750740
983,"(0, 35, 10993, 26)",2,2002_750740
984,"(0, 39, 2, 35)",2,2002_750740
985,"(0, 39, 33, 2)",2,2002_750740
986,"(0, 39, 33, 35)",2,2002_750740
987,"(0, 39, 39, 2)",2,2002_750740
988,"(0, 103, 20, 0)",2,2002_750740
989,"(0, 103, 172, 0)",2,2002_750740
990,"(0, 103, 172, 20)",2,2002_750740
991,"(0, 172, 20, 0)",2,2002_750740
992,"(0, 333, 241, 340)",2,2002_750740
993,"(2, 0, 3, 0)",2,2002_750740
994,"(2, 0, 14, 41)",2,2002_750740
995,"(2, 0, 17, 3)",2,2002_750740
996,"(2, 0, 31, 87)",2,2002_750740
997,"(2, 0, 33, 2)",2,2002_750740
998,"(2, 0, 33, 26)",2,2002_750740
999,"(2, 0, 39, 39)",2,2002_750740
1000,"(2, 2, 0, 2)",3,2002_750740
1001,"(2, 2, 0, 39)",2,2002_750740
1002,"(2, 2, 27, 0)",2,2002_750740
1003,"(2, 2, 27, 2)",2,2002_750740
1004,"(2, 2, 31, 2)",2,2002_750740
1005,"(2, 2, 31, 39)",2,2002_750740
1006,"(2, 2, 33, 2)",3,2002_750740
1007,"(2, 2, 33, 31)",2,2002_750740
1008,"(2, 2, 35, 26)",2,2002_750740
1009,"(2, 2, 35, 41)",2,2002_750740
1010,"(2, 2, 39, 33)",2,2002_750740
1011,"(2, 2, 87, 2)",2,2002_750740
1012,"(2, 2, 318, 33)",2,2002_750740
1013,"(2, 2, 10993, 26)",2,2002_750740
1014,"(2, 3, 0, 3)",2,2002_750740
1015,"(2, 3, 0, 17)",3,2002_750740
1016,"(2, 3, 17, 3)",2,2002_750740
1017,"(2, 3, 73, 17)",2,2002_750740
1018,"(2, 3, 17511, 861)",2,2002_750740
1019,"(2, 6, 0, 274)",2,2002_750740
1020,"(2, 14, 18, 41)",2,2002_750740
1021,"(2, 17, 3, 0)",2,2002_750740
1022,"(2, 17, 3, 861)",2,2002_750740
1023,"(2, 17, 3, 17511)",2,2002_750740
1024,"(2, 17, 17511, 861)",2,2002_750740
1025,"(2, 27, 0, 2)",3,2002_750740
1026,"(2, 27, 0, 31)",2,2002_750740
1027,"(2, 27, 27, 87)",2,2002_750740
1028,"(2, 31, 33, 2)",2,2002_750740
1029,"(2, 31, 33, 87)",3,2002_750740
1030,"(2, 31, 39, 2)",2,2002_750740
1031,"(2, 31, 39, 33)",2,2002_750740
1032,"(2, 31, 39, 87)",2,2002_750740
1033,"(2, 31, 87, 2)",2,2002_750740
1034,"(2, 31, 216, 87)",2,2002_750740
1035,"(2, 33, 0, 2)",3,2002_750740
1036,"(2, 33, 0, 76)",2,2002_750740
1037,"(2, 33, 2, 35)",2,2002_750740
1038,"(2, 33, 2, 41)",2,2002_750740
1039,"(2, 33, 6, 0)",2,2002_750740
1040,"(2, 33, 14, 18)",2,2002_750740
1041,"(2, 33, 14, 41)",2,2002_750740
1042,"(2, 33, 18, 41)",2,2002_750740
1043,"(2, 33, 31, 2)",2,2002_750740
1044,"(2, 33, 33, 2)",2,2002_750740
1045,"(2, 33, 35, 41)",2,2002_750740
1046,"(2, 33, 87, 2)",2,2002_750740
1047,"(2, 39, 2, 35)",2,2002_750740
1048,"(2, 39, 2, 41)",2,2002_750740
1049,"(2, 39, 33, 2)",3,2002_750740
1050,"(2, 39, 33, 35)",2,2002_750740
1051,"(2, 39, 33, 41)",2,2002_750740
1052,"(2, 39, 33, 87)",2,2002_750740
1053,"(2, 39, 35, 41)",2,2002_750740
1054,"(2, 39, 87, 2)",2,2002_750740
1055,"(2, 76, 2, 27)",2,2002_750740
1056,"(2, 76, 2, 270)",2,2002_750740
1057,"(2, 77, 2, 41)",2,2002_750740
1058,"(2, 87, 0, 2)",2,2002_750740
1059,"(2, 87, 18, 41)",2,2002_750740
1060,"(2, 87, 33, 0)",2,2002_750740
1061,"(2, 112, 2, 39)",2,2002_750740
1062,"(2, 216, 33, 87)",2,2002_750740
1063,"(2, 300, 27, 235)",2,2002_750740
1064,"(3, 0, 17, 3)",2,2002_750740
1065,"(3, 0, 38, 2)",2,2002_750740
1066,"(17, 3, 0, 2)",2,2002_750740
1067,"(17, 3, 38, 2)",2,2002_750740
1068,"(17, 3, 17511, 861)",2,2002_750740
1069,"(18, 27, 87, 241)",2,2002_750740
1070,"(20, 0, 2, 102)",2,2002_750740
1071,"(20, 0, 2, 146)",2,2002_750740
1072,"(20, 0, 102, 146)",2,2002_750740
1073,"(20, 2, 102, 146)",2,2002_750740
1074,"(26, 0, 27, 2)",2,2002_750740
1075,"(27, 0, 2, 40)",2,2002_750740
1076,"(27, 0, 2, 87)",2,2002_750740
1077,"(27, 0, 31, 87)",2,2002_750740
1078,"(27, 20, 40, 169)",2,2002_750740
1079,"(27, 26, 0, 40)",2,2002_750740
1080,"(27, 26, 27, 40)",2,2002_750740
1081,"(31, 33, 87, 2)",3,2002_750740
1082,"(31, 33, 87, 27)",2,2002_750740
1083,"(31, 39, 33, 2)",2,2002_750740
1084,"(31, 39, 33, 87)",2,2002_750740
1085,"(31, 39, 87, 2)",2,2002_750740
1086,"(31, 216, 87, 2)",2,2002_750740
1087,"(33, 0, 76, 2)",2,2002_750740
1088,"(33, 0, 240, 127)",2,2002_750740
1089,"(33, 2, 35, 41)",2,2002_750740
1090,"(33, 6, 0, 274)",2,2002_750740
1091,"(33, 14, 18, 41)",2,2002_750740
1092,"(33, 39, 33, 2)",2,2002_750740
1093,"(33, 39, 87, 2)",2,2002_750740
1094,"(33, 87, 27, 2)",2,2002_750740
1095,"(33, 127, 27, 2)",2,2002_750740
1096,"(39, 2, 35, 41)",2,2002_750740
1097,"(39, 33, 2, 35)",2,2002_750740
1098,"(39, 33, 2, 41)",2,2002_750740
1099,"(39, 33, 35, 41)",2,2002_750740
1100,"(39, 33, 87, 2)",3,2002_750740
1101,"(39, 39, 2, 27)",2,2002_750740
1102,"(39, 176, 169, 127)",2,2002_750740
1103,"(40, 31, 2, 87)",2,2002_750740
1104,"(40, 33, 31, 17)",2,2002_750740
1105,"(47, 26, 27, 2)",2,2002_750740
1106,"(47, 33, 0, 2)",2,2002_750740
1107,"(47, 33, 0, 33)",2,2002_750740
1108,"(77, 2, 41, 27)",2,2002_750740
1109,"(103, 172, 20, 0)",2,2002_750740
1110,"(112, 2, 2, 35)",2,2002_750740
1111,"(112, 2, 2, 41)",2,2002_750740
1112,"(112, 2, 33, 2)",2,2002_750740
1113,"(112, 2, 33, 35)",2,2002_750740
1114,"(112, 2, 33, 41)",2,2002_750740
1115,"(112, 2, 35, 41)",2,2002_750740
1116,"(112, 2, 39, 2)",2,2002_750740
1117,"(112, 2, 39, 33)",2,2002_750740
1118,"(112, 2, 39, 35)",2,2002_750740
1119,"(112, 2, 39, 41)",2,2002_750740
1120,"(112, 33, 2, 35)",2,2002_750740
1121,"(112, 33, 2, 41)",2,2002_750740
1122,"(112, 33, 35, 41)",2,2002_750740
1123,"(112, 39, 2, 35)",2,2002_750740
1124,"(112, 39, 2, 41)",2,2002_750740
1125,"(112, 39, 33, 2)",2,2002_750740
1126,"(112, 39, 33, 35)",2,2002_750740
1127,"(112, 39, 33, 41)",2,2002_750740
1128,"(112, 39, 35, 41)",2,2002_750740
1129,"(127, 176, 169, 127)",2,2002_750740
1130,"(203, 27, 26, 27)",2,2002_750740
1131,"(203, 103, 27, 27)",2,2002_750740
1132,"(216, 33, 87, 2)",2,2002_750740
1133,"(240, 127, 27, 2)",2,2002_750740
1134,"(0, 31, 33, 87, 2)",2,2002_750740
1135,"(0, 39, 33, 2, 35)",2,2002_750740
1136,"(0, 103, 172, 20, 0)",2,2002_750740
1137,"(2, 2, 27, 0, 2)",2,2002_750740
1138,"(2, 3, 0, 17, 3)",2,2002_750740
1139,"(2, 17, 3, 17511, 861)",2,2002_750740
1140,"(2, 31, 33, 87, 2)",2,2002_750740
1141,"(2, 31, 39, 33, 2)",2,2002_750740
1142,"(2, 31, 39, 33, 87)",2,2002_750740
1143,"(2, 31, 39, 87, 2)",2,2002_750740
1144,"(2, 33, 2, 35, 41)",2,2002_750740
1145,"(2, 33, 14, 18, 41)",2,2002_750740
1146,"(2, 39, 2, 35, 41)",2,2002_750740
1147,"(2, 39, 33, 2, 35)",2,2002_750740
1148,"(2, 39, 33, 2, 41)",2,2002_750740
1149,"(2, 39, 33, 35, 41)",2,2002_750740
1150,"(2, 39, 33, 87, 2)",2,2002_750740
1151,"(20, 0, 2, 102, 146)",2,2002_750740
1152,"(31, 39, 33, 87, 2)",2,2002_750740
1153,"(39, 33, 2, 35, 41)",2,2002_750740
1154,"(112, 2, 2, 35, 41)",2,2002_750740
1155,"(112, 2, 33, 2, 35)",2,2002_750740
1156,"(112, 2, 33, 2, 41)",2,2002_750740
1157,"(112, 2, 33, 35, 41)",2,2002_750740
1158,"(112, 2, 39, 2, 35)",2,2002_750740
1159,"(112, 2, 39, 2, 41)",2,2002_750740
1160,"(112, 2, 39, 33, 2)",2,2002_750740
1161,"(112, 2, 39, 33, 35)",2,2002_750740
1162,"(112, 2, 39, 33, 41)",2,2002_750740
1163,"(112, 2, 39, 35, 41)",2,2002_750740
1164,"(112, 33, 2, 35, 41)",2,2002_750740
1165,"(112, 39, 2, 35, 41)",2,2002_750740
1166,"(112, 39, 33, 2, 35)",2,2002_750740
1167,"(112, 39, 33, 2, 41)",2,2002_750740
1168,"(112, 39, 33, 35, 41)",2,2002_750740
1169,"(2, 31, 39, 33, 87, 2)",2,2002_750740
1170,"(2, 39, 33, 2, 35, 41)",2,2002_750740
1171,"(112, 2, 33, 2, 35, 41)",2,2002_750740
1172,"(112, 2, 39, 2, 35, 41)",2,2002_750740
1173,"(112, 2, 39, 33, 2, 35)",2,2002_750740
1174,"(112, 2, 39, 33, 2, 41)",2,2002_750740
1175,"(112, 2, 39, 33, 35, 41)",2,2002_750740
1176,"(112, 39, 33, 2, 35, 41)",2,2002_750740
1177,"(112, 2, 39, 33, 2, 35, 41)",2,2002_750740
