,pattern,sup,author
730,"(0, 0, 2)",2,2004_48
731,"(0, 0, 33)",2,2004_48
732,"(0, 0, 40)",2,2004_48
733,"(0, 0, 92)",2,2004_48
734,"(0, 2, 0)",2,2004_48
735,"(0, 2, 2)",2,2004_48
736,"(0, 2, 3)",2,2004_48
737,"(0, 2, 17)",5,2004_48
738,"(0, 2, 27)",2,2004_48
739,"(0, 2, 31)",2,2004_48
740,"(0, 2, 33)",5,2004_48
741,"(0, 2, 39)",2,2004_48
742,"(0, 2, 40)",2,2004_48
743,"(0, 2, 92)",3,2004_48
744,"(0, 2, 171)",2,2004_48
745,"(0, 2, 203)",2,2004_48
746,"(0, 2, 209)",2,2004_48
747,"(0, 17, 0)",2,2004_48
748,"(0, 17, 2)",2,2004_48
749,"(0, 17, 3)",2,2004_48
750,"(0, 17, 17)",2,2004_48
751,"(0, 17, 33)",2,2004_48
752,"(0, 17, 87)",2,2004_48
753,"(0, 17, 172)",2,2004_48
754,"(0, 27, 31)",2,2004_48
755,"(0, 27, 171)",2,2004_48
756,"(0, 33, 0)",2,2004_48
757,"(0, 33, 209)",2,2004_48
758,"(0, 38, 2)",2,2004_48
759,"(0, 38, 1733)",2,2004_48
760,"(0, 40, 0)",4,2004_48
761,"(0, 40, 2)",2,2004_48
762,"(0, 40, 40)",2,2004_48
763,"(0, 40, 92)",2,2004_48
764,"(0, 40, 112)",2,2004_48
765,"(0, 40, 1229)",2,2004_48
766,"(0, 57, 2)",2,2004_48
767,"(0, 65, 2)",2,2004_48
768,"(0, 65, 38)",3,2004_48
769,"(0, 65, 1733)",2,2004_48
770,"(0, 87, 2)",2,2004_48
771,"(0, 92, 17)",2,2004_48
772,"(0, 92, 40)",2,2004_48
773,"(0, 123, 33)",2,2004_48
774,"(0, 129, 27)",2,2004_48
775,"(0, 171, 31)",2,2004_48
776,"(0, 172, 87)",2,2004_48
777,"(0, 203, 40)",2,2004_48
778,"(0, 1733, 2)",2,2004_48
779,"(2, 0, 2)",7,2004_48
780,"(2, 0, 3)",3,2004_48
781,"(2, 0, 17)",5,2004_48
782,"(2, 0, 27)",2,2004_48
783,"(2, 0, 33)",4,2004_48
784,"(2, 0, 38)",2,2004_48
785,"(2, 0, 40)",2,2004_48
786,"(2, 0, 65)",2,2004_48
787,"(2, 0, 87)",3,2004_48
788,"(2, 0, 92)",2,2004_48
789,"(2, 0, 127)",2,2004_48
790,"(2, 0, 171)",2,2004_48
791,"(2, 0, 172)",2,2004_48
792,"(2, 0, 1733)",2,2004_48
793,"(2, 2, 0)",2,2004_48
794,"(2, 2, 2)",8,2004_48
795,"(2, 2, 3)",4,2004_48
796,"(2, 2, 14)",2,2004_48
797,"(2, 2, 17)",8,2004_48
798,"(2, 2, 27)",5,2004_48
799,"(2, 2, 31)",2,2004_48
800,"(2, 2, 33)",9,2004_48
801,"(2, 2, 35)",4,2004_48
802,"(2, 2, 38)",3,2004_48
803,"(2, 2, 39)",2,2004_48
804,"(2, 2, 40)",2,2004_48
805,"(2, 2, 41)",2,2004_48
806,"(2, 2, 47)",2,2004_48
807,"(2, 2, 56)",2,2004_48
808,"(2, 2, 87)",5,2004_48
809,"(2, 2, 92)",3,2004_48
810,"(2, 2, 95)",2,2004_48
811,"(2, 2, 129)",2,2004_48
812,"(2, 2, 171)",2,2004_48
813,"(2, 2, 172)",2,2004_48
814,"(2, 2, 203)",3,2004_48
815,"(2, 2, 235)",2,2004_48
816,"(2, 2, 244)",2,2004_48
817,"(2, 3, 40)",3,2004_48
818,"(2, 6, 27)",3,2004_48
819,"(2, 6, 40)",2,2004_48
820,"(2, 6, 129)",2,2004_48
821,"(2, 13, 2)",3,2004_48
822,"(2, 14, 2)",3,2004_48
823,"(2, 16, 17)",2,2004_48
824,"(2, 17, 0)",5,2004_48
825,"(2, 17, 2)",5,2004_48
826,"(2, 17, 3)",5,2004_48
827,"(2, 17, 17)",5,2004_48
828,"(2, 17, 20)",2,2004_48
829,"(2, 17, 27)",3,2004_48
830,"(2, 17, 33)",7,2004_48
831,"(2, 17, 38)",3,2004_48
832,"(2, 17, 39)",2,2004_48
833,"(2, 17, 40)",4,2004_48
834,"(2, 17, 61)",3,2004_48
835,"(2, 17, 87)",4,2004_48
836,"(2, 17, 112)",2,2004_48
837,"(2, 17, 171)",2,2004_48
838,"(2, 17, 172)",2,2004_48
839,"(2, 17, 196)",2,2004_48
840,"(2, 17, 203)",2,2004_48
841,"(2, 17, 622)",3,2004_48
842,"(2, 17, 1103)",3,2004_48
843,"(2, 20, 33)",3,2004_48
844,"(2, 20, 40)",2,2004_48
845,"(2, 20, 123)",2,2004_48
846,"(2, 27, 0)",3,2004_48
847,"(2, 27, 2)",2,2004_48
848,"(2, 27, 3)",3,2004_48
849,"(2, 27, 17)",3,2004_48
850,"(2, 27, 27)",2,2004_48
851,"(2, 27, 31)",3,2004_48
852,"(2, 27, 39)",3,2004_48
853,"(2, 27, 40)",5,2004_48
854,"(2, 27, 87)",2,2004_48
855,"(2, 27, 171)",3,2004_48
856,"(2, 27, 203)",3,2004_48
857,"(2, 27, 209)",2,2004_48
858,"(2, 27, 937)",2,2004_48
859,"(2, 31, 0)",2,2004_48
860,"(2, 31, 2)",4,2004_48
861,"(2, 31, 31)",2,2004_48
862,"(2, 31, 33)",2,2004_48
863,"(2, 31, 39)",2,2004_48
864,"(2, 31, 40)",5,2004_48
865,"(2, 31, 203)",3,2004_48
866,"(2, 31, 1134)",2,2004_48
867,"(2, 33, 0)",5,2004_48
868,"(2, 33, 2)",7,2004_48
869,"(2, 33, 3)",7,2004_48
870,"(2, 33, 6)",3,2004_48
871,"(2, 33, 14)",2,2004_48
872,"(2, 33, 17)",5,2004_48
873,"(2, 33, 20)",2,2004_48
874,"(2, 33, 27)",7,2004_48
875,"(2, 33, 31)",5,2004_48
876,"(2, 33, 33)",6,2004_48
877,"(2, 33, 35)",4,2004_48
878,"(2, 33, 38)",6,2004_48
879,"(2, 33, 40)",6,2004_48
880,"(2, 33, 47)",3,2004_48
881,"(2, 33, 56)",3,2004_48
882,"(2, 33, 61)",2,2004_48
883,"(2, 33, 62)",3,2004_48
884,"(2, 33, 65)",2,2004_48
885,"(2, 33, 81)",2,2004_48
886,"(2, 33, 87)",3,2004_48
887,"(2, 33, 123)",2,2004_48
888,"(2, 33, 129)",6,2004_48
889,"(2, 33, 169)",2,2004_48
890,"(2, 33, 171)",2,2004_48
891,"(2, 33, 172)",2,2004_48
892,"(2, 33, 183)",2,2004_48
893,"(2, 33, 203)",5,2004_48
894,"(2, 33, 209)",4,2004_48
895,"(2, 33, 216)",2,2004_48
896,"(2, 33, 240)",3,2004_48
897,"(2, 33, 244)",3,2004_48
898,"(2, 33, 261)",2,2004_48
899,"(2, 33, 344)",2,2004_48
900,"(2, 33, 622)",5,2004_48
901,"(2, 33, 712)",2,2004_48
902,"(2, 33, 730)",3,2004_48
903,"(2, 33, 755)",2,2004_48
904,"(2, 33, 1103)",2,2004_48
905,"(2, 33, 1733)",2,2004_48
906,"(2, 33, 1872)",3,2004_48
907,"(2, 35, 0)",2,2004_48
908,"(2, 35, 2)",5,2004_48
909,"(2, 35, 14)",2,2004_48
910,"(2, 35, 62)",2,2004_48
911,"(2, 35, 87)",2,2004_48
912,"(2, 38, 2)",3,2004_48
913,"(2, 38, 3)",2,2004_48
914,"(2, 38, 17)",2,2004_48
915,"(2, 38, 40)",2,2004_48
916,"(2, 38, 183)",2,2004_48
917,"(2, 38, 1733)",2,2004_48
918,"(2, 39, 0)",3,2004_48
919,"(2, 39, 2)",3,2004_48
920,"(2, 39, 40)",2,2004_48
921,"(2, 40, 0)",2,2004_48
922,"(2, 40, 2)",4,2004_48
923,"(2, 40, 31)",3,2004_48
924,"(2, 40, 33)",2,2004_48
925,"(2, 40, 40)",2,2004_48
926,"(2, 40, 93)",2,2004_48
927,"(2, 40, 1134)",2,2004_48
928,"(2, 40, 1208)",2,2004_48
929,"(2, 47, 33)",3,2004_48
930,"(2, 47, 87)",2,2004_48
931,"(2, 61, 622)",3,2004_48
932,"(2, 62, 33)",2,2004_48
933,"(2, 62, 47)",2,2004_48
934,"(2, 65, 2)",3,2004_48
935,"(2, 65, 33)",2,2004_48
936,"(2, 65, 38)",2,2004_48
937,"(2, 65, 1733)",2,2004_48
938,"(2, 76, 2)",2,2004_48
939,"(2, 76, 33)",2,2004_48
940,"(2, 76, 87)",2,2004_48
941,"(2, 76, 494)",2,2004_48
942,"(2, 77, 0)",2,2004_48
943,"(2, 77, 2)",5,2004_48
944,"(2, 77, 14)",2,2004_48
945,"(2, 77, 17)",2,2004_48
946,"(2, 77, 27)",2,2004_48
947,"(2, 77, 33)",3,2004_48
948,"(2, 77, 35)",2,2004_48
949,"(2, 77, 39)",3,2004_48
950,"(2, 77, 87)",3,2004_48
951,"(2, 77, 95)",2,2004_48
952,"(2, 77, 235)",2,2004_48
953,"(2, 87, 0)",2,2004_48
954,"(2, 87, 2)",4,2004_48
955,"(2, 87, 17)",4,2004_48
956,"(2, 87, 33)",2,2004_48
957,"(2, 87, 38)",2,2004_48
958,"(2, 87, 87)",2,2004_48
959,"(2, 87, 172)",2,2004_48
960,"(2, 92, 0)",2,2004_48
961,"(2, 92, 2)",2,2004_48
962,"(2, 92, 17)",2,2004_48
963,"(2, 92, 31)",2,2004_48
964,"(2, 92, 33)",2,2004_48
965,"(2, 92, 39)",2,2004_48
966,"(2, 92, 40)",2,2004_48
967,"(2, 92, 92)",2,2004_48
968,"(2, 92, 129)",2,2004_48
969,"(2, 92, 203)",2,2004_48
970,"(2, 95, 0)",2,2004_48
971,"(2, 95, 2)",5,2004_48
972,"(2, 95, 17)",3,2004_48
973,"(2, 95, 20)",2,2004_48
974,"(2, 95, 27)",4,2004_48
975,"(2, 95, 33)",2,2004_48
976,"(2, 95, 39)",2,2004_48
977,"(2, 95, 40)",2,2004_48
978,"(2, 95, 77)",4,2004_48
979,"(2, 95, 87)",3,2004_48
980,"(2, 95, 172)",2,2004_48
981,"(2, 95, 203)",2,2004_48
982,"(2, 95, 235)",2,2004_48
983,"(2, 95, 937)",2,2004_48
984,"(2, 112, 71)",2,2004_48
985,"(2, 123, 33)",2,2004_48
986,"(2, 123, 40)",2,2004_48
987,"(2, 129, 0)",2,2004_48
988,"(2, 129, 17)",2,2004_48
989,"(2, 129, 27)",6,2004_48
990,"(2, 129, 31)",3,2004_48
991,"(2, 129, 40)",3,2004_48
992,"(2, 129, 203)",3,2004_48
993,"(2, 129, 209)",2,2004_48
994,"(2, 169, 2)",2,2004_48
995,"(2, 171, 3)",2,2004_48
996,"(2, 171, 203)",2,2004_48
997,"(2, 172, 2)",4,2004_48
998,"(2, 172, 17)",2,2004_48
999,"(2, 172, 27)",2,2004_48
1000,"(2, 172, 33)",3,2004_48
1001,"(2, 172, 56)",2,2004_48
1002,"(2, 172, 87)",3,2004_48
1003,"(2, 189, 2)",2,2004_48
1004,"(2, 189, 33)",2,2004_48
1005,"(2, 202, 2)",2,2004_48
1006,"(2, 202, 14)",2,2004_48
1007,"(2, 202, 40)",2,2004_48
1008,"(2, 203, 0)",3,2004_48
1009,"(2, 203, 2)",2,2004_48
1010,"(2, 203, 3)",3,2004_48
1011,"(2, 203, 17)",2,2004_48
1012,"(2, 203, 27)",2,2004_48
1013,"(2, 203, 31)",2,2004_48
1014,"(2, 203, 39)",3,2004_48
1015,"(2, 203, 40)",3,2004_48
1016,"(2, 203, 937)",2,2004_48
1017,"(2, 216, 203)",2,2004_48
1018,"(2, 216, 216)",2,2004_48
1019,"(2, 227, 2)",2,2004_48
1020,"(2, 240, 121)",2,2004_48
1021,"(2, 244, 3)",2,2004_48
1022,"(2, 249, 2)",2,2004_48
1023,"(2, 249, 71)",2,2004_48
1024,"(2, 271, 76)",2,2004_48
1025,"(2, 271, 87)",2,2004_48
1026,"(2, 332, 20)",2,2004_48
1027,"(2, 332, 33)",2,2004_48
1028,"(2, 367, 2)",2,2004_48
1029,"(2, 378, 40)",3,2004_48
1030,"(2, 494, 2)",2,2004_48
1031,"(2, 622, 0)",2,2004_48
1032,"(2, 622, 2)",2,2004_48
1033,"(2, 622, 123)",3,2004_48
1034,"(2, 622, 755)",2,2004_48
1035,"(2, 711, 123)",2,2004_48
1036,"(2, 711, 622)",2,2004_48
1037,"(2, 755, 123)",2,2004_48
1038,"(2, 1077, 39)",2,2004_48
1039,"(2, 1077, 203)",2,2004_48
1040,"(2, 1103, 0)",2,2004_48
1041,"(2, 1103, 2)",2,2004_48
1042,"(2, 1103, 171)",2,2004_48
1043,"(2, 1733, 2)",2,2004_48
1044,"(2, 1872, 123)",2,2004_48
1045,"(2, 1872, 622)",2,2004_48
1046,"(2, 1872, 755)",2,2004_48
1047,"(3, 0, 127)",2,2004_48
1048,"(3, 31, 0)",2,2004_48
1049,"(3, 31, 127)",2,2004_48
1050,"(3, 40, 0)",2,2004_48
1051,"(3, 40, 2)",2,2004_48
1052,"(3, 40, 31)",2,2004_48
1053,"(3, 60, 20)",2,2004_48
1054,"(3, 93, 31)",2,2004_48
1055,"(6, 27, 40)",2,2004_48
1056,"(6, 129, 27)",2,2004_48
1057,"(13, 0, 2)",3,2004_48
1058,"(13, 0, 27)",2,2004_48
1059,"(13, 0, 33)",2,2004_48
1060,"(13, 2, 27)",2,2004_48
1061,"(13, 2, 33)",3,2004_48
1062,"(13, 2, 38)",2,2004_48
1063,"(13, 2, 171)",2,2004_48
1064,"(13, 33, 31)",2,2004_48
1065,"(13, 33, 38)",2,2004_48
1066,"(14, 2, 2)",2,2004_48
1067,"(14, 2, 33)",2,2004_48
1068,"(14, 1077, 203)",2,2004_48
1069,"(17, 0, 2)",4,2004_48
1070,"(17, 0, 3)",2,2004_48
1071,"(17, 0, 33)",2,2004_48
1072,"(17, 0, 171)",2,2004_48
1073,"(17, 0, 203)",2,2004_48
1074,"(17, 2, 2)",3,2004_48
1075,"(17, 2, 17)",4,2004_48
1076,"(17, 2, 33)",4,2004_48
1077,"(17, 2, 65)",2,2004_48
1078,"(17, 2, 203)",2,2004_48
1079,"(17, 17, 2)",2,2004_48
1080,"(17, 33, 0)",2,2004_48
1081,"(17, 33, 2)",2,2004_48
1082,"(17, 33, 3)",2,2004_48
1083,"(17, 33, 17)",2,2004_48
1084,"(17, 33, 38)",2,2004_48
1085,"(17, 33, 61)",2,2004_48
1086,"(17, 33, 622)",2,2004_48
1087,"(17, 33, 1103)",2,2004_48
1088,"(17, 40, 0)",2,2004_48
1089,"(17, 40, 2)",2,2004_48
1090,"(17, 61, 622)",3,2004_48
1091,"(17, 65, 2)",2,2004_48
1092,"(17, 65, 33)",2,2004_48
1093,"(17, 172, 87)",2,2004_48
1094,"(17, 189, 2)",2,2004_48
1095,"(17, 189, 33)",2,2004_48
1096,"(17, 1103, 0)",2,2004_48
1097,"(17, 1103, 2)",2,2004_48
1098,"(17, 1103, 171)",2,2004_48
1099,"(18, 87, 2)",2,2004_48
1100,"(20, 2, 31)",2,2004_48
1101,"(20, 20, 40)",2,2004_48
1102,"(20, 33, 33)",2,2004_48
1103,"(20, 33, 123)",2,2004_48
1104,"(20, 33, 494)",2,2004_48
1105,"(20, 47, 20)",2,2004_48
1106,"(20, 47, 40)",2,2004_48
1107,"(20, 123, 33)",3,2004_48
1108,"(20, 196, 20)",2,2004_48
1109,"(27, 0, 0)",2,2004_48
1110,"(27, 0, 2)",2,2004_48
1111,"(27, 0, 40)",2,2004_48
1112,"(27, 2, 0)",2,2004_48
1113,"(27, 3, 0)",2,2004_48
1114,"(27, 17, 0)",2,2004_48
1115,"(27, 17, 3)",2,2004_48
1116,"(27, 17, 40)",2,2004_48
1117,"(27, 31, 0)",2,2004_48
1118,"(27, 31, 2)",2,2004_48
1119,"(27, 31, 39)",2,2004_48
1120,"(27, 31, 40)",2,2004_48
1121,"(27, 31, 203)",3,2004_48
1122,"(27, 39, 0)",3,2004_48
1123,"(27, 39, 2)",2,2004_48
1124,"(27, 39, 40)",2,2004_48
1125,"(27, 40, 0)",2,2004_48
1126,"(27, 171, 2)",2,2004_48
1127,"(27, 171, 3)",2,2004_48
1128,"(27, 171, 20)",2,2004_48
1129,"(27, 171, 31)",2,2004_48
1130,"(27, 171, 203)",2,2004_48
1131,"(27, 203, 0)",3,2004_48
1132,"(27, 203, 2)",2,2004_48
1133,"(27, 203, 39)",2,2004_48
1134,"(27, 203, 40)",2,2004_48
1135,"(31, 0, 2)",2,2004_48
1136,"(31, 0, 127)",2,2004_48
1137,"(31, 2, 0)",2,2004_48
1138,"(31, 2, 2)",2,2004_48
1139,"(31, 2, 3)",4,2004_48
1140,"(31, 2, 33)",5,2004_48
1141,"(31, 2, 40)",2,2004_48
1142,"(31, 2, 81)",2,2004_48
1143,"(31, 2, 123)",2,2004_48
1144,"(31, 2, 216)",2,2004_48
1145,"(31, 31, 33)",2,2004_48
1146,"(31, 33, 3)",4,2004_48
1147,"(31, 39, 0)",2,2004_48
1148,"(31, 40, 0)",2,2004_48
1149,"(31, 40, 2)",2,2004_48
1150,"(31, 40, 3)",2,2004_48
1151,"(31, 40, 31)",2,2004_48
1152,"(31, 40, 33)",2,2004_48
1153,"(31, 40, 1134)",2,2004_48
1154,"(31, 127, 38)",2,2004_48
1155,"(31, 203, 0)",2,2004_48
1156,"(31, 203, 2)",3,2004_48
1157,"(31, 203, 3)",3,2004_48
1158,"(31, 203, 33)",3,2004_48
1159,"(31, 203, 39)",2,2004_48
1160,"(31, 378, 38)",3,2004_48
1161,"(31, 378, 127)",2,2004_48
1162,"(31, 622, 123)",2,2004_48
1163,"(31, 1038, 2)",2,2004_48
1164,"(31, 1137, 2)",2,2004_48
1165,"(33, 0, 0)",2,2004_48
1166,"(33, 0, 2)",2,2004_48
1167,"(33, 0, 3)",2,2004_48
1168,"(33, 0, 33)",3,2004_48
1169,"(33, 0, 38)",2,2004_48
1170,"(33, 0, 65)",2,2004_48
1171,"(33, 0, 123)",2,2004_48
1172,"(33, 0, 1733)",2,2004_48
1173,"(33, 2, 2)",2,2004_48
1174,"(33, 2, 3)",2,2004_48
1175,"(33, 2, 17)",4,2004_48
1176,"(33, 2, 31)",2,2004_48
1177,"(33, 2, 33)",6,2004_48
1178,"(33, 2, 38)",3,2004_48
1179,"(33, 2, 61)",2,2004_48
1180,"(33, 2, 216)",2,2004_48
1181,"(33, 3, 31)",2,2004_48
1182,"(33, 3, 40)",2,2004_48
1183,"(33, 3, 60)",2,2004_48
1184,"(33, 3, 209)",2,2004_48
1185,"(33, 3, 1175)",2,2004_48
1186,"(33, 6, 27)",3,2004_48
1187,"(33, 6, 40)",2,2004_48
1188,"(33, 6, 129)",2,2004_48
1189,"(33, 17, 0)",2,2004_48
1190,"(33, 17, 2)",2,2004_48
1191,"(33, 17, 3)",2,2004_48
1192,"(33, 17, 33)",2,2004_48
1193,"(33, 17, 61)",2,2004_48
1194,"(33, 17, 112)",2,2004_48
1195,"(33, 20, 33)",2,2004_48
1196,"(33, 20, 123)",2,2004_48
1197,"(33, 20, 1175)",2,2004_48
1198,"(33, 27, 3)",2,2004_48
1199,"(33, 27, 31)",2,2004_48
1200,"(33, 27, 40)",3,2004_48
1201,"(33, 27, 171)",2,2004_48
1202,"(33, 27, 203)",2,2004_48
1203,"(33, 27, 209)",2,2004_48
1204,"(33, 31, 2)",4,2004_48
1205,"(33, 31, 31)",2,2004_48
1206,"(33, 31, 33)",2,2004_48
1207,"(33, 31, 40)",2,2004_48
1208,"(33, 31, 209)",2,2004_48
1209,"(33, 31, 216)",2,2004_48
1210,"(33, 33, 3)",2,2004_48
1211,"(33, 33, 38)",2,2004_48
1212,"(33, 35, 62)",2,2004_48
1213,"(33, 38, 2)",2,2004_48
1214,"(33, 38, 3)",2,2004_48
1215,"(33, 38, 183)",2,2004_48
1216,"(33, 38, 209)",2,2004_48
1217,"(33, 38, 1733)",2,2004_48
1218,"(33, 40, 2)",2,2004_48
1219,"(33, 40, 31)",2,2004_48
1220,"(33, 47, 2)",2,2004_48
1221,"(33, 47, 33)",2,2004_48
1222,"(33, 47, 87)",2,2004_48
1223,"(33, 61, 2)",2,2004_48
1224,"(33, 61, 17)",2,2004_48
1225,"(33, 61, 622)",3,2004_48
1226,"(33, 65, 2)",2,2004_48
1227,"(33, 65, 38)",2,2004_48
1228,"(33, 65, 1733)",2,2004_48
1229,"(33, 87, 2)",2,2004_48
1230,"(33, 87, 33)",2,2004_48
1231,"(33, 123, 33)",3,2004_48
1232,"(33, 129, 27)",5,2004_48
1233,"(33, 129, 31)",2,2004_48
1234,"(33, 129, 40)",2,2004_48
1235,"(33, 129, 203)",2,2004_48
1236,"(33, 129, 209)",2,2004_48
1237,"(33, 172, 2)",2,2004_48
1238,"(33, 172, 33)",2,2004_48
1239,"(33, 196, 20)",2,2004_48
1240,"(33, 203, 2)",2,2004_48
1241,"(33, 203, 3)",2,2004_48
1242,"(33, 203, 31)",2,2004_48
1243,"(33, 203, 40)",2,2004_48
1244,"(33, 209, 16159)",2,2004_48
1245,"(33, 216, 203)",2,2004_48
1246,"(33, 216, 216)",2,2004_48
1247,"(33, 244, 3)",2,2004_48
1248,"(33, 332, 20)",2,2004_48
1249,"(33, 494, 33)",2,2004_48
1250,"(33, 622, 0)",2,2004_48
1251,"(33, 622, 2)",3,2004_48
1252,"(33, 622, 17)",2,2004_48
1253,"(33, 622, 20)",2,2004_48
1254,"(33, 622, 33)",2,2004_48
1255,"(33, 622, 47)",2,2004_48
1256,"(33, 622, 123)",2,2004_48
1257,"(33, 622, 332)",2,2004_48
1258,"(33, 622, 755)",2,2004_48
1259,"(33, 755, 123)",2,2004_48
1260,"(33, 1733, 2)",2,2004_48
1261,"(33, 1872, 123)",2,2004_48
1262,"(33, 1872, 622)",2,2004_48
1263,"(33, 1872, 755)",2,2004_48
1264,"(35, 0, 2)",2,2004_48
1265,"(35, 2, 2)",2,2004_48
1266,"(35, 2, 235)",2,2004_48
1267,"(35, 87, 2)",2,2004_48
1268,"(35, 87, 235)",2,2004_48
1269,"(38, 2, 3)",2,2004_48
1270,"(38, 2, 33)",2,2004_48
1271,"(38, 2, 537)",2,2004_48
1272,"(38, 1733, 2)",2,2004_48
1273,"(39, 0, 2)",2,2004_48
1274,"(39, 2, 3)",2,2004_48
1275,"(39, 2, 33)",2,2004_48
1276,"(39, 33, 3)",2,2004_48
1277,"(40, 0, 0)",2,2004_48
1278,"(40, 0, 2)",2,2004_48
1279,"(40, 0, 38)",2,2004_48
1280,"(40, 0, 40)",3,2004_48
1281,"(40, 0, 47)",2,2004_48
1282,"(40, 0, 92)",2,2004_48
1283,"(40, 0, 203)",2,2004_48
1284,"(40, 0, 1229)",2,2004_48
1285,"(40, 2, 3)",2,2004_48
1286,"(40, 2, 33)",3,2004_48
1287,"(40, 2, 40)",2,2004_48
1288,"(40, 2, 92)",2,2004_48
1289,"(40, 31, 2)",2,2004_48
1290,"(40, 31, 33)",2,2004_48
1291,"(40, 31, 40)",2,2004_48
1292,"(40, 31, 1134)",2,2004_48
1293,"(40, 33, 3)",2,2004_48
1294,"(40, 40, 0)",2,2004_48
1295,"(40, 40, 40)",2,2004_48
1296,"(40, 40, 1134)",2,2004_48
1297,"(40, 40, 1229)",2,2004_48
1298,"(40, 203, 40)",2,2004_48
1299,"(40, 378, 0)",2,2004_48
1300,"(40, 378, 38)",2,2004_48
1301,"(40, 378, 47)",2,2004_48
1302,"(41, 2, 3)",2,2004_48
1303,"(47, 20, 40)",2,2004_48
1304,"(47, 33, 169)",2,2004_48
1305,"(47, 1281, 0)",2,2004_48
1306,"(57, 2, 33)",2,2004_48
1307,"(57, 2, 38)",2,2004_48
1308,"(61, 2, 17)",2,2004_48
1309,"(61, 622, 2)",2,2004_48
1310,"(61, 622, 17)",2,2004_48
1311,"(61, 622, 20)",2,2004_48
1312,"(62, 2, 33)",2,2004_48
1313,"(62, 33, 47)",2,2004_48
1314,"(62, 67, 26)",2,2004_48
1315,"(65, 2, 33)",2,2004_48
1316,"(65, 38, 2)",2,2004_48
1317,"(65, 38, 1733)",2,2004_48
1318,"(65, 1733, 2)",2,2004_48
1319,"(67, 0, 40)",2,2004_48
1320,"(67, 2, 3)",2,2004_48
1321,"(67, 26, 33)",2,2004_48
1322,"(67, 47, 40)",3,2004_48
1323,"(67, 129, 27)",2,2004_48
1324,"(76, 2, 0)",2,2004_48
1325,"(76, 2, 2)",2,2004_48
1326,"(76, 2, 33)",2,2004_48
1327,"(76, 2, 38)",2,2004_48
1328,"(76, 2, 87)",2,2004_48
1329,"(76, 2, 172)",2,2004_48
1330,"(76, 17, 87)",2,2004_48
1331,"(76, 33, 2)",2,2004_48
1332,"(76, 33, 33)",2,2004_48
1333,"(76, 87, 172)",2,2004_48
1334,"(76, 494, 2)",2,2004_48
1335,"(76, 494, 33)",2,2004_48
1336,"(77, 0, 2)",2,2004_48
1337,"(77, 0, 87)",2,2004_48
1338,"(77, 2, 2)",3,2004_48
1339,"(77, 2, 17)",2,2004_48
1340,"(77, 2, 33)",3,2004_48
1341,"(77, 2, 38)",2,2004_48
1342,"(77, 2, 87)",2,2004_48
1343,"(77, 2, 95)",2,2004_48
1344,"(77, 2, 235)",2,2004_48
1345,"(77, 14, 2)",2,2004_48
1346,"(77, 27, 39)",2,2004_48
1347,"(77, 31, 33)",2,2004_48
1348,"(77, 33, 2)",3,2004_48
1349,"(77, 33, 31)",2,2004_48
1350,"(77, 33, 33)",3,2004_48
1351,"(77, 35, 2)",2,2004_48
1352,"(77, 35, 87)",2,2004_48
1353,"(77, 39, 2)",2,2004_48
1354,"(77, 40, 33)",2,2004_48
1355,"(77, 87, 2)",3,2004_48
1356,"(77, 87, 17)",2,2004_48
1357,"(87, 0, 2)",2,2004_48
1358,"(87, 0, 38)",2,2004_48
1359,"(87, 0, 65)",2,2004_48
1360,"(87, 0, 87)",2,2004_48
1361,"(87, 2, 0)",3,2004_48
1362,"(87, 2, 2)",3,2004_48
1363,"(87, 2, 17)",2,2004_48
1364,"(87, 2, 27)",2,2004_48
1365,"(87, 2, 33)",2,2004_48
1366,"(87, 2, 38)",3,2004_48
1367,"(87, 2, 65)",2,2004_48
1368,"(87, 2, 77)",2,2004_48
1369,"(87, 2, 95)",2,2004_48
1370,"(87, 2, 235)",2,2004_48
1371,"(87, 17, 27)",2,2004_48
1372,"(87, 17, 38)",2,2004_48
1373,"(87, 17, 87)",2,2004_48
1374,"(87, 65, 38)",2,2004_48
1375,"(87, 77, 2)",2,2004_48
1376,"(87, 77, 27)",2,2004_48
1377,"(87, 77, 235)",2,2004_48
1378,"(87, 95, 2)",2,2004_48
1379,"(87, 95, 27)",2,2004_48
1380,"(87, 95, 77)",2,2004_48
1381,"(87, 95, 235)",2,2004_48
1382,"(88, 41, 502)",2,2004_48
1383,"(92, 0, 2)",2,2004_48
1384,"(92, 0, 92)",2,2004_48
1385,"(92, 2, 92)",2,2004_48
1386,"(92, 203, 40)",2,2004_48
1387,"(95, 0, 2)",2,2004_48
1388,"(95, 0, 87)",2,2004_48
1389,"(95, 2, 2)",2,2004_48
1390,"(95, 2, 17)",3,2004_48
1391,"(95, 2, 27)",2,2004_48
1392,"(95, 2, 33)",2,2004_48
1393,"(95, 2, 38)",2,2004_48
1394,"(95, 2, 87)",2,2004_48
1395,"(95, 2, 235)",2,2004_48
1396,"(95, 17, 27)",2,2004_48
1397,"(95, 17, 87)",2,2004_48
1398,"(95, 27, 27)",2,2004_48
1399,"(95, 27, 39)",2,2004_48
1400,"(95, 27, 87)",2,2004_48
1401,"(95, 27, 937)",2,2004_48
1402,"(95, 33, 2)",2,2004_48
1403,"(95, 77, 0)",2,2004_48
1404,"(95, 77, 2)",4,2004_48
1405,"(95, 77, 17)",2,2004_48
1406,"(95, 77, 27)",2,2004_48
1407,"(95, 77, 33)",2,2004_48
1408,"(95, 77, 38)",2,2004_48
1409,"(95, 77, 39)",2,2004_48
1410,"(95, 77, 87)",2,2004_48
1411,"(95, 77, 235)",2,2004_48
1412,"(95, 87, 2)",2,2004_48
1413,"(95, 87, 17)",2,2004_48
1414,"(95, 172, 2)",2,2004_48
1415,"(95, 172, 17)",2,2004_48
1416,"(95, 172, 87)",2,2004_48
1417,"(95, 203, 27)",2,2004_48
1418,"(95, 203, 937)",2,2004_48
1419,"(112, 20, 40)",2,2004_48
1420,"(123, 33, 20)",2,2004_48
1421,"(123, 33, 33)",2,2004_48
1422,"(129, 0, 0)",2,2004_48
1423,"(129, 0, 40)",2,2004_48
1424,"(129, 17, 0)",2,2004_48
1425,"(129, 17, 40)",2,2004_48
1426,"(129, 27, 0)",2,2004_48
1427,"(129, 27, 2)",2,2004_48
1428,"(129, 27, 17)",2,2004_48
1429,"(129, 27, 31)",3,2004_48
1430,"(129, 27, 40)",3,2004_48
1431,"(129, 27, 112)",2,2004_48
1432,"(129, 27, 203)",3,2004_48
1433,"(129, 27, 209)",2,2004_48
1434,"(129, 31, 2)",2,2004_48
1435,"(129, 31, 40)",2,2004_48
1436,"(129, 31, 203)",2,2004_48
1437,"(129, 40, 0)",2,2004_48
1438,"(129, 203, 0)",2,2004_48
1439,"(129, 203, 2)",2,2004_48
1440,"(129, 203, 40)",2,2004_48
1441,"(171, 31, 203)",2,2004_48
1442,"(172, 0, 2)",2,2004_48
1443,"(172, 0, 38)",2,2004_48
1444,"(172, 0, 65)",2,2004_48
1445,"(172, 0, 1733)",2,2004_48
1446,"(172, 2, 0)",2,2004_48
1447,"(172, 2, 2)",2,2004_48
1448,"(172, 2, 17)",3,2004_48
1449,"(172, 2, 27)",2,2004_48
1450,"(172, 2, 33)",3,2004_48
1451,"(172, 2, 38)",2,2004_48
1452,"(172, 2, 56)",2,2004_48
1453,"(172, 2, 65)",2,2004_48
1454,"(172, 2, 1733)",2,2004_48
1455,"(172, 38, 2)",2,2004_48
1456,"(172, 38, 1733)",2,2004_48
1457,"(172, 65, 2)",2,2004_48
1458,"(172, 65, 38)",2,2004_48
1459,"(172, 65, 1733)",2,2004_48
1460,"(172, 87, 17)",2,2004_48
1461,"(172, 1733, 2)",2,2004_48
1462,"(189, 2, 33)",2,2004_48
1463,"(202, 14, 2)",2,2004_48
1464,"(203, 0, 0)",3,2004_48
1465,"(203, 0, 2)",2,2004_48
1466,"(203, 0, 40)",3,2004_48
1467,"(203, 0, 92)",2,2004_48
1468,"(203, 2, 3)",3,2004_48
1469,"(203, 2, 33)",4,2004_48
1470,"(203, 2, 40)",2,2004_48
1471,"(203, 2, 92)",2,2004_48
1472,"(203, 2, 123)",2,2004_48
1473,"(203, 2, 378)",2,2004_48
1474,"(203, 17, 3)",2,2004_48
1475,"(203, 27, 20)",2,2004_48
1476,"(203, 27, 27)",2,2004_48
1477,"(203, 27, 937)",2,2004_48
1478,"(203, 33, 3)",3,2004_48
1479,"(203, 39, 0)",2,2004_48
1480,"(203, 39, 2)",2,2004_48
1481,"(203, 39, 3)",2,2004_48
1482,"(203, 39, 33)",2,2004_48
1483,"(203, 40, 0)",3,2004_48
1484,"(203, 40, 2)",2,2004_48
1485,"(203, 40, 92)",2,2004_48
1486,"(216, 33, 2)",2,2004_48
1487,"(216, 33, 31)",2,2004_48
1488,"(216, 33, 203)",3,2004_48
1489,"(216, 33, 216)",2,2004_48
1490,"(216, 216, 203)",2,2004_48
1491,"(216, 216, 216)",2,2004_48
1492,"(240, 497, 35)",2,2004_48
1493,"(244, 0, 2)",2,2004_48
1494,"(244, 2, 0)",2,2004_48
1495,"(244, 2, 33)",2,2004_48
1496,"(244, 2, 203)",2,2004_48
1497,"(244, 27, 3)",2,2004_48
1498,"(244, 27, 203)",2,2004_48
1499,"(244, 33, 0)",2,2004_48
1500,"(271, 76, 87)",2,2004_48
1501,"(332, 20, 20)",2,2004_48
1502,"(332, 20, 33)",2,2004_48
1503,"(332, 20, 47)",2,2004_48
1504,"(332, 20, 196)",2,2004_48
1505,"(332, 196, 20)",2,2004_48
1506,"(378, 0, 38)",2,2004_48
1507,"(378, 38, 40)",2,2004_48
1508,"(378, 67, 40)",2,2004_48
1509,"(378, 127, 38)",2,2004_48
1510,"(385, 2, 27)",2,2004_48
1511,"(494, 2, 33)",2,2004_48
1512,"(534, 2, 33)",2,2004_48
1513,"(534, 2, 203)",2,2004_48
1514,"(534, 33, 203)",2,2004_48
1515,"(622, 0, 20)",2,2004_48
1516,"(622, 2, 17)",2,2004_48
1517,"(622, 2, 31)",2,2004_48
1518,"(622, 20, 2)",2,2004_48
1519,"(622, 20, 20)",2,2004_48
1520,"(622, 20, 31)",2,2004_48
1521,"(622, 20, 196)",2,2004_48
1522,"(622, 196, 20)",2,2004_48
1523,"(622, 332, 20)",2,2004_48
1524,"(622, 332, 196)",2,2004_48
1525,"(622, 755, 123)",2,2004_48
1526,"(711, 622, 123)",2,2004_48
1527,"(730, 2, 33)",2,2004_48
1528,"(730, 2, 35)",2,2004_48
1529,"(730, 33, 35)",2,2004_48
1530,"(1077, 203, 39)",2,2004_48
1531,"(1103, 0, 2)",2,2004_48
1532,"(1103, 0, 171)",2,2004_48
1533,"(1137, 2, 33)",2,2004_48
1534,"(1137, 2, 62)",2,2004_48
1535,"(1137, 2, 123)",2,2004_48
1536,"(1137, 40, 1052)",2,2004_48
1537,"(1137, 41, 3)",2,2004_48
1538,"(1137, 203, 2)",2,2004_48
1539,"(1175, 20, 40)",2,2004_48
1540,"(1175, 112, 20)",2,2004_48
1541,"(1175, 112, 40)",2,2004_48
1542,"(1872, 622, 123)",2,2004_48
1543,"(1872, 622, 755)",2,2004_48
1544,"(1872, 755, 123)",2,2004_48
1545,"(14376, 33, 209)",2,2004_48
1546,"(14376, 33, 16159)",2,2004_48
1547,"(14376, 209, 16159)",2,2004_48
1548,"(0, 0, 2, 92)",2,2004_48
1549,"(0, 2, 17, 0)",2,2004_48
1550,"(0, 2, 17, 2)",2,2004_48
1551,"(0, 2, 17, 3)",2,2004_48
1552,"(0, 2, 17, 17)",2,2004_48
1553,"(0, 2, 17, 33)",2,2004_48
1554,"(0, 2, 33, 209)",2,2004_48
1555,"(0, 2, 92, 17)",2,2004_48
1556,"(0, 2, 92, 40)",2,2004_48
1557,"(0, 17, 172, 87)",2,2004_48
1558,"(0, 27, 171, 31)",2,2004_48
1559,"(0, 38, 1733, 2)",2,2004_48
1560,"(0, 40, 0, 2)",2,2004_48
1561,"(0, 40, 0, 40)",2,2004_48
1562,"(0, 40, 0, 92)",2,2004_48
1563,"(0, 40, 2, 92)",2,2004_48
1564,"(0, 65, 38, 2)",2,2004_48
1565,"(0, 65, 38, 1733)",2,2004_48
1566,"(0, 65, 1733, 2)",2,2004_48
1567,"(2, 0, 2, 3)",2,2004_48
1568,"(2, 0, 2, 17)",4,2004_48
1569,"(2, 0, 2, 33)",3,2004_48
1570,"(2, 0, 2, 92)",2,2004_48
1571,"(2, 0, 17, 87)",2,2004_48
1572,"(2, 0, 17, 172)",2,2004_48
1573,"(2, 0, 38, 2)",2,2004_48
1574,"(2, 0, 38, 1733)",2,2004_48
1575,"(2, 0, 65, 2)",2,2004_48
1576,"(2, 0, 65, 38)",2,2004_48
1577,"(2, 0, 65, 1733)",2,2004_48
1578,"(2, 0, 87, 2)",2,2004_48
1579,"(2, 0, 172, 87)",2,2004_48
1580,"(2, 0, 1733, 2)",2,2004_48
1581,"(2, 2, 0, 2)",2,2004_48
1582,"(2, 2, 2, 2)",4,2004_48
1583,"(2, 2, 2, 17)",5,2004_48
1584,"(2, 2, 2, 33)",2,2004_48
1585,"(2, 2, 2, 38)",2,2004_48
1586,"(2, 2, 2, 95)",2,2004_48
1587,"(2, 2, 17, 2)",3,2004_48
1588,"(2, 2, 17, 3)",2,2004_48
1589,"(2, 2, 17, 17)",3,2004_48
1590,"(2, 2, 17, 33)",3,2004_48
1591,"(2, 2, 17, 38)",2,2004_48
1592,"(2, 2, 17, 87)",2,2004_48
1593,"(2, 2, 27, 17)",2,2004_48
1594,"(2, 2, 27, 39)",2,2004_48
1595,"(2, 2, 33, 2)",3,2004_48
1596,"(2, 2, 33, 3)",2,2004_48
1597,"(2, 2, 33, 17)",2,2004_48
1598,"(2, 2, 33, 35)",2,2004_48
1599,"(2, 2, 33, 47)",2,2004_48
1600,"(2, 2, 33, 87)",2,2004_48
1601,"(2, 2, 33, 172)",2,2004_48
1602,"(2, 2, 33, 244)",2,2004_48
1603,"(2, 2, 35, 2)",2,2004_48
1604,"(2, 2, 35, 14)",2,2004_48
1605,"(2, 2, 87, 2)",3,2004_48
1606,"(2, 2, 87, 17)",3,2004_48
1607,"(2, 2, 129, 27)",2,2004_48
1608,"(2, 2, 172, 2)",2,2004_48
1609,"(2, 2, 203, 17)",2,2004_48
1610,"(2, 6, 27, 40)",2,2004_48
1611,"(2, 6, 129, 27)",2,2004_48
1612,"(2, 17, 0, 2)",3,2004_48
1613,"(2, 17, 0, 3)",2,2004_48
1614,"(2, 17, 0, 33)",2,2004_48
1615,"(2, 17, 0, 171)",2,2004_48
1616,"(2, 17, 2, 2)",2,2004_48
1617,"(2, 17, 2, 17)",4,2004_48
1618,"(2, 17, 2, 33)",3,2004_48
1619,"(2, 17, 33, 0)",2,2004_48
1620,"(2, 17, 33, 2)",2,2004_48
1621,"(2, 17, 33, 3)",2,2004_48
1622,"(2, 17, 33, 17)",2,2004_48
1623,"(2, 17, 33, 38)",2,2004_48
1624,"(2, 17, 33, 61)",2,2004_48
1625,"(2, 17, 33, 622)",2,2004_48
1626,"(2, 17, 33, 1103)",2,2004_48
1627,"(2, 17, 40, 0)",2,2004_48
1628,"(2, 17, 61, 622)",3,2004_48
1629,"(2, 17, 172, 87)",2,2004_48
1630,"(2, 17, 1103, 0)",2,2004_48
1631,"(2, 17, 1103, 171)",2,2004_48
1632,"(2, 20, 123, 33)",2,2004_48
1633,"(2, 27, 0, 2)",2,2004_48
1634,"(2, 27, 0, 40)",2,2004_48
1635,"(2, 27, 17, 3)",2,2004_48
1636,"(2, 27, 17, 40)",2,2004_48
1637,"(2, 27, 31, 40)",2,2004_48
1638,"(2, 27, 31, 203)",2,2004_48
1639,"(2, 27, 39, 0)",2,2004_48
1640,"(2, 27, 39, 2)",2,2004_48
1641,"(2, 27, 39, 40)",2,2004_48
1642,"(2, 27, 171, 3)",2,2004_48
1643,"(2, 27, 203, 0)",2,2004_48
1644,"(2, 27, 203, 40)",2,2004_48
1645,"(2, 31, 2, 40)",2,2004_48
1646,"(2, 31, 39, 0)",2,2004_48
1647,"(2, 31, 40, 1134)",2,2004_48
1648,"(2, 31, 203, 0)",2,2004_48
1649,"(2, 31, 203, 39)",2,2004_48
1650,"(2, 33, 0, 3)",2,2004_48
1651,"(2, 33, 0, 38)",2,2004_48
1652,"(2, 33, 0, 65)",2,2004_48
1653,"(2, 33, 0, 1733)",2,2004_48
1654,"(2, 33, 2, 2)",2,2004_48
1655,"(2, 33, 2, 3)",2,2004_48
1656,"(2, 33, 2, 17)",4,2004_48
1657,"(2, 33, 2, 33)",4,2004_48
1658,"(2, 33, 2, 38)",2,2004_48
1659,"(2, 33, 3, 40)",2,2004_48
1660,"(2, 33, 6, 27)",3,2004_48
1661,"(2, 33, 6, 40)",2,2004_48
1662,"(2, 33, 6, 129)",2,2004_48
1663,"(2, 33, 17, 0)",2,2004_48
1664,"(2, 33, 17, 3)",2,2004_48
1665,"(2, 33, 27, 3)",2,2004_48
1666,"(2, 33, 27, 31)",2,2004_48
1667,"(2, 33, 27, 40)",3,2004_48
1668,"(2, 33, 27, 171)",2,2004_48
1669,"(2, 33, 27, 203)",2,2004_48
1670,"(2, 33, 27, 209)",2,2004_48
1671,"(2, 33, 31, 2)",2,2004_48
1672,"(2, 33, 31, 31)",2,2004_48
1673,"(2, 33, 31, 40)",2,2004_48
1674,"(2, 33, 35, 62)",2,2004_48
1675,"(2, 33, 38, 3)",2,2004_48
1676,"(2, 33, 38, 183)",2,2004_48
1677,"(2, 33, 38, 1733)",2,2004_48
1678,"(2, 33, 40, 2)",2,2004_48
1679,"(2, 33, 40, 31)",2,2004_48
1680,"(2, 33, 47, 33)",2,2004_48
1681,"(2, 33, 47, 87)",2,2004_48
1682,"(2, 33, 61, 622)",2,2004_48
1683,"(2, 33, 65, 38)",2,2004_48
1684,"(2, 33, 65, 1733)",2,2004_48
1685,"(2, 33, 87, 2)",2,2004_48
1686,"(2, 33, 129, 27)",5,2004_48
1687,"(2, 33, 129, 31)",2,2004_48
1688,"(2, 33, 129, 40)",2,2004_48
1689,"(2, 33, 129, 203)",2,2004_48
1690,"(2, 33, 129, 209)",2,2004_48
1691,"(2, 33, 172, 2)",2,2004_48
1692,"(2, 33, 203, 3)",2,2004_48
1693,"(2, 33, 203, 31)",2,2004_48
1694,"(2, 33, 203, 40)",2,2004_48
1695,"(2, 33, 216, 203)",2,2004_48
1696,"(2, 33, 244, 3)",2,2004_48
1697,"(2, 33, 622, 0)",2,2004_48
1698,"(2, 33, 622, 2)",2,2004_48
1699,"(2, 33, 622, 123)",2,2004_48
1700,"(2, 33, 622, 755)",2,2004_48
1701,"(2, 33, 755, 123)",2,2004_48
1702,"(2, 33, 1872, 123)",2,2004_48
1703,"(2, 33, 1872, 622)",2,2004_48
1704,"(2, 33, 1872, 755)",2,2004_48
1705,"(2, 35, 0, 2)",2,2004_48
1706,"(2, 35, 2, 2)",2,2004_48
1707,"(2, 35, 87, 2)",2,2004_48
1708,"(2, 38, 1733, 2)",2,2004_48
1709,"(2, 39, 0, 2)",2,2004_48
1710,"(2, 40, 31, 40)",2,2004_48
1711,"(2, 40, 31, 1134)",2,2004_48
1712,"(2, 40, 40, 40)",2,2004_48
1713,"(2, 40, 40, 1134)",2,2004_48
1714,"(2, 62, 33, 47)",2,2004_48
1715,"(2, 65, 2, 33)",2,2004_48
1716,"(2, 65, 38, 2)",2,2004_48
1717,"(2, 65, 38, 1733)",2,2004_48
1718,"(2, 65, 1733, 2)",2,2004_48
1719,"(2, 76, 33, 2)",2,2004_48
1720,"(2, 76, 494, 2)",2,2004_48
1721,"(2, 77, 0, 2)",2,2004_48
1722,"(2, 77, 0, 87)",2,2004_48
1723,"(2, 77, 2, 2)",3,2004_48
1724,"(2, 77, 2, 17)",2,2004_48
1725,"(2, 77, 2, 33)",2,2004_48
1726,"(2, 77, 2, 87)",2,2004_48
1727,"(2, 77, 2, 95)",2,2004_48
1728,"(2, 77, 2, 235)",2,2004_48
1729,"(2, 77, 14, 2)",2,2004_48
1730,"(2, 77, 27, 39)",2,2004_48
1731,"(2, 77, 33, 2)",3,2004_48
1732,"(2, 77, 35, 2)",2,2004_48
1733,"(2, 77, 35, 87)",2,2004_48
1734,"(2, 77, 39, 2)",2,2004_48
1735,"(2, 77, 87, 2)",3,2004_48
1736,"(2, 77, 87, 17)",2,2004_48
1737,"(2, 87, 2, 2)",2,2004_48
1738,"(2, 87, 2, 17)",2,2004_48
1739,"(2, 87, 2, 33)",2,2004_48
1740,"(2, 87, 17, 87)",2,2004_48
1741,"(2, 92, 0, 2)",2,2004_48
1742,"(2, 92, 0, 92)",2,2004_48
1743,"(2, 92, 2, 92)",2,2004_48
1744,"(2, 92, 203, 40)",2,2004_48
1745,"(2, 95, 0, 2)",2,2004_48
1746,"(2, 95, 0, 87)",2,2004_48
1747,"(2, 95, 2, 2)",2,2004_48
1748,"(2, 95, 2, 17)",3,2004_48
1749,"(2, 95, 2, 27)",2,2004_48
1750,"(2, 95, 2, 87)",2,2004_48
1751,"(2, 95, 2, 235)",2,2004_48
1752,"(2, 95, 17, 87)",2,2004_48
1753,"(2, 95, 27, 39)",2,2004_48
1754,"(2, 95, 27, 87)",2,2004_48
1755,"(2, 95, 27, 937)",2,2004_48
1756,"(2, 95, 33, 2)",2,2004_48
1757,"(2, 95, 77, 0)",2,2004_48
1758,"(2, 95, 77, 2)",4,2004_48
1759,"(2, 95, 77, 17)",2,2004_48
1760,"(2, 95, 77, 27)",2,2004_48
1761,"(2, 95, 77, 33)",2,2004_48
1762,"(2, 95, 77, 39)",2,2004_48
1763,"(2, 95, 77, 87)",2,2004_48
1764,"(2, 95, 77, 235)",2,2004_48
1765,"(2, 95, 87, 2)",2,2004_48
1766,"(2, 95, 87, 17)",2,2004_48
1767,"(2, 95, 172, 2)",2,2004_48
1768,"(2, 95, 172, 17)",2,2004_48
1769,"(2, 95, 172, 87)",2,2004_48
1770,"(2, 95, 203, 27)",2,2004_48
1771,"(2, 95, 203, 937)",2,2004_48
1772,"(2, 129, 0, 40)",2,2004_48
1773,"(2, 129, 17, 40)",2,2004_48
1774,"(2, 129, 27, 0)",2,2004_48
1775,"(2, 129, 27, 17)",2,2004_48
1776,"(2, 129, 27, 31)",3,2004_48
1777,"(2, 129, 27, 40)",3,2004_48
1778,"(2, 129, 27, 203)",3,2004_48
1779,"(2, 129, 27, 209)",2,2004_48
1780,"(2, 129, 31, 40)",2,2004_48
1781,"(2, 129, 31, 203)",2,2004_48
1782,"(2, 129, 203, 0)",2,2004_48
1783,"(2, 129, 203, 40)",2,2004_48
1784,"(2, 172, 2, 17)",2,2004_48
1785,"(2, 172, 2, 27)",2,2004_48
1786,"(2, 172, 2, 33)",3,2004_48
1787,"(2, 172, 2, 56)",2,2004_48
1788,"(2, 172, 87, 17)",2,2004_48
1789,"(2, 189, 2, 33)",2,2004_48
1790,"(2, 202, 14, 2)",2,2004_48
1791,"(2, 203, 0, 40)",2,2004_48
1792,"(2, 203, 27, 27)",2,2004_48
1793,"(2, 203, 27, 937)",2,2004_48
1794,"(2, 203, 39, 0)",2,2004_48
1795,"(2, 203, 39, 2)",2,2004_48
1796,"(2, 216, 216, 203)",2,2004_48
1797,"(2, 271, 76, 87)",2,2004_48
1798,"(2, 332, 20, 33)",2,2004_48
1799,"(2, 622, 755, 123)",2,2004_48
1800,"(2, 711, 622, 123)",2,2004_48
1801,"(2, 1077, 203, 39)",2,2004_48
1802,"(2, 1103, 0, 171)",2,2004_48
1803,"(2, 1872, 622, 123)",2,2004_48
1804,"(2, 1872, 622, 755)",2,2004_48
1805,"(2, 1872, 755, 123)",2,2004_48
1806,"(3, 31, 0, 127)",2,2004_48
1807,"(13, 0, 2, 27)",2,2004_48
1808,"(13, 0, 2, 33)",2,2004_48
1809,"(13, 2, 33, 38)",2,2004_48
1810,"(17, 0, 2, 33)",2,2004_48
1811,"(17, 0, 2, 203)",2,2004_48
1812,"(17, 2, 2, 17)",2,2004_48
1813,"(17, 2, 17, 2)",2,2004_48
1814,"(17, 2, 65, 2)",2,2004_48
1815,"(17, 33, 2, 17)",2,2004_48
1816,"(17, 33, 61, 622)",2,2004_48
1817,"(17, 40, 0, 2)",2,2004_48
1818,"(17, 65, 2, 33)",2,2004_48
1819,"(17, 189, 2, 33)",2,2004_48
1820,"(17, 1103, 0, 171)",2,2004_48
1821,"(20, 47, 20, 40)",2,2004_48
1822,"(20, 123, 33, 33)",2,2004_48
1823,"(27, 0, 40, 0)",2,2004_48
1824,"(27, 17, 40, 0)",2,2004_48
1825,"(27, 31, 39, 0)",2,2004_48
1826,"(27, 31, 203, 0)",2,2004_48
1827,"(27, 31, 203, 2)",2,2004_48
1828,"(27, 31, 203, 39)",2,2004_48
1829,"(27, 39, 0, 2)",2,2004_48
1830,"(27, 171, 31, 203)",2,2004_48
1831,"(27, 203, 0, 0)",2,2004_48
1832,"(27, 203, 0, 40)",2,2004_48
1833,"(27, 203, 39, 0)",2,2004_48
1834,"(27, 203, 40, 0)",2,2004_48
1835,"(31, 2, 0, 2)",2,2004_48
1836,"(31, 2, 33, 3)",3,2004_48
1837,"(31, 2, 40, 33)",2,2004_48
1838,"(31, 40, 2, 3)",2,2004_48
1839,"(31, 203, 2, 3)",2,2004_48
1840,"(31, 203, 2, 33)",3,2004_48
1841,"(31, 203, 33, 3)",2,2004_48
1842,"(31, 203, 39, 0)",2,2004_48
1843,"(31, 378, 127, 38)",2,2004_48
1844,"(33, 0, 38, 2)",2,2004_48
1845,"(33, 0, 38, 1733)",2,2004_48
1846,"(33, 0, 65, 2)",2,2004_48
1847,"(33, 0, 65, 38)",2,2004_48
1848,"(33, 0, 65, 1733)",2,2004_48
1849,"(33, 0, 123, 33)",2,2004_48
1850,"(33, 0, 1733, 2)",2,2004_48
1851,"(33, 2, 2, 2)",2,2004_48
1852,"(33, 2, 2, 17)",2,2004_48
1853,"(33, 2, 2, 33)",2,2004_48
1854,"(33, 2, 17, 2)",2,2004_48
1855,"(33, 2, 17, 33)",2,2004_48
1856,"(33, 2, 17, 61)",2,2004_48
1857,"(33, 2, 33, 38)",2,2004_48
1858,"(33, 6, 27, 40)",2,2004_48
1859,"(33, 6, 129, 27)",2,2004_48
1860,"(33, 17, 2, 33)",2,2004_48
1861,"(33, 20, 123, 33)",2,2004_48
1862,"(33, 31, 2, 216)",2,2004_48
1863,"(33, 38, 1733, 2)",2,2004_48
1864,"(33, 61, 2, 17)",2,2004_48
1865,"(33, 61, 622, 2)",2,2004_48
1866,"(33, 61, 622, 17)",2,2004_48
1867,"(33, 65, 38, 2)",2,2004_48
1868,"(33, 65, 38, 1733)",2,2004_48
1869,"(33, 65, 1733, 2)",2,2004_48
1870,"(33, 87, 2, 33)",2,2004_48
1871,"(33, 129, 27, 31)",2,2004_48
1872,"(33, 129, 27, 40)",2,2004_48
1873,"(33, 129, 27, 203)",2,2004_48
1874,"(33, 129, 27, 209)",2,2004_48
1875,"(33, 172, 2, 33)",2,2004_48
1876,"(33, 622, 2, 17)",2,2004_48
1877,"(33, 622, 332, 20)",2,2004_48
1878,"(33, 622, 755, 123)",2,2004_48
1879,"(33, 1872, 622, 123)",2,2004_48
1880,"(33, 1872, 622, 755)",2,2004_48
1881,"(33, 1872, 755, 123)",2,2004_48
1882,"(35, 87, 2, 235)",2,2004_48
1883,"(39, 2, 33, 3)",2,2004_48
1884,"(40, 0, 2, 92)",2,2004_48
1885,"(40, 0, 40, 0)",2,2004_48
1886,"(40, 0, 40, 1229)",2,2004_48
1887,"(40, 31, 40, 1134)",2,2004_48
1888,"(40, 40, 40, 1134)",2,2004_48
1889,"(40, 378, 0, 38)",2,2004_48
1890,"(61, 622, 2, 17)",2,2004_48
1891,"(65, 38, 1733, 2)",2,2004_48
1892,"(76, 2, 87, 172)",2,2004_48
1893,"(76, 33, 2, 33)",2,2004_48
1894,"(76, 494, 2, 33)",2,2004_48
1895,"(77, 0, 87, 2)",2,2004_48
1896,"(77, 2, 2, 2)",2,2004_48
1897,"(77, 2, 2, 17)",2,2004_48
1898,"(77, 2, 2, 95)",2,2004_48
1899,"(77, 2, 87, 2)",2,2004_48
1900,"(77, 2, 87, 17)",2,2004_48
1901,"(77, 33, 2, 33)",2,2004_48
1902,"(77, 33, 31, 33)",2,2004_48
1903,"(77, 35, 87, 2)",2,2004_48
1904,"(77, 87, 2, 17)",2,2004_48
1905,"(87, 0, 65, 38)",2,2004_48
1906,"(87, 2, 0, 2)",2,2004_48
1907,"(87, 2, 0, 38)",2,2004_48
1908,"(87, 2, 0, 65)",2,2004_48
1909,"(87, 2, 2, 235)",2,2004_48
1910,"(87, 2, 17, 38)",2,2004_48
1911,"(87, 2, 65, 38)",2,2004_48
1912,"(87, 2, 77, 2)",2,2004_48
1913,"(87, 2, 77, 27)",2,2004_48
1914,"(87, 2, 77, 235)",2,2004_48
1915,"(87, 2, 95, 2)",2,2004_48
1916,"(87, 2, 95, 27)",2,2004_48
1917,"(87, 2, 95, 77)",2,2004_48
1918,"(87, 2, 95, 235)",2,2004_48
1919,"(87, 77, 2, 235)",2,2004_48
1920,"(87, 95, 2, 235)",2,2004_48
1921,"(87, 95, 77, 2)",2,2004_48
1922,"(87, 95, 77, 27)",2,2004_48
1923,"(87, 95, 77, 235)",2,2004_48
1924,"(92, 0, 2, 92)",2,2004_48
1925,"(95, 0, 87, 2)",2,2004_48
1926,"(95, 2, 2, 17)",2,2004_48
1927,"(95, 2, 17, 27)",2,2004_48
1928,"(95, 2, 17, 87)",2,2004_48
1929,"(95, 2, 87, 17)",2,2004_48
1930,"(95, 77, 0, 2)",2,2004_48
1931,"(95, 77, 0, 87)",2,2004_48
1932,"(95, 77, 2, 2)",2,2004_48
1933,"(95, 77, 2, 17)",2,2004_48
1934,"(95, 77, 2, 33)",2,2004_48
1935,"(95, 77, 2, 38)",2,2004_48
1936,"(95, 77, 2, 235)",2,2004_48
1937,"(95, 77, 27, 39)",2,2004_48
1938,"(95, 77, 33, 2)",2,2004_48
1939,"(95, 77, 87, 2)",2,2004_48
1940,"(95, 172, 2, 17)",2,2004_48
1941,"(95, 172, 87, 17)",2,2004_48
1942,"(95, 203, 27, 27)",2,2004_48
1943,"(95, 203, 27, 937)",2,2004_48
1944,"(129, 0, 40, 0)",2,2004_48
1945,"(129, 17, 40, 0)",2,2004_48
1946,"(129, 27, 0, 0)",2,2004_48
1947,"(129, 27, 0, 40)",2,2004_48
1948,"(129, 27, 17, 0)",2,2004_48
1949,"(129, 27, 17, 40)",2,2004_48
1950,"(129, 27, 31, 2)",2,2004_48
1951,"(129, 27, 31, 40)",2,2004_48
1952,"(129, 27, 31, 203)",2,2004_48
1953,"(129, 27, 40, 0)",2,2004_48
1954,"(129, 27, 203, 0)",2,2004_48
1955,"(129, 27, 203, 2)",2,2004_48
1956,"(129, 27, 203, 40)",2,2004_48
1957,"(129, 31, 203, 2)",2,2004_48
1958,"(129, 203, 0, 0)",2,2004_48
1959,"(129, 203, 0, 40)",2,2004_48
1960,"(129, 203, 40, 0)",2,2004_48
1961,"(172, 0, 38, 2)",2,2004_48
1962,"(172, 0, 38, 1733)",2,2004_48
1963,"(172, 0, 65, 2)",2,2004_48
1964,"(172, 0, 65, 38)",2,2004_48
1965,"(172, 0, 65, 1733)",2,2004_48
1966,"(172, 0, 1733, 2)",2,2004_48
1967,"(172, 2, 0, 2)",2,2004_48
1968,"(172, 2, 0, 38)",2,2004_48
1969,"(172, 2, 0, 65)",2,2004_48
1970,"(172, 2, 0, 1733)",2,2004_48
1971,"(172, 2, 38, 2)",2,2004_48
1972,"(172, 2, 38, 1733)",2,2004_48
1973,"(172, 2, 65, 2)",2,2004_48
1974,"(172, 2, 65, 38)",2,2004_48
1975,"(172, 2, 65, 1733)",2,2004_48
1976,"(172, 2, 1733, 2)",2,2004_48
1977,"(172, 38, 1733, 2)",2,2004_48
1978,"(172, 65, 38, 2)",2,2004_48
1979,"(172, 65, 38, 1733)",2,2004_48
1980,"(172, 65, 1733, 2)",2,2004_48
1981,"(203, 0, 0, 2)",2,2004_48
1982,"(203, 0, 0, 92)",2,2004_48
1983,"(203, 0, 2, 92)",2,2004_48
1984,"(203, 0, 40, 0)",3,2004_48
1985,"(203, 0, 40, 2)",2,2004_48
1986,"(203, 0, 40, 92)",2,2004_48
1987,"(203, 2, 33, 3)",3,2004_48
1988,"(203, 39, 2, 3)",2,2004_48
1989,"(203, 39, 2, 33)",2,2004_48
1990,"(203, 39, 33, 3)",2,2004_48
1991,"(203, 40, 0, 2)",2,2004_48
1992,"(203, 40, 0, 92)",2,2004_48
1993,"(203, 40, 2, 92)",2,2004_48
1994,"(216, 33, 216, 203)",2,2004_48
1995,"(216, 33, 216, 216)",2,2004_48
1996,"(244, 2, 33, 0)",2,2004_48
1997,"(332, 20, 196, 20)",2,2004_48
1998,"(534, 2, 33, 203)",2,2004_48
1999,"(622, 20, 2, 31)",2,2004_48
2000,"(622, 20, 196, 20)",2,2004_48
2001,"(622, 332, 20, 20)",2,2004_48
2002,"(622, 332, 20, 196)",2,2004_48
2003,"(622, 332, 196, 20)",2,2004_48
2004,"(730, 2, 33, 35)",2,2004_48
2005,"(1175, 112, 20, 40)",2,2004_48
2006,"(1872, 622, 755, 123)",2,2004_48
2007,"(14376, 33, 209, 16159)",2,2004_48
2008,"(0, 40, 0, 2, 92)",2,2004_48
2009,"(0, 65, 38, 1733, 2)",2,2004_48
2010,"(2, 0, 17, 172, 87)",2,2004_48
2011,"(2, 0, 38, 1733, 2)",2,2004_48
2012,"(2, 0, 65, 38, 2)",2,2004_48
2013,"(2, 0, 65, 38, 1733)",2,2004_48
2014,"(2, 0, 65, 1733, 2)",2,2004_48
2015,"(2, 2, 2, 2, 17)",2,2004_48
2016,"(2, 2, 2, 17, 38)",2,2004_48
2017,"(2, 2, 17, 2, 2)",2,2004_48
2018,"(2, 2, 17, 2, 17)",3,2004_48
2019,"(2, 2, 17, 2, 33)",2,2004_48
2020,"(2, 2, 17, 33, 2)",2,2004_48
2021,"(2, 2, 17, 33, 17)",2,2004_48
2022,"(2, 2, 33, 2, 17)",2,2004_48
2023,"(2, 2, 33, 87, 2)",2,2004_48
2024,"(2, 2, 33, 172, 2)",2,2004_48
2025,"(2, 2, 35, 2, 2)",2,2004_48
2026,"(2, 2, 87, 2, 17)",2,2004_48
2027,"(2, 17, 0, 2, 33)",2,2004_48
2028,"(2, 17, 2, 2, 17)",2,2004_48
2029,"(2, 17, 33, 2, 17)",2,2004_48
2030,"(2, 17, 33, 61, 622)",2,2004_48
2031,"(2, 17, 1103, 0, 171)",2,2004_48
2032,"(2, 27, 39, 0, 2)",2,2004_48
2033,"(2, 27, 203, 0, 40)",2,2004_48
2034,"(2, 31, 203, 39, 0)",2,2004_48
2035,"(2, 33, 0, 38, 1733)",2,2004_48
2036,"(2, 33, 0, 65, 38)",2,2004_48
2037,"(2, 33, 0, 65, 1733)",2,2004_48
2038,"(2, 33, 2, 2, 17)",2,2004_48
2039,"(2, 33, 6, 27, 40)",2,2004_48
2040,"(2, 33, 6, 129, 27)",2,2004_48
2041,"(2, 33, 65, 38, 1733)",2,2004_48
2042,"(2, 33, 129, 27, 31)",2,2004_48
2043,"(2, 33, 129, 27, 40)",2,2004_48
2044,"(2, 33, 129, 27, 203)",2,2004_48
2045,"(2, 33, 129, 27, 209)",2,2004_48
2046,"(2, 33, 622, 755, 123)",2,2004_48
2047,"(2, 33, 1872, 622, 123)",2,2004_48
2048,"(2, 33, 1872, 622, 755)",2,2004_48
2049,"(2, 33, 1872, 755, 123)",2,2004_48
2050,"(2, 40, 31, 40, 1134)",2,2004_48
2051,"(2, 40, 40, 40, 1134)",2,2004_48
2052,"(2, 65, 38, 1733, 2)",2,2004_48
2053,"(2, 77, 0, 87, 2)",2,2004_48
2054,"(2, 77, 2, 2, 2)",2,2004_48
2055,"(2, 77, 2, 2, 17)",2,2004_48
2056,"(2, 77, 2, 2, 95)",2,2004_48
2057,"(2, 77, 2, 87, 2)",2,2004_48
2058,"(2, 77, 2, 87, 17)",2,2004_48
2059,"(2, 77, 35, 87, 2)",2,2004_48
2060,"(2, 77, 87, 2, 17)",2,2004_48
2061,"(2, 92, 0, 2, 92)",2,2004_48
2062,"(2, 95, 0, 87, 2)",2,2004_48
2063,"(2, 95, 2, 2, 17)",2,2004_48
2064,"(2, 95, 2, 17, 87)",2,2004_48
2065,"(2, 95, 2, 87, 17)",2,2004_48
2066,"(2, 95, 77, 0, 2)",2,2004_48
2067,"(2, 95, 77, 0, 87)",2,2004_48
2068,"(2, 95, 77, 2, 2)",2,2004_48
2069,"(2, 95, 77, 2, 17)",2,2004_48
2070,"(2, 95, 77, 2, 235)",2,2004_48
2071,"(2, 95, 77, 27, 39)",2,2004_48
2072,"(2, 95, 77, 33, 2)",2,2004_48
2073,"(2, 95, 77, 87, 2)",2,2004_48
2074,"(2, 95, 172, 2, 17)",2,2004_48
2075,"(2, 95, 172, 87, 17)",2,2004_48
2076,"(2, 95, 203, 27, 937)",2,2004_48
2077,"(2, 129, 27, 0, 40)",2,2004_48
2078,"(2, 129, 27, 17, 40)",2,2004_48
2079,"(2, 129, 27, 31, 40)",2,2004_48
2080,"(2, 129, 27, 31, 203)",2,2004_48
2081,"(2, 129, 27, 203, 0)",2,2004_48
2082,"(2, 129, 27, 203, 40)",2,2004_48
2083,"(2, 129, 203, 0, 40)",2,2004_48
2084,"(2, 1872, 622, 755, 123)",2,2004_48
2085,"(27, 31, 203, 39, 0)",2,2004_48
2086,"(27, 203, 0, 40, 0)",2,2004_48
2087,"(31, 203, 2, 33, 3)",2,2004_48
2088,"(33, 0, 38, 1733, 2)",2,2004_48
2089,"(33, 0, 65, 38, 2)",2,2004_48
2090,"(33, 0, 65, 38, 1733)",2,2004_48
2091,"(33, 0, 65, 1733, 2)",2,2004_48
2092,"(33, 2, 2, 17, 2)",2,2004_48
2093,"(33, 2, 2, 17, 33)",2,2004_48
2094,"(33, 2, 17, 2, 33)",2,2004_48
2095,"(33, 61, 622, 2, 17)",2,2004_48
2096,"(33, 65, 38, 1733, 2)",2,2004_48
2097,"(33, 1872, 622, 755, 123)",2,2004_48
2098,"(77, 2, 2, 2, 17)",2,2004_48
2099,"(77, 2, 87, 2, 17)",2,2004_48
2100,"(87, 2, 0, 65, 38)",2,2004_48
2101,"(87, 2, 77, 2, 235)",2,2004_48
2102,"(87, 2, 95, 2, 235)",2,2004_48
2103,"(87, 2, 95, 77, 2)",2,2004_48
2104,"(87, 2, 95, 77, 27)",2,2004_48
2105,"(87, 2, 95, 77, 235)",2,2004_48
2106,"(87, 95, 77, 2, 235)",2,2004_48
2107,"(95, 77, 0, 87, 2)",2,2004_48
2108,"(95, 77, 2, 2, 17)",2,2004_48
2109,"(129, 27, 0, 40, 0)",2,2004_48
2110,"(129, 27, 17, 40, 0)",2,2004_48
2111,"(129, 27, 31, 203, 2)",2,2004_48
2112,"(129, 27, 203, 0, 0)",2,2004_48
2113,"(129, 27, 203, 0, 40)",2,2004_48
2114,"(129, 27, 203, 40, 0)",2,2004_48
2115,"(129, 203, 0, 40, 0)",2,2004_48
2116,"(172, 0, 38, 1733, 2)",2,2004_48
2117,"(172, 0, 65, 38, 2)",2,2004_48
2118,"(172, 0, 65, 38, 1733)",2,2004_48
2119,"(172, 0, 65, 1733, 2)",2,2004_48
2120,"(172, 2, 0, 38, 2)",2,2004_48
2121,"(172, 2, 0, 38, 1733)",2,2004_48
2122,"(172, 2, 0, 65, 2)",2,2004_48
2123,"(172, 2, 0, 65, 38)",2,2004_48
2124,"(172, 2, 0, 65, 1733)",2,2004_48
2125,"(172, 2, 0, 1733, 2)",2,2004_48
2126,"(172, 2, 38, 1733, 2)",2,2004_48
2127,"(172, 2, 65, 38, 2)",2,2004_48
2128,"(172, 2, 65, 38, 1733)",2,2004_48
2129,"(172, 2, 65, 1733, 2)",2,2004_48
2130,"(172, 65, 38, 1733, 2)",2,2004_48
2131,"(203, 0, 0, 2, 92)",2,2004_48
2132,"(203, 0, 40, 0, 2)",2,2004_48
2133,"(203, 0, 40, 0, 92)",2,2004_48
2134,"(203, 0, 40, 2, 92)",2,2004_48
2135,"(203, 39, 2, 33, 3)",2,2004_48
2136,"(203, 40, 0, 2, 92)",2,2004_48
2137,"(622, 332, 20, 196, 20)",2,2004_48
2138,"(2, 0, 65, 38, 1733, 2)",2,2004_48
2139,"(2, 2, 17, 33, 2, 17)",2,2004_48
2140,"(2, 33, 0, 65, 38, 1733)",2,2004_48
2141,"(2, 33, 1872, 622, 755, 123)",2,2004_48
2142,"(2, 77, 2, 2, 2, 17)",2,2004_48
2143,"(2, 77, 2, 87, 2, 17)",2,2004_48
2144,"(2, 95, 77, 0, 87, 2)",2,2004_48
2145,"(2, 95, 77, 2, 2, 17)",2,2004_48
2146,"(2, 129, 27, 203, 0, 40)",2,2004_48
2147,"(33, 0, 65, 38, 1733, 2)",2,2004_48
2148,"(87, 2, 95, 77, 2, 235)",2,2004_48
2149,"(129, 27, 203, 0, 40, 0)",2,2004_48
2150,"(172, 0, 65, 38, 1733, 2)",2,2004_48
2151,"(172, 2, 0, 38, 1733, 2)",2,2004_48
2152,"(172, 2, 0, 65, 38, 2)",2,2004_48
2153,"(172, 2, 0, 65, 38, 1733)",2,2004_48
2154,"(172, 2, 0, 65, 1733, 2)",2,2004_48
2155,"(172, 2, 65, 38, 1733, 2)",2,2004_48
2156,"(203, 0, 40, 0, 2, 92)",2,2004_48
2157,"(172, 2, 0, 65, 38, 1733, 2)",2,2004_48
