,pattern,sup,author
456,"(0, 0, 0)",6,2004_386
457,"(0, 0, 2)",3,2004_386
458,"(0, 0, 3)",3,2004_386
459,"(0, 0, 14)",3,2004_386
460,"(0, 0, 27)",3,2004_386
461,"(0, 0, 31)",6,2004_386
462,"(0, 0, 47)",2,2004_386
463,"(0, 0, 105)",2,2004_386
464,"(0, 0, 117)",2,2004_386
465,"(0, 0, 244)",2,2004_386
466,"(0, 2, 0)",2,2004_386
467,"(0, 2, 27)",3,2004_386
468,"(0, 2, 31)",2,2004_386
469,"(0, 2, 47)",3,2004_386
470,"(0, 2, 203)",2,2004_386
471,"(0, 3, 0)",2,2004_386
472,"(0, 3, 20)",3,2004_386
473,"(0, 3, 169)",2,2004_386
474,"(0, 3, 3928)",2,2004_386
475,"(0, 14, 2)",2,2004_386
476,"(0, 14, 3)",2,2004_386
477,"(0, 14, 31)",2,2004_386
478,"(0, 14, 38)",2,2004_386
479,"(0, 14, 47)",2,2004_386
480,"(0, 20, 0)",3,2004_386
481,"(0, 20, 2)",2,2004_386
482,"(0, 20, 27)",2,2004_386
483,"(0, 20, 31)",2,2004_386
484,"(0, 27, 62)",2,2004_386
485,"(0, 27, 212)",2,2004_386
486,"(0, 27, 244)",2,2004_386
487,"(0, 31, 2)",3,2004_386
488,"(0, 31, 27)",2,2004_386
489,"(0, 31, 47)",2,2004_386
490,"(0, 31, 135)",2,2004_386
491,"(0, 31, 203)",2,2004_386
492,"(0, 32, 3)",2,2004_386
493,"(0, 32, 32)",2,2004_386
494,"(0, 32, 117)",2,2004_386
495,"(0, 32, 318)",3,2004_386
496,"(0, 33, 14)",2,2004_386
497,"(0, 38, 2)",2,2004_386
498,"(0, 38, 31)",2,2004_386
499,"(0, 38, 47)",3,2004_386
500,"(0, 47, 0)",2,2004_386
501,"(0, 47, 2)",3,2004_386
502,"(0, 47, 3)",2,2004_386
503,"(0, 47, 20)",4,2004_386
504,"(0, 47, 31)",2,2004_386
505,"(0, 47, 47)",2,2004_386
506,"(0, 47, 117)",2,2004_386
507,"(0, 87, 47)",2,2004_386
508,"(0, 105, 117)",2,2004_386
509,"(0, 112, 3)",2,2004_386
510,"(0, 112, 47)",2,2004_386
511,"(0, 117, 3)",2,2004_386
512,"(0, 117, 20)",2,2004_386
513,"(0, 117, 318)",2,2004_386
514,"(0, 129, 27)",2,2004_386
515,"(0, 129, 212)",2,2004_386
516,"(0, 169, 0)",2,2004_386
517,"(0, 169, 3)",2,2004_386
518,"(0, 169, 169)",2,2004_386
519,"(0, 169, 3928)",2,2004_386
520,"(0, 255, 33)",2,2004_386
521,"(0, 318, 33)",2,2004_386
522,"(0, 508, 117)",2,2004_386
523,"(0, 682, 3968)",2,2004_386
524,"(0, 1216, 2)",2,2004_386
525,"(0, 1216, 38)",2,2004_386
526,"(0, 1216, 47)",2,2004_386
527,"(0, 1718, 32)",2,2004_386
528,"(0, 3928, 0)",2,2004_386
529,"(0, 17830, 24447)",2,2004_386
530,"(2, 0, 0)",4,2004_386
531,"(2, 0, 20)",2,2004_386
532,"(2, 0, 27)",2,2004_386
533,"(2, 0, 31)",2,2004_386
534,"(2, 2, 27)",2,2004_386
535,"(2, 20, 0)",3,2004_386
536,"(2, 20, 27)",2,2004_386
537,"(2, 20, 31)",2,2004_386
538,"(2, 27, 0)",2,2004_386
539,"(2, 27, 169)",2,2004_386
540,"(2, 31, 203)",2,2004_386
541,"(2, 33, 0)",2,2004_386
542,"(2, 33, 27)",2,2004_386
543,"(2, 38, 31)",2,2004_386
544,"(2, 38, 47)",2,2004_386
545,"(2, 47, 0)",3,2004_386
546,"(2, 47, 20)",2,2004_386
547,"(2, 47, 31)",2,2004_386
548,"(2, 47, 47)",2,2004_386
549,"(2, 47, 265)",2,2004_386
550,"(2, 47, 2882)",2,2004_386
551,"(2, 87, 2)",2,2004_386
552,"(2, 87, 27)",2,2004_386
553,"(2, 87, 33)",2,2004_386
554,"(2, 103, 27)",2,2004_386
555,"(2, 103, 129)",2,2004_386
556,"(2, 129, 27)",3,2004_386
557,"(2, 142, 27)",2,2004_386
558,"(2, 190, 27)",2,2004_386
559,"(2, 244, 27)",2,2004_386
560,"(2, 265, 2882)",2,2004_386
561,"(2, 12692, 12692)",2,2004_386
562,"(3, 0, 0)",3,2004_386
563,"(3, 0, 3)",4,2004_386
564,"(3, 0, 14)",2,2004_386
565,"(3, 0, 27)",2,2004_386
566,"(3, 0, 31)",2,2004_386
567,"(3, 0, 169)",2,2004_386
568,"(3, 0, 3928)",2,2004_386
569,"(3, 3, 0)",3,2004_386
570,"(3, 3, 27)",2,2004_386
571,"(3, 3, 3928)",2,2004_386
572,"(3, 14, 87)",2,2004_386
573,"(3, 14, 196)",2,2004_386
574,"(3, 20, 0)",3,2004_386
575,"(3, 20, 3)",3,2004_386
576,"(3, 20, 27)",2,2004_386
577,"(3, 20, 87)",2,2004_386
578,"(3, 20, 112)",3,2004_386
579,"(3, 20, 169)",2,2004_386
580,"(3, 20, 196)",2,2004_386
581,"(3, 20, 201)",2,2004_386
582,"(3, 112, 196)",2,2004_386
583,"(3, 169, 0)",2,2004_386
584,"(3, 169, 3)",2,2004_386
585,"(3, 169, 14)",2,2004_386
586,"(3, 169, 87)",2,2004_386
587,"(3, 169, 196)",2,2004_386
588,"(3, 169, 3928)",2,2004_386
589,"(3, 201, 318)",2,2004_386
590,"(3, 3928, 0)",2,2004_386
591,"(14, 2, 47)",2,2004_386
592,"(14, 3, 73)",2,2004_386
593,"(14, 38, 47)",2,2004_386
594,"(14, 87, 2)",2,2004_386
595,"(14, 87, 47)",2,2004_386
596,"(14, 196, 2)",2,2004_386
597,"(14, 196, 47)",2,2004_386
598,"(18, 0, 0)",2,2004_386
599,"(18, 27, 0)",2,2004_386
600,"(20, 0, 2)",2,2004_386
601,"(20, 0, 3)",3,2004_386
602,"(20, 0, 27)",5,2004_386
603,"(20, 0, 31)",3,2004_386
604,"(20, 0, 135)",2,2004_386
605,"(20, 0, 244)",2,2004_386
606,"(20, 0, 338)",2,2004_386
607,"(20, 0, 420)",2,2004_386
608,"(20, 3, 27)",2,2004_386
609,"(20, 20, 338)",2,2004_386
610,"(20, 27, 244)",2,2004_386
611,"(20, 31, 27)",2,2004_386
612,"(20, 31, 135)",2,2004_386
613,"(20, 47, 3)",2,2004_386
614,"(20, 47, 338)",2,2004_386
615,"(20, 87, 33)",2,2004_386
616,"(20, 112, 196)",2,2004_386
617,"(27, 0, 0)",2,2004_386
618,"(27, 0, 14)",2,2004_386
619,"(27, 3, 0)",2,2004_386
620,"(27, 3, 3)",2,2004_386
621,"(27, 3, 20)",2,2004_386
622,"(27, 3, 169)",2,2004_386
623,"(27, 244, 2)",2,2004_386
624,"(27, 378, 20)",2,2004_386
625,"(31, 2, 47)",2,2004_386
626,"(31, 2, 265)",2,2004_386
627,"(31, 47, 265)",2,2004_386
628,"(31, 265, 2882)",2,2004_386
629,"(32, 0, 3)",2,2004_386
630,"(32, 3, 20)",2,2004_386
631,"(32, 169, 169)",2,2004_386
632,"(32, 810, 0)",2,2004_386
633,"(32, 810, 6787)",2,2004_386
634,"(32, 6787, 0)",2,2004_386
635,"(33, 0, 6)",2,2004_386
636,"(33, 0, 14)",2,2004_386
637,"(33, 0, 33)",2,2004_386
638,"(33, 0, 209)",2,2004_386
639,"(33, 3, 73)",2,2004_386
640,"(33, 14, 3)",2,2004_386
641,"(33, 14, 6)",2,2004_386
642,"(33, 14, 73)",2,2004_386
643,"(33, 242, 3)",2,2004_386
644,"(33, 242, 14)",2,2004_386
645,"(33, 242, 73)",2,2004_386
646,"(38, 47, 0)",2,2004_386
647,"(38, 47, 2)",2,2004_386
648,"(38, 47, 31)",3,2004_386
649,"(41, 32, 318)",2,2004_386
650,"(41, 47, 0)",2,2004_386
651,"(47, 0, 0)",4,2004_386
652,"(47, 0, 2)",2,2004_386
653,"(47, 0, 20)",3,2004_386
654,"(47, 0, 27)",2,2004_386
655,"(47, 0, 105)",2,2004_386
656,"(47, 0, 244)",2,2004_386
657,"(47, 0, 420)",2,2004_386
658,"(47, 2, 0)",2,2004_386
659,"(47, 2, 2)",2,2004_386
660,"(47, 3, 20)",2,2004_386
661,"(47, 20, 0)",4,2004_386
662,"(47, 20, 2)",2,2004_386
663,"(47, 20, 27)",2,2004_386
664,"(47, 20, 47)",2,2004_386
665,"(47, 20, 244)",2,2004_386
666,"(47, 20, 420)",2,2004_386
667,"(47, 27, 244)",2,2004_386
668,"(47, 47, 0)",3,2004_386
669,"(47, 47, 27)",2,2004_386
670,"(47, 47, 244)",2,2004_386
671,"(47, 244, 2)",2,2004_386
672,"(47, 244, 20)",2,2004_386
673,"(47, 265, 2882)",2,2004_386
674,"(57, 2, 27)",2,2004_386
675,"(62, 87, 31)",2,2004_386
676,"(62, 87, 123)",2,2004_386
677,"(62, 87, 1162)",2,2004_386
678,"(62, 123, 1162)",2,2004_386
679,"(87, 0, 47)",2,2004_386
680,"(87, 2, 27)",2,2004_386
681,"(87, 2, 47)",3,2004_386
682,"(87, 27, 47)",2,2004_386
683,"(87, 33, 2)",2,2004_386
684,"(87, 38, 47)",2,2004_386
685,"(87, 112, 2)",2,2004_386
686,"(87, 123, 1162)",2,2004_386
687,"(87, 218, 47)",2,2004_386
688,"(103, 27, 169)",2,2004_386
689,"(103, 129, 27)",2,2004_386
690,"(103, 129, 169)",2,2004_386
691,"(105, 117, 0)",2,2004_386
692,"(105, 117, 47)",2,2004_386
693,"(112, 47, 3)",2,2004_386
694,"(112, 218, 47)",2,2004_386
695,"(117, 3, 20)",2,2004_386
696,"(117, 3, 112)",2,2004_386
697,"(117, 20, 112)",2,2004_386
698,"(117, 318, 112)",2,2004_386
699,"(129, 0, 14)",2,2004_386
700,"(129, 20, 169)",2,2004_386
701,"(129, 27, 0)",2,2004_386
702,"(129, 27, 14)",2,2004_386
703,"(129, 27, 87)",2,2004_386
704,"(129, 27, 169)",2,2004_386
705,"(129, 27, 212)",2,2004_386
706,"(169, 0, 0)",2,2004_386
707,"(169, 0, 169)",2,2004_386
708,"(169, 3, 0)",2,2004_386
709,"(169, 3, 3928)",2,2004_386
710,"(169, 14, 87)",2,2004_386
711,"(169, 14, 196)",2,2004_386
712,"(169, 169, 0)",2,2004_386
713,"(169, 3928, 0)",2,2004_386
714,"(196, 2, 47)",2,2004_386
715,"(218, 0, 20)",2,2004_386
716,"(242, 3, 73)",2,2004_386
717,"(242, 14, 3)",2,2004_386
718,"(242, 14, 73)",2,2004_386
719,"(244, 0, 0)",2,2004_386
720,"(244, 0, 31)",2,2004_386
721,"(244, 3, 20)",2,2004_386
722,"(244, 20, 0)",2,2004_386
723,"(244, 20, 2)",2,2004_386
724,"(244, 20, 31)",2,2004_386
725,"(244, 27, 31)",2,2004_386
726,"(378, 0, 27)",2,2004_386
727,"(378, 20, 0)",2,2004_386
728,"(378, 62, 87)",2,2004_386
729,"(494, 2, 0)",2,2004_386
730,"(494, 2, 27)",2,2004_386
731,"(494, 47, 0)",2,2004_386
732,"(508, 117, 112)",2,2004_386
733,"(682, 47, 0)",2,2004_386
734,"(788, 0, 0)",2,2004_386
735,"(810, 6787, 0)",2,2004_386
736,"(1216, 38, 31)",2,2004_386
737,"(1216, 38, 47)",2,2004_386
738,"(1216, 47, 31)",2,2004_386
739,"(1718, 32, 32)",2,2004_386
740,"(3773, 0, 420)",2,2004_386
741,"(3773, 20, 0)",2,2004_386
742,"(3773, 20, 420)",2,2004_386
743,"(12692, 12692, 12692)",3,2004_386
744,"(17830, 24447, 0)",2,2004_386
745,"(0, 0, 0, 0)",3,2004_386
746,"(0, 0, 2, 31)",2,2004_386
747,"(0, 0, 31, 27)",2,2004_386
748,"(0, 2, 31, 203)",2,2004_386
749,"(0, 3, 3928, 0)",2,2004_386
750,"(0, 14, 38, 47)",2,2004_386
751,"(0, 20, 0, 2)",2,2004_386
752,"(0, 20, 0, 27)",2,2004_386
753,"(0, 20, 0, 31)",2,2004_386
754,"(0, 31, 2, 47)",2,2004_386
755,"(0, 38, 47, 2)",2,2004_386
756,"(0, 38, 47, 31)",2,2004_386
757,"(0, 47, 20, 0)",2,2004_386
758,"(0, 112, 47, 3)",2,2004_386
759,"(0, 117, 3, 20)",2,2004_386
760,"(0, 129, 27, 212)",2,2004_386
761,"(0, 169, 3, 0)",2,2004_386
762,"(0, 169, 3, 3928)",2,2004_386
763,"(0, 169, 3928, 0)",2,2004_386
764,"(0, 1216, 38, 47)",2,2004_386
765,"(0, 1718, 32, 32)",2,2004_386
766,"(2, 0, 0, 31)",2,2004_386
767,"(2, 0, 20, 0)",2,2004_386
768,"(2, 0, 20, 31)",2,2004_386
769,"(2, 20, 0, 27)",2,2004_386
770,"(2, 20, 0, 31)",2,2004_386
771,"(2, 38, 47, 31)",2,2004_386
772,"(2, 47, 0, 0)",2,2004_386
773,"(2, 47, 20, 0)",2,2004_386
774,"(2, 47, 47, 0)",2,2004_386
775,"(2, 47, 265, 2882)",2,2004_386
776,"(2, 103, 129, 27)",2,2004_386
777,"(2, 12692, 12692, 12692)",2,2004_386
778,"(3, 0, 0, 3)",2,2004_386
779,"(3, 0, 3, 0)",2,2004_386
780,"(3, 0, 3, 3928)",2,2004_386
781,"(3, 0, 169, 0)",2,2004_386
782,"(3, 0, 169, 3)",2,2004_386
783,"(3, 0, 169, 3928)",2,2004_386
784,"(3, 0, 3928, 0)",2,2004_386
785,"(3, 3, 3928, 0)",2,2004_386
786,"(3, 20, 0, 3)",2,2004_386
787,"(3, 20, 0, 27)",2,2004_386
788,"(3, 20, 3, 27)",2,2004_386
789,"(3, 20, 112, 196)",2,2004_386
790,"(3, 169, 3, 0)",2,2004_386
791,"(3, 169, 3, 3928)",2,2004_386
792,"(3, 169, 14, 87)",2,2004_386
793,"(3, 169, 14, 196)",2,2004_386
794,"(3, 169, 3928, 0)",2,2004_386
795,"(14, 87, 2, 47)",2,2004_386
796,"(14, 196, 2, 47)",2,2004_386
797,"(18, 27, 0, 0)",2,2004_386
798,"(20, 0, 27, 244)",2,2004_386
799,"(20, 0, 31, 27)",2,2004_386
800,"(20, 0, 31, 135)",2,2004_386
801,"(27, 3, 3, 0)",2,2004_386
802,"(31, 2, 47, 265)",2,2004_386
803,"(32, 810, 6787, 0)",2,2004_386
804,"(33, 14, 3, 73)",2,2004_386
805,"(33, 242, 3, 73)",2,2004_386
806,"(33, 242, 14, 3)",2,2004_386
807,"(33, 242, 14, 73)",2,2004_386
808,"(47, 0, 0, 105)",2,2004_386
809,"(47, 0, 20, 0)",2,2004_386
810,"(47, 0, 27, 244)",2,2004_386
811,"(47, 2, 0, 0)",2,2004_386
812,"(47, 20, 0, 2)",2,2004_386
813,"(47, 20, 0, 27)",2,2004_386
814,"(47, 20, 0, 244)",2,2004_386
815,"(47, 20, 0, 420)",2,2004_386
816,"(47, 20, 27, 244)",2,2004_386
817,"(47, 47, 0, 27)",2,2004_386
818,"(47, 47, 0, 244)",2,2004_386
819,"(47, 47, 27, 244)",2,2004_386
820,"(62, 87, 123, 1162)",2,2004_386
821,"(103, 129, 27, 169)",2,2004_386
822,"(117, 3, 20, 112)",2,2004_386
823,"(129, 27, 0, 14)",2,2004_386
824,"(169, 3, 3928, 0)",2,2004_386
825,"(242, 14, 3, 73)",2,2004_386
826,"(244, 0, 0, 31)",2,2004_386
827,"(244, 20, 0, 31)",2,2004_386
828,"(1216, 38, 47, 31)",2,2004_386
829,"(3773, 20, 0, 420)",2,2004_386
830,"(12692, 12692, 12692, 12692)",3,2004_386
831,"(0, 0, 0, 0, 0)",3,2004_386
832,"(0, 169, 3, 3928, 0)",2,2004_386
833,"(2, 0, 20, 0, 31)",2,2004_386
834,"(2, 12692, 12692, 12692, 12692)",2,2004_386
835,"(3, 0, 3, 3928, 0)",2,2004_386
836,"(3, 0, 169, 3, 0)",2,2004_386
837,"(3, 0, 169, 3, 3928)",2,2004_386
838,"(3, 0, 169, 3928, 0)",2,2004_386
839,"(3, 169, 3, 3928, 0)",2,2004_386
840,"(33, 242, 14, 3, 73)",2,2004_386
841,"(47, 20, 0, 27, 244)",2,2004_386
842,"(47, 47, 0, 27, 244)",2,2004_386
843,"(12692, 12692, 12692, 12692, 12692)",2,2004_386
844,"(0, 0, 0, 0, 0, 0)",3,2004_386
845,"(2, 12692, 12692, 12692, 12692, 12692)",2,2004_386
846,"(3, 0, 169, 3, 3928, 0)",2,2004_386
847,"(0, 0, 0, 0, 0, 0, 0)",3,2004_386
848,"(0, 0, 0, 0, 0, 0, 0, 0)",3,2004_386
