,pattern,sup,author
42,"(0, 120, 1143)",2,2000_609764
43,"(125, 1143, 0)",2,2000_609764
44,"(125, 3993, 0)",2,2000_609764
45,"(125, 3993, 1143)",2,2000_609764
46,"(582, 0, 1143)",2,2000_609764
47,"(2431, 0, 120)",2,2000_609764
48,"(2431, 0, 1143)",2,2000_609764
49,"(2431, 120, 1143)",2,2000_609764
50,"(3993, 1143, 0)",2,2000_609764
51,"(125, 3993, 1143, 0)",2,2000_609764
52,"(2431, 0, 120, 1143)",2,2000_609764
