,pattern,sup,author
140,"(0, 1097, 1097)",2,2004_270
141,"(10, 73, 135)",2,2004_270
142,"(49, 0, 135)",2,2004_270
143,"(55, 58, 26)",2,2004_270
144,"(96, 6505, 8290)",3,2004_270
145,"(125, 2374, 1097)",2,2004_270
146,"(1097, 0, 1097)",2,2004_270
147,"(1097, 1097, 1097)",2,2004_270
148,"(1097, 1591, 1097)",2,2004_270
149,"(9074, 208, 155)",2,2004_270
150,"(9432, 10, 135)",2,2004_270
151,"(28760, 208, 155)",2,2004_270
152,"(28760, 9074, 155)",2,2004_270
153,"(28760, 9074, 208)",2,2004_270
154,"(0, 1097, 1097, 1097)",2,2004_270
155,"(28760, 9074, 208, 155)",2,2004_270
