,pattern,sup,author
161,"(29, 48, 29)",2,mbtiauth_8519
162,"(29, 48, 2090)",2,mbtiauth_8519
163,"(50, 29, 50)",2,mbtiauth_8519
164,"(50, 48, 29)",3,mbtiauth_8519
165,"(50, 48, 50)",2,mbtiauth_8519
166,"(50, 50, 3)",2,mbtiauth_8519
167,"(50, 240, 48)",2,mbtiauth_8519
168,"(50, 408, 29)",2,mbtiauth_8519
169,"(50, 736, 50)",2,mbtiauth_8519
170,"(50, 1482, 3)",2,mbtiauth_8519
171,"(75, 50, 3)",2,mbtiauth_8519
172,"(75, 50, 48)",2,mbtiauth_8519
173,"(75, 50, 1482)",2,mbtiauth_8519
174,"(125, 1151, 50)",2,mbtiauth_8519
175,"(262, 50, 3825)",2,mbtiauth_8519
176,"(957, 50, 50)",2,mbtiauth_8519
177,"(1690, 50, 3)",2,mbtiauth_8519
178,"(1690, 50, 50)",2,mbtiauth_8519
179,"(1690, 50, 1482)",2,mbtiauth_8519
180,"(1690, 1482, 3)",2,mbtiauth_8519
181,"(1690, 50, 50, 3)",2,mbtiauth_8519
182,"(1690, 50, 1482, 3)",2,mbtiauth_8519
