,pattern,sup,author
196,"(5, 18, 17)",3,mbtiauth_1730
197,"(5, 45401, 4546)",2,mbtiauth_1730
198,"(5, 45401, 92568)",2,mbtiauth_1730
199,"(5, 92568, 4546)",2,mbtiauth_1730
200,"(19, 50, 19)",2,mbtiauth_1730
201,"(19, 408, 19)",2,mbtiauth_1730
202,"(19, 408, 50)",2,mbtiauth_1730
203,"(50, 19, 50)",2,mbtiauth_1730
204,"(50, 48, 50)",2,mbtiauth_1730
205,"(50, 50, 50)",7,mbtiauth_1730
206,"(50, 50, 91)",2,mbtiauth_1730
207,"(50, 50, 240)",2,mbtiauth_1730
208,"(50, 50, 1018)",2,mbtiauth_1730
209,"(50, 240, 50)",3,mbtiauth_1730
210,"(50, 408, 50)",2,mbtiauth_1730
211,"(50, 957, 50)",2,mbtiauth_1730
212,"(50, 10155, 181)",2,mbtiauth_1730
213,"(91, 240, 50)",2,mbtiauth_1730
214,"(240, 50, 5415)",2,mbtiauth_1730
215,"(255, 50, 50)",2,mbtiauth_1730
216,"(262, 321, 1675)",2,mbtiauth_1730
217,"(262, 321, 3138)",2,mbtiauth_1730
218,"(262, 3138, 1675)",2,mbtiauth_1730
219,"(321, 3138, 1675)",2,mbtiauth_1730
220,"(408, 50, 19)",2,mbtiauth_1730
221,"(408, 50, 50)",2,mbtiauth_1730
222,"(1040, 50, 50)",2,mbtiauth_1730
223,"(1542, 50, 50)",2,mbtiauth_1730
224,"(5848, 7962, 1542)",2,mbtiauth_1730
225,"(45401, 92568, 4546)",2,mbtiauth_1730
226,"(92570, 50, 50)",2,mbtiauth_1730
227,"(5, 45401, 92568, 4546)",2,mbtiauth_1730
228,"(19, 408, 50, 19)",2,mbtiauth_1730
229,"(50, 50, 240, 50)",2,mbtiauth_1730
230,"(262, 321, 3138, 1675)",2,mbtiauth_1730
