,pattern,sup,author
182,"(50, 48, 361)",2,mbtiauth_1542
183,"(50, 50, 50)",2,mbtiauth_1542
184,"(50, 50, 225)",2,mbtiauth_1542
185,"(50, 50, 262)",2,mbtiauth_1542
186,"(50, 50, 6137)",2,mbtiauth_1542
187,"(50, 169, 779)",2,mbtiauth_1542
188,"(50, 6137, 50)",3,mbtiauth_1542
189,"(50, 6137, 6137)",2,mbtiauth_1542
190,"(91, 96, 50)",2,mbtiauth_1542
191,"(115, 5149, 3410)",2,mbtiauth_1542
192,"(115, 5356, 3410)",2,mbtiauth_1542
193,"(115, 5356, 5149)",2,mbtiauth_1542
194,"(262, 169, 169)",2,mbtiauth_1542
195,"(350, 390, 50)",2,mbtiauth_1542
196,"(1200, 50, 1151)",2,mbtiauth_1542
197,"(4177, 50, 50)",2,mbtiauth_1542
198,"(4177, 50, 6137)",2,mbtiauth_1542
199,"(4177, 6137, 50)",2,mbtiauth_1542
200,"(4177, 6137, 6137)",2,mbtiauth_1542
201,"(5356, 5149, 3410)",2,mbtiauth_1542
202,"(6137, 50, 50)",2,mbtiauth_1542
203,"(6137, 50, 6137)",3,mbtiauth_1542
204,"(6137, 4177, 50)",2,mbtiauth_1542
205,"(6137, 4177, 6137)",2,mbtiauth_1542
206,"(6137, 6137, 50)",2,mbtiauth_1542
207,"(6137, 6137, 6137)",2,mbtiauth_1542
208,"(50, 6137, 50, 6137)",2,mbtiauth_1542
209,"(115, 5356, 5149, 3410)",2,mbtiauth_1542
210,"(4177, 50, 50, 6137)",2,mbtiauth_1542
211,"(4177, 50, 6137, 50)",2,mbtiauth_1542
212,"(4177, 50, 6137, 6137)",2,mbtiauth_1542
213,"(4177, 6137, 50, 6137)",2,mbtiauth_1542
214,"(6137, 50, 50, 6137)",2,mbtiauth_1542
215,"(6137, 50, 6137, 50)",2,mbtiauth_1542
216,"(6137, 50, 6137, 6137)",2,mbtiauth_1542
217,"(6137, 4177, 50, 50)",2,mbtiauth_1542
218,"(6137, 4177, 50, 6137)",2,mbtiauth_1542
219,"(6137, 4177, 6137, 50)",2,mbtiauth_1542
220,"(6137, 4177, 6137, 6137)",2,mbtiauth_1542
221,"(6137, 6137, 50, 6137)",2,mbtiauth_1542
222,"(4177, 50, 6137, 50, 6137)",2,mbtiauth_1542
223,"(6137, 50, 6137, 50, 6137)",2,mbtiauth_1542
224,"(6137, 4177, 50, 50, 6137)",2,mbtiauth_1542
225,"(6137, 4177, 50, 6137, 50)",2,mbtiauth_1542
226,"(6137, 4177, 50, 6137, 6137)",2,mbtiauth_1542
227,"(6137, 4177, 6137, 50, 6137)",2,mbtiauth_1542
228,"(6137, 4177, 50, 6137, 50, 6137)",2,mbtiauth_1542
