,pattern,sup,author
75,"(5, 5, 5)",3,mbtiauth_7128
76,"(5, 5, 17)",4,mbtiauth_7128
77,"(5, 5, 18)",4,mbtiauth_7128
78,"(5, 5, 1671)",2,mbtiauth_7128
79,"(5, 5, 3554)",2,mbtiauth_7128
80,"(5, 5, 4385)",3,mbtiauth_7128
81,"(5, 5, 6638)",3,mbtiauth_7128
82,"(5, 5, 8258)",3,mbtiauth_7128
83,"(5, 5, 10243)",3,mbtiauth_7128
84,"(5, 17, 5)",4,mbtiauth_7128
85,"(5, 17, 17)",4,mbtiauth_7128
86,"(5, 17, 18)",4,mbtiauth_7128
87,"(5, 17, 670)",2,mbtiauth_7128
88,"(5, 17, 1671)",2,mbtiauth_7128
89,"(5, 17, 3554)",2,mbtiauth_7128
90,"(5, 17, 4385)",3,mbtiauth_7128
91,"(5, 17, 6638)",2,mbtiauth_7128
92,"(5, 17, 8258)",3,mbtiauth_7128
93,"(5, 17, 10243)",3,mbtiauth_7128
94,"(5, 17, 21521)",2,mbtiauth_7128
95,"(5, 18, 5)",4,mbtiauth_7128
96,"(5, 18, 17)",4,mbtiauth_7128
97,"(5, 18, 18)",4,mbtiauth_7128
98,"(5, 18, 670)",2,mbtiauth_7128
99,"(5, 18, 1671)",2,mbtiauth_7128
100,"(5, 18, 3554)",2,mbtiauth_7128
101,"(5, 18, 4385)",3,mbtiauth_7128
102,"(5, 18, 6638)",2,mbtiauth_7128
103,"(5, 18, 8258)",3,mbtiauth_7128
104,"(5, 18, 10243)",3,mbtiauth_7128
105,"(5, 18, 21521)",2,mbtiauth_7128
106,"(5, 3554, 5)",2,mbtiauth_7128
107,"(5, 4385, 5)",3,mbtiauth_7128
108,"(5, 4385, 17)",2,mbtiauth_7128
109,"(5, 4385, 18)",2,mbtiauth_7128
110,"(5, 4385, 3554)",2,mbtiauth_7128
111,"(5, 4385, 8258)",2,mbtiauth_7128
112,"(5, 4385, 21521)",2,mbtiauth_7128
113,"(5, 6638, 5)",3,mbtiauth_7128
114,"(5, 6638, 17)",3,mbtiauth_7128
115,"(5, 6638, 18)",3,mbtiauth_7128
116,"(5, 8258, 5)",3,mbtiauth_7128
117,"(5, 8258, 17)",3,mbtiauth_7128
118,"(5, 8258, 18)",3,mbtiauth_7128
119,"(5, 10243, 5)",3,mbtiauth_7128
120,"(5, 10243, 17)",2,mbtiauth_7128
121,"(5, 10243, 18)",3,mbtiauth_7128
122,"(5, 21521, 5)",2,mbtiauth_7128
123,"(17, 5, 5)",4,mbtiauth_7128
124,"(17, 5, 17)",4,mbtiauth_7128
125,"(17, 5, 18)",4,mbtiauth_7128
126,"(17, 5, 1671)",2,mbtiauth_7128
127,"(17, 5, 6638)",2,mbtiauth_7128
128,"(17, 5, 8258)",3,mbtiauth_7128
129,"(17, 5, 10243)",3,mbtiauth_7128
130,"(17, 17, 5)",4,mbtiauth_7128
131,"(17, 18, 5)",4,mbtiauth_7128
132,"(17, 18, 17)",4,mbtiauth_7128
133,"(17, 3554, 5)",2,mbtiauth_7128
134,"(17, 4385, 5)",3,mbtiauth_7128
135,"(17, 4385, 17)",3,mbtiauth_7128
136,"(17, 4385, 18)",3,mbtiauth_7128
137,"(17, 4385, 3554)",2,mbtiauth_7128
138,"(17, 4385, 8258)",2,mbtiauth_7128
139,"(17, 4385, 10243)",2,mbtiauth_7128
140,"(17, 4385, 21521)",2,mbtiauth_7128
141,"(17, 6638, 5)",2,mbtiauth_7128
142,"(17, 6638, 17)",2,mbtiauth_7128
143,"(17, 6638, 18)",2,mbtiauth_7128
144,"(17, 8258, 5)",3,mbtiauth_7128
145,"(17, 8258, 17)",2,mbtiauth_7128
146,"(17, 8258, 18)",2,mbtiauth_7128
147,"(17, 10243, 5)",3,mbtiauth_7128
148,"(17, 10243, 17)",2,mbtiauth_7128
149,"(17, 10243, 18)",2,mbtiauth_7128
150,"(17, 21521, 5)",2,mbtiauth_7128
151,"(17, 21521, 17)",2,mbtiauth_7128
152,"(17, 21521, 18)",2,mbtiauth_7128
153,"(18, 5, 5)",4,mbtiauth_7128
154,"(18, 5, 17)",4,mbtiauth_7128
155,"(18, 5, 18)",4,mbtiauth_7128
156,"(18, 5, 1671)",2,mbtiauth_7128
157,"(18, 5, 6638)",2,mbtiauth_7128
158,"(18, 5, 8258)",3,mbtiauth_7128
159,"(18, 5, 10243)",3,mbtiauth_7128
160,"(18, 17, 5)",4,mbtiauth_7128
161,"(18, 17, 17)",4,mbtiauth_7128
162,"(18, 17, 18)",4,mbtiauth_7128
163,"(18, 17, 670)",2,mbtiauth_7128
164,"(18, 17, 1671)",2,mbtiauth_7128
165,"(18, 17, 3554)",2,mbtiauth_7128
166,"(18, 17, 4385)",3,mbtiauth_7128
167,"(18, 17, 6638)",2,mbtiauth_7128
168,"(18, 17, 8258)",3,mbtiauth_7128
169,"(18, 17, 10243)",3,mbtiauth_7128
170,"(18, 17, 21521)",2,mbtiauth_7128
171,"(18, 18, 5)",4,mbtiauth_7128
172,"(18, 18, 17)",4,mbtiauth_7128
173,"(18, 3554, 5)",2,mbtiauth_7128
174,"(18, 4385, 5)",3,mbtiauth_7128
175,"(18, 4385, 17)",2,mbtiauth_7128
176,"(18, 4385, 18)",3,mbtiauth_7128
177,"(18, 4385, 3554)",2,mbtiauth_7128
178,"(18, 4385, 8258)",2,mbtiauth_7128
179,"(18, 4385, 21521)",2,mbtiauth_7128
180,"(18, 6638, 5)",2,mbtiauth_7128
181,"(18, 6638, 17)",2,mbtiauth_7128
182,"(18, 6638, 18)",2,mbtiauth_7128
183,"(18, 8258, 5)",3,mbtiauth_7128
184,"(18, 8258, 18)",2,mbtiauth_7128
185,"(18, 10243, 5)",3,mbtiauth_7128
186,"(18, 10243, 18)",2,mbtiauth_7128
187,"(18, 21521, 5)",2,mbtiauth_7128
188,"(18, 21521, 18)",2,mbtiauth_7128
189,"(19, 5, 5)",2,mbtiauth_7128
190,"(19, 5, 6638)",2,mbtiauth_7128
191,"(50, 50, 50)",4,mbtiauth_7128
192,"(50, 50, 14373)",2,mbtiauth_7128
193,"(50, 14373, 50)",2,mbtiauth_7128
194,"(3554, 5, 5)",2,mbtiauth_7128
195,"(4385, 5, 5)",3,mbtiauth_7128
196,"(4385, 5, 17)",3,mbtiauth_7128
197,"(4385, 5, 18)",3,mbtiauth_7128
198,"(4385, 5, 8258)",2,mbtiauth_7128
199,"(4385, 5, 10243)",2,mbtiauth_7128
200,"(4385, 17, 5)",3,mbtiauth_7128
201,"(4385, 18, 5)",3,mbtiauth_7128
202,"(4385, 18, 17)",3,mbtiauth_7128
203,"(4385, 3554, 5)",2,mbtiauth_7128
204,"(4385, 8258, 5)",2,mbtiauth_7128
205,"(4385, 10243, 5)",2,mbtiauth_7128
206,"(4385, 21521, 5)",2,mbtiauth_7128
207,"(4385, 21521, 17)",2,mbtiauth_7128
208,"(4385, 21521, 18)",2,mbtiauth_7128
209,"(6638, 5, 5)",3,mbtiauth_7128
210,"(6638, 5, 17)",3,mbtiauth_7128
211,"(6638, 5, 18)",3,mbtiauth_7128
212,"(6638, 17, 5)",3,mbtiauth_7128
213,"(6638, 18, 5)",3,mbtiauth_7128
214,"(6638, 18, 17)",3,mbtiauth_7128
215,"(8258, 5, 5)",3,mbtiauth_7128
216,"(8258, 5, 17)",3,mbtiauth_7128
217,"(8258, 5, 18)",3,mbtiauth_7128
218,"(8258, 17, 5)",3,mbtiauth_7128
219,"(8258, 18, 5)",3,mbtiauth_7128
220,"(8258, 18, 17)",3,mbtiauth_7128
221,"(10243, 5, 5)",3,mbtiauth_7128
222,"(10243, 5, 17)",3,mbtiauth_7128
223,"(10243, 5, 18)",3,mbtiauth_7128
224,"(10243, 5, 8258)",2,mbtiauth_7128
225,"(10243, 17, 5)",2,mbtiauth_7128
226,"(10243, 18, 5)",2,mbtiauth_7128
227,"(10243, 18, 17)",3,mbtiauth_7128
228,"(21521, 5, 5)",2,mbtiauth_7128
229,"(21521, 5, 17)",2,mbtiauth_7128
230,"(21521, 5, 18)",2,mbtiauth_7128
231,"(21521, 17, 5)",2,mbtiauth_7128
232,"(21521, 18, 5)",2,mbtiauth_7128
233,"(21521, 18, 17)",2,mbtiauth_7128
234,"(5, 5, 5, 17)",3,mbtiauth_7128
235,"(5, 5, 5, 18)",3,mbtiauth_7128
236,"(5, 5, 5, 6638)",2,mbtiauth_7128
237,"(5, 5, 17, 5)",3,mbtiauth_7128
238,"(5, 5, 17, 3554)",2,mbtiauth_7128
239,"(5, 5, 17, 4385)",3,mbtiauth_7128
240,"(5, 5, 17, 6638)",2,mbtiauth_7128
241,"(5, 5, 18, 5)",3,mbtiauth_7128
242,"(5, 5, 18, 17)",4,mbtiauth_7128
243,"(5, 5, 18, 3554)",2,mbtiauth_7128
244,"(5, 5, 18, 4385)",3,mbtiauth_7128
245,"(5, 5, 18, 6638)",2,mbtiauth_7128
246,"(5, 5, 4385, 3554)",2,mbtiauth_7128
247,"(5, 5, 6638, 5)",2,mbtiauth_7128
248,"(5, 5, 6638, 17)",2,mbtiauth_7128
249,"(5, 5, 6638, 18)",2,mbtiauth_7128
250,"(5, 5, 8258, 5)",3,mbtiauth_7128
251,"(5, 5, 8258, 17)",2,mbtiauth_7128
252,"(5, 5, 8258, 18)",3,mbtiauth_7128
253,"(5, 5, 10243, 5)",3,mbtiauth_7128
254,"(5, 17, 5, 5)",3,mbtiauth_7128
255,"(5, 17, 5, 17)",4,mbtiauth_7128
256,"(5, 17, 5, 18)",4,mbtiauth_7128
257,"(5, 17, 5, 1671)",2,mbtiauth_7128
258,"(5, 17, 5, 6638)",2,mbtiauth_7128
259,"(5, 17, 5, 8258)",3,mbtiauth_7128
260,"(5, 17, 5, 10243)",3,mbtiauth_7128
261,"(5, 17, 18, 17)",4,mbtiauth_7128
262,"(5, 17, 3554, 5)",2,mbtiauth_7128
263,"(5, 17, 4385, 5)",3,mbtiauth_7128
264,"(5, 17, 4385, 17)",2,mbtiauth_7128
265,"(5, 17, 4385, 18)",2,mbtiauth_7128
266,"(5, 17, 4385, 3554)",2,mbtiauth_7128
267,"(5, 17, 4385, 8258)",2,mbtiauth_7128
268,"(5, 17, 4385, 21521)",2,mbtiauth_7128
269,"(5, 17, 6638, 5)",2,mbtiauth_7128
270,"(5, 17, 6638, 17)",2,mbtiauth_7128
271,"(5, 17, 6638, 18)",2,mbtiauth_7128
272,"(5, 17, 8258, 5)",3,mbtiauth_7128
273,"(5, 17, 10243, 5)",3,mbtiauth_7128
274,"(5, 17, 21521, 5)",2,mbtiauth_7128
275,"(5, 18, 5, 5)",3,mbtiauth_7128
276,"(5, 18, 5, 17)",4,mbtiauth_7128
277,"(5, 18, 5, 18)",4,mbtiauth_7128
278,"(5, 18, 5, 1671)",2,mbtiauth_7128
279,"(5, 18, 5, 6638)",2,mbtiauth_7128
280,"(5, 18, 5, 8258)",3,mbtiauth_7128
281,"(5, 18, 5, 10243)",3,mbtiauth_7128
282,"(5, 18, 17, 5)",4,mbtiauth_7128
283,"(5, 18, 17, 17)",4,mbtiauth_7128
284,"(5, 18, 17, 18)",4,mbtiauth_7128
285,"(5, 18, 17, 670)",2,mbtiauth_7128
286,"(5, 18, 17, 1671)",2,mbtiauth_7128
287,"(5, 18, 17, 3554)",2,mbtiauth_7128
288,"(5, 18, 17, 4385)",3,mbtiauth_7128
289,"(5, 18, 17, 6638)",2,mbtiauth_7128
290,"(5, 18, 17, 8258)",3,mbtiauth_7128
291,"(5, 18, 17, 10243)",3,mbtiauth_7128
292,"(5, 18, 17, 21521)",2,mbtiauth_7128
293,"(5, 18, 18, 17)",4,mbtiauth_7128
294,"(5, 18, 3554, 5)",2,mbtiauth_7128
295,"(5, 18, 4385, 5)",3,mbtiauth_7128
296,"(5, 18, 4385, 17)",2,mbtiauth_7128
297,"(5, 18, 4385, 18)",2,mbtiauth_7128
298,"(5, 18, 4385, 3554)",2,mbtiauth_7128
299,"(5, 18, 4385, 8258)",2,mbtiauth_7128
300,"(5, 18, 4385, 21521)",2,mbtiauth_7128
301,"(5, 18, 6638, 5)",2,mbtiauth_7128
302,"(5, 18, 6638, 17)",2,mbtiauth_7128
303,"(5, 18, 6638, 18)",2,mbtiauth_7128
304,"(5, 18, 8258, 5)",3,mbtiauth_7128
305,"(5, 18, 10243, 5)",3,mbtiauth_7128
306,"(5, 18, 21521, 5)",2,mbtiauth_7128
307,"(5, 4385, 5, 5)",2,mbtiauth_7128
308,"(5, 4385, 5, 17)",2,mbtiauth_7128
309,"(5, 4385, 5, 18)",2,mbtiauth_7128
310,"(5, 4385, 5, 8258)",2,mbtiauth_7128
311,"(5, 4385, 18, 17)",2,mbtiauth_7128
312,"(5, 4385, 3554, 5)",2,mbtiauth_7128
313,"(5, 4385, 8258, 5)",2,mbtiauth_7128
314,"(5, 4385, 21521, 5)",2,mbtiauth_7128
315,"(5, 6638, 5, 5)",3,mbtiauth_7128
316,"(5, 6638, 5, 17)",3,mbtiauth_7128
317,"(5, 6638, 5, 18)",3,mbtiauth_7128
318,"(5, 6638, 17, 5)",3,mbtiauth_7128
319,"(5, 6638, 18, 5)",3,mbtiauth_7128
320,"(5, 6638, 18, 17)",3,mbtiauth_7128
321,"(5, 8258, 5, 5)",3,mbtiauth_7128
322,"(5, 8258, 5, 17)",3,mbtiauth_7128
323,"(5, 8258, 5, 18)",3,mbtiauth_7128
324,"(5, 8258, 17, 5)",3,mbtiauth_7128
325,"(5, 8258, 18, 5)",3,mbtiauth_7128
326,"(5, 8258, 18, 17)",3,mbtiauth_7128
327,"(5, 10243, 5, 5)",3,mbtiauth_7128
328,"(5, 10243, 5, 17)",2,mbtiauth_7128
329,"(5, 10243, 5, 18)",3,mbtiauth_7128
330,"(5, 10243, 17, 5)",2,mbtiauth_7128
331,"(5, 10243, 18, 5)",2,mbtiauth_7128
332,"(5, 10243, 18, 17)",2,mbtiauth_7128
333,"(17, 5, 5, 5)",2,mbtiauth_7128
334,"(17, 5, 5, 17)",3,mbtiauth_7128
335,"(17, 5, 5, 18)",4,mbtiauth_7128
336,"(17, 5, 5, 8258)",2,mbtiauth_7128
337,"(17, 5, 5, 10243)",2,mbtiauth_7128
338,"(17, 5, 17, 5)",4,mbtiauth_7128
339,"(17, 5, 18, 5)",4,mbtiauth_7128
340,"(17, 5, 18, 17)",4,mbtiauth_7128
341,"(17, 5, 6638, 5)",2,mbtiauth_7128
342,"(17, 5, 6638, 17)",2,mbtiauth_7128
343,"(17, 5, 6638, 18)",2,mbtiauth_7128
344,"(17, 5, 8258, 5)",3,mbtiauth_7128
345,"(17, 5, 8258, 17)",2,mbtiauth_7128
346,"(17, 5, 8258, 18)",2,mbtiauth_7128
347,"(17, 5, 10243, 5)",3,mbtiauth_7128
348,"(17, 5, 10243, 17)",2,mbtiauth_7128
349,"(17, 5, 10243, 18)",2,mbtiauth_7128
350,"(17, 18, 17, 5)",4,mbtiauth_7128
351,"(17, 3554, 5, 5)",2,mbtiauth_7128
352,"(17, 4385, 5, 5)",3,mbtiauth_7128
353,"(17, 4385, 5, 17)",3,mbtiauth_7128
354,"(17, 4385, 5, 18)",3,mbtiauth_7128
355,"(17, 4385, 5, 8258)",2,mbtiauth_7128
356,"(17, 4385, 5, 10243)",2,mbtiauth_7128
357,"(17, 4385, 17, 5)",2,mbtiauth_7128
358,"(17, 4385, 18, 5)",2,mbtiauth_7128
359,"(17, 4385, 18, 17)",3,mbtiauth_7128
360,"(17, 4385, 3554, 5)",2,mbtiauth_7128
361,"(17, 4385, 8258, 5)",2,mbtiauth_7128
362,"(17, 4385, 21521, 5)",2,mbtiauth_7128
363,"(17, 4385, 21521, 17)",2,mbtiauth_7128
364,"(17, 4385, 21521, 18)",2,mbtiauth_7128
365,"(17, 6638, 5, 17)",2,mbtiauth_7128
366,"(17, 6638, 5, 18)",2,mbtiauth_7128
367,"(17, 6638, 18, 17)",2,mbtiauth_7128
368,"(17, 8258, 5, 17)",2,mbtiauth_7128
369,"(17, 8258, 5, 18)",2,mbtiauth_7128
370,"(17, 8258, 18, 17)",2,mbtiauth_7128
371,"(17, 10243, 5, 17)",2,mbtiauth_7128
372,"(17, 10243, 5, 18)",2,mbtiauth_7128
373,"(17, 10243, 18, 17)",2,mbtiauth_7128
374,"(17, 21521, 5, 5)",2,mbtiauth_7128
375,"(17, 21521, 5, 17)",2,mbtiauth_7128
376,"(17, 21521, 5, 18)",2,mbtiauth_7128
377,"(17, 21521, 18, 17)",2,mbtiauth_7128
378,"(18, 5, 5, 17)",3,mbtiauth_7128
379,"(18, 5, 5, 18)",3,mbtiauth_7128
380,"(18, 5, 5, 8258)",2,mbtiauth_7128
381,"(18, 5, 17, 5)",4,mbtiauth_7128
382,"(18, 5, 18, 5)",4,mbtiauth_7128
383,"(18, 5, 18, 17)",4,mbtiauth_7128
384,"(18, 5, 6638, 5)",2,mbtiauth_7128
385,"(18, 5, 6638, 17)",2,mbtiauth_7128
386,"(18, 5, 6638, 18)",2,mbtiauth_7128
387,"(18, 5, 8258, 5)",3,mbtiauth_7128
388,"(18, 5, 8258, 18)",2,mbtiauth_7128
389,"(18, 5, 10243, 5)",3,mbtiauth_7128
390,"(18, 5, 10243, 18)",2,mbtiauth_7128
391,"(18, 17, 5, 5)",4,mbtiauth_7128
392,"(18, 17, 5, 17)",4,mbtiauth_7128
393,"(18, 17, 5, 18)",4,mbtiauth_7128
394,"(18, 17, 5, 1671)",2,mbtiauth_7128
395,"(18, 17, 5, 6638)",2,mbtiauth_7128
396,"(18, 17, 5, 8258)",3,mbtiauth_7128
397,"(18, 17, 5, 10243)",3,mbtiauth_7128
398,"(18, 17, 17, 5)",4,mbtiauth_7128
399,"(18, 17, 18, 5)",4,mbtiauth_7128
400,"(18, 17, 18, 17)",4,mbtiauth_7128
401,"(18, 17, 3554, 5)",2,mbtiauth_7128
402,"(18, 17, 4385, 5)",3,mbtiauth_7128
403,"(18, 17, 4385, 17)",2,mbtiauth_7128
404,"(18, 17, 4385, 18)",3,mbtiauth_7128
405,"(18, 17, 4385, 3554)",2,mbtiauth_7128
406,"(18, 17, 4385, 8258)",2,mbtiauth_7128
407,"(18, 17, 4385, 21521)",2,mbtiauth_7128
408,"(18, 17, 6638, 5)",2,mbtiauth_7128
409,"(18, 17, 6638, 17)",2,mbtiauth_7128
410,"(18, 17, 6638, 18)",2,mbtiauth_7128
411,"(18, 17, 8258, 5)",3,mbtiauth_7128
412,"(18, 17, 8258, 18)",2,mbtiauth_7128
413,"(18, 17, 10243, 5)",3,mbtiauth_7128
414,"(18, 17, 10243, 18)",2,mbtiauth_7128
415,"(18, 17, 21521, 5)",2,mbtiauth_7128
416,"(18, 17, 21521, 18)",2,mbtiauth_7128
417,"(18, 18, 17, 5)",4,mbtiauth_7128
418,"(18, 3554, 5, 5)",2,mbtiauth_7128
419,"(18, 4385, 5, 5)",3,mbtiauth_7128
420,"(18, 4385, 5, 17)",2,mbtiauth_7128
421,"(18, 4385, 5, 18)",3,mbtiauth_7128
422,"(18, 4385, 5, 8258)",2,mbtiauth_7128
423,"(18, 4385, 17, 5)",2,mbtiauth_7128
424,"(18, 4385, 18, 5)",2,mbtiauth_7128
425,"(18, 4385, 18, 17)",2,mbtiauth_7128
426,"(18, 4385, 3554, 5)",2,mbtiauth_7128
427,"(18, 4385, 8258, 5)",2,mbtiauth_7128
428,"(18, 4385, 21521, 5)",2,mbtiauth_7128
429,"(18, 4385, 21521, 18)",2,mbtiauth_7128
430,"(18, 6638, 5, 17)",2,mbtiauth_7128
431,"(18, 6638, 5, 18)",2,mbtiauth_7128
432,"(18, 6638, 18, 17)",2,mbtiauth_7128
433,"(18, 8258, 5, 18)",2,mbtiauth_7128
434,"(18, 10243, 5, 18)",2,mbtiauth_7128
435,"(18, 21521, 5, 5)",2,mbtiauth_7128
436,"(18, 21521, 5, 18)",2,mbtiauth_7128
437,"(50, 50, 50, 50)",3,mbtiauth_7128
438,"(50, 50, 50, 14373)",2,mbtiauth_7128
439,"(50, 50, 14373, 50)",2,mbtiauth_7128
440,"(4385, 5, 5, 5)",3,mbtiauth_7128
441,"(4385, 5, 5, 10243)",2,mbtiauth_7128
442,"(4385, 5, 17, 5)",3,mbtiauth_7128
443,"(4385, 5, 18, 5)",3,mbtiauth_7128
444,"(4385, 5, 18, 17)",3,mbtiauth_7128
445,"(4385, 5, 8258, 5)",2,mbtiauth_7128
446,"(4385, 5, 10243, 5)",2,mbtiauth_7128
447,"(4385, 18, 17, 5)",3,mbtiauth_7128
448,"(4385, 3554, 5, 5)",2,mbtiauth_7128
449,"(4385, 8258, 5, 5)",2,mbtiauth_7128
450,"(4385, 21521, 5, 5)",2,mbtiauth_7128
451,"(4385, 21521, 5, 17)",2,mbtiauth_7128
452,"(4385, 21521, 5, 18)",2,mbtiauth_7128
453,"(4385, 21521, 17, 5)",2,mbtiauth_7128
454,"(4385, 21521, 18, 5)",2,mbtiauth_7128
455,"(4385, 21521, 18, 17)",2,mbtiauth_7128
456,"(6638, 5, 17, 5)",3,mbtiauth_7128
457,"(6638, 5, 18, 5)",3,mbtiauth_7128
458,"(6638, 5, 18, 17)",3,mbtiauth_7128
459,"(6638, 18, 17, 5)",3,mbtiauth_7128
460,"(8258, 5, 5, 5)",3,mbtiauth_7128
461,"(8258, 5, 17, 5)",3,mbtiauth_7128
462,"(8258, 5, 18, 5)",3,mbtiauth_7128
463,"(8258, 5, 18, 17)",3,mbtiauth_7128
464,"(8258, 18, 17, 5)",3,mbtiauth_7128
465,"(10243, 5, 5, 17)",2,mbtiauth_7128
466,"(10243, 5, 5, 18)",2,mbtiauth_7128
467,"(10243, 5, 17, 5)",2,mbtiauth_7128
468,"(10243, 5, 18, 5)",2,mbtiauth_7128
469,"(10243, 5, 18, 17)",3,mbtiauth_7128
470,"(10243, 18, 17, 5)",2,mbtiauth_7128
471,"(21521, 5, 5, 5)",2,mbtiauth_7128
472,"(21521, 5, 5, 18)",2,mbtiauth_7128
473,"(21521, 5, 17, 5)",2,mbtiauth_7128
474,"(21521, 5, 18, 5)",2,mbtiauth_7128
475,"(21521, 5, 18, 17)",2,mbtiauth_7128
476,"(21521, 18, 17, 5)",2,mbtiauth_7128
477,"(5, 5, 5, 18, 17)",3,mbtiauth_7128
478,"(5, 5, 17, 5, 6638)",2,mbtiauth_7128
479,"(5, 5, 17, 4385, 3554)",2,mbtiauth_7128
480,"(5, 5, 18, 5, 6638)",2,mbtiauth_7128
481,"(5, 5, 18, 17, 5)",3,mbtiauth_7128
482,"(5, 5, 18, 17, 3554)",2,mbtiauth_7128
483,"(5, 5, 18, 17, 4385)",3,mbtiauth_7128
484,"(5, 5, 18, 17, 6638)",2,mbtiauth_7128
485,"(5, 5, 18, 4385, 3554)",2,mbtiauth_7128
486,"(5, 5, 6638, 5, 17)",2,mbtiauth_7128
487,"(5, 5, 6638, 5, 18)",2,mbtiauth_7128
488,"(5, 5, 6638, 18, 17)",2,mbtiauth_7128
489,"(5, 5, 8258, 5, 17)",2,mbtiauth_7128
490,"(5, 5, 8258, 5, 18)",3,mbtiauth_7128
491,"(5, 5, 8258, 18, 17)",2,mbtiauth_7128
492,"(5, 17, 5, 5, 17)",3,mbtiauth_7128
493,"(5, 17, 5, 5, 18)",3,mbtiauth_7128
494,"(5, 17, 5, 18, 17)",4,mbtiauth_7128
495,"(5, 17, 5, 6638, 5)",2,mbtiauth_7128
496,"(5, 17, 5, 6638, 17)",2,mbtiauth_7128
497,"(5, 17, 5, 6638, 18)",2,mbtiauth_7128
498,"(5, 17, 5, 8258, 5)",3,mbtiauth_7128
499,"(5, 17, 5, 10243, 5)",3,mbtiauth_7128
500,"(5, 17, 4385, 5, 5)",2,mbtiauth_7128
501,"(5, 17, 4385, 5, 17)",2,mbtiauth_7128
502,"(5, 17, 4385, 5, 18)",2,mbtiauth_7128
503,"(5, 17, 4385, 5, 8258)",2,mbtiauth_7128
504,"(5, 17, 4385, 18, 17)",2,mbtiauth_7128
505,"(5, 17, 4385, 3554, 5)",2,mbtiauth_7128
506,"(5, 17, 4385, 8258, 5)",2,mbtiauth_7128
507,"(5, 17, 4385, 21521, 5)",2,mbtiauth_7128
508,"(5, 17, 6638, 5, 17)",2,mbtiauth_7128
509,"(5, 17, 6638, 5, 18)",2,mbtiauth_7128
510,"(5, 17, 6638, 18, 17)",2,mbtiauth_7128
511,"(5, 18, 5, 5, 17)",3,mbtiauth_7128
512,"(5, 18, 5, 5, 18)",3,mbtiauth_7128
513,"(5, 18, 5, 18, 17)",4,mbtiauth_7128
514,"(5, 18, 5, 6638, 5)",2,mbtiauth_7128
515,"(5, 18, 5, 6638, 17)",2,mbtiauth_7128
516,"(5, 18, 5, 6638, 18)",2,mbtiauth_7128
517,"(5, 18, 5, 8258, 5)",3,mbtiauth_7128
518,"(5, 18, 5, 10243, 5)",3,mbtiauth_7128
519,"(5, 18, 17, 5, 5)",3,mbtiauth_7128
520,"(5, 18, 17, 5, 17)",4,mbtiauth_7128
521,"(5, 18, 17, 5, 18)",4,mbtiauth_7128
522,"(5, 18, 17, 5, 1671)",2,mbtiauth_7128
523,"(5, 18, 17, 5, 6638)",2,mbtiauth_7128
524,"(5, 18, 17, 5, 8258)",3,mbtiauth_7128
525,"(5, 18, 17, 5, 10243)",3,mbtiauth_7128
526,"(5, 18, 17, 18, 17)",4,mbtiauth_7128
527,"(5, 18, 17, 3554, 5)",2,mbtiauth_7128
528,"(5, 18, 17, 4385, 5)",3,mbtiauth_7128
529,"(5, 18, 17, 4385, 17)",2,mbtiauth_7128
530,"(5, 18, 17, 4385, 18)",2,mbtiauth_7128
531,"(5, 18, 17, 4385, 3554)",2,mbtiauth_7128
532,"(5, 18, 17, 4385, 8258)",2,mbtiauth_7128
533,"(5, 18, 17, 4385, 21521)",2,mbtiauth_7128
534,"(5, 18, 17, 6638, 5)",2,mbtiauth_7128
535,"(5, 18, 17, 6638, 17)",2,mbtiauth_7128
536,"(5, 18, 17, 6638, 18)",2,mbtiauth_7128
537,"(5, 18, 17, 8258, 5)",3,mbtiauth_7128
538,"(5, 18, 17, 10243, 5)",3,mbtiauth_7128
539,"(5, 18, 17, 21521, 5)",2,mbtiauth_7128
540,"(5, 18, 4385, 5, 5)",2,mbtiauth_7128
541,"(5, 18, 4385, 5, 17)",2,mbtiauth_7128
542,"(5, 18, 4385, 5, 18)",2,mbtiauth_7128
543,"(5, 18, 4385, 5, 8258)",2,mbtiauth_7128
544,"(5, 18, 4385, 18, 17)",2,mbtiauth_7128
545,"(5, 18, 4385, 3554, 5)",2,mbtiauth_7128
546,"(5, 18, 4385, 8258, 5)",2,mbtiauth_7128
547,"(5, 18, 4385, 21521, 5)",2,mbtiauth_7128
548,"(5, 18, 6638, 5, 17)",2,mbtiauth_7128
549,"(5, 18, 6638, 5, 18)",2,mbtiauth_7128
550,"(5, 18, 6638, 18, 17)",2,mbtiauth_7128
551,"(5, 4385, 5, 18, 17)",2,mbtiauth_7128
552,"(5, 4385, 5, 8258, 5)",2,mbtiauth_7128
553,"(5, 6638, 5, 17, 5)",3,mbtiauth_7128
554,"(5, 6638, 5, 18, 5)",3,mbtiauth_7128
555,"(5, 6638, 5, 18, 17)",3,mbtiauth_7128
556,"(5, 6638, 18, 17, 5)",3,mbtiauth_7128
557,"(5, 8258, 5, 17, 5)",3,mbtiauth_7128
558,"(5, 8258, 5, 18, 5)",3,mbtiauth_7128
559,"(5, 8258, 5, 18, 17)",3,mbtiauth_7128
560,"(5, 8258, 18, 17, 5)",3,mbtiauth_7128
561,"(5, 10243, 5, 5, 18)",2,mbtiauth_7128
562,"(5, 10243, 5, 17, 5)",2,mbtiauth_7128
563,"(5, 10243, 5, 18, 5)",2,mbtiauth_7128
564,"(5, 10243, 5, 18, 17)",2,mbtiauth_7128
565,"(5, 10243, 18, 17, 5)",2,mbtiauth_7128
566,"(17, 5, 5, 17, 5)",2,mbtiauth_7128
567,"(17, 5, 5, 18, 5)",2,mbtiauth_7128
568,"(17, 5, 5, 18, 17)",3,mbtiauth_7128
569,"(17, 5, 18, 17, 5)",4,mbtiauth_7128
570,"(17, 5, 6638, 5, 17)",2,mbtiauth_7128
571,"(17, 5, 6638, 5, 18)",2,mbtiauth_7128
572,"(17, 5, 6638, 18, 17)",2,mbtiauth_7128
573,"(17, 5, 8258, 5, 17)",2,mbtiauth_7128
574,"(17, 5, 8258, 5, 18)",2,mbtiauth_7128
575,"(17, 5, 8258, 18, 17)",2,mbtiauth_7128
576,"(17, 5, 10243, 5, 17)",2,mbtiauth_7128
577,"(17, 5, 10243, 5, 18)",2,mbtiauth_7128
578,"(17, 5, 10243, 18, 17)",2,mbtiauth_7128
579,"(17, 4385, 5, 5, 10243)",2,mbtiauth_7128
580,"(17, 4385, 5, 17, 5)",2,mbtiauth_7128
581,"(17, 4385, 5, 18, 5)",2,mbtiauth_7128
582,"(17, 4385, 5, 18, 17)",3,mbtiauth_7128
583,"(17, 4385, 5, 8258, 5)",2,mbtiauth_7128
584,"(17, 4385, 18, 17, 5)",2,mbtiauth_7128
585,"(17, 4385, 3554, 5, 5)",2,mbtiauth_7128
586,"(17, 4385, 21521, 5, 5)",2,mbtiauth_7128
587,"(17, 4385, 21521, 5, 17)",2,mbtiauth_7128
588,"(17, 4385, 21521, 5, 18)",2,mbtiauth_7128
589,"(17, 4385, 21521, 18, 17)",2,mbtiauth_7128
590,"(17, 6638, 5, 18, 17)",2,mbtiauth_7128
591,"(17, 8258, 5, 18, 17)",2,mbtiauth_7128
592,"(17, 10243, 5, 18, 17)",2,mbtiauth_7128
593,"(17, 21521, 5, 18, 17)",2,mbtiauth_7128
594,"(18, 5, 5, 18, 17)",3,mbtiauth_7128
595,"(18, 5, 18, 17, 5)",4,mbtiauth_7128
596,"(18, 5, 6638, 5, 17)",2,mbtiauth_7128
597,"(18, 5, 6638, 5, 18)",2,mbtiauth_7128
598,"(18, 5, 6638, 18, 17)",2,mbtiauth_7128
599,"(18, 5, 8258, 5, 18)",2,mbtiauth_7128
600,"(18, 5, 10243, 5, 18)",2,mbtiauth_7128
601,"(18, 17, 5, 5, 17)",3,mbtiauth_7128
602,"(18, 17, 5, 5, 18)",3,mbtiauth_7128
603,"(18, 17, 5, 5, 8258)",2,mbtiauth_7128
604,"(18, 17, 5, 17, 5)",4,mbtiauth_7128
605,"(18, 17, 5, 18, 5)",4,mbtiauth_7128
606,"(18, 17, 5, 18, 17)",4,mbtiauth_7128
607,"(18, 17, 5, 6638, 5)",2,mbtiauth_7128
608,"(18, 17, 5, 6638, 17)",2,mbtiauth_7128
609,"(18, 17, 5, 6638, 18)",2,mbtiauth_7128
610,"(18, 17, 5, 8258, 5)",3,mbtiauth_7128
611,"(18, 17, 5, 8258, 18)",2,mbtiauth_7128
612,"(18, 17, 5, 10243, 5)",3,mbtiauth_7128
613,"(18, 17, 5, 10243, 18)",2,mbtiauth_7128
614,"(18, 17, 18, 17, 5)",4,mbtiauth_7128
615,"(18, 17, 3554, 5, 5)",2,mbtiauth_7128
616,"(18, 17, 4385, 5, 5)",3,mbtiauth_7128
617,"(18, 17, 4385, 5, 17)",2,mbtiauth_7128
618,"(18, 17, 4385, 5, 18)",3,mbtiauth_7128
619,"(18, 17, 4385, 5, 8258)",2,mbtiauth_7128
620,"(18, 17, 4385, 17, 5)",2,mbtiauth_7128
621,"(18, 17, 4385, 18, 5)",2,mbtiauth_7128
622,"(18, 17, 4385, 18, 17)",2,mbtiauth_7128
623,"(18, 17, 4385, 3554, 5)",2,mbtiauth_7128
624,"(18, 17, 4385, 8258, 5)",2,mbtiauth_7128
625,"(18, 17, 4385, 21521, 5)",2,mbtiauth_7128
626,"(18, 17, 4385, 21521, 18)",2,mbtiauth_7128
627,"(18, 17, 6638, 5, 17)",2,mbtiauth_7128
628,"(18, 17, 6638, 5, 18)",2,mbtiauth_7128
629,"(18, 17, 6638, 18, 17)",2,mbtiauth_7128
630,"(18, 17, 8258, 5, 18)",2,mbtiauth_7128
631,"(18, 17, 10243, 5, 18)",2,mbtiauth_7128
632,"(18, 17, 21521, 5, 5)",2,mbtiauth_7128
633,"(18, 17, 21521, 5, 18)",2,mbtiauth_7128
634,"(18, 4385, 5, 17, 5)",2,mbtiauth_7128
635,"(18, 4385, 5, 18, 5)",2,mbtiauth_7128
636,"(18, 4385, 5, 18, 17)",2,mbtiauth_7128
637,"(18, 4385, 5, 8258, 5)",2,mbtiauth_7128
638,"(18, 4385, 18, 17, 5)",2,mbtiauth_7128
639,"(18, 4385, 3554, 5, 5)",2,mbtiauth_7128
640,"(18, 4385, 21521, 5, 5)",2,mbtiauth_7128
641,"(18, 4385, 21521, 5, 18)",2,mbtiauth_7128
642,"(18, 6638, 5, 18, 17)",2,mbtiauth_7128
643,"(50, 50, 50, 14373, 50)",2,mbtiauth_7128
644,"(4385, 5, 5, 10243, 5)",2,mbtiauth_7128
645,"(4385, 5, 18, 17, 5)",3,mbtiauth_7128
646,"(4385, 5, 8258, 5, 5)",2,mbtiauth_7128
647,"(4385, 21521, 5, 5, 5)",2,mbtiauth_7128
648,"(4385, 21521, 5, 17, 5)",2,mbtiauth_7128
649,"(4385, 21521, 5, 18, 5)",2,mbtiauth_7128
650,"(4385, 21521, 5, 18, 17)",2,mbtiauth_7128
651,"(4385, 21521, 18, 17, 5)",2,mbtiauth_7128
652,"(6638, 5, 18, 17, 5)",3,mbtiauth_7128
653,"(8258, 5, 18, 17, 5)",3,mbtiauth_7128
654,"(10243, 5, 5, 18, 17)",2,mbtiauth_7128
655,"(10243, 5, 18, 17, 5)",2,mbtiauth_7128
656,"(21521, 5, 18, 17, 5)",2,mbtiauth_7128
657,"(5, 5, 18, 17, 5, 6638)",2,mbtiauth_7128
658,"(5, 5, 18, 17, 4385, 3554)",2,mbtiauth_7128
659,"(5, 5, 6638, 5, 18, 17)",2,mbtiauth_7128
660,"(5, 5, 8258, 5, 18, 17)",2,mbtiauth_7128
661,"(5, 17, 5, 5, 18, 17)",3,mbtiauth_7128
662,"(5, 17, 5, 6638, 5, 17)",2,mbtiauth_7128
663,"(5, 17, 5, 6638, 5, 18)",2,mbtiauth_7128
664,"(5, 17, 5, 6638, 18, 17)",2,mbtiauth_7128
665,"(5, 17, 4385, 5, 18, 17)",2,mbtiauth_7128
666,"(5, 17, 4385, 5, 8258, 5)",2,mbtiauth_7128
667,"(5, 17, 6638, 5, 18, 17)",2,mbtiauth_7128
668,"(5, 18, 5, 5, 18, 17)",3,mbtiauth_7128
669,"(5, 18, 5, 6638, 5, 17)",2,mbtiauth_7128
670,"(5, 18, 5, 6638, 5, 18)",2,mbtiauth_7128
671,"(5, 18, 5, 6638, 18, 17)",2,mbtiauth_7128
672,"(5, 18, 17, 5, 5, 17)",3,mbtiauth_7128
673,"(5, 18, 17, 5, 5, 18)",3,mbtiauth_7128
674,"(5, 18, 17, 5, 18, 17)",4,mbtiauth_7128
675,"(5, 18, 17, 5, 6638, 5)",2,mbtiauth_7128
676,"(5, 18, 17, 5, 6638, 17)",2,mbtiauth_7128
677,"(5, 18, 17, 5, 6638, 18)",2,mbtiauth_7128
678,"(5, 18, 17, 5, 8258, 5)",3,mbtiauth_7128
679,"(5, 18, 17, 5, 10243, 5)",3,mbtiauth_7128
680,"(5, 18, 17, 4385, 5, 5)",2,mbtiauth_7128
681,"(5, 18, 17, 4385, 5, 17)",2,mbtiauth_7128
682,"(5, 18, 17, 4385, 5, 18)",2,mbtiauth_7128
683,"(5, 18, 17, 4385, 5, 8258)",2,mbtiauth_7128
684,"(5, 18, 17, 4385, 18, 17)",2,mbtiauth_7128
685,"(5, 18, 17, 4385, 3554, 5)",2,mbtiauth_7128
686,"(5, 18, 17, 4385, 8258, 5)",2,mbtiauth_7128
687,"(5, 18, 17, 4385, 21521, 5)",2,mbtiauth_7128
688,"(5, 18, 17, 6638, 5, 17)",2,mbtiauth_7128
689,"(5, 18, 17, 6638, 5, 18)",2,mbtiauth_7128
690,"(5, 18, 17, 6638, 18, 17)",2,mbtiauth_7128
691,"(5, 18, 4385, 5, 18, 17)",2,mbtiauth_7128
692,"(5, 18, 4385, 5, 8258, 5)",2,mbtiauth_7128
693,"(5, 18, 6638, 5, 18, 17)",2,mbtiauth_7128
694,"(5, 6638, 5, 18, 17, 5)",3,mbtiauth_7128
695,"(5, 8258, 5, 18, 17, 5)",3,mbtiauth_7128
696,"(5, 10243, 5, 18, 17, 5)",2,mbtiauth_7128
697,"(17, 5, 5, 18, 17, 5)",2,mbtiauth_7128
698,"(17, 5, 6638, 5, 18, 17)",2,mbtiauth_7128
699,"(17, 5, 8258, 5, 18, 17)",2,mbtiauth_7128
700,"(17, 5, 10243, 5, 18, 17)",2,mbtiauth_7128
701,"(17, 4385, 5, 18, 17, 5)",2,mbtiauth_7128
702,"(17, 4385, 21521, 5, 18, 17)",2,mbtiauth_7128
703,"(18, 5, 6638, 5, 18, 17)",2,mbtiauth_7128
704,"(18, 17, 5, 5, 18, 17)",3,mbtiauth_7128
705,"(18, 17, 5, 18, 17, 5)",4,mbtiauth_7128
706,"(18, 17, 5, 6638, 5, 17)",2,mbtiauth_7128
707,"(18, 17, 5, 6638, 5, 18)",2,mbtiauth_7128
708,"(18, 17, 5, 6638, 18, 17)",2,mbtiauth_7128
709,"(18, 17, 5, 8258, 5, 18)",2,mbtiauth_7128
710,"(18, 17, 5, 10243, 5, 18)",2,mbtiauth_7128
711,"(18, 17, 4385, 5, 17, 5)",2,mbtiauth_7128
712,"(18, 17, 4385, 5, 18, 5)",2,mbtiauth_7128
713,"(18, 17, 4385, 5, 18, 17)",2,mbtiauth_7128
714,"(18, 17, 4385, 5, 8258, 5)",2,mbtiauth_7128
715,"(18, 17, 4385, 18, 17, 5)",2,mbtiauth_7128
716,"(18, 17, 4385, 3554, 5, 5)",2,mbtiauth_7128
717,"(18, 17, 4385, 21521, 5, 5)",2,mbtiauth_7128
718,"(18, 17, 4385, 21521, 5, 18)",2,mbtiauth_7128
719,"(18, 17, 6638, 5, 18, 17)",2,mbtiauth_7128
720,"(18, 4385, 5, 18, 17, 5)",2,mbtiauth_7128
721,"(4385, 21521, 5, 18, 17, 5)",2,mbtiauth_7128
722,"(5, 17, 5, 6638, 5, 18, 17)",2,mbtiauth_7128
723,"(5, 18, 5, 6638, 5, 18, 17)",2,mbtiauth_7128
724,"(5, 18, 17, 5, 5, 18, 17)",3,mbtiauth_7128
725,"(5, 18, 17, 5, 6638, 5, 17)",2,mbtiauth_7128
726,"(5, 18, 17, 5, 6638, 5, 18)",2,mbtiauth_7128
727,"(5, 18, 17, 5, 6638, 18, 17)",2,mbtiauth_7128
728,"(5, 18, 17, 4385, 5, 18, 17)",2,mbtiauth_7128
729,"(5, 18, 17, 4385, 5, 8258, 5)",2,mbtiauth_7128
730,"(5, 18, 17, 6638, 5, 18, 17)",2,mbtiauth_7128
731,"(18, 17, 5, 6638, 5, 18, 17)",2,mbtiauth_7128
732,"(18, 17, 4385, 5, 18, 17, 5)",2,mbtiauth_7128
733,"(5, 18, 17, 5, 6638, 5, 18, 17)",2,mbtiauth_7128
