,pattern,sup,author
114,"(5, 5, 17)",6,mbtiauth_7131
115,"(5, 5, 18)",6,mbtiauth_7131
116,"(5, 5, 118)",2,mbtiauth_7131
117,"(5, 5, 4385)",3,mbtiauth_7131
118,"(5, 17, 5)",8,mbtiauth_7131
119,"(5, 17, 17)",6,mbtiauth_7131
120,"(5, 17, 18)",6,mbtiauth_7131
121,"(5, 17, 50)",3,mbtiauth_7131
122,"(5, 17, 118)",2,mbtiauth_7131
123,"(5, 17, 255)",2,mbtiauth_7131
124,"(5, 17, 2751)",2,mbtiauth_7131
125,"(5, 17, 3554)",4,mbtiauth_7131
126,"(5, 17, 4385)",5,mbtiauth_7131
127,"(5, 18, 5)",8,mbtiauth_7131
128,"(5, 18, 17)",11,mbtiauth_7131
129,"(5, 18, 18)",6,mbtiauth_7131
130,"(5, 18, 50)",3,mbtiauth_7131
131,"(5, 18, 118)",2,mbtiauth_7131
132,"(5, 18, 255)",2,mbtiauth_7131
133,"(5, 18, 2751)",2,mbtiauth_7131
134,"(5, 18, 3554)",4,mbtiauth_7131
135,"(5, 18, 4385)",5,mbtiauth_7131
136,"(5, 118, 2751)",2,mbtiauth_7131
137,"(5, 3554, 5)",3,mbtiauth_7131
138,"(5, 3554, 17)",2,mbtiauth_7131
139,"(5, 3554, 18)",3,mbtiauth_7131
140,"(5, 4385, 5)",3,mbtiauth_7131
141,"(5, 4385, 17)",3,mbtiauth_7131
142,"(5, 4385, 18)",3,mbtiauth_7131
143,"(5, 4385, 3554)",4,mbtiauth_7131
144,"(17, 5, 5)",3,mbtiauth_7131
145,"(17, 5, 17)",8,mbtiauth_7131
146,"(17, 5, 18)",8,mbtiauth_7131
147,"(17, 5, 118)",2,mbtiauth_7131
148,"(17, 5, 2751)",2,mbtiauth_7131
149,"(17, 5, 4385)",3,mbtiauth_7131
150,"(17, 17, 5)",3,mbtiauth_7131
151,"(17, 17, 18)",2,mbtiauth_7131
152,"(17, 17, 118)",2,mbtiauth_7131
153,"(17, 17, 2751)",2,mbtiauth_7131
154,"(17, 17, 4385)",3,mbtiauth_7131
155,"(17, 18, 5)",3,mbtiauth_7131
156,"(17, 18, 17)",8,mbtiauth_7131
157,"(17, 18, 18)",2,mbtiauth_7131
158,"(17, 18, 118)",2,mbtiauth_7131
159,"(17, 18, 2751)",2,mbtiauth_7131
160,"(17, 18, 4385)",3,mbtiauth_7131
161,"(17, 118, 2751)",2,mbtiauth_7131
162,"(17, 3554, 5)",3,mbtiauth_7131
163,"(17, 3554, 17)",3,mbtiauth_7131
164,"(17, 3554, 18)",3,mbtiauth_7131
165,"(17, 3554, 4385)",2,mbtiauth_7131
166,"(17, 4385, 5)",3,mbtiauth_7131
167,"(17, 4385, 17)",3,mbtiauth_7131
168,"(17, 4385, 18)",3,mbtiauth_7131
169,"(17, 4385, 50)",2,mbtiauth_7131
170,"(17, 4385, 3554)",4,mbtiauth_7131
171,"(17, 4385, 4385)",2,mbtiauth_7131
172,"(18, 5, 5)",2,mbtiauth_7131
173,"(18, 5, 17)",6,mbtiauth_7131
174,"(18, 5, 18)",8,mbtiauth_7131
175,"(18, 5, 118)",2,mbtiauth_7131
176,"(18, 5, 2751)",2,mbtiauth_7131
177,"(18, 5, 4385)",3,mbtiauth_7131
178,"(18, 17, 5)",8,mbtiauth_7131
179,"(18, 17, 17)",6,mbtiauth_7131
180,"(18, 17, 18)",8,mbtiauth_7131
181,"(18, 17, 50)",4,mbtiauth_7131
182,"(18, 17, 118)",2,mbtiauth_7131
183,"(18, 17, 255)",2,mbtiauth_7131
184,"(18, 17, 2751)",2,mbtiauth_7131
185,"(18, 17, 3554)",4,mbtiauth_7131
186,"(18, 17, 4385)",5,mbtiauth_7131
187,"(18, 18, 5)",2,mbtiauth_7131
188,"(18, 18, 17)",6,mbtiauth_7131
189,"(18, 18, 118)",2,mbtiauth_7131
190,"(18, 18, 2751)",2,mbtiauth_7131
191,"(18, 18, 4385)",3,mbtiauth_7131
192,"(18, 118, 2751)",2,mbtiauth_7131
193,"(18, 3554, 5)",3,mbtiauth_7131
194,"(18, 3554, 17)",3,mbtiauth_7131
195,"(18, 3554, 18)",3,mbtiauth_7131
196,"(18, 4385, 5)",3,mbtiauth_7131
197,"(18, 4385, 17)",3,mbtiauth_7131
198,"(18, 4385, 18)",3,mbtiauth_7131
199,"(18, 4385, 50)",2,mbtiauth_7131
200,"(18, 4385, 3554)",4,mbtiauth_7131
201,"(262, 48, 53)",2,mbtiauth_7131
202,"(262, 6922, 48)",2,mbtiauth_7131
203,"(262, 6922, 53)",2,mbtiauth_7131
204,"(3554, 5, 5)",3,mbtiauth_7131
205,"(3554, 5, 17)",3,mbtiauth_7131
206,"(3554, 5, 18)",3,mbtiauth_7131
207,"(3554, 5, 3554)",2,mbtiauth_7131
208,"(3554, 5, 4385)",3,mbtiauth_7131
209,"(3554, 17, 5)",3,mbtiauth_7131
210,"(3554, 17, 18)",2,mbtiauth_7131
211,"(3554, 17, 3554)",2,mbtiauth_7131
212,"(3554, 17, 4385)",3,mbtiauth_7131
213,"(3554, 18, 5)",3,mbtiauth_7131
214,"(3554, 18, 17)",3,mbtiauth_7131
215,"(3554, 18, 18)",2,mbtiauth_7131
216,"(3554, 18, 3554)",2,mbtiauth_7131
217,"(3554, 18, 4385)",3,mbtiauth_7131
218,"(3554, 3554, 5)",2,mbtiauth_7131
219,"(3554, 4385, 5)",3,mbtiauth_7131
220,"(3554, 4385, 18)",2,mbtiauth_7131
221,"(3554, 4385, 3554)",2,mbtiauth_7131
222,"(4385, 5, 5)",3,mbtiauth_7131
223,"(4385, 5, 17)",3,mbtiauth_7131
224,"(4385, 5, 18)",3,mbtiauth_7131
225,"(4385, 5, 3554)",2,mbtiauth_7131
226,"(4385, 5, 4385)",3,mbtiauth_7131
227,"(4385, 17, 5)",3,mbtiauth_7131
228,"(4385, 17, 18)",2,mbtiauth_7131
229,"(4385, 17, 3554)",2,mbtiauth_7131
230,"(4385, 17, 4385)",3,mbtiauth_7131
231,"(4385, 18, 5)",3,mbtiauth_7131
232,"(4385, 18, 17)",3,mbtiauth_7131
233,"(4385, 18, 18)",2,mbtiauth_7131
234,"(4385, 18, 3554)",2,mbtiauth_7131
235,"(4385, 18, 4385)",3,mbtiauth_7131
236,"(4385, 3554, 5)",3,mbtiauth_7131
237,"(4385, 3554, 17)",3,mbtiauth_7131
238,"(4385, 3554, 18)",3,mbtiauth_7131
239,"(4385, 3554, 3554)",2,mbtiauth_7131
240,"(4385, 3554, 4385)",3,mbtiauth_7131
241,"(4385, 4385, 5)",2,mbtiauth_7131
242,"(4385, 4385, 3554)",2,mbtiauth_7131
243,"(6922, 48, 53)",2,mbtiauth_7131
244,"(5, 5, 17, 118)",2,mbtiauth_7131
245,"(5, 5, 17, 4385)",3,mbtiauth_7131
246,"(5, 5, 18, 17)",6,mbtiauth_7131
247,"(5, 5, 18, 118)",2,mbtiauth_7131
248,"(5, 5, 18, 4385)",3,mbtiauth_7131
249,"(5, 17, 5, 17)",6,mbtiauth_7131
250,"(5, 17, 5, 18)",6,mbtiauth_7131
251,"(5, 17, 5, 118)",2,mbtiauth_7131
252,"(5, 17, 5, 4385)",3,mbtiauth_7131
253,"(5, 17, 17, 118)",2,mbtiauth_7131
254,"(5, 17, 17, 4385)",3,mbtiauth_7131
255,"(5, 17, 18, 17)",6,mbtiauth_7131
256,"(5, 17, 18, 118)",2,mbtiauth_7131
257,"(5, 17, 18, 4385)",3,mbtiauth_7131
258,"(5, 17, 118, 2751)",2,mbtiauth_7131
259,"(5, 17, 3554, 5)",3,mbtiauth_7131
260,"(5, 17, 3554, 17)",2,mbtiauth_7131
261,"(5, 17, 3554, 18)",3,mbtiauth_7131
262,"(5, 17, 4385, 5)",3,mbtiauth_7131
263,"(5, 17, 4385, 17)",3,mbtiauth_7131
264,"(5, 17, 4385, 18)",3,mbtiauth_7131
265,"(5, 17, 4385, 3554)",4,mbtiauth_7131
266,"(5, 18, 5, 17)",6,mbtiauth_7131
267,"(5, 18, 5, 18)",6,mbtiauth_7131
268,"(5, 18, 5, 118)",2,mbtiauth_7131
269,"(5, 18, 5, 4385)",3,mbtiauth_7131
270,"(5, 18, 17, 5)",8,mbtiauth_7131
271,"(5, 18, 17, 17)",6,mbtiauth_7131
272,"(5, 18, 17, 18)",6,mbtiauth_7131
273,"(5, 18, 17, 50)",3,mbtiauth_7131
274,"(5, 18, 17, 118)",2,mbtiauth_7131
275,"(5, 18, 17, 255)",2,mbtiauth_7131
276,"(5, 18, 17, 2751)",2,mbtiauth_7131
277,"(5, 18, 17, 3554)",4,mbtiauth_7131
278,"(5, 18, 17, 4385)",5,mbtiauth_7131
279,"(5, 18, 18, 17)",6,mbtiauth_7131
280,"(5, 18, 18, 118)",2,mbtiauth_7131
281,"(5, 18, 18, 4385)",3,mbtiauth_7131
282,"(5, 18, 118, 2751)",2,mbtiauth_7131
283,"(5, 18, 3554, 5)",3,mbtiauth_7131
284,"(5, 18, 3554, 17)",2,mbtiauth_7131
285,"(5, 18, 3554, 18)",3,mbtiauth_7131
286,"(5, 18, 4385, 5)",3,mbtiauth_7131
287,"(5, 18, 4385, 17)",3,mbtiauth_7131
288,"(5, 18, 4385, 18)",3,mbtiauth_7131
289,"(5, 18, 4385, 3554)",4,mbtiauth_7131
290,"(5, 3554, 5, 17)",2,mbtiauth_7131
291,"(5, 3554, 5, 18)",3,mbtiauth_7131
292,"(5, 3554, 18, 17)",2,mbtiauth_7131
293,"(5, 4385, 5, 17)",3,mbtiauth_7131
294,"(5, 4385, 5, 18)",3,mbtiauth_7131
295,"(5, 4385, 18, 17)",3,mbtiauth_7131
296,"(5, 4385, 3554, 5)",3,mbtiauth_7131
297,"(5, 4385, 3554, 17)",2,mbtiauth_7131
298,"(5, 4385, 3554, 18)",3,mbtiauth_7131
299,"(17, 5, 5, 18)",2,mbtiauth_7131
300,"(17, 5, 17, 5)",3,mbtiauth_7131
301,"(17, 5, 17, 18)",2,mbtiauth_7131
302,"(17, 5, 17, 118)",2,mbtiauth_7131
303,"(17, 5, 17, 2751)",2,mbtiauth_7131
304,"(17, 5, 17, 4385)",3,mbtiauth_7131
305,"(17, 5, 18, 5)",3,mbtiauth_7131
306,"(17, 5, 18, 17)",8,mbtiauth_7131
307,"(17, 5, 18, 18)",2,mbtiauth_7131
308,"(17, 5, 18, 118)",2,mbtiauth_7131
309,"(17, 5, 18, 2751)",2,mbtiauth_7131
310,"(17, 5, 18, 4385)",3,mbtiauth_7131
311,"(17, 5, 118, 2751)",2,mbtiauth_7131
312,"(17, 17, 5, 18)",2,mbtiauth_7131
313,"(17, 17, 118, 2751)",2,mbtiauth_7131
314,"(17, 18, 5, 18)",2,mbtiauth_7131
315,"(17, 18, 17, 5)",3,mbtiauth_7131
316,"(17, 18, 17, 18)",2,mbtiauth_7131
317,"(17, 18, 17, 118)",2,mbtiauth_7131
318,"(17, 18, 17, 2751)",2,mbtiauth_7131
319,"(17, 18, 17, 4385)",3,mbtiauth_7131
320,"(17, 18, 118, 2751)",2,mbtiauth_7131
321,"(17, 3554, 5, 17)",3,mbtiauth_7131
322,"(17, 3554, 5, 18)",3,mbtiauth_7131
323,"(17, 3554, 5, 4385)",2,mbtiauth_7131
324,"(17, 3554, 17, 4385)",2,mbtiauth_7131
325,"(17, 3554, 18, 17)",3,mbtiauth_7131
326,"(17, 3554, 18, 4385)",2,mbtiauth_7131
327,"(17, 4385, 5, 17)",3,mbtiauth_7131
328,"(17, 4385, 5, 18)",3,mbtiauth_7131
329,"(17, 4385, 5, 4385)",2,mbtiauth_7131
330,"(17, 4385, 17, 4385)",2,mbtiauth_7131
331,"(17, 4385, 18, 17)",3,mbtiauth_7131
332,"(17, 4385, 18, 4385)",2,mbtiauth_7131
333,"(17, 4385, 3554, 5)",3,mbtiauth_7131
334,"(17, 4385, 3554, 17)",3,mbtiauth_7131
335,"(17, 4385, 3554, 18)",3,mbtiauth_7131
336,"(17, 4385, 3554, 4385)",2,mbtiauth_7131
337,"(18, 5, 17, 5)",2,mbtiauth_7131
338,"(18, 5, 17, 118)",2,mbtiauth_7131
339,"(18, 5, 17, 2751)",2,mbtiauth_7131
340,"(18, 5, 17, 4385)",3,mbtiauth_7131
341,"(18, 5, 18, 5)",2,mbtiauth_7131
342,"(18, 5, 18, 17)",6,mbtiauth_7131
343,"(18, 5, 18, 118)",2,mbtiauth_7131
344,"(18, 5, 18, 2751)",2,mbtiauth_7131
345,"(18, 5, 18, 4385)",3,mbtiauth_7131
346,"(18, 5, 118, 2751)",2,mbtiauth_7131
347,"(18, 17, 5, 5)",2,mbtiauth_7131
348,"(18, 17, 5, 17)",6,mbtiauth_7131
349,"(18, 17, 5, 18)",8,mbtiauth_7131
350,"(18, 17, 5, 118)",2,mbtiauth_7131
351,"(18, 17, 5, 2751)",2,mbtiauth_7131
352,"(18, 17, 5, 4385)",3,mbtiauth_7131
353,"(18, 17, 17, 5)",2,mbtiauth_7131
354,"(18, 17, 17, 118)",2,mbtiauth_7131
355,"(18, 17, 17, 2751)",2,mbtiauth_7131
356,"(18, 17, 17, 4385)",3,mbtiauth_7131
357,"(18, 17, 18, 5)",2,mbtiauth_7131
358,"(18, 17, 18, 17)",6,mbtiauth_7131
359,"(18, 17, 18, 118)",2,mbtiauth_7131
360,"(18, 17, 18, 2751)",2,mbtiauth_7131
361,"(18, 17, 18, 4385)",3,mbtiauth_7131
362,"(18, 17, 118, 2751)",2,mbtiauth_7131
363,"(18, 17, 3554, 5)",3,mbtiauth_7131
364,"(18, 17, 3554, 17)",3,mbtiauth_7131
365,"(18, 17, 3554, 18)",3,mbtiauth_7131
366,"(18, 17, 4385, 5)",3,mbtiauth_7131
367,"(18, 17, 4385, 17)",3,mbtiauth_7131
368,"(18, 17, 4385, 18)",3,mbtiauth_7131
369,"(18, 17, 4385, 50)",2,mbtiauth_7131
370,"(18, 17, 4385, 3554)",4,mbtiauth_7131
371,"(18, 18, 17, 5)",2,mbtiauth_7131
372,"(18, 18, 17, 118)",2,mbtiauth_7131
373,"(18, 18, 17, 2751)",2,mbtiauth_7131
374,"(18, 18, 17, 4385)",3,mbtiauth_7131
375,"(18, 18, 118, 2751)",2,mbtiauth_7131
376,"(18, 3554, 5, 17)",3,mbtiauth_7131
377,"(18, 3554, 5, 18)",3,mbtiauth_7131
378,"(18, 3554, 18, 17)",3,mbtiauth_7131
379,"(18, 4385, 5, 17)",3,mbtiauth_7131
380,"(18, 4385, 5, 18)",3,mbtiauth_7131
381,"(18, 4385, 18, 17)",3,mbtiauth_7131
382,"(18, 4385, 3554, 5)",3,mbtiauth_7131
383,"(18, 4385, 3554, 17)",3,mbtiauth_7131
384,"(18, 4385, 3554, 18)",3,mbtiauth_7131
385,"(262, 6922, 48, 53)",2,mbtiauth_7131
386,"(3554, 5, 5, 18)",2,mbtiauth_7131
387,"(3554, 5, 17, 5)",3,mbtiauth_7131
388,"(3554, 5, 17, 18)",2,mbtiauth_7131
389,"(3554, 5, 17, 3554)",2,mbtiauth_7131
390,"(3554, 5, 17, 4385)",3,mbtiauth_7131
391,"(3554, 5, 18, 5)",3,mbtiauth_7131
392,"(3554, 5, 18, 17)",3,mbtiauth_7131
393,"(3554, 5, 18, 18)",2,mbtiauth_7131
394,"(3554, 5, 18, 3554)",2,mbtiauth_7131
395,"(3554, 5, 18, 4385)",3,mbtiauth_7131
396,"(3554, 5, 3554, 5)",2,mbtiauth_7131
397,"(3554, 5, 4385, 5)",3,mbtiauth_7131
398,"(3554, 5, 4385, 18)",2,mbtiauth_7131
399,"(3554, 5, 4385, 3554)",2,mbtiauth_7131
400,"(3554, 17, 5, 18)",2,mbtiauth_7131
401,"(3554, 17, 3554, 5)",2,mbtiauth_7131
402,"(3554, 17, 4385, 5)",3,mbtiauth_7131
403,"(3554, 17, 4385, 18)",2,mbtiauth_7131
404,"(3554, 17, 4385, 3554)",2,mbtiauth_7131
405,"(3554, 18, 5, 18)",2,mbtiauth_7131
406,"(3554, 18, 17, 5)",3,mbtiauth_7131
407,"(3554, 18, 17, 18)",2,mbtiauth_7131
408,"(3554, 18, 17, 3554)",2,mbtiauth_7131
409,"(3554, 18, 17, 4385)",3,mbtiauth_7131
410,"(3554, 18, 3554, 5)",2,mbtiauth_7131
411,"(3554, 18, 4385, 5)",3,mbtiauth_7131
412,"(3554, 18, 4385, 18)",2,mbtiauth_7131
413,"(3554, 18, 4385, 3554)",2,mbtiauth_7131
414,"(3554, 4385, 5, 18)",2,mbtiauth_7131
415,"(3554, 4385, 3554, 5)",2,mbtiauth_7131
416,"(4385, 5, 5, 18)",2,mbtiauth_7131
417,"(4385, 5, 17, 5)",3,mbtiauth_7131
418,"(4385, 5, 17, 18)",2,mbtiauth_7131
419,"(4385, 5, 17, 3554)",2,mbtiauth_7131
420,"(4385, 5, 17, 4385)",3,mbtiauth_7131
421,"(4385, 5, 18, 5)",3,mbtiauth_7131
422,"(4385, 5, 18, 17)",3,mbtiauth_7131
423,"(4385, 5, 18, 18)",2,mbtiauth_7131
424,"(4385, 5, 18, 3554)",2,mbtiauth_7131
425,"(4385, 5, 18, 4385)",3,mbtiauth_7131
426,"(4385, 5, 4385, 5)",2,mbtiauth_7131
427,"(4385, 5, 4385, 3554)",2,mbtiauth_7131
428,"(4385, 17, 5, 18)",2,mbtiauth_7131
429,"(4385, 17, 4385, 5)",2,mbtiauth_7131
430,"(4385, 17, 4385, 3554)",2,mbtiauth_7131
431,"(4385, 18, 5, 18)",2,mbtiauth_7131
432,"(4385, 18, 17, 5)",3,mbtiauth_7131
433,"(4385, 18, 17, 18)",2,mbtiauth_7131
434,"(4385, 18, 17, 3554)",2,mbtiauth_7131
435,"(4385, 18, 17, 4385)",3,mbtiauth_7131
436,"(4385, 18, 4385, 5)",2,mbtiauth_7131
437,"(4385, 18, 4385, 3554)",2,mbtiauth_7131
438,"(4385, 3554, 5, 5)",2,mbtiauth_7131
439,"(4385, 3554, 5, 17)",3,mbtiauth_7131
440,"(4385, 3554, 5, 18)",3,mbtiauth_7131
441,"(4385, 3554, 5, 3554)",2,mbtiauth_7131
442,"(4385, 3554, 5, 4385)",3,mbtiauth_7131
443,"(4385, 3554, 17, 5)",2,mbtiauth_7131
444,"(4385, 3554, 17, 3554)",2,mbtiauth_7131
445,"(4385, 3554, 17, 4385)",3,mbtiauth_7131
446,"(4385, 3554, 18, 5)",2,mbtiauth_7131
447,"(4385, 3554, 18, 17)",3,mbtiauth_7131
448,"(4385, 3554, 18, 3554)",2,mbtiauth_7131
449,"(4385, 3554, 18, 4385)",3,mbtiauth_7131
450,"(4385, 3554, 4385, 5)",2,mbtiauth_7131
451,"(4385, 3554, 4385, 3554)",2,mbtiauth_7131
452,"(5, 5, 18, 17, 118)",2,mbtiauth_7131
453,"(5, 5, 18, 17, 4385)",3,mbtiauth_7131
454,"(5, 17, 5, 17, 118)",2,mbtiauth_7131
455,"(5, 17, 5, 17, 4385)",3,mbtiauth_7131
456,"(5, 17, 5, 18, 17)",6,mbtiauth_7131
457,"(5, 17, 5, 18, 118)",2,mbtiauth_7131
458,"(5, 17, 5, 18, 4385)",3,mbtiauth_7131
459,"(5, 17, 18, 17, 118)",2,mbtiauth_7131
460,"(5, 17, 18, 17, 4385)",3,mbtiauth_7131
461,"(5, 17, 3554, 5, 17)",2,mbtiauth_7131
462,"(5, 17, 3554, 5, 18)",3,mbtiauth_7131
463,"(5, 17, 3554, 18, 17)",2,mbtiauth_7131
464,"(5, 17, 4385, 5, 17)",3,mbtiauth_7131
465,"(5, 17, 4385, 5, 18)",3,mbtiauth_7131
466,"(5, 17, 4385, 18, 17)",3,mbtiauth_7131
467,"(5, 17, 4385, 3554, 5)",3,mbtiauth_7131
468,"(5, 17, 4385, 3554, 17)",2,mbtiauth_7131
469,"(5, 17, 4385, 3554, 18)",3,mbtiauth_7131
470,"(5, 18, 5, 17, 118)",2,mbtiauth_7131
471,"(5, 18, 5, 17, 4385)",3,mbtiauth_7131
472,"(5, 18, 5, 18, 17)",6,mbtiauth_7131
473,"(5, 18, 5, 18, 118)",2,mbtiauth_7131
474,"(5, 18, 5, 18, 4385)",3,mbtiauth_7131
475,"(5, 18, 17, 5, 17)",6,mbtiauth_7131
476,"(5, 18, 17, 5, 18)",6,mbtiauth_7131
477,"(5, 18, 17, 5, 118)",2,mbtiauth_7131
478,"(5, 18, 17, 5, 4385)",3,mbtiauth_7131
479,"(5, 18, 17, 17, 118)",2,mbtiauth_7131
480,"(5, 18, 17, 17, 4385)",3,mbtiauth_7131
481,"(5, 18, 17, 18, 17)",6,mbtiauth_7131
482,"(5, 18, 17, 18, 118)",2,mbtiauth_7131
483,"(5, 18, 17, 18, 4385)",3,mbtiauth_7131
484,"(5, 18, 17, 118, 2751)",2,mbtiauth_7131
485,"(5, 18, 17, 3554, 5)",3,mbtiauth_7131
486,"(5, 18, 17, 3554, 17)",2,mbtiauth_7131
487,"(5, 18, 17, 3554, 18)",3,mbtiauth_7131
488,"(5, 18, 17, 4385, 5)",3,mbtiauth_7131
489,"(5, 18, 17, 4385, 17)",3,mbtiauth_7131
490,"(5, 18, 17, 4385, 18)",3,mbtiauth_7131
491,"(5, 18, 17, 4385, 3554)",4,mbtiauth_7131
492,"(5, 18, 18, 17, 118)",2,mbtiauth_7131
493,"(5, 18, 18, 17, 4385)",3,mbtiauth_7131
494,"(5, 18, 3554, 5, 17)",2,mbtiauth_7131
495,"(5, 18, 3554, 5, 18)",3,mbtiauth_7131
496,"(5, 18, 3554, 18, 17)",2,mbtiauth_7131
497,"(5, 18, 4385, 5, 17)",3,mbtiauth_7131
498,"(5, 18, 4385, 5, 18)",3,mbtiauth_7131
499,"(5, 18, 4385, 18, 17)",3,mbtiauth_7131
500,"(5, 18, 4385, 3554, 5)",3,mbtiauth_7131
501,"(5, 18, 4385, 3554, 17)",2,mbtiauth_7131
502,"(5, 18, 4385, 3554, 18)",3,mbtiauth_7131
503,"(5, 3554, 5, 18, 17)",2,mbtiauth_7131
504,"(5, 4385, 5, 18, 17)",3,mbtiauth_7131
505,"(5, 4385, 3554, 5, 17)",2,mbtiauth_7131
506,"(5, 4385, 3554, 5, 18)",3,mbtiauth_7131
507,"(5, 4385, 3554, 18, 17)",2,mbtiauth_7131
508,"(17, 5, 17, 5, 18)",2,mbtiauth_7131
509,"(17, 5, 17, 118, 2751)",2,mbtiauth_7131
510,"(17, 5, 18, 5, 18)",2,mbtiauth_7131
511,"(17, 5, 18, 17, 5)",3,mbtiauth_7131
512,"(17, 5, 18, 17, 18)",2,mbtiauth_7131
513,"(17, 5, 18, 17, 118)",2,mbtiauth_7131
514,"(17, 5, 18, 17, 2751)",2,mbtiauth_7131
515,"(17, 5, 18, 17, 4385)",3,mbtiauth_7131
516,"(17, 5, 18, 118, 2751)",2,mbtiauth_7131
517,"(17, 18, 17, 5, 18)",2,mbtiauth_7131
518,"(17, 18, 17, 118, 2751)",2,mbtiauth_7131
519,"(17, 3554, 5, 17, 4385)",2,mbtiauth_7131
520,"(17, 3554, 5, 18, 17)",3,mbtiauth_7131
521,"(17, 3554, 5, 18, 4385)",2,mbtiauth_7131
522,"(17, 3554, 18, 17, 4385)",2,mbtiauth_7131
523,"(17, 4385, 5, 17, 4385)",2,mbtiauth_7131
524,"(17, 4385, 5, 18, 17)",3,mbtiauth_7131
525,"(17, 4385, 5, 18, 4385)",2,mbtiauth_7131
526,"(17, 4385, 18, 17, 4385)",2,mbtiauth_7131
527,"(17, 4385, 3554, 5, 17)",3,mbtiauth_7131
528,"(17, 4385, 3554, 5, 18)",3,mbtiauth_7131
529,"(17, 4385, 3554, 5, 4385)",2,mbtiauth_7131
530,"(17, 4385, 3554, 17, 4385)",2,mbtiauth_7131
531,"(17, 4385, 3554, 18, 17)",3,mbtiauth_7131
532,"(17, 4385, 3554, 18, 4385)",2,mbtiauth_7131
533,"(18, 5, 17, 118, 2751)",2,mbtiauth_7131
534,"(18, 5, 18, 17, 5)",2,mbtiauth_7131
535,"(18, 5, 18, 17, 118)",2,mbtiauth_7131
536,"(18, 5, 18, 17, 2751)",2,mbtiauth_7131
537,"(18, 5, 18, 17, 4385)",3,mbtiauth_7131
538,"(18, 5, 18, 118, 2751)",2,mbtiauth_7131
539,"(18, 17, 5, 17, 5)",2,mbtiauth_7131
540,"(18, 17, 5, 17, 118)",2,mbtiauth_7131
541,"(18, 17, 5, 17, 2751)",2,mbtiauth_7131
542,"(18, 17, 5, 17, 4385)",3,mbtiauth_7131
543,"(18, 17, 5, 18, 5)",2,mbtiauth_7131
544,"(18, 17, 5, 18, 17)",6,mbtiauth_7131
545,"(18, 17, 5, 18, 118)",2,mbtiauth_7131
546,"(18, 17, 5, 18, 2751)",2,mbtiauth_7131
547,"(18, 17, 5, 18, 4385)",3,mbtiauth_7131
548,"(18, 17, 5, 118, 2751)",2,mbtiauth_7131
549,"(18, 17, 17, 118, 2751)",2,mbtiauth_7131
550,"(18, 17, 18, 17, 5)",2,mbtiauth_7131
551,"(18, 17, 18, 17, 118)",2,mbtiauth_7131
552,"(18, 17, 18, 17, 2751)",2,mbtiauth_7131
553,"(18, 17, 18, 17, 4385)",3,mbtiauth_7131
554,"(18, 17, 18, 118, 2751)",2,mbtiauth_7131
555,"(18, 17, 3554, 5, 17)",3,mbtiauth_7131
556,"(18, 17, 3554, 5, 18)",3,mbtiauth_7131
557,"(18, 17, 3554, 18, 17)",3,mbtiauth_7131
558,"(18, 17, 4385, 5, 17)",3,mbtiauth_7131
559,"(18, 17, 4385, 5, 18)",3,mbtiauth_7131
560,"(18, 17, 4385, 18, 17)",3,mbtiauth_7131
561,"(18, 17, 4385, 3554, 5)",3,mbtiauth_7131
562,"(18, 17, 4385, 3554, 17)",3,mbtiauth_7131
563,"(18, 17, 4385, 3554, 18)",3,mbtiauth_7131
564,"(18, 18, 17, 118, 2751)",2,mbtiauth_7131
565,"(18, 3554, 5, 18, 17)",3,mbtiauth_7131
566,"(18, 4385, 5, 18, 17)",3,mbtiauth_7131
567,"(18, 4385, 3554, 5, 17)",3,mbtiauth_7131
568,"(18, 4385, 3554, 5, 18)",3,mbtiauth_7131
569,"(18, 4385, 3554, 18, 17)",3,mbtiauth_7131
570,"(3554, 5, 17, 5, 18)",2,mbtiauth_7131
571,"(3554, 5, 17, 3554, 5)",2,mbtiauth_7131
572,"(3554, 5, 17, 4385, 5)",3,mbtiauth_7131
573,"(3554, 5, 17, 4385, 18)",2,mbtiauth_7131
574,"(3554, 5, 17, 4385, 3554)",2,mbtiauth_7131
575,"(3554, 5, 18, 5, 18)",2,mbtiauth_7131
576,"(3554, 5, 18, 17, 5)",3,mbtiauth_7131
577,"(3554, 5, 18, 17, 18)",2,mbtiauth_7131
578,"(3554, 5, 18, 17, 3554)",2,mbtiauth_7131
579,"(3554, 5, 18, 17, 4385)",3,mbtiauth_7131
580,"(3554, 5, 18, 3554, 5)",2,mbtiauth_7131
581,"(3554, 5, 18, 4385, 5)",3,mbtiauth_7131
582,"(3554, 5, 18, 4385, 18)",2,mbtiauth_7131
583,"(3554, 5, 18, 4385, 3554)",2,mbtiauth_7131
584,"(3554, 5, 4385, 5, 18)",2,mbtiauth_7131
585,"(3554, 5, 4385, 3554, 5)",2,mbtiauth_7131
586,"(3554, 17, 4385, 5, 18)",2,mbtiauth_7131
587,"(3554, 17, 4385, 3554, 5)",2,mbtiauth_7131
588,"(3554, 18, 17, 5, 18)",2,mbtiauth_7131
589,"(3554, 18, 17, 3554, 5)",2,mbtiauth_7131
590,"(3554, 18, 17, 4385, 5)",3,mbtiauth_7131
591,"(3554, 18, 17, 4385, 18)",2,mbtiauth_7131
592,"(3554, 18, 17, 4385, 3554)",2,mbtiauth_7131
593,"(3554, 18, 4385, 5, 18)",2,mbtiauth_7131
594,"(3554, 18, 4385, 3554, 5)",2,mbtiauth_7131
595,"(4385, 5, 17, 5, 18)",2,mbtiauth_7131
596,"(4385, 5, 17, 4385, 5)",2,mbtiauth_7131
597,"(4385, 5, 17, 4385, 3554)",2,mbtiauth_7131
598,"(4385, 5, 18, 5, 18)",2,mbtiauth_7131
599,"(4385, 5, 18, 17, 5)",3,mbtiauth_7131
600,"(4385, 5, 18, 17, 18)",2,mbtiauth_7131
601,"(4385, 5, 18, 17, 3554)",2,mbtiauth_7131
602,"(4385, 5, 18, 17, 4385)",3,mbtiauth_7131
603,"(4385, 5, 18, 4385, 5)",2,mbtiauth_7131
604,"(4385, 5, 18, 4385, 3554)",2,mbtiauth_7131
605,"(4385, 18, 17, 5, 18)",2,mbtiauth_7131
606,"(4385, 18, 17, 4385, 5)",2,mbtiauth_7131
607,"(4385, 18, 17, 4385, 3554)",2,mbtiauth_7131
608,"(4385, 3554, 5, 17, 5)",2,mbtiauth_7131
609,"(4385, 3554, 5, 17, 3554)",2,mbtiauth_7131
610,"(4385, 3554, 5, 17, 4385)",3,mbtiauth_7131
611,"(4385, 3554, 5, 18, 5)",2,mbtiauth_7131
612,"(4385, 3554, 5, 18, 17)",3,mbtiauth_7131
613,"(4385, 3554, 5, 18, 3554)",2,mbtiauth_7131
614,"(4385, 3554, 5, 18, 4385)",3,mbtiauth_7131
615,"(4385, 3554, 5, 4385, 5)",2,mbtiauth_7131
616,"(4385, 3554, 5, 4385, 3554)",2,mbtiauth_7131
617,"(4385, 3554, 17, 4385, 5)",2,mbtiauth_7131
618,"(4385, 3554, 17, 4385, 3554)",2,mbtiauth_7131
619,"(4385, 3554, 18, 17, 5)",2,mbtiauth_7131
620,"(4385, 3554, 18, 17, 3554)",2,mbtiauth_7131
621,"(4385, 3554, 18, 17, 4385)",3,mbtiauth_7131
622,"(4385, 3554, 18, 4385, 5)",2,mbtiauth_7131
623,"(4385, 3554, 18, 4385, 3554)",2,mbtiauth_7131
624,"(5, 17, 5, 18, 17, 118)",2,mbtiauth_7131
625,"(5, 17, 5, 18, 17, 4385)",3,mbtiauth_7131
626,"(5, 17, 3554, 5, 18, 17)",2,mbtiauth_7131
627,"(5, 17, 4385, 5, 18, 17)",3,mbtiauth_7131
628,"(5, 17, 4385, 3554, 5, 17)",2,mbtiauth_7131
629,"(5, 17, 4385, 3554, 5, 18)",3,mbtiauth_7131
630,"(5, 17, 4385, 3554, 18, 17)",2,mbtiauth_7131
631,"(5, 18, 5, 18, 17, 118)",2,mbtiauth_7131
632,"(5, 18, 5, 18, 17, 4385)",3,mbtiauth_7131
633,"(5, 18, 17, 5, 17, 118)",2,mbtiauth_7131
634,"(5, 18, 17, 5, 17, 4385)",3,mbtiauth_7131
635,"(5, 18, 17, 5, 18, 17)",6,mbtiauth_7131
636,"(5, 18, 17, 5, 18, 118)",2,mbtiauth_7131
637,"(5, 18, 17, 5, 18, 4385)",3,mbtiauth_7131
638,"(5, 18, 17, 18, 17, 118)",2,mbtiauth_7131
639,"(5, 18, 17, 18, 17, 4385)",3,mbtiauth_7131
640,"(5, 18, 17, 3554, 5, 17)",2,mbtiauth_7131
641,"(5, 18, 17, 3554, 5, 18)",3,mbtiauth_7131
642,"(5, 18, 17, 3554, 18, 17)",2,mbtiauth_7131
643,"(5, 18, 17, 4385, 5, 17)",3,mbtiauth_7131
644,"(5, 18, 17, 4385, 5, 18)",3,mbtiauth_7131
645,"(5, 18, 17, 4385, 18, 17)",3,mbtiauth_7131
646,"(5, 18, 17, 4385, 3554, 5)",3,mbtiauth_7131
647,"(5, 18, 17, 4385, 3554, 17)",2,mbtiauth_7131
648,"(5, 18, 17, 4385, 3554, 18)",3,mbtiauth_7131
649,"(5, 18, 3554, 5, 18, 17)",2,mbtiauth_7131
650,"(5, 18, 4385, 5, 18, 17)",3,mbtiauth_7131
651,"(5, 18, 4385, 3554, 5, 17)",2,mbtiauth_7131
652,"(5, 18, 4385, 3554, 5, 18)",3,mbtiauth_7131
653,"(5, 18, 4385, 3554, 18, 17)",2,mbtiauth_7131
654,"(5, 4385, 3554, 5, 18, 17)",2,mbtiauth_7131
655,"(17, 5, 18, 17, 5, 18)",2,mbtiauth_7131
656,"(17, 5, 18, 17, 118, 2751)",2,mbtiauth_7131
657,"(17, 3554, 5, 18, 17, 4385)",2,mbtiauth_7131
658,"(17, 4385, 5, 18, 17, 4385)",2,mbtiauth_7131
659,"(17, 4385, 3554, 5, 17, 4385)",2,mbtiauth_7131
660,"(17, 4385, 3554, 5, 18, 17)",3,mbtiauth_7131
661,"(17, 4385, 3554, 5, 18, 4385)",2,mbtiauth_7131
662,"(17, 4385, 3554, 18, 17, 4385)",2,mbtiauth_7131
663,"(18, 5, 18, 17, 118, 2751)",2,mbtiauth_7131
664,"(18, 17, 5, 17, 118, 2751)",2,mbtiauth_7131
665,"(18, 17, 5, 18, 17, 5)",2,mbtiauth_7131
666,"(18, 17, 5, 18, 17, 118)",2,mbtiauth_7131
667,"(18, 17, 5, 18, 17, 2751)",2,mbtiauth_7131
668,"(18, 17, 5, 18, 17, 4385)",3,mbtiauth_7131
669,"(18, 17, 5, 18, 118, 2751)",2,mbtiauth_7131
670,"(18, 17, 18, 17, 118, 2751)",2,mbtiauth_7131
671,"(18, 17, 3554, 5, 18, 17)",3,mbtiauth_7131
672,"(18, 17, 4385, 5, 18, 17)",3,mbtiauth_7131
673,"(18, 17, 4385, 3554, 5, 17)",3,mbtiauth_7131
674,"(18, 17, 4385, 3554, 5, 18)",3,mbtiauth_7131
675,"(18, 17, 4385, 3554, 18, 17)",3,mbtiauth_7131
676,"(18, 4385, 3554, 5, 18, 17)",3,mbtiauth_7131
677,"(3554, 5, 17, 4385, 5, 18)",2,mbtiauth_7131
678,"(3554, 5, 17, 4385, 3554, 5)",2,mbtiauth_7131
679,"(3554, 5, 18, 17, 5, 18)",2,mbtiauth_7131
680,"(3554, 5, 18, 17, 3554, 5)",2,mbtiauth_7131
681,"(3554, 5, 18, 17, 4385, 5)",3,mbtiauth_7131
682,"(3554, 5, 18, 17, 4385, 18)",2,mbtiauth_7131
683,"(3554, 5, 18, 17, 4385, 3554)",2,mbtiauth_7131
684,"(3554, 5, 18, 4385, 5, 18)",2,mbtiauth_7131
685,"(3554, 5, 18, 4385, 3554, 5)",2,mbtiauth_7131
686,"(3554, 18, 17, 4385, 5, 18)",2,mbtiauth_7131
687,"(3554, 18, 17, 4385, 3554, 5)",2,mbtiauth_7131
688,"(4385, 5, 18, 17, 5, 18)",2,mbtiauth_7131
689,"(4385, 5, 18, 17, 4385, 5)",2,mbtiauth_7131
690,"(4385, 5, 18, 17, 4385, 3554)",2,mbtiauth_7131
691,"(4385, 3554, 5, 17, 4385, 5)",2,mbtiauth_7131
692,"(4385, 3554, 5, 17, 4385, 3554)",2,mbtiauth_7131
693,"(4385, 3554, 5, 18, 17, 5)",2,mbtiauth_7131
694,"(4385, 3554, 5, 18, 17, 3554)",2,mbtiauth_7131
695,"(4385, 3554, 5, 18, 17, 4385)",3,mbtiauth_7131
696,"(4385, 3554, 5, 18, 4385, 5)",2,mbtiauth_7131
697,"(4385, 3554, 5, 18, 4385, 3554)",2,mbtiauth_7131
698,"(4385, 3554, 18, 17, 4385, 5)",2,mbtiauth_7131
699,"(4385, 3554, 18, 17, 4385, 3554)",2,mbtiauth_7131
700,"(5, 17, 4385, 3554, 5, 18, 17)",2,mbtiauth_7131
701,"(5, 18, 17, 5, 18, 17, 118)",2,mbtiauth_7131
702,"(5, 18, 17, 5, 18, 17, 4385)",3,mbtiauth_7131
703,"(5, 18, 17, 3554, 5, 18, 17)",2,mbtiauth_7131
704,"(5, 18, 17, 4385, 5, 18, 17)",3,mbtiauth_7131
705,"(5, 18, 17, 4385, 3554, 5, 17)",2,mbtiauth_7131
706,"(5, 18, 17, 4385, 3554, 5, 18)",3,mbtiauth_7131
707,"(5, 18, 17, 4385, 3554, 18, 17)",2,mbtiauth_7131
708,"(5, 18, 4385, 3554, 5, 18, 17)",2,mbtiauth_7131
709,"(17, 4385, 3554, 5, 18, 17, 4385)",2,mbtiauth_7131
710,"(18, 17, 5, 18, 17, 118, 2751)",2,mbtiauth_7131
711,"(18, 17, 4385, 3554, 5, 18, 17)",3,mbtiauth_7131
712,"(3554, 5, 18, 17, 4385, 5, 18)",2,mbtiauth_7131
713,"(3554, 5, 18, 17, 4385, 3554, 5)",2,mbtiauth_7131
714,"(4385, 3554, 5, 18, 17, 4385, 5)",2,mbtiauth_7131
715,"(4385, 3554, 5, 18, 17, 4385, 3554)",2,mbtiauth_7131
716,"(5, 18, 17, 4385, 3554, 5, 18, 17)",2,mbtiauth_7131
