,pattern,sup,author
159,"(50, 50, 50)",8,mbtiauth_6765
160,"(50, 50, 2166)",2,mbtiauth_6765
161,"(50, 535, 30)",2,mbtiauth_6765
162,"(50, 13313, 50)",2,mbtiauth_6765
163,"(50, 13313, 51258)",2,mbtiauth_6765
164,"(50, 25640, 50)",2,mbtiauth_6765
165,"(50, 51258, 50)",2,mbtiauth_6765
166,"(122, 50, 50)",2,mbtiauth_6765
167,"(122, 3345, 50)",2,mbtiauth_6765
168,"(393, 394, 50)",2,mbtiauth_6765
169,"(393, 398, 50)",2,mbtiauth_6765
170,"(393, 398, 394)",2,mbtiauth_6765
171,"(393, 398, 431)",2,mbtiauth_6765
172,"(393, 398, 1022)",2,mbtiauth_6765
173,"(393, 431, 50)",2,mbtiauth_6765
174,"(393, 1022, 50)",3,mbtiauth_6765
175,"(393, 1022, 431)",2,mbtiauth_6765
176,"(396, 394, 50)",2,mbtiauth_6765
177,"(396, 399, 50)",2,mbtiauth_6765
178,"(396, 399, 394)",2,mbtiauth_6765
179,"(396, 399, 431)",2,mbtiauth_6765
180,"(396, 431, 50)",2,mbtiauth_6765
181,"(398, 394, 50)",2,mbtiauth_6765
182,"(398, 431, 50)",2,mbtiauth_6765
183,"(398, 1022, 50)",2,mbtiauth_6765
184,"(398, 1022, 431)",2,mbtiauth_6765
185,"(399, 394, 50)",2,mbtiauth_6765
186,"(399, 431, 50)",2,mbtiauth_6765
187,"(979, 393, 50)",2,mbtiauth_6765
188,"(979, 393, 394)",2,mbtiauth_6765
189,"(979, 393, 398)",2,mbtiauth_6765
190,"(979, 393, 431)",2,mbtiauth_6765
191,"(979, 393, 1022)",2,mbtiauth_6765
192,"(979, 394, 50)",2,mbtiauth_6765
193,"(979, 396, 50)",2,mbtiauth_6765
194,"(979, 396, 394)",2,mbtiauth_6765
195,"(979, 396, 399)",2,mbtiauth_6765
196,"(979, 396, 431)",2,mbtiauth_6765
197,"(979, 398, 50)",2,mbtiauth_6765
198,"(979, 398, 394)",2,mbtiauth_6765
199,"(979, 398, 431)",2,mbtiauth_6765
200,"(979, 398, 1022)",2,mbtiauth_6765
201,"(979, 399, 50)",2,mbtiauth_6765
202,"(979, 399, 394)",2,mbtiauth_6765
203,"(979, 399, 431)",2,mbtiauth_6765
204,"(979, 431, 50)",2,mbtiauth_6765
205,"(979, 1022, 50)",2,mbtiauth_6765
206,"(979, 1022, 431)",2,mbtiauth_6765
207,"(1022, 431, 50)",2,mbtiauth_6765
208,"(13313, 50, 50)",2,mbtiauth_6765
209,"(13313, 51258, 50)",2,mbtiauth_6765
210,"(25640, 50, 50)",2,mbtiauth_6765
211,"(25640, 50, 2166)",2,mbtiauth_6765
212,"(51258, 50, 50)",2,mbtiauth_6765
213,"(50, 50, 50, 50)",4,mbtiauth_6765
214,"(50, 13313, 50, 50)",2,mbtiauth_6765
215,"(50, 13313, 51258, 50)",2,mbtiauth_6765
216,"(50, 25640, 50, 50)",2,mbtiauth_6765
217,"(50, 51258, 50, 50)",2,mbtiauth_6765
218,"(393, 398, 394, 50)",2,mbtiauth_6765
219,"(393, 398, 431, 50)",2,mbtiauth_6765
220,"(393, 398, 1022, 50)",2,mbtiauth_6765
221,"(393, 398, 1022, 431)",2,mbtiauth_6765
222,"(393, 1022, 431, 50)",2,mbtiauth_6765
223,"(396, 399, 394, 50)",2,mbtiauth_6765
224,"(396, 399, 431, 50)",2,mbtiauth_6765
225,"(398, 1022, 431, 50)",2,mbtiauth_6765
226,"(979, 393, 394, 50)",2,mbtiauth_6765
227,"(979, 393, 398, 50)",2,mbtiauth_6765
228,"(979, 393, 398, 394)",2,mbtiauth_6765
229,"(979, 393, 398, 431)",2,mbtiauth_6765
230,"(979, 393, 398, 1022)",2,mbtiauth_6765
231,"(979, 393, 431, 50)",2,mbtiauth_6765
232,"(979, 393, 1022, 50)",2,mbtiauth_6765
233,"(979, 393, 1022, 431)",2,mbtiauth_6765
234,"(979, 396, 394, 50)",2,mbtiauth_6765
235,"(979, 396, 399, 50)",2,mbtiauth_6765
236,"(979, 396, 399, 394)",2,mbtiauth_6765
237,"(979, 396, 399, 431)",2,mbtiauth_6765
238,"(979, 396, 431, 50)",2,mbtiauth_6765
239,"(979, 398, 394, 50)",2,mbtiauth_6765
240,"(979, 398, 431, 50)",2,mbtiauth_6765
241,"(979, 398, 1022, 50)",2,mbtiauth_6765
242,"(979, 398, 1022, 431)",2,mbtiauth_6765
243,"(979, 399, 394, 50)",2,mbtiauth_6765
244,"(979, 399, 431, 50)",2,mbtiauth_6765
245,"(979, 1022, 431, 50)",2,mbtiauth_6765
246,"(13313, 51258, 50, 50)",2,mbtiauth_6765
247,"(25640, 50, 50, 2166)",2,mbtiauth_6765
248,"(50, 13313, 51258, 50, 50)",2,mbtiauth_6765
249,"(393, 398, 1022, 431, 50)",2,mbtiauth_6765
250,"(979, 393, 398, 394, 50)",2,mbtiauth_6765
251,"(979, 393, 398, 431, 50)",2,mbtiauth_6765
252,"(979, 393, 398, 1022, 50)",2,mbtiauth_6765
253,"(979, 393, 398, 1022, 431)",2,mbtiauth_6765
254,"(979, 393, 1022, 431, 50)",2,mbtiauth_6765
255,"(979, 396, 399, 394, 50)",2,mbtiauth_6765
256,"(979, 396, 399, 431, 50)",2,mbtiauth_6765
257,"(979, 398, 1022, 431, 50)",2,mbtiauth_6765
258,"(979, 393, 398, 1022, 431, 50)",2,mbtiauth_6765
