,pattern,sup,author
128,"(3, 50, 50)",2,mbtiauth_3284
129,"(50, 50, 50)",6,mbtiauth_3284
130,"(50, 50, 91)",2,mbtiauth_3284
131,"(50, 50, 240)",4,mbtiauth_3284
132,"(50, 50, 255)",2,mbtiauth_3284
133,"(50, 50, 262)",3,mbtiauth_3284
134,"(50, 240, 50)",2,mbtiauth_3284
135,"(50, 240, 255)",2,mbtiauth_3284
136,"(91, 50, 50)",2,mbtiauth_3284
137,"(91, 240, 50)",2,mbtiauth_3284
138,"(155, 50, 50)",2,mbtiauth_3284
139,"(240, 413, 53)",2,mbtiauth_3284
140,"(3, 50, 50, 50)",2,mbtiauth_3284
141,"(50, 50, 50, 262)",3,mbtiauth_3284
142,"(50, 50, 240, 255)",2,mbtiauth_3284
