,pattern,sup,author
178,"(50, 48, 50)",2,mbtiauth_5884
179,"(50, 48, 122)",2,mbtiauth_5884
180,"(50, 50, 48)",2,mbtiauth_5884
181,"(50, 50, 50)",7,mbtiauth_5884
182,"(50, 50, 117)",2,mbtiauth_5884
183,"(50, 50, 155)",2,mbtiauth_5884
184,"(50, 50, 1063)",2,mbtiauth_5884
185,"(50, 50, 10398)",2,mbtiauth_5884
186,"(50, 217, 15203)",2,mbtiauth_5884
187,"(50, 262, 50)",2,mbtiauth_5884
188,"(50, 520, 50)",2,mbtiauth_5884
189,"(50, 1016, 155)",2,mbtiauth_5884
190,"(50, 2974, 1063)",2,mbtiauth_5884
191,"(50, 2974, 2974)",2,mbtiauth_5884
192,"(50, 2974, 10398)",2,mbtiauth_5884
193,"(50, 10398, 1063)",2,mbtiauth_5884
194,"(240, 50, 50)",2,mbtiauth_5884
195,"(390, 50, 117)",2,mbtiauth_5884
196,"(390, 50, 262)",2,mbtiauth_5884
197,"(390, 117, 3211)",2,mbtiauth_5884
198,"(393, 4257, 50)",2,mbtiauth_5884
199,"(396, 4257, 4257)",2,mbtiauth_5884
200,"(453, 50, 117)",2,mbtiauth_5884
201,"(453, 117, 3211)",2,mbtiauth_5884
202,"(453, 390, 50)",2,mbtiauth_5884
203,"(453, 390, 117)",2,mbtiauth_5884
204,"(453, 390, 3211)",2,mbtiauth_5884
205,"(520, 50, 48)",2,mbtiauth_5884
206,"(535, 48, 50)",2,mbtiauth_5884
207,"(535, 50, 48)",2,mbtiauth_5884
208,"(535, 50, 50)",2,mbtiauth_5884
209,"(741, 2723, 50)",2,mbtiauth_5884
210,"(1022, 487, 928)",2,mbtiauth_5884
211,"(1022, 4257, 487)",2,mbtiauth_5884
212,"(1022, 4257, 928)",2,mbtiauth_5884
213,"(2171, 30387, 1029)",2,mbtiauth_5884
214,"(2974, 50, 10398)",2,mbtiauth_5884
215,"(2974, 1063, 10398)",2,mbtiauth_5884
216,"(2974, 2974, 50)",2,mbtiauth_5884
217,"(2974, 10398, 50)",2,mbtiauth_5884
218,"(2974, 10398, 1063)",2,mbtiauth_5884
219,"(4257, 393, 4257)",2,mbtiauth_5884
220,"(4257, 487, 928)",2,mbtiauth_5884
221,"(4257, 4257, 4257)",2,mbtiauth_5884
222,"(5439, 15759, 50)",2,mbtiauth_5884
223,"(5439, 15759, 2974)",2,mbtiauth_5884
224,"(10398, 1063, 10398)",2,mbtiauth_5884
225,"(15759, 50, 50)",2,mbtiauth_5884
226,"(15759, 50, 2974)",2,mbtiauth_5884
227,"(15759, 50, 10398)",2,mbtiauth_5884
228,"(15759, 2974, 2974)",2,mbtiauth_5884
229,"(15759, 2974, 10398)",2,mbtiauth_5884
230,"(15759, 5439, 2974)",2,mbtiauth_5884
231,"(15759, 5439, 15759)",2,mbtiauth_5884
232,"(15759, 15759, 2974)",2,mbtiauth_5884
233,"(50, 50, 10398, 1063)",2,mbtiauth_5884
234,"(50, 2974, 10398, 1063)",2,mbtiauth_5884
235,"(453, 390, 50, 117)",2,mbtiauth_5884
236,"(453, 390, 117, 3211)",2,mbtiauth_5884
237,"(535, 50, 48, 50)",2,mbtiauth_5884
238,"(1022, 4257, 487, 928)",2,mbtiauth_5884
239,"(15759, 5439, 15759, 2974)",2,mbtiauth_5884
