,pattern,sup,author
144,"(50, 48, 1959)",2,mbtiauth_5158
145,"(50, 50, 50)",3,mbtiauth_5158
146,"(50, 50, 2850)",2,mbtiauth_5158
147,"(50, 50, 3108)",2,mbtiauth_5158
148,"(50, 255, 48)",2,mbtiauth_5158
149,"(50, 3108, 2850)",2,mbtiauth_5158
150,"(50, 3108, 3108)",3,mbtiauth_5158
151,"(50, 7058, 7058)",2,mbtiauth_5158
152,"(50, 15591, 48)",2,mbtiauth_5158
153,"(50, 15591, 1959)",2,mbtiauth_5158
154,"(155, 15591, 48)",2,mbtiauth_5158
155,"(2850, 3108, 3108)",2,mbtiauth_5158
156,"(2850, 3108, 9837)",2,mbtiauth_5158
157,"(2850, 9837, 3108)",2,mbtiauth_5158
158,"(3108, 2850, 3108)",2,mbtiauth_5158
159,"(3108, 3108, 2850)",2,mbtiauth_5158
160,"(3108, 3108, 3108)",3,mbtiauth_5158
161,"(3108, 3108, 9837)",2,mbtiauth_5158
162,"(3108, 9837, 3108)",2,mbtiauth_5158
163,"(15591, 48, 1959)",2,mbtiauth_5158
164,"(50, 50, 3108, 2850)",2,mbtiauth_5158
165,"(50, 50, 3108, 3108)",2,mbtiauth_5158
166,"(50, 3108, 3108, 2850)",2,mbtiauth_5158
167,"(50, 3108, 3108, 3108)",2,mbtiauth_5158
168,"(50, 15591, 48, 1959)",2,mbtiauth_5158
169,"(2850, 3108, 9837, 3108)",2,mbtiauth_5158
170,"(3108, 3108, 2850, 3108)",2,mbtiauth_5158
171,"(3108, 3108, 3108, 3108)",2,mbtiauth_5158
172,"(3108, 3108, 9837, 3108)",2,mbtiauth_5158
173,"(50, 50, 3108, 3108, 2850)",2,mbtiauth_5158
174,"(50, 50, 3108, 3108, 3108)",2,mbtiauth_5158
