,pattern,sup,author
181,"(3, 6375, 18076)",2,mbtiauth_1948
182,"(3, 6375, 32088)",2,mbtiauth_1948
183,"(3, 18076, 32088)",2,mbtiauth_1948
184,"(19, 19, 262)",2,mbtiauth_1948
185,"(19, 262, 262)",2,mbtiauth_1948
186,"(50, 50, 50)",3,mbtiauth_1948
187,"(50, 41531, 50)",2,mbtiauth_1948
188,"(75, 75, 75)",4,mbtiauth_1948
189,"(75, 75, 1011)",2,mbtiauth_1948
190,"(75, 75, 8464)",2,mbtiauth_1948
191,"(75, 8464, 75)",2,mbtiauth_1948
192,"(262, 50, 50)",2,mbtiauth_1948
193,"(262, 50, 262)",2,mbtiauth_1948
194,"(487, 6375, 10388)",2,mbtiauth_1948
195,"(487, 6375, 18076)",2,mbtiauth_1948
196,"(487, 6375, 32088)",2,mbtiauth_1948
197,"(487, 18076, 10388)",2,mbtiauth_1948
198,"(487, 18076, 32088)",2,mbtiauth_1948
199,"(487, 32088, 10388)",2,mbtiauth_1948
200,"(970, 3, 6375)",2,mbtiauth_1948
201,"(970, 3, 18076)",2,mbtiauth_1948
202,"(970, 487, 6375)",2,mbtiauth_1948
203,"(970, 487, 18076)",2,mbtiauth_1948
204,"(970, 2751, 3)",2,mbtiauth_1948
205,"(970, 2751, 487)",2,mbtiauth_1948
206,"(970, 2751, 6375)",2,mbtiauth_1948
207,"(970, 2751, 8625)",2,mbtiauth_1948
208,"(970, 2751, 18076)",2,mbtiauth_1948
209,"(970, 2751, 37066)",2,mbtiauth_1948
210,"(970, 6375, 18076)",2,mbtiauth_1948
211,"(970, 8625, 3)",2,mbtiauth_1948
212,"(970, 8625, 6375)",2,mbtiauth_1948
213,"(970, 8625, 18076)",2,mbtiauth_1948
214,"(970, 37066, 487)",2,mbtiauth_1948
215,"(970, 37066, 6375)",2,mbtiauth_1948
216,"(970, 37066, 18076)",2,mbtiauth_1948
217,"(1024, 50, 262)",2,mbtiauth_1948
218,"(2751, 3, 6375)",2,mbtiauth_1948
219,"(2751, 3, 18076)",2,mbtiauth_1948
220,"(2751, 487, 6375)",2,mbtiauth_1948
221,"(2751, 487, 18076)",2,mbtiauth_1948
222,"(2751, 6375, 18076)",2,mbtiauth_1948
223,"(2751, 8625, 3)",2,mbtiauth_1948
224,"(2751, 8625, 6375)",2,mbtiauth_1948
225,"(2751, 8625, 18076)",2,mbtiauth_1948
226,"(2751, 37066, 487)",2,mbtiauth_1948
227,"(2751, 37066, 6375)",2,mbtiauth_1948
228,"(2751, 37066, 18076)",2,mbtiauth_1948
229,"(6375, 18076, 10388)",2,mbtiauth_1948
230,"(6375, 18076, 32088)",2,mbtiauth_1948
231,"(6375, 32088, 10388)",2,mbtiauth_1948
232,"(8464, 75, 75)",2,mbtiauth_1948
233,"(8625, 3, 6375)",2,mbtiauth_1948
234,"(8625, 3, 18076)",2,mbtiauth_1948
235,"(8625, 3, 32088)",2,mbtiauth_1948
236,"(8625, 6375, 18076)",2,mbtiauth_1948
237,"(8625, 6375, 32088)",2,mbtiauth_1948
238,"(8625, 18076, 32088)",2,mbtiauth_1948
239,"(18076, 32088, 10388)",2,mbtiauth_1948
240,"(37066, 487, 6375)",2,mbtiauth_1948
241,"(37066, 487, 18076)",2,mbtiauth_1948
242,"(37066, 487, 32088)",2,mbtiauth_1948
243,"(37066, 6375, 18076)",2,mbtiauth_1948
244,"(37066, 6375, 32088)",2,mbtiauth_1948
245,"(37066, 18076, 32088)",2,mbtiauth_1948
246,"(41531, 50, 50)",2,mbtiauth_1948
247,"(3, 6375, 18076, 32088)",2,mbtiauth_1948
248,"(50, 50, 50, 50)",2,mbtiauth_1948
249,"(50, 41531, 50, 50)",2,mbtiauth_1948
250,"(75, 75, 75, 75)",4,mbtiauth_1948
251,"(75, 75, 75, 1011)",2,mbtiauth_1948
252,"(75, 75, 8464, 75)",2,mbtiauth_1948
253,"(75, 8464, 75, 75)",2,mbtiauth_1948
254,"(487, 6375, 18076, 10388)",2,mbtiauth_1948
255,"(487, 6375, 18076, 32088)",2,mbtiauth_1948
256,"(487, 6375, 32088, 10388)",2,mbtiauth_1948
257,"(487, 18076, 32088, 10388)",2,mbtiauth_1948
258,"(970, 3, 6375, 18076)",2,mbtiauth_1948
259,"(970, 487, 6375, 18076)",2,mbtiauth_1948
260,"(970, 2751, 3, 6375)",2,mbtiauth_1948
261,"(970, 2751, 3, 18076)",2,mbtiauth_1948
262,"(970, 2751, 487, 6375)",2,mbtiauth_1948
263,"(970, 2751, 487, 18076)",2,mbtiauth_1948
264,"(970, 2751, 6375, 18076)",2,mbtiauth_1948
265,"(970, 2751, 8625, 3)",2,mbtiauth_1948
266,"(970, 2751, 8625, 6375)",2,mbtiauth_1948
267,"(970, 2751, 8625, 18076)",2,mbtiauth_1948
268,"(970, 2751, 37066, 487)",2,mbtiauth_1948
269,"(970, 2751, 37066, 6375)",2,mbtiauth_1948
270,"(970, 2751, 37066, 18076)",2,mbtiauth_1948
271,"(970, 8625, 3, 6375)",2,mbtiauth_1948
272,"(970, 8625, 3, 18076)",2,mbtiauth_1948
273,"(970, 8625, 6375, 18076)",2,mbtiauth_1948
274,"(970, 37066, 487, 6375)",2,mbtiauth_1948
275,"(970, 37066, 487, 18076)",2,mbtiauth_1948
276,"(970, 37066, 6375, 18076)",2,mbtiauth_1948
277,"(2751, 3, 6375, 18076)",2,mbtiauth_1948
278,"(2751, 487, 6375, 18076)",2,mbtiauth_1948
279,"(2751, 8625, 3, 6375)",2,mbtiauth_1948
280,"(2751, 8625, 3, 18076)",2,mbtiauth_1948
281,"(2751, 8625, 6375, 18076)",2,mbtiauth_1948
282,"(2751, 37066, 487, 6375)",2,mbtiauth_1948
283,"(2751, 37066, 487, 18076)",2,mbtiauth_1948
284,"(2751, 37066, 6375, 18076)",2,mbtiauth_1948
285,"(6375, 18076, 32088, 10388)",2,mbtiauth_1948
286,"(8625, 3, 6375, 18076)",2,mbtiauth_1948
287,"(8625, 3, 6375, 32088)",2,mbtiauth_1948
288,"(8625, 3, 18076, 32088)",2,mbtiauth_1948
289,"(8625, 6375, 18076, 32088)",2,mbtiauth_1948
290,"(37066, 487, 6375, 18076)",2,mbtiauth_1948
291,"(37066, 487, 6375, 32088)",2,mbtiauth_1948
292,"(37066, 487, 18076, 32088)",2,mbtiauth_1948
293,"(37066, 6375, 18076, 32088)",2,mbtiauth_1948
294,"(75, 75, 75, 75, 75)",4,mbtiauth_1948
295,"(75, 75, 75, 75, 1011)",2,mbtiauth_1948
296,"(75, 75, 8464, 75, 75)",2,mbtiauth_1948
297,"(487, 6375, 18076, 32088, 10388)",2,mbtiauth_1948
298,"(970, 2751, 3, 6375, 18076)",2,mbtiauth_1948
299,"(970, 2751, 487, 6375, 18076)",2,mbtiauth_1948
300,"(970, 2751, 8625, 3, 6375)",2,mbtiauth_1948
301,"(970, 2751, 8625, 3, 18076)",2,mbtiauth_1948
302,"(970, 2751, 8625, 6375, 18076)",2,mbtiauth_1948
303,"(970, 2751, 37066, 487, 6375)",2,mbtiauth_1948
304,"(970, 2751, 37066, 487, 18076)",2,mbtiauth_1948
305,"(970, 2751, 37066, 6375, 18076)",2,mbtiauth_1948
306,"(970, 8625, 3, 6375, 18076)",2,mbtiauth_1948
307,"(970, 37066, 487, 6375, 18076)",2,mbtiauth_1948
308,"(2751, 8625, 3, 6375, 18076)",2,mbtiauth_1948
309,"(2751, 37066, 487, 6375, 18076)",2,mbtiauth_1948
310,"(8625, 3, 6375, 18076, 32088)",2,mbtiauth_1948
311,"(37066, 487, 6375, 18076, 32088)",2,mbtiauth_1948
312,"(75, 75, 75, 75, 75, 75)",4,mbtiauth_1948
313,"(970, 2751, 8625, 3, 6375, 18076)",2,mbtiauth_1948
314,"(970, 2751, 37066, 487, 6375, 18076)",2,mbtiauth_1948
315,"(75, 75, 75, 75, 75, 75, 75)",2,mbtiauth_1948
