,pattern,sup,author
113,"(5, 63, 56)",2,mbtiauth_2217
114,"(5, 63, 70)",2,mbtiauth_2217
115,"(5, 70, 56)",2,mbtiauth_2217
116,"(5, 73, 56)",2,mbtiauth_2217
117,"(5, 73, 63)",2,mbtiauth_2217
118,"(5, 73, 70)",2,mbtiauth_2217
119,"(5, 12648, 458)",2,mbtiauth_2217
120,"(27, 4741, 4724)",2,mbtiauth_2217
121,"(63, 70, 56)",2,mbtiauth_2217
122,"(73, 63, 56)",2,mbtiauth_2217
123,"(73, 63, 70)",2,mbtiauth_2217
124,"(73, 70, 56)",2,mbtiauth_2217
125,"(12648, 458, 12646)",2,mbtiauth_2217
126,"(5, 63, 70, 56)",2,mbtiauth_2217
127,"(5, 73, 63, 56)",2,mbtiauth_2217
128,"(5, 73, 63, 70)",2,mbtiauth_2217
129,"(5, 73, 70, 56)",2,mbtiauth_2217
130,"(73, 63, 70, 56)",2,mbtiauth_2217
131,"(5, 73, 63, 70, 56)",2,mbtiauth_2217
