31 -1 62 -1 77 -1 2 -1 986 -1 40 -1 551 -1 412 -1 38 -1 676 -1 1 -2
2 -1 95 -1 77 -1 768 -1 98 -1 27 -1 986 -1 244 -1 14 -1 103 -1 754 -1 39 -1 40 -1 73 -1 2999 -1 1 -2
431 -1 337 -1 40 -1 6953 -1 62 -1 244 -1 33 -1 129 -1 261 -1 564 -1 1 -2
40 -1 323 -1 6 -1 1057 -1 38 -1 31 -1 339 -1 10 -1 81 -1 32 -1 43 -1 32 -1 2 -1 136 -1 497 -1 240 -1 2 -1 33 -1 35 -1 1 -2
309 -1 0 -1 282 -1 317 -1 21 -1 47 -1 992 -1 2471 -1 4113 -1 379 -2
497 -1 555 -1 33 -1 172 -1 1 -2
2 -1 247 -1 40 -1 512 -1 4663 -1 272 -1 43 -1 1 -2
358 -1 33 -1 62 -1 146 -1 50 -1 33 -1 192 -1 27 -1 269 -1 244 -1 664 -1 47 -1 293 -1 5 -1 40 -1 165 -1 801 -1 622 -1 129 -1 27 -1 47 -1 716 -1 499 -1 31 -1 606 -1 112 -1 361 -1 404 -1 512 -1 1 -2
123 -1 270 -1 17 -1 138 -1 27 -1 272 -1 39 -1 53 -1 9 -1 1 -2
2 -1 305 -1 123 -1 17 -1 3 -1 60 -1 20 -1 119 -1 27 -1 155 -1 262 -1 87 -1 288 -1 1076 -1 123 -1 90 -1 169 -1 933 -1 189 -1 231 -1 1 -2
31 -1 65 -1 47 -1 2243 -1 44 -1 66 -1 87 -1 241 -1 33 -1 1089 -1 1 -2
6862 -1 926 -1 1021 -1 306 -1 61 -1 606 -1 31 -1 606 -1 31 -1 606 -1 1 -1 1 -1 105 -1 744 -1 47 -1 319 -1 308 -1 33 -1 11 -1 31 -1 187 -1 38 -1 40 -1 159 -1 278 -1 1 -2
31 -1 41 -1 158 -1 87 -1 2 -1 56 -1 90 -1 680 -1 319 -1 2228 -1 21 -1 47 -1 178 -1 684 -1 1 -2
2 -1 183 -1 39 -1 65 -1 123 -1 6 -1 1761 -1 81 -1 680 -1 86 -1 379 -2
1518 -1 399 -1 0 -1 2 -1 6 -1 289 -1 196 -1 742 -1 817 -1 1143 -1 14 -1 2 -1 110 -1 140 -1 242 -1 5 -1 40 -1 1707 -1 1 -2
2 -1 247 -1 141 -1 1441 -1 1440 -1 2 -1 110 -1 922 -1 244 -1 403 -1 379 -2
5046 -1 0 -1 2 -1 6 -1 56 -1 5560 -1 537 -1 4103 -1 31 -1 103 -1 446 -1 664 -1 40 -1 253 -1 20 -1 251 -1 1 -2
2 -1 271 -1 76 -1 88 -1 502 -1 1 -2
2 -1 6 -1 56 -1 3 -1 796 -1 38 -1 40 -1 400 -1 14 -1 18 -1 41 -1 203 -1 2 -1 476 -1 446 -1 523 -1 47 -1 1641 -1 18 -1 6954 -1 1 -2
40 -1 5862 -1 33 -1 1181 -1 1137 -1 1056 -1 0 -1 2 -1 172 -1 87 -1 2 -1 318 -1 135 -1 3 -1 1476 -1 329 -1 43 -1 1 -2
18 -1 6955 -1 5862 -1 1 -2
18 -1 40 -1 1027 -1 1 -2
2 -1 95 -1 768 -1 77 -1 144 -1 18 -1 40 -1 1027 -1 5862 -1 0 -1 14 -1 274 -1 162 -1 257 -1 81 -1 38 -1 244 -1 676 -1 71 -1 1 -2
676 -1 33 -1 3 -1 688 -1 20 -1 74 -1 417 -1 27 -1 431 -1 31 -1 39 -1 171 -1 3 -1 59 -1 181 -1 87 -1 196 -1 20 -1 47 -1 877 -1 417 -1 1 -2
40 -1 323 -1 6 -1 623 -1 21 -1 196 -1 788 -1 1 -2
1137 -1 1076 -1 6956 -1 0 -1 47 -1 1824 -1 87 -1 33 -1 0 -1 31 -1 123 -1 277 -1 5967 -1 788 -1 1 -2
39 -1 291 -1 261 -1 798 -1 0 -1 2 -1 172 -1 162 -1 129 -1 709 -1 27 -1 39 -1 1 -2