13 -1 0 -1 10 -1 9 -1 2 -1 6 -1 12 -1 11 -1 5 -1 3 -1 7 -1 4 -1 8 -1 1 -2
18 -1 24 -1 20 -1 28 -1 0 -1 14 -1 16 -1 23 -1 2 -1 19 -1 27 -1 25 -1 0 -1 2 -1 17 -1 17 -1 22 -1 15 -1 21 -1 26 -1 1 -2
2 -1 42 -1 44 -1 40 -1 37 -1 38 -1 29 -1 36 -1 32 -1 43 -1 32 -1 47 -1 34 -1 46 -1 30 -1 31 -1 41 -1 45 -1 48 -1 39 -1 33 -1 35 -1 1 -2
20 -1 49 -1 39 -1 33 -1 50 -1 0 -1 14 -1 2 -1 51 -1 35 -1 39 -1 1 -2
14 -1 65 -1 2 -1 19 -1 57 -1 0 -1 47 -1 37 -1 56 -1 3 -1 59 -1 61 -1 54 -1 31 -1 64 -1 33 -1 3 -1 60 -1 61 -1 52 -1 66 -1 0 -1 31 -1 62 -1 2 -1 55 -1 41 -1 27 -1 63 -1 58 -1 35 -1 39 -1 0 -1 31 -1 6 -1 56 -1 53 -1 1 -2
14 -1 47 -1 26 -1 33 -1 87 -1 2 -1 68 -1 82 -1 69 -1 38 -1 71 -1 31 -1 6 -1 83 -1 81 -1 77 -1 47 -1 86 -1 0 -1 31 -1 9 -1 87 -1 2 -1 80 -1 70 -1 0 -1 76 -1 2 -1 17 -1 84 -1 66 -1 74 -1 31 -1 85 -1 21 -1 89 -1 47 -1 78 -1 90 -1 93 -1 91 -1 56 -1 79 -1 0 -1 2 -1 92 -1 17 -1 33 -1 3 -1 72 -1 0 -1 14 -1 75 -1 0 -1 88 -1 67 -1 73 -1 1 -2
18 -1 102 -1 99 -1 27 -1 94 -1 47 -1 101 -1 0 -1 14 -1 2 -1 95 -1 84 -1 77 -1 98 -1 27 -1 85 -1 96 -1 100 -1 47 -1 97 -1 1 -2
47 -1 117 -1 26 -1 2 -1 77 -1 33 -1 87 -1 65 -1 119 -1 121 -1 87 -1 106 -1 108 -1 123 -1 114 -1 21 -1 109 -1 123 -1 110 -1 15 -1 0 -1 18 -1 107 -1 120 -1 112 -1 2 -1 39 -1 92 -1 33 -1 50 -1 64 -1 0 -1 14 -1 104 -1 0 -1 103 -1 114 -1 105 -1 113 -1 124 -1 47 -1 125 -1 111 -1 20 -1 40 -1 118 -1 31 -1 3 -1 59 -1 116 -1 122 -1 87 -1 6 -1 115 -1 31 -1 115 -1 31 -1 115 -1 1 -2
127 -1 56 -1 40 -1 126 -1 1 -2
128 -1 26 -1 33 -1 0 -1 33 -1 87 -1 18 -1 6 -1 3 -1 130 -1 27 -1 17 -1 27 -1 129 -1 67 -1 47 -1 134 -1 70 -1 27 -1 132 -1 27 -1 6 -1 27 -1 129 -1 27 -1 131 -1 27 -1 133 -1 1 -2
2 -1 135 -1 27 -1 19 -1 81 -1 0 -1 14 -1 2 -1 95 -1 77 -1 98 -1 27 -1 136 -1 123 -1 1 -2
95 -1 56 -1 2 -1 145 -1 0 -1 2 -1 140 -1 143 -1 141 -1 138 -1 5 -1 31 -1 144 -1 123 -1 95 -1 142 -1 2 -1 27 -1 19 -1 81 -1 0 -1 14 -1 2 -1 135 -1 27 -1 56 -1 137 -1 31 -1 33 -1 21 -1 40 -1 139 -1 1 -2
148 -1 147 -1 2 -1 62 -1 146 -1 31 -1 2 -1 95 -1 17 -1 3 -1 150 -1 38 -1 47 -1 149 -1 1 -2
47 -1 158 -1 26 -1 87 -1 123 -1 151 -1 2 -1 27 -1 35 -1 33 -1 156 -1 40 -1 159 -1 153 -1 31 -1 155 -1 81 -1 161 -1 47 -1 152 -1 157 -1 38 -1 3 -1 160 -1 0 -1 14 -1 2 -1 110 -1 154 -1 35 -1 87 -1 1 -2
14 -1 2 -1 135 -1 27 -1 1 -2
14 -1 2 -1 56 -1 166 -1 167 -1 5 -1 173 -1 27 -1 114 -1 105 -1 3 -1 165 -1 169 -1 164 -1 168 -1 170 -1 31 -1 2 -1 172 -1 162 -1 171 -1 163 -1 20 -1 87 -1 1 -2
14 -1 176 -1 87 -1 179 -1 9 -1 0 -1 2 -1 129 -1 27 -1 177 -1 178 -1 78 -1 175 -1 31 -1 17 -1 3 -1 174 -1 1 -2
2 -1 180 -1 33 -1 64 -1 38 -1 62 -1 181 -1 1 -2
9 -1 2 -1 77 -1 144 -1 2 -1 183 -1 182 -1 62 -1 146 -1 1 -2
65 -1 2 -1 114 -1 38 -1 191 -1 0 -1 2 -1 190 -1 27 -1 129 -1 11 -1 27 -1 185 -1 67 -1 47 -1 189 -1 31 -1 17 -1 3 -1 174 -1 0 -1 14 -1 57 -1 0 -1 64 -1 33 -1 62 -1 186 -1 188 -1 187 -1 184 -1 105 -1 175 -1 1 -2
2 -1 6 -1 142 -1 27 -1 17 -1 196 -1 193 -1 31 -1 2 -1 77 -1 87 -1 2 -1 33 -1 195 -1 166 -1 27 -1 33 -1 192 -1 27 -1 17 -1 193 -1 0 -1 14 -1 156 -1 40 -1 194 -1 197 -1 1 -2
114 -1 105 -1 113 -1 0 -1 2 -1 110 -1 129 -1 81 -1 105 -1 67 -1 91 -1 123 -1 151 -1 143 -1 198 -2
161 -1 199 -1 198 -2
144 -1 198 -2
65 -1 33 -1 127 -1 138 -1 70 -1 198 -2
31 -1 67 -1 201 -1 200 -1 1 -2
2 -1 6 -1 207 -1 2 -1 202 -1 33 -1 206 -1 203 -1 3 -1 195 -1 204 -1 112 -1 157 -1 0 -1 14 -1 40 -1 122 -1 205 -1 87 -1 11 -1 112 -1 2 -1 1 -2
216 -1 129 -1 210 -1 47 -1 215 -1 216 -1 19 -1 212 -1 209 -1 31 -1 213 -1 11 -1 211 -1 217 -1 209 -1 208 -1 53 -1 214 -1 102 -1 146 -1 1 -2
31 -1 88 -1 47 -1 219 -1 218 -1 87 -1 123 -1 95 -1 142 -1 2 -1 27 -1 129 -1 31 -1 17 -1 193 -1 1 -2
14 -1 103 -1 41 -1 59 -1 220 -1 0 -1 31 -1 123 -1 135 -1 27 -1 224 -1 2 -1 129 -1 31 -1 222 -1 47 -1 149 -1 0 -1 14 -1 103 -1 223 -1 161 -1 223 -1 221 -1 0 -1 161 -1 223 -1 225 -1 1 -2
123 -1 129 -1 226 -1 17 -1 193 -1 1 -2
2 -1 227 -1 38 -1 47 -1 230 -1 20 -1 228 -1 119 -1 169 -1 129 -1 81 -1 161 -1 119 -1 169 -1 229 -1 169 -1 6 -1 83 -1 17 -1 193 -1 1 -2
40 -1 132 -1 33 -1 232 -1 231 -1 0 -1 14 -1 238 -1 2 -1 172 -1 87 -1 17 -1 61 -1 234 -1 241 -1 237 -1 61 -1 236 -1 21 -1 2 -1 27 -1 35 -1 13 -1 38 -1 132 -1 106 -1 108 -1 88 -1 240 -1 40 -1 118 -1 31 -1 239 -1 2 -1 233 -1 20 -1 235 -1 1 -2
13 -1 18 -1 33 -1 193 -1 246 -1 0 -1 2 -1 95 -1 77 -1 76 -1 127 -1 129 -1 242 -1 81 -1 20 -1 244 -1 246 -1 0 -1 14 -1 39 -1 155 -1 2 -1 56 -1 196 -1 20 -1 40 -1 245 -1 212 -1 243 -1 1 -2
62 -1 2 -1 247 -1 127 -1 17 -1 193 -1 249 -1 39 -1 31 -1 73 -1 248 -1 250 -1 120 -2