0 -1 #SUP: 7
2 -1 #SUP: 40
3 -1 #SUP: 8
9 -1 #SUP: 2
11 -1 #SUP: 2
13 -1 #SUP: 9
14 -1 #SUP: 7
17 -1 #SUP: 8
20 -1 #SUP: 4
21 -1 #SUP: 2
27 -1 #SUP: 17
31 -1 #SUP: 16
32 -1 #SUP: 3
33 -1 #SUP: 32
35 -1 #SUP: 5
38 -1 #SUP: 4
39 -1 #SUP: 8
40 -1 #SUP: 12
41 -1 #SUP: 3
47 -1 #SUP: 10
57 -1 #SUP: 2
61 -1 #SUP: 3
62 -1 #SUP: 5
65 -1 #SUP: 3
66 -1 #SUP: 2
67 -1 #SUP: 3
71 -1 #SUP: 2
78 -1 #SUP: 2
81 -1 #SUP: 2
84 -1 #SUP: 5
87 -1 #SUP: 7
95 -1 #SUP: 2
110 -1 #SUP: 2
112 -1 #SUP: 3
113 -1 #SUP: 2
129 -1 #SUP: 15
142 -1 #SUP: 6
146 -1 #SUP: 2
158 -1 #SUP: 2
159 -1 #SUP: 2
165 -1 #SUP: 2
172 -1 #SUP: 2
189 -1 #SUP: 7
216 -1 #SUP: 4
224 -1 #SUP: 2
241 -1 #SUP: 2
244 -1 #SUP: 12
246 -1 #SUP: 2
254 -1 #SUP: 2
261 -1 #SUP: 2
295 -1 #SUP: 2
298 -1 #SUP: 2
300 -1 #SUP: 2
306 -1 #SUP: 2
327 -1 #SUP: 2
339 -1 #SUP: 3
365 -1 #SUP: 2
412 -1 #SUP: 2
476 -1 #SUP: 4
494 -1 #SUP: 2
512 -1 #SUP: 2
601 -1 #SUP: 2
664 -1 #SUP: 2
667 -1 #SUP: 2
717 -1 #SUP: 3
749 -1 #SUP: 4
877 -1 #SUP: 2
964 -1 #SUP: 2
997 -1 #SUP: 3
1101 -1 #SUP: 2
1647 -1 #SUP: 3
3662 -1 #SUP: 2
0 -1 2 -1 #SUP: 3
0 -1 31 -1 #SUP: 3
0 -1 33 -1 #SUP: 5
0 -1 40 -1 #SUP: 6
0 -1 216 -1 #SUP: 2
2 -1 2 -1 #SUP: 5
2 -1 3 -1 #SUP: 5
2 -1 17 -1 #SUP: 7
2 -1 20 -1 #SUP: 3
2 -1 27 -1 #SUP: 12
2 -1 31 -1 #SUP: 6
2 -1 33 -1 #SUP: 17
2 -1 35 -1 #SUP: 4
2 -1 39 -1 #SUP: 5
2 -1 40 -1 #SUP: 5
2 -1 47 -1 #SUP: 2
2 -1 62 -1 #SUP: 3
2 -1 65 -1 #SUP: 2
2 -1 84 -1 #SUP: 3
2 -1 87 -1 #SUP: 4
2 -1 95 -1 #SUP: 2
2 -1 110 -1 #SUP: 2
2 -1 113 -1 #SUP: 2
2 -1 129 -1 #SUP: 11
2 -1 142 -1 #SUP: 6
2 -1 172 -1 #SUP: 2
2 -1 189 -1 #SUP: 4
2 -1 244 -1 #SUP: 6
2 -1 476 -1 #SUP: 3
2 -1 494 -1 #SUP: 2
2 -1 601 -1 #SUP: 2
2 -1 664 -1 #SUP: 2
2 -1 667 -1 #SUP: 2
2 -1 717 -1 #SUP: 2
2 -1 964 -1 #SUP: 2
2 -1 997 -1 #SUP: 3
2 -1 3662 -1 #SUP: 2
3 -1 0 -1 #SUP: 2
3 -1 2 -1 #SUP: 3
3 -1 31 -1 #SUP: 5
3 -1 40 -1 #SUP: 2
3 -1 165 -1 #SUP: 2
13 -1 0 -1 #SUP: 3
13 -1 2 -1 #SUP: 4
13 -1 27 -1 #SUP: 2
13 -1 33 -1 #SUP: 2
13 -1 40 -1 #SUP: 3
13 -1 129 -1 #SUP: 3
13 -1 172 -1 #SUP: 2
14 -1 0 -1 #SUP: 2
14 -1 2 -1 #SUP: 5
14 -1 3 -1 #SUP: 2
14 -1 27 -1 #SUP: 2
14 -1 31 -1 #SUP: 2
14 -1 33 -1 #SUP: 4
14 -1 87 -1 #SUP: 2
14 -1 129 -1 #SUP: 3
17 -1 2 -1 #SUP: 4
17 -1 27 -1 #SUP: 4
17 -1 31 -1 #SUP: 2
17 -1 35 -1 #SUP: 2
17 -1 40 -1 #SUP: 2
17 -1 129 -1 #SUP: 2
17 -1 189 -1 #SUP: 2
20 -1 27 -1 #SUP: 2
27 -1 3 -1 #SUP: 2
27 -1 27 -1 #SUP: 3
27 -1 31 -1 #SUP: 2
27 -1 35 -1 #SUP: 2
27 -1 40 -1 #SUP: 2
27 -1 41 -1 #SUP: 2
27 -1 113 -1 #SUP: 2
27 -1 129 -1 #SUP: 7
27 -1 189 -1 #SUP: 2
27 -1 244 -1 #SUP: 4
27 -1 412 -1 #SUP: 2
27 -1 512 -1 #SUP: 2
27 -1 601 -1 #SUP: 2
31 -1 2 -1 #SUP: 6
31 -1 27 -1 #SUP: 2
31 -1 31 -1 #SUP: 3
31 -1 32 -1 #SUP: 2
31 -1 33 -1 #SUP: 5
31 -1 40 -1 #SUP: 4
31 -1 47 -1 #SUP: 3
31 -1 129 -1 #SUP: 3
31 -1 142 -1 #SUP: 2
31 -1 365 -1 #SUP: 2
31 -1 476 -1 #SUP: 2
33 -1 0 -1 #SUP: 3
33 -1 2 -1 #SUP: 7
33 -1 3 -1 #SUP: 5
33 -1 9 -1 #SUP: 2
33 -1 13 -1 #SUP: 3
33 -1 20 -1 #SUP: 3
33 -1 27 -1 #SUP: 5
33 -1 31 -1 #SUP: 7
33 -1 32 -1 #SUP: 2
33 -1 33 -1 #SUP: 4
33 -1 35 -1 #SUP: 3
33 -1 38 -1 #SUP: 4
33 -1 39 -1 #SUP: 2
33 -1 40 -1 #SUP: 4
33 -1 47 -1 #SUP: 5
33 -1 61 -1 #SUP: 2
33 -1 62 -1 #SUP: 4
33 -1 65 -1 #SUP: 2
33 -1 71 -1 #SUP: 2
33 -1 81 -1 #SUP: 2
33 -1 84 -1 #SUP: 3
33 -1 87 -1 #SUP: 3
33 -1 112 -1 #SUP: 2
33 -1 129 -1 #SUP: 3
33 -1 146 -1 #SUP: 2
33 -1 159 -1 #SUP: 2
33 -1 165 -1 #SUP: 2
33 -1 189 -1 #SUP: 3
33 -1 244 -1 #SUP: 6
33 -1 261 -1 #SUP: 2
33 -1 327 -1 #SUP: 2
33 -1 412 -1 #SUP: 2
33 -1 997 -1 #SUP: 3
35 -1 2 -1 #SUP: 3
35 -1 31 -1 #SUP: 2
35 -1 39 -1 #SUP: 2
35 -1 47 -1 #SUP: 2
35 -1 65 -1 #SUP: 2
35 -1 244 -1 #SUP: 3
35 -1 412 -1 #SUP: 2
38 -1 0 -1 #SUP: 2
38 -1 31 -1 #SUP: 2
38 -1 40 -1 #SUP: 2
38 -1 47 -1 #SUP: 2
38 -1 71 -1 #SUP: 2
39 -1 2 -1 #SUP: 4
39 -1 31 -1 #SUP: 2
39 -1 33 -1 #SUP: 4
39 -1 47 -1 #SUP: 3
39 -1 84 -1 #SUP: 2
39 -1 241 -1 #SUP: 2
39 -1 244 -1 #SUP: 2
39 -1 749 -1 #SUP: 2
40 -1 33 -1 #SUP: 5
40 -1 47 -1 #SUP: 3
40 -1 159 -1 #SUP: 2
40 -1 667 -1 #SUP: 2
40 -1 749 -1 #SUP: 2
40 -1 877 -1 #SUP: 2
40 -1 964 -1 #SUP: 2
40 -1 1101 -1 #SUP: 2
47 -1 2 -1 #SUP: 2
47 -1 20 -1 #SUP: 2
47 -1 33 -1 #SUP: 3
47 -1 71 -1 #SUP: 2
47 -1 78 -1 #SUP: 2
47 -1 81 -1 #SUP: 2
47 -1 189 -1 #SUP: 2
47 -1 1647 -1 #SUP: 2
61 -1 2 -1 #SUP: 2
62 -1 244 -1 #SUP: 2
62 -1 997 -1 #SUP: 2
65 -1 2 -1 #SUP: 2
65 -1 33 -1 #SUP: 2
65 -1 39 -1 #SUP: 3
67 -1 2 -1 #SUP: 3
67 -1 33 -1 #SUP: 3
67 -1 129 -1 #SUP: 2
78 -1 189 -1 #SUP: 2
81 -1 20 -1 #SUP: 2
84 -1 2 -1 #SUP: 2
84 -1 27 -1 #SUP: 2
87 -1 2 -1 #SUP: 5
87 -1 17 -1 #SUP: 2
87 -1 20 -1 #SUP: 2
87 -1 27 -1 #SUP: 2
87 -1 33 -1 #SUP: 4
87 -1 39 -1 #SUP: 2
87 -1 47 -1 #SUP: 2
87 -1 129 -1 #SUP: 3
87 -1 244 -1 #SUP: 3
87 -1 664 -1 #SUP: 2
95 -1 27 -1 #SUP: 2
95 -1 142 -1 #SUP: 2
112 -1 189 -1 #SUP: 2
129 -1 2 -1 #SUP: 3
129 -1 3 -1 #SUP: 2
129 -1 27 -1 #SUP: 3
129 -1 31 -1 #SUP: 3
129 -1 32 -1 #SUP: 2
129 -1 113 -1 #SUP: 2
129 -1 129 -1 #SUP: 3
129 -1 189 -1 #SUP: 2
129 -1 601 -1 #SUP: 2
129 -1 664 -1 #SUP: 2
142 -1 3 -1 #SUP: 2
142 -1 27 -1 #SUP: 6
142 -1 33 -1 #SUP: 2
142 -1 129 -1 #SUP: 4
142 -1 601 -1 #SUP: 2
165 -1 0 -1 #SUP: 2
165 -1 31 -1 #SUP: 2
165 -1 33 -1 #SUP: 2
165 -1 40 -1 #SUP: 2
189 -1 2 -1 #SUP: 3
189 -1 11 -1 #SUP: 2
189 -1 33 -1 #SUP: 3
189 -1 41 -1 #SUP: 2
189 -1 47 -1 #SUP: 2
189 -1 87 -1 #SUP: 2
216 -1 33 -1 #SUP: 3
216 -1 40 -1 #SUP: 2
224 -1 2 -1 #SUP: 2
244 -1 2 -1 #SUP: 4
244 -1 13 -1 #SUP: 2
244 -1 31 -1 #SUP: 2
244 -1 33 -1 #SUP: 3
244 -1 39 -1 #SUP: 3
244 -1 47 -1 #SUP: 4
244 -1 65 -1 #SUP: 2
244 -1 78 -1 #SUP: 2
244 -1 129 -1 #SUP: 2
244 -1 189 -1 #SUP: 4
244 -1 241 -1 #SUP: 2
244 -1 412 -1 #SUP: 2
244 -1 494 -1 #SUP: 2
244 -1 512 -1 #SUP: 2
244 -1 664 -1 #SUP: 2
254 -1 33 -1 #SUP: 2
254 -1 38 -1 #SUP: 2
261 -1 33 -1 #SUP: 2
300 -1 295 -1 #SUP: 2
339 -1 40 -1 #SUP: 2
476 -1 129 -1 #SUP: 2
667 -1 964 -1 #SUP: 2
717 -1 27 -1 #SUP: 2
717 -1 47 -1 #SUP: 2
717 -1 189 -1 #SUP: 2
717 -1 244 -1 #SUP: 3
749 -1 33 -1 #SUP: 2
749 -1 47 -1 #SUP: 2
749 -1 189 -1 #SUP: 2
749 -1 244 -1 #SUP: 2
749 -1 246 -1 #SUP: 2
749 -1 1647 -1 #SUP: 2
877 -1 246 -1 #SUP: 2
1647 -1 244 -1 #SUP: 2
0 -1 2 -1 33 -1 #SUP: 2
0 -1 2 -1 40 -1 #SUP: 2
0 -1 31 -1 33 -1 #SUP: 2
0 -1 31 -1 40 -1 #SUP: 3
0 -1 40 -1 33 -1 #SUP: 3
0 -1 216 -1 40 -1 #SUP: 2
2 -1 2 -1 476 -1 #SUP: 2
2 -1 3 -1 31 -1 #SUP: 2
2 -1 17 -1 2 -1 #SUP: 3
2 -1 17 -1 27 -1 #SUP: 3
2 -1 17 -1 31 -1 #SUP: 2
2 -1 17 -1 129 -1 #SUP: 2
2 -1 17 -1 189 -1 #SUP: 2
2 -1 20 -1 27 -1 #SUP: 2
2 -1 27 -1 3 -1 #SUP: 2
2 -1 27 -1 27 -1 #SUP: 3
2 -1 27 -1 113 -1 #SUP: 2
2 -1 27 -1 129 -1 #SUP: 7
2 -1 27 -1 244 -1 #SUP: 3
2 -1 27 -1 601 -1 #SUP: 2
2 -1 31 -1 2 -1 #SUP: 2
2 -1 33 -1 3 -1 #SUP: 3
2 -1 33 -1 20 -1 #SUP: 2
2 -1 33 -1 27 -1 #SUP: 4
2 -1 33 -1 31 -1 #SUP: 2
2 -1 33 -1 62 -1 #SUP: 3
2 -1 33 -1 129 -1 #SUP: 3
2 -1 33 -1 244 -1 #SUP: 3
2 -1 33 -1 997 -1 #SUP: 3
2 -1 35 -1 31 -1 #SUP: 2
2 -1 35 -1 39 -1 #SUP: 2
2 -1 35 -1 244 -1 #SUP: 2
2 -1 39 -1 33 -1 #SUP: 2
2 -1 40 -1 667 -1 #SUP: 2
2 -1 40 -1 964 -1 #SUP: 2
2 -1 62 -1 997 -1 #SUP: 2
2 -1 65 -1 33 -1 #SUP: 2
2 -1 65 -1 39 -1 #SUP: 2
2 -1 87 -1 17 -1 #SUP: 2
2 -1 87 -1 129 -1 #SUP: 3
2 -1 87 -1 244 -1 #SUP: 2
2 -1 87 -1 664 -1 #SUP: 2
2 -1 95 -1 27 -1 #SUP: 2
2 -1 95 -1 142 -1 #SUP: 2
2 -1 129 -1 3 -1 #SUP: 2
2 -1 129 -1 27 -1 #SUP: 3
2 -1 129 -1 113 -1 #SUP: 2
2 -1 129 -1 129 -1 #SUP: 2
2 -1 129 -1 601 -1 #SUP: 2
2 -1 129 -1 664 -1 #SUP: 2
2 -1 142 -1 3 -1 #SUP: 2
2 -1 142 -1 27 -1 #SUP: 6
2 -1 142 -1 33 -1 #SUP: 2
2 -1 142 -1 129 -1 #SUP: 4
2 -1 142 -1 601 -1 #SUP: 2
2 -1 189 -1 2 -1 #SUP: 2
2 -1 244 -1 31 -1 #SUP: 2
2 -1 244 -1 39 -1 #SUP: 2
2 -1 244 -1 129 -1 #SUP: 2
2 -1 244 -1 494 -1 #SUP: 2
2 -1 244 -1 664 -1 #SUP: 2
2 -1 476 -1 129 -1 #SUP: 2
2 -1 667 -1 964 -1 #SUP: 2
2 -1 717 -1 27 -1 #SUP: 2
2 -1 717 -1 244 -1 #SUP: 2
3 -1 0 -1 31 -1 #SUP: 2
3 -1 0 -1 40 -1 #SUP: 2
3 -1 31 -1 2 -1 #SUP: 2
3 -1 31 -1 40 -1 #SUP: 2
3 -1 165 -1 0 -1 #SUP: 2
3 -1 165 -1 31 -1 #SUP: 2
3 -1 165 -1 40 -1 #SUP: 2
13 -1 0 -1 2 -1 #SUP: 2
13 -1 0 -1 40 -1 #SUP: 3
13 -1 2 -1 40 -1 #SUP: 2
13 -1 2 -1 129 -1 #SUP: 2
13 -1 2 -1 172 -1 #SUP: 2
14 -1 2 -1 27 -1 #SUP: 2
14 -1 2 -1 129 -1 #SUP: 3
14 -1 3 -1 31 -1 #SUP: 2
14 -1 27 -1 129 -1 #SUP: 2
14 -1 87 -1 2 -1 #SUP: 2
14 -1 129 -1 129 -1 #SUP: 2
17 -1 27 -1 40 -1 #SUP: 2
17 -1 27 -1 129 -1 #SUP: 2
17 -1 31 -1 2 -1 #SUP: 2
27 -1 27 -1 189 -1 #SUP: 2
27 -1 27 -1 601 -1 #SUP: 2
27 -1 35 -1 244 -1 #SUP: 2
27 -1 35 -1 412 -1 #SUP: 2
27 -1 129 -1 27 -1 #SUP: 2
27 -1 129 -1 113 -1 #SUP: 2
27 -1 129 -1 601 -1 #SUP: 2
27 -1 189 -1 41 -1 #SUP: 2
27 -1 244 -1 412 -1 #SUP: 2
27 -1 244 -1 512 -1 #SUP: 2
31 -1 2 -1 27 -1 #SUP: 2
31 -1 2 -1 33 -1 #SUP: 3
31 -1 2 -1 142 -1 #SUP: 2
31 -1 2 -1 476 -1 #SUP: 2
31 -1 31 -1 31 -1 #SUP: 2
31 -1 31 -1 32 -1 #SUP: 2
31 -1 31 -1 129 -1 #SUP: 2
31 -1 33 -1 47 -1 #SUP: 2
31 -1 40 -1 33 -1 #SUP: 2
31 -1 40 -1 47 -1 #SUP: 2
31 -1 129 -1 31 -1 #SUP: 3
31 -1 129 -1 32 -1 #SUP: 2
31 -1 129 -1 129 -1 #SUP: 2
31 -1 142 -1 27 -1 #SUP: 2
33 -1 0 -1 31 -1 #SUP: 3
33 -1 0 -1 40 -1 #SUP: 2
33 -1 2 -1 33 -1 #SUP: 2
33 -1 2 -1 39 -1 #SUP: 2
33 -1 3 -1 0 -1 #SUP: 2
33 -1 3 -1 31 -1 #SUP: 3
33 -1 3 -1 40 -1 #SUP: 2
33 -1 3 -1 165 -1 #SUP: 2
33 -1 27 -1 31 -1 #SUP: 2
33 -1 27 -1 35 -1 #SUP: 2
33 -1 27 -1 129 -1 #SUP: 2
33 -1 27 -1 244 -1 #SUP: 3
33 -1 27 -1 412 -1 #SUP: 2
33 -1 31 -1 40 -1 #SUP: 2
33 -1 35 -1 65 -1 #SUP: 2
33 -1 35 -1 244 -1 #SUP: 3
33 -1 35 -1 412 -1 #SUP: 2
33 -1 38 -1 0 -1 #SUP: 2
33 -1 38 -1 31 -1 #SUP: 2
33 -1 38 -1 40 -1 #SUP: 2
33 -1 38 -1 47 -1 #SUP: 2
33 -1 38 -1 71 -1 #SUP: 2
33 -1 47 -1 33 -1 #SUP: 2
33 -1 47 -1 71 -1 #SUP: 2
33 -1 62 -1 997 -1 #SUP: 2
33 -1 81 -1 20 -1 #SUP: 2
33 -1 84 -1 2 -1 #SUP: 2
33 -1 87 -1 33 -1 #SUP: 2
33 -1 129 -1 27 -1 #SUP: 2
33 -1 165 -1 0 -1 #SUP: 2
33 -1 165 -1 31 -1 #SUP: 2
33 -1 165 -1 40 -1 #SUP: 2
33 -1 189 -1 2 -1 #SUP: 2
33 -1 244 -1 65 -1 #SUP: 2
33 -1 244 -1 412 -1 #SUP: 2
35 -1 39 -1 2 -1 #SUP: 2
35 -1 65 -1 2 -1 #SUP: 2
35 -1 65 -1 39 -1 #SUP: 2
35 -1 244 -1 2 -1 #SUP: 2
35 -1 244 -1 31 -1 #SUP: 2
35 -1 244 -1 39 -1 #SUP: 2
35 -1 244 -1 65 -1 #SUP: 2
35 -1 244 -1 412 -1 #SUP: 2
38 -1 0 -1 31 -1 #SUP: 2
38 -1 47 -1 71 -1 #SUP: 2
39 -1 33 -1 2 -1 #SUP: 2
39 -1 33 -1 31 -1 #SUP: 2
39 -1 33 -1 47 -1 #SUP: 2
39 -1 749 -1 47 -1 #SUP: 2
40 -1 33 -1 33 -1 #SUP: 2
40 -1 33 -1 47 -1 #SUP: 2
40 -1 667 -1 964 -1 #SUP: 2
47 -1 78 -1 189 -1 #SUP: 2
47 -1 81 -1 20 -1 #SUP: 2
65 -1 39 -1 2 -1 #SUP: 2
65 -1 39 -1 33 -1 #SUP: 2
67 -1 2 -1 33 -1 #SUP: 2
67 -1 2 -1 129 -1 #SUP: 2
67 -1 33 -1 129 -1 #SUP: 2
87 -1 2 -1 27 -1 #SUP: 2
87 -1 2 -1 33 -1 #SUP: 2
87 -1 33 -1 2 -1 #SUP: 2
87 -1 47 -1 33 -1 #SUP: 2
87 -1 129 -1 664 -1 #SUP: 2
87 -1 244 -1 129 -1 #SUP: 2
87 -1 244 -1 664 -1 #SUP: 2
95 -1 142 -1 27 -1 #SUP: 2
129 -1 3 -1 31 -1 #SUP: 2
129 -1 27 -1 601 -1 #SUP: 2
129 -1 31 -1 2 -1 #SUP: 2
129 -1 31 -1 31 -1 #SUP: 3
129 -1 31 -1 32 -1 #SUP: 2
129 -1 31 -1 129 -1 #SUP: 3
129 -1 129 -1 31 -1 #SUP: 3
129 -1 129 -1 129 -1 #SUP: 2
142 -1 27 -1 3 -1 #SUP: 2
142 -1 27 -1 27 -1 #SUP: 2
142 -1 27 -1 129 -1 #SUP: 4
142 -1 27 -1 601 -1 #SUP: 2
142 -1 33 -1 3 -1 #SUP: 2
142 -1 129 -1 27 -1 #SUP: 2
142 -1 129 -1 601 -1 #SUP: 2
165 -1 0 -1 31 -1 #SUP: 2
165 -1 0 -1 33 -1 #SUP: 2
165 -1 0 -1 40 -1 #SUP: 2
165 -1 31 -1 33 -1 #SUP: 2
165 -1 31 -1 40 -1 #SUP: 2
165 -1 40 -1 33 -1 #SUP: 2
189 -1 2 -1 33 -1 #SUP: 2
189 -1 87 -1 33 -1 #SUP: 2
244 -1 33 -1 2 -1 #SUP: 2
244 -1 39 -1 2 -1 #SUP: 2
244 -1 47 -1 78 -1 #SUP: 2
244 -1 47 -1 189 -1 #SUP: 2
244 -1 65 -1 2 -1 #SUP: 2
244 -1 65 -1 39 -1 #SUP: 2
244 -1 78 -1 189 -1 #SUP: 2
244 -1 129 -1 664 -1 #SUP: 2
254 -1 33 -1 38 -1 #SUP: 2
717 -1 27 -1 244 -1 #SUP: 2
717 -1 244 -1 47 -1 #SUP: 2
717 -1 244 -1 189 -1 #SUP: 2
0 -1 31 -1 40 -1 33 -1 #SUP: 2
2 -1 17 -1 27 -1 129 -1 #SUP: 2
2 -1 17 -1 31 -1 2 -1 #SUP: 2
2 -1 27 -1 27 -1 601 -1 #SUP: 2
2 -1 27 -1 129 -1 27 -1 #SUP: 2
2 -1 27 -1 129 -1 113 -1 #SUP: 2
2 -1 27 -1 129 -1 601 -1 #SUP: 2
2 -1 33 -1 27 -1 129 -1 #SUP: 2
2 -1 33 -1 27 -1 244 -1 #SUP: 2
2 -1 33 -1 62 -1 997 -1 #SUP: 2
2 -1 33 -1 129 -1 27 -1 #SUP: 2
2 -1 35 -1 244 -1 31 -1 #SUP: 2
2 -1 40 -1 667 -1 964 -1 #SUP: 2
2 -1 65 -1 39 -1 33 -1 #SUP: 2
2 -1 87 -1 129 -1 664 -1 #SUP: 2
2 -1 87 -1 244 -1 129 -1 #SUP: 2
2 -1 87 -1 244 -1 664 -1 #SUP: 2
2 -1 95 -1 142 -1 27 -1 #SUP: 2
2 -1 129 -1 27 -1 601 -1 #SUP: 2
2 -1 142 -1 27 -1 3 -1 #SUP: 2
2 -1 142 -1 27 -1 27 -1 #SUP: 2
2 -1 142 -1 27 -1 129 -1 #SUP: 4
2 -1 142 -1 27 -1 601 -1 #SUP: 2
2 -1 142 -1 33 -1 3 -1 #SUP: 2
2 -1 142 -1 129 -1 27 -1 #SUP: 2
2 -1 142 -1 129 -1 601 -1 #SUP: 2
2 -1 244 -1 129 -1 664 -1 #SUP: 2
2 -1 717 -1 27 -1 244 -1 #SUP: 2
3 -1 0 -1 31 -1 40 -1 #SUP: 2
3 -1 165 -1 0 -1 31 -1 #SUP: 2
3 -1 165 -1 0 -1 40 -1 #SUP: 2
3 -1 165 -1 31 -1 40 -1 #SUP: 2
13 -1 0 -1 2 -1 40 -1 #SUP: 2
14 -1 2 -1 27 -1 129 -1 #SUP: 2
14 -1 2 -1 129 -1 129 -1 #SUP: 2
27 -1 35 -1 244 -1 412 -1 #SUP: 2
27 -1 129 -1 27 -1 601 -1 #SUP: 2
31 -1 2 -1 142 -1 27 -1 #SUP: 2
31 -1 31 -1 129 -1 31 -1 #SUP: 2
31 -1 40 -1 33 -1 47 -1 #SUP: 2
31 -1 129 -1 31 -1 31 -1 #SUP: 2
31 -1 129 -1 31 -1 32 -1 #SUP: 2
31 -1 129 -1 31 -1 129 -1 #SUP: 2
31 -1 129 -1 129 -1 31 -1 #SUP: 2
33 -1 0 -1 31 -1 40 -1 #SUP: 2
33 -1 3 -1 0 -1 31 -1 #SUP: 2
33 -1 3 -1 0 -1 40 -1 #SUP: 2
33 -1 3 -1 31 -1 40 -1 #SUP: 2
33 -1 3 -1 165 -1 0 -1 #SUP: 2
33 -1 3 -1 165 -1 31 -1 #SUP: 2
33 -1 3 -1 165 -1 40 -1 #SUP: 2
33 -1 27 -1 35 -1 244 -1 #SUP: 2
33 -1 27 -1 35 -1 412 -1 #SUP: 2
33 -1 27 -1 244 -1 412 -1 #SUP: 2
33 -1 35 -1 244 -1 65 -1 #SUP: 2
33 -1 35 -1 244 -1 412 -1 #SUP: 2
33 -1 38 -1 0 -1 31 -1 #SUP: 2
33 -1 38 -1 47 -1 71 -1 #SUP: 2
33 -1 165 -1 0 -1 31 -1 #SUP: 2
33 -1 165 -1 0 -1 40 -1 #SUP: 2
33 -1 165 -1 31 -1 40 -1 #SUP: 2
35 -1 244 -1 65 -1 2 -1 #SUP: 2
35 -1 244 -1 65 -1 39 -1 #SUP: 2
67 -1 2 -1 33 -1 129 -1 #SUP: 2
87 -1 244 -1 129 -1 664 -1 #SUP: 2
129 -1 31 -1 31 -1 31 -1 #SUP: 2
129 -1 31 -1 31 -1 129 -1 #SUP: 2
129 -1 31 -1 129 -1 31 -1 #SUP: 3
129 -1 31 -1 129 -1 129 -1 #SUP: 2
129 -1 129 -1 31 -1 31 -1 #SUP: 2
129 -1 129 -1 31 -1 129 -1 #SUP: 2
129 -1 129 -1 129 -1 31 -1 #SUP: 2
142 -1 27 -1 27 -1 601 -1 #SUP: 2
142 -1 27 -1 129 -1 27 -1 #SUP: 2
142 -1 27 -1 129 -1 601 -1 #SUP: 2
142 -1 129 -1 27 -1 601 -1 #SUP: 2
165 -1 0 -1 31 -1 33 -1 #SUP: 2
165 -1 0 -1 31 -1 40 -1 #SUP: 2
165 -1 0 -1 40 -1 33 -1 #SUP: 2
165 -1 31 -1 40 -1 33 -1 #SUP: 2
244 -1 47 -1 78 -1 189 -1 #SUP: 2
2 -1 27 -1 129 -1 27 -1 601 -1 #SUP: 2
2 -1 87 -1 244 -1 129 -1 664 -1 #SUP: 2
2 -1 142 -1 27 -1 27 -1 601 -1 #SUP: 2
2 -1 142 -1 27 -1 129 -1 27 -1 #SUP: 2
2 -1 142 -1 27 -1 129 -1 601 -1 #SUP: 2
2 -1 142 -1 129 -1 27 -1 601 -1 #SUP: 2
3 -1 165 -1 0 -1 31 -1 40 -1 #SUP: 2
31 -1 129 -1 31 -1 129 -1 31 -1 #SUP: 2
33 -1 3 -1 0 -1 31 -1 40 -1 #SUP: 2
33 -1 3 -1 165 -1 0 -1 31 -1 #SUP: 2
33 -1 3 -1 165 -1 0 -1 40 -1 #SUP: 2
33 -1 3 -1 165 -1 31 -1 40 -1 #SUP: 2
33 -1 27 -1 35 -1 244 -1 412 -1 #SUP: 2
33 -1 165 -1 0 -1 31 -1 40 -1 #SUP: 2
129 -1 31 -1 31 -1 129 -1 31 -1 #SUP: 2
129 -1 31 -1 129 -1 31 -1 31 -1 #SUP: 2
129 -1 31 -1 129 -1 31 -1 129 -1 #SUP: 2
129 -1 31 -1 129 -1 129 -1 31 -1 #SUP: 2
129 -1 129 -1 31 -1 129 -1 31 -1 #SUP: 2
142 -1 27 -1 129 -1 27 -1 601 -1 #SUP: 2
165 -1 0 -1 31 -1 40 -1 33 -1 #SUP: 2
2 -1 142 -1 27 -1 129 -1 27 -1 601 -1 #SUP: 2
33 -1 3 -1 165 -1 0 -1 31 -1 40 -1 #SUP: 2
129 -1 31 -1 129 -1 31 -1 129 -1 31 -1 #SUP: 2
