0 -1 #SUP: 32
1 -1 #SUP: 5
2 -1 #SUP: 79
3 -1 #SUP: 19
4 -1 #SUP: 3
5 -1 #SUP: 3
6 -1 #SUP: 7
9 -1 #SUP: 2
11 -1 #SUP: 2
14 -1 #SUP: 8
16 -1 #SUP: 2
17 -1 #SUP: 10
20 -1 #SUP: 18
21 -1 #SUP: 3
26 -1 #SUP: 4
27 -1 #SUP: 36
31 -1 #SUP: 25
32 -1 #SUP: 4
33 -1 #SUP: 33
35 -1 #SUP: 12
37 -1 #SUP: 2
38 -1 #SUP: 9
39 -1 #SUP: 24
40 -1 #SUP: 22
41 -1 #SUP: 4
47 -1 #SUP: 18
56 -1 #SUP: 6
57 -1 #SUP: 2
61 -1 #SUP: 2
62 -1 #SUP: 5
65 -1 #SUP: 5
67 -1 #SUP: 6
68 -1 #SUP: 3
70 -1 #SUP: 2
71 -1 #SUP: 4
73 -1 #SUP: 2
76 -1 #SUP: 3
77 -1 #SUP: 8
81 -1 #SUP: 3
84 -1 #SUP: 13
86 -1 #SUP: 3
87 -1 #SUP: 25
92 -1 #SUP: 2
93 -1 #SUP: 2
95 -1 #SUP: 10
98 -1 #SUP: 3
102 -1 #SUP: 5
103 -1 #SUP: 2
105 -1 #SUP: 2
110 -1 #SUP: 2
112 -1 #SUP: 7
114 -1 #SUP: 4
121 -1 #SUP: 6
123 -1 #SUP: 8
127 -1 #SUP: 3
129 -1 #SUP: 2
132 -1 #SUP: 5
134 -1 #SUP: 2
137 -1 #SUP: 3
138 -1 #SUP: 3
142 -1 #SUP: 6
143 -1 #SUP: 3
144 -1 #SUP: 3
146 -1 #SUP: 2
150 -1 #SUP: 2
156 -1 #SUP: 3
161 -1 #SUP: 6
169 -1 #SUP: 4
171 -1 #SUP: 3
172 -1 #SUP: 6
189 -1 #SUP: 5
199 -1 #SUP: 3
201 -1 #SUP: 2
202 -1 #SUP: 2
203 -1 #SUP: 13
207 -1 #SUP: 2
216 -1 #SUP: 12
240 -1 #SUP: 5
242 -1 #SUP: 2
244 -1 #SUP: 3
246 -1 #SUP: 2
249 -1 #SUP: 5
254 -1 #SUP: 6
261 -1 #SUP: 3
275 -1 #SUP: 7
295 -1 #SUP: 3
300 -1 #SUP: 2
304 -1 #SUP: 2
306 -1 #SUP: 2
317 -1 #SUP: 3
333 -1 #SUP: 2
338 -1 #SUP: 2
348 -1 #SUP: 3
350 -1 #SUP: 5
367 -1 #SUP: 3
373 -1 #SUP: 3
376 -1 #SUP: 2
378 -1 #SUP: 8
417 -1 #SUP: 2
420 -1 #SUP: 6
446 -1 #SUP: 4
448 -1 #SUP: 2
476 -1 #SUP: 3
494 -1 #SUP: 5
497 -1 #SUP: 8
502 -1 #SUP: 4
622 -1 #SUP: 2
623 -1 #SUP: 2
636 -1 #SUP: 5
645 -1 #SUP: 2
661 -1 #SUP: 2
662 -1 #SUP: 2
688 -1 #SUP: 3
689 -1 #SUP: 2
745 -1 #SUP: 2
750 -1 #SUP: 2
830 -1 #SUP: 2
877 -1 #SUP: 4
922 -1 #SUP: 2
960 -1 #SUP: 2
1056 -1 #SUP: 5
1076 -1 #SUP: 3
1077 -1 #SUP: 2
1102 -1 #SUP: 5
1127 -1 #SUP: 3
1137 -1 #SUP: 3
1225 -1 #SUP: 3
1359 -1 #SUP: 2
1476 -1 #SUP: 2
1577 -1 #SUP: 2
1633 -1 #SUP: 5
1713 -1 #SUP: 2
1744 -1 #SUP: 2
2182 -1 #SUP: 3
2380 -1 #SUP: 2
5322 -1 #SUP: 5
0 -1 0 -1 #SUP: 7
0 -1 2 -1 #SUP: 12
0 -1 3 -1 #SUP: 3
0 -1 6 -1 #SUP: 2
0 -1 14 -1 #SUP: 6
0 -1 17 -1 #SUP: 4
0 -1 20 -1 #SUP: 4
0 -1 27 -1 #SUP: 6
0 -1 31 -1 #SUP: 6
0 -1 32 -1 #SUP: 2
0 -1 33 -1 #SUP: 5
0 -1 35 -1 #SUP: 2
0 -1 38 -1 #SUP: 4
0 -1 39 -1 #SUP: 4
0 -1 40 -1 #SUP: 2
0 -1 41 -1 #SUP: 2
0 -1 47 -1 #SUP: 7
0 -1 56 -1 #SUP: 3
0 -1 62 -1 #SUP: 2
0 -1 86 -1 #SUP: 2
0 -1 87 -1 #SUP: 4
0 -1 105 -1 #SUP: 2
0 -1 142 -1 #SUP: 2
0 -1 161 -1 #SUP: 2
0 -1 169 -1 #SUP: 2
0 -1 189 -1 #SUP: 3
0 -1 203 -1 #SUP: 3
0 -1 216 -1 #SUP: 4
0 -1 254 -1 #SUP: 4
0 -1 378 -1 #SUP: 3
0 -1 494 -1 #SUP: 5
0 -1 636 -1 #SUP: 5
0 -1 688 -1 #SUP: 2
0 -1 960 -1 #SUP: 2
0 -1 2182 -1 #SUP: 2
0 -1 5322 -1 #SUP: 2
1 -1 1 -1 #SUP: 2
2 -1 0 -1 #SUP: 10
2 -1 1 -1 #SUP: 2
2 -1 2 -1 #SUP: 10
2 -1 3 -1 #SUP: 10
2 -1 5 -1 #SUP: 2
2 -1 6 -1 #SUP: 4
2 -1 14 -1 #SUP: 3
2 -1 17 -1 #SUP: 5
2 -1 20 -1 #SUP: 7
2 -1 26 -1 #SUP: 2
2 -1 27 -1 #SUP: 19
2 -1 31 -1 #SUP: 9
2 -1 32 -1 #SUP: 2
2 -1 33 -1 #SUP: 17
2 -1 35 -1 #SUP: 9
2 -1 38 -1 #SUP: 3
2 -1 39 -1 #SUP: 7
2 -1 40 -1 #SUP: 11
2 -1 41 -1 #SUP: 3
2 -1 47 -1 #SUP: 7
2 -1 56 -1 #SUP: 4
2 -1 62 -1 #SUP: 3
2 -1 65 -1 #SUP: 3
2 -1 68 -1 #SUP: 2
2 -1 77 -1 #SUP: 8
2 -1 81 -1 #SUP: 2
2 -1 84 -1 #SUP: 7
2 -1 86 -1 #SUP: 2
2 -1 87 -1 #SUP: 11
2 -1 92 -1 #SUP: 2
2 -1 95 -1 #SUP: 9
2 -1 98 -1 #SUP: 3
2 -1 105 -1 #SUP: 2
2 -1 110 -1 #SUP: 2
2 -1 112 -1 #SUP: 4
2 -1 121 -1 #SUP: 3
2 -1 123 -1 #SUP: 3
2 -1 129 -1 #SUP: 2
2 -1 132 -1 #SUP: 4
2 -1 142 -1 #SUP: 5
2 -1 150 -1 #SUP: 2
2 -1 156 -1 #SUP: 2
2 -1 161 -1 #SUP: 2
2 -1 169 -1 #SUP: 2
2 -1 171 -1 #SUP: 2
2 -1 172 -1 #SUP: 4
2 -1 189 -1 #SUP: 4
2 -1 203 -1 #SUP: 8
2 -1 207 -1 #SUP: 2
2 -1 216 -1 #SUP: 4
2 -1 240 -1 #SUP: 4
2 -1 246 -1 #SUP: 2
2 -1 249 -1 #SUP: 4
2 -1 254 -1 #SUP: 3
2 -1 261 -1 #SUP: 2
2 -1 275 -1 #SUP: 4
2 -1 317 -1 #SUP: 2
2 -1 350 -1 #SUP: 2
2 -1 373 -1 #SUP: 3
2 -1 420 -1 #SUP: 6
2 -1 446 -1 #SUP: 3
2 -1 448 -1 #SUP: 2
2 -1 476 -1 #SUP: 2
2 -1 494 -1 #SUP: 3
2 -1 497 -1 #SUP: 3
2 -1 622 -1 #SUP: 2
2 -1 636 -1 #SUP: 3
2 -1 645 -1 #SUP: 2
2 -1 877 -1 #SUP: 2
2 -1 1102 -1 #SUP: 4
2 -1 1225 -1 #SUP: 3
2 -1 1359 -1 #SUP: 2
2 -1 1633 -1 #SUP: 4
2 -1 2380 -1 #SUP: 2
3 -1 0 -1 #SUP: 5
3 -1 2 -1 #SUP: 4
3 -1 20 -1 #SUP: 3
3 -1 27 -1 #SUP: 3
3 -1 31 -1 #SUP: 2
3 -1 33 -1 #SUP: 2
3 -1 38 -1 #SUP: 2
3 -1 39 -1 #SUP: 2
3 -1 87 -1 #SUP: 2
3 -1 376 -1 #SUP: 2
3 -1 417 -1 #SUP: 2
3 -1 502 -1 #SUP: 2
3 -1 1056 -1 #SUP: 2
3 -1 1577 -1 #SUP: 2
3 -1 1713 -1 #SUP: 2
5 -1 0 -1 #SUP: 2
5 -1 494 -1 #SUP: 2
5 -1 497 -1 #SUP: 2
6 -1 0 -1 #SUP: 2
6 -1 2 -1 #SUP: 3
6 -1 27 -1 #SUP: 2
6 -1 31 -1 #SUP: 2
6 -1 32 -1 #SUP: 2
6 -1 39 -1 #SUP: 3
6 -1 112 -1 #SUP: 2
6 -1 446 -1 #SUP: 2
6 -1 476 -1 #SUP: 2
14 -1 0 -1 #SUP: 3
14 -1 2 -1 #SUP: 4
14 -1 27 -1 #SUP: 2
14 -1 35 -1 #SUP: 2
14 -1 38 -1 #SUP: 3
14 -1 39 -1 #SUP: 3
14 -1 47 -1 #SUP: 4
14 -1 105 -1 #SUP: 2
14 -1 189 -1 #SUP: 2
14 -1 203 -1 #SUP: 2
14 -1 636 -1 #SUP: 4
17 -1 3 -1 #SUP: 3
17 -1 27 -1 #SUP: 5
17 -1 31 -1 #SUP: 4
17 -1 123 -1 #SUP: 2
17 -1 189 -1 #SUP: 3
17 -1 249 -1 #SUP: 2
17 -1 275 -1 #SUP: 3
17 -1 1476 -1 #SUP: 2
20 -1 2 -1 #SUP: 6
20 -1 3 -1 #SUP: 3
20 -1 26 -1 #SUP: 2
20 -1 27 -1 #SUP: 3
20 -1 31 -1 #SUP: 4
20 -1 35 -1 #SUP: 2
20 -1 47 -1 #SUP: 4
20 -1 87 -1 #SUP: 3
20 -1 95 -1 #SUP: 2
20 -1 161 -1 #SUP: 2
20 -1 171 -1 #SUP: 2
20 -1 249 -1 #SUP: 2
20 -1 497 -1 #SUP: 2
21 -1 47 -1 #SUP: 2
21 -1 123 -1 #SUP: 2
26 -1 2 -1 #SUP: 2
26 -1 33 -1 #SUP: 2
26 -1 35 -1 #SUP: 2
26 -1 47 -1 #SUP: 2
27 -1 0 -1 #SUP: 6
27 -1 2 -1 #SUP: 10
27 -1 3 -1 #SUP: 4
27 -1 5 -1 #SUP: 2
27 -1 6 -1 #SUP: 2
27 -1 20 -1 #SUP: 4
27 -1 21 -1 #SUP: 2
27 -1 27 -1 #SUP: 5
27 -1 31 -1 #SUP: 3
27 -1 33 -1 #SUP: 5
27 -1 35 -1 #SUP: 3
27 -1 38 -1 #SUP: 2
27 -1 39 -1 #SUP: 4
27 -1 40 -1 #SUP: 3
27 -1 47 -1 #SUP: 3
27 -1 56 -1 #SUP: 2
27 -1 67 -1 #SUP: 2
27 -1 86 -1 #SUP: 2
27 -1 87 -1 #SUP: 7
27 -1 112 -1 #SUP: 2
27 -1 114 -1 #SUP: 2
27 -1 123 -1 #SUP: 2
27 -1 161 -1 #SUP: 3
27 -1 172 -1 #SUP: 2
27 -1 203 -1 #SUP: 2
27 -1 249 -1 #SUP: 2
27 -1 376 -1 #SUP: 2
27 -1 497 -1 #SUP: 2
27 -1 5322 -1 #SUP: 2
31 -1 0 -1 #SUP: 2
31 -1 2 -1 #SUP: 11
31 -1 3 -1 #SUP: 4
31 -1 6 -1 #SUP: 3
31 -1 17 -1 #SUP: 3
31 -1 27 -1 #SUP: 6
31 -1 31 -1 #SUP: 3
31 -1 33 -1 #SUP: 4
31 -1 35 -1 #SUP: 2
31 -1 39 -1 #SUP: 5
31 -1 40 -1 #SUP: 4
31 -1 47 -1 #SUP: 2
31 -1 71 -1 #SUP: 2
31 -1 77 -1 #SUP: 2
31 -1 84 -1 #SUP: 2
31 -1 87 -1 #SUP: 3
31 -1 95 -1 #SUP: 3
31 -1 112 -1 #SUP: 3
31 -1 114 -1 #SUP: 2
31 -1 142 -1 #SUP: 2
31 -1 150 -1 #SUP: 2
31 -1 249 -1 #SUP: 2
31 -1 333 -1 #SUP: 2
31 -1 376 -1 #SUP: 2
31 -1 378 -1 #SUP: 2
31 -1 745 -1 #SUP: 2
31 -1 5322 -1 #SUP: 2
33 -1 0 -1 #SUP: 7
33 -1 1 -1 #SUP: 2
33 -1 2 -1 #SUP: 11
33 -1 3 -1 #SUP: 3
33 -1 4 -1 #SUP: 2
33 -1 6 -1 #SUP: 2
33 -1 14 -1 #SUP: 3
33 -1 20 -1 #SUP: 4
33 -1 27 -1 #SUP: 4
33 -1 31 -1 #SUP: 4
33 -1 33 -1 #SUP: 2
33 -1 35 -1 #SUP: 4
33 -1 38 -1 #SUP: 2
33 -1 40 -1 #SUP: 4
33 -1 41 -1 #SUP: 2
33 -1 47 -1 #SUP: 7
33 -1 62 -1 #SUP: 2
33 -1 67 -1 #SUP: 2
33 -1 84 -1 #SUP: 3
33 -1 87 -1 #SUP: 3
33 -1 95 -1 #SUP: 2
33 -1 102 -1 #SUP: 2
33 -1 137 -1 #SUP: 2
33 -1 142 -1 #SUP: 2
33 -1 161 -1 #SUP: 2
33 -1 171 -1 #SUP: 2
33 -1 216 -1 #SUP: 4
33 -1 350 -1 #SUP: 2
33 -1 494 -1 #SUP: 2
33 -1 1127 -1 #SUP: 2
33 -1 1633 -1 #SUP: 2
35 -1 1 -1 #SUP: 2
35 -1 2 -1 #SUP: 2
35 -1 3 -1 #SUP: 2
35 -1 33 -1 #SUP: 2
35 -1 39 -1 #SUP: 2
35 -1 41 -1 #SUP: 2
35 -1 47 -1 #SUP: 3
35 -1 87 -1 #SUP: 4
35 -1 112 -1 #SUP: 2
38 -1 0 -1 #SUP: 2
38 -1 3 -1 #SUP: 4
38 -1 4 -1 #SUP: 2
38 -1 20 -1 #SUP: 2
38 -1 27 -1 #SUP: 3
38 -1 39 -1 #SUP: 2
38 -1 40 -1 #SUP: 2
38 -1 71 -1 #SUP: 2
38 -1 254 -1 #SUP: 2
38 -1 2182 -1 #SUP: 2
39 -1 0 -1 #SUP: 3
39 -1 2 -1 #SUP: 4
39 -1 3 -1 #SUP: 3
39 -1 20 -1 #SUP: 3
39 -1 26 -1 #SUP: 2
39 -1 27 -1 #SUP: 5
39 -1 31 -1 #SUP: 2
39 -1 33 -1 #SUP: 3
39 -1 35 -1 #SUP: 2
39 -1 38 -1 #SUP: 2
39 -1 39 -1 #SUP: 5
39 -1 40 -1 #SUP: 3
39 -1 65 -1 #SUP: 2
39 -1 84 -1 #SUP: 3
39 -1 87 -1 #SUP: 4
39 -1 112 -1 #SUP: 2
39 -1 348 -1 #SUP: 2
39 -1 378 -1 #SUP: 5
39 -1 502 -1 #SUP: 3
39 -1 1056 -1 #SUP: 2
40 -1 0 -1 #SUP: 6
40 -1 2 -1 #SUP: 6
40 -1 3 -1 #SUP: 3
40 -1 27 -1 #SUP: 2
40 -1 31 -1 #SUP: 3
40 -1 33 -1 #SUP: 5
40 -1 35 -1 #SUP: 3
40 -1 40 -1 #SUP: 2
40 -1 47 -1 #SUP: 3
40 -1 68 -1 #SUP: 2
40 -1 71 -1 #SUP: 3
40 -1 87 -1 #SUP: 4
40 -1 112 -1 #SUP: 2
40 -1 216 -1 #SUP: 2
40 -1 275 -1 #SUP: 3
40 -1 378 -1 #SUP: 2
40 -1 877 -1 #SUP: 3
40 -1 1102 -1 #SUP: 5
41 -1 3 -1 #SUP: 2
47 -1 0 -1 #SUP: 4
47 -1 2 -1 #SUP: 6
47 -1 20 -1 #SUP: 5
47 -1 27 -1 #SUP: 3
47 -1 31 -1 #SUP: 3
47 -1 33 -1 #SUP: 2
47 -1 39 -1 #SUP: 2
47 -1 47 -1 #SUP: 2
47 -1 87 -1 #SUP: 3
47 -1 127 -1 #SUP: 2
47 -1 134 -1 #SUP: 2
47 -1 172 -1 #SUP: 3
47 -1 189 -1 #SUP: 2
47 -1 199 -1 #SUP: 2
47 -1 203 -1 #SUP: 2
47 -1 502 -1 #SUP: 2
47 -1 636 -1 #SUP: 5
56 -1 27 -1 #SUP: 2
56 -1 31 -1 #SUP: 2
56 -1 39 -1 #SUP: 2
56 -1 132 -1 #SUP: 2
62 -1 0 -1 #SUP: 2
62 -1 2 -1 #SUP: 4
62 -1 40 -1 #SUP: 2
62 -1 87 -1 #SUP: 2
62 -1 112 -1 #SUP: 2
65 -1 27 -1 #SUP: 2
65 -1 56 -1 #SUP: 2
65 -1 87 -1 #SUP: 2
65 -1 121 -1 #SUP: 2
65 -1 132 -1 #SUP: 2
67 -1 2 -1 #SUP: 2
67 -1 20 -1 #SUP: 2
67 -1 102 -1 #SUP: 2
68 -1 2 -1 #SUP: 2
68 -1 33 -1 #SUP: 3
71 -1 33 -1 #SUP: 2
73 -1 20 -1 #SUP: 2
76 -1 0 -1 #SUP: 2
76 -1 2 -1 #SUP: 2
77 -1 3 -1 #SUP: 2
77 -1 27 -1 #SUP: 3
77 -1 33 -1 #SUP: 2
77 -1 87 -1 #SUP: 2
77 -1 240 -1 #SUP: 2
77 -1 622 -1 #SUP: 2
81 -1 2 -1 #SUP: 2
84 -1 2 -1 #SUP: 2
84 -1 3 -1 #SUP: 2
84 -1 27 -1 #SUP: 5
84 -1 33 -1 #SUP: 3
84 -1 35 -1 #SUP: 2
84 -1 40 -1 #SUP: 3
84 -1 77 -1 #SUP: 2
84 -1 87 -1 #SUP: 4
84 -1 132 -1 #SUP: 2
84 -1 203 -1 #SUP: 2
84 -1 348 -1 #SUP: 2
84 -1 497 -1 #SUP: 2
87 -1 0 -1 #SUP: 4
87 -1 2 -1 #SUP: 8
87 -1 3 -1 #SUP: 3
87 -1 5 -1 #SUP: 2
87 -1 6 -1 #SUP: 2
87 -1 17 -1 #SUP: 2
87 -1 20 -1 #SUP: 2
87 -1 27 -1 #SUP: 3
87 -1 31 -1 #SUP: 5
87 -1 33 -1 #SUP: 7
87 -1 35 -1 #SUP: 2
87 -1 39 -1 #SUP: 2
87 -1 40 -1 #SUP: 4
87 -1 67 -1 #SUP: 2
87 -1 86 -1 #SUP: 2
87 -1 87 -1 #SUP: 2
87 -1 121 -1 #SUP: 2
87 -1 142 -1 #SUP: 2
87 -1 171 -1 #SUP: 2
87 -1 216 -1 #SUP: 4
87 -1 350 -1 #SUP: 2
87 -1 494 -1 #SUP: 2
87 -1 497 -1 #SUP: 2
87 -1 1077 -1 #SUP: 2
87 -1 1102 -1 #SUP: 2
95 -1 0 -1 #SUP: 3
95 -1 3 -1 #SUP: 3
95 -1 17 -1 #SUP: 2
95 -1 27 -1 #SUP: 3
95 -1 33 -1 #SUP: 3
95 -1 38 -1 #SUP: 2
95 -1 77 -1 #SUP: 3
95 -1 84 -1 #SUP: 2
95 -1 240 -1 #SUP: 2
98 -1 27 -1 #SUP: 2
98 -1 87 -1 #SUP: 2
98 -1 203 -1 #SUP: 2
105 -1 2 -1 #SUP: 2
105 -1 47 -1 #SUP: 2
105 -1 189 -1 #SUP: 2
105 -1 203 -1 #SUP: 2
105 -1 636 -1 #SUP: 2
112 -1 3 -1 #SUP: 3
112 -1 33 -1 #SUP: 2
112 -1 39 -1 #SUP: 3
112 -1 87 -1 #SUP: 2
112 -1 1577 -1 #SUP: 2
114 -1 31 -1 #SUP: 2
114 -1 745 -1 #SUP: 2
121 -1 2 -1 #SUP: 2
121 -1 27 -1 #SUP: 2
121 -1 87 -1 #SUP: 3
123 -1 2 -1 #SUP: 3
123 -1 27 -1 #SUP: 2
123 -1 56 -1 #SUP: 2
123 -1 65 -1 #SUP: 2
123 -1 102 -1 #SUP: 2
123 -1 123 -1 #SUP: 2
127 -1 2 -1 #SUP: 2
127 -1 27 -1 #SUP: 2
127 -1 87 -1 #SUP: 2
127 -1 203 -1 #SUP: 2
129 -1 27 -1 #SUP: 2
138 -1 21 -1 #SUP: 2
138 -1 27 -1 #SUP: 2
138 -1 114 -1 #SUP: 2
142 -1 2 -1 #SUP: 4
142 -1 27 -1 #SUP: 6
142 -1 33 -1 #SUP: 2
142 -1 161 -1 #SUP: 2
143 -1 33 -1 #SUP: 3
144 -1 2 -1 #SUP: 2
144 -1 35 -1 #SUP: 2
144 -1 95 -1 #SUP: 2
146 -1 216 -1 #SUP: 2
156 -1 98 -1 #SUP: 2
156 -1 203 -1 #SUP: 2
161 -1 2 -1 #SUP: 3
161 -1 20 -1 #SUP: 2
161 -1 338 -1 #SUP: 2
169 -1 0 -1 #SUP: 3
169 -1 2 -1 #SUP: 2
169 -1 56 -1 #SUP: 2
171 -1 2 -1 #SUP: 2
171 -1 31 -1 #SUP: 2
172 -1 0 -1 #SUP: 4
172 -1 2 -1 #SUP: 3
172 -1 3 -1 #SUP: 2
172 -1 6 -1 #SUP: 2
172 -1 20 -1 #SUP: 2
172 -1 31 -1 #SUP: 2
172 -1 32 -1 #SUP: 2
172 -1 47 -1 #SUP: 2
172 -1 87 -1 #SUP: 3
172 -1 203 -1 #SUP: 2
189 -1 0 -1 #SUP: 2
189 -1 2 -1 #SUP: 3
189 -1 27 -1 #SUP: 3
189 -1 31 -1 #SUP: 2
189 -1 33 -1 #SUP: 2
189 -1 203 -1 #SUP: 2
189 -1 333 -1 #SUP: 2
202 -1 2 -1 #SUP: 2
203 -1 0 -1 #SUP: 4
203 -1 2 -1 #SUP: 4
203 -1 5 -1 #SUP: 3
203 -1 17 -1 #SUP: 2
203 -1 27 -1 #SUP: 4
203 -1 31 -1 #SUP: 3
203 -1 33 -1 #SUP: 4
203 -1 40 -1 #SUP: 2
203 -1 56 -1 #SUP: 2
203 -1 87 -1 #SUP: 4
203 -1 254 -1 #SUP: 2
203 -1 494 -1 #SUP: 2
203 -1 497 -1 #SUP: 3
207 -1 31 -1 #SUP: 2
207 -1 33 -1 #SUP: 2
216 -1 0 -1 #SUP: 3
216 -1 2 -1 #SUP: 3
216 -1 27 -1 #SUP: 2
216 -1 33 -1 #SUP: 4
216 -1 87 -1 #SUP: 2
216 -1 216 -1 #SUP: 4
216 -1 494 -1 #SUP: 2
216 -1 1077 -1 #SUP: 2
240 -1 0 -1 #SUP: 3
240 -1 2 -1 #SUP: 4
240 -1 14 -1 #SUP: 2
240 -1 27 -1 #SUP: 3
240 -1 33 -1 #SUP: 2
240 -1 39 -1 #SUP: 2
242 -1 0 -1 #SUP: 2
244 -1 2 -1 #SUP: 2
249 -1 2 -1 #SUP: 2
254 -1 0 -1 #SUP: 2
254 -1 3 -1 #SUP: 3
254 -1 31 -1 #SUP: 2
254 -1 33 -1 #SUP: 2
254 -1 38 -1 #SUP: 2
254 -1 56 -1 #SUP: 2
317 -1 2 -1 #SUP: 2
317 -1 87 -1 #SUP: 2
348 -1 87 -1 #SUP: 2
350 -1 275 -1 #SUP: 2
378 -1 2 -1 #SUP: 5
378 -1 35 -1 #SUP: 2
378 -1 38 -1 #SUP: 2
378 -1 62 -1 #SUP: 2
378 -1 87 -1 #SUP: 2
417 -1 2 -1 #SUP: 2
420 -1 2 -1 #SUP: 3
420 -1 17 -1 #SUP: 2
420 -1 27 -1 #SUP: 2
420 -1 33 -1 #SUP: 2
420 -1 203 -1 #SUP: 3
446 -1 0 -1 #SUP: 3
446 -1 2 -1 #SUP: 3
446 -1 32 -1 #SUP: 2
448 -1 3 -1 #SUP: 2
476 -1 0 -1 #SUP: 2
476 -1 2 -1 #SUP: 2
476 -1 27 -1 #SUP: 2
476 -1 87 -1 #SUP: 2
494 -1 2 -1 #SUP: 3
494 -1 3 -1 #SUP: 2
494 -1 17 -1 #SUP: 2
494 -1 216 -1 #SUP: 3
494 -1 254 -1 #SUP: 2
497 -1 0 -1 #SUP: 3
497 -1 2 -1 #SUP: 2
497 -1 3 -1 #SUP: 3
497 -1 62 -1 #SUP: 2
497 -1 161 -1 #SUP: 2
497 -1 338 -1 #SUP: 2
502 -1 2 -1 #SUP: 2
502 -1 1056 -1 #SUP: 2
636 -1 2 -1 #SUP: 2
636 -1 27 -1 #SUP: 2
636 -1 172 -1 #SUP: 2
636 -1 189 -1 #SUP: 2
636 -1 203 -1 #SUP: 3
661 -1 0 -1 #SUP: 2
688 -1 20 -1 #SUP: 3
688 -1 497 -1 #SUP: 2
750 -1 27 -1 #SUP: 2
830 -1 1056 -1 #SUP: 2
877 -1 2 -1 #SUP: 2
877 -1 31 -1 #SUP: 2
922 -1 3 -1 #SUP: 2
960 -1 31 -1 #SUP: 2
1077 -1 2 -1 #SUP: 2
1077 -1 27 -1 #SUP: 2
1102 -1 0 -1 #SUP: 3
1102 -1 2 -1 #SUP: 3
1102 -1 31 -1 #SUP: 2
1102 -1 33 -1 #SUP: 3
1102 -1 68 -1 #SUP: 2
1127 -1 137 -1 #SUP: 3
1137 -1 14 -1 #SUP: 2
1137 -1 38 -1 #SUP: 2
1137 -1 39 -1 #SUP: 2
1137 -1 47 -1 #SUP: 2
1225 -1 2 -1 #SUP: 2
1225 -1 3 -1 #SUP: 2
1225 -1 56 -1 #SUP: 2
1225 -1 417 -1 #SUP: 2
1359 -1 87 -1 #SUP: 2
1476 -1 275 -1 #SUP: 2
1633 -1 2 -1 #SUP: 2
1633 -1 31 -1 #SUP: 2
1633 -1 33 -1 #SUP: 2
1713 -1 0 -1 #SUP: 2
1713 -1 33 -1 #SUP: 2
2182 -1 0 -1 #SUP: 2
2182 -1 254 -1 #SUP: 2
5322 -1 1056 -1 #SUP: 3
0 -1 0 -1 2 -1 #SUP: 3
0 -1 0 -1 203 -1 #SUP: 2
0 -1 2 -1 0 -1 #SUP: 2
0 -1 2 -1 20 -1 #SUP: 3
0 -1 2 -1 27 -1 #SUP: 3
0 -1 2 -1 31 -1 #SUP: 2
0 -1 2 -1 33 -1 #SUP: 3
0 -1 2 -1 35 -1 #SUP: 2
0 -1 2 -1 41 -1 #SUP: 2
0 -1 2 -1 47 -1 #SUP: 2
0 -1 2 -1 87 -1 #SUP: 2
0 -1 2 -1 203 -1 #SUP: 2
0 -1 6 -1 2 -1 #SUP: 2
0 -1 14 -1 0 -1 #SUP: 3
0 -1 14 -1 2 -1 #SUP: 3
0 -1 14 -1 27 -1 #SUP: 2
0 -1 14 -1 38 -1 #SUP: 2
0 -1 14 -1 47 -1 #SUP: 4
0 -1 14 -1 105 -1 #SUP: 2
0 -1 14 -1 189 -1 #SUP: 2
0 -1 14 -1 203 -1 #SUP: 2
0 -1 14 -1 636 -1 #SUP: 4
0 -1 17 -1 3 -1 #SUP: 2
0 -1 17 -1 27 -1 #SUP: 2
0 -1 31 -1 2 -1 #SUP: 2
0 -1 31 -1 378 -1 #SUP: 2
0 -1 35 -1 41 -1 #SUP: 2
0 -1 39 -1 0 -1 #SUP: 2
0 -1 47 -1 0 -1 #SUP: 3
0 -1 47 -1 2 -1 #SUP: 3
0 -1 47 -1 27 -1 #SUP: 2
0 -1 47 -1 189 -1 #SUP: 2
0 -1 47 -1 203 -1 #SUP: 2
0 -1 47 -1 636 -1 #SUP: 5
0 -1 87 -1 86 -1 #SUP: 2
0 -1 105 -1 2 -1 #SUP: 2
0 -1 105 -1 47 -1 #SUP: 2
0 -1 105 -1 189 -1 #SUP: 2
0 -1 105 -1 203 -1 #SUP: 2
0 -1 105 -1 636 -1 #SUP: 2
0 -1 142 -1 27 -1 #SUP: 2
0 -1 169 -1 0 -1 #SUP: 2
0 -1 169 -1 56 -1 #SUP: 2
0 -1 189 -1 2 -1 #SUP: 2
0 -1 189 -1 203 -1 #SUP: 2
0 -1 216 -1 0 -1 #SUP: 2
0 -1 254 -1 38 -1 #SUP: 2
0 -1 378 -1 38 -1 #SUP: 2
0 -1 494 -1 2 -1 #SUP: 3
0 -1 494 -1 3 -1 #SUP: 2
0 -1 494 -1 17 -1 #SUP: 2
0 -1 494 -1 216 -1 #SUP: 3
0 -1 494 -1 254 -1 #SUP: 2
0 -1 636 -1 2 -1 #SUP: 2
0 -1 636 -1 27 -1 #SUP: 2
0 -1 636 -1 189 -1 #SUP: 2
0 -1 636 -1 203 -1 #SUP: 2
0 -1 688 -1 20 -1 #SUP: 2
0 -1 960 -1 31 -1 #SUP: 2
0 -1 2182 -1 254 -1 #SUP: 2
2 -1 0 -1 0 -1 #SUP: 2
2 -1 0 -1 2 -1 #SUP: 4
2 -1 0 -1 14 -1 #SUP: 3
2 -1 0 -1 47 -1 #SUP: 3
2 -1 0 -1 87 -1 #SUP: 3
2 -1 0 -1 105 -1 #SUP: 2
2 -1 0 -1 189 -1 #SUP: 2
2 -1 0 -1 254 -1 #SUP: 2
2 -1 0 -1 494 -1 #SUP: 3
2 -1 0 -1 636 -1 #SUP: 2
2 -1 2 -1 0 -1 #SUP: 2
2 -1 2 -1 27 -1 #SUP: 4
2 -1 2 -1 33 -1 #SUP: 3
2 -1 2 -1 77 -1 #SUP: 2
2 -1 2 -1 95 -1 #SUP: 2
2 -1 2 -1 172 -1 #SUP: 2
2 -1 2 -1 446 -1 #SUP: 2
2 -1 3 -1 20 -1 #SUP: 2
2 -1 6 -1 2 -1 #SUP: 2
2 -1 6 -1 446 -1 #SUP: 2
2 -1 6 -1 476 -1 #SUP: 2
2 -1 14 -1 47 -1 #SUP: 2
2 -1 14 -1 105 -1 #SUP: 2
2 -1 14 -1 189 -1 #SUP: 2
2 -1 14 -1 636 -1 #SUP: 2
2 -1 17 -1 3 -1 #SUP: 2
2 -1 17 -1 27 -1 #SUP: 3
2 -1 17 -1 189 -1 #SUP: 2
2 -1 17 -1 249 -1 #SUP: 2
2 -1 17 -1 275 -1 #SUP: 2
2 -1 20 -1 31 -1 #SUP: 3
2 -1 27 -1 2 -1 #SUP: 3
2 -1 27 -1 3 -1 #SUP: 2
2 -1 27 -1 27 -1 #SUP: 3
2 -1 27 -1 33 -1 #SUP: 3
2 -1 27 -1 40 -1 #SUP: 2
2 -1 27 -1 87 -1 #SUP: 3
2 -1 27 -1 249 -1 #SUP: 2
2 -1 31 -1 2 -1 #SUP: 3
2 -1 31 -1 27 -1 #SUP: 2
2 -1 31 -1 87 -1 #SUP: 2
2 -1 33 -1 0 -1 #SUP: 3
2 -1 33 -1 2 -1 #SUP: 5
2 -1 33 -1 3 -1 #SUP: 2
2 -1 33 -1 20 -1 #SUP: 2
2 -1 33 -1 27 -1 #SUP: 3
2 -1 33 -1 31 -1 #SUP: 3
2 -1 33 -1 38 -1 #SUP: 2
2 -1 33 -1 40 -1 #SUP: 3
2 -1 33 -1 87 -1 #SUP: 2
2 -1 33 -1 171 -1 #SUP: 2
2 -1 33 -1 1633 -1 #SUP: 2
2 -1 35 -1 1 -1 #SUP: 2
2 -1 35 -1 3 -1 #SUP: 2
2 -1 35 -1 41 -1 #SUP: 2
2 -1 35 -1 47 -1 #SUP: 2
2 -1 35 -1 87 -1 #SUP: 2
2 -1 35 -1 112 -1 #SUP: 2
2 -1 38 -1 3 -1 #SUP: 2
2 -1 39 -1 0 -1 #SUP: 2
2 -1 40 -1 0 -1 #SUP: 2
2 -1 40 -1 2 -1 #SUP: 2
2 -1 40 -1 3 -1 #SUP: 2
2 -1 40 -1 33 -1 #SUP: 2
2 -1 40 -1 275 -1 #SUP: 2
2 -1 40 -1 1102 -1 #SUP: 4
2 -1 41 -1 3 -1 #SUP: 2
2 -1 47 -1 0 -1 #SUP: 2
2 -1 47 -1 31 -1 #SUP: 2
2 -1 47 -1 189 -1 #SUP: 2
2 -1 47 -1 636 -1 #SUP: 3
2 -1 65 -1 56 -1 #SUP: 2
2 -1 65 -1 121 -1 #SUP: 2
2 -1 68 -1 2 -1 #SUP: 2
2 -1 68 -1 33 -1 #SUP: 2
2 -1 77 -1 3 -1 #SUP: 2
2 -1 77 -1 27 -1 #SUP: 3
2 -1 77 -1 33 -1 #SUP: 2
2 -1 77 -1 240 -1 #SUP: 2
2 -1 77 -1 622 -1 #SUP: 2
2 -1 84 -1 3 -1 #SUP: 2
2 -1 84 -1 27 -1 #SUP: 3
2 -1 84 -1 33 -1 #SUP: 2
2 -1 84 -1 77 -1 #SUP: 2
2 -1 84 -1 132 -1 #SUP: 2
2 -1 87 -1 33 -1 #SUP: 2
2 -1 87 -1 40 -1 #SUP: 2
2 -1 87 -1 86 -1 #SUP: 2
2 -1 87 -1 1102 -1 #SUP: 2
2 -1 95 -1 0 -1 #SUP: 3
2 -1 95 -1 3 -1 #SUP: 3
2 -1 95 -1 17 -1 #SUP: 2
2 -1 95 -1 27 -1 #SUP: 3
2 -1 95 -1 33 -1 #SUP: 3
2 -1 95 -1 77 -1 #SUP: 3
2 -1 95 -1 84 -1 #SUP: 2
2 -1 95 -1 240 -1 #SUP: 2
2 -1 105 -1 47 -1 #SUP: 2
2 -1 105 -1 189 -1 #SUP: 2
2 -1 105 -1 636 -1 #SUP: 2
2 -1 112 -1 39 -1 #SUP: 2
2 -1 129 -1 27 -1 #SUP: 2
2 -1 142 -1 2 -1 #SUP: 2
2 -1 142 -1 27 -1 #SUP: 4
2 -1 142 -1 33 -1 #SUP: 2
2 -1 156 -1 98 -1 #SUP: 2
2 -1 172 -1 0 -1 #SUP: 3
2 -1 172 -1 2 -1 #SUP: 2
2 -1 172 -1 20 -1 #SUP: 2
2 -1 172 -1 47 -1 #SUP: 2
2 -1 189 -1 27 -1 #SUP: 2
2 -1 203 -1 2 -1 #SUP: 2
2 -1 203 -1 5 -1 #SUP: 2
2 -1 203 -1 27 -1 #SUP: 3
2 -1 203 -1 33 -1 #SUP: 3
2 -1 203 -1 497 -1 #SUP: 2
2 -1 207 -1 31 -1 #SUP: 2
2 -1 207 -1 33 -1 #SUP: 2
2 -1 240 -1 0 -1 #SUP: 3
2 -1 240 -1 2 -1 #SUP: 3
2 -1 240 -1 14 -1 #SUP: 2
2 -1 240 -1 27 -1 #SUP: 3
2 -1 240 -1 33 -1 #SUP: 2
2 -1 420 -1 2 -1 #SUP: 3
2 -1 420 -1 27 -1 #SUP: 2
2 -1 420 -1 33 -1 #SUP: 2
2 -1 420 -1 203 -1 #SUP: 3
2 -1 446 -1 0 -1 #SUP: 3
2 -1 446 -1 2 -1 #SUP: 2
2 -1 636 -1 189 -1 #SUP: 2
2 -1 1102 -1 2 -1 #SUP: 2
2 -1 1102 -1 33 -1 #SUP: 2
2 -1 1225 -1 3 -1 #SUP: 2
2 -1 1359 -1 87 -1 #SUP: 2
3 -1 0 -1 2 -1 #SUP: 3
3 -1 0 -1 31 -1 #SUP: 2
3 -1 417 -1 2 -1 #SUP: 2
3 -1 502 -1 1056 -1 #SUP: 2
3 -1 1713 -1 0 -1 #SUP: 2
5 -1 0 -1 494 -1 #SUP: 2
6 -1 2 -1 0 -1 #SUP: 2
6 -1 31 -1 112 -1 #SUP: 2
6 -1 39 -1 31 -1 #SUP: 2
6 -1 39 -1 112 -1 #SUP: 2
6 -1 446 -1 0 -1 #SUP: 2
14 -1 2 -1 35 -1 #SUP: 2
14 -1 2 -1 203 -1 #SUP: 2
14 -1 39 -1 38 -1 #SUP: 2
14 -1 47 -1 2 -1 #SUP: 2
14 -1 47 -1 27 -1 #SUP: 2
14 -1 47 -1 189 -1 #SUP: 2
14 -1 47 -1 203 -1 #SUP: 2
14 -1 47 -1 636 -1 #SUP: 4
14 -1 105 -1 2 -1 #SUP: 2
14 -1 105 -1 47 -1 #SUP: 2
14 -1 105 -1 189 -1 #SUP: 2
14 -1 105 -1 203 -1 #SUP: 2
14 -1 105 -1 636 -1 #SUP: 2
14 -1 189 -1 2 -1 #SUP: 2
14 -1 189 -1 203 -1 #SUP: 2
14 -1 636 -1 2 -1 #SUP: 2
14 -1 636 -1 27 -1 #SUP: 2
14 -1 636 -1 189 -1 #SUP: 2
14 -1 636 -1 203 -1 #SUP: 2
17 -1 27 -1 31 -1 #SUP: 2
17 -1 27 -1 123 -1 #SUP: 2
17 -1 27 -1 249 -1 #SUP: 2
17 -1 189 -1 27 -1 #SUP: 2
17 -1 189 -1 31 -1 #SUP: 2
17 -1 1476 -1 275 -1 #SUP: 2
20 -1 31 -1 2 -1 #SUP: 2
20 -1 31 -1 95 -1 #SUP: 2
20 -1 31 -1 249 -1 #SUP: 2
20 -1 47 -1 2 -1 #SUP: 2
26 -1 2 -1 35 -1 #SUP: 2
26 -1 33 -1 47 -1 #SUP: 2
27 -1 0 -1 0 -1 #SUP: 2
27 -1 0 -1 2 -1 #SUP: 2
27 -1 2 -1 0 -1 #SUP: 2
27 -1 2 -1 2 -1 #SUP: 2
27 -1 2 -1 20 -1 #SUP: 2
27 -1 2 -1 33 -1 #SUP: 2
27 -1 2 -1 39 -1 #SUP: 2
27 -1 2 -1 47 -1 #SUP: 2
27 -1 2 -1 56 -1 #SUP: 2
27 -1 3 -1 0 -1 #SUP: 2
27 -1 3 -1 376 -1 #SUP: 2
27 -1 5 -1 497 -1 #SUP: 2
27 -1 27 -1 123 -1 #SUP: 2
27 -1 40 -1 0 -1 #SUP: 2
27 -1 47 -1 20 -1 #SUP: 2
27 -1 87 -1 0 -1 #SUP: 2
27 -1 87 -1 5 -1 #SUP: 2
27 -1 87 -1 20 -1 #SUP: 2
27 -1 87 -1 497 -1 #SUP: 2
27 -1 161 -1 2 -1 #SUP: 3
27 -1 172 -1 87 -1 #SUP: 2
27 -1 203 -1 87 -1 #SUP: 2
31 -1 2 -1 17 -1 #SUP: 2
31 -1 2 -1 27 -1 #SUP: 4
31 -1 2 -1 39 -1 #SUP: 2
31 -1 2 -1 77 -1 #SUP: 2
31 -1 2 -1 95 -1 #SUP: 2
31 -1 2 -1 150 -1 #SUP: 2
31 -1 3 -1 376 -1 #SUP: 2
31 -1 17 -1 27 -1 #SUP: 2
31 -1 27 -1 3 -1 #SUP: 3
31 -1 27 -1 112 -1 #SUP: 2
31 -1 27 -1 376 -1 #SUP: 2
31 -1 33 -1 47 -1 #SUP: 2
31 -1 40 -1 2 -1 #SUP: 2
31 -1 40 -1 33 -1 #SUP: 2
31 -1 95 -1 27 -1 #SUP: 2
31 -1 114 -1 745 -1 #SUP: 2
31 -1 142 -1 27 -1 #SUP: 2
33 -1 0 -1 2 -1 #SUP: 3
33 -1 0 -1 6 -1 #SUP: 2
33 -1 0 -1 14 -1 #SUP: 3
33 -1 0 -1 62 -1 #SUP: 2
33 -1 0 -1 216 -1 #SUP: 2
33 -1 0 -1 494 -1 #SUP: 2
33 -1 2 -1 35 -1 #SUP: 3
33 -1 2 -1 40 -1 #SUP: 2
33 -1 2 -1 47 -1 #SUP: 2
33 -1 2 -1 95 -1 #SUP: 2
33 -1 20 -1 2 -1 #SUP: 2
33 -1 27 -1 2 -1 #SUP: 2
33 -1 31 -1 2 -1 #SUP: 3
33 -1 31 -1 40 -1 #SUP: 2
33 -1 35 -1 1 -1 #SUP: 2
33 -1 35 -1 47 -1 #SUP: 2
33 -1 216 -1 2 -1 #SUP: 2
33 -1 494 -1 2 -1 #SUP: 2
33 -1 1127 -1 137 -1 #SUP: 2
35 -1 47 -1 39 -1 #SUP: 2
35 -1 87 -1 33 -1 #SUP: 2
35 -1 112 -1 39 -1 #SUP: 2
38 -1 0 -1 39 -1 #SUP: 2
38 -1 3 -1 20 -1 #SUP: 2
38 -1 3 -1 27 -1 #SUP: 2
38 -1 2182 -1 254 -1 #SUP: 2
39 -1 0 -1 39 -1 #SUP: 2
39 -1 3 -1 502 -1 #SUP: 2
39 -1 3 -1 1056 -1 #SUP: 2
39 -1 20 -1 26 -1 #SUP: 2
39 -1 31 -1 112 -1 #SUP: 2
39 -1 39 -1 3 -1 #SUP: 2
39 -1 40 -1 87 -1 #SUP: 2
39 -1 84 -1 27 -1 #SUP: 2
39 -1 84 -1 40 -1 #SUP: 2
39 -1 84 -1 87 -1 #SUP: 2
39 -1 84 -1 348 -1 #SUP: 2
39 -1 348 -1 87 -1 #SUP: 2
39 -1 378 -1 2 -1 #SUP: 3
39 -1 378 -1 87 -1 #SUP: 2
39 -1 502 -1 1056 -1 #SUP: 2
40 -1 0 -1 2 -1 #SUP: 3
40 -1 0 -1 378 -1 #SUP: 2
40 -1 31 -1 33 -1 #SUP: 2
40 -1 31 -1 40 -1 #SUP: 2
40 -1 33 -1 2 -1 #SUP: 2
40 -1 33 -1 35 -1 #SUP: 2
40 -1 33 -1 47 -1 #SUP: 2
40 -1 35 -1 87 -1 #SUP: 2
40 -1 112 -1 3 -1 #SUP: 2
40 -1 1102 -1 0 -1 #SUP: 3
40 -1 1102 -1 2 -1 #SUP: 2
40 -1 1102 -1 33 -1 #SUP: 3
40 -1 1102 -1 68 -1 #SUP: 2
47 -1 0 -1 2 -1 #SUP: 3
47 -1 0 -1 31 -1 #SUP: 2
47 -1 0 -1 87 -1 #SUP: 2
47 -1 2 -1 172 -1 #SUP: 2
47 -1 2 -1 203 -1 #SUP: 2
47 -1 20 -1 47 -1 #SUP: 2
47 -1 189 -1 2 -1 #SUP: 2
47 -1 189 -1 203 -1 #SUP: 2
47 -1 502 -1 2 -1 #SUP: 2
47 -1 636 -1 2 -1 #SUP: 2
47 -1 636 -1 27 -1 #SUP: 2
47 -1 636 -1 172 -1 #SUP: 2
47 -1 636 -1 189 -1 #SUP: 2
47 -1 636 -1 203 -1 #SUP: 2
62 -1 40 -1 112 -1 #SUP: 2
65 -1 56 -1 132 -1 #SUP: 2
77 -1 240 -1 33 -1 #SUP: 2
84 -1 27 -1 87 -1 #SUP: 2
84 -1 40 -1 35 -1 #SUP: 2
84 -1 40 -1 87 -1 #SUP: 2
84 -1 77 -1 27 -1 #SUP: 2
84 -1 348 -1 87 -1 #SUP: 2
87 -1 0 -1 494 -1 #SUP: 2
87 -1 2 -1 2 -1 #SUP: 2
87 -1 2 -1 33 -1 #SUP: 2
87 -1 2 -1 171 -1 #SUP: 2
87 -1 5 -1 497 -1 #SUP: 2
87 -1 27 -1 2 -1 #SUP: 3
87 -1 31 -1 2 -1 #SUP: 2
87 -1 31 -1 6 -1 #SUP: 2
87 -1 31 -1 31 -1 #SUP: 2
87 -1 33 -1 0 -1 #SUP: 2
87 -1 33 -1 2 -1 #SUP: 2
87 -1 33 -1 31 -1 #SUP: 2
87 -1 33 -1 35 -1 #SUP: 2
87 -1 33 -1 171 -1 #SUP: 2
87 -1 33 -1 216 -1 #SUP: 2
87 -1 40 -1 1102 -1 #SUP: 2
87 -1 87 -1 33 -1 #SUP: 2
87 -1 216 -1 0 -1 #SUP: 2
87 -1 216 -1 33 -1 #SUP: 3
87 -1 216 -1 1077 -1 #SUP: 2
95 -1 17 -1 3 -1 #SUP: 2
95 -1 33 -1 0 -1 #SUP: 2
95 -1 77 -1 33 -1 #SUP: 2
95 -1 77 -1 240 -1 #SUP: 2
95 -1 84 -1 27 -1 #SUP: 2
95 -1 240 -1 33 -1 #SUP: 2
98 -1 203 -1 87 -1 #SUP: 2
105 -1 2 -1 203 -1 #SUP: 2
105 -1 47 -1 2 -1 #SUP: 2
105 -1 47 -1 189 -1 #SUP: 2
105 -1 47 -1 203 -1 #SUP: 2
105 -1 47 -1 636 -1 #SUP: 2
105 -1 189 -1 2 -1 #SUP: 2
105 -1 189 -1 203 -1 #SUP: 2
105 -1 636 -1 2 -1 #SUP: 2
105 -1 636 -1 189 -1 #SUP: 2
105 -1 636 -1 203 -1 #SUP: 2
112 -1 3 -1 1577 -1 #SUP: 2
112 -1 87 -1 33 -1 #SUP: 2
121 -1 27 -1 2 -1 #SUP: 2
121 -1 87 -1 2 -1 #SUP: 2
121 -1 87 -1 27 -1 #SUP: 2
123 -1 2 -1 56 -1 #SUP: 2
127 -1 203 -1 87 -1 #SUP: 2
138 -1 27 -1 21 -1 #SUP: 2
142 -1 2 -1 27 -1 #SUP: 2
142 -1 27 -1 2 -1 #SUP: 3
142 -1 27 -1 33 -1 #SUP: 2
142 -1 27 -1 161 -1 #SUP: 2
142 -1 161 -1 2 -1 #SUP: 2
144 -1 2 -1 95 -1 #SUP: 2
169 -1 0 -1 2 -1 #SUP: 2
171 -1 31 -1 2 -1 #SUP: 2
172 -1 0 -1 2 -1 #SUP: 3
189 -1 2 -1 203 -1 #SUP: 2
189 -1 31 -1 333 -1 #SUP: 2
203 -1 0 -1 494 -1 #SUP: 2
203 -1 2 -1 2 -1 #SUP: 2
203 -1 2 -1 27 -1 #SUP: 2
203 -1 2 -1 33 -1 #SUP: 2
203 -1 5 -1 0 -1 #SUP: 2
203 -1 5 -1 494 -1 #SUP: 2
203 -1 5 -1 497 -1 #SUP: 2
203 -1 27 -1 2 -1 #SUP: 2
203 -1 33 -1 0 -1 #SUP: 2
203 -1 33 -1 2 -1 #SUP: 3
203 -1 33 -1 27 -1 #SUP: 2
203 -1 40 -1 31 -1 #SUP: 2
203 -1 87 -1 5 -1 #SUP: 2
203 -1 87 -1 497 -1 #SUP: 2
216 -1 0 -1 0 -1 #SUP: 2
216 -1 0 -1 216 -1 #SUP: 3
216 -1 0 -1 494 -1 #SUP: 2
216 -1 33 -1 0 -1 #SUP: 2
216 -1 33 -1 216 -1 #SUP: 2
216 -1 87 -1 33 -1 #SUP: 2
216 -1 216 -1 0 -1 #SUP: 3
216 -1 494 -1 216 -1 #SUP: 2
216 -1 1077 -1 2 -1 #SUP: 2
216 -1 1077 -1 27 -1 #SUP: 2
240 -1 0 -1 2 -1 #SUP: 2
240 -1 0 -1 14 -1 #SUP: 2
240 -1 2 -1 0 -1 #SUP: 2
240 -1 2 -1 2 -1 #SUP: 2
240 -1 2 -1 27 -1 #SUP: 2
240 -1 27 -1 2 -1 #SUP: 2
378 -1 2 -1 62 -1 #SUP: 2
420 -1 2 -1 2 -1 #SUP: 2
420 -1 2 -1 27 -1 #SUP: 2
420 -1 2 -1 33 -1 #SUP: 2
420 -1 33 -1 2 -1 #SUP: 2
420 -1 33 -1 27 -1 #SUP: 2
420 -1 203 -1 2 -1 #SUP: 2
420 -1 203 -1 27 -1 #SUP: 2
420 -1 203 -1 33 -1 #SUP: 2
446 -1 0 -1 32 -1 #SUP: 2
446 -1 2 -1 0 -1 #SUP: 2
476 -1 27 -1 2 -1 #SUP: 2
494 -1 17 -1 3 -1 #SUP: 2
497 -1 161 -1 338 -1 #SUP: 2
636 -1 2 -1 203 -1 #SUP: 2
636 -1 189 -1 2 -1 #SUP: 2
636 -1 189 -1 203 -1 #SUP: 2
688 -1 20 -1 497 -1 #SUP: 2
1102 -1 0 -1 2 -1 #SUP: 2
1102 -1 33 -1 2 -1 #SUP: 2
1137 -1 14 -1 38 -1 #SUP: 2
1225 -1 3 -1 417 -1 #SUP: 2
1713 -1 0 -1 33 -1 #SUP: 2
0 -1 2 -1 35 -1 41 -1 #SUP: 2
0 -1 14 -1 2 -1 203 -1 #SUP: 2
0 -1 14 -1 47 -1 2 -1 #SUP: 2
0 -1 14 -1 47 -1 27 -1 #SUP: 2
0 -1 14 -1 47 -1 189 -1 #SUP: 2
0 -1 14 -1 47 -1 203 -1 #SUP: 2
0 -1 14 -1 47 -1 636 -1 #SUP: 4
0 -1 14 -1 105 -1 2 -1 #SUP: 2
0 -1 14 -1 105 -1 47 -1 #SUP: 2
0 -1 14 -1 105 -1 189 -1 #SUP: 2
0 -1 14 -1 105 -1 203 -1 #SUP: 2
0 -1 14 -1 105 -1 636 -1 #SUP: 2
0 -1 14 -1 189 -1 2 -1 #SUP: 2
0 -1 14 -1 189 -1 203 -1 #SUP: 2
0 -1 14 -1 636 -1 2 -1 #SUP: 2
0 -1 14 -1 636 -1 27 -1 #SUP: 2
0 -1 14 -1 636 -1 189 -1 #SUP: 2
0 -1 14 -1 636 -1 203 -1 #SUP: 2
0 -1 47 -1 0 -1 2 -1 #SUP: 2
0 -1 47 -1 2 -1 203 -1 #SUP: 2
0 -1 47 -1 189 -1 2 -1 #SUP: 2
0 -1 47 -1 189 -1 203 -1 #SUP: 2
0 -1 47 -1 636 -1 2 -1 #SUP: 2
0 -1 47 -1 636 -1 27 -1 #SUP: 2
0 -1 47 -1 636 -1 189 -1 #SUP: 2
0 -1 47 -1 636 -1 203 -1 #SUP: 2
0 -1 105 -1 2 -1 203 -1 #SUP: 2
0 -1 105 -1 47 -1 2 -1 #SUP: 2
0 -1 105 -1 47 -1 189 -1 #SUP: 2
0 -1 105 -1 47 -1 203 -1 #SUP: 2
0 -1 105 -1 47 -1 636 -1 #SUP: 2
0 -1 105 -1 189 -1 2 -1 #SUP: 2
0 -1 105 -1 189 -1 203 -1 #SUP: 2
0 -1 105 -1 636 -1 2 -1 #SUP: 2
0 -1 105 -1 636 -1 189 -1 #SUP: 2
0 -1 105 -1 636 -1 203 -1 #SUP: 2
0 -1 189 -1 2 -1 203 -1 #SUP: 2
0 -1 494 -1 17 -1 3 -1 #SUP: 2
0 -1 636 -1 2 -1 203 -1 #SUP: 2
0 -1 636 -1 189 -1 2 -1 #SUP: 2
0 -1 636 -1 189 -1 203 -1 #SUP: 2
2 -1 0 -1 14 -1 47 -1 #SUP: 2
2 -1 0 -1 14 -1 105 -1 #SUP: 2
2 -1 0 -1 14 -1 189 -1 #SUP: 2
2 -1 0 -1 14 -1 636 -1 #SUP: 2
2 -1 0 -1 47 -1 189 -1 #SUP: 2
2 -1 0 -1 47 -1 636 -1 #SUP: 2
2 -1 0 -1 105 -1 47 -1 #SUP: 2
2 -1 0 -1 105 -1 189 -1 #SUP: 2
2 -1 0 -1 105 -1 636 -1 #SUP: 2
2 -1 0 -1 636 -1 189 -1 #SUP: 2
2 -1 2 -1 33 -1 27 -1 #SUP: 2
2 -1 14 -1 47 -1 189 -1 #SUP: 2
2 -1 14 -1 47 -1 636 -1 #SUP: 2
2 -1 14 -1 105 -1 47 -1 #SUP: 2
2 -1 14 -1 105 -1 189 -1 #SUP: 2
2 -1 14 -1 105 -1 636 -1 #SUP: 2
2 -1 14 -1 636 -1 189 -1 #SUP: 2
2 -1 17 -1 27 -1 249 -1 #SUP: 2
2 -1 17 -1 189 -1 27 -1 #SUP: 2
2 -1 33 -1 31 -1 2 -1 #SUP: 2
2 -1 40 -1 1102 -1 2 -1 #SUP: 2
2 -1 40 -1 1102 -1 33 -1 #SUP: 2
2 -1 47 -1 636 -1 189 -1 #SUP: 2
2 -1 77 -1 240 -1 33 -1 #SUP: 2
2 -1 84 -1 77 -1 27 -1 #SUP: 2
2 -1 87 -1 40 -1 1102 -1 #SUP: 2
2 -1 95 -1 17 -1 3 -1 #SUP: 2
2 -1 95 -1 33 -1 0 -1 #SUP: 2
2 -1 95 -1 77 -1 33 -1 #SUP: 2
2 -1 95 -1 77 -1 240 -1 #SUP: 2
2 -1 95 -1 84 -1 27 -1 #SUP: 2
2 -1 95 -1 240 -1 33 -1 #SUP: 2
2 -1 105 -1 47 -1 189 -1 #SUP: 2
2 -1 105 -1 47 -1 636 -1 #SUP: 2
2 -1 105 -1 636 -1 189 -1 #SUP: 2
2 -1 142 -1 27 -1 2 -1 #SUP: 2
2 -1 142 -1 27 -1 33 -1 #SUP: 2
2 -1 203 -1 2 -1 27 -1 #SUP: 2
2 -1 203 -1 2 -1 33 -1 #SUP: 2
2 -1 203 -1 33 -1 27 -1 #SUP: 2
2 -1 240 -1 0 -1 14 -1 #SUP: 2
2 -1 240 -1 2 -1 0 -1 #SUP: 2
2 -1 240 -1 2 -1 27 -1 #SUP: 2
2 -1 420 -1 2 -1 27 -1 #SUP: 2
2 -1 420 -1 2 -1 33 -1 #SUP: 2
2 -1 420 -1 33 -1 27 -1 #SUP: 2
2 -1 420 -1 203 -1 2 -1 #SUP: 2
2 -1 420 -1 203 -1 27 -1 #SUP: 2
2 -1 420 -1 203 -1 33 -1 #SUP: 2
6 -1 39 -1 31 -1 112 -1 #SUP: 2
14 -1 47 -1 2 -1 203 -1 #SUP: 2
14 -1 47 -1 189 -1 2 -1 #SUP: 2
14 -1 47 -1 189 -1 203 -1 #SUP: 2
14 -1 47 -1 636 -1 2 -1 #SUP: 2
14 -1 47 -1 636 -1 27 -1 #SUP: 2
14 -1 47 -1 636 -1 189 -1 #SUP: 2
14 -1 47 -1 636 -1 203 -1 #SUP: 2
14 -1 105 -1 2 -1 203 -1 #SUP: 2
14 -1 105 -1 47 -1 2 -1 #SUP: 2
14 -1 105 -1 47 -1 189 -1 #SUP: 2
14 -1 105 -1 47 -1 203 -1 #SUP: 2
14 -1 105 -1 47 -1 636 -1 #SUP: 2
14 -1 105 -1 189 -1 2 -1 #SUP: 2
14 -1 105 -1 189 -1 203 -1 #SUP: 2
14 -1 105 -1 636 -1 2 -1 #SUP: 2
14 -1 105 -1 636 -1 189 -1 #SUP: 2
14 -1 105 -1 636 -1 203 -1 #SUP: 2
14 -1 189 -1 2 -1 203 -1 #SUP: 2
14 -1 636 -1 2 -1 203 -1 #SUP: 2
14 -1 636 -1 189 -1 2 -1 #SUP: 2
14 -1 636 -1 189 -1 203 -1 #SUP: 2
27 -1 87 -1 5 -1 497 -1 #SUP: 2
31 -1 2 -1 17 -1 27 -1 #SUP: 2
31 -1 2 -1 95 -1 27 -1 #SUP: 2
31 -1 27 -1 3 -1 376 -1 #SUP: 2
33 -1 0 -1 494 -1 2 -1 #SUP: 2
33 -1 2 -1 35 -1 47 -1 #SUP: 2
39 -1 3 -1 502 -1 1056 -1 #SUP: 2
39 -1 84 -1 40 -1 87 -1 #SUP: 2
39 -1 84 -1 348 -1 87 -1 #SUP: 2
47 -1 189 -1 2 -1 203 -1 #SUP: 2
47 -1 636 -1 2 -1 203 -1 #SUP: 2
47 -1 636 -1 189 -1 2 -1 #SUP: 2
47 -1 636 -1 189 -1 203 -1 #SUP: 2
87 -1 2 -1 33 -1 171 -1 #SUP: 2
87 -1 216 -1 33 -1 0 -1 #SUP: 2
95 -1 77 -1 240 -1 33 -1 #SUP: 2
105 -1 47 -1 2 -1 203 -1 #SUP: 2
105 -1 47 -1 189 -1 2 -1 #SUP: 2
105 -1 47 -1 189 -1 203 -1 #SUP: 2
105 -1 47 -1 636 -1 2 -1 #SUP: 2
105 -1 47 -1 636 -1 189 -1 #SUP: 2
105 -1 47 -1 636 -1 203 -1 #SUP: 2
105 -1 189 -1 2 -1 203 -1 #SUP: 2
105 -1 636 -1 2 -1 203 -1 #SUP: 2
105 -1 636 -1 189 -1 2 -1 #SUP: 2
105 -1 636 -1 189 -1 203 -1 #SUP: 2
121 -1 87 -1 27 -1 2 -1 #SUP: 2
142 -1 27 -1 161 -1 2 -1 #SUP: 2
203 -1 2 -1 33 -1 2 -1 #SUP: 2
203 -1 2 -1 33 -1 27 -1 #SUP: 2
203 -1 5 -1 0 -1 494 -1 #SUP: 2
203 -1 87 -1 5 -1 497 -1 #SUP: 2
216 -1 0 -1 494 -1 216 -1 #SUP: 2
216 -1 33 -1 0 -1 216 -1 #SUP: 2
216 -1 216 -1 0 -1 0 -1 #SUP: 2
240 -1 2 -1 0 -1 2 -1 #SUP: 2
420 -1 2 -1 33 -1 2 -1 #SUP: 2
420 -1 2 -1 33 -1 27 -1 #SUP: 2
420 -1 203 -1 2 -1 2 -1 #SUP: 2
420 -1 203 -1 2 -1 27 -1 #SUP: 2
420 -1 203 -1 2 -1 33 -1 #SUP: 2
420 -1 203 -1 33 -1 2 -1 #SUP: 2
420 -1 203 -1 33 -1 27 -1 #SUP: 2
636 -1 189 -1 2 -1 203 -1 #SUP: 2
0 -1 14 -1 47 -1 2 -1 203 -1 #SUP: 2
0 -1 14 -1 47 -1 189 -1 2 -1 #SUP: 2
0 -1 14 -1 47 -1 189 -1 203 -1 #SUP: 2
0 -1 14 -1 47 -1 636 -1 2 -1 #SUP: 2
0 -1 14 -1 47 -1 636 -1 27 -1 #SUP: 2
0 -1 14 -1 47 -1 636 -1 189 -1 #SUP: 2
0 -1 14 -1 47 -1 636 -1 203 -1 #SUP: 2
0 -1 14 -1 105 -1 2 -1 203 -1 #SUP: 2
0 -1 14 -1 105 -1 47 -1 2 -1 #SUP: 2
0 -1 14 -1 105 -1 47 -1 189 -1 #SUP: 2
0 -1 14 -1 105 -1 47 -1 203 -1 #SUP: 2
0 -1 14 -1 105 -1 47 -1 636 -1 #SUP: 2
0 -1 14 -1 105 -1 189 -1 2 -1 #SUP: 2
0 -1 14 -1 105 -1 189 -1 203 -1 #SUP: 2
0 -1 14 -1 105 -1 636 -1 2 -1 #SUP: 2
0 -1 14 -1 105 -1 636 -1 189 -1 #SUP: 2
0 -1 14 -1 105 -1 636 -1 203 -1 #SUP: 2
0 -1 14 -1 189 -1 2 -1 203 -1 #SUP: 2
0 -1 14 -1 636 -1 2 -1 203 -1 #SUP: 2
0 -1 14 -1 636 -1 189 -1 2 -1 #SUP: 2
0 -1 14 -1 636 -1 189 -1 203 -1 #SUP: 2
0 -1 47 -1 189 -1 2 -1 203 -1 #SUP: 2
0 -1 47 -1 636 -1 2 -1 203 -1 #SUP: 2
0 -1 47 -1 636 -1 189 -1 2 -1 #SUP: 2
0 -1 47 -1 636 -1 189 -1 203 -1 #SUP: 2
0 -1 105 -1 47 -1 2 -1 203 -1 #SUP: 2
0 -1 105 -1 47 -1 189 -1 2 -1 #SUP: 2
0 -1 105 -1 47 -1 189 -1 203 -1 #SUP: 2
0 -1 105 -1 47 -1 636 -1 2 -1 #SUP: 2
0 -1 105 -1 47 -1 636 -1 189 -1 #SUP: 2
0 -1 105 -1 47 -1 636 -1 203 -1 #SUP: 2
0 -1 105 -1 189 -1 2 -1 203 -1 #SUP: 2
0 -1 105 -1 636 -1 2 -1 203 -1 #SUP: 2
0 -1 105 -1 636 -1 189 -1 2 -1 #SUP: 2
0 -1 105 -1 636 -1 189 -1 203 -1 #SUP: 2
0 -1 636 -1 189 -1 2 -1 203 -1 #SUP: 2
2 -1 0 -1 14 -1 47 -1 189 -1 #SUP: 2
2 -1 0 -1 14 -1 47 -1 636 -1 #SUP: 2
2 -1 0 -1 14 -1 105 -1 47 -1 #SUP: 2
2 -1 0 -1 14 -1 105 -1 189 -1 #SUP: 2
2 -1 0 -1 14 -1 105 -1 636 -1 #SUP: 2
2 -1 0 -1 14 -1 636 -1 189 -1 #SUP: 2
2 -1 0 -1 47 -1 636 -1 189 -1 #SUP: 2
2 -1 0 -1 105 -1 47 -1 189 -1 #SUP: 2
2 -1 0 -1 105 -1 47 -1 636 -1 #SUP: 2
2 -1 0 -1 105 -1 636 -1 189 -1 #SUP: 2
2 -1 14 -1 47 -1 636 -1 189 -1 #SUP: 2
2 -1 14 -1 105 -1 47 -1 189 -1 #SUP: 2
2 -1 14 -1 105 -1 47 -1 636 -1 #SUP: 2
2 -1 14 -1 105 -1 636 -1 189 -1 #SUP: 2
2 -1 95 -1 77 -1 240 -1 33 -1 #SUP: 2
2 -1 105 -1 47 -1 636 -1 189 -1 #SUP: 2
2 -1 203 -1 2 -1 33 -1 27 -1 #SUP: 2
2 -1 420 -1 2 -1 33 -1 27 -1 #SUP: 2
2 -1 420 -1 203 -1 2 -1 27 -1 #SUP: 2
2 -1 420 -1 203 -1 2 -1 33 -1 #SUP: 2
2 -1 420 -1 203 -1 33 -1 27 -1 #SUP: 2
14 -1 47 -1 189 -1 2 -1 203 -1 #SUP: 2
14 -1 47 -1 636 -1 2 -1 203 -1 #SUP: 2
14 -1 47 -1 636 -1 189 -1 2 -1 #SUP: 2
14 -1 47 -1 636 -1 189 -1 203 -1 #SUP: 2
14 -1 105 -1 47 -1 2 -1 203 -1 #SUP: 2
14 -1 105 -1 47 -1 189 -1 2 -1 #SUP: 2
14 -1 105 -1 47 -1 189 -1 203 -1 #SUP: 2
14 -1 105 -1 47 -1 636 -1 2 -1 #SUP: 2
14 -1 105 -1 47 -1 636 -1 189 -1 #SUP: 2
14 -1 105 -1 47 -1 636 -1 203 -1 #SUP: 2
14 -1 105 -1 189 -1 2 -1 203 -1 #SUP: 2
14 -1 105 -1 636 -1 2 -1 203 -1 #SUP: 2
14 -1 105 -1 636 -1 189 -1 2 -1 #SUP: 2
14 -1 105 -1 636 -1 189 -1 203 -1 #SUP: 2
14 -1 636 -1 189 -1 2 -1 203 -1 #SUP: 2
47 -1 636 -1 189 -1 2 -1 203 -1 #SUP: 2
105 -1 47 -1 189 -1 2 -1 203 -1 #SUP: 2
105 -1 47 -1 636 -1 2 -1 203 -1 #SUP: 2
105 -1 47 -1 636 -1 189 -1 2 -1 #SUP: 2
105 -1 47 -1 636 -1 189 -1 203 -1 #SUP: 2
105 -1 636 -1 189 -1 2 -1 203 -1 #SUP: 2
420 -1 203 -1 2 -1 33 -1 2 -1 #SUP: 2
420 -1 203 -1 2 -1 33 -1 27 -1 #SUP: 2
0 -1 14 -1 47 -1 189 -1 2 -1 203 -1 #SUP: 2
0 -1 14 -1 47 -1 636 -1 2 -1 203 -1 #SUP: 2
0 -1 14 -1 47 -1 636 -1 189 -1 2 -1 #SUP: 2
0 -1 14 -1 47 -1 636 -1 189 -1 203 -1 #SUP: 2
0 -1 14 -1 105 -1 47 -1 2 -1 203 -1 #SUP: 2
0 -1 14 -1 105 -1 47 -1 189 -1 2 -1 #SUP: 2
0 -1 14 -1 105 -1 47 -1 189 -1 203 -1 #SUP: 2
0 -1 14 -1 105 -1 47 -1 636 -1 2 -1 #SUP: 2
0 -1 14 -1 105 -1 47 -1 636 -1 189 -1 #SUP: 2
0 -1 14 -1 105 -1 47 -1 636 -1 203 -1 #SUP: 2
0 -1 14 -1 105 -1 189 -1 2 -1 203 -1 #SUP: 2
0 -1 14 -1 105 -1 636 -1 2 -1 203 -1 #SUP: 2
0 -1 14 -1 105 -1 636 -1 189 -1 2 -1 #SUP: 2
0 -1 14 -1 105 -1 636 -1 189 -1 203 -1 #SUP: 2
0 -1 14 -1 636 -1 189 -1 2 -1 203 -1 #SUP: 2
0 -1 47 -1 636 -1 189 -1 2 -1 203 -1 #SUP: 2
0 -1 105 -1 47 -1 189 -1 2 -1 203 -1 #SUP: 2
0 -1 105 -1 47 -1 636 -1 2 -1 203 -1 #SUP: 2
0 -1 105 -1 47 -1 636 -1 189 -1 2 -1 #SUP: 2
0 -1 105 -1 47 -1 636 -1 189 -1 203 -1 #SUP: 2
0 -1 105 -1 636 -1 189 -1 2 -1 203 -1 #SUP: 2
2 -1 0 -1 14 -1 47 -1 636 -1 189 -1 #SUP: 2
2 -1 0 -1 14 -1 105 -1 47 -1 189 -1 #SUP: 2
2 -1 0 -1 14 -1 105 -1 47 -1 636 -1 #SUP: 2
2 -1 0 -1 14 -1 105 -1 636 -1 189 -1 #SUP: 2
2 -1 0 -1 105 -1 47 -1 636 -1 189 -1 #SUP: 2
2 -1 14 -1 105 -1 47 -1 636 -1 189 -1 #SUP: 2
2 -1 420 -1 203 -1 2 -1 33 -1 27 -1 #SUP: 2
14 -1 47 -1 636 -1 189 -1 2 -1 203 -1 #SUP: 2
14 -1 105 -1 47 -1 189 -1 2 -1 203 -1 #SUP: 2
14 -1 105 -1 47 -1 636 -1 2 -1 203 -1 #SUP: 2
14 -1 105 -1 47 -1 636 -1 189 -1 2 -1 #SUP: 2
14 -1 105 -1 47 -1 636 -1 189 -1 203 -1 #SUP: 2
14 -1 105 -1 636 -1 189 -1 2 -1 203 -1 #SUP: 2
105 -1 47 -1 636 -1 189 -1 2 -1 203 -1 #SUP: 2
0 -1 14 -1 47 -1 636 -1 189 -1 2 -1 203 -1 #SUP: 2
0 -1 14 -1 105 -1 47 -1 189 -1 2 -1 203 -1 #SUP: 2
0 -1 14 -1 105 -1 47 -1 636 -1 2 -1 203 -1 #SUP: 2
0 -1 14 -1 105 -1 47 -1 636 -1 189 -1 2 -1 #SUP: 2
0 -1 14 -1 105 -1 47 -1 636 -1 189 -1 203 -1 #SUP: 2
0 -1 14 -1 105 -1 636 -1 189 -1 2 -1 203 -1 #SUP: 2
0 -1 105 -1 47 -1 636 -1 189 -1 2 -1 203 -1 #SUP: 2
2 -1 0 -1 14 -1 105 -1 47 -1 636 -1 189 -1 #SUP: 2
14 -1 105 -1 47 -1 636 -1 189 -1 2 -1 203 -1 #SUP: 2
0 -1 14 -1 105 -1 47 -1 636 -1 189 -1 2 -1 203 -1 #SUP: 2
