0 -1 #SUP: 13
2 -1 #SUP: 63
3 -1 #SUP: 5
5 -1 #SUP: 3
6 -1 #SUP: 6
9 -1 #SUP: 2
14 -1 #SUP: 8
17 -1 #SUP: 4
20 -1 #SUP: 7
21 -1 #SUP: 2
26 -1 #SUP: 7
27 -1 #SUP: 28
28 -1 #SUP: 3
31 -1 #SUP: 11
32 -1 #SUP: 2
33 -1 #SUP: 26
35 -1 #SUP: 6
38 -1 #SUP: 8
39 -1 #SUP: 13
40 -1 #SUP: 13
41 -1 #SUP: 3
47 -1 #SUP: 11
56 -1 #SUP: 5
62 -1 #SUP: 2
64 -1 #SUP: 3
65 -1 #SUP: 3
66 -1 #SUP: 5
68 -1 #SUP: 3
71 -1 #SUP: 3
73 -1 #SUP: 5
76 -1 #SUP: 2
81 -1 #SUP: 2
84 -1 #SUP: 14
87 -1 #SUP: 7
88 -1 #SUP: 2
95 -1 #SUP: 17
103 -1 #SUP: 15
105 -1 #SUP: 4
110 -1 #SUP: 2
113 -1 #SUP: 3
117 -1 #SUP: 3
119 -1 #SUP: 5
121 -1 #SUP: 2
123 -1 #SUP: 3
129 -1 #SUP: 7
134 -1 #SUP: 2
135 -1 #SUP: 2
138 -1 #SUP: 2
140 -1 #SUP: 2
142 -1 #SUP: 7
144 -1 #SUP: 3
146 -1 #SUP: 3
161 -1 #SUP: 4
172 -1 #SUP: 6
182 -1 #SUP: 2
183 -1 #SUP: 3
189 -1 #SUP: 5
196 -1 #SUP: 2
203 -1 #SUP: 12
216 -1 #SUP: 2
228 -1 #SUP: 2
240 -1 #SUP: 4
242 -1 #SUP: 2
244 -1 #SUP: 4
249 -1 #SUP: 3
254 -1 #SUP: 2
256 -1 #SUP: 4
261 -1 #SUP: 5
267 -1 #SUP: 2
271 -1 #SUP: 3
277 -1 #SUP: 3
287 -1 #SUP: 2
288 -1 #SUP: 2
295 -1 #SUP: 3
306 -1 #SUP: 3
316 -1 #SUP: 2
323 -1 #SUP: 2
327 -1 #SUP: 2
366 -1 #SUP: 2
378 -1 #SUP: 6
388 -1 #SUP: 2
420 -1 #SUP: 3
431 -1 #SUP: 2
446 -1 #SUP: 2
476 -1 #SUP: 2
494 -1 #SUP: 4
497 -1 #SUP: 12
502 -1 #SUP: 2
711 -1 #SUP: 2
768 -1 #SUP: 2
877 -1 #SUP: 2
932 -1 #SUP: 2
960 -1 #SUP: 2
1035 -1 #SUP: 2
1057 -1 #SUP: 2
1137 -1 #SUP: 2
1290 -1 #SUP: 2
1417 -1 #SUP: 2
1476 -1 #SUP: 2
1513 -1 #SUP: 2
1699 -1 #SUP: 2
1800 -1 #SUP: 3
1961 -1 #SUP: 2
2055 -1 #SUP: 2
2307 -1 #SUP: 2
2322 -1 #SUP: 2
2530 -1 #SUP: 2
4952 -1 #SUP: 8
7428 -1 #SUP: 2
0 -1 0 -1 #SUP: 2
0 -1 2 -1 #SUP: 6
0 -1 5 -1 #SUP: 2
0 -1 14 -1 #SUP: 5
0 -1 27 -1 #SUP: 2
0 -1 31 -1 #SUP: 2
0 -1 33 -1 #SUP: 2
0 -1 38 -1 #SUP: 2
0 -1 56 -1 #SUP: 2
0 -1 95 -1 #SUP: 5
0 -1 103 -1 #SUP: 3
0 -1 203 -1 #SUP: 2
0 -1 287 -1 #SUP: 2
0 -1 497 -1 #SUP: 3
0 -1 1290 -1 #SUP: 2
2 -1 0 -1 #SUP: 8
2 -1 2 -1 #SUP: 10
2 -1 3 -1 #SUP: 2
2 -1 5 -1 #SUP: 3
2 -1 6 -1 #SUP: 4
2 -1 14 -1 #SUP: 4
2 -1 17 -1 #SUP: 3
2 -1 20 -1 #SUP: 5
2 -1 26 -1 #SUP: 4
2 -1 27 -1 #SUP: 14
2 -1 28 -1 #SUP: 2
2 -1 31 -1 #SUP: 4
2 -1 33 -1 #SUP: 10
2 -1 35 -1 #SUP: 3
2 -1 38 -1 #SUP: 5
2 -1 39 -1 #SUP: 6
2 -1 40 -1 #SUP: 4
2 -1 47 -1 #SUP: 4
2 -1 56 -1 #SUP: 3
2 -1 62 -1 #SUP: 2
2 -1 64 -1 #SUP: 2
2 -1 65 -1 #SUP: 3
2 -1 66 -1 #SUP: 3
2 -1 71 -1 #SUP: 2
2 -1 73 -1 #SUP: 2
2 -1 84 -1 #SUP: 5
2 -1 87 -1 #SUP: 2
2 -1 95 -1 #SUP: 15
2 -1 103 -1 #SUP: 3
2 -1 105 -1 #SUP: 3
2 -1 110 -1 #SUP: 2
2 -1 113 -1 #SUP: 3
2 -1 117 -1 #SUP: 2
2 -1 119 -1 #SUP: 4
2 -1 129 -1 #SUP: 4
2 -1 135 -1 #SUP: 2
2 -1 142 -1 #SUP: 6
2 -1 144 -1 #SUP: 2
2 -1 146 -1 #SUP: 2
2 -1 161 -1 #SUP: 2
2 -1 172 -1 #SUP: 4
2 -1 183 -1 #SUP: 3
2 -1 203 -1 #SUP: 8
2 -1 240 -1 #SUP: 2
2 -1 249 -1 #SUP: 2
2 -1 267 -1 #SUP: 2
2 -1 271 -1 #SUP: 2
2 -1 277 -1 #SUP: 2
2 -1 295 -1 #SUP: 2
2 -1 306 -1 #SUP: 2
2 -1 420 -1 #SUP: 3
2 -1 446 -1 #SUP: 2
2 -1 494 -1 #SUP: 3
2 -1 497 -1 #SUP: 5
2 -1 1035 -1 #SUP: 2
2 -1 1476 -1 #SUP: 2
2 -1 2530 -1 #SUP: 2
2 -1 4952 -1 #SUP: 2
2 -1 7428 -1 #SUP: 2
3 -1 84 -1 #SUP: 2
3 -1 1476 -1 #SUP: 2
6 -1 2 -1 #SUP: 3
6 -1 5 -1 #SUP: 2
6 -1 27 -1 #SUP: 2
6 -1 47 -1 #SUP: 3
6 -1 95 -1 #SUP: 2
14 -1 0 -1 #SUP: 2
14 -1 2 -1 #SUP: 5
14 -1 27 -1 #SUP: 3
14 -1 33 -1 #SUP: 2
14 -1 38 -1 #SUP: 2
14 -1 39 -1 #SUP: 2
14 -1 95 -1 #SUP: 2
14 -1 103 -1 #SUP: 3
17 -1 306 -1 #SUP: 2
20 -1 26 -1 #SUP: 2
20 -1 31 -1 #SUP: 2
20 -1 47 -1 #SUP: 2
21 -1 47 -1 #SUP: 2
27 -1 0 -1 #SUP: 4
27 -1 2 -1 #SUP: 2
27 -1 3 -1 #SUP: 2
27 -1 14 -1 #SUP: 2
27 -1 27 -1 #SUP: 2
27 -1 31 -1 #SUP: 2
27 -1 33 -1 #SUP: 4
27 -1 38 -1 #SUP: 2
27 -1 39 -1 #SUP: 4
27 -1 47 -1 #SUP: 2
27 -1 56 -1 #SUP: 2
27 -1 84 -1 #SUP: 2
27 -1 103 -1 #SUP: 3
27 -1 113 -1 #SUP: 2
27 -1 129 -1 #SUP: 4
27 -1 140 -1 #SUP: 2
27 -1 244 -1 #SUP: 2
27 -1 249 -1 #SUP: 3
27 -1 277 -1 #SUP: 2
27 -1 287 -1 #SUP: 2
27 -1 497 -1 #SUP: 3
28 -1 26 -1 #SUP: 2
31 -1 0 -1 #SUP: 2
31 -1 2 -1 #SUP: 3
31 -1 17 -1 #SUP: 2
31 -1 27 -1 #SUP: 3
31 -1 33 -1 #SUP: 4
31 -1 95 -1 #SUP: 2
31 -1 254 -1 #SUP: 2
31 -1 306 -1 #SUP: 2
31 -1 316 -1 #SUP: 2
31 -1 497 -1 #SUP: 2
33 -1 0 -1 #SUP: 2
33 -1 2 -1 #SUP: 3
33 -1 3 -1 #SUP: 2
33 -1 9 -1 #SUP: 2
33 -1 14 -1 #SUP: 2
33 -1 27 -1 #SUP: 5
33 -1 31 -1 #SUP: 3
33 -1 35 -1 #SUP: 3
33 -1 40 -1 #SUP: 3
33 -1 47 -1 #SUP: 2
33 -1 71 -1 #SUP: 2
33 -1 84 -1 #SUP: 3
33 -1 105 -1 #SUP: 2
33 -1 129 -1 #SUP: 2
33 -1 161 -1 #SUP: 2
33 -1 189 -1 #SUP: 2
33 -1 216 -1 #SUP: 2
33 -1 261 -1 #SUP: 2
33 -1 277 -1 #SUP: 2
33 -1 327 -1 #SUP: 2
33 -1 446 -1 #SUP: 2
33 -1 1800 -1 #SUP: 2
33 -1 2307 -1 #SUP: 2
38 -1 20 -1 #SUP: 2
38 -1 47 -1 #SUP: 2
38 -1 123 -1 #SUP: 2
38 -1 267 -1 #SUP: 2
39 -1 2 -1 #SUP: 4
39 -1 56 -1 #SUP: 2
39 -1 65 -1 #SUP: 2
40 -1 0 -1 #SUP: 2
40 -1 2 -1 #SUP: 4
40 -1 27 -1 #SUP: 2
40 -1 31 -1 #SUP: 4
40 -1 33 -1 #SUP: 7
40 -1 35 -1 #SUP: 2
40 -1 71 -1 #SUP: 2
40 -1 84 -1 #SUP: 2
40 -1 323 -1 #SUP: 2
56 -1 2 -1 #SUP: 2
56 -1 497 -1 #SUP: 2
65 -1 2 -1 #SUP: 2
65 -1 38 -1 #SUP: 2
76 -1 2 -1 #SUP: 2
81 -1 47 -1 #SUP: 2
84 -1 73 -1 #SUP: 2
84 -1 95 -1 #SUP: 2
84 -1 203 -1 #SUP: 2
84 -1 366 -1 #SUP: 2
87 -1 2 -1 #SUP: 3
87 -1 27 -1 #SUP: 2
87 -1 95 -1 #SUP: 2
87 -1 142 -1 #SUP: 2
87 -1 497 -1 #SUP: 2
95 -1 0 -1 #SUP: 3
95 -1 2 -1 #SUP: 3
95 -1 5 -1 #SUP: 2
95 -1 26 -1 #SUP: 2
95 -1 27 -1 #SUP: 6
95 -1 31 -1 #SUP: 2
95 -1 33 -1 #SUP: 3
95 -1 38 -1 #SUP: 2
95 -1 39 -1 #SUP: 3
95 -1 65 -1 #SUP: 2
95 -1 87 -1 #SUP: 2
95 -1 95 -1 #SUP: 2
95 -1 103 -1 #SUP: 2
95 -1 119 -1 #SUP: 2
95 -1 142 -1 #SUP: 5
95 -1 203 -1 #SUP: 6
95 -1 249 -1 #SUP: 2
95 -1 497 -1 #SUP: 4
95 -1 1035 -1 #SUP: 2
95 -1 2530 -1 #SUP: 2
103 -1 2 -1 #SUP: 2
103 -1 27 -1 #SUP: 3
103 -1 33 -1 #SUP: 3
103 -1 39 -1 #SUP: 2
103 -1 41 -1 #SUP: 3
103 -1 84 -1 #SUP: 4
103 -1 87 -1 #SUP: 2
103 -1 95 -1 #SUP: 2
103 -1 287 -1 #SUP: 2
103 -1 366 -1 #SUP: 2
103 -1 2055 -1 #SUP: 2
105 -1 47 -1 #SUP: 2
119 -1 172 -1 #SUP: 2
119 -1 295 -1 #SUP: 2
121 -1 497 -1 #SUP: 2
129 -1 27 -1 #SUP: 2
129 -1 113 -1 #SUP: 2
129 -1 932 -1 #SUP: 2
134 -1 39 -1 #SUP: 2
135 -1 27 -1 #SUP: 2
138 -1 27 -1 #SUP: 2
142 -1 0 -1 #SUP: 2
142 -1 27 -1 #SUP: 7
142 -1 103 -1 #SUP: 2
142 -1 129 -1 #SUP: 2
142 -1 249 -1 #SUP: 3
142 -1 497 -1 #SUP: 3
144 -1 2 -1 #SUP: 2
172 -1 2 -1 #SUP: 4
172 -1 26 -1 #SUP: 2
172 -1 27 -1 #SUP: 2
172 -1 28 -1 #SUP: 2
172 -1 31 -1 #SUP: 2
172 -1 87 -1 #SUP: 2
183 -1 0 -1 #SUP: 2
183 -1 2 -1 #SUP: 2
183 -1 27 -1 #SUP: 2
183 -1 95 -1 #SUP: 3
183 -1 497 -1 #SUP: 3
189 -1 27 -1 #SUP: 2
189 -1 129 -1 #SUP: 2
189 -1 932 -1 #SUP: 2
203 -1 2 -1 #SUP: 2
203 -1 26 -1 #SUP: 2
203 -1 27 -1 #SUP: 2
203 -1 33 -1 #SUP: 3
203 -1 39 -1 #SUP: 2
203 -1 65 -1 #SUP: 2
203 -1 87 -1 #SUP: 2
203 -1 1035 -1 #SUP: 2
228 -1 47 -1 #SUP: 2
240 -1 119 -1 #SUP: 2
240 -1 295 -1 #SUP: 2
240 -1 877 -1 #SUP: 2
244 -1 27 -1 #SUP: 2
244 -1 189 -1 #SUP: 2
249 -1 103 -1 #SUP: 2
256 -1 2 -1 #SUP: 4
256 -1 172 -1 #SUP: 2
261 -1 73 -1 #SUP: 2
267 -1 20 -1 #SUP: 2
271 -1 119 -1 #SUP: 3
271 -1 172 -1 #SUP: 2
271 -1 240 -1 #SUP: 2
271 -1 295 -1 #SUP: 2
271 -1 877 -1 #SUP: 2
323 -1 33 -1 #SUP: 2
378 -1 2 -1 #SUP: 4
378 -1 27 -1 #SUP: 2
420 -1 73 -1 #SUP: 2
494 -1 2 -1 #SUP: 3
494 -1 27 -1 #SUP: 3
494 -1 95 -1 #SUP: 2
494 -1 142 -1 #SUP: 2
494 -1 249 -1 #SUP: 2
494 -1 497 -1 #SUP: 2
497 -1 0 -1 #SUP: 3
497 -1 2 -1 #SUP: 6
497 -1 14 -1 #SUP: 2
497 -1 27 -1 #SUP: 5
497 -1 31 -1 #SUP: 2
497 -1 39 -1 #SUP: 2
497 -1 87 -1 #SUP: 2
497 -1 95 -1 #SUP: 3
497 -1 142 -1 #SUP: 2
497 -1 203 -1 #SUP: 2
497 -1 249 -1 #SUP: 2
497 -1 497 -1 #SUP: 3
768 -1 1417 -1 #SUP: 2
877 -1 119 -1 #SUP: 2
877 -1 295 -1 #SUP: 2
1057 -1 27 -1 #SUP: 2
1699 -1 33 -1 #SUP: 2
1699 -1 261 -1 #SUP: 2
1800 -1 2 -1 #SUP: 2
4952 -1 0 -1 #SUP: 3
4952 -1 2 -1 #SUP: 5
4952 -1 26 -1 #SUP: 2
4952 -1 27 -1 #SUP: 2
4952 -1 33 -1 #SUP: 2
4952 -1 240 -1 #SUP: 2
0 -1 0 -1 2 -1 #SUP: 2
0 -1 2 -1 33 -1 #SUP: 2
0 -1 2 -1 95 -1 #SUP: 5
0 -1 2 -1 497 -1 #SUP: 2
0 -1 14 -1 2 -1 #SUP: 3
0 -1 14 -1 27 -1 #SUP: 2
0 -1 14 -1 38 -1 #SUP: 2
0 -1 14 -1 95 -1 #SUP: 2
0 -1 14 -1 103 -1 #SUP: 2
0 -1 31 -1 95 -1 #SUP: 2
0 -1 95 -1 497 -1 #SUP: 2
0 -1 103 -1 2 -1 #SUP: 2
0 -1 103 -1 287 -1 #SUP: 2
0 -1 497 -1 31 -1 #SUP: 2
0 -1 497 -1 95 -1 #SUP: 2
2 -1 0 -1 2 -1 #SUP: 3
2 -1 0 -1 14 -1 #SUP: 4
2 -1 0 -1 56 -1 #SUP: 2
2 -1 0 -1 95 -1 #SUP: 2
2 -1 0 -1 103 -1 #SUP: 3
2 -1 0 -1 203 -1 #SUP: 2
2 -1 2 -1 27 -1 #SUP: 6
2 -1 2 -1 33 -1 #SUP: 2
2 -1 2 -1 38 -1 #SUP: 2
2 -1 2 -1 56 -1 #SUP: 2
2 -1 2 -1 95 -1 #SUP: 4
2 -1 2 -1 142 -1 #SUP: 2
2 -1 2 -1 249 -1 #SUP: 2
2 -1 2 -1 497 -1 #SUP: 2
2 -1 3 -1 1476 -1 #SUP: 2
2 -1 6 -1 5 -1 #SUP: 2
2 -1 6 -1 27 -1 #SUP: 2
2 -1 6 -1 47 -1 #SUP: 2
2 -1 6 -1 95 -1 #SUP: 2
2 -1 14 -1 103 -1 #SUP: 2
2 -1 17 -1 306 -1 #SUP: 2
2 -1 20 -1 26 -1 #SUP: 2
2 -1 20 -1 31 -1 #SUP: 2
2 -1 27 -1 0 -1 #SUP: 4
2 -1 27 -1 14 -1 #SUP: 2
2 -1 27 -1 33 -1 #SUP: 2
2 -1 27 -1 39 -1 #SUP: 2
2 -1 27 -1 103 -1 #SUP: 2
2 -1 27 -1 113 -1 #SUP: 2
2 -1 27 -1 129 -1 #SUP: 3
2 -1 27 -1 249 -1 #SUP: 2
2 -1 28 -1 26 -1 #SUP: 2
2 -1 38 -1 20 -1 #SUP: 2
2 -1 38 -1 267 -1 #SUP: 2
2 -1 39 -1 65 -1 #SUP: 2
2 -1 65 -1 38 -1 #SUP: 2
2 -1 84 -1 203 -1 #SUP: 2
2 -1 95 -1 0 -1 #SUP: 2
2 -1 95 -1 2 -1 #SUP: 3
2 -1 95 -1 5 -1 #SUP: 2
2 -1 95 -1 27 -1 #SUP: 6
2 -1 95 -1 31 -1 #SUP: 2
2 -1 95 -1 33 -1 #SUP: 2
2 -1 95 -1 38 -1 #SUP: 2
2 -1 95 -1 39 -1 #SUP: 3
2 -1 95 -1 65 -1 #SUP: 2
2 -1 95 -1 95 -1 #SUP: 2
2 -1 95 -1 119 -1 #SUP: 2
2 -1 95 -1 142 -1 #SUP: 5
2 -1 95 -1 203 -1 #SUP: 5
2 -1 95 -1 249 -1 #SUP: 2
2 -1 95 -1 497 -1 #SUP: 4
2 -1 95 -1 1035 -1 #SUP: 2
2 -1 95 -1 2530 -1 #SUP: 2
2 -1 129 -1 113 -1 #SUP: 2
2 -1 135 -1 27 -1 #SUP: 2
2 -1 142 -1 27 -1 #SUP: 6
2 -1 142 -1 129 -1 #SUP: 2
2 -1 142 -1 249 -1 #SUP: 2
2 -1 142 -1 497 -1 #SUP: 2
2 -1 172 -1 2 -1 #SUP: 2
2 -1 172 -1 26 -1 #SUP: 2
2 -1 172 -1 28 -1 #SUP: 2
2 -1 183 -1 0 -1 #SUP: 2
2 -1 183 -1 2 -1 #SUP: 2
2 -1 183 -1 27 -1 #SUP: 2
2 -1 183 -1 95 -1 #SUP: 3
2 -1 183 -1 497 -1 #SUP: 2
2 -1 203 -1 33 -1 #SUP: 2
2 -1 203 -1 39 -1 #SUP: 2
2 -1 203 -1 65 -1 #SUP: 2
2 -1 203 -1 1035 -1 #SUP: 2
2 -1 267 -1 20 -1 #SUP: 2
2 -1 271 -1 119 -1 #SUP: 2
2 -1 420 -1 73 -1 #SUP: 2
2 -1 494 -1 2 -1 #SUP: 3
2 -1 494 -1 27 -1 #SUP: 3
2 -1 494 -1 95 -1 #SUP: 2
2 -1 494 -1 142 -1 #SUP: 2
2 -1 494 -1 249 -1 #SUP: 2
2 -1 494 -1 497 -1 #SUP: 2
2 -1 497 -1 0 -1 #SUP: 3
2 -1 497 -1 2 -1 #SUP: 2
2 -1 497 -1 14 -1 #SUP: 2
2 -1 497 -1 27 -1 #SUP: 4
2 -1 497 -1 39 -1 #SUP: 2
2 -1 497 -1 95 -1 #SUP: 2
2 -1 497 -1 249 -1 #SUP: 2
2 -1 4952 -1 2 -1 #SUP: 2
14 -1 2 -1 27 -1 #SUP: 2
14 -1 2 -1 33 -1 #SUP: 2
14 -1 2 -1 95 -1 #SUP: 2
14 -1 27 -1 39 -1 #SUP: 2
27 -1 0 -1 14 -1 #SUP: 2
27 -1 0 -1 103 -1 #SUP: 2
27 -1 0 -1 287 -1 #SUP: 2
27 -1 103 -1 287 -1 #SUP: 2
27 -1 129 -1 113 -1 #SUP: 2
27 -1 249 -1 103 -1 #SUP: 2
27 -1 497 -1 0 -1 #SUP: 2
31 -1 2 -1 33 -1 #SUP: 2
31 -1 27 -1 0 -1 #SUP: 2
31 -1 95 -1 497 -1 #SUP: 2
33 -1 0 -1 14 -1 #SUP: 2
33 -1 2 -1 35 -1 #SUP: 2
33 -1 3 -1 84 -1 #SUP: 2
33 -1 27 -1 277 -1 #SUP: 2
33 -1 40 -1 31 -1 #SUP: 2
38 -1 267 -1 20 -1 #SUP: 2
40 -1 33 -1 2 -1 #SUP: 2
40 -1 33 -1 84 -1 #SUP: 2
40 -1 323 -1 33 -1 #SUP: 2
87 -1 2 -1 27 -1 #SUP: 2
87 -1 2 -1 95 -1 #SUP: 2
87 -1 2 -1 142 -1 #SUP: 2
87 -1 2 -1 497 -1 #SUP: 2
87 -1 95 -1 27 -1 #SUP: 2
87 -1 95 -1 95 -1 #SUP: 2
87 -1 95 -1 142 -1 #SUP: 2
87 -1 95 -1 497 -1 #SUP: 2
87 -1 142 -1 27 -1 #SUP: 2
87 -1 497 -1 27 -1 #SUP: 2
95 -1 27 -1 0 -1 #SUP: 2
95 -1 27 -1 33 -1 #SUP: 2
95 -1 27 -1 249 -1 #SUP: 2
95 -1 39 -1 65 -1 #SUP: 2
95 -1 95 -1 27 -1 #SUP: 2
95 -1 95 -1 142 -1 #SUP: 2
95 -1 142 -1 0 -1 #SUP: 2
95 -1 142 -1 27 -1 #SUP: 5
95 -1 142 -1 249 -1 #SUP: 2
95 -1 142 -1 497 -1 #SUP: 3
95 -1 203 -1 26 -1 #SUP: 2
95 -1 203 -1 33 -1 #SUP: 2
95 -1 203 -1 39 -1 #SUP: 2
95 -1 203 -1 65 -1 #SUP: 2
95 -1 203 -1 87 -1 #SUP: 2
95 -1 203 -1 1035 -1 #SUP: 2
95 -1 497 -1 0 -1 #SUP: 2
95 -1 497 -1 27 -1 #SUP: 3
95 -1 497 -1 249 -1 #SUP: 2
103 -1 84 -1 366 -1 #SUP: 2
142 -1 27 -1 0 -1 #SUP: 2
142 -1 27 -1 103 -1 #SUP: 2
142 -1 27 -1 129 -1 #SUP: 2
142 -1 27 -1 249 -1 #SUP: 3
142 -1 249 -1 103 -1 #SUP: 2
142 -1 497 -1 0 -1 #SUP: 2
142 -1 497 -1 27 -1 #SUP: 2
142 -1 497 -1 249 -1 #SUP: 2
172 -1 2 -1 27 -1 #SUP: 2
172 -1 28 -1 26 -1 #SUP: 2
172 -1 87 -1 2 -1 #SUP: 2
183 -1 0 -1 2 -1 #SUP: 2
183 -1 0 -1 95 -1 #SUP: 2
183 -1 2 -1 95 -1 #SUP: 2
183 -1 95 -1 27 -1 #SUP: 2
183 -1 95 -1 497 -1 #SUP: 2
183 -1 497 -1 27 -1 #SUP: 2
183 -1 497 -1 95 -1 #SUP: 2
189 -1 129 -1 932 -1 #SUP: 2
203 -1 39 -1 65 -1 #SUP: 2
240 -1 119 -1 295 -1 #SUP: 2
240 -1 877 -1 119 -1 #SUP: 2
240 -1 877 -1 295 -1 #SUP: 2
256 -1 2 -1 2 -1 #SUP: 2
256 -1 2 -1 172 -1 #SUP: 2
271 -1 119 -1 172 -1 #SUP: 2
271 -1 119 -1 295 -1 #SUP: 2
271 -1 240 -1 119 -1 #SUP: 2
271 -1 240 -1 295 -1 #SUP: 2
271 -1 240 -1 877 -1 #SUP: 2
271 -1 877 -1 119 -1 #SUP: 2
271 -1 877 -1 295 -1 #SUP: 2
494 -1 2 -1 27 -1 #SUP: 3
494 -1 2 -1 95 -1 #SUP: 2
494 -1 2 -1 142 -1 #SUP: 2
494 -1 2 -1 249 -1 #SUP: 2
494 -1 2 -1 497 -1 #SUP: 2
494 -1 27 -1 249 -1 #SUP: 2
494 -1 95 -1 27 -1 #SUP: 2
494 -1 95 -1 142 -1 #SUP: 2
494 -1 95 -1 249 -1 #SUP: 2
494 -1 95 -1 497 -1 #SUP: 2
494 -1 142 -1 27 -1 #SUP: 2
494 -1 142 -1 249 -1 #SUP: 2
494 -1 142 -1 497 -1 #SUP: 2
494 -1 497 -1 27 -1 #SUP: 2
494 -1 497 -1 249 -1 #SUP: 2
497 -1 0 -1 2 -1 #SUP: 2
497 -1 0 -1 14 -1 #SUP: 2
497 -1 0 -1 95 -1 #SUP: 2
497 -1 2 -1 95 -1 #SUP: 3
497 -1 27 -1 0 -1 #SUP: 2
497 -1 27 -1 249 -1 #SUP: 2
497 -1 27 -1 497 -1 #SUP: 2
497 -1 31 -1 95 -1 #SUP: 2
497 -1 87 -1 2 -1 #SUP: 2
497 -1 87 -1 95 -1 #SUP: 2
497 -1 95 -1 27 -1 #SUP: 2
497 -1 95 -1 142 -1 #SUP: 2
497 -1 203 -1 27 -1 #SUP: 2
497 -1 497 -1 0 -1 #SUP: 2
877 -1 119 -1 295 -1 #SUP: 2
1699 -1 33 -1 261 -1 #SUP: 2
0 -1 2 -1 95 -1 497 -1 #SUP: 2
0 -1 14 -1 2 -1 95 -1 #SUP: 2
0 -1 497 -1 31 -1 95 -1 #SUP: 2
2 -1 0 -1 2 -1 95 -1 #SUP: 2
2 -1 0 -1 14 -1 103 -1 #SUP: 2
2 -1 2 -1 27 -1 249 -1 #SUP: 2
2 -1 2 -1 95 -1 27 -1 #SUP: 3
2 -1 2 -1 95 -1 142 -1 #SUP: 2
2 -1 2 -1 95 -1 249 -1 #SUP: 2
2 -1 2 -1 95 -1 497 -1 #SUP: 2
2 -1 2 -1 142 -1 27 -1 #SUP: 2
2 -1 2 -1 142 -1 249 -1 #SUP: 2
2 -1 2 -1 142 -1 497 -1 #SUP: 2
2 -1 2 -1 497 -1 27 -1 #SUP: 2
2 -1 2 -1 497 -1 249 -1 #SUP: 2
2 -1 27 -1 0 -1 14 -1 #SUP: 2
2 -1 27 -1 0 -1 103 -1 #SUP: 2
2 -1 27 -1 129 -1 113 -1 #SUP: 2
2 -1 38 -1 267 -1 20 -1 #SUP: 2
2 -1 95 -1 27 -1 33 -1 #SUP: 2
2 -1 95 -1 27 -1 249 -1 #SUP: 2
2 -1 95 -1 39 -1 65 -1 #SUP: 2
2 -1 95 -1 95 -1 27 -1 #SUP: 2
2 -1 95 -1 95 -1 142 -1 #SUP: 2
2 -1 95 -1 142 -1 27 -1 #SUP: 5
2 -1 95 -1 142 -1 249 -1 #SUP: 2
2 -1 95 -1 142 -1 497 -1 #SUP: 2
2 -1 95 -1 203 -1 39 -1 #SUP: 2
2 -1 95 -1 203 -1 65 -1 #SUP: 2
2 -1 95 -1 203 -1 1035 -1 #SUP: 2
2 -1 95 -1 497 -1 27 -1 #SUP: 3
2 -1 95 -1 497 -1 249 -1 #SUP: 2
2 -1 142 -1 27 -1 129 -1 #SUP: 2
2 -1 142 -1 27 -1 249 -1 #SUP: 2
2 -1 142 -1 497 -1 27 -1 #SUP: 2
2 -1 142 -1 497 -1 249 -1 #SUP: 2
2 -1 172 -1 28 -1 26 -1 #SUP: 2
2 -1 183 -1 0 -1 2 -1 #SUP: 2
2 -1 183 -1 0 -1 95 -1 #SUP: 2
2 -1 183 -1 2 -1 95 -1 #SUP: 2
2 -1 183 -1 95 -1 27 -1 #SUP: 2
2 -1 183 -1 497 -1 27 -1 #SUP: 2
2 -1 183 -1 497 -1 95 -1 #SUP: 2
2 -1 203 -1 39 -1 65 -1 #SUP: 2
2 -1 494 -1 2 -1 27 -1 #SUP: 3
2 -1 494 -1 2 -1 95 -1 #SUP: 2
2 -1 494 -1 2 -1 142 -1 #SUP: 2
2 -1 494 -1 2 -1 249 -1 #SUP: 2
2 -1 494 -1 2 -1 497 -1 #SUP: 2
2 -1 494 -1 27 -1 249 -1 #SUP: 2
2 -1 494 -1 95 -1 27 -1 #SUP: 2
2 -1 494 -1 95 -1 142 -1 #SUP: 2
2 -1 494 -1 95 -1 249 -1 #SUP: 2
2 -1 494 -1 95 -1 497 -1 #SUP: 2
2 -1 494 -1 142 -1 27 -1 #SUP: 2
2 -1 494 -1 142 -1 249 -1 #SUP: 2
2 -1 494 -1 142 -1 497 -1 #SUP: 2
2 -1 494 -1 497 -1 27 -1 #SUP: 2
2 -1 494 -1 497 -1 249 -1 #SUP: 2
2 -1 497 -1 0 -1 14 -1 #SUP: 2
2 -1 497 -1 27 -1 249 -1 #SUP: 2
2 -1 497 -1 95 -1 27 -1 #SUP: 2
27 -1 0 -1 103 -1 287 -1 #SUP: 2
87 -1 2 -1 95 -1 27 -1 #SUP: 2
87 -1 2 -1 95 -1 95 -1 #SUP: 2
87 -1 2 -1 95 -1 142 -1 #SUP: 2
87 -1 2 -1 95 -1 497 -1 #SUP: 2
87 -1 2 -1 142 -1 27 -1 #SUP: 2
87 -1 2 -1 497 -1 27 -1 #SUP: 2
87 -1 95 -1 95 -1 27 -1 #SUP: 2
87 -1 95 -1 95 -1 142 -1 #SUP: 2
87 -1 95 -1 142 -1 27 -1 #SUP: 2
87 -1 95 -1 497 -1 27 -1 #SUP: 2
95 -1 95 -1 142 -1 27 -1 #SUP: 2
95 -1 142 -1 27 -1 0 -1 #SUP: 2
95 -1 142 -1 27 -1 249 -1 #SUP: 2
95 -1 142 -1 497 -1 0 -1 #SUP: 2
95 -1 142 -1 497 -1 27 -1 #SUP: 2
95 -1 142 -1 497 -1 249 -1 #SUP: 2
95 -1 203 -1 39 -1 65 -1 #SUP: 2
95 -1 497 -1 27 -1 249 -1 #SUP: 2
142 -1 27 -1 249 -1 103 -1 #SUP: 2
142 -1 497 -1 27 -1 249 -1 #SUP: 2
183 -1 0 -1 2 -1 95 -1 #SUP: 2
183 -1 497 -1 95 -1 27 -1 #SUP: 2
240 -1 877 -1 119 -1 295 -1 #SUP: 2
271 -1 240 -1 119 -1 295 -1 #SUP: 2
271 -1 240 -1 877 -1 119 -1 #SUP: 2
271 -1 240 -1 877 -1 295 -1 #SUP: 2
271 -1 877 -1 119 -1 295 -1 #SUP: 2
494 -1 2 -1 27 -1 249 -1 #SUP: 2
494 -1 2 -1 95 -1 27 -1 #SUP: 2
494 -1 2 -1 95 -1 142 -1 #SUP: 2
494 -1 2 -1 95 -1 249 -1 #SUP: 2
494 -1 2 -1 95 -1 497 -1 #SUP: 2
494 -1 2 -1 142 -1 27 -1 #SUP: 2
494 -1 2 -1 142 -1 249 -1 #SUP: 2
494 -1 2 -1 142 -1 497 -1 #SUP: 2
494 -1 2 -1 497 -1 27 -1 #SUP: 2
494 -1 2 -1 497 -1 249 -1 #SUP: 2
494 -1 95 -1 27 -1 249 -1 #SUP: 2
494 -1 95 -1 142 -1 27 -1 #SUP: 2
494 -1 95 -1 142 -1 249 -1 #SUP: 2
494 -1 95 -1 142 -1 497 -1 #SUP: 2
494 -1 95 -1 497 -1 27 -1 #SUP: 2
494 -1 95 -1 497 -1 249 -1 #SUP: 2
494 -1 142 -1 27 -1 249 -1 #SUP: 2
494 -1 142 -1 497 -1 27 -1 #SUP: 2
494 -1 142 -1 497 -1 249 -1 #SUP: 2
494 -1 497 -1 27 -1 249 -1 #SUP: 2
497 -1 0 -1 2 -1 95 -1 #SUP: 2
497 -1 87 -1 2 -1 95 -1 #SUP: 2
2 -1 2 -1 95 -1 27 -1 249 -1 #SUP: 2
2 -1 2 -1 95 -1 142 -1 27 -1 #SUP: 2
2 -1 2 -1 95 -1 142 -1 249 -1 #SUP: 2
2 -1 2 -1 95 -1 142 -1 497 -1 #SUP: 2
2 -1 2 -1 95 -1 497 -1 27 -1 #SUP: 2
2 -1 2 -1 95 -1 497 -1 249 -1 #SUP: 2
2 -1 2 -1 142 -1 27 -1 249 -1 #SUP: 2
2 -1 2 -1 142 -1 497 -1 27 -1 #SUP: 2
2 -1 2 -1 142 -1 497 -1 249 -1 #SUP: 2
2 -1 2 -1 497 -1 27 -1 249 -1 #SUP: 2
2 -1 95 -1 95 -1 142 -1 27 -1 #SUP: 2
2 -1 95 -1 142 -1 27 -1 249 -1 #SUP: 2
2 -1 95 -1 142 -1 497 -1 27 -1 #SUP: 2
2 -1 95 -1 142 -1 497 -1 249 -1 #SUP: 2
2 -1 95 -1 203 -1 39 -1 65 -1 #SUP: 2
2 -1 95 -1 497 -1 27 -1 249 -1 #SUP: 2
2 -1 142 -1 497 -1 27 -1 249 -1 #SUP: 2
2 -1 183 -1 0 -1 2 -1 95 -1 #SUP: 2
2 -1 183 -1 497 -1 95 -1 27 -1 #SUP: 2
2 -1 494 -1 2 -1 27 -1 249 -1 #SUP: 2
2 -1 494 -1 2 -1 95 -1 27 -1 #SUP: 2
2 -1 494 -1 2 -1 95 -1 142 -1 #SUP: 2
2 -1 494 -1 2 -1 95 -1 249 -1 #SUP: 2
2 -1 494 -1 2 -1 95 -1 497 -1 #SUP: 2
2 -1 494 -1 2 -1 142 -1 27 -1 #SUP: 2
2 -1 494 -1 2 -1 142 -1 249 -1 #SUP: 2
2 -1 494 -1 2 -1 142 -1 497 -1 #SUP: 2
2 -1 494 -1 2 -1 497 -1 27 -1 #SUP: 2
2 -1 494 -1 2 -1 497 -1 249 -1 #SUP: 2
2 -1 494 -1 95 -1 27 -1 249 -1 #SUP: 2
2 -1 494 -1 95 -1 142 -1 27 -1 #SUP: 2
2 -1 494 -1 95 -1 142 -1 249 -1 #SUP: 2
2 -1 494 -1 95 -1 142 -1 497 -1 #SUP: 2
2 -1 494 -1 95 -1 497 -1 27 -1 #SUP: 2
2 -1 494 -1 95 -1 497 -1 249 -1 #SUP: 2
2 -1 494 -1 142 -1 27 -1 249 -1 #SUP: 2
2 -1 494 -1 142 -1 497 -1 27 -1 #SUP: 2
2 -1 494 -1 142 -1 497 -1 249 -1 #SUP: 2
2 -1 494 -1 497 -1 27 -1 249 -1 #SUP: 2
87 -1 2 -1 95 -1 95 -1 27 -1 #SUP: 2
87 -1 2 -1 95 -1 95 -1 142 -1 #SUP: 2
87 -1 2 -1 95 -1 142 -1 27 -1 #SUP: 2
87 -1 2 -1 95 -1 497 -1 27 -1 #SUP: 2
87 -1 95 -1 95 -1 142 -1 27 -1 #SUP: 2
95 -1 142 -1 497 -1 27 -1 249 -1 #SUP: 2
271 -1 240 -1 877 -1 119 -1 295 -1 #SUP: 2
494 -1 2 -1 95 -1 27 -1 249 -1 #SUP: 2
494 -1 2 -1 95 -1 142 -1 27 -1 #SUP: 2
494 -1 2 -1 95 -1 142 -1 249 -1 #SUP: 2
494 -1 2 -1 95 -1 142 -1 497 -1 #SUP: 2
494 -1 2 -1 95 -1 497 -1 27 -1 #SUP: 2
494 -1 2 -1 95 -1 497 -1 249 -1 #SUP: 2
494 -1 2 -1 142 -1 27 -1 249 -1 #SUP: 2
494 -1 2 -1 142 -1 497 -1 27 -1 #SUP: 2
494 -1 2 -1 142 -1 497 -1 249 -1 #SUP: 2
494 -1 2 -1 497 -1 27 -1 249 -1 #SUP: 2
494 -1 95 -1 142 -1 27 -1 249 -1 #SUP: 2
494 -1 95 -1 142 -1 497 -1 27 -1 #SUP: 2
494 -1 95 -1 142 -1 497 -1 249 -1 #SUP: 2
494 -1 95 -1 497 -1 27 -1 249 -1 #SUP: 2
494 -1 142 -1 497 -1 27 -1 249 -1 #SUP: 2
2 -1 2 -1 95 -1 142 -1 27 -1 249 -1 #SUP: 2
2 -1 2 -1 95 -1 142 -1 497 -1 27 -1 #SUP: 2
2 -1 2 -1 95 -1 142 -1 497 -1 249 -1 #SUP: 2
2 -1 2 -1 95 -1 497 -1 27 -1 249 -1 #SUP: 2
2 -1 2 -1 142 -1 497 -1 27 -1 249 -1 #SUP: 2
2 -1 95 -1 142 -1 497 -1 27 -1 249 -1 #SUP: 2
2 -1 494 -1 2 -1 95 -1 27 -1 249 -1 #SUP: 2
2 -1 494 -1 2 -1 95 -1 142 -1 27 -1 #SUP: 2
2 -1 494 -1 2 -1 95 -1 142 -1 249 -1 #SUP: 2
2 -1 494 -1 2 -1 95 -1 142 -1 497 -1 #SUP: 2
2 -1 494 -1 2 -1 95 -1 497 -1 27 -1 #SUP: 2
2 -1 494 -1 2 -1 95 -1 497 -1 249 -1 #SUP: 2
2 -1 494 -1 2 -1 142 -1 27 -1 249 -1 #SUP: 2
2 -1 494 -1 2 -1 142 -1 497 -1 27 -1 #SUP: 2
2 -1 494 -1 2 -1 142 -1 497 -1 249 -1 #SUP: 2
2 -1 494 -1 2 -1 497 -1 27 -1 249 -1 #SUP: 2
2 -1 494 -1 95 -1 142 -1 27 -1 249 -1 #SUP: 2
2 -1 494 -1 95 -1 142 -1 497 -1 27 -1 #SUP: 2
2 -1 494 -1 95 -1 142 -1 497 -1 249 -1 #SUP: 2
2 -1 494 -1 95 -1 497 -1 27 -1 249 -1 #SUP: 2
2 -1 494 -1 142 -1 497 -1 27 -1 249 -1 #SUP: 2
87 -1 2 -1 95 -1 95 -1 142 -1 27 -1 #SUP: 2
494 -1 2 -1 95 -1 142 -1 27 -1 249 -1 #SUP: 2
494 -1 2 -1 95 -1 142 -1 497 -1 27 -1 #SUP: 2
494 -1 2 -1 95 -1 142 -1 497 -1 249 -1 #SUP: 2
494 -1 2 -1 95 -1 497 -1 27 -1 249 -1 #SUP: 2
494 -1 2 -1 142 -1 497 -1 27 -1 249 -1 #SUP: 2
494 -1 95 -1 142 -1 497 -1 27 -1 249 -1 #SUP: 2
2 -1 2 -1 95 -1 142 -1 497 -1 27 -1 249 -1 #SUP: 2
2 -1 494 -1 2 -1 95 -1 142 -1 27 -1 249 -1 #SUP: 2
2 -1 494 -1 2 -1 95 -1 142 -1 497 -1 27 -1 #SUP: 2
2 -1 494 -1 2 -1 95 -1 142 -1 497 -1 249 -1 #SUP: 2
2 -1 494 -1 2 -1 95 -1 497 -1 27 -1 249 -1 #SUP: 2
2 -1 494 -1 2 -1 142 -1 497 -1 27 -1 249 -1 #SUP: 2
2 -1 494 -1 95 -1 142 -1 497 -1 27 -1 249 -1 #SUP: 2
494 -1 2 -1 95 -1 142 -1 497 -1 27 -1 249 -1 #SUP: 2
2 -1 494 -1 2 -1 95 -1 142 -1 497 -1 27 -1 249 -1 #SUP: 2
