0 -1 #SUP: 25
1 -1 #SUP: 5
2 -1 #SUP: 72
3 -1 #SUP: 16
4 -1 #SUP: 2
5 -1 #SUP: 2
6 -1 #SUP: 4
9 -1 #SUP: 2
10 -1 #SUP: 2
11 -1 #SUP: 6
12 -1 #SUP: 3
13 -1 #SUP: 2
14 -1 #SUP: 11
17 -1 #SUP: 9
18 -1 #SUP: 4
20 -1 #SUP: 12
21 -1 #SUP: 3
26 -1 #SUP: 2
27 -1 #SUP: 20
31 -1 #SUP: 15
32 -1 #SUP: 9
33 -1 #SUP: 31
35 -1 #SUP: 12
38 -1 #SUP: 13
39 -1 #SUP: 7
40 -1 #SUP: 17
41 -1 #SUP: 6
47 -1 #SUP: 16
51 -1 #SUP: 2
56 -1 #SUP: 10
57 -1 #SUP: 2
61 -1 #SUP: 3
62 -1 #SUP: 2
64 -1 #SUP: 3
65 -1 #SUP: 4
66 -1 #SUP: 2
67 -1 #SUP: 4
71 -1 #SUP: 2
73 -1 #SUP: 5
76 -1 #SUP: 5
80 -1 #SUP: 2
81 -1 #SUP: 4
84 -1 #SUP: 4
85 -1 #SUP: 2
87 -1 #SUP: 19
92 -1 #SUP: 5
95 -1 #SUP: 7
98 -1 #SUP: 2
99 -1 #SUP: 3
102 -1 #SUP: 3
103 -1 #SUP: 7
105 -1 #SUP: 11
112 -1 #SUP: 8
113 -1 #SUP: 4
117 -1 #SUP: 3
119 -1 #SUP: 2
123 -1 #SUP: 5
129 -1 #SUP: 6
132 -1 #SUP: 2
135 -1 #SUP: 3
136 -1 #SUP: 3
138 -1 #SUP: 2
141 -1 #SUP: 2
142 -1 #SUP: 2
143 -1 #SUP: 2
144 -1 #SUP: 3
146 -1 #SUP: 2
154 -1 #SUP: 2
156 -1 #SUP: 3
158 -1 #SUP: 2
161 -1 #SUP: 2
169 -1 #SUP: 5
172 -1 #SUP: 3
175 -1 #SUP: 4
189 -1 #SUP: 2
196 -1 #SUP: 2
201 -1 #SUP: 2
202 -1 #SUP: 2
203 -1 #SUP: 15
211 -1 #SUP: 2
216 -1 #SUP: 6
227 -1 #SUP: 2
230 -1 #SUP: 2
240 -1 #SUP: 6
244 -1 #SUP: 5
254 -1 #SUP: 2
256 -1 #SUP: 2
257 -1 #SUP: 2
260 -1 #SUP: 2
264 -1 #SUP: 2
270 -1 #SUP: 4
271 -1 #SUP: 5
274 -1 #SUP: 3
275 -1 #SUP: 6
279 -1 #SUP: 3
288 -1 #SUP: 2
298 -1 #SUP: 2
304 -1 #SUP: 3
310 -1 #SUP: 2
317 -1 #SUP: 2
339 -1 #SUP: 2
352 -1 #SUP: 2
356 -1 #SUP: 2
364 -1 #SUP: 3
373 -1 #SUP: 2
378 -1 #SUP: 2
384 -1 #SUP: 2
394 -1 #SUP: 3
420 -1 #SUP: 7
424 -1 #SUP: 2
476 -1 #SUP: 2
497 -1 #SUP: 4
537 -1 #SUP: 2
632 -1 #SUP: 2
640 -1 #SUP: 7
645 -1 #SUP: 5
688 -1 #SUP: 3
734 -1 #SUP: 2
762 -1 #SUP: 2
796 -1 #SUP: 2
834 -1 #SUP: 2
856 -1 #SUP: 2
857 -1 #SUP: 2
922 -1 #SUP: 2
1051 -1 #SUP: 3
1052 -1 #SUP: 2
1076 -1 #SUP: 2
1102 -1 #SUP: 3
1157 -1 #SUP: 2
1162 -1 #SUP: 2
1175 -1 #SUP: 2
1229 -1 #SUP: 3
1254 -1 #SUP: 2
1338 -1 #SUP: 2
1676 -1 #SUP: 2
1717 -1 #SUP: 2
1824 -1 #SUP: 2
2053 -1 #SUP: 2
2139 -1 #SUP: 4
2757 -1 #SUP: 2
2866 -1 #SUP: 2
3273 -1 #SUP: 2
4731 -1 #SUP: 2
5552 -1 #SUP: 2
6135 -1 #SUP: 3
11003 -1 #SUP: 4
20894 -1 #SUP: 2
20901 -1 #SUP: 2
0 -1 0 -1 #SUP: 4
0 -1 1 -1 #SUP: 2
0 -1 2 -1 #SUP: 8
0 -1 11 -1 #SUP: 2
0 -1 14 -1 #SUP: 3
0 -1 31 -1 #SUP: 4
0 -1 33 -1 #SUP: 3
0 -1 38 -1 #SUP: 3
0 -1 40 -1 #SUP: 2
0 -1 41 -1 #SUP: 2
0 -1 112 -1 #SUP: 2
0 -1 227 -1 #SUP: 2
0 -1 304 -1 #SUP: 2
0 -1 364 -1 #SUP: 3
1 -1 2 -1 #SUP: 2
1 -1 11 -1 #SUP: 2
1 -1 12 -1 #SUP: 2
1 -1 373 -1 #SUP: 2
1 -1 20894 -1 #SUP: 2
2 -1 0 -1 #SUP: 10
2 -1 1 -1 #SUP: 3
2 -1 2 -1 #SUP: 10
2 -1 3 -1 #SUP: 6
2 -1 5 -1 #SUP: 2
2 -1 6 -1 #SUP: 3
2 -1 11 -1 #SUP: 5
2 -1 12 -1 #SUP: 3
2 -1 17 -1 #SUP: 8
2 -1 20 -1 #SUP: 4
2 -1 21 -1 #SUP: 3
2 -1 27 -1 #SUP: 10
2 -1 31 -1 #SUP: 4
2 -1 33 -1 #SUP: 10
2 -1 35 -1 #SUP: 4
2 -1 38 -1 #SUP: 2
2 -1 39 -1 #SUP: 3
2 -1 40 -1 #SUP: 8
2 -1 47 -1 #SUP: 5
2 -1 56 -1 #SUP: 6
2 -1 61 -1 #SUP: 2
2 -1 65 -1 #SUP: 2
2 -1 73 -1 #SUP: 2
2 -1 76 -1 #SUP: 4
2 -1 80 -1 #SUP: 2
2 -1 84 -1 #SUP: 3
2 -1 87 -1 #SUP: 10
2 -1 92 -1 #SUP: 3
2 -1 95 -1 #SUP: 4
2 -1 103 -1 #SUP: 2
2 -1 105 -1 #SUP: 7
2 -1 112 -1 #SUP: 4
2 -1 113 -1 #SUP: 2
2 -1 129 -1 #SUP: 4
2 -1 135 -1 #SUP: 2
2 -1 142 -1 #SUP: 2
2 -1 156 -1 #SUP: 3
2 -1 172 -1 #SUP: 3
2 -1 175 -1 #SUP: 3
2 -1 203 -1 #SUP: 13
2 -1 216 -1 #SUP: 3
2 -1 227 -1 #SUP: 2
2 -1 240 -1 #SUP: 2
2 -1 257 -1 #SUP: 2
2 -1 270 -1 #SUP: 3
2 -1 271 -1 #SUP: 5
2 -1 275 -1 #SUP: 4
2 -1 279 -1 #SUP: 2
2 -1 298 -1 #SUP: 2
2 -1 304 -1 #SUP: 3
2 -1 310 -1 #SUP: 2
2 -1 317 -1 #SUP: 2
2 -1 364 -1 #SUP: 3
2 -1 373 -1 #SUP: 2
2 -1 394 -1 #SUP: 2
2 -1 420 -1 #SUP: 7
2 -1 476 -1 #SUP: 2
2 -1 645 -1 #SUP: 5
2 -1 688 -1 #SUP: 2
2 -1 734 -1 #SUP: 2
2 -1 762 -1 #SUP: 2
2 -1 922 -1 #SUP: 2
2 -1 1254 -1 #SUP: 2
2 -1 2139 -1 #SUP: 3
2 -1 3273 -1 #SUP: 2
2 -1 11003 -1 #SUP: 2
3 -1 0 -1 #SUP: 4
3 -1 2 -1 #SUP: 2
3 -1 14 -1 #SUP: 2
3 -1 27 -1 #SUP: 2
3 -1 33 -1 #SUP: 2
3 -1 73 -1 #SUP: 2
3 -1 112 -1 #SUP: 3
3 -1 1676 -1 #SUP: 2
3 -1 2053 -1 #SUP: 2
6 -1 20 -1 #SUP: 2
6 -1 40 -1 #SUP: 2
10 -1 9 -1 #SUP: 2
11 -1 2 -1 #SUP: 3
11 -1 47 -1 #SUP: 2
11 -1 99 -1 #SUP: 2
11 -1 105 -1 #SUP: 2
11 -1 394 -1 #SUP: 2
11 -1 640 -1 #SUP: 2
11 -1 762 -1 #SUP: 2
12 -1 11 -1 #SUP: 3
12 -1 394 -1 #SUP: 2
14 -1 1 -1 #SUP: 2
14 -1 2 -1 #SUP: 8
14 -1 17 -1 #SUP: 2
14 -1 18 -1 #SUP: 2
14 -1 20 -1 #SUP: 2
14 -1 33 -1 #SUP: 2
14 -1 40 -1 #SUP: 2
14 -1 203 -1 #SUP: 3
14 -1 304 -1 #SUP: 2
14 -1 420 -1 #SUP: 2
17 -1 0 -1 #SUP: 2
17 -1 3 -1 #SUP: 2
17 -1 11 -1 #SUP: 2
17 -1 12 -1 #SUP: 2
17 -1 14 -1 #SUP: 2
17 -1 27 -1 #SUP: 4
17 -1 40 -1 #SUP: 2
17 -1 105 -1 #SUP: 2
18 -1 64 -1 #SUP: 2
20 -1 33 -1 #SUP: 2
20 -1 38 -1 #SUP: 2
20 -1 11003 -1 #SUP: 2
21 -1 47 -1 #SUP: 2
27 -1 0 -1 #SUP: 2
27 -1 2 -1 #SUP: 2
27 -1 3 -1 #SUP: 2
27 -1 11 -1 #SUP: 3
27 -1 12 -1 #SUP: 2
27 -1 27 -1 #SUP: 2
27 -1 31 -1 #SUP: 2
27 -1 32 -1 #SUP: 3
27 -1 33 -1 #SUP: 2
27 -1 35 -1 #SUP: 2
27 -1 38 -1 #SUP: 2
27 -1 61 -1 #SUP: 2
27 -1 105 -1 #SUP: 4
27 -1 129 -1 #SUP: 2
27 -1 175 -1 #SUP: 3
31 -1 2 -1 #SUP: 4
31 -1 27 -1 #SUP: 4
31 -1 33 -1 #SUP: 4
31 -1 38 -1 #SUP: 3
31 -1 39 -1 #SUP: 2
31 -1 47 -1 #SUP: 2
31 -1 640 -1 #SUP: 2
32 -1 32 -1 #SUP: 3
32 -1 33 -1 #SUP: 2
32 -1 35 -1 #SUP: 2
32 -1 105 -1 #SUP: 2
33 -1 0 -1 #SUP: 5
33 -1 2 -1 #SUP: 2
33 -1 3 -1 #SUP: 3
33 -1 26 -1 #SUP: 2
33 -1 27 -1 #SUP: 4
33 -1 31 -1 #SUP: 4
33 -1 38 -1 #SUP: 3
33 -1 39 -1 #SUP: 2
33 -1 47 -1 #SUP: 2
33 -1 64 -1 #SUP: 2
33 -1 87 -1 #SUP: 2
33 -1 95 -1 #SUP: 2
33 -1 105 -1 #SUP: 3
33 -1 112 -1 #SUP: 2
33 -1 113 -1 #SUP: 2
33 -1 1051 -1 #SUP: 2
33 -1 2139 -1 #SUP: 2
35 -1 2 -1 #SUP: 3
35 -1 4 -1 #SUP: 2
35 -1 38 -1 #SUP: 2
35 -1 39 -1 #SUP: 2
35 -1 47 -1 #SUP: 2
35 -1 56 -1 #SUP: 2
35 -1 87 -1 #SUP: 3
35 -1 105 -1 #SUP: 3
35 -1 175 -1 #SUP: 2
35 -1 632 -1 #SUP: 2
35 -1 640 -1 #SUP: 2
38 -1 0 -1 #SUP: 2
38 -1 3 -1 #SUP: 2
38 -1 47 -1 #SUP: 7
38 -1 640 -1 #SUP: 5
38 -1 1824 -1 #SUP: 2
39 -1 2 -1 #SUP: 2
39 -1 38 -1 #SUP: 2
39 -1 47 -1 #SUP: 2
39 -1 640 -1 #SUP: 2
40 -1 0 -1 #SUP: 4
40 -1 2 -1 #SUP: 3
40 -1 3 -1 #SUP: 2
40 -1 33 -1 #SUP: 3
40 -1 112 -1 #SUP: 3
40 -1 275 -1 #SUP: 3
40 -1 364 -1 #SUP: 2
41 -1 47 -1 #SUP: 2
47 -1 20 -1 #SUP: 2
47 -1 33 -1 #SUP: 4
47 -1 275 -1 #SUP: 2
47 -1 640 -1 #SUP: 5
56 -1 32 -1 #SUP: 2
56 -1 35 -1 #SUP: 2
56 -1 61 -1 #SUP: 2
56 -1 81 -1 #SUP: 2
56 -1 87 -1 #SUP: 2
56 -1 105 -1 #SUP: 2
65 -1 0 -1 #SUP: 2
65 -1 38 -1 #SUP: 2
65 -1 47 -1 #SUP: 3
65 -1 103 -1 #SUP: 3
67 -1 0 -1 #SUP: 3
67 -1 33 -1 #SUP: 2
67 -1 35 -1 #SUP: 2
67 -1 123 -1 #SUP: 2
67 -1 216 -1 #SUP: 2
76 -1 2 -1 #SUP: 4
76 -1 33 -1 #SUP: 2
80 -1 105 -1 #SUP: 2
84 -1 33 -1 #SUP: 2
84 -1 87 -1 #SUP: 2
85 -1 11 -1 #SUP: 2
85 -1 47 -1 #SUP: 2
85 -1 99 -1 #SUP: 2
87 -1 0 -1 #SUP: 3
87 -1 2 -1 #SUP: 3
87 -1 3 -1 #SUP: 3
87 -1 6 -1 #SUP: 2
87 -1 13 -1 #SUP: 2
87 -1 17 -1 #SUP: 2
87 -1 20 -1 #SUP: 3
87 -1 27 -1 #SUP: 3
87 -1 31 -1 #SUP: 2
87 -1 32 -1 #SUP: 3
87 -1 33 -1 #SUP: 2
87 -1 38 -1 #SUP: 3
87 -1 47 -1 #SUP: 3
87 -1 87 -1 #SUP: 2
87 -1 105 -1 #SUP: 2
87 -1 112 -1 #SUP: 2
87 -1 129 -1 #SUP: 3
87 -1 175 -1 #SUP: 2
87 -1 216 -1 #SUP: 2
87 -1 260 -1 #SUP: 2
87 -1 356 -1 #SUP: 2
92 -1 2 -1 #SUP: 3
92 -1 27 -1 #SUP: 2
92 -1 35 -1 #SUP: 2
95 -1 0 -1 #SUP: 2
95 -1 32 -1 #SUP: 2
95 -1 33 -1 #SUP: 2
95 -1 56 -1 #SUP: 3
95 -1 105 -1 #SUP: 2
95 -1 112 -1 #SUP: 2
95 -1 113 -1 #SUP: 2
95 -1 203 -1 #SUP: 2
99 -1 47 -1 #SUP: 2
102 -1 0 -1 #SUP: 2
103 -1 38 -1 #SUP: 3
103 -1 41 -1 #SUP: 2
103 -1 47 -1 #SUP: 2
105 -1 0 -1 #SUP: 3
105 -1 2 -1 #SUP: 2
105 -1 31 -1 #SUP: 2
105 -1 113 -1 #SUP: 2
105 -1 175 -1 #SUP: 4
112 -1 0 -1 #SUP: 2
112 -1 2 -1 #SUP: 2
112 -1 3 -1 #SUP: 2
112 -1 40 -1 #SUP: 2
113 -1 0 -1 #SUP: 2
119 -1 0 -1 #SUP: 2
123 -1 20 -1 #SUP: 2
123 -1 38 -1 #SUP: 2
123 -1 47 -1 #SUP: 2
123 -1 87 -1 #SUP: 2
129 -1 3 -1 #SUP: 2
129 -1 27 -1 #SUP: 4
129 -1 38 -1 #SUP: 2
135 -1 27 -1 #SUP: 3
136 -1 2 -1 #SUP: 2
136 -1 27 -1 #SUP: 2
136 -1 87 -1 #SUP: 3
136 -1 129 -1 #SUP: 2
142 -1 27 -1 #SUP: 2
143 -1 33 -1 #SUP: 2
144 -1 2 -1 #SUP: 2
144 -1 35 -1 #SUP: 2
144 -1 56 -1 #SUP: 2
144 -1 87 -1 #SUP: 2
172 -1 33 -1 #SUP: 2
175 -1 38 -1 #SUP: 2
203 -1 0 -1 #SUP: 3
203 -1 2 -1 #SUP: 3
203 -1 17 -1 #SUP: 2
203 -1 33 -1 #SUP: 5
203 -1 35 -1 #SUP: 2
203 -1 40 -1 #SUP: 3
203 -1 47 -1 #SUP: 2
203 -1 105 -1 #SUP: 2
203 -1 112 -1 #SUP: 3
203 -1 132 -1 #SUP: 2
203 -1 275 -1 #SUP: 2
216 -1 0 -1 #SUP: 2
216 -1 2 -1 #SUP: 3
216 -1 31 -1 #SUP: 2
216 -1 35 -1 #SUP: 2
216 -1 304 -1 #SUP: 2
216 -1 1076 -1 #SUP: 2
240 -1 35 -1 #SUP: 2
240 -1 1254 -1 #SUP: 2
244 -1 0 -1 #SUP: 2
244 -1 2 -1 #SUP: 2
244 -1 3 -1 #SUP: 2
244 -1 640 -1 #SUP: 2
270 -1 56 -1 #SUP: 2
271 -1 33 -1 #SUP: 3
271 -1 76 -1 #SUP: 2
271 -1 240 -1 #SUP: 2
274 -1 41 -1 #SUP: 2
275 -1 81 -1 #SUP: 2
304 -1 2 -1 #SUP: 2
339 -1 33 -1 #SUP: 2
373 -1 11 -1 #SUP: 2
373 -1 12 -1 #SUP: 2
373 -1 394 -1 #SUP: 2
378 -1 230 -1 #SUP: 2
420 -1 0 -1 #SUP: 2
420 -1 33 -1 #SUP: 2
420 -1 35 -1 #SUP: 2
420 -1 47 -1 #SUP: 2
420 -1 203 -1 #SUP: 5
420 -1 275 -1 #SUP: 2
632 -1 4 -1 #SUP: 2
640 -1 33 -1 #SUP: 2
645 -1 40 -1 #SUP: 4
688 -1 20 -1 #SUP: 3
762 -1 2 -1 #SUP: 2
762 -1 11 -1 #SUP: 2
856 -1 2 -1 #SUP: 2
856 -1 20 -1 #SUP: 2
856 -1 11003 -1 #SUP: 2
1052 -1 1051 -1 #SUP: 2
1076 -1 2 -1 #SUP: 2
1102 -1 1338 -1 #SUP: 2
1162 -1 33 -1 #SUP: 2
1824 -1 0 -1 #SUP: 2
4731 -1 1 -1 #SUP: 2
4731 -1 20894 -1 #SUP: 2
5552 -1 2757 -1 #SUP: 2
0 -1 0 -1 2 -1 #SUP: 2
0 -1 2 -1 227 -1 #SUP: 2
0 -1 14 -1 2 -1 #SUP: 2
0 -1 14 -1 40 -1 #SUP: 2
0 -1 14 -1 304 -1 #SUP: 2
0 -1 31 -1 2 -1 #SUP: 2
0 -1 31 -1 33 -1 #SUP: 2
1 -1 2 -1 11 -1 #SUP: 2
1 -1 2 -1 12 -1 #SUP: 2
1 -1 2 -1 373 -1 #SUP: 2
1 -1 12 -1 11 -1 #SUP: 2
1 -1 373 -1 11 -1 #SUP: 2
1 -1 373 -1 12 -1 #SUP: 2
2 -1 0 -1 364 -1 #SUP: 3
2 -1 2 -1 33 -1 #SUP: 2
2 -1 3 -1 0 -1 #SUP: 2
2 -1 6 -1 40 -1 #SUP: 2
2 -1 11 -1 2 -1 #SUP: 2
2 -1 11 -1 394 -1 #SUP: 2
2 -1 11 -1 762 -1 #SUP: 2
2 -1 12 -1 11 -1 #SUP: 3
2 -1 12 -1 394 -1 #SUP: 2
2 -1 17 -1 0 -1 #SUP: 2
2 -1 17 -1 3 -1 #SUP: 2
2 -1 17 -1 11 -1 #SUP: 2
2 -1 17 -1 12 -1 #SUP: 2
2 -1 17 -1 27 -1 #SUP: 4
2 -1 17 -1 105 -1 #SUP: 2
2 -1 20 -1 11003 -1 #SUP: 2
2 -1 21 -1 47 -1 #SUP: 2
2 -1 27 -1 0 -1 #SUP: 2
2 -1 27 -1 11 -1 #SUP: 2
2 -1 27 -1 12 -1 #SUP: 2
2 -1 27 -1 27 -1 #SUP: 2
2 -1 27 -1 105 -1 #SUP: 3
2 -1 27 -1 129 -1 #SUP: 2
2 -1 27 -1 175 -1 #SUP: 2
2 -1 31 -1 27 -1 #SUP: 2
2 -1 33 -1 0 -1 #SUP: 2
2 -1 33 -1 112 -1 #SUP: 2
2 -1 35 -1 105 -1 #SUP: 2
2 -1 35 -1 175 -1 #SUP: 2
2 -1 39 -1 2 -1 #SUP: 2
2 -1 40 -1 275 -1 #SUP: 2
2 -1 76 -1 2 -1 #SUP: 3
2 -1 76 -1 33 -1 #SUP: 2
2 -1 80 -1 105 -1 #SUP: 2
2 -1 84 -1 33 -1 #SUP: 2
2 -1 84 -1 87 -1 #SUP: 2
2 -1 87 -1 2 -1 #SUP: 2
2 -1 87 -1 3 -1 #SUP: 2
2 -1 87 -1 112 -1 #SUP: 2
2 -1 87 -1 129 -1 #SUP: 2
2 -1 87 -1 216 -1 #SUP: 2
2 -1 95 -1 0 -1 #SUP: 2
2 -1 95 -1 112 -1 #SUP: 2
2 -1 95 -1 203 -1 #SUP: 2
2 -1 105 -1 0 -1 #SUP: 2
2 -1 105 -1 175 -1 #SUP: 3
2 -1 112 -1 0 -1 #SUP: 2
2 -1 129 -1 27 -1 #SUP: 2
2 -1 135 -1 27 -1 #SUP: 2
2 -1 142 -1 27 -1 #SUP: 2
2 -1 172 -1 33 -1 #SUP: 2
2 -1 203 -1 0 -1 #SUP: 2
2 -1 203 -1 2 -1 #SUP: 3
2 -1 203 -1 17 -1 #SUP: 2
2 -1 203 -1 33 -1 #SUP: 5
2 -1 203 -1 47 -1 #SUP: 2
2 -1 203 -1 105 -1 #SUP: 2
2 -1 203 -1 112 -1 #SUP: 2
2 -1 203 -1 275 -1 #SUP: 2
2 -1 216 -1 2 -1 #SUP: 2
2 -1 270 -1 56 -1 #SUP: 2
2 -1 271 -1 33 -1 #SUP: 3
2 -1 271 -1 76 -1 #SUP: 2
2 -1 271 -1 240 -1 #SUP: 2
2 -1 304 -1 2 -1 #SUP: 2
2 -1 373 -1 11 -1 #SUP: 2
2 -1 373 -1 12 -1 #SUP: 2
2 -1 373 -1 394 -1 #SUP: 2
2 -1 420 -1 0 -1 #SUP: 2
2 -1 420 -1 33 -1 #SUP: 2
2 -1 420 -1 47 -1 #SUP: 2
2 -1 420 -1 203 -1 #SUP: 5
2 -1 420 -1 275 -1 #SUP: 2
2 -1 645 -1 40 -1 #SUP: 4
2 -1 688 -1 20 -1 #SUP: 2
3 -1 0 -1 14 -1 #SUP: 2
11 -1 99 -1 47 -1 #SUP: 2
11 -1 762 -1 2 -1 #SUP: 2
12 -1 11 -1 394 -1 #SUP: 2
14 -1 2 -1 1 -1 #SUP: 2
14 -1 2 -1 203 -1 #SUP: 3
14 -1 2 -1 420 -1 #SUP: 2
14 -1 420 -1 203 -1 #SUP: 2
17 -1 0 -1 14 -1 #SUP: 2
17 -1 12 -1 11 -1 #SUP: 2
17 -1 27 -1 11 -1 #SUP: 2
17 -1 27 -1 12 -1 #SUP: 2
17 -1 27 -1 105 -1 #SUP: 2
27 -1 11 -1 105 -1 #SUP: 2
27 -1 12 -1 11 -1 #SUP: 2
27 -1 105 -1 175 -1 #SUP: 3
31 -1 38 -1 47 -1 #SUP: 2
31 -1 38 -1 640 -1 #SUP: 2
31 -1 47 -1 640 -1 #SUP: 2
33 -1 0 -1 0 -1 #SUP: 2
33 -1 0 -1 2 -1 #SUP: 2
33 -1 0 -1 31 -1 #SUP: 3
33 -1 38 -1 47 -1 #SUP: 2
33 -1 105 -1 0 -1 #SUP: 2
33 -1 105 -1 31 -1 #SUP: 2
35 -1 38 -1 47 -1 #SUP: 2
35 -1 38 -1 640 -1 #SUP: 2
35 -1 47 -1 640 -1 #SUP: 2
35 -1 105 -1 175 -1 #SUP: 2
35 -1 632 -1 4 -1 #SUP: 2
38 -1 47 -1 640 -1 #SUP: 5
38 -1 1824 -1 0 -1 #SUP: 2
39 -1 38 -1 47 -1 #SUP: 2
39 -1 38 -1 640 -1 #SUP: 2
39 -1 47 -1 640 -1 #SUP: 2
40 -1 0 -1 364 -1 #SUP: 2
40 -1 3 -1 112 -1 #SUP: 2
47 -1 20 -1 33 -1 #SUP: 2
56 -1 32 -1 32 -1 #SUP: 2
65 -1 38 -1 47 -1 #SUP: 2
65 -1 103 -1 47 -1 #SUP: 2
67 -1 216 -1 35 -1 #SUP: 2
76 -1 2 -1 33 -1 #SUP: 2
85 -1 11 -1 47 -1 #SUP: 2
85 -1 11 -1 99 -1 #SUP: 2
85 -1 99 -1 47 -1 #SUP: 2
87 -1 105 -1 175 -1 #SUP: 2
87 -1 129 -1 27 -1 #SUP: 2
87 -1 216 -1 2 -1 #SUP: 2
95 -1 32 -1 32 -1 #SUP: 2
95 -1 56 -1 32 -1 #SUP: 2
95 -1 203 -1 112 -1 #SUP: 2
105 -1 0 -1 2 -1 #SUP: 2
123 -1 87 -1 47 -1 #SUP: 2
136 -1 2 -1 87 -1 #SUP: 2
136 -1 87 -1 27 -1 #SUP: 2
136 -1 87 -1 129 -1 #SUP: 2
136 -1 129 -1 27 -1 #SUP: 2
216 -1 1076 -1 2 -1 #SUP: 2
373 -1 11 -1 394 -1 #SUP: 2
373 -1 12 -1 11 -1 #SUP: 2
373 -1 12 -1 394 -1 #SUP: 2
420 -1 203 -1 33 -1 #SUP: 2
420 -1 203 -1 35 -1 #SUP: 2
420 -1 203 -1 275 -1 #SUP: 2
762 -1 2 -1 11 -1 #SUP: 2
856 -1 2 -1 20 -1 #SUP: 2
856 -1 2 -1 11003 -1 #SUP: 2
856 -1 20 -1 11003 -1 #SUP: 2
4731 -1 1 -1 20894 -1 #SUP: 2
1 -1 2 -1 12 -1 11 -1 #SUP: 2
1 -1 2 -1 373 -1 11 -1 #SUP: 2
1 -1 2 -1 373 -1 12 -1 #SUP: 2
1 -1 373 -1 12 -1 11 -1 #SUP: 2
2 -1 12 -1 11 -1 394 -1 #SUP: 2
2 -1 17 -1 12 -1 11 -1 #SUP: 2
2 -1 17 -1 27 -1 11 -1 #SUP: 2
2 -1 17 -1 27 -1 12 -1 #SUP: 2
2 -1 17 -1 27 -1 105 -1 #SUP: 2
2 -1 27 -1 12 -1 11 -1 #SUP: 2
2 -1 27 -1 105 -1 175 -1 #SUP: 2
2 -1 35 -1 105 -1 175 -1 #SUP: 2
2 -1 76 -1 2 -1 33 -1 #SUP: 2
2 -1 87 -1 216 -1 2 -1 #SUP: 2
2 -1 95 -1 203 -1 112 -1 #SUP: 2
2 -1 373 -1 11 -1 394 -1 #SUP: 2
2 -1 373 -1 12 -1 11 -1 #SUP: 2
2 -1 373 -1 12 -1 394 -1 #SUP: 2
2 -1 420 -1 203 -1 33 -1 #SUP: 2
2 -1 420 -1 203 -1 275 -1 #SUP: 2
14 -1 2 -1 420 -1 203 -1 #SUP: 2
17 -1 27 -1 12 -1 11 -1 #SUP: 2
31 -1 38 -1 47 -1 640 -1 #SUP: 2
35 -1 38 -1 47 -1 640 -1 #SUP: 2
39 -1 38 -1 47 -1 640 -1 #SUP: 2
85 -1 11 -1 99 -1 47 -1 #SUP: 2
95 -1 56 -1 32 -1 32 -1 #SUP: 2
136 -1 87 -1 129 -1 27 -1 #SUP: 2
373 -1 12 -1 11 -1 394 -1 #SUP: 2
856 -1 2 -1 20 -1 11003 -1 #SUP: 2
1 -1 2 -1 373 -1 12 -1 11 -1 #SUP: 2
2 -1 17 -1 27 -1 12 -1 11 -1 #SUP: 2
2 -1 373 -1 12 -1 11 -1 394 -1 #SUP: 2
