0 -1 #SUP: 16
1 -1 #SUP: 2
2 -1 #SUP: 51
3 -1 #SUP: 17
5 -1 #SUP: 3
6 -1 #SUP: 5
8 -1 #SUP: 3
9 -1 #SUP: 2
10 -1 #SUP: 3
11 -1 #SUP: 4
13 -1 #SUP: 3
14 -1 #SUP: 5
17 -1 #SUP: 13
20 -1 #SUP: 9
21 -1 #SUP: 6
23 -1 #SUP: 2
25 -1 #SUP: 4
27 -1 #SUP: 28
31 -1 #SUP: 22
32 -1 #SUP: 2
33 -1 #SUP: 37
35 -1 #SUP: 7
38 -1 #SUP: 13
39 -1 #SUP: 13
40 -1 #SUP: 17
41 -1 #SUP: 5
44 -1 #SUP: 4
47 -1 #SUP: 36
53 -1 #SUP: 2
56 -1 #SUP: 8
61 -1 #SUP: 4
62 -1 #SUP: 8
64 -1 #SUP: 2
65 -1 #SUP: 4
67 -1 #SUP: 4
68 -1 #SUP: 3
70 -1 #SUP: 2
71 -1 #SUP: 3
73 -1 #SUP: 3
76 -1 #SUP: 2
77 -1 #SUP: 6
80 -1 #SUP: 3
81 -1 #SUP: 2
84 -1 #SUP: 5
87 -1 #SUP: 17
92 -1 #SUP: 6
93 -1 #SUP: 5
98 -1 #SUP: 2
102 -1 #SUP: 3
103 -1 #SUP: 6
105 -1 #SUP: 6
110 -1 #SUP: 6
112 -1 #SUP: 11
113 -1 #SUP: 3
123 -1 #SUP: 8
127 -1 #SUP: 5
128 -1 #SUP: 3
129 -1 #SUP: 10
135 -1 #SUP: 2
136 -1 #SUP: 2
138 -1 #SUP: 2
142 -1 #SUP: 2
159 -1 #SUP: 4
161 -1 #SUP: 3
165 -1 #SUP: 2
169 -1 #SUP: 3
171 -1 #SUP: 5
172 -1 #SUP: 9
175 -1 #SUP: 2
176 -1 #SUP: 3
181 -1 #SUP: 5
184 -1 #SUP: 2
187 -1 #SUP: 2
189 -1 #SUP: 5
203 -1 #SUP: 3
207 -1 #SUP: 2
212 -1 #SUP: 2
226 -1 #SUP: 3
237 -1 #SUP: 2
240 -1 #SUP: 5
241 -1 #SUP: 3
244 -1 #SUP: 4
254 -1 #SUP: 7
257 -1 #SUP: 2
261 -1 #SUP: 2
271 -1 #SUP: 2
277 -1 #SUP: 6
287 -1 #SUP: 2
304 -1 #SUP: 2
311 -1 #SUP: 3
312 -1 #SUP: 7
332 -1 #SUP: 2
339 -1 #SUP: 3
370 -1 #SUP: 9
378 -1 #SUP: 2
384 -1 #SUP: 3
420 -1 #SUP: 6
476 -1 #SUP: 4
494 -1 #SUP: 2
497 -1 #SUP: 13
502 -1 #SUP: 2
523 -1 #SUP: 2
537 -1 #SUP: 3
596 -1 #SUP: 2
606 -1 #SUP: 2
636 -1 #SUP: 2
653 -1 #SUP: 2
711 -1 #SUP: 2
740 -1 #SUP: 2
762 -1 #SUP: 2
824 -1 #SUP: 2
922 -1 #SUP: 3
937 -1 #SUP: 5
967 -1 #SUP: 2
997 -1 #SUP: 2
1134 -1 #SUP: 2
1137 -1 #SUP: 7
1179 -1 #SUP: 2
1184 -1 #SUP: 2
1215 -1 #SUP: 2
1352 -1 #SUP: 3
1421 -1 #SUP: 4
1476 -1 #SUP: 2
1841 -1 #SUP: 2
2051 -1 #SUP: 2
2379 -1 #SUP: 3
2457 -1 #SUP: 2
2504 -1 #SUP: 2
2583 -1 #SUP: 2
2603 -1 #SUP: 2
2999 -1 #SUP: 2
3051 -1 #SUP: 2
3082 -1 #SUP: 2
3244 -1 #SUP: 2
3295 -1 #SUP: 2
4772 -1 #SUP: 2
6233 -1 #SUP: 2
8651 -1 #SUP: 3
9351 -1 #SUP: 2
17589 -1 #SUP: 2
20984 -1 #SUP: 2
22613 -1 #SUP: 2
0 -1 0 -1 #SUP: 3
0 -1 2 -1 #SUP: 3
0 -1 3 -1 #SUP: 2
0 -1 17 -1 #SUP: 3
0 -1 27 -1 #SUP: 4
0 -1 31 -1 #SUP: 2
0 -1 33 -1 #SUP: 6
0 -1 40 -1 #SUP: 3
0 -1 47 -1 #SUP: 3
0 -1 56 -1 #SUP: 2
0 -1 62 -1 #SUP: 2
0 -1 129 -1 #SUP: 2
0 -1 240 -1 #SUP: 2
0 -1 497 -1 #SUP: 2
0 -1 937 -1 #SUP: 2
0 -1 1352 -1 #SUP: 2
2 -1 0 -1 #SUP: 4
2 -1 2 -1 #SUP: 11
2 -1 3 -1 #SUP: 5
2 -1 6 -1 #SUP: 4
2 -1 8 -1 #SUP: 2
2 -1 11 -1 #SUP: 2
2 -1 14 -1 #SUP: 2
2 -1 17 -1 #SUP: 6
2 -1 20 -1 #SUP: 4
2 -1 27 -1 #SUP: 14
2 -1 31 -1 #SUP: 7
2 -1 33 -1 #SUP: 9
2 -1 35 -1 #SUP: 4
2 -1 38 -1 #SUP: 2
2 -1 39 -1 #SUP: 5
2 -1 40 -1 #SUP: 9
2 -1 44 -1 #SUP: 2
2 -1 47 -1 #SUP: 12
2 -1 56 -1 #SUP: 5
2 -1 61 -1 #SUP: 2
2 -1 62 -1 #SUP: 2
2 -1 67 -1 #SUP: 2
2 -1 77 -1 #SUP: 4
2 -1 84 -1 #SUP: 3
2 -1 87 -1 #SUP: 2
2 -1 92 -1 #SUP: 3
2 -1 103 -1 #SUP: 3
2 -1 110 -1 #SUP: 4
2 -1 112 -1 #SUP: 5
2 -1 113 -1 #SUP: 3
2 -1 129 -1 #SUP: 6
2 -1 135 -1 #SUP: 2
2 -1 138 -1 #SUP: 2
2 -1 159 -1 #SUP: 2
2 -1 165 -1 #SUP: 2
2 -1 171 -1 #SUP: 3
2 -1 172 -1 #SUP: 8
2 -1 176 -1 #SUP: 2
2 -1 189 -1 #SUP: 2
2 -1 207 -1 #SUP: 2
2 -1 244 -1 #SUP: 2
2 -1 271 -1 #SUP: 2
2 -1 277 -1 #SUP: 3
2 -1 311 -1 #SUP: 2
2 -1 312 -1 #SUP: 2
2 -1 332 -1 #SUP: 2
2 -1 420 -1 #SUP: 4
2 -1 497 -1 #SUP: 3
2 -1 523 -1 #SUP: 2
2 -1 596 -1 #SUP: 2
2 -1 606 -1 #SUP: 2
2 -1 922 -1 #SUP: 2
2 -1 1137 -1 #SUP: 3
2 -1 1421 -1 #SUP: 3
2 -1 2504 -1 #SUP: 2
2 -1 2583 -1 #SUP: 2
2 -1 2603 -1 #SUP: 2
2 -1 2999 -1 #SUP: 2
2 -1 22613 -1 #SUP: 2
3 -1 3 -1 #SUP: 2
3 -1 5 -1 #SUP: 2
3 -1 8 -1 #SUP: 2
3 -1 27 -1 #SUP: 3
3 -1 31 -1 #SUP: 5
3 -1 47 -1 #SUP: 6
3 -1 73 -1 #SUP: 2
3 -1 87 -1 #SUP: 2
3 -1 112 -1 #SUP: 4
3 -1 138 -1 #SUP: 2
3 -1 181 -1 #SUP: 2
3 -1 312 -1 #SUP: 2
3 -1 370 -1 #SUP: 2
3 -1 476 -1 #SUP: 2
3 -1 1421 -1 #SUP: 3
5 -1 47 -1 #SUP: 2
8 -1 33 -1 #SUP: 2
9 -1 38 -1 #SUP: 2
11 -1 47 -1 #SUP: 2
11 -1 189 -1 #SUP: 3
14 -1 2 -1 #SUP: 2
14 -1 47 -1 #SUP: 2
14 -1 87 -1 #SUP: 2
14 -1 497 -1 #SUP: 2
17 -1 2 -1 #SUP: 2
17 -1 3 -1 #SUP: 2
17 -1 27 -1 #SUP: 6
17 -1 31 -1 #SUP: 3
17 -1 33 -1 #SUP: 3
17 -1 38 -1 #SUP: 2
17 -1 39 -1 #SUP: 4
17 -1 40 -1 #SUP: 3
17 -1 47 -1 #SUP: 2
17 -1 71 -1 #SUP: 2
17 -1 128 -1 #SUP: 2
20 -1 31 -1 #SUP: 3
20 -1 47 -1 #SUP: 4
20 -1 93 -1 #SUP: 2
20 -1 189 -1 #SUP: 2
20 -1 244 -1 #SUP: 2
20 -1 254 -1 #SUP: 2
20 -1 312 -1 #SUP: 2
21 -1 47 -1 #SUP: 3
23 -1 2 -1 #SUP: 2
25 -1 370 -1 #SUP: 2
25 -1 3051 -1 #SUP: 2
27 -1 0 -1 #SUP: 3
27 -1 2 -1 #SUP: 7
27 -1 3 -1 #SUP: 2
27 -1 14 -1 #SUP: 2
27 -1 21 -1 #SUP: 2
27 -1 27 -1 #SUP: 4
27 -1 31 -1 #SUP: 2
27 -1 33 -1 #SUP: 3
27 -1 38 -1 #SUP: 4
27 -1 39 -1 #SUP: 6
27 -1 40 -1 #SUP: 6
27 -1 47 -1 #SUP: 5
27 -1 56 -1 #SUP: 4
27 -1 61 -1 #SUP: 2
27 -1 62 -1 #SUP: 3
27 -1 67 -1 #SUP: 2
27 -1 71 -1 #SUP: 2
27 -1 87 -1 #SUP: 2
27 -1 128 -1 #SUP: 2
27 -1 129 -1 #SUP: 3
27 -1 159 -1 #SUP: 2
27 -1 237 -1 #SUP: 2
27 -1 277 -1 #SUP: 3
27 -1 312 -1 #SUP: 2
27 -1 370 -1 #SUP: 2
27 -1 420 -1 #SUP: 2
27 -1 1841 -1 #SUP: 2
27 -1 8651 -1 #SUP: 2
31 -1 0 -1 #SUP: 3
31 -1 2 -1 #SUP: 4
31 -1 3 -1 #SUP: 2
31 -1 6 -1 #SUP: 2
31 -1 17 -1 #SUP: 4
31 -1 27 -1 #SUP: 4
31 -1 31 -1 #SUP: 2
31 -1 33 -1 #SUP: 4
31 -1 38 -1 #SUP: 3
31 -1 39 -1 #SUP: 3
31 -1 40 -1 #SUP: 2
31 -1 47 -1 #SUP: 5
31 -1 87 -1 #SUP: 2
31 -1 93 -1 #SUP: 2
31 -1 105 -1 #SUP: 3
31 -1 112 -1 #SUP: 2
31 -1 138 -1 #SUP: 2
31 -1 244 -1 #SUP: 2
31 -1 254 -1 #SUP: 4
31 -1 312 -1 #SUP: 2
31 -1 339 -1 #SUP: 2
31 -1 370 -1 #SUP: 2
31 -1 378 -1 #SUP: 2
31 -1 476 -1 #SUP: 2
31 -1 523 -1 #SUP: 2
31 -1 2379 -1 #SUP: 2
32 -1 47 -1 #SUP: 2
33 -1 0 -1 #SUP: 4
33 -1 2 -1 #SUP: 5
33 -1 3 -1 #SUP: 6
33 -1 5 -1 #SUP: 2
33 -1 20 -1 #SUP: 2
33 -1 25 -1 #SUP: 2
33 -1 27 -1 #SUP: 5
33 -1 31 -1 #SUP: 5
33 -1 33 -1 #SUP: 5
33 -1 35 -1 #SUP: 3
33 -1 38 -1 #SUP: 5
33 -1 39 -1 #SUP: 2
33 -1 40 -1 #SUP: 2
33 -1 41 -1 #SUP: 2
33 -1 47 -1 #SUP: 7
33 -1 62 -1 #SUP: 2
33 -1 87 -1 #SUP: 2
33 -1 93 -1 #SUP: 2
33 -1 105 -1 #SUP: 3
33 -1 112 -1 #SUP: 4
33 -1 127 -1 #SUP: 2
33 -1 129 -1 #SUP: 2
33 -1 172 -1 #SUP: 2
33 -1 240 -1 #SUP: 2
33 -1 277 -1 #SUP: 2
33 -1 370 -1 #SUP: 2
33 -1 937 -1 #SUP: 3
33 -1 2457 -1 #SUP: 2
33 -1 8651 -1 #SUP: 2
33 -1 20984 -1 #SUP: 2
35 -1 40 -1 #SUP: 3
35 -1 47 -1 #SUP: 3
35 -1 226 -1 #SUP: 2
35 -1 2603 -1 #SUP: 2
38 -1 2 -1 #SUP: 2
38 -1 3 -1 #SUP: 2
38 -1 17 -1 #SUP: 2
38 -1 20 -1 #SUP: 2
38 -1 31 -1 #SUP: 3
38 -1 40 -1 #SUP: 3
38 -1 47 -1 #SUP: 3
38 -1 77 -1 #SUP: 2
38 -1 159 -1 #SUP: 2
38 -1 244 -1 #SUP: 2
38 -1 254 -1 #SUP: 2
38 -1 370 -1 #SUP: 3
38 -1 9351 -1 #SUP: 2
39 -1 2 -1 #SUP: 2
39 -1 17 -1 #SUP: 2
39 -1 33 -1 #SUP: 5
39 -1 40 -1 #SUP: 2
39 -1 123 -1 #SUP: 2
40 -1 0 -1 #SUP: 2
40 -1 2 -1 #SUP: 4
40 -1 27 -1 #SUP: 4
40 -1 31 -1 #SUP: 2
40 -1 33 -1 #SUP: 6
40 -1 129 -1 #SUP: 2
40 -1 159 -1 #SUP: 3
40 -1 165 -1 #SUP: 2
40 -1 2457 -1 #SUP: 2
41 -1 10 -1 #SUP: 2
44 -1 311 -1 #SUP: 2
47 -1 0 -1 #SUP: 3
47 -1 2 -1 #SUP: 5
47 -1 3 -1 #SUP: 2
47 -1 6 -1 #SUP: 2
47 -1 17 -1 #SUP: 3
47 -1 20 -1 #SUP: 5
47 -1 25 -1 #SUP: 3
47 -1 27 -1 #SUP: 4
47 -1 31 -1 #SUP: 8
47 -1 32 -1 #SUP: 2
47 -1 33 -1 #SUP: 6
47 -1 38 -1 #SUP: 5
47 -1 39 -1 #SUP: 3
47 -1 40 -1 #SUP: 2
47 -1 41 -1 #SUP: 2
47 -1 47 -1 #SUP: 3
47 -1 71 -1 #SUP: 2
47 -1 77 -1 #SUP: 2
47 -1 87 -1 #SUP: 3
47 -1 93 -1 #SUP: 2
47 -1 105 -1 #SUP: 2
47 -1 127 -1 #SUP: 2
47 -1 189 -1 #SUP: 2
47 -1 244 -1 #SUP: 2
47 -1 254 -1 #SUP: 2
47 -1 277 -1 #SUP: 2
47 -1 370 -1 #SUP: 5
47 -1 502 -1 #SUP: 2
47 -1 636 -1 #SUP: 2
47 -1 740 -1 #SUP: 2
47 -1 2999 -1 #SUP: 2
47 -1 3051 -1 #SUP: 2
47 -1 4772 -1 #SUP: 2
47 -1 9351 -1 #SUP: 2
47 -1 22613 -1 #SUP: 2
56 -1 3 -1 #SUP: 3
56 -1 27 -1 #SUP: 2
56 -1 40 -1 #SUP: 2
56 -1 47 -1 #SUP: 2
56 -1 1421 -1 #SUP: 3
61 -1 3 -1 #SUP: 2
62 -1 2 -1 #SUP: 6
62 -1 47 -1 #SUP: 3
62 -1 56 -1 #SUP: 2
62 -1 311 -1 #SUP: 2
62 -1 312 -1 #SUP: 2
62 -1 497 -1 #SUP: 2
62 -1 937 -1 #SUP: 2
67 -1 38 -1 #SUP: 2
67 -1 93 -1 #SUP: 2
68 -1 38 -1 #SUP: 2
70 -1 2 -1 #SUP: 2
70 -1 27 -1 #SUP: 2
73 -1 20 -1 #SUP: 2
73 -1 31 -1 #SUP: 2
76 -1 123 -1 #SUP: 2
77 -1 17 -1 #SUP: 3
77 -1 27 -1 #SUP: 3
77 -1 33 -1 #SUP: 4
77 -1 39 -1 #SUP: 2
77 -1 47 -1 #SUP: 3
84 -1 2 -1 #SUP: 4
84 -1 31 -1 #SUP: 2
84 -1 35 -1 #SUP: 2
84 -1 38 -1 #SUP: 2
84 -1 47 -1 #SUP: 2
87 -1 2 -1 #SUP: 3
87 -1 3 -1 #SUP: 3
87 -1 13 -1 #SUP: 2
87 -1 31 -1 #SUP: 3
87 -1 33 -1 #SUP: 6
87 -1 35 -1 #SUP: 2
87 -1 47 -1 #SUP: 6
87 -1 84 -1 #SUP: 2
87 -1 87 -1 #SUP: 2
87 -1 112 -1 #SUP: 3
87 -1 254 -1 #SUP: 2
87 -1 261 -1 #SUP: 2
87 -1 277 -1 #SUP: 2
87 -1 312 -1 #SUP: 2
87 -1 370 -1 #SUP: 2
87 -1 497 -1 #SUP: 2
92 -1 3 -1 #SUP: 2
92 -1 33 -1 #SUP: 2
92 -1 38 -1 #SUP: 2
92 -1 47 -1 #SUP: 2
92 -1 87 -1 #SUP: 2
93 -1 38 -1 #SUP: 2
102 -1 27 -1 #SUP: 2
102 -1 181 -1 #SUP: 2
103 -1 2 -1 #SUP: 2
103 -1 14 -1 #SUP: 2
103 -1 27 -1 #SUP: 4
103 -1 40 -1 #SUP: 2
103 -1 129 -1 #SUP: 3
103 -1 171 -1 #SUP: 2
103 -1 420 -1 #SUP: 2
105 -1 33 -1 #SUP: 2
105 -1 240 -1 #SUP: 2
105 -1 20984 -1 #SUP: 2
110 -1 3 -1 #SUP: 2
110 -1 27 -1 #SUP: 3
110 -1 87 -1 #SUP: 2
110 -1 112 -1 #SUP: 2
110 -1 123 -1 #SUP: 2
110 -1 212 -1 #SUP: 2
110 -1 596 -1 #SUP: 2
110 -1 606 -1 #SUP: 2
112 -1 2 -1 #SUP: 2
112 -1 3 -1 #SUP: 2
112 -1 27 -1 #SUP: 2
112 -1 31 -1 #SUP: 3
112 -1 33 -1 #SUP: 3
112 -1 38 -1 #SUP: 2
112 -1 47 -1 #SUP: 5
123 -1 3 -1 #SUP: 2
123 -1 27 -1 #SUP: 2
123 -1 33 -1 #SUP: 2
123 -1 87 -1 #SUP: 2
123 -1 241 -1 #SUP: 2
123 -1 312 -1 #SUP: 3
123 -1 370 -1 #SUP: 2
127 -1 33 -1 #SUP: 4
127 -1 47 -1 #SUP: 2
127 -1 240 -1 #SUP: 2
128 -1 71 -1 #SUP: 2
129 -1 2 -1 #SUP: 3
129 -1 14 -1 #SUP: 2
129 -1 27 -1 #SUP: 6
135 -1 27 -1 #SUP: 2
136 -1 47 -1 #SUP: 2
142 -1 27 -1 #SUP: 2
159 -1 0 -1 #SUP: 2
159 -1 2 -1 #SUP: 3
159 -1 27 -1 #SUP: 2
159 -1 33 -1 #SUP: 2
165 -1 159 -1 #SUP: 2
169 -1 31 -1 #SUP: 2
169 -1 33 -1 #SUP: 2
169 -1 254 -1 #SUP: 2
171 -1 3 -1 #SUP: 2
171 -1 8 -1 #SUP: 2
171 -1 40 -1 #SUP: 2
172 -1 0 -1 #SUP: 2
172 -1 2 -1 #SUP: 4
172 -1 14 -1 #SUP: 2
172 -1 27 -1 #SUP: 4
172 -1 39 -1 #SUP: 2
172 -1 40 -1 #SUP: 2
172 -1 47 -1 #SUP: 3
172 -1 103 -1 #SUP: 2
172 -1 129 -1 #SUP: 3
172 -1 1137 -1 #SUP: 2
172 -1 22613 -1 #SUP: 2
181 -1 2 -1 #SUP: 2
181 -1 17 -1 #SUP: 3
181 -1 27 -1 #SUP: 2
181 -1 31 -1 #SUP: 2
181 -1 38 -1 #SUP: 2
181 -1 40 -1 #SUP: 2
189 -1 2 -1 #SUP: 2
189 -1 39 -1 #SUP: 2
203 -1 87 -1 #SUP: 2
207 -1 33 -1 #SUP: 2
212 -1 254 -1 #SUP: 2
226 -1 47 -1 #SUP: 2
237 -1 39 -1 #SUP: 2
240 -1 33 -1 #SUP: 2
241 -1 33 -1 #SUP: 2
244 -1 93 -1 #SUP: 2
254 -1 13 -1 #SUP: 2
254 -1 17 -1 #SUP: 2
254 -1 27 -1 #SUP: 2
254 -1 39 -1 #SUP: 2
254 -1 312 -1 #SUP: 2
257 -1 3 -1 #SUP: 2
257 -1 1421 -1 #SUP: 2
271 -1 33 -1 #SUP: 2
277 -1 2 -1 #SUP: 2
277 -1 56 -1 #SUP: 2
277 -1 62 -1 #SUP: 2
277 -1 937 -1 #SUP: 2
312 -1 33 -1 #SUP: 2
312 -1 47 -1 #SUP: 2
312 -1 93 -1 #SUP: 3
312 -1 244 -1 #SUP: 2
312 -1 311 -1 #SUP: 2
332 -1 20 -1 #SUP: 2
332 -1 47 -1 #SUP: 2
332 -1 189 -1 #SUP: 2
339 -1 2 -1 #SUP: 2
370 -1 20 -1 #SUP: 2
370 -1 47 -1 #SUP: 2
370 -1 87 -1 #SUP: 2
370 -1 254 -1 #SUP: 2
384 -1 33 -1 #SUP: 2
420 -1 2 -1 #SUP: 2
420 -1 31 -1 #SUP: 3
420 -1 2583 -1 #SUP: 2
476 -1 47 -1 #SUP: 2
476 -1 370 -1 #SUP: 2
494 -1 33 -1 #SUP: 2
497 -1 0 -1 #SUP: 2
497 -1 3 -1 #SUP: 3
497 -1 31 -1 #SUP: 4
497 -1 33 -1 #SUP: 4
497 -1 35 -1 #SUP: 2
497 -1 47 -1 #SUP: 4
497 -1 53 -1 #SUP: 2
497 -1 226 -1 #SUP: 3
497 -1 476 -1 #SUP: 3
497 -1 922 -1 #SUP: 2
497 -1 1137 -1 #SUP: 2
497 -1 3244 -1 #SUP: 2
824 -1 17 -1 #SUP: 2
824 -1 27 -1 #SUP: 2
922 -1 2 -1 #SUP: 2
937 -1 17589 -1 #SUP: 2
967 -1 31 -1 #SUP: 2
967 -1 47 -1 #SUP: 2
1134 -1 38 -1 #SUP: 2
1134 -1 40 -1 #SUP: 2
1137 -1 0 -1 #SUP: 2
1137 -1 2 -1 #SUP: 2
1137 -1 14 -1 #SUP: 2
1137 -1 17 -1 #SUP: 2
1137 -1 27 -1 #SUP: 3
1137 -1 31 -1 #SUP: 2
1137 -1 47 -1 #SUP: 2
1137 -1 87 -1 #SUP: 2
1137 -1 181 -1 #SUP: 2
1421 -1 47 -1 #SUP: 3
1421 -1 112 -1 #SUP: 2
1421 -1 370 -1 #SUP: 2
1476 -1 1 -1 #SUP: 2
1476 -1 3295 -1 #SUP: 2
1476 -1 6233 -1 #SUP: 2
2379 -1 39 -1 #SUP: 2
3051 -1 370 -1 #SUP: 2
3082 -1 21 -1 #SUP: 2
3295 -1 1 -1 #SUP: 2
6233 -1 1 -1 #SUP: 2
6233 -1 3295 -1 #SUP: 2
8651 -1 2 -1 #SUP: 2
9351 -1 370 -1 #SUP: 2
0 -1 27 -1 40 -1 #SUP: 2
0 -1 62 -1 2 -1 #SUP: 2
2 -1 2 -1 27 -1 #SUP: 2
2 -1 2 -1 39 -1 #SUP: 2
2 -1 2 -1 56 -1 #SUP: 2
2 -1 2 -1 112 -1 #SUP: 2
2 -1 2 -1 129 -1 #SUP: 3
2 -1 2 -1 312 -1 #SUP: 2
2 -1 3 -1 8 -1 #SUP: 2
2 -1 3 -1 1421 -1 #SUP: 2
2 -1 17 -1 27 -1 #SUP: 2
2 -1 17 -1 31 -1 #SUP: 2
2 -1 17 -1 33 -1 #SUP: 2
2 -1 17 -1 40 -1 #SUP: 2
2 -1 20 -1 47 -1 #SUP: 2
2 -1 27 -1 0 -1 #SUP: 2
2 -1 27 -1 2 -1 #SUP: 2
2 -1 27 -1 33 -1 #SUP: 3
2 -1 27 -1 39 -1 #SUP: 3
2 -1 27 -1 40 -1 #SUP: 5
2 -1 27 -1 67 -1 #SUP: 2
2 -1 33 -1 27 -1 #SUP: 2
2 -1 33 -1 31 -1 #SUP: 2
2 -1 33 -1 47 -1 #SUP: 2
2 -1 35 -1 40 -1 #SUP: 3
2 -1 35 -1 2603 -1 #SUP: 2
2 -1 39 -1 33 -1 #SUP: 2
2 -1 40 -1 0 -1 #SUP: 2
2 -1 40 -1 33 -1 #SUP: 3
2 -1 40 -1 159 -1 #SUP: 2
2 -1 40 -1 165 -1 #SUP: 2
2 -1 47 -1 20 -1 #SUP: 3
2 -1 47 -1 27 -1 #SUP: 3
2 -1 47 -1 31 -1 #SUP: 2
2 -1 47 -1 33 -1 #SUP: 2
2 -1 47 -1 2999 -1 #SUP: 2
2 -1 47 -1 22613 -1 #SUP: 2
2 -1 56 -1 40 -1 #SUP: 2
2 -1 56 -1 1421 -1 #SUP: 2
2 -1 62 -1 2 -1 #SUP: 2
2 -1 62 -1 312 -1 #SUP: 2
2 -1 77 -1 17 -1 #SUP: 2
2 -1 77 -1 27 -1 #SUP: 2
2 -1 77 -1 33 -1 #SUP: 3
2 -1 77 -1 47 -1 #SUP: 3
2 -1 84 -1 2 -1 #SUP: 2
2 -1 84 -1 35 -1 #SUP: 2
2 -1 84 -1 38 -1 #SUP: 2
2 -1 103 -1 27 -1 #SUP: 2
2 -1 103 -1 129 -1 #SUP: 2
2 -1 110 -1 27 -1 #SUP: 2
2 -1 110 -1 112 -1 #SUP: 2
2 -1 110 -1 596 -1 #SUP: 2
2 -1 110 -1 606 -1 #SUP: 2
2 -1 112 -1 27 -1 #SUP: 2
2 -1 112 -1 47 -1 #SUP: 2
2 -1 129 -1 27 -1 #SUP: 4
2 -1 135 -1 27 -1 #SUP: 2
2 -1 171 -1 3 -1 #SUP: 2
2 -1 171 -1 8 -1 #SUP: 2
2 -1 172 -1 0 -1 #SUP: 2
2 -1 172 -1 2 -1 #SUP: 3
2 -1 172 -1 27 -1 #SUP: 3
2 -1 172 -1 39 -1 #SUP: 2
2 -1 172 -1 40 -1 #SUP: 2
2 -1 172 -1 47 -1 #SUP: 3
2 -1 172 -1 103 -1 #SUP: 2
2 -1 172 -1 129 -1 #SUP: 2
2 -1 172 -1 1137 -1 #SUP: 2
2 -1 172 -1 22613 -1 #SUP: 2
2 -1 207 -1 33 -1 #SUP: 2
2 -1 271 -1 33 -1 #SUP: 2
2 -1 312 -1 311 -1 #SUP: 2
2 -1 420 -1 2 -1 #SUP: 2
2 -1 420 -1 2583 -1 #SUP: 2
2 -1 497 -1 31 -1 #SUP: 2
2 -1 1137 -1 47 -1 #SUP: 2
3 -1 31 -1 47 -1 #SUP: 3
3 -1 31 -1 138 -1 #SUP: 2
3 -1 181 -1 31 -1 #SUP: 2
3 -1 312 -1 47 -1 #SUP: 2
3 -1 476 -1 47 -1 #SUP: 2
3 -1 1421 -1 47 -1 #SUP: 2
3 -1 1421 -1 112 -1 #SUP: 2
17 -1 27 -1 27 -1 #SUP: 2
17 -1 27 -1 39 -1 #SUP: 3
20 -1 31 -1 93 -1 #SUP: 2
20 -1 31 -1 244 -1 #SUP: 2
20 -1 31 -1 312 -1 #SUP: 2
20 -1 47 -1 189 -1 #SUP: 2
20 -1 244 -1 93 -1 #SUP: 2
20 -1 312 -1 93 -1 #SUP: 2
20 -1 312 -1 244 -1 #SUP: 2
25 -1 3051 -1 370 -1 #SUP: 2
27 -1 0 -1 2 -1 #SUP: 2
27 -1 2 -1 2 -1 #SUP: 3
27 -1 2 -1 27 -1 #SUP: 2
27 -1 2 -1 56 -1 #SUP: 2
27 -1 2 -1 129 -1 #SUP: 2
27 -1 3 -1 27 -1 #SUP: 2
27 -1 14 -1 2 -1 #SUP: 2
27 -1 27 -1 27 -1 #SUP: 2
27 -1 38 -1 40 -1 #SUP: 2
27 -1 40 -1 2 -1 #SUP: 2
27 -1 40 -1 159 -1 #SUP: 2
27 -1 56 -1 27 -1 #SUP: 2
27 -1 56 -1 47 -1 #SUP: 2
27 -1 62 -1 2 -1 #SUP: 3
27 -1 62 -1 56 -1 #SUP: 2
27 -1 277 -1 2 -1 #SUP: 2
27 -1 277 -1 56 -1 #SUP: 2
27 -1 277 -1 62 -1 #SUP: 2
27 -1 8651 -1 2 -1 #SUP: 2
31 -1 2 -1 2 -1 #SUP: 2
31 -1 2 -1 27 -1 #SUP: 2
31 -1 2 -1 40 -1 #SUP: 2
31 -1 17 -1 27 -1 #SUP: 3
31 -1 27 -1 39 -1 #SUP: 2
31 -1 27 -1 40 -1 #SUP: 2
31 -1 112 -1 47 -1 #SUP: 2
31 -1 244 -1 93 -1 #SUP: 2
31 -1 254 -1 17 -1 #SUP: 2
31 -1 254 -1 27 -1 #SUP: 2
31 -1 312 -1 93 -1 #SUP: 2
31 -1 312 -1 244 -1 #SUP: 2
33 -1 2 -1 2 -1 #SUP: 2
33 -1 2 -1 172 -1 #SUP: 2
33 -1 3 -1 112 -1 #SUP: 2
33 -1 27 -1 0 -1 #SUP: 2
33 -1 31 -1 2 -1 #SUP: 2
33 -1 31 -1 39 -1 #SUP: 2
33 -1 38 -1 3 -1 #SUP: 2
33 -1 47 -1 25 -1 #SUP: 2
33 -1 47 -1 38 -1 #SUP: 3
33 -1 47 -1 47 -1 #SUP: 2
33 -1 105 -1 20984 -1 #SUP: 2
33 -1 112 -1 47 -1 #SUP: 2
33 -1 127 -1 33 -1 #SUP: 2
33 -1 129 -1 27 -1 #SUP: 2
33 -1 172 -1 2 -1 #SUP: 2
35 -1 226 -1 47 -1 #SUP: 2
38 -1 31 -1 47 -1 #SUP: 2
38 -1 77 -1 17 -1 #SUP: 2
38 -1 9351 -1 370 -1 #SUP: 2
39 -1 33 -1 2 -1 #SUP: 2
40 -1 2 -1 2 -1 #SUP: 2
40 -1 2 -1 27 -1 #SUP: 2
40 -1 2 -1 129 -1 #SUP: 2
40 -1 33 -1 2 -1 #SUP: 2
40 -1 33 -1 27 -1 #SUP: 2
40 -1 33 -1 2457 -1 #SUP: 2
40 -1 159 -1 2 -1 #SUP: 2
40 -1 159 -1 27 -1 #SUP: 2
40 -1 165 -1 159 -1 #SUP: 2
47 -1 20 -1 31 -1 #SUP: 2
47 -1 20 -1 47 -1 #SUP: 2
47 -1 25 -1 370 -1 #SUP: 2
47 -1 25 -1 3051 -1 #SUP: 2
47 -1 31 -1 2 -1 #SUP: 2
47 -1 31 -1 33 -1 #SUP: 2
47 -1 33 -1 33 -1 #SUP: 3
47 -1 33 -1 105 -1 #SUP: 2
47 -1 38 -1 9351 -1 #SUP: 2
47 -1 87 -1 33 -1 #SUP: 2
47 -1 127 -1 33 -1 #SUP: 2
47 -1 3051 -1 370 -1 #SUP: 2
56 -1 3 -1 1421 -1 #SUP: 2
62 -1 2 -1 47 -1 #SUP: 2
62 -1 2 -1 56 -1 #SUP: 2
62 -1 2 -1 311 -1 #SUP: 2
62 -1 2 -1 312 -1 #SUP: 2
62 -1 2 -1 497 -1 #SUP: 2
62 -1 312 -1 311 -1 #SUP: 2
70 -1 2 -1 27 -1 #SUP: 2
73 -1 20 -1 31 -1 #SUP: 2
77 -1 17 -1 27 -1 #SUP: 2
77 -1 17 -1 33 -1 #SUP: 2
77 -1 27 -1 33 -1 #SUP: 2
87 -1 33 -1 3 -1 #SUP: 2
87 -1 33 -1 47 -1 #SUP: 2
87 -1 33 -1 112 -1 #SUP: 2
87 -1 112 -1 47 -1 #SUP: 2
87 -1 497 -1 35 -1 #SUP: 2
103 -1 14 -1 2 -1 #SUP: 2
103 -1 27 -1 2 -1 #SUP: 2
103 -1 27 -1 14 -1 #SUP: 2
103 -1 27 -1 420 -1 #SUP: 2
103 -1 129 -1 2 -1 #SUP: 2
103 -1 129 -1 14 -1 #SUP: 2
103 -1 129 -1 27 -1 #SUP: 3
103 -1 171 -1 40 -1 #SUP: 2
112 -1 33 -1 38 -1 #SUP: 2
112 -1 47 -1 31 -1 #SUP: 2
112 -1 47 -1 33 -1 #SUP: 2
123 -1 370 -1 87 -1 #SUP: 2
127 -1 240 -1 33 -1 #SUP: 2
129 -1 14 -1 2 -1 #SUP: 2
129 -1 27 -1 2 -1 #SUP: 3
129 -1 27 -1 14 -1 #SUP: 2
159 -1 0 -1 2 -1 #SUP: 2
169 -1 31 -1 254 -1 #SUP: 2
171 -1 3 -1 8 -1 #SUP: 2
172 -1 2 -1 27 -1 #SUP: 2
172 -1 2 -1 39 -1 #SUP: 2
172 -1 27 -1 39 -1 #SUP: 2
172 -1 27 -1 40 -1 #SUP: 2
172 -1 47 -1 22613 -1 #SUP: 2
172 -1 129 -1 27 -1 #SUP: 2
181 -1 2 -1 17 -1 #SUP: 2
181 -1 17 -1 27 -1 #SUP: 2
181 -1 31 -1 17 -1 #SUP: 2
181 -1 31 -1 27 -1 #SUP: 2
189 -1 2 -1 39 -1 #SUP: 2
254 -1 17 -1 27 -1 #SUP: 2
254 -1 17 -1 39 -1 #SUP: 2
254 -1 27 -1 39 -1 #SUP: 2
257 -1 3 -1 1421 -1 #SUP: 2
277 -1 2 -1 56 -1 #SUP: 2
277 -1 62 -1 2 -1 #SUP: 2
277 -1 62 -1 56 -1 #SUP: 2
312 -1 244 -1 93 -1 #SUP: 2
332 -1 20 -1 47 -1 #SUP: 2
332 -1 20 -1 189 -1 #SUP: 2
332 -1 47 -1 189 -1 #SUP: 2
476 -1 47 -1 370 -1 #SUP: 2
497 -1 35 -1 226 -1 #SUP: 2
824 -1 17 -1 27 -1 #SUP: 2
1134 -1 38 -1 40 -1 #SUP: 2
1137 -1 2 -1 27 -1 #SUP: 2
1421 -1 47 -1 370 -1 #SUP: 2
1476 -1 3295 -1 1 -1 #SUP: 2
1476 -1 6233 -1 1 -1 #SUP: 2
1476 -1 6233 -1 3295 -1 #SUP: 2
6233 -1 3295 -1 1 -1 #SUP: 2
8651 -1 2 -1 2 -1 #SUP: 2
2 -1 2 -1 27 -1 39 -1 #SUP: 2
2 -1 62 -1 2 -1 312 -1 #SUP: 2
2 -1 77 -1 17 -1 33 -1 #SUP: 2
2 -1 77 -1 27 -1 33 -1 #SUP: 2
2 -1 103 -1 129 -1 27 -1 #SUP: 2
2 -1 171 -1 3 -1 8 -1 #SUP: 2
2 -1 172 -1 2 -1 27 -1 #SUP: 2
2 -1 172 -1 2 -1 39 -1 #SUP: 2
2 -1 172 -1 27 -1 39 -1 #SUP: 2
2 -1 172 -1 27 -1 40 -1 #SUP: 2
2 -1 172 -1 47 -1 22613 -1 #SUP: 2
20 -1 31 -1 244 -1 93 -1 #SUP: 2
20 -1 31 -1 312 -1 93 -1 #SUP: 2
20 -1 31 -1 312 -1 244 -1 #SUP: 2
20 -1 312 -1 244 -1 93 -1 #SUP: 2
27 -1 62 -1 2 -1 56 -1 #SUP: 2
27 -1 277 -1 2 -1 56 -1 #SUP: 2
27 -1 277 -1 62 -1 2 -1 #SUP: 2
27 -1 277 -1 62 -1 56 -1 #SUP: 2
27 -1 8651 -1 2 -1 2 -1 #SUP: 2
31 -1 2 -1 27 -1 40 -1 #SUP: 2
31 -1 254 -1 17 -1 27 -1 #SUP: 2
31 -1 312 -1 244 -1 93 -1 #SUP: 2
33 -1 2 -1 172 -1 2 -1 #SUP: 2
47 -1 25 -1 3051 -1 370 -1 #SUP: 2
62 -1 2 -1 312 -1 311 -1 #SUP: 2
103 -1 27 -1 14 -1 2 -1 #SUP: 2
103 -1 129 -1 14 -1 2 -1 #SUP: 2
103 -1 129 -1 27 -1 2 -1 #SUP: 2
103 -1 129 -1 27 -1 14 -1 #SUP: 2
129 -1 27 -1 14 -1 2 -1 #SUP: 2
172 -1 2 -1 27 -1 39 -1 #SUP: 2
181 -1 31 -1 17 -1 27 -1 #SUP: 2
254 -1 17 -1 27 -1 39 -1 #SUP: 2
277 -1 62 -1 2 -1 56 -1 #SUP: 2
332 -1 20 -1 47 -1 189 -1 #SUP: 2
1476 -1 6233 -1 3295 -1 1 -1 #SUP: 2
2 -1 172 -1 2 -1 27 -1 39 -1 #SUP: 2
20 -1 31 -1 312 -1 244 -1 93 -1 #SUP: 2
27 -1 277 -1 62 -1 2 -1 56 -1 #SUP: 2
103 -1 129 -1 27 -1 14 -1 2 -1 #SUP: 2
