0 -1 #SUP: 19
1 -1 #SUP: 2
2 -1 #SUP: 61
3 -1 #SUP: 18
5 -1 #SUP: 5
6 -1 #SUP: 4
9 -1 #SUP: 2
11 -1 #SUP: 2
13 -1 #SUP: 7
14 -1 #SUP: 12
17 -1 #SUP: 12
18 -1 #SUP: 12
20 -1 #SUP: 6
21 -1 #SUP: 7
26 -1 #SUP: 6
27 -1 #SUP: 34
31 -1 #SUP: 31
33 -1 #SUP: 22
35 -1 #SUP: 14
38 -1 #SUP: 13
39 -1 #SUP: 15
40 -1 #SUP: 15
41 -1 #SUP: 4
47 -1 #SUP: 8
53 -1 #SUP: 2
56 -1 #SUP: 7
57 -1 #SUP: 5
59 -1 #SUP: 3
60 -1 #SUP: 4
61 -1 #SUP: 3
62 -1 #SUP: 9
65 -1 #SUP: 2
66 -1 #SUP: 2
67 -1 #SUP: 2
71 -1 #SUP: 3
77 -1 #SUP: 3
79 -1 #SUP: 2
81 -1 #SUP: 3
84 -1 #SUP: 11
87 -1 #SUP: 9
95 -1 #SUP: 6
98 -1 #SUP: 4
102 -1 #SUP: 5
103 -1 #SUP: 15
105 -1 #SUP: 4
110 -1 #SUP: 5
112 -1 #SUP: 5
113 -1 #SUP: 4
117 -1 #SUP: 3
118 -1 #SUP: 2
119 -1 #SUP: 4
121 -1 #SUP: 3
123 -1 #SUP: 6
127 -1 #SUP: 3
129 -1 #SUP: 6
132 -1 #SUP: 4
133 -1 #SUP: 3
134 -1 #SUP: 2
135 -1 #SUP: 3
138 -1 #SUP: 3
140 -1 #SUP: 3
141 -1 #SUP: 2
142 -1 #SUP: 3
144 -1 #SUP: 2
146 -1 #SUP: 6
158 -1 #SUP: 3
159 -1 #SUP: 2
160 -1 #SUP: 2
161 -1 #SUP: 3
172 -1 #SUP: 9
182 -1 #SUP: 2
189 -1 #SUP: 3
190 -1 #SUP: 4
196 -1 #SUP: 2
202 -1 #SUP: 2
203 -1 #SUP: 6
209 -1 #SUP: 2
215 -1 #SUP: 2
240 -1 #SUP: 3
244 -1 #SUP: 7
247 -1 #SUP: 2
254 -1 #SUP: 4
255 -1 #SUP: 2
261 -1 #SUP: 4
295 -1 #SUP: 4
300 -1 #SUP: 2
306 -1 #SUP: 3
309 -1 #SUP: 3
323 -1 #SUP: 2
339 -1 #SUP: 2
341 -1 #SUP: 5
348 -1 #SUP: 2
375 -1 #SUP: 2
378 -1 #SUP: 2
388 -1 #SUP: 3
395 -1 #SUP: 3
399 -1 #SUP: 2
431 -1 #SUP: 3
446 -1 #SUP: 2
494 -1 #SUP: 2
570 -1 #SUP: 2
601 -1 #SUP: 2
604 -1 #SUP: 3
606 -1 #SUP: 2
662 -1 #SUP: 6
667 -1 #SUP: 4
709 -1 #SUP: 2
711 -1 #SUP: 2
727 -1 #SUP: 2
788 -1 #SUP: 2
792 -1 #SUP: 2
796 -1 #SUP: 2
830 -1 #SUP: 2
877 -1 #SUP: 2
918 -1 #SUP: 3
922 -1 #SUP: 2
924 -1 #SUP: 4
943 -1 #SUP: 5
960 -1 #SUP: 2
967 -1 #SUP: 2
997 -1 #SUP: 2
1011 -1 #SUP: 2
1103 -1 #SUP: 2
1127 -1 #SUP: 2
1391 -1 #SUP: 2
2726 -1 #SUP: 2
3199 -1 #SUP: 2
5434 -1 #SUP: 3
0 -1 2 -1 #SUP: 9
0 -1 3 -1 #SUP: 3
0 -1 14 -1 #SUP: 9
0 -1 17 -1 #SUP: 4
0 -1 18 -1 #SUP: 3
0 -1 27 -1 #SUP: 5
0 -1 31 -1 #SUP: 4
0 -1 33 -1 #SUP: 4
0 -1 35 -1 #SUP: 2
0 -1 39 -1 #SUP: 3
0 -1 47 -1 #SUP: 2
0 -1 56 -1 #SUP: 2
0 -1 84 -1 #SUP: 2
0 -1 87 -1 #SUP: 3
0 -1 140 -1 #SUP: 2
0 -1 2726 -1 #SUP: 2
1 -1 27 -1 #SUP: 2
2 -1 0 -1 #SUP: 5
2 -1 2 -1 #SUP: 11
2 -1 3 -1 #SUP: 12
2 -1 14 -1 #SUP: 6
2 -1 17 -1 #SUP: 6
2 -1 18 -1 #SUP: 5
2 -1 21 -1 #SUP: 2
2 -1 26 -1 #SUP: 2
2 -1 27 -1 #SUP: 18
2 -1 31 -1 #SUP: 9
2 -1 33 -1 #SUP: 4
2 -1 35 -1 #SUP: 7
2 -1 38 -1 #SUP: 5
2 -1 39 -1 #SUP: 9
2 -1 40 -1 #SUP: 2
2 -1 47 -1 #SUP: 4
2 -1 56 -1 #SUP: 5
2 -1 59 -1 #SUP: 2
2 -1 60 -1 #SUP: 4
2 -1 61 -1 #SUP: 2
2 -1 62 -1 #SUP: 6
2 -1 77 -1 #SUP: 3
2 -1 84 -1 #SUP: 6
2 -1 87 -1 #SUP: 4
2 -1 95 -1 #SUP: 6
2 -1 98 -1 #SUP: 2
2 -1 103 -1 #SUP: 2
2 -1 105 -1 #SUP: 3
2 -1 110 -1 #SUP: 4
2 -1 112 -1 #SUP: 2
2 -1 113 -1 #SUP: 2
2 -1 117 -1 #SUP: 2
2 -1 119 -1 #SUP: 2
2 -1 121 -1 #SUP: 2
2 -1 123 -1 #SUP: 2
2 -1 129 -1 #SUP: 3
2 -1 133 -1 #SUP: 2
2 -1 135 -1 #SUP: 3
2 -1 142 -1 #SUP: 3
2 -1 144 -1 #SUP: 2
2 -1 146 -1 #SUP: 3
2 -1 172 -1 #SUP: 8
2 -1 189 -1 #SUP: 2
2 -1 190 -1 #SUP: 3
2 -1 196 -1 #SUP: 2
2 -1 203 -1 #SUP: 4
2 -1 240 -1 #SUP: 2
2 -1 244 -1 #SUP: 5
2 -1 247 -1 #SUP: 2
2 -1 261 -1 #SUP: 2
2 -1 339 -1 #SUP: 2
2 -1 348 -1 #SUP: 2
2 -1 395 -1 #SUP: 2
2 -1 431 -1 #SUP: 2
2 -1 667 -1 #SUP: 2
2 -1 727 -1 #SUP: 2
2 -1 922 -1 #SUP: 2
2 -1 924 -1 #SUP: 2
2 -1 943 -1 #SUP: 4
2 -1 1391 -1 #SUP: 2
3 -1 27 -1 #SUP: 2
3 -1 31 -1 #SUP: 3
3 -1 38 -1 #SUP: 3
3 -1 59 -1 #SUP: 2
3 -1 60 -1 #SUP: 4
3 -1 943 -1 #SUP: 2
5 -1 2 -1 #SUP: 2
5 -1 3 -1 #SUP: 2
5 -1 27 -1 #SUP: 2
5 -1 31 -1 #SUP: 2
11 -1 31 -1 #SUP: 2
13 -1 2 -1 #SUP: 2
13 -1 31 -1 #SUP: 2
13 -1 33 -1 #SUP: 2
13 -1 40 -1 #SUP: 2
13 -1 103 -1 #SUP: 2
14 -1 2 -1 #SUP: 8
14 -1 17 -1 #SUP: 2
14 -1 18 -1 #SUP: 3
14 -1 27 -1 #SUP: 5
14 -1 31 -1 #SUP: 2
14 -1 33 -1 #SUP: 3
14 -1 35 -1 #SUP: 3
14 -1 56 -1 #SUP: 2
14 -1 84 -1 #SUP: 3
14 -1 87 -1 #SUP: 2
14 -1 110 -1 #SUP: 2
14 -1 140 -1 #SUP: 2
17 -1 0 -1 #SUP: 2
17 -1 2 -1 #SUP: 2
17 -1 27 -1 #SUP: 5
17 -1 31 -1 #SUP: 3
17 -1 35 -1 #SUP: 2
17 -1 38 -1 #SUP: 2
17 -1 53 -1 #SUP: 2
17 -1 84 -1 #SUP: 2
18 -1 2 -1 #SUP: 3
18 -1 3 -1 #SUP: 4
18 -1 27 -1 #SUP: 2
18 -1 31 -1 #SUP: 2
18 -1 33 -1 #SUP: 2
18 -1 35 -1 #SUP: 2
18 -1 38 -1 #SUP: 3
18 -1 57 -1 #SUP: 3
18 -1 62 -1 #SUP: 2
18 -1 84 -1 #SUP: 3
18 -1 87 -1 #SUP: 2
18 -1 378 -1 #SUP: 2
18 -1 918 -1 #SUP: 2
18 -1 943 -1 #SUP: 3
20 -1 27 -1 #SUP: 2
21 -1 3 -1 #SUP: 2
26 -1 2 -1 #SUP: 2
26 -1 27 -1 #SUP: 2
27 -1 0 -1 #SUP: 4
27 -1 2 -1 #SUP: 8
27 -1 3 -1 #SUP: 3
27 -1 14 -1 #SUP: 6
27 -1 18 -1 #SUP: 2
27 -1 21 -1 #SUP: 3
27 -1 26 -1 #SUP: 3
27 -1 27 -1 #SUP: 6
27 -1 31 -1 #SUP: 6
27 -1 33 -1 #SUP: 3
27 -1 35 -1 #SUP: 6
27 -1 38 -1 #SUP: 4
27 -1 39 -1 #SUP: 5
27 -1 40 -1 #SUP: 2
27 -1 56 -1 #SUP: 4
27 -1 62 -1 #SUP: 2
27 -1 71 -1 #SUP: 2
27 -1 77 -1 #SUP: 2
27 -1 84 -1 #SUP: 4
27 -1 87 -1 #SUP: 3
27 -1 110 -1 #SUP: 2
27 -1 112 -1 #SUP: 2
27 -1 113 -1 #SUP: 2
27 -1 121 -1 #SUP: 3
27 -1 127 -1 #SUP: 2
27 -1 133 -1 #SUP: 2
27 -1 138 -1 #SUP: 2
27 -1 140 -1 #SUP: 2
27 -1 161 -1 #SUP: 2
27 -1 182 -1 #SUP: 2
27 -1 196 -1 #SUP: 2
27 -1 295 -1 #SUP: 2
27 -1 431 -1 #SUP: 2
27 -1 604 -1 #SUP: 2
27 -1 662 -1 #SUP: 2
27 -1 667 -1 #SUP: 2
27 -1 924 -1 #SUP: 2
31 -1 2 -1 #SUP: 6
31 -1 5 -1 #SUP: 2
31 -1 18 -1 #SUP: 2
31 -1 21 -1 #SUP: 2
31 -1 26 -1 #SUP: 2
31 -1 27 -1 #SUP: 5
31 -1 31 -1 #SUP: 4
31 -1 33 -1 #SUP: 5
31 -1 35 -1 #SUP: 2
31 -1 39 -1 #SUP: 5
31 -1 40 -1 #SUP: 3
31 -1 47 -1 #SUP: 2
31 -1 84 -1 #SUP: 6
31 -1 102 -1 #SUP: 3
31 -1 103 -1 #SUP: 3
31 -1 105 -1 #SUP: 2
31 -1 119 -1 #SUP: 2
31 -1 123 -1 #SUP: 2
31 -1 146 -1 #SUP: 2
31 -1 339 -1 #SUP: 2
31 -1 348 -1 #SUP: 2
31 -1 395 -1 #SUP: 2
31 -1 431 -1 #SUP: 2
31 -1 918 -1 #SUP: 2
31 -1 924 -1 #SUP: 2
31 -1 943 -1 #SUP: 2
33 -1 0 -1 #SUP: 2
33 -1 2 -1 #SUP: 2
33 -1 21 -1 #SUP: 3
33 -1 26 -1 #SUP: 2
33 -1 27 -1 #SUP: 2
33 -1 31 -1 #SUP: 5
33 -1 33 -1 #SUP: 2
33 -1 35 -1 #SUP: 3
33 -1 39 -1 #SUP: 4
33 -1 47 -1 #SUP: 3
33 -1 102 -1 #SUP: 2
33 -1 112 -1 #SUP: 2
33 -1 161 -1 #SUP: 2
33 -1 244 -1 #SUP: 2
33 -1 375 -1 #SUP: 2
33 -1 1127 -1 #SUP: 2
35 -1 0 -1 #SUP: 2
35 -1 2 -1 #SUP: 2
35 -1 20 -1 #SUP: 2
35 -1 38 -1 #SUP: 2
35 -1 39 -1 #SUP: 3
35 -1 62 -1 #SUP: 2
35 -1 71 -1 #SUP: 2
38 -1 40 -1 #SUP: 3
38 -1 57 -1 #SUP: 4
38 -1 132 -1 #SUP: 2
39 -1 27 -1 #SUP: 4
39 -1 31 -1 #SUP: 2
39 -1 33 -1 #SUP: 3
39 -1 38 -1 #SUP: 2
39 -1 47 -1 #SUP: 3
39 -1 57 -1 #SUP: 2
39 -1 84 -1 #SUP: 2
39 -1 102 -1 #SUP: 2
39 -1 431 -1 #SUP: 2
40 -1 2 -1 #SUP: 2
40 -1 27 -1 #SUP: 2
40 -1 31 -1 #SUP: 5
40 -1 33 -1 #SUP: 7
40 -1 35 -1 #SUP: 3
40 -1 40 -1 #SUP: 2
40 -1 71 -1 #SUP: 2
40 -1 118 -1 #SUP: 2
40 -1 160 -1 #SUP: 2
40 -1 323 -1 #SUP: 2
41 -1 0 -1 #SUP: 3
41 -1 14 -1 #SUP: 2
41 -1 27 -1 #SUP: 2
47 -1 0 -1 #SUP: 2
47 -1 27 -1 #SUP: 2
47 -1 138 -1 #SUP: 2
47 -1 189 -1 #SUP: 2
56 -1 295 -1 #SUP: 2
56 -1 604 -1 #SUP: 2
62 -1 2 -1 #SUP: 2
62 -1 17 -1 #SUP: 2
62 -1 20 -1 #SUP: 2
62 -1 27 -1 #SUP: 2
62 -1 38 -1 #SUP: 2
62 -1 146 -1 #SUP: 2
65 -1 27 -1 #SUP: 2
66 -1 27 -1 #SUP: 2
66 -1 35 -1 #SUP: 2
66 -1 71 -1 #SUP: 2
81 -1 20 -1 #SUP: 3
84 -1 2 -1 #SUP: 3
84 -1 27 -1 #SUP: 3
84 -1 31 -1 #SUP: 2
84 -1 918 -1 #SUP: 2
84 -1 943 -1 #SUP: 2
87 -1 3 -1 #SUP: 2
87 -1 27 -1 #SUP: 2
87 -1 33 -1 #SUP: 2
87 -1 35 -1 #SUP: 2
87 -1 39 -1 #SUP: 2
95 -1 0 -1 #SUP: 2
95 -1 2 -1 #SUP: 3
95 -1 14 -1 #SUP: 2
95 -1 27 -1 #SUP: 3
95 -1 35 -1 #SUP: 2
95 -1 77 -1 #SUP: 2
95 -1 84 -1 #SUP: 2
95 -1 144 -1 #SUP: 2
98 -1 2 -1 #SUP: 2
98 -1 31 -1 #SUP: 2
98 -1 33 -1 #SUP: 3
98 -1 39 -1 #SUP: 2
102 -1 27 -1 #SUP: 2
102 -1 31 -1 #SUP: 2
103 -1 0 -1 #SUP: 4
103 -1 2 -1 #SUP: 5
103 -1 14 -1 #SUP: 3
103 -1 27 -1 #SUP: 5
103 -1 31 -1 #SUP: 3
103 -1 84 -1 #SUP: 2
103 -1 129 -1 #SUP: 2
103 -1 261 -1 #SUP: 2
103 -1 431 -1 #SUP: 2
103 -1 997 -1 #SUP: 2
105 -1 3 -1 #SUP: 2
105 -1 31 -1 #SUP: 2
110 -1 27 -1 #SUP: 2
112 -1 47 -1 #SUP: 2
112 -1 113 -1 #SUP: 2
113 -1 21 -1 #SUP: 2
113 -1 960 -1 #SUP: 2
117 -1 31 -1 #SUP: 2
117 -1 943 -1 #SUP: 2
119 -1 27 -1 #SUP: 2
119 -1 33 -1 #SUP: 2
119 -1 943 -1 #SUP: 2
123 -1 17 -1 #SUP: 2
123 -1 31 -1 #SUP: 4
123 -1 924 -1 #SUP: 2
129 -1 27 -1 #SUP: 3
129 -1 56 -1 #SUP: 2
129 -1 196 -1 #SUP: 2
132 -1 146 -1 #SUP: 3
135 -1 27 -1 #SUP: 2
135 -1 133 -1 #SUP: 2
138 -1 21 -1 #SUP: 2
140 -1 2 -1 #SUP: 2
140 -1 31 -1 #SUP: 2
142 -1 3 -1 #SUP: 2
142 -1 27 -1 #SUP: 2
146 -1 13 -1 #SUP: 2
146 -1 35 -1 #SUP: 2
146 -1 40 -1 #SUP: 2
158 -1 17 -1 #SUP: 2
158 -1 341 -1 #SUP: 3
159 -1 31 -1 #SUP: 2
172 -1 3 -1 #SUP: 2
172 -1 18 -1 #SUP: 2
172 -1 27 -1 #SUP: 2
172 -1 56 -1 #SUP: 3
172 -1 103 -1 #SUP: 3
172 -1 244 -1 #SUP: 2
172 -1 261 -1 #SUP: 2
190 -1 27 -1 #SUP: 3
190 -1 38 -1 #SUP: 2
190 -1 190 -1 #SUP: 2
202 -1 27 -1 #SUP: 2
203 -1 3 -1 #SUP: 2
203 -1 60 -1 #SUP: 2
209 -1 3 -1 #SUP: 2
240 -1 244 -1 #SUP: 2
254 -1 33 -1 #SUP: 2
255 -1 132 -1 #SUP: 2
255 -1 146 -1 #SUP: 2
295 -1 3 -1 #SUP: 2
300 -1 295 -1 #SUP: 2
309 -1 0 -1 #SUP: 3
341 -1 17 -1 #SUP: 2
375 -1 31 -1 #SUP: 2
494 -1 0 -1 #SUP: 2
494 -1 14 -1 #SUP: 2
604 -1 295 -1 #SUP: 2
606 -1 27 -1 #SUP: 2
662 -1 1 -1 #SUP: 2
662 -1 2 -1 #SUP: 2
662 -1 27 -1 #SUP: 2
709 -1 27 -1 #SUP: 2
727 -1 132 -1 #SUP: 2
830 -1 31 -1 #SUP: 2
830 -1 33 -1 #SUP: 2
877 -1 27 -1 #SUP: 2
877 -1 35 -1 #SUP: 2
918 -1 38 -1 #SUP: 2
918 -1 57 -1 #SUP: 2
924 -1 31 -1 #SUP: 2
924 -1 117 -1 #SUP: 2
943 -1 31 -1 #SUP: 3
943 -1 39 -1 #SUP: 2
943 -1 3199 -1 #SUP: 2
960 -1 21 -1 #SUP: 2
967 -1 123 -1 #SUP: 2
1103 -1 2 -1 #SUP: 2
5434 -1 0 -1 #SUP: 3
5434 -1 14 -1 #SUP: 2
5434 -1 27 -1 #SUP: 2
0 -1 2 -1 3 -1 #SUP: 3
0 -1 2 -1 18 -1 #SUP: 2
0 -1 2 -1 27 -1 #SUP: 2
0 -1 2 -1 31 -1 #SUP: 3
0 -1 2 -1 35 -1 #SUP: 2
0 -1 2 -1 47 -1 #SUP: 2
0 -1 2 -1 84 -1 #SUP: 2
0 -1 14 -1 2 -1 #SUP: 6
0 -1 14 -1 17 -1 #SUP: 2
0 -1 14 -1 18 -1 #SUP: 3
0 -1 14 -1 27 -1 #SUP: 4
0 -1 14 -1 31 -1 #SUP: 2
0 -1 14 -1 33 -1 #SUP: 3
0 -1 14 -1 35 -1 #SUP: 2
0 -1 14 -1 84 -1 #SUP: 2
0 -1 14 -1 87 -1 #SUP: 2
0 -1 14 -1 140 -1 #SUP: 2
0 -1 87 -1 33 -1 #SUP: 2
2 -1 0 -1 2 -1 #SUP: 4
2 -1 0 -1 14 -1 #SUP: 4
2 -1 2 -1 27 -1 #SUP: 4
2 -1 2 -1 35 -1 #SUP: 2
2 -1 2 -1 56 -1 #SUP: 2
2 -1 2 -1 172 -1 #SUP: 2
2 -1 2 -1 244 -1 #SUP: 2
2 -1 3 -1 60 -1 #SUP: 4
2 -1 3 -1 943 -1 #SUP: 2
2 -1 14 -1 2 -1 #SUP: 6
2 -1 14 -1 27 -1 #SUP: 2
2 -1 17 -1 27 -1 #SUP: 4
2 -1 17 -1 31 -1 #SUP: 2
2 -1 17 -1 38 -1 #SUP: 2
2 -1 17 -1 84 -1 #SUP: 2
2 -1 18 -1 3 -1 #SUP: 3
2 -1 18 -1 84 -1 #SUP: 2
2 -1 18 -1 943 -1 #SUP: 3
2 -1 27 -1 2 -1 #SUP: 4
2 -1 27 -1 3 -1 #SUP: 3
2 -1 27 -1 14 -1 #SUP: 2
2 -1 27 -1 21 -1 #SUP: 2
2 -1 27 -1 31 -1 #SUP: 4
2 -1 27 -1 33 -1 #SUP: 2
2 -1 27 -1 35 -1 #SUP: 4
2 -1 27 -1 38 -1 #SUP: 4
2 -1 27 -1 39 -1 #SUP: 4
2 -1 27 -1 56 -1 #SUP: 3
2 -1 27 -1 62 -1 #SUP: 2
2 -1 27 -1 84 -1 #SUP: 3
2 -1 27 -1 87 -1 #SUP: 2
2 -1 27 -1 121 -1 #SUP: 2
2 -1 27 -1 133 -1 #SUP: 2
2 -1 27 -1 196 -1 #SUP: 2
2 -1 27 -1 667 -1 #SUP: 2
2 -1 31 -1 31 -1 #SUP: 2
2 -1 31 -1 39 -1 #SUP: 2
2 -1 31 -1 84 -1 #SUP: 3
2 -1 31 -1 339 -1 #SUP: 2
2 -1 31 -1 431 -1 #SUP: 2
2 -1 33 -1 35 -1 #SUP: 2
2 -1 33 -1 39 -1 #SUP: 2
2 -1 35 -1 39 -1 #SUP: 2
2 -1 35 -1 62 -1 #SUP: 2
2 -1 39 -1 84 -1 #SUP: 2
2 -1 47 -1 189 -1 #SUP: 2
2 -1 62 -1 146 -1 #SUP: 2
2 -1 84 -1 943 -1 #SUP: 2
2 -1 87 -1 3 -1 #SUP: 2
2 -1 95 -1 0 -1 #SUP: 2
2 -1 95 -1 2 -1 #SUP: 3
2 -1 95 -1 14 -1 #SUP: 2
2 -1 95 -1 27 -1 #SUP: 3
2 -1 95 -1 77 -1 #SUP: 2
2 -1 95 -1 84 -1 #SUP: 2
2 -1 95 -1 144 -1 #SUP: 2
2 -1 98 -1 33 -1 #SUP: 2
2 -1 103 -1 261 -1 #SUP: 2
2 -1 119 -1 943 -1 #SUP: 2
2 -1 129 -1 27 -1 #SUP: 2
2 -1 129 -1 56 -1 #SUP: 2
2 -1 135 -1 27 -1 #SUP: 2
2 -1 135 -1 133 -1 #SUP: 2
2 -1 142 -1 3 -1 #SUP: 2
2 -1 142 -1 27 -1 #SUP: 2
2 -1 146 -1 40 -1 #SUP: 2
2 -1 172 -1 3 -1 #SUP: 2
2 -1 172 -1 18 -1 #SUP: 2
2 -1 172 -1 27 -1 #SUP: 2
2 -1 172 -1 56 -1 #SUP: 3
2 -1 172 -1 103 -1 #SUP: 2
2 -1 172 -1 244 -1 #SUP: 2
2 -1 172 -1 261 -1 #SUP: 2
2 -1 190 -1 27 -1 #SUP: 3
2 -1 190 -1 38 -1 #SUP: 2
2 -1 203 -1 3 -1 #SUP: 2
2 -1 203 -1 60 -1 #SUP: 2
2 -1 943 -1 31 -1 #SUP: 2
5 -1 2 -1 27 -1 #SUP: 2
13 -1 40 -1 33 -1 #SUP: 2
14 -1 2 -1 18 -1 #SUP: 2
14 -1 2 -1 27 -1 #SUP: 3
14 -1 2 -1 31 -1 #SUP: 2
14 -1 2 -1 35 -1 #SUP: 3
14 -1 2 -1 84 -1 #SUP: 3
14 -1 2 -1 110 -1 #SUP: 2
14 -1 18 -1 84 -1 #SUP: 2
14 -1 27 -1 35 -1 #SUP: 2
17 -1 27 -1 31 -1 #SUP: 2
17 -1 27 -1 38 -1 #SUP: 2
17 -1 27 -1 84 -1 #SUP: 2
17 -1 31 -1 84 -1 #SUP: 2
18 -1 3 -1 943 -1 #SUP: 2
18 -1 38 -1 57 -1 #SUP: 3
18 -1 84 -1 943 -1 #SUP: 2
18 -1 918 -1 38 -1 #SUP: 2
18 -1 918 -1 57 -1 #SUP: 2
27 -1 0 -1 2 -1 #SUP: 2
27 -1 0 -1 14 -1 #SUP: 4
27 -1 2 -1 27 -1 #SUP: 4
27 -1 2 -1 35 -1 #SUP: 2
27 -1 14 -1 2 -1 #SUP: 4
27 -1 14 -1 27 -1 #SUP: 2
27 -1 26 -1 2 -1 #SUP: 2
27 -1 31 -1 27 -1 #SUP: 2
27 -1 31 -1 84 -1 #SUP: 3
27 -1 35 -1 71 -1 #SUP: 2
27 -1 39 -1 27 -1 #SUP: 2
27 -1 56 -1 295 -1 #SUP: 2
27 -1 56 -1 604 -1 #SUP: 2
27 -1 87 -1 3 -1 #SUP: 2
27 -1 604 -1 295 -1 #SUP: 2
31 -1 2 -1 2 -1 #SUP: 2
31 -1 2 -1 27 -1 #SUP: 2
31 -1 5 -1 2 -1 #SUP: 2
31 -1 31 -1 40 -1 #SUP: 2
31 -1 33 -1 102 -1 #SUP: 2
31 -1 40 -1 2 -1 #SUP: 2
31 -1 84 -1 27 -1 #SUP: 2
33 -1 31 -1 33 -1 #SUP: 2
33 -1 31 -1 39 -1 #SUP: 2
33 -1 35 -1 39 -1 #SUP: 2
33 -1 375 -1 31 -1 #SUP: 2
39 -1 27 -1 431 -1 #SUP: 2
39 -1 33 -1 47 -1 #SUP: 2
39 -1 38 -1 57 -1 #SUP: 2
40 -1 33 -1 31 -1 #SUP: 2
40 -1 33 -1 35 -1 #SUP: 2
41 -1 0 -1 14 -1 #SUP: 2
41 -1 0 -1 27 -1 #SUP: 2
41 -1 14 -1 27 -1 #SUP: 2
47 -1 27 -1 138 -1 #SUP: 2
56 -1 604 -1 295 -1 #SUP: 2
66 -1 27 -1 35 -1 #SUP: 2
66 -1 27 -1 71 -1 #SUP: 2
66 -1 35 -1 71 -1 #SUP: 2
84 -1 31 -1 2 -1 #SUP: 2
95 -1 0 -1 2 -1 #SUP: 2
95 -1 0 -1 14 -1 #SUP: 2
95 -1 2 -1 35 -1 #SUP: 2
95 -1 14 -1 2 -1 #SUP: 2
95 -1 27 -1 35 -1 #SUP: 2
103 -1 0 -1 2 -1 #SUP: 2
103 -1 0 -1 14 -1 #SUP: 3
103 -1 0 -1 27 -1 #SUP: 2
103 -1 14 -1 2 -1 #SUP: 2
103 -1 27 -1 2 -1 #SUP: 2
103 -1 31 -1 2 -1 #SUP: 2
105 -1 3 -1 31 -1 #SUP: 2
113 -1 960 -1 21 -1 #SUP: 2
117 -1 943 -1 31 -1 #SUP: 2
135 -1 27 -1 133 -1 #SUP: 2
158 -1 341 -1 17 -1 #SUP: 2
172 -1 27 -1 56 -1 #SUP: 2
172 -1 103 -1 261 -1 #SUP: 2
190 -1 27 -1 38 -1 #SUP: 2
203 -1 3 -1 60 -1 #SUP: 2
255 -1 132 -1 146 -1 #SUP: 2
494 -1 0 -1 14 -1 #SUP: 2
662 -1 1 -1 27 -1 #SUP: 2
830 -1 33 -1 31 -1 #SUP: 2
877 -1 27 -1 35 -1 #SUP: 2
918 -1 38 -1 57 -1 #SUP: 2
924 -1 117 -1 31 -1 #SUP: 2
5434 -1 0 -1 14 -1 #SUP: 2
5434 -1 0 -1 27 -1 #SUP: 2
0 -1 14 -1 2 -1 18 -1 #SUP: 2
0 -1 14 -1 2 -1 27 -1 #SUP: 2
0 -1 14 -1 2 -1 31 -1 #SUP: 2
0 -1 14 -1 2 -1 35 -1 #SUP: 2
0 -1 14 -1 2 -1 84 -1 #SUP: 2
2 -1 0 -1 14 -1 2 -1 #SUP: 4
2 -1 14 -1 2 -1 27 -1 #SUP: 2
2 -1 17 -1 27 -1 31 -1 #SUP: 2
2 -1 17 -1 27 -1 38 -1 #SUP: 2
2 -1 17 -1 27 -1 84 -1 #SUP: 2
2 -1 17 -1 31 -1 84 -1 #SUP: 2
2 -1 18 -1 3 -1 943 -1 #SUP: 2
2 -1 18 -1 84 -1 943 -1 #SUP: 2
2 -1 27 -1 2 -1 35 -1 #SUP: 2
2 -1 27 -1 14 -1 2 -1 #SUP: 2
2 -1 27 -1 31 -1 84 -1 #SUP: 2
2 -1 27 -1 87 -1 3 -1 #SUP: 2
2 -1 33 -1 35 -1 39 -1 #SUP: 2
2 -1 95 -1 0 -1 2 -1 #SUP: 2
2 -1 95 -1 0 -1 14 -1 #SUP: 2
2 -1 95 -1 14 -1 2 -1 #SUP: 2
2 -1 135 -1 27 -1 133 -1 #SUP: 2
2 -1 172 -1 27 -1 56 -1 #SUP: 2
2 -1 172 -1 103 -1 261 -1 #SUP: 2
2 -1 190 -1 27 -1 38 -1 #SUP: 2
2 -1 203 -1 3 -1 60 -1 #SUP: 2
14 -1 2 -1 18 -1 84 -1 #SUP: 2
14 -1 2 -1 27 -1 35 -1 #SUP: 2
17 -1 27 -1 31 -1 84 -1 #SUP: 2
18 -1 918 -1 38 -1 57 -1 #SUP: 2
27 -1 0 -1 14 -1 2 -1 #SUP: 2
27 -1 14 -1 2 -1 27 -1 #SUP: 2
27 -1 56 -1 604 -1 295 -1 #SUP: 2
41 -1 0 -1 14 -1 27 -1 #SUP: 2
66 -1 27 -1 35 -1 71 -1 #SUP: 2
95 -1 0 -1 14 -1 2 -1 #SUP: 2
103 -1 0 -1 14 -1 2 -1 #SUP: 2
2 -1 17 -1 27 -1 31 -1 84 -1 #SUP: 2
2 -1 95 -1 0 -1 14 -1 2 -1 #SUP: 2
