62 -1 534 -1 1 -2
2 -1 407 -1 56 -1 27 -1 47 -1 126 -1 143 -1 2 -1 420 -1 203 -1 2 -1 17 -1 196 -1 4818 -1 38 -1 40 -1 745 -1 0 -1 31 -1 70 -1 497 -1 138 -1 1 -2
144 -1 35 -1 2 -1 224 -1 497 -1 70 -1 212 -1 40 -1 745 -1 198 -2
2 -1 129 -1 81 -1 78 -1 302 -1 31 -1 17 -1 47 -1 302 -1 5 -1 1514 -1 1 -2
551 -1 47 -1 1766 -1 642 -1 0 -1 339 -1 47 -1 370 -1 41 -1 102 -1 502 -1 0 -1 339 -1 47 -1 742 -1 360 -1 652 -1 365 -1 1335 -1 20 -1 254 -1 33 -1 1825 -1 0 -1 31 -1 407 -1 47 -1 877 -1 90 -1 3925 -1 38 -1 267 -1 20 -1 24697 -1 1 -2
144 -1 110 -1 6 -1 129 -1 56 -1 3 -1 730 -1 972 -1 20 -1 5007 -1 91 -1 47 -1 149 -1 138 -1 4795 -1 523 -1 21 -1 2 -1 2190 -1 2094 -1 0 -1 2 -1 24698 -1 1 -2
62 -1 33 -1 47 -1 2913 -1 112 -1 87 -1 1011 -1 1 -2
62 -1 278 -1 0 -1 70 -1 27 -1 4083 -1 1 -2
47 -1 24699 -1 20 -1 40 -1 1582 -1 31 -1 47 -1 117 -1 26 -1 2 -1 476 -1 41 -1 6371 -1 1 -2
78 -1 175 -1 2 -1 55 -1 27 -1 717 -1 361 -1 3649 -1 16251 -1 31 -1 70 -1 497 -1 212 -1 3 -1 3465 -1 6 -1 27 -1 140 -1 240 -1 4409 -1 35 -1 1 -2
711 -1 270 -1 17 -1 922 -1 87 -1 11 -1 27 -1 47 -1 2383 -1 7434 -1 2498 -1 24700 -1 199 -1 35 -1 39 -1 161 -1 2 -1 27 -1 56 -1 2 -1 27 -1 1456 -1 3 -1 4733 -1 0 -1 3338 -1 169 -1 727 -1 1746 -1 1 -2
257 -1 81 -1 39 -1 1077 -1 66 -1 32 -1 13 -1 161 -1 2252 -1 4387 -1 1 -2
161 -1 3 -1 322 -1 199 -1 17 -1 171 -1 297 -1 3 -1 93 -1 27 -1 378 -1 11 -1 498 -1 338 -1 31 -1 51 -1 2934 -1 84 -1 55 -1 242 -1 1 -2
300 -1 295 -1 378 -1 2 -1 420 -1 670 -1 2287 -1 1 -2
62 -1 2 -1 121 -1 0 -1 707 -1 51 -1 3 -1 1281 -1 1 -2
2 -1 77 -1 1 -2
62 -1 351 -1 11 -1 0 -1 4083 -1 1 -2
33 -1 3 -1 1249 -1 1 -2
378 -1 3 -1 9524 -1 1999 -1 1 -2
2 -1 110 -1 33 -1 161 -1 127 -1 1 -2
144 -1 35 -1 497 -1 68 -1 187 -1 198 -2
40 -1 303 -1 35 -1 47 -1 636 -1 26 -1 1 -2
240 -1 33 -1 39 -1 295 -1 1249 -1 87 -1 65 -1 1841 -1 161 -1 1691 -1 20 -1 7641 -1 2701 -1 0 -1 123 -1 68 -1 187 -1 198 -2
62 -1 24701 -1 2 -1 3465 -1 235 -1 32 -1 13 -1 1 -2
2 -1 334 -1 2 -1 110 -1 224 -1 244 -1 1249 -1 129 -1 0 -1 306 -1 1011 -1 98 -1 502 -1 497 -1 33 -1 112 -1 2 -1 1 -2
2 -1 241 -1 4914 -1 237 -1 235 -1 105 -1 498 -1 4209 -1 0 -1 5636 -1 47 -1 995 -1 87 -1 497 -1 33 -1 47 -1 117 -1 199 -1 922 -1 2 -1 244 -1 369 -1 1 -2
144 -1 35 -1 2 -1 378 -1 39 -1 62 -1 50 -1 112 -1 497 -1 27 -1 138 -1 70 -1 1 -2
33 -1 3 -1 59 -1 901 -1 20 -1 355 -1 3 -1 3135 -1 26 -1 198 -2
279 -1 41 -1 1109 -1 27 -1 1181 -1 2 -1 105 -1 67 -1 379 -2
494 -1 497 -1 77 -1 87 -1 162 -1 333 -1 129 -1 2213 -1 1 -2
102 -1 502 -1 47 -1 1921 -1 304 -1 77 -1 87 -1 2 -1 183 -1 497 -1 32 -1 146 -1 32 -1 2 -1 35 -1 1 -2
9 -1 98 -1 35 -1 2 -1 56 -1 87 -1 70 -1 198 -2
2 -1 33 -1 2121 -1 21 -1 47 -1 24702 -1 1 -2
6 -1 117 -1 61 -1 1792 -1 20 -1 47 -1 164 -1 27 -1 33 -1 5656 -1 212 -1 40 -1 745 -1 161 -1 2534 -1 1 -2
2 -1 33 -1 247 -1 47 -1 10674 -1 92 -1 17 -1 33 -1 5656 -1 38 -1 877 -1 134 -1 1 -2
497 -1 2062 -1 27 -1 138 -1 1888 -1 2 -1 1 -2
244 -1 138 -1 302 -1 33 -1 2040 -1 27 -1 1514 -1 652 -1 27 -1 12231 -1 1 -2
215 -1 189 -1 87 -1 2664 -1 17 -1 205 -1 11 -1 40 -1 745 -1 1 -2
62 -1 2 -1 378 -1 497 -1 2062 -1 2 -1 47 -1 302 -1 409 -1 1 -2
158 -1 26 -1 33 -1 87 -1 2 -1 17 -1 759 -1 27 -1 3685 -1 40 -1 2139 -1 161 -1 40 -1 275 -1 87 -1 302 -1 1 -2
1179 -1 370 -1 2521 -1 193 -1 175 -1 1 -2
9 -1 279 -1 138 -1 0 -1 659 -1 1 -2
14 -1 611 -1 61 -1 759 -1 237 -1 2192 -1 112 -1 497 -1 1 -2
497 -1 92 -1 121 -1 0 -1 14 -1 2 -1 333 -1 151 -1 127 -1 27 -1 35 -1 87 -1 0 -1 169 -1 0 -1 707 -1 47 -1 117 -1 87 -1 142 -1 2 -1 27 -1 138 -1 1 -2
144 -1 1077 -1 497 -1 56 -1 87 -1 2 -1 373 -1 114 -1 203 -1 244 -1 0 -1 31 -1 18 -1 498 -1 665 -1 87 -1 378 -1 2 -1 17 -1 27 -1 237 -1 40 -1 745 -1 2192 -1 198 -2
62 -1 9 -1 240 -1 35 -1 2 -1 35 -1 198 -2
2 -1 1076 -1 497 -1 67 -1 4 -1 0 -1 277 -1 319 -1 8643 -1 0 -1 373 -1 47 -1 1514 -1 103 -1 38 -1 1 -2
14 -1 2 -1 156 -1 40 -1 24703 -1 1 -2
76 -1 242 -1 288 -1 280 -1 38 -1 244 -1 78 -1 93 -1 20 -1 1514 -1 18 -1 98 -1 27 -1 156 -1 40 -1 24703 -1 1 -2
41 -1 24704 -1 287 -1 240 -1 73 -1 87 -1 35 -1 2 -1 1 -2
730 -1 244 -1 403 -1 33 -1 24705 -1 1 -2
207 -1 39 -1 17 -1 87 -1 1476 -1 552 -1 2785 -1 117 -1 87 -1 17 -1 6073 -1 1362 -1 203 -1 3 -1 5361 -1 1 -2
270 -1 378 -1 39 -1 146 -1 50 -1 21 -1 47 -1 24706 -1 1 -2
62 -1 240 -1 33 -1 2 -1 172 -1 198 -2
399 -1 534 -1 0 -1 319 -1 8643 -1 1 -2
2 -1 407 -1 56 -1 27 -1 300 -1 27 -1 497 -1 160 -1 103 -1 38 -1 47 -1 326 -1 309 -1 35 -1 87 -1 1133 -1 497 -1 81 -1 31 -1 2 -1 151 -1 497 -1 76 -1 254 -1 476 -1 6 -1 1595 -1 78 -1 175 -1 304 -1 315 -1 1 -2
31 -1 497 -1 136 -1 2 -1 103 -1 3666 -1 1 -2
1921 -1 0 -1 127 -1 136 -1 2 -1 127 -1 24707 -1 311 -1 33 -1 161 -1 2 -1 31 -1 103 -1 41 -1 353 -1 27 -1 33 -1 3666 -1 198 -2
18615 -1 198 -1 379 -2
6777 -1 0 -1 2 -1 446 -1 3 -1 60 -1 38 -1 588 -1 2762 -1 1 -2
244 -1 1710 -1 775 -1 47 -1 512 -1 38 -1 47 -1 499 -1 33 -1 1 -2
258 -1 0 -1 41 -1 84 -1 261 -1 1 -2
834 -1 1056 -1 38 -1 2357 -1 344 -1 119 -1 1 -2
62 -1 339 -1 497 -1 44 -1 1322 -1 2329 -1 0 -1 32 -1 24708 -1 0 -1 31 -1 47 -1 314 -1 948 -1 1 -2
31 -1 1509 -1 189 -1 2 -1 717 -1 27 -1 23336 -1 47 -1 26 -1 27 -1 6141 -1 196 -1 24 -1 20 -1 2146 -1 0 -1 2 -1 420 -1 203 -1 1792 -1 20 -1 2 -1 948 -1 102 -1 1 -2
98 -1 186 -1 8818 -1 40 -1 2534 -1 92 -1 1971 -1 297 -1 244 -1 101 -1 93 -1 2 -1 202 -1 41 -1 2237 -1 1 -2
103 -1 62 -1 997 -1 20 -1 2121 -1 1 -2
18 -1 8205 -1 87 -1 256 -1 18 -1 47 -1 158 -1 26 -1 87 -1 378 -1 242 -1 13 -1 1 -2
31 -1 154 -1 61 -1 1002 -1 87 -1 2 -1 2121 -1 6 -1 27 -1 56 -1 3 -1 1646 -1 81 -1 20 -1 497 -1 494 -1 497 -1 1077 -1 121 -1 242 -1 379 -2
47 -1 4463 -1 33 -1 1064 -1 665 -1 31 -1 497 -1 555 -1 77 -1 39 -1 1 -2
14 -1 591 -1 16 -1 310 -1 1 -2
35 -1 2 -1 291 -1 203 -1 2 -1 17 -1 5541 -1 15610 -1 4556 -1 198 -2
2701 -1 5541 -1 1 -2
665 -1 1 -2
1125 -1 1 -2
2 -1 271 -1 240 -1 344 -1 1175 -1 92 -1 172 -1 76 -1 123 -1 249 -1 297 -1 40 -1 1261 -1 1 -2
240 -1 92 -1 24709 -1 121 -1 35 -1 76 -1 216 -1 77 -1 2 -1 33 -1 237 -1 235 -1 664 -1 1514 -1 298 -1 112 -1 244 -1 1249 -1 198 -2
189 -1 375 -1 11 -1 1 -2
652 -1 112 -1 47 -1 787 -1 112 -1 47 -1 3375 -1 1 -2
751 -1 30 -1 919 -1 1350 -1 1448 -1 35 -1 1 -2