2 -1 #SUP: 26
3 -1 #SUP: 59
7 -1 #SUP: 14
10 -1 #SUP: 13
15 -1 #SUP: 4
16 -1 #SUP: 7
22 -1 #SUP: 47
27 -1 #SUP: 3
29 -1 #SUP: 10
30 -1 #SUP: 5
31 -1 #SUP: 8
32 -1 #SUP: 23
33 -1 #SUP: 16
39 -1 #SUP: 2
41 -1 #SUP: 25
44 -1 #SUP: 2
46 -1 #SUP: 6
47 -1 #SUP: 6
48 -1 #SUP: 3
50 -1 #SUP: 13
52 -1 #SUP: 3
54 -1 #SUP: 2
64 -1 #SUP: 47
65 -1 #SUP: 29
66 -1 #SUP: 5
69 -1 #SUP: 3
76 -1 #SUP: 36
77 -1 #SUP: 3
81 -1 #SUP: 3
100 -1 #SUP: 2
113 -1 #SUP: 82
115 -1 #SUP: 6
118 -1 #SUP: 5
129 -1 #SUP: 2
131 -1 #SUP: 4
135 -1 #SUP: 2
137 -1 #SUP: 2
139 -1 #SUP: 4
141 -1 #SUP: 7
144 -1 #SUP: 2
149 -1 #SUP: 5
151 -1 #SUP: 19
153 -1 #SUP: 4
154 -1 #SUP: 4
155 -1 #SUP: 2
156 -1 #SUP: 3
158 -1 #SUP: 9
160 -1 #SUP: 8
161 -1 #SUP: 5
163 -1 #SUP: 2
165 -1 #SUP: 5
182 -1 #SUP: 10
185 -1 #SUP: 4
187 -1 #SUP: 6
188 -1 #SUP: 3
190 -1 #SUP: 2
194 -1 #SUP: 8
195 -1 #SUP: 3
200 -1 #SUP: 3
201 -1 #SUP: 3
208 -1 #SUP: 4
209 -1 #SUP: 3
211 -1 #SUP: 2
212 -1 #SUP: 2
213 -1 #SUP: 7
214 -1 #SUP: 6
221 -1 #SUP: 2
224 -1 #SUP: 2
225 -1 #SUP: 3
232 -1 #SUP: 4
234 -1 #SUP: 4
237 -1 #SUP: 4
238 -1 #SUP: 2
242 -1 #SUP: 5
244 -1 #SUP: 4
248 -1 #SUP: 11
250 -1 #SUP: 15
251 -1 #SUP: 3
256 -1 #SUP: 3
268 -1 #SUP: 6
272 -1 #SUP: 2
273 -1 #SUP: 5
278 -1 #SUP: 7
296 -1 #SUP: 2
312 -1 #SUP: 7
326 -1 #SUP: 8
340 -1 #SUP: 10
342 -1 #SUP: 12
345 -1 #SUP: 2
352 -1 #SUP: 3
356 -1 #SUP: 2
363 -1 #SUP: 2
364 -1 #SUP: 4
388 -1 #SUP: 5
403 -1 #SUP: 3
405 -1 #SUP: 4
406 -1 #SUP: 5
417 -1 #SUP: 2
443 -1 #SUP: 3
452 -1 #SUP: 2
454 -1 #SUP: 2
463 -1 #SUP: 3
469 -1 #SUP: 10
479 -1 #SUP: 2
482 -1 #SUP: 2
484 -1 #SUP: 7
493 -1 #SUP: 3
500 -1 #SUP: 3
502 -1 #SUP: 2
504 -1 #SUP: 3
506 -1 #SUP: 2
509 -1 #SUP: 2
510 -1 #SUP: 8
548 -1 #SUP: 2
557 -1 #SUP: 19
571 -1 #SUP: 8
580 -1 #SUP: 2
586 -1 #SUP: 3
600 -1 #SUP: 2
614 -1 #SUP: 2
625 -1 #SUP: 4
635 -1 #SUP: 3
636 -1 #SUP: 4
641 -1 #SUP: 3
692 -1 #SUP: 2
702 -1 #SUP: 9
710 -1 #SUP: 2
747 -1 #SUP: 9
783 -1 #SUP: 3
786 -1 #SUP: 9
807 -1 #SUP: 2
812 -1 #SUP: 2
887 -1 #SUP: 2
927 -1 #SUP: 2
929 -1 #SUP: 2
936 -1 #SUP: 2
966 -1 #SUP: 2
976 -1 #SUP: 2
997 -1 #SUP: 2
999 -1 #SUP: 2
1042 -1 #SUP: 2
1050 -1 #SUP: 2
1057 -1 #SUP: 3
1082 -1 #SUP: 3
1100 -1 #SUP: 3
1101 -1 #SUP: 2
1175 -1 #SUP: 4
1203 -1 #SUP: 2
1243 -1 #SUP: 2
1341 -1 #SUP: 2
1487 -1 #SUP: 2
1533 -1 #SUP: 2
1583 -1 #SUP: 2
1664 -1 #SUP: 3
1678 -1 #SUP: 3
1707 -1 #SUP: 4
1720 -1 #SUP: 2
1792 -1 #SUP: 2
1884 -1 #SUP: 2
1915 -1 #SUP: 2
1940 -1 #SUP: 2
2022 -1 #SUP: 2
2079 -1 #SUP: 3
2081 -1 #SUP: 2
2124 -1 #SUP: 2
2232 -1 #SUP: 3
2599 -1 #SUP: 4
2626 -1 #SUP: 2
3028 -1 #SUP: 2
3062 -1 #SUP: 2
3293 -1 #SUP: 2
3681 -1 #SUP: 2
3689 -1 #SUP: 2
7192 -1 #SUP: 2
8818 -1 #SUP: 2
12013 -1 #SUP: 2
15783 -1 #SUP: 3
2 -1 2 -1 #SUP: 3
2 -1 3 -1 #SUP: 6
2 -1 22 -1 #SUP: 7
2 -1 32 -1 #SUP: 4
2 -1 41 -1 #SUP: 2
2 -1 47 -1 #SUP: 2
2 -1 50 -1 #SUP: 2
2 -1 64 -1 #SUP: 6
2 -1 65 -1 #SUP: 3
2 -1 76 -1 #SUP: 4
2 -1 113 -1 #SUP: 4
2 -1 141 -1 #SUP: 2
2 -1 151 -1 #SUP: 2
2 -1 156 -1 #SUP: 2
2 -1 187 -1 #SUP: 2
2 -1 214 -1 #SUP: 2
2 -1 242 -1 #SUP: 2
2 -1 340 -1 #SUP: 3
2 -1 342 -1 #SUP: 3
2 -1 469 -1 #SUP: 2
2 -1 484 -1 #SUP: 2
2 -1 493 -1 #SUP: 2
2 -1 702 -1 #SUP: 2
2 -1 1057 -1 #SUP: 2
2 -1 1664 -1 #SUP: 2
3 -1 2 -1 #SUP: 7
3 -1 3 -1 #SUP: 13
3 -1 10 -1 #SUP: 5
3 -1 16 -1 #SUP: 3
3 -1 22 -1 #SUP: 10
3 -1 29 -1 #SUP: 4
3 -1 30 -1 #SUP: 2
3 -1 31 -1 #SUP: 3
3 -1 32 -1 #SUP: 5
3 -1 33 -1 #SUP: 4
3 -1 41 -1 #SUP: 5
3 -1 44 -1 #SUP: 2
3 -1 46 -1 #SUP: 2
3 -1 48 -1 #SUP: 2
3 -1 50 -1 #SUP: 5
3 -1 64 -1 #SUP: 10
3 -1 65 -1 #SUP: 10
3 -1 69 -1 #SUP: 2
3 -1 76 -1 #SUP: 8
3 -1 77 -1 #SUP: 2
3 -1 113 -1 #SUP: 6
3 -1 135 -1 #SUP: 2
3 -1 141 -1 #SUP: 2
3 -1 151 -1 #SUP: 3
3 -1 154 -1 #SUP: 2
3 -1 160 -1 #SUP: 2
3 -1 185 -1 #SUP: 2
3 -1 213 -1 #SUP: 5
3 -1 214 -1 #SUP: 2
3 -1 242 -1 #SUP: 2
3 -1 250 -1 #SUP: 3
3 -1 278 -1 #SUP: 5
3 -1 312 -1 #SUP: 5
3 -1 340 -1 #SUP: 4
3 -1 342 -1 #SUP: 4
3 -1 406 -1 #SUP: 3
3 -1 443 -1 #SUP: 2
3 -1 452 -1 #SUP: 2
3 -1 469 -1 #SUP: 2
3 -1 493 -1 #SUP: 2
3 -1 504 -1 #SUP: 2
3 -1 557 -1 #SUP: 4
3 -1 702 -1 #SUP: 4
3 -1 786 -1 #SUP: 3
3 -1 929 -1 #SUP: 2
3 -1 1042 -1 #SUP: 2
3 -1 1940 -1 #SUP: 2
7 -1 2 -1 #SUP: 2
7 -1 3 -1 #SUP: 2
7 -1 10 -1 #SUP: 3
7 -1 22 -1 #SUP: 4
7 -1 33 -1 #SUP: 2
7 -1 64 -1 #SUP: 8
7 -1 65 -1 #SUP: 6
7 -1 76 -1 #SUP: 2
7 -1 113 -1 #SUP: 2
7 -1 115 -1 #SUP: 2
7 -1 151 -1 #SUP: 2
7 -1 213 -1 #SUP: 3
7 -1 635 -1 #SUP: 2
10 -1 2 -1 #SUP: 3
10 -1 22 -1 #SUP: 4
10 -1 47 -1 #SUP: 2
10 -1 76 -1 #SUP: 2
10 -1 113 -1 #SUP: 2
10 -1 250 -1 #SUP: 2
10 -1 887 -1 #SUP: 2
15 -1 76 -1 #SUP: 2
16 -1 64 -1 #SUP: 3
22 -1 2 -1 #SUP: 4
22 -1 3 -1 #SUP: 6
22 -1 7 -1 #SUP: 5
22 -1 10 -1 #SUP: 2
22 -1 15 -1 #SUP: 2
22 -1 16 -1 #SUP: 2
22 -1 22 -1 #SUP: 8
22 -1 29 -1 #SUP: 3
22 -1 30 -1 #SUP: 2
22 -1 32 -1 #SUP: 9
22 -1 33 -1 #SUP: 4
22 -1 41 -1 #SUP: 2
22 -1 47 -1 #SUP: 2
22 -1 50 -1 #SUP: 3
22 -1 64 -1 #SUP: 7
22 -1 65 -1 #SUP: 3
22 -1 76 -1 #SUP: 9
22 -1 77 -1 #SUP: 2
22 -1 113 -1 #SUP: 5
22 -1 129 -1 #SUP: 2
22 -1 151 -1 #SUP: 4
22 -1 153 -1 #SUP: 3
22 -1 165 -1 #SUP: 2
22 -1 201 -1 #SUP: 2
22 -1 213 -1 #SUP: 4
22 -1 214 -1 #SUP: 2
22 -1 250 -1 #SUP: 2
22 -1 268 -1 #SUP: 3
22 -1 296 -1 #SUP: 2
22 -1 502 -1 #SUP: 2
22 -1 510 -1 #SUP: 2
22 -1 557 -1 #SUP: 3
22 -1 635 -1 #SUP: 2
22 -1 702 -1 #SUP: 2
22 -1 747 -1 #SUP: 2
22 -1 783 -1 #SUP: 2
22 -1 887 -1 #SUP: 2
22 -1 1057 -1 #SUP: 2
22 -1 1341 -1 #SUP: 2
22 -1 1664 -1 #SUP: 2
27 -1 141 -1 #SUP: 2
29 -1 29 -1 #SUP: 2
29 -1 41 -1 #SUP: 2
29 -1 557 -1 #SUP: 2
30 -1 30 -1 #SUP: 2
30 -1 69 -1 #SUP: 2
31 -1 2 -1 #SUP: 2
31 -1 3 -1 #SUP: 3
31 -1 22 -1 #SUP: 2
31 -1 64 -1 #SUP: 2
31 -1 76 -1 #SUP: 2
31 -1 113 -1 #SUP: 2
31 -1 340 -1 #SUP: 2
32 -1 2 -1 #SUP: 3
32 -1 3 -1 #SUP: 3
32 -1 7 -1 #SUP: 2
32 -1 22 -1 #SUP: 6
32 -1 29 -1 #SUP: 2
32 -1 33 -1 #SUP: 2
32 -1 50 -1 #SUP: 2
32 -1 64 -1 #SUP: 4
32 -1 65 -1 #SUP: 2
32 -1 66 -1 #SUP: 2
32 -1 76 -1 #SUP: 5
32 -1 113 -1 #SUP: 3
32 -1 131 -1 #SUP: 2
32 -1 151 -1 #SUP: 2
32 -1 182 -1 #SUP: 2
32 -1 237 -1 #SUP: 2
32 -1 250 -1 #SUP: 2
32 -1 405 -1 #SUP: 2
32 -1 557 -1 #SUP: 2
32 -1 1664 -1 #SUP: 2
33 -1 2 -1 #SUP: 2
33 -1 3 -1 #SUP: 2
33 -1 7 -1 #SUP: 2
33 -1 16 -1 #SUP: 2
33 -1 22 -1 #SUP: 6
33 -1 32 -1 #SUP: 2
33 -1 64 -1 #SUP: 4
33 -1 65 -1 #SUP: 4
33 -1 76 -1 #SUP: 2
33 -1 113 -1 #SUP: 2
33 -1 151 -1 #SUP: 3
33 -1 250 -1 #SUP: 3
33 -1 452 -1 #SUP: 2
33 -1 557 -1 #SUP: 2
33 -1 635 -1 #SUP: 2
33 -1 747 -1 #SUP: 2
41 -1 2 -1 #SUP: 2
41 -1 3 -1 #SUP: 7
41 -1 10 -1 #SUP: 2
41 -1 16 -1 #SUP: 2
41 -1 22 -1 #SUP: 2
41 -1 29 -1 #SUP: 4
41 -1 33 -1 #SUP: 3
41 -1 41 -1 #SUP: 2
41 -1 64 -1 #SUP: 5
41 -1 65 -1 #SUP: 3
41 -1 139 -1 #SUP: 2
41 -1 151 -1 #SUP: 3
41 -1 250 -1 #SUP: 3
41 -1 273 -1 #SUP: 2
41 -1 278 -1 #SUP: 2
41 -1 326 -1 #SUP: 2
41 -1 469 -1 #SUP: 2
41 -1 3293 -1 #SUP: 2
46 -1 2 -1 #SUP: 2
46 -1 3 -1 #SUP: 3
46 -1 22 -1 #SUP: 2
46 -1 312 -1 #SUP: 2
46 -1 702 -1 #SUP: 3
47 -1 469 -1 #SUP: 2
50 -1 2 -1 #SUP: 2
50 -1 3 -1 #SUP: 7
50 -1 22 -1 #SUP: 2
50 -1 46 -1 #SUP: 3
50 -1 52 -1 #SUP: 2
50 -1 76 -1 #SUP: 2
50 -1 113 -1 #SUP: 2
50 -1 163 -1 #SUP: 2
50 -1 312 -1 #SUP: 2
50 -1 702 -1 #SUP: 2
50 -1 783 -1 #SUP: 2
54 -1 113 -1 #SUP: 2
64 -1 2 -1 #SUP: 7
64 -1 3 -1 #SUP: 9
64 -1 7 -1 #SUP: 4
64 -1 10 -1 #SUP: 2
64 -1 16 -1 #SUP: 2
64 -1 22 -1 #SUP: 8
64 -1 29 -1 #SUP: 3
64 -1 31 -1 #SUP: 2
64 -1 32 -1 #SUP: 3
64 -1 33 -1 #SUP: 3
64 -1 41 -1 #SUP: 3
64 -1 46 -1 #SUP: 2
64 -1 47 -1 #SUP: 2
64 -1 50 -1 #SUP: 5
64 -1 52 -1 #SUP: 2
64 -1 64 -1 #SUP: 8
64 -1 65 -1 #SUP: 4
64 -1 76 -1 #SUP: 5
64 -1 113 -1 #SUP: 5
64 -1 131 -1 #SUP: 2
64 -1 141 -1 #SUP: 2
64 -1 151 -1 #SUP: 5
64 -1 160 -1 #SUP: 2
64 -1 212 -1 #SUP: 2
64 -1 213 -1 #SUP: 2
64 -1 250 -1 #SUP: 2
64 -1 268 -1 #SUP: 2
64 -1 273 -1 #SUP: 2
64 -1 340 -1 #SUP: 2
64 -1 469 -1 #SUP: 4
64 -1 510 -1 #SUP: 3
64 -1 557 -1 #SUP: 2
64 -1 571 -1 #SUP: 2
64 -1 636 -1 #SUP: 3
64 -1 702 -1 #SUP: 2
64 -1 786 -1 #SUP: 2
64 -1 929 -1 #SUP: 2
64 -1 1533 -1 #SUP: 2
65 -1 2 -1 #SUP: 5
65 -1 10 -1 #SUP: 2
65 -1 22 -1 #SUP: 5
65 -1 32 -1 #SUP: 6
65 -1 33 -1 #SUP: 2
65 -1 41 -1 #SUP: 2
65 -1 46 -1 #SUP: 2
65 -1 64 -1 #SUP: 6
65 -1 65 -1 #SUP: 4
65 -1 66 -1 #SUP: 2
65 -1 76 -1 #SUP: 4
65 -1 113 -1 #SUP: 4
65 -1 151 -1 #SUP: 2
65 -1 160 -1 #SUP: 2
65 -1 182 -1 #SUP: 2
65 -1 248 -1 #SUP: 2
65 -1 268 -1 #SUP: 2
65 -1 388 -1 #SUP: 2
65 -1 557 -1 #SUP: 3
65 -1 1100 -1 #SUP: 3
65 -1 1583 -1 #SUP: 2
65 -1 2079 -1 #SUP: 2
65 -1 7192 -1 #SUP: 2
69 -1 3 -1 #SUP: 2
69 -1 64 -1 #SUP: 2
76 -1 2 -1 #SUP: 3
76 -1 3 -1 #SUP: 3
76 -1 7 -1 #SUP: 2
76 -1 10 -1 #SUP: 2
76 -1 15 -1 #SUP: 2
76 -1 16 -1 #SUP: 2
76 -1 22 -1 #SUP: 8
76 -1 30 -1 #SUP: 2
76 -1 31 -1 #SUP: 2
76 -1 32 -1 #SUP: 4
76 -1 41 -1 #SUP: 2
76 -1 64 -1 #SUP: 8
76 -1 66 -1 #SUP: 2
76 -1 69 -1 #SUP: 2
76 -1 76 -1 #SUP: 6
76 -1 81 -1 #SUP: 2
76 -1 113 -1 #SUP: 12
76 -1 151 -1 #SUP: 2
76 -1 160 -1 #SUP: 2
76 -1 161 -1 #SUP: 2
76 -1 182 -1 #SUP: 2
76 -1 213 -1 #SUP: 2
76 -1 237 -1 #SUP: 2
76 -1 248 -1 #SUP: 2
76 -1 340 -1 #SUP: 3
76 -1 405 -1 #SUP: 3
76 -1 557 -1 #SUP: 6
76 -1 571 -1 #SUP: 2
76 -1 636 -1 #SUP: 2
76 -1 1057 -1 #SUP: 2
77 -1 510 -1 #SUP: 2
77 -1 786 -1 #SUP: 2
81 -1 64 -1 #SUP: 3
113 -1 2 -1 #SUP: 6
113 -1 3 -1 #SUP: 16
113 -1 7 -1 #SUP: 7
113 -1 10 -1 #SUP: 4
113 -1 15 -1 #SUP: 2
113 -1 22 -1 #SUP: 10
113 -1 31 -1 #SUP: 5
113 -1 32 -1 #SUP: 5
113 -1 33 -1 #SUP: 3
113 -1 41 -1 #SUP: 5
113 -1 50 -1 #SUP: 2
113 -1 64 -1 #SUP: 14
113 -1 65 -1 #SUP: 10
113 -1 66 -1 #SUP: 2
113 -1 76 -1 #SUP: 6
113 -1 81 -1 #SUP: 2
113 -1 113 -1 #SUP: 20
113 -1 115 -1 #SUP: 4
113 -1 118 -1 #SUP: 4
113 -1 141 -1 #SUP: 3
113 -1 149 -1 #SUP: 2
113 -1 151 -1 #SUP: 8
113 -1 154 -1 #SUP: 3
113 -1 156 -1 #SUP: 2
113 -1 158 -1 #SUP: 3
113 -1 160 -1 #SUP: 3
113 -1 161 -1 #SUP: 3
113 -1 182 -1 #SUP: 2
113 -1 194 -1 #SUP: 5
113 -1 200 -1 #SUP: 2
113 -1 201 -1 #SUP: 2
113 -1 208 -1 #SUP: 2
113 -1 213 -1 #SUP: 2
113 -1 214 -1 #SUP: 2
113 -1 221 -1 #SUP: 2
113 -1 244 -1 #SUP: 2
113 -1 248 -1 #SUP: 9
113 -1 250 -1 #SUP: 8
113 -1 256 -1 #SUP: 2
113 -1 268 -1 #SUP: 2
113 -1 272 -1 #SUP: 2
113 -1 273 -1 #SUP: 4
113 -1 278 -1 #SUP: 4
113 -1 312 -1 #SUP: 2
113 -1 326 -1 #SUP: 6
113 -1 340 -1 #SUP: 5
113 -1 342 -1 #SUP: 5
113 -1 388 -1 #SUP: 4
113 -1 403 -1 #SUP: 2
113 -1 405 -1 #SUP: 2
113 -1 406 -1 #SUP: 2
113 -1 479 -1 #SUP: 2
113 -1 482 -1 #SUP: 2
113 -1 500 -1 #SUP: 2
113 -1 504 -1 #SUP: 3
113 -1 506 -1 #SUP: 2
113 -1 557 -1 #SUP: 6
113 -1 571 -1 #SUP: 4
113 -1 625 -1 #SUP: 3
113 -1 636 -1 #SUP: 3
113 -1 710 -1 #SUP: 2
113 -1 786 -1 #SUP: 6
113 -1 927 -1 #SUP: 2
113 -1 929 -1 #SUP: 2
113 -1 936 -1 #SUP: 2
113 -1 1042 -1 #SUP: 2
113 -1 1100 -1 #SUP: 2
113 -1 1678 -1 #SUP: 2
113 -1 1720 -1 #SUP: 2
113 -1 3689 -1 #SUP: 2
113 -1 12013 -1 #SUP: 2
118 -1 250 -1 #SUP: 3
118 -1 273 -1 #SUP: 2
131 -1 22 -1 #SUP: 3
131 -1 64 -1 #SUP: 2
131 -1 510 -1 #SUP: 2
139 -1 3 -1 #SUP: 3
139 -1 64 -1 #SUP: 2
139 -1 326 -1 #SUP: 2
139 -1 3293 -1 #SUP: 2
141 -1 3 -1 #SUP: 2
141 -1 31 -1 #SUP: 2
141 -1 64 -1 #SUP: 2
141 -1 65 -1 #SUP: 2
141 -1 113 -1 #SUP: 3
151 -1 3 -1 #SUP: 7
151 -1 7 -1 #SUP: 3
151 -1 22 -1 #SUP: 4
151 -1 33 -1 #SUP: 2
151 -1 47 -1 #SUP: 2
151 -1 50 -1 #SUP: 2
151 -1 64 -1 #SUP: 5
151 -1 65 -1 #SUP: 6
151 -1 76 -1 #SUP: 3
151 -1 113 -1 #SUP: 3
151 -1 149 -1 #SUP: 2
151 -1 158 -1 #SUP: 2
151 -1 161 -1 #SUP: 2
151 -1 250 -1 #SUP: 2
151 -1 510 -1 #SUP: 2
151 -1 783 -1 #SUP: 2
151 -1 929 -1 #SUP: 2
154 -1 22 -1 #SUP: 2
156 -1 64 -1 #SUP: 2
158 -1 3 -1 #SUP: 4
158 -1 10 -1 #SUP: 3
158 -1 22 -1 #SUP: 2
158 -1 65 -1 #SUP: 2
158 -1 76 -1 #SUP: 2
158 -1 113 -1 #SUP: 7
158 -1 213 -1 #SUP: 2
158 -1 250 -1 #SUP: 2
160 -1 3062 -1 #SUP: 2
161 -1 3 -1 #SUP: 2
161 -1 64 -1 #SUP: 2
163 -1 46 -1 #SUP: 2
163 -1 702 -1 #SUP: 2
165 -1 22 -1 #SUP: 3
165 -1 32 -1 #SUP: 2
182 -1 10 -1 #SUP: 2
182 -1 22 -1 #SUP: 4
182 -1 64 -1 #SUP: 2
182 -1 65 -1 #SUP: 2
182 -1 113 -1 #SUP: 3
187 -1 64 -1 #SUP: 2
187 -1 65 -1 #SUP: 2
187 -1 76 -1 #SUP: 2
187 -1 214 -1 #SUP: 2
190 -1 3 -1 #SUP: 2
194 -1 3 -1 #SUP: 4
194 -1 65 -1 #SUP: 2
194 -1 149 -1 #SUP: 2
194 -1 342 -1 #SUP: 2
194 -1 2124 -1 #SUP: 2
195 -1 64 -1 #SUP: 2
195 -1 141 -1 #SUP: 2
200 -1 64 -1 #SUP: 2
201 -1 76 -1 #SUP: 2
201 -1 113 -1 #SUP: 2
201 -1 151 -1 #SUP: 2
208 -1 2 -1 #SUP: 2
208 -1 47 -1 #SUP: 2
212 -1 2 -1 #SUP: 2
213 -1 3 -1 #SUP: 3
213 -1 7 -1 #SUP: 2
213 -1 10 -1 #SUP: 2
213 -1 33 -1 #SUP: 2
213 -1 50 -1 #SUP: 2
213 -1 64 -1 #SUP: 3
213 -1 76 -1 #SUP: 3
213 -1 250 -1 #SUP: 2
214 -1 22 -1 #SUP: 2
214 -1 278 -1 #SUP: 2
221 -1 41 -1 #SUP: 2
221 -1 64 -1 #SUP: 2
221 -1 273 -1 #SUP: 2
221 -1 636 -1 #SUP: 2
221 -1 1720 -1 #SUP: 2
224 -1 64 -1 #SUP: 2
224 -1 469 -1 #SUP: 2
225 -1 22 -1 #SUP: 2
234 -1 76 -1 #SUP: 2
234 -1 113 -1 #SUP: 2
237 -1 237 -1 #SUP: 2
242 -1 2 -1 #SUP: 3
242 -1 3 -1 #SUP: 2
242 -1 64 -1 #SUP: 2
242 -1 113 -1 #SUP: 2
244 -1 22 -1 #SUP: 3
244 -1 65 -1 #SUP: 2
244 -1 113 -1 #SUP: 2
248 -1 22 -1 #SUP: 3
248 -1 32 -1 #SUP: 2
248 -1 113 -1 #SUP: 3
248 -1 268 -1 #SUP: 2
248 -1 405 -1 #SUP: 2
248 -1 786 -1 #SUP: 2
250 -1 2 -1 #SUP: 2
250 -1 3 -1 #SUP: 5
250 -1 7 -1 #SUP: 2
250 -1 41 -1 #SUP: 3
250 -1 64 -1 #SUP: 3
250 -1 76 -1 #SUP: 2
250 -1 118 -1 #SUP: 2
250 -1 151 -1 #SUP: 3
250 -1 251 -1 #SUP: 3
250 -1 326 -1 #SUP: 2
251 -1 326 -1 #SUP: 2
268 -1 64 -1 #SUP: 2
273 -1 3 -1 #SUP: 2
273 -1 250 -1 #SUP: 3
278 -1 22 -1 #SUP: 2
278 -1 33 -1 #SUP: 2
278 -1 41 -1 #SUP: 2
278 -1 113 -1 #SUP: 2
312 -1 2 -1 #SUP: 2
312 -1 3 -1 #SUP: 2
312 -1 22 -1 #SUP: 2
312 -1 32 -1 #SUP: 2
312 -1 64 -1 #SUP: 2
312 -1 76 -1 #SUP: 2
312 -1 113 -1 #SUP: 2
312 -1 625 -1 #SUP: 2
312 -1 702 -1 #SUP: 2
326 -1 3 -1 #SUP: 4
326 -1 7 -1 #SUP: 2
326 -1 64 -1 #SUP: 2
326 -1 76 -1 #SUP: 3
326 -1 113 -1 #SUP: 3
326 -1 151 -1 #SUP: 3
326 -1 158 -1 #SUP: 2
326 -1 250 -1 #SUP: 2
326 -1 342 -1 #SUP: 2
326 -1 557 -1 #SUP: 2
326 -1 3293 -1 #SUP: 2
340 -1 2 -1 #SUP: 2
340 -1 3 -1 #SUP: 2
340 -1 64 -1 #SUP: 2
340 -1 76 -1 #SUP: 2
340 -1 342 -1 #SUP: 3
342 -1 2 -1 #SUP: 2
342 -1 3 -1 #SUP: 4
342 -1 7 -1 #SUP: 2
342 -1 10 -1 #SUP: 2
342 -1 22 -1 #SUP: 2
342 -1 64 -1 #SUP: 2
342 -1 76 -1 #SUP: 3
342 -1 113 -1 #SUP: 4
342 -1 149 -1 #SUP: 3
342 -1 187 -1 #SUP: 2
342 -1 214 -1 #SUP: 2
342 -1 278 -1 #SUP: 2
342 -1 312 -1 #SUP: 2
342 -1 557 -1 #SUP: 2
352 -1 64 -1 #SUP: 2
388 -1 76 -1 #SUP: 2
405 -1 3 -1 #SUP: 2
417 -1 443 -1 #SUP: 2
469 -1 3 -1 #SUP: 3
469 -1 22 -1 #SUP: 3
469 -1 64 -1 #SUP: 4
469 -1 65 -1 #SUP: 2
469 -1 76 -1 #SUP: 2
469 -1 129 -1 #SUP: 2
469 -1 469 -1 #SUP: 2
482 -1 64 -1 #SUP: 2
484 -1 7 -1 #SUP: 3
484 -1 22 -1 #SUP: 2
484 -1 342 -1 #SUP: 2
484 -1 364 -1 #SUP: 3
493 -1 22 -1 #SUP: 2
493 -1 32 -1 #SUP: 3
493 -1 65 -1 #SUP: 2
493 -1 248 -1 #SUP: 2
500 -1 22 -1 #SUP: 2
500 -1 32 -1 #SUP: 2
500 -1 65 -1 #SUP: 2
504 -1 22 -1 #SUP: 2
506 -1 115 -1 #SUP: 2
510 -1 10 -1 #SUP: 3
510 -1 22 -1 #SUP: 3
510 -1 113 -1 #SUP: 3
510 -1 182 -1 #SUP: 2
510 -1 786 -1 #SUP: 2
548 -1 2 -1 #SUP: 2
548 -1 3 -1 #SUP: 2
548 -1 340 -1 #SUP: 2
548 -1 342 -1 #SUP: 2
557 -1 2 -1 #SUP: 3
557 -1 3 -1 #SUP: 4
557 -1 7 -1 #SUP: 3
557 -1 10 -1 #SUP: 2
557 -1 15 -1 #SUP: 2
557 -1 22 -1 #SUP: 6
557 -1 29 -1 #SUP: 2
557 -1 31 -1 #SUP: 2
557 -1 64 -1 #SUP: 5
557 -1 76 -1 #SUP: 3
557 -1 113 -1 #SUP: 10
557 -1 151 -1 #SUP: 3
557 -1 201 -1 #SUP: 2
557 -1 214 -1 #SUP: 2
557 -1 232 -1 #SUP: 2
557 -1 388 -1 #SUP: 2
557 -1 786 -1 #SUP: 2
571 -1 3 -1 #SUP: 2
571 -1 22 -1 #SUP: 2
571 -1 64 -1 #SUP: 3
571 -1 250 -1 #SUP: 2
586 -1 65 -1 #SUP: 2
600 -1 64 -1 #SUP: 2
625 -1 64 -1 #SUP: 2
625 -1 76 -1 #SUP: 2
625 -1 469 -1 #SUP: 2
635 -1 32 -1 #SUP: 2
636 -1 41 -1 #SUP: 2
636 -1 113 -1 #SUP: 2
636 -1 273 -1 #SUP: 2
636 -1 469 -1 #SUP: 2
692 -1 22 -1 #SUP: 2
702 -1 2 -1 #SUP: 2
702 -1 3 -1 #SUP: 4
702 -1 32 -1 #SUP: 3
702 -1 64 -1 #SUP: 2
702 -1 65 -1 #SUP: 2
702 -1 242 -1 #SUP: 2
702 -1 364 -1 #SUP: 2
702 -1 484 -1 #SUP: 3
710 -1 151 -1 #SUP: 2
747 -1 3 -1 #SUP: 2
747 -1 31 -1 #SUP: 2
747 -1 41 -1 #SUP: 7
747 -1 64 -1 #SUP: 2
783 -1 3 -1 #SUP: 2
783 -1 65 -1 #SUP: 2
786 -1 2 -1 #SUP: 3
786 -1 3 -1 #SUP: 2
786 -1 76 -1 #SUP: 2
786 -1 113 -1 #SUP: 2
786 -1 144 -1 #SUP: 2
786 -1 250 -1 #SUP: 2
786 -1 340 -1 #SUP: 2
927 -1 64 -1 #SUP: 2
1057 -1 2 -1 #SUP: 2
1100 -1 32 -1 #SUP: 2
1101 -1 3 -1 #SUP: 2
1175 -1 3 -1 #SUP: 2
1175 -1 41 -1 #SUP: 2
1175 -1 64 -1 #SUP: 2
1175 -1 113 -1 #SUP: 3
1664 -1 76 -1 #SUP: 2
1678 -1 3 -1 #SUP: 2
1678 -1 41 -1 #SUP: 2
1678 -1 64 -1 #SUP: 2
1678 -1 221 -1 #SUP: 2
1678 -1 273 -1 #SUP: 2
1678 -1 636 -1 #SUP: 2
1678 -1 1720 -1 #SUP: 2
1707 -1 41 -1 #SUP: 2
1720 -1 41 -1 #SUP: 2
1720 -1 64 -1 #SUP: 2
1720 -1 273 -1 #SUP: 2
1720 -1 636 -1 #SUP: 2
1940 -1 64 -1 #SUP: 2
2022 -1 76 -1 #SUP: 2
2079 -1 2 -1 #SUP: 2
2079 -1 41 -1 #SUP: 2
2079 -1 64 -1 #SUP: 2
2081 -1 160 -1 #SUP: 2
3293 -1 3 -1 #SUP: 2
2 -1 3 -1 2 -1 #SUP: 2
2 -1 3 -1 22 -1 #SUP: 2
2 -1 3 -1 32 -1 #SUP: 2
2 -1 3 -1 65 -1 #SUP: 3
2 -1 3 -1 76 -1 #SUP: 2
2 -1 3 -1 340 -1 #SUP: 3
2 -1 3 -1 342 -1 #SUP: 3
2 -1 3 -1 493 -1 #SUP: 2
2 -1 22 -1 32 -1 #SUP: 2
2 -1 22 -1 76 -1 #SUP: 2
2 -1 22 -1 1057 -1 #SUP: 2
2 -1 22 -1 1664 -1 #SUP: 2
2 -1 64 -1 22 -1 #SUP: 3
2 -1 76 -1 1057 -1 #SUP: 2
2 -1 113 -1 3 -1 #SUP: 2
2 -1 113 -1 50 -1 #SUP: 2
2 -1 113 -1 151 -1 #SUP: 2
2 -1 141 -1 65 -1 #SUP: 2
2 -1 151 -1 3 -1 #SUP: 2
2 -1 340 -1 2 -1 #SUP: 2
2 -1 340 -1 342 -1 #SUP: 3
2 -1 342 -1 2 -1 #SUP: 2
2 -1 493 -1 22 -1 #SUP: 2
2 -1 493 -1 32 -1 #SUP: 2
2 -1 1664 -1 76 -1 #SUP: 2
3 -1 2 -1 3 -1 #SUP: 4
3 -1 2 -1 22 -1 #SUP: 3
3 -1 2 -1 32 -1 #SUP: 2
3 -1 2 -1 493 -1 #SUP: 2
3 -1 2 -1 702 -1 #SUP: 2
3 -1 3 -1 22 -1 #SUP: 4
3 -1 3 -1 32 -1 #SUP: 3
3 -1 3 -1 64 -1 #SUP: 2
3 -1 3 -1 160 -1 #SUP: 2
3 -1 3 -1 493 -1 #SUP: 2
3 -1 10 -1 113 -1 #SUP: 2
3 -1 22 -1 76 -1 #SUP: 2
3 -1 22 -1 213 -1 #SUP: 2
3 -1 30 -1 30 -1 #SUP: 2
3 -1 31 -1 3 -1 #SUP: 2
3 -1 31 -1 64 -1 #SUP: 2
3 -1 32 -1 2 -1 #SUP: 2
3 -1 32 -1 3 -1 #SUP: 2
3 -1 33 -1 22 -1 #SUP: 2
3 -1 33 -1 452 -1 #SUP: 2
3 -1 41 -1 29 -1 #SUP: 3
3 -1 64 -1 3 -1 #SUP: 3
3 -1 64 -1 22 -1 #SUP: 2
3 -1 65 -1 65 -1 #SUP: 2
3 -1 76 -1 3 -1 #SUP: 2
3 -1 76 -1 64 -1 #SUP: 2
3 -1 76 -1 69 -1 #SUP: 2
3 -1 76 -1 213 -1 #SUP: 2
3 -1 113 -1 2 -1 #SUP: 2
3 -1 250 -1 151 -1 #SUP: 2
3 -1 278 -1 41 -1 #SUP: 2
3 -1 312 -1 2 -1 #SUP: 2
3 -1 312 -1 3 -1 #SUP: 2
3 -1 312 -1 32 -1 #SUP: 2
3 -1 312 -1 702 -1 #SUP: 2
3 -1 340 -1 2 -1 #SUP: 2
3 -1 340 -1 3 -1 #SUP: 2
3 -1 340 -1 342 -1 #SUP: 3
3 -1 342 -1 2 -1 #SUP: 2
3 -1 342 -1 3 -1 #SUP: 3
3 -1 493 -1 22 -1 #SUP: 2
3 -1 493 -1 32 -1 #SUP: 2
3 -1 504 -1 22 -1 #SUP: 2
3 -1 557 -1 22 -1 #SUP: 2
3 -1 702 -1 3 -1 #SUP: 2
3 -1 702 -1 32 -1 #SUP: 2
3 -1 702 -1 242 -1 #SUP: 2
3 -1 1940 -1 64 -1 #SUP: 2
7 -1 22 -1 151 -1 #SUP: 2
7 -1 22 -1 213 -1 #SUP: 2
7 -1 33 -1 64 -1 #SUP: 2
7 -1 65 -1 64 -1 #SUP: 2
7 -1 213 -1 10 -1 #SUP: 2
10 -1 22 -1 2 -1 #SUP: 2
10 -1 22 -1 887 -1 #SUP: 2
22 -1 3 -1 76 -1 #SUP: 2
22 -1 22 -1 32 -1 #SUP: 3
22 -1 22 -1 65 -1 #SUP: 2
22 -1 32 -1 29 -1 #SUP: 2
22 -1 32 -1 65 -1 #SUP: 2
22 -1 33 -1 22 -1 #SUP: 2
22 -1 50 -1 3 -1 #SUP: 2
22 -1 64 -1 3 -1 #SUP: 2
22 -1 64 -1 50 -1 #SUP: 2
22 -1 76 -1 22 -1 #SUP: 3
22 -1 113 -1 7 -1 #SUP: 2
22 -1 151 -1 64 -1 #SUP: 2
22 -1 201 -1 76 -1 #SUP: 2
22 -1 213 -1 3 -1 #SUP: 2
22 -1 213 -1 64 -1 #SUP: 2
22 -1 214 -1 22 -1 #SUP: 2
22 -1 1057 -1 2 -1 #SUP: 2
22 -1 1664 -1 76 -1 #SUP: 2
31 -1 3 -1 340 -1 #SUP: 2
31 -1 64 -1 3 -1 #SUP: 2
31 -1 64 -1 340 -1 #SUP: 2
32 -1 2 -1 22 -1 #SUP: 2
32 -1 2 -1 64 -1 #SUP: 2
32 -1 2 -1 76 -1 #SUP: 2
32 -1 3 -1 22 -1 #SUP: 2
32 -1 22 -1 76 -1 #SUP: 3
32 -1 22 -1 557 -1 #SUP: 2
32 -1 22 -1 1664 -1 #SUP: 2
32 -1 33 -1 22 -1 #SUP: 2
32 -1 64 -1 22 -1 #SUP: 2
32 -1 76 -1 113 -1 #SUP: 3
32 -1 1664 -1 76 -1 #SUP: 2
33 -1 22 -1 635 -1 #SUP: 2
33 -1 65 -1 32 -1 #SUP: 2
33 -1 250 -1 76 -1 #SUP: 2
33 -1 250 -1 151 -1 #SUP: 2
41 -1 2 -1 64 -1 #SUP: 2
41 -1 3 -1 278 -1 #SUP: 2
41 -1 33 -1 64 -1 #SUP: 2
41 -1 33 -1 250 -1 #SUP: 2
41 -1 139 -1 326 -1 #SUP: 2
41 -1 139 -1 3293 -1 #SUP: 2
41 -1 273 -1 3 -1 #SUP: 2
41 -1 326 -1 3293 -1 #SUP: 2
46 -1 2 -1 702 -1 #SUP: 2
46 -1 3 -1 2 -1 #SUP: 2
46 -1 3 -1 312 -1 #SUP: 2
46 -1 3 -1 702 -1 #SUP: 2
46 -1 312 -1 2 -1 #SUP: 2
46 -1 312 -1 702 -1 #SUP: 2
50 -1 2 -1 702 -1 #SUP: 2
50 -1 3 -1 2 -1 #SUP: 2
50 -1 3 -1 3 -1 #SUP: 2
50 -1 3 -1 76 -1 #SUP: 2
50 -1 3 -1 312 -1 #SUP: 2
50 -1 3 -1 702 -1 #SUP: 2
50 -1 46 -1 2 -1 #SUP: 2
50 -1 46 -1 3 -1 #SUP: 2
50 -1 46 -1 22 -1 #SUP: 2
50 -1 46 -1 312 -1 #SUP: 2
50 -1 46 -1 702 -1 #SUP: 2
50 -1 163 -1 46 -1 #SUP: 2
50 -1 312 -1 2 -1 #SUP: 2
50 -1 312 -1 702 -1 #SUP: 2
50 -1 783 -1 3 -1 #SUP: 2
64 -1 2 -1 3 -1 #SUP: 2
64 -1 2 -1 32 -1 #SUP: 2
64 -1 2 -1 47 -1 #SUP: 2
64 -1 2 -1 64 -1 #SUP: 2
64 -1 3 -1 64 -1 #SUP: 2
64 -1 3 -1 76 -1 #SUP: 3
64 -1 3 -1 340 -1 #SUP: 2
64 -1 3 -1 929 -1 #SUP: 2
64 -1 22 -1 7 -1 #SUP: 2
64 -1 22 -1 76 -1 #SUP: 2
64 -1 41 -1 273 -1 #SUP: 2
64 -1 50 -1 52 -1 #SUP: 2
64 -1 113 -1 151 -1 #SUP: 2
64 -1 151 -1 64 -1 #SUP: 2
64 -1 213 -1 64 -1 #SUP: 2
64 -1 636 -1 41 -1 #SUP: 2
64 -1 636 -1 273 -1 #SUP: 2
64 -1 636 -1 469 -1 #SUP: 2
65 -1 2 -1 22 -1 #SUP: 2
65 -1 2 -1 64 -1 #SUP: 2
65 -1 32 -1 64 -1 #SUP: 2
65 -1 32 -1 76 -1 #SUP: 2
65 -1 32 -1 182 -1 #SUP: 2
65 -1 33 -1 2 -1 #SUP: 2
65 -1 64 -1 22 -1 #SUP: 2
65 -1 76 -1 76 -1 #SUP: 2
65 -1 76 -1 557 -1 #SUP: 2
65 -1 1100 -1 32 -1 #SUP: 2
69 -1 64 -1 3 -1 #SUP: 2
76 -1 7 -1 22 -1 #SUP: 2
76 -1 7 -1 64 -1 #SUP: 2
76 -1 16 -1 64 -1 #SUP: 2
76 -1 22 -1 64 -1 #SUP: 2
76 -1 32 -1 405 -1 #SUP: 2
76 -1 64 -1 22 -1 #SUP: 2
76 -1 64 -1 113 -1 #SUP: 2
76 -1 69 -1 64 -1 #SUP: 2
76 -1 76 -1 15 -1 #SUP: 2
76 -1 76 -1 113 -1 #SUP: 2
76 -1 76 -1 557 -1 #SUP: 3
76 -1 81 -1 64 -1 #SUP: 2
76 -1 113 -1 22 -1 #SUP: 4
76 -1 113 -1 32 -1 #SUP: 3
76 -1 113 -1 64 -1 #SUP: 3
76 -1 113 -1 66 -1 #SUP: 2
76 -1 113 -1 76 -1 #SUP: 2
76 -1 113 -1 248 -1 #SUP: 2
76 -1 113 -1 340 -1 #SUP: 2
76 -1 113 -1 405 -1 #SUP: 2
76 -1 113 -1 571 -1 #SUP: 2
76 -1 213 -1 64 -1 #SUP: 2
76 -1 248 -1 405 -1 #SUP: 2
76 -1 557 -1 15 -1 #SUP: 2
76 -1 557 -1 22 -1 #SUP: 2
76 -1 557 -1 64 -1 #SUP: 2
76 -1 557 -1 113 -1 #SUP: 3
76 -1 1057 -1 2 -1 #SUP: 2
77 -1 510 -1 786 -1 #SUP: 2
113 -1 2 -1 113 -1 #SUP: 2
113 -1 3 -1 3 -1 #SUP: 3
113 -1 3 -1 10 -1 #SUP: 2
113 -1 3 -1 22 -1 #SUP: 2
113 -1 3 -1 31 -1 #SUP: 2
113 -1 3 -1 65 -1 #SUP: 4
113 -1 3 -1 113 -1 #SUP: 6
113 -1 3 -1 250 -1 #SUP: 2
113 -1 3 -1 278 -1 #SUP: 3
113 -1 3 -1 504 -1 #SUP: 2
113 -1 3 -1 557 -1 #SUP: 2
113 -1 3 -1 786 -1 #SUP: 2
113 -1 3 -1 929 -1 #SUP: 2
113 -1 3 -1 1042 -1 #SUP: 2
113 -1 7 -1 3 -1 #SUP: 2
113 -1 7 -1 22 -1 #SUP: 2
113 -1 7 -1 64 -1 #SUP: 2
113 -1 7 -1 65 -1 #SUP: 3
113 -1 7 -1 213 -1 #SUP: 2
113 -1 10 -1 113 -1 #SUP: 2
113 -1 22 -1 113 -1 #SUP: 2
113 -1 41 -1 273 -1 #SUP: 2
113 -1 64 -1 2 -1 #SUP: 3
113 -1 64 -1 3 -1 #SUP: 3
113 -1 64 -1 22 -1 #SUP: 2
113 -1 64 -1 41 -1 #SUP: 2
113 -1 64 -1 113 -1 #SUP: 2
113 -1 64 -1 151 -1 #SUP: 2
113 -1 64 -1 273 -1 #SUP: 2
113 -1 64 -1 636 -1 #SUP: 2
113 -1 65 -1 32 -1 #SUP: 2
113 -1 65 -1 113 -1 #SUP: 2
113 -1 65 -1 557 -1 #SUP: 2
113 -1 65 -1 1100 -1 #SUP: 2
113 -1 76 -1 64 -1 #SUP: 2
113 -1 76 -1 76 -1 #SUP: 3
113 -1 76 -1 113 -1 #SUP: 3
113 -1 76 -1 557 -1 #SUP: 2
113 -1 81 -1 64 -1 #SUP: 2
113 -1 113 -1 3 -1 #SUP: 4
113 -1 113 -1 7 -1 #SUP: 3
113 -1 113 -1 22 -1 #SUP: 2
113 -1 113 -1 64 -1 #SUP: 4
113 -1 113 -1 65 -1 #SUP: 3
113 -1 113 -1 76 -1 #SUP: 2
113 -1 113 -1 113 -1 #SUP: 2
113 -1 113 -1 118 -1 #SUP: 2
113 -1 113 -1 161 -1 #SUP: 2
113 -1 113 -1 200 -1 #SUP: 2
113 -1 113 -1 250 -1 #SUP: 2
113 -1 113 -1 786 -1 #SUP: 2
113 -1 113 -1 1042 -1 #SUP: 2
113 -1 118 -1 250 -1 #SUP: 2
113 -1 118 -1 273 -1 #SUP: 2
113 -1 141 -1 3 -1 #SUP: 2
113 -1 141 -1 113 -1 #SUP: 2
113 -1 151 -1 3 -1 #SUP: 4
113 -1 151 -1 65 -1 #SUP: 3
113 -1 151 -1 113 -1 #SUP: 2
113 -1 151 -1 158 -1 #SUP: 2
113 -1 158 -1 113 -1 #SUP: 2
113 -1 161 -1 64 -1 #SUP: 2
113 -1 194 -1 3 -1 #SUP: 3
113 -1 200 -1 64 -1 #SUP: 2
113 -1 221 -1 41 -1 #SUP: 2
113 -1 221 -1 64 -1 #SUP: 2
113 -1 221 -1 273 -1 #SUP: 2
113 -1 221 -1 636 -1 #SUP: 2
113 -1 221 -1 1720 -1 #SUP: 2
113 -1 248 -1 113 -1 #SUP: 2
113 -1 248 -1 405 -1 #SUP: 2
113 -1 248 -1 786 -1 #SUP: 2
113 -1 250 -1 2 -1 #SUP: 2
113 -1 250 -1 3 -1 #SUP: 2
113 -1 273 -1 250 -1 #SUP: 2
113 -1 278 -1 22 -1 #SUP: 2
113 -1 278 -1 113 -1 #SUP: 2
113 -1 312 -1 113 -1 #SUP: 2
113 -1 326 -1 7 -1 #SUP: 2
113 -1 326 -1 76 -1 #SUP: 2
113 -1 326 -1 113 -1 #SUP: 3
113 -1 326 -1 151 -1 #SUP: 2
113 -1 326 -1 158 -1 #SUP: 2
113 -1 326 -1 250 -1 #SUP: 2
113 -1 326 -1 342 -1 #SUP: 2
113 -1 326 -1 557 -1 #SUP: 2
113 -1 342 -1 76 -1 #SUP: 2
113 -1 342 -1 113 -1 #SUP: 2
113 -1 342 -1 312 -1 #SUP: 2
113 -1 482 -1 64 -1 #SUP: 2
113 -1 506 -1 115 -1 #SUP: 2
113 -1 557 -1 7 -1 #SUP: 2
113 -1 557 -1 64 -1 #SUP: 2
113 -1 557 -1 113 -1 #SUP: 3
113 -1 557 -1 786 -1 #SUP: 2
113 -1 571 -1 22 -1 #SUP: 2
113 -1 571 -1 250 -1 #SUP: 2
113 -1 636 -1 41 -1 #SUP: 2
113 -1 636 -1 273 -1 #SUP: 2
113 -1 786 -1 2 -1 #SUP: 2
113 -1 786 -1 3 -1 #SUP: 2
113 -1 786 -1 113 -1 #SUP: 2
113 -1 786 -1 250 -1 #SUP: 2
113 -1 786 -1 340 -1 #SUP: 2
113 -1 927 -1 64 -1 #SUP: 2
113 -1 1678 -1 41 -1 #SUP: 2
113 -1 1678 -1 64 -1 #SUP: 2
113 -1 1678 -1 221 -1 #SUP: 2
113 -1 1678 -1 273 -1 #SUP: 2
113 -1 1678 -1 636 -1 #SUP: 2
113 -1 1678 -1 1720 -1 #SUP: 2
113 -1 1720 -1 41 -1 #SUP: 2
113 -1 1720 -1 64 -1 #SUP: 2
113 -1 1720 -1 273 -1 #SUP: 2
113 -1 1720 -1 636 -1 #SUP: 2
118 -1 273 -1 250 -1 #SUP: 2
131 -1 22 -1 64 -1 #SUP: 2
139 -1 64 -1 3 -1 #SUP: 2
139 -1 326 -1 3 -1 #SUP: 2
139 -1 326 -1 3293 -1 #SUP: 2
139 -1 3293 -1 3 -1 #SUP: 2
141 -1 31 -1 113 -1 #SUP: 2
151 -1 3 -1 65 -1 #SUP: 4
151 -1 7 -1 64 -1 #SUP: 2
151 -1 50 -1 3 -1 #SUP: 2
151 -1 50 -1 783 -1 #SUP: 2
151 -1 64 -1 3 -1 #SUP: 3
151 -1 113 -1 3 -1 #SUP: 2
151 -1 783 -1 3 -1 #SUP: 2
158 -1 3 -1 10 -1 #SUP: 2
158 -1 3 -1 113 -1 #SUP: 3
158 -1 3 -1 250 -1 #SUP: 2
158 -1 10 -1 113 -1 #SUP: 2
158 -1 76 -1 76 -1 #SUP: 2
158 -1 76 -1 113 -1 #SUP: 2
158 -1 113 -1 3 -1 #SUP: 3
158 -1 113 -1 10 -1 #SUP: 3
158 -1 113 -1 65 -1 #SUP: 2
158 -1 113 -1 113 -1 #SUP: 4
163 -1 46 -1 702 -1 #SUP: 2
165 -1 32 -1 22 -1 #SUP: 2
182 -1 10 -1 22 -1 #SUP: 2
194 -1 3 -1 65 -1 #SUP: 2
194 -1 342 -1 149 -1 #SUP: 2
201 -1 151 -1 113 -1 #SUP: 2
213 -1 3 -1 76 -1 #SUP: 2
213 -1 64 -1 3 -1 #SUP: 2
221 -1 41 -1 273 -1 #SUP: 2
221 -1 64 -1 41 -1 #SUP: 2
221 -1 64 -1 273 -1 #SUP: 2
221 -1 64 -1 636 -1 #SUP: 2
221 -1 636 -1 41 -1 #SUP: 2
221 -1 636 -1 273 -1 #SUP: 2
221 -1 1720 -1 41 -1 #SUP: 2
221 -1 1720 -1 64 -1 #SUP: 2
221 -1 1720 -1 273 -1 #SUP: 2
221 -1 1720 -1 636 -1 #SUP: 2
224 -1 469 -1 64 -1 #SUP: 2
242 -1 2 -1 64 -1 #SUP: 2
242 -1 113 -1 113 -1 #SUP: 2
244 -1 22 -1 113 -1 #SUP: 2
250 -1 3 -1 3 -1 #SUP: 2
250 -1 3 -1 41 -1 #SUP: 2
250 -1 3 -1 64 -1 #SUP: 2
250 -1 64 -1 3 -1 #SUP: 2
250 -1 251 -1 326 -1 #SUP: 2
278 -1 22 -1 113 -1 #SUP: 2
312 -1 2 -1 702 -1 #SUP: 2
312 -1 3 -1 22 -1 #SUP: 2
312 -1 76 -1 64 -1 #SUP: 2
312 -1 625 -1 64 -1 #SUP: 2
312 -1 625 -1 76 -1 #SUP: 2
326 -1 64 -1 3 -1 #SUP: 2
326 -1 113 -1 3 -1 #SUP: 2
326 -1 113 -1 7 -1 #SUP: 2
326 -1 151 -1 3 -1 #SUP: 2
326 -1 151 -1 158 -1 #SUP: 2
326 -1 342 -1 76 -1 #SUP: 2
326 -1 557 -1 7 -1 #SUP: 2
326 -1 557 -1 113 -1 #SUP: 2
326 -1 3293 -1 3 -1 #SUP: 2
340 -1 2 -1 3 -1 #SUP: 2
340 -1 342 -1 2 -1 #SUP: 2
340 -1 342 -1 3 -1 #SUP: 2
342 -1 2 -1 3 -1 #SUP: 2
342 -1 3 -1 278 -1 #SUP: 2
342 -1 76 -1 113 -1 #SUP: 3
342 -1 76 -1 557 -1 #SUP: 2
342 -1 187 -1 214 -1 #SUP: 2
342 -1 312 -1 113 -1 #SUP: 2
342 -1 557 -1 113 -1 #SUP: 2
469 -1 3 -1 64 -1 #SUP: 2
469 -1 22 -1 129 -1 #SUP: 2
510 -1 10 -1 22 -1 #SUP: 3
548 -1 3 -1 340 -1 #SUP: 2
548 -1 3 -1 342 -1 #SUP: 2
548 -1 340 -1 342 -1 #SUP: 2
557 -1 3 -1 64 -1 #SUP: 2
557 -1 7 -1 64 -1 #SUP: 2
557 -1 22 -1 2 -1 #SUP: 2
557 -1 22 -1 3 -1 #SUP: 2
557 -1 76 -1 113 -1 #SUP: 3
557 -1 113 -1 7 -1 #SUP: 3
557 -1 113 -1 22 -1 #SUP: 2
557 -1 113 -1 64 -1 #SUP: 4
557 -1 113 -1 786 -1 #SUP: 2
625 -1 76 -1 64 -1 #SUP: 2
636 -1 41 -1 273 -1 #SUP: 2
702 -1 3 -1 2 -1 #SUP: 2
702 -1 3 -1 3 -1 #SUP: 2
702 -1 3 -1 32 -1 #SUP: 2
702 -1 484 -1 364 -1 #SUP: 2
786 -1 2 -1 3 -1 #SUP: 2
786 -1 340 -1 76 -1 #SUP: 2
1175 -1 113 -1 64 -1 #SUP: 2
1678 -1 41 -1 273 -1 #SUP: 2
1678 -1 64 -1 41 -1 #SUP: 2
1678 -1 64 -1 273 -1 #SUP: 2
1678 -1 64 -1 636 -1 #SUP: 2
1678 -1 221 -1 41 -1 #SUP: 2
1678 -1 221 -1 64 -1 #SUP: 2
1678 -1 221 -1 273 -1 #SUP: 2
1678 -1 221 -1 636 -1 #SUP: 2
1678 -1 221 -1 1720 -1 #SUP: 2
1678 -1 636 -1 41 -1 #SUP: 2
1678 -1 636 -1 273 -1 #SUP: 2
1678 -1 1720 -1 41 -1 #SUP: 2
1678 -1 1720 -1 64 -1 #SUP: 2
1678 -1 1720 -1 273 -1 #SUP: 2
1678 -1 1720 -1 636 -1 #SUP: 2
1720 -1 41 -1 273 -1 #SUP: 2
1720 -1 64 -1 41 -1 #SUP: 2
1720 -1 64 -1 273 -1 #SUP: 2
1720 -1 64 -1 636 -1 #SUP: 2
1720 -1 636 -1 41 -1 #SUP: 2
1720 -1 636 -1 273 -1 #SUP: 2
2079 -1 2 -1 64 -1 #SUP: 2
2079 -1 64 -1 64 -1 #SUP: 2
2 -1 3 -1 340 -1 2 -1 #SUP: 2
2 -1 3 -1 340 -1 342 -1 #SUP: 3
2 -1 3 -1 342 -1 2 -1 #SUP: 2
2 -1 3 -1 493 -1 22 -1 #SUP: 2
2 -1 3 -1 493 -1 32 -1 #SUP: 2
2 -1 22 -1 1664 -1 76 -1 #SUP: 2
2 -1 113 -1 151 -1 3 -1 #SUP: 2
2 -1 340 -1 342 -1 2 -1 #SUP: 2
3 -1 2 -1 3 -1 22 -1 #SUP: 2
3 -1 2 -1 3 -1 32 -1 #SUP: 2
3 -1 2 -1 3 -1 493 -1 #SUP: 2
3 -1 2 -1 493 -1 22 -1 #SUP: 2
3 -1 2 -1 493 -1 32 -1 #SUP: 2
3 -1 3 -1 493 -1 22 -1 #SUP: 2
3 -1 3 -1 493 -1 32 -1 #SUP: 2
3 -1 312 -1 2 -1 702 -1 #SUP: 2
3 -1 340 -1 2 -1 3 -1 #SUP: 2
3 -1 340 -1 342 -1 2 -1 #SUP: 2
3 -1 340 -1 342 -1 3 -1 #SUP: 2
3 -1 342 -1 2 -1 3 -1 #SUP: 2
3 -1 702 -1 3 -1 32 -1 #SUP: 2
31 -1 64 -1 3 -1 340 -1 #SUP: 2
32 -1 2 -1 64 -1 22 -1 #SUP: 2
32 -1 22 -1 1664 -1 76 -1 #SUP: 2
41 -1 139 -1 326 -1 3293 -1 #SUP: 2
46 -1 3 -1 2 -1 702 -1 #SUP: 2
46 -1 3 -1 312 -1 2 -1 #SUP: 2
46 -1 3 -1 312 -1 702 -1 #SUP: 2
46 -1 312 -1 2 -1 702 -1 #SUP: 2
50 -1 3 -1 2 -1 702 -1 #SUP: 2
50 -1 3 -1 312 -1 2 -1 #SUP: 2
50 -1 3 -1 312 -1 702 -1 #SUP: 2
50 -1 46 -1 2 -1 702 -1 #SUP: 2
50 -1 46 -1 3 -1 2 -1 #SUP: 2
50 -1 46 -1 3 -1 312 -1 #SUP: 2
50 -1 46 -1 3 -1 702 -1 #SUP: 2
50 -1 46 -1 312 -1 2 -1 #SUP: 2
50 -1 46 -1 312 -1 702 -1 #SUP: 2
50 -1 312 -1 2 -1 702 -1 #SUP: 2
64 -1 636 -1 41 -1 273 -1 #SUP: 2
76 -1 76 -1 557 -1 15 -1 #SUP: 2
76 -1 113 -1 64 -1 22 -1 #SUP: 2
76 -1 113 -1 248 -1 405 -1 #SUP: 2
76 -1 557 -1 113 -1 64 -1 #SUP: 2
113 -1 3 -1 10 -1 113 -1 #SUP: 2
113 -1 64 -1 41 -1 273 -1 #SUP: 2
113 -1 64 -1 636 -1 41 -1 #SUP: 2
113 -1 64 -1 636 -1 273 -1 #SUP: 2
113 -1 118 -1 273 -1 250 -1 #SUP: 2
113 -1 151 -1 3 -1 65 -1 #SUP: 3
113 -1 151 -1 113 -1 3 -1 #SUP: 2
113 -1 221 -1 41 -1 273 -1 #SUP: 2
113 -1 221 -1 64 -1 41 -1 #SUP: 2
113 -1 221 -1 64 -1 273 -1 #SUP: 2
113 -1 221 -1 64 -1 636 -1 #SUP: 2
113 -1 221 -1 636 -1 41 -1 #SUP: 2
113 -1 221 -1 636 -1 273 -1 #SUP: 2
113 -1 221 -1 1720 -1 41 -1 #SUP: 2
113 -1 221 -1 1720 -1 64 -1 #SUP: 2
113 -1 221 -1 1720 -1 273 -1 #SUP: 2
113 -1 221 -1 1720 -1 636 -1 #SUP: 2
113 -1 278 -1 22 -1 113 -1 #SUP: 2
113 -1 326 -1 113 -1 7 -1 #SUP: 2
113 -1 326 -1 151 -1 158 -1 #SUP: 2
113 -1 326 -1 342 -1 76 -1 #SUP: 2
113 -1 326 -1 557 -1 7 -1 #SUP: 2
113 -1 326 -1 557 -1 113 -1 #SUP: 2
113 -1 342 -1 312 -1 113 -1 #SUP: 2
113 -1 557 -1 113 -1 7 -1 #SUP: 2
113 -1 557 -1 113 -1 64 -1 #SUP: 2
113 -1 557 -1 113 -1 786 -1 #SUP: 2
113 -1 636 -1 41 -1 273 -1 #SUP: 2
113 -1 1678 -1 41 -1 273 -1 #SUP: 2
113 -1 1678 -1 64 -1 41 -1 #SUP: 2
113 -1 1678 -1 64 -1 273 -1 #SUP: 2
113 -1 1678 -1 64 -1 636 -1 #SUP: 2
113 -1 1678 -1 221 -1 41 -1 #SUP: 2
113 -1 1678 -1 221 -1 64 -1 #SUP: 2
113 -1 1678 -1 221 -1 273 -1 #SUP: 2
113 -1 1678 -1 221 -1 636 -1 #SUP: 2
113 -1 1678 -1 221 -1 1720 -1 #SUP: 2
113 -1 1678 -1 636 -1 41 -1 #SUP: 2
113 -1 1678 -1 636 -1 273 -1 #SUP: 2
113 -1 1678 -1 1720 -1 41 -1 #SUP: 2
113 -1 1678 -1 1720 -1 64 -1 #SUP: 2
113 -1 1678 -1 1720 -1 273 -1 #SUP: 2
113 -1 1678 -1 1720 -1 636 -1 #SUP: 2
113 -1 1720 -1 41 -1 273 -1 #SUP: 2
113 -1 1720 -1 64 -1 41 -1 #SUP: 2
113 -1 1720 -1 64 -1 273 -1 #SUP: 2
113 -1 1720 -1 64 -1 636 -1 #SUP: 2
113 -1 1720 -1 636 -1 41 -1 #SUP: 2
113 -1 1720 -1 636 -1 273 -1 #SUP: 2
139 -1 326 -1 3293 -1 3 -1 #SUP: 2
151 -1 50 -1 783 -1 3 -1 #SUP: 2
158 -1 3 -1 10 -1 113 -1 #SUP: 2
158 -1 113 -1 3 -1 10 -1 #SUP: 2
158 -1 113 -1 3 -1 113 -1 #SUP: 3
158 -1 113 -1 10 -1 113 -1 #SUP: 2
221 -1 64 -1 41 -1 273 -1 #SUP: 2
221 -1 64 -1 636 -1 41 -1 #SUP: 2
221 -1 64 -1 636 -1 273 -1 #SUP: 2
221 -1 636 -1 41 -1 273 -1 #SUP: 2
221 -1 1720 -1 41 -1 273 -1 #SUP: 2
221 -1 1720 -1 64 -1 41 -1 #SUP: 2
221 -1 1720 -1 64 -1 273 -1 #SUP: 2
221 -1 1720 -1 64 -1 636 -1 #SUP: 2
221 -1 1720 -1 636 -1 41 -1 #SUP: 2
221 -1 1720 -1 636 -1 273 -1 #SUP: 2
312 -1 625 -1 76 -1 64 -1 #SUP: 2
326 -1 557 -1 113 -1 7 -1 #SUP: 2
340 -1 342 -1 2 -1 3 -1 #SUP: 2
342 -1 76 -1 557 -1 113 -1 #SUP: 2
548 -1 3 -1 340 -1 342 -1 #SUP: 2
557 -1 113 -1 7 -1 64 -1 #SUP: 2
1678 -1 64 -1 41 -1 273 -1 #SUP: 2
1678 -1 64 -1 636 -1 41 -1 #SUP: 2
1678 -1 64 -1 636 -1 273 -1 #SUP: 2
1678 -1 221 -1 41 -1 273 -1 #SUP: 2
1678 -1 221 -1 64 -1 41 -1 #SUP: 2
1678 -1 221 -1 64 -1 273 -1 #SUP: 2
1678 -1 221 -1 64 -1 636 -1 #SUP: 2
1678 -1 221 -1 636 -1 41 -1 #SUP: 2
1678 -1 221 -1 636 -1 273 -1 #SUP: 2
1678 -1 221 -1 1720 -1 41 -1 #SUP: 2
1678 -1 221 -1 1720 -1 64 -1 #SUP: 2
1678 -1 221 -1 1720 -1 273 -1 #SUP: 2
1678 -1 221 -1 1720 -1 636 -1 #SUP: 2
1678 -1 636 -1 41 -1 273 -1 #SUP: 2
1678 -1 1720 -1 41 -1 273 -1 #SUP: 2
1678 -1 1720 -1 64 -1 41 -1 #SUP: 2
1678 -1 1720 -1 64 -1 273 -1 #SUP: 2
1678 -1 1720 -1 64 -1 636 -1 #SUP: 2
1678 -1 1720 -1 636 -1 41 -1 #SUP: 2
1678 -1 1720 -1 636 -1 273 -1 #SUP: 2
1720 -1 64 -1 41 -1 273 -1 #SUP: 2
1720 -1 64 -1 636 -1 41 -1 #SUP: 2
1720 -1 64 -1 636 -1 273 -1 #SUP: 2
1720 -1 636 -1 41 -1 273 -1 #SUP: 2
2 -1 3 -1 340 -1 342 -1 2 -1 #SUP: 2
3 -1 2 -1 3 -1 493 -1 22 -1 #SUP: 2
3 -1 2 -1 3 -1 493 -1 32 -1 #SUP: 2
3 -1 340 -1 342 -1 2 -1 3 -1 #SUP: 2
46 -1 3 -1 312 -1 2 -1 702 -1 #SUP: 2
50 -1 3 -1 312 -1 2 -1 702 -1 #SUP: 2
50 -1 46 -1 3 -1 2 -1 702 -1 #SUP: 2
50 -1 46 -1 3 -1 312 -1 2 -1 #SUP: 2
50 -1 46 -1 3 -1 312 -1 702 -1 #SUP: 2
50 -1 46 -1 312 -1 2 -1 702 -1 #SUP: 2
113 -1 64 -1 636 -1 41 -1 273 -1 #SUP: 2
113 -1 221 -1 64 -1 41 -1 273 -1 #SUP: 2
113 -1 221 -1 64 -1 636 -1 41 -1 #SUP: 2
113 -1 221 -1 64 -1 636 -1 273 -1 #SUP: 2
113 -1 221 -1 636 -1 41 -1 273 -1 #SUP: 2
113 -1 221 -1 1720 -1 41 -1 273 -1 #SUP: 2
113 -1 221 -1 1720 -1 64 -1 41 -1 #SUP: 2
113 -1 221 -1 1720 -1 64 -1 273 -1 #SUP: 2
113 -1 221 -1 1720 -1 64 -1 636 -1 #SUP: 2
113 -1 221 -1 1720 -1 636 -1 41 -1 #SUP: 2
113 -1 221 -1 1720 -1 636 -1 273 -1 #SUP: 2
113 -1 326 -1 557 -1 113 -1 7 -1 #SUP: 2
113 -1 1678 -1 64 -1 41 -1 273 -1 #SUP: 2
113 -1 1678 -1 64 -1 636 -1 41 -1 #SUP: 2
113 -1 1678 -1 64 -1 636 -1 273 -1 #SUP: 2
113 -1 1678 -1 221 -1 41 -1 273 -1 #SUP: 2
113 -1 1678 -1 221 -1 64 -1 41 -1 #SUP: 2
113 -1 1678 -1 221 -1 64 -1 273 -1 #SUP: 2
113 -1 1678 -1 221 -1 64 -1 636 -1 #SUP: 2
113 -1 1678 -1 221 -1 636 -1 41 -1 #SUP: 2
113 -1 1678 -1 221 -1 636 -1 273 -1 #SUP: 2
113 -1 1678 -1 221 -1 1720 -1 41 -1 #SUP: 2
113 -1 1678 -1 221 -1 1720 -1 64 -1 #SUP: 2
113 -1 1678 -1 221 -1 1720 -1 273 -1 #SUP: 2
113 -1 1678 -1 221 -1 1720 -1 636 -1 #SUP: 2
113 -1 1678 -1 636 -1 41 -1 273 -1 #SUP: 2
113 -1 1678 -1 1720 -1 41 -1 273 -1 #SUP: 2
113 -1 1678 -1 1720 -1 64 -1 41 -1 #SUP: 2
113 -1 1678 -1 1720 -1 64 -1 273 -1 #SUP: 2
113 -1 1678 -1 1720 -1 64 -1 636 -1 #SUP: 2
113 -1 1678 -1 1720 -1 636 -1 41 -1 #SUP: 2
113 -1 1678 -1 1720 -1 636 -1 273 -1 #SUP: 2
113 -1 1720 -1 64 -1 41 -1 273 -1 #SUP: 2
113 -1 1720 -1 64 -1 636 -1 41 -1 #SUP: 2
113 -1 1720 -1 64 -1 636 -1 273 -1 #SUP: 2
113 -1 1720 -1 636 -1 41 -1 273 -1 #SUP: 2
158 -1 113 -1 3 -1 10 -1 113 -1 #SUP: 2
221 -1 64 -1 636 -1 41 -1 273 -1 #SUP: 2
221 -1 1720 -1 64 -1 41 -1 273 -1 #SUP: 2
221 -1 1720 -1 64 -1 636 -1 41 -1 #SUP: 2
221 -1 1720 -1 64 -1 636 -1 273 -1 #SUP: 2
221 -1 1720 -1 636 -1 41 -1 273 -1 #SUP: 2
1678 -1 64 -1 636 -1 41 -1 273 -1 #SUP: 2
1678 -1 221 -1 64 -1 41 -1 273 -1 #SUP: 2
1678 -1 221 -1 64 -1 636 -1 41 -1 #SUP: 2
1678 -1 221 -1 64 -1 636 -1 273 -1 #SUP: 2
1678 -1 221 -1 636 -1 41 -1 273 -1 #SUP: 2
1678 -1 221 -1 1720 -1 41 -1 273 -1 #SUP: 2
1678 -1 221 -1 1720 -1 64 -1 41 -1 #SUP: 2
1678 -1 221 -1 1720 -1 64 -1 273 -1 #SUP: 2
1678 -1 221 -1 1720 -1 64 -1 636 -1 #SUP: 2
1678 -1 221 -1 1720 -1 636 -1 41 -1 #SUP: 2
1678 -1 221 -1 1720 -1 636 -1 273 -1 #SUP: 2
1678 -1 1720 -1 64 -1 41 -1 273 -1 #SUP: 2
1678 -1 1720 -1 64 -1 636 -1 41 -1 #SUP: 2
1678 -1 1720 -1 64 -1 636 -1 273 -1 #SUP: 2
1678 -1 1720 -1 636 -1 41 -1 273 -1 #SUP: 2
1720 -1 64 -1 636 -1 41 -1 273 -1 #SUP: 2
50 -1 46 -1 3 -1 312 -1 2 -1 702 -1 #SUP: 2
113 -1 221 -1 64 -1 636 -1 41 -1 273 -1 #SUP: 2
113 -1 221 -1 1720 -1 64 -1 41 -1 273 -1 #SUP: 2
113 -1 221 -1 1720 -1 64 -1 636 -1 41 -1 #SUP: 2
113 -1 221 -1 1720 -1 64 -1 636 -1 273 -1 #SUP: 2
113 -1 221 -1 1720 -1 636 -1 41 -1 273 -1 #SUP: 2
113 -1 1678 -1 64 -1 636 -1 41 -1 273 -1 #SUP: 2
113 -1 1678 -1 221 -1 64 -1 41 -1 273 -1 #SUP: 2
113 -1 1678 -1 221 -1 64 -1 636 -1 41 -1 #SUP: 2
113 -1 1678 -1 221 -1 64 -1 636 -1 273 -1 #SUP: 2
113 -1 1678 -1 221 -1 636 -1 41 -1 273 -1 #SUP: 2
113 -1 1678 -1 221 -1 1720 -1 41 -1 273 -1 #SUP: 2
113 -1 1678 -1 221 -1 1720 -1 64 -1 41 -1 #SUP: 2
113 -1 1678 -1 221 -1 1720 -1 64 -1 273 -1 #SUP: 2
113 -1 1678 -1 221 -1 1720 -1 64 -1 636 -1 #SUP: 2
113 -1 1678 -1 221 -1 1720 -1 636 -1 41 -1 #SUP: 2
113 -1 1678 -1 221 -1 1720 -1 636 -1 273 -1 #SUP: 2
113 -1 1678 -1 1720 -1 64 -1 41 -1 273 -1 #SUP: 2
113 -1 1678 -1 1720 -1 64 -1 636 -1 41 -1 #SUP: 2
113 -1 1678 -1 1720 -1 64 -1 636 -1 273 -1 #SUP: 2
113 -1 1678 -1 1720 -1 636 -1 41 -1 273 -1 #SUP: 2
113 -1 1720 -1 64 -1 636 -1 41 -1 273 -1 #SUP: 2
221 -1 1720 -1 64 -1 636 -1 41 -1 273 -1 #SUP: 2
1678 -1 221 -1 64 -1 636 -1 41 -1 273 -1 #SUP: 2
1678 -1 221 -1 1720 -1 64 -1 41 -1 273 -1 #SUP: 2
1678 -1 221 -1 1720 -1 64 -1 636 -1 41 -1 #SUP: 2
1678 -1 221 -1 1720 -1 64 -1 636 -1 273 -1 #SUP: 2
1678 -1 221 -1 1720 -1 636 -1 41 -1 273 -1 #SUP: 2
1678 -1 1720 -1 64 -1 636 -1 41 -1 273 -1 #SUP: 2
113 -1 221 -1 1720 -1 64 -1 636 -1 41 -1 273 -1 #SUP: 2
113 -1 1678 -1 221 -1 64 -1 636 -1 41 -1 273 -1 #SUP: 2
113 -1 1678 -1 221 -1 1720 -1 64 -1 41 -1 273 -1 #SUP: 2
113 -1 1678 -1 221 -1 1720 -1 64 -1 636 -1 41 -1 #SUP: 2
113 -1 1678 -1 221 -1 1720 -1 64 -1 636 -1 273 -1 #SUP: 2
113 -1 1678 -1 221 -1 1720 -1 636 -1 41 -1 273 -1 #SUP: 2
113 -1 1678 -1 1720 -1 64 -1 636 -1 41 -1 273 -1 #SUP: 2
1678 -1 221 -1 1720 -1 64 -1 636 -1 41 -1 273 -1 #SUP: 2
113 -1 1678 -1 221 -1 1720 -1 64 -1 636 -1 41 -1 273 -1 #SUP: 2
