187 -1 32 -1 596 -1 6 -1 113 -1 208 -1 72 -1 504 -1 151 -1 2585 -1 65 -1 143 -1 1089 -1 613 -1 406 -1 74180 -1 194 -1 69 -1 242 -1 32 -1 22 -1 2347 -1 151 -1 21771 -1 22 -1 348 -1 41 -1 88824 -1 268 -1 686 -1 41 -1 256 -1 2809 -1 2 -1 401 -1 30 -2
3353 -1 160 -1 41 -1 2 -1 424 -1 22 -1 88826 -1 3 -1 27 -1 375 -1 3 -1 81 -1 64 -1 141 -1 31 -1 22 -1 49 -1 307 -1 21837 -1 1991 -1 190 -1 993 -1 3 -1 635 -1 433 -1 151 -1 208 -1 1473 -1 3826 -1 10 -1 644 -1 88825 -1 22 -1 72 -1 54 -1 151 -1 208 -1 30 -2
113 -1 248 -1 1121 -1 22 -1 2660 -1 557 -1 471 -1 151 -1 799 -1 506 -1 35681 -1 81201 -1 1640 -1 405 -1 773 -1 3 -1 247 -1 32 -1 644 -1 1006 -1 30 -2
342 -1 2943 -1 151 -1 50 -1 1309 -1 214 -1 3219 -1 113 -1 185 -1 364 -1 244 -1 2124 -1 2 -1 548 -1 687 -1 154 -1 226 -1 10 -1 50 -1 304 -1 5254 -1 30 -2
342 -1 2943 -1 32 -1 74 -1 242 -1 113 -1 118 -1 340 -1 22 -1 339 -1 32 -1 2063 -1 633 -1 10 -1 22 -1 66196 -1 1216 -1 22 -1 607 -1 3 -1 151 -1 224 -1 22 -1 702 -1 2223 -1 1198 -1 2 -1 1225 -1 160 -1 22 -1 469 -1 2223 -1 268 -1 8231 -1 31 -1 4525 -1 76 -1 22 -1 469 -1 2223 -1 316 -1 22 -1 702 -1 2223 -1 268 -1 400 -1 4525 -1 88827 -1 702 -1 2223 -1 161 -1 232 -1 7 -1 607 -1 10 -1 22 -1 30 -2
527 -1 88830 -1 469 -1 2223 -1 420 -1 8211 -1 33 -1 1539 -1 22 -1 702 -1 88828 -1 268 -1 88832 -1 64 -1 1539 -1 22 -1 201 -1 2223 -1 10 -1 889 -1 64 -1 34301 -1 22 -1 2223 -1 88833 -1 1017 -1 268 -1 2546 -1 88829 -1 141 -1 41 -1 326 -1 2223 -1 7 -1 56751 -1 88831 -1 124 -1 182 -1 30 -2
224 -1 1076 -1 504 -1 65 -1 702 -1 2223 -1 194 -1 151 -1 22 -1 3150 -1 32 -1 2223 -1 699 -1 189 -1 352 -1 208 -1 5110 -1 2571 -1 3610 -1 691 -1 2223 -1 76 -1 22 -1 469 -1 2223 -1 161 -1 504 -1 151 -1 405 -1 2223 -1 699 -1 64 -1 3 -1 4 -1 244 -1 22 -1 2545 -1 88834 -1 30 -2
88836 -1 340 -1 88835 -1 123 -1 88837 -1 271 -2
113 -1 7 -1 65 -1 1287 -1 2597 -1 2050 -1 3521 -1 32 -1 88838 -1 182 -1 234 -1 64 -1 1467 -1 312 -1 1009 -1 463 -1 3168 -1 1098 -1 2430 -1 1367 -1 3030 -1 10 -1 1098 -1 13 -1 76 -1 149 -1 256 -1 1365 -1 10 -1 1098 -1 13 -1 76 -1 10 -1 3462 -1 32 -1 22 -1 868 -1 151 -1 50 -1 1386 -1 2050 -1 30 -2
118 -1 504 -1 151 -1 39662 -1 3349 -1 226 -1 644 -1 13 -1 17 -1 9208 -1 5974 -1 242 -1 333 -1 3 -1 88839 -1 268 -1 65 -1 1589 -1 31 -1 88841 -1 484 -1 64 -1 88840 -1 187 -1 2 -1 1203 -1 187 -1 1017 -1 41 -1 54 -1 3 -1 1433 -1 271 -1 30 -2
88842 -1 41 -1 557 -1 190 -1 3 -1 248 -1 527 -1 699 -1 64 -1 2934 -1 30 -2
932 -1 88843 -1 342 -1 16 -1 1075 -1 273 -1 41 -1 256 -1 64 -1 22 -1 2903 -1 151 -1 113 -1 7 -1 264 -1 2310 -1 88844 -1 22 -1 8937 -1 76 -1 113 -1 3 -1 81 -1 64 -1 1203 -1 187 -1 151 -1 1273 -1 35 -1 699 -1 11858 -1 32 -1 3185 -1 149 -1 1939 -1 151 -1 208 -1 30 -2
557 -1 113 -1 248 -1 200 -1 118 -1 256 -1 4366 -1 124 -1 375 -1 141 -1 66 -1 383 -1 32 -1 443 -1 2 -1 182 -1 211 -1 139 -1 187 -1 151 -1 50 -1 296 -1 1313 -1 3 -1 10 -1 88845 -1 342 -1 65 -1 2763 -1 76 -1 2222 -1 342 -1 10 -1 19181 -1 32 -1 1120 -1 148 -1 604 -1 88846 -1 194 -1 5351 -1 30 -2
654 -1 7 -1 561 -1 339 -1 557 -1 404 -1 1033 -1 64 -1 646 -1 305 -1 1400 -1 242 -1 131 -1 3 -1 22 -1 9394 -1 88847 -1 3349 -1 340 -1 22 -1 3372 -1 373 -1 511 -1 424 -1 211 -1 4431 -1 65 -1 3032 -1 144 -1 3405 -1 2 -1 4937 -1 187 -1 27 -1 22 -1 30 -2
272 -1 189 -1 2648 -1 1621 -1 76 -1 686 -1 22 -1 296 -1 1313 -1 3 -1 1554 -1 604 -1 2 -1 22 -1 293 -1 165 -1 88848 -1 194 -1 250 -1 1380 -1 3 -1 3126 -1 33 -1 88849 -1 50 -1 1203 -1 32 -1 1186 -1 76 -1 22 -1 288 -1 3811 -1 513 -1 999 -1 151 -1 30 -2
113 -1 694 -1 312 -1 1057 -1 92 -1 1152 -1 2 -1 2023 -1 417 -1 88850 -1 237 -1 238 -1 1242 -1 113 -1 401 -1 2626 -1 702 -1 242 -1 702 -1 3 -1 2581 -1 66 -1 22 -1 75 -1 2 -1 2023 -1 211 -1 6837 -1 347 -1 2344 -1 234 -1 150 -1 201 -1 2 -1 30 -2
214 -1 141 -1 3027 -1 483 -1 360 -1 88852 -1 268 -1 16348 -1 768 -1 80415 -1 118 -1 50215 -1 201 -1 160 -1 88851 -1 641 -1 340 -1 182 -1 76 -1 557 -1 113 -1 603 -1 29197 -1 554 -1 659 -1 113 -1 401 -1 10912 -1 213 -1 158 -1 54 -1 118 -1 463 -1 50 -1 18888 -1 256 -1 30 -2
63 -1 31 -1 701 -1 484 -1 183 -1 30 -2
41 -1 7 -1 65 -1 9800 -1 394 -1 32 -1 21386 -1 1178 -1 41 -1 194 -1 2801 -1 3 -1 4835 -1 601 -1 22133 -1 1524 -1 29 -1 1353 -1 76 -1 557 -1 158 -1 113 -1 504 -1 2801 -1 113 -1 124 -1 1221 -1 115 -1 22 -1 30 -2
88854 -1 41 -1 500 -1 29 -1 1754 -1 88855 -1 221 -1 224 -1 41 -1 141 -1 500 -1 131 -1 154 -1 160 -1 635 -1 5600 -1 6262 -1 151 -1 636 -1 41 -1 165 -1 54 -1 76 -1 151 -1 1089 -1 510 -1 469 -1 88853 -1 3310 -1 41 -1 50 -1 1203 -1 32 -1 1186 -1 76 -1 2 -1 342 -1 16 -1 30 -2
7 -1 41 -1 798 -1 1114 -1 831 -1 160 -1 9217 -1 149 -1 65 -1 4357 -1 32 -1 88857 -1 317 -1 3 -1 26183 -1 64 -1 308 -1 151 -1 7985 -1 720 -1 3 -1 81 -1 64 -1 1621 -1 273 -1 139 -1 1019 -1 32 -1 333 -1 88856 -1 22 -1 394 -1 131 -1 30 -2
88858 -1 88859 -1 268 -1 2796 -1 30 -2
483 -1 88860 -1 224 -1 182 -1 3425 -1 31 -1 50 -1 3773 -1 467 -1 76 -1 195 -1 860 -1 3 -1 345 -1 33 -1 22 -1 1526 -1 76 -1 66 -1 6678 -1 2 -1 15357 -1 76 -1 6514 -1 154 -1 10 -1 312 -1 88861 -1 699 -1 182 -1 10 -1 889 -1 64 -1 611 -1 1692 -1 29 -1 1185 -1 9974 -1 32 -1 30 -2
234 -1 2931 -1 113 -1 31 -1 3 -1 1053 -1 65 -1 88862 -1 182 -1 789 -1 3 -1 65 -1 3773 -1 467 -1 76 -1 232 -1 113 -1 711 -1 3 -1 2756 -1 278 -1 22 -1 732 -1 32 -1 201 -1 213 -1 158 -1 182 -1 139 -1 64 -1 936 -1 63370 -1 200 -1 1227 -1 1802 -1 151 -1 30 -2
113 -1 1554 -1 388 -1 64 -1 3 -1 474 -1 88863 -1 1139 -1 76 -1 3796 -1 268 -1 972 -1 76 -1 3808 -1 10 -1 1635 -1 2 -1 3156 -1 6113 -1 113 -1 64 -1 646 -1 65 -1 1124 -1 2903 -1 1521 -1 64 -1 213 -1 224 -1 635 -1 3 -1 2730 -1 76 -1 232 -1 69 -1 16 -1 30 -2
113 -1 462 -1 141 -1 10829 -1 65 -1 2824 -1 7884 -1 32 -1 54 -1 10 -1 50 -1 878 -1 966 -1 10 -1 2758 -1 773 -1 576 -1 64 -1 27 -1 195 -1 6 -1 10 -1 88864 -1 268 -1 65 -1 658 -1 4600 -1 31 -1 113 -1 242 -1 135 -1 635 -1 213 -1 445 -1 30 -2
113 -1 1678 -1 504 -1 113 -1 1418 -1 61863 -1 211 -1 7 -1 2188 -1 1418 -1 242 -1 113 -1 1487 -1 403 -1 1183 -1 31 -1 22 -1 1321 -1 32 -1 213 -1 2 -1 1151 -1 936 -1 22 -1 868 -1 151 -1 131 -1 7 -1 2701 -1 76 -1 231 -1 902 -1 2 -1 30 -2
686 -1 16 -1 672 -1 88866 -1 462 -1 3 -1 164 -1 1433 -1 76 -1 557 -1 151 -1 1089 -1 124 -1 41 -1 17851 -1 144 -1 182 -1 65 -1 88867 -1 124 -1 190 -1 3 -1 65 -1 522 -1 32 -1 400 -1 54 -1 151 -1 699 -1 64 -1 3 -1 88865 -1 124 -1 403 -1 65 -1 1115 -1 30 -2
747 -1 31 -1 22 -1 3310 -1 76 -1 548 -1 194 -1 278 -1 182 -1 677 -1 352 -1 26933 -1 113 -1 1678 -1 88869 -1 88868 -1 658 -1 185 -1 4124 -1 2038 -1 30 -2
483 -1 16 -1 1818 -1 19444 -1 399 -1 1075 -1 405 -1 4886 -1 2 -1 422 -1 208 -1 3 -1 525 -1 225 -1 1636 -1 30 -2
747 -1 41 -1 31 -1 22 -1 80774 -1 399 -1 16 -1 65 -1 3709 -1 32 -1 1053 -1 312 -1 413 -1 76 -1 484 -1 113 -1 118 -1 3446 -1 936 -1 22 -1 773 -1 32 -1 178 -1 154 -1 10 -1 1053 -1 65 -1 620 -1 30 -2
424 -1 65 -1 163 -1 419 -1 287 -1 31 -1 66 -1 50 -1 39336 -1 64 -1 3 -1 30 -2
342 -1 600 -1 1075 -1 137 -1 179 -1 151 -1 113 -1 1678 -1 4 -1 29 -1 783 -1 76 -1 557 -1 81 -1 64 -1 936 -1 151 -1 190 -1 3 -1 213 -1 10 -1 250 -1 207 -1 151 -1 118 -1 144 -1 65 -1 6673 -1 1235 -1 278 -1 3358 -1 2 -1 3109 -1 76 -1 158 -1 66 -1 131 -1 699 -1 3 -1 189 -1 64 -1 30 -2
13332 -1 2 -1 1953 -1 3 -1 791 -1 88871 -1 431 -1 13332 -1 3 -1 13393 -1 2 -1 3 -1 155 -1 158 -1 41 -1 308 -1 312 -1 2892 -1 32 -1 1050 -1 348 -1 151 -1 41 -1 118 -1 88870 -1 348 -1 2050 -1 7 -1 201 -1 1322 -1 242 -1 22 -1 30 -2
232 -1 403 -1 2441 -1 352 -1 76 -1 77 -1 113 -1 504 -1 42 -1 65 -1 792 -1 75 -1 76 -1 214 -1 3210 -1 3 -1 65 -1 1589 -1 76 -1 352 -1 3210 -1 2743 -1 79 -1 244 -1 41 -1 76 -1 2 -1 244 -1 3845 -1 41 -1 2743 -1 79 -1 77 -1 37829 -1 16 -1 4047 -1 76 -1 236 -1 312 -1 3739 -1 30 -2
113 -1 1418 -1 22 -1 431 -1 1879 -1 14726 -1 4313 -1 124 -1 3 -1 88872 -1 179 -1 7 -1 1448 -1 151 -1 613 -1 213 -1 1449 -1 352 -1 131 -1 872 -1 3 -1 2 -1 2295 -1 27 -1 2896 -1 131 -1 88873 -1 3 -1 297 -1 153 -1 32 -1 30 -2
113 -1 1225 -1 160 -1 41 -1 165 -1 394 -1 149 -1 88874 -1 113 -1 194 -1 41 -1 124 -1 2474 -1 5607 -1 76 -1 242 -1 29 -1 5607 -1 420 -1 871 -1 224 -1 236 -1 870 -1 32 -1 3 -1 88875 -1 5824 -1 5607 -1 3 -1 211 -1 148 -1 149 -1 1853 -1 2474 -1 158 -1 182 -1 139 -1 64 -1 4698 -1 33 -1 30 -2
224 -1 2657 -1 13397 -1 1077 -1 47 -1 878 -1 2 -1 254 -1 182 -1 185 -1 76 -1 232 -1 2657 -1 3 -1 65 -1 628 -1 88877 -1 88876 -1 141 -1 30 -2
483 -1 745 -1 64 -1 3 -1 32 -1 88878 -1 213 -1 161 -1 326 -1 273 -1 64 -1 506 -1 31 -1 2896 -1 76 -1 1325 -1 711 -1 7 -1 64 -1 1689 -1 242 -1 32 -1 305 -1 1428 -1 352 -1 1092 -1 154 -1 242 -1 32 -1 2295 -1 273 -1 3942 -1 131 -1 3 -1 160 -1 30 -2
16 -1 1075 -1 27 -1 64 -1 88880 -1 1615 -1 64 -1 699 -1 88879 -1 268 -1 200 -1 22 -1 394 -1 333 -1 3 -1 88881 -1 50 -1 732 -1 76 -1 268 -1 153 -1 3 -1 1067 -1 160 -1 3802 -1 22 -1 23445 -1 151 -1 5152 -1 76 -1 135 -1 2144 -1 153 -1 4 -1 182 -1 30 -2
237 -1 747 -1 41 -1 10570 -1 31 -1 29 -1 1203 -1 32 -1 1186 -1 238 -1 113 -1 31 -1 165 -1 118 -1 144 -1 1260 -1 278 -1 220 -1 340 -1 22 -1 3002 -1 268 -1 1511 -1 113 -1 571 -1 29 -1 1070 -1 141 -1 41 -1 308 -1 151 -1 88882 -1 10 -1 50 -1 6970 -1 124 -1 30 -2
234 -1 342 -1 1640 -1 8797 -1 76 -1 471 -1 3 -1 2262 -1 64 -1 1273 -1 352 -1 641 -1 927 -1 2 -1 4369 -1 2 -1 88883 -1 607 -1 3 -1 131 -1 2202 -1 22 -1 571 -1 151 -1 65 -1 1065 -1 144 -1 64 -1 65 -1 1325 -1 22 -1 10661 -1 2 -1 22 -1 36601 -1 160 -1 30 -2
234 -1 69 -1 789 -1 1511 -1 32 -1 41 -1 64 -1 504 -1 151 -1 2 -1 64 -1 194 -1 151 -1 394 -1 88884 -1 703 -1 654 -1 3 -1 1511 -1 64967 -1 118 -1 326 -1 224 -1 69 -1 3 -1 504 -1 42 -1 76 -1 557 -1 1511 -1 511 -1 3 -1 733 -1 3298 -1 31403 -1 207 -1 3 -1 406 -1 30 -2
65 -1 158 -1 113 -1 786 -1 10 -1 571 -1 76 -1 113 -1 340 -1 2460 -1 75 -1 160 -1 22 -1 165 -1 113 -1 927 -1 80722 -1 340 -1 88885 -1 976 -1 422 -1 76 -1 278 -1 13 -1 76 -1 65 -1 1277 -1 2558 -1 250 -1 165 -1 268 -1 10125 -1 484 -1 16 -1 211 -1 59324 -1 399 -1 932 -1 2700 -1 158 -1 30 -2
224 -1 236 -1 65 -1 483 -1 151 -1 1089 -1 124 -1 41 -1 1678 -1 510 -1 2005 -1 88889 -1 153 -1 2348 -1 64 -1 510 -1 2005 -1 160 -1 10081 -1 76 -1 361 -1 243 -1 88887 -1 76 -1 31 -1 414 -1 3 -1 312 -1 88886 -1 88888 -1 348 -1 113 -1 694 -1 76 -1 67 -1 6 -1 3320 -1 76 -1 1105 -2
141 -1 151 -1 2 -1 113 -1 4373 -1 41 -1 76 -1 41 -1 555 -1 554 -1 7 -1 168 -1 12708 -1 64 -1 636 -1 29 -1 849 -1 32 -1 45961 -1 2 -1 3815 -1 64 -1 30 -2
113 -1 3 -1 12345 -1 4315 -1 137 -1 29 -1 2065 -1 2222 -1 1275 -1 88891 -1 41 -1 1554 -1 316 -1 50 -1 88890 -1 326 -1 76 -1 340 -1 22 -1 373 -1 2763 -1 160 -1 22 -1 12129 -1 352 -1 211 -1 130 -1 6130 -1 22 -1 3032 -1 76 -1 2 -1 31 -1 65 -1 287 -1 2222 -1 30 -2
113 -1 9363 -1 686 -1 76 -1 557 -1 604 -1 827 -1 268 -1 3 -1 211 -1 163 -1 88893 -1 399 -1 200 -1 88895 -1 182 -1 3 -1 88892 -1 124 -1 1273 -1 14054 -1 385 -1 377 -1 3 -1 1929 -1 262 -1 305 -1 296 -1 64 -1 88894 -1 156 -1 1007 -1 6130 -1 471 -1 76 -1 16 -1 30 -2
113 -1 194 -1 4184 -1 154 -1 3 -1 65 -1 248 -1 163 -1 80414 -1 155 -1 64 -1 194 -1 151 -1 342 -1 1042 -1 10 -1 250 -1 1008 -1 2 -1 113 -1 453 -1 141 -1 194 -1 151 -1 394 -1 81303 -1 342 -1 65 -1 1509 -1 32 -1 65 -1 88896 -1 2379 -1 153 -1 7 -1 47 -1 304 -1 34774 -1 30 -2
113 -1 169 -1 936 -1 27 -1 236 -1 463 -1 88899 -1 268 -1 686 -1 113 -1 916 -1 64 -1 972 -1 1031 -1 9640 -1 149 -1 88898 -1 144 -1 41 -1 65 -1 1100 -1 148 -1 4057 -1 64 -1 1003 -1 2 -1 1227 -1 29 -1 88897 -1 5835 -1 41 -1 699 -1 30 -2
10 -1 22 -1 333 -1 417 -1 226 -1 10 -1 76 -1 984 -1 3 -1 249 -1 224 -1 417 -1 156 -1 64 -1 1397 -1 88900 -1 374 -1 76 -1 417 -1 699 -1 163 -1 4703 -1 484 -1 417 -1 208 -1 3 -1 8956 -1 77 -1 2645 -1 88901 -1 1300 -1 76 -1 417 -1 699 -1 984 -1 10 -1 889 -1 358 -1 30 -2
64 -1 3 -1 2227 -1 76 -1 113 -1 1151 -1 81 -1 64 -1 23676 -1 244 -1 74 -1 32 -1 250 -1 45028 -1 72 -1 3310 -1 1833 -1 64 -1 65 -1 92 -1 151 -1 208 -1 510 -1 113 -1 786 -1 340 -1 7 -1 8809 -1 10 -1 50 -1 88902 -1 4500 -1 773 -1 3 -1 860 -1 1036 -2