2 -1 #SUP: 39
3 -1 #SUP: 75
5 -1 #SUP: 4
6 -1 #SUP: 2
7 -1 #SUP: 24
10 -1 #SUP: 12
11 -1 #SUP: 3
13 -1 #SUP: 2
15 -1 #SUP: 3
16 -1 #SUP: 7
22 -1 #SUP: 29
27 -1 #SUP: 7
29 -1 #SUP: 8
30 -1 #SUP: 6
31 -1 #SUP: 7
32 -1 #SUP: 10
33 -1 #SUP: 4
41 -1 #SUP: 14
46 -1 #SUP: 8
48 -1 #SUP: 7
50 -1 #SUP: 31
54 -1 #SUP: 5
64 -1 #SUP: 27
65 -1 #SUP: 18
66 -1 #SUP: 7
67 -1 #SUP: 3
75 -1 #SUP: 5
76 -1 #SUP: 52
77 -1 #SUP: 2
80 -1 #SUP: 2
81 -1 #SUP: 4
113 -1 #SUP: 73
115 -1 #SUP: 8
118 -1 #SUP: 5
124 -1 #SUP: 2
129 -1 #SUP: 2
131 -1 #SUP: 9
137 -1 #SUP: 3
141 -1 #SUP: 10
148 -1 #SUP: 3
149 -1 #SUP: 10
151 -1 #SUP: 5
153 -1 #SUP: 7
154 -1 #SUP: 4
156 -1 #SUP: 3
158 -1 #SUP: 7
160 -1 #SUP: 8
161 -1 #SUP: 6
163 -1 #SUP: 4
165 -1 #SUP: 4
179 -1 #SUP: 2
182 -1 #SUP: 8
187 -1 #SUP: 2
189 -1 #SUP: 4
194 -1 #SUP: 9
200 -1 #SUP: 3
201 -1 #SUP: 3
207 -1 #SUP: 5
208 -1 #SUP: 4
211 -1 #SUP: 7
213 -1 #SUP: 6
216 -1 #SUP: 3
220 -1 #SUP: 2
221 -1 #SUP: 3
224 -1 #SUP: 5
234 -1 #SUP: 2
237 -1 #SUP: 2
244 -1 #SUP: 4
248 -1 #SUP: 2
250 -1 #SUP: 3
264 -1 #SUP: 3
268 -1 #SUP: 4
272 -1 #SUP: 3
273 -1 #SUP: 3
278 -1 #SUP: 7
282 -1 #SUP: 2
297 -1 #SUP: 2
304 -1 #SUP: 2
308 -1 #SUP: 5
312 -1 #SUP: 23
324 -1 #SUP: 2
326 -1 #SUP: 5
339 -1 #SUP: 2
340 -1 #SUP: 11
342 -1 #SUP: 7
348 -1 #SUP: 2
352 -1 #SUP: 2
371 -1 #SUP: 2
374 -1 #SUP: 2
375 -1 #SUP: 4
376 -1 #SUP: 2
385 -1 #SUP: 2
388 -1 #SUP: 4
400 -1 #SUP: 3
403 -1 #SUP: 3
405 -1 #SUP: 2
406 -1 #SUP: 3
408 -1 #SUP: 3
417 -1 #SUP: 7
418 -1 #SUP: 4
445 -1 #SUP: 3
463 -1 #SUP: 5
469 -1 #SUP: 3
471 -1 #SUP: 2
484 -1 #SUP: 3
491 -1 #SUP: 2
493 -1 #SUP: 6
497 -1 #SUP: 3
502 -1 #SUP: 2
504 -1 #SUP: 4
506 -1 #SUP: 3
510 -1 #SUP: 5
511 -1 #SUP: 2
527 -1 #SUP: 2
530 -1 #SUP: 5
531 -1 #SUP: 2
557 -1 #SUP: 8
566 -1 #SUP: 3
571 -1 #SUP: 7
585 -1 #SUP: 2
602 -1 #SUP: 4
614 -1 #SUP: 2
625 -1 #SUP: 10
636 -1 #SUP: 2
694 -1 #SUP: 2
732 -1 #SUP: 2
758 -1 #SUP: 2
786 -1 #SUP: 4
814 -1 #SUP: 2
825 -1 #SUP: 2
827 -1 #SUP: 4
872 -1 #SUP: 2
936 -1 #SUP: 4
942 -1 #SUP: 2
962 -1 #SUP: 2
997 -1 #SUP: 3
1009 -1 #SUP: 12
1017 -1 #SUP: 2
1042 -1 #SUP: 3
1057 -1 #SUP: 5
1065 -1 #SUP: 4
1075 -1 #SUP: 3
1077 -1 #SUP: 2
1097 -1 #SUP: 2
1099 -1 #SUP: 2
1100 -1 #SUP: 4
1171 -1 #SUP: 2
1193 -1 #SUP: 2
1198 -1 #SUP: 2
1208 -1 #SUP: 2
1309 -1 #SUP: 4
1320 -1 #SUP: 2
1327 -1 #SUP: 2
1418 -1 #SUP: 2
1461 -1 #SUP: 4
1487 -1 #SUP: 8
1617 -1 #SUP: 2
1663 -1 #SUP: 5
1666 -1 #SUP: 4
1670 -1 #SUP: 3
1678 -1 #SUP: 2
1838 -1 #SUP: 2
1982 -1 #SUP: 2
2188 -1 #SUP: 3
2219 -1 #SUP: 2
2234 -1 #SUP: 2
2404 -1 #SUP: 4
2464 -1 #SUP: 4
2475 -1 #SUP: 2
2558 -1 #SUP: 3
2599 -1 #SUP: 3
2964 -1 #SUP: 2
3320 -1 #SUP: 2
3681 -1 #SUP: 3
3703 -1 #SUP: 2
4090 -1 #SUP: 2
4260 -1 #SUP: 2
4698 -1 #SUP: 2
4701 -1 #SUP: 3
5611 -1 #SUP: 2
6927 -1 #SUP: 2
10544 -1 #SUP: 2
2 -1 3 -1 #SUP: 14
2 -1 7 -1 #SUP: 4
2 -1 22 -1 #SUP: 5
2 -1 31 -1 #SUP: 2
2 -1 32 -1 #SUP: 4
2 -1 46 -1 #SUP: 2
2 -1 50 -1 #SUP: 2
2 -1 54 -1 #SUP: 3
2 -1 64 -1 #SUP: 6
2 -1 75 -1 #SUP: 2
2 -1 76 -1 #SUP: 6
2 -1 113 -1 #SUP: 11
2 -1 115 -1 #SUP: 2
2 -1 154 -1 #SUP: 2
2 -1 211 -1 #SUP: 3
2 -1 213 -1 #SUP: 3
2 -1 308 -1 #SUP: 2
2 -1 312 -1 #SUP: 4
2 -1 340 -1 #SUP: 2
2 -1 400 -1 #SUP: 2
2 -1 493 -1 #SUP: 2
2 -1 510 -1 #SUP: 3
2 -1 827 -1 #SUP: 2
2 -1 936 -1 #SUP: 2
2 -1 1838 -1 #SUP: 2
2 -1 4701 -1 #SUP: 2
3 -1 2 -1 #SUP: 17
3 -1 3 -1 #SUP: 12
3 -1 7 -1 #SUP: 3
3 -1 10 -1 #SUP: 3
3 -1 22 -1 #SUP: 10
3 -1 29 -1 #SUP: 3
3 -1 31 -1 #SUP: 2
3 -1 32 -1 #SUP: 4
3 -1 41 -1 #SUP: 2
3 -1 46 -1 #SUP: 2
3 -1 48 -1 #SUP: 6
3 -1 50 -1 #SUP: 2
3 -1 64 -1 #SUP: 7
3 -1 65 -1 #SUP: 5
3 -1 76 -1 #SUP: 13
3 -1 113 -1 #SUP: 11
3 -1 115 -1 #SUP: 2
3 -1 131 -1 #SUP: 2
3 -1 141 -1 #SUP: 3
3 -1 149 -1 #SUP: 6
3 -1 151 -1 #SUP: 2
3 -1 158 -1 #SUP: 2
3 -1 160 -1 #SUP: 2
3 -1 165 -1 #SUP: 3
3 -1 189 -1 #SUP: 2
3 -1 213 -1 #SUP: 2
3 -1 244 -1 #SUP: 2
3 -1 264 -1 #SUP: 2
3 -1 278 -1 #SUP: 2
3 -1 308 -1 #SUP: 2
3 -1 312 -1 #SUP: 15
3 -1 324 -1 #SUP: 2
3 -1 326 -1 #SUP: 2
3 -1 340 -1 #SUP: 4
3 -1 376 -1 #SUP: 2
3 -1 406 -1 #SUP: 2
3 -1 417 -1 #SUP: 3
3 -1 493 -1 #SUP: 4
3 -1 530 -1 #SUP: 3
3 -1 602 -1 #SUP: 3
3 -1 614 -1 #SUP: 2
3 -1 625 -1 #SUP: 3
3 -1 825 -1 #SUP: 2
3 -1 827 -1 #SUP: 3
3 -1 942 -1 #SUP: 2
3 -1 962 -1 #SUP: 2
3 -1 997 -1 #SUP: 2
3 -1 1009 -1 #SUP: 4
3 -1 1097 -1 #SUP: 2
3 -1 1208 -1 #SUP: 2
3 -1 1320 -1 #SUP: 2
3 -1 1487 -1 #SUP: 3
3 -1 2464 -1 #SUP: 3
3 -1 2558 -1 #SUP: 3
3 -1 2599 -1 #SUP: 2
3 -1 4260 -1 #SUP: 2
3 -1 5611 -1 #SUP: 2
3 -1 6927 -1 #SUP: 2
7 -1 2 -1 #SUP: 4
7 -1 3 -1 #SUP: 9
7 -1 7 -1 #SUP: 2
7 -1 22 -1 #SUP: 4
7 -1 32 -1 #SUP: 2
7 -1 50 -1 #SUP: 2
7 -1 64 -1 #SUP: 4
7 -1 65 -1 #SUP: 4
7 -1 76 -1 #SUP: 3
7 -1 113 -1 #SUP: 4
7 -1 131 -1 #SUP: 3
7 -1 160 -1 #SUP: 2
7 -1 194 -1 #SUP: 3
7 -1 211 -1 #SUP: 4
7 -1 224 -1 #SUP: 2
7 -1 244 -1 #SUP: 2
7 -1 278 -1 #SUP: 3
7 -1 340 -1 #SUP: 4
7 -1 557 -1 #SUP: 3
7 -1 566 -1 #SUP: 2
7 -1 1100 -1 #SUP: 2
7 -1 2188 -1 #SUP: 3
7 -1 2475 -1 #SUP: 2
10 -1 2 -1 #SUP: 3
10 -1 3 -1 #SUP: 7
10 -1 7 -1 #SUP: 2
10 -1 22 -1 #SUP: 3
10 -1 48 -1 #SUP: 2
10 -1 50 -1 #SUP: 2
10 -1 65 -1 #SUP: 2
10 -1 76 -1 #SUP: 8
10 -1 113 -1 #SUP: 2
10 -1 207 -1 #SUP: 3
13 -1 76 -1 #SUP: 2
16 -1 3 -1 #SUP: 2
16 -1 151 -1 #SUP: 2
16 -1 340 -1 #SUP: 2
16 -1 504 -1 #SUP: 2
16 -1 1075 -1 #SUP: 2
22 -1 2 -1 #SUP: 3
22 -1 3 -1 #SUP: 7
22 -1 6 -1 #SUP: 2
22 -1 7 -1 #SUP: 4
22 -1 10 -1 #SUP: 5
22 -1 15 -1 #SUP: 2
22 -1 22 -1 #SUP: 2
22 -1 27 -1 #SUP: 2
22 -1 31 -1 #SUP: 2
22 -1 32 -1 #SUP: 3
22 -1 50 -1 #SUP: 5
22 -1 54 -1 #SUP: 2
22 -1 64 -1 #SUP: 3
22 -1 76 -1 #SUP: 11
22 -1 77 -1 #SUP: 2
22 -1 113 -1 #SUP: 7
22 -1 129 -1 #SUP: 2
22 -1 131 -1 #SUP: 2
22 -1 148 -1 #SUP: 2
22 -1 151 -1 #SUP: 2
22 -1 153 -1 #SUP: 2
22 -1 160 -1 #SUP: 2
22 -1 165 -1 #SUP: 2
22 -1 187 -1 #SUP: 2
22 -1 207 -1 #SUP: 4
22 -1 216 -1 #SUP: 2
22 -1 250 -1 #SUP: 2
22 -1 278 -1 #SUP: 2
22 -1 502 -1 #SUP: 2
22 -1 557 -1 #SUP: 2
22 -1 814 -1 #SUP: 2
22 -1 1320 -1 #SUP: 2
22 -1 3320 -1 #SUP: 2
22 -1 4698 -1 #SUP: 2
27 -1 3 -1 #SUP: 2
27 -1 10 -1 #SUP: 2
27 -1 41 -1 #SUP: 2
27 -1 141 -1 #SUP: 2
29 -1 153 -1 #SUP: 2
29 -1 1309 -1 #SUP: 2
30 -1 50 -1 #SUP: 3
30 -1 76 -1 #SUP: 4
31 -1 3 -1 #SUP: 4
31 -1 65 -1 #SUP: 2
31 -1 76 -1 #SUP: 2
31 -1 115 -1 #SUP: 2
32 -1 2 -1 #SUP: 2
32 -1 3 -1 #SUP: 4
32 -1 22 -1 #SUP: 2
32 -1 29 -1 #SUP: 2
32 -1 64 -1 #SUP: 3
32 -1 76 -1 #SUP: 2
32 -1 113 -1 #SUP: 2
33 -1 22 -1 #SUP: 2
33 -1 76 -1 #SUP: 3
41 -1 3 -1 #SUP: 6
41 -1 7 -1 #SUP: 2
41 -1 10 -1 #SUP: 2
41 -1 22 -1 #SUP: 2
41 -1 29 -1 #SUP: 2
41 -1 41 -1 #SUP: 3
41 -1 64 -1 #SUP: 3
41 -1 65 -1 #SUP: 3
41 -1 76 -1 #SUP: 2
41 -1 194 -1 #SUP: 2
41 -1 207 -1 #SUP: 2
41 -1 1309 -1 #SUP: 3
46 -1 2 -1 #SUP: 4
46 -1 3 -1 #SUP: 3
46 -1 76 -1 #SUP: 2
46 -1 312 -1 #SUP: 2
46 -1 758 -1 #SUP: 2
46 -1 2599 -1 #SUP: 2
48 -1 2 -1 #SUP: 3
48 -1 3 -1 #SUP: 3
48 -1 76 -1 #SUP: 2
48 -1 113 -1 #SUP: 3
48 -1 312 -1 #SUP: 2
48 -1 625 -1 #SUP: 3
48 -1 1097 -1 #SUP: 2
50 -1 2 -1 #SUP: 13
50 -1 3 -1 #SUP: 14
50 -1 5 -1 #SUP: 2
50 -1 10 -1 #SUP: 2
50 -1 13 -1 #SUP: 2
50 -1 46 -1 #SUP: 5
50 -1 48 -1 #SUP: 3
50 -1 50 -1 #SUP: 4
50 -1 65 -1 #SUP: 3
50 -1 76 -1 #SUP: 10
50 -1 113 -1 #SUP: 3
50 -1 115 -1 #SUP: 2
50 -1 163 -1 #SUP: 2
50 -1 268 -1 #SUP: 2
50 -1 304 -1 #SUP: 2
50 -1 312 -1 #SUP: 6
50 -1 493 -1 #SUP: 2
50 -1 758 -1 #SUP: 2
50 -1 1009 -1 #SUP: 6
50 -1 1057 -1 #SUP: 2
50 -1 1065 -1 #SUP: 3
50 -1 1208 -1 #SUP: 2
50 -1 1461 -1 #SUP: 3
50 -1 1663 -1 #SUP: 4
50 -1 1666 -1 #SUP: 4
50 -1 2404 -1 #SUP: 4
50 -1 2475 -1 #SUP: 2
50 -1 2599 -1 #SUP: 3
50 -1 6927 -1 #SUP: 2
54 -1 113 -1 #SUP: 2
54 -1 151 -1 #SUP: 2
64 -1 2 -1 #SUP: 4
64 -1 3 -1 #SUP: 7
64 -1 7 -1 #SUP: 2
64 -1 10 -1 #SUP: 3
64 -1 32 -1 #SUP: 3
64 -1 48 -1 #SUP: 2
64 -1 50 -1 #SUP: 2
64 -1 64 -1 #SUP: 3
64 -1 65 -1 #SUP: 4
64 -1 76 -1 #SUP: 8
64 -1 113 -1 #SUP: 5
64 -1 115 -1 #SUP: 2
64 -1 131 -1 #SUP: 3
64 -1 160 -1 #SUP: 2
64 -1 278 -1 #SUP: 2
64 -1 297 -1 #SUP: 2
64 -1 312 -1 #SUP: 2
64 -1 340 -1 #SUP: 2
64 -1 342 -1 #SUP: 2
64 -1 374 -1 #SUP: 2
64 -1 385 -1 #SUP: 2
64 -1 388 -1 #SUP: 2
64 -1 557 -1 #SUP: 3
64 -1 625 -1 #SUP: 2
64 -1 827 -1 #SUP: 2
64 -1 1100 -1 #SUP: 2
65 -1 2 -1 #SUP: 2
65 -1 3 -1 #SUP: 5
65 -1 76 -1 #SUP: 5
65 -1 115 -1 #SUP: 2
65 -1 161 -1 #SUP: 2
65 -1 278 -1 #SUP: 2
65 -1 497 -1 #SUP: 2
65 -1 1100 -1 #SUP: 4
66 -1 3 -1 #SUP: 2
66 -1 113 -1 #SUP: 2
67 -1 3 -1 #SUP: 2
67 -1 75 -1 #SUP: 2
67 -1 1171 -1 #SUP: 2
75 -1 2 -1 #SUP: 2
75 -1 3 -1 #SUP: 3
75 -1 22 -1 #SUP: 2
75 -1 64 -1 #SUP: 3
75 -1 76 -1 #SUP: 2
76 -1 2 -1 #SUP: 12
76 -1 3 -1 #SUP: 19
76 -1 7 -1 #SUP: 7
76 -1 10 -1 #SUP: 2
76 -1 15 -1 #SUP: 2
76 -1 16 -1 #SUP: 3
76 -1 22 -1 #SUP: 7
76 -1 27 -1 #SUP: 2
76 -1 29 -1 #SUP: 2
76 -1 31 -1 #SUP: 3
76 -1 32 -1 #SUP: 2
76 -1 41 -1 #SUP: 3
76 -1 48 -1 #SUP: 3
76 -1 50 -1 #SUP: 5
76 -1 54 -1 #SUP: 3
76 -1 64 -1 #SUP: 7
76 -1 65 -1 #SUP: 6
76 -1 76 -1 #SUP: 9
76 -1 81 -1 #SUP: 2
76 -1 113 -1 #SUP: 11
76 -1 131 -1 #SUP: 2
76 -1 141 -1 #SUP: 2
76 -1 149 -1 #SUP: 3
76 -1 151 -1 #SUP: 2
76 -1 161 -1 #SUP: 4
76 -1 165 -1 #SUP: 2
76 -1 194 -1 #SUP: 4
76 -1 211 -1 #SUP: 2
76 -1 213 -1 #SUP: 2
76 -1 272 -1 #SUP: 2
76 -1 312 -1 #SUP: 5
76 -1 324 -1 #SUP: 2
76 -1 340 -1 #SUP: 2
76 -1 342 -1 #SUP: 3
76 -1 388 -1 #SUP: 2
76 -1 417 -1 #SUP: 2
76 -1 484 -1 #SUP: 2
76 -1 504 -1 #SUP: 2
76 -1 527 -1 #SUP: 2
76 -1 530 -1 #SUP: 4
76 -1 557 -1 #SUP: 6
76 -1 602 -1 #SUP: 2
76 -1 625 -1 #SUP: 2
76 -1 827 -1 #SUP: 2
76 -1 1009 -1 #SUP: 2
76 -1 1075 -1 #SUP: 2
76 -1 1097 -1 #SUP: 2
76 -1 1100 -1 #SUP: 2
76 -1 2404 -1 #SUP: 2
76 -1 2464 -1 #SUP: 2
76 -1 3320 -1 #SUP: 2
76 -1 4260 -1 #SUP: 2
76 -1 6927 -1 #SUP: 2
80 -1 64 -1 #SUP: 2
81 -1 64 -1 #SUP: 3
81 -1 113 -1 #SUP: 2
113 -1 2 -1 #SUP: 6
113 -1 3 -1 #SUP: 17
113 -1 5 -1 #SUP: 2
113 -1 7 -1 #SUP: 12
113 -1 16 -1 #SUP: 2
113 -1 22 -1 #SUP: 6
113 -1 27 -1 #SUP: 4
113 -1 29 -1 #SUP: 2
113 -1 31 -1 #SUP: 3
113 -1 32 -1 #SUP: 3
113 -1 41 -1 #SUP: 2
113 -1 50 -1 #SUP: 4
113 -1 64 -1 #SUP: 15
113 -1 65 -1 #SUP: 4
113 -1 66 -1 #SUP: 2
113 -1 75 -1 #SUP: 2
113 -1 76 -1 #SUP: 10
113 -1 80 -1 #SUP: 2
113 -1 81 -1 #SUP: 2
113 -1 113 -1 #SUP: 17
113 -1 115 -1 #SUP: 2
113 -1 118 -1 #SUP: 4
113 -1 131 -1 #SUP: 3
113 -1 141 -1 #SUP: 3
113 -1 149 -1 #SUP: 2
113 -1 151 -1 #SUP: 2
113 -1 156 -1 #SUP: 3
113 -1 158 -1 #SUP: 4
113 -1 160 -1 #SUP: 4
113 -1 161 -1 #SUP: 2
113 -1 165 -1 #SUP: 2
113 -1 194 -1 #SUP: 5
113 -1 211 -1 #SUP: 5
113 -1 213 -1 #SUP: 2
113 -1 224 -1 #SUP: 3
113 -1 234 -1 #SUP: 2
113 -1 248 -1 #SUP: 2
113 -1 278 -1 #SUP: 3
113 -1 308 -1 #SUP: 2
113 -1 312 -1 #SUP: 5
113 -1 326 -1 #SUP: 4
113 -1 340 -1 #SUP: 5
113 -1 352 -1 #SUP: 2
113 -1 374 -1 #SUP: 2
113 -1 403 -1 #SUP: 2
113 -1 406 -1 #SUP: 3
113 -1 408 -1 #SUP: 2
113 -1 418 -1 #SUP: 2
113 -1 445 -1 #SUP: 2
113 -1 463 -1 #SUP: 4
113 -1 493 -1 #SUP: 2
113 -1 510 -1 #SUP: 3
113 -1 557 -1 #SUP: 6
113 -1 571 -1 #SUP: 5
113 -1 602 -1 #SUP: 2
113 -1 625 -1 #SUP: 2
113 -1 786 -1 #SUP: 4
113 -1 936 -1 #SUP: 2
113 -1 1009 -1 #SUP: 3
113 -1 1042 -1 #SUP: 2
113 -1 1057 -1 #SUP: 2
113 -1 1065 -1 #SUP: 2
113 -1 1077 -1 #SUP: 2
113 -1 1100 -1 #SUP: 3
113 -1 1193 -1 #SUP: 2
113 -1 1487 -1 #SUP: 4
113 -1 1617 -1 #SUP: 2
113 -1 2188 -1 #SUP: 3
113 -1 2475 -1 #SUP: 2
115 -1 66 -1 #SUP: 2
115 -1 76 -1 #SUP: 2
129 -1 76 -1 #SUP: 2
131 -1 3 -1 #SUP: 3
131 -1 64 -1 #SUP: 2
131 -1 76 -1 #SUP: 2
137 -1 22 -1 #SUP: 2
141 -1 3 -1 #SUP: 2
141 -1 10 -1 #SUP: 2
141 -1 29 -1 #SUP: 2
141 -1 41 -1 #SUP: 4
141 -1 64 -1 #SUP: 2
141 -1 65 -1 #SUP: 2
141 -1 194 -1 #SUP: 2
141 -1 1309 -1 #SUP: 3
149 -1 141 -1 #SUP: 2
151 -1 3 -1 #SUP: 3
151 -1 50 -1 #SUP: 2
151 -1 76 -1 #SUP: 2
151 -1 77 -1 #SUP: 2
151 -1 113 -1 #SUP: 2
151 -1 4698 -1 #SUP: 2
153 -1 3 -1 #SUP: 2
153 -1 50 -1 #SUP: 2
153 -1 76 -1 #SUP: 3
154 -1 3 -1 #SUP: 2
154 -1 64 -1 #SUP: 2
156 -1 64 -1 #SUP: 3
158 -1 3 -1 #SUP: 3
158 -1 76 -1 #SUP: 2
158 -1 113 -1 #SUP: 3
158 -1 149 -1 #SUP: 3
160 -1 2 -1 #SUP: 2
160 -1 50 -1 #SUP: 2
160 -1 64 -1 #SUP: 2
160 -1 76 -1 #SUP: 2
160 -1 312 -1 #SUP: 2
161 -1 3 -1 #SUP: 4
161 -1 32 -1 #SUP: 2
161 -1 64 -1 #SUP: 2
163 -1 2 -1 #SUP: 3
163 -1 3 -1 #SUP: 2
163 -1 46 -1 #SUP: 2
163 -1 54 -1 #SUP: 2
163 -1 312 -1 #SUP: 2
163 -1 2599 -1 #SUP: 2
165 -1 7 -1 #SUP: 2
165 -1 76 -1 #SUP: 2
165 -1 406 -1 #SUP: 2
182 -1 2 -1 #SUP: 2
182 -1 3 -1 #SUP: 5
182 -1 22 -1 #SUP: 3
182 -1 33 -1 #SUP: 2
182 -1 64 -1 #SUP: 2
182 -1 76 -1 #SUP: 2
182 -1 208 -1 #SUP: 2
189 -1 64 -1 #SUP: 2
189 -1 76 -1 #SUP: 2
189 -1 388 -1 #SUP: 2
194 -1 3 -1 #SUP: 4
194 -1 7 -1 #SUP: 3
194 -1 22 -1 #SUP: 2
194 -1 48 -1 #SUP: 2
194 -1 65 -1 #SUP: 4
194 -1 1100 -1 #SUP: 3
200 -1 141 -1 #SUP: 2
201 -1 213 -1 #SUP: 2
207 -1 3 -1 #SUP: 2
207 -1 76 -1 #SUP: 4
207 -1 113 -1 #SUP: 2
207 -1 149 -1 #SUP: 2
208 -1 3 -1 #SUP: 4
208 -1 22 -1 #SUP: 2
208 -1 76 -1 #SUP: 3
211 -1 50 -1 #SUP: 2
213 -1 3 -1 #SUP: 2
221 -1 2 -1 #SUP: 2
221 -1 81 -1 #SUP: 2
224 -1 131 -1 #SUP: 3
237 -1 30 -1 #SUP: 2
244 -1 64 -1 #SUP: 2
244 -1 76 -1 #SUP: 2
248 -1 64 -1 #SUP: 2
250 -1 2 -1 #SUP: 2
250 -1 76 -1 #SUP: 2
264 -1 149 -1 #SUP: 2
268 -1 312 -1 #SUP: 2
268 -1 1670 -1 #SUP: 2
272 -1 3 -1 #SUP: 3
272 -1 312 -1 #SUP: 2
273 -1 3 -1 #SUP: 2
273 -1 22 -1 #SUP: 2
273 -1 41 -1 #SUP: 2
278 -1 10 -1 #SUP: 2
278 -1 22 -1 #SUP: 2
278 -1 113 -1 #SUP: 2
278 -1 207 -1 #SUP: 2
278 -1 786 -1 #SUP: 2
297 -1 385 -1 #SUP: 2
308 -1 22 -1 #SUP: 3
308 -1 207 -1 #SUP: 2
312 -1 2 -1 #SUP: 9
312 -1 3 -1 #SUP: 9
312 -1 11 -1 #SUP: 2
312 -1 22 -1 #SUP: 3
312 -1 48 -1 #SUP: 2
312 -1 64 -1 #SUP: 3
312 -1 76 -1 #SUP: 4
312 -1 113 -1 #SUP: 6
312 -1 160 -1 #SUP: 2
312 -1 216 -1 #SUP: 2
312 -1 374 -1 #SUP: 2
312 -1 463 -1 #SUP: 2
312 -1 625 -1 #SUP: 5
312 -1 997 -1 #SUP: 2
312 -1 1009 -1 #SUP: 4
312 -1 1461 -1 #SUP: 2
312 -1 2599 -1 #SUP: 2
312 -1 4701 -1 #SUP: 3
326 -1 3 -1 #SUP: 2
326 -1 113 -1 #SUP: 2
340 -1 2 -1 #SUP: 2
340 -1 3 -1 #SUP: 3
340 -1 113 -1 #SUP: 5
340 -1 131 -1 #SUP: 2
340 -1 224 -1 #SUP: 2
340 -1 602 -1 #SUP: 2
342 -1 2 -1 #SUP: 2
342 -1 10 -1 #SUP: 2
342 -1 22 -1 #SUP: 2
342 -1 113 -1 #SUP: 2
342 -1 312 -1 #SUP: 3
342 -1 625 -1 #SUP: 3
348 -1 3 -1 #SUP: 2
348 -1 76 -1 #SUP: 2
371 -1 76 -1 #SUP: 2
374 -1 160 -1 #SUP: 2
375 -1 2 -1 #SUP: 3
375 -1 7 -1 #SUP: 2
375 -1 22 -1 #SUP: 2
388 -1 2 -1 #SUP: 2
403 -1 76 -1 #SUP: 2
408 -1 113 -1 #SUP: 2
417 -1 3 -1 #SUP: 3
417 -1 7 -1 #SUP: 2
417 -1 76 -1 #SUP: 2
417 -1 417 -1 #SUP: 2
417 -1 825 -1 #SUP: 2
418 -1 3 -1 #SUP: 3
418 -1 76 -1 #SUP: 3
418 -1 149 -1 #SUP: 2
463 -1 64 -1 #SUP: 3
463 -1 76 -1 #SUP: 2
463 -1 113 -1 #SUP: 2
463 -1 160 -1 #SUP: 2
463 -1 374 -1 #SUP: 2
469 -1 2 -1 #SUP: 2
469 -1 3 -1 #SUP: 2
484 -1 3 -1 #SUP: 3
484 -1 50 -1 #SUP: 2
484 -1 312 -1 #SUP: 2
493 -1 3 -1 #SUP: 2
493 -1 64 -1 #SUP: 2
493 -1 113 -1 #SUP: 3
493 -1 4701 -1 #SUP: 2
504 -1 3 -1 #SUP: 2
504 -1 340 -1 #SUP: 2
506 -1 131 -1 #SUP: 2
506 -1 154 -1 #SUP: 2
510 -1 3 -1 #SUP: 3
510 -1 113 -1 #SUP: 3
530 -1 2 -1 #SUP: 2
530 -1 3 -1 #SUP: 2
530 -1 7 -1 #SUP: 2
530 -1 76 -1 #SUP: 3
557 -1 3 -1 #SUP: 3
557 -1 16 -1 #SUP: 2
557 -1 64 -1 #SUP: 2
557 -1 113 -1 #SUP: 4
557 -1 312 -1 #SUP: 2
557 -1 342 -1 #SUP: 2
571 -1 3 -1 #SUP: 3
571 -1 64 -1 #SUP: 2
585 -1 76 -1 #SUP: 2
602 -1 113 -1 #SUP: 2
625 -1 2 -1 #SUP: 2
625 -1 76 -1 #SUP: 2
625 -1 113 -1 #SUP: 3
625 -1 557 -1 #SUP: 2
625 -1 625 -1 #SUP: 2
636 -1 2 -1 #SUP: 2
636 -1 113 -1 #SUP: 2
694 -1 113 -1 #SUP: 2
786 -1 2 -1 #SUP: 2
786 -1 3 -1 #SUP: 2
786 -1 118 -1 #SUP: 2
786 -1 340 -1 #SUP: 3
825 -1 417 -1 #SUP: 2
827 -1 64 -1 #SUP: 2
827 -1 76 -1 #SUP: 2
827 -1 113 -1 #SUP: 2
872 -1 113 -1 #SUP: 2
872 -1 340 -1 #SUP: 2
962 -1 2 -1 #SUP: 2
997 -1 2 -1 #SUP: 2
1009 -1 2 -1 #SUP: 6
1009 -1 3 -1 #SUP: 4
1009 -1 76 -1 #SUP: 2
1009 -1 113 -1 #SUP: 2
1009 -1 312 -1 #SUP: 2
1009 -1 1663 -1 #SUP: 3
1009 -1 5611 -1 #SUP: 2
1017 -1 76 -1 #SUP: 2
1042 -1 113 -1 #SUP: 2
1057 -1 3 -1 #SUP: 2
1057 -1 113 -1 #SUP: 3
1057 -1 1065 -1 #SUP: 2
1057 -1 2464 -1 #SUP: 2
1065 -1 268 -1 #SUP: 2
1065 -1 1670 -1 #SUP: 2
1075 -1 3 -1 #SUP: 2
1099 -1 22 -1 #SUP: 2
1171 -1 3 -1 #SUP: 2
1193 -1 27 -1 #SUP: 2
1198 -1 64 -1 #SUP: 2
1309 -1 3 -1 #SUP: 2
1309 -1 65 -1 #SUP: 2
1418 -1 2 -1 #SUP: 2
1418 -1 213 -1 #SUP: 2
1461 -1 3 -1 #SUP: 3
1461 -1 50 -1 #SUP: 3
1461 -1 76 -1 #SUP: 2
1461 -1 113 -1 #SUP: 2
1461 -1 1065 -1 #SUP: 2
1487 -1 3 -1 #SUP: 2
1487 -1 65 -1 #SUP: 2
1487 -1 340 -1 #SUP: 2
1663 -1 2 -1 #SUP: 3
1663 -1 3 -1 #SUP: 3
1666 -1 2 -1 #SUP: 2
1666 -1 3 -1 #SUP: 2
1666 -1 50 -1 #SUP: 2
1666 -1 76 -1 #SUP: 3
1666 -1 113 -1 #SUP: 2
1666 -1 1461 -1 #SUP: 3
2188 -1 50 -1 #SUP: 2
2188 -1 160 -1 #SUP: 2
2404 -1 3 -1 #SUP: 2
2404 -1 1009 -1 #SUP: 2
2464 -1 3 -1 #SUP: 2
2599 -1 2 -1 #SUP: 2
2599 -1 3 -1 #SUP: 2
2964 -1 115 -1 #SUP: 2
3681 -1 115 -1 #SUP: 2
3703 -1 417 -1 #SUP: 2
4090 -1 3 -1 #SUP: 2
4090 -1 22 -1 #SUP: 2
4090 -1 32 -1 #SUP: 2
2 -1 3 -1 64 -1 #SUP: 2
2 -1 3 -1 76 -1 #SUP: 2
2 -1 3 -1 312 -1 #SUP: 4
2 -1 7 -1 3 -1 #SUP: 3
2 -1 7 -1 64 -1 #SUP: 2
2 -1 7 -1 211 -1 #SUP: 2
2 -1 22 -1 3 -1 #SUP: 4
2 -1 22 -1 7 -1 #SUP: 3
2 -1 22 -1 64 -1 #SUP: 2
2 -1 32 -1 3 -1 #SUP: 2
2 -1 50 -1 3 -1 #SUP: 2
2 -1 64 -1 3 -1 #SUP: 2
2 -1 64 -1 76 -1 #SUP: 2
2 -1 64 -1 113 -1 #SUP: 2
2 -1 75 -1 3 -1 #SUP: 2
2 -1 76 -1 113 -1 #SUP: 2
2 -1 113 -1 3 -1 #SUP: 4
2 -1 113 -1 7 -1 #SUP: 2
2 -1 113 -1 64 -1 #SUP: 3
2 -1 113 -1 113 -1 #SUP: 2
2 -1 154 -1 3 -1 #SUP: 2
3 -1 2 -1 3 -1 #SUP: 3
3 -1 2 -1 113 -1 #SUP: 3
3 -1 2 -1 213 -1 #SUP: 2
3 -1 7 -1 3 -1 #SUP: 2
3 -1 10 -1 76 -1 #SUP: 3
3 -1 22 -1 7 -1 #SUP: 2
3 -1 22 -1 10 -1 #SUP: 2
3 -1 22 -1 76 -1 #SUP: 3
3 -1 22 -1 113 -1 #SUP: 3
3 -1 22 -1 165 -1 #SUP: 2
3 -1 22 -1 1320 -1 #SUP: 2
3 -1 32 -1 29 -1 #SUP: 2
3 -1 48 -1 2 -1 #SUP: 3
3 -1 48 -1 3 -1 #SUP: 2
3 -1 48 -1 76 -1 #SUP: 2
3 -1 48 -1 312 -1 #SUP: 2
3 -1 50 -1 48 -1 #SUP: 2
3 -1 50 -1 6927 -1 #SUP: 2
3 -1 64 -1 48 -1 #SUP: 2
3 -1 64 -1 76 -1 #SUP: 3
3 -1 65 -1 3 -1 #SUP: 2
3 -1 76 -1 2 -1 #SUP: 4
3 -1 76 -1 3 -1 #SUP: 2
3 -1 76 -1 22 -1 #SUP: 2
3 -1 76 -1 48 -1 #SUP: 2
3 -1 76 -1 50 -1 #SUP: 2
3 -1 76 -1 64 -1 #SUP: 2
3 -1 76 -1 76 -1 #SUP: 3
3 -1 76 -1 113 -1 #SUP: 3
3 -1 76 -1 141 -1 #SUP: 2
3 -1 76 -1 149 -1 #SUP: 2
3 -1 76 -1 324 -1 #SUP: 2
3 -1 76 -1 602 -1 #SUP: 2
3 -1 76 -1 2464 -1 #SUP: 2
3 -1 76 -1 4260 -1 #SUP: 2
3 -1 113 -1 3 -1 #SUP: 5
3 -1 113 -1 7 -1 #SUP: 2
3 -1 113 -1 64 -1 #SUP: 2
3 -1 113 -1 1487 -1 #SUP: 2
3 -1 149 -1 141 -1 #SUP: 2
3 -1 151 -1 113 -1 #SUP: 2
3 -1 312 -1 2 -1 #SUP: 5
3 -1 312 -1 3 -1 #SUP: 3
3 -1 312 -1 22 -1 #SUP: 2
3 -1 312 -1 48 -1 #SUP: 2
3 -1 312 -1 113 -1 #SUP: 2
3 -1 312 -1 625 -1 #SUP: 2
3 -1 312 -1 997 -1 #SUP: 2
3 -1 312 -1 1009 -1 #SUP: 2
3 -1 312 -1 2599 -1 #SUP: 2
3 -1 417 -1 3 -1 #SUP: 2
3 -1 417 -1 825 -1 #SUP: 2
3 -1 962 -1 2 -1 #SUP: 2
3 -1 1009 -1 2 -1 #SUP: 2
3 -1 1487 -1 340 -1 #SUP: 2
3 -1 2599 -1 2 -1 #SUP: 2
7 -1 3 -1 2 -1 #SUP: 2
7 -1 3 -1 3 -1 #SUP: 2
7 -1 3 -1 340 -1 #SUP: 2
7 -1 7 -1 2188 -1 #SUP: 2
7 -1 64 -1 76 -1 #SUP: 2
7 -1 64 -1 557 -1 #SUP: 2
7 -1 65 -1 1100 -1 #SUP: 2
7 -1 76 -1 557 -1 #SUP: 2
7 -1 113 -1 2 -1 #SUP: 2
7 -1 113 -1 3 -1 #SUP: 2
7 -1 160 -1 50 -1 #SUP: 2
7 -1 194 -1 3 -1 #SUP: 2
7 -1 194 -1 22 -1 #SUP: 2
7 -1 2188 -1 50 -1 #SUP: 2
7 -1 2188 -1 160 -1 #SUP: 2
10 -1 3 -1 48 -1 #SUP: 2
10 -1 3 -1 76 -1 #SUP: 2
10 -1 22 -1 3 -1 #SUP: 2
10 -1 22 -1 76 -1 #SUP: 2
10 -1 50 -1 48 -1 #SUP: 2
10 -1 76 -1 2 -1 #SUP: 2
10 -1 76 -1 3 -1 #SUP: 4
10 -1 76 -1 7 -1 #SUP: 2
10 -1 76 -1 48 -1 #SUP: 2
10 -1 207 -1 3 -1 #SUP: 2
10 -1 207 -1 76 -1 #SUP: 3
10 -1 207 -1 113 -1 #SUP: 2
16 -1 3 -1 151 -1 #SUP: 2
16 -1 504 -1 340 -1 #SUP: 2
22 -1 3 -1 76 -1 #SUP: 4
22 -1 7 -1 3 -1 #SUP: 3
22 -1 7 -1 64 -1 #SUP: 2
22 -1 10 -1 76 -1 #SUP: 2
22 -1 10 -1 113 -1 #SUP: 2
22 -1 10 -1 207 -1 #SUP: 2
22 -1 50 -1 2 -1 #SUP: 2
22 -1 50 -1 76 -1 #SUP: 3
22 -1 54 -1 113 -1 #SUP: 2
22 -1 64 -1 76 -1 #SUP: 2
22 -1 64 -1 557 -1 #SUP: 2
22 -1 76 -1 2 -1 #SUP: 2
22 -1 76 -1 10 -1 #SUP: 2
22 -1 76 -1 557 -1 #SUP: 2
22 -1 113 -1 3 -1 #SUP: 2
22 -1 129 -1 76 -1 #SUP: 2
22 -1 151 -1 4698 -1 #SUP: 2
22 -1 153 -1 76 -1 #SUP: 2
22 -1 160 -1 76 -1 #SUP: 2
22 -1 207 -1 76 -1 #SUP: 3
22 -1 207 -1 113 -1 #SUP: 2
22 -1 250 -1 76 -1 #SUP: 2
30 -1 50 -1 76 -1 #SUP: 2
31 -1 76 -1 3 -1 #SUP: 2
32 -1 3 -1 64 -1 #SUP: 2
32 -1 22 -1 3 -1 #SUP: 2
33 -1 22 -1 76 -1 #SUP: 2
41 -1 3 -1 64 -1 #SUP: 2
41 -1 1309 -1 3 -1 #SUP: 2
41 -1 1309 -1 65 -1 #SUP: 2
46 -1 3 -1 2 -1 #SUP: 2
46 -1 3 -1 312 -1 #SUP: 2
46 -1 3 -1 2599 -1 #SUP: 2
46 -1 312 -1 2 -1 #SUP: 2
46 -1 312 -1 2599 -1 #SUP: 2
46 -1 2599 -1 2 -1 #SUP: 2
48 -1 2 -1 3 -1 #SUP: 2
48 -1 76 -1 625 -1 #SUP: 2
48 -1 312 -1 625 -1 #SUP: 2
50 -1 2 -1 3 -1 #SUP: 3
50 -1 2 -1 50 -1 #SUP: 2
50 -1 2 -1 76 -1 #SUP: 2
50 -1 3 -1 2 -1 #SUP: 8
50 -1 3 -1 48 -1 #SUP: 2
50 -1 3 -1 65 -1 #SUP: 2
50 -1 3 -1 76 -1 #SUP: 3
50 -1 3 -1 115 -1 #SUP: 2
50 -1 3 -1 312 -1 #SUP: 5
50 -1 3 -1 493 -1 #SUP: 2
50 -1 3 -1 1009 -1 #SUP: 2
50 -1 3 -1 1208 -1 #SUP: 2
50 -1 3 -1 2599 -1 #SUP: 2
50 -1 46 -1 2 -1 #SUP: 4
50 -1 46 -1 3 -1 #SUP: 3
50 -1 46 -1 312 -1 #SUP: 2
50 -1 46 -1 758 -1 #SUP: 2
50 -1 46 -1 2599 -1 #SUP: 2
50 -1 48 -1 2 -1 #SUP: 2
50 -1 50 -1 1065 -1 #SUP: 2
50 -1 76 -1 2 -1 #SUP: 5
50 -1 76 -1 3 -1 #SUP: 3
50 -1 76 -1 48 -1 #SUP: 2
50 -1 76 -1 50 -1 #SUP: 2
50 -1 163 -1 2 -1 #SUP: 2
50 -1 163 -1 3 -1 #SUP: 2
50 -1 163 -1 46 -1 #SUP: 2
50 -1 163 -1 312 -1 #SUP: 2
50 -1 163 -1 2599 -1 #SUP: 2
50 -1 312 -1 2 -1 #SUP: 6
50 -1 312 -1 76 -1 #SUP: 2
50 -1 312 -1 1009 -1 #SUP: 2
50 -1 312 -1 2599 -1 #SUP: 2
50 -1 1009 -1 2 -1 #SUP: 4
50 -1 1009 -1 3 -1 #SUP: 3
50 -1 1009 -1 1663 -1 #SUP: 2
50 -1 1461 -1 50 -1 #SUP: 2
50 -1 1461 -1 76 -1 #SUP: 2
50 -1 1663 -1 2 -1 #SUP: 3
50 -1 1663 -1 3 -1 #SUP: 3
50 -1 1666 -1 2 -1 #SUP: 2
50 -1 1666 -1 3 -1 #SUP: 2
50 -1 1666 -1 50 -1 #SUP: 2
50 -1 1666 -1 76 -1 #SUP: 3
50 -1 1666 -1 113 -1 #SUP: 2
50 -1 1666 -1 1461 -1 #SUP: 3
50 -1 2404 -1 3 -1 #SUP: 2
50 -1 2404 -1 1009 -1 #SUP: 2
50 -1 2599 -1 2 -1 #SUP: 2
64 -1 2 -1 32 -1 #SUP: 2
64 -1 3 -1 113 -1 #SUP: 2
64 -1 7 -1 278 -1 #SUP: 2
64 -1 10 -1 76 -1 #SUP: 2
64 -1 32 -1 113 -1 #SUP: 2
64 -1 48 -1 76 -1 #SUP: 2
64 -1 48 -1 625 -1 #SUP: 2
64 -1 65 -1 1100 -1 #SUP: 2
64 -1 76 -1 2 -1 #SUP: 2
64 -1 76 -1 3 -1 #SUP: 2
64 -1 76 -1 64 -1 #SUP: 2
64 -1 76 -1 113 -1 #SUP: 3
64 -1 76 -1 312 -1 #SUP: 2
64 -1 76 -1 342 -1 #SUP: 2
64 -1 76 -1 557 -1 #SUP: 3
64 -1 76 -1 625 -1 #SUP: 2
64 -1 76 -1 827 -1 #SUP: 2
64 -1 297 -1 385 -1 #SUP: 2
64 -1 374 -1 160 -1 #SUP: 2
64 -1 388 -1 2 -1 #SUP: 2
64 -1 557 -1 342 -1 #SUP: 2
65 -1 2 -1 3 -1 #SUP: 2
65 -1 76 -1 3 -1 #SUP: 2
65 -1 161 -1 3 -1 #SUP: 2
67 -1 1171 -1 3 -1 #SUP: 2
75 -1 2 -1 64 -1 #SUP: 2
75 -1 3 -1 64 -1 #SUP: 2
75 -1 3 -1 76 -1 #SUP: 2
76 -1 2 -1 3 -1 #SUP: 4
76 -1 2 -1 7 -1 #SUP: 2
76 -1 2 -1 113 -1 #SUP: 2
76 -1 3 -1 2 -1 #SUP: 3
76 -1 3 -1 22 -1 #SUP: 4
76 -1 3 -1 32 -1 #SUP: 2
76 -1 3 -1 48 -1 #SUP: 2
76 -1 3 -1 64 -1 #SUP: 2
76 -1 3 -1 65 -1 #SUP: 2
76 -1 3 -1 530 -1 #SUP: 2
76 -1 7 -1 3 -1 #SUP: 4
76 -1 7 -1 194 -1 #SUP: 3
76 -1 10 -1 3 -1 #SUP: 2
76 -1 10 -1 76 -1 #SUP: 2
76 -1 16 -1 1075 -1 #SUP: 2
76 -1 22 -1 3320 -1 #SUP: 2
76 -1 41 -1 3 -1 #SUP: 2
76 -1 48 -1 2 -1 #SUP: 2
76 -1 50 -1 2 -1 #SUP: 2
76 -1 50 -1 3 -1 #SUP: 2
76 -1 50 -1 48 -1 #SUP: 2
76 -1 50 -1 2404 -1 #SUP: 2
76 -1 50 -1 6927 -1 #SUP: 2
76 -1 64 -1 64 -1 #SUP: 2
76 -1 64 -1 65 -1 #SUP: 2
76 -1 65 -1 1100 -1 #SUP: 2
76 -1 76 -1 2 -1 #SUP: 2
76 -1 76 -1 3 -1 #SUP: 3
76 -1 76 -1 76 -1 #SUP: 2
76 -1 113 -1 3 -1 #SUP: 4
76 -1 113 -1 7 -1 #SUP: 5
76 -1 113 -1 22 -1 #SUP: 2
76 -1 113 -1 31 -1 #SUP: 2
76 -1 113 -1 64 -1 #SUP: 4
76 -1 113 -1 65 -1 #SUP: 2
76 -1 113 -1 194 -1 #SUP: 3
76 -1 113 -1 312 -1 #SUP: 2
76 -1 113 -1 1100 -1 #SUP: 2
76 -1 149 -1 141 -1 #SUP: 2
76 -1 161 -1 3 -1 #SUP: 4
76 -1 161 -1 64 -1 #SUP: 2
76 -1 194 -1 3 -1 #SUP: 2
76 -1 484 -1 50 -1 #SUP: 2
76 -1 530 -1 2 -1 #SUP: 2
76 -1 530 -1 76 -1 #SUP: 2
76 -1 557 -1 3 -1 #SUP: 2
76 -1 557 -1 113 -1 #SUP: 3
76 -1 557 -1 312 -1 #SUP: 2
76 -1 557 -1 342 -1 #SUP: 2
76 -1 1009 -1 2 -1 #SUP: 2
81 -1 64 -1 113 -1 #SUP: 2
113 -1 2 -1 113 -1 #SUP: 3
113 -1 3 -1 2 -1 #SUP: 3
113 -1 3 -1 22 -1 #SUP: 2
113 -1 3 -1 32 -1 #SUP: 2
113 -1 3 -1 76 -1 #SUP: 3
113 -1 3 -1 113 -1 #SUP: 5
113 -1 3 -1 158 -1 #SUP: 2
113 -1 3 -1 312 -1 #SUP: 3
113 -1 3 -1 406 -1 #SUP: 2
113 -1 3 -1 1487 -1 #SUP: 2
113 -1 7 -1 2 -1 #SUP: 2
113 -1 7 -1 3 -1 #SUP: 4
113 -1 7 -1 7 -1 #SUP: 2
113 -1 7 -1 22 -1 #SUP: 3
113 -1 7 -1 50 -1 #SUP: 2
113 -1 7 -1 64 -1 #SUP: 2
113 -1 7 -1 65 -1 #SUP: 2
113 -1 7 -1 113 -1 #SUP: 4
113 -1 7 -1 160 -1 #SUP: 2
113 -1 7 -1 194 -1 #SUP: 2
113 -1 7 -1 211 -1 #SUP: 3
113 -1 7 -1 340 -1 #SUP: 3
113 -1 7 -1 1100 -1 #SUP: 2
113 -1 7 -1 2188 -1 #SUP: 3
113 -1 7 -1 2475 -1 #SUP: 2
113 -1 22 -1 32 -1 #SUP: 2
113 -1 64 -1 2 -1 #SUP: 2
113 -1 64 -1 3 -1 #SUP: 4
113 -1 64 -1 76 -1 #SUP: 2
113 -1 64 -1 113 -1 #SUP: 3
113 -1 64 -1 160 -1 #SUP: 2
113 -1 64 -1 374 -1 #SUP: 2
113 -1 65 -1 278 -1 #SUP: 2
113 -1 65 -1 1100 -1 #SUP: 3
113 -1 76 -1 76 -1 #SUP: 2
113 -1 76 -1 113 -1 #SUP: 4
113 -1 76 -1 149 -1 #SUP: 2
113 -1 76 -1 557 -1 #SUP: 4
113 -1 80 -1 64 -1 #SUP: 2
113 -1 81 -1 64 -1 #SUP: 2
113 -1 81 -1 113 -1 #SUP: 2
113 -1 113 -1 2 -1 #SUP: 3
113 -1 113 -1 3 -1 #SUP: 4
113 -1 113 -1 64 -1 #SUP: 3
113 -1 113 -1 156 -1 #SUP: 2
113 -1 113 -1 158 -1 #SUP: 2
113 -1 113 -1 463 -1 #SUP: 2
113 -1 113 -1 786 -1 #SUP: 2
113 -1 156 -1 64 -1 #SUP: 3
113 -1 158 -1 3 -1 #SUP: 2
113 -1 160 -1 50 -1 #SUP: 2
113 -1 194 -1 3 -1 #SUP: 2
113 -1 194 -1 7 -1 #SUP: 2
113 -1 194 -1 22 -1 #SUP: 2
113 -1 194 -1 65 -1 #SUP: 2
113 -1 194 -1 1100 -1 #SUP: 2
113 -1 224 -1 131 -1 #SUP: 2
113 -1 312 -1 113 -1 #SUP: 3
113 -1 312 -1 463 -1 #SUP: 2
113 -1 326 -1 113 -1 #SUP: 2
113 -1 340 -1 3 -1 #SUP: 3
113 -1 340 -1 602 -1 #SUP: 2
113 -1 374 -1 160 -1 #SUP: 2
113 -1 403 -1 76 -1 #SUP: 2
113 -1 463 -1 64 -1 #SUP: 2
113 -1 463 -1 76 -1 #SUP: 2
113 -1 463 -1 160 -1 #SUP: 2
113 -1 463 -1 374 -1 #SUP: 2
113 -1 510 -1 3 -1 #SUP: 2
113 -1 510 -1 113 -1 #SUP: 2
113 -1 557 -1 113 -1 #SUP: 3
113 -1 786 -1 2 -1 #SUP: 2
113 -1 786 -1 3 -1 #SUP: 2
113 -1 786 -1 118 -1 #SUP: 2
113 -1 786 -1 340 -1 #SUP: 2
113 -1 1193 -1 27 -1 #SUP: 2
113 -1 1487 -1 340 -1 #SUP: 2
113 -1 2188 -1 50 -1 #SUP: 2
113 -1 2188 -1 160 -1 #SUP: 2
141 -1 41 -1 3 -1 #SUP: 2
141 -1 41 -1 65 -1 #SUP: 2
141 -1 41 -1 194 -1 #SUP: 2
141 -1 41 -1 1309 -1 #SUP: 3
141 -1 1309 -1 65 -1 #SUP: 2
151 -1 50 -1 76 -1 #SUP: 2
153 -1 50 -1 3 -1 #SUP: 2
153 -1 50 -1 76 -1 #SUP: 2
153 -1 76 -1 3 -1 #SUP: 2
158 -1 3 -1 149 -1 #SUP: 2
158 -1 113 -1 3 -1 #SUP: 2
158 -1 113 -1 76 -1 #SUP: 2
161 -1 3 -1 32 -1 #SUP: 2
163 -1 3 -1 2 -1 #SUP: 2
163 -1 3 -1 312 -1 #SUP: 2
163 -1 3 -1 2599 -1 #SUP: 2
163 -1 46 -1 2 -1 #SUP: 2
163 -1 46 -1 3 -1 #SUP: 2
163 -1 46 -1 312 -1 #SUP: 2
163 -1 46 -1 2599 -1 #SUP: 2
163 -1 312 -1 2 -1 #SUP: 2
163 -1 312 -1 2599 -1 #SUP: 2
163 -1 2599 -1 2 -1 #SUP: 2
165 -1 76 -1 76 -1 #SUP: 2
182 -1 3 -1 22 -1 #SUP: 2
182 -1 3 -1 64 -1 #SUP: 2
182 -1 3 -1 76 -1 #SUP: 2
182 -1 208 -1 3 -1 #SUP: 2
182 -1 208 -1 22 -1 #SUP: 2
189 -1 76 -1 64 -1 #SUP: 2
189 -1 76 -1 388 -1 #SUP: 2
194 -1 3 -1 48 -1 #SUP: 2
194 -1 7 -1 65 -1 #SUP: 2
194 -1 65 -1 1100 -1 #SUP: 3
207 -1 3 -1 76 -1 #SUP: 2
207 -1 3 -1 149 -1 #SUP: 2
207 -1 76 -1 149 -1 #SUP: 2
208 -1 3 -1 22 -1 #SUP: 2
208 -1 3 -1 76 -1 #SUP: 3
208 -1 22 -1 76 -1 #SUP: 2
244 -1 64 -1 76 -1 #SUP: 2
250 -1 76 -1 2 -1 #SUP: 2
272 -1 3 -1 312 -1 #SUP: 2
278 -1 22 -1 207 -1 #SUP: 2
278 -1 113 -1 786 -1 #SUP: 2
308 -1 22 -1 207 -1 #SUP: 2
312 -1 2 -1 3 -1 #SUP: 4
312 -1 2 -1 4701 -1 #SUP: 2
312 -1 3 -1 76 -1 #SUP: 2
312 -1 48 -1 3 -1 #SUP: 2
312 -1 64 -1 160 -1 #SUP: 2
312 -1 64 -1 374 -1 #SUP: 2
312 -1 76 -1 2 -1 #SUP: 2
312 -1 76 -1 3 -1 #SUP: 2
312 -1 113 -1 3 -1 #SUP: 2
312 -1 113 -1 64 -1 #SUP: 3
312 -1 113 -1 160 -1 #SUP: 2
312 -1 113 -1 374 -1 #SUP: 2
312 -1 113 -1 463 -1 #SUP: 2
312 -1 374 -1 160 -1 #SUP: 2
312 -1 463 -1 64 -1 #SUP: 2
312 -1 463 -1 160 -1 #SUP: 2
312 -1 463 -1 374 -1 #SUP: 2
312 -1 1009 -1 2 -1 #SUP: 3
312 -1 1009 -1 3 -1 #SUP: 2
312 -1 1461 -1 3 -1 #SUP: 2
312 -1 2599 -1 2 -1 #SUP: 2
340 -1 3 -1 113 -1 #SUP: 2
340 -1 113 -1 113 -1 #SUP: 2
340 -1 224 -1 131 -1 #SUP: 2
340 -1 602 -1 113 -1 #SUP: 2
342 -1 10 -1 22 -1 #SUP: 2
342 -1 312 -1 625 -1 #SUP: 3
375 -1 2 -1 7 -1 #SUP: 2
375 -1 2 -1 22 -1 #SUP: 2
375 -1 22 -1 7 -1 #SUP: 2
417 -1 825 -1 417 -1 #SUP: 2
418 -1 3 -1 76 -1 #SUP: 2
418 -1 76 -1 149 -1 #SUP: 2
463 -1 64 -1 160 -1 #SUP: 2
463 -1 64 -1 374 -1 #SUP: 2
463 -1 76 -1 113 -1 #SUP: 2
463 -1 374 -1 160 -1 #SUP: 2
493 -1 113 -1 64 -1 #SUP: 2
493 -1 113 -1 113 -1 #SUP: 2
530 -1 7 -1 3 -1 #SUP: 2
530 -1 76 -1 3 -1 #SUP: 2
557 -1 113 -1 64 -1 #SUP: 2
557 -1 312 -1 113 -1 #SUP: 2
625 -1 76 -1 113 -1 #SUP: 2
625 -1 113 -1 76 -1 #SUP: 2
625 -1 113 -1 113 -1 #SUP: 2
625 -1 113 -1 557 -1 #SUP: 2
625 -1 625 -1 113 -1 #SUP: 2
636 -1 113 -1 2 -1 #SUP: 2
636 -1 113 -1 113 -1 #SUP: 2
786 -1 340 -1 3 -1 #SUP: 2
827 -1 76 -1 113 -1 #SUP: 2
872 -1 113 -1 113 -1 #SUP: 2
872 -1 340 -1 113 -1 #SUP: 2
1009 -1 3 -1 2 -1 #SUP: 3
1009 -1 3 -1 5611 -1 #SUP: 2
1009 -1 1663 -1 2 -1 #SUP: 2
1009 -1 1663 -1 3 -1 #SUP: 2
1065 -1 268 -1 1670 -1 #SUP: 2
1418 -1 2 -1 213 -1 #SUP: 2
1461 -1 50 -1 1065 -1 #SUP: 2
1461 -1 76 -1 3 -1 #SUP: 2
1461 -1 76 -1 50 -1 #SUP: 2
1663 -1 3 -1 2 -1 #SUP: 3
1666 -1 3 -1 76 -1 #SUP: 2
1666 -1 1461 -1 50 -1 #SUP: 2
1666 -1 1461 -1 76 -1 #SUP: 2
2188 -1 160 -1 50 -1 #SUP: 2
4090 -1 22 -1 3 -1 #SUP: 2
4090 -1 32 -1 3 -1 #SUP: 2
4090 -1 32 -1 22 -1 #SUP: 2
2 -1 22 -1 7 -1 3 -1 #SUP: 3
2 -1 22 -1 7 -1 64 -1 #SUP: 2
3 -1 22 -1 10 -1 76 -1 #SUP: 2
3 -1 64 -1 48 -1 76 -1 #SUP: 2
3 -1 76 -1 50 -1 48 -1 #SUP: 2
3 -1 76 -1 149 -1 141 -1 #SUP: 2
3 -1 113 -1 7 -1 3 -1 #SUP: 2
3 -1 312 -1 2599 -1 2 -1 #SUP: 2
7 -1 64 -1 76 -1 557 -1 #SUP: 2
7 -1 2188 -1 160 -1 50 -1 #SUP: 2
10 -1 76 -1 3 -1 48 -1 #SUP: 2
10 -1 207 -1 3 -1 76 -1 #SUP: 2
22 -1 10 -1 207 -1 113 -1 #SUP: 2
22 -1 64 -1 76 -1 557 -1 #SUP: 2
46 -1 3 -1 312 -1 2 -1 #SUP: 2
46 -1 3 -1 312 -1 2599 -1 #SUP: 2
46 -1 3 -1 2599 -1 2 -1 #SUP: 2
46 -1 312 -1 2599 -1 2 -1 #SUP: 2
50 -1 3 -1 48 -1 2 -1 #SUP: 2
50 -1 3 -1 312 -1 2 -1 #SUP: 4
50 -1 3 -1 312 -1 2599 -1 #SUP: 2
50 -1 3 -1 2599 -1 2 -1 #SUP: 2
50 -1 46 -1 3 -1 2 -1 #SUP: 2
50 -1 46 -1 3 -1 312 -1 #SUP: 2
50 -1 46 -1 3 -1 2599 -1 #SUP: 2
50 -1 46 -1 312 -1 2 -1 #SUP: 2
50 -1 46 -1 312 -1 2599 -1 #SUP: 2
50 -1 46 -1 2599 -1 2 -1 #SUP: 2
50 -1 76 -1 3 -1 2 -1 #SUP: 2
50 -1 76 -1 48 -1 2 -1 #SUP: 2
50 -1 163 -1 3 -1 2 -1 #SUP: 2
50 -1 163 -1 3 -1 312 -1 #SUP: 2
50 -1 163 -1 3 -1 2599 -1 #SUP: 2
50 -1 163 -1 46 -1 2 -1 #SUP: 2
50 -1 163 -1 46 -1 3 -1 #SUP: 2
50 -1 163 -1 46 -1 312 -1 #SUP: 2
50 -1 163 -1 46 -1 2599 -1 #SUP: 2
50 -1 163 -1 312 -1 2 -1 #SUP: 2
50 -1 163 -1 312 -1 2599 -1 #SUP: 2
50 -1 163 -1 2599 -1 2 -1 #SUP: 2
50 -1 312 -1 76 -1 2 -1 #SUP: 2
50 -1 312 -1 1009 -1 2 -1 #SUP: 2
50 -1 312 -1 2599 -1 2 -1 #SUP: 2
50 -1 1009 -1 3 -1 2 -1 #SUP: 2
50 -1 1009 -1 1663 -1 2 -1 #SUP: 2
50 -1 1009 -1 1663 -1 3 -1 #SUP: 2
50 -1 1663 -1 3 -1 2 -1 #SUP: 3
50 -1 1666 -1 3 -1 76 -1 #SUP: 2
50 -1 1666 -1 1461 -1 50 -1 #SUP: 2
50 -1 1666 -1 1461 -1 76 -1 #SUP: 2
64 -1 48 -1 76 -1 625 -1 #SUP: 2
64 -1 76 -1 557 -1 342 -1 #SUP: 2
76 -1 2 -1 113 -1 7 -1 #SUP: 2
76 -1 7 -1 194 -1 3 -1 #SUP: 2
76 -1 10 -1 76 -1 3 -1 #SUP: 2
76 -1 113 -1 3 -1 22 -1 #SUP: 2
76 -1 113 -1 7 -1 3 -1 #SUP: 2
76 -1 113 -1 7 -1 194 -1 #SUP: 2
76 -1 113 -1 65 -1 1100 -1 #SUP: 2
113 -1 3 -1 2 -1 113 -1 #SUP: 2
113 -1 7 -1 7 -1 2188 -1 #SUP: 2
113 -1 7 -1 65 -1 1100 -1 #SUP: 2
113 -1 7 -1 160 -1 50 -1 #SUP: 2
113 -1 7 -1 194 -1 22 -1 #SUP: 2
113 -1 7 -1 2188 -1 50 -1 #SUP: 2
113 -1 7 -1 2188 -1 160 -1 #SUP: 2
113 -1 64 -1 3 -1 113 -1 #SUP: 2
113 -1 64 -1 374 -1 160 -1 #SUP: 2
113 -1 76 -1 557 -1 113 -1 #SUP: 2
113 -1 81 -1 64 -1 113 -1 #SUP: 2
113 -1 113 -1 156 -1 64 -1 #SUP: 2
113 -1 194 -1 65 -1 1100 -1 #SUP: 2
113 -1 312 -1 113 -1 463 -1 #SUP: 2
113 -1 463 -1 64 -1 160 -1 #SUP: 2
113 -1 463 -1 64 -1 374 -1 #SUP: 2
113 -1 463 -1 374 -1 160 -1 #SUP: 2
113 -1 786 -1 340 -1 3 -1 #SUP: 2
113 -1 2188 -1 160 -1 50 -1 #SUP: 2
141 -1 41 -1 1309 -1 65 -1 #SUP: 2
153 -1 50 -1 76 -1 3 -1 #SUP: 2
163 -1 3 -1 312 -1 2 -1 #SUP: 2
163 -1 3 -1 312 -1 2599 -1 #SUP: 2
163 -1 3 -1 2599 -1 2 -1 #SUP: 2
163 -1 46 -1 3 -1 2 -1 #SUP: 2
163 -1 46 -1 3 -1 312 -1 #SUP: 2
163 -1 46 -1 3 -1 2599 -1 #SUP: 2
163 -1 46 -1 312 -1 2 -1 #SUP: 2
163 -1 46 -1 312 -1 2599 -1 #SUP: 2
163 -1 46 -1 2599 -1 2 -1 #SUP: 2
163 -1 312 -1 2599 -1 2 -1 #SUP: 2
182 -1 208 -1 3 -1 22 -1 #SUP: 2
207 -1 3 -1 76 -1 149 -1 #SUP: 2
208 -1 3 -1 22 -1 76 -1 #SUP: 2
312 -1 64 -1 374 -1 160 -1 #SUP: 2
312 -1 76 -1 2 -1 3 -1 #SUP: 2
312 -1 113 -1 64 -1 160 -1 #SUP: 2
312 -1 113 -1 64 -1 374 -1 #SUP: 2
312 -1 113 -1 374 -1 160 -1 #SUP: 2
312 -1 113 -1 463 -1 64 -1 #SUP: 2
312 -1 113 -1 463 -1 160 -1 #SUP: 2
312 -1 113 -1 463 -1 374 -1 #SUP: 2
312 -1 463 -1 64 -1 160 -1 #SUP: 2
312 -1 463 -1 64 -1 374 -1 #SUP: 2
312 -1 463 -1 374 -1 160 -1 #SUP: 2
375 -1 2 -1 22 -1 7 -1 #SUP: 2
463 -1 64 -1 374 -1 160 -1 #SUP: 2
625 -1 113 -1 76 -1 113 -1 #SUP: 2
872 -1 340 -1 113 -1 113 -1 #SUP: 2
1009 -1 1663 -1 3 -1 2 -1 #SUP: 2
4090 -1 32 -1 22 -1 3 -1 #SUP: 2
46 -1 3 -1 312 -1 2599 -1 2 -1 #SUP: 2
50 -1 3 -1 312 -1 2599 -1 2 -1 #SUP: 2
50 -1 46 -1 3 -1 312 -1 2 -1 #SUP: 2
50 -1 46 -1 3 -1 312 -1 2599 -1 #SUP: 2
50 -1 46 -1 3 -1 2599 -1 2 -1 #SUP: 2
50 -1 46 -1 312 -1 2599 -1 2 -1 #SUP: 2
50 -1 163 -1 3 -1 312 -1 2 -1 #SUP: 2
50 -1 163 -1 3 -1 312 -1 2599 -1 #SUP: 2
50 -1 163 -1 3 -1 2599 -1 2 -1 #SUP: 2
50 -1 163 -1 46 -1 3 -1 2 -1 #SUP: 2
50 -1 163 -1 46 -1 3 -1 312 -1 #SUP: 2
50 -1 163 -1 46 -1 3 -1 2599 -1 #SUP: 2
50 -1 163 -1 46 -1 312 -1 2 -1 #SUP: 2
50 -1 163 -1 46 -1 312 -1 2599 -1 #SUP: 2
50 -1 163 -1 46 -1 2599 -1 2 -1 #SUP: 2
50 -1 163 -1 312 -1 2599 -1 2 -1 #SUP: 2
50 -1 1009 -1 1663 -1 3 -1 2 -1 #SUP: 2
113 -1 7 -1 2188 -1 160 -1 50 -1 #SUP: 2
113 -1 463 -1 64 -1 374 -1 160 -1 #SUP: 2
163 -1 3 -1 312 -1 2599 -1 2 -1 #SUP: 2
163 -1 46 -1 3 -1 312 -1 2 -1 #SUP: 2
163 -1 46 -1 3 -1 312 -1 2599 -1 #SUP: 2
163 -1 46 -1 3 -1 2599 -1 2 -1 #SUP: 2
163 -1 46 -1 312 -1 2599 -1 2 -1 #SUP: 2
312 -1 113 -1 64 -1 374 -1 160 -1 #SUP: 2
312 -1 113 -1 463 -1 64 -1 160 -1 #SUP: 2
312 -1 113 -1 463 -1 64 -1 374 -1 #SUP: 2
312 -1 113 -1 463 -1 374 -1 160 -1 #SUP: 2
312 -1 463 -1 64 -1 374 -1 160 -1 #SUP: 2
50 -1 46 -1 3 -1 312 -1 2599 -1 2 -1 #SUP: 2
50 -1 163 -1 3 -1 312 -1 2599 -1 2 -1 #SUP: 2
50 -1 163 -1 46 -1 3 -1 312 -1 2 -1 #SUP: 2
50 -1 163 -1 46 -1 3 -1 312 -1 2599 -1 #SUP: 2
50 -1 163 -1 46 -1 3 -1 2599 -1 2 -1 #SUP: 2
50 -1 163 -1 46 -1 312 -1 2599 -1 2 -1 #SUP: 2
163 -1 46 -1 3 -1 312 -1 2599 -1 2 -1 #SUP: 2
312 -1 113 -1 463 -1 64 -1 374 -1 160 -1 #SUP: 2
50 -1 163 -1 46 -1 3 -1 312 -1 2599 -1 2 -1 #SUP: 2
