2 -1 #SUP: 42
3 -1 #SUP: 44
6 -1 #SUP: 2
7 -1 #SUP: 13
10 -1 #SUP: 10
11 -1 #SUP: 4
13 -1 #SUP: 2
15 -1 #SUP: 3
16 -1 #SUP: 9
22 -1 #SUP: 41
27 -1 #SUP: 5
29 -1 #SUP: 7
30 -1 #SUP: 2
31 -1 #SUP: 9
32 -1 #SUP: 16
33 -1 #SUP: 8
41 -1 #SUP: 20
42 -1 #SUP: 2
46 -1 #SUP: 2
48 -1 #SUP: 2
50 -1 #SUP: 9
54 -1 #SUP: 4
57 -1 #SUP: 3
64 -1 #SUP: 39
65 -1 #SUP: 39
66 -1 #SUP: 7
69 -1 #SUP: 8
72 -1 #SUP: 4
75 -1 #SUP: 3
76 -1 #SUP: 92
77 -1 #SUP: 5
81 -1 #SUP: 3
113 -1 #SUP: 67
115 -1 #SUP: 12
118 -1 #SUP: 6
131 -1 #SUP: 14
137 -1 #SUP: 2
139 -1 #SUP: 2
141 -1 #SUP: 18
148 -1 #SUP: 2
149 -1 #SUP: 10
151 -1 #SUP: 25
153 -1 #SUP: 7
154 -1 #SUP: 6
155 -1 #SUP: 2
156 -1 #SUP: 3
158 -1 #SUP: 6
160 -1 #SUP: 7
161 -1 #SUP: 4
163 -1 #SUP: 5
165 -1 #SUP: 3
168 -1 #SUP: 4
169 -1 #SUP: 3
179 -1 #SUP: 6
182 -1 #SUP: 31
185 -1 #SUP: 8
187 -1 #SUP: 6
189 -1 #SUP: 3
194 -1 #SUP: 17
195 -1 #SUP: 3
200 -1 #SUP: 12
207 -1 #SUP: 2
208 -1 #SUP: 7
211 -1 #SUP: 2
213 -1 #SUP: 8
214 -1 #SUP: 3
216 -1 #SUP: 4
221 -1 #SUP: 5
224 -1 #SUP: 9
225 -1 #SUP: 4
232 -1 #SUP: 4
234 -1 #SUP: 8
236 -1 #SUP: 4
242 -1 #SUP: 4
244 -1 #SUP: 2
248 -1 #SUP: 7
250 -1 #SUP: 9
251 -1 #SUP: 2
256 -1 #SUP: 8
262 -1 #SUP: 5
264 -1 #SUP: 3
268 -1 #SUP: 3
272 -1 #SUP: 5
273 -1 #SUP: 6
278 -1 #SUP: 6
296 -1 #SUP: 5
304 -1 #SUP: 2
312 -1 #SUP: 2
326 -1 #SUP: 7
337 -1 #SUP: 3
339 -1 #SUP: 2
340 -1 #SUP: 14
342 -1 #SUP: 14
356 -1 #SUP: 2
358 -1 #SUP: 2
364 -1 #SUP: 8
372 -1 #SUP: 2
374 -1 #SUP: 3
375 -1 #SUP: 3
376 -1 #SUP: 2
394 -1 #SUP: 2
406 -1 #SUP: 4
408 -1 #SUP: 2
417 -1 #SUP: 11
420 -1 #SUP: 4
422 -1 #SUP: 3
424 -1 #SUP: 4
445 -1 #SUP: 2
454 -1 #SUP: 3
463 -1 #SUP: 8
481 -1 #SUP: 2
483 -1 #SUP: 5
484 -1 #SUP: 13
485 -1 #SUP: 2
489 -1 #SUP: 2
493 -1 #SUP: 10
497 -1 #SUP: 5
500 -1 #SUP: 2
504 -1 #SUP: 5
506 -1 #SUP: 4
510 -1 #SUP: 2
520 -1 #SUP: 2
527 -1 #SUP: 4
553 -1 #SUP: 2
555 -1 #SUP: 2
557 -1 #SUP: 23
571 -1 #SUP: 5
587 -1 #SUP: 3
600 -1 #SUP: 2
601 -1 #SUP: 2
613 -1 #SUP: 4
625 -1 #SUP: 2
634 -1 #SUP: 2
635 -1 #SUP: 3
642 -1 #SUP: 2
644 -1 #SUP: 5
654 -1 #SUP: 4
675 -1 #SUP: 3
677 -1 #SUP: 2
686 -1 #SUP: 8
699 -1 #SUP: 3
711 -1 #SUP: 2
791 -1 #SUP: 2
804 -1 #SUP: 2
814 -1 #SUP: 2
827 -1 #SUP: 12
836 -1 #SUP: 4
860 -1 #SUP: 3
868 -1 #SUP: 3
871 -1 #SUP: 2
872 -1 #SUP: 4
878 -1 #SUP: 2
892 -1 #SUP: 4
904 -1 #SUP: 2
1014 -1 #SUP: 2
1017 -1 #SUP: 3
1068 -1 #SUP: 3
1075 -1 #SUP: 2
1088 -1 #SUP: 2
1089 -1 #SUP: 2
1092 -1 #SUP: 2
1100 -1 #SUP: 4
1101 -1 #SUP: 8
1139 -1 #SUP: 3
1188 -1 #SUP: 2
1193 -1 #SUP: 2
1203 -1 #SUP: 4
1216 -1 #SUP: 2
1225 -1 #SUP: 2
1287 -1 #SUP: 2
1307 -1 #SUP: 3
1312 -1 #SUP: 3
1367 -1 #SUP: 3
1369 -1 #SUP: 2
1418 -1 #SUP: 4
1534 -1 #SUP: 3
1562 -1 #SUP: 2
1615 -1 #SUP: 5
1621 -1 #SUP: 3
1635 -1 #SUP: 2
1640 -1 #SUP: 3
1666 -1 #SUP: 2
1730 -1 #SUP: 2
1749 -1 #SUP: 2
1959 -1 #SUP: 2
2022 -1 #SUP: 4
2050 -1 #SUP: 6
2093 -1 #SUP: 2
2219 -1 #SUP: 2
2222 -1 #SUP: 2
2460 -1 #SUP: 2
2657 -1 #SUP: 2
2726 -1 #SUP: 2
2730 -1 #SUP: 2
2997 -1 #SUP: 2
3363 -1 #SUP: 3
3466 -1 #SUP: 2
3719 -1 #SUP: 2
3791 -1 #SUP: 2
3860 -1 #SUP: 2
4101 -1 #SUP: 5
4482 -1 #SUP: 3
10912 -1 #SUP: 2
11594 -1 #SUP: 2
16309 -1 #SUP: 2
2 -1 2 -1 #SUP: 3
2 -1 3 -1 #SUP: 5
2 -1 7 -1 #SUP: 3
2 -1 22 -1 #SUP: 8
2 -1 31 -1 #SUP: 3
2 -1 32 -1 #SUP: 2
2 -1 41 -1 #SUP: 6
2 -1 50 -1 #SUP: 3
2 -1 64 -1 #SUP: 6
2 -1 65 -1 #SUP: 6
2 -1 76 -1 #SUP: 8
2 -1 81 -1 #SUP: 2
2 -1 113 -1 #SUP: 14
2 -1 115 -1 #SUP: 3
2 -1 118 -1 #SUP: 3
2 -1 131 -1 #SUP: 3
2 -1 141 -1 #SUP: 4
2 -1 151 -1 #SUP: 5
2 -1 154 -1 #SUP: 2
2 -1 160 -1 #SUP: 2
2 -1 163 -1 #SUP: 2
2 -1 179 -1 #SUP: 2
2 -1 182 -1 #SUP: 5
2 -1 185 -1 #SUP: 2
2 -1 194 -1 #SUP: 2
2 -1 208 -1 #SUP: 2
2 -1 213 -1 #SUP: 4
2 -1 224 -1 #SUP: 2
2 -1 236 -1 #SUP: 2
2 -1 256 -1 #SUP: 2
2 -1 272 -1 #SUP: 3
2 -1 273 -1 #SUP: 3
2 -1 326 -1 #SUP: 2
2 -1 342 -1 #SUP: 4
2 -1 364 -1 #SUP: 3
2 -1 417 -1 #SUP: 2
2 -1 463 -1 #SUP: 2
2 -1 484 -1 #SUP: 3
2 -1 571 -1 #SUP: 2
2 -1 711 -1 #SUP: 2
2 -1 814 -1 #SUP: 2
2 -1 827 -1 #SUP: 3
2 -1 1068 -1 #SUP: 2
2 -1 1312 -1 #SUP: 2
2 -1 1367 -1 #SUP: 2
3 -1 2 -1 #SUP: 7
3 -1 3 -1 #SUP: 3
3 -1 7 -1 #SUP: 4
3 -1 10 -1 #SUP: 2
3 -1 11 -1 #SUP: 2
3 -1 22 -1 #SUP: 10
3 -1 32 -1 #SUP: 6
3 -1 41 -1 #SUP: 2
3 -1 54 -1 #SUP: 2
3 -1 64 -1 #SUP: 7
3 -1 65 -1 #SUP: 10
3 -1 76 -1 #SUP: 13
3 -1 113 -1 #SUP: 6
3 -1 115 -1 #SUP: 3
3 -1 131 -1 #SUP: 2
3 -1 141 -1 #SUP: 2
3 -1 149 -1 #SUP: 2
3 -1 151 -1 #SUP: 3
3 -1 158 -1 #SUP: 2
3 -1 182 -1 #SUP: 3
3 -1 200 -1 #SUP: 4
3 -1 213 -1 #SUP: 4
3 -1 224 -1 #SUP: 2
3 -1 264 -1 #SUP: 2
3 -1 278 -1 #SUP: 2
3 -1 304 -1 #SUP: 2
3 -1 417 -1 #SUP: 2
3 -1 422 -1 #SUP: 2
3 -1 463 -1 #SUP: 2
3 -1 484 -1 #SUP: 4
3 -1 527 -1 #SUP: 2
3 -1 557 -1 #SUP: 2
3 -1 654 -1 #SUP: 2
3 -1 699 -1 #SUP: 2
3 -1 827 -1 #SUP: 2
3 -1 868 -1 #SUP: 2
3 -1 1100 -1 #SUP: 2
3 -1 1367 -1 #SUP: 2
3 -1 1621 -1 #SUP: 2
3 -1 1749 -1 #SUP: 2
7 -1 2 -1 #SUP: 2
7 -1 3 -1 #SUP: 2
7 -1 22 -1 #SUP: 2
7 -1 46 -1 #SUP: 2
7 -1 64 -1 #SUP: 2
7 -1 65 -1 #SUP: 3
7 -1 76 -1 #SUP: 5
7 -1 131 -1 #SUP: 2
7 -1 182 -1 #SUP: 5
7 -1 1017 -1 #SUP: 2
10 -1 22 -1 #SUP: 3
10 -1 41 -1 #SUP: 2
10 -1 76 -1 #SUP: 4
10 -1 77 -1 #SUP: 2
10 -1 139 -1 #SUP: 2
10 -1 182 -1 #SUP: 2
10 -1 1635 -1 #SUP: 2
11 -1 3 -1 #SUP: 2
11 -1 64 -1 #SUP: 2
11 -1 76 -1 #SUP: 4
11 -1 141 -1 #SUP: 2
16 -1 2 -1 #SUP: 3
16 -1 22 -1 #SUP: 3
16 -1 64 -1 #SUP: 2
16 -1 65 -1 #SUP: 2
16 -1 66 -1 #SUP: 2
16 -1 76 -1 #SUP: 4
16 -1 113 -1 #SUP: 3
16 -1 185 -1 #SUP: 2
16 -1 248 -1 #SUP: 2
16 -1 364 -1 #SUP: 2
22 -1 2 -1 #SUP: 4
22 -1 3 -1 #SUP: 7
22 -1 7 -1 #SUP: 2
22 -1 15 -1 #SUP: 2
22 -1 22 -1 #SUP: 2
22 -1 31 -1 #SUP: 2
22 -1 32 -1 #SUP: 6
22 -1 41 -1 #SUP: 2
22 -1 50 -1 #SUP: 2
22 -1 54 -1 #SUP: 3
22 -1 64 -1 #SUP: 2
22 -1 65 -1 #SUP: 2
22 -1 69 -1 #SUP: 3
22 -1 72 -1 #SUP: 2
22 -1 75 -1 #SUP: 2
22 -1 76 -1 #SUP: 9
22 -1 77 -1 #SUP: 2
22 -1 113 -1 #SUP: 4
22 -1 131 -1 #SUP: 3
22 -1 149 -1 #SUP: 2
22 -1 151 -1 #SUP: 6
22 -1 153 -1 #SUP: 2
22 -1 154 -1 #SUP: 2
22 -1 160 -1 #SUP: 2
22 -1 182 -1 #SUP: 7
22 -1 194 -1 #SUP: 2
22 -1 200 -1 #SUP: 2
22 -1 207 -1 #SUP: 2
22 -1 208 -1 #SUP: 2
22 -1 214 -1 #SUP: 2
22 -1 250 -1 #SUP: 2
22 -1 337 -1 #SUP: 2
22 -1 340 -1 #SUP: 2
22 -1 417 -1 #SUP: 2
22 -1 454 -1 #SUP: 3
22 -1 463 -1 #SUP: 3
22 -1 557 -1 #SUP: 2
22 -1 827 -1 #SUP: 3
22 -1 868 -1 #SUP: 3
22 -1 1203 -1 #SUP: 2
22 -1 1312 -1 #SUP: 2
27 -1 3 -1 #SUP: 2
27 -1 22 -1 #SUP: 2
27 -1 113 -1 #SUP: 2
29 -1 33 -1 #SUP: 2
29 -1 273 -1 #SUP: 2
29 -1 364 -1 #SUP: 2
31 -1 22 -1 #SUP: 3
31 -1 182 -1 #SUP: 3
31 -1 189 -1 #SUP: 2
31 -1 250 -1 #SUP: 2
31 -1 340 -1 #SUP: 2
32 -1 2 -1 #SUP: 4
32 -1 3 -1 #SUP: 4
32 -1 22 -1 #SUP: 2
32 -1 32 -1 #SUP: 2
32 -1 64 -1 #SUP: 2
32 -1 65 -1 #SUP: 2
32 -1 66 -1 #SUP: 2
32 -1 76 -1 #SUP: 6
32 -1 113 -1 #SUP: 2
32 -1 115 -1 #SUP: 3
32 -1 131 -1 #SUP: 2
32 -1 151 -1 #SUP: 2
32 -1 165 -1 #SUP: 2
32 -1 182 -1 #SUP: 2
32 -1 200 -1 #SUP: 2
32 -1 408 -1 #SUP: 2
32 -1 484 -1 #SUP: 2
32 -1 1749 -1 #SUP: 2
33 -1 2 -1 #SUP: 2
33 -1 22 -1 #SUP: 3
33 -1 32 -1 #SUP: 2
33 -1 76 -1 #SUP: 2
41 -1 2 -1 #SUP: 2
41 -1 3 -1 #SUP: 2
41 -1 22 -1 #SUP: 2
41 -1 41 -1 #SUP: 2
41 -1 64 -1 #SUP: 3
41 -1 65 -1 #SUP: 2
41 -1 66 -1 #SUP: 2
41 -1 76 -1 #SUP: 3
41 -1 77 -1 #SUP: 2
41 -1 141 -1 #SUP: 4
41 -1 151 -1 #SUP: 2
41 -1 182 -1 #SUP: 6
41 -1 224 -1 #SUP: 2
41 -1 250 -1 #SUP: 2
41 -1 364 -1 #SUP: 2
41 -1 557 -1 #SUP: 2
41 -1 613 -1 #SUP: 3
41 -1 686 -1 #SUP: 2
41 -1 1621 -1 #SUP: 2
41 -1 1959 -1 #SUP: 2
50 -1 2 -1 #SUP: 3
50 -1 3 -1 #SUP: 3
50 -1 48 -1 #SUP: 2
50 -1 65 -1 #SUP: 2
50 -1 76 -1 #SUP: 2
50 -1 827 -1 #SUP: 3
50 -1 1666 -1 #SUP: 2
54 -1 64 -1 #SUP: 2
54 -1 76 -1 #SUP: 2
54 -1 256 -1 #SUP: 2
64 -1 2 -1 #SUP: 6
64 -1 3 -1 #SUP: 5
64 -1 7 -1 #SUP: 4
64 -1 22 -1 #SUP: 8
64 -1 31 -1 #SUP: 2
64 -1 32 -1 #SUP: 2
64 -1 50 -1 #SUP: 2
64 -1 64 -1 #SUP: 3
64 -1 65 -1 #SUP: 4
64 -1 66 -1 #SUP: 2
64 -1 76 -1 #SUP: 9
64 -1 81 -1 #SUP: 2
64 -1 113 -1 #SUP: 6
64 -1 115 -1 #SUP: 2
64 -1 131 -1 #SUP: 2
64 -1 141 -1 #SUP: 2
64 -1 151 -1 #SUP: 2
64 -1 153 -1 #SUP: 4
64 -1 158 -1 #SUP: 2
64 -1 182 -1 #SUP: 4
64 -1 187 -1 #SUP: 2
64 -1 194 -1 #SUP: 3
64 -1 221 -1 #SUP: 2
64 -1 256 -1 #SUP: 3
64 -1 278 -1 #SUP: 3
64 -1 364 -1 #SUP: 2
64 -1 484 -1 #SUP: 2
64 -1 510 -1 #SUP: 2
64 -1 644 -1 #SUP: 3
64 -1 1017 -1 #SUP: 2
64 -1 1100 -1 #SUP: 2
65 -1 2 -1 #SUP: 10
65 -1 3 -1 #SUP: 2
65 -1 7 -1 #SUP: 2
65 -1 11 -1 #SUP: 2
65 -1 16 -1 #SUP: 2
65 -1 22 -1 #SUP: 3
65 -1 32 -1 #SUP: 5
65 -1 41 -1 #SUP: 2
65 -1 46 -1 #SUP: 2
65 -1 48 -1 #SUP: 2
65 -1 54 -1 #SUP: 2
65 -1 64 -1 #SUP: 11
65 -1 65 -1 #SUP: 6
65 -1 76 -1 #SUP: 15
65 -1 113 -1 #SUP: 6
65 -1 115 -1 #SUP: 3
65 -1 163 -1 #SUP: 2
65 -1 182 -1 #SUP: 3
65 -1 185 -1 #SUP: 4
65 -1 187 -1 #SUP: 2
65 -1 213 -1 #SUP: 2
65 -1 216 -1 #SUP: 4
65 -1 221 -1 #SUP: 2
65 -1 224 -1 #SUP: 2
65 -1 256 -1 #SUP: 3
65 -1 340 -1 #SUP: 2
65 -1 375 -1 #SUP: 2
65 -1 420 -1 #SUP: 3
65 -1 463 -1 #SUP: 2
65 -1 484 -1 #SUP: 5
65 -1 527 -1 #SUP: 2
65 -1 557 -1 #SUP: 2
65 -1 827 -1 #SUP: 6
65 -1 1100 -1 #SUP: 4
66 -1 7 -1 #SUP: 2
66 -1 22 -1 #SUP: 2
69 -1 2 -1 #SUP: 2
69 -1 64 -1 #SUP: 3
69 -1 76 -1 #SUP: 6
69 -1 113 -1 #SUP: 2
69 -1 557 -1 #SUP: 2
72 -1 113 -1 #SUP: 2
72 -1 151 -1 #SUP: 3
76 -1 2 -1 #SUP: 18
76 -1 3 -1 #SUP: 17
76 -1 7 -1 #SUP: 4
76 -1 10 -1 #SUP: 7
76 -1 13 -1 #SUP: 2
76 -1 15 -1 #SUP: 2
76 -1 16 -1 #SUP: 3
76 -1 22 -1 #SUP: 16
76 -1 29 -1 #SUP: 3
76 -1 31 -1 #SUP: 4
76 -1 32 -1 #SUP: 7
76 -1 33 -1 #SUP: 6
76 -1 41 -1 #SUP: 5
76 -1 50 -1 #SUP: 5
76 -1 54 -1 #SUP: 2
76 -1 64 -1 #SUP: 12
76 -1 65 -1 #SUP: 10
76 -1 66 -1 #SUP: 2
76 -1 69 -1 #SUP: 2
76 -1 72 -1 #SUP: 2
76 -1 75 -1 #SUP: 2
76 -1 76 -1 #SUP: 20
76 -1 77 -1 #SUP: 2
76 -1 81 -1 #SUP: 3
76 -1 113 -1 #SUP: 17
76 -1 115 -1 #SUP: 2
76 -1 118 -1 #SUP: 2
76 -1 131 -1 #SUP: 4
76 -1 141 -1 #SUP: 8
76 -1 149 -1 #SUP: 3
76 -1 151 -1 #SUP: 5
76 -1 153 -1 #SUP: 2
76 -1 154 -1 #SUP: 2
76 -1 158 -1 #SUP: 2
76 -1 160 -1 #SUP: 3
76 -1 163 -1 #SUP: 2
76 -1 168 -1 #SUP: 2
76 -1 169 -1 #SUP: 2
76 -1 182 -1 #SUP: 11
76 -1 185 -1 #SUP: 2
76 -1 194 -1 #SUP: 5
76 -1 195 -1 #SUP: 3
76 -1 200 -1 #SUP: 6
76 -1 208 -1 #SUP: 4
76 -1 213 -1 #SUP: 2
76 -1 221 -1 #SUP: 3
76 -1 224 -1 #SUP: 2
76 -1 225 -1 #SUP: 3
76 -1 232 -1 #SUP: 2
76 -1 234 -1 #SUP: 2
76 -1 236 -1 #SUP: 2
76 -1 242 -1 #SUP: 2
76 -1 248 -1 #SUP: 2
76 -1 250 -1 #SUP: 2
76 -1 256 -1 #SUP: 3
76 -1 262 -1 #SUP: 3
76 -1 272 -1 #SUP: 2
76 -1 273 -1 #SUP: 3
76 -1 340 -1 #SUP: 4
76 -1 342 -1 #SUP: 6
76 -1 356 -1 #SUP: 2
76 -1 364 -1 #SUP: 3
76 -1 372 -1 #SUP: 2
76 -1 375 -1 #SUP: 2
76 -1 394 -1 #SUP: 2
76 -1 408 -1 #SUP: 2
76 -1 417 -1 #SUP: 4
76 -1 420 -1 #SUP: 3
76 -1 463 -1 #SUP: 5
76 -1 481 -1 #SUP: 2
76 -1 484 -1 #SUP: 5
76 -1 493 -1 #SUP: 2
76 -1 497 -1 #SUP: 3
76 -1 504 -1 #SUP: 2
76 -1 506 -1 #SUP: 2
76 -1 557 -1 #SUP: 15
76 -1 571 -1 #SUP: 2
76 -1 587 -1 #SUP: 2
76 -1 601 -1 #SUP: 2
76 -1 613 -1 #SUP: 3
76 -1 635 -1 #SUP: 3
76 -1 644 -1 #SUP: 3
76 -1 654 -1 #SUP: 2
76 -1 675 -1 #SUP: 2
76 -1 686 -1 #SUP: 5
76 -1 827 -1 #SUP: 6
76 -1 836 -1 #SUP: 3
76 -1 868 -1 #SUP: 2
76 -1 892 -1 #SUP: 2
76 -1 1068 -1 #SUP: 2
76 -1 1100 -1 #SUP: 2
76 -1 1225 -1 #SUP: 2
76 -1 1287 -1 #SUP: 2
76 -1 1418 -1 #SUP: 3
76 -1 1534 -1 #SUP: 2
76 -1 1615 -1 #SUP: 3
76 -1 1635 -1 #SUP: 2
76 -1 1730 -1 #SUP: 2
76 -1 2050 -1 #SUP: 4
77 -1 41 -1 #SUP: 2
77 -1 182 -1 #SUP: 3
113 -1 2 -1 #SUP: 7
113 -1 3 -1 #SUP: 12
113 -1 7 -1 #SUP: 4
113 -1 10 -1 #SUP: 2
113 -1 22 -1 #SUP: 10
113 -1 29 -1 #SUP: 2
113 -1 31 -1 #SUP: 4
113 -1 33 -1 #SUP: 2
113 -1 41 -1 #SUP: 2
113 -1 50 -1 #SUP: 3
113 -1 64 -1 #SUP: 10
113 -1 65 -1 #SUP: 9
113 -1 69 -1 #SUP: 4
113 -1 72 -1 #SUP: 2
113 -1 76 -1 #SUP: 19
113 -1 81 -1 #SUP: 2
113 -1 113 -1 #SUP: 11
113 -1 115 -1 #SUP: 3
113 -1 118 -1 #SUP: 5
113 -1 131 -1 #SUP: 2
113 -1 141 -1 #SUP: 5
113 -1 151 -1 #SUP: 8
113 -1 154 -1 #SUP: 3
113 -1 160 -1 #SUP: 3
113 -1 161 -1 #SUP: 2
113 -1 168 -1 #SUP: 3
113 -1 182 -1 #SUP: 5
113 -1 185 -1 #SUP: 5
113 -1 187 -1 #SUP: 2
113 -1 189 -1 #SUP: 2
113 -1 194 -1 #SUP: 9
113 -1 200 -1 #SUP: 3
113 -1 208 -1 #SUP: 3
113 -1 213 -1 #SUP: 3
113 -1 216 -1 #SUP: 2
113 -1 242 -1 #SUP: 2
113 -1 248 -1 #SUP: 4
113 -1 250 -1 #SUP: 2
113 -1 262 -1 #SUP: 2
113 -1 272 -1 #SUP: 2
113 -1 273 -1 #SUP: 2
113 -1 326 -1 #SUP: 5
113 -1 340 -1 #SUP: 4
113 -1 342 -1 #SUP: 4
113 -1 364 -1 #SUP: 3
113 -1 372 -1 #SUP: 2
113 -1 374 -1 #SUP: 2
113 -1 463 -1 #SUP: 2
113 -1 493 -1 #SUP: 2
113 -1 497 -1 #SUP: 4
113 -1 504 -1 #SUP: 2
113 -1 506 -1 #SUP: 2
113 -1 527 -1 #SUP: 2
113 -1 557 -1 #SUP: 8
113 -1 571 -1 #SUP: 3
113 -1 625 -1 #SUP: 2
113 -1 634 -1 #SUP: 2
113 -1 642 -1 #SUP: 2
113 -1 654 -1 #SUP: 2
113 -1 827 -1 #SUP: 2
113 -1 836 -1 #SUP: 2
113 -1 868 -1 #SUP: 2
113 -1 904 -1 #SUP: 2
113 -1 1418 -1 #SUP: 4
113 -1 1615 -1 #SUP: 3
113 -1 1730 -1 #SUP: 2
113 -1 2050 -1 #SUP: 2
113 -1 2726 -1 #SUP: 2
113 -1 3363 -1 #SUP: 3
115 -1 2 -1 #SUP: 2
115 -1 7 -1 #SUP: 2
115 -1 22 -1 #SUP: 4
115 -1 64 -1 #SUP: 2
115 -1 66 -1 #SUP: 4
115 -1 76 -1 #SUP: 3
115 -1 151 -1 #SUP: 2
115 -1 213 -1 #SUP: 2
118 -1 22 -1 #SUP: 2
118 -1 76 -1 #SUP: 3
118 -1 141 -1 #SUP: 2
118 -1 194 -1 #SUP: 2
118 -1 248 -1 #SUP: 2
131 -1 66 -1 #SUP: 2
131 -1 76 -1 #SUP: 2
131 -1 182 -1 #SUP: 2
131 -1 232 -1 #SUP: 2
131 -1 1312 -1 #SUP: 2
137 -1 151 -1 #SUP: 2
141 -1 2 -1 #SUP: 2
141 -1 22 -1 #SUP: 4
141 -1 41 -1 #SUP: 4
141 -1 42 -1 #SUP: 2
141 -1 66 -1 #SUP: 2
141 -1 76 -1 #SUP: 3
141 -1 113 -1 #SUP: 4
141 -1 141 -1 #SUP: 2
141 -1 158 -1 #SUP: 2
141 -1 182 -1 #SUP: 5
141 -1 200 -1 #SUP: 2
141 -1 337 -1 #SUP: 2
141 -1 454 -1 #SUP: 2
141 -1 484 -1 #SUP: 2
149 -1 76 -1 #SUP: 3
149 -1 113 -1 #SUP: 2
151 -1 2 -1 #SUP: 5
151 -1 3 -1 #SUP: 7
151 -1 7 -1 #SUP: 2
151 -1 22 -1 #SUP: 2
151 -1 31 -1 #SUP: 2
151 -1 32 -1 #SUP: 2
151 -1 64 -1 #SUP: 4
151 -1 65 -1 #SUP: 3
151 -1 76 -1 #SUP: 6
151 -1 113 -1 #SUP: 8
151 -1 131 -1 #SUP: 2
151 -1 141 -1 #SUP: 2
151 -1 182 -1 #SUP: 2
151 -1 189 -1 #SUP: 2
151 -1 262 -1 #SUP: 4
151 -1 342 -1 #SUP: 3
151 -1 463 -1 #SUP: 2
151 -1 557 -1 #SUP: 2
151 -1 1216 -1 #SUP: 2
153 -1 2 -1 #SUP: 2
154 -1 10 -1 #SUP: 2
154 -1 22 -1 #SUP: 2
154 -1 50 -1 #SUP: 2
154 -1 131 -1 #SUP: 2
154 -1 1312 -1 #SUP: 2
158 -1 10 -1 #SUP: 2
158 -1 22 -1 #SUP: 2
158 -1 76 -1 #SUP: 3
158 -1 113 -1 #SUP: 2
158 -1 182 -1 #SUP: 2
158 -1 342 -1 #SUP: 2
158 -1 1089 -1 #SUP: 2
160 -1 2 -1 #SUP: 3
160 -1 64 -1 #SUP: 2
160 -1 113 -1 #SUP: 2
160 -1 131 -1 #SUP: 2
160 -1 151 -1 #SUP: 3
161 -1 3 -1 #SUP: 2
161 -1 22 -1 #SUP: 2
163 -1 2 -1 #SUP: 2
163 -1 64 -1 #SUP: 2
163 -1 76 -1 #SUP: 2
163 -1 113 -1 #SUP: 2
165 -1 33 -1 #SUP: 2
165 -1 76 -1 #SUP: 3
168 -1 3 -1 #SUP: 2
179 -1 3 -1 #SUP: 2
179 -1 65 -1 #SUP: 2
179 -1 342 -1 #SUP: 3
182 -1 2 -1 #SUP: 4
182 -1 3 -1 #SUP: 9
182 -1 10 -1 #SUP: 4
182 -1 22 -1 #SUP: 2
182 -1 50 -1 #SUP: 2
182 -1 54 -1 #SUP: 2
182 -1 64 -1 #SUP: 3
182 -1 65 -1 #SUP: 2
182 -1 76 -1 #SUP: 8
182 -1 113 -1 #SUP: 2
182 -1 155 -1 #SUP: 2
182 -1 182 -1 #SUP: 2
182 -1 208 -1 #SUP: 2
182 -1 242 -1 #SUP: 3
182 -1 422 -1 #SUP: 2
182 -1 484 -1 #SUP: 3
182 -1 557 -1 #SUP: 2
182 -1 827 -1 #SUP: 2
182 -1 892 -1 #SUP: 2
182 -1 1089 -1 #SUP: 2
182 -1 2050 -1 #SUP: 2
185 -1 76 -1 #SUP: 2
185 -1 364 -1 #SUP: 3
189 -1 878 -1 #SUP: 2
194 -1 2 -1 #SUP: 2
194 -1 3 -1 #SUP: 7
194 -1 6 -1 #SUP: 2
194 -1 22 -1 #SUP: 2
194 -1 32 -1 #SUP: 2
194 -1 64 -1 #SUP: 2
194 -1 65 -1 #SUP: 2
194 -1 69 -1 #SUP: 2
194 -1 76 -1 #SUP: 6
194 -1 113 -1 #SUP: 5
194 -1 137 -1 #SUP: 2
194 -1 151 -1 #SUP: 3
194 -1 182 -1 #SUP: 2
194 -1 248 -1 #SUP: 3
194 -1 654 -1 #SUP: 2
194 -1 827 -1 #SUP: 2
194 -1 3363 -1 #SUP: 2
195 -1 76 -1 #SUP: 2
200 -1 3 -1 #SUP: 3
200 -1 76 -1 #SUP: 3
200 -1 278 -1 #SUP: 2
200 -1 463 -1 #SUP: 2
208 -1 2 -1 #SUP: 2
208 -1 3 -1 #SUP: 2
208 -1 22 -1 #SUP: 2
208 -1 64 -1 #SUP: 2
208 -1 65 -1 #SUP: 2
208 -1 75 -1 #SUP: 2
208 -1 151 -1 #SUP: 2
211 -1 149 -1 #SUP: 2
213 -1 76 -1 #SUP: 4
213 -1 182 -1 #SUP: 3
213 -1 1367 -1 #SUP: 2
214 -1 3 -1 #SUP: 2
216 -1 76 -1 #SUP: 3
216 -1 113 -1 #SUP: 2
216 -1 557 -1 #SUP: 2
221 -1 76 -1 #SUP: 2
221 -1 182 -1 #SUP: 2
224 -1 3 -1 #SUP: 3
224 -1 22 -1 #SUP: 2
224 -1 41 -1 #SUP: 2
224 -1 76 -1 #SUP: 4
224 -1 131 -1 #SUP: 3
224 -1 141 -1 #SUP: 2
224 -1 182 -1 #SUP: 3
224 -1 2657 -1 #SUP: 2
225 -1 65 -1 #SUP: 2
225 -1 76 -1 #SUP: 2
234 -1 3 -1 #SUP: 2
234 -1 41 -1 #SUP: 3
234 -1 76 -1 #SUP: 3
236 -1 2 -1 #SUP: 2
236 -1 65 -1 #SUP: 2
236 -1 76 -1 #SUP: 3
242 -1 2 -1 #SUP: 2
242 -1 3 -1 #SUP: 2
242 -1 113 -1 #SUP: 2
248 -1 2 -1 #SUP: 2
248 -1 22 -1 #SUP: 2
248 -1 76 -1 #SUP: 2
250 -1 3 -1 #SUP: 3
250 -1 22 -1 #SUP: 3
250 -1 64 -1 #SUP: 2
250 -1 76 -1 #SUP: 2
250 -1 251 -1 #SUP: 2
250 -1 2222 -1 #SUP: 2
256 -1 2 -1 #SUP: 3
256 -1 41 -1 #SUP: 2
256 -1 64 -1 #SUP: 2
256 -1 76 -1 #SUP: 3
256 -1 182 -1 #SUP: 2
256 -1 484 -1 #SUP: 2
256 -1 644 -1 #SUP: 2
262 -1 22 -1 #SUP: 2
262 -1 182 -1 #SUP: 2
272 -1 3 -1 #SUP: 2
272 -1 22 -1 #SUP: 2
272 -1 686 -1 #SUP: 2
272 -1 1621 -1 #SUP: 3
273 -1 64 -1 #SUP: 2
273 -1 141 -1 #SUP: 3
273 -1 182 -1 #SUP: 3
273 -1 364 -1 #SUP: 2
278 -1 2 -1 #SUP: 3
296 -1 64 -1 #SUP: 2
296 -1 179 -1 #SUP: 2
326 -1 3 -1 #SUP: 2
326 -1 7 -1 #SUP: 2
326 -1 76 -1 #SUP: 4
326 -1 113 -1 #SUP: 3
326 -1 141 -1 #SUP: 2
326 -1 182 -1 #SUP: 4
326 -1 557 -1 #SUP: 2
339 -1 113 -1 #SUP: 2
340 -1 22 -1 #SUP: 3
340 -1 64 -1 #SUP: 5
340 -1 65 -1 #SUP: 2
340 -1 76 -1 #SUP: 3
340 -1 113 -1 #SUP: 2
340 -1 131 -1 #SUP: 2
340 -1 185 -1 #SUP: 2
340 -1 372 -1 #SUP: 2
342 -1 2 -1 #SUP: 2
342 -1 16 -1 #SUP: 3
342 -1 22 -1 #SUP: 3
342 -1 33 -1 #SUP: 2
342 -1 64 -1 #SUP: 2
342 -1 65 -1 #SUP: 6
342 -1 76 -1 #SUP: 4
342 -1 113 -1 #SUP: 3
342 -1 185 -1 #SUP: 2
342 -1 827 -1 #SUP: 3
356 -1 262 -1 #SUP: 2
364 -1 32 -1 #SUP: 2
364 -1 65 -1 #SUP: 2
364 -1 76 -1 #SUP: 2
364 -1 256 -1 #SUP: 3
364 -1 484 -1 #SUP: 2
374 -1 2 -1 #SUP: 3
375 -1 3 -1 #SUP: 2
394 -1 2 -1 #SUP: 2
406 -1 2 -1 #SUP: 2
406 -1 76 -1 #SUP: 2
406 -1 113 -1 #SUP: 2
417 -1 2 -1 #SUP: 3
417 -1 7 -1 #SUP: 2
417 -1 64 -1 #SUP: 3
417 -1 65 -1 #SUP: 3
417 -1 76 -1 #SUP: 2
417 -1 153 -1 #SUP: 2
417 -1 256 -1 #SUP: 2
417 -1 644 -1 #SUP: 3
417 -1 1100 -1 #SUP: 2
417 -1 1615 -1 #SUP: 2
417 -1 2460 -1 #SUP: 2
420 -1 76 -1 #SUP: 2
422 -1 76 -1 #SUP: 2
424 -1 76 -1 #SUP: 3
454 -1 337 -1 #SUP: 2
463 -1 2 -1 #SUP: 2
463 -1 31 -1 #SUP: 2
463 -1 64 -1 #SUP: 5
483 -1 113 -1 #SUP: 2
483 -1 268 -1 #SUP: 2
484 -1 3 -1 #SUP: 2
484 -1 32 -1 #SUP: 2
484 -1 41 -1 #SUP: 2
484 -1 64 -1 #SUP: 2
484 -1 65 -1 #SUP: 2
484 -1 76 -1 #SUP: 3
484 -1 182 -1 #SUP: 4
484 -1 340 -1 #SUP: 2
493 -1 2 -1 #SUP: 3
493 -1 3 -1 #SUP: 2
493 -1 32 -1 #SUP: 2
493 -1 65 -1 #SUP: 3
493 -1 76 -1 #SUP: 8
493 -1 113 -1 #SUP: 3
493 -1 160 -1 #SUP: 2
493 -1 200 -1 #SUP: 3
493 -1 417 -1 #SUP: 2
493 -1 1225 -1 #SUP: 2
497 -1 3 -1 #SUP: 2
497 -1 113 -1 #SUP: 2
497 -1 375 -1 #SUP: 2
504 -1 2 -1 #SUP: 2
504 -1 22 -1 #SUP: 2
504 -1 76 -1 #SUP: 2
504 -1 182 -1 #SUP: 2
506 -1 65 -1 #SUP: 2
506 -1 76 -1 #SUP: 2
506 -1 151 -1 #SUP: 2
506 -1 225 -1 #SUP: 3
506 -1 342 -1 #SUP: 2
527 -1 113 -1 #SUP: 2
557 -1 2 -1 #SUP: 6
557 -1 3 -1 #SUP: 8
557 -1 10 -1 #SUP: 2
557 -1 22 -1 #SUP: 4
557 -1 32 -1 #SUP: 2
557 -1 41 -1 #SUP: 3
557 -1 64 -1 #SUP: 5
557 -1 65 -1 #SUP: 4
557 -1 76 -1 #SUP: 8
557 -1 113 -1 #SUP: 8
557 -1 141 -1 #SUP: 5
557 -1 168 -1 #SUP: 2
557 -1 182 -1 #SUP: 3
557 -1 194 -1 #SUP: 3
557 -1 200 -1 #SUP: 2
557 -1 232 -1 #SUP: 2
557 -1 250 -1 #SUP: 2
557 -1 675 -1 #SUP: 2
557 -1 686 -1 #SUP: 3
557 -1 1100 -1 #SUP: 2
557 -1 1101 -1 #SUP: 2
557 -1 1534 -1 #SUP: 2
557 -1 1615 -1 #SUP: 2
557 -1 1635 -1 #SUP: 2
571 -1 2 -1 #SUP: 2
571 -1 29 -1 #SUP: 2
571 -1 33 -1 #SUP: 2
571 -1 76 -1 #SUP: 2
571 -1 1418 -1 #SUP: 2
587 -1 22 -1 #SUP: 3
587 -1 827 -1 #SUP: 2
600 -1 76 -1 #SUP: 2
613 -1 182 -1 #SUP: 2
613 -1 892 -1 #SUP: 2
625 -1 76 -1 #SUP: 2
634 -1 187 -1 #SUP: 2
642 -1 76 -1 #SUP: 2
642 -1 182 -1 #SUP: 2
644 -1 2 -1 #SUP: 4
644 -1 65 -1 #SUP: 2
644 -1 153 -1 #SUP: 3
644 -1 1100 -1 #SUP: 2
654 -1 141 -1 #SUP: 2
686 -1 22 -1 #SUP: 3
686 -1 65 -1 #SUP: 2
686 -1 141 -1 #SUP: 2
686 -1 337 -1 #SUP: 2
686 -1 454 -1 #SUP: 2
686 -1 1193 -1 #SUP: 2
711 -1 64 -1 #SUP: 2
814 -1 22 -1 #SUP: 2
827 -1 2 -1 #SUP: 3
827 -1 3 -1 #SUP: 3
827 -1 22 -1 #SUP: 2
827 -1 76 -1 #SUP: 3
827 -1 151 -1 #SUP: 3
827 -1 262 -1 #SUP: 2
827 -1 356 -1 #SUP: 2
836 -1 64 -1 #SUP: 2
860 -1 64 -1 #SUP: 2
860 -1 296 -1 #SUP: 2
860 -1 342 -1 #SUP: 2
871 -1 76 -1 #SUP: 2
892 -1 76 -1 #SUP: 2
1088 -1 113 -1 #SUP: 2
1092 -1 76 -1 #SUP: 2
1100 -1 2 -1 #SUP: 4
1100 -1 64 -1 #SUP: 2
1101 -1 22 -1 #SUP: 2
1101 -1 33 -1 #SUP: 2
1101 -1 64 -1 #SUP: 2
1101 -1 65 -1 #SUP: 3
1101 -1 76 -1 #SUP: 8
1101 -1 113 -1 #SUP: 2
1101 -1 236 -1 #SUP: 2
1101 -1 635 -1 #SUP: 2
1101 -1 1615 -1 #SUP: 2
1139 -1 22 -1 #SUP: 2
1139 -1 31 -1 #SUP: 2
1203 -1 76 -1 #SUP: 2
1216 -1 113 -1 #SUP: 2
1225 -1 160 -1 #SUP: 2
1367 -1 131 -1 #SUP: 2
1367 -1 182 -1 #SUP: 2
1418 -1 2 -1 #SUP: 2
1418 -1 364 -1 #SUP: 2
1418 -1 374 -1 #SUP: 2
1562 -1 154 -1 #SUP: 2
1615 -1 2 -1 #SUP: 2
1615 -1 64 -1 #SUP: 5
1615 -1 65 -1 #SUP: 2
1615 -1 76 -1 #SUP: 2
1615 -1 510 -1 #SUP: 2
1615 -1 1100 -1 #SUP: 2
1621 -1 686 -1 #SUP: 2
1666 -1 48 -1 #SUP: 2
1666 -1 65 -1 #SUP: 2
1959 -1 3 -1 #SUP: 2
1959 -1 76 -1 #SUP: 2
2050 -1 3 -1 #SUP: 4
2050 -1 22 -1 #SUP: 2
2050 -1 65 -1 #SUP: 2
2050 -1 76 -1 #SUP: 4
2050 -1 113 -1 #SUP: 2
2050 -1 216 -1 #SUP: 2
2050 -1 557 -1 #SUP: 4
2997 -1 189 -1 #SUP: 2
2997 -1 878 -1 #SUP: 2
3719 -1 76 -1 #SUP: 2
4482 -1 64 -1 #SUP: 3
4482 -1 76 -1 #SUP: 3
10912 -1 153 -1 #SUP: 2
10912 -1 644 -1 #SUP: 2
2 -1 3 -1 76 -1 #SUP: 2
2 -1 22 -1 31 -1 #SUP: 2
2 -1 50 -1 3 -1 #SUP: 2
2 -1 64 -1 22 -1 #SUP: 2
2 -1 64 -1 115 -1 #SUP: 2
2 -1 65 -1 827 -1 #SUP: 2
2 -1 113 -1 3 -1 #SUP: 3
2 -1 113 -1 22 -1 #SUP: 2
2 -1 113 -1 64 -1 #SUP: 2
2 -1 113 -1 76 -1 #SUP: 3
2 -1 113 -1 118 -1 #SUP: 3
2 -1 113 -1 141 -1 #SUP: 2
2 -1 113 -1 151 -1 #SUP: 3
2 -1 113 -1 272 -1 #SUP: 2
2 -1 115 -1 22 -1 #SUP: 2
2 -1 141 -1 182 -1 #SUP: 2
2 -1 141 -1 484 -1 #SUP: 2
2 -1 151 -1 113 -1 #SUP: 2
2 -1 160 -1 151 -1 #SUP: 2
2 -1 182 -1 76 -1 #SUP: 2
2 -1 182 -1 484 -1 #SUP: 2
2 -1 213 -1 76 -1 #SUP: 2
2 -1 213 -1 182 -1 #SUP: 2
2 -1 213 -1 1367 -1 #SUP: 2
2 -1 272 -1 3 -1 #SUP: 2
2 -1 273 -1 182 -1 #SUP: 2
2 -1 326 -1 182 -1 #SUP: 2
2 -1 463 -1 64 -1 #SUP: 2
2 -1 814 -1 22 -1 #SUP: 2
2 -1 1367 -1 182 -1 #SUP: 2
3 -1 2 -1 7 -1 #SUP: 2
3 -1 10 -1 76 -1 #SUP: 2
3 -1 11 -1 76 -1 #SUP: 2
3 -1 22 -1 32 -1 #SUP: 2
3 -1 22 -1 151 -1 #SUP: 2
3 -1 22 -1 868 -1 #SUP: 2
3 -1 32 -1 76 -1 #SUP: 2
3 -1 32 -1 1749 -1 #SUP: 2
3 -1 64 -1 22 -1 #SUP: 3
3 -1 64 -1 76 -1 #SUP: 2
3 -1 65 -1 2 -1 #SUP: 4
3 -1 65 -1 32 -1 #SUP: 2
3 -1 65 -1 64 -1 #SUP: 2
3 -1 65 -1 76 -1 #SUP: 4
3 -1 65 -1 113 -1 #SUP: 3
3 -1 65 -1 484 -1 #SUP: 2
3 -1 65 -1 527 -1 #SUP: 2
3 -1 65 -1 1100 -1 #SUP: 2
3 -1 76 -1 22 -1 #SUP: 2
3 -1 76 -1 76 -1 #SUP: 3
3 -1 76 -1 113 -1 #SUP: 3
3 -1 76 -1 182 -1 #SUP: 2
3 -1 76 -1 557 -1 #SUP: 2
3 -1 113 -1 7 -1 #SUP: 2
3 -1 113 -1 76 -1 #SUP: 2
3 -1 115 -1 22 -1 #SUP: 2
3 -1 115 -1 64 -1 #SUP: 2
3 -1 115 -1 76 -1 #SUP: 2
3 -1 200 -1 278 -1 #SUP: 2
3 -1 557 -1 76 -1 #SUP: 2
3 -1 557 -1 113 -1 #SUP: 2
3 -1 1100 -1 2 -1 #SUP: 2
7 -1 64 -1 64 -1 #SUP: 2
7 -1 64 -1 1017 -1 #SUP: 2
7 -1 65 -1 76 -1 #SUP: 2
7 -1 76 -1 2 -1 #SUP: 2
7 -1 182 -1 3 -1 #SUP: 2
7 -1 182 -1 76 -1 #SUP: 2
10 -1 77 -1 41 -1 #SUP: 2
11 -1 76 -1 64 -1 #SUP: 2
11 -1 76 -1 141 -1 #SUP: 2
16 -1 2 -1 113 -1 #SUP: 2
16 -1 22 -1 2 -1 #SUP: 2
16 -1 22 -1 76 -1 #SUP: 2
16 -1 76 -1 2 -1 #SUP: 3
16 -1 76 -1 113 -1 #SUP: 2
16 -1 113 -1 185 -1 #SUP: 2
16 -1 113 -1 364 -1 #SUP: 2
16 -1 185 -1 364 -1 #SUP: 2
22 -1 3 -1 65 -1 #SUP: 2
22 -1 3 -1 76 -1 #SUP: 2
22 -1 32 -1 76 -1 #SUP: 2
22 -1 69 -1 76 -1 #SUP: 2
22 -1 76 -1 2 -1 #SUP: 2
22 -1 76 -1 557 -1 #SUP: 2
22 -1 113 -1 3 -1 #SUP: 3
22 -1 113 -1 194 -1 #SUP: 2
22 -1 113 -1 208 -1 #SUP: 2
22 -1 194 -1 3 -1 #SUP: 2
22 -1 454 -1 337 -1 #SUP: 2
22 -1 827 -1 151 -1 #SUP: 2
29 -1 273 -1 364 -1 #SUP: 2
32 -1 2 -1 113 -1 #SUP: 2
32 -1 2 -1 115 -1 #SUP: 2
32 -1 76 -1 2 -1 #SUP: 2
32 -1 165 -1 76 -1 #SUP: 2
41 -1 65 -1 64 -1 #SUP: 2
41 -1 141 -1 66 -1 #SUP: 2
41 -1 141 -1 182 -1 #SUP: 3
41 -1 557 -1 182 -1 #SUP: 2
41 -1 613 -1 182 -1 #SUP: 2
41 -1 1621 -1 686 -1 #SUP: 2
41 -1 1959 -1 76 -1 #SUP: 2
50 -1 65 -1 48 -1 #SUP: 2
50 -1 827 -1 2 -1 #SUP: 2
50 -1 1666 -1 48 -1 #SUP: 2
50 -1 1666 -1 65 -1 #SUP: 2
54 -1 76 -1 256 -1 #SUP: 2
64 -1 3 -1 76 -1 #SUP: 2
64 -1 7 -1 64 -1 #SUP: 2
64 -1 22 -1 76 -1 #SUP: 2
64 -1 32 -1 76 -1 #SUP: 2
64 -1 64 -1 64 -1 #SUP: 2
64 -1 64 -1 81 -1 #SUP: 2
64 -1 64 -1 1017 -1 #SUP: 2
64 -1 65 -1 2 -1 #SUP: 2
64 -1 65 -1 1100 -1 #SUP: 2
64 -1 76 -1 2 -1 #SUP: 3
64 -1 76 -1 7 -1 #SUP: 2
64 -1 76 -1 113 -1 #SUP: 2
64 -1 76 -1 182 -1 #SUP: 2
64 -1 76 -1 484 -1 #SUP: 2
64 -1 141 -1 76 -1 #SUP: 2
64 -1 153 -1 2 -1 #SUP: 2
64 -1 644 -1 2 -1 #SUP: 2
64 -1 644 -1 153 -1 #SUP: 3
64 -1 1100 -1 2 -1 #SUP: 2
65 -1 2 -1 22 -1 #SUP: 2
65 -1 2 -1 41 -1 #SUP: 2
65 -1 2 -1 64 -1 #SUP: 2
65 -1 2 -1 65 -1 #SUP: 3
65 -1 2 -1 113 -1 #SUP: 2
65 -1 11 -1 76 -1 #SUP: 2
65 -1 32 -1 2 -1 #SUP: 2
65 -1 32 -1 76 -1 #SUP: 2
65 -1 54 -1 76 -1 #SUP: 2
65 -1 64 -1 2 -1 #SUP: 3
65 -1 64 -1 76 -1 #SUP: 3
65 -1 64 -1 113 -1 #SUP: 2
65 -1 65 -1 76 -1 #SUP: 3
65 -1 76 -1 2 -1 #SUP: 4
65 -1 76 -1 3 -1 #SUP: 2
65 -1 76 -1 22 -1 #SUP: 2
65 -1 76 -1 41 -1 #SUP: 2
65 -1 76 -1 64 -1 #SUP: 3
65 -1 76 -1 76 -1 #SUP: 3
65 -1 76 -1 113 -1 #SUP: 2
65 -1 76 -1 182 -1 #SUP: 3
65 -1 76 -1 256 -1 #SUP: 2
65 -1 76 -1 375 -1 #SUP: 2
65 -1 76 -1 463 -1 #SUP: 2
65 -1 76 -1 484 -1 #SUP: 4
65 -1 76 -1 557 -1 #SUP: 2
65 -1 163 -1 64 -1 #SUP: 2
65 -1 185 -1 76 -1 #SUP: 2
65 -1 216 -1 76 -1 #SUP: 3
65 -1 216 -1 113 -1 #SUP: 2
65 -1 216 -1 557 -1 #SUP: 2
65 -1 340 -1 64 -1 #SUP: 2
65 -1 484 -1 64 -1 #SUP: 2
65 -1 484 -1 182 -1 #SUP: 3
65 -1 827 -1 22 -1 #SUP: 2
65 -1 827 -1 76 -1 #SUP: 3
65 -1 1100 -1 2 -1 #SUP: 4
65 -1 1100 -1 64 -1 #SUP: 2
69 -1 76 -1 2 -1 #SUP: 2
69 -1 76 -1 113 -1 #SUP: 2
69 -1 76 -1 557 -1 #SUP: 2
76 -1 2 -1 2 -1 #SUP: 2
76 -1 2 -1 22 -1 #SUP: 5
76 -1 2 -1 32 -1 #SUP: 2
76 -1 2 -1 41 -1 #SUP: 3
76 -1 2 -1 50 -1 #SUP: 2
76 -1 2 -1 64 -1 #SUP: 3
76 -1 2 -1 65 -1 #SUP: 2
76 -1 2 -1 76 -1 #SUP: 3
76 -1 2 -1 81 -1 #SUP: 2
76 -1 2 -1 113 -1 #SUP: 7
76 -1 2 -1 118 -1 #SUP: 2
76 -1 2 -1 141 -1 #SUP: 2
76 -1 2 -1 151 -1 #SUP: 2
76 -1 2 -1 163 -1 #SUP: 2
76 -1 2 -1 208 -1 #SUP: 2
76 -1 2 -1 342 -1 #SUP: 3
76 -1 2 -1 364 -1 #SUP: 2
76 -1 2 -1 827 -1 #SUP: 2
76 -1 3 -1 2 -1 #SUP: 2
76 -1 3 -1 41 -1 #SUP: 2
76 -1 3 -1 64 -1 #SUP: 3
76 -1 3 -1 65 -1 #SUP: 3
76 -1 3 -1 76 -1 #SUP: 3
76 -1 3 -1 200 -1 #SUP: 3
76 -1 3 -1 463 -1 #SUP: 2
76 -1 7 -1 76 -1 #SUP: 2
76 -1 10 -1 76 -1 #SUP: 2
76 -1 10 -1 1635 -1 #SUP: 2
76 -1 22 -1 2 -1 #SUP: 2
76 -1 22 -1 3 -1 #SUP: 2
76 -1 22 -1 50 -1 #SUP: 2
76 -1 22 -1 76 -1 #SUP: 2
76 -1 22 -1 113 -1 #SUP: 2
76 -1 22 -1 154 -1 #SUP: 2
76 -1 22 -1 868 -1 #SUP: 2
76 -1 31 -1 22 -1 #SUP: 2
76 -1 31 -1 182 -1 #SUP: 2
76 -1 32 -1 2 -1 #SUP: 2
76 -1 32 -1 3 -1 #SUP: 3
76 -1 32 -1 66 -1 #SUP: 2
76 -1 32 -1 131 -1 #SUP: 2
76 -1 33 -1 22 -1 #SUP: 2
76 -1 33 -1 32 -1 #SUP: 2
76 -1 33 -1 76 -1 #SUP: 2
76 -1 41 -1 613 -1 #SUP: 2
76 -1 50 -1 2 -1 #SUP: 2
76 -1 50 -1 3 -1 #SUP: 2
76 -1 50 -1 827 -1 #SUP: 3
76 -1 54 -1 76 -1 #SUP: 2
76 -1 64 -1 7 -1 #SUP: 2
76 -1 64 -1 64 -1 #SUP: 2
76 -1 64 -1 76 -1 #SUP: 3
76 -1 64 -1 81 -1 #SUP: 2
76 -1 64 -1 141 -1 #SUP: 2
76 -1 65 -1 2 -1 #SUP: 2
76 -1 65 -1 54 -1 #SUP: 2
76 -1 65 -1 64 -1 #SUP: 3
76 -1 65 -1 65 -1 #SUP: 3
76 -1 65 -1 76 -1 #SUP: 3
76 -1 65 -1 420 -1 #SUP: 2
76 -1 65 -1 827 -1 #SUP: 3
76 -1 65 -1 1100 -1 #SUP: 2
76 -1 76 -1 2 -1 #SUP: 7
76 -1 76 -1 3 -1 #SUP: 4
76 -1 76 -1 22 -1 #SUP: 3
76 -1 76 -1 32 -1 #SUP: 2
76 -1 76 -1 41 -1 #SUP: 2
76 -1 76 -1 113 -1 #SUP: 6
76 -1 76 -1 182 -1 #SUP: 2
76 -1 76 -1 497 -1 #SUP: 2
76 -1 76 -1 557 -1 #SUP: 4
76 -1 113 -1 2 -1 #SUP: 2
76 -1 113 -1 3 -1 #SUP: 2
76 -1 113 -1 29 -1 #SUP: 2
76 -1 113 -1 33 -1 #SUP: 2
76 -1 113 -1 64 -1 #SUP: 3
76 -1 113 -1 65 -1 #SUP: 2
76 -1 113 -1 76 -1 #SUP: 6
76 -1 113 -1 81 -1 #SUP: 2
76 -1 113 -1 113 -1 #SUP: 3
76 -1 113 -1 118 -1 #SUP: 2
76 -1 113 -1 141 -1 #SUP: 3
76 -1 113 -1 151 -1 #SUP: 4
76 -1 113 -1 185 -1 #SUP: 2
76 -1 113 -1 194 -1 #SUP: 3
76 -1 113 -1 340 -1 #SUP: 2
76 -1 113 -1 342 -1 #SUP: 2
76 -1 113 -1 364 -1 #SUP: 2
76 -1 113 -1 497 -1 #SUP: 2
76 -1 113 -1 557 -1 #SUP: 3
76 -1 113 -1 571 -1 #SUP: 2
76 -1 113 -1 654 -1 #SUP: 2
76 -1 113 -1 1418 -1 #SUP: 3
76 -1 113 -1 1615 -1 #SUP: 2
76 -1 141 -1 76 -1 #SUP: 2
76 -1 141 -1 182 -1 #SUP: 2
76 -1 158 -1 10 -1 #SUP: 2
76 -1 182 -1 3 -1 #SUP: 6
76 -1 182 -1 10 -1 #SUP: 2
76 -1 182 -1 64 -1 #SUP: 2
76 -1 182 -1 76 -1 #SUP: 4
76 -1 182 -1 892 -1 #SUP: 2
76 -1 182 -1 2050 -1 #SUP: 2
76 -1 185 -1 364 -1 #SUP: 2
76 -1 194 -1 654 -1 #SUP: 2
76 -1 195 -1 76 -1 #SUP: 2
76 -1 200 -1 3 -1 #SUP: 2
76 -1 208 -1 75 -1 #SUP: 2
76 -1 236 -1 65 -1 #SUP: 2
76 -1 242 -1 2 -1 #SUP: 2
76 -1 242 -1 113 -1 #SUP: 2
76 -1 273 -1 141 -1 #SUP: 2
76 -1 273 -1 182 -1 #SUP: 2
76 -1 340 -1 76 -1 #SUP: 3
76 -1 342 -1 22 -1 #SUP: 2
76 -1 342 -1 33 -1 #SUP: 2
76 -1 342 -1 65 -1 #SUP: 2
76 -1 356 -1 262 -1 #SUP: 2
76 -1 417 -1 64 -1 #SUP: 2
76 -1 463 -1 64 -1 #SUP: 3
76 -1 484 -1 182 -1 #SUP: 3
76 -1 497 -1 113 -1 #SUP: 2
76 -1 506 -1 225 -1 #SUP: 2
76 -1 557 -1 2 -1 #SUP: 2
76 -1 557 -1 3 -1 #SUP: 5
76 -1 557 -1 10 -1 #SUP: 2
76 -1 557 -1 41 -1 #SUP: 2
76 -1 557 -1 64 -1 #SUP: 3
76 -1 557 -1 65 -1 #SUP: 3
76 -1 557 -1 76 -1 #SUP: 6
76 -1 557 -1 113 -1 #SUP: 6
76 -1 557 -1 141 -1 #SUP: 2
76 -1 557 -1 168 -1 #SUP: 2
76 -1 557 -1 182 -1 #SUP: 3
76 -1 557 -1 194 -1 #SUP: 2
76 -1 557 -1 1100 -1 #SUP: 2
76 -1 557 -1 1534 -1 #SUP: 2
76 -1 557 -1 1635 -1 #SUP: 2
76 -1 587 -1 22 -1 #SUP: 2
76 -1 613 -1 892 -1 #SUP: 2
76 -1 827 -1 2 -1 #SUP: 2
76 -1 827 -1 262 -1 #SUP: 2
76 -1 827 -1 356 -1 #SUP: 2
76 -1 1225 -1 160 -1 #SUP: 2
76 -1 1615 -1 64 -1 #SUP: 3
76 -1 2050 -1 3 -1 #SUP: 2
113 -1 2 -1 31 -1 #SUP: 2
113 -1 2 -1 113 -1 #SUP: 2
113 -1 3 -1 22 -1 #SUP: 3
113 -1 3 -1 64 -1 #SUP: 2
113 -1 3 -1 65 -1 #SUP: 4
113 -1 3 -1 76 -1 #SUP: 5
113 -1 3 -1 113 -1 #SUP: 3
113 -1 3 -1 115 -1 #SUP: 2
113 -1 3 -1 868 -1 #SUP: 2
113 -1 7 -1 182 -1 #SUP: 3
113 -1 22 -1 69 -1 #SUP: 2
113 -1 22 -1 151 -1 #SUP: 2
113 -1 22 -1 182 -1 #SUP: 2
113 -1 22 -1 868 -1 #SUP: 2
113 -1 64 -1 3 -1 #SUP: 2
113 -1 64 -1 65 -1 #SUP: 2
113 -1 64 -1 76 -1 #SUP: 3
113 -1 65 -1 64 -1 #SUP: 2
113 -1 65 -1 76 -1 #SUP: 4
113 -1 65 -1 113 -1 #SUP: 2
113 -1 65 -1 185 -1 #SUP: 3
113 -1 65 -1 216 -1 #SUP: 2
113 -1 69 -1 76 -1 #SUP: 2
113 -1 76 -1 2 -1 #SUP: 2
113 -1 76 -1 22 -1 #SUP: 2
113 -1 76 -1 31 -1 #SUP: 2
113 -1 76 -1 76 -1 #SUP: 4
113 -1 76 -1 113 -1 #SUP: 7
113 -1 76 -1 497 -1 #SUP: 3
113 -1 76 -1 557 -1 #SUP: 8
113 -1 113 -1 3 -1 #SUP: 3
113 -1 113 -1 76 -1 #SUP: 2
113 -1 115 -1 76 -1 #SUP: 2
113 -1 118 -1 76 -1 #SUP: 2
113 -1 118 -1 194 -1 #SUP: 2
113 -1 118 -1 248 -1 #SUP: 2
113 -1 141 -1 76 -1 #SUP: 2
113 -1 151 -1 342 -1 #SUP: 2
113 -1 182 -1 76 -1 #SUP: 2
113 -1 185 -1 76 -1 #SUP: 2
113 -1 185 -1 364 -1 #SUP: 3
113 -1 194 -1 3 -1 #SUP: 4
113 -1 194 -1 69 -1 #SUP: 2
113 -1 194 -1 76 -1 #SUP: 3
113 -1 194 -1 113 -1 #SUP: 2
113 -1 194 -1 151 -1 #SUP: 3
113 -1 194 -1 248 -1 #SUP: 2
113 -1 194 -1 3363 -1 #SUP: 2
113 -1 213 -1 76 -1 #SUP: 2
113 -1 326 -1 7 -1 #SUP: 2
113 -1 326 -1 76 -1 #SUP: 4
113 -1 326 -1 113 -1 #SUP: 2
113 -1 326 -1 182 -1 #SUP: 3
113 -1 326 -1 557 -1 #SUP: 2
113 -1 340 -1 76 -1 #SUP: 2
113 -1 340 -1 372 -1 #SUP: 2
113 -1 497 -1 113 -1 #SUP: 2
113 -1 506 -1 151 -1 #SUP: 2
113 -1 557 -1 76 -1 #SUP: 3
113 -1 557 -1 113 -1 #SUP: 3
113 -1 625 -1 76 -1 #SUP: 2
113 -1 634 -1 187 -1 #SUP: 2
113 -1 642 -1 76 -1 #SUP: 2
113 -1 642 -1 182 -1 #SUP: 2
113 -1 827 -1 151 -1 #SUP: 2
113 -1 1418 -1 374 -1 #SUP: 2
113 -1 1615 -1 64 -1 #SUP: 3
113 -1 1615 -1 76 -1 #SUP: 2
115 -1 76 -1 22 -1 #SUP: 2
115 -1 151 -1 2 -1 #SUP: 2
118 -1 76 -1 22 -1 #SUP: 2
141 -1 2 -1 41 -1 #SUP: 2
141 -1 22 -1 337 -1 #SUP: 2
141 -1 22 -1 454 -1 #SUP: 2
141 -1 41 -1 141 -1 #SUP: 2
141 -1 158 -1 182 -1 #SUP: 2
141 -1 182 -1 484 -1 #SUP: 2
141 -1 454 -1 337 -1 #SUP: 2
151 -1 2 -1 3 -1 #SUP: 2
151 -1 3 -1 2 -1 #SUP: 2
151 -1 76 -1 113 -1 #SUP: 2
151 -1 76 -1 557 -1 #SUP: 2
151 -1 113 -1 31 -1 #SUP: 2
151 -1 463 -1 64 -1 #SUP: 2
151 -1 1216 -1 113 -1 #SUP: 2
154 -1 131 -1 1312 -1 #SUP: 2
158 -1 113 -1 76 -1 #SUP: 2
158 -1 182 -1 1089 -1 #SUP: 2
160 -1 151 -1 64 -1 #SUP: 2
182 -1 3 -1 10 -1 #SUP: 2
182 -1 3 -1 22 -1 #SUP: 2
182 -1 3 -1 54 -1 #SUP: 2
182 -1 3 -1 64 -1 #SUP: 3
182 -1 3 -1 65 -1 #SUP: 2
182 -1 3 -1 76 -1 #SUP: 4
182 -1 3 -1 422 -1 #SUP: 2
182 -1 10 -1 76 -1 #SUP: 2
182 -1 50 -1 2 -1 #SUP: 2
182 -1 50 -1 827 -1 #SUP: 2
182 -1 65 -1 76 -1 #SUP: 2
182 -1 76 -1 2 -1 #SUP: 3
182 -1 76 -1 10 -1 #SUP: 2
182 -1 76 -1 76 -1 #SUP: 2
182 -1 76 -1 113 -1 #SUP: 2
182 -1 76 -1 484 -1 #SUP: 2
182 -1 76 -1 557 -1 #SUP: 2
182 -1 827 -1 2 -1 #SUP: 2
182 -1 2050 -1 3 -1 #SUP: 2
194 -1 3 -1 65 -1 #SUP: 2
194 -1 3 -1 76 -1 #SUP: 3
194 -1 65 -1 76 -1 #SUP: 2
194 -1 113 -1 3 -1 #SUP: 4
194 -1 113 -1 65 -1 #SUP: 2
194 -1 113 -1 76 -1 #SUP: 3
194 -1 151 -1 3 -1 #SUP: 2
213 -1 182 -1 76 -1 #SUP: 2
213 -1 1367 -1 182 -1 #SUP: 2
216 -1 76 -1 113 -1 #SUP: 2
216 -1 76 -1 557 -1 #SUP: 2
224 -1 76 -1 3 -1 #SUP: 3
224 -1 182 -1 3 -1 #SUP: 2
234 -1 76 -1 3 -1 #SUP: 2
236 -1 65 -1 76 -1 #SUP: 2
236 -1 76 -1 2 -1 #SUP: 2
242 -1 2 -1 113 -1 #SUP: 2
250 -1 3 -1 64 -1 #SUP: 2
272 -1 1621 -1 686 -1 #SUP: 2
326 -1 7 -1 182 -1 #SUP: 2
326 -1 76 -1 557 -1 #SUP: 2
326 -1 182 -1 76 -1 #SUP: 2
340 -1 76 -1 76 -1 #SUP: 2
342 -1 16 -1 65 -1 #SUP: 2
342 -1 16 -1 76 -1 #SUP: 2
342 -1 16 -1 113 -1 #SUP: 2
342 -1 16 -1 185 -1 #SUP: 2
342 -1 65 -1 76 -1 #SUP: 2
342 -1 65 -1 827 -1 #SUP: 3
342 -1 113 -1 185 -1 #SUP: 2
406 -1 2 -1 113 -1 #SUP: 2
406 -1 76 -1 2 -1 #SUP: 2
406 -1 76 -1 113 -1 #SUP: 2
417 -1 64 -1 153 -1 #SUP: 2
417 -1 64 -1 644 -1 #SUP: 2
417 -1 65 -1 2 -1 #SUP: 2
417 -1 65 -1 1100 -1 #SUP: 2
417 -1 644 -1 153 -1 #SUP: 2
417 -1 1100 -1 2 -1 #SUP: 2
417 -1 1615 -1 64 -1 #SUP: 2
493 -1 2 -1 76 -1 #SUP: 2
493 -1 76 -1 3 -1 #SUP: 2
493 -1 76 -1 76 -1 #SUP: 2
493 -1 76 -1 113 -1 #SUP: 3
493 -1 76 -1 160 -1 #SUP: 2
493 -1 76 -1 200 -1 #SUP: 3
493 -1 76 -1 417 -1 #SUP: 2
493 -1 76 -1 1225 -1 #SUP: 2
493 -1 200 -1 76 -1 #SUP: 2
493 -1 1225 -1 160 -1 #SUP: 2
497 -1 375 -1 3 -1 #SUP: 2
504 -1 182 -1 182 -1 #SUP: 2
506 -1 151 -1 342 -1 #SUP: 2
506 -1 225 -1 65 -1 #SUP: 2
506 -1 225 -1 76 -1 #SUP: 2
557 -1 3 -1 64 -1 #SUP: 2
557 -1 3 -1 65 -1 #SUP: 2
557 -1 10 -1 1635 -1 #SUP: 2
557 -1 64 -1 2 -1 #SUP: 2
557 -1 65 -1 2 -1 #SUP: 3
557 -1 65 -1 64 -1 #SUP: 2
557 -1 65 -1 1100 -1 #SUP: 2
557 -1 76 -1 2 -1 #SUP: 3
557 -1 76 -1 22 -1 #SUP: 2
557 -1 76 -1 113 -1 #SUP: 2
557 -1 113 -1 2 -1 #SUP: 2
557 -1 113 -1 3 -1 #SUP: 2
557 -1 113 -1 64 -1 #SUP: 3
557 -1 113 -1 76 -1 #SUP: 2
557 -1 113 -1 194 -1 #SUP: 3
557 -1 113 -1 1615 -1 #SUP: 2
557 -1 141 -1 22 -1 #SUP: 2
557 -1 182 -1 3 -1 #SUP: 2
557 -1 686 -1 22 -1 #SUP: 2
557 -1 686 -1 141 -1 #SUP: 2
557 -1 1101 -1 76 -1 #SUP: 2
557 -1 1615 -1 64 -1 #SUP: 2
587 -1 22 -1 827 -1 #SUP: 2
642 -1 182 -1 76 -1 #SUP: 2
644 -1 65 -1 2 -1 #SUP: 2
644 -1 65 -1 1100 -1 #SUP: 2
644 -1 153 -1 2 -1 #SUP: 2
644 -1 1100 -1 2 -1 #SUP: 2
686 -1 22 -1 337 -1 #SUP: 2
686 -1 22 -1 454 -1 #SUP: 2
686 -1 141 -1 22 -1 #SUP: 2
686 -1 141 -1 337 -1 #SUP: 2
686 -1 141 -1 454 -1 #SUP: 2
686 -1 454 -1 337 -1 #SUP: 2
827 -1 151 -1 3 -1 #SUP: 2
827 -1 356 -1 262 -1 #SUP: 2
892 -1 76 -1 76 -1 #SUP: 2
1101 -1 76 -1 22 -1 #SUP: 2
1101 -1 76 -1 33 -1 #SUP: 2
1101 -1 76 -1 64 -1 #SUP: 2
1101 -1 76 -1 65 -1 #SUP: 3
1101 -1 76 -1 113 -1 #SUP: 2
1101 -1 76 -1 236 -1 #SUP: 2
1101 -1 76 -1 635 -1 #SUP: 2
1101 -1 76 -1 1615 -1 #SUP: 2
1101 -1 236 -1 65 -1 #SUP: 2
1101 -1 1615 -1 64 -1 #SUP: 2
1139 -1 31 -1 22 -1 #SUP: 2
1418 -1 374 -1 2 -1 #SUP: 2
1615 -1 64 -1 2 -1 #SUP: 2
1615 -1 64 -1 65 -1 #SUP: 2
1615 -1 64 -1 76 -1 #SUP: 2
1615 -1 64 -1 510 -1 #SUP: 2
1615 -1 64 -1 1100 -1 #SUP: 2
1615 -1 65 -1 2 -1 #SUP: 2
1615 -1 65 -1 1100 -1 #SUP: 2
1615 -1 1100 -1 2 -1 #SUP: 2
1666 -1 65 -1 48 -1 #SUP: 2
1959 -1 76 -1 3 -1 #SUP: 2
2050 -1 3 -1 76 -1 #SUP: 2
2050 -1 3 -1 113 -1 #SUP: 2
2050 -1 3 -1 557 -1 #SUP: 2
2050 -1 65 -1 76 -1 #SUP: 2
2050 -1 65 -1 216 -1 #SUP: 2
2050 -1 65 -1 557 -1 #SUP: 2
2050 -1 76 -1 113 -1 #SUP: 2
2050 -1 76 -1 557 -1 #SUP: 4
2050 -1 216 -1 76 -1 #SUP: 2
2050 -1 216 -1 557 -1 #SUP: 2
2050 -1 557 -1 113 -1 #SUP: 2
2997 -1 189 -1 878 -1 #SUP: 2
4482 -1 76 -1 64 -1 #SUP: 3
10912 -1 644 -1 153 -1 #SUP: 2
2 -1 141 -1 182 -1 484 -1 #SUP: 2
2 -1 213 -1 1367 -1 182 -1 #SUP: 2
3 -1 65 -1 76 -1 76 -1 #SUP: 2
3 -1 65 -1 1100 -1 2 -1 #SUP: 2
3 -1 76 -1 557 -1 76 -1 #SUP: 2
3 -1 76 -1 557 -1 113 -1 #SUP: 2
16 -1 22 -1 76 -1 2 -1 #SUP: 2
16 -1 76 -1 2 -1 113 -1 #SUP: 2
16 -1 113 -1 185 -1 364 -1 #SUP: 2
22 -1 113 -1 194 -1 3 -1 #SUP: 2
50 -1 1666 -1 65 -1 48 -1 #SUP: 2
64 -1 65 -1 1100 -1 2 -1 #SUP: 2
64 -1 644 -1 153 -1 2 -1 #SUP: 2
65 -1 64 -1 76 -1 2 -1 #SUP: 2
65 -1 76 -1 2 -1 22 -1 #SUP: 2
65 -1 76 -1 2 -1 41 -1 #SUP: 2
65 -1 76 -1 484 -1 182 -1 #SUP: 3
65 -1 216 -1 76 -1 113 -1 #SUP: 2
65 -1 216 -1 76 -1 557 -1 #SUP: 2
76 -1 2 -1 113 -1 76 -1 #SUP: 2
76 -1 2 -1 113 -1 118 -1 #SUP: 2
76 -1 2 -1 113 -1 141 -1 #SUP: 2
76 -1 2 -1 113 -1 151 -1 #SUP: 2
76 -1 64 -1 64 -1 81 -1 #SUP: 2
76 -1 64 -1 141 -1 76 -1 #SUP: 2
76 -1 65 -1 54 -1 76 -1 #SUP: 2
76 -1 76 -1 2 -1 22 -1 #SUP: 2
76 -1 76 -1 2 -1 113 -1 #SUP: 2
76 -1 76 -1 3 -1 2 -1 #SUP: 2
76 -1 76 -1 557 -1 113 -1 #SUP: 2
76 -1 113 -1 64 -1 76 -1 #SUP: 2
76 -1 113 -1 76 -1 113 -1 #SUP: 3
76 -1 113 -1 76 -1 497 -1 #SUP: 2
76 -1 113 -1 76 -1 557 -1 #SUP: 3
76 -1 113 -1 185 -1 364 -1 #SUP: 2
76 -1 113 -1 340 -1 76 -1 #SUP: 2
76 -1 113 -1 557 -1 113 -1 #SUP: 2
76 -1 113 -1 1615 -1 64 -1 #SUP: 2
76 -1 182 -1 3 -1 64 -1 #SUP: 2
76 -1 182 -1 3 -1 76 -1 #SUP: 2
76 -1 182 -1 2050 -1 3 -1 #SUP: 2
76 -1 242 -1 2 -1 113 -1 #SUP: 2
76 -1 557 -1 3 -1 65 -1 #SUP: 2
76 -1 557 -1 10 -1 1635 -1 #SUP: 2
76 -1 557 -1 65 -1 64 -1 #SUP: 2
76 -1 557 -1 65 -1 1100 -1 #SUP: 2
76 -1 557 -1 76 -1 2 -1 #SUP: 2
76 -1 557 -1 76 -1 113 -1 #SUP: 2
76 -1 557 -1 113 -1 76 -1 #SUP: 2
76 -1 557 -1 113 -1 194 -1 #SUP: 2
76 -1 557 -1 182 -1 3 -1 #SUP: 2
76 -1 827 -1 356 -1 262 -1 #SUP: 2
113 -1 3 -1 22 -1 868 -1 #SUP: 2
113 -1 3 -1 65 -1 76 -1 #SUP: 2
113 -1 3 -1 65 -1 113 -1 #SUP: 2
113 -1 3 -1 76 -1 22 -1 #SUP: 2
113 -1 3 -1 76 -1 113 -1 #SUP: 2
113 -1 3 -1 115 -1 76 -1 #SUP: 2
113 -1 65 -1 185 -1 76 -1 #SUP: 2
113 -1 76 -1 497 -1 113 -1 #SUP: 2
113 -1 76 -1 557 -1 76 -1 #SUP: 3
113 -1 76 -1 557 -1 113 -1 #SUP: 3
113 -1 194 -1 113 -1 3 -1 #SUP: 2
113 -1 326 -1 7 -1 182 -1 #SUP: 2
113 -1 326 -1 76 -1 557 -1 #SUP: 2
113 -1 326 -1 182 -1 76 -1 #SUP: 2
113 -1 642 -1 182 -1 76 -1 #SUP: 2
113 -1 1615 -1 64 -1 76 -1 #SUP: 2
141 -1 22 -1 454 -1 337 -1 #SUP: 2
182 -1 3 -1 65 -1 76 -1 #SUP: 2
182 -1 50 -1 827 -1 2 -1 #SUP: 2
194 -1 3 -1 65 -1 76 -1 #SUP: 2
194 -1 113 -1 3 -1 65 -1 #SUP: 2
194 -1 113 -1 3 -1 76 -1 #SUP: 3
194 -1 113 -1 65 -1 76 -1 #SUP: 2
342 -1 16 -1 113 -1 185 -1 #SUP: 2
406 -1 76 -1 2 -1 113 -1 #SUP: 2
417 -1 64 -1 644 -1 153 -1 #SUP: 2
417 -1 65 -1 1100 -1 2 -1 #SUP: 2
493 -1 76 -1 1225 -1 160 -1 #SUP: 2
557 -1 65 -1 64 -1 2 -1 #SUP: 2
557 -1 113 -1 1615 -1 64 -1 #SUP: 2
557 -1 686 -1 141 -1 22 -1 #SUP: 2
644 -1 65 -1 1100 -1 2 -1 #SUP: 2
686 -1 22 -1 454 -1 337 -1 #SUP: 2
686 -1 141 -1 22 -1 337 -1 #SUP: 2
686 -1 141 -1 22 -1 454 -1 #SUP: 2
686 -1 141 -1 454 -1 337 -1 #SUP: 2
1101 -1 76 -1 236 -1 65 -1 #SUP: 2
1101 -1 76 -1 1615 -1 64 -1 #SUP: 2
1615 -1 64 -1 65 -1 2 -1 #SUP: 2
1615 -1 64 -1 65 -1 1100 -1 #SUP: 2
1615 -1 64 -1 1100 -1 2 -1 #SUP: 2
1615 -1 65 -1 1100 -1 2 -1 #SUP: 2
2050 -1 3 -1 76 -1 113 -1 #SUP: 2
2050 -1 3 -1 76 -1 557 -1 #SUP: 2
2050 -1 3 -1 557 -1 113 -1 #SUP: 2
2050 -1 65 -1 76 -1 557 -1 #SUP: 2
2050 -1 65 -1 216 -1 76 -1 #SUP: 2
2050 -1 65 -1 216 -1 557 -1 #SUP: 2
2050 -1 76 -1 557 -1 113 -1 #SUP: 2
2050 -1 216 -1 76 -1 557 -1 #SUP: 2
76 -1 113 -1 76 -1 557 -1 113 -1 #SUP: 2
194 -1 113 -1 3 -1 65 -1 76 -1 #SUP: 2
686 -1 141 -1 22 -1 454 -1 337 -1 #SUP: 2
1615 -1 64 -1 65 -1 1100 -1 2 -1 #SUP: 2
2050 -1 3 -1 76 -1 557 -1 113 -1 #SUP: 2
2050 -1 65 -1 216 -1 76 -1 557 -1 #SUP: 2
