3501 -1 113 -1 161 -1 1959 -1 547 -1 1088 -1 2199 -1 244 -1 50 -1 6628 -1 155 -1 2212 -1 10 -1 65 -1 2116 -1 268 -1 2278 -1 484 -1 76 -1 115 -1 22 -1 70 -1 342 -1 1198 -1 64 -1 93156 -1 137 -1 1017 -1 9 -1 1279 -1 93160 -1 2199 -1 244 -1 50 -1 6628 -1 155 -1 2212 -1 1652 -1 37786 -1 2723 -1 16251 -1 154 -1 418 -1 417 -1 3563 -1 2199 -1 244 -1 50 -1 6628 -1 155 -1 2212 -1 2365 -1 8408 -1 6795 -1 33 -1 93158 -1 6295 -1 2199 -1 244 -1 50 -1 6628 -1 155 -1 2212 -1 25488 -1 15648 -1 223 -1 2702 -1 2199 -1 244 -1 50 -1 6628 -1 155 -1 2212 -1 15920 -1 424 -1 66 -1 31701 -1 32 -1 93157 -1 6296 -1 33 -1 93159 -1 22 -1 8550 -1 16611 -1 268 -1 332 -1 5401 -1 2199 -1 244 -1 50 -1 6628 -1 155 -1 2212 -1 22 -1 2967 -1 22054 -1 2199 -1 244 -1 50 -1 6628 -1 155 -1 2212 -1 22 -1 2967 -1 879 -1 32 -1 41 -1 2199 -1 244 -1 50 -1 6628 -1 155 -1 2212 -1 73948 -1 801 -1 93155 -1 144 -1 22 -1 11640 -1 588 -1 65 -1 1198 -1 31 -1 22 -1 502 -1 75 -1 30 -2
2199 -1 244 -1 50 -1 6628 -1 155 -1 2212 -1 200 -1 2074 -1 2 -1 702 -1 3 -1 137 -1 22 -1 1099 -1 878 -1 2 -1 179 -1 375 -1 127 -1 4396 -1 783 -1 113 -1 571 -1 250 -1 3031 -1 484 -1 1128 -1 697 -1 364 -1 30 -2
1198 -1 64 -1 131 -1 211 -1 525 -1 113 -1 10 -1 65 -1 561 -1 2278 -1 30 -2
2199 -1 244 -1 50 -1 6628 -1 155 -1 30 -2
25488 -1 15648 -1 223 -1 2702 -1 2029 -1 24619 -1 21733 -1 1058 -1 25488 -1 15648 -1 223 -1 2702 -1 9 -1 1279 -1 93161 -1 22 -1 3278 -1 93164 -1 3392 -1 93162 -1 2199 -1 244 -1 50 -1 6628 -1 155 -1 2212 -1 3671 -1 6003 -1 113 -1 156 -1 41 -1 64 -1 156 -1 113 -1 244 -1 226 -1 115 -1 93163 -1 2199 -1 244 -1 50 -1 6628 -1 155 -1 2212 -1 22 -1 8550 -1 88 -1 1376 -1 30378 -1 30 -2
2199 -1 244 -1 50 -1 6628 -1 155 -1 2212 -1 22 -1 8550 -1 3 -1 31 -1 22 -1 1934 -1 32 -1 4516 -1 9071 -1 2199 -1 244 -1 50 -1 6628 -1 155 -1 2212 -1 3 -1 22 -1 4216 -1 32 -1 250 -1 251 -1 65 -1 3529 -1 64 -1 22 -1 355 -1 1 -2
224 -1 484 -1 76 -1 1060 -1 555 -1 115 -1 13 -1 30 -2
224 -1 41 -1 3 -1 2202 -1 76 -1 13998 -1 472 -1 22 -1 1171 -1 561 -1 2622 -1 19466 -1 64 -1 3 -1 4636 -1 33 -1 2345 -1 30 -2
1099 -1 878 -1 783 -1 2199 -1 244 -1 50 -1 6628 -1 155 -1 2212 -1 5726 -1 14523 -1 384 -1 64 -1 113 -1 375 -1 3 -1 2866 -1 31 -1 4062 -1 385 -1 30 -2
2 -1 179 -1 30 -2
5726 -1 14523 -1 7039 -1 22 -1 3278 -1 118 -1 1747 -1 484 -1 576 -1 64 -1 113 -1 22 -1 562 -1 10 -1 602 -1 1669 -1 93165 -1 13772 -1 10313 -1 3158 -1 160 -1 18593 -1 30 -2
430 -1 76 -1 13772 -1 30 -2
2199 -1 244 -1 50 -1 6628 -1 155 -1 2212 -1 22 -1 3278 -1 1200 -1 10 -1 65 -1 1880 -1 2199 -1 244 -1 50 -1 6628 -1 155 -1 2212 -1 1467 -1 113 -1 10735 -1 22 -1 3278 -1 268 -1 16396 -1 93166 -1 317 -1 38229 -1 237 -1 30 -1 1678 -1 1747 -1 715 -1 41 -1 238 -1 30 -1 484 -1 1807 -1 307 -1 30 -1 72283 -1 547 -1 30 -1 51 -1 64 -1 41 -1 804 -1 30 -1 5381 -1 10 -1 50 -1 13 -1 725 -1 30 -1 1504 -1 4698 -1 1224 -1 544 -1 30 -1 4049 -1 10 -1 22 -1 240 -1 545 -1 30 -1 600 -1 351 -1 10290 -1 1031 -1 499 -1 41 -1 1198 -1 64 -1 312 -1 588 -1 76 -1 149 -1 200 -1 31 -1 1260 -1 6761 -1 76 -1 52 -1 273 -1 41 -1 161 -1 349 -1 22 -1 1019 -1 562 -1 33 -1 168 -1 144 -1 588 -1 548 -1 401 -1 160 -1 312 -1 588 -1 113 -1 848 -1 30 -2
49494 -1 6490 -1 8530 -1 5268 -1 1273 -1 2199 -1 244 -1 50 -1 6628 -1 155 -1 2212 -1 22 -1 3278 -1 1678 -1 1747 -1 715 -1 41 -1 22 -1 3278 -1 268 -1 16396 -1 3 -1 2163 -1 30 -2
65 -1 1888 -1 32 -1 722 -1 3782 -1 3222 -1 400 -1 2661 -1 880 -1 562 -1 30 -2
72 -1 165 -1 151 -1 139 -1 576 -1 76 -1 31 -1 50 -1 3358 -1 76 -1 3 -1 305 -1 6160 -1 1316 -1 30 -2
22 -1 3031 -1 3659 -1 32 -1 2959 -1 2199 -1 244 -1 50 -1 6628 -1 155 -1 2212 -1 13568 -1 1918 -1 2074 -1 154 -1 65 -1 5221 -1 32 -1 305 -1 268 -1 554 -1 16396 -1 22 -1 2639 -1 588 -1 2199 -1 244 -1 50 -1 6628 -1 155 -1 2212 -1 5924 -1 3044 -1 17151 -1 2199 -1 244 -1 50 -1 6628 -1 155 -1 2212 -1 3044 -1 17151 -1 692 -1 279 -1 5632 -1 131 -1 633 -1 41 -1 115 -1 93 -1 2 -1 131 -1 4698 -1 41 -1 115 -1 374 -1 30 -2
131 -1 1418 -1 41 -1 224 -1 236 -1 1192 -1 2 -1 131 -1 4580 -1 65 -1 93167 -1 236 -1 484 -1 4062 -1 1243 -1 41 -1 1678 -1 255 -1 305 -1 30 -2
22 -1 2529 -1 2344 -1 16 -1 190 -1 250 -1 562 -1 650 -1 484 -1 364 -1 1235 -1 30 -2
628 -1 7195 -1 32 -1 4826 -1 880 -1 30 -2
2199 -1 244 -1 50 -1 6628 -1 155 -1 2212 -1 54755 -1 93168 -1 345 -1 10 -1 22 -1 16677 -1 2199 -1 244 -1 50 -1 6628 -1 155 -1 2212 -1 54755 -1 93168 -1 23205 -1 471 -1 2188 -1 144 -1 54755 -1 2639 -1 54755 -1 93168 -1 824 -1 2029 -1 65 -1 5221 -1 31 -1 50 -1 502 -1 75 -1 2199 -1 244 -1 50 -1 6628 -1 155 -1 2212 -1 22 -1 22620 -1 5652 -1 471 -1 2199 -1 244 -1 50 -1 6628 -1 155 -1 2212 -1 22 -1 3003 -1 571 -1 2961 -1 69 -1 65 -1 7249 -1 31 -1 22 -1 4583 -1 363 -1 32 -1 887 -1 2199 -1 244 -1 50 -1 6628 -1 155 -1 2212 -1 22 -1 3003 -1 9350 -1 501 -1 1077 -1 305 -1 39033 -1 588 -1 76 -1 3736 -1 44 -1 1198 -1 64 -1 22 -1 3003 -1 1429 -1 113 -1 32 -1 200 -1 273 -1 165 -1 32 -1 65 -1 363 -1 3929 -1 20109 -1 3 -1 30 -2
27 -1 65 -1 2054 -1 30 -2
2199 -1 244 -1 50 -1 6628 -1 155 -1 30 -2
22 -1 22620 -1 170 -1 32 -1 65 -1 4401 -1 2199 -1 244 -1 50 -1 6628 -1 155 -1 2212 -1 49 -1 276 -1 113 -1 277 -1 3 -1 22 -1 1732 -1 1399 -1 1304 -1 31 -1 50 -1 502 -1 75 -1 30 -2
224 -1 41 -1 511 -1 371 -1 642 -1 76 -1 41 -1 511 -1 836 -1 4759 -1 22 -1 40 -1 22914 -1 2636 -1 271 -2
229 -1 5808 -1 14050 -1 2636 -1 115 -1 22914 -1 493 -1 76 -1 31 -1 22 -1 16618 -1 75 -1 76 -1 93170 -1 3 -1 93169 -1 375 -1 1922 -1 65 -1 1899 -1 32 -1 41 -1 30 -2
848 -1 76 -1 375 -1 3 -1 17 -1 65 -1 1100 -1 32 -1 628 -1 1111 -1 31 -1 10307 -1 93171 -1 2162 -1 273 -1 1104 -1 14233 -1 19965 -1 22637 -1 208 -1 3 -1 271 -2
22 -1 666 -1 200 -1 27 -1 113 -1 699 -1 1077 -1 305 -1 22816 -1 268 -1 554 -1 16396 -1 1952 -1 14529 -1 41 -1 519 -1 113 -1 80752 -1 305 -1 502 -1 588 -1 65 -1 1198 -1 31 -1 22 -1 502 -1 75 -1 10 -1 65 -1 406 -1 566 -1 75 -1 30 -2
22 -1 352 -1 113 -1 1678 -1 1621 -1 1922 -1 41 -1 271 -2
1753 -1 2000 -1 2991 -1 29 -1 2164 -1 2991 -1 160 -1 35774 -1 3 -1 93173 -1 41 -1 7 -1 10 -1 1141 -1 853 -1 93172 -1 11285 -1 60943 -1 76 -1 22 -1 20647 -1 1803 -1 76 -1 22 -1 2215 -1 88 -1 76 -1 1099 -1 30 -2
93172 -1 11285 -1 60943 -1 680 -1 601 -1 22 -1 13531 -1 3033 -1 342 -1 10 -1 571 -1 160 -1 50 -1 666 -1 1717 -1 189 -1 504 -1 20222 -1 76 -1 113 -1 194 -1 32 -1 250 -1 658 -1 7294 -1 4394 -1 141 -1 33 -1 20222 -1 7294 -1 4394 -1 20222 -1 167 -1 4168 -1 64 -1 278 -1 4048 -1 1169 -1 224 -1 236 -1 1282 -1 113 -1 1225 -1 160 -1 250 -1 52 -1 1191 -1 10 -1 714 -1 5713 -1 30 -2
1477 -1 483 -1 113 -1 248 -1 256 -1 225 -1 106 -1 160 -1 65 -1 406 -1 1603 -1 231 -1 4587 -1 1191 -1 66 -1 22 -1 414 -1 41 -1 640 -1 76 -1 587 -1 9253 -1 64 -1 9253 -1 248 -1 76 -1 242 -1 30 -2
3033 -1 1243 -1 614 -1 54 -1 586 -1 571 -1 3033 -1 118 -1 1533 -1 113 -1 179 -1 250 -1 562 -1 4062 -1 1007 -1 30 -2