3 -1 190 -1 304 -1 348 -1 30 -2
728 -1 871 -1 64 -1 681 -1 76 -1 2 -1 226 -1 13 -1 115 -1 305 -1 304 -1 5354 -1 30 -2
686 -1 216 -1 76 -1 27 -1 3 -1 405 -1 120347 -1 41 -1 384 -1 32 -1 1 -2
635 -1 1004 -1 400 -1 1380 -1 1 -2
29 -1 183 -1 779 -1 76 -1 472 -1 1 -2
149 -1 1604 -1 65 -1 1192 -1 15732 -1 33 -1 386 -1 13399 -1 268 -1 24927 -1 12819 -1 1 -2
593 -1 76 -1 141 -1 636 -1 30 -2
593 -1 76 -1 216 -1 76 -1 41 -1 141 -1 484 -1 1933 -1 113 -1 271 -2
131 -1 3 -1 16 -1 10912 -1 30 -2
131 -1 3 -1 6901 -1 30 -2
32 -1 765 -1 195 -1 3 -1 4255 -1 30 -2
41 -1 371 -1 308 -1 113 -1 158 -1 342 -1 585 -1 497 -1 30 -2
120348 -1 30 -2
77 -1 31 -1 41 -1 76 -1 7783 -1 76 -1 758 -1 153 -1 599 -1 30 -2
3783 -1 30 -2
484 -1 638 -1 32 -1 312 -1 216 -1 64 -1 463 -1 31 -1 1053 -1 2000 -1 4150 -1 1494 -1 30 -2
41 -1 836 -1 7 -1 510 -1 65 -1 2600 -1 278 -1 6448 -1 2 -1 11657 -1 149 -1 264 -1 30 -2
81 -1 65 -1 614 -1 5270 -1 847 -1 2 -1 190 -1 271 -2
65 -1 4828 -1 1053 -1 77 -1 717 -1 836 -1 936 -1 2133 -1 76 -1 216 -1 271 -2
149 -1 472 -1 41 -1 3 -1 187 -1 32 -1 867 -1 160 -1 29 -1 1710 -1 351 -1 1 -2
31 -1 11013 -1 271 -2
463 -1 814 -1 312 -1 85478 -1 268 -1 9166 -1 135 -1 4150 -1 9452 -1 345 -1 2 -1 1483 -1 29 -1 30 -2
652 -1 31 -1 22 -1 19024 -1 64 -1 504 -1 64 -1 22 -1 6448 -1 2 -1 22 -1 8989 -1 30 -2
30060 -1 50 -1 76 -1 50 -1 76 -1 189 -1 3 -1 1262 -1 30 -2
472 -1 242 -1 41 -1 7 -1 527 -1 871 -1 2475 -1 32 -1 29 -1 304 -1 30 -2
1376 -1 2029 -1 76 -1 113 -1 913 -1 41 -1 30 -2
50 -1 878 -1 3 -1 10 -1 22 -1 4474 -1 1 -2
234 -1 41 -1 7 -1 148 -1 10 -1 1141 -1 160 -1 4474 -1 150 -1 113 -1 141 -1 76 -1 7783 -1 271 -2
2143 -1 76 -1 9249 -1 76 -1 23095 -1 76 -1 1120 -1 244 -1 4116 -1 30 -2
7783 -1 30 -2
256 -1 29 -1 878 -1 187 -1 32 -1 22 -1 4474 -1 2 -1 78 -1 187 -1 29 -1 30 -2
509 -1 113 -1 214 -1 141 -1 151 -1 244 -1 179 -1 33 -1 30 -2
268 -1 154 -1 345 -1 30 -2
113 -1 3 -1 3373 -1 32 -1 388 -1 31 -1 16 -1 194 -1 32 -1 151 -1 502 -1 271 -2
4101 -1 30 -2
484 -1 236 -1 504 -1 41 -1 7 -1 312 -1 2434 -1 75662 -1 1 -2
268 -1 345 -1 1 -2
13391 -1 2856 -1 11739 -1 4025 -1 33989 -1 26445 -1 2 -1 1494 -1 120349 -1 76 -1 38946 -1 4025 -1 20155 -1 76 -1 19216 -1 76 -1 11715 -1 76 -1 9522 -1 17115 -1 2 -1 120350 -1 76 -1 3078 -1 11739 -1 76 -1 4280 -1 433 -1 76 -1 6947 -1 16958 -1 7803 -1 76 -1 93 -1 8867 -1 76 -1 18254 -1 30 -2
182 -1 3 -1 50 -1 30 -2
4482 -1 30 -2
3719 -1 30 -2
185 -1 30 -2
120351 -1 30 -2
368 -1 30 -2
151 -1 692 -1 30 -2
57 -1 32 -1 765 -1 702 -1 141 -1 30 -2
77 -1 836 -1 3 -1 1459 -1 244 -1 644 -1 220 -1 33 -1 250 -1 251 -1 76 -1 702 -1 3 -1 808 -1 20241 -1 30 -2
3719 -1 76 -1 509 -1 30 -2
2344 -1 22 -1 878 -1 30 -2
342 -1 22 -1 1313 -1 30 -2
234 -1 76 -1 232 -1 30 -2
217 -1 502 -1 30 -2
113 -1 7 -1 165 -1 30 -2
557 -1 342 -1 16 -1 1075 -1 1108 -1 69 -1 185 -1 364 -1 149 -1 16 -1 484 -1 548 -1 1483 -1 1077 -1 31 -1 179 -1 65 -1 21148 -1 1 -2
224 -1 165 -1 5152 -1 76 -1 342 -1 1075 -1 2657 -1 3 -1 706 -1 64 -1 403 -1 182 -1 30 -2
236 -1 2130 -1 527 -1 2563 -1 64 -1 12766 -1 41 -1 692 -1 131 -1 67 -1 75 -1 41 -1 523 -1 64 -1 338 -1 65 -1 15232 -1 454 -1 271 -2
354 -1 32 -1 765 -1 76 -1 67 -1 75 -1 30 -2
224 -1 1103 -1 2531 -1 3 -1 1480 -1 32 -1 14479 -1 76 -1 232 -1 490 -1 2531 -1 3 -1 1480 -1 32 -1 264 -1 929 -1 2992 -1 1817 -1 4811 -1 30 -2
113 -1 3 -1 72 -1 81 -1 64 -1 2288 -1 131 -1 549 -1 30 -2
113 -1 156 -1 64 -1 6452 -1 131 -1 244 -1 41 -1 76 -1 41 -1 308 -1 30 -2
113 -1 3351 -1 608 -1 593 -1 4299 -1 76 -1 75 -1 2460 -1 1099 -1 64 -1 41 -1 2 -1 1543 -1 161 -1 699 -1 65 -1 5245 -1 271 -2
2 -1 135 -1 41 -1 39 -1 81 -1 64 -1 1730 -1 76 -1 41 -1 836 -1 1554 -1 717 -1 512 -1 151 -1 50 -1 1062 -1 3 -1 2936 -1 120352 -1 137 -1 50 -1 1103 -1 76 -1 149 -1 1105 -1 113 -1 3 -1 340 -1 41 -1 76 -1 1152 -1 30 -2
182 -1 3 -1 248 -1 248 -1 188 -1 66 -1 22 -1 75 -1 30 -2
15 -1 54 -1 113 -1 403 -1 438 -1 7 -1 305 -1 2753 -1 10 -1 305 -1 552 -1 76 -1 69 -1 871 -1 30 -2
2 -1 41 -1 76 -1 234 -1 236 -1 200 -1 484 -1 163 -1 115 -1 510 -1 113 -1 677 -1 160 -1 29 -1 304 -1 1547 -1 115 -1 863 -1 30 -2
182 -1 993 -1 3 -1 66 -1 151 -1 488 -1 30 -2
593 -1 4299 -1 76 -1 69 -1 148 -1 408 -1 36088 -1 150 -1 7022 -1 30 -2
141 -1 81 -1 64 -1 256 -1 182 -1 296 -1 30 -2
113 -1 326 -1 41 -1 4811 -1 1312 -1 77 -1 8031 -1 64 -1 8011 -1 76 -1 557 -1 151 -1 3 -1 527 -1 2931 -1 30 -2
2 -1 76 -1 50 -1 176 -1 76 -1 41 -1 641 -1 64 -1 3 -1 1953 -1 234 -1 30 -2
675 -1 530 -1 561 -1 76 -1 557 -1 182 -1 161 -1 3 -1 1511 -1 64 -1 308 -1 47 -1 799 -1 30 -2
113 -1 248 -1 340 -1 250 -1 165 -1 271 -2
113 -1 571 -1 250 -1 269 -1 296 -1 847 -1 30 -2
41 -1 836 -1 14886 -1 182 -1 225 -1 65 -1 562 -1 149 -1 635 -1 1053 -1 54 -1 271 -2
41 -1 194 -1 4249 -1 3 -1 2551 -1 1 -2
15310 -1 271 -2
113 -1 1225 -1 30 -2
158 -1 141 -1 113 -1 504 -1 553 -1 278 -1 2313 -1 76 -1 497 -1 1 -2
189 -1 699 -1 635 -1 6829 -1 271 -2
4482 -1 1 -1 271 -2
417 -1 234 -1 76 -1 224 -1 417 -1 118 -1 156 -1 64 -1 256 -1 1842 -1 10 -1 22 -1 63751 -1 271 -2
50 -1 176 -1 76 -1 250 -1 3 -1 484 -1 406 -1 4668 -1 76 -1 649 -1 76 -1 472 -1 2657 -1 163 -1 692 -1 33 -1 29 -1 6856 -1 30 -2
113 -1 326 -1 151 -1 379 -1 586 -1 3 -1 124 -1 64 -1 20518 -1 29 -1 304 -1 454 -1 4749 -1 76 -1 1304 -1 76 -1 3029 -1 30 -2
557 -1 146 -1 182 -1 64 -1 599 -1 30 -2
29993 -1 296 -1 30 -2
113 -1 3 -1 120353 -1 30 -2
113 -1 3 -1 29 -1 5245 -1 30 -2
13196 -1 81 -1 64 -1 3712 -1 41 -1 76 -1 1057 -1 76 -1 13196 -1 81 -1 484 -1 80 -1 67 -1 1925 -1 1471 -1 30 -2
1012 -1 32 -1 182 -1 3 -1 692 -1 30 -2
113 -1 3 -1 2081 -1 64 -1 3 -1 65 -1 658 -1 120354 -1 3377 -1 30 -2
113 -1 17 -1 30 -2
65 -1 406 -1 652 -1 64 -1 936 -1 814 -1 2065 -1 217 -1 3584 -1 52 -1 789 -1 39160 -1 22 -1 879 -1 10 -1 1098 -1 341 -1 30 -2
113 -1 72 -1 641 -1 151 -1 394 -1 1534 -1 236 -1 4431 -1 113 -1 76 -1 4299 -1 30 -2
120355 -1 179 -1 76 -1 10266 -1 271 -2
32 -1 765 -1 16 -1 30 -2
191 -1 211 -1 72 -1 798 -1 165 -1 4215 -1 76 -1 2 -1 424 -1 27 -1 113 -1 636 -1 41 -1 64 -1 141 -1 30 -2
484 -1 745 -1 236 -1 906 -1 1842 -1 33 -1 64 -1 151 -1 868 -1 30 -2
2057 -1 33 -1 30 -2
2 -1 113 -1 7 -1 64 -1 144 -1 250 -1 64 -1 50 -1 614 -1 1667 -1 4124 -1 224 -1 137 -1 680 -1 50 -1 2200 -1 76 -1 41 -1 124 -1 680 -1 182 -1 2607 -1 225 -1 22 -1 1526 -1 76 -1 232 -1 151 -1 3 -1 65 -1 406 -1 805 -1 1754 -1 30 -2
6088 -1 76 -1 113 -1 482 -1 1736 -1 41 -1 10 -1 14966 -1 32 -1 17242 -1 30 -2
182 -1 3 -1 29 -1 176 -1 120353 -1 352 -1 5273 -1 113 -1 64 -1 30 -2
151 -1 3 -1 872 -1 65 -1 8490 -1 13394 -1 500 -1 225 -1 50 -1 625 -1 351 -1 30 -2
14353 -1 182 -1 30 -2
527 -1 394 -1 271 -2
236 -1 1237 -1 163 -1 30 -2
186 -1 836 -1 4759 -1 10 -1 30 -2
69 -1 1104 -1 30 -2
113 -1 555 -1 554 -1 3831 -1 30 -2
2997 -1 41 -1 3831 -1 502 -1 30 -2
50 -1 76 -1 50 -1 76 -1 7 -1 41 -1 2282 -1 50 -1 2776 -1 753 -1 76 -1 1057 -1 1 -2
273 -1 2750 -1 41 -1 993 -1 3 -1 64 -1 7 -1 189 -1 64 -1 1240 -1 212 -1 30 -2
686 -1 118 -1 41 -1 463 -1 289 -1 151 -1 14966 -1 32 -1 17242 -1 2 -1 232 -1 11318 -1 65 -1 4514 -1 64 -1 510 -1 717 -1 786 -1 234 -1 1 -1 30 -2
141 -1 27 -1 1 -2
686 -1 1312 -1 41 -1 4759 -1 10 -1 1 -2
69 -1 1104 -1 271 -2
129 -1 77 -1 168 -1 201 -1 44 -1 151 -1 420 -1 4212 -1 76 -1 4211 -1 76 -1 149 -1 11947 -1 30 -2
149 -1 30 -2
600 -1 163 -1 1 -2
26719 -1 26711 -1 6625 -1 4249 -1 271 -2
2648 -1 76 -1 4299 -1 30 -2
77 -1 224 -1 113 -1 510 -1 50 -1 2776 -1 586 -1 388 -1 30 -2
113 -1 7 -1 65 -1 8262 -1 31 -1 151 -1 30 -2
113 -1 2726 -1 1498 -1 41 -1 927 -1 484 -1 364 -1 41 -1 510 -1 66 -1 29 -1 2776 -1 586 -1 717 -1 76 -1 118 -1 41 -1 1057 -1 1 -2
860 -1 15 -1 32 -1 602 -1 463 -1 30 -2
424 -1 296 -1 30 -2
10 -1 868 -1 424 -1 273 -1 113 -1 506 -1 41 -1 154 -1 76 -1 1057 -1 76 -1 22096 -1 30 -2
1511 -1 271 -2
2 -1 41 -1 636 -1 113 -1 113 -1 1678 -1 356 -1 65 -1 1730 -1 30 -2
29 -1 488 -1 993 -1 3 -1 22 -1 7156 -1 32 -1 8161 -1 9197 -1 268 -1 542 -1 30 -2
342 -1 1075 -1 113 -1 118 -1 699 -1 64 -1 636 -1 41 -1 273 -1 3460 -1 151 -1 3 -1 30 -2
33 -1 1169 -1 454 -1 30 -2
113 -1 194 -1 113 -1 141 -1 30 -2
113 -1 326 -1 113 -1 1615 -1 64 -1 144 -1 566 -1 4657 -1 30 -2
484 -1 41 -1 200 -1 878 -1 9543 -1 296 -1 179 -1 76 -1 2 -1 548 -1 510 -1 182 -1 1946 -1 566 -1 31 -1 41 -1 30 -2
118 -1 139 -1 154 -1 689 -1 69 -1 262 -1 271 -2
463 -1 890 -1 30 -2
141 -1 417 -1 66 -1 65 -1 6654 -1 30 -2
41 -1 571 -1 599 -1 54 -1 76 -1 30 -2
24821 -1 30 -2
113 -1 118 -1 4657 -1 50 -1 7035 -1 30 -2
675 -1 9543 -1 76 -1 484 -1 69 -1 16 -1 340 -1 4712 -1 221 -1 62 -1 113 -1 30 -2
557 -1 232 -1 113 -1 2726 -1 113 -1 2624 -1 1618 -1 312 -1 1057 -1 64 -1 155 -1 553 -1 6251 -1 1115 -1 30 -2