2 -1 #SUP: 40
3 -1 #SUP: 80
6 -1 #SUP: 3
7 -1 #SUP: 13
10 -1 #SUP: 28
15 -1 #SUP: 3
16 -1 #SUP: 17
22 -1 #SUP: 59
27 -1 #SUP: 21
29 -1 #SUP: 11
30 -1 #SUP: 13
31 -1 #SUP: 17
32 -1 #SUP: 30
33 -1 #SUP: 8
41 -1 #SUP: 46
42 -1 #SUP: 4
44 -1 #SUP: 2
50 -1 #SUP: 11
54 -1 #SUP: 4
64 -1 #SUP: 43
65 -1 #SUP: 37
66 -1 #SUP: 6
67 -1 #SUP: 2
69 -1 #SUP: 13
72 -1 #SUP: 3
76 -1 #SUP: 135
77 -1 #SUP: 13
81 -1 #SUP: 6
113 -1 #SUP: 76
115 -1 #SUP: 8
118 -1 #SUP: 7
123 -1 #SUP: 2
124 -1 #SUP: 6
131 -1 #SUP: 4
135 -1 #SUP: 2
137 -1 #SUP: 7
139 -1 #SUP: 6
141 -1 #SUP: 19
146 -1 #SUP: 2
148 -1 #SUP: 4
149 -1 #SUP: 9
150 -1 #SUP: 3
151 -1 #SUP: 39
153 -1 #SUP: 10
154 -1 #SUP: 4
156 -1 #SUP: 5
158 -1 #SUP: 3
160 -1 #SUP: 9
161 -1 #SUP: 9
163 -1 #SUP: 4
164 -1 #SUP: 2
165 -1 #SUP: 7
168 -1 #SUP: 3
179 -1 #SUP: 4
180 -1 #SUP: 2
182 -1 #SUP: 30
187 -1 #SUP: 4
189 -1 #SUP: 4
190 -1 #SUP: 5
194 -1 #SUP: 8
200 -1 #SUP: 6
201 -1 #SUP: 4
208 -1 #SUP: 12
209 -1 #SUP: 2
211 -1 #SUP: 2
213 -1 #SUP: 5
214 -1 #SUP: 6
221 -1 #SUP: 3
224 -1 #SUP: 24
234 -1 #SUP: 8
236 -1 #SUP: 8
242 -1 #SUP: 3
244 -1 #SUP: 6
248 -1 #SUP: 3
250 -1 #SUP: 20
256 -1 #SUP: 3
262 -1 #SUP: 2
264 -1 #SUP: 7
268 -1 #SUP: 4
273 -1 #SUP: 6
278 -1 #SUP: 7
282 -1 #SUP: 3
287 -1 #SUP: 2
296 -1 #SUP: 3
297 -1 #SUP: 2
304 -1 #SUP: 2
308 -1 #SUP: 8
312 -1 #SUP: 7
326 -1 #SUP: 4
340 -1 #SUP: 9
342 -1 #SUP: 8
348 -1 #SUP: 2
351 -1 #SUP: 2
355 -1 #SUP: 2
364 -1 #SUP: 3
371 -1 #SUP: 2
376 -1 #SUP: 2
385 -1 #SUP: 3
388 -1 #SUP: 2
394 -1 #SUP: 6
401 -1 #SUP: 3
403 -1 #SUP: 4
404 -1 #SUP: 2
406 -1 #SUP: 3
418 -1 #SUP: 3
419 -1 #SUP: 5
420 -1 #SUP: 3
421 -1 #SUP: 2
424 -1 #SUP: 3
434 -1 #SUP: 2
435 -1 #SUP: 2
436 -1 #SUP: 2
448 -1 #SUP: 2
453 -1 #SUP: 2
463 -1 #SUP: 4
469 -1 #SUP: 2
472 -1 #SUP: 2
474 -1 #SUP: 4
482 -1 #SUP: 4
484 -1 #SUP: 11
488 -1 #SUP: 2
489 -1 #SUP: 2
497 -1 #SUP: 4
503 -1 #SUP: 2
504 -1 #SUP: 6
506 -1 #SUP: 6
510 -1 #SUP: 5
527 -1 #SUP: 12
553 -1 #SUP: 2
557 -1 #SUP: 19
586 -1 #SUP: 3
596 -1 #SUP: 2
599 -1 #SUP: 3
602 -1 #SUP: 4
607 -1 #SUP: 4
617 -1 #SUP: 2
628 -1 #SUP: 2
638 -1 #SUP: 2
641 -1 #SUP: 2
642 -1 #SUP: 2
686 -1 #SUP: 2
687 -1 #SUP: 6
689 -1 #SUP: 2
690 -1 #SUP: 2
691 -1 #SUP: 2
692 -1 #SUP: 3
699 -1 #SUP: 2
758 -1 #SUP: 3
771 -1 #SUP: 8
773 -1 #SUP: 3
783 -1 #SUP: 2
791 -1 #SUP: 4
798 -1 #SUP: 5
814 -1 #SUP: 2
836 -1 #SUP: 2
853 -1 #SUP: 3
860 -1 #SUP: 2
864 -1 #SUP: 11
871 -1 #SUP: 2
872 -1 #SUP: 5
893 -1 #SUP: 2
902 -1 #SUP: 5
927 -1 #SUP: 2
929 -1 #SUP: 2
932 -1 #SUP: 3
936 -1 #SUP: 2
997 -1 #SUP: 4
1032 -1 #SUP: 2
1036 -1 #SUP: 3
1041 -1 #SUP: 2
1053 -1 #SUP: 2
1067 -1 #SUP: 2
1075 -1 #SUP: 5
1098 -1 #SUP: 2
1099 -1 #SUP: 3
1100 -1 #SUP: 2
1105 -1 #SUP: 2
1108 -1 #SUP: 2
1120 -1 #SUP: 2
1121 -1 #SUP: 2
1122 -1 #SUP: 2
1141 -1 #SUP: 3
1157 -1 #SUP: 5
1193 -1 #SUP: 2
1203 -1 #SUP: 9
1216 -1 #SUP: 2
1287 -1 #SUP: 3
1315 -1 #SUP: 2
1335 -1 #SUP: 2
1380 -1 #SUP: 2
1433 -1 #SUP: 3
1459 -1 #SUP: 3
1474 -1 #SUP: 2
1486 -1 #SUP: 2
1487 -1 #SUP: 3
1511 -1 #SUP: 2
1521 -1 #SUP: 3
1554 -1 #SUP: 3
1604 -1 #SUP: 2
1617 -1 #SUP: 4
1635 -1 #SUP: 2
1678 -1 #SUP: 2
1707 -1 #SUP: 2
1723 -1 #SUP: 2
1754 -1 #SUP: 2
1853 -1 #SUP: 2
1916 -1 #SUP: 2
2049 -1 #SUP: 2
2050 -1 #SUP: 4
2065 -1 #SUP: 3
2130 -1 #SUP: 2
2219 -1 #SUP: 2
2611 -1 #SUP: 2
2622 -1 #SUP: 4
2654 -1 #SUP: 3
2669 -1 #SUP: 2
2726 -1 #SUP: 2
2877 -1 #SUP: 3
2895 -1 #SUP: 4
2902 -1 #SUP: 4
2992 -1 #SUP: 2
2997 -1 #SUP: 2
3236 -1 #SUP: 5
3348 -1 #SUP: 5
3360 -1 #SUP: 2
3480 -1 #SUP: 2
5406 -1 #SUP: 2
6007 -1 #SUP: 2
12576 -1 #SUP: 2
2 -1 2 -1 #SUP: 3
2 -1 3 -1 #SUP: 3
2 -1 22 -1 #SUP: 5
2 -1 29 -1 #SUP: 3
2 -1 31 -1 #SUP: 2
2 -1 32 -1 #SUP: 6
2 -1 33 -1 #SUP: 2
2 -1 41 -1 #SUP: 2
2 -1 64 -1 #SUP: 7
2 -1 65 -1 #SUP: 5
2 -1 67 -1 #SUP: 2
2 -1 69 -1 #SUP: 2
2 -1 76 -1 #SUP: 14
2 -1 113 -1 #SUP: 12
2 -1 137 -1 #SUP: 2
2 -1 141 -1 #SUP: 4
2 -1 146 -1 #SUP: 2
2 -1 150 -1 #SUP: 2
2 -1 151 -1 #SUP: 4
2 -1 153 -1 #SUP: 3
2 -1 160 -1 #SUP: 3
2 -1 168 -1 #SUP: 2
2 -1 182 -1 #SUP: 3
2 -1 194 -1 #SUP: 2
2 -1 209 -1 #SUP: 2
2 -1 224 -1 #SUP: 2
2 -1 248 -1 #SUP: 2
2 -1 250 -1 #SUP: 3
2 -1 273 -1 #SUP: 2
2 -1 394 -1 #SUP: 2
2 -1 434 -1 #SUP: 2
2 -1 527 -1 #SUP: 3
2 -1 602 -1 #SUP: 2
2 -1 771 -1 #SUP: 2
2 -1 997 -1 #SUP: 4
2 -1 1141 -1 #SUP: 2
2 -1 1617 -1 #SUP: 2
2 -1 2622 -1 #SUP: 3
3 -1 2 -1 #SUP: 6
3 -1 3 -1 #SUP: 15
3 -1 7 -1 #SUP: 3
3 -1 10 -1 #SUP: 4
3 -1 16 -1 #SUP: 7
3 -1 22 -1 #SUP: 17
3 -1 27 -1 #SUP: 7
3 -1 29 -1 #SUP: 4
3 -1 30 -1 #SUP: 2
3 -1 31 -1 #SUP: 3
3 -1 32 -1 #SUP: 6
3 -1 41 -1 #SUP: 10
3 -1 50 -1 #SUP: 2
3 -1 64 -1 #SUP: 11
3 -1 65 -1 #SUP: 8
3 -1 76 -1 #SUP: 20
3 -1 77 -1 #SUP: 2
3 -1 113 -1 #SUP: 9
3 -1 115 -1 #SUP: 2
3 -1 118 -1 #SUP: 3
3 -1 124 -1 #SUP: 4
3 -1 137 -1 #SUP: 3
3 -1 141 -1 #SUP: 4
3 -1 148 -1 #SUP: 2
3 -1 149 -1 #SUP: 3
3 -1 150 -1 #SUP: 2
3 -1 151 -1 #SUP: 12
3 -1 153 -1 #SUP: 4
3 -1 156 -1 #SUP: 3
3 -1 160 -1 #SUP: 3
3 -1 163 -1 #SUP: 2
3 -1 165 -1 #SUP: 2
3 -1 182 -1 #SUP: 7
3 -1 201 -1 #SUP: 2
3 -1 214 -1 #SUP: 3
3 -1 224 -1 #SUP: 2
3 -1 234 -1 #SUP: 2
3 -1 236 -1 #SUP: 3
3 -1 244 -1 #SUP: 3
3 -1 250 -1 #SUP: 5
3 -1 264 -1 #SUP: 3
3 -1 273 -1 #SUP: 3
3 -1 394 -1 #SUP: 2
3 -1 406 -1 #SUP: 2
3 -1 419 -1 #SUP: 2
3 -1 474 -1 #SUP: 2
3 -1 484 -1 #SUP: 2
3 -1 557 -1 #SUP: 9
3 -1 586 -1 #SUP: 2
3 -1 617 -1 #SUP: 2
3 -1 687 -1 #SUP: 2
3 -1 690 -1 #SUP: 2
3 -1 773 -1 #SUP: 3
3 -1 791 -1 #SUP: 3
3 -1 902 -1 #SUP: 2
3 -1 932 -1 #SUP: 2
3 -1 1036 -1 #SUP: 2
3 -1 1067 -1 #SUP: 2
3 -1 1098 -1 #SUP: 2
3 -1 1287 -1 #SUP: 2
3 -1 1511 -1 #SUP: 2
3 -1 1617 -1 #SUP: 2
3 -1 1853 -1 #SUP: 2
3 -1 2902 -1 #SUP: 2
3 -1 2992 -1 #SUP: 2
3 -1 3348 -1 #SUP: 4
6 -1 76 -1 #SUP: 2
7 -1 3 -1 #SUP: 4
7 -1 10 -1 #SUP: 3
7 -1 29 -1 #SUP: 2
7 -1 31 -1 #SUP: 3
7 -1 32 -1 #SUP: 2
7 -1 41 -1 #SUP: 2
7 -1 64 -1 #SUP: 6
7 -1 65 -1 #SUP: 3
7 -1 149 -1 #SUP: 2
7 -1 151 -1 #SUP: 3
7 -1 160 -1 #SUP: 2
7 -1 163 -1 #SUP: 2
7 -1 182 -1 #SUP: 2
7 -1 208 -1 #SUP: 2
7 -1 250 -1 #SUP: 4
7 -1 312 -1 #SUP: 2
7 -1 403 -1 #SUP: 2
10 -1 2 -1 #SUP: 2
10 -1 3 -1 #SUP: 4
10 -1 7 -1 #SUP: 2
10 -1 10 -1 #SUP: 2
10 -1 22 -1 #SUP: 7
10 -1 32 -1 #SUP: 4
10 -1 41 -1 #SUP: 4
10 -1 50 -1 #SUP: 3
10 -1 65 -1 #SUP: 9
10 -1 66 -1 #SUP: 3
10 -1 69 -1 #SUP: 2
10 -1 76 -1 #SUP: 12
10 -1 77 -1 #SUP: 2
10 -1 113 -1 #SUP: 4
10 -1 151 -1 #SUP: 7
10 -1 182 -1 #SUP: 3
10 -1 250 -1 #SUP: 2
10 -1 312 -1 #SUP: 2
10 -1 783 -1 #SUP: 2
10 -1 791 -1 #SUP: 2
10 -1 864 -1 #SUP: 8
10 -1 1635 -1 #SUP: 2
10 -1 5406 -1 #SUP: 2
15 -1 64 -1 #SUP: 2
16 -1 3 -1 #SUP: 3
16 -1 22 -1 #SUP: 5
16 -1 27 -1 #SUP: 2
16 -1 41 -1 #SUP: 6
16 -1 64 -1 #SUP: 3
16 -1 76 -1 #SUP: 3
16 -1 124 -1 #SUP: 3
16 -1 182 -1 #SUP: 3
16 -1 278 -1 #SUP: 2
16 -1 1075 -1 #SUP: 3
22 -1 2 -1 #SUP: 6
22 -1 3 -1 #SUP: 16
22 -1 10 -1 #SUP: 2
22 -1 15 -1 #SUP: 2
22 -1 16 -1 #SUP: 3
22 -1 22 -1 #SUP: 9
22 -1 27 -1 #SUP: 4
22 -1 29 -1 #SUP: 2
22 -1 30 -1 #SUP: 2
22 -1 32 -1 #SUP: 12
22 -1 41 -1 #SUP: 8
22 -1 54 -1 #SUP: 2
22 -1 64 -1 #SUP: 8
22 -1 66 -1 #SUP: 3
22 -1 72 -1 #SUP: 2
22 -1 76 -1 #SUP: 18
22 -1 77 -1 #SUP: 3
22 -1 113 -1 #SUP: 8
22 -1 115 -1 #SUP: 2
22 -1 118 -1 #SUP: 3
22 -1 124 -1 #SUP: 2
22 -1 141 -1 #SUP: 2
22 -1 151 -1 #SUP: 9
22 -1 153 -1 #SUP: 2
22 -1 165 -1 #SUP: 3
22 -1 182 -1 #SUP: 6
22 -1 189 -1 #SUP: 2
22 -1 201 -1 #SUP: 2
22 -1 208 -1 #SUP: 2
22 -1 224 -1 #SUP: 3
22 -1 234 -1 #SUP: 2
22 -1 236 -1 #SUP: 2
22 -1 256 -1 #SUP: 2
22 -1 278 -1 #SUP: 2
22 -1 312 -1 #SUP: 2
22 -1 394 -1 #SUP: 3
22 -1 406 -1 #SUP: 2
22 -1 419 -1 #SUP: 2
22 -1 420 -1 #SUP: 3
22 -1 463 -1 #SUP: 2
22 -1 504 -1 #SUP: 2
22 -1 557 -1 #SUP: 3
22 -1 617 -1 #SUP: 2
22 -1 687 -1 #SUP: 3
22 -1 691 -1 #SUP: 2
22 -1 773 -1 #SUP: 2
22 -1 864 -1 #SUP: 5
22 -1 902 -1 #SUP: 2
22 -1 932 -1 #SUP: 2
22 -1 1099 -1 #SUP: 2
22 -1 1141 -1 #SUP: 2
22 -1 1157 -1 #SUP: 2
22 -1 1203 -1 #SUP: 3
22 -1 1287 -1 #SUP: 2
22 -1 1459 -1 #SUP: 2
22 -1 2654 -1 #SUP: 3
22 -1 2669 -1 #SUP: 2
22 -1 3236 -1 #SUP: 3
22 -1 5406 -1 #SUP: 2
27 -1 3 -1 #SUP: 6
27 -1 27 -1 #SUP: 3
27 -1 41 -1 #SUP: 5
27 -1 64 -1 #SUP: 3
27 -1 65 -1 #SUP: 2
27 -1 76 -1 #SUP: 5
27 -1 113 -1 #SUP: 7
27 -1 124 -1 #SUP: 4
27 -1 141 -1 #SUP: 4
27 -1 151 -1 #SUP: 2
27 -1 156 -1 #SUP: 2
27 -1 160 -1 #SUP: 2
27 -1 182 -1 #SUP: 2
27 -1 557 -1 #SUP: 3
27 -1 836 -1 #SUP: 2
29 -1 2 -1 #SUP: 2
29 -1 3 -1 #SUP: 3
29 -1 16 -1 #SUP: 3
29 -1 31 -1 #SUP: 2
29 -1 76 -1 #SUP: 3
29 -1 149 -1 #SUP: 2
30 -1 3 -1 #SUP: 3
30 -1 22 -1 #SUP: 2
30 -1 30 -1 #SUP: 6
30 -1 65 -1 #SUP: 3
30 -1 113 -1 #SUP: 2
30 -1 151 -1 #SUP: 2
31 -1 2 -1 #SUP: 4
31 -1 3 -1 #SUP: 4
31 -1 22 -1 #SUP: 4
31 -1 32 -1 #SUP: 2
31 -1 76 -1 #SUP: 7
31 -1 113 -1 #SUP: 2
31 -1 115 -1 #SUP: 2
31 -1 149 -1 #SUP: 2
31 -1 153 -1 #SUP: 3
31 -1 182 -1 #SUP: 2
31 -1 250 -1 #SUP: 2
31 -1 596 -1 #SUP: 2
31 -1 1723 -1 #SUP: 2
32 -1 2 -1 #SUP: 7
32 -1 3 -1 #SUP: 4
32 -1 22 -1 #SUP: 3
32 -1 27 -1 #SUP: 2
32 -1 29 -1 #SUP: 2
32 -1 31 -1 #SUP: 3
32 -1 41 -1 #SUP: 2
32 -1 50 -1 #SUP: 2
32 -1 65 -1 #SUP: 6
32 -1 76 -1 #SUP: 8
32 -1 113 -1 #SUP: 4
32 -1 124 -1 #SUP: 2
32 -1 149 -1 #SUP: 2
32 -1 151 -1 #SUP: 3
32 -1 153 -1 #SUP: 2
32 -1 168 -1 #SUP: 2
32 -1 182 -1 #SUP: 4
32 -1 224 -1 #SUP: 2
32 -1 242 -1 #SUP: 2
32 -1 268 -1 #SUP: 2
32 -1 488 -1 #SUP: 2
32 -1 503 -1 #SUP: 2
32 -1 2622 -1 #SUP: 2
33 -1 3 -1 #SUP: 2
33 -1 22 -1 #SUP: 2
33 -1 65 -1 #SUP: 2
33 -1 76 -1 #SUP: 4
33 -1 602 -1 #SUP: 2
41 -1 2 -1 #SUP: 4
41 -1 3 -1 #SUP: 12
41 -1 7 -1 #SUP: 3
41 -1 10 -1 #SUP: 2
41 -1 22 -1 #SUP: 3
41 -1 27 -1 #SUP: 2
41 -1 29 -1 #SUP: 5
41 -1 31 -1 #SUP: 6
41 -1 32 -1 #SUP: 3
41 -1 41 -1 #SUP: 6
41 -1 64 -1 #SUP: 7
41 -1 65 -1 #SUP: 5
41 -1 76 -1 #SUP: 12
41 -1 113 -1 #SUP: 3
41 -1 118 -1 #SUP: 2
41 -1 124 -1 #SUP: 4
41 -1 139 -1 #SUP: 2
41 -1 141 -1 #SUP: 7
41 -1 151 -1 #SUP: 6
41 -1 154 -1 #SUP: 2
41 -1 156 -1 #SUP: 3
41 -1 182 -1 #SUP: 3
41 -1 187 -1 #SUP: 2
41 -1 208 -1 #SUP: 3
41 -1 224 -1 #SUP: 2
41 -1 250 -1 #SUP: 4
41 -1 278 -1 #SUP: 2
41 -1 340 -1 #SUP: 2
41 -1 463 -1 #SUP: 2
41 -1 497 -1 #SUP: 3
41 -1 557 -1 #SUP: 3
41 -1 599 -1 #SUP: 2
41 -1 771 -1 #SUP: 2
41 -1 798 -1 #SUP: 3
41 -1 836 -1 #SUP: 2
41 -1 872 -1 #SUP: 2
41 -1 2895 -1 #SUP: 2
42 -1 7 -1 #SUP: 2
42 -1 64 -1 #SUP: 2
42 -1 76 -1 #SUP: 3
42 -1 113 -1 #SUP: 4
44 -1 76 -1 #SUP: 2
44 -1 113 -1 #SUP: 2
50 -1 3 -1 #SUP: 3
50 -1 6 -1 #SUP: 3
50 -1 22 -1 #SUP: 2
50 -1 64 -1 #SUP: 4
50 -1 65 -1 #SUP: 2
50 -1 76 -1 #SUP: 4
50 -1 244 -1 #SUP: 2
50 -1 304 -1 #SUP: 2
50 -1 932 -1 #SUP: 2
54 -1 3 -1 #SUP: 2
54 -1 64 -1 #SUP: 3
54 -1 76 -1 #SUP: 3
64 -1 2 -1 #SUP: 2
64 -1 3 -1 #SUP: 9
64 -1 7 -1 #SUP: 2
64 -1 10 -1 #SUP: 3
64 -1 22 -1 #SUP: 6
64 -1 27 -1 #SUP: 3
64 -1 29 -1 #SUP: 4
64 -1 30 -1 #SUP: 3
64 -1 31 -1 #SUP: 4
64 -1 32 -1 #SUP: 3
64 -1 42 -1 #SUP: 2
64 -1 50 -1 #SUP: 2
64 -1 54 -1 #SUP: 2
64 -1 64 -1 #SUP: 4
64 -1 65 -1 #SUP: 3
64 -1 66 -1 #SUP: 2
64 -1 76 -1 #SUP: 12
64 -1 113 -1 #SUP: 9
64 -1 139 -1 #SUP: 2
64 -1 141 -1 #SUP: 7
64 -1 149 -1 #SUP: 3
64 -1 151 -1 #SUP: 5
64 -1 153 -1 #SUP: 2
64 -1 160 -1 #SUP: 3
64 -1 182 -1 #SUP: 6
64 -1 187 -1 #SUP: 3
64 -1 194 -1 #SUP: 2
64 -1 200 -1 #SUP: 2
64 -1 208 -1 #SUP: 2
64 -1 250 -1 #SUP: 3
64 -1 264 -1 #SUP: 2
64 -1 273 -1 #SUP: 3
64 -1 557 -1 #SUP: 2
64 -1 586 -1 #SUP: 2
64 -1 617 -1 #SUP: 2
64 -1 692 -1 #SUP: 2
64 -1 791 -1 #SUP: 2
64 -1 1099 -1 #SUP: 2
64 -1 1141 -1 #SUP: 2
64 -1 1487 -1 #SUP: 2
64 -1 1554 -1 #SUP: 2
64 -1 2895 -1 #SUP: 2
64 -1 2902 -1 #SUP: 2
65 -1 2 -1 #SUP: 6
65 -1 3 -1 #SUP: 5
65 -1 10 -1 #SUP: 3
65 -1 22 -1 #SUP: 7
65 -1 31 -1 #SUP: 7
65 -1 32 -1 #SUP: 6
65 -1 41 -1 #SUP: 2
65 -1 64 -1 #SUP: 4
65 -1 65 -1 #SUP: 4
65 -1 76 -1 #SUP: 13
65 -1 113 -1 #SUP: 6
65 -1 135 -1 #SUP: 2
65 -1 149 -1 #SUP: 2
65 -1 151 -1 #SUP: 7
65 -1 161 -1 #SUP: 2
65 -1 182 -1 #SUP: 4
65 -1 208 -1 #SUP: 2
65 -1 248 -1 #SUP: 2
65 -1 264 -1 #SUP: 3
65 -1 273 -1 #SUP: 2
65 -1 348 -1 #SUP: 2
65 -1 404 -1 #SUP: 2
65 -1 484 -1 #SUP: 2
65 -1 488 -1 #SUP: 2
65 -1 527 -1 #SUP: 2
65 -1 607 -1 #SUP: 3
65 -1 791 -1 #SUP: 2
65 -1 864 -1 #SUP: 3
65 -1 1100 -1 #SUP: 2
65 -1 2622 -1 #SUP: 2
65 -1 3480 -1 #SUP: 2
65 -1 6007 -1 #SUP: 2
66 -1 2 -1 #SUP: 3
66 -1 22 -1 #SUP: 2
66 -1 41 -1 #SUP: 2
66 -1 76 -1 #SUP: 2
69 -1 2 -1 #SUP: 2
69 -1 3 -1 #SUP: 2
69 -1 10 -1 #SUP: 3
69 -1 22 -1 #SUP: 3
69 -1 29 -1 #SUP: 2
69 -1 65 -1 #SUP: 7
69 -1 76 -1 #SUP: 5
69 -1 113 -1 #SUP: 2
69 -1 151 -1 #SUP: 2
69 -1 484 -1 #SUP: 2
69 -1 864 -1 #SUP: 2
69 -1 2065 -1 #SUP: 2
72 -1 3 -1 #SUP: 2
76 -1 2 -1 #SUP: 16
76 -1 3 -1 #SUP: 19
76 -1 6 -1 #SUP: 2
76 -1 7 -1 #SUP: 6
76 -1 10 -1 #SUP: 7
76 -1 16 -1 #SUP: 9
76 -1 22 -1 #SUP: 18
76 -1 27 -1 #SUP: 9
76 -1 29 -1 #SUP: 3
76 -1 31 -1 #SUP: 8
76 -1 32 -1 #SUP: 14
76 -1 33 -1 #SUP: 2
76 -1 41 -1 #SUP: 16
76 -1 50 -1 #SUP: 6
76 -1 64 -1 #SUP: 18
76 -1 65 -1 #SUP: 14
76 -1 66 -1 #SUP: 2
76 -1 69 -1 #SUP: 5
76 -1 72 -1 #SUP: 3
76 -1 76 -1 #SUP: 31
76 -1 77 -1 #SUP: 4
76 -1 81 -1 #SUP: 4
76 -1 113 -1 #SUP: 25
76 -1 115 -1 #SUP: 3
76 -1 118 -1 #SUP: 3
76 -1 124 -1 #SUP: 2
76 -1 141 -1 #SUP: 9
76 -1 146 -1 #SUP: 2
76 -1 148 -1 #SUP: 2
76 -1 149 -1 #SUP: 4
76 -1 150 -1 #SUP: 2
76 -1 151 -1 #SUP: 12
76 -1 153 -1 #SUP: 3
76 -1 154 -1 #SUP: 2
76 -1 156 -1 #SUP: 2
76 -1 158 -1 #SUP: 2
76 -1 161 -1 #SUP: 6
76 -1 163 -1 #SUP: 2
76 -1 164 -1 #SUP: 2
76 -1 165 -1 #SUP: 4
76 -1 179 -1 #SUP: 2
76 -1 182 -1 #SUP: 13
76 -1 187 -1 #SUP: 2
76 -1 189 -1 #SUP: 2
76 -1 190 -1 #SUP: 2
76 -1 194 -1 #SUP: 2
76 -1 200 -1 #SUP: 2
76 -1 208 -1 #SUP: 5
76 -1 224 -1 #SUP: 9
76 -1 234 -1 #SUP: 3
76 -1 236 -1 #SUP: 3
76 -1 242 -1 #SUP: 2
76 -1 248 -1 #SUP: 2
76 -1 250 -1 #SUP: 6
76 -1 264 -1 #SUP: 2
76 -1 273 -1 #SUP: 2
76 -1 278 -1 #SUP: 3
76 -1 296 -1 #SUP: 2
76 -1 326 -1 #SUP: 2
76 -1 340 -1 #SUP: 3
76 -1 342 -1 #SUP: 5
76 -1 348 -1 #SUP: 2
76 -1 385 -1 #SUP: 2
76 -1 394 -1 #SUP: 3
76 -1 403 -1 #SUP: 2
76 -1 404 -1 #SUP: 2
76 -1 406 -1 #SUP: 2
76 -1 419 -1 #SUP: 3
76 -1 424 -1 #SUP: 2
76 -1 463 -1 #SUP: 2
76 -1 474 -1 #SUP: 2
76 -1 484 -1 #SUP: 6
76 -1 497 -1 #SUP: 3
76 -1 504 -1 #SUP: 2
76 -1 506 -1 #SUP: 2
76 -1 510 -1 #SUP: 2
76 -1 527 -1 #SUP: 7
76 -1 553 -1 #SUP: 2
76 -1 557 -1 #SUP: 16
76 -1 599 -1 #SUP: 2
76 -1 602 -1 #SUP: 2
76 -1 607 -1 #SUP: 2
76 -1 641 -1 #SUP: 2
76 -1 687 -1 #SUP: 2
76 -1 692 -1 #SUP: 3
76 -1 771 -1 #SUP: 4
76 -1 798 -1 #SUP: 3
76 -1 853 -1 #SUP: 2
76 -1 864 -1 #SUP: 4
76 -1 871 -1 #SUP: 2
76 -1 929 -1 #SUP: 2
76 -1 1036 -1 #SUP: 2
76 -1 1075 -1 #SUP: 3
76 -1 1099 -1 #SUP: 3
76 -1 1100 -1 #SUP: 2
76 -1 1105 -1 #SUP: 2
76 -1 1203 -1 #SUP: 4
76 -1 1216 -1 #SUP: 2
76 -1 1433 -1 #SUP: 2
76 -1 1521 -1 #SUP: 2
76 -1 1617 -1 #SUP: 3
76 -1 1723 -1 #SUP: 2
76 -1 1754 -1 #SUP: 2
76 -1 2065 -1 #SUP: 2
76 -1 2877 -1 #SUP: 3
76 -1 3236 -1 #SUP: 4
77 -1 3 -1 #SUP: 2
77 -1 64 -1 #SUP: 2
77 -1 65 -1 #SUP: 4
77 -1 76 -1 #SUP: 6
77 -1 77 -1 #SUP: 3
77 -1 244 -1 #SUP: 2
77 -1 557 -1 #SUP: 2
77 -1 1053 -1 #SUP: 2
81 -1 64 -1 #SUP: 5
81 -1 113 -1 #SUP: 2
81 -1 187 -1 #SUP: 3
113 -1 2 -1 #SUP: 7
113 -1 3 -1 #SUP: 14
113 -1 7 -1 #SUP: 6
113 -1 10 -1 #SUP: 5
113 -1 16 -1 #SUP: 7
113 -1 22 -1 #SUP: 10
113 -1 27 -1 #SUP: 4
113 -1 29 -1 #SUP: 2
113 -1 31 -1 #SUP: 4
113 -1 32 -1 #SUP: 9
113 -1 41 -1 #SUP: 6
113 -1 42 -1 #SUP: 2
113 -1 50 -1 #SUP: 3
113 -1 54 -1 #SUP: 2
113 -1 64 -1 #SUP: 11
113 -1 65 -1 #SUP: 10
113 -1 66 -1 #SUP: 2
113 -1 69 -1 #SUP: 3
113 -1 72 -1 #SUP: 2
113 -1 76 -1 #SUP: 20
113 -1 81 -1 #SUP: 3
113 -1 113 -1 #SUP: 14
113 -1 115 -1 #SUP: 2
113 -1 118 -1 #SUP: 3
113 -1 124 -1 #SUP: 3
113 -1 135 -1 #SUP: 2
113 -1 139 -1 #SUP: 4
113 -1 141 -1 #SUP: 6
113 -1 149 -1 #SUP: 2
113 -1 151 -1 #SUP: 13
113 -1 156 -1 #SUP: 2
113 -1 160 -1 #SUP: 3
113 -1 161 -1 #SUP: 4
113 -1 168 -1 #SUP: 3
113 -1 182 -1 #SUP: 12
113 -1 194 -1 #SUP: 6
113 -1 200 -1 #SUP: 2
113 -1 208 -1 #SUP: 3
113 -1 214 -1 #SUP: 2
113 -1 224 -1 #SUP: 4
113 -1 236 -1 #SUP: 2
113 -1 244 -1 #SUP: 3
113 -1 248 -1 #SUP: 2
113 -1 250 -1 #SUP: 5
113 -1 262 -1 #SUP: 2
113 -1 264 -1 #SUP: 3
113 -1 308 -1 #SUP: 5
113 -1 312 -1 #SUP: 2
113 -1 326 -1 #SUP: 2
113 -1 340 -1 #SUP: 3
113 -1 342 -1 #SUP: 2
113 -1 403 -1 #SUP: 3
113 -1 418 -1 #SUP: 2
113 -1 419 -1 #SUP: 2
113 -1 463 -1 #SUP: 2
113 -1 482 -1 #SUP: 2
113 -1 484 -1 #SUP: 2
113 -1 504 -1 #SUP: 2
113 -1 506 -1 #SUP: 2
113 -1 510 -1 #SUP: 3
113 -1 527 -1 #SUP: 4
113 -1 557 -1 #SUP: 5
113 -1 687 -1 #SUP: 3
113 -1 814 -1 #SUP: 2
113 -1 893 -1 #SUP: 2
113 -1 1203 -1 #SUP: 3
113 -1 2130 -1 #SUP: 2
113 -1 2726 -1 #SUP: 2
113 -1 2992 -1 #SUP: 2
115 -1 2 -1 #SUP: 2
115 -1 22 -1 #SUP: 3
115 -1 76 -1 #SUP: 2
115 -1 1203 -1 #SUP: 3
118 -1 76 -1 #SUP: 2
137 -1 3 -1 #SUP: 3
137 -1 22 -1 #SUP: 2
137 -1 64 -1 #SUP: 2
137 -1 65 -1 #SUP: 2
137 -1 76 -1 #SUP: 3
137 -1 406 -1 #SUP: 2
137 -1 2902 -1 #SUP: 2
139 -1 2 -1 #SUP: 2
139 -1 32 -1 #SUP: 2
139 -1 76 -1 #SUP: 2
139 -1 160 -1 #SUP: 2
139 -1 244 -1 #SUP: 3
141 -1 3 -1 #SUP: 4
141 -1 16 -1 #SUP: 2
141 -1 31 -1 #SUP: 2
141 -1 41 -1 #SUP: 2
141 -1 64 -1 #SUP: 2
141 -1 65 -1 #SUP: 3
141 -1 76 -1 #SUP: 9
141 -1 113 -1 #SUP: 2
141 -1 141 -1 #SUP: 2
141 -1 151 -1 #SUP: 4
141 -1 182 -1 #SUP: 4
141 -1 208 -1 #SUP: 2
141 -1 557 -1 #SUP: 2
148 -1 76 -1 #SUP: 2
148 -1 150 -1 #SUP: 2
148 -1 2611 -1 #SUP: 2
149 -1 41 -1 #SUP: 2
149 -1 76 -1 #SUP: 2
149 -1 137 -1 #SUP: 2
149 -1 151 -1 #SUP: 2
149 -1 153 -1 #SUP: 3
149 -1 208 -1 #SUP: 2
149 -1 221 -1 #SUP: 2
149 -1 224 -1 #SUP: 2
149 -1 250 -1 #SUP: 2
149 -1 557 -1 #SUP: 2
149 -1 902 -1 #SUP: 2
151 -1 2 -1 #SUP: 5
151 -1 3 -1 #SUP: 12
151 -1 10 -1 #SUP: 3
151 -1 16 -1 #SUP: 4
151 -1 22 -1 #SUP: 11
151 -1 27 -1 #SUP: 2
151 -1 32 -1 #SUP: 7
151 -1 41 -1 #SUP: 4
151 -1 64 -1 #SUP: 5
151 -1 66 -1 #SUP: 3
151 -1 72 -1 #SUP: 2
151 -1 76 -1 #SUP: 13
151 -1 113 -1 #SUP: 7
151 -1 118 -1 #SUP: 2
151 -1 124 -1 #SUP: 2
151 -1 141 -1 #SUP: 5
151 -1 153 -1 #SUP: 3
151 -1 160 -1 #SUP: 2
151 -1 161 -1 #SUP: 2
151 -1 182 -1 #SUP: 6
151 -1 208 -1 #SUP: 2
151 -1 214 -1 #SUP: 2
151 -1 224 -1 #SUP: 2
151 -1 236 -1 #SUP: 4
151 -1 463 -1 #SUP: 2
151 -1 510 -1 #SUP: 2
151 -1 687 -1 #SUP: 2
151 -1 864 -1 #SUP: 3
153 -1 3 -1 #SUP: 2
153 -1 22 -1 #SUP: 2
153 -1 64 -1 #SUP: 2
153 -1 76 -1 #SUP: 2
153 -1 137 -1 #SUP: 2
153 -1 151 -1 #SUP: 3
153 -1 250 -1 #SUP: 2
154 -1 76 -1 #SUP: 2
154 -1 113 -1 #SUP: 2
156 -1 3 -1 #SUP: 2
156 -1 64 -1 #SUP: 3
156 -1 76 -1 #SUP: 2
158 -1 113 -1 #SUP: 3
160 -1 3 -1 #SUP: 2
160 -1 22 -1 #SUP: 2
160 -1 32 -1 #SUP: 2
160 -1 76 -1 #SUP: 3
160 -1 137 -1 #SUP: 2
160 -1 312 -1 #SUP: 2
161 -1 2 -1 #SUP: 2
161 -1 7 -1 #SUP: 2
161 -1 10 -1 #SUP: 2
161 -1 22 -1 #SUP: 4
161 -1 32 -1 #SUP: 3
161 -1 113 -1 #SUP: 3
161 -1 151 -1 #SUP: 2
161 -1 340 -1 #SUP: 2
165 -1 41 -1 #SUP: 2
165 -1 798 -1 #SUP: 2
168 -1 22 -1 #SUP: 2
168 -1 64 -1 #SUP: 2
179 -1 76 -1 #SUP: 3
179 -1 113 -1 #SUP: 2
179 -1 151 -1 #SUP: 2
179 -1 406 -1 #SUP: 2
182 -1 2 -1 #SUP: 4
182 -1 3 -1 #SUP: 6
182 -1 10 -1 #SUP: 2
182 -1 16 -1 #SUP: 2
182 -1 22 -1 #SUP: 8
182 -1 27 -1 #SUP: 3
182 -1 31 -1 #SUP: 4
182 -1 32 -1 #SUP: 2
182 -1 33 -1 #SUP: 3
182 -1 41 -1 #SUP: 5
182 -1 64 -1 #SUP: 3
182 -1 65 -1 #SUP: 2
182 -1 66 -1 #SUP: 3
182 -1 76 -1 #SUP: 11
182 -1 113 -1 #SUP: 3
182 -1 124 -1 #SUP: 2
182 -1 141 -1 #SUP: 3
182 -1 151 -1 #SUP: 4
182 -1 182 -1 #SUP: 2
182 -1 214 -1 #SUP: 2
182 -1 557 -1 #SUP: 2
182 -1 602 -1 #SUP: 2
182 -1 687 -1 #SUP: 2
182 -1 1036 -1 #SUP: 2
182 -1 1287 -1 #SUP: 2
182 -1 1617 -1 #SUP: 2
187 -1 29 -1 #SUP: 2
189 -1 3 -1 #SUP: 2
190 -1 3 -1 #SUP: 5
190 -1 65 -1 #SUP: 2
190 -1 76 -1 #SUP: 2
194 -1 3 -1 #SUP: 4
194 -1 32 -1 #SUP: 2
194 -1 65 -1 #SUP: 4
194 -1 69 -1 #SUP: 2
194 -1 76 -1 #SUP: 4
194 -1 113 -1 #SUP: 2
194 -1 141 -1 #SUP: 2
194 -1 151 -1 #SUP: 4
194 -1 264 -1 #SUP: 2
200 -1 22 -1 #SUP: 3
200 -1 76 -1 #SUP: 3
200 -1 151 -1 #SUP: 3
201 -1 76 -1 #SUP: 2
208 -1 3 -1 #SUP: 2
208 -1 10 -1 #SUP: 2
208 -1 65 -1 #SUP: 2
208 -1 141 -1 #SUP: 2
209 -1 22 -1 #SUP: 2
209 -1 31 -1 #SUP: 2
211 -1 65 -1 #SUP: 2
213 -1 3 -1 #SUP: 2
213 -1 76 -1 #SUP: 3
213 -1 131 -1 #SUP: 2
213 -1 557 -1 #SUP: 2
214 -1 3 -1 #SUP: 3
214 -1 22 -1 #SUP: 2
221 -1 22 -1 #SUP: 2
224 -1 2 -1 #SUP: 2
224 -1 3 -1 #SUP: 5
224 -1 27 -1 #SUP: 2
224 -1 31 -1 #SUP: 3
224 -1 41 -1 #SUP: 10
224 -1 64 -1 #SUP: 2
224 -1 65 -1 #SUP: 4
224 -1 76 -1 #SUP: 14
224 -1 113 -1 #SUP: 4
224 -1 141 -1 #SUP: 4
224 -1 151 -1 #SUP: 6
224 -1 154 -1 #SUP: 2
224 -1 156 -1 #SUP: 2
224 -1 161 -1 #SUP: 3
224 -1 182 -1 #SUP: 3
224 -1 200 -1 #SUP: 2
224 -1 236 -1 #SUP: 4
224 -1 264 -1 #SUP: 3
224 -1 296 -1 #SUP: 2
224 -1 340 -1 #SUP: 2
224 -1 506 -1 #SUP: 2
224 -1 527 -1 #SUP: 2
224 -1 557 -1 #SUP: 2
224 -1 872 -1 #SUP: 2
224 -1 1105 -1 #SUP: 2
224 -1 1203 -1 #SUP: 2
224 -1 3480 -1 #SUP: 2
234 -1 22 -1 #SUP: 2
234 -1 76 -1 #SUP: 5
236 -1 16 -1 #SUP: 2
236 -1 76 -1 #SUP: 2
236 -1 506 -1 #SUP: 2
244 -1 22 -1 #SUP: 3
244 -1 64 -1 #SUP: 3
250 -1 2 -1 #SUP: 2
250 -1 3 -1 #SUP: 5
250 -1 7 -1 #SUP: 2
250 -1 16 -1 #SUP: 3
250 -1 22 -1 #SUP: 3
250 -1 31 -1 #SUP: 2
250 -1 32 -1 #SUP: 2
250 -1 41 -1 #SUP: 4
250 -1 64 -1 #SUP: 2
250 -1 76 -1 #SUP: 5
250 -1 77 -1 #SUP: 2
250 -1 113 -1 #SUP: 2
250 -1 137 -1 #SUP: 2
250 -1 165 -1 #SUP: 2
250 -1 557 -1 #SUP: 2
250 -1 902 -1 #SUP: 2
250 -1 1380 -1 #SUP: 2
250 -1 2050 -1 #SUP: 2
256 -1 41 -1 #SUP: 2
256 -1 76 -1 #SUP: 2
264 -1 76 -1 #SUP: 2
264 -1 113 -1 #SUP: 4
264 -1 151 -1 #SUP: 2
273 -1 3 -1 #SUP: 2
273 -1 29 -1 #SUP: 3
273 -1 31 -1 #SUP: 2
273 -1 41 -1 #SUP: 2
273 -1 1487 -1 #SUP: 2
273 -1 2895 -1 #SUP: 2
278 -1 76 -1 #SUP: 3
278 -1 208 -1 #SUP: 3
308 -1 3 -1 #SUP: 2
308 -1 41 -1 #SUP: 2
308 -1 76 -1 #SUP: 2
308 -1 139 -1 #SUP: 2
308 -1 179 -1 #SUP: 2
308 -1 244 -1 #SUP: 2
308 -1 268 -1 #SUP: 2
308 -1 418 -1 #SUP: 2
312 -1 3 -1 #SUP: 2
312 -1 41 -1 #SUP: 2
340 -1 7 -1 #SUP: 3
340 -1 10 -1 #SUP: 3
340 -1 22 -1 #SUP: 2
340 -1 31 -1 #SUP: 3
340 -1 32 -1 #SUP: 2
340 -1 41 -1 #SUP: 2
340 -1 42 -1 #SUP: 2
340 -1 64 -1 #SUP: 3
340 -1 65 -1 #SUP: 2
340 -1 76 -1 #SUP: 6
340 -1 113 -1 #SUP: 5
340 -1 151 -1 #SUP: 2
340 -1 504 -1 #SUP: 2
342 -1 16 -1 #SUP: 5
342 -1 22 -1 #SUP: 2
342 -1 27 -1 #SUP: 2
342 -1 41 -1 #SUP: 4
342 -1 64 -1 #SUP: 2
342 -1 76 -1 #SUP: 2
342 -1 113 -1 #SUP: 2
342 -1 124 -1 #SUP: 2
342 -1 250 -1 #SUP: 2
342 -1 453 -1 #SUP: 2
342 -1 1075 -1 #SUP: 5
342 -1 1203 -1 #SUP: 2
364 -1 50 -1 #SUP: 2
364 -1 76 -1 #SUP: 2
394 -1 32 -1 #SUP: 2
394 -1 65 -1 #SUP: 3
394 -1 76 -1 #SUP: 2
394 -1 182 -1 #SUP: 2
401 -1 76 -1 #SUP: 2
401 -1 113 -1 #SUP: 2
401 -1 182 -1 #SUP: 2
401 -1 687 -1 #SUP: 2
403 -1 10 -1 #SUP: 2
403 -1 527 -1 #SUP: 2
404 -1 32 -1 #SUP: 2
406 -1 113 -1 #SUP: 2
418 -1 139 -1 #SUP: 3
418 -1 244 -1 #SUP: 3
419 -1 64 -1 #SUP: 2
419 -1 151 -1 #SUP: 2
419 -1 153 -1 #SUP: 2
420 -1 41 -1 #SUP: 2
420 -1 208 -1 #SUP: 2
472 -1 22 -1 #SUP: 2
472 -1 394 -1 #SUP: 2
474 -1 22 -1 #SUP: 2
474 -1 32 -1 #SUP: 2
474 -1 65 -1 #SUP: 2
474 -1 76 -1 #SUP: 2
474 -1 149 -1 #SUP: 2
474 -1 404 -1 #SUP: 2
482 -1 64 -1 #SUP: 2
482 -1 76 -1 #SUP: 2
484 -1 3 -1 #SUP: 5
484 -1 16 -1 #SUP: 2
484 -1 27 -1 #SUP: 2
484 -1 41 -1 #SUP: 3
484 -1 76 -1 #SUP: 5
484 -1 113 -1 #SUP: 5
484 -1 141 -1 #SUP: 2
484 -1 182 -1 #SUP: 2
488 -1 22 -1 #SUP: 2
497 -1 10 -1 #SUP: 3
497 -1 76 -1 #SUP: 3
497 -1 151 -1 #SUP: 2
497 -1 864 -1 #SUP: 3
504 -1 2 -1 #SUP: 3
504 -1 32 -1 #SUP: 2
504 -1 76 -1 #SUP: 4
504 -1 250 -1 #SUP: 2
506 -1 3 -1 #SUP: 2
506 -1 31 -1 #SUP: 3
506 -1 41 -1 #SUP: 2
506 -1 76 -1 #SUP: 3
506 -1 113 -1 #SUP: 2
506 -1 151 -1 #SUP: 3
506 -1 153 -1 #SUP: 2
510 -1 76 -1 #SUP: 2
510 -1 113 -1 #SUP: 2
510 -1 182 -1 #SUP: 2
510 -1 864 -1 #SUP: 2
527 -1 2 -1 #SUP: 2
527 -1 10 -1 #SUP: 3
527 -1 50 -1 #SUP: 2
527 -1 76 -1 #SUP: 5
527 -1 165 -1 #SUP: 2
527 -1 798 -1 #SUP: 2
527 -1 1203 -1 #SUP: 2
557 -1 3 -1 #SUP: 5
557 -1 7 -1 #SUP: 2
557 -1 16 -1 #SUP: 4
557 -1 22 -1 #SUP: 4
557 -1 27 -1 #SUP: 6
557 -1 41 -1 #SUP: 3
557 -1 64 -1 #SUP: 6
557 -1 65 -1 #SUP: 3
557 -1 76 -1 #SUP: 5
557 -1 81 -1 #SUP: 2
557 -1 113 -1 #SUP: 5
557 -1 156 -1 #SUP: 2
557 -1 161 -1 #SUP: 2
557 -1 165 -1 #SUP: 2
557 -1 182 -1 #SUP: 2
557 -1 208 -1 #SUP: 2
557 -1 250 -1 #SUP: 2
557 -1 342 -1 #SUP: 2
557 -1 394 -1 #SUP: 2
557 -1 791 -1 #SUP: 2
586 -1 76 -1 #SUP: 2
596 -1 2 -1 #SUP: 2
596 -1 76 -1 #SUP: 2
602 -1 3 -1 #SUP: 2
607 -1 151 -1 #SUP: 2
642 -1 3 -1 #SUP: 2
686 -1 29 -1 #SUP: 2
687 -1 10 -1 #SUP: 2
687 -1 22 -1 #SUP: 2
687 -1 32 -1 #SUP: 2
687 -1 113 -1 #SUP: 2
689 -1 2219 -1 #SUP: 2
691 -1 41 -1 #SUP: 2
758 -1 76 -1 #SUP: 2
771 -1 64 -1 #SUP: 2
771 -1 76 -1 #SUP: 5
773 -1 76 -1 #SUP: 2
791 -1 64 -1 #SUP: 2
791 -1 76 -1 #SUP: 2
798 -1 10 -1 #SUP: 2
836 -1 141 -1 #SUP: 2
864 -1 2 -1 #SUP: 3
864 -1 3 -1 #SUP: 2
864 -1 22 -1 #SUP: 2
864 -1 32 -1 #SUP: 2
864 -1 41 -1 #SUP: 2
864 -1 66 -1 #SUP: 2
864 -1 76 -1 #SUP: 7
864 -1 113 -1 #SUP: 2
864 -1 151 -1 #SUP: 4
864 -1 182 -1 #SUP: 2
864 -1 248 -1 #SUP: 2
871 -1 65 -1 #SUP: 2
871 -1 113 -1 #SUP: 2
872 -1 76 -1 #SUP: 2
902 -1 76 -1 #SUP: 3
902 -1 527 -1 #SUP: 2
936 -1 27 -1 #SUP: 2
936 -1 124 -1 #SUP: 2
1036 -1 50 -1 #SUP: 2
1036 -1 76 -1 #SUP: 2
1041 -1 76 -1 #SUP: 2
1053 -1 76 -1 #SUP: 2
1075 -1 27 -1 #SUP: 2
1075 -1 41 -1 #SUP: 3
1075 -1 76 -1 #SUP: 4
1075 -1 113 -1 #SUP: 2
1075 -1 124 -1 #SUP: 2
1075 -1 1203 -1 #SUP: 2
1099 -1 76 -1 #SUP: 2
1099 -1 278 -1 #SUP: 2
1141 -1 160 -1 #SUP: 2
1157 -1 3 -1 #SUP: 4
1157 -1 76 -1 #SUP: 2
1157 -1 113 -1 #SUP: 2
1157 -1 151 -1 #SUP: 2
1203 -1 2 -1 #SUP: 2
1203 -1 42 -1 #SUP: 2
1203 -1 76 -1 #SUP: 3
1203 -1 113 -1 #SUP: 2
1203 -1 146 -1 #SUP: 2
1287 -1 76 -1 #SUP: 2
1315 -1 76 -1 #SUP: 2
1459 -1 76 -1 #SUP: 2
1487 -1 76 -1 #SUP: 2
1487 -1 141 -1 #SUP: 2
1487 -1 2895 -1 #SUP: 2
1511 -1 2 -1 #SUP: 2
1511 -1 250 -1 #SUP: 2
1521 -1 76 -1 #SUP: 2
1521 -1 340 -1 #SUP: 2
1554 -1 22 -1 #SUP: 2
1554 -1 65 -1 #SUP: 2
1554 -1 76 -1 #SUP: 2
1617 -1 76 -1 #SUP: 2
1617 -1 113 -1 #SUP: 2
1617 -1 151 -1 #SUP: 2
1617 -1 182 -1 #SUP: 2
1617 -1 484 -1 #SUP: 2
1617 -1 1036 -1 #SUP: 2
1635 -1 65 -1 #SUP: 2
1635 -1 76 -1 #SUP: 2
1707 -1 76 -1 #SUP: 2
1723 -1 3 -1 #SUP: 2
1723 -1 76 -1 #SUP: 2
1754 -1 16 -1 #SUP: 2
1754 -1 76 -1 #SUP: 2
1853 -1 64 -1 #SUP: 2
1853 -1 113 -1 #SUP: 2
1916 -1 76 -1 #SUP: 2
2050 -1 3 -1 #SUP: 3
2050 -1 76 -1 #SUP: 2
2065 -1 10 -1 #SUP: 2
2065 -1 65 -1 #SUP: 2
2065 -1 76 -1 #SUP: 2
2611 -1 76 -1 #SUP: 2
2622 -1 997 -1 #SUP: 2
2654 -1 3 -1 #SUP: 2
2654 -1 76 -1 #SUP: 3
2726 -1 41 -1 #SUP: 2
2726 -1 76 -1 #SUP: 2
2895 -1 64 -1 #SUP: 2
2895 -1 273 -1 #SUP: 2
2902 -1 22 -1 #SUP: 2
2902 -1 32 -1 #SUP: 2
2997 -1 64 -1 #SUP: 2
3348 -1 3 -1 #SUP: 3
3348 -1 76 -1 #SUP: 2
3348 -1 3348 -1 #SUP: 3
3480 -1 22 -1 #SUP: 2
6007 -1 151 -1 #SUP: 2
6007 -1 607 -1 #SUP: 2
2 -1 3 -1 3 -1 #SUP: 2
2 -1 22 -1 32 -1 #SUP: 2
2 -1 31 -1 22 -1 #SUP: 2
2 -1 64 -1 29 -1 #SUP: 2
2 -1 64 -1 141 -1 #SUP: 2
2 -1 76 -1 3 -1 #SUP: 2
2 -1 76 -1 22 -1 #SUP: 2
2 -1 76 -1 32 -1 #SUP: 2
2 -1 76 -1 41 -1 #SUP: 2
2 -1 76 -1 64 -1 #SUP: 3
2 -1 76 -1 65 -1 #SUP: 3
2 -1 76 -1 76 -1 #SUP: 2
2 -1 76 -1 113 -1 #SUP: 4
2 -1 113 -1 22 -1 #SUP: 3
2 -1 113 -1 32 -1 #SUP: 3
2 -1 113 -1 64 -1 #SUP: 2
2 -1 113 -1 141 -1 #SUP: 2
2 -1 113 -1 151 -1 #SUP: 2
2 -1 113 -1 168 -1 #SUP: 2
2 -1 113 -1 194 -1 #SUP: 2
2 -1 209 -1 22 -1 #SUP: 2
2 -1 209 -1 31 -1 #SUP: 2
2 -1 273 -1 29 -1 #SUP: 2
2 -1 394 -1 32 -1 #SUP: 2
2 -1 527 -1 76 -1 #SUP: 2
2 -1 2622 -1 997 -1 #SUP: 2
3 -1 2 -1 250 -1 #SUP: 2
3 -1 3 -1 3 -1 #SUP: 4
3 -1 3 -1 22 -1 #SUP: 2
3 -1 3 -1 27 -1 #SUP: 4
3 -1 3 -1 64 -1 #SUP: 2
3 -1 3 -1 76 -1 #SUP: 3
3 -1 3 -1 113 -1 #SUP: 2
3 -1 3 -1 182 -1 #SUP: 2
3 -1 3 -1 557 -1 #SUP: 2
3 -1 3 -1 3348 -1 #SUP: 2
3 -1 7 -1 151 -1 #SUP: 2
3 -1 16 -1 22 -1 #SUP: 2
3 -1 16 -1 41 -1 #SUP: 2
3 -1 16 -1 64 -1 #SUP: 2
3 -1 16 -1 182 -1 #SUP: 3
3 -1 22 -1 3 -1 #SUP: 4
3 -1 22 -1 32 -1 #SUP: 3
3 -1 22 -1 41 -1 #SUP: 3
3 -1 22 -1 64 -1 #SUP: 2
3 -1 22 -1 76 -1 #SUP: 4
3 -1 22 -1 182 -1 #SUP: 2
3 -1 22 -1 406 -1 #SUP: 2
3 -1 22 -1 617 -1 #SUP: 2
3 -1 22 -1 687 -1 #SUP: 2
3 -1 22 -1 773 -1 #SUP: 2
3 -1 27 -1 3 -1 #SUP: 4
3 -1 27 -1 27 -1 #SUP: 3
3 -1 27 -1 64 -1 #SUP: 2
3 -1 27 -1 113 -1 #SUP: 4
3 -1 27 -1 124 -1 #SUP: 2
3 -1 27 -1 156 -1 #SUP: 2
3 -1 27 -1 182 -1 #SUP: 2
3 -1 30 -1 30 -1 #SUP: 2
3 -1 31 -1 76 -1 #SUP: 2
3 -1 32 -1 113 -1 #SUP: 2
3 -1 32 -1 124 -1 #SUP: 2
3 -1 41 -1 2 -1 #SUP: 2
3 -1 41 -1 3 -1 #SUP: 3
3 -1 41 -1 41 -1 #SUP: 2
3 -1 41 -1 64 -1 #SUP: 2
3 -1 41 -1 124 -1 #SUP: 2
3 -1 41 -1 141 -1 #SUP: 2
3 -1 41 -1 182 -1 #SUP: 2
3 -1 64 -1 3 -1 #SUP: 3
3 -1 64 -1 22 -1 #SUP: 4
3 -1 64 -1 76 -1 #SUP: 5
3 -1 64 -1 141 -1 #SUP: 2
3 -1 64 -1 151 -1 #SUP: 2
3 -1 64 -1 160 -1 #SUP: 2
3 -1 64 -1 182 -1 #SUP: 2
3 -1 64 -1 273 -1 #SUP: 2
3 -1 64 -1 617 -1 #SUP: 2
3 -1 65 -1 3 -1 #SUP: 2
3 -1 65 -1 22 -1 #SUP: 2
3 -1 65 -1 64 -1 #SUP: 2
3 -1 65 -1 65 -1 #SUP: 2
3 -1 65 -1 76 -1 #SUP: 2
3 -1 65 -1 151 -1 #SUP: 2
3 -1 76 -1 2 -1 #SUP: 3
3 -1 76 -1 3 -1 #SUP: 4
3 -1 76 -1 22 -1 #SUP: 3
3 -1 76 -1 27 -1 #SUP: 4
3 -1 76 -1 41 -1 #SUP: 2
3 -1 76 -1 64 -1 #SUP: 2
3 -1 76 -1 76 -1 #SUP: 3
3 -1 76 -1 113 -1 #SUP: 4
3 -1 76 -1 118 -1 #SUP: 2
3 -1 76 -1 151 -1 #SUP: 2
3 -1 76 -1 156 -1 #SUP: 2
3 -1 76 -1 182 -1 #SUP: 2
3 -1 76 -1 557 -1 #SUP: 8
3 -1 76 -1 1617 -1 #SUP: 2
3 -1 113 -1 3 -1 #SUP: 4
3 -1 113 -1 27 -1 #SUP: 2
3 -1 113 -1 64 -1 #SUP: 2
3 -1 113 -1 76 -1 #SUP: 2
3 -1 113 -1 124 -1 #SUP: 2
3 -1 113 -1 156 -1 #SUP: 2
3 -1 113 -1 557 -1 #SUP: 2
3 -1 137 -1 3 -1 #SUP: 2
3 -1 148 -1 150 -1 #SUP: 2
3 -1 151 -1 3 -1 #SUP: 2
3 -1 151 -1 16 -1 #SUP: 3
3 -1 151 -1 113 -1 #SUP: 2
3 -1 151 -1 118 -1 #SUP: 2
3 -1 151 -1 236 -1 #SUP: 3
3 -1 156 -1 3 -1 #SUP: 2
3 -1 156 -1 64 -1 #SUP: 3
3 -1 182 -1 3 -1 #SUP: 2
3 -1 182 -1 27 -1 #SUP: 2
3 -1 182 -1 41 -1 #SUP: 2
3 -1 182 -1 151 -1 #SUP: 2
3 -1 236 -1 16 -1 #SUP: 2
3 -1 244 -1 22 -1 #SUP: 2
3 -1 244 -1 64 -1 #SUP: 2
3 -1 250 -1 902 -1 #SUP: 2
3 -1 273 -1 3 -1 #SUP: 2
3 -1 273 -1 41 -1 #SUP: 2
3 -1 557 -1 3 -1 #SUP: 3
3 -1 557 -1 22 -1 #SUP: 2
3 -1 557 -1 27 -1 #SUP: 3
3 -1 557 -1 64 -1 #SUP: 2
3 -1 557 -1 76 -1 #SUP: 2
3 -1 557 -1 113 -1 #SUP: 2
3 -1 557 -1 156 -1 #SUP: 2
3 -1 791 -1 64 -1 #SUP: 2
3 -1 791 -1 76 -1 #SUP: 2
3 -1 1511 -1 2 -1 #SUP: 2
3 -1 1511 -1 250 -1 #SUP: 2
3 -1 3348 -1 3 -1 #SUP: 2
3 -1 3348 -1 76 -1 #SUP: 2
7 -1 41 -1 31 -1 #SUP: 2
7 -1 41 -1 64 -1 #SUP: 2
7 -1 64 -1 31 -1 #SUP: 2
7 -1 64 -1 32 -1 #SUP: 2
7 -1 64 -1 149 -1 #SUP: 2
7 -1 64 -1 151 -1 #SUP: 2
7 -1 64 -1 182 -1 #SUP: 2
7 -1 151 -1 208 -1 #SUP: 2
10 -1 2 -1 113 -1 #SUP: 2
10 -1 22 -1 22 -1 #SUP: 2
10 -1 22 -1 32 -1 #SUP: 2
10 -1 22 -1 66 -1 #SUP: 3
10 -1 22 -1 76 -1 #SUP: 3
10 -1 22 -1 151 -1 #SUP: 3
10 -1 22 -1 182 -1 #SUP: 2
10 -1 22 -1 864 -1 #SUP: 4
10 -1 65 -1 41 -1 #SUP: 2
10 -1 65 -1 76 -1 #SUP: 2
10 -1 65 -1 113 -1 #SUP: 2
10 -1 65 -1 151 -1 #SUP: 2
10 -1 65 -1 791 -1 #SUP: 2
10 -1 69 -1 65 -1 #SUP: 2
10 -1 76 -1 3 -1 #SUP: 2
10 -1 76 -1 10 -1 #SUP: 2
10 -1 76 -1 32 -1 #SUP: 2
10 -1 76 -1 41 -1 #SUP: 2
10 -1 76 -1 65 -1 #SUP: 3
10 -1 76 -1 69 -1 #SUP: 2
10 -1 76 -1 113 -1 #SUP: 2
10 -1 76 -1 151 -1 #SUP: 2
10 -1 151 -1 66 -1 #SUP: 2
10 -1 151 -1 76 -1 #SUP: 2
10 -1 151 -1 182 -1 #SUP: 2
10 -1 151 -1 864 -1 #SUP: 2
10 -1 864 -1 3 -1 #SUP: 2
10 -1 864 -1 66 -1 #SUP: 2
10 -1 864 -1 76 -1 #SUP: 5
10 -1 864 -1 151 -1 #SUP: 4
10 -1 864 -1 182 -1 #SUP: 2
10 -1 1635 -1 76 -1 #SUP: 2
16 -1 3 -1 22 -1 #SUP: 2
16 -1 22 -1 64 -1 #SUP: 2
16 -1 27 -1 124 -1 #SUP: 2
16 -1 41 -1 22 -1 #SUP: 2
16 -1 41 -1 76 -1 #SUP: 2
16 -1 41 -1 124 -1 #SUP: 3
16 -1 1075 -1 27 -1 #SUP: 2
16 -1 1075 -1 41 -1 #SUP: 3
16 -1 1075 -1 76 -1 #SUP: 2
16 -1 1075 -1 124 -1 #SUP: 2
22 -1 2 -1 76 -1 #SUP: 2
22 -1 2 -1 113 -1 #SUP: 2
22 -1 3 -1 3 -1 #SUP: 2
22 -1 3 -1 16 -1 #SUP: 3
22 -1 3 -1 22 -1 #SUP: 4
22 -1 3 -1 41 -1 #SUP: 2
22 -1 3 -1 76 -1 #SUP: 4
22 -1 3 -1 113 -1 #SUP: 2
22 -1 3 -1 118 -1 #SUP: 2
22 -1 3 -1 151 -1 #SUP: 5
22 -1 3 -1 557 -1 #SUP: 2
22 -1 22 -1 153 -1 #SUP: 2
22 -1 27 -1 113 -1 #SUP: 2
22 -1 30 -1 30 -1 #SUP: 2
22 -1 32 -1 2 -1 #SUP: 2
22 -1 32 -1 76 -1 #SUP: 4
22 -1 32 -1 113 -1 #SUP: 3
22 -1 32 -1 151 -1 #SUP: 2
22 -1 32 -1 182 -1 #SUP: 2
22 -1 41 -1 3 -1 #SUP: 2
22 -1 54 -1 3 -1 #SUP: 2
22 -1 64 -1 3 -1 #SUP: 4
22 -1 66 -1 2 -1 #SUP: 2
22 -1 76 -1 3 -1 #SUP: 2
22 -1 76 -1 22 -1 #SUP: 3
22 -1 76 -1 27 -1 #SUP: 3
22 -1 76 -1 64 -1 #SUP: 2
22 -1 76 -1 76 -1 #SUP: 3
22 -1 76 -1 77 -1 #SUP: 2
22 -1 76 -1 113 -1 #SUP: 2
22 -1 76 -1 118 -1 #SUP: 2
22 -1 76 -1 224 -1 #SUP: 2
22 -1 76 -1 419 -1 #SUP: 2
22 -1 76 -1 504 -1 #SUP: 2
22 -1 76 -1 557 -1 #SUP: 3
22 -1 77 -1 76 -1 #SUP: 2
22 -1 113 -1 3 -1 #SUP: 3
22 -1 151 -1 3 -1 #SUP: 2
22 -1 151 -1 16 -1 #SUP: 2
22 -1 151 -1 22 -1 #SUP: 2
22 -1 151 -1 66 -1 #SUP: 2
22 -1 151 -1 113 -1 #SUP: 2
22 -1 151 -1 118 -1 #SUP: 2
22 -1 151 -1 182 -1 #SUP: 2
22 -1 182 -1 22 -1 #SUP: 2
22 -1 256 -1 41 -1 #SUP: 2
22 -1 420 -1 41 -1 #SUP: 2
22 -1 773 -1 76 -1 #SUP: 2
22 -1 864 -1 22 -1 #SUP: 2
22 -1 864 -1 66 -1 #SUP: 2
22 -1 864 -1 151 -1 #SUP: 3
22 -1 864 -1 182 -1 #SUP: 2
22 -1 902 -1 76 -1 #SUP: 2
22 -1 1099 -1 278 -1 #SUP: 2
22 -1 1157 -1 3 -1 #SUP: 2
22 -1 2654 -1 3 -1 #SUP: 2
22 -1 2654 -1 76 -1 #SUP: 2
27 -1 3 -1 3 -1 #SUP: 4
27 -1 3 -1 27 -1 #SUP: 3
27 -1 3 -1 76 -1 #SUP: 2
27 -1 41 -1 76 -1 #SUP: 2
27 -1 41 -1 141 -1 #SUP: 4
27 -1 41 -1 557 -1 #SUP: 2
27 -1 41 -1 836 -1 #SUP: 2
27 -1 64 -1 3 -1 #SUP: 2
27 -1 76 -1 27 -1 #SUP: 2
27 -1 76 -1 41 -1 #SUP: 2
27 -1 76 -1 141 -1 #SUP: 2
27 -1 76 -1 557 -1 #SUP: 3
27 -1 113 -1 3 -1 #SUP: 4
27 -1 113 -1 27 -1 #SUP: 2
27 -1 113 -1 64 -1 #SUP: 2
27 -1 113 -1 76 -1 #SUP: 2
27 -1 113 -1 124 -1 #SUP: 2
27 -1 113 -1 156 -1 #SUP: 2
27 -1 113 -1 160 -1 #SUP: 2
27 -1 113 -1 557 -1 #SUP: 2
27 -1 141 -1 76 -1 #SUP: 2
27 -1 141 -1 557 -1 #SUP: 2
27 -1 156 -1 3 -1 #SUP: 2
27 -1 156 -1 64 -1 #SUP: 2
27 -1 182 -1 3 -1 #SUP: 2
27 -1 182 -1 27 -1 #SUP: 2
27 -1 557 -1 27 -1 #SUP: 2
27 -1 836 -1 141 -1 #SUP: 2
29 -1 76 -1 3 -1 #SUP: 2
29 -1 76 -1 16 -1 #SUP: 2
30 -1 30 -1 3 -1 #SUP: 2
30 -1 30 -1 22 -1 #SUP: 2
30 -1 30 -1 65 -1 #SUP: 3
30 -1 30 -1 151 -1 #SUP: 2
31 -1 2 -1 76 -1 #SUP: 2
31 -1 22 -1 76 -1 #SUP: 2
31 -1 32 -1 76 -1 #SUP: 2
31 -1 76 -1 2 -1 #SUP: 2
31 -1 596 -1 2 -1 #SUP: 2
31 -1 596 -1 76 -1 #SUP: 2
31 -1 1723 -1 3 -1 #SUP: 2
31 -1 1723 -1 76 -1 #SUP: 2
32 -1 2 -1 76 -1 #SUP: 2
32 -1 2 -1 113 -1 #SUP: 3
32 -1 65 -1 22 -1 #SUP: 2
32 -1 65 -1 31 -1 #SUP: 2
32 -1 65 -1 2622 -1 #SUP: 2
32 -1 76 -1 65 -1 #SUP: 3
32 -1 76 -1 76 -1 #SUP: 3
32 -1 113 -1 124 -1 #SUP: 2
41 -1 2 -1 76 -1 #SUP: 2
41 -1 3 -1 29 -1 #SUP: 2
41 -1 3 -1 64 -1 #SUP: 2
41 -1 3 -1 65 -1 #SUP: 3
41 -1 7 -1 3 -1 #SUP: 2
41 -1 27 -1 41 -1 #SUP: 2
41 -1 31 -1 3 -1 #SUP: 2
41 -1 31 -1 76 -1 #SUP: 2
41 -1 64 -1 29 -1 #SUP: 2
41 -1 64 -1 31 -1 #SUP: 2
41 -1 76 -1 41 -1 #SUP: 3
41 -1 76 -1 76 -1 #SUP: 3
41 -1 76 -1 141 -1 #SUP: 2
41 -1 76 -1 208 -1 #SUP: 2
41 -1 76 -1 497 -1 #SUP: 2
41 -1 76 -1 557 -1 #SUP: 3
41 -1 113 -1 124 -1 #SUP: 2
41 -1 141 -1 3 -1 #SUP: 2
41 -1 141 -1 65 -1 #SUP: 2
41 -1 141 -1 76 -1 #SUP: 4
41 -1 141 -1 151 -1 #SUP: 2
41 -1 141 -1 557 -1 #SUP: 2
41 -1 151 -1 3 -1 #SUP: 2
41 -1 151 -1 76 -1 #SUP: 2
41 -1 156 -1 64 -1 #SUP: 2
41 -1 182 -1 31 -1 #SUP: 2
41 -1 182 -1 76 -1 #SUP: 2
41 -1 187 -1 29 -1 #SUP: 2
41 -1 557 -1 208 -1 #SUP: 2
41 -1 836 -1 141 -1 #SUP: 2
42 -1 76 -1 7 -1 #SUP: 2
42 -1 76 -1 113 -1 #SUP: 3
42 -1 113 -1 7 -1 #SUP: 2
50 -1 3 -1 932 -1 #SUP: 2
50 -1 6 -1 76 -1 #SUP: 2
54 -1 3 -1 76 -1 #SUP: 2
54 -1 64 -1 76 -1 #SUP: 2
64 -1 3 -1 3 -1 #SUP: 2
64 -1 3 -1 22 -1 #SUP: 2
64 -1 3 -1 64 -1 #SUP: 3
64 -1 3 -1 76 -1 #SUP: 3
64 -1 3 -1 586 -1 #SUP: 2
64 -1 7 -1 10 -1 #SUP: 2
64 -1 22 -1 76 -1 #SUP: 2
64 -1 27 -1 113 -1 #SUP: 2
64 -1 30 -1 3 -1 #SUP: 2
64 -1 30 -1 30 -1 #SUP: 2
64 -1 42 -1 76 -1 #SUP: 2
64 -1 42 -1 113 -1 #SUP: 2
64 -1 64 -1 76 -1 #SUP: 3
64 -1 76 -1 76 -1 #SUP: 2
64 -1 76 -1 113 -1 #SUP: 6
64 -1 76 -1 141 -1 #SUP: 4
64 -1 76 -1 182 -1 #SUP: 2
64 -1 76 -1 557 -1 #SUP: 2
64 -1 113 -1 3 -1 #SUP: 2
64 -1 113 -1 76 -1 #SUP: 3
64 -1 113 -1 113 -1 #SUP: 3
64 -1 113 -1 141 -1 #SUP: 2
64 -1 141 -1 3 -1 #SUP: 2
64 -1 141 -1 76 -1 #SUP: 2
64 -1 141 -1 182 -1 #SUP: 2
64 -1 151 -1 3 -1 #SUP: 2
64 -1 151 -1 76 -1 #SUP: 2
64 -1 151 -1 113 -1 #SUP: 2
64 -1 151 -1 153 -1 #SUP: 2
64 -1 151 -1 208 -1 #SUP: 2
64 -1 208 -1 3 -1 #SUP: 2
64 -1 273 -1 31 -1 #SUP: 2
64 -1 273 -1 1487 -1 #SUP: 2
64 -1 273 -1 2895 -1 #SUP: 2
64 -1 557 -1 113 -1 #SUP: 2
64 -1 1487 -1 2895 -1 #SUP: 2
65 -1 2 -1 76 -1 #SUP: 2
65 -1 22 -1 3 -1 #SUP: 2
65 -1 31 -1 76 -1 #SUP: 2
65 -1 32 -1 2 -1 #SUP: 2
65 -1 32 -1 76 -1 #SUP: 2
65 -1 32 -1 182 -1 #SUP: 2
65 -1 32 -1 488 -1 #SUP: 2
65 -1 64 -1 3 -1 #SUP: 2
65 -1 64 -1 273 -1 #SUP: 2
65 -1 65 -1 76 -1 #SUP: 2
65 -1 76 -1 2 -1 #SUP: 2
65 -1 76 -1 22 -1 #SUP: 2
65 -1 76 -1 31 -1 #SUP: 2
65 -1 76 -1 76 -1 #SUP: 3
65 -1 76 -1 113 -1 #SUP: 2
65 -1 76 -1 151 -1 #SUP: 2
65 -1 76 -1 182 -1 #SUP: 2
65 -1 76 -1 248 -1 #SUP: 2
65 -1 76 -1 484 -1 #SUP: 2
65 -1 76 -1 527 -1 #SUP: 2
65 -1 113 -1 76 -1 #SUP: 2
65 -1 113 -1 151 -1 #SUP: 2
65 -1 151 -1 3 -1 #SUP: 2
65 -1 264 -1 151 -1 #SUP: 2
65 -1 404 -1 32 -1 #SUP: 2
65 -1 607 -1 151 -1 #SUP: 2
65 -1 864 -1 151 -1 #SUP: 2
65 -1 3480 -1 22 -1 #SUP: 2
65 -1 6007 -1 151 -1 #SUP: 2
65 -1 6007 -1 607 -1 #SUP: 2
69 -1 10 -1 864 -1 #SUP: 2
69 -1 65 -1 2 -1 #SUP: 2
69 -1 65 -1 76 -1 #SUP: 4
69 -1 76 -1 65 -1 #SUP: 2
69 -1 76 -1 76 -1 #SUP: 2
76 -1 2 -1 3 -1 #SUP: 2
76 -1 2 -1 64 -1 #SUP: 2
76 -1 2 -1 65 -1 #SUP: 2
76 -1 2 -1 76 -1 #SUP: 5
76 -1 2 -1 113 -1 #SUP: 2
76 -1 2 -1 141 -1 #SUP: 2
76 -1 2 -1 146 -1 #SUP: 2
76 -1 2 -1 151 -1 #SUP: 2
76 -1 2 -1 771 -1 #SUP: 2
76 -1 3 -1 3 -1 #SUP: 5
76 -1 3 -1 16 -1 #SUP: 2
76 -1 3 -1 22 -1 #SUP: 4
76 -1 3 -1 27 -1 #SUP: 2
76 -1 3 -1 32 -1 #SUP: 2
76 -1 3 -1 41 -1 #SUP: 3
76 -1 3 -1 64 -1 #SUP: 2
76 -1 3 -1 113 -1 #SUP: 2
76 -1 3 -1 148 -1 #SUP: 2
76 -1 3 -1 150 -1 #SUP: 2
76 -1 3 -1 153 -1 #SUP: 2
76 -1 3 -1 182 -1 #SUP: 2
76 -1 3 -1 419 -1 #SUP: 2
76 -1 7 -1 31 -1 #SUP: 2
76 -1 7 -1 64 -1 #SUP: 4
76 -1 7 -1 250 -1 #SUP: 2
76 -1 10 -1 22 -1 #SUP: 2
76 -1 10 -1 32 -1 #SUP: 3
76 -1 10 -1 65 -1 #SUP: 3
76 -1 10 -1 76 -1 #SUP: 3
76 -1 10 -1 151 -1 #SUP: 2
76 -1 10 -1 864 -1 #SUP: 3
76 -1 16 -1 22 -1 #SUP: 3
76 -1 16 -1 41 -1 #SUP: 3
76 -1 16 -1 64 -1 #SUP: 3
76 -1 22 -1 3 -1 #SUP: 3
76 -1 22 -1 32 -1 #SUP: 6
76 -1 22 -1 41 -1 #SUP: 2
76 -1 22 -1 64 -1 #SUP: 3
76 -1 22 -1 72 -1 #SUP: 2
76 -1 22 -1 76 -1 #SUP: 2
76 -1 22 -1 113 -1 #SUP: 2
76 -1 22 -1 151 -1 #SUP: 2
76 -1 22 -1 182 -1 #SUP: 3
76 -1 22 -1 224 -1 #SUP: 2
76 -1 22 -1 394 -1 #SUP: 2
76 -1 22 -1 864 -1 #SUP: 2
76 -1 22 -1 3236 -1 #SUP: 3
76 -1 27 -1 3 -1 #SUP: 2
76 -1 27 -1 41 -1 #SUP: 2
76 -1 27 -1 113 -1 #SUP: 4
76 -1 31 -1 3 -1 #SUP: 3
76 -1 31 -1 22 -1 #SUP: 2
76 -1 31 -1 32 -1 #SUP: 2
76 -1 31 -1 182 -1 #SUP: 2
76 -1 31 -1 1723 -1 #SUP: 2
76 -1 32 -1 182 -1 #SUP: 2
76 -1 33 -1 76 -1 #SUP: 2
76 -1 41 -1 3 -1 #SUP: 3
76 -1 41 -1 31 -1 #SUP: 2
76 -1 41 -1 32 -1 #SUP: 2
76 -1 41 -1 64 -1 #SUP: 4
76 -1 41 -1 124 -1 #SUP: 2
76 -1 41 -1 141 -1 #SUP: 3
76 -1 41 -1 151 -1 #SUP: 2
76 -1 50 -1 3 -1 #SUP: 2
76 -1 50 -1 6 -1 #SUP: 2
76 -1 50 -1 64 -1 #SUP: 2
76 -1 50 -1 76 -1 #SUP: 2
76 -1 64 -1 3 -1 #SUP: 2
76 -1 64 -1 113 -1 #SUP: 2
76 -1 64 -1 187 -1 #SUP: 2
76 -1 64 -1 250 -1 #SUP: 2
76 -1 65 -1 2 -1 #SUP: 4
76 -1 65 -1 22 -1 #SUP: 2
76 -1 65 -1 31 -1 #SUP: 2
76 -1 65 -1 32 -1 #SUP: 4
76 -1 65 -1 76 -1 #SUP: 4
76 -1 65 -1 113 -1 #SUP: 2
76 -1 65 -1 149 -1 #SUP: 2
76 -1 65 -1 151 -1 #SUP: 2
76 -1 65 -1 348 -1 #SUP: 2
76 -1 65 -1 404 -1 #SUP: 2
76 -1 65 -1 1100 -1 #SUP: 2
76 -1 69 -1 65 -1 #SUP: 2
76 -1 76 -1 2 -1 #SUP: 6
76 -1 76 -1 3 -1 #SUP: 3
76 -1 76 -1 10 -1 #SUP: 2
76 -1 76 -1 16 -1 #SUP: 5
76 -1 76 -1 22 -1 #SUP: 2
76 -1 76 -1 31 -1 #SUP: 3
76 -1 76 -1 32 -1 #SUP: 5
76 -1 76 -1 41 -1 #SUP: 3
76 -1 76 -1 64 -1 #SUP: 2
76 -1 76 -1 65 -1 #SUP: 5
76 -1 76 -1 69 -1 #SUP: 2
76 -1 76 -1 76 -1 #SUP: 8
76 -1 76 -1 113 -1 #SUP: 2
76 -1 76 -1 141 -1 #SUP: 3
76 -1 76 -1 151 -1 #SUP: 4
76 -1 76 -1 208 -1 #SUP: 2
76 -1 76 -1 224 -1 #SUP: 2
76 -1 76 -1 278 -1 #SUP: 2
76 -1 76 -1 404 -1 #SUP: 2
76 -1 76 -1 484 -1 #SUP: 2
76 -1 76 -1 557 -1 #SUP: 2
76 -1 76 -1 771 -1 #SUP: 3
76 -1 76 -1 864 -1 #SUP: 2
76 -1 77 -1 65 -1 #SUP: 2
76 -1 77 -1 76 -1 #SUP: 2
76 -1 81 -1 64 -1 #SUP: 4
76 -1 81 -1 187 -1 #SUP: 2
76 -1 113 -1 2 -1 #SUP: 3
76 -1 113 -1 3 -1 #SUP: 2
76 -1 113 -1 7 -1 #SUP: 4
76 -1 113 -1 16 -1 #SUP: 2
76 -1 113 -1 32 -1 #SUP: 3
76 -1 113 -1 41 -1 #SUP: 2
76 -1 113 -1 64 -1 #SUP: 8
76 -1 113 -1 65 -1 #SUP: 3
76 -1 113 -1 72 -1 #SUP: 2
76 -1 113 -1 76 -1 #SUP: 4
76 -1 113 -1 81 -1 #SUP: 3
76 -1 113 -1 118 -1 #SUP: 2
76 -1 113 -1 141 -1 #SUP: 4
76 -1 113 -1 151 -1 #SUP: 5
76 -1 113 -1 161 -1 #SUP: 2
76 -1 113 -1 182 -1 #SUP: 5
76 -1 113 -1 208 -1 #SUP: 2
76 -1 113 -1 250 -1 #SUP: 2
76 -1 113 -1 510 -1 #SUP: 2
76 -1 141 -1 16 -1 #SUP: 2
76 -1 141 -1 76 -1 #SUP: 3
76 -1 141 -1 182 -1 #SUP: 3
76 -1 148 -1 150 -1 #SUP: 2
76 -1 149 -1 76 -1 #SUP: 2
76 -1 149 -1 224 -1 #SUP: 2
76 -1 151 -1 3 -1 #SUP: 4
76 -1 151 -1 27 -1 #SUP: 2
76 -1 151 -1 32 -1 #SUP: 2
76 -1 151 -1 41 -1 #SUP: 2
76 -1 151 -1 76 -1 #SUP: 2
76 -1 151 -1 113 -1 #SUP: 2
76 -1 156 -1 64 -1 #SUP: 2
76 -1 158 -1 113 -1 #SUP: 2
76 -1 161 -1 22 -1 #SUP: 2
76 -1 161 -1 32 -1 #SUP: 3
76 -1 165 -1 798 -1 #SUP: 2
76 -1 182 -1 41 -1 #SUP: 2
76 -1 182 -1 66 -1 #SUP: 2
76 -1 182 -1 76 -1 #SUP: 2
76 -1 182 -1 151 -1 #SUP: 2
76 -1 182 -1 687 -1 #SUP: 2
76 -1 182 -1 1036 -1 #SUP: 2
76 -1 190 -1 3 -1 #SUP: 2
76 -1 194 -1 151 -1 #SUP: 2
76 -1 200 -1 76 -1 #SUP: 2
76 -1 208 -1 141 -1 #SUP: 2
76 -1 224 -1 41 -1 #SUP: 3
76 -1 224 -1 76 -1 #SUP: 4
76 -1 224 -1 1105 -1 #SUP: 2
76 -1 234 -1 76 -1 #SUP: 2
76 -1 236 -1 76 -1 #SUP: 2
76 -1 250 -1 16 -1 #SUP: 2
76 -1 250 -1 64 -1 #SUP: 2
76 -1 273 -1 29 -1 #SUP: 2
76 -1 278 -1 76 -1 #SUP: 2
76 -1 278 -1 208 -1 #SUP: 2
76 -1 340 -1 113 -1 #SUP: 2
76 -1 342 -1 16 -1 #SUP: 2
76 -1 342 -1 41 -1 #SUP: 2
76 -1 342 -1 64 -1 #SUP: 2
76 -1 342 -1 1075 -1 #SUP: 3
76 -1 404 -1 32 -1 #SUP: 2
76 -1 474 -1 32 -1 #SUP: 2
76 -1 474 -1 65 -1 #SUP: 2
76 -1 474 -1 404 -1 #SUP: 2
76 -1 484 -1 16 -1 #SUP: 2
76 -1 484 -1 76 -1 #SUP: 2
76 -1 484 -1 113 -1 #SUP: 3
76 -1 497 -1 10 -1 #SUP: 3
76 -1 497 -1 76 -1 #SUP: 2
76 -1 497 -1 151 -1 #SUP: 2
76 -1 497 -1 864 -1 #SUP: 3
76 -1 506 -1 3 -1 #SUP: 2
76 -1 510 -1 182 -1 #SUP: 2
76 -1 527 -1 76 -1 #SUP: 2
76 -1 527 -1 165 -1 #SUP: 2
76 -1 527 -1 798 -1 #SUP: 2
76 -1 557 -1 3 -1 #SUP: 4
76 -1 557 -1 16 -1 #SUP: 4
76 -1 557 -1 22 -1 #SUP: 4
76 -1 557 -1 27 -1 #SUP: 5
76 -1 557 -1 41 -1 #SUP: 3
76 -1 557 -1 64 -1 #SUP: 6
76 -1 557 -1 65 -1 #SUP: 2
76 -1 557 -1 76 -1 #SUP: 5
76 -1 557 -1 81 -1 #SUP: 2
76 -1 557 -1 113 -1 #SUP: 5
76 -1 557 -1 156 -1 #SUP: 2
76 -1 557 -1 161 -1 #SUP: 2
76 -1 557 -1 165 -1 #SUP: 2
76 -1 557 -1 182 -1 #SUP: 2
76 -1 557 -1 208 -1 #SUP: 2
76 -1 557 -1 342 -1 #SUP: 2
76 -1 864 -1 32 -1 #SUP: 2
76 -1 864 -1 76 -1 #SUP: 2
76 -1 864 -1 151 -1 #SUP: 2
76 -1 1099 -1 76 -1 #SUP: 2
76 -1 1203 -1 2 -1 #SUP: 2
76 -1 1203 -1 146 -1 #SUP: 2
76 -1 1617 -1 1036 -1 #SUP: 2
76 -1 1754 -1 16 -1 #SUP: 2
76 -1 1754 -1 76 -1 #SUP: 2
77 -1 65 -1 76 -1 #SUP: 2
77 -1 76 -1 65 -1 #SUP: 3
77 -1 76 -1 76 -1 #SUP: 2
77 -1 76 -1 557 -1 #SUP: 2
77 -1 1053 -1 76 -1 #SUP: 2
81 -1 64 -1 113 -1 #SUP: 2
81 -1 64 -1 187 -1 #SUP: 3
113 -1 2 -1 113 -1 #SUP: 3
113 -1 2 -1 182 -1 #SUP: 2
113 -1 3 -1 3 -1 #SUP: 3
113 -1 3 -1 16 -1 #SUP: 3
113 -1 3 -1 22 -1 #SUP: 2
113 -1 3 -1 27 -1 #SUP: 3
113 -1 3 -1 29 -1 #SUP: 2
113 -1 3 -1 32 -1 #SUP: 2
113 -1 3 -1 64 -1 #SUP: 3
113 -1 3 -1 65 -1 #SUP: 3
113 -1 3 -1 76 -1 #SUP: 3
113 -1 3 -1 113 -1 #SUP: 4
113 -1 3 -1 156 -1 #SUP: 2
113 -1 3 -1 182 -1 #SUP: 3
113 -1 3 -1 557 -1 #SUP: 2
113 -1 3 -1 2992 -1 #SUP: 2
113 -1 7 -1 10 -1 #SUP: 2
113 -1 7 -1 64 -1 #SUP: 3
113 -1 7 -1 250 -1 #SUP: 2
113 -1 10 -1 65 -1 #SUP: 2
113 -1 22 -1 2 -1 #SUP: 2
113 -1 22 -1 3 -1 #SUP: 2
113 -1 22 -1 32 -1 #SUP: 4
113 -1 22 -1 182 -1 #SUP: 2
113 -1 27 -1 3 -1 #SUP: 3
113 -1 27 -1 64 -1 #SUP: 2
113 -1 27 -1 113 -1 #SUP: 4
113 -1 27 -1 156 -1 #SUP: 2
113 -1 27 -1 182 -1 #SUP: 2
113 -1 31 -1 182 -1 #SUP: 2
113 -1 32 -1 182 -1 #SUP: 3
113 -1 41 -1 76 -1 #SUP: 2
113 -1 41 -1 139 -1 #SUP: 2
113 -1 41 -1 141 -1 #SUP: 2
113 -1 41 -1 557 -1 #SUP: 2
113 -1 42 -1 7 -1 #SUP: 2
113 -1 42 -1 76 -1 #SUP: 2
113 -1 42 -1 113 -1 #SUP: 2
113 -1 54 -1 64 -1 #SUP: 2
113 -1 64 -1 3 -1 #SUP: 3
113 -1 64 -1 27 -1 #SUP: 2
113 -1 64 -1 64 -1 #SUP: 3
113 -1 64 -1 76 -1 #SUP: 2
113 -1 64 -1 113 -1 #SUP: 5
113 -1 64 -1 141 -1 #SUP: 2
113 -1 64 -1 151 -1 #SUP: 3
113 -1 64 -1 182 -1 #SUP: 2
113 -1 65 -1 31 -1 #SUP: 2
113 -1 65 -1 64 -1 #SUP: 2
113 -1 65 -1 76 -1 #SUP: 2
113 -1 65 -1 135 -1 #SUP: 2
113 -1 65 -1 264 -1 #SUP: 2
113 -1 69 -1 3 -1 #SUP: 2
113 -1 69 -1 65 -1 #SUP: 2
113 -1 76 -1 2 -1 #SUP: 2
113 -1 76 -1 7 -1 #SUP: 2
113 -1 76 -1 16 -1 #SUP: 3
113 -1 76 -1 22 -1 #SUP: 3
113 -1 76 -1 31 -1 #SUP: 2
113 -1 76 -1 41 -1 #SUP: 3
113 -1 76 -1 64 -1 #SUP: 2
113 -1 76 -1 76 -1 #SUP: 3
113 -1 76 -1 113 -1 #SUP: 7
113 -1 76 -1 141 -1 #SUP: 4
113 -1 76 -1 161 -1 #SUP: 2
113 -1 76 -1 182 -1 #SUP: 6
113 -1 76 -1 224 -1 #SUP: 3
113 -1 76 -1 342 -1 #SUP: 2
113 -1 76 -1 463 -1 #SUP: 2
113 -1 76 -1 484 -1 #SUP: 2
113 -1 76 -1 527 -1 #SUP: 2
113 -1 76 -1 557 -1 #SUP: 5
113 -1 76 -1 687 -1 #SUP: 2
113 -1 81 -1 64 -1 #SUP: 2
113 -1 113 -1 2 -1 #SUP: 3
113 -1 113 -1 3 -1 #SUP: 2
113 -1 113 -1 7 -1 #SUP: 3
113 -1 113 -1 64 -1 #SUP: 3
113 -1 113 -1 76 -1 #SUP: 2
113 -1 113 -1 141 -1 #SUP: 3
113 -1 113 -1 156 -1 #SUP: 2
113 -1 113 -1 182 -1 #SUP: 3
113 -1 113 -1 264 -1 #SUP: 2
113 -1 115 -1 1203 -1 #SUP: 2
113 -1 139 -1 244 -1 #SUP: 2
113 -1 141 -1 76 -1 #SUP: 2
113 -1 141 -1 182 -1 #SUP: 2
113 -1 151 -1 3 -1 #SUP: 3
113 -1 151 -1 16 -1 #SUP: 2
113 -1 151 -1 22 -1 #SUP: 2
113 -1 151 -1 76 -1 #SUP: 4
113 -1 151 -1 113 -1 #SUP: 3
113 -1 151 -1 141 -1 #SUP: 2
113 -1 151 -1 182 -1 #SUP: 3
113 -1 151 -1 687 -1 #SUP: 2
113 -1 156 -1 3 -1 #SUP: 2
113 -1 156 -1 64 -1 #SUP: 2
113 -1 182 -1 3 -1 #SUP: 3
113 -1 182 -1 76 -1 #SUP: 2
113 -1 182 -1 113 -1 #SUP: 2
113 -1 182 -1 182 -1 #SUP: 2
113 -1 182 -1 687 -1 #SUP: 2
113 -1 194 -1 3 -1 #SUP: 3
113 -1 194 -1 32 -1 #SUP: 2
113 -1 194 -1 65 -1 #SUP: 3
113 -1 194 -1 69 -1 #SUP: 2
113 -1 194 -1 76 -1 #SUP: 3
113 -1 194 -1 113 -1 #SUP: 2
113 -1 194 -1 151 -1 #SUP: 2
113 -1 194 -1 264 -1 #SUP: 2
113 -1 208 -1 65 -1 #SUP: 2
113 -1 224 -1 41 -1 #SUP: 2
113 -1 224 -1 76 -1 #SUP: 3
113 -1 224 -1 141 -1 #SUP: 2
113 -1 250 -1 16 -1 #SUP: 2
113 -1 264 -1 113 -1 #SUP: 2
113 -1 308 -1 139 -1 #SUP: 2
113 -1 308 -1 244 -1 #SUP: 2
113 -1 308 -1 418 -1 #SUP: 2
113 -1 340 -1 64 -1 #SUP: 2
113 -1 340 -1 76 -1 #SUP: 2
113 -1 340 -1 113 -1 #SUP: 2
113 -1 340 -1 151 -1 #SUP: 2
113 -1 403 -1 10 -1 #SUP: 2
113 -1 403 -1 527 -1 #SUP: 2
113 -1 418 -1 139 -1 #SUP: 2
113 -1 418 -1 244 -1 #SUP: 2
113 -1 419 -1 151 -1 #SUP: 2
113 -1 506 -1 151 -1 #SUP: 2
113 -1 510 -1 113 -1 #SUP: 2
113 -1 510 -1 182 -1 #SUP: 2
113 -1 527 -1 10 -1 #SUP: 2
113 -1 527 -1 1203 -1 #SUP: 2
113 -1 557 -1 16 -1 #SUP: 2
113 -1 557 -1 342 -1 #SUP: 2
113 -1 2726 -1 76 -1 #SUP: 2
115 -1 76 -1 76 -1 #SUP: 2
137 -1 76 -1 65 -1 #SUP: 2
139 -1 32 -1 76 -1 #SUP: 2
139 -1 160 -1 32 -1 #SUP: 2
139 -1 160 -1 76 -1 #SUP: 2
141 -1 31 -1 76 -1 #SUP: 2
141 -1 76 -1 113 -1 #SUP: 2
141 -1 76 -1 141 -1 #SUP: 2
141 -1 76 -1 557 -1 #SUP: 2
141 -1 151 -1 3 -1 #SUP: 3
141 -1 182 -1 76 -1 #SUP: 2
148 -1 2611 -1 76 -1 #SUP: 2
149 -1 153 -1 137 -1 #SUP: 2
149 -1 153 -1 250 -1 #SUP: 2
151 -1 3 -1 3 -1 #SUP: 2
151 -1 3 -1 22 -1 #SUP: 2
151 -1 3 -1 27 -1 #SUP: 2
151 -1 3 -1 32 -1 #SUP: 3
151 -1 3 -1 64 -1 #SUP: 2
151 -1 3 -1 76 -1 #SUP: 2
151 -1 3 -1 113 -1 #SUP: 2
151 -1 3 -1 141 -1 #SUP: 3
151 -1 10 -1 32 -1 #SUP: 2
151 -1 22 -1 2 -1 #SUP: 2
151 -1 22 -1 32 -1 #SUP: 5
151 -1 22 -1 113 -1 #SUP: 2
151 -1 27 -1 113 -1 #SUP: 2
151 -1 41 -1 76 -1 #SUP: 2
151 -1 41 -1 141 -1 #SUP: 2
151 -1 64 -1 141 -1 #SUP: 2
151 -1 66 -1 2 -1 #SUP: 2
151 -1 76 -1 2 -1 #SUP: 2
151 -1 76 -1 3 -1 #SUP: 2
151 -1 76 -1 22 -1 #SUP: 2
151 -1 76 -1 32 -1 #SUP: 3
151 -1 76 -1 41 -1 #SUP: 2
151 -1 76 -1 141 -1 #SUP: 3
151 -1 76 -1 182 -1 #SUP: 2
151 -1 113 -1 22 -1 #SUP: 2
151 -1 113 -1 113 -1 #SUP: 2
151 -1 161 -1 22 -1 #SUP: 2
151 -1 182 -1 22 -1 #SUP: 3
151 -1 182 -1 32 -1 #SUP: 2
151 -1 182 -1 66 -1 #SUP: 2
151 -1 208 -1 3 -1 #SUP: 2
151 -1 214 -1 3 -1 #SUP: 2
151 -1 236 -1 16 -1 #SUP: 2
151 -1 687 -1 32 -1 #SUP: 2
151 -1 864 -1 76 -1 #SUP: 2
156 -1 3 -1 3 -1 #SUP: 2
156 -1 3 -1 64 -1 #SUP: 2
156 -1 64 -1 3 -1 #SUP: 2
156 -1 64 -1 64 -1 #SUP: 2
160 -1 32 -1 76 -1 #SUP: 2
161 -1 22 -1 2 -1 #SUP: 2
161 -1 22 -1 32 -1 #SUP: 2
161 -1 22 -1 113 -1 #SUP: 2
161 -1 340 -1 7 -1 #SUP: 2
182 -1 3 -1 2 -1 #SUP: 2
182 -1 3 -1 22 -1 #SUP: 2
182 -1 3 -1 27 -1 #SUP: 2
182 -1 3 -1 76 -1 #SUP: 4
182 -1 10 -1 22 -1 #SUP: 2
182 -1 22 -1 2 -1 #SUP: 2
182 -1 22 -1 32 -1 #SUP: 2
182 -1 22 -1 41 -1 #SUP: 3
182 -1 31 -1 76 -1 #SUP: 3
182 -1 64 -1 22 -1 #SUP: 2
182 -1 66 -1 2 -1 #SUP: 2
182 -1 76 -1 2 -1 #SUP: 2
182 -1 76 -1 16 -1 #SUP: 2
182 -1 76 -1 22 -1 #SUP: 2
182 -1 76 -1 557 -1 #SUP: 2
182 -1 141 -1 76 -1 #SUP: 2
190 -1 3 -1 65 -1 #SUP: 2
190 -1 3 -1 76 -1 #SUP: 2
194 -1 3 -1 65 -1 #SUP: 2
194 -1 69 -1 3 -1 #SUP: 2
194 -1 69 -1 65 -1 #SUP: 2
194 -1 76 -1 141 -1 #SUP: 2
194 -1 113 -1 264 -1 #SUP: 2
209 -1 31 -1 22 -1 #SUP: 2
213 -1 76 -1 557 -1 #SUP: 2
214 -1 3 -1 22 -1 #SUP: 2
224 -1 2 -1 76 -1 #SUP: 2
224 -1 3 -1 76 -1 #SUP: 2
224 -1 41 -1 3 -1 #SUP: 2
224 -1 41 -1 41 -1 #SUP: 2
224 -1 41 -1 65 -1 #SUP: 2
224 -1 41 -1 76 -1 #SUP: 6
224 -1 41 -1 141 -1 #SUP: 3
224 -1 41 -1 151 -1 #SUP: 3
224 -1 41 -1 154 -1 #SUP: 2
224 -1 65 -1 151 -1 #SUP: 2
224 -1 65 -1 3480 -1 #SUP: 2
224 -1 76 -1 3 -1 #SUP: 2
224 -1 76 -1 76 -1 #SUP: 3
224 -1 76 -1 182 -1 #SUP: 2
224 -1 76 -1 236 -1 #SUP: 2
224 -1 76 -1 296 -1 #SUP: 2
224 -1 76 -1 557 -1 #SUP: 2
224 -1 113 -1 76 -1 #SUP: 3
224 -1 113 -1 113 -1 #SUP: 2
224 -1 113 -1 182 -1 #SUP: 2
224 -1 141 -1 65 -1 #SUP: 2
224 -1 141 -1 76 -1 #SUP: 3
224 -1 141 -1 151 -1 #SUP: 2
224 -1 151 -1 76 -1 #SUP: 3
224 -1 151 -1 161 -1 #SUP: 2
224 -1 156 -1 76 -1 #SUP: 2
224 -1 236 -1 76 -1 #SUP: 2
224 -1 236 -1 506 -1 #SUP: 2
224 -1 340 -1 76 -1 #SUP: 2
234 -1 76 -1 76 -1 #SUP: 2
250 -1 3 -1 22 -1 #SUP: 2
250 -1 3 -1 41 -1 #SUP: 2
250 -1 41 -1 7 -1 #SUP: 2
250 -1 76 -1 557 -1 #SUP: 2
264 -1 76 -1 113 -1 #SUP: 2
264 -1 151 -1 113 -1 #SUP: 2
273 -1 41 -1 29 -1 #SUP: 2
273 -1 1487 -1 2895 -1 #SUP: 2
278 -1 76 -1 208 -1 #SUP: 2
308 -1 76 -1 179 -1 #SUP: 2
308 -1 139 -1 244 -1 #SUP: 2
308 -1 418 -1 139 -1 #SUP: 2
308 -1 418 -1 244 -1 #SUP: 2
340 -1 41 -1 31 -1 #SUP: 2
340 -1 42 -1 76 -1 #SUP: 2
340 -1 42 -1 113 -1 #SUP: 2
340 -1 64 -1 113 -1 #SUP: 2
340 -1 65 -1 31 -1 #SUP: 2
340 -1 76 -1 7 -1 #SUP: 2
340 -1 76 -1 31 -1 #SUP: 2
340 -1 76 -1 32 -1 #SUP: 2
340 -1 76 -1 113 -1 #SUP: 3
340 -1 113 -1 7 -1 #SUP: 2
340 -1 113 -1 42 -1 #SUP: 2
340 -1 113 -1 76 -1 #SUP: 3
340 -1 113 -1 113 -1 #SUP: 3
340 -1 151 -1 76 -1 #SUP: 2
340 -1 504 -1 76 -1 #SUP: 2
342 -1 16 -1 22 -1 #SUP: 2
342 -1 16 -1 27 -1 #SUP: 2
342 -1 16 -1 41 -1 #SUP: 4
342 -1 16 -1 124 -1 #SUP: 2
342 -1 16 -1 1075 -1 #SUP: 3
342 -1 27 -1 124 -1 #SUP: 2
342 -1 41 -1 124 -1 #SUP: 2
342 -1 64 -1 250 -1 #SUP: 2
342 -1 1075 -1 27 -1 #SUP: 2
342 -1 1075 -1 41 -1 #SUP: 3
342 -1 1075 -1 76 -1 #SUP: 2
342 -1 1075 -1 113 -1 #SUP: 2
342 -1 1075 -1 124 -1 #SUP: 2
342 -1 1075 -1 1203 -1 #SUP: 2
394 -1 32 -1 65 -1 #SUP: 2
394 -1 76 -1 65 -1 #SUP: 2
394 -1 76 -1 76 -1 #SUP: 2
401 -1 76 -1 182 -1 #SUP: 2
401 -1 76 -1 687 -1 #SUP: 2
401 -1 182 -1 687 -1 #SUP: 2
418 -1 139 -1 244 -1 #SUP: 3
420 -1 41 -1 208 -1 #SUP: 2
472 -1 22 -1 394 -1 #SUP: 2
474 -1 65 -1 32 -1 #SUP: 2
474 -1 65 -1 404 -1 #SUP: 2
474 -1 404 -1 32 -1 #SUP: 2
484 -1 27 -1 41 -1 #SUP: 2
484 -1 76 -1 3 -1 #SUP: 2
484 -1 76 -1 113 -1 #SUP: 2
484 -1 113 -1 3 -1 #SUP: 3
497 -1 10 -1 76 -1 #SUP: 2
497 -1 10 -1 864 -1 #SUP: 3
497 -1 76 -1 10 -1 #SUP: 2
497 -1 76 -1 76 -1 #SUP: 2
497 -1 76 -1 864 -1 #SUP: 2
497 -1 864 -1 76 -1 #SUP: 2
504 -1 32 -1 2 -1 #SUP: 2
504 -1 76 -1 2 -1 #SUP: 2
506 -1 151 -1 76 -1 #SUP: 2
527 -1 10 -1 50 -1 #SUP: 2
527 -1 76 -1 2 -1 #SUP: 2
527 -1 76 -1 76 -1 #SUP: 3
527 -1 165 -1 798 -1 #SUP: 2
557 -1 3 -1 3 -1 #SUP: 2
557 -1 3 -1 16 -1 #SUP: 2
557 -1 3 -1 394 -1 #SUP: 2
557 -1 16 -1 22 -1 #SUP: 2
557 -1 16 -1 41 -1 #SUP: 2
557 -1 16 -1 64 -1 #SUP: 2
557 -1 22 -1 41 -1 #SUP: 2
557 -1 22 -1 64 -1 #SUP: 2
557 -1 27 -1 3 -1 #SUP: 3
557 -1 27 -1 113 -1 #SUP: 2
557 -1 113 -1 64 -1 #SUP: 3
557 -1 113 -1 81 -1 #SUP: 2
557 -1 156 -1 64 -1 #SUP: 2
586 -1 76 -1 76 -1 #SUP: 2
596 -1 2 -1 76 -1 #SUP: 2
596 -1 76 -1 2 -1 #SUP: 2
771 -1 76 -1 64 -1 #SUP: 2
771 -1 76 -1 76 -1 #SUP: 2
791 -1 64 -1 76 -1 #SUP: 2
864 -1 76 -1 2 -1 #SUP: 2
864 -1 76 -1 3 -1 #SUP: 2
864 -1 151 -1 22 -1 #SUP: 2
864 -1 151 -1 66 -1 #SUP: 2
864 -1 151 -1 182 -1 #SUP: 2
864 -1 182 -1 22 -1 #SUP: 2
902 -1 76 -1 527 -1 #SUP: 2
936 -1 27 -1 124 -1 #SUP: 2
1036 -1 76 -1 50 -1 #SUP: 2
1075 -1 27 -1 124 -1 #SUP: 2
1075 -1 41 -1 76 -1 #SUP: 2
1075 -1 41 -1 124 -1 #SUP: 2
1075 -1 113 -1 76 -1 #SUP: 2
1075 -1 1203 -1 76 -1 #SUP: 2
1157 -1 76 -1 3 -1 #SUP: 2
1157 -1 113 -1 3 -1 #SUP: 2
1157 -1 151 -1 3 -1 #SUP: 2
1203 -1 2 -1 146 -1 #SUP: 2
1487 -1 76 -1 76 -1 #SUP: 2
1487 -1 76 -1 141 -1 #SUP: 2
1511 -1 2 -1 250 -1 #SUP: 2
1617 -1 76 -1 113 -1 #SUP: 2
1617 -1 76 -1 484 -1 #SUP: 2
1617 -1 484 -1 113 -1 #SUP: 2
1635 -1 76 -1 65 -1 #SUP: 2
1754 -1 76 -1 16 -1 #SUP: 2
2654 -1 3 -1 76 -1 #SUP: 2
2726 -1 76 -1 41 -1 #SUP: 2
2895 -1 64 -1 273 -1 #SUP: 2
3348 -1 3 -1 3 -1 #SUP: 3
3348 -1 3 -1 3348 -1 #SUP: 3
3348 -1 3348 -1 3 -1 #SUP: 2
6007 -1 607 -1 151 -1 #SUP: 2
2 -1 76 -1 22 -1 32 -1 #SUP: 2
2 -1 113 -1 22 -1 32 -1 #SUP: 2
2 -1 113 -1 64 -1 141 -1 #SUP: 2
2 -1 209 -1 31 -1 22 -1 #SUP: 2
3 -1 3 -1 27 -1 3 -1 #SUP: 2
3 -1 3 -1 27 -1 113 -1 #SUP: 2
3 -1 3 -1 76 -1 27 -1 #SUP: 2
3 -1 3 -1 76 -1 557 -1 #SUP: 2
3 -1 3 -1 182 -1 3 -1 #SUP: 2
3 -1 3 -1 557 -1 27 -1 #SUP: 2
3 -1 16 -1 22 -1 64 -1 #SUP: 2
3 -1 22 -1 41 -1 3 -1 #SUP: 2
3 -1 27 -1 3 -1 3 -1 #SUP: 3
3 -1 27 -1 3 -1 27 -1 #SUP: 3
3 -1 27 -1 64 -1 3 -1 #SUP: 2
3 -1 27 -1 113 -1 3 -1 #SUP: 3
3 -1 27 -1 113 -1 27 -1 #SUP: 2
3 -1 27 -1 113 -1 64 -1 #SUP: 2
3 -1 27 -1 113 -1 156 -1 #SUP: 2
3 -1 27 -1 156 -1 3 -1 #SUP: 2
3 -1 27 -1 156 -1 64 -1 #SUP: 2
3 -1 27 -1 182 -1 3 -1 #SUP: 2
3 -1 27 -1 182 -1 27 -1 #SUP: 2
3 -1 32 -1 113 -1 124 -1 #SUP: 2
3 -1 64 -1 22 -1 76 -1 #SUP: 2
3 -1 76 -1 3 -1 3 -1 #SUP: 2
3 -1 76 -1 27 -1 3 -1 #SUP: 2
3 -1 76 -1 27 -1 113 -1 #SUP: 2
3 -1 76 -1 76 -1 76 -1 #SUP: 2
3 -1 76 -1 156 -1 64 -1 #SUP: 2
3 -1 76 -1 557 -1 3 -1 #SUP: 3
3 -1 76 -1 557 -1 22 -1 #SUP: 2
3 -1 76 -1 557 -1 27 -1 #SUP: 3
3 -1 76 -1 557 -1 64 -1 #SUP: 2
3 -1 76 -1 557 -1 76 -1 #SUP: 2
3 -1 76 -1 557 -1 113 -1 #SUP: 2
3 -1 76 -1 557 -1 156 -1 #SUP: 2
3 -1 113 -1 3 -1 3 -1 #SUP: 2
3 -1 113 -1 3 -1 27 -1 #SUP: 2
3 -1 113 -1 64 -1 3 -1 #SUP: 2
3 -1 113 -1 76 -1 557 -1 #SUP: 2
3 -1 113 -1 156 -1 3 -1 #SUP: 2
3 -1 113 -1 156 -1 64 -1 #SUP: 2
3 -1 151 -1 236 -1 16 -1 #SUP: 2
3 -1 156 -1 64 -1 3 -1 #SUP: 2
3 -1 182 -1 3 -1 27 -1 #SUP: 2
3 -1 557 -1 3 -1 3 -1 #SUP: 2
3 -1 557 -1 27 -1 3 -1 #SUP: 2
3 -1 557 -1 156 -1 64 -1 #SUP: 2
3 -1 791 -1 64 -1 76 -1 #SUP: 2
3 -1 1511 -1 2 -1 250 -1 #SUP: 2
3 -1 3348 -1 3 -1 3 -1 #SUP: 2
7 -1 41 -1 64 -1 31 -1 #SUP: 2
10 -1 22 -1 151 -1 66 -1 #SUP: 2
10 -1 22 -1 151 -1 182 -1 #SUP: 2
10 -1 22 -1 864 -1 66 -1 #SUP: 2
10 -1 22 -1 864 -1 151 -1 #SUP: 3
10 -1 22 -1 864 -1 182 -1 #SUP: 2
10 -1 76 -1 69 -1 65 -1 #SUP: 2
10 -1 151 -1 864 -1 76 -1 #SUP: 2
10 -1 864 -1 76 -1 3 -1 #SUP: 2
10 -1 864 -1 151 -1 66 -1 #SUP: 2
10 -1 864 -1 151 -1 182 -1 #SUP: 2
16 -1 1075 -1 27 -1 124 -1 #SUP: 2
16 -1 1075 -1 41 -1 76 -1 #SUP: 2
16 -1 1075 -1 41 -1 124 -1 #SUP: 2
22 -1 3 -1 76 -1 118 -1 #SUP: 2
22 -1 3 -1 76 -1 557 -1 #SUP: 2
22 -1 3 -1 151 -1 3 -1 #SUP: 2
22 -1 3 -1 151 -1 16 -1 #SUP: 2
22 -1 3 -1 151 -1 113 -1 #SUP: 2
22 -1 32 -1 2 -1 113 -1 #SUP: 2
22 -1 151 -1 182 -1 22 -1 #SUP: 2
22 -1 864 -1 151 -1 22 -1 #SUP: 2
22 -1 864 -1 151 -1 66 -1 #SUP: 2
22 -1 864 -1 151 -1 182 -1 #SUP: 2
22 -1 864 -1 182 -1 22 -1 #SUP: 2
27 -1 41 -1 76 -1 557 -1 #SUP: 2
27 -1 41 -1 141 -1 76 -1 #SUP: 2
27 -1 41 -1 141 -1 557 -1 #SUP: 2
27 -1 41 -1 836 -1 141 -1 #SUP: 2
27 -1 76 -1 41 -1 141 -1 #SUP: 2
27 -1 76 -1 557 -1 27 -1 #SUP: 2
27 -1 113 -1 3 -1 3 -1 #SUP: 2
27 -1 113 -1 3 -1 27 -1 #SUP: 2
27 -1 113 -1 64 -1 3 -1 #SUP: 2
27 -1 113 -1 76 -1 557 -1 #SUP: 2
27 -1 113 -1 156 -1 3 -1 #SUP: 2
27 -1 113 -1 156 -1 64 -1 #SUP: 2
27 -1 141 -1 76 -1 557 -1 #SUP: 2
27 -1 156 -1 64 -1 3 -1 #SUP: 2
27 -1 182 -1 3 -1 27 -1 #SUP: 2
31 -1 596 -1 2 -1 76 -1 #SUP: 2
31 -1 596 -1 76 -1 2 -1 #SUP: 2
32 -1 76 -1 76 -1 65 -1 #SUP: 2
41 -1 76 -1 557 -1 208 -1 #SUP: 2
41 -1 141 -1 76 -1 557 -1 #SUP: 2
41 -1 141 -1 151 -1 3 -1 #SUP: 2
42 -1 76 -1 113 -1 7 -1 #SUP: 2
64 -1 3 -1 64 -1 76 -1 #SUP: 2
64 -1 42 -1 76 -1 113 -1 #SUP: 2
64 -1 76 -1 113 -1 141 -1 #SUP: 2
64 -1 76 -1 141 -1 182 -1 #SUP: 2
64 -1 76 -1 557 -1 113 -1 #SUP: 2
64 -1 113 -1 76 -1 113 -1 #SUP: 3
64 -1 113 -1 76 -1 141 -1 #SUP: 2
64 -1 113 -1 113 -1 141 -1 #SUP: 2
64 -1 151 -1 208 -1 3 -1 #SUP: 2
64 -1 273 -1 1487 -1 2895 -1 #SUP: 2
65 -1 6007 -1 607 -1 151 -1 #SUP: 2
69 -1 76 -1 65 -1 76 -1 #SUP: 2
69 -1 76 -1 76 -1 65 -1 #SUP: 2
69 -1 76 -1 76 -1 76 -1 #SUP: 2
76 -1 3 -1 27 -1 113 -1 #SUP: 2
76 -1 3 -1 148 -1 150 -1 #SUP: 2
76 -1 3 -1 182 -1 41 -1 #SUP: 2
76 -1 10 -1 76 -1 32 -1 #SUP: 2
76 -1 10 -1 864 -1 76 -1 #SUP: 2
76 -1 10 -1 864 -1 151 -1 #SUP: 2
76 -1 16 -1 22 -1 64 -1 #SUP: 2
76 -1 27 -1 3 -1 3 -1 #SUP: 2
76 -1 65 -1 76 -1 2 -1 #SUP: 2
76 -1 65 -1 404 -1 32 -1 #SUP: 2
76 -1 76 -1 2 -1 76 -1 #SUP: 2
76 -1 76 -1 2 -1 141 -1 #SUP: 2
76 -1 76 -1 2 -1 151 -1 #SUP: 2
76 -1 76 -1 10 -1 76 -1 #SUP: 2
76 -1 76 -1 10 -1 864 -1 #SUP: 2
76 -1 76 -1 65 -1 32 -1 #SUP: 3
76 -1 76 -1 65 -1 76 -1 #SUP: 2
76 -1 76 -1 65 -1 404 -1 #SUP: 2
76 -1 76 -1 76 -1 2 -1 #SUP: 2
76 -1 76 -1 113 -1 151 -1 #SUP: 2
76 -1 76 -1 151 -1 3 -1 #SUP: 2
76 -1 76 -1 404 -1 32 -1 #SUP: 2
76 -1 76 -1 864 -1 76 -1 #SUP: 2
76 -1 81 -1 64 -1 187 -1 #SUP: 2
76 -1 113 -1 7 -1 64 -1 #SUP: 3
76 -1 113 -1 81 -1 64 -1 #SUP: 2
76 -1 113 -1 141 -1 182 -1 #SUP: 2
76 -1 113 -1 510 -1 182 -1 #SUP: 2
76 -1 151 -1 3 -1 27 -1 #SUP: 2
76 -1 151 -1 3 -1 32 -1 #SUP: 2
76 -1 151 -1 3 -1 113 -1 #SUP: 2
76 -1 151 -1 27 -1 113 -1 #SUP: 2
76 -1 151 -1 76 -1 41 -1 #SUP: 2
76 -1 161 -1 22 -1 32 -1 #SUP: 2
76 -1 342 -1 16 -1 41 -1 #SUP: 2
76 -1 474 -1 65 -1 32 -1 #SUP: 2
76 -1 474 -1 65 -1 404 -1 #SUP: 2
76 -1 474 -1 404 -1 32 -1 #SUP: 2
76 -1 497 -1 10 -1 76 -1 #SUP: 2
76 -1 497 -1 10 -1 864 -1 #SUP: 3
76 -1 497 -1 76 -1 10 -1 #SUP: 2
76 -1 497 -1 76 -1 76 -1 #SUP: 2
76 -1 497 -1 76 -1 864 -1 #SUP: 2
76 -1 497 -1 864 -1 76 -1 #SUP: 2
76 -1 527 -1 165 -1 798 -1 #SUP: 2
76 -1 557 -1 3 -1 3 -1 #SUP: 2
76 -1 557 -1 3 -1 16 -1 #SUP: 2
76 -1 557 -1 16 -1 22 -1 #SUP: 2
76 -1 557 -1 16 -1 41 -1 #SUP: 2
76 -1 557 -1 16 -1 64 -1 #SUP: 2
76 -1 557 -1 22 -1 41 -1 #SUP: 2
76 -1 557 -1 22 -1 64 -1 #SUP: 2
76 -1 557 -1 27 -1 3 -1 #SUP: 2
76 -1 557 -1 27 -1 113 -1 #SUP: 2
76 -1 557 -1 113 -1 64 -1 #SUP: 3
76 -1 557 -1 113 -1 81 -1 #SUP: 2
76 -1 557 -1 156 -1 64 -1 #SUP: 2
76 -1 1203 -1 2 -1 146 -1 #SUP: 2
76 -1 1754 -1 76 -1 16 -1 #SUP: 2
113 -1 3 -1 3 -1 3 -1 #SUP: 2
113 -1 3 -1 3 -1 27 -1 #SUP: 2
113 -1 3 -1 3 -1 182 -1 #SUP: 2
113 -1 3 -1 27 -1 3 -1 #SUP: 3
113 -1 3 -1 27 -1 64 -1 #SUP: 2
113 -1 3 -1 27 -1 113 -1 #SUP: 3
113 -1 3 -1 27 -1 156 -1 #SUP: 2
113 -1 3 -1 27 -1 182 -1 #SUP: 2
113 -1 3 -1 76 -1 557 -1 #SUP: 2
113 -1 3 -1 113 -1 3 -1 #SUP: 2
113 -1 3 -1 113 -1 64 -1 #SUP: 2
113 -1 3 -1 113 -1 156 -1 #SUP: 2
113 -1 3 -1 156 -1 64 -1 #SUP: 2
113 -1 3 -1 182 -1 3 -1 #SUP: 2
113 -1 22 -1 32 -1 182 -1 #SUP: 2
113 -1 27 -1 113 -1 3 -1 #SUP: 2
113 -1 27 -1 113 -1 64 -1 #SUP: 2
113 -1 27 -1 113 -1 156 -1 #SUP: 2
113 -1 27 -1 156 -1 64 -1 #SUP: 2
113 -1 27 -1 182 -1 3 -1 #SUP: 2
113 -1 41 -1 76 -1 557 -1 #SUP: 2
113 -1 42 -1 76 -1 7 -1 #SUP: 2
113 -1 42 -1 76 -1 113 -1 #SUP: 2
113 -1 42 -1 113 -1 7 -1 #SUP: 2
113 -1 64 -1 3 -1 64 -1 #SUP: 2
113 -1 64 -1 27 -1 113 -1 #SUP: 2
113 -1 64 -1 151 -1 113 -1 #SUP: 2
113 -1 76 -1 41 -1 141 -1 #SUP: 2
113 -1 76 -1 113 -1 7 -1 #SUP: 2
113 -1 76 -1 113 -1 64 -1 #SUP: 2
113 -1 76 -1 113 -1 141 -1 #SUP: 2
113 -1 76 -1 113 -1 182 -1 #SUP: 2
113 -1 76 -1 141 -1 182 -1 #SUP: 2
113 -1 76 -1 182 -1 687 -1 #SUP: 2
113 -1 76 -1 224 -1 41 -1 #SUP: 2
113 -1 76 -1 224 -1 76 -1 #SUP: 2
113 -1 76 -1 557 -1 16 -1 #SUP: 2
113 -1 76 -1 557 -1 342 -1 #SUP: 2
113 -1 113 -1 141 -1 182 -1 #SUP: 2
113 -1 113 -1 156 -1 64 -1 #SUP: 2
113 -1 156 -1 3 -1 64 -1 #SUP: 2
113 -1 156 -1 64 -1 3 -1 #SUP: 2
113 -1 156 -1 64 -1 64 -1 #SUP: 2
113 -1 194 -1 69 -1 3 -1 #SUP: 2
113 -1 194 -1 69 -1 65 -1 #SUP: 2
113 -1 194 -1 113 -1 264 -1 #SUP: 2
113 -1 224 -1 141 -1 76 -1 #SUP: 2
113 -1 308 -1 139 -1 244 -1 #SUP: 2
113 -1 308 -1 418 -1 139 -1 #SUP: 2
113 -1 308 -1 418 -1 244 -1 #SUP: 2
113 -1 340 -1 64 -1 113 -1 #SUP: 2
113 -1 340 -1 151 -1 76 -1 #SUP: 2
113 -1 418 -1 139 -1 244 -1 #SUP: 2
139 -1 160 -1 32 -1 76 -1 #SUP: 2
151 -1 3 -1 22 -1 32 -1 #SUP: 2
151 -1 3 -1 27 -1 113 -1 #SUP: 2
151 -1 3 -1 64 -1 141 -1 #SUP: 2
151 -1 182 -1 22 -1 32 -1 #SUP: 2
156 -1 64 -1 3 -1 3 -1 #SUP: 2
156 -1 64 -1 3 -1 64 -1 #SUP: 2
182 -1 3 -1 76 -1 2 -1 #SUP: 2
224 -1 41 -1 141 -1 65 -1 #SUP: 2
224 -1 41 -1 141 -1 76 -1 #SUP: 2
224 -1 41 -1 141 -1 151 -1 #SUP: 2
224 -1 41 -1 151 -1 76 -1 #SUP: 2
224 -1 113 -1 76 -1 182 -1 #SUP: 2
308 -1 418 -1 139 -1 244 -1 #SUP: 2
340 -1 42 -1 76 -1 113 -1 #SUP: 2
340 -1 113 -1 42 -1 76 -1 #SUP: 2
340 -1 113 -1 42 -1 113 -1 #SUP: 2
340 -1 113 -1 76 -1 113 -1 #SUP: 3
342 -1 16 -1 27 -1 124 -1 #SUP: 2
342 -1 16 -1 41 -1 124 -1 #SUP: 2
342 -1 16 -1 1075 -1 27 -1 #SUP: 2
342 -1 16 -1 1075 -1 41 -1 #SUP: 3
342 -1 16 -1 1075 -1 124 -1 #SUP: 2
342 -1 1075 -1 27 -1 124 -1 #SUP: 2
342 -1 1075 -1 41 -1 124 -1 #SUP: 2
401 -1 76 -1 182 -1 687 -1 #SUP: 2
474 -1 65 -1 404 -1 32 -1 #SUP: 2
497 -1 10 -1 864 -1 76 -1 #SUP: 2
497 -1 76 -1 10 -1 76 -1 #SUP: 2
497 -1 76 -1 10 -1 864 -1 #SUP: 2
497 -1 76 -1 864 -1 76 -1 #SUP: 2
557 -1 16 -1 22 -1 64 -1 #SUP: 2
557 -1 27 -1 3 -1 3 -1 #SUP: 2
864 -1 151 -1 182 -1 22 -1 #SUP: 2
1617 -1 76 -1 484 -1 113 -1 #SUP: 2
3348 -1 3 -1 3 -1 3 -1 #SUP: 2
3348 -1 3 -1 3 -1 3348 -1 #SUP: 2
3348 -1 3 -1 3348 -1 3 -1 #SUP: 2
3348 -1 3348 -1 3 -1 3 -1 #SUP: 2
3 -1 3 -1 76 -1 557 -1 27 -1 #SUP: 2
3 -1 27 -1 113 -1 3 -1 3 -1 #SUP: 2
3 -1 27 -1 113 -1 3 -1 27 -1 #SUP: 2
3 -1 27 -1 113 -1 64 -1 3 -1 #SUP: 2
3 -1 27 -1 113 -1 156 -1 3 -1 #SUP: 2
3 -1 27 -1 113 -1 156 -1 64 -1 #SUP: 2
3 -1 27 -1 156 -1 64 -1 3 -1 #SUP: 2
3 -1 27 -1 182 -1 3 -1 27 -1 #SUP: 2
3 -1 76 -1 27 -1 3 -1 3 -1 #SUP: 2
3 -1 76 -1 557 -1 3 -1 3 -1 #SUP: 2
3 -1 76 -1 557 -1 27 -1 3 -1 #SUP: 2
3 -1 76 -1 557 -1 156 -1 64 -1 #SUP: 2
3 -1 113 -1 156 -1 64 -1 3 -1 #SUP: 2
3 -1 557 -1 27 -1 3 -1 3 -1 #SUP: 2
10 -1 22 -1 864 -1 151 -1 66 -1 #SUP: 2
10 -1 22 -1 864 -1 151 -1 182 -1 #SUP: 2
22 -1 864 -1 151 -1 182 -1 22 -1 #SUP: 2
27 -1 41 -1 141 -1 76 -1 557 -1 #SUP: 2
27 -1 113 -1 156 -1 64 -1 3 -1 #SUP: 2
64 -1 113 -1 76 -1 113 -1 141 -1 #SUP: 2
69 -1 76 -1 76 -1 65 -1 76 -1 #SUP: 2
76 -1 76 -1 10 -1 864 -1 76 -1 #SUP: 2
76 -1 76 -1 65 -1 404 -1 32 -1 #SUP: 2
76 -1 151 -1 3 -1 27 -1 113 -1 #SUP: 2
76 -1 474 -1 65 -1 404 -1 32 -1 #SUP: 2
76 -1 497 -1 10 -1 864 -1 76 -1 #SUP: 2
76 -1 497 -1 76 -1 10 -1 76 -1 #SUP: 2
76 -1 497 -1 76 -1 10 -1 864 -1 #SUP: 2
76 -1 497 -1 76 -1 864 -1 76 -1 #SUP: 2
76 -1 557 -1 16 -1 22 -1 64 -1 #SUP: 2
76 -1 557 -1 27 -1 3 -1 3 -1 #SUP: 2
113 -1 3 -1 3 -1 182 -1 3 -1 #SUP: 2
113 -1 3 -1 27 -1 113 -1 3 -1 #SUP: 2
113 -1 3 -1 27 -1 113 -1 64 -1 #SUP: 2
113 -1 3 -1 27 -1 113 -1 156 -1 #SUP: 2
113 -1 3 -1 27 -1 156 -1 64 -1 #SUP: 2
113 -1 3 -1 27 -1 182 -1 3 -1 #SUP: 2
113 -1 3 -1 113 -1 156 -1 64 -1 #SUP: 2
113 -1 27 -1 113 -1 156 -1 64 -1 #SUP: 2
113 -1 42 -1 76 -1 113 -1 7 -1 #SUP: 2
113 -1 76 -1 113 -1 141 -1 182 -1 #SUP: 2
113 -1 156 -1 64 -1 3 -1 64 -1 #SUP: 2
113 -1 308 -1 418 -1 139 -1 244 -1 #SUP: 2
340 -1 113 -1 42 -1 76 -1 113 -1 #SUP: 2
342 -1 16 -1 1075 -1 27 -1 124 -1 #SUP: 2
342 -1 16 -1 1075 -1 41 -1 124 -1 #SUP: 2
497 -1 76 -1 10 -1 864 -1 76 -1 #SUP: 2
3348 -1 3 -1 3348 -1 3 -1 3 -1 #SUP: 2
3 -1 27 -1 113 -1 156 -1 64 -1 3 -1 #SUP: 2
3 -1 76 -1 557 -1 27 -1 3 -1 3 -1 #SUP: 2
76 -1 497 -1 76 -1 10 -1 864 -1 76 -1 #SUP: 2
113 -1 3 -1 27 -1 113 -1 156 -1 64 -1 #SUP: 2
