16208 -1 69 -1 976 -1 151 -1 41 -1 504 -1 41 -1 1418 -1 1585 -1 1 -2
686 -1 1 -2
113 -1 571 -1 182 -1 76 -1 571 -1 151 -1 41 -1 256 -1 64 -1 707 -1 99 -1 76 -1 76 -1 151 -1 41 -1 308 -1 22 -1 966 -1 2429 -1 76 -1 151 -1 190 -1 3 -1 484 -1 266 -1 394 -1 64 -1 141 -1 264 -1 30 -2
10 -1 22 -1 2200 -1 190 -1 39 -1 3 -1 394 -1 64 -1 256 -1 250 -1 1213 -1 141 -1 3785 -1 76 -1 234 -1 557 -1 1076 -1 200 -1 255 -1 22 -1 1007 -1 76 -1 20481 -1 1 -1 30 -2
2 -1 135 -1 1753 -1 115 -1 182 -1 76 -1 1076 -1 16878 -1 644 -1 4077 -1 271 -2
417 -1 699 -1 64 -1 7 -1 1036 -1 1016 -1 30 -2
3460 -1 1855 -1 418 -1 113 -1 326 -1 213 -1 2546 -1 30 -1 386 -1 11875 -1 1855 -1 1396 -1 30 -2
182 -1 493 -1 1016 -1 33 -1 1108 -1 113 -1 208 -1 256 -1 10 -1 22 -1 2278 -1 30 -2
557 -1 50 -1 529 -1 3 -1 406 -1 234 -1 611 -1 2 -1 113 -1 7 -1 358 -1 64 -1 155 -1 182 -1 1191 -1 30 -2
113 -1 194 -1 236 -1 394 -1 890 -1 32 -1 22 -1 5777 -1 494 -1 64 -1 22 -1 2065 -1 868 -1 151 -1 41 -1 7 -1 22 -1 4745 -1 64 -1 525 -1 717 -1 187 -1 190 -1 30 -2
672 -1 113 -1 76 -1 1273 -1 208 -1 5445 -1 4745 -1 76 -1 2 -1 190 -1 3 -1 282 -1 3430 -1 271 -2
771 -1 557 -1 1312 -1 41 -1 745 -1 41 -1 81 -1 1 -2
747 -1 41 -1 83461 -1 271 -2
64 -1 7523 -1 76 -1 469 -1 636 -1 113 -1 2509 -1 312 -1 1163 -1 151 -1 469 -1 161 -1 482 -1 3 -1 706 -1 64 -1 786 -1 77 -1 1982 -1 77 -1 469 -1 141 -1 31 -1 2897 -1 2695 -1 30 -2
151 -1 469 -1 3 -1 3129 -1 32 -1 571 -1 557 -1 482 -1 376 -1 151 -1 1982 -1 2 -1 30 -2
57 -1 4485 -1 2 -1 363 -1 4811 -1 76 -1 312 -1 1057 -1 113 -1 326 -1 3 -1 4092 -1 137 -1 47 -1 3539 -1 65 -1 522 -1 32 -1 385 -1 377 -1 30 -2
702 -1 2542 -1 146 -1 469 -1 2266 -1 2 -1 469 -1 3 -1 610 -1 30 -2
469 -1 7 -1 523 -1 64 -1 5556 -1 47 -1 13 -1 557 -1 469 -1 30 -2
163 -1 5026 -1 76 -1 81586 -1 271 -2
151 -1 3 -1 806 -1 271 -2
158 -1 41 -1 208 -1 4 -1 504 -1 1961 -1 76 -1 1367 -1 2324 -1 141 -1 553 -1 32 -1 22 -1 383 -1 42 -1 30 -2
1175 -1 278 -1 282 -1 30 -2
571 -1 29 -1 1587 -1 4 -1 76 -1 221 -1 163 -1 4 -1 76 -1 510 -1 113 -1 3564 -1 2887 -1 30 -2
113 -1 118 -1 326 -1 686 -1 113 -1 699 -1 22 -1 75 -1 30 -2
64 -1 3146 -1 345 -1 1 -2
64 -1 256 -1 155 -1 64 -1 22 -1 339 -1 1 -2
64 -1 2018 -1 635 -1 30 -2
113 -1 3 -1 906 -1 1720 -1 64 -1 936 -1 773 -1 3126 -1 2005 -1 6209 -1 30 -2
1083 -1 76 -1 27 -1 312 -1 2543 -1 394 -1 64 -1 463 -1 278 -1 22 -1 207 -1 271 -2
22 -1 1057 -1 2 -1 113 -1 7 -1 3 -1 2890 -1 127 -1 10 -1 825 -1 30 -2
113 -1 141 -1 156 -1 64 -1 76 -1 557 -1 113 -1 636 -1 30 -2
113 -1 872 -1 2348 -1 4547 -1 546 -1 113 -1 699 -1 635 -1 75 -1 484 -1 113 -1 208 -1 2453 -1 388 -1 154 -1 31 -1 7861 -1 30 -2
69 -1 10589 -1 151 -1 113 -1 214 -1 139 -1 187 -1 224 -1 41 -1 586 -1 113 -1 135 -1 342 -1 7 -1 65 -1 1511 -1 76 -1 2211 -1 5537 -1 115 -1 93 -1 30 -2
557 -1 30 -2
2379 -1 496 -1 237 -1 3825 -1 32 -1 6620 -1 38597 -1 41 -1 546 -1 2 -1 1121 -1 6620 -1 76 -1 38597 -1 76 -1 2 -1 149 -1 3213 -1 7465 -1 10 -1 66 -1 18846 -1 32 -1 13 -1 76 -1 244 -1 1006 -1 64 -1 967 -1 64 -1 10040 -1 64 -1 30 -2
113 -1 510 -1 65 -1 788 -1 1674 -1 30 -2
224 -1 113 -1 7 -1 64 -1 1952 -1 213 -1 10 -1 1362 -1 65 -1 1956 -1 76 -1 113 -1 144 -1 131 -1 22 -1 2584 -1 76 -1 999 -1 131 -1 273 -1 69 -1 141 -1 1152 -1 2 -1 232 -1 1618 -1 151 -1 131 -1 208 -1 692 -1 182 -1 187 -1 244 -1 190 -1 30 -2
250 -1 692 -1 187 -1 30 -2
2464 -1 76 -1 118 -1 139 -1 64 -1 50 -1 117 -1 636 -1 113 -1 273 -1 64 -1 826 -1 250 -1 1002 -1 271 -2
237 -1 30 -1 22 -1 72 -1 287 -1 113 -1 3 -1 33 -1 182 -1 3 -1 242 -1 41 -1 118 -1 7 -1 22 -1 470 -1 64 -1 141 -1 182 -1 717 -1 30 -2
238 -1 30 -1 1498 -1 41 -1 118 -1 326 -1 7 -1 22 -1 30 -2
4072 -1 76 -1 32 -1 765 -1 747 -1 271 -2
27 -1 141 -1 41 -1 124 -1 41 -1 598 -1 2295 -1 182 -1 689 -1 41 -1 316 -1 8570 -1 1 -2
27 -1 4 -1 1 -2
3 -1 29 -1 495 -1 312 -1 1165 -1 76 -1 185 -1 1 -2
342 -1 10 -1 65 -1 74 -1 160 -1 312 -1 1057 -1 2 -1 54 -1 3 -1 789 -1 561 -1 30 -2
163 -1 74 -1 32 -1 50 -1 13 -1 76 -1 15 -1 571 -1 471 -1 375 -1 798 -1 1972 -1 30 -2
557 -1 1717 -1 417 -1 2460 -1 75 -1 2233 -1 50 -1 30 -2
113 -1 1651 -1 31 -1 32452 -1 76 -1 185 -1 30 -2
69 -1 58521 -1 76 -1 41 -1 308 -1 8072 -1 966 -1 67 -1 44 -1 76 -1 41 -1 256 -1 17862 -1 1589 -1 10 -1 17862 -1 413 -1 76 -1 2742 -1 182 -1 144 -1 41 -1 312 -1 2091 -1 31 -1 6087 -1 759 -1 77 -1 30 -2
866 -1 30 -2
195 -1 1193 -1 1100 -1 32 -1 1287 -1 30 -2
557 -1 747 -1 31 -1 838 -1 88376 -1 30 -2
393 -1 2771 -1 271 -2
342 -1 484 -1 63 -1 76 -1 37768 -1 33 -1 165 -1 436 -1 76 -1 113 -1 7 -1 65 -1 257 -1 3504 -1 31 -1 1990 -1 10 -1 22 -1 864 -1 151 -1 113 -1 194 -1 113 -1 3 -1 148 -1 51335 -1 150 -1 201 -1 158 -1 10 -1 1990 -1 2 -1 182 -1 356 -1 148 -1 64 -1 510 -1 113 -1 40498 -1 30 -2
33 -1 22 -1 201 -1 436 -1 76 -1 113 -1 7 -1 65 -1 406 -1 2000 -1 30 -2
182 -1 641 -1 64 -1 113 -1 340 -1 236 -1 463 -1 2607 -1 31 -1 22 -1 12927 -1 376 -1 30 -2
686 -1 118 -1 41 -1 510 -1 29 -1 127 -1 1 -2
41 -1 208 -1 916 -1 418 -1 250 -1 463 -1 76 -1 179 -1 30 -2
224 -1 41 -1 1618 -1 702 -1 64 -1 916 -1 702 -1 555 -1 554 -1 76 -1 250 -1 161 -1 124 -1 30 -2
113 -1 3 -1 312 -1 3540 -1 77 -1 65 -1 1325 -1 337 -1 113 -1 10 -1 160 -1 22 -1 652 -1 5326 -1 3167 -1 30 -2
113 -1 571 -1 64 -1 356 -1 54 -1 2233 -1 64 -1 308 -1 273 -1 131 -1 692 -1 30 -2
375 -1 211 -1 3 -1 406 -1 2756 -1 30 -2
113 -1 598 -1 141 -1 2799 -1 557 -1 113 -1 571 -1 64 -1 6622 -1 30 -2
871 -1 1080 -1 30 -2
50 -1 1203 -1 3 -1 76 -1 22 -1 5357 -1 3 -1 2700 -1 32 -1 2 -1 42 -1 22 -1 8088 -1 30 -2
469 -1 256 -1 22 -1 5357 -1 77 -1 747 -1 135 -1 469 -1 3 -1 3356 -1 2 -1 1092 -1 30 -2
22 -1 33035 -1 450 -1 3 -1 248 -1 438 -1 271 -2
113 -1 141 -1 1068 -1 6510 -1 66 -1 22 -1 75 -1 30 -2
113 -1 81 -1 64 -1 1936 -1 50 -1 2595 -1 2 -1 687 -1 154 -1 506 -1 340 -1 312 -1 2711 -1 1235 -1 30 -2
356 -1 250 -1 7019 -1 76 -1 31 -1 414 -1 3194 -1 3356 -1 471 -1 634 -1 10 -1 6278 -1 3472 -1 89148 -1 30 -2
424 -1 1097 -1 148 -1 596 -1 76 -1 2591 -1 2 -1 3502 -1 150 -1 635 -1 7894 -1 113 -1 893 -1 236 -1 615 -1 30 -2
182 -1 999 -1 41 -1 872 -1 194 -1 32 -1 22 -1 348 -1 10 -1 151 -1 2377 -1 30 -2
342 -1 406 -1 231 -1 158 -1 113 -1 946 -1 64 -1 3 -1 76 -1 221 -1 7842 -1 160 -1 22 -1 296 -1 3167 -1 2377 -1 2649 -1 30 -2
557 -1 113 -1 711 -1 504 -1 342 -1 743 -1 30 -2
502 -1 76 -1 242 -1 113 -1 118 -1 7 -1 22 -1 363 -1 32 -1 351 -1 4532 -1 1436 -1 151 -1 743 -1 30 -2
21695 -1 375 -1 403 -1 405 -1 976 -1 8 -1 3833 -1 997 -1 2819 -1 39973 -1 1586 -1 2434 -1 143 -1 39974 -1 30 -2
702 -1 520 -1 4316 -1 2 -1 1231 -1 30 -2
686 -1 141 -1 41 -1 221 -1 156 -1 3 -1 10 -1 1098 -1 428 -1 1467 -1 1042 -1 2432 -1 160 -1 702 -1 1 -2
141 -1 41 -1 16 -1 7 -1 234 -1 54 -1 64 -1 141 -1 160 -1 29 -1 75 -1 1 -2
75 -1 3 -1 16814 -1 76 -1 2460 -1 182 -1 22587 -1 30 -2
113 -1 3 -1 1334 -1 2 -1 1142 -1 31 -1 22 -1 15 -1 247 -1 76 -1 677 -1 115 -1 22 -1 2464 -1 268 -1 13627 -1 30 -2
113 -1 1860 -1 65 -1 614 -1 160 -1 50 -1 1057 -1 1881 -1 30 -2
231 -1 2810 -1 3 -1 484 -1 364 -1 148 -1 1104 -1 179 -1 151 -1 113 -1 326 -1 278 -1 229 -1 153 -1 271 -2
113 -1 7 -1 65 -1 3460 -1 9771 -1 160 -1 46 -1 3618 -1 30 -2
22 -1 1668 -1 3 -1 8971 -1 1077 -1 340 -1 65 -1 4401 -1 30 -2
22 -1 297 -1 4811 -1 3 -1 7 -1 1036 -1 7715 -1 208 -1 3 -1 976 -1 30 -2
1817 -1 262 -1 35234 -1 30 -2
35234 -1 3 -1 50 -1 177 -1 271 -2
2649 -1 42 -1 20451 -1 76 -1 57 -1 271 -2
557 -1 1153 -1 30 -2
22 -1 415 -1 160 -1 3845 -1 113 -1 872 -1 156 -1 64 -1 1099 -1 7 -1 3046 -1 22 -1 207 -1 76 -1 30 -2
747 -1 31 -1 22 -1 776 -1 271 -2
342 -1 5559 -1 64 -1 308 -1 151 -1 2831 -1 2917 -1 3 -1 165 -1 32 -1 22 -1 6654 -1 2430 -1 30 -2
113 -1 3 -1 194 -1 32 -1 141 -1 151 -1 158 -1 113 -1 256 -1 7326 -1 160 -1 4361 -1 271 -2
69 -1 438 -1 497 -1 76 -1 41 -1 7 -1 66 -1 599 -1 30 -2
686 -1 1 -2
113 -1 1678 -1 4103 -1 636 -1 22 -1 1504 -1 1031 -1 76 -1 221 -1 158 -1 113 -1 326 -1 2302 -1 510 -1 213 -1 256 -1 66 -1 19395 -1 30 -2
1057 -1 6770 -1 3 -1 4657 -1 113 -1 3618 -1 33 -1 273 -1 50 -1 8003 -1 1527 -1 3 -1 16 -1 22109 -1 2 -1 27 -1 113 -1 836 -1 3 -1 30 -2
2997 -1 41 -1 1227 -1 182 -1 280 -1 76 -1 160 -1 405 -1 431 -1 113 -1 118 -1 7 -1 65 -1 1879 -1 854 -1 10 -1 41 -1 2 -1 482 -1 214 -1 76 -1 469 -1 3 -1 860 -1 893 -1 30 -2
2648 -1 3 -1 363 -1 2 -1 1467 -1 469 -1 463 -1 76 -1 224 -1 41 -1 118 -1 156 -1 469 -1 151 -1 394 -1 30 -2
50 -1 443 -1 966 -1 525 -1 113 -1 148 -1 149 -1 1853 -1 10 -1 22 -1 294 -1 691 -1 997 -1 2 -1 2464 -1 488 -1 529 -1 2 -1 495 -1 490 -1 3 -1 17837 -1 1090 -1 557 -1 113 -1 1521 -1 64 -1 997 -1 364 -1 148 -1 150 -1 2464 -1 30 -2
484 -1 113 -1 1169 -1 814 -1 22 -1 153 -1 807 -1 30 -2
342 -1 10 -1 182 -1 30 -2
113 -1 2498 -1 401 -1 1367 -1 65 -1 1591 -1 76 -1 502 -1 141 -1 810 -1 31 -1 1104 -1 2 -1 2542 -1 256 -1 65 -1 1213 -1 77 -1 65 -1 8919 -1 6483 -1 30 -2
571 -1 22 -1 1181 -1 64 -1 256 -1 190 -1 76 -1 571 -1 22 -1 1213 -1 30 -2
385 -1 759 -1 76 -1 113 -1 463 -1 500 -1 64 -1 30 -2
237 -1 30 -1 27 -1 3 -1 22 -1 163 -1 394 -1 64 -1 2887 -1 526 -1 160 -1 41 -1 1 -2
504 -1 57 -1 76 -1 5738 -1 113 -1 860 -1 555 -1 554 -1 30 -1 141 -1 264 -1 825 -1 3 -1 163 -1 76 -1 976 -1 220 -1 278 -1 781 -1 160 -1 65 -1 4353 -1 2963 -1 30 -2
69 -1 484 -1 976 -1 64 -1 814 -1 278 -1 29 -1 3062 -1 2 -1 273 -1 1068 -1 131 -1 3 -1 64 -1 50 -1 1057 -1 30 -2
113 -1 7 -1 64 -1 504 -1 76 -1 229 -1 5658 -1 7 -1 3 -1 65 -1 7809 -1 31 -1 113 -1 30 -2
69 -1 613 -1 113 -1 484 -1 364 -1 64 -1 3 -1 363 -1 2 -1 148 -1 30 -2
50 -1 6770 -1 32 -1 547 -1 1242 -1 3 -1 312 -1 1057 -1 30 -2
22 -1 3581 -1 31 -1 250 -1 74 -1 463 -1 2422 -1 64 -1 469 -1 76 -1 182 -1 161 -1 7 -1 482 -1 503 -1 3 -1 182 -1 16 -1 31 -1 47 -1 1603 -1 490 -1 30 -2
113 -1 3 -1 3218 -1 76 -1 248 -1 89 -1 3 -1 33 -1 50 -1 304 -1 2 -1 113 -1 7 -1 1036 -1 113 -1 200 -1 78 -1 187 -1 297 -1 32 -1 50 -1 92 -1 46 -1 2050 -1 3 -1 2652 -1 30 -2
113 -1 256 -1 1583 -1 406 -1 234 -1 160 -1 131 -1 76 -1 675 -1 1237 -1 652 -1 463 -1 2 -1 181 -1 2 -1 190 -1 3 -1 527 -1 4477 -1 9526 -1 30 -2
644 -1 2431 -1 3 -1 35274 -1 2 -1 24146 -1 30 -2
113 -1 141 -1 76 -1 185 -1 30 -2
2 -1 462 -1 158 -1 113 -1 81 -1 64 -1 1621 -1 151 -1 113 -1 248 -1 124 -1 182 -1 76 -1 50 -1 1183 -1 256 -1 1161 -1 77 -1 1780 -1 3443 -1 30 -2
41 -1 326 -1 151 -1 2626 -1 189 -1 3 -1 22 -1 15 -1 14360 -1 54 -1 41 -1 208 -1 141 -1 64 -1 131 -1 76 -1 1817 -1 22 -1 153 -1 32 -1 348 -1 41 -1 617 -1 30 -2
484 -1 41 -1 272 -1 510 -1 250 -1 225 -1 65 -1 1589 -1 31 -1 717 -1 76 -1 65 -1 614 -1 106 -1 64 -1 30 -2
771 -1 76 -1 3 -1 621 -1 1209 -1 149 -1 15795 -1 3 -1 89149 -1 30 -2
1879 -1 74 -1 3 -1 65 -1 576 -1 1169 -1 30 -2
242 -1 113 -1 7 -1 527 -1 339 -1 273 -1 131 -1 692 -1 271 -2
2 -1 5006 -1 510 -1 113 -1 406 -1 3564 -1 30 -2
2 -1 189 -1 30 -2
5557 -1 89151 -1 89150 -1 30 -2
22 -1 4400 -1 10 -1 50 -1 2213 -1 158 -1 113 -1 501 -1 160 -1 22 -1 23 -1 345 -1 271 -2
22 -1 769 -1 520 -1 513 -1 271 -2
2 -1 22 -1 3095 -1 76 -1 369 -1 271 -2
113 -1 598 -1 221 -1 501 -1 689 -1 113 -1 3 -1 1814 -1 76 -1 113 -1 7 -1 527 -1 339 -1 273 -1 364 -1 1104 -1 7 -1 65 -1 1104 -1 666 -1 30 -2
11470 -1 8 -1 16983 -1 3311 -1 8624 -1 722 -1 89152 -1 130 -1 154 -1 2607 -1 10 -1 29 -1 116 -1 420 -1 200 -1 163 -1 31 -1 29 -1 11470 -1 182 -1 493 -1 144 -1 41 -1 148 -1 193 -1 10 -1 29 -1 304 -1 454 -1 76 -1 30 -2
113 -1 155 -1 64 -1 443 -1 77 -1 827 -1 77 -1 65 -1 6651 -1 158 -1 113 -1 710 -1 364 -1 10 -1 867 -1 160 -1 50 -1 2117 -1 30 -2
113 -1 7 -1 3 -1 256 -1 148 -1 2 -1 148 -1 10 -1 867 -1 160 -1 22 -1 1711 -1 207 -1 10 -1 1744 -1 385 -1 76 -1 484 -1 364 -1 484 -1 151 -1 113 -1 194 -1 50 -1 529 -1 3 -1 30 -2