237 -1 30 -1 27 -1 363 -1 32 -1 372 -1 141 -1 41 -1 2914 -1 1198 -1 64 -1 1 -2
600 -1 364 -1 553 -1 30 -2
113 -1 1640 -1 113 -1 340 -1 508 -1 76 -1 880 -1 76 -1 4190 -1 76 -1 2 -1 149 -1 114 -1 22 -1 15 -1 76 -1 557 -1 342 -1 743 -1 64 -1 163 -1 372 -1 244 -1 1191 -1 168 -1 1913 -1 30 -2
238 -1 30 -1 158 -1 41 -1 30 -2
113 -1 3 -1 200 -1 904 -1 224 -1 250 -1 3 -1 872 -1 312 -1 16 -1 54 -1 30 -2
224 -1 41 -1 141 -1 250 -1 76 -1 7 -1 182 -1 1534 -1 168 -1 607 -1 160 -1 201 -1 213 -1 1 -2
686 -1 113 -1 1193 -1 250 -1 31 -1 65 -1 8798 -1 931 -1 279 -1 76 -1 113 -1 7 -1 64 -1 826 -1 65 -1 2229 -1 2819 -1 30 -2
8 -1 112172 -1 467 -1 1661 -1 95 -1 90593 -1 76 -1 112174 -1 112170 -1 76 -1 112173 -1 112171 -1 16 -1 248 -1 30 -2
113 -1 118 -1 2595 -1 168 -1 1878 -1 2938 -1 1468 -1 76 -1 5314 -1 141 -1 113 -1 7 -1 65 -1 2902 -1 864 -1 32 -1 50 -1 1386 -1 76 -1 1472 -1 113 -1 326 -1 342 -1 16 -1 3244 -1 146 -1 149 -1 296 -1 2141 -1 30 -2
182 -1 200 -1 503 -1 151 -1 1387 -1 603 -1 608 -1 50 -1 1428 -1 408 -1 636 -1 113 -1 151 -1 342 -1 16 -1 1198 -1 64 -1 131 -1 2 -1 151 -1 342 -1 81 -1 64 -1 555 -1 1163 -1 160 -1 131 -1 76 -1 158 -1 342 -1 10 -1 868 -1 1193 -1 1287 -1 64 -1 936 -1 305 -1 1203 -1 32 -1 1186 -1 234 -1 30 -2
555 -1 756 -1 608 -1 113 -1 1418 -1 151 -1 773 -1 32 -1 3 -1 14426 -1 726 -1 200 -1 65 -1 125 -1 42 -1 6434 -1 115 -1 50 -1 11511 -1 30 -2
69 -1 234 -1 150 -1 7 -1 64 -1 3 -1 111650 -1 154 -1 76 -1 557 -1 113 -1 7 -1 64 -1 6988 -1 64 -1 3712 -1 50 -1 2213 -1 1101 -1 76 -1 69 -1 3359 -1 76 -1 557 -1 221 -1 30 -2
113 -1 155 -1 64 -1 76 -1 158 -1 113 -1 3 -1 65 -1 2232 -1 30 -2
179 -1 151 -1 342 -1 10 -1 50 -1 1530 -1 76 -1 113 -1 1615 -1 64 -1 1584 -1 6712 -1 600 -1 230 -1 1557 -1 64 -1 50 -1 1106 -1 76 -1 352 -1 113 -1 360 -1 65 -1 355 -1 160 -1 65 -1 380 -1 886 -1 65 -1 385 -1 76 -1 31 -1 862 -1 287 -1 2 -1 491 -1 730 -1 154 -1 30 -2
6625 -1 6623 -1 3472 -1 7803 -1 76 -1 602 -1 3472 -1 10200 -1 30 -2
702 -1 200 -1 699 -1 64 -1 254 -1 148 -1 6625 -1 6623 -1 30 -2
31 -1 65 -1 70 -1 76 -1 113 -1 194 -1 195 -1 3024 -1 22 -1 1650 -1 5480 -1 137 -1 1953 -1 30 -2
9 -1 57376 -1 112177 -1 112178 -1 5743 -1 112175 -1 112176 -1 196 -1 65 -1 2144 -1 65 -1 2144 -1 65 -1 268 -1 368 -1 76 -1 182 -1 692 -1 33 -1 50 -1 2776 -1 30 -2
342 -1 860 -1 3 -1 731 -1 847 -1 76 -1 557 -1 50 -1 1157 -1 64 -1 1287 -1 237 -1 161 -1 3 -1 182 -1 510 -1 2214 -1 864 -1 64 -1 1554 -1 273 -1 22 -1 2005 -1 214 -1 2071 -1 201 -1 213 -1 76 -1 484 -1 424 -1 165 -1 32 -1 30 -2
22 -1 776 -1 1089 -1 692 -1 31 -1 113 -1 188 -1 1038 -1 480 -1 9141 -1 3739 -1 479 -1 1289 -1 1196 -1 2144 -1 112180 -1 864 -1 268 -1 112179 -1 1315 -1 554 -1 56867 -1 773 -1 1600 -1 56864 -1 1406 -1 483 -1 71539 -1 485 -1 481 -1 71535 -1 29 -1 153 -1 3 -1 827 -1 41 -1 124 -1 22 -1 1757 -1 1089 -1 356 -1 702 -1 4702 -1 1077 -1 42 -1 130 -1 33 -1 47 -1 799 -1 1 -2
3626 -1 1814 -1 3626 -1 7447 -1 677 -1 45553 -1 889 -1 250 -1 1077 -1 8861 -1 296 -1 179 -1 30 -2
113 -1 194 -1 487 -1 488 -1 492 -1 490 -1 115 -1 22 -1 70 -1 30 -2
8389 -1 1 -2
548 -1 7 -1 64 -1 194 -1 278 -1 250 -1 31 -1 65 -1 135 -1 30 -2
747 -1 271 -2
1101 -1 76 -1 375 -1 872 -1 3 -1 81 -1 64 -1 916 -1 691 -1 827 -1 2 -1 1664 -1 483 -1 113 -1 493 -1 814 -1 22 -1 1664 -1 2 -1 625 -1 2561 -1 30 -2
113 -1 1521 -1 64 -1 2434 -1 490 -1 2 -1 1103 -1 2 -1 10158 -1 5986 -1 488 -1 31 -1 635 -1 287 -1 30 -2
1105 -1 113 -1 308 -1 76 -1 747 -1 271 -2
113 -1 1678 -1 916 -1 1108 -1 81 -1 64 -1 510 -1 201 -1 1175 -1 3 -1 264 -1 151 -1 113 -1 308 -1 77 -1 871 -1 64 -1 388 -1 149 -1 200 -1 264 -1 151 -1 113 -1 141 -1 31 -1 201 -1 213 -1 76 -1 77 -1 10 -1 305 -1 1771 -1 3 -1 148 -1 975 -1 150 -1 30 -2
747 -1 484 -1 364 -1 271 -2
342 -1 200 -1 904 -1 158 -1 161 -1 312 -1 1062 -1 2709 -1 946 -1 64 -1 510 -1 213 -1 1175 -1 262 -1 3 -1 871 -1 64 -1 681 -1 1 -2
713 -1 113 -1 224 -1 50 -1 1317 -1 32 -1 1062 -1 3 -1 1433 -1 76 -1 557 -1 375 -1 3 -1 357 -1 22 -1 605 -1 30 -2
363 -1 32 -1 3090 -1 242 -1 131 -1 81 -1 64 -1 1535 -1 9927 -1 3185 -1 76 -1 2 -1 179 -1 305 -1 304 -1 3185 -1 2 -1 931 -1 268 -1 600 -1 364 -1 1535 -1 30 -2
1423 -1 31 -1 186 -1 1365 -1 384 -1 32 -1 36996 -1 30 -2
804 -1 54 -1 64 -1 141 -1 160 -1 36996 -1 2364 -1 923 -1 24583 -1 8 -1 22838 -1 112183 -1 98 -1 89 -1 95 -1 1777 -1 722 -1 112182 -1 16656 -1 17432 -1 112181 -1 418 -1 3 -1 182 -1 31612 -1 76 -1 250 -1 1660 -1 699 -1 64 -1 1533 -1 1915 -1 340 -1 1795 -1 213 -1 3 -1 22 -1 72 -1 213 -1 352 -1 161 -1 1535 -1 201 -1 3185 -1 30 -2
9 -1 18432 -1 6131 -1 112184 -1 2480 -1 920 -1 113 -1 124 -1 76 -1 4072 -1 30 -2
22 -1 2589 -1 11673 -1 860 -1 4779 -1 205 -1 22 -1 51 -1 380 -1 44 -1 149 -1 484 -1 30 -2
342 -1 200 -1 3390 -1 151 -1 527 -1 165 -1 929 -1 510 -1 65 -1 3725 -1 251 -1 31 -1 250 -1 30 -2
21004 -1 3 -1 48586 -1 484 -1 4668 -1 6982 -1 208 -1 16 -1 3 -1 1432 -1 4473 -1 9 -1 22836 -1 1647 -1 112185 -1 113 -1 296 -1 179 -1 2372 -1 4442 -1 342 -1 16 -1 872 -1 65 -1 6982 -1 242 -1 148 -1 150 -1 451 -1 32 -1 22 -1 207 -1 268 -1 2754 -1 3 -1 12486 -1 30 -1 30 -1 866 -1 30 -2
375 -1 17 -1 266 -1 1795 -1 2379 -1 42 -1 30 -2
1336 -1 8 -1 22838 -1 112187 -1 10776 -1 1654 -1 112186 -1 3571 -1 18368 -1 76815 -1 237 -1 208 -1 168 -1 4029 -1 6147 -1 2648 -1 392 -1 250 -1 1 -2
50 -1 6805 -1 139 -1 225 -1 22 -1 355 -1 76 -1 548 -1 1869 -1 64 -1 9023 -1 113 -1 139 -1 244 -1 51461 -1 22 -1 2211 -1 620 -1 250 -1 3028 -1 625 -1 64 -1 113 -1 31 -1 635 -1 287 -1 2293 -1 4564 -1 22 -1 2544 -1 1409 -1 1564 -1 48586 -1 272 -1 41 -1 2648 -1 639 -1 187 -1 50 -1 1157 -1 1 -2
113 -1 340 -1 250 -1 7875 -1 1733 -1 4346 -1 151 -1 29 -1 1730 -1 3 -1 438 -1 158 -1 675 -1 18295 -1 4095 -1 2 -1 7 -1 1227 -1 151 -1 22 -1 1730 -1 4 -1 305 -1 732 -1 32 -1 41 -1 30 -2
113 -1 200 -1 2024 -1 861 -1 312 -1 373 -1 52 -1 33 -1 2208 -1 418 -1 250 -1 2501 -1 503 -1 30 -2
113 -1 2726 -1 113 -1 118 -1 833 -1 1670 -1 242 -1 113 -1 1184 -1 118 -1 194 -1 165 -1 1670 -1 3 -1 169 -1 296 -1 149 -1 1433 -1 1 -2
892 -1 30 -2
237 -1 30 -1 483 -1 238 -1 30 -1 342 -1 6517 -1 64 -1 504 -1 1062 -1 307 -1 30 -1 487 -1 547 -1 30 -1 490 -1 1 -2
804 -1 30 -1 529 -1 237 -1 30 -1 1103 -1 238 -1 30 -1 554 -1 307 -1 30 -1 1103 -1 495 -1 149 -1 2000 -1 487 -1 547 -1 30 -1 41 -1 208 -1 7 -1 46 -1 32 -1 168 -1 153 -1 76 -1 484 -1 30 -2
804 -1 30 -1 1678 -1 636 -1 30 -2
582 -1 30 -2
118 -1 215 -1 76 -1 69 -1 65 -1 1286 -1 902 -1 30 -2
237 -1 30 -1 480 -1 238 -1 30 -1 488 -1 307 -1 30 -1 2000 -1 490 -1 2144 -1 1 -2
547 -1 30 -1 1031 -1 1062 -1 149 -1 2000 -1 490 -1 804 -1 30 -1 487 -1 50 -1 14071 -1 3 -1 827 -1 30 -2
10045 -1 30 -2
1327 -1 1643 -1 375 -1 3 -1 465 -1 10 -1 250 -1 251 -1 307 -1 75 -1 557 -1 113 -1 1678 -1 308 -1 599 -1 52 -1 2997 -1 113 -1 52 -1 10 -1 847 -1 376 -1 30 -2
5219 -1 113 -1 893 -1 250 -1 692 -1 30 -2
237 -1 30 -1 2144 -1 1 -2
238 -1 30 -1 1 -2
307 -1 30 -1 20880 -1 2531 -1 76 -1 7575 -1 8220 -1 17949 -1 547 -1 30 -1 147 -1 529 -1 804 -1 30 -1 529 -1 195 -1 504 -1 5672 -1 3126 -1 33 -1 250 -1 1450 -1 30 -2
237 -1 30 -1 342 -1 200 -1 77 -1 1175 -1 254 -1 1077 -1 22 -1 2123 -1 5437 -1 77 -1 254 -1 115 -1 6677 -1 11688 -1 76 -1 77 -1 566 -1 77 -1 22 -1 30 -2
7 -1 1769 -1 4 -1 30 -2
273 -1 278 -1 2785 -1 77 -1 65 -1 294 -1 903 -1 1 -2
6643 -1 2785 -1 520 -1 181 -1 30 -2
224 -1 189 -1 139 -1 64 -1 41 -1 2 -1 1193 -1 41 -1 64 -1 510 -1 65 -1 2005 -1 278 -1 264 -1 76 -1 27 -1 161 -1 29 -1 454 -1 1181 -1 3 -1 1 -2
1016 -1 33 -1 22 -1 737 -1 30 -2
113 -1 81 -1 64 -1 194 -1 497 -1 66 -1 22 -1 1602 -1 76 -1 22 -1 5058 -1 2 -1 5057 -1 76 -1 30 -2
1511 -1 30 -2
113 -1 1678 -1 786 -1 182 -1 179 -1 557 -1 342 -1 2194 -1 65 -1 11771 -1 31 -1 22 -1 502 -1 522 -1 32 -1 44 -1 10 -1 772 -1 182 -1 15625 -1 9 -1 25477 -1 1287 -1 112190 -1 112189 -1 9 -1 25477 -1 1287 -1 112190 -1 112188 -1 686 -1 161 -1 213 -1 141 -1 151 -1 158 -1 131 -1 272 -1 200 -1 3545 -1 182 -1 225 -1 22 -1 9537 -1 13572 -1 1 -2
5219 -1 113 -1 403 -1 151 -1 1191 -1 77 -1 5608 -1 77 -1 213 -1 2371 -1 25422 -1 357 -1 22 -1 4360 -1 30 -2