417 -1 32 -1 22 -1 201 -1 1996 -1 1139 -1 153 -1 7 -1 6929 -1 546 -1 22 -1 59815 -1 32 -1 1009 -1 754 -1 3572 -1 386 -1 2223 -1 340 -1 9010 -1 76 -1 4097 -1 76 -1 73217 -1 76 -1 35131 -1 76 -1 3320 -1 30 -2
27 -1 113 -1 3 -1 501 -1 64 -1 904 -1 3 -1 686 -1 141 -1 41 -1 511 -1 30 -2
3163 -1 758 -1 113 -1 154 -1 30 -2
115 -1 9303 -1 76 -1 113 -1 462 -1 3 -1 706 -1 64 -1 978 -1 607 -1 151 -1 113 -1 1515 -1 194 -1 32 -1 65 -1 1412 -1 64 -1 31 -1 750 -1 76 -1 44 -1 76 -1 149 -1 221 -1 1242 -1 30 -2
113 -1 139 -1 154 -1 160 -1 65 -1 73218 -1 32 -1 3377 -1 400 -1 339 -1 76 -1 30 -2
64533 -1 76 -1 250 -1 3 -1 10246 -1 22 -1 3736 -1 1139 -1 443 -1 375 -1 798 -1 308 -1 271 -2
151 -1 504 -1 76 -1 182 -1 141 -1 153 -1 113 -1 77 -1 312 -1 5 -1 30 -2
557 -1 113 -1 326 -1 424 -1 242 -1 131 -1 3 -1 1193 -1 31 -1 142 -1 32 -1 22 -1 1139 -1 1404 -1 2 -1 113 -1 525 -1 479 -1 76 -1 30 -2
224 -1 182 -1 8598 -1 187 -1 115 -1 113 -1 76 -1 113 -1 153 -1 131 -1 149 -1 115 -1 121 -1 4899 -1 182 -1 345 -1 30 -2
2517 -1 113 -1 118 -1 256 -1 484 -1 1842 -1 154 -1 10 -1 66 -1 151 -1 2997 -1 131 -1 248 -1 1132 -1 113 -1 149 -1 113 -1 475 -1 65 -1 576 -1 91 -1 160 -1 131 -1 30 -2
113 -1 3 -1 30 -2
641 -1 406 -1 1461 -1 64 -1 113 -1 271 -2
29 -1 153 -1 5 -1 1195 -1 21904 -1 1196 -1 17834 -1 786 -1 240 -1 1406 -1 2818 -1 1083 -1 30 -2
113 -1 1640 -1 113 -1 642 -1 3 -1 352 -1 113 -1 156 -1 64 -1 3 -1 30 -2
113 -1 1618 -1 22 -1 1157 -1 113 -1 525 -1 10 -1 64 -1 3700 -1 966 -1 151 -1 8104 -1 137 -1 115 -1 30 -2
200 -1 242 -1 1753 -1 16 -1 8109 -1 76 -1 1089 -1 124 -1 1753 -1 16 -1 7933 -1 30 -2
200 -1 242 -1 1753 -1 6420 -1 76 -1 1089 -1 124 -1 1753 -1 16 -1 872 -1 932 -1 3502 -1 30 -2
200 -1 242 -1 417 -1 1615 -1 64 -1 3300 -1 76 -1 1089 -1 124 -1 30 -2
29 -1 2032 -1 3 -1 805 -1 30 -2
213 -1 733 -1 752 -1 2124 -1 3126 -1 33 -1 3603 -1 76 -1 1498 -1 182 -1 3 -1 66 -1 1018 -1 7 -1 77 -1 65 -1 29165 -1 31 -1 14912 -1 30 -2
1367 -1 470 -1 32 -1 65 -1 5918 -1 3259 -1 1504 -1 76 -1 30 -2
77 -1 312 -1 5 -1 76 -1 113 -1 256 -1 250 -1 30 -2
65 -1 1100 -1 30 -2
3352 -1 557 -1 22 -1 163 -1 6298 -1 3 -1 64 -1 504 -1 182 -1 892 -1 689 -1 41 -1 403 -1 189 -1 929 -1 352 -1 360 -1 29 -1 854 -1 30 -2
213 -1 3 -1 340 -1 9100 -1 33 -1 22 -1 2215 -1 30 -2
41 -1 256 -1 64 -1 6738 -1 30 -2
234 -1 76 -1 702 -1 3 -1 65 -1 2563 -1 500 -1 232 -1 30 -2
232 -1 182 -1 316 -1 264 -1 148 -1 271 -2
2 -1 232 -1 113 -1 7 -1 64 -1 127 -1 64 -1 1050 -1 620 -1 76 -1 2 -1 22 -1 571 -1 18652 -1 187 -1 30 -2
69 -1 65 -1 11013 -1 30 -2
135 -1 113 -1 118 -1 1225 -1 160 -1 22 -1 1366 -1 32 -1 27 -1 41 -1 504 -1 76 -1 113 -1 141 -1 1225 -1 160 -1 22 -1 960 -1 32 -1 182 -1 30 -2
250 -1 781 -1 642 -1 7 -1 3051 -1 418 -1 1323 -1 32 -1 504 -1 153 -1 11175 -1 7 -1 1124 -1 637 -1 151 -1 463 -1 2310 -1 273 -1 1105 -1 5 -1 1046 -1 722 -1 30 -1 113 -1 3 -1 1209 -1 200 -1 3 -1 388 -1 76 -1 2 -1 186 -1 326 -1 113 -1 2 -1 113 -1 3 -1 1524 -1 137 -1 66 -1 30 -2
113 -1 194 -1 69 -1 242 -1 32 -1 50 -1 12110 -1 7639 -1 76 -1 163 -1 4413 -1 76 -1 2 -1 6274 -1 64 -1 186 -1 30 -2
493 -1 76 -1 50 -1 30 -2
635 -1 383 -1 32 -1 700 -1 76 -1 31 -1 1075 -1 30 -2
2344 -1 256 -1 3736 -1 1118 -1 2 -1 256 -1 1196 -1 16319 -1 151 -1 1615 -1 64 -1 3 -1 296 -1 76 -1 557 -1 2344 -1 493 -1 2023 -1 15038 -1 115 -1 22 -1 129 -1 75 -1 2 -1 356 -1 10 -1 65 -1 1100 -1 32 -1 13338 -1 244 -1 30 -2
3719 -1 76 -1 113 -1 815 -1 151 -1 26698 -1 44 -1 30 -2
113 -1 7 -1 642 -1 326 -1 278 -1 22 -1 1139 -1 244 -1 50 -1 11 -1 1663 -1 76 -1 557 -1 165 -1 44 -1 113 -1 200 -1 916 -1 64 -1 443 -1 388 -1 66 -1 33 -1 50 -1 304 -1 474 -1 150 -1 1182 -1 27 -1 469 -1 1178 -1 113 -1 3 -1 30 -2
499 -1 30 -2
237 -1 27 -1 3 -1 29 -1 1139 -1 153 -1 1 -2
5 -1 271 -2
354 -1 238 -1 27 -1 3 -1 29 -1 4509 -1 1 -2
2628 -1 2716 -1 30 -2
307 -1 27 -1 153 -1 268 -1 141 -1 41 -1 2861 -1 1524 -1 22 -1 15 -1 1 -2
686 -1 1 -2
11 -1 76 -1 8794 -1 30 -2
131 -1 3 -1 22 -1 628 -1 543 -1 32 -1 30 -2
484 -1 364 -1 2085 -1 10 -1 250 -1 781 -1 30 -2
188 -1 38260 -1 497 -1 342 -1 155 -1 64 -1 22 -1 1366 -1 64852 -1 155 -1 2989 -1 1271 -1 64 -1 1158 -1 65 -1 32186 -1 1380 -1 1365 -1 1139 -1 153 -1 30 -2
213 -1 1151 -1 1541 -1 2498 -1 1728 -1 30 -2
50 -1 1663 -1 3 -1 312 -1 11 -1 76 -1 2 -1 469 -1 285 -1 113 -1 64 -1 155 -1 1259 -1 1315 -1 2 -1 3083 -1 64 -1 510 -1 2005 -1 30 -2
22 -1 394 -1 469 -1 4182 -1 113 -1 76 -1 113 -1 178 -1 64 -1 4079 -1 22 -1 1028 -1 32 -1 388 -1 2 -1 201 -1 474 -1 150 -1 1617 -1 255 -1 30 -2
179 -1 250 -1 3 -1 200 -1 806 -1 271 -2
41 -1 836 -1 510 -1 1075 -1 64 -1 256 -1 182 -1 187 -1 190 -1 484 -1 213 -1 308 -1 182 -1 271 -2
354 -1 64 -1 384 -1 31 -1 50 -1 304 -1 153 -1 1985 -1 76 -1 113 -1 340 -1 151 -1 5 -1 7 -1 65 -1 20627 -1 10 -1 182 -1 30 -2
69 -1 406 -1 4944 -1 76 -1 200 -1 340 -1 22 -1 30 -2
22 -1 520 -1 76 -1 8794 -1 30 -2
151 -1 1310 -1 22 -1 562 -1 31 -1 113 -1 30 -2
22 -1 9500 -1 1487 -1 3 -1 312 -1 975 -1 10451 -1 76 -1 1472 -1 131 -1 462 -1 2272 -1 6042 -1 22 -1 562 -1 30 -2
22 -1 1949 -1 118 -1 2912 -1 225 -1 50 -1 15286 -1 76 -1 497 -1 224 -1 30 -2
41 -1 5 -1 29 -1 10518 -1 1461 -1 165 -1 1325 -1 48 -1 152 -1 163 -1 46 -1 1665 -1 1668 -1 625 -1 165 -1 1096 -1 2896 -1 1009 -1 165 -1 348 -1 41 -1 2440 -1 1664 -1 165 -1 348 -1 352 -1 506 -1 499 -1 29 -1 30 -2
22 -1 1587 -1 2199 -1 65 -1 1200 -1 32 -1 6087 -1 151 -1 3 -1 15 -1 147 -1 124 -1 64 -1 10451 -1 22 -1 27366 -1 4067 -1 32 -1 29 -1 754 -1 30 -2
195 -1 504 -1 6301 -1 30 -2
113 -1 194 -1 66 -1 2473 -1 3 -1 5833 -1 76 -1 64 -1 635 -1 1591 -1 30 -2
22 -1 433 -1 1915 -1 691 -1 213 -1 2 -1 339 -1 3 -1 165 -1 151 -1 66 -1 5 -1 993 -1 1941 -1 30 -2
342 -1 65 -1 386 -1 1961 -1 32 -1 73219 -1 30 -2
16 -1 72 -1 141 -1 182 -1 520 -1 806 -1 76 -1 557 -1 50 -1 9293 -1 3 -1 244 -1 151 -1 395 -1 73220 -1 76 -1 312 -1 395 -1 179 -1 3563 -1 64 -1 23731 -1 2 -1 8267 -1 30 -2
342 -1 1097 -1 463 -1 64 -1 358 -1 182 -1 2142 -1 30 -2
50 -1 163 -1 46 -1 65 -1 2716 -1 1665 -1 76 -1 41 -1 326 -1 131 -1 208 -1 3 -1 34711 -1 636 -1 113 -1 200 -1 3618 -1 151 -1 469 -1 2861 -1 76 -1 2 -1 221 -1 3 -1 538 -1 32 -1 115 -1 75 -1 76 -1 50 -1 351 -1 193 -1 2 -1 7639 -1 30 -2
469 -1 504 -1 151 -1 69 -1 769 -1 273 -1 113 -1 208 -1 30 -2
5403 -1 602 -1 41 -1 993 -1 889 -1 1151 -1 31273 -1 1 -2
5403 -1 602 -1 41 -1 993 -1 7978 -1 3828 -1 6650 -1 76 -1 16 -1 248 -1 65 -1 153 -1 54 -1 889 -1 602 -1 41 -1 993 -1 6 -1 1151 -1 2582 -1 1 -2
889 -1 602 -1 41 -1 993 -1 1535 -1 30 -2
113 -1 445 -1 69 -1 148 -1 150 -1 200 -1 65 -1 772 -1 32 -1 1948 -1 149 -1 2925 -1 30 -2
113 -1 194 -1 305 -1 138 -1 143 -1 17 -1 148 -1 225 -1 250 -1 150 -1 22 -1 1598 -1 681 -1 30 -2
69 -1 66 -1 278 -1 27 -1 131 -1 1436 -1 33 -1 3937 -2
529 -1 149 -1 30 -2
212 -1 370 -1 722 -1 4319 -1 3 -1 65 -1 163 -1 620 -1 64 -1 401 -1 30 -2
191 -1 527 -1 1811 -1 10 -1 3349 -1 22720 -1 22 -1 443 -1 67 -1 385 -1 149 -1 484 -1 689 -1 232 -1 76 -1 2 -1 155 -1 29 -1 304 -1 10635 -1 32 -1 47 -1 637 -1 64 -1 613 -1 469 -1 187 -1 224 -1 469 -1 194 -1 47 -1 153 -1 30 -2
113 -1 118 -1 326 -1 224 -1 168 -1 871 -1 9836 -1 208 -1 3 -1 1449 -1 76 -1 557 -1 472 -1 190 -1 3 -1 153 -1 151 -1 3 -1 7967 -1 64 -1 1031 -1 728 -1 10 -1 165 -1 620 -1 149 -1 3046 -1 212 -1 30 -2
1108 -1 22 -1 348 -1 255 -1 1293 -1 3 -1 154 -1 64 -1 131 -1 76 -1 30 -2
113 -1 118 -1 326 -1 224 -1 250 -1 3 -1 242 -1 342 -1 312 -1 5 -1 76 -1 149 -1 200 -1 65 -1 596 -1 54 -1 76 -1 557 -1 342 -1 932 -1 5463 -1 64 -1 999 -1 22 -1 207 -1 27 -1 375 -1 256 -1 30 -2
182 -1 510 -1 527 -1 864 -1 64 -1 113 -1 16 -1 64 -1 30 -2
484 -1 113 -1 10454 -1 525 -1 50 -1 163 -1 351 -1 187 -1 190 -1 30 -2
1141 -1 998 -1 64 -1 113 -1 76 -1 77 -1 65 -1 2716 -1 5 -1 5749 -1 76 -1 393 -1 484 -1 4668 -1 271 -2
16 -1 151 -1 113 -1 783 -1 5 -1 9028 -1 4933 -1 30762 -1 1039 -1 244 -1 22 -1 1744 -1 6538 -1 32 -1 22 -1 6233 -1 276 -1 375 -1 482 -1 814 -1 47 -1 845 -1 585 -1 30 -2
64952 -1 73221 -1 9982 -1 244 -1 595 -1 14490 -1 3126 -1 1077 -1 273 -1 469 -1 3 -1 10 -1 106 -1 76 -1 480 -1 317 -1 504 -1 30 -2
224 -1 182 -1 3 -1 73222 -1 76 -1 837 -1 3 -1 13934 -1 30 -2
557 -1 77 -1 182 -1 3 -1 76 -1 1367 -1 1480 -1 28177 -1 76 -1 182 -1 520 -1 148 -1 340 -1 22 -1 1949 -1 64 -1 65 -1 562 -1 76 -1 2 -1 480 -1 317 -1 504 -1 216 -1 30 -2
141 -1 41 -1 124 -1 151 -1 10 -1 1635 -1 76 -1 149 -1 10 -1 1366 -1 32 -1 250 -1 1286 -1 1 -2
113 -1 308 -1 527 -1 287 -1 686 -1 41 -1 1515 -1 734 -1 1050 -1 1366 -1 76 -1 224 -1 236 -1 1436 -1 33 -1 40 -1 30 -2
342 -1 312 -1 5 -1 352 -1 3 -1 4881 -1 65 -1 24334 -1 76 -1 497 -1 113 -1 4578 -1 151 -1 113 -1 493 -1 7 -1 65 -1 658 -1 32 -1 20060 -1 10 -1 113 -1 30 -2
113 -1 155 -1 64 -1 3 -1 932 -1 3397 -1 76 -1 557 -1 113 -1 482 -1 141 -1 1327 -1 406 -1 364 -1 30 -2
1717 -1 113 -1 141 -1 76 -1 182 -1 633 -1 30 -2
182 -1 786 -1 1214 -1 76 -1 149 -1 340 -1 312 -1 798 -1 484 -1 2788 -1 39410 -1 13188 -1 30 -2
113 -1 161 -1 200 -1 758 -1 50 -1 783 -1 4474 -1 2 -1 10 -1 4958 -1 76 -1 30 -2
873 -1 41 -1 118 -1 215 -1 76 -1 647 -1 66 -1 3 -1 190 -1 42 -1 30 -2
224 -1 41 -1 156 -1 64 -1 360 -1 29 -1 849 -1 76 -1 195 -1 3 -1 1175 -1 64 -1 1198 -1 30 -2
527 -1 2049 -1 27 -1 76 -1 497 -1 76 -1 200 -1 815 -1 151 -1 27 -1 503 -1 3 -1 8490 -1 76 -1 2 -1 13 -1 463 -1 30 -2
113 -1 155 -1 64 -1 3 -1 185 -1 1511 -1 30 -2
179 -1 342 -1 200 -1 1511 -1 76 -1 242 -1 113 -1 358 -1 273 -1 64 -1 3173 -1 388 -1 2310 -1 599 -1 352 -1 161 -1 81 -1 64 -1 2635 -1 50 -1 6274 -1 2310 -1 50 -1 304 -1 10635 -1 30 -2
462 -1 22 -1 363 -1 54 -1 41 -1 208 -1 30 -2
500 -1 158 -1 113 -1 3 -1 66 -1 3564 -1 2 -1 3397 -1 76 -1 113 -1 155 -1 64 -1 3 -1 2072 -1 160 -1 22 -1 454 -1 32 -1 26281 -1 22 -1 1215 -1 484 -1 151 -1 527 -1 1171 -1 226 -1 54 -1 161 -1 955 -1 10 -1 182 -1 30 -2
113 -1 161 -1 141 -1 250 -1 10 -1 889 -1 64 -1 3838 -1 151 -1 527 -1 30 -2
1664 -1 30 -2
113 -1 7 -1 408 -1 895 -1 182 -1 2 -1 194 -1 1982 -1 278 -1 182 -1 30 -2
113 -1 118 -1 326 -1 686 -1 69 -1 484 -1 4926 -1 64 -1 113 -1 76 -1 557 -1 635 -1 54 -1 278 -1 3 -1 65 -1 92 -1 248 -1 8805 -1 160 -1 113 -1 30 -2
50 -1 4509 -1 76 -1 10 -1 1635 -1 76 -1 3 -1 65 -1 248 -1 30 -2
1175 -1 1135 -1 5 -1 56198 -1 3397 -1 5 -1 77 -1 312 -1 5 -1 76 -1 375 -1 3 -1 586 -1 3682 -1 494 -1 64 -1 50 -1 2026 -1 2719 -1 64 -1 3300 -1 30 -2
342 -1 406 -1 27923 -1 76 -1 484 -1 3300 -1 3 -1 264 -1 151 -1 3 -1 20198 -1 10 -1 50 -1 13 -1 271 -2
354 -1 342 -1 864 -1 65 -1 685 -1 847 -1 76 -1 158 -1 182 -1 139 -1 64 -1 41 -1 2 -1 227 -1 24020 -1 30 -2
1085 -1 113 -1 118 -1 326 -1 224 -1 73224 -1 15534 -1 73223 -1 7 -1 3 -1 141 -1 2222 -1 76 -1 557 -1 195 -1 5346 -1 469 -1 31 -1 312 -1 8397 -1 30 -2
15 -1 213 -1 504 -1 216 -1 76 -1 557 -1 113 -1 272 -1 493 -1 308 -1 5 -1 30 -2
1733 -1 76 -1 7079 -1 73225 -1 14979 -1 158 -1 16 -1 10 -1 47 -1 7021 -1 2780 -1 3 -1 1036 -1 8397 -1 236 -1 16 -1 72 -1 1104 -1 2 -1 1904 -1 6264 -1 76 -1 557 -1 236 -1 3502 -1 76 -1 185 -1 271 -2
113 -1 3 -1 493 -1 65 -1 348 -1 352 -1 747 -1 22 -1 213 -1 30 -2
557 -1 1153 -1 497 -1 76 -1 371 -1 7 -1 553 -1 557 -1 430 -1 7729 -1 847 -1 33 -1 40 -1 484 -1 1120 -1 76 -1 484 -1 5938 -1 271 -2
493 -1 76 -1 747 -1 64 -1 3078 -1 1509 -1 31 -1 3 -1 484 -1 1511 -1 2 -1 30 -2
113 -1 482 -1 463 -1 24438 -1 340 -1 151 -1 30 -2
113 -1 308 -1 527 -1 1203 -1 10 -1 758 -1 1017 -1 65 -1 2760 -1 30 -2
2760 -1 144 -1 394 -1 64 -1 4175 -1 76 -1 41 -1 326 -1 76 -1 602 -1 200 -1 501 -1 22 -1 406 -1 6942 -1 32 -1 7267 -1 151 -1 213 -1 590 -1 30 -2
1467 -1 113 -1 1533 -1 41 -1 296 -1 190 -1 76 -1 242 -1 250 -1 3 -1 22 -1 4784 -1 32 -1 22 -1 902 -1 30 -2
41 -1 118 -1 7 -1 65 -1 120 -1 2032 -1 32 -1 27 -1 182 -1 124 -1 64 -1 3 -1 312 -1 1038 -1 7131 -1 312 -1 580 -1 30 -2
1038 -1 141 -1 256 -1 1807 -1 30 -2
186 -1 30 -2
63 -1 113 -1 356 -1 65 -1 658 -1 64 -1 256 -1 500 -1 64 -1 41 -1 271 -2
13 -1 2 -1 99 -1 76 -1 41 -1 326 -1 30 -2
502 -1 1077 -1 76 -1 1467 -1 113 -1 200 -1 504 -1 151 -1 405 -1 297 -1 2379 -1 3 -1 22 -1 165 -1 151 -1 113 -1 3 -1 121 -1 1075 -1 32 -1 10 -1 1366 -1 32 -1 305 -1 153 -1 30 -2
31 -1 50 -1 30 -2