113 -1 161 -1 4803 -1 3954 -1 16 -1 356 -1 3470 -1 30 -2
113 -1 786 -1 340 -1 1717 -1 236 -1 506 -1 31 -1 264 -1 185 -1 979 -1 41 -1 687 -1 154 -1 1916 -1 187 -1 33 -1 976 -1 2091 -1 30 -2
151 -1 2464 -1 2381 -1 22 -1 13 -1 32 -1 22 -1 30 -2
506 -1 187 -1 30 -2
7400 -1 3 -1 144 -1 2771 -1 356 -1 271 -2
1679 -1 113 -1 1975 -1 256 -1 27 -1 41 -1 124 -1 160 -1 880 -1 372 -1 76 -1 557 -1 113 -1 340 -1 182 -1 158 -1 69 -1 7401 -1 30 -2
182 -1 1089 -1 7 -1 64 -1 3 -1 65 -1 1669 -1 339 -1 77 -1 566 -1 77 -1 69 -1 1071 -1 234 -1 30 -2
493 -1 76 -1 30 -2
7402 -1 39 -1 7 -1 41 -1 62 -1 250 -1 334 -1 1 -2
113 -1 571 -1 530 -1 484 -1 113 -1 211 -1 1473 -1 154 -1 250 -1 334 -1 158 -1 189 -1 447 -1 22 -1 562 -1 30 -2
9 -1 28 -1 26 -1 7403 -1 342 -1 1198 -1 64 -1 22 -1 848 -1 3311 -1 2661 -1 165 -1 32 -1 3044 -1 7235 -1 268 -1 588 -1 22 -1 3699 -1 31 -1 1017 -1 30 -2
937 -1 976 -1 3 -1 393 -1 3311 -1 22 -1 588 -1 10 -1 2661 -1 32 -1 65 -1 380 -1 562 -1 115 -1 65 -1 75 -1 262 -1 22 -1 30 -2
502 -1 32 -1 66 -1 76 -1 113 -1 118 -1 7 -1 703 -1 64 -1 144 -1 41 -1 557 -1 161 -1 200 -1 340 -1 64 -1 7404 -1 151 -1 29 -1 5270 -1 2 -1 927 -1 10 -1 999 -1 854 -1 836 -1 7405 -1 234 -1 31 -1 41 -1 30 -2
224 -1 2344 -1 16 -1 1282 -1 76 -1 182 -1 711 -1 3 -1 30 -2
158 -1 41 -1 699 -1 75 -1 2 -1 4074 -1 64 -1 978 -1 65 -1 607 -1 242 -1 41 -1 7 -1 185 -1 266 -1 1221 -1 4215 -1 463 -1 601 -1 29 -1 878 -1 76 -1 16 -1 242 -1 236 -1 3226 -1 64 -1 403 -1 165 -1 30 -2
69 -1 16 -1 248 -1 484 -1 364 -1 7406 -1 557 -1 148 -1 10 -1 65 -1 1109 -1 864 -1 113 -1 208 -1 3 -1 65 -1 658 -1 4925 -1 2 -1 634 -1 213 -1 268 -1 431 -1 212 -1 30 -2
848 -1 113 -1 3 -1 809 -1 50 -1 1428 -1 76 -1 2 -1 50 -1 1065 -1 3 -1 1099 -1 278 -1 22 -1 7408 -1 30 -1 113 -1 161 -1 504 -1 236 -1 312 -1 1204 -1 7407 -1 123 -1 41 -1 200 -1 1312 -1 65 -1 1681 -1 165 -1 421 -1 151 -1 41 -1 118 -1 510 -1 29 -1 1989 -1 244 -1 182 -1 30 -2
2 -1 129 -1 160 -1 41 -1 7409 -1 271 -2
200 -1 510 -1 29 -1 372 -1 242 -1 41 -1 30 -2
375 -1 3 -1 351 -1 153 -1 77 -1 312 -1 48 -1 76 -1 557 -1 7 -1 256 -1 966 -1 32 -1 11 -1 2 -1 625 -1 33 -1 443 -1 42 -1 1583 -1 160 -1 7410 -1 510 -1 527 -1 864 -1 76 -1 1554 -1 22 -1 138 -1 143 -1 3 -1 3236 -1 484 -1 113 -1 194 -1 69 -1 200 -1 30 -2
223 -1 76 -1 100 -1 64 -1 22 -1 1286 -1 271 -2
113 -1 194 -1 69 -1 482 -1 65 -1 616 -1 339 -1 64 -1 81 -1 2 -1 403 -1 187 -1 1817 -1 224 -1 236 -1 2127 -1 278 -1 65 -1 74 -1 30 -2
113 -1 7 -1 312 -1 902 -1 412 -1 418 -1 342 -1 1282 -1 10 -1 65 -1 1273 -1 2381 -1 4590 -1 2 -1 30 -2
41 -1 326 -1 76 -1 69 -1 976 -1 30 -2
113 -1 7 -1 65 -1 7412 -1 7411 -1 31 -1 1198 -1 64 -1 400 -1 372 -1 76 -1 557 -1 182 -1 1617 -1 1615 -1 64 -1 3009 -1 113 -1 10 -1 826 -1 1941 -1 560 -1 151 -1 342 -1 642 -1 1282 -1 10 -1 30 -2
340 -1 375 -1 156 -1 30 -2
223 -1 41 -1 3425 -1 1193 -1 31 -1 250 -1 76 -1 557 -1 113 -1 7 -1 7414 -1 703 -1 2 -1 65 -1 7413 -1 1287 -1 3 -1 190 -1 168 -1 1811 -1 10 -1 7 -1 2883 -1 91 -1 1 -2
63 -1 76 -1 113 -1 72 -1 2920 -1 242 -1 113 -1 815 -1 493 -1 30 -2
223 -1 7415 -1 76 -1 100 -1 64 -1 22 -1 1286 -1 271 -2
113 -1 7 -1 751 -1 791 -1 372 -1 7416 -1 115 -1 22 -1 70 -1 30 -2
113 -1 2635 -1 312 -1 7418 -1 2 -1 141 -1 7417 -1 3509 -1 31 -1 65 -1 1698 -1 76 -1 113 -1 285 -1 3829 -1 4963 -1 76 -1 2 -1 113 -1 3 -1 1036 -1 7419 -1 273 -1 141 -1 41 -1 786 -1 278 -1 7267 -1 10 -1 1635 -1 964 -1 1 -2
7267 -1 212 -1 229 -1 1375 -1 7267 -1 212 -1 41 -1 77 -1 65 -1 348 -1 2 -1 29 -1 13 -1 6783 -2
360 -1 879 -1 76 -1 54 -1 278 -1 29 -1 13 -1 76 -1 29 -1 854 -1 76 -1 3320 -1 30 -2
1 -1 30 -2
237 -1 484 -1 959 -1 2093 -1 76 -1 10 -1 7420 -1 1043 -1 113 -1 208 -1 256 -1 926 -1 278 -1 189 -1 7421 -1 50 -1 7267 -1 76 -1 5958 -1 113 -1 158 -1 342 -1 81 -1 64 -1 3 -1 2127 -1 76 -1 149 -1 510 -1 1077 -1 3126 -1 1102 -1 278 -1 113 -1 30 -2
113 -1 7 -1 1036 -1 223 -1 7426 -1 76 -1 747 -1 31 -1 4334 -1 187 -1 32 -1 29 -1 7422 -1 7424 -1 76 -1 7425 -1 7423 -1 64 -1 4759 -1 40 -1 271 -2
141 -1 41 -1 1651 -1 31 -1 6919 -1 1 -2
242 -1 747 -1 65 -1 52 -1 710 -1 419 -1 30 -2
628 -1 30 -2
29 -1 153 -1 3 -1 16 -1 29 -1 2475 -1 30 -2
182 -1 200 -1 636 -1 65 -1 614 -1 658 -1 278 -1 273 -1 41 -1 1181 -1 54 -1 3937 -2
22 -1 889 -1 32 -1 138 -1 143 -1 30 -2
7427 -1 3719 -1 76 -1 615 -1 151 -1 510 -1 864 -1 7428 -1 30 -2
1040 -1 76 -1 113 -1 194 -1 50 -1 386 -1 7388 -1 3 -1 50 -1 6606 -1 30 -2
113 -1 408 -1 403 -1 388 -1 194 -1 76 -1 41 -1 118 -1 156 -1 64 -1 1952 -1 702 -1 7429 -1 1075 -1 236 -1 248 -1 1282 -1 30 -2
41 -1 1678 -1 1539 -1 22 -1 7430 -1 3349 -1 248 -1 1003 -1 29 -1 304 -1 355 -1 271 -2
236 -1 4516 -1 30 -1 326 -1 182 -1 66 -1 76 -1 2344 -1 2739 -1 115 -1 1098 -1 2776 -1 76 -1 2 -1 221 -1 497 -1 41 -1 130 -1 825 -1 41 -1 786 -1 484 -1 1042 -1 30 -2
69 -1 1053 -1 1036 -1 113 -1 786 -1 340 -1 1224 -1 268 -1 3 -1 148 -1 149 -1 1853 -1 340 -1 250 -1 9 -1 28 -1 26 -1 7431 -1 342 -1 16 -1 248 -1 1075 -1 27 -1 41 -1 124 -1 137 -1 250 -1 30 -2
927 -1 64 -1 961 -1 1 -2
113 -1 161 -1 1922 -1 151 -1 224 -1 41 -1 141 -1 7 -1 419 -1 7432 -1 64 -1 1193 -1 469 -1 799 -1 64 -1 799 -1 232 -1 151 -1 161 -1 3 -1 7433 -1 30 -2
1075 -1 76 -1 2302 -1 3 -1 3103 -1 557 -1 232 -1 190 -1 555 -1 554 -1 3 -1 168 -1 7434 -1 64 -1 47 -1 998 -1 2 -1 1180 -1 248 -1 326 -1 30 -2
3335 -1 30 -2
502 -1 32 -1 66 -1 342 -1 65 -1 511 -1 30 -2
2 -1 342 -1 16 -1 81 -1 64 -1 6383 -1 29 -1 52 -1 342 -1 200 -1 1203 -1 187 -1 151 -1 69 -1 2627 -1 154 -1 30 -2
69 -1 340 -1 41 -1 156 -1 213 -1 64 -1 1539 -1 41 -1 76 -1 2 -1 151 -1 339 -1 510 -1 113 -1 4652 -1 30 -2
504 -1 30 -2
250 -1 3 -1 22 -1 1169 -1 75 -1 375 -1 308 -1 41 -1 447 -1 264 -1 278 -1 3 -1 1539 -1 76 -1 2 -1 182 -1 510 -1 113 -1 4652 -1 30 -2
1926 -1 686 -1 141 -1 41 -1 504 -1 151 -1 1 -2
3 -1 41 -1 81 -1 64 -1 3 -1 438 -1 1 -2
3 -1 182 -1 312 -1 1510 -1 151 -1 342 -1 16 -1 30 -2
250 -1 3 -1 22 -1 1169 -1 75 -1 375 -1 308 -1 41 -1 447 -1 264 -1 278 -1 3 -1 1539 -1 76 -1 2 -1 182 -1 510 -1 113 -1 4652 -1 30 -2
1926 -1 686 -1 141 -1 41 -1 504 -1 151 -1 1 -2
3 -1 41 -1 81 -1 64 -1 3 -1 438 -1 1 -2
3 -1 182 -1 312 -1 1510 -1 151 -1 342 -1 16 -1 30 -2
375 -1 633 -1 65 -1 380 -1 213 -1 30 -2
375 -1 3 -1 194 -1 278 -1 50 -1 7435 -1 848 -1 30 -2
113 -1 136 -1 1092 -1 1077 -1 3097 -1 160 -1 702 -1 499 -1 2295 -1 113 -1 699 -1 65 -1 400 -1 2001 -1 7436 -1 30 -2
113 -1 7 -1 3 -1 1099 -1 64 -1 702 -1 30 -2
7438 -1 22 -1 7439 -1 3 -1 50 -1 7437 -1 349 -1 7440 -1 1097 -1 1521 -1 64 -1 250 -1 30 -2
1039 -1 22 -1 247 -1 278 -1 7441 -1 2643 -1 30 -2
527 -1 747 -1 41 -1 30 -2
113 -1 161 -1 1193 -1 22 -1 129 -1 1287 -1 77 -1 7444 -1 7442 -1 7443 -1 7442 -1 30 -2
7445 -1 342 -1 1640 -1 250 -1 3 -1 22 -1 129 -1 471 -1 417 -1 3 -1 2890 -1 33 -1 1050 -1 251 -1 30 -2
224 -1 113 -1 7 -1 326 -1 151 -1 469 -1 3 -1 7446 -1 538 -1 2643 -1 76 -1 232 -1 1105 -1 745 -1 64 -1 308 -1 151 -1 342 -1 16 -1 22 -1 72 -1 165 -1 30 -2
113 -1 491 -1 2432 -1 10 -1 5659 -1 1315 -1 76 -1 2 -1 22 -1 5659 -1 773 -1 3 -1 1603 -1 160 -1 113 -1 76 -1 3325 -1 32 -1 27 -1 22 -1 1210 -1 504 -1 30 -2
2742 -1 191 -1 22 -1 288 -1 495 -1 488 -1 778 -1 30 -2
3828 -1 1227 -1 1711 -1 7186 -1 1454 -1 7450 -1 1148 -1 7451 -1 443 -1 966 -1 10 -1 772 -1 675 -1 80 -1 64 -1 814 -1 113 -1 479 -1 7448 -1 7447 -1 2144 -1 268 -1 7449 -1 725 -1 342 -1 600 -1 2004 -1 151 -1 508 -1 214 -1 139 -1 500 -1 30 -2
484 -1 266 -1 6651 -1 151 -1 113 -1 326 -1 342 -1 65 -1 2402 -1 3 -1 872 -1 225 -1 4999 -1 7452 -1 76 -1 7453 -1 76 -1 3320 -1 30 -2
123 -1 16 -1 2877 -1 22 -1 6631 -1 151 -1 236 -1 506 -1 31 -1 76 -1 557 -1 22 -1 30 -2
7454 -1 124 -1 375 -1 3 -1 463 -1 64 -1 4154 -1 1468 -1 1498 -1 113 -1 3 -1 1209 -1 65 -1 6780 -1 30 -2
113 -1 118 -1 248 -1 7 -1 3074 -1 32 -1 599 -1 1307 -1 30 -2
3 -1 41 -1 148 -1 499 -1 65 -1 502 -1 7455 -1 6 -1 149 -1 312 -1 3406 -1 6 -1 1 -1 30 -2
424 -1 65 -1 80 -1 7456 -1 31 -1 113 -1 64 -1 7457 -1 50 -1 878 -1 212 -1 30 -2
50 -1 566 -1 74 -1 49 -1 278 -1 804 -1 1242 -1 30 -2
113 -1 141 -1 326 -1 151 -1 3518 -1 3 -1 65 -1 6657 -1 151 -1 113 -1 356 -1 1153 -1 76 -1 484 -1 50 -1 1640 -1 3 -1 113 -1 161 -1 3 -1 30 -2
593 -1 1101 -1 76 -1 1413 -1 6914 -1 6919 -1 30 -2
113 -1 1615 -1 64 -1 7458 -1 250 -1 703 -1 65 -1 1100 -1 76 -1 557 -1 200 -1 242 -1 29 -1 138 -1 153 -1 39 -1 3009 -1 29 -1 229 -1 2643 -1 76 -1 27 -1 182 -1 248 -1 140 -1 3 -1 29 -1 1020 -1 31 -1 1315 -1 30 -2
484 -1 135 -1 69 -1 147 -1 30 -2
7459 -1 527 -1 76 -1 113 -1 118 -1 2162 -1 64 -1 254 -1 76 -1 557 -1 113 -1 208 -1 2626 -1 50 -1 5622 -1 31 -1 65 -1 135 -1 2 -1 462 -1 7460 -1 4168 -1 65 -1 6955 -1 30 -2
250 -1 491 -1 503 -1 497 -1 242 -1 113 -1 571 -1 923 -1 30 -2
182 -1 583 -1 503 -1 158 -1 30 -2
342 -1 786 -1 65 -1 658 -1 7461 -1 115 -1 22 -1 70 -1 30 -2
113 -1 7 -1 307 -1 791 -1 247 -1 75 -1 1213 -1 76 -1 2 -1 22 -1 165 -1 151 -1 342 -1 15 -1 7462 -1 7463 -1 31 -1 214 -1 16 -1 248 -1 2595 -1 113 -1 30 -2
342 -1 1503 -1 64 -1 200 -1 2549 -1 66 -1 250 -1 99 -1 30 -2
113 -1 285 -1 3829 -1 76 -1 2 -1 113 -1 1972 -1 250 -1 7464 -1 65 -1 1100 -1 160 -1 6651 -1 2 -1 3406 -1 6056 -1 30 -2
113 -1 211 -1 1429 -1 131 -1 64 -1 81 -1 64 -1 209 -1 22 -1 1181 -1 2 -1 118 -1 256 -1 185 -1 1842 -1 154 -1 10 -1 22 -1 7465 -1 30 -2
1841 -1 30 -2
1083 -1 76 -1 64 -1 1543 -1 352 -1 7 -1 65 -1 46 -1 151 -1 1209 -1 2626 -1 41 -1 158 -1 41 -1 1230 -1 131 -1 10 -1 348 -1 76 -1 151 -1 3 -1 65 -1 7466 -1 46 -1 30 -2
113 -1 7 -1 312 -1 5 -1 46 -1 352 -1 3 -1 493 -1 248 -1 234 -1 526 -1 2 -1 1320 -1 64 -1 22 -1 1203 -1 30 -2
100 -1 7467 -1 271 -2
27 -1 141 -1 41 -1 124 -1 137 -1 504 -1 113 -1 7 -1 65 -1 1014 -1 854 -1 10 -1 372 -1 76 -1 557 -1 342 -1 16 -1 190 -1 2222 -1 1 -2
141 -1 41 -1 124 -1 151 -1 41 -1 118 -1 7 -1 65 -1 1100 -1 32 -1 4333 -1 1 -2
273 -1 141 -1 41 -1 2432 -1 160 -1 372 -1 1 -2
195 -1 147 -1 3 -1 3168 -1 22 -1 2621 -1 604 -1 76 -1 557 -1 702 -1 860 -1 711 -1 2295 -1 182 -1 689 -1 69 -1 185 -1 7468 -1 317 -1 3 -1 81 -1 185 -1 80 -1 64 -1 2375 -1 250 -1 1093 -1 753 -1 691 -1 999 -1 854 -1 557 -1 16 -1 999 -1 185 -1 364 -1 30 -2
113 -1 3328 -1 635 -1 864 -1 32 -1 2001 -1 10 -1 50 -1 13 -1 2 -1 65 -1 1135 -1 7470 -1 1052 -1 7469 -1 268 -1 65 -1 1417 -1 30 -2
113 -1 194 -1 22 -1 5193 -1 3 -1 66 -1 185 -1 883 -1 9 -1 28 -1 26 -1 7473 -1 9 -1 28 -1 26 -1 7471 -1 7472 -1 113 -1 326 -1 76 -1 250 -1 3 -1 65 -1 1125 -1 2000 -1 2490 -1 4476 -1 557 -1 113 -1 453 -1 571 -1 182 -1 2 -1 250 -1 3 -1 50 -1 177 -1 2359 -1 30 -2
22 -1 2379 -1 3 -1 66 -1 200 -1 169 -1 404 -1 10 -1 30 -2
16 -1 406 -1 976 -1 375 -1 2895 -1 340 -1 65 -1 326 -1 182 -1 66 -1 76 -1 2 -1 113 -1 248 -1 710 -1 528 -1 32 -1 182 -1 689 -1 65 -1 380 -1 385 -1 377 -1 30 -2
165 -1 32 -1 50 -1 576 -1 46 -1 15 -1 147 -1 312 -1 625 -1 10 -1 1300 -1 504 -1 64 -1 113 -1 76 -1 7474 -1 76 -1 113 -1 2861 -1 41 -1 65 -1 1100 -1 76 -1 557 -1 30 -2
1083 -1 30 -2
113 -1 1097 -1 786 -1 22 -1 7475 -1 7476 -1 30 -2
113 -1 194 -1 182 -1 3 -1 976 -1 273 -1 22 -1 1531 -1 146 -1 77 -1 10 -1 182 -1 7477 -1 76 -1 557 -1 182 -1 493 -1 146 -1 77 -1 10 -1 146 -1 65 -1 7478 -1 3018 -1 30 -2
50 -1 72 -1 7479 -1 30 -2