2 -1 #SUP: 43
3 -1 #SUP: 81
5 -1 #SUP: 11
7 -1 #SUP: 28
9 -1 #SUP: 3
10 -1 #SUP: 26
11 -1 #SUP: 3
15 -1 #SUP: 2
16 -1 #SUP: 26
22 -1 #SUP: 27
26 -1 #SUP: 3
27 -1 #SUP: 7
28 -1 #SUP: 3
29 -1 #SUP: 4
30 -1 #SUP: 7
31 -1 #SUP: 9
32 -1 #SUP: 19
33 -1 #SUP: 11
41 -1 #SUP: 23
42 -1 #SUP: 2
44 -1 #SUP: 3
46 -1 #SUP: 5
48 -1 #SUP: 4
50 -1 #SUP: 28
52 -1 #SUP: 2
54 -1 #SUP: 3
62 -1 #SUP: 4
63 -1 #SUP: 2
64 -1 #SUP: 30
65 -1 #SUP: 23
66 -1 #SUP: 9
74 -1 #SUP: 4
75 -1 #SUP: 3
76 -1 #SUP: 75
77 -1 #SUP: 2
113 -1 #SUP: 144
115 -1 #SUP: 4
118 -1 #SUP: 3
121 -1 #SUP: 3
131 -1 #SUP: 3
141 -1 #SUP: 26
144 -1 #SUP: 4
149 -1 #SUP: 4
151 -1 #SUP: 18
153 -1 #SUP: 7
154 -1 #SUP: 7
155 -1 #SUP: 3
156 -1 #SUP: 6
158 -1 #SUP: 7
160 -1 #SUP: 14
161 -1 #SUP: 4
163 -1 #SUP: 4
165 -1 #SUP: 7
169 -1 #SUP: 3
179 -1 #SUP: 2
182 -1 #SUP: 24
185 -1 #SUP: 2
187 -1 #SUP: 7
189 -1 #SUP: 2
190 -1 #SUP: 3
194 -1 #SUP: 4
200 -1 #SUP: 10
201 -1 #SUP: 5
208 -1 #SUP: 5
211 -1 #SUP: 3
213 -1 #SUP: 2
214 -1 #SUP: 10
223 -1 #SUP: 2
225 -1 #SUP: 3
234 -1 #SUP: 6
238 -1 #SUP: 2
242 -1 #SUP: 8
244 -1 #SUP: 5
250 -1 #SUP: 7
251 -1 #SUP: 5
256 -1 #SUP: 11
266 -1 #SUP: 2
268 -1 #SUP: 5
272 -1 #SUP: 5
273 -1 #SUP: 5
278 -1 #SUP: 5
304 -1 #SUP: 2
307 -1 #SUP: 2
308 -1 #SUP: 4
312 -1 #SUP: 9
316 -1 #SUP: 2
326 -1 #SUP: 4
339 -1 #SUP: 3
340 -1 #SUP: 8
352 -1 #SUP: 2
356 -1 #SUP: 4
358 -1 #SUP: 2
364 -1 #SUP: 3
372 -1 #SUP: 2
377 -1 #SUP: 2
385 -1 #SUP: 2
388 -1 #SUP: 4
394 -1 #SUP: 2
401 -1 #SUP: 3
406 -1 #SUP: 7
417 -1 #SUP: 12
418 -1 #SUP: 3
463 -1 #SUP: 3
469 -1 #SUP: 13
482 -1 #SUP: 2
484 -1 #SUP: 13
493 -1 #SUP: 6
502 -1 #SUP: 3
503 -1 #SUP: 5
504 -1 #SUP: 11
506 -1 #SUP: 2
508 -1 #SUP: 2
510 -1 #SUP: 6
511 -1 #SUP: 3
522 -1 #SUP: 2
525 -1 #SUP: 2
527 -1 #SUP: 3
547 -1 #SUP: 2
549 -1 #SUP: 2
557 -1 #SUP: 23
561 -1 #SUP: 3
571 -1 #SUP: 4
586 -1 #SUP: 2
593 -1 #SUP: 4
602 -1 #SUP: 2
604 -1 #SUP: 2
613 -1 #SUP: 3
614 -1 #SUP: 4
616 -1 #SUP: 2
620 -1 #SUP: 2
635 -1 #SUP: 4
646 -1 #SUP: 2
672 -1 #SUP: 2
677 -1 #SUP: 2
686 -1 #SUP: 2
692 -1 #SUP: 4
694 -1 #SUP: 2
702 -1 #SUP: 2
747 -1 #SUP: 2
771 -1 #SUP: 4
783 -1 #SUP: 2
786 -1 #SUP: 2
814 -1 #SUP: 4
871 -1 #SUP: 2
878 -1 #SUP: 3
895 -1 #SUP: 2
902 -1 #SUP: 2
903 -1 #SUP: 4
936 -1 #SUP: 4
997 -1 #SUP: 5
999 -1 #SUP: 2
1057 -1 #SUP: 2
1075 -1 #SUP: 2
1091 -1 #SUP: 3
1099 -1 #SUP: 2
1100 -1 #SUP: 4
1104 -1 #SUP: 2
1106 -1 #SUP: 2
1121 -1 #SUP: 3
1175 -1 #SUP: 4
1192 -1 #SUP: 2
1225 -1 #SUP: 2
1242 -1 #SUP: 3
1268 -1 #SUP: 2
1300 -1 #SUP: 2
1498 -1 #SUP: 2
1559 -1 #SUP: 3
1583 -1 #SUP: 2
1584 -1 #SUP: 2
1664 -1 #SUP: 2
1769 -1 #SUP: 2
1856 -1 #SUP: 3
1879 -1 #SUP: 2
1881 -1 #SUP: 2
2133 -1 #SUP: 3
2213 -1 #SUP: 2
2319 -1 #SUP: 2
2473 -1 #SUP: 3
2701 -1 #SUP: 2
2810 -1 #SUP: 2
2847 -1 #SUP: 2
2890 -1 #SUP: 2
3194 -1 #SUP: 3
4067 -1 #SUP: 3
4260 -1 #SUP: 2
4591 -1 #SUP: 2
4759 -1 #SUP: 2
32356 -1 #SUP: 2
40362 -1 #SUP: 2
2 -1 2 -1 #SUP: 6
2 -1 3 -1 #SUP: 11
2 -1 10 -1 #SUP: 4
2 -1 16 -1 #SUP: 5
2 -1 22 -1 #SUP: 2
2 -1 27 -1 #SUP: 2
2 -1 50 -1 #SUP: 4
2 -1 64 -1 #SUP: 5
2 -1 65 -1 #SUP: 5
2 -1 76 -1 #SUP: 10
2 -1 113 -1 #SUP: 14
2 -1 141 -1 #SUP: 4
2 -1 156 -1 #SUP: 2
2 -1 182 -1 #SUP: 8
2 -1 200 -1 #SUP: 3
2 -1 214 -1 #SUP: 3
2 -1 234 -1 #SUP: 2
2 -1 242 -1 #SUP: 3
2 -1 273 -1 #SUP: 2
2 -1 406 -1 #SUP: 3
2 -1 417 -1 #SUP: 3
2 -1 469 -1 #SUP: 3
2 -1 504 -1 #SUP: 2
2 -1 557 -1 #SUP: 3
2 -1 613 -1 #SUP: 2
2 -1 614 -1 #SUP: 2
2 -1 635 -1 #SUP: 2
2 -1 692 -1 #SUP: 2
2 -1 1498 -1 #SUP: 2
2 -1 1856 -1 #SUP: 2
2 -1 40362 -1 #SUP: 2
3 -1 2 -1 #SUP: 13
3 -1 3 -1 #SUP: 17
3 -1 5 -1 #SUP: 2
3 -1 7 -1 #SUP: 5
3 -1 10 -1 #SUP: 6
3 -1 16 -1 #SUP: 9
3 -1 22 -1 #SUP: 7
3 -1 27 -1 #SUP: 2
3 -1 30 -1 #SUP: 2
3 -1 31 -1 #SUP: 4
3 -1 32 -1 #SUP: 6
3 -1 33 -1 #SUP: 6
3 -1 41 -1 #SUP: 5
3 -1 44 -1 #SUP: 2
3 -1 50 -1 #SUP: 10
3 -1 54 -1 #SUP: 2
3 -1 64 -1 #SUP: 13
3 -1 65 -1 #SUP: 9
3 -1 66 -1 #SUP: 4
3 -1 74 -1 #SUP: 3
3 -1 76 -1 #SUP: 19
3 -1 113 -1 #SUP: 22
3 -1 141 -1 #SUP: 3
3 -1 144 -1 #SUP: 2
3 -1 151 -1 #SUP: 6
3 -1 153 -1 #SUP: 4
3 -1 154 -1 #SUP: 2
3 -1 160 -1 #SUP: 5
3 -1 163 -1 #SUP: 3
3 -1 165 -1 #SUP: 4
3 -1 182 -1 #SUP: 8
3 -1 187 -1 #SUP: 4
3 -1 190 -1 #SUP: 2
3 -1 194 -1 #SUP: 2
3 -1 200 -1 #SUP: 2
3 -1 211 -1 #SUP: 3
3 -1 242 -1 #SUP: 6
3 -1 250 -1 #SUP: 3
3 -1 251 -1 #SUP: 2
3 -1 268 -1 #SUP: 2
3 -1 278 -1 #SUP: 2
3 -1 312 -1 #SUP: 4
3 -1 316 -1 #SUP: 2
3 -1 340 -1 #SUP: 3
3 -1 372 -1 #SUP: 2
3 -1 388 -1 #SUP: 2
3 -1 406 -1 #SUP: 2
3 -1 417 -1 #SUP: 2
3 -1 469 -1 #SUP: 3
3 -1 484 -1 #SUP: 3
3 -1 504 -1 #SUP: 3
3 -1 506 -1 #SUP: 2
3 -1 547 -1 #SUP: 2
3 -1 557 -1 #SUP: 8
3 -1 602 -1 #SUP: 2
3 -1 613 -1 #SUP: 3
3 -1 614 -1 #SUP: 2
3 -1 635 -1 #SUP: 2
3 -1 686 -1 #SUP: 2
3 -1 692 -1 #SUP: 3
3 -1 702 -1 #SUP: 2
3 -1 936 -1 #SUP: 2
3 -1 997 -1 #SUP: 2
3 -1 1075 -1 #SUP: 2
3 -1 1100 -1 #SUP: 2
3 -1 1121 -1 #SUP: 2
3 -1 1192 -1 #SUP: 2
3 -1 1268 -1 #SUP: 2
3 -1 4067 -1 #SUP: 2
3 -1 4591 -1 #SUP: 2
5 -1 2 -1 #SUP: 5
5 -1 3 -1 #SUP: 4
5 -1 10 -1 #SUP: 2
5 -1 65 -1 #SUP: 2
5 -1 76 -1 #SUP: 7
5 -1 113 -1 #SUP: 2
5 -1 141 -1 #SUP: 2
5 -1 182 -1 #SUP: 3
5 -1 417 -1 #SUP: 2
5 -1 557 -1 #SUP: 3
7 -1 2 -1 #SUP: 4
7 -1 3 -1 #SUP: 6
7 -1 10 -1 #SUP: 2
7 -1 16 -1 #SUP: 2
7 -1 22 -1 #SUP: 3
7 -1 32 -1 #SUP: 3
7 -1 50 -1 #SUP: 4
7 -1 64 -1 #SUP: 8
7 -1 65 -1 #SUP: 7
7 -1 66 -1 #SUP: 2
7 -1 76 -1 #SUP: 8
7 -1 113 -1 #SUP: 7
7 -1 151 -1 #SUP: 2
7 -1 156 -1 #SUP: 2
7 -1 160 -1 #SUP: 5
7 -1 165 -1 #SUP: 2
7 -1 182 -1 #SUP: 3
7 -1 250 -1 #SUP: 2
7 -1 469 -1 #SUP: 4
7 -1 484 -1 #SUP: 2
7 -1 557 -1 #SUP: 3
7 -1 614 -1 #SUP: 2
7 -1 672 -1 #SUP: 2
7 -1 902 -1 #SUP: 2
7 -1 1242 -1 #SUP: 2
7 -1 2319 -1 #SUP: 2
7 -1 2701 -1 #SUP: 2
9 -1 26 -1 #SUP: 3
9 -1 28 -1 #SUP: 3
9 -1 113 -1 #SUP: 2
10 -1 2 -1 #SUP: 4
10 -1 3 -1 #SUP: 3
10 -1 10 -1 #SUP: 2
10 -1 22 -1 #SUP: 2
10 -1 27 -1 #SUP: 2
10 -1 32 -1 #SUP: 2
10 -1 50 -1 #SUP: 7
10 -1 65 -1 #SUP: 3
10 -1 74 -1 #SUP: 4
10 -1 76 -1 #SUP: 5
10 -1 113 -1 #SUP: 5
10 -1 151 -1 #SUP: 2
10 -1 182 -1 #SUP: 2
10 -1 250 -1 #SUP: 2
10 -1 256 -1 #SUP: 3
10 -1 340 -1 #SUP: 2
10 -1 406 -1 #SUP: 2
10 -1 503 -1 #SUP: 2
10 -1 635 -1 #SUP: 3
10 -1 878 -1 #SUP: 3
10 -1 1300 -1 #SUP: 2
10 -1 1879 -1 #SUP: 2
10 -1 2133 -1 #SUP: 2
10 -1 2810 -1 #SUP: 2
11 -1 76 -1 #SUP: 2
16 -1 3 -1 #SUP: 3
16 -1 7 -1 #SUP: 2
16 -1 10 -1 #SUP: 2
16 -1 16 -1 #SUP: 2
16 -1 22 -1 #SUP: 2
16 -1 32 -1 #SUP: 3
16 -1 50 -1 #SUP: 3
16 -1 64 -1 #SUP: 3
16 -1 65 -1 #SUP: 2
16 -1 76 -1 #SUP: 5
16 -1 113 -1 #SUP: 10
16 -1 163 -1 #SUP: 2
16 -1 214 -1 #SUP: 2
16 -1 484 -1 #SUP: 2
16 -1 510 -1 #SUP: 2
16 -1 557 -1 #SUP: 4
16 -1 1091 -1 #SUP: 3
22 -1 2 -1 #SUP: 2
22 -1 3 -1 #SUP: 7
22 -1 16 -1 #SUP: 5
22 -1 22 -1 #SUP: 5
22 -1 32 -1 #SUP: 4
22 -1 50 -1 #SUP: 2
22 -1 64 -1 #SUP: 2
22 -1 75 -1 #SUP: 2
22 -1 76 -1 #SUP: 7
22 -1 113 -1 #SUP: 11
22 -1 141 -1 #SUP: 2
22 -1 151 -1 #SUP: 2
22 -1 153 -1 #SUP: 2
22 -1 163 -1 #SUP: 2
22 -1 165 -1 #SUP: 4
22 -1 182 -1 #SUP: 2
22 -1 201 -1 #SUP: 2
22 -1 244 -1 #SUP: 2
22 -1 484 -1 #SUP: 2
22 -1 504 -1 #SUP: 2
22 -1 557 -1 #SUP: 3
26 -1 113 -1 #SUP: 2
27 -1 32 -1 #SUP: 2
27 -1 41 -1 #SUP: 3
27 -1 64 -1 #SUP: 2
27 -1 76 -1 #SUP: 3
27 -1 113 -1 #SUP: 5
27 -1 182 -1 #SUP: 2
27 -1 504 -1 #SUP: 4
27 -1 557 -1 #SUP: 2
27 -1 1856 -1 #SUP: 2
28 -1 26 -1 #SUP: 3
28 -1 113 -1 #SUP: 2
29 -1 10 -1 #SUP: 2
29 -1 786 -1 #SUP: 2
30 -1 3 -1 #SUP: 2
30 -1 30 -1 #SUP: 4
30 -1 32 -1 #SUP: 2
30 -1 50 -1 #SUP: 4
30 -1 113 -1 #SUP: 3
30 -1 547 -1 #SUP: 2
31 -1 22 -1 #SUP: 2
31 -1 76 -1 #SUP: 3
31 -1 113 -1 #SUP: 4
32 -1 2 -1 #SUP: 5
32 -1 3 -1 #SUP: 7
32 -1 7 -1 #SUP: 2
32 -1 10 -1 #SUP: 2
32 -1 16 -1 #SUP: 2
32 -1 22 -1 #SUP: 3
32 -1 41 -1 #SUP: 2
32 -1 50 -1 #SUP: 5
32 -1 76 -1 #SUP: 6
32 -1 113 -1 #SUP: 7
32 -1 151 -1 #SUP: 4
32 -1 156 -1 #SUP: 2
32 -1 182 -1 #SUP: 2
32 -1 208 -1 #SUP: 2
32 -1 268 -1 #SUP: 2
32 -1 272 -1 #SUP: 2
32 -1 469 -1 #SUP: 2
32 -1 557 -1 #SUP: 3
33 -1 22 -1 #SUP: 3
33 -1 64 -1 #SUP: 4
33 -1 76 -1 #SUP: 3
33 -1 113 -1 #SUP: 4
41 -1 2 -1 #SUP: 4
41 -1 3 -1 #SUP: 10
41 -1 7 -1 #SUP: 5
41 -1 10 -1 #SUP: 4
41 -1 22 -1 #SUP: 2
41 -1 29 -1 #SUP: 2
41 -1 41 -1 #SUP: 4
41 -1 64 -1 #SUP: 5
41 -1 65 -1 #SUP: 3
41 -1 76 -1 #SUP: 8
41 -1 113 -1 #SUP: 8
41 -1 144 -1 #SUP: 2
41 -1 194 -1 #SUP: 2
41 -1 242 -1 #SUP: 2
41 -1 256 -1 #SUP: 3
41 -1 504 -1 #SUP: 3
41 -1 525 -1 #SUP: 2
41 -1 557 -1 #SUP: 2
41 -1 786 -1 #SUP: 2
41 -1 936 -1 #SUP: 2
44 -1 2 -1 #SUP: 2
46 -1 268 -1 #SUP: 2
48 -1 9 -1 #SUP: 2
48 -1 26 -1 #SUP: 2
48 -1 28 -1 #SUP: 2
48 -1 113 -1 #SUP: 3
50 -1 2 -1 #SUP: 8
50 -1 3 -1 #SUP: 9
50 -1 7 -1 #SUP: 4
50 -1 16 -1 #SUP: 2
50 -1 22 -1 #SUP: 2
50 -1 30 -1 #SUP: 2
50 -1 32 -1 #SUP: 2
50 -1 44 -1 #SUP: 2
50 -1 64 -1 #SUP: 3
50 -1 65 -1 #SUP: 3
50 -1 76 -1 #SUP: 3
50 -1 113 -1 #SUP: 9
50 -1 141 -1 #SUP: 3
50 -1 151 -1 #SUP: 3
50 -1 182 -1 #SUP: 3
50 -1 201 -1 #SUP: 2
50 -1 272 -1 #SUP: 2
50 -1 278 -1 #SUP: 2
50 -1 502 -1 #SUP: 2
50 -1 503 -1 #SUP: 2
50 -1 878 -1 #SUP: 3
50 -1 903 -1 #SUP: 2
50 -1 997 -1 #SUP: 2
50 -1 1106 -1 #SUP: 2
50 -1 1498 -1 #SUP: 2
50 -1 2213 -1 #SUP: 2
50 -1 2810 -1 #SUP: 2
62 -1 41 -1 #SUP: 2
62 -1 76 -1 #SUP: 3
63 -1 64 -1 #SUP: 2
64 -1 2 -1 #SUP: 4
64 -1 3 -1 #SUP: 7
64 -1 16 -1 #SUP: 3
64 -1 22 -1 #SUP: 5
64 -1 41 -1 #SUP: 2
64 -1 50 -1 #SUP: 2
64 -1 66 -1 #SUP: 2
64 -1 76 -1 #SUP: 4
64 -1 113 -1 #SUP: 4
64 -1 160 -1 #SUP: 3
64 -1 182 -1 #SUP: 2
64 -1 256 -1 #SUP: 2
64 -1 278 -1 #SUP: 2
64 -1 388 -1 #SUP: 2
64 -1 401 -1 #SUP: 2
64 -1 469 -1 #SUP: 2
64 -1 557 -1 #SUP: 2
64 -1 936 -1 #SUP: 2
65 -1 2 -1 #SUP: 5
65 -1 3 -1 #SUP: 5
65 -1 22 -1 #SUP: 2
65 -1 32 -1 #SUP: 3
65 -1 50 -1 #SUP: 2
65 -1 65 -1 #SUP: 2
65 -1 76 -1 #SUP: 8
65 -1 113 -1 #SUP: 8
65 -1 141 -1 #SUP: 2
65 -1 151 -1 #SUP: 2
65 -1 165 -1 #SUP: 2
65 -1 182 -1 #SUP: 3
65 -1 522 -1 #SUP: 2
65 -1 557 -1 #SUP: 4
65 -1 614 -1 #SUP: 3
65 -1 1100 -1 #SUP: 4
65 -1 1242 -1 #SUP: 2
65 -1 1498 -1 #SUP: 2
65 -1 4067 -1 #SUP: 2
66 -1 2 -1 #SUP: 2
66 -1 3 -1 #SUP: 4
66 -1 16 -1 #SUP: 3
66 -1 22 -1 #SUP: 5
66 -1 32 -1 #SUP: 3
66 -1 76 -1 #SUP: 4
66 -1 113 -1 #SUP: 2
66 -1 182 -1 #SUP: 2
66 -1 388 -1 #SUP: 2
66 -1 484 -1 #SUP: 2
66 -1 557 -1 #SUP: 2
76 -1 2 -1 #SUP: 11
76 -1 3 -1 #SUP: 21
76 -1 7 -1 #SUP: 7
76 -1 10 -1 #SUP: 8
76 -1 11 -1 #SUP: 2
76 -1 16 -1 #SUP: 10
76 -1 22 -1 #SUP: 5
76 -1 27 -1 #SUP: 3
76 -1 29 -1 #SUP: 2
76 -1 31 -1 #SUP: 4
76 -1 32 -1 #SUP: 4
76 -1 33 -1 #SUP: 2
76 -1 41 -1 #SUP: 7
76 -1 46 -1 #SUP: 2
76 -1 50 -1 #SUP: 6
76 -1 64 -1 #SUP: 8
76 -1 65 -1 #SUP: 5
76 -1 66 -1 #SUP: 5
76 -1 74 -1 #SUP: 2
76 -1 76 -1 #SUP: 18
76 -1 113 -1 #SUP: 31
76 -1 115 -1 #SUP: 2
76 -1 121 -1 #SUP: 2
76 -1 141 -1 #SUP: 8
76 -1 144 -1 #SUP: 3
76 -1 151 -1 #SUP: 9
76 -1 153 -1 #SUP: 2
76 -1 154 -1 #SUP: 2
76 -1 155 -1 #SUP: 3
76 -1 160 -1 #SUP: 3
76 -1 161 -1 #SUP: 2
76 -1 165 -1 #SUP: 2
76 -1 182 -1 #SUP: 7
76 -1 187 -1 #SUP: 2
76 -1 190 -1 #SUP: 2
76 -1 194 -1 #SUP: 2
76 -1 200 -1 #SUP: 3
76 -1 208 -1 #SUP: 2
76 -1 242 -1 #SUP: 5
76 -1 250 -1 #SUP: 3
76 -1 251 -1 #SUP: 2
76 -1 256 -1 #SUP: 2
76 -1 268 -1 #SUP: 3
76 -1 273 -1 #SUP: 4
76 -1 308 -1 #SUP: 2
76 -1 312 -1 #SUP: 3
76 -1 326 -1 #SUP: 3
76 -1 339 -1 #SUP: 2
76 -1 340 -1 #SUP: 2
76 -1 388 -1 #SUP: 2
76 -1 406 -1 #SUP: 2
76 -1 417 -1 #SUP: 2
76 -1 469 -1 #SUP: 4
76 -1 484 -1 #SUP: 4
76 -1 504 -1 #SUP: 5
76 -1 510 -1 #SUP: 3
76 -1 557 -1 #SUP: 17
76 -1 602 -1 #SUP: 2
76 -1 614 -1 #SUP: 2
76 -1 635 -1 #SUP: 2
76 -1 771 -1 #SUP: 2
76 -1 997 -1 #SUP: 2
76 -1 1104 -1 #SUP: 2
76 -1 1121 -1 #SUP: 2
76 -1 1856 -1 #SUP: 2
76 -1 2890 -1 #SUP: 2
113 -1 2 -1 #SUP: 19
113 -1 3 -1 #SUP: 35
113 -1 5 -1 #SUP: 6
113 -1 7 -1 #SUP: 19
113 -1 10 -1 #SUP: 13
113 -1 16 -1 #SUP: 13
113 -1 22 -1 #SUP: 12
113 -1 27 -1 #SUP: 5
113 -1 29 -1 #SUP: 2
113 -1 30 -1 #SUP: 3
113 -1 31 -1 #SUP: 7
113 -1 32 -1 #SUP: 10
113 -1 33 -1 #SUP: 6
113 -1 41 -1 #SUP: 9
113 -1 42 -1 #SUP: 2
113 -1 46 -1 #SUP: 2
113 -1 48 -1 #SUP: 2
113 -1 50 -1 #SUP: 14
113 -1 54 -1 #SUP: 3
113 -1 62 -1 #SUP: 3
113 -1 64 -1 #SUP: 19
113 -1 65 -1 #SUP: 15
113 -1 66 -1 #SUP: 7
113 -1 74 -1 #SUP: 3
113 -1 76 -1 #SUP: 30
113 -1 77 -1 #SUP: 2
113 -1 113 -1 #SUP: 30
113 -1 115 -1 #SUP: 2
113 -1 118 -1 #SUP: 2
113 -1 141 -1 #SUP: 19
113 -1 144 -1 #SUP: 2
113 -1 151 -1 #SUP: 9
113 -1 153 -1 #SUP: 4
113 -1 154 -1 #SUP: 4
113 -1 155 -1 #SUP: 2
113 -1 156 -1 #SUP: 6
113 -1 160 -1 #SUP: 11
113 -1 161 -1 #SUP: 4
113 -1 163 -1 #SUP: 2
113 -1 165 -1 #SUP: 3
113 -1 169 -1 #SUP: 3
113 -1 182 -1 #SUP: 11
113 -1 187 -1 #SUP: 5
113 -1 190 -1 #SUP: 2
113 -1 194 -1 #SUP: 4
113 -1 200 -1 #SUP: 6
113 -1 201 -1 #SUP: 2
113 -1 208 -1 #SUP: 3
113 -1 211 -1 #SUP: 2
113 -1 214 -1 #SUP: 7
113 -1 225 -1 #SUP: 2
113 -1 234 -1 #SUP: 3
113 -1 242 -1 #SUP: 5
113 -1 250 -1 #SUP: 4
113 -1 251 -1 #SUP: 2
113 -1 256 -1 #SUP: 8
113 -1 272 -1 #SUP: 2
113 -1 273 -1 #SUP: 4
113 -1 278 -1 #SUP: 4
113 -1 304 -1 #SUP: 2
113 -1 308 -1 #SUP: 3
113 -1 312 -1 #SUP: 3
113 -1 316 -1 #SUP: 2
113 -1 326 -1 #SUP: 4
113 -1 340 -1 #SUP: 5
113 -1 356 -1 #SUP: 4
113 -1 358 -1 #SUP: 2
113 -1 364 -1 #SUP: 2
113 -1 388 -1 #SUP: 3
113 -1 401 -1 #SUP: 2
113 -1 406 -1 #SUP: 4
113 -1 417 -1 #SUP: 3
113 -1 469 -1 #SUP: 7
113 -1 482 -1 #SUP: 2
113 -1 484 -1 #SUP: 4
113 -1 493 -1 #SUP: 4
113 -1 503 -1 #SUP: 3
113 -1 504 -1 #SUP: 10
113 -1 506 -1 #SUP: 2
113 -1 510 -1 #SUP: 2
113 -1 511 -1 #SUP: 2
113 -1 522 -1 #SUP: 2
113 -1 557 -1 #SUP: 15
113 -1 571 -1 #SUP: 4
113 -1 602 -1 #SUP: 2
113 -1 613 -1 #SUP: 2
113 -1 646 -1 #SUP: 2
113 -1 672 -1 #SUP: 2
113 -1 677 -1 #SUP: 2
113 -1 692 -1 #SUP: 3
113 -1 783 -1 #SUP: 2
113 -1 814 -1 #SUP: 3
113 -1 878 -1 #SUP: 3
113 -1 895 -1 #SUP: 2
113 -1 902 -1 #SUP: 2
113 -1 903 -1 #SUP: 2
113 -1 936 -1 #SUP: 3
113 -1 1075 -1 #SUP: 2
113 -1 1099 -1 #SUP: 2
113 -1 1100 -1 #SUP: 3
113 -1 1121 -1 #SUP: 3
113 -1 1225 -1 #SUP: 2
113 -1 1242 -1 #SUP: 2
113 -1 1559 -1 #SUP: 2
113 -1 1583 -1 #SUP: 2
113 -1 1584 -1 #SUP: 2
113 -1 2133 -1 #SUP: 3
113 -1 2213 -1 #SUP: 2
113 -1 2319 -1 #SUP: 2
113 -1 2473 -1 #SUP: 2
113 -1 2701 -1 #SUP: 2
113 -1 2810 -1 #SUP: 2
113 -1 3194 -1 #SUP: 2
113 -1 4067 -1 #SUP: 2
113 -1 4591 -1 #SUP: 2
115 -1 121 -1 #SUP: 2
118 -1 3 -1 #SUP: 3
118 -1 557 -1 #SUP: 2
121 -1 113 -1 #SUP: 2
141 -1 2 -1 #SUP: 3
141 -1 3 -1 #SUP: 5
141 -1 7 -1 #SUP: 4
141 -1 16 -1 #SUP: 10
141 -1 22 -1 #SUP: 3
141 -1 31 -1 #SUP: 2
141 -1 41 -1 #SUP: 2
141 -1 50 -1 #SUP: 2
141 -1 64 -1 #SUP: 5
141 -1 65 -1 #SUP: 3
141 -1 76 -1 #SUP: 7
141 -1 113 -1 #SUP: 8
141 -1 141 -1 #SUP: 3
141 -1 151 -1 #SUP: 2
141 -1 154 -1 #SUP: 2
141 -1 169 -1 #SUP: 2
141 -1 182 -1 #SUP: 3
141 -1 225 -1 #SUP: 2
141 -1 273 -1 #SUP: 2
141 -1 304 -1 #SUP: 2
141 -1 326 -1 #SUP: 2
141 -1 364 -1 #SUP: 2
141 -1 388 -1 #SUP: 2
141 -1 469 -1 #SUP: 2
141 -1 484 -1 #SUP: 2
141 -1 510 -1 #SUP: 2
141 -1 557 -1 #SUP: 4
141 -1 571 -1 #SUP: 2
141 -1 1100 -1 #SUP: 2
141 -1 1559 -1 #SUP: 2
144 -1 2 -1 #SUP: 2
144 -1 3 -1 #SUP: 2
144 -1 113 -1 #SUP: 2
144 -1 182 -1 #SUP: 2
144 -1 278 -1 #SUP: 2
151 -1 2 -1 #SUP: 3
151 -1 3 -1 #SUP: 9
151 -1 7 -1 #SUP: 2
151 -1 10 -1 #SUP: 2
151 -1 16 -1 #SUP: 2
151 -1 22 -1 #SUP: 3
151 -1 32 -1 #SUP: 3
151 -1 41 -1 #SUP: 2
151 -1 50 -1 #SUP: 3
151 -1 64 -1 #SUP: 5
151 -1 66 -1 #SUP: 2
151 -1 76 -1 #SUP: 4
151 -1 113 -1 #SUP: 7
151 -1 161 -1 #SUP: 2
151 -1 165 -1 #SUP: 3
151 -1 182 -1 #SUP: 2
151 -1 242 -1 #SUP: 4
151 -1 272 -1 #SUP: 2
151 -1 503 -1 #SUP: 4
151 -1 510 -1 #SUP: 2
153 -1 3 -1 #SUP: 3
153 -1 10 -1 #SUP: 2
153 -1 32 -1 #SUP: 4
153 -1 76 -1 #SUP: 3
153 -1 113 -1 #SUP: 2
154 -1 64 -1 #SUP: 2
154 -1 76 -1 #SUP: 2
154 -1 160 -1 #SUP: 2
156 -1 3 -1 #SUP: 2
156 -1 64 -1 #SUP: 4
158 -1 3 -1 #SUP: 3
158 -1 29 -1 #SUP: 2
158 -1 41 -1 #SUP: 3
158 -1 113 -1 #SUP: 3
158 -1 242 -1 #SUP: 2
158 -1 256 -1 #SUP: 3
158 -1 786 -1 #SUP: 2
160 -1 2 -1 #SUP: 4
160 -1 3 -1 #SUP: 2
160 -1 32 -1 #SUP: 3
160 -1 46 -1 #SUP: 2
160 -1 50 -1 #SUP: 2
160 -1 64 -1 #SUP: 2
160 -1 65 -1 #SUP: 2
160 -1 76 -1 #SUP: 3
160 -1 113 -1 #SUP: 2
160 -1 201 -1 #SUP: 2
160 -1 312 -1 #SUP: 2
160 -1 469 -1 #SUP: 3
160 -1 2473 -1 #SUP: 2
161 -1 7 -1 #SUP: 2
163 -1 22 -1 #SUP: 2
163 -1 33 -1 #SUP: 2
163 -1 64 -1 #SUP: 2
163 -1 76 -1 #SUP: 2
165 -1 3 -1 #SUP: 2
165 -1 22 -1 #SUP: 2
165 -1 113 -1 #SUP: 2
179 -1 76 -1 #SUP: 2
182 -1 2 -1 #SUP: 7
182 -1 3 -1 #SUP: 12
182 -1 16 -1 #SUP: 3
182 -1 50 -1 #SUP: 2
182 -1 64 -1 #SUP: 4
182 -1 65 -1 #SUP: 2
182 -1 66 -1 #SUP: 2
182 -1 76 -1 #SUP: 6
182 -1 113 -1 #SUP: 9
182 -1 151 -1 #SUP: 4
182 -1 154 -1 #SUP: 2
182 -1 163 -1 #SUP: 2
182 -1 182 -1 #SUP: 3
182 -1 234 -1 #SUP: 2
182 -1 242 -1 #SUP: 2
182 -1 256 -1 #SUP: 2
182 -1 388 -1 #SUP: 2
182 -1 417 -1 #SUP: 2
182 -1 504 -1 #SUP: 3
182 -1 557 -1 #SUP: 2
182 -1 613 -1 #SUP: 2
182 -1 895 -1 #SUP: 2
182 -1 1856 -1 #SUP: 2
187 -1 3 -1 #SUP: 2
187 -1 22 -1 #SUP: 2
187 -1 32 -1 #SUP: 2
189 -1 10 -1 #SUP: 2
190 -1 3 -1 #SUP: 2
194 -1 3 -1 #SUP: 2
200 -1 2 -1 #SUP: 2
200 -1 3 -1 #SUP: 2
200 -1 64 -1 #SUP: 2
200 -1 65 -1 #SUP: 3
200 -1 76 -1 #SUP: 2
200 -1 113 -1 #SUP: 3
200 -1 151 -1 #SUP: 2
200 -1 250 -1 #SUP: 2
200 -1 504 -1 #SUP: 2
200 -1 511 -1 #SUP: 2
201 -1 76 -1 #SUP: 2
201 -1 113 -1 #SUP: 3
201 -1 151 -1 #SUP: 2
201 -1 2473 -1 #SUP: 2
208 -1 3 -1 #SUP: 2
208 -1 113 -1 #SUP: 2
208 -1 308 -1 #SUP: 2
214 -1 3 -1 #SUP: 3
214 -1 7 -1 #SUP: 2
214 -1 50 -1 #SUP: 2
214 -1 76 -1 #SUP: 3
214 -1 113 -1 #SUP: 2
214 -1 463 -1 #SUP: 2
214 -1 504 -1 #SUP: 2
225 -1 182 -1 #SUP: 2
234 -1 2 -1 #SUP: 2
234 -1 65 -1 #SUP: 2
234 -1 76 -1 #SUP: 3
234 -1 113 -1 #SUP: 2
234 -1 160 -1 #SUP: 2
234 -1 201 -1 #SUP: 2
234 -1 2473 -1 #SUP: 2
242 -1 3 -1 #SUP: 3
242 -1 16 -1 #SUP: 4
242 -1 50 -1 #SUP: 2
242 -1 64 -1 #SUP: 3
242 -1 113 -1 #SUP: 5
244 -1 22 -1 #SUP: 3
244 -1 32 -1 #SUP: 2
244 -1 50 -1 #SUP: 3
244 -1 113 -1 #SUP: 2
244 -1 201 -1 #SUP: 2
250 -1 16 -1 #SUP: 2
250 -1 31 -1 #SUP: 2
250 -1 64 -1 #SUP: 2
250 -1 76 -1 #SUP: 4
250 -1 113 -1 #SUP: 2
250 -1 251 -1 #SUP: 3
251 -1 76 -1 #SUP: 3
251 -1 155 -1 #SUP: 2
256 -1 2 -1 #SUP: 2
256 -1 46 -1 #SUP: 2
256 -1 65 -1 #SUP: 4
256 -1 76 -1 #SUP: 5
256 -1 113 -1 #SUP: 2
256 -1 141 -1 #SUP: 2
256 -1 160 -1 #SUP: 2
256 -1 182 -1 #SUP: 3
256 -1 201 -1 #SUP: 2
256 -1 225 -1 #SUP: 2
256 -1 234 -1 #SUP: 2
256 -1 557 -1 #SUP: 3
256 -1 1583 -1 #SUP: 2
256 -1 2473 -1 #SUP: 2
268 -1 3 -1 #SUP: 3
268 -1 7 -1 #SUP: 2
268 -1 340 -1 #SUP: 2
272 -1 64 -1 #SUP: 2
272 -1 113 -1 #SUP: 2
273 -1 3 -1 #SUP: 3
273 -1 64 -1 #SUP: 2
278 -1 3 -1 #SUP: 2
278 -1 16 -1 #SUP: 2
278 -1 76 -1 #SUP: 2
278 -1 151 -1 #SUP: 2
307 -1 113 -1 #SUP: 2
312 -1 2 -1 #SUP: 3
312 -1 5 -1 #SUP: 3
312 -1 10 -1 #SUP: 2
312 -1 32 -1 #SUP: 2
312 -1 50 -1 #SUP: 2
312 -1 76 -1 #SUP: 2
312 -1 113 -1 #SUP: 2
326 -1 3 -1 #SUP: 2
326 -1 22 -1 #SUP: 2
326 -1 76 -1 #SUP: 2
326 -1 113 -1 #SUP: 2
340 -1 64 -1 #SUP: 3
340 -1 76 -1 #SUP: 3
340 -1 182 -1 #SUP: 2
356 -1 2 -1 #SUP: 2
356 -1 65 -1 #SUP: 2
356 -1 182 -1 #SUP: 2
356 -1 256 -1 #SUP: 2
358 -1 484 -1 #SUP: 2
372 -1 3 -1 #SUP: 2
372 -1 50 -1 #SUP: 2
377 -1 113 -1 #SUP: 2
385 -1 65 -1 #SUP: 2
385 -1 113 -1 #SUP: 2
388 -1 2 -1 #SUP: 2
388 -1 3 -1 #SUP: 2
388 -1 16 -1 #SUP: 3
388 -1 76 -1 #SUP: 2
388 -1 113 -1 #SUP: 2
388 -1 182 -1 #SUP: 3
406 -1 2 -1 #SUP: 2
406 -1 76 -1 #SUP: 3
406 -1 113 -1 #SUP: 4
406 -1 141 -1 #SUP: 2
406 -1 364 -1 #SUP: 3
406 -1 557 -1 #SUP: 2
417 -1 3 -1 #SUP: 3
417 -1 64 -1 #SUP: 2
417 -1 76 -1 #SUP: 5
417 -1 417 -1 #SUP: 2
417 -1 463 -1 #SUP: 2
417 -1 557 -1 #SUP: 2
418 -1 76 -1 #SUP: 2
463 -1 3 -1 #SUP: 2
463 -1 76 -1 #SUP: 2
469 -1 3 -1 #SUP: 2
469 -1 7 -1 #SUP: 2
469 -1 10 -1 #SUP: 3
469 -1 22 -1 #SUP: 2
469 -1 32 -1 #SUP: 2
469 -1 64 -1 #SUP: 3
469 -1 76 -1 #SUP: 2
469 -1 113 -1 #SUP: 3
469 -1 151 -1 #SUP: 2
469 -1 312 -1 #SUP: 2
484 -1 3 -1 #SUP: 4
484 -1 7 -1 #SUP: 2
484 -1 33 -1 #SUP: 2
484 -1 41 -1 #SUP: 2
484 -1 64 -1 #SUP: 3
484 -1 113 -1 #SUP: 6
484 -1 141 -1 #SUP: 2
484 -1 312 -1 #SUP: 2
493 -1 3 -1 #SUP: 3
493 -1 10 -1 #SUP: 3
493 -1 50 -1 #SUP: 2
493 -1 76 -1 #SUP: 2
493 -1 113 -1 #SUP: 3
493 -1 151 -1 #SUP: 2
502 -1 2 -1 #SUP: 2
502 -1 3 -1 #SUP: 2
502 -1 113 -1 #SUP: 2
502 -1 182 -1 #SUP: 2
503 -1 2 -1 #SUP: 3
503 -1 64 -1 #SUP: 2
503 -1 113 -1 #SUP: 2
504 -1 10 -1 #SUP: 2
504 -1 22 -1 #SUP: 3
504 -1 65 -1 #SUP: 2
504 -1 66 -1 #SUP: 2
504 -1 76 -1 #SUP: 4
504 -1 113 -1 #SUP: 7
504 -1 557 -1 #SUP: 2
504 -1 1856 -1 #SUP: 2
508 -1 76 -1 #SUP: 2
510 -1 113 -1 #SUP: 3
510 -1 504 -1 #SUP: 2
510 -1 677 -1 #SUP: 2
527 -1 10 -1 #SUP: 2
547 -1 113 -1 #SUP: 2
549 -1 151 -1 #SUP: 2
557 -1 2 -1 #SUP: 2
557 -1 3 -1 #SUP: 9
557 -1 7 -1 #SUP: 3
557 -1 10 -1 #SUP: 2
557 -1 16 -1 #SUP: 3
557 -1 22 -1 #SUP: 3
557 -1 31 -1 #SUP: 2
557 -1 32 -1 #SUP: 2
557 -1 33 -1 #SUP: 2
557 -1 50 -1 #SUP: 3
557 -1 64 -1 #SUP: 2
557 -1 65 -1 #SUP: 4
557 -1 76 -1 #SUP: 2
557 -1 113 -1 #SUP: 17
557 -1 115 -1 #SUP: 2
557 -1 141 -1 #SUP: 5
557 -1 151 -1 #SUP: 3
557 -1 160 -1 #SUP: 2
557 -1 182 -1 #SUP: 3
557 -1 187 -1 #SUP: 3
557 -1 312 -1 #SUP: 3
557 -1 469 -1 #SUP: 5
557 -1 504 -1 #SUP: 3
557 -1 646 -1 #SUP: 2
557 -1 1121 -1 #SUP: 2
561 -1 2 -1 #SUP: 2
561 -1 3 -1 #SUP: 2
571 -1 76 -1 #SUP: 2
593 -1 113 -1 #SUP: 2
602 -1 3 -1 #SUP: 2
613 -1 65 -1 #SUP: 2
613 -1 1100 -1 #SUP: 2
614 -1 76 -1 #SUP: 2
614 -1 113 -1 #SUP: 3
620 -1 76 -1 #SUP: 2
635 -1 76 -1 #SUP: 2
646 -1 187 -1 #SUP: 2
672 -1 902 -1 #SUP: 2
692 -1 33 -1 #SUP: 2
694 -1 76 -1 #SUP: 2
747 -1 31 -1 #SUP: 2
771 -1 65 -1 #SUP: 2
771 -1 113 -1 #SUP: 4
814 -1 22 -1 #SUP: 3
814 -1 76 -1 #SUP: 3
814 -1 113 -1 #SUP: 2
871 -1 113 -1 #SUP: 2
878 -1 2 -1 #SUP: 2
878 -1 151 -1 #SUP: 2
878 -1 503 -1 #SUP: 2
878 -1 2810 -1 #SUP: 2
903 -1 3 -1 #SUP: 3
903 -1 113 -1 #SUP: 3
936 -1 3 -1 #SUP: 2
936 -1 10 -1 #SUP: 2
936 -1 16 -1 #SUP: 2
936 -1 113 -1 #SUP: 2
997 -1 2 -1 #SUP: 2
997 -1 16 -1 #SUP: 2
997 -1 113 -1 #SUP: 2
1075 -1 613 -1 #SUP: 2
1099 -1 64 -1 #SUP: 2
1100 -1 76 -1 #SUP: 2
1100 -1 557 -1 #SUP: 2
1106 -1 3 -1 #SUP: 2
1175 -1 2 -1 #SUP: 2
1175 -1 3 -1 #SUP: 2
1175 -1 5 -1 #SUP: 2
1175 -1 76 -1 #SUP: 3
1175 -1 113 -1 #SUP: 2
1175 -1 504 -1 #SUP: 2
1242 -1 113 -1 #SUP: 2
1268 -1 3 -1 #SUP: 2
1268 -1 76 -1 #SUP: 2
1268 -1 113 -1 #SUP: 2
1300 -1 256 -1 #SUP: 2
1583 -1 160 -1 #SUP: 2
1583 -1 201 -1 #SUP: 2
1583 -1 2473 -1 #SUP: 2
1584 -1 10 -1 #SUP: 2
1584 -1 2133 -1 #SUP: 2
1856 -1 2 -1 #SUP: 2
1856 -1 76 -1 #SUP: 2
1856 -1 113 -1 #SUP: 2
1879 -1 74 -1 #SUP: 2
1881 -1 41 -1 #SUP: 2
2133 -1 76 -1 #SUP: 2
2473 -1 76 -1 #SUP: 2
2810 -1 2 -1 #SUP: 2
2810 -1 151 -1 #SUP: 2
2810 -1 503 -1 #SUP: 2
3194 -1 50 -1 #SUP: 2
4067 -1 2 -1 #SUP: 2
4067 -1 32 -1 #SUP: 2
4067 -1 113 -1 #SUP: 2
4260 -1 64 -1 #SUP: 2
4591 -1 2 -1 #SUP: 2
4591 -1 113 -1 #SUP: 2
32356 -1 2 -1 #SUP: 2
32356 -1 64 -1 #SUP: 2
32356 -1 40362 -1 #SUP: 2
40362 -1 64 -1 #SUP: 2
2 -1 2 -1 65 -1 #SUP: 3
2 -1 2 -1 113 -1 #SUP: 2
2 -1 3 -1 2 -1 #SUP: 3
2 -1 3 -1 50 -1 #SUP: 2
2 -1 3 -1 65 -1 #SUP: 2
2 -1 3 -1 76 -1 #SUP: 2
2 -1 3 -1 113 -1 #SUP: 3
2 -1 3 -1 182 -1 #SUP: 2
2 -1 3 -1 242 -1 #SUP: 2
2 -1 3 -1 406 -1 #SUP: 2
2 -1 3 -1 613 -1 #SUP: 2
2 -1 16 -1 64 -1 #SUP: 2
2 -1 27 -1 113 -1 #SUP: 2
2 -1 50 -1 2 -1 #SUP: 2
2 -1 65 -1 614 -1 #SUP: 2
2 -1 76 -1 2 -1 #SUP: 2
2 -1 76 -1 3 -1 #SUP: 2
2 -1 76 -1 50 -1 #SUP: 2
2 -1 76 -1 76 -1 #SUP: 2
2 -1 76 -1 113 -1 #SUP: 3
2 -1 76 -1 141 -1 #SUP: 2
2 -1 76 -1 273 -1 #SUP: 2
2 -1 76 -1 557 -1 #SUP: 3
2 -1 113 -1 3 -1 #SUP: 3
2 -1 113 -1 50 -1 #SUP: 3
2 -1 113 -1 64 -1 #SUP: 2
2 -1 113 -1 76 -1 #SUP: 4
2 -1 113 -1 113 -1 #SUP: 3
2 -1 113 -1 141 -1 #SUP: 2
2 -1 113 -1 156 -1 #SUP: 2
2 -1 113 -1 200 -1 #SUP: 3
2 -1 113 -1 557 -1 #SUP: 2
2 -1 141 -1 16 -1 #SUP: 2
2 -1 141 -1 76 -1 #SUP: 2
2 -1 141 -1 113 -1 #SUP: 2
2 -1 156 -1 64 -1 #SUP: 2
2 -1 182 -1 2 -1 #SUP: 2
2 -1 182 -1 3 -1 #SUP: 4
2 -1 182 -1 65 -1 #SUP: 2
2 -1 182 -1 76 -1 #SUP: 2
2 -1 182 -1 113 -1 #SUP: 2
2 -1 182 -1 242 -1 #SUP: 2
2 -1 182 -1 613 -1 #SUP: 2
2 -1 242 -1 113 -1 #SUP: 2
2 -1 417 -1 76 -1 #SUP: 2
2 -1 469 -1 64 -1 #SUP: 2
2 -1 1856 -1 113 -1 #SUP: 2
2 -1 40362 -1 64 -1 #SUP: 2
3 -1 2 -1 2 -1 #SUP: 2
3 -1 2 -1 3 -1 #SUP: 4
3 -1 2 -1 10 -1 #SUP: 2
3 -1 2 -1 65 -1 #SUP: 2
3 -1 2 -1 113 -1 #SUP: 6
3 -1 2 -1 182 -1 #SUP: 4
3 -1 2 -1 504 -1 #SUP: 2
3 -1 3 -1 2 -1 #SUP: 3
3 -1 3 -1 3 -1 #SUP: 2
3 -1 3 -1 10 -1 #SUP: 4
3 -1 3 -1 16 -1 #SUP: 2
3 -1 3 -1 64 -1 #SUP: 2
3 -1 3 -1 76 -1 #SUP: 2
3 -1 3 -1 113 -1 #SUP: 3
3 -1 5 -1 2 -1 #SUP: 2
3 -1 7 -1 64 -1 #SUP: 3
3 -1 7 -1 113 -1 #SUP: 2
3 -1 10 -1 50 -1 #SUP: 2
3 -1 10 -1 74 -1 #SUP: 3
3 -1 16 -1 3 -1 #SUP: 3
3 -1 16 -1 65 -1 #SUP: 2
3 -1 16 -1 76 -1 #SUP: 2
3 -1 16 -1 113 -1 #SUP: 4
3 -1 16 -1 163 -1 #SUP: 2
3 -1 16 -1 557 -1 #SUP: 3
3 -1 22 -1 3 -1 #SUP: 2
3 -1 22 -1 22 -1 #SUP: 2
3 -1 22 -1 165 -1 #SUP: 3
3 -1 27 -1 113 -1 #SUP: 2
3 -1 30 -1 113 -1 #SUP: 2
3 -1 32 -1 2 -1 #SUP: 3
3 -1 32 -1 50 -1 #SUP: 2
3 -1 33 -1 76 -1 #SUP: 2
3 -1 33 -1 113 -1 #SUP: 2
3 -1 41 -1 2 -1 #SUP: 2
3 -1 41 -1 3 -1 #SUP: 2
3 -1 41 -1 7 -1 #SUP: 2
3 -1 41 -1 64 -1 #SUP: 3
3 -1 41 -1 113 -1 #SUP: 2
3 -1 41 -1 936 -1 #SUP: 2
3 -1 44 -1 2 -1 #SUP: 2
3 -1 50 -1 2 -1 #SUP: 3
3 -1 50 -1 3 -1 #SUP: 3
3 -1 64 -1 2 -1 #SUP: 3
3 -1 64 -1 66 -1 #SUP: 2
3 -1 64 -1 76 -1 #SUP: 2
3 -1 64 -1 113 -1 #SUP: 2
3 -1 64 -1 936 -1 #SUP: 2
3 -1 65 -1 2 -1 #SUP: 2
3 -1 65 -1 76 -1 #SUP: 2
3 -1 65 -1 113 -1 #SUP: 3
3 -1 65 -1 557 -1 #SUP: 2
3 -1 65 -1 614 -1 #SUP: 2
3 -1 65 -1 1100 -1 #SUP: 2
3 -1 66 -1 3 -1 #SUP: 2
3 -1 66 -1 32 -1 #SUP: 2
3 -1 66 -1 76 -1 #SUP: 2
3 -1 66 -1 388 -1 #SUP: 2
3 -1 76 -1 2 -1 #SUP: 3
3 -1 76 -1 3 -1 #SUP: 6
3 -1 76 -1 10 -1 #SUP: 2
3 -1 76 -1 50 -1 #SUP: 2
3 -1 76 -1 64 -1 #SUP: 2
3 -1 76 -1 65 -1 #SUP: 2
3 -1 76 -1 113 -1 #SUP: 11
3 -1 76 -1 144 -1 #SUP: 2
3 -1 76 -1 151 -1 #SUP: 2
3 -1 76 -1 182 -1 #SUP: 4
3 -1 76 -1 242 -1 #SUP: 4
3 -1 76 -1 557 -1 #SUP: 6
3 -1 76 -1 602 -1 #SUP: 2
3 -1 113 -1 2 -1 #SUP: 2
3 -1 113 -1 3 -1 #SUP: 6
3 -1 113 -1 7 -1 #SUP: 3
3 -1 113 -1 10 -1 #SUP: 4
3 -1 113 -1 32 -1 #SUP: 2
3 -1 113 -1 50 -1 #SUP: 3
3 -1 113 -1 64 -1 #SUP: 3
3 -1 113 -1 65 -1 #SUP: 4
3 -1 113 -1 74 -1 #SUP: 2
3 -1 113 -1 76 -1 #SUP: 4
3 -1 113 -1 113 -1 #SUP: 3
3 -1 113 -1 151 -1 #SUP: 2
3 -1 113 -1 153 -1 #SUP: 2
3 -1 113 -1 160 -1 #SUP: 2
3 -1 113 -1 182 -1 #SUP: 2
3 -1 113 -1 200 -1 #SUP: 2
3 -1 113 -1 242 -1 #SUP: 3
3 -1 113 -1 250 -1 #SUP: 2
3 -1 113 -1 340 -1 #SUP: 2
3 -1 113 -1 557 -1 #SUP: 2
3 -1 151 -1 3 -1 #SUP: 2
3 -1 151 -1 64 -1 #SUP: 2
3 -1 151 -1 76 -1 #SUP: 2
3 -1 151 -1 113 -1 #SUP: 4
3 -1 151 -1 182 -1 #SUP: 2
3 -1 151 -1 242 -1 #SUP: 2
3 -1 153 -1 32 -1 #SUP: 2
3 -1 154 -1 76 -1 #SUP: 2
3 -1 163 -1 64 -1 #SUP: 2
3 -1 182 -1 2 -1 #SUP: 2
3 -1 182 -1 3 -1 #SUP: 4
3 -1 182 -1 113 -1 #SUP: 2
3 -1 187 -1 32 -1 #SUP: 2
3 -1 242 -1 113 -1 #SUP: 3
3 -1 268 -1 3 -1 #SUP: 2
3 -1 312 -1 2 -1 #SUP: 2
3 -1 312 -1 5 -1 #SUP: 2
3 -1 312 -1 50 -1 #SUP: 2
3 -1 312 -1 113 -1 #SUP: 2
3 -1 340 -1 64 -1 #SUP: 2
3 -1 504 -1 113 -1 #SUP: 2
3 -1 547 -1 113 -1 #SUP: 2
3 -1 557 -1 65 -1 #SUP: 2
3 -1 557 -1 113 -1 #SUP: 4
3 -1 557 -1 182 -1 #SUP: 2
3 -1 602 -1 3 -1 #SUP: 2
3 -1 613 -1 65 -1 #SUP: 2
3 -1 613 -1 1100 -1 #SUP: 2
3 -1 614 -1 113 -1 #SUP: 2
3 -1 1075 -1 613 -1 #SUP: 2
3 -1 1268 -1 76 -1 #SUP: 2
3 -1 1268 -1 113 -1 #SUP: 2
3 -1 4591 -1 2 -1 #SUP: 2
3 -1 4591 -1 113 -1 #SUP: 2
5 -1 2 -1 3 -1 #SUP: 2
5 -1 2 -1 76 -1 #SUP: 4
5 -1 2 -1 182 -1 #SUP: 2
5 -1 2 -1 557 -1 #SUP: 2
5 -1 3 -1 65 -1 #SUP: 2
5 -1 3 -1 76 -1 #SUP: 2
5 -1 3 -1 182 -1 #SUP: 2
5 -1 76 -1 2 -1 #SUP: 2
5 -1 76 -1 182 -1 #SUP: 2
5 -1 76 -1 557 -1 #SUP: 3
5 -1 417 -1 76 -1 #SUP: 2
7 -1 3 -1 76 -1 #SUP: 2
7 -1 3 -1 113 -1 #SUP: 2
7 -1 3 -1 182 -1 #SUP: 2
7 -1 50 -1 2 -1 #SUP: 2
7 -1 64 -1 3 -1 #SUP: 2
7 -1 64 -1 22 -1 #SUP: 2
7 -1 65 -1 76 -1 #SUP: 3
7 -1 65 -1 614 -1 #SUP: 2
7 -1 66 -1 32 -1 #SUP: 2
7 -1 76 -1 113 -1 #SUP: 3
7 -1 76 -1 182 -1 #SUP: 2
7 -1 76 -1 557 -1 #SUP: 3
7 -1 113 -1 64 -1 #SUP: 2
7 -1 160 -1 469 -1 #SUP: 3
7 -1 250 -1 76 -1 #SUP: 2
7 -1 557 -1 113 -1 #SUP: 2
7 -1 672 -1 902 -1 #SUP: 2
9 -1 26 -1 113 -1 #SUP: 2
9 -1 28 -1 26 -1 #SUP: 3
9 -1 28 -1 113 -1 #SUP: 2
10 -1 10 -1 76 -1 #SUP: 2
10 -1 50 -1 2 -1 #SUP: 2
10 -1 50 -1 151 -1 #SUP: 2
10 -1 50 -1 503 -1 #SUP: 2
10 -1 50 -1 878 -1 #SUP: 3
10 -1 50 -1 2810 -1 #SUP: 2
10 -1 65 -1 113 -1 #SUP: 2
10 -1 76 -1 3 -1 #SUP: 2
10 -1 76 -1 76 -1 #SUP: 3
10 -1 76 -1 113 -1 #SUP: 3
10 -1 113 -1 182 -1 #SUP: 2
10 -1 113 -1 256 -1 #SUP: 2
10 -1 151 -1 2 -1 #SUP: 2
10 -1 151 -1 503 -1 #SUP: 2
10 -1 503 -1 2 -1 #SUP: 2
10 -1 878 -1 2 -1 #SUP: 2
10 -1 878 -1 151 -1 #SUP: 2
10 -1 878 -1 503 -1 #SUP: 2
10 -1 878 -1 2810 -1 #SUP: 2
10 -1 1300 -1 256 -1 #SUP: 2
10 -1 1879 -1 74 -1 #SUP: 2
10 -1 2810 -1 2 -1 #SUP: 2
10 -1 2810 -1 151 -1 #SUP: 2
10 -1 2810 -1 503 -1 #SUP: 2
16 -1 3 -1 113 -1 #SUP: 2
16 -1 22 -1 557 -1 #SUP: 2
16 -1 32 -1 113 -1 #SUP: 2
16 -1 76 -1 113 -1 #SUP: 3
16 -1 76 -1 557 -1 #SUP: 2
16 -1 113 -1 3 -1 #SUP: 2
16 -1 113 -1 65 -1 #SUP: 2
16 -1 113 -1 76 -1 #SUP: 2
16 -1 113 -1 113 -1 #SUP: 2
16 -1 113 -1 510 -1 #SUP: 2
16 -1 113 -1 557 -1 #SUP: 2
16 -1 557 -1 113 -1 #SUP: 3
22 -1 2 -1 76 -1 #SUP: 2
22 -1 3 -1 16 -1 #SUP: 2
22 -1 3 -1 163 -1 #SUP: 2
22 -1 16 -1 484 -1 #SUP: 2
22 -1 22 -1 165 -1 #SUP: 2
22 -1 32 -1 113 -1 #SUP: 3
22 -1 76 -1 3 -1 #SUP: 3
22 -1 76 -1 16 -1 #SUP: 2
22 -1 76 -1 113 -1 #SUP: 2
22 -1 113 -1 3 -1 #SUP: 5
22 -1 113 -1 16 -1 #SUP: 3
22 -1 113 -1 22 -1 #SUP: 2
22 -1 113 -1 76 -1 #SUP: 3
22 -1 113 -1 163 -1 #SUP: 2
22 -1 113 -1 182 -1 #SUP: 2
22 -1 113 -1 504 -1 #SUP: 2
22 -1 141 -1 16 -1 #SUP: 2
22 -1 153 -1 32 -1 #SUP: 2
22 -1 165 -1 3 -1 #SUP: 2
22 -1 165 -1 22 -1 #SUP: 2
22 -1 165 -1 113 -1 #SUP: 2
22 -1 201 -1 113 -1 #SUP: 2
22 -1 557 -1 3 -1 #SUP: 2
22 -1 557 -1 113 -1 #SUP: 2
27 -1 41 -1 76 -1 #SUP: 2
27 -1 41 -1 113 -1 #SUP: 2
27 -1 41 -1 504 -1 #SUP: 2
27 -1 76 -1 113 -1 #SUP: 2
27 -1 76 -1 557 -1 #SUP: 2
27 -1 113 -1 64 -1 #SUP: 2
27 -1 113 -1 76 -1 #SUP: 2
27 -1 182 -1 113 -1 #SUP: 2
27 -1 182 -1 504 -1 #SUP: 2
27 -1 182 -1 1856 -1 #SUP: 2
27 -1 504 -1 76 -1 #SUP: 2
27 -1 504 -1 113 -1 #SUP: 3
27 -1 504 -1 557 -1 #SUP: 2
27 -1 504 -1 1856 -1 #SUP: 2
27 -1 1856 -1 113 -1 #SUP: 2
28 -1 26 -1 113 -1 #SUP: 2
30 -1 3 -1 113 -1 #SUP: 2
30 -1 3 -1 547 -1 #SUP: 2
30 -1 30 -1 50 -1 #SUP: 2
30 -1 30 -1 113 -1 #SUP: 2
30 -1 32 -1 50 -1 #SUP: 2
30 -1 50 -1 113 -1 #SUP: 2
30 -1 113 -1 30 -1 #SUP: 2
30 -1 113 -1 50 -1 #SUP: 3
30 -1 113 -1 113 -1 #SUP: 2
30 -1 547 -1 113 -1 #SUP: 2
31 -1 76 -1 113 -1 #SUP: 2
31 -1 113 -1 76 -1 #SUP: 3
32 -1 2 -1 2 -1 #SUP: 2
32 -1 2 -1 3 -1 #SUP: 2
32 -1 2 -1 16 -1 #SUP: 2
32 -1 2 -1 113 -1 #SUP: 3
32 -1 2 -1 182 -1 #SUP: 2
32 -1 22 -1 113 -1 #SUP: 2
32 -1 50 -1 2 -1 #SUP: 3
32 -1 50 -1 3 -1 #SUP: 2
32 -1 76 -1 3 -1 #SUP: 2
32 -1 76 -1 113 -1 #SUP: 4
32 -1 76 -1 557 -1 #SUP: 3
32 -1 113 -1 3 -1 #SUP: 2
32 -1 113 -1 50 -1 #SUP: 2
32 -1 113 -1 113 -1 #SUP: 2
32 -1 151 -1 113 -1 #SUP: 2
32 -1 182 -1 3 -1 #SUP: 2
32 -1 557 -1 3 -1 #SUP: 2
32 -1 557 -1 113 -1 #SUP: 2
33 -1 22 -1 113 -1 #SUP: 2
33 -1 76 -1 113 -1 #SUP: 3
41 -1 2 -1 3 -1 #SUP: 2
41 -1 2 -1 10 -1 #SUP: 2
41 -1 2 -1 113 -1 #SUP: 2
41 -1 3 -1 10 -1 #SUP: 2
41 -1 3 -1 64 -1 #SUP: 2
41 -1 3 -1 65 -1 #SUP: 2
41 -1 3 -1 76 -1 #SUP: 3
41 -1 3 -1 113 -1 #SUP: 4
41 -1 3 -1 557 -1 #SUP: 2
41 -1 7 -1 3 -1 #SUP: 3
41 -1 7 -1 64 -1 #SUP: 3
41 -1 7 -1 65 -1 #SUP: 2
41 -1 7 -1 113 -1 #SUP: 2
41 -1 41 -1 3 -1 #SUP: 2
41 -1 41 -1 7 -1 #SUP: 2
41 -1 41 -1 113 -1 #SUP: 2
41 -1 41 -1 144 -1 #SUP: 2
41 -1 64 -1 3 -1 #SUP: 2
41 -1 76 -1 3 -1 #SUP: 2
41 -1 76 -1 10 -1 #SUP: 2
41 -1 76 -1 41 -1 #SUP: 3
41 -1 76 -1 113 -1 #SUP: 7
41 -1 76 -1 144 -1 #SUP: 2
41 -1 76 -1 557 -1 #SUP: 2
41 -1 113 -1 3 -1 #SUP: 3
41 -1 113 -1 113 -1 #SUP: 2
41 -1 144 -1 113 -1 #SUP: 2
41 -1 504 -1 65 -1 #SUP: 2
41 -1 504 -1 76 -1 #SUP: 2
41 -1 504 -1 113 -1 #SUP: 2
41 -1 557 -1 113 -1 #SUP: 2
48 -1 9 -1 26 -1 #SUP: 2
48 -1 9 -1 28 -1 #SUP: 2
48 -1 9 -1 113 -1 #SUP: 2
48 -1 26 -1 113 -1 #SUP: 2
48 -1 28 -1 26 -1 #SUP: 2
48 -1 28 -1 113 -1 #SUP: 2
50 -1 2 -1 2 -1 #SUP: 2
50 -1 2 -1 3 -1 #SUP: 3
50 -1 2 -1 76 -1 #SUP: 2
50 -1 2 -1 113 -1 #SUP: 4
50 -1 2 -1 182 -1 #SUP: 2
50 -1 2 -1 1498 -1 #SUP: 2
50 -1 3 -1 2 -1 #SUP: 2
50 -1 3 -1 7 -1 #SUP: 2
50 -1 3 -1 30 -1 #SUP: 2
50 -1 3 -1 64 -1 #SUP: 3
50 -1 3 -1 76 -1 #SUP: 2
50 -1 3 -1 113 -1 #SUP: 5
50 -1 7 -1 64 -1 #SUP: 2
50 -1 22 -1 113 -1 #SUP: 2
50 -1 22 -1 201 -1 #SUP: 2
50 -1 30 -1 113 -1 #SUP: 2
50 -1 32 -1 113 -1 #SUP: 2
50 -1 76 -1 113 -1 #SUP: 3
50 -1 113 -1 7 -1 #SUP: 3
50 -1 141 -1 7 -1 #SUP: 2
50 -1 141 -1 16 -1 #SUP: 2
50 -1 151 -1 2 -1 #SUP: 2
50 -1 151 -1 503 -1 #SUP: 2
50 -1 182 -1 3 -1 #SUP: 2
50 -1 201 -1 113 -1 #SUP: 2
50 -1 503 -1 2 -1 #SUP: 2
50 -1 878 -1 2 -1 #SUP: 2
50 -1 878 -1 151 -1 #SUP: 2
50 -1 878 -1 503 -1 #SUP: 2
50 -1 878 -1 2810 -1 #SUP: 2
50 -1 903 -1 3 -1 #SUP: 2
50 -1 903 -1 113 -1 #SUP: 2
50 -1 1106 -1 3 -1 #SUP: 2
50 -1 2810 -1 2 -1 #SUP: 2
50 -1 2810 -1 151 -1 #SUP: 2
50 -1 2810 -1 503 -1 #SUP: 2
62 -1 41 -1 76 -1 #SUP: 2
64 -1 2 -1 3 -1 #SUP: 2
64 -1 3 -1 16 -1 #SUP: 2
64 -1 22 -1 16 -1 #SUP: 2
64 -1 50 -1 3 -1 #SUP: 2
64 -1 76 -1 16 -1 #SUP: 2
64 -1 113 -1 3 -1 #SUP: 2
64 -1 182 -1 3 -1 #SUP: 2
64 -1 388 -1 16 -1 #SUP: 2
64 -1 388 -1 76 -1 #SUP: 2
65 -1 2 -1 2 -1 #SUP: 2
65 -1 2 -1 76 -1 #SUP: 2
65 -1 2 -1 113 -1 #SUP: 2
65 -1 32 -1 2 -1 #SUP: 2
65 -1 32 -1 22 -1 #SUP: 2
65 -1 32 -1 76 -1 #SUP: 2
65 -1 32 -1 113 -1 #SUP: 2
65 -1 50 -1 113 -1 #SUP: 2
65 -1 76 -1 3 -1 #SUP: 2
65 -1 76 -1 113 -1 #SUP: 5
65 -1 76 -1 151 -1 #SUP: 2
65 -1 76 -1 557 -1 #SUP: 4
65 -1 113 -1 2 -1 #SUP: 2
65 -1 113 -1 3 -1 #SUP: 3
65 -1 113 -1 65 -1 #SUP: 2
65 -1 113 -1 113 -1 #SUP: 2
65 -1 113 -1 141 -1 #SUP: 2
65 -1 113 -1 182 -1 #SUP: 2
65 -1 557 -1 113 -1 #SUP: 3
65 -1 614 -1 113 -1 #SUP: 2
65 -1 1100 -1 76 -1 #SUP: 2
65 -1 1100 -1 557 -1 #SUP: 2
65 -1 1242 -1 113 -1 #SUP: 2
65 -1 4067 -1 2 -1 #SUP: 2
65 -1 4067 -1 32 -1 #SUP: 2
65 -1 4067 -1 113 -1 #SUP: 2
66 -1 2 -1 3 -1 #SUP: 2
66 -1 2 -1 182 -1 #SUP: 2
66 -1 16 -1 484 -1 #SUP: 2
66 -1 22 -1 16 -1 #SUP: 2
66 -1 22 -1 76 -1 #SUP: 3
66 -1 22 -1 113 -1 #SUP: 2
66 -1 22 -1 484 -1 #SUP: 2
66 -1 32 -1 2 -1 #SUP: 2
66 -1 32 -1 3 -1 #SUP: 2
66 -1 32 -1 182 -1 #SUP: 2
66 -1 76 -1 3 -1 #SUP: 2
66 -1 76 -1 484 -1 #SUP: 2
66 -1 76 -1 557 -1 #SUP: 2
66 -1 182 -1 3 -1 #SUP: 2
66 -1 388 -1 16 -1 #SUP: 2
76 -1 2 -1 3 -1 #SUP: 2
76 -1 2 -1 16 -1 #SUP: 2
76 -1 2 -1 76 -1 #SUP: 2
76 -1 2 -1 113 -1 #SUP: 3
76 -1 2 -1 182 -1 #SUP: 2
76 -1 2 -1 406 -1 #SUP: 2
76 -1 3 -1 2 -1 #SUP: 2
76 -1 3 -1 3 -1 #SUP: 4
76 -1 3 -1 16 -1 #SUP: 3
76 -1 3 -1 22 -1 #SUP: 2
76 -1 3 -1 33 -1 #SUP: 2
76 -1 3 -1 64 -1 #SUP: 4
76 -1 3 -1 66 -1 #SUP: 3
76 -1 3 -1 76 -1 #SUP: 5
76 -1 3 -1 113 -1 #SUP: 5
76 -1 3 -1 151 -1 #SUP: 2
76 -1 3 -1 182 -1 #SUP: 2
76 -1 3 -1 190 -1 #SUP: 2
76 -1 3 -1 250 -1 #SUP: 2
76 -1 3 -1 251 -1 #SUP: 2
76 -1 3 -1 268 -1 #SUP: 2
76 -1 7 -1 64 -1 #SUP: 2
76 -1 7 -1 76 -1 #SUP: 2
76 -1 10 -1 3 -1 #SUP: 2
76 -1 10 -1 74 -1 #SUP: 2
76 -1 10 -1 76 -1 #SUP: 3
76 -1 11 -1 76 -1 #SUP: 2
76 -1 16 -1 113 -1 #SUP: 4
76 -1 22 -1 113 -1 #SUP: 2
76 -1 22 -1 165 -1 #SUP: 2
76 -1 27 -1 113 -1 #SUP: 2
76 -1 29 -1 10 -1 #SUP: 2
76 -1 32 -1 76 -1 #SUP: 2
76 -1 41 -1 3 -1 #SUP: 2
76 -1 41 -1 7 -1 #SUP: 2
76 -1 41 -1 64 -1 #SUP: 2
76 -1 41 -1 76 -1 #SUP: 2
76 -1 41 -1 113 -1 #SUP: 3
76 -1 41 -1 144 -1 #SUP: 2
76 -1 41 -1 194 -1 #SUP: 2
76 -1 50 -1 3 -1 #SUP: 4
76 -1 65 -1 113 -1 #SUP: 3
76 -1 66 -1 22 -1 #SUP: 2
76 -1 76 -1 2 -1 #SUP: 4
76 -1 76 -1 3 -1 #SUP: 2
76 -1 76 -1 46 -1 #SUP: 2
76 -1 76 -1 76 -1 #SUP: 4
76 -1 76 -1 113 -1 #SUP: 7
76 -1 76 -1 161 -1 #SUP: 2
76 -1 76 -1 200 -1 #SUP: 2
76 -1 76 -1 469 -1 #SUP: 2
76 -1 76 -1 504 -1 #SUP: 2
76 -1 76 -1 557 -1 #SUP: 3
76 -1 113 -1 2 -1 #SUP: 2
76 -1 113 -1 3 -1 #SUP: 12
76 -1 113 -1 7 -1 #SUP: 5
76 -1 113 -1 10 -1 #SUP: 4
76 -1 113 -1 16 -1 #SUP: 4
76 -1 113 -1 22 -1 #SUP: 2
76 -1 113 -1 32 -1 #SUP: 2
76 -1 113 -1 41 -1 #SUP: 2
76 -1 113 -1 50 -1 #SUP: 2
76 -1 113 -1 64 -1 #SUP: 5
76 -1 113 -1 65 -1 #SUP: 2
76 -1 113 -1 66 -1 #SUP: 4
76 -1 113 -1 76 -1 #SUP: 11
76 -1 113 -1 113 -1 #SUP: 6
76 -1 113 -1 141 -1 #SUP: 7
76 -1 113 -1 151 -1 #SUP: 2
76 -1 113 -1 153 -1 #SUP: 2
76 -1 113 -1 155 -1 #SUP: 2
76 -1 113 -1 161 -1 #SUP: 2
76 -1 113 -1 182 -1 #SUP: 4
76 -1 113 -1 187 -1 #SUP: 2
76 -1 113 -1 190 -1 #SUP: 2
76 -1 113 -1 194 -1 #SUP: 2
76 -1 113 -1 200 -1 #SUP: 2
76 -1 113 -1 208 -1 #SUP: 2
76 -1 113 -1 242 -1 #SUP: 2
76 -1 113 -1 250 -1 #SUP: 2
76 -1 113 -1 256 -1 #SUP: 2
76 -1 113 -1 273 -1 #SUP: 2
76 -1 113 -1 308 -1 #SUP: 2
76 -1 113 -1 326 -1 #SUP: 3
76 -1 113 -1 340 -1 #SUP: 2
76 -1 113 -1 504 -1 #SUP: 3
76 -1 113 -1 557 -1 #SUP: 3
76 -1 113 -1 1121 -1 #SUP: 2
76 -1 141 -1 7 -1 #SUP: 2
76 -1 141 -1 16 -1 #SUP: 4
76 -1 141 -1 113 -1 #SUP: 2
76 -1 141 -1 273 -1 #SUP: 2
76 -1 141 -1 326 -1 #SUP: 2
76 -1 144 -1 2 -1 #SUP: 2
76 -1 144 -1 113 -1 #SUP: 2
76 -1 144 -1 182 -1 #SUP: 2
76 -1 151 -1 3 -1 #SUP: 6
76 -1 151 -1 22 -1 #SUP: 2
76 -1 151 -1 50 -1 #SUP: 2
76 -1 151 -1 113 -1 #SUP: 4
76 -1 151 -1 242 -1 #SUP: 2
76 -1 160 -1 76 -1 #SUP: 2
76 -1 182 -1 2 -1 #SUP: 2
76 -1 182 -1 3 -1 #SUP: 5
76 -1 182 -1 16 -1 #SUP: 3
76 -1 182 -1 64 -1 #SUP: 2
76 -1 182 -1 66 -1 #SUP: 2
76 -1 182 -1 113 -1 #SUP: 2
76 -1 208 -1 308 -1 #SUP: 2
76 -1 242 -1 3 -1 #SUP: 2
76 -1 242 -1 16 -1 #SUP: 3
76 -1 242 -1 113 -1 #SUP: 3
76 -1 250 -1 76 -1 #SUP: 2
76 -1 256 -1 113 -1 #SUP: 2
76 -1 256 -1 141 -1 #SUP: 2
76 -1 326 -1 76 -1 #SUP: 2
76 -1 388 -1 182 -1 #SUP: 2
76 -1 484 -1 113 -1 #SUP: 3
76 -1 504 -1 113 -1 #SUP: 3
76 -1 510 -1 113 -1 #SUP: 2
76 -1 557 -1 2 -1 #SUP: 2
76 -1 557 -1 3 -1 #SUP: 8
76 -1 557 -1 7 -1 #SUP: 2
76 -1 557 -1 10 -1 #SUP: 2
76 -1 557 -1 16 -1 #SUP: 2
76 -1 557 -1 22 -1 #SUP: 2
76 -1 557 -1 31 -1 #SUP: 2
76 -1 557 -1 50 -1 #SUP: 3
76 -1 557 -1 65 -1 #SUP: 4
76 -1 557 -1 76 -1 #SUP: 2
76 -1 557 -1 113 -1 #SUP: 11
76 -1 557 -1 141 -1 #SUP: 4
76 -1 557 -1 151 -1 #SUP: 2
76 -1 557 -1 182 -1 #SUP: 3
76 -1 557 -1 312 -1 #SUP: 3
76 -1 557 -1 469 -1 #SUP: 2
76 -1 557 -1 504 -1 #SUP: 3
76 -1 557 -1 1121 -1 #SUP: 2
76 -1 602 -1 3 -1 #SUP: 2
76 -1 614 -1 113 -1 #SUP: 2
76 -1 635 -1 76 -1 #SUP: 2
76 -1 771 -1 113 -1 #SUP: 2
113 -1 2 -1 2 -1 #SUP: 2
113 -1 2 -1 3 -1 #SUP: 2
113 -1 2 -1 50 -1 #SUP: 3
113 -1 2 -1 65 -1 #SUP: 3
113 -1 2 -1 76 -1 #SUP: 4
113 -1 2 -1 113 -1 #SUP: 7
113 -1 2 -1 141 -1 #SUP: 2
113 -1 2 -1 182 -1 #SUP: 4
113 -1 3 -1 2 -1 #SUP: 7
113 -1 3 -1 3 -1 #SUP: 9
113 -1 3 -1 5 -1 #SUP: 2
113 -1 3 -1 10 -1 #SUP: 4
113 -1 3 -1 16 -1 #SUP: 6
113 -1 3 -1 22 -1 #SUP: 3
113 -1 3 -1 27 -1 #SUP: 2
113 -1 3 -1 31 -1 #SUP: 3
113 -1 3 -1 32 -1 #SUP: 2
113 -1 3 -1 33 -1 #SUP: 4
113 -1 3 -1 41 -1 #SUP: 2
113 -1 3 -1 50 -1 #SUP: 6
113 -1 3 -1 64 -1 #SUP: 4
113 -1 3 -1 65 -1 #SUP: 3
113 -1 3 -1 66 -1 #SUP: 3
113 -1 3 -1 74 -1 #SUP: 2
113 -1 3 -1 76 -1 #SUP: 12
113 -1 3 -1 113 -1 #SUP: 11
113 -1 3 -1 153 -1 #SUP: 2
113 -1 3 -1 160 -1 #SUP: 3
113 -1 3 -1 163 -1 #SUP: 2
113 -1 3 -1 165 -1 #SUP: 2
113 -1 3 -1 182 -1 #SUP: 5
113 -1 3 -1 187 -1 #SUP: 3
113 -1 3 -1 190 -1 #SUP: 2
113 -1 3 -1 200 -1 #SUP: 2
113 -1 3 -1 211 -1 #SUP: 2
113 -1 3 -1 278 -1 #SUP: 2
113 -1 3 -1 312 -1 #SUP: 3
113 -1 3 -1 484 -1 #SUP: 2
113 -1 3 -1 504 -1 #SUP: 2
113 -1 3 -1 557 -1 #SUP: 4
113 -1 3 -1 602 -1 #SUP: 2
113 -1 3 -1 613 -1 #SUP: 2
113 -1 3 -1 692 -1 #SUP: 2
113 -1 3 -1 1075 -1 #SUP: 2
113 -1 3 -1 4591 -1 #SUP: 2
113 -1 5 -1 2 -1 #SUP: 4
113 -1 5 -1 76 -1 #SUP: 3
113 -1 5 -1 141 -1 #SUP: 2
113 -1 5 -1 182 -1 #SUP: 2
113 -1 5 -1 557 -1 #SUP: 2
113 -1 7 -1 2 -1 #SUP: 4
113 -1 7 -1 3 -1 #SUP: 2
113 -1 7 -1 22 -1 #SUP: 2
113 -1 7 -1 32 -1 #SUP: 2
113 -1 7 -1 50 -1 #SUP: 4
113 -1 7 -1 64 -1 #SUP: 4
113 -1 7 -1 65 -1 #SUP: 5
113 -1 7 -1 66 -1 #SUP: 2
113 -1 7 -1 76 -1 #SUP: 5
113 -1 7 -1 113 -1 #SUP: 3
113 -1 7 -1 156 -1 #SUP: 2
113 -1 7 -1 160 -1 #SUP: 5
113 -1 7 -1 469 -1 #SUP: 4
113 -1 7 -1 557 -1 #SUP: 2
113 -1 7 -1 672 -1 #SUP: 2
113 -1 7 -1 902 -1 #SUP: 2
113 -1 7 -1 1242 -1 #SUP: 2
113 -1 7 -1 2319 -1 #SUP: 2
113 -1 7 -1 2701 -1 #SUP: 2
113 -1 10 -1 50 -1 #SUP: 5
113 -1 10 -1 65 -1 #SUP: 2
113 -1 10 -1 74 -1 #SUP: 3
113 -1 10 -1 76 -1 #SUP: 2
113 -1 10 -1 113 -1 #SUP: 2
113 -1 10 -1 151 -1 #SUP: 2
113 -1 10 -1 256 -1 #SUP: 2
113 -1 10 -1 406 -1 #SUP: 2
113 -1 10 -1 878 -1 #SUP: 3
113 -1 10 -1 2133 -1 #SUP: 2
113 -1 10 -1 2810 -1 #SUP: 2
113 -1 16 -1 3 -1 #SUP: 2
113 -1 16 -1 10 -1 #SUP: 2
113 -1 16 -1 16 -1 #SUP: 2
113 -1 16 -1 50 -1 #SUP: 2
113 -1 16 -1 65 -1 #SUP: 2
113 -1 16 -1 76 -1 #SUP: 3
113 -1 16 -1 113 -1 #SUP: 4
113 -1 16 -1 557 -1 #SUP: 2
113 -1 22 -1 3 -1 #SUP: 4
113 -1 22 -1 16 -1 #SUP: 3
113 -1 22 -1 76 -1 #SUP: 4
113 -1 22 -1 113 -1 #SUP: 4
113 -1 22 -1 141 -1 #SUP: 2
113 -1 22 -1 557 -1 #SUP: 2
113 -1 27 -1 41 -1 #SUP: 2
113 -1 27 -1 182 -1 #SUP: 2
113 -1 27 -1 504 -1 #SUP: 4
113 -1 29 -1 10 -1 #SUP: 2
113 -1 31 -1 113 -1 #SUP: 2
113 -1 32 -1 2 -1 #SUP: 2
113 -1 32 -1 22 -1 #SUP: 2
113 -1 32 -1 50 -1 #SUP: 4
113 -1 32 -1 76 -1 #SUP: 5
113 -1 32 -1 113 -1 #SUP: 2
113 -1 32 -1 151 -1 #SUP: 2
113 -1 32 -1 557 -1 #SUP: 3
113 -1 33 -1 22 -1 #SUP: 2
113 -1 33 -1 64 -1 #SUP: 2
113 -1 41 -1 3 -1 #SUP: 2
113 -1 41 -1 7 -1 #SUP: 2
113 -1 41 -1 41 -1 #SUP: 2
113 -1 41 -1 76 -1 #SUP: 4
113 -1 41 -1 113 -1 #SUP: 4
113 -1 41 -1 504 -1 #SUP: 2
113 -1 50 -1 2 -1 #SUP: 4
113 -1 50 -1 3 -1 #SUP: 2
113 -1 50 -1 113 -1 #SUP: 2
113 -1 50 -1 151 -1 #SUP: 2
113 -1 50 -1 878 -1 #SUP: 3
113 -1 50 -1 2213 -1 #SUP: 2
113 -1 50 -1 2810 -1 #SUP: 2
113 -1 62 -1 41 -1 #SUP: 2
113 -1 62 -1 76 -1 #SUP: 3
113 -1 64 -1 2 -1 #SUP: 2
113 -1 64 -1 3 -1 #SUP: 2
113 -1 64 -1 22 -1 #SUP: 2
113 -1 64 -1 41 -1 #SUP: 2
113 -1 64 -1 50 -1 #SUP: 2
113 -1 64 -1 66 -1 #SUP: 2
113 -1 64 -1 76 -1 #SUP: 2
113 -1 64 -1 113 -1 #SUP: 3
113 -1 64 -1 182 -1 #SUP: 2
113 -1 64 -1 278 -1 #SUP: 2
113 -1 65 -1 2 -1 #SUP: 3
113 -1 65 -1 32 -1 #SUP: 2
113 -1 65 -1 76 -1 #SUP: 3
113 -1 65 -1 113 -1 #SUP: 3
113 -1 65 -1 141 -1 #SUP: 2
113 -1 65 -1 522 -1 #SUP: 2
113 -1 65 -1 557 -1 #SUP: 2
113 -1 65 -1 1100 -1 #SUP: 3
113 -1 66 -1 3 -1 #SUP: 2
113 -1 66 -1 22 -1 #SUP: 4
113 -1 66 -1 32 -1 #SUP: 3
113 -1 66 -1 76 -1 #SUP: 3
113 -1 66 -1 557 -1 #SUP: 2
113 -1 76 -1 2 -1 #SUP: 6
113 -1 76 -1 3 -1 #SUP: 7
113 -1 76 -1 10 -1 #SUP: 2
113 -1 76 -1 16 -1 #SUP: 4
113 -1 76 -1 22 -1 #SUP: 2
113 -1 76 -1 27 -1 #SUP: 2
113 -1 76 -1 31 -1 #SUP: 3
113 -1 76 -1 50 -1 #SUP: 3
113 -1 76 -1 64 -1 #SUP: 2
113 -1 76 -1 66 -1 #SUP: 3
113 -1 76 -1 76 -1 #SUP: 2
113 -1 76 -1 113 -1 #SUP: 14
113 -1 76 -1 141 -1 #SUP: 6
113 -1 76 -1 155 -1 #SUP: 2
113 -1 76 -1 182 -1 #SUP: 3
113 -1 76 -1 200 -1 #SUP: 2
113 -1 76 -1 242 -1 #SUP: 2
113 -1 76 -1 273 -1 #SUP: 2
113 -1 76 -1 326 -1 #SUP: 2
113 -1 76 -1 484 -1 #SUP: 2
113 -1 76 -1 557 -1 #SUP: 13
113 -1 76 -1 602 -1 #SUP: 2
113 -1 113 -1 2 -1 #SUP: 3
113 -1 113 -1 3 -1 #SUP: 11
113 -1 113 -1 7 -1 #SUP: 4
113 -1 113 -1 10 -1 #SUP: 3
113 -1 113 -1 16 -1 #SUP: 6
113 -1 113 -1 22 -1 #SUP: 3
113 -1 113 -1 50 -1 #SUP: 2
113 -1 113 -1 64 -1 #SUP: 3
113 -1 113 -1 65 -1 #SUP: 2
113 -1 113 -1 66 -1 #SUP: 3
113 -1 113 -1 76 -1 #SUP: 7
113 -1 113 -1 113 -1 #SUP: 5
113 -1 113 -1 141 -1 #SUP: 8
113 -1 113 -1 155 -1 #SUP: 2
113 -1 113 -1 160 -1 #SUP: 3
113 -1 113 -1 200 -1 #SUP: 2
113 -1 113 -1 208 -1 #SUP: 2
113 -1 113 -1 256 -1 #SUP: 2
113 -1 113 -1 272 -1 #SUP: 2
113 -1 113 -1 316 -1 #SUP: 2
113 -1 113 -1 326 -1 #SUP: 2
113 -1 113 -1 469 -1 #SUP: 2
113 -1 118 -1 3 -1 #SUP: 2
113 -1 118 -1 557 -1 #SUP: 2
113 -1 141 -1 2 -1 #SUP: 3
113 -1 141 -1 3 -1 #SUP: 3
113 -1 141 -1 7 -1 #SUP: 2
113 -1 141 -1 16 -1 #SUP: 6
113 -1 141 -1 64 -1 #SUP: 2
113 -1 141 -1 65 -1 #SUP: 3
113 -1 141 -1 76 -1 #SUP: 5
113 -1 141 -1 113 -1 #SUP: 5
113 -1 141 -1 141 -1 #SUP: 3
113 -1 141 -1 169 -1 #SUP: 2
113 -1 141 -1 182 -1 #SUP: 2
113 -1 141 -1 225 -1 #SUP: 2
113 -1 141 -1 273 -1 #SUP: 2
113 -1 141 -1 304 -1 #SUP: 2
113 -1 141 -1 326 -1 #SUP: 2
113 -1 141 -1 364 -1 #SUP: 2
113 -1 141 -1 388 -1 #SUP: 2
113 -1 141 -1 469 -1 #SUP: 2
113 -1 141 -1 557 -1 #SUP: 2
113 -1 141 -1 571 -1 #SUP: 2
113 -1 141 -1 1100 -1 #SUP: 2
113 -1 151 -1 3 -1 #SUP: 2
113 -1 151 -1 22 -1 #SUP: 2
113 -1 151 -1 50 -1 #SUP: 2
113 -1 151 -1 64 -1 #SUP: 2
113 -1 151 -1 113 -1 #SUP: 2
113 -1 151 -1 503 -1 #SUP: 2
113 -1 153 -1 76 -1 #SUP: 2
113 -1 156 -1 64 -1 #SUP: 4
113 -1 160 -1 2 -1 #SUP: 2
113 -1 160 -1 50 -1 #SUP: 2
113 -1 160 -1 65 -1 #SUP: 2
113 -1 160 -1 76 -1 #SUP: 2
113 -1 160 -1 201 -1 #SUP: 2
113 -1 160 -1 469 -1 #SUP: 3
113 -1 160 -1 2473 -1 #SUP: 2
113 -1 161 -1 7 -1 #SUP: 2
113 -1 182 -1 2 -1 #SUP: 3
113 -1 182 -1 3 -1 #SUP: 4
113 -1 182 -1 66 -1 #SUP: 2
113 -1 182 -1 113 -1 #SUP: 2
113 -1 182 -1 256 -1 #SUP: 2
113 -1 182 -1 504 -1 #SUP: 2
113 -1 200 -1 64 -1 #SUP: 2
113 -1 201 -1 2473 -1 #SUP: 2
113 -1 208 -1 308 -1 #SUP: 2
113 -1 214 -1 3 -1 #SUP: 2
113 -1 214 -1 7 -1 #SUP: 2
113 -1 214 -1 113 -1 #SUP: 2
113 -1 214 -1 504 -1 #SUP: 2
113 -1 234 -1 76 -1 #SUP: 2
113 -1 242 -1 3 -1 #SUP: 2
113 -1 242 -1 16 -1 #SUP: 3
113 -1 242 -1 64 -1 #SUP: 2
113 -1 242 -1 113 -1 #SUP: 3
113 -1 250 -1 76 -1 #SUP: 2
113 -1 250 -1 251 -1 #SUP: 2
113 -1 256 -1 65 -1 #SUP: 2
113 -1 256 -1 76 -1 #SUP: 4
113 -1 256 -1 113 -1 #SUP: 2
113 -1 256 -1 141 -1 #SUP: 2
113 -1 256 -1 160 -1 #SUP: 2
113 -1 256 -1 201 -1 #SUP: 2
113 -1 256 -1 234 -1 #SUP: 2
113 -1 256 -1 557 -1 #SUP: 3
113 -1 256 -1 1583 -1 #SUP: 2
113 -1 256 -1 2473 -1 #SUP: 2
113 -1 273 -1 64 -1 #SUP: 2
113 -1 312 -1 2 -1 #SUP: 2
113 -1 312 -1 5 -1 #SUP: 2
113 -1 326 -1 3 -1 #SUP: 2
113 -1 326 -1 76 -1 #SUP: 2
113 -1 326 -1 113 -1 #SUP: 2
113 -1 356 -1 65 -1 #SUP: 2
113 -1 356 -1 182 -1 #SUP: 2
113 -1 356 -1 256 -1 #SUP: 2
113 -1 388 -1 182 -1 #SUP: 2
113 -1 406 -1 76 -1 #SUP: 2
113 -1 406 -1 113 -1 #SUP: 2
113 -1 469 -1 3 -1 #SUP: 2
113 -1 469 -1 76 -1 #SUP: 2
113 -1 493 -1 10 -1 #SUP: 3
113 -1 493 -1 50 -1 #SUP: 2
113 -1 504 -1 22 -1 #SUP: 2
113 -1 504 -1 66 -1 #SUP: 2
113 -1 504 -1 76 -1 #SUP: 3
113 -1 504 -1 113 -1 #SUP: 4
113 -1 557 -1 2 -1 #SUP: 2
113 -1 557 -1 3 -1 #SUP: 3
113 -1 557 -1 50 -1 #SUP: 2
113 -1 557 -1 113 -1 #SUP: 7
113 -1 557 -1 141 -1 #SUP: 3
113 -1 557 -1 182 -1 #SUP: 2
113 -1 571 -1 76 -1 #SUP: 2
113 -1 602 -1 3 -1 #SUP: 2
113 -1 646 -1 187 -1 #SUP: 2
113 -1 672 -1 902 -1 #SUP: 2
113 -1 814 -1 22 -1 #SUP: 2
113 -1 814 -1 76 -1 #SUP: 2
113 -1 878 -1 151 -1 #SUP: 2
113 -1 878 -1 2810 -1 #SUP: 2
113 -1 936 -1 3 -1 #SUP: 2
113 -1 936 -1 16 -1 #SUP: 2
113 -1 936 -1 113 -1 #SUP: 2
113 -1 1075 -1 613 -1 #SUP: 2
113 -1 1099 -1 64 -1 #SUP: 2
113 -1 1100 -1 76 -1 #SUP: 2
113 -1 1100 -1 557 -1 #SUP: 2
113 -1 1583 -1 160 -1 #SUP: 2
113 -1 1583 -1 201 -1 #SUP: 2
113 -1 1583 -1 2473 -1 #SUP: 2
113 -1 1584 -1 10 -1 #SUP: 2
113 -1 1584 -1 2133 -1 #SUP: 2
113 -1 2133 -1 76 -1 #SUP: 2
113 -1 2810 -1 151 -1 #SUP: 2
113 -1 4591 -1 2 -1 #SUP: 2
113 -1 4591 -1 113 -1 #SUP: 2
118 -1 557 -1 3 -1 #SUP: 2
141 -1 2 -1 113 -1 #SUP: 2
141 -1 3 -1 22 -1 #SUP: 2
141 -1 7 -1 3 -1 #SUP: 2
141 -1 7 -1 64 -1 #SUP: 2
141 -1 16 -1 16 -1 #SUP: 2
141 -1 16 -1 50 -1 #SUP: 2
141 -1 16 -1 113 -1 #SUP: 3
141 -1 16 -1 510 -1 #SUP: 2
141 -1 41 -1 3 -1 #SUP: 2
141 -1 41 -1 7 -1 #SUP: 2
141 -1 41 -1 64 -1 #SUP: 2
141 -1 64 -1 3 -1 #SUP: 3
141 -1 65 -1 1100 -1 #SUP: 2
141 -1 76 -1 3 -1 #SUP: 2
141 -1 76 -1 7 -1 #SUP: 2
141 -1 76 -1 16 -1 #SUP: 2
141 -1 76 -1 22 -1 #SUP: 2
141 -1 76 -1 64 -1 #SUP: 2
141 -1 76 -1 113 -1 #SUP: 3
141 -1 76 -1 141 -1 #SUP: 3
141 -1 76 -1 182 -1 #SUP: 2
141 -1 76 -1 273 -1 #SUP: 2
141 -1 76 -1 557 -1 #SUP: 4
141 -1 113 -1 76 -1 #SUP: 2
141 -1 113 -1 141 -1 #SUP: 2
141 -1 113 -1 154 -1 #SUP: 2
141 -1 113 -1 510 -1 #SUP: 2
141 -1 113 -1 557 -1 #SUP: 2
141 -1 141 -1 273 -1 #SUP: 2
141 -1 151 -1 22 -1 #SUP: 2
141 -1 326 -1 3 -1 #SUP: 2
141 -1 388 -1 182 -1 #SUP: 2
144 -1 2 -1 3 -1 #SUP: 2
144 -1 2 -1 182 -1 #SUP: 2
151 -1 2 -1 113 -1 #SUP: 2
151 -1 3 -1 3 -1 #SUP: 3
151 -1 3 -1 22 -1 #SUP: 2
151 -1 3 -1 50 -1 #SUP: 2
151 -1 3 -1 64 -1 #SUP: 3
151 -1 3 -1 76 -1 #SUP: 2
151 -1 3 -1 165 -1 #SUP: 2
151 -1 22 -1 165 -1 #SUP: 3
151 -1 41 -1 3 -1 #SUP: 2
151 -1 50 -1 3 -1 #SUP: 2
151 -1 64 -1 3 -1 #SUP: 2
151 -1 76 -1 3 -1 #SUP: 2
151 -1 76 -1 182 -1 #SUP: 2
151 -1 113 -1 3 -1 #SUP: 3
151 -1 113 -1 76 -1 #SUP: 2
151 -1 113 -1 113 -1 #SUP: 2
151 -1 113 -1 161 -1 #SUP: 2
151 -1 113 -1 242 -1 #SUP: 3
151 -1 182 -1 3 -1 #SUP: 2
151 -1 242 -1 3 -1 #SUP: 2
151 -1 242 -1 113 -1 #SUP: 2
151 -1 503 -1 2 -1 #SUP: 3
151 -1 503 -1 64 -1 #SUP: 2
151 -1 503 -1 113 -1 #SUP: 2
153 -1 32 -1 3 -1 #SUP: 3
158 -1 29 -1 786 -1 #SUP: 2
158 -1 41 -1 256 -1 #SUP: 2
158 -1 41 -1 786 -1 #SUP: 2
158 -1 113 -1 3 -1 #SUP: 3
158 -1 113 -1 113 -1 #SUP: 3
160 -1 76 -1 2 -1 #SUP: 2
160 -1 76 -1 76 -1 #SUP: 2
160 -1 201 -1 2473 -1 #SUP: 2
160 -1 469 -1 64 -1 #SUP: 2
182 -1 2 -1 3 -1 #SUP: 3
182 -1 2 -1 76 -1 #SUP: 2
182 -1 2 -1 113 -1 #SUP: 2
182 -1 2 -1 182 -1 #SUP: 2
182 -1 3 -1 2 -1 #SUP: 4
182 -1 3 -1 3 -1 #SUP: 3
182 -1 3 -1 16 -1 #SUP: 3
182 -1 3 -1 50 -1 #SUP: 2
182 -1 3 -1 64 -1 #SUP: 4
182 -1 3 -1 66 -1 #SUP: 2
182 -1 3 -1 76 -1 #SUP: 3
182 -1 3 -1 113 -1 #SUP: 5
182 -1 3 -1 151 -1 #SUP: 2
182 -1 3 -1 163 -1 #SUP: 2
182 -1 3 -1 388 -1 #SUP: 2
182 -1 16 -1 3 -1 #SUP: 2
182 -1 16 -1 113 -1 #SUP: 2
182 -1 66 -1 388 -1 #SUP: 2
182 -1 76 -1 3 -1 #SUP: 2
182 -1 76 -1 151 -1 #SUP: 2
182 -1 76 -1 557 -1 #SUP: 2
182 -1 113 -1 3 -1 #SUP: 3
182 -1 113 -1 76 -1 #SUP: 3
182 -1 113 -1 113 -1 #SUP: 3
182 -1 113 -1 154 -1 #SUP: 2
182 -1 113 -1 504 -1 #SUP: 2
182 -1 113 -1 557 -1 #SUP: 2
182 -1 113 -1 895 -1 #SUP: 2
182 -1 151 -1 3 -1 #SUP: 3
182 -1 151 -1 113 -1 #SUP: 3
182 -1 163 -1 64 -1 #SUP: 2
182 -1 182 -1 3 -1 #SUP: 2
182 -1 242 -1 113 -1 #SUP: 2
182 -1 504 -1 113 -1 #SUP: 3
182 -1 504 -1 1856 -1 #SUP: 2
182 -1 1856 -1 113 -1 #SUP: 2
200 -1 3 -1 250 -1 #SUP: 2
200 -1 76 -1 113 -1 #SUP: 2
200 -1 76 -1 151 -1 #SUP: 2
214 -1 113 -1 3 -1 #SUP: 2
214 -1 463 -1 76 -1 #SUP: 2
234 -1 76 -1 76 -1 #SUP: 2
234 -1 160 -1 201 -1 #SUP: 2
234 -1 160 -1 2473 -1 #SUP: 2
234 -1 201 -1 2473 -1 #SUP: 2
242 -1 3 -1 3 -1 #SUP: 2
242 -1 3 -1 16 -1 #SUP: 2
242 -1 3 -1 113 -1 #SUP: 2
242 -1 113 -1 3 -1 #SUP: 2
242 -1 113 -1 16 -1 #SUP: 3
242 -1 113 -1 113 -1 #SUP: 2
244 -1 22 -1 201 -1 #SUP: 2
244 -1 50 -1 22 -1 #SUP: 2
244 -1 50 -1 201 -1 #SUP: 2
250 -1 76 -1 64 -1 #SUP: 2
250 -1 76 -1 113 -1 #SUP: 2
250 -1 251 -1 76 -1 #SUP: 2
251 -1 76 -1 155 -1 #SUP: 2
256 -1 65 -1 76 -1 #SUP: 2
256 -1 65 -1 182 -1 #SUP: 2
256 -1 76 -1 65 -1 #SUP: 2
256 -1 76 -1 76 -1 #SUP: 2
256 -1 76 -1 557 -1 #SUP: 3
256 -1 113 -1 141 -1 #SUP: 2
256 -1 160 -1 201 -1 #SUP: 2
256 -1 160 -1 2473 -1 #SUP: 2
256 -1 201 -1 2473 -1 #SUP: 2
256 -1 225 -1 182 -1 #SUP: 2
256 -1 234 -1 76 -1 #SUP: 2
256 -1 557 -1 65 -1 #SUP: 2
256 -1 1583 -1 160 -1 #SUP: 2
256 -1 1583 -1 201 -1 #SUP: 2
256 -1 1583 -1 2473 -1 #SUP: 2
272 -1 113 -1 64 -1 #SUP: 2
312 -1 5 -1 2 -1 #SUP: 2
312 -1 5 -1 76 -1 #SUP: 2
356 -1 182 -1 256 -1 #SUP: 2
388 -1 16 -1 3 -1 #SUP: 2
388 -1 76 -1 16 -1 #SUP: 2
388 -1 182 -1 2 -1 #SUP: 2
388 -1 182 -1 3 -1 #SUP: 2
388 -1 182 -1 16 -1 #SUP: 2
388 -1 182 -1 113 -1 #SUP: 2
406 -1 76 -1 113 -1 #SUP: 3
406 -1 76 -1 557 -1 #SUP: 2
406 -1 113 -1 141 -1 #SUP: 2
417 -1 3 -1 64 -1 #SUP: 2
417 -1 76 -1 417 -1 #SUP: 2
417 -1 76 -1 557 -1 #SUP: 2
469 -1 10 -1 22 -1 #SUP: 2
469 -1 113 -1 7 -1 #SUP: 2
469 -1 312 -1 32 -1 #SUP: 2
484 -1 3 -1 64 -1 #SUP: 2
484 -1 7 -1 64 -1 #SUP: 2
484 -1 113 -1 3 -1 #SUP: 2
484 -1 113 -1 64 -1 #SUP: 2
493 -1 3 -1 113 -1 #SUP: 3
493 -1 10 -1 50 -1 #SUP: 2
493 -1 76 -1 3 -1 #SUP: 2
493 -1 76 -1 113 -1 #SUP: 2
493 -1 113 -1 113 -1 #SUP: 2
502 -1 2 -1 3 -1 #SUP: 2
502 -1 182 -1 2 -1 #SUP: 2
502 -1 182 -1 3 -1 #SUP: 2
503 -1 2 -1 113 -1 #SUP: 2
504 -1 66 -1 22 -1 #SUP: 2
504 -1 76 -1 113 -1 #SUP: 2
504 -1 76 -1 557 -1 #SUP: 2
504 -1 113 -1 10 -1 #SUP: 2
504 -1 113 -1 22 -1 #SUP: 3
504 -1 113 -1 66 -1 #SUP: 2
504 -1 113 -1 76 -1 #SUP: 2
504 -1 1856 -1 113 -1 #SUP: 2
510 -1 113 -1 113 -1 #SUP: 2
510 -1 113 -1 504 -1 #SUP: 2
510 -1 113 -1 677 -1 #SUP: 2
510 -1 504 -1 113 -1 #SUP: 2
557 -1 3 -1 16 -1 #SUP: 2
557 -1 3 -1 22 -1 #SUP: 2
557 -1 3 -1 187 -1 #SUP: 2
557 -1 22 -1 113 -1 #SUP: 2
557 -1 50 -1 3 -1 #SUP: 2
557 -1 65 -1 113 -1 #SUP: 3
557 -1 113 -1 3 -1 #SUP: 6
557 -1 113 -1 7 -1 #SUP: 3
557 -1 113 -1 10 -1 #SUP: 2
557 -1 113 -1 16 -1 #SUP: 3
557 -1 113 -1 22 -1 #SUP: 2
557 -1 113 -1 33 -1 #SUP: 2
557 -1 113 -1 64 -1 #SUP: 2
557 -1 113 -1 65 -1 #SUP: 2
557 -1 113 -1 113 -1 #SUP: 3
557 -1 113 -1 141 -1 #SUP: 5
557 -1 113 -1 187 -1 #SUP: 3
557 -1 113 -1 469 -1 #SUP: 3
557 -1 113 -1 646 -1 #SUP: 2
557 -1 113 -1 1121 -1 #SUP: 2
557 -1 182 -1 113 -1 #SUP: 2
557 -1 504 -1 113 -1 #SUP: 3
557 -1 646 -1 187 -1 #SUP: 2
613 -1 65 -1 1100 -1 #SUP: 2
614 -1 76 -1 113 -1 #SUP: 2
614 -1 113 -1 113 -1 #SUP: 2
771 -1 113 -1 65 -1 #SUP: 2
814 -1 22 -1 76 -1 #SUP: 3
814 -1 22 -1 113 -1 #SUP: 2
878 -1 151 -1 2 -1 #SUP: 2
878 -1 151 -1 503 -1 #SUP: 2
878 -1 503 -1 2 -1 #SUP: 2
878 -1 2810 -1 2 -1 #SUP: 2
878 -1 2810 -1 151 -1 #SUP: 2
878 -1 2810 -1 503 -1 #SUP: 2
903 -1 3 -1 113 -1 #SUP: 2
936 -1 3 -1 113 -1 #SUP: 2
1100 -1 76 -1 557 -1 #SUP: 2
1175 -1 5 -1 2 -1 #SUP: 2
1268 -1 76 -1 3 -1 #SUP: 2
1268 -1 76 -1 113 -1 #SUP: 2
1583 -1 160 -1 201 -1 #SUP: 2
1583 -1 160 -1 2473 -1 #SUP: 2
1583 -1 201 -1 2473 -1 #SUP: 2
1584 -1 10 -1 2133 -1 #SUP: 2
1856 -1 76 -1 2 -1 #SUP: 2
2810 -1 151 -1 2 -1 #SUP: 2
2810 -1 151 -1 503 -1 #SUP: 2
2810 -1 503 -1 2 -1 #SUP: 2
4067 -1 2 -1 113 -1 #SUP: 2
4067 -1 32 -1 2 -1 #SUP: 2
4067 -1 32 -1 113 -1 #SUP: 2
4591 -1 2 -1 113 -1 #SUP: 2
32356 -1 2 -1 64 -1 #SUP: 2
32356 -1 2 -1 40362 -1 #SUP: 2
32356 -1 40362 -1 64 -1 #SUP: 2
2 -1 76 -1 113 -1 141 -1 #SUP: 2
2 -1 113 -1 76 -1 113 -1 #SUP: 2
2 -1 113 -1 76 -1 141 -1 #SUP: 2
2 -1 113 -1 76 -1 557 -1 #SUP: 2
2 -1 113 -1 113 -1 141 -1 #SUP: 2
2 -1 113 -1 156 -1 64 -1 #SUP: 2
2 -1 182 -1 3 -1 2 -1 #SUP: 2
3 -1 2 -1 182 -1 3 -1 #SUP: 2
3 -1 16 -1 3 -1 113 -1 #SUP: 2
3 -1 16 -1 113 -1 3 -1 #SUP: 2
3 -1 16 -1 113 -1 65 -1 #SUP: 2
3 -1 16 -1 113 -1 76 -1 #SUP: 2
3 -1 16 -1 113 -1 557 -1 #SUP: 2
3 -1 33 -1 76 -1 113 -1 #SUP: 2
3 -1 41 -1 7 -1 64 -1 #SUP: 2
3 -1 50 -1 2 -1 3 -1 #SUP: 2
3 -1 65 -1 76 -1 557 -1 #SUP: 2
3 -1 65 -1 614 -1 113 -1 #SUP: 2
3 -1 76 -1 113 -1 10 -1 #SUP: 2
3 -1 76 -1 182 -1 3 -1 #SUP: 2
3 -1 76 -1 242 -1 113 -1 #SUP: 2
3 -1 76 -1 557 -1 65 -1 #SUP: 2
3 -1 76 -1 557 -1 113 -1 #SUP: 3
3 -1 76 -1 557 -1 182 -1 #SUP: 2
3 -1 76 -1 602 -1 3 -1 #SUP: 2
3 -1 113 -1 3 -1 10 -1 #SUP: 3
3 -1 113 -1 3 -1 76 -1 #SUP: 2
3 -1 113 -1 10 -1 74 -1 #SUP: 2
3 -1 151 -1 76 -1 3 -1 #SUP: 2
3 -1 151 -1 76 -1 182 -1 #SUP: 2
3 -1 151 -1 182 -1 3 -1 #SUP: 2
3 -1 182 -1 3 -1 2 -1 #SUP: 2
3 -1 312 -1 5 -1 2 -1 #SUP: 2
3 -1 613 -1 65 -1 1100 -1 #SUP: 2
3 -1 1268 -1 76 -1 113 -1 #SUP: 2
3 -1 4591 -1 2 -1 113 -1 #SUP: 2
5 -1 2 -1 76 -1 557 -1 #SUP: 2
5 -1 3 -1 76 -1 182 -1 #SUP: 2
7 -1 3 -1 76 -1 182 -1 #SUP: 2
7 -1 76 -1 557 -1 113 -1 #SUP: 2
9 -1 28 -1 26 -1 113 -1 #SUP: 2
10 -1 50 -1 151 -1 2 -1 #SUP: 2
10 -1 50 -1 151 -1 503 -1 #SUP: 2
10 -1 50 -1 503 -1 2 -1 #SUP: 2
10 -1 50 -1 878 -1 2 -1 #SUP: 2
10 -1 50 -1 878 -1 151 -1 #SUP: 2
10 -1 50 -1 878 -1 503 -1 #SUP: 2
10 -1 50 -1 878 -1 2810 -1 #SUP: 2
10 -1 50 -1 2810 -1 2 -1 #SUP: 2
10 -1 50 -1 2810 -1 151 -1 #SUP: 2
10 -1 50 -1 2810 -1 503 -1 #SUP: 2
10 -1 151 -1 503 -1 2 -1 #SUP: 2
10 -1 878 -1 151 -1 2 -1 #SUP: 2
10 -1 878 -1 151 -1 503 -1 #SUP: 2
10 -1 878 -1 503 -1 2 -1 #SUP: 2
10 -1 878 -1 2810 -1 2 -1 #SUP: 2
10 -1 878 -1 2810 -1 151 -1 #SUP: 2
10 -1 878 -1 2810 -1 503 -1 #SUP: 2
10 -1 2810 -1 151 -1 2 -1 #SUP: 2
10 -1 2810 -1 151 -1 503 -1 #SUP: 2
10 -1 2810 -1 503 -1 2 -1 #SUP: 2
16 -1 76 -1 557 -1 113 -1 #SUP: 2
16 -1 113 -1 557 -1 113 -1 #SUP: 2
22 -1 76 -1 113 -1 3 -1 #SUP: 2
22 -1 113 -1 3 -1 16 -1 #SUP: 2
22 -1 113 -1 3 -1 163 -1 #SUP: 2
22 -1 113 -1 76 -1 16 -1 #SUP: 2
22 -1 557 -1 113 -1 3 -1 #SUP: 2
27 -1 41 -1 76 -1 113 -1 #SUP: 2
27 -1 182 -1 504 -1 113 -1 #SUP: 2
27 -1 182 -1 504 -1 1856 -1 #SUP: 2
27 -1 182 -1 1856 -1 113 -1 #SUP: 2
27 -1 504 -1 76 -1 557 -1 #SUP: 2
27 -1 504 -1 1856 -1 113 -1 #SUP: 2
30 -1 3 -1 547 -1 113 -1 #SUP: 2
32 -1 2 -1 182 -1 3 -1 #SUP: 2
32 -1 76 -1 557 -1 3 -1 #SUP: 2
32 -1 76 -1 557 -1 113 -1 #SUP: 2
41 -1 2 -1 113 -1 3 -1 #SUP: 2
41 -1 3 -1 76 -1 113 -1 #SUP: 3
41 -1 3 -1 76 -1 557 -1 #SUP: 2
41 -1 3 -1 557 -1 113 -1 #SUP: 2
41 -1 7 -1 64 -1 3 -1 #SUP: 2
41 -1 41 -1 144 -1 113 -1 #SUP: 2
41 -1 76 -1 41 -1 113 -1 #SUP: 2
41 -1 76 -1 41 -1 144 -1 #SUP: 2
41 -1 76 -1 113 -1 3 -1 #SUP: 2
41 -1 76 -1 144 -1 113 -1 #SUP: 2
41 -1 76 -1 557 -1 113 -1 #SUP: 2
41 -1 504 -1 76 -1 113 -1 #SUP: 2
48 -1 9 -1 26 -1 113 -1 #SUP: 2
48 -1 9 -1 28 -1 26 -1 #SUP: 2
48 -1 9 -1 28 -1 113 -1 #SUP: 2
48 -1 28 -1 26 -1 113 -1 #SUP: 2
50 -1 2 -1 3 -1 2 -1 #SUP: 2
50 -1 2 -1 3 -1 113 -1 #SUP: 2
50 -1 2 -1 76 -1 113 -1 #SUP: 2
50 -1 2 -1 182 -1 3 -1 #SUP: 2
50 -1 3 -1 7 -1 64 -1 #SUP: 2
50 -1 3 -1 30 -1 113 -1 #SUP: 2
50 -1 3 -1 76 -1 113 -1 #SUP: 2
50 -1 22 -1 201 -1 113 -1 #SUP: 2
50 -1 151 -1 503 -1 2 -1 #SUP: 2
50 -1 878 -1 151 -1 2 -1 #SUP: 2
50 -1 878 -1 151 -1 503 -1 #SUP: 2
50 -1 878 -1 503 -1 2 -1 #SUP: 2
50 -1 878 -1 2810 -1 2 -1 #SUP: 2
50 -1 878 -1 2810 -1 151 -1 #SUP: 2
50 -1 878 -1 2810 -1 503 -1 #SUP: 2
50 -1 903 -1 3 -1 113 -1 #SUP: 2
50 -1 2810 -1 151 -1 2 -1 #SUP: 2
50 -1 2810 -1 151 -1 503 -1 #SUP: 2
50 -1 2810 -1 503 -1 2 -1 #SUP: 2
64 -1 388 -1 76 -1 16 -1 #SUP: 2
65 -1 32 -1 2 -1 113 -1 #SUP: 2
65 -1 76 -1 557 -1 113 -1 #SUP: 3
65 -1 1100 -1 76 -1 557 -1 #SUP: 2
65 -1 4067 -1 2 -1 113 -1 #SUP: 2
65 -1 4067 -1 32 -1 2 -1 #SUP: 2
65 -1 4067 -1 32 -1 113 -1 #SUP: 2
66 -1 2 -1 182 -1 3 -1 #SUP: 2
66 -1 22 -1 16 -1 484 -1 #SUP: 2
66 -1 32 -1 2 -1 3 -1 #SUP: 2
66 -1 32 -1 2 -1 182 -1 #SUP: 2
66 -1 32 -1 182 -1 3 -1 #SUP: 2
76 -1 3 -1 76 -1 113 -1 #SUP: 2
76 -1 3 -1 151 -1 113 -1 #SUP: 2
76 -1 10 -1 76 -1 3 -1 #SUP: 2
76 -1 41 -1 7 -1 64 -1 #SUP: 2
76 -1 41 -1 144 -1 113 -1 #SUP: 2
76 -1 76 -1 76 -1 76 -1 #SUP: 3
76 -1 76 -1 113 -1 161 -1 #SUP: 2
76 -1 113 -1 3 -1 66 -1 #SUP: 2
76 -1 113 -1 3 -1 76 -1 #SUP: 2
76 -1 113 -1 3 -1 190 -1 #SUP: 2
76 -1 113 -1 7 -1 76 -1 #SUP: 2
76 -1 113 -1 32 -1 76 -1 #SUP: 2
76 -1 113 -1 66 -1 22 -1 #SUP: 2
76 -1 113 -1 76 -1 2 -1 #SUP: 2
76 -1 113 -1 76 -1 113 -1 #SUP: 3
76 -1 113 -1 76 -1 200 -1 #SUP: 2
76 -1 113 -1 76 -1 557 -1 #SUP: 3
76 -1 113 -1 113 -1 141 -1 #SUP: 2
76 -1 113 -1 141 -1 7 -1 #SUP: 2
76 -1 113 -1 141 -1 16 -1 #SUP: 3
76 -1 113 -1 141 -1 326 -1 #SUP: 2
76 -1 113 -1 208 -1 308 -1 #SUP: 2
76 -1 113 -1 250 -1 76 -1 #SUP: 2
76 -1 113 -1 256 -1 113 -1 #SUP: 2
76 -1 113 -1 256 -1 141 -1 #SUP: 2
76 -1 113 -1 326 -1 76 -1 #SUP: 2
76 -1 113 -1 504 -1 113 -1 #SUP: 2
76 -1 141 -1 16 -1 113 -1 #SUP: 2
76 -1 144 -1 2 -1 182 -1 #SUP: 2
76 -1 151 -1 50 -1 3 -1 #SUP: 2
76 -1 151 -1 113 -1 3 -1 #SUP: 2
76 -1 182 -1 3 -1 16 -1 #SUP: 3
76 -1 182 -1 3 -1 64 -1 #SUP: 2
76 -1 182 -1 3 -1 66 -1 #SUP: 2
76 -1 182 -1 113 -1 3 -1 #SUP: 2
76 -1 242 -1 113 -1 16 -1 #SUP: 2
76 -1 256 -1 113 -1 141 -1 #SUP: 2
76 -1 557 -1 50 -1 3 -1 #SUP: 2
76 -1 557 -1 65 -1 113 -1 #SUP: 3
76 -1 557 -1 113 -1 3 -1 #SUP: 5
76 -1 557 -1 113 -1 7 -1 #SUP: 2
76 -1 557 -1 113 -1 10 -1 #SUP: 2
76 -1 557 -1 113 -1 16 -1 #SUP: 2
76 -1 557 -1 113 -1 65 -1 #SUP: 2
76 -1 557 -1 113 -1 113 -1 #SUP: 2
76 -1 557 -1 113 -1 141 -1 #SUP: 4
76 -1 557 -1 113 -1 1121 -1 #SUP: 2
76 -1 557 -1 504 -1 113 -1 #SUP: 2
113 -1 2 -1 50 -1 2 -1 #SUP: 2
113 -1 2 -1 113 -1 76 -1 #SUP: 2
113 -1 3 -1 2 -1 113 -1 #SUP: 3
113 -1 3 -1 2 -1 182 -1 #SUP: 2
113 -1 3 -1 3 -1 10 -1 #SUP: 3
113 -1 3 -1 5 -1 2 -1 #SUP: 2
113 -1 3 -1 10 -1 50 -1 #SUP: 2
113 -1 3 -1 10 -1 74 -1 #SUP: 2
113 -1 3 -1 16 -1 3 -1 #SUP: 2
113 -1 3 -1 16 -1 65 -1 #SUP: 2
113 -1 3 -1 16 -1 113 -1 #SUP: 3
113 -1 3 -1 22 -1 3 -1 #SUP: 2
113 -1 3 -1 76 -1 2 -1 #SUP: 2
113 -1 3 -1 76 -1 3 -1 #SUP: 4
113 -1 3 -1 76 -1 113 -1 #SUP: 4
113 -1 3 -1 76 -1 182 -1 #SUP: 2
113 -1 3 -1 76 -1 557 -1 #SUP: 3
113 -1 3 -1 76 -1 602 -1 #SUP: 2
113 -1 3 -1 113 -1 3 -1 #SUP: 4
113 -1 3 -1 113 -1 10 -1 #SUP: 3
113 -1 3 -1 113 -1 65 -1 #SUP: 2
113 -1 3 -1 113 -1 76 -1 #SUP: 2
113 -1 3 -1 113 -1 200 -1 #SUP: 2
113 -1 3 -1 312 -1 2 -1 #SUP: 2
113 -1 3 -1 312 -1 5 -1 #SUP: 2
113 -1 3 -1 557 -1 113 -1 #SUP: 2
113 -1 3 -1 602 -1 3 -1 #SUP: 2
113 -1 3 -1 1075 -1 613 -1 #SUP: 2
113 -1 3 -1 4591 -1 2 -1 #SUP: 2
113 -1 3 -1 4591 -1 113 -1 #SUP: 2
113 -1 5 -1 2 -1 76 -1 #SUP: 2
113 -1 5 -1 2 -1 182 -1 #SUP: 2
113 -1 5 -1 76 -1 557 -1 #SUP: 2
113 -1 7 -1 50 -1 2 -1 #SUP: 2
113 -1 7 -1 66 -1 32 -1 #SUP: 2
113 -1 7 -1 76 -1 557 -1 #SUP: 2
113 -1 7 -1 160 -1 469 -1 #SUP: 3
113 -1 7 -1 672 -1 902 -1 #SUP: 2
113 -1 10 -1 50 -1 151 -1 #SUP: 2
113 -1 10 -1 50 -1 878 -1 #SUP: 3
113 -1 10 -1 50 -1 2810 -1 #SUP: 2
113 -1 10 -1 878 -1 151 -1 #SUP: 2
113 -1 10 -1 878 -1 2810 -1 #SUP: 2
113 -1 10 -1 2810 -1 151 -1 #SUP: 2
113 -1 16 -1 113 -1 65 -1 #SUP: 2
113 -1 22 -1 113 -1 3 -1 #SUP: 2
113 -1 22 -1 113 -1 16 -1 #SUP: 2
113 -1 22 -1 113 -1 76 -1 #SUP: 2
113 -1 22 -1 141 -1 16 -1 #SUP: 2
113 -1 27 -1 41 -1 504 -1 #SUP: 2
113 -1 27 -1 182 -1 504 -1 #SUP: 2
113 -1 32 -1 50 -1 2 -1 #SUP: 2
113 -1 32 -1 76 -1 557 -1 #SUP: 3
113 -1 41 -1 76 -1 113 -1 #SUP: 3
113 -1 50 -1 878 -1 151 -1 #SUP: 2
113 -1 50 -1 878 -1 2810 -1 #SUP: 2
113 -1 50 -1 2810 -1 151 -1 #SUP: 2
113 -1 62 -1 41 -1 76 -1 #SUP: 2
113 -1 65 -1 76 -1 557 -1 #SUP: 2
113 -1 65 -1 113 -1 141 -1 #SUP: 2
113 -1 65 -1 1100 -1 76 -1 #SUP: 2
113 -1 65 -1 1100 -1 557 -1 #SUP: 2
113 -1 66 -1 22 -1 76 -1 #SUP: 3
113 -1 66 -1 76 -1 3 -1 #SUP: 2
113 -1 66 -1 76 -1 557 -1 #SUP: 2
113 -1 76 -1 113 -1 3 -1 #SUP: 3
113 -1 76 -1 113 -1 16 -1 #SUP: 2
113 -1 76 -1 113 -1 64 -1 #SUP: 2
113 -1 76 -1 113 -1 66 -1 #SUP: 2
113 -1 76 -1 113 -1 76 -1 #SUP: 2
113 -1 76 -1 113 -1 141 -1 #SUP: 5
113 -1 76 -1 113 -1 155 -1 #SUP: 2
113 -1 76 -1 113 -1 326 -1 #SUP: 2
113 -1 76 -1 141 -1 16 -1 #SUP: 3
113 -1 76 -1 141 -1 273 -1 #SUP: 2
113 -1 76 -1 141 -1 326 -1 #SUP: 2
113 -1 76 -1 182 -1 3 -1 #SUP: 2
113 -1 76 -1 557 -1 2 -1 #SUP: 2
113 -1 76 -1 557 -1 3 -1 #SUP: 2
113 -1 76 -1 557 -1 50 -1 #SUP: 2
113 -1 76 -1 557 -1 113 -1 #SUP: 5
113 -1 76 -1 557 -1 141 -1 #SUP: 3
113 -1 76 -1 557 -1 182 -1 #SUP: 2
113 -1 76 -1 602 -1 3 -1 #SUP: 2
113 -1 113 -1 3 -1 10 -1 #SUP: 3
113 -1 113 -1 3 -1 16 -1 #SUP: 2
113 -1 113 -1 3 -1 76 -1 #SUP: 3
113 -1 113 -1 7 -1 160 -1 #SUP: 2
113 -1 113 -1 7 -1 469 -1 #SUP: 2
113 -1 113 -1 66 -1 22 -1 #SUP: 2
113 -1 113 -1 66 -1 76 -1 #SUP: 2
113 -1 113 -1 76 -1 113 -1 #SUP: 2
113 -1 113 -1 141 -1 16 -1 #SUP: 3
113 -1 113 -1 141 -1 76 -1 #SUP: 3
113 -1 113 -1 141 -1 113 -1 #SUP: 2
113 -1 113 -1 141 -1 326 -1 #SUP: 2
113 -1 118 -1 557 -1 3 -1 #SUP: 2
113 -1 141 -1 2 -1 113 -1 #SUP: 2
113 -1 141 -1 16 -1 16 -1 #SUP: 2
113 -1 141 -1 65 -1 1100 -1 #SUP: 2
113 -1 141 -1 76 -1 113 -1 #SUP: 3
113 -1 141 -1 76 -1 141 -1 #SUP: 3
113 -1 141 -1 76 -1 273 -1 #SUP: 2
113 -1 141 -1 76 -1 557 -1 #SUP: 2
113 -1 141 -1 113 -1 141 -1 #SUP: 2
113 -1 141 -1 141 -1 273 -1 #SUP: 2
113 -1 141 -1 326 -1 3 -1 #SUP: 2
113 -1 141 -1 388 -1 182 -1 #SUP: 2
113 -1 160 -1 201 -1 2473 -1 #SUP: 2
113 -1 182 -1 3 -1 66 -1 #SUP: 2
113 -1 214 -1 113 -1 3 -1 #SUP: 2
113 -1 242 -1 113 -1 16 -1 #SUP: 2
113 -1 256 -1 76 -1 557 -1 #SUP: 3
113 -1 256 -1 113 -1 141 -1 #SUP: 2
113 -1 256 -1 160 -1 201 -1 #SUP: 2
113 -1 256 -1 160 -1 2473 -1 #SUP: 2
113 -1 256 -1 201 -1 2473 -1 #SUP: 2
113 -1 256 -1 234 -1 76 -1 #SUP: 2
113 -1 256 -1 1583 -1 160 -1 #SUP: 2
113 -1 256 -1 1583 -1 201 -1 #SUP: 2
113 -1 256 -1 1583 -1 2473 -1 #SUP: 2
113 -1 312 -1 5 -1 2 -1 #SUP: 2
113 -1 356 -1 182 -1 256 -1 #SUP: 2
113 -1 406 -1 76 -1 113 -1 #SUP: 2
113 -1 493 -1 10 -1 50 -1 #SUP: 2
113 -1 504 -1 66 -1 22 -1 #SUP: 2
113 -1 504 -1 76 -1 113 -1 #SUP: 2
113 -1 504 -1 113 -1 22 -1 #SUP: 2
113 -1 504 -1 113 -1 66 -1 #SUP: 2
113 -1 557 -1 113 -1 3 -1 #SUP: 2
113 -1 557 -1 113 -1 141 -1 #SUP: 3
113 -1 814 -1 22 -1 76 -1 #SUP: 2
113 -1 878 -1 2810 -1 151 -1 #SUP: 2
113 -1 936 -1 3 -1 113 -1 #SUP: 2
113 -1 1100 -1 76 -1 557 -1 #SUP: 2
113 -1 1583 -1 160 -1 201 -1 #SUP: 2
113 -1 1583 -1 160 -1 2473 -1 #SUP: 2
113 -1 1583 -1 201 -1 2473 -1 #SUP: 2
113 -1 1584 -1 10 -1 2133 -1 #SUP: 2
113 -1 4591 -1 2 -1 113 -1 #SUP: 2
141 -1 7 -1 64 -1 3 -1 #SUP: 2
141 -1 16 -1 113 -1 510 -1 #SUP: 2
141 -1 41 -1 7 -1 3 -1 #SUP: 2
141 -1 41 -1 7 -1 64 -1 #SUP: 2
141 -1 41 -1 64 -1 3 -1 #SUP: 2
141 -1 76 -1 113 -1 141 -1 #SUP: 2
141 -1 76 -1 141 -1 273 -1 #SUP: 2
141 -1 113 -1 76 -1 557 -1 #SUP: 2
151 -1 3 -1 22 -1 165 -1 #SUP: 2
151 -1 76 -1 182 -1 3 -1 #SUP: 2
151 -1 113 -1 3 -1 3 -1 #SUP: 2
151 -1 113 -1 242 -1 113 -1 #SUP: 2
151 -1 503 -1 2 -1 113 -1 #SUP: 2
158 -1 113 -1 113 -1 3 -1 #SUP: 2
182 -1 2 -1 182 -1 3 -1 #SUP: 2
182 -1 3 -1 16 -1 3 -1 #SUP: 2
182 -1 3 -1 16 -1 113 -1 #SUP: 2
182 -1 3 -1 66 -1 388 -1 #SUP: 2
182 -1 3 -1 151 -1 113 -1 #SUP: 2
182 -1 3 -1 163 -1 64 -1 #SUP: 2
182 -1 76 -1 151 -1 3 -1 #SUP: 2
182 -1 113 -1 3 -1 76 -1 #SUP: 2
182 -1 113 -1 76 -1 557 -1 #SUP: 2
182 -1 504 -1 1856 -1 113 -1 #SUP: 2
234 -1 160 -1 201 -1 2473 -1 #SUP: 2
242 -1 3 -1 113 -1 3 -1 #SUP: 2
242 -1 113 -1 3 -1 3 -1 #SUP: 2
242 -1 113 -1 3 -1 16 -1 #SUP: 2
242 -1 113 -1 3 -1 113 -1 #SUP: 2
242 -1 113 -1 113 -1 3 -1 #SUP: 2
244 -1 50 -1 22 -1 201 -1 #SUP: 2
256 -1 76 -1 557 -1 65 -1 #SUP: 2
256 -1 160 -1 201 -1 2473 -1 #SUP: 2
256 -1 234 -1 76 -1 76 -1 #SUP: 2
256 -1 1583 -1 160 -1 201 -1 #SUP: 2
256 -1 1583 -1 160 -1 2473 -1 #SUP: 2
256 -1 1583 -1 201 -1 2473 -1 #SUP: 2
388 -1 182 -1 16 -1 3 -1 #SUP: 2
493 -1 76 -1 3 -1 113 -1 #SUP: 2
504 -1 113 -1 66 -1 22 -1 #SUP: 2
510 -1 113 -1 504 -1 113 -1 #SUP: 2
557 -1 113 -1 3 -1 16 -1 #SUP: 2
557 -1 113 -1 3 -1 22 -1 #SUP: 2
557 -1 113 -1 3 -1 187 -1 #SUP: 2
557 -1 113 -1 646 -1 187 -1 #SUP: 2
878 -1 151 -1 503 -1 2 -1 #SUP: 2
878 -1 2810 -1 151 -1 2 -1 #SUP: 2
878 -1 2810 -1 151 -1 503 -1 #SUP: 2
878 -1 2810 -1 503 -1 2 -1 #SUP: 2
1583 -1 160 -1 201 -1 2473 -1 #SUP: 2
2810 -1 151 -1 503 -1 2 -1 #SUP: 2
4067 -1 32 -1 2 -1 113 -1 #SUP: 2
32356 -1 2 -1 40362 -1 64 -1 #SUP: 2
2 -1 113 -1 76 -1 113 -1 141 -1 #SUP: 2
3 -1 151 -1 76 -1 182 -1 3 -1 #SUP: 2
10 -1 50 -1 151 -1 503 -1 2 -1 #SUP: 2
10 -1 50 -1 878 -1 151 -1 2 -1 #SUP: 2
10 -1 50 -1 878 -1 151 -1 503 -1 #SUP: 2
10 -1 50 -1 878 -1 503 -1 2 -1 #SUP: 2
10 -1 50 -1 878 -1 2810 -1 2 -1 #SUP: 2
10 -1 50 -1 878 -1 2810 -1 151 -1 #SUP: 2
10 -1 50 -1 878 -1 2810 -1 503 -1 #SUP: 2
10 -1 50 -1 2810 -1 151 -1 2 -1 #SUP: 2
10 -1 50 -1 2810 -1 151 -1 503 -1 #SUP: 2
10 -1 50 -1 2810 -1 503 -1 2 -1 #SUP: 2
10 -1 878 -1 151 -1 503 -1 2 -1 #SUP: 2
10 -1 878 -1 2810 -1 151 -1 2 -1 #SUP: 2
10 -1 878 -1 2810 -1 151 -1 503 -1 #SUP: 2
10 -1 878 -1 2810 -1 503 -1 2 -1 #SUP: 2
10 -1 2810 -1 151 -1 503 -1 2 -1 #SUP: 2
27 -1 182 -1 504 -1 1856 -1 113 -1 #SUP: 2
41 -1 3 -1 76 -1 557 -1 113 -1 #SUP: 2
41 -1 76 -1 41 -1 144 -1 113 -1 #SUP: 2
48 -1 9 -1 28 -1 26 -1 113 -1 #SUP: 2
50 -1 878 -1 151 -1 503 -1 2 -1 #SUP: 2
50 -1 878 -1 2810 -1 151 -1 2 -1 #SUP: 2
50 -1 878 -1 2810 -1 151 -1 503 -1 #SUP: 2
50 -1 878 -1 2810 -1 503 -1 2 -1 #SUP: 2
50 -1 2810 -1 151 -1 503 -1 2 -1 #SUP: 2
65 -1 4067 -1 32 -1 2 -1 113 -1 #SUP: 2
66 -1 32 -1 2 -1 182 -1 3 -1 #SUP: 2
76 -1 113 -1 256 -1 113 -1 141 -1 #SUP: 2
113 -1 3 -1 16 -1 113 -1 65 -1 #SUP: 2
113 -1 3 -1 76 -1 602 -1 3 -1 #SUP: 2
113 -1 3 -1 113 -1 3 -1 10 -1 #SUP: 3
113 -1 3 -1 312 -1 5 -1 2 -1 #SUP: 2
113 -1 3 -1 4591 -1 2 -1 113 -1 #SUP: 2
113 -1 10 -1 50 -1 878 -1 151 -1 #SUP: 2
113 -1 10 -1 50 -1 878 -1 2810 -1 #SUP: 2
113 -1 10 -1 50 -1 2810 -1 151 -1 #SUP: 2
113 -1 10 -1 878 -1 2810 -1 151 -1 #SUP: 2
113 -1 50 -1 878 -1 2810 -1 151 -1 #SUP: 2
113 -1 65 -1 1100 -1 76 -1 557 -1 #SUP: 2
113 -1 76 -1 113 -1 141 -1 16 -1 #SUP: 2
113 -1 76 -1 113 -1 141 -1 326 -1 #SUP: 2
113 -1 76 -1 557 -1 113 -1 141 -1 #SUP: 3
113 -1 113 -1 141 -1 76 -1 113 -1 #SUP: 2
113 -1 141 -1 76 -1 113 -1 141 -1 #SUP: 2
113 -1 141 -1 76 -1 141 -1 273 -1 #SUP: 2
113 -1 256 -1 160 -1 201 -1 2473 -1 #SUP: 2
113 -1 256 -1 1583 -1 160 -1 201 -1 #SUP: 2
113 -1 256 -1 1583 -1 160 -1 2473 -1 #SUP: 2
113 -1 256 -1 1583 -1 201 -1 2473 -1 #SUP: 2
113 -1 504 -1 113 -1 66 -1 22 -1 #SUP: 2
113 -1 1583 -1 160 -1 201 -1 2473 -1 #SUP: 2
141 -1 41 -1 7 -1 64 -1 3 -1 #SUP: 2
242 -1 113 -1 3 -1 113 -1 3 -1 #SUP: 2
256 -1 1583 -1 160 -1 201 -1 2473 -1 #SUP: 2
878 -1 2810 -1 151 -1 503 -1 2 -1 #SUP: 2
10 -1 50 -1 878 -1 151 -1 503 -1 2 -1 #SUP: 2
10 -1 50 -1 878 -1 2810 -1 151 -1 2 -1 #SUP: 2
10 -1 50 -1 878 -1 2810 -1 151 -1 503 -1 #SUP: 2
10 -1 50 -1 878 -1 2810 -1 503 -1 2 -1 #SUP: 2
10 -1 50 -1 2810 -1 151 -1 503 -1 2 -1 #SUP: 2
10 -1 878 -1 2810 -1 151 -1 503 -1 2 -1 #SUP: 2
50 -1 878 -1 2810 -1 151 -1 503 -1 2 -1 #SUP: 2
113 -1 10 -1 50 -1 878 -1 2810 -1 151 -1 #SUP: 2
113 -1 256 -1 1583 -1 160 -1 201 -1 2473 -1 #SUP: 2
10 -1 50 -1 878 -1 2810 -1 151 -1 503 -1 2 -1 #SUP: 2
