747 -1 41 -1 406 -1 364 -1 9753 -1 271 -2
113 -1 586 -1 182 -1 50199 -1 30 -2
1681 -1 2692 -1 30 -2
50201 -1 669 -1 465 -1 1115 -1 32 -1 207 -1 50200 -1 65 -1 614 -1 17 -1 32 -1 50202 -1 2 -1 1115 -1 3 -1 16 -1 419 -1 64 -1 7486 -1 65 -1 48243 -1 3828 -1 381 -1 30 -2
465 -1 1115 -1 32 -1 207 -1 50200 -1 141 -1 361 -1 200 -1 41122 -1 22 -1 30 -2
151 -1 2050 -1 3 -1 871 -1 76 -1 497 -1 182 -1 3 -1 10 -1 527 -1 394 -1 1047 -1 30 -2
11104 -1 3125 -1 8085 -1 50203 -1 30 -2
77 -1 31 -1 113 -1 76 -1 342 -1 65 -1 11104 -1 7561 -1 76 -1 54 -1 3 -1 149 -1 3 -1 16 -1 30 -2
113 -1 194 -1 76 -1 494 -1 64 -1 22 -1 174 -1 1006 -1 32 -1 30 -2
32 -1 765 -1 182 -1 3 -1 30 -2
195 -1 504 -1 69 -1 932 -1 7017 -1 224 -1 165 -1 208 -1 1535 -1 65 -1 1966 -1 115 -1 214 -1 30 -2
113 -1 2548 -1 4417 -1 151 -1 1053 -1 65 -1 25632 -1 2379 -1 7 -1 64 -1 3 -1 808 -1 9798 -1 76 -1 163 -1 160 -1 431 -1 2 -1 813 -1 30 -2
469 -1 149 -1 702 -1 7 -1 64 -1 3 -1 8886 -1 30 -2
155 -1 65 -1 7022 -1 3 -1 340 -1 1099 -1 64 -1 65 -1 1273 -1 30 -2
1472 -1 41 -1 62 -1 66 -1 22 -1 431 -1 702 -1 504 -1 76 -1 41 -1 118 -1 936 -1 65 -1 1171 -1 658 -1 32 -1 182 -1 30 -2
113 -1 1225 -1 160 -1 29805 -1 30 -2
158 -1 41 -1 256 -1 943 -1 32 -1 151 -1 773 -1 151 -1 1224 -1 7 -1 64 -1 340 -1 41 -1 13 -1 256 -1 364 -1 652 -1 30 -2
1040 -1 76 -1 113 -1 403 -1 151 -1 81 -1 64 -1 510 -1 46 -1 115 -1 2021 -1 710 -1 1369 -1 182 -1 30 -2
31 -1 30 -2
195 -1 639 -1 3687 -1 224 -1 113 -1 3 -1 41 -1 76 -1 41 -1 520 -1 340 -1 312 -1 3687 -1 545 -1 64 -1 113 -1 30 -2
224 -1 361 -1 7 -1 231 -1 3097 -1 160 -1 189 -1 41 -1 118 -1 340 -1 76 -1 141 -1 41 -1 2945 -1 149 -1 2626 -1 131 -1 30 -2
494 -1 64 -1 490 -1 216 -1 268 -1 3 -1 15 -1 147 -1 64 -1 30 -2
195 -1 356 -1 967 -1 262 -1 1741 -1 28531 -1 30 -2
497 -1 113 -1 118 -1 194 -1 41 -1 208 -1 510 -1 65 -1 1030 -1 691 -1 599 -1 297 -1 76 -1 182 -1 1016 -1 33 -1 27 -1 165 -1 156 -1 64 -1 358 -1 169 -1 30 -2
3376 -1 76 -1 113 -1 3 -1 340 -1 76 -1 937 -1 29 -1 1203 -1 1 -2
798 -1 904 -1 273 -1 65 -1 18717 -1 783 -1 692 -1 30 -2
256 -1 41 -1 250 -1 30 -2
182 -1 3 -1 76 -1 234 -1 113 -1 118 -1 248 -1 326 -1 76 -1 200 -1 814 -1 182 -1 76 -1 41 -1 2050 -1 3 -1 50204 -1 30 -2
113 -1 403 -1 182 -1 932 -1 438 -1 64 -1 814 -1 483 -1 182 -1 256 -1 113 -1 36679 -1 31 -1 65 -1 620 -1 375 -1 30 -2
375 -1 256 -1 65 -1 604 -1 216 -1 46 -1 2 -1 158 -1 417 -1 4150 -1 187 -1 182 -1 3 -1 76 -1 237 -1 30 -1 1413 -1 712 -1 271 -2
417 -1 974 -1 312 -1 7248 -1 1977 -1 32 -1 339 -1 30 -2
238 -1 30 -1 406 -1 13883 -1 76 -1 242 -1 417 -1 501 -1 7199 -1 64 -1 155 -1 406 -1 364 -1 2144 -1 76 -1 484 -1 190 -1 3 -1 30 -2
113 -1 598 -1 636 -1 22 -1 48 -1 76 -1 182 -1 692 -1 30 -2
5966 -1 30 -2
354 -1 951 -1 30 -2
1388 -1 3 -1 652 -1 30 -2
2302 -1 634 -1 212 -1 76 -1 2 -1 224 -1 16 -1 76 -1 417 -1 463 -1 64 -1 1535 -1 22 -1 50205 -1 242 -1 32 -1 17738 -1 1952 -1 64 -1 1800 -1 30 -2
113 -1 3 -1 1099 -1 278 -1 796 -1 32 -1 385 -1 76 -1 113 -1 118 -1 1618 -1 22 -1 30 -2
41 -1 141 -1 403 -1 113 -1 8886 -1 598 -1 41 -1 1 -2
149 -1 141 -1 50 -1 30974 -1 379 -1 113 -1 1 -1 271 -2
151 -1 213 -1 7 -1 22 -1 699 -1 64 -1 445 -1 10 -1 635 -1 383 -1 32 -1 1637 -1 1089 -1 510 -1 131 -1 296 -1 30 -2
675 -1 200 -1 5093 -1 30 -2
1388 -1 3 -1 1036 -1 1388 -1 3 -1 200 -1 379 -1 1448 -1 76 -1 417 -1 256 -1 1741 -1 1760 -1 30 -2
424 -1 686 -1 113 -1 571 -1 41 -1 271 -2
113 -1 571 -1 2402 -1 30 -2
317 -1 2079 -1 6795 -1 16 -1 2877 -1 30 -2
64 -1 3 -1 2227 -1 76 -1 236 -1 16 -1 221 -1 576 -1 30 -2
469 -1 504 -1 417 -1 699 -1 64 -1 1003 -1 149 -1 304 -1 3643 -1 30 -2
316 -1 29740 -1 76 -1 644 -1 304 -1 4525 -1 76 -1 474 -1 150 -1 3 -1 20476 -1 10 -1 65 -1 1705 -1 7944 -1 30 -2
182 -1 194 -1 13554 -1 3 -1 22 -1 30 -2
77 -1 211 -1 76 -1 13554 -1 3 -1 22 -1 1157 -1 30 -2
27 -1 3 -1 1975 -1 3103 -1 1498 -1 41 -1 447 -1 1382 -1 65 -1 24711 -1 377 -1 1307 -1 375 -1 16 -1 81 -1 22 -1 9728 -1 1493 -1 76 -1 2222 -1 30 -2
50206 -1 30 -2
113 -1 118 -1 326 -1 30 -2
113 -1 1678 -1 296 -1 179 -1 76 -1 1082 -1 3 -1 463 -1 64 -1 1198 -1 64 -1 113 -1 1307 -1 30 -2
113 -1 2050 -1 81 -1 182 -1 10 -1 22 -1 1703 -1 30 -2
15 -1 213 -1 3 -1 64 -1 3600 -1 76 -1 80 -1 64 -1 4870 -1 160 -1 520 -1 30 -2
847 -1 3 -1 65 -1 6124 -1 776 -1 50207 -1 771 -1 30 -2
69 -1 65 -1 2049 -1 32 -1 4548 -1 30 -2
1472 -1 50 -1 50209 -1 2050 -1 3 -1 65 -1 6899 -1 64 -1 50208 -1 30 -2
113 -1 826 -1 151 -1 10 -1 22 -1 1205 -1 32 -1 22 -1 3185 -1 5283 -1 50210 -1 30 -2
771 -1 76 -1 31 -1 342 -1 312 -1 7102 -1 4157 -1 12062 -1 77 -1 234 -1 30 -2
557 -1 151 -1 3 -1 76 -1 2548 -1 76 -1 165 -1 32 -1 22 -1 637 -1 838 -1 32 -1 11416 -1 271 -2
141 -1 361 -1 798 -1 254 -1 50211 -1 1 -2
1260 -1 3 -1 1243 -1 30 -2
113 -1 3 -1 65 -1 406 -1 2151 -1 23307 -1 30 -2
471 -1 271 -2
937 -1 1433 -1 160 -1 41 -1 1 -1 271 -2
866 -1 2232 -1 30 -2
200 -1 2014 -1 187 -1 141 -1 3959 -1 1104 -1 99 -1 76 -1 200 -1 463 -1 64 -1 374 -1 76 -1 41 -1 14764 -1 208 -1 2439 -1 4223 -1 8277 -1 160 -1 2741 -1 30 -2
113 -1 144 -1 154 -1 1559 -1 22 -1 1703 -1 76 -1 200 -1 1089 -1 692 -1 31 -1 113 -1 30 -2
548 -1 30 -2
368 -1 30 -2
113 -1 711 -1 155 -1 250 -1 165 -1 30 -2
242 -1 158 -1 41 -1 155 -1 22 -1 1163 -1 32 -1 4632 -1 24591 -1 41 -1 161 -1 699 -1 64 -1 3860 -1 686 -1 190 -1 3 -1 16 -1 65 -1 137 -1 714 -1 351 -1 1003 -1 502 -1 776 -1 32 -1 22 -1 2463 -1 30 -2
31 -1 414 -1 1128 -1 30 -2
151 -1 1216 -1 375 -1 256 -1 312 -1 339 -1 30 -2
615 -1 30 -2
484 -1 41 -1 326 -1 10059 -1 30 -2
548 -1 356 -1 182 -1 244 -1 151 -1 1399 -1 3069 -1 1163 -1 30 -2
27 -1 224 -1 151 -1 3069 -1 76 -1 1323 -1 32 -1 9563 -1 417 -1 76 -1 141 -1 659 -1 417 -1 30 -2
484 -1 342 -1 16 -1 81 -1 64 -1 3860 -1 113 -1 194 -1 557 -1 30 -2
22 -1 66 -1 37885 -1 1128 -1 1003 -1 22 -1 207 -1 2 -1 417 -1 3 -1 10400 -1 11833 -1 30 -2
424 -1 273 -1 113 -1 308 -1 182 -1 30 -2
195 -1 833 -1 6405 -1 47 -1 293 -1 1070 -1 76 -1 2 -1 2549 -1 182 -1 64 -1 47 -1 878 -1 158 -1 469 -1 3 -1 144 -1 65 -1 5775 -1 30 -2
273 -1 141 -1 41 -1 340 -1 3808 -1 1 -2
2 -1 100 -1 76 -1 2548 -1 271 -2
3 -1 2635 -1 30 -2
702 -1 243 -1 41 -1 76 -1 224 -1 41 -1 598 -1 50212 -1 22 -1 3301 -1 115 -1 121 -1 30 -2
22 -1 33498 -1 847 -1 30 -2
113 -1 14797 -1 13554 -1 30 -2
976 -1 76 -1 406 -1 976 -1 30 -2
342 -1 463 -1 64 -1 2074 -1 65 -1 2229 -1 849 -1 502 -1 76 -1 64 -1 308 -1 27 -1 692 -1 31 -1 113 -1 30 -2
234 -1 76 -1 747 -1 41 -1 406 -1 364 -1 271 -2
2 -1 873 -1 76 -1 242 -1 41 -1 643 -1 340 -1 151 -1 2293 -1 518 -1 3376 -1 271 -2
273 -1 141 -1 41 -1 194 -1 41 -1 161 -1 786 -1 226 -1 250 -1 363 -1 32 -1 13 -1 1 -2
272 -1 41 -1 3 -1 2546 -1 160 -1 7 -1 527 -1 2825 -1 74 -1 1 -2
272 -1 41 -1 3 -1 2546 -1 326 -1 151 -1 67 -1 576 -1 74 -1 162 -1 798 -1 7 -1 587 -1 165 -1 30 -2
527 -1 607 -1 271 -2
113 -1 340 -1 358 -1 278 -1 250 -1 25632 -1 1181 -1 32 -1 3163 -1 30 -2
31 -1 967 -1 3 -1 264 -1 791 -1 76 -1 41 -1 699 -1 64 -1 1003 -1 264 -1 400 -1 76 -1 2 -1 151 -1 249 -1 65 -1 288 -1 400 -1 2297 -1 64 -1 692 -1 10 -1 250 -1 30 -2
113 -1 185 -1 271 -2
113 -1 308 -1 65 -1 406 -1 3426 -1 2372 -1 50213 -1 483 -1 27 -1 2234 -1 1 -2
342 -1 972 -1 3156 -1 758 -1 463 -1 271 -2
1224 -1 3570 -1 154 -1 571 -1 137 -1 81 -1 64 -1 510 -1 182 -1 49 -1 3210 -1 30 -2
424 -1 16 -1 571 -1 424 -1 11140 -1 30 -2
50214 -1 76 -1 342 -1 1975 -1 2756 -1 76 -1 113 -1 3535 -1 361 -1 11673 -1 826 -1 76 -1 41 -1 511 -1 141 -1 296 -1 1 -2
484 -1 113 -1 3 -1 904 -1 278 -1 22 -1 1181 -1 76 -1 141 -1 41 -1 4725 -1 182 -1 66 -1 187 -1 149 -1 200 -1 401 -1 826 -1 1 -2
273 -1 278 -1 3163 -1 418 -1 141 -1 41 -1 256 -1 182 -1 244 -1 1 -1 30 -2
15977 -1 15979 -1 3376 -1 151 -1 3 -1 50 -1 50215 -1 77 -1 234 -1 76 -1 81 -1 64 -1 256 -1 702 -1 2432 -1 35419 -1 220 -1 1307 -1 30 -2
113 -1 872 -1 639 -1 29 -1 2561 -1 76 -1 194 -1 41 -1 2050 -1 3 -1 1098 -1 483 -1 879 -1 32 -1 16003 -1 1328 -1 22 -1 15977 -1 15979 -1 712 -1 271 -2
50 -1 163 -1 46 -1 76 -1 312 -1 48 -1 76 -1 256 -1 65 -1 1664 -1 415 -1 30 -2
113 -1 4554 -1 4223 -1 154 -1 417 -1 3 -1 2535 -1 46 -1 76 -1 557 -1 41 -1 208 -1 659 -1 151 -1 113 -1 216 -1 3 -1 15 -1 32 -1 22 -1 75 -1 2262 -1 66 -1 32 -1 22 -1 1833 -1 30 -2
31 -1 305 -1 30 -2
41 -1 3 -1 25632 -1 76 -1 747 -1 41 -1 30 -2
113 -1 3 -1 904 -1 30 -2
27 -1 2654 -1 3 -1 190 -1 691 -1 48 -1 2 -1 1664 -1 30 -2
641 -1 64 -1 3 -1 932 -1 65 -1 15742 -1 30 -2
50216 -1 3 -1 2226 -1 164 -1 30 -2
113 -1 571 -1 6584 -1 352 -1 81 -1 64 -1 1003 -1 65 -1 288 -1 400 -1 5849 -1 32 -1 1315 -1 30 -2
438 -1 54 -1 3 -1 113 -1 510 -1 151 -1 154 -1 30 -2
557 -1 113 -1 403 -1 151 -1 65 -1 1100 -1 32 -1 50 -1 422 -1 278 -1 13 -1 3320 -1 3 -1 932 -1 10 -1 753 -1 160 -1 13554 -1 30 -2
1817 -1 22 -1 3 -1 29 -1 304 -1 4525 -1 247 -1 76 -1 113 -1 1322 -1 151 -1 406 -1 364 -1 30 -2
113 -1 194 -1 182 -1 30 -2
66 -1 871 -1 30 -2
342 -1 312 -1 216 -1 2 -1 113 -1 7 -1 312 -1 216 -1 46 -1 2 -1 702 -1 636 -1 113 -1 67 -1 614 -1 1122 -1 32 -1 1098 -1 13 -1 76 -1 242 -1 702 -1 326 -1 113 -1 555 -1 554 -1 485 -1 702 -1 30 -2
342 -1 932 -1 1075 -1 342 -1 22 -1 15 -1 736 -1 348 -1 33 -1 4280 -1 76 -1 30 -2
3673 -1 3 -1 407 -1 76 -1 5247 -1 30 -2
10375 -1 76 -1 649 -1 76 -1 3 -1 340 -1 967 -1 30 -2
16 -1 64 -1 3 -1 936 -1 30 -2