9 -1 14721 -1 125232 -1 125233 -1 499 -1 814 -1 29 -1 52 -1 5074 -1 76 -1 113 -1 1615 -1 64 -1 1225 -1 160 -1 4714 -1 1879 -1 30 -2
113 -1 208 -1 308 -1 22 -1 488 -1 529 -1 10 -1 29 -1 807 -1 30 -2
495 -1 1103 -1 2 -1 488 -1 487 -1 641 -1 1853 -1 3237 -1 30 -2
9 -1 18432 -1 6131 -1 125234 -1 73381 -1 32 -1 34276 -1 31 -1 213 -1 352 -1 7 -1 282 -1 3684 -1 64 -1 504 -1 30 -2
151 -1 3732 -1 141 -1 16 -1 520 -1 340 -1 529 -1 115 -1 66 -1 30 -2
113 -1 141 -1 16 -1 308 -1 686 -1 997 -1 3 -1 312 -1 4215 -1 1498 -1 529 -1 141 -1 16 -1 641 -1 64 -1 3 -1 1603 -1 160 -1 41 -1 30 -2
27 -1 3 -1 29 -1 2430 -1 1309 -1 2094 -1 1 -2
27 -1 141 -1 41 -1 16623 -1 31 -1 10 -1 13 -1 1 -1 30 -2
151 -1 1042 -1 836 -1 2902 -1 187 -1 997 -1 30 -2
50 -1 46 -1 997 -1 3 -1 2262 -1 64 -1 4500 -1 2799 -1 30 -2
469 -1 1842 -1 54 -1 154 -1 2651 -1 230 -1 30 -2
340 -1 76 -1 469 -1 230 -1 802 -1 22 -1 163 -1 394 -1 64 -1 1397 -1 264 -1 30 -2
469 -1 141 -1 16 -1 326 -1 686 -1 47 -1 30 -2
1461 -1 229 -1 35711 -1 125235 -1 17542 -1 1 -2
182 -1 641 -1 2902 -1 151 -1 236 -1 1038 -1 113 -1 5940 -1 601 -1 22 -1 1645 -1 76 -1 557 -1 29 -1 854 -1 656 -1 372 -1 510 -1 113 -1 194 -1 32 -1 1603 -1 529 -1 30 -2
722 -1 30 -1 22 -1 868 -1 151 -1 41 -1 1678 -1 308 -1 273 -1 5167 -1 182 -1 29215 -1 268 -1 200 -1 1562 -1 50 -1 783 -1 30 -2
113 -1 81 -1 64 -1 1621 -1 50 -1 1203 -1 32 -1 1186 -1 10 -1 1079 -1 52 -1 30 -2
593 -1 76 -1 248 -1 1 -2
2648 -1 76 -1 636 -1 113 -1 27 -1 3 -1 22 -1 394 -1 151 -1 469 -1 3 -1 30 -2
113 -1 124 -1 76 -1 113 -1 141 -1 16 -1 936 -1 27 -1 41 -1 124 -1 64 -1 504 -1 30 -2
66047 -1 141 -1 16 -1 256 -1 27 -1 41 -1 504 -1 30 -2
4173 -1 30 -2
340 -1 224 -1 41 -1 504 -1 2079 -1 557 -1 113 -1 936 -1 5798 -1 41 -1 326 -1 1 -2
4755 -1 686 -1 41 -1 2866 -1 76 -1 8845 -1 1 -2
50 -1 616 -1 76 -1 182 -1 641 -1 340 -1 113 -1 141 -1 16 -1 936 -1 29 -1 1200 -1 1203 -1 30 -2
113 -1 141 -1 16 -1 326 -1 224 -1 168 -1 422 -1 1068 -1 64 -1 1139 -1 7 -1 798 -1 3 -1 3860 -1 30 -2
113 -1 1734 -1 814 -1 264 -1 278 -1 151 -1 30 -2
113 -1 2050 -1 3 -1 1433 -1 33 -1 151 -1 165 -1 76 -1 557 -1 113 -1 194 -1 81580 -1 125236 -1 9776 -1 7 -1 3 -1 999 -1 64 -1 30 -2
113 -1 786 -1 22 -1 129 -1 30 -2
375 -1 326 -1 50 -1 415 -1 31 -1 804 -1 385 -1 30 -2
31 -1 547 -1 385 -1 76 -1 702 -1 194 -1 113 -1 3 -1 406 -1 16927 -1 17871 -1 689 -1 113 -1 401 -1 50 -1 2430 -1 30 -2
179 -1 76 -1 702 -1 2295 -1 342 -1 406 -1 6273 -1 30 -2
69 -1 200 -1 16 -1 30 -2
182 -1 141 -1 16 -1 2049 -1 10 -1 273 -1 266 -1 2636 -1 41 -1 3235 -1 22 -1 831 -1 2754 -1 30 -2
3235 -1 22 -1 2754 -1 10 -1 238 -1 2636 -1 272 -1 1483 -1 148 -1 11604 -1 150 -1 3235 -1 182 -1 10 -1 50188 -1 2636 -1 30 -2
11604 -1 10 -1 1448 -1 2 -1 30 -2
113 -1 256 -1 282 -1 2310 -1 827 -1 2 -1 113 -1 161 -1 16 -1 783 -1 3 -1 153 -1 77 -1 1053 -1 30 -2
506 -1 76 -1 847 -1 3 -1 27 -1 113 -1 194 -1 3 -1 438 -1 190 -1 3 -1 7875 -1 970 -1 64 -1 153 -1 189 -1 30 -2
182 -1 155 -1 266 -1 1287 -1 64 -1 3672 -1 30 -2
937 -1 29 -1 1203 -1 1 -2
113 -1 141 -1 16 -1 326 -1 27 -1 153 -1 1060 -1 3 -1 30 -2
342 -1 16 -1 2993 -1 262 -1 151 -1 30 -2
469 -1 2050 -1 3 -1 1668 -1 31 -1 66 -1 113 -1 326 -1 30 -2
50 -1 1203 -1 3 -1 504 -1 469 -1 3 -1 148 -1 147 -1 312 -1 827 -1 242 -1 469 -1 3 -1 1169 -1 1640 -1 351 -1 811 -1 586 -1 182 -1 77 -1 41 -1 30 -2
509 -1 113 -1 786 -1 340 -1 342 -1 2063 -1 3750 -1 30 -2
3 -1 41 -1 511 -1 2232 -1 113 -1 1 -2
4072 -1 76 -1 41 -1 3 -1 18053 -1 717 -1 76 -1 41 -1 993 -1 3 -1 312 -1 827 -1 3318 -1 76 -1 190 -1 3 -1 400 -1 251 -1 52 -1 137 -1 1509 -1 156 -1 64 -1 256 -1 30 -2
123 -1 654 -1 1169 -1 1640 -1 148 -1 1890 -1 76 -1 149 -1 1169 -1 1640 -1 148 -1 75511 -1 76 -1 149 -1 1169 -1 1640 -1 31 -1 791 -1 287 -1 30 -2
557 -1 153 -1 189 -1 3126 -1 33 -1 151 -1 3 -1 2913 -1 30 -2
6571 -1 76 -1 351 -1 811 -1 2 -1 1169 -1 22989 -1 3 -1 16 -1 22 -1 2518 -1 32 -1 654 -1 30 -2
168 -1 153 -1 208 -1 141 -1 151 -1 30 -2
22 -1 6297 -1 76 -1 250 -1 3612 -1 224 -1 3692 -1 160 -1 213 -1 1169 -1 1640 -1 305 -1 153 -1 30 -2
1083 -1 424 -1 22 -1 616 -1 772 -1 32 -1 4245 -1 375 -1 308 -1 10 -1 250 -1 79210 -1 375 -1 308 -1 65 -1 1100 -1 30 -2
3 -1 182 -1 2726 -1 64 -1 3 -1 65 -1 1730 -1 1 -2
638 -1 11 -1 966 -1 30 -2
200 -1 4134 -1 686 -1 1 -2
312 -1 732 -1 1367 -1 1163 -1 3 -1 22735 -1 30 -2
149 -1 30 -2
123 -1 1060 -1 268 -1 125237 -1 1359 -1 73884 -1 1670 -1 3 -1 2202 -1 469 -1 2 -1 424 -1 686 -1 393 -1 1099 -1 278 -1 182 -1 30 -2
123 -1 224 -1 41 -1 161 -1 7 -1 1193 -1 469 -1 30 -2
244 -1 11 -1 64 -1 216 -1 30 -2
3 -1 41 -1 148 -1 32 -1 312 -1 1038 -1 149 -1 312 -1 580 -1 1 -2
250 -1 1042 -1 836 -1 7395 -1 22 -1 125238 -1 1 -2
113 -1 571 -1 125239 -1 135 -1 1198 -1 64 -1 2758 -1 372 -1 30 -2
113 -1 786 -1 340 -1 182 -1 6670 -1 50 -1 1436 -1 2 -1 182 -1 510 -1 50 -1 783 -1 680 -1 3785 -1 30 -2
113 -1 141 -1 16 -1 7 -1 65 -1 1014 -1 4886 -1 50517 -1 113 -1 7 -1 65 -1 1014 -1 454 -1 1913 -1 30 -2
113 -1 256 -1 50 -1 30 -2
248 -1 1 -2
208 -1 41 -1 6009 -1 357 -1 69294 -1 2 -1 2648 -1 1 -2
242 -1 236 -1 11 -1 76 -1 342 -1 1075 -1 236 -1 3129 -1 32 -1 707 -1 65 -1 3322 -1 1174 -1 422 -1 30 -2
2648 -1 76 -1 961 -1 271 -2
125240 -1 342 -1 1589 -1 41 -1 271 -2
7668 -1 155 -1 490 -1 160 -1 1103 -1 149 -1 1062 -1 160 -1 488 -1 463 -1 2310 -1 22 -1 1115 -1 32 -1 1139 -1 30 -2
2219 -1 3 -1 76 -1 236 -1 200 -1 2904 -1 278 -1 22 -1 1632 -1 30 -2
138 -1 143 -1 3764 -1 3 -1 221 -1 616 -1 150 -1 22 -1 690 -1 1588 -1 30 -2
342 -1 10041 -1 2777 -1 1 -2
1060 -1 3 -1 280 -1 1038 -1 1060 -1 76 -1 250 -1 272 -1 613 -1 273 -1 992 -1 643 -1 1230 -1 305 -1 2117 -1 1711 -1 699 -1 29 -1 1596 -1 143 -1 641 -1 64 -1 3 -1 65 -1 1406 -1 165 -1 30 -2
495 -1 641 -1 22 -1 163 -1 3535 -1 30 -2
48 -1 76 -1 30 -2
4101 -1 1 -2
41 -1 208 -1 403 -1 131 -1 115 -1 22 -1 129 -1 620 -1 77 -1 11 -1 2716 -1 30 -2
113 -1 141 -1 16 -1 936 -1 405 -1 1210 -1 30 -2
11724 -1 32 -1 2754 -1 161 -1 3 -1 510 -1 154 -1 32 -1 125241 -1 32 -1 2716 -1 2 -1 12014 -1 32 -1 604 -1 30 -2
113 -1 141 -1 16 -1 256 -1 182 -1 1 -2
3 -1 16 -1 22 -1 24432 -1 32 -1 604 -1 11 -1 264 -1 340 -1 237 -1 2 -1 11 -1 24432 -1 3 -1 340 -1 238 -1 307 -1 1 -2
502 -1 76 -1 69 -1 16 -1 151 -1 148 -1 7329 -1 150 -1 2716 -1 11 -1 30 -2
1169 -1 76 -1 237 -1 3 -1 16 -1 151 -1 7329 -1 30 -2
182 -1 641 -1 340 -1 182 -1 7 -1 30 -2
745 -1 182 -1 613 -1 271 -2
113 -1 141 -1 16 -1 248 -1 7 -1 201 -1 1765 -1 30 -2
229 -1 6708 -1 3 -1 165 -1 32 -1 22 -1 163 -1 617 -1 810 -1 375 -1 139 -1 2683 -1 30 -2
11 -1 6549 -1 827 -1 16574 -1 2379 -1 1174 -1 1050 -1 67328 -1 30 -2
125242 -1 64 -1 3698 -1 65 -1 467 -1 2 -1 14957 -1 1380 -1 160 -1 72 -1 237 -1 269 -1 3 -1 65 -1 163 -1 394 -1 64 -1 256 -1 2904 -1 30 -2
189 -1 352 -1 8031 -1 47 -1 13 -1 64 -1 475 -1 470 -1 340 -1 65 -1 1764 -1 10 -1 312 -1 5600 -1 76 -1 3 -1 469 -1 1036 -1 1910 -1 30 -2
182 -1 520 -1 148 -1 340 -1 827 -1 150 -1 11 -1 30 -2
11 -1 3 -1 9866 -1 1603 -1 214 -1 2 -1 3 -1 16 -1 2133 -1 8217 -1 30 -2
141 -1 41 -1 1554 -1 717 -1 56243 -1 4540 -1 149 -1 148 -1 2133 -1 8217 -1 1 -2
69 -1 80 -1 30 -2
1083 -1 76 -1 1603 -1 52 -1 30 -2
113 -1 248 -1 340 -1 273 -1 3322 -1 29 -1 1163 -1 3 -1 271 -2
1060 -1 76 -1 27 -1 3 -1 29 -1 4356 -1 1 -2
273 -1 6273 -1 2 -1 46394 -1 3 -1 41 -1 10 -1 29 -1 692 -1 1262 -1 1 -2
113 -1 194 -1 69 -1 65 -1 163 -1 394 -1 64 -1 30 -2
113 -1 936 -1 29 -1 5143 -1 64 -1 8860 -1 405 -1 238 -1 153 -1 30 -2
530 -1 3 -1 406 -1 1068 -1 33 -1 22 -1 7787 -1 30 -2
305 -1 1596 -1 143 -1 3 -1 312 -1 199 -1 1406 -1 165 -1 495 -1 1375 -1 492 -1 2 -1 131 -1 530 -1 417 -1 1103 -1 64 -1 3332 -1 160 -1 30 -2
244 -1 27 -1 375 -1 125243 -1 3 -1 238 -1 54 -1 151 -1 641 -1 2902 -1 64 -1 113 -1 529 -1 3 -1 1031 -1 2531 -1 149 -1 8220 -1 1062 -1 490 -1 3 -1 2000 -1 143 -1 160 -1 250 -1 5705 -1 76 -1 2 -1 41 -1 504 -1 151 -1 236 -1 312 -1 1038 -1 76 -1 22 -1 1623 -1 30 -2
2464 -1 1 -2
57548 -1 76 -1 113 -1 7 -1 16 -1 814 -1 66 -1 32 -1 182 -1 30 -2
892 -1 76 -1 69 -1 80 -1 64 -1 1726 -1 125244 -1 32 -1 2903 -1 244 -1 250 -1 30 -2
1017 -1 54 -1 3 -1 9072 -1 154 -1 30 -2
502 -1 76 -1 3 -1 41 -1 148 -1 32 -1 312 -1 1038 -1 149 -1 312 -1 580 -1 1 -2
250 -1 836 -1 3 -1 30 -2
593 -1 615 -1 271 -2
2 -1 27 -1 510 -1 41 -1 504 -1 484 -1 1 -2
69 -1 933 -1 64 -1 504 -1 236 -1 16 -1 1665 -1 2 -1 585 -1 2513 -1 10 -1 250 -1 52 -1 76 -1 162 -1 617 -1 717 -1 77 -1 932 -1 312 -1 64310 -1 47562 -1 141 -1 16 -1 194 -1 827 -1 1856 -1 250 -1 807 -1 30 -2
113 -1 194 -1 1600 -1 161 -1 3 -1 29 -1 2531 -1 149 -1 8220 -1 30 -2
223 -1 186 -1 271 -2
113 -1 3692 -1 65 -1 7875 -1 2 -1 113 -1 904 -1 27 -1 153 -1 141 -1 182 -1 510 -1 113 -1 506 -1 340 -1 1 -2
113 -1 8468 -1 691 -1 11 -1 76 -1 827 -1 2 -1 1665 -1 30 -2
747 -1 31 -1 29 -1 613 -1 511 -1 271 -2
237 -1 27 -1 2892 -1 32 -1 29 -1 30 -2
712 -1 52 -1 26634 -1 271 -2
41 -1 200 -1 617 -1 22 -1 2654 -1 691 -1 113 -1 11 -1 2 -1 50 -1 415 -1 1665 -1 3782 -1 509 -1 271 -2
138 -1 143 -1 1631 -1 29 -1 153 -1 30 -2
138 -1 143 -1 3 -1 22 -1 1534 -1 76 -1 22 -1 16892 -1 2081 -1 151 -1 44589 -1 65 -1 16164 -1 153 -1 30 -2
244 -1 65 -1 16164 -1 153 -1 76 -1 41 -1 208 -1 324 -1 16164 -1 637 -1 30 -2
992 -1 360 -1 30 -2
1665 -1 76 -1 256 -1 576 -1 64 -1 644 -1 804 -1 385 -1 838 -1 271 -2
72752 -1 81 -1 64 -1 2411 -1 7245 -1 268 -1 153 -1 3 -1 16 -1 652 -1 30 -2
1328 -1 1725 -1 3 -1 148 -1 2878 -1 150 -1 2327 -1 1795 -1 2005 -1 30 -2
141 -1 16 -1 192 -1 64 -1 256 -1 312 -1 13033 -1 5474 -1 76 -1 182 -1 860 -1 214 -1 16 -1 503 -1 30 -2
493 -1 76 -1 138 -1 143 -1 30 -2
113 -1 1225 -1 1191 -1 64 -1 2422 -1 160 -1 201 -1 2814 -1 504 -1 30 -2
10 -1 22 -1 11174 -1 76 -1 113 -1 2081 -1 388 -1 64 -1 743 -1 154 -1 2 -1 526 -1 160 -1 201 -1 242 -1 182 -1 3 -1 1940 -1 30 -2
69 -1 652 -1 64 -1 692 -1 160 -1 213 -1 158 -1 131 -1 326 -1 41 -1 1036 -1 273 -1 141 -1 41 -1 256 -1 1603 -1 1 -2
41 -1 3224 -1 2058 -1 2 -1 692 -1 187 -1 273 -1 141 -1 41 -1 256 -1 148 -1 125245 -1 1 -2
41 -1 680 -1 6622 -1 7751 -1 3320 -1 30 -2
273 -1 141 -1 41 -1 316 -1 65 -1 234 -1 3788 -1 1 -2
41 -1 3441 -1 148 -1 30 -2
2513 -1 76 -1 424 -1 65 -1 561 -1 414 -1 32 -1 495 -1 1103 -1 115 -1 692 -1 30 -2
113 -1 904 -1 27 -1 201 -1 194 -1 32 -1 182 -1 497 -1 113 -1 248 -1 340 -1 273 -1 41 -1 802 -1 312 -1 2091 -1 1848 -1 268 -1 6482 -1 5487 -1 2 -1 707 -1 244 -1 151 -1 30 -2
113 -1 1640 -1 69 -1 65 -1 1899 -1 32 -1 30 -2