113 -1 1927 -1 33 -1 64 -1 3304 -1 65 -1 791 -1 334 -1 32 -1 22 -1 129 -1 849 -1 30 -2
342 -1 484 -1 3020 -1 32 -1 106 -1 213 -1 17 -1 160 -1 142 -1 201 -1 2 -1 113 -1 30 -2
113 -1 200 -1 156 -1 65 -1 3460 -1 76 -1 2211 -1 13 -1 64 -1 360 -1 160 -1 189 -1 352 -1 39 -1 308 -1 599 -1 106 -1 30 -2
16271 -1 30 -2
2648 -1 2447 -1 113 -1 64 -1 6766 -1 41 -1 115 -1 29 -1 5905 -1 4319 -1 3095 -1 64 -1 1467 -1 41 -1 326 -1 69 -1 16 -1 2016 -1 484 -1 2751 -1 149 -1 976 -1 30 -2
6540 -1 2325 -1 161 -1 3 -1 10589 -1 2 -1 5977 -1 30 -2
50 -1 7289 -1 1203 -1 3 -1 148 -1 1036 -1 1589 -1 3 -1 2373 -1 30 -2
548 -1 639 -1 151 -1 187 -1 747 -1 31 -1 22 -1 3405 -1 271 -2
113 -1 1640 -1 41 -1 272 -1 504 -1 113 -1 340 -1 4377 -1 151 -1 3 -1 213 -1 3126 -1 30 -2
2 -1 7 -1 65 -1 867 -1 32 -1 13279 -1 3050 -1 151 -1 3 -1 22 -1 207 -1 30 -2
68293 -1 9 -1 28 -1 26 -1 127081 -1 35262 -1 30 -2
4752 -1 30 -2
342 -1 1822 -1 2098 -1 77 -1 10 -1 1711 -1 10111 -1 76 -1 65 -1 716 -1 33 -1 22 -1 4209 -1 54 -1 340 -1 151 -1 76 -1 557 -1 15 -1 408 -1 3103 -1 2098 -1 1167 -1 151 -1 113 -1 340 -1 50 -1 596 -1 4074 -1 1134 -1 2474 -1 10111 -1 30 -2
557 -1 76 -1 113 -1 141 -1 571 -1 30 -2
676 -1 737 -1 113 -1 1092 -1 1077 -1 644 -1 3038 -1 74 -1 30 -2
469 -1 7 -1 642 -1 3193 -1 113 -1 264 -1 30 -2
42 -1 22 -1 15295 -1 1077 -1 154 -1 113 -1 786 -1 469 -1 1324 -1 113 -1 225 -1 1182 -1 250 -1 3176 -1 469 -1 504 -1 469 -1 3 -1 463 -1 64 -1 30 -2
113 -1 3 -1 2588 -1 160 -1 388 -1 242 -1 113 -1 1406 -1 1017 -1 484 -1 37892 -1 149 -1 472 -1 76 -1 308 -1 2697 -1 1670 -1 64 -1 1017 -1 30 -2
113 -1 687 -1 154 -1 16 -1 1929 -1 2651 -1 31 -1 388 -1 30 -2
484 -1 1101 -1 76 -1 113 -1 636 -1 41 -1 22 -1 1504 -1 30 -2
9 -1 28 -1 26 -1 127085 -1 5788 -1 4301 -1 22346 -1 5788 -1 640 -1 127084 -1 127082 -1 9 -1 28 -1 26 -1 127083 -1 5788 -1 4301 -1 309 -1 5788 -1 640 -1 127084 -1 127082 -1 30 -2
13898 -1 30 -2
747 -1 41 -1 30 -2
4564 -1 1017 -1 76 -1 113 -1 445 -1 213 -1 248 -1 3 -1 163 -1 115 -1 542 -1 30 -2
5636 -1 6671 -1 70162 -1 113 -1 1521 -1 64 -1 27 -1 41 -1 504 -1 30 -2
113 -1 3 -1 10 -1 151 -1 20521 -1 10 -1 50 -1 183 -1 1530 -1 1838 -1 4563 -1 30 -2
113 -1 316 -1 4699 -1 1066 -1 364 -1 759 -1 30 -2
182 -1 272 -1 3 -1 248 -1 14368 -1 64 -1 308 -1 65 -1 5245 -1 30 -2
10 -1 50 -1 1838 -1 30 -2
10 -1 1157 -1 64 -1 22 -1 2132 -1 149 -1 9065 -1 1287 -1 76 -1 113 -1 443 -1 77 -1 312 -1 48 -1 385 -1 42 -1 113 -1 316 -1 1066 -1 30 -2
113 -1 141 -1 194 -1 113 -1 3285 -1 388 -1 76 -1 472 -1 1923 -1 64 -1 149 -1 2447 -1 22936 -1 1938 -1 64 -1 111 -1 10 -1 30 -2
1323 -1 30 -2
342 -1 16 -1 1075 -1 224 -1 236 -1 248 -1 403 -1 29 -1 1504 -1 149 -1 200 -1 3 -1 65 -1 8161 -1 30 -2
123 -1 530 -1 1 -2
342 -1 484 -1 3020 -1 32 -1 250 -1 778 -1 30 -2
113 -1 194 -1 29563 -1 3 -1 561 -1 224 -1 41 -1 156 -1 64 -1 3 -1 65 -1 1428 -1 30 -2
113 -1 571 -1 2232 -1 76 -1 557 -1 50 -1 7578 -1 3261 -1 482 -1 650 -1 10 -1 30 -2
113 -1 118 -1 786 -1 22 -1 4965 -1 699 -1 64 -1 13411 -1 30 -2
13989 -1 127086 -1 342 -1 484 -1 63 -1 64 -1 62 -1 32 -1 29 -1 2188 -1 30 -2
424 -1 65 -1 1100 -1 64 -1 648 -1 160 -1 1583 -1 160 -1 29 -1 13988 -1 30 -2
264 -1 375 -1 3 -1 194 -1 278 -1 65 -1 1100 -1 3 -1 273 -1 375 -1 786 -1 151 -1 6635 -1 64 -1 1749 -1 3 -1 30 -2
182 -1 1089 -1 7 -1 64 -1 3 -1 22 -1 1769 -1 129 -1 54 -1 1938 -1 21480 -1 76 -1 2594 -1 76 -1 3320 -1 139 -1 10 -1 266 -1 338 -1 30 -2
69 -1 484 -1 976 -1 64 -1 308 -1 22 -1 1141 -1 251 -1 76 -1 22 -1 1030 -1 76 -1 2 -1 22 -1 4579 -1 3839 -1 30 -1 30 -1 69 -1 163 -1 64 -1 62 -1 41 -1 66 -1 3494 -1 64 -1 844 -1 10 -1 30 -2
747 -1 41 -1 76 -1 186 -1 76 -1 31 -1 360 -1 30 -2
19123 -1 30962 -1 758 -1 154 -1 22 -1 2467 -1 513 -1 32 -1 8530 -1 271 -2
211 -1 163 -1 64 -1 62 -1 30 -2
1175 -1 127087 -1 976 -1 30 -2
771 -1 76 -1 771 -1 76 -1 342 -1 484 -1 33 -1 1507 -1 271 -2
776 -1 113 -1 22 -1 251 -1 1 -2
2177 -1 4217 -1 3368 -1 22 -1 14748 -1 10267 -1 30 -2
113 -1 118 -1 11324 -1 2016 -1 419 -1 76 -1 484 -1 342 -1 826 -1 388 -1 65 -1 11209 -1 31 -1 151 -1 76 -1 8060 -1 271 -2
1707 -1 484 -1 745 -1 64 -1 62 -1 162 -1 1671 -1 187 -1 32 -1 22 -1 3365 -1 1725 -1 30 -2
151 -1 620 -1 3 -1 22 -1 616 -1 30 -2
33 -1 65 -1 791 -1 171 -1 76 -1 571 -1 29 -1 351 -1 14154 -1 4630 -1 32 -1 36271 -1 39894 -1 11324 -1 30 -2
424 -1 22 -1 1849 -1 30 -2
1830 -1 113 -1 814 -1 151 -1 2 -1 758 -1 34 -1 10165 -1 187 -1 2609 -1 64 -1 388 -1 30 -2
182 -1 3 -1 1104 -1 64 -1 504 -1 271 -2
62903 -1 213 -1 139 -1 225 -1 644 -1 13 -1 2 -1 230 -1 463 -1 30 -2
635 -1 728 -1 31 -1 65 -1 135 -1 76 -1 146 -1 53094 -1 33 -1 644 -1 542 -1 76 -1 2 -1 417 -1 3 -1 482 -1 76 -1 798 -1 22 -1 127089 -1 127088 -1 127090 -1 3719 -1 76 -1 113 -1 571 -1 15977 -1 15979 -1 30 -2
375 -1 72 -1 308 -1 60968 -1 3 -1 1758 -1 2 -1 139 -1 187 -1 77 -1 65 -1 1939 -1 262 -1 22 -1 49 -1 380 -1 385 -1 30 -2
113 -1 3 -1 17836 -1 5396 -1 16911 -1 4703 -1 76 -1 2 -1 135 -1 814 -1 154 -1 33 -1 60968 -1 76 -1 2295 -1 151 -1 50 -1 1428 -1 5234 -1 30 -2
113 -1 139 -1 2683 -1 250 -1 2819 -1 278 -1 127091 -1 30 -2
127091 -1 22 -1 772 -1 31 -1 111 -1 29 -1 2232 -1 225 -1 22 -1 5293 -1 1006 -1 127092 -1 224 -1 250 -1 1366 -1 3 -1 400 -1 64 -1 41 -1 76 -1 22 -1 50261 -1 3 -1 151 -1 2232 -1 358 -1 30 -2
127093 -1 2648 -1 118 -1 3335 -1 30 -2
29 -1 5204 -1 3 -1 806 -1 30 -2
113 -1 1418 -1 3 -1 65 -1 8326 -1 2347 -1 30 -2
113 -1 895 -1 113 -1 272 -1 214 -1 388 -1 64 -1 256 -1 234 -1 30 -2
2177 -1 895 -1 201 -1 213 -1 161 -1 1533 -1 194 -1 195 -1 256 -1 234 -1 224 -1 113 -1 200 -1 81 -1 80 -1 30 -2
50 -1 163 -1 46 -1 636 -1 113 -1 76 -1 224 -1 113 -1 3 -1 77 -1 30 -2
182 -1 510 -1 864 -1 30 -2
357 -1 10963 -1 1711 -1 149 -1 2517 -1 76 -1 29 -1 62314 -1 2809 -1 513 -1 1523 -1 160 -1 22 -1 1929 -1 149 -1 6412 -1 448 -1 30 -2
151 -1 124 -1 89178 -1 6635 -1 64 -1 29 -1 413 -1 494 -1 64 -1 30 -2
10 -1 22 -1 1692 -1 76 -1 375 -1 7 -1 65 -1 600 -1 257 -1 1990 -1 3504 -1 30 -2
340 -1 19240 -1 76 -1 113 -1 3 -1 285 -1 20832 -1 2719 -1 64 -1 2375 -1 182 -1 1077 -1 76 -1 462 -1 5535 -1 2626 -1 3052 -1 10216 -1 30 -2
10 -1 1157 -1 64 -1 30 -2
29654 -1 76 -1 113 -1 598 -1 308 -1 266 -1 2920 -1 244 -1 213 -1 352 -1 8475 -1 3 -1 10 -1 743 -1 74 -1 76 -1 484 -1 2488 -1 50 -1 297 -1 7847 -1 77 -1 65 -1 48 -1 604 -1 2381 -1 3 -1 10 -1 65 -1 380 -1 30 -2
244 -1 29 -1 52 -1 76 -1 69 -1 80 -1 64 -1 78 -1 187 -1 10 -1 27 -1 30 -2
8 -1 28 -1 26 -1 127094 -1 237 -1 65 -1 2430 -1 2001 -1 1203 -1 65 -1 151 -1 214 -1 1473 -1 41 -1 576 -1 64 -1 41 -1 542 -1 2 -1 5446 -1 1100 -1 32 -1 1771 -1 30 -2
557 -1 242 -1 182 -1 5845 -1 484 -1 364 -1 64 -1 226 -1 10 -1 250 -1 207 -1 76 -1 41 -1 15 -1 147 -1 555 -1 554 -1 646 -1 250 -1 1203 -1 729 -1 41 -1 30 -2
224 -1 113 -1 7 -1 19320 -1 76 -1 69 -1 65 -1 35759 -1 30 -2
635 -1 32 -1 182 -1 39 -1 16 -1 3 -1 3244 -1 19320 -1 113 -1 9363 -1 30 -2
113 -1 308 -1 15002 -1 908 -1 2 -1 149 -1 4282 -1 1487 -1 530 -1 158 -1 113 -1 62 -1 372 -1 30 -2
364 -1 340 -1 23137 -1 30 -2
8 -1 28 -1 26 -1 127095 -1 493 -1 76 -1 123 -1 250 -1 251 -1 2050 -1 340 -1 405 -1 843 -1 52 -1 137 -1 42712 -1 1331 -1 115 -1 24788 -1 2 -1 65 -1 451 -1 30 -2
702 -1 826 -1 278 -1 1098 -1 3226 -1 160 -1 7598 -1 2125 -1 76 -1 2 -1 2023 -1 76 -1 523 -1 64 -1 510 -1 312 -1 808 -1 18556 -1 30 -2
113 -1 52 -1 33 -1 250 -1 251 -1 370 -1 377 -1 30 -2
1842 -1 154 -1 76 -1 113 -1 786 -1 11216 -1 64 -1 844 -1 10 -1 76 -1 1039 -1 127096 -1 2 -1 36194 -1 4824 -1 76 -1 3584 -1 450 -1 3225 -1 160 -1 273 -1 113 -1 155 -1 64 -1 786 -1 30 -2
113 -1 758 -1 50 -1 7598 -1 30 -2
236 -1 100 -1 30 -2
484 -1 179 -1 151 -1 162 -1 78 -1 187 -1 29 -1 153 -1 76 -1 7 -1 29 -1 1287 -1 4 -1 1 -2
2952 -1 76 -1 113 -1 194 -1 41 -1 3 -1 1193 -1 31 -1 613 -1 1040 -1 653 -1 153 -1 601 -1 29 -1 6393 -1 1407 -1 30 -2
29163 -1 127097 -1 76 -1 27 -1 312 -1 976 -1 454 -1 76 -1 224 -1 29 -1 6393 -1 637 -1 272 -1 613 -1 41 -1 78 -1 187 -1 29 -1 6302 -1 1779 -1 153 -1 30 -2
113 -1 340 -1 976 -1 30 -2
1175 -1 190 -1 3 -1 635 -1 251 -1 278 -1 6393 -1 1325 -1 30 -2
1083 -1 76 -1 69 -1 3 -1 1191 -1 65 -1 385 -1 1498 -1 113 -1 401 -1 250 -1 251 -1 30 -2
1498 -1 232 -1 76 -1 113 -1 7 -1 979 -1 64 -1 1922 -1 30 -2
158 -1 113 -1 502 -1 1720 -1 64 -1 786 -1 1066 -1 76 -1 113 -1 475 -1 187 -1 3078 -1 8326 -1 613 -1 2 -1 114 -1 281 -1 927 -1 30 -2
1367 -1 30 -2
8 -1 28 -1 26 -1 127099 -1 127098 -1 76 -1 182 -1 337 -1 30 -2
342 -1 2756 -1 77 -1 64 -1 168 -1 21480 -1 1768 -1 151 -1 2050 -1 680 -1 601 -1 643 -1 30 -2
1670 -1 171 -1 113 -1 256 -1 88947 -1 185 -1 76 -1 557 -1 31 -1 635 -1 287 -1 72 -1 33 -1 50 -1 436 -1 30 -2
60904 -1 76 -1 27 -1 41 -1 504 -1 520 -1 2877 -1 27 -1 375 -1 34 -1 64 -1 635 -1 213 -1 30 -2
593 -1 76 -1 375 -1 1916 -1 1099 -1 64 -1 201 -1 643 -1 271 -2
1039 -1 113 -1 786 -1 340 -1 342 -1 1436 -1 185 -1 364 -1 33 -1 50 -1 281 -1 296 -1 179 -1 340 -1 30 -2
747 -1 41 -1 31 -1 29 -1 448 -1 30 -2
23139 -1 113 -1 1121 -1 41 -1 360 -1 29 -1 6 -1 76 -1 22 -1 3890 -1 6235 -1 141 -1 406 -1 364 -1 8367 -1 1157 -1 50 -1 1287 -1 30 -2
77 -1 25466 -1 504 -1 2 -1 30 -2
771 -1 76 -1 113 -1 74913 -1 30 -2
237 -1 113 -1 308 -1 22 -1 251 -1 4216 -1 76 -1 194 -1 76 -1 593 -1 771 -1 76 -1 113 -1 141 -1 151 -1 238 -1 814 -1 22 -1 52 -1 2 -1 502 -1 448 -1 76 -1 2 -1 194 -1 76 -1 771 -1 76 -1 135 -1 9655 -1 680 -1 601 -1 635 -1 13183 -1 16846 -1 30 -2
190 -1 8475 -1 3 -1 65 -1 1100 -1 32 -1 52 -1 278 -1 567 -1 1148 -1 1938 -1 229 -1 153 -1 76 -1 557 -1 113 -1 598 -1 308 -1 553 -1 1745 -1 1521 -1 64 -1 1711 -1 1938 -1 229 -1 153 -1 30 -2
2648 -1 1467 -1 113 -1 326 -1 224 -1 1105 -1 113 -1 493 -1 571 -1 531 -1 30 -2
297 -1 163 -1 46 -1 32 -1 695 -1 3 -1 531 -1 30 -2
160 -1 165 -1 76 -1 417 -1 3 -1 5963 -1 31 -1 65 -1 135 -1 2 -1 226 -1 825 -1 234 -1 30 -2
702 -1 1467 -1 113 -1 7 -1 50 -1 4074 -1 76 -1 2 -1 5587 -1 213 -1 262 -1 10 -1 4552 -1 394 -1 151 -1 1105 -1 11787 -1 76 -1 424 -1 484 -1 438 -1 113 -1 200 -1 2295 -1 113 -1 141 -1 22 -1 129 -1 54 -1 30 -2
27 -1 26505 -1 504 -1 510 -1 864 -1 76 -1 151 -1 644 -1 3083 -1 650 -1 10 -1 64 -1 510 -1 417 -1 3 -1 148 -1 20117 -1 158 -1 248 -1 76 -1 1753 -1 200 -1 12606 -1 64 -1 22 -1 17056 -1 30 -2
484 -1 76 -1 50 -1 2229 -1 1157 -1 3 -1 771 -1 30 -2
1472 -1 76 -1 77 -1 1521 -1 64 -1 22 -1 10622 -1 76 -1 113 -1 1615 -1 64 -1 194 -1 32 -1 10622 -1 2401 -1 77 -1 148 -1 8949 -1 150 -1 1176 -1 30 -2
10 -1 50 -1 6 -1 76 -1 81 -1 64 -1 5644 -1 1484 -1 2049 -1 225 -1 30 -2
236 -1 100 -1 30 -2
1175 -1 15231 -1 77373 -1 76 -1 375 -1 3 -1 10 -1 65 -1 1068 -1 737 -1 42 -1 76 -1 10 -1 602 -1 312 -1 216 -1 141 -1 264 -1 151 -1 248 -1 76 -1 248 -1 633 -1 113 -1 30 -2
113 -1 636 -1 469 -1 151 -1 113 -1 699 -1 65 -1 1092 -1 244 -1 1099 -1 64 -1 469 -1 76 -1 242 -1 113 -1 7 -1 64 -1 1181 -1 30 -2