2 -1 #SUP: 11
3 -1 #SUP: 12
4 -1 #SUP: 2
7 -1 #SUP: 5
8 -1 #SUP: 2
9 -1 #SUP: 7
10 -1 #SUP: 6
16 -1 #SUP: 4
22 -1 #SUP: 11
26 -1 #SUP: 6
27 -1 #SUP: 2
28 -1 #SUP: 6
29 -1 #SUP: 4
31 -1 #SUP: 3
32 -1 #SUP: 7
33 -1 #SUP: 3
35 -1 #SUP: 2
39 -1 #SUP: 2
41 -1 #SUP: 6
50 -1 #SUP: 10
54 -1 #SUP: 2
57 -1 #SUP: 3
64 -1 #SUP: 17
65 -1 #SUP: 8
66 -1 #SUP: 3
69 -1 #SUP: 6
75 -1 #SUP: 2
76 -1 #SUP: 43
77 -1 #SUP: 5
111 -1 #SUP: 2
113 -1 #SUP: 32
118 -1 #SUP: 5
131 -1 #SUP: 2
139 -1 #SUP: 5
141 -1 #SUP: 2
151 -1 #SUP: 6
156 -1 #SUP: 3
158 -1 #SUP: 3
160 -1 #SUP: 11
163 -1 #SUP: 3
165 -1 #SUP: 2
179 -1 #SUP: 2
182 -1 #SUP: 6
185 -1 #SUP: 5
194 -1 #SUP: 3
197 -1 #SUP: 2
200 -1 #SUP: 2
213 -1 #SUP: 2
221 -1 #SUP: 4
224 -1 #SUP: 6
236 -1 #SUP: 2
250 -1 #SUP: 5
251 -1 #SUP: 2
256 -1 #SUP: 4
312 -1 #SUP: 2
326 -1 #SUP: 4
340 -1 #SUP: 2
342 -1 #SUP: 5
351 -1 #SUP: 2
352 -1 #SUP: 2
356 -1 #SUP: 2
376 -1 #SUP: 2
388 -1 #SUP: 3
420 -1 #SUP: 3
453 -1 #SUP: 2
469 -1 #SUP: 3
484 -1 #SUP: 6
500 -1 #SUP: 4
510 -1 #SUP: 2
520 -1 #SUP: 2
548 -1 #SUP: 2
557 -1 #SUP: 5
562 -1 #SUP: 2
569 -1 #SUP: 2
571 -1 #SUP: 3
593 -1 #SUP: 2
616 -1 #SUP: 2
686 -1 #SUP: 2
702 -1 #SUP: 6
786 -1 #SUP: 3
815 -1 #SUP: 2
903 -1 #SUP: 3
937 -1 #SUP: 2
1099 -1 #SUP: 3
1101 -1 #SUP: 3
1128 -1 #SUP: 2
1198 -1 #SUP: 2
1208 -1 #SUP: 3
1260 -1 #SUP: 3
1583 -1 #SUP: 2
1600 -1 #SUP: 2
1640 -1 #SUP: 2
1678 -1 #SUP: 2
1975 -1 #SUP: 3
2232 -1 #SUP: 2
10209 -1 #SUP: 2
18126 -1 #SUP: 3
20251 -1 #SUP: 2
33992 -1 #SUP: 3
2 -1 2 -1 #SUP: 4
2 -1 3 -1 #SUP: 2
2 -1 64 -1 #SUP: 2
2 -1 76 -1 #SUP: 3
2 -1 113 -1 #SUP: 2
2 -1 160 -1 #SUP: 2
2 -1 256 -1 #SUP: 2
2 -1 1583 -1 #SUP: 2
3 -1 22 -1 #SUP: 2
3 -1 32 -1 #SUP: 3
3 -1 54 -1 #SUP: 2
3 -1 65 -1 #SUP: 2
3 -1 66 -1 #SUP: 2
3 -1 76 -1 #SUP: 4
3 -1 165 -1 #SUP: 2
4 -1 76 -1 #SUP: 2
7 -1 76 -1 #SUP: 2
9 -1 26 -1 #SUP: 5
9 -1 28 -1 #SUP: 5
10 -1 22 -1 #SUP: 2
10 -1 50 -1 #SUP: 2
10 -1 76 -1 #SUP: 2
10 -1 113 -1 #SUP: 2
22 -1 10 -1 #SUP: 2
22 -1 32 -1 #SUP: 2
22 -1 41 -1 #SUP: 2
22 -1 50 -1 #SUP: 2
22 -1 64 -1 #SUP: 2
22 -1 76 -1 #SUP: 4
22 -1 113 -1 #SUP: 4
22 -1 151 -1 #SUP: 2
22 -1 160 -1 #SUP: 2
22 -1 221 -1 #SUP: 2
28 -1 26 -1 #SUP: 5
31 -1 76 -1 #SUP: 2
31 -1 113 -1 #SUP: 2
32 -1 22 -1 #SUP: 4
32 -1 32 -1 #SUP: 2
32 -1 64 -1 #SUP: 2
32 -1 66 -1 #SUP: 2
32 -1 76 -1 #SUP: 4
41 -1 7 -1 #SUP: 2
41 -1 64 -1 #SUP: 2
41 -1 76 -1 #SUP: 2
41 -1 113 -1 #SUP: 2
50 -1 10 -1 #SUP: 2
50 -1 64 -1 #SUP: 3
50 -1 76 -1 #SUP: 5
50 -1 77 -1 #SUP: 2
50 -1 118 -1 #SUP: 2
50 -1 156 -1 #SUP: 2
50 -1 163 -1 #SUP: 2
50 -1 571 -1 #SUP: 2
64 -1 2 -1 #SUP: 5
64 -1 64 -1 #SUP: 4
64 -1 65 -1 #SUP: 2
64 -1 76 -1 #SUP: 3
64 -1 77 -1 #SUP: 2
64 -1 113 -1 #SUP: 2
64 -1 250 -1 #SUP: 2
64 -1 388 -1 #SUP: 2
64 -1 1099 -1 #SUP: 2
65 -1 2 -1 #SUP: 2
65 -1 76 -1 #SUP: 3
66 -1 22 -1 #SUP: 2
66 -1 32 -1 #SUP: 2
66 -1 76 -1 #SUP: 3
66 -1 151 -1 #SUP: 2
69 -1 50 -1 #SUP: 2
69 -1 76 -1 #SUP: 3
69 -1 113 -1 #SUP: 2
69 -1 160 -1 #SUP: 2
75 -1 76 -1 #SUP: 2
75 -1 113 -1 #SUP: 2
76 -1 2 -1 #SUP: 5
76 -1 3 -1 #SUP: 3
76 -1 10 -1 #SUP: 2
76 -1 22 -1 #SUP: 3
76 -1 41 -1 #SUP: 2
76 -1 50 -1 #SUP: 3
76 -1 64 -1 #SUP: 4
76 -1 65 -1 #SUP: 2
76 -1 76 -1 #SUP: 7
76 -1 113 -1 #SUP: 8
76 -1 118 -1 #SUP: 2
76 -1 139 -1 #SUP: 2
76 -1 151 -1 #SUP: 2
76 -1 158 -1 #SUP: 2
76 -1 160 -1 #SUP: 4
76 -1 221 -1 #SUP: 4
76 -1 224 -1 #SUP: 4
76 -1 250 -1 #SUP: 2
76 -1 251 -1 #SUP: 2
76 -1 326 -1 #SUP: 2
76 -1 342 -1 #SUP: 2
76 -1 376 -1 #SUP: 2
76 -1 500 -1 #SUP: 2
76 -1 557 -1 #SUP: 3
76 -1 702 -1 #SUP: 2
76 -1 1198 -1 #SUP: 2
76 -1 1678 -1 #SUP: 2
76 -1 18126 -1 #SUP: 2
77 -1 2 -1 #SUP: 2
77 -1 64 -1 #SUP: 2
77 -1 76 -1 #SUP: 2
77 -1 113 -1 #SUP: 2
77 -1 118 -1 #SUP: 2
77 -1 557 -1 #SUP: 2
113 -1 2 -1 #SUP: 2
113 -1 3 -1 #SUP: 4
113 -1 7 -1 #SUP: 3
113 -1 22 -1 #SUP: 3
113 -1 32 -1 #SUP: 2
113 -1 41 -1 #SUP: 2
113 -1 64 -1 #SUP: 6
113 -1 65 -1 #SUP: 2
113 -1 76 -1 #SUP: 6
113 -1 77 -1 #SUP: 3
113 -1 113 -1 #SUP: 4
113 -1 118 -1 #SUP: 4
113 -1 151 -1 #SUP: 2
113 -1 156 -1 #SUP: 2
113 -1 158 -1 #SUP: 3
113 -1 160 -1 #SUP: 5
113 -1 194 -1 #SUP: 3
113 -1 200 -1 #SUP: 2
113 -1 224 -1 #SUP: 2
113 -1 250 -1 #SUP: 3
113 -1 251 -1 #SUP: 2
113 -1 256 -1 #SUP: 2
113 -1 326 -1 #SUP: 3
113 -1 342 -1 #SUP: 3
113 -1 388 -1 #SUP: 2
113 -1 520 -1 #SUP: 2
113 -1 786 -1 #SUP: 2
113 -1 815 -1 #SUP: 2
113 -1 1640 -1 #SUP: 2
113 -1 1975 -1 #SUP: 2
113 -1 10209 -1 #SUP: 2
118 -1 64 -1 #SUP: 2
118 -1 156 -1 #SUP: 2
118 -1 224 -1 #SUP: 2
118 -1 326 -1 #SUP: 2
139 -1 500 -1 #SUP: 3
151 -1 76 -1 #SUP: 2
151 -1 160 -1 #SUP: 2
151 -1 185 -1 #SUP: 3
156 -1 64 -1 #SUP: 3
160 -1 2 -1 #SUP: 3
160 -1 22 -1 #SUP: 2
160 -1 50 -1 #SUP: 3
160 -1 64 -1 #SUP: 2
160 -1 76 -1 #SUP: 3
163 -1 76 -1 #SUP: 2
165 -1 22 -1 #SUP: 2
165 -1 32 -1 #SUP: 2
194 -1 32 -1 #SUP: 2
194 -1 76 -1 #SUP: 2
213 -1 118 -1 #SUP: 2
221 -1 224 -1 #SUP: 2
250 -1 3 -1 #SUP: 2
250 -1 113 -1 #SUP: 2
250 -1 182 -1 #SUP: 2
250 -1 251 -1 #SUP: 2
256 -1 22 -1 #SUP: 2
256 -1 113 -1 #SUP: 2
326 -1 76 -1 #SUP: 2
326 -1 224 -1 #SUP: 2
340 -1 113 -1 #SUP: 2
352 -1 113 -1 #SUP: 2
352 -1 118 -1 #SUP: 2
352 -1 557 -1 #SUP: 2
420 -1 182 -1 #SUP: 2
484 -1 16 -1 #SUP: 2
520 -1 113 -1 #SUP: 2
557 -1 113 -1 #SUP: 3
557 -1 118 -1 #SUP: 2
557 -1 221 -1 #SUP: 2
571 -1 64 -1 #SUP: 2
571 -1 76 -1 #SUP: 2
593 -1 76 -1 #SUP: 2
686 -1 113 -1 #SUP: 2
686 -1 250 -1 #SUP: 2
786 -1 65 -1 #SUP: 2
903 -1 76 -1 #SUP: 2
1101 -1 76 -1 #SUP: 2
1128 -1 76 -1 #SUP: 2
1128 -1 113 -1 #SUP: 2
1198 -1 64 -1 #SUP: 2
1260 -1 76 -1 #SUP: 2
1600 -1 197 -1 #SUP: 2
33992 -1 18126 -1 #SUP: 2
2 -1 76 -1 2 -1 #SUP: 2
2 -1 113 -1 256 -1 #SUP: 2
3 -1 32 -1 22 -1 #SUP: 2
3 -1 32 -1 66 -1 #SUP: 2
3 -1 65 -1 76 -1 #SUP: 2
3 -1 165 -1 22 -1 #SUP: 2
3 -1 165 -1 32 -1 #SUP: 2
9 -1 28 -1 26 -1 #SUP: 5
10 -1 22 -1 50 -1 #SUP: 2
22 -1 76 -1 151 -1 #SUP: 2
31 -1 76 -1 76 -1 #SUP: 2
32 -1 22 -1 76 -1 #SUP: 2
32 -1 66 -1 76 -1 #SUP: 2
50 -1 76 -1 64 -1 #SUP: 2
50 -1 76 -1 76 -1 #SUP: 2
50 -1 118 -1 64 -1 #SUP: 2
50 -1 118 -1 156 -1 #SUP: 2
50 -1 156 -1 64 -1 #SUP: 2
50 -1 571 -1 76 -1 #SUP: 2
64 -1 2 -1 2 -1 #SUP: 3
64 -1 64 -1 2 -1 #SUP: 2
64 -1 65 -1 2 -1 #SUP: 2
64 -1 77 -1 2 -1 #SUP: 2
64 -1 250 -1 113 -1 #SUP: 2
66 -1 22 -1 76 -1 #SUP: 2
66 -1 22 -1 151 -1 #SUP: 2
66 -1 32 -1 76 -1 #SUP: 2
66 -1 76 -1 151 -1 #SUP: 2
76 -1 2 -1 76 -1 #SUP: 2
76 -1 76 -1 76 -1 #SUP: 3
76 -1 76 -1 18126 -1 #SUP: 2
76 -1 113 -1 64 -1 #SUP: 3
76 -1 113 -1 113 -1 #SUP: 2
76 -1 113 -1 118 -1 #SUP: 2
76 -1 113 -1 250 -1 #SUP: 2
76 -1 113 -1 251 -1 #SUP: 2
76 -1 139 -1 500 -1 #SUP: 2
76 -1 160 -1 50 -1 #SUP: 2
76 -1 250 -1 251 -1 #SUP: 2
76 -1 557 -1 113 -1 #SUP: 2
76 -1 557 -1 118 -1 #SUP: 2
76 -1 557 -1 221 -1 #SUP: 2
76 -1 1198 -1 64 -1 #SUP: 2
77 -1 113 -1 118 -1 #SUP: 2
113 -1 3 -1 32 -1 #SUP: 2
113 -1 64 -1 77 -1 #SUP: 2
113 -1 76 -1 2 -1 #SUP: 2
113 -1 113 -1 158 -1 #SUP: 2
113 -1 113 -1 160 -1 #SUP: 2
113 -1 118 -1 224 -1 #SUP: 2
113 -1 118 -1 326 -1 #SUP: 2
113 -1 156 -1 64 -1 #SUP: 2
113 -1 160 -1 2 -1 #SUP: 2
113 -1 160 -1 76 -1 #SUP: 2
113 -1 194 -1 32 -1 #SUP: 2
113 -1 194 -1 76 -1 #SUP: 2
113 -1 250 -1 251 -1 #SUP: 2
113 -1 326 -1 76 -1 #SUP: 2
113 -1 326 -1 224 -1 #SUP: 2
113 -1 520 -1 113 -1 #SUP: 2
118 -1 156 -1 64 -1 #SUP: 2
118 -1 326 -1 224 -1 #SUP: 2
156 -1 64 -1 64 -1 #SUP: 2
160 -1 50 -1 64 -1 #SUP: 2
160 -1 76 -1 2 -1 #SUP: 3
165 -1 32 -1 22 -1 #SUP: 2
352 -1 113 -1 118 -1 #SUP: 2
557 -1 113 -1 118 -1 #SUP: 2
686 -1 113 -1 250 -1 #SUP: 2
1128 -1 76 -1 113 -1 #SUP: 2
3 -1 165 -1 32 -1 22 -1 #SUP: 2
50 -1 118 -1 156 -1 64 -1 #SUP: 2
66 -1 22 -1 76 -1 151 -1 #SUP: 2
76 -1 113 -1 250 -1 251 -1 #SUP: 2
76 -1 557 -1 113 -1 118 -1 #SUP: 2
113 -1 118 -1 326 -1 224 -1 #SUP: 2
113 -1 160 -1 76 -1 2 -1 #SUP: 2
