453 -1 463 -1 1603 -1 115 -1 200 -1 262 -1 22 -1 297 -1 385 -1 838 -1 30 -2
113 -1 7 -1 510 -1 4146 -1 4 -1 2 -1 141 -1 16 -1 1559 -1 33 -1 1573 -1 30 -2
113 -1 7 -1 1630 -1 50 -1 238 -1 385 -1 4077 -1 879 -1 76 -1 557 -1 160 -1 50 -1 799 -1 4147 -1 187 -1 76 -1 41 -1 326 -1 64 -1 30 -2
4148 -1 757 -1 1009 -1 271 -2
424 -1 438 -1 76 -1 113 -1 340 -1 182 -1 30 -2
2 -1 30 -2
190 -1 39 -1 3 -1 635 -1 1504 -1 64 -1 182 -1 1679 -1 30 -2
113 -1 118 -1 255 -1 4149 -1 1091 -1 76 -1 1472 -1 10 -1 65 -1 394 -1 417 -1 66 -1 141 -1 2997 -1 417 -1 3 -1 510 -1 644 -1 304 -1 2692 -1 30 -2
113 -1 141 -1 340 -1 64 -1 506 -1 1511 -1 527 -1 2049 -1 27 -1 22 -1 737 -1 497 -1 30 -2
10 -1 22 -1 2332 -1 200 -1 4150 -1 187 -1 1105 -1 31 -1 189 -1 352 -1 2549 -1 1053 -1 3294 -1 3293 -1 212 -1 113 -1 7 -1 65 -1 80 -1 75 -1 194 -1 236 -1 16 -1 2525 -1 76 -1 149 -1 1604 -1 69 -1 200 -1 29 -1 1635 -1 404 -1 32 -1 470 -1 33 -1 229 -1 422 -1 1 -2
1031 -1 394 -1 76 -1 113 -1 7 -1 30 -2
4148 -1 1240 -1 271 -2
144 -1 154 -1 22 -1 4151 -1 4152 -1 31 -1 3015 -1 692 -1 30 -2
2 -1 30 -2
1330 -1 8 -1 4155 -1 588 -1 4158 -1 4153 -1 4156 -1 1679 -1 1175 -1 4154 -1 64 -1 22 -1 15 -1 4157 -1 2 -1 3684 -1 5 -1 113 -1 7 -1 22 -1 696 -1 32 -1 326 -1 30 -2
41 -1 789 -1 3 -1 312 -1 4159 -1 2 -1 113 -1 3 -1 65 -1 234 -1 348 -1 242 -1 32 -1 41 -1 30 -2
747 -1 41 -1 31 -1 3 -1 41 -1 271 -2
571 -1 41 -1 30 -2
4160 -1 113 -1 814 -1 15 -1 32 -1 29 -1 52 -1 2 -1 598 -1 308 -1 27 -1 381 -1 250 -1 3 -1 41 -1 3 -1 2687 -1 31 -1 76 -1 557 -1 113 -1 200 -1 39 -1 7 -1 1916 -1 182 -1 30 -2
342 -1 463 -1 64 -1 1230 -1 250 -1 244 -1 297 -1 394 -1 76 -1 165 -1 244 -1 312 -1 4161 -1 30 -2
4148 -1 271 -2
16 -1 1075 -1 27 -1 41 -1 3 -1 504 -1 30 -2
64 -1 1051 -1 546 -1 22 -1 1459 -1 4162 -1 691 -1 113 -1 2 -1 29 -1 754 -1 30 -2
181 -1 484 -1 417 -1 836 -1 510 -1 182 -1 65 -1 338 -1 160 -1 635 -1 383 -1 32 -1 4163 -1 341 -1 484 -1 417 -1 326 -1 131 -1 7 -1 814 -1 22 -1 4164 -1 76 -1 2517 -1 182 -1 3 -1 66 -1 141 -1 10 -1 4165 -1 30 -2
2997 -1 4166 -1 189 -1 1089 -1 936 -1 417 -1 76 -1 417 -1 463 -1 30 -2
937 -1 22 -1 699 -1 31 -1 312 -1 3763 -1 4167 -1 151 -1 131 -1 39 -1 3 -1 4168 -1 149 -1 39 -1 3 -1 2626 -1 1 -2
200 -1 141 -1 182 -1 2 -1 224 -1 131 -1 118 -1 256 -1 168 -1 448 -1 30 -2
3645 -1 256 -1 22 -1 339 -1 30 -2
113 -1 194 -1 1227 -1 151 -1 213 -1 836 -1 3 -1 706 -1 64 -1 52 -1 27 -1 131 -1 156 -1 76 -1 649 -1 131 -1 156 -1 76 -1 200 -1 77 -1 566 -1 77 -1 182 -1 208 -1 3 -1 2028 -1 3 -1 282 -1 557 -1 1410 -1 30 -2
113 -1 326 -1 113 -1 7 -1 52 -1 10 -1 22 -1 1600 -1 1286 -1 42 -1 30 -2
352 -1 3 -1 636 -1 273 -1 64 -1 2895 -1 1 -2
22 -1 1937 -1 339 -1 3 -1 2130 -1 636 -1 213 -1 273 -1 64 -1 2895 -1 30 -2
113 -1 72 -1 546 -1 1510 -1 32 -1 732 -1 151 -1 1515 -1 3 -1 356 -1 33 -1 22 -1 4169 -1 200 -1 77 -1 417 -1 1618 -1 201 -1 64 -1 3 -1 706 -1 30 -2
4170 -1 3032 -1 76 -1 2888 -1 27 -1 141 -1 41 -1 141 -1 158 -1 189 -1 1193 -1 41 -1 65 -1 1287 -1 149 -1 510 -1 65 -1 1754 -1 151 -1 41 -1 118 -1 936 -1 1 -2
141 -1 41 -1 1747 -1 190 -1 2 -1 506 -1 115 -1 131 -1 340 -1 131 -1 3 -1 65 -1 4171 -1 689 -1 131 -1 1617 -1 2375 -1 549 -1 76 -1 30 -2
342 -1 16 -1 1075 -1 151 -1 2743 -1 151 -1 65 -1 1287 -1 3 -1 2902 -1 214 -1 4172 -1 168 -1 4173 -1 32 -1 22 -1 1287 -1 30 -2
27 -1 510 -1 65 -1 1287 -1 4174 -1 1 -2
182 -1 641 -1 64 -1 113 -1 249 -1 65 -1 1287 -1 3 -1 1193 -1 280 -1 1042 -1 30 -2
187 -1 32 -1 4175 -1 76 -1 10 -1 27 -1 1937 -1 4176 -1 560 -1 141 -1 41 -1 4177 -1 201 -1 153 -1 339 -1 64 -1 3 -1 1965 -1 10 -1 1 -2
2 -1 141 -1 250 -1 1937 -1 560 -1 2411 -1 64 -1 22 -1 1009 -1 268 -1 77 -1 234 -1 1 -2
113 -1 31 -1 165 -1 209 -1 22 -1 2126 -1 339 -1 2 -1 4178 -1 30 -2
113 -1 118 -1 194 -1 1543 -1 149 -1 153 -1 836 -1 3 -1 4179 -1 1031 -1 601 -1 4164 -1 149 -1 4180 -1 244 -1 52 -1 10 -1 644 -1 1286 -1 30 -2
182 -1 641 -1 77 -1 497 -1 417 -1 161 -1 3 -1 30 -2
3 -1 1175 -1 418 -1 41 -1 3 -1 76 -1 557 -1 482 -1 3 -1 89 -1 64 -1 3 -1 190 -1 30 -2
4181 -1 4183 -1 3 -1 2651 -1 400 -1 10 -1 50 -1 381 -1 76 -1 182 -1 786 -1 163 -1 64 -1 144 -1 65 -1 1509 -1 32 -1 50 -1 4184 -1 65 -1 4182 -1 30 -2
113 -1 3 -1 4187 -1 599 -1 151 -1 896 -1 182 -1 76 -1 2 -1 2140 -1 133 -1 187 -1 22 -1 1304 -1 2058 -1 2 -1 4186 -1 131 -1 160 -1 4185 -1 30 -2
4189 -1 2 -1 4188 -1 30 -2
151 -1 3959 -1 182 -1 154 -1 30 -2
113 -1 214 -1 30 -2
747 -1 376 -1 271 -2
282 -1 248 -1 139 -1 64 -1 783 -1 76 -1 50 -1 6 -1 160 -1 182 -1 3 -1 185 -1 3977 -1 30 -2
113 -1 200 -1 326 -1 151 -1 113 -1 340 -1 22 -1 4190 -1 508 -1 151 -1 375 -1 62 -1 484 -1 113 -1 3 -1 2756 -1 278 -1 201 -1 64 -1 639 -1 187 -1 30 -2
747 -1 31 -1 22 -1 640 -1 30 -2
548 -1 639 -1 30 -2
27 -1 201 -1 4190 -1 508 -1 3031 -1 141 -1 41 -1 340 -1 1 -2
1101 -1 76 -1 424 -1 27 -1 113 -1 340 -1 15 -1 278 -1 22 -1 167 -1 185 -1 30 -2
557 -1 113 -1 141 -1 340 -1 530 -1 334 -1 32 -1 22 -1 562 -1 77 -1 234 -1 30 -2
32 -1 66 -1 22 -1 229 -1 153 -1 113 -1 78 -1 41 -1 511 -1 161 -1 1121 -1 250 -1 22 -1 15 -1 30 -2
484 -1 847 -1 41 -1 463 -1 30 -2
250 -1 511 -1 3 -1 769 -1 30 -2
22 -1 167 -1 7 -1 262 -1 4191 -1 4192 -1 1186 -1 484 -1 113 -1 3 -1 1075 -1 266 -1 32 -1 41 -1 7 -1 308 -1 250 -1 30 -2
8 -1 28 -1 26 -1 4193 -1 527 -1 527 -1 527 -1 236 -1 141 -1 182 -1 66 -1 1433 -1 30 -2
250 -1 3 -1 273 -1 41 -1 141 -1 182 -1 30 -2
8 -1 3251 -1 4194 -1 2488 -1 50 -1 1203 -1 30 -2
113 -1 403 -1 122 -1 2 -1 1235 -1 2 -1 4197 -1 2 -1 4196 -1 4195 -1 2 -1 266 -1 201 -1 247 -1 32 -1 65 -1 1273 -1 151 -1 208 -1 3 -1 308 -1 3430 -1 77 -1 234 -1 76 -1 557 -1 1467 -1 113 -1 1193 -1 41 -1 250 -1 30 -2
224 -1 41 -1 3 -1 144 -1 22 -1 1527 -1 32 -1 308 -1 1036 -1 224 -1 182 -1 3 -1 22 -1 3603 -1 31 -1 1273 -1 64 -1 2375 -1 212 -1 4200 -1 10 -1 644 -1 3185 -1 76 -1 471 -1 711 -1 308 -1 4198 -1 168 -1 148 -1 4199 -1 2910 -1 150 -1 65 -1 1073 -1 32 -1 122 -1 76 -1 242 -1 131 -1 161 -1 3 -1 155 -1 64 -1 182 -1 2513 -1 30 -2
141 -1 113 -1 308 -1 4198 -1 30 -2
386 -1 44 -1 115 -1 22 -1 4151 -1 35 -1 30 -2
1480 -1 4201 -1 4204 -1 400 -1 596 -1 4202 -1 2058 -1 76 -1 1029 -1 76 -1 2 -1 2697 -1 111 -1 32 -1 4203 -1 64 -1 23 -1 182 -1 1077 -1 30 -2
113 -1 214 -1 3 -1 987 -1 2 -1 214 -1 694 -1 50 -1 1400 -1 30 -2
250 -1 2 -1 22 -1 288 -1 4205 -1 3491 -1 54 -1 185 -1 30 -2
192 -1 30 -2
424 -1 871 -1 185 -1 30 -2
417 -1 214 -1 194 -1 32 -1 264 -1 30 -2
482 -1 783 -1 747 -1 113 -1 1225 -1 30 -2
113 -1 848 -1 356 -1 65 -1 273 -1 64 -1 648 -1 160 -1 4208 -1 1245 -1 279 -1 4207 -1 31 -1 66 -1 4206 -1 878 -1 64 -1 2413 -1 30 -2
438 -1 54 -1 3 -1 22 -1 1281 -1 113 -1 256 -1 187 -1 32 -1 151 -1 279 -1 3 -1 2877 -1 76 -1 2 -1 1105 -1 4211 -1 500 -1 76 -1 4210 -1 2 -1 1029 -1 4212 -1 4209 -1 2 -1 1029 -1 35 -1 182 -1 633 -1 64 -1 3714 -1 50 -1 666 -1 30 -2
593 -1 2 -1 4213 -1 418 -1 3 -1 22 -1 920 -1 469 -1 242 -1 393 -1 65 -1 4214 -1 4215 -1 1 -2
22 -1 443 -1 3 -1 3795 -1 30 -2
113 -1 3 -1 65 -1 614 -1 2875 -1 76 -1 548 -1 1467 -1 41 -1 326 -1 27 -1 113 -1 194 -1 158 -1 69 -1 262 -1 30 -2
69 -1 1148 -1 3491 -1 3126 -1 33 -1 3582 -1 3490 -1 268 -1 584 -1 4216 -1 1148 -1 3491 -1 30 -2
417 -1 4217 -1 308 -1 273 -1 182 -1 634 -1 187 -1 30 -2
342 -1 160 -1 4218 -1 30 -2
702 -1 510 -1 151 -1 520 -1 484 -1 1511 -1 1679 -1 30 -2
22 -1 4219 -1 247 -1 76 -1 16 -1 22 -1 4221 -1 2 -1 4220 -1 247 -1 30 -2
8 -1 28 -1 26 -1 4224 -1 4225 -1 4223 -1 123 -1 417 -1 836 -1 66 -1 81 -1 64 -1 4226 -1 1077 -1 2313 -1 77 -1 4170 -1 3032 -1 734 -1 2 -1 81 -1 22 -1 451 -1 4222 -1 30 -2
4227 -1 307 -1 547 -1 342 -1 356 -1 65 -1 279 -1 33 -1 1148 -1 3491 -1 30 -2
1975 -1 3615 -1 278 -1 182 -1 30 -2
182 -1 506 -1 340 -1 69 -1 510 -1 32 -1 4228 -1 30 -2
1679 -1 30 -2
866 -1 76 -1 469 -1 7 -1 282 -1 33 -1 113 -1 30 -2
959 -1 4229 -1 7 -1 182 -1 2919 -1 30 -2
224 -1 113 -1 786 -1 113 -1 699 -1 64 -1 1671 -1 10 -1 113 -1 161 -1 30 -2
375 -1 72 -1 872 -1 7 -1 64 -1 1671 -1 10 -1 1152 -1 149 -1 3162 -1 2 -1 151 -1 3 -1 499 -1 34 -1 1547 -1 137 -1 30 -2
4230 -1 250 -1 251 -1 1429 -1 113 -1 32 -1 250 -1 1679 -1 30 -2
8 -1 4232 -1 4233 -1 4231 -1 554 -1 2597 -1 113 -1 211 -1 209 -1 139 -1 64 -1 22 -1 4151 -1 296 -1 499 -1 22 -1 502 -1 32 -1 22 -1 385 -1 30 -2
1975 -1 1429 -1 113 -1 32 -1 158 -1 113 -1 3 -1 10 -1 1300 -1 76 -1 41 -1 326 -1 158 -1 186 -1 161 -1 999 -1 154 -1 30 -2
31 -1 22 -1 502 -1 2880 -1 149 -1 297 -1 42 -1 131 -1 4234 -1 30 -2
113 -1 340 -1 131 -1 76 -1 113 -1 1640 -1 76 -1 557 -1 72 -1 1124 -1 560 -1 10 -1 1124 -1 395 -1 33 -1 1124 -1 213 -1 30 -2
113 -1 1615 -1 64 -1 308 -1 131 -1 77 -1 65 -1 561 -1 394 -1 64 -1 2587 -1 29 -1 2430 -1 30 -2
113 -1 118 -1 1091 -1 1225 -1 151 -1 250 -1 836 -1 3 -1 22 -1 772 -1 76 -1 557 -1 30 -2
113 -1 3 -1 7 -1 65 -1 80 -1 75 -1 160 -1 250 -1 30 -2
77 -1 1009 -1 268 -1 3218 -1 4235 -1 420 -1 644 -1 4236 -1 30 -2
4237 -1 22 -1 3032 -1 32 -1 1309 -1 30 -2
424 -1 932 -1 312 -1 4238 -1 30 -2