8 -1 3833 -1 1509 -1 72597 -1 588 -1 201 -1 99 -1 238 -1 148346 -1 13371 -1 148345 -1 148344 -1 8 -1 3251 -1 148347 -1 400 -1 2639 -1 3762 -1 4139 -1 5885 -1 342 -1 872 -1 600 -1 652 -1 463 -1 30 -2
571 -1 361 -1 39198 -1 42145 -1 32 -1 13680 -1 754 -1 8 -1 3251 -1 148348 -1 141 -1 1088 -1 798 -1 277 -1 1883 -1 1800 -1 2 -1 463 -1 1101 -1 471 -1 76 -1 424 -1 10209 -1 113 -1 1 -2
14594 -1 18840 -1 9 -1 28 -1 26 -1 148349 -1 14594 -1 18840 -1 8 -1 140766 -1 1661 -1 4300 -1 148350 -1 268 -1 148352 -1 1307 -1 14594 -1 18840 -1 417 -1 699 -1 64 -1 256 -1 148351 -1 268 -1 9 -1 28 -1 26 -1 148353 -1 113 -1 208 -1 308 -1 1088 -1 10 -1 182 -1 50 -1 471 -1 271 -2
3 -1 182 -1 453 -1 10 -1 8268 -1 1 -2
424 -1 296 -1 5542 -1 76 -1 1088 -1 38007 -1 506 -1 187 -1 31 -1 599 -1 26512 -1 666 -1 5885 -1 113 -1 3 -1 22 -1 14273 -1 271 -2
9 -1 28 -1 26 -1 148366 -1 148360 -1 14594 -1 18840 -1 9 -1 28 -1 26 -1 148357 -1 9 -1 28 -1 26 -1 148365 -1 14594 -1 18840 -1 506 -1 273 -1 110 -1 2771 -1 182 -1 3 -1 8845 -1 1413 -1 113 -1 471 -1 76 -1 148362 -1 33 -1 920 -1 15501 -1 509 -1 571 -1 182 -1 5508 -1 2692 -1 543 -1 1307 -1 9 -1 148359 -1 148363 -1 148361 -1 3337 -1 148355 -1 148112 -1 148354 -1 148356 -1 148358 -1 9 -1 148364 -1 1647 -1 1562 -1 113 -1 15483 -1 14594 -1 30 -2
527 -1 1983 -1 3 -1 138 -1 8939 -1 113 -1 208 -1 16 -1 613 -1 557 -1 194 -1 32 -1 65 -1 141735 -1 158 -1 113 -1 62 -1 250 -1 1307 -1 50559 -1 417 -1 214 -1 463 -1 31 -1 65 -1 148367 -1 165 -1 44 -1 897 -1 5542 -1 271 -2
148380 -1 148374 -1 9 -1 148381 -1 99577 -1 99577 -1 148373 -1 148375 -1 1661 -1 806 -1 5255 -1 4908 -1 15284 -1 13845 -1 9 -1 28 -1 26 -1 148379 -1 1243 -1 4067 -1 3027 -1 14594 -1 18840 -1 9 -1 268 -1 1647 -1 3992 -1 3991 -1 6785 -1 8946 -1 17442 -1 17438 -1 148371 -1 530 -1 76 -1 224 -1 131 -1 1524 -1 165 -1 1050 -1 2 -1 305 -1 3640 -1 268 -1 317 -1 131 -1 39 -1 221 -1 9027 -1 825 -1 8 -1 132673 -1 148372 -1 480 -1 1777 -1 148370 -1 544 -1 237 -1 148384 -1 148377 -1 8 -1 132673 -1 148372 -1 480 -1 1777 -1 148370 -1 544 -1 237 -1 148384 -1 148377 -1 50596 -1 29 -1 463 -1 64 -1 571 -1 22 -1 247 -1 212 -1 237 -1 817 -1 9 -1 28 -1 26 -1 148378 -1 1679 -1 113 -1 895 -1 7572 -1 483 -1 571 -1 361 -1 27293 -1 29 -1 22 -1 51 -1 2969 -1 45391 -1 163 -1 471 -1 76 -1 758 -1 154 -1 22 -1 12669 -1 9 -1 23537 -1 4071 -1 148378 -1 35275 -1 8 -1 3251 -1 148382 -1 9 -1 268 -1 1647 -1 3992 -1 3991 -1 49230 -1 25882 -1 17425 -1 208 -1 148376 -1 7877 -1 28479 -1 9 -1 16964 -1 3066 -1 746 -1 746 -1 1777 -1 723 -1 817 -1 3626 -1 16530 -1 98193 -1 16530 -1 148368 -1 148369 -1 82308 -1 9 -1 28 -1 26 -1 148383 -1 29 -1 296 -1 141 -1 27 -1 41 -1 209 -1 5423 -1 937 -1 15 -1 975 -1 64 -1 41 -1 30 -2
190 -1 3 -1 72 -1 165 -1 41 -1 113 -1 211 -1 326 -1 2344 -1 2771 -1 2 -1 6698 -1 158 -1 113 -1 1726 -1 154 -1 8 -1 9507 -1 148387 -1 103240 -1 148388 -1 120134 -1 148385 -1 13465 -1 11640 -1 148386 -1 250 -1 3 -1 113 -1 22 -1 201 -1 886 -1 115 -1 17003 -1 24368 -1 401 -1 115 -1 237 -1 1996 -1 9 -1 28 -1 26 -1 148389 -1 113 -1 571 -1 65 -1 111 -1 32 -1 2606 -1 4197 -1 76 -1 1039 -1 33 -1 22 -1 3100 -1 247 -1 250 -1 560 -1 3 -1 65 -1 543 -1 691 -1 7094 -1 2 -1 12709 -1 30 -2
557 -1 76 -1 115 -1 22 -1 129 -1 75 -1 182 -1 463 -1 160 -1 15 -1 2692 -1 342 -1 463 -1 64 -1 356 -1 65 -1 2219 -1 2 -1 81 -1 182 -1 187 -1 271 -1 30 -2
8 -1 13459 -1 763 -1 148393 -1 148397 -1 148395 -1 148396 -1 40719 -1 17645 -1 148392 -1 545 -1 148390 -1 148391 -1 17645 -1 46502 -1 17645 -1 148394 -1 141 -1 182 -1 471 -1 76 -1 714 -1 248 -1 163 -1 30 -2
9 -1 28 -1 26 -1 148398 -1 593 -1 1083 -1 76 -1 424 -1 7017 -1 30 -2
195 -1 340 -1 64 -1 308 -1 29 -1 277 -1 30 -2
141 -1 41 -1 7 -1 65 -1 859 -1 1210 -1 4067 -1 1 -2
22 -1 5334 -1 63857 -1 3494 -1 8 -1 12626 -1 7773 -1 148406 -1 148402 -1 148403 -1 148405 -1 9 -1 28 -1 26 -1 148399 -1 22 -1 386 -1 6917 -1 63857 -1 10 -1 3807 -1 7 -1 200 -1 963 -1 509 -1 9 -1 91360 -1 95 -1 148404 -1 1661 -1 148400 -1 148401 -1 65039 -1 22 -1 25206 -1 64 -1 7503 -1 713 -1 3185 -1 3 -1 441 -1 30 -2
113 -1 627 -1 714 -1 406 -1 652 -1 64 -1 833 -1 65 -1 18168 -1 30044 -1 277 -1 76 -1 557 -1 76 -1 182 -1 356 -1 1636 -1 64 -1 833 -1 264 -1 2065 -1 151 -1 112 -1 168 -1 5149 -1 30 -2
8 -1 3251 -1 148407 -1 1733 -1 76 -1 802 -1 22 -1 41903 -1 30 -2
14293 -1 14594 -1 30 -2
1791 -1 471 -1 424 -1 769 -1 7019 -1 30 -2
2622 -1 32 -1 250 -1 12900 -1 400 -1 370 -1 950 -1 8362 -1 608 -2
906 -1 76 -1 65 -1 1552 -1 138863 -1 160 -1 148408 -1 2 -1 65 -1 441 -1 5465 -1 271 -2
484 -1 4289 -1 160 -1 41 -1 1667 -1 271 -2
113 -1 571 -1 41 -1 30 -2
5543 -1 11742 -1 237 -1 3 -1 600 -1 163 -1 471 -1 30 -2
113 -1 833 -1 182 -1 154 -1 2 -1 17 -1 65 -1 380 -1 106 -1 278 -1 65 -1 2880 -1 377 -1 30 -2
616 -1 1966 -1 238 -1 3 -1 50 -1 9682 -1 497 -1 30 -2
41 -1 798 -1 17 -1 182 -1 1 -2
113 -1 1130 -1 970 -1 65 -1 753 -1 32 -1 16748 -1 277 -1 16255 -1 9 -1 28 -1 26 -1 143891 -1 113 -1 571 -1 182 -1 271 -2
9 -1 32943 -1 148412 -1 148411 -1 725 -1 17427 -1 148413 -1 148409 -1 9 -1 28 -1 26 -1 148415 -1 14594 -1 18840 -1 1307 -1 557 -1 76 -1 453 -1 373 -1 419 -1 64 -1 1334 -1 635 -1 141955 -1 9 -1 148414 -1 98 -1 89 -1 95 -1 10855 -1 8018 -1 148410 -1 3912 -1 2235 -1 692 -1 471 -1 271 -2
250 -1 3 -1 3959 -1 438 -1 77 -1 8362 -1 554 -1 9 -1 28 -1 26 -1 4025 -1 148416 -1 223 -1 424 -1 600 -1 3713 -1 1667 -1 271 -2