2 -1 #SUP: 50
3 -1 #SUP: 102
7 -1 #SUP: 33
10 -1 #SUP: 21
13 -1 #SUP: 3
15 -1 #SUP: 2
16 -1 #SUP: 10
22 -1 #SUP: 41
27 -1 #SUP: 5
29 -1 #SUP: 5
31 -1 #SUP: 24
32 -1 #SUP: 23
33 -1 #SUP: 12
35 -1 #SUP: 2
41 -1 #SUP: 26
44 -1 #SUP: 3
46 -1 #SUP: 2
47 -1 #SUP: 2
49 -1 #SUP: 2
50 -1 #SUP: 23
52 -1 #SUP: 4
54 -1 #SUP: 6
57 -1 #SUP: 4
64 -1 #SUP: 50
65 -1 #SUP: 49
66 -1 #SUP: 11
72 -1 #SUP: 3
74 -1 #SUP: 6
75 -1 #SUP: 15
76 -1 #SUP: 46
77 -1 #SUP: 5
81 -1 #SUP: 4
113 -1 #SUP: 145
115 -1 #SUP: 10
118 -1 #SUP: 7
121 -1 #SUP: 2
123 -1 #SUP: 2
125 -1 #SUP: 2
129 -1 #SUP: 7
131 -1 #SUP: 4
137 -1 #SUP: 2
141 -1 #SUP: 15
148 -1 #SUP: 5
149 -1 #SUP: 4
150 -1 #SUP: 2
151 -1 #SUP: 16
152 -1 #SUP: 2
154 -1 #SUP: 6
156 -1 #SUP: 8
158 -1 #SUP: 15
160 -1 #SUP: 9
161 -1 #SUP: 8
163 -1 #SUP: 4
165 -1 #SUP: 3
168 -1 #SUP: 3
178 -1 #SUP: 2
179 -1 #SUP: 2
182 -1 #SUP: 30
185 -1 #SUP: 3
186 -1 #SUP: 2
187 -1 #SUP: 8
189 -1 #SUP: 5
190 -1 #SUP: 10
194 -1 #SUP: 9
200 -1 #SUP: 9
201 -1 #SUP: 2
208 -1 #SUP: 6
211 -1 #SUP: 5
213 -1 #SUP: 4
214 -1 #SUP: 5
220 -1 #SUP: 2
221 -1 #SUP: 3
224 -1 #SUP: 6
225 -1 #SUP: 2
226 -1 #SUP: 2
229 -1 #SUP: 2
232 -1 #SUP: 4
234 -1 #SUP: 3
236 -1 #SUP: 5
242 -1 #SUP: 5
243 -1 #SUP: 3
244 -1 #SUP: 5
248 -1 #SUP: 11
250 -1 #SUP: 9
251 -1 #SUP: 2
256 -1 #SUP: 11
264 -1 #SUP: 4
266 -1 #SUP: 2
268 -1 #SUP: 2
272 -1 #SUP: 2
273 -1 #SUP: 3
277 -1 #SUP: 3
278 -1 #SUP: 9
296 -1 #SUP: 3
308 -1 #SUP: 4
312 -1 #SUP: 13
326 -1 #SUP: 9
339 -1 #SUP: 3
340 -1 #SUP: 10
342 -1 #SUP: 7
348 -1 #SUP: 2
356 -1 #SUP: 5
358 -1 #SUP: 2
364 -1 #SUP: 4
377 -1 #SUP: 2
385 -1 #SUP: 4
388 -1 #SUP: 3
394 -1 #SUP: 3
401 -1 #SUP: 2
403 -1 #SUP: 4
405 -1 #SUP: 2
406 -1 #SUP: 9
417 -1 #SUP: 12
424 -1 #SUP: 2
435 -1 #SUP: 4
443 -1 #SUP: 2
448 -1 #SUP: 2
463 -1 #SUP: 4
469 -1 #SUP: 23
482 -1 #SUP: 5
484 -1 #SUP: 18
493 -1 #SUP: 3
497 -1 #SUP: 2
500 -1 #SUP: 2
504 -1 #SUP: 9
506 -1 #SUP: 3
510 -1 #SUP: 6
511 -1 #SUP: 3
517 -1 #SUP: 4
518 -1 #SUP: 2
527 -1 #SUP: 3
548 -1 #SUP: 2
549 -1 #SUP: 2
557 -1 #SUP: 11
561 -1 #SUP: 5
566 -1 #SUP: 4
571 -1 #SUP: 3
625 -1 #SUP: 9
635 -1 #SUP: 7
636 -1 #SUP: 5
640 -1 #SUP: 2
644 -1 #SUP: 2
670 -1 #SUP: 2
686 -1 #SUP: 2
699 -1 #SUP: 2
702 -1 #SUP: 6
703 -1 #SUP: 2
706 -1 #SUP: 3
711 -1 #SUP: 3
728 -1 #SUP: 3
745 -1 #SUP: 2
747 -1 #SUP: 4
757 -1 #SUP: 2
758 -1 #SUP: 2
773 -1 #SUP: 2
786 -1 #SUP: 7
789 -1 #SUP: 2
791 -1 #SUP: 2
798 -1 #SUP: 2
814 -1 #SUP: 2
870 -1 #SUP: 2
871 -1 #SUP: 2
886 -1 #SUP: 2
929 -1 #SUP: 3
932 -1 #SUP: 2
936 -1 #SUP: 4
1017 -1 #SUP: 2
1031 -1 #SUP: 3
1099 -1 #SUP: 3
1100 -1 #SUP: 5
1106 -1 #SUP: 4
1120 -1 #SUP: 2
1121 -1 #SUP: 3
1217 -1 #SUP: 2
1327 -1 #SUP: 7
1467 -1 #SUP: 5
1483 -1 #SUP: 2
1515 -1 #SUP: 2
1524 -1 #SUP: 4
1559 -1 #SUP: 2
1588 -1 #SUP: 3
1615 -1 #SUP: 2
1621 -1 #SUP: 2
1640 -1 #SUP: 2
1801 -1 #SUP: 2
1845 -1 #SUP: 2
1881 -1 #SUP: 2
1915 -1 #SUP: 2
1956 -1 #SUP: 2
2005 -1 #SUP: 2
2029 -1 #SUP: 2
2133 -1 #SUP: 3
2211 -1 #SUP: 2
2278 -1 #SUP: 6
2295 -1 #SUP: 2
2404 -1 #SUP: 2
2460 -1 #SUP: 2
2880 -1 #SUP: 2
3146 -1 #SUP: 2
3379 -1 #SUP: 3
3618 -1 #SUP: 2
3681 -1 #SUP: 4
4452 -1 #SUP: 3
4481 -1 #SUP: 2
5293 -1 #SUP: 2
6736 -1 #SUP: 2
7532 -1 #SUP: 2
8159 -1 #SUP: 2
10580 -1 #SUP: 2
22529 -1 #SUP: 2
2 -1 2 -1 #SUP: 6
2 -1 3 -1 #SUP: 13
2 -1 7 -1 #SUP: 5
2 -1 22 -1 #SUP: 7
2 -1 31 -1 #SUP: 3
2 -1 32 -1 #SUP: 2
2 -1 33 -1 #SUP: 3
2 -1 50 -1 #SUP: 4
2 -1 64 -1 #SUP: 6
2 -1 65 -1 #SUP: 6
2 -1 76 -1 #SUP: 3
2 -1 81 -1 #SUP: 2
2 -1 113 -1 #SUP: 12
2 -1 118 -1 #SUP: 2
2 -1 160 -1 #SUP: 2
2 -1 178 -1 #SUP: 2
2 -1 182 -1 #SUP: 6
2 -1 189 -1 #SUP: 2
2 -1 200 -1 #SUP: 3
2 -1 213 -1 #SUP: 2
2 -1 256 -1 #SUP: 2
2 -1 278 -1 #SUP: 3
2 -1 339 -1 #SUP: 2
2 -1 356 -1 #SUP: 2
2 -1 406 -1 #SUP: 2
2 -1 417 -1 #SUP: 2
2 -1 469 -1 #SUP: 2
2 -1 791 -1 #SUP: 2
2 -1 1524 -1 #SUP: 3
3 -1 2 -1 #SUP: 12
3 -1 3 -1 #SUP: 11
3 -1 7 -1 #SUP: 6
3 -1 10 -1 #SUP: 9
3 -1 13 -1 #SUP: 2
3 -1 16 -1 #SUP: 5
3 -1 22 -1 #SUP: 10
3 -1 27 -1 #SUP: 3
3 -1 31 -1 #SUP: 10
3 -1 32 -1 #SUP: 8
3 -1 33 -1 #SUP: 3
3 -1 50 -1 #SUP: 7
3 -1 64 -1 #SUP: 23
3 -1 65 -1 #SUP: 25
3 -1 74 -1 #SUP: 2
3 -1 75 -1 #SUP: 7
3 -1 76 -1 #SUP: 9
3 -1 77 -1 #SUP: 2
3 -1 113 -1 #SUP: 21
3 -1 115 -1 #SUP: 6
3 -1 118 -1 #SUP: 2
3 -1 129 -1 #SUP: 2
3 -1 141 -1 #SUP: 3
3 -1 148 -1 #SUP: 2
3 -1 149 -1 #SUP: 2
3 -1 151 -1 #SUP: 6
3 -1 152 -1 #SUP: 2
3 -1 154 -1 #SUP: 2
3 -1 158 -1 #SUP: 2
3 -1 160 -1 #SUP: 4
3 -1 163 -1 #SUP: 3
3 -1 182 -1 #SUP: 3
3 -1 185 -1 #SUP: 2
3 -1 187 -1 #SUP: 2
3 -1 190 -1 #SUP: 3
3 -1 200 -1 #SUP: 4
3 -1 211 -1 #SUP: 2
3 -1 213 -1 #SUP: 3
3 -1 244 -1 #SUP: 2
3 -1 248 -1 #SUP: 5
3 -1 256 -1 #SUP: 3
3 -1 264 -1 #SUP: 3
3 -1 266 -1 #SUP: 2
3 -1 272 -1 #SUP: 2
3 -1 273 -1 #SUP: 2
3 -1 278 -1 #SUP: 3
3 -1 296 -1 #SUP: 3
3 -1 312 -1 #SUP: 6
3 -1 340 -1 #SUP: 5
3 -1 348 -1 #SUP: 2
3 -1 364 -1 #SUP: 2
3 -1 385 -1 #SUP: 2
3 -1 394 -1 #SUP: 3
3 -1 406 -1 #SUP: 6
3 -1 417 -1 #SUP: 2
3 -1 435 -1 #SUP: 3
3 -1 469 -1 #SUP: 4
3 -1 482 -1 #SUP: 2
3 -1 484 -1 #SUP: 5
3 -1 511 -1 #SUP: 2
3 -1 517 -1 #SUP: 3
3 -1 557 -1 #SUP: 4
3 -1 561 -1 #SUP: 2
3 -1 566 -1 #SUP: 3
3 -1 635 -1 #SUP: 3
3 -1 636 -1 #SUP: 2
3 -1 702 -1 #SUP: 2
3 -1 706 -1 #SUP: 3
3 -1 728 -1 #SUP: 3
3 -1 758 -1 #SUP: 2
3 -1 786 -1 #SUP: 4
3 -1 789 -1 #SUP: 2
3 -1 870 -1 #SUP: 2
3 -1 871 -1 #SUP: 2
3 -1 1588 -1 #SUP: 3
3 -1 1621 -1 #SUP: 2
3 -1 1801 -1 #SUP: 2
3 -1 2278 -1 #SUP: 4
3 -1 3618 -1 #SUP: 2
3 -1 4452 -1 #SUP: 2
3 -1 5293 -1 #SUP: 2
7 -1 2 -1 #SUP: 4
7 -1 3 -1 #SUP: 13
7 -1 7 -1 #SUP: 3
7 -1 10 -1 #SUP: 3
7 -1 13 -1 #SUP: 2
7 -1 22 -1 #SUP: 5
7 -1 31 -1 #SUP: 4
7 -1 32 -1 #SUP: 3
7 -1 33 -1 #SUP: 3
7 -1 41 -1 #SUP: 2
7 -1 49 -1 #SUP: 2
7 -1 50 -1 #SUP: 3
7 -1 64 -1 #SUP: 5
7 -1 65 -1 #SUP: 15
7 -1 74 -1 #SUP: 2
7 -1 76 -1 #SUP: 2
7 -1 113 -1 #SUP: 5
7 -1 129 -1 #SUP: 2
7 -1 151 -1 #SUP: 3
7 -1 160 -1 #SUP: 5
7 -1 168 -1 #SUP: 2
7 -1 248 -1 #SUP: 2
7 -1 312 -1 #SUP: 3
7 -1 364 -1 #SUP: 2
7 -1 385 -1 #SUP: 3
7 -1 403 -1 #SUP: 2
7 -1 469 -1 #SUP: 2
7 -1 484 -1 #SUP: 3
7 -1 566 -1 #SUP: 3
7 -1 706 -1 #SUP: 2
7 -1 1100 -1 #SUP: 2
7 -1 1588 -1 #SUP: 3
7 -1 2295 -1 #SUP: 2
10 -1 2 -1 #SUP: 3
10 -1 3 -1 #SUP: 5
10 -1 7 -1 #SUP: 3
10 -1 22 -1 #SUP: 4
10 -1 64 -1 #SUP: 4
10 -1 65 -1 #SUP: 8
10 -1 74 -1 #SUP: 3
10 -1 76 -1 #SUP: 4
10 -1 113 -1 #SUP: 3
10 -1 151 -1 #SUP: 2
10 -1 248 -1 #SUP: 2
10 -1 312 -1 #SUP: 2
10 -1 1588 -1 #SUP: 2
10 -1 2278 -1 #SUP: 4
15 -1 22 -1 #SUP: 2
15 -1 32 -1 #SUP: 2
16 -1 7 -1 #SUP: 2
16 -1 22 -1 #SUP: 2
16 -1 32 -1 #SUP: 2
16 -1 64 -1 #SUP: 2
16 -1 72 -1 #SUP: 2
16 -1 76 -1 #SUP: 2
16 -1 113 -1 #SUP: 3
16 -1 1467 -1 #SUP: 2
16 -1 2133 -1 #SUP: 2
22 -1 2 -1 #SUP: 3
22 -1 3 -1 #SUP: 6
22 -1 7 -1 #SUP: 5
22 -1 10 -1 #SUP: 2
22 -1 22 -1 #SUP: 2
22 -1 31 -1 #SUP: 3
22 -1 32 -1 #SUP: 6
22 -1 64 -1 #SUP: 3
22 -1 65 -1 #SUP: 6
22 -1 72 -1 #SUP: 2
22 -1 74 -1 #SUP: 3
22 -1 75 -1 #SUP: 4
22 -1 76 -1 #SUP: 7
22 -1 113 -1 #SUP: 7
22 -1 129 -1 #SUP: 6
22 -1 141 -1 #SUP: 2
22 -1 148 -1 #SUP: 2
22 -1 149 -1 #SUP: 2
22 -1 182 -1 #SUP: 3
22 -1 187 -1 #SUP: 2
22 -1 385 -1 #SUP: 2
22 -1 417 -1 #SUP: 3
22 -1 484 -1 #SUP: 2
22 -1 511 -1 #SUP: 2
22 -1 557 -1 #SUP: 2
22 -1 566 -1 #SUP: 2
22 -1 670 -1 #SUP: 2
22 -1 1956 -1 #SUP: 2
27 -1 2 -1 #SUP: 2
27 -1 3 -1 #SUP: 3
27 -1 31 -1 #SUP: 2
27 -1 50 -1 #SUP: 2
27 -1 64 -1 #SUP: 3
27 -1 113 -1 #SUP: 3
27 -1 141 -1 #SUP: 3
27 -1 156 -1 #SUP: 2
29 -1 41 -1 #SUP: 2
29 -1 64 -1 #SUP: 2
29 -1 141 -1 #SUP: 2
29 -1 640 -1 #SUP: 2
31 -1 2 -1 #SUP: 2
31 -1 22 -1 #SUP: 5
31 -1 64 -1 #SUP: 4
31 -1 113 -1 #SUP: 8
31 -1 125 -1 #SUP: 2
31 -1 385 -1 #SUP: 2
31 -1 484 -1 #SUP: 2
31 -1 1588 -1 #SUP: 2
32 -1 2 -1 #SUP: 2
32 -1 3 -1 #SUP: 7
32 -1 10 -1 #SUP: 2
32 -1 22 -1 #SUP: 6
32 -1 50 -1 #SUP: 2
32 -1 64 -1 #SUP: 4
32 -1 65 -1 #SUP: 3
32 -1 75 -1 #SUP: 2
32 -1 113 -1 #SUP: 5
32 -1 115 -1 #SUP: 2
32 -1 151 -1 #SUP: 2
32 -1 182 -1 #SUP: 2
33 -1 2 -1 #SUP: 3
33 -1 3 -1 #SUP: 2
33 -1 22 -1 #SUP: 3
33 -1 29 -1 #SUP: 2
33 -1 64 -1 #SUP: 2
33 -1 141 -1 #SUP: 2
33 -1 250 -1 #SUP: 2
33 -1 640 -1 #SUP: 2
41 -1 2 -1 #SUP: 4
41 -1 3 -1 #SUP: 3
41 -1 22 -1 #SUP: 4
41 -1 29 -1 #SUP: 4
41 -1 31 -1 #SUP: 2
41 -1 33 -1 #SUP: 3
41 -1 41 -1 #SUP: 6
41 -1 64 -1 #SUP: 7
41 -1 65 -1 #SUP: 3
41 -1 66 -1 #SUP: 2
41 -1 76 -1 #SUP: 2
41 -1 113 -1 #SUP: 3
41 -1 141 -1 #SUP: 3
41 -1 151 -1 #SUP: 2
41 -1 158 -1 #SUP: 4
41 -1 208 -1 #SUP: 3
41 -1 236 -1 #SUP: 4
41 -1 312 -1 #SUP: 5
41 -1 326 -1 #SUP: 5
41 -1 364 -1 #SUP: 2
41 -1 443 -1 #SUP: 2
41 -1 469 -1 #SUP: 2
41 -1 484 -1 #SUP: 3
41 -1 504 -1 #SUP: 2
41 -1 510 -1 #SUP: 3
41 -1 625 -1 #SUP: 4
41 -1 786 -1 #SUP: 2
41 -1 1467 -1 #SUP: 2
44 -1 3 -1 #SUP: 2
44 -1 113 -1 #SUP: 2
46 -1 3 -1 #SUP: 2
50 -1 2 -1 #SUP: 3
50 -1 3 -1 #SUP: 8
50 -1 50 -1 #SUP: 3
50 -1 64 -1 #SUP: 3
50 -1 65 -1 #SUP: 4
50 -1 76 -1 #SUP: 2
50 -1 113 -1 #SUP: 5
50 -1 115 -1 #SUP: 2
50 -1 406 -1 #SUP: 2
50 -1 557 -1 #SUP: 2
50 -1 773 -1 #SUP: 2
50 -1 1106 -1 #SUP: 4
50 -1 1881 -1 #SUP: 2
50 -1 2404 -1 #SUP: 2
52 -1 75 -1 #SUP: 2
52 -1 250 -1 #SUP: 2
52 -1 278 -1 #SUP: 2
54 -1 2 -1 #SUP: 2
54 -1 64 -1 #SUP: 2
54 -1 113 -1 #SUP: 2
54 -1 141 -1 #SUP: 2
57 -1 3 -1 #SUP: 2
57 -1 66 -1 #SUP: 2
57 -1 76 -1 #SUP: 2
57 -1 113 -1 #SUP: 2
57 -1 757 -1 #SUP: 2
57 -1 3681 -1 #SUP: 2
64 -1 2 -1 #SUP: 5
64 -1 3 -1 #SUP: 6
64 -1 10 -1 #SUP: 2
64 -1 16 -1 #SUP: 2
64 -1 22 -1 #SUP: 5
64 -1 31 -1 #SUP: 2
64 -1 32 -1 #SUP: 2
64 -1 33 -1 #SUP: 3
64 -1 41 -1 #SUP: 4
64 -1 50 -1 #SUP: 5
64 -1 54 -1 #SUP: 2
64 -1 64 -1 #SUP: 7
64 -1 65 -1 #SUP: 4
64 -1 75 -1 #SUP: 4
64 -1 76 -1 #SUP: 2
64 -1 77 -1 #SUP: 3
64 -1 81 -1 #SUP: 2
64 -1 113 -1 #SUP: 5
64 -1 141 -1 #SUP: 6
64 -1 149 -1 #SUP: 2
64 -1 151 -1 #SUP: 5
64 -1 154 -1 #SUP: 2
64 -1 158 -1 #SUP: 2
64 -1 182 -1 #SUP: 3
64 -1 214 -1 #SUP: 2
64 -1 256 -1 #SUP: 3
64 -1 469 -1 #SUP: 3
64 -1 557 -1 #SUP: 2
64 -1 636 -1 #SUP: 3
64 -1 640 -1 #SUP: 2
64 -1 1467 -1 #SUP: 2
64 -1 1621 -1 #SUP: 2
65 -1 2 -1 #SUP: 11
65 -1 3 -1 #SUP: 6
65 -1 10 -1 #SUP: 4
65 -1 22 -1 #SUP: 6
65 -1 31 -1 #SUP: 4
65 -1 32 -1 #SUP: 6
65 -1 33 -1 #SUP: 2
65 -1 49 -1 #SUP: 2
65 -1 50 -1 #SUP: 5
65 -1 64 -1 #SUP: 6
65 -1 65 -1 #SUP: 4
65 -1 74 -1 #SUP: 4
65 -1 76 -1 #SUP: 4
65 -1 113 -1 #SUP: 6
65 -1 129 -1 #SUP: 2
65 -1 149 -1 #SUP: 2
65 -1 151 -1 #SUP: 3
65 -1 160 -1 #SUP: 4
65 -1 163 -1 #SUP: 2
65 -1 182 -1 #SUP: 2
65 -1 200 -1 #SUP: 2
65 -1 220 -1 #SUP: 2
65 -1 226 -1 #SUP: 2
65 -1 248 -1 #SUP: 4
65 -1 251 -1 #SUP: 2
65 -1 256 -1 #SUP: 2
65 -1 264 -1 #SUP: 2
65 -1 278 -1 #SUP: 3
65 -1 385 -1 #SUP: 3
65 -1 406 -1 #SUP: 2
65 -1 517 -1 #SUP: 2
65 -1 561 -1 #SUP: 3
65 -1 625 -1 #SUP: 2
65 -1 1100 -1 #SUP: 5
65 -1 1588 -1 #SUP: 2
65 -1 1801 -1 #SUP: 2
65 -1 2029 -1 #SUP: 2
65 -1 2278 -1 #SUP: 3
65 -1 2880 -1 #SUP: 2
66 -1 2 -1 #SUP: 2
66 -1 3 -1 #SUP: 3
66 -1 22 -1 #SUP: 3
66 -1 31 -1 #SUP: 2
66 -1 76 -1 #SUP: 4
66 -1 113 -1 #SUP: 4
66 -1 561 -1 #SUP: 2
74 -1 3 -1 #SUP: 3
74 -1 7 -1 #SUP: 3
74 -1 182 -1 #SUP: 2
75 -1 2 -1 #SUP: 2
75 -1 3 -1 #SUP: 2
75 -1 7 -1 #SUP: 2
75 -1 10 -1 #SUP: 2
75 -1 22 -1 #SUP: 2
75 -1 64 -1 #SUP: 2
75 -1 65 -1 #SUP: 2
75 -1 75 -1 #SUP: 2
75 -1 113 -1 #SUP: 3
75 -1 115 -1 #SUP: 2
75 -1 182 -1 #SUP: 2
75 -1 417 -1 #SUP: 3
75 -1 557 -1 #SUP: 2
76 -1 2 -1 #SUP: 8
76 -1 3 -1 #SUP: 9
76 -1 7 -1 #SUP: 6
76 -1 10 -1 #SUP: 3
76 -1 22 -1 #SUP: 4
76 -1 31 -1 #SUP: 2
76 -1 32 -1 #SUP: 2
76 -1 50 -1 #SUP: 3
76 -1 64 -1 #SUP: 5
76 -1 65 -1 #SUP: 7
76 -1 75 -1 #SUP: 3
76 -1 76 -1 #SUP: 5
76 -1 113 -1 #SUP: 14
76 -1 118 -1 #SUP: 2
76 -1 154 -1 #SUP: 2
76 -1 182 -1 #SUP: 3
76 -1 194 -1 #SUP: 3
76 -1 214 -1 #SUP: 3
76 -1 340 -1 #SUP: 2
76 -1 406 -1 #SUP: 2
76 -1 417 -1 #SUP: 3
76 -1 469 -1 #SUP: 3
76 -1 484 -1 #SUP: 3
76 -1 557 -1 #SUP: 5
76 -1 561 -1 #SUP: 2
76 -1 635 -1 #SUP: 2
76 -1 936 -1 #SUP: 2
76 -1 3146 -1 #SUP: 2
77 -1 10 -1 #SUP: 2
77 -1 65 -1 #SUP: 2
81 -1 64 -1 #SUP: 3
113 -1 2 -1 #SUP: 20
113 -1 3 -1 #SUP: 62
113 -1 7 -1 #SUP: 18
113 -1 10 -1 #SUP: 17
113 -1 16 -1 #SUP: 4
113 -1 22 -1 #SUP: 16
113 -1 27 -1 #SUP: 4
113 -1 31 -1 #SUP: 8
113 -1 32 -1 #SUP: 10
113 -1 33 -1 #SUP: 6
113 -1 41 -1 #SUP: 2
113 -1 47 -1 #SUP: 2
113 -1 49 -1 #SUP: 2
113 -1 50 -1 #SUP: 6
113 -1 52 -1 #SUP: 3
113 -1 64 -1 #SUP: 21
113 -1 65 -1 #SUP: 26
113 -1 66 -1 #SUP: 4
113 -1 74 -1 #SUP: 2
113 -1 75 -1 #SUP: 4
113 -1 76 -1 #SUP: 14
113 -1 77 -1 #SUP: 2
113 -1 81 -1 #SUP: 3
113 -1 113 -1 #SUP: 30
113 -1 115 -1 #SUP: 6
113 -1 118 -1 #SUP: 5
113 -1 129 -1 #SUP: 3
113 -1 137 -1 #SUP: 2
113 -1 141 -1 #SUP: 7
113 -1 148 -1 #SUP: 3
113 -1 150 -1 #SUP: 2
113 -1 151 -1 #SUP: 5
113 -1 154 -1 #SUP: 2
113 -1 156 -1 #SUP: 5
113 -1 158 -1 #SUP: 7
113 -1 160 -1 #SUP: 6
113 -1 161 -1 #SUP: 7
113 -1 163 -1 #SUP: 3
113 -1 165 -1 #SUP: 2
113 -1 179 -1 #SUP: 2
113 -1 182 -1 #SUP: 13
113 -1 185 -1 #SUP: 2
113 -1 187 -1 #SUP: 5
113 -1 189 -1 #SUP: 3
113 -1 190 -1 #SUP: 4
113 -1 194 -1 #SUP: 9
113 -1 200 -1 #SUP: 2
113 -1 208 -1 #SUP: 5
113 -1 211 -1 #SUP: 2
113 -1 213 -1 #SUP: 4
113 -1 214 -1 #SUP: 3
113 -1 224 -1 #SUP: 2
113 -1 242 -1 #SUP: 2
113 -1 244 -1 #SUP: 2
113 -1 248 -1 #SUP: 7
113 -1 250 -1 #SUP: 5
113 -1 251 -1 #SUP: 2
113 -1 256 -1 #SUP: 6
113 -1 264 -1 #SUP: 4
113 -1 266 -1 #SUP: 2
113 -1 278 -1 #SUP: 7
113 -1 312 -1 #SUP: 4
113 -1 326 -1 #SUP: 3
113 -1 340 -1 #SUP: 6
113 -1 385 -1 #SUP: 3
113 -1 388 -1 #SUP: 3
113 -1 406 -1 #SUP: 7
113 -1 417 -1 #SUP: 2
113 -1 435 -1 #SUP: 2
113 -1 463 -1 #SUP: 3
113 -1 469 -1 #SUP: 7
113 -1 484 -1 #SUP: 5
113 -1 497 -1 #SUP: 2
113 -1 500 -1 #SUP: 2
113 -1 504 -1 #SUP: 8
113 -1 506 -1 #SUP: 2
113 -1 511 -1 #SUP: 2
113 -1 517 -1 #SUP: 2
113 -1 549 -1 #SUP: 2
113 -1 557 -1 #SUP: 4
113 -1 625 -1 #SUP: 2
113 -1 636 -1 #SUP: 3
113 -1 670 -1 #SUP: 2
113 -1 686 -1 #SUP: 2
113 -1 711 -1 #SUP: 3
113 -1 728 -1 #SUP: 3
113 -1 773 -1 #SUP: 2
113 -1 786 -1 #SUP: 6
113 -1 870 -1 #SUP: 2
113 -1 871 -1 #SUP: 2
113 -1 929 -1 #SUP: 3
113 -1 1031 -1 #SUP: 2
113 -1 1099 -1 #SUP: 3
113 -1 1327 -1 #SUP: 6
113 -1 1483 -1 #SUP: 2
113 -1 1559 -1 #SUP: 2
113 -1 1588 -1 #SUP: 2
113 -1 1615 -1 #SUP: 2
113 -1 1640 -1 #SUP: 2
113 -1 1801 -1 #SUP: 2
113 -1 1845 -1 #SUP: 2
113 -1 1915 -1 #SUP: 2
113 -1 2005 -1 #SUP: 2
113 -1 2133 -1 #SUP: 3
113 -1 2278 -1 #SUP: 6
113 -1 2295 -1 #SUP: 2
113 -1 2460 -1 #SUP: 2
113 -1 3618 -1 #SUP: 2
113 -1 4452 -1 #SUP: 3
113 -1 5293 -1 #SUP: 2
115 -1 2 -1 #SUP: 2
115 -1 3 -1 #SUP: 2
115 -1 22 -1 #SUP: 3
115 -1 65 -1 #SUP: 3
115 -1 75 -1 #SUP: 4
115 -1 121 -1 #SUP: 2
115 -1 129 -1 #SUP: 3
115 -1 182 -1 #SUP: 2
118 -1 2 -1 #SUP: 2
118 -1 22 -1 #SUP: 2
118 -1 33 -1 #SUP: 2
118 -1 182 -1 #SUP: 2
118 -1 469 -1 #SUP: 2
118 -1 1031 -1 #SUP: 2
129 -1 65 -1 #SUP: 2
129 -1 75 -1 #SUP: 2
129 -1 670 -1 #SUP: 2
137 -1 50 -1 #SUP: 2
141 -1 2 -1 #SUP: 2
141 -1 7 -1 #SUP: 2
141 -1 22 -1 #SUP: 4
141 -1 29 -1 #SUP: 2
141 -1 32 -1 #SUP: 3
141 -1 33 -1 #SUP: 2
141 -1 50 -1 #SUP: 2
141 -1 64 -1 #SUP: 4
141 -1 141 -1 #SUP: 4
141 -1 151 -1 #SUP: 3
141 -1 182 -1 #SUP: 2
141 -1 640 -1 #SUP: 2
148 -1 2 -1 #SUP: 2
148 -1 64 -1 #SUP: 2
148 -1 113 -1 #SUP: 3
148 -1 150 -1 #SUP: 2
149 -1 484 -1 #SUP: 2
151 -1 3 -1 #SUP: 6
151 -1 41 -1 #SUP: 2
151 -1 50 -1 #SUP: 2
151 -1 64 -1 #SUP: 2
151 -1 65 -1 #SUP: 3
151 -1 113 -1 #SUP: 3
151 -1 151 -1 #SUP: 2
151 -1 182 -1 #SUP: 2
151 -1 190 -1 #SUP: 2
151 -1 510 -1 #SUP: 2
154 -1 2 -1 #SUP: 3
156 -1 50 -1 #SUP: 2
156 -1 64 -1 #SUP: 7
156 -1 76 -1 #SUP: 2
156 -1 141 -1 #SUP: 2
156 -1 214 -1 #SUP: 2
156 -1 469 -1 #SUP: 2
156 -1 636 -1 #SUP: 2
158 -1 2 -1 #SUP: 3
158 -1 3 -1 #SUP: 7
158 -1 41 -1 #SUP: 4
158 -1 64 -1 #SUP: 5
158 -1 66 -1 #SUP: 2
158 -1 113 -1 #SUP: 8
158 -1 115 -1 #SUP: 2
158 -1 189 -1 #SUP: 3
158 -1 273 -1 #SUP: 2
158 -1 278 -1 #SUP: 2
158 -1 443 -1 #SUP: 2
158 -1 1099 -1 #SUP: 2
160 -1 2 -1 #SUP: 3
160 -1 22 -1 #SUP: 2
160 -1 31 -1 #SUP: 2
160 -1 50 -1 #SUP: 2
160 -1 113 -1 #SUP: 2
160 -1 339 -1 #SUP: 2
160 -1 469 -1 #SUP: 2
161 -1 3 -1 #SUP: 5
161 -1 31 -1 #SUP: 2
161 -1 32 -1 #SUP: 2
161 -1 64 -1 #SUP: 2
161 -1 65 -1 #SUP: 2
161 -1 75 -1 #SUP: 2
161 -1 113 -1 #SUP: 3
161 -1 504 -1 #SUP: 2
163 -1 113 -1 #SUP: 2
168 -1 3 -1 #SUP: 2
168 -1 32 -1 #SUP: 2
168 -1 64 -1 #SUP: 2
168 -1 65 -1 #SUP: 2
168 -1 151 -1 #SUP: 2
168 -1 706 -1 #SUP: 2
182 -1 2 -1 #SUP: 4
182 -1 3 -1 #SUP: 16
182 -1 10 -1 #SUP: 2
182 -1 22 -1 #SUP: 2
182 -1 31 -1 #SUP: 4
182 -1 32 -1 #SUP: 3
182 -1 41 -1 #SUP: 2
182 -1 50 -1 #SUP: 2
182 -1 64 -1 #SUP: 6
182 -1 65 -1 #SUP: 5
182 -1 75 -1 #SUP: 2
182 -1 76 -1 #SUP: 2
182 -1 113 -1 #SUP: 8
182 -1 154 -1 #SUP: 2
182 -1 161 -1 #SUP: 2
182 -1 182 -1 #SUP: 2
182 -1 200 -1 #SUP: 3
182 -1 256 -1 #SUP: 2
182 -1 273 -1 #SUP: 2
182 -1 312 -1 #SUP: 2
182 -1 356 -1 #SUP: 3
182 -1 557 -1 #SUP: 2
182 -1 2880 -1 #SUP: 2
185 -1 2 -1 #SUP: 2
187 -1 2 -1 #SUP: 3
187 -1 113 -1 #SUP: 4
187 -1 190 -1 #SUP: 2
187 -1 256 -1 #SUP: 2
189 -1 2 -1 #SUP: 2
189 -1 3 -1 #SUP: 2
189 -1 50 -1 #SUP: 2
190 -1 2 -1 #SUP: 2
190 -1 3 -1 #SUP: 6
190 -1 22 -1 #SUP: 2
190 -1 31 -1 #SUP: 2
190 -1 113 -1 #SUP: 5
190 -1 187 -1 #SUP: 2
190 -1 190 -1 #SUP: 2
190 -1 469 -1 #SUP: 2
190 -1 635 -1 #SUP: 2
194 -1 3 -1 #SUP: 6
194 -1 31 -1 #SUP: 3
194 -1 64 -1 #SUP: 2
194 -1 113 -1 #SUP: 5
194 -1 161 -1 #SUP: 2
194 -1 182 -1 #SUP: 2
194 -1 250 -1 #SUP: 2
194 -1 469 -1 #SUP: 2
200 -1 16 -1 #SUP: 2
200 -1 31 -1 #SUP: 2
200 -1 32 -1 #SUP: 2
200 -1 64 -1 #SUP: 3
200 -1 113 -1 #SUP: 2
200 -1 151 -1 #SUP: 2
200 -1 469 -1 #SUP: 2
208 -1 3 -1 #SUP: 2
208 -1 10 -1 #SUP: 2
208 -1 64 -1 #SUP: 3
208 -1 65 -1 #SUP: 2
208 -1 113 -1 #SUP: 2
208 -1 2278 -1 #SUP: 3
211 -1 3 -1 #SUP: 3
211 -1 64 -1 #SUP: 2
211 -1 113 -1 #SUP: 3
213 -1 76 -1 #SUP: 2
213 -1 340 -1 #SUP: 2
214 -1 2 -1 #SUP: 2
214 -1 22 -1 #SUP: 2
220 -1 50 -1 #SUP: 2
220 -1 160 -1 #SUP: 2
224 -1 64 -1 #SUP: 3
224 -1 76 -1 #SUP: 4
224 -1 113 -1 #SUP: 3
224 -1 156 -1 #SUP: 3
224 -1 182 -1 #SUP: 2
224 -1 214 -1 #SUP: 2
224 -1 469 -1 #SUP: 2
224 -1 636 -1 #SUP: 2
229 -1 936 -1 #SUP: 2
232 -1 113 -1 #SUP: 2
236 -1 41 -1 #SUP: 4
236 -1 64 -1 #SUP: 2
236 -1 158 -1 #SUP: 4
236 -1 312 -1 #SUP: 4
236 -1 625 -1 #SUP: 4
242 -1 3 -1 #SUP: 4
242 -1 113 -1 #SUP: 2
242 -1 182 -1 #SUP: 2
243 -1 113 -1 #SUP: 2
244 -1 3 -1 #SUP: 2
244 -1 10 -1 #SUP: 2
244 -1 22 -1 #SUP: 3
244 -1 64 -1 #SUP: 2
244 -1 65 -1 #SUP: 2
244 -1 76 -1 #SUP: 2
248 -1 2 -1 #SUP: 4
248 -1 3 -1 #SUP: 4
248 -1 22 -1 #SUP: 3
248 -1 65 -1 #SUP: 2
248 -1 76 -1 #SUP: 2
248 -1 113 -1 #SUP: 2
248 -1 1121 -1 #SUP: 2
250 -1 3 -1 #SUP: 4
250 -1 7 -1 #SUP: 2
250 -1 10 -1 #SUP: 2
250 -1 64 -1 #SUP: 2
250 -1 65 -1 #SUP: 2
250 -1 75 -1 #SUP: 2
250 -1 113 -1 #SUP: 3
251 -1 3 -1 #SUP: 2
256 -1 2 -1 #SUP: 3
256 -1 3 -1 #SUP: 3
256 -1 22 -1 #SUP: 3
256 -1 31 -1 #SUP: 2
256 -1 64 -1 #SUP: 3
256 -1 76 -1 #SUP: 3
256 -1 113 -1 #SUP: 7
256 -1 115 -1 #SUP: 2
256 -1 182 -1 #SUP: 2
256 -1 406 -1 #SUP: 2
256 -1 2211 -1 #SUP: 2
264 -1 113 -1 #SUP: 2
266 -1 213 -1 #SUP: 2
272 -1 74 -1 #SUP: 2
273 -1 113 -1 #SUP: 2
277 -1 31 -1 #SUP: 2
278 -1 3 -1 #SUP: 2
278 -1 113 -1 #SUP: 2
278 -1 250 -1 #SUP: 2
312 -1 41 -1 #SUP: 4
312 -1 64 -1 #SUP: 3
312 -1 154 -1 #SUP: 2
312 -1 158 -1 #SUP: 4
312 -1 312 -1 #SUP: 2
312 -1 356 -1 #SUP: 2
312 -1 443 -1 #SUP: 2
312 -1 625 -1 #SUP: 4
326 -1 3 -1 #SUP: 3
326 -1 29 -1 #SUP: 2
326 -1 33 -1 #SUP: 2
326 -1 41 -1 #SUP: 5
326 -1 64 -1 #SUP: 4
326 -1 158 -1 #SUP: 4
326 -1 236 -1 #SUP: 5
326 -1 312 -1 #SUP: 4
326 -1 469 -1 #SUP: 2
326 -1 625 -1 #SUP: 5
340 -1 2 -1 #SUP: 3
340 -1 3 -1 #SUP: 3
340 -1 64 -1 #SUP: 3
340 -1 113 -1 #SUP: 2
340 -1 187 -1 #SUP: 2
342 -1 16 -1 #SUP: 3
342 -1 64 -1 #SUP: 3
356 -1 22 -1 #SUP: 3
356 -1 41 -1 #SUP: 2
356 -1 65 -1 #SUP: 2
358 -1 64 -1 #SUP: 2
364 -1 29 -1 #SUP: 2
364 -1 31 -1 #SUP: 2
364 -1 64 -1 #SUP: 2
364 -1 113 -1 #SUP: 2
394 -1 64 -1 #SUP: 2
394 -1 182 -1 #SUP: 2
401 -1 113 -1 #SUP: 2
401 -1 256 -1 #SUP: 2
403 -1 2 -1 #SUP: 2
403 -1 3 -1 #SUP: 2
403 -1 151 -1 #SUP: 2
406 -1 2 -1 #SUP: 2
406 -1 50 -1 #SUP: 2
406 -1 64 -1 #SUP: 3
406 -1 76 -1 #SUP: 4
406 -1 113 -1 #SUP: 2
406 -1 340 -1 #SUP: 2
417 -1 2 -1 #SUP: 3
417 -1 7 -1 #SUP: 7
417 -1 22 -1 #SUP: 2
417 -1 32 -1 #SUP: 2
417 -1 64 -1 #SUP: 2
417 -1 65 -1 #SUP: 5
417 -1 129 -1 #SUP: 2
417 -1 1100 -1 #SUP: 2
435 -1 64 -1 #SUP: 2
463 -1 2 -1 #SUP: 2
463 -1 187 -1 #SUP: 2
469 -1 2 -1 #SUP: 5
469 -1 3 -1 #SUP: 6
469 -1 16 -1 #SUP: 2
469 -1 31 -1 #SUP: 3
469 -1 50 -1 #SUP: 2
469 -1 64 -1 #SUP: 2
469 -1 65 -1 #SUP: 2
469 -1 66 -1 #SUP: 2
469 -1 76 -1 #SUP: 2
469 -1 113 -1 #SUP: 5
469 -1 151 -1 #SUP: 2
469 -1 156 -1 #SUP: 3
469 -1 182 -1 #SUP: 3
469 -1 200 -1 #SUP: 2
469 -1 214 -1 #SUP: 2
469 -1 242 -1 #SUP: 2
469 -1 469 -1 #SUP: 6
469 -1 636 -1 #SUP: 2
482 -1 113 -1 #SUP: 2
484 -1 3 -1 #SUP: 4
484 -1 7 -1 #SUP: 2
484 -1 10 -1 #SUP: 2
484 -1 29 -1 #SUP: 2
484 -1 31 -1 #SUP: 2
484 -1 50 -1 #SUP: 2
484 -1 64 -1 #SUP: 3
484 -1 65 -1 #SUP: 3
484 -1 76 -1 #SUP: 2
484 -1 113 -1 #SUP: 3
484 -1 342 -1 #SUP: 2
484 -1 364 -1 #SUP: 2
484 -1 406 -1 #SUP: 2
484 -1 484 -1 #SUP: 2
484 -1 566 -1 #SUP: 2
493 -1 312 -1 #SUP: 2
497 -1 76 -1 #SUP: 2
497 -1 113 -1 #SUP: 2
504 -1 3 -1 #SUP: 5
504 -1 65 -1 #SUP: 2
504 -1 66 -1 #SUP: 2
504 -1 75 -1 #SUP: 2
504 -1 113 -1 #SUP: 2
504 -1 182 -1 #SUP: 4
504 -1 312 -1 #SUP: 2
504 -1 635 -1 #SUP: 2
504 -1 2278 -1 #SUP: 2
506 -1 76 -1 #SUP: 2
510 -1 41 -1 #SUP: 2
510 -1 64 -1 #SUP: 3
510 -1 113 -1 #SUP: 4
517 -1 2 -1 #SUP: 2
548 -1 31 -1 #SUP: 2
557 -1 3 -1 #SUP: 3
557 -1 7 -1 #SUP: 3
557 -1 10 -1 #SUP: 3
557 -1 22 -1 #SUP: 4
557 -1 32 -1 #SUP: 2
557 -1 64 -1 #SUP: 2
557 -1 65 -1 #SUP: 5
557 -1 74 -1 #SUP: 2
557 -1 75 -1 #SUP: 3
557 -1 113 -1 #SUP: 6
557 -1 115 -1 #SUP: 3
557 -1 129 -1 #SUP: 2
557 -1 141 -1 #SUP: 2
557 -1 194 -1 #SUP: 2
557 -1 417 -1 #SUP: 2
561 -1 2 -1 #SUP: 2
571 -1 469 -1 #SUP: 2
625 -1 2 -1 #SUP: 3
625 -1 3 -1 #SUP: 3
625 -1 41 -1 #SUP: 4
625 -1 64 -1 #SUP: 4
625 -1 158 -1 #SUP: 4
625 -1 443 -1 #SUP: 2
625 -1 504 -1 #SUP: 2
635 -1 3 -1 #SUP: 2
635 -1 10 -1 #SUP: 2
635 -1 22 -1 #SUP: 2
635 -1 44 -1 #SUP: 2
635 -1 75 -1 #SUP: 3
635 -1 76 -1 #SUP: 2
635 -1 113 -1 #SUP: 4
635 -1 158 -1 #SUP: 2
636 -1 76 -1 #SUP: 2
640 -1 141 -1 #SUP: 2
686 -1 113 -1 #SUP: 2
686 -1 484 -1 #SUP: 2
702 -1 2 -1 #SUP: 2
702 -1 3 -1 #SUP: 3
702 -1 64 -1 #SUP: 2
702 -1 113 -1 #SUP: 2
702 -1 154 -1 #SUP: 2
702 -1 211 -1 #SUP: 3
702 -1 312 -1 #SUP: 2
702 -1 482 -1 #SUP: 2
702 -1 702 -1 #SUP: 2
706 -1 64 -1 #SUP: 3
706 -1 65 -1 #SUP: 2
706 -1 151 -1 #SUP: 2
711 -1 3 -1 #SUP: 2
711 -1 182 -1 #SUP: 2
711 -1 504 -1 #SUP: 3
728 -1 484 -1 #SUP: 2
745 -1 16 -1 #SUP: 2
745 -1 342 -1 #SUP: 2
747 -1 22 -1 #SUP: 2
747 -1 31 -1 #SUP: 3
747 -1 41 -1 #SUP: 3
747 -1 66 -1 #SUP: 2
757 -1 3681 -1 #SUP: 2
786 -1 3 -1 #SUP: 2
786 -1 65 -1 #SUP: 2
786 -1 113 -1 #SUP: 3
786 -1 340 -1 #SUP: 2
814 -1 76 -1 #SUP: 2
870 -1 32 -1 #SUP: 2
886 -1 50 -1 #SUP: 2
886 -1 65 -1 #SUP: 2
929 -1 3 -1 #SUP: 2
929 -1 113 -1 #SUP: 2
929 -1 182 -1 #SUP: 2
1099 -1 278 -1 #SUP: 2
1100 -1 10 -1 #SUP: 2
1100 -1 22 -1 #SUP: 2
1100 -1 32 -1 #SUP: 3
1106 -1 3 -1 #SUP: 4
1106 -1 64 -1 #SUP: 2
1106 -1 113 -1 #SUP: 2
1121 -1 2 -1 #SUP: 3
1121 -1 1524 -1 #SUP: 2
1327 -1 3 -1 #SUP: 2
1327 -1 113 -1 #SUP: 2
1327 -1 158 -1 #SUP: 4
1327 -1 189 -1 #SUP: 2
1327 -1 278 -1 #SUP: 2
1327 -1 1099 -1 #SUP: 2
1467 -1 469 -1 #SUP: 2
1483 -1 10 -1 #SUP: 2
1515 -1 3 -1 #SUP: 2
1515 -1 115 -1 #SUP: 2
1524 -1 2 -1 #SUP: 4
1588 -1 385 -1 #SUP: 2
1615 -1 64 -1 #SUP: 2
1640 -1 10 -1 #SUP: 2
1845 -1 10 -1 #SUP: 2
1881 -1 3 -1 #SUP: 2
2133 -1 141 -1 #SUP: 2
2278 -1 2 -1 #SUP: 2
2278 -1 64 -1 #SUP: 2
2404 -1 113 -1 #SUP: 2
2460 -1 65 -1 #SUP: 2
3379 -1 3 -1 #SUP: 2
3379 -1 50 -1 #SUP: 2
3681 -1 3 -1 #SUP: 2
3681 -1 113 -1 #SUP: 2
5293 -1 2 -1 #SUP: 2
5293 -1 7532 -1 #SUP: 2
22529 -1 50 -1 #SUP: 2
2 -1 2 -1 113 -1 #SUP: 3
2 -1 3 -1 31 -1 #SUP: 2
2 -1 3 -1 50 -1 #SUP: 2
2 -1 7 -1 3 -1 #SUP: 2
2 -1 32 -1 22 -1 #SUP: 2
2 -1 65 -1 2 -1 #SUP: 2
2 -1 65 -1 22 -1 #SUP: 3
2 -1 113 -1 3 -1 #SUP: 4
2 -1 113 -1 7 -1 #SUP: 2
2 -1 113 -1 64 -1 #SUP: 2
2 -1 118 -1 33 -1 #SUP: 2
2 -1 182 -1 3 -1 #SUP: 3
2 -1 182 -1 50 -1 #SUP: 2
2 -1 182 -1 64 -1 #SUP: 2
2 -1 182 -1 65 -1 #SUP: 2
2 -1 1524 -1 2 -1 #SUP: 3
3 -1 2 -1 3 -1 #SUP: 3
3 -1 2 -1 7 -1 #SUP: 2
3 -1 2 -1 64 -1 #SUP: 2
3 -1 2 -1 65 -1 #SUP: 2
3 -1 2 -1 113 -1 #SUP: 3
3 -1 2 -1 200 -1 #SUP: 2
3 -1 2 -1 469 -1 #SUP: 2
3 -1 3 -1 31 -1 #SUP: 3
3 -1 3 -1 64 -1 #SUP: 3
3 -1 3 -1 113 -1 #SUP: 2
3 -1 7 -1 65 -1 #SUP: 2
3 -1 10 -1 2 -1 #SUP: 2
3 -1 10 -1 64 -1 #SUP: 2
3 -1 10 -1 65 -1 #SUP: 3
3 -1 10 -1 74 -1 #SUP: 2
3 -1 10 -1 76 -1 #SUP: 2
3 -1 10 -1 312 -1 #SUP: 2
3 -1 10 -1 2278 -1 #SUP: 3
3 -1 16 -1 32 -1 #SUP: 2
3 -1 16 -1 113 -1 #SUP: 2
3 -1 22 -1 31 -1 #SUP: 2
3 -1 22 -1 32 -1 #SUP: 2
3 -1 22 -1 75 -1 #SUP: 3
3 -1 22 -1 129 -1 #SUP: 2
3 -1 27 -1 64 -1 #SUP: 2
3 -1 27 -1 141 -1 #SUP: 2
3 -1 31 -1 64 -1 #SUP: 3
3 -1 31 -1 113 -1 #SUP: 6
3 -1 31 -1 484 -1 #SUP: 2
3 -1 31 -1 1588 -1 #SUP: 2
3 -1 32 -1 3 -1 #SUP: 2
3 -1 32 -1 22 -1 #SUP: 2
3 -1 64 -1 3 -1 #SUP: 2
3 -1 64 -1 50 -1 #SUP: 2
3 -1 64 -1 65 -1 #SUP: 4
3 -1 64 -1 75 -1 #SUP: 2
3 -1 64 -1 113 -1 #SUP: 2
3 -1 64 -1 141 -1 #SUP: 2
3 -1 64 -1 151 -1 #SUP: 3
3 -1 64 -1 1621 -1 #SUP: 2
3 -1 65 -1 2 -1 #SUP: 4
3 -1 65 -1 3 -1 #SUP: 2
3 -1 65 -1 31 -1 #SUP: 2
3 -1 65 -1 32 -1 #SUP: 3
3 -1 65 -1 64 -1 #SUP: 3
3 -1 65 -1 113 -1 #SUP: 2
3 -1 65 -1 149 -1 #SUP: 2
3 -1 65 -1 151 -1 #SUP: 2
3 -1 65 -1 160 -1 #SUP: 2
3 -1 65 -1 163 -1 #SUP: 2
3 -1 65 -1 248 -1 #SUP: 3
3 -1 65 -1 264 -1 #SUP: 2
3 -1 65 -1 517 -1 #SUP: 2
3 -1 65 -1 561 -1 #SUP: 2
3 -1 65 -1 1801 -1 #SUP: 2
3 -1 65 -1 2278 -1 #SUP: 2
3 -1 76 -1 7 -1 #SUP: 2
3 -1 76 -1 76 -1 #SUP: 2
3 -1 76 -1 113 -1 #SUP: 3
3 -1 76 -1 340 -1 #SUP: 2
3 -1 76 -1 557 -1 #SUP: 2
3 -1 113 -1 3 -1 #SUP: 4
3 -1 113 -1 7 -1 #SUP: 3
3 -1 113 -1 10 -1 #SUP: 2
3 -1 113 -1 31 -1 #SUP: 2
3 -1 113 -1 64 -1 #SUP: 5
3 -1 113 -1 76 -1 #SUP: 2
3 -1 113 -1 118 -1 #SUP: 2
3 -1 113 -1 141 -1 #SUP: 2
3 -1 113 -1 469 -1 #SUP: 2
3 -1 113 -1 728 -1 #SUP: 3
3 -1 115 -1 22 -1 #SUP: 2
3 -1 115 -1 75 -1 #SUP: 3
3 -1 115 -1 129 -1 #SUP: 2
3 -1 129 -1 75 -1 #SUP: 2
3 -1 151 -1 3 -1 #SUP: 2
3 -1 151 -1 113 -1 #SUP: 2
3 -1 160 -1 31 -1 #SUP: 2
3 -1 187 -1 113 -1 #SUP: 2
3 -1 187 -1 190 -1 #SUP: 2
3 -1 190 -1 113 -1 #SUP: 3
3 -1 211 -1 3 -1 #SUP: 2
3 -1 256 -1 64 -1 #SUP: 2
3 -1 256 -1 113 -1 #SUP: 3
3 -1 264 -1 113 -1 #SUP: 2
3 -1 266 -1 213 -1 #SUP: 2
3 -1 340 -1 3 -1 #SUP: 2
3 -1 340 -1 64 -1 #SUP: 2
3 -1 394 -1 64 -1 #SUP: 2
3 -1 406 -1 64 -1 #SUP: 2
3 -1 406 -1 76 -1 #SUP: 4
3 -1 406 -1 113 -1 #SUP: 2
3 -1 406 -1 340 -1 #SUP: 2
3 -1 484 -1 566 -1 #SUP: 2
3 -1 517 -1 2 -1 #SUP: 2
3 -1 557 -1 22 -1 #SUP: 3
3 -1 557 -1 75 -1 #SUP: 3
3 -1 557 -1 115 -1 #SUP: 2
3 -1 557 -1 129 -1 #SUP: 2
3 -1 635 -1 75 -1 #SUP: 2
3 -1 635 -1 113 -1 #SUP: 2
3 -1 706 -1 64 -1 #SUP: 3
3 -1 706 -1 65 -1 #SUP: 2
3 -1 706 -1 151 -1 #SUP: 2
3 -1 786 -1 65 -1 #SUP: 2
3 -1 786 -1 113 -1 #SUP: 2
3 -1 870 -1 32 -1 #SUP: 2
3 -1 1588 -1 385 -1 #SUP: 2
7 -1 3 -1 13 -1 #SUP: 2
7 -1 3 -1 22 -1 #SUP: 2
7 -1 3 -1 31 -1 #SUP: 3
7 -1 3 -1 64 -1 #SUP: 2
7 -1 3 -1 65 -1 #SUP: 6
7 -1 3 -1 113 -1 #SUP: 2
7 -1 3 -1 151 -1 #SUP: 2
7 -1 3 -1 160 -1 #SUP: 2
7 -1 3 -1 385 -1 #SUP: 2
7 -1 3 -1 566 -1 #SUP: 2
7 -1 3 -1 706 -1 #SUP: 2
7 -1 3 -1 1588 -1 #SUP: 3
7 -1 22 -1 129 -1 #SUP: 2
7 -1 31 -1 1588 -1 #SUP: 2
7 -1 41 -1 64 -1 #SUP: 2
7 -1 41 -1 65 -1 #SUP: 2
7 -1 64 -1 65 -1 #SUP: 2
7 -1 65 -1 2 -1 #SUP: 2
7 -1 65 -1 22 -1 #SUP: 2
7 -1 65 -1 49 -1 #SUP: 2
7 -1 65 -1 64 -1 #SUP: 2
7 -1 65 -1 74 -1 #SUP: 2
7 -1 65 -1 160 -1 #SUP: 2
7 -1 65 -1 385 -1 #SUP: 2
7 -1 65 -1 1100 -1 #SUP: 2
7 -1 113 -1 7 -1 #SUP: 2
7 -1 160 -1 31 -1 #SUP: 2
7 -1 168 -1 3 -1 #SUP: 2
7 -1 168 -1 64 -1 #SUP: 2
7 -1 168 -1 65 -1 #SUP: 2
7 -1 168 -1 706 -1 #SUP: 2
7 -1 484 -1 566 -1 #SUP: 2
7 -1 706 -1 64 -1 #SUP: 2
7 -1 706 -1 65 -1 #SUP: 2
7 -1 1588 -1 385 -1 #SUP: 2
10 -1 2 -1 3 -1 #SUP: 2
10 -1 7 -1 3 -1 #SUP: 2
10 -1 22 -1 3 -1 #SUP: 2
10 -1 65 -1 64 -1 #SUP: 2
10 -1 65 -1 74 -1 #SUP: 2
10 -1 65 -1 248 -1 #SUP: 2
10 -1 65 -1 1588 -1 #SUP: 2
10 -1 65 -1 2278 -1 #SUP: 3
10 -1 74 -1 3 -1 #SUP: 2
10 -1 74 -1 7 -1 #SUP: 2
10 -1 76 -1 7 -1 #SUP: 2
15 -1 32 -1 22 -1 #SUP: 2
16 -1 64 -1 1467 -1 #SUP: 2
16 -1 76 -1 7 -1 #SUP: 2
22 -1 2 -1 113 -1 #SUP: 2
22 -1 3 -1 113 -1 #SUP: 2
22 -1 3 -1 566 -1 #SUP: 2
22 -1 7 -1 3 -1 #SUP: 3
22 -1 7 -1 65 -1 #SUP: 2
22 -1 7 -1 113 -1 #SUP: 2
22 -1 7 -1 566 -1 #SUP: 2
22 -1 32 -1 65 -1 #SUP: 2
22 -1 64 -1 141 -1 #SUP: 2
22 -1 74 -1 3 -1 #SUP: 2
22 -1 74 -1 7 -1 #SUP: 2
22 -1 74 -1 182 -1 #SUP: 2
22 -1 75 -1 65 -1 #SUP: 2
22 -1 75 -1 417 -1 #SUP: 2
22 -1 76 -1 3 -1 #SUP: 3
22 -1 76 -1 7 -1 #SUP: 2
22 -1 76 -1 65 -1 #SUP: 2
22 -1 76 -1 113 -1 #SUP: 2
22 -1 76 -1 182 -1 #SUP: 2
22 -1 113 -1 3 -1 #SUP: 3
22 -1 113 -1 7 -1 #SUP: 2
22 -1 129 -1 65 -1 #SUP: 2
22 -1 129 -1 75 -1 #SUP: 2
22 -1 129 -1 670 -1 #SUP: 2
22 -1 182 -1 3 -1 #SUP: 2
22 -1 417 -1 7 -1 #SUP: 2
22 -1 417 -1 65 -1 #SUP: 2
27 -1 2 -1 3 -1 #SUP: 2
27 -1 64 -1 141 -1 #SUP: 3
27 -1 113 -1 2 -1 #SUP: 2
27 -1 113 -1 3 -1 #SUP: 2
27 -1 113 -1 31 -1 #SUP: 2
27 -1 113 -1 64 -1 #SUP: 2
27 -1 113 -1 141 -1 #SUP: 2
27 -1 113 -1 156 -1 #SUP: 2
27 -1 156 -1 64 -1 #SUP: 2
27 -1 156 -1 141 -1 #SUP: 2
29 -1 64 -1 141 -1 #SUP: 2
29 -1 64 -1 640 -1 #SUP: 2
29 -1 141 -1 141 -1 #SUP: 2
29 -1 141 -1 640 -1 #SUP: 2
29 -1 640 -1 141 -1 #SUP: 2
31 -1 113 -1 64 -1 #SUP: 4
32 -1 3 -1 64 -1 #SUP: 2
32 -1 22 -1 3 -1 #SUP: 2
32 -1 22 -1 113 -1 #SUP: 2
32 -1 65 -1 151 -1 #SUP: 2
32 -1 113 -1 2 -1 #SUP: 2
32 -1 113 -1 3 -1 #SUP: 4
32 -1 113 -1 113 -1 #SUP: 2
33 -1 29 -1 64 -1 #SUP: 2
33 -1 29 -1 141 -1 #SUP: 2
33 -1 29 -1 640 -1 #SUP: 2
33 -1 64 -1 141 -1 #SUP: 2
33 -1 64 -1 640 -1 #SUP: 2
33 -1 141 -1 141 -1 #SUP: 2
33 -1 141 -1 640 -1 #SUP: 2
33 -1 640 -1 141 -1 #SUP: 2
41 -1 29 -1 64 -1 #SUP: 2
41 -1 29 -1 141 -1 #SUP: 2
41 -1 33 -1 29 -1 #SUP: 2
41 -1 33 -1 64 -1 #SUP: 2
41 -1 33 -1 141 -1 #SUP: 2
41 -1 41 -1 29 -1 #SUP: 2
41 -1 41 -1 64 -1 #SUP: 3
41 -1 64 -1 141 -1 #SUP: 2
41 -1 64 -1 151 -1 #SUP: 2
41 -1 65 -1 64 -1 #SUP: 2
41 -1 141 -1 29 -1 #SUP: 2
41 -1 141 -1 33 -1 #SUP: 2
41 -1 141 -1 64 -1 #SUP: 2
41 -1 141 -1 141 -1 #SUP: 2
41 -1 158 -1 41 -1 #SUP: 4
41 -1 158 -1 64 -1 #SUP: 2
41 -1 236 -1 41 -1 #SUP: 4
41 -1 236 -1 64 -1 #SUP: 2
41 -1 236 -1 158 -1 #SUP: 4
41 -1 236 -1 312 -1 #SUP: 4
41 -1 236 -1 625 -1 #SUP: 4
41 -1 312 -1 41 -1 #SUP: 4
41 -1 312 -1 64 -1 #SUP: 2
41 -1 312 -1 158 -1 #SUP: 4
41 -1 312 -1 625 -1 #SUP: 4
41 -1 326 -1 29 -1 #SUP: 2
41 -1 326 -1 41 -1 #SUP: 5
41 -1 326 -1 64 -1 #SUP: 3
41 -1 326 -1 158 -1 #SUP: 4
41 -1 326 -1 236 -1 #SUP: 4
41 -1 326 -1 312 -1 #SUP: 4
41 -1 326 -1 625 -1 #SUP: 4
41 -1 364 -1 29 -1 #SUP: 2
41 -1 484 -1 29 -1 #SUP: 2
41 -1 484 -1 364 -1 #SUP: 2
41 -1 625 -1 41 -1 #SUP: 4
41 -1 625 -1 64 -1 #SUP: 2
41 -1 625 -1 158 -1 #SUP: 4
44 -1 113 -1 3 -1 #SUP: 2
44 -1 113 -1 113 -1 #SUP: 2
50 -1 2 -1 3 -1 #SUP: 2
50 -1 2 -1 113 -1 #SUP: 2
50 -1 3 -1 65 -1 #SUP: 2
50 -1 3 -1 76 -1 #SUP: 2
50 -1 3 -1 406 -1 #SUP: 2
50 -1 3 -1 557 -1 #SUP: 2
50 -1 65 -1 50 -1 #SUP: 2
50 -1 113 -1 3 -1 #SUP: 3
50 -1 406 -1 76 -1 #SUP: 2
50 -1 1106 -1 3 -1 #SUP: 4
50 -1 1106 -1 64 -1 #SUP: 2
50 -1 1106 -1 113 -1 #SUP: 2
50 -1 1881 -1 3 -1 #SUP: 2
50 -1 2404 -1 113 -1 #SUP: 2
54 -1 64 -1 141 -1 #SUP: 2
57 -1 66 -1 76 -1 #SUP: 2
57 -1 113 -1 3 -1 #SUP: 2
57 -1 757 -1 3681 -1 #SUP: 2
64 -1 2 -1 3 -1 #SUP: 2
64 -1 64 -1 77 -1 #SUP: 2
64 -1 64 -1 113 -1 #SUP: 2
64 -1 64 -1 141 -1 #SUP: 2
64 -1 65 -1 151 -1 #SUP: 2
64 -1 76 -1 214 -1 #SUP: 2
64 -1 76 -1 469 -1 #SUP: 2
64 -1 113 -1 64 -1 #SUP: 2
64 -1 141 -1 22 -1 #SUP: 2
64 -1 141 -1 64 -1 #SUP: 2
64 -1 141 -1 141 -1 #SUP: 3
64 -1 141 -1 151 -1 #SUP: 2
64 -1 141 -1 640 -1 #SUP: 2
64 -1 151 -1 3 -1 #SUP: 2
64 -1 154 -1 2 -1 #SUP: 2
64 -1 158 -1 64 -1 #SUP: 2
64 -1 158 -1 113 -1 #SUP: 2
64 -1 469 -1 214 -1 #SUP: 2
64 -1 557 -1 22 -1 #SUP: 2
64 -1 640 -1 141 -1 #SUP: 2
65 -1 2 -1 3 -1 #SUP: 2
65 -1 2 -1 65 -1 #SUP: 3
65 -1 3 -1 2 -1 #SUP: 2
65 -1 31 -1 22 -1 #SUP: 2
65 -1 32 -1 3 -1 #SUP: 2
65 -1 32 -1 22 -1 #SUP: 2
65 -1 32 -1 113 -1 #SUP: 3
65 -1 33 -1 2 -1 #SUP: 2
65 -1 76 -1 2 -1 #SUP: 2
65 -1 76 -1 113 -1 #SUP: 3
65 -1 113 -1 3 -1 #SUP: 2
65 -1 113 -1 248 -1 #SUP: 2
65 -1 113 -1 256 -1 #SUP: 2
65 -1 160 -1 50 -1 #SUP: 2
65 -1 220 -1 50 -1 #SUP: 2
65 -1 220 -1 160 -1 #SUP: 2
65 -1 251 -1 3 -1 #SUP: 2
65 -1 517 -1 2 -1 #SUP: 2
65 -1 1100 -1 10 -1 #SUP: 2
65 -1 1100 -1 22 -1 #SUP: 2
65 -1 1100 -1 32 -1 #SUP: 3
66 -1 76 -1 3 -1 #SUP: 2
66 -1 76 -1 113 -1 #SUP: 2
66 -1 113 -1 3 -1 #SUP: 2
74 -1 7 -1 3 -1 #SUP: 3
74 -1 182 -1 3 -1 #SUP: 2
75 -1 113 -1 115 -1 #SUP: 2
75 -1 417 -1 7 -1 #SUP: 2
76 -1 2 -1 3 -1 #SUP: 2
76 -1 2 -1 113 -1 #SUP: 3
76 -1 3 -1 64 -1 #SUP: 3
76 -1 3 -1 65 -1 #SUP: 2
76 -1 3 -1 113 -1 #SUP: 2
76 -1 3 -1 484 -1 #SUP: 2
76 -1 7 -1 65 -1 #SUP: 3
76 -1 64 -1 50 -1 #SUP: 2
76 -1 65 -1 64 -1 #SUP: 3
76 -1 65 -1 561 -1 #SUP: 2
76 -1 76 -1 2 -1 #SUP: 3
76 -1 76 -1 76 -1 #SUP: 3
76 -1 113 -1 2 -1 #SUP: 4
76 -1 113 -1 3 -1 #SUP: 6
76 -1 113 -1 64 -1 #SUP: 2
76 -1 113 -1 65 -1 #SUP: 2
76 -1 113 -1 76 -1 #SUP: 2
76 -1 113 -1 113 -1 #SUP: 3
76 -1 113 -1 118 -1 #SUP: 2
76 -1 113 -1 194 -1 #SUP: 2
76 -1 113 -1 406 -1 #SUP: 2
76 -1 417 -1 7 -1 #SUP: 3
76 -1 417 -1 65 -1 #SUP: 3
76 -1 469 -1 214 -1 #SUP: 2
76 -1 484 -1 64 -1 #SUP: 2
76 -1 557 -1 7 -1 #SUP: 2
76 -1 557 -1 65 -1 #SUP: 2
76 -1 557 -1 113 -1 #SUP: 4
76 -1 557 -1 194 -1 #SUP: 2
76 -1 635 -1 75 -1 #SUP: 2
113 -1 2 -1 3 -1 #SUP: 4
113 -1 2 -1 22 -1 #SUP: 2
113 -1 2 -1 33 -1 #SUP: 2
113 -1 2 -1 64 -1 #SUP: 4
113 -1 2 -1 65 -1 #SUP: 2
113 -1 2 -1 81 -1 #SUP: 2
113 -1 2 -1 113 -1 #SUP: 6
113 -1 2 -1 118 -1 #SUP: 2
113 -1 2 -1 182 -1 #SUP: 2
113 -1 2 -1 200 -1 #SUP: 2
113 -1 3 -1 2 -1 #SUP: 5
113 -1 3 -1 3 -1 #SUP: 5
113 -1 3 -1 7 -1 #SUP: 2
113 -1 3 -1 10 -1 #SUP: 8
113 -1 3 -1 16 -1 #SUP: 3
113 -1 3 -1 22 -1 #SUP: 5
113 -1 3 -1 27 -1 #SUP: 2
113 -1 3 -1 31 -1 #SUP: 5
113 -1 3 -1 32 -1 #SUP: 5
113 -1 3 -1 33 -1 #SUP: 2
113 -1 3 -1 50 -1 #SUP: 2
113 -1 3 -1 64 -1 #SUP: 13
113 -1 3 -1 65 -1 #SUP: 18
113 -1 3 -1 76 -1 #SUP: 6
113 -1 3 -1 113 -1 #SUP: 11
113 -1 3 -1 115 -1 #SUP: 4
113 -1 3 -1 141 -1 #SUP: 2
113 -1 3 -1 151 -1 #SUP: 2
113 -1 3 -1 160 -1 #SUP: 3
113 -1 3 -1 163 -1 #SUP: 3
113 -1 3 -1 182 -1 #SUP: 2
113 -1 3 -1 213 -1 #SUP: 3
113 -1 3 -1 248 -1 #SUP: 3
113 -1 3 -1 264 -1 #SUP: 3
113 -1 3 -1 266 -1 #SUP: 2
113 -1 3 -1 278 -1 #SUP: 3
113 -1 3 -1 312 -1 #SUP: 3
113 -1 3 -1 340 -1 #SUP: 2
113 -1 3 -1 385 -1 #SUP: 2
113 -1 3 -1 406 -1 #SUP: 5
113 -1 3 -1 435 -1 #SUP: 2
113 -1 3 -1 484 -1 #SUP: 2
113 -1 3 -1 511 -1 #SUP: 2
113 -1 3 -1 517 -1 #SUP: 2
113 -1 3 -1 557 -1 #SUP: 2
113 -1 3 -1 636 -1 #SUP: 2
113 -1 3 -1 786 -1 #SUP: 4
113 -1 3 -1 870 -1 #SUP: 2
113 -1 3 -1 871 -1 #SUP: 2
113 -1 3 -1 1588 -1 #SUP: 2
113 -1 3 -1 1801 -1 #SUP: 2
113 -1 3 -1 2278 -1 #SUP: 4
113 -1 3 -1 3618 -1 #SUP: 2
113 -1 3 -1 4452 -1 #SUP: 2
113 -1 3 -1 5293 -1 #SUP: 2
113 -1 7 -1 3 -1 #SUP: 6
113 -1 7 -1 7 -1 #SUP: 2
113 -1 7 -1 22 -1 #SUP: 3
113 -1 7 -1 31 -1 #SUP: 3
113 -1 7 -1 33 -1 #SUP: 2
113 -1 7 -1 49 -1 #SUP: 2
113 -1 7 -1 50 -1 #SUP: 2
113 -1 7 -1 65 -1 #SUP: 6
113 -1 7 -1 76 -1 #SUP: 2
113 -1 7 -1 113 -1 #SUP: 2
113 -1 7 -1 151 -1 #SUP: 2
113 -1 7 -1 160 -1 #SUP: 5
113 -1 7 -1 248 -1 #SUP: 2
113 -1 7 -1 312 -1 #SUP: 2
113 -1 7 -1 385 -1 #SUP: 3
113 -1 7 -1 1588 -1 #SUP: 2
113 -1 10 -1 2 -1 #SUP: 2
113 -1 10 -1 3 -1 #SUP: 2
113 -1 10 -1 7 -1 #SUP: 2
113 -1 10 -1 22 -1 #SUP: 3
113 -1 10 -1 65 -1 #SUP: 5
113 -1 10 -1 74 -1 #SUP: 2
113 -1 10 -1 76 -1 #SUP: 4
113 -1 10 -1 113 -1 #SUP: 3
113 -1 10 -1 151 -1 #SUP: 2
113 -1 10 -1 312 -1 #SUP: 2
113 -1 10 -1 2278 -1 #SUP: 4
113 -1 16 -1 32 -1 #SUP: 2
113 -1 22 -1 7 -1 #SUP: 2
113 -1 22 -1 32 -1 #SUP: 2
113 -1 22 -1 76 -1 #SUP: 4
113 -1 22 -1 129 -1 #SUP: 3
113 -1 22 -1 182 -1 #SUP: 2
113 -1 22 -1 670 -1 #SUP: 2
113 -1 27 -1 2 -1 #SUP: 2
113 -1 27 -1 64 -1 #SUP: 3
113 -1 27 -1 113 -1 #SUP: 3
113 -1 27 -1 141 -1 #SUP: 2
113 -1 27 -1 156 -1 #SUP: 2
113 -1 31 -1 113 -1 #SUP: 3
113 -1 32 -1 3 -1 #SUP: 3
113 -1 32 -1 10 -1 #SUP: 2
113 -1 33 -1 22 -1 #SUP: 2
113 -1 41 -1 208 -1 #SUP: 2
113 -1 50 -1 773 -1 #SUP: 2
113 -1 52 -1 278 -1 #SUP: 2
113 -1 64 -1 2 -1 #SUP: 2
113 -1 64 -1 3 -1 #SUP: 3
113 -1 64 -1 31 -1 #SUP: 2
113 -1 64 -1 50 -1 #SUP: 2
113 -1 64 -1 65 -1 #SUP: 2
113 -1 64 -1 81 -1 #SUP: 2
113 -1 64 -1 113 -1 #SUP: 3
113 -1 64 -1 141 -1 #SUP: 3
113 -1 64 -1 256 -1 #SUP: 2
113 -1 65 -1 2 -1 #SUP: 4
113 -1 65 -1 3 -1 #SUP: 3
113 -1 65 -1 10 -1 #SUP: 2
113 -1 65 -1 32 -1 #SUP: 3
113 -1 65 -1 33 -1 #SUP: 2
113 -1 65 -1 49 -1 #SUP: 2
113 -1 65 -1 50 -1 #SUP: 2
113 -1 65 -1 76 -1 #SUP: 2
113 -1 65 -1 113 -1 #SUP: 2
113 -1 65 -1 160 -1 #SUP: 2
113 -1 65 -1 163 -1 #SUP: 2
113 -1 65 -1 251 -1 #SUP: 2
113 -1 65 -1 264 -1 #SUP: 2
113 -1 65 -1 385 -1 #SUP: 2
113 -1 65 -1 406 -1 #SUP: 2
113 -1 65 -1 517 -1 #SUP: 2
113 -1 65 -1 1801 -1 #SUP: 2
113 -1 65 -1 2278 -1 #SUP: 3
113 -1 76 -1 2 -1 #SUP: 3
113 -1 76 -1 7 -1 #SUP: 3
113 -1 76 -1 22 -1 #SUP: 2
113 -1 76 -1 76 -1 #SUP: 3
113 -1 76 -1 113 -1 #SUP: 5
113 -1 76 -1 182 -1 #SUP: 2
113 -1 76 -1 557 -1 #SUP: 3
113 -1 81 -1 64 -1 #SUP: 2
113 -1 113 -1 2 -1 #SUP: 2
113 -1 113 -1 3 -1 #SUP: 12
113 -1 113 -1 7 -1 #SUP: 3
113 -1 113 -1 10 -1 #SUP: 2
113 -1 113 -1 64 -1 #SUP: 4
113 -1 113 -1 76 -1 #SUP: 2
113 -1 113 -1 115 -1 #SUP: 2
113 -1 113 -1 118 -1 #SUP: 2
113 -1 113 -1 141 -1 #SUP: 2
113 -1 113 -1 156 -1 #SUP: 4
113 -1 113 -1 161 -1 #SUP: 2
113 -1 113 -1 278 -1 #SUP: 2
113 -1 118 -1 2 -1 #SUP: 2
113 -1 118 -1 22 -1 #SUP: 2
113 -1 118 -1 33 -1 #SUP: 2
113 -1 118 -1 469 -1 #SUP: 2
113 -1 129 -1 670 -1 #SUP: 2
113 -1 141 -1 2 -1 #SUP: 2
113 -1 141 -1 7 -1 #SUP: 2
113 -1 141 -1 50 -1 #SUP: 2
113 -1 141 -1 151 -1 #SUP: 2
113 -1 148 -1 113 -1 #SUP: 2
113 -1 148 -1 150 -1 #SUP: 2
113 -1 151 -1 3 -1 #SUP: 3
113 -1 156 -1 64 -1 #SUP: 4
113 -1 156 -1 141 -1 #SUP: 2
113 -1 158 -1 3 -1 #SUP: 4
113 -1 158 -1 113 -1 #SUP: 4
113 -1 158 -1 189 -1 #SUP: 2
113 -1 158 -1 278 -1 #SUP: 2
113 -1 158 -1 1099 -1 #SUP: 2
113 -1 160 -1 31 -1 #SUP: 2
113 -1 160 -1 469 -1 #SUP: 2
113 -1 161 -1 3 -1 #SUP: 5
113 -1 161 -1 64 -1 #SUP: 2
113 -1 161 -1 65 -1 #SUP: 2
113 -1 161 -1 75 -1 #SUP: 2
113 -1 161 -1 113 -1 #SUP: 2
113 -1 161 -1 504 -1 #SUP: 2
113 -1 182 -1 3 -1 #SUP: 8
113 -1 182 -1 31 -1 #SUP: 2
113 -1 182 -1 64 -1 #SUP: 2
113 -1 182 -1 65 -1 #SUP: 2
113 -1 182 -1 113 -1 #SUP: 4
113 -1 182 -1 161 -1 #SUP: 2
113 -1 187 -1 2 -1 #SUP: 3
113 -1 187 -1 113 -1 #SUP: 3
113 -1 190 -1 2 -1 #SUP: 2
113 -1 190 -1 3 -1 #SUP: 3
113 -1 190 -1 113 -1 #SUP: 2
113 -1 194 -1 3 -1 #SUP: 5
113 -1 194 -1 31 -1 #SUP: 2
113 -1 194 -1 64 -1 #SUP: 2
113 -1 194 -1 113 -1 #SUP: 5
113 -1 194 -1 161 -1 #SUP: 2
113 -1 194 -1 182 -1 #SUP: 2
113 -1 194 -1 250 -1 #SUP: 2
113 -1 194 -1 469 -1 #SUP: 2
113 -1 208 -1 3 -1 #SUP: 2
113 -1 208 -1 10 -1 #SUP: 2
113 -1 208 -1 65 -1 #SUP: 2
113 -1 208 -1 113 -1 #SUP: 2
113 -1 208 -1 2278 -1 #SUP: 2
113 -1 214 -1 2 -1 #SUP: 2
113 -1 224 -1 113 -1 #SUP: 2
113 -1 244 -1 10 -1 #SUP: 2
113 -1 248 -1 2 -1 #SUP: 2
113 -1 248 -1 3 -1 #SUP: 2
113 -1 248 -1 22 -1 #SUP: 2
113 -1 248 -1 76 -1 #SUP: 2
113 -1 250 -1 3 -1 #SUP: 3
113 -1 250 -1 65 -1 #SUP: 2
113 -1 250 -1 113 -1 #SUP: 2
113 -1 251 -1 3 -1 #SUP: 2
113 -1 256 -1 2 -1 #SUP: 2
113 -1 256 -1 3 -1 #SUP: 2
113 -1 256 -1 22 -1 #SUP: 2
113 -1 256 -1 76 -1 #SUP: 3
113 -1 256 -1 113 -1 #SUP: 3
113 -1 256 -1 182 -1 #SUP: 2
113 -1 256 -1 406 -1 #SUP: 2
113 -1 264 -1 113 -1 #SUP: 2
113 -1 266 -1 213 -1 #SUP: 2
113 -1 326 -1 3 -1 #SUP: 2
113 -1 340 -1 2 -1 #SUP: 2
113 -1 340 -1 3 -1 #SUP: 2
113 -1 340 -1 113 -1 #SUP: 2
113 -1 406 -1 64 -1 #SUP: 2
113 -1 406 -1 76 -1 #SUP: 3
113 -1 406 -1 113 -1 #SUP: 2
113 -1 417 -1 7 -1 #SUP: 2
113 -1 463 -1 2 -1 #SUP: 2
113 -1 463 -1 187 -1 #SUP: 2
113 -1 469 -1 2 -1 #SUP: 2
113 -1 469 -1 66 -1 #SUP: 2
113 -1 469 -1 113 -1 #SUP: 3
113 -1 497 -1 76 -1 #SUP: 2
113 -1 497 -1 113 -1 #SUP: 2
113 -1 504 -1 3 -1 #SUP: 5
113 -1 504 -1 65 -1 #SUP: 2
113 -1 504 -1 113 -1 #SUP: 2
113 -1 504 -1 182 -1 #SUP: 4
113 -1 504 -1 312 -1 #SUP: 2
113 -1 506 -1 76 -1 #SUP: 2
113 -1 517 -1 2 -1 #SUP: 2
113 -1 557 -1 113 -1 #SUP: 2
113 -1 625 -1 3 -1 #SUP: 2
113 -1 686 -1 113 -1 #SUP: 2
113 -1 711 -1 3 -1 #SUP: 2
113 -1 711 -1 182 -1 #SUP: 2
113 -1 711 -1 504 -1 #SUP: 3
113 -1 786 -1 3 -1 #SUP: 2
113 -1 786 -1 65 -1 #SUP: 2
113 -1 786 -1 113 -1 #SUP: 3
113 -1 786 -1 340 -1 #SUP: 2
113 -1 870 -1 32 -1 #SUP: 2
113 -1 929 -1 3 -1 #SUP: 2
113 -1 1099 -1 278 -1 #SUP: 2
113 -1 1327 -1 3 -1 #SUP: 2
113 -1 1327 -1 113 -1 #SUP: 2
113 -1 1327 -1 158 -1 #SUP: 4
113 -1 1327 -1 189 -1 #SUP: 2
113 -1 1327 -1 278 -1 #SUP: 2
113 -1 1327 -1 1099 -1 #SUP: 2
113 -1 1483 -1 10 -1 #SUP: 2
113 -1 1588 -1 385 -1 #SUP: 2
113 -1 1615 -1 64 -1 #SUP: 2
113 -1 1640 -1 10 -1 #SUP: 2
113 -1 1845 -1 10 -1 #SUP: 2
113 -1 2133 -1 141 -1 #SUP: 2
113 -1 2460 -1 65 -1 #SUP: 2
115 -1 22 -1 65 -1 #SUP: 2
115 -1 22 -1 75 -1 #SUP: 3
115 -1 22 -1 129 -1 #SUP: 2
115 -1 75 -1 65 -1 #SUP: 2
115 -1 129 -1 65 -1 #SUP: 2
115 -1 129 -1 75 -1 #SUP: 2
115 -1 182 -1 3 -1 #SUP: 2
129 -1 75 -1 65 -1 #SUP: 2
141 -1 22 -1 64 -1 #SUP: 2
141 -1 22 -1 141 -1 #SUP: 2
141 -1 29 -1 64 -1 #SUP: 2
141 -1 29 -1 141 -1 #SUP: 2
141 -1 29 -1 640 -1 #SUP: 2
141 -1 33 -1 29 -1 #SUP: 2
141 -1 33 -1 64 -1 #SUP: 2
141 -1 33 -1 141 -1 #SUP: 2
141 -1 33 -1 640 -1 #SUP: 2
141 -1 64 -1 141 -1 #SUP: 4
141 -1 64 -1 151 -1 #SUP: 2
141 -1 64 -1 640 -1 #SUP: 2
141 -1 141 -1 151 -1 #SUP: 2
141 -1 141 -1 640 -1 #SUP: 2
141 -1 640 -1 141 -1 #SUP: 2
148 -1 2 -1 113 -1 #SUP: 2
151 -1 3 -1 65 -1 #SUP: 2
151 -1 3 -1 151 -1 #SUP: 2
151 -1 65 -1 64 -1 #SUP: 2
156 -1 64 -1 50 -1 #SUP: 2
156 -1 64 -1 76 -1 #SUP: 2
156 -1 64 -1 141 -1 #SUP: 2
156 -1 64 -1 214 -1 #SUP: 2
156 -1 64 -1 469 -1 #SUP: 2
156 -1 64 -1 636 -1 #SUP: 2
156 -1 76 -1 214 -1 #SUP: 2
156 -1 76 -1 469 -1 #SUP: 2
156 -1 469 -1 214 -1 #SUP: 2
158 -1 3 -1 2 -1 #SUP: 2
158 -1 3 -1 64 -1 #SUP: 2
158 -1 41 -1 64 -1 #SUP: 2
158 -1 41 -1 443 -1 #SUP: 2
158 -1 113 -1 3 -1 #SUP: 5
158 -1 113 -1 64 -1 #SUP: 2
158 -1 1099 -1 278 -1 #SUP: 2
161 -1 3 -1 3 -1 #SUP: 2
161 -1 3 -1 31 -1 #SUP: 2
161 -1 3 -1 65 -1 #SUP: 2
161 -1 3 -1 113 -1 #SUP: 3
161 -1 31 -1 113 -1 #SUP: 2
161 -1 65 -1 113 -1 #SUP: 2
161 -1 113 -1 3 -1 #SUP: 2
168 -1 3 -1 64 -1 #SUP: 2
168 -1 3 -1 65 -1 #SUP: 2
168 -1 3 -1 151 -1 #SUP: 2
168 -1 3 -1 706 -1 #SUP: 2
168 -1 64 -1 65 -1 #SUP: 2
168 -1 64 -1 151 -1 #SUP: 2
168 -1 65 -1 151 -1 #SUP: 2
168 -1 706 -1 64 -1 #SUP: 2
168 -1 706 -1 65 -1 #SUP: 2
168 -1 706 -1 151 -1 #SUP: 2
182 -1 3 -1 3 -1 #SUP: 3
182 -1 3 -1 10 -1 #SUP: 2
182 -1 3 -1 31 -1 #SUP: 3
182 -1 3 -1 64 -1 #SUP: 4
182 -1 3 -1 65 -1 #SUP: 3
182 -1 3 -1 113 -1 #SUP: 5
182 -1 3 -1 200 -1 #SUP: 2
182 -1 3 -1 312 -1 #SUP: 2
182 -1 31 -1 64 -1 #SUP: 2
182 -1 31 -1 113 -1 #SUP: 3
182 -1 32 -1 22 -1 #SUP: 2
182 -1 41 -1 64 -1 #SUP: 2
182 -1 65 -1 2880 -1 #SUP: 2
182 -1 113 -1 3 -1 #SUP: 3
182 -1 113 -1 10 -1 #SUP: 2
182 -1 113 -1 64 -1 #SUP: 2
182 -1 161 -1 3 -1 #SUP: 2
182 -1 161 -1 31 -1 #SUP: 2
182 -1 161 -1 113 -1 #SUP: 2
187 -1 190 -1 113 -1 #SUP: 2
190 -1 3 -1 2 -1 #SUP: 2
190 -1 3 -1 113 -1 #SUP: 4
190 -1 3 -1 187 -1 #SUP: 2
190 -1 3 -1 190 -1 #SUP: 2
190 -1 3 -1 635 -1 #SUP: 2
190 -1 187 -1 113 -1 #SUP: 2
190 -1 187 -1 190 -1 #SUP: 2
190 -1 190 -1 113 -1 #SUP: 2
190 -1 635 -1 113 -1 #SUP: 2
194 -1 3 -1 31 -1 #SUP: 2
194 -1 3 -1 64 -1 #SUP: 2
194 -1 3 -1 113 -1 #SUP: 2
194 -1 113 -1 3 -1 #SUP: 3
194 -1 113 -1 31 -1 #SUP: 2
194 -1 161 -1 3 -1 #SUP: 2
194 -1 182 -1 3 -1 #SUP: 2
194 -1 250 -1 3 -1 #SUP: 2
208 -1 3 -1 10 -1 #SUP: 2
208 -1 3 -1 2278 -1 #SUP: 2
208 -1 10 -1 2278 -1 #SUP: 2
208 -1 65 -1 64 -1 #SUP: 2
220 -1 160 -1 50 -1 #SUP: 2
224 -1 64 -1 76 -1 #SUP: 2
224 -1 64 -1 214 -1 #SUP: 2
224 -1 64 -1 469 -1 #SUP: 2
224 -1 64 -1 636 -1 #SUP: 2
224 -1 76 -1 214 -1 #SUP: 2
224 -1 76 -1 469 -1 #SUP: 2
224 -1 156 -1 64 -1 #SUP: 2
224 -1 156 -1 76 -1 #SUP: 2
224 -1 156 -1 214 -1 #SUP: 2
224 -1 156 -1 469 -1 #SUP: 2
224 -1 156 -1 636 -1 #SUP: 2
224 -1 469 -1 64 -1 #SUP: 2
224 -1 469 -1 76 -1 #SUP: 2
224 -1 469 -1 156 -1 #SUP: 2
224 -1 469 -1 214 -1 #SUP: 2
224 -1 469 -1 469 -1 #SUP: 2
224 -1 469 -1 636 -1 #SUP: 2
236 -1 41 -1 64 -1 #SUP: 2
236 -1 158 -1 41 -1 #SUP: 4
236 -1 158 -1 64 -1 #SUP: 2
236 -1 312 -1 41 -1 #SUP: 4
236 -1 312 -1 64 -1 #SUP: 2
236 -1 312 -1 158 -1 #SUP: 4
236 -1 312 -1 625 -1 #SUP: 4
236 -1 625 -1 41 -1 #SUP: 4
236 -1 625 -1 64 -1 #SUP: 2
236 -1 625 -1 158 -1 #SUP: 4
242 -1 113 -1 3 -1 #SUP: 2
242 -1 182 -1 3 -1 #SUP: 2
244 -1 10 -1 65 -1 #SUP: 2
244 -1 22 -1 76 -1 #SUP: 2
248 -1 2 -1 2 -1 #SUP: 2
248 -1 22 -1 3 -1 #SUP: 2
248 -1 76 -1 3 -1 #SUP: 2
248 -1 76 -1 113 -1 #SUP: 2
248 -1 113 -1 3 -1 #SUP: 2
248 -1 1121 -1 2 -1 #SUP: 2
250 -1 3 -1 65 -1 #SUP: 2
256 -1 2 -1 3 -1 #SUP: 2
256 -1 2 -1 113 -1 #SUP: 3
256 -1 64 -1 113 -1 #SUP: 2
256 -1 113 -1 3 -1 #SUP: 2
256 -1 182 -1 31 -1 #SUP: 2
312 -1 41 -1 64 -1 #SUP: 2
312 -1 41 -1 443 -1 #SUP: 2
312 -1 158 -1 41 -1 #SUP: 4
312 -1 158 -1 64 -1 #SUP: 2
312 -1 158 -1 443 -1 #SUP: 2
312 -1 625 -1 41 -1 #SUP: 4
312 -1 625 -1 64 -1 #SUP: 2
312 -1 625 -1 158 -1 #SUP: 4
312 -1 625 -1 443 -1 #SUP: 2
326 -1 41 -1 29 -1 #SUP: 2
326 -1 41 -1 64 -1 #SUP: 3
326 -1 158 -1 41 -1 #SUP: 4
326 -1 158 -1 64 -1 #SUP: 2
326 -1 236 -1 41 -1 #SUP: 4
326 -1 236 -1 64 -1 #SUP: 2
326 -1 236 -1 158 -1 #SUP: 4
326 -1 236 -1 312 -1 #SUP: 4
326 -1 236 -1 625 -1 #SUP: 4
326 -1 312 -1 41 -1 #SUP: 4
326 -1 312 -1 64 -1 #SUP: 2
326 -1 312 -1 158 -1 #SUP: 4
326 -1 312 -1 625 -1 #SUP: 4
326 -1 625 -1 41 -1 #SUP: 4
326 -1 625 -1 64 -1 #SUP: 3
326 -1 625 -1 158 -1 #SUP: 4
340 -1 3 -1 113 -1 #SUP: 2
342 -1 64 -1 16 -1 #SUP: 2
356 -1 65 -1 22 -1 #SUP: 2
403 -1 151 -1 3 -1 #SUP: 2
406 -1 64 -1 50 -1 #SUP: 2
406 -1 76 -1 340 -1 #SUP: 2
417 -1 2 -1 65 -1 #SUP: 2
417 -1 7 -1 22 -1 #SUP: 2
417 -1 7 -1 32 -1 #SUP: 2
417 -1 7 -1 65 -1 #SUP: 5
417 -1 7 -1 129 -1 #SUP: 2
417 -1 7 -1 1100 -1 #SUP: 2
417 -1 22 -1 129 -1 #SUP: 2
417 -1 65 -1 1100 -1 #SUP: 2
463 -1 187 -1 2 -1 #SUP: 2
469 -1 2 -1 3 -1 #SUP: 2
469 -1 2 -1 182 -1 #SUP: 2
469 -1 3 -1 2 -1 #SUP: 2
469 -1 3 -1 16 -1 #SUP: 2
469 -1 3 -1 65 -1 #SUP: 2
469 -1 64 -1 76 -1 #SUP: 2
469 -1 64 -1 214 -1 #SUP: 2
469 -1 64 -1 469 -1 #SUP: 2
469 -1 64 -1 636 -1 #SUP: 2
469 -1 76 -1 214 -1 #SUP: 2
469 -1 76 -1 469 -1 #SUP: 2
469 -1 113 -1 3 -1 #SUP: 2
469 -1 156 -1 64 -1 #SUP: 2
469 -1 156 -1 76 -1 #SUP: 2
469 -1 156 -1 214 -1 #SUP: 2
469 -1 156 -1 469 -1 #SUP: 2
469 -1 156 -1 636 -1 #SUP: 2
469 -1 182 -1 3 -1 #SUP: 2
469 -1 200 -1 16 -1 #SUP: 2
469 -1 242 -1 3 -1 #SUP: 2
469 -1 469 -1 214 -1 #SUP: 2
484 -1 10 -1 65 -1 #SUP: 2
484 -1 113 -1 3 -1 #SUP: 2
484 -1 113 -1 406 -1 #SUP: 2
484 -1 364 -1 29 -1 #SUP: 2
497 -1 76 -1 113 -1 #SUP: 2
504 -1 3 -1 65 -1 #SUP: 2
504 -1 3 -1 312 -1 #SUP: 2
504 -1 182 -1 3 -1 #SUP: 4
504 -1 182 -1 65 -1 #SUP: 2
510 -1 113 -1 64 -1 #SUP: 2
557 -1 3 -1 10 -1 #SUP: 2
557 -1 3 -1 65 -1 #SUP: 3
557 -1 7 -1 10 -1 #SUP: 2
557 -1 7 -1 65 -1 #SUP: 2
557 -1 10 -1 65 -1 #SUP: 2
557 -1 22 -1 64 -1 #SUP: 2
557 -1 22 -1 65 -1 #SUP: 2
557 -1 22 -1 75 -1 #SUP: 3
557 -1 22 -1 129 -1 #SUP: 2
557 -1 22 -1 417 -1 #SUP: 2
557 -1 65 -1 74 -1 #SUP: 2
557 -1 75 -1 65 -1 #SUP: 2
557 -1 75 -1 417 -1 #SUP: 2
557 -1 113 -1 3 -1 #SUP: 3
557 -1 113 -1 7 -1 #SUP: 2
557 -1 113 -1 10 -1 #SUP: 2
557 -1 113 -1 65 -1 #SUP: 3
557 -1 113 -1 194 -1 #SUP: 2
557 -1 115 -1 22 -1 #SUP: 2
557 -1 115 -1 65 -1 #SUP: 2
557 -1 115 -1 75 -1 #SUP: 2
557 -1 115 -1 129 -1 #SUP: 2
557 -1 129 -1 65 -1 #SUP: 2
557 -1 129 -1 75 -1 #SUP: 2
625 -1 3 -1 64 -1 #SUP: 2
625 -1 41 -1 64 -1 #SUP: 2
625 -1 41 -1 443 -1 #SUP: 2
625 -1 158 -1 41 -1 #SUP: 4
625 -1 158 -1 64 -1 #SUP: 2
625 -1 158 -1 443 -1 #SUP: 2
635 -1 10 -1 22 -1 #SUP: 2
635 -1 44 -1 3 -1 #SUP: 2
635 -1 44 -1 113 -1 #SUP: 2
635 -1 113 -1 3 -1 #SUP: 2
635 -1 113 -1 76 -1 #SUP: 2
635 -1 113 -1 113 -1 #SUP: 2
635 -1 158 -1 113 -1 #SUP: 2
686 -1 113 -1 484 -1 #SUP: 2
702 -1 3 -1 3 -1 #SUP: 2
702 -1 3 -1 211 -1 #SUP: 2
702 -1 113 -1 64 -1 #SUP: 2
702 -1 211 -1 3 -1 #SUP: 2
702 -1 211 -1 64 -1 #SUP: 2
702 -1 211 -1 113 -1 #SUP: 2
706 -1 64 -1 65 -1 #SUP: 2
706 -1 64 -1 151 -1 #SUP: 2
706 -1 65 -1 151 -1 #SUP: 2
711 -1 182 -1 3 -1 #SUP: 2
711 -1 504 -1 3 -1 #SUP: 2
711 -1 504 -1 182 -1 #SUP: 2
745 -1 342 -1 16 -1 #SUP: 2
747 -1 31 -1 22 -1 #SUP: 2
747 -1 41 -1 31 -1 #SUP: 2
747 -1 66 -1 22 -1 #SUP: 2
786 -1 3 -1 113 -1 #SUP: 2
786 -1 340 -1 3 -1 #SUP: 2
786 -1 340 -1 113 -1 #SUP: 2
1121 -1 2 -1 2 -1 #SUP: 2
1121 -1 2 -1 1524 -1 #SUP: 2
1121 -1 1524 -1 2 -1 #SUP: 2
1327 -1 158 -1 3 -1 #SUP: 2
1327 -1 158 -1 113 -1 #SUP: 2
1327 -1 158 -1 189 -1 #SUP: 2
1327 -1 158 -1 278 -1 #SUP: 2
1327 -1 158 -1 1099 -1 #SUP: 2
1327 -1 1099 -1 278 -1 #SUP: 2
1467 -1 469 -1 469 -1 #SUP: 2
1515 -1 3 -1 115 -1 #SUP: 2
3379 -1 3 -1 50 -1 #SUP: 2
3681 -1 113 -1 3 -1 #SUP: 2
3 -1 3 -1 31 -1 113 -1 #SUP: 2
3 -1 10 -1 65 -1 2278 -1 #SUP: 2
3 -1 22 -1 129 -1 75 -1 #SUP: 2
3 -1 27 -1 64 -1 141 -1 #SUP: 2
3 -1 31 -1 113 -1 64 -1 #SUP: 3
3 -1 64 -1 65 -1 151 -1 #SUP: 2
3 -1 65 -1 517 -1 2 -1 #SUP: 2
3 -1 115 -1 22 -1 75 -1 #SUP: 2
3 -1 115 -1 22 -1 129 -1 #SUP: 2
3 -1 115 -1 129 -1 75 -1 #SUP: 2
3 -1 187 -1 190 -1 113 -1 #SUP: 2
3 -1 406 -1 76 -1 340 -1 #SUP: 2
3 -1 557 -1 22 -1 75 -1 #SUP: 3
3 -1 557 -1 22 -1 129 -1 #SUP: 2
3 -1 557 -1 115 -1 22 -1 #SUP: 2
3 -1 557 -1 115 -1 75 -1 #SUP: 2
3 -1 557 -1 115 -1 129 -1 #SUP: 2
3 -1 557 -1 129 -1 75 -1 #SUP: 2
3 -1 706 -1 64 -1 65 -1 #SUP: 2
3 -1 706 -1 64 -1 151 -1 #SUP: 2
3 -1 706 -1 65 -1 151 -1 #SUP: 2
7 -1 3 -1 31 -1 1588 -1 #SUP: 2
7 -1 3 -1 64 -1 65 -1 #SUP: 2
7 -1 3 -1 706 -1 64 -1 #SUP: 2
7 -1 3 -1 706 -1 65 -1 #SUP: 2
7 -1 3 -1 1588 -1 385 -1 #SUP: 2
7 -1 168 -1 3 -1 64 -1 #SUP: 2
7 -1 168 -1 3 -1 65 -1 #SUP: 2
7 -1 168 -1 3 -1 706 -1 #SUP: 2
7 -1 168 -1 64 -1 65 -1 #SUP: 2
7 -1 168 -1 706 -1 64 -1 #SUP: 2
7 -1 168 -1 706 -1 65 -1 #SUP: 2
7 -1 706 -1 64 -1 65 -1 #SUP: 2
10 -1 74 -1 7 -1 3 -1 #SUP: 2
22 -1 7 -1 3 -1 113 -1 #SUP: 2
22 -1 7 -1 3 -1 566 -1 #SUP: 2
22 -1 74 -1 7 -1 3 -1 #SUP: 2
22 -1 74 -1 182 -1 3 -1 #SUP: 2
22 -1 76 -1 113 -1 3 -1 #SUP: 2
22 -1 129 -1 75 -1 65 -1 #SUP: 2
22 -1 417 -1 7 -1 65 -1 #SUP: 2
27 -1 113 -1 2 -1 3 -1 #SUP: 2
27 -1 113 -1 64 -1 141 -1 #SUP: 2
27 -1 113 -1 156 -1 64 -1 #SUP: 2
27 -1 113 -1 156 -1 141 -1 #SUP: 2
27 -1 156 -1 64 -1 141 -1 #SUP: 2
29 -1 64 -1 141 -1 141 -1 #SUP: 2
29 -1 64 -1 141 -1 640 -1 #SUP: 2
29 -1 64 -1 640 -1 141 -1 #SUP: 2
29 -1 141 -1 640 -1 141 -1 #SUP: 2
32 -1 22 -1 113 -1 3 -1 #SUP: 2
33 -1 29 -1 64 -1 141 -1 #SUP: 2
33 -1 29 -1 64 -1 640 -1 #SUP: 2
33 -1 29 -1 141 -1 141 -1 #SUP: 2
33 -1 29 -1 141 -1 640 -1 #SUP: 2
33 -1 29 -1 640 -1 141 -1 #SUP: 2
33 -1 64 -1 141 -1 141 -1 #SUP: 2
33 -1 64 -1 141 -1 640 -1 #SUP: 2
33 -1 64 -1 640 -1 141 -1 #SUP: 2
33 -1 141 -1 640 -1 141 -1 #SUP: 2
41 -1 29 -1 64 -1 141 -1 #SUP: 2
41 -1 33 -1 29 -1 64 -1 #SUP: 2
41 -1 33 -1 29 -1 141 -1 #SUP: 2
41 -1 33 -1 64 -1 141 -1 #SUP: 2
41 -1 141 -1 29 -1 64 -1 #SUP: 2
41 -1 141 -1 29 -1 141 -1 #SUP: 2
41 -1 141 -1 33 -1 29 -1 #SUP: 2
41 -1 141 -1 33 -1 64 -1 #SUP: 2
41 -1 141 -1 33 -1 141 -1 #SUP: 2
41 -1 141 -1 64 -1 141 -1 #SUP: 2
41 -1 158 -1 41 -1 64 -1 #SUP: 2
41 -1 236 -1 41 -1 64 -1 #SUP: 2
41 -1 236 -1 158 -1 41 -1 #SUP: 4
41 -1 236 -1 158 -1 64 -1 #SUP: 2
41 -1 236 -1 312 -1 41 -1 #SUP: 4
41 -1 236 -1 312 -1 64 -1 #SUP: 2
41 -1 236 -1 312 -1 158 -1 #SUP: 4
41 -1 236 -1 312 -1 625 -1 #SUP: 4
41 -1 236 -1 625 -1 41 -1 #SUP: 4
41 -1 236 -1 625 -1 64 -1 #SUP: 2
41 -1 236 -1 625 -1 158 -1 #SUP: 4
41 -1 312 -1 41 -1 64 -1 #SUP: 2
41 -1 312 -1 158 -1 41 -1 #SUP: 4
41 -1 312 -1 158 -1 64 -1 #SUP: 2
41 -1 312 -1 625 -1 41 -1 #SUP: 4
41 -1 312 -1 625 -1 64 -1 #SUP: 2
41 -1 312 -1 625 -1 158 -1 #SUP: 4
41 -1 326 -1 41 -1 29 -1 #SUP: 2
41 -1 326 -1 41 -1 64 -1 #SUP: 3
41 -1 326 -1 158 -1 41 -1 #SUP: 4
41 -1 326 -1 158 -1 64 -1 #SUP: 2
41 -1 326 -1 236 -1 41 -1 #SUP: 4
41 -1 326 -1 236 -1 64 -1 #SUP: 2
41 -1 326 -1 236 -1 158 -1 #SUP: 4
41 -1 326 -1 236 -1 312 -1 #SUP: 4
41 -1 326 -1 236 -1 625 -1 #SUP: 4
41 -1 326 -1 312 -1 41 -1 #SUP: 4
41 -1 326 -1 312 -1 64 -1 #SUP: 2
41 -1 326 -1 312 -1 158 -1 #SUP: 4
41 -1 326 -1 312 -1 625 -1 #SUP: 4
41 -1 326 -1 625 -1 41 -1 #SUP: 4
41 -1 326 -1 625 -1 64 -1 #SUP: 2
41 -1 326 -1 625 -1 158 -1 #SUP: 4
41 -1 484 -1 364 -1 29 -1 #SUP: 2
41 -1 625 -1 41 -1 64 -1 #SUP: 2
41 -1 625 -1 158 -1 41 -1 #SUP: 4
41 -1 625 -1 158 -1 64 -1 #SUP: 2
50 -1 2 -1 113 -1 3 -1 #SUP: 2
50 -1 3 -1 406 -1 76 -1 #SUP: 2
64 -1 76 -1 469 -1 214 -1 #SUP: 2
64 -1 141 -1 64 -1 141 -1 #SUP: 2
64 -1 141 -1 640 -1 141 -1 #SUP: 2
65 -1 32 -1 113 -1 3 -1 #SUP: 2
65 -1 220 -1 160 -1 50 -1 #SUP: 2
66 -1 76 -1 113 -1 3 -1 #SUP: 2
76 -1 2 -1 113 -1 3 -1 #SUP: 2
76 -1 76 -1 76 -1 76 -1 #SUP: 3
76 -1 113 -1 3 -1 64 -1 #SUP: 2
76 -1 113 -1 76 -1 2 -1 #SUP: 2
76 -1 417 -1 7 -1 65 -1 #SUP: 3
76 -1 557 -1 113 -1 194 -1 #SUP: 2
113 -1 2 -1 118 -1 33 -1 #SUP: 2
113 -1 2 -1 182 -1 3 -1 #SUP: 2
113 -1 3 -1 3 -1 31 -1 #SUP: 2
113 -1 3 -1 3 -1 113 -1 #SUP: 2
113 -1 3 -1 10 -1 2 -1 #SUP: 2
113 -1 3 -1 10 -1 65 -1 #SUP: 3
113 -1 3 -1 10 -1 312 -1 #SUP: 2
113 -1 3 -1 10 -1 2278 -1 #SUP: 3
113 -1 3 -1 16 -1 32 -1 #SUP: 2
113 -1 3 -1 22 -1 32 -1 #SUP: 2
113 -1 3 -1 27 -1 64 -1 #SUP: 2
113 -1 3 -1 31 -1 113 -1 #SUP: 3
113 -1 3 -1 64 -1 65 -1 #SUP: 2
113 -1 3 -1 65 -1 2 -1 #SUP: 3
113 -1 3 -1 65 -1 32 -1 #SUP: 2
113 -1 3 -1 65 -1 163 -1 #SUP: 2
113 -1 3 -1 65 -1 264 -1 #SUP: 2
113 -1 3 -1 65 -1 517 -1 #SUP: 2
113 -1 3 -1 65 -1 1801 -1 #SUP: 2
113 -1 3 -1 65 -1 2278 -1 #SUP: 2
113 -1 3 -1 76 -1 76 -1 #SUP: 2
113 -1 3 -1 76 -1 113 -1 #SUP: 3
113 -1 3 -1 76 -1 557 -1 #SUP: 2
113 -1 3 -1 113 -1 3 -1 #SUP: 2
113 -1 3 -1 113 -1 7 -1 #SUP: 2
113 -1 3 -1 113 -1 64 -1 #SUP: 2
113 -1 3 -1 264 -1 113 -1 #SUP: 2
113 -1 3 -1 266 -1 213 -1 #SUP: 2
113 -1 3 -1 406 -1 76 -1 #SUP: 3
113 -1 3 -1 406 -1 113 -1 #SUP: 2
113 -1 3 -1 517 -1 2 -1 #SUP: 2
113 -1 3 -1 786 -1 65 -1 #SUP: 2
113 -1 3 -1 786 -1 113 -1 #SUP: 2
113 -1 3 -1 870 -1 32 -1 #SUP: 2
113 -1 3 -1 1588 -1 385 -1 #SUP: 2
113 -1 7 -1 3 -1 22 -1 #SUP: 2
113 -1 7 -1 3 -1 31 -1 #SUP: 2
113 -1 7 -1 3 -1 65 -1 #SUP: 3
113 -1 7 -1 3 -1 160 -1 #SUP: 2
113 -1 7 -1 3 -1 385 -1 #SUP: 2
113 -1 7 -1 3 -1 1588 -1 #SUP: 2
113 -1 7 -1 65 -1 49 -1 #SUP: 2
113 -1 7 -1 65 -1 160 -1 #SUP: 2
113 -1 7 -1 65 -1 385 -1 #SUP: 2
113 -1 7 -1 160 -1 31 -1 #SUP: 2
113 -1 7 -1 1588 -1 385 -1 #SUP: 2
113 -1 10 -1 65 -1 2278 -1 #SUP: 3
113 -1 10 -1 76 -1 7 -1 #SUP: 2
113 -1 22 -1 76 -1 7 -1 #SUP: 2
113 -1 22 -1 76 -1 182 -1 #SUP: 2
113 -1 22 -1 129 -1 670 -1 #SUP: 2
113 -1 27 -1 64 -1 141 -1 #SUP: 2
113 -1 27 -1 113 -1 2 -1 #SUP: 2
113 -1 27 -1 113 -1 64 -1 #SUP: 2
113 -1 27 -1 113 -1 156 -1 #SUP: 2
113 -1 27 -1 156 -1 64 -1 #SUP: 2
113 -1 65 -1 251 -1 3 -1 #SUP: 2
113 -1 65 -1 517 -1 2 -1 #SUP: 2
113 -1 113 -1 3 -1 10 -1 #SUP: 2
113 -1 113 -1 156 -1 64 -1 #SUP: 3
113 -1 113 -1 161 -1 3 -1 #SUP: 2
113 -1 156 -1 64 -1 141 -1 #SUP: 2
113 -1 158 -1 113 -1 3 -1 #SUP: 2
113 -1 158 -1 1099 -1 278 -1 #SUP: 2
113 -1 161 -1 3 -1 3 -1 #SUP: 2
113 -1 161 -1 3 -1 65 -1 #SUP: 2
113 -1 161 -1 3 -1 113 -1 #SUP: 2
113 -1 161 -1 113 -1 3 -1 #SUP: 2
113 -1 182 -1 3 -1 31 -1 #SUP: 2
113 -1 182 -1 3 -1 65 -1 #SUP: 2
113 -1 182 -1 3 -1 113 -1 #SUP: 3
113 -1 182 -1 31 -1 113 -1 #SUP: 2
113 -1 182 -1 161 -1 3 -1 #SUP: 2
113 -1 194 -1 3 -1 64 -1 #SUP: 2
113 -1 194 -1 3 -1 113 -1 #SUP: 2
113 -1 194 -1 113 -1 3 -1 #SUP: 2
113 -1 194 -1 161 -1 3 -1 #SUP: 2
113 -1 194 -1 182 -1 3 -1 #SUP: 2
113 -1 194 -1 250 -1 3 -1 #SUP: 2
113 -1 208 -1 3 -1 10 -1 #SUP: 2
113 -1 250 -1 3 -1 65 -1 #SUP: 2
113 -1 256 -1 2 -1 113 -1 #SUP: 2
113 -1 340 -1 3 -1 113 -1 #SUP: 2
113 -1 463 -1 187 -1 2 -1 #SUP: 2
113 -1 497 -1 76 -1 113 -1 #SUP: 2
113 -1 504 -1 3 -1 65 -1 #SUP: 2
113 -1 504 -1 3 -1 312 -1 #SUP: 2
113 -1 504 -1 182 -1 3 -1 #SUP: 4
113 -1 504 -1 182 -1 65 -1 #SUP: 2
113 -1 711 -1 182 -1 3 -1 #SUP: 2
113 -1 711 -1 504 -1 3 -1 #SUP: 2
113 -1 711 -1 504 -1 182 -1 #SUP: 2
113 -1 786 -1 3 -1 113 -1 #SUP: 2
113 -1 786 -1 340 -1 3 -1 #SUP: 2
113 -1 786 -1 340 -1 113 -1 #SUP: 2
113 -1 1327 -1 158 -1 3 -1 #SUP: 2
113 -1 1327 -1 158 -1 113 -1 #SUP: 2
113 -1 1327 -1 158 -1 189 -1 #SUP: 2
113 -1 1327 -1 158 -1 278 -1 #SUP: 2
113 -1 1327 -1 158 -1 1099 -1 #SUP: 2
113 -1 1327 -1 1099 -1 278 -1 #SUP: 2
115 -1 22 -1 75 -1 65 -1 #SUP: 2
115 -1 22 -1 129 -1 65 -1 #SUP: 2
115 -1 22 -1 129 -1 75 -1 #SUP: 2
115 -1 129 -1 75 -1 65 -1 #SUP: 2
141 -1 22 -1 64 -1 141 -1 #SUP: 2
141 -1 29 -1 64 -1 141 -1 #SUP: 2
141 -1 29 -1 64 -1 640 -1 #SUP: 2
141 -1 29 -1 141 -1 640 -1 #SUP: 2
141 -1 33 -1 29 -1 64 -1 #SUP: 2
141 -1 33 -1 29 -1 141 -1 #SUP: 2
141 -1 33 -1 29 -1 640 -1 #SUP: 2
141 -1 33 -1 64 -1 141 -1 #SUP: 2
141 -1 33 -1 64 -1 640 -1 #SUP: 2
141 -1 33 -1 141 -1 640 -1 #SUP: 2
141 -1 64 -1 141 -1 151 -1 #SUP: 2
141 -1 64 -1 141 -1 640 -1 #SUP: 2
156 -1 64 -1 76 -1 214 -1 #SUP: 2
156 -1 64 -1 76 -1 469 -1 #SUP: 2
156 -1 64 -1 469 -1 214 -1 #SUP: 2
156 -1 76 -1 469 -1 214 -1 #SUP: 2
158 -1 113 -1 3 -1 64 -1 #SUP: 2
161 -1 3 -1 31 -1 113 -1 #SUP: 2
161 -1 3 -1 65 -1 113 -1 #SUP: 2
161 -1 3 -1 113 -1 3 -1 #SUP: 2
168 -1 3 -1 64 -1 65 -1 #SUP: 2
168 -1 3 -1 64 -1 151 -1 #SUP: 2
168 -1 3 -1 65 -1 151 -1 #SUP: 2
168 -1 3 -1 706 -1 64 -1 #SUP: 2
168 -1 3 -1 706 -1 65 -1 #SUP: 2
168 -1 3 -1 706 -1 151 -1 #SUP: 2
168 -1 64 -1 65 -1 151 -1 #SUP: 2
168 -1 706 -1 64 -1 65 -1 #SUP: 2
168 -1 706 -1 64 -1 151 -1 #SUP: 2
168 -1 706 -1 65 -1 151 -1 #SUP: 2
182 -1 3 -1 31 -1 64 -1 #SUP: 2
182 -1 3 -1 31 -1 113 -1 #SUP: 3
182 -1 3 -1 113 -1 3 -1 #SUP: 2
182 -1 3 -1 113 -1 64 -1 #SUP: 2
182 -1 31 -1 113 -1 64 -1 #SUP: 2
182 -1 113 -1 3 -1 10 -1 #SUP: 2
182 -1 161 -1 3 -1 31 -1 #SUP: 2
182 -1 161 -1 3 -1 113 -1 #SUP: 2
182 -1 161 -1 31 -1 113 -1 #SUP: 2
190 -1 3 -1 187 -1 113 -1 #SUP: 2
190 -1 3 -1 187 -1 190 -1 #SUP: 2
190 -1 3 -1 190 -1 113 -1 #SUP: 2
190 -1 3 -1 635 -1 113 -1 #SUP: 2
190 -1 187 -1 190 -1 113 -1 #SUP: 2
208 -1 3 -1 10 -1 2278 -1 #SUP: 2
224 -1 64 -1 76 -1 214 -1 #SUP: 2
224 -1 64 -1 76 -1 469 -1 #SUP: 2
224 -1 64 -1 469 -1 214 -1 #SUP: 2
224 -1 76 -1 469 -1 214 -1 #SUP: 2
224 -1 156 -1 64 -1 76 -1 #SUP: 2
224 -1 156 -1 64 -1 214 -1 #SUP: 2
224 -1 156 -1 64 -1 469 -1 #SUP: 2
224 -1 156 -1 64 -1 636 -1 #SUP: 2
224 -1 156 -1 76 -1 214 -1 #SUP: 2
224 -1 156 -1 76 -1 469 -1 #SUP: 2
224 -1 156 -1 469 -1 214 -1 #SUP: 2
224 -1 469 -1 64 -1 76 -1 #SUP: 2
224 -1 469 -1 64 -1 214 -1 #SUP: 2
224 -1 469 -1 64 -1 469 -1 #SUP: 2
224 -1 469 -1 64 -1 636 -1 #SUP: 2
224 -1 469 -1 76 -1 214 -1 #SUP: 2
224 -1 469 -1 76 -1 469 -1 #SUP: 2
224 -1 469 -1 156 -1 64 -1 #SUP: 2
224 -1 469 -1 156 -1 76 -1 #SUP: 2
224 -1 469 -1 156 -1 214 -1 #SUP: 2
224 -1 469 -1 156 -1 469 -1 #SUP: 2
224 -1 469 -1 156 -1 636 -1 #SUP: 2
224 -1 469 -1 469 -1 214 -1 #SUP: 2
236 -1 158 -1 41 -1 64 -1 #SUP: 2
236 -1 312 -1 41 -1 64 -1 #SUP: 2
236 -1 312 -1 158 -1 41 -1 #SUP: 4
236 -1 312 -1 158 -1 64 -1 #SUP: 2
236 -1 312 -1 625 -1 41 -1 #SUP: 4
236 -1 312 -1 625 -1 64 -1 #SUP: 2
236 -1 312 -1 625 -1 158 -1 #SUP: 4
236 -1 625 -1 41 -1 64 -1 #SUP: 2
236 -1 625 -1 158 -1 41 -1 #SUP: 4
236 -1 625 -1 158 -1 64 -1 #SUP: 2
248 -1 76 -1 113 -1 3 -1 #SUP: 2
312 -1 158 -1 41 -1 64 -1 #SUP: 2
312 -1 158 -1 41 -1 443 -1 #SUP: 2
312 -1 625 -1 41 -1 64 -1 #SUP: 2
312 -1 625 -1 41 -1 443 -1 #SUP: 2
312 -1 625 -1 158 -1 41 -1 #SUP: 4
312 -1 625 -1 158 -1 64 -1 #SUP: 2
312 -1 625 -1 158 -1 443 -1 #SUP: 2
326 -1 158 -1 41 -1 64 -1 #SUP: 2
326 -1 236 -1 41 -1 64 -1 #SUP: 2
326 -1 236 -1 158 -1 41 -1 #SUP: 4
326 -1 236 -1 158 -1 64 -1 #SUP: 2
326 -1 236 -1 312 -1 41 -1 #SUP: 4
326 -1 236 -1 312 -1 64 -1 #SUP: 2
326 -1 236 -1 312 -1 158 -1 #SUP: 4
326 -1 236 -1 312 -1 625 -1 #SUP: 4
326 -1 236 -1 625 -1 41 -1 #SUP: 4
326 -1 236 -1 625 -1 64 -1 #SUP: 2
326 -1 236 -1 625 -1 158 -1 #SUP: 4
326 -1 312 -1 41 -1 64 -1 #SUP: 2
326 -1 312 -1 158 -1 41 -1 #SUP: 4
326 -1 312 -1 158 -1 64 -1 #SUP: 2
326 -1 312 -1 625 -1 41 -1 #SUP: 4
326 -1 312 -1 625 -1 64 -1 #SUP: 2
326 -1 312 -1 625 -1 158 -1 #SUP: 4
326 -1 625 -1 41 -1 64 -1 #SUP: 2
326 -1 625 -1 158 -1 41 -1 #SUP: 4
326 -1 625 -1 158 -1 64 -1 #SUP: 2
417 -1 7 -1 22 -1 129 -1 #SUP: 2
417 -1 7 -1 65 -1 1100 -1 #SUP: 2
469 -1 2 -1 182 -1 3 -1 #SUP: 2
469 -1 64 -1 76 -1 214 -1 #SUP: 2
469 -1 64 -1 76 -1 469 -1 #SUP: 2
469 -1 64 -1 469 -1 214 -1 #SUP: 2
469 -1 76 -1 469 -1 214 -1 #SUP: 2
469 -1 156 -1 64 -1 76 -1 #SUP: 2
469 -1 156 -1 64 -1 214 -1 #SUP: 2
469 -1 156 -1 64 -1 469 -1 #SUP: 2
469 -1 156 -1 64 -1 636 -1 #SUP: 2
469 -1 156 -1 76 -1 214 -1 #SUP: 2
469 -1 156 -1 76 -1 469 -1 #SUP: 2
469 -1 156 -1 469 -1 214 -1 #SUP: 2
504 -1 182 -1 3 -1 65 -1 #SUP: 2
557 -1 3 -1 10 -1 65 -1 #SUP: 2
557 -1 22 -1 75 -1 65 -1 #SUP: 2
557 -1 22 -1 75 -1 417 -1 #SUP: 2
557 -1 22 -1 129 -1 65 -1 #SUP: 2
557 -1 22 -1 129 -1 75 -1 #SUP: 2
557 -1 113 -1 3 -1 10 -1 #SUP: 2
557 -1 113 -1 3 -1 65 -1 #SUP: 3
557 -1 113 -1 10 -1 65 -1 #SUP: 2
557 -1 115 -1 22 -1 65 -1 #SUP: 2
557 -1 115 -1 22 -1 75 -1 #SUP: 2
557 -1 115 -1 22 -1 129 -1 #SUP: 2
557 -1 115 -1 75 -1 65 -1 #SUP: 2
557 -1 115 -1 129 -1 65 -1 #SUP: 2
557 -1 115 -1 129 -1 75 -1 #SUP: 2
557 -1 129 -1 75 -1 65 -1 #SUP: 2
625 -1 158 -1 41 -1 64 -1 #SUP: 2
625 -1 158 -1 41 -1 443 -1 #SUP: 2
635 -1 44 -1 113 -1 3 -1 #SUP: 2
635 -1 44 -1 113 -1 113 -1 #SUP: 2
702 -1 3 -1 211 -1 3 -1 #SUP: 2
706 -1 64 -1 65 -1 151 -1 #SUP: 2
711 -1 504 -1 182 -1 3 -1 #SUP: 2
786 -1 340 -1 3 -1 113 -1 #SUP: 2
1121 -1 2 -1 1524 -1 2 -1 #SUP: 2
1327 -1 158 -1 1099 -1 278 -1 #SUP: 2
3 -1 115 -1 22 -1 129 -1 75 -1 #SUP: 2
3 -1 557 -1 22 -1 129 -1 75 -1 #SUP: 2
3 -1 557 -1 115 -1 22 -1 75 -1 #SUP: 2
3 -1 557 -1 115 -1 22 -1 129 -1 #SUP: 2
3 -1 557 -1 115 -1 129 -1 75 -1 #SUP: 2
3 -1 706 -1 64 -1 65 -1 151 -1 #SUP: 2
7 -1 3 -1 706 -1 64 -1 65 -1 #SUP: 2
7 -1 168 -1 3 -1 64 -1 65 -1 #SUP: 2
7 -1 168 -1 3 -1 706 -1 64 -1 #SUP: 2
7 -1 168 -1 3 -1 706 -1 65 -1 #SUP: 2
7 -1 168 -1 706 -1 64 -1 65 -1 #SUP: 2
27 -1 113 -1 156 -1 64 -1 141 -1 #SUP: 2
29 -1 64 -1 141 -1 640 -1 141 -1 #SUP: 2
33 -1 29 -1 64 -1 141 -1 141 -1 #SUP: 2
33 -1 29 -1 64 -1 141 -1 640 -1 #SUP: 2
33 -1 29 -1 64 -1 640 -1 141 -1 #SUP: 2
33 -1 29 -1 141 -1 640 -1 141 -1 #SUP: 2
33 -1 64 -1 141 -1 640 -1 141 -1 #SUP: 2
41 -1 33 -1 29 -1 64 -1 141 -1 #SUP: 2
41 -1 141 -1 29 -1 64 -1 141 -1 #SUP: 2
41 -1 141 -1 33 -1 29 -1 64 -1 #SUP: 2
41 -1 141 -1 33 -1 29 -1 141 -1 #SUP: 2
41 -1 141 -1 33 -1 64 -1 141 -1 #SUP: 2
41 -1 236 -1 158 -1 41 -1 64 -1 #SUP: 2
41 -1 236 -1 312 -1 41 -1 64 -1 #SUP: 2
41 -1 236 -1 312 -1 158 -1 41 -1 #SUP: 4
41 -1 236 -1 312 -1 158 -1 64 -1 #SUP: 2
41 -1 236 -1 312 -1 625 -1 41 -1 #SUP: 4
41 -1 236 -1 312 -1 625 -1 64 -1 #SUP: 2
41 -1 236 -1 312 -1 625 -1 158 -1 #SUP: 4
41 -1 236 -1 625 -1 41 -1 64 -1 #SUP: 2
41 -1 236 -1 625 -1 158 -1 41 -1 #SUP: 4
41 -1 236 -1 625 -1 158 -1 64 -1 #SUP: 2
41 -1 312 -1 158 -1 41 -1 64 -1 #SUP: 2
41 -1 312 -1 625 -1 41 -1 64 -1 #SUP: 2
41 -1 312 -1 625 -1 158 -1 41 -1 #SUP: 4
41 -1 312 -1 625 -1 158 -1 64 -1 #SUP: 2
41 -1 326 -1 158 -1 41 -1 64 -1 #SUP: 2
41 -1 326 -1 236 -1 41 -1 64 -1 #SUP: 2
41 -1 326 -1 236 -1 158 -1 41 -1 #SUP: 4
41 -1 326 -1 236 -1 158 -1 64 -1 #SUP: 2
41 -1 326 -1 236 -1 312 -1 41 -1 #SUP: 4
41 -1 326 -1 236 -1 312 -1 64 -1 #SUP: 2
41 -1 326 -1 236 -1 312 -1 158 -1 #SUP: 4
41 -1 326 -1 236 -1 312 -1 625 -1 #SUP: 4
41 -1 326 -1 236 -1 625 -1 41 -1 #SUP: 4
41 -1 326 -1 236 -1 625 -1 64 -1 #SUP: 2
41 -1 326 -1 236 -1 625 -1 158 -1 #SUP: 4
41 -1 326 -1 312 -1 41 -1 64 -1 #SUP: 2
41 -1 326 -1 312 -1 158 -1 41 -1 #SUP: 4
41 -1 326 -1 312 -1 158 -1 64 -1 #SUP: 2
41 -1 326 -1 312 -1 625 -1 41 -1 #SUP: 4
41 -1 326 -1 312 -1 625 -1 64 -1 #SUP: 2
41 -1 326 -1 312 -1 625 -1 158 -1 #SUP: 4
41 -1 326 -1 625 -1 41 -1 64 -1 #SUP: 2
41 -1 326 -1 625 -1 158 -1 41 -1 #SUP: 4
41 -1 326 -1 625 -1 158 -1 64 -1 #SUP: 2
41 -1 625 -1 158 -1 41 -1 64 -1 #SUP: 2
76 -1 76 -1 76 -1 76 -1 76 -1 #SUP: 3
113 -1 3 -1 3 -1 31 -1 113 -1 #SUP: 2
113 -1 3 -1 10 -1 65 -1 2278 -1 #SUP: 2
113 -1 3 -1 65 -1 517 -1 2 -1 #SUP: 2
113 -1 7 -1 3 -1 1588 -1 385 -1 #SUP: 2
113 -1 27 -1 113 -1 156 -1 64 -1 #SUP: 2
113 -1 161 -1 3 -1 113 -1 3 -1 #SUP: 2
113 -1 182 -1 3 -1 31 -1 113 -1 #SUP: 2
113 -1 504 -1 182 -1 3 -1 65 -1 #SUP: 2
113 -1 711 -1 504 -1 182 -1 3 -1 #SUP: 2
113 -1 786 -1 340 -1 3 -1 113 -1 #SUP: 2
113 -1 1327 -1 158 -1 1099 -1 278 -1 #SUP: 2
115 -1 22 -1 129 -1 75 -1 65 -1 #SUP: 2
141 -1 29 -1 64 -1 141 -1 640 -1 #SUP: 2
141 -1 33 -1 29 -1 64 -1 141 -1 #SUP: 2
141 -1 33 -1 29 -1 64 -1 640 -1 #SUP: 2
141 -1 33 -1 29 -1 141 -1 640 -1 #SUP: 2
141 -1 33 -1 64 -1 141 -1 640 -1 #SUP: 2
156 -1 64 -1 76 -1 469 -1 214 -1 #SUP: 2
168 -1 3 -1 64 -1 65 -1 151 -1 #SUP: 2
168 -1 3 -1 706 -1 64 -1 65 -1 #SUP: 2
168 -1 3 -1 706 -1 64 -1 151 -1 #SUP: 2
168 -1 3 -1 706 -1 65 -1 151 -1 #SUP: 2
168 -1 706 -1 64 -1 65 -1 151 -1 #SUP: 2
182 -1 3 -1 31 -1 113 -1 64 -1 #SUP: 2
182 -1 161 -1 3 -1 31 -1 113 -1 #SUP: 2
190 -1 3 -1 187 -1 190 -1 113 -1 #SUP: 2
224 -1 64 -1 76 -1 469 -1 214 -1 #SUP: 2
224 -1 156 -1 64 -1 76 -1 214 -1 #SUP: 2
224 -1 156 -1 64 -1 76 -1 469 -1 #SUP: 2
224 -1 156 -1 64 -1 469 -1 214 -1 #SUP: 2
224 -1 156 -1 76 -1 469 -1 214 -1 #SUP: 2
224 -1 469 -1 64 -1 76 -1 214 -1 #SUP: 2
224 -1 469 -1 64 -1 76 -1 469 -1 #SUP: 2
224 -1 469 -1 64 -1 469 -1 214 -1 #SUP: 2
224 -1 469 -1 76 -1 469 -1 214 -1 #SUP: 2
224 -1 469 -1 156 -1 64 -1 76 -1 #SUP: 2
224 -1 469 -1 156 -1 64 -1 214 -1 #SUP: 2
224 -1 469 -1 156 -1 64 -1 469 -1 #SUP: 2
224 -1 469 -1 156 -1 64 -1 636 -1 #SUP: 2
224 -1 469 -1 156 -1 76 -1 214 -1 #SUP: 2
224 -1 469 -1 156 -1 76 -1 469 -1 #SUP: 2
224 -1 469 -1 156 -1 469 -1 214 -1 #SUP: 2
236 -1 312 -1 158 -1 41 -1 64 -1 #SUP: 2
236 -1 312 -1 625 -1 41 -1 64 -1 #SUP: 2
236 -1 312 -1 625 -1 158 -1 41 -1 #SUP: 4
236 -1 312 -1 625 -1 158 -1 64 -1 #SUP: 2
236 -1 625 -1 158 -1 41 -1 64 -1 #SUP: 2
312 -1 625 -1 158 -1 41 -1 64 -1 #SUP: 2
312 -1 625 -1 158 -1 41 -1 443 -1 #SUP: 2
326 -1 236 -1 158 -1 41 -1 64 -1 #SUP: 2
326 -1 236 -1 312 -1 41 -1 64 -1 #SUP: 2
326 -1 236 -1 312 -1 158 -1 41 -1 #SUP: 4
326 -1 236 -1 312 -1 158 -1 64 -1 #SUP: 2
326 -1 236 -1 312 -1 625 -1 41 -1 #SUP: 4
326 -1 236 -1 312 -1 625 -1 64 -1 #SUP: 2
326 -1 236 -1 312 -1 625 -1 158 -1 #SUP: 4
326 -1 236 -1 625 -1 41 -1 64 -1 #SUP: 2
326 -1 236 -1 625 -1 158 -1 41 -1 #SUP: 4
326 -1 236 -1 625 -1 158 -1 64 -1 #SUP: 2
326 -1 312 -1 158 -1 41 -1 64 -1 #SUP: 2
326 -1 312 -1 625 -1 41 -1 64 -1 #SUP: 2
326 -1 312 -1 625 -1 158 -1 41 -1 #SUP: 4
326 -1 312 -1 625 -1 158 -1 64 -1 #SUP: 2
326 -1 625 -1 158 -1 41 -1 64 -1 #SUP: 2
469 -1 64 -1 76 -1 469 -1 214 -1 #SUP: 2
469 -1 156 -1 64 -1 76 -1 214 -1 #SUP: 2
469 -1 156 -1 64 -1 76 -1 469 -1 #SUP: 2
469 -1 156 -1 64 -1 469 -1 214 -1 #SUP: 2
469 -1 156 -1 76 -1 469 -1 214 -1 #SUP: 2
557 -1 22 -1 129 -1 75 -1 65 -1 #SUP: 2
557 -1 113 -1 3 -1 10 -1 65 -1 #SUP: 2
557 -1 115 -1 22 -1 75 -1 65 -1 #SUP: 2
557 -1 115 -1 22 -1 129 -1 65 -1 #SUP: 2
557 -1 115 -1 22 -1 129 -1 75 -1 #SUP: 2
557 -1 115 -1 129 -1 75 -1 65 -1 #SUP: 2
3 -1 557 -1 115 -1 22 -1 129 -1 75 -1 #SUP: 2
7 -1 168 -1 3 -1 706 -1 64 -1 65 -1 #SUP: 2
33 -1 29 -1 64 -1 141 -1 640 -1 141 -1 #SUP: 2
41 -1 141 -1 33 -1 29 -1 64 -1 141 -1 #SUP: 2
41 -1 236 -1 312 -1 158 -1 41 -1 64 -1 #SUP: 2
41 -1 236 -1 312 -1 625 -1 41 -1 64 -1 #SUP: 2
41 -1 236 -1 312 -1 625 -1 158 -1 41 -1 #SUP: 4
41 -1 236 -1 312 -1 625 -1 158 -1 64 -1 #SUP: 2
41 -1 236 -1 625 -1 158 -1 41 -1 64 -1 #SUP: 2
41 -1 312 -1 625 -1 158 -1 41 -1 64 -1 #SUP: 2
41 -1 326 -1 236 -1 158 -1 41 -1 64 -1 #SUP: 2
41 -1 326 -1 236 -1 312 -1 41 -1 64 -1 #SUP: 2
41 -1 326 -1 236 -1 312 -1 158 -1 41 -1 #SUP: 4
41 -1 326 -1 236 -1 312 -1 158 -1 64 -1 #SUP: 2
41 -1 326 -1 236 -1 312 -1 625 -1 41 -1 #SUP: 4
41 -1 326 -1 236 -1 312 -1 625 -1 64 -1 #SUP: 2
41 -1 326 -1 236 -1 312 -1 625 -1 158 -1 #SUP: 4
41 -1 326 -1 236 -1 625 -1 41 -1 64 -1 #SUP: 2
41 -1 326 -1 236 -1 625 -1 158 -1 41 -1 #SUP: 4
41 -1 326 -1 236 -1 625 -1 158 -1 64 -1 #SUP: 2
41 -1 326 -1 312 -1 158 -1 41 -1 64 -1 #SUP: 2
41 -1 326 -1 312 -1 625 -1 41 -1 64 -1 #SUP: 2
41 -1 326 -1 312 -1 625 -1 158 -1 41 -1 #SUP: 4
41 -1 326 -1 312 -1 625 -1 158 -1 64 -1 #SUP: 2
41 -1 326 -1 625 -1 158 -1 41 -1 64 -1 #SUP: 2
141 -1 33 -1 29 -1 64 -1 141 -1 640 -1 #SUP: 2
168 -1 3 -1 706 -1 64 -1 65 -1 151 -1 #SUP: 2
224 -1 156 -1 64 -1 76 -1 469 -1 214 -1 #SUP: 2
224 -1 469 -1 64 -1 76 -1 469 -1 214 -1 #SUP: 2
224 -1 469 -1 156 -1 64 -1 76 -1 214 -1 #SUP: 2
224 -1 469 -1 156 -1 64 -1 76 -1 469 -1 #SUP: 2
224 -1 469 -1 156 -1 64 -1 469 -1 214 -1 #SUP: 2
224 -1 469 -1 156 -1 76 -1 469 -1 214 -1 #SUP: 2
236 -1 312 -1 625 -1 158 -1 41 -1 64 -1 #SUP: 2
326 -1 236 -1 312 -1 158 -1 41 -1 64 -1 #SUP: 2
326 -1 236 -1 312 -1 625 -1 41 -1 64 -1 #SUP: 2
326 -1 236 -1 312 -1 625 -1 158 -1 41 -1 #SUP: 4
326 -1 236 -1 312 -1 625 -1 158 -1 64 -1 #SUP: 2
326 -1 236 -1 625 -1 158 -1 41 -1 64 -1 #SUP: 2
326 -1 312 -1 625 -1 158 -1 41 -1 64 -1 #SUP: 2
469 -1 156 -1 64 -1 76 -1 469 -1 214 -1 #SUP: 2
557 -1 115 -1 22 -1 129 -1 75 -1 65 -1 #SUP: 2
41 -1 236 -1 312 -1 625 -1 158 -1 41 -1 64 -1 #SUP: 2
41 -1 326 -1 236 -1 312 -1 158 -1 41 -1 64 -1 #SUP: 2
41 -1 326 -1 236 -1 312 -1 625 -1 41 -1 64 -1 #SUP: 2
41 -1 326 -1 236 -1 312 -1 625 -1 158 -1 41 -1 #SUP: 4
41 -1 326 -1 236 -1 312 -1 625 -1 158 -1 64 -1 #SUP: 2
41 -1 326 -1 236 -1 625 -1 158 -1 41 -1 64 -1 #SUP: 2
41 -1 326 -1 312 -1 625 -1 158 -1 41 -1 64 -1 #SUP: 2
224 -1 469 -1 156 -1 64 -1 76 -1 469 -1 214 -1 #SUP: 2
326 -1 236 -1 312 -1 625 -1 158 -1 41 -1 64 -1 #SUP: 2
41 -1 326 -1 236 -1 312 -1 625 -1 158 -1 41 -1 64 -1 #SUP: 2
