9 -1 28 -1 26 -1 121822 -1 113 -1 571 -1 18272 -1 76 -1 2 -1 50 -1 177 -1 3 -1 22 -1 687 -1 32 -1 22 -1 16821 -1 10 -1 22 -1 29377 -1 2340 -1 76 -1 262 -1 2340 -1 76 -1 3 -1 22 -1 9332 -1 32 -1 50 -1 10823 -1 30 -2
22 -1 4400 -1 1562 -1 76 -1 2 -1 12405 -1 3 -1 22 -1 7749 -1 221 -1 22 -1 52034 -1 2406 -1 30 -2
368 -1 113 -1 256 -1 692 -1 33 -1 65 -1 607 -1 76 -1 2 -1 342 -1 194 -1 615 -1 76 -1 141 -1 250 -1 76 -1 141 -1 250 -1 76 -1 141 -1 250 -1 76 -1 2 -1 232 -1 250 -1 18765 -1 262 -1 847 -1 76 -1 2 -1 1753 -1 141 -1 76 -1 2 -1 121823 -1 30 -2
113 -1 3712 -1 22 -1 6514 -1 33 -1 65 -1 6375 -1 355 -1 3003 -1 76 -1 30 -2
158 -1 41 -1 10913 -1 7 -1 527 -1 1287 -1 135 -1 10 -1 279 -1 30 -2
22 -1 2083 -1 3258 -1 510 -1 864 -1 76 -1 22 -1 15104 -1 4657 -1 3 -1 3872 -1 76 -1 2 -1 1017 -1 3 -1 936 -1 30 -2
282 -1 2026 -1 76 -1 200 -1 2065 -1 635 -1 2065 -1 121824 -1 2 -1 10278 -1 32 -1 12627 -1 2 -1 201 -1 94975 -1 30 -2
113 -1 3 -1 5987 -1 65 -1 2044 -1 65 -1 8336 -1 76 -1 179 -1 312 -1 5362 -1 10 -1 65 -1 5600 -1 15392 -1 2200 -1 76 -1 2 -1 375 -1 493 -1 316 -1 30 -2
8191 -1 11392 -1 30 -2
113 -1 571 -1 113 -1 635 -1 22781 -1 271 -2
22 -1 6793 -1 92 -1 76 -1 2876 -1 76 -1 3150 -1 76 -1 121825 -1 66 -1 3 -1 163 -1 833 -1 113 -1 154 -1 30 -2
5938 -1 64 -1 121826 -1 76 -1 185 -1 113 -1 371 -1 308 -1 151 -1 10 -1 370 -1 76 -1 2 -1 113 -1 7 -1 182 -1 10 -1 50 -1 30 -2
4527 -1 436 -1 510 -1 113 -1 66138 -1 187 -1 689 -1 113 -1 208 -1 8151 -1 131 -1 30 -2
8612 -1 436 -1 3 -1 22 -1 1047 -1 616 -1 76 -1 255 -1 137 -1 5991 -1 76 -1 232 -1 7534 -1 32701 -1 76 -1 232 -1 5395 -1 76 -1 232 -1 5241 -1 76 -1 232 -1 200 -1 12083 -1 160 -1 527 -1 394 -1 32 -1 1342 -1 131 -1 30 -2
113 -1 161 -1 401 -1 137 -1 16 -1 636 -1 213 -1 33 -1 312 -1 439 -1 1286 -1 273 -1 113 -1 161 -1 463 -1 278 -1 182 -1 30 -2
113 -1 1615 -1 148 -1 1912 -1 1019 -1 2799 -1 76 -1 557 -1 33 -1 4184 -1 76 -1 113 -1 3 -1 1487 -1 65 -1 16207 -1 30 -2
113 -1 3 -1 706 -1 64 -1 2919 -1 65 -1 1100 -1 32 -1 1526 -1 600 -1 1460 -1 76 -1 602 -1 525 -1 113 -1 77 -1 65 -1 2141 -1 500 -1 10 -1 8808 -1 2 -1 2416 -1 973 -1 10 -1 3338 -1 30 -2
406 -1 364 -1 405 -1 54 -1 30 -2
113 -1 7 -1 65 -1 11824 -1 31 -1 2200 -1 16536 -1 548 -1 463 -1 64 -1 27243 -1 149 -1 121827 -1 200 -1 64 -1 1920 -1 31 -1 312 -1 750 -1 149 -1 484 -1 30 -2
76 -1 2 -1 7 -1 50 -1 9148 -1 2 -1 3747 -1 76 -1 2 -1 22 -1 165 -1 151 -1 201 -1 213 -1 208 -1 30 -2
527 -1 780 -1 31 -1 113 -1 115 -1 22 -1 70 -1 412 -1 312 -1 2200 -1 5362 -1 31 -1 65 -1 5600 -1 15392 -1 4206 -1 30 -2
69 -1 600 -1 1396 -1 692 -1 76 -1 860 -1 278 -1 65 -1 725 -1 2 -1 2140 -1 3848 -1 30 -2
242 -1 32 -1 50 -1 1079 -1 692 -1 77 -1 1036 -1 113 -1 211 -1 7 -1 115 -1 121 -1 165 -1 4040 -1 1559 -1 76 -1 2 -1 3821 -1 1451 -1 22 -1 227 -1 1559 -1 2 -1 22 -1 4040 -1 77 -1 400 -1 1450 -1 1965 -1 2090 -1 30 -2
195 -1 474 -1 16 -1 17129 -1 43 -1 388 -1 64 -1 65 -1 1171 -1 765 -1 32 -1 1028 -1 76 -1 30 -2
9 -1 28 -1 26 -1 121829 -1 50 -1 3539 -1 2439 -1 549 -1 244 -1 121828 -1 4701 -1 297 -1 2880 -1 377 -1 30 -2
250 -1 3 -1 644 -1 1492 -1 562 -1 76 -1 64 -1 602 -1 22 -1 1949 -1 2189 -1 139 -1 871 -1 30 -2
566 -1 76 -1 22090 -1 76 -1 32880 -1 269 -1 76 -1 18052 -1 17115 -1 160 -1 1401 -1 32 -1 79137 -1 77 -1 113 -1 141 -1 340 -1 2878 -1 5660 -1 2 -1 5660 -1 64 -1 22 -1 5660 -1 76 -1 121830 -1 65 -1 1039 -1 4774 -1 23431 -1 30 -2
9 -1 28 -1 26 -1 121831 -1 27 -1 141 -1 41 -1 586 -1 65 -1 5620 -1 352 -1 3 -1 451 -1 471 -1 76 -1 451 -1 11640 -1 1 -2
18527 -1 31 -1 2968 -1 1474 -1 271 -2
2182 -1 32 -1 435 -1 2914 -1 7207 -1 76 -1 2 -1 50 -1 692 -1 190 -1 3 -1 141 -1 30 -2
1040 -1 76 -1 527 -1 76 -1 113 -1 214 -1 16 -1 4182 -1 50 -1 2054 -1 364 -1 1167 -1 65 -1 4552 -1 5331 -1 1123 -1 30 -2
1152 -1 4700 -1 316 -1 1365 -1 76 -1 182 -1 1533 -1 3 -1 65 -1 220 -1 2 -1 401 -1 3 -1 65 -1 2847 -1 5748 -1 30 -2
115 -1 151 -1 1203 -1 76 -1 22 -1 72 -1 30 -2
79191 -1 113 -1 7 -1 64 -1 814 -1 4079 -1 814 -1 4079 -1 635 -1 148 -1 814 -1 635 -1 148 -1 76 -1 2 -1 1941 -1 10 -1 297 -1 5644 -1 6889 -1 32 -1 250 -1 160 -1 635 -1 4819 -1 121832 -1 76 -1 484 -1 250 -1 7 -1 65 -1 476 -1 620 -1 10 -1 50 -1 542 -1 30 -1 30 -1 8599 -1 30 -2
602 -1 3 -1 453 -1 312 -1 328 -1 224 -1 41 -1 211 -1 1618 -1 22 -1 616 -1 76 -1 41 -1 3 -1 482 -1 9138 -1 30 -2
342 -1 2265 -1 32 -1 3 -1 33 -1 2082 -1 76 -1 557 -1 2222 -1 113 -1 758 -1 356 -1 4242 -1 279 -1 115 -1 50 -1 5600 -1 76 -1 2 -1 7 -1 7 -1 65 -1 7884 -1 32 -1 247 -1 10 -1 65 -1 380 -1 6889 -1 160 -1 65 -1 8942 -1 4242 -1 1966 -1 804 -1 3460 -1 3531 -1 10 -1 165 -1 30 -2
278 -1 297 -1 44 -1 30 -2
9623 -1 1478 -1 3 -1 712 -1 30 -2
16 -1 30 -2
182 -1 1089 -1 1194 -1 113 -1 66 -1 151 -1 364 -1 30 -2
10 -1 22 -1 687 -1 76 -1 342 -1 22 -1 165 -1 178 -1 2 -1 358 -1 2 -1 7 -1 6 -1 30 -2
113 -1 200 -1 358 -1 16 -1 64 -1 734 -1 553 -1 64 -1 131 -1 224 -1 131 -1 118 -1 156 -1 64 -1 81 -1 553 -1 400 -1 76 -1 232 -1 30 -2
370 -1 8638 -1 30 -1 4509 -1 2716 -1 30 -2
2234 -1 32 -1 6026 -1 3188 -1 3186 -1 30 -2
6023 -1 5453 -1 30 -2
931 -1 5614 -1 1592 -1 2 -1 9014 -1 8043 -1 76 -1 635 -1 8043 -1 76 -1 7580 -1 76 -1 58658 -1 76 -1 373 -1 1592 -1 30 -2
1118 -1 513 -1 16370 -1 30 -2
7767 -1 20748 -1 11230 -1 28559 -1 2807 -1 76 -1 4242 -1 8511 -1 121833 -1 5977 -1 6071 -1 6527 -1 2 -1 1450 -1 1448 -1 88506 -1 16878 -1 17748 -1 1559 -1 6397 -1 88506 -1 30 -2
50 -1 304 -1 596 -1 2805 -1 3 -1 4567 -1 160 -1 65 -1 5747 -1 76 -1 77 -1 69 -1 1487 -1 22 -1 163 -1 113 -1 208 -1 523 -1 30 -2
375 -1 408 -1 3 -1 4091 -1 32 -1 3 -1 932 -1 1511 -1 2 -1 7485 -1 1472 -1 375 -1 493 -1 3 -1 1758 -1 77 -1 1399 -1 2 -1 9798 -1 200 -1 77 -1 408 -1 30 -2
649 -1 76 -1 530 -1 111 -1 32 -1 121834 -1 493 -1 653 -1 113 -1 77 -1 3 -1 30 -2
137 -1 7124 -1 5946 -1 31012 -1 271 -1 76 -1 41 -1 208 -1 1713 -1 29505 -1 65 -1 3537 -1 160 -1 152 -1 722 -1 9803 -1 31012 -1 160 -1 12705 -1 2 -1 26445 -1 76 -1 2 -1 65 -1 25883 -1 30 -2
499 -1 817 -1 125 -1 76 -1 22 -1 3537 -1 76 -1 25883 -1 76 -1 2 -1 168 -1 121835 -1 31012 -1 214 -1 30 -2
5109 -1 753 -1 3245 -1 244 -1 29 -1 435 -1 64 -1 1223 -1 182 -1 3 -1 41 -1 3 -1 506 -1 115 -1 30 -2
952 -1 64 -1 12107 -1 18052 -1 33 -1 3820 -1 30 -2
952 -1 64 -1 510 -1 66 -1 32 -1 29 -1 2117 -1 2213 -1 1713 -1 178 -1 154 -1 64 -1 8714 -1 9803 -1 208 -1 16 -1 3 -1 30 -2
417 -1 200 -1 715 -1 644 -1 4510 -1 2223 -1 487 -1 64 -1 121836 -1 6842 -1 3400 -1 387 -1 49 -1 2880 -1 76 -1 2 -1 113 -1 3 -1 453 -1 81 -1 64 -1 256 -1 155 -1 64 -1 182 -1 30 -2
417 -1 7 -1 47 -1 23409 -1 5078 -1 10 -1 5473 -1 76 -1 2 -1 47 -1 3268 -1 33 -1 22 -1 31859 -1 30 -2
113 -1 758 -1 1618 -1 64 -1 308 -1 30 -2
2485 -1 3261 -1 2908 -1 2 -1 163 -1 3 -1 16 -1 1511 -1 113 -1 3 -1 65 -1 1227 -1 1245 -1 499 -1 66 -1 30 -2
113 -1 493 -1 256 -1 65 -1 1100 -1 32 -1 113 -1 194 -1 41 -1 3 -1 65 -1 3035 -1 5223 -1 115 -1 502 -1 76 -1 689 -1 417 -1 66 -1 401 -1 1099 -1 278 -1 41 -1 78 -1 30 -2
16 -1 64 -1 18607 -1 401 -1 65 -1 1371 -1 76 -1 783 -1 41 -1 113 -1 200 -1 340 -1 64 -1 3 -1 8937 -1 30 -2
113 -1 642 -1 7 -1 65 -1 1536 -1 77 -1 3 -1 731 -1 76 -1 557 -1 113 -1 493 -1 139 -1 296 -1 187 -1 2 -1 504 -1 151 -1 296 -1 244 -1 22 -1 401 -1 30 -2
131 -1 1487 -1 30 -2
22 -1 17841 -1 139 -1 121837 -1 471 -1 3 -1 214 -1 16 -1 64 -1 46903 -1 2050 -1 7 -1 221 -1 1584 -1 6712 -1 296 -1 499 -1 30 -2
273 -1 141 -1 41 -1 1915 -1 158 -1 41 -1 3 -1 2809 -1 1 -2
148 -1 3146 -1 150 -1 113 -1 860 -1 19697 -1 64 -1 3 -1 30 -2
4079 -1 22 -1 737 -1 149 -1 902 -1 76 -1 2343 -1 1221 -1 4034 -1 76 -1 2 -1 224 -1 1277 -1 76 -1 7 -1 635 -1 4249 -1 30 -2
273 -1 141 -1 41 -1 1915 -1 158 -1 30 -2
2283 -1 30 -2
368 -1 487 -1 31 -1 39877 -1 69206 -1 33 -1 22 -1 14666 -1 37958 -1 31 -1 22 -1 1952 -1 2379 -1 3415 -1 33 -1 1304 -1 340 -1 113 -1 30 -2
131 -1 2914 -1 1501 -1 142 -1 201 -1 340 -1 22 -1 2618 -1 76 -1 557 -1 67 -1 484 -1 408 -1 113 -1 208 -1 337 -1 66 -1 22 -1 75 -1 30 -2
121838 -1 50 -1 614 -1 9843 -1 29551 -1 2 -1 65 -1 2223 -1 754 -1 64 -1 9623 -1 30 -2
113 -1 161 -1 860 -1 200 -1 504 -1 113 -1 2934 -1 31 -1 510 -1 41 -1 786 -1 151 -1 394 -1 76 -1 1621 -1 50 -1 13197 -1 77 -1 64 -1 686 -1 113 -1 504 -1 141 -1 1223 -1 182 -1 3 -1 151 -1 131 -1 356 -1 3036 -1 64 -1 76 -1 2 -1 232 -1 127 -1 33 -1 30 -2
113 -1 118 -1 504 -1 342 -1 63 -1 76 -1 30 -2
2877 -1 30 -2
2 -1 182 -1 420 -1 340 -1 65 -1 121839 -1 1316 -1 64 -1 646 -1 50 -1 1315 -1 645 -1 31 -1 22 -1 44 -1 30 -2
375 -1 642 -1 3349 -1 153 -1 250 -1 52 -1 8210 -1 75 -1 115 -1 250 -1 1203 -1 242 -1 113 -1 13406 -1 27 -1 113 -1 156 -1 64 -1 504 -1 149 -1 7 -1 1498 -1 30 -2
213 -1 30 -2
201 -1 213 -1 30 -2
66 -1 201 -1 213 -1 30 -2
4509 -1 121840 -1 586 -1 9980 -1 1823 -1 4509 -1 4 -1 3714 -1 10575 -1 53565 -1 1869 -1 2716 -1 604 -1 3714 -1 409 -1 4 -1 3714 -1 10575 -1 10575 -1 1869 -1 6001 -1 30 -2
604 -1 43600 -1 244 -1 1675 -1 8050 -1 76 -1 19028 -1 76 -1 11220 -1 77 -1 65 -1 23892 -1 76 -1 3213 -1 160 -1 65 -1 705 -1 76 -1 7259 -1 31 -1 3 -1 65 -1 16221 -1 30 -2
2716 -1 29306 -1 41329 -1 244 -1 22 -1 41329 -1 276 -1 30 -2
3213 -1 160 -1 1017 -1 76 -1 3283 -1 76 -1 607 -1 30 -2
1036 -1 224 -1 41 -1 272 -1 256 -1 549 -1 160 -1 165 -1 2251 -1 10 -1 29 -1 3165 -1 1367 -1 168 -1 6540 -1 76 -1 231 -1 76 -1 149 -1 1148 -1 2325 -1 76 -1 161 -1 41 -1 1539 -1 189 -1 1 -2
771 -1 6533 -1 27 -1 3 -1 29 -1 502 -1 454 -1 158 -1 41 -1 5054 -1 1036 -1 113 -1 403 -1 182 -1 872 -1 758 -1 113 -1 345 -1 115 -1 886 -1 30 -2
1334 -1 244 -1 2747 -1 268 -1 29115 -1 2 -1 22 -1 12269 -1 214 -1 384 -1 64 -1 41 -1 10 -1 29 -1 1309 -1 160 -1 2844 -1 32 -1 32316 -1 48184 -1 370 -1 30 -2
9 -1 28 -1 26 -1 121842 -1 137 -1 2422 -1 4170 -1 200 -1 340 -1 22 -1 2545 -1 32 -1 121841 -1 50250 -1 268 -1 3809 -1 6372 -1 30 -2
5593 -1 26263 -1 137 -1 446 -1 2419 -1 88 -1 9065 -1 25969 -1 1841 -1 13623 -1 187 -1 22 -1 165 -1 6602 -1 851 -1 77 -1 469 -1 7 -1 903 -1 182 -1 165 -1 10669 -1 5537 -1 10 -1 1300 -1 2 -1 2371 -1 182 -1 225 -1 1098 -1 1111 -1 2049 -1 76 -1 1523 -1 83414 -1 64 -1 22 -1 38457 -1 880 -1 151 -1 3 -1 33 -1 714 -1 394 -1 30 -2
13853 -1 17372 -1 31 -1 65 -1 1941 -1 967 -1 2416 -1 149 -1 1888 -1 30 -2
121843 -2