8 -1 28 -1 26 -1 135448 -1 409 -1 30 -2
22767 -1 22 -1 1483 -1 32 -1 22 -1 1692 -1 30 -2
2603 -1 4396 -1 22 -1 2026 -1 11278 -1 32 -1 189 -1 352 -1 141 -1 113 -1 2127 -1 1433 -1 77 -1 65 -1 1325 -1 76 -1 160 -1 65 -1 1899 -1 32 -1 50 -1 46 -1 76 -1 23327 -1 76 -1 2 -1 2008 -1 131 -1 154 -1 2 -1 1751 -1 131 -1 31 -1 30 -2
16255 -1 30 -2
200 -1 484 -1 250 -1 1089 -1 2009 -1 50 -1 251 -1 76 -1 686 -1 118 -1 113 -1 1922 -1 635 -1 148 -1 901 -1 1281 -1 115 -1 250 -1 1203 -1 1 -2
479 -1 113 -1 113 -1 641 -1 64 -1 2348 -1 3 -1 212 -1 201 -1 1184 -1 76 -1 2 -1 77 -1 1120 -1 77 -1 113 -1 208 -1 815 -1 76 -1 113 -1 211 -1 30 -2
2546 -1 76 -1 847 -1 3 -1 50 -1 1157 -1 268 -1 64 -1 13236 -1 7875 -1 3626 -1 30 -1 3 -1 190 -1 553 -1 151 -1 39 -1 2071 -1 22 -1 394 -1 41 -1 1157 -1 22 -1 1287 -1 1 -2
31 -1 414 -1 76 -1 65 -1 9888 -1 75 -1 76 -1 567 -1 1938 -1 76 -1 14933 -1 76 -1 476 -1 13 -1 30 -2
113 -1 1169 -1 151 -1 76 -1 3 -1 165 -1 30 -2
557 -1 250 -1 3 -1 1763 -1 22 -1 502 -1 75 -1 375 -1 5286 -1 115 -1 27 -1 635 -1 32 -1 131 -1 10647 -1 187 -1 10 -1 22 -1 903 -1 32 -1 1907 -1 30 -2
3466 -1 76 -1 27 -1 312 -1 8577 -1 1888 -1 32 -1 36531 -1 30 -2
72 -1 131 -1 180 -1 30 -2
237 -1 30 -1 527 -1 238 -1 30 -1 16 -1 1075 -1 273 -1 4401 -1 3 -1 11795 -1 557 -1 113 -1 340 -1 131 -1 30 -2
16 -1 484 -1 76 -1 945 -1 7509 -1 30 -2
307 -1 30 -1 1075 -1 1 -2
547 -1 30 -1 234 -1 419 -1 76 -1 2997 -1 342 -1 10 -1 65 -1 37028 -1 2278 -1 30 -2
804 -1 30 -1 1097 -1 16 -1 30 -2
725 -1 30 -1 4752 -1 30 -2
1016 -1 937 -1 182 -1 31 -1 1 -1 30 -2
3783 -1 76 -1 527 -1 30 -2
113 -1 141 -1 7 -1 65 -1 1635 -1 14353 -1 31 -1 1007 -1 30 -2
115 -1 22 -1 406 -1 121 -1 76 -1 113 -1 194 -1 417 -1 2624 -1 715 -1 3438 -1 32 -1 22 -1 868 -1 151 -1 675 -1 525 -1 10 -1 620 -1 31 -1 65 -1 1863 -1 2 -1 224 -1 131 -1 256 -1 10 -1 22 -1 394 -1 1323 -1 76 -1 113 -1 555 -1 608 -1 2777 -1 1 -2
375 -1 3 -1 401 -1 64 -1 904 -1 1108 -1 113 -1 248 -1 3 -1 312 -1 48 -1 149 -1 16 -1 2 -1 1498 -1 189 -1 636 -1 113 -1 41 -1 836 -1 1554 -1 937 -1 2910 -1 64 -1 41 -1 4199 -1 76 -1 1498 -1 424 -1 148 -1 147 -1 64 -1 3 -1 2023 -1 30 -2
18373 -1 31 -1 1075 -1 76 -1 2513 -1 30 -2
113 -1 141 -1 194 -1 2377 -1 340 -1 22 -1 165 -1 162 -1 3 -1 601 -1 272 -1 3203 -1 165 -1 268 -1 871 -1 153 -1 149 -1 881 -1 182 -1 76 -1 31 -1 151 -1 2049 -1 557 -1 244 -1 27 -1 41 -1 617 -1 76 -1 182 -1 520 -1 340 -1 2925 -1 76 -1 30 -2
375 -1 401 -1 64 -1 904 -1 376 -1 30 -2
31 -1 385 -1 113 -1 1515 -1 1680 -1 345 -1 66 -1 1588 -1 1598 -1 76 -1 557 -1 3 -1 1191 -1 770 -1 113 -1 3 -1 312 -1 2144 -1 2 -1 65 -1 608 -1 548 -1 1786 -1 154 -1 3337 -1 113 -1 371 -1 972 -1 22 -1 1139 -1 10 -1 168 -1 441 -1 1147 -1 30 -2
113 -1 814 -1 30 -2
22 -1 4344 -1 64 -1 15718 -1 137 -1 11108 -1 69427 -1 50 -1 9474 -1 137 -1 13695 -1 9961 -1 4502 -1 722 -1 1077 -1 22 -1 7923 -1 7923 -1 4160 -1 11332 -1 154 -1 22 -1 92 -1 135449 -1 554 -1 815 -1 4216 -1 5268 -1 10 -1 22 -1 4400 -1 137 -1 8526 -1 211 -1 3397 -1 30 -2
1175 -1 35314 -1 271 -2
342 -1 4490 -1 76 -1 356 -1 65 -1 364 -1 699 -1 59 -1 244 -1 374 -1 30 -2
527 -1 3046 -1 149 -1 15994 -1 31 -1 113 -1 76 -1 200 -1 65 -1 2229 -1 501 -1 345 -1 22 -1 2961 -1 31 -1 5577 -1 250 -1 5537 -1 30 -2
418 -1 113 -1 1559 -1 64 -1 81 -1 64 -1 16354 -1 50 -1 30 -2
376 -1 76 -1 3525 -1 30 -2
557 -1 250 -1 75 -1 113 -1 1640 -1 555 -1 554 -1 81 -1 64 -1 3 -1 1511 -1 278 -1 182 -1 76 -1 1031 -1 30 -2
467 -1 431 -1 1 -2
509 -1 30 -2
81 -1 506 -1 131 -1 154 -1 224 -1 41 -1 7 -1 64 -1 76 -1 224 -1 41 -1 1678 -1 308 -1 22 -1 6858 -1 32 -1 50 -1 1163 -1 490 -1 756 -1 608 -1 234 -1 76 -1 462 -1 113 -1 786 -1 340 -1 113 -1 1423 -1 115 -1 3 -1 312 -1 48 -1 76 -1 484 -1 113 -1 2708 -1 160 -1 29 -1 6840 -1 30 -2
1153 -1 76 -1 244 -1 27 -1 41 -1 617 -1 76 -1 236 -1 2548 -1 312 -1 5671 -1 30 -2
2 -1 244 -1 27 -1 41 -1 504 -1 278 -1 489 -1 2 -1 30 -2
237 -1 30 -1 48 -1 238 -1 30 -1 604 -1 307 -1 30 -1 2144 -1 65 -1 547 -1 30 -1 308 -1 2 -1 4511 -1 804 -1 30 -1 317 -1 76 -1 65 -1 76 -1 479 -1 725 -1 30 -1 257 -1 76 -1 557 -1 424 -1 494 -1 64 -1 2377 -1 544 -1 30 -1 14704 -1 545 -1 30 -1 530 -1 22 -1 129 -1 30 -2
1046 -1 30 -1 113 -1 156 -1 64 -1 1929 -1 31 -1 692 -1 160 -1 613 -1 1709 -1 2 -1 30 -2
195 -1 3 -1 312 -1 11 -1 76 -1 312 -1 5 -1 76 -1 149 -1 312 -1 2464 -1 30 -2
158 -1 113 -1 3 -1 65 -1 6651 -1 76 -1 182 -1 3 -1 50 -1 1309 -1 64 -1 3 -1 312 -1 2464 -1 30 -2
342 -1 312 -1 46319 -1 76 -1 484 -1 123 -1 50 -1 545 -1 698 -1 566 -1 31 -1 22 -1 4057 -1 113 -1 659 -1 312 -1 25809 -1 2464 -1 161 -1 7 -1 30 -2
22 -1 30 -2
113 -1 1225 -1 160 -1 4049 -1 30 -2
182 -1 520 -1 340 -1 236 -1 81 -1 248 -1 80 -1 64 -1 3860 -1 151 -1 236 -1 65 -1 163 -1 2232 -1 76 -1 64 -1 896 -1 64 -1 3 -1 2025 -1 234 -1 30 -2
41 -1 7 -1 50 -1 1549 -1 31 -1 151 -1 76 -1 242 -1 113 -1 81 -1 64 -1 141 -1 22 -1 129 -1 54 -1 30 -2
31 -1 30 -2
113 -1 194 -1 22 -1 1232 -1 3 -1 815 -1 151 -1 490 -1 833 -1 154 -1 3087 -1 2278 -1 32 -1 201 -1 76 -1 22 -1 3880 -1 32 -1 65 -1 737 -1 76 -1 3320 -1 30 -2
250 -1 699 -1 16 -1 47459 -1 151 -1 67 -1 490 -1 2531 -1 214 -1 701 -1 64 -1 27 -1 131 -1 833 -1 154 -1 160 -1 33806 -1 30 -2
527 -1 3036 -1 124 -1 76 -1 557 -1 113 -1 7 -1 64 -1 504 -1 76 -1 250 -1 1228 -1 113 -1 77 -1 3019 -1 3525 -1 30 -2
16 -1 504 -1 41 -1 118 -1 3299 -1 7 -1 250 -1 607 -1 76 -1 557 -1 113 -1 4803 -1 4578 -1 424 -1 148 -1 64 -1 141 -1 160 -1 29 -1 3687 -1 153 -1 76 -1 149 -1 635 -1 30 -2
32080 -1 30 -2
1817 -1 22 -1 18125 -1 54379 -1 385 -1 158 -1 186 -1 3 -1 200 -1 135450 -1 92 -1 1273 -1 3425 -1 484 -1 135451 -1 39125 -1 2 -1 1325 -1 340 -1 30 -2
5248 -1 342 -1 745 -1 41 -1 3 -1 115 -1 121 -1 401 -1 64 -1 308 -1 182 -1 340 -1 182 -1 3 -1 30 -2
224 -1 41 -1 208 -1 308 -1 151 -1 469 -1 3 -1 65 -1 5223 -1 76 -1 2 -1 65 -1 788 -1 1663 -1 2 -1 831 -1 829 -1 76 -1 236 -1 151 -1 364 -1 576 -1 120 -1 76 -1 2 -1 64 -1 3766 -1 4057 -1 76 -1 221 -1 30 -2
2877 -1 27 -1 113 -1 3 -1 194 -1 30 -2
747 -1 31 -1 504 -1 182 -1 484 -1 45525 -1 30 -2
375 -1 3 -1 64 -1 152 -1 9097 -1 76 -1 2 -1 405 -1 3 -1 1097 -1 22 -1 3185 -1 418 -1 113 -1 256 -1 151 -1 7128 -1 998 -1 30 -2
2 -1 3096 -1 3185 -1 669 -1 76 -1 182 -1 30 -2
191 -1 2823 -1 195 -1 798 -1 156 -1 64 -1 226 -1 201 -1 150 -1 22 -1 5523 -1 76 -1 2 -1 375 -1 308 -1 2 -1 972 -1 419 -1 32 -1 22 -1 59 -1 32 -1 22 -1 207 -1 64 -1 504 -1 250 -1 160 -1 15338 -1 30 -2
77612 -1 76 -1 480 -1 317 -1 504 -1 5453 -1 3185 -1 1097 -1 30 -2
16 -1 31 -1 65 -1 70 -1 137 -1 65087 -1 41810 -1 8 -1 28 -1 26 -1 135452 -1 747 -1 30 -2
2130 -1 214 -1 2411 -1 31 -1 48730 -1 2848 -1 30 -2
2 -1 3 -1 136 -1 141 -1 66 -1 22 -1 59 -1 77 -1 234 -1 30 -2
22 -1 4536 -1 268 -1 65 -1 135453 -1 374 -1 10 -1 18021 -1 30 -2
113 -1 3146 -1 345 -1 31938 -1 158 -1 113 -1 358 -1 244 -1 8310 -1 5212 -1 151 -1 29 -1 30 -2
342 -1 3669 -1 187 -1 32 -1 1227 -1 64 -1 65 -1 5600 -1 10 -1 400 -1 3812 -1 5090 -1 30 -2
273 -1 141 -1 41 -1 1736 -1 31 -1 250 -1 1 -2
342 -1 312 -1 5370 -1 6056 -1 2 -1 4124 -1 64 -1 3 -1 18695 -1 1509 -1 160 -1 65 -1 20596 -1 12070 -1 257 -1 10 -1 22 -1 6167 -1 76 -1 2 -1 548 -1 30 -2
4665 -1 76 -1 38372 -1 76 -1 25654 -1 5487 -1 76 -1 8867 -1 268 -1 76 -1 55253 -1 76 -1 5130 -1 131 -1 1615 -1 64 -1 7 -1 1270 -1 3612 -1 179 -1 76 -1 2 -1 675 -1 364 -1 3671 -1 150 -1 915 -1 223 -1 76 -1 29306 -1 30 -2
342 -1 65 -1 7134 -1 6056 -1 76 -1 185 -1 30 -2
100 -1 64 -1 40 -1 271 -2
113 -1 194 -1 190 -1 836 -1 3 -1 65 -1 251 -1 31 -1 250 -1 1287 -1 76 -1 1498 -1 191 -1 165 -1 1193 -1 22 -1 3236 -1 30 -2
113 -1 363 -1 32 -1 1157 -1 22 -1 1287 -1 10 -1 50 -1 2920 -1 33 -1 151 -1 251 -1 76 -1 557 -1 847 -1 182 -1 3 -1 376 -1 113 -1 711 -1 156 -1 64 -1 30 -2
312 -1 2582 -1 76 -1 1817 -1 312 -1 585 -1 30 -2
113 -1 194 -1 375 -1 3 -1 935 -1 137 -1 148 -1 32 -1 131 -1 150 -1 168 -1 201 -1 153 -1 1222 -1 50 -1 13 -1 234 -1 76 -1 123 -1 16 -1 484 -1 364 -1 179 -1 151 -1 342 -1 10 -1 1300 -1 76 -1 497 -1 76 -1 2 -1 4842 -1 76 -1 131 -1 1884 -1 113 -1 30 -2
747 -1 76 -1 548 -1 81 -1 250 -1 102851 -1 27 -1 2877 -1 3 -1 113 -1 2726 -1 64 -1 141 -1 160 -1 182 -1 1 -2
113 -1 124 -1 76 -1 160 -1 6747 -1 76 -1 5140 -1 3 -1 113 -1 2726 -1 64 -1 872 -1 76 -1 340 -1 6747 -1 131 -1 225 -1 3590 -1 5804 -1 1 -2
342 -1 453 -1 72323 -1 32 -1 867 -1 182 -1 77 -1 30 -2
113 -1 786 -1 22 -1 129 -1 394 -1 2922 -1 1504 -1 76 -1 2 -1 113 -1 194 -1 375 -1 906 -1 646 -1 65 -1 620 -1 32 -1 199 -1 9315 -1 10 -1 50 -1 13 -1 418 -1 113 -1 208 -1 2491 -1 182 -1 1367 -1 714 -1 9257 -1 50 -1 542 -1 345 -1 340 -1 182 -1 155 -1 64 -1 158 -1 113 -1 3 -1 65 -1 2232 -1 30 -2
135454 -1 30 -2
69 -1 119 -1 160 -1 50 -1 12028 -1 10247 -1 2 -1 3583 -1 35461 -1 499 -1 113 -1 1922 -1 5218 -1 30 -2
557 -1 406 -1 2038 -1 30 -2
113 -1 2498 -1 36139 -1 2 -1 5287 -1 158 -1 113 -1 308 -1 298 -1 139 -1 187 -1 418 -1 113 -1 5621 -1 76 -1 2 -1 1643 -1 146 -1 30 -2
527 -1 30 -2
2189 -1 76 -1 424 -1 27 -1 510 -1 1767 -1 27 -1 131 -1 3 -1 131 -1 4974 -1 208 -1 5314 -1 156 -1 64 -1 3473 -1 160 -1 201 -1 213 -1 30 -2
165 -1 163 -1 584 -1 33 -1 250 -1 3 -1 22 -1 1546 -1 51 -1 3003 -1 137 -1 29827 -1 27941 -1 76 -1 7142 -1 30 -1 30 -1 747 -1 41 -1 271 -2
151 -1 111 -1 50 -1 783 -1 115 -1 2741 -1 76 -1 242 -1 165 -1 32 -1 22 -1 72 -1 54 -1 113 -1 326 -1 149 -1 194 -1 113 -1 326 -1 278 -1 923 -1 3 -1 151 -1 3590 -1 5804 -1 208 -1 3 -1 3034 -1 30 -2
113 -1 118 -1 326 -1 27 -1 65 -1 64649 -1 3 -1 76 -1 2 -1 66 -1 113 -1 7 -1 10 -1 22 -1 30 -2
8003 -1 30 -2
250 -1 3 -1 248 -1 5702 -1 76 -1 1817 -1 31 -1 213 -1 352 -1 7 -1 64 -1 226 -1 10 -1 406 -1 9888 -1 737 -1 340 -1 29 -1 30 -2
3377 -1 2729 -1 76 -1 1817 -1 599 -1 151 -1 3 -1 4699 -1 26368 -1 76 -1 340 -1 30 -2
234 -1 76 -1 342 -1 745 -1 41 -1 156 -1 64 -1 613 -1 201 -1 2 -1 510 -1 250 -1 207 -1 65 -1 614 -1 1853 -1 1413 -1 154 -1 30 -2
113 -1 194 -1 417 -1 66 -1 7 -1 312 -1 13252 -1 64 -1 141 -1 484 -1 76 -1 3325 -1 32 -1 418 -1 417 -1 139 -1 244 -1 76 -1 557 -1 113 -1 326 -1 244 -1 6 -1 151 -1 182 -1 1216 -1 375 -1 482 -1 1244 -1 10 -1 50 -1 13 -1 1153 -1 224 -1 182 -1 3425 -1 31 -1 3446 -1 1244 -1 22730 -1 2 -1 22 -1 10177 -1 76 -1 195 -1 3 -1 226 -1 33 -1 3785 -1 923 -1 76 -1 484 -1 168 -1 703 -1 161 -1 3 -1 2099 -1 1121 -1 30 -2
375 -1 906 -1 916 -1 30 -2
151 -1 520 -1 248 -1 181 -1 30 -2
3 -1 22 -1 1635 -1 685 -1 32 -1 22 -1 1309 -1 849 -1 1068 -1 64 -1 22 -1 165 -1 41 -1 155 -1 244 -1 29 -1 4885 -1 149 -1 3 -1 131 -1 791 -1 1 -2
342 -1 200 -1 904 -1 224 -1 1309 -1 1473 -1 154 -1 685 -1 417 -1 2050 -1 30 -2
69 -1 942 -1 64 -1 504 -1 3126 -1 33 -1 151 -1 1042 -1 30 -2
2 -1 76 -1 113 -1 7 -1 64 -1 504 -1 76 -1 182 -1 1228 -1 113 -1 77 -1 28160 -1 151 -1 41 -1 272 -1 135455 -1 9265 -1 66 -1 22 -1 213 -1 32 -1 65 -1 1171 -1 1878 -1 1596 -1 143 -1 31 -1 151 -1 143 -1 30 -2
3 -1 190 -1 168 -1 201 -1 213 -1 33 -1 847 -1 352 -1 340 -1 64 -1 826 -1 411 -1 1 -2
221 -1 224 -1 41 -1 118 -1 76 -1 141 -1 41 -1 798 -1 256 -1 339 -1 31 -1 849 -1 1 -2
418 -1 141 -1 29 -1 339 -1 139 -1 244 -1 1 -2
31 -1 113 -1 76 -1 36308 -1 76 -1 195 -1 504 -1 76 -1 187 -1 32 -1 30 -2
113 -1 7 -1 22 -1 129 -1 54 -1 76 -1 2 -1 194 -1 113 -1 3 -1 148 -1 8294 -1 150 -1 15 -1 1038 -1 76 -1 557 -1 342 -1 493 -1 406 -1 2746 -1 10 -1 151 -1 113 -1 699 -1 1042 -1 75 -1 31 -1 22089 -1 76 -1 2816 -1 76 -1 17360 -1 76 -1 3320 -1 30 -2
69 -1 248 -1 30 -2
747 -1 41 -1 484 -1 364 -1 31 -1 52 -1 250 -1 271 -2
771 -1 76 -1 375 -1 7 -1 22 -1 129 -1 4362 -1 66 -1 50 -1 13 -1 76 -1 557 -1 41 -1 3534 -1 182 -1 1120 -1 148 -1 135456 -1 2 -1 411 -1 2 -1 43498 -1 150 -1 113 -1 194 -1 113 -1 798 -1 7 -1 30 -2
493 -1 76 -1 30 -2
100 -1 271 -2
113 -1 3 -1 117840 -1 76 -1 185 -1 76 -1 64 -1 358 -1 151 -1 115 -1 121 -1 237 -1 32 -1 22 -1 2754 -1 194 -1 340 -1 113 -1 30 -2
10 -1 635 -1 394 -1 30 -2
1243 -1 1175 -1 8712 -1 30 -2
113 -1 156 -1 64 -1 31227 -1 50 -1 11176 -1 113 -1 194 -1 182 -1 161 -1 510 -1 113 -1 148 -1 1405 -1 3619 -1 1184 -1 641 -1 64 -1 3 -1 814 -1 250 -1 251 -1 3 -1 65 -1 614 -1 9888 -1 76 -1 497 -1 30 -2
375 -1 3 -1 81 -1 64 -1 692 -1 601 -1 635 -1 54 -1 76 -1 3 -1 30 -2
100 -1 76 -1 4081 -1 30 -2
63 -1 64 -1 62 -1 32 -1 29 -1 2188 -1 30 -2
113 -1 893 -1 41 -1 2 -1 29 -1 2232 -1 139 -1 601 -1 182 -1 2546 -1 30 -1 50 -1 454 -1 3 -1 151 -1 191 -1 65 -1 4963 -1 64 -1 3 -1 358 -1 10 -1 182 -1 30 -2
81 -1 64 -1 7367 -1 151 -1 76 -1 356 -1 182 -1 160 -1 41 -1 33 -1 22 -1 30 -2
182 -1 1075 -1 77 -1 1260 -1 141 -1 224 -1 424 -1 305 -1 381 -1 10 -1 29 -1 11816 -1 32 -1 22 -1 623 -1 30 -2
342 -1 10 -1 22 -1 5523 -1 76 -1 2 -1 113 -1 208 -1 636 -1 41 -1 76 -1 224 -1 41 -1 463 -1 345 -1 64 -1 168 -1 8942 -1 13724 -1 2 -1 504 -1 151 -1 76 -1 4712 -1 278 -1 7 -1 312 -1 135457 -1 30 -2
182 -1 30 -2
2877 -1 30 -2
224 -1 189 -1 936 -1 250 -1 76 -1 232 -1 64 -1 50 -1 783 -1 76 -1 131 -1 936 -1 27 -1 182 -1 3 -1 64 -1 3 -1 65 -1 871 -1 46 -1 7088 -1 30 -2
113 -1 118 -1 194 -1 113 -1 1193 -1 65 -1 561 -1 648 -1 32 -1 213 -1 76 -1 248 -1 76 -1 1167 -1 22 -1 6269 -1 76 -1 2 -1 113 -1 144 -1 77 -1 30 -2
937 -1 975 -1 64 -1 113 -1 3 -1 1360 -1 76 -1 14997 -1 76 -1 2 -1 360 -1 1322 -1 10 -1 50 -1 199 -1 782 -1 30 -2
229 -1 153 -1 3 -1 65 -1 3348 -1 3232 -1 149 -1 123 -1 41881 -1 224 -1 182 -1 2469 -1 115 -1 66 -1 30 -2
69 -1 871 -1 113 -1 699 -1 258 -1 30 -2
1287 -1 237 -1 2762 -1 30 -2
1287 -1 238 -1 242 -1 13 -1 6 -1 7 -1 285 -1 113 -1 234 -1 150 -1 151 -1 30 -2
1287 -1 307 -1 182 -1 1016 -1 2992 -1 33 -1 273 -1 3284 -1 1092 -1 182 -1 30 -2
191 -1 65 -1 207 -1 32 -1 2654 -1 10 -1 22 -1 394 -1 1105 -2