237 -1 30 -1 6951 -1 76 -1 3 -1 21198 -1 33 -1 258 -1 2049 -1 76 -1 2010 -1 4 -1 30 -2
2347 -1 3 -1 264 -1 417 -1 3 -1 932 -1 7587 -1 64 -1 30 -2
1031 -1 189 -1 417 -1 1678 -1 248 -1 814 -1 242 -1 131 -1 1615 -1 64 -1 3 -1 2924 -1 2 -1 141 -1 16 -1 999 -1 30 -2
557 -1 113 -1 2319 -1 29 -1 33305 -1 463 -1 31 -1 182 -1 2 -1 3 -1 2227 -1 160 -1 22 -1 216 -1 30 -2
417 -1 43520 -1 5204 -1 2 -1 417 -1 340 -1 213 -1 352 -1 3 -1 406 -1 5113 -1 278 -1 273 -1 364 -1 131 -1 340 -1 417 -1 76 -1 2 -1 224 -1 250 -1 391 -1 16 -1 1075 -1 32 -1 27 -1 29 -1 773 -1 3 -1 149 -1 937 -1 29 -1 30 -2
1053 -1 65 -1 5647 -1 1157 -1 677 -1 593 -1 76 -1 41 -1 1841 -1 216 -1 217 -1 30 -2
113 -1 155 -1 64 -1 194 -1 22 -1 129 -1 54 -1 500 -1 158 -1 113 -1 194 -1 113 -1 598 -1 7 -1 489 -1 30 -2
6801 -1 76 -1 64 -1 113 -1 489 -1 3 -1 65 -1 1899 -1 32 -1 11713 -1 10 -1 65 -1 2306 -1 113 -1 326 -1 5728 -1 273 -1 182 -1 5445 -1 340 -1 557 -1 30 -2
16 -1 312 -1 2464 -1 388 -1 76 -1 557 -1 814 -1 9882 -1 2 -1 113 -1 272 -1 554 -1 4103 -1 354 -1 113 -1 445 -1 2291 -1 3 -1 600 -1 364 -1 6507 -1 30 -2
139 -1 64 -1 194 -1 278 -1 182 -1 76 -1 529 -1 786 -1 340 -1 22 -1 628 -1 143 -1 31 -1 6507 -1 164 -1 593 -1 1101 -1 76 -1 113 -1 3 -1 65 -1 600 -1 364 -1 7906 -1 6147 -1 2 -1 6928 -1 76 -1 41 -1 308 -1 677 -1 64941 -1 30 -2
342 -1 10 -1 571 -1 2 -1 342 -1 16 -1 221 -1 612 -1 4038 -1 2742 -1 76 -1 29 -1 560 -1 3 -1 200 -1 561 -1 342 -1 804 -1 1242 -1 2 -1 65 -1 2880 -1 549 -1 64 -1 634 -1 817 -1 113 -1 1418 -1 131 -1 66 -1 30 -2
557 -1 487 -1 30 -2
487 -1 3 -1 200 -1 22 -1 628 -1 143 -1 181 -1 77 -1 65 -1 4828 -1 76 -1 69 -1 211 -1 3 -1 731 -1 31 -1 113 -1 64 -1 936 -1 489 -1 10 -1 1635 -1 2 -1 50 -1 304 -1 489 -1 10 -1 1878 -1 30 -2
25439 -1 7 -1 613 -1 113 -1 611 -1 151 -1 247 -1 32 -1 113 -1 151 -1 3 -1 941 -1 2 -1 113 -1 710 -1 221 -1 528 -1 30 -2
375 -1 848 -1 358 -1 22 -1 216 -1 48 -1 1874 -1 1089 -1 90411 -1 699 -1 64 -1 3 -1 691 -1 65 -1 2716 -1 216 -1 2 -1 65 -1 604 -1 48 -1 30 -2
22 -1 201 -1 394 -1 94 -1 692 -1 600 -1 234 -1 185 -1 30 -2
182 -1 3 -1 600 -1 1206 -1 64 -1 403 -1 182 -1 76 -1 557 -1 182 -1 1216 -1 296 -1 244 -1 22 -1 70 -1 113 -1 358 -1 278 -1 1139 -1 152 -1 385 -1 377 -1 76 -1 113 -1 401 -1 814 -1 66 -1 250 -1 111649 -1 9182 -1 1874 -1 691 -1 531 -1 2 -1 643 -1 76 -1 557 -1 154 -1 689 -1 297 -1 1242 -1 377 -1 76 -1 113 -1 3466 -1 194 -1 151 -1 30 -2
484 -1 30 -2
200 -1 363 -1 32 -1 139 -1 500 -1 244 -1 50 -1 692 -1 1918 -1 136 -1 2332 -1 1478 -1 64 -1 403 -1 187 -1 65 -1 17742 -1 6282 -1 220 -1 691 -1 8238 -1 2 -1 9040 -1 1099 -1 278 -1 50 -1 18488 -1 754 -1 2 -1 22 -1 30 -2
4217 -1 113 -1 17527 -1 50 -1 2213 -1 2 -1 155 -1 2639 -1 3097 -1 28646 -1 1 -2
557 -1 64 -1 3 -1 2571 -1 2 -1 16 -1 64 -1 5872 -1 185 -1 364 -1 76 -1 113 -1 520 -1 148 -1 4475 -1 150 -1 36643 -1 20719 -1 76 -1 2 -1 342 -1 16 -1 221 -1 4475 -1 677 -1 41 -1 2050 -1 3 -1 65 -1 4060 -1 30 -2
1467 -1 113 -1 200 -1 504 -1 250 -1 3 -1 22 -1 4899 -1 1673 -1 54 -1 375 -1 798 -1 62 -1 244 -1 312 -1 216 -1 30 -2
1153 -1 1 -2
65 -1 9300 -1 4562 -1 511 -1 504 -1 151 -1 22 -1 72 -1 394 -1 41 -1 208 -1 256 -1 409 -1 1367 -1 168 -1 7177 -1 3 -1 137 -1 3496 -1 1 -2
273 -1 30 -2
216 -1 1273 -1 1057 -1 511 -1 30 -2
161 -1 41 -1 617 -1 151 -1 77 -1 65 -1 1243 -1 1137 -1 1 -2
454 -1 33 -1 151 -1 161 -1 3 -1 406 -1 364 -1 36487 -1 342 -1 22 -1 502 -1 165 -1 352 -1 677 -1 115 -1 50 -1 8823 -1 386 -1 5090 -1 3 -1 1480 -1 32 -1 4485 -1 791 -1 10383 -1 30 -2
1647 -1 7156 -1 5090 -1 76 -1 16 -1 484 -1 364 -1 30 -2
557 -1 113 -1 340 -1 22 -1 339 -1 32 -1 2375 -1 212 -1 135 -1 33 -1 65 -1 2319 -1 30 -2
69 -1 363 -1 32 -1 652 -1 64 -1 256 -1 715 -1 33 -1 1863 -1 224 -1 69 -1 16 -1 463 -1 30 -2
10383 -1 30 -2
482 -1 141 -1 151 -1 33 -1 65 -1 502 -1 2319 -1 271 -2
557 -1 113 -1 194 -1 195 -1 340 -1 64 -1 81 -1 182 -1 30 -2
484 -1 76 -1 158 -1 3 -1 41 -1 1904 -1 1 -2
677 -1 41 -1 208 -1 81 -1 403 -1 66 -1 599 -1 54 -1 1367 -1 872 -1 1193 -1 278 -1 599 -1 54 -1 30 -2
3 -1 3678 -1 30 -2
165 -1 32 -1 22 -1 163 -1 781 -1 64 -1 1099 -1 278 -1 33 -1 65 -1 2319 -1 3 -1 3046 -1 30 -2
41 -1 208 -1 1193 -1 702 -1 278 -1 22 -1 620 -1 2344 -1 809 -1 76 -1 30 -2
25382 -1 3 -1 65 -1 15447 -1 30 -2
113 -1 161 -1 463 -1 31 -1 48 -1 30 -2
77 -1 31 -1 10016 -1 1062 -1 2709 -1 1 -2
113 -1 208 -1 16 -1 308 -1 151 -1 30 -2
113 -1 161 -1 153 -1 469 -1 77 -1 216 -1 497 -1 342 -1 600 -1 1075 -1 266 -1 32 -1 50 -1 5603 -1 46 -1 161 -1 139 -1 154 -1 160 -1 66 -1 405 -1 287 -1 686 -1 113 -1 3 -1 312 -1 2746 -1 2 -1 16 -1 312 -1 3739 -1 30 -2
100381 -1 3 -1 3153 -1 30 -2
41 -1 482 -1 326 -1 76 -1 557 -1 462 -1 41 -1 30 -2
860 -1 76 -1 64 -1 113 -1 76 -1 165 -1 32 -1 22 -1 616 -1 70 -1 1817 -1 158 -1 648 -1 160 -1 1038 -1 3 -1 158 -1 131 -1 1618 -1 41 -1 64 -1 3 -1 22 -1 6420 -1 1674 -1 352 -1 161 -1 636 -1 131 -1 27 -1 64 -1 141 -1 418 -1 64 -1 463 -1 2 -1 27 -1 64 -1 1099 -1 278 -1 77 -1 30 -2
15142 -1 2608 -1 1009 -1 271 -2
482 -1 62 -1 151 -1 42 -1 30 -2
342 -1 2756 -1 76 -1 27 -1 510 -1 41 -1 734 -1 151 -1 1 -2
113 -1 161 -1 504 -1 10369 -1 47045 -1 244 -1 33575 -1 33574 -1 30 -2
497 -1 342 -1 16 -1 2992 -1 1075 -1 393 -1 11 -1 149 -1 1009 -1 827 -1 471 -1 30 -2
937 -1 29 -1 732 -1 33 -1 216 -1 1273 -1 30 -2
636 -1 113 -1 66 -1 278 -1 182 -1 113 -1 161 -1 504 -1 393 -1 600 -1 364 -1 3739 -1 76 -1 469 -1 555 -1 554 -1 1533 -1 1099 -1 677 -1 654 -1 8393 -1 992 -1 2633 -1 417 -1 1418 -1 144 -1 22 -1 605 -1 151 -1 417 -1 3 -1 633 -1 149 -1 151 -1 264 -1 7 -1 4698 -1 248 -1 80 -1 33 -1 417 -1 30 -2
484 -1 221 -1 497 -1 151 -1 216 -1 2050 -1 3 -1 77 -1 3054 -1 77 -1 41 -1 149 -1 221 -1 148 -1 76 -1 469 -1 555 -1 554 -1 999 -1 182 -1 30 -2
234 -1 76 -1 78 -1 187 -1 3 -1 65 -1 394 -1 32 -1 525 -1 182 -1 76 -1 557 -1 113 -1 1040 -1 1615 -1 64 -1 504 -1 189 -1 352 -1 3 -1 22 -1 129 -1 394 -1 41 -1 1618 -1 131 -1 64 -1 3 -1 30 -2
602 -1 2050 -1 520 -1 22 -1 129 -1 76 -1 557 -1 182 -1 17731 -1 608 -1 158 -1 113 -1 694 -1 189 -1 2 -1 1105 -1 191 -1 250 -1 54 -1 151 -1 375 -1 848 -1 139 -1 500 -1 64 -1 1198 -1 2 -1 277 -1 32082 -1 88 -1 167 -1 593 -1 176 -1 2296 -1 76 -1 484 -1 266 -1 976 -1 54 -1 10 -1 2296 -1 271 -2
2 -1 847 -1 3 -1 50 -1 1640 -1 47320 -1 15447 -1 30 -2
10 -1 65 -1 394 -1 113 -1 1225 -1 160 -1 1903 -1 2157 -1 30 -2
1817 -1 160 -1 492 -1 2531 -1 268 -1 10 -1 979 -1 70 -1 32 -1 305 -1 44 -1 10 -1 602 -1 131 -1 200 -1 156 -1 64 -1 130 -1 345 -1 2 -1 1099 -1 278 -1 1122 -1 10 -1 305 -1 13 -1 76 -1 27 -1 75 -1 3284 -1 111650 -1 154 -1 76 -1 30 -2
375 -1 3 -1 16295 -1 2750 -1 21681 -1 848 -1 2 -1 375 -1 256 -1 165 -1 54 -1 2902 -1 76 -1 2 -1 151 -1 3 -1 151 -1 111651 -1 3 -1 65 -1 488 -1 2709 -1 31 -1 1075 -1 30 -2
16 -1 1075 -1 224 -1 529 -1 149 -1 487 -1 76 -1 557 -1 17306 -1 31 -1 1075 -1 30 -2
69 -1 3 -1 65 -1 406 -1 566 -1 75 -1 1498 -1 375 -1 694 -1 9159 -1 471 -1 484 -1 636 -1 113 -1 418 -1 3 -1 182 -1 41 -1 463 -1 5424 -1 31 -1 131 -1 1 -2
371 -1 308 -1 1053 -1 65 -1 628 -1 1157 -1 10 -1 932 -1 65 -1 566 -1 75 -1 10562 -1 63 -1 64 -1 2371 -1 50 -1 6379 -1 10 -1 250 -1 76 -1 557 -1 417 -1 3 -1 2558 -1 216 -1 76 -1 827 -1 30 -2
197 -1 1239 -1 76 -1 417 -1 3 -1 14603 -1 3384 -1 271 -2
2 -1 113 -1 571 -1 250 -1 363 -1 32 -1 7875 -1 76 -1 484 -1 342 -1 1157 -1 77 -1 234 -1 30 -2
237 -1 30 -1 33 -1 65 -1 1021 -1 32 -1 30 -2
771 -1 417 -1 3 -1 76 -1 406 -1 364 -1 113 -1 194 -1 250 -1 3 -1 65 -1 406 -1 976 -1 6 -1 64 -1 2890 -1 30 -2
77 -1 182 -1 634 -1 187 -1 76 -1 49 -1 4364 -1 113 -1 463 -1 64 -1 65 -1 231 -1 2810 -1 10 -1 1050 -1 5090 -1 418 -1 190 -1 3 -1 250 -1 406 -1 1459 -1 216 -1 76 -1 2 -1 182 -1 3 -1 77 -1 497 -1 50 -1 1313 -1 30 -2
593 -1 1101 -1 76 -1 1097 -1 30 -2
113 -1 699 -1 64 -1 3 -1 22 -1 6550 -1 76 -1 224 -1 342 -1 16 -1 22 -1 502 -1 165 -1 1282 -1 10 -1 22 -1 511 -1 149 -1 31 -1 151 -1 2049 -1 76 -1 115 -1 22 -1 129 -1 75 -1 282 -1 131 -1 141 -1 161 -1 2980 -1 64 -1 113 -1 30 -2
2 -1 1817 -1 224 -1 131 -1 699 -1 30 -2
3 -1 41 -1 141 -1 635 -1 363 -1 32 -1 3478 -1 33 -1 417 -1 149 -1 264 -1 1 -2
113 -1 141 -1 340 -1 992 -1 2 -1 113 -1 3 -1 1171 -1 30 -2
557 -1 342 -1 16 -1 65 -1 406 -1 386 -1 1104 -1 32 -1 4544 -1 9481 -1 11 -1 30 -2
149 -1 168 -1 201 -1 153 -1 31 -1 151 -1 2049 -1 30 -2
2 -1 686 -1 141 -1 41 -1 156 -1 30 -2
312 -1 216 -1 383 -1 32 -1 5632 -1 151 -1 401 -1 1077 -1 77 -1 65 -1 2908 -1 7079 -1 24483 -1 2118 -1 22 -1 1204 -1 2831 -1 76 -1 418 -1 41 -1 889 -1 76 -1 69 -1 65 -1 3006 -1 620 -1 64 -1 401 -1 65 -1 220 -1 160 -1 22 -1 348 -1 51 -1 64 -1 41 -1 30 -2
149 -1 1617 -1 64 -1 1230 -1 22 -1 165 -1 352 -1 641 -1 976 -1 30 -2
113 -1 141 -1 151 -1 164 -1 1679 -1 54371 -1 2831 -1 418 -1 417 -1 208 -1 1099 -1 30 -2
16 -1 13422 -1 76 -1 16 -1 13076 -1 30 -2
22 -1 638 -1 2831 -1 418 -1 41 -1 208 -1 2133 -1 2432 -1 10 -1 312 -1 976 -1 220 -1 30 -2
224 -1 69 -1 312 -1 114 -1 2831 -1 418 -1 1732 -1 213 -1 4150 -1 187 -1 76 -1 30 -2
607 -1 160 -1 5523 -1 487 -1 25828 -1 3 -1 151 -1 417 -1 208 -1 256 -1 1842 -1 10 -1 22 -1 5255 -1 32 -1 1602 -1 2 -1 482 -1 256 -1 187 -1 32 -1 182 -1 30 -2
484 -1 1436 -1 76 -1 88 -1 76 -1 1436 -1 30 -2
224 -1 113 -1 3 -1 41 -1 76 -1 474 -1 150 -1 1618 -1 1273 -1 64 -1 256 -1 2262 -1 64 -1 41 -1 76 -1 30 -2
113 -1 340 -1 7875 -1 224 -1 189 -1 139 -1 64 -1 41 -1 2 -1 1193 -1 41 -1 64 -1 510 -1 65 -1 2005 -1 278 -1 264 -1 76 -1 27 -1 161 -1 29 -1 454 -1 1181 -1 3 -1 1 -2
860 -1 182 -1 1016 -1 33 -1 22 -1 2005 -1 2 -1 273 -1 975 -1 182 -1 30 -2
424 -1 65 -1 731 -1 165 -1 64 -1 72 -1 946 -1 165 -1 30 -2
2633 -1 161 -1 3 -1 50 -1 9394 -1 4215 -1 76 -1 497 -1 342 -1 248 -1 633 -1 113 -1 7 -1 64 -1 1467 -1 992 -1 2 -1 654 -1 187 -1 32 -1 22 -1 648 -1 188 -1 113 -1 194 -1 182 -1 680 -1 10 -1 22 -1 487 -1 6935 -1 30 -2
50 -1 2695 -1 5 -1 211 -1 504 -1 469 -1 1515 -1 3 -1 1194 -1 160 -1 407 -1 213 -1 30 -2
417 -1 155 -1 64 -1 692 -1 115 -1 22 -1 129 -1 620 -1 2 -1 76 -1 164 -1 76 -1 190 -1 3 -1 65 -1 380 -1 407 -1 213 -1 212 -1 30 -2
469 -1 493 -1 7 -1 30 -2
342 -1 2904 -1 30 -2
41 -1 156 -1 64 -1 356 -1 229 -1 153 -1 225 -1 5498 -1 149 -1 41 -1 118 -1 1 -2
234 -1 76 -1 342 -1 860 -1 16 -1 364 -1 32 -1 65 -1 613 -1 76 -1 77 -1 1120 -1 77 -1 113 -1 326 -1 113 -1 200 -1 326 -1 165 -1 2716 -1 216 -1 76 -1 148 -1 32 -1 312 -1 3334 -1 76 -1 30 -2
113 -1 406 -1 364 -1 194 -1 151 -1 469 -1 3 -1 65 -1 15447 -1 30 -2
342 -1 148 -1 655 -1 1912 -1 48 -1 847 -1 3 -1 50 -1 287 -1 495 -1 2531 -1 469 -1 936 -1 54 -1 296 -1 549 -1 76 -1 469 -1 326 -1 27 -1 64 -1 504 -1 2 -1 158 -1 76 -1 469 -1 3 -1 406 -1 364 -1 7296 -1 33 -1 22 -1 30 -2