2 -1 #SUP: 18
3 -1 #SUP: 43
7 -1 #SUP: 18
10 -1 #SUP: 11
11 -1 #SUP: 4
13 -1 #SUP: 3
16 -1 #SUP: 3
22 -1 #SUP: 50
29 -1 #SUP: 3
30 -1 #SUP: 13
31 -1 #SUP: 10
32 -1 #SUP: 33
33 -1 #SUP: 12
41 -1 #SUP: 15
44 -1 #SUP: 3
46 -1 #SUP: 2
47 -1 #SUP: 5
48 -1 #SUP: 3
50 -1 #SUP: 12
54 -1 #SUP: 6
64 -1 #SUP: 40
65 -1 #SUP: 31
66 -1 #SUP: 5
69 -1 #SUP: 7
70 -1 #SUP: 2
72 -1 #SUP: 2
75 -1 #SUP: 13
76 -1 #SUP: 85
77 -1 #SUP: 5
78 -1 #SUP: 2
81 -1 #SUP: 3
106 -1 #SUP: 2
113 -1 #SUP: 75
115 -1 #SUP: 9
118 -1 #SUP: 3
123 -1 #SUP: 2
124 -1 #SUP: 3
127 -1 #SUP: 2
129 -1 #SUP: 5
131 -1 #SUP: 7
141 -1 #SUP: 14
144 -1 #SUP: 5
148 -1 #SUP: 6
149 -1 #SUP: 6
150 -1 #SUP: 4
151 -1 #SUP: 32
153 -1 #SUP: 2
154 -1 #SUP: 6
155 -1 #SUP: 2
158 -1 #SUP: 4
160 -1 #SUP: 14
161 -1 #SUP: 5
163 -1 #SUP: 2
165 -1 #SUP: 7
179 -1 #SUP: 2
182 -1 #SUP: 18
185 -1 #SUP: 2
187 -1 #SUP: 10
189 -1 #SUP: 4
194 -1 #SUP: 10
200 -1 #SUP: 10
201 -1 #SUP: 5
207 -1 #SUP: 4
208 -1 #SUP: 3
211 -1 #SUP: 2
212 -1 #SUP: 2
213 -1 #SUP: 7
214 -1 #SUP: 2
221 -1 #SUP: 3
224 -1 #SUP: 6
232 -1 #SUP: 4
234 -1 #SUP: 10
242 -1 #SUP: 2
244 -1 #SUP: 2
247 -1 #SUP: 3
248 -1 #SUP: 2
250 -1 #SUP: 10
256 -1 #SUP: 15
262 -1 #SUP: 2
264 -1 #SUP: 3
268 -1 #SUP: 8
273 -1 #SUP: 4
278 -1 #SUP: 5
288 -1 #SUP: 2
297 -1 #SUP: 3
312 -1 #SUP: 6
326 -1 #SUP: 2
340 -1 #SUP: 14
342 -1 #SUP: 10
348 -1 #SUP: 5
356 -1 #SUP: 5
360 -1 #SUP: 2
363 -1 #SUP: 6
364 -1 #SUP: 3
375 -1 #SUP: 2
383 -1 #SUP: 2
388 -1 #SUP: 4
394 -1 #SUP: 3
401 -1 #SUP: 3
406 -1 #SUP: 3
417 -1 #SUP: 5
419 -1 #SUP: 2
420 -1 #SUP: 2
424 -1 #SUP: 2
435 -1 #SUP: 3
462 -1 #SUP: 2
463 -1 #SUP: 5
469 -1 #SUP: 3
472 -1 #SUP: 2
484 -1 #SUP: 8
493 -1 #SUP: 3
497 -1 #SUP: 7
502 -1 #SUP: 6
503 -1 #SUP: 2
506 -1 #SUP: 4
509 -1 #SUP: 5
548 -1 #SUP: 3
553 -1 #SUP: 3
557 -1 #SUP: 13
558 -1 #SUP: 2
593 -1 #SUP: 2
601 -1 #SUP: 4
602 -1 #SUP: 2
607 -1 #SUP: 2
620 -1 #SUP: 2
635 -1 #SUP: 2
636 -1 #SUP: 2
641 -1 #SUP: 4
676 -1 #SUP: 2
686 -1 #SUP: 3
692 -1 #SUP: 4
699 -1 #SUP: 4
702 -1 #SUP: 2
715 -1 #SUP: 2
771 -1 #SUP: 5
773 -1 #SUP: 2
786 -1 #SUP: 2
791 -1 #SUP: 2
826 -1 #SUP: 3
864 -1 #SUP: 2
872 -1 #SUP: 2
889 -1 #SUP: 2
904 -1 #SUP: 2
927 -1 #SUP: 2
929 -1 #SUP: 3
1077 -1 #SUP: 3
1093 -1 #SUP: 3
1097 -1 #SUP: 2
1100 -1 #SUP: 2
1104 -1 #SUP: 2
1124 -1 #SUP: 2
1135 -1 #SUP: 2
1148 -1 #SUP: 2
1152 -1 #SUP: 2
1169 -1 #SUP: 3
1193 -1 #SUP: 2
1243 -1 #SUP: 3
1316 -1 #SUP: 2
1322 -1 #SUP: 2
1367 -1 #SUP: 3
1418 -1 #SUP: 2
1473 -1 #SUP: 4
1527 -1 #SUP: 2
1543 -1 #SUP: 2
1615 -1 #SUP: 4
1640 -1 #SUP: 2
1678 -1 #SUP: 2
1820 -1 #SUP: 2
1965 -1 #SUP: 2
2214 -1 #SUP: 2
2227 -1 #SUP: 2
2232 -1 #SUP: 2
2293 -1 #SUP: 4
2355 -1 #SUP: 2
2375 -1 #SUP: 2
2549 -1 #SUP: 2
2697 -1 #SUP: 2
3320 -1 #SUP: 2
3544 -1 #SUP: 2
3880 -1 #SUP: 2
4034 -1 #SUP: 4
4074 -1 #SUP: 2
5029 -1 #SUP: 2
5313 -1 #SUP: 2
5319 -1 #SUP: 2
5589 -1 #SUP: 2
5828 -1 #SUP: 2
7803 -1 #SUP: 2
9459 -1 #SUP: 2
15229 -1 #SUP: 2
27621 -1 #SUP: 2
28200 -1 #SUP: 2
2 -1 3 -1 #SUP: 5
2 -1 7 -1 #SUP: 2
2 -1 22 -1 #SUP: 4
2 -1 32 -1 #SUP: 5
2 -1 50 -1 #SUP: 2
2 -1 64 -1 #SUP: 5
2 -1 75 -1 #SUP: 5
2 -1 76 -1 #SUP: 3
2 -1 81 -1 #SUP: 2
2 -1 113 -1 #SUP: 9
2 -1 151 -1 #SUP: 3
2 -1 160 -1 #SUP: 2
2 -1 200 -1 #SUP: 5
2 -1 213 -1 #SUP: 2
2 -1 363 -1 #SUP: 2
2 -1 1473 -1 #SUP: 2
3 -1 2 -1 #SUP: 3
3 -1 3 -1 #SUP: 4
3 -1 7 -1 #SUP: 2
3 -1 10 -1 #SUP: 3
3 -1 22 -1 #SUP: 7
3 -1 31 -1 #SUP: 3
3 -1 32 -1 #SUP: 2
3 -1 33 -1 #SUP: 4
3 -1 41 -1 #SUP: 3
3 -1 50 -1 #SUP: 2
3 -1 64 -1 #SUP: 4
3 -1 65 -1 #SUP: 5
3 -1 76 -1 #SUP: 14
3 -1 113 -1 #SUP: 6
3 -1 115 -1 #SUP: 2
3 -1 129 -1 #SUP: 2
3 -1 144 -1 #SUP: 2
3 -1 149 -1 #SUP: 2
3 -1 151 -1 #SUP: 4
3 -1 160 -1 #SUP: 3
3 -1 165 -1 #SUP: 2
3 -1 187 -1 #SUP: 4
3 -1 189 -1 #SUP: 2
3 -1 194 -1 #SUP: 3
3 -1 200 -1 #SUP: 3
3 -1 278 -1 #SUP: 3
3 -1 312 -1 #SUP: 2
3 -1 340 -1 #SUP: 2
3 -1 388 -1 #SUP: 2
3 -1 497 -1 #SUP: 3
3 -1 502 -1 #SUP: 2
3 -1 636 -1 #SUP: 2
3 -1 1367 -1 #SUP: 2
3 -1 2227 -1 #SUP: 2
3 -1 28200 -1 #SUP: 2
7 -1 22 -1 #SUP: 3
7 -1 32 -1 #SUP: 3
7 -1 64 -1 #SUP: 4
7 -1 65 -1 #SUP: 4
7 -1 70 -1 #SUP: 2
7 -1 75 -1 #SUP: 2
7 -1 76 -1 #SUP: 3
7 -1 113 -1 #SUP: 2
7 -1 151 -1 #SUP: 4
7 -1 200 -1 #SUP: 2
7 -1 250 -1 #SUP: 2
10 -1 22 -1 #SUP: 4
10 -1 32 -1 #SUP: 3
10 -1 64 -1 #SUP: 3
10 -1 66 -1 #SUP: 2
10 -1 76 -1 #SUP: 3
10 -1 113 -1 #SUP: 3
10 -1 256 -1 #SUP: 3
10 -1 889 -1 #SUP: 2
10 -1 4074 -1 #SUP: 2
11 -1 2 -1 #SUP: 2
11 -1 3 -1 #SUP: 2
11 -1 76 -1 #SUP: 2
16 -1 151 -1 #SUP: 2
22 -1 2 -1 #SUP: 5
22 -1 3 -1 #SUP: 4
22 -1 7 -1 #SUP: 2
22 -1 22 -1 #SUP: 8
22 -1 32 -1 #SUP: 6
22 -1 54 -1 #SUP: 2
22 -1 64 -1 #SUP: 2
22 -1 65 -1 #SUP: 4
22 -1 75 -1 #SUP: 4
22 -1 76 -1 #SUP: 13
22 -1 77 -1 #SUP: 2
22 -1 113 -1 #SUP: 7
22 -1 115 -1 #SUP: 2
22 -1 129 -1 #SUP: 5
22 -1 151 -1 #SUP: 8
22 -1 153 -1 #SUP: 2
22 -1 160 -1 #SUP: 2
22 -1 165 -1 #SUP: 2
22 -1 201 -1 #SUP: 2
22 -1 207 -1 #SUP: 3
22 -1 234 -1 #SUP: 2
22 -1 256 -1 #SUP: 3
22 -1 268 -1 #SUP: 2
22 -1 348 -1 #SUP: 2
22 -1 364 -1 #SUP: 2
22 -1 435 -1 #SUP: 2
22 -1 497 -1 #SUP: 2
22 -1 502 -1 #SUP: 3
22 -1 506 -1 #SUP: 2
22 -1 553 -1 #SUP: 2
22 -1 1148 -1 #SUP: 2
22 -1 2214 -1 #SUP: 2
22 -1 4034 -1 #SUP: 2
29 -1 3 -1 #SUP: 2
30 -1 3 -1 #SUP: 2
30 -1 30 -1 #SUP: 3
31 -1 3 -1 #SUP: 2
31 -1 32 -1 #SUP: 2
31 -1 64 -1 #SUP: 2
31 -1 76 -1 #SUP: 3
31 -1 113 -1 #SUP: 2
31 -1 182 -1 #SUP: 2
31 -1 189 -1 #SUP: 2
31 -1 312 -1 #SUP: 2
31 -1 497 -1 #SUP: 2
32 -1 2 -1 #SUP: 5
32 -1 3 -1 #SUP: 8
32 -1 7 -1 #SUP: 2
32 -1 22 -1 #SUP: 11
32 -1 32 -1 #SUP: 4
32 -1 64 -1 #SUP: 5
32 -1 65 -1 #SUP: 4
32 -1 75 -1 #SUP: 3
32 -1 76 -1 #SUP: 10
32 -1 113 -1 #SUP: 5
32 -1 131 -1 #SUP: 2
32 -1 151 -1 #SUP: 6
32 -1 182 -1 #SUP: 2
32 -1 187 -1 #SUP: 2
32 -1 207 -1 #SUP: 2
32 -1 224 -1 #SUP: 2
32 -1 256 -1 #SUP: 2
32 -1 273 -1 #SUP: 2
32 -1 340 -1 #SUP: 2
32 -1 417 -1 #SUP: 2
32 -1 435 -1 #SUP: 2
32 -1 497 -1 #SUP: 2
33 -1 3 -1 #SUP: 2
33 -1 22 -1 #SUP: 3
33 -1 65 -1 #SUP: 3
33 -1 76 -1 #SUP: 3
33 -1 151 -1 #SUP: 2
33 -1 182 -1 #SUP: 2
33 -1 340 -1 #SUP: 2
33 -1 497 -1 #SUP: 2
41 -1 22 -1 #SUP: 2
41 -1 32 -1 #SUP: 2
41 -1 41 -1 #SUP: 2
41 -1 47 -1 #SUP: 2
41 -1 64 -1 #SUP: 2
41 -1 66 -1 #SUP: 2
41 -1 76 -1 #SUP: 3
41 -1 115 -1 #SUP: 2
41 -1 213 -1 #SUP: 2
41 -1 278 -1 #SUP: 2
47 -1 151 -1 #SUP: 2
50 -1 3 -1 #SUP: 4
50 -1 7 -1 #SUP: 2
50 -1 64 -1 #SUP: 2
50 -1 76 -1 #SUP: 3
50 -1 113 -1 #SUP: 2
50 -1 187 -1 #SUP: 2
54 -1 65 -1 #SUP: 2
64 -1 2 -1 #SUP: 2
64 -1 3 -1 #SUP: 6
64 -1 7 -1 #SUP: 4
64 -1 10 -1 #SUP: 2
64 -1 16 -1 #SUP: 2
64 -1 22 -1 #SUP: 11
64 -1 32 -1 #SUP: 4
64 -1 33 -1 #SUP: 3
64 -1 41 -1 #SUP: 3
64 -1 54 -1 #SUP: 2
64 -1 64 -1 #SUP: 6
64 -1 65 -1 #SUP: 4
64 -1 76 -1 #SUP: 5
64 -1 78 -1 #SUP: 2
64 -1 113 -1 #SUP: 2
64 -1 115 -1 #SUP: 2
64 -1 148 -1 #SUP: 2
64 -1 151 -1 #SUP: 4
64 -1 154 -1 #SUP: 3
64 -1 165 -1 #SUP: 2
64 -1 182 -1 #SUP: 2
64 -1 187 -1 #SUP: 3
64 -1 200 -1 #SUP: 2
64 -1 201 -1 #SUP: 2
64 -1 207 -1 #SUP: 2
64 -1 213 -1 #SUP: 2
64 -1 256 -1 #SUP: 5
64 -1 268 -1 #SUP: 2
64 -1 273 -1 #SUP: 2
64 -1 348 -1 #SUP: 2
64 -1 435 -1 #SUP: 2
64 -1 484 -1 #SUP: 3
64 -1 601 -1 #SUP: 2
64 -1 1473 -1 #SUP: 2
65 -1 2 -1 #SUP: 7
65 -1 3 -1 #SUP: 4
65 -1 10 -1 #SUP: 2
65 -1 13 -1 #SUP: 2
65 -1 22 -1 #SUP: 3
65 -1 32 -1 #SUP: 6
65 -1 33 -1 #SUP: 2
65 -1 54 -1 #SUP: 2
65 -1 64 -1 #SUP: 5
65 -1 65 -1 #SUP: 4
65 -1 75 -1 #SUP: 2
65 -1 76 -1 #SUP: 13
65 -1 113 -1 #SUP: 3
65 -1 151 -1 #SUP: 4
65 -1 182 -1 #SUP: 2
65 -1 187 -1 #SUP: 2
65 -1 273 -1 #SUP: 2
65 -1 348 -1 #SUP: 3
65 -1 557 -1 #SUP: 3
65 -1 1100 -1 #SUP: 2
65 -1 1965 -1 #SUP: 2
66 -1 32 -1 #SUP: 2
66 -1 65 -1 #SUP: 2
75 -1 22 -1 #SUP: 3
75 -1 32 -1 #SUP: 3
75 -1 41 -1 #SUP: 2
75 -1 64 -1 #SUP: 3
75 -1 75 -1 #SUP: 2
75 -1 76 -1 #SUP: 5
75 -1 273 -1 #SUP: 2
76 -1 2 -1 #SUP: 15
76 -1 3 -1 #SUP: 14
76 -1 7 -1 #SUP: 6
76 -1 10 -1 #SUP: 4
76 -1 11 -1 #SUP: 2
76 -1 22 -1 #SUP: 18
76 -1 32 -1 #SUP: 7
76 -1 33 -1 #SUP: 4
76 -1 41 -1 #SUP: 6
76 -1 48 -1 #SUP: 2
76 -1 50 -1 #SUP: 2
76 -1 64 -1 #SUP: 12
76 -1 65 -1 #SUP: 12
76 -1 75 -1 #SUP: 6
76 -1 76 -1 #SUP: 15
76 -1 77 -1 #SUP: 2
76 -1 81 -1 #SUP: 3
76 -1 113 -1 #SUP: 21
76 -1 115 -1 #SUP: 4
76 -1 129 -1 #SUP: 2
76 -1 144 -1 #SUP: 2
76 -1 149 -1 #SUP: 4
76 -1 151 -1 #SUP: 8
76 -1 153 -1 #SUP: 2
76 -1 154 -1 #SUP: 2
76 -1 161 -1 #SUP: 3
76 -1 182 -1 #SUP: 4
76 -1 187 -1 #SUP: 2
76 -1 194 -1 #SUP: 3
76 -1 200 -1 #SUP: 5
76 -1 201 -1 #SUP: 2
76 -1 213 -1 #SUP: 3
76 -1 214 -1 #SUP: 2
76 -1 224 -1 #SUP: 3
76 -1 232 -1 #SUP: 3
76 -1 234 -1 #SUP: 2
76 -1 250 -1 #SUP: 4
76 -1 256 -1 #SUP: 2
76 -1 268 -1 #SUP: 3
76 -1 273 -1 #SUP: 2
76 -1 278 -1 #SUP: 4
76 -1 326 -1 #SUP: 2
76 -1 340 -1 #SUP: 4
76 -1 342 -1 #SUP: 4
76 -1 348 -1 #SUP: 3
76 -1 356 -1 #SUP: 3
76 -1 419 -1 #SUP: 2
76 -1 463 -1 #SUP: 2
76 -1 472 -1 #SUP: 2
76 -1 497 -1 #SUP: 6
76 -1 502 -1 #SUP: 3
76 -1 506 -1 #SUP: 3
76 -1 557 -1 #SUP: 6
76 -1 601 -1 #SUP: 2
76 -1 636 -1 #SUP: 2
76 -1 771 -1 #SUP: 2
76 -1 1097 -1 #SUP: 2
76 -1 1124 -1 #SUP: 2
76 -1 1169 -1 #SUP: 2
76 -1 1367 -1 #SUP: 2
76 -1 1473 -1 #SUP: 2
76 -1 1615 -1 #SUP: 2
76 -1 1640 -1 #SUP: 2
76 -1 2549 -1 #SUP: 2
76 -1 4034 -1 #SUP: 3
76 -1 27621 -1 #SUP: 2
77 -1 65 -1 #SUP: 2
77 -1 76 -1 #SUP: 2
78 -1 41 -1 #SUP: 2
78 -1 187 -1 #SUP: 2
81 -1 41 -1 #SUP: 2
81 -1 64 -1 #SUP: 3
81 -1 348 -1 #SUP: 2
113 -1 2 -1 #SUP: 7
113 -1 3 -1 #SUP: 13
113 -1 7 -1 #SUP: 12
113 -1 10 -1 #SUP: 4
113 -1 11 -1 #SUP: 2
113 -1 13 -1 #SUP: 2
113 -1 22 -1 #SUP: 18
113 -1 32 -1 #SUP: 11
113 -1 33 -1 #SUP: 4
113 -1 41 -1 #SUP: 2
113 -1 44 -1 #SUP: 2
113 -1 50 -1 #SUP: 6
113 -1 54 -1 #SUP: 3
113 -1 64 -1 #SUP: 18
113 -1 65 -1 #SUP: 13
113 -1 70 -1 #SUP: 2
113 -1 75 -1 #SUP: 7
113 -1 76 -1 #SUP: 15
113 -1 77 -1 #SUP: 2
113 -1 81 -1 #SUP: 2
113 -1 106 -1 #SUP: 2
113 -1 113 -1 #SUP: 6
113 -1 115 -1 #SUP: 5
113 -1 129 -1 #SUP: 2
113 -1 141 -1 #SUP: 3
113 -1 148 -1 #SUP: 2
113 -1 149 -1 #SUP: 3
113 -1 151 -1 #SUP: 11
113 -1 155 -1 #SUP: 2
113 -1 160 -1 #SUP: 6
113 -1 161 -1 #SUP: 4
113 -1 182 -1 #SUP: 5
113 -1 185 -1 #SUP: 2
113 -1 187 -1 #SUP: 4
113 -1 194 -1 #SUP: 10
113 -1 200 -1 #SUP: 5
113 -1 201 -1 #SUP: 2
113 -1 213 -1 #SUP: 3
113 -1 224 -1 #SUP: 3
113 -1 234 -1 #SUP: 5
113 -1 244 -1 #SUP: 2
113 -1 247 -1 #SUP: 2
113 -1 250 -1 #SUP: 5
113 -1 256 -1 #SUP: 10
113 -1 278 -1 #SUP: 2
113 -1 288 -1 #SUP: 2
113 -1 326 -1 #SUP: 2
113 -1 340 -1 #SUP: 6
113 -1 342 -1 #SUP: 2
113 -1 348 -1 #SUP: 2
113 -1 356 -1 #SUP: 3
113 -1 363 -1 #SUP: 2
113 -1 364 -1 #SUP: 2
113 -1 394 -1 #SUP: 3
113 -1 401 -1 #SUP: 3
113 -1 419 -1 #SUP: 2
113 -1 463 -1 #SUP: 2
113 -1 484 -1 #SUP: 2
113 -1 502 -1 #SUP: 2
113 -1 506 -1 #SUP: 2
113 -1 557 -1 #SUP: 2
113 -1 601 -1 #SUP: 2
113 -1 699 -1 #SUP: 2
113 -1 715 -1 #SUP: 2
113 -1 826 -1 #SUP: 2
113 -1 872 -1 #SUP: 2
113 -1 904 -1 #SUP: 2
113 -1 1093 -1 #SUP: 2
113 -1 1615 -1 #SUP: 3
113 -1 1640 -1 #SUP: 2
113 -1 1678 -1 #SUP: 2
113 -1 2549 -1 #SUP: 2
113 -1 3880 -1 #SUP: 2
113 -1 4074 -1 #SUP: 2
115 -1 22 -1 #SUP: 4
115 -1 32 -1 #SUP: 2
115 -1 75 -1 #SUP: 3
115 -1 76 -1 #SUP: 4
115 -1 113 -1 #SUP: 4
115 -1 129 -1 #SUP: 3
115 -1 141 -1 #SUP: 2
124 -1 10 -1 #SUP: 2
124 -1 65 -1 #SUP: 2
124 -1 151 -1 #SUP: 2
127 -1 76 -1 #SUP: 2
129 -1 75 -1 #SUP: 2
129 -1 76 -1 #SUP: 3
131 -1 7 -1 #SUP: 2
131 -1 22 -1 #SUP: 3
131 -1 32 -1 #SUP: 2
131 -1 151 -1 #SUP: 2
141 -1 22 -1 #SUP: 4
141 -1 32 -1 #SUP: 2
141 -1 41 -1 #SUP: 2
141 -1 54 -1 #SUP: 2
141 -1 64 -1 #SUP: 2
141 -1 76 -1 #SUP: 2
141 -1 131 -1 #SUP: 2
141 -1 151 -1 #SUP: 3
141 -1 182 -1 #SUP: 3
141 -1 699 -1 #SUP: 2
144 -1 2 -1 #SUP: 2
144 -1 22 -1 #SUP: 2
144 -1 76 -1 #SUP: 2
144 -1 113 -1 #SUP: 3
144 -1 388 -1 #SUP: 2
148 -1 32 -1 #SUP: 2
148 -1 150 -1 #SUP: 3
151 -1 2 -1 #SUP: 3
151 -1 3 -1 #SUP: 4
151 -1 7 -1 #SUP: 4
151 -1 10 -1 #SUP: 3
151 -1 13 -1 #SUP: 2
151 -1 22 -1 #SUP: 4
151 -1 32 -1 #SUP: 4
151 -1 33 -1 #SUP: 3
151 -1 47 -1 #SUP: 2
151 -1 64 -1 #SUP: 4
151 -1 65 -1 #SUP: 5
151 -1 76 -1 #SUP: 7
151 -1 113 -1 #SUP: 6
151 -1 131 -1 #SUP: 2
151 -1 149 -1 #SUP: 2
151 -1 151 -1 #SUP: 5
151 -1 161 -1 #SUP: 2
151 -1 187 -1 #SUP: 2
151 -1 201 -1 #SUP: 2
151 -1 278 -1 #SUP: 2
151 -1 312 -1 #SUP: 2
151 -1 340 -1 #SUP: 2
151 -1 348 -1 #SUP: 2
151 -1 356 -1 #SUP: 2
151 -1 394 -1 #SUP: 2
151 -1 417 -1 #SUP: 2
151 -1 699 -1 #SUP: 2
151 -1 927 -1 #SUP: 2
153 -1 151 -1 #SUP: 2
154 -1 22 -1 #SUP: 3
154 -1 64 -1 #SUP: 2
154 -1 113 -1 #SUP: 2
154 -1 115 -1 #SUP: 2
155 -1 151 -1 #SUP: 2
158 -1 76 -1 #SUP: 2
158 -1 141 -1 #SUP: 2
158 -1 182 -1 #SUP: 2
160 -1 3 -1 #SUP: 2
160 -1 22 -1 #SUP: 3
160 -1 50 -1 #SUP: 4
160 -1 76 -1 #SUP: 3
160 -1 113 -1 #SUP: 2
160 -1 149 -1 #SUP: 2
160 -1 151 -1 #SUP: 2
160 -1 232 -1 #SUP: 2
160 -1 463 -1 #SUP: 2
161 -1 3 -1 #SUP: 2
161 -1 64 -1 #SUP: 3
163 -1 65 -1 #SUP: 2
163 -1 76 -1 #SUP: 2
165 -1 3 -1 #SUP: 3
165 -1 22 -1 #SUP: 4
165 -1 64 -1 #SUP: 2
179 -1 151 -1 #SUP: 2
182 -1 2 -1 #SUP: 3
182 -1 22 -1 #SUP: 3
182 -1 32 -1 #SUP: 2
182 -1 64 -1 #SUP: 4
182 -1 65 -1 #SUP: 2
182 -1 75 -1 #SUP: 2
182 -1 76 -1 #SUP: 5
182 -1 113 -1 #SUP: 5
182 -1 151 -1 #SUP: 3
182 -1 256 -1 #SUP: 2
182 -1 342 -1 #SUP: 2
182 -1 641 -1 #SUP: 2
185 -1 364 -1 #SUP: 2
187 -1 32 -1 #SUP: 2
187 -1 41 -1 #SUP: 2
187 -1 64 -1 #SUP: 2
187 -1 76 -1 #SUP: 2
187 -1 484 -1 #SUP: 2
194 -1 3 -1 #SUP: 3
194 -1 22 -1 #SUP: 4
194 -1 32 -1 #SUP: 2
194 -1 76 -1 #SUP: 3
194 -1 113 -1 #SUP: 3
194 -1 151 -1 #SUP: 4
194 -1 182 -1 #SUP: 2
194 -1 234 -1 #SUP: 2
194 -1 278 -1 #SUP: 2
200 -1 3 -1 #SUP: 2
200 -1 32 -1 #SUP: 3
200 -1 64 -1 #SUP: 3
200 -1 76 -1 #SUP: 2
200 -1 297 -1 #SUP: 2
200 -1 340 -1 #SUP: 2
201 -1 65 -1 #SUP: 2
201 -1 76 -1 #SUP: 2
201 -1 151 -1 #SUP: 2
208 -1 3 -1 #SUP: 2
213 -1 10 -1 #SUP: 2
213 -1 22 -1 #SUP: 2
213 -1 41 -1 #SUP: 3
213 -1 76 -1 #SUP: 3
213 -1 113 -1 #SUP: 2
213 -1 115 -1 #SUP: 2
213 -1 256 -1 #SUP: 2
214 -1 64 -1 #SUP: 2
221 -1 148 -1 #SUP: 2
224 -1 3 -1 #SUP: 2
224 -1 22 -1 #SUP: 3
224 -1 41 -1 #SUP: 3
224 -1 113 -1 #SUP: 2
232 -1 113 -1 #SUP: 2
234 -1 3 -1 #SUP: 3
234 -1 22 -1 #SUP: 4
234 -1 32 -1 #SUP: 2
234 -1 76 -1 #SUP: 5
234 -1 113 -1 #SUP: 3
234 -1 151 -1 #SUP: 2
234 -1 153 -1 #SUP: 2
242 -1 113 -1 #SUP: 2
247 -1 22 -1 #SUP: 2
247 -1 32 -1 #SUP: 2
247 -1 113 -1 #SUP: 2
247 -1 151 -1 #SUP: 2
248 -1 22 -1 #SUP: 2
248 -1 113 -1 #SUP: 2
250 -1 3 -1 #SUP: 3
250 -1 75 -1 #SUP: 2
250 -1 76 -1 #SUP: 2
250 -1 113 -1 #SUP: 3
250 -1 234 -1 #SUP: 2
256 -1 3 -1 #SUP: 2
256 -1 22 -1 #SUP: 7
256 -1 64 -1 #SUP: 3
256 -1 65 -1 #SUP: 3
256 -1 76 -1 #SUP: 4
256 -1 113 -1 #SUP: 2
256 -1 151 -1 #SUP: 3
256 -1 160 -1 #SUP: 2
256 -1 165 -1 #SUP: 2
264 -1 32 -1 #SUP: 2
268 -1 3 -1 #SUP: 2
268 -1 22 -1 #SUP: 3
268 -1 65 -1 #SUP: 2
268 -1 76 -1 #SUP: 4
268 -1 502 -1 #SUP: 2
268 -1 1322 -1 #SUP: 2
268 -1 2214 -1 #SUP: 2
268 -1 4034 -1 #SUP: 2
268 -1 27621 -1 #SUP: 2
273 -1 10 -1 #SUP: 2
273 -1 41 -1 #SUP: 3
273 -1 692 -1 #SUP: 2
278 -1 47 -1 #SUP: 2
278 -1 76 -1 #SUP: 2
278 -1 201 -1 #SUP: 2
312 -1 2 -1 #SUP: 2
312 -1 64 -1 #SUP: 2
312 -1 76 -1 #SUP: 3
312 -1 113 -1 #SUP: 3
312 -1 182 -1 #SUP: 2
340 -1 2 -1 #SUP: 2
340 -1 3 -1 #SUP: 2
340 -1 7 -1 #SUP: 3
340 -1 22 -1 #SUP: 4
340 -1 32 -1 #SUP: 2
340 -1 64 -1 #SUP: 2
340 -1 65 -1 #SUP: 2
340 -1 75 -1 #SUP: 2
340 -1 76 -1 #SUP: 7
340 -1 113 -1 #SUP: 3
340 -1 151 -1 #SUP: 4
340 -1 557 -1 #SUP: 2
342 -1 2 -1 #SUP: 2
342 -1 22 -1 #SUP: 2
342 -1 64 -1 #SUP: 2
342 -1 76 -1 #SUP: 7
342 -1 113 -1 #SUP: 5
342 -1 312 -1 #SUP: 2
342 -1 342 -1 #SUP: 2
348 -1 2 -1 #SUP: 2
356 -1 22 -1 #SUP: 2
356 -1 32 -1 #SUP: 2
356 -1 65 -1 #SUP: 2
356 -1 76 -1 #SUP: 3
356 -1 1316 -1 #SUP: 2
363 -1 32 -1 #SUP: 6
363 -1 64 -1 #SUP: 2
363 -1 76 -1 #SUP: 2
375 -1 3 -1 #SUP: 2
375 -1 76 -1 #SUP: 2
383 -1 32 -1 #SUP: 2
388 -1 2 -1 #SUP: 2
388 -1 76 -1 #SUP: 2
388 -1 200 -1 #SUP: 2
394 -1 76 -1 #SUP: 2
401 -1 76 -1 #SUP: 2
401 -1 113 -1 #SUP: 2
417 -1 22 -1 #SUP: 2
417 -1 76 -1 #SUP: 2
417 -1 360 -1 #SUP: 2
424 -1 76 -1 #SUP: 2
463 -1 22 -1 #SUP: 2
463 -1 160 -1 #SUP: 2
469 -1 22 -1 #SUP: 2
469 -1 141 -1 #SUP: 2
469 -1 182 -1 #SUP: 2
469 -1 278 -1 #SUP: 2
484 -1 113 -1 #SUP: 2
484 -1 151 -1 #SUP: 2
484 -1 160 -1 #SUP: 2
497 -1 3 -1 #SUP: 2
497 -1 113 -1 #SUP: 2
497 -1 182 -1 #SUP: 2
502 -1 2 -1 #SUP: 2
502 -1 76 -1 #SUP: 4
502 -1 127 -1 #SUP: 2
502 -1 200 -1 #SUP: 2
502 -1 1169 -1 #SUP: 2
502 -1 4034 -1 #SUP: 2
506 -1 22 -1 #SUP: 3
506 -1 113 -1 #SUP: 2
506 -1 115 -1 #SUP: 2
509 -1 113 -1 #SUP: 4
548 -1 3 -1 #SUP: 2
553 -1 22 -1 #SUP: 2
553 -1 113 -1 #SUP: 2
557 -1 22 -1 #SUP: 4
557 -1 33 -1 #SUP: 2
557 -1 41 -1 #SUP: 2
557 -1 65 -1 #SUP: 5
557 -1 75 -1 #SUP: 2
557 -1 76 -1 #SUP: 7
557 -1 77 -1 #SUP: 2
557 -1 113 -1 #SUP: 3
557 -1 115 -1 #SUP: 2
557 -1 129 -1 #SUP: 2
557 -1 151 -1 #SUP: 2
557 -1 182 -1 #SUP: 2
557 -1 771 -1 #SUP: 2
558 -1 76 -1 #SUP: 2
593 -1 76 -1 #SUP: 2
593 -1 113 -1 #SUP: 2
601 -1 22 -1 #SUP: 3
602 -1 64 -1 #SUP: 2
607 -1 151 -1 #SUP: 2
641 -1 64 -1 #SUP: 3
641 -1 113 -1 #SUP: 2
686 -1 41 -1 #SUP: 2
686 -1 141 -1 #SUP: 2
692 -1 76 -1 #SUP: 2
699 -1 64 -1 #SUP: 3
715 -1 32 -1 #SUP: 2
786 -1 33 -1 #SUP: 2
826 -1 33 -1 #SUP: 2
826 -1 65 -1 #SUP: 2
872 -1 64 -1 #SUP: 2
889 -1 64 -1 #SUP: 2
927 -1 278 -1 #SUP: 2
1077 -1 32 -1 #SUP: 2
1148 -1 22 -1 #SUP: 2
1148 -1 32 -1 #SUP: 2
1152 -1 113 -1 #SUP: 2
1322 -1 76 -1 #SUP: 2
1322 -1 502 -1 #SUP: 2
1322 -1 1169 -1 #SUP: 2
1322 -1 2214 -1 #SUP: 2
1322 -1 4034 -1 #SUP: 2
1322 -1 27621 -1 #SUP: 2
1473 -1 64 -1 #SUP: 2
1473 -1 154 -1 #SUP: 3
1543 -1 929 -1 #SUP: 2
1615 -1 22 -1 #SUP: 2
1615 -1 64 -1 #SUP: 3
1678 -1 151 -1 #SUP: 2
1965 -1 64 -1 #SUP: 2
2214 -1 1169 -1 #SUP: 2
2214 -1 4034 -1 #SUP: 2
2232 -1 76 -1 #SUP: 2
2293 -1 3 -1 #SUP: 2
2293 -1 113 -1 #SUP: 2
2697 -1 1527 -1 #SUP: 2
4034 -1 76 -1 #SUP: 2
4034 -1 502 -1 #SUP: 2
4034 -1 1169 -1 #SUP: 2
4034 -1 4034 -1 #SUP: 2
5319 -1 187 -1 #SUP: 2
5828 -1 5313 -1 #SUP: 2
5828 -1 15229 -1 #SUP: 2
15229 -1 5313 -1 #SUP: 2
27621 -1 1169 -1 #SUP: 2
27621 -1 4034 -1 #SUP: 2
28200 -1 3 -1 #SUP: 2
28200 -1 31 -1 #SUP: 2
2 -1 22 -1 75 -1 #SUP: 2
2 -1 64 -1 200 -1 #SUP: 2
2 -1 81 -1 64 -1 #SUP: 2
2 -1 113 -1 3 -1 #SUP: 3
2 -1 113 -1 22 -1 #SUP: 3
2 -1 113 -1 32 -1 #SUP: 3
2 -1 113 -1 64 -1 #SUP: 3
2 -1 113 -1 75 -1 #SUP: 4
2 -1 113 -1 76 -1 #SUP: 2
2 -1 113 -1 200 -1 #SUP: 3
2 -1 113 -1 213 -1 #SUP: 2
2 -1 160 -1 50 -1 #SUP: 2
2 -1 200 -1 3 -1 #SUP: 2
2 -1 200 -1 32 -1 #SUP: 2
2 -1 200 -1 64 -1 #SUP: 2
2 -1 363 -1 32 -1 #SUP: 2
3 -1 3 -1 3 -1 #SUP: 2
3 -1 3 -1 76 -1 #SUP: 2
3 -1 22 -1 129 -1 #SUP: 2
3 -1 31 -1 3 -1 #SUP: 2
3 -1 31 -1 312 -1 #SUP: 2
3 -1 64 -1 187 -1 #SUP: 2
3 -1 65 -1 76 -1 #SUP: 2
3 -1 76 -1 2 -1 #SUP: 3
3 -1 76 -1 3 -1 #SUP: 2
3 -1 76 -1 22 -1 #SUP: 3
3 -1 76 -1 64 -1 #SUP: 2
3 -1 76 -1 76 -1 #SUP: 2
3 -1 76 -1 113 -1 #SUP: 2
3 -1 76 -1 497 -1 #SUP: 3
3 -1 151 -1 10 -1 #SUP: 2
3 -1 151 -1 76 -1 #SUP: 2
3 -1 151 -1 113 -1 #SUP: 2
3 -1 194 -1 22 -1 #SUP: 2
3 -1 194 -1 76 -1 #SUP: 2
3 -1 194 -1 278 -1 #SUP: 2
3 -1 340 -1 76 -1 #SUP: 2
3 -1 28200 -1 3 -1 #SUP: 2
3 -1 28200 -1 31 -1 #SUP: 2
7 -1 64 -1 22 -1 #SUP: 2
7 -1 65 -1 32 -1 #SUP: 3
7 -1 65 -1 76 -1 #SUP: 2
7 -1 76 -1 151 -1 #SUP: 2
7 -1 151 -1 113 -1 #SUP: 2
10 -1 22 -1 113 -1 #SUP: 2
10 -1 22 -1 256 -1 #SUP: 2
10 -1 76 -1 113 -1 #SUP: 2
10 -1 113 -1 256 -1 #SUP: 2
10 -1 889 -1 64 -1 #SUP: 2
22 -1 3 -1 151 -1 #SUP: 3
22 -1 7 -1 151 -1 #SUP: 2
22 -1 22 -1 151 -1 #SUP: 2
22 -1 32 -1 22 -1 #SUP: 2
22 -1 32 -1 151 -1 #SUP: 2
22 -1 75 -1 76 -1 #SUP: 2
22 -1 76 -1 2 -1 #SUP: 4
22 -1 76 -1 32 -1 #SUP: 2
22 -1 76 -1 113 -1 #SUP: 4
22 -1 76 -1 497 -1 #SUP: 2
22 -1 113 -1 22 -1 #SUP: 2
22 -1 113 -1 256 -1 #SUP: 2
22 -1 129 -1 75 -1 #SUP: 2
22 -1 129 -1 76 -1 #SUP: 3
22 -1 151 -1 113 -1 #SUP: 2
22 -1 153 -1 151 -1 #SUP: 2
22 -1 502 -1 76 -1 #SUP: 2
22 -1 1148 -1 22 -1 #SUP: 2
22 -1 1148 -1 32 -1 #SUP: 2
22 -1 2214 -1 4034 -1 #SUP: 2
22 -1 4034 -1 502 -1 #SUP: 2
30 -1 30 -1 30 -1 #SUP: 3
31 -1 76 -1 497 -1 #SUP: 2
32 -1 2 -1 3 -1 #SUP: 2
32 -1 3 -1 22 -1 #SUP: 2
32 -1 3 -1 76 -1 #SUP: 2
32 -1 3 -1 151 -1 #SUP: 2
32 -1 7 -1 151 -1 #SUP: 2
32 -1 22 -1 3 -1 #SUP: 2
32 -1 22 -1 22 -1 #SUP: 3
32 -1 22 -1 76 -1 #SUP: 2
32 -1 22 -1 113 -1 #SUP: 2
32 -1 22 -1 151 -1 #SUP: 4
32 -1 22 -1 207 -1 #SUP: 2
32 -1 64 -1 3 -1 #SUP: 2
32 -1 64 -1 22 -1 #SUP: 2
32 -1 65 -1 32 -1 #SUP: 2
32 -1 75 -1 76 -1 #SUP: 2
32 -1 76 -1 2 -1 #SUP: 5
32 -1 76 -1 3 -1 #SUP: 2
32 -1 76 -1 113 -1 #SUP: 2
32 -1 76 -1 497 -1 #SUP: 2
32 -1 113 -1 76 -1 #SUP: 2
32 -1 131 -1 22 -1 #SUP: 2
32 -1 151 -1 113 -1 #SUP: 2
32 -1 224 -1 113 -1 #SUP: 2
32 -1 340 -1 76 -1 #SUP: 2
33 -1 22 -1 22 -1 #SUP: 2
33 -1 76 -1 497 -1 #SUP: 2
41 -1 66 -1 32 -1 #SUP: 2
41 -1 76 -1 76 -1 #SUP: 2
41 -1 213 -1 76 -1 #SUP: 2
41 -1 278 -1 47 -1 #SUP: 2
50 -1 76 -1 3 -1 #SUP: 2
50 -1 76 -1 76 -1 #SUP: 2
64 -1 22 -1 32 -1 #SUP: 2
64 -1 22 -1 64 -1 #SUP: 2
64 -1 22 -1 165 -1 #SUP: 2
64 -1 22 -1 207 -1 #SUP: 2
64 -1 65 -1 64 -1 #SUP: 2
64 -1 76 -1 22 -1 #SUP: 2
64 -1 78 -1 41 -1 #SUP: 2
64 -1 78 -1 187 -1 #SUP: 2
64 -1 187 -1 41 -1 #SUP: 2
64 -1 256 -1 22 -1 #SUP: 3
64 -1 256 -1 64 -1 #SUP: 2
64 -1 1473 -1 154 -1 #SUP: 2
65 -1 2 -1 113 -1 #SUP: 2
65 -1 2 -1 151 -1 #SUP: 2
65 -1 3 -1 65 -1 #SUP: 2
65 -1 3 -1 76 -1 #SUP: 2
65 -1 32 -1 2 -1 #SUP: 3
65 -1 32 -1 75 -1 #SUP: 2
65 -1 32 -1 76 -1 #SUP: 4
65 -1 32 -1 273 -1 #SUP: 2
65 -1 76 -1 2 -1 #SUP: 7
65 -1 76 -1 64 -1 #SUP: 4
65 -1 76 -1 65 -1 #SUP: 3
65 -1 76 -1 113 -1 #SUP: 2
65 -1 76 -1 151 -1 #SUP: 2
65 -1 76 -1 557 -1 #SUP: 3
65 -1 113 -1 2 -1 #SUP: 2
65 -1 113 -1 76 -1 #SUP: 2
75 -1 22 -1 76 -1 #SUP: 2
75 -1 32 -1 22 -1 #SUP: 2
75 -1 32 -1 76 -1 #SUP: 2
75 -1 76 -1 76 -1 #SUP: 3
76 -1 2 -1 3 -1 #SUP: 3
76 -1 2 -1 7 -1 #SUP: 2
76 -1 2 -1 32 -1 #SUP: 4
76 -1 2 -1 64 -1 #SUP: 4
76 -1 2 -1 75 -1 #SUP: 4
76 -1 2 -1 76 -1 #SUP: 3
76 -1 2 -1 81 -1 #SUP: 2
76 -1 2 -1 113 -1 #SUP: 6
76 -1 2 -1 151 -1 #SUP: 3
76 -1 2 -1 200 -1 #SUP: 3
76 -1 2 -1 1473 -1 #SUP: 2
76 -1 3 -1 22 -1 #SUP: 2
76 -1 3 -1 41 -1 #SUP: 2
76 -1 3 -1 76 -1 #SUP: 2
76 -1 3 -1 113 -1 #SUP: 2
76 -1 3 -1 151 -1 #SUP: 2
76 -1 3 -1 194 -1 #SUP: 3
76 -1 3 -1 278 -1 #SUP: 3
76 -1 3 -1 636 -1 #SUP: 2
76 -1 3 -1 1367 -1 #SUP: 2
76 -1 7 -1 151 -1 #SUP: 2
76 -1 10 -1 22 -1 #SUP: 3
76 -1 22 -1 2 -1 #SUP: 2
76 -1 22 -1 3 -1 #SUP: 2
76 -1 22 -1 22 -1 #SUP: 3
76 -1 22 -1 65 -1 #SUP: 3
76 -1 22 -1 75 -1 #SUP: 3
76 -1 22 -1 76 -1 #SUP: 4
76 -1 22 -1 129 -1 #SUP: 2
76 -1 22 -1 151 -1 #SUP: 3
76 -1 22 -1 153 -1 #SUP: 2
76 -1 22 -1 268 -1 #SUP: 2
76 -1 32 -1 2 -1 #SUP: 2
76 -1 32 -1 22 -1 #SUP: 2
76 -1 32 -1 76 -1 #SUP: 3
76 -1 32 -1 151 -1 #SUP: 2
76 -1 33 -1 65 -1 #SUP: 2
76 -1 41 -1 22 -1 #SUP: 2
76 -1 41 -1 115 -1 #SUP: 2
76 -1 64 -1 22 -1 #SUP: 4
76 -1 65 -1 2 -1 #SUP: 2
76 -1 65 -1 32 -1 #SUP: 2
76 -1 65 -1 76 -1 #SUP: 3
76 -1 65 -1 348 -1 #SUP: 2
76 -1 75 -1 76 -1 #SUP: 3
76 -1 76 -1 2 -1 #SUP: 5
76 -1 76 -1 3 -1 #SUP: 2
76 -1 76 -1 22 -1 #SUP: 3
76 -1 76 -1 33 -1 #SUP: 2
76 -1 76 -1 41 -1 #SUP: 2
76 -1 76 -1 76 -1 #SUP: 4
76 -1 76 -1 113 -1 #SUP: 3
76 -1 76 -1 342 -1 #SUP: 3
76 -1 76 -1 348 -1 #SUP: 2
76 -1 81 -1 64 -1 #SUP: 3
76 -1 113 -1 2 -1 #SUP: 2
76 -1 113 -1 3 -1 #SUP: 3
76 -1 113 -1 7 -1 #SUP: 3
76 -1 113 -1 10 -1 #SUP: 2
76 -1 113 -1 22 -1 #SUP: 7
76 -1 113 -1 32 -1 #SUP: 3
76 -1 113 -1 64 -1 #SUP: 5
76 -1 113 -1 65 -1 #SUP: 5
76 -1 113 -1 75 -1 #SUP: 3
76 -1 113 -1 76 -1 #SUP: 5
76 -1 113 -1 151 -1 #SUP: 3
76 -1 113 -1 161 -1 #SUP: 2
76 -1 113 -1 194 -1 #SUP: 2
76 -1 113 -1 200 -1 #SUP: 3
76 -1 113 -1 213 -1 #SUP: 2
76 -1 113 -1 250 -1 #SUP: 2
76 -1 113 -1 256 -1 #SUP: 2
76 -1 113 -1 278 -1 #SUP: 2
76 -1 113 -1 326 -1 #SUP: 2
76 -1 113 -1 342 -1 #SUP: 2
76 -1 113 -1 356 -1 #SUP: 2
76 -1 113 -1 419 -1 #SUP: 2
76 -1 113 -1 1615 -1 #SUP: 2
76 -1 113 -1 1640 -1 #SUP: 2
76 -1 113 -1 2549 -1 #SUP: 2
76 -1 115 -1 22 -1 #SUP: 3
76 -1 115 -1 75 -1 #SUP: 2
76 -1 115 -1 76 -1 #SUP: 2
76 -1 115 -1 129 -1 #SUP: 2
76 -1 129 -1 75 -1 #SUP: 2
76 -1 129 -1 76 -1 #SUP: 2
76 -1 144 -1 113 -1 #SUP: 2
76 -1 151 -1 65 -1 #SUP: 3
76 -1 151 -1 113 -1 #SUP: 3
76 -1 182 -1 2 -1 #SUP: 2
76 -1 194 -1 76 -1 #SUP: 2
76 -1 194 -1 278 -1 #SUP: 2
76 -1 200 -1 76 -1 #SUP: 2
76 -1 213 -1 22 -1 #SUP: 2
76 -1 224 -1 41 -1 #SUP: 2
76 -1 340 -1 22 -1 #SUP: 2
76 -1 342 -1 76 -1 #SUP: 3
76 -1 342 -1 342 -1 #SUP: 2
76 -1 348 -1 2 -1 #SUP: 2
76 -1 497 -1 182 -1 #SUP: 2
76 -1 502 -1 2 -1 #SUP: 2
76 -1 502 -1 76 -1 #SUP: 2
76 -1 506 -1 22 -1 #SUP: 3
76 -1 557 -1 22 -1 #SUP: 3
76 -1 557 -1 75 -1 #SUP: 2
76 -1 557 -1 76 -1 #SUP: 2
76 -1 557 -1 115 -1 #SUP: 2
76 -1 557 -1 129 -1 #SUP: 2
76 -1 1615 -1 22 -1 #SUP: 2
76 -1 1615 -1 64 -1 #SUP: 2
76 -1 4034 -1 1169 -1 #SUP: 2
76 -1 27621 -1 4034 -1 #SUP: 2
78 -1 187 -1 41 -1 #SUP: 2
81 -1 64 -1 41 -1 #SUP: 2
81 -1 64 -1 348 -1 #SUP: 2
113 -1 2 -1 113 -1 #SUP: 4
113 -1 3 -1 22 -1 #SUP: 2
113 -1 3 -1 32 -1 #SUP: 2
113 -1 3 -1 76 -1 #SUP: 2
113 -1 3 -1 194 -1 #SUP: 3
113 -1 3 -1 200 -1 #SUP: 2
113 -1 7 -1 22 -1 #SUP: 2
113 -1 7 -1 32 -1 #SUP: 2
113 -1 7 -1 64 -1 #SUP: 2
113 -1 7 -1 65 -1 #SUP: 3
113 -1 7 -1 70 -1 #SUP: 2
113 -1 7 -1 75 -1 #SUP: 2
113 -1 7 -1 76 -1 #SUP: 3
113 -1 7 -1 113 -1 #SUP: 2
113 -1 7 -1 151 -1 #SUP: 3
113 -1 7 -1 250 -1 #SUP: 2
113 -1 10 -1 22 -1 #SUP: 2
113 -1 10 -1 4074 -1 #SUP: 2
113 -1 22 -1 2 -1 #SUP: 2
113 -1 22 -1 75 -1 #SUP: 2
113 -1 22 -1 76 -1 #SUP: 3
113 -1 22 -1 113 -1 #SUP: 2
113 -1 22 -1 129 -1 #SUP: 2
113 -1 22 -1 151 -1 #SUP: 3
113 -1 22 -1 234 -1 #SUP: 2
113 -1 32 -1 3 -1 #SUP: 3
113 -1 32 -1 22 -1 #SUP: 4
113 -1 32 -1 75 -1 #SUP: 2
113 -1 32 -1 76 -1 #SUP: 3
113 -1 32 -1 113 -1 #SUP: 2
113 -1 32 -1 151 -1 #SUP: 2
113 -1 33 -1 76 -1 #SUP: 2
113 -1 50 -1 76 -1 #SUP: 2
113 -1 64 -1 3 -1 #SUP: 3
113 -1 64 -1 7 -1 #SUP: 2
113 -1 64 -1 22 -1 #SUP: 4
113 -1 64 -1 54 -1 #SUP: 2
113 -1 64 -1 148 -1 #SUP: 2
113 -1 64 -1 151 -1 #SUP: 2
113 -1 64 -1 213 -1 #SUP: 2
113 -1 64 -1 256 -1 #SUP: 3
113 -1 64 -1 601 -1 #SUP: 2
113 -1 65 -1 2 -1 #SUP: 3
113 -1 65 -1 3 -1 #SUP: 2
113 -1 65 -1 32 -1 #SUP: 3
113 -1 65 -1 76 -1 #SUP: 6
113 -1 65 -1 113 -1 #SUP: 2
113 -1 65 -1 151 -1 #SUP: 2
113 -1 65 -1 187 -1 #SUP: 2
113 -1 75 -1 76 -1 #SUP: 3
113 -1 76 -1 2 -1 #SUP: 6
113 -1 76 -1 3 -1 #SUP: 2
113 -1 76 -1 32 -1 #SUP: 2
113 -1 76 -1 64 -1 #SUP: 3
113 -1 76 -1 76 -1 #SUP: 4
113 -1 76 -1 113 -1 #SUP: 5
113 -1 76 -1 149 -1 #SUP: 2
113 -1 76 -1 151 -1 #SUP: 2
113 -1 76 -1 161 -1 #SUP: 2
113 -1 76 -1 348 -1 #SUP: 2
113 -1 76 -1 557 -1 #SUP: 2
113 -1 81 -1 64 -1 #SUP: 2
113 -1 113 -1 76 -1 #SUP: 2
113 -1 141 -1 22 -1 #SUP: 2
113 -1 151 -1 3 -1 #SUP: 3
113 -1 151 -1 65 -1 #SUP: 3
113 -1 151 -1 113 -1 #SUP: 3
113 -1 151 -1 161 -1 #SUP: 2
113 -1 151 -1 394 -1 #SUP: 2
113 -1 155 -1 151 -1 #SUP: 2
113 -1 160 -1 22 -1 #SUP: 2
113 -1 160 -1 50 -1 #SUP: 2
113 -1 182 -1 64 -1 #SUP: 2
113 -1 182 -1 256 -1 #SUP: 2
113 -1 185 -1 364 -1 #SUP: 2
113 -1 187 -1 32 -1 #SUP: 2
113 -1 194 -1 3 -1 #SUP: 2
113 -1 194 -1 22 -1 #SUP: 2
113 -1 194 -1 32 -1 #SUP: 2
113 -1 194 -1 76 -1 #SUP: 2
113 -1 194 -1 151 -1 #SUP: 4
113 -1 194 -1 234 -1 #SUP: 2
113 -1 200 -1 32 -1 #SUP: 2
113 -1 234 -1 76 -1 #SUP: 2
113 -1 247 -1 22 -1 #SUP: 2
113 -1 247 -1 32 -1 #SUP: 2
113 -1 247 -1 151 -1 #SUP: 2
113 -1 256 -1 22 -1 #SUP: 5
113 -1 256 -1 65 -1 #SUP: 2
113 -1 256 -1 151 -1 #SUP: 2
113 -1 256 -1 160 -1 #SUP: 2
113 -1 340 -1 64 -1 #SUP: 2
113 -1 342 -1 76 -1 #SUP: 2
113 -1 356 -1 76 -1 #SUP: 2
113 -1 363 -1 32 -1 #SUP: 2
113 -1 401 -1 76 -1 #SUP: 2
113 -1 401 -1 113 -1 #SUP: 2
113 -1 699 -1 64 -1 #SUP: 2
113 -1 715 -1 32 -1 #SUP: 2
113 -1 826 -1 65 -1 #SUP: 2
113 -1 872 -1 64 -1 #SUP: 2
113 -1 1615 -1 22 -1 #SUP: 2
113 -1 1615 -1 64 -1 #SUP: 3
115 -1 22 -1 75 -1 #SUP: 3
115 -1 22 -1 76 -1 #SUP: 2
115 -1 22 -1 129 -1 #SUP: 3
115 -1 75 -1 76 -1 #SUP: 2
115 -1 76 -1 113 -1 #SUP: 2
115 -1 113 -1 141 -1 #SUP: 2
115 -1 129 -1 75 -1 #SUP: 2
115 -1 129 -1 76 -1 #SUP: 2
124 -1 151 -1 10 -1 #SUP: 2
127 -1 76 -1 76 -1 #SUP: 2
129 -1 75 -1 76 -1 #SUP: 2
131 -1 22 -1 32 -1 #SUP: 2
141 -1 22 -1 54 -1 #SUP: 2
141 -1 699 -1 64 -1 #SUP: 2
144 -1 76 -1 2 -1 #SUP: 2
144 -1 113 -1 22 -1 #SUP: 2
151 -1 7 -1 76 -1 #SUP: 2
151 -1 7 -1 113 -1 #SUP: 2
151 -1 7 -1 151 -1 #SUP: 2
151 -1 22 -1 32 -1 #SUP: 2
151 -1 32 -1 22 -1 #SUP: 2
151 -1 65 -1 33 -1 #SUP: 2
151 -1 76 -1 2 -1 #SUP: 3
151 -1 76 -1 151 -1 #SUP: 2
151 -1 113 -1 7 -1 #SUP: 3
151 -1 113 -1 64 -1 #SUP: 3
151 -1 113 -1 76 -1 #SUP: 2
151 -1 113 -1 113 -1 #SUP: 2
151 -1 113 -1 151 -1 #SUP: 3
151 -1 113 -1 201 -1 #SUP: 2
151 -1 131 -1 22 -1 #SUP: 2
151 -1 131 -1 32 -1 #SUP: 2
151 -1 151 -1 113 -1 #SUP: 3
151 -1 340 -1 76 -1 #SUP: 2
151 -1 394 -1 76 -1 #SUP: 2
151 -1 927 -1 278 -1 #SUP: 2
154 -1 113 -1 22 -1 #SUP: 2
154 -1 115 -1 22 -1 #SUP: 2
158 -1 76 -1 76 -1 #SUP: 2
161 -1 3 -1 64 -1 #SUP: 2
163 -1 76 -1 65 -1 #SUP: 2
165 -1 3 -1 22 -1 #SUP: 2
165 -1 64 -1 22 -1 #SUP: 2
182 -1 2 -1 113 -1 #SUP: 2
182 -1 64 -1 22 -1 #SUP: 2
182 -1 64 -1 256 -1 #SUP: 2
182 -1 76 -1 2 -1 #SUP: 2
182 -1 76 -1 22 -1 #SUP: 2
182 -1 76 -1 113 -1 #SUP: 3
182 -1 113 -1 22 -1 #SUP: 2
182 -1 113 -1 64 -1 #SUP: 2
182 -1 256 -1 22 -1 #SUP: 2
182 -1 342 -1 76 -1 #SUP: 2
182 -1 641 -1 113 -1 #SUP: 2
187 -1 76 -1 64 -1 #SUP: 2
194 -1 22 -1 3 -1 #SUP: 2
194 -1 32 -1 3 -1 #SUP: 2
194 -1 32 -1 22 -1 #SUP: 2
194 -1 76 -1 22 -1 #SUP: 3
194 -1 76 -1 113 -1 #SUP: 2
194 -1 113 -1 22 -1 #SUP: 2
194 -1 151 -1 3 -1 #SUP: 2
194 -1 182 -1 22 -1 #SUP: 2
194 -1 182 -1 76 -1 #SUP: 2
194 -1 182 -1 113 -1 #SUP: 2
201 -1 76 -1 151 -1 #SUP: 2
213 -1 22 -1 76 -1 #SUP: 2
213 -1 76 -1 41 -1 #SUP: 2
213 -1 76 -1 76 -1 #SUP: 2
213 -1 113 -1 256 -1 #SUP: 2
213 -1 115 -1 76 -1 #SUP: 2
224 -1 113 -1 22 -1 #SUP: 2
234 -1 22 -1 3 -1 #SUP: 2
234 -1 22 -1 151 -1 #SUP: 2
234 -1 22 -1 153 -1 #SUP: 2
234 -1 76 -1 3 -1 #SUP: 3
234 -1 76 -1 22 -1 #SUP: 4
234 -1 76 -1 32 -1 #SUP: 2
234 -1 76 -1 76 -1 #SUP: 2
234 -1 76 -1 113 -1 #SUP: 3
234 -1 76 -1 151 -1 #SUP: 2
234 -1 76 -1 153 -1 #SUP: 2
234 -1 113 -1 22 -1 #SUP: 2
247 -1 22 -1 113 -1 #SUP: 2
247 -1 22 -1 151 -1 #SUP: 2
247 -1 32 -1 22 -1 #SUP: 2
247 -1 32 -1 113 -1 #SUP: 2
247 -1 32 -1 151 -1 #SUP: 2
247 -1 151 -1 113 -1 #SUP: 2
248 -1 113 -1 22 -1 #SUP: 2
256 -1 22 -1 165 -1 #SUP: 2
256 -1 65 -1 76 -1 #SUP: 3
256 -1 65 -1 113 -1 #SUP: 2
256 -1 113 -1 76 -1 #SUP: 2
268 -1 65 -1 65 -1 #SUP: 2
268 -1 76 -1 4034 -1 #SUP: 2
268 -1 502 -1 76 -1 #SUP: 2
268 -1 502 -1 4034 -1 #SUP: 2
268 -1 1322 -1 76 -1 #SUP: 2
268 -1 1322 -1 502 -1 #SUP: 2
268 -1 1322 -1 2214 -1 #SUP: 2
268 -1 1322 -1 4034 -1 #SUP: 2
268 -1 1322 -1 27621 -1 #SUP: 2
268 -1 2214 -1 4034 -1 #SUP: 2
268 -1 4034 -1 76 -1 #SUP: 2
268 -1 4034 -1 502 -1 #SUP: 2
268 -1 4034 -1 4034 -1 #SUP: 2
268 -1 27621 -1 4034 -1 #SUP: 2
312 -1 2 -1 113 -1 #SUP: 2
312 -1 76 -1 2 -1 #SUP: 2
312 -1 76 -1 113 -1 #SUP: 2
340 -1 2 -1 32 -1 #SUP: 2
340 -1 7 -1 151 -1 #SUP: 2
340 -1 22 -1 151 -1 #SUP: 2
340 -1 76 -1 2 -1 #SUP: 2
340 -1 76 -1 7 -1 #SUP: 2
340 -1 76 -1 32 -1 #SUP: 2
340 -1 76 -1 113 -1 #SUP: 3
340 -1 76 -1 557 -1 #SUP: 2
342 -1 76 -1 2 -1 #SUP: 2
342 -1 76 -1 22 -1 #SUP: 2
342 -1 76 -1 76 -1 #SUP: 2
342 -1 76 -1 113 -1 #SUP: 4
342 -1 76 -1 342 -1 #SUP: 2
342 -1 113 -1 22 -1 #SUP: 2
342 -1 342 -1 76 -1 #SUP: 2
356 -1 65 -1 76 -1 #SUP: 2
363 -1 32 -1 64 -1 #SUP: 2
363 -1 32 -1 76 -1 #SUP: 2
375 -1 3 -1 76 -1 #SUP: 2
388 -1 2 -1 200 -1 #SUP: 2
388 -1 76 -1 2 -1 #SUP: 2
388 -1 76 -1 200 -1 #SUP: 2
401 -1 76 -1 113 -1 #SUP: 2
502 -1 76 -1 76 -1 #SUP: 2
502 -1 76 -1 1169 -1 #SUP: 2
502 -1 76 -1 4034 -1 #SUP: 2
502 -1 127 -1 76 -1 #SUP: 2
502 -1 4034 -1 1169 -1 #SUP: 2
506 -1 22 -1 113 -1 #SUP: 2
506 -1 115 -1 113 -1 #SUP: 2
557 -1 22 -1 65 -1 #SUP: 2
557 -1 22 -1 75 -1 #SUP: 2
557 -1 22 -1 76 -1 #SUP: 2
557 -1 22 -1 129 -1 #SUP: 2
557 -1 33 -1 65 -1 #SUP: 2
557 -1 75 -1 76 -1 #SUP: 2
557 -1 76 -1 41 -1 #SUP: 2
557 -1 76 -1 65 -1 #SUP: 3
557 -1 76 -1 113 -1 #SUP: 2
557 -1 77 -1 65 -1 #SUP: 2
557 -1 113 -1 65 -1 #SUP: 2
557 -1 115 -1 22 -1 #SUP: 2
557 -1 115 -1 75 -1 #SUP: 2
557 -1 115 -1 76 -1 #SUP: 2
557 -1 115 -1 129 -1 #SUP: 2
557 -1 129 -1 75 -1 #SUP: 2
557 -1 129 -1 76 -1 #SUP: 2
593 -1 76 -1 113 -1 #SUP: 2
1148 -1 32 -1 22 -1 #SUP: 2
1322 -1 76 -1 1169 -1 #SUP: 2
1322 -1 76 -1 4034 -1 #SUP: 2
1322 -1 502 -1 76 -1 #SUP: 2
1322 -1 502 -1 1169 -1 #SUP: 2
1322 -1 502 -1 4034 -1 #SUP: 2
1322 -1 2214 -1 1169 -1 #SUP: 2
1322 -1 2214 -1 4034 -1 #SUP: 2
1322 -1 4034 -1 76 -1 #SUP: 2
1322 -1 4034 -1 502 -1 #SUP: 2
1322 -1 4034 -1 1169 -1 #SUP: 2
1322 -1 4034 -1 4034 -1 #SUP: 2
1322 -1 27621 -1 1169 -1 #SUP: 2
1322 -1 27621 -1 4034 -1 #SUP: 2
1473 -1 154 -1 64 -1 #SUP: 2
1615 -1 64 -1 22 -1 #SUP: 2
2214 -1 4034 -1 1169 -1 #SUP: 2
4034 -1 76 -1 1169 -1 #SUP: 2
4034 -1 76 -1 4034 -1 #SUP: 2
4034 -1 502 -1 76 -1 #SUP: 2
4034 -1 502 -1 1169 -1 #SUP: 2
4034 -1 502 -1 4034 -1 #SUP: 2
4034 -1 4034 -1 1169 -1 #SUP: 2
5828 -1 15229 -1 5313 -1 #SUP: 2
27621 -1 4034 -1 1169 -1 #SUP: 2
28200 -1 31 -1 3 -1 #SUP: 2
2 -1 113 -1 22 -1 75 -1 #SUP: 2
2 -1 113 -1 200 -1 32 -1 #SUP: 2
3 -1 194 -1 76 -1 22 -1 #SUP: 2
3 -1 28200 -1 31 -1 3 -1 #SUP: 2
10 -1 22 -1 113 -1 256 -1 #SUP: 2
22 -1 129 -1 75 -1 76 -1 #SUP: 2
22 -1 1148 -1 32 -1 22 -1 #SUP: 2
30 -1 30 -1 30 -1 30 -1 #SUP: 3
32 -1 22 -1 3 -1 151 -1 #SUP: 2
32 -1 22 -1 151 -1 113 -1 #SUP: 2
32 -1 76 -1 2 -1 3 -1 #SUP: 2
41 -1 213 -1 76 -1 76 -1 #SUP: 2
64 -1 78 -1 187 -1 41 -1 #SUP: 2
65 -1 32 -1 76 -1 2 -1 #SUP: 3
65 -1 76 -1 2 -1 113 -1 #SUP: 2
65 -1 76 -1 2 -1 151 -1 #SUP: 2
65 -1 113 -1 76 -1 2 -1 #SUP: 2
76 -1 2 -1 81 -1 64 -1 #SUP: 2
76 -1 2 -1 113 -1 32 -1 #SUP: 2
76 -1 2 -1 113 -1 64 -1 #SUP: 2
76 -1 2 -1 113 -1 75 -1 #SUP: 3
76 -1 2 -1 113 -1 76 -1 #SUP: 2
76 -1 2 -1 113 -1 200 -1 #SUP: 2
76 -1 3 -1 194 -1 76 -1 #SUP: 2
76 -1 3 -1 194 -1 278 -1 #SUP: 2
76 -1 22 -1 75 -1 76 -1 #SUP: 2
76 -1 22 -1 76 -1 2 -1 #SUP: 2
76 -1 22 -1 129 -1 75 -1 #SUP: 2
76 -1 22 -1 129 -1 76 -1 #SUP: 2
76 -1 32 -1 76 -1 2 -1 #SUP: 2
76 -1 65 -1 76 -1 2 -1 #SUP: 2
76 -1 76 -1 76 -1 342 -1 #SUP: 2
76 -1 76 -1 342 -1 76 -1 #SUP: 3
76 -1 76 -1 342 -1 342 -1 #SUP: 2
76 -1 113 -1 3 -1 194 -1 #SUP: 2
76 -1 113 -1 22 -1 151 -1 #SUP: 2
76 -1 113 -1 32 -1 76 -1 #SUP: 2
76 -1 113 -1 64 -1 22 -1 #SUP: 2
76 -1 113 -1 65 -1 76 -1 #SUP: 2
76 -1 113 -1 76 -1 2 -1 #SUP: 2
76 -1 113 -1 76 -1 76 -1 #SUP: 2
76 -1 113 -1 1615 -1 22 -1 #SUP: 2
76 -1 113 -1 1615 -1 64 -1 #SUP: 2
76 -1 115 -1 22 -1 75 -1 #SUP: 2
76 -1 115 -1 22 -1 76 -1 #SUP: 2
76 -1 115 -1 22 -1 129 -1 #SUP: 2
76 -1 115 -1 75 -1 76 -1 #SUP: 2
76 -1 115 -1 129 -1 75 -1 #SUP: 2
76 -1 115 -1 129 -1 76 -1 #SUP: 2
76 -1 129 -1 75 -1 76 -1 #SUP: 2
76 -1 342 -1 76 -1 76 -1 #SUP: 2
76 -1 342 -1 76 -1 342 -1 #SUP: 2
76 -1 342 -1 342 -1 76 -1 #SUP: 2
76 -1 557 -1 22 -1 75 -1 #SUP: 2
76 -1 557 -1 22 -1 76 -1 #SUP: 2
76 -1 557 -1 22 -1 129 -1 #SUP: 2
76 -1 557 -1 75 -1 76 -1 #SUP: 2
76 -1 557 -1 115 -1 22 -1 #SUP: 2
76 -1 557 -1 115 -1 75 -1 #SUP: 2
76 -1 557 -1 115 -1 76 -1 #SUP: 2
76 -1 557 -1 115 -1 129 -1 #SUP: 2
76 -1 557 -1 129 -1 75 -1 #SUP: 2
76 -1 557 -1 129 -1 76 -1 #SUP: 2
76 -1 1615 -1 64 -1 22 -1 #SUP: 2
113 -1 7 -1 65 -1 32 -1 #SUP: 2
113 -1 7 -1 65 -1 76 -1 #SUP: 2
113 -1 7 -1 151 -1 113 -1 #SUP: 2
113 -1 32 -1 22 -1 151 -1 #SUP: 2
113 -1 32 -1 75 -1 76 -1 #SUP: 2
113 -1 64 -1 256 -1 22 -1 #SUP: 3
113 -1 65 -1 76 -1 2 -1 #SUP: 3
113 -1 76 -1 2 -1 113 -1 #SUP: 4
113 -1 182 -1 64 -1 256 -1 #SUP: 2
113 -1 194 -1 32 -1 22 -1 #SUP: 2
113 -1 194 -1 151 -1 3 -1 #SUP: 2
113 -1 247 -1 22 -1 151 -1 #SUP: 2
113 -1 247 -1 32 -1 22 -1 #SUP: 2
113 -1 247 -1 32 -1 151 -1 #SUP: 2
113 -1 1615 -1 64 -1 22 -1 #SUP: 2
115 -1 22 -1 75 -1 76 -1 #SUP: 2
115 -1 22 -1 129 -1 75 -1 #SUP: 2
115 -1 22 -1 129 -1 76 -1 #SUP: 2
115 -1 129 -1 75 -1 76 -1 #SUP: 2
151 -1 7 -1 151 -1 113 -1 #SUP: 2
151 -1 113 -1 7 -1 76 -1 #SUP: 2
151 -1 113 -1 7 -1 113 -1 #SUP: 2
151 -1 113 -1 7 -1 151 -1 #SUP: 2
151 -1 113 -1 76 -1 151 -1 #SUP: 2
151 -1 113 -1 151 -1 113 -1 #SUP: 2
151 -1 131 -1 22 -1 32 -1 #SUP: 2
182 -1 64 -1 256 -1 22 -1 #SUP: 2
182 -1 76 -1 113 -1 22 -1 #SUP: 2
194 -1 32 -1 22 -1 3 -1 #SUP: 2
194 -1 76 -1 113 -1 22 -1 #SUP: 2
194 -1 182 -1 76 -1 22 -1 #SUP: 2
194 -1 182 -1 76 -1 113 -1 #SUP: 2
194 -1 182 -1 113 -1 22 -1 #SUP: 2
234 -1 76 -1 22 -1 3 -1 #SUP: 2
234 -1 76 -1 22 -1 151 -1 #SUP: 2
234 -1 76 -1 22 -1 153 -1 #SUP: 2
234 -1 76 -1 113 -1 22 -1 #SUP: 2
247 -1 22 -1 151 -1 113 -1 #SUP: 2
247 -1 32 -1 22 -1 113 -1 #SUP: 2
247 -1 32 -1 22 -1 151 -1 #SUP: 2
247 -1 32 -1 151 -1 113 -1 #SUP: 2
256 -1 65 -1 113 -1 76 -1 #SUP: 2
268 -1 502 -1 76 -1 4034 -1 #SUP: 2
268 -1 1322 -1 76 -1 4034 -1 #SUP: 2
268 -1 1322 -1 502 -1 76 -1 #SUP: 2
268 -1 1322 -1 502 -1 4034 -1 #SUP: 2
268 -1 1322 -1 2214 -1 4034 -1 #SUP: 2
268 -1 1322 -1 4034 -1 76 -1 #SUP: 2
268 -1 1322 -1 4034 -1 502 -1 #SUP: 2
268 -1 1322 -1 4034 -1 4034 -1 #SUP: 2
268 -1 1322 -1 27621 -1 4034 -1 #SUP: 2
268 -1 4034 -1 76 -1 4034 -1 #SUP: 2
268 -1 4034 -1 502 -1 76 -1 #SUP: 2
268 -1 4034 -1 502 -1 4034 -1 #SUP: 2
312 -1 76 -1 2 -1 113 -1 #SUP: 2
340 -1 76 -1 2 -1 32 -1 #SUP: 2
342 -1 76 -1 113 -1 22 -1 #SUP: 2
342 -1 76 -1 342 -1 76 -1 #SUP: 2
388 -1 76 -1 2 -1 200 -1 #SUP: 2
502 -1 76 -1 4034 -1 1169 -1 #SUP: 2
502 -1 127 -1 76 -1 76 -1 #SUP: 2
557 -1 22 -1 75 -1 76 -1 #SUP: 2
557 -1 22 -1 129 -1 75 -1 #SUP: 2
557 -1 22 -1 129 -1 76 -1 #SUP: 2
557 -1 115 -1 22 -1 75 -1 #SUP: 2
557 -1 115 -1 22 -1 76 -1 #SUP: 2
557 -1 115 -1 22 -1 129 -1 #SUP: 2
557 -1 115 -1 75 -1 76 -1 #SUP: 2
557 -1 115 -1 129 -1 75 -1 #SUP: 2
557 -1 115 -1 129 -1 76 -1 #SUP: 2
557 -1 129 -1 75 -1 76 -1 #SUP: 2
1322 -1 76 -1 4034 -1 1169 -1 #SUP: 2
1322 -1 502 -1 76 -1 1169 -1 #SUP: 2
1322 -1 502 -1 76 -1 4034 -1 #SUP: 2
1322 -1 502 -1 4034 -1 1169 -1 #SUP: 2
1322 -1 2214 -1 4034 -1 1169 -1 #SUP: 2
1322 -1 4034 -1 76 -1 1169 -1 #SUP: 2
1322 -1 4034 -1 76 -1 4034 -1 #SUP: 2
1322 -1 4034 -1 502 -1 76 -1 #SUP: 2
1322 -1 4034 -1 502 -1 1169 -1 #SUP: 2
1322 -1 4034 -1 502 -1 4034 -1 #SUP: 2
1322 -1 4034 -1 4034 -1 1169 -1 #SUP: 2
1322 -1 27621 -1 4034 -1 1169 -1 #SUP: 2
4034 -1 76 -1 4034 -1 1169 -1 #SUP: 2
4034 -1 502 -1 76 -1 1169 -1 #SUP: 2
4034 -1 502 -1 76 -1 4034 -1 #SUP: 2
4034 -1 502 -1 4034 -1 1169 -1 #SUP: 2
76 -1 22 -1 129 -1 75 -1 76 -1 #SUP: 2
76 -1 76 -1 342 -1 76 -1 342 -1 #SUP: 2
76 -1 113 -1 1615 -1 64 -1 22 -1 #SUP: 2
76 -1 115 -1 22 -1 75 -1 76 -1 #SUP: 2
76 -1 115 -1 22 -1 129 -1 75 -1 #SUP: 2
76 -1 115 -1 22 -1 129 -1 76 -1 #SUP: 2
76 -1 115 -1 129 -1 75 -1 76 -1 #SUP: 2
76 -1 342 -1 76 -1 342 -1 76 -1 #SUP: 2
76 -1 557 -1 22 -1 75 -1 76 -1 #SUP: 2
76 -1 557 -1 22 -1 129 -1 75 -1 #SUP: 2
76 -1 557 -1 22 -1 129 -1 76 -1 #SUP: 2
76 -1 557 -1 115 -1 22 -1 75 -1 #SUP: 2
76 -1 557 -1 115 -1 22 -1 76 -1 #SUP: 2
76 -1 557 -1 115 -1 22 -1 129 -1 #SUP: 2
76 -1 557 -1 115 -1 75 -1 76 -1 #SUP: 2
76 -1 557 -1 115 -1 129 -1 75 -1 #SUP: 2
76 -1 557 -1 115 -1 129 -1 76 -1 #SUP: 2
76 -1 557 -1 129 -1 75 -1 76 -1 #SUP: 2
113 -1 247 -1 32 -1 22 -1 151 -1 #SUP: 2
115 -1 22 -1 129 -1 75 -1 76 -1 #SUP: 2
151 -1 113 -1 7 -1 151 -1 113 -1 #SUP: 2
194 -1 182 -1 76 -1 113 -1 22 -1 #SUP: 2
247 -1 32 -1 22 -1 151 -1 113 -1 #SUP: 2
268 -1 1322 -1 502 -1 76 -1 4034 -1 #SUP: 2
268 -1 1322 -1 4034 -1 76 -1 4034 -1 #SUP: 2
268 -1 1322 -1 4034 -1 502 -1 76 -1 #SUP: 2
268 -1 1322 -1 4034 -1 502 -1 4034 -1 #SUP: 2
268 -1 4034 -1 502 -1 76 -1 4034 -1 #SUP: 2
557 -1 22 -1 129 -1 75 -1 76 -1 #SUP: 2
557 -1 115 -1 22 -1 75 -1 76 -1 #SUP: 2
557 -1 115 -1 22 -1 129 -1 75 -1 #SUP: 2
557 -1 115 -1 22 -1 129 -1 76 -1 #SUP: 2
557 -1 115 -1 129 -1 75 -1 76 -1 #SUP: 2
1322 -1 502 -1 76 -1 4034 -1 1169 -1 #SUP: 2
1322 -1 4034 -1 76 -1 4034 -1 1169 -1 #SUP: 2
1322 -1 4034 -1 502 -1 76 -1 1169 -1 #SUP: 2
1322 -1 4034 -1 502 -1 76 -1 4034 -1 #SUP: 2
1322 -1 4034 -1 502 -1 4034 -1 1169 -1 #SUP: 2
4034 -1 502 -1 76 -1 4034 -1 1169 -1 #SUP: 2
76 -1 115 -1 22 -1 129 -1 75 -1 76 -1 #SUP: 2
76 -1 557 -1 22 -1 129 -1 75 -1 76 -1 #SUP: 2
76 -1 557 -1 115 -1 22 -1 75 -1 76 -1 #SUP: 2
76 -1 557 -1 115 -1 22 -1 129 -1 75 -1 #SUP: 2
76 -1 557 -1 115 -1 22 -1 129 -1 76 -1 #SUP: 2
76 -1 557 -1 115 -1 129 -1 75 -1 76 -1 #SUP: 2
268 -1 1322 -1 4034 -1 502 -1 76 -1 4034 -1 #SUP: 2
557 -1 115 -1 22 -1 129 -1 75 -1 76 -1 #SUP: 2
1322 -1 4034 -1 502 -1 76 -1 4034 -1 1169 -1 #SUP: 2
76 -1 557 -1 115 -1 22 -1 129 -1 75 -1 76 -1 #SUP: 2
