113 -1 3353 -1 936 -1 27 -1 3 -1 463 -1 33 -1 847 -1 30 -2
250 -1 3 -1 65 -1 966 -1 32 -1 29 -1 5 -1 3 -1 1841 -1 30 -2
22 -1 227 -1 287 -1 41 -1 308 -1 405 -1 637 -1 3 -1 242 -1 702 -1 141 -1 16 -1 2222 -1 936 -1 22 -1 386 -1 879 -1 160 -1 2922 -1 64 -1 273 -1 30 -2
77 -1 312 -1 5 -1 41 -1 7 -1 65 -1 406 -1 1603 -1 2719 -1 64 -1 728 -1 10 -1 74 -1 151 -1 3 -1 1820 -1 3480 -1 1925 -1 30 -2
41 -1 699 -1 64 -1 3 -1 962 -1 528 -1 32 -1 250 -1 158 -1 510 -1 29 -1 2005 -1 30 -2
77 -1 312 -1 5 -1 113 -1 375 -1 30 -2
747 -1 31 -1 22 -1 11139 -1 32 -1 1129 -1 1450 -1 30 -2
3 -1 41 -1 1075 -1 236 -1 16 -1 312 -1 1668 -1 149 -1 264 -1 1 -2
342 -1 81 -1 64 -1 775 -1 27 -1 641 -1 340 -1 635 -1 5864 -1 30 -2
41 -1 401 -1 250 -1 781 -1 504 -1 41 -1 3 -1 826 -1 312 -1 3564 -1 625 -1 251 -1 30 -2
224 -1 41 -1 3 -1 16 -1 1075 -1 224 -1 41 -1 3 -1 2659 -1 1282 -1 10 -1 469 -1 30 -2
113 -1 3 -1 312 -1 5 -1 30 -2
113 -1 208 -1 384 -1 31 -1 388 -1 76 -1 557 -1 16 -1 31 -1 29 -1 46 -1 1308 -1 30 -2
113 -1 194 -1 41 -1 836 -1 3 -1 2607 -1 3205 -1 30 -2
158 -1 41 -1 1473 -1 22 -1 220 -1 154 -1 76 -1 113 -1 161 -1 728 -1 549 -1 244 -1 3514 -1 22 -1 30 -2
113 -1 340 -1 250 -1 1287 -1 30 -2
113 -1 1193 -1 182 -1 66 -1 22 -1 75 -1 30 -2
113 -1 340 -1 41 -1 1952 -1 160 -1 65 -1 1603 -1 1293 -1 30 -2
548 -1 1157 -1 250 -1 1287 -1 115 -1 22 -1 4311 -1 32 -1 22 -1 52 -1 30 -2
1119 -1 113 -1 118 -1 7 -1 75 -1 64 -1 2074 -1 22 -1 52 -1 160 -1 22 -1 30 -2
2546 -1 30 -1 179 -1 182 -1 3 -1 148 -1 2902 -1 64 -1 113 -1 686 -1 113 -1 141 -1 16 -1 936 -1 29 -1 1079 -1 52 -1 30 -2
41 -1 3 -1 155 -1 8913 -1 151 -1 139 -1 244 -1 1159 -1 30 -2
113 -1 3 -1 406 -1 1676 -1 160 -1 22 -1 7985 -1 89 -1 33 -1 138 -1 143 -1 30 -2
3491 -1 3 -1 65 -1 1407 -1 151 -1 3 -1 16 -1 5974 -1 1631 -1 2 -1 190 -1 65 -1 527 -1 58305 -1 30 -2
6001 -1 1521 -1 64 -1 979 -1 1956 -1 208 -1 3 -1 443 -1 2 -1 4967 -1 30 -2
3491 -1 3 -1 65 -1 1366 -1 5466 -1 160 -1 30 -2
1057 -1 214 -1 4716 -1 64 -1 1198 -1 64 -1 29 -1 339 -1 2 -1 422 -1 30 -2
250 -1 854 -1 208 -1 3 -1 945 -1 31 -1 566 -1 1847 -1 32 -1 75 -1 76 -1 557 -1 182 -1 6345 -1 345 -1 64 -1 65 -1 5007 -1 2 -1 3355 -1 404 -1 32 -1 2284 -1 30 -2
1057 -1 214 -1 3 -1 406 -1 30 -2
976 -1 27 -1 141 -1 41 -1 155 -1 64 -1 2595 -1 250 -1 4178 -1 1 -2
190 -1 3 -1 642 -1 65 -1 251 -1 278 -1 250 -1 781 -1 586 -1 2473 -1 3 -1 2726 -1 64 -1 3 -1 22 -1 15 -1 2746 -1 580 -1 557 -1 30 -2
22 -1 15 -1 14144 -1 52 -1 10 -1 250 -1 781 -1 3 -1 7572 -1 237 -1 76 -1 10855 -1 30 -1 250 -1 810 -1 3 -1 3355 -1 3725 -1 30 -2
250 -1 810 -1 3 -1 200 -1 65 -1 9257 -1 2238 -1 31 -1 596 -1 1450 -1 30 -2
182 -1 3 -1 16 -1 1177 -1 41 -1 160 -1 168 -1 1450 -1 30 -2
182 -1 161 -1 180 -1 22 -1 42029 -1 1203 -1 32 -1 29 -1 1754 -1 3 -1 2416 -1 33 -1 22 -1 966 -1 669 -1 32 -1 65 -1 348 -1 2381 -1 5646 -1 39 -1 149 -1 39 -1 16 -1 3 -1 3795 -1 30 -2
250 -1 3 -1 65 -1 676 -1 4374 -1 30 -2
182 -1 161 -1 180 -1 151 -1 41 -1 141 -1 16 -1 30 -2
115 -1 502 -1 113 -1 194 -1 41 -1 3 -1 3 -1 23794 -1 2 -1 29206 -1 30 -2
557 -1 232 -1 113 -1 3349 -1 814 -1 29 -1 52 -1 2 -1 2295 -1 182 -1 3 -1 15232 -1 30 -2
160 -1 2922 -1 64 -1 781 -1 237 -1 445 -1 10 -1 15312 -1 149 -1 16 -1 3 -1 16 -1 2611 -1 30 -2
22 -1 1589 -1 1644 -1 3 -1 406 -1 10958 -1 30 -2
237 -1 20482 -1 1631 -1 1904 -1 214 -1 30 -2
20482 -1 76 -1 26178 -1 76 -1 169 -1 1631 -1 1904 -1 214 -1 30 -2
238 -1 144 -1 65 -1 1171 -1 1271 -1 32 -1 5474 -1 20795 -1 76 -1 5256 -1 287 -1 149 -1 30 -2
351 -1 140 -1 10 -1 250 -1 1205 -1 161 -1 124 -1 76 -1 31 -1 414 -1 76 -1 151 -1 41 -1 140 -1 29 -1 304 -1 2455 -1 12590 -1 6783 -2
26868 -1 30 -2
29 -1 17299 -1 161 -1 32 -1 765 -1 3 -1 3126 -1 33 -1 29 -1 596 -1 1020 -1 602 -1 30 -2
50 -1 502 -1 152 -1 1754 -1 1164 -1 22 -1 1380 -1 32 -1 1904 -1 214 -1 30 -2
22 -1 6160 -1 1754 -1 3 -1 278 -1 22 -1 1034 -1 287 -1 31 -1 22 -1 5382 -1 3828 -1 854 -1 10 -1 1904 -1 214 -1 30 -2
113 -1 5145 -1 146 -1 182 -1 187 -1 76 -1 30 -2
113 -1 1193 -1 151 -1 141 -1 16 -1 1161 -1 250 -1 77 -1 1145 -1 149 -1 10395 -1 30 -2
405 -1 3 -1 50 -1 1163 -1 2 -1 732 -1 30 -2
831 -1 141 -1 255 -1 22 -1 2412 -1 32 -1 22 -1 4073 -1 30 -2
64 -1 734 -1 2517 -1 3 -1 2913 -1 30 -2
41 -1 7 -1 510 -1 30 -2
375 -1 814 -1 186 -1 268 -1 52 -1 2 -1 186 -1 7 -1 635 -1 163 -1 7153 -1 52 -1 30 -2
587 -1 58306 -1 30 -2
47 -1 450 -1 3 -1 248 -1 741 -1 30 -2
22 -1 1157 -1 64 -1 250 -1 1287 -1 699 -1 16 -1 3 -1 510 -1 484 -1 4600 -1 30 -2
1076 -1 502 -1 30 -2
58308 -1 52485 -1 22 -1 3879 -1 5243 -1 32 -1 22 -1 954 -1 76 -1 1108 -1 6908 -1 149 -1 19549 -1 76 -1 3 -1 1202 -1 363 -1 2720 -1 2 -1 13947 -1 244 -1 14840 -1 1990 -1 76 -1 557 -1 10 -1 22 -1 428 -1 32 -1 22 -1 1145 -1 2 -1 58307 -1 6982 -1 30 -2
113 -1 493 -1 786 -1 340 -1 22 -1 1507 -1 3 -1 16 -1 406 -1 976 -1 30 -2
113 -1 453 -1 6216 -1 22 -1 452 -1 6632 -1 76 -1 557 -1 141 -1 16 -1 786 -1 11216 -1 64 -1 256 -1 225 -1 266 -1 32 -1 22 -1 220 -1 30 -2
113 -1 141 -1 506 -1 115 -1 635 -1 32 -1 22 -1 52 -1 89 -1 30 -1 30 -1 27 -1 3 -1 29 -1 175 -1 8321 -1 1 -2
27 -1 19975 -1 1995 -1 141 -1 41 -1 699 -1 64 -1 694 -1 29 -1 13 -1 1400 -1 1 -2
33 -1 65 -1 1021 -1 32 -1 237 -1 64 -1 722 -1 273 -1 141 -1 1322 -1 1736 -1 64 -1 1213 -1 4785 -1 1 -2
237 -1 3 -1 66 -1 1213 -1 4785 -1 2 -1 722 -1 829 -1 30 -2
113 -1 141 -1 7 -1 50 -1 454 -1 33 -1 29 -1 4178 -1 30 -2
50 -1 454 -1 3 -1 151 -1 224 -1 41 -1 3 -1 50 -1 46 -1 2 -1 41 -1 7 -1 65 -1 871 -1 699 -1 2 -1 113 -1 3 -1 528 -1 32 -1 182 -1 76 -1 113 -1 214 -1 914 -1 65 -1 1100 -1 10 -1 50 -1 13 -1 64 -1 613 -1 242 -1 113 -1 1747 -1 137 -1 50 -1 30 -2
58309 -1 76 -1 29 -1 807 -1 32 -1 29 -1 5 -1 46 -1 3225 -1 160 -1 50 -1 304 -1 229 -1 406 -1 2471 -1 30 -2
342 -1 3 -1 179 -1 10035 -1 218 -1 2 -1 7 -1 510 -1 8330 -1 64 -1 405 -1 363 -1 32 -1 902 -1 76 -1 557 -1 244 -1 2324 -1 3 -1 1446 -1 218 -1 76 -1 1105 -1 234 -1 182 -1 506 -1 340 -1 250 -1 251 -1 31886 -1 2063 -1 11334 -1 30 -2
113 -1 214 -1 1547 -1 64 -1 144 -1 182 -1 635 -1 2954 -1 76 -1 1472 -1 342 -1 1075 -1 7417 -1 58310 -1 32 -1 454 -1 214 -1 3494 -1 566 -1 499 -1 30 -2
3739 -1 2 -1 30 -2
342 -1 463 -1 64 -1 2162 -1 22 -1 868 -1 151 -1 41 -1 11334 -1 250 -1 725 -1 385 -1 373 -1 251 -1 31 -1 527 -1 7836 -1 287 -1 312 -1 200 -1 510 -1 50 -1 450 -1 30 -2
190 -1 3 -1 312 -1 7248 -1 16536 -1 32 -1 2699 -1 5 -1 30 -2
22 -1 807 -1 32 -1 22 -1 30 -2
41 -1 482 -1 1152 -1 447 -1 22 -1 287 -1 702 -1 3 -1 7598 -1 30 -2
22 -1 868 -1 151 -1 702 -1 3 -1 7598 -1 3 -1 148 -1 975 -1 150 -1 553 -1 929 -1 41 -1 3 -1 1099 -1 278 -1 30 -2
27 -1 141 -1 702 -1 156 -1 244 -1 113 -1 1 -2
3 -1 16 -1 248 -1 22 -1 30 -2
422 -1 76 -1 3156 -1 76 -1 22 -1 1963 -1 288 -1 76 -1 22 -1 3699 -1 31 -1 1504 -1 2 -1 22 -1 28893 -1 1287 -1 686 -1 1 -2
141 -1 131 -1 5589 -1 2545 -1 41 -1 2 -1 12865 -1 41 -1 3205 -1 1 -2
487 -1 149 -1 141 -1 7248 -1 7884 -1 32 -1 923 -1 76 -1 30 -2
250 -1 486 -1 24848 -1 3 -1 406 -1 2451 -1 30 -2
22 -1 807 -1 32 -1 250 -1 5 -1 757 -1 520 -1 340 -1 113 -1 30 -2
22 -1 58311 -1 506 -1 76 -1 1792 -1 9459 -1 76 -1 2 -1 3103 -1 220 -1 7 -1 3 -1 1232 -1 2643 -1 158 -1 113 -1 3 -1 212 -1 189 -1 113 -1 3 -1 976 -1 10 -1 557 -1 30 -2
250 -1 3 -1 312 -1 1102 -1 30 -2
113 -1 161 -1 2933 -1 264 -1 20795 -1 149 -1 221 -1 7919 -1 64 -1 2595 -1 182 -1 30 -2
506 -1 31 -1 264 -1 6007 -1 139 -1 244 -1 65 -1 422 -1 32 -1 58312 -1 149 -1 65 -1 1629 -1 30 -2
58313 -1 189 -1 52 -1 65 -1 251 -1 278 -1 250 -1 67 -1 2880 -1 67 -1 44 -1 30 -2
69 -1 932 -1 65 -1 1217 -1 1287 -1 151 -1 208 -1 16 -1 3 -1 1157 -1 160 -1 168 -1 1591 -1 32 -1 8011 -1 10 -1 22 -1 502 -1 620 -1 30 -2
58314 -1 30 -2
4237 -1 271 -2
41 -1 7 -1 555 -1 65 -1 1736 -1 1238 -1 64 -1 58315 -1 76 -1 38161 -1 31 -1 3 -1 22 -1 237 -1 42447 -1 4566 -1 64 -1 1193 -1 273 -1 141 -1 113 -1 326 -1 224 -1 312 -1 5 -1 340 -1 113 -1 1 -2
10 -1 9399 -1 64 -1 151 -1 76 -1 1498 -1 41 -1 3 -1 45683 -1 31 -1 1480 -1 75 -1 30 -2
131 -1 463 -1 712 -1 160 -1 22 -1 2570 -1 803 -1 271 -2
872 -1 250 -1 3 -1 16 -1 713 -1 30 -2
41 -1 7 -1 139 -1 64 -1 312 -1 8243 -1 10 -1 1318 -1 72 -1 242 -1 32 -1 65 -1 404 -1 32 -1 6286 -1 1450 -1 30 -2
113 -1 3 -1 373 -1 2 -1 4105 -1 64 -1 312 -1 1664 -1 30 -2
22 -1 902 -1 3 -1 16 -1 404 -1 32 -1 2431 -1 30 -2
182 -1 30 -2
22 -1 394 -1 151 -1 41 -1 617 -1 717 -1 3 -1 484 -1 406 -1 364 -1 340 -1 388 -1 30 -2
113 -1 3 -1 194 -1 278 -1 22 -1 868 -1 151 -1 190 -1 3 -1 484 -1 380 -1 213 -1 340 -1 113 -1 200 -1 35 -1 30 -2
3 -1 212 -1 1664 -1 268 -1 2 -1 827 -1 268 -1 3 -1 16 -1 463 -1 64 -1 510 -1 30 -2
484 -1 113 -1 139 -1 187 -1 32 -1 50 -1 2575 -1 2 -1 2375 -1 345 -1 22 -1 3809 -1 394 -1 2 -1 356 -1 22 -1 502 -1 293 -1 30 -2
141 -1 250 -1 124 -1 342 -1 10 -1 22 -1 5399 -1 149 -1 22 -1 36912 -1 1 -2
234 -1 1260 -1 76 -1 113 -1 1640 -1 182 -1 1975 -1 1016 -1 33 -1 1205 -1 30 -2
224 -1 417 -1 3 -1 30 -2
9 -1 28 -1 26 -1 58316 -1 113 -1 118 -1 326 -1 273 -1 373 -1 41 -1 3 -1 76 -1 557 -1 113 -1 734 -1 41 -1 401 -1 127 -1 1692 -1 182 -1 1486 -1 30 -2
405 -1 54 -1 118 -1 503 -1 262 -1 886 -1 30 -2
69 -1 211 -1 80 -1 64 -1 256 -1 1428 -1 64 -1 1524 -1 305 -1 2232 -1 30 -2
1665 -1 268 -1 7 -1 65 -1 111 -1 30 -2
113 -1 194 -1 250 -1 3 -1 22 -1 3528 -1 268 -1 4668 -1 394 -1 32 -1 636 -1 41 -1 151 -1 236 -1 1480 -1 32 -1 1260 -1 30 -2
317 -1 113 -1 118 -1 403 -1 22 -1 3528 -1 1287 -1 2611 -1 64 -1 388 -1 30 -2
557 -1 15 -1 32 -1 50 -1 13 -1 113 -1 161 -1 653 -1 635 -1 32 -1 405 -1 213 -1 151 -1 526 -1 160 -1 113 -1 33 -1 65 -1 1014 -1 1123 -1 30 -2
22 -1 15 -1 35443 -1 6 -1 3 -1 30 -2
1101 -1 76 -1 113 -1 194 -1 113 -1 7 -1 65 -1 4658 -1 33 -1 250 -1 902 -1 30 -2
186 -1 7 -1 1019 -1 902 -1 5440 -1 8557 -1 2 -1 2189 -1 250 -1 3 -1 165 -1 151 -1 41 -1 993 -1 3226 -1 601 -1 30 -2
113 -1 156 -1 64 -1 1164 -1 152 -1 781 -1 30 -2
113 -1 326 -1 50 -1 52 -1 214 -1 641 -1 5092 -1 557 -1 113 -1 156 -1 64 -1 450 -1 33 -1 50 -1 7193 -1 151 -1 158 -1 65 -1 1287 -1 3 -1 1193 -1 76 -1 451 -1 22 -1 213 -1 352 -1 701 -1 7 -1 527 -1 339 -1 27 -1 22 -1 1157 -1 3 -1 2 -1 76 -1 352 -1 10652 -1 76 -1 200 -1 356 -1 30 -2
113 -1 194 -1 41 -1 836 -1 1198 -1 64 -1 29 -1 1196 -1 1596 -1 46 -1 58317 -1 30 -2
113 -1 786 -1 22 -1 394 -1 41 -1 786 -1 158 -1 342 -1 212 -1 213 -1 151 -1 3 -1 404 -1 65 -1 1603 -1 1123 -1 32 -1 3083 -1 30 -2
189 -1 352 -1 3 -1 3502 -1 76 -1 30 -2
113 -1 936 -1 250 -1 773 -1 32 -1 29070 -1 160 -1 22 -1 175 -1 1227 -1 32 -1 13 -1 151 -1 186 -1 929 -1 641 -1 64 -1 3 -1 1175 -1 160 -1 30 -2
31 -1 388 -1 113 -1 139 -1 64 -1 2295 -1 22 -1 1903 -1 64 -1 141 -1 264 -1 791 -1 30 -2
123 -1 81 -1 401 -1 264 -1 400 -1 30 -2
151 -1 211 -1 613 -1 113 -1 30 -2
224 -1 113 -1 208 -1 1310 -1 41 -1 264 -1 1467 -1 113 -1 504 -1 81 -1 250 -1 30 -2
4 -1 50 -1 13 -1 30 -2
510 -1 113 -1 786 -1 561 -1 30 -2
401 -1 496 -1 6269 -1 58318 -1 4333 -1 30 -2
405 -1 363 -1 32 -1 54 -1 208 -1 16 -1 3 -1 1621 -1 262 -1 22 -1 439 -1 242 -1 131 -1 3 -1 185 -1 23620 -1 2 -1 174 -1 30 -2
41 -1 200 -1 699 -1 64 -1 7 -1 312 -1 732 -1 2 -1 2371 -1 64 -1 182 -1 2 -1 16 -1 215 -1 224 -1 417 -1 1225 -1 160 -1 41 -1 30 -1 30 -1 702 -1 504 -1 469 -1 1193 -1 64 -1 3 -1 2898 -1 76 -1 484 -1 151 -1 1007 -1 187 -1 6152 -1 65 -1 998 -1 30 -2
22 -1 1287 -1 3 -1 273 -1 64 -1 57341 -1 312 -1 5 -1 10 -1 22 -1 74 -1 30 -2
557 -1 29 -1 703 -1 3 -1 5951 -1 30 -2