2 -1 #SUP: 19
3 -1 #SUP: 48
7 -1 #SUP: 30
10 -1 #SUP: 13
11 -1 #SUP: 3
13 -1 #SUP: 4
15 -1 #SUP: 4
16 -1 #SUP: 16
22 -1 #SUP: 42
27 -1 #SUP: 3
29 -1 #SUP: 2
31 -1 #SUP: 16
32 -1 #SUP: 21
33 -1 #SUP: 13
41 -1 #SUP: 10
44 -1 #SUP: 2
46 -1 #SUP: 5
50 -1 #SUP: 15
54 -1 #SUP: 10
64 -1 #SUP: 33
65 -1 #SUP: 25
66 -1 #SUP: 6
67 -1 #SUP: 5
72 -1 #SUP: 5
75 -1 #SUP: 2
76 -1 #SUP: 67
77 -1 #SUP: 5
80 -1 #SUP: 2
81 -1 #SUP: 5
92 -1 #SUP: 5
99 -1 #SUP: 2
106 -1 #SUP: 3
113 -1 #SUP: 68
115 -1 #SUP: 6
124 -1 #SUP: 4
127 -1 #SUP: 3
131 -1 #SUP: 5
135 -1 #SUP: 2
139 -1 #SUP: 2
141 -1 #SUP: 9
148 -1 #SUP: 5
149 -1 #SUP: 9
151 -1 #SUP: 18
155 -1 #SUP: 5
156 -1 #SUP: 3
158 -1 #SUP: 10
160 -1 #SUP: 15
161 -1 #SUP: 8
163 -1 #SUP: 4
165 -1 #SUP: 6
168 -1 #SUP: 2
179 -1 #SUP: 2
182 -1 #SUP: 13
187 -1 #SUP: 6
189 -1 #SUP: 2
190 -1 #SUP: 2
194 -1 #SUP: 8
195 -1 #SUP: 2
200 -1 #SUP: 7
201 -1 #SUP: 3
208 -1 #SUP: 5
211 -1 #SUP: 5
213 -1 #SUP: 5
221 -1 #SUP: 4
224 -1 #SUP: 11
225 -1 #SUP: 2
229 -1 #SUP: 2
232 -1 #SUP: 6
234 -1 #SUP: 3
242 -1 #SUP: 3
244 -1 #SUP: 2
247 -1 #SUP: 2
248 -1 #SUP: 3
250 -1 #SUP: 8
256 -1 #SUP: 9
264 -1 #SUP: 2
272 -1 #SUP: 4
273 -1 #SUP: 3
278 -1 #SUP: 5
305 -1 #SUP: 4
308 -1 #SUP: 3
312 -1 #SUP: 5
326 -1 #SUP: 8
339 -1 #SUP: 2
340 -1 #SUP: 9
342 -1 #SUP: 14
345 -1 #SUP: 2
348 -1 #SUP: 4
356 -1 #SUP: 4
363 -1 #SUP: 3
364 -1 #SUP: 5
374 -1 #SUP: 2
375 -1 #SUP: 13
386 -1 #SUP: 2
394 -1 #SUP: 6
401 -1 #SUP: 2
403 -1 #SUP: 2
417 -1 #SUP: 10
418 -1 #SUP: 4
424 -1 #SUP: 2
453 -1 #SUP: 4
463 -1 #SUP: 7
484 -1 #SUP: 5
489 -1 #SUP: 5
497 -1 #SUP: 2
499 -1 #SUP: 3
500 -1 #SUP: 5
504 -1 #SUP: 6
510 -1 #SUP: 3
511 -1 #SUP: 6
527 -1 #SUP: 6
546 -1 #SUP: 3
557 -1 #SUP: 10
566 -1 #SUP: 2
571 -1 #SUP: 2
595 -1 #SUP: 2
613 -1 #SUP: 6
616 -1 #SUP: 4
633 -1 #SUP: 2
634 -1 #SUP: 3
644 -1 #SUP: 5
648 -1 #SUP: 4
652 -1 #SUP: 3
692 -1 #SUP: 4
699 -1 #SUP: 2
702 -1 #SUP: 28
703 -1 #SUP: 2
714 -1 #SUP: 4
718 -1 #SUP: 2
745 -1 #SUP: 2
747 -1 #SUP: 2
763 -1 #SUP: 2
773 -1 #SUP: 3
786 -1 #SUP: 2
798 -1 #SUP: 2
825 -1 #SUP: 2
929 -1 #SUP: 2
930 -1 #SUP: 5
1077 -1 #SUP: 3
1092 -1 #SUP: 3
1098 -1 #SUP: 8
1099 -1 #SUP: 5
1101 -1 #SUP: 5
1105 -1 #SUP: 2
1152 -1 #SUP: 3
1243 -1 #SUP: 2
1277 -1 #SUP: 2
1315 -1 #SUP: 2
1418 -1 #SUP: 2
1498 -1 #SUP: 2
1543 -1 #SUP: 2
1603 -1 #SUP: 2
1935 -1 #SUP: 2
1975 -1 #SUP: 3
2072 -1 #SUP: 2
2130 -1 #SUP: 2
2133 -1 #SUP: 2
2162 -1 #SUP: 2
2296 -1 #SUP: 2
2369 -1 #SUP: 2
2695 -1 #SUP: 3
2897 -1 #SUP: 2
2915 -1 #SUP: 2
3705 -1 #SUP: 3
3733 -1 #SUP: 2
4209 -1 #SUP: 2
38281 -1 #SUP: 2
2 -1 3 -1 #SUP: 4
2 -1 7 -1 #SUP: 4
2 -1 10 -1 #SUP: 5
2 -1 13 -1 #SUP: 2
2 -1 16 -1 #SUP: 2
2 -1 22 -1 #SUP: 3
2 -1 32 -1 #SUP: 2
2 -1 54 -1 #SUP: 2
2 -1 64 -1 #SUP: 5
2 -1 76 -1 #SUP: 5
2 -1 113 -1 #SUP: 3
2 -1 224 -1 #SUP: 2
2 -1 232 -1 #SUP: 2
2 -1 342 -1 #SUP: 2
2 -1 394 -1 #SUP: 2
2 -1 453 -1 #SUP: 2
2 -1 527 -1 #SUP: 2
2 -1 557 -1 #SUP: 2
2 -1 702 -1 #SUP: 4
3 -1 2 -1 #SUP: 5
3 -1 3 -1 #SUP: 9
3 -1 7 -1 #SUP: 4
3 -1 10 -1 #SUP: 4
3 -1 16 -1 #SUP: 4
3 -1 22 -1 #SUP: 9
3 -1 27 -1 #SUP: 2
3 -1 31 -1 #SUP: 3
3 -1 32 -1 #SUP: 8
3 -1 33 -1 #SUP: 2
3 -1 46 -1 #SUP: 3
3 -1 50 -1 #SUP: 3
3 -1 64 -1 #SUP: 6
3 -1 65 -1 #SUP: 7
3 -1 66 -1 #SUP: 2
3 -1 72 -1 #SUP: 3
3 -1 76 -1 #SUP: 9
3 -1 81 -1 #SUP: 2
3 -1 113 -1 #SUP: 11
3 -1 141 -1 #SUP: 3
3 -1 148 -1 #SUP: 3
3 -1 149 -1 #SUP: 5
3 -1 151 -1 #SUP: 5
3 -1 160 -1 #SUP: 4
3 -1 182 -1 #SUP: 2
3 -1 187 -1 #SUP: 2
3 -1 213 -1 #SUP: 2
3 -1 224 -1 #SUP: 3
3 -1 232 -1 #SUP: 2
3 -1 250 -1 #SUP: 2
3 -1 326 -1 #SUP: 2
3 -1 340 -1 #SUP: 2
3 -1 417 -1 #SUP: 4
3 -1 484 -1 #SUP: 2
3 -1 489 -1 #SUP: 2
3 -1 504 -1 #SUP: 2
3 -1 557 -1 #SUP: 2
3 -1 613 -1 #SUP: 2
3 -1 644 -1 #SUP: 2
3 -1 648 -1 #SUP: 3
3 -1 652 -1 #SUP: 3
3 -1 699 -1 #SUP: 2
3 -1 930 -1 #SUP: 2
3 -1 1277 -1 #SUP: 2
3 -1 1418 -1 #SUP: 2
3 -1 3705 -1 #SUP: 3
7 -1 3 -1 #SUP: 4
7 -1 7 -1 #SUP: 5
7 -1 10 -1 #SUP: 2
7 -1 16 -1 #SUP: 2
7 -1 22 -1 #SUP: 5
7 -1 31 -1 #SUP: 4
7 -1 32 -1 #SUP: 2
7 -1 33 -1 #SUP: 4
7 -1 41 -1 #SUP: 3
7 -1 50 -1 #SUP: 4
7 -1 64 -1 #SUP: 4
7 -1 65 -1 #SUP: 3
7 -1 76 -1 #SUP: 5
7 -1 92 -1 #SUP: 2
7 -1 113 -1 #SUP: 6
7 -1 124 -1 #SUP: 2
7 -1 148 -1 #SUP: 2
7 -1 151 -1 #SUP: 4
7 -1 160 -1 #SUP: 3
7 -1 165 -1 #SUP: 2
7 -1 187 -1 #SUP: 3
7 -1 418 -1 #SUP: 2
7 -1 527 -1 #SUP: 2
7 -1 613 -1 #SUP: 2
7 -1 702 -1 #SUP: 4
7 -1 1098 -1 #SUP: 2
7 -1 1498 -1 #SUP: 2
10 -1 7 -1 #SUP: 2
10 -1 13 -1 #SUP: 3
10 -1 50 -1 #SUP: 3
10 -1 64 -1 #SUP: 3
10 -1 65 -1 #SUP: 2
10 -1 76 -1 #SUP: 4
10 -1 113 -1 #SUP: 4
10 -1 418 -1 #SUP: 2
10 -1 702 -1 #SUP: 3
10 -1 1098 -1 #SUP: 2
15 -1 22 -1 #SUP: 2
15 -1 32 -1 #SUP: 3
15 -1 194 -1 #SUP: 2
15 -1 213 -1 #SUP: 2
15 -1 417 -1 #SUP: 2
16 -1 3 -1 #SUP: 4
16 -1 7 -1 #SUP: 3
16 -1 10 -1 #SUP: 2
16 -1 22 -1 #SUP: 3
16 -1 64 -1 #SUP: 2
16 -1 76 -1 #SUP: 5
16 -1 113 -1 #SUP: 6
16 -1 148 -1 #SUP: 2
16 -1 308 -1 #SUP: 2
16 -1 340 -1 #SUP: 2
16 -1 394 -1 #SUP: 2
16 -1 417 -1 #SUP: 2
16 -1 557 -1 #SUP: 2
16 -1 613 -1 #SUP: 2
16 -1 702 -1 #SUP: 3
16 -1 2133 -1 #SUP: 2
22 -1 2 -1 #SUP: 5
22 -1 3 -1 #SUP: 9
22 -1 7 -1 #SUP: 3
22 -1 10 -1 #SUP: 4
22 -1 13 -1 #SUP: 2
22 -1 16 -1 #SUP: 2
22 -1 22 -1 #SUP: 7
22 -1 32 -1 #SUP: 7
22 -1 33 -1 #SUP: 2
22 -1 41 -1 #SUP: 4
22 -1 54 -1 #SUP: 2
22 -1 64 -1 #SUP: 4
22 -1 65 -1 #SUP: 5
22 -1 66 -1 #SUP: 2
22 -1 72 -1 #SUP: 5
22 -1 76 -1 #SUP: 11
22 -1 92 -1 #SUP: 2
22 -1 113 -1 #SUP: 4
22 -1 141 -1 #SUP: 2
22 -1 149 -1 #SUP: 3
22 -1 151 -1 #SUP: 5
22 -1 158 -1 #SUP: 3
22 -1 182 -1 #SUP: 4
22 -1 187 -1 #SUP: 2
22 -1 201 -1 #SUP: 2
22 -1 234 -1 #SUP: 2
22 -1 250 -1 #SUP: 2
22 -1 326 -1 #SUP: 2
22 -1 339 -1 #SUP: 2
22 -1 342 -1 #SUP: 2
22 -1 348 -1 #SUP: 2
22 -1 375 -1 #SUP: 2
22 -1 394 -1 #SUP: 2
22 -1 401 -1 #SUP: 2
22 -1 417 -1 #SUP: 3
22 -1 489 -1 #SUP: 3
22 -1 499 -1 #SUP: 2
22 -1 504 -1 #SUP: 2
22 -1 511 -1 #SUP: 3
22 -1 702 -1 #SUP: 3
22 -1 703 -1 #SUP: 2
22 -1 773 -1 #SUP: 2
22 -1 1098 -1 #SUP: 2
22 -1 1099 -1 #SUP: 2
27 -1 3 -1 #SUP: 2
27 -1 10 -1 #SUP: 2
27 -1 113 -1 #SUP: 3
31 -1 22 -1 #SUP: 5
31 -1 31 -1 #SUP: 3
31 -1 32 -1 #SUP: 2
31 -1 50 -1 #SUP: 2
31 -1 64 -1 #SUP: 4
31 -1 65 -1 #SUP: 2
31 -1 76 -1 #SUP: 4
31 -1 92 -1 #SUP: 2
31 -1 113 -1 #SUP: 3
31 -1 305 -1 #SUP: 2
31 -1 511 -1 #SUP: 2
31 -1 702 -1 #SUP: 4
32 -1 2 -1 #SUP: 3
32 -1 3 -1 #SUP: 6
32 -1 7 -1 #SUP: 3
32 -1 22 -1 #SUP: 9
32 -1 31 -1 #SUP: 2
32 -1 32 -1 #SUP: 4
32 -1 33 -1 #SUP: 2
32 -1 41 -1 #SUP: 2
32 -1 64 -1 #SUP: 2
32 -1 65 -1 #SUP: 2
32 -1 76 -1 #SUP: 5
32 -1 113 -1 #SUP: 3
32 -1 151 -1 #SUP: 2
32 -1 182 -1 #SUP: 2
32 -1 213 -1 #SUP: 2
32 -1 224 -1 #SUP: 2
32 -1 326 -1 #SUP: 2
32 -1 417 -1 #SUP: 2
32 -1 930 -1 #SUP: 2
32 -1 1152 -1 #SUP: 2
33 -1 3 -1 #SUP: 3
33 -1 22 -1 #SUP: 3
33 -1 31 -1 #SUP: 2
33 -1 66 -1 #SUP: 2
33 -1 76 -1 #SUP: 7
33 -1 113 -1 #SUP: 3
33 -1 141 -1 #SUP: 2
33 -1 151 -1 #SUP: 2
33 -1 194 -1 #SUP: 2
33 -1 312 -1 #SUP: 2
33 -1 702 -1 #SUP: 3
41 -1 7 -1 #SUP: 4
41 -1 22 -1 #SUP: 2
41 -1 64 -1 #SUP: 2
41 -1 76 -1 #SUP: 2
41 -1 155 -1 #SUP: 3
41 -1 187 -1 #SUP: 2
41 -1 326 -1 #SUP: 2
46 -1 76 -1 #SUP: 3
46 -1 113 -1 #SUP: 2
50 -1 3 -1 #SUP: 2
50 -1 31 -1 #SUP: 3
50 -1 33 -1 #SUP: 2
50 -1 46 -1 #SUP: 2
50 -1 76 -1 #SUP: 4
50 -1 113 -1 #SUP: 3
50 -1 200 -1 #SUP: 2
50 -1 256 -1 #SUP: 2
50 -1 264 -1 #SUP: 2
50 -1 484 -1 #SUP: 2
50 -1 1098 -1 #SUP: 3
50 -1 2695 -1 #SUP: 2
50 -1 4209 -1 #SUP: 2
54 -1 3 -1 #SUP: 2
54 -1 10 -1 #SUP: 2
54 -1 67 -1 #SUP: 2
54 -1 76 -1 #SUP: 2
54 -1 113 -1 #SUP: 2
64 -1 2 -1 #SUP: 2
64 -1 3 -1 #SUP: 2
64 -1 7 -1 #SUP: 2
64 -1 10 -1 #SUP: 2
64 -1 16 -1 #SUP: 4
64 -1 22 -1 #SUP: 6
64 -1 31 -1 #SUP: 2
64 -1 33 -1 #SUP: 5
64 -1 41 -1 #SUP: 2
64 -1 50 -1 #SUP: 3
64 -1 54 -1 #SUP: 2
64 -1 64 -1 #SUP: 8
64 -1 65 -1 #SUP: 3
64 -1 76 -1 #SUP: 8
64 -1 106 -1 #SUP: 2
64 -1 113 -1 #SUP: 8
64 -1 115 -1 #SUP: 5
64 -1 127 -1 #SUP: 2
64 -1 131 -1 #SUP: 2
64 -1 141 -1 #SUP: 2
64 -1 149 -1 #SUP: 2
64 -1 151 -1 #SUP: 2
64 -1 155 -1 #SUP: 3
64 -1 158 -1 #SUP: 3
64 -1 160 -1 #SUP: 4
64 -1 182 -1 #SUP: 2
64 -1 201 -1 #SUP: 3
64 -1 256 -1 #SUP: 2
64 -1 308 -1 #SUP: 2
64 -1 356 -1 #SUP: 2
64 -1 394 -1 #SUP: 2
64 -1 463 -1 #SUP: 2
64 -1 500 -1 #SUP: 2
64 -1 504 -1 #SUP: 2
64 -1 511 -1 #SUP: 2
64 -1 557 -1 #SUP: 2
64 -1 634 -1 #SUP: 3
64 -1 652 -1 #SUP: 2
64 -1 692 -1 #SUP: 2
64 -1 702 -1 #SUP: 5
64 -1 1099 -1 #SUP: 2
65 -1 2 -1 #SUP: 2
65 -1 3 -1 #SUP: 6
65 -1 7 -1 #SUP: 4
65 -1 10 -1 #SUP: 2
65 -1 16 -1 #SUP: 3
65 -1 22 -1 #SUP: 8
65 -1 31 -1 #SUP: 3
65 -1 32 -1 #SUP: 4
65 -1 33 -1 #SUP: 2
65 -1 41 -1 #SUP: 2
65 -1 50 -1 #SUP: 2
65 -1 65 -1 #SUP: 2
65 -1 72 -1 #SUP: 2
65 -1 76 -1 #SUP: 8
65 -1 77 -1 #SUP: 2
65 -1 92 -1 #SUP: 3
65 -1 113 -1 #SUP: 5
65 -1 149 -1 #SUP: 3
65 -1 211 -1 #SUP: 2
65 -1 221 -1 #SUP: 2
65 -1 242 -1 #SUP: 2
65 -1 375 -1 #SUP: 3
65 -1 386 -1 #SUP: 2
65 -1 463 -1 #SUP: 2
65 -1 497 -1 #SUP: 2
65 -1 511 -1 #SUP: 2
65 -1 557 -1 #SUP: 3
65 -1 702 -1 #SUP: 5
65 -1 1098 -1 #SUP: 2
65 -1 1152 -1 #SUP: 2
65 -1 1603 -1 #SUP: 2
66 -1 3 -1 #SUP: 3
66 -1 22 -1 #SUP: 4
66 -1 76 -1 #SUP: 2
66 -1 113 -1 #SUP: 2
66 -1 703 -1 #SUP: 2
67 -1 76 -1 #SUP: 2
72 -1 3 -1 #SUP: 2
72 -1 7 -1 #SUP: 2
72 -1 151 -1 #SUP: 2
72 -1 187 -1 #SUP: 2
72 -1 375 -1 #SUP: 2
75 -1 76 -1 #SUP: 2
76 -1 2 -1 #SUP: 7
76 -1 3 -1 #SUP: 11
76 -1 7 -1 #SUP: 6
76 -1 10 -1 #SUP: 6
76 -1 16 -1 #SUP: 9
76 -1 22 -1 #SUP: 11
76 -1 31 -1 #SUP: 4
76 -1 33 -1 #SUP: 4
76 -1 41 -1 #SUP: 2
76 -1 50 -1 #SUP: 3
76 -1 54 -1 #SUP: 3
76 -1 64 -1 #SUP: 8
76 -1 65 -1 #SUP: 9
76 -1 66 -1 #SUP: 2
76 -1 72 -1 #SUP: 2
76 -1 76 -1 #SUP: 13
76 -1 77 -1 #SUP: 3
76 -1 113 -1 #SUP: 19
76 -1 141 -1 #SUP: 5
76 -1 149 -1 #SUP: 4
76 -1 151 -1 #SUP: 7
76 -1 158 -1 #SUP: 2
76 -1 160 -1 #SUP: 4
76 -1 161 -1 #SUP: 5
76 -1 182 -1 #SUP: 6
76 -1 187 -1 #SUP: 2
76 -1 200 -1 #SUP: 4
76 -1 208 -1 #SUP: 2
76 -1 221 -1 #SUP: 2
76 -1 224 -1 #SUP: 2
76 -1 250 -1 #SUP: 4
76 -1 256 -1 #SUP: 4
76 -1 264 -1 #SUP: 2
76 -1 272 -1 #SUP: 2
76 -1 273 -1 #SUP: 2
76 -1 278 -1 #SUP: 3
76 -1 305 -1 #SUP: 3
76 -1 326 -1 #SUP: 3
76 -1 342 -1 #SUP: 3
76 -1 375 -1 #SUP: 5
76 -1 394 -1 #SUP: 2
76 -1 417 -1 #SUP: 4
76 -1 418 -1 #SUP: 2
76 -1 453 -1 #SUP: 3
76 -1 463 -1 #SUP: 3
76 -1 484 -1 #SUP: 2
76 -1 489 -1 #SUP: 3
76 -1 497 -1 #SUP: 2
76 -1 504 -1 #SUP: 3
76 -1 511 -1 #SUP: 2
76 -1 557 -1 #SUP: 7
76 -1 613 -1 #SUP: 2
76 -1 634 -1 #SUP: 2
76 -1 652 -1 #SUP: 2
76 -1 702 -1 #SUP: 10
76 -1 718 -1 #SUP: 2
76 -1 786 -1 #SUP: 2
76 -1 798 -1 #SUP: 2
76 -1 1098 -1 #SUP: 5
76 -1 1099 -1 #SUP: 2
76 -1 1101 -1 #SUP: 2
76 -1 1243 -1 #SUP: 2
76 -1 1603 -1 #SUP: 2
76 -1 1935 -1 #SUP: 2
77 -1 3 -1 #SUP: 3
77 -1 33 -1 #SUP: 2
77 -1 76 -1 #SUP: 3
77 -1 113 -1 #SUP: 3
80 -1 64 -1 #SUP: 2
81 -1 31 -1 #SUP: 2
81 -1 33 -1 #SUP: 2
81 -1 50 -1 #SUP: 2
81 -1 64 -1 #SUP: 4
81 -1 76 -1 #SUP: 2
81 -1 702 -1 #SUP: 3
113 -1 2 -1 #SUP: 6
113 -1 3 -1 #SUP: 16
113 -1 7 -1 #SUP: 9
113 -1 10 -1 #SUP: 4
113 -1 15 -1 #SUP: 2
113 -1 16 -1 #SUP: 7
113 -1 22 -1 #SUP: 12
113 -1 31 -1 #SUP: 5
113 -1 32 -1 #SUP: 4
113 -1 33 -1 #SUP: 2
113 -1 41 -1 #SUP: 2
113 -1 50 -1 #SUP: 5
113 -1 54 -1 #SUP: 2
113 -1 64 -1 #SUP: 6
113 -1 65 -1 #SUP: 5
113 -1 66 -1 #SUP: 4
113 -1 67 -1 #SUP: 2
113 -1 76 -1 #SUP: 17
113 -1 77 -1 #SUP: 2
113 -1 81 -1 #SUP: 2
113 -1 92 -1 #SUP: 2
113 -1 113 -1 #SUP: 16
113 -1 124 -1 #SUP: 2
113 -1 131 -1 #SUP: 3
113 -1 135 -1 #SUP: 2
113 -1 141 -1 #SUP: 5
113 -1 149 -1 #SUP: 4
113 -1 151 -1 #SUP: 8
113 -1 155 -1 #SUP: 2
113 -1 158 -1 #SUP: 5
113 -1 160 -1 #SUP: 2
113 -1 161 -1 #SUP: 6
113 -1 182 -1 #SUP: 2
113 -1 187 -1 #SUP: 3
113 -1 194 -1 #SUP: 3
113 -1 200 -1 #SUP: 2
113 -1 208 -1 #SUP: 4
113 -1 213 -1 #SUP: 2
113 -1 225 -1 #SUP: 2
113 -1 242 -1 #SUP: 2
113 -1 250 -1 #SUP: 2
113 -1 256 -1 #SUP: 2
113 -1 272 -1 #SUP: 3
113 -1 305 -1 #SUP: 2
113 -1 326 -1 #SUP: 6
113 -1 339 -1 #SUP: 2
113 -1 340 -1 #SUP: 2
113 -1 348 -1 #SUP: 3
113 -1 364 -1 #SUP: 2
113 -1 375 -1 #SUP: 2
113 -1 417 -1 #SUP: 3
113 -1 500 -1 #SUP: 2
113 -1 504 -1 #SUP: 3
113 -1 511 -1 #SUP: 2
113 -1 527 -1 #SUP: 2
113 -1 613 -1 #SUP: 3
113 -1 634 -1 #SUP: 2
113 -1 692 -1 #SUP: 2
113 -1 699 -1 #SUP: 2
113 -1 702 -1 #SUP: 5
113 -1 1092 -1 #SUP: 2
113 -1 1098 -1 #SUP: 4
113 -1 1105 -1 #SUP: 2
113 -1 3705 -1 #SUP: 3
115 -1 106 -1 #SUP: 2
115 -1 3733 -1 #SUP: 2
124 -1 76 -1 #SUP: 2
127 -1 33 -1 #SUP: 2
127 -1 149 -1 #SUP: 2
131 -1 64 -1 #SUP: 2
131 -1 113 -1 #SUP: 2
141 -1 3 -1 #SUP: 5
141 -1 7 -1 #SUP: 2
141 -1 10 -1 #SUP: 2
141 -1 16 -1 #SUP: 4
141 -1 64 -1 #SUP: 2
141 -1 76 -1 #SUP: 2
141 -1 113 -1 #SUP: 2
141 -1 151 -1 #SUP: 2
148 -1 76 -1 #SUP: 2
148 -1 194 -1 #SUP: 2
148 -1 232 -1 #SUP: 2
149 -1 3 -1 #SUP: 2
149 -1 16 -1 #SUP: 2
149 -1 22 -1 #SUP: 3
149 -1 33 -1 #SUP: 3
149 -1 41 -1 #SUP: 2
149 -1 76 -1 #SUP: 6
151 -1 2 -1 #SUP: 2
151 -1 3 -1 #SUP: 5
151 -1 7 -1 #SUP: 2
151 -1 10 -1 #SUP: 2
151 -1 16 -1 #SUP: 2
151 -1 22 -1 #SUP: 2
151 -1 50 -1 #SUP: 3
151 -1 65 -1 #SUP: 3
151 -1 76 -1 #SUP: 6
151 -1 113 -1 #SUP: 5
151 -1 141 -1 #SUP: 2
151 -1 149 -1 #SUP: 2
151 -1 221 -1 #SUP: 2
151 -1 256 -1 #SUP: 2
151 -1 613 -1 #SUP: 5
151 -1 644 -1 #SUP: 2
151 -1 702 -1 #SUP: 4
151 -1 2130 -1 #SUP: 2
155 -1 22 -1 #SUP: 2
155 -1 64 -1 #SUP: 3
155 -1 76 -1 #SUP: 4
156 -1 3 -1 #SUP: 2
156 -1 64 -1 #SUP: 2
156 -1 76 -1 #SUP: 3
156 -1 113 -1 #SUP: 2
156 -1 151 -1 #SUP: 2
156 -1 182 -1 #SUP: 2
156 -1 930 -1 #SUP: 2
158 -1 7 -1 #SUP: 2
158 -1 16 -1 #SUP: 2
158 -1 22 -1 #SUP: 2
158 -1 29 -1 #SUP: 2
158 -1 41 -1 #SUP: 3
158 -1 65 -1 #SUP: 2
158 -1 76 -1 #SUP: 2
158 -1 113 -1 #SUP: 4
158 -1 131 -1 #SUP: 3
158 -1 326 -1 #SUP: 3
160 -1 3 -1 #SUP: 4
160 -1 16 -1 #SUP: 2
160 -1 22 -1 #SUP: 3
160 -1 46 -1 #SUP: 4
160 -1 50 -1 #SUP: 2
160 -1 64 -1 #SUP: 3
160 -1 76 -1 #SUP: 4
160 -1 113 -1 #SUP: 4
160 -1 160 -1 #SUP: 2
160 -1 182 -1 #SUP: 2
160 -1 2695 -1 #SUP: 2
161 -1 3 -1 #SUP: 3
161 -1 16 -1 #SUP: 3
161 -1 22 -1 #SUP: 3
161 -1 32 -1 #SUP: 2
161 -1 64 -1 #SUP: 2
161 -1 65 -1 #SUP: 2
165 -1 3 -1 #SUP: 2
165 -1 22 -1 #SUP: 2
165 -1 32 -1 #SUP: 2
165 -1 54 -1 #SUP: 2
165 -1 76 -1 #SUP: 2
165 -1 113 -1 #SUP: 2
182 -1 2 -1 #SUP: 3
182 -1 3 -1 #SUP: 3
182 -1 22 -1 #SUP: 4
182 -1 33 -1 #SUP: 2
182 -1 64 -1 #SUP: 2
182 -1 76 -1 #SUP: 4
182 -1 113 -1 #SUP: 4
182 -1 151 -1 #SUP: 2
182 -1 161 -1 #SUP: 2
182 -1 364 -1 #SUP: 2
182 -1 463 -1 #SUP: 2
182 -1 500 -1 #SUP: 2
182 -1 510 -1 #SUP: 2
182 -1 527 -1 #SUP: 2
182 -1 1098 -1 #SUP: 2
187 -1 2 -1 #SUP: 3
187 -1 3 -1 #SUP: 2
187 -1 22 -1 #SUP: 3
187 -1 32 -1 #SUP: 2
187 -1 65 -1 #SUP: 3
187 -1 76 -1 #SUP: 2
187 -1 92 -1 #SUP: 2
187 -1 151 -1 #SUP: 2
187 -1 702 -1 #SUP: 2
190 -1 3 -1 #SUP: 2
190 -1 148 -1 #SUP: 2
194 -1 3 -1 #SUP: 4
194 -1 22 -1 #SUP: 2
194 -1 50 -1 #SUP: 2
194 -1 113 -1 #SUP: 3
194 -1 141 -1 #SUP: 3
194 -1 161 -1 #SUP: 2
194 -1 340 -1 #SUP: 2
194 -1 417 -1 #SUP: 2
200 -1 3 -1 #SUP: 2
200 -1 16 -1 #SUP: 2
200 -1 46 -1 #SUP: 2
200 -1 64 -1 #SUP: 4
200 -1 76 -1 #SUP: 4
200 -1 113 -1 #SUP: 3
200 -1 182 -1 #SUP: 2
200 -1 504 -1 #SUP: 2
201 -1 511 -1 #SUP: 2
208 -1 16 -1 #SUP: 2
208 -1 22 -1 #SUP: 2
211 -1 65 -1 #SUP: 2
211 -1 113 -1 #SUP: 2
213 -1 22 -1 #SUP: 2
213 -1 64 -1 #SUP: 2
213 -1 76 -1 #SUP: 2
213 -1 113 -1 #SUP: 2
213 -1 194 -1 #SUP: 2
213 -1 417 -1 #SUP: 2
221 -1 50 -1 #SUP: 2
221 -1 76 -1 #SUP: 2
221 -1 497 -1 #SUP: 2
221 -1 702 -1 #SUP: 3
224 -1 3 -1 #SUP: 4
224 -1 7 -1 #SUP: 2
224 -1 15 -1 #SUP: 2
224 -1 16 -1 #SUP: 2
224 -1 22 -1 #SUP: 5
224 -1 64 -1 #SUP: 3
224 -1 76 -1 #SUP: 7
224 -1 113 -1 #SUP: 6
224 -1 149 -1 #SUP: 3
224 -1 151 -1 #SUP: 2
224 -1 156 -1 #SUP: 2
224 -1 161 -1 #SUP: 2
224 -1 182 -1 #SUP: 3
224 -1 394 -1 #SUP: 2
224 -1 702 -1 #SUP: 2
232 -1 7 -1 #SUP: 2
232 -1 64 -1 #SUP: 2
232 -1 76 -1 #SUP: 2
232 -1 113 -1 #SUP: 3
232 -1 232 -1 #SUP: 2
234 -1 76 -1 #SUP: 2
242 -1 3 -1 #SUP: 2
242 -1 113 -1 #SUP: 2
244 -1 76 -1 #SUP: 2
247 -1 3 -1 #SUP: 2
247 -1 113 -1 #SUP: 2
248 -1 76 -1 #SUP: 2
250 -1 3 -1 #SUP: 2
250 -1 64 -1 #SUP: 2
250 -1 76 -1 #SUP: 3
256 -1 2 -1 #SUP: 2
256 -1 22 -1 #SUP: 2
256 -1 33 -1 #SUP: 2
256 -1 50 -1 #SUP: 2
256 -1 64 -1 #SUP: 2
256 -1 65 -1 #SUP: 2
256 -1 76 -1 #SUP: 4
256 -1 151 -1 #SUP: 2
256 -1 702 -1 #SUP: 2
272 -1 3 -1 #SUP: 2
272 -1 16 -1 #SUP: 2
272 -1 113 -1 #SUP: 3
272 -1 242 -1 #SUP: 2
272 -1 702 -1 #SUP: 2
278 -1 10 -1 #SUP: 3
278 -1 64 -1 #SUP: 3
278 -1 76 -1 #SUP: 3
278 -1 250 -1 #SUP: 3
278 -1 342 -1 #SUP: 2
312 -1 11 -1 #SUP: 3
312 -1 22 -1 #SUP: 2
312 -1 65 -1 #SUP: 2
312 -1 76 -1 #SUP: 2
326 -1 32 -1 #SUP: 2
326 -1 64 -1 #SUP: 3
326 -1 76 -1 #SUP: 4
326 -1 113 -1 #SUP: 2
326 -1 155 -1 #SUP: 2
326 -1 158 -1 #SUP: 3
326 -1 1077 -1 #SUP: 2
340 -1 22 -1 #SUP: 2
340 -1 31 -1 #SUP: 2
340 -1 33 -1 #SUP: 3
340 -1 50 -1 #SUP: 2
340 -1 64 -1 #SUP: 2
340 -1 76 -1 #SUP: 3
340 -1 149 -1 #SUP: 2
340 -1 160 -1 #SUP: 2
342 -1 2 -1 #SUP: 2
342 -1 10 -1 #SUP: 2
342 -1 64 -1 #SUP: 2
342 -1 65 -1 #SUP: 2
342 -1 76 -1 #SUP: 3
342 -1 113 -1 #SUP: 3
342 -1 250 -1 #SUP: 2
342 -1 342 -1 #SUP: 2
342 -1 356 -1 #SUP: 2
342 -1 375 -1 #SUP: 2
342 -1 418 -1 #SUP: 2
342 -1 453 -1 #SUP: 2
342 -1 463 -1 #SUP: 2
342 -1 745 -1 #SUP: 2
348 -1 7 -1 #SUP: 2
356 -1 22 -1 #SUP: 2
356 -1 76 -1 #SUP: 2
356 -1 113 -1 #SUP: 2
356 -1 500 -1 #SUP: 2
356 -1 702 -1 #SUP: 2
363 -1 3 -1 #SUP: 2
363 -1 22 -1 #SUP: 2
363 -1 113 -1 #SUP: 2
364 -1 64 -1 #SUP: 3
375 -1 3 -1 #SUP: 2
375 -1 7 -1 #SUP: 4
375 -1 31 -1 #SUP: 2
375 -1 33 -1 #SUP: 2
375 -1 50 -1 #SUP: 3
375 -1 54 -1 #SUP: 2
375 -1 65 -1 #SUP: 3
375 -1 76 -1 #SUP: 3
375 -1 151 -1 #SUP: 2
375 -1 211 -1 #SUP: 3
375 -1 256 -1 #SUP: 3
375 -1 403 -1 #SUP: 2
375 -1 613 -1 #SUP: 2
375 -1 702 -1 #SUP: 2
394 -1 3 -1 #SUP: 2
394 -1 182 -1 #SUP: 2
394 -1 308 -1 #SUP: 2
394 -1 417 -1 #SUP: 2
417 -1 2 -1 #SUP: 2
417 -1 3 -1 #SUP: 5
417 -1 7 -1 #SUP: 3
417 -1 16 -1 #SUP: 2
417 -1 31 -1 #SUP: 2
417 -1 65 -1 #SUP: 3
417 -1 76 -1 #SUP: 3
417 -1 113 -1 #SUP: 2
417 -1 141 -1 #SUP: 2
417 -1 424 -1 #SUP: 2
417 -1 489 -1 #SUP: 2
417 -1 504 -1 #SUP: 2
417 -1 3705 -1 #SUP: 2
418 -1 22 -1 #SUP: 2
418 -1 113 -1 #SUP: 3
418 -1 500 -1 #SUP: 2
453 -1 7 -1 #SUP: 3
453 -1 10 -1 #SUP: 2
453 -1 65 -1 #SUP: 2
453 -1 113 -1 #SUP: 2
453 -1 418 -1 #SUP: 2
453 -1 500 -1 #SUP: 2
463 -1 22 -1 #SUP: 3
463 -1 33 -1 #SUP: 2
463 -1 64 -1 #SUP: 2
463 -1 76 -1 #SUP: 3
463 -1 77 -1 #SUP: 2
463 -1 113 -1 #SUP: 2
463 -1 160 -1 #SUP: 2
463 -1 312 -1 #SUP: 2
484 -1 65 -1 #SUP: 2
484 -1 76 -1 #SUP: 2
484 -1 113 -1 #SUP: 3
484 -1 364 -1 #SUP: 2
484 -1 1098 -1 #SUP: 2
489 -1 3 -1 #SUP: 3
489 -1 76 -1 #SUP: 2
497 -1 702 -1 #SUP: 2
499 -1 3 -1 #SUP: 2
499 -1 76 -1 #SUP: 2
499 -1 702 -1 #SUP: 2
500 -1 10 -1 #SUP: 2
500 -1 64 -1 #SUP: 2
500 -1 76 -1 #SUP: 2
500 -1 113 -1 #SUP: 4
500 -1 702 -1 #SUP: 2
504 -1 3 -1 #SUP: 2
504 -1 76 -1 #SUP: 2
504 -1 113 -1 #SUP: 2
504 -1 182 -1 #SUP: 2
504 -1 417 -1 #SUP: 2
504 -1 3705 -1 #SUP: 2
511 -1 76 -1 #SUP: 2
527 -1 3 -1 #SUP: 3
527 -1 64 -1 #SUP: 2
527 -1 76 -1 #SUP: 3
527 -1 113 -1 #SUP: 2
527 -1 702 -1 #SUP: 2
546 -1 7 -1 #SUP: 2
546 -1 65 -1 #SUP: 2
546 -1 151 -1 #SUP: 2
557 -1 3 -1 #SUP: 2
557 -1 7 -1 #SUP: 4
557 -1 10 -1 #SUP: 2
557 -1 65 -1 #SUP: 4
557 -1 113 -1 #SUP: 5
557 -1 141 -1 #SUP: 2
557 -1 151 -1 #SUP: 2
557 -1 182 -1 #SUP: 2
557 -1 272 -1 #SUP: 2
557 -1 692 -1 #SUP: 2
557 -1 702 -1 #SUP: 2
557 -1 825 -1 #SUP: 2
557 -1 1098 -1 #SUP: 2
613 -1 22 -1 #SUP: 4
613 -1 76 -1 #SUP: 3
613 -1 113 -1 #SUP: 2
616 -1 76 -1 #SUP: 2
616 -1 278 -1 #SUP: 2
634 -1 64 -1 #SUP: 2
644 -1 3 -1 #SUP: 2
648 -1 160 -1 #SUP: 4
652 -1 64 -1 #SUP: 2
652 -1 76 -1 #SUP: 2
652 -1 113 -1 #SUP: 2
652 -1 160 -1 #SUP: 2
652 -1 648 -1 #SUP: 2
692 -1 64 -1 #SUP: 2
702 -1 3 -1 #SUP: 5
702 -1 7 -1 #SUP: 5
702 -1 10 -1 #SUP: 5
702 -1 16 -1 #SUP: 3
702 -1 33 -1 #SUP: 4
702 -1 46 -1 #SUP: 2
702 -1 50 -1 #SUP: 6
702 -1 64 -1 #SUP: 7
702 -1 65 -1 #SUP: 3
702 -1 76 -1 #SUP: 12
702 -1 81 -1 #SUP: 2
702 -1 113 -1 #SUP: 13
702 -1 141 -1 #SUP: 2
702 -1 151 -1 #SUP: 3
702 -1 200 -1 #SUP: 2
702 -1 453 -1 #SUP: 2
702 -1 484 -1 #SUP: 2
702 -1 500 -1 #SUP: 3
702 -1 557 -1 #SUP: 3
702 -1 634 -1 #SUP: 3
702 -1 702 -1 #SUP: 6
702 -1 1098 -1 #SUP: 2
702 -1 2130 -1 #SUP: 2
702 -1 2897 -1 #SUP: 2
702 -1 4209 -1 #SUP: 2
714 -1 16 -1 #SUP: 2
714 -1 64 -1 #SUP: 3
714 -1 80 -1 #SUP: 2
714 -1 340 -1 #SUP: 2
747 -1 22 -1 #SUP: 2
747 -1 31 -1 #SUP: 2
930 -1 3 -1 #SUP: 4
930 -1 22 -1 #SUP: 2
930 -1 76 -1 #SUP: 5
930 -1 113 -1 #SUP: 3
930 -1 151 -1 #SUP: 2
930 -1 182 -1 #SUP: 2
930 -1 375 -1 #SUP: 2
930 -1 417 -1 #SUP: 2
1077 -1 22 -1 #SUP: 2
1077 -1 76 -1 #SUP: 2
1098 -1 76 -1 #SUP: 4
1098 -1 221 -1 #SUP: 2
1098 -1 497 -1 #SUP: 2
1098 -1 702 -1 #SUP: 2
1099 -1 10 -1 #SUP: 2
1099 -1 64 -1 #SUP: 3
1099 -1 113 -1 #SUP: 2
1101 -1 7 -1 #SUP: 2
1101 -1 22 -1 #SUP: 2
1101 -1 64 -1 #SUP: 2
1101 -1 76 -1 #SUP: 5
1101 -1 113 -1 #SUP: 2
1101 -1 702 -1 #SUP: 2
1243 -1 463 -1 #SUP: 2
1418 -1 113 -1 #SUP: 2
1498 -1 46 -1 #SUP: 2
1498 -1 50 -1 #SUP: 2
1498 -1 702 -1 #SUP: 2
1603 -1 76 -1 #SUP: 2
1603 -1 375 -1 #SUP: 2
1975 -1 7 -1 #SUP: 2
1975 -1 22 -1 #SUP: 2
2072 -1 64 -1 #SUP: 2
2072 -1 160 -1 #SUP: 2
2130 -1 76 -1 #SUP: 2
2130 -1 113 -1 #SUP: 2
2130 -1 613 -1 #SUP: 2
2369 -1 342 -1 #SUP: 2
2695 -1 46 -1 #SUP: 2
2897 -1 33 -1 #SUP: 2
2897 -1 76 -1 #SUP: 2
2897 -1 113 -1 #SUP: 2
3705 -1 3 -1 #SUP: 2
3733 -1 106 -1 #SUP: 2
4209 -1 76 -1 #SUP: 2
2 -1 3 -1 76 -1 #SUP: 2
2 -1 16 -1 7 -1 #SUP: 2
2 -1 22 -1 10 -1 #SUP: 2
2 -1 76 -1 10 -1 #SUP: 2
2 -1 76 -1 64 -1 #SUP: 2
2 -1 76 -1 557 -1 #SUP: 2
2 -1 224 -1 3 -1 #SUP: 2
2 -1 224 -1 76 -1 #SUP: 2
2 -1 342 -1 10 -1 #SUP: 2
2 -1 453 -1 10 -1 #SUP: 2
2 -1 527 -1 3 -1 #SUP: 2
2 -1 702 -1 64 -1 #SUP: 2
2 -1 702 -1 76 -1 #SUP: 2
2 -1 702 -1 557 -1 #SUP: 2
3 -1 3 -1 76 -1 #SUP: 2
3 -1 3 -1 644 -1 #SUP: 2
3 -1 10 -1 50 -1 #SUP: 2
3 -1 10 -1 76 -1 #SUP: 2
3 -1 16 -1 417 -1 #SUP: 2
3 -1 22 -1 32 -1 #SUP: 4
3 -1 22 -1 72 -1 #SUP: 3
3 -1 27 -1 113 -1 #SUP: 2
3 -1 32 -1 3 -1 #SUP: 2
3 -1 32 -1 22 -1 #SUP: 3
3 -1 32 -1 113 -1 #SUP: 2
3 -1 46 -1 76 -1 #SUP: 2
3 -1 64 -1 149 -1 #SUP: 2
3 -1 65 -1 3 -1 #SUP: 2
3 -1 65 -1 7 -1 #SUP: 2
3 -1 65 -1 22 -1 #SUP: 2
3 -1 65 -1 32 -1 #SUP: 2
3 -1 65 -1 76 -1 #SUP: 2
3 -1 65 -1 113 -1 #SUP: 2
3 -1 66 -1 3 -1 #SUP: 2
3 -1 76 -1 3 -1 #SUP: 3
3 -1 76 -1 16 -1 #SUP: 2
3 -1 76 -1 76 -1 #SUP: 2
3 -1 76 -1 113 -1 #SUP: 4
3 -1 76 -1 149 -1 #SUP: 3
3 -1 81 -1 64 -1 #SUP: 2
3 -1 113 -1 3 -1 #SUP: 3
3 -1 113 -1 16 -1 #SUP: 2
3 -1 113 -1 76 -1 #SUP: 2
3 -1 113 -1 149 -1 #SUP: 2
3 -1 113 -1 326 -1 #SUP: 2
3 -1 113 -1 699 -1 #SUP: 2
3 -1 151 -1 76 -1 #SUP: 2
3 -1 151 -1 113 -1 #SUP: 2
3 -1 224 -1 76 -1 #SUP: 2
3 -1 417 -1 3 -1 #SUP: 3
3 -1 648 -1 160 -1 #SUP: 3
3 -1 652 -1 64 -1 #SUP: 2
3 -1 652 -1 76 -1 #SUP: 2
3 -1 652 -1 113 -1 #SUP: 2
3 -1 652 -1 160 -1 #SUP: 2
3 -1 652 -1 648 -1 #SUP: 2
3 -1 930 -1 76 -1 #SUP: 2
3 -1 3705 -1 3 -1 #SUP: 2
7 -1 7 -1 160 -1 #SUP: 2
7 -1 31 -1 113 -1 #SUP: 2
7 -1 33 -1 76 -1 #SUP: 2
7 -1 41 -1 7 -1 #SUP: 2
7 -1 65 -1 31 -1 #SUP: 2
7 -1 76 -1 151 -1 #SUP: 2
7 -1 76 -1 702 -1 #SUP: 2
7 -1 113 -1 3 -1 #SUP: 2
7 -1 113 -1 613 -1 #SUP: 2
7 -1 151 -1 113 -1 #SUP: 2
7 -1 160 -1 22 -1 #SUP: 2
7 -1 187 -1 151 -1 #SUP: 2
7 -1 702 -1 7 -1 #SUP: 2
7 -1 702 -1 76 -1 #SUP: 2
10 -1 76 -1 113 -1 #SUP: 2
10 -1 418 -1 113 -1 #SUP: 2
15 -1 32 -1 22 -1 #SUP: 2
15 -1 32 -1 213 -1 #SUP: 2
15 -1 32 -1 417 -1 #SUP: 2
15 -1 213 -1 22 -1 #SUP: 2
16 -1 7 -1 7 -1 #SUP: 2
16 -1 7 -1 76 -1 #SUP: 2
16 -1 7 -1 702 -1 #SUP: 2
16 -1 76 -1 22 -1 #SUP: 2
16 -1 76 -1 113 -1 #SUP: 2
16 -1 76 -1 557 -1 #SUP: 2
16 -1 113 -1 3 -1 #SUP: 3
16 -1 113 -1 7 -1 #SUP: 2
16 -1 113 -1 76 -1 #SUP: 2
16 -1 702 -1 76 -1 #SUP: 2
22 -1 2 -1 22 -1 #SUP: 2
22 -1 3 -1 3 -1 #SUP: 4
22 -1 3 -1 10 -1 #SUP: 2
22 -1 3 -1 65 -1 #SUP: 2
22 -1 3 -1 151 -1 #SUP: 2
22 -1 22 -1 2 -1 #SUP: 2
22 -1 22 -1 76 -1 #SUP: 2
22 -1 22 -1 417 -1 #SUP: 2
22 -1 32 -1 2 -1 #SUP: 2
22 -1 32 -1 3 -1 #SUP: 2
22 -1 32 -1 76 -1 #SUP: 2
22 -1 33 -1 76 -1 #SUP: 2
22 -1 41 -1 326 -1 #SUP: 2
22 -1 72 -1 3 -1 #SUP: 2
22 -1 72 -1 7 -1 #SUP: 2
22 -1 72 -1 151 -1 #SUP: 2
22 -1 72 -1 375 -1 #SUP: 2
22 -1 76 -1 3 -1 #SUP: 3
22 -1 76 -1 10 -1 #SUP: 2
22 -1 76 -1 22 -1 #SUP: 2
22 -1 76 -1 64 -1 #SUP: 3
22 -1 76 -1 65 -1 #SUP: 2
22 -1 76 -1 76 -1 #SUP: 4
22 -1 76 -1 702 -1 #SUP: 2
22 -1 76 -1 1099 -1 #SUP: 2
22 -1 151 -1 3 -1 #SUP: 3
22 -1 158 -1 41 -1 #SUP: 2
22 -1 158 -1 326 -1 #SUP: 2
22 -1 182 -1 76 -1 #SUP: 2
22 -1 187 -1 32 -1 #SUP: 2
22 -1 201 -1 511 -1 #SUP: 2
22 -1 250 -1 3 -1 #SUP: 2
22 -1 250 -1 76 -1 #SUP: 2
22 -1 394 -1 3 -1 #SUP: 2
22 -1 394 -1 417 -1 #SUP: 2
22 -1 417 -1 3 -1 #SUP: 2
22 -1 489 -1 76 -1 #SUP: 2
27 -1 113 -1 3 -1 #SUP: 2
27 -1 113 -1 10 -1 #SUP: 2
31 -1 31 -1 305 -1 #SUP: 2
31 -1 76 -1 31 -1 #SUP: 2
31 -1 76 -1 305 -1 #SUP: 2
31 -1 76 -1 702 -1 #SUP: 2
31 -1 702 -1 50 -1 #SUP: 2
31 -1 702 -1 64 -1 #SUP: 3
32 -1 22 -1 2 -1 #SUP: 2
32 -1 22 -1 22 -1 #SUP: 2
32 -1 22 -1 32 -1 #SUP: 3
32 -1 76 -1 3 -1 #SUP: 2
32 -1 76 -1 22 -1 #SUP: 3
32 -1 76 -1 326 -1 #SUP: 2
32 -1 113 -1 3 -1 #SUP: 2
32 -1 213 -1 22 -1 #SUP: 2
32 -1 930 -1 22 -1 #SUP: 2
32 -1 930 -1 76 -1 #SUP: 2
33 -1 22 -1 76 -1 #SUP: 2
33 -1 31 -1 22 -1 #SUP: 2
33 -1 76 -1 3 -1 #SUP: 3
33 -1 76 -1 76 -1 #SUP: 2
33 -1 76 -1 113 -1 #SUP: 2
33 -1 76 -1 151 -1 #SUP: 2
33 -1 76 -1 702 -1 #SUP: 3
33 -1 113 -1 76 -1 #SUP: 2
41 -1 155 -1 64 -1 #SUP: 2
46 -1 76 -1 113 -1 #SUP: 2
50 -1 76 -1 113 -1 #SUP: 2
50 -1 76 -1 256 -1 #SUP: 2
50 -1 76 -1 484 -1 #SUP: 2
50 -1 76 -1 1098 -1 #SUP: 2
50 -1 113 -1 31 -1 #SUP: 2
50 -1 113 -1 1098 -1 #SUP: 3
50 -1 484 -1 113 -1 #SUP: 2
50 -1 484 -1 1098 -1 #SUP: 2
50 -1 4209 -1 76 -1 #SUP: 2
54 -1 76 -1 10 -1 #SUP: 2
64 -1 3 -1 652 -1 #SUP: 2
64 -1 10 -1 64 -1 #SUP: 2
64 -1 22 -1 201 -1 #SUP: 2
64 -1 22 -1 511 -1 #SUP: 2
64 -1 33 -1 76 -1 #SUP: 2
64 -1 64 -1 113 -1 #SUP: 2
64 -1 76 -1 65 -1 #SUP: 2
64 -1 76 -1 113 -1 #SUP: 3
64 -1 76 -1 557 -1 #SUP: 2
64 -1 76 -1 634 -1 #SUP: 2
64 -1 76 -1 702 -1 #SUP: 2
64 -1 113 -1 7 -1 #SUP: 2
64 -1 113 -1 16 -1 #SUP: 2
64 -1 113 -1 76 -1 #SUP: 4
64 -1 113 -1 113 -1 #SUP: 2
64 -1 113 -1 158 -1 #SUP: 2
64 -1 113 -1 634 -1 #SUP: 2
64 -1 127 -1 33 -1 #SUP: 2
64 -1 155 -1 76 -1 #SUP: 2
64 -1 158 -1 131 -1 #SUP: 2
64 -1 201 -1 511 -1 #SUP: 2
64 -1 500 -1 113 -1 #SUP: 2
64 -1 702 -1 64 -1 #SUP: 2
64 -1 702 -1 113 -1 #SUP: 2
64 -1 702 -1 634 -1 #SUP: 2
64 -1 1099 -1 64 -1 #SUP: 2
65 -1 3 -1 22 -1 #SUP: 2
65 -1 3 -1 32 -1 #SUP: 2
65 -1 7 -1 22 -1 #SUP: 2
65 -1 22 -1 16 -1 #SUP: 2
65 -1 22 -1 72 -1 #SUP: 2
65 -1 32 -1 22 -1 #SUP: 3
65 -1 76 -1 2 -1 #SUP: 2
65 -1 76 -1 3 -1 #SUP: 2
65 -1 76 -1 22 -1 #SUP: 2
65 -1 76 -1 72 -1 #SUP: 2
65 -1 76 -1 113 -1 #SUP: 2
65 -1 76 -1 221 -1 #SUP: 2
65 -1 76 -1 375 -1 #SUP: 2
65 -1 76 -1 497 -1 #SUP: 2
65 -1 76 -1 511 -1 #SUP: 2
65 -1 76 -1 557 -1 #SUP: 2
65 -1 76 -1 702 -1 #SUP: 2
65 -1 76 -1 1603 -1 #SUP: 2
65 -1 113 -1 3 -1 #SUP: 3
65 -1 113 -1 22 -1 #SUP: 2
65 -1 113 -1 32 -1 #SUP: 2
65 -1 113 -1 113 -1 #SUP: 2
65 -1 149 -1 41 -1 #SUP: 2
65 -1 221 -1 497 -1 #SUP: 2
65 -1 221 -1 702 -1 #SUP: 2
65 -1 242 -1 113 -1 #SUP: 2
65 -1 375 -1 211 -1 #SUP: 2
65 -1 497 -1 702 -1 #SUP: 2
65 -1 702 -1 3 -1 #SUP: 2
65 -1 702 -1 113 -1 #SUP: 2
66 -1 22 -1 703 -1 #SUP: 2
67 -1 76 -1 76 -1 #SUP: 2
76 -1 2 -1 7 -1 #SUP: 2
76 -1 2 -1 16 -1 #SUP: 2
76 -1 2 -1 64 -1 #SUP: 2
76 -1 2 -1 76 -1 #SUP: 2
76 -1 2 -1 702 -1 #SUP: 3
76 -1 3 -1 3 -1 #SUP: 3
76 -1 3 -1 16 -1 #SUP: 2
76 -1 3 -1 64 -1 #SUP: 2
76 -1 3 -1 65 -1 #SUP: 2
76 -1 3 -1 76 -1 #SUP: 3
76 -1 3 -1 113 -1 #SUP: 2
76 -1 3 -1 151 -1 #SUP: 3
76 -1 3 -1 652 -1 #SUP: 2
76 -1 7 -1 7 -1 #SUP: 2
76 -1 7 -1 160 -1 #SUP: 2
76 -1 7 -1 187 -1 #SUP: 2
76 -1 7 -1 702 -1 #SUP: 2
76 -1 10 -1 113 -1 #SUP: 2
76 -1 10 -1 418 -1 #SUP: 2
76 -1 16 -1 7 -1 #SUP: 2
76 -1 22 -1 3 -1 #SUP: 2
76 -1 22 -1 64 -1 #SUP: 2
76 -1 22 -1 76 -1 #SUP: 3
76 -1 22 -1 113 -1 #SUP: 2
76 -1 22 -1 182 -1 #SUP: 2
76 -1 22 -1 417 -1 #SUP: 2
76 -1 22 -1 489 -1 #SUP: 2
76 -1 31 -1 76 -1 #SUP: 2
76 -1 31 -1 305 -1 #SUP: 2
76 -1 64 -1 16 -1 #SUP: 2
76 -1 64 -1 33 -1 #SUP: 2
76 -1 64 -1 113 -1 #SUP: 2
76 -1 65 -1 463 -1 #SUP: 2
76 -1 66 -1 22 -1 #SUP: 2
76 -1 76 -1 16 -1 #SUP: 2
76 -1 76 -1 22 -1 #SUP: 2
76 -1 76 -1 64 -1 #SUP: 4
76 -1 76 -1 76 -1 #SUP: 2
76 -1 76 -1 113 -1 #SUP: 4
76 -1 76 -1 161 -1 #SUP: 2
76 -1 76 -1 200 -1 #SUP: 2
76 -1 77 -1 33 -1 #SUP: 2
76 -1 113 -1 3 -1 #SUP: 3
76 -1 113 -1 7 -1 #SUP: 2
76 -1 113 -1 16 -1 #SUP: 6
76 -1 113 -1 22 -1 #SUP: 2
76 -1 113 -1 31 -1 #SUP: 2
76 -1 113 -1 64 -1 #SUP: 5
76 -1 113 -1 65 -1 #SUP: 2
76 -1 113 -1 76 -1 #SUP: 4
76 -1 113 -1 113 -1 #SUP: 3
76 -1 113 -1 141 -1 #SUP: 2
76 -1 113 -1 161 -1 #SUP: 3
76 -1 113 -1 182 -1 #SUP: 2
76 -1 113 -1 208 -1 #SUP: 2
76 -1 113 -1 250 -1 #SUP: 2
76 -1 113 -1 272 -1 #SUP: 2
76 -1 113 -1 417 -1 #SUP: 2
76 -1 113 -1 1098 -1 #SUP: 4
76 -1 141 -1 10 -1 #SUP: 2
76 -1 141 -1 16 -1 #SUP: 3
76 -1 149 -1 76 -1 #SUP: 2
76 -1 151 -1 76 -1 #SUP: 2
76 -1 151 -1 113 -1 #SUP: 3
76 -1 151 -1 702 -1 #SUP: 2
76 -1 161 -1 16 -1 #SUP: 3
76 -1 182 -1 3 -1 #SUP: 2
76 -1 182 -1 151 -1 #SUP: 2
76 -1 182 -1 161 -1 #SUP: 2
76 -1 200 -1 16 -1 #SUP: 2
76 -1 200 -1 64 -1 #SUP: 3
76 -1 200 -1 113 -1 #SUP: 2
76 -1 221 -1 497 -1 #SUP: 2
76 -1 221 -1 702 -1 #SUP: 2
76 -1 224 -1 76 -1 #SUP: 2
76 -1 224 -1 113 -1 #SUP: 2
76 -1 342 -1 113 -1 #SUP: 2
76 -1 417 -1 3 -1 #SUP: 3
76 -1 418 -1 113 -1 #SUP: 2
76 -1 453 -1 65 -1 #SUP: 2
76 -1 453 -1 113 -1 #SUP: 2
76 -1 484 -1 113 -1 #SUP: 2
76 -1 484 -1 1098 -1 #SUP: 2
76 -1 489 -1 3 -1 #SUP: 2
76 -1 497 -1 702 -1 #SUP: 2
76 -1 557 -1 10 -1 #SUP: 2
76 -1 557 -1 65 -1 #SUP: 4
76 -1 557 -1 113 -1 #SUP: 3
76 -1 557 -1 151 -1 #SUP: 2
76 -1 557 -1 182 -1 #SUP: 2
76 -1 557 -1 272 -1 #SUP: 2
76 -1 557 -1 702 -1 #SUP: 2
76 -1 634 -1 64 -1 #SUP: 2
76 -1 702 -1 7 -1 #SUP: 3
76 -1 702 -1 33 -1 #SUP: 2
76 -1 702 -1 50 -1 #SUP: 2
76 -1 702 -1 64 -1 #SUP: 3
76 -1 702 -1 76 -1 #SUP: 3
76 -1 702 -1 113 -1 #SUP: 4
76 -1 702 -1 702 -1 #SUP: 2
76 -1 1603 -1 76 -1 #SUP: 2
77 -1 113 -1 3 -1 #SUP: 2
81 -1 31 -1 64 -1 #SUP: 2
81 -1 31 -1 702 -1 #SUP: 2
81 -1 64 -1 31 -1 #SUP: 2
81 -1 64 -1 33 -1 #SUP: 2
81 -1 64 -1 50 -1 #SUP: 2
81 -1 64 -1 702 -1 #SUP: 2
81 -1 76 -1 702 -1 #SUP: 2
81 -1 702 -1 64 -1 #SUP: 2
113 -1 3 -1 2 -1 #SUP: 4
113 -1 3 -1 3 -1 #SUP: 2
113 -1 3 -1 10 -1 #SUP: 2
113 -1 3 -1 22 -1 #SUP: 6
113 -1 3 -1 32 -1 #SUP: 3
113 -1 3 -1 50 -1 #SUP: 2
113 -1 3 -1 64 -1 #SUP: 2
113 -1 3 -1 65 -1 #SUP: 2
113 -1 3 -1 66 -1 #SUP: 2
113 -1 3 -1 76 -1 #SUP: 2
113 -1 3 -1 113 -1 #SUP: 3
113 -1 3 -1 141 -1 #SUP: 2
113 -1 3 -1 151 -1 #SUP: 2
113 -1 3 -1 187 -1 #SUP: 2
113 -1 3 -1 3705 -1 #SUP: 3
113 -1 7 -1 3 -1 #SUP: 2
113 -1 7 -1 22 -1 #SUP: 2
113 -1 7 -1 187 -1 #SUP: 2
113 -1 7 -1 527 -1 #SUP: 2
113 -1 16 -1 113 -1 #SUP: 2
113 -1 22 -1 32 -1 #SUP: 2
113 -1 22 -1 151 -1 #SUP: 2
113 -1 22 -1 339 -1 #SUP: 2
113 -1 31 -1 65 -1 #SUP: 2
113 -1 31 -1 76 -1 #SUP: 3
113 -1 32 -1 3 -1 #SUP: 2
113 -1 32 -1 22 -1 #SUP: 2
113 -1 64 -1 22 -1 #SUP: 2
113 -1 64 -1 33 -1 #SUP: 2
113 -1 64 -1 149 -1 #SUP: 2
113 -1 65 -1 22 -1 #SUP: 2
113 -1 65 -1 113 -1 #SUP: 2
113 -1 66 -1 22 -1 #SUP: 3
113 -1 76 -1 2 -1 #SUP: 3
113 -1 76 -1 3 -1 #SUP: 3
113 -1 76 -1 16 -1 #SUP: 4
113 -1 76 -1 22 -1 #SUP: 2
113 -1 76 -1 64 -1 #SUP: 3
113 -1 76 -1 76 -1 #SUP: 3
113 -1 76 -1 77 -1 #SUP: 2
113 -1 76 -1 113 -1 #SUP: 7
113 -1 76 -1 141 -1 #SUP: 2
113 -1 76 -1 161 -1 #SUP: 2
113 -1 76 -1 200 -1 #SUP: 2
113 -1 76 -1 250 -1 #SUP: 2
113 -1 76 -1 634 -1 #SUP: 2
113 -1 77 -1 113 -1 #SUP: 2
113 -1 113 -1 3 -1 #SUP: 4
113 -1 113 -1 16 -1 #SUP: 3
113 -1 113 -1 22 -1 #SUP: 2
113 -1 113 -1 65 -1 #SUP: 2
113 -1 113 -1 76 -1 #SUP: 3
113 -1 113 -1 113 -1 #SUP: 2
113 -1 113 -1 141 -1 #SUP: 2
113 -1 113 -1 161 -1 #SUP: 2
113 -1 113 -1 200 -1 #SUP: 2
113 -1 113 -1 208 -1 #SUP: 2
113 -1 113 -1 250 -1 #SUP: 2
113 -1 124 -1 76 -1 #SUP: 2
113 -1 141 -1 3 -1 #SUP: 2
113 -1 141 -1 16 -1 #SUP: 3
113 -1 151 -1 2 -1 #SUP: 2
113 -1 151 -1 3 -1 #SUP: 3
113 -1 158 -1 7 -1 #SUP: 2
113 -1 158 -1 113 -1 #SUP: 2
113 -1 158 -1 131 -1 #SUP: 2
113 -1 158 -1 326 -1 #SUP: 2
113 -1 161 -1 16 -1 #SUP: 2
113 -1 194 -1 3 -1 #SUP: 3
113 -1 194 -1 113 -1 #SUP: 2
113 -1 208 -1 22 -1 #SUP: 2
113 -1 242 -1 113 -1 #SUP: 2
113 -1 272 -1 113 -1 #SUP: 2
113 -1 272 -1 242 -1 #SUP: 2
113 -1 326 -1 32 -1 #SUP: 2
113 -1 326 -1 76 -1 #SUP: 3
113 -1 326 -1 113 -1 #SUP: 2
113 -1 417 -1 3 -1 #SUP: 3
113 -1 417 -1 3705 -1 #SUP: 2
113 -1 500 -1 113 -1 #SUP: 2
113 -1 500 -1 702 -1 #SUP: 2
113 -1 504 -1 3 -1 #SUP: 2
113 -1 504 -1 417 -1 #SUP: 2
113 -1 504 -1 3705 -1 #SUP: 2
113 -1 702 -1 76 -1 #SUP: 2
113 -1 702 -1 113 -1 #SUP: 4
113 -1 702 -1 200 -1 #SUP: 2
113 -1 1098 -1 76 -1 #SUP: 2
115 -1 3733 -1 106 -1 #SUP: 2
141 -1 16 -1 3 -1 #SUP: 3
141 -1 16 -1 113 -1 #SUP: 2
141 -1 76 -1 3 -1 #SUP: 2
141 -1 113 -1 3 -1 #SUP: 2
148 -1 232 -1 232 -1 #SUP: 2
149 -1 22 -1 76 -1 #SUP: 2
149 -1 33 -1 76 -1 #SUP: 2
151 -1 3 -1 2 -1 #SUP: 2
151 -1 16 -1 613 -1 #SUP: 2
151 -1 113 -1 76 -1 #SUP: 2
151 -1 613 -1 22 -1 #SUP: 2
151 -1 613 -1 76 -1 #SUP: 2
151 -1 613 -1 113 -1 #SUP: 2
151 -1 702 -1 65 -1 #SUP: 2
151 -1 702 -1 76 -1 #SUP: 2
151 -1 702 -1 113 -1 #SUP: 2
151 -1 2130 -1 113 -1 #SUP: 2
151 -1 2130 -1 613 -1 #SUP: 2
156 -1 3 -1 151 -1 #SUP: 2
156 -1 64 -1 76 -1 #SUP: 2
156 -1 76 -1 3 -1 #SUP: 2
156 -1 76 -1 151 -1 #SUP: 2
156 -1 76 -1 182 -1 #SUP: 2
156 -1 182 -1 3 -1 #SUP: 2
156 -1 182 -1 151 -1 #SUP: 2
156 -1 930 -1 3 -1 #SUP: 2
156 -1 930 -1 76 -1 #SUP: 2
156 -1 930 -1 151 -1 #SUP: 2
156 -1 930 -1 182 -1 #SUP: 2
158 -1 41 -1 326 -1 #SUP: 2
158 -1 76 -1 113 -1 #SUP: 2
158 -1 113 -1 113 -1 #SUP: 2
160 -1 3 -1 46 -1 #SUP: 2
160 -1 64 -1 76 -1 #SUP: 2
160 -1 76 -1 113 -1 #SUP: 3
160 -1 113 -1 76 -1 #SUP: 2
161 -1 3 -1 22 -1 #SUP: 2
161 -1 3 -1 32 -1 #SUP: 2
161 -1 3 -1 65 -1 #SUP: 2
161 -1 32 -1 22 -1 #SUP: 2
182 -1 3 -1 113 -1 #SUP: 2
182 -1 3 -1 151 -1 #SUP: 2
182 -1 64 -1 463 -1 #SUP: 2
182 -1 76 -1 22 -1 #SUP: 2
182 -1 76 -1 113 -1 #SUP: 2
187 -1 22 -1 2 -1 #SUP: 2
187 -1 151 -1 65 -1 #SUP: 2
187 -1 151 -1 702 -1 #SUP: 2
187 -1 702 -1 65 -1 #SUP: 2
190 -1 3 -1 148 -1 #SUP: 2
194 -1 3 -1 141 -1 #SUP: 2
194 -1 22 -1 141 -1 #SUP: 2
200 -1 3 -1 76 -1 #SUP: 2
200 -1 64 -1 76 -1 #SUP: 2
200 -1 64 -1 182 -1 #SUP: 2
200 -1 76 -1 113 -1 #SUP: 2
200 -1 113 -1 76 -1 #SUP: 3
200 -1 113 -1 113 -1 #SUP: 2
213 -1 194 -1 417 -1 #SUP: 2
221 -1 497 -1 702 -1 #SUP: 2
221 -1 702 -1 76 -1 #SUP: 2
224 -1 3 -1 76 -1 #SUP: 3
224 -1 3 -1 113 -1 #SUP: 2
224 -1 22 -1 3 -1 #SUP: 2
224 -1 22 -1 149 -1 #SUP: 2
224 -1 22 -1 182 -1 #SUP: 2
224 -1 22 -1 394 -1 #SUP: 2
224 -1 76 -1 3 -1 #SUP: 2
224 -1 76 -1 22 -1 #SUP: 2
224 -1 76 -1 113 -1 #SUP: 3
224 -1 76 -1 149 -1 #SUP: 2
224 -1 76 -1 161 -1 #SUP: 2
224 -1 113 -1 76 -1 #SUP: 2
224 -1 113 -1 161 -1 #SUP: 2
224 -1 113 -1 702 -1 #SUP: 2
224 -1 151 -1 76 -1 #SUP: 2
224 -1 156 -1 76 -1 #SUP: 2
224 -1 156 -1 113 -1 #SUP: 2
224 -1 182 -1 3 -1 #SUP: 2
224 -1 702 -1 76 -1 #SUP: 2
224 -1 702 -1 113 -1 #SUP: 2
232 -1 64 -1 113 -1 #SUP: 2
242 -1 113 -1 3 -1 #SUP: 2
256 -1 33 -1 76 -1 #SUP: 2
256 -1 76 -1 2 -1 #SUP: 2
256 -1 76 -1 22 -1 #SUP: 2
272 -1 16 -1 113 -1 #SUP: 2
272 -1 113 -1 3 -1 #SUP: 2
272 -1 113 -1 702 -1 #SUP: 2
272 -1 242 -1 3 -1 #SUP: 2
272 -1 242 -1 113 -1 #SUP: 2
278 -1 10 -1 64 -1 #SUP: 2
278 -1 250 -1 64 -1 #SUP: 2
326 -1 76 -1 158 -1 #SUP: 2
326 -1 113 -1 76 -1 #SUP: 2
326 -1 155 -1 64 -1 #SUP: 2
342 -1 453 -1 10 -1 #SUP: 2
342 -1 453 -1 418 -1 #SUP: 2
356 -1 113 -1 113 -1 #SUP: 2
356 -1 113 -1 702 -1 #SUP: 2
356 -1 500 -1 113 -1 #SUP: 2
356 -1 500 -1 702 -1 #SUP: 2
356 -1 702 -1 113 -1 #SUP: 2
375 -1 7 -1 31 -1 #SUP: 2
375 -1 7 -1 50 -1 #SUP: 2
375 -1 7 -1 65 -1 #SUP: 2
375 -1 65 -1 31 -1 #SUP: 2
394 -1 417 -1 3 -1 #SUP: 2
417 -1 3 -1 3 -1 #SUP: 3
417 -1 3 -1 65 -1 #SUP: 2
417 -1 3 -1 113 -1 #SUP: 2
417 -1 3 -1 3705 -1 #SUP: 2
417 -1 7 -1 31 -1 #SUP: 2
417 -1 76 -1 3 -1 #SUP: 2
417 -1 141 -1 3 -1 #SUP: 2
418 -1 113 -1 22 -1 #SUP: 2
453 -1 418 -1 500 -1 #SUP: 2
463 -1 33 -1 312 -1 #SUP: 2
463 -1 77 -1 76 -1 #SUP: 2
484 -1 65 -1 76 -1 #SUP: 2
484 -1 113 -1 1098 -1 #SUP: 2
499 -1 702 -1 3 -1 #SUP: 2
500 -1 76 -1 113 -1 #SUP: 2
500 -1 702 -1 113 -1 #SUP: 2
504 -1 3 -1 3705 -1 #SUP: 2
504 -1 417 -1 3 -1 #SUP: 2
504 -1 417 -1 3705 -1 #SUP: 2
546 -1 7 -1 65 -1 #SUP: 2
557 -1 7 -1 3 -1 #SUP: 2
557 -1 65 -1 113 -1 #SUP: 2
557 -1 113 -1 272 -1 #SUP: 2
557 -1 113 -1 692 -1 #SUP: 2
613 -1 22 -1 22 -1 #SUP: 2
613 -1 76 -1 22 -1 #SUP: 2
613 -1 113 -1 76 -1 #SUP: 2
616 -1 278 -1 76 -1 #SUP: 2
652 -1 76 -1 113 -1 #SUP: 2
652 -1 648 -1 160 -1 #SUP: 2
702 -1 3 -1 10 -1 #SUP: 2
702 -1 3 -1 50 -1 #SUP: 2
702 -1 7 -1 7 -1 #SUP: 2
702 -1 7 -1 33 -1 #SUP: 2
702 -1 7 -1 76 -1 #SUP: 2
702 -1 7 -1 113 -1 #SUP: 2
702 -1 7 -1 151 -1 #SUP: 2
702 -1 10 -1 50 -1 #SUP: 2
702 -1 16 -1 113 -1 #SUP: 2
702 -1 33 -1 76 -1 #SUP: 4
702 -1 33 -1 113 -1 #SUP: 2
702 -1 50 -1 76 -1 #SUP: 3
702 -1 50 -1 484 -1 #SUP: 2
702 -1 50 -1 4209 -1 #SUP: 2
702 -1 64 -1 33 -1 #SUP: 2
702 -1 64 -1 50 -1 #SUP: 2
702 -1 64 -1 76 -1 #SUP: 3
702 -1 64 -1 113 -1 #SUP: 3
702 -1 64 -1 500 -1 #SUP: 2
702 -1 64 -1 634 -1 #SUP: 2
702 -1 64 -1 702 -1 #SUP: 2
702 -1 65 -1 76 -1 #SUP: 2
702 -1 76 -1 3 -1 #SUP: 2
702 -1 76 -1 7 -1 #SUP: 2
702 -1 76 -1 64 -1 #SUP: 2
702 -1 76 -1 65 -1 #SUP: 2
702 -1 76 -1 113 -1 #SUP: 4
702 -1 76 -1 151 -1 #SUP: 2
702 -1 76 -1 484 -1 #SUP: 2
702 -1 76 -1 557 -1 #SUP: 3
702 -1 76 -1 702 -1 #SUP: 3
702 -1 81 -1 64 -1 #SUP: 2
702 -1 113 -1 3 -1 #SUP: 3
702 -1 113 -1 10 -1 #SUP: 2
702 -1 113 -1 64 -1 #SUP: 3
702 -1 113 -1 76 -1 #SUP: 6
702 -1 113 -1 113 -1 #SUP: 3
702 -1 113 -1 200 -1 #SUP: 2
702 -1 113 -1 702 -1 #SUP: 2
702 -1 453 -1 113 -1 #SUP: 2
702 -1 500 -1 113 -1 #SUP: 2
702 -1 500 -1 702 -1 #SUP: 2
702 -1 557 -1 65 -1 #SUP: 2
702 -1 634 -1 64 -1 #SUP: 2
702 -1 702 -1 7 -1 #SUP: 3
702 -1 702 -1 113 -1 #SUP: 3
702 -1 2897 -1 33 -1 #SUP: 2
702 -1 2897 -1 76 -1 #SUP: 2
702 -1 2897 -1 113 -1 #SUP: 2
702 -1 4209 -1 76 -1 #SUP: 2
714 -1 80 -1 64 -1 #SUP: 2
747 -1 31 -1 22 -1 #SUP: 2
930 -1 3 -1 76 -1 #SUP: 2
930 -1 3 -1 113 -1 #SUP: 2
930 -1 3 -1 151 -1 #SUP: 2
930 -1 22 -1 3 -1 #SUP: 2
930 -1 76 -1 3 -1 #SUP: 3
930 -1 76 -1 22 -1 #SUP: 2
930 -1 76 -1 113 -1 #SUP: 3
930 -1 76 -1 151 -1 #SUP: 2
930 -1 76 -1 182 -1 #SUP: 2
930 -1 76 -1 375 -1 #SUP: 2
930 -1 113 -1 3 -1 #SUP: 2
930 -1 113 -1 417 -1 #SUP: 2
930 -1 182 -1 3 -1 #SUP: 2
930 -1 182 -1 151 -1 #SUP: 2
1098 -1 76 -1 221 -1 #SUP: 2
1098 -1 76 -1 497 -1 #SUP: 2
1098 -1 76 -1 702 -1 #SUP: 2
1098 -1 221 -1 497 -1 #SUP: 2
1098 -1 221 -1 702 -1 #SUP: 2
1098 -1 497 -1 702 -1 #SUP: 2
1101 -1 76 -1 7 -1 #SUP: 2
1101 -1 76 -1 22 -1 #SUP: 2
1101 -1 76 -1 64 -1 #SUP: 2
1101 -1 76 -1 113 -1 #SUP: 2
1101 -1 76 -1 702 -1 #SUP: 2
1101 -1 702 -1 702 -1 #SUP: 2
1498 -1 702 -1 46 -1 #SUP: 2
1498 -1 702 -1 50 -1 #SUP: 2
1603 -1 76 -1 375 -1 #SUP: 2
2072 -1 160 -1 64 -1 #SUP: 2
2130 -1 113 -1 76 -1 #SUP: 2
2130 -1 613 -1 76 -1 #SUP: 2
2130 -1 613 -1 113 -1 #SUP: 2
2897 -1 33 -1 76 -1 #SUP: 2
2897 -1 33 -1 113 -1 #SUP: 2
2897 -1 113 -1 76 -1 #SUP: 2
2 -1 224 -1 3 -1 76 -1 #SUP: 2
2 -1 702 -1 76 -1 557 -1 #SUP: 2
3 -1 32 -1 113 -1 3 -1 #SUP: 2
3 -1 65 -1 32 -1 22 -1 #SUP: 2
3 -1 76 -1 3 -1 76 -1 #SUP: 2
3 -1 76 -1 113 -1 16 -1 #SUP: 2
3 -1 652 -1 648 -1 160 -1 #SUP: 2
15 -1 32 -1 213 -1 22 -1 #SUP: 2
16 -1 7 -1 702 -1 76 -1 #SUP: 2
22 -1 158 -1 41 -1 326 -1 #SUP: 2
22 -1 394 -1 417 -1 3 -1 #SUP: 2
31 -1 76 -1 31 -1 305 -1 #SUP: 2
32 -1 930 -1 76 -1 22 -1 #SUP: 2
50 -1 76 -1 113 -1 1098 -1 #SUP: 2
50 -1 76 -1 484 -1 113 -1 #SUP: 2
50 -1 76 -1 484 -1 1098 -1 #SUP: 2
50 -1 484 -1 113 -1 1098 -1 #SUP: 2
64 -1 22 -1 201 -1 511 -1 #SUP: 2
64 -1 113 -1 76 -1 113 -1 #SUP: 2
64 -1 113 -1 76 -1 634 -1 #SUP: 2
65 -1 76 -1 221 -1 497 -1 #SUP: 2
65 -1 76 -1 221 -1 702 -1 #SUP: 2
65 -1 76 -1 497 -1 702 -1 #SUP: 2
65 -1 113 -1 3 -1 22 -1 #SUP: 2
65 -1 113 -1 3 -1 32 -1 #SUP: 2
65 -1 221 -1 497 -1 702 -1 #SUP: 2
76 -1 2 -1 16 -1 7 -1 #SUP: 2
76 -1 3 -1 151 -1 76 -1 #SUP: 2
76 -1 3 -1 151 -1 113 -1 #SUP: 2
76 -1 10 -1 418 -1 113 -1 #SUP: 2
76 -1 22 -1 3 -1 3 -1 #SUP: 2
76 -1 22 -1 76 -1 64 -1 #SUP: 2
76 -1 76 -1 113 -1 16 -1 #SUP: 2
76 -1 76 -1 113 -1 161 -1 #SUP: 2
76 -1 76 -1 161 -1 16 -1 #SUP: 2
76 -1 76 -1 200 -1 64 -1 #SUP: 2
76 -1 113 -1 113 -1 76 -1 #SUP: 2
76 -1 113 -1 113 -1 208 -1 #SUP: 2
76 -1 113 -1 141 -1 16 -1 #SUP: 2
76 -1 113 -1 161 -1 16 -1 #SUP: 2
76 -1 113 -1 417 -1 3 -1 #SUP: 2
76 -1 182 -1 3 -1 151 -1 #SUP: 2
76 -1 221 -1 497 -1 702 -1 #SUP: 2
76 -1 484 -1 113 -1 1098 -1 #SUP: 2
76 -1 557 -1 113 -1 272 -1 #SUP: 2
76 -1 702 -1 702 -1 113 -1 #SUP: 2
81 -1 31 -1 702 -1 64 -1 #SUP: 2
113 -1 3 -1 22 -1 32 -1 #SUP: 2
113 -1 3 -1 32 -1 22 -1 #SUP: 2
113 -1 76 -1 3 -1 64 -1 #SUP: 2
113 -1 76 -1 113 -1 16 -1 #SUP: 3
113 -1 76 -1 113 -1 250 -1 #SUP: 2
113 -1 76 -1 141 -1 16 -1 #SUP: 2
113 -1 113 -1 3 -1 22 -1 #SUP: 2
113 -1 113 -1 76 -1 113 -1 #SUP: 2
113 -1 151 -1 3 -1 2 -1 #SUP: 2
113 -1 272 -1 242 -1 113 -1 #SUP: 2
113 -1 326 -1 113 -1 76 -1 #SUP: 2
113 -1 417 -1 3 -1 3705 -1 #SUP: 2
113 -1 504 -1 3 -1 3705 -1 #SUP: 2
113 -1 504 -1 417 -1 3 -1 #SUP: 2
113 -1 504 -1 417 -1 3705 -1 #SUP: 2
113 -1 702 -1 113 -1 200 -1 #SUP: 2
141 -1 16 -1 113 -1 3 -1 #SUP: 2
151 -1 2130 -1 613 -1 113 -1 #SUP: 2
156 -1 76 -1 3 -1 151 -1 #SUP: 2
156 -1 76 -1 182 -1 3 -1 #SUP: 2
156 -1 76 -1 182 -1 151 -1 #SUP: 2
156 -1 182 -1 3 -1 151 -1 #SUP: 2
156 -1 930 -1 3 -1 151 -1 #SUP: 2
156 -1 930 -1 76 -1 3 -1 #SUP: 2
156 -1 930 -1 76 -1 151 -1 #SUP: 2
156 -1 930 -1 76 -1 182 -1 #SUP: 2
156 -1 930 -1 182 -1 3 -1 #SUP: 2
156 -1 930 -1 182 -1 151 -1 #SUP: 2
161 -1 3 -1 32 -1 22 -1 #SUP: 2
187 -1 151 -1 702 -1 65 -1 #SUP: 2
200 -1 113 -1 76 -1 113 -1 #SUP: 2
224 -1 3 -1 76 -1 113 -1 #SUP: 2
224 -1 702 -1 113 -1 76 -1 #SUP: 2
272 -1 242 -1 113 -1 3 -1 #SUP: 2
356 -1 113 -1 702 -1 113 -1 #SUP: 2
356 -1 500 -1 702 -1 113 -1 #SUP: 2
375 -1 7 -1 65 -1 31 -1 #SUP: 2
504 -1 417 -1 3 -1 3705 -1 #SUP: 2
702 -1 3 -1 10 -1 50 -1 #SUP: 2
702 -1 7 -1 33 -1 76 -1 #SUP: 2
702 -1 33 -1 113 -1 76 -1 #SUP: 2
702 -1 50 -1 76 -1 484 -1 #SUP: 2
702 -1 50 -1 4209 -1 76 -1 #SUP: 2
702 -1 64 -1 33 -1 76 -1 #SUP: 2
702 -1 64 -1 113 -1 76 -1 #SUP: 2
702 -1 76 -1 7 -1 7 -1 #SUP: 2
702 -1 76 -1 557 -1 65 -1 #SUP: 2
702 -1 76 -1 702 -1 7 -1 #SUP: 2
702 -1 113 -1 76 -1 3 -1 #SUP: 2
702 -1 113 -1 76 -1 64 -1 #SUP: 2
702 -1 113 -1 76 -1 113 -1 #SUP: 2
702 -1 2897 -1 33 -1 76 -1 #SUP: 2
702 -1 2897 -1 33 -1 113 -1 #SUP: 2
702 -1 2897 -1 113 -1 76 -1 #SUP: 2
930 -1 3 -1 76 -1 113 -1 #SUP: 2
930 -1 76 -1 3 -1 151 -1 #SUP: 2
930 -1 76 -1 22 -1 3 -1 #SUP: 2
930 -1 76 -1 182 -1 3 -1 #SUP: 2
930 -1 76 -1 182 -1 151 -1 #SUP: 2
930 -1 182 -1 3 -1 151 -1 #SUP: 2
1098 -1 76 -1 221 -1 497 -1 #SUP: 2
1098 -1 76 -1 221 -1 702 -1 #SUP: 2
1098 -1 76 -1 497 -1 702 -1 #SUP: 2
1098 -1 221 -1 497 -1 702 -1 #SUP: 2
1101 -1 76 -1 702 -1 702 -1 #SUP: 2
2130 -1 613 -1 113 -1 76 -1 #SUP: 2
2897 -1 33 -1 113 -1 76 -1 #SUP: 2
50 -1 76 -1 484 -1 113 -1 1098 -1 #SUP: 2
65 -1 76 -1 221 -1 497 -1 702 -1 #SUP: 2
76 -1 76 -1 113 -1 161 -1 16 -1 #SUP: 2
113 -1 504 -1 417 -1 3 -1 3705 -1 #SUP: 2
156 -1 76 -1 182 -1 3 -1 151 -1 #SUP: 2
156 -1 930 -1 76 -1 3 -1 151 -1 #SUP: 2
156 -1 930 -1 76 -1 182 -1 3 -1 #SUP: 2
156 -1 930 -1 76 -1 182 -1 151 -1 #SUP: 2
156 -1 930 -1 182 -1 3 -1 151 -1 #SUP: 2
702 -1 2897 -1 33 -1 113 -1 76 -1 #SUP: 2
930 -1 76 -1 182 -1 3 -1 151 -1 #SUP: 2
1098 -1 76 -1 221 -1 497 -1 702 -1 #SUP: 2
156 -1 930 -1 76 -1 182 -1 3 -1 151 -1 #SUP: 2
