2 -1 #SUP: 29
3 -1 #SUP: 31
7 -1 #SUP: 13
10 -1 #SUP: 22
16 -1 #SUP: 8
22 -1 #SUP: 38
27 -1 #SUP: 9
29 -1 #SUP: 14
30 -1 #SUP: 6
31 -1 #SUP: 17
32 -1 #SUP: 16
33 -1 #SUP: 10
41 -1 #SUP: 34
46 -1 #SUP: 3
47 -1 #SUP: 3
50 -1 #SUP: 14
52 -1 #SUP: 3
54 -1 #SUP: 2
64 -1 #SUP: 46
65 -1 #SUP: 25
66 -1 #SUP: 4
69 -1 #SUP: 8
72 -1 #SUP: 2
76 -1 #SUP: 98
77 -1 #SUP: 5
81 -1 #SUP: 4
94 -1 #SUP: 2
113 -1 #SUP: 40
115 -1 #SUP: 5
118 -1 #SUP: 8
121 -1 #SUP: 2
123 -1 #SUP: 2
124 -1 #SUP: 5
125 -1 #SUP: 2
131 -1 #SUP: 5
137 -1 #SUP: 2
139 -1 #SUP: 2
141 -1 #SUP: 18
144 -1 #SUP: 5
146 -1 #SUP: 5
148 -1 #SUP: 6
149 -1 #SUP: 9
150 -1 #SUP: 3
151 -1 #SUP: 15
153 -1 #SUP: 3
154 -1 #SUP: 4
155 -1 #SUP: 3
156 -1 #SUP: 3
158 -1 #SUP: 2
160 -1 #SUP: 6
161 -1 #SUP: 3
162 -1 #SUP: 2
163 -1 #SUP: 4
165 -1 #SUP: 3
168 -1 #SUP: 4
179 -1 #SUP: 3
182 -1 #SUP: 17
187 -1 #SUP: 4
189 -1 #SUP: 5
190 -1 #SUP: 4
191 -1 #SUP: 4
194 -1 #SUP: 8
195 -1 #SUP: 2
200 -1 #SUP: 4
208 -1 #SUP: 4
211 -1 #SUP: 2
213 -1 #SUP: 6
220 -1 #SUP: 2
221 -1 #SUP: 2
224 -1 #SUP: 13
232 -1 #SUP: 2
234 -1 #SUP: 5
236 -1 #SUP: 7
242 -1 #SUP: 2
244 -1 #SUP: 6
247 -1 #SUP: 3
248 -1 #SUP: 2
250 -1 #SUP: 9
256 -1 #SUP: 4
264 -1 #SUP: 5
268 -1 #SUP: 4
272 -1 #SUP: 2
273 -1 #SUP: 2
278 -1 #SUP: 7
307 -1 #SUP: 2
312 -1 #SUP: 8
326 -1 #SUP: 2
339 -1 #SUP: 2
340 -1 #SUP: 12
342 -1 #SUP: 8
352 -1 #SUP: 2
356 -1 #SUP: 2
364 -1 #SUP: 2
373 -1 #SUP: 2
375 -1 #SUP: 2
380 -1 #SUP: 2
382 -1 #SUP: 2
385 -1 #SUP: 2
394 -1 #SUP: 3
400 -1 #SUP: 5
431 -1 #SUP: 2
441 -1 #SUP: 2
445 -1 #SUP: 2
463 -1 #SUP: 7
469 -1 #SUP: 7
484 -1 #SUP: 5
489 -1 #SUP: 2
493 -1 #SUP: 4
497 -1 #SUP: 2
504 -1 #SUP: 4
506 -1 #SUP: 4
510 -1 #SUP: 2
520 -1 #SUP: 2
525 -1 #SUP: 2
527 -1 #SUP: 2
548 -1 #SUP: 2
557 -1 #SUP: 18
561 -1 #SUP: 2
562 -1 #SUP: 4
584 -1 #SUP: 2
588 -1 #SUP: 2
593 -1 #SUP: 3
602 -1 #SUP: 3
603 -1 #SUP: 4
607 -1 #SUP: 2
635 -1 #SUP: 4
641 -1 #SUP: 2
644 -1 #SUP: 4
675 -1 #SUP: 2
676 -1 #SUP: 2
686 -1 #SUP: 3
699 -1 #SUP: 2
703 -1 #SUP: 2
728 -1 #SUP: 2
737 -1 #SUP: 2
747 -1 #SUP: 3
758 -1 #SUP: 2
771 -1 #SUP: 3
786 -1 #SUP: 10
814 -1 #SUP: 3
826 -1 #SUP: 2
836 -1 #SUP: 2
847 -1 #SUP: 2
860 -1 #SUP: 2
929 -1 #SUP: 2
976 -1 #SUP: 2
1046 -1 #SUP: 2
1053 -1 #SUP: 2
1075 -1 #SUP: 3
1089 -1 #SUP: 2
1099 -1 #SUP: 4
1101 -1 #SUP: 2
1128 -1 #SUP: 2
1193 -1 #SUP: 2
1198 -1 #SUP: 2
1286 -1 #SUP: 4
1307 -1 #SUP: 2
1315 -1 #SUP: 2
1426 -1 #SUP: 5
1449 -1 #SUP: 2
1474 -1 #SUP: 3
1511 -1 #SUP: 2
1543 -1 #SUP: 2
1588 -1 #SUP: 2
1736 -1 #SUP: 2
1861 -1 #SUP: 4
2015 -1 #SUP: 2
2054 -1 #SUP: 2
2381 -1 #SUP: 2
2558 -1 #SUP: 2
2595 -1 #SUP: 3
2719 -1 #SUP: 2
2880 -1 #SUP: 2
2888 -1 #SUP: 2
2915 -1 #SUP: 2
3310 -1 #SUP: 3
4099 -1 #SUP: 2
5061 -1 #SUP: 2
5155 -1 #SUP: 2
5179 -1 #SUP: 2
5474 -1 #SUP: 3
6219 -1 #SUP: 3
6501 -1 #SUP: 2
7217 -1 #SUP: 2
8863 -1 #SUP: 2
8864 -1 #SUP: 2
10017 -1 #SUP: 2
10361 -1 #SUP: 2
10486 -1 #SUP: 2
11945 -1 #SUP: 3
32547 -1 #SUP: 4
40915 -1 #SUP: 4
2 -1 2 -1 #SUP: 2
2 -1 3 -1 #SUP: 4
2 -1 10 -1 #SUP: 4
2 -1 22 -1 #SUP: 3
2 -1 29 -1 #SUP: 2
2 -1 32 -1 #SUP: 2
2 -1 33 -1 #SUP: 2
2 -1 41 -1 #SUP: 7
2 -1 64 -1 #SUP: 5
2 -1 65 -1 #SUP: 3
2 -1 76 -1 #SUP: 8
2 -1 121 -1 #SUP: 2
2 -1 151 -1 #SUP: 2
2 -1 154 -1 #SUP: 2
2 -1 182 -1 #SUP: 2
2 -1 195 -1 #SUP: 2
2 -1 224 -1 #SUP: 2
2 -1 342 -1 #SUP: 2
2 -1 506 -1 #SUP: 2
2 -1 826 -1 #SUP: 2
2 -1 860 -1 #SUP: 2
3 -1 2 -1 #SUP: 4
3 -1 3 -1 #SUP: 4
3 -1 10 -1 #SUP: 4
3 -1 22 -1 #SUP: 3
3 -1 27 -1 #SUP: 3
3 -1 29 -1 #SUP: 2
3 -1 31 -1 #SUP: 2
3 -1 32 -1 #SUP: 3
3 -1 41 -1 #SUP: 4
3 -1 54 -1 #SUP: 2
3 -1 64 -1 #SUP: 7
3 -1 65 -1 #SUP: 9
3 -1 76 -1 #SUP: 9
3 -1 77 -1 #SUP: 2
3 -1 113 -1 #SUP: 4
3 -1 118 -1 #SUP: 2
3 -1 141 -1 #SUP: 3
3 -1 148 -1 #SUP: 2
3 -1 151 -1 #SUP: 5
3 -1 224 -1 #SUP: 4
3 -1 244 -1 #SUP: 2
3 -1 247 -1 #SUP: 2
3 -1 557 -1 #SUP: 3
3 -1 1426 -1 #SUP: 2
7 -1 3 -1 #SUP: 2
7 -1 64 -1 #SUP: 2
7 -1 65 -1 #SUP: 3
7 -1 76 -1 #SUP: 6
7 -1 141 -1 #SUP: 3
7 -1 160 -1 #SUP: 2
7 -1 182 -1 #SUP: 2
7 -1 557 -1 #SUP: 3
10 -1 2 -1 #SUP: 3
10 -1 3 -1 #SUP: 3
10 -1 22 -1 #SUP: 7
10 -1 29 -1 #SUP: 3
10 -1 32 -1 #SUP: 3
10 -1 41 -1 #SUP: 3
10 -1 50 -1 #SUP: 2
10 -1 52 -1 #SUP: 2
10 -1 64 -1 #SUP: 5
10 -1 65 -1 #SUP: 5
10 -1 76 -1 #SUP: 8
10 -1 77 -1 #SUP: 2
10 -1 148 -1 #SUP: 2
10 -1 151 -1 #SUP: 3
10 -1 155 -1 #SUP: 2
10 -1 224 -1 #SUP: 2
10 -1 312 -1 #SUP: 3
10 -1 557 -1 #SUP: 4
10 -1 1286 -1 #SUP: 2
10 -1 2015 -1 #SUP: 2
16 -1 3 -1 #SUP: 2
16 -1 27 -1 #SUP: 2
16 -1 64 -1 #SUP: 2
22 -1 2 -1 #SUP: 3
22 -1 3 -1 #SUP: 6
22 -1 10 -1 #SUP: 5
22 -1 22 -1 #SUP: 3
22 -1 31 -1 #SUP: 3
22 -1 32 -1 #SUP: 7
22 -1 33 -1 #SUP: 3
22 -1 50 -1 #SUP: 2
22 -1 64 -1 #SUP: 6
22 -1 65 -1 #SUP: 4
22 -1 69 -1 #SUP: 2
22 -1 76 -1 #SUP: 13
22 -1 113 -1 #SUP: 8
22 -1 144 -1 #SUP: 2
22 -1 148 -1 #SUP: 2
22 -1 149 -1 #SUP: 2
22 -1 151 -1 #SUP: 2
22 -1 153 -1 #SUP: 2
22 -1 224 -1 #SUP: 3
22 -1 250 -1 #SUP: 2
22 -1 340 -1 #SUP: 2
22 -1 394 -1 #SUP: 2
22 -1 400 -1 #SUP: 2
22 -1 463 -1 #SUP: 3
22 -1 506 -1 #SUP: 2
22 -1 557 -1 #SUP: 2
22 -1 1286 -1 #SUP: 3
22 -1 1426 -1 #SUP: 2
22 -1 2015 -1 #SUP: 2
22 -1 5474 -1 #SUP: 2
27 -1 3 -1 #SUP: 2
27 -1 7 -1 #SUP: 3
27 -1 41 -1 #SUP: 4
27 -1 64 -1 #SUP: 2
27 -1 141 -1 #SUP: 3
27 -1 236 -1 #SUP: 2
27 -1 786 -1 #SUP: 2
27 -1 1474 -1 #SUP: 2
29 -1 2 -1 #SUP: 4
29 -1 3 -1 #SUP: 2
29 -1 31 -1 #SUP: 2
29 -1 41 -1 #SUP: 4
29 -1 52 -1 #SUP: 2
29 -1 76 -1 #SUP: 2
29 -1 3310 -1 #SUP: 2
30 -1 30 -1 #SUP: 3
30 -1 146 -1 #SUP: 2
30 -1 603 -1 #SUP: 2
30 -1 1426 -1 #SUP: 2
30 -1 5179 -1 #SUP: 2
30 -1 7217 -1 #SUP: 2
30 -1 8863 -1 #SUP: 2
30 -1 8864 -1 #SUP: 2
30 -1 32547 -1 #SUP: 2
31 -1 2 -1 #SUP: 3
31 -1 22 -1 #SUP: 3
31 -1 29 -1 #SUP: 2
31 -1 32 -1 #SUP: 3
31 -1 64 -1 #SUP: 2
31 -1 65 -1 #SUP: 2
31 -1 76 -1 #SUP: 5
31 -1 125 -1 #SUP: 2
31 -1 1426 -1 #SUP: 2
31 -1 3310 -1 #SUP: 2
32 -1 22 -1 #SUP: 5
32 -1 64 -1 #SUP: 3
32 -1 65 -1 #SUP: 3
32 -1 76 -1 #SUP: 4
32 -1 163 -1 #SUP: 2
33 -1 3 -1 #SUP: 2
33 -1 22 -1 #SUP: 4
33 -1 27 -1 #SUP: 2
33 -1 76 -1 #SUP: 3
33 -1 224 -1 #SUP: 2
41 -1 3 -1 #SUP: 2
41 -1 7 -1 #SUP: 4
41 -1 10 -1 #SUP: 2
41 -1 22 -1 #SUP: 2
41 -1 29 -1 #SUP: 5
41 -1 31 -1 #SUP: 3
41 -1 32 -1 #SUP: 3
41 -1 41 -1 #SUP: 7
41 -1 64 -1 #SUP: 4
41 -1 65 -1 #SUP: 6
41 -1 76 -1 #SUP: 6
41 -1 124 -1 #SUP: 2
41 -1 151 -1 #SUP: 5
41 -1 154 -1 #SUP: 2
41 -1 156 -1 #SUP: 2
41 -1 160 -1 #SUP: 2
41 -1 208 -1 #SUP: 3
41 -1 224 -1 #SUP: 3
41 -1 256 -1 #SUP: 2
41 -1 340 -1 #SUP: 2
41 -1 786 -1 #SUP: 5
41 -1 836 -1 #SUP: 2
41 -1 1474 -1 #SUP: 2
50 -1 3 -1 #SUP: 2
50 -1 22 -1 #SUP: 2
50 -1 31 -1 #SUP: 2
50 -1 41 -1 #SUP: 3
50 -1 50 -1 #SUP: 2
50 -1 64 -1 #SUP: 4
50 -1 69 -1 #SUP: 2
50 -1 76 -1 #SUP: 8
50 -1 113 -1 #SUP: 4
50 -1 115 -1 #SUP: 2
50 -1 141 -1 #SUP: 2
50 -1 156 -1 #SUP: 2
50 -1 182 -1 #SUP: 2
50 -1 224 -1 #SUP: 2
50 -1 557 -1 #SUP: 4
50 -1 2915 -1 #SUP: 2
52 -1 3 -1 #SUP: 2
64 -1 2 -1 #SUP: 8
64 -1 3 -1 #SUP: 3
64 -1 10 -1 #SUP: 2
64 -1 22 -1 #SUP: 5
64 -1 29 -1 #SUP: 6
64 -1 31 -1 #SUP: 5
64 -1 32 -1 #SUP: 2
64 -1 33 -1 #SUP: 3
64 -1 41 -1 #SUP: 4
64 -1 46 -1 #SUP: 3
64 -1 50 -1 #SUP: 3
64 -1 64 -1 #SUP: 8
64 -1 65 -1 #SUP: 5
64 -1 76 -1 #SUP: 14
64 -1 113 -1 #SUP: 4
64 -1 141 -1 #SUP: 2
64 -1 148 -1 #SUP: 2
64 -1 149 -1 #SUP: 3
64 -1 151 -1 #SUP: 3
64 -1 153 -1 #SUP: 2
64 -1 160 -1 #SUP: 2
64 -1 165 -1 #SUP: 2
64 -1 182 -1 #SUP: 5
64 -1 187 -1 #SUP: 4
64 -1 190 -1 #SUP: 2
64 -1 213 -1 #SUP: 2
64 -1 224 -1 #SUP: 4
64 -1 234 -1 #SUP: 2
64 -1 278 -1 #SUP: 3
64 -1 441 -1 #SUP: 2
64 -1 469 -1 #SUP: 2
64 -1 510 -1 #SUP: 2
64 -1 557 -1 #SUP: 6
64 -1 607 -1 #SUP: 2
64 -1 1099 -1 #SUP: 2
65 -1 2 -1 #SUP: 2
65 -1 3 -1 #SUP: 4
65 -1 10 -1 #SUP: 2
65 -1 22 -1 #SUP: 5
65 -1 32 -1 #SUP: 3
65 -1 41 -1 #SUP: 4
65 -1 64 -1 #SUP: 4
65 -1 65 -1 #SUP: 3
65 -1 76 -1 #SUP: 7
65 -1 77 -1 #SUP: 3
65 -1 148 -1 #SUP: 2
65 -1 150 -1 #SUP: 2
65 -1 151 -1 #SUP: 4
65 -1 153 -1 #SUP: 2
65 -1 162 -1 #SUP: 2
65 -1 224 -1 #SUP: 3
65 -1 394 -1 #SUP: 2
65 -1 2880 -1 #SUP: 2
69 -1 2 -1 #SUP: 3
69 -1 16 -1 #SUP: 2
69 -1 64 -1 #SUP: 2
69 -1 113 -1 #SUP: 2
69 -1 484 -1 #SUP: 2
76 -1 2 -1 #SUP: 14
76 -1 3 -1 #SUP: 6
76 -1 7 -1 #SUP: 3
76 -1 10 -1 #SUP: 10
76 -1 16 -1 #SUP: 4
76 -1 22 -1 #SUP: 13
76 -1 27 -1 #SUP: 3
76 -1 29 -1 #SUP: 5
76 -1 31 -1 #SUP: 6
76 -1 32 -1 #SUP: 6
76 -1 33 -1 #SUP: 2
76 -1 41 -1 #SUP: 7
76 -1 50 -1 #SUP: 3
76 -1 64 -1 #SUP: 15
76 -1 65 -1 #SUP: 7
76 -1 66 -1 #SUP: 3
76 -1 69 -1 #SUP: 3
76 -1 76 -1 #SUP: 17
76 -1 94 -1 #SUP: 2
76 -1 113 -1 #SUP: 13
76 -1 115 -1 #SUP: 2
76 -1 118 -1 #SUP: 4
76 -1 124 -1 #SUP: 2
76 -1 131 -1 #SUP: 2
76 -1 141 -1 #SUP: 6
76 -1 144 -1 #SUP: 2
76 -1 146 -1 #SUP: 2
76 -1 148 -1 #SUP: 2
76 -1 149 -1 #SUP: 3
76 -1 151 -1 #SUP: 4
76 -1 162 -1 #SUP: 2
76 -1 163 -1 #SUP: 2
76 -1 182 -1 #SUP: 7
76 -1 187 -1 #SUP: 3
76 -1 189 -1 #SUP: 3
76 -1 190 -1 #SUP: 2
76 -1 191 -1 #SUP: 2
76 -1 194 -1 #SUP: 3
76 -1 195 -1 #SUP: 2
76 -1 200 -1 #SUP: 2
76 -1 208 -1 #SUP: 2
76 -1 213 -1 #SUP: 2
76 -1 221 -1 #SUP: 2
76 -1 224 -1 #SUP: 5
76 -1 242 -1 #SUP: 2
76 -1 264 -1 #SUP: 3
76 -1 278 -1 #SUP: 3
76 -1 312 -1 #SUP: 2
76 -1 326 -1 #SUP: 2
76 -1 340 -1 #SUP: 3
76 -1 342 -1 #SUP: 3
76 -1 382 -1 #SUP: 2
76 -1 441 -1 #SUP: 2
76 -1 463 -1 #SUP: 4
76 -1 469 -1 #SUP: 4
76 -1 484 -1 #SUP: 5
76 -1 504 -1 #SUP: 4
76 -1 557 -1 #SUP: 15
76 -1 561 -1 #SUP: 2
76 -1 584 -1 #SUP: 2
76 -1 602 -1 #SUP: 2
76 -1 644 -1 #SUP: 4
76 -1 703 -1 #SUP: 2
76 -1 747 -1 #SUP: 2
76 -1 1426 -1 #SUP: 3
76 -1 1736 -1 #SUP: 2
76 -1 2595 -1 #SUP: 3
76 -1 3310 -1 #SUP: 2
76 -1 10017 -1 #SUP: 2
77 -1 10 -1 #SUP: 2
77 -1 41 -1 #SUP: 2
77 -1 65 -1 #SUP: 2
77 -1 5061 -1 #SUP: 2
81 -1 2 -1 #SUP: 2
81 -1 64 -1 #SUP: 3
81 -1 76 -1 #SUP: 4
94 -1 76 -1 #SUP: 2
113 -1 2 -1 #SUP: 4
113 -1 3 -1 #SUP: 5
113 -1 7 -1 #SUP: 5
113 -1 10 -1 #SUP: 3
113 -1 22 -1 #SUP: 8
113 -1 29 -1 #SUP: 3
113 -1 31 -1 #SUP: 3
113 -1 32 -1 #SUP: 3
113 -1 50 -1 #SUP: 5
113 -1 64 -1 #SUP: 16
113 -1 76 -1 #SUP: 15
113 -1 113 -1 #SUP: 5
113 -1 118 -1 #SUP: 4
113 -1 124 -1 #SUP: 2
113 -1 141 -1 #SUP: 5
113 -1 144 -1 #SUP: 2
113 -1 148 -1 #SUP: 2
113 -1 151 -1 #SUP: 4
113 -1 155 -1 #SUP: 2
113 -1 168 -1 #SUP: 2
113 -1 182 -1 #SUP: 6
113 -1 189 -1 #SUP: 2
113 -1 194 -1 #SUP: 6
113 -1 213 -1 #SUP: 2
113 -1 224 -1 #SUP: 3
113 -1 236 -1 #SUP: 2
113 -1 242 -1 #SUP: 2
113 -1 268 -1 #SUP: 2
113 -1 278 -1 #SUP: 3
113 -1 340 -1 #SUP: 5
113 -1 463 -1 #SUP: 2
113 -1 469 -1 #SUP: 2
113 -1 493 -1 #SUP: 2
113 -1 506 -1 #SUP: 2
113 -1 557 -1 #SUP: 5
113 -1 607 -1 #SUP: 2
113 -1 675 -1 #SUP: 2
113 -1 786 -1 #SUP: 2
113 -1 860 -1 #SUP: 2
113 -1 1099 -1 #SUP: 3
113 -1 2915 -1 #SUP: 2
115 -1 76 -1 #SUP: 3
118 -1 29 -1 #SUP: 3
118 -1 31 -1 #SUP: 2
118 -1 64 -1 #SUP: 4
118 -1 76 -1 #SUP: 2
118 -1 168 -1 #SUP: 2
118 -1 557 -1 #SUP: 2
124 -1 22 -1 #SUP: 2
124 -1 65 -1 #SUP: 3
124 -1 76 -1 #SUP: 2
131 -1 22 -1 #SUP: 2
131 -1 33 -1 #SUP: 2
131 -1 76 -1 #SUP: 2
141 -1 2 -1 #SUP: 3
141 -1 7 -1 #SUP: 2
141 -1 22 -1 #SUP: 4
141 -1 29 -1 #SUP: 2
141 -1 33 -1 #SUP: 2
141 -1 41 -1 #SUP: 9
141 -1 64 -1 #SUP: 3
141 -1 65 -1 #SUP: 2
141 -1 76 -1 #SUP: 5
141 -1 151 -1 #SUP: 2
141 -1 158 -1 #SUP: 2
141 -1 182 -1 #SUP: 2
141 -1 250 -1 #SUP: 2
141 -1 340 -1 #SUP: 2
141 -1 469 -1 #SUP: 2
141 -1 786 -1 #SUP: 3
141 -1 1474 -1 #SUP: 2
141 -1 4099 -1 #SUP: 2
144 -1 22 -1 #SUP: 2
144 -1 182 -1 #SUP: 2
146 -1 146 -1 #SUP: 2
146 -1 5179 -1 #SUP: 2
146 -1 7217 -1 #SUP: 2
148 -1 22 -1 #SUP: 3
148 -1 76 -1 #SUP: 3
149 -1 340 -1 #SUP: 2
149 -1 469 -1 #SUP: 2
149 -1 676 -1 #SUP: 2
151 -1 3 -1 #SUP: 2
151 -1 22 -1 #SUP: 4
151 -1 32 -1 #SUP: 2
151 -1 41 -1 #SUP: 2
151 -1 65 -1 #SUP: 3
151 -1 69 -1 #SUP: 2
151 -1 76 -1 #SUP: 6
151 -1 340 -1 #SUP: 2
151 -1 506 -1 #SUP: 2
151 -1 562 -1 #SUP: 2
151 -1 675 -1 #SUP: 2
151 -1 676 -1 #SUP: 2
151 -1 1474 -1 #SUP: 2
155 -1 64 -1 #SUP: 2
155 -1 76 -1 #SUP: 2
155 -1 557 -1 #SUP: 2
156 -1 64 -1 #SUP: 3
158 -1 41 -1 #SUP: 2
160 -1 149 -1 #SUP: 2
161 -1 76 -1 #SUP: 2
161 -1 557 -1 #SUP: 2
163 -1 10 -1 #SUP: 2
165 -1 76 -1 #SUP: 2
168 -1 76 -1 #SUP: 3
168 -1 10017 -1 #SUP: 2
179 -1 76 -1 #SUP: 2
182 -1 2 -1 #SUP: 2
182 -1 3 -1 #SUP: 2
182 -1 22 -1 #SUP: 4
182 -1 64 -1 #SUP: 2
182 -1 65 -1 #SUP: 4
182 -1 76 -1 #SUP: 4
182 -1 141 -1 #SUP: 2
182 -1 151 -1 #SUP: 3
182 -1 520 -1 #SUP: 2
182 -1 786 -1 #SUP: 2
182 -1 4099 -1 #SUP: 2
189 -1 76 -1 #SUP: 2
190 -1 64 -1 #SUP: 2
190 -1 76 -1 #SUP: 2
191 -1 10 -1 #SUP: 2
191 -1 76 -1 #SUP: 2
191 -1 200 -1 #SUP: 2
194 -1 3 -1 #SUP: 2
194 -1 22 -1 #SUP: 2
194 -1 64 -1 #SUP: 3
194 -1 76 -1 #SUP: 2
195 -1 64 -1 #SUP: 2
200 -1 65 -1 #SUP: 2
213 -1 10 -1 #SUP: 2
213 -1 22 -1 #SUP: 2
213 -1 76 -1 #SUP: 2
213 -1 160 -1 #SUP: 3
213 -1 268 -1 #SUP: 2
220 -1 76 -1 #SUP: 2
224 -1 2 -1 #SUP: 3
224 -1 3 -1 #SUP: 2
224 -1 22 -1 #SUP: 2
224 -1 29 -1 #SUP: 2
224 -1 31 -1 #SUP: 3
224 -1 33 -1 #SUP: 2
224 -1 41 -1 #SUP: 4
224 -1 64 -1 #SUP: 2
224 -1 65 -1 #SUP: 2
224 -1 76 -1 #SUP: 3
224 -1 131 -1 #SUP: 2
224 -1 236 -1 #SUP: 2
224 -1 1193 -1 #SUP: 2
234 -1 76 -1 #SUP: 2
236 -1 31 -1 #SUP: 3
236 -1 76 -1 #SUP: 2
244 -1 10 -1 #SUP: 2
244 -1 22 -1 #SUP: 2
244 -1 52 -1 #SUP: 2
244 -1 76 -1 #SUP: 3
247 -1 32 -1 #SUP: 3
250 -1 2 -1 #SUP: 2
250 -1 3 -1 #SUP: 2
250 -1 7 -1 #SUP: 3
250 -1 10 -1 #SUP: 2
250 -1 22 -1 #SUP: 2
250 -1 64 -1 #SUP: 3
250 -1 76 -1 #SUP: 4
250 -1 113 -1 #SUP: 2
250 -1 141 -1 #SUP: 3
250 -1 182 -1 #SUP: 3
250 -1 224 -1 #SUP: 2
250 -1 557 -1 #SUP: 2
250 -1 641 -1 #SUP: 2
264 -1 76 -1 #SUP: 2
268 -1 22 -1 #SUP: 2
268 -1 160 -1 #SUP: 2
273 -1 786 -1 #SUP: 2
278 -1 31 -1 #SUP: 2
278 -1 76 -1 #SUP: 2
278 -1 557 -1 #SUP: 2
278 -1 607 -1 #SUP: 2
312 -1 76 -1 #SUP: 4
312 -1 504 -1 #SUP: 2
312 -1 557 -1 #SUP: 2
340 -1 3 -1 #SUP: 3
340 -1 22 -1 #SUP: 2
340 -1 32 -1 #SUP: 2
340 -1 64 -1 #SUP: 3
340 -1 65 -1 #SUP: 2
340 -1 76 -1 #SUP: 7
340 -1 113 -1 #SUP: 2
340 -1 155 -1 #SUP: 2
340 -1 182 -1 #SUP: 2
340 -1 312 -1 #SUP: 2
340 -1 469 -1 #SUP: 2
340 -1 557 -1 #SUP: 2
340 -1 602 -1 #SUP: 2
342 -1 2 -1 #SUP: 3
342 -1 3 -1 #SUP: 2
342 -1 33 -1 #SUP: 2
342 -1 76 -1 #SUP: 4
342 -1 484 -1 #SUP: 2
356 -1 256 -1 #SUP: 2
373 -1 76 -1 #SUP: 2
394 -1 3 -1 #SUP: 3
400 -1 41 -1 #SUP: 2
400 -1 65 -1 #SUP: 2
400 -1 76 -1 #SUP: 3
441 -1 2 -1 #SUP: 2
441 -1 3 -1 #SUP: 2
445 -1 10 -1 #SUP: 2
445 -1 76 -1 #SUP: 2
463 -1 10 -1 #SUP: 2
463 -1 22 -1 #SUP: 3
463 -1 33 -1 #SUP: 2
463 -1 64 -1 #SUP: 2
463 -1 76 -1 #SUP: 3
463 -1 557 -1 #SUP: 2
469 -1 2 -1 #SUP: 2
469 -1 64 -1 #SUP: 2
469 -1 182 -1 #SUP: 2
484 -1 76 -1 #SUP: 2
493 -1 10 -1 #SUP: 2
493 -1 41 -1 #SUP: 2
493 -1 76 -1 #SUP: 2
504 -1 64 -1 #SUP: 2
510 -1 65 -1 #SUP: 2
527 -1 76 -1 #SUP: 2
557 -1 2 -1 #SUP: 2
557 -1 3 -1 #SUP: 3
557 -1 7 -1 #SUP: 2
557 -1 16 -1 #SUP: 2
557 -1 22 -1 #SUP: 6
557 -1 31 -1 #SUP: 2
557 -1 33 -1 #SUP: 2
557 -1 41 -1 #SUP: 2
557 -1 64 -1 #SUP: 4
557 -1 65 -1 #SUP: 2
557 -1 69 -1 #SUP: 2
557 -1 76 -1 #SUP: 4
557 -1 113 -1 #SUP: 3
557 -1 141 -1 #SUP: 4
557 -1 182 -1 #SUP: 2
557 -1 250 -1 #SUP: 2
557 -1 342 -1 #SUP: 2
557 -1 469 -1 #SUP: 2
557 -1 504 -1 #SUP: 2
557 -1 747 -1 #SUP: 2
593 -1 2 -1 #SUP: 2
593 -1 76 -1 #SUP: 3
602 -1 3 -1 #SUP: 2
602 -1 27 -1 #SUP: 2
603 -1 146 -1 #SUP: 2
603 -1 32547 -1 #SUP: 3
635 -1 76 -1 #SUP: 2
644 -1 64 -1 #SUP: 2
675 -1 562 -1 #SUP: 2
686 -1 41 -1 #SUP: 2
703 -1 76 -1 #SUP: 2
747 -1 22 -1 #SUP: 2
747 -1 31 -1 #SUP: 3
747 -1 3310 -1 #SUP: 2
771 -1 76 -1 #SUP: 3
786 -1 3 -1 #SUP: 2
786 -1 7 -1 #SUP: 2
786 -1 22 -1 #SUP: 2
786 -1 76 -1 #SUP: 6
786 -1 151 -1 #SUP: 2
786 -1 182 -1 #SUP: 2
786 -1 340 -1 #SUP: 4
786 -1 557 -1 #SUP: 2
786 -1 1474 -1 #SUP: 2
814 -1 224 -1 #SUP: 2
976 -1 76 -1 #SUP: 2
976 -1 220 -1 #SUP: 2
1099 -1 22 -1 #SUP: 2
1099 -1 64 -1 #SUP: 3
1101 -1 10 -1 #SUP: 2
1101 -1 76 -1 #SUP: 2
1193 -1 41 -1 #SUP: 2
1198 -1 2 -1 #SUP: 2
1198 -1 64 -1 #SUP: 2
1286 -1 64 -1 #SUP: 3
1286 -1 76 -1 #SUP: 2
1286 -1 113 -1 #SUP: 2
1307 -1 469 -1 #SUP: 2
1315 -1 76 -1 #SUP: 2
1426 -1 125 -1 #SUP: 2
1426 -1 146 -1 #SUP: 2
1474 -1 76 -1 #SUP: 2
1511 -1 76 -1 #SUP: 2
1861 -1 22 -1 #SUP: 2
1861 -1 562 -1 #SUP: 2
1861 -1 588 -1 #SUP: 2
2558 -1 2 -1 #SUP: 2
2719 -1 64 -1 #SUP: 2
2915 -1 76 -1 #SUP: 2
2915 -1 141 -1 #SUP: 2
2915 -1 557 -1 #SUP: 2
3310 -1 2595 -1 #SUP: 2
5179 -1 30 -1 #SUP: 2
5179 -1 7217 -1 #SUP: 2
5474 -1 22 -1 #SUP: 2
5474 -1 76 -1 #SUP: 2
5474 -1 250 -1 #SUP: 2
6219 -1 76 -1 #SUP: 2
6219 -1 190 -1 #SUP: 2
6501 -1 41 -1 #SUP: 2
7217 -1 30 -1 #SUP: 2
8864 -1 8863 -1 #SUP: 2
10017 -1 76 -1 #SUP: 2
10361 -1 76 -1 #SUP: 2
32547 -1 146 -1 #SUP: 2
40915 -1 113 -1 #SUP: 2
40915 -1 40915 -1 #SUP: 2
2 -1 33 -1 76 -1 #SUP: 2
2 -1 41 -1 154 -1 #SUP: 2
2 -1 64 -1 29 -1 #SUP: 2
2 -1 64 -1 224 -1 #SUP: 2
2 -1 76 -1 41 -1 #SUP: 2
2 -1 195 -1 64 -1 #SUP: 2
2 -1 342 -1 76 -1 #SUP: 2
3 -1 10 -1 65 -1 #SUP: 2
3 -1 10 -1 76 -1 #SUP: 2
3 -1 10 -1 151 -1 #SUP: 2
3 -1 32 -1 64 -1 #SUP: 2
3 -1 41 -1 41 -1 #SUP: 3
3 -1 41 -1 224 -1 #SUP: 2
3 -1 64 -1 29 -1 #SUP: 2
3 -1 64 -1 224 -1 #SUP: 2
3 -1 65 -1 64 -1 #SUP: 2
3 -1 65 -1 76 -1 #SUP: 2
3 -1 65 -1 151 -1 #SUP: 2
3 -1 76 -1 65 -1 #SUP: 2
3 -1 76 -1 113 -1 #SUP: 2
3 -1 76 -1 141 -1 #SUP: 2
3 -1 76 -1 151 -1 #SUP: 2
3 -1 76 -1 557 -1 #SUP: 2
3 -1 113 -1 64 -1 #SUP: 2
3 -1 118 -1 64 -1 #SUP: 2
3 -1 151 -1 76 -1 #SUP: 2
3 -1 224 -1 41 -1 #SUP: 2
3 -1 247 -1 32 -1 #SUP: 2
7 -1 3 -1 557 -1 #SUP: 2
7 -1 76 -1 557 -1 #SUP: 2
10 -1 3 -1 77 -1 #SUP: 2
10 -1 22 -1 64 -1 #SUP: 3
10 -1 22 -1 1286 -1 #SUP: 2
10 -1 41 -1 29 -1 #SUP: 2
10 -1 65 -1 3 -1 #SUP: 2
10 -1 65 -1 76 -1 #SUP: 2
10 -1 65 -1 77 -1 #SUP: 2
10 -1 65 -1 148 -1 #SUP: 2
10 -1 76 -1 557 -1 #SUP: 4
10 -1 155 -1 64 -1 #SUP: 2
10 -1 1286 -1 64 -1 #SUP: 2
22 -1 3 -1 10 -1 #SUP: 2
22 -1 32 -1 22 -1 #SUP: 2
22 -1 32 -1 76 -1 #SUP: 2
22 -1 33 -1 76 -1 #SUP: 2
22 -1 64 -1 76 -1 #SUP: 3
22 -1 76 -1 76 -1 #SUP: 3
22 -1 76 -1 113 -1 #SUP: 3
22 -1 76 -1 557 -1 #SUP: 2
22 -1 113 -1 3 -1 #SUP: 2
22 -1 113 -1 76 -1 #SUP: 4
22 -1 113 -1 506 -1 #SUP: 2
22 -1 250 -1 76 -1 #SUP: 2
22 -1 394 -1 3 -1 #SUP: 2
22 -1 400 -1 76 -1 #SUP: 2
22 -1 1286 -1 64 -1 #SUP: 2
22 -1 5474 -1 76 -1 #SUP: 2
22 -1 5474 -1 250 -1 #SUP: 2
27 -1 41 -1 7 -1 #SUP: 2
27 -1 41 -1 41 -1 #SUP: 2
27 -1 41 -1 786 -1 #SUP: 2
27 -1 41 -1 1474 -1 #SUP: 2
27 -1 141 -1 7 -1 #SUP: 2
27 -1 141 -1 41 -1 #SUP: 3
27 -1 141 -1 786 -1 #SUP: 2
27 -1 141 -1 1474 -1 #SUP: 2
27 -1 786 -1 1474 -1 #SUP: 2
29 -1 2 -1 41 -1 #SUP: 3
30 -1 30 -1 8863 -1 #SUP: 2
30 -1 30 -1 8864 -1 #SUP: 2
30 -1 603 -1 32547 -1 #SUP: 2
30 -1 5179 -1 30 -1 #SUP: 2
30 -1 5179 -1 7217 -1 #SUP: 2
30 -1 7217 -1 30 -1 #SUP: 2
30 -1 8864 -1 8863 -1 #SUP: 2
31 -1 1426 -1 125 -1 #SUP: 2
32 -1 22 -1 65 -1 #SUP: 2
32 -1 65 -1 76 -1 #SUP: 2
32 -1 76 -1 76 -1 #SUP: 2
41 -1 3 -1 65 -1 #SUP: 2
41 -1 7 -1 65 -1 #SUP: 2
41 -1 7 -1 76 -1 #SUP: 2
41 -1 10 -1 224 -1 #SUP: 2
41 -1 41 -1 41 -1 #SUP: 2
41 -1 41 -1 64 -1 #SUP: 2
41 -1 41 -1 65 -1 #SUP: 2
41 -1 41 -1 156 -1 #SUP: 2
41 -1 64 -1 29 -1 #SUP: 2
41 -1 64 -1 65 -1 #SUP: 2
41 -1 65 -1 151 -1 #SUP: 2
41 -1 124 -1 65 -1 #SUP: 2
41 -1 151 -1 41 -1 #SUP: 2
41 -1 156 -1 64 -1 #SUP: 2
41 -1 224 -1 41 -1 #SUP: 2
41 -1 224 -1 64 -1 #SUP: 2
41 -1 340 -1 76 -1 #SUP: 2
41 -1 786 -1 7 -1 #SUP: 2
41 -1 786 -1 76 -1 #SUP: 3
41 -1 786 -1 151 -1 #SUP: 2
41 -1 786 -1 1474 -1 #SUP: 2
50 -1 41 -1 64 -1 #SUP: 2
50 -1 76 -1 64 -1 #SUP: 2
50 -1 76 -1 69 -1 #SUP: 2
50 -1 76 -1 113 -1 #SUP: 2
50 -1 76 -1 557 -1 #SUP: 4
50 -1 113 -1 64 -1 #SUP: 2
50 -1 156 -1 64 -1 #SUP: 2
50 -1 182 -1 76 -1 #SUP: 2
50 -1 2915 -1 76 -1 #SUP: 2
50 -1 2915 -1 557 -1 #SUP: 2
64 -1 2 -1 41 -1 #SUP: 2
64 -1 22 -1 2 -1 #SUP: 2
64 -1 29 -1 2 -1 #SUP: 2
64 -1 29 -1 31 -1 #SUP: 2
64 -1 29 -1 76 -1 #SUP: 2
64 -1 31 -1 2 -1 #SUP: 2
64 -1 41 -1 64 -1 #SUP: 2
64 -1 64 -1 22 -1 #SUP: 2
64 -1 64 -1 76 -1 #SUP: 3
64 -1 64 -1 234 -1 #SUP: 2
64 -1 65 -1 41 -1 #SUP: 3
64 -1 76 -1 2 -1 #SUP: 2
64 -1 76 -1 64 -1 #SUP: 2
64 -1 76 -1 76 -1 #SUP: 2
64 -1 76 -1 113 -1 #SUP: 2
64 -1 76 -1 187 -1 #SUP: 2
64 -1 76 -1 557 -1 #SUP: 6
64 -1 113 -1 64 -1 #SUP: 2
64 -1 224 -1 41 -1 #SUP: 3
64 -1 278 -1 607 -1 #SUP: 2
64 -1 510 -1 65 -1 #SUP: 2
64 -1 557 -1 113 -1 #SUP: 2
64 -1 1099 -1 64 -1 #SUP: 2
65 -1 2 -1 22 -1 #SUP: 2
65 -1 3 -1 22 -1 #SUP: 2
65 -1 41 -1 41 -1 #SUP: 2
65 -1 41 -1 65 -1 #SUP: 2
65 -1 76 -1 76 -1 #SUP: 3
65 -1 76 -1 162 -1 #SUP: 2
65 -1 151 -1 22 -1 #SUP: 2
65 -1 224 -1 41 -1 #SUP: 2
65 -1 394 -1 3 -1 #SUP: 2
76 -1 2 -1 10 -1 #SUP: 3
76 -1 3 -1 27 -1 #SUP: 2
76 -1 3 -1 64 -1 #SUP: 2
76 -1 3 -1 113 -1 #SUP: 2
76 -1 3 -1 224 -1 #SUP: 2
76 -1 10 -1 22 -1 #SUP: 3
76 -1 10 -1 65 -1 #SUP: 2
76 -1 22 -1 10 -1 #SUP: 2
76 -1 22 -1 32 -1 #SUP: 3
76 -1 31 -1 65 -1 #SUP: 2
76 -1 33 -1 22 -1 #SUP: 2
76 -1 41 -1 29 -1 #SUP: 3
76 -1 41 -1 64 -1 #SUP: 2
76 -1 50 -1 113 -1 #SUP: 2
76 -1 64 -1 22 -1 #SUP: 3
76 -1 64 -1 29 -1 #SUP: 2
76 -1 64 -1 76 -1 #SUP: 2
76 -1 64 -1 182 -1 #SUP: 2
76 -1 65 -1 22 -1 #SUP: 2
76 -1 76 -1 2 -1 #SUP: 3
76 -1 76 -1 10 -1 #SUP: 2
76 -1 76 -1 16 -1 #SUP: 2
76 -1 76 -1 22 -1 #SUP: 3
76 -1 76 -1 32 -1 #SUP: 2
76 -1 76 -1 65 -1 #SUP: 2
76 -1 76 -1 76 -1 #SUP: 3
76 -1 76 -1 113 -1 #SUP: 2
76 -1 76 -1 151 -1 #SUP: 2
76 -1 76 -1 584 -1 #SUP: 2
76 -1 113 -1 22 -1 #SUP: 3
76 -1 113 -1 32 -1 #SUP: 2
76 -1 113 -1 64 -1 #SUP: 6
76 -1 113 -1 118 -1 #SUP: 3
76 -1 113 -1 141 -1 #SUP: 2
76 -1 113 -1 194 -1 #SUP: 2
76 -1 113 -1 224 -1 #SUP: 2
76 -1 118 -1 64 -1 #SUP: 2
76 -1 141 -1 22 -1 #SUP: 2
76 -1 141 -1 41 -1 #SUP: 2
76 -1 141 -1 469 -1 #SUP: 2
76 -1 151 -1 22 -1 #SUP: 2
76 -1 151 -1 32 -1 #SUP: 2
76 -1 182 -1 22 -1 #SUP: 2
76 -1 190 -1 76 -1 #SUP: 2
76 -1 195 -1 64 -1 #SUP: 2
76 -1 213 -1 10 -1 #SUP: 2
76 -1 213 -1 22 -1 #SUP: 2
76 -1 342 -1 2 -1 #SUP: 2
76 -1 557 -1 3 -1 #SUP: 2
76 -1 557 -1 16 -1 #SUP: 2
76 -1 557 -1 22 -1 #SUP: 3
76 -1 557 -1 31 -1 #SUP: 2
76 -1 557 -1 41 -1 #SUP: 2
76 -1 557 -1 64 -1 #SUP: 3
76 -1 557 -1 69 -1 #SUP: 2
76 -1 557 -1 76 -1 #SUP: 3
76 -1 557 -1 113 -1 #SUP: 2
76 -1 557 -1 141 -1 #SUP: 4
76 -1 557 -1 182 -1 #SUP: 2
76 -1 557 -1 469 -1 #SUP: 2
76 -1 557 -1 504 -1 #SUP: 2
76 -1 557 -1 747 -1 #SUP: 2
76 -1 602 -1 3 -1 #SUP: 2
76 -1 602 -1 27 -1 #SUP: 2
76 -1 747 -1 31 -1 #SUP: 2
76 -1 3310 -1 2595 -1 #SUP: 2
77 -1 41 -1 65 -1 #SUP: 2
81 -1 64 -1 76 -1 #SUP: 3
113 -1 3 -1 76 -1 #SUP: 2
113 -1 3 -1 113 -1 #SUP: 2
113 -1 7 -1 76 -1 #SUP: 3
113 -1 10 -1 22 -1 #SUP: 2
113 -1 10 -1 64 -1 #SUP: 2
113 -1 22 -1 2 -1 #SUP: 3
113 -1 22 -1 32 -1 #SUP: 2
113 -1 22 -1 64 -1 #SUP: 4
113 -1 22 -1 76 -1 #SUP: 2
113 -1 22 -1 113 -1 #SUP: 2
113 -1 50 -1 113 -1 #SUP: 2
113 -1 50 -1 2915 -1 #SUP: 2
113 -1 64 -1 2 -1 #SUP: 2
113 -1 64 -1 22 -1 #SUP: 3
113 -1 64 -1 29 -1 #SUP: 2
113 -1 64 -1 50 -1 #SUP: 3
113 -1 64 -1 64 -1 #SUP: 3
113 -1 64 -1 76 -1 #SUP: 6
113 -1 64 -1 113 -1 #SUP: 2
113 -1 64 -1 182 -1 #SUP: 3
113 -1 64 -1 278 -1 #SUP: 2
113 -1 64 -1 469 -1 #SUP: 2
113 -1 64 -1 557 -1 #SUP: 4
113 -1 64 -1 607 -1 #SUP: 2
113 -1 76 -1 22 -1 #SUP: 2
113 -1 76 -1 50 -1 #SUP: 2
113 -1 76 -1 64 -1 #SUP: 2
113 -1 76 -1 113 -1 #SUP: 3
113 -1 76 -1 141 -1 #SUP: 2
113 -1 76 -1 144 -1 #SUP: 2
113 -1 76 -1 242 -1 #SUP: 2
113 -1 76 -1 557 -1 #SUP: 5
113 -1 113 -1 76 -1 #SUP: 2
113 -1 113 -1 141 -1 #SUP: 2
113 -1 118 -1 64 -1 #SUP: 3
113 -1 118 -1 168 -1 #SUP: 2
113 -1 141 -1 2 -1 #SUP: 2
113 -1 141 -1 22 -1 #SUP: 2
113 -1 141 -1 64 -1 #SUP: 2
113 -1 151 -1 675 -1 #SUP: 2
113 -1 155 -1 76 -1 #SUP: 2
113 -1 155 -1 557 -1 #SUP: 2
113 -1 194 -1 22 -1 #SUP: 2
113 -1 194 -1 64 -1 #SUP: 2
113 -1 278 -1 607 -1 #SUP: 2
113 -1 340 -1 64 -1 #SUP: 2
113 -1 340 -1 76 -1 #SUP: 2
113 -1 340 -1 182 -1 #SUP: 2
113 -1 557 -1 113 -1 #SUP: 2
113 -1 1099 -1 64 -1 #SUP: 2
118 -1 64 -1 29 -1 #SUP: 2
118 -1 76 -1 557 -1 #SUP: 2
124 -1 76 -1 76 -1 #SUP: 2
131 -1 33 -1 22 -1 #SUP: 2
141 -1 22 -1 2 -1 #SUP: 2
141 -1 41 -1 7 -1 #SUP: 2
141 -1 41 -1 29 -1 #SUP: 2
141 -1 41 -1 41 -1 #SUP: 3
141 -1 41 -1 76 -1 #SUP: 2
141 -1 41 -1 786 -1 #SUP: 3
141 -1 41 -1 1474 -1 #SUP: 2
141 -1 64 -1 2 -1 #SUP: 2
141 -1 64 -1 22 -1 #SUP: 2
141 -1 158 -1 41 -1 #SUP: 2
141 -1 340 -1 76 -1 #SUP: 2
141 -1 786 -1 76 -1 #SUP: 2
141 -1 786 -1 1474 -1 #SUP: 2
146 -1 5179 -1 7217 -1 #SUP: 2
151 -1 22 -1 32 -1 #SUP: 2
151 -1 76 -1 76 -1 #SUP: 2
151 -1 675 -1 562 -1 #SUP: 2
155 -1 76 -1 557 -1 #SUP: 2
161 -1 76 -1 557 -1 #SUP: 2
168 -1 10017 -1 76 -1 #SUP: 2
182 -1 3 -1 65 -1 #SUP: 2
182 -1 22 -1 151 -1 #SUP: 2
213 -1 10 -1 22 -1 #SUP: 2
213 -1 268 -1 160 -1 #SUP: 2
224 -1 33 -1 22 -1 #SUP: 2
224 -1 41 -1 64 -1 #SUP: 2
224 -1 41 -1 65 -1 #SUP: 2
224 -1 236 -1 31 -1 #SUP: 2
250 -1 2 -1 64 -1 #SUP: 2
250 -1 7 -1 141 -1 #SUP: 3
250 -1 76 -1 141 -1 #SUP: 2
250 -1 76 -1 557 -1 #SUP: 2
250 -1 557 -1 141 -1 #SUP: 2
278 -1 76 -1 557 -1 #SUP: 2
312 -1 76 -1 557 -1 #SUP: 2
340 -1 64 -1 76 -1 #SUP: 2
340 -1 64 -1 182 -1 #SUP: 2
340 -1 64 -1 557 -1 #SUP: 2
340 -1 76 -1 3 -1 #SUP: 2
340 -1 76 -1 22 -1 #SUP: 2
340 -1 76 -1 32 -1 #SUP: 2
340 -1 76 -1 557 -1 #SUP: 2
340 -1 76 -1 602 -1 #SUP: 2
340 -1 113 -1 76 -1 #SUP: 2
340 -1 155 -1 76 -1 #SUP: 2
340 -1 155 -1 557 -1 #SUP: 2
340 -1 602 -1 3 -1 #SUP: 2
342 -1 2 -1 76 -1 #SUP: 2
441 -1 3 -1 2 -1 #SUP: 2
445 -1 10 -1 76 -1 #SUP: 2
463 -1 22 -1 76 -1 #SUP: 2
463 -1 33 -1 76 -1 #SUP: 2
463 -1 76 -1 557 -1 #SUP: 2
557 -1 64 -1 22 -1 #SUP: 2
557 -1 113 -1 3 -1 #SUP: 2
557 -1 113 -1 22 -1 #SUP: 2
557 -1 113 -1 113 -1 #SUP: 2
557 -1 141 -1 22 -1 #SUP: 2
557 -1 141 -1 469 -1 #SUP: 2
557 -1 747 -1 31 -1 #SUP: 2
593 -1 76 -1 2 -1 #SUP: 2
602 -1 3 -1 27 -1 #SUP: 2
603 -1 32547 -1 146 -1 #SUP: 2
747 -1 31 -1 22 -1 #SUP: 2
747 -1 31 -1 3310 -1 #SUP: 2
786 -1 340 -1 76 -1 #SUP: 3
976 -1 220 -1 76 -1 #SUP: 2
1101 -1 76 -1 10 -1 #SUP: 2
1198 -1 64 -1 2 -1 #SUP: 2
1286 -1 113 -1 64 -1 #SUP: 2
1426 -1 146 -1 146 -1 #SUP: 2
1511 -1 76 -1 76 -1 #SUP: 2
2915 -1 76 -1 141 -1 #SUP: 2
2915 -1 76 -1 557 -1 #SUP: 2
2915 -1 557 -1 141 -1 #SUP: 2
5179 -1 30 -1 30 -1 #SUP: 2
5179 -1 7217 -1 30 -1 #SUP: 2
5474 -1 250 -1 76 -1 #SUP: 2
6219 -1 190 -1 76 -1 #SUP: 2
7217 -1 30 -1 30 -1 #SUP: 2
40915 -1 40915 -1 113 -1 #SUP: 2
3 -1 41 -1 224 -1 41 -1 #SUP: 2
10 -1 22 -1 1286 -1 64 -1 #SUP: 2
22 -1 5474 -1 250 -1 76 -1 #SUP: 2
27 -1 41 -1 786 -1 1474 -1 #SUP: 2
27 -1 141 -1 41 -1 7 -1 #SUP: 2
27 -1 141 -1 41 -1 41 -1 #SUP: 2
27 -1 141 -1 41 -1 786 -1 #SUP: 2
27 -1 141 -1 41 -1 1474 -1 #SUP: 2
27 -1 141 -1 786 -1 1474 -1 #SUP: 2
30 -1 30 -1 8864 -1 8863 -1 #SUP: 2
30 -1 5179 -1 7217 -1 30 -1 #SUP: 2
32 -1 65 -1 76 -1 76 -1 #SUP: 2
41 -1 224 -1 41 -1 64 -1 #SUP: 2
50 -1 76 -1 113 -1 64 -1 #SUP: 2
50 -1 2915 -1 76 -1 557 -1 #SUP: 2
64 -1 76 -1 557 -1 113 -1 #SUP: 2
76 -1 76 -1 10 -1 22 -1 #SUP: 2
76 -1 76 -1 151 -1 32 -1 #SUP: 2
76 -1 113 -1 118 -1 64 -1 #SUP: 2
76 -1 213 -1 10 -1 22 -1 #SUP: 2
76 -1 557 -1 64 -1 22 -1 #SUP: 2
76 -1 557 -1 141 -1 22 -1 #SUP: 2
76 -1 557 -1 141 -1 469 -1 #SUP: 2
76 -1 557 -1 747 -1 31 -1 #SUP: 2
76 -1 602 -1 3 -1 27 -1 #SUP: 2
113 -1 10 -1 22 -1 64 -1 #SUP: 2
113 -1 22 -1 113 -1 76 -1 #SUP: 2
113 -1 64 -1 22 -1 2 -1 #SUP: 2
113 -1 64 -1 76 -1 113 -1 #SUP: 2
113 -1 64 -1 76 -1 557 -1 #SUP: 4
113 -1 64 -1 278 -1 607 -1 #SUP: 2
113 -1 64 -1 557 -1 113 -1 #SUP: 2
113 -1 76 -1 113 -1 141 -1 #SUP: 2
113 -1 76 -1 557 -1 113 -1 #SUP: 2
113 -1 141 -1 22 -1 2 -1 #SUP: 2
113 -1 141 -1 64 -1 2 -1 #SUP: 2
113 -1 141 -1 64 -1 22 -1 #SUP: 2
113 -1 155 -1 76 -1 557 -1 #SUP: 2
113 -1 340 -1 64 -1 182 -1 #SUP: 2
141 -1 41 -1 786 -1 76 -1 #SUP: 2
141 -1 41 -1 786 -1 1474 -1 #SUP: 2
141 -1 64 -1 22 -1 2 -1 #SUP: 2
250 -1 76 -1 557 -1 141 -1 #SUP: 2
340 -1 64 -1 76 -1 557 -1 #SUP: 2
340 -1 76 -1 602 -1 3 -1 #SUP: 2
340 -1 155 -1 76 -1 557 -1 #SUP: 2
2915 -1 76 -1 557 -1 141 -1 #SUP: 2
5179 -1 7217 -1 30 -1 30 -1 #SUP: 2
27 -1 141 -1 41 -1 786 -1 1474 -1 #SUP: 2
113 -1 64 -1 76 -1 557 -1 113 -1 #SUP: 2
113 -1 141 -1 64 -1 22 -1 2 -1 #SUP: 2
