2 -1 #SUP: 44
3 -1 #SUP: 50
7 -1 #SUP: 11
10 -1 #SUP: 24
13 -1 #SUP: 3
15 -1 #SUP: 3
16 -1 #SUP: 4
22 -1 #SUP: 63
26 -1 #SUP: 2
27 -1 #SUP: 4
28 -1 #SUP: 2
29 -1 #SUP: 16
30 -1 #SUP: 2
31 -1 #SUP: 14
32 -1 #SUP: 34
33 -1 #SUP: 4
41 -1 #SUP: 77
42 -1 #SUP: 2
44 -1 #SUP: 2
46 -1 #SUP: 5
47 -1 #SUP: 2
48 -1 #SUP: 5
49 -1 #SUP: 2
50 -1 #SUP: 16
52 -1 #SUP: 6
54 -1 #SUP: 7
62 -1 #SUP: 2
64 -1 #SUP: 62
65 -1 #SUP: 48
66 -1 #SUP: 7
70 -1 #SUP: 2
72 -1 #SUP: 4
75 -1 #SUP: 7
76 -1 #SUP: 82
77 -1 #SUP: 10
81 -1 #SUP: 4
93 -1 #SUP: 2
100 -1 #SUP: 3
113 -1 #SUP: 74
115 -1 #SUP: 7
118 -1 #SUP: 6
127 -1 #SUP: 2
129 -1 #SUP: 3
131 -1 #SUP: 6
135 -1 #SUP: 4
137 -1 #SUP: 5
141 -1 #SUP: 4
144 -1 #SUP: 2
146 -1 #SUP: 3
148 -1 #SUP: 3
149 -1 #SUP: 2
150 -1 #SUP: 3
151 -1 #SUP: 13
154 -1 #SUP: 5
155 -1 #SUP: 3
156 -1 #SUP: 2
158 -1 #SUP: 32
160 -1 #SUP: 16
161 -1 #SUP: 4
162 -1 #SUP: 2
163 -1 #SUP: 2
165 -1 #SUP: 6
168 -1 #SUP: 3
169 -1 #SUP: 2
179 -1 #SUP: 3
182 -1 #SUP: 11
183 -1 #SUP: 2
185 -1 #SUP: 7
186 -1 #SUP: 3
187 -1 #SUP: 7
189 -1 #SUP: 2
190 -1 #SUP: 5
194 -1 #SUP: 3
200 -1 #SUP: 12
201 -1 #SUP: 4
207 -1 #SUP: 2
208 -1 #SUP: 6
211 -1 #SUP: 3
212 -1 #SUP: 4
213 -1 #SUP: 10
214 -1 #SUP: 2
221 -1 #SUP: 2
224 -1 #SUP: 7
225 -1 #SUP: 2
236 -1 #SUP: 6
242 -1 #SUP: 5
244 -1 #SUP: 6
247 -1 #SUP: 2
248 -1 #SUP: 15
250 -1 #SUP: 9
256 -1 #SUP: 5
262 -1 #SUP: 3
264 -1 #SUP: 4
268 -1 #SUP: 3
272 -1 #SUP: 6
273 -1 #SUP: 3
276 -1 #SUP: 2
277 -1 #SUP: 3
278 -1 #SUP: 8
287 -1 #SUP: 2
296 -1 #SUP: 2
304 -1 #SUP: 2
305 -1 #SUP: 7
308 -1 #SUP: 6
312 -1 #SUP: 6
326 -1 #SUP: 11
339 -1 #SUP: 2
340 -1 #SUP: 15
342 -1 #SUP: 3
345 -1 #SUP: 2
354 -1 #SUP: 3
356 -1 #SUP: 3
364 -1 #SUP: 7
372 -1 #SUP: 2
376 -1 #SUP: 2
380 -1 #SUP: 3
386 -1 #SUP: 2
388 -1 #SUP: 6
394 -1 #SUP: 5
401 -1 #SUP: 3
403 -1 #SUP: 4
405 -1 #SUP: 4
406 -1 #SUP: 6
417 -1 #SUP: 2
418 -1 #SUP: 3
435 -1 #SUP: 2
445 -1 #SUP: 2
448 -1 #SUP: 2
454 -1 #SUP: 2
463 -1 #SUP: 3
482 -1 #SUP: 5
484 -1 #SUP: 7
502 -1 #SUP: 7
504 -1 #SUP: 9
506 -1 #SUP: 3
510 -1 #SUP: 4
525 -1 #SUP: 3
527 -1 #SUP: 3
549 -1 #SUP: 3
557 -1 #SUP: 6
561 -1 #SUP: 2
566 -1 #SUP: 3
571 -1 #SUP: 2
586 -1 #SUP: 2
596 -1 #SUP: 2
600 -1 #SUP: 2
601 -1 #SUP: 2
602 -1 #SUP: 2
607 -1 #SUP: 4
614 -1 #SUP: 4
635 -1 #SUP: 2
636 -1 #SUP: 2
641 -1 #SUP: 8
644 -1 #SUP: 4
653 -1 #SUP: 2
687 -1 #SUP: 2
690 -1 #SUP: 2
694 -1 #SUP: 2
699 -1 #SUP: 3
701 -1 #SUP: 2
702 -1 #SUP: 4
706 -1 #SUP: 3
714 -1 #SUP: 5
717 -1 #SUP: 4
737 -1 #SUP: 2
743 -1 #SUP: 2
747 -1 #SUP: 4
769 -1 #SUP: 2
782 -1 #SUP: 2
783 -1 #SUP: 3
786 -1 #SUP: 12
798 -1 #SUP: 2
802 -1 #SUP: 3
814 -1 #SUP: 2
826 -1 #SUP: 5
847 -1 #SUP: 4
878 -1 #SUP: 2
879 -1 #SUP: 6
895 -1 #SUP: 5
929 -1 #SUP: 3
931 -1 #SUP: 2
941 -1 #SUP: 2
952 -1 #SUP: 2
972 -1 #SUP: 2
1017 -1 #SUP: 5
1036 -1 #SUP: 2
1042 -1 #SUP: 2
1089 -1 #SUP: 2
1099 -1 #SUP: 2
1100 -1 #SUP: 4
1101 -1 #SUP: 2
1105 -1 #SUP: 2
1120 -1 #SUP: 2
1121 -1 #SUP: 2
1152 -1 #SUP: 2
1198 -1 #SUP: 2
1225 -1 #SUP: 3
1309 -1 #SUP: 2
1327 -1 #SUP: 2
1467 -1 #SUP: 5
1543 -1 #SUP: 3
1678 -1 #SUP: 2
1707 -1 #SUP: 2
1747 -1 #SUP: 2
1809 -1 #SUP: 4
1833 -1 #SUP: 2
1921 -1 #SUP: 2
2117 -1 #SUP: 3
2344 -1 #SUP: 2
2375 -1 #SUP: 2
2491 -1 #SUP: 2
2740 -1 #SUP: 2
3300 -1 #SUP: 2
3391 -1 #SUP: 4
3460 -1 #SUP: 2
3821 -1 #SUP: 3
4124 -1 #SUP: 2
4475 -1 #SUP: 2
6110 -1 #SUP: 2
6638 -1 #SUP: 2
15520 -1 #SUP: 2
2 -1 2 -1 #SUP: 7
2 -1 3 -1 #SUP: 8
2 -1 10 -1 #SUP: 4
2 -1 22 -1 #SUP: 10
2 -1 29 -1 #SUP: 3
2 -1 31 -1 #SUP: 3
2 -1 32 -1 #SUP: 7
2 -1 41 -1 #SUP: 12
2 -1 50 -1 #SUP: 2
2 -1 54 -1 #SUP: 2
2 -1 64 -1 #SUP: 9
2 -1 65 -1 #SUP: 6
2 -1 66 -1 #SUP: 2
2 -1 76 -1 #SUP: 5
2 -1 113 -1 #SUP: 12
2 -1 131 -1 #SUP: 2
2 -1 135 -1 #SUP: 2
2 -1 144 -1 #SUP: 2
2 -1 154 -1 #SUP: 3
2 -1 158 -1 #SUP: 2
2 -1 160 -1 #SUP: 5
2 -1 165 -1 #SUP: 3
2 -1 168 -1 #SUP: 2
2 -1 182 -1 #SUP: 4
2 -1 185 -1 #SUP: 2
2 -1 187 -1 #SUP: 3
2 -1 200 -1 #SUP: 2
2 -1 201 -1 #SUP: 2
2 -1 208 -1 #SUP: 3
2 -1 221 -1 #SUP: 2
2 -1 248 -1 #SUP: 4
2 -1 340 -1 #SUP: 3
2 -1 388 -1 #SUP: 2
2 -1 406 -1 #SUP: 2
2 -1 445 -1 #SUP: 2
2 -1 482 -1 #SUP: 2
2 -1 484 -1 #SUP: 2
2 -1 504 -1 #SUP: 4
2 -1 525 -1 #SUP: 2
2 -1 527 -1 #SUP: 2
2 -1 641 -1 #SUP: 4
2 -1 644 -1 #SUP: 2
2 -1 653 -1 #SUP: 2
2 -1 687 -1 #SUP: 2
2 -1 701 -1 #SUP: 2
2 -1 706 -1 #SUP: 2
2 -1 714 -1 #SUP: 2
2 -1 786 -1 #SUP: 5
2 -1 879 -1 #SUP: 2
2 -1 1017 -1 #SUP: 3
2 -1 3391 -1 #SUP: 2
3 -1 2 -1 #SUP: 10
3 -1 3 -1 #SUP: 3
3 -1 10 -1 #SUP: 8
3 -1 22 -1 #SUP: 12
3 -1 31 -1 #SUP: 4
3 -1 32 -1 #SUP: 9
3 -1 41 -1 #SUP: 7
3 -1 50 -1 #SUP: 4
3 -1 54 -1 #SUP: 2
3 -1 64 -1 #SUP: 11
3 -1 65 -1 #SUP: 13
3 -1 75 -1 #SUP: 3
3 -1 76 -1 #SUP: 16
3 -1 113 -1 #SUP: 7
3 -1 131 -1 #SUP: 2
3 -1 151 -1 #SUP: 4
3 -1 160 -1 #SUP: 7
3 -1 165 -1 #SUP: 2
3 -1 185 -1 #SUP: 2
3 -1 187 -1 #SUP: 2
3 -1 200 -1 #SUP: 7
3 -1 211 -1 #SUP: 2
3 -1 213 -1 #SUP: 5
3 -1 242 -1 #SUP: 2
3 -1 248 -1 #SUP: 4
3 -1 305 -1 #SUP: 3
3 -1 308 -1 #SUP: 3
3 -1 364 -1 #SUP: 2
3 -1 386 -1 #SUP: 2
3 -1 394 -1 #SUP: 2
3 -1 405 -1 #SUP: 3
3 -1 406 -1 #SUP: 3
3 -1 445 -1 #SUP: 2
3 -1 448 -1 #SUP: 2
3 -1 482 -1 #SUP: 2
3 -1 484 -1 #SUP: 3
3 -1 504 -1 #SUP: 3
3 -1 571 -1 #SUP: 2
3 -1 586 -1 #SUP: 2
3 -1 607 -1 #SUP: 2
3 -1 614 -1 #SUP: 2
3 -1 699 -1 #SUP: 2
3 -1 706 -1 #SUP: 3
3 -1 786 -1 #SUP: 5
3 -1 878 -1 #SUP: 2
3 -1 1017 -1 #SUP: 2
3 -1 1042 -1 #SUP: 2
3 -1 1467 -1 #SUP: 2
3 -1 1747 -1 #SUP: 2
3 -1 3391 -1 #SUP: 2
7 -1 3 -1 #SUP: 2
7 -1 22 -1 #SUP: 3
7 -1 64 -1 #SUP: 5
7 -1 65 -1 #SUP: 5
7 -1 76 -1 #SUP: 2
7 -1 81 -1 #SUP: 2
7 -1 160 -1 #SUP: 2
7 -1 256 -1 #SUP: 2
7 -1 356 -1 #SUP: 2
7 -1 418 -1 #SUP: 2
7 -1 798 -1 #SUP: 2
10 -1 2 -1 #SUP: 2
10 -1 3 -1 #SUP: 2
10 -1 10 -1 #SUP: 2
10 -1 13 -1 #SUP: 2
10 -1 22 -1 #SUP: 8
10 -1 31 -1 #SUP: 3
10 -1 32 -1 #SUP: 5
10 -1 41 -1 #SUP: 6
10 -1 50 -1 #SUP: 3
10 -1 64 -1 #SUP: 4
10 -1 65 -1 #SUP: 7
10 -1 76 -1 #SUP: 8
10 -1 113 -1 #SUP: 2
10 -1 151 -1 #SUP: 2
10 -1 160 -1 #SUP: 2
10 -1 417 -1 #SUP: 2
10 -1 737 -1 #SUP: 2
15 -1 32 -1 #SUP: 2
16 -1 22 -1 #SUP: 3
16 -1 64 -1 #SUP: 3
22 -1 2 -1 #SUP: 8
22 -1 3 -1 #SUP: 7
22 -1 7 -1 #SUP: 2
22 -1 10 -1 #SUP: 7
22 -1 15 -1 #SUP: 3
22 -1 22 -1 #SUP: 11
22 -1 29 -1 #SUP: 3
22 -1 31 -1 #SUP: 5
22 -1 32 -1 #SUP: 13
22 -1 41 -1 #SUP: 6
22 -1 50 -1 #SUP: 3
22 -1 52 -1 #SUP: 3
22 -1 54 -1 #SUP: 3
22 -1 64 -1 #SUP: 12
22 -1 65 -1 #SUP: 10
22 -1 72 -1 #SUP: 2
22 -1 75 -1 #SUP: 2
22 -1 76 -1 #SUP: 18
22 -1 77 -1 #SUP: 5
22 -1 113 -1 #SUP: 13
22 -1 115 -1 #SUP: 2
22 -1 129 -1 #SUP: 3
22 -1 151 -1 #SUP: 2
22 -1 154 -1 #SUP: 2
22 -1 160 -1 #SUP: 4
22 -1 179 -1 #SUP: 2
22 -1 182 -1 #SUP: 3
22 -1 187 -1 #SUP: 3
22 -1 200 -1 #SUP: 2
22 -1 201 -1 #SUP: 2
22 -1 207 -1 #SUP: 2
22 -1 208 -1 #SUP: 2
22 -1 212 -1 #SUP: 2
22 -1 244 -1 #SUP: 2
22 -1 247 -1 #SUP: 2
22 -1 248 -1 #SUP: 2
22 -1 250 -1 #SUP: 2
22 -1 287 -1 #SUP: 2
22 -1 305 -1 #SUP: 2
22 -1 339 -1 #SUP: 2
22 -1 340 -1 #SUP: 3
22 -1 354 -1 #SUP: 3
22 -1 388 -1 #SUP: 2
22 -1 394 -1 #SUP: 4
22 -1 502 -1 #SUP: 6
22 -1 769 -1 #SUP: 2
22 -1 826 -1 #SUP: 2
22 -1 878 -1 #SUP: 2
22 -1 929 -1 #SUP: 2
22 -1 3391 -1 #SUP: 2
27 -1 3 -1 #SUP: 3
27 -1 113 -1 #SUP: 2
28 -1 26 -1 #SUP: 2
29 -1 2 -1 #SUP: 5
29 -1 3 -1 #SUP: 3
29 -1 22 -1 #SUP: 2
29 -1 29 -1 #SUP: 2
29 -1 32 -1 #SUP: 2
29 -1 41 -1 #SUP: 2
29 -1 52 -1 #SUP: 2
29 -1 64 -1 #SUP: 3
29 -1 65 -1 #SUP: 3
29 -1 75 -1 #SUP: 2
29 -1 76 -1 #SUP: 3
29 -1 113 -1 #SUP: 3
29 -1 242 -1 #SUP: 2
29 -1 502 -1 #SUP: 2
29 -1 786 -1 #SUP: 2
29 -1 2117 -1 #SUP: 2
31 -1 2 -1 #SUP: 3
31 -1 3 -1 #SUP: 3
31 -1 10 -1 #SUP: 2
31 -1 22 -1 #SUP: 5
31 -1 41 -1 #SUP: 2
31 -1 64 -1 #SUP: 5
31 -1 65 -1 #SUP: 7
31 -1 75 -1 #SUP: 2
31 -1 76 -1 #SUP: 6
31 -1 77 -1 #SUP: 2
31 -1 113 -1 #SUP: 3
31 -1 135 -1 #SUP: 2
31 -1 151 -1 #SUP: 2
31 -1 186 -1 #SUP: 2
31 -1 504 -1 #SUP: 2
31 -1 641 -1 #SUP: 2
31 -1 929 -1 #SUP: 3
32 -1 2 -1 #SUP: 6
32 -1 3 -1 #SUP: 5
32 -1 10 -1 #SUP: 4
32 -1 13 -1 #SUP: 2
32 -1 22 -1 #SUP: 8
32 -1 29 -1 #SUP: 3
32 -1 32 -1 #SUP: 3
32 -1 41 -1 #SUP: 4
32 -1 50 -1 #SUP: 4
32 -1 54 -1 #SUP: 2
32 -1 64 -1 #SUP: 9
32 -1 65 -1 #SUP: 8
32 -1 75 -1 #SUP: 2
32 -1 76 -1 #SUP: 12
32 -1 113 -1 #SUP: 8
32 -1 160 -1 #SUP: 2
32 -1 182 -1 #SUP: 2
32 -1 201 -1 #SUP: 2
32 -1 213 -1 #SUP: 2
32 -1 244 -1 #SUP: 2
32 -1 305 -1 #SUP: 3
32 -1 340 -1 #SUP: 2
32 -1 372 -1 #SUP: 2
32 -1 388 -1 #SUP: 2
32 -1 786 -1 #SUP: 2
32 -1 878 -1 #SUP: 2
33 -1 2 -1 #SUP: 2
33 -1 22 -1 #SUP: 2
41 -1 2 -1 #SUP: 11
41 -1 3 -1 #SUP: 14
41 -1 7 -1 #SUP: 3
41 -1 10 -1 #SUP: 4
41 -1 22 -1 #SUP: 14
41 -1 29 -1 #SUP: 8
41 -1 31 -1 #SUP: 4
41 -1 32 -1 #SUP: 6
41 -1 41 -1 #SUP: 17
41 -1 46 -1 #SUP: 4
41 -1 48 -1 #SUP: 5
41 -1 52 -1 #SUP: 2
41 -1 54 -1 #SUP: 2
41 -1 64 -1 #SUP: 15
41 -1 65 -1 #SUP: 9
41 -1 75 -1 #SUP: 2
41 -1 76 -1 #SUP: 14
41 -1 113 -1 #SUP: 11
41 -1 115 -1 #SUP: 4
41 -1 118 -1 #SUP: 4
41 -1 129 -1 #SUP: 2
41 -1 146 -1 #SUP: 2
41 -1 148 -1 #SUP: 2
41 -1 151 -1 #SUP: 4
41 -1 154 -1 #SUP: 2
41 -1 156 -1 #SUP: 2
41 -1 158 -1 #SUP: 7
41 -1 160 -1 #SUP: 4
41 -1 161 -1 #SUP: 3
41 -1 165 -1 #SUP: 5
41 -1 182 -1 #SUP: 2
41 -1 186 -1 #SUP: 2
41 -1 200 -1 #SUP: 3
41 -1 208 -1 #SUP: 4
41 -1 213 -1 #SUP: 4
41 -1 214 -1 #SUP: 2
41 -1 236 -1 #SUP: 5
41 -1 242 -1 #SUP: 3
41 -1 244 -1 #SUP: 3
41 -1 248 -1 #SUP: 6
41 -1 268 -1 #SUP: 2
41 -1 272 -1 #SUP: 6
41 -1 278 -1 #SUP: 2
41 -1 312 -1 #SUP: 6
41 -1 326 -1 #SUP: 6
41 -1 340 -1 #SUP: 7
41 -1 364 -1 #SUP: 2
41 -1 401 -1 #SUP: 2
41 -1 403 -1 #SUP: 2
41 -1 406 -1 #SUP: 2
41 -1 482 -1 #SUP: 2
41 -1 484 -1 #SUP: 4
41 -1 502 -1 #SUP: 4
41 -1 504 -1 #SUP: 4
41 -1 527 -1 #SUP: 2
41 -1 549 -1 #SUP: 2
41 -1 607 -1 #SUP: 2
41 -1 641 -1 #SUP: 4
41 -1 644 -1 #SUP: 2
41 -1 687 -1 #SUP: 2
41 -1 694 -1 #SUP: 2
41 -1 717 -1 #SUP: 4
41 -1 747 -1 #SUP: 2
41 -1 786 -1 #SUP: 6
41 -1 847 -1 #SUP: 3
41 -1 895 -1 #SUP: 5
41 -1 941 -1 #SUP: 2
41 -1 1120 -1 #SUP: 2
41 -1 1152 -1 #SUP: 2
41 -1 1467 -1 #SUP: 3
41 -1 1543 -1 #SUP: 2
41 -1 2117 -1 #SUP: 2
41 -1 3821 -1 #SUP: 2
42 -1 113 -1 #SUP: 2
44 -1 76 -1 #SUP: 2
46 -1 22 -1 #SUP: 2
46 -1 64 -1 #SUP: 2
46 -1 76 -1 #SUP: 2
48 -1 3 -1 #SUP: 2
48 -1 32 -1 #SUP: 2
48 -1 41 -1 #SUP: 5
48 -1 65 -1 #SUP: 3
48 -1 158 -1 #SUP: 5
49 -1 3 -1 #SUP: 2
49 -1 76 -1 #SUP: 2
50 -1 3 -1 #SUP: 2
50 -1 22 -1 #SUP: 4
50 -1 64 -1 #SUP: 6
50 -1 65 -1 #SUP: 3
50 -1 76 -1 #SUP: 6
50 -1 77 -1 #SUP: 2
50 -1 113 -1 #SUP: 7
50 -1 200 -1 #SUP: 2
50 -1 504 -1 #SUP: 2
50 -1 510 -1 #SUP: 2
52 -1 2 -1 #SUP: 3
52 -1 3 -1 #SUP: 4
52 -1 32 -1 #SUP: 2
52 -1 65 -1 #SUP: 3
52 -1 76 -1 #SUP: 4
52 -1 113 -1 #SUP: 4
52 -1 182 -1 #SUP: 2
52 -1 248 -1 #SUP: 2
52 -1 388 -1 #SUP: 2
54 -1 2 -1 #SUP: 3
54 -1 76 -1 #SUP: 3
54 -1 113 -1 #SUP: 2
54 -1 200 -1 #SUP: 2
54 -1 340 -1 #SUP: 2
62 -1 22 -1 #SUP: 2
62 -1 77 -1 #SUP: 2
64 -1 2 -1 #SUP: 11
64 -1 3 -1 #SUP: 14
64 -1 10 -1 #SUP: 6
64 -1 22 -1 #SUP: 17
64 -1 29 -1 #SUP: 3
64 -1 30 -1 #SUP: 2
64 -1 31 -1 #SUP: 2
64 -1 32 -1 #SUP: 6
64 -1 33 -1 #SUP: 2
64 -1 41 -1 #SUP: 8
64 -1 50 -1 #SUP: 2
64 -1 52 -1 #SUP: 2
64 -1 54 -1 #SUP: 2
64 -1 64 -1 #SUP: 9
64 -1 65 -1 #SUP: 10
64 -1 66 -1 #SUP: 4
64 -1 76 -1 #SUP: 18
64 -1 77 -1 #SUP: 2
64 -1 113 -1 #SUP: 14
64 -1 118 -1 #SUP: 2
64 -1 131 -1 #SUP: 2
64 -1 137 -1 #SUP: 2
64 -1 151 -1 #SUP: 3
64 -1 158 -1 #SUP: 4
64 -1 160 -1 #SUP: 5
64 -1 182 -1 #SUP: 5
64 -1 187 -1 #SUP: 3
64 -1 189 -1 #SUP: 2
64 -1 190 -1 #SUP: 2
64 -1 207 -1 #SUP: 2
64 -1 208 -1 #SUP: 3
64 -1 212 -1 #SUP: 2
64 -1 213 -1 #SUP: 2
64 -1 224 -1 #SUP: 3
64 -1 248 -1 #SUP: 3
64 -1 250 -1 #SUP: 3
64 -1 256 -1 #SUP: 2
64 -1 308 -1 #SUP: 5
64 -1 326 -1 #SUP: 4
64 -1 340 -1 #SUP: 5
64 -1 345 -1 #SUP: 2
64 -1 356 -1 #SUP: 3
64 -1 364 -1 #SUP: 3
64 -1 484 -1 #SUP: 2
64 -1 502 -1 #SUP: 3
64 -1 504 -1 #SUP: 2
64 -1 607 -1 #SUP: 2
64 -1 641 -1 #SUP: 2
64 -1 644 -1 #SUP: 2
64 -1 699 -1 #SUP: 2
64 -1 786 -1 #SUP: 3
64 -1 1100 -1 #SUP: 2
64 -1 1467 -1 #SUP: 4
64 -1 1543 -1 #SUP: 2
64 -1 1809 -1 #SUP: 4
64 -1 2491 -1 #SUP: 2
64 -1 3300 -1 #SUP: 2
64 -1 3391 -1 #SUP: 2
65 -1 2 -1 #SUP: 9
65 -1 3 -1 #SUP: 5
65 -1 10 -1 #SUP: 7
65 -1 22 -1 #SUP: 11
65 -1 31 -1 #SUP: 2
65 -1 32 -1 #SUP: 11
65 -1 41 -1 #SUP: 6
65 -1 44 -1 #SUP: 2
65 -1 46 -1 #SUP: 3
65 -1 50 -1 #SUP: 5
65 -1 64 -1 #SUP: 11
65 -1 65 -1 #SUP: 6
65 -1 75 -1 #SUP: 4
65 -1 76 -1 #SUP: 17
65 -1 113 -1 #SUP: 8
65 -1 115 -1 #SUP: 2
65 -1 135 -1 #SUP: 2
65 -1 150 -1 #SUP: 2
65 -1 154 -1 #SUP: 2
65 -1 158 -1 #SUP: 2
65 -1 160 -1 #SUP: 2
65 -1 183 -1 #SUP: 2
65 -1 185 -1 #SUP: 3
65 -1 187 -1 #SUP: 4
65 -1 200 -1 #SUP: 2
65 -1 213 -1 #SUP: 5
65 -1 248 -1 #SUP: 2
65 -1 256 -1 #SUP: 2
65 -1 276 -1 #SUP: 2
65 -1 340 -1 #SUP: 2
65 -1 354 -1 #SUP: 2
65 -1 372 -1 #SUP: 2
65 -1 380 -1 #SUP: 2
65 -1 406 -1 #SUP: 2
65 -1 418 -1 #SUP: 3
65 -1 502 -1 #SUP: 2
65 -1 557 -1 #SUP: 2
65 -1 566 -1 #SUP: 2
65 -1 607 -1 #SUP: 2
65 -1 614 -1 #SUP: 2
65 -1 641 -1 #SUP: 2
65 -1 786 -1 #SUP: 2
65 -1 802 -1 #SUP: 2
65 -1 826 -1 #SUP: 2
65 -1 879 -1 #SUP: 3
65 -1 929 -1 #SUP: 2
65 -1 931 -1 #SUP: 2
65 -1 1100 -1 #SUP: 4
65 -1 3460 -1 #SUP: 2
65 -1 6638 -1 #SUP: 2
66 -1 10 -1 #SUP: 2
66 -1 22 -1 #SUP: 4
66 -1 32 -1 #SUP: 3
75 -1 2 -1 #SUP: 2
75 -1 3 -1 #SUP: 2
75 -1 22 -1 #SUP: 2
75 -1 31 -1 #SUP: 2
75 -1 64 -1 #SUP: 2
75 -1 76 -1 #SUP: 3
75 -1 113 -1 #SUP: 2
75 -1 182 -1 #SUP: 2
75 -1 224 -1 #SUP: 2
75 -1 641 -1 #SUP: 2
76 -1 2 -1 #SUP: 22
76 -1 3 -1 #SUP: 15
76 -1 7 -1 #SUP: 2
76 -1 10 -1 #SUP: 8
76 -1 15 -1 #SUP: 2
76 -1 16 -1 #SUP: 3
76 -1 22 -1 #SUP: 18
76 -1 27 -1 #SUP: 2
76 -1 29 -1 #SUP: 6
76 -1 31 -1 #SUP: 3
76 -1 32 -1 #SUP: 12
76 -1 33 -1 #SUP: 2
76 -1 41 -1 #SUP: 12
76 -1 46 -1 #SUP: 3
76 -1 47 -1 #SUP: 2
76 -1 50 -1 #SUP: 5
76 -1 52 -1 #SUP: 4
76 -1 54 -1 #SUP: 2
76 -1 64 -1 #SUP: 18
76 -1 65 -1 #SUP: 14
76 -1 66 -1 #SUP: 4
76 -1 70 -1 #SUP: 2
76 -1 72 -1 #SUP: 3
76 -1 75 -1 #SUP: 2
76 -1 76 -1 #SUP: 8
76 -1 77 -1 #SUP: 2
76 -1 113 -1 #SUP: 22
76 -1 115 -1 #SUP: 3
76 -1 131 -1 #SUP: 2
76 -1 137 -1 #SUP: 2
76 -1 149 -1 #SUP: 2
76 -1 151 -1 #SUP: 6
76 -1 154 -1 #SUP: 3
76 -1 158 -1 #SUP: 5
76 -1 160 -1 #SUP: 3
76 -1 165 -1 #SUP: 3
76 -1 179 -1 #SUP: 3
76 -1 182 -1 #SUP: 6
76 -1 185 -1 #SUP: 4
76 -1 187 -1 #SUP: 4
76 -1 200 -1 #SUP: 7
76 -1 208 -1 #SUP: 3
76 -1 211 -1 #SUP: 3
76 -1 224 -1 #SUP: 3
76 -1 248 -1 #SUP: 6
76 -1 250 -1 #SUP: 3
76 -1 305 -1 #SUP: 2
76 -1 326 -1 #SUP: 2
76 -1 339 -1 #SUP: 2
76 -1 340 -1 #SUP: 7
76 -1 342 -1 #SUP: 3
76 -1 364 -1 #SUP: 3
76 -1 394 -1 #SUP: 3
76 -1 405 -1 #SUP: 2
76 -1 406 -1 #SUP: 2
76 -1 435 -1 #SUP: 2
76 -1 445 -1 #SUP: 2
76 -1 454 -1 #SUP: 2
76 -1 463 -1 #SUP: 2
76 -1 484 -1 #SUP: 4
76 -1 502 -1 #SUP: 4
76 -1 504 -1 #SUP: 2
76 -1 510 -1 #SUP: 4
76 -1 525 -1 #SUP: 2
76 -1 527 -1 #SUP: 3
76 -1 557 -1 #SUP: 4
76 -1 571 -1 #SUP: 2
76 -1 602 -1 #SUP: 2
76 -1 614 -1 #SUP: 2
76 -1 641 -1 #SUP: 6
76 -1 653 -1 #SUP: 2
76 -1 687 -1 #SUP: 2
76 -1 714 -1 #SUP: 4
76 -1 783 -1 #SUP: 2
76 -1 786 -1 #SUP: 5
76 -1 814 -1 #SUP: 2
76 -1 826 -1 #SUP: 2
76 -1 879 -1 #SUP: 4
76 -1 1017 -1 #SUP: 2
76 -1 1100 -1 #SUP: 2
76 -1 1121 -1 #SUP: 2
76 -1 1809 -1 #SUP: 3
76 -1 2344 -1 #SUP: 2
76 -1 3391 -1 #SUP: 3
77 -1 10 -1 #SUP: 2
77 -1 22 -1 #SUP: 2
77 -1 30 -1 #SUP: 2
77 -1 32 -1 #SUP: 2
77 -1 41 -1 #SUP: 2
77 -1 65 -1 #SUP: 3
77 -1 75 -1 #SUP: 3
77 -1 76 -1 #SUP: 2
77 -1 77 -1 #SUP: 2
77 -1 113 -1 #SUP: 2
77 -1 364 -1 #SUP: 2
81 -1 64 -1 #SUP: 3
93 -1 31 -1 #SUP: 2
100 -1 22 -1 #SUP: 2
100 -1 29 -1 #SUP: 3
100 -1 41 -1 #SUP: 2
100 -1 52 -1 #SUP: 2
100 -1 64 -1 #SUP: 2
100 -1 76 -1 #SUP: 2
100 -1 113 -1 #SUP: 2
100 -1 248 -1 #SUP: 2
100 -1 502 -1 #SUP: 2
113 -1 2 -1 #SUP: 8
113 -1 3 -1 #SUP: 14
113 -1 7 -1 #SUP: 5
113 -1 10 -1 #SUP: 5
113 -1 22 -1 #SUP: 12
113 -1 27 -1 #SUP: 2
113 -1 29 -1 #SUP: 5
113 -1 31 -1 #SUP: 2
113 -1 32 -1 #SUP: 9
113 -1 41 -1 #SUP: 8
113 -1 50 -1 #SUP: 6
113 -1 52 -1 #SUP: 3
113 -1 64 -1 #SUP: 14
113 -1 65 -1 #SUP: 16
113 -1 66 -1 #SUP: 2
113 -1 75 -1 #SUP: 2
113 -1 76 -1 #SUP: 22
113 -1 81 -1 #SUP: 2
113 -1 113 -1 #SUP: 13
113 -1 115 -1 #SUP: 3
113 -1 135 -1 #SUP: 3
113 -1 137 -1 #SUP: 3
113 -1 141 -1 #SUP: 2
113 -1 151 -1 #SUP: 4
113 -1 155 -1 #SUP: 2
113 -1 158 -1 #SUP: 3
113 -1 160 -1 #SUP: 7
113 -1 182 -1 #SUP: 4
113 -1 185 -1 #SUP: 5
113 -1 200 -1 #SUP: 2
113 -1 208 -1 #SUP: 2
113 -1 213 -1 #SUP: 2
113 -1 221 -1 #SUP: 2
113 -1 224 -1 #SUP: 2
113 -1 248 -1 #SUP: 4
113 -1 250 -1 #SUP: 2
113 -1 278 -1 #SUP: 2
113 -1 308 -1 #SUP: 2
113 -1 326 -1 #SUP: 2
113 -1 340 -1 #SUP: 7
113 -1 345 -1 #SUP: 2
113 -1 356 -1 #SUP: 2
113 -1 364 -1 #SUP: 3
113 -1 388 -1 #SUP: 4
113 -1 406 -1 #SUP: 4
113 -1 445 -1 #SUP: 2
113 -1 463 -1 #SUP: 2
113 -1 502 -1 #SUP: 4
113 -1 504 -1 #SUP: 4
113 -1 614 -1 #SUP: 2
113 -1 641 -1 #SUP: 2
113 -1 653 -1 #SUP: 2
113 -1 706 -1 #SUP: 2
113 -1 786 -1 #SUP: 5
113 -1 802 -1 #SUP: 2
113 -1 826 -1 #SUP: 4
113 -1 847 -1 #SUP: 2
113 -1 879 -1 #SUP: 3
113 -1 972 -1 #SUP: 2
113 -1 1017 -1 #SUP: 3
113 -1 1100 -1 #SUP: 4
113 -1 1225 -1 #SUP: 2
113 -1 1309 -1 #SUP: 2
113 -1 1678 -1 #SUP: 2
115 -1 22 -1 #SUP: 2
115 -1 41 -1 #SUP: 2
118 -1 3 -1 #SUP: 2
118 -1 22 -1 #SUP: 3
118 -1 41 -1 #SUP: 2
118 -1 64 -1 #SUP: 2
118 -1 76 -1 #SUP: 3
118 -1 305 -1 #SUP: 2
129 -1 54 -1 #SUP: 2
131 -1 2 -1 #SUP: 3
131 -1 3 -1 #SUP: 2
131 -1 64 -1 #SUP: 3
131 -1 131 -1 #SUP: 2
135 -1 3 -1 #SUP: 2
135 -1 76 -1 #SUP: 3
137 -1 76 -1 #SUP: 3
141 -1 22 -1 #SUP: 2
141 -1 54 -1 #SUP: 2
141 -1 76 -1 #SUP: 3
141 -1 113 -1 #SUP: 2
141 -1 129 -1 #SUP: 2
141 -1 185 -1 #SUP: 2
146 -1 2 -1 #SUP: 2
146 -1 22 -1 #SUP: 3
149 -1 3 -1 #SUP: 2
151 -1 3 -1 #SUP: 2
151 -1 13 -1 #SUP: 2
151 -1 29 -1 #SUP: 2
151 -1 41 -1 #SUP: 4
151 -1 64 -1 #SUP: 2
151 -1 65 -1 #SUP: 2
151 -1 76 -1 #SUP: 3
151 -1 113 -1 #SUP: 5
151 -1 272 -1 #SUP: 2
151 -1 786 -1 #SUP: 2
154 -1 2 -1 #SUP: 2
154 -1 22 -1 #SUP: 2
154 -1 76 -1 #SUP: 2
154 -1 305 -1 #SUP: 2
155 -1 3 -1 #SUP: 2
155 -1 22 -1 #SUP: 2
155 -1 64 -1 #SUP: 3
155 -1 65 -1 #SUP: 2
156 -1 64 -1 #SUP: 2
158 -1 2 -1 #SUP: 5
158 -1 3 -1 #SUP: 8
158 -1 7 -1 #SUP: 2
158 -1 10 -1 #SUP: 2
158 -1 22 -1 #SUP: 8
158 -1 29 -1 #SUP: 6
158 -1 31 -1 #SUP: 2
158 -1 32 -1 #SUP: 7
158 -1 41 -1 #SUP: 24
158 -1 46 -1 #SUP: 2
158 -1 64 -1 #SUP: 5
158 -1 65 -1 #SUP: 8
158 -1 76 -1 #SUP: 8
158 -1 113 -1 #SUP: 4
158 -1 118 -1 #SUP: 3
158 -1 146 -1 #SUP: 2
158 -1 158 -1 #SUP: 2
158 -1 160 -1 #SUP: 3
158 -1 165 -1 #SUP: 3
158 -1 187 -1 #SUP: 2
158 -1 189 -1 #SUP: 2
158 -1 200 -1 #SUP: 3
158 -1 208 -1 #SUP: 2
158 -1 213 -1 #SUP: 3
158 -1 225 -1 #SUP: 2
158 -1 248 -1 #SUP: 2
158 -1 272 -1 #SUP: 4
158 -1 278 -1 #SUP: 2
158 -1 326 -1 #SUP: 3
158 -1 401 -1 #SUP: 2
158 -1 607 -1 #SUP: 2
158 -1 614 -1 #SUP: 2
158 -1 717 -1 #SUP: 3
158 -1 743 -1 #SUP: 2
158 -1 786 -1 #SUP: 2
158 -1 895 -1 #SUP: 4
158 -1 1809 -1 #SUP: 2
158 -1 3821 -1 #SUP: 2
160 -1 2 -1 #SUP: 4
160 -1 3 -1 #SUP: 2
160 -1 10 -1 #SUP: 2
160 -1 22 -1 #SUP: 2
160 -1 32 -1 #SUP: 3
160 -1 41 -1 #SUP: 6
160 -1 50 -1 #SUP: 3
160 -1 64 -1 #SUP: 3
160 -1 65 -1 #SUP: 2
160 -1 76 -1 #SUP: 7
160 -1 113 -1 #SUP: 3
160 -1 201 -1 #SUP: 3
160 -1 504 -1 #SUP: 3
160 -1 607 -1 #SUP: 3
160 -1 1017 -1 #SUP: 2
161 -1 76 -1 #SUP: 2
161 -1 340 -1 #SUP: 2
163 -1 3 -1 #SUP: 2
165 -1 3 -1 #SUP: 2
165 -1 32 -1 #SUP: 2
165 -1 41 -1 #SUP: 4
165 -1 46 -1 #SUP: 2
165 -1 64 -1 #SUP: 4
165 -1 76 -1 #SUP: 2
165 -1 305 -1 #SUP: 2
168 -1 32 -1 #SUP: 2
168 -1 113 -1 #SUP: 2
169 -1 41 -1 #SUP: 2
179 -1 113 -1 #SUP: 3
179 -1 151 -1 #SUP: 2
179 -1 714 -1 #SUP: 2
182 -1 3 -1 #SUP: 5
182 -1 22 -1 #SUP: 4
182 -1 32 -1 #SUP: 2
182 -1 41 -1 #SUP: 3
182 -1 64 -1 #SUP: 4
182 -1 65 -1 #SUP: 4
182 -1 76 -1 #SUP: 4
182 -1 113 -1 #SUP: 2
182 -1 248 -1 #SUP: 3
182 -1 308 -1 #SUP: 2
182 -1 641 -1 #SUP: 2
183 -1 113 -1 #SUP: 2
185 -1 50 -1 #SUP: 2
185 -1 64 -1 #SUP: 2
185 -1 76 -1 #SUP: 4
185 -1 113 -1 #SUP: 4
185 -1 364 -1 #SUP: 2
186 -1 929 -1 #SUP: 2
187 -1 22 -1 #SUP: 4
187 -1 32 -1 #SUP: 2
187 -1 65 -1 #SUP: 2
187 -1 76 -1 #SUP: 3
187 -1 137 -1 #SUP: 2
189 -1 2 -1 #SUP: 2
190 -1 3 -1 #SUP: 4
190 -1 65 -1 #SUP: 2
190 -1 151 -1 #SUP: 2
190 -1 200 -1 #SUP: 2
194 -1 22 -1 #SUP: 2
200 -1 2 -1 #SUP: 2
200 -1 22 -1 #SUP: 3
200 -1 64 -1 #SUP: 4
200 -1 65 -1 #SUP: 2
200 -1 76 -1 #SUP: 3
200 -1 113 -1 #SUP: 2
200 -1 185 -1 #SUP: 2
200 -1 388 -1 #SUP: 2
200 -1 614 -1 #SUP: 2
200 -1 3391 -1 #SUP: 2
208 -1 7 -1 #SUP: 2
208 -1 41 -1 #SUP: 3
208 -1 160 -1 #SUP: 3
208 -1 248 -1 #SUP: 2
208 -1 653 -1 #SUP: 2
211 -1 64 -1 #SUP: 2
211 -1 113 -1 #SUP: 2
212 -1 50 -1 #SUP: 2
212 -1 113 -1 #SUP: 2
213 -1 2 -1 #SUP: 4
213 -1 41 -1 #SUP: 2
213 -1 64 -1 #SUP: 2
213 -1 76 -1 #SUP: 5
213 -1 113 -1 #SUP: 2
213 -1 131 -1 #SUP: 2
213 -1 151 -1 #SUP: 2
213 -1 187 -1 #SUP: 2
213 -1 250 -1 #SUP: 2
213 -1 268 -1 #SUP: 2
213 -1 305 -1 #SUP: 2
213 -1 3821 -1 #SUP: 2
221 -1 113 -1 #SUP: 2
224 -1 22 -1 #SUP: 3
224 -1 31 -1 #SUP: 2
224 -1 32 -1 #SUP: 3
224 -1 41 -1 #SUP: 3
224 -1 64 -1 #SUP: 2
224 -1 76 -1 #SUP: 3
224 -1 161 -1 #SUP: 2
224 -1 182 -1 #SUP: 2
224 -1 340 -1 #SUP: 2
236 -1 3 -1 #SUP: 3
236 -1 41 -1 #SUP: 5
236 -1 48 -1 #SUP: 5
236 -1 65 -1 #SUP: 3
236 -1 76 -1 #SUP: 2
236 -1 158 -1 #SUP: 5
236 -1 312 -1 #SUP: 5
242 -1 41 -1 #SUP: 2
242 -1 64 -1 #SUP: 2
242 -1 156 -1 #SUP: 2
244 -1 22 -1 #SUP: 4
244 -1 32 -1 #SUP: 2
247 -1 32 -1 #SUP: 2
247 -1 65 -1 #SUP: 2
247 -1 76 -1 #SUP: 2
248 -1 2 -1 #SUP: 3
248 -1 3 -1 #SUP: 4
248 -1 29 -1 #SUP: 2
248 -1 41 -1 #SUP: 4
248 -1 64 -1 #SUP: 7
248 -1 65 -1 #SUP: 2
248 -1 76 -1 #SUP: 7
248 -1 113 -1 #SUP: 4
248 -1 160 -1 #SUP: 2
248 -1 182 -1 #SUP: 3
248 -1 213 -1 #SUP: 3
248 -1 248 -1 #SUP: 2
248 -1 268 -1 #SUP: 2
248 -1 308 -1 #SUP: 3
248 -1 340 -1 #SUP: 2
248 -1 504 -1 #SUP: 2
248 -1 561 -1 #SUP: 2
248 -1 847 -1 #SUP: 2
248 -1 1017 -1 #SUP: 2
250 -1 3 -1 #SUP: 5
250 -1 10 -1 #SUP: 3
250 -1 22 -1 #SUP: 2
250 -1 41 -1 #SUP: 2
250 -1 76 -1 #SUP: 4
250 -1 113 -1 #SUP: 5
250 -1 185 -1 #SUP: 2
250 -1 200 -1 #SUP: 2
250 -1 364 -1 #SUP: 2
256 -1 10 -1 #SUP: 3
256 -1 64 -1 #SUP: 2
256 -1 65 -1 #SUP: 2
256 -1 66 -1 #SUP: 2
256 -1 76 -1 #SUP: 2
256 -1 308 -1 #SUP: 2
262 -1 2 -1 #SUP: 2
262 -1 76 -1 #SUP: 2
264 -1 64 -1 #SUP: 3
264 -1 113 -1 #SUP: 2
264 -1 151 -1 #SUP: 3
268 -1 64 -1 #SUP: 2
268 -1 76 -1 #SUP: 2
268 -1 113 -1 #SUP: 2
268 -1 250 -1 #SUP: 2
272 -1 3 -1 #SUP: 2
272 -1 29 -1 #SUP: 2
272 -1 41 -1 #SUP: 2
272 -1 747 -1 #SUP: 2
272 -1 786 -1 #SUP: 2
272 -1 2117 -1 #SUP: 2
273 -1 2 -1 #SUP: 2
273 -1 64 -1 #SUP: 2
276 -1 65 -1 #SUP: 2
276 -1 76 -1 #SUP: 2
277 -1 10 -1 #SUP: 2
277 -1 65 -1 #SUP: 2
277 -1 76 -1 #SUP: 2
277 -1 276 -1 #SUP: 2
278 -1 22 -1 #SUP: 3
278 -1 64 -1 #SUP: 2
278 -1 65 -1 #SUP: 2
278 -1 76 -1 #SUP: 6
278 -1 113 -1 #SUP: 2
278 -1 115 -1 #SUP: 2
278 -1 305 -1 #SUP: 2
278 -1 557 -1 #SUP: 3
296 -1 3 -1 #SUP: 2
296 -1 113 -1 #SUP: 2
296 -1 151 -1 #SUP: 2
305 -1 2 -1 #SUP: 3
305 -1 3 -1 #SUP: 3
305 -1 22 -1 #SUP: 3
305 -1 64 -1 #SUP: 3
305 -1 76 -1 #SUP: 4
305 -1 113 -1 #SUP: 3
305 -1 200 -1 #SUP: 2
308 -1 2 -1 #SUP: 2
308 -1 10 -1 #SUP: 3
308 -1 64 -1 #SUP: 3
308 -1 65 -1 #SUP: 2
308 -1 76 -1 #SUP: 3
308 -1 113 -1 #SUP: 3
308 -1 212 -1 #SUP: 2
312 -1 3 -1 #SUP: 2
312 -1 32 -1 #SUP: 2
312 -1 41 -1 #SUP: 5
312 -1 48 -1 #SUP: 5
312 -1 65 -1 #SUP: 3
312 -1 158 -1 #SUP: 5
326 -1 2 -1 #SUP: 2
326 -1 3 -1 #SUP: 5
326 -1 32 -1 #SUP: 2
326 -1 41 -1 #SUP: 6
326 -1 48 -1 #SUP: 5
326 -1 64 -1 #SUP: 2
326 -1 65 -1 #SUP: 4
326 -1 76 -1 #SUP: 2
326 -1 158 -1 #SUP: 5
326 -1 236 -1 #SUP: 5
326 -1 278 -1 #SUP: 2
326 -1 312 -1 #SUP: 5
339 -1 64 -1 #SUP: 2
340 -1 3 -1 #SUP: 3
340 -1 22 -1 #SUP: 5
340 -1 31 -1 #SUP: 2
340 -1 41 -1 #SUP: 3
340 -1 46 -1 #SUP: 2
340 -1 50 -1 #SUP: 4
340 -1 64 -1 #SUP: 3
340 -1 65 -1 #SUP: 3
340 -1 76 -1 #SUP: 5
340 -1 77 -1 #SUP: 2
340 -1 113 -1 #SUP: 4
340 -1 182 -1 #SUP: 2
340 -1 185 -1 #SUP: 2
340 -1 248 -1 #SUP: 2
340 -1 394 -1 #SUP: 2
342 -1 16 -1 #SUP: 2
342 -1 22 -1 #SUP: 2
345 -1 113 -1 #SUP: 2
354 -1 76 -1 #SUP: 2
354 -1 113 -1 #SUP: 2
356 -1 65 -1 #SUP: 2
356 -1 340 -1 #SUP: 2
356 -1 879 -1 #SUP: 2
364 -1 2 -1 #SUP: 2
364 -1 31 -1 #SUP: 2
364 -1 41 -1 #SUP: 3
364 -1 64 -1 #SUP: 2
364 -1 76 -1 #SUP: 2
364 -1 113 -1 #SUP: 3
364 -1 151 -1 #SUP: 2
364 -1 182 -1 #SUP: 3
372 -1 182 -1 #SUP: 2
376 -1 76 -1 #SUP: 2
380 -1 76 -1 #SUP: 2
380 -1 113 -1 #SUP: 2
386 -1 76 -1 #SUP: 2
388 -1 2 -1 #SUP: 3
388 -1 32 -1 #SUP: 2
388 -1 64 -1 #SUP: 2
388 -1 65 -1 #SUP: 4
388 -1 76 -1 #SUP: 4
388 -1 641 -1 #SUP: 2
394 -1 76 -1 #SUP: 3
394 -1 113 -1 #SUP: 2
401 -1 64 -1 #SUP: 2
403 -1 2 -1 #SUP: 2
403 -1 41 -1 #SUP: 3
403 -1 76 -1 #SUP: 2
403 -1 187 -1 #SUP: 2
405 -1 3 -1 #SUP: 2
405 -1 54 -1 #SUP: 2
405 -1 76 -1 #SUP: 2
406 -1 2 -1 #SUP: 3
406 -1 31 -1 #SUP: 2
406 -1 41 -1 #SUP: 2
406 -1 76 -1 #SUP: 4
406 -1 113 -1 #SUP: 2
406 -1 221 -1 #SUP: 2
417 -1 64 -1 #SUP: 2
417 -1 65 -1 #SUP: 2
418 -1 64 -1 #SUP: 3
418 -1 66 -1 #SUP: 2
435 -1 200 -1 #SUP: 2
448 -1 76 -1 #SUP: 2
448 -1 113 -1 #SUP: 2
463 -1 2 -1 #SUP: 2
463 -1 22 -1 #SUP: 2
482 -1 22 -1 #SUP: 3
482 -1 54 -1 #SUP: 2
482 -1 76 -1 #SUP: 2
484 -1 3 -1 #SUP: 2
484 -1 41 -1 #SUP: 4
484 -1 76 -1 #SUP: 2
484 -1 151 -1 #SUP: 4
484 -1 364 -1 #SUP: 2
502 -1 2 -1 #SUP: 2
502 -1 3 -1 #SUP: 2
502 -1 10 -1 #SUP: 2
502 -1 22 -1 #SUP: 3
502 -1 41 -1 #SUP: 3
502 -1 52 -1 #SUP: 3
502 -1 64 -1 #SUP: 3
502 -1 65 -1 #SUP: 2
502 -1 76 -1 #SUP: 5
502 -1 100 -1 #SUP: 2
502 -1 113 -1 #SUP: 4
502 -1 248 -1 #SUP: 2
504 -1 3 -1 #SUP: 3
504 -1 22 -1 #SUP: 2
504 -1 41 -1 #SUP: 2
504 -1 65 -1 #SUP: 2
504 -1 76 -1 #SUP: 3
504 -1 113 -1 #SUP: 3
504 -1 151 -1 #SUP: 2
504 -1 200 -1 #SUP: 2
504 -1 340 -1 #SUP: 2
506 -1 65 -1 #SUP: 2
510 -1 22 -1 #SUP: 2
525 -1 2 -1 #SUP: 2
525 -1 22 -1 #SUP: 2
525 -1 32 -1 #SUP: 2
527 -1 41 -1 #SUP: 2
527 -1 64 -1 #SUP: 2
527 -1 165 -1 #SUP: 2
549 -1 31 -1 #SUP: 2
549 -1 65 -1 #SUP: 3
557 -1 76 -1 #SUP: 2
557 -1 113 -1 #SUP: 4
561 -1 3 -1 #SUP: 2
561 -1 64 -1 #SUP: 2
566 -1 2 -1 #SUP: 2
566 -1 10 -1 #SUP: 2
566 -1 32 -1 #SUP: 2
566 -1 76 -1 #SUP: 2
601 -1 22 -1 #SUP: 2
602 -1 22 -1 #SUP: 2
607 -1 2 -1 #SUP: 2
607 -1 76 -1 #SUP: 3
607 -1 641 -1 #SUP: 2
636 -1 3 -1 #SUP: 2
636 -1 113 -1 #SUP: 2
641 -1 3 -1 #SUP: 3
641 -1 22 -1 #SUP: 2
641 -1 64 -1 #SUP: 2
641 -1 65 -1 #SUP: 3
641 -1 66 -1 #SUP: 2
641 -1 76 -1 #SUP: 2
641 -1 182 -1 #SUP: 2
641 -1 248 -1 #SUP: 2
641 -1 340 -1 #SUP: 4
644 -1 10 -1 #SUP: 2
644 -1 32 -1 #SUP: 2
644 -1 64 -1 #SUP: 2
644 -1 76 -1 #SUP: 2
653 -1 41 -1 #SUP: 2
653 -1 160 -1 #SUP: 2
690 -1 76 -1 #SUP: 2
694 -1 76 -1 #SUP: 2
699 -1 2 -1 #SUP: 2
701 -1 2 -1 #SUP: 2
701 -1 64 -1 #SUP: 2
702 -1 64 -1 #SUP: 2
702 -1 76 -1 #SUP: 2
702 -1 786 -1 #SUP: 2
706 -1 64 -1 #SUP: 3
714 -1 3 -1 #SUP: 3
714 -1 64 -1 #SUP: 2
714 -1 151 -1 #SUP: 2
714 -1 248 -1 #SUP: 2
717 -1 2 -1 #SUP: 2
717 -1 3 -1 #SUP: 2
717 -1 41 -1 #SUP: 3
717 -1 76 -1 #SUP: 2
737 -1 64 -1 #SUP: 2
743 -1 76 -1 #SUP: 2
747 -1 31 -1 #SUP: 2
747 -1 41 -1 #SUP: 3
747 -1 64 -1 #SUP: 2
747 -1 113 -1 #SUP: 3
747 -1 151 -1 #SUP: 2
747 -1 364 -1 #SUP: 2
747 -1 504 -1 #SUP: 2
786 -1 10 -1 #SUP: 2
786 -1 22 -1 #SUP: 3
786 -1 31 -1 #SUP: 2
786 -1 41 -1 #SUP: 4
786 -1 64 -1 #SUP: 4
786 -1 76 -1 #SUP: 4
786 -1 165 -1 #SUP: 2
786 -1 340 -1 #SUP: 3
786 -1 484 -1 #SUP: 3
786 -1 527 -1 #SUP: 2
786 -1 1017 -1 #SUP: 2
802 -1 2 -1 #SUP: 2
802 -1 22 -1 #SUP: 3
802 -1 76 -1 #SUP: 3
802 -1 394 -1 #SUP: 2
826 -1 2 -1 #SUP: 2
826 -1 3 -1 #SUP: 2
826 -1 50 -1 #SUP: 2
826 -1 76 -1 #SUP: 3
826 -1 113 -1 #SUP: 5
847 -1 3 -1 #SUP: 2
847 -1 41 -1 #SUP: 2
847 -1 76 -1 #SUP: 3
878 -1 22 -1 #SUP: 2
879 -1 2 -1 #SUP: 3
879 -1 3 -1 #SUP: 4
879 -1 32 -1 #SUP: 2
879 -1 76 -1 #SUP: 3
879 -1 113 -1 #SUP: 3
879 -1 250 -1 #SUP: 2
879 -1 340 -1 #SUP: 2
895 -1 41 -1 #SUP: 3
895 -1 272 -1 #SUP: 4
952 -1 64 -1 #SUP: 2
1017 -1 41 -1 #SUP: 3
1017 -1 504 -1 #SUP: 3
1036 -1 3 -1 #SUP: 2
1042 -1 10 -1 #SUP: 2
1042 -1 76 -1 #SUP: 2
1089 -1 64 -1 #SUP: 2
1100 -1 22 -1 #SUP: 2
1100 -1 32 -1 #SUP: 2
1100 -1 76 -1 #SUP: 2
1100 -1 113 -1 #SUP: 2
1100 -1 213 -1 #SUP: 2
1198 -1 64 -1 #SUP: 2
1225 -1 41 -1 #SUP: 2
1225 -1 160 -1 #SUP: 2
1309 -1 22 -1 #SUP: 2
1309 -1 76 -1 #SUP: 2
1309 -1 115 -1 #SUP: 2
1309 -1 278 -1 #SUP: 2
1467 -1 41 -1 #SUP: 4
1467 -1 64 -1 #SUP: 3
1467 -1 65 -1 #SUP: 2
1543 -1 29 -1 #SUP: 2
1543 -1 41 -1 #SUP: 2
1747 -1 10 -1 #SUP: 2
1747 -1 65 -1 #SUP: 2
1747 -1 76 -1 #SUP: 2
1809 -1 22 -1 #SUP: 2
1809 -1 76 -1 #SUP: 2
1809 -1 113 -1 #SUP: 2
1921 -1 3 -1 #SUP: 2
2740 -1 22 -1 #SUP: 2
3300 -1 22 -1 #SUP: 2
3391 -1 2 -1 #SUP: 2
3460 -1 22 -1 #SUP: 2
3460 -1 64 -1 #SUP: 2
3821 -1 2 -1 #SUP: 2
3821 -1 41 -1 #SUP: 2
3821 -1 76 -1 #SUP: 2
4124 -1 31 -1 #SUP: 2
4124 -1 65 -1 #SUP: 2
15520 -1 64 -1 #SUP: 2
2 -1 2 -1 406 -1 #SUP: 2
2 -1 3 -1 41 -1 #SUP: 3
2 -1 3 -1 64 -1 #SUP: 3
2 -1 3 -1 706 -1 #SUP: 2
2 -1 10 -1 65 -1 #SUP: 2
2 -1 22 -1 65 -1 #SUP: 2
2 -1 32 -1 76 -1 #SUP: 2
2 -1 32 -1 113 -1 #SUP: 2
2 -1 41 -1 22 -1 #SUP: 2
2 -1 41 -1 41 -1 #SUP: 3
2 -1 41 -1 504 -1 #SUP: 3
2 -1 41 -1 786 -1 #SUP: 2
2 -1 64 -1 2 -1 #SUP: 2
2 -1 64 -1 41 -1 #SUP: 4
2 -1 76 -1 2 -1 #SUP: 3
2 -1 76 -1 406 -1 #SUP: 2
2 -1 113 -1 3 -1 #SUP: 6
2 -1 113 -1 10 -1 #SUP: 2
2 -1 113 -1 41 -1 #SUP: 3
2 -1 113 -1 64 -1 #SUP: 2
2 -1 113 -1 65 -1 #SUP: 2
2 -1 113 -1 160 -1 #SUP: 4
2 -1 113 -1 208 -1 #SUP: 2
2 -1 113 -1 248 -1 #SUP: 2
2 -1 113 -1 445 -1 #SUP: 2
2 -1 113 -1 504 -1 #SUP: 3
2 -1 113 -1 653 -1 #SUP: 2
2 -1 113 -1 786 -1 #SUP: 3
2 -1 113 -1 1017 -1 #SUP: 3
2 -1 131 -1 2 -1 #SUP: 2
2 -1 154 -1 22 -1 #SUP: 2
2 -1 160 -1 41 -1 #SUP: 3
2 -1 160 -1 504 -1 #SUP: 2
2 -1 160 -1 1017 -1 #SUP: 2
2 -1 165 -1 41 -1 #SUP: 2
2 -1 182 -1 3 -1 #SUP: 2
2 -1 187 -1 22 -1 #SUP: 2
2 -1 208 -1 41 -1 #SUP: 3
2 -1 208 -1 160 -1 #SUP: 2
2 -1 208 -1 248 -1 #SUP: 2
2 -1 208 -1 653 -1 #SUP: 2
2 -1 221 -1 113 -1 #SUP: 2
2 -1 248 -1 41 -1 #SUP: 3
2 -1 248 -1 160 -1 #SUP: 2
2 -1 248 -1 504 -1 #SUP: 2
2 -1 248 -1 1017 -1 #SUP: 2
2 -1 527 -1 165 -1 #SUP: 2
2 -1 641 -1 3 -1 #SUP: 2
2 -1 641 -1 64 -1 #SUP: 2
2 -1 653 -1 41 -1 #SUP: 2
2 -1 653 -1 160 -1 #SUP: 2
2 -1 701 -1 2 -1 #SUP: 2
2 -1 701 -1 64 -1 #SUP: 2
2 -1 706 -1 64 -1 #SUP: 2
2 -1 786 -1 41 -1 #SUP: 2
2 -1 786 -1 340 -1 #SUP: 2
2 -1 786 -1 484 -1 #SUP: 2
2 -1 1017 -1 41 -1 #SUP: 3
2 -1 1017 -1 504 -1 #SUP: 3
3 -1 2 -1 41 -1 #SUP: 3
3 -1 2 -1 113 -1 #SUP: 5
3 -1 2 -1 445 -1 #SUP: 2
3 -1 2 -1 786 -1 #SUP: 4
3 -1 10 -1 22 -1 #SUP: 2
3 -1 10 -1 76 -1 #SUP: 3
3 -1 22 -1 2 -1 #SUP: 2
3 -1 22 -1 10 -1 #SUP: 2
3 -1 22 -1 22 -1 #SUP: 2
3 -1 22 -1 31 -1 #SUP: 2
3 -1 22 -1 32 -1 #SUP: 4
3 -1 22 -1 41 -1 #SUP: 3
3 -1 22 -1 64 -1 #SUP: 3
3 -1 22 -1 65 -1 #SUP: 2
3 -1 22 -1 76 -1 #SUP: 3
3 -1 22 -1 878 -1 #SUP: 2
3 -1 32 -1 10 -1 #SUP: 2
3 -1 32 -1 65 -1 #SUP: 2
3 -1 32 -1 76 -1 #SUP: 2
3 -1 32 -1 213 -1 #SUP: 2
3 -1 32 -1 305 -1 #SUP: 2
3 -1 32 -1 878 -1 #SUP: 2
3 -1 41 -1 1467 -1 #SUP: 2
3 -1 50 -1 76 -1 #SUP: 3
3 -1 64 -1 10 -1 #SUP: 2
3 -1 64 -1 22 -1 #SUP: 2
3 -1 64 -1 41 -1 #SUP: 3
3 -1 64 -1 65 -1 #SUP: 2
3 -1 64 -1 76 -1 #SUP: 4
3 -1 64 -1 113 -1 #SUP: 2
3 -1 64 -1 308 -1 #SUP: 2
3 -1 64 -1 1467 -1 #SUP: 2
3 -1 65 -1 2 -1 #SUP: 2
3 -1 65 -1 22 -1 #SUP: 2
3 -1 65 -1 32 -1 #SUP: 5
3 -1 65 -1 50 -1 #SUP: 2
3 -1 65 -1 65 -1 #SUP: 2
3 -1 65 -1 75 -1 #SUP: 3
3 -1 65 -1 76 -1 #SUP: 3
3 -1 65 -1 113 -1 #SUP: 2
3 -1 65 -1 160 -1 #SUP: 2
3 -1 65 -1 213 -1 #SUP: 3
3 -1 65 -1 607 -1 #SUP: 2
3 -1 65 -1 786 -1 #SUP: 2
3 -1 76 -1 2 -1 #SUP: 7
3 -1 76 -1 22 -1 #SUP: 3
3 -1 76 -1 41 -1 #SUP: 3
3 -1 76 -1 113 -1 #SUP: 4
3 -1 76 -1 405 -1 #SUP: 2
3 -1 76 -1 445 -1 #SUP: 2
3 -1 76 -1 484 -1 #SUP: 3
3 -1 76 -1 786 -1 #SUP: 2
3 -1 113 -1 445 -1 #SUP: 2
3 -1 113 -1 786 -1 #SUP: 3
3 -1 160 -1 22 -1 #SUP: 2
3 -1 160 -1 32 -1 #SUP: 2
3 -1 160 -1 50 -1 #SUP: 2
3 -1 160 -1 65 -1 #SUP: 2
3 -1 160 -1 76 -1 #SUP: 3
3 -1 248 -1 64 -1 #SUP: 3
3 -1 248 -1 76 -1 #SUP: 2
3 -1 248 -1 113 -1 #SUP: 2
3 -1 248 -1 308 -1 #SUP: 3
3 -1 308 -1 76 -1 #SUP: 2
3 -1 607 -1 76 -1 #SUP: 2
3 -1 699 -1 2 -1 #SUP: 2
3 -1 706 -1 64 -1 #SUP: 3
3 -1 786 -1 76 -1 #SUP: 2
3 -1 786 -1 484 -1 #SUP: 2
3 -1 1017 -1 504 -1 #SUP: 2
3 -1 1042 -1 10 -1 #SUP: 2
3 -1 1042 -1 76 -1 #SUP: 2
3 -1 1747 -1 10 -1 #SUP: 2
7 -1 65 -1 64 -1 #SUP: 2
7 -1 65 -1 418 -1 #SUP: 2
7 -1 81 -1 64 -1 #SUP: 2
7 -1 418 -1 64 -1 #SUP: 2
10 -1 22 -1 31 -1 #SUP: 2
10 -1 22 -1 32 -1 #SUP: 3
10 -1 22 -1 76 -1 #SUP: 3
10 -1 22 -1 113 -1 #SUP: 2
10 -1 41 -1 76 -1 #SUP: 3
10 -1 64 -1 22 -1 #SUP: 2
10 -1 65 -1 2 -1 #SUP: 2
10 -1 65 -1 22 -1 #SUP: 2
10 -1 65 -1 41 -1 #SUP: 2
10 -1 65 -1 76 -1 #SUP: 2
10 -1 76 -1 2 -1 #SUP: 2
10 -1 76 -1 41 -1 #SUP: 2
10 -1 76 -1 64 -1 #SUP: 2
10 -1 76 -1 151 -1 #SUP: 2
16 -1 64 -1 22 -1 #SUP: 2
22 -1 2 -1 208 -1 #SUP: 2
22 -1 10 -1 22 -1 #SUP: 3
22 -1 15 -1 32 -1 #SUP: 2
22 -1 22 -1 32 -1 #SUP: 2
22 -1 29 -1 52 -1 #SUP: 2
22 -1 29 -1 502 -1 #SUP: 2
22 -1 31 -1 3 -1 #SUP: 2
22 -1 31 -1 65 -1 #SUP: 3
22 -1 32 -1 2 -1 #SUP: 2
22 -1 32 -1 22 -1 #SUP: 3
22 -1 32 -1 50 -1 #SUP: 3
22 -1 32 -1 64 -1 #SUP: 5
22 -1 32 -1 65 -1 #SUP: 3
22 -1 32 -1 76 -1 #SUP: 3
22 -1 32 -1 113 -1 #SUP: 3
22 -1 32 -1 878 -1 #SUP: 2
22 -1 41 -1 76 -1 #SUP: 2
22 -1 50 -1 113 -1 #SUP: 2
22 -1 52 -1 2 -1 #SUP: 2
22 -1 52 -1 76 -1 #SUP: 2
22 -1 64 -1 22 -1 #SUP: 2
22 -1 64 -1 65 -1 #SUP: 2
22 -1 64 -1 160 -1 #SUP: 2
22 -1 65 -1 32 -1 #SUP: 2
22 -1 65 -1 64 -1 #SUP: 2
22 -1 76 -1 2 -1 #SUP: 6
22 -1 76 -1 3 -1 #SUP: 4
22 -1 76 -1 22 -1 #SUP: 3
22 -1 76 -1 64 -1 #SUP: 2
22 -1 76 -1 65 -1 #SUP: 3
22 -1 76 -1 113 -1 #SUP: 5
22 -1 76 -1 179 -1 #SUP: 2
22 -1 76 -1 208 -1 #SUP: 2
22 -1 113 -1 3 -1 #SUP: 3
22 -1 113 -1 7 -1 #SUP: 2
22 -1 113 -1 64 -1 #SUP: 2
22 -1 113 -1 76 -1 #SUP: 4
22 -1 113 -1 113 -1 #SUP: 3
22 -1 113 -1 182 -1 #SUP: 2
22 -1 113 -1 340 -1 #SUP: 2
22 -1 129 -1 54 -1 #SUP: 2
22 -1 160 -1 201 -1 #SUP: 2
22 -1 187 -1 22 -1 #SUP: 2
22 -1 212 -1 113 -1 #SUP: 2
22 -1 247 -1 32 -1 #SUP: 2
22 -1 247 -1 65 -1 #SUP: 2
22 -1 247 -1 76 -1 #SUP: 2
22 -1 305 -1 76 -1 #SUP: 2
22 -1 339 -1 64 -1 #SUP: 2
22 -1 340 -1 76 -1 #SUP: 2
22 -1 354 -1 113 -1 #SUP: 2
22 -1 394 -1 76 -1 #SUP: 2
22 -1 394 -1 113 -1 #SUP: 2
22 -1 502 -1 2 -1 #SUP: 2
22 -1 502 -1 3 -1 #SUP: 2
22 -1 502 -1 41 -1 #SUP: 2
22 -1 502 -1 52 -1 #SUP: 3
22 -1 502 -1 64 -1 #SUP: 2
22 -1 502 -1 76 -1 #SUP: 3
22 -1 502 -1 113 -1 #SUP: 2
22 -1 826 -1 76 -1 #SUP: 2
22 -1 826 -1 113 -1 #SUP: 2
22 -1 878 -1 22 -1 #SUP: 2
29 -1 2 -1 113 -1 #SUP: 2
29 -1 2 -1 786 -1 #SUP: 2
29 -1 3 -1 2 -1 #SUP: 2
29 -1 3 -1 113 -1 #SUP: 2
29 -1 52 -1 113 -1 #SUP: 2
29 -1 76 -1 2 -1 #SUP: 2
29 -1 76 -1 113 -1 #SUP: 2
29 -1 502 -1 52 -1 #SUP: 2
29 -1 502 -1 113 -1 #SUP: 2
31 -1 22 -1 3 -1 #SUP: 2
31 -1 22 -1 65 -1 #SUP: 2
31 -1 22 -1 929 -1 #SUP: 2
31 -1 65 -1 64 -1 #SUP: 3
31 -1 65 -1 76 -1 #SUP: 3
31 -1 65 -1 135 -1 #SUP: 2
31 -1 65 -1 929 -1 #SUP: 2
31 -1 75 -1 64 -1 #SUP: 2
31 -1 76 -1 22 -1 #SUP: 2
31 -1 76 -1 641 -1 #SUP: 2
31 -1 186 -1 929 -1 #SUP: 2
32 -1 2 -1 113 -1 #SUP: 2
32 -1 3 -1 64 -1 #SUP: 3
32 -1 22 -1 2 -1 #SUP: 2
32 -1 22 -1 32 -1 #SUP: 2
32 -1 22 -1 76 -1 #SUP: 3
32 -1 29 -1 29 -1 #SUP: 2
32 -1 50 -1 64 -1 #SUP: 2
32 -1 50 -1 76 -1 #SUP: 2
32 -1 50 -1 113 -1 #SUP: 3
32 -1 64 -1 10 -1 #SUP: 2
32 -1 64 -1 76 -1 #SUP: 2
32 -1 64 -1 160 -1 #SUP: 2
32 -1 65 -1 76 -1 #SUP: 3
32 -1 76 -1 2 -1 #SUP: 2
32 -1 76 -1 3 -1 #SUP: 2
32 -1 76 -1 22 -1 #SUP: 2
32 -1 76 -1 64 -1 #SUP: 2
32 -1 76 -1 65 -1 #SUP: 4
32 -1 76 -1 76 -1 #SUP: 2
32 -1 76 -1 113 -1 #SUP: 2
32 -1 113 -1 2 -1 #SUP: 2
32 -1 113 -1 3 -1 #SUP: 2
32 -1 113 -1 64 -1 #SUP: 2
32 -1 113 -1 76 -1 #SUP: 4
32 -1 113 -1 113 -1 #SUP: 2
32 -1 113 -1 786 -1 #SUP: 2
32 -1 305 -1 22 -1 #SUP: 3
32 -1 372 -1 182 -1 #SUP: 2
32 -1 388 -1 76 -1 #SUP: 2
32 -1 878 -1 22 -1 #SUP: 2
41 -1 2 -1 22 -1 #SUP: 4
41 -1 2 -1 41 -1 #SUP: 2
41 -1 2 -1 64 -1 #SUP: 2
41 -1 2 -1 165 -1 #SUP: 2
41 -1 2 -1 644 -1 #SUP: 2
41 -1 3 -1 2 -1 #SUP: 3
41 -1 3 -1 22 -1 #SUP: 2
41 -1 3 -1 32 -1 #SUP: 2
41 -1 3 -1 41 -1 #SUP: 2
41 -1 3 -1 64 -1 #SUP: 2
41 -1 3 -1 65 -1 #SUP: 2
41 -1 3 -1 76 -1 #SUP: 4
41 -1 3 -1 165 -1 #SUP: 2
41 -1 3 -1 213 -1 #SUP: 2
41 -1 3 -1 248 -1 #SUP: 2
41 -1 10 -1 65 -1 #SUP: 2
41 -1 22 -1 64 -1 #SUP: 2
41 -1 22 -1 129 -1 #SUP: 2
41 -1 22 -1 502 -1 #SUP: 4
41 -1 29 -1 2117 -1 #SUP: 2
41 -1 31 -1 10 -1 #SUP: 2
41 -1 31 -1 22 -1 #SUP: 2
41 -1 31 -1 64 -1 #SUP: 2
41 -1 31 -1 113 -1 #SUP: 2
41 -1 32 -1 29 -1 #SUP: 2
41 -1 32 -1 65 -1 #SUP: 2
41 -1 41 -1 3 -1 #SUP: 2
41 -1 41 -1 31 -1 #SUP: 2
41 -1 41 -1 65 -1 #SUP: 2
41 -1 41 -1 272 -1 #SUP: 3
41 -1 41 -1 484 -1 #SUP: 2
41 -1 41 -1 717 -1 #SUP: 2
41 -1 48 -1 3 -1 #SUP: 2
41 -1 48 -1 41 -1 #SUP: 5
41 -1 48 -1 65 -1 #SUP: 2
41 -1 48 -1 158 -1 #SUP: 5
41 -1 52 -1 3 -1 #SUP: 2
41 -1 64 -1 2 -1 #SUP: 2
41 -1 64 -1 3 -1 #SUP: 2
41 -1 64 -1 29 -1 #SUP: 2
41 -1 64 -1 41 -1 #SUP: 3
41 -1 64 -1 76 -1 #SUP: 3
41 -1 64 -1 113 -1 #SUP: 3
41 -1 64 -1 248 -1 #SUP: 2
41 -1 64 -1 1467 -1 #SUP: 2
41 -1 64 -1 1543 -1 #SUP: 2
41 -1 65 -1 10 -1 #SUP: 4
41 -1 65 -1 22 -1 #SUP: 2
41 -1 65 -1 41 -1 #SUP: 2
41 -1 65 -1 46 -1 #SUP: 2
41 -1 65 -1 64 -1 #SUP: 2
41 -1 65 -1 65 -1 #SUP: 2
41 -1 65 -1 248 -1 #SUP: 2
41 -1 76 -1 2 -1 #SUP: 6
41 -1 76 -1 3 -1 #SUP: 3
41 -1 76 -1 22 -1 #SUP: 3
41 -1 76 -1 41 -1 #SUP: 4
41 -1 76 -1 64 -1 #SUP: 3
41 -1 76 -1 113 -1 #SUP: 5
41 -1 76 -1 165 -1 #SUP: 2
41 -1 76 -1 248 -1 #SUP: 3
41 -1 76 -1 502 -1 #SUP: 2
41 -1 113 -1 3 -1 #SUP: 3
41 -1 113 -1 64 -1 #SUP: 2
41 -1 113 -1 248 -1 #SUP: 2
41 -1 115 -1 41 -1 #SUP: 2
41 -1 118 -1 41 -1 #SUP: 2
41 -1 118 -1 76 -1 #SUP: 2
41 -1 146 -1 22 -1 #SUP: 2
41 -1 151 -1 41 -1 #SUP: 3
41 -1 151 -1 113 -1 #SUP: 3
41 -1 151 -1 272 -1 #SUP: 2
41 -1 156 -1 64 -1 #SUP: 2
41 -1 158 -1 3 -1 #SUP: 2
41 -1 158 -1 41 -1 #SUP: 6
41 -1 158 -1 65 -1 #SUP: 2
41 -1 160 -1 76 -1 #SUP: 2
41 -1 160 -1 607 -1 #SUP: 2
41 -1 161 -1 76 -1 #SUP: 2
41 -1 161 -1 340 -1 #SUP: 2
41 -1 165 -1 41 -1 #SUP: 2
41 -1 208 -1 7 -1 #SUP: 2
41 -1 236 -1 3 -1 #SUP: 2
41 -1 236 -1 41 -1 #SUP: 5
41 -1 236 -1 48 -1 #SUP: 5
41 -1 236 -1 65 -1 #SUP: 2
41 -1 236 -1 158 -1 #SUP: 5
41 -1 236 -1 312 -1 #SUP: 5
41 -1 244 -1 22 -1 #SUP: 2
41 -1 248 -1 2 -1 #SUP: 2
41 -1 248 -1 64 -1 #SUP: 2
41 -1 248 -1 76 -1 #SUP: 2
41 -1 248 -1 213 -1 #SUP: 2
41 -1 272 -1 29 -1 #SUP: 2
41 -1 272 -1 41 -1 #SUP: 2
41 -1 272 -1 2117 -1 #SUP: 2
41 -1 312 -1 3 -1 #SUP: 2
41 -1 312 -1 41 -1 #SUP: 5
41 -1 312 -1 48 -1 #SUP: 5
41 -1 312 -1 65 -1 #SUP: 2
41 -1 312 -1 158 -1 #SUP: 5
41 -1 326 -1 3 -1 #SUP: 2
41 -1 326 -1 41 -1 #SUP: 5
41 -1 326 -1 48 -1 #SUP: 5
41 -1 326 -1 65 -1 #SUP: 2
41 -1 326 -1 158 -1 #SUP: 5
41 -1 326 -1 236 -1 #SUP: 5
41 -1 326 -1 312 -1 #SUP: 5
41 -1 340 -1 41 -1 #SUP: 2
41 -1 340 -1 65 -1 #SUP: 2
41 -1 340 -1 76 -1 #SUP: 2
41 -1 340 -1 248 -1 #SUP: 2
41 -1 364 -1 31 -1 #SUP: 2
41 -1 364 -1 113 -1 #SUP: 2
41 -1 403 -1 41 -1 #SUP: 2
41 -1 406 -1 113 -1 #SUP: 2
41 -1 484 -1 41 -1 #SUP: 2
41 -1 484 -1 151 -1 #SUP: 3
41 -1 504 -1 76 -1 #SUP: 3
41 -1 504 -1 113 -1 #SUP: 3
41 -1 504 -1 151 -1 #SUP: 2
41 -1 527 -1 165 -1 #SUP: 2
41 -1 641 -1 65 -1 #SUP: 2
41 -1 641 -1 248 -1 #SUP: 2
41 -1 641 -1 340 -1 #SUP: 3
41 -1 694 -1 76 -1 #SUP: 2
41 -1 717 -1 41 -1 #SUP: 2
41 -1 786 -1 22 -1 #SUP: 2
41 -1 786 -1 41 -1 #SUP: 3
41 -1 786 -1 165 -1 #SUP: 2
41 -1 786 -1 484 -1 #SUP: 2
41 -1 895 -1 41 -1 #SUP: 2
41 -1 895 -1 272 -1 #SUP: 4
46 -1 64 -1 76 -1 #SUP: 2
48 -1 3 -1 32 -1 #SUP: 2
48 -1 41 -1 3 -1 #SUP: 2
48 -1 41 -1 32 -1 #SUP: 2
48 -1 41 -1 65 -1 #SUP: 3
48 -1 158 -1 3 -1 #SUP: 2
48 -1 158 -1 32 -1 #SUP: 2
48 -1 158 -1 41 -1 #SUP: 5
48 -1 158 -1 65 -1 #SUP: 3
49 -1 76 -1 3 -1 #SUP: 2
50 -1 64 -1 22 -1 #SUP: 3
50 -1 64 -1 504 -1 #SUP: 2
50 -1 76 -1 113 -1 #SUP: 2
50 -1 76 -1 510 -1 #SUP: 2
50 -1 113 -1 64 -1 #SUP: 2
50 -1 113 -1 76 -1 #SUP: 2
52 -1 2 -1 113 -1 #SUP: 3
52 -1 2 -1 248 -1 #SUP: 2
52 -1 3 -1 65 -1 #SUP: 2
52 -1 76 -1 2 -1 #SUP: 2
52 -1 76 -1 3 -1 #SUP: 2
52 -1 76 -1 65 -1 #SUP: 3
52 -1 76 -1 113 -1 #SUP: 3
52 -1 76 -1 182 -1 #SUP: 2
52 -1 113 -1 65 -1 #SUP: 2
52 -1 113 -1 248 -1 #SUP: 2
52 -1 182 -1 65 -1 #SUP: 2
52 -1 182 -1 113 -1 #SUP: 2
52 -1 388 -1 76 -1 #SUP: 2
54 -1 2 -1 2 -1 #SUP: 2
54 -1 76 -1 2 -1 #SUP: 3
54 -1 76 -1 200 -1 #SUP: 2
54 -1 113 -1 113 -1 #SUP: 2
62 -1 22 -1 77 -1 #SUP: 2
64 -1 2 -1 2 -1 #SUP: 2
64 -1 2 -1 41 -1 #SUP: 3
64 -1 2 -1 64 -1 #SUP: 2
64 -1 2 -1 113 -1 #SUP: 2
64 -1 2 -1 208 -1 #SUP: 2
64 -1 3 -1 2 -1 #SUP: 2
64 -1 3 -1 22 -1 #SUP: 6
64 -1 3 -1 41 -1 #SUP: 2
64 -1 3 -1 64 -1 #SUP: 3
64 -1 3 -1 65 -1 #SUP: 2
64 -1 3 -1 76 -1 #SUP: 2
64 -1 3 -1 699 -1 #SUP: 2
64 -1 10 -1 10 -1 #SUP: 2
64 -1 10 -1 65 -1 #SUP: 3
64 -1 22 -1 2 -1 #SUP: 3
64 -1 22 -1 3 -1 #SUP: 2
64 -1 22 -1 22 -1 #SUP: 3
64 -1 22 -1 29 -1 #SUP: 2
64 -1 22 -1 31 -1 #SUP: 2
64 -1 22 -1 52 -1 #SUP: 2
64 -1 22 -1 64 -1 #SUP: 2
64 -1 22 -1 76 -1 #SUP: 5
64 -1 22 -1 113 -1 #SUP: 5
64 -1 22 -1 207 -1 #SUP: 2
64 -1 22 -1 248 -1 #SUP: 2
64 -1 22 -1 340 -1 #SUP: 2
64 -1 22 -1 502 -1 #SUP: 3
64 -1 22 -1 3391 -1 #SUP: 2
64 -1 29 -1 52 -1 #SUP: 2
64 -1 29 -1 502 -1 #SUP: 2
64 -1 32 -1 76 -1 #SUP: 2
64 -1 41 -1 2 -1 #SUP: 2
64 -1 41 -1 64 -1 #SUP: 2
64 -1 41 -1 65 -1 #SUP: 2
64 -1 41 -1 76 -1 #SUP: 3
64 -1 41 -1 113 -1 #SUP: 2
64 -1 41 -1 208 -1 #SUP: 2
64 -1 41 -1 1467 -1 #SUP: 2
64 -1 64 -1 2 -1 #SUP: 2
64 -1 64 -1 41 -1 #SUP: 3
64 -1 65 -1 3 -1 #SUP: 2
64 -1 65 -1 10 -1 #SUP: 2
64 -1 65 -1 32 -1 #SUP: 3
64 -1 65 -1 76 -1 #SUP: 3
64 -1 65 -1 113 -1 #SUP: 2
64 -1 65 -1 1100 -1 #SUP: 2
64 -1 66 -1 22 -1 #SUP: 3
64 -1 76 -1 2 -1 #SUP: 5
64 -1 76 -1 3 -1 #SUP: 5
64 -1 76 -1 22 -1 #SUP: 4
64 -1 76 -1 41 -1 #SUP: 2
64 -1 76 -1 64 -1 #SUP: 4
64 -1 76 -1 65 -1 #SUP: 2
64 -1 76 -1 76 -1 #SUP: 2
64 -1 76 -1 113 -1 #SUP: 5
64 -1 76 -1 158 -1 #SUP: 2
64 -1 76 -1 208 -1 #SUP: 2
64 -1 76 -1 340 -1 #SUP: 3
64 -1 76 -1 364 -1 #SUP: 2
64 -1 76 -1 484 -1 #SUP: 2
64 -1 76 -1 502 -1 #SUP: 2
64 -1 76 -1 641 -1 #SUP: 2
64 -1 76 -1 786 -1 #SUP: 2
64 -1 76 -1 1809 -1 #SUP: 3
64 -1 77 -1 77 -1 #SUP: 2
64 -1 113 -1 3 -1 #SUP: 3
64 -1 113 -1 22 -1 #SUP: 3
64 -1 113 -1 64 -1 #SUP: 2
64 -1 113 -1 76 -1 #SUP: 4
64 -1 113 -1 113 -1 #SUP: 4
64 -1 113 -1 182 -1 #SUP: 2
64 -1 113 -1 326 -1 #SUP: 2
64 -1 113 -1 340 -1 #SUP: 2
64 -1 113 -1 364 -1 #SUP: 2
64 -1 113 -1 502 -1 #SUP: 2
64 -1 113 -1 786 -1 #SUP: 2
64 -1 131 -1 2 -1 #SUP: 2
64 -1 131 -1 64 -1 #SUP: 2
64 -1 151 -1 113 -1 #SUP: 2
64 -1 158 -1 76 -1 #SUP: 2
64 -1 158 -1 113 -1 #SUP: 2
64 -1 158 -1 1809 -1 #SUP: 2
64 -1 160 -1 607 -1 #SUP: 2
64 -1 182 -1 22 -1 #SUP: 2
64 -1 182 -1 76 -1 #SUP: 2
64 -1 190 -1 3 -1 #SUP: 2
64 -1 213 -1 151 -1 #SUP: 2
64 -1 224 -1 22 -1 #SUP: 2
64 -1 224 -1 182 -1 #SUP: 2
64 -1 250 -1 76 -1 #SUP: 2
64 -1 250 -1 113 -1 #SUP: 2
64 -1 308 -1 10 -1 #SUP: 2
64 -1 308 -1 65 -1 #SUP: 2
64 -1 308 -1 76 -1 #SUP: 2
64 -1 326 -1 3 -1 #SUP: 3
64 -1 340 -1 22 -1 #SUP: 2
64 -1 345 -1 113 -1 #SUP: 2
64 -1 502 -1 52 -1 #SUP: 2
64 -1 504 -1 3 -1 #SUP: 2
64 -1 504 -1 65 -1 #SUP: 2
64 -1 699 -1 2 -1 #SUP: 2
64 -1 1467 -1 41 -1 #SUP: 3
64 -1 1543 -1 41 -1 #SUP: 2
64 -1 1809 -1 76 -1 #SUP: 2
64 -1 3300 -1 22 -1 #SUP: 2
65 -1 2 -1 22 -1 #SUP: 4
65 -1 2 -1 76 -1 #SUP: 2
65 -1 2 -1 113 -1 #SUP: 3
65 -1 2 -1 154 -1 #SUP: 2
65 -1 2 -1 786 -1 #SUP: 2
65 -1 10 -1 2 -1 #SUP: 2
65 -1 10 -1 41 -1 #SUP: 2
65 -1 10 -1 65 -1 #SUP: 2
65 -1 10 -1 76 -1 #SUP: 2
65 -1 22 -1 10 -1 #SUP: 2
65 -1 22 -1 32 -1 #SUP: 2
65 -1 22 -1 502 -1 #SUP: 2
65 -1 31 -1 75 -1 #SUP: 2
65 -1 32 -1 2 -1 #SUP: 3
65 -1 32 -1 22 -1 #SUP: 4
65 -1 32 -1 50 -1 #SUP: 2
65 -1 32 -1 76 -1 #SUP: 3
65 -1 32 -1 113 -1 #SUP: 2
65 -1 32 -1 213 -1 #SUP: 2
65 -1 32 -1 372 -1 #SUP: 2
65 -1 44 -1 76 -1 #SUP: 2
65 -1 64 -1 3 -1 #SUP: 2
65 -1 64 -1 10 -1 #SUP: 2
65 -1 64 -1 22 -1 #SUP: 2
65 -1 64 -1 32 -1 #SUP: 2
65 -1 64 -1 76 -1 #SUP: 3
65 -1 65 -1 2 -1 #SUP: 3
65 -1 65 -1 76 -1 #SUP: 4
65 -1 75 -1 64 -1 #SUP: 2
65 -1 76 -1 2 -1 #SUP: 7
65 -1 76 -1 3 -1 #SUP: 2
65 -1 76 -1 22 -1 #SUP: 5
65 -1 76 -1 32 -1 #SUP: 2
65 -1 76 -1 41 -1 #SUP: 2
65 -1 76 -1 64 -1 #SUP: 3
65 -1 76 -1 65 -1 #SUP: 2
65 -1 76 -1 76 -1 #SUP: 2
65 -1 76 -1 113 -1 #SUP: 4
65 -1 76 -1 115 -1 #SUP: 2
65 -1 76 -1 187 -1 #SUP: 3
65 -1 113 -1 76 -1 #SUP: 2
65 -1 113 -1 786 -1 #SUP: 2
65 -1 113 -1 826 -1 #SUP: 2
65 -1 158 -1 32 -1 #SUP: 2
65 -1 158 -1 187 -1 #SUP: 2
65 -1 160 -1 50 -1 #SUP: 2
65 -1 185 -1 113 -1 #SUP: 2
65 -1 187 -1 32 -1 #SUP: 2
65 -1 276 -1 65 -1 #SUP: 2
65 -1 276 -1 76 -1 #SUP: 2
65 -1 406 -1 76 -1 #SUP: 2
65 -1 418 -1 64 -1 #SUP: 2
65 -1 566 -1 2 -1 #SUP: 2
65 -1 566 -1 76 -1 #SUP: 2
65 -1 607 -1 76 -1 #SUP: 2
65 -1 879 -1 340 -1 #SUP: 2
65 -1 1100 -1 22 -1 #SUP: 2
65 -1 1100 -1 32 -1 #SUP: 2
65 -1 1100 -1 76 -1 #SUP: 2
65 -1 1100 -1 113 -1 #SUP: 2
65 -1 1100 -1 213 -1 #SUP: 2
65 -1 3460 -1 64 -1 #SUP: 2
75 -1 2 -1 182 -1 #SUP: 2
75 -1 2 -1 641 -1 #SUP: 2
75 -1 76 -1 2 -1 #SUP: 2
75 -1 76 -1 182 -1 #SUP: 2
75 -1 76 -1 641 -1 #SUP: 2
75 -1 224 -1 31 -1 #SUP: 2
76 -1 2 -1 3 -1 #SUP: 4
76 -1 2 -1 10 -1 #SUP: 2
76 -1 2 -1 22 -1 #SUP: 7
76 -1 2 -1 31 -1 #SUP: 2
76 -1 2 -1 32 -1 #SUP: 5
76 -1 2 -1 41 -1 #SUP: 8
76 -1 2 -1 64 -1 #SUP: 5
76 -1 2 -1 66 -1 #SUP: 2
76 -1 2 -1 76 -1 #SUP: 4
76 -1 2 -1 113 -1 #SUP: 9
76 -1 2 -1 154 -1 #SUP: 2
76 -1 2 -1 158 -1 #SUP: 2
76 -1 2 -1 160 -1 #SUP: 2
76 -1 2 -1 165 -1 #SUP: 3
76 -1 2 -1 182 -1 #SUP: 2
76 -1 2 -1 185 -1 #SUP: 2
76 -1 2 -1 187 -1 #SUP: 2
76 -1 2 -1 200 -1 #SUP: 2
76 -1 2 -1 208 -1 #SUP: 3
76 -1 2 -1 340 -1 #SUP: 2
76 -1 2 -1 406 -1 #SUP: 2
76 -1 2 -1 445 -1 #SUP: 2
76 -1 2 -1 484 -1 #SUP: 2
76 -1 2 -1 504 -1 #SUP: 2
76 -1 2 -1 525 -1 #SUP: 2
76 -1 2 -1 527 -1 #SUP: 2
76 -1 2 -1 641 -1 #SUP: 3
76 -1 2 -1 653 -1 #SUP: 2
76 -1 2 -1 687 -1 #SUP: 2
76 -1 2 -1 714 -1 #SUP: 2
76 -1 2 -1 786 -1 #SUP: 4
76 -1 2 -1 879 -1 #SUP: 2
76 -1 2 -1 1017 -1 #SUP: 2
76 -1 3 -1 2 -1 #SUP: 2
76 -1 3 -1 10 -1 #SUP: 2
76 -1 3 -1 22 -1 #SUP: 3
76 -1 3 -1 32 -1 #SUP: 2
76 -1 3 -1 41 -1 #SUP: 2
76 -1 3 -1 64 -1 #SUP: 4
76 -1 3 -1 65 -1 #SUP: 3
76 -1 3 -1 76 -1 #SUP: 3
76 -1 3 -1 113 -1 #SUP: 3
76 -1 3 -1 151 -1 #SUP: 2
76 -1 3 -1 185 -1 #SUP: 2
76 -1 3 -1 200 -1 #SUP: 2
76 -1 3 -1 248 -1 #SUP: 2
76 -1 3 -1 484 -1 #SUP: 2
76 -1 3 -1 786 -1 #SUP: 2
76 -1 10 -1 22 -1 #SUP: 2
76 -1 10 -1 32 -1 #SUP: 2
76 -1 10 -1 76 -1 #SUP: 2
76 -1 15 -1 32 -1 #SUP: 2
76 -1 16 -1 22 -1 #SUP: 3
76 -1 16 -1 64 -1 #SUP: 2
76 -1 22 -1 15 -1 #SUP: 2
76 -1 22 -1 29 -1 #SUP: 2
76 -1 22 -1 32 -1 #SUP: 4
76 -1 22 -1 41 -1 #SUP: 2
76 -1 22 -1 64 -1 #SUP: 2
76 -1 22 -1 76 -1 #SUP: 4
76 -1 22 -1 113 -1 #SUP: 3
76 -1 22 -1 339 -1 #SUP: 2
76 -1 22 -1 502 -1 #SUP: 3
76 -1 27 -1 3 -1 #SUP: 2
76 -1 29 -1 502 -1 #SUP: 2
76 -1 32 -1 22 -1 #SUP: 4
76 -1 32 -1 76 -1 #SUP: 4
76 -1 32 -1 113 -1 #SUP: 2
76 -1 41 -1 41 -1 #SUP: 3
76 -1 41 -1 46 -1 #SUP: 2
76 -1 41 -1 65 -1 #SUP: 2
76 -1 41 -1 200 -1 #SUP: 2
76 -1 41 -1 340 -1 #SUP: 3
76 -1 41 -1 504 -1 #SUP: 2
76 -1 41 -1 641 -1 #SUP: 2
76 -1 41 -1 786 -1 #SUP: 3
76 -1 50 -1 65 -1 #SUP: 2
76 -1 50 -1 76 -1 #SUP: 2
76 -1 50 -1 113 -1 #SUP: 2
76 -1 50 -1 200 -1 #SUP: 2
76 -1 52 -1 76 -1 #SUP: 2
76 -1 64 -1 3 -1 #SUP: 2
76 -1 64 -1 10 -1 #SUP: 2
76 -1 64 -1 22 -1 #SUP: 4
76 -1 64 -1 41 -1 #SUP: 2
76 -1 64 -1 76 -1 #SUP: 3
76 -1 64 -1 113 -1 #SUP: 4
76 -1 64 -1 158 -1 #SUP: 2
76 -1 64 -1 182 -1 #SUP: 2
76 -1 65 -1 2 -1 #SUP: 2
76 -1 65 -1 3 -1 #SUP: 2
76 -1 65 -1 22 -1 #SUP: 3
76 -1 65 -1 32 -1 #SUP: 3
76 -1 65 -1 46 -1 #SUP: 2
76 -1 65 -1 64 -1 #SUP: 4
76 -1 65 -1 76 -1 #SUP: 3
76 -1 65 -1 185 -1 #SUP: 2
76 -1 65 -1 1100 -1 #SUP: 2
76 -1 66 -1 22 -1 #SUP: 2
76 -1 76 -1 113 -1 #SUP: 3
76 -1 76 -1 484 -1 #SUP: 2
76 -1 113 -1 3 -1 #SUP: 8
76 -1 113 -1 7 -1 #SUP: 2
76 -1 113 -1 22 -1 #SUP: 5
76 -1 113 -1 29 -1 #SUP: 4
76 -1 113 -1 32 -1 #SUP: 4
76 -1 113 -1 41 -1 #SUP: 4
76 -1 113 -1 50 -1 #SUP: 3
76 -1 113 -1 52 -1 #SUP: 2
76 -1 113 -1 64 -1 #SUP: 3
76 -1 113 -1 65 -1 #SUP: 5
76 -1 113 -1 75 -1 #SUP: 2
76 -1 113 -1 76 -1 #SUP: 3
76 -1 113 -1 113 -1 #SUP: 3
76 -1 113 -1 151 -1 #SUP: 3
76 -1 113 -1 160 -1 #SUP: 3
76 -1 113 -1 182 -1 #SUP: 2
76 -1 113 -1 185 -1 #SUP: 2
76 -1 113 -1 200 -1 #SUP: 2
76 -1 113 -1 208 -1 #SUP: 2
76 -1 113 -1 248 -1 #SUP: 4
76 -1 113 -1 326 -1 #SUP: 2
76 -1 113 -1 340 -1 #SUP: 2
76 -1 113 -1 364 -1 #SUP: 2
76 -1 113 -1 445 -1 #SUP: 2
76 -1 113 -1 502 -1 #SUP: 3
76 -1 113 -1 504 -1 #SUP: 2
76 -1 113 -1 653 -1 #SUP: 2
76 -1 113 -1 786 -1 #SUP: 3
76 -1 113 -1 826 -1 #SUP: 2
76 -1 113 -1 1017 -1 #SUP: 2
76 -1 113 -1 1100 -1 #SUP: 2
76 -1 115 -1 22 -1 #SUP: 2
76 -1 151 -1 41 -1 #SUP: 2
76 -1 158 -1 32 -1 #SUP: 2
76 -1 158 -1 76 -1 #SUP: 2
76 -1 158 -1 113 -1 #SUP: 3
76 -1 158 -1 1809 -1 #SUP: 2
76 -1 160 -1 32 -1 #SUP: 2
76 -1 179 -1 113 -1 #SUP: 3
76 -1 179 -1 151 -1 #SUP: 2
76 -1 179 -1 714 -1 #SUP: 2
76 -1 182 -1 3 -1 #SUP: 2
76 -1 182 -1 22 -1 #SUP: 2
76 -1 182 -1 32 -1 #SUP: 2
76 -1 182 -1 65 -1 #SUP: 3
76 -1 182 -1 76 -1 #SUP: 2
76 -1 182 -1 113 -1 #SUP: 2
76 -1 182 -1 641 -1 #SUP: 2
76 -1 187 -1 22 -1 #SUP: 2
76 -1 187 -1 32 -1 #SUP: 2
76 -1 187 -1 76 -1 #SUP: 2
76 -1 200 -1 185 -1 #SUP: 2
76 -1 200 -1 614 -1 #SUP: 2
76 -1 208 -1 41 -1 #SUP: 2
76 -1 208 -1 160 -1 #SUP: 2
76 -1 208 -1 653 -1 #SUP: 2
76 -1 211 -1 64 -1 #SUP: 2
76 -1 211 -1 113 -1 #SUP: 2
76 -1 224 -1 32 -1 #SUP: 2
76 -1 248 -1 29 -1 #SUP: 2
76 -1 248 -1 41 -1 #SUP: 3
76 -1 248 -1 64 -1 #SUP: 2
76 -1 248 -1 113 -1 #SUP: 2
76 -1 248 -1 340 -1 #SUP: 2
76 -1 250 -1 3 -1 #SUP: 3
76 -1 250 -1 200 -1 #SUP: 2
76 -1 340 -1 65 -1 #SUP: 2
76 -1 342 -1 16 -1 #SUP: 2
76 -1 342 -1 22 -1 #SUP: 2
76 -1 394 -1 76 -1 #SUP: 2
76 -1 435 -1 200 -1 #SUP: 2
76 -1 502 -1 52 -1 #SUP: 2
76 -1 525 -1 32 -1 #SUP: 2
76 -1 527 -1 165 -1 #SUP: 2
76 -1 557 -1 113 -1 #SUP: 2
76 -1 602 -1 22 -1 #SUP: 2
76 -1 641 -1 3 -1 #SUP: 2
76 -1 641 -1 64 -1 #SUP: 2
76 -1 641 -1 65 -1 #SUP: 3
76 -1 641 -1 340 -1 #SUP: 3
76 -1 653 -1 160 -1 #SUP: 2
76 -1 714 -1 151 -1 #SUP: 2
76 -1 786 -1 484 -1 #SUP: 2
76 -1 826 -1 50 -1 #SUP: 2
76 -1 1017 -1 41 -1 #SUP: 2
76 -1 1017 -1 504 -1 #SUP: 2
76 -1 1809 -1 76 -1 #SUP: 2
76 -1 1809 -1 113 -1 #SUP: 2
76 -1 3391 -1 2 -1 #SUP: 2
77 -1 41 -1 22 -1 #SUP: 2
77 -1 41 -1 65 -1 #SUP: 2
77 -1 65 -1 75 -1 #SUP: 2
100 -1 22 -1 29 -1 #SUP: 2
100 -1 22 -1 52 -1 #SUP: 2
100 -1 22 -1 502 -1 #SUP: 2
100 -1 29 -1 52 -1 #SUP: 2
100 -1 29 -1 502 -1 #SUP: 2
100 -1 41 -1 29 -1 #SUP: 2
100 -1 64 -1 22 -1 #SUP: 2
100 -1 64 -1 29 -1 #SUP: 2
100 -1 64 -1 52 -1 #SUP: 2
100 -1 64 -1 502 -1 #SUP: 2
100 -1 76 -1 29 -1 #SUP: 2
100 -1 113 -1 29 -1 #SUP: 2
100 -1 113 -1 248 -1 #SUP: 2
100 -1 248 -1 29 -1 #SUP: 2
100 -1 502 -1 52 -1 #SUP: 2
113 -1 2 -1 113 -1 #SUP: 3
113 -1 2 -1 221 -1 #SUP: 2
113 -1 3 -1 2 -1 #SUP: 3
113 -1 3 -1 22 -1 #SUP: 4
113 -1 3 -1 32 -1 #SUP: 4
113 -1 3 -1 41 -1 #SUP: 2
113 -1 3 -1 64 -1 #SUP: 4
113 -1 3 -1 65 -1 #SUP: 4
113 -1 3 -1 76 -1 #SUP: 4
113 -1 3 -1 160 -1 #SUP: 2
113 -1 3 -1 406 -1 #SUP: 3
113 -1 3 -1 504 -1 #SUP: 2
113 -1 3 -1 706 -1 #SUP: 2
113 -1 7 -1 64 -1 #SUP: 3
113 -1 7 -1 65 -1 #SUP: 3
113 -1 7 -1 76 -1 #SUP: 2
113 -1 7 -1 81 -1 #SUP: 2
113 -1 10 -1 76 -1 #SUP: 2
113 -1 22 -1 32 -1 #SUP: 4
113 -1 22 -1 64 -1 #SUP: 3
113 -1 22 -1 65 -1 #SUP: 2
113 -1 22 -1 76 -1 #SUP: 5
113 -1 22 -1 502 -1 #SUP: 3
113 -1 27 -1 3 -1 #SUP: 2
113 -1 29 -1 76 -1 #SUP: 2
113 -1 29 -1 502 -1 #SUP: 2
113 -1 32 -1 113 -1 #SUP: 2
113 -1 41 -1 3 -1 #SUP: 2
113 -1 41 -1 29 -1 #SUP: 2
113 -1 41 -1 65 -1 #SUP: 2
113 -1 41 -1 76 -1 #SUP: 3
113 -1 41 -1 113 -1 #SUP: 2
113 -1 41 -1 504 -1 #SUP: 3
113 -1 41 -1 847 -1 #SUP: 2
113 -1 52 -1 76 -1 #SUP: 2
113 -1 52 -1 113 -1 #SUP: 2
113 -1 64 -1 22 -1 #SUP: 4
113 -1 64 -1 65 -1 #SUP: 5
113 -1 64 -1 76 -1 #SUP: 5
113 -1 64 -1 113 -1 #SUP: 2
113 -1 64 -1 250 -1 #SUP: 2
113 -1 64 -1 340 -1 #SUP: 2
113 -1 64 -1 345 -1 #SUP: 2
113 -1 64 -1 1100 -1 #SUP: 2
113 -1 65 -1 2 -1 #SUP: 3
113 -1 65 -1 32 -1 #SUP: 4
113 -1 65 -1 76 -1 #SUP: 4
113 -1 65 -1 113 -1 #SUP: 4
113 -1 65 -1 185 -1 #SUP: 2
113 -1 65 -1 406 -1 #SUP: 2
113 -1 65 -1 826 -1 #SUP: 2
113 -1 65 -1 879 -1 #SUP: 2
113 -1 65 -1 1100 -1 #SUP: 4
113 -1 76 -1 2 -1 #SUP: 6
113 -1 76 -1 22 -1 #SUP: 2
113 -1 76 -1 50 -1 #SUP: 2
113 -1 76 -1 64 -1 #SUP: 2
113 -1 76 -1 65 -1 #SUP: 2
113 -1 76 -1 113 -1 #SUP: 8
113 -1 76 -1 182 -1 #SUP: 2
113 -1 76 -1 340 -1 #SUP: 2
113 -1 81 -1 64 -1 #SUP: 2
113 -1 113 -1 3 -1 #SUP: 4
113 -1 113 -1 22 -1 #SUP: 3
113 -1 113 -1 32 -1 #SUP: 2
113 -1 113 -1 50 -1 #SUP: 4
113 -1 113 -1 64 -1 #SUP: 3
113 -1 113 -1 113 -1 #SUP: 2
113 -1 113 -1 326 -1 #SUP: 2
113 -1 113 -1 340 -1 #SUP: 2
113 -1 113 -1 826 -1 #SUP: 3
113 -1 141 -1 76 -1 #SUP: 2
113 -1 141 -1 113 -1 #SUP: 2
113 -1 141 -1 185 -1 #SUP: 2
113 -1 155 -1 64 -1 #SUP: 2
113 -1 158 -1 113 -1 #SUP: 3
113 -1 160 -1 32 -1 #SUP: 2
113 -1 160 -1 41 -1 #SUP: 5
113 -1 160 -1 76 -1 #SUP: 2
113 -1 160 -1 504 -1 #SUP: 3
113 -1 160 -1 1017 -1 #SUP: 2
113 -1 185 -1 50 -1 #SUP: 2
113 -1 185 -1 76 -1 #SUP: 3
113 -1 185 -1 113 -1 #SUP: 3
113 -1 208 -1 41 -1 #SUP: 2
113 -1 208 -1 160 -1 #SUP: 2
113 -1 208 -1 653 -1 #SUP: 2
113 -1 248 -1 29 -1 #SUP: 2
113 -1 248 -1 41 -1 #SUP: 4
113 -1 248 -1 76 -1 #SUP: 2
113 -1 248 -1 160 -1 #SUP: 2
113 -1 248 -1 182 -1 #SUP: 2
113 -1 248 -1 340 -1 #SUP: 2
113 -1 248 -1 504 -1 #SUP: 2
113 -1 248 -1 1017 -1 #SUP: 2
113 -1 278 -1 76 -1 #SUP: 2
113 -1 278 -1 115 -1 #SUP: 2
113 -1 326 -1 3 -1 #SUP: 2
113 -1 326 -1 32 -1 #SUP: 2
113 -1 340 -1 50 -1 #SUP: 2
113 -1 340 -1 76 -1 #SUP: 2
113 -1 340 -1 113 -1 #SUP: 2
113 -1 356 -1 65 -1 #SUP: 2
113 -1 356 -1 879 -1 #SUP: 2
113 -1 388 -1 2 -1 #SUP: 2
113 -1 388 -1 64 -1 #SUP: 2
113 -1 388 -1 65 -1 #SUP: 2
113 -1 388 -1 76 -1 #SUP: 3
113 -1 406 -1 2 -1 #SUP: 2
113 -1 406 -1 76 -1 #SUP: 2
113 -1 502 -1 41 -1 #SUP: 2
113 -1 502 -1 52 -1 #SUP: 2
113 -1 502 -1 64 -1 #SUP: 2
113 -1 502 -1 76 -1 #SUP: 2
113 -1 502 -1 113 -1 #SUP: 2
113 -1 504 -1 76 -1 #SUP: 3
113 -1 641 -1 340 -1 #SUP: 2
113 -1 653 -1 41 -1 #SUP: 2
113 -1 653 -1 160 -1 #SUP: 2
113 -1 706 -1 64 -1 #SUP: 2
113 -1 786 -1 64 -1 #SUP: 2
113 -1 786 -1 76 -1 #SUP: 2
113 -1 802 -1 76 -1 #SUP: 2
113 -1 826 -1 2 -1 #SUP: 2
113 -1 826 -1 50 -1 #SUP: 2
113 -1 826 -1 76 -1 #SUP: 2
113 -1 826 -1 113 -1 #SUP: 2
113 -1 1017 -1 41 -1 #SUP: 3
113 -1 1017 -1 504 -1 #SUP: 3
113 -1 1100 -1 32 -1 #SUP: 2
113 -1 1100 -1 113 -1 #SUP: 2
113 -1 1225 -1 41 -1 #SUP: 2
113 -1 1225 -1 160 -1 #SUP: 2
113 -1 1309 -1 76 -1 #SUP: 2
113 -1 1309 -1 115 -1 #SUP: 2
113 -1 1309 -1 278 -1 #SUP: 2
118 -1 76 -1 22 -1 #SUP: 2
131 -1 2 -1 2 -1 #SUP: 2
131 -1 64 -1 2 -1 #SUP: 2
135 -1 76 -1 3 -1 #SUP: 2
141 -1 22 -1 129 -1 #SUP: 2
141 -1 76 -1 113 -1 #SUP: 2
141 -1 185 -1 76 -1 #SUP: 2
141 -1 185 -1 113 -1 #SUP: 2
151 -1 41 -1 786 -1 #SUP: 2
151 -1 76 -1 113 -1 #SUP: 2
151 -1 113 -1 41 -1 #SUP: 2
151 -1 113 -1 113 -1 #SUP: 2
151 -1 272 -1 786 -1 #SUP: 2
154 -1 76 -1 2 -1 #SUP: 2
154 -1 305 -1 2 -1 #SUP: 2
154 -1 305 -1 76 -1 #SUP: 2
155 -1 64 -1 3 -1 #SUP: 2
155 -1 64 -1 22 -1 #SUP: 2
155 -1 64 -1 65 -1 #SUP: 2
158 -1 2 -1 22 -1 #SUP: 2
158 -1 2 -1 41 -1 #SUP: 3
158 -1 3 -1 32 -1 #SUP: 3
158 -1 3 -1 41 -1 #SUP: 2
158 -1 3 -1 65 -1 #SUP: 4
158 -1 3 -1 76 -1 #SUP: 2
158 -1 3 -1 165 -1 #SUP: 2
158 -1 22 -1 22 -1 #SUP: 2
158 -1 29 -1 2 -1 #SUP: 2
158 -1 31 -1 65 -1 #SUP: 2
158 -1 32 -1 22 -1 #SUP: 3
158 -1 32 -1 29 -1 #SUP: 2
158 -1 32 -1 113 -1 #SUP: 2
158 -1 41 -1 2 -1 #SUP: 4
158 -1 41 -1 3 -1 #SUP: 6
158 -1 41 -1 7 -1 #SUP: 2
158 -1 41 -1 10 -1 #SUP: 2
158 -1 41 -1 22 -1 #SUP: 6
158 -1 41 -1 29 -1 #SUP: 5
158 -1 41 -1 32 -1 #SUP: 4
158 -1 41 -1 41 -1 #SUP: 7
158 -1 41 -1 46 -1 #SUP: 2
158 -1 41 -1 64 -1 #SUP: 4
158 -1 41 -1 65 -1 #SUP: 5
158 -1 41 -1 76 -1 #SUP: 5
158 -1 41 -1 118 -1 #SUP: 3
158 -1 41 -1 146 -1 #SUP: 2
158 -1 41 -1 158 -1 #SUP: 2
158 -1 41 -1 160 -1 #SUP: 2
158 -1 41 -1 165 -1 #SUP: 2
158 -1 41 -1 208 -1 #SUP: 2
158 -1 41 -1 213 -1 #SUP: 2
158 -1 41 -1 248 -1 #SUP: 2
158 -1 41 -1 272 -1 #SUP: 4
158 -1 41 -1 278 -1 #SUP: 2
158 -1 41 -1 326 -1 #SUP: 2
158 -1 41 -1 401 -1 #SUP: 2
158 -1 41 -1 717 -1 #SUP: 3
158 -1 41 -1 786 -1 #SUP: 2
158 -1 41 -1 895 -1 #SUP: 4
158 -1 64 -1 29 -1 #SUP: 2
158 -1 64 -1 76 -1 #SUP: 2
158 -1 65 -1 10 -1 #SUP: 2
158 -1 65 -1 32 -1 #SUP: 2
158 -1 65 -1 41 -1 #SUP: 2
158 -1 65 -1 65 -1 #SUP: 2
158 -1 65 -1 614 -1 #SUP: 2
158 -1 76 -1 2 -1 #SUP: 3
158 -1 76 -1 22 -1 #SUP: 2
158 -1 76 -1 41 -1 #SUP: 3
158 -1 76 -1 113 -1 #SUP: 2
158 -1 113 -1 22 -1 #SUP: 2
158 -1 113 -1 65 -1 #SUP: 2
158 -1 158 -1 41 -1 #SUP: 2
158 -1 160 -1 607 -1 #SUP: 2
158 -1 165 -1 41 -1 #SUP: 2
158 -1 187 -1 22 -1 #SUP: 2
158 -1 213 -1 76 -1 #SUP: 2
158 -1 248 -1 76 -1 #SUP: 2
158 -1 326 -1 3 -1 #SUP: 2
158 -1 895 -1 41 -1 #SUP: 2
158 -1 895 -1 272 -1 #SUP: 4
158 -1 1809 -1 76 -1 #SUP: 2
158 -1 1809 -1 113 -1 #SUP: 2
158 -1 3821 -1 2 -1 #SUP: 2
158 -1 3821 -1 41 -1 #SUP: 2
158 -1 3821 -1 76 -1 #SUP: 2
160 -1 41 -1 76 -1 #SUP: 2
160 -1 41 -1 113 -1 #SUP: 2
160 -1 41 -1 504 -1 #SUP: 3
160 -1 50 -1 76 -1 #SUP: 2
160 -1 76 -1 2 -1 #SUP: 3
160 -1 76 -1 113 -1 #SUP: 3
160 -1 504 -1 76 -1 #SUP: 2
160 -1 504 -1 113 -1 #SUP: 2
160 -1 607 -1 2 -1 #SUP: 2
160 -1 607 -1 76 -1 #SUP: 2
160 -1 1017 -1 41 -1 #SUP: 2
160 -1 1017 -1 504 -1 #SUP: 2
161 -1 340 -1 76 -1 #SUP: 2
165 -1 3 -1 64 -1 #SUP: 2
165 -1 41 -1 64 -1 #SUP: 2
165 -1 64 -1 41 -1 #SUP: 2
179 -1 113 -1 151 -1 #SUP: 2
179 -1 714 -1 151 -1 #SUP: 2
182 -1 3 -1 64 -1 #SUP: 2
182 -1 3 -1 65 -1 #SUP: 2
182 -1 3 -1 76 -1 #SUP: 2
182 -1 3 -1 248 -1 #SUP: 2
182 -1 3 -1 308 -1 #SUP: 2
182 -1 32 -1 22 -1 #SUP: 2
182 -1 76 -1 22 -1 #SUP: 2
182 -1 113 -1 65 -1 #SUP: 2
182 -1 248 -1 64 -1 #SUP: 2
182 -1 248 -1 308 -1 #SUP: 2
182 -1 641 -1 65 -1 #SUP: 2
185 -1 50 -1 76 -1 #SUP: 2
185 -1 76 -1 113 -1 #SUP: 2
187 -1 22 -1 65 -1 #SUP: 2
187 -1 22 -1 76 -1 #SUP: 2
187 -1 32 -1 22 -1 #SUP: 2
187 -1 32 -1 76 -1 #SUP: 2
190 -1 3 -1 65 -1 #SUP: 2
190 -1 3 -1 151 -1 #SUP: 2
190 -1 3 -1 200 -1 #SUP: 2
200 -1 64 -1 22 -1 #SUP: 2
200 -1 64 -1 76 -1 #SUP: 2
208 -1 160 -1 41 -1 #SUP: 2
208 -1 653 -1 41 -1 #SUP: 2
208 -1 653 -1 160 -1 #SUP: 2
212 -1 113 -1 50 -1 #SUP: 2
213 -1 2 -1 41 -1 #SUP: 2
213 -1 64 -1 2 -1 #SUP: 2
213 -1 76 -1 2 -1 #SUP: 3
213 -1 76 -1 41 -1 #SUP: 2
213 -1 131 -1 131 -1 #SUP: 2
213 -1 268 -1 76 -1 #SUP: 2
213 -1 268 -1 250 -1 #SUP: 2
224 -1 22 -1 22 -1 #SUP: 2
224 -1 41 -1 64 -1 #SUP: 2
224 -1 41 -1 161 -1 #SUP: 2
224 -1 41 -1 340 -1 #SUP: 2
224 -1 76 -1 22 -1 #SUP: 2
224 -1 161 -1 340 -1 #SUP: 2
236 -1 41 -1 3 -1 #SUP: 2
236 -1 41 -1 65 -1 #SUP: 3
236 -1 48 -1 3 -1 #SUP: 2
236 -1 48 -1 41 -1 #SUP: 5
236 -1 48 -1 65 -1 #SUP: 3
236 -1 48 -1 158 -1 #SUP: 5
236 -1 158 -1 3 -1 #SUP: 2
236 -1 158 -1 41 -1 #SUP: 5
236 -1 158 -1 65 -1 #SUP: 3
236 -1 312 -1 3 -1 #SUP: 2
236 -1 312 -1 41 -1 #SUP: 5
236 -1 312 -1 48 -1 #SUP: 5
236 -1 312 -1 65 -1 #SUP: 3
236 -1 312 -1 158 -1 #SUP: 5
242 -1 156 -1 64 -1 #SUP: 2
244 -1 22 -1 32 -1 #SUP: 2
247 -1 32 -1 65 -1 #SUP: 2
247 -1 32 -1 76 -1 #SUP: 2
247 -1 76 -1 65 -1 #SUP: 2
248 -1 2 -1 113 -1 #SUP: 2
248 -1 41 -1 76 -1 #SUP: 2
248 -1 41 -1 504 -1 #SUP: 2
248 -1 41 -1 847 -1 #SUP: 2
248 -1 64 -1 2 -1 #SUP: 2
248 -1 64 -1 3 -1 #SUP: 3
248 -1 64 -1 41 -1 #SUP: 2
248 -1 64 -1 76 -1 #SUP: 4
248 -1 64 -1 113 -1 #SUP: 2
248 -1 64 -1 308 -1 #SUP: 2
248 -1 76 -1 2 -1 #SUP: 3
248 -1 76 -1 3 -1 #SUP: 2
248 -1 76 -1 113 -1 #SUP: 3
248 -1 113 -1 3 -1 #SUP: 2
248 -1 160 -1 41 -1 #SUP: 2
248 -1 160 -1 504 -1 #SUP: 2
248 -1 160 -1 1017 -1 #SUP: 2
248 -1 182 -1 65 -1 #SUP: 2
248 -1 213 -1 76 -1 #SUP: 2
248 -1 213 -1 268 -1 #SUP: 2
248 -1 268 -1 76 -1 #SUP: 2
248 -1 308 -1 64 -1 #SUP: 2
248 -1 308 -1 76 -1 #SUP: 2
248 -1 340 -1 65 -1 #SUP: 2
248 -1 561 -1 3 -1 #SUP: 2
248 -1 561 -1 64 -1 #SUP: 2
248 -1 1017 -1 41 -1 #SUP: 2
248 -1 1017 -1 504 -1 #SUP: 2
250 -1 3 -1 10 -1 #SUP: 2
250 -1 3 -1 200 -1 #SUP: 2
250 -1 10 -1 22 -1 #SUP: 2
250 -1 76 -1 113 -1 #SUP: 2
256 -1 64 -1 65 -1 #SUP: 2
256 -1 64 -1 308 -1 #SUP: 2
256 -1 76 -1 10 -1 #SUP: 2
256 -1 308 -1 65 -1 #SUP: 2
264 -1 151 -1 64 -1 #SUP: 2
268 -1 64 -1 113 -1 #SUP: 2
272 -1 29 -1 2117 -1 #SUP: 2
273 -1 64 -1 2 -1 #SUP: 2
277 -1 65 -1 65 -1 #SUP: 2
277 -1 65 -1 76 -1 #SUP: 2
277 -1 65 -1 276 -1 #SUP: 2
277 -1 276 -1 65 -1 #SUP: 2
277 -1 276 -1 76 -1 #SUP: 2
278 -1 22 -1 76 -1 #SUP: 2
278 -1 76 -1 557 -1 #SUP: 3
296 -1 113 -1 3 -1 #SUP: 2
296 -1 113 -1 151 -1 #SUP: 2
305 -1 76 -1 2 -1 #SUP: 2
305 -1 76 -1 113 -1 #SUP: 2
305 -1 200 -1 113 -1 #SUP: 2
308 -1 64 -1 2 -1 #SUP: 2
308 -1 76 -1 113 -1 #SUP: 2
312 -1 3 -1 32 -1 #SUP: 2
312 -1 41 -1 3 -1 #SUP: 2
312 -1 41 -1 32 -1 #SUP: 2
312 -1 41 -1 65 -1 #SUP: 3
312 -1 48 -1 3 -1 #SUP: 2
312 -1 48 -1 32 -1 #SUP: 2
312 -1 48 -1 41 -1 #SUP: 5
312 -1 48 -1 65 -1 #SUP: 3
312 -1 48 -1 158 -1 #SUP: 5
312 -1 158 -1 3 -1 #SUP: 2
312 -1 158 -1 32 -1 #SUP: 2
312 -1 158 -1 41 -1 #SUP: 5
312 -1 158 -1 65 -1 #SUP: 3
326 -1 3 -1 32 -1 #SUP: 2
326 -1 3 -1 65 -1 #SUP: 2
326 -1 41 -1 3 -1 #SUP: 2
326 -1 41 -1 65 -1 #SUP: 3
326 -1 48 -1 3 -1 #SUP: 2
326 -1 48 -1 41 -1 #SUP: 5
326 -1 48 -1 65 -1 #SUP: 3
326 -1 48 -1 158 -1 #SUP: 5
326 -1 158 -1 3 -1 #SUP: 2
326 -1 158 -1 41 -1 #SUP: 5
326 -1 158 -1 65 -1 #SUP: 3
326 -1 236 -1 3 -1 #SUP: 2
326 -1 236 -1 41 -1 #SUP: 5
326 -1 236 -1 48 -1 #SUP: 5
326 -1 236 -1 65 -1 #SUP: 3
326 -1 236 -1 158 -1 #SUP: 5
326 -1 236 -1 312 -1 #SUP: 5
326 -1 312 -1 3 -1 #SUP: 2
326 -1 312 -1 41 -1 #SUP: 5
326 -1 312 -1 48 -1 #SUP: 5
326 -1 312 -1 65 -1 #SUP: 3
326 -1 312 -1 158 -1 #SUP: 5
340 -1 3 -1 394 -1 #SUP: 2
340 -1 22 -1 77 -1 #SUP: 2
340 -1 50 -1 22 -1 #SUP: 2
340 -1 50 -1 64 -1 #SUP: 2
340 -1 64 -1 22 -1 #SUP: 2
340 -1 64 -1 113 -1 #SUP: 2
340 -1 76 -1 113 -1 #SUP: 2
342 -1 16 -1 22 -1 #SUP: 2
354 -1 113 -1 76 -1 #SUP: 2
356 -1 65 -1 340 -1 #SUP: 2
356 -1 65 -1 879 -1 #SUP: 2
356 -1 879 -1 340 -1 #SUP: 2
364 -1 2 -1 113 -1 #SUP: 2
364 -1 31 -1 113 -1 #SUP: 2
364 -1 76 -1 113 -1 #SUP: 2
364 -1 76 -1 182 -1 #SUP: 2
364 -1 151 -1 41 -1 #SUP: 2
388 -1 65 -1 2 -1 #SUP: 2
388 -1 65 -1 32 -1 #SUP: 2
388 -1 65 -1 76 -1 #SUP: 2
388 -1 76 -1 2 -1 #SUP: 3
403 -1 76 -1 2 -1 #SUP: 2
406 -1 2 -1 221 -1 #SUP: 2
406 -1 76 -1 2 -1 #SUP: 2
418 -1 64 -1 66 -1 #SUP: 2
448 -1 76 -1 113 -1 #SUP: 2
463 -1 22 -1 2 -1 #SUP: 2
484 -1 151 -1 41 -1 #SUP: 3
484 -1 364 -1 151 -1 #SUP: 2
502 -1 2 -1 113 -1 #SUP: 2
502 -1 2 -1 248 -1 #SUP: 2
502 -1 41 -1 76 -1 #SUP: 3
502 -1 52 -1 2 -1 #SUP: 2
502 -1 52 -1 76 -1 #SUP: 2
502 -1 52 -1 113 -1 #SUP: 3
502 -1 52 -1 248 -1 #SUP: 2
502 -1 64 -1 22 -1 #SUP: 2
502 -1 64 -1 76 -1 #SUP: 2
502 -1 76 -1 113 -1 #SUP: 2
502 -1 100 -1 76 -1 #SUP: 2
502 -1 113 -1 76 -1 #SUP: 2
502 -1 113 -1 248 -1 #SUP: 2
504 -1 3 -1 200 -1 #SUP: 2
504 -1 76 -1 41 -1 #SUP: 2
504 -1 76 -1 113 -1 #SUP: 3
504 -1 76 -1 340 -1 #SUP: 2
504 -1 113 -1 41 -1 #SUP: 2
504 -1 151 -1 41 -1 #SUP: 2
504 -1 151 -1 113 -1 #SUP: 2
527 -1 64 -1 41 -1 #SUP: 2
527 -1 165 -1 41 -1 #SUP: 2
527 -1 165 -1 64 -1 #SUP: 2
557 -1 76 -1 113 -1 #SUP: 2
561 -1 64 -1 3 -1 #SUP: 2
566 -1 10 -1 32 -1 #SUP: 2
566 -1 76 -1 2 -1 #SUP: 2
607 -1 2 -1 641 -1 #SUP: 2
607 -1 76 -1 2 -1 #SUP: 2
607 -1 76 -1 641 -1 #SUP: 2
636 -1 113 -1 3 -1 #SUP: 2
641 -1 340 -1 65 -1 #SUP: 2
641 -1 340 -1 248 -1 #SUP: 2
653 -1 160 -1 41 -1 #SUP: 2
701 -1 64 -1 2 -1 #SUP: 2
714 -1 248 -1 64 -1 #SUP: 2
717 -1 2 -1 41 -1 #SUP: 2
717 -1 76 -1 2 -1 #SUP: 2
717 -1 76 -1 41 -1 #SUP: 2
747 -1 31 -1 113 -1 #SUP: 2
747 -1 41 -1 31 -1 #SUP: 2
747 -1 41 -1 64 -1 #SUP: 2
747 -1 41 -1 113 -1 #SUP: 3
747 -1 41 -1 151 -1 #SUP: 2
747 -1 41 -1 364 -1 #SUP: 2
747 -1 64 -1 113 -1 #SUP: 2
747 -1 151 -1 113 -1 #SUP: 2
747 -1 364 -1 31 -1 #SUP: 2
747 -1 364 -1 113 -1 #SUP: 2
786 -1 41 -1 31 -1 #SUP: 2
786 -1 340 -1 22 -1 #SUP: 2
802 -1 22 -1 76 -1 #SUP: 3
802 -1 22 -1 394 -1 #SUP: 2
802 -1 76 -1 2 -1 #SUP: 2
802 -1 76 -1 394 -1 #SUP: 2
826 -1 2 -1 113 -1 #SUP: 2
826 -1 50 -1 113 -1 #SUP: 2
826 -1 76 -1 2 -1 #SUP: 2
826 -1 76 -1 3 -1 #SUP: 2
826 -1 76 -1 113 -1 #SUP: 3
826 -1 113 -1 3 -1 #SUP: 2
879 -1 2 -1 113 -1 #SUP: 2
879 -1 76 -1 2 -1 #SUP: 2
879 -1 250 -1 3 -1 #SUP: 2
895 -1 41 -1 272 -1 #SUP: 2
1017 -1 41 -1 504 -1 #SUP: 3
1042 -1 10 -1 76 -1 #SUP: 2
1100 -1 32 -1 22 -1 #SUP: 2
1225 -1 160 -1 41 -1 #SUP: 2
1309 -1 278 -1 22 -1 #SUP: 2
1309 -1 278 -1 76 -1 #SUP: 2
1309 -1 278 -1 115 -1 #SUP: 2
1467 -1 64 -1 41 -1 #SUP: 2
1467 -1 64 -1 65 -1 #SUP: 2
1747 -1 10 -1 65 -1 #SUP: 2
1747 -1 10 -1 76 -1 #SUP: 2
1809 -1 76 -1 113 -1 #SUP: 2
3460 -1 64 -1 22 -1 #SUP: 2
3821 -1 2 -1 41 -1 #SUP: 2
3821 -1 76 -1 2 -1 #SUP: 2
3821 -1 76 -1 41 -1 #SUP: 2
2 -1 3 -1 64 -1 41 -1 #SUP: 2
2 -1 3 -1 706 -1 64 -1 #SUP: 2
2 -1 76 -1 2 -1 406 -1 #SUP: 2
2 -1 113 -1 41 -1 504 -1 #SUP: 3
2 -1 113 -1 160 -1 41 -1 #SUP: 3
2 -1 113 -1 160 -1 504 -1 #SUP: 2
2 -1 113 -1 160 -1 1017 -1 #SUP: 2
2 -1 113 -1 208 -1 41 -1 #SUP: 2
2 -1 113 -1 208 -1 160 -1 #SUP: 2
2 -1 113 -1 208 -1 653 -1 #SUP: 2
2 -1 113 -1 248 -1 41 -1 #SUP: 2
2 -1 113 -1 248 -1 160 -1 #SUP: 2
2 -1 113 -1 248 -1 504 -1 #SUP: 2
2 -1 113 -1 248 -1 1017 -1 #SUP: 2
2 -1 113 -1 653 -1 41 -1 #SUP: 2
2 -1 113 -1 653 -1 160 -1 #SUP: 2
2 -1 113 -1 1017 -1 41 -1 #SUP: 3
2 -1 113 -1 1017 -1 504 -1 #SUP: 3
2 -1 160 -1 41 -1 504 -1 #SUP: 2
2 -1 160 -1 1017 -1 41 -1 #SUP: 2
2 -1 160 -1 1017 -1 504 -1 #SUP: 2
2 -1 208 -1 160 -1 41 -1 #SUP: 2
2 -1 208 -1 653 -1 41 -1 #SUP: 2
2 -1 208 -1 653 -1 160 -1 #SUP: 2
2 -1 248 -1 41 -1 504 -1 #SUP: 2
2 -1 248 -1 160 -1 41 -1 #SUP: 2
2 -1 248 -1 160 -1 504 -1 #SUP: 2
2 -1 248 -1 160 -1 1017 -1 #SUP: 2
2 -1 248 -1 1017 -1 41 -1 #SUP: 2
2 -1 248 -1 1017 -1 504 -1 #SUP: 2
2 -1 653 -1 160 -1 41 -1 #SUP: 2
2 -1 701 -1 64 -1 2 -1 #SUP: 2
2 -1 1017 -1 41 -1 504 -1 #SUP: 3
3 -1 2 -1 113 -1 445 -1 #SUP: 2
3 -1 2 -1 113 -1 786 -1 #SUP: 3
3 -1 22 -1 32 -1 878 -1 #SUP: 2
3 -1 22 -1 64 -1 65 -1 #SUP: 2
3 -1 64 -1 41 -1 1467 -1 #SUP: 2
3 -1 65 -1 2 -1 113 -1 #SUP: 2
3 -1 65 -1 2 -1 786 -1 #SUP: 2
3 -1 65 -1 32 -1 213 -1 #SUP: 2
3 -1 65 -1 113 -1 786 -1 #SUP: 2
3 -1 65 -1 160 -1 50 -1 #SUP: 2
3 -1 65 -1 607 -1 76 -1 #SUP: 2
3 -1 76 -1 2 -1 41 -1 #SUP: 3
3 -1 76 -1 2 -1 113 -1 #SUP: 3
3 -1 76 -1 2 -1 445 -1 #SUP: 2
3 -1 76 -1 2 -1 786 -1 #SUP: 2
3 -1 76 -1 113 -1 445 -1 #SUP: 2
3 -1 248 -1 64 -1 76 -1 #SUP: 2
3 -1 248 -1 64 -1 308 -1 #SUP: 2
3 -1 248 -1 308 -1 76 -1 #SUP: 2
3 -1 1042 -1 10 -1 76 -1 #SUP: 2
7 -1 65 -1 418 -1 64 -1 #SUP: 2
10 -1 65 -1 76 -1 2 -1 #SUP: 2
22 -1 29 -1 502 -1 52 -1 #SUP: 2
22 -1 32 -1 50 -1 113 -1 #SUP: 2
22 -1 32 -1 113 -1 64 -1 #SUP: 2
22 -1 32 -1 878 -1 22 -1 #SUP: 2
22 -1 76 -1 2 -1 208 -1 #SUP: 2
22 -1 76 -1 113 -1 3 -1 #SUP: 2
22 -1 113 -1 76 -1 113 -1 #SUP: 2
22 -1 113 -1 340 -1 76 -1 #SUP: 2
22 -1 247 -1 32 -1 65 -1 #SUP: 2
22 -1 247 -1 32 -1 76 -1 #SUP: 2
22 -1 502 -1 52 -1 2 -1 #SUP: 2
22 -1 502 -1 52 -1 76 -1 #SUP: 2
22 -1 502 -1 113 -1 76 -1 #SUP: 2
22 -1 826 -1 76 -1 113 -1 #SUP: 2
29 -1 3 -1 2 -1 113 -1 #SUP: 2
29 -1 502 -1 52 -1 113 -1 #SUP: 2
32 -1 113 -1 2 -1 113 -1 #SUP: 2
41 -1 3 -1 76 -1 2 -1 #SUP: 3
41 -1 48 -1 41 -1 3 -1 #SUP: 2
41 -1 48 -1 41 -1 65 -1 #SUP: 2
41 -1 48 -1 158 -1 3 -1 #SUP: 2
41 -1 48 -1 158 -1 41 -1 #SUP: 5
41 -1 48 -1 158 -1 65 -1 #SUP: 2
41 -1 65 -1 10 -1 65 -1 #SUP: 2
41 -1 76 -1 2 -1 22 -1 #SUP: 2
41 -1 76 -1 2 -1 41 -1 #SUP: 2
41 -1 76 -1 2 -1 64 -1 #SUP: 2
41 -1 76 -1 2 -1 165 -1 #SUP: 2
41 -1 76 -1 113 -1 3 -1 #SUP: 2
41 -1 76 -1 113 -1 64 -1 #SUP: 2
41 -1 76 -1 113 -1 248 -1 #SUP: 2
41 -1 158 -1 41 -1 3 -1 #SUP: 2
41 -1 158 -1 41 -1 65 -1 #SUP: 2
41 -1 161 -1 340 -1 76 -1 #SUP: 2
41 -1 236 -1 41 -1 3 -1 #SUP: 2
41 -1 236 -1 41 -1 65 -1 #SUP: 2
41 -1 236 -1 48 -1 3 -1 #SUP: 2
41 -1 236 -1 48 -1 41 -1 #SUP: 5
41 -1 236 -1 48 -1 65 -1 #SUP: 2
41 -1 236 -1 48 -1 158 -1 #SUP: 5
41 -1 236 -1 158 -1 3 -1 #SUP: 2
41 -1 236 -1 158 -1 41 -1 #SUP: 5
41 -1 236 -1 158 -1 65 -1 #SUP: 2
41 -1 236 -1 312 -1 3 -1 #SUP: 2
41 -1 236 -1 312 -1 41 -1 #SUP: 5
41 -1 236 -1 312 -1 48 -1 #SUP: 5
41 -1 236 -1 312 -1 65 -1 #SUP: 2
41 -1 236 -1 312 -1 158 -1 #SUP: 5
41 -1 272 -1 29 -1 2117 -1 #SUP: 2
41 -1 312 -1 41 -1 3 -1 #SUP: 2
41 -1 312 -1 41 -1 65 -1 #SUP: 2
41 -1 312 -1 48 -1 3 -1 #SUP: 2
41 -1 312 -1 48 -1 41 -1 #SUP: 5
41 -1 312 -1 48 -1 65 -1 #SUP: 2
41 -1 312 -1 48 -1 158 -1 #SUP: 5
41 -1 312 -1 158 -1 3 -1 #SUP: 2
41 -1 312 -1 158 -1 41 -1 #SUP: 5
41 -1 312 -1 158 -1 65 -1 #SUP: 2
41 -1 326 -1 41 -1 3 -1 #SUP: 2
41 -1 326 -1 41 -1 65 -1 #SUP: 2
41 -1 326 -1 48 -1 3 -1 #SUP: 2
41 -1 326 -1 48 -1 41 -1 #SUP: 5
41 -1 326 -1 48 -1 65 -1 #SUP: 2
41 -1 326 -1 48 -1 158 -1 #SUP: 5
41 -1 326 -1 158 -1 3 -1 #SUP: 2
41 -1 326 -1 158 -1 41 -1 #SUP: 5
41 -1 326 -1 158 -1 65 -1 #SUP: 2
41 -1 326 -1 236 -1 3 -1 #SUP: 2
41 -1 326 -1 236 -1 41 -1 #SUP: 5
41 -1 326 -1 236 -1 48 -1 #SUP: 5
41 -1 326 -1 236 -1 65 -1 #SUP: 2
41 -1 326 -1 236 -1 158 -1 #SUP: 5
41 -1 326 -1 236 -1 312 -1 #SUP: 5
41 -1 326 -1 312 -1 3 -1 #SUP: 2
41 -1 326 -1 312 -1 41 -1 #SUP: 5
41 -1 326 -1 312 -1 48 -1 #SUP: 5
41 -1 326 -1 312 -1 65 -1 #SUP: 2
41 -1 326 -1 312 -1 158 -1 #SUP: 5
41 -1 364 -1 31 -1 113 -1 #SUP: 2
41 -1 484 -1 151 -1 41 -1 #SUP: 2
41 -1 504 -1 76 -1 113 -1 #SUP: 3
41 -1 504 -1 151 -1 113 -1 #SUP: 2
41 -1 641 -1 340 -1 65 -1 #SUP: 2
41 -1 641 -1 340 -1 248 -1 #SUP: 2
41 -1 895 -1 41 -1 272 -1 #SUP: 2
48 -1 41 -1 3 -1 32 -1 #SUP: 2
48 -1 158 -1 3 -1 32 -1 #SUP: 2
48 -1 158 -1 41 -1 3 -1 #SUP: 2
48 -1 158 -1 41 -1 32 -1 #SUP: 2
48 -1 158 -1 41 -1 65 -1 #SUP: 3
52 -1 2 -1 113 -1 248 -1 #SUP: 2
52 -1 76 -1 2 -1 113 -1 #SUP: 2
52 -1 76 -1 3 -1 65 -1 #SUP: 2
52 -1 76 -1 113 -1 65 -1 #SUP: 2
52 -1 76 -1 182 -1 65 -1 #SUP: 2
52 -1 76 -1 182 -1 113 -1 #SUP: 2
52 -1 182 -1 113 -1 65 -1 #SUP: 2
64 -1 3 -1 699 -1 2 -1 #SUP: 2
64 -1 22 -1 29 -1 52 -1 #SUP: 2
64 -1 22 -1 29 -1 502 -1 #SUP: 2
64 -1 22 -1 113 -1 76 -1 #SUP: 2
64 -1 22 -1 502 -1 52 -1 #SUP: 2
64 -1 29 -1 502 -1 52 -1 #SUP: 2
64 -1 41 -1 76 -1 113 -1 #SUP: 2
64 -1 65 -1 76 -1 113 -1 #SUP: 2
64 -1 76 -1 2 -1 41 -1 #SUP: 2
64 -1 76 -1 2 -1 208 -1 #SUP: 2
64 -1 76 -1 3 -1 22 -1 #SUP: 2
64 -1 76 -1 113 -1 3 -1 #SUP: 2
64 -1 76 -1 113 -1 22 -1 #SUP: 2
64 -1 76 -1 158 -1 76 -1 #SUP: 2
64 -1 76 -1 158 -1 1809 -1 #SUP: 2
64 -1 76 -1 1809 -1 76 -1 #SUP: 2
64 -1 113 -1 3 -1 22 -1 #SUP: 2
64 -1 113 -1 76 -1 113 -1 #SUP: 2
64 -1 113 -1 113 -1 22 -1 #SUP: 2
64 -1 113 -1 326 -1 3 -1 #SUP: 2
64 -1 131 -1 64 -1 2 -1 #SUP: 2
64 -1 158 -1 1809 -1 76 -1 #SUP: 2
64 -1 250 -1 76 -1 113 -1 #SUP: 2
65 -1 2 -1 113 -1 786 -1 #SUP: 2
65 -1 10 -1 65 -1 2 -1 #SUP: 2
65 -1 10 -1 65 -1 76 -1 #SUP: 2
65 -1 10 -1 76 -1 2 -1 #SUP: 2
65 -1 65 -1 76 -1 2 -1 #SUP: 3
65 -1 76 -1 2 -1 22 -1 #SUP: 3
65 -1 76 -1 2 -1 113 -1 #SUP: 2
65 -1 76 -1 187 -1 32 -1 #SUP: 2
65 -1 566 -1 76 -1 2 -1 #SUP: 2
65 -1 1100 -1 32 -1 22 -1 #SUP: 2
75 -1 76 -1 2 -1 182 -1 #SUP: 2
75 -1 76 -1 2 -1 641 -1 #SUP: 2
76 -1 2 -1 32 -1 76 -1 #SUP: 2
76 -1 2 -1 41 -1 41 -1 #SUP: 3
76 -1 2 -1 41 -1 504 -1 #SUP: 2
76 -1 2 -1 41 -1 786 -1 #SUP: 2
76 -1 2 -1 113 -1 3 -1 #SUP: 3
76 -1 2 -1 113 -1 41 -1 #SUP: 2
76 -1 2 -1 113 -1 160 -1 #SUP: 2
76 -1 2 -1 113 -1 208 -1 #SUP: 2
76 -1 2 -1 113 -1 445 -1 #SUP: 2
76 -1 2 -1 113 -1 504 -1 #SUP: 2
76 -1 2 -1 113 -1 653 -1 #SUP: 2
76 -1 2 -1 113 -1 786 -1 #SUP: 2
76 -1 2 -1 113 -1 1017 -1 #SUP: 2
76 -1 2 -1 208 -1 41 -1 #SUP: 2
76 -1 2 -1 208 -1 160 -1 #SUP: 2
76 -1 2 -1 208 -1 653 -1 #SUP: 2
76 -1 2 -1 527 -1 165 -1 #SUP: 2
76 -1 2 -1 641 -1 3 -1 #SUP: 2
76 -1 2 -1 641 -1 64 -1 #SUP: 2
76 -1 2 -1 653 -1 160 -1 #SUP: 2
76 -1 2 -1 786 -1 484 -1 #SUP: 2
76 -1 2 -1 1017 -1 41 -1 #SUP: 2
76 -1 2 -1 1017 -1 504 -1 #SUP: 2
76 -1 3 -1 2 -1 113 -1 #SUP: 2
76 -1 3 -1 22 -1 32 -1 #SUP: 2
76 -1 3 -1 76 -1 484 -1 #SUP: 2
76 -1 16 -1 64 -1 22 -1 #SUP: 2
76 -1 22 -1 15 -1 32 -1 #SUP: 2
76 -1 41 -1 340 -1 65 -1 #SUP: 2
76 -1 41 -1 641 -1 65 -1 #SUP: 2
76 -1 41 -1 641 -1 340 -1 #SUP: 2
76 -1 64 -1 22 -1 113 -1 #SUP: 2
76 -1 64 -1 182 -1 76 -1 #SUP: 2
76 -1 65 -1 32 -1 22 -1 #SUP: 2
76 -1 113 -1 3 -1 22 -1 #SUP: 3
76 -1 113 -1 3 -1 32 -1 #SUP: 2
76 -1 113 -1 3 -1 41 -1 #SUP: 2
76 -1 113 -1 3 -1 65 -1 #SUP: 2
76 -1 113 -1 22 -1 32 -1 #SUP: 2
76 -1 113 -1 22 -1 502 -1 #SUP: 2
76 -1 113 -1 41 -1 504 -1 #SUP: 2
76 -1 113 -1 65 -1 1100 -1 #SUP: 2
76 -1 113 -1 160 -1 32 -1 #SUP: 2
76 -1 113 -1 208 -1 160 -1 #SUP: 2
76 -1 113 -1 208 -1 653 -1 #SUP: 2
76 -1 113 -1 248 -1 29 -1 #SUP: 2
76 -1 113 -1 248 -1 41 -1 #SUP: 3
76 -1 113 -1 248 -1 340 -1 #SUP: 2
76 -1 113 -1 653 -1 160 -1 #SUP: 2
76 -1 113 -1 826 -1 50 -1 #SUP: 2
76 -1 113 -1 1017 -1 41 -1 #SUP: 2
76 -1 113 -1 1017 -1 504 -1 #SUP: 2
76 -1 158 -1 76 -1 113 -1 #SUP: 2
76 -1 158 -1 1809 -1 76 -1 #SUP: 2
76 -1 158 -1 1809 -1 113 -1 #SUP: 2
76 -1 179 -1 113 -1 151 -1 #SUP: 2
76 -1 179 -1 714 -1 151 -1 #SUP: 2
76 -1 182 -1 113 -1 65 -1 #SUP: 2
76 -1 182 -1 641 -1 65 -1 #SUP: 2
76 -1 187 -1 32 -1 22 -1 #SUP: 2
76 -1 187 -1 32 -1 76 -1 #SUP: 2
76 -1 208 -1 653 -1 160 -1 #SUP: 2
76 -1 250 -1 3 -1 200 -1 #SUP: 2
76 -1 342 -1 16 -1 22 -1 #SUP: 2
76 -1 641 -1 340 -1 65 -1 #SUP: 2
76 -1 1017 -1 41 -1 504 -1 #SUP: 2
76 -1 1809 -1 76 -1 113 -1 #SUP: 2
100 -1 22 -1 29 -1 52 -1 #SUP: 2
100 -1 22 -1 29 -1 502 -1 #SUP: 2
100 -1 22 -1 502 -1 52 -1 #SUP: 2
100 -1 29 -1 502 -1 52 -1 #SUP: 2
100 -1 64 -1 22 -1 29 -1 #SUP: 2
100 -1 64 -1 22 -1 52 -1 #SUP: 2
100 -1 64 -1 22 -1 502 -1 #SUP: 2
100 -1 64 -1 29 -1 52 -1 #SUP: 2
100 -1 64 -1 29 -1 502 -1 #SUP: 2
100 -1 64 -1 502 -1 52 -1 #SUP: 2
100 -1 113 -1 248 -1 29 -1 #SUP: 2
113 -1 3 -1 22 -1 32 -1 #SUP: 2
113 -1 3 -1 22 -1 64 -1 #SUP: 2
113 -1 3 -1 65 -1 32 -1 #SUP: 2
113 -1 3 -1 76 -1 2 -1 #SUP: 2
113 -1 3 -1 706 -1 64 -1 #SUP: 2
113 -1 7 -1 81 -1 64 -1 #SUP: 2
113 -1 41 -1 504 -1 76 -1 #SUP: 2
113 -1 64 -1 22 -1 76 -1 #SUP: 2
113 -1 64 -1 65 -1 1100 -1 #SUP: 2
113 -1 64 -1 76 -1 340 -1 #SUP: 2
113 -1 65 -1 32 -1 113 -1 #SUP: 2
113 -1 65 -1 76 -1 2 -1 #SUP: 2
113 -1 65 -1 113 -1 826 -1 #SUP: 2
113 -1 65 -1 1100 -1 32 -1 #SUP: 2
113 -1 65 -1 1100 -1 113 -1 #SUP: 2
113 -1 76 -1 113 -1 50 -1 #SUP: 2
113 -1 76 -1 113 -1 113 -1 #SUP: 2
113 -1 141 -1 76 -1 113 -1 #SUP: 2
113 -1 141 -1 185 -1 76 -1 #SUP: 2
113 -1 141 -1 185 -1 113 -1 #SUP: 2
113 -1 160 -1 41 -1 76 -1 #SUP: 2
113 -1 160 -1 41 -1 504 -1 #SUP: 3
113 -1 160 -1 504 -1 76 -1 #SUP: 2
113 -1 160 -1 1017 -1 41 -1 #SUP: 2
113 -1 160 -1 1017 -1 504 -1 #SUP: 2
113 -1 185 -1 76 -1 113 -1 #SUP: 2
113 -1 208 -1 160 -1 41 -1 #SUP: 2
113 -1 208 -1 653 -1 41 -1 #SUP: 2
113 -1 208 -1 653 -1 160 -1 #SUP: 2
113 -1 248 -1 41 -1 504 -1 #SUP: 2
113 -1 248 -1 160 -1 41 -1 #SUP: 2
113 -1 248 -1 160 -1 504 -1 #SUP: 2
113 -1 248 -1 160 -1 1017 -1 #SUP: 2
113 -1 248 -1 1017 -1 41 -1 #SUP: 2
113 -1 248 -1 1017 -1 504 -1 #SUP: 2
113 -1 326 -1 3 -1 32 -1 #SUP: 2
113 -1 340 -1 76 -1 113 -1 #SUP: 2
113 -1 356 -1 65 -1 879 -1 #SUP: 2
113 -1 388 -1 76 -1 2 -1 #SUP: 2
113 -1 406 -1 76 -1 2 -1 #SUP: 2
113 -1 502 -1 52 -1 113 -1 #SUP: 2
113 -1 653 -1 160 -1 41 -1 #SUP: 2
113 -1 826 -1 76 -1 2 -1 #SUP: 2
113 -1 1017 -1 41 -1 504 -1 #SUP: 3
113 -1 1225 -1 160 -1 41 -1 #SUP: 2
113 -1 1309 -1 278 -1 76 -1 #SUP: 2
113 -1 1309 -1 278 -1 115 -1 #SUP: 2
141 -1 185 -1 76 -1 113 -1 #SUP: 2
154 -1 305 -1 76 -1 2 -1 #SUP: 2
158 -1 3 -1 65 -1 32 -1 #SUP: 2
158 -1 41 -1 2 -1 22 -1 #SUP: 2
158 -1 41 -1 2 -1 41 -1 #SUP: 2
158 -1 41 -1 3 -1 32 -1 #SUP: 2
158 -1 41 -1 3 -1 41 -1 #SUP: 2
158 -1 41 -1 3 -1 65 -1 #SUP: 2
158 -1 41 -1 3 -1 76 -1 #SUP: 2
158 -1 41 -1 3 -1 165 -1 #SUP: 2
158 -1 41 -1 32 -1 29 -1 #SUP: 2
158 -1 41 -1 41 -1 272 -1 #SUP: 2
158 -1 41 -1 64 -1 29 -1 #SUP: 2
158 -1 41 -1 64 -1 76 -1 #SUP: 2
158 -1 41 -1 65 -1 10 -1 #SUP: 2
158 -1 41 -1 65 -1 41 -1 #SUP: 2
158 -1 41 -1 76 -1 2 -1 #SUP: 2
158 -1 41 -1 76 -1 41 -1 #SUP: 2
158 -1 41 -1 158 -1 41 -1 #SUP: 2
158 -1 41 -1 248 -1 76 -1 #SUP: 2
158 -1 41 -1 895 -1 41 -1 #SUP: 2
158 -1 41 -1 895 -1 272 -1 #SUP: 4
158 -1 76 -1 2 -1 41 -1 #SUP: 3
158 -1 895 -1 41 -1 272 -1 #SUP: 2
158 -1 1809 -1 76 -1 113 -1 #SUP: 2
158 -1 3821 -1 2 -1 41 -1 #SUP: 2
158 -1 3821 -1 76 -1 2 -1 #SUP: 2
158 -1 3821 -1 76 -1 41 -1 #SUP: 2
160 -1 41 -1 76 -1 113 -1 #SUP: 2
160 -1 41 -1 504 -1 76 -1 #SUP: 2
160 -1 41 -1 504 -1 113 -1 #SUP: 2
160 -1 504 -1 76 -1 113 -1 #SUP: 2
160 -1 607 -1 76 -1 2 -1 #SUP: 2
160 -1 1017 -1 41 -1 504 -1 #SUP: 2
182 -1 3 -1 248 -1 64 -1 #SUP: 2
182 -1 3 -1 248 -1 308 -1 #SUP: 2
187 -1 32 -1 22 -1 76 -1 #SUP: 2
208 -1 653 -1 160 -1 41 -1 #SUP: 2
213 -1 76 -1 2 -1 41 -1 #SUP: 2
224 -1 41 -1 161 -1 340 -1 #SUP: 2
236 -1 48 -1 41 -1 3 -1 #SUP: 2
236 -1 48 -1 41 -1 65 -1 #SUP: 3
236 -1 48 -1 158 -1 3 -1 #SUP: 2
236 -1 48 -1 158 -1 41 -1 #SUP: 5
236 -1 48 -1 158 -1 65 -1 #SUP: 3
236 -1 158 -1 41 -1 3 -1 #SUP: 2
236 -1 158 -1 41 -1 65 -1 #SUP: 3
236 -1 312 -1 41 -1 3 -1 #SUP: 2
236 -1 312 -1 41 -1 65 -1 #SUP: 3
236 -1 312 -1 48 -1 3 -1 #SUP: 2
236 -1 312 -1 48 -1 41 -1 #SUP: 5
236 -1 312 -1 48 -1 65 -1 #SUP: 3
236 -1 312 -1 48 -1 158 -1 #SUP: 5
236 -1 312 -1 158 -1 3 -1 #SUP: 2
236 -1 312 -1 158 -1 41 -1 #SUP: 5
236 -1 312 -1 158 -1 65 -1 #SUP: 3
247 -1 32 -1 76 -1 65 -1 #SUP: 2
248 -1 64 -1 76 -1 2 -1 #SUP: 2
248 -1 76 -1 113 -1 3 -1 #SUP: 2
248 -1 160 -1 41 -1 504 -1 #SUP: 2
248 -1 160 -1 1017 -1 41 -1 #SUP: 2
248 -1 160 -1 1017 -1 504 -1 #SUP: 2
248 -1 213 -1 268 -1 76 -1 #SUP: 2
248 -1 561 -1 64 -1 3 -1 #SUP: 2
248 -1 1017 -1 41 -1 504 -1 #SUP: 2
256 -1 64 -1 308 -1 65 -1 #SUP: 2
277 -1 65 -1 276 -1 65 -1 #SUP: 2
277 -1 65 -1 276 -1 76 -1 #SUP: 2
312 -1 41 -1 3 -1 32 -1 #SUP: 2
312 -1 48 -1 3 -1 32 -1 #SUP: 2
312 -1 48 -1 41 -1 3 -1 #SUP: 2
312 -1 48 -1 41 -1 32 -1 #SUP: 2
312 -1 48 -1 41 -1 65 -1 #SUP: 3
312 -1 48 -1 158 -1 3 -1 #SUP: 2
312 -1 48 -1 158 -1 32 -1 #SUP: 2
312 -1 48 -1 158 -1 41 -1 #SUP: 5
312 -1 48 -1 158 -1 65 -1 #SUP: 3
312 -1 158 -1 3 -1 32 -1 #SUP: 2
312 -1 158 -1 41 -1 3 -1 #SUP: 2
312 -1 158 -1 41 -1 32 -1 #SUP: 2
312 -1 158 -1 41 -1 65 -1 #SUP: 3
326 -1 48 -1 41 -1 3 -1 #SUP: 2
326 -1 48 -1 41 -1 65 -1 #SUP: 3
326 -1 48 -1 158 -1 3 -1 #SUP: 2
326 -1 48 -1 158 -1 41 -1 #SUP: 5
326 -1 48 -1 158 -1 65 -1 #SUP: 3
326 -1 158 -1 41 -1 3 -1 #SUP: 2
326 -1 158 -1 41 -1 65 -1 #SUP: 3
326 -1 236 -1 41 -1 3 -1 #SUP: 2
326 -1 236 -1 41 -1 65 -1 #SUP: 3
326 -1 236 -1 48 -1 3 -1 #SUP: 2
326 -1 236 -1 48 -1 41 -1 #SUP: 5
326 -1 236 -1 48 -1 65 -1 #SUP: 3
326 -1 236 -1 48 -1 158 -1 #SUP: 5
326 -1 236 -1 158 -1 3 -1 #SUP: 2
326 -1 236 -1 158 -1 41 -1 #SUP: 5
326 -1 236 -1 158 -1 65 -1 #SUP: 3
326 -1 236 -1 312 -1 3 -1 #SUP: 2
326 -1 236 -1 312 -1 41 -1 #SUP: 5
326 -1 236 -1 312 -1 48 -1 #SUP: 5
326 -1 236 -1 312 -1 65 -1 #SUP: 3
326 -1 236 -1 312 -1 158 -1 #SUP: 5
326 -1 312 -1 41 -1 3 -1 #SUP: 2
326 -1 312 -1 41 -1 65 -1 #SUP: 3
326 -1 312 -1 48 -1 3 -1 #SUP: 2
326 -1 312 -1 48 -1 41 -1 #SUP: 5
326 -1 312 -1 48 -1 65 -1 #SUP: 3
326 -1 312 -1 48 -1 158 -1 #SUP: 5
326 -1 312 -1 158 -1 3 -1 #SUP: 2
326 -1 312 -1 158 -1 41 -1 #SUP: 5
326 -1 312 -1 158 -1 65 -1 #SUP: 3
340 -1 50 -1 64 -1 22 -1 #SUP: 2
356 -1 65 -1 879 -1 340 -1 #SUP: 2
388 -1 65 -1 76 -1 2 -1 #SUP: 2
502 -1 2 -1 113 -1 248 -1 #SUP: 2
502 -1 52 -1 2 -1 113 -1 #SUP: 2
502 -1 52 -1 2 -1 248 -1 #SUP: 2
502 -1 52 -1 76 -1 113 -1 #SUP: 2
502 -1 52 -1 113 -1 248 -1 #SUP: 2
504 -1 76 -1 113 -1 41 -1 #SUP: 2
504 -1 151 -1 113 -1 41 -1 #SUP: 2
527 -1 165 -1 64 -1 41 -1 #SUP: 2
607 -1 76 -1 2 -1 641 -1 #SUP: 2
717 -1 76 -1 2 -1 41 -1 #SUP: 2
747 -1 41 -1 31 -1 113 -1 #SUP: 2
747 -1 41 -1 64 -1 113 -1 #SUP: 2
747 -1 41 -1 151 -1 113 -1 #SUP: 2
747 -1 41 -1 364 -1 31 -1 #SUP: 2
747 -1 41 -1 364 -1 113 -1 #SUP: 2
747 -1 364 -1 31 -1 113 -1 #SUP: 2
826 -1 76 -1 2 -1 113 -1 #SUP: 2
826 -1 76 -1 113 -1 3 -1 #SUP: 2
3821 -1 76 -1 2 -1 41 -1 #SUP: 2
2 -1 113 -1 160 -1 41 -1 504 -1 #SUP: 2
2 -1 113 -1 160 -1 1017 -1 41 -1 #SUP: 2
2 -1 113 -1 160 -1 1017 -1 504 -1 #SUP: 2
2 -1 113 -1 208 -1 160 -1 41 -1 #SUP: 2
2 -1 113 -1 208 -1 653 -1 41 -1 #SUP: 2
2 -1 113 -1 208 -1 653 -1 160 -1 #SUP: 2
2 -1 113 -1 248 -1 41 -1 504 -1 #SUP: 2
2 -1 113 -1 248 -1 160 -1 41 -1 #SUP: 2
2 -1 113 -1 248 -1 160 -1 504 -1 #SUP: 2
2 -1 113 -1 248 -1 160 -1 1017 -1 #SUP: 2
2 -1 113 -1 248 -1 1017 -1 41 -1 #SUP: 2
2 -1 113 -1 248 -1 1017 -1 504 -1 #SUP: 2
2 -1 113 -1 653 -1 160 -1 41 -1 #SUP: 2
2 -1 113 -1 1017 -1 41 -1 504 -1 #SUP: 3
2 -1 160 -1 1017 -1 41 -1 504 -1 #SUP: 2
2 -1 208 -1 653 -1 160 -1 41 -1 #SUP: 2
2 -1 248 -1 160 -1 41 -1 504 -1 #SUP: 2
2 -1 248 -1 160 -1 1017 -1 41 -1 #SUP: 2
2 -1 248 -1 160 -1 1017 -1 504 -1 #SUP: 2
2 -1 248 -1 1017 -1 41 -1 504 -1 #SUP: 2
3 -1 65 -1 2 -1 113 -1 786 -1 #SUP: 2
3 -1 76 -1 2 -1 113 -1 445 -1 #SUP: 2
41 -1 48 -1 158 -1 41 -1 3 -1 #SUP: 2
41 -1 48 -1 158 -1 41 -1 65 -1 #SUP: 2
41 -1 236 -1 48 -1 41 -1 3 -1 #SUP: 2
41 -1 236 -1 48 -1 41 -1 65 -1 #SUP: 2
41 -1 236 -1 48 -1 158 -1 3 -1 #SUP: 2
41 -1 236 -1 48 -1 158 -1 41 -1 #SUP: 5
41 -1 236 -1 48 -1 158 -1 65 -1 #SUP: 2
41 -1 236 -1 158 -1 41 -1 3 -1 #SUP: 2
41 -1 236 -1 158 -1 41 -1 65 -1 #SUP: 2
41 -1 236 -1 312 -1 41 -1 3 -1 #SUP: 2
41 -1 236 -1 312 -1 41 -1 65 -1 #SUP: 2
41 -1 236 -1 312 -1 48 -1 3 -1 #SUP: 2
41 -1 236 -1 312 -1 48 -1 41 -1 #SUP: 5
41 -1 236 -1 312 -1 48 -1 65 -1 #SUP: 2
41 -1 236 -1 312 -1 48 -1 158 -1 #SUP: 5
41 -1 236 -1 312 -1 158 -1 3 -1 #SUP: 2
41 -1 236 -1 312 -1 158 -1 41 -1 #SUP: 5
41 -1 236 -1 312 -1 158 -1 65 -1 #SUP: 2
41 -1 312 -1 48 -1 41 -1 3 -1 #SUP: 2
41 -1 312 -1 48 -1 41 -1 65 -1 #SUP: 2
41 -1 312 -1 48 -1 158 -1 3 -1 #SUP: 2
41 -1 312 -1 48 -1 158 -1 41 -1 #SUP: 5
41 -1 312 -1 48 -1 158 -1 65 -1 #SUP: 2
41 -1 312 -1 158 -1 41 -1 3 -1 #SUP: 2
41 -1 312 -1 158 -1 41 -1 65 -1 #SUP: 2
41 -1 326 -1 48 -1 41 -1 3 -1 #SUP: 2
41 -1 326 -1 48 -1 41 -1 65 -1 #SUP: 2
41 -1 326 -1 48 -1 158 -1 3 -1 #SUP: 2
41 -1 326 -1 48 -1 158 -1 41 -1 #SUP: 5
41 -1 326 -1 48 -1 158 -1 65 -1 #SUP: 2
41 -1 326 -1 158 -1 41 -1 3 -1 #SUP: 2
41 -1 326 -1 158 -1 41 -1 65 -1 #SUP: 2
41 -1 326 -1 236 -1 41 -1 3 -1 #SUP: 2
41 -1 326 -1 236 -1 41 -1 65 -1 #SUP: 2
41 -1 326 -1 236 -1 48 -1 3 -1 #SUP: 2
41 -1 326 -1 236 -1 48 -1 41 -1 #SUP: 5
41 -1 326 -1 236 -1 48 -1 65 -1 #SUP: 2
41 -1 326 -1 236 -1 48 -1 158 -1 #SUP: 5
41 -1 326 -1 236 -1 158 -1 3 -1 #SUP: 2
41 -1 326 -1 236 -1 158 -1 41 -1 #SUP: 5
41 -1 326 -1 236 -1 158 -1 65 -1 #SUP: 2
41 -1 326 -1 236 -1 312 -1 3 -1 #SUP: 2
41 -1 326 -1 236 -1 312 -1 41 -1 #SUP: 5
41 -1 326 -1 236 -1 312 -1 48 -1 #SUP: 5
41 -1 326 -1 236 -1 312 -1 65 -1 #SUP: 2
41 -1 326 -1 236 -1 312 -1 158 -1 #SUP: 5
41 -1 326 -1 312 -1 41 -1 3 -1 #SUP: 2
41 -1 326 -1 312 -1 41 -1 65 -1 #SUP: 2
41 -1 326 -1 312 -1 48 -1 3 -1 #SUP: 2
41 -1 326 -1 312 -1 48 -1 41 -1 #SUP: 5
41 -1 326 -1 312 -1 48 -1 65 -1 #SUP: 2
41 -1 326 -1 312 -1 48 -1 158 -1 #SUP: 5
41 -1 326 -1 312 -1 158 -1 3 -1 #SUP: 2
41 -1 326 -1 312 -1 158 -1 41 -1 #SUP: 5
41 -1 326 -1 312 -1 158 -1 65 -1 #SUP: 2
48 -1 158 -1 41 -1 3 -1 32 -1 #SUP: 2
52 -1 76 -1 182 -1 113 -1 65 -1 #SUP: 2
64 -1 22 -1 29 -1 502 -1 52 -1 #SUP: 2
64 -1 76 -1 113 -1 3 -1 22 -1 #SUP: 2
64 -1 76 -1 158 -1 1809 -1 76 -1 #SUP: 2
65 -1 10 -1 65 -1 76 -1 2 -1 #SUP: 2
76 -1 2 -1 113 -1 41 -1 504 -1 #SUP: 2
76 -1 2 -1 113 -1 208 -1 160 -1 #SUP: 2
76 -1 2 -1 113 -1 208 -1 653 -1 #SUP: 2
76 -1 2 -1 113 -1 653 -1 160 -1 #SUP: 2
76 -1 2 -1 113 -1 1017 -1 41 -1 #SUP: 2
76 -1 2 -1 113 -1 1017 -1 504 -1 #SUP: 2
76 -1 2 -1 208 -1 653 -1 160 -1 #SUP: 2
76 -1 2 -1 1017 -1 41 -1 504 -1 #SUP: 2
76 -1 41 -1 641 -1 340 -1 65 -1 #SUP: 2
76 -1 113 -1 3 -1 22 -1 32 -1 #SUP: 2
76 -1 113 -1 208 -1 653 -1 160 -1 #SUP: 2
76 -1 113 -1 1017 -1 41 -1 504 -1 #SUP: 2
76 -1 158 -1 1809 -1 76 -1 113 -1 #SUP: 2
100 -1 22 -1 29 -1 502 -1 52 -1 #SUP: 2
100 -1 64 -1 22 -1 29 -1 52 -1 #SUP: 2
100 -1 64 -1 22 -1 29 -1 502 -1 #SUP: 2
100 -1 64 -1 22 -1 502 -1 52 -1 #SUP: 2
100 -1 64 -1 29 -1 502 -1 52 -1 #SUP: 2
113 -1 141 -1 185 -1 76 -1 113 -1 #SUP: 2
113 -1 160 -1 41 -1 504 -1 76 -1 #SUP: 2
113 -1 160 -1 1017 -1 41 -1 504 -1 #SUP: 2
113 -1 208 -1 653 -1 160 -1 41 -1 #SUP: 2
113 -1 248 -1 160 -1 41 -1 504 -1 #SUP: 2
113 -1 248 -1 160 -1 1017 -1 41 -1 #SUP: 2
113 -1 248 -1 160 -1 1017 -1 504 -1 #SUP: 2
113 -1 248 -1 1017 -1 41 -1 504 -1 #SUP: 2
158 -1 41 -1 76 -1 2 -1 41 -1 #SUP: 2
158 -1 41 -1 895 -1 41 -1 272 -1 #SUP: 2
158 -1 3821 -1 76 -1 2 -1 41 -1 #SUP: 2
160 -1 41 -1 504 -1 76 -1 113 -1 #SUP: 2
236 -1 48 -1 158 -1 41 -1 3 -1 #SUP: 2
236 -1 48 -1 158 -1 41 -1 65 -1 #SUP: 3
236 -1 312 -1 48 -1 41 -1 3 -1 #SUP: 2
236 -1 312 -1 48 -1 41 -1 65 -1 #SUP: 3
236 -1 312 -1 48 -1 158 -1 3 -1 #SUP: 2
236 -1 312 -1 48 -1 158 -1 41 -1 #SUP: 5
236 -1 312 -1 48 -1 158 -1 65 -1 #SUP: 3
236 -1 312 -1 158 -1 41 -1 3 -1 #SUP: 2
236 -1 312 -1 158 -1 41 -1 65 -1 #SUP: 3
248 -1 160 -1 1017 -1 41 -1 504 -1 #SUP: 2
312 -1 48 -1 41 -1 3 -1 32 -1 #SUP: 2
312 -1 48 -1 158 -1 3 -1 32 -1 #SUP: 2
312 -1 48 -1 158 -1 41 -1 3 -1 #SUP: 2
312 -1 48 -1 158 -1 41 -1 32 -1 #SUP: 2
312 -1 48 -1 158 -1 41 -1 65 -1 #SUP: 3
312 -1 158 -1 41 -1 3 -1 32 -1 #SUP: 2
326 -1 48 -1 158 -1 41 -1 3 -1 #SUP: 2
326 -1 48 -1 158 -1 41 -1 65 -1 #SUP: 3
326 -1 236 -1 48 -1 41 -1 3 -1 #SUP: 2
326 -1 236 -1 48 -1 41 -1 65 -1 #SUP: 3
326 -1 236 -1 48 -1 158 -1 3 -1 #SUP: 2
326 -1 236 -1 48 -1 158 -1 41 -1 #SUP: 5
326 -1 236 -1 48 -1 158 -1 65 -1 #SUP: 3
326 -1 236 -1 158 -1 41 -1 3 -1 #SUP: 2
326 -1 236 -1 158 -1 41 -1 65 -1 #SUP: 3
326 -1 236 -1 312 -1 41 -1 3 -1 #SUP: 2
326 -1 236 -1 312 -1 41 -1 65 -1 #SUP: 3
326 -1 236 -1 312 -1 48 -1 3 -1 #SUP: 2
326 -1 236 -1 312 -1 48 -1 41 -1 #SUP: 5
326 -1 236 -1 312 -1 48 -1 65 -1 #SUP: 3
326 -1 236 -1 312 -1 48 -1 158 -1 #SUP: 5
326 -1 236 -1 312 -1 158 -1 3 -1 #SUP: 2
326 -1 236 -1 312 -1 158 -1 41 -1 #SUP: 5
326 -1 236 -1 312 -1 158 -1 65 -1 #SUP: 3
326 -1 312 -1 48 -1 41 -1 3 -1 #SUP: 2
326 -1 312 -1 48 -1 41 -1 65 -1 #SUP: 3
326 -1 312 -1 48 -1 158 -1 3 -1 #SUP: 2
326 -1 312 -1 48 -1 158 -1 41 -1 #SUP: 5
326 -1 312 -1 48 -1 158 -1 65 -1 #SUP: 3
326 -1 312 -1 158 -1 41 -1 3 -1 #SUP: 2
326 -1 312 -1 158 -1 41 -1 65 -1 #SUP: 3
502 -1 52 -1 2 -1 113 -1 248 -1 #SUP: 2
747 -1 41 -1 364 -1 31 -1 113 -1 #SUP: 2
2 -1 113 -1 160 -1 1017 -1 41 -1 504 -1 #SUP: 2
2 -1 113 -1 208 -1 653 -1 160 -1 41 -1 #SUP: 2
2 -1 113 -1 248 -1 160 -1 41 -1 504 -1 #SUP: 2
2 -1 113 -1 248 -1 160 -1 1017 -1 41 -1 #SUP: 2
2 -1 113 -1 248 -1 160 -1 1017 -1 504 -1 #SUP: 2
2 -1 113 -1 248 -1 1017 -1 41 -1 504 -1 #SUP: 2
2 -1 248 -1 160 -1 1017 -1 41 -1 504 -1 #SUP: 2
41 -1 236 -1 48 -1 158 -1 41 -1 3 -1 #SUP: 2
41 -1 236 -1 48 -1 158 -1 41 -1 65 -1 #SUP: 2
41 -1 236 -1 312 -1 48 -1 41 -1 3 -1 #SUP: 2
41 -1 236 -1 312 -1 48 -1 41 -1 65 -1 #SUP: 2
41 -1 236 -1 312 -1 48 -1 158 -1 3 -1 #SUP: 2
41 -1 236 -1 312 -1 48 -1 158 -1 41 -1 #SUP: 5
41 -1 236 -1 312 -1 48 -1 158 -1 65 -1 #SUP: 2
41 -1 236 -1 312 -1 158 -1 41 -1 3 -1 #SUP: 2
41 -1 236 -1 312 -1 158 -1 41 -1 65 -1 #SUP: 2
41 -1 312 -1 48 -1 158 -1 41 -1 3 -1 #SUP: 2
41 -1 312 -1 48 -1 158 -1 41 -1 65 -1 #SUP: 2
41 -1 326 -1 48 -1 158 -1 41 -1 3 -1 #SUP: 2
41 -1 326 -1 48 -1 158 -1 41 -1 65 -1 #SUP: 2
41 -1 326 -1 236 -1 48 -1 41 -1 3 -1 #SUP: 2
41 -1 326 -1 236 -1 48 -1 41 -1 65 -1 #SUP: 2
41 -1 326 -1 236 -1 48 -1 158 -1 3 -1 #SUP: 2
41 -1 326 -1 236 -1 48 -1 158 -1 41 -1 #SUP: 5
41 -1 326 -1 236 -1 48 -1 158 -1 65 -1 #SUP: 2
41 -1 326 -1 236 -1 158 -1 41 -1 3 -1 #SUP: 2
41 -1 326 -1 236 -1 158 -1 41 -1 65 -1 #SUP: 2
41 -1 326 -1 236 -1 312 -1 41 -1 3 -1 #SUP: 2
41 -1 326 -1 236 -1 312 -1 41 -1 65 -1 #SUP: 2
41 -1 326 -1 236 -1 312 -1 48 -1 3 -1 #SUP: 2
41 -1 326 -1 236 -1 312 -1 48 -1 41 -1 #SUP: 5
41 -1 326 -1 236 -1 312 -1 48 -1 65 -1 #SUP: 2
41 -1 326 -1 236 -1 312 -1 48 -1 158 -1 #SUP: 5
41 -1 326 -1 236 -1 312 -1 158 -1 3 -1 #SUP: 2
41 -1 326 -1 236 -1 312 -1 158 -1 41 -1 #SUP: 5
41 -1 326 -1 236 -1 312 -1 158 -1 65 -1 #SUP: 2
41 -1 326 -1 312 -1 48 -1 41 -1 3 -1 #SUP: 2
41 -1 326 -1 312 -1 48 -1 41 -1 65 -1 #SUP: 2
41 -1 326 -1 312 -1 48 -1 158 -1 3 -1 #SUP: 2
41 -1 326 -1 312 -1 48 -1 158 -1 41 -1 #SUP: 5
41 -1 326 -1 312 -1 48 -1 158 -1 65 -1 #SUP: 2
41 -1 326 -1 312 -1 158 -1 41 -1 3 -1 #SUP: 2
41 -1 326 -1 312 -1 158 -1 41 -1 65 -1 #SUP: 2
76 -1 2 -1 113 -1 208 -1 653 -1 160 -1 #SUP: 2
76 -1 2 -1 113 -1 1017 -1 41 -1 504 -1 #SUP: 2
100 -1 64 -1 22 -1 29 -1 502 -1 52 -1 #SUP: 2
113 -1 248 -1 160 -1 1017 -1 41 -1 504 -1 #SUP: 2
236 -1 312 -1 48 -1 158 -1 41 -1 3 -1 #SUP: 2
236 -1 312 -1 48 -1 158 -1 41 -1 65 -1 #SUP: 3
312 -1 48 -1 158 -1 41 -1 3 -1 32 -1 #SUP: 2
326 -1 236 -1 48 -1 158 -1 41 -1 3 -1 #SUP: 2
326 -1 236 -1 48 -1 158 -1 41 -1 65 -1 #SUP: 3
326 -1 236 -1 312 -1 48 -1 41 -1 3 -1 #SUP: 2
326 -1 236 -1 312 -1 48 -1 41 -1 65 -1 #SUP: 3
326 -1 236 -1 312 -1 48 -1 158 -1 3 -1 #SUP: 2
326 -1 236 -1 312 -1 48 -1 158 -1 41 -1 #SUP: 5
326 -1 236 -1 312 -1 48 -1 158 -1 65 -1 #SUP: 3
326 -1 236 -1 312 -1 158 -1 41 -1 3 -1 #SUP: 2
326 -1 236 -1 312 -1 158 -1 41 -1 65 -1 #SUP: 3
326 -1 312 -1 48 -1 158 -1 41 -1 3 -1 #SUP: 2
326 -1 312 -1 48 -1 158 -1 41 -1 65 -1 #SUP: 3
2 -1 113 -1 248 -1 160 -1 1017 -1 41 -1 504 -1 #SUP: 2
41 -1 236 -1 312 -1 48 -1 158 -1 41 -1 3 -1 #SUP: 2
41 -1 236 -1 312 -1 48 -1 158 -1 41 -1 65 -1 #SUP: 2
41 -1 326 -1 236 -1 48 -1 158 -1 41 -1 3 -1 #SUP: 2
41 -1 326 -1 236 -1 48 -1 158 -1 41 -1 65 -1 #SUP: 2
41 -1 326 -1 236 -1 312 -1 48 -1 41 -1 3 -1 #SUP: 2
41 -1 326 -1 236 -1 312 -1 48 -1 41 -1 65 -1 #SUP: 2
41 -1 326 -1 236 -1 312 -1 48 -1 158 -1 3 -1 #SUP: 2
41 -1 326 -1 236 -1 312 -1 48 -1 158 -1 41 -1 #SUP: 5
41 -1 326 -1 236 -1 312 -1 48 -1 158 -1 65 -1 #SUP: 2
41 -1 326 -1 236 -1 312 -1 158 -1 41 -1 3 -1 #SUP: 2
41 -1 326 -1 236 -1 312 -1 158 -1 41 -1 65 -1 #SUP: 2
41 -1 326 -1 312 -1 48 -1 158 -1 41 -1 3 -1 #SUP: 2
41 -1 326 -1 312 -1 48 -1 158 -1 41 -1 65 -1 #SUP: 2
326 -1 236 -1 312 -1 48 -1 158 -1 41 -1 3 -1 #SUP: 2
326 -1 236 -1 312 -1 48 -1 158 -1 41 -1 65 -1 #SUP: 3
41 -1 326 -1 236 -1 312 -1 48 -1 158 -1 41 -1 3 -1 #SUP: 2
41 -1 326 -1 236 -1 312 -1 48 -1 158 -1 41 -1 65 -1 #SUP: 2
