2716 -1 77 -1 234 -1 77 -1 604 -1 30 -1 30 -1 55410 -1 35381 -1 3466 -1 30 -2
1520 -1 32 -1 27 -1 22 -1 201 -1 7 -1 504 -1 510 -1 864 -1 77 -1 234 -1 30 -1 30 -1 55411 -1 1467 -1 312 -1 6 -1 160 -1 165 -1 2764 -1 2272 -1 22 -1 201 -1 31 -1 41 -1 30 -2
22 -1 148 -1 2704 -1 22 -1 30 -2
2474 -1 30 -1 30 -1 15623 -1 1754 -1 3 -1 55412 -1 1858 -1 30 -2
785 -1 10 -1 244 -1 22 -1 1668 -1 1286 -1 1330 -1 10 -1 436 -1 2 -1 9906 -1 500 -1 601 -1 22 -1 3003 -1 866 -1 92 -1 41 -1 3 -1 712 -1 30 -1 30 -1 30 -1 30 -1 677 -1 64 -1 2573 -1 76 -1 3494 -1 527 -1 30 -1 30 -1 55413 -1 30 -1 30 -1 55414 -1 471 -1 41 -1 636 -1 29 -1 1106 -1 113 -1 504 -1 30 -2
814 -1 1188 -1 30 -1 30 -1 55415 -1 76 -1 236 -1 1433 -1 55416 -1 77 -1 182 -1 634 -1 187 -1 76 -1 213 -1 3 -1 148 -1 150 -1 305 -1 153 -1 30 -2
312 -1 585 -1 160 -1 65 -1 2151 -1 15714 -1 33 -1 22 -1 207 -1 212 -1 131 -1 214 -1 936 -1 151 -1 22 -1 213 -1 10 -1 305 -1 13 -1 30 -2
686 -1 1 -2
1817 -1 224 -1 14795 -1 3 -1 946 -1 22 -1 2764 -1 30 -2
50 -1 703 -1 30 -2
510 -1 131 -1 65 -1 46 -1 502 -1 30 -2
41 -1 256 -1 65 -1 364 -1 234 -1 786 -1 224 -1 41 -1 7 -1 65 -1 8008 -1 21637 -1 153 -1 2764 -1 149 -1 65 -1 148 -1 2704 -1 76 -1 987 -1 64 -1 4310 -1 345 -1 153 -1 30 -2
30 -1 30 -1 55417 -1 1287 -1 141 -1 417 -1 66 -1 7 -1 7835 -1 151 -1 753 -1 154 -1 160 -1 644 -1 229 -1 1 -2
149 -1 3 -1 182 -1 200 -1 65 -1 1899 -1 32 -1 213 -1 160 -1 14582 -1 2 -1 27749 -1 1 -2
41 -1 256 -1 64 -1 243 -1 3027 -1 30 -2
30 -1 30 -1 31 -1 635 -1 32 -1 417 -1 182 -1 3 -1 652 -1 139 -1 652 -1 463 -1 30 -1 30 -1 55418 -1 3785 -1 2 -1 10259 -1 2 -1 66 -1 151 -1 30 -2
31 -1 201 -1 340 -1 388 -1 76 -1 113 -1 475 -1 187 -1 22 -1 628 -1 74 -1 30 -2
16 -1 484 -1 364 -1 601 -1 127 -1 30 -2
1607 -1 1 -2
509 -1 234 -1 30 -1 30 -1 13838 -1 30 -1 30 -1 55419 -1 113 -1 141 -1 927 -1 185 -1 364 -1 30 -2
375 -1 7 -1 50 -1 2571 -1 55421 -1 32 -1 1313 -1 2355 -1 497 -1 31 -1 312 -1 55420 -1 8326 -1 902 -1 30 -1 30 -1 28979 -1 113 -1 194 -1 113 -1 214 -1 1501 -1 151 -1 30 -2
41 -1 2050 -1 3 -1 33 -1 64 -1 30 -1 30 -1 30 -1 30 -1 30 -1 30 -1 2177 -1 786 -1 340 -1 113 -1 836 -1 880 -1 262 -1 64 -1 22 -1 11 -1 1286 -1 2 -1 144 -1 635 -1 703 -1 33 -1 273 -1 64 -1 833 -1 154 -1 5 -1 268 -1 5 -1 268 -1 340 -1 229 -1 76 -1 4613 -1 76 -1 2 -1 55422 -1 1667 -1 30 -2
30 -1 30 -1 863 -1 185 -1 30 -2
30 -1 30 -1 30 -1 30 -1 237 -1 30 -1 273 -1 208 -1 113 -1 636 -1 1108 -1 2344 -1 1171 -1 2 -1 214 -1 3 -1 9275 -1 64 -1 50 -1 1879 -1 10111 -1 1 -2
1193 -1 702 -1 76 -1 557 -1 55423 -1 76 -1 5 -1 571 -1 22 -1 4313 -1 30 -2
480 -1 317 -1 356 -1 4313 -1 244 -1 1854 -1 271 -2
7 -1 65 -1 616 -1 4099 -1 32 -1 1467 -1 189 -1 30 -2
113 -1 340 -1 64 -1 4700 -1 115 -1 1749 -1 30 -2
30 -1 30 -1 113 -1 403 -1 182 -1 3 -1 1487 -1 11491 -1 985 -1 30 -2
223 -1 66 -1 76 -1 118 -1 7 -1 168 -1 32 -1 50 -1 690 -1 9420 -1 149 -1 10014 -1 35 -1 30 -1 30 -1 55424 -1 3 -1 686 -1 113 -1 156 -1 64 -1 3848 -1 264 -1 847 -1 30 -2
113 -1 1099 -1 278 -1 50 -1 11 -1 1520 -1 10 -1 50 -1 52 -1 30 -2
113 -1 1678 -1 194 -1 278 -1 65 -1 75 -1 10 -1 50 -1 13 -1 418 -1 1105 -1 2571 -1 419 -1 271 -2
548 -1 510 -1 388 -1 1129 -1 135 -1 417 -1 192 -1 271 -2
7239 -1 10 -1 30 -2
30 -1 30 -1 55425 -1 194 -1 32 -1 65 -1 4184 -1 903 -1 55426 -1 187 -1 225 -1 22 -1 16517 -1 4406 -1 151 -1 3 -1 40 -1 76 -1 14758 -1 64 -1 47 -1 2753 -1 76 -1 4209 -1 1483 -1 187 -1 30 -2
5749 -1 139 -1 33 -1 76 -1 41 -1 326 -1 113 -1 7 -1 527 -1 339 -1 273 -1 113 -1 221 -1 256 -1 225 -1 250 -1 3612 -1 32 -1 22 -1 1286 -1 30 -2
30 -1 30 -1 118 -1 146 -1 113 -1 30 -2
4912 -1 22 -1 997 -1 268 -1 436 -1 1104 -1 41 -1 504 -1 271 -2
342 -1 10 -1 271 -2
1076 -1 2182 -1 30 -1 30 -1 30 -1 30 -1 4260 -1 10 -1 22 -1 1104 -1 48163 -1 30 -1 30 -1 55427 -1 33 -1 7229 -1 3300 -1 16249 -1 500 -1 30 -2
30 -1 30 -1 11538 -1 1 -2
593 -1 424 -1 16 -1 50 -1 54 -1 30 -1 30 -1 2177 -1 139 -1 154 -1 160 -1 22 -1 339 -1 2 -1 9421 -1 22 -1 20963 -1 30 -1 30 -1 2177 -1 78 -1 41 -1 161 -1 326 -1 22 -1 59 -1 30 -2
113 -1 7 -1 65 -1 107 -1 10 -1 14912 -1 1614 -1 4038 -1 602 -1 3 -1 136 -1 1208 -1 2 -1 8060 -1 30 -2
30 -1 30 -1 354 -1 113 -1 1418 -1 5175 -1 1210 -1 271 -2
926 -1 3 -1 65 -1 6000 -1 14934 -1 76 -1 557 -1 232 -1 10216 -1 503 -1 484 -1 179 -1 1678 -1 141 -1 151 -1 30 -1 30 -1 8768 -1 484 -1 131 -1 636 -1 113 -1 30 -2
131 -1 758 -1 1736 -1 113 -1 497 -1 76 -1 484 -1 30 -1 30 -1 45282 -1 208 -1 506 -1 115 -1 182 -1 649 -1 131 -1 156 -1 30 -2
179 -1 113 -1 2460 -1 50 -1 44 -1 115 -1 30 -2
41 -1 118 -1 699 -1 64 -1 692 -1 33 -1 41 -1 30 -2
641 -1 64 -1 113 -1 151 -1 41 -1 3 -1 3835 -1 64 -1 525 -1 154 -1 160 -1 1520 -1 148 -1 150 -1 113 -1 161 -1 7 -1 30 -2
250 -1 511 -1 2 -1 47 -1 902 -1 641 -1 64 -1 780 -1 148 -1 244 -1 65 -1 1442 -1 22435 -1 77 -1 4550 -1 64 -1 22 -1 30 -2
113 -1 255 -1 151 -1 557 -1 30 -1 30 -1 4663 -1 463 -1 601 -1 189 -1 2776 -1 76 -1 16 -1 65 -1 31716 -1 32 -1 672 -1 77 -1 234 -1 1 -2
711 -1 182 -1 3 -1 234 -1 64 -1 200 -1 1230 -1 22 -1 348 -1 278 -1 22 -1 902 -1 1 -2
113 -1 786 -1 340 -1 182 -1 161 -1 211 -1 3 -1 234 -1 64 -1 30 -2
277 -1 625 -1 429 -1 64 -1 22 -1 274 -1 160 -1 65 -1 3300 -1 2546 -1 273 -1 278 -1 22 -1 59 -1 32 -1 41 -1 1 -2
418 -1 3 -1 66 -1 22 -1 479 -1 268 -1 941 -1 115 -1 30 -1 30 -1 13280 -1 268 -1 16 -1 340 -1 41 -1 213 -1 271 -2
5248 -1 115 -1 48 -1 76 -1 232 -1 3300 -1 115 -1 11 -1 69 -1 484 -1 871 -1 76 -1 11 -1 3 -1 484 -1 2214 -1 2 -1 30 -2
30 -1 30 -1 55429 -1 30 -1 30 -1 22698 -1 305 -1 30 -1 30 -1 55428 -1 30 -2
30 -1 30 -1 55430 -1 30 -2
30 -1 30 -1 470 -1 1 -2
113 -1 118 -1 248 -1 141 -1 3733 -1 557 -1 30 -1 30 -1 5233 -1 113 -1 141 -1 30 -2
30 -1 30 -1 28666 -1 194 -1 151 -1 161 -1 3 -1 182 -1 5773 -1 176 -1 6127 -1 76 -1 113 -1 893 -1 29 -1 386 -1 54 -1 463 -1 234 -1 35 -1 76 -1 2 -1 113 -1 893 -1 41 -1 7 -1 635 -1 339 -1 32 -1 273 -1 364 -1 113 -1 1916 -1 41 -1 76 -1 221 -1 224 -1 113 -1 371 -1 78 -1 187 -1 273 -1 64 -1 256 -1 182 -1 2683 -1 64 -1 41 -1 2222 -1 30 -2
113 -1 571 -1 41 -1 30 -2
30 -1 30 -1 113 -1 627 -1 30 -1 22284 -1 248 -1 65 -1 708 -1 30 -2
493 -1 76 -1 8809 -1 2288 -1 22 -1 3544 -1 187 -1 32 -1 113 -1 30 -2
30 -1 30 -1 55431 -1 6412 -1 908 -1 30 -1 30 -1 55432 -1 2117 -1 30 -1 30 -1 39721 -1 131 -1 144 -1 113 -1 22 -1 55433 -1 55434 -1 30 -2
1596 -1 10 -1 382 -1 1596 -1 10 -1 353 -1 113 -1 7 -1 65 -1 1603 -1 773 -1 250 -1 139 -1 244 -1 50 -1 1635 -1 6 -1 30 -2
10 -1 530 -1 12916 -1 113 -1 7 -1 2460 -1 15 -1 32 -1 50 -1 13 -1 1528 -1 76 -1 81 -1 400 -1 54 -1 76 -1 597 -1 27 -1 22 -1 207 -1 30 -2
14191 -1 115 -1 625 -1 77 -1 469 -1 1181 -1 151 -1 30 -2
30 -1 30 -1 190 -1 417 -1 463 -1 30 -1 30 -1 55436 -1 151 -1 11 -1 30 -1 30 -1 55435 -1 194 -1 41 -1 3 -1 976 -1 271 -2
469 -1 194 -1 76 -1 3783 -1 76 -1 41 -1 1371 -1 234 -1 30 -1 30 -1 8768 -1 3 -1 1104 -1 64 -1 2993 -1 160 -1 30 -2
3300 -1 691 -1 30 -2
4182 -1 3005 -1 15 -1 1009 -1 113 -1 326 -1 139 -1 1077 -1 148 -1 7816 -1 150 -1 8886 -1 30 -2
22 -1 363 -1 32 -1 213 -1 352 -1 486 -1 65 -1 220 -1 16 -1 242 -1 131 -1 7 -1 553 -1 976 -1 64 -1 504 -1 30 -1 30 -1 31673 -1 151 -1 131 -1 3 -1 30 -2
5 -1 506 -1 212 -1 10 -1 65 -1 1558 -1 511 -1 30 -1 30 -1 40294 -1 41 -1 66 -1 1153 -1 16 -1 826 -1 553 -1 33 -1 22 -1 3394 -1 271 -1 1 -2
1009 -1 519 -1 305 -1 878 -1 2140 -1 29 -1 9379 -1 3 -1 942 -1 64 -1 255 -1 30 -1 30 -1 30 -1 30 -1 493 -1 417 -1 30 -2
712 -1 271 -2
745 -1 113 -1 272 -1 3 -1 65 -1 614 -1 901 -1 10 -1 50 -1 113 -1 3106 -1 30 -2
497 -1 30 -1 30 -1 34364 -1 836 -1 211 -1 215 -1 158 -1 131 -1 17791 -1 22 -1 920 -1 32 -1 312 -1 992 -1 4885 -1 30 -2
16251 -1 25159 -1 55437 -1 55438 -1 4786 -1 5830 -1 115 -1 22 -1 4311 -1 5 -1 3300 -1 76 -1 3310 -1 11 -1 65 -1 55439 -1 32 -1 6913 -1 5186 -1 139 -1 10 -1 271 -2
139 -1 10 -1 271 -2
113 -1 3 -1 200 -1 1099 -1 160 -1 625 -1 278 -1 41 -1 30 -2
463 -1 64 -1 384 -1 30 -1 30 -1 43929 -1 463 -1 64 -1 384 -1 376 -1 30 -2
30 -1 30 -1 55441 -1 30 -1 30 -1 30 -1 30 -1 55440 -1 3 -1 1487 -1 65 -1 600 -1 163 -1 4374 -1 30 -1 30 -1 43679 -1 30 -1 30 -1 55442 -1 30 -1 30 -1 13280 -1 1487 -1 510 -1 864 -1 76 -1 1178 -1 41 -1 208 -1 256 -1 549 -1 160 -1 30 -2
5739 -1 76 -1 527 -1 30 -1 30 -1 2177 -1 208 -1 308 -1 418 -1 41 -1 2050 -1 7 -1 1726 -1 151 -1 244 -1 30 -2
527 -1 190 -1 3 -1 527 -1 21678 -1 149 -1 18 -1 30 -2
182 -1 3 -1 66 -1 65 -1 1276 -1 32 -1 786 -1 76 -1 74 -1 76 -1 91 -1 76 -1 54 -1 340 -1 151 -1 30 -2
527 -1 1053 -1 54 -1 77 -1 185 -1 4544 -1 2 -1 671 -1 244 -1 599 -1 15 -1 147 -1 64 -1 316 -1 10603 -1 1674 -1 992 -1 3 -1 211 -1 1121 -1 271 -2
493 -1 55444 -1 30 -1 30 -1 55443 -1 4786 -1 32 -1 50 -1 55445 -1 3 -1 805 -1 10 -1 772 -1 30 -2
1336 -1 30 -1 30 -1 55446 -1 30 -2
30 -1 30 -1 55447 -1 41 -1 213 -1 1678 -1 3 -1 2127 -1 30 -2
1533 -1 506 -1 115 -1 50 -1 1139 -1 2 -1 200 -1 383 -1 32 -1 356 -1 27 -1 342 -1 278 -1 64 -1 5962 -1 29 -1 394 -1 30 -2
41 -1 3 -1 1433 -1 3 -1 1520 -1 32 -1 620 -1 2 -1 30 -2
1436 -1 30 -1 30 -1 40320 -1 30 -2
30 -1 30 -1 614 -1 30 -2
30 -1 30 -1 54 -1 113 -1 194 -1 22 -1 1529 -1 1157 -1 2090 -1 317 -1 41 -1 272 -1 692 -1 33 -1 182 -1 76 -1 557 -1 182 -1 214 -1 860 -1 482 -1 316 -1 71 -1 30 -2
113 -1 161 -1 734 -1 2393 -1 137 -1 155 -1 29 -1 304 -1 30 -2
463 -1 500 -1 262 -1 65 -1 1744 -1 902 -1 160 -1 312 -1 975 -1 1664 -1 10 -1 50 -1 13 -1 76 -1 113 -1 758 -1 680 -1 10 -1 64 -1 250 -1 129 -1 902 -1 2 -1 3 -1 904 -1 224 -1 250 -1 3 -1 312 -1 1664 -1 54 -1 149 -1 123 -1 264 -1 148 -1 979 -1 64 -1 50 -1 1664 -1 30 -2
312 -1 30 -2
4954 -1 549 -1 22 -1 5 -1 3659 -1 342 -1 296 -1 190 -1 160 -1 41 -1 8957 -1 30 -2
644 -1 5 -1 1632 -1 32 -1 571 -1 141 -1 16 -1 932 -1 180 -1 64 -1 22 -1 129 -1 77 -1 22 -1 11 -1 30 -2
16 -1 151 -1 33 -1 22 -1 1148 -1 4968 -1 182 -1 3 -1 32 -1 168 -1 1853 -1 30 -2
2369 -1 262 -1 2573 -1 77 -1 469 -1 680 -1 225 -1 22 -1 11 -1 1286 -1 76 -1 650 -1 1077 -1 635 -1 786 -1 469 -1 833 -1 154 -1 10 -1 22 -1 1664 -1 1286 -1 30 -2
141 -1 189 -1 200 -1 504 -1 30 -1 30 -1 30 -1 30 -1 74 -1 703 -1 1 -2
4086 -1 471 -1 76 -1 5 -1 847 -1 76 -1 1467 -1 308 -1 27 -1 30 -2
4164 -1 55437 -1 268 -1 1186 -1 33 -1 22 -1 1802 -1 1529 -1 2049 -1 3 -1 16 -1 2279 -1 10 -1 22 -1 1820 -1 1754 -1 30 -2
22 -1 255 -1 11291 -1 3 -1 3126 -1 4789 -1 33 -1 22 -1 1450 -1 52 -1 10 -1 22 -1 1732 -1 52 -1 30 -2
115 -1 22 -1 30 -2
3300 -1 747 -1 511 -1 30 -1 30 -1 43680 -1 66 -1 32 -1 151 -1 613 -1 30 -2
2 -1 22 -1 671 -1 33 -1 22 -1 52 -1 3 -1 234 -1 1121 -1 76 -1 194 -1 424 -1 200 -1 273 -1 113 -1 141 -1 702 -1 248 -1 7 -1 743 -1 154 -1 932 -1 65 -1 658 -1 10 -1 22 -1 49 -1 2880 -1 30 -2
1105 -1 194 -1 33 -1 151 -1 151 -1 3 -1 66 -1 248 -1 163 -1 1554 -1 113 -1 371 -1 144 -1 41 -1 364 -1 64 -1 463 -1 33 -1 30 -2
113 -1 208 -1 308 -1 525 -1 388 -1 10 -1 47 -1 1070 -1 30 -2
113 -1 208 -1 936 -1 686 -1 469 -1 4271 -1 76 -1 2 -1 113 -1 27291 -1 936 -1 151 -1 182 -1 30 -2
3062 -1 214 -1 81 -1 64 -1 431 -1 250 -1 54152 -1 76 -1 113 -1 326 -1 113 -1 208 -1 3 -1 65 -1 658 -1 30 -1 30 -1 55448 -1 520 -1 10 -1 1645 -1 2431 -1 30 -2
41 -1 1226 -1 29 -1 1014 -1 1821 -1 31 -1 213 -1 76 -1 557 -1 2548 -1 7 -1 406 -1 1603 -1 3766 -1 30 -2
113 -1 7 -1 65 -1 4551 -1 442 -1 32 -1 115 -1 121 -1 1446 -1 30 -1 30 -1 30 -1 440 -1 2 -1 3491 -1 30 -1 30 -1 22284 -1 1075 -1 33 -1 66 -1 151 -1 30 -2
113 -1 141 -1 7 -1 65 -1 107 -1 10 -1 14912 -1 1614 -1 2 -1 23855 -1 1174 -1 151 -1 113 -1 4580 -1 242 -1 182 -1 510 -1 113 -1 30 -2
113 -1 895 -1 113 -1 272 -1 256 -1 50 -1 11 -1 64 -1 743 -1 154 -1 340 -1 151 -1 30 -2
1520 -1 32 -1 27 -1 41 -1 504 -1 786 -1 406 -1 1068 -1 64 -1 644 -1 74 -1 30 -1 30 -1 55449 -1 64 -1 113 -1 3 -1 22 -1 92 -1 10 -1 182 -1 30 -2
702 -1 200 -1 848 -1 636 -1 113 -1 151 -1 702 -1 927 -1 31 -1 30 -2
113 -1 786 -1 340 -1 50 -1 484 -1 598 -1 248 -1 1269 -1 115 -1 66 -1 115 -1 502 -1 76 -1 115 -1 121 -1 16 -1 10 -1 65 -1 394 -1 113 -1 161 -1 546 -1 30 -2
702 -1 161 -1 2460 -1 75 -1 160 -1 113 -1 10 -1 348 -1 76 -1 33 -1 5155 -1 76 -1 149 -1 33 -1 22 -1 2776 -1 30 -1 30 -1 17234 -1 510 -1 182 -1 65 -1 1203 -1 31 -1 113 -1 64 -1 30 -2
2022 -1 76 -1 548 -1 758 -1 646 -1 187 -1 232 -1 30 -2
113 -1 248 -1 141 -1 156 -1 64 -1 16117 -1 22 -1 3054 -1 557 -1 548 -1 3 -1 2227 -1 76 -1 47 -1 998 -1 641 -1 248 -1 2699 -1 30 -2
16 -1 64 -1 504 -1 151 -1 41 -1 66 -1 76 -1 149 -1 3062 -1 10 -1 1635 -1 3 -1 2699 -1 342 -1 312 -1 30 -2
3 -1 3241 -1 10 -1 22 -1 428 -1 32 -1 1053 -1 786 -1 30 -2
30 -1 30 -1 13280 -1 1365 -1 65 -1 92 -1 30 -2
1678 -1 256 -1 185 -1 364 -1 148 -1 979 -1 150 -1 151 -1 1367 -1 6942 -1 168 -1 1780 -1 672 -1 160 -1 504 -1 3027 -1 30 -2
3325 -1 182 -1 3 -1 312 -1 55450 -1 30 -2
113 -1 141 -1 34831 -1 435 -1 30 -1 30 -1 30 -1 30 -1 873 -1 234 -1 17 -1 30 -2
41 -1 326 -1 151 -1 77 -1 312 -1 5 -1 113 -1 711 -1 3 -1 3283 -1 419 -1 64 -1 814 -1 22 -1 614 -1 2540 -1 357 -1 29 -1 879 -1 30 -1 30 -1 4258 -1 161 -1 1323 -1 3 -1 3396 -1 137 -1 29 -1 1505 -1 92 -1 879 -1 30 -2
30 -2