75298 -1 65511 -1 30 -2
113 -1 408 -1 510 -1 22 -1 1953 -1 32 -1 277 -1 10 -1 22 -1 2278 -1 31 -1 571 -1 499 -1 65 -1 886 -1 32 -1 5135 -1 2 -1 224 -1 113 -1 7 -1 103363 -1 33 -1 4729 -1 480 -1 317 -1 493 -1 46943 -1 277 -1 151 -1 296 -1 499 -1 30 -2
518 -1 553 -1 137 -1 27271 -1 103364 -1 63305 -1 499 -1 1036 -1 342 -1 600 -1 1075 -1 22 -1 1480 -1 2058 -1 2940 -1 4698 -1 113 -1 200 -1 2222 -1 76 -1 113 -1 699 -1 65 -1 1511 -1 2606 -1 873 -1 2 -1 113 -1 2934 -1 10 -1 4547 -1 31 -1 22 -1 93949 -1 2 -1 3659 -1 113 -1 214 -1 3 -1 146 -1 33 -1 29 -1 4210 -1 30 -2
10361 -1 271 -2
250 -1 251 -1 3 -1 453 -1 847 -1 30 -2
686 -1 22 -1 518 -1 141 -1 113 -1 194 -1 182 -1 3 -1 65 -1 163 -1 339 -1 64 -1 1584 -1 10 -1 571 -1 499 -1 2160 -1 385 -1 32 -1 3 -1 1171 -1 1 -2
2 -1 566 -1 1935 -1 64 -1 9623 -1 30 -2
686 -1 141 -1 41 -1 1273 -1 7 -1 64 -1 3 -1 484 -1 600 -1 1 -2
812 -1 511 -1 598 -1 156 -1 64 -1 5433 -1 154 -1 22 -1 3337 -1 160 -1 148 -1 74 -1 703 -1 484 -1 548 -1 200 -1 1193 -1 10 -1 847 -1 30 -2
502 -1 1077 -1 375 -1 3 -1 1171 -1 31 -1 22 -1 49 -1 2160 -1 385 -1 76 -1 2319 -1 123 -1 3162 -1 30 -2
248 -1 209 -1 182 -1 22 -1 49 -1 30 -2
4293 -1 186 -1 141 -1 1 -2
1050 -1 183 -1 886 -1 113 -1 1334 -1 76 -1 41 -1 1334 -1 76 -1 417 -1 66 -1 1334 -1 1467 -1 586 -1 182 -1 65 -1 886 -1 65 -1 88 -1 208 -1 1309 -1 76 -1 103365 -1 148 -1 2299 -1 2213 -1 30 -2
8 -1 103367 -1 1552 -1 2076 -1 6014 -1 103366 -1 113 -1 326 -1 76 -1 113 -1 3 -1 200 -1 17 -1 160 -1 41 -1 30 -2
234 -1 232 -1 9058 -1 50 -1 5253 -1 30 -2
113 -1 340 -1 250 -1 76 -1 8 -1 103369 -1 588 -1 103368 -1 103372 -1 103371 -1 8 -1 103369 -1 588 -1 103368 -1 103372 -1 103370 -1 30 -2
27 -1 141 -1 12500 -1 124 -1 64 -1 41 -1 1 -2
22 -1 339 -1 151 -1 417 -1 66 -1 360 -1 22 -1 129 -1 773 -1 76 -1 454 -1 30 -2
417 -1 194 -1 4524 -1 76 -1 417 -1 786 -1 4524 -1 557 -1 22 -1 2903 -1 3 -1 22 -1 129 -1 30 -2
22 -1 687 -1 966 -1 3 -1 76 -1 214 -1 3 -1 30 -2
747 -1 41 -1 36139 -1 2 -1 103373 -1 30 -2
614 -1 12190 -1 76 -1 5869 -1 1 -2
149 -1 3 -1 182 -1 148 -1 232 -1 200 -1 65 -1 3218 -1 24886 -1 1 -2
812 -1 511 -1 76 -1 3 -1 549 -1 847 -1 10 -1 1849 -1 31 -1 1059 -1 30 -2
113 -1 308 -1 635 -1 32 -1 41 -1 511 -1 3 -1 1629 -1 2 -1 635 -1 32 -1 417 -1 3 -1 16 -1 30 -2
31 -1 22 -1 511 -1 151 -1 118 -1 1554 -1 681 -1 2233 -1 32 -1 65 -1 1525 -1 1388 -1 557 -1 1554 -1 30 -2
103374 -1 151 -1 50 -1 2558 -1 3 -1 22 -1 1534 -1 32 -1 50 -1 1148 -1 7966 -1 30 -2
342 -1 706 -1 64 -1 1284 -1 1077 -1 201 -1 213 -1 1148 -1 3009 -1 557 -1 16 -1 50 -1 2558 -1 30 -2
250 -1 711 -1 3 -1 65 -1 607 -1 557 -1 69 -1 66 -1 1409 -1 76 -1 30 -2
1101 -1 76 -1 897 -1 69 -1 16 -1 64 -1 85131 -1 30 -2
39 -1 3 -1 22 -1 20568 -1 32 -1 22 -1 3001 -1 2329 -1 484 -1 897 -1 151 -1 613 -1 30 -2
113 -1 200 -1 248 -1 156 -1 64 -1 6747 -1 14148 -1 160 -1 309 -1 4192 -1 213 -1 76 -1 424 -1 200 -1 312 -1 2360 -1 3086 -1 32 -1 213 -1 30 -2
548 -1 3 -1 10 -1 7340 -1 244 -1 22 -1 1169 -1 2880 -1 32 -1 39 -1 689 -1 22 -1 502 -1 2880 -1 32 -1 16929 -1 30 -2
342 -1 4289 -1 30 -2
27 -1 3 -1 41 -1 1559 -1 64 -1 141 -1 10 -1 13335 -1 1 -2
520 -1 976 -1 30 -2
50 -1 23433 -1 3 -1 22 -1 879 -1 32 -1 50 -1 6927 -1 268 -1 103375 -1 3360 -1 15 -1 23428 -1 614 -1 92 -1 113 -1 326 -1 30 -2
3719 -1 76 -1 113 -1 600 -1 364 -1 692 -1 964 -1 557 -1 342 -1 249 -1 64 -1 3 -1 10 -1 65 -1 2200 -1 76 -1 250 -1 2200 -1 30 -2
2022 -1 23 -1 5499 -1 10 -1 69188 -1 1 -2
27 -1 3 -1 7744 -1 1327 -1 278 -1 179 -1 2 -1 27 -1 272 -1 131 -1 3 -1 443 -1 10 -1 69188 -1 1 -2
602 -1 30 -2
141 -1 469 -1 1429 -1 41 -1 32 -1 41 -1 1 -2
1707 -1 50 -1 1240 -1 3 -1 463 -1 689 -1 4227 -1 76 -1 692 -1 3 -1 1573 -1 3 -1 312 -1 34336 -1 30 -2
1543 -1 1130 -1 1099 -1 278 -1 282 -1 1 -2
113 -1 4373 -1 2302 -1 3 -1 1369 -1 29 -1 75 -1 30 -2
113 -1 571 -1 2803 -1 2 -1 1929 -1 2799 -1 30 -2
2803 -1 208 -1 3 -1 103376 -1 1365 -1 76 -1 639 -1 2 -1 815 -1 8060 -1 76 -1 4 -1 560 -1 32 -1 17 -1 1016 -1 33 -1 1210 -1 32 -1 18893 -1 76 -1 523 -1 3261 -1 76 -1 1146 -1 10725 -1 30 -2
1105 -1 3 -1 151 -1 22 -1 309 -1 287 -1 686 -1 471 -1 3 -1 1171 -1 251 -1 1 -2
224 -1 16 -1 208 -1 41 -1 776 -1 182 -1 30 -2
2 -1 509 -1 115 -1 41 -1 3 -1 2847 -1 16 -1 677 -1 115 -1 41 -1 1040 -1 76 -1 200 -1 879 -1 41 -1 2549 -1 29 -1 436 -1 154 -1 2 -1 3028 -1 1413 -1 271 -1 30 -2
113 -1 194 -1 65 -1 46 -1 32 -1 695 -1 3 -1 612 -1 557 -1 165 -1 44 -1 469 -1 636 -1 113 -1 469 -1 3 -1 2319 -1 376 -1 76 -1 151 -1 22 -1 49 -1 75 -1 469 -1 7 -1 65 -1 2127 -1 74 -1 3 -1 10 -1 2021 -1 47 -1 502 -1 415 -1 30 -2
783 -1 1562 -1 30 -2
7326 -1 187 -1 32 -1 50 -1 11417 -1 783 -1 115 -1 692 -1 30 -2
342 -1 52736 -1 30 -2
1543 -1 798 -1 3 -1 64 -1 7340 -1 5090 -1 103377 -1 1 -2
548 -1 3 -1 190 -1 10 -1 39 -1 76 -1 16 -1 1075 -1 32 -1 27 -1 64 -1 639 -1 187 -1 30 -2
113 -1 1121 -1 22 -1 1316 -1 103378 -1 2 -1 17694 -1 151 -1 41 -1 194 -1 22 -1 394 -1 41 -1 141 -1 278 -1 48 -1 1216 -1 113 -1 308 -1 22 -1 1203 -1 236 -1 81 -1 64 -1 510 -1 2 -1 118 -1 248 -1 156 -1 64 -1 1922 -1 64 -1 22 -1 3308 -1 32 -1 18287 -1 268 -1 1471 -1 557 -1 30 -2
43455 -1 113 -1 1678 -1 221 -1 1720 -1 64 -1 6252 -1 27 -1 236 -1 463 -1 15641 -1 30 -2
113 -1 194 -1 69948 -1 3 -1 33 -1 64 -1 264 -1 76 -1 22 -1 4 -1 32 -1 2359 -1 30 -2
123 -1 81 -1 64 -1 3331 -1 1845 -1 30 -2
22 -1 72 -1 54 -1 113 -1 208 -1 141 -1 3 -1 2199 -1 41 -1 635 -1 30 -2
2022 -1 76 -1 273 -1 141 -1 113 -1 1916 -1 250 -1 52 -1 1 -2
43455 -1 3 -1 182 -1 1711 -1 76 -1 567 -1 1 -2
7 -1 41 -1 81 -1 692 -1 187 -1 1 -2
3197 -1 76 -1 65 -1 8884 -1 967 -1 76 -1 15772 -1 1 -2
63 -1 4916 -1 76 -1 224 -1 41 -1 506 -1 115 -1 36139 -1 268 -1 465 -1 113 -1 7 -1 41 -1 77 -1 65 -1 1098 -1 30 -2
506 -1 340 -1 342 -1 463 -1 64 -1 7 -1 64 -1 256 -1 22 -1 201 -1 451 -1 32 -1 22 -1 29812 -1 11563 -1 30 -2
250 -1 503 -1 64 -1 113 -1 408 -1 76 -1 10 -1 50 -1 772 -1 190 -1 2050 -1 3 -1 65 -1 1845 -1 1765 -1 4392 -1 113 -1 32 -1 50 -1 1336 -1 1336 -1 75386 -1 30 -2
103379 -1 554 -1 636 -1 469 -1 22 -1 5550 -1 4 -1 4282 -1 115 -1 886 -1 30 -2
113 -1 200 -1 156 -1 65 -1 620 -1 64 -1 52 -1 644 -1 17224 -1 31 -1 22 -1 44 -1 30 -2
168 -1 781 -1 151 -1 1089 -1 699 -1 69 -1 304 -1 251 -1 208 -1 139 -1 847 -1 30 -2
1520 -1 32 -1 22 -1 781 -1 249 -1 185 -1 364 -1 6571 -1 31 -1 113 -1 185 -1 1157 -1 2 -1 342 -1 1487 -1 30 -2
200 -1 113 -1 39 -1 113 -1 586 -1 861 -1 41 -1 2509 -1 22 -1 2529 -1 16830 -1 1 -2
11645 -1 31 -1 113 -1 3 -1 200 -1 3 -1 388 -1 76 -1 14359 -1 113 -1 326 -1 557 -1 191 -1 527 -1 699 -1 64 -1 1606 -1 250 -1 30 -2
677 -1 76 -1 1327 -1 76 -1 824 -1 76 -1 1860 -1 76 -1 1929 -1 76 -1 571 -1 76 -1 417 -1 77 -1 471 -1 76 -1 16 -1 30 -2
113 -1 118 -1 326 -1 29 -1 737 -1 959 -1 27 -1 236 -1 3835 -1 64 -1 360 -1 2 -1 463 -1 1077 -1 22 -1 1450 -1 113 -1 7 -1 76 -1 41 -1 699 -1 64 -1 256 -1 29 -1 878 -1 187 -1 32 -1 29 -1 1235 -1 30 -2
41 -1 326 -1 937 -1 296 -1 31 -1 702 -1 1 -2
702 -1 1089 -1 326 -1 30 -2
148 -1 1281 -1 33 -1 22 -1 49909 -1 10407 -1 2648 -1 30 -2
375 -1 814 -1 154 -1 64 -1 22 -1 451 -1 32 -1 1914 -1 238 -1 76 -1 50 -1 2144 -1 3 -1 463 -1 1243 -1 484 -1 113 -1 7 -1 64 -1 1533 -1 31 -1 179 -1 30 -2
342 -1 6541 -1 499 -1 67 -1 269 -1 76 -1 115 -1 250 -1 3424 -1 548 -1 482 -1 2074 -1 182 -1 30 -2
747 -1 41 -1 31 -1 360 -1 250 -1 76 -1 1473 -1 30 -2
113 -1 141 -1 9844 -1 9845 -1 650 -1 11405 -1 30 -2
113 -1 161 -1 571 -1 64 -1 256 -1 225 -1 3197 -1 76 -1 113 -1 993 -1 536 -1 182 -1 161 -1 3 -1 7175 -1 31 -1 1711 -1 496 -1 4473 -1 30 -2
182 -1 1016 -1 33 -1 602 -1 1670 -1 149 -1 334 -1 29 -1 2063 -1 149 -1 3332 -1 160 -1 30 -2
179 -1 14353 -1 22 -1 868 -1 151 -1 1753 -1 66 -1 1019 -1 160 -1 3 -1 304 -1 207 -1 1186 -1 76 -1 113 -1 208 -1 1835 -1 504 -1 236 -1 113 -1 12261 -1 22 -1 30 -2
342 -1 22 -1 363 -1 76 -1 3502 -1 76 -1 15 -1 6365 -1 76 -1 7507 -1 1165 -1 1180 -1 798 -1 694 -1 30 -2
16 -1 1075 -1 224 -1 405 -1 7 -1 3 -1 3954 -1 2222 -1 76 -1 22698 -1 22 -1 2278 -1 31 -1 571 -1 7402 -1 44106 -1 76 -1 9566 -1 30 -2
5485 -1 103380 -1 76 -1 471 -1 610 -1 30 -2
103381 -1 255 -1 10 -1 22 -1 2278 -1 31 -1 571 -1 103382 -1 8530 -1 4377 -1 33 -1 1341 -1 15623 -1 30 -2
19412 -1 8475 -1 3 -1 1171 -1 31 -1 307 -1 385 -1 179 -1 30 -2
69 -1 2211 -1 76 -1 342 -1 1487 -1 89 -1 30 -2
113 -1 711 -1 783 -1 2319 -1 557 -1 113 -1 118 -1 7 -1 168 -1 17650 -1 30 -2
250 -1 278 -1 3959 -1 182 -1 154 -1 31 -1 113 -1 76 -1 403 -1 717 -1 42 -1 41 -1 715 -1 30 -2
48 -1 1273 -1 1487 -1 463 -1 31 -1 16 -1 268 -1 76 -1 296 -1 1 -2
165 -1 46 -1 2319 -1 312 -1 16 -1 76 -1 22 -1 201 -1 604 -1 113 -1 326 -1 3 -1 1171 -1 76 -1 113 -1 194 -1 30 -2
342 -1 1487 -1 2262 -1 64 -1 479 -1 268 -1 2 -1 7 -1 3 -1 10 -1 65 -1 74 -1 160 -1 27 -1 113 -1 445 -1 64 -1 30 -2
41 -1 326 -1 76 -1 113 -1 491 -1 814 -1 22 -1 566 -1 52 -1 10 -1 250 -1 1286 -1 2 -1 182 -1 641 -1 1520 -1 32 -1 22 -1 52 -1 3 -1 566 -1 30 -2
3 -1 113 -1 1916 -1 187 -1 1 -2
48 -1 1273 -1 3 -1 976 -1 30 -2
113 -1 7 -1 165 -1 113 -1 1554 -1 65 -1 1666 -1 76 -1 1050 -1 165 -1 113 -1 161 -1 340 -1 64 -1 326 -1 42563 -1 30 -2
182 -1 3 -1 65 -1 772 -1 137 -1 772 -1 2608 -1 30 -2
3466 -1 195 -1 571 -1 64 -1 694 -1 65 -1 2599 -1 1273 -1 76 -1 113 -1 7 -1 65 -1 3134 -1 31 -1 30 -2
41190 -1 7 -1 527 -1 607 -1 3 -1 15499 -1 76 -1 200 -1 1728 -1 113 -1 30 -2
113 -1 178 -1 154 -1 10 -1 65 -1 9271 -1 395 -1 2 -1 7 -1 64 -1 12606 -1 30 -2
15 -1 32 -1 22 -1 213 -1 113 -1 326 -1 3 -1 3739 -1 2 -1 1541 -1 30 -2
113 -1 7 -1 64 -1 8113 -1 64 -1 50 -1 2281 -1 76 -1 659 -1 30 -2
872 -1 316 -1 65 -1 7750 -1 8918 -1 420 -1 65 -1 616 -1 339 -1 30 -2
165 -1 148 -1 31 -1 6308 -1 30 -2
548 -1 17 -1 76 -1 8 -1 13748 -1 103383 -1 692 -1 76 -1 363 -1 32 -1 30 -2
1753 -1 32 -1 22 -1 129 -1 153 -1 557 -1 1753 -1 16 -1 22 -1 129 -1 348 -1 1707 -1 113 -1 141 -1 7 -1 65 -1 2525 -1 11176 -1 2022 -1 30 -2
234 -1 31 -1 113 -1 182 -1 7 -1 64 -1 141 -1 160 -1 596 -1 4074 -1 2 -1 250 -1 3 -1 148 -1 31 -1 2563 -1 150 -1 213 -1 113 -1 326 -1 2 -1 571 -1 30 -2
2 -1 64 -1 1922 -1 64 -1 151 -1 76 -1 2098 -1 2095 -1 3 -1 103384 -2