113 -1 1678 -1 501 -1 76 -1 2 -1 22 -1 4951 -1 10 -1 113 -1 7 -1 65 -1 472 -1 173 -1 5208 -1 7990 -1 64 -1 666 -1 30 -2
382 -1 13047 -1 3 -1 2546 -1 76 -1 4948 -1 3 -1 2348 -1 30 -2
462 -1 213 -1 504 -1 151 -1 131 -1 156 -1 613 -1 76 -1 2 -1 65 -1 247 -1 32 -1 131 -1 156 -1 182 -1 76 -1 557 -1 131 -1 3 -1 6902 -1 64 -1 1182 -1 305 -1 360 -1 32 -1 596 -1 2442 -1 30 -2
149 -1 123 -1 131 -1 141 -1 16 -1 2295 -1 22 -1 1029 -1 32 -1 22 -1 607 -1 76 -1 30 -2
22 -1 924 -1 584 -1 76 -1 137 -1 66337 -1 67073 -1 67074 -1 375 -1 814 -1 182 -1 42 -1 76 -1 557 -1 113 -1 340 -1 1490 -1 225 -1 182 -1 75 -1 2 -1 75 -1 376 -1 113 -1 308 -1 151 -1 236 -1 244 -1 21715 -1 271 -2
113 -1 178 -1 154 -1 10 -1 25981 -1 76 -1 14662 -1 2 -1 7 -1 211 -1 156 -1 64 -1 809 -1 29 -1 806 -1 2234 -1 30 -2
1075 -1 76 -1 195 -1 3 -1 1175 -1 64 -1 636 -1 41 -1 148 -1 278 -1 27 -1 50 -1 46 -1 2 -1 113 -1 3 -1 30 -2
113 -1 7 -1 152 -1 312 -1 6149 -1 5600 -1 1164 -1 76 -1 165 -1 31 -1 596 -1 155 -1 76 -1 2 -1 65 -1 6160 -1 165 -1 31 -1 50 -1 843 -1 65 -1 9503 -1 2 -1 3725 -1 30 -2
66 -1 32 -1 131 -1 3 -1 776 -1 64 -1 50 -1 596 -1 65 -1 197 -1 76 -1 484 -1 113 -1 7 -1 66 -1 32 -1 50 -1 5105 -1 10 -1 165 -1 620 -1 76 -1 30 -2
2922 -1 567 -1 281 -1 27798 -1 237 -1 182 -1 2050 -1 356 -1 65 -1 1100 -1 32 -1 2283 -1 64 -1 403 -1 65 -1 5245 -1 160 -1 3845 -1 41 -1 7 -1 419 -1 6240 -1 2397 -1 76 -1 2 -1 352 -1 936 -1 29 -1 737 -1 234 -1 419 -1 64 -1 3 -1 30 -2
342 -1 65 -1 2785 -1 4902 -1 115 -1 1300 -1 30 -2
635 -1 2821 -1 244 -1 22 -1 49 -1 152 -1 385 -1 41 -1 214 -1 860 -1 694 -1 65 -1 561 -1 23549 -1 32 -1 213 -1 76 -1 557 -1 182 -1 214 -1 356 -1 1120 -1 148 -1 692 -1 64 -1 2087 -1 143 -1 76 -1 120 -1 76 -1 30 -2
4552 -1 76 -1 6070 -1 76 -1 67075 -1 76 -1 3320 -1 30 -2
231 -1 1043 -1 2202 -1 2 -1 5686 -1 113 -1 76 -1 221 -1 497 -1 113 -1 1121 -1 714 -1 1322 -1 77 -1 22 -1 7532 -1 32 -1 8610 -1 2 -1 4369 -1 74 -1 30 -2
375 -1 30 -2
250 -1 251 -1 510 -1 113 -1 11359 -1 30 -2
113 -1 768 -1 699 -1 64 -1 2578 -1 67 -1 44 -1 76 -1 1817 -1 115 -1 886 -1 30 -2
1341 -1 3 -1 22 -1 72 -1 54 -1 151 -1 3146 -1 113 -1 345 -1 76 -1 2 -1 77 -1 312 -1 16660 -1 76 -1 182 -1 3 -1 25884 -1 64 -1 50 -1 894 -1 30 -2
113 -1 571 -1 2578 -1 30 -2
22 -1 251 -1 268 -1 7391 -1 64 -1 113 -1 30 -2
113 -1 403 -1 182 -1 5029 -1 22 -1 1286 -1 30 -2
123 -1 41 -1 19416 -1 64 -1 182 -1 137 -1 1953 -1 1 -2
2546 -1 76 -1 151 -1 872 -1 510 -1 864 -1 30 -2
31 -1 22 -1 129 -1 287 -1 76 -1 257 -1 374 -1 3 -1 65 -1 2319 -1 13168 -1 31 -1 113 -1 30 -2
190 -1 3 -1 88 -1 352 -1 156 -1 113 -1 76 -1 557 -1 113 -1 598 -1 156 -1 131 -1 76 -1 2 -1 151 -1 3902 -1 65 -1 380 -1 91 -1 30 -2
54 -1 30 -2
113 -1 118 -1 326 -1 364 -1 278 -1 22 -1 21821 -1 17870 -1 1540 -1 76 -1 484 -1 472 -1 189 -1 208 -1 1203 -1 113 -1 64 -1 7523 -1 776 -1 113 -1 356 -1 22 -1 23660 -1 1287 -1 443 -1 76 -1 2 -1 190 -1 641 -1 64 -1 3 -1 386 -1 16956 -1 691 -1 50 -1 1139 -1 153 -1 2 -1 30 -2
1795 -1 33 -1 5722 -1 22786 -1 76 -1 137 -1 22 -1 13819 -1 3031 -1 10809 -1 30 -2
67076 -1 113 -1 3 -1 2160 -1 76 -1 2 -1 182 -1 3 -1 50 -1 2662 -1 64 -1 372 -1 30 -2
571 -1 76 -1 571 -1 76 -1 571 -1 22 -1 562 -1 11746 -1 76 -1 1472 -1 113 -1 371 -1 62 -1 182 -1 10 -1 65 -1 566 -1 75 -1 30 -2
113 -1 1184 -1 443 -1 77 -1 827 -1 462 -1 77 -1 11 -1 76 -1 2 -1 312 -1 9462 -1 348 -1 32 -1 22 -1 21821 -1 17870 -1 1540 -1 3302 -1 113 -1 77 -1 312 -1 1009 -1 11129 -1 30 -2
1487 -1 342 -1 154 -1 691 -1 67077 -1 67078 -1 76 -1 2 -1 10 -1 353 -1 691 -1 30 -2
250 -1 3 -1 248 -1 438 -1 30 -2
747 -1 41 -1 31 -1 360 -1 4758 -1 76 -1 113 -1 1225 -1 169 -1 30 -2
1068 -1 6 -1 30 -2
1203 -1 171 -1 30 -2
50 -1 2695 -1 2 -1 113 -1 141 -1 250 -1 30 -2
22 -1 886 -1 417 -1 916 -1 64 -1 2319 -1 10612 -1 76 -1 417 -1 7 -1 312 -1 11539 -1 3308 -1 278 -1 644 -1 30660 -1 30 -2
469 -1 6837 -1 113 -1 64 -1 1363 -1 826 -1 644 -1 74 -1 11579 -1 30 -2
771 -1 76 -1 65 -1 507 -1 30 -2
375 -1 1040 -1 62 -1 148 -1 213 -1 504 -1 151 -1 393 -1 312 -1 11 -1 30 -2
32 -1 765 -1 76 -1 66 -1 32 -1 250 -1 3 -1 9896 -1 30 -2
1307 -1 113 -1 406 -1 1209 -1 699 -1 1711 -1 4074 -1 30 -2
113 -1 3 -1 10 -1 65 -1 566 -1 1366 -1 74 -1 160 -1 65 -1 757 -1 827 -1 481 -1 76 -1 2 -1 417 -1 403 -1 182 -1 942 -1 64 -1 360 -1 65 -1 353 -1 16 -1 64 -1 447 -1 22 -1 868 -1 151 -1 417 -1 530 -1 699 -1 64 -1 200 -1 3848 -1 1077 -1 30 -2
273 -1 3 -1 151 -1 1277 -1 1 -2
141 -1 41 -1 7 -1 406 -1 257 -1 149 -1 10170 -1 1925 -1 1 -2
200 -1 2756 -1 30 -2
113 -1 1678 -1 894 -1 33 -1 149 -1 160 -1 5264 -1 30 -2
131 -1 1131 -1 113 -1 30 -2
1060 -1 76 -1 342 -1 1178 -1 151 -1 236 -1 81 -1 64 -1 1244 -1 120 -1 923 -1 31 -1 717 -1 77 -1 4550 -1 64 -1 2154 -1 154 -1 1181 -1 76 -1 10177 -1 6955 -1 149 -1 743 -1 154 -1 31987 -1 32 -1 49244 -1 923 -1 30 -2
250 -1 3 -1 65 -1 561 -1 17691 -1 76 -1 557 -1 3 -1 30 -2
7774 -1 64 -1 250 -1 30 -2
67079 -1 22 -1 1015 -1 2472 -1 151 -1 41 -1 3 -1 617 -1 3 -1 1141 -1 64 -1 417 -1 66 -1 76 -1 1817 -1 2509 -1 644 -1 6651 -1 76 -1 2 -1 208 -1 221 -1 3 -1 65 -1 120 -1 3301 -1 30 -2
41 -1 3 -1 81 -1 64 -1 403 -1 29 -1 30 -2
250 -1 3 -1 600 -1 909 -1 271 -2
113 -1 895 -1 182 -1 10071 -1 554 -1 356 -1 113 -1 484 -1 566 -1 64 -1 2295 -1 151 -1 806 -1 3379 -1 3 -1 16 -1 484 -1 364 -1 312 -1 967 -1 10 -1 2090 -1 77 -1 182 -1 3 -1 65 -1 2816 -1 32 -1 806 -1 1315 -1 30 -2
250 -1 3 -1 1053 -1 312 -1 1459 -1 2821 -1 151 -1 113 -1 38501 -1 554 -1 1353 -1 30 -2
113 -1 340 -1 64 -1 8860 -1 691 -1 9469 -1 2 -1 4360 -1 31 -1 4353 -1 76 -1 16417 -1 1863 -1 30 -2
405 -1 3 -1 200 -1 50 -1 596 -1 692 -1 1632 -1 9469 -1 3 -1 8794 -1 124 -1 64 -1 3 -1 130 -1 861 -1 76 -1 2 -1 7 -1 1036 -1 593 -1 1101 -1 76 -1 17600 -1 2 -1 4933 -1 1453 -1 662 -1 8336 -1 510 -1 22 -1 163 -1 67081 -1 2 -1 16578 -1 312 -1 67080 -1 1765 -1 636 -1 113 -1 151 -1 675 -1 1184 -1 234 -1 150 -1 24714 -1 2 -1 30 -2
182 -1 1016 -1 33 -1 29 -1 1632 -1 32 -1 20204 -1 2 -1 8084 -1 30 -2
113 -1 194 -1 27 -1 236 -1 1099 -1 6240 -1 20204 -1 76 -1 3320 -1 30 -2
3 -1 27 -1 113 -1 161 -1 1631 -1 77 -1 10268 -1 30 -2
342 -1 65 -1 386 -1 1961 -1 32 -1 151 -1 76 -1 200 -1 77 -1 113 -1 627 -1 165 -1 993 -1 1623 -1 173 -1 6064 -1 2517 -1 41 -1 687 -1 154 -1 160 -1 65 -1 165 -1 394 -1 10272 -1 64 -1 67082 -1 76 -1 602 -1 1089 -1 211 -1 692 -1 187 -1 484 -1 234 -1 596 -1 6 -1 483 -1 30 -1 113 -1 895 -1 50 -1 46 -1 7 -1 29 -1 6064 -1 6069 -1 2297 -1 271 -2
675 -1 17527 -1 10 -1 22 -1 16797 -1 76 -1 6063 -1 3288 -1 352 -1 3 -1 412 -1 22215 -1 64 -1 170 -1 278 -1 16 -1 510 -1 182 -1 64 -1 65 -1 163 -1 8087 -1 374 -1 30 -2
1012 -1 32 -1 131 -1 156 -1 30 -2
113 -1 598 -1 2295 -1 151 -1 41 -1 3 -1 65 -1 5835 -1 2807 -1 1 -2
3126 -1 33 -1 1450 -1 244 -1 29 -1 2561 -1 30 -2
266 -1 32 -1 50 -1 5600 -1 46 -1 3 -1 827 -1 5835 -1 2807 -1 185 -1 30 -2
200 -1 312 -1 7193 -1 30 -2
424 -1 65 -1 561 -1 2550 -1 271 -2
113 -1 194 -1 151 -1 364 -1 32 -1 333 -1 3 -1 6864 -1 64 -1 3363 -1 2 -1 2581 -1 77 -1 65 -1 394 -1 32 -1 237 -1 1397 -1 65 -1 2732 -1 257 -1 3643 -1 1526 -1 135 -1 238 -1 680 -1 549 -1 244 -1 1221 -1 30 -2
113 -1 1640 -1 182 -1 66 -1 6345 -1 345 -1 64 -1 27 -1 2297 -1 41 -1 356 -1 64 -1 29 -1 175 -1 1213 -1 190 -1 3 -1 10180 -1 527 -1 296 -1 149 -1 1433 -1 2297 -1 30 -2
113 -1 1225 -1 271 -2
256 -1 65 -1 2000 -1 1021 -1 76 -1 2639 -1 4196 -1 1213 -1 2050 -1 16 -1 2877 -1 3 -1 4538 -1 557 -1 182 -1 208 -1 1773 -1 41 -1 75 -1 64 -1 194 -1 76 -1 35382 -1 76 -1 3320 -1 30 -2
1153 -1 76 -1 41 -1 1678 -1 3 -1 194 -1 66 -1 44 -1 30 -2
1313 -1 699 -1 37767 -1 185 -1 30 -1 30 -1 405 -1 3 -1 599 -1 614 -1 11133 -1 151 -1 208 -1 16 -1 3 -1 8232 -1 8317 -1 149 -1 14245 -1 30 -2
64 -1 141 -1 484 -1 161 -1 9532 -1 22 -1 1863 -1 76 -1 161 -1 743 -1 65 -1 288 -1 15658 -1 268 -1 67083 -1 32 -1 9072 -1 2 -1 45085 -1 30 -2
234 -1 64 -1 728 -1 234 -1 76 -1 30 -2
593 -1 76 -1 113 -1 141 -1 1225 -1 160 -1 41 -1 30 -2
250 -1 161 -1 3 -1 165 -1 395 -1 151 -1 510 -1 113 -1 14757 -1 32 -1 3 -1 65 -1 1273 -1 113 -1 272 -1 3 -1 3382 -1 3757 -1 76 -1 2 -1 2222 -1 1082 -1 161 -1 7 -1 64 -1 326 -1 30 -2
2132 -1 20255 -1 2 -1 8140 -1 30 -2
50 -1 9394 -1 463 -1 64 -1 1722 -1 923 -1 30 -2
4564 -1 3 -1 65 -1 1273 -1 2 -1 404 -1 22 -1 42936 -1 9703 -1 76 -1 113 -1 272 -1 1521 -1 64 -1 250 -1 30 -2
4282 -1 190 -1 3 -1 751 -1 287 -1 686 -1 250 -1 272 -1 3 -1 871 -1 30 -2
165 -1 272 -1 3 -1 440 -1 76 -1 557 -1 342 -1 16 -1 65 -1 5616 -1 1801 -1 10 -1 151 -1 30 -2
1050 -1 272 -1 3 -1 151 -1 29 -1 1667 -1 2023 -1 611 -1 148 -1 1405 -1 30 -2
113 -1 1487 -1 443 -1 77 -1 827 -1 481 -1 76 -1 2 -1 491 -1 77 -1 16902 -1 30 -2
50 -1 2736 -1 2896 -1 161 -1 1097 -1 16 -1 3 -1 827 -1 481 -1 1053 -1 74 -1 7 -1 44934 -1 149 -1 715 -1 16860 -1 10 -1 22 -1 1692 -1 494 -1 64 -1 185 -1 364 -1 6686 -1 30 -2
686 -1 161 -1 1105 -1 41 -1 1473 -1 154 -1 635 -1 976 -1 1287 -1 151 -1 113 -1 371 -1 194 -1 278 -1 42 -1 30 -2
113 -1 118 -1 1040 -1 326 -1 168 -1 643 -1 76 -1 2 -1 1097 -1 118 -1 7 -1 22 -1 1157 -1 76 -1 484 -1 342 -1 2756 -1 30 -2
27 -1 141 -1 41 -1 124 -1 151 -1 29 -1 30 -2
137 -1 250 -1 76 -1 342 -1 1178 -1 151 -1 41 -1 3 -1 2952 -1 312 -1 5453 -1 5459 -1 76 -1 2997 -1 190 -1 3 -1 1780 -1 1122 -1 2 -1 24562 -1 64 -1 22 -1 2049 -1 151 -1 41 -1 3 -1 16 -1 706 -1 64 -1 360 -1 160 -1 417 -1 30 -2
6929 -1 190 -1 3 -1 65 -1 1412 -1 76 -1 30 -2
7 -1 41 -1 81 -1 64 -1 308 -1 224 -1 29 -1 5600 -1 3310 -1 4335 -1 4567 -1 2 -1 1904 -1 76 -1 6269 -1 3281 -1 1 -2
342 -1 16 -1 1676 -1 160 -1 2854 -1 76 -1 557 -1 266 -1 5453 -1 13970 -1 853 -1 50 -1 5600 -1 3310 -1 405 -1 30 -2
176 -1 827 -1 481 -1 76 -1 417 -1 3 -1 2816 -1 30 -2
8914 -1 30 -2
22 -1 129 -1 348 -1 30 -2
484 -1 686 -1 3 -1 182 -1 151 -1 417 -1 324 -1 187 -1 2 -1 40694 -1 72 -1 142 -1 201 -1 616 -1 637 -1 1 -2
686 -1 3 -1 417 -1 527 -1 566 -1 1099 -1 1 -2
182 -1 7 -1 3 -1 544 -1 1242 -1 1498 -1 1105 -1 2922 -1 2054 -1 10 -1 165 -1 268 -1 878 -1 76 -1 113 -1 403 -1 250 -1 9516 -1 1099 -1 137 -1 8551 -1 67084 -1 932 -1 3039 -1 30 -2
1554 -1 22 -1 175 -1 1649 -1 966 -1 76 -1 113 -1 161 -1 15122 -1 151 -1 2652 -1 3 -1 22 -1 28189 -1 153 -1 33 -1 229 -1 5808 -1 76 -1 149 -1 131 -1 31 -1 287 -1 113 -1 214 -1 16 -1 10280 -1 861 -1 3 -1 22 -1 15 -1 6517 -1 64 -1 1651 -1 33 -1 250 -1 30 -2
342 -1 814 -1 28167 -1 822 -1 137 -1 2289 -1 67085 -1 30 -2
2488 -1 65 -1 3958 -1 244 -1 22 -1 1914 -1 342 -1 814 -1 113 -1 403 -1 66 -1 32 -1 250 -1 406 -1 976 -1 242 -1 56028 -1 7 -1 1952 -1 417 -1 64 -1 445 -1 151 -1 67086 -1 30 -2
36984 -1 3412 -1 76 -1 2635 -1 137 -1 34039 -1 30 -2
113 -1 711 -1 504 -1 151 -1 182 -1 3 -1 65 -1 13 -1 4 -1 276 -1 2651 -1 976 -1 76 -1 557 -1 113 -1 194 -1 15 -1 32 -1 417 -1 7 -1 65 -1 163 -1 1317 -1 32 -1 22 -1 862 -1 2892 -1 2 -1 11961 -1 151 -1 22 -1 30 -2
747 -1 41 -1 1060 -1 31 -1 250 -1 5951 -1 52 -1 30 -2
208 -1 1543 -1 734 -1 163 -1 584 -1 151 -1 1177 -1 148 -1 6230 -1 1450 -1 31 -1 153 -1 3641 -1 76 -1 3937 -2
160 -1 772 -1 972 -1 32 -1 737 -1 76 -1 2430 -1 76 -1 3320 -1 1 -2
113 -1 1615 -1 64 -1 3 -1 30 -2
13221 -1 76 -1 342 -1 312 -1 827 -1 2 -1 936 -1 27 -1 41 -1 617 -1 30 -2
113 -1 699 -1 13114 -1 21555 -1 76 -1 1042 -1 75 -1 76 -1 2 -1 22 -1 2091 -1 64 -1 358 -1 115 -1 50 -1 304 -1 5354 -1 10 -1 889 -1 64 -1 20832 -1 553 -1 30 -2
113 -1 7 -1 4431 -1 5625 -1 30 -2