2 -1 #SUP: 23
3 -1 #SUP: 54
7 -1 #SUP: 19
10 -1 #SUP: 21
13 -1 #SUP: 2
16 -1 #SUP: 3
22 -1 #SUP: 39
27 -1 #SUP: 8
29 -1 #SUP: 7
30 -1 #SUP: 6
31 -1 #SUP: 6
32 -1 #SUP: 23
33 -1 #SUP: 8
41 -1 #SUP: 23
47 -1 #SUP: 2
50 -1 #SUP: 15
52 -1 #SUP: 3
54 -1 #SUP: 8
62 -1 #SUP: 3
64 -1 #SUP: 47
65 -1 #SUP: 11
66 -1 #SUP: 3
68 -1 #SUP: 2
69 -1 #SUP: 3
72 -1 #SUP: 5
76 -1 #SUP: 70
77 -1 #SUP: 8
99 -1 #SUP: 3
113 -1 #SUP: 79
115 -1 #SUP: 4
118 -1 #SUP: 8
124 -1 #SUP: 3
131 -1 #SUP: 5
135 -1 #SUP: 2
137 -1 #SUP: 2
141 -1 #SUP: 14
148 -1 #SUP: 2
149 -1 #SUP: 10
151 -1 #SUP: 22
153 -1 #SUP: 3
155 -1 #SUP: 5
156 -1 #SUP: 4
158 -1 #SUP: 2
160 -1 #SUP: 11
161 -1 #SUP: 3
163 -1 #SUP: 9
165 -1 #SUP: 3
168 -1 #SUP: 6
179 -1 #SUP: 2
182 -1 #SUP: 22
185 -1 #SUP: 2
190 -1 #SUP: 4
194 -1 #SUP: 16
200 -1 #SUP: 6
201 -1 #SUP: 4
208 -1 #SUP: 4
211 -1 #SUP: 3
212 -1 #SUP: 2
213 -1 #SUP: 8
214 -1 #SUP: 3
216 -1 #SUP: 6
221 -1 #SUP: 2
224 -1 #SUP: 4
225 -1 #SUP: 2
232 -1 #SUP: 3
234 -1 #SUP: 4
237 -1 #SUP: 5
238 -1 #SUP: 4
242 -1 #SUP: 5
244 -1 #SUP: 5
248 -1 #SUP: 3
250 -1 #SUP: 18
251 -1 #SUP: 4
256 -1 #SUP: 8
264 -1 #SUP: 4
268 -1 #SUP: 12
272 -1 #SUP: 2
273 -1 #SUP: 4
278 -1 #SUP: 17
279 -1 #SUP: 2
282 -1 #SUP: 3
296 -1 #SUP: 2
305 -1 #SUP: 2
307 -1 #SUP: 2
308 -1 #SUP: 4
312 -1 #SUP: 4
326 -1 #SUP: 5
340 -1 #SUP: 13
342 -1 #SUP: 21
356 -1 #SUP: 2
363 -1 #SUP: 2
371 -1 #SUP: 3
375 -1 #SUP: 10
385 -1 #SUP: 2
388 -1 #SUP: 4
394 -1 #SUP: 8
403 -1 #SUP: 2
405 -1 #SUP: 4
420 -1 #SUP: 2
424 -1 #SUP: 3
431 -1 #SUP: 4
438 -1 #SUP: 2
439 -1 #SUP: 3
441 -1 #SUP: 2
442 -1 #SUP: 2
443 -1 #SUP: 5
445 -1 #SUP: 2
450 -1 #SUP: 2
453 -1 #SUP: 3
482 -1 #SUP: 3
483 -1 #SUP: 3
484 -1 #SUP: 9
497 -1 #SUP: 3
502 -1 #SUP: 2
504 -1 #SUP: 3
506 -1 #SUP: 4
510 -1 #SUP: 5
511 -1 #SUP: 5
525 -1 #SUP: 3
527 -1 #SUP: 2
548 -1 #SUP: 2
549 -1 #SUP: 2
553 -1 #SUP: 2
557 -1 #SUP: 11
599 -1 #SUP: 2
602 -1 #SUP: 4
613 -1 #SUP: 3
635 -1 #SUP: 5
636 -1 #SUP: 3
732 -1 #SUP: 3
747 -1 #SUP: 2
758 -1 #SUP: 2
763 -1 #SUP: 7
786 -1 #SUP: 4
814 -1 #SUP: 3
817 -1 #SUP: 2
826 -1 #SUP: 2
847 -1 #SUP: 3
864 -1 #SUP: 2
872 -1 #SUP: 3
878 -1 #SUP: 2
893 -1 #SUP: 2
895 -1 #SUP: 2
903 -1 #SUP: 2
904 -1 #SUP: 3
936 -1 #SUP: 2
966 -1 #SUP: 2
972 -1 #SUP: 3
1029 -1 #SUP: 2
1075 -1 #SUP: 3
1111 -1 #SUP: 4
1119 -1 #SUP: 2
1139 -1 #SUP: 2
1143 -1 #SUP: 2
1225 -1 #SUP: 2
1277 -1 #SUP: 2
1312 -1 #SUP: 2
1323 -1 #SUP: 2
1367 -1 #SUP: 3
1433 -1 #SUP: 3
1498 -1 #SUP: 5
1543 -1 #SUP: 3
1592 -1 #SUP: 2
1600 -1 #SUP: 2
1632 -1 #SUP: 2
1635 -1 #SUP: 2
1640 -1 #SUP: 2
1661 -1 #SUP: 2
1678 -1 #SUP: 2
1730 -1 #SUP: 2
1856 -1 #SUP: 2
1879 -1 #SUP: 3
1914 -1 #SUP: 2
2050 -1 #SUP: 4
2081 -1 #SUP: 2
2222 -1 #SUP: 5
2232 -1 #SUP: 3
2310 -1 #SUP: 3
2422 -1 #SUP: 2
2682 -1 #SUP: 3
2689 -1 #SUP: 5
2902 -1 #SUP: 2
2922 -1 #SUP: 2
3126 -1 #SUP: 3
3496 -1 #SUP: 2
3626 -1 #SUP: 2
3750 -1 #SUP: 2
4047 -1 #SUP: 2
4282 -1 #SUP: 2
4777 -1 #SUP: 2
5520 -1 #SUP: 2
5646 -1 #SUP: 2
5691 -1 #SUP: 2
10187 -1 #SUP: 3
10491 -1 #SUP: 2
12433 -1 #SUP: 2
14225 -1 #SUP: 5
16239 -1 #SUP: 2
16472 -1 #SUP: 3
85148 -1 #SUP: 2
85149 -1 #SUP: 2
2 -1 3 -1 #SUP: 9
2 -1 10 -1 #SUP: 2
2 -1 22 -1 #SUP: 6
2 -1 32 -1 #SUP: 3
2 -1 50 -1 #SUP: 2
2 -1 64 -1 #SUP: 4
2 -1 69 -1 #SUP: 3
2 -1 76 -1 #SUP: 2
2 -1 113 -1 #SUP: 9
2 -1 118 -1 #SUP: 2
2 -1 151 -1 #SUP: 5
2 -1 160 -1 #SUP: 2
2 -1 182 -1 #SUP: 2
2 -1 194 -1 #SUP: 3
2 -1 224 -1 #SUP: 2
2 -1 248 -1 #SUP: 2
2 -1 250 -1 #SUP: 3
2 -1 268 -1 #SUP: 3
2 -1 272 -1 #SUP: 2
2 -1 340 -1 #SUP: 3
2 -1 342 -1 #SUP: 3
2 -1 394 -1 #SUP: 3
2 -1 1367 -1 #SUP: 2
2 -1 1661 -1 #SUP: 2
3 -1 2 -1 #SUP: 7
3 -1 3 -1 #SUP: 4
3 -1 10 -1 #SUP: 2
3 -1 16 -1 #SUP: 3
3 -1 22 -1 #SUP: 7
3 -1 27 -1 #SUP: 2
3 -1 29 -1 #SUP: 2
3 -1 30 -1 #SUP: 2
3 -1 31 -1 #SUP: 3
3 -1 32 -1 #SUP: 6
3 -1 33 -1 #SUP: 2
3 -1 41 -1 #SUP: 5
3 -1 50 -1 #SUP: 2
3 -1 54 -1 #SUP: 2
3 -1 64 -1 #SUP: 8
3 -1 65 -1 #SUP: 2
3 -1 66 -1 #SUP: 2
3 -1 72 -1 #SUP: 2
3 -1 76 -1 #SUP: 13
3 -1 113 -1 #SUP: 8
3 -1 141 -1 #SUP: 2
3 -1 149 -1 #SUP: 4
3 -1 151 -1 #SUP: 6
3 -1 160 -1 #SUP: 3
3 -1 163 -1 #SUP: 2
3 -1 165 -1 #SUP: 2
3 -1 182 -1 #SUP: 5
3 -1 194 -1 #SUP: 5
3 -1 201 -1 #SUP: 2
3 -1 213 -1 #SUP: 2
3 -1 242 -1 #SUP: 2
3 -1 250 -1 #SUP: 2
3 -1 264 -1 #SUP: 2
3 -1 268 -1 #SUP: 2
3 -1 278 -1 #SUP: 4
3 -1 312 -1 #SUP: 2
3 -1 340 -1 #SUP: 4
3 -1 394 -1 #SUP: 2
3 -1 405 -1 #SUP: 2
3 -1 484 -1 #SUP: 3
3 -1 511 -1 #SUP: 3
3 -1 525 -1 #SUP: 2
3 -1 557 -1 #SUP: 2
3 -1 1433 -1 #SUP: 2
3 -1 1592 -1 #SUP: 2
3 -1 3126 -1 #SUP: 2
3 -1 14225 -1 #SUP: 2
3 -1 16472 -1 #SUP: 2
7 -1 3 -1 #SUP: 5
7 -1 10 -1 #SUP: 5
7 -1 22 -1 #SUP: 6
7 -1 32 -1 #SUP: 2
7 -1 41 -1 #SUP: 2
7 -1 50 -1 #SUP: 2
7 -1 64 -1 #SUP: 5
7 -1 65 -1 #SUP: 3
7 -1 76 -1 #SUP: 5
7 -1 113 -1 #SUP: 3
7 -1 141 -1 #SUP: 4
7 -1 149 -1 #SUP: 2
7 -1 151 -1 #SUP: 2
7 -1 160 -1 #SUP: 2
7 -1 264 -1 #SUP: 2
7 -1 268 -1 #SUP: 2
7 -1 278 -1 #SUP: 2
7 -1 282 -1 #SUP: 2
7 -1 342 -1 #SUP: 2
7 -1 527 -1 #SUP: 2
10 -1 3 -1 #SUP: 2
10 -1 7 -1 #SUP: 2
10 -1 22 -1 #SUP: 6
10 -1 32 -1 #SUP: 4
10 -1 33 -1 #SUP: 2
10 -1 50 -1 #SUP: 4
10 -1 64 -1 #SUP: 5
10 -1 65 -1 #SUP: 2
10 -1 76 -1 #SUP: 3
10 -1 113 -1 #SUP: 3
10 -1 168 -1 #SUP: 3
10 -1 213 -1 #SUP: 2
10 -1 244 -1 #SUP: 2
10 -1 250 -1 #SUP: 4
10 -1 251 -1 #SUP: 2
10 -1 394 -1 #SUP: 4
10 -1 484 -1 #SUP: 2
10 -1 878 -1 #SUP: 2
22 -1 2 -1 #SUP: 6
22 -1 3 -1 #SUP: 9
22 -1 7 -1 #SUP: 2
22 -1 10 -1 #SUP: 4
22 -1 22 -1 #SUP: 3
22 -1 27 -1 #SUP: 3
22 -1 32 -1 #SUP: 6
22 -1 33 -1 #SUP: 2
22 -1 41 -1 #SUP: 4
22 -1 50 -1 #SUP: 2
22 -1 54 -1 #SUP: 4
22 -1 64 -1 #SUP: 5
22 -1 68 -1 #SUP: 2
22 -1 69 -1 #SUP: 2
22 -1 72 -1 #SUP: 3
22 -1 76 -1 #SUP: 13
22 -1 77 -1 #SUP: 2
22 -1 113 -1 #SUP: 10
22 -1 118 -1 #SUP: 2
22 -1 141 -1 #SUP: 2
22 -1 151 -1 #SUP: 4
22 -1 160 -1 #SUP: 2
22 -1 182 -1 #SUP: 4
22 -1 213 -1 #SUP: 3
22 -1 248 -1 #SUP: 2
22 -1 250 -1 #SUP: 2
22 -1 251 -1 #SUP: 2
22 -1 268 -1 #SUP: 2
22 -1 278 -1 #SUP: 3
22 -1 340 -1 #SUP: 2
22 -1 342 -1 #SUP: 4
22 -1 394 -1 #SUP: 3
22 -1 439 -1 #SUP: 3
22 -1 484 -1 #SUP: 2
22 -1 557 -1 #SUP: 3
22 -1 1433 -1 #SUP: 3
22 -1 1914 -1 #SUP: 2
22 -1 2232 -1 #SUP: 2
22 -1 5646 -1 #SUP: 2
27 -1 3 -1 #SUP: 3
27 -1 76 -1 #SUP: 2
27 -1 151 -1 #SUP: 3
27 -1 182 -1 #SUP: 3
27 -1 213 -1 #SUP: 2
29 -1 3 -1 #SUP: 3
29 -1 41 -1 #SUP: 2
29 -1 76 -1 #SUP: 3
29 -1 160 -1 #SUP: 2
30 -1 10 -1 #SUP: 2
31 -1 113 -1 #SUP: 2
32 -1 2 -1 #SUP: 2
32 -1 3 -1 #SUP: 3
32 -1 10 -1 #SUP: 3
32 -1 22 -1 #SUP: 4
32 -1 32 -1 #SUP: 2
32 -1 64 -1 #SUP: 2
32 -1 76 -1 #SUP: 3
32 -1 113 -1 #SUP: 3
32 -1 151 -1 #SUP: 2
32 -1 153 -1 #SUP: 2
32 -1 160 -1 #SUP: 3
32 -1 234 -1 #SUP: 2
32 -1 237 -1 #SUP: 2
32 -1 250 -1 #SUP: 3
32 -1 251 -1 #SUP: 2
32 -1 256 -1 #SUP: 2
33 -1 22 -1 #SUP: 3
33 -1 76 -1 #SUP: 3
33 -1 141 -1 #SUP: 3
33 -1 439 -1 #SUP: 2
41 -1 3 -1 #SUP: 9
41 -1 27 -1 #SUP: 2
41 -1 29 -1 #SUP: 2
41 -1 41 -1 #SUP: 2
41 -1 64 -1 #SUP: 3
41 -1 76 -1 #SUP: 5
41 -1 118 -1 #SUP: 2
41 -1 149 -1 #SUP: 2
41 -1 156 -1 #SUP: 2
41 -1 160 -1 #SUP: 2
41 -1 163 -1 #SUP: 2
41 -1 194 -1 #SUP: 3
41 -1 250 -1 #SUP: 3
41 -1 268 -1 #SUP: 2
41 -1 273 -1 #SUP: 2
41 -1 278 -1 #SUP: 4
41 -1 405 -1 #SUP: 2
41 -1 511 -1 #SUP: 4
41 -1 1277 -1 #SUP: 2
41 -1 14225 -1 #SUP: 2
41 -1 16472 -1 #SUP: 2
50 -1 2 -1 #SUP: 2
50 -1 3 -1 #SUP: 4
50 -1 27 -1 #SUP: 2
50 -1 64 -1 #SUP: 3
50 -1 65 -1 #SUP: 2
50 -1 76 -1 #SUP: 3
50 -1 113 -1 #SUP: 5
50 -1 135 -1 #SUP: 2
50 -1 160 -1 #SUP: 2
50 -1 244 -1 #SUP: 3
50 -1 268 -1 #SUP: 2
50 -1 278 -1 #SUP: 2
50 -1 878 -1 #SUP: 2
52 -1 3 -1 #SUP: 2
52 -1 113 -1 #SUP: 2
54 -1 2 -1 #SUP: 2
54 -1 3 -1 #SUP: 3
54 -1 22 -1 #SUP: 3
54 -1 32 -1 #SUP: 3
54 -1 76 -1 #SUP: 2
54 -1 113 -1 #SUP: 5
54 -1 194 -1 #SUP: 3
54 -1 278 -1 #SUP: 2
62 -1 22 -1 #SUP: 3
62 -1 5646 -1 #SUP: 2
64 -1 2 -1 #SUP: 6
64 -1 3 -1 #SUP: 7
64 -1 7 -1 #SUP: 2
64 -1 10 -1 #SUP: 5
64 -1 22 -1 #SUP: 9
64 -1 27 -1 #SUP: 2
64 -1 29 -1 #SUP: 2
64 -1 32 -1 #SUP: 2
64 -1 33 -1 #SUP: 3
64 -1 41 -1 #SUP: 2
64 -1 64 -1 #SUP: 7
64 -1 76 -1 #SUP: 10
64 -1 77 -1 #SUP: 2
64 -1 113 -1 #SUP: 12
64 -1 118 -1 #SUP: 2
64 -1 131 -1 #SUP: 2
64 -1 141 -1 #SUP: 6
64 -1 151 -1 #SUP: 5
64 -1 155 -1 #SUP: 3
64 -1 160 -1 #SUP: 5
64 -1 168 -1 #SUP: 2
64 -1 182 -1 #SUP: 8
64 -1 194 -1 #SUP: 3
64 -1 201 -1 #SUP: 2
64 -1 216 -1 #SUP: 2
64 -1 234 -1 #SUP: 2
64 -1 248 -1 #SUP: 2
64 -1 250 -1 #SUP: 2
64 -1 256 -1 #SUP: 3
64 -1 268 -1 #SUP: 5
64 -1 340 -1 #SUP: 4
64 -1 342 -1 #SUP: 2
64 -1 394 -1 #SUP: 2
64 -1 405 -1 #SUP: 2
64 -1 431 -1 #SUP: 2
64 -1 439 -1 #SUP: 2
64 -1 758 -1 #SUP: 2
64 -1 972 -1 #SUP: 2
64 -1 1498 -1 #SUP: 4
64 -1 1543 -1 #SUP: 2
64 -1 1856 -1 #SUP: 2
64 -1 85149 -1 #SUP: 2
65 -1 22 -1 #SUP: 2
65 -1 32 -1 #SUP: 2
65 -1 64 -1 #SUP: 3
65 -1 76 -1 #SUP: 5
65 -1 113 -1 #SUP: 4
65 -1 141 -1 #SUP: 2
65 -1 160 -1 #SUP: 2
65 -1 213 -1 #SUP: 2
66 -1 32 -1 #SUP: 2
69 -1 22 -1 #SUP: 3
69 -1 342 -1 #SUP: 2
69 -1 2310 -1 #SUP: 2
69 -1 5520 -1 #SUP: 2
72 -1 113 -1 #SUP: 3
72 -1 279 -1 #SUP: 2
76 -1 2 -1 #SUP: 14
76 -1 3 -1 #SUP: 12
76 -1 7 -1 #SUP: 3
76 -1 10 -1 #SUP: 3
76 -1 22 -1 #SUP: 11
76 -1 27 -1 #SUP: 3
76 -1 29 -1 #SUP: 3
76 -1 32 -1 #SUP: 6
76 -1 41 -1 #SUP: 5
76 -1 50 -1 #SUP: 2
76 -1 54 -1 #SUP: 2
76 -1 64 -1 #SUP: 8
76 -1 69 -1 #SUP: 2
76 -1 72 -1 #SUP: 2
76 -1 76 -1 #SUP: 10
76 -1 113 -1 #SUP: 20
76 -1 118 -1 #SUP: 2
76 -1 131 -1 #SUP: 2
76 -1 141 -1 #SUP: 6
76 -1 149 -1 #SUP: 4
76 -1 151 -1 #SUP: 9
76 -1 156 -1 #SUP: 2
76 -1 160 -1 #SUP: 3
76 -1 165 -1 #SUP: 2
76 -1 182 -1 #SUP: 7
76 -1 194 -1 #SUP: 3
76 -1 208 -1 #SUP: 2
76 -1 242 -1 #SUP: 3
76 -1 250 -1 #SUP: 5
76 -1 268 -1 #SUP: 2
76 -1 272 -1 #SUP: 2
76 -1 273 -1 #SUP: 2
76 -1 278 -1 #SUP: 4
76 -1 312 -1 #SUP: 2
76 -1 340 -1 #SUP: 2
76 -1 342 -1 #SUP: 4
76 -1 375 -1 #SUP: 5
76 -1 394 -1 #SUP: 2
76 -1 405 -1 #SUP: 2
76 -1 483 -1 #SUP: 2
76 -1 484 -1 #SUP: 7
76 -1 510 -1 #SUP: 2
76 -1 525 -1 #SUP: 3
76 -1 557 -1 #SUP: 11
76 -1 602 -1 #SUP: 2
76 -1 613 -1 #SUP: 2
76 -1 635 -1 #SUP: 3
76 -1 786 -1 #SUP: 2
76 -1 847 -1 #SUP: 2
76 -1 904 -1 #SUP: 2
76 -1 1111 -1 #SUP: 2
76 -1 1143 -1 #SUP: 2
76 -1 1433 -1 #SUP: 2
76 -1 1543 -1 #SUP: 2
76 -1 1879 -1 #SUP: 2
76 -1 2682 -1 #SUP: 3
76 -1 2689 -1 #SUP: 2
76 -1 2922 -1 #SUP: 2
76 -1 4777 -1 #SUP: 2
76 -1 5691 -1 #SUP: 2
76 -1 10187 -1 #SUP: 3
76 -1 12433 -1 #SUP: 2
76 -1 16239 -1 #SUP: 2
77 -1 3 -1 #SUP: 2
77 -1 10 -1 #SUP: 2
77 -1 64 -1 #SUP: 2
77 -1 77 -1 #SUP: 2
77 -1 182 -1 #SUP: 2
99 -1 76 -1 #SUP: 2
113 -1 2 -1 #SUP: 8
113 -1 3 -1 #SUP: 17
113 -1 7 -1 #SUP: 12
113 -1 10 -1 #SUP: 9
113 -1 22 -1 #SUP: 16
113 -1 27 -1 #SUP: 2
113 -1 32 -1 #SUP: 7
113 -1 33 -1 #SUP: 4
113 -1 41 -1 #SUP: 4
113 -1 50 -1 #SUP: 4
113 -1 52 -1 #SUP: 2
113 -1 54 -1 #SUP: 3
113 -1 64 -1 #SUP: 9
113 -1 65 -1 #SUP: 5
113 -1 72 -1 #SUP: 3
113 -1 76 -1 #SUP: 18
113 -1 77 -1 #SUP: 2
113 -1 113 -1 #SUP: 13
113 -1 118 -1 #SUP: 5
113 -1 141 -1 #SUP: 6
113 -1 149 -1 #SUP: 2
113 -1 151 -1 #SUP: 9
113 -1 155 -1 #SUP: 3
113 -1 156 -1 #SUP: 2
113 -1 160 -1 #SUP: 4
113 -1 163 -1 #SUP: 3
113 -1 165 -1 #SUP: 2
113 -1 168 -1 #SUP: 4
113 -1 182 -1 #SUP: 8
113 -1 185 -1 #SUP: 2
113 -1 194 -1 #SUP: 8
113 -1 200 -1 #SUP: 3
113 -1 213 -1 #SUP: 3
113 -1 214 -1 #SUP: 2
113 -1 242 -1 #SUP: 3
113 -1 250 -1 #SUP: 5
113 -1 256 -1 #SUP: 2
113 -1 268 -1 #SUP: 4
113 -1 272 -1 #SUP: 2
113 -1 273 -1 #SUP: 2
113 -1 278 -1 #SUP: 7
113 -1 305 -1 #SUP: 2
113 -1 308 -1 #SUP: 3
113 -1 326 -1 #SUP: 3
113 -1 340 -1 #SUP: 6
113 -1 342 -1 #SUP: 5
113 -1 371 -1 #SUP: 2
113 -1 375 -1 #SUP: 4
113 -1 388 -1 #SUP: 2
113 -1 394 -1 #SUP: 5
113 -1 420 -1 #SUP: 2
113 -1 431 -1 #SUP: 2
113 -1 443 -1 #SUP: 2
113 -1 506 -1 #SUP: 2
113 -1 510 -1 #SUP: 2
113 -1 511 -1 #SUP: 3
113 -1 527 -1 #SUP: 2
113 -1 553 -1 #SUP: 2
113 -1 557 -1 #SUP: 4
113 -1 613 -1 #SUP: 3
113 -1 635 -1 #SUP: 3
113 -1 732 -1 #SUP: 2
113 -1 786 -1 #SUP: 4
113 -1 814 -1 #SUP: 2
113 -1 872 -1 #SUP: 2
113 -1 893 -1 #SUP: 2
113 -1 904 -1 #SUP: 2
113 -1 1111 -1 #SUP: 2
113 -1 1225 -1 #SUP: 2
113 -1 1433 -1 #SUP: 2
113 -1 1640 -1 #SUP: 2
113 -1 1678 -1 #SUP: 2
113 -1 2310 -1 #SUP: 2
113 -1 2422 -1 #SUP: 2
115 -1 113 -1 #SUP: 2
118 -1 64 -1 #SUP: 3
118 -1 76 -1 #SUP: 3
118 -1 113 -1 #SUP: 4
118 -1 155 -1 #SUP: 2
118 -1 156 -1 #SUP: 2
118 -1 182 -1 #SUP: 3
118 -1 242 -1 #SUP: 2
124 -1 64 -1 #SUP: 2
131 -1 2 -1 #SUP: 2
131 -1 3 -1 #SUP: 2
131 -1 22 -1 #SUP: 2
131 -1 76 -1 #SUP: 2
131 -1 113 -1 #SUP: 3
131 -1 151 -1 #SUP: 2
141 -1 2 -1 #SUP: 2
141 -1 3 -1 #SUP: 2
141 -1 32 -1 #SUP: 3
141 -1 41 -1 #SUP: 4
141 -1 64 -1 #SUP: 2
141 -1 76 -1 #SUP: 4
141 -1 113 -1 #SUP: 3
141 -1 151 -1 #SUP: 2
141 -1 160 -1 #SUP: 4
141 -1 182 -1 #SUP: 2
141 -1 194 -1 #SUP: 3
141 -1 256 -1 #SUP: 2
141 -1 264 -1 #SUP: 2
148 -1 151 -1 #SUP: 2
149 -1 3 -1 #SUP: 3
149 -1 22 -1 #SUP: 2
149 -1 32 -1 #SUP: 2
149 -1 41 -1 #SUP: 2
149 -1 64 -1 #SUP: 2
149 -1 76 -1 #SUP: 2
149 -1 141 -1 #SUP: 2
149 -1 182 -1 #SUP: 2
149 -1 194 -1 #SUP: 2
151 -1 3 -1 #SUP: 6
151 -1 10 -1 #SUP: 3
151 -1 22 -1 #SUP: 4
151 -1 32 -1 #SUP: 3
151 -1 64 -1 #SUP: 4
151 -1 65 -1 #SUP: 2
151 -1 76 -1 #SUP: 8
151 -1 113 -1 #SUP: 4
151 -1 149 -1 #SUP: 2
151 -1 156 -1 #SUP: 2
151 -1 182 -1 #SUP: 4
151 -1 216 -1 #SUP: 3
151 -1 248 -1 #SUP: 2
151 -1 250 -1 #SUP: 2
151 -1 272 -1 #SUP: 2
151 -1 312 -1 #SUP: 2
151 -1 342 -1 #SUP: 2
151 -1 394 -1 #SUP: 2
151 -1 443 -1 #SUP: 2
151 -1 599 -1 #SUP: 2
151 -1 732 -1 #SUP: 2
151 -1 1111 -1 #SUP: 2
153 -1 237 -1 #SUP: 2
155 -1 22 -1 #SUP: 2
155 -1 76 -1 #SUP: 3
155 -1 113 -1 #SUP: 2
155 -1 394 -1 #SUP: 2
155 -1 431 -1 #SUP: 2
156 -1 64 -1 #SUP: 3
156 -1 76 -1 #SUP: 2
158 -1 342 -1 #SUP: 2
160 -1 2 -1 #SUP: 2
160 -1 3 -1 #SUP: 2
160 -1 22 -1 #SUP: 2
160 -1 76 -1 #SUP: 6
160 -1 113 -1 #SUP: 2
160 -1 151 -1 #SUP: 3
160 -1 16239 -1 #SUP: 2
161 -1 340 -1 #SUP: 2
168 -1 7 -1 #SUP: 2
168 -1 32 -1 #SUP: 2
168 -1 76 -1 #SUP: 3
168 -1 113 -1 #SUP: 2
168 -1 141 -1 #SUP: 2
168 -1 394 -1 #SUP: 3
182 -1 2 -1 #SUP: 3
182 -1 3 -1 #SUP: 3
182 -1 10 -1 #SUP: 2
182 -1 31 -1 #SUP: 2
182 -1 64 -1 #SUP: 6
182 -1 76 -1 #SUP: 6
182 -1 113 -1 #SUP: 5
182 -1 148 -1 #SUP: 2
182 -1 151 -1 #SUP: 3
182 -1 163 -1 #SUP: 2
182 -1 182 -1 #SUP: 4
182 -1 250 -1 #SUP: 2
182 -1 340 -1 #SUP: 3
182 -1 510 -1 #SUP: 3
182 -1 758 -1 #SUP: 2
182 -1 786 -1 #SUP: 2
182 -1 85149 -1 #SUP: 2
194 -1 2 -1 #SUP: 3
194 -1 3 -1 #SUP: 5
194 -1 16 -1 #SUP: 2
194 -1 22 -1 #SUP: 3
194 -1 31 -1 #SUP: 2
194 -1 32 -1 #SUP: 4
194 -1 65 -1 #SUP: 2
194 -1 76 -1 #SUP: 6
194 -1 113 -1 #SUP: 4
194 -1 149 -1 #SUP: 2
194 -1 151 -1 #SUP: 3
194 -1 160 -1 #SUP: 2
194 -1 182 -1 #SUP: 4
194 -1 213 -1 #SUP: 2
194 -1 250 -1 #SUP: 3
194 -1 264 -1 #SUP: 2
194 -1 278 -1 #SUP: 8
194 -1 305 -1 #SUP: 2
194 -1 342 -1 #SUP: 2
194 -1 394 -1 #SUP: 2
194 -1 635 -1 #SUP: 2
194 -1 2222 -1 #SUP: 2
200 -1 64 -1 #SUP: 2
200 -1 113 -1 #SUP: 2
200 -1 151 -1 #SUP: 2
200 -1 278 -1 #SUP: 2
201 -1 213 -1 #SUP: 2
208 -1 3 -1 #SUP: 2
208 -1 29 -1 #SUP: 2
208 -1 41 -1 #SUP: 2
208 -1 76 -1 #SUP: 2
208 -1 141 -1 #SUP: 2
211 -1 10 -1 #SUP: 2
211 -1 76 -1 #SUP: 2
213 -1 2 -1 #SUP: 2
213 -1 3 -1 #SUP: 3
213 -1 22 -1 #SUP: 2
213 -1 76 -1 #SUP: 4
213 -1 151 -1 #SUP: 2
213 -1 160 -1 #SUP: 2
213 -1 342 -1 #SUP: 2
216 -1 76 -1 #SUP: 4
216 -1 113 -1 #SUP: 4
216 -1 268 -1 #SUP: 4
216 -1 450 -1 #SUP: 2
224 -1 3 -1 #SUP: 2
224 -1 113 -1 #SUP: 2
232 -1 54 -1 #SUP: 2
232 -1 194 -1 #SUP: 2
232 -1 278 -1 #SUP: 2
234 -1 22 -1 #SUP: 2
234 -1 76 -1 #SUP: 3
234 -1 113 -1 #SUP: 2
234 -1 160 -1 #SUP: 2
237 -1 30 -1 #SUP: 2
237 -1 76 -1 #SUP: 2
237 -1 342 -1 #SUP: 2
238 -1 238 -1 #SUP: 3
242 -1 113 -1 #SUP: 2
242 -1 163 -1 #SUP: 2
242 -1 182 -1 #SUP: 2
242 -1 342 -1 #SUP: 2
242 -1 510 -1 #SUP: 2
242 -1 786 -1 #SUP: 2
244 -1 113 -1 #SUP: 2
244 -1 190 -1 #SUP: 2
250 -1 2 -1 #SUP: 2
250 -1 3 -1 #SUP: 3
250 -1 10 -1 #SUP: 3
250 -1 22 -1 #SUP: 2
250 -1 31 -1 #SUP: 2
250 -1 32 -1 #SUP: 4
250 -1 64 -1 #SUP: 4
250 -1 76 -1 #SUP: 5
250 -1 113 -1 #SUP: 4
250 -1 251 -1 #SUP: 2
250 -1 443 -1 #SUP: 2
250 -1 557 -1 #SUP: 4
250 -1 2050 -1 #SUP: 2
256 -1 64 -1 #SUP: 2
256 -1 113 -1 #SUP: 2
256 -1 190 -1 #SUP: 2
256 -1 244 -1 #SUP: 2
256 -1 342 -1 #SUP: 2
256 -1 549 -1 #SUP: 2
264 -1 64 -1 #SUP: 2
264 -1 113 -1 #SUP: 2
268 -1 7 -1 #SUP: 2
268 -1 22 -1 #SUP: 2
268 -1 65 -1 #SUP: 3
268 -1 76 -1 #SUP: 4
268 -1 113 -1 #SUP: 4
268 -1 141 -1 #SUP: 2
268 -1 149 -1 #SUP: 2
268 -1 342 -1 #SUP: 2
268 -1 450 -1 #SUP: 2
273 -1 41 -1 #SUP: 2
273 -1 64 -1 #SUP: 2
273 -1 250 -1 #SUP: 2
273 -1 511 -1 #SUP: 2
278 -1 2 -1 #SUP: 2
278 -1 3 -1 #SUP: 5
278 -1 7 -1 #SUP: 2
278 -1 22 -1 #SUP: 4
278 -1 31 -1 #SUP: 2
278 -1 41 -1 #SUP: 2
278 -1 76 -1 #SUP: 7
278 -1 113 -1 #SUP: 4
278 -1 149 -1 #SUP: 3
278 -1 182 -1 #SUP: 3
278 -1 250 -1 #SUP: 2
278 -1 305 -1 #SUP: 2
278 -1 557 -1 #SUP: 3
278 -1 635 -1 #SUP: 2
278 -1 1433 -1 #SUP: 2
279 -1 113 -1 #SUP: 2
282 -1 64 -1 #SUP: 2
282 -1 141 -1 #SUP: 2
308 -1 113 -1 #SUP: 2
312 -1 216 -1 #SUP: 2
326 -1 76 -1 #SUP: 2
326 -1 113 -1 #SUP: 3
326 -1 342 -1 #SUP: 2
340 -1 2 -1 #SUP: 2
340 -1 3 -1 #SUP: 2
340 -1 7 -1 #SUP: 2
340 -1 10 -1 #SUP: 2
340 -1 22 -1 #SUP: 4
340 -1 32 -1 #SUP: 5
340 -1 54 -1 #SUP: 2
340 -1 64 -1 #SUP: 3
340 -1 76 -1 #SUP: 5
340 -1 113 -1 #SUP: 3
340 -1 149 -1 #SUP: 2
340 -1 151 -1 #SUP: 2
340 -1 250 -1 #SUP: 3
342 -1 2 -1 #SUP: 2
342 -1 10 -1 #SUP: 3
342 -1 22 -1 #SUP: 4
342 -1 27 -1 #SUP: 2
342 -1 41 -1 #SUP: 2
342 -1 64 -1 #SUP: 2
342 -1 76 -1 #SUP: 5
342 -1 113 -1 #SUP: 2
342 -1 151 -1 #SUP: 2
342 -1 194 -1 #SUP: 2
342 -1 213 -1 #SUP: 3
342 -1 242 -1 #SUP: 2
342 -1 256 -1 #SUP: 2
342 -1 278 -1 #SUP: 2
342 -1 312 -1 #SUP: 2
342 -1 342 -1 #SUP: 3
342 -1 375 -1 #SUP: 3
342 -1 453 -1 #SUP: 3
342 -1 557 -1 #SUP: 2
342 -1 635 -1 #SUP: 2
342 -1 1075 -1 #SUP: 3
363 -1 32 -1 #SUP: 2
371 -1 32 -1 #SUP: 2
371 -1 76 -1 #SUP: 2
371 -1 194 -1 #SUP: 2
371 -1 557 -1 #SUP: 2
371 -1 2222 -1 #SUP: 2
375 -1 2 -1 #SUP: 3
375 -1 3 -1 #SUP: 3
375 -1 22 -1 #SUP: 4
375 -1 32 -1 #SUP: 2
375 -1 64 -1 #SUP: 4
375 -1 76 -1 #SUP: 3
375 -1 113 -1 #SUP: 3
375 -1 137 -1 #SUP: 2
375 -1 194 -1 #SUP: 2
375 -1 278 -1 #SUP: 2
375 -1 2222 -1 #SUP: 2
394 -1 2 -1 #SUP: 2
394 -1 3 -1 #SUP: 2
394 -1 7 -1 #SUP: 2
394 -1 64 -1 #SUP: 2
394 -1 76 -1 #SUP: 2
394 -1 113 -1 #SUP: 2
394 -1 185 -1 #SUP: 2
405 -1 32 -1 #SUP: 2
424 -1 64 -1 #SUP: 2
431 -1 2 -1 #SUP: 2
431 -1 3 -1 #SUP: 2
431 -1 64 -1 #SUP: 2
431 -1 76 -1 #SUP: 2
443 -1 32 -1 #SUP: 2
443 -1 113 -1 #SUP: 2
443 -1 636 -1 #SUP: 2
445 -1 10 -1 #SUP: 2
445 -1 22 -1 #SUP: 2
482 -1 50 -1 #SUP: 2
484 -1 3 -1 #SUP: 2
484 -1 27 -1 #SUP: 2
484 -1 32 -1 #SUP: 2
484 -1 64 -1 #SUP: 2
484 -1 76 -1 #SUP: 2
484 -1 113 -1 #SUP: 2
484 -1 182 -1 #SUP: 2
484 -1 194 -1 #SUP: 2
484 -1 213 -1 #SUP: 2
484 -1 4777 -1 #SUP: 2
502 -1 3 -1 #SUP: 2
502 -1 113 -1 #SUP: 2
504 -1 10 -1 #SUP: 2
506 -1 3 -1 #SUP: 2
506 -1 76 -1 #SUP: 2
506 -1 115 -1 #SUP: 2
510 -1 64 -1 #SUP: 3
510 -1 76 -1 #SUP: 2
510 -1 113 -1 #SUP: 2
510 -1 163 -1 #SUP: 2
510 -1 786 -1 #SUP: 2
510 -1 864 -1 #SUP: 2
511 -1 76 -1 #SUP: 2
527 -1 22 -1 #SUP: 2
548 -1 64 -1 #SUP: 2
549 -1 190 -1 #SUP: 2
549 -1 244 -1 #SUP: 2
553 -1 76 -1 #SUP: 2
553 -1 113 -1 #SUP: 2
557 -1 3 -1 #SUP: 2
557 -1 7 -1 #SUP: 2
557 -1 10 -1 #SUP: 2
557 -1 22 -1 #SUP: 6
557 -1 32 -1 #SUP: 4
557 -1 64 -1 #SUP: 3
557 -1 113 -1 #SUP: 7
557 -1 153 -1 #SUP: 2
557 -1 342 -1 #SUP: 2
557 -1 375 -1 #SUP: 3
557 -1 484 -1 #SUP: 3
557 -1 2922 -1 #SUP: 2
599 -1 64 -1 #SUP: 2
599 -1 76 -1 #SUP: 2
602 -1 113 -1 #SUP: 4
613 -1 76 -1 #SUP: 2
613 -1 163 -1 #SUP: 2
613 -1 182 -1 #SUP: 2
613 -1 242 -1 #SUP: 2
613 -1 510 -1 #SUP: 2
613 -1 786 -1 #SUP: 2
635 -1 76 -1 #SUP: 2
635 -1 113 -1 #SUP: 2
635 -1 182 -1 #SUP: 2
636 -1 22 -1 #SUP: 2
636 -1 113 -1 #SUP: 2
636 -1 342 -1 #SUP: 2
732 -1 3 -1 #SUP: 2
732 -1 76 -1 #SUP: 3
732 -1 149 -1 #SUP: 2
732 -1 278 -1 #SUP: 2
758 -1 85149 -1 #SUP: 2
763 -1 763 -1 #SUP: 3
786 -1 113 -1 #SUP: 2
786 -1 163 -1 #SUP: 2
814 -1 22 -1 #SUP: 2
814 -1 76 -1 #SUP: 2
817 -1 76 -1 #SUP: 2
847 -1 32 -1 #SUP: 2
864 -1 64 -1 #SUP: 2
872 -1 3 -1 #SUP: 2
872 -1 32 -1 #SUP: 2
872 -1 64 -1 #SUP: 2
903 -1 76 -1 #SUP: 2
904 -1 27 -1 #SUP: 2
904 -1 41 -1 #SUP: 2
904 -1 76 -1 #SUP: 2
904 -1 340 -1 #SUP: 2
1029 -1 113 -1 #SUP: 2
1075 -1 76 -1 #SUP: 2
1075 -1 342 -1 #SUP: 2
1111 -1 76 -1 #SUP: 2
1111 -1 113 -1 #SUP: 3
1111 -1 1879 -1 #SUP: 3
1119 -1 3 -1 #SUP: 2
1119 -1 113 -1 #SUP: 2
1143 -1 484 -1 #SUP: 2
1143 -1 4777 -1 #SUP: 2
1225 -1 64 -1 #SUP: 2
1323 -1 32 -1 #SUP: 2
1498 -1 64 -1 #SUP: 3
1498 -1 113 -1 #SUP: 3
1498 -1 182 -1 #SUP: 2
1640 -1 22 -1 #SUP: 2
1879 -1 113 -1 #SUP: 2
2050 -1 3 -1 #SUP: 2
2050 -1 76 -1 #SUP: 2
2050 -1 557 -1 #SUP: 2
2081 -1 64 -1 #SUP: 2
2222 -1 22 -1 #SUP: 3
2222 -1 64 -1 #SUP: 2
2222 -1 76 -1 #SUP: 3
2222 -1 113 -1 #SUP: 2
2222 -1 216 -1 #SUP: 2
2222 -1 438 -1 #SUP: 2
2222 -1 557 -1 #SUP: 2
2310 -1 22 -1 #SUP: 2
2310 -1 64 -1 #SUP: 2
2310 -1 342 -1 #SUP: 2
2682 -1 76 -1 #SUP: 2
2689 -1 76 -1 #SUP: 3
2689 -1 2682 -1 #SUP: 2
2689 -1 5691 -1 #SUP: 2
2689 -1 10187 -1 #SUP: 2
2689 -1 12433 -1 #SUP: 2
3126 -1 33 -1 #SUP: 2
3626 -1 76 -1 #SUP: 2
5520 -1 22 -1 #SUP: 2
5520 -1 342 -1 #SUP: 2
5520 -1 2310 -1 #SUP: 2
5691 -1 76 -1 #SUP: 2
5691 -1 1143 -1 #SUP: 2
10187 -1 76 -1 #SUP: 2
10187 -1 2682 -1 #SUP: 2
10491 -1 163 -1 #SUP: 2
10491 -1 14225 -1 #SUP: 2
12433 -1 76 -1 #SUP: 2
12433 -1 10187 -1 #SUP: 2
14225 -1 163 -1 #SUP: 2
16239 -1 151 -1 #SUP: 2
16472 -1 163 -1 #SUP: 3
85148 -1 14225 -1 #SUP: 2
85149 -1 182 -1 #SUP: 2
2 -1 3 -1 113 -1 #SUP: 2
2 -1 3 -1 160 -1 #SUP: 2
2 -1 22 -1 3 -1 #SUP: 2
2 -1 22 -1 113 -1 #SUP: 2
2 -1 69 -1 22 -1 #SUP: 2
2 -1 113 -1 3 -1 #SUP: 3
2 -1 113 -1 151 -1 #SUP: 2
2 -1 113 -1 194 -1 #SUP: 3
2 -1 113 -1 272 -1 #SUP: 2
2 -1 113 -1 394 -1 #SUP: 2
2 -1 151 -1 10 -1 #SUP: 2
2 -1 151 -1 22 -1 #SUP: 2
2 -1 151 -1 272 -1 #SUP: 2
2 -1 151 -1 394 -1 #SUP: 2
2 -1 194 -1 394 -1 #SUP: 2
3 -1 2 -1 113 -1 #SUP: 3
3 -1 22 -1 3 -1 #SUP: 2
3 -1 22 -1 76 -1 #SUP: 2
3 -1 22 -1 113 -1 #SUP: 2
3 -1 32 -1 64 -1 #SUP: 2
3 -1 41 -1 194 -1 #SUP: 2
3 -1 41 -1 511 -1 #SUP: 2
3 -1 64 -1 2 -1 #SUP: 2
3 -1 64 -1 76 -1 #SUP: 2
3 -1 64 -1 141 -1 #SUP: 2
3 -1 64 -1 182 -1 #SUP: 2
3 -1 76 -1 2 -1 #SUP: 6
3 -1 76 -1 3 -1 #SUP: 4
3 -1 76 -1 22 -1 #SUP: 3
3 -1 76 -1 113 -1 #SUP: 5
3 -1 76 -1 151 -1 #SUP: 3
3 -1 76 -1 165 -1 #SUP: 2
3 -1 76 -1 182 -1 #SUP: 2
3 -1 76 -1 405 -1 #SUP: 2
3 -1 76 -1 484 -1 #SUP: 2
3 -1 76 -1 525 -1 #SUP: 2
3 -1 76 -1 557 -1 #SUP: 2
3 -1 113 -1 22 -1 #SUP: 2
3 -1 141 -1 194 -1 #SUP: 2
3 -1 151 -1 3 -1 #SUP: 2
3 -1 151 -1 182 -1 #SUP: 2
3 -1 194 -1 22 -1 #SUP: 2
3 -1 194 -1 213 -1 #SUP: 2
3 -1 194 -1 278 -1 #SUP: 2
3 -1 250 -1 32 -1 #SUP: 2
3 -1 278 -1 3 -1 #SUP: 2
3 -1 278 -1 22 -1 #SUP: 2
3 -1 278 -1 76 -1 #SUP: 3
3 -1 340 -1 76 -1 #SUP: 3
3 -1 340 -1 151 -1 #SUP: 2
3 -1 557 -1 22 -1 #SUP: 2
3 -1 16472 -1 163 -1 #SUP: 2
7 -1 3 -1 264 -1 #SUP: 2
7 -1 10 -1 22 -1 #SUP: 2
7 -1 64 -1 141 -1 #SUP: 3
7 -1 64 -1 160 -1 #SUP: 2
7 -1 76 -1 76 -1 #SUP: 2
7 -1 76 -1 113 -1 #SUP: 2
7 -1 141 -1 160 -1 #SUP: 2
7 -1 278 -1 41 -1 #SUP: 2
7 -1 527 -1 22 -1 #SUP: 2
10 -1 7 -1 64 -1 #SUP: 2
10 -1 22 -1 32 -1 #SUP: 3
10 -1 50 -1 244 -1 #SUP: 2
10 -1 50 -1 878 -1 #SUP: 2
10 -1 76 -1 64 -1 #SUP: 2
10 -1 113 -1 33 -1 #SUP: 2
10 -1 168 -1 394 -1 #SUP: 3
10 -1 250 -1 251 -1 #SUP: 2
22 -1 2 -1 3 -1 #SUP: 2
22 -1 2 -1 69 -1 #SUP: 2
22 -1 2 -1 113 -1 #SUP: 2
22 -1 2 -1 118 -1 #SUP: 2
22 -1 2 -1 151 -1 #SUP: 2
22 -1 2 -1 182 -1 #SUP: 2
22 -1 2 -1 248 -1 #SUP: 2
22 -1 3 -1 76 -1 #SUP: 2
22 -1 3 -1 113 -1 #SUP: 2
22 -1 3 -1 1433 -1 #SUP: 2
22 -1 10 -1 50 -1 #SUP: 2
22 -1 22 -1 2 -1 #SUP: 2
22 -1 22 -1 76 -1 #SUP: 2
22 -1 32 -1 10 -1 #SUP: 2
22 -1 32 -1 76 -1 #SUP: 2
22 -1 32 -1 251 -1 #SUP: 2
22 -1 33 -1 76 -1 #SUP: 2
22 -1 41 -1 76 -1 #SUP: 2
22 -1 54 -1 3 -1 #SUP: 3
22 -1 54 -1 76 -1 #SUP: 2
22 -1 54 -1 113 -1 #SUP: 3
22 -1 54 -1 278 -1 #SUP: 2
22 -1 64 -1 182 -1 #SUP: 2
22 -1 72 -1 113 -1 #SUP: 2
22 -1 76 -1 2 -1 #SUP: 4
22 -1 76 -1 3 -1 #SUP: 2
22 -1 76 -1 27 -1 #SUP: 2
22 -1 76 -1 69 -1 #SUP: 2
22 -1 76 -1 113 -1 #SUP: 5
22 -1 76 -1 151 -1 #SUP: 2
22 -1 76 -1 182 -1 #SUP: 2
22 -1 76 -1 278 -1 #SUP: 2
22 -1 76 -1 557 -1 #SUP: 3
22 -1 113 -1 3 -1 #SUP: 4
22 -1 113 -1 22 -1 #SUP: 2
22 -1 113 -1 76 -1 #SUP: 2
22 -1 113 -1 182 -1 #SUP: 2
22 -1 113 -1 278 -1 #SUP: 2
22 -1 213 -1 2 -1 #SUP: 2
22 -1 213 -1 76 -1 #SUP: 3
22 -1 394 -1 76 -1 #SUP: 2
22 -1 557 -1 113 -1 #SUP: 2
27 -1 3 -1 151 -1 #SUP: 2
27 -1 76 -1 151 -1 #SUP: 2
29 -1 76 -1 3 -1 #SUP: 2
29 -1 76 -1 41 -1 #SUP: 2
32 -1 64 -1 160 -1 #SUP: 2
32 -1 153 -1 237 -1 #SUP: 2
33 -1 22 -1 76 -1 #SUP: 2
33 -1 22 -1 439 -1 #SUP: 2
33 -1 76 -1 141 -1 #SUP: 2
41 -1 3 -1 163 -1 #SUP: 2
41 -1 3 -1 14225 -1 #SUP: 2
41 -1 3 -1 16472 -1 #SUP: 2
41 -1 76 -1 41 -1 #SUP: 2
41 -1 156 -1 64 -1 #SUP: 2
41 -1 194 -1 3 -1 #SUP: 2
41 -1 194 -1 278 -1 #SUP: 2
41 -1 16472 -1 163 -1 #SUP: 2
50 -1 2 -1 113 -1 #SUP: 2
50 -1 3 -1 76 -1 #SUP: 2
50 -1 64 -1 113 -1 #SUP: 2
50 -1 244 -1 113 -1 #SUP: 2
54 -1 113 -1 3 -1 #SUP: 2
54 -1 113 -1 22 -1 #SUP: 2
54 -1 113 -1 32 -1 #SUP: 2
54 -1 113 -1 194 -1 #SUP: 3
54 -1 113 -1 278 -1 #SUP: 2
54 -1 194 -1 22 -1 #SUP: 2
54 -1 194 -1 32 -1 #SUP: 2
62 -1 22 -1 5646 -1 #SUP: 2
64 -1 2 -1 3 -1 #SUP: 2
64 -1 3 -1 194 -1 #SUP: 2
64 -1 10 -1 168 -1 #SUP: 2
64 -1 22 -1 76 -1 #SUP: 2
64 -1 22 -1 113 -1 #SUP: 2
64 -1 22 -1 439 -1 #SUP: 2
64 -1 33 -1 22 -1 #SUP: 3
64 -1 33 -1 76 -1 #SUP: 2
64 -1 33 -1 439 -1 #SUP: 2
64 -1 76 -1 2 -1 #SUP: 4
64 -1 76 -1 3 -1 #SUP: 2
64 -1 76 -1 64 -1 #SUP: 2
64 -1 76 -1 113 -1 #SUP: 2
64 -1 76 -1 182 -1 #SUP: 2
64 -1 113 -1 10 -1 #SUP: 3
64 -1 113 -1 22 -1 #SUP: 2
64 -1 113 -1 64 -1 #SUP: 2
64 -1 113 -1 151 -1 #SUP: 2
64 -1 113 -1 182 -1 #SUP: 2
64 -1 141 -1 113 -1 #SUP: 2
64 -1 141 -1 151 -1 #SUP: 2
64 -1 141 -1 160 -1 #SUP: 3
64 -1 141 -1 182 -1 #SUP: 2
64 -1 141 -1 194 -1 #SUP: 2
64 -1 151 -1 182 -1 #SUP: 2
64 -1 155 -1 431 -1 #SUP: 2
64 -1 160 -1 76 -1 #SUP: 2
64 -1 160 -1 113 -1 #SUP: 2
64 -1 182 -1 2 -1 #SUP: 2
64 -1 182 -1 3 -1 #SUP: 2
64 -1 182 -1 64 -1 #SUP: 3
64 -1 182 -1 76 -1 #SUP: 3
64 -1 182 -1 340 -1 #SUP: 2
64 -1 216 -1 268 -1 #SUP: 2
64 -1 340 -1 64 -1 #SUP: 2
64 -1 758 -1 85149 -1 #SUP: 2
64 -1 1498 -1 64 -1 #SUP: 2
64 -1 1498 -1 113 -1 #SUP: 2
65 -1 76 -1 113 -1 #SUP: 4
69 -1 22 -1 342 -1 #SUP: 2
69 -1 2310 -1 22 -1 #SUP: 2
69 -1 2310 -1 342 -1 #SUP: 2
69 -1 5520 -1 22 -1 #SUP: 2
69 -1 5520 -1 342 -1 #SUP: 2
69 -1 5520 -1 2310 -1 #SUP: 2
72 -1 279 -1 113 -1 #SUP: 2
76 -1 2 -1 3 -1 #SUP: 5
76 -1 2 -1 10 -1 #SUP: 2
76 -1 2 -1 22 -1 #SUP: 3
76 -1 2 -1 64 -1 #SUP: 3
76 -1 2 -1 69 -1 #SUP: 2
76 -1 2 -1 76 -1 #SUP: 2
76 -1 2 -1 113 -1 #SUP: 7
76 -1 2 -1 151 -1 #SUP: 5
76 -1 2 -1 250 -1 #SUP: 2
76 -1 2 -1 272 -1 #SUP: 2
76 -1 2 -1 342 -1 #SUP: 2
76 -1 2 -1 394 -1 #SUP: 2
76 -1 3 -1 22 -1 #SUP: 2
76 -1 3 -1 41 -1 #SUP: 2
76 -1 3 -1 54 -1 #SUP: 2
76 -1 3 -1 76 -1 #SUP: 3
76 -1 3 -1 113 -1 #SUP: 2
76 -1 3 -1 194 -1 #SUP: 2
76 -1 3 -1 278 -1 #SUP: 2
76 -1 3 -1 1433 -1 #SUP: 2
76 -1 7 -1 3 -1 #SUP: 2
76 -1 22 -1 3 -1 #SUP: 2
76 -1 22 -1 32 -1 #SUP: 2
76 -1 22 -1 76 -1 #SUP: 4
76 -1 22 -1 113 -1 #SUP: 3
76 -1 22 -1 250 -1 #SUP: 2
76 -1 22 -1 484 -1 #SUP: 2
76 -1 29 -1 76 -1 #SUP: 2
76 -1 32 -1 113 -1 #SUP: 2
76 -1 41 -1 76 -1 #SUP: 2
76 -1 64 -1 182 -1 #SUP: 2
76 -1 64 -1 268 -1 #SUP: 2
76 -1 64 -1 1543 -1 #SUP: 2
76 -1 72 -1 113 -1 #SUP: 2
76 -1 76 -1 3 -1 #SUP: 2
76 -1 76 -1 41 -1 #SUP: 2
76 -1 76 -1 76 -1 #SUP: 5
76 -1 76 -1 113 -1 #SUP: 2
76 -1 76 -1 151 -1 #SUP: 2
76 -1 76 -1 342 -1 #SUP: 2
76 -1 76 -1 484 -1 #SUP: 3
76 -1 76 -1 1143 -1 #SUP: 2
76 -1 76 -1 2682 -1 #SUP: 2
76 -1 76 -1 2689 -1 #SUP: 2
76 -1 76 -1 4777 -1 #SUP: 2
76 -1 76 -1 10187 -1 #SUP: 3
76 -1 76 -1 12433 -1 #SUP: 2
76 -1 113 -1 3 -1 #SUP: 4
76 -1 113 -1 22 -1 #SUP: 3
76 -1 113 -1 27 -1 #SUP: 2
76 -1 113 -1 76 -1 #SUP: 2
76 -1 113 -1 113 -1 #SUP: 3
76 -1 113 -1 118 -1 #SUP: 2
76 -1 113 -1 141 -1 #SUP: 3
76 -1 113 -1 151 -1 #SUP: 4
76 -1 113 -1 182 -1 #SUP: 4
76 -1 113 -1 242 -1 #SUP: 3
76 -1 113 -1 272 -1 #SUP: 2
76 -1 113 -1 510 -1 #SUP: 2
76 -1 113 -1 613 -1 #SUP: 2
76 -1 113 -1 635 -1 #SUP: 3
76 -1 149 -1 3 -1 #SUP: 2
76 -1 149 -1 182 -1 #SUP: 2
76 -1 151 -1 3 -1 #SUP: 3
76 -1 151 -1 10 -1 #SUP: 2
76 -1 151 -1 32 -1 #SUP: 2
76 -1 151 -1 250 -1 #SUP: 2
76 -1 151 -1 272 -1 #SUP: 2
76 -1 151 -1 312 -1 #SUP: 2
76 -1 151 -1 342 -1 #SUP: 2
76 -1 151 -1 394 -1 #SUP: 2
76 -1 156 -1 64 -1 #SUP: 2
76 -1 160 -1 3 -1 #SUP: 2
76 -1 182 -1 510 -1 #SUP: 2
76 -1 208 -1 29 -1 #SUP: 2
76 -1 208 -1 76 -1 #SUP: 2
76 -1 242 -1 182 -1 #SUP: 2
76 -1 242 -1 510 -1 #SUP: 2
76 -1 250 -1 32 -1 #SUP: 2
76 -1 375 -1 22 -1 #SUP: 3
76 -1 484 -1 3 -1 #SUP: 2
76 -1 484 -1 113 -1 #SUP: 2
76 -1 484 -1 4777 -1 #SUP: 2
76 -1 557 -1 3 -1 #SUP: 2
76 -1 557 -1 7 -1 #SUP: 2
76 -1 557 -1 22 -1 #SUP: 6
76 -1 557 -1 32 -1 #SUP: 3
76 -1 557 -1 64 -1 #SUP: 2
76 -1 557 -1 113 -1 #SUP: 7
76 -1 557 -1 375 -1 #SUP: 3
76 -1 557 -1 484 -1 #SUP: 3
76 -1 557 -1 2922 -1 #SUP: 2
76 -1 602 -1 113 -1 #SUP: 2
76 -1 613 -1 182 -1 #SUP: 2
76 -1 613 -1 242 -1 #SUP: 2
76 -1 613 -1 510 -1 #SUP: 2
76 -1 904 -1 27 -1 #SUP: 2
76 -1 1111 -1 1879 -1 #SUP: 2
76 -1 1143 -1 484 -1 #SUP: 2
76 -1 1143 -1 4777 -1 #SUP: 2
76 -1 2682 -1 76 -1 #SUP: 2
76 -1 2689 -1 76 -1 #SUP: 2
76 -1 2689 -1 12433 -1 #SUP: 2
76 -1 5691 -1 76 -1 #SUP: 2
76 -1 10187 -1 76 -1 #SUP: 2
76 -1 10187 -1 2682 -1 #SUP: 2
76 -1 12433 -1 76 -1 #SUP: 2
76 -1 12433 -1 10187 -1 #SUP: 2
76 -1 16239 -1 151 -1 #SUP: 2
113 -1 2 -1 50 -1 #SUP: 2
113 -1 2 -1 113 -1 #SUP: 2
113 -1 3 -1 2 -1 #SUP: 4
113 -1 3 -1 22 -1 #SUP: 2
113 -1 3 -1 76 -1 #SUP: 6
113 -1 3 -1 182 -1 #SUP: 2
113 -1 3 -1 278 -1 #SUP: 2
113 -1 3 -1 340 -1 #SUP: 2
113 -1 7 -1 3 -1 #SUP: 3
113 -1 7 -1 10 -1 #SUP: 4
113 -1 7 -1 22 -1 #SUP: 4
113 -1 7 -1 64 -1 #SUP: 2
113 -1 7 -1 65 -1 #SUP: 3
113 -1 7 -1 76 -1 #SUP: 2
113 -1 7 -1 527 -1 #SUP: 2
113 -1 10 -1 168 -1 #SUP: 2
113 -1 10 -1 394 -1 #SUP: 2
113 -1 22 -1 3 -1 #SUP: 3
113 -1 22 -1 10 -1 #SUP: 2
113 -1 22 -1 32 -1 #SUP: 2
113 -1 22 -1 76 -1 #SUP: 2
113 -1 27 -1 76 -1 #SUP: 2
113 -1 32 -1 10 -1 #SUP: 2
113 -1 32 -1 250 -1 #SUP: 2
113 -1 33 -1 22 -1 #SUP: 2
113 -1 41 -1 250 -1 #SUP: 2
113 -1 41 -1 511 -1 #SUP: 2
113 -1 64 -1 2 -1 #SUP: 2
113 -1 64 -1 3 -1 #SUP: 2
113 -1 64 -1 22 -1 #SUP: 4
113 -1 64 -1 76 -1 #SUP: 2
113 -1 65 -1 76 -1 #SUP: 2
113 -1 76 -1 2 -1 #SUP: 4
113 -1 76 -1 27 -1 #SUP: 2
113 -1 76 -1 76 -1 #SUP: 2
113 -1 76 -1 113 -1 #SUP: 5
113 -1 76 -1 375 -1 #SUP: 2
113 -1 76 -1 557 -1 #SUP: 4
113 -1 113 -1 3 -1 #SUP: 2
113 -1 113 -1 7 -1 #SUP: 2
113 -1 113 -1 27 -1 #SUP: 2
113 -1 113 -1 65 -1 #SUP: 2
113 -1 113 -1 76 -1 #SUP: 2
113 -1 113 -1 194 -1 #SUP: 2
113 -1 113 -1 308 -1 #SUP: 2
113 -1 113 -1 613 -1 #SUP: 2
113 -1 118 -1 76 -1 #SUP: 2
113 -1 118 -1 113 -1 #SUP: 2
113 -1 149 -1 22 -1 #SUP: 2
113 -1 151 -1 22 -1 #SUP: 2
113 -1 151 -1 76 -1 #SUP: 2
113 -1 151 -1 113 -1 #SUP: 2
113 -1 151 -1 182 -1 #SUP: 2
113 -1 151 -1 1111 -1 #SUP: 2
113 -1 155 -1 431 -1 #SUP: 2
113 -1 160 -1 76 -1 #SUP: 2
113 -1 168 -1 76 -1 #SUP: 2
113 -1 182 -1 113 -1 #SUP: 2
113 -1 182 -1 510 -1 #SUP: 2
113 -1 182 -1 786 -1 #SUP: 2
113 -1 194 -1 22 -1 #SUP: 2
113 -1 194 -1 32 -1 #SUP: 3
113 -1 194 -1 65 -1 #SUP: 2
113 -1 194 -1 151 -1 #SUP: 2
113 -1 194 -1 250 -1 #SUP: 2
113 -1 194 -1 278 -1 #SUP: 2
113 -1 194 -1 305 -1 #SUP: 2
113 -1 194 -1 342 -1 #SUP: 2
113 -1 194 -1 394 -1 #SUP: 2
113 -1 200 -1 151 -1 #SUP: 2
113 -1 213 -1 160 -1 #SUP: 2
113 -1 242 -1 182 -1 #SUP: 2
113 -1 242 -1 510 -1 #SUP: 2
113 -1 242 -1 786 -1 #SUP: 2
113 -1 250 -1 76 -1 #SUP: 2
113 -1 273 -1 41 -1 #SUP: 2
113 -1 273 -1 511 -1 #SUP: 2
113 -1 278 -1 22 -1 #SUP: 2
113 -1 278 -1 76 -1 #SUP: 2
113 -1 278 -1 305 -1 #SUP: 2
113 -1 278 -1 557 -1 #SUP: 2
113 -1 308 -1 113 -1 #SUP: 2
113 -1 326 -1 113 -1 #SUP: 2
113 -1 340 -1 22 -1 #SUP: 2
113 -1 340 -1 54 -1 #SUP: 2
113 -1 340 -1 76 -1 #SUP: 3
113 -1 371 -1 32 -1 #SUP: 2
113 -1 394 -1 185 -1 #SUP: 2
113 -1 510 -1 786 -1 #SUP: 2
113 -1 527 -1 22 -1 #SUP: 2
113 -1 613 -1 182 -1 #SUP: 2
113 -1 613 -1 242 -1 #SUP: 2
113 -1 613 -1 510 -1 #SUP: 2
113 -1 613 -1 786 -1 #SUP: 2
113 -1 635 -1 182 -1 #SUP: 2
113 -1 786 -1 113 -1 #SUP: 2
113 -1 786 -1 163 -1 #SUP: 2
113 -1 814 -1 22 -1 #SUP: 2
113 -1 814 -1 76 -1 #SUP: 2
113 -1 872 -1 3 -1 #SUP: 2
113 -1 904 -1 76 -1 #SUP: 2
113 -1 904 -1 340 -1 #SUP: 2
113 -1 1225 -1 64 -1 #SUP: 2
113 -1 1640 -1 22 -1 #SUP: 2
118 -1 64 -1 182 -1 #SUP: 2
118 -1 76 -1 113 -1 #SUP: 2
118 -1 155 -1 76 -1 #SUP: 2
118 -1 156 -1 64 -1 #SUP: 2
118 -1 242 -1 113 -1 #SUP: 2
131 -1 76 -1 2 -1 #SUP: 2
131 -1 151 -1 22 -1 #SUP: 2
141 -1 41 -1 3 -1 #SUP: 2
141 -1 41 -1 194 -1 #SUP: 2
141 -1 160 -1 113 -1 #SUP: 2
141 -1 194 -1 3 -1 #SUP: 2
141 -1 194 -1 264 -1 #SUP: 2
141 -1 256 -1 64 -1 #SUP: 2
149 -1 194 -1 32 -1 #SUP: 2
151 -1 64 -1 113 -1 #SUP: 2
151 -1 76 -1 149 -1 #SUP: 2
151 -1 156 -1 76 -1 #SUP: 2
151 -1 182 -1 3 -1 #SUP: 2
151 -1 182 -1 64 -1 #SUP: 2
151 -1 182 -1 76 -1 #SUP: 2
151 -1 216 -1 76 -1 #SUP: 2
151 -1 312 -1 216 -1 #SUP: 2
151 -1 732 -1 76 -1 #SUP: 2
155 -1 22 -1 394 -1 #SUP: 2
155 -1 76 -1 113 -1 #SUP: 2
160 -1 76 -1 2 -1 #SUP: 2
160 -1 76 -1 151 -1 #SUP: 2
160 -1 76 -1 16239 -1 #SUP: 2
160 -1 16239 -1 151 -1 #SUP: 2
168 -1 76 -1 7 -1 #SUP: 2
168 -1 76 -1 141 -1 #SUP: 2
182 -1 3 -1 3 -1 #SUP: 2
182 -1 3 -1 64 -1 #SUP: 2
182 -1 3 -1 182 -1 #SUP: 2
182 -1 64 -1 113 -1 #SUP: 2
182 -1 64 -1 182 -1 #SUP: 2
182 -1 64 -1 758 -1 #SUP: 2
182 -1 64 -1 85149 -1 #SUP: 2
182 -1 76 -1 2 -1 #SUP: 2
182 -1 76 -1 64 -1 #SUP: 2
182 -1 76 -1 113 -1 #SUP: 2
182 -1 76 -1 151 -1 #SUP: 2
182 -1 76 -1 182 -1 #SUP: 3
182 -1 113 -1 113 -1 #SUP: 2
182 -1 113 -1 182 -1 #SUP: 2
182 -1 510 -1 163 -1 #SUP: 2
182 -1 510 -1 786 -1 #SUP: 2
182 -1 758 -1 85149 -1 #SUP: 2
182 -1 786 -1 163 -1 #SUP: 2
194 -1 2 -1 3 -1 #SUP: 2
194 -1 2 -1 113 -1 #SUP: 2
194 -1 3 -1 16 -1 #SUP: 2
194 -1 3 -1 149 -1 #SUP: 2
194 -1 22 -1 3 -1 #SUP: 2
194 -1 22 -1 76 -1 #SUP: 2
194 -1 76 -1 2 -1 #SUP: 2
194 -1 76 -1 113 -1 #SUP: 3
194 -1 76 -1 151 -1 #SUP: 2
194 -1 151 -1 76 -1 #SUP: 2
194 -1 151 -1 182 -1 #SUP: 2
194 -1 182 -1 76 -1 #SUP: 2
194 -1 182 -1 151 -1 #SUP: 2
194 -1 278 -1 2 -1 #SUP: 2
194 -1 278 -1 3 -1 #SUP: 3
194 -1 278 -1 31 -1 #SUP: 2
194 -1 278 -1 76 -1 #SUP: 3
194 -1 278 -1 113 -1 #SUP: 3
194 -1 278 -1 182 -1 #SUP: 2
194 -1 278 -1 305 -1 #SUP: 2
208 -1 29 -1 41 -1 #SUP: 2
208 -1 29 -1 76 -1 #SUP: 2
208 -1 76 -1 41 -1 #SUP: 2
213 -1 2 -1 22 -1 #SUP: 2
213 -1 76 -1 2 -1 #SUP: 2
213 -1 76 -1 22 -1 #SUP: 2
213 -1 76 -1 151 -1 #SUP: 2
213 -1 160 -1 76 -1 #SUP: 2
216 -1 76 -1 113 -1 #SUP: 3
216 -1 268 -1 76 -1 #SUP: 3
216 -1 268 -1 113 -1 #SUP: 4
216 -1 268 -1 450 -1 #SUP: 2
224 -1 113 -1 3 -1 #SUP: 2
232 -1 194 -1 278 -1 #SUP: 2
242 -1 182 -1 163 -1 #SUP: 2
242 -1 182 -1 510 -1 #SUP: 2
242 -1 182 -1 786 -1 #SUP: 2
242 -1 510 -1 163 -1 #SUP: 2
242 -1 510 -1 786 -1 #SUP: 2
242 -1 786 -1 163 -1 #SUP: 2
250 -1 2 -1 32 -1 #SUP: 2
250 -1 76 -1 22 -1 #SUP: 2
250 -1 76 -1 64 -1 #SUP: 2
250 -1 76 -1 113 -1 #SUP: 3
250 -1 76 -1 557 -1 #SUP: 4
250 -1 113 -1 64 -1 #SUP: 2
250 -1 557 -1 22 -1 #SUP: 2
250 -1 557 -1 64 -1 #SUP: 2
250 -1 557 -1 113 -1 #SUP: 2
250 -1 2050 -1 76 -1 #SUP: 2
250 -1 2050 -1 557 -1 #SUP: 2
256 -1 244 -1 190 -1 #SUP: 2
256 -1 549 -1 190 -1 #SUP: 2
256 -1 549 -1 244 -1 #SUP: 2
268 -1 7 -1 76 -1 #SUP: 2
268 -1 22 -1 342 -1 #SUP: 2
268 -1 65 -1 141 -1 #SUP: 2
268 -1 76 -1 113 -1 #SUP: 3
273 -1 41 -1 511 -1 #SUP: 2
278 -1 2 -1 113 -1 #SUP: 2
278 -1 3 -1 1433 -1 #SUP: 2
278 -1 22 -1 3 -1 #SUP: 2
278 -1 22 -1 76 -1 #SUP: 3
278 -1 22 -1 1433 -1 #SUP: 2
278 -1 76 -1 2 -1 #SUP: 2
278 -1 76 -1 3 -1 #SUP: 3
278 -1 76 -1 22 -1 #SUP: 2
278 -1 76 -1 113 -1 #SUP: 4
278 -1 76 -1 557 -1 #SUP: 3
278 -1 76 -1 1433 -1 #SUP: 2
278 -1 557 -1 22 -1 #SUP: 2
278 -1 557 -1 113 -1 #SUP: 2
282 -1 64 -1 141 -1 #SUP: 2
340 -1 7 -1 10 -1 #SUP: 2
340 -1 22 -1 32 -1 #SUP: 2
340 -1 64 -1 22 -1 #SUP: 2
340 -1 76 -1 2 -1 #SUP: 2
340 -1 76 -1 32 -1 #SUP: 2
340 -1 76 -1 151 -1 #SUP: 2
340 -1 76 -1 250 -1 #SUP: 2
340 -1 250 -1 32 -1 #SUP: 2
342 -1 10 -1 22 -1 #SUP: 2
342 -1 76 -1 113 -1 #SUP: 2
342 -1 76 -1 375 -1 #SUP: 2
342 -1 76 -1 557 -1 #SUP: 2
342 -1 557 -1 375 -1 #SUP: 2
342 -1 1075 -1 76 -1 #SUP: 2
342 -1 1075 -1 342 -1 #SUP: 2
371 -1 76 -1 557 -1 #SUP: 2
371 -1 194 -1 2222 -1 #SUP: 2
375 -1 2 -1 113 -1 #SUP: 2
375 -1 22 -1 2 -1 #SUP: 2
375 -1 22 -1 76 -1 #SUP: 2
375 -1 22 -1 113 -1 #SUP: 2
375 -1 64 -1 22 -1 #SUP: 2
375 -1 76 -1 2 -1 #SUP: 2
375 -1 76 -1 113 -1 #SUP: 3
375 -1 194 -1 2 -1 #SUP: 2
375 -1 194 -1 76 -1 #SUP: 2
375 -1 194 -1 113 -1 #SUP: 2
375 -1 194 -1 278 -1 #SUP: 2
375 -1 278 -1 2 -1 #SUP: 2
375 -1 278 -1 76 -1 #SUP: 2
375 -1 278 -1 113 -1 #SUP: 2
375 -1 2222 -1 64 -1 #SUP: 2
394 -1 7 -1 64 -1 #SUP: 2
394 -1 76 -1 3 -1 #SUP: 2
431 -1 3 -1 64 -1 #SUP: 2
431 -1 76 -1 2 -1 #SUP: 2
443 -1 636 -1 113 -1 #SUP: 2
445 -1 10 -1 22 -1 #SUP: 2
484 -1 27 -1 213 -1 #SUP: 2
510 -1 786 -1 163 -1 #SUP: 2
510 -1 864 -1 64 -1 #SUP: 2
549 -1 244 -1 190 -1 #SUP: 2
553 -1 76 -1 113 -1 #SUP: 2
557 -1 22 -1 32 -1 #SUP: 3
557 -1 22 -1 484 -1 #SUP: 2
557 -1 113 -1 22 -1 #SUP: 2
557 -1 113 -1 32 -1 #SUP: 2
557 -1 375 -1 22 -1 #SUP: 2
599 -1 64 -1 76 -1 #SUP: 2
613 -1 182 -1 163 -1 #SUP: 2
613 -1 182 -1 510 -1 #SUP: 2
613 -1 182 -1 786 -1 #SUP: 2
613 -1 242 -1 163 -1 #SUP: 2
613 -1 242 -1 182 -1 #SUP: 2
613 -1 242 -1 510 -1 #SUP: 2
613 -1 242 -1 786 -1 #SUP: 2
613 -1 510 -1 163 -1 #SUP: 2
613 -1 510 -1 786 -1 #SUP: 2
613 -1 786 -1 163 -1 #SUP: 2
635 -1 76 -1 113 -1 #SUP: 2
636 -1 113 -1 342 -1 #SUP: 2
732 -1 76 -1 3 -1 #SUP: 2
732 -1 278 -1 76 -1 #SUP: 2
732 -1 278 -1 149 -1 #SUP: 2
763 -1 763 -1 763 -1 #SUP: 3
814 -1 22 -1 76 -1 #SUP: 2
817 -1 76 -1 76 -1 #SUP: 2
904 -1 340 -1 76 -1 #SUP: 2
1111 -1 1879 -1 113 -1 #SUP: 2
1119 -1 113 -1 3 -1 #SUP: 2
1143 -1 484 -1 4777 -1 #SUP: 2
1498 -1 64 -1 113 -1 #SUP: 2
1498 -1 113 -1 64 -1 #SUP: 2
1498 -1 113 -1 182 -1 #SUP: 2
2050 -1 76 -1 557 -1 #SUP: 2
2222 -1 76 -1 113 -1 #SUP: 2
2222 -1 76 -1 557 -1 #SUP: 2
2222 -1 557 -1 113 -1 #SUP: 2
2310 -1 22 -1 342 -1 #SUP: 2
2689 -1 76 -1 76 -1 #SUP: 3
2689 -1 76 -1 2682 -1 #SUP: 2
2689 -1 76 -1 5691 -1 #SUP: 2
2689 -1 76 -1 10187 -1 #SUP: 2
2689 -1 76 -1 12433 -1 #SUP: 2
2689 -1 2682 -1 76 -1 #SUP: 2
2689 -1 12433 -1 76 -1 #SUP: 2
5520 -1 22 -1 342 -1 #SUP: 2
5520 -1 2310 -1 22 -1 #SUP: 2
5520 -1 2310 -1 342 -1 #SUP: 2
5691 -1 76 -1 76 -1 #SUP: 2
5691 -1 76 -1 1143 -1 #SUP: 2
10491 -1 14225 -1 163 -1 #SUP: 2
12433 -1 76 -1 76 -1 #SUP: 2
12433 -1 76 -1 10187 -1 #SUP: 2
12433 -1 10187 -1 76 -1 #SUP: 2
2 -1 113 -1 194 -1 394 -1 #SUP: 2
3 -1 64 -1 76 -1 2 -1 #SUP: 2
3 -1 76 -1 2 -1 113 -1 #SUP: 3
3 -1 76 -1 151 -1 3 -1 #SUP: 2
3 -1 76 -1 557 -1 22 -1 #SUP: 2
3 -1 278 -1 22 -1 3 -1 #SUP: 2
3 -1 278 -1 76 -1 3 -1 #SUP: 2
3 -1 340 -1 76 -1 151 -1 #SUP: 2
7 -1 64 -1 141 -1 160 -1 #SUP: 2
22 -1 54 -1 113 -1 3 -1 #SUP: 2
22 -1 54 -1 113 -1 278 -1 #SUP: 2
22 -1 76 -1 2 -1 69 -1 #SUP: 2
22 -1 76 -1 2 -1 151 -1 #SUP: 2
22 -1 76 -1 113 -1 3 -1 #SUP: 2
22 -1 76 -1 113 -1 182 -1 #SUP: 2
22 -1 76 -1 557 -1 113 -1 #SUP: 2
22 -1 213 -1 76 -1 2 -1 #SUP: 2
41 -1 3 -1 16472 -1 163 -1 #SUP: 2
54 -1 113 -1 194 -1 22 -1 #SUP: 2
54 -1 113 -1 194 -1 32 -1 #SUP: 2
64 -1 33 -1 22 -1 76 -1 #SUP: 2
64 -1 33 -1 22 -1 439 -1 #SUP: 2
64 -1 141 -1 160 -1 113 -1 #SUP: 2
64 -1 182 -1 76 -1 64 -1 #SUP: 2
69 -1 2310 -1 22 -1 342 -1 #SUP: 2
69 -1 5520 -1 22 -1 342 -1 #SUP: 2
69 -1 5520 -1 2310 -1 22 -1 #SUP: 2
69 -1 5520 -1 2310 -1 342 -1 #SUP: 2
76 -1 2 -1 22 -1 113 -1 #SUP: 2
76 -1 2 -1 113 -1 3 -1 #SUP: 2
76 -1 2 -1 113 -1 151 -1 #SUP: 2
76 -1 2 -1 113 -1 272 -1 #SUP: 2
76 -1 2 -1 151 -1 10 -1 #SUP: 2
76 -1 2 -1 151 -1 272 -1 #SUP: 2
76 -1 2 -1 151 -1 394 -1 #SUP: 2
76 -1 22 -1 76 -1 113 -1 #SUP: 2
76 -1 76 -1 76 -1 76 -1 #SUP: 4
76 -1 76 -1 76 -1 2689 -1 #SUP: 2
76 -1 76 -1 76 -1 10187 -1 #SUP: 2
76 -1 76 -1 76 -1 12433 -1 #SUP: 2
76 -1 76 -1 484 -1 4777 -1 #SUP: 2
76 -1 76 -1 1143 -1 484 -1 #SUP: 2
76 -1 76 -1 1143 -1 4777 -1 #SUP: 2
76 -1 76 -1 2689 -1 76 -1 #SUP: 2
76 -1 76 -1 10187 -1 76 -1 #SUP: 2
76 -1 76 -1 10187 -1 2682 -1 #SUP: 2
76 -1 76 -1 12433 -1 76 -1 #SUP: 2
76 -1 113 -1 182 -1 510 -1 #SUP: 2
76 -1 113 -1 242 -1 182 -1 #SUP: 2
76 -1 113 -1 242 -1 510 -1 #SUP: 2
76 -1 113 -1 613 -1 182 -1 #SUP: 2
76 -1 113 -1 613 -1 242 -1 #SUP: 2
76 -1 113 -1 613 -1 510 -1 #SUP: 2
76 -1 208 -1 29 -1 76 -1 #SUP: 2
76 -1 242 -1 182 -1 510 -1 #SUP: 2
76 -1 557 -1 22 -1 32 -1 #SUP: 2
76 -1 557 -1 22 -1 484 -1 #SUP: 2
76 -1 557 -1 113 -1 22 -1 #SUP: 2
76 -1 557 -1 375 -1 22 -1 #SUP: 2
76 -1 613 -1 182 -1 510 -1 #SUP: 2
76 -1 613 -1 242 -1 182 -1 #SUP: 2
76 -1 613 -1 242 -1 510 -1 #SUP: 2
76 -1 1143 -1 484 -1 4777 -1 #SUP: 2
76 -1 2689 -1 76 -1 76 -1 #SUP: 2
76 -1 2689 -1 76 -1 12433 -1 #SUP: 2
76 -1 2689 -1 12433 -1 76 -1 #SUP: 2
76 -1 5691 -1 76 -1 76 -1 #SUP: 2
76 -1 12433 -1 76 -1 76 -1 #SUP: 2
76 -1 12433 -1 76 -1 10187 -1 #SUP: 2
76 -1 12433 -1 10187 -1 76 -1 #SUP: 2
113 -1 3 -1 76 -1 2 -1 #SUP: 3
113 -1 3 -1 340 -1 76 -1 #SUP: 2
113 -1 7 -1 527 -1 22 -1 #SUP: 2
113 -1 64 -1 76 -1 2 -1 #SUP: 2
113 -1 76 -1 113 -1 27 -1 #SUP: 2
113 -1 182 -1 510 -1 786 -1 #SUP: 2
113 -1 194 -1 278 -1 305 -1 #SUP: 2
113 -1 242 -1 182 -1 510 -1 #SUP: 2
113 -1 242 -1 182 -1 786 -1 #SUP: 2
113 -1 242 -1 510 -1 786 -1 #SUP: 2
113 -1 273 -1 41 -1 511 -1 #SUP: 2
113 -1 278 -1 76 -1 557 -1 #SUP: 2
113 -1 613 -1 182 -1 510 -1 #SUP: 2
113 -1 613 -1 182 -1 786 -1 #SUP: 2
113 -1 613 -1 242 -1 182 -1 #SUP: 2
113 -1 613 -1 242 -1 510 -1 #SUP: 2
113 -1 613 -1 242 -1 786 -1 #SUP: 2
113 -1 613 -1 510 -1 786 -1 #SUP: 2
113 -1 814 -1 22 -1 76 -1 #SUP: 2
113 -1 904 -1 340 -1 76 -1 #SUP: 2
141 -1 41 -1 194 -1 3 -1 #SUP: 2
160 -1 76 -1 16239 -1 151 -1 #SUP: 2
182 -1 64 -1 758 -1 85149 -1 #SUP: 2
182 -1 510 -1 786 -1 163 -1 #SUP: 2
194 -1 76 -1 2 -1 113 -1 #SUP: 2
194 -1 182 -1 76 -1 151 -1 #SUP: 2
194 -1 278 -1 2 -1 113 -1 #SUP: 2
194 -1 278 -1 76 -1 2 -1 #SUP: 2
194 -1 278 -1 76 -1 113 -1 #SUP: 3
208 -1 29 -1 76 -1 41 -1 #SUP: 2
213 -1 76 -1 2 -1 22 -1 #SUP: 2
216 -1 268 -1 76 -1 113 -1 #SUP: 3
242 -1 182 -1 510 -1 163 -1 #SUP: 2
242 -1 182 -1 510 -1 786 -1 #SUP: 2
242 -1 182 -1 786 -1 163 -1 #SUP: 2
242 -1 510 -1 786 -1 163 -1 #SUP: 2
250 -1 76 -1 557 -1 22 -1 #SUP: 2
250 -1 76 -1 557 -1 64 -1 #SUP: 2
250 -1 76 -1 557 -1 113 -1 #SUP: 2
250 -1 2050 -1 76 -1 557 -1 #SUP: 2
256 -1 549 -1 244 -1 190 -1 #SUP: 2
278 -1 22 -1 3 -1 1433 -1 #SUP: 2
278 -1 76 -1 2 -1 113 -1 #SUP: 2
278 -1 76 -1 3 -1 1433 -1 #SUP: 2
278 -1 76 -1 557 -1 22 -1 #SUP: 2
278 -1 76 -1 557 -1 113 -1 #SUP: 2
340 -1 76 -1 250 -1 32 -1 #SUP: 2
342 -1 76 -1 557 -1 375 -1 #SUP: 2
375 -1 22 -1 76 -1 113 -1 #SUP: 2
375 -1 76 -1 2 -1 113 -1 #SUP: 2
375 -1 194 -1 2 -1 113 -1 #SUP: 2
375 -1 194 -1 76 -1 2 -1 #SUP: 2
375 -1 194 -1 76 -1 113 -1 #SUP: 2
375 -1 194 -1 278 -1 2 -1 #SUP: 2
375 -1 194 -1 278 -1 76 -1 #SUP: 2
375 -1 194 -1 278 -1 113 -1 #SUP: 2
375 -1 278 -1 2 -1 113 -1 #SUP: 2
375 -1 278 -1 76 -1 2 -1 #SUP: 2
375 -1 278 -1 76 -1 113 -1 #SUP: 2
557 -1 113 -1 22 -1 32 -1 #SUP: 2
613 -1 182 -1 510 -1 163 -1 #SUP: 2
613 -1 182 -1 510 -1 786 -1 #SUP: 2
613 -1 182 -1 786 -1 163 -1 #SUP: 2
613 -1 242 -1 182 -1 163 -1 #SUP: 2
613 -1 242 -1 182 -1 510 -1 #SUP: 2
613 -1 242 -1 182 -1 786 -1 #SUP: 2
613 -1 242 -1 510 -1 163 -1 #SUP: 2
613 -1 242 -1 510 -1 786 -1 #SUP: 2
613 -1 242 -1 786 -1 163 -1 #SUP: 2
613 -1 510 -1 786 -1 163 -1 #SUP: 2
2222 -1 76 -1 557 -1 113 -1 #SUP: 2
2689 -1 76 -1 76 -1 76 -1 #SUP: 3
2689 -1 76 -1 76 -1 10187 -1 #SUP: 2
2689 -1 76 -1 2682 -1 76 -1 #SUP: 2
2689 -1 76 -1 12433 -1 76 -1 #SUP: 2
5520 -1 2310 -1 22 -1 342 -1 #SUP: 2
5691 -1 76 -1 76 -1 1143 -1 #SUP: 2
12433 -1 76 -1 76 -1 76 -1 #SUP: 2
12433 -1 76 -1 10187 -1 76 -1 #SUP: 2
69 -1 5520 -1 2310 -1 22 -1 342 -1 #SUP: 2
76 -1 76 -1 1143 -1 484 -1 4777 -1 #SUP: 2
76 -1 113 -1 242 -1 182 -1 510 -1 #SUP: 2
76 -1 113 -1 613 -1 182 -1 510 -1 #SUP: 2
76 -1 113 -1 613 -1 242 -1 182 -1 #SUP: 2
76 -1 113 -1 613 -1 242 -1 510 -1 #SUP: 2
76 -1 613 -1 242 -1 182 -1 510 -1 #SUP: 2
76 -1 2689 -1 76 -1 12433 -1 76 -1 #SUP: 2
76 -1 12433 -1 76 -1 76 -1 76 -1 #SUP: 2
76 -1 12433 -1 76 -1 10187 -1 76 -1 #SUP: 2
113 -1 242 -1 182 -1 510 -1 786 -1 #SUP: 2
113 -1 613 -1 182 -1 510 -1 786 -1 #SUP: 2
113 -1 613 -1 242 -1 182 -1 510 -1 #SUP: 2
113 -1 613 -1 242 -1 182 -1 786 -1 #SUP: 2
113 -1 613 -1 242 -1 510 -1 786 -1 #SUP: 2
194 -1 278 -1 76 -1 2 -1 113 -1 #SUP: 2
242 -1 182 -1 510 -1 786 -1 163 -1 #SUP: 2
375 -1 194 -1 76 -1 2 -1 113 -1 #SUP: 2
375 -1 194 -1 278 -1 2 -1 113 -1 #SUP: 2
375 -1 194 -1 278 -1 76 -1 2 -1 #SUP: 2
375 -1 194 -1 278 -1 76 -1 113 -1 #SUP: 2
375 -1 278 -1 76 -1 2 -1 113 -1 #SUP: 2
613 -1 182 -1 510 -1 786 -1 163 -1 #SUP: 2
613 -1 242 -1 182 -1 510 -1 163 -1 #SUP: 2
613 -1 242 -1 182 -1 510 -1 786 -1 #SUP: 2
613 -1 242 -1 182 -1 786 -1 163 -1 #SUP: 2
613 -1 242 -1 510 -1 786 -1 163 -1 #SUP: 2
76 -1 113 -1 613 -1 242 -1 182 -1 510 -1 #SUP: 2
113 -1 613 -1 242 -1 182 -1 510 -1 786 -1 #SUP: 2
375 -1 194 -1 278 -1 76 -1 2 -1 113 -1 #SUP: 2
613 -1 242 -1 182 -1 510 -1 786 -1 163 -1 #SUP: 2
