41 -1 326 -1 29 -1 312 -1 997 -1 604 -1 158 -1 41 -1 636 -1 22 -1 511 -1 29 -1 8569 -1 2319 -1 41 -1 7 -1 22 -1 628 -1 276 -1 64 -1 277 -1 30 -2
469 -1 139 -1 262 -1 2 -1 41 -1 277 -1 22 -1 276 -1 1172 -1 30 -2
469 -1 256 -1 4652 -1 158 -1 41 -1 504 -1 424 -1 484 -1 30 -2
4357 -1 29 -1 54521 -1 31 -1 22 -1 2369 -1 296 -1 42 -1 878 -1 1077 -1 64 -1 22 -1 12719 -1 30 -2
41 -1 506 -1 33 -1 22 -1 3847 -1 1670 -1 158 -1 22 -1 52393 -1 715 -1 29 -1 32154 -1 31 -1 65 -1 4364 -1 2369 -1 30 -2
179 -1 41 -1 7 -1 65 -1 163 -1 2931 -1 31 -1 30 -2
48100 -1 30 -2
182 -1 3 -1 406 -1 234 -1 1277 -1 30 -2
113 -1 226 -1 10 -1 3486 -1 2 -1 7 -1 3 -1 2650 -1 10 -1 266 -1 9961 -1 30 -2
1679 -1 81389 -1 250 -1 39 -1 613 -1 30 -2
11179 -1 247 -1 238 -1 22 -1 1139 -1 268 -1 4031 -1 153 -1 2 -1 138 -1 143 -1 529 -1 634 -1 8657 -1 31 -1 38838 -1 8072 -1 7193 -1 492 -1 634 -1 8037 -1 31 -1 1272 -1 8072 -1 7193 -1 868 -1 30 -2
81390 -1 113 -1 493 -1 1225 -1 160 -1 41 -1 30 -2
1223 -1 22 -1 997 -1 3 -1 1282 -1 10 -1 76 -1 131 -1 7 -1 22 -1 6001 -1 64 -1 3 -1 163 -1 115 -1 30 -2
113 -1 7 -1 316 -1 2072 -1 160 -1 3189 -1 30 -2
27 -1 1478 -1 3 -1 41 -1 10 -1 1 -2
7 -1 41 -1 308 -1 250 -1 30 -1 30 -1 50 -1 495 -1 296 -1 179 -1 3 -1 1191 -1 77 -1 1603 -1 77 -1 50 -1 529 -1 30 -2
113 -1 699 -1 64 -1 13623 -1 182 -1 500 -1 225 -1 881 -1 30 -2
2 -1 50 -1 490 -1 7 -1 6418 -1 113 -1 10 -1 266 -1 1148 -1 8406 -1 2 -1 39503 -1 2643 -1 30 -2
1498 -1 358 -1 278 -1 22 -1 30 -2
224 -1 113 -1 3 -1 1705 -1 250 -1 3 -1 264 -1 113 -1 161 -1 194 -1 278 -1 860 -1 148 -1 150 -1 409 -1 30 -2
50 -1 576 -1 46 -1 3 -1 401 -1 64 -1 7 -1 289 -1 30 -2
113 -1 598 -1 178 -1 154 -1 212 -1 168 -1 289 -1 76 -1 484 -1 2063 -1 155 -1 64 -1 1483 -1 165 -1 3 -1 65 -1 386 -1 1589 -1 30 -2
113 -1 2460 -1 75 -1 160 -1 22 -1 289 -1 242 -1 305 -1 1106 -1 3 -1 50 -1 576 -1 30 -2
34748 -1 1370 -1 1374 -1 2124 -1 12629 -1 555 -1 554 -1 510 -1 182 -1 484 -1 287 -1 41 -1 1678 -1 254 -1 29 -1 4514 -1 2 -1 7 -1 182 -1 76 -1 185 -1 351 -1 854 -1 471 -1 3 -1 312 -1 687 -1 10 -1 2573 -1 8941 -1 81391 -1 113 -1 7596 -1 149 -1 144 -1 113 -1 30 -2
12554 -1 30 -2
1473 -1 182 -1 30 -2
113 -1 200 -1 442 -1 10927 -1 33 -1 635 -1 1767 -1 443 -1 30 -2
81392 -1 113 -1 340 -1 857 -1 2 -1 4044 -1 30 -2
277 -1 891 -1 4044 -1 23084 -1 296 -1 179 -1 30 -2
593 -1 2648 -1 141 -1 30 -2
113 -1 710 -1 81 -1 64 -1 18705 -1 1840 -1 10 -1 22 -1 783 -1 32 -1 312 -1 1009 -1 30 -2
200 -1 3363 -1 131 -1 340 -1 250 -1 251 -1 3 -1 4216 -1 30 -2
182 -1 641 -1 340 -1 41 -1 3 -1 1178 -1 186 -1 156 -1 64 -1 18705 -1 1840 -1 30 -2
463 -1 2599 -1 1423 -1 154 -1 64 -1 30 -2
141 -1 41 -1 326 -1 22 -1 421 -1 32 -1 22 -1 431 -1 3363 -1 30 -2
2599 -1 76 -1 786 -1 1807 -1 35 -1 1 -2
1009 -1 1052 -1 185 -1 266 -1 5439 -1 10 -1 165 -1 44 -1 30 -2
417 -1 66 -1 326 -1 22 -1 6163 -1 32 -1 153 -1 3683 -1 22 -1 2754 -1 30 -2
50 -1 1287 -1 3 -1 686 -1 30 -2
686 -1 3 -1 48 -1 22 -1 15 -1 1206 -1 1 -2
244 -1 312 -1 10817 -1 4658 -1 149 -1 1223 -1 30 -2
686 -1 3 -1 3062 -1 484 -1 1141 -1 3683 -1 1273 -1 76 -1 30 -2
16536 -1 2 -1 2743 -1 30 -2
148 -1 1206 -1 153 -1 3 -1 148 -1 10 -1 2743 -1 484 -1 65 -1 71 -1 81393 -1 64 -1 131 -1 503 -1 30 -2
47871 -1 15563 -1 3984 -1 32 -1 22 -1 1317 -1 717 -1 2 -1 201 -1 1116 -1 2 -1 2510 -1 32 -1 229 -1 153 -1 81394 -1 6084 -1 139 -1 154 -1 160 -1 635 -1 1511 -1 2229 -1 4832 -1 2 -1 6856 -1 31 -1 22 -1 7130 -1 30 -2
11860 -1 2123 -1 64 -1 277 -1 250 -1 1116 -1 30 -2
686 -1 118 -1 131 -1 510 -1 182 -1 1904 -1 1 -2
113 -1 124 -1 186 -1 896 -1 64 -1 326 -1 273 -1 15844 -1 1856 -1 10 -1 160 -1 3149 -1 296 -1 1 -2
113 -1 161 -1 474 -1 677 -1 150 -1 1099 -1 30 -2
113 -1 7 -1 527 -1 854 -1 10 -1 3460 -1 1099 -1 76 -1 72 -1 141 -1 182 -1 224 -1 182 -1 510 -1 22 -1 737 -1 148 -1 950 -1 76 -1 860 -1 494 -1 64 -1 22 -1 490 -1 30 -2
69 -1 4896 -1 30 -2
113 -1 72 -1 1099 -1 65 -1 1100 -1 158 -1 714 -1 65 -1 781 -1 30 -2
131 -1 889 -1 19554 -1 8295 -1 31 -1 29 -1 4329 -1 4718 -1 30 -2
22 -1 11 -1 504 -1 76 -1 41 -1 2624 -1 7 -1 2460 -1 240 -1 5320 -1 33 -1 113 -1 30 -2
113 -1 340 -1 469 -1 419 -1 64 -1 16 -1 636 -1 469 -1 182 -1 3 -1 872 -1 2422 -1 30 -1 165 -1 44 -1 548 -1 3 -1 3422 -1 271 -2
113 -1 2348 -1 1489 -1 12430 -1 49470 -1 30 -2
872 -1 76 -1 997 -1 92 -1 271 -2
113 -1 194 -1 997 -1 187 -1 349 -1 643 -1 30 -2
1733 -1 113 -1 194 -1 417 -1 7 -1 22 -1 129 -1 143 -1 76 -1 200 -1 10 -1 65 -1 791 -1 889 -1 1035 -1 30 -2
113 -1 3 -1 200 -1 3 -1 1217 -1 76 -1 557 -1 2004 -1 30 -2
686 -1 141 -1 41 -1 1418 -1 50 -1 153 -1 1 -2
234 -1 76 -1 342 -1 312 -1 997 -1 30 -2
16 -1 364 -1 64 -1 504 -1 242 -1 417 -1 3 -1 22 -1 163 -1 271 -2
115 -1 502 -1 113 -1 786 -1 340 -1 997 -1 3 -1 15 -1 340 -1 827 -1 30 -2
22 -1 1120 -1 113 -1 243 -1 76 -1 997 -1 3 -1 65 -1 1100 -1 340 -1 11 -1 77 -1 234 -1 30 -2
113 -1 4856 -1 15 -1 22 -1 15 -1 1145 -1 30 -2
41 -1 403 -1 483 -1 213 -1 2191 -1 17328 -1 76 -1 4527 -1 76 -1 741 -1 76 -1 11141 -1 30 -2
11308 -1 3 -1 50 -1 177 -1 2379 -1 30 -2
702 -1 641 -1 340 -1 65 -1 2464 -1 76 -1 557 -1 200 -1 1640 -1 30 -2
250 -1 3 -1 712 -1 271 -2
113 -1 7 -1 65 -1 81395 -1 11021 -1 3261 -1 30 -2
182 -1 758 -1 2373 -1 75 -1 30 -2
453 -1 2063 -1 155 -1 64 -1 22 -1 844 -1 30 -2
158 -1 182 -1 3 -1 278 -1 64 -1 844 -1 33 -1 22 -1 750 -1 148 -1 150 -1 545 -1 75 -1 149 -1 65 -1 1100 -1 113 -1 2375 -1 549 -1 244 -1 30 -2
771 -1 76 -1 510 -1 31 -1 312 -1 976 -1 44 -1 115 -1 22 -1 12719 -1 9315 -1 160 -1 45687 -1 30 -2
165 -1 2639 -1 6501 -1 76 -1 165 -1 1795 -1 30 -2
113 -1 482 -1 2549 -1 549 -1 6501 -1 30 -2
113 -1 694 -1 65 -1 14667 -1 244 -1 9078 -1 352 -1 1168 -1 64 -1 8151 -1 47 -1 6501 -1 76 -1 2549 -1 131 -1 549 -1 30 -2
273 -1 64 -1 636 -1 19960 -1 244 -1 5659 -1 864 -1 22 -1 81396 -1 2636 -1 1511 -1 1183 -1 32 -1 2654 -1 691 -1 529 -1 495 -1 2 -1 492 -1 487 -1 6840 -1 32 -1 153 -1 30 -2
113 -1 194 -1 41 -1 1621 -1 250 -1 406 -1 234 -1 30 -2
77 -1 312 -1 997 -1 113 -1 7 -1 65 -1 406 -1 4803 -1 611 -1 495 -1 76 -1 2 -1 72 -1 443 -1 1996 -1 268 -1 601 -1 22 -1 1139 -1 443 -1 30 -2
2548 -1 76 -1 714 -1 22 -1 997 -1 151 -1 3 -1 22 -1 15 -1 2756 -1 30 -2
50 -1 72 -1 501 -1 33 -1 250 -1 1215 -1 3 -1 64 -1 1193 -1 1287 -1 76 -1 1449 -1 686 -1 2 -1 273 -1 54 -1 692 -1 30 -2
151 -1 2 -1 91 -1 76 -1 571 -1 76 -1 2 -1 409 -1 76 -1 2 -1 65 -1 2825 -1 2430 -1 2 -1 30 -2
41 -1 118 -1 8154 -1 29 -1 6628 -1 242 -1 76 -1 1396 -1 76 -1 182 -1 453 -1 692 -1 1093 -1 30 -2
41 -1 211 -1 7 -1 29 -1 9944 -1 2776 -1 33 -1 11819 -1 76 -1 242 -1 41 -1 208 -1 211 -1 62 -1 182 -1 463 -1 1077 -1 30 -2
113 -1 141 -1 54 -1 10 -1 20650 -1 200 -1 64 -1 256 -1 500 -1 115 -1 189 -1 30 -2
221 -1 224 -1 113 -1 326 -1 151 -1 113 -1 2624 -1 76 -1 462 -1 113 -1 200 -1 1678 -1 613 -1 388 -1 30 -2
113 -1 209 -1 2627 -1 160 -1 213 -1 200 -1 64 -1 256 -1 65 -1 2785 -1 187 -1 32 -1 131 -1 30 -2
1615 -1 64 -1 256 -1 30 -2
113 -1 493 -1 1225 -1 76 -1 113 -1 571 -1 64 -1 3 -1 867 -1 2 -1 867 -1 500 -1 30 -2
144 -1 261 -1 2 -1 256 -1 131 -1 500 -1 3 -1 50 -1 931 -1 32 -1 1527 -1 2 -1 182 -1 1487 -1 1952 -1 225 -1 409 -1 30 -2
224 -1 41 -1 248 -1 340 -1 22 -1 348 -1 2 -1 326 -1 27 -1 41 -1 3 -1 30 -2
158 -1 41 -1 5445 -1 1017 -1 76 -1 16 -1 200 -1 923 -1 30 -2
340 -1 584 -1 2 -1 507 -1 30 -2
22 -1 72 -1 555 -1 127 -1 3 -1 16 -1 64 -1 17 -1 30 -2
4813 -1 76 -1 714 -1 872 -1 932 -1 71 -1 31 -1 831 -1 64 -1 308 -1 908 -1 151 -1 3 -1 16 -1 190 -1 242 -1 644 -1 644 -1 9293 -1 352 -1 262 -1 4079 -1 7 -1 65 -1 234 -1 2219 -1 115 -1 4035 -1 30 -2
356 -1 22 -1 443 -1 76 -1 113 -1 442 -1 77 -1 312 -1 997 -1 30 -2
113 -1 76 -1 554 -1 76 -1 483 -1 3 -1 1802 -1 9141 -1 30 -1 268 -1 3 -1 340 -1 1996 -1 76 -1 484 -1 113 -1 786 -1 340 -1 113 -1 272 -1 1930 -1 1031 -1 394 -1 2 -1 123 -1 3 -1 312 -1 827 -1 30 -2
557 -1 342 -1 2004 -1 113 -1 3 -1 312 -1 997 -1 242 -1 113 -1 1521 -1 148 -1 64 -1 22 -1 30 -2
771 -1 76 -1 1515 -1 1225 -1 148 -1 30 -2
113 -1 340 -1 4477 -1 30 -2
158 -1 22 -1 8309 -1 14438 -1 139 -1 154 -1 31 -1 1371 -1 76 -1 131 -1 72 -1 4716 -1 64 -1 1371 -1 76 -1 186 -1 156 -1 64 -1 6670 -1 182 -1 30 -2
182 -1 3 -1 66 -1 31 -1 999 -1 76 -1 557 -1 131 -1 3 -1 66 -1 33 -1 22 -1 129 -1 30 -2
16 -1 225 -1 167 -1 106 -1 179 -1 30 -2
113 -1 141 -1 463 -1 601 -1 65 -1 9171 -1 22 -1 56973 -1 9012 -1 3543 -1 158 -1 113 -1 3 -1 545 -1 30 -1 2 -1 113 -1 815 -1 340 -1 22793 -1 471 -1 30 -2
208 -1 417 -1 3 -1 46 -1 1 -2
1101 -1 340 -1 1594 -1 149 -1 16 -1 860 -1 420 -1 312 -1 997 -1 54 -1 76 -1 2931 -1 50 -1 5253 -1 30 -2
69 -1 676 -1 113 -1 571 -1 54 -1 340 -1 43425 -1 9961 -1 76 -1 2543 -1 76 -1 1883 -1 10178 -1 76 -1 6087 -1 44 -1 76 -1 5215 -1 76 -1 273 -1 64 -1 1058 -1 29 -1 3120 -1 76 -1 30 -2
29 -1 65 -1 4133 -1 158 -1 41 -1 2595 -1 22 -1 10521 -1 7734 -1 6670 -1 30 -2
41 -1 194 -1 160 -1 29 -1 542 -1 2 -1 16 -1 29 -1 1313 -1 30 -2
4133 -1 1615 -1 64 -1 3 -1 637 -1 403 -1 10 -1 1273 -1 2 -1 14703 -1 30 -2
113 -1 7 -1 482 -1 3 -1 706 -1 64 -1 256 -1 225 -1 1812 -1 32 -1 22 -1 2017 -1 76 -1 2696 -1 9883 -1 76 -1 2 -1 201 -1 30 -2
113 -1 141 -1 209 -1 635 -1 81397 -1 497 -1 30 -2
113 -1 758 -1 62 -1 278 -1 106 -1 32 -1 6059 -1 76 -1 557 -1 371 -1 81 -1 182 -1 187 -1 2222 -1 30 -2
3 -1 250 -1 312 -1 997 -1 30 -2
2373 -1 1287 -1 76 -1 113 -1 3 -1 904 -1 22 -1 129 -1 54 -1 30 -2
113 -1 7 -1 65 -1 1096 -1 339 -1 2 -1 342 -1 194 -1 278 -1 1073 -1 154 -1 160 -1 312 -1 11 -1 153 -1 76 -1 149 -1 189 -1 151 -1 3 -1 163 -1 32 -1 6198 -1 339 -1 2 -1 3 -1 406 -1 4568 -1 2 -1 30 -2
997 -1 1624 -1 342 -1 200 -1 179 -1 358 -1 278 -1 22 -1 2719 -1 32 -1 50 -1 153 -1 76 -1 997 -1 76 -1 64 -1 2133 -1 1584 -1 225 -1 65 -1 2531 -1 23770 -1 778 -1 488 -1 495 -1 76 -1 135 -1 944 -1 22 -1 8220 -1 529 -1 30 -2
375 -1 493 -1 62 -1 32 -1 3 -1 10 -1 22 -1 15714 -1 32 -1 22 -1 2434 -1 143 -1 76 -1 30 -2