2293 -1 31 -1 22 -1 555 -1 271 -2
375 -1 211 -1 3 -1 65 -1 2223 -1 348 -1 30 -2
113 -1 141 -1 8343 -1 2915 -1 497 -1 30 -2
52916 -1 76 -1 13509 -1 76 -1 102294 -1 2 -1 20088 -1 3 -1 3683 -1 50 -1 177 -1 30 -2
1678 -1 504 -1 2877 -1 937 -1 463 -1 33 -1 76 -1 557 -1 375 -1 7 -1 1068 -1 6 -1 244 -1 278 -1 370 -1 1046 -1 33 -1 30 -2
31 -1 113 -1 182 -1 641 -1 64 -1 3 -1 1752 -1 6842 -1 149 -1 115 -1 121 -1 21647 -1 137 -1 1752 -1 30 -2
342 -1 2756 -1 30 -2
141 -1 41 -1 1689 -1 244 -1 30 -2
3044 -1 47698 -1 268 -1 22 -1 54 -1 46709 -1 12945 -1 11195 -1 268 -1 41668 -1 20876 -1 10 -1 22 -1 1111 -1 493 -1 137 -1 46709 -1 12945 -1 102295 -1 49988 -1 49983 -1 268 -1 2345 -1 48357 -1 22741 -1 268 -1 3024 -1 22 -1 9575 -1 400 -1 2015 -1 5492 -1 271 -2
8 -1 28 -1 26 -1 102296 -1 250 -1 4062 -1 562 -1 30 -2
182 -1 1539 -1 113 -1 67 -1 75 -1 30 -2
113 -1 571 -1 182 -1 271 -2
191 -1 3 -1 65 -1 288 -1 46845 -1 4220 -1 102297 -1 16949 -1 33 -1 847 -1 1094 -1 30 -2
4310 -1 420 -1 248 -1 312 -1 4215 -1 31 -1 113 -1 30 -2
4310 -1 161 -1 3 -1 65 -1 363 -1 32 -1 170 -1 10 -1 2090 -1 76 -1 2513 -1 30 -2
113 -1 4578 -1 102298 -1 77 -1 234 -1 30 -2
113 -1 3 -1 200 -1 1099 -1 64 -1 2441 -1 3618 -1 504 -1 151 -1 113 -1 4578 -1 268 -1 469 -1 3 -1 65 -1 406 -1 34920 -1 625 -1 30 -2
113 -1 3 -1 904 -1 686 -1 527 -1 165 -1 8498 -1 1457 -1 77 -1 234 -1 30 -2
847 -1 463 -1 30 -2
1457 -1 2 -1 15739 -1 30 -2
113 -1 1734 -1 500 -1 10 -1 257 -1 374 -1 76 -1 10 -1 50 -1 2798 -1 279 -1 76 -1 417 -1 3 -1 972 -1 1456 -1 12342 -1 1457 -1 31 -1 278 -1 65 -1 1847 -1 32 -1 297 -1 2880 -1 30 -2
3489 -1 2 -1 3020 -1 22 -1 394 -1 342 -1 786 -1 179 -1 30 -2
113 -1 993 -1 536 -1 342 -1 400 -1 64 -1 42543 -1 3271 -1 76 -1 557 -1 244 -1 27 -1 375 -1 62 -1 76 -1 113 -1 243 -1 182 -1 30 -2
493 -1 50 -1 46 -1 76 -1 312 -1 827 -1 352 -1 3 -1 66 -1 278 -1 3811 -1 3 -1 65 -1 46 -1 32 -1 14965 -1 268 -1 2 -1 504 -1 22 -1 471 -1 3 -1 1097 -1 312 -1 625 -1 30 -2
393 -1 3 -1 1433 -1 30 -2
484 -1 745 -1 64 -1 308 -1 50 -1 502 -1 571 -1 76 -1 14282 -1 14284 -1 76 -1 77 -1 22 -1 1529 -1 32 -1 250 -1 251 -1 30 -2
151 -1 471 -1 3 -1 22 -1 2814 -1 1325 -1 31 -1 625 -1 1216 -1 113 -1 308 -1 50 -1 1169 -1 571 -1 640 -1 185 -1 76 -1 557 -1 6054 -1 76 -1 113 -1 118 -1 194 -1 17353 -1 7079 -1 28227 -1 3 -1 30 -2
8 -1 102300 -1 102299 -1 680 -1 165 -1 1169 -1 759 -1 379 -1 151 -1 3 -1 4485 -1 30 -2
182 -1 510 -1 113 -1 65 -1 658 -1 6603 -1 6602 -1 113 -1 536 -1 76 -1 1817 -1 22 -1 247 -1 278 -1 47 -1 2058 -1 1429 -1 469 -1 32 -1 22 -1 7279 -1 64 -1 356 -1 927 -1 32 -1 47 -1 1757 -1 30 -2
872 -1 113 -1 326 -1 250 -1 5152 -1 76 -1 557 -1 1152 -1 376 -1 76 -1 113 -1 627 -1 3404 -1 747 -1 41 -1 30 -2
113 -1 118 -1 326 -1 224 -1 113 -1 453 -1 445 -1 182 -1 76 -1 557 -1 113 -1 115 -1 121 -1 453 -1 7 -1 893 -1 31 -1 182 -1 3719 -1 76 -1 22 -1 2054 -1 5855 -1 30 -1 271 -2
3912 -1 271 -2
2 -1 113 -1 214 -1 506 -1 148 -1 225 -1 250 -1 3321 -1 30 -2
798 -1 1498 -1 814 -1 22 -1 473 -1 32 -1 179 -1 375 -1 3 -1 9946 -1 160 -1 3321 -1 4630 -1 557 -1 340 -1 41 -1 76 -1 113 -1 758 -1 256 -1 30 -2
1171 -1 31 -1 200 -1 614 -1 262 -1 65 -1 385 -1 30 -2
65 -1 13566 -1 10 -1 12709 -1 25448 -1 139 -1 64 -1 11686 -1 113 -1 326 -1 1480 -1 234 -1 151 -1 113 -1 3 -1 1066 -1 30 -2
16147 -1 469 -1 2025 -1 113 -1 340 -1 65 -1 1757 -1 2 -1 1193 -1 113 -1 64 -1 4759 -1 469 -1 10 -1 47 -1 6573 -1 76 -1 30 -2
87755 -1 561 -1 3405 -1 271 -2
113 -1 3 -1 10 -1 65 -1 3197 -1 2 -1 24516 -1 17052 -1 279 -1 31 -1 65 -1 385 -1 484 -1 113 -1 208 -1 1097 -1 401 -1 14886 -1 405 -1 1636 -1 376 -1 30 -2
4482 -1 123 -1 16 -1 22 -1 24516 -1 17052 -1 484 -1 364 -1 76 -1 557 -1 453 -1 30 -2
493 -1 375 -1 30 -2
4482 -1 76 -1 342 -1 16 -1 506 -1 64 -1 687 -1 154 -1 10 -1 151 -1 12654 -1 3015 -1 113 -1 447 -1 168 -1 75 -1 4124 -1 30 -2
113 -1 3 -1 308 -1 65 -1 908 -1 497 -1 30 -2
151 -1 43499 -1 691 -1 22 -1 3084 -1 2 -1 2670 -1 113 -1 340 -1 22 -1 394 -1 41 -1 525 -1 151 -1 641 -1 64 -1 30 -2
102301 -1 195 -1 340 -1 64 -1 141 -1 22 -1 566 -1 2375 -1 115 -1 886 -1 54 -1 76 -1 557 -1 342 -1 65 -1 92 -1 2 -1 151 -1 208 -1 687 -1 996 -1 30 -2
113 -1 194 -1 113 -1 3 -1 463 -1 64 -1 3 -1 10 -1 22 -1 296 -1 826 -1 483 -1 413 -1 31 -1 826 -1 2651 -1 4124 -1 497 -1 77 -1 342 -1 127 -1 1036 -1 2 -1 77 -1 31 -1 22 -1 562 -1 3377 -1 3379 -1 6903 -1 149 -1 1223 -1 131 -1 3 -1 30 -2
141 -1 168 -1 165 -1 826 -1 76 -1 557 -1 77 -1 236 -1 826 -1 41 -1 62 -1 372 -1 5055 -1 182 -1 1 -2
69 -1 136 -1 340 -1 342 -1 826 -1 65 -1 562 -1 76 -1 557 -1 113 -1 603 -1 608 -1 636 -1 113 -1 278 -1 182 -1 271 -2
113 -1 7 -1 250 -1 2009 -1 10823 -1 685 -1 463 -1 33 -1 296 -1 179 -1 10 -1 165 -1 32 -1 50 -1 562 -1 3377 -1 3379 -1 6903 -1 1223 -1 2 -1 113 -1 371 -1 2074 -1 242 -1 113 -1 200 -1 758 -1 3349 -1 2584 -1 182 -1 30 -2
113 -1 7 -1 278 -1 544 -1 32 -1 30 -2
375 -1 3 -1 81 -1 64 -1 256 -1 500 -1 225 -1 3379 -1 31 -1 635 -1 75 -1 179 -1 2 -1 8181 -1 69 -1 66 -1 139 -1 500 -1 64 -1 113 -1 587 -1 22 -1 3163 -1 1228 -1 113 -1 77 -1 342 -1 81 -1 64 -1 1584 -1 6712 -1 2 -1 149 -1 500 -1 64 -1 894 -1 30 -2
77 -1 41 -1 3328 -1 296 -1 179 -1 182 -1 786 -1 340 -1 1017 -1 3 -1 1093 -1 30 -2
69 -1 65 -1 1511 -1 773 -1 76 -1 548 -1 81 -1 16 -1 64 -1 2272 -1 182 -1 137 -1 1287 -1 182 -1 30 -2
8 -1 28 -1 26 -1 102302 -1 40208 -1 271 -2
151 -1 776 -1 144 -1 549 -1 2992 -1 185 -1 364 -1 1450 -1 30 -2
182 -1 180 -1 113 -1 118 -1 326 -1 273 -1 64 -1 95 -1 4067 -1 2779 -1 497 -1 113 -1 208 -1 95 -1 167 -1 30 -2
22872 -1 8 -1 28 -1 26 -1 102303 -1 118 -1 5829 -1 182 -1 689 -1 162 -1 81 -1 182 -1 30 -2
113 -1 403 -1 22 -1 5622 -1 64 -1 1539 -1 3 -1 364 -1 1853 -1 499 -1 65 -1 380 -1 2758 -1 94 -1 32 -1 66268 -1 30 -2
1148 -1 4057 -1 4630 -1 342 -1 904 -1 224 -1 113 -1 510 -1 22 -1 296 -1 127 -1 30 -2
1209 -1 30 -2
113 -1 786 -1 2460 -1 2 -1 3 -1 404 -1 22 -1 1434 -1 64 -1 141 -1 54 -1 113 -1 326 -1 214 -1 1934 -1 113 -1 1053 -1 77 -1 862 -1 102304 -1 4630 -1 64 -1 8489 -1 1749 -1 2 -1 1473 -1 113 -1 30 -2
64 -1 1157 -1 22 -1 1060 -1 268 -1 1287 -1 76 -1 771 -1 113 -1 141 -1 30 -2
69 -1 65 -1 2026 -1 2912 -1 10 -1 686 -1 342 -1 1171 -1 376 -1 30 -2
375 -1 408 -1 3 -1 636 -1 137 -1 201 -1 224 -1 72 -1 41 -1 272 -1 308 -1 717 -1 22 -1 394 -1 113 -1 308 -1 41 -1 30 -2
182 -1 789 -1 3 -1 2913 -1 76 -1 771 -1 30 -2
2 -1 113 -1 2726 -1 113 -1 663 -1 182 -1 272 -1 3 -1 308 -1 77 -1 2913 -1 185 -1 76 -1 557 -1 2559 -1 3 -1 200 -1 484 -1 7787 -1 64 -1 113 -1 30 -2
191 -1 527 -1 441 -1 3150 -1 64 -1 182 -1 30 -2
182 -1 510 -1 113 -1 5286 -1 30 -2
113 -1 663 -1 695 -1 500 -1 10 -1 9474 -1 30 -2
22 -1 287 -1 113 -1 4759 -1 3 -1 242 -1 50 -1 1881 -1 3 -1 484 -1 4289 -1 64 -1 4 -1 47 -1 1074 -1 64 -1 10 -1 65 -1 74 -1 160 -1 50 -1 903 -1 469 -1 156 -1 64 -1 999 -1 113 -1 1077 -1 10 -1 65 -1 394 -1 30 -2
234 -1 179 -1 151 -1 30 -2
424 -1 1336 -1 32 -1 41 -1 30 -2
747 -1 41 -1 113 -1 194 -1 182 -1 214 -1 250 -1 75 -1 12013 -1 1336 -1 76 -1 123 -1 1 -2
1566 -1 342 -1 127 -1 30 -2
113 -1 81 -1 64 -1 510 -1 182 -1 692 -1 847 -1 76 -1 557 -1 182 -1 256 -1 64 -1 3 -1 185 -1 364 -1 30 -2
510 -1 50 -1 394 -1 500 -1 64 -1 8547 -1 10 -1 22 -1 887 -1 30 -2
113 -1 326 -1 69 -1 163 -1 31 -1 113 -1 296 -1 179 -1 30 -2
158 -1 16 -1 7 -1 618 -1 149 -1 6 -1 102305 -1 894 -1 1846 -1 76 -1 232 -1 76 -1 771 -1 30 -2
113 -1 474 -1 209 -1 894 -1 2 -1 50 -1 30044 -1 1309 -1 13 -1 30 -2
1050 -1 165 -1 31 -1 17353 -1 7079 -1 28227 -1 14282 -1 14284 -1 32 -1 7224 -1 9281 -1 801 -1 32 -1 22 -1 2967 -1 113 -1 208 -1 1521 -1 30 -2
50 -1 542 -1 3 -1 3659 -1 2233 -1 65 -1 614 -1 262 -1 65 -1 385 -1 377 -1 76 -1 557 -1 113 -1 3 -1 4579 -1 2651 -1 234 -1 689 -1 22 -1 1572 -1 32 -1 250 -1 385 -1 158 -1 50 -1 830 -1 207 -1 401 -1 1584 -1 2233 -1 30 -2
1906 -1 76 -1 1486 -1 76 -1 30 -2
342 -1 65 -1 1961 -1 32 -1 22 -1 1493 -1 2 -1 22 -1 5444 -1 6794 -1 77 -1 234 -1 30 -2
100 -1 250 -1 39 -1 3 -1 65 -1 2730 -1 1287 -1 76 -1 557 -1 27 -1 3 -1 1844 -1 1914 -1 1 -2
113 -1 5141 -1 22 -1 776 -1 41 -1 1177 -1 76 -1 557 -1 3 -1 453 -1 16 -1 510 -1 22 -1 1874 -1 30 -2
77 -1 65 -1 1325 -1 76 -1 33 -1 29 -1 4154 -1 76 -1 42 -1 1562 -1 187 -1 22 -1 6943 -1 76 -1 41 -1 895 -1 31 -1 29 -1 99 -1 595 -1 64 -1 139 -1 64 -1 13 -1 2 -1 151 -1 224 -1 29 -1 895 -1 3 -1 5256 -1 2 -1 244 -1 22 -1 542 -1 76 -1 151 -1 182 -1 161 -1 872 -1 503 -1 30 -2
65 -1 46 -1 32 -1 695 -1 194 -1 113 -1 155 -1 64 -1 3 -1 65 -1 21148 -1 149 -1 1521 -1 64 -1 165 -1 2 -1 151 -1 113 -1 3 -1 32 -1 6196 -1 149 -1 8138 -1 12476 -1 30 -2
50 -1 5245 -1 194 -1 113 -1 39 -1 7 -1 3 -1 65 -1 1670 -1 999 -1 5319 -1 149 -1 65 -1 5589 -1 1250 -1 30 -2
273 -1 3125 -1 231 -1 3 -1 113 -1 1 -2
234 -1 76 -1 102306 -1 30 -2
113 -1 403 -1 229 -1 5808 -1 135 -1 113 -1 3 -1 506 -1 154 -1 7599 -1 229 -1 3047 -1 30 -2
113 -1 118 -1 326 -1 278 -1 312 -1 585 -1 625 -1 1879 -1 74 -1 76 -1 557 -1 113 -1 194 -1 182 -1 272 -1 692 -1 30 -2
165 -1 32 -1 50 -1 163 -1 46 -1 3 -1 312 -1 585 -1 30 -2
375 -1 326 -1 469 -1 1498 -1 113 -1 3 -1 1996 -1 30 -1 41 -1 711 -1 194 -1 417 -1 161 -1 256 -1 1583 -1 77 -1 234 -1 77 -1 417 -1 30 -2
375 -1 3 -1 648 -1 160 -1 2126 -1 1123 -1 32 -1 250 -1 1498 -1 278 -1 370 -1 4320 -1 76 -1 123 -1 1 -2
190 -1 3 -1 16 -1 165 -1 886 -1 113 -1 118 -1 7 -1 1873 -1 1309 -1 76 -1 602 -1 420 -1 484 -1 616 -1 76 -1 557 -1 158 -1 894 -1 1846 -1 2 -1 2 -1 102305 -1 111 -1 10 -1 76 -1 30 -2
1101 -1 76 -1 113 -1 194 -1 113 -1 326 -1 27 -1 236 -1 256 -1 115 -1 30 -2
113 -1 586 -1 182 -1 463 -1 601 -1 22 -1 3657 -1 30 -2
113 -1 118 -1 6868 -1 185 -1 364 -1 262 -1 182 -1 242 -1 342 -1 115 -1 121 -1 16 -1 10 -1 312 -1 3564 -1 1227 -1 76 -1 340 -1 41 -1 7 -1 447 -1 1802 -1 76 -1 557 -1 30 -2
14903 -1 13590 -1 3895 -1 113 -1 1515 -1 1747 -1 151 -1 48435 -1 1916 -1 13759 -1 271 -2
926 -1 4569 -1 483 -1 164 -1 30 -2
256 -1 64 -1 571 -1 11308 -1 4714 -1 271 -2
16540 -1 546 -1 141 -1 182 -1 692 -1 250 -1 75 -1 1 -2
4482 -1 76 -1 363 -1 32 -1 30 -2
2779 -1 69 -1 1031 -1 151 -1 1661 -1 149 -1 21946 -1 19129 -1 268 -1 22 -1 259 -1 30 -2
6893 -1 19207 -1 19475 -1 50 -1 13622 -1 497 -1 2222 -1 76 -1 1050 -1 604 -1 625 -1 847 -1 30 -2
5802 -1 30 -2