131 -1 504 -1 417 -1 226 -1 10 -1 65 -1 207 -1 32 -1 1552 -1 2 -1 631 -1 30 -2
9752 -1 33814 -1 3954 -1 3199 -1 64 -1 326 -1 22 -1 1504 -1 30 -2
10 -1 15622 -1 32 -1 2117 -1 76 -1 783 -1 2 -1 1849 -1 30 -2
200 -1 77 -1 22 -1 14403 -1 1008 -1 1747 -1 453 -1 42 -1 182 -1 30 -2
9 -1 3251 -1 33815 -1 926 -1 615 -1 76 -1 462 -1 10 -1 13 -1 41 -1 141 -1 2 -1 462 -1 41 -1 118 -1 141 -1 30 -2
558 -1 557 -1 27 -1 278 -1 7156 -1 5879 -1 1 -2
926 -1 33818 -1 558 -1 33816 -1 33816 -1 33817 -1 13397 -1 271 -2
926 -1 1467 -1 1216 -1 9 -1 28264 -1 746 -1 33821 -1 554 -1 33822 -1 33819 -1 8 -1 33826 -1 33825 -1 1661 -1 33823 -1 33820 -1 33824 -1 186 -1 5054 -1 22 -1 3102 -1 1849 -1 587 -1 41 -1 1 -2
3 -1 250 -1 3797 -1 64 -1 384 -1 10 -1 1707 -1 1 -2
113 -1 194 -1 417 -1 39 -1 7 -1 1068 -1 574 -1 30 -2
224 -1 41 -1 946 -1 22 -1 1705 -1 2094 -1 76 -1 118 -1 256 -1 1842 -1 154 -1 10 -1 2506 -1 30 -2
113 -1 340 -1 26468 -1 30 -2
113 -1 194 -1 393 -1 3 -1 65 -1 561 -1 115 -1 613 -1 213 -1 383 -1 187 -1 305 -1 596 -1 5624 -1 207 -1 30 -2
2 -1 462 -1 22 -1 163 -1 394 -1 64 -1 141 -1 151 -1 3 -1 601 -1 7673 -1 849 -1 20635 -1 30 -2
33827 -1 23651 -1 214 -1 3 -1 22 -1 51 -1 2356 -1 6624 -1 30 -2
113 -1 1225 -1 160 -1 27 -1 236 -1 504 -1 30 -2
557 -1 113 -1 194 -1 69 -1 493 -1 975 -1 16 -1 64 -1 6139 -1 22 -1 473 -1 22 -1 11507 -1 7 -1 30 -2
2 -1 65 -1 348 -1 10 -1 47 -1 381 -1 699 -1 64 -1 3 -1 706 -1 64 -1 2635 -1 22 -1 11507 -1 23306 -1 64 -1 30 -2
200 -1 463 -1 64 -1 9564 -1 250 -1 614 -1 251 -1 31 -1 599 -1 352 -1 3 -1 1282 -1 30 -2
113 -1 1121 -1 22 -1 328 -1 847 -1 30 -2
50 -1 4585 -1 1487 -1 72 -1 256 -1 113 -1 250 -1 1120 -1 30 -2
771 -1 30 -2
34 -1 250 -1 545 -1 148 -1 75 -1 64 -1 4095 -1 3974 -1 3264 -1 30 -2
113 -1 3 -1 3152 -1 10 -1 65 -1 5301 -1 5717 -1 2 -1 646 -1 22 -1 23 -1 32 -1 22 -1 14136 -1 8600 -1 3364 -1 2 -1 3364 -1 32 -1 2524 -1 30 -2
182 -1 1228 -1 113 -1 273 -1 644 -1 5277 -1 2 -1 22 -1 9315 -1 182 -1 144 -1 417 -1 3 -1 72 -1 297 -1 1671 -1 890 -1 32 -1 30 -2
250 -1 2050 -1 613 -1 160 -1 4658 -1 30 -2
9 -1 28 -1 26 -1 33828 -1 4300 -1 1467 -1 113 -1 7 -1 165 -1 10272 -1 64 -1 22 -1 999 -1 76 -1 113 -1 504 -1 64 -1 22 -1 10272 -1 30602 -1 30 -2
165 -1 10272 -1 31 -1 8051 -1 32 -1 165 -1 113 -1 504 -1 77 -1 113 -1 436 -1 262 -1 22 -1 10272 -1 2 -1 436 -1 500 -1 22 -1 713 -1 4 -1 30 -2
1479 -1 137 -1 27 -1 1105 -1 50 -1 6422 -1 450 -1 278 -1 113 -1 504 -1 76 -1 4258 -1 236 -1 493 -1 225 -1 1099 -1 278 -1 1014 -1 99 -1 30 -2
469 -1 124 -1 182 -1 77 -1 65 -1 671 -1 30 -2
557 -1 113 -1 118 -1 248 -1 786 -1 340 -1 113 -1 26282 -1 66 -1 151 -1 364 -1 10 -1 22 -1 11174 -1 1498 -1 30 -2
1101 -1 30 -2
113 -1 256 -1 182 -1 30 -2
29 -1 2746 -1 3083 -1 3 -1 3046 -1 3785 -1 150 -1 22 -1 3095 -1 32 -1 1552 -1 76 -1 5535 -1 1423 -1 601 -1 65 -1 11478 -1 5381 -1 76 -1 6932 -1 187 -1 10 -1 312 -1 5522 -1 2124 -1 418 -1 213 -1 525 -1 9581 -1 33 -1 305 -1 30 -2
3687 -1 237 -1 268 -1 3 -1 7272 -1 115 -1 542 -1 76 -1 10 -1 65 -1 22465 -1 363 -1 32 -1 394 -1 30 -2
113 -1 208 -1 2194 -1 213 -1 345 -1 601 -1 50 -1 2283 -1 30 -2
19977 -1 113 -1 482 -1 936 -1 686 -1 67 -1 964 -1 807 -1 641 -1 64 -1 194 -1 48 -1 1216 -1 9 -1 28 -1 26 -1 33829 -1 113 -1 194 -1 417 -1 200 -1 699 -1 64 -1 17 -1 22 -1 436 -1 1753 -1 648 -1 30 -2
69 -1 16 -1 65 -1 616 -1 436 -1 30 -2
634 -1 187 -1 417 -1 687 -1 154 -1 160 -1 65 -1 16775 -1 32 -1 33830 -1 3394 -1 115 -1 65 -1 10809 -1 1483 -1 4223 -1 4360 -1 30 -2
224 -1 41 -1 6275 -1 131 -1 345 -1 186 -1 268 -1 463 -1 64 -1 7 -1 1036 -1 417 -1 39 -1 4104 -1 3 -1 692 -1 1912 -1 312 -1 22109 -1 1123 -1 32 -1 33831 -1 30 -2
644 -1 33833 -1 8061 -1 39 -1 179 -1 3 -1 1234 -1 137 -1 312 -1 33832 -1 25191 -1 30 -2
16654 -1 1640 -1 548 -1 7 -1 22 -1 9065 -1 5618 -1 1670 -1 154 -1 2 -1 30 -2
113 -1 786 -1 695 -1 3 -1 33834 -1 10 -1 65 -1 406 -1 4116 -1 394 -1 30 -2
113 -1 2295 -1 230 -1 77 -1 65 -1 1325 -1 151 -1 50 -1 8914 -1 7 -1 65 -1 567 -1 6458 -1 2 -1 151 -1 50 -1 1703 -1 161 -1 211 -1 3 -1 2008 -1 64 -1 10037 -1 30 -2
77 -1 4124 -1 77 -1 113 -1 3 -1 706 -1 64 -1 30 -2
815 -1 151 -1 165 -1 75 -1 29 -1 5620 -1 379 -1 64 -1 16251 -1 41 -1 469 -1 3 -1 463 -1 64 -1 2371 -1 65 -1 10835 -1 154 -1 29 -1 1235 -1 1 -2
69 -1 181 -1 76 -1 469 -1 3310 -1 41 -1 64 -1 613 -1 469 -1 160 -1 65 -1 33835 -1 14061 -1 804 -1 125 -1 759 -1 30 -2
50 -1 783 -1 3254 -1 10 -1 50 -1 1687 -1 1956 -1 115 -1 436 -1 76 -1 602 -1 3 -1 66 -1 5903 -1 1521 -1 30 -2
2545 -1 50 -1 783 -1 342 -1 3821 -1 15661 -1 838 -1 50 -1 4077 -1 64 -1 50 -1 9394 -1 1400 -1 3 -1 1904 -1 76 -1 137 -1 304 -1 596 -1 1925 -1 30 -2
113 -1 7 -1 1036 -1 6919 -1 127 -1 10 -1 33 -1 4996 -1 340 -1 65 -1 1417 -1 30 -1 30 -1 113 -1 814 -1 32514 -1 30 -2
234 -1 268 -1 75 -1 2157 -1 65 -1 380 -1 385 -1 500 -1 30 -2
113 -1 1678 -1 613 -1 557 -1 1554 -1 22 -1 3348 -1 1703 -1 22 -1 14243 -1 3046 -1 64 -1 3 -1 406 -1 8949 -1 64 -1 35 -1 268 -1 2124 -1 30 -2
22 -1 33837 -1 32 -1 22 -1 3617 -1 33838 -1 2810 -1 2310 -1 22 -1 1906 -1 18830 -1 3356 -1 33836 -1 3 -1 1228 -1 30 -2
6183 -1 16636 -1 76 -1 418 -1 32664 -1 2 -1 22 -1 3356 -1 3 -1 51 -1 3003 -1 6719 -1 30 -2
77 -1 113 -1 1671 -1 1845 -1 64 -1 463 -1 64 -1 692 -1 113 -1 786 -1 17206 -1 14779 -1 33 -1 50 -1 6379 -1 30 -2
502 -1 3301 -1 32 -1 2536 -1 244 -1 22 -1 8138 -1 2332 -1 30 -2
182 -1 1429 -1 113 -1 32 -1 226 -1 10 -1 13404 -1 30 -2
113 -1 23676 -1 244 -1 409 -1 76 -1 2 -1 1879 -1 74 -1 160 -1 113 -1 675 -1 1487 -1 165 -1 10 -1 22 -1 129 -1 30 -2
342 -1 81 -1 50 -1 163 -1 64 -1 5344 -1 33 -1 50 -1 2622 -1 1533 -1 1687 -1 13 -1 30 -2
342 -1 523 -1 692 -1 76 -1 65 -1 912 -1 665 -1 765 -1 33 -1 30 -2
500 -1 10 -1 4590 -1 2 -1 10554 -1 417 -1 3 -1 163 -1 76 -1 471 -1 417 -1 3 -1 3046 -1 66 -1 262 -1 26952 -1 76 -1 4410 -1 76 -1 417 -1 463 -1 262 -1 64 -1 19591 -1 76 -1 185 -1 417 -1 3 -1 154 -1 2 -1 345 -1 22 -1 12243 -1 6215 -1 417 -1 3 -1 9558 -1 65 -1 1100 -1 417 -1 226 -1 10 -1 644 -1 9558 -1 30 -2
9 -1 28 -1 26 -1 33840 -1 9 -1 28 -1 26 -1 33839 -1 2124 -1 6009 -1 225 -1 33841 -1 26089 -1 8211 -1 214 -1 462 -1 743 -1 9270 -1 31 -1 1434 -1 2 -1 2049 -1 64 -1 5269 -1 601 -1 30 -2
250 -1 3 -1 418 -1 66 -1 29 -1 2162 -1 3074 -1 463 -1 64 -1 2 -1 273 -1 41 -1 5054 -1 400 -1 165 -1 162 -1 482 -1 30 -2
375 -1 3 -1 7 -1 22 -1 129 -1 363 -1 32 -1 2880 -1 30 -2
182 -1 786 -1 340 -1 4698 -1 65 -1 21655 -1 575 -1 484 -1 80 -1 182 -1 11395 -1 41 -1 10 -1 22 -1 500 -1 32 -1 22 -1 33842 -1 75 -1 30 -2
75 -1 510 -1 66 -1 54 -1 628 -1 30 -2
8 -1 33846 -1 14883 -1 33844 -1 1011 -1 33845 -1 8333 -1 33843 -1 113 -1 200 -1 1678 -1 613 -1 557 -1 814 -1 21295 -1 77 -1 312 -1 16100 -1 31 -1 5945 -1 30 -2
224 -1 424 -1 27 -1 41 -1 124 -1 232 -1 424 -1 1097 -1 312 -1 1145 -1 1230 -1 64 -1 1269 -1 30 -2
9 -1 28 -1 26 -1 33848 -1 9 -1 28 -1 26 -1 33847 -1 7 -1 41 -1 1554 -1 356 -1 1683 -1 8312 -1 1323 -1 32 -1 65 -1 639 -1 1 -2
182 -1 161 -1 1501 -1 599 -1 33850 -1 8292 -1 236 -1 33849 -1 30 -2
113 -1 340 -1 33851 -1 9 -1 33852 -1 30 -2
41 -1 530 -1 111 -1 154 -1 312 -1 3141 -1 2 -1 41 -1 208 -1 2933 -1 30 -2
3 -1 41 -1 10 -1 65 -1 5989 -1 153 -1 3531 -1 77 -1 234 -1 1 -2
22 -1 5523 -1 14690 -1 8423 -1 1429 -1 113 -1 32 -1 33853 -1 30 -2
417 -1 272 -1 1031 -1 66 -1 3 -1 27894 -1 22 -1 4280 -1 31 -1 71 -1 1435 -1 205 -1 22 -1 51 -1 522 -1 32 -1 1242 -1 149 -1 1017 -1 214 -1 3 -1 1096 -1 77 -1 690 -1 30 -2
115 -1 121 -1 30 -2
8 -1 33854 -1 98 -1 89 -1 95 -1 1777 -1 1776 -1 27869 -1 33856 -1 33855 -1 244 -1 27869 -1 30 -2
65 -1 92 -1 113 -1 3 -1 2319 -1 504 -1 113 -1 6251 -1 250 -1 2379 -1 65 -1 1100 -1 30 -2
113 -1 3 -1 482 -1 324 -1 64 -1 1505 -1 557 -1 113 -1 813 -1 30 -2
113 -1 692 -1 77 -1 65 -1 8310 -1 7439 -1 76 -1 484 -1 113 -1 936 -1 2877 -1 27 -1 236 -1 617 -1 30 -2
113 -1 4234 -1 50 -1 502 -1 1213 -1 187 -1 32 -1 1300 -1 242 -1 113 -1 200 -1 1418 -1 182 -1 30 -2
527 -1 2001 -1 76 -1 527 -1 9379 -1 2 -1 113 -1 3 -1 2365 -1 66 -1 262 -1 30 -2
9 -1 28 -1 26 -1 33859 -1 8 -1 3251 -1 33858 -1 9 -1 28 -1 26 -1 33857 -1 9 -1 28 -1 26 -1 33860 -1 113 -1 194 -1 9446 -1 268 -1 561 -1 6855 -1 3 -1 28464 -1 3879 -1 3086 -1 32 -1 19836 -1 1450 -1 2 -1 1177 -1 65 -1 6492 -1 31 -1 41 -1 64 -1 1161 -1 182 -1 717 -1 30 -2
41 -1 272 -1 482 -1 12577 -1 65 -1 596 -1 732 -1 30 -2
69 -1 769 -1 158 -1 41 -1 2295 -1 151 -1 41 -1 2 -1 22 -1 333 -1 417 -1 226 -1 3 -1 3 -1 200 -1 77 -1 364 -1 247 -1 32 -1 22 -1 4632 -1 4074 -1 75 -1 4406 -1 77 -1 553 -1 929 -1 151 -1 5152 -1 30 -2
417 -1 2624 -1 1418 -1 22 -1 333 -1 417 -1 226 -1 10 -1 149 -1 30 -2
113 -1 7 -1 454 -1 340 -1 250 -1 185 -1 30 -2
557 -1 123 -1 113 -1 711 -1 586 -1 131 -1 454 -1 557 -1 474 -1 65 -1 2661 -1 32 -1 6404 -1 4862 -1 2 -1 15607 -1 149 -1 3052 -1 8062 -1 76 -1 462 -1 30 -2
182 -1 641 -1 64 -1 13661 -1 66 -1 32 -1 50 -1 864 -1 30 -1 30 -1 2488 -1 312 -1 1157 -1 41 -1 2050 -1 16 -1 1618 -1 226 -1 10 -1 65 -1 386 -1 5090 -1 424 -1 211 -1 33 -1 22 -1 127 -1 30 -2
113 -1 510 -1 22 -1 127 -1 49 -1 385 -1 2 -1 182 -1 248 -1 613 -1 1473 -1 50 -1 1434 -1 1123 -1 154 -1 30 -2
149 -1 115 -1 121 -1 76 -1 50 -1 1033 -1 64 -1 141 -1 30 -2
360 -1 30 -2