113 -1 2199 -1 41 -1 50 -1 542 -1 76 -1 2 -1 41 -1 598 -1 23654 -1 30 -2
10 -1 868 -1 76 -1 113 -1 194 -1 417 -1 141 -1 179 -1 1071 -1 10 -1 635 -1 338 -1 76 -1 67 -1 1171 -1 44 -1 30 -2
2 -1 41 -1 2199 -1 113 -1 151 -1 562 -1 35 -1 76 -1 2 -1 113 -1 814 -1 1017 -1 225 -1 182 -1 76 -1 2 -1 113 -1 194 -1 278 -1 30 -2
250 -1 52 -1 510 -1 113 -1 3300 -1 76 -1 242 -1 113 -1 7 -1 200 -1 7 -1 22 -1 129 -1 26028 -1 30 -2
7 -1 168 -1 201 -1 1841 -1 3406 -1 149 -1 373 -1 5 -1 403 -1 250 -1 278 -1 717 -1 1 -2
771 -1 30 -2
342 -1 7447 -1 30 -1 16 -1 1075 -1 224 -1 424 -1 373 -1 149 -1 1841 -1 30 -2
373 -1 30 -2
113 -1 403 -1 106 -1 3 -1 50 -1 23227 -1 30 -2
113 -1 7 -1 211 -1 17 -1 54 -1 77 -1 113 -1 3 -1 178 -1 154 -1 76 -1 312 -1 2108 -1 244 -1 13 -1 30 -2
417 -1 7 -1 65 -1 4968 -1 10752 -1 571 -1 43191 -1 32 -1 108281 -1 2196 -1 76 -1 100460 -1 3988 -1 631 -1 32 -1 22 -1 8989 -1 76 -1 30 -2
113 -1 826 -1 65 -1 640 -1 1487 -1 191 -1 264 -1 1194 -1 113 -1 76 -1 215 -1 278 -1 16 -1 3 -1 3368 -1 31 -1 22 -1 51 -1 44 -1 30 -2
22 -1 640 -1 108282 -1 250 -1 76 -1 1313 -1 3146 -1 30 -2
250 -1 2880 -1 3 -1 3 -1 65 -1 242 -1 113 -1 3 -1 7 -1 1036 -1 113 -1 155 -1 64 -1 3 -1 406 -1 2635 -1 30 -2
224 -1 113 -1 340 -1 189 -1 113 -1 161 -1 2651 -1 230 -1 384 -1 187 -1 30 -2
405 -1 44 -1 113 -1 356 -1 148 -1 75 -1 64 -1 256 -1 64 -1 326 -1 189 -1 30 -2
548 -1 156 -1 64 -1 4150 -1 187 -1 2 -1 1003 -1 2091 -1 64 -1 141 -1 484 -1 76 -1 548 -1 30 -2
176 -1 6127 -1 76 -1 113 -1 3 -1 463 -1 64 -1 1533 -1 30 -2
113 -1 3 -1 463 -1 64 -1 1533 -1 81 -1 30 -2
113 -1 7 -1 65 -1 773 -1 342 -1 3020 -1 2 -1 188 -1 2 -1 2020 -1 76 -1 557 -1 113 -1 7 -1 250 -1 108283 -1 773 -1 224 -1 113 -1 1533 -1 76 -1 41 -1 214 -1 1617 -1 7549 -1 549 -1 76 -1 340 -1 1531 -1 76 -1 77 -1 30 -2
113 -1 141 -1 445 -1 69 -1 975 -1 64 -1 194 -1 278 -1 29 -1 692 -1 2780 -1 2 -1 29 -1 93 -1 2780 -1 77 -1 31 -1 635 -1 213 -1 405 -1 208 -1 3 -1 932 -1 791 -1 54 -1 2 -1 417 -1 7821 -1 7446 -1 2628 -1 791 -1 143 -1 30 -2
113 -1 118 -1 7 -1 65 -1 25472 -1 149 -1 65 -1 8713 -1 30 -2
250 -1 124 -1 54 -1 3 -1 2057 -1 22515 -1 76 -1 2 -1 771 -1 76 -1 131 -1 39 -1 463 -1 1916 -1 76 -1 557 -1 41 -1 214 -1 72 -1 715 -1 22 -1 237 -1 54 -1 76 -1 16 -1 22 -1 288 -1 1899 -1 32 -1 1232 -1 149 -1 66 -1 29 -1 24882 -1 30 -2
602 -1 247 -1 32 -1 21468 -1 1 -2
3 -1 41 -1 65 -1 108284 -1 1 -2
108285 -1 1 -2
108286 -1 1 -2
108287 -1 1 -2
45384 -1 1 -2
244 -1 22 -1 16677 -1 1 -2
149 -1 65 -1 13442 -1 42242 -1 1 -2
2597 -1 224 -1 342 -1 33 -1 50 -1 304 -1 190 -1 3 -1 408 -1 65 -1 11507 -1 76 -1 2 -1 158 -1 342 -1 692 -1 2 -1 5344 -1 113 -1 208 -1 493 -1 1099 -1 187 -1 2609 -1 64 -1 388 -1 76 -1 557 -1 113 -1 118 -1 546 -1 729 -1 201 -1 213 -1 1031 -1 677 -1 149 -1 510 -1 3118 -1 115 -1 113 -1 64 -1 1533 -1 30 -2
65 -1 400 -1 44 -1 30 -2
113 -1 1193 -1 22 -1 1287 -1 76 -1 2 -1 113 -1 141 -1 182 -1 77 -1 8552 -1 2 -1 1887 -1 77 -1 113 -1 272 -1 30 -2
113 -1 118 -1 156 -1 250 -1 64 -1 4 -1 76 -1 113 -1 118 -1 156 -1 41 -1 64 -1 1558 -1 30 -2
2 -1 41 -1 144 -1 29 -1 1157 -1 76 -1 1887 -1 76 -1 8552 -1 30 -2
2 -1 179 -1 417 -1 3 -1 30 -2
469 -1 520 -1 340 -1 65 -1 8161 -1 76 -1 2771 -1 149 -1 16 -1 30 -2
10 -1 29 -1 381 -1 113 -1 161 -1 200 -1 2626 -1 47 -1 1316 -1 64 -1 17560 -1 113 -1 76 -1 3 -1 388 -1 2 -1 2460 -1 148 -1 75 -1 160 -1 148 -1 976 -1 76 -1 2092 -1 213 -1 30 -2
224 -1 469 -1 3 -1 64 -1 798 -1 1193 -1 686 -1 76 -1 30 -2
1287 -1 5879 -1 3 -1 1916 -1 4803 -1 1063 -1 2 -1 7 -1 238 -1 1225 -1 1323 -1 176 -1 6127 -1 108288 -1 271 -2
35 -1 113 -1 3 -1 2687 -1 213 -1 31 -1 22 -1 502 -1 75 -1 10 -1 50 -1 13 -1 30 -2
113 -1 3 -1 2194 -1 50 -1 1293 -1 30 -1 30 -1 66 -1 22 -1 1802 -1 30 -2
571 -1 931 -1 3 -1 248 -1 975 -1 113 -1 3 -1 1449 -1 30 -2
786 -1 18231 -1 41 -1 3 -1 484 -1 27805 -1 137 -1 29 -1 5 -1 46 -1 111 -1 635 -1 2319 -1 75 -1 113 -1 118 -1 124 -1 65 -1 1879 -1 2319 -1 76 -1 557 -1 472 -1 30 -2
113 -1 326 -1 342 -1 65 -1 394 -1 1583 -1 22 -1 4344 -1 76 -1 557 -1 113 -1 7 -1 406 -1 848 -1 6 -1 50 -1 1148 -1 75284 -1 15423 -1 463 -1 244 -1 2014 -1 64 -1 1749 -1 557 -1 24415 -1 262 -1 22 -1 2832 -1 2 -1 10 -1 1627 -1 64 -1 30 -2
182 -1 408 -1 503 -1 158 -1 190 -1 3 -1 185 -1 364 -1 463 -1 33 -1 76 -1 2 -1 158 -1 4331 -1 3 -1 64 -1 1051 -1 64 -1 613 -1 271 -2
113 -1 463 -1 64 -1 65 -1 248 -1 901 -1 75 -1 4331 -1 765 -1 65 -1 380 -1 385 -1 377 -1 2 -1 22 -1 511 -1 356 -1 65 -1 5186 -1 2 -1 451 -1 30 -2
77 -1 65 -1 1807 -1 76 -1 14104 -1 6651 -1 10 -1 65 -1 3460 -1 3378 -1 160 -1 614 -1 4057 -1 76 -1 113 -1 277 -1 266 -1 958 -1 32 -1 750 -1 32 -1 2078 -1 2 -1 3511 -1 33 -1 373 -1 62095 -1 484 -1 113 -1 272 -1 3349 -1 277 -1 54 -1 340 -1 33766 -1 76 -1 110 -1 6202 -1 2 -1 6109 -1 32 -1 30 -2
3353 -1 77009 -1 76 -1 113 -1 7 -1 611 -1 862 -1 1471 -1 32 -1 187 -1 31700 -1 50 -1 199 -1 351 -1 6930 -1 229 -1 30 -2
111 -1 66 -1 29 -1 3261 -1 3785 -1 30 -2
146 -1 22 -1 2015 -1 817 -1 125 -1 1838 -1 150 -1 41 -1 836 -1 30 -2
113 -1 179 -1 146 -1 66 -1 30 -2
5966 -1 1737 -1 52 -1 176 -1 6127 -1 76 -1 41 -1 141 -1 182 -1 271 -2
29 -1 141 -1 182 -1 271 -2
113 -1 482 -1 811 -1 131 -1 161 -1 156 -1 41 -1 113 -1 326 -1 41 -1 3 -1 3382 -1 188 -1 278 -1 22 -1 2687 -1 2 -1 194 -1 2657 -1 169 -1 99 -1 182 -1 154 -1 76 -1 557 -1 113 -1 326 -1 41 -1 161 -1 30 -2
176 -1 6127 -1 76 -1 342 -1 893 -1 375 -1 906 -1 646 -1 22 -1 687 -1 32 -1 250 -1 4344 -1 2 -1 113 -1 3 -1 634 -1 65 -1 274 -1 2 -1 146 -1 41 -1 3018 -1 30 -2
182 -1 633 -1 113 -1 64 -1 194 -1 32 -1 41 -1 2 -1 326 -1 31 -1 66 -1 29 -1 431 -1 190 -1 3 -1 282 -1 30 -2
951 -1 76 -1 113 -1 3 -1 2627 -1 2399 -1 76 -1 557 -1 190 -1 3 -1 65 -1 21795 -1 1203 -1 32 -1 5403 -1 115 -1 602 -1 65 -1 110 -1 10419 -1 10444 -1 2 -1 113 -1 316 -1 65 -1 11182 -1 2067 -1 3484 -1 31 -1 65 -1 380 -1 750 -1 30 -2
224 -1 342 -1 463 -1 64 -1 4481 -1 76 -1 232 -1 342 -1 463 -1 64 -1 4481 -1 289 -1 271 -1 30 -2
2 -1 3 -1 3368 -1 31 -1 182 -1 64 -1 356 -1 65 -1 566 -1 566 -1 566 -1 566 -1 75 -1 30 -2
244 -1 50 -1 6 -1 76 -1 3681 -1 7 -1 65 -1 3353 -1 791 -1 6 -1 32 -1 75 -1 131 -1 3 -1 16 -1 2626 -1 41 -1 76 -1 131 -1 3 -1 1617 -1 10 -1 681 -1 76 -1 1175 -1 10 -1 30 -2
113 -1 3 -1 2627 -1 2399 -1 30 -2
113 -1 144 -1 4527 -1 213 -1 4963 -1 10 -1 5403 -1 30 -2
176 -1 6127 -1 76 -1 747 -1 41 -1 30 -2
747 -1 41 -1 31 -1 3 -1 352 -1 41 -1 3 -1 2 -1 2920 -1 2 -1 927 -1 2 -1 3 -1 484 -1 406 -1 176 -1 30 -2
179 -1 22 -1 23613 -1 9465 -1 32 -1 10524 -1 11737 -1 7 -1 16648 -1 113 -1 208 -1 308 -1 200 -1 273 -1 417 -1 1856 -1 2 -1 30 -2
176 -1 6127 -1 76 -1 4152 -1 113 -1 7 -1 65 -1 400 -1 47182 -1 30 -2
189 -1 113 -1 118 -1 326 -1 234 -1 76 -1 557 -1 113 -1 326 -1 234 -1 419 -1 64 -1 156 -1 64 -1 5587 -1 225 -1 50 -1 13 -1 31 -1 22 -1 51 -1 380 -1 1242 -1 30 -2
4152 -1 417 -1 1334 -1 4249 -1 2 -1 1842 -1 154 -1 76 -1 2 -1 30 -2
2 -1 29 -1 448 -1 1473 -1 3659 -1 64 -1 50 -1 435 -1 2 -1 510 -1 113 -1 677 -1 30 -2
873 -1 64 -1 41 -1 757 -1 5 -1 76 -1 417 -1 1747 -1 4210 -1 64 -1 4210 -1 160 -1 66 -1 644 -1 6606 -1 64 -1 356 -1 33 -1 22 -1 24867 -1 32 -1 3 -1 178 -1 154 -1 20769 -1 17737 -1 76 -1 214 -1 3 -1 7447 -1 51 -1 1242 -1 30 -2
1838 -1 309 -1 527 -1 864 -1 32 -1 351 -1 30 -2
527 -1 339 -1 32 -1 418 -1 13 -1 3 -1 463 -1 30 -2
3847 -1 76 -1 1480 -1 32 -1 1221 -1 30 -2
7658 -1 30 -2
1807 -1 30 -2
9212 -1 30 -2
11357 -1 32 -1 482 -1 3 -1 571 -1 30 -2
11357 -1 32 -1 30 -2
176 -1 6127 -1 11 -1 9242 -1 30 -2
41 -1 3 -1 5082 -1 76 -1 6940 -1 76 -1 1672 -1 76 -1 23004 -1 76 -1 18248 -1 2 -1 10498 -1 30 -2
22 -1 380 -1 580 -1 375 -1 2319 -1 113 -1 403 -1 248 -1 2710 -1 271 -2
131 -1 3 -1 66 -1 479 -1 554 -1 2 -1 113 -1 326 -1 179 -1 76 -1 1501 -1 479 -1 554 -1 77241 -1 76 -1 69 -1 16 -1 463 -1 64 -1 692 -1 76 -1 31 -1 113 -1 115 -1 121 -1 30 -2
113 -1 7 -1 211 -1 403 -1 2924 -1 76 -1 2211 -1 213 -1 30 -2
113 -1 403 -1 151 -1 146 -1 257 -1 374 -1 3 -1 340 -1 139 -1 187 -1 32 -1 65 -1 21651 -1 76 -1 113 -1 5079 -1 50 -1 2141 -1 158 -1 113 -1 2108 -1 66 -1 22 -1 6106 -1 8812 -1 2 -1 272 -1 3349 -1 17529 -1 388 -1 30 -2
26933 -1 7 -1 65 -1 406 -1 163 -1 1203 -1 278 -1 6604 -1 30 -2
223 -1 2289 -1 113 -1 326 -1 158 -1 113 -1 3 -1 1841 -1 113 -1 403 -1 182 -1 406 -1 80 -1 64 -1 8860 -1 691 -1 189 -1 510 -1 65 -1 1635 -1 7193 -1 278 -1 22 -1 394 -1 113 -1 7 -1 504 -1 149 -1 141 -1 264 -1 76 -1 2 -1 65 -1 5979 -1 30 -2
182 -1 1216 -1 593 -1 894 -1 2 -1 923 -1 3 -1 65 -1 386 -1 247 -1 32 -1 182 -1 30 -2
2344 -1 65 -1 45 -1 6708 -1 2 -1 3 -1 154 -1 729 -1 66 -1 750 -1 30 -2
77 -1 702 -1 506 -1 499 -1 595 -1 702 -1 7 -1 64 -1 256 -1 154 -1 406 -1 1838 -1 15 -1 887 -1 64 -1 141 -1 66 -1 1098 -1 11498 -1 3821 -1 30 -2
702 -1 3 -1 16 -1 652 -1 64 -1 613 -1 76 -1 113 -1 194 -1 113 -1 161 -1 463 -1 64 -1 22 -1 1765 -1 30 -2
182 -1 641 -1 247 -1 32 -1 22 -1 7263 -1 76 -1 151 -1 585 -1 3 -1 16 -1 1175 -1 10 -1 475 -1 613 -1 30 -2
22 -1 118 -1 340 -1 379 -1 484 -1 41 -1 248 -1 326 -1 675 -1 2832 -1 30 -2
747 -1 41 -1 108289 -1 76 -1 599 -1 66 -1 520 -1 340 -1 406 -1 163 -1 76 -1 2065 -1 76 -1 770 -1 3405 -1 30 -2
113 -1 326 -1 3305 -1 3 -1 65 -1 386 -1 54 -1 31 -1 702 -1 185 -1 30 -2
191 -1 408 -1 65 -1 16 -1 484 -1 10674 -1 3028 -1 187 -1 33 -1 45 -1 2 -1 113 -1 211 -1 30 -2
57 -1 2096 -1 76 -1 113 -1 7 -1 65 -1 248 -1 769 -1 585 -1 46 -1 30 -2
702 -1 3 -1 165 -1 32 -1 22 -1 15 -1 7376 -1 213 -1 113 -1 7 -1 798 -1 694 -1 30 -2
702 -1 692 -1 67 -1 750 -1 32 -1 67 -1 44 -1 30 -2
702 -1 7 -1 22 -1 15 -1 12308 -1 7317 -1 32 -1 15645 -1 30 -2
17737 -1 9824 -1 1822 -1 4527 -1 26843 -1 12827 -1 482 -1 10 -1 22 -1 129 -1 620 -1 165 -1 44 -1 499 -1 22 -1 51 -1 19799 -1 5901 -1 6079 -1 113 -1 144 -1 168 -1 1272 -1 1203 -1 64 -1 816 -1 3018 -1 113 -1 7 -1 65 -1 1272 -1 3394 -1 30 -2
113 -1 118 -1 7 -1 165 -1 195 -1 72 -1 715 -1 182 -1 2 -1 113 -1 340 -1 144 -1 50 -1 1904 -1 2 -1 3029 -1 1203 -1 549 -1 30 -2
113 -1 571 -1 22 -1 506 -1 32 -1 669 -1 33 -1 213 -1 799 -1 76 -1 30 -2
176 -1 6127 -1 76 -1 65 -1 385 -1 30 -2
65 -1 288 -1 385 -1 1498 -1 113 -1 1991 -1 113 -1 7 -1 256 -1 41 -1 66 -1 1433 -1 2 -1 156 -1 29 -1 1966 -1 242 -1 41 -1 3 -1 769 -1 30 -2
747 -1 41 -1 31 -1 613 -1 113 -1 3765 -1 388 -1 30 -2
113 -1 3 -1 1603 -1 76 -1 234 -1 76 -1 30 -2
113 -1 848 -1 463 -1 64 -1 809 -1 635 -1 406 -1 163 -1 46 -1 2 -1 77 -1 247 -1 32 -1 50 -1 809 -1 305 -1 297 -1 614 -1 88 -1 613 -1 113 -1 64 -1 4481 -1 50 -1 666 -1 30 -2
50 -1 666 -1 3 -1 211 -1 65 -1 1301 -1 30 -2
113 -1 226 -1 10 -1 182 -1 31 -1 692 -1 76 -1 69 -1 1480 -1 32 -1 516 -1 76 -1 30 -2
65 -1 566 -1 52 -1 160 -1 50 -1 6 -1 32 -1 256 -1 64 -1 326 -1 312 -1 625 -1 692 -1 7976 -1 262 -1 22 -1 1692 -1 385 -1 30 -2
113 -1 161 -1 571 -1 2660 -1 244 -1 530 -1 3681 -1 2 -1 5 -1 33 -1 1068 -1 6 -1 149 -1 3519 -1 165 -1 76 -1 224 -1 41 -1 30 -2
148 -1 150 -1 431 -1 4500 -1 30 -2
2 -1 31 -1 635 -1 1217 -1 287 -1 76 -1 22788 -1 19441 -1 268 -1 4513 -1 3855 -1 176 -1 6127 -1 76 -1 1097 -1 10524 -1 76 -1 2 -1 113 -1 326 -1 151 -1 124 -1 342 -1 16 -1 308 -1 22 -1 207 -1 932 -1 296 -1 30 -2
2 -1 342 -1 3020 -1 64 -1 9623 -1 76 -1 2 -1 424 -1 1050 -1 4274 -1 12339 -1 64 -1 283 -1 601 -1 30 -2
557 -1 113 -1 453 -1 1678 -1 519 -1 30 -2
176 -1 6127 -1 76 -1 47571 -1 21607 -1 76 -1 2 -1 47571 -1 2418 -1 1092 -1 76 -1 2 -1 47571 -1 4527 -1 2015 -1 76 -1 2 -1 47571 -1 11737 -1 30 -2
113 -1 3 -1 484 -1 2020 -1 160 -1 41 -1 30 -2
65 -1 614 -1 8476 -1 262 -1 2418 -1 76 -1 557 -1 383 -1 32 -1 16 -1 30 -2
176 -1 6127 -1 76 -1 342 -1 65 -1 658 -1 3926 -1 137 -1 273 -1 113 -1 308 -1 41 -1 2895 -1 49 -1 886 -1 30 -2
113 -1 326 -1 702 -1 124 -1 65 -1 1100 -1 64 -1 41 -1 76 -1 557 -1 113 -1 598 -1 248 -1 326 -1 418 -1 64 -1 506 -1 2 -1 41 -1 3 -1 1308 -1 3018 -1 22 -1 348 -1 113 -1 3 -1 30 -2
113 -1 118 -1 326 -1 224 -1 69 -1 340 -1 108290 -1 76 -1 340 -1 41 -1 208 -1 2081 -1 79 -1 2 -1 3642 -1 137 -1 525 -1 717 -1 10 -1 65 -1 2455 -1 42780 -1 30 -2
113 -1 161 -1 649 -1 76 -1 3954 -1 2460 -1 75 -1 160 -1 213 -1 352 -1 41 -1 786 -1 30 -2
41 -1 214 -1 3 -1 364 -1 1916 -1 76 -1 557 -1 209 -1 250 -1 400 -1 4344 -1 271 -2
747 -1 31 -1 29 -1 3502 -1 431 -1 2 -1 1014 -1 542 -1 20769 -1 12318 -1 108291 -1 76 -1 100 -1 64 -1 40 -1 30 -2
1401 -1 32 -1 2524 -1 340 -1 251 -1 31 -1 1326 -1 847 -1 417 -1 3 -1 66 -1 831 -1 30 -2
2525 -1 76 -1 4316 -1 76 -1 718 -1 76 -1 4369 -1 76 -1 3519 -1 76 -1 4966 -1 76 -1 7616 -1 76 -1 1981 -1 76 -1 3020 -1 76 -1 3298 -1 76 -1 5208 -1 30 -2
113 -1 1991 -1 50 -1 1428 -1 3 -1 831 -1 158 -1 113 -1 3 -1 8332 -1 385 -1 373 -1 30 -2
113 -1 463 -1 30 -2