2 -1 #SUP: 7
3 -1 #SUP: 23
7 -1 #SUP: 10
8 -1 #SUP: 7
10 -1 #SUP: 4
16 -1 #SUP: 3
22 -1 #SUP: 25
26 -1 #SUP: 6
28 -1 #SUP: 6
29 -1 #SUP: 2
31 -1 #SUP: 2
32 -1 #SUP: 12
33 -1 #SUP: 5
41 -1 #SUP: 7
42 -1 #SUP: 2
50 -1 #SUP: 13
62 -1 #SUP: 2
64 -1 #SUP: 18
65 -1 #SUP: 17
69 -1 #SUP: 2
74 -1 #SUP: 3
76 -1 #SUP: 42
77 -1 #SUP: 2
113 -1 #SUP: 43
118 -1 #SUP: 4
124 -1 #SUP: 2
131 -1 #SUP: 7
137 -1 #SUP: 4
141 -1 #SUP: 2
146 -1 #SUP: 2
149 -1 #SUP: 2
151 -1 #SUP: 10
160 -1 #SUP: 6
161 -1 #SUP: 9
165 -1 #SUP: 2
168 -1 #SUP: 3
179 -1 #SUP: 4
182 -1 #SUP: 5
190 -1 #SUP: 2
194 -1 #SUP: 2
195 -1 #SUP: 2
208 -1 #SUP: 4
211 -1 #SUP: 3
213 -1 #SUP: 2
224 -1 #SUP: 4
234 -1 #SUP: 5
244 -1 #SUP: 2
250 -1 #SUP: 4
256 -1 #SUP: 2
258 -1 #SUP: 2
273 -1 #SUP: 2
278 -1 #SUP: 2
297 -1 #SUP: 2
304 -1 #SUP: 3
312 -1 #SUP: 6
326 -1 #SUP: 2
340 -1 #SUP: 7
342 -1 #SUP: 2
363 -1 #SUP: 2
386 -1 #SUP: 2
388 -1 #SUP: 2
393 -1 #SUP: 2
406 -1 #SUP: 2
463 -1 #SUP: 2
484 -1 #SUP: 2
493 -1 #SUP: 4
497 -1 #SUP: 2
500 -1 #SUP: 2
510 -1 #SUP: 2
527 -1 #SUP: 4
557 -1 #SUP: 9
599 -1 #SUP: 2
601 -1 #SUP: 2
702 -1 #SUP: 2
771 -1 #SUP: 2
864 -1 #SUP: 2
872 -1 #SUP: 2
903 -1 #SUP: 2
932 -1 #SUP: 2
952 -1 #SUP: 5
1073 -1 #SUP: 3
1101 -1 #SUP: 2
1152 -1 #SUP: 2
1157 -1 #SUP: 2
1232 -1 #SUP: 2
1428 -1 #SUP: 4
1483 -1 #SUP: 2
1711 -1 #SUP: 2
1771 -1 #SUP: 2
1894 -1 #SUP: 2
2162 -1 #SUP: 2
2344 -1 #SUP: 3
2464 -1 #SUP: 2
3005 -1 #SUP: 2
3402 -1 #SUP: 3
4356 -1 #SUP: 2
5632 -1 #SUP: 2
8310 -1 #SUP: 2
13228 -1 #SUP: 2
13469 -1 #SUP: 2
14148 -1 #SUP: 3
30834 -1 #SUP: 2
3 -1 3 -1 #SUP: 3
3 -1 22 -1 #SUP: 2
3 -1 50 -1 #SUP: 2
3 -1 64 -1 #SUP: 3
3 -1 65 -1 #SUP: 6
3 -1 76 -1 #SUP: 6
3 -1 113 -1 #SUP: 2
3 -1 312 -1 #SUP: 2
3 -1 363 -1 #SUP: 2
7 -1 16 -1 #SUP: 2
7 -1 22 -1 #SUP: 5
7 -1 32 -1 #SUP: 3
7 -1 50 -1 #SUP: 2
7 -1 64 -1 #SUP: 2
7 -1 76 -1 #SUP: 5
7 -1 113 -1 #SUP: 2
7 -1 160 -1 #SUP: 2
7 -1 952 -1 #SUP: 3
7 -1 1073 -1 #SUP: 2
8 -1 8 -1 #SUP: 3
8 -1 26 -1 #SUP: 6
8 -1 28 -1 #SUP: 6
22 -1 3 -1 #SUP: 2
22 -1 10 -1 #SUP: 3
22 -1 22 -1 #SUP: 3
22 -1 32 -1 #SUP: 4
22 -1 50 -1 #SUP: 2
22 -1 64 -1 #SUP: 8
22 -1 65 -1 #SUP: 3
22 -1 76 -1 #SUP: 5
22 -1 113 -1 #SUP: 2
22 -1 151 -1 #SUP: 2
22 -1 952 -1 #SUP: 4
22 -1 1073 -1 #SUP: 2
22 -1 1232 -1 #SUP: 2
22 -1 1771 -1 #SUP: 2
22 -1 5632 -1 #SUP: 2
22 -1 13469 -1 #SUP: 2
26 -1 8 -1 #SUP: 2
26 -1 26 -1 #SUP: 2
26 -1 28 -1 #SUP: 2
28 -1 8 -1 #SUP: 2
28 -1 26 -1 #SUP: 6
28 -1 28 -1 #SUP: 2
32 -1 32 -1 #SUP: 2
32 -1 65 -1 #SUP: 2
32 -1 76 -1 #SUP: 2
32 -1 131 -1 #SUP: 2
33 -1 10 -1 #SUP: 2
33 -1 22 -1 #SUP: 2
33 -1 32 -1 #SUP: 2
33 -1 76 -1 #SUP: 2
41 -1 3 -1 #SUP: 3
41 -1 29 -1 #SUP: 2
41 -1 65 -1 #SUP: 2
41 -1 76 -1 #SUP: 2
41 -1 1428 -1 #SUP: 2
50 -1 3 -1 #SUP: 5
50 -1 7 -1 #SUP: 2
50 -1 22 -1 #SUP: 2
50 -1 50 -1 #SUP: 2
50 -1 76 -1 #SUP: 2
50 -1 952 -1 #SUP: 2
50 -1 1428 -1 #SUP: 3
64 -1 22 -1 #SUP: 3
64 -1 50 -1 #SUP: 3
64 -1 76 -1 #SUP: 3
64 -1 151 -1 #SUP: 2
64 -1 557 -1 #SUP: 2
64 -1 1771 -1 #SUP: 2
64 -1 13469 -1 #SUP: 2
65 -1 2 -1 #SUP: 2
65 -1 32 -1 #SUP: 3
65 -1 76 -1 #SUP: 3
65 -1 113 -1 #SUP: 2
65 -1 1073 -1 #SUP: 2
74 -1 258 -1 #SUP: 2
74 -1 1711 -1 #SUP: 2
76 -1 2 -1 #SUP: 4
76 -1 3 -1 #SUP: 6
76 -1 22 -1 #SUP: 6
76 -1 32 -1 #SUP: 2
76 -1 50 -1 #SUP: 4
76 -1 64 -1 #SUP: 4
76 -1 65 -1 #SUP: 4
76 -1 76 -1 #SUP: 5
76 -1 113 -1 #SUP: 11
76 -1 137 -1 #SUP: 2
76 -1 141 -1 #SUP: 2
76 -1 151 -1 #SUP: 4
76 -1 160 -1 #SUP: 3
76 -1 179 -1 #SUP: 2
76 -1 182 -1 #SUP: 3
76 -1 195 -1 #SUP: 2
76 -1 211 -1 #SUP: 2
76 -1 213 -1 #SUP: 2
76 -1 234 -1 #SUP: 2
76 -1 244 -1 #SUP: 2
76 -1 278 -1 #SUP: 2
76 -1 312 -1 #SUP: 4
76 -1 340 -1 #SUP: 4
76 -1 342 -1 #SUP: 2
76 -1 557 -1 #SUP: 8
76 -1 932 -1 #SUP: 2
76 -1 952 -1 #SUP: 2
76 -1 2464 -1 #SUP: 2
113 -1 3 -1 #SUP: 5
113 -1 7 -1 #SUP: 6
113 -1 22 -1 #SUP: 12
113 -1 31 -1 #SUP: 2
113 -1 32 -1 #SUP: 3
113 -1 50 -1 #SUP: 4
113 -1 64 -1 #SUP: 10
113 -1 65 -1 #SUP: 4
113 -1 76 -1 #SUP: 11
113 -1 113 -1 #SUP: 8
113 -1 118 -1 #SUP: 2
113 -1 141 -1 #SUP: 2
113 -1 151 -1 #SUP: 5
113 -1 160 -1 #SUP: 5
113 -1 161 -1 #SUP: 6
113 -1 168 -1 #SUP: 2
113 -1 208 -1 #SUP: 3
113 -1 211 -1 #SUP: 3
113 -1 297 -1 #SUP: 2
113 -1 312 -1 #SUP: 3
113 -1 340 -1 #SUP: 4
113 -1 388 -1 #SUP: 2
113 -1 463 -1 #SUP: 2
113 -1 557 -1 #SUP: 4
113 -1 599 -1 #SUP: 2
113 -1 952 -1 #SUP: 3
113 -1 1073 -1 #SUP: 2
113 -1 1152 -1 #SUP: 2
113 -1 1428 -1 #SUP: 2
113 -1 2162 -1 #SUP: 2
113 -1 3005 -1 #SUP: 2
118 -1 76 -1 #SUP: 3
118 -1 113 -1 #SUP: 2
118 -1 557 -1 #SUP: 2
124 -1 76 -1 #SUP: 2
124 -1 557 -1 #SUP: 2
131 -1 2 -1 #SUP: 2
131 -1 32 -1 #SUP: 2
131 -1 76 -1 #SUP: 3
146 -1 113 -1 #SUP: 2
151 -1 3 -1 #SUP: 3
151 -1 50 -1 #SUP: 2
151 -1 76 -1 #SUP: 2
151 -1 1428 -1 #SUP: 2
160 -1 50 -1 #SUP: 2
161 -1 3 -1 #SUP: 5
161 -1 7 -1 #SUP: 2
161 -1 22 -1 #SUP: 3
161 -1 64 -1 #SUP: 4
161 -1 65 -1 #SUP: 4
161 -1 76 -1 #SUP: 2
161 -1 113 -1 #SUP: 2
161 -1 340 -1 #SUP: 3
168 -1 32 -1 #SUP: 2
182 -1 3 -1 #SUP: 2
195 -1 340 -1 #SUP: 2
208 -1 64 -1 #SUP: 2
208 -1 113 -1 #SUP: 2
208 -1 304 -1 #SUP: 2
208 -1 3402 -1 #SUP: 2
208 -1 14148 -1 #SUP: 2
224 -1 22 -1 #SUP: 3
224 -1 113 -1 #SUP: 2
234 -1 76 -1 #SUP: 2
258 -1 1711 -1 #SUP: 2
304 -1 14148 -1 #SUP: 3
312 -1 22 -1 #SUP: 2
312 -1 76 -1 #SUP: 3
312 -1 2464 -1 #SUP: 2
340 -1 32 -1 #SUP: 2
340 -1 64 -1 #SUP: 2
363 -1 65 -1 #SUP: 2
386 -1 65 -1 #SUP: 2
386 -1 76 -1 #SUP: 2
386 -1 557 -1 #SUP: 2
527 -1 64 -1 #SUP: 2
527 -1 76 -1 #SUP: 3
527 -1 113 -1 #SUP: 2
557 -1 64 -1 #SUP: 2
557 -1 113 -1 #SUP: 4
557 -1 141 -1 #SUP: 2
557 -1 151 -1 #SUP: 2
771 -1 76 -1 #SUP: 2
771 -1 113 -1 #SUP: 2
771 -1 160 -1 #SUP: 2
864 -1 32 -1 #SUP: 2
952 -1 50 -1 #SUP: 2
952 -1 64 -1 #SUP: 4
952 -1 76 -1 #SUP: 2
1073 -1 32 -1 #SUP: 3
1101 -1 76 -1 #SUP: 2
1152 -1 22 -1 #SUP: 2
1232 -1 64 -1 #SUP: 2
1232 -1 1771 -1 #SUP: 2
1232 -1 13469 -1 #SUP: 2
1428 -1 3 -1 #SUP: 3
1483 -1 22 -1 #SUP: 2
1483 -1 64 -1 #SUP: 2
1483 -1 1232 -1 #SUP: 2
1483 -1 1771 -1 #SUP: 2
1483 -1 13469 -1 #SUP: 2
2344 -1 65 -1 #SUP: 3
2464 -1 76 -1 #SUP: 2
3402 -1 304 -1 #SUP: 3
3402 -1 14148 -1 #SUP: 3
4356 -1 2 -1 #SUP: 2
13469 -1 1771 -1 #SUP: 2
7 -1 22 -1 50 -1 #SUP: 2
7 -1 22 -1 64 -1 #SUP: 2
7 -1 22 -1 76 -1 #SUP: 2
7 -1 22 -1 952 -1 #SUP: 3
7 -1 64 -1 50 -1 #SUP: 2
7 -1 76 -1 113 -1 #SUP: 2
7 -1 952 -1 50 -1 #SUP: 2
7 -1 952 -1 64 -1 #SUP: 2
7 -1 952 -1 76 -1 #SUP: 2
7 -1 1073 -1 32 -1 #SUP: 2
8 -1 8 -1 26 -1 #SUP: 2
8 -1 8 -1 28 -1 #SUP: 3
8 -1 26 -1 8 -1 #SUP: 2
8 -1 26 -1 26 -1 #SUP: 2
8 -1 26 -1 28 -1 #SUP: 2
8 -1 28 -1 8 -1 #SUP: 2
8 -1 28 -1 26 -1 #SUP: 6
8 -1 28 -1 28 -1 #SUP: 2
22 -1 64 -1 50 -1 #SUP: 2
22 -1 64 -1 1771 -1 #SUP: 2
22 -1 64 -1 13469 -1 #SUP: 2
22 -1 76 -1 113 -1 #SUP: 2
22 -1 952 -1 50 -1 #SUP: 2
22 -1 952 -1 64 -1 #SUP: 4
22 -1 952 -1 76 -1 #SUP: 2
22 -1 1073 -1 32 -1 #SUP: 2
22 -1 1232 -1 64 -1 #SUP: 2
22 -1 1232 -1 1771 -1 #SUP: 2
22 -1 1232 -1 13469 -1 #SUP: 2
22 -1 13469 -1 1771 -1 #SUP: 2
26 -1 8 -1 26 -1 #SUP: 2
26 -1 8 -1 28 -1 #SUP: 2
26 -1 28 -1 26 -1 #SUP: 2
28 -1 8 -1 26 -1 #SUP: 2
28 -1 8 -1 28 -1 #SUP: 2
28 -1 26 -1 8 -1 #SUP: 2
28 -1 26 -1 26 -1 #SUP: 2
28 -1 26 -1 28 -1 #SUP: 2
28 -1 28 -1 26 -1 #SUP: 2
33 -1 22 -1 10 -1 #SUP: 2
41 -1 76 -1 3 -1 #SUP: 2
41 -1 1428 -1 3 -1 #SUP: 2
50 -1 1428 -1 3 -1 #SUP: 2
64 -1 76 -1 557 -1 #SUP: 2
64 -1 13469 -1 1771 -1 #SUP: 2
65 -1 1073 -1 32 -1 #SUP: 2
74 -1 258 -1 1711 -1 #SUP: 2
76 -1 3 -1 3 -1 #SUP: 2
76 -1 50 -1 3 -1 #SUP: 2
76 -1 50 -1 952 -1 #SUP: 2
76 -1 76 -1 76 -1 #SUP: 2
76 -1 113 -1 3 -1 #SUP: 2
76 -1 113 -1 22 -1 #SUP: 2
76 -1 113 -1 64 -1 #SUP: 2
76 -1 113 -1 65 -1 #SUP: 2
76 -1 113 -1 113 -1 #SUP: 3
76 -1 113 -1 141 -1 #SUP: 2
76 -1 113 -1 151 -1 #SUP: 3
76 -1 113 -1 160 -1 #SUP: 2
76 -1 113 -1 211 -1 #SUP: 2
76 -1 113 -1 340 -1 #SUP: 2
76 -1 151 -1 3 -1 #SUP: 2
76 -1 195 -1 340 -1 #SUP: 2
76 -1 312 -1 76 -1 #SUP: 2
76 -1 312 -1 2464 -1 #SUP: 2
76 -1 557 -1 64 -1 #SUP: 2
76 -1 557 -1 113 -1 #SUP: 4
76 -1 557 -1 141 -1 #SUP: 2
76 -1 557 -1 151 -1 #SUP: 2
113 -1 3 -1 76 -1 #SUP: 2
113 -1 7 -1 22 -1 #SUP: 4
113 -1 7 -1 32 -1 #SUP: 2
113 -1 7 -1 76 -1 #SUP: 2
113 -1 7 -1 160 -1 #SUP: 2
113 -1 7 -1 952 -1 #SUP: 2
113 -1 22 -1 64 -1 #SUP: 3
113 -1 22 -1 65 -1 #SUP: 2
113 -1 22 -1 76 -1 #SUP: 2
113 -1 22 -1 113 -1 #SUP: 2
113 -1 22 -1 952 -1 #SUP: 2
113 -1 50 -1 3 -1 #SUP: 2
113 -1 50 -1 1428 -1 #SUP: 2
113 -1 64 -1 22 -1 #SUP: 2
113 -1 64 -1 50 -1 #SUP: 2
113 -1 64 -1 76 -1 #SUP: 2
113 -1 64 -1 151 -1 #SUP: 2
113 -1 64 -1 557 -1 #SUP: 2
113 -1 76 -1 22 -1 #SUP: 2
113 -1 76 -1 65 -1 #SUP: 2
113 -1 76 -1 76 -1 #SUP: 2
113 -1 76 -1 113 -1 #SUP: 5
113 -1 76 -1 557 -1 #SUP: 4
113 -1 113 -1 65 -1 #SUP: 2
113 -1 113 -1 113 -1 #SUP: 2
113 -1 113 -1 151 -1 #SUP: 2
113 -1 113 -1 340 -1 #SUP: 2
113 -1 118 -1 76 -1 #SUP: 2
113 -1 118 -1 557 -1 #SUP: 2
113 -1 160 -1 50 -1 #SUP: 2
113 -1 161 -1 3 -1 #SUP: 2
113 -1 161 -1 7 -1 #SUP: 2
113 -1 161 -1 22 -1 #SUP: 2
113 -1 161 -1 64 -1 #SUP: 2
113 -1 161 -1 65 -1 #SUP: 2
113 -1 161 -1 76 -1 #SUP: 2
113 -1 161 -1 340 -1 #SUP: 3
113 -1 208 -1 113 -1 #SUP: 2
113 -1 312 -1 22 -1 #SUP: 2
113 -1 312 -1 76 -1 #SUP: 2
113 -1 340 -1 32 -1 #SUP: 2
113 -1 557 -1 113 -1 #SUP: 2
113 -1 1073 -1 32 -1 #SUP: 2
113 -1 1152 -1 22 -1 #SUP: 2
113 -1 1428 -1 3 -1 #SUP: 2
118 -1 76 -1 557 -1 #SUP: 2
124 -1 76 -1 557 -1 #SUP: 2
131 -1 76 -1 2 -1 #SUP: 2
151 -1 50 -1 1428 -1 #SUP: 2
161 -1 3 -1 64 -1 #SUP: 2
161 -1 3 -1 65 -1 #SUP: 3
161 -1 22 -1 64 -1 #SUP: 2
208 -1 304 -1 14148 -1 #SUP: 2
208 -1 3402 -1 304 -1 #SUP: 2
208 -1 3402 -1 14148 -1 #SUP: 2
224 -1 113 -1 22 -1 #SUP: 2
312 -1 2464 -1 76 -1 #SUP: 2
386 -1 76 -1 557 -1 #SUP: 2
557 -1 113 -1 113 -1 #SUP: 2
557 -1 113 -1 141 -1 #SUP: 2
771 -1 76 -1 113 -1 #SUP: 2
771 -1 76 -1 160 -1 #SUP: 2
771 -1 113 -1 160 -1 #SUP: 2
952 -1 64 -1 50 -1 #SUP: 2
1232 -1 64 -1 1771 -1 #SUP: 2
1232 -1 64 -1 13469 -1 #SUP: 2
1232 -1 13469 -1 1771 -1 #SUP: 2
1483 -1 22 -1 64 -1 #SUP: 2
1483 -1 22 -1 1232 -1 #SUP: 2
1483 -1 22 -1 1771 -1 #SUP: 2
1483 -1 22 -1 13469 -1 #SUP: 2
1483 -1 64 -1 1771 -1 #SUP: 2
1483 -1 64 -1 13469 -1 #SUP: 2
1483 -1 1232 -1 64 -1 #SUP: 2
1483 -1 1232 -1 1771 -1 #SUP: 2
1483 -1 1232 -1 13469 -1 #SUP: 2
1483 -1 13469 -1 1771 -1 #SUP: 2
3402 -1 304 -1 14148 -1 #SUP: 3
7 -1 22 -1 64 -1 50 -1 #SUP: 2
7 -1 22 -1 952 -1 50 -1 #SUP: 2
7 -1 22 -1 952 -1 64 -1 #SUP: 2
7 -1 22 -1 952 -1 76 -1 #SUP: 2
7 -1 952 -1 64 -1 50 -1 #SUP: 2
8 -1 8 -1 28 -1 26 -1 #SUP: 2
8 -1 26 -1 8 -1 26 -1 #SUP: 2
8 -1 26 -1 8 -1 28 -1 #SUP: 2
8 -1 26 -1 28 -1 26 -1 #SUP: 2
8 -1 28 -1 8 -1 26 -1 #SUP: 2
8 -1 28 -1 8 -1 28 -1 #SUP: 2
8 -1 28 -1 26 -1 8 -1 #SUP: 2
8 -1 28 -1 26 -1 26 -1 #SUP: 2
8 -1 28 -1 26 -1 28 -1 #SUP: 2
8 -1 28 -1 28 -1 26 -1 #SUP: 2
22 -1 64 -1 13469 -1 1771 -1 #SUP: 2
22 -1 952 -1 64 -1 50 -1 #SUP: 2
22 -1 1232 -1 64 -1 1771 -1 #SUP: 2
22 -1 1232 -1 64 -1 13469 -1 #SUP: 2
22 -1 1232 -1 13469 -1 1771 -1 #SUP: 2
26 -1 8 -1 28 -1 26 -1 #SUP: 2
28 -1 8 -1 28 -1 26 -1 #SUP: 2
28 -1 26 -1 8 -1 26 -1 #SUP: 2
28 -1 26 -1 8 -1 28 -1 #SUP: 2
28 -1 26 -1 28 -1 26 -1 #SUP: 2
76 -1 113 -1 113 -1 151 -1 #SUP: 2
76 -1 557 -1 113 -1 141 -1 #SUP: 2
113 -1 7 -1 22 -1 952 -1 #SUP: 2
113 -1 22 -1 76 -1 113 -1 #SUP: 2
113 -1 50 -1 1428 -1 3 -1 #SUP: 2
113 -1 64 -1 76 -1 557 -1 #SUP: 2
113 -1 76 -1 113 -1 65 -1 #SUP: 2
113 -1 76 -1 113 -1 113 -1 #SUP: 2
113 -1 76 -1 557 -1 113 -1 #SUP: 2
113 -1 118 -1 76 -1 557 -1 #SUP: 2
208 -1 3402 -1 304 -1 14148 -1 #SUP: 2
771 -1 76 -1 113 -1 160 -1 #SUP: 2
1232 -1 64 -1 13469 -1 1771 -1 #SUP: 2
1483 -1 22 -1 64 -1 1771 -1 #SUP: 2
1483 -1 22 -1 64 -1 13469 -1 #SUP: 2
1483 -1 22 -1 1232 -1 64 -1 #SUP: 2
1483 -1 22 -1 1232 -1 1771 -1 #SUP: 2
1483 -1 22 -1 1232 -1 13469 -1 #SUP: 2
1483 -1 22 -1 13469 -1 1771 -1 #SUP: 2
1483 -1 64 -1 13469 -1 1771 -1 #SUP: 2
1483 -1 1232 -1 64 -1 1771 -1 #SUP: 2
1483 -1 1232 -1 64 -1 13469 -1 #SUP: 2
1483 -1 1232 -1 13469 -1 1771 -1 #SUP: 2
7 -1 22 -1 952 -1 64 -1 50 -1 #SUP: 2
8 -1 26 -1 8 -1 28 -1 26 -1 #SUP: 2
8 -1 28 -1 8 -1 28 -1 26 -1 #SUP: 2
8 -1 28 -1 26 -1 8 -1 26 -1 #SUP: 2
8 -1 28 -1 26 -1 8 -1 28 -1 #SUP: 2
8 -1 28 -1 26 -1 28 -1 26 -1 #SUP: 2
22 -1 1232 -1 64 -1 13469 -1 1771 -1 #SUP: 2
28 -1 26 -1 8 -1 28 -1 26 -1 #SUP: 2
1483 -1 22 -1 64 -1 13469 -1 1771 -1 #SUP: 2
1483 -1 22 -1 1232 -1 64 -1 1771 -1 #SUP: 2
1483 -1 22 -1 1232 -1 64 -1 13469 -1 #SUP: 2
1483 -1 22 -1 1232 -1 13469 -1 1771 -1 #SUP: 2
1483 -1 1232 -1 64 -1 13469 -1 1771 -1 #SUP: 2
8 -1 28 -1 26 -1 8 -1 28 -1 26 -1 #SUP: 2
1483 -1 22 -1 1232 -1 64 -1 13469 -1 1771 -1 #SUP: 2
