2 -1 #SUP: 24
3 -1 #SUP: 54
7 -1 #SUP: 20
9 -1 #SUP: 2
10 -1 #SUP: 11
15 -1 #SUP: 4
16 -1 #SUP: 12
22 -1 #SUP: 28
26 -1 #SUP: 2
27 -1 #SUP: 5
28 -1 #SUP: 2
29 -1 #SUP: 2
30 -1 #SUP: 2
31 -1 #SUP: 16
32 -1 #SUP: 27
33 -1 #SUP: 7
41 -1 #SUP: 19
44 -1 #SUP: 2
46 -1 #SUP: 6
48 -1 #SUP: 2
50 -1 #SUP: 16
54 -1 #SUP: 12
64 -1 #SUP: 43
65 -1 #SUP: 32
66 -1 #SUP: 4
69 -1 #SUP: 3
72 -1 #SUP: 3
76 -1 #SUP: 62
77 -1 #SUP: 7
80 -1 #SUP: 3
81 -1 #SUP: 6
99 -1 #SUP: 3
113 -1 #SUP: 89
115 -1 #SUP: 2
118 -1 #SUP: 12
123 -1 #SUP: 2
124 -1 #SUP: 2
131 -1 #SUP: 11
135 -1 #SUP: 3
139 -1 #SUP: 2
141 -1 #SUP: 13
148 -1 #SUP: 4
149 -1 #SUP: 13
150 -1 #SUP: 3
151 -1 #SUP: 21
154 -1 #SUP: 2
155 -1 #SUP: 4
156 -1 #SUP: 4
158 -1 #SUP: 2
160 -1 #SUP: 8
161 -1 #SUP: 3
163 -1 #SUP: 2
165 -1 #SUP: 6
168 -1 #SUP: 2
182 -1 #SUP: 19
185 -1 #SUP: 5
186 -1 #SUP: 2
187 -1 #SUP: 6
192 -1 #SUP: 4
194 -1 #SUP: 12
195 -1 #SUP: 2
200 -1 #SUP: 23
201 -1 #SUP: 6
208 -1 #SUP: 2
212 -1 #SUP: 2
213 -1 #SUP: 6
214 -1 #SUP: 4
221 -1 #SUP: 5
224 -1 #SUP: 16
225 -1 #SUP: 2
232 -1 #SUP: 3
234 -1 #SUP: 4
242 -1 #SUP: 4
244 -1 #SUP: 4
248 -1 #SUP: 10
250 -1 #SUP: 8
256 -1 #SUP: 7
264 -1 #SUP: 3
266 -1 #SUP: 2
268 -1 #SUP: 7
273 -1 #SUP: 2
278 -1 #SUP: 11
287 -1 #SUP: 2
305 -1 #SUP: 2
307 -1 #SUP: 3
312 -1 #SUP: 5
326 -1 #SUP: 12
340 -1 #SUP: 14
342 -1 #SUP: 7
348 -1 #SUP: 4
352 -1 #SUP: 3
356 -1 #SUP: 3
363 -1 #SUP: 2
375 -1 #SUP: 8
376 -1 #SUP: 2
385 -1 #SUP: 3
401 -1 #SUP: 4
403 -1 #SUP: 4
405 -1 #SUP: 2
406 -1 #SUP: 3
417 -1 #SUP: 10
424 -1 #SUP: 2
431 -1 #SUP: 2
453 -1 #SUP: 4
462 -1 #SUP: 3
463 -1 #SUP: 5
467 -1 #SUP: 2
474 -1 #SUP: 2
484 -1 #SUP: 10
497 -1 #SUP: 5
504 -1 #SUP: 5
510 -1 #SUP: 4
519 -1 #SUP: 2
520 -1 #SUP: 2
527 -1 #SUP: 5
557 -1 #SUP: 12
571 -1 #SUP: 6
576 -1 #SUP: 2
599 -1 #SUP: 2
602 -1 #SUP: 2
614 -1 #SUP: 3
616 -1 #SUP: 3
635 -1 #SUP: 3
692 -1 #SUP: 2
702 -1 #SUP: 8
711 -1 #SUP: 2
725 -1 #SUP: 2
771 -1 #SUP: 2
773 -1 #SUP: 2
783 -1 #SUP: 2
786 -1 #SUP: 6
791 -1 #SUP: 2
860 -1 #SUP: 7
868 -1 #SUP: 2
923 -1 #SUP: 2
929 -1 #SUP: 2
941 -1 #SUP: 2
1017 -1 #SUP: 2
1042 -1 #SUP: 2
1075 -1 #SUP: 4
1089 -1 #SUP: 2
1097 -1 #SUP: 3
1100 -1 #SUP: 5
1104 -1 #SUP: 2
1124 -1 #SUP: 2
1134 -1 #SUP: 2
1143 -1 #SUP: 4
1151 -1 #SUP: 2
1152 -1 #SUP: 2
1186 -1 #SUP: 3
1225 -1 #SUP: 2
1242 -1 #SUP: 3
1327 -1 #SUP: 2
1418 -1 #SUP: 2
1434 -1 #SUP: 4
1487 -1 #SUP: 3
1498 -1 #SUP: 2
1533 -1 #SUP: 2
1543 -1 #SUP: 2
1557 -1 #SUP: 2
1583 -1 #SUP: 2
1584 -1 #SUP: 2
1635 -1 #SUP: 2
1668 -1 #SUP: 2
1678 -1 #SUP: 6
1679 -1 #SUP: 2
1913 -1 #SUP: 2
2127 -1 #SUP: 2
2295 -1 #SUP: 2
2404 -1 #SUP: 2
2489 -1 #SUP: 2
2561 -1 #SUP: 2
2597 -1 #SUP: 2
2792 -1 #SUP: 2
2799 -1 #SUP: 2
3074 -1 #SUP: 2
3320 -1 #SUP: 2
3371 -1 #SUP: 3
3821 -1 #SUP: 2
4392 -1 #SUP: 2
4777 -1 #SUP: 3
5691 -1 #SUP: 4
10363 -1 #SUP: 2
10643 -1 #SUP: 2
10644 -1 #SUP: 2
14359 -1 #SUP: 2
2 -1 2 -1 #SUP: 3
2 -1 3 -1 #SUP: 5
2 -1 7 -1 #SUP: 5
2 -1 10 -1 #SUP: 2
2 -1 16 -1 #SUP: 2
2 -1 22 -1 #SUP: 2
2 -1 31 -1 #SUP: 2
2 -1 41 -1 #SUP: 2
2 -1 50 -1 #SUP: 2
2 -1 64 -1 #SUP: 6
2 -1 76 -1 #SUP: 3
2 -1 99 -1 #SUP: 2
2 -1 113 -1 #SUP: 10
2 -1 131 -1 #SUP: 2
2 -1 151 -1 #SUP: 2
2 -1 182 -1 #SUP: 2
2 -1 213 -1 #SUP: 3
2 -1 214 -1 #SUP: 2
2 -1 224 -1 #SUP: 3
2 -1 244 -1 #SUP: 2
2 -1 256 -1 #SUP: 2
2 -1 453 -1 #SUP: 2
2 -1 571 -1 #SUP: 2
2 -1 702 -1 #SUP: 2
2 -1 1434 -1 #SUP: 2
2 -1 1635 -1 #SUP: 2
3 -1 2 -1 #SUP: 8
3 -1 3 -1 #SUP: 8
3 -1 7 -1 #SUP: 2
3 -1 16 -1 #SUP: 3
3 -1 22 -1 #SUP: 5
3 -1 27 -1 #SUP: 2
3 -1 31 -1 #SUP: 4
3 -1 32 -1 #SUP: 7
3 -1 41 -1 #SUP: 4
3 -1 50 -1 #SUP: 2
3 -1 54 -1 #SUP: 3
3 -1 64 -1 #SUP: 12
3 -1 65 -1 #SUP: 6
3 -1 76 -1 #SUP: 15
3 -1 77 -1 #SUP: 2
3 -1 113 -1 #SUP: 15
3 -1 118 -1 #SUP: 2
3 -1 131 -1 #SUP: 2
3 -1 141 -1 #SUP: 4
3 -1 149 -1 #SUP: 3
3 -1 151 -1 #SUP: 3
3 -1 154 -1 #SUP: 2
3 -1 160 -1 #SUP: 3
3 -1 182 -1 #SUP: 2
3 -1 185 -1 #SUP: 2
3 -1 194 -1 #SUP: 5
3 -1 200 -1 #SUP: 5
3 -1 212 -1 #SUP: 2
3 -1 213 -1 #SUP: 2
3 -1 248 -1 #SUP: 2
3 -1 250 -1 #SUP: 3
3 -1 264 -1 #SUP: 2
3 -1 278 -1 #SUP: 5
3 -1 312 -1 #SUP: 4
3 -1 340 -1 #SUP: 2
3 -1 417 -1 #SUP: 3
3 -1 463 -1 #SUP: 3
3 -1 510 -1 #SUP: 3
3 -1 557 -1 #SUP: 3
3 -1 786 -1 #SUP: 2
3 -1 941 -1 #SUP: 2
3 -1 1042 -1 #SUP: 2
3 -1 1104 -1 #SUP: 2
3 -1 1124 -1 #SUP: 2
3 -1 1151 -1 #SUP: 2
3 -1 1434 -1 #SUP: 2
3 -1 1668 -1 #SUP: 2
3 -1 2127 -1 #SUP: 2
3 -1 3371 -1 #SUP: 2
3 -1 4392 -1 #SUP: 2
7 -1 2 -1 #SUP: 2
7 -1 3 -1 #SUP: 4
7 -1 10 -1 #SUP: 2
7 -1 16 -1 #SUP: 2
7 -1 31 -1 #SUP: 2
7 -1 32 -1 #SUP: 3
7 -1 44 -1 #SUP: 2
7 -1 46 -1 #SUP: 2
7 -1 50 -1 #SUP: 3
7 -1 64 -1 #SUP: 2
7 -1 65 -1 #SUP: 8
7 -1 76 -1 #SUP: 5
7 -1 113 -1 #SUP: 2
7 -1 151 -1 #SUP: 3
7 -1 200 -1 #SUP: 3
7 -1 406 -1 #SUP: 2
7 -1 791 -1 #SUP: 2
9 -1 26 -1 #SUP: 2
9 -1 28 -1 #SUP: 2
9 -1 113 -1 #SUP: 2
10 -1 22 -1 #SUP: 2
10 -1 50 -1 #SUP: 2
10 -1 64 -1 #SUP: 2
10 -1 113 -1 #SUP: 3
15 -1 3 -1 #SUP: 2
15 -1 22 -1 #SUP: 2
16 -1 2 -1 #SUP: 3
16 -1 3 -1 #SUP: 2
16 -1 7 -1 #SUP: 2
16 -1 16 -1 #SUP: 2
16 -1 22 -1 #SUP: 4
16 -1 64 -1 #SUP: 2
16 -1 76 -1 #SUP: 5
16 -1 113 -1 #SUP: 5
16 -1 118 -1 #SUP: 2
16 -1 151 -1 #SUP: 2
16 -1 453 -1 #SUP: 2
16 -1 1075 -1 #SUP: 2
22 -1 2 -1 #SUP: 4
22 -1 3 -1 #SUP: 5
22 -1 10 -1 #SUP: 2
22 -1 16 -1 #SUP: 2
22 -1 32 -1 #SUP: 2
22 -1 54 -1 #SUP: 2
22 -1 64 -1 #SUP: 2
22 -1 76 -1 #SUP: 4
22 -1 113 -1 #SUP: 8
22 -1 149 -1 #SUP: 2
22 -1 151 -1 #SUP: 2
22 -1 165 -1 #SUP: 3
22 -1 182 -1 #SUP: 2
22 -1 200 -1 #SUP: 2
22 -1 326 -1 #SUP: 3
22 -1 340 -1 #SUP: 2
22 -1 348 -1 #SUP: 3
22 -1 868 -1 #SUP: 2
26 -1 113 -1 #SUP: 2
27 -1 3 -1 #SUP: 3
27 -1 41 -1 #SUP: 2
27 -1 64 -1 #SUP: 2
27 -1 113 -1 #SUP: 3
27 -1 141 -1 #SUP: 3
27 -1 340 -1 #SUP: 2
28 -1 26 -1 #SUP: 2
28 -1 113 -1 #SUP: 2
31 -1 3 -1 #SUP: 2
31 -1 54 -1 #SUP: 2
31 -1 64 -1 #SUP: 6
31 -1 65 -1 #SUP: 3
31 -1 76 -1 #SUP: 6
31 -1 113 -1 #SUP: 6
31 -1 182 -1 #SUP: 3
31 -1 200 -1 #SUP: 2
31 -1 278 -1 #SUP: 2
31 -1 287 -1 #SUP: 2
31 -1 527 -1 #SUP: 2
31 -1 557 -1 #SUP: 3
32 -1 2 -1 #SUP: 4
32 -1 3 -1 #SUP: 5
32 -1 7 -1 #SUP: 3
32 -1 16 -1 #SUP: 2
32 -1 22 -1 #SUP: 5
32 -1 32 -1 #SUP: 4
32 -1 41 -1 #SUP: 3
32 -1 50 -1 #SUP: 4
32 -1 64 -1 #SUP: 4
32 -1 65 -1 #SUP: 4
32 -1 76 -1 #SUP: 11
32 -1 113 -1 #SUP: 4
32 -1 131 -1 #SUP: 2
32 -1 165 -1 #SUP: 2
32 -1 200 -1 #SUP: 2
32 -1 201 -1 #SUP: 2
32 -1 213 -1 #SUP: 2
32 -1 244 -1 #SUP: 2
32 -1 268 -1 #SUP: 2
32 -1 326 -1 #SUP: 3
32 -1 375 -1 #SUP: 2
32 -1 467 -1 #SUP: 2
32 -1 1434 -1 #SUP: 3
33 -1 22 -1 #SUP: 4
41 -1 2 -1 #SUP: 4
41 -1 3 -1 #SUP: 6
41 -1 32 -1 #SUP: 3
41 -1 41 -1 #SUP: 2
41 -1 64 -1 #SUP: 2
41 -1 65 -1 #SUP: 2
41 -1 76 -1 #SUP: 7
41 -1 141 -1 #SUP: 2
41 -1 151 -1 #SUP: 2
41 -1 182 -1 #SUP: 3
41 -1 201 -1 #SUP: 3
41 -1 244 -1 #SUP: 2
41 -1 312 -1 #SUP: 2
41 -1 510 -1 #SUP: 2
41 -1 616 -1 #SUP: 2
41 -1 1434 -1 #SUP: 3
46 -1 65 -1 #SUP: 2
46 -1 113 -1 #SUP: 2
46 -1 278 -1 #SUP: 2
46 -1 385 -1 #SUP: 2
50 -1 2 -1 #SUP: 2
50 -1 3 -1 #SUP: 6
50 -1 7 -1 #SUP: 2
50 -1 16 -1 #SUP: 2
50 -1 22 -1 #SUP: 2
50 -1 46 -1 #SUP: 3
50 -1 76 -1 #SUP: 3
50 -1 113 -1 #SUP: 5
50 -1 200 -1 #SUP: 2
50 -1 278 -1 #SUP: 3
50 -1 312 -1 #SUP: 2
50 -1 326 -1 #SUP: 2
50 -1 2404 -1 #SUP: 2
54 -1 3 -1 #SUP: 4
54 -1 15 -1 #SUP: 2
54 -1 76 -1 #SUP: 5
54 -1 151 -1 #SUP: 3
64 -1 2 -1 #SUP: 6
64 -1 3 -1 #SUP: 5
64 -1 7 -1 #SUP: 4
64 -1 10 -1 #SUP: 3
64 -1 16 -1 #SUP: 2
64 -1 22 -1 #SUP: 4
64 -1 31 -1 #SUP: 3
64 -1 32 -1 #SUP: 4
64 -1 33 -1 #SUP: 2
64 -1 41 -1 #SUP: 2
64 -1 46 -1 #SUP: 2
64 -1 50 -1 #SUP: 5
64 -1 54 -1 #SUP: 3
64 -1 65 -1 #SUP: 5
64 -1 66 -1 #SUP: 2
64 -1 76 -1 #SUP: 13
64 -1 77 -1 #SUP: 2
64 -1 113 -1 #SUP: 10
64 -1 131 -1 #SUP: 2
64 -1 141 -1 #SUP: 2
64 -1 149 -1 #SUP: 2
64 -1 151 -1 #SUP: 5
64 -1 160 -1 #SUP: 3
64 -1 182 -1 #SUP: 2
64 -1 194 -1 #SUP: 2
64 -1 200 -1 #SUP: 3
64 -1 224 -1 #SUP: 4
64 -1 244 -1 #SUP: 2
64 -1 250 -1 #SUP: 3
64 -1 287 -1 #SUP: 2
64 -1 340 -1 #SUP: 3
64 -1 375 -1 #SUP: 2
64 -1 484 -1 #SUP: 2
64 -1 510 -1 #SUP: 2
64 -1 527 -1 #SUP: 2
64 -1 557 -1 #SUP: 6
64 -1 571 -1 #SUP: 2
64 -1 702 -1 #SUP: 3
65 -1 2 -1 #SUP: 4
65 -1 3 -1 #SUP: 3
65 -1 7 -1 #SUP: 3
65 -1 10 -1 #SUP: 3
65 -1 16 -1 #SUP: 2
65 -1 22 -1 #SUP: 2
65 -1 32 -1 #SUP: 8
65 -1 44 -1 #SUP: 2
65 -1 50 -1 #SUP: 3
65 -1 54 -1 #SUP: 2
65 -1 64 -1 #SUP: 3
65 -1 65 -1 #SUP: 3
65 -1 76 -1 #SUP: 11
65 -1 81 -1 #SUP: 2
65 -1 113 -1 #SUP: 4
65 -1 135 -1 #SUP: 3
65 -1 151 -1 #SUP: 3
65 -1 163 -1 #SUP: 2
65 -1 185 -1 #SUP: 2
65 -1 200 -1 #SUP: 2
65 -1 224 -1 #SUP: 2
65 -1 453 -1 #SUP: 2
65 -1 467 -1 #SUP: 2
65 -1 614 -1 #SUP: 2
65 -1 616 -1 #SUP: 2
65 -1 1100 -1 #SUP: 5
65 -1 3074 -1 #SUP: 2
66 -1 7 -1 #SUP: 2
66 -1 32 -1 #SUP: 2
69 -1 64 -1 #SUP: 3
69 -1 80 -1 #SUP: 3
76 -1 2 -1 #SUP: 7
76 -1 3 -1 #SUP: 10
76 -1 7 -1 #SUP: 6
76 -1 10 -1 #SUP: 2
76 -1 15 -1 #SUP: 3
76 -1 16 -1 #SUP: 4
76 -1 22 -1 #SUP: 7
76 -1 31 -1 #SUP: 4
76 -1 32 -1 #SUP: 6
76 -1 33 -1 #SUP: 2
76 -1 41 -1 #SUP: 5
76 -1 50 -1 #SUP: 4
76 -1 54 -1 #SUP: 3
76 -1 64 -1 #SUP: 8
76 -1 65 -1 #SUP: 7
76 -1 69 -1 #SUP: 2
76 -1 72 -1 #SUP: 2
76 -1 76 -1 #SUP: 7
76 -1 77 -1 #SUP: 2
76 -1 80 -1 #SUP: 2
76 -1 81 -1 #SUP: 2
76 -1 113 -1 #SUP: 17
76 -1 118 -1 #SUP: 3
76 -1 131 -1 #SUP: 3
76 -1 135 -1 #SUP: 2
76 -1 149 -1 #SUP: 2
76 -1 151 -1 #SUP: 7
76 -1 160 -1 #SUP: 3
76 -1 161 -1 #SUP: 2
76 -1 165 -1 #SUP: 2
76 -1 182 -1 #SUP: 3
76 -1 192 -1 #SUP: 2
76 -1 194 -1 #SUP: 3
76 -1 200 -1 #SUP: 7
76 -1 224 -1 #SUP: 3
76 -1 232 -1 #SUP: 2
76 -1 242 -1 #SUP: 3
76 -1 244 -1 #SUP: 3
76 -1 248 -1 #SUP: 3
76 -1 256 -1 #SUP: 2
76 -1 278 -1 #SUP: 2
76 -1 305 -1 #SUP: 2
76 -1 312 -1 #SUP: 2
76 -1 326 -1 #SUP: 3
76 -1 342 -1 #SUP: 2
76 -1 352 -1 #SUP: 2
76 -1 375 -1 #SUP: 2
76 -1 376 -1 #SUP: 2
76 -1 401 -1 #SUP: 2
76 -1 417 -1 #SUP: 3
76 -1 527 -1 #SUP: 2
76 -1 557 -1 #SUP: 7
76 -1 571 -1 #SUP: 2
76 -1 602 -1 #SUP: 2
76 -1 635 -1 #SUP: 2
76 -1 702 -1 #SUP: 3
76 -1 860 -1 #SUP: 4
76 -1 1225 -1 #SUP: 2
76 -1 1434 -1 #SUP: 2
76 -1 3320 -1 #SUP: 2
77 -1 3 -1 #SUP: 2
77 -1 64 -1 #SUP: 2
77 -1 65 -1 #SUP: 2
77 -1 76 -1 #SUP: 3
77 -1 113 -1 #SUP: 2
80 -1 64 -1 #SUP: 3
81 -1 2 -1 #SUP: 3
81 -1 64 -1 #SUP: 5
81 -1 76 -1 #SUP: 3
81 -1 224 -1 #SUP: 3
113 -1 2 -1 #SUP: 9
113 -1 3 -1 #SUP: 14
113 -1 7 -1 #SUP: 9
113 -1 10 -1 #SUP: 5
113 -1 16 -1 #SUP: 3
113 -1 22 -1 #SUP: 10
113 -1 31 -1 #SUP: 7
113 -1 32 -1 #SUP: 4
113 -1 33 -1 #SUP: 3
113 -1 41 -1 #SUP: 3
113 -1 46 -1 #SUP: 2
113 -1 50 -1 #SUP: 5
113 -1 54 -1 #SUP: 3
113 -1 64 -1 #SUP: 20
113 -1 65 -1 #SUP: 11
113 -1 66 -1 #SUP: 2
113 -1 69 -1 #SUP: 2
113 -1 76 -1 #SUP: 15
113 -1 77 -1 #SUP: 3
113 -1 80 -1 #SUP: 2
113 -1 81 -1 #SUP: 4
113 -1 113 -1 #SUP: 14
113 -1 115 -1 #SUP: 2
113 -1 118 -1 #SUP: 6
113 -1 131 -1 #SUP: 5
113 -1 135 -1 #SUP: 3
113 -1 141 -1 #SUP: 3
113 -1 149 -1 #SUP: 6
113 -1 151 -1 #SUP: 5
113 -1 155 -1 #SUP: 2
113 -1 156 -1 #SUP: 2
113 -1 158 -1 #SUP: 2
113 -1 160 -1 #SUP: 3
113 -1 161 -1 #SUP: 3
113 -1 165 -1 #SUP: 2
113 -1 182 -1 #SUP: 5
113 -1 192 -1 #SUP: 2
113 -1 194 -1 #SUP: 10
113 -1 200 -1 #SUP: 5
113 -1 201 -1 #SUP: 2
113 -1 213 -1 #SUP: 3
113 -1 214 -1 #SUP: 3
113 -1 224 -1 #SUP: 2
113 -1 242 -1 #SUP: 2
113 -1 248 -1 #SUP: 4
113 -1 250 -1 #SUP: 3
113 -1 266 -1 #SUP: 2
113 -1 268 -1 #SUP: 4
113 -1 278 -1 #SUP: 7
113 -1 307 -1 #SUP: 2
113 -1 326 -1 #SUP: 8
113 -1 340 -1 #SUP: 6
113 -1 342 -1 #SUP: 2
113 -1 363 -1 #SUP: 2
113 -1 375 -1 #SUP: 2
113 -1 401 -1 #SUP: 2
113 -1 403 -1 #SUP: 2
113 -1 417 -1 #SUP: 2
113 -1 453 -1 #SUP: 2
113 -1 463 -1 #SUP: 4
113 -1 484 -1 #SUP: 3
113 -1 527 -1 #SUP: 2
113 -1 557 -1 #SUP: 7
113 -1 571 -1 #SUP: 3
113 -1 711 -1 #SUP: 2
113 -1 786 -1 #SUP: 5
113 -1 860 -1 #SUP: 3
113 -1 1225 -1 #SUP: 2
113 -1 1327 -1 #SUP: 2
113 -1 1418 -1 #SUP: 2
113 -1 1533 -1 #SUP: 2
113 -1 1678 -1 #SUP: 5
113 -1 2295 -1 #SUP: 2
113 -1 3371 -1 #SUP: 2
118 -1 3 -1 #SUP: 3
118 -1 27 -1 #SUP: 2
118 -1 41 -1 #SUP: 2
118 -1 64 -1 #SUP: 2
118 -1 76 -1 #SUP: 3
118 -1 113 -1 #SUP: 4
118 -1 149 -1 #SUP: 2
118 -1 182 -1 #SUP: 2
118 -1 194 -1 #SUP: 3
118 -1 278 -1 #SUP: 2
118 -1 326 -1 #SUP: 4
118 -1 340 -1 #SUP: 2
131 -1 3 -1 #SUP: 5
131 -1 31 -1 #SUP: 2
131 -1 32 -1 #SUP: 2
131 -1 41 -1 #SUP: 2
131 -1 64 -1 #SUP: 4
131 -1 65 -1 #SUP: 3
131 -1 76 -1 #SUP: 4
131 -1 113 -1 #SUP: 5
131 -1 149 -1 #SUP: 2
131 -1 208 -1 #SUP: 2
131 -1 463 -1 #SUP: 2
131 -1 786 -1 #SUP: 2
135 -1 64 -1 #SUP: 2
135 -1 81 -1 #SUP: 2
135 -1 224 -1 #SUP: 2
139 -1 64 -1 #SUP: 2
141 -1 2 -1 #SUP: 3
141 -1 3 -1 #SUP: 4
141 -1 22 -1 #SUP: 2
141 -1 32 -1 #SUP: 3
141 -1 41 -1 #SUP: 6
141 -1 65 -1 #SUP: 2
141 -1 76 -1 #SUP: 2
141 -1 149 -1 #SUP: 2
141 -1 160 -1 #SUP: 2
141 -1 201 -1 #SUP: 2
141 -1 1434 -1 #SUP: 2
141 -1 4392 -1 #SUP: 2
148 -1 16 -1 #SUP: 2
148 -1 22 -1 #SUP: 2
148 -1 76 -1 #SUP: 2
148 -1 150 -1 #SUP: 3
148 -1 484 -1 #SUP: 2
149 -1 3 -1 #SUP: 4
149 -1 32 -1 #SUP: 2
149 -1 64 -1 #SUP: 3
149 -1 76 -1 #SUP: 5
149 -1 113 -1 #SUP: 5
149 -1 115 -1 #SUP: 2
149 -1 131 -1 #SUP: 2
149 -1 141 -1 #SUP: 2
149 -1 151 -1 #SUP: 2
149 -1 182 -1 #SUP: 3
149 -1 194 -1 #SUP: 2
149 -1 200 -1 #SUP: 5
149 -1 557 -1 #SUP: 2
150 -1 16 -1 #SUP: 2
150 -1 76 -1 #SUP: 2
151 -1 3 -1 #SUP: 4
151 -1 7 -1 #SUP: 4
151 -1 31 -1 #SUP: 2
151 -1 32 -1 #SUP: 2
151 -1 50 -1 #SUP: 3
151 -1 64 -1 #SUP: 2
151 -1 65 -1 #SUP: 4
151 -1 76 -1 #SUP: 4
151 -1 113 -1 #SUP: 7
151 -1 131 -1 #SUP: 3
151 -1 149 -1 #SUP: 2
151 -1 200 -1 #SUP: 2
151 -1 224 -1 #SUP: 2
151 -1 248 -1 #SUP: 2
151 -1 326 -1 #SUP: 2
151 -1 557 -1 #SUP: 2
155 -1 7 -1 #SUP: 2
155 -1 64 -1 #SUP: 3
155 -1 65 -1 #SUP: 2
156 -1 41 -1 #SUP: 2
156 -1 64 -1 #SUP: 3
158 -1 113 -1 #SUP: 2
160 -1 31 -1 #SUP: 2
160 -1 41 -1 #SUP: 2
160 -1 50 -1 #SUP: 2
160 -1 65 -1 #SUP: 2
160 -1 113 -1 #SUP: 2
160 -1 151 -1 #SUP: 2
160 -1 278 -1 #SUP: 2
161 -1 2 -1 #SUP: 2
161 -1 64 -1 #SUP: 3
161 -1 65 -1 #SUP: 2
161 -1 81 -1 #SUP: 2
161 -1 135 -1 #SUP: 2
161 -1 192 -1 #SUP: 2
161 -1 860 -1 #SUP: 2
165 -1 76 -1 #SUP: 2
165 -1 113 -1 #SUP: 2
165 -1 326 -1 #SUP: 2
182 -1 2 -1 #SUP: 2
182 -1 3 -1 #SUP: 9
182 -1 7 -1 #SUP: 2
182 -1 22 -1 #SUP: 4
182 -1 32 -1 #SUP: 2
182 -1 64 -1 #SUP: 3
182 -1 65 -1 #SUP: 4
182 -1 76 -1 #SUP: 6
182 -1 77 -1 #SUP: 2
182 -1 113 -1 #SUP: 3
182 -1 148 -1 #SUP: 2
182 -1 248 -1 #SUP: 3
182 -1 264 -1 #SUP: 2
182 -1 348 -1 #SUP: 2
182 -1 557 -1 #SUP: 3
182 -1 2127 -1 #SUP: 2
186 -1 113 -1 #SUP: 2
187 -1 3 -1 #SUP: 2
187 -1 7 -1 #SUP: 2
187 -1 32 -1 #SUP: 2
187 -1 64 -1 #SUP: 2
187 -1 76 -1 #SUP: 2
187 -1 113 -1 #SUP: 3
192 -1 64 -1 #SUP: 3
192 -1 65 -1 #SUP: 2
192 -1 81 -1 #SUP: 2
192 -1 113 -1 #SUP: 2
192 -1 135 -1 #SUP: 2
192 -1 224 -1 #SUP: 2
194 -1 3 -1 #SUP: 3
194 -1 22 -1 #SUP: 4
194 -1 64 -1 #SUP: 2
194 -1 76 -1 #SUP: 3
194 -1 113 -1 #SUP: 3
194 -1 131 -1 #SUP: 3
194 -1 149 -1 #SUP: 2
194 -1 182 -1 #SUP: 2
194 -1 786 -1 #SUP: 2
200 -1 3 -1 #SUP: 8
200 -1 7 -1 #SUP: 3
200 -1 22 -1 #SUP: 4
200 -1 27 -1 #SUP: 3
200 -1 32 -1 #SUP: 4
200 -1 54 -1 #SUP: 2
200 -1 64 -1 #SUP: 6
200 -1 65 -1 #SUP: 4
200 -1 81 -1 #SUP: 2
200 -1 113 -1 #SUP: 7
200 -1 141 -1 #SUP: 2
200 -1 151 -1 #SUP: 3
200 -1 182 -1 #SUP: 2
200 -1 185 -1 #SUP: 2
200 -1 187 -1 #SUP: 3
200 -1 194 -1 #SUP: 2
200 -1 213 -1 #SUP: 2
200 -1 250 -1 #SUP: 2
200 -1 340 -1 #SUP: 3
200 -1 375 -1 #SUP: 2
200 -1 504 -1 #SUP: 2
200 -1 1678 -1 #SUP: 2
201 -1 213 -1 #SUP: 2
201 -1 268 -1 #SUP: 2
212 -1 32 -1 #SUP: 2
212 -1 76 -1 #SUP: 2
213 -1 76 -1 #SUP: 2
214 -1 64 -1 #SUP: 2
214 -1 401 -1 #SUP: 2
214 -1 1327 -1 #SUP: 2
221 -1 3 -1 #SUP: 2
221 -1 22 -1 #SUP: 2
221 -1 64 -1 #SUP: 2
221 -1 76 -1 #SUP: 2
221 -1 113 -1 #SUP: 2
221 -1 131 -1 #SUP: 2
221 -1 224 -1 #SUP: 3
224 -1 2 -1 #SUP: 3
224 -1 3 -1 #SUP: 7
224 -1 7 -1 #SUP: 2
224 -1 10 -1 #SUP: 2
224 -1 22 -1 #SUP: 3
224 -1 41 -1 #SUP: 2
224 -1 54 -1 #SUP: 2
224 -1 64 -1 #SUP: 4
224 -1 65 -1 #SUP: 4
224 -1 76 -1 #SUP: 6
224 -1 113 -1 #SUP: 6
224 -1 131 -1 #SUP: 4
224 -1 149 -1 #SUP: 3
224 -1 156 -1 #SUP: 2
224 -1 182 -1 #SUP: 4
224 -1 187 -1 #SUP: 2
224 -1 256 -1 #SUP: 2
224 -1 264 -1 #SUP: 2
224 -1 326 -1 #SUP: 2
224 -1 463 -1 #SUP: 2
224 -1 510 -1 #SUP: 2
224 -1 702 -1 #SUP: 3
224 -1 2127 -1 #SUP: 2
225 -1 22 -1 #SUP: 2
225 -1 182 -1 #SUP: 2
232 -1 860 -1 #SUP: 2
234 -1 76 -1 #SUP: 3
242 -1 7 -1 #SUP: 2
242 -1 65 -1 #SUP: 2
242 -1 326 -1 #SUP: 2
244 -1 3 -1 #SUP: 2
248 -1 31 -1 #SUP: 2
248 -1 64 -1 #SUP: 2
248 -1 76 -1 #SUP: 5
248 -1 113 -1 #SUP: 3
248 -1 200 -1 #SUP: 2
248 -1 557 -1 #SUP: 3
250 -1 3 -1 #SUP: 3
250 -1 31 -1 #SUP: 2
250 -1 64 -1 #SUP: 2
250 -1 76 -1 #SUP: 2
250 -1 113 -1 #SUP: 3
250 -1 141 -1 #SUP: 2
250 -1 185 -1 #SUP: 2
250 -1 200 -1 #SUP: 2
250 -1 557 -1 #SUP: 2
256 -1 22 -1 #SUP: 2
256 -1 65 -1 #SUP: 2
256 -1 76 -1 #SUP: 3
256 -1 113 -1 #SUP: 2
256 -1 234 -1 #SUP: 2
256 -1 1583 -1 #SUP: 2
264 -1 2 -1 #SUP: 2
264 -1 113 -1 #SUP: 3
268 -1 76 -1 #SUP: 3
268 -1 113 -1 #SUP: 3
268 -1 118 -1 #SUP: 2
268 -1 326 -1 #SUP: 2
268 -1 557 -1 #SUP: 2
268 -1 1075 -1 #SUP: 2
273 -1 417 -1 #SUP: 2
278 -1 2 -1 #SUP: 3
278 -1 3 -1 #SUP: 3
278 -1 15 -1 #SUP: 2
278 -1 22 -1 #SUP: 3
278 -1 32 -1 #SUP: 3
278 -1 65 -1 #SUP: 2
278 -1 113 -1 #SUP: 4
278 -1 118 -1 #SUP: 2
278 -1 149 -1 #SUP: 2
278 -1 326 -1 #SUP: 2
278 -1 3371 -1 #SUP: 2
307 -1 76 -1 #SUP: 2
312 -1 1668 -1 #SUP: 2
326 -1 3 -1 #SUP: 3
326 -1 10 -1 #SUP: 2
326 -1 27 -1 #SUP: 2
326 -1 64 -1 #SUP: 4
326 -1 76 -1 #SUP: 3
326 -1 113 -1 #SUP: 4
326 -1 118 -1 #SUP: 2
326 -1 131 -1 #SUP: 3
326 -1 248 -1 #SUP: 2
326 -1 463 -1 #SUP: 3
340 -1 22 -1 #SUP: 3
340 -1 32 -1 #SUP: 2
340 -1 33 -1 #SUP: 2
340 -1 41 -1 #SUP: 2
340 -1 64 -1 #SUP: 4
340 -1 65 -1 #SUP: 4
340 -1 76 -1 #SUP: 6
340 -1 113 -1 #SUP: 2
340 -1 141 -1 #SUP: 3
340 -1 149 -1 #SUP: 3
340 -1 151 -1 #SUP: 3
340 -1 504 -1 #SUP: 2
340 -1 1100 -1 #SUP: 3
342 -1 22 -1 #SUP: 3
342 -1 65 -1 #SUP: 2
342 -1 113 -1 #SUP: 3
342 -1 151 -1 #SUP: 2
342 -1 165 -1 #SUP: 2
342 -1 185 -1 #SUP: 2
342 -1 200 -1 #SUP: 3
342 -1 352 -1 #SUP: 2
348 -1 2 -1 #SUP: 2
348 -1 113 -1 #SUP: 2
352 -1 149 -1 #SUP: 2
352 -1 200 -1 #SUP: 2
363 -1 32 -1 #SUP: 2
363 -1 64 -1 #SUP: 2
375 -1 3 -1 #SUP: 3
375 -1 10 -1 #SUP: 2
375 -1 31 -1 #SUP: 3
375 -1 64 -1 #SUP: 2
375 -1 131 -1 #SUP: 2
401 -1 64 -1 #SUP: 2
401 -1 113 -1 #SUP: 3
417 -1 3 -1 #SUP: 2
417 -1 7 -1 #SUP: 4
417 -1 31 -1 #SUP: 2
417 -1 64 -1 #SUP: 2
417 -1 65 -1 #SUP: 2
417 -1 66 -1 #SUP: 2
417 -1 76 -1 #SUP: 4
417 -1 118 -1 #SUP: 2
417 -1 151 -1 #SUP: 2
417 -1 155 -1 #SUP: 2
417 -1 234 -1 #SUP: 2
417 -1 256 -1 #SUP: 2
417 -1 1583 -1 #SUP: 2
424 -1 22 -1 #SUP: 2
453 -1 7 -1 #SUP: 2
453 -1 113 -1 #SUP: 2
462 -1 76 -1 #SUP: 2
462 -1 113 -1 #SUP: 2
463 -1 10 -1 #SUP: 2
463 -1 64 -1 #SUP: 4
463 -1 113 -1 #SUP: 3
463 -1 118 -1 #SUP: 2
484 -1 16 -1 #SUP: 2
484 -1 54 -1 #SUP: 2
484 -1 76 -1 #SUP: 2
484 -1 150 -1 #SUP: 2
484 -1 484 -1 #SUP: 3
484 -1 1143 -1 #SUP: 3
484 -1 4777 -1 #SUP: 2
484 -1 5691 -1 #SUP: 3
484 -1 10363 -1 #SUP: 2
484 -1 10643 -1 #SUP: 2
497 -1 7 -1 #SUP: 2
497 -1 76 -1 #SUP: 3
497 -1 113 -1 #SUP: 2
497 -1 406 -1 #SUP: 2
504 -1 3 -1 #SUP: 2
504 -1 16 -1 #SUP: 2
504 -1 22 -1 #SUP: 2
504 -1 76 -1 #SUP: 3
504 -1 151 -1 #SUP: 2
510 -1 76 -1 #SUP: 2
527 -1 76 -1 #SUP: 2
527 -1 287 -1 #SUP: 2
527 -1 401 -1 #SUP: 2
557 -1 22 -1 #SUP: 2
557 -1 54 -1 #SUP: 2
557 -1 65 -1 #SUP: 2
557 -1 76 -1 #SUP: 3
557 -1 113 -1 #SUP: 6
557 -1 118 -1 #SUP: 2
557 -1 160 -1 #SUP: 2
557 -1 200 -1 #SUP: 2
557 -1 248 -1 #SUP: 2
557 -1 342 -1 #SUP: 2
557 -1 1678 -1 #SUP: 2
571 -1 2 -1 #SUP: 2
571 -1 3 -1 #SUP: 3
571 -1 64 -1 #SUP: 3
571 -1 113 -1 #SUP: 3
602 -1 3 -1 #SUP: 2
635 -1 64 -1 #SUP: 2
702 -1 3 -1 #SUP: 2
702 -1 32 -1 #SUP: 2
702 -1 41 -1 #SUP: 2
702 -1 64 -1 #SUP: 3
702 -1 76 -1 #SUP: 2
702 -1 113 -1 #SUP: 2
702 -1 156 -1 #SUP: 2
702 -1 256 -1 #SUP: 2
702 -1 702 -1 #SUP: 2
771 -1 64 -1 #SUP: 2
786 -1 3 -1 #SUP: 2
786 -1 32 -1 #SUP: 2
786 -1 50 -1 #SUP: 2
786 -1 65 -1 #SUP: 2
786 -1 76 -1 #SUP: 2
786 -1 113 -1 #SUP: 2
786 -1 151 -1 #SUP: 2
786 -1 278 -1 #SUP: 2
860 -1 64 -1 #SUP: 3
860 -1 65 -1 #SUP: 2
860 -1 81 -1 #SUP: 2
860 -1 135 -1 #SUP: 2
860 -1 151 -1 #SUP: 2
860 -1 192 -1 #SUP: 2
860 -1 312 -1 #SUP: 2
923 -1 76 -1 #SUP: 2
1017 -1 929 -1 #SUP: 2
1075 -1 76 -1 #SUP: 2
1075 -1 113 -1 #SUP: 2
1097 -1 497 -1 #SUP: 2
1100 -1 3 -1 #SUP: 2
1100 -1 32 -1 #SUP: 4
1100 -1 50 -1 #SUP: 2
1100 -1 76 -1 #SUP: 3
1104 -1 32 -1 #SUP: 2
1104 -1 76 -1 #SUP: 2
1124 -1 54 -1 #SUP: 2
1143 -1 484 -1 #SUP: 3
1143 -1 4777 -1 #SUP: 2
1143 -1 5691 -1 #SUP: 3
1143 -1 10643 -1 #SUP: 2
1143 -1 10644 -1 #SUP: 2
1151 -1 32 -1 #SUP: 2
1152 -1 76 -1 #SUP: 2
1186 -1 151 -1 #SUP: 2
1186 -1 2561 -1 #SUP: 2
1225 -1 160 -1 #SUP: 2
1242 -1 32 -1 #SUP: 2
1418 -1 76 -1 #SUP: 2
1434 -1 2 -1 #SUP: 2
1434 -1 41 -1 #SUP: 2
1434 -1 76 -1 #SUP: 2
1434 -1 244 -1 #SUP: 2
1434 -1 1434 -1 #SUP: 2
1498 -1 65 -1 #SUP: 2
1543 -1 3 -1 #SUP: 2
1557 -1 64 -1 #SUP: 2
1583 -1 76 -1 #SUP: 2
1583 -1 234 -1 #SUP: 2
1584 -1 3 -1 #SUP: 2
1678 -1 76 -1 #SUP: 2
1678 -1 149 -1 #SUP: 2
1678 -1 1186 -1 #SUP: 2
1913 -1 99 -1 #SUP: 2
2127 -1 113 -1 #SUP: 2
2792 -1 484 -1 #SUP: 2
2792 -1 1143 -1 #SUP: 2
4392 -1 2 -1 #SUP: 2
4392 -1 32 -1 #SUP: 2
4392 -1 41 -1 #SUP: 2
4392 -1 76 -1 #SUP: 2
4392 -1 1434 -1 #SUP: 2
4777 -1 484 -1 #SUP: 3
4777 -1 1143 -1 #SUP: 2
4777 -1 4777 -1 #SUP: 2
4777 -1 5691 -1 #SUP: 2
5691 -1 484 -1 #SUP: 3
5691 -1 1143 -1 #SUP: 3
5691 -1 4777 -1 #SUP: 3
5691 -1 5691 -1 #SUP: 3
5691 -1 10363 -1 #SUP: 2
5691 -1 10643 -1 #SUP: 2
5691 -1 10644 -1 #SUP: 2
10363 -1 484 -1 #SUP: 2
10363 -1 1143 -1 #SUP: 2
10363 -1 4777 -1 #SUP: 2
10363 -1 5691 -1 #SUP: 2
10363 -1 10644 -1 #SUP: 2
10643 -1 484 -1 #SUP: 2
10643 -1 1143 -1 #SUP: 2
10644 -1 484 -1 #SUP: 2
10644 -1 4777 -1 #SUP: 2
10644 -1 5691 -1 #SUP: 2
10644 -1 10643 -1 #SUP: 2
2 -1 16 -1 2 -1 #SUP: 2
2 -1 16 -1 64 -1 #SUP: 2
2 -1 41 -1 244 -1 #SUP: 2
2 -1 41 -1 1434 -1 #SUP: 2
2 -1 64 -1 2 -1 #SUP: 2
2 -1 64 -1 113 -1 #SUP: 2
2 -1 113 -1 7 -1 #SUP: 3
2 -1 113 -1 113 -1 #SUP: 2
2 -1 113 -1 131 -1 #SUP: 2
2 -1 113 -1 213 -1 #SUP: 2
2 -1 113 -1 214 -1 #SUP: 2
2 -1 113 -1 453 -1 #SUP: 2
2 -1 224 -1 113 -1 #SUP: 2
2 -1 224 -1 131 -1 #SUP: 2
2 -1 453 -1 7 -1 #SUP: 2
2 -1 571 -1 113 -1 #SUP: 2
2 -1 1434 -1 244 -1 #SUP: 2
3 -1 2 -1 41 -1 #SUP: 2
3 -1 2 -1 64 -1 #SUP: 2
3 -1 2 -1 113 -1 #SUP: 3
3 -1 16 -1 22 -1 #SUP: 2
3 -1 16 -1 113 -1 #SUP: 2
3 -1 27 -1 64 -1 #SUP: 2
3 -1 27 -1 113 -1 #SUP: 2
3 -1 31 -1 64 -1 #SUP: 2
3 -1 32 -1 2 -1 #SUP: 3
3 -1 32 -1 41 -1 #SUP: 2
3 -1 32 -1 76 -1 #SUP: 2
3 -1 32 -1 1434 -1 #SUP: 2
3 -1 41 -1 2 -1 #SUP: 2
3 -1 41 -1 32 -1 #SUP: 2
3 -1 41 -1 41 -1 #SUP: 2
3 -1 41 -1 76 -1 #SUP: 2
3 -1 41 -1 1434 -1 #SUP: 2
3 -1 64 -1 76 -1 #SUP: 3
3 -1 64 -1 113 -1 #SUP: 4
3 -1 64 -1 510 -1 #SUP: 2
3 -1 65 -1 76 -1 #SUP: 2
3 -1 76 -1 2 -1 #SUP: 2
3 -1 76 -1 3 -1 #SUP: 3
3 -1 76 -1 32 -1 #SUP: 2
3 -1 76 -1 41 -1 #SUP: 3
3 -1 76 -1 113 -1 #SUP: 5
3 -1 76 -1 151 -1 #SUP: 2
3 -1 76 -1 194 -1 #SUP: 2
3 -1 76 -1 248 -1 #SUP: 2
3 -1 76 -1 417 -1 #SUP: 3
3 -1 76 -1 557 -1 #SUP: 2
3 -1 113 -1 3 -1 #SUP: 3
3 -1 113 -1 64 -1 #SUP: 4
3 -1 113 -1 76 -1 #SUP: 2
3 -1 113 -1 113 -1 #SUP: 3
3 -1 113 -1 118 -1 #SUP: 2
3 -1 113 -1 278 -1 #SUP: 3
3 -1 113 -1 786 -1 #SUP: 2
3 -1 149 -1 194 -1 #SUP: 2
3 -1 149 -1 200 -1 #SUP: 2
3 -1 200 -1 3 -1 #SUP: 2
3 -1 200 -1 194 -1 #SUP: 2
3 -1 212 -1 32 -1 #SUP: 2
3 -1 212 -1 76 -1 #SUP: 2
3 -1 264 -1 113 -1 #SUP: 2
3 -1 312 -1 1668 -1 #SUP: 2
3 -1 340 -1 141 -1 #SUP: 2
3 -1 463 -1 64 -1 #SUP: 3
3 -1 1124 -1 54 -1 #SUP: 2
3 -1 1434 -1 2 -1 #SUP: 2
3 -1 1434 -1 41 -1 #SUP: 2
3 -1 1434 -1 76 -1 #SUP: 2
3 -1 2127 -1 113 -1 #SUP: 2
3 -1 4392 -1 2 -1 #SUP: 2
3 -1 4392 -1 32 -1 #SUP: 2
3 -1 4392 -1 41 -1 #SUP: 2
3 -1 4392 -1 76 -1 #SUP: 2
3 -1 4392 -1 1434 -1 #SUP: 2
7 -1 32 -1 76 -1 #SUP: 2
7 -1 65 -1 10 -1 #SUP: 2
7 -1 65 -1 44 -1 #SUP: 2
7 -1 65 -1 76 -1 #SUP: 2
7 -1 76 -1 200 -1 #SUP: 3
9 -1 26 -1 113 -1 #SUP: 2
9 -1 28 -1 26 -1 #SUP: 2
9 -1 28 -1 113 -1 #SUP: 2
16 -1 16 -1 3 -1 #SUP: 2
16 -1 64 -1 2 -1 #SUP: 2
16 -1 76 -1 113 -1 #SUP: 2
22 -1 2 -1 113 -1 #SUP: 3
22 -1 76 -1 3 -1 #SUP: 2
22 -1 76 -1 113 -1 #SUP: 2
22 -1 113 -1 326 -1 #SUP: 3
22 -1 149 -1 200 -1 #SUP: 2
22 -1 165 -1 113 -1 #SUP: 2
22 -1 348 -1 2 -1 #SUP: 2
22 -1 348 -1 113 -1 #SUP: 2
27 -1 3 -1 141 -1 #SUP: 2
27 -1 41 -1 141 -1 #SUP: 2
27 -1 113 -1 64 -1 #SUP: 2
27 -1 340 -1 141 -1 #SUP: 2
28 -1 26 -1 113 -1 #SUP: 2
31 -1 64 -1 76 -1 #SUP: 2
31 -1 76 -1 113 -1 #SUP: 3
31 -1 113 -1 64 -1 #SUP: 3
31 -1 113 -1 76 -1 #SUP: 2
31 -1 113 -1 200 -1 #SUP: 2
31 -1 182 -1 64 -1 #SUP: 2
31 -1 182 -1 76 -1 #SUP: 2
31 -1 527 -1 287 -1 #SUP: 2
31 -1 557 -1 113 -1 #SUP: 2
32 -1 2 -1 41 -1 #SUP: 2
32 -1 2 -1 244 -1 #SUP: 2
32 -1 2 -1 1434 -1 #SUP: 2
32 -1 3 -1 16 -1 #SUP: 2
32 -1 22 -1 76 -1 #SUP: 2
32 -1 22 -1 165 -1 #SUP: 2
32 -1 41 -1 244 -1 #SUP: 2
32 -1 41 -1 1434 -1 #SUP: 2
32 -1 50 -1 3 -1 #SUP: 2
32 -1 65 -1 467 -1 #SUP: 2
32 -1 76 -1 2 -1 #SUP: 3
32 -1 76 -1 3 -1 #SUP: 5
32 -1 76 -1 16 -1 #SUP: 2
32 -1 76 -1 32 -1 #SUP: 2
32 -1 76 -1 41 -1 #SUP: 2
32 -1 76 -1 200 -1 #SUP: 2
32 -1 76 -1 244 -1 #SUP: 2
32 -1 76 -1 1434 -1 #SUP: 2
32 -1 113 -1 326 -1 #SUP: 3
32 -1 1434 -1 2 -1 #SUP: 2
32 -1 1434 -1 41 -1 #SUP: 2
32 -1 1434 -1 76 -1 #SUP: 2
32 -1 1434 -1 244 -1 #SUP: 2
32 -1 1434 -1 1434 -1 #SUP: 2
41 -1 2 -1 41 -1 #SUP: 2
41 -1 2 -1 1434 -1 #SUP: 2
41 -1 32 -1 2 -1 #SUP: 2
41 -1 32 -1 41 -1 #SUP: 2
41 -1 32 -1 76 -1 #SUP: 2
41 -1 32 -1 244 -1 #SUP: 2
41 -1 32 -1 1434 -1 #SUP: 3
41 -1 41 -1 1434 -1 #SUP: 2
41 -1 64 -1 76 -1 #SUP: 2
41 -1 65 -1 616 -1 #SUP: 2
41 -1 76 -1 2 -1 #SUP: 3
41 -1 76 -1 41 -1 #SUP: 2
41 -1 76 -1 1434 -1 #SUP: 2
41 -1 182 -1 3 -1 #SUP: 3
41 -1 1434 -1 2 -1 #SUP: 2
41 -1 1434 -1 41 -1 #SUP: 2
41 -1 1434 -1 76 -1 #SUP: 2
41 -1 1434 -1 244 -1 #SUP: 2
41 -1 1434 -1 1434 -1 #SUP: 2
50 -1 2 -1 7 -1 #SUP: 2
50 -1 3 -1 3 -1 #SUP: 2
50 -1 3 -1 113 -1 #SUP: 2
50 -1 3 -1 278 -1 #SUP: 2
50 -1 3 -1 312 -1 #SUP: 2
50 -1 46 -1 113 -1 #SUP: 2
50 -1 76 -1 3 -1 #SUP: 2
50 -1 113 -1 3 -1 #SUP: 3
50 -1 113 -1 113 -1 #SUP: 2
50 -1 113 -1 278 -1 #SUP: 2
50 -1 113 -1 326 -1 #SUP: 2
50 -1 326 -1 113 -1 #SUP: 2
54 -1 3 -1 76 -1 #SUP: 2
54 -1 15 -1 3 -1 #SUP: 2
54 -1 76 -1 3 -1 #SUP: 2
54 -1 76 -1 15 -1 #SUP: 2
64 -1 2 -1 113 -1 #SUP: 2
64 -1 2 -1 224 -1 #SUP: 3
64 -1 3 -1 76 -1 #SUP: 2
64 -1 7 -1 65 -1 #SUP: 2
64 -1 31 -1 557 -1 #SUP: 2
64 -1 33 -1 22 -1 #SUP: 2
64 -1 54 -1 76 -1 #SUP: 2
64 -1 76 -1 77 -1 #SUP: 2
64 -1 76 -1 113 -1 #SUP: 2
64 -1 76 -1 224 -1 #SUP: 2
64 -1 76 -1 557 -1 #SUP: 3
64 -1 76 -1 702 -1 #SUP: 2
64 -1 113 -1 76 -1 #SUP: 3
64 -1 113 -1 113 -1 #SUP: 2
64 -1 113 -1 131 -1 #SUP: 2
64 -1 113 -1 200 -1 #SUP: 2
64 -1 113 -1 557 -1 #SUP: 2
64 -1 149 -1 113 -1 #SUP: 2
64 -1 151 -1 32 -1 #SUP: 2
64 -1 151 -1 113 -1 #SUP: 3
64 -1 151 -1 557 -1 #SUP: 2
64 -1 340 -1 65 -1 #SUP: 2
64 -1 510 -1 76 -1 #SUP: 2
64 -1 527 -1 287 -1 #SUP: 2
64 -1 557 -1 113 -1 #SUP: 2
64 -1 557 -1 200 -1 #SUP: 2
65 -1 7 -1 3 -1 #SUP: 2
65 -1 7 -1 76 -1 #SUP: 2
65 -1 32 -1 3 -1 #SUP: 2
65 -1 32 -1 50 -1 #SUP: 2
65 -1 32 -1 76 -1 #SUP: 4
65 -1 54 -1 76 -1 #SUP: 2
65 -1 64 -1 224 -1 #SUP: 2
65 -1 76 -1 3 -1 #SUP: 2
65 -1 81 -1 224 -1 #SUP: 2
65 -1 135 -1 64 -1 #SUP: 2
65 -1 135 -1 81 -1 #SUP: 2
65 -1 135 -1 224 -1 #SUP: 2
65 -1 151 -1 113 -1 #SUP: 2
65 -1 1100 -1 3 -1 #SUP: 2
65 -1 1100 -1 32 -1 #SUP: 4
65 -1 1100 -1 50 -1 #SUP: 2
65 -1 1100 -1 76 -1 #SUP: 3
69 -1 80 -1 64 -1 #SUP: 3
76 -1 2 -1 41 -1 #SUP: 2
76 -1 2 -1 64 -1 #SUP: 2
76 -1 2 -1 244 -1 #SUP: 2
76 -1 2 -1 1434 -1 #SUP: 2
76 -1 3 -1 16 -1 #SUP: 2
76 -1 3 -1 22 -1 #SUP: 2
76 -1 7 -1 151 -1 #SUP: 3
76 -1 15 -1 3 -1 #SUP: 2
76 -1 16 -1 113 -1 #SUP: 2
76 -1 22 -1 2 -1 #SUP: 2
76 -1 41 -1 244 -1 #SUP: 2
76 -1 41 -1 1434 -1 #SUP: 2
76 -1 50 -1 3 -1 #SUP: 2
76 -1 65 -1 135 -1 #SUP: 2
76 -1 65 -1 200 -1 #SUP: 2
76 -1 69 -1 64 -1 #SUP: 2
76 -1 69 -1 80 -1 #SUP: 2
76 -1 76 -1 76 -1 #SUP: 2
76 -1 76 -1 3320 -1 #SUP: 2
76 -1 80 -1 64 -1 #SUP: 2
76 -1 113 -1 2 -1 #SUP: 2
76 -1 113 -1 3 -1 #SUP: 2
76 -1 113 -1 41 -1 #SUP: 2
76 -1 113 -1 64 -1 #SUP: 3
76 -1 113 -1 65 -1 #SUP: 3
76 -1 113 -1 81 -1 #SUP: 2
76 -1 113 -1 118 -1 #SUP: 2
76 -1 113 -1 160 -1 #SUP: 2
76 -1 113 -1 161 -1 #SUP: 2
76 -1 113 -1 192 -1 #SUP: 2
76 -1 113 -1 194 -1 #SUP: 2
76 -1 113 -1 326 -1 #SUP: 2
76 -1 113 -1 860 -1 #SUP: 2
76 -1 113 -1 1225 -1 #SUP: 2
76 -1 149 -1 200 -1 #SUP: 2
76 -1 151 -1 113 -1 #SUP: 2
76 -1 161 -1 65 -1 #SUP: 2
76 -1 161 -1 192 -1 #SUP: 2
76 -1 161 -1 860 -1 #SUP: 2
76 -1 192 -1 65 -1 #SUP: 2
76 -1 200 -1 22 -1 #SUP: 2
76 -1 242 -1 326 -1 #SUP: 2
76 -1 342 -1 352 -1 #SUP: 2
76 -1 557 -1 76 -1 #SUP: 2
76 -1 557 -1 113 -1 #SUP: 4
76 -1 557 -1 160 -1 #SUP: 2
76 -1 602 -1 3 -1 #SUP: 2
76 -1 860 -1 65 -1 #SUP: 2
76 -1 860 -1 192 -1 #SUP: 2
76 -1 1225 -1 160 -1 #SUP: 2
76 -1 1434 -1 244 -1 #SUP: 2
77 -1 76 -1 113 -1 #SUP: 2
81 -1 2 -1 224 -1 #SUP: 2
81 -1 64 -1 2 -1 #SUP: 2
81 -1 64 -1 76 -1 #SUP: 3
81 -1 64 -1 224 -1 #SUP: 2
81 -1 76 -1 224 -1 #SUP: 2
113 -1 2 -1 3 -1 #SUP: 2
113 -1 2 -1 50 -1 #SUP: 2
113 -1 2 -1 113 -1 #SUP: 2
113 -1 3 -1 2 -1 #SUP: 2
113 -1 3 -1 64 -1 #SUP: 4
113 -1 3 -1 65 -1 #SUP: 2
113 -1 3 -1 76 -1 #SUP: 2
113 -1 3 -1 113 -1 #SUP: 2
113 -1 3 -1 194 -1 #SUP: 2
113 -1 3 -1 278 -1 #SUP: 2
113 -1 3 -1 463 -1 #SUP: 3
113 -1 3 -1 3371 -1 #SUP: 2
113 -1 7 -1 65 -1 #SUP: 3
113 -1 7 -1 76 -1 #SUP: 2
113 -1 22 -1 2 -1 #SUP: 2
113 -1 22 -1 10 -1 #SUP: 2
113 -1 31 -1 64 -1 #SUP: 2
113 -1 31 -1 113 -1 #SUP: 2
113 -1 32 -1 64 -1 #SUP: 2
113 -1 33 -1 22 -1 #SUP: 2
113 -1 50 -1 3 -1 #SUP: 2
113 -1 64 -1 2 -1 #SUP: 5
113 -1 64 -1 10 -1 #SUP: 2
113 -1 64 -1 22 -1 #SUP: 2
113 -1 64 -1 31 -1 #SUP: 2
113 -1 64 -1 76 -1 #SUP: 4
113 -1 64 -1 113 -1 #SUP: 4
113 -1 64 -1 151 -1 #SUP: 2
113 -1 64 -1 557 -1 #SUP: 3
113 -1 65 -1 2 -1 #SUP: 2
113 -1 65 -1 32 -1 #SUP: 2
113 -1 65 -1 64 -1 #SUP: 2
113 -1 65 -1 81 -1 #SUP: 2
113 -1 65 -1 135 -1 #SUP: 3
113 -1 69 -1 64 -1 #SUP: 2
113 -1 69 -1 80 -1 #SUP: 2
113 -1 76 -1 16 -1 #SUP: 2
113 -1 76 -1 31 -1 #SUP: 3
113 -1 76 -1 64 -1 #SUP: 2
113 -1 76 -1 69 -1 #SUP: 2
113 -1 76 -1 80 -1 #SUP: 2
113 -1 76 -1 113 -1 #SUP: 6
113 -1 76 -1 242 -1 #SUP: 2
113 -1 76 -1 557 -1 #SUP: 3
113 -1 80 -1 64 -1 #SUP: 2
113 -1 81 -1 2 -1 #SUP: 2
113 -1 81 -1 64 -1 #SUP: 3
113 -1 113 -1 41 -1 #SUP: 2
113 -1 113 -1 64 -1 #SUP: 3
113 -1 113 -1 76 -1 #SUP: 3
113 -1 113 -1 118 -1 #SUP: 4
113 -1 113 -1 194 -1 #SUP: 3
113 -1 113 -1 213 -1 #SUP: 2
113 -1 113 -1 248 -1 #SUP: 2
113 -1 113 -1 268 -1 #SUP: 2
113 -1 113 -1 1327 -1 #SUP: 2
113 -1 113 -1 1533 -1 #SUP: 2
113 -1 113 -1 1678 -1 #SUP: 2
113 -1 118 -1 64 -1 #SUP: 2
113 -1 118 -1 113 -1 #SUP: 3
113 -1 118 -1 149 -1 #SUP: 2
113 -1 118 -1 182 -1 #SUP: 2
113 -1 118 -1 194 -1 #SUP: 3
113 -1 118 -1 278 -1 #SUP: 2
113 -1 118 -1 326 -1 #SUP: 3
113 -1 131 -1 3 -1 #SUP: 3
113 -1 131 -1 64 -1 #SUP: 2
113 -1 131 -1 76 -1 #SUP: 3
113 -1 131 -1 113 -1 #SUP: 3
113 -1 131 -1 149 -1 #SUP: 2
113 -1 131 -1 463 -1 #SUP: 2
113 -1 135 -1 64 -1 #SUP: 2
113 -1 135 -1 81 -1 #SUP: 2
113 -1 149 -1 113 -1 #SUP: 4
113 -1 151 -1 113 -1 #SUP: 3
113 -1 156 -1 64 -1 #SUP: 2
113 -1 158 -1 113 -1 #SUP: 2
113 -1 161 -1 2 -1 #SUP: 2
113 -1 161 -1 64 -1 #SUP: 3
113 -1 161 -1 65 -1 #SUP: 2
113 -1 161 -1 81 -1 #SUP: 2
113 -1 161 -1 135 -1 #SUP: 2
113 -1 161 -1 192 -1 #SUP: 2
113 -1 161 -1 860 -1 #SUP: 2
113 -1 192 -1 64 -1 #SUP: 2
113 -1 192 -1 65 -1 #SUP: 2
113 -1 192 -1 81 -1 #SUP: 2
113 -1 192 -1 135 -1 #SUP: 2
113 -1 194 -1 22 -1 #SUP: 4
113 -1 194 -1 64 -1 #SUP: 2
113 -1 194 -1 76 -1 #SUP: 2
113 -1 194 -1 113 -1 #SUP: 2
113 -1 194 -1 131 -1 #SUP: 2
113 -1 194 -1 149 -1 #SUP: 2
113 -1 194 -1 182 -1 #SUP: 2
113 -1 200 -1 64 -1 #SUP: 2
113 -1 200 -1 182 -1 #SUP: 2
113 -1 200 -1 1678 -1 #SUP: 2
113 -1 214 -1 401 -1 #SUP: 2
113 -1 214 -1 1327 -1 #SUP: 2
113 -1 224 -1 3 -1 #SUP: 2
113 -1 278 -1 2 -1 #SUP: 2
113 -1 278 -1 3 -1 #SUP: 2
113 -1 278 -1 113 -1 #SUP: 2
113 -1 278 -1 3371 -1 #SUP: 2
113 -1 326 -1 3 -1 #SUP: 2
113 -1 326 -1 64 -1 #SUP: 3
113 -1 326 -1 76 -1 #SUP: 2
113 -1 326 -1 113 -1 #SUP: 4
113 -1 326 -1 131 -1 #SUP: 3
113 -1 326 -1 248 -1 #SUP: 2
113 -1 326 -1 463 -1 #SUP: 2
113 -1 340 -1 64 -1 #SUP: 3
113 -1 340 -1 141 -1 #SUP: 2
113 -1 340 -1 149 -1 #SUP: 2
113 -1 363 -1 32 -1 #SUP: 2
113 -1 363 -1 64 -1 #SUP: 2
113 -1 453 -1 7 -1 #SUP: 2
113 -1 463 -1 64 -1 #SUP: 3
113 -1 463 -1 113 -1 #SUP: 2
113 -1 557 -1 113 -1 #SUP: 4
113 -1 786 -1 65 -1 #SUP: 2
113 -1 786 -1 113 -1 #SUP: 2
113 -1 786 -1 151 -1 #SUP: 2
113 -1 786 -1 278 -1 #SUP: 2
113 -1 860 -1 64 -1 #SUP: 2
113 -1 860 -1 65 -1 #SUP: 2
113 -1 860 -1 81 -1 #SUP: 2
113 -1 860 -1 135 -1 #SUP: 2
113 -1 860 -1 192 -1 #SUP: 2
113 -1 1225 -1 160 -1 #SUP: 2
113 -1 1418 -1 76 -1 #SUP: 2
118 -1 326 -1 27 -1 #SUP: 2
118 -1 326 -1 76 -1 #SUP: 2
118 -1 326 -1 113 -1 #SUP: 2
131 -1 3 -1 64 -1 #SUP: 3
131 -1 3 -1 113 -1 #SUP: 3
131 -1 3 -1 463 -1 #SUP: 2
131 -1 31 -1 65 -1 #SUP: 2
131 -1 76 -1 113 -1 #SUP: 4
131 -1 149 -1 64 -1 #SUP: 2
131 -1 463 -1 64 -1 #SUP: 2
135 -1 64 -1 224 -1 #SUP: 2
135 -1 81 -1 224 -1 #SUP: 2
141 -1 3 -1 2 -1 #SUP: 3
141 -1 3 -1 32 -1 #SUP: 2
141 -1 3 -1 41 -1 #SUP: 2
141 -1 3 -1 76 -1 #SUP: 2
141 -1 3 -1 1434 -1 #SUP: 2
141 -1 3 -1 4392 -1 #SUP: 2
141 -1 32 -1 2 -1 #SUP: 2
141 -1 32 -1 41 -1 #SUP: 2
141 -1 32 -1 76 -1 #SUP: 2
141 -1 32 -1 1434 -1 #SUP: 2
141 -1 41 -1 2 -1 #SUP: 3
141 -1 41 -1 32 -1 #SUP: 2
141 -1 41 -1 76 -1 #SUP: 2
141 -1 41 -1 201 -1 #SUP: 2
141 -1 41 -1 1434 -1 #SUP: 2
141 -1 76 -1 2 -1 #SUP: 2
141 -1 1434 -1 2 -1 #SUP: 2
141 -1 1434 -1 76 -1 #SUP: 2
141 -1 4392 -1 2 -1 #SUP: 2
141 -1 4392 -1 32 -1 #SUP: 2
141 -1 4392 -1 41 -1 #SUP: 2
141 -1 4392 -1 76 -1 #SUP: 2
141 -1 4392 -1 1434 -1 #SUP: 2
148 -1 16 -1 76 -1 #SUP: 2
148 -1 150 -1 16 -1 #SUP: 2
148 -1 150 -1 76 -1 #SUP: 2
148 -1 484 -1 16 -1 #SUP: 2
148 -1 484 -1 76 -1 #SUP: 2
148 -1 484 -1 150 -1 #SUP: 2
149 -1 3 -1 76 -1 #SUP: 2
149 -1 32 -1 76 -1 #SUP: 2
149 -1 113 -1 76 -1 #SUP: 3
149 -1 182 -1 3 -1 #SUP: 2
149 -1 200 -1 194 -1 #SUP: 2
149 -1 557 -1 113 -1 #SUP: 2
150 -1 16 -1 76 -1 #SUP: 2
151 -1 7 -1 31 -1 #SUP: 2
151 -1 76 -1 149 -1 #SUP: 2
151 -1 113 -1 7 -1 #SUP: 2
151 -1 113 -1 76 -1 #SUP: 2
151 -1 113 -1 113 -1 #SUP: 4
151 -1 113 -1 131 -1 #SUP: 2
151 -1 113 -1 326 -1 #SUP: 2
151 -1 131 -1 76 -1 #SUP: 2
151 -1 248 -1 113 -1 #SUP: 2
151 -1 326 -1 113 -1 #SUP: 2
151 -1 557 -1 113 -1 #SUP: 2
155 -1 7 -1 65 -1 #SUP: 2
155 -1 64 -1 7 -1 #SUP: 2
155 -1 64 -1 65 -1 #SUP: 2
156 -1 64 -1 41 -1 #SUP: 2
160 -1 31 -1 65 -1 #SUP: 2
160 -1 31 -1 278 -1 #SUP: 2
160 -1 151 -1 113 -1 #SUP: 2
161 -1 64 -1 2 -1 #SUP: 2
161 -1 65 -1 64 -1 #SUP: 2
161 -1 65 -1 81 -1 #SUP: 2
161 -1 65 -1 135 -1 #SUP: 2
161 -1 135 -1 64 -1 #SUP: 2
161 -1 135 -1 81 -1 #SUP: 2
161 -1 192 -1 64 -1 #SUP: 2
161 -1 192 -1 65 -1 #SUP: 2
161 -1 192 -1 81 -1 #SUP: 2
161 -1 192 -1 135 -1 #SUP: 2
161 -1 860 -1 64 -1 #SUP: 2
161 -1 860 -1 65 -1 #SUP: 2
161 -1 860 -1 81 -1 #SUP: 2
161 -1 860 -1 135 -1 #SUP: 2
161 -1 860 -1 192 -1 #SUP: 2
182 -1 3 -1 2 -1 #SUP: 2
182 -1 3 -1 65 -1 #SUP: 3
182 -1 3 -1 76 -1 #SUP: 4
182 -1 3 -1 77 -1 #SUP: 2
182 -1 3 -1 248 -1 #SUP: 2
182 -1 3 -1 264 -1 #SUP: 2
182 -1 3 -1 2127 -1 #SUP: 2
182 -1 22 -1 348 -1 #SUP: 2
182 -1 65 -1 32 -1 #SUP: 2
182 -1 65 -1 76 -1 #SUP: 2
182 -1 76 -1 113 -1 #SUP: 2
182 -1 76 -1 248 -1 #SUP: 2
182 -1 76 -1 557 -1 #SUP: 2
182 -1 113 -1 113 -1 #SUP: 2
182 -1 248 -1 113 -1 #SUP: 2
187 -1 113 -1 64 -1 #SUP: 2
192 -1 64 -1 224 -1 #SUP: 2
192 -1 65 -1 64 -1 #SUP: 2
192 -1 65 -1 81 -1 #SUP: 2
192 -1 65 -1 135 -1 #SUP: 2
192 -1 65 -1 224 -1 #SUP: 2
192 -1 81 -1 224 -1 #SUP: 2
192 -1 135 -1 64 -1 #SUP: 2
192 -1 135 -1 81 -1 #SUP: 2
192 -1 135 -1 224 -1 #SUP: 2
194 -1 113 -1 76 -1 #SUP: 2
194 -1 131 -1 3 -1 #SUP: 2
194 -1 131 -1 786 -1 #SUP: 2
200 -1 3 -1 64 -1 #SUP: 2
200 -1 3 -1 65 -1 #SUP: 2
200 -1 3 -1 113 -1 #SUP: 2
200 -1 3 -1 141 -1 #SUP: 2
200 -1 27 -1 3 -1 #SUP: 2
200 -1 27 -1 64 -1 #SUP: 2
200 -1 27 -1 113 -1 #SUP: 2
200 -1 27 -1 141 -1 #SUP: 2
200 -1 32 -1 113 -1 #SUP: 2
200 -1 64 -1 3 -1 #SUP: 2
200 -1 81 -1 64 -1 #SUP: 2
200 -1 113 -1 64 -1 #SUP: 2
200 -1 151 -1 3 -1 #SUP: 2
200 -1 187 -1 113 -1 #SUP: 3
200 -1 340 -1 64 -1 #SUP: 2
221 -1 224 -1 3 -1 #SUP: 2
221 -1 224 -1 22 -1 #SUP: 2
224 -1 3 -1 64 -1 #SUP: 3
224 -1 3 -1 76 -1 #SUP: 3
224 -1 3 -1 113 -1 #SUP: 2
224 -1 3 -1 264 -1 #SUP: 2
224 -1 3 -1 463 -1 #SUP: 2
224 -1 3 -1 2127 -1 #SUP: 2
224 -1 41 -1 76 -1 #SUP: 2
224 -1 64 -1 76 -1 #SUP: 3
224 -1 64 -1 510 -1 #SUP: 2
224 -1 76 -1 113 -1 #SUP: 2
224 -1 113 -1 3 -1 #SUP: 2
224 -1 113 -1 7 -1 #SUP: 2
224 -1 113 -1 10 -1 #SUP: 2
224 -1 113 -1 64 -1 #SUP: 2
224 -1 113 -1 76 -1 #SUP: 2
224 -1 113 -1 113 -1 #SUP: 2
224 -1 113 -1 131 -1 #SUP: 3
224 -1 113 -1 326 -1 #SUP: 2
224 -1 113 -1 463 -1 #SUP: 2
224 -1 131 -1 3 -1 #SUP: 3
224 -1 131 -1 64 -1 #SUP: 3
224 -1 131 -1 76 -1 #SUP: 2
224 -1 131 -1 113 -1 #SUP: 2
224 -1 131 -1 149 -1 #SUP: 2
224 -1 131 -1 463 -1 #SUP: 2
224 -1 156 -1 64 -1 #SUP: 2
224 -1 182 -1 3 -1 #SUP: 3
224 -1 182 -1 22 -1 #SUP: 2
224 -1 182 -1 264 -1 #SUP: 2
224 -1 182 -1 2127 -1 #SUP: 2
224 -1 326 -1 3 -1 #SUP: 2
224 -1 326 -1 64 -1 #SUP: 2
224 -1 326 -1 131 -1 #SUP: 2
224 -1 326 -1 463 -1 #SUP: 2
224 -1 463 -1 64 -1 #SUP: 2
224 -1 702 -1 64 -1 #SUP: 2
224 -1 702 -1 156 -1 #SUP: 2
224 -1 702 -1 256 -1 #SUP: 2
248 -1 64 -1 76 -1 #SUP: 2
248 -1 76 -1 31 -1 #SUP: 2
248 -1 76 -1 557 -1 #SUP: 2
250 -1 3 -1 64 -1 #SUP: 2
250 -1 3 -1 76 -1 #SUP: 2
250 -1 3 -1 113 -1 #SUP: 2
250 -1 31 -1 113 -1 #SUP: 2
250 -1 31 -1 557 -1 #SUP: 2
250 -1 113 -1 64 -1 #SUP: 2
256 -1 76 -1 22 -1 #SUP: 2
256 -1 234 -1 76 -1 #SUP: 2
256 -1 1583 -1 76 -1 #SUP: 2
256 -1 1583 -1 234 -1 #SUP: 2
264 -1 2 -1 113 -1 #SUP: 2
264 -1 113 -1 113 -1 #SUP: 2
268 -1 113 -1 118 -1 #SUP: 2
268 -1 113 -1 326 -1 #SUP: 2
268 -1 118 -1 326 -1 #SUP: 2
278 -1 2 -1 113 -1 #SUP: 2
278 -1 3 -1 3371 -1 #SUP: 2
278 -1 65 -1 32 -1 #SUP: 2
278 -1 113 -1 113 -1 #SUP: 2
278 -1 113 -1 118 -1 #SUP: 2
278 -1 113 -1 149 -1 #SUP: 2
278 -1 113 -1 326 -1 #SUP: 2
326 -1 3 -1 64 -1 #SUP: 2
326 -1 3 -1 76 -1 #SUP: 2
326 -1 3 -1 463 -1 #SUP: 2
326 -1 113 -1 113 -1 #SUP: 3
326 -1 113 -1 118 -1 #SUP: 2
326 -1 113 -1 248 -1 #SUP: 2
326 -1 131 -1 3 -1 #SUP: 2
326 -1 131 -1 64 -1 #SUP: 2
326 -1 131 -1 463 -1 #SUP: 2
326 -1 463 -1 10 -1 #SUP: 2
326 -1 463 -1 64 -1 #SUP: 3
340 -1 33 -1 22 -1 #SUP: 2
340 -1 64 -1 22 -1 #SUP: 2
340 -1 64 -1 33 -1 #SUP: 2
340 -1 64 -1 113 -1 #SUP: 2
340 -1 65 -1 32 -1 #SUP: 2
340 -1 65 -1 76 -1 #SUP: 2
340 -1 65 -1 1100 -1 #SUP: 3
340 -1 504 -1 76 -1 #SUP: 2
340 -1 1100 -1 32 -1 #SUP: 2
340 -1 1100 -1 76 -1 #SUP: 2
342 -1 22 -1 113 -1 #SUP: 2
342 -1 22 -1 165 -1 #SUP: 2
342 -1 65 -1 185 -1 #SUP: 2
342 -1 165 -1 113 -1 #SUP: 2
342 -1 200 -1 113 -1 #SUP: 2
348 -1 2 -1 113 -1 #SUP: 2
363 -1 32 -1 64 -1 #SUP: 2
375 -1 3 -1 31 -1 #SUP: 2
375 -1 131 -1 31 -1 #SUP: 2
401 -1 64 -1 113 -1 #SUP: 2
417 -1 7 -1 65 -1 #SUP: 2
417 -1 64 -1 7 -1 #SUP: 2
417 -1 64 -1 65 -1 #SUP: 2
417 -1 66 -1 7 -1 #SUP: 2
417 -1 118 -1 76 -1 #SUP: 2
417 -1 155 -1 7 -1 #SUP: 2
417 -1 155 -1 64 -1 #SUP: 2
417 -1 155 -1 65 -1 #SUP: 2
417 -1 234 -1 76 -1 #SUP: 2
417 -1 256 -1 76 -1 #SUP: 2
417 -1 256 -1 234 -1 #SUP: 2
417 -1 256 -1 1583 -1 #SUP: 2
417 -1 1583 -1 76 -1 #SUP: 2
417 -1 1583 -1 234 -1 #SUP: 2
463 -1 64 -1 113 -1 #SUP: 2
463 -1 113 -1 113 -1 #SUP: 2
463 -1 113 -1 118 -1 #SUP: 2
484 -1 16 -1 76 -1 #SUP: 2
484 -1 150 -1 16 -1 #SUP: 2
484 -1 150 -1 76 -1 #SUP: 2
484 -1 1143 -1 484 -1 #SUP: 2
484 -1 5691 -1 484 -1 #SUP: 2
484 -1 5691 -1 1143 -1 #SUP: 2
484 -1 5691 -1 4777 -1 #SUP: 2
484 -1 5691 -1 10363 -1 #SUP: 2
484 -1 10363 -1 1143 -1 #SUP: 2
484 -1 10643 -1 484 -1 #SUP: 2
497 -1 76 -1 7 -1 #SUP: 2
497 -1 76 -1 113 -1 #SUP: 2
557 -1 113 -1 1678 -1 #SUP: 2
571 -1 3 -1 64 -1 #SUP: 2
571 -1 64 -1 2 -1 #SUP: 2
571 -1 113 -1 3 -1 #SUP: 2
571 -1 113 -1 64 -1 #SUP: 2
702 -1 64 -1 41 -1 #SUP: 2
702 -1 64 -1 76 -1 #SUP: 2
702 -1 156 -1 41 -1 #SUP: 2
702 -1 156 -1 64 -1 #SUP: 2
786 -1 32 -1 76 -1 #SUP: 2
786 -1 151 -1 113 -1 #SUP: 2
860 -1 65 -1 64 -1 #SUP: 2
860 -1 65 -1 81 -1 #SUP: 2
860 -1 65 -1 135 -1 #SUP: 2
860 -1 135 -1 64 -1 #SUP: 2
860 -1 135 -1 81 -1 #SUP: 2
860 -1 192 -1 64 -1 #SUP: 2
860 -1 192 -1 65 -1 #SUP: 2
860 -1 192 -1 81 -1 #SUP: 2
860 -1 192 -1 135 -1 #SUP: 2
1100 -1 32 -1 3 -1 #SUP: 2
1100 -1 32 -1 50 -1 #SUP: 2
1100 -1 32 -1 76 -1 #SUP: 2
1100 -1 76 -1 3 -1 #SUP: 2
1143 -1 484 -1 10643 -1 #SUP: 2
1143 -1 4777 -1 484 -1 #SUP: 2
1143 -1 5691 -1 484 -1 #SUP: 3
1143 -1 5691 -1 4777 -1 #SUP: 2
1143 -1 5691 -1 10643 -1 #SUP: 2
1143 -1 10644 -1 484 -1 #SUP: 2
1143 -1 10644 -1 4777 -1 #SUP: 2
1143 -1 10644 -1 5691 -1 #SUP: 2
1143 -1 10644 -1 10643 -1 #SUP: 2
1434 -1 2 -1 41 -1 #SUP: 2
1434 -1 2 -1 244 -1 #SUP: 2
1434 -1 2 -1 1434 -1 #SUP: 2
1434 -1 41 -1 244 -1 #SUP: 2
1434 -1 41 -1 1434 -1 #SUP: 2
1434 -1 76 -1 2 -1 #SUP: 2
1434 -1 76 -1 41 -1 #SUP: 2
1434 -1 76 -1 244 -1 #SUP: 2
1434 -1 76 -1 1434 -1 #SUP: 2
1434 -1 1434 -1 244 -1 #SUP: 2
1583 -1 234 -1 76 -1 #SUP: 2
2792 -1 484 -1 484 -1 #SUP: 2
2792 -1 484 -1 1143 -1 #SUP: 2
2792 -1 1143 -1 484 -1 #SUP: 2
4392 -1 2 -1 41 -1 #SUP: 2
4392 -1 32 -1 2 -1 #SUP: 2
4392 -1 32 -1 41 -1 #SUP: 2
4392 -1 32 -1 76 -1 #SUP: 2
4392 -1 32 -1 1434 -1 #SUP: 2
4392 -1 41 -1 2 -1 #SUP: 2
4392 -1 41 -1 32 -1 #SUP: 2
4392 -1 41 -1 41 -1 #SUP: 2
4392 -1 41 -1 76 -1 #SUP: 2
4392 -1 41 -1 1434 -1 #SUP: 2
4392 -1 76 -1 2 -1 #SUP: 2
4392 -1 76 -1 41 -1 #SUP: 2
4392 -1 1434 -1 2 -1 #SUP: 2
4392 -1 1434 -1 41 -1 #SUP: 2
4392 -1 1434 -1 76 -1 #SUP: 2
4777 -1 484 -1 1143 -1 #SUP: 2
4777 -1 1143 -1 484 -1 #SUP: 2
4777 -1 5691 -1 4777 -1 #SUP: 2
5691 -1 484 -1 4777 -1 #SUP: 2
5691 -1 484 -1 5691 -1 #SUP: 2
5691 -1 484 -1 10643 -1 #SUP: 2
5691 -1 1143 -1 484 -1 #SUP: 2
5691 -1 1143 -1 4777 -1 #SUP: 2
5691 -1 1143 -1 5691 -1 #SUP: 2
5691 -1 1143 -1 10644 -1 #SUP: 2
5691 -1 4777 -1 484 -1 #SUP: 2
5691 -1 4777 -1 1143 -1 #SUP: 2
5691 -1 4777 -1 4777 -1 #SUP: 2
5691 -1 4777 -1 5691 -1 #SUP: 2
5691 -1 5691 -1 4777 -1 #SUP: 3
5691 -1 10363 -1 1143 -1 #SUP: 2
5691 -1 10363 -1 4777 -1 #SUP: 2
5691 -1 10363 -1 5691 -1 #SUP: 2
5691 -1 10363 -1 10644 -1 #SUP: 2
5691 -1 10643 -1 484 -1 #SUP: 2
5691 -1 10644 -1 4777 -1 #SUP: 2
5691 -1 10644 -1 5691 -1 #SUP: 2
10363 -1 1143 -1 484 -1 #SUP: 2
10363 -1 1143 -1 4777 -1 #SUP: 2
10363 -1 1143 -1 5691 -1 #SUP: 2
10363 -1 1143 -1 10644 -1 #SUP: 2
10363 -1 4777 -1 484 -1 #SUP: 2
10363 -1 5691 -1 484 -1 #SUP: 2
10363 -1 5691 -1 4777 -1 #SUP: 2
10363 -1 10644 -1 484 -1 #SUP: 2
10363 -1 10644 -1 4777 -1 #SUP: 2
10363 -1 10644 -1 5691 -1 #SUP: 2
10644 -1 4777 -1 484 -1 #SUP: 2
10644 -1 5691 -1 484 -1 #SUP: 2
10644 -1 5691 -1 4777 -1 #SUP: 2
10644 -1 5691 -1 10643 -1 #SUP: 2
2 -1 16 -1 64 -1 2 -1 #SUP: 2
2 -1 41 -1 1434 -1 244 -1 #SUP: 2
2 -1 113 -1 453 -1 7 -1 #SUP: 2
2 -1 224 -1 113 -1 131 -1 #SUP: 2
3 -1 27 -1 113 -1 64 -1 #SUP: 2
3 -1 32 -1 2 -1 41 -1 #SUP: 2
3 -1 32 -1 76 -1 2 -1 #SUP: 2
3 -1 32 -1 76 -1 41 -1 #SUP: 2
3 -1 32 -1 1434 -1 2 -1 #SUP: 2
3 -1 32 -1 1434 -1 41 -1 #SUP: 2
3 -1 32 -1 1434 -1 76 -1 #SUP: 2
3 -1 41 -1 2 -1 41 -1 #SUP: 2
3 -1 41 -1 32 -1 2 -1 #SUP: 2
3 -1 41 -1 32 -1 41 -1 #SUP: 2
3 -1 41 -1 32 -1 76 -1 #SUP: 2
3 -1 41 -1 32 -1 1434 -1 #SUP: 2
3 -1 41 -1 76 -1 2 -1 #SUP: 2
3 -1 41 -1 76 -1 41 -1 #SUP: 2
3 -1 41 -1 1434 -1 2 -1 #SUP: 2
3 -1 41 -1 1434 -1 41 -1 #SUP: 2
3 -1 41 -1 1434 -1 76 -1 #SUP: 2
3 -1 64 -1 76 -1 113 -1 #SUP: 2
3 -1 76 -1 2 -1 41 -1 #SUP: 2
3 -1 113 -1 76 -1 113 -1 #SUP: 2
3 -1 149 -1 200 -1 194 -1 #SUP: 2
3 -1 1434 -1 2 -1 41 -1 #SUP: 2
3 -1 1434 -1 76 -1 2 -1 #SUP: 2
3 -1 1434 -1 76 -1 41 -1 #SUP: 2
3 -1 4392 -1 2 -1 41 -1 #SUP: 2
3 -1 4392 -1 32 -1 2 -1 #SUP: 2
3 -1 4392 -1 32 -1 41 -1 #SUP: 2
3 -1 4392 -1 32 -1 76 -1 #SUP: 2
3 -1 4392 -1 32 -1 1434 -1 #SUP: 2
3 -1 4392 -1 41 -1 2 -1 #SUP: 2
3 -1 4392 -1 41 -1 32 -1 #SUP: 2
3 -1 4392 -1 41 -1 41 -1 #SUP: 2
3 -1 4392 -1 41 -1 76 -1 #SUP: 2
3 -1 4392 -1 41 -1 1434 -1 #SUP: 2
3 -1 4392 -1 76 -1 2 -1 #SUP: 2
3 -1 4392 -1 76 -1 41 -1 #SUP: 2
3 -1 4392 -1 1434 -1 2 -1 #SUP: 2
3 -1 4392 -1 1434 -1 41 -1 #SUP: 2
3 -1 4392 -1 1434 -1 76 -1 #SUP: 2
9 -1 28 -1 26 -1 113 -1 #SUP: 2
22 -1 348 -1 2 -1 113 -1 #SUP: 2
32 -1 2 -1 41 -1 244 -1 #SUP: 2
32 -1 2 -1 41 -1 1434 -1 #SUP: 2
32 -1 2 -1 1434 -1 244 -1 #SUP: 2
32 -1 41 -1 1434 -1 244 -1 #SUP: 2
32 -1 76 -1 2 -1 41 -1 #SUP: 2
32 -1 76 -1 2 -1 244 -1 #SUP: 2
32 -1 76 -1 2 -1 1434 -1 #SUP: 2
32 -1 76 -1 3 -1 16 -1 #SUP: 2
32 -1 76 -1 41 -1 244 -1 #SUP: 2
32 -1 76 -1 41 -1 1434 -1 #SUP: 2
32 -1 76 -1 1434 -1 244 -1 #SUP: 2
32 -1 1434 -1 2 -1 41 -1 #SUP: 2
32 -1 1434 -1 2 -1 244 -1 #SUP: 2
32 -1 1434 -1 2 -1 1434 -1 #SUP: 2
32 -1 1434 -1 41 -1 244 -1 #SUP: 2
32 -1 1434 -1 41 -1 1434 -1 #SUP: 2
32 -1 1434 -1 76 -1 2 -1 #SUP: 2
32 -1 1434 -1 76 -1 41 -1 #SUP: 2
32 -1 1434 -1 76 -1 244 -1 #SUP: 2
32 -1 1434 -1 76 -1 1434 -1 #SUP: 2
32 -1 1434 -1 1434 -1 244 -1 #SUP: 2
41 -1 2 -1 41 -1 1434 -1 #SUP: 2
41 -1 32 -1 2 -1 41 -1 #SUP: 2
41 -1 32 -1 2 -1 1434 -1 #SUP: 2
41 -1 32 -1 41 -1 1434 -1 #SUP: 2
41 -1 32 -1 76 -1 2 -1 #SUP: 2
41 -1 32 -1 76 -1 41 -1 #SUP: 2
41 -1 32 -1 76 -1 1434 -1 #SUP: 2
41 -1 32 -1 1434 -1 2 -1 #SUP: 2
41 -1 32 -1 1434 -1 41 -1 #SUP: 2
41 -1 32 -1 1434 -1 76 -1 #SUP: 2
41 -1 32 -1 1434 -1 244 -1 #SUP: 2
41 -1 32 -1 1434 -1 1434 -1 #SUP: 2
41 -1 76 -1 2 -1 41 -1 #SUP: 2
41 -1 76 -1 2 -1 1434 -1 #SUP: 2
41 -1 76 -1 41 -1 1434 -1 #SUP: 2
41 -1 1434 -1 2 -1 41 -1 #SUP: 2
41 -1 1434 -1 2 -1 1434 -1 #SUP: 2
41 -1 1434 -1 41 -1 1434 -1 #SUP: 2
41 -1 1434 -1 76 -1 2 -1 #SUP: 2
41 -1 1434 -1 76 -1 41 -1 #SUP: 2
41 -1 1434 -1 76 -1 1434 -1 #SUP: 2
50 -1 3 -1 113 -1 3 -1 #SUP: 2
50 -1 3 -1 113 -1 278 -1 #SUP: 2
50 -1 113 -1 326 -1 113 -1 #SUP: 2
54 -1 76 -1 15 -1 3 -1 #SUP: 2
65 -1 32 -1 76 -1 3 -1 #SUP: 2
65 -1 135 -1 64 -1 224 -1 #SUP: 2
65 -1 135 -1 81 -1 224 -1 #SUP: 2
65 -1 1100 -1 32 -1 3 -1 #SUP: 2
65 -1 1100 -1 32 -1 50 -1 #SUP: 2
65 -1 1100 -1 32 -1 76 -1 #SUP: 2
65 -1 1100 -1 76 -1 3 -1 #SUP: 2
76 -1 2 -1 41 -1 244 -1 #SUP: 2
76 -1 2 -1 41 -1 1434 -1 #SUP: 2
76 -1 2 -1 1434 -1 244 -1 #SUP: 2
76 -1 41 -1 1434 -1 244 -1 #SUP: 2
76 -1 69 -1 80 -1 64 -1 #SUP: 2
76 -1 113 -1 161 -1 65 -1 #SUP: 2
76 -1 113 -1 161 -1 192 -1 #SUP: 2
76 -1 113 -1 161 -1 860 -1 #SUP: 2
76 -1 113 -1 192 -1 65 -1 #SUP: 2
76 -1 113 -1 860 -1 65 -1 #SUP: 2
76 -1 113 -1 860 -1 192 -1 #SUP: 2
76 -1 113 -1 1225 -1 160 -1 #SUP: 2
76 -1 161 -1 192 -1 65 -1 #SUP: 2
76 -1 161 -1 860 -1 65 -1 #SUP: 2
76 -1 161 -1 860 -1 192 -1 #SUP: 2
76 -1 860 -1 192 -1 65 -1 #SUP: 2
81 -1 64 -1 76 -1 224 -1 #SUP: 2
113 -1 3 -1 463 -1 64 -1 #SUP: 3
113 -1 64 -1 76 -1 113 -1 #SUP: 2
113 -1 65 -1 135 -1 64 -1 #SUP: 2
113 -1 65 -1 135 -1 81 -1 #SUP: 2
113 -1 69 -1 80 -1 64 -1 #SUP: 2
113 -1 76 -1 69 -1 64 -1 #SUP: 2
113 -1 76 -1 69 -1 80 -1 #SUP: 2
113 -1 76 -1 80 -1 64 -1 #SUP: 2
113 -1 76 -1 557 -1 113 -1 #SUP: 3
113 -1 113 -1 118 -1 194 -1 #SUP: 2
113 -1 118 -1 326 -1 113 -1 #SUP: 2
113 -1 131 -1 3 -1 64 -1 #SUP: 2
113 -1 131 -1 3 -1 463 -1 #SUP: 2
113 -1 131 -1 76 -1 113 -1 #SUP: 3
113 -1 131 -1 463 -1 64 -1 #SUP: 2
113 -1 161 -1 64 -1 2 -1 #SUP: 2
113 -1 161 -1 65 -1 64 -1 #SUP: 2
113 -1 161 -1 65 -1 81 -1 #SUP: 2
113 -1 161 -1 65 -1 135 -1 #SUP: 2
113 -1 161 -1 135 -1 64 -1 #SUP: 2
113 -1 161 -1 135 -1 81 -1 #SUP: 2
113 -1 161 -1 192 -1 64 -1 #SUP: 2
113 -1 161 -1 192 -1 65 -1 #SUP: 2
113 -1 161 -1 192 -1 81 -1 #SUP: 2
113 -1 161 -1 192 -1 135 -1 #SUP: 2
113 -1 161 -1 860 -1 64 -1 #SUP: 2
113 -1 161 -1 860 -1 65 -1 #SUP: 2
113 -1 161 -1 860 -1 81 -1 #SUP: 2
113 -1 161 -1 860 -1 135 -1 #SUP: 2
113 -1 161 -1 860 -1 192 -1 #SUP: 2
113 -1 192 -1 65 -1 64 -1 #SUP: 2
113 -1 192 -1 65 -1 81 -1 #SUP: 2
113 -1 192 -1 65 -1 135 -1 #SUP: 2
113 -1 192 -1 135 -1 64 -1 #SUP: 2
113 -1 192 -1 135 -1 81 -1 #SUP: 2
113 -1 278 -1 3 -1 3371 -1 #SUP: 2
113 -1 326 -1 3 -1 64 -1 #SUP: 2
113 -1 326 -1 3 -1 463 -1 #SUP: 2
113 -1 326 -1 113 -1 248 -1 #SUP: 2
113 -1 326 -1 131 -1 3 -1 #SUP: 2
113 -1 326 -1 131 -1 64 -1 #SUP: 2
113 -1 326 -1 131 -1 463 -1 #SUP: 2
113 -1 326 -1 463 -1 64 -1 #SUP: 2
113 -1 363 -1 32 -1 64 -1 #SUP: 2
113 -1 786 -1 151 -1 113 -1 #SUP: 2
113 -1 860 -1 65 -1 64 -1 #SUP: 2
113 -1 860 -1 65 -1 81 -1 #SUP: 2
113 -1 860 -1 65 -1 135 -1 #SUP: 2
113 -1 860 -1 135 -1 64 -1 #SUP: 2
113 -1 860 -1 135 -1 81 -1 #SUP: 2
113 -1 860 -1 192 -1 64 -1 #SUP: 2
113 -1 860 -1 192 -1 65 -1 #SUP: 2
113 -1 860 -1 192 -1 81 -1 #SUP: 2
113 -1 860 -1 192 -1 135 -1 #SUP: 2
131 -1 3 -1 463 -1 64 -1 #SUP: 2
141 -1 3 -1 32 -1 2 -1 #SUP: 2
141 -1 3 -1 32 -1 76 -1 #SUP: 2
141 -1 3 -1 32 -1 1434 -1 #SUP: 2
141 -1 3 -1 41 -1 2 -1 #SUP: 2
141 -1 3 -1 41 -1 32 -1 #SUP: 2
141 -1 3 -1 41 -1 76 -1 #SUP: 2
141 -1 3 -1 41 -1 1434 -1 #SUP: 2
141 -1 3 -1 76 -1 2 -1 #SUP: 2
141 -1 3 -1 1434 -1 2 -1 #SUP: 2
141 -1 3 -1 1434 -1 76 -1 #SUP: 2
141 -1 3 -1 4392 -1 2 -1 #SUP: 2
141 -1 3 -1 4392 -1 32 -1 #SUP: 2
141 -1 3 -1 4392 -1 41 -1 #SUP: 2
141 -1 3 -1 4392 -1 76 -1 #SUP: 2
141 -1 3 -1 4392 -1 1434 -1 #SUP: 2
141 -1 32 -1 76 -1 2 -1 #SUP: 2
141 -1 32 -1 1434 -1 2 -1 #SUP: 2
141 -1 32 -1 1434 -1 76 -1 #SUP: 2
141 -1 41 -1 32 -1 2 -1 #SUP: 2
141 -1 41 -1 32 -1 76 -1 #SUP: 2
141 -1 41 -1 32 -1 1434 -1 #SUP: 2
141 -1 41 -1 76 -1 2 -1 #SUP: 2
141 -1 41 -1 1434 -1 2 -1 #SUP: 2
141 -1 41 -1 1434 -1 76 -1 #SUP: 2
141 -1 1434 -1 76 -1 2 -1 #SUP: 2
141 -1 4392 -1 32 -1 2 -1 #SUP: 2
141 -1 4392 -1 32 -1 76 -1 #SUP: 2
141 -1 4392 -1 32 -1 1434 -1 #SUP: 2
141 -1 4392 -1 41 -1 2 -1 #SUP: 2
141 -1 4392 -1 41 -1 32 -1 #SUP: 2
141 -1 4392 -1 41 -1 76 -1 #SUP: 2
141 -1 4392 -1 41 -1 1434 -1 #SUP: 2
141 -1 4392 -1 76 -1 2 -1 #SUP: 2
141 -1 4392 -1 1434 -1 2 -1 #SUP: 2
141 -1 4392 -1 1434 -1 76 -1 #SUP: 2
148 -1 150 -1 16 -1 76 -1 #SUP: 2
148 -1 484 -1 16 -1 76 -1 #SUP: 2
148 -1 484 -1 150 -1 16 -1 #SUP: 2
148 -1 484 -1 150 -1 76 -1 #SUP: 2
151 -1 113 -1 131 -1 76 -1 #SUP: 2
151 -1 113 -1 326 -1 113 -1 #SUP: 2
155 -1 64 -1 7 -1 65 -1 #SUP: 2
161 -1 65 -1 135 -1 64 -1 #SUP: 2
161 -1 65 -1 135 -1 81 -1 #SUP: 2
161 -1 192 -1 65 -1 64 -1 #SUP: 2
161 -1 192 -1 65 -1 81 -1 #SUP: 2
161 -1 192 -1 65 -1 135 -1 #SUP: 2
161 -1 192 -1 135 -1 64 -1 #SUP: 2
161 -1 192 -1 135 -1 81 -1 #SUP: 2
161 -1 860 -1 65 -1 64 -1 #SUP: 2
161 -1 860 -1 65 -1 81 -1 #SUP: 2
161 -1 860 -1 65 -1 135 -1 #SUP: 2
161 -1 860 -1 135 -1 64 -1 #SUP: 2
161 -1 860 -1 135 -1 81 -1 #SUP: 2
161 -1 860 -1 192 -1 64 -1 #SUP: 2
161 -1 860 -1 192 -1 65 -1 #SUP: 2
161 -1 860 -1 192 -1 81 -1 #SUP: 2
161 -1 860 -1 192 -1 135 -1 #SUP: 2
182 -1 3 -1 65 -1 76 -1 #SUP: 2
182 -1 3 -1 76 -1 248 -1 #SUP: 2
192 -1 65 -1 64 -1 224 -1 #SUP: 2
192 -1 65 -1 81 -1 224 -1 #SUP: 2
192 -1 65 -1 135 -1 64 -1 #SUP: 2
192 -1 65 -1 135 -1 81 -1 #SUP: 2
192 -1 65 -1 135 -1 224 -1 #SUP: 2
192 -1 135 -1 64 -1 224 -1 #SUP: 2
192 -1 135 -1 81 -1 224 -1 #SUP: 2
200 -1 27 -1 113 -1 64 -1 #SUP: 2
224 -1 3 -1 463 -1 64 -1 #SUP: 2
224 -1 113 -1 3 -1 64 -1 #SUP: 2
224 -1 113 -1 3 -1 463 -1 #SUP: 2
224 -1 113 -1 131 -1 3 -1 #SUP: 2
224 -1 113 -1 131 -1 64 -1 #SUP: 2
224 -1 113 -1 131 -1 76 -1 #SUP: 2
224 -1 113 -1 131 -1 113 -1 #SUP: 2
224 -1 113 -1 131 -1 463 -1 #SUP: 2
224 -1 113 -1 326 -1 3 -1 #SUP: 2
224 -1 113 -1 326 -1 64 -1 #SUP: 2
224 -1 113 -1 326 -1 131 -1 #SUP: 2
224 -1 113 -1 326 -1 463 -1 #SUP: 2
224 -1 113 -1 463 -1 64 -1 #SUP: 2
224 -1 131 -1 3 -1 64 -1 #SUP: 3
224 -1 131 -1 3 -1 463 -1 #SUP: 2
224 -1 131 -1 463 -1 64 -1 #SUP: 2
224 -1 182 -1 3 -1 264 -1 #SUP: 2
224 -1 182 -1 3 -1 2127 -1 #SUP: 2
224 -1 326 -1 3 -1 64 -1 #SUP: 2
224 -1 326 -1 3 -1 463 -1 #SUP: 2
224 -1 326 -1 131 -1 3 -1 #SUP: 2
224 -1 326 -1 131 -1 64 -1 #SUP: 2
224 -1 326 -1 131 -1 463 -1 #SUP: 2
224 -1 326 -1 463 -1 64 -1 #SUP: 2
224 -1 702 -1 156 -1 64 -1 #SUP: 2
250 -1 3 -1 113 -1 64 -1 #SUP: 2
256 -1 1583 -1 234 -1 76 -1 #SUP: 2
268 -1 113 -1 118 -1 326 -1 #SUP: 2
326 -1 3 -1 463 -1 64 -1 #SUP: 2
326 -1 131 -1 3 -1 64 -1 #SUP: 2
326 -1 131 -1 3 -1 463 -1 #SUP: 2
326 -1 131 -1 463 -1 64 -1 #SUP: 2
340 -1 64 -1 33 -1 22 -1 #SUP: 2
340 -1 65 -1 1100 -1 32 -1 #SUP: 2
340 -1 65 -1 1100 -1 76 -1 #SUP: 2
342 -1 22 -1 165 -1 113 -1 #SUP: 2
417 -1 64 -1 7 -1 65 -1 #SUP: 2
417 -1 155 -1 7 -1 65 -1 #SUP: 2
417 -1 155 -1 64 -1 7 -1 #SUP: 2
417 -1 155 -1 64 -1 65 -1 #SUP: 2
417 -1 256 -1 234 -1 76 -1 #SUP: 2
417 -1 256 -1 1583 -1 76 -1 #SUP: 2
417 -1 256 -1 1583 -1 234 -1 #SUP: 2
417 -1 1583 -1 234 -1 76 -1 #SUP: 2
463 -1 113 -1 113 -1 118 -1 #SUP: 2
484 -1 150 -1 16 -1 76 -1 #SUP: 2
484 -1 5691 -1 10363 -1 1143 -1 #SUP: 2
571 -1 113 -1 3 -1 64 -1 #SUP: 2
702 -1 156 -1 64 -1 41 -1 #SUP: 2
860 -1 65 -1 135 -1 64 -1 #SUP: 2
860 -1 65 -1 135 -1 81 -1 #SUP: 2
860 -1 192 -1 65 -1 64 -1 #SUP: 2
860 -1 192 -1 65 -1 81 -1 #SUP: 2
860 -1 192 -1 65 -1 135 -1 #SUP: 2
860 -1 192 -1 135 -1 64 -1 #SUP: 2
860 -1 192 -1 135 -1 81 -1 #SUP: 2
1100 -1 32 -1 76 -1 3 -1 #SUP: 2
1143 -1 5691 -1 4777 -1 484 -1 #SUP: 2
1143 -1 10644 -1 4777 -1 484 -1 #SUP: 2
1143 -1 10644 -1 5691 -1 484 -1 #SUP: 2
1143 -1 10644 -1 5691 -1 4777 -1 #SUP: 2
1143 -1 10644 -1 5691 -1 10643 -1 #SUP: 2
1434 -1 2 -1 41 -1 244 -1 #SUP: 2
1434 -1 2 -1 41 -1 1434 -1 #SUP: 2
1434 -1 2 -1 1434 -1 244 -1 #SUP: 2
1434 -1 41 -1 1434 -1 244 -1 #SUP: 2
1434 -1 76 -1 2 -1 41 -1 #SUP: 2
1434 -1 76 -1 2 -1 244 -1 #SUP: 2
1434 -1 76 -1 2 -1 1434 -1 #SUP: 2
1434 -1 76 -1 41 -1 244 -1 #SUP: 2
1434 -1 76 -1 41 -1 1434 -1 #SUP: 2
1434 -1 76 -1 1434 -1 244 -1 #SUP: 2
2792 -1 484 -1 1143 -1 484 -1 #SUP: 2
4392 -1 32 -1 2 -1 41 -1 #SUP: 2
4392 -1 32 -1 76 -1 2 -1 #SUP: 2
4392 -1 32 -1 76 -1 41 -1 #SUP: 2
4392 -1 32 -1 1434 -1 2 -1 #SUP: 2
4392 -1 32 -1 1434 -1 41 -1 #SUP: 2
4392 -1 32 -1 1434 -1 76 -1 #SUP: 2
4392 -1 41 -1 2 -1 41 -1 #SUP: 2
4392 -1 41 -1 32 -1 2 -1 #SUP: 2
4392 -1 41 -1 32 -1 41 -1 #SUP: 2
4392 -1 41 -1 32 -1 76 -1 #SUP: 2
4392 -1 41 -1 32 -1 1434 -1 #SUP: 2
4392 -1 41 -1 76 -1 2 -1 #SUP: 2
4392 -1 41 -1 76 -1 41 -1 #SUP: 2
4392 -1 41 -1 1434 -1 2 -1 #SUP: 2
4392 -1 41 -1 1434 -1 41 -1 #SUP: 2
4392 -1 41 -1 1434 -1 76 -1 #SUP: 2
4392 -1 76 -1 2 -1 41 -1 #SUP: 2
4392 -1 1434 -1 2 -1 41 -1 #SUP: 2
4392 -1 1434 -1 76 -1 2 -1 #SUP: 2
4392 -1 1434 -1 76 -1 41 -1 #SUP: 2
5691 -1 484 -1 5691 -1 4777 -1 #SUP: 2
5691 -1 1143 -1 5691 -1 4777 -1 #SUP: 2
5691 -1 1143 -1 10644 -1 4777 -1 #SUP: 2
5691 -1 1143 -1 10644 -1 5691 -1 #SUP: 2
5691 -1 4777 -1 5691 -1 4777 -1 #SUP: 2
5691 -1 10363 -1 1143 -1 4777 -1 #SUP: 2
5691 -1 10363 -1 1143 -1 5691 -1 #SUP: 2
5691 -1 10363 -1 1143 -1 10644 -1 #SUP: 2
5691 -1 10363 -1 5691 -1 4777 -1 #SUP: 2
5691 -1 10363 -1 10644 -1 4777 -1 #SUP: 2
5691 -1 10363 -1 10644 -1 5691 -1 #SUP: 2
5691 -1 10644 -1 5691 -1 4777 -1 #SUP: 2
10363 -1 1143 -1 4777 -1 484 -1 #SUP: 2
10363 -1 1143 -1 5691 -1 484 -1 #SUP: 2
10363 -1 1143 -1 5691 -1 4777 -1 #SUP: 2
10363 -1 1143 -1 10644 -1 484 -1 #SUP: 2
10363 -1 1143 -1 10644 -1 4777 -1 #SUP: 2
10363 -1 1143 -1 10644 -1 5691 -1 #SUP: 2
10363 -1 5691 -1 4777 -1 484 -1 #SUP: 2
10363 -1 10644 -1 4777 -1 484 -1 #SUP: 2
10363 -1 10644 -1 5691 -1 484 -1 #SUP: 2
10363 -1 10644 -1 5691 -1 4777 -1 #SUP: 2
10644 -1 5691 -1 4777 -1 484 -1 #SUP: 2
3 -1 32 -1 76 -1 2 -1 41 -1 #SUP: 2
3 -1 32 -1 1434 -1 2 -1 41 -1 #SUP: 2
3 -1 32 -1 1434 -1 76 -1 2 -1 #SUP: 2
3 -1 32 -1 1434 -1 76 -1 41 -1 #SUP: 2
3 -1 41 -1 32 -1 2 -1 41 -1 #SUP: 2
3 -1 41 -1 32 -1 76 -1 2 -1 #SUP: 2
3 -1 41 -1 32 -1 76 -1 41 -1 #SUP: 2
3 -1 41 -1 32 -1 1434 -1 2 -1 #SUP: 2
3 -1 41 -1 32 -1 1434 -1 41 -1 #SUP: 2
3 -1 41 -1 32 -1 1434 -1 76 -1 #SUP: 2
3 -1 41 -1 76 -1 2 -1 41 -1 #SUP: 2
3 -1 41 -1 1434 -1 2 -1 41 -1 #SUP: 2
3 -1 41 -1 1434 -1 76 -1 2 -1 #SUP: 2
3 -1 41 -1 1434 -1 76 -1 41 -1 #SUP: 2
3 -1 1434 -1 76 -1 2 -1 41 -1 #SUP: 2
3 -1 4392 -1 32 -1 2 -1 41 -1 #SUP: 2
3 -1 4392 -1 32 -1 76 -1 2 -1 #SUP: 2
3 -1 4392 -1 32 -1 76 -1 41 -1 #SUP: 2
3 -1 4392 -1 32 -1 1434 -1 2 -1 #SUP: 2
3 -1 4392 -1 32 -1 1434 -1 41 -1 #SUP: 2
3 -1 4392 -1 32 -1 1434 -1 76 -1 #SUP: 2
3 -1 4392 -1 41 -1 2 -1 41 -1 #SUP: 2
3 -1 4392 -1 41 -1 32 -1 2 -1 #SUP: 2
3 -1 4392 -1 41 -1 32 -1 41 -1 #SUP: 2
3 -1 4392 -1 41 -1 32 -1 76 -1 #SUP: 2
3 -1 4392 -1 41 -1 32 -1 1434 -1 #SUP: 2
3 -1 4392 -1 41 -1 76 -1 2 -1 #SUP: 2
3 -1 4392 -1 41 -1 76 -1 41 -1 #SUP: 2
3 -1 4392 -1 41 -1 1434 -1 2 -1 #SUP: 2
3 -1 4392 -1 41 -1 1434 -1 41 -1 #SUP: 2
3 -1 4392 -1 41 -1 1434 -1 76 -1 #SUP: 2
3 -1 4392 -1 76 -1 2 -1 41 -1 #SUP: 2
3 -1 4392 -1 1434 -1 2 -1 41 -1 #SUP: 2
3 -1 4392 -1 1434 -1 76 -1 2 -1 #SUP: 2
3 -1 4392 -1 1434 -1 76 -1 41 -1 #SUP: 2
32 -1 2 -1 41 -1 1434 -1 244 -1 #SUP: 2
32 -1 76 -1 2 -1 41 -1 244 -1 #SUP: 2
32 -1 76 -1 2 -1 41 -1 1434 -1 #SUP: 2
32 -1 76 -1 2 -1 1434 -1 244 -1 #SUP: 2
32 -1 76 -1 41 -1 1434 -1 244 -1 #SUP: 2
32 -1 1434 -1 2 -1 41 -1 244 -1 #SUP: 2
32 -1 1434 -1 2 -1 41 -1 1434 -1 #SUP: 2
32 -1 1434 -1 2 -1 1434 -1 244 -1 #SUP: 2
32 -1 1434 -1 41 -1 1434 -1 244 -1 #SUP: 2
32 -1 1434 -1 76 -1 2 -1 41 -1 #SUP: 2
32 -1 1434 -1 76 -1 2 -1 244 -1 #SUP: 2
32 -1 1434 -1 76 -1 2 -1 1434 -1 #SUP: 2
32 -1 1434 -1 76 -1 41 -1 244 -1 #SUP: 2
32 -1 1434 -1 76 -1 41 -1 1434 -1 #SUP: 2
32 -1 1434 -1 76 -1 1434 -1 244 -1 #SUP: 2
41 -1 32 -1 2 -1 41 -1 1434 -1 #SUP: 2
41 -1 32 -1 76 -1 2 -1 41 -1 #SUP: 2
41 -1 32 -1 76 -1 2 -1 1434 -1 #SUP: 2
41 -1 32 -1 76 -1 41 -1 1434 -1 #SUP: 2
41 -1 32 -1 1434 -1 2 -1 41 -1 #SUP: 2
41 -1 32 -1 1434 -1 2 -1 1434 -1 #SUP: 2
41 -1 32 -1 1434 -1 41 -1 1434 -1 #SUP: 2
41 -1 32 -1 1434 -1 76 -1 2 -1 #SUP: 2
41 -1 32 -1 1434 -1 76 -1 41 -1 #SUP: 2
41 -1 32 -1 1434 -1 76 -1 1434 -1 #SUP: 2
41 -1 76 -1 2 -1 41 -1 1434 -1 #SUP: 2
41 -1 1434 -1 2 -1 41 -1 1434 -1 #SUP: 2
41 -1 1434 -1 76 -1 2 -1 41 -1 #SUP: 2
41 -1 1434 -1 76 -1 2 -1 1434 -1 #SUP: 2
41 -1 1434 -1 76 -1 41 -1 1434 -1 #SUP: 2
65 -1 1100 -1 32 -1 76 -1 3 -1 #SUP: 2
76 -1 2 -1 41 -1 1434 -1 244 -1 #SUP: 2
76 -1 113 -1 161 -1 192 -1 65 -1 #SUP: 2
76 -1 113 -1 161 -1 860 -1 65 -1 #SUP: 2
76 -1 113 -1 161 -1 860 -1 192 -1 #SUP: 2
76 -1 113 -1 860 -1 192 -1 65 -1 #SUP: 2
76 -1 161 -1 860 -1 192 -1 65 -1 #SUP: 2
113 -1 76 -1 69 -1 80 -1 64 -1 #SUP: 2
113 -1 131 -1 3 -1 463 -1 64 -1 #SUP: 2
113 -1 161 -1 65 -1 135 -1 64 -1 #SUP: 2
113 -1 161 -1 65 -1 135 -1 81 -1 #SUP: 2
113 -1 161 -1 192 -1 65 -1 64 -1 #SUP: 2
113 -1 161 -1 192 -1 65 -1 81 -1 #SUP: 2
113 -1 161 -1 192 -1 65 -1 135 -1 #SUP: 2
113 -1 161 -1 192 -1 135 -1 64 -1 #SUP: 2
113 -1 161 -1 192 -1 135 -1 81 -1 #SUP: 2
113 -1 161 -1 860 -1 65 -1 64 -1 #SUP: 2
113 -1 161 -1 860 -1 65 -1 81 -1 #SUP: 2
113 -1 161 -1 860 -1 65 -1 135 -1 #SUP: 2
113 -1 161 -1 860 -1 135 -1 64 -1 #SUP: 2
113 -1 161 -1 860 -1 135 -1 81 -1 #SUP: 2
113 -1 161 -1 860 -1 192 -1 64 -1 #SUP: 2
113 -1 161 -1 860 -1 192 -1 65 -1 #SUP: 2
113 -1 161 -1 860 -1 192 -1 81 -1 #SUP: 2
113 -1 161 -1 860 -1 192 -1 135 -1 #SUP: 2
113 -1 192 -1 65 -1 135 -1 64 -1 #SUP: 2
113 -1 192 -1 65 -1 135 -1 81 -1 #SUP: 2
113 -1 326 -1 3 -1 463 -1 64 -1 #SUP: 2
113 -1 326 -1 131 -1 3 -1 64 -1 #SUP: 2
113 -1 326 -1 131 -1 3 -1 463 -1 #SUP: 2
113 -1 326 -1 131 -1 463 -1 64 -1 #SUP: 2
113 -1 860 -1 65 -1 135 -1 64 -1 #SUP: 2
113 -1 860 -1 65 -1 135 -1 81 -1 #SUP: 2
113 -1 860 -1 192 -1 65 -1 64 -1 #SUP: 2
113 -1 860 -1 192 -1 65 -1 81 -1 #SUP: 2
113 -1 860 -1 192 -1 65 -1 135 -1 #SUP: 2
113 -1 860 -1 192 -1 135 -1 64 -1 #SUP: 2
113 -1 860 -1 192 -1 135 -1 81 -1 #SUP: 2
141 -1 3 -1 32 -1 76 -1 2 -1 #SUP: 2
141 -1 3 -1 32 -1 1434 -1 2 -1 #SUP: 2
141 -1 3 -1 32 -1 1434 -1 76 -1 #SUP: 2
141 -1 3 -1 41 -1 32 -1 2 -1 #SUP: 2
141 -1 3 -1 41 -1 32 -1 76 -1 #SUP: 2
141 -1 3 -1 41 -1 32 -1 1434 -1 #SUP: 2
141 -1 3 -1 41 -1 76 -1 2 -1 #SUP: 2
141 -1 3 -1 41 -1 1434 -1 2 -1 #SUP: 2
141 -1 3 -1 41 -1 1434 -1 76 -1 #SUP: 2
141 -1 3 -1 1434 -1 76 -1 2 -1 #SUP: 2
141 -1 3 -1 4392 -1 32 -1 2 -1 #SUP: 2
141 -1 3 -1 4392 -1 32 -1 76 -1 #SUP: 2
141 -1 3 -1 4392 -1 32 -1 1434 -1 #SUP: 2
141 -1 3 -1 4392 -1 41 -1 2 -1 #SUP: 2
141 -1 3 -1 4392 -1 41 -1 32 -1 #SUP: 2
141 -1 3 -1 4392 -1 41 -1 76 -1 #SUP: 2
141 -1 3 -1 4392 -1 41 -1 1434 -1 #SUP: 2
141 -1 3 -1 4392 -1 76 -1 2 -1 #SUP: 2
141 -1 3 -1 4392 -1 1434 -1 2 -1 #SUP: 2
141 -1 3 -1 4392 -1 1434 -1 76 -1 #SUP: 2
141 -1 32 -1 1434 -1 76 -1 2 -1 #SUP: 2
141 -1 41 -1 32 -1 76 -1 2 -1 #SUP: 2
141 -1 41 -1 32 -1 1434 -1 2 -1 #SUP: 2
141 -1 41 -1 32 -1 1434 -1 76 -1 #SUP: 2
141 -1 41 -1 1434 -1 76 -1 2 -1 #SUP: 2
141 -1 4392 -1 32 -1 76 -1 2 -1 #SUP: 2
141 -1 4392 -1 32 -1 1434 -1 2 -1 #SUP: 2
141 -1 4392 -1 32 -1 1434 -1 76 -1 #SUP: 2
141 -1 4392 -1 41 -1 32 -1 2 -1 #SUP: 2
141 -1 4392 -1 41 -1 32 -1 76 -1 #SUP: 2
141 -1 4392 -1 41 -1 32 -1 1434 -1 #SUP: 2
141 -1 4392 -1 41 -1 76 -1 2 -1 #SUP: 2
141 -1 4392 -1 41 -1 1434 -1 2 -1 #SUP: 2
141 -1 4392 -1 41 -1 1434 -1 76 -1 #SUP: 2
141 -1 4392 -1 1434 -1 76 -1 2 -1 #SUP: 2
148 -1 484 -1 150 -1 16 -1 76 -1 #SUP: 2
161 -1 192 -1 65 -1 135 -1 64 -1 #SUP: 2
161 -1 192 -1 65 -1 135 -1 81 -1 #SUP: 2
161 -1 860 -1 65 -1 135 -1 64 -1 #SUP: 2
161 -1 860 -1 65 -1 135 -1 81 -1 #SUP: 2
161 -1 860 -1 192 -1 65 -1 64 -1 #SUP: 2
161 -1 860 -1 192 -1 65 -1 81 -1 #SUP: 2
161 -1 860 -1 192 -1 65 -1 135 -1 #SUP: 2
161 -1 860 -1 192 -1 135 -1 64 -1 #SUP: 2
161 -1 860 -1 192 -1 135 -1 81 -1 #SUP: 2
192 -1 65 -1 135 -1 64 -1 224 -1 #SUP: 2
192 -1 65 -1 135 -1 81 -1 224 -1 #SUP: 2
224 -1 113 -1 3 -1 463 -1 64 -1 #SUP: 2
224 -1 113 -1 131 -1 3 -1 64 -1 #SUP: 2
224 -1 113 -1 131 -1 3 -1 463 -1 #SUP: 2
224 -1 113 -1 131 -1 463 -1 64 -1 #SUP: 2
224 -1 113 -1 326 -1 3 -1 64 -1 #SUP: 2
224 -1 113 -1 326 -1 3 -1 463 -1 #SUP: 2
224 -1 113 -1 326 -1 131 -1 3 -1 #SUP: 2
224 -1 113 -1 326 -1 131 -1 64 -1 #SUP: 2
224 -1 113 -1 326 -1 131 -1 463 -1 #SUP: 2
224 -1 113 -1 326 -1 463 -1 64 -1 #SUP: 2
224 -1 131 -1 3 -1 463 -1 64 -1 #SUP: 2
224 -1 326 -1 3 -1 463 -1 64 -1 #SUP: 2
224 -1 326 -1 131 -1 3 -1 64 -1 #SUP: 2
224 -1 326 -1 131 -1 3 -1 463 -1 #SUP: 2
224 -1 326 -1 131 -1 463 -1 64 -1 #SUP: 2
326 -1 131 -1 3 -1 463 -1 64 -1 #SUP: 2
417 -1 155 -1 64 -1 7 -1 65 -1 #SUP: 2
417 -1 256 -1 1583 -1 234 -1 76 -1 #SUP: 2
860 -1 192 -1 65 -1 135 -1 64 -1 #SUP: 2
860 -1 192 -1 65 -1 135 -1 81 -1 #SUP: 2
1143 -1 10644 -1 5691 -1 4777 -1 484 -1 #SUP: 2
1434 -1 2 -1 41 -1 1434 -1 244 -1 #SUP: 2
1434 -1 76 -1 2 -1 41 -1 244 -1 #SUP: 2
1434 -1 76 -1 2 -1 41 -1 1434 -1 #SUP: 2
1434 -1 76 -1 2 -1 1434 -1 244 -1 #SUP: 2
1434 -1 76 -1 41 -1 1434 -1 244 -1 #SUP: 2
4392 -1 32 -1 76 -1 2 -1 41 -1 #SUP: 2
4392 -1 32 -1 1434 -1 2 -1 41 -1 #SUP: 2
4392 -1 32 -1 1434 -1 76 -1 2 -1 #SUP: 2
4392 -1 32 -1 1434 -1 76 -1 41 -1 #SUP: 2
4392 -1 41 -1 32 -1 2 -1 41 -1 #SUP: 2
4392 -1 41 -1 32 -1 76 -1 2 -1 #SUP: 2
4392 -1 41 -1 32 -1 76 -1 41 -1 #SUP: 2
4392 -1 41 -1 32 -1 1434 -1 2 -1 #SUP: 2
4392 -1 41 -1 32 -1 1434 -1 41 -1 #SUP: 2
4392 -1 41 -1 32 -1 1434 -1 76 -1 #SUP: 2
4392 -1 41 -1 76 -1 2 -1 41 -1 #SUP: 2
4392 -1 41 -1 1434 -1 2 -1 41 -1 #SUP: 2
4392 -1 41 -1 1434 -1 76 -1 2 -1 #SUP: 2
4392 -1 41 -1 1434 -1 76 -1 41 -1 #SUP: 2
4392 -1 1434 -1 76 -1 2 -1 41 -1 #SUP: 2
5691 -1 1143 -1 10644 -1 5691 -1 4777 -1 #SUP: 2
5691 -1 10363 -1 1143 -1 5691 -1 4777 -1 #SUP: 2
5691 -1 10363 -1 1143 -1 10644 -1 4777 -1 #SUP: 2
5691 -1 10363 -1 1143 -1 10644 -1 5691 -1 #SUP: 2
5691 -1 10363 -1 10644 -1 5691 -1 4777 -1 #SUP: 2
10363 -1 1143 -1 5691 -1 4777 -1 484 -1 #SUP: 2
10363 -1 1143 -1 10644 -1 4777 -1 484 -1 #SUP: 2
10363 -1 1143 -1 10644 -1 5691 -1 484 -1 #SUP: 2
10363 -1 1143 -1 10644 -1 5691 -1 4777 -1 #SUP: 2
10363 -1 10644 -1 5691 -1 4777 -1 484 -1 #SUP: 2
3 -1 32 -1 1434 -1 76 -1 2 -1 41 -1 #SUP: 2
3 -1 41 -1 32 -1 76 -1 2 -1 41 -1 #SUP: 2
3 -1 41 -1 32 -1 1434 -1 2 -1 41 -1 #SUP: 2
3 -1 41 -1 32 -1 1434 -1 76 -1 2 -1 #SUP: 2
3 -1 41 -1 32 -1 1434 -1 76 -1 41 -1 #SUP: 2
3 -1 41 -1 1434 -1 76 -1 2 -1 41 -1 #SUP: 2
3 -1 4392 -1 32 -1 76 -1 2 -1 41 -1 #SUP: 2
3 -1 4392 -1 32 -1 1434 -1 2 -1 41 -1 #SUP: 2
3 -1 4392 -1 32 -1 1434 -1 76 -1 2 -1 #SUP: 2
3 -1 4392 -1 32 -1 1434 -1 76 -1 41 -1 #SUP: 2
3 -1 4392 -1 41 -1 32 -1 2 -1 41 -1 #SUP: 2
3 -1 4392 -1 41 -1 32 -1 76 -1 2 -1 #SUP: 2
3 -1 4392 -1 41 -1 32 -1 76 -1 41 -1 #SUP: 2
3 -1 4392 -1 41 -1 32 -1 1434 -1 2 -1 #SUP: 2
3 -1 4392 -1 41 -1 32 -1 1434 -1 41 -1 #SUP: 2
3 -1 4392 -1 41 -1 32 -1 1434 -1 76 -1 #SUP: 2
3 -1 4392 -1 41 -1 76 -1 2 -1 41 -1 #SUP: 2
3 -1 4392 -1 41 -1 1434 -1 2 -1 41 -1 #SUP: 2
3 -1 4392 -1 41 -1 1434 -1 76 -1 2 -1 #SUP: 2
3 -1 4392 -1 41 -1 1434 -1 76 -1 41 -1 #SUP: 2
3 -1 4392 -1 1434 -1 76 -1 2 -1 41 -1 #SUP: 2
32 -1 76 -1 2 -1 41 -1 1434 -1 244 -1 #SUP: 2
32 -1 1434 -1 2 -1 41 -1 1434 -1 244 -1 #SUP: 2
32 -1 1434 -1 76 -1 2 -1 41 -1 244 -1 #SUP: 2
32 -1 1434 -1 76 -1 2 -1 41 -1 1434 -1 #SUP: 2
32 -1 1434 -1 76 -1 2 -1 1434 -1 244 -1 #SUP: 2
32 -1 1434 -1 76 -1 41 -1 1434 -1 244 -1 #SUP: 2
41 -1 32 -1 76 -1 2 -1 41 -1 1434 -1 #SUP: 2
41 -1 32 -1 1434 -1 2 -1 41 -1 1434 -1 #SUP: 2
41 -1 32 -1 1434 -1 76 -1 2 -1 41 -1 #SUP: 2
41 -1 32 -1 1434 -1 76 -1 2 -1 1434 -1 #SUP: 2
41 -1 32 -1 1434 -1 76 -1 41 -1 1434 -1 #SUP: 2
41 -1 1434 -1 76 -1 2 -1 41 -1 1434 -1 #SUP: 2
76 -1 113 -1 161 -1 860 -1 192 -1 65 -1 #SUP: 2
113 -1 161 -1 192 -1 65 -1 135 -1 64 -1 #SUP: 2
113 -1 161 -1 192 -1 65 -1 135 -1 81 -1 #SUP: 2
113 -1 161 -1 860 -1 65 -1 135 -1 64 -1 #SUP: 2
113 -1 161 -1 860 -1 65 -1 135 -1 81 -1 #SUP: 2
113 -1 161 -1 860 -1 192 -1 65 -1 64 -1 #SUP: 2
113 -1 161 -1 860 -1 192 -1 65 -1 81 -1 #SUP: 2
113 -1 161 -1 860 -1 192 -1 65 -1 135 -1 #SUP: 2
113 -1 161 -1 860 -1 192 -1 135 -1 64 -1 #SUP: 2
113 -1 161 -1 860 -1 192 -1 135 -1 81 -1 #SUP: 2
113 -1 326 -1 131 -1 3 -1 463 -1 64 -1 #SUP: 2
113 -1 860 -1 192 -1 65 -1 135 -1 64 -1 #SUP: 2
113 -1 860 -1 192 -1 65 -1 135 -1 81 -1 #SUP: 2
141 -1 3 -1 32 -1 1434 -1 76 -1 2 -1 #SUP: 2
141 -1 3 -1 41 -1 32 -1 76 -1 2 -1 #SUP: 2
141 -1 3 -1 41 -1 32 -1 1434 -1 2 -1 #SUP: 2
141 -1 3 -1 41 -1 32 -1 1434 -1 76 -1 #SUP: 2
141 -1 3 -1 41 -1 1434 -1 76 -1 2 -1 #SUP: 2
141 -1 3 -1 4392 -1 32 -1 76 -1 2 -1 #SUP: 2
141 -1 3 -1 4392 -1 32 -1 1434 -1 2 -1 #SUP: 2
141 -1 3 -1 4392 -1 32 -1 1434 -1 76 -1 #SUP: 2
141 -1 3 -1 4392 -1 41 -1 32 -1 2 -1 #SUP: 2
141 -1 3 -1 4392 -1 41 -1 32 -1 76 -1 #SUP: 2
141 -1 3 -1 4392 -1 41 -1 32 -1 1434 -1 #SUP: 2
141 -1 3 -1 4392 -1 41 -1 76 -1 2 -1 #SUP: 2
141 -1 3 -1 4392 -1 41 -1 1434 -1 2 -1 #SUP: 2
141 -1 3 -1 4392 -1 41 -1 1434 -1 76 -1 #SUP: 2
141 -1 3 -1 4392 -1 1434 -1 76 -1 2 -1 #SUP: 2
141 -1 41 -1 32 -1 1434 -1 76 -1 2 -1 #SUP: 2
141 -1 4392 -1 32 -1 1434 -1 76 -1 2 -1 #SUP: 2
141 -1 4392 -1 41 -1 32 -1 76 -1 2 -1 #SUP: 2
141 -1 4392 -1 41 -1 32 -1 1434 -1 2 -1 #SUP: 2
141 -1 4392 -1 41 -1 32 -1 1434 -1 76 -1 #SUP: 2
141 -1 4392 -1 41 -1 1434 -1 76 -1 2 -1 #SUP: 2
161 -1 860 -1 192 -1 65 -1 135 -1 64 -1 #SUP: 2
161 -1 860 -1 192 -1 65 -1 135 -1 81 -1 #SUP: 2
224 -1 113 -1 131 -1 3 -1 463 -1 64 -1 #SUP: 2
224 -1 113 -1 326 -1 3 -1 463 -1 64 -1 #SUP: 2
224 -1 113 -1 326 -1 131 -1 3 -1 64 -1 #SUP: 2
224 -1 113 -1 326 -1 131 -1 3 -1 463 -1 #SUP: 2
224 -1 113 -1 326 -1 131 -1 463 -1 64 -1 #SUP: 2
224 -1 326 -1 131 -1 3 -1 463 -1 64 -1 #SUP: 2
1434 -1 76 -1 2 -1 41 -1 1434 -1 244 -1 #SUP: 2
4392 -1 32 -1 1434 -1 76 -1 2 -1 41 -1 #SUP: 2
4392 -1 41 -1 32 -1 76 -1 2 -1 41 -1 #SUP: 2
4392 -1 41 -1 32 -1 1434 -1 2 -1 41 -1 #SUP: 2
4392 -1 41 -1 32 -1 1434 -1 76 -1 2 -1 #SUP: 2
4392 -1 41 -1 32 -1 1434 -1 76 -1 41 -1 #SUP: 2
4392 -1 41 -1 1434 -1 76 -1 2 -1 41 -1 #SUP: 2
5691 -1 10363 -1 1143 -1 10644 -1 5691 -1 4777 -1 #SUP: 2
10363 -1 1143 -1 10644 -1 5691 -1 4777 -1 484 -1 #SUP: 2
3 -1 41 -1 32 -1 1434 -1 76 -1 2 -1 41 -1 #SUP: 2
3 -1 4392 -1 32 -1 1434 -1 76 -1 2 -1 41 -1 #SUP: 2
3 -1 4392 -1 41 -1 32 -1 76 -1 2 -1 41 -1 #SUP: 2
3 -1 4392 -1 41 -1 32 -1 1434 -1 2 -1 41 -1 #SUP: 2
3 -1 4392 -1 41 -1 32 -1 1434 -1 76 -1 2 -1 #SUP: 2
3 -1 4392 -1 41 -1 32 -1 1434 -1 76 -1 41 -1 #SUP: 2
3 -1 4392 -1 41 -1 1434 -1 76 -1 2 -1 41 -1 #SUP: 2
32 -1 1434 -1 76 -1 2 -1 41 -1 1434 -1 244 -1 #SUP: 2
41 -1 32 -1 1434 -1 76 -1 2 -1 41 -1 1434 -1 #SUP: 2
113 -1 161 -1 860 -1 192 -1 65 -1 135 -1 64 -1 #SUP: 2
113 -1 161 -1 860 -1 192 -1 65 -1 135 -1 81 -1 #SUP: 2
141 -1 3 -1 41 -1 32 -1 1434 -1 76 -1 2 -1 #SUP: 2
141 -1 3 -1 4392 -1 32 -1 1434 -1 76 -1 2 -1 #SUP: 2
141 -1 3 -1 4392 -1 41 -1 32 -1 76 -1 2 -1 #SUP: 2
141 -1 3 -1 4392 -1 41 -1 32 -1 1434 -1 2 -1 #SUP: 2
141 -1 3 -1 4392 -1 41 -1 32 -1 1434 -1 76 -1 #SUP: 2
141 -1 3 -1 4392 -1 41 -1 1434 -1 76 -1 2 -1 #SUP: 2
141 -1 4392 -1 41 -1 32 -1 1434 -1 76 -1 2 -1 #SUP: 2
224 -1 113 -1 326 -1 131 -1 3 -1 463 -1 64 -1 #SUP: 2
4392 -1 41 -1 32 -1 1434 -1 76 -1 2 -1 41 -1 #SUP: 2
3 -1 4392 -1 41 -1 32 -1 1434 -1 76 -1 2 -1 41 -1 #SUP: 2
141 -1 3 -1 4392 -1 41 -1 32 -1 1434 -1 76 -1 2 -1 #SUP: 2
