273 -1 141 -1 1009 -1 1523 -1 64 -1 27 -1 39 -1 3 -1 1406 -1 77 -1 3938 -1 1 -2
214 -1 165 -1 3591 -1 173 -1 64 -1 1181 -1 1 -2
113 -1 2050 -1 7 -1 5535 -1 2 -1 20855 -1 144 -1 469 -1 22 -1 1433 -1 339 -1 2 -1 469 -1 641 -1 65 -1 614 -1 791 -1 30 -2
2022 -1 1101 -1 76 -1 113 -1 141 -1 7 -1 65 -1 1603 -1 773 -1 182 -1 3 -1 1151 -1 22 -1 1042 -1 75 -1 54 -1 30 -2
484 -1 113 -1 141 -1 1645 -1 469 -1 242 -1 113 -1 598 -1 156 -1 64 -1 8297 -1 586 -1 469 -1 10 -1 772 -1 469 -1 3 -1 10 -1 65 -1 3347 -1 76 -1 2 -1 41 -1 3 -1 296 -1 32 -1 765 -1 41 -1 30 -2
615 -1 113 -1 194 -1 113 -1 214 -1 30 -2
2 -1 113 -1 194 -1 182 -1 836 -1 3 -1 163 -1 64 -1 1473 -1 182 -1 154 -1 64 -1 7523 -1 2 -1 2902 -1 22 -1 891 -1 224 -1 469 -1 1225 -1 64 -1 694 -1 154 -1 1 -2
182 -1 3 -1 363 -1 32 -1 16 -1 1511 -1 2513 -1 151 -1 190 -1 3 -1 527 -1 3194 -1 115 -1 66 -1 76 -1 113 -1 124 -1 469 -1 836 -1 30 -2
7780 -1 1747 -1 25645 -1 161 -1 3 -1 932 -1 805 -1 30 -2
871 -1 76 -1 587 -1 151 -1 113 -1 1640 -1 113 -1 1618 -1 469 -1 64 -1 115 -1 121 -1 3194 -1 113 -1 2922 -1 22 -1 12719 -1 2369 -1 76 -1 557 -1 190 -1 3 -1 282 -1 115 -1 66 -1 30 -2
342 -1 474 -1 1503 -1 64 -1 30 -2
3466 -1 113 -1 118 -1 194 -1 113 -1 7 -1 22 -1 4745 -1 64 -1 636 -1 469 -1 1308 -1 76 -1 113 -1 493 -1 2348 -1 224 -1 3749 -1 5738 -1 182 -1 502 -1 30 -2
499 -1 66 -1 76 -1 118 -1 1297 -1 156 -1 64 -1 3 -1 10 -1 4809 -1 15 -1 32 -1 22 -1 75 -1 1 -2
1679 -1 30 -2
484 -1 41 -1 363 -1 32 -1 326 -1 30 -2
224 -1 195 -1 200 -1 2243 -1 7076 -1 154 -1 160 -1 250 -1 511 -1 30 -2
1678 -1 78 -1 187 -1 224 -1 113 -1 2050 -1 7 -1 504 -1 264 -1 1433 -1 76 -1 2 -1 224 -1 113 -1 141 -1 76 -1 602 -1 3 -1 151 -1 30 -2
9313 -1 271 -2
11 -1 604 -1 15 -1 1009 -1 76 -1 11 -1 76 -1 827 -1 121 -1 1668 -1 76 -1 5 -1 76 -1 1057 -1 4755 -1 69 -1 406 -1 813 -1 10589 -1 151 -1 113 -1 161 -1 141 -1 264 -1 484 -1 3205 -1 677 -1 273 -1 141 -1 182 -1 401 -1 160 -1 22 -1 297 -1 32 -1 41 -1 224 -1 41 -1 118 -1 783 -1 113 -1 1193 -1 1 -2
1101 -1 113 -1 1225 -1 76 -1 224 -1 469 -1 3 -1 185 -1 1596 -1 113 -1 194 -1 182 -1 30 -2
747 -1 41 -1 31 -1 22 -1 363 -1 895 -1 1175 -1 424 -1 871 -1 76 -1 417 -1 141 -1 7 -1 1068 -1 1186 -1 33 -1 2947 -1 268 -1 76 -1 566 -1 1366 -1 1559 -1 2 -1 1400 -1 30 -2
49 -1 886 -1 469 -1 3 -1 636 -1 113 -1 278 -1 47 -1 5348 -1 352 -1 641 -1 3026 -1 64 -1 7486 -1 2518 -1 566 -1 30 -2
14950 -1 181 -1 30 -2
342 -1 200 -1 463 -1 64 -1 463 -1 160 -1 22 -1 5269 -1 31 -1 179 -1 2 -1 308 -1 273 -1 54 -1 611 -1 30 -2
747 -1 31 -1 29 -1 1911 -1 76 -1 364 -1 36487 -1 271 -2
1679 -1 22 -1 49 -1 269 -1 30 -2
615 -1 30 -2
469 -1 141 -1 356 -1 113 -1 64 -1 22 -1 12719 -1 49 -1 2880 -1 158 -1 113 -1 3 -1 463 -1 500 -1 64 -1 50 -1 10106 -1 469 -1 7 -1 64 -1 730 -1 154 -1 115 -1 307 -1 1190 -1 33 -1 65 -1 692 -1 44 -1 158 -1 469 -1 1487 -1 730 -1 154 -1 115 -1 545 -1 724 -1 76 -1 3 -1 250 -1 30 -2
273 -1 3785 -1 1573 -1 141 -1 312 -1 1009 -1 2716 -1 1487 -1 510 -1 65 -1 127 -1 33 -1 65 -1 604 -1 393 -1 1282 -1 10 -1 1 -2
113 -1 326 -1 182 -1 2126 -1 244 -1 165 -1 64 -1 1050 -1 76 -1 557 -1 3 -1 182 -1 463 -1 64 -1 3 -1 340 -1 1191 -1 1687 -1 3097 -1 149 -1 8728 -1 30 -1 1 -2
342 -1 904 -1 30 -2
7861 -1 30 -2
484 -1 676 -1 30 -2
509 -1 30 -2
860 -1 16 -1 557 -1 3126 -1 33 -1 50 -1 7193 -1 32 -1 1363 -1 7219 -1 76 -1 3172 -1 3 -1 22 -1 4857 -1 5113 -1 153 -1 204 -1 22 -1 68882 -1 945 -1 68880 -1 38879 -1 68881 -1 3 -1 16 -1 3172 -1 30 -2
644 -1 4184 -1 3 -1 383 -1 32 -1 3235 -1 154 -1 30 -2
11 -1 76 -1 8662 -1 50482 -1 40108 -1 16725 -1 53849 -1 12083 -1 4954 -1 1135 -1 12083 -1 4954 -1 7910 -1 50482 -1 3203 -1 6110 -1 1880 -1 32 -1 4932 -1 68883 -1 6646 -1 11204 -1 68884 -1 13303 -1 484 -1 3034 -1 30 -2
509 -1 30 -2
659 -1 41 -1 3848 -1 22 -1 19554 -1 30 -2
3711 -1 3719 -1 113 -1 3 -1 1153 -1 1045 -1 31 -1 635 -1 179 -1 271 -2
123 -1 548 -1 256 -1 154 -1 1946 -1 1838 -1 68885 -1 2 -1 256 -1 635 -1 30 -2
509 -1 30 -2
113 -1 388 -1 161 -1 571 -1 65 -1 20719 -1 47366 -1 271 -2
65 -1 68886 -1 161 -1 3 -1 600 -1 712 -1 185 -1 30 -2
2 -1 65 -1 8864 -1 68887 -1 30 -2
2 -1 113 -1 4217 -1 463 -1 500 -1 64 -1 50 -1 5162 -1 207 -1 418 -1 113 -1 304 -1 66 -1 405 -1 2 -1 148 -1 30 -2
7 -1 65 -1 9151 -1 676 -1 2519 -1 1111 -1 864 -1 32 -1 863 -1 2 -1 339 -1 151 -1 1170 -1 72 -1 4351 -1 137 -1 644 -1 304 -1 363 -1 5113 -1 2 -1 2635 -1 76 -1 527 -1 21989 -1 1418 -1 7971 -1 2 -1 213 -1 352 -1 7446 -1 151 -1 30 -2
113 -1 194 -1 182 -1 248 -1 1016 -1 33 -1 22 -1 348 -1 76 -1 557 -1 3126 -1 33 -1 22 -1 3172 -1 113 -1 326 -1 2888 -1 30 -2
860 -1 216 -1 30 -2
557 -1 232 -1 376 -1 76 -1 250 -1 3 -1 242 -1 375 -1 2222 -1 64 -1 308 -1 469 -1 715 -1 47 -1 181 -1 1936 -1 47 -1 2085 -1 10 -1 3337 -1 32 -1 30 -2
1101 -1 76 -1 469 -1 141 -1 510 -1 65 -1 1640 -1 30 -2
236 -1 296 -1 10 -1 151 -1 69 -1 16 -1 264 -1 64 -1 3 -1 2866 -1 278 -1 2 -1 151 -1 182 -1 3 -1 65 -1 3480 -1 1640 -1 33 -1 47 -1 247 -1 30 -2
557 -1 69 -1 22 -1 908 -1 151 -1 510 -1 113 -1 786 -1 2588 -1 77 -1 364 -1 77 -1 113 -1 3 -1 30 -2
224 -1 342 -1 248 -1 151 -1 2493 -1 2 -1 2711 -1 76 -1 16 -1 200 -1 77 -1 1406 -1 137 -1 201 -1 76 -1 557 -1 248 -1 789 -1 151 -1 394 -1 30 -2
6623 -1 24548 -1 1490 -1 10 -1 2313 -1 30 -2
3038 -1 76 -1 557 -1 76 -1 1396 -1 30 -2
1101 -1 76 -1 375 -1 62 -1 22 -1 2283 -1 3 -1 65 -1 1056 -1 703 -1 31 -1 250 -1 383 -1 32 -1 902 -1 244 -1 65 -1 522 -1 32 -1 50 -1 46 -1 185 -1 30 -2
16 -1 248 -1 244 -1 213 -1 364 -1 373 -1 150 -1 113 -1 497 -1 10 -1 250 -1 772 -1 342 -1 1173 -1 64 -1 50 -1 30 -2
1678 -1 659 -1 273 -1 165 -1 208 -1 2375 -1 160 -1 312 -1 14780 -1 76 -1 45812 -1 2 -1 923 -1 33570 -1 66 -1 10 -1 47 -1 436 -1 115 -1 22 -1 129 -1 75 -1 30 -2
509 -1 30 -2
2375 -1 225 -1 9404 -1 3 -1 453 -1 1853 -1 8577 -1 150 -1 2375 -1 225 -1 65 -1 26548 -1 149 -1 30 -2
113 -1 3 -1 10 -1 699 -1 32 -1 2821 -1 703 -1 76 -1 2716 -1 3681 -1 76 -1 484 -1 2648 -1 5076 -1 113 -1 224 -1 41 -1 161 -1 30 -2
113 -1 872 -1 153 -1 65 -1 566 -1 52 -1 1838 -1 557 -1 182 -1 711 -1 52 -1 2 -1 179 -1 69 -1 463 -1 30 -2
2970 -1 30 -2
548 -1 200 -1 81 -1 64 -1 28527 -1 77 -1 30 -2
1679 -1 1101 -1 76 -1 22 -1 640 -1 72 -1 5655 -1 65 -1 614 -1 658 -1 31 -1 113 -1 30 -2
113 -1 453 -1 340 -1 469 -1 4564 -1 22 -1 5057 -1 30 -2
113 -1 1225 -1 160 -1 22 -1 75 -1 2 -1 4074 -1 54 -1 76 -1 113 -1 194 -1 250 -1 3 -1 27 -1 113 -1 699 -1 76 -1 342 -1 16 -1 463 -1 64 -1 646 -1 187 -1 1831 -1 30 -2
224 -1 113 -1 308 -1 30 -2
28968 -1 42355 -1 30 -2
69 -1 3 -1 65 -1 566 -1 135 -1 30 -2
7215 -1 520 -1 600 -1 163 -1 185 -1 872 -1 30 -2
14922 -1 342 -1 7222 -1 557 -1 69 -1 4453 -1 1845 -1 30 -2
686 -1 50 -1 138 -1 143 -1 443 -1 211 -1 139 -1 500 -1 383 -1 32 -1 438 -1 30 -2
16 -1 1679 -1 438 -1 76 -1 557 -1 41 -1 326 -1 30 -2
2022 -1 872 -1 113 -1 118 -1 326 -1 224 -1 41 -1 326 -1 30 -2
892 -1 30 -2
277 -1 2941 -1 30 -2
1342 -1 4270 -1 30 -2
33 -1 714 -1 304 -1 30 -2
69 -1 200 -1 185 -1 163 -1 271 -2
368 -1 76 -1 113 -1 425 -1 151 -1 113 -1 3 -1 831 -1 30 -2
2 -1 81 -1 64 -1 1182 -1 22 -1 868 -1 151 -1 69 -1 1135 -1 64 -1 7 -1 405 -1 383 -1 32 -1 773 -1 30 -2
2970 -1 113 -1 1418 -1 273 -1 3561 -1 831 -1 113 -1 520 -1 76 -1 557 -1 234 -1 76 -1 65 -1 400 -1 6 -1 76 -1 484 -1 182 -1 3 -1 600 -1 30 -2
1679 -1 342 -1 745 -1 113 -1 1933 -1 41 -1 271 -2
22 -1 596 -1 4074 -1 54 -1 76 -1 417 -1 530 -1 7 -1 250 -1 54 -1 418 -1 417 -1 3082 -1 758 -1 186 -1 115 -1 65 -1 1124 -1 1935 -1 549 -1 4699 -1 30 -2
557 -1 1101 -1 76 -1 417 -1 141 -1 7 -1 599 -1 70 -1 158 -1 417 -1 30 -2
113 -1 2726 -1 250 -1 39 -1 3 -1 340 -1 50 -1 502 -1 441 -1 610 -1 76 -1 424 -1 686 -1 342 -1 786 -1 3926 -1 30 -2
81 -1 64 -1 1467 -1 182 -1 463 -1 2140 -1 30 -2
3096 -1 15 -1 201 -1 604 -1 113 -1 1640 -1 30 -2
483 -1 718 -1 213 -1 30 -2
718 -1 213 -1 1193 -1 718 -1 1459 -1 4640 -1 2998 -1 1287 -1 30 -2
213 -1 160 -1 527 -1 1276 -1 30 -2
213 -1 352 -1 3821 -1 6766 -1 158 -1 189 -1 929 -1 3 -1 384 -1 30 -2
4481 -1 154 -1 7949 -1 30 -2
1050 -1 2776 -1 30 -2
1050 -1 7168 -1 76 -1 53662 -1 123 -1 30 -2
499 -1 66 -1 76 -1 165 -1 208 -1 482 -1 7 -1 185 -1 266 -1 4512 -1 30 -2
483 -1 113 -1 194 -1 113 -1 118 -1 1269 -1 30 -2
149 -1 76 -1 118 -1 326 -1 273 -1 64 -1 76 -1 148 -1 340 -1 30 -2
557 -1 31 -1 635 -1 287 -1 30 -2
511 -1 151 -1 113 -1 118 -1 340 -1 10 -1 151 -1 394 -1 77 -1 10 -1 113 -1 308 -1 131 -1 169 -1 77 -1 5579 -1 46 -1 462 -1 194 -1 113 -1 340 -1 131 -1 30 -2
64 -1 256 -1 2545 -1 47 -1 878 -1 30 -2
64 -1 936 -1 469 -1 76 -1 308 -1 2 -1 62 -1 47 -1 454 -1 30 -2
64 -1 308 -1 273 -1 47 -1 454 -1 1181 -1 963 -1 30 -2
64 -1 403 -1 66 -1 22 -1 1986 -1 1271 -1 2 -1 1856 -1 131 -1 825 -1 3782 -1 30 -2
64 -1 256 -1 2545 -1 47 -1 542 -1 2 -1 30 -2
282 -1 2 -1 1017 -1 30 -2
1101 -1 600 -1 4500 -1 5885 -1 30 -2
179 -1 151 -1 113 -1 194 -1 500 -1 278 -1 1717 -1 113 -1 7 -1 50 -1 495 -1 636 -1 113 -1 54 -1 76 -1 113 -1 211 -1 1983 -1 158 -1 113 -1 946 -1 64 -1 2626 -1 1534 -1 264 -1 616 -1 408 -1 503 -1 30 -2
285 -1 113 -1 64 -1 672 -1 4745 -1 30 -2
273 -1 141 -1 29 -1 46 -1 1915 -1 4524 -1 1 -2
113 -1 124 -1 76 -1 27 -1 3 -1 484 -1 1459 -1 1 -2
342 -1 3299 -1 2756 -1 2 -1 234 -1 113 -1 1640 -1 151 -1 7395 -1 182 -1 30 -2
186 -1 504 -1 342 -1 11 -1 30 -2
5885 -1 30 -2
50 -1 490 -1 3 -1 1643 -1 406 -1 12998 -1 76 -1 484 -1 151 -1 214 -1 3 -1 33 -1 50 -1 64 -1 141 -1 640 -1 76 -1 611 -1 182 -1 30 -2
1119 -1 747 -1 31 -1 1315 -1 342 -1 16 -1 2493 -1 2 -1 2248 -1 271 -2
113 -1 491 -1 256 -1 151 -1 30 -2
509 -1 30 -2
557 -1 158 -1 113 -1 141 -1 927 -1 278 -1 213 -1 76 -1 182 -1 3 -1 2591 -1 76 -1 1472 -1 182 -1 141 -1 16 -1 139 -1 151 -1 408 -1 30 -2
113 -1 927 -1 278 -1 2558 -1 2 -1 576 -1 30 -2
509 -1 3007 -1 30 -2
234 -1 76 -1 710 -1 22 -1 502 -1 75 -1 375 -1 3 -1 636 -1 151 -1 5885 -1 27 -1 113 -1 124 -1 3 -1 76 -1 41 -1 7 -1 635 -1 383 -1 32 -1 1361 -1 2 -1 41 -1 5217 -1 182 -1 1077 -1 72 -1 64 -1 277 -1 182 -1 872 -1 503 -1 4124 -1 419 -1 30 -2
3937 -2
165 -1 44 -1 135 -1 113 -1 3 -1 501 -1 500 -1 244 -1 187 -1 32 -1 3378 -1 160 -1 50 -1 2695 -1 76 -1 113 -1 7 -1 30 -2
189 -1 64 -1 1099 -1 64 -1 30 -2
273 -1 718 -1 113 -1 3 -1 64 -1 445 -1 151 -1 1256 -1 30 -2
273 -1 718 -1 113 -1 3 -1 64 -1 2626 -1 50 -1 4745 -1 698 -1 30 -2
273 -1 718 -1 113 -1 3 -1 31 -1 16 -1 308 -1 469 -1 31 -1 3845 -1 469 -1 248 -1 76 -1 789 -1 3 -1 30 -2
273 -1 718 -1 113 -1 3 -1 30 -2
718 -1 271 -2
113 -1 1903 -1 64 -1 3 -1 169 -1 943 -1 32 -1 250 -1 1217 -1 7859 -1 30 -2
69 -1 32 -1 527 -1 155 -1 76 -1 113 -1 118 -1 221 -1 927 -1 278 -1 469 -1 30 -2
200 -1 50 -1 4707 -1 3 -1 7899 -1 113 -1 2726 -1 30 -2
273 -1 566 -1 182 -1 214 -1 356 -1 689 -1 69 -1 50 -1 634 -1 30 -2
273 -1 113 -1 194 -1 113 -1 598 -1 927 -1 1831 -1 557 -1 113 -1 453 -1 786 -1 7859 -1 2545 -1 30 -2
273 -1 113 -1 895 -1 113 -1 272 -1 1099 -1 64 -1 189 -1 2381 -1 3835 -1 64 -1 1198 -1 2 -1 3 -1 13889 -1 30 -2
242 -1 30 -2