2 -1 #SUP: 8
3 -1 #SUP: 13
7 -1 #SUP: 3
10 -1 #SUP: 6
16 -1 #SUP: 2
22 -1 #SUP: 7
29 -1 #SUP: 2
31 -1 #SUP: 2
32 -1 #SUP: 2
33 -1 #SUP: 2
39 -1 #SUP: 2
41 -1 #SUP: 9
46 -1 #SUP: 4
50 -1 #SUP: 11
64 -1 #SUP: 15
65 -1 #SUP: 8
69 -1 #SUP: 3
72 -1 #SUP: 2
76 -1 #SUP: 16
113 -1 #SUP: 25
115 -1 #SUP: 3
121 -1 #SUP: 3
131 -1 #SUP: 2
141 -1 #SUP: 2
151 -1 #SUP: 9
154 -1 #SUP: 2
158 -1 #SUP: 5
160 -1 #SUP: 2
168 -1 #SUP: 3
190 -1 #SUP: 2
200 -1 #SUP: 4
201 -1 #SUP: 2
208 -1 #SUP: 2
232 -1 #SUP: 4
308 -1 #SUP: 2
317 -1 #SUP: 3
342 -1 #SUP: 2
374 -1 #SUP: 2
408 -1 #SUP: 2
417 -1 #SUP: 5
418 -1 #SUP: 2
463 -1 #SUP: 2
497 -1 #SUP: 2
510 -1 #SUP: 3
557 -1 #SUP: 2
598 -1 #SUP: 2
604 -1 #SUP: 2
644 -1 #SUP: 2
702 -1 #SUP: 3
730 -1 #SUP: 2
747 -1 #SUP: 2
903 -1 #SUP: 4
1157 -1 #SUP: 2
1309 -1 #SUP: 2
1929 -1 #SUP: 2
2379 -1 #SUP: 2
2880 -1 #SUP: 2
6581 -1 #SUP: 2
8245 -1 #SUP: 2
134158 -1 #SUP: 2
2 -1 76 -1 #SUP: 2
3 -1 2 -1 #SUP: 3
3 -1 10 -1 #SUP: 3
3 -1 50 -1 #SUP: 3
3 -1 65 -1 #SUP: 2
3 -1 76 -1 #SUP: 3
10 -1 22 -1 #SUP: 2
10 -1 76 -1 #SUP: 2
16 -1 76 -1 #SUP: 2
22 -1 32 -1 #SUP: 2
29 -1 46 -1 #SUP: 2
31 -1 65 -1 #SUP: 2
31 -1 113 -1 #SUP: 2
39 -1 1157 -1 #SUP: 2
41 -1 3 -1 #SUP: 2
41 -1 64 -1 #SUP: 3
50 -1 2 -1 #SUP: 3
50 -1 3 -1 #SUP: 2
50 -1 64 -1 #SUP: 2
50 -1 76 -1 #SUP: 3
50 -1 903 -1 #SUP: 3
50 -1 6581 -1 #SUP: 2
64 -1 3 -1 #SUP: 3
64 -1 64 -1 #SUP: 3
64 -1 113 -1 #SUP: 2
64 -1 131 -1 #SUP: 2
65 -1 3 -1 #SUP: 2
65 -1 10 -1 #SUP: 3
65 -1 22 -1 #SUP: 3
65 -1 113 -1 #SUP: 3
69 -1 64 -1 #SUP: 2
76 -1 2 -1 #SUP: 3
76 -1 22 -1 #SUP: 2
76 -1 41 -1 #SUP: 2
76 -1 50 -1 #SUP: 2
76 -1 64 -1 #SUP: 2
76 -1 76 -1 #SUP: 3
76 -1 417 -1 #SUP: 2
76 -1 1929 -1 #SUP: 2
113 -1 2 -1 #SUP: 3
113 -1 3 -1 #SUP: 6
113 -1 10 -1 #SUP: 2
113 -1 22 -1 #SUP: 3
113 -1 33 -1 #SUP: 2
113 -1 64 -1 #SUP: 5
113 -1 65 -1 #SUP: 8
113 -1 76 -1 #SUP: 2
113 -1 113 -1 #SUP: 3
113 -1 151 -1 #SUP: 3
113 -1 308 -1 #SUP: 2
113 -1 408 -1 #SUP: 2
113 -1 463 -1 #SUP: 2
113 -1 598 -1 #SUP: 2
113 -1 2880 -1 #SUP: 2
115 -1 121 -1 #SUP: 2
141 -1 41 -1 #SUP: 2
151 -1 3 -1 #SUP: 2
151 -1 65 -1 #SUP: 2
151 -1 113 -1 #SUP: 2
151 -1 151 -1 #SUP: 2
151 -1 8245 -1 #SUP: 2
158 -1 3 -1 #SUP: 2
158 -1 50 -1 #SUP: 2
158 -1 64 -1 #SUP: 2
158 -1 76 -1 #SUP: 4
158 -1 113 -1 #SUP: 2
158 -1 151 -1 #SUP: 2
160 -1 64 -1 #SUP: 2
168 -1 2 -1 #SUP: 2
190 -1 3 -1 #SUP: 2
200 -1 46 -1 #SUP: 2
200 -1 201 -1 #SUP: 2
201 -1 46 -1 #SUP: 2
232 -1 64 -1 #SUP: 3
232 -1 113 -1 #SUP: 2
317 -1 113 -1 #SUP: 2
317 -1 168 -1 #SUP: 2
417 -1 417 -1 #SUP: 2
418 -1 41 -1 #SUP: 2
463 -1 64 -1 #SUP: 2
557 -1 64 -1 #SUP: 2
557 -1 131 -1 #SUP: 2
702 -1 46 -1 #SUP: 3
702 -1 64 -1 #SUP: 2
702 -1 201 -1 #SUP: 2
730 -1 154 -1 #SUP: 2
747 -1 41 -1 #SUP: 2
903 -1 3 -1 #SUP: 2
903 -1 64 -1 #SUP: 2
6581 -1 2 -1 #SUP: 2
3 -1 65 -1 10 -1 #SUP: 2
3 -1 76 -1 2 -1 #SUP: 2
41 -1 64 -1 3 -1 #SUP: 2
50 -1 76 -1 76 -1 #SUP: 2
50 -1 6581 -1 2 -1 #SUP: 2
65 -1 10 -1 22 -1 #SUP: 2
76 -1 76 -1 2 -1 #SUP: 3
76 -1 76 -1 76 -1 #SUP: 3
113 -1 3 -1 2 -1 #SUP: 2
113 -1 3 -1 65 -1 #SUP: 2
113 -1 64 -1 64 -1 #SUP: 2
113 -1 65 -1 10 -1 #SUP: 2
113 -1 151 -1 3 -1 #SUP: 2
113 -1 151 -1 65 -1 #SUP: 2
113 -1 463 -1 64 -1 #SUP: 2
158 -1 3 -1 50 -1 #SUP: 2
158 -1 3 -1 76 -1 #SUP: 2
200 -1 201 -1 46 -1 #SUP: 2
232 -1 113 -1 64 -1 #SUP: 2
557 -1 64 -1 131 -1 #SUP: 2
702 -1 201 -1 46 -1 #SUP: 2
903 -1 64 -1 3 -1 #SUP: 2
76 -1 76 -1 76 -1 2 -1 #SUP: 2
76 -1 76 -1 76 -1 76 -1 #SUP: 2
