0 -1 #SUP: 4
2 -1 #SUP: 4
5 -1 #SUP: 4
31 -1 #SUP: 2
38 -1 #SUP: 3
55 -1 #SUP: 4
76 -1 #SUP: 2
80 -1 #SUP: 2
85 -1 #SUP: 2
87 -1 #SUP: 2
88 -1 #SUP: 8
92 -1 #SUP: 2
95 -1 #SUP: 2
102 -1 #SUP: 2
109 -1 #SUP: 3
118 -1 #SUP: 3
125 -1 #SUP: 4
135 -1 #SUP: 5
155 -1 #SUP: 2
169 -1 #SUP: 3
176 -1 #SUP: 4
187 -1 #SUP: 5
190 -1 #SUP: 5
248 -1 #SUP: 2
291 -1 #SUP: 2
292 -1 #SUP: 2
306 -1 #SUP: 2
322 -1 #SUP: 2
369 -1 #SUP: 2
406 -1 #SUP: 2
417 -1 #SUP: 7
500 -1 #SUP: 2
595 -1 #SUP: 3
600 -1 #SUP: 2
614 -1 #SUP: 2
805 -1 #SUP: 2
810 -1 #SUP: 2
839 -1 #SUP: 2
1005 -1 #SUP: 5
1006 -1 #SUP: 3
1061 -1 #SUP: 3
1097 -1 #SUP: 3
1257 -1 #SUP: 2
1529 -1 #SUP: 2
1826 -1 #SUP: 4
1989 -1 #SUP: 2
2051 -1 #SUP: 2
2295 -1 #SUP: 2
2454 -1 #SUP: 2
2457 -1 #SUP: 3
2693 -1 #SUP: 2
3298 -1 #SUP: 2
3980 -1 #SUP: 2
4217 -1 #SUP: 4
4225 -1 #SUP: 2
4247 -1 #SUP: 2
0 -1 306 -1 #SUP: 2
2 -1 4217 -1 #SUP: 4
76 -1 0 -1 #SUP: 2
88 -1 4247 -1 #SUP: 2
92 -1 2 -1 #SUP: 2
92 -1 4217 -1 #SUP: 2
109 -1 0 -1 #SUP: 2
109 -1 306 -1 #SUP: 2
169 -1 5 -1 #SUP: 2
176 -1 85 -1 #SUP: 2
190 -1 1061 -1 #SUP: 2
248 -1 614 -1 #SUP: 2
369 -1 2693 -1 #SUP: 2
417 -1 406 -1 #SUP: 2
417 -1 417 -1 #SUP: 2
1006 -1 1005 -1 #SUP: 2
1826 -1 1005 -1 #SUP: 3
1826 -1 1006 -1 #SUP: 2
2051 -1 2454 -1 #SUP: 2
4225 -1 417 -1 #SUP: 2
92 -1 2 -1 4217 -1 #SUP: 2
109 -1 0 -1 306 -1 #SUP: 2
