0 -1 #SUP: 16
8 -1 #SUP: 2
10 -1 #SUP: 9
40 -1 #SUP: 3
45 -1 #SUP: 3
49 -1 #SUP: 2
50 -1 #SUP: 2
55 -1 #SUP: 6
58 -1 #SUP: 5
70 -1 #SUP: 4
72 -1 #SUP: 3
73 -1 #SUP: 9
77 -1 #SUP: 4
109 -1 #SUP: 5
120 -1 #SUP: 2
125 -1 #SUP: 3
135 -1 #SUP: 3
201 -1 #SUP: 2
216 -1 #SUP: 2
217 -1 #SUP: 3
233 -1 #SUP: 5
234 -1 #SUP: 2
248 -1 #SUP: 2
251 -1 #SUP: 2
262 -1 #SUP: 3
271 -1 #SUP: 2
302 -1 #SUP: 2
327 -1 #SUP: 2
431 -1 #SUP: 7
499 -1 #SUP: 2
500 -1 #SUP: 3
502 -1 #SUP: 2
541 -1 #SUP: 2
699 -1 #SUP: 3
750 -1 #SUP: 2
843 -1 #SUP: 2
849 -1 #SUP: 2
857 -1 #SUP: 2
1023 -1 #SUP: 2
1061 -1 #SUP: 3
1258 -1 #SUP: 2
1389 -1 #SUP: 2
1486 -1 #SUP: 2
2114 -1 #SUP: 2
2137 -1 #SUP: 2
2370 -1 #SUP: 2
3195 -1 #SUP: 2
3196 -1 #SUP: 2
3203 -1 #SUP: 2
3204 -1 #SUP: 2
3215 -1 #SUP: 2
3217 -1 #SUP: 2
3218 -1 #SUP: 4
0 -1 0 -1 #SUP: 3
0 -1 10 -1 #SUP: 3
0 -1 45 -1 #SUP: 2
0 -1 73 -1 #SUP: 3
0 -1 135 -1 #SUP: 2
10 -1 0 -1 #SUP: 2
10 -1 248 -1 #SUP: 2
45 -1 0 -1 #SUP: 2
50 -1 0 -1 #SUP: 2
55 -1 58 -1 #SUP: 3
73 -1 201 -1 #SUP: 2
73 -1 500 -1 #SUP: 2
73 -1 750 -1 #SUP: 2
109 -1 0 -1 #SUP: 2
109 -1 73 -1 #SUP: 2
327 -1 251 -1 #SUP: 2
499 -1 0 -1 #SUP: 2
843 -1 0 -1 #SUP: 2
843 -1 45 -1 #SUP: 2
849 -1 73 -1 #SUP: 2
849 -1 201 -1 #SUP: 2
2370 -1 500 -1 #SUP: 2
3195 -1 750 -1 #SUP: 2
3196 -1 750 -1 #SUP: 2
3196 -1 3195 -1 #SUP: 2
3215 -1 3217 -1 #SUP: 2
3217 -1 0 -1 #SUP: 2
3218 -1 0 -1 #SUP: 3
3218 -1 45 -1 #SUP: 2
0 -1 0 -1 0 -1 #SUP: 2
109 -1 0 -1 73 -1 #SUP: 2
849 -1 73 -1 201 -1 #SUP: 2
3196 -1 3195 -1 750 -1 #SUP: 2
