0 -1 #SUP: 6
5 -1 #SUP: 2
10 -1 #SUP: 8
13 -1 #SUP: 2
20 -1 #SUP: 2
38 -1 #SUP: 4
55 -1 #SUP: 6
58 -1 #SUP: 4
73 -1 #SUP: 7
76 -1 #SUP: 3
80 -1 #SUP: 3
85 -1 #SUP: 2
86 -1 #SUP: 2
90 -1 #SUP: 2
92 -1 #SUP: 3
102 -1 #SUP: 3
109 -1 #SUP: 10
125 -1 #SUP: 2
135 -1 #SUP: 4
155 -1 #SUP: 5
187 -1 #SUP: 2
191 -1 #SUP: 2
216 -1 #SUP: 2
224 -1 #SUP: 2
234 -1 #SUP: 4
262 -1 #SUP: 2
274 -1 #SUP: 4
329 -1 #SUP: 4
351 -1 #SUP: 2
654 -1 #SUP: 3
745 -1 #SUP: 2
849 -1 #SUP: 4
857 -1 #SUP: 2
945 -1 #SUP: 3
1061 -1 #SUP: 4
1206 -1 #SUP: 3
1486 -1 #SUP: 4
1589 -1 #SUP: 2
2281 -1 #SUP: 3
2786 -1 #SUP: 2
6060 -1 #SUP: 2
8814 -1 #SUP: 2
0 -1 109 -1 #SUP: 2
55 -1 38 -1 #SUP: 2
55 -1 92 -1 #SUP: 3
55 -1 102 -1 #SUP: 2
55 -1 109 -1 #SUP: 2
73 -1 55 -1 #SUP: 2
102 -1 38 -1 #SUP: 2
109 -1 20 -1 #SUP: 2
109 -1 55 -1 #SUP: 2
109 -1 73 -1 #SUP: 4
135 -1 155 -1 #SUP: 2
155 -1 654 -1 #SUP: 2
187 -1 73 -1 #SUP: 2
234 -1 125 -1 #SUP: 2
234 -1 1589 -1 #SUP: 2
274 -1 55 -1 #SUP: 2
274 -1 73 -1 #SUP: 2
274 -1 92 -1 #SUP: 2
274 -1 109 -1 #SUP: 2
329 -1 5 -1 #SUP: 2
329 -1 135 -1 #SUP: 2
329 -1 155 -1 #SUP: 2
1486 -1 2281 -1 #SUP: 2
55 -1 102 -1 38 -1 #SUP: 2
109 -1 73 -1 55 -1 #SUP: 2
274 -1 55 -1 92 -1 #SUP: 2
274 -1 73 -1 55 -1 #SUP: 2
274 -1 109 -1 55 -1 #SUP: 2
274 -1 109 -1 73 -1 #SUP: 2
329 -1 135 -1 155 -1 #SUP: 2
274 -1 109 -1 73 -1 55 -1 #SUP: 2
