561 -1 1 -2
21022 -1 1337 -1 108 -1 1 -2
221 -1 0 -1 108 -1 141 -1 1 -2
120 -1 162 -1 1 -2
92 -1 515 -1 1 -2
329 -1 135 -1 73 -1 579 -1 1638 -1 125 -1 162 -1 1231 -1 1 -2
233 -1 8004 -1 8005 -1 2685 -1 5 -1 1 -2
73 -1 2174 -1 1 -2
1 -2
217 -1 73 -1 2169 -1 9315 -1 1 -2
2488 -1 32 -1 1778 -1 1 -2
1243 -1 0 -1 73 -1 717 -1 14 -1 7670 -1 1 -2
1533 -1 2700 -1 361 -1 1060 -1 105 -1 291 -1 0 -1 19667 -1 4416 -1 116 -1 212 -1 1 -2
233 -1 31 -1 510 -1 1 -2
857 -1 0 -1 10 -1 1844 -1 1 -2
10 -1 77 -1 994 -1 71 -1 67 -1 1 -2
2392 -1 857 -1 155 -1 21023 -1 600 -1 50 -1 0 -1 10 -1 30 -1 2251 -1 21024 -1 1 -2
306 -1 1 -2
306 -1 275 -1 1 -2
272 -1 6745 -1 6502 -1 2972 -1 1 -2
224 -1 0 -1 73 -1 1 -2
1 -2
55 -1 1389 -1 71 -1 1 -2
10 -1 579 -1 3134 -1 0 -1 77 -1 349 -1 1 -2
21025 -1 1 -2
55 -1 277 -1 0 -1 55 -1 685 -1 10765 -1 0 -1 2700 -1 2799 -1 660 -1 1 -2
77 -1 155 -1 3134 -1 13 -1 0 -1 1432 -1 1 -2
1253 -1 0 -1 1 -2
10 -1 597 -1 0 -1 152 -1 50 -1 1 -2
1747 -1 5 -1 329 -1 21026 -1 1533 -1 1 -2
10 -1 2426 -1 4818 -1 1 -2
73 -1 974 -1 21027 -1 12757 -1 5 -1 1 -2
521 -1 1 -2
1598 -1 1385 -1 12757 -1 1 -2
1550 -1 1 -2
5 -1 1 -2
3619 -1 1 -2
205 -1 3323 -1 1 -2
135 -1 13 -1 2923 -1 3972 -1 1 -2
306 -1 1 -2
850 -1 6427 -1 1 -2
135 -1 723 -1 34 -1 1 -2
73 -1 30 -1 14738 -1 708 -1 50 -1 1 -2
76 -1 0 -1 1061 -1 1 -2
1206 -1 10 -1 3153 -1 1 -2
1061 -1 2751 -1 180 -1 21028 -1 1 -2
120 -1 708 -1 4421 -1 1 -2
1 -2
120 -1 723 -1 1 -2
982 -1 19218 -1 279 -1 4790 -1 6347 -1 1061 -1 3728 -1 10 -1 4790 -1 53 -1 261 -1 1 -2
8148 -1 5850 -1 1 -2
9219 -1 1 -2
723 -1 780 -1 8381 -1 2275 -1 33 -1 21029 -1 1 -2
896 -1 2580 -1 5338 -1 21031 -1 1043 -1 21030 -1 653 -1 1 -2
8381 -1 241 -1 193 -1 3308 -1 33 -1 10823 -1 18633 -1 708 -1 21032 -1 1 -2
306 -1 1 -2
10 -1 1790 -1 1 -2
1244 -1 4992 -1 1 -2
1744 -1 384 -1 1 -2
109 -1 10 -1 5547 -1 1790 -1 708 -1 262 -1 5338 -1 21030 -1 5199 -1 120 -1 1 -2
2598 -1 1 -2
31 -1 850 -1 6427 -1 1 -2
6324 -1 395 -1 510 -1 3394 -1 1 -2
1371 -1 1929 -1 1589 -1 850 -1 93 -1 34 -1 1 -2
10 -1 1433 -1 1 -2
790 -1 2814 -1 1 -2
71 -1 1 -2
329 -1 2006 -1 1 -2
73 -1 5814 -1 232 -1 1609 -1 977 -1 1 -2
2700 -1 2819 -1 0 -1 102 -1 1 -2
0 -1 95 -1 1005 -1 61 -1 636 -1 1 -2
73 -1 1217 -1 0 -1 4227 -1 1467 -1 1 -2
1811 -1 14738 -1 810 -1 1 -2
1285 -1 135 -1 2275 -1 810 -1 1 -2
5 -1 0 -1 21034 -1 10 -1 520 -1 0 -1 45 -1 810 -1 3172 -1 2617 -1 21033 -1 64 -1 7234 -1 9869 -1 193 -1 1 -2
139 -1 43 -1 64 -1 7234 -1 9869 -1 689 -1 1 -2
572 -1 1 -1 175 -1 173 -1 4808 -1 1 -2
329 -1 409 -1 1 -2
21035 -1 1032 -1 95 -1 102 -1 61 -1 2088 -1 251 -1 1 -2
306 -1 1 -2
1011 -1 102 -1 20047 -1 3712 -1 12417 -1 193 -1 866 -1 21036 -1 14738 -1 708 -1 810 -1 1 -2
956 -1 723 -1 1 -2
790 -1 706 -1 5296 -1 644 -1 1 -2
88 -1 1 -2
73 -1 283 -1 1 -2
18780 -1 21037 -1 15918 -1 1 -2
790 -1 6036 -1 4161 -1 3308 -1 1 -2
73 -1 2006 -1 1524 -1 3557 -1 755 -1 3308 -1 95 -1 61 -1 53 -1 1 -2
10 -1 1 -2
92 -1 706 -1 644 -1 3416 -1 2078 -1 3308 -1 0 -1 3860 -1 4161 -1 0 -1 1630 -1 4328 -1 3342 -1 968 -1 1802 -1 15661 -1 1 -2
217 -1 73 -1 14 -1 1 -2
956 -1 1810 -1 0 -1 1285 -1 73 -1 974 -1 708 -1 73 -1 3308 -1 1 -2
8731 -1 16839 -1 73 -1 1165 -1 1810 -1 708 -1 1 -2
790 -1 2814 -1 34 -1 1 -2
73 -1 5814 -1 232 -1 2700 -1 1 -2
7995 -1 257 -1 1 -2
2231 -1 2 -1 1393 -1 3172 -1 7995 -1 1 -2
600 -1 50 -1 3281 -1 1 -2
156 -1 1 -2
141 -1 0 -1 1033 -1 58 -1 3172 -1 1590 -1 765 -1 1 -2
284 -1 77 -1 3172 -1 13 -1 4154 -1 317 -1 759 -1 2223 -1 3236 -1 1 -2
2040 -1 1 -2
10 -1 21038 -1 0 -1 395 -1 510 -1 1 -2
224 -1 1 -2
19 -1 10944 -1 38 -1 1 -2
178 -1 125 -1 392 -1 321 -1 1 -2
95 -1 135 -1 1 -2
109 -1 4980 -1 88 -1 219 -1 476 -1 4561 -1 167 -1 1 -2