0 -1 #SUP: 9
10 -1 #SUP: 5
21 -1 #SUP: 2
32 -1 #SUP: 2
38 -1 #SUP: 2
40 -1 #SUP: 2
41 -1 #SUP: 4
55 -1 #SUP: 3
58 -1 #SUP: 4
73 -1 #SUP: 2
85 -1 #SUP: 3
87 -1 #SUP: 2
88 -1 #SUP: 3
108 -1 #SUP: 2
109 -1 #SUP: 2
125 -1 #SUP: 5
135 -1 #SUP: 5
187 -1 #SUP: 3
201 -1 #SUP: 2
351 -1 #SUP: 2
588 -1 #SUP: 3
593 -1 #SUP: 2
614 -1 #SUP: 2
644 -1 #SUP: 2
857 -1 #SUP: 2
1157 -1 #SUP: 2
1212 -1 #SUP: 2
1456 -1 #SUP: 2
1517 -1 #SUP: 2
6806 -1 #SUP: 2
22071 -1 #SUP: 2
0 -1 0 -1 #SUP: 3
0 -1 10 -1 #SUP: 2
351 -1 0 -1 #SUP: 2
588 -1 125 -1 #SUP: 3
593 -1 1212 -1 #SUP: 2
593 -1 1517 -1 #SUP: 2
614 -1 0 -1 #SUP: 2
1157 -1 41 -1 #SUP: 2
