0 -1 #SUP: 25
10 -1 #SUP: 8
34 -1 #SUP: 2
71 -1 #SUP: 2
73 -1 #SUP: 2
77 -1 #SUP: 5
135 -1 #SUP: 3
155 -1 #SUP: 2
156 -1 #SUP: 3
187 -1 #SUP: 2
211 -1 #SUP: 3
221 -1 #SUP: 2
508 -1 #SUP: 2
532 -1 #SUP: 3
708 -1 #SUP: 3
723 -1 #SUP: 5
1114 -1 #SUP: 2
1201 -1 #SUP: 2
1236 -1 #SUP: 2
1609 -1 #SUP: 2
1644 -1 #SUP: 2
1670 -1 #SUP: 3
1700 -1 #SUP: 2
2054 -1 #SUP: 2
2591 -1 #SUP: 2
2791 -1 #SUP: 2
2951 -1 #SUP: 2
2963 -1 #SUP: 3
5065 -1 #SUP: 2
7680 -1 #SUP: 2
12009 -1 #SUP: 2
21410 -1 #SUP: 3
24218 -1 #SUP: 2
24222 -1 #SUP: 2
0 -1 0 -1 #SUP: 5
0 -1 10 -1 #SUP: 2
0 -1 73 -1 #SUP: 2
0 -1 155 -1 #SUP: 2
0 -1 723 -1 #SUP: 3
0 -1 2963 -1 #SUP: 3
0 -1 7680 -1 #SUP: 2
10 -1 7680 -1 #SUP: 2
221 -1 0 -1 #SUP: 2
532 -1 0 -1 #SUP: 2
532 -1 21410 -1 #SUP: 3
723 -1 0 -1 #SUP: 2
723 -1 2963 -1 #SUP: 2
2054 -1 0 -1 #SUP: 2
2591 -1 5065 -1 #SUP: 2
21410 -1 0 -1 #SUP: 2
24218 -1 723 -1 #SUP: 2
532 -1 21410 -1 0 -1 #SUP: 2
