0 -1 73 -1 907 -1 168 -1 1 -2
155 -1 5 -1 1 -2
193 -1 588 -1 10228 -1 417 -1 1 -2
440 -1 0 -1 470 -1 1 -2
221 -1 0 -1 141 -1 135 -1 1 -2
233 -1 1231 -1 5 -1 1 -2
10 -1 1 -2
515 -1 418 -1 1 -2
735 -1 1755 -1 73 -1 1507 -1 421 -1 26229 -1 5895 -1 4425 -1 4717 -1 135 -1 1521 -1 1 -1 88 -1 250 -1 59 -1 112 -1 3593 -1 287 -2
440 -1 55 -1 92 -1 942 -1 576 -1 498 -1 1 -2
92 -1 70 -1 214 -1 14387 -1 354 -1 34 -1 663 -1 86 -1 1 -2
92 -1 70 -1 2376 -1 786 -1 1 -2
73 -1 40 -1 2223 -1 3236 -1 321 -1 1 -2
169 -1 1561 -1 109 -1 73 -1 1282 -1 3961 -1 73 -1 44 -1 287 -2
440 -1 3160 -1 182 -1 87 -1 13 -1 306 -1 1 -2
664 -1 1 -2
73 -1 351 -1 1 -2
187 -1 155 -1 475 -1 1405 -1 8755 -1 450 -1 299 -1 1 -2
169 -1 1 -2
216 -1 595 -1 8565 -1 116 -1 26230 -1 1164 -1 1005 -1 1808 -1 398 -1 2676 -1 287 -2
508 -1 3185 -1 1 -2
26231 -1 572 -1 287 -2
2933 -1 1 -2
109 -1 73 -1 30 -1 2006 -1 1 -2
26232 -1 284 -1 30 -1 2006 -1 7864 -1 80 -1 790 -1 644 -1 1 -2
645 -1 141 -1 1 -2
55 -1 58 -1 77 -1 790 -1 38 -1 1 -2
1118 -1 11 -1 1405 -1 870 -1 1157 -1 155 -1 475 -1 13 -1 3370 -1 1 -2
135 -1 21740 -1 141 -1 1 -2
1507 -1 790 -1 176 -1 85 -1 73 -1 1 -2
284 -1 87 -1 125 -1 1650 -1 1747 -1 1 -2
351 -1 595 -1 247 -1 125 -1 1451 -1 73 -1 327 -1 287 -2
135 -1 1357 -1 53 -1 1 -2
3282 -1 683 -1 1 -1 217 -1 55 -1 1114 -1 1279 -1 1 -2
77 -1 1114 -1 222 -1 1507 -1 135 -1 55 -1 1114 -1 8478 -1 222 -1 3004 -1 1 -2
21740 -1 676 -1 1 -2
5635 -1 7634 -1 447 -1 1470 -1 478 -1 135 -1 669 -1 251 -1 849 -1 73 -1 155 -1 1154 -1 10526 -1 669 -1 251 -1 1 -2
1976 -1 1 -2
187 -1 1551 -1 664 -1 155 -1 135 -1 702 -1 53 -1 1 -2
155 -1 222 -1 1 -2
91 -1 176 -1 85 -1 109 -1 1279 -1 1 -2
77 -1 1279 -1 7221 -1 1279 -1 829 -1 212 -1 805 -1 274 -1 1 -2
102 -1 2477 -1 191 -1 641 -1 85 -1 1 -2
169 -1 72 -1 223 -1 12095 -1 2252 -1 4652 -1 834 -1 3846 -1 105 -1 102 -1 805 -1 191 -1 5334 -1 1 -2
55 -1 109 -1 1427 -1 1 -2
169 -1 1 -2
169 -1 21 -1 1 -2
1507 -1 475 -1 109 -1 34 -1 1 -2
55 -1 58 -1 530 -1 1 -2
1 -2
217 -1 135 -1 136 -1 1 -2
1470 -1 765 -1 1 -2
306 -1 1 -2
1 -2
9921 -1 1 -2
2620 -1 669 -1 251 -1 1 -2
169 -1 26233 -1 989 -1 1014 -1 1 -2
306 -1 287 -2
308 -1 308 -2