851 -1 354 -1 998 -1 941 -1 274 -1 653 -1 1 -2
55 -1 58 -1 155 -1 706 -1 118 -1 125 -1 1 -2
135 -1 896 -1 1070 -1 1447 -1 1 -2
857 -1 73 -1 851 -1 354 -1 998 -1 306 -1 857 -1 1 -2
87 -1 470 -1 628 -1 447 -1 19 -1 16884 -1 223 -1 34 -1 1153 -1 1 -2
73 -1 941 -1 661 -1 502 -1 70 -1 0 -1 106 -1 1452 -1 1 -2
139 -1 302 -1 365 -1 3650 -1 5 -1 1 -2
135 -1 182 -1 7518 -1 365 -1 3650 -1 1 -2
10 -1 4839 -1 3583 -1 1230 -1 3747 -1 1 -2
3227 -1 275 -1 78 -1 1405 -1 4070 -1 502 -1 860 -1 0 -1 261 -1 417 -1 1 -2
851 -1 20464 -1 1 -2
120 -1 20464 -1 10 -1 9898 -1 1 -2
20464 -1 718 -1 87 -1 681 -1 25319 -1 1 -2
10 -1 26461 -1 73 -1 22 -1 939 -1 851 -1 1 -2
169 -1 9101 -1 4409 -1 7938 -1 2772 -1 3347 -1 595 -1 1 -2
980 -1 77 -1 843 -1 1465 -1 13 -1 1327 -1 1 -2
135 -1 3278 -1 9101 -1 3265 -1 3115 -1 118 -1 125 -1 109 -1 10 -1 537 -1 28450 -1 1 -2
1446 -1 87 -1 168 -1 321 -1 1 -2
8419 -1 88 -1 45 -1 2407 -1 506 -1 1 -2
1509 -1 32 -1 88 -1 1 -2
306 -1 1103 -1 902 -1 0 -1 1501 -1 668 -1 32 -1 1 -2
55 -1 58 -1 500 -1 117 -1 1904 -1 34 -1 178 -1 9062 -1 1 -2
139 -1 274 -1 122 -1 119 -1 263 -1 8841 -1 637 -1 27887 -1 1 -2
169 -1 247 -1 20464 -1 0 -1 88 -1 222 -1 990 -1 1 -2
55 -1 58 -1 999 -1 31 -1 23524 -1 4624 -1 5439 -1 15039 -1 1 -2
27887 -1 155 -1 152 -1 58 -1 1 -2
169 -1 302 -1 29674 -1 1 -2
1236 -1 0 -1 999 -1 213 -1 2 -1 1 -2
169 -1 31 -1 38 -1 5915 -1 5 -1 216 -1 500 -1 1 -2
302 -1 1951 -1 1 -2
73 -1 851 -1 6207 -1 1529 -1 53 -1 1778 -1 1526 -1 1 -2
31 -1 177 -1 33 -1 159 -1 999 -1 1 -2
1279 -1 1799 -1 1 -2
109 -1 211 -1 395 -1 77 -1 45 -1 211 -1 1 -2
211 -1 87 -1 0 -1 29675 -1 77 -1 55 -1 135 -1 87 -1 7717 -1 1 -2
994 -1 1338 -1 0 -1 1572 -1 107 -1 107 -1 1 -2
4411 -1 1175 -1 2385 -1 217 -1 1802 -1 1 -2
120 -1 212 -1 3115 -1 2385 -1 1 -2
549 -1 1960 -1 40 -1 2625 -1 107 -1 1995 -1 1206 -1 1 -2
1327 -1 15275 -1 4256 -1 36 -1 148 -1 1 -2
661 -1 40 -1 2625 -1 107 -2