0 -1 #SUP: 7
5 -1 #SUP: 2
10 -1 #SUP: 7
33 -1 #SUP: 2
40 -1 #SUP: 2
41 -1 #SUP: 2
58 -1 #SUP: 4
76 -1 #SUP: 2
77 -1 #SUP: 3
85 -1 #SUP: 4
89 -1 #SUP: 5
109 -1 #SUP: 4
119 -1 #SUP: 2
125 -1 #SUP: 3
128 -1 #SUP: 2
135 -1 #SUP: 4
136 -1 #SUP: 3
141 -1 #SUP: 2
155 -1 #SUP: 2
156 -1 #SUP: 3
176 -1 #SUP: 2
177 -1 #SUP: 4
193 -1 #SUP: 2
201 -1 #SUP: 2
216 -1 #SUP: 2
217 -1 #SUP: 2
225 -1 #SUP: 4
226 -1 #SUP: 2
271 -1 #SUP: 2
274 -1 #SUP: 6
281 -1 #SUP: 6
329 -1 #SUP: 3
395 -1 #SUP: 4
417 -1 #SUP: 2
444 -1 #SUP: 2
582 -1 #SUP: 3
587 -1 #SUP: 2
945 -1 #SUP: 2
986 -1 #SUP: 2
1143 -1 #SUP: 2
1458 -1 #SUP: 2
1517 -1 #SUP: 4
2252 -1 #SUP: 2
3619 -1 #SUP: 2
5576 -1 #SUP: 2
7685 -1 #SUP: 4
58 -1 10 -1 #SUP: 2
76 -1 281 -1 #SUP: 2
156 -1 0 -1 #SUP: 2
176 -1 85 -1 #SUP: 2
225 -1 135 -1 #SUP: 2
281 -1 417 -1 #SUP: 2
395 -1 329 -1 #SUP: 3
1517 -1 85 -1 #SUP: 2
