9 -1 #SUP: 4
19 -1 #SUP: 2
21 -1 #SUP: 3
29 -1 #SUP: 3
48 -1 #SUP: 11
49 -1 #SUP: 5
50 -1 #SUP: 64
55 -1 #SUP: 2
91 -1 #SUP: 3
95 -1 #SUP: 2
110 -1 #SUP: 2
117 -1 #SUP: 4
118 -1 #SUP: 2
121 -1 #SUP: 3
122 -1 #SUP: 4
197 -1 #SUP: 9
216 -1 #SUP: 2
225 -1 #SUP: 2
240 -1 #SUP: 3
255 -1 #SUP: 9
262 -1 #SUP: 13
268 -1 #SUP: 2
271 -1 #SUP: 4
296 -1 #SUP: 2
339 -1 #SUP: 2
345 -1 #SUP: 2
413 -1 #SUP: 3
488 -1 #SUP: 6
489 -1 #SUP: 2
494 -1 #SUP: 4
504 -1 #SUP: 2
506 -1 #SUP: 3
520 -1 #SUP: 2
545 -1 #SUP: 2
559 -1 #SUP: 2
595 -1 #SUP: 2
602 -1 #SUP: 2
679 -1 #SUP: 5
685 -1 #SUP: 2
748 -1 #SUP: 2
839 -1 #SUP: 4
865 -1 #SUP: 2
928 -1 #SUP: 2
973 -1 #SUP: 4
1018 -1 #SUP: 3
1019 -1 #SUP: 2
1039 -1 #SUP: 5
1068 -1 #SUP: 2
1088 -1 #SUP: 2
1094 -1 #SUP: 3
1111 -1 #SUP: 2
1122 -1 #SUP: 3
1137 -1 #SUP: 2
1166 -1 #SUP: 3
1172 -1 #SUP: 4
1229 -1 #SUP: 2
1377 -1 #SUP: 14
1435 -1 #SUP: 2
1508 -1 #SUP: 3
1538 -1 #SUP: 4
1645 -1 #SUP: 2
1675 -1 #SUP: 2
1692 -1 #SUP: 3
1808 -1 #SUP: 2
1866 -1 #SUP: 2
1924 -1 #SUP: 2
2010 -1 #SUP: 2
2044 -1 #SUP: 2
2083 -1 #SUP: 2
2101 -1 #SUP: 3
2525 -1 #SUP: 3
2555 -1 #SUP: 2
2569 -1 #SUP: 2
2601 -1 #SUP: 15
2751 -1 #SUP: 8
2800 -1 #SUP: 2
2873 -1 #SUP: 2
3138 -1 #SUP: 2
3366 -1 #SUP: 2
3649 -1 #SUP: 2
3947 -1 #SUP: 3
4558 -1 #SUP: 2
4691 -1 #SUP: 2
4782 -1 #SUP: 3
5176 -1 #SUP: 2
5468 -1 #SUP: 2
5759 -1 #SUP: 2
5785 -1 #SUP: 7
6120 -1 #SUP: 2
6231 -1 #SUP: 2
6607 -1 #SUP: 3
6828 -1 #SUP: 2
7212 -1 #SUP: 2
7402 -1 #SUP: 2
9274 -1 #SUP: 2
9390 -1 #SUP: 2
10226 -1 #SUP: 2
12312 -1 #SUP: 2
16446 -1 #SUP: 2
18724 -1 #SUP: 2
19135 -1 #SUP: 2
22594 -1 #SUP: 2
24268 -1 #SUP: 2
21 -1 50 -1 #SUP: 2
48 -1 255 -1 #SUP: 2
48 -1 2751 -1 #SUP: 2
49 -1 50 -1 #SUP: 3
50 -1 50 -1 #SUP: 9
50 -1 55 -1 #SUP: 2
50 -1 121 -1 #SUP: 2
50 -1 197 -1 #SUP: 3
50 -1 255 -1 #SUP: 2
50 -1 262 -1 #SUP: 3
50 -1 271 -1 #SUP: 2
50 -1 973 -1 #SUP: 2
50 -1 1645 -1 #SUP: 2
50 -1 2601 -1 #SUP: 3
50 -1 2751 -1 #SUP: 2
50 -1 3649 -1 #SUP: 2
50 -1 24268 -1 #SUP: 2
91 -1 1538 -1 #SUP: 2
122 -1 29 -1 #SUP: 2
122 -1 494 -1 #SUP: 2
197 -1 262 -1 #SUP: 2
197 -1 2601 -1 #SUP: 2
197 -1 5759 -1 #SUP: 2
262 -1 2751 -1 #SUP: 2
262 -1 3138 -1 #SUP: 2
296 -1 839 -1 #SUP: 2
296 -1 22594 -1 #SUP: 2
488 -1 50 -1 #SUP: 3
489 -1 6607 -1 #SUP: 2
494 -1 29 -1 #SUP: 2
679 -1 50 -1 #SUP: 4
679 -1 197 -1 #SUP: 2
839 -1 22594 -1 #SUP: 2
865 -1 50 -1 #SUP: 2
973 -1 29 -1 #SUP: 2
973 -1 494 -1 #SUP: 2
1019 -1 50 -1 #SUP: 2
1068 -1 1924 -1 #SUP: 2
1094 -1 1094 -1 #SUP: 2
1137 -1 50 -1 #SUP: 2
1377 -1 1377 -1 #SUP: 3
1675 -1 50 -1 #SUP: 2
1692 -1 1508 -1 #SUP: 2
2601 -1 50 -1 #SUP: 3
2601 -1 339 -1 #SUP: 2
2751 -1 7212 -1 #SUP: 2
3138 -1 2751 -1 #SUP: 2
5785 -1 50 -1 #SUP: 2
19135 -1 255 -1 #SUP: 2
50 -1 50 -1 50 -1 #SUP: 4
50 -1 50 -1 3649 -1 #SUP: 2
122 -1 494 -1 29 -1 #SUP: 2
262 -1 3138 -1 2751 -1 #SUP: 2
296 -1 839 -1 22594 -1 #SUP: 2
679 -1 50 -1 197 -1 #SUP: 2
973 -1 494 -1 29 -1 #SUP: 2
1377 -1 1377 -1 1377 -1 #SUP: 3
50 -1 50 -1 50 -1 50 -1 #SUP: 3
1377 -1 1377 -1 1377 -1 1377 -1 #SUP: 3
1377 -1 1377 -1 1377 -1 1377 -1 1377 -1 #SUP: 3
1377 -1 1377 -1 1377 -1 1377 -1 1377 -1 1377 -1 #SUP: 3
1377 -1 1377 -1 1377 -1 1377 -1 1377 -1 1377 -1 1377 -1 #SUP: 3
1377 -1 1377 -1 1377 -1 1377 -1 1377 -1 1377 -1 1377 -1 1377 -1 #SUP: 3
1377 -1 1377 -1 1377 -1 1377 -1 1377 -1 1377 -1 1377 -1 1377 -1 1377 -1 #SUP: 2
