5 -1 #SUP: 7
6 -1 #SUP: 3
17 -1 #SUP: 7
18 -1 #SUP: 7
19 -1 #SUP: 5
48 -1 #SUP: 14
49 -1 #SUP: 2
50 -1 #SUP: 60
54 -1 #SUP: 2
91 -1 #SUP: 4
114 -1 #SUP: 4
117 -1 #SUP: 2
122 -1 #SUP: 5
148 -1 #SUP: 3
173 -1 #SUP: 3
197 -1 #SUP: 2
225 -1 #SUP: 3
240 -1 #SUP: 3
262 -1 #SUP: 9
271 -1 #SUP: 3
288 -1 #SUP: 2
290 -1 #SUP: 3
291 -1 #SUP: 2
299 -1 #SUP: 3
306 -1 #SUP: 2
350 -1 #SUP: 2
375 -1 #SUP: 3
423 -1 #SUP: 2
449 -1 #SUP: 2
502 -1 #SUP: 2
506 -1 #SUP: 3
633 -1 #SUP: 2
638 -1 #SUP: 2
752 -1 #SUP: 2
849 -1 #SUP: 2
1005 -1 #SUP: 2
1023 -1 #SUP: 2
1029 -1 #SUP: 2
1039 -1 #SUP: 2
1435 -1 #SUP: 3
1525 -1 #SUP: 2
1812 -1 #SUP: 2
2045 -1 #SUP: 2
2327 -1 #SUP: 2
2689 -1 #SUP: 2
3747 -1 #SUP: 2
6314 -1 #SUP: 2
6493 -1 #SUP: 2
14266 -1 #SUP: 2
15999 -1 #SUP: 2
18759 -1 #SUP: 2
24294 -1 #SUP: 2
5 -1 5 -1 #SUP: 2
5 -1 17 -1 #SUP: 4
5 -1 18 -1 #SUP: 4
6 -1 17 -1 #SUP: 3
6 -1 18 -1 #SUP: 3
17 -1 5 -1 #SUP: 3
17 -1 50 -1 #SUP: 2
18 -1 5 -1 #SUP: 3
18 -1 17 -1 #SUP: 6
18 -1 50 -1 #SUP: 2
19 -1 50 -1 #SUP: 2
48 -1 50 -1 #SUP: 4
48 -1 122 -1 #SUP: 2
50 -1 48 -1 #SUP: 4
50 -1 50 -1 #SUP: 16
50 -1 114 -1 #SUP: 2
50 -1 122 -1 #SUP: 2
50 -1 240 -1 #SUP: 2
50 -1 262 -1 #SUP: 3
50 -1 633 -1 #SUP: 2
50 -1 638 -1 #SUP: 2
50 -1 2689 -1 #SUP: 2
91 -1 50 -1 #SUP: 2
114 -1 50 -1 #SUP: 4
114 -1 2689 -1 #SUP: 2
117 -1 271 -1 #SUP: 2
122 -1 50 -1 #SUP: 2
148 -1 50 -1 #SUP: 2
173 -1 50 -1 #SUP: 2
197 -1 48 -1 #SUP: 2
262 -1 50 -1 #SUP: 3
262 -1 506 -1 #SUP: 2
290 -1 50 -1 #SUP: 2
299 -1 50 -1 #SUP: 2
299 -1 290 -1 #SUP: 2
306 -1 50 -1 #SUP: 2
502 -1 50 -1 #SUP: 2
506 -1 48 -1 #SUP: 2
506 -1 50 -1 #SUP: 2
849 -1 50 -1 #SUP: 2
1029 -1 50 -1 #SUP: 2
1039 -1 50 -1 #SUP: 2
1435 -1 50 -1 #SUP: 2
2327 -1 50 -1 #SUP: 2
14266 -1 48 -1 #SUP: 2
5 -1 17 -1 5 -1 #SUP: 2
5 -1 18 -1 5 -1 #SUP: 2
5 -1 18 -1 17 -1 #SUP: 4
6 -1 18 -1 17 -1 #SUP: 3
18 -1 17 -1 5 -1 #SUP: 3
18 -1 17 -1 50 -1 #SUP: 2
50 -1 50 -1 48 -1 #SUP: 2
50 -1 50 -1 50 -1 #SUP: 5
50 -1 50 -1 240 -1 #SUP: 2
50 -1 114 -1 50 -1 #SUP: 2
91 -1 50 -1 50 -1 #SUP: 2
114 -1 50 -1 2689 -1 #SUP: 2
299 -1 290 -1 50 -1 #SUP: 2
5 -1 18 -1 17 -1 5 -1 #SUP: 2
50 -1 50 -1 50 -1 50 -1 #SUP: 3
