961 -1 7703 -1 19 -2
5261 -1 506 -1 11891 -1 19 -2
6546 -1 19 -2
13160 -1 2798 -1 4958 -1 9468 -1 50 -1 1387 -1 50 -1 6628 -1 50 -1 14754 -1 50 -1 4240 -1 19 -2
136 -1 19 -2
2705 -1 19 -2
1816 -1 1814 -1 50 -1 164 -1 5104 -1 4857 -1 3421 -1 28061 -1 19 -1 10147 -1 471 -1 19 -2
10671 -1 19 -2
2827 -1 19 -2
11615 -1 19 -2
355 -1 1512 -1 19 -2
75 -1 656 -1 461 -1 752 -1 19 -2
122 -1 1360 -1 50 -1 6880 -1 19 -2
356 -1 155 -1 407 -1 15761 -1 2499 -1 50 -1 18167 -1 19 -2
785 -1 1018 -1 506 -1 19 -2
5 -1 18 -1 17 -1 154276 -1 356 -1 494 -1 22415 -1 3712 -1 19 -2
471 -1 597 -1 27 -1 19 -2
1685 -1 3501 -1 50 -1 240 -1 350 -1 555 -1 19 -2
1024 -1 17249 -1 19 -2
154277 -1 14339 -1 19 -1 75 -1 1227 -1 665 -1 30 -1 19 -2
7353 -1 48 -1 4 -1 19 -2
1225 -1 6465 -1 225 -1 659 -1 19 -2
520 -1 118 -1 142 -1 634 -1 96636 -1 255 -1 6465 -1 381 -1 634 -1 19 -2
164 -1 515 -1 1369 -1 50 -1 1094 -1 9875 -1 19 -2
738 -1 50 -1 19 -2
526 -1 6728 -1 1319 -1 2394 -1 19 -2
1499 -1 153 -1 5646 -1 19 -2
50 -1 5416 -1 3238 -1 1904 -1 19 -2
7 -1 488 -1 362 -1 3943 -1 476 -1 344 -1 1042 -1 19 -2
19711 -1 19 -2
5 -1 18 -1 17 -1 154278 -1 482 -1 67134 -1 19 -2
384 -1 1357 -1 19 -2
656 -1 2397 -1 71863 -1 506 -1 1447 -1 154279 -1 19 -2
223 -1 34784 -1 482 -1 19 -2
1638 -1 1432 -1 19 -2
3689 -1 4761 -1 19 -2
61814 -1 482 -1 19 -2
3404 -1 19 -2
155 -1 13763 -1 2779 -1 13763 -1 155 -1 29825 -1 19 -2
5 -1 18 -1 17 -1 154280 -1 9052 -1 28702 -1 6943 -1 6719 -1 626 -1 18650 -1 6004 -1 1 -2
13123 -1 144 -1 21042 -1 28702 -1 6265 -1 299 -1 290 -1 4613 -1 3517 -1 19 -2
12488 -1 22916 -1 19 -2
10953 -1 3735 -1 28805 -1 19 -2
10790 -1 31092 -1 19 -2
6963 -1 43220 -1 19 -2
8257 -1 8255 -1 19 -2
154281 -1 1412 -1 1177 -1 1274 -1 19 -2
3605 -1 2131 -1 13492 -1 196 -1 19 -2
2798 -1 8377 -1 2798 -1 490 -1 523 -1 86 -1 19 -2
75 -1 1227 -1 154 -1 19 -2
1425 -1 407 -1 2332 -1 50 -1 26543 -1 299 -1 19 -2
721 -1 665 -1 30 -1 75 -1 1227 -1 19 -2
1023 -1 154 -1 19 -2
2539 -1 27026 -1 13160 -1 2798 -1 19 -2
1392 -1 50 -1 6238 -1 666 -1 9 -1 50 -1 164 -1 6494 -1 1849 -1 9 -1 19 -2
19 -2
19458 -1 12392 -1 30 -1 3410 -1 3355 -1 4195 -1 50 -1 19458 -1 113 -1 12392 -1 16816 -1 122 -1 19 -2
16816 -1 122 -1 16816 -1 122 -1 2499 -1 4181 -1 122 -1 263 -1 19 -2
14867 -1 1094 -1 4654 -1 19 -2
932 -1 11372 -1 114 -1 19 -2
1023 -1 27 -1 19 -2
5 -1 18 -1 17 -1 154282 -1 4380 -1 1068 -1 19 -2
172 -1 19 -1 361 -1 25 -1 1 -2
1677 -1 1498 -1 4229 -1 352 -1 10626 -1 1549 -1 19 -2
1122 -1 8245 -1 352 -1 19 -2
490 -1 30 -1 3232 -1 19 -1 19 -1 282 -1 3075 -1 50 -1 5430 -1 17958 -1 95 -1 3544 -1 167 -1 19 -2
565 -1 4190 -1 7065 -1 19 -2
356 -1 2170 -1 113 -1 1256 -1 1684 -1 154283 -1 19 -2
5529 -1 278 -1 1265 -1 6058 -1 50 -1 2865 -1 50 -1 9235 -1 19 -2
384 -1 5396 -1 2814 -1 291 -1 1369 -1 19 -2
197 -1 291 -1 2227 -1 840 -1 19 -2
3143 -1 1438 -1 5762 -1 607 -1 154284 -1 19 -2
535 -1 3851 -1 19 -2
352 -1 18191 -1 114 -1 19 -2
5609 -1 2557 -1 1956 -1 993 -1 19 -2
412 -1 155 -1 621 -1 19 -2
75 -1 1227 -1 656 -1 1714 -1 523 -1 19 -2
3457 -1 1435 -1 1018 -1 19 -2
122 -1 5724 -1 1023 -1 19 -2
1520 -1 855 -1 1216 -1 164 -1 19 -2
75 -1 1227 -1 19 -2
62877 -1 1462 -1 19 -2
6 -1 18 -1 17 -1 154285 -1 2113 -1 1728 -1 50 -1 7621 -1 65546 -1 255 -1 1387 -1 1679 -1 1387 -1 19 -2
3734 -1 9 -1 428 -1 925 -1 6056 -1 9 -1 19 -2
7746 -1 12312 -1 1387 -1 19 -2
75 -1 1023 -1 14882 -1 19 -2
11615 -1 50 -1 471 -1 1267 -1 2111 -1 50 -1 3820 -1 50 -1 9235 -1 50 -1 851 -1 19 -2
849 -1 471 -1 12285 -1 2236 -1 1962 -1 2899 -1 50 -1 21 -1 19 -2
968 -1 19 -2
75 -1 1227 -1 19 -2
1023 -1 154288 -1 154286 -1 96 -1 154287 -1 25181 -1 19 -2
221 -1 6498 -1 7764 -1 19 -2
76419 -1 661 -1 155 -1 6062 -1 1 -2
3800 -1 155 -1 6062 -1 1 -2
1373 -1 1538 -1 1048 -1 644 -1 6496 -1 853 -1 1532 -1 2318 -1 564 -1 19 -2
75 -1 122 -1 5724 -1 4119 -1 19 -2