155 -1 5907 -1 2401 -1 8653 -1 19 -2
2103 -1 181 -1 19 -2
8270 -1 50 -1 1049 -1 875 -1 2798 -1 11798 -1 17047 -1 1 -2
3960 -1 494 -1 19 -2
752 -1 2774 -1 2577 -1 5272 -1 19 -2
2443 -1 50 -1 259 -1 289 -1 48 -1 2552 -1 466 -1 50 -1 1292 -1 2758 -1 19 -2
33 -1 19 -2
1151 -1 50 -1 306 -1 2626 -1 345 -1 13675 -1 1274 -1 1207 -1 1722 -1 306 -1 1516 -1 17048 -1 1197 -1 172 -1 1538 -1 122 -1 327 -1 3736 -1 17049 -1 19 -2
7928 -1 1675 -1 19 -2
19 -2
19 -2
3490 -1 13645 -1 3015 -1 1059 -1 115 -1 19 -2
2427 -1 226 -1 648 -1 2943 -1 50 -1 9314 -1 4736 -1 1166 -1 2015 -1 1565 -1 17050 -1 713 -1 2931 -1 19 -2
1482 -1 50 -1 6612 -1 262 -1 1975 -1 19 -2
3824 -1 50 -1 197 -1 48 -1 1975 -1 19 -2
1557 -1 8402 -1 10506 -1 19 -2
847 -1 4739 -1 2049 -1 2388 -1 19 -2
5 -1 17054 -1 9078 -1 1671 -1 8273 -1 17053 -1 17051 -1 262 -1 17052 -1 1137 -1 10909 -1 583 -1 197 -1 262 -1 2531 -1 2532 -1 55 -1 4038 -1 19 -2
49 -1 19 -2
656 -1 1968 -1 196 -2
1094 -1 748 -1 255 -1 3908 -1 4552 -1 17055 -1 17058 -1 635 -1 50 -1 17056 -1 50 -1 1385 -1 17057 -1 1 -2
50 -1 48 -1 408 -1 306 -1 1 -2
49 -1 2492 -1 50 -1 4833 -1 287 -1 50 -1 1494 -1 17059 -1 50 -1 11372 -1 19 -2
469 -1 196 -2
389 -1 169 -1 5948 -1 1 -2
486 -1 50 -1 124 -1 135 -1 50 -1 839 -1 50 -1 8108 -1 19 -2
91 -1 255 -1 17060 -1 155 -1 121 -1 7741 -1 50 -1 2195 -1 49 -1 91 -1 118 -1 5762 -1 91 -1 118 -1 11566 -1 19 -2
2098 -1 50 -1 121 -1 1262 -1 6594 -1 2848 -1 19 -2
993 -1 50 -1 63 -1 2368 -1 893 -1 2848 -1 306 -1 48 -1 4681 -1 19 -2
5281 -1 50 -1 2692 -1 1 -2
1054 -1 155 -1 1125 -1 9723 -1 2774 -1 1585 -1 298 -1 263 -1 412 -1 19 -2
509 -1 408 -1 274 -1 1184 -1 5337 -1 2018 -1 3730 -1 1196 -1 1 -1 19 -2
1106 -1 412 -1 130 -1 775 -1 50 -1 780 -1 3600 -1 3544 -1 203 -1 1632 -1 6096 -1 6780 -1 420 -1 19 -2
12246 -1 19 -2
775 -1 1 -2
240 -1 1340 -1 11865 -1 185 -1 50 -1 255 -1 145 -1 16694 -1 328 -1 145 -1 806 -1 146 -1 1455 -1 19 -2
17061 -1 656 -1 1968 -1 4503 -1 1094 -1 2062 -1 19 -2
17062 -1 1645 -1 1229 -1 356 -1 5344 -1 19 -2
262 -1 993 -1 19 -2
155 -1 268 -1 5396 -1 50 -1 268 -1 297 -1 4758 -1 19 -2
1 -2
2834 -1 812 -1 1 -2
255 -1 4559 -1 482 -1 50 -1 2657 -1 700 -1 121 -1 1 -2
17064 -1 1412 -1 5608 -1 1412 -1 17063 -1 5000 -1 17065 -1 127 -1 17064 -1 4622 -1 155 -1 50 -1 2331 -1 50 -1 363 -1 2 -1 1139 -1 615 -1 19 -2
49 -1 11857 -1 3079 -1 29 -1 973 -1 760 -1 1112 -1 216 -1 1360 -1 19 -2
133 -1 17066 -1 1227 -1 50 -1 5215 -1 17067 -1 19 -2
3079 -1 67 -1 17068 -1 50 -1 1482 -1 2904 -1 66 -1 1198 -1 875 -1 19 -2
2055 -1 2301 -1 50 -1 3693 -1 1808 -1 19 -2
2904 -1 17070 -1 17069 -1 19 -2
5 -1 17074 -1 17073 -1 70 -1 17071 -1 4649 -1 17072 -1 1 -2
5995 -1 4307 -1 1834 -1 19 -2
112 -1 7273 -1 411 -1 1146 -1 3365 -1 17075 -1 19 -2
172 -1 427 -1 17076 -1 173 -1 17077 -1 1465 -1 225 -1 1665 -1 747 -1 449 -1 1292 -1 1930 -1 713 -1 7296 -1 1139 -1 4808 -1 19 -2
397 -1 6504 -1 50 -1 50 -1 6056 -1 4479 -1 10587 -1 19 -1 19 -1 1 -2
50 -1 2834 -1 498 -1 4037 -1 19 -2
1 -2
2370 -1 614 -1 1018 -1 1176 -1 1196 -1 506 -1 1 -2
11419 -1 197 -1 49 -1 19 -2
2079 -1 2150 -1 1264 -1 1265 -1 121 -1 19 -2
6922 -1 1010 -1 155 -1 1519 -1 1018 -1 893 -1 2710 -1 3664 -1 50 -1 6922 -1 10369 -1 19 -2
1373 -1 6922 -1 19 -2
315 -1 950 -1 1 -2
1749 -1 1018 -1 19 -2
656 -1 196 -2
4571 -1 19 -2
448 -1 1018 -1 1784 -1 91 -1 255 -1 3816 -1 1016 -1 19 -2
17078 -1 523 -1 4913 -1 19 -2
2898 -1 240 -1 506 -1 7211 -1 8471 -1 3816 -1 19 -2
502 -1 1294 -1 489 -1 1 -2
17079 -1 14856 -1 1 -2
2882 -1 512 -1 6788 -1 1 -2
2882 -2