881 -1 21556 -1 352 -1 352 -1 3904 -1 29293 -1 19 -2
274 -1 883 -1 19 -2
352 -1 883 -1 186 -1 19 -2
141475 -1 3734 -1 19 -2
656 -1 141477 -1 141476 -1 19 -2
3 -1 48 -1 1637 -1 19 -1 19 -1 141478 -1 471 -1 19 -2
7 -1 48 -1 19 -2
7 -1 556 -1 1128 -1 19 -2
7 -1 21559 -1 7212 -1 1128 -1 19 -2
7 -1 21559 -1 556 -1 4413 -1 19 -2
621 -1 270 -1 4106 -1 3429 -1 50 -1 95 -1 441 -1 3649 -1 14111 -1 12230 -1 1144 -1 19 -2
4143 -1 19 -2
621 -1 19 -2
8736 -1 429 -1 19711 -1 681 -1 19 -2
197 -1 5889 -1 1692 -1 224 -1 141479 -1 1692 -1 3365 -1 7 -1 48 -1 94030 -1 502 -1 680 -1 95 -1 19 -2
11247 -1 19 -2
19 -2
1173 -1 1453 -1 8950 -1 30459 -1 19 -2
7 -1 3186 -1 1393 -1 5862 -1 2903 -1 7 -1 5272 -1 6100 -1 2327 -1 19 -2
1393 -1 19 -2
2692 -1 2692 -1 19 -1 7965 -1 9002 -1 9001 -1 1658 -1 19 -2
141481 -1 906 -1 50 -1 30 -1 2531 -1 2532 -1 3775 -1 8692 -1 19 -1 19 -1 1124 -1 141480 -1 50 -1 9685 -1 3350 -1 19 -2
967 -1 341 -1 551 -1 6063 -1 19 -2
1097 -1 1104 -1 9761 -1 19 -2
593 -1 3711 -1 19 -2
1141 -1 1784 -1 50 -1 2139 -1 1453 -1 8950 -1 543 -1 19 -1 19 -1 7850 -1 3469 -1 1262 -1 19 -1 1876 -1 9864 -1 10879 -1 19 -2
621 -1 9623 -1 12282 -1 306 -1 2186 -1 9623 -1 1 -2
5263 -1 14584 -1 1 -1 19 -2
679 -1 2083 -1 50 -1 752 -1 1192 -1 19 -2
1692 -1 849 -1 155 -1 5250 -1 6826 -1 5250 -1 1219 -1 19 -2
5250 -1 840 -1 49 -1 5250 -1 181 -1 50 -1 1018 -1 5250 -1 155 -1 1838 -1 50 -1 19 -2
7372 -1 50 -1 407 -1 7046 -1 2708 -1 1121 -1 19 -2
700 -1 934 -1 12282 -1 263 -1 19 -2
1151 -1 1692 -1 622 -1 53 -1 135 -1 6240 -1 4054 -1 19 -2
654 -1 597 -1 19 -2
6456 -1 17026 -1 19 -2
19 -1 19 -1 6404 -1 783 -1 9227 -1 19 -2
155 -1 88130 -1 1 -2
155 -1 1455 -1 1125 -1 4313 -1 12093 -1 118 -1 2622 -1 19 -2
1862 -1 1229 -1 5250 -1 1360 -1 19 -2
50 -1 1858 -1 3138 -1 704 -1 1 -2
91 -1 2045 -1 6160 -1 19 -2
6056 -1 1892 -1 1 -2
2886 -1 1197 -1 5616 -1 55877 -1 8260 -1 19 -2
11963 -1 19 -2
2882 -1 50333 -1 17026 -1 19 -2
50 -1 155 -1 582 -1 934 -1 12282 -1 263 -1 19 -2
5092 -1 2894 -1 1196 -1 6501 -1 50 -1 6923 -1 488 -1 1212 -1 19 -2
7819 -1 368 -1 288 -1 1192 -1 1227 -1 19 -2
13713 -1 29264 -1 676 -1 19 -2
656 -1 3284 -1 50 -1 6918 -1 19 -2
733 -1 8376 -1 11695 -1 50 -1 4730 -1 732 -1 24611 -1 269 -1 19 -2
136 -1 32537 -1 6241 -1 14285 -1 2423 -1 107 -1 1897 -1 50 -1 39208 -1 11285 -1 19 -2
567 -1 23174 -1 3 -1 1 -2
157 -1 661 -1 50 -1 326 -1 1 -2
157 -1 155 -1 3776 -1 486 -1 1 -2
1876 -1 7 -1 32773 -1 32776 -1 3 -1 141482 -1 8669 -1 7731 -1 7732 -1 30 -1 49036 -1 7 -1 50 -1 3 -1 50 -1 30 -1 50 -1 157 -1 95 -1 736 -1 19 -2
1220 -1 3712 -1 381 -1 2814 -1 122 -1 19 -2
7 -1 961 -1 55168 -1 19 -2
3723 -1 2552 -1 19 -2
471 -1 2059 -1 272 -1 19 -2
2561 -1 50 -1 35171 -1 3649 -1 1054 -1 1373 -1 968 -1 13606 -1 1512 -1 107 -1 322 -1 4243 -1 33919 -1 679 -1 19 -2
2192 -1 1005 -1 9720 -1 50 -1 5572 -1 3625 -1 282 -1 1151 -1 19 -2
1874 -1 2800 -1 3649 -1 19 -2
1538 -1 278 -1 2877 -1 2876 -1 19 -2
1722 -1 621 -1 19 -2
101156 -1 6738 -1 19 -2
621 -1 19 -2
101156 -1 6738 -1 19 -2
3 -1 30 -1 6 -1 18 -1 17 -1 141483 -1 143 -1 2091 -1 21648 -1 2192 -1 3005 -1 408 -1 7194 -1 1787 -1 197 -1 19 -2
95 -1 255 -1 6908 -1 28235 -1 12506 -1 14665 -1 12274 -1 633 -1 451 -1 19 -2
4849 -1 9 -1 19 -2
993 -1 30 -1 48 -1 141484 -1 1 -2
157 -1 48 -1 1220 -1 1584 -1 22192 -1 91 -1 197 -1 26217 -1 5355 -1 19 -2
773 -1 19 -2
1111 -1 597 -1 350 -1 9 -1 19 -2
748 -1 2934 -1 1874 -1 26414 -1 50 -1 31253 -1 50 -1 24389 -1 3649 -1 19 -2
1482 -1 240 -1 2426 -1 20632 -1 19 -2
141485 -1 255 -1 381 -1 19 -2
9239 -1 7245 -1 840 -1 3649 -1 19 -2
1970 -1 19 -2
91 -1 1373 -1 4408 -1 3625 -1 471 -1 19 -2
1220 -1 1435 -1 72716 -1 3274 -1 19 -2
50 -1 1692 -1 197 -1 3246 -1 126 -1 19 -2
118 -1 2085 -1 50 -1 7060 -1 9227 -1 19 -2
6159 -1 4 -1 19 -2
15130 -1 1452 -1 381 -1 594 -1 22736 -1 1215 -1 3520 -1 43 -1 19 -2
2555 -1 14538 -1 1879 -1 19 -2
1 -2
1876 -1 91 -1 197 -1 1455 -1 5646 -1 1257 -1 1571 -1 471 -1 19 -2
28477 -1 3926 -1 7965 -1 9 -1 9 -1 328 -1 3649 -1 50 -1 3060 -1 6234 -1 19 -2
1722 -1 19 -2
42 -1 20200 -1 6857 -1 19 -2
197 -1 240 -1 19 -2
524 -1 19 -2
1774 -1 476 -1 141486 -1 240 -1 167 -1 114 -1 1005 -1 2577 -1 5315 -1 19 -2
7 -1 48 -1 1984 -1 10670 -1 155 -1 141487 -1 1 -2
95 -1 5675 -1 19 -2
144 -1 1212 -1 3625 -1 19 -2
547 -1 1212 -1 50 -1 763 -1 255 -1 7 -1 141488 -1 13713 -1 512 -1 5498 -1 197 -1 784 -1 19 -2
255 -1 240 -1 19 -2
1876 -1 4958 -1 8199 -1 476 -1 2090 -1 466 -1 299 -1 8325 -1 8199 -1 3415 -1 8199 -1 50 -1 29 -1 3415 -1 142 -1 19 -2
7 -1 114 -1 113 -1 390 -1 317 -1 181 -1 19 -2
114 -1 113 -1 2460 -1 7895 -1 1728 -1 114 -1 113 -1 3276 -1 3738 -1 141489 -1 995 -1 19 -2
141485 -1 255 -1 19 -2
1097 -1 4106 -1 629 -1 141490 -1 993 -1 19 -2
748 -1 2934 -1 1928 -1 12758 -1 155 -1 19 -2
1 -2