36 -1 #SUP: 3
50 -1 #SUP: 32
55 -1 #SUP: 2
67 -1 #SUP: 2
75 -1 #SUP: 6
91 -1 #SUP: 3
155 -1 #SUP: 5
197 -1 #SUP: 2
216 -1 #SUP: 2
255 -1 #SUP: 7
306 -1 #SUP: 3
311 -1 #SUP: 3
361 -1 #SUP: 2
365 -1 #SUP: 2
656 -1 #SUP: 2
670 -1 #SUP: 25
684 -1 #SUP: 2
692 -1 #SUP: 2
700 -1 #SUP: 2
719 -1 #SUP: 2
721 -1 #SUP: 6
752 -1 #SUP: 2
1019 -1 #SUP: 2
1227 -1 #SUP: 2
1452 -1 #SUP: 2
1538 -1 #SUP: 2
1645 -1 #SUP: 2
1918 -1 #SUP: 2
2652 -1 #SUP: 2
5600 -1 #SUP: 2
6095 -1 #SUP: 2
6510 -1 #SUP: 2
7709 -1 #SUP: 3
14008 -1 #SUP: 2
22900 -1 #SUP: 4
42866 -1 #SUP: 3
56130 -1 #SUP: 2
139878 -1 #SUP: 2
36 -1 50 -1 #SUP: 3
36 -1 75 -1 #SUP: 2
50 -1 50 -1 #SUP: 5
50 -1 55 -1 #SUP: 2
50 -1 75 -1 #SUP: 4
50 -1 91 -1 #SUP: 2
50 -1 155 -1 #SUP: 3
50 -1 255 -1 #SUP: 3
50 -1 311 -1 #SUP: 2
50 -1 361 -1 #SUP: 2
50 -1 721 -1 #SUP: 2
306 -1 50 -1 #SUP: 2
365 -1 6095 -1 #SUP: 2
670 -1 50 -1 #SUP: 2
670 -1 670 -1 #SUP: 6
721 -1 50 -1 #SUP: 6
721 -1 75 -1 #SUP: 2
1019 -1 50 -1 #SUP: 2
2652 -1 139878 -1 #SUP: 2
7709 -1 42866 -1 #SUP: 3
22900 -1 50 -1 #SUP: 2
22900 -1 7709 -1 #SUP: 2
22900 -1 42866 -1 #SUP: 2
36 -1 50 -1 75 -1 #SUP: 2
50 -1 721 -1 50 -1 #SUP: 2
670 -1 670 -1 50 -1 #SUP: 2
670 -1 670 -1 670 -1 #SUP: 6
721 -1 50 -1 50 -1 #SUP: 2
721 -1 50 -1 75 -1 #SUP: 2
22900 -1 7709 -1 42866 -1 #SUP: 2
670 -1 670 -1 670 -1 50 -1 #SUP: 2
670 -1 670 -1 670 -1 670 -1 #SUP: 5
670 -1 670 -1 670 -1 670 -1 50 -1 #SUP: 2
670 -1 670 -1 670 -1 670 -1 670 -1 #SUP: 5
670 -1 670 -1 670 -1 670 -1 670 -1 50 -1 #SUP: 2
670 -1 670 -1 670 -1 670 -1 670 -1 670 -1 #SUP: 4
670 -1 670 -1 670 -1 670 -1 670 -1 670 -1 670 -1 #SUP: 3
