9 -1 #SUP: 4
19 -1 #SUP: 9
27 -1 #SUP: 2
44 -1 #SUP: 3
48 -1 #SUP: 17
50 -1 #SUP: 63
74 -1 #SUP: 2
81 -1 #SUP: 3
91 -1 #SUP: 2
114 -1 #SUP: 3
118 -1 #SUP: 3
121 -1 #SUP: 2
122 -1 #SUP: 2
135 -1 #SUP: 2
148 -1 #SUP: 2
153 -1 #SUP: 3
155 -1 #SUP: 5
172 -1 #SUP: 2
173 -1 #SUP: 2
181 -1 #SUP: 2
197 -1 #SUP: 4
216 -1 #SUP: 5
225 -1 #SUP: 3
240 -1 #SUP: 4
242 -1 #SUP: 2
255 -1 #SUP: 7
262 -1 #SUP: 16
266 -1 #SUP: 2
289 -1 #SUP: 4
291 -1 #SUP: 2
307 -1 #SUP: 2
311 -1 #SUP: 2
327 -1 #SUP: 3
350 -1 #SUP: 3
411 -1 #SUP: 2
413 -1 #SUP: 3
456 -1 #SUP: 2
471 -1 #SUP: 5
498 -1 #SUP: 2
509 -1 #SUP: 2
520 -1 #SUP: 2
524 -1 #SUP: 2
530 -1 #SUP: 2
550 -1 #SUP: 2
595 -1 #SUP: 4
670 -1 #SUP: 4
680 -1 #SUP: 2
746 -1 #SUP: 2
809 -1 #SUP: 2
903 -1 #SUP: 2
967 -1 #SUP: 2
975 -1 #SUP: 2
993 -1 #SUP: 4
1005 -1 #SUP: 2
1150 -1 #SUP: 2
1252 -1 #SUP: 2
1392 -1 #SUP: 2
1439 -1 #SUP: 2
1538 -1 #SUP: 2
1645 -1 #SUP: 2
1692 -1 #SUP: 3
1801 -1 #SUP: 2
1862 -1 #SUP: 2
1928 -1 #SUP: 2
2127 -1 #SUP: 3
2331 -1 #SUP: 2
2531 -1 #SUP: 3
2532 -1 #SUP: 3
2566 -1 #SUP: 2
2745 -1 #SUP: 2
2866 -1 #SUP: 2
2894 -1 #SUP: 2
3274 -1 #SUP: 4
3684 -1 #SUP: 2
3686 -1 #SUP: 2
4912 -1 #SUP: 2
5100 -1 #SUP: 2
5990 -1 #SUP: 2
10147 -1 #SUP: 2
13290 -1 #SUP: 2
18989 -1 #SUP: 2
19927 -1 #SUP: 2
28175 -1 #SUP: 5
57398 -1 #SUP: 2
119604 -1 #SUP: 4
19 -1 19 -1 #SUP: 5
19 -1 670 -1 #SUP: 3
48 -1 48 -1 #SUP: 3
48 -1 50 -1 #SUP: 7
48 -1 255 -1 #SUP: 2
48 -1 289 -1 #SUP: 2
48 -1 28175 -1 #SUP: 2
50 -1 19 -1 #SUP: 2
50 -1 48 -1 #SUP: 8
50 -1 50 -1 #SUP: 15
50 -1 114 -1 #SUP: 2
50 -1 118 -1 #SUP: 3
50 -1 153 -1 #SUP: 3
50 -1 197 -1 #SUP: 2
50 -1 240 -1 #SUP: 2
50 -1 255 -1 #SUP: 2
50 -1 262 -1 #SUP: 5
50 -1 289 -1 #SUP: 2
50 -1 471 -1 #SUP: 2
50 -1 993 -1 #SUP: 2
50 -1 1538 -1 #SUP: 2
50 -1 1862 -1 #SUP: 2
50 -1 1928 -1 #SUP: 2
50 -1 2127 -1 #SUP: 3
50 -1 18989 -1 #SUP: 2
50 -1 19927 -1 #SUP: 2
50 -1 57398 -1 #SUP: 2
91 -1 155 -1 #SUP: 2
216 -1 50 -1 #SUP: 2
216 -1 262 -1 #SUP: 2
240 -1 50 -1 #SUP: 4
255 -1 50 -1 #SUP: 5
262 -1 50 -1 #SUP: 3
262 -1 197 -1 #SUP: 2
262 -1 240 -1 #SUP: 2
289 -1 50 -1 #SUP: 2
413 -1 50 -1 #SUP: 2
595 -1 595 -1 #SUP: 2
670 -1 670 -1 #SUP: 3
993 -1 50 -1 #SUP: 2
1150 -1 2531 -1 #SUP: 2
1150 -1 2532 -1 #SUP: 2
1150 -1 3274 -1 #SUP: 2
1439 -1 50 -1 #SUP: 2
2531 -1 2532 -1 #SUP: 3
2531 -1 3274 -1 #SUP: 2
2532 -1 3274 -1 #SUP: 2
2866 -1 50 -1 #SUP: 2
13290 -1 50 -1 #SUP: 2
19927 -1 50 -1 #SUP: 2
28175 -1 307 -1 #SUP: 2
119604 -1 1150 -1 #SUP: 2
119604 -1 2531 -1 #SUP: 2
119604 -1 2532 -1 #SUP: 2
119604 -1 3274 -1 #SUP: 2
119604 -1 119604 -1 #SUP: 2
19 -1 19 -1 19 -1 #SUP: 3
19 -1 19 -1 670 -1 #SUP: 3
19 -1 670 -1 670 -1 #SUP: 3
48 -1 50 -1 48 -1 #SUP: 3
50 -1 19 -1 19 -1 #SUP: 2
50 -1 48 -1 50 -1 #SUP: 3
50 -1 48 -1 289 -1 #SUP: 2
50 -1 50 -1 50 -1 #SUP: 2
50 -1 50 -1 153 -1 #SUP: 2
50 -1 50 -1 262 -1 #SUP: 2
50 -1 240 -1 50 -1 #SUP: 2
50 -1 262 -1 197 -1 #SUP: 2
50 -1 19927 -1 50 -1 #SUP: 2
255 -1 50 -1 50 -1 #SUP: 2
262 -1 50 -1 50 -1 #SUP: 3
262 -1 50 -1 240 -1 #SUP: 2
262 -1 240 -1 50 -1 #SUP: 2
670 -1 670 -1 670 -1 #SUP: 2
993 -1 50 -1 50 -1 #SUP: 2
1150 -1 2531 -1 2532 -1 #SUP: 2
1150 -1 2531 -1 3274 -1 #SUP: 2
1150 -1 2532 -1 3274 -1 #SUP: 2
2531 -1 2532 -1 3274 -1 #SUP: 2
119604 -1 1150 -1 2531 -1 #SUP: 2
119604 -1 1150 -1 2532 -1 #SUP: 2
119604 -1 1150 -1 3274 -1 #SUP: 2
119604 -1 2531 -1 2532 -1 #SUP: 2
119604 -1 2531 -1 3274 -1 #SUP: 2
119604 -1 2532 -1 3274 -1 #SUP: 2
119604 -1 119604 -1 1150 -1 #SUP: 2
119604 -1 119604 -1 2531 -1 #SUP: 2
119604 -1 119604 -1 2532 -1 #SUP: 2
119604 -1 119604 -1 3274 -1 #SUP: 2
19 -1 19 -1 19 -1 19 -1 #SUP: 2
19 -1 19 -1 19 -1 670 -1 #SUP: 3
19 -1 19 -1 670 -1 670 -1 #SUP: 3
19 -1 670 -1 670 -1 670 -1 #SUP: 2
262 -1 50 -1 240 -1 50 -1 #SUP: 2
1150 -1 2531 -1 2532 -1 3274 -1 #SUP: 2
119604 -1 1150 -1 2531 -1 2532 -1 #SUP: 2
119604 -1 1150 -1 2531 -1 3274 -1 #SUP: 2
119604 -1 1150 -1 2532 -1 3274 -1 #SUP: 2
119604 -1 2531 -1 2532 -1 3274 -1 #SUP: 2
119604 -1 119604 -1 1150 -1 2531 -1 #SUP: 2
119604 -1 119604 -1 1150 -1 2532 -1 #SUP: 2
119604 -1 119604 -1 1150 -1 3274 -1 #SUP: 2
119604 -1 119604 -1 2531 -1 2532 -1 #SUP: 2
119604 -1 119604 -1 2531 -1 3274 -1 #SUP: 2
119604 -1 119604 -1 2532 -1 3274 -1 #SUP: 2
19 -1 19 -1 19 -1 19 -1 670 -1 #SUP: 2
19 -1 19 -1 19 -1 670 -1 670 -1 #SUP: 3
19 -1 19 -1 670 -1 670 -1 670 -1 #SUP: 2
119604 -1 1150 -1 2531 -1 2532 -1 3274 -1 #SUP: 2
119604 -1 119604 -1 1150 -1 2531 -1 2532 -1 #SUP: 2
119604 -1 119604 -1 1150 -1 2531 -1 3274 -1 #SUP: 2
119604 -1 119604 -1 1150 -1 2532 -1 3274 -1 #SUP: 2
119604 -1 119604 -1 2531 -1 2532 -1 3274 -1 #SUP: 2
19 -1 19 -1 19 -1 19 -1 670 -1 670 -1 #SUP: 2
19 -1 19 -1 19 -1 670 -1 670 -1 670 -1 #SUP: 2
119604 -1 119604 -1 1150 -1 2531 -1 2532 -1 3274 -1 #SUP: 2
19 -1 19 -1 19 -1 19 -1 670 -1 670 -1 670 -1 #SUP: 2
