1017 -1 10613 -1 4563 -1 155 -1 118 -1 1557 -1 3433 -1 361 -1 167 -1 114 -1 19 -2
1650 -1 48 -1 2803 -1 4162 -1 582 -1 155 -1 19 -2
1115 -1 378 -1 8695 -1 65196 -1 43211 -1 19985 -1 6477 -1 13362 -1 9330 -1 7036 -1 5993 -1 4372 -1 19 -2
1048 -1 121 -1 738 -1 19 -2
31460 -1 91 -1 197 -1 48 -1 502 -1 19 -2
1377 -1 4766 -1 157 -1 48 -1 240 -1 1103 -1 297 -1 33 -1 1455 -1 3240 -1 1912 -1 19 -2
17869 -1 2665 -1 2286 -1 196 -2
2156 -1 648 -1 582 -1 1228 -1 1259 -1 1 -2
2045 -1 1892 -1 1 -2
262 -1 4715 -1 18552 -1 19 -2
1969 -1 2349 -1 19 -2
508 -1 255 -1 2576 -1 118 -1 19 -2
2156 -1 118 -1 122 -1 19 -2
74 -1 792 -1 22062 -1 19 -2
466 -1 744 -1 1 -2
311 -1 1227 -1 33 -1 19 -2
1962 -1 116 -1 17418 -1 22135 -1 1076 -1 17350 -1 466 -1 1578 -1 48 -1 1228 -1 5876 -1 1392 -1 33 -1 19 -1 19 -1 19 -2
685 -1 735 -1 752 -1 54 -1 19 -2
262 -1 42 -1 1136 -1 49 -1 121 -1 957 -1 523 -1 240 -1 197 -1 19 -2
685 -1 605 -1 19 -2
48 -1 3686 -1 19 -2
117 -1 1610 -1 5184 -1 3355 -1 19 -2
8288 -1 1220 -1 772 -1 461 -1 306 -1 291 -1 19 -2
1111 -1 168 -1 19 -2
2929 -1 471 -1 1674 -1 1140 -1 197 -1 3734 -1 155 -1 19 -2
390 -1 2401 -1 5471 -1 520 -1 1674 -1 1140 -1 413 -1 615 -1 19 -2
1156 -1 257 -1 19 -2
9113 -1 4260 -1 262 -1 1494 -1 311 -1 121 -1 1674 -1 29 -1 291 -1 197 -1 48 -1 3603 -1 19 -2
19 -2
8221 -1 535 -1 3 -1 19 -2
6726 -1 4154 -1 1553 -1 126 -1 127 -1 27863 -1 133881 -1 1929 -1 7717 -1 14484 -1 14485 -1 6900 -1 25772 -1 133880 -1 5993 -1 18112 -1 2390 -1 48 -1 5993 -1 1029 -1 1110 -1 920 -1 133882 -1 19 -2
67712 -1 6598 -1 2929 -1 157 -1 114 -1 113 -1 1538 -1 5266 -1 801 -1 1904 -1 1 -2
1377 -1 1121 -1 1200 -1 19 -2
407 -1 2652 -1 262 -1 255 -1 2062 -1 3224 -1 331 -1 1121 -1 48 -1 255 -1 2062 -1 19 -2
1537 -1 780 -1 21497 -1 19708 -1 3446 -1 1047 -1 4783 -1 1276 -1 5708 -1 1 -2
21497 -1 1650 -1 1673 -1 9240 -1 2900 -1 50 -1 9240 -1 9090 -1 29061 -1 133883 -1 19 -2
2388 -1 615 -1 19 -2
262 -1 506 -1 197 -1 17227 -1 49 -1 77917 -1 19 -2
670 -1 1962 -1 1076 -1 133884 -1 133885 -1 1076 -1 165 -1 181 -1 19 -2
498 -1 19 -2
19 -2
685 -1 1426 -1 23537 -1 19 -2
685 -1 19 -2
133886 -1 18219 -1 412 -1 122 -1 10723 -1 9328 -1 50 -1 42669 -1 3158 -1 19 -2
1228 -1 500 -1 4783 -1 5708 -1 350 -1 5901 -1 1 -2
35619 -1 7 -1 26356 -1 1678 -1 17115 -1 30 -1 26357 -1 157 -1 35621 -1 487 -1 35620 -1 1675 -1 26356 -1 378 -1 19 -2
36 -1 13639 -1 348 -1 814 -1 413 -1 255 -1 3274 -1 18938 -1 288 -1 2569 -1 19 -2
262 -1 506 -1 2318 -1 50 -1 773 -1 2485 -1 3747 -1 6357 -1 54817 -1 15016 -1 11316 -1 19 -2
2499 -1 255 -1 1 -2
12011 -1 5158 -1 1 -2
113 -1 3274 -1 1 -2
883 -1 157 -1 47 -1 1405 -1 14879 -1 38692 -1 2929 -1 638 -1 534 -1 2446 -1 1453 -1 12621 -1 19 -2
157 -1 48 -1 1928 -1 19 -2
19 -2
1019 -1 813 -1 19 -2
2757 -1 25787 -1 3410 -1 306 -1 10906 -1 1360 -1 315 -1 18041 -1 262 -1 506 -1 1645 -1 3797 -1 19 -2
262 -1 5411 -1 5340 -1 19 -2
1255 -1 6391 -1 597 -1 133887 -1 19 -2
3797 -1 19 -2
133888 -1 3797 -1 14500 -1 1956 -1 6890 -1 19 -2
95 -1 48 -1 1509 -1 91 -1 670 -1 742 -1 1392 -1 33 -1 2916 -1 56018 -1 785 -1 1998 -1 849 -1 3797 -1 19 -2
670 -1 1137 -1 1229 -1 1228 -1 471 -1 5356 -1 155 -1 48 -1 3433 -1 1225 -1 19 -2
2062 -1 19 -2
785 -1 2929 -1 19 -2
1538 -1 602 -1 1125 -1 3 -1 48 -1 951 -1 2565 -1 4165 -1 3357 -1 19 -2
19 -2
752 -1 26281 -1 1991 -1 15070 -1 19 -2
48 -1 2116 -1 1760 -1 849 -1 1793 -1 7104 -1 1272 -1 1387 -1 511 -1 516 -1 1228 -1 197 -1 3535 -1 307 -1 1 -2
3 -1 1675 -1 48 -1 1387 -1 19 -2
405 -1 19 -2
407 -1 471 -1 846 -1 19 -2
471 -1 1 -2
255 -1 8368 -1 471 -1 1 -2
1645 -1 4181 -1 19 -2
282 -1 19 -2
1537 -1 50 -1 2732 -1 1387 -1 19 -2
3722 -1 1228 -1 4609 -1 8497 -1 29807 -1 329 -1 7836 -1 3589 -1 3546 -1 167 -1 114 -1 19 -2
10439 -1 6897 -1 51 -1 74 -1 767 -1 19 -2
1137 -1 390 -1 157 -1 48 -1 9202 -1 69870 -1 535 -1 48 -1 155 -1 1229 -1 95907 -1 2780 -1 19 -2
498 -1 2775 -1 311 -1 1227 -1 75 -1 2757 -1 262 -1 3 -1 7998 -1 2929 -1 19 -2
512 -1 1692 -1 3075 -1 2882 -1 3361 -1 4859 -1 5246 -1 19 -2
48 -1 523 -1 2655 -1 48934 -1 263 -1 19 -2
262 -1 2929 -1 19 -2
677 -1 1 -2
85839 -1 1272 -1 155 -1 1 -2
173 -1 19 -1 875 -1 1 -2
225 -1 19 -1 1272 -1 1 -2
449 -1 19 -1 5783 -1 155 -1 1113 -1 1 -2
2929 -1 3687 -1 849 -1 853 -1 19 -2
321 -1 1803 -1 306 -1 19 -2
752 -1 167 -1 115 -1 1777 -1 1 -2
9439 -1 1603 -1 7750 -1 7007 -1 306 -1 19 -2
172 -1 19 -1 13961 -1 21 -1 19 -2
685 -1 1112 -1 173 -1 19 -1 1265 -1 153 -1 407 -1 702 -1 8357 -1 2663 -1 2663 -1 8357 -1 702 -1 19 -2
225 -1 19 -1 262 -1 853 -1 523 -1 4639 -1 19 -2
50 -1 289 -1 2127 -1 950 -1 19 -2
8486 -1 197 -1 317 -1 5862 -1 1612 -1 7700 -1 2755 -1 19 -2
48 -1 8805 -1 55 -1 19 -2
306 -1 91 -1 1519 -1 471 -1 381 -1 1212 -1 1519 -1 471 -1 19 -2
471 -1 5078 -1 2127 -1 1 -2
1482 -1 583 -1 6631 -1 685 -1 2398 -1 7571 -1 13639 -1 348 -1 814 -1 19 -2
2929 -1 167 -1 114 -1 2103 -1 2027 -1 4241 -1 74 -1 1816 -1 1814 -1 1910 -1 121 -1 19 -2
49 -1 19 -2