4 -1 #SUP: 2
5 -1 #SUP: 16
9 -1 #SUP: 2
17 -1 #SUP: 16
18 -1 #SUP: 16
21 -1 #SUP: 2
27 -1 #SUP: 6
33 -1 #SUP: 2
42 -1 #SUP: 2
47 -1 #SUP: 4
48 -1 #SUP: 6
49 -1 #SUP: 3
50 -1 #SUP: 81
66 -1 #SUP: 2
91 -1 #SUP: 8
117 -1 #SUP: 4
118 -1 #SUP: 7
122 -1 #SUP: 2
144 -1 #SUP: 2
148 -1 #SUP: 2
149 -1 #SUP: 2
153 -1 #SUP: 2
155 -1 #SUP: 3
214 -1 #SUP: 2
240 -1 #SUP: 4
255 -1 #SUP: 10
262 -1 #SUP: 7
267 -1 #SUP: 3
271 -1 #SUP: 3
278 -1 #SUP: 5
287 -1 #SUP: 2
299 -1 #SUP: 3
363 -1 #SUP: 2
378 -1 #SUP: 2
408 -1 #SUP: 2
412 -1 #SUP: 2
413 -1 #SUP: 3
420 -1 #SUP: 2
471 -1 #SUP: 3
504 -1 #SUP: 2
506 -1 #SUP: 2
507 -1 #SUP: 5
508 -1 #SUP: 3
509 -1 #SUP: 2
520 -1 #SUP: 5
523 -1 #SUP: 2
564 -1 #SUP: 2
582 -1 #SUP: 2
600 -1 #SUP: 3
602 -1 #SUP: 2
659 -1 #SUP: 3
748 -1 #SUP: 3
752 -1 #SUP: 2
773 -1 #SUP: 3
792 -1 #SUP: 2
810 -1 #SUP: 3
849 -1 #SUP: 2
852 -1 #SUP: 2
875 -1 #SUP: 2
914 -1 #SUP: 4
953 -1 #SUP: 2
967 -1 #SUP: 2
1018 -1 #SUP: 5
1019 -1 #SUP: 3
1023 -1 #SUP: 2
1024 -1 #SUP: 2
1125 -1 #SUP: 2
1151 -1 #SUP: 5
1246 -1 #SUP: 6
1377 -1 #SUP: 4
1395 -1 #SUP: 2
1494 -1 #SUP: 2
1538 -1 #SUP: 11
1612 -1 #SUP: 2
1645 -1 #SUP: 2
1690 -1 #SUP: 2
1692 -1 #SUP: 2
1793 -1 #SUP: 2
1849 -1 #SUP: 2
1928 -1 #SUP: 2
2113 -1 #SUP: 2
2495 -1 #SUP: 2
2552 -1 #SUP: 2
2705 -1 #SUP: 2
2810 -1 #SUP: 3
3273 -1 #SUP: 2
3984 -1 #SUP: 2
4882 -1 #SUP: 2
5376 -1 #SUP: 2
5703 -1 #SUP: 2
12552 -1 #SUP: 2
12609 -1 #SUP: 2
31344 -1 #SUP: 2
5 -1 5 -1 #SUP: 3
5 -1 17 -1 #SUP: 13
5 -1 18 -1 #SUP: 13
5 -1 50 -1 #SUP: 5
5 -1 262 -1 #SUP: 2
5 -1 5703 -1 #SUP: 2
17 -1 5 -1 #SUP: 3
17 -1 17 -1 #SUP: 3
17 -1 18 -1 #SUP: 3
17 -1 50 -1 #SUP: 5
17 -1 255 -1 #SUP: 2
17 -1 262 -1 #SUP: 2
17 -1 914 -1 #SUP: 2
17 -1 5703 -1 #SUP: 2
18 -1 5 -1 #SUP: 3
18 -1 17 -1 #SUP: 13
18 -1 18 -1 #SUP: 3
18 -1 50 -1 #SUP: 5
18 -1 262 -1 #SUP: 2
18 -1 914 -1 #SUP: 2
18 -1 5703 -1 #SUP: 2
42 -1 50 -1 #SUP: 2
47 -1 50 -1 #SUP: 2
48 -1 278 -1 #SUP: 2
49 -1 520 -1 #SUP: 2
50 -1 27 -1 #SUP: 2
50 -1 48 -1 #SUP: 4
50 -1 50 -1 #SUP: 23
50 -1 91 -1 #SUP: 2
50 -1 118 -1 #SUP: 4
50 -1 148 -1 #SUP: 2
50 -1 149 -1 #SUP: 2
50 -1 155 -1 #SUP: 3
50 -1 255 -1 #SUP: 5
50 -1 262 -1 #SUP: 2
50 -1 267 -1 #SUP: 2
50 -1 271 -1 #SUP: 2
50 -1 278 -1 #SUP: 2
50 -1 299 -1 #SUP: 2
50 -1 363 -1 #SUP: 2
50 -1 413 -1 #SUP: 2
50 -1 471 -1 #SUP: 3
50 -1 504 -1 #SUP: 2
50 -1 507 -1 #SUP: 2
50 -1 508 -1 #SUP: 2
50 -1 520 -1 #SUP: 2
50 -1 602 -1 #SUP: 2
50 -1 748 -1 #SUP: 2
50 -1 752 -1 #SUP: 2
50 -1 773 -1 #SUP: 2
50 -1 852 -1 #SUP: 2
50 -1 953 -1 #SUP: 2
50 -1 1018 -1 #SUP: 3
50 -1 1023 -1 #SUP: 2
50 -1 1151 -1 #SUP: 2
50 -1 1246 -1 #SUP: 2
50 -1 1377 -1 #SUP: 3
50 -1 1538 -1 #SUP: 6
50 -1 1692 -1 #SUP: 2
50 -1 1793 -1 #SUP: 2
50 -1 2495 -1 #SUP: 2
50 -1 2810 -1 #SUP: 2
50 -1 5376 -1 #SUP: 2
50 -1 31344 -1 #SUP: 2
91 -1 50 -1 #SUP: 3
91 -1 91 -1 #SUP: 2
91 -1 849 -1 #SUP: 2
91 -1 1538 -1 #SUP: 2
118 -1 50 -1 #SUP: 4
153 -1 50 -1 #SUP: 2
240 -1 50 -1 #SUP: 2
240 -1 91 -1 #SUP: 2
240 -1 1538 -1 #SUP: 2
255 -1 50 -1 #SUP: 3
255 -1 262 -1 #SUP: 2
255 -1 1494 -1 #SUP: 2
262 -1 50 -1 #SUP: 2
262 -1 810 -1 #SUP: 2
267 -1 50 -1 #SUP: 2
271 -1 50 -1 #SUP: 2
278 -1 50 -1 #SUP: 3
287 -1 50 -1 #SUP: 2
299 -1 50 -1 #SUP: 2
378 -1 50 -1 #SUP: 2
412 -1 50 -1 #SUP: 2
412 -1 852 -1 #SUP: 2
413 -1 50 -1 #SUP: 2
471 -1 50 -1 #SUP: 3
504 -1 50 -1 #SUP: 2
507 -1 4882 -1 #SUP: 2
508 -1 255 -1 #SUP: 2
602 -1 50 -1 #SUP: 2
659 -1 50 -1 #SUP: 2
748 -1 50 -1 #SUP: 2
748 -1 299 -1 #SUP: 2
792 -1 50 -1 #SUP: 2
810 -1 50 -1 #SUP: 2
914 -1 50 -1 #SUP: 3
953 -1 50 -1 #SUP: 2
967 -1 50 -1 #SUP: 2
1018 -1 50 -1 #SUP: 3
1018 -1 299 -1 #SUP: 2
1019 -1 50 -1 #SUP: 3
1151 -1 50 -1 #SUP: 4
1151 -1 1018 -1 #SUP: 2
1246 -1 50 -1 #SUP: 2
1246 -1 520 -1 #SUP: 2
1377 -1 50 -1 #SUP: 2
1538 -1 50 -1 #SUP: 4
1538 -1 255 -1 #SUP: 4
1538 -1 262 -1 #SUP: 2
1612 -1 2810 -1 #SUP: 2
1692 -1 1538 -1 #SUP: 2
3273 -1 50 -1 #SUP: 2
3273 -1 1377 -1 #SUP: 2
5376 -1 50 -1 #SUP: 2
31344 -1 50 -1 #SUP: 2
31344 -1 5376 -1 #SUP: 2
5 -1 5 -1 17 -1 #SUP: 3
5 -1 5 -1 18 -1 #SUP: 3
5 -1 17 -1 5 -1 #SUP: 3
5 -1 17 -1 17 -1 #SUP: 3
5 -1 17 -1 18 -1 #SUP: 3
5 -1 17 -1 50 -1 #SUP: 5
5 -1 17 -1 262 -1 #SUP: 2
5 -1 17 -1 5703 -1 #SUP: 2
5 -1 18 -1 5 -1 #SUP: 3
5 -1 18 -1 17 -1 #SUP: 13
5 -1 18 -1 18 -1 #SUP: 3
5 -1 18 -1 50 -1 #SUP: 5
5 -1 18 -1 262 -1 #SUP: 2
5 -1 18 -1 5703 -1 #SUP: 2
17 -1 5 -1 17 -1 #SUP: 3
17 -1 5 -1 18 -1 #SUP: 3
17 -1 18 -1 17 -1 #SUP: 3
17 -1 50 -1 50 -1 #SUP: 2
17 -1 914 -1 50 -1 #SUP: 2
18 -1 5 -1 17 -1 #SUP: 3
18 -1 5 -1 18 -1 #SUP: 3
18 -1 17 -1 5 -1 #SUP: 3
18 -1 17 -1 17 -1 #SUP: 3
18 -1 17 -1 18 -1 #SUP: 3
18 -1 17 -1 50 -1 #SUP: 5
18 -1 17 -1 262 -1 #SUP: 2
18 -1 17 -1 914 -1 #SUP: 2
18 -1 17 -1 5703 -1 #SUP: 2
18 -1 18 -1 17 -1 #SUP: 3
18 -1 50 -1 50 -1 #SUP: 2
47 -1 50 -1 50 -1 #SUP: 2
50 -1 50 -1 48 -1 #SUP: 2
50 -1 50 -1 50 -1 #SUP: 6
50 -1 50 -1 148 -1 #SUP: 2
50 -1 50 -1 255 -1 #SUP: 4
50 -1 50 -1 262 -1 #SUP: 2
50 -1 50 -1 508 -1 #SUP: 2
50 -1 50 -1 953 -1 #SUP: 2
50 -1 50 -1 1538 -1 #SUP: 3
50 -1 50 -1 1692 -1 #SUP: 2
50 -1 50 -1 1793 -1 #SUP: 2
50 -1 50 -1 2495 -1 #SUP: 2
50 -1 50 -1 5376 -1 #SUP: 2
50 -1 50 -1 31344 -1 #SUP: 2
50 -1 118 -1 50 -1 #SUP: 2
50 -1 255 -1 50 -1 #SUP: 2
50 -1 267 -1 50 -1 #SUP: 2
50 -1 413 -1 50 -1 #SUP: 2
50 -1 471 -1 50 -1 #SUP: 2
50 -1 508 -1 255 -1 #SUP: 2
50 -1 602 -1 50 -1 #SUP: 2
50 -1 1377 -1 50 -1 #SUP: 2
50 -1 1538 -1 50 -1 #SUP: 3
50 -1 1692 -1 1538 -1 #SUP: 2
50 -1 5376 -1 50 -1 #SUP: 2
50 -1 31344 -1 50 -1 #SUP: 2
50 -1 31344 -1 5376 -1 #SUP: 2
91 -1 50 -1 50 -1 #SUP: 3
118 -1 50 -1 50 -1 #SUP: 2
240 -1 50 -1 50 -1 #SUP: 2
240 -1 91 -1 50 -1 #SUP: 2
287 -1 50 -1 50 -1 #SUP: 2
412 -1 50 -1 852 -1 #SUP: 2
914 -1 50 -1 50 -1 #SUP: 2
967 -1 50 -1 50 -1 #SUP: 2
1151 -1 50 -1 50 -1 #SUP: 3
1151 -1 1018 -1 50 -1 #SUP: 2
1538 -1 255 -1 262 -1 #SUP: 2
3273 -1 50 -1 1377 -1 #SUP: 2
31344 -1 5376 -1 50 -1 #SUP: 2
5 -1 5 -1 18 -1 17 -1 #SUP: 3
5 -1 17 -1 5 -1 17 -1 #SUP: 3
5 -1 17 -1 5 -1 18 -1 #SUP: 3
5 -1 17 -1 18 -1 17 -1 #SUP: 3
5 -1 18 -1 5 -1 17 -1 #SUP: 3
5 -1 18 -1 5 -1 18 -1 #SUP: 3
5 -1 18 -1 17 -1 5 -1 #SUP: 3
5 -1 18 -1 17 -1 17 -1 #SUP: 3
5 -1 18 -1 17 -1 18 -1 #SUP: 3
5 -1 18 -1 17 -1 50 -1 #SUP: 5
5 -1 18 -1 17 -1 262 -1 #SUP: 2
5 -1 18 -1 17 -1 5703 -1 #SUP: 2
5 -1 18 -1 18 -1 17 -1 #SUP: 3
17 -1 5 -1 18 -1 17 -1 #SUP: 3
18 -1 5 -1 18 -1 17 -1 #SUP: 3
18 -1 17 -1 5 -1 17 -1 #SUP: 3
18 -1 17 -1 5 -1 18 -1 #SUP: 3
18 -1 17 -1 18 -1 17 -1 #SUP: 3
18 -1 17 -1 50 -1 50 -1 #SUP: 2
50 -1 50 -1 50 -1 50 -1 #SUP: 3
50 -1 50 -1 50 -1 5376 -1 #SUP: 2
50 -1 50 -1 50 -1 31344 -1 #SUP: 2
50 -1 50 -1 508 -1 255 -1 #SUP: 2
50 -1 50 -1 5376 -1 50 -1 #SUP: 2
50 -1 50 -1 31344 -1 50 -1 #SUP: 2
50 -1 50 -1 31344 -1 5376 -1 #SUP: 2
50 -1 31344 -1 5376 -1 50 -1 #SUP: 2
240 -1 91 -1 50 -1 50 -1 #SUP: 2
5 -1 17 -1 5 -1 18 -1 17 -1 #SUP: 3
5 -1 18 -1 5 -1 18 -1 17 -1 #SUP: 3
5 -1 18 -1 17 -1 5 -1 17 -1 #SUP: 3
5 -1 18 -1 17 -1 5 -1 18 -1 #SUP: 3
5 -1 18 -1 17 -1 18 -1 17 -1 #SUP: 3
18 -1 17 -1 5 -1 18 -1 17 -1 #SUP: 3
50 -1 50 -1 50 -1 31344 -1 5376 -1 #SUP: 2
50 -1 50 -1 31344 -1 5376 -1 50 -1 #SUP: 2
5 -1 18 -1 17 -1 5 -1 18 -1 17 -1 #SUP: 3
