1675 -1 50 -1 5876 -1 216 -1 451 -1 19 -2
155 -1 116 -1 530 -1 221 -1 50 -1 390 -1 155 -1 407 -1 19 -2
2368 -1 3295 -1 2321 -1 19 -2
94663 -1 2368 -1 172 -1 2834 -1 19 -2
6 -1 18 -1 17 -1 98894 -1 488 -1 7 -1 6523 -1 121 -1 7216 -1 934 -1 50 -1 7483 -1 242 -1 98893 -1 1757 -1 6523 -1 1746 -1 1975 -1 19 -2
388 -1 1140 -2
98896 -1 98895 -1 1 -2
7 -1 50 -1 680 -1 19 -2
167 -1 352 -1 365 -1 50 -1 685 -1 666 -1 19 -2
411 -1 50 -1 75 -1 19 -2
1482 -1 597 -1 19 -2
53 -1 3114 -1 5070 -1 316 -1 3626 -1 19 -2
7463 -1 1015 -1 522 -1 50 -1 96 -1 559 -1 29565 -1 3496 -1 3429 -1 19 -2
30 -1 167 -1 1405 -1 2708 -1 766 -1 48 -1 2371 -1 3320 -1 33 -1 3776 -1 114 -1 148 -1 1757 -1 476 -1 167 -1 934 -1 50 -1 1016 -1 953 -1 1426 -1 6 -1 18 -1 17 -1 670 -1 98897 -1 75 -1 19 -2
314 -1 5830 -1 53 -1 2803 -1 41976 -1 2780 -1 624 -1 3439 -1 19 -2
809 -1 122 -1 49 -1 19 -2
2751 -1 6 -1 18 -1 17 -1 98898 -1 1 -2
48 -1 773 -1 3075 -1 3119 -1 98899 -1 19 -2
2378 -1 2147 -1 9807 -1 19 -2
692 -1 50 -1 155 -1 113 -1 81460 -1 535 -1 19 -2
50 -1 8795 -1 19 -2
1585 -1 4570 -1 19 -2
1137 -1 8841 -1 1094 -1 561 -1 1 -2
98900 -1 242 -1 50 -1 8841 -1 1094 -1 19 -2
736 -1 8841 -1 1094 -1 1 -2
91 -1 197 -1 19 -2
1757 -1 1111 -1 116 -1 7032 -1 1274 -1 5015 -1 50 -1 2960 -1 894 -1 3355 -1 19 -2
121 -1 2647 -1 6456 -1 50 -1 96 -1 184 -1 2555 -1 122 -1 411 -1 19 -2
1432 -1 1780 -1 5015 -1 167 -1 3330 -1 50 -1 362 -1 1973 -1 93082 -1 1 -2
773 -1 2139 -1 52618 -1 883 -1 760 -1 1688 -1 352 -1 50 -1 312 -1 352 -1 10906 -1 1228 -1 93082 -1 19 -2
19 -2
6456 -1 33 -1 2647 -1 3693 -1 1 -2
2044 -1 2934 -1 411 -1 19 -2
2098 -1 19 -2
1645 -1 2750 -1 3949 -1 19 -2
2 -1 4651 -1 2279 -1 33596 -1 19 -2
202 -1 50 -1 600 -1 3414 -1 2982 -1 42474 -1 2 -1 173 -1 97 -1 2284 -1 19 -2
656 -1 81 -1 50 -1 2034 -1 19 -2
12543 -1 41976 -1 2780 -1 19 -2
6 -1 18 -1 17 -1 98902 -1 6 -1 18 -1 17 -1 98901 -1 40449 -1 122 -1 6359 -1 19 -2
1137 -1 181 -1 759 -1 1265 -1 3135 -1 263 -1 4017 -1 363 -1 19 -2
2904 -1 50 -1 1692 -1 849 -1 6509 -1 19 -2
91 -1 15287 -1 736 -1 48 -1 19 -2
773 -1 4959 -1 4668 -1 26789 -1 67 -1 466 -1 27 -1 259 -1 19 -2
411 -1 19 -2
75 -1 25 -1 19 -2
8311 -1 4700 -1 3724 -1 7310 -1 19 -2
3128 -1 19 -2
153 -1 7136 -1 1588 -1 98903 -1 223 -1 8253 -1 33 -1 1 -2
98904 -1 276 -1 19 -2
242 -1 338 -1 19 -2
3451 -1 5889 -1 153 -1 19 -2
26751 -1 411 -1 19 -2
498 -1 50 -1 622 -1 4270 -1 1 -2
98906 -1 15790 -1 98905 -1 7370 -1 19 -2
74630 -1 98912 -1 98920 -1 98921 -1 98919 -1 276 -1 98908 -1 98908 -1 173 -1 16199 -1 98914 -1 98917 -1 2228 -1 98913 -1 3179 -1 172 -1 173 -1 225 -1 449 -1 8906 -1 1004 -1 98918 -1 116 -1 98915 -1 3179 -1 98909 -1 98907 -1 98916 -1 55583 -1 98911 -1 98910 -1 19 -2
12916 -1 98925 -1 98923 -1 40848 -1 98922 -1 98917 -1 2228 -1 262 -1 98924 -1 19 -2
488 -1 50 -1 2170 -1 19 -2
498 -1 50 -1 1011 -1 1574 -1 365 -1 767 -1 50 -1 652 -1 12103 -1 148 -1 502 -1 1294 -1 489 -1 1 -2
118 -1 489 -1 3305 -1 5634 -1 19 -2
2882 -1 512 -1 6788 -1 1 -2
2882 -1 3416 -1 5593 -1 6014 -1 506 -1 19 -2
1415 -1 109 -1 1059 -1 1227 -1 1 -2
50 -1 242 -1 1557 -1 1879 -1 1645 -1 389 -1 1019 -1 50 -1 411 -1 19 -2
403 -1 3112 -1 19 -2
278 -1 329 -1 19 -2
286 -1 2591 -1 2331 -1 1061 -1 4229 -1 526 -1 19 -2
4229 -1 595 -1 19 -2
752 -1 4244 -1 1059 -1 3001 -1 993 -1 19 -2
352 -1 242 -1 1200 -1 299 -1 50 -1 242 -1 1725 -1 121 -1 2045 -1 19 -2
14221 -1 10640 -1 1274 -1 2343 -1 7213 -1 53803 -1 167 -1 19 -2
411 -1 19 -2
98926 -1 993 -1 1 -2
1518 -1 1 -2
498 -1 19 -2
361 -1 19 -2
11866 -1 16179 -1 3888 -1 98927 -1 661 -1 1125 -1 21037 -1 216 -1 1 -2
216 -1 1 -2
679 -1 12152 -1 24331 -1 5148 -1 19 -2
5199 -1 249 -1 186 -1 289 -1 24331 -1 6846 -1 14221 -1 19 -2
415 -1 9791 -1 1033 -1 19 -2
5281 -1 50 -1 679 -1 5593 -1 389 -1 2689 -1 1 -2
91 -1 1950 -1 5148 -1 19 -2
4625 -1 19 -2
9295 -1 6729 -1 1130 -1 5655 -1 1950 -1 5148 -1 19 -2
1274 -1 98928 -1 255 -1 6729 -1 118 -1 5148 -1 19 -2
19 -2
498 -1 1498 -1 2143 -1 1068 -1 98929 -1 2143 -1 19 -2
197 -1 255 -1 121 -1 2443 -1 2090 -1 1753 -1 242 -1 1538 -1 602 -1 509 -1 633 -1 5048 -1 19 -2
242 -1 197 -1 1419 -1 242 -1 2127 -1 13523 -1 67 -1 810 -1 19 -2
1432 -1 2575 -1 13928 -1 792 -1 50 -1 3145 -1 9609 -1 2303 -1 19 -2
242 -1 1489 -1 155 -1 19 -2
656 -1 1076 -1 19 -2
738 -1 624 -1 634 -1 242 -1 738 -1 466 -1 1319 -1 19 -2
225 -1 449 -1 659 -1 3689 -1 19 -2
242 -1 1538 -1 1362 -1 1509 -1 1016 -1 19 -2
999 -1 50 -1 48 -1 2103 -1 19 -2
7483 -1 242 -1 6448 -1 19 -2
2196 -1 33 -1 7483 -1 242 -1 593 -1 1395 -1 509 -1 1853 -1 19 -2
550 -1 6813 -1 19 -2
2098 -1 19 -2
48 -1 507 -1 476 -1 9 -1 42505 -1 476 -1 83951 -1 1023 -1 48 -1 12152 -1 24331 -1 5148 -1 550 -1 3693 -1 2241 -1 19 -2