1061 -1 643 -1 520 -1 1 -2
12474 -1 65 -1 50 -1 1 -2
2705 -1 685 -1 14894 -1 50 -1 1198 -1 291 -1 1267 -1 1793 -1 19 -2
1040 -1 270 -1 49 -1 522 -1 19 -2
508 -1 255 -1 4179 -1 96203 -1 1263 -1 1017 -1 595 -1 19 -2
53 -1 50 -1 311 -1 47 -1 19 -2
767 -1 27 -1 50 -1 1692 -1 1484 -1 19 -2
262 -1 19 -2
656 -1 3009 -1 33540 -1 19 -2
117 -1 449 -1 1175 -1 19 -2
262 -1 993 -1 3 -1 33 -1 96204 -1 19 -2
1018 -1 19 -2
262 -1 1176 -1 50 -1 49 -1 361 -1 19 -2
2775 -1 1272 -1 122 -1 1018 -1 19 -2
643 -1 2626 -1 1777 -1 1 -2
2626 -1 1 -2
3138 -1 7 -1 425 -1 2552 -1 48 -1 1018 -1 1777 -1 595 -1 19 -2
718 -1 801 -1 3366 -1 4238 -1 1777 -1 19 -2
1061 -1 7 -1 55 -1 5797 -1 1027 -1 1141 -1 1559 -1 47 -1 55 -1 2111 -1 1149 -1 3100 -1 1 -2
760 -1 1520 -1 7 -1 494 -1 1175 -1 290 -1 19 -2
91 -1 413 -1 255 -1 327 -1 786 -1 1 -2
760 -1 1520 -1 7 -1 786 -1 5490 -1 148 -1 13194 -1 19 -2
2993 -1 494 -1 326 -1 506 -1 19 -2
66 -1 494 -1 91 -1 240 -1 50 -1 312 -1 12944 -1 169 -1 1654 -1 1 -2
2692 -1 1963 -1 270 -1 121 -1 107 -1 1 -2
692 -1 118 -1 897 -1 19 -2
91 -1 255 -1 778 -1 155 -1 262 -1 476 -1 19 -2
1483 -1 6690 -1 1990 -1 3 -1 19 -2
262 -1 2863 -1 91 -1 255 -1 9410 -1 19 -2
50 -1 91 -1 96 -1 19 -2
685 -1 4934 -1 819 -1 19 -2
1586 -1 240 -1 122 -1 881 -1 649 -1 522 -1 849 -1 393 -1 398 -1 1009 -1 19 -2
262 -1 993 -1 767 -1 766 -1 19 -2
3011 -1 1674 -1 1 -2
760 -1 1220 -1 681 -1 19 -2
91 -1 240 -1 1538 -1 19 -2
297 -1 2993 -1 196 -2
47 -1 7 -1 121 -1 504 -1 595 -1 19 -2
3011 -1 1 -2
50 -1 1692 -1 1519 -1 504 -1 274 -1 6313 -1 1 -2
2427 -1 3 -1 1 -2
413 -1 408 -1 3138 -1 605 -1 1 -2
5379 -1 1674 -1 494 -1 801 -1 19 -2
11251 -1 738 -1 299 -1 299 -1 290 -1 5379 -1 413 -1 617 -1 3500 -1 1042 -1 19 -2
748 -1 19 -2
5415 -1 1252 -1 19 -2
1071 -1 748 -1 255 -1 4596 -1 906 -1 2415 -1 22605 -1 27 -1 19 -2
107 -1 8652 -1 255 -1 2314 -1 16032 -1 196 -2
411 -1 50 -1 14902 -1 19 -2
967 -1 19 -2
154 -1 1426 -1 48 -1 361 -1 559 -1 1141 -1 50 -1 91 -1 595 -1 19 -2
1415 -1 5507 -1 115 -1 1046 -1 1 -2
11911 -1 286 -1 7117 -1 7389 -1 115 -1 297 -1 2934 -1 19 -2
685 -1 96205 -1 471 -1 10596 -1 196 -2
2602 -1 1353 -1 19 -2
1353 -1 121 -1 50 -1 255 -1 595 -1 19 -2
3366 -1 96206 -1 19927 -1 600 -1 3596 -1 271 -1 1318 -1 3129 -1 551 -1 20213 -1 17796 -1 50 -1 19 -2
1015 -1 1495 -1 19 -2
262 -1 986 -1 50 -1 4165 -1 50 -1 54 -1 955 -1 19 -2
197 -1 53 -1 49 -1 7926 -1 9 -1 19 -2
1175 -1 262 -1 3449 -1 155 -1 19 -2
9515 -1 121 -1 488 -1 1016 -1 6292 -1 19 -2
506 -1 1 -2
2304 -1 775 -1 19 -2
2867 -1 2569 -1 196 -2
255 -1 3589 -1 19 -2
3435 -1 19 -2
1176 -1 19 -2
471 -1 19 -2
3125 -1 19 -2
7797 -1 19 -2
582 -1 3589 -1 19 -2
1071 -1 511 -1 516 -1 999 -1 196 -2
271 -1 297 -1 5376 -1 1036 -1 96207 -1 6576 -1 1 -1 196 -2
95 -1 262 -1 255 -1 3589 -1 259 -1 7433 -1 118 -1 6472 -1 19 -2
411 -1 96208 -1 53 -1 50 -1 19 -2
1036 -1 471 -1 846 -1 5762 -1 50 -1 341 -1 5761 -1 50 -1 4181 -1 5152 -1 50 -1 49 -1 50 -1 778 -1 760 -1 1265 -1 114 -1 19 -2
1974 -1 1731 -1 778 -1 1 -2
19 -2
1857 -1 3920 -1 3006 -1 7516 -1 9837 -1 10696 -1 1870 -1 45936 -1 894 -1 1620 -1 471 -1 7 -1 466 -1 290 -1 2687 -1 451 -1 502 -1 209 -1 19 -2
494 -1 2113 -1 19 -2
95 -1 3119 -1 48 -1 1556 -1 33 -1 117 -1 19 -2
621 -1 19 -2
16480 -1 7275 -1 216 -1 19 -2
262 -1 1494 -1 2984 -1 9749 -1 50 -1 983 -1 3996 -1 67270 -1 19 -2
148 -1 766 -1 270 -1 407 -1 31015 -1 19 -1 19 -1 240 -1 50 -1 31 -1 2916 -1 144 -1 19 -2
142 -1 50 -1 26203 -1 19 -2
602 -1 9334 -1 19 -2
432 -1 1353 -1 19 -2
11586 -1 3053 -1 19 -2
12024 -1 1478 -1 255 -1 196 -2
6972 -1 411 -1 19 -2
993 -1 31 -1 9097 -1 3 -1 50 -1 297 -1 2934 -1 19 -2
957 -1 50 -1 19 -2
999 -1 50 -1 3189 -1 115 -1 31 -1 18874 -1 19 -2
347 -1 50 -1 117 -1 1924 -1 196 -2
698 -1 471 -1 1263 -1 4112 -1 96209 -1 196 -2
583 -1 1889 -1 1879 -1 7 -1 114 -1 117 -1 1404 -1 2049 -1 39520 -1 1067 -1 19 -2
928 -1 114 -1 559 -1 849 -1 413 -1 1455 -1 507 -1 12553 -1 1590 -1 50 -1 19 -2
255 -1 1 -2
3 -1 50 -1 1552 -1 387 -1 50 -1 1595 -1 50 -1 389 -1 6405 -1 186 -1 3357 -1 19 -2
993 -1 1682 -1 1014 -1 595 -1 5797 -1 7 -1 255 -1 19 -2
508 -1 255 -1 263 -1 34829 -1 10861 -1 96210 -1 376 -1 19 -2
567 -1 96210 -1 3776 -1 14114 -1 801 -1 96211 -1 450 -1 10144 -1 35754 -1 19 -2
255 -1 50 -1 407 -1 19 -2
197 -1 12165 -1 155 -1 383 -1 52 -1 5338 -1 19 -2
3 -1 55 -1 2536 -1 1033 -1 681 -1 1497 -1 2375 -1 2624 -1 1367 -1 19 -2
2995 -1 39354 -1 550 -1 33 -1 1 -2
10595 -1 114 -1 2178 -1 1106 -1 780 -1 19 -2
3124 -1 502 -1 52 -1 19 -2
2610 -1 1519 -1 306 -1 19 -2
411 -1 50 -1 656 -1 2397 -1 19 -2
3084 -1 50 -1 506 -1 19 -2
6855 -1 19 -2
411 -1 50 -1 656 -1 2397 -1 19 -2
3084 -1 50 -1 506 -1 19 -2
6855 -1 19 -2
240 -1 613 -1 50 -1 315 -1 39354 -1 825 -1 19 -2
2610 -1 6690 -1 1363 -1 50 -1 341 -1 2379 -1 19 -2
413 -1 621 -1 2759 -1 1845 -1 50 -1 19 -2
15084 -1 50 -1 1179 -1 1711 -1 19 -2
42 -1 50 -1 262 -1 4822 -1 7397 -1 196 -2
809 -1 306 -1 9052 -1 1246 -1 2685 -1 19 -2
1047 -1 922 -1 114 -1 1373 -1 19 -2
9503 -1 8649 -1 21605 -1 9629 -1 255 -1 288 -1 49 -1 7734 -1 7733 -1 286 -1 404 -1 792 -1 1036 -1 19 -2
656 -1 809 -1 196 -2
3716 -1 50 -1 984 -1 6662 -1 3047 -1 19232 -1 19 -2
1261 -1 196 -2
361 -1 29016 -1 1415 -1 263 -1 1 -2
7 -1 29 -1 46368 -1 6430 -1 121 -1 19 -2
19 -2
1151 -1 19 -2
50 -1 413 -1 461 -1 19 -2
2318 -1 148 -1 471 -1 2427 -1 411 -1 50 -1 65 -1 19 -2
1272 -1 3009 -1 2176 -1 581 -1 240 -1 957 -1 1719 -1 4446 -1 1267 -1 9052 -1 19 -2
7844 -1 19 -2
39520 -1 3797 -1 50 -1 125 -1 1151 -1 19 -2
1487 -1 488 -1 291 -1 196 -2
656 -1 577 -1 19173 -1 19 -2
1151 -1 615 -1 50 -1 993 -1 19 -2
1 -2
809 -1 1690 -1 196 -2
3716 -1 50 -1 643 -1 408 -1 8747 -1 96212 -1 1126 -1 4 -1 19 -2
50 -1 10955 -1 141 -1 1629 -1 752 -1 19 -2
7472 -1 50 -1 1122 -1 196 -2
197 -1 1228 -1 57480 -1 872 -1 2360 -1 432 -1 1 -2
583 -2