5 -1 #SUP: 2
6 -1 #SUP: 2
9 -1 #SUP: 3
19 -1 #SUP: 6
48 -1 #SUP: 10
49 -1 #SUP: 7
50 -1 #SUP: 45
91 -1 #SUP: 3
96 -1 #SUP: 2
117 -1 #SUP: 2
122 -1 #SUP: 4
142 -1 #SUP: 2
155 -1 #SUP: 12
172 -1 #SUP: 2
196 -1 #SUP: 2
197 -1 #SUP: 3
216 -1 #SUP: 2
230 -1 #SUP: 2
240 -1 #SUP: 6
262 -1 #SUP: 5
268 -1 #SUP: 2
286 -1 #SUP: 3
290 -1 #SUP: 3
291 -1 #SUP: 3
356 -1 #SUP: 2
365 -1 #SUP: 2
405 -1 #SUP: 5
407 -1 #SUP: 2
471 -1 #SUP: 2
504 -1 #SUP: 2
507 -1 #SUP: 2
626 -1 #SUP: 4
700 -1 #SUP: 2
725 -1 #SUP: 3
738 -1 #SUP: 2
767 -1 #SUP: 2
785 -1 #SUP: 3
849 -1 #SUP: 2
869 -1 #SUP: 2
872 -1 #SUP: 2
896 -1 #SUP: 2
909 -1 #SUP: 2
917 -1 #SUP: 2
1094 -1 #SUP: 6
1140 -1 #SUP: 2
1150 -1 #SUP: 2
1229 -1 #SUP: 2
1231 -1 #SUP: 4
1332 -1 #SUP: 2
1353 -1 #SUP: 2
1392 -1 #SUP: 2
1447 -1 #SUP: 2
1452 -1 #SUP: 3
1834 -1 #SUP: 3
1840 -1 #SUP: 2
1845 -1 #SUP: 3
1876 -1 #SUP: 3
2156 -1 #SUP: 2
2201 -1 #SUP: 2
2848 -1 #SUP: 2
2971 -1 #SUP: 2
3075 -1 #SUP: 2
3409 -1 #SUP: 3
3512 -1 #SUP: 2
3654 -1 #SUP: 2
3907 -1 #SUP: 2
3918 -1 #SUP: 2
4042 -1 #SUP: 2
4857 -1 #SUP: 2
5275 -1 #SUP: 2
5325 -1 #SUP: 2
5344 -1 #SUP: 2
5693 -1 #SUP: 3
5784 -1 #SUP: 5
5830 -1 #SUP: 2
5995 -1 #SUP: 2
6344 -1 #SUP: 6
6431 -1 #SUP: 3
6574 -1 #SUP: 2
6738 -1 #SUP: 3
6783 -1 #SUP: 3
6999 -1 #SUP: 5
8032 -1 #SUP: 2
8140 -1 #SUP: 2
8312 -1 #SUP: 2
8379 -1 #SUP: 2
8717 -1 #SUP: 4
8961 -1 #SUP: 5
10042 -1 #SUP: 2
10564 -1 #SUP: 3
12414 -1 #SUP: 3
12851 -1 #SUP: 2
14276 -1 #SUP: 10
14549 -1 #SUP: 5
24137 -1 #SUP: 2
32198 -1 #SUP: 3
39173 -1 #SUP: 2
40657 -1 #SUP: 2
51287 -1 #SUP: 2
141650 -1 #SUP: 2
9 -1 50 -1 #SUP: 2
19 -1 19 -1 #SUP: 2
19 -1 50 -1 #SUP: 2
48 -1 50 -1 #SUP: 3
48 -1 262 -1 #SUP: 2
48 -1 872 -1 #SUP: 2
48 -1 1452 -1 #SUP: 2
49 -1 626 -1 #SUP: 3
49 -1 725 -1 #SUP: 2
49 -1 6344 -1 #SUP: 2
49 -1 8717 -1 #SUP: 3
49 -1 8961 -1 #SUP: 3
49 -1 12414 -1 #SUP: 2
49 -1 14276 -1 #SUP: 3
49 -1 14549 -1 #SUP: 2
50 -1 19 -1 #SUP: 2
50 -1 48 -1 #SUP: 3
50 -1 50 -1 #SUP: 9
50 -1 91 -1 #SUP: 2
50 -1 155 -1 #SUP: 4
50 -1 240 -1 #SUP: 4
50 -1 262 -1 #SUP: 2
50 -1 507 -1 #SUP: 2
50 -1 849 -1 #SUP: 2
50 -1 896 -1 #SUP: 2
50 -1 1094 -1 #SUP: 3
50 -1 1392 -1 #SUP: 2
91 -1 240 -1 #SUP: 2
117 -1 155 -1 #SUP: 2
117 -1 365 -1 #SUP: 2
117 -1 405 -1 #SUP: 2
117 -1 738 -1 #SUP: 2
122 -1 155 -1 #SUP: 2
142 -1 50 -1 #SUP: 2
155 -1 9 -1 #SUP: 2
155 -1 50 -1 #SUP: 4
155 -1 155 -1 #SUP: 3
155 -1 365 -1 #SUP: 2
155 -1 405 -1 #SUP: 2
155 -1 1353 -1 #SUP: 2
155 -1 3654 -1 #SUP: 2
155 -1 8032 -1 #SUP: 2
172 -1 12414 -1 #SUP: 2
230 -1 50 -1 #SUP: 2
240 -1 50 -1 #SUP: 2
262 -1 50 -1 #SUP: 3
262 -1 291 -1 #SUP: 2
290 -1 50 -1 #SUP: 2
356 -1 1094 -1 #SUP: 2
365 -1 405 -1 #SUP: 2
405 -1 117 -1 #SUP: 2
405 -1 155 -1 #SUP: 2
405 -1 365 -1 #SUP: 2
405 -1 405 -1 #SUP: 3
405 -1 738 -1 #SUP: 2
471 -1 50 -1 #SUP: 2
626 -1 725 -1 #SUP: 2
626 -1 1231 -1 #SUP: 2
626 -1 4857 -1 #SUP: 2
626 -1 5784 -1 #SUP: 2
626 -1 6999 -1 #SUP: 4
626 -1 8312 -1 #SUP: 2
626 -1 8717 -1 #SUP: 3
626 -1 14276 -1 #SUP: 4
626 -1 14549 -1 #SUP: 2
700 -1 50 -1 #SUP: 2
725 -1 1231 -1 #SUP: 2
725 -1 5784 -1 #SUP: 2
725 -1 6999 -1 #SUP: 2
725 -1 8717 -1 #SUP: 2
725 -1 14276 -1 #SUP: 2
738 -1 155 -1 #SUP: 2
738 -1 365 -1 #SUP: 2
738 -1 405 -1 #SUP: 2
1231 -1 8717 -1 #SUP: 2
1231 -1 8961 -1 #SUP: 2
1231 -1 14276 -1 #SUP: 2
1332 -1 50 -1 #SUP: 2
1353 -1 155 -1 #SUP: 2
1452 -1 50 -1 #SUP: 2
1452 -1 262 -1 #SUP: 2
1452 -1 5344 -1 #SUP: 2
1834 -1 50 -1 #SUP: 2
1834 -1 1834 -1 #SUP: 2
1840 -1 50 -1 #SUP: 2
1845 -1 50 -1 #SUP: 2
2201 -1 356 -1 #SUP: 2
2201 -1 1094 -1 #SUP: 2
2201 -1 10042 -1 #SUP: 2
3409 -1 1834 -1 #SUP: 2
3512 -1 172 -1 #SUP: 2
3512 -1 6344 -1 #SUP: 2
3512 -1 12414 -1 #SUP: 2
3654 -1 50 -1 #SUP: 2
3654 -1 155 -1 #SUP: 2
3654 -1 8032 -1 #SUP: 2
3918 -1 49 -1 #SUP: 2
3918 -1 5784 -1 #SUP: 2
4042 -1 896 -1 #SUP: 2
4857 -1 5784 -1 #SUP: 2
4857 -1 6783 -1 #SUP: 2
4857 -1 6999 -1 #SUP: 2
4857 -1 8312 -1 #SUP: 2
4857 -1 14276 -1 #SUP: 2
5344 -1 50 -1 #SUP: 2
5344 -1 262 -1 #SUP: 2
5784 -1 49 -1 #SUP: 3
5784 -1 6783 -1 #SUP: 2
5784 -1 6999 -1 #SUP: 2
5784 -1 8717 -1 #SUP: 2
5784 -1 12414 -1 #SUP: 2
5784 -1 14276 -1 #SUP: 4
6344 -1 172 -1 #SUP: 2
6344 -1 1231 -1 #SUP: 2
6344 -1 6344 -1 #SUP: 3
6344 -1 10564 -1 #SUP: 2
6344 -1 12414 -1 #SUP: 2
6344 -1 14276 -1 #SUP: 2
6574 -1 356 -1 #SUP: 2
6574 -1 1094 -1 #SUP: 2
6574 -1 2201 -1 #SUP: 2
6574 -1 10042 -1 #SUP: 2
6783 -1 5784 -1 #SUP: 2
6999 -1 49 -1 #SUP: 2
6999 -1 1231 -1 #SUP: 2
6999 -1 5784 -1 #SUP: 3
6999 -1 6783 -1 #SUP: 3
6999 -1 8312 -1 #SUP: 2
6999 -1 8717 -1 #SUP: 2
6999 -1 12414 -1 #SUP: 2
6999 -1 14276 -1 #SUP: 3
6999 -1 14549 -1 #SUP: 2
8032 -1 50 -1 #SUP: 2
8032 -1 155 -1 #SUP: 2
8140 -1 50 -1 #SUP: 2
8140 -1 155 -1 #SUP: 2
8140 -1 3654 -1 #SUP: 2
8140 -1 8032 -1 #SUP: 2
8312 -1 5784 -1 #SUP: 2
8312 -1 6783 -1 #SUP: 2
8312 -1 14276 -1 #SUP: 2
8379 -1 356 -1 #SUP: 2
8379 -1 1094 -1 #SUP: 2
8379 -1 2201 -1 #SUP: 2
8379 -1 6574 -1 #SUP: 2
8379 -1 10042 -1 #SUP: 2
8379 -1 51287 -1 #SUP: 2
8717 -1 1231 -1 #SUP: 2
8717 -1 4857 -1 #SUP: 2
8717 -1 5784 -1 #SUP: 2
8717 -1 6999 -1 #SUP: 3
8717 -1 8312 -1 #SUP: 2
8717 -1 14276 -1 #SUP: 3
8961 -1 626 -1 #SUP: 3
8961 -1 725 -1 #SUP: 2
8961 -1 4857 -1 #SUP: 2
8961 -1 6999 -1 #SUP: 3
8961 -1 8717 -1 #SUP: 3
8961 -1 14276 -1 #SUP: 3
10042 -1 356 -1 #SUP: 2
10042 -1 1094 -1 #SUP: 2
12414 -1 725 -1 #SUP: 2
12414 -1 8961 -1 #SUP: 2
14276 -1 49 -1 #SUP: 2
14276 -1 626 -1 #SUP: 4
14276 -1 725 -1 #SUP: 2
14276 -1 1231 -1 #SUP: 2
14276 -1 4857 -1 #SUP: 2
14276 -1 5784 -1 #SUP: 4
14276 -1 6783 -1 #SUP: 3
14276 -1 6999 -1 #SUP: 4
14276 -1 8312 -1 #SUP: 2
14276 -1 8717 -1 #SUP: 3
14276 -1 14276 -1 #SUP: 4
14276 -1 14549 -1 #SUP: 3
14549 -1 626 -1 #SUP: 2
14549 -1 5784 -1 #SUP: 2
14549 -1 6783 -1 #SUP: 2
14549 -1 6999 -1 #SUP: 3
14549 -1 14276 -1 #SUP: 3
14549 -1 14549 -1 #SUP: 3
32198 -1 19 -1 #SUP: 3
32198 -1 50 -1 #SUP: 2
39173 -1 3907 -1 #SUP: 2
40657 -1 155 -1 #SUP: 2
51287 -1 356 -1 #SUP: 2
51287 -1 1094 -1 #SUP: 2
51287 -1 2201 -1 #SUP: 2
51287 -1 6574 -1 #SUP: 2
51287 -1 10042 -1 #SUP: 2
19 -1 19 -1 50 -1 #SUP: 2
48 -1 262 -1 50 -1 #SUP: 2
49 -1 626 -1 725 -1 #SUP: 2
49 -1 626 -1 8717 -1 #SUP: 3
49 -1 626 -1 14276 -1 #SUP: 2
49 -1 725 -1 8717 -1 #SUP: 2
49 -1 725 -1 14276 -1 #SUP: 2
49 -1 8717 -1 14276 -1 #SUP: 2
49 -1 8961 -1 626 -1 #SUP: 3
49 -1 8961 -1 725 -1 #SUP: 2
49 -1 8961 -1 8717 -1 #SUP: 3
49 -1 8961 -1 14276 -1 #SUP: 3
49 -1 14276 -1 626 -1 #SUP: 3
49 -1 14276 -1 725 -1 #SUP: 2
49 -1 14276 -1 8717 -1 #SUP: 3
49 -1 14276 -1 14276 -1 #SUP: 2
50 -1 50 -1 50 -1 #SUP: 3
50 -1 50 -1 507 -1 #SUP: 2
50 -1 50 -1 849 -1 #SUP: 2
50 -1 155 -1 50 -1 #SUP: 2
117 -1 155 -1 365 -1 #SUP: 2
117 -1 155 -1 405 -1 #SUP: 2
117 -1 365 -1 405 -1 #SUP: 2
117 -1 738 -1 155 -1 #SUP: 2
117 -1 738 -1 365 -1 #SUP: 2
117 -1 738 -1 405 -1 #SUP: 2
155 -1 50 -1 155 -1 #SUP: 3
155 -1 365 -1 405 -1 #SUP: 2
155 -1 3654 -1 50 -1 #SUP: 2
155 -1 3654 -1 155 -1 #SUP: 2
155 -1 3654 -1 8032 -1 #SUP: 2
155 -1 8032 -1 50 -1 #SUP: 2
155 -1 8032 -1 155 -1 #SUP: 2
405 -1 117 -1 155 -1 #SUP: 2
405 -1 117 -1 365 -1 #SUP: 2
405 -1 117 -1 405 -1 #SUP: 2
405 -1 117 -1 738 -1 #SUP: 2
405 -1 155 -1 365 -1 #SUP: 2
405 -1 155 -1 405 -1 #SUP: 2
405 -1 365 -1 405 -1 #SUP: 2
405 -1 738 -1 155 -1 #SUP: 2
405 -1 738 -1 365 -1 #SUP: 2
405 -1 738 -1 405 -1 #SUP: 2
471 -1 50 -1 50 -1 #SUP: 2
626 -1 725 -1 1231 -1 #SUP: 2
626 -1 725 -1 6999 -1 #SUP: 2
626 -1 725 -1 8717 -1 #SUP: 2
626 -1 725 -1 14276 -1 #SUP: 2
626 -1 4857 -1 6999 -1 #SUP: 2
626 -1 4857 -1 8312 -1 #SUP: 2
626 -1 4857 -1 14276 -1 #SUP: 2
626 -1 5784 -1 6999 -1 #SUP: 2
626 -1 5784 -1 14276 -1 #SUP: 2
626 -1 6999 -1 1231 -1 #SUP: 2
626 -1 6999 -1 8312 -1 #SUP: 2
626 -1 6999 -1 8717 -1 #SUP: 2
626 -1 6999 -1 14276 -1 #SUP: 2
626 -1 8312 -1 14276 -1 #SUP: 2
626 -1 8717 -1 1231 -1 #SUP: 2
626 -1 8717 -1 4857 -1 #SUP: 2
626 -1 8717 -1 6999 -1 #SUP: 3
626 -1 8717 -1 8312 -1 #SUP: 2
626 -1 8717 -1 14276 -1 #SUP: 3
626 -1 14276 -1 1231 -1 #SUP: 2
626 -1 14276 -1 4857 -1 #SUP: 2
626 -1 14276 -1 6999 -1 #SUP: 4
626 -1 14276 -1 8312 -1 #SUP: 2
626 -1 14276 -1 14276 -1 #SUP: 2
626 -1 14276 -1 14549 -1 #SUP: 2
626 -1 14549 -1 6999 -1 #SUP: 2
725 -1 6999 -1 1231 -1 #SUP: 2
725 -1 8717 -1 1231 -1 #SUP: 2
725 -1 8717 -1 5784 -1 #SUP: 2
725 -1 8717 -1 6999 -1 #SUP: 2
725 -1 8717 -1 14276 -1 #SUP: 2
725 -1 14276 -1 1231 -1 #SUP: 2
725 -1 14276 -1 6999 -1 #SUP: 2
738 -1 155 -1 365 -1 #SUP: 2
738 -1 155 -1 405 -1 #SUP: 2
738 -1 365 -1 405 -1 #SUP: 2
1452 -1 262 -1 50 -1 #SUP: 2
1452 -1 5344 -1 50 -1 #SUP: 2
1452 -1 5344 -1 262 -1 #SUP: 2
2201 -1 10042 -1 356 -1 #SUP: 2
2201 -1 10042 -1 1094 -1 #SUP: 2
3409 -1 1834 -1 1834 -1 #SUP: 2
3512 -1 172 -1 12414 -1 #SUP: 2
3512 -1 6344 -1 172 -1 #SUP: 2
3512 -1 6344 -1 12414 -1 #SUP: 2
3654 -1 50 -1 155 -1 #SUP: 2
3654 -1 8032 -1 50 -1 #SUP: 2
3654 -1 8032 -1 155 -1 #SUP: 2
3918 -1 5784 -1 49 -1 #SUP: 2
4857 -1 5784 -1 14276 -1 #SUP: 2
4857 -1 6999 -1 5784 -1 #SUP: 2
4857 -1 6999 -1 6783 -1 #SUP: 2
4857 -1 6999 -1 8312 -1 #SUP: 2
4857 -1 6999 -1 14276 -1 #SUP: 2
4857 -1 8312 -1 5784 -1 #SUP: 2
4857 -1 8312 -1 6783 -1 #SUP: 2
4857 -1 8312 -1 14276 -1 #SUP: 2
4857 -1 14276 -1 5784 -1 #SUP: 2
4857 -1 14276 -1 6783 -1 #SUP: 2
4857 -1 14276 -1 14276 -1 #SUP: 2
5344 -1 262 -1 50 -1 #SUP: 2
5784 -1 49 -1 12414 -1 #SUP: 2
5784 -1 14276 -1 6783 -1 #SUP: 2
5784 -1 14276 -1 6999 -1 #SUP: 2
5784 -1 14276 -1 8717 -1 #SUP: 2
6344 -1 172 -1 12414 -1 #SUP: 2
6574 -1 2201 -1 356 -1 #SUP: 2
6574 -1 2201 -1 1094 -1 #SUP: 2
6574 -1 2201 -1 10042 -1 #SUP: 2
6574 -1 10042 -1 356 -1 #SUP: 2
6574 -1 10042 -1 1094 -1 #SUP: 2
6999 -1 49 -1 12414 -1 #SUP: 2
6999 -1 5784 -1 6783 -1 #SUP: 2
6999 -1 5784 -1 14276 -1 #SUP: 2
6999 -1 8312 -1 5784 -1 #SUP: 2
6999 -1 8312 -1 6783 -1 #SUP: 2
6999 -1 8312 -1 14276 -1 #SUP: 2
6999 -1 14276 -1 5784 -1 #SUP: 2
6999 -1 14276 -1 6783 -1 #SUP: 3
6999 -1 14276 -1 14276 -1 #SUP: 3
6999 -1 14276 -1 14549 -1 #SUP: 2
6999 -1 14549 -1 6783 -1 #SUP: 2
6999 -1 14549 -1 14276 -1 #SUP: 2
6999 -1 14549 -1 14549 -1 #SUP: 2
8032 -1 50 -1 155 -1 #SUP: 2
8140 -1 50 -1 155 -1 #SUP: 2
8140 -1 155 -1 50 -1 #SUP: 2
8140 -1 155 -1 155 -1 #SUP: 2
8140 -1 155 -1 3654 -1 #SUP: 2
8140 -1 155 -1 8032 -1 #SUP: 2
8140 -1 3654 -1 50 -1 #SUP: 2
8140 -1 3654 -1 155 -1 #SUP: 2
8140 -1 3654 -1 8032 -1 #SUP: 2
8140 -1 8032 -1 50 -1 #SUP: 2
8140 -1 8032 -1 155 -1 #SUP: 2
8312 -1 5784 -1 6783 -1 #SUP: 2
8312 -1 5784 -1 14276 -1 #SUP: 2
8312 -1 14276 -1 5784 -1 #SUP: 2
8312 -1 14276 -1 6783 -1 #SUP: 2
8312 -1 14276 -1 14276 -1 #SUP: 2
8379 -1 2201 -1 356 -1 #SUP: 2
8379 -1 2201 -1 1094 -1 #SUP: 2
8379 -1 2201 -1 10042 -1 #SUP: 2
8379 -1 6574 -1 356 -1 #SUP: 2
8379 -1 6574 -1 1094 -1 #SUP: 2
8379 -1 6574 -1 2201 -1 #SUP: 2
8379 -1 6574 -1 10042 -1 #SUP: 2
8379 -1 10042 -1 356 -1 #SUP: 2
8379 -1 10042 -1 1094 -1 #SUP: 2
8379 -1 51287 -1 356 -1 #SUP: 2
8379 -1 51287 -1 1094 -1 #SUP: 2
8379 -1 51287 -1 2201 -1 #SUP: 2
8379 -1 51287 -1 6574 -1 #SUP: 2
8379 -1 51287 -1 10042 -1 #SUP: 2
8717 -1 4857 -1 6999 -1 #SUP: 2
8717 -1 4857 -1 8312 -1 #SUP: 2
8717 -1 4857 -1 14276 -1 #SUP: 2
8717 -1 5784 -1 14276 -1 #SUP: 2
8717 -1 6999 -1 1231 -1 #SUP: 2
8717 -1 6999 -1 8312 -1 #SUP: 2
8717 -1 6999 -1 14276 -1 #SUP: 2
8717 -1 8312 -1 14276 -1 #SUP: 2
8717 -1 14276 -1 1231 -1 #SUP: 2
8717 -1 14276 -1 4857 -1 #SUP: 2
8717 -1 14276 -1 6999 -1 #SUP: 3
8717 -1 14276 -1 8312 -1 #SUP: 2
8717 -1 14276 -1 14276 -1 #SUP: 2
8961 -1 626 -1 725 -1 #SUP: 2
8961 -1 626 -1 4857 -1 #SUP: 2
8961 -1 626 -1 6999 -1 #SUP: 3
8961 -1 626 -1 8717 -1 #SUP: 3
8961 -1 626 -1 14276 -1 #SUP: 3
8961 -1 725 -1 6999 -1 #SUP: 2
8961 -1 725 -1 8717 -1 #SUP: 2
8961 -1 725 -1 14276 -1 #SUP: 2
8961 -1 4857 -1 6999 -1 #SUP: 2
8961 -1 6999 -1 8717 -1 #SUP: 2
8961 -1 6999 -1 14276 -1 #SUP: 2
8961 -1 8717 -1 4857 -1 #SUP: 2
8961 -1 8717 -1 6999 -1 #SUP: 3
8961 -1 8717 -1 14276 -1 #SUP: 3
8961 -1 14276 -1 626 -1 #SUP: 3
8961 -1 14276 -1 725 -1 #SUP: 2
8961 -1 14276 -1 4857 -1 #SUP: 2
8961 -1 14276 -1 6999 -1 #SUP: 3
8961 -1 14276 -1 8717 -1 #SUP: 3
8961 -1 14276 -1 14276 -1 #SUP: 3
14276 -1 626 -1 725 -1 #SUP: 2
14276 -1 626 -1 4857 -1 #SUP: 2
14276 -1 626 -1 5784 -1 #SUP: 2
14276 -1 626 -1 6999 -1 #SUP: 4
14276 -1 626 -1 8312 -1 #SUP: 2
14276 -1 626 -1 8717 -1 #SUP: 3
14276 -1 626 -1 14276 -1 #SUP: 4
14276 -1 626 -1 14549 -1 #SUP: 2
14276 -1 725 -1 6999 -1 #SUP: 2
14276 -1 725 -1 8717 -1 #SUP: 2
14276 -1 725 -1 14276 -1 #SUP: 2
14276 -1 4857 -1 5784 -1 #SUP: 2
14276 -1 4857 -1 6783 -1 #SUP: 2
14276 -1 4857 -1 6999 -1 #SUP: 2
14276 -1 4857 -1 8312 -1 #SUP: 2
14276 -1 4857 -1 14276 -1 #SUP: 2
14276 -1 5784 -1 49 -1 #SUP: 2
14276 -1 5784 -1 6783 -1 #SUP: 2
14276 -1 5784 -1 6999 -1 #SUP: 2
14276 -1 5784 -1 14276 -1 #SUP: 3
14276 -1 6783 -1 5784 -1 #SUP: 2
14276 -1 6999 -1 49 -1 #SUP: 2
14276 -1 6999 -1 1231 -1 #SUP: 2
14276 -1 6999 -1 5784 -1 #SUP: 3
14276 -1 6999 -1 6783 -1 #SUP: 2
14276 -1 6999 -1 8312 -1 #SUP: 2
14276 -1 6999 -1 8717 -1 #SUP: 2
14276 -1 6999 -1 14276 -1 #SUP: 3
14276 -1 6999 -1 14549 -1 #SUP: 2
14276 -1 8312 -1 5784 -1 #SUP: 2
14276 -1 8312 -1 6783 -1 #SUP: 2
14276 -1 8312 -1 14276 -1 #SUP: 2
14276 -1 8717 -1 4857 -1 #SUP: 2
14276 -1 8717 -1 6999 -1 #SUP: 3
14276 -1 8717 -1 8312 -1 #SUP: 2
14276 -1 8717 -1 14276 -1 #SUP: 3
14276 -1 14276 -1 1231 -1 #SUP: 2
14276 -1 14276 -1 4857 -1 #SUP: 2
14276 -1 14276 -1 5784 -1 #SUP: 2
14276 -1 14276 -1 6783 -1 #SUP: 3
14276 -1 14276 -1 6999 -1 #SUP: 4
14276 -1 14276 -1 8312 -1 #SUP: 2
14276 -1 14276 -1 14276 -1 #SUP: 2
14276 -1 14276 -1 14549 -1 #SUP: 3
14276 -1 14549 -1 626 -1 #SUP: 2
14276 -1 14549 -1 5784 -1 #SUP: 2
14276 -1 14549 -1 6783 -1 #SUP: 2
14276 -1 14549 -1 6999 -1 #SUP: 3
14276 -1 14549 -1 14276 -1 #SUP: 3
14276 -1 14549 -1 14549 -1 #SUP: 3
14549 -1 626 -1 6999 -1 #SUP: 2
14549 -1 626 -1 14276 -1 #SUP: 2
14549 -1 626 -1 14549 -1 #SUP: 2
14549 -1 6783 -1 5784 -1 #SUP: 2
14549 -1 6999 -1 5784 -1 #SUP: 2
14549 -1 6999 -1 14276 -1 #SUP: 2
14549 -1 6999 -1 14549 -1 #SUP: 2
14549 -1 14276 -1 626 -1 #SUP: 2
14549 -1 14276 -1 6783 -1 #SUP: 2
14549 -1 14276 -1 6999 -1 #SUP: 3
14549 -1 14276 -1 14276 -1 #SUP: 3
14549 -1 14276 -1 14549 -1 #SUP: 3
14549 -1 14549 -1 626 -1 #SUP: 2
14549 -1 14549 -1 6783 -1 #SUP: 2
14549 -1 14549 -1 6999 -1 #SUP: 3
14549 -1 14549 -1 14276 -1 #SUP: 3
51287 -1 2201 -1 356 -1 #SUP: 2
51287 -1 2201 -1 1094 -1 #SUP: 2
51287 -1 2201 -1 10042 -1 #SUP: 2
51287 -1 6574 -1 356 -1 #SUP: 2
51287 -1 6574 -1 1094 -1 #SUP: 2
51287 -1 6574 -1 2201 -1 #SUP: 2
51287 -1 6574 -1 10042 -1 #SUP: 2
51287 -1 10042 -1 356 -1 #SUP: 2
51287 -1 10042 -1 1094 -1 #SUP: 2
49 -1 626 -1 725 -1 8717 -1 #SUP: 2
49 -1 626 -1 725 -1 14276 -1 #SUP: 2
49 -1 626 -1 8717 -1 14276 -1 #SUP: 2
49 -1 725 -1 8717 -1 14276 -1 #SUP: 2
49 -1 8961 -1 626 -1 725 -1 #SUP: 2
49 -1 8961 -1 626 -1 8717 -1 #SUP: 3
49 -1 8961 -1 626 -1 14276 -1 #SUP: 2
49 -1 8961 -1 725 -1 8717 -1 #SUP: 2
49 -1 8961 -1 725 -1 14276 -1 #SUP: 2
49 -1 8961 -1 8717 -1 14276 -1 #SUP: 2
49 -1 8961 -1 14276 -1 626 -1 #SUP: 3
49 -1 8961 -1 14276 -1 725 -1 #SUP: 2
49 -1 8961 -1 14276 -1 8717 -1 #SUP: 3
49 -1 8961 -1 14276 -1 14276 -1 #SUP: 2
49 -1 14276 -1 626 -1 725 -1 #SUP: 2
49 -1 14276 -1 626 -1 8717 -1 #SUP: 3
49 -1 14276 -1 626 -1 14276 -1 #SUP: 2
49 -1 14276 -1 725 -1 8717 -1 #SUP: 2
49 -1 14276 -1 725 -1 14276 -1 #SUP: 2
49 -1 14276 -1 8717 -1 14276 -1 #SUP: 2
117 -1 155 -1 365 -1 405 -1 #SUP: 2
117 -1 738 -1 155 -1 365 -1 #SUP: 2
117 -1 738 -1 155 -1 405 -1 #SUP: 2
117 -1 738 -1 365 -1 405 -1 #SUP: 2
155 -1 3654 -1 50 -1 155 -1 #SUP: 2
155 -1 3654 -1 8032 -1 50 -1 #SUP: 2
155 -1 3654 -1 8032 -1 155 -1 #SUP: 2
155 -1 8032 -1 50 -1 155 -1 #SUP: 2
405 -1 117 -1 155 -1 365 -1 #SUP: 2
405 -1 117 -1 155 -1 405 -1 #SUP: 2
405 -1 117 -1 365 -1 405 -1 #SUP: 2
405 -1 117 -1 738 -1 155 -1 #SUP: 2
405 -1 117 -1 738 -1 365 -1 #SUP: 2
405 -1 117 -1 738 -1 405 -1 #SUP: 2
405 -1 155 -1 365 -1 405 -1 #SUP: 2
405 -1 738 -1 155 -1 365 -1 #SUP: 2
405 -1 738 -1 155 -1 405 -1 #SUP: 2
405 -1 738 -1 365 -1 405 -1 #SUP: 2
626 -1 725 -1 6999 -1 1231 -1 #SUP: 2
626 -1 725 -1 8717 -1 1231 -1 #SUP: 2
626 -1 725 -1 8717 -1 6999 -1 #SUP: 2
626 -1 725 -1 8717 -1 14276 -1 #SUP: 2
626 -1 725 -1 14276 -1 1231 -1 #SUP: 2
626 -1 725 -1 14276 -1 6999 -1 #SUP: 2
626 -1 4857 -1 6999 -1 8312 -1 #SUP: 2
626 -1 4857 -1 6999 -1 14276 -1 #SUP: 2
626 -1 4857 -1 8312 -1 14276 -1 #SUP: 2
626 -1 5784 -1 14276 -1 6999 -1 #SUP: 2
626 -1 6999 -1 8312 -1 14276 -1 #SUP: 2
626 -1 8717 -1 4857 -1 6999 -1 #SUP: 2
626 -1 8717 -1 4857 -1 8312 -1 #SUP: 2
626 -1 8717 -1 4857 -1 14276 -1 #SUP: 2
626 -1 8717 -1 6999 -1 1231 -1 #SUP: 2
626 -1 8717 -1 6999 -1 8312 -1 #SUP: 2
626 -1 8717 -1 6999 -1 14276 -1 #SUP: 2
626 -1 8717 -1 8312 -1 14276 -1 #SUP: 2
626 -1 8717 -1 14276 -1 1231 -1 #SUP: 2
626 -1 8717 -1 14276 -1 4857 -1 #SUP: 2
626 -1 8717 -1 14276 -1 6999 -1 #SUP: 3
626 -1 8717 -1 14276 -1 8312 -1 #SUP: 2
626 -1 8717 -1 14276 -1 14276 -1 #SUP: 2
626 -1 14276 -1 4857 -1 6999 -1 #SUP: 2
626 -1 14276 -1 4857 -1 8312 -1 #SUP: 2
626 -1 14276 -1 4857 -1 14276 -1 #SUP: 2
626 -1 14276 -1 6999 -1 1231 -1 #SUP: 2
626 -1 14276 -1 6999 -1 8312 -1 #SUP: 2
626 -1 14276 -1 6999 -1 14276 -1 #SUP: 2
626 -1 14276 -1 8312 -1 14276 -1 #SUP: 2
626 -1 14276 -1 14549 -1 6999 -1 #SUP: 2
725 -1 8717 -1 6999 -1 1231 -1 #SUP: 2
725 -1 8717 -1 14276 -1 1231 -1 #SUP: 2
725 -1 8717 -1 14276 -1 6999 -1 #SUP: 2
725 -1 14276 -1 6999 -1 1231 -1 #SUP: 2
738 -1 155 -1 365 -1 405 -1 #SUP: 2
1452 -1 5344 -1 262 -1 50 -1 #SUP: 2
3512 -1 6344 -1 172 -1 12414 -1 #SUP: 2
3654 -1 8032 -1 50 -1 155 -1 #SUP: 2
4857 -1 6999 -1 5784 -1 14276 -1 #SUP: 2
4857 -1 6999 -1 8312 -1 5784 -1 #SUP: 2
4857 -1 6999 -1 8312 -1 6783 -1 #SUP: 2
4857 -1 6999 -1 8312 -1 14276 -1 #SUP: 2
4857 -1 6999 -1 14276 -1 5784 -1 #SUP: 2
4857 -1 6999 -1 14276 -1 6783 -1 #SUP: 2
4857 -1 6999 -1 14276 -1 14276 -1 #SUP: 2
4857 -1 8312 -1 5784 -1 14276 -1 #SUP: 2
4857 -1 8312 -1 14276 -1 5784 -1 #SUP: 2
4857 -1 8312 -1 14276 -1 6783 -1 #SUP: 2
4857 -1 8312 -1 14276 -1 14276 -1 #SUP: 2
4857 -1 14276 -1 5784 -1 14276 -1 #SUP: 2
6574 -1 2201 -1 10042 -1 356 -1 #SUP: 2
6574 -1 2201 -1 10042 -1 1094 -1 #SUP: 2
6999 -1 5784 -1 14276 -1 6783 -1 #SUP: 2
6999 -1 8312 -1 5784 -1 6783 -1 #SUP: 2
6999 -1 8312 -1 5784 -1 14276 -1 #SUP: 2
6999 -1 8312 -1 14276 -1 5784 -1 #SUP: 2
6999 -1 8312 -1 14276 -1 6783 -1 #SUP: 2
6999 -1 8312 -1 14276 -1 14276 -1 #SUP: 2
6999 -1 14276 -1 5784 -1 6783 -1 #SUP: 2
6999 -1 14276 -1 5784 -1 14276 -1 #SUP: 2
6999 -1 14276 -1 14276 -1 6783 -1 #SUP: 3
6999 -1 14276 -1 14276 -1 14549 -1 #SUP: 2
6999 -1 14276 -1 14549 -1 6783 -1 #SUP: 2
6999 -1 14276 -1 14549 -1 14276 -1 #SUP: 2
6999 -1 14276 -1 14549 -1 14549 -1 #SUP: 2
6999 -1 14549 -1 14276 -1 6783 -1 #SUP: 2
6999 -1 14549 -1 14276 -1 14549 -1 #SUP: 2
6999 -1 14549 -1 14549 -1 6783 -1 #SUP: 2
8140 -1 155 -1 50 -1 155 -1 #SUP: 2
8140 -1 155 -1 3654 -1 50 -1 #SUP: 2
8140 -1 155 -1 3654 -1 155 -1 #SUP: 2
8140 -1 155 -1 3654 -1 8032 -1 #SUP: 2
8140 -1 155 -1 8032 -1 50 -1 #SUP: 2
8140 -1 155 -1 8032 -1 155 -1 #SUP: 2
8140 -1 3654 -1 50 -1 155 -1 #SUP: 2
8140 -1 3654 -1 8032 -1 50 -1 #SUP: 2
8140 -1 3654 -1 8032 -1 155 -1 #SUP: 2
8140 -1 8032 -1 50 -1 155 -1 #SUP: 2
8312 -1 5784 -1 14276 -1 6783 -1 #SUP: 2
8312 -1 14276 -1 5784 -1 6783 -1 #SUP: 2
8312 -1 14276 -1 5784 -1 14276 -1 #SUP: 2
8312 -1 14276 -1 14276 -1 6783 -1 #SUP: 2
8379 -1 2201 -1 10042 -1 356 -1 #SUP: 2
8379 -1 2201 -1 10042 -1 1094 -1 #SUP: 2
8379 -1 6574 -1 2201 -1 356 -1 #SUP: 2
8379 -1 6574 -1 2201 -1 1094 -1 #SUP: 2
8379 -1 6574 -1 2201 -1 10042 -1 #SUP: 2
8379 -1 6574 -1 10042 -1 356 -1 #SUP: 2
8379 -1 6574 -1 10042 -1 1094 -1 #SUP: 2
8379 -1 51287 -1 2201 -1 356 -1 #SUP: 2
8379 -1 51287 -1 2201 -1 1094 -1 #SUP: 2
8379 -1 51287 -1 2201 -1 10042 -1 #SUP: 2
8379 -1 51287 -1 6574 -1 356 -1 #SUP: 2
8379 -1 51287 -1 6574 -1 1094 -1 #SUP: 2
8379 -1 51287 -1 6574 -1 2201 -1 #SUP: 2
8379 -1 51287 -1 6574 -1 10042 -1 #SUP: 2
8379 -1 51287 -1 10042 -1 356 -1 #SUP: 2
8379 -1 51287 -1 10042 -1 1094 -1 #SUP: 2
8717 -1 4857 -1 6999 -1 8312 -1 #SUP: 2
8717 -1 4857 -1 6999 -1 14276 -1 #SUP: 2
8717 -1 4857 -1 8312 -1 14276 -1 #SUP: 2
8717 -1 6999 -1 8312 -1 14276 -1 #SUP: 2
8717 -1 14276 -1 4857 -1 6999 -1 #SUP: 2
8717 -1 14276 -1 4857 -1 8312 -1 #SUP: 2
8717 -1 14276 -1 4857 -1 14276 -1 #SUP: 2
8717 -1 14276 -1 6999 -1 1231 -1 #SUP: 2
8717 -1 14276 -1 6999 -1 8312 -1 #SUP: 2
8717 -1 14276 -1 6999 -1 14276 -1 #SUP: 2
8717 -1 14276 -1 8312 -1 14276 -1 #SUP: 2
8961 -1 626 -1 725 -1 6999 -1 #SUP: 2
8961 -1 626 -1 725 -1 8717 -1 #SUP: 2
8961 -1 626 -1 725 -1 14276 -1 #SUP: 2
8961 -1 626 -1 4857 -1 6999 -1 #SUP: 2
8961 -1 626 -1 6999 -1 8717 -1 #SUP: 2
8961 -1 626 -1 6999 -1 14276 -1 #SUP: 2
8961 -1 626 -1 8717 -1 4857 -1 #SUP: 2
8961 -1 626 -1 8717 -1 6999 -1 #SUP: 3
8961 -1 626 -1 8717 -1 14276 -1 #SUP: 3
8961 -1 626 -1 14276 -1 4857 -1 #SUP: 2
8961 -1 626 -1 14276 -1 6999 -1 #SUP: 3
8961 -1 725 -1 8717 -1 6999 -1 #SUP: 2
8961 -1 725 -1 8717 -1 14276 -1 #SUP: 2
8961 -1 725 -1 14276 -1 6999 -1 #SUP: 2
8961 -1 8717 -1 4857 -1 6999 -1 #SUP: 2
8961 -1 8717 -1 14276 -1 4857 -1 #SUP: 2
8961 -1 8717 -1 14276 -1 6999 -1 #SUP: 3
8961 -1 14276 -1 626 -1 725 -1 #SUP: 2
8961 -1 14276 -1 626 -1 4857 -1 #SUP: 2
8961 -1 14276 -1 626 -1 6999 -1 #SUP: 3
8961 -1 14276 -1 626 -1 8717 -1 #SUP: 3
8961 -1 14276 -1 626 -1 14276 -1 #SUP: 3
8961 -1 14276 -1 725 -1 6999 -1 #SUP: 2
8961 -1 14276 -1 725 -1 8717 -1 #SUP: 2
8961 -1 14276 -1 725 -1 14276 -1 #SUP: 2
8961 -1 14276 -1 4857 -1 6999 -1 #SUP: 2
8961 -1 14276 -1 6999 -1 8717 -1 #SUP: 2
8961 -1 14276 -1 6999 -1 14276 -1 #SUP: 2
8961 -1 14276 -1 8717 -1 4857 -1 #SUP: 2
8961 -1 14276 -1 8717 -1 6999 -1 #SUP: 3
8961 -1 14276 -1 8717 -1 14276 -1 #SUP: 3
8961 -1 14276 -1 14276 -1 4857 -1 #SUP: 2
8961 -1 14276 -1 14276 -1 6999 -1 #SUP: 3
14276 -1 626 -1 725 -1 6999 -1 #SUP: 2
14276 -1 626 -1 725 -1 8717 -1 #SUP: 2
14276 -1 626 -1 725 -1 14276 -1 #SUP: 2
14276 -1 626 -1 4857 -1 6999 -1 #SUP: 2
14276 -1 626 -1 4857 -1 8312 -1 #SUP: 2
14276 -1 626 -1 5784 -1 6999 -1 #SUP: 2
14276 -1 626 -1 5784 -1 14276 -1 #SUP: 2
14276 -1 626 -1 6999 -1 8312 -1 #SUP: 2
14276 -1 626 -1 6999 -1 8717 -1 #SUP: 2
14276 -1 626 -1 6999 -1 14276 -1 #SUP: 2
14276 -1 626 -1 8717 -1 4857 -1 #SUP: 2
14276 -1 626 -1 8717 -1 6999 -1 #SUP: 3
14276 -1 626 -1 8717 -1 8312 -1 #SUP: 2
14276 -1 626 -1 8717 -1 14276 -1 #SUP: 3
14276 -1 626 -1 14276 -1 4857 -1 #SUP: 2
14276 -1 626 -1 14276 -1 6999 -1 #SUP: 4
14276 -1 626 -1 14276 -1 8312 -1 #SUP: 2
14276 -1 626 -1 14276 -1 14549 -1 #SUP: 2
14276 -1 626 -1 14549 -1 6999 -1 #SUP: 2
14276 -1 725 -1 8717 -1 6999 -1 #SUP: 2
14276 -1 725 -1 8717 -1 14276 -1 #SUP: 2
14276 -1 725 -1 14276 -1 6999 -1 #SUP: 2
14276 -1 4857 -1 6999 -1 5784 -1 #SUP: 2
14276 -1 4857 -1 6999 -1 6783 -1 #SUP: 2
14276 -1 4857 -1 6999 -1 8312 -1 #SUP: 2
14276 -1 4857 -1 6999 -1 14276 -1 #SUP: 2
14276 -1 4857 -1 8312 -1 5784 -1 #SUP: 2
14276 -1 4857 -1 8312 -1 6783 -1 #SUP: 2
14276 -1 4857 -1 8312 -1 14276 -1 #SUP: 2
14276 -1 4857 -1 14276 -1 5784 -1 #SUP: 2
14276 -1 4857 -1 14276 -1 6783 -1 #SUP: 2
14276 -1 5784 -1 14276 -1 6783 -1 #SUP: 2
14276 -1 5784 -1 14276 -1 6999 -1 #SUP: 2
14276 -1 6999 -1 8312 -1 5784 -1 #SUP: 2
14276 -1 6999 -1 8312 -1 6783 -1 #SUP: 2
14276 -1 6999 -1 8312 -1 14276 -1 #SUP: 2
14276 -1 6999 -1 14276 -1 5784 -1 #SUP: 2
14276 -1 6999 -1 14276 -1 6783 -1 #SUP: 2
14276 -1 6999 -1 14276 -1 14549 -1 #SUP: 2
14276 -1 8312 -1 14276 -1 5784 -1 #SUP: 2
14276 -1 8312 -1 14276 -1 6783 -1 #SUP: 2
14276 -1 8717 -1 4857 -1 6999 -1 #SUP: 2
14276 -1 8717 -1 4857 -1 8312 -1 #SUP: 2
14276 -1 8717 -1 6999 -1 8312 -1 #SUP: 2
14276 -1 8717 -1 14276 -1 4857 -1 #SUP: 2
14276 -1 8717 -1 14276 -1 6999 -1 #SUP: 3
14276 -1 8717 -1 14276 -1 8312 -1 #SUP: 2
14276 -1 14276 -1 4857 -1 6999 -1 #SUP: 2
14276 -1 14276 -1 4857 -1 8312 -1 #SUP: 2
14276 -1 14276 -1 6999 -1 8312 -1 #SUP: 2
14276 -1 14276 -1 14549 -1 6783 -1 #SUP: 2
14276 -1 14276 -1 14549 -1 6999 -1 #SUP: 2
14276 -1 14549 -1 626 -1 6999 -1 #SUP: 2
14276 -1 14549 -1 626 -1 14276 -1 #SUP: 2
14276 -1 14549 -1 626 -1 14549 -1 #SUP: 2
14276 -1 14549 -1 6783 -1 5784 -1 #SUP: 2
14276 -1 14549 -1 6999 -1 5784 -1 #SUP: 2
14276 -1 14549 -1 6999 -1 14276 -1 #SUP: 2
14276 -1 14549 -1 6999 -1 14549 -1 #SUP: 2
14276 -1 14549 -1 14276 -1 6783 -1 #SUP: 2
14276 -1 14549 -1 14276 -1 6999 -1 #SUP: 2
14276 -1 14549 -1 14276 -1 14549 -1 #SUP: 3
14276 -1 14549 -1 14549 -1 6783 -1 #SUP: 2
14276 -1 14549 -1 14549 -1 6999 -1 #SUP: 2
14549 -1 626 -1 14276 -1 6999 -1 #SUP: 2
14549 -1 626 -1 14276 -1 14549 -1 #SUP: 2
14549 -1 626 -1 14549 -1 6999 -1 #SUP: 2
14549 -1 6999 -1 14276 -1 14276 -1 #SUP: 2
14549 -1 6999 -1 14276 -1 14549 -1 #SUP: 2
14549 -1 6999 -1 14549 -1 14276 -1 #SUP: 2
14549 -1 14276 -1 626 -1 14276 -1 #SUP: 2
14549 -1 14276 -1 6999 -1 14276 -1 #SUP: 2
14549 -1 14276 -1 14549 -1 626 -1 #SUP: 2
14549 -1 14276 -1 14549 -1 6783 -1 #SUP: 2
14549 -1 14276 -1 14549 -1 6999 -1 #SUP: 3
14549 -1 14276 -1 14549 -1 14276 -1 #SUP: 3
14549 -1 14549 -1 626 -1 14276 -1 #SUP: 2
14549 -1 14549 -1 6999 -1 14276 -1 #SUP: 2
51287 -1 2201 -1 10042 -1 356 -1 #SUP: 2
51287 -1 2201 -1 10042 -1 1094 -1 #SUP: 2
51287 -1 6574 -1 2201 -1 356 -1 #SUP: 2
51287 -1 6574 -1 2201 -1 1094 -1 #SUP: 2
51287 -1 6574 -1 2201 -1 10042 -1 #SUP: 2
51287 -1 6574 -1 10042 -1 356 -1 #SUP: 2
51287 -1 6574 -1 10042 -1 1094 -1 #SUP: 2
49 -1 626 -1 725 -1 8717 -1 14276 -1 #SUP: 2
49 -1 8961 -1 626 -1 725 -1 8717 -1 #SUP: 2
49 -1 8961 -1 626 -1 725 -1 14276 -1 #SUP: 2
49 -1 8961 -1 626 -1 8717 -1 14276 -1 #SUP: 2
49 -1 8961 -1 725 -1 8717 -1 14276 -1 #SUP: 2
49 -1 8961 -1 14276 -1 626 -1 725 -1 #SUP: 2
49 -1 8961 -1 14276 -1 626 -1 8717 -1 #SUP: 3
49 -1 8961 -1 14276 -1 626 -1 14276 -1 #SUP: 2
49 -1 8961 -1 14276 -1 725 -1 8717 -1 #SUP: 2
49 -1 8961 -1 14276 -1 725 -1 14276 -1 #SUP: 2
49 -1 8961 -1 14276 -1 8717 -1 14276 -1 #SUP: 2
49 -1 14276 -1 626 -1 725 -1 8717 -1 #SUP: 2
49 -1 14276 -1 626 -1 725 -1 14276 -1 #SUP: 2
49 -1 14276 -1 626 -1 8717 -1 14276 -1 #SUP: 2
49 -1 14276 -1 725 -1 8717 -1 14276 -1 #SUP: 2
117 -1 738 -1 155 -1 365 -1 405 -1 #SUP: 2
155 -1 3654 -1 8032 -1 50 -1 155 -1 #SUP: 2
405 -1 117 -1 155 -1 365 -1 405 -1 #SUP: 2
405 -1 117 -1 738 -1 155 -1 365 -1 #SUP: 2
405 -1 117 -1 738 -1 155 -1 405 -1 #SUP: 2
405 -1 117 -1 738 -1 365 -1 405 -1 #SUP: 2
405 -1 738 -1 155 -1 365 -1 405 -1 #SUP: 2
626 -1 725 -1 8717 -1 6999 -1 1231 -1 #SUP: 2
626 -1 725 -1 8717 -1 14276 -1 1231 -1 #SUP: 2
626 -1 725 -1 8717 -1 14276 -1 6999 -1 #SUP: 2
626 -1 725 -1 14276 -1 6999 -1 1231 -1 #SUP: 2
626 -1 4857 -1 6999 -1 8312 -1 14276 -1 #SUP: 2
626 -1 8717 -1 4857 -1 6999 -1 8312 -1 #SUP: 2
626 -1 8717 -1 4857 -1 6999 -1 14276 -1 #SUP: 2
626 -1 8717 -1 4857 -1 8312 -1 14276 -1 #SUP: 2
626 -1 8717 -1 6999 -1 8312 -1 14276 -1 #SUP: 2
626 -1 8717 -1 14276 -1 4857 -1 6999 -1 #SUP: 2
626 -1 8717 -1 14276 -1 4857 -1 8312 -1 #SUP: 2
626 -1 8717 -1 14276 -1 4857 -1 14276 -1 #SUP: 2
626 -1 8717 -1 14276 -1 6999 -1 1231 -1 #SUP: 2
626 -1 8717 -1 14276 -1 6999 -1 8312 -1 #SUP: 2
626 -1 8717 -1 14276 -1 6999 -1 14276 -1 #SUP: 2
626 -1 8717 -1 14276 -1 8312 -1 14276 -1 #SUP: 2
626 -1 14276 -1 4857 -1 6999 -1 8312 -1 #SUP: 2
626 -1 14276 -1 4857 -1 6999 -1 14276 -1 #SUP: 2
626 -1 14276 -1 4857 -1 8312 -1 14276 -1 #SUP: 2
626 -1 14276 -1 6999 -1 8312 -1 14276 -1 #SUP: 2
725 -1 8717 -1 14276 -1 6999 -1 1231 -1 #SUP: 2
4857 -1 6999 -1 8312 -1 5784 -1 14276 -1 #SUP: 2
4857 -1 6999 -1 8312 -1 14276 -1 5784 -1 #SUP: 2
4857 -1 6999 -1 8312 -1 14276 -1 6783 -1 #SUP: 2
4857 -1 6999 -1 8312 -1 14276 -1 14276 -1 #SUP: 2
4857 -1 6999 -1 14276 -1 5784 -1 14276 -1 #SUP: 2
4857 -1 8312 -1 14276 -1 5784 -1 14276 -1 #SUP: 2
6999 -1 8312 -1 5784 -1 14276 -1 6783 -1 #SUP: 2
6999 -1 8312 -1 14276 -1 5784 -1 6783 -1 #SUP: 2
6999 -1 8312 -1 14276 -1 5784 -1 14276 -1 #SUP: 2
6999 -1 8312 -1 14276 -1 14276 -1 6783 -1 #SUP: 2
6999 -1 14276 -1 5784 -1 14276 -1 6783 -1 #SUP: 2
6999 -1 14276 -1 14276 -1 14549 -1 6783 -1 #SUP: 2
6999 -1 14276 -1 14549 -1 14276 -1 6783 -1 #SUP: 2
6999 -1 14276 -1 14549 -1 14276 -1 14549 -1 #SUP: 2
6999 -1 14276 -1 14549 -1 14549 -1 6783 -1 #SUP: 2
6999 -1 14549 -1 14276 -1 14549 -1 6783 -1 #SUP: 2
8140 -1 155 -1 3654 -1 50 -1 155 -1 #SUP: 2
8140 -1 155 -1 3654 -1 8032 -1 50 -1 #SUP: 2
8140 -1 155 -1 3654 -1 8032 -1 155 -1 #SUP: 2
8140 -1 155 -1 8032 -1 50 -1 155 -1 #SUP: 2
8140 -1 3654 -1 8032 -1 50 -1 155 -1 #SUP: 2
8312 -1 14276 -1 5784 -1 14276 -1 6783 -1 #SUP: 2
8379 -1 6574 -1 2201 -1 10042 -1 356 -1 #SUP: 2
8379 -1 6574 -1 2201 -1 10042 -1 1094 -1 #SUP: 2
8379 -1 51287 -1 2201 -1 10042 -1 356 -1 #SUP: 2
8379 -1 51287 -1 2201 -1 10042 -1 1094 -1 #SUP: 2
8379 -1 51287 -1 6574 -1 2201 -1 356 -1 #SUP: 2
8379 -1 51287 -1 6574 -1 2201 -1 1094 -1 #SUP: 2
8379 -1 51287 -1 6574 -1 2201 -1 10042 -1 #SUP: 2
8379 -1 51287 -1 6574 -1 10042 -1 356 -1 #SUP: 2
8379 -1 51287 -1 6574 -1 10042 -1 1094 -1 #SUP: 2
8717 -1 4857 -1 6999 -1 8312 -1 14276 -1 #SUP: 2
8717 -1 14276 -1 4857 -1 6999 -1 8312 -1 #SUP: 2
8717 -1 14276 -1 4857 -1 6999 -1 14276 -1 #SUP: 2
8717 -1 14276 -1 4857 -1 8312 -1 14276 -1 #SUP: 2
8717 -1 14276 -1 6999 -1 8312 -1 14276 -1 #SUP: 2
8961 -1 626 -1 725 -1 8717 -1 6999 -1 #SUP: 2
8961 -1 626 -1 725 -1 8717 -1 14276 -1 #SUP: 2
8961 -1 626 -1 725 -1 14276 -1 6999 -1 #SUP: 2
8961 -1 626 -1 8717 -1 4857 -1 6999 -1 #SUP: 2
8961 -1 626 -1 8717 -1 14276 -1 4857 -1 #SUP: 2
8961 -1 626 -1 8717 -1 14276 -1 6999 -1 #SUP: 3
8961 -1 626 -1 14276 -1 4857 -1 6999 -1 #SUP: 2
8961 -1 725 -1 8717 -1 14276 -1 6999 -1 #SUP: 2
8961 -1 8717 -1 14276 -1 4857 -1 6999 -1 #SUP: 2
8961 -1 14276 -1 626 -1 725 -1 6999 -1 #SUP: 2
8961 -1 14276 -1 626 -1 725 -1 8717 -1 #SUP: 2
8961 -1 14276 -1 626 -1 725 -1 14276 -1 #SUP: 2
8961 -1 14276 -1 626 -1 4857 -1 6999 -1 #SUP: 2
8961 -1 14276 -1 626 -1 6999 -1 8717 -1 #SUP: 2
8961 -1 14276 -1 626 -1 6999 -1 14276 -1 #SUP: 2
8961 -1 14276 -1 626 -1 8717 -1 4857 -1 #SUP: 2
8961 -1 14276 -1 626 -1 8717 -1 6999 -1 #SUP: 3
8961 -1 14276 -1 626 -1 8717 -1 14276 -1 #SUP: 3
8961 -1 14276 -1 626 -1 14276 -1 4857 -1 #SUP: 2
8961 -1 14276 -1 626 -1 14276 -1 6999 -1 #SUP: 3
8961 -1 14276 -1 725 -1 8717 -1 6999 -1 #SUP: 2
8961 -1 14276 -1 725 -1 8717 -1 14276 -1 #SUP: 2
8961 -1 14276 -1 725 -1 14276 -1 6999 -1 #SUP: 2
8961 -1 14276 -1 8717 -1 4857 -1 6999 -1 #SUP: 2
8961 -1 14276 -1 8717 -1 14276 -1 4857 -1 #SUP: 2
8961 -1 14276 -1 8717 -1 14276 -1 6999 -1 #SUP: 3
8961 -1 14276 -1 14276 -1 4857 -1 6999 -1 #SUP: 2
14276 -1 626 -1 725 -1 8717 -1 6999 -1 #SUP: 2
14276 -1 626 -1 725 -1 8717 -1 14276 -1 #SUP: 2
14276 -1 626 -1 725 -1 14276 -1 6999 -1 #SUP: 2
14276 -1 626 -1 4857 -1 6999 -1 8312 -1 #SUP: 2
14276 -1 626 -1 5784 -1 14276 -1 6999 -1 #SUP: 2
14276 -1 626 -1 8717 -1 4857 -1 6999 -1 #SUP: 2
14276 -1 626 -1 8717 -1 4857 -1 8312 -1 #SUP: 2
14276 -1 626 -1 8717 -1 6999 -1 8312 -1 #SUP: 2
14276 -1 626 -1 8717 -1 14276 -1 4857 -1 #SUP: 2
14276 -1 626 -1 8717 -1 14276 -1 6999 -1 #SUP: 3
14276 -1 626 -1 8717 -1 14276 -1 8312 -1 #SUP: 2
14276 -1 626 -1 14276 -1 4857 -1 6999 -1 #SUP: 2
14276 -1 626 -1 14276 -1 4857 -1 8312 -1 #SUP: 2
14276 -1 626 -1 14276 -1 6999 -1 8312 -1 #SUP: 2
14276 -1 626 -1 14276 -1 14549 -1 6999 -1 #SUP: 2
14276 -1 725 -1 8717 -1 14276 -1 6999 -1 #SUP: 2
14276 -1 4857 -1 6999 -1 8312 -1 5784 -1 #SUP: 2
14276 -1 4857 -1 6999 -1 8312 -1 6783 -1 #SUP: 2
14276 -1 4857 -1 6999 -1 8312 -1 14276 -1 #SUP: 2
14276 -1 4857 -1 6999 -1 14276 -1 5784 -1 #SUP: 2
14276 -1 4857 -1 6999 -1 14276 -1 6783 -1 #SUP: 2
14276 -1 4857 -1 8312 -1 14276 -1 5784 -1 #SUP: 2
14276 -1 4857 -1 8312 -1 14276 -1 6783 -1 #SUP: 2
14276 -1 6999 -1 8312 -1 14276 -1 5784 -1 #SUP: 2
14276 -1 6999 -1 8312 -1 14276 -1 6783 -1 #SUP: 2
14276 -1 8717 -1 4857 -1 6999 -1 8312 -1 #SUP: 2
14276 -1 8717 -1 14276 -1 4857 -1 6999 -1 #SUP: 2
14276 -1 8717 -1 14276 -1 4857 -1 8312 -1 #SUP: 2
14276 -1 8717 -1 14276 -1 6999 -1 8312 -1 #SUP: 2
14276 -1 14276 -1 4857 -1 6999 -1 8312 -1 #SUP: 2
14276 -1 14549 -1 626 -1 14276 -1 6999 -1 #SUP: 2
14276 -1 14549 -1 626 -1 14276 -1 14549 -1 #SUP: 2
14276 -1 14549 -1 626 -1 14549 -1 6999 -1 #SUP: 2
14276 -1 14549 -1 6999 -1 14276 -1 14549 -1 #SUP: 2
14276 -1 14549 -1 14276 -1 14549 -1 6783 -1 #SUP: 2
14276 -1 14549 -1 14276 -1 14549 -1 6999 -1 #SUP: 2
14549 -1 626 -1 14276 -1 14549 -1 6999 -1 #SUP: 2
14549 -1 6999 -1 14276 -1 14549 -1 14276 -1 #SUP: 2
14549 -1 14276 -1 14549 -1 626 -1 14276 -1 #SUP: 2
14549 -1 14276 -1 14549 -1 6999 -1 14276 -1 #SUP: 2
51287 -1 6574 -1 2201 -1 10042 -1 356 -1 #SUP: 2
51287 -1 6574 -1 2201 -1 10042 -1 1094 -1 #SUP: 2
49 -1 8961 -1 626 -1 725 -1 8717 -1 14276 -1 #SUP: 2
49 -1 8961 -1 14276 -1 626 -1 725 -1 8717 -1 #SUP: 2
49 -1 8961 -1 14276 -1 626 -1 725 -1 14276 -1 #SUP: 2
49 -1 8961 -1 14276 -1 626 -1 8717 -1 14276 -1 #SUP: 2
49 -1 8961 -1 14276 -1 725 -1 8717 -1 14276 -1 #SUP: 2
49 -1 14276 -1 626 -1 725 -1 8717 -1 14276 -1 #SUP: 2
405 -1 117 -1 738 -1 155 -1 365 -1 405 -1 #SUP: 2
626 -1 725 -1 8717 -1 14276 -1 6999 -1 1231 -1 #SUP: 2
626 -1 8717 -1 4857 -1 6999 -1 8312 -1 14276 -1 #SUP: 2
626 -1 8717 -1 14276 -1 4857 -1 6999 -1 8312 -1 #SUP: 2
626 -1 8717 -1 14276 -1 4857 -1 6999 -1 14276 -1 #SUP: 2
626 -1 8717 -1 14276 -1 4857 -1 8312 -1 14276 -1 #SUP: 2
626 -1 8717 -1 14276 -1 6999 -1 8312 -1 14276 -1 #SUP: 2
626 -1 14276 -1 4857 -1 6999 -1 8312 -1 14276 -1 #SUP: 2
4857 -1 6999 -1 8312 -1 14276 -1 5784 -1 14276 -1 #SUP: 2
6999 -1 8312 -1 14276 -1 5784 -1 14276 -1 6783 -1 #SUP: 2
6999 -1 14276 -1 14549 -1 14276 -1 14549 -1 6783 -1 #SUP: 2
8140 -1 155 -1 3654 -1 8032 -1 50 -1 155 -1 #SUP: 2
8379 -1 51287 -1 6574 -1 2201 -1 10042 -1 356 -1 #SUP: 2
8379 -1 51287 -1 6574 -1 2201 -1 10042 -1 1094 -1 #SUP: 2
8717 -1 14276 -1 4857 -1 6999 -1 8312 -1 14276 -1 #SUP: 2
8961 -1 626 -1 725 -1 8717 -1 14276 -1 6999 -1 #SUP: 2
8961 -1 626 -1 8717 -1 14276 -1 4857 -1 6999 -1 #SUP: 2
8961 -1 14276 -1 626 -1 725 -1 8717 -1 6999 -1 #SUP: 2
8961 -1 14276 -1 626 -1 725 -1 8717 -1 14276 -1 #SUP: 2
8961 -1 14276 -1 626 -1 725 -1 14276 -1 6999 -1 #SUP: 2
8961 -1 14276 -1 626 -1 8717 -1 4857 -1 6999 -1 #SUP: 2
8961 -1 14276 -1 626 -1 8717 -1 14276 -1 4857 -1 #SUP: 2
8961 -1 14276 -1 626 -1 8717 -1 14276 -1 6999 -1 #SUP: 3
8961 -1 14276 -1 626 -1 14276 -1 4857 -1 6999 -1 #SUP: 2
8961 -1 14276 -1 725 -1 8717 -1 14276 -1 6999 -1 #SUP: 2
8961 -1 14276 -1 8717 -1 14276 -1 4857 -1 6999 -1 #SUP: 2
14276 -1 626 -1 725 -1 8717 -1 14276 -1 6999 -1 #SUP: 2
14276 -1 626 -1 8717 -1 4857 -1 6999 -1 8312 -1 #SUP: 2
14276 -1 626 -1 8717 -1 14276 -1 4857 -1 6999 -1 #SUP: 2
14276 -1 626 -1 8717 -1 14276 -1 4857 -1 8312 -1 #SUP: 2
14276 -1 626 -1 8717 -1 14276 -1 6999 -1 8312 -1 #SUP: 2
14276 -1 626 -1 14276 -1 4857 -1 6999 -1 8312 -1 #SUP: 2
14276 -1 4857 -1 6999 -1 8312 -1 14276 -1 5784 -1 #SUP: 2
14276 -1 4857 -1 6999 -1 8312 -1 14276 -1 6783 -1 #SUP: 2
14276 -1 8717 -1 14276 -1 4857 -1 6999 -1 8312 -1 #SUP: 2
14276 -1 14549 -1 626 -1 14276 -1 14549 -1 6999 -1 #SUP: 2
49 -1 8961 -1 14276 -1 626 -1 725 -1 8717 -1 14276 -1 #SUP: 2
626 -1 8717 -1 14276 -1 4857 -1 6999 -1 8312 -1 14276 -1 #SUP: 2
8961 -1 14276 -1 626 -1 725 -1 8717 -1 14276 -1 6999 -1 #SUP: 2
8961 -1 14276 -1 626 -1 8717 -1 14276 -1 4857 -1 6999 -1 #SUP: 2
14276 -1 626 -1 8717 -1 14276 -1 4857 -1 6999 -1 8312 -1 #SUP: 2
