5 -1 #SUP: 2
19 -1 #SUP: 2
44 -1 #SUP: 3
45 -1 #SUP: 2
48 -1 #SUP: 15
49 -1 #SUP: 3
50 -1 #SUP: 49
55 -1 #SUP: 5
91 -1 #SUP: 9
103 -1 #SUP: 2
116 -1 #SUP: 5
118 -1 #SUP: 2
121 -1 #SUP: 3
122 -1 #SUP: 4
126 -1 #SUP: 3
155 -1 #SUP: 2
197 -1 #SUP: 7
198 -1 #SUP: 2
209 -1 #SUP: 2
216 -1 #SUP: 3
240 -1 #SUP: 2
255 -1 #SUP: 14
262 -1 #SUP: 5
271 -1 #SUP: 2
272 -1 #SUP: 2
287 -1 #SUP: 2
291 -1 #SUP: 2
341 -1 #SUP: 2
348 -1 #SUP: 2
356 -1 #SUP: 2
361 -1 #SUP: 3
380 -1 #SUP: 3
389 -1 #SUP: 2
394 -1 #SUP: 10
396 -1 #SUP: 3
399 -1 #SUP: 4
407 -1 #SUP: 5
412 -1 #SUP: 4
431 -1 #SUP: 8
453 -1 #SUP: 6
471 -1 #SUP: 2
493 -1 #SUP: 2
508 -1 #SUP: 2
520 -1 #SUP: 3
522 -1 #SUP: 2
523 -1 #SUP: 3
559 -1 #SUP: 3
586 -1 #SUP: 3
602 -1 #SUP: 6
672 -1 #SUP: 2
773 -1 #SUP: 2
778 -1 #SUP: 3
784 -1 #SUP: 2
785 -1 #SUP: 2
894 -1 #SUP: 2
914 -1 #SUP: 5
950 -1 #SUP: 2
967 -1 #SUP: 3
1216 -1 #SUP: 2
1228 -1 #SUP: 2
1272 -1 #SUP: 2
1311 -1 #SUP: 2
1455 -1 #SUP: 3
1506 -1 #SUP: 3
1512 -1 #SUP: 2
1538 -1 #SUP: 3
1572 -1 #SUP: 2
1577 -1 #SUP: 2
1685 -1 #SUP: 2
1692 -1 #SUP: 2
1731 -1 #SUP: 2
2304 -1 #SUP: 5
2394 -1 #SUP: 3
2577 -1 #SUP: 2
2601 -1 #SUP: 3
2688 -1 #SUP: 3
2773 -1 #SUP: 4
2774 -1 #SUP: 2
2779 -1 #SUP: 2
2903 -1 #SUP: 2
3365 -1 #SUP: 2
3445 -1 #SUP: 2
5920 -1 #SUP: 3
7717 -1 #SUP: 3
7718 -1 #SUP: 2
11003 -1 #SUP: 2
39430 -1 #SUP: 2
48 -1 50 -1 #SUP: 5
48 -1 255 -1 #SUP: 3
48 -1 2773 -1 #SUP: 2
50 -1 44 -1 #SUP: 2
50 -1 48 -1 #SUP: 2
50 -1 50 -1 #SUP: 7
50 -1 240 -1 #SUP: 2
50 -1 255 -1 #SUP: 4
50 -1 341 -1 #SUP: 2
50 -1 453 -1 #SUP: 3
50 -1 602 -1 #SUP: 2
50 -1 1512 -1 #SUP: 2
50 -1 1538 -1 #SUP: 3
50 -1 2773 -1 #SUP: 2
91 -1 50 -1 #SUP: 2
91 -1 197 -1 #SUP: 2
91 -1 602 -1 #SUP: 2
116 -1 50 -1 #SUP: 4
122 -1 48 -1 #SUP: 2
122 -1 50 -1 #SUP: 3
122 -1 240 -1 #SUP: 2
122 -1 394 -1 #SUP: 2
122 -1 431 -1 #SUP: 2
197 -1 50 -1 #SUP: 3
240 -1 48 -1 #SUP: 2
255 -1 50 -1 #SUP: 4
255 -1 91 -1 #SUP: 2
255 -1 2688 -1 #SUP: 2
262 -1 50 -1 #SUP: 3
291 -1 50 -1 #SUP: 2
380 -1 50 -1 #SUP: 2
380 -1 431 -1 #SUP: 2
394 -1 44 -1 #SUP: 2
394 -1 48 -1 #SUP: 2
394 -1 50 -1 #SUP: 4
394 -1 240 -1 #SUP: 2
394 -1 431 -1 #SUP: 4
394 -1 1577 -1 #SUP: 2
412 -1 2394 -1 #SUP: 2
431 -1 48 -1 #SUP: 2
431 -1 50 -1 #SUP: 3
431 -1 240 -1 #SUP: 2
431 -1 394 -1 #SUP: 2
586 -1 586 -1 #SUP: 2
914 -1 216 -1 #SUP: 2
1311 -1 1731 -1 #SUP: 2
1311 -1 2903 -1 #SUP: 2
1455 -1 50 -1 #SUP: 2
1506 -1 103 -1 #SUP: 2
1731 -1 2903 -1 #SUP: 2
2304 -1 50 -1 #SUP: 2
2688 -1 2688 -1 #SUP: 2
2773 -1 2773 -1 #SUP: 2
2774 -1 2577 -1 #SUP: 2
3445 -1 394 -1 #SUP: 2
7717 -1 7717 -1 #SUP: 2
48 -1 50 -1 2773 -1 #SUP: 2
50 -1 240 -1 48 -1 #SUP: 2
122 -1 50 -1 48 -1 #SUP: 2
122 -1 50 -1 240 -1 #SUP: 2
122 -1 240 -1 48 -1 #SUP: 2
122 -1 394 -1 48 -1 #SUP: 2
122 -1 394 -1 50 -1 #SUP: 2
122 -1 394 -1 240 -1 #SUP: 2
122 -1 431 -1 48 -1 #SUP: 2
122 -1 431 -1 50 -1 #SUP: 2
122 -1 431 -1 240 -1 #SUP: 2
255 -1 2688 -1 2688 -1 #SUP: 2
262 -1 50 -1 50 -1 #SUP: 2
394 -1 50 -1 44 -1 #SUP: 2
394 -1 50 -1 48 -1 #SUP: 2
394 -1 50 -1 240 -1 #SUP: 2
394 -1 240 -1 48 -1 #SUP: 2
431 -1 50 -1 48 -1 #SUP: 2
431 -1 50 -1 240 -1 #SUP: 2
431 -1 240 -1 48 -1 #SUP: 2
1311 -1 1731 -1 2903 -1 #SUP: 2
122 -1 50 -1 240 -1 48 -1 #SUP: 2
122 -1 394 -1 50 -1 48 -1 #SUP: 2
122 -1 394 -1 50 -1 240 -1 #SUP: 2
122 -1 394 -1 240 -1 48 -1 #SUP: 2
122 -1 431 -1 50 -1 48 -1 #SUP: 2
122 -1 431 -1 50 -1 240 -1 #SUP: 2
122 -1 431 -1 240 -1 48 -1 #SUP: 2
394 -1 50 -1 240 -1 48 -1 #SUP: 2
431 -1 50 -1 240 -1 48 -1 #SUP: 2
122 -1 394 -1 50 -1 240 -1 48 -1 #SUP: 2
122 -1 431 -1 50 -1 240 -1 48 -1 #SUP: 2
