2401 -1 8068 -1 9761 -1 1769 -1 134548 -1 19 -2
656 -1 6334 -1 413 -1 19 -2
1392 -1 134548 -1 19 -2
1054 -1 19 -2
114 -1 155 -1 1455 -1 7244 -1 5800 -1 19625 -1 2492 -1 17059 -1 4890 -1 19 -2
276 -1 5937 -1 16655 -1 50 -1 262 -1 2531 -1 2532 -1 19 -2
453 -1 5894 -1 19 -2
262 -1 523 -1 4165 -1 3996 -1 736 -1 50 -1 262 -1 157 -1 38 -1 122 -1 2420 -1 2418 -1 19 -2
197 -1 181 -1 1225 -1 2720 -1 17987 -1 19 -2
471 -1 1849 -1 64620 -1 1692 -1 2916 -1 181 -1 520 -1 19 -2
21621 -1 629 -1 1591 -1 869 -1 572 -1 8850 -1 1591 -1 626 -1 9319 -1 626 -1 4858 -1 2228 -1 4858 -1 6783 -1 9726 -1 8850 -1 6783 -1 2070 -1 889 -1 4968 -1 2070 -1 4509 -1 8102 -1 139 -1 4509 -1 91 -1 1229 -1 50 -1 7412 -1 3743 -1 2328 -1 9836 -1 216 -1 1228 -1 5097 -1 3993 -1 19 -2
5097 -1 93229 -1 19 -2
262 -1 5097 -1 50 -1 1021 -1 1014 -1 620 -1 17723 -1 2468 -1 19 -2
638 -1 19 -2
487 -1 6686 -1 1377 -1 1228 -1 5097 -1 19 -2
471 -1 1675 -1 162440 -1 501 -1 19 -2
498 -1 19 -2
271 -1 278 -1 13960 -1 19 -2
1248 -1 736 -1 13960 -1 24555 -1 19 -2
271 -1 7273 -1 19 -2
48 -1 23818 -1 2049 -1 2786 -1 19 -2
48 -1 5184 -1 2912 -1 19 -2
1377 -1 114 -1 3722 -1 2215 -1 1377 -1 736 -1 2525 -1 736 -1 50 -1 19 -2
679 -1 50 -1 67290 -1 1005 -1 19294 -1 96 -1 48 -1 263 -1 15948 -1 9599 -1 19 -2
957 -1 26743 -1 263 -1 16400 -1 9599 -1 50 -1 9709 -1 17275 -1 67290 -1 19 -2
9399 -1 736 -1 30 -1 240 -1 19 -2
982 -1 30 -1 2892 -1 420 -1 19 -2
12493 -1 3195 -1 466 -1 2047 -1 1033 -1 19 -2
407 -1 2304 -1 4248 -1 197 -1 163 -1 262 -1 21592 -1 22114 -1 3435 -1 50 -1 49688 -1 216 -1 842 -1 19 -2
91 -1 197 -1 24932 -1 3232 -1 2960 -1 19 -2
1658 -1 263 -1 3445 -1 2738 -1 19 -2
197 -1 48 -1 4900 -1 19 -2
1008 -1 116 -1 3461 -1 19 -2
255 -1 9369 -1 1367 -1 6833 -1 1274 -1 1149 -1 4037 -1 19 -2
13918 -1 4241 -1 767 -1 19 -2
3455 -1 48 -1 255 -1 15936 -1 11308 -1 19 -2
530 -1 5086 -1 620 -1 117 -1 738 -1 759 -1 19251 -1 19 -2
323 -1 21 -1 1137 -1 6063 -1 55 -1 3252 -1 488 -1 19 -2
2049 -1 2980 -1 2486 -1 3797 -1 602 -1 1685 -1 169 -1 4153 -1 19 -2
545 -1 453 -1 19 -2
42 -1 736 -1 633 -1 1722 -1 197 -1 48 -1 9883 -1 405 -1 5498 -1 162441 -1 2885 -1 1973 -1 19 -2
91 -1 1973 -1 197 -1 19 -2
5498 -1 9316 -1 19 -2
197 -1 12111 -1 7871 -1 19 -2
1692 -1 736 -1 1928 -1 10119 -1 3501 -1 50 -1 1637 -1 48 -1 1905 -1 55347 -1 3439 -1 19 -2
19 -2
1645 -1 1692 -1 285 -1 294 -1 2569 -1 9836 -1 50 -1 3169 -1 4091 -1 167 -1 785 -1 1977 -1 8818 -1 19 -2
597 -1 513 -1 736 -1 19 -2
262 -1 2289 -1 114 -1 19 -2
91 -1 3800 -1 578 -1 25133 -1 1814 -1 883 -1 780 -1 488 -1 91 -1 240 -1 5473 -1 1328 -1 19 -2
48716 -1 19 -2
967 -1 542 -1 656 -1 8827 -1 19 -2
117 -1 130 -1 162442 -1 117 -1 738 -1 50 -1 780 -1 155 -1 17213 -1 4267 -1 1612 -1 30305 -1 365 -1 19 -2
48 -1 19 -2
6993 -1 19 -2
550 -1 169 -1 1602 -1 1377 -1 155 -1 262 -1 2808 -1 2629 -1 6641 -1 733 -1 93563 -1 27 -1 1678 -1 1 -2
1005 -1 423 -1 255 -1 19 -2
1678 -1 1 -2
614 -1 262 -1 9 -1 1433 -1 9215 -1 475 -1 1805 -1 19 -2
785 -1 3546 -1 19 -2
4029 -1 19 -1 4926 -1 306 -1 1076 -1 1360 -1 1 -2
323 -1 50 -1 11681 -1 49 -1 50 -1 467 -1 2000 -1 50 -1 19997 -1 50 -1 384 -1 9 -1 8032 -1 1 -2
1048 -1 1415 -1 5815 -1 318 -1 50 -1 19 -2
262 -1 35364 -1 50 -1 164 -1 57116 -1 814 -1 19 -2
262 -1 71117 -1 1148 -1 13430 -1 50 -1 16489 -1 49 -1 9202 -1 982 -1 48 -1 8450 -1 16682 -1 50 -1 201 -1 1476 -1 50 -1 5180 -1 4555 -1 50 -1 2657 -1 19 -2
172 -1 19 -1 1923 -1 4263 -1 1535 -1 1029 -1 50 -1 1862 -1 4263 -1 105043 -1 76912 -1 12630 -1 19 -2
173 -1 19 -1 91 -1 240 -1 1396 -1 121 -1 2318 -1 50 -1 19 -2
172 -1 19 -1 1923 -1 4263 -1 1535 -1 1029 -1 50 -1 1862 -1 4263 -1 105043 -1 76912 -1 12630 -1 19 -2
173 -1 19 -1 91 -1 240 -1 1396 -1 121 -1 2318 -1 50 -1 19 -2
6918 -1 225 -1 21769 -1 19 -2
48 -1 4766 -1 19 -2
736 -1 20868 -1 197 -1 19 -2
19444 -1 1005 -1 197 -1 736 -1 19 -2
736 -1 104816 -1 104818 -1 535 -1 113 -1 266 -1 4380 -1 5049 -1 50 -1 262 -1 507 -1 21124 -1 50 -1 7692 -1 50 -1 9267 -1 19 -2
1495 -1 19 -2
1229 -1 148 -1 1497 -1 110 -1 1760 -1 148 -1 113 -1 17450 -1 19 -2