3 -1 #SUP: 8
7 -1 #SUP: 2
19 -1 #SUP: 2
29 -1 #SUP: 3
42 -1 #SUP: 3
48 -1 #SUP: 7
49 -1 #SUP: 4
50 -1 #SUP: 5
53 -1 #SUP: 2
66 -1 #SUP: 2
91 -1 #SUP: 10
95 -1 #SUP: 2
117 -1 #SUP: 3
118 -1 #SUP: 3
121 -1 #SUP: 8
122 -1 #SUP: 3
133 -1 #SUP: 2
134 -1 #SUP: 2
153 -1 #SUP: 2
155 -1 #SUP: 13
197 -1 #SUP: 10
214 -1 #SUP: 3
240 -1 #SUP: 4
242 -1 #SUP: 3
255 -1 #SUP: 11
262 -1 #SUP: 15
266 -1 #SUP: 2
276 -1 #SUP: 3
299 -1 #SUP: 2
306 -1 #SUP: 2
347 -1 #SUP: 3
356 -1 #SUP: 2
363 -1 #SUP: 3
405 -1 #SUP: 2
408 -1 #SUP: 3
412 -1 #SUP: 3
413 -1 #SUP: 4
471 -1 #SUP: 5
504 -1 #SUP: 2
520 -1 #SUP: 3
535 -1 #SUP: 2
545 -1 #SUP: 2
615 -1 #SUP: 2
672 -1 #SUP: 2
679 -1 #SUP: 3
685 -1 #SUP: 4
698 -1 #SUP: 2
700 -1 #SUP: 2
736 -1 #SUP: 2
752 -1 #SUP: 2
773 -1 #SUP: 2
775 -1 #SUP: 2
842 -1 #SUP: 2
955 -1 #SUP: 2
973 -1 #SUP: 2
993 -1 #SUP: 3
1015 -1 #SUP: 2
1016 -1 #SUP: 2
1094 -1 #SUP: 2
1176 -1 #SUP: 2
1210 -1 #SUP: 2
1220 -1 #SUP: 2
1404 -1 #SUP: 2
1455 -1 #SUP: 2
1493 -1 #SUP: 6
1519 -1 #SUP: 2
1538 -1 #SUP: 5
1645 -1 #SUP: 4
1662 -1 #SUP: 2
1674 -1 #SUP: 4
1692 -1 #SUP: 3
1983 -1 #SUP: 2
2045 -1 #SUP: 2
2177 -1 #SUP: 2
2286 -1 #SUP: 19
2302 -1 #SUP: 17
2629 -1 #SUP: 3
3589 -1 #SUP: 2
3687 -1 #SUP: 2
3949 -1 #SUP: 2
4162 -1 #SUP: 2
7134 -1 #SUP: 19
17115 -1 #SUP: 2
35619 -1 #SUP: 2
151980 -1 #SUP: 19
3 -1 48 -1 #SUP: 2
3 -1 50 -1 #SUP: 2
3 -1 155 -1 #SUP: 3
3 -1 535 -1 #SUP: 2
48 -1 214 -1 #SUP: 2
53 -1 155 -1 #SUP: 2
91 -1 48 -1 #SUP: 2
91 -1 197 -1 #SUP: 2
91 -1 214 -1 #SUP: 2
91 -1 1519 -1 #SUP: 2
91 -1 2286 -1 #SUP: 2
91 -1 2302 -1 #SUP: 2
91 -1 7134 -1 #SUP: 2
91 -1 151980 -1 #SUP: 2
117 -1 1404 -1 #SUP: 2
118 -1 262 -1 #SUP: 2
121 -1 91 -1 #SUP: 2
155 -1 91 -1 #SUP: 2
155 -1 121 -1 #SUP: 2
155 -1 197 -1 #SUP: 2
155 -1 255 -1 #SUP: 3
197 -1 91 -1 #SUP: 2
197 -1 214 -1 #SUP: 2
197 -1 262 -1 #SUP: 2
197 -1 1674 -1 #SUP: 2
197 -1 2286 -1 #SUP: 4
197 -1 2302 -1 #SUP: 3
197 -1 7134 -1 #SUP: 3
197 -1 151980 -1 #SUP: 3
214 -1 3589 -1 #SUP: 2
240 -1 155 -1 #SUP: 2
255 -1 262 -1 #SUP: 2
255 -1 1493 -1 #SUP: 2
262 -1 3 -1 #SUP: 3
262 -1 19 -1 #SUP: 2
262 -1 48 -1 #SUP: 2
262 -1 66 -1 #SUP: 2
262 -1 242 -1 #SUP: 2
262 -1 255 -1 #SUP: 2
262 -1 262 -1 #SUP: 3
262 -1 993 -1 #SUP: 2
276 -1 240 -1 #SUP: 2
306 -1 242 -1 #SUP: 2
412 -1 775 -1 #SUP: 2
413 -1 698 -1 #SUP: 2
413 -1 1094 -1 #SUP: 2
471 -1 155 -1 #SUP: 2
535 -1 240 -1 #SUP: 2
545 -1 155 -1 #SUP: 2
698 -1 1094 -1 #SUP: 2
700 -1 121 -1 #SUP: 2
1493 -1 155 -1 #SUP: 3
1493 -1 197 -1 #SUP: 2
1493 -1 255 -1 #SUP: 2
1493 -1 262 -1 #SUP: 2
1493 -1 1176 -1 #SUP: 2
1538 -1 121 -1 #SUP: 2
1538 -1 255 -1 #SUP: 2
1538 -1 262 -1 #SUP: 2
1674 -1 3949 -1 #SUP: 2
2045 -1 121 -1 #SUP: 2
2286 -1 91 -1 #SUP: 2
2286 -1 117 -1 #SUP: 3
2286 -1 122 -1 #SUP: 2
2286 -1 255 -1 #SUP: 2
2286 -1 262 -1 #SUP: 3
2286 -1 413 -1 #SUP: 2
2286 -1 1404 -1 #SUP: 2
2286 -1 2286 -1 #SUP: 2
2286 -1 2302 -1 #SUP: 16
2286 -1 7134 -1 #SUP: 18
2286 -1 151980 -1 #SUP: 18
2302 -1 91 -1 #SUP: 2
2302 -1 117 -1 #SUP: 3
2302 -1 122 -1 #SUP: 2
2302 -1 155 -1 #SUP: 2
2302 -1 255 -1 #SUP: 2
2302 -1 262 -1 #SUP: 3
2302 -1 413 -1 #SUP: 2
2302 -1 993 -1 #SUP: 2
2302 -1 1404 -1 #SUP: 2
2302 -1 2286 -1 #SUP: 2
2302 -1 2302 -1 #SUP: 2
2302 -1 7134 -1 #SUP: 2
2302 -1 151980 -1 #SUP: 2
7134 -1 91 -1 #SUP: 2
7134 -1 117 -1 #SUP: 3
7134 -1 122 -1 #SUP: 2
7134 -1 155 -1 #SUP: 2
7134 -1 255 -1 #SUP: 2
7134 -1 262 -1 #SUP: 3
7134 -1 413 -1 #SUP: 2
7134 -1 993 -1 #SUP: 2
7134 -1 1404 -1 #SUP: 2
7134 -1 2286 -1 #SUP: 2
7134 -1 2302 -1 #SUP: 16
7134 -1 7134 -1 #SUP: 2
7134 -1 151980 -1 #SUP: 18
35619 -1 17115 -1 #SUP: 2
151980 -1 91 -1 #SUP: 2
151980 -1 117 -1 #SUP: 3
151980 -1 122 -1 #SUP: 2
151980 -1 155 -1 #SUP: 2
151980 -1 255 -1 #SUP: 2
151980 -1 262 -1 #SUP: 3
151980 -1 413 -1 #SUP: 2
151980 -1 993 -1 #SUP: 2
151980 -1 1404 -1 #SUP: 2
151980 -1 2286 -1 #SUP: 2
151980 -1 2302 -1 #SUP: 16
151980 -1 7134 -1 #SUP: 2
151980 -1 151980 -1 #SUP: 2
91 -1 2286 -1 2302 -1 #SUP: 2
91 -1 2286 -1 7134 -1 #SUP: 2
91 -1 2286 -1 151980 -1 #SUP: 2
91 -1 7134 -1 2302 -1 #SUP: 2
91 -1 7134 -1 151980 -1 #SUP: 2
91 -1 151980 -1 2302 -1 #SUP: 2
197 -1 2286 -1 2302 -1 #SUP: 3
197 -1 2286 -1 7134 -1 #SUP: 3
197 -1 2286 -1 151980 -1 #SUP: 3
197 -1 7134 -1 2302 -1 #SUP: 3
197 -1 7134 -1 151980 -1 #SUP: 3
197 -1 151980 -1 2302 -1 #SUP: 3
413 -1 698 -1 1094 -1 #SUP: 2
2286 -1 117 -1 1404 -1 #SUP: 2
2286 -1 2286 -1 2302 -1 #SUP: 2
2286 -1 2286 -1 7134 -1 #SUP: 2
2286 -1 2286 -1 151980 -1 #SUP: 2
2286 -1 2302 -1 91 -1 #SUP: 2
2286 -1 2302 -1 117 -1 #SUP: 3
2286 -1 2302 -1 122 -1 #SUP: 2
2286 -1 2302 -1 255 -1 #SUP: 2
2286 -1 2302 -1 262 -1 #SUP: 3
2286 -1 2302 -1 413 -1 #SUP: 2
2286 -1 2302 -1 1404 -1 #SUP: 2
2286 -1 2302 -1 2286 -1 #SUP: 2
2286 -1 2302 -1 2302 -1 #SUP: 2
2286 -1 2302 -1 7134 -1 #SUP: 2
2286 -1 2302 -1 151980 -1 #SUP: 2
2286 -1 7134 -1 91 -1 #SUP: 2
2286 -1 7134 -1 117 -1 #SUP: 3
2286 -1 7134 -1 122 -1 #SUP: 2
2286 -1 7134 -1 255 -1 #SUP: 2
2286 -1 7134 -1 262 -1 #SUP: 3
2286 -1 7134 -1 413 -1 #SUP: 2
2286 -1 7134 -1 1404 -1 #SUP: 2
2286 -1 7134 -1 2286 -1 #SUP: 2
2286 -1 7134 -1 2302 -1 #SUP: 16
2286 -1 7134 -1 7134 -1 #SUP: 2
2286 -1 7134 -1 151980 -1 #SUP: 18
2286 -1 151980 -1 91 -1 #SUP: 2
2286 -1 151980 -1 117 -1 #SUP: 3
2286 -1 151980 -1 122 -1 #SUP: 2
2286 -1 151980 -1 255 -1 #SUP: 2
2286 -1 151980 -1 262 -1 #SUP: 3
2286 -1 151980 -1 413 -1 #SUP: 2
2286 -1 151980 -1 1404 -1 #SUP: 2
2286 -1 151980 -1 2286 -1 #SUP: 2
2286 -1 151980 -1 2302 -1 #SUP: 16
2286 -1 151980 -1 7134 -1 #SUP: 2
2286 -1 151980 -1 151980 -1 #SUP: 2
2302 -1 117 -1 1404 -1 #SUP: 2
2302 -1 2286 -1 2302 -1 #SUP: 2
2302 -1 2286 -1 7134 -1 #SUP: 2
2302 -1 2286 -1 151980 -1 #SUP: 2
2302 -1 7134 -1 2302 -1 #SUP: 2
2302 -1 7134 -1 151980 -1 #SUP: 2
2302 -1 151980 -1 2302 -1 #SUP: 2
7134 -1 117 -1 1404 -1 #SUP: 2
7134 -1 2286 -1 2302 -1 #SUP: 2
7134 -1 2286 -1 7134 -1 #SUP: 2
7134 -1 2286 -1 151980 -1 #SUP: 2
7134 -1 2302 -1 91 -1 #SUP: 2
7134 -1 2302 -1 117 -1 #SUP: 3
7134 -1 2302 -1 122 -1 #SUP: 2
7134 -1 2302 -1 155 -1 #SUP: 2
7134 -1 2302 -1 255 -1 #SUP: 2
7134 -1 2302 -1 262 -1 #SUP: 3
7134 -1 2302 -1 413 -1 #SUP: 2
7134 -1 2302 -1 993 -1 #SUP: 2
7134 -1 2302 -1 1404 -1 #SUP: 2
7134 -1 2302 -1 2286 -1 #SUP: 2
7134 -1 2302 -1 2302 -1 #SUP: 2
7134 -1 2302 -1 7134 -1 #SUP: 2
7134 -1 2302 -1 151980 -1 #SUP: 2
7134 -1 7134 -1 2302 -1 #SUP: 2
7134 -1 7134 -1 151980 -1 #SUP: 2
7134 -1 151980 -1 91 -1 #SUP: 2
7134 -1 151980 -1 117 -1 #SUP: 3
7134 -1 151980 -1 122 -1 #SUP: 2
7134 -1 151980 -1 155 -1 #SUP: 2
7134 -1 151980 -1 255 -1 #SUP: 2
7134 -1 151980 -1 262 -1 #SUP: 3
7134 -1 151980 -1 413 -1 #SUP: 2
7134 -1 151980 -1 993 -1 #SUP: 2
7134 -1 151980 -1 1404 -1 #SUP: 2
7134 -1 151980 -1 2286 -1 #SUP: 2
7134 -1 151980 -1 2302 -1 #SUP: 16
7134 -1 151980 -1 7134 -1 #SUP: 2
7134 -1 151980 -1 151980 -1 #SUP: 2
151980 -1 117 -1 1404 -1 #SUP: 2
151980 -1 2286 -1 2302 -1 #SUP: 2
151980 -1 2286 -1 7134 -1 #SUP: 2
151980 -1 2286 -1 151980 -1 #SUP: 2
151980 -1 2302 -1 91 -1 #SUP: 2
151980 -1 2302 -1 117 -1 #SUP: 3
151980 -1 2302 -1 122 -1 #SUP: 2
151980 -1 2302 -1 155 -1 #SUP: 2
151980 -1 2302 -1 255 -1 #SUP: 2
151980 -1 2302 -1 262 -1 #SUP: 3
151980 -1 2302 -1 413 -1 #SUP: 2
151980 -1 2302 -1 993 -1 #SUP: 2
151980 -1 2302 -1 1404 -1 #SUP: 2
151980 -1 2302 -1 2286 -1 #SUP: 2
151980 -1 2302 -1 2302 -1 #SUP: 2
151980 -1 2302 -1 7134 -1 #SUP: 2
151980 -1 2302 -1 151980 -1 #SUP: 2
151980 -1 7134 -1 2302 -1 #SUP: 2
151980 -1 7134 -1 151980 -1 #SUP: 2
151980 -1 151980 -1 2302 -1 #SUP: 2
91 -1 2286 -1 7134 -1 2302 -1 #SUP: 2
91 -1 2286 -1 7134 -1 151980 -1 #SUP: 2
91 -1 2286 -1 151980 -1 2302 -1 #SUP: 2
91 -1 7134 -1 151980 -1 2302 -1 #SUP: 2
197 -1 2286 -1 7134 -1 2302 -1 #SUP: 3
197 -1 2286 -1 7134 -1 151980 -1 #SUP: 3
197 -1 2286 -1 151980 -1 2302 -1 #SUP: 3
197 -1 7134 -1 151980 -1 2302 -1 #SUP: 3
2286 -1 2286 -1 7134 -1 2302 -1 #SUP: 2
2286 -1 2286 -1 7134 -1 151980 -1 #SUP: 2
2286 -1 2286 -1 151980 -1 2302 -1 #SUP: 2
2286 -1 2302 -1 117 -1 1404 -1 #SUP: 2
2286 -1 2302 -1 2286 -1 2302 -1 #SUP: 2
2286 -1 2302 -1 2286 -1 7134 -1 #SUP: 2
2286 -1 2302 -1 2286 -1 151980 -1 #SUP: 2
2286 -1 2302 -1 7134 -1 2302 -1 #SUP: 2
2286 -1 2302 -1 7134 -1 151980 -1 #SUP: 2
2286 -1 2302 -1 151980 -1 2302 -1 #SUP: 2
2286 -1 7134 -1 117 -1 1404 -1 #SUP: 2
2286 -1 7134 -1 2286 -1 2302 -1 #SUP: 2
2286 -1 7134 -1 2286 -1 7134 -1 #SUP: 2
2286 -1 7134 -1 2286 -1 151980 -1 #SUP: 2
2286 -1 7134 -1 2302 -1 91 -1 #SUP: 2
2286 -1 7134 -1 2302 -1 117 -1 #SUP: 3
2286 -1 7134 -1 2302 -1 122 -1 #SUP: 2
2286 -1 7134 -1 2302 -1 255 -1 #SUP: 2
2286 -1 7134 -1 2302 -1 262 -1 #SUP: 3
2286 -1 7134 -1 2302 -1 413 -1 #SUP: 2
2286 -1 7134 -1 2302 -1 1404 -1 #SUP: 2
2286 -1 7134 -1 2302 -1 2286 -1 #SUP: 2
2286 -1 7134 -1 2302 -1 2302 -1 #SUP: 2
2286 -1 7134 -1 2302 -1 7134 -1 #SUP: 2
2286 -1 7134 -1 2302 -1 151980 -1 #SUP: 2
2286 -1 7134 -1 7134 -1 2302 -1 #SUP: 2
2286 -1 7134 -1 7134 -1 151980 -1 #SUP: 2
2286 -1 7134 -1 151980 -1 91 -1 #SUP: 2
2286 -1 7134 -1 151980 -1 117 -1 #SUP: 3
2286 -1 7134 -1 151980 -1 122 -1 #SUP: 2
2286 -1 7134 -1 151980 -1 255 -1 #SUP: 2
2286 -1 7134 -1 151980 -1 262 -1 #SUP: 3
2286 -1 7134 -1 151980 -1 413 -1 #SUP: 2
2286 -1 7134 -1 151980 -1 1404 -1 #SUP: 2
2286 -1 7134 -1 151980 -1 2286 -1 #SUP: 2
2286 -1 7134 -1 151980 -1 2302 -1 #SUP: 16
2286 -1 7134 -1 151980 -1 7134 -1 #SUP: 2
2286 -1 7134 -1 151980 -1 151980 -1 #SUP: 2
2286 -1 151980 -1 117 -1 1404 -1 #SUP: 2
2286 -1 151980 -1 2286 -1 2302 -1 #SUP: 2
2286 -1 151980 -1 2286 -1 7134 -1 #SUP: 2
2286 -1 151980 -1 2286 -1 151980 -1 #SUP: 2
2286 -1 151980 -1 2302 -1 91 -1 #SUP: 2
2286 -1 151980 -1 2302 -1 117 -1 #SUP: 3
2286 -1 151980 -1 2302 -1 122 -1 #SUP: 2
2286 -1 151980 -1 2302 -1 255 -1 #SUP: 2
2286 -1 151980 -1 2302 -1 262 -1 #SUP: 3
2286 -1 151980 -1 2302 -1 413 -1 #SUP: 2
2286 -1 151980 -1 2302 -1 1404 -1 #SUP: 2
2286 -1 151980 -1 2302 -1 2286 -1 #SUP: 2
2286 -1 151980 -1 2302 -1 2302 -1 #SUP: 2
2286 -1 151980 -1 2302 -1 7134 -1 #SUP: 2
2286 -1 151980 -1 2302 -1 151980 -1 #SUP: 2
2286 -1 151980 -1 7134 -1 2302 -1 #SUP: 2
2286 -1 151980 -1 7134 -1 151980 -1 #SUP: 2
2286 -1 151980 -1 151980 -1 2302 -1 #SUP: 2
2302 -1 2286 -1 7134 -1 2302 -1 #SUP: 2
2302 -1 2286 -1 7134 -1 151980 -1 #SUP: 2
2302 -1 2286 -1 151980 -1 2302 -1 #SUP: 2
2302 -1 7134 -1 151980 -1 2302 -1 #SUP: 2
7134 -1 2286 -1 7134 -1 2302 -1 #SUP: 2
7134 -1 2286 -1 7134 -1 151980 -1 #SUP: 2
7134 -1 2286 -1 151980 -1 2302 -1 #SUP: 2
7134 -1 2302 -1 117 -1 1404 -1 #SUP: 2
7134 -1 2302 -1 2286 -1 2302 -1 #SUP: 2
7134 -1 2302 -1 2286 -1 7134 -1 #SUP: 2
7134 -1 2302 -1 2286 -1 151980 -1 #SUP: 2
7134 -1 2302 -1 7134 -1 2302 -1 #SUP: 2
7134 -1 2302 -1 7134 -1 151980 -1 #SUP: 2
7134 -1 2302 -1 151980 -1 2302 -1 #SUP: 2
7134 -1 7134 -1 151980 -1 2302 -1 #SUP: 2
7134 -1 151980 -1 117 -1 1404 -1 #SUP: 2
7134 -1 151980 -1 2286 -1 2302 -1 #SUP: 2
7134 -1 151980 -1 2286 -1 7134 -1 #SUP: 2
7134 -1 151980 -1 2286 -1 151980 -1 #SUP: 2
7134 -1 151980 -1 2302 -1 91 -1 #SUP: 2
7134 -1 151980 -1 2302 -1 117 -1 #SUP: 3
7134 -1 151980 -1 2302 -1 122 -1 #SUP: 2
7134 -1 151980 -1 2302 -1 155 -1 #SUP: 2
7134 -1 151980 -1 2302 -1 255 -1 #SUP: 2
7134 -1 151980 -1 2302 -1 262 -1 #SUP: 3
7134 -1 151980 -1 2302 -1 413 -1 #SUP: 2
7134 -1 151980 -1 2302 -1 993 -1 #SUP: 2
7134 -1 151980 -1 2302 -1 1404 -1 #SUP: 2
7134 -1 151980 -1 2302 -1 2286 -1 #SUP: 2
7134 -1 151980 -1 2302 -1 2302 -1 #SUP: 2
7134 -1 151980 -1 2302 -1 7134 -1 #SUP: 2
7134 -1 151980 -1 2302 -1 151980 -1 #SUP: 2
7134 -1 151980 -1 7134 -1 2302 -1 #SUP: 2
7134 -1 151980 -1 7134 -1 151980 -1 #SUP: 2
7134 -1 151980 -1 151980 -1 2302 -1 #SUP: 2
151980 -1 2286 -1 7134 -1 2302 -1 #SUP: 2
151980 -1 2286 -1 7134 -1 151980 -1 #SUP: 2
151980 -1 2286 -1 151980 -1 2302 -1 #SUP: 2
151980 -1 2302 -1 117 -1 1404 -1 #SUP: 2
151980 -1 2302 -1 2286 -1 2302 -1 #SUP: 2
151980 -1 2302 -1 2286 -1 7134 -1 #SUP: 2
151980 -1 2302 -1 2286 -1 151980 -1 #SUP: 2
151980 -1 2302 -1 7134 -1 2302 -1 #SUP: 2
151980 -1 2302 -1 7134 -1 151980 -1 #SUP: 2
151980 -1 2302 -1 151980 -1 2302 -1 #SUP: 2
151980 -1 7134 -1 151980 -1 2302 -1 #SUP: 2
91 -1 2286 -1 7134 -1 151980 -1 2302 -1 #SUP: 2
197 -1 2286 -1 7134 -1 151980 -1 2302 -1 #SUP: 3
2286 -1 2286 -1 7134 -1 151980 -1 2302 -1 #SUP: 2
2286 -1 2302 -1 2286 -1 7134 -1 2302 -1 #SUP: 2
2286 -1 2302 -1 2286 -1 7134 -1 151980 -1 #SUP: 2
2286 -1 2302 -1 2286 -1 151980 -1 2302 -1 #SUP: 2
2286 -1 2302 -1 7134 -1 151980 -1 2302 -1 #SUP: 2
2286 -1 7134 -1 2286 -1 7134 -1 2302 -1 #SUP: 2
2286 -1 7134 -1 2286 -1 7134 -1 151980 -1 #SUP: 2
2286 -1 7134 -1 2286 -1 151980 -1 2302 -1 #SUP: 2
2286 -1 7134 -1 2302 -1 117 -1 1404 -1 #SUP: 2
2286 -1 7134 -1 2302 -1 2286 -1 2302 -1 #SUP: 2
2286 -1 7134 -1 2302 -1 2286 -1 7134 -1 #SUP: 2
2286 -1 7134 -1 2302 -1 2286 -1 151980 -1 #SUP: 2
2286 -1 7134 -1 2302 -1 7134 -1 2302 -1 #SUP: 2
2286 -1 7134 -1 2302 -1 7134 -1 151980 -1 #SUP: 2
2286 -1 7134 -1 2302 -1 151980 -1 2302 -1 #SUP: 2
2286 -1 7134 -1 7134 -1 151980 -1 2302 -1 #SUP: 2
2286 -1 7134 -1 151980 -1 117 -1 1404 -1 #SUP: 2
2286 -1 7134 -1 151980 -1 2286 -1 2302 -1 #SUP: 2
2286 -1 7134 -1 151980 -1 2286 -1 7134 -1 #SUP: 2
2286 -1 7134 -1 151980 -1 2286 -1 151980 -1 #SUP: 2
2286 -1 7134 -1 151980 -1 2302 -1 91 -1 #SUP: 2
2286 -1 7134 -1 151980 -1 2302 -1 117 -1 #SUP: 3
2286 -1 7134 -1 151980 -1 2302 -1 122 -1 #SUP: 2
2286 -1 7134 -1 151980 -1 2302 -1 255 -1 #SUP: 2
2286 -1 7134 -1 151980 -1 2302 -1 262 -1 #SUP: 3
2286 -1 7134 -1 151980 -1 2302 -1 413 -1 #SUP: 2
2286 -1 7134 -1 151980 -1 2302 -1 1404 -1 #SUP: 2
2286 -1 7134 -1 151980 -1 2302 -1 2286 -1 #SUP: 2
2286 -1 7134 -1 151980 -1 2302 -1 2302 -1 #SUP: 2
2286 -1 7134 -1 151980 -1 2302 -1 7134 -1 #SUP: 2
2286 -1 7134 -1 151980 -1 2302 -1 151980 -1 #SUP: 2
2286 -1 7134 -1 151980 -1 7134 -1 2302 -1 #SUP: 2
2286 -1 7134 -1 151980 -1 7134 -1 151980 -1 #SUP: 2
2286 -1 7134 -1 151980 -1 151980 -1 2302 -1 #SUP: 2
2286 -1 151980 -1 2286 -1 7134 -1 2302 -1 #SUP: 2
2286 -1 151980 -1 2286 -1 7134 -1 151980 -1 #SUP: 2
2286 -1 151980 -1 2286 -1 151980 -1 2302 -1 #SUP: 2
2286 -1 151980 -1 2302 -1 117 -1 1404 -1 #SUP: 2
2286 -1 151980 -1 2302 -1 2286 -1 2302 -1 #SUP: 2
2286 -1 151980 -1 2302 -1 2286 -1 7134 -1 #SUP: 2
2286 -1 151980 -1 2302 -1 2286 -1 151980 -1 #SUP: 2
2286 -1 151980 -1 2302 -1 7134 -1 2302 -1 #SUP: 2
2286 -1 151980 -1 2302 -1 7134 -1 151980 -1 #SUP: 2
2286 -1 151980 -1 2302 -1 151980 -1 2302 -1 #SUP: 2
2286 -1 151980 -1 7134 -1 151980 -1 2302 -1 #SUP: 2
2302 -1 2286 -1 7134 -1 151980 -1 2302 -1 #SUP: 2
7134 -1 2286 -1 7134 -1 151980 -1 2302 -1 #SUP: 2
7134 -1 2302 -1 2286 -1 7134 -1 2302 -1 #SUP: 2
7134 -1 2302 -1 2286 -1 7134 -1 151980 -1 #SUP: 2
7134 -1 2302 -1 2286 -1 151980 -1 2302 -1 #SUP: 2
7134 -1 2302 -1 7134 -1 151980 -1 2302 -1 #SUP: 2
7134 -1 151980 -1 2286 -1 7134 -1 2302 -1 #SUP: 2
7134 -1 151980 -1 2286 -1 7134 -1 151980 -1 #SUP: 2
7134 -1 151980 -1 2286 -1 151980 -1 2302 -1 #SUP: 2
7134 -1 151980 -1 2302 -1 117 -1 1404 -1 #SUP: 2
7134 -1 151980 -1 2302 -1 2286 -1 2302 -1 #SUP: 2
7134 -1 151980 -1 2302 -1 2286 -1 7134 -1 #SUP: 2
7134 -1 151980 -1 2302 -1 2286 -1 151980 -1 #SUP: 2
7134 -1 151980 -1 2302 -1 7134 -1 2302 -1 #SUP: 2
7134 -1 151980 -1 2302 -1 7134 -1 151980 -1 #SUP: 2
7134 -1 151980 -1 2302 -1 151980 -1 2302 -1 #SUP: 2
7134 -1 151980 -1 7134 -1 151980 -1 2302 -1 #SUP: 2
151980 -1 2286 -1 7134 -1 151980 -1 2302 -1 #SUP: 2
151980 -1 2302 -1 2286 -1 7134 -1 2302 -1 #SUP: 2
151980 -1 2302 -1 2286 -1 7134 -1 151980 -1 #SUP: 2
151980 -1 2302 -1 2286 -1 151980 -1 2302 -1 #SUP: 2
151980 -1 2302 -1 7134 -1 151980 -1 2302 -1 #SUP: 2
2286 -1 2302 -1 2286 -1 7134 -1 151980 -1 2302 -1 #SUP: 2
2286 -1 7134 -1 2286 -1 7134 -1 151980 -1 2302 -1 #SUP: 2
2286 -1 7134 -1 2302 -1 2286 -1 7134 -1 2302 -1 #SUP: 2
2286 -1 7134 -1 2302 -1 2286 -1 7134 -1 151980 -1 #SUP: 2
2286 -1 7134 -1 2302 -1 2286 -1 151980 -1 2302 -1 #SUP: 2
2286 -1 7134 -1 2302 -1 7134 -1 151980 -1 2302 -1 #SUP: 2
2286 -1 7134 -1 151980 -1 2286 -1 7134 -1 2302 -1 #SUP: 2
2286 -1 7134 -1 151980 -1 2286 -1 7134 -1 151980 -1 #SUP: 2
2286 -1 7134 -1 151980 -1 2286 -1 151980 -1 2302 -1 #SUP: 2
2286 -1 7134 -1 151980 -1 2302 -1 117 -1 1404 -1 #SUP: 2
2286 -1 7134 -1 151980 -1 2302 -1 2286 -1 2302 -1 #SUP: 2
2286 -1 7134 -1 151980 -1 2302 -1 2286 -1 7134 -1 #SUP: 2
2286 -1 7134 -1 151980 -1 2302 -1 2286 -1 151980 -1 #SUP: 2
2286 -1 7134 -1 151980 -1 2302 -1 7134 -1 2302 -1 #SUP: 2
2286 -1 7134 -1 151980 -1 2302 -1 7134 -1 151980 -1 #SUP: 2
2286 -1 7134 -1 151980 -1 2302 -1 151980 -1 2302 -1 #SUP: 2
2286 -1 7134 -1 151980 -1 7134 -1 151980 -1 2302 -1 #SUP: 2
2286 -1 151980 -1 2286 -1 7134 -1 151980 -1 2302 -1 #SUP: 2
2286 -1 151980 -1 2302 -1 2286 -1 7134 -1 2302 -1 #SUP: 2
2286 -1 151980 -1 2302 -1 2286 -1 7134 -1 151980 -1 #SUP: 2
2286 -1 151980 -1 2302 -1 2286 -1 151980 -1 2302 -1 #SUP: 2
2286 -1 151980 -1 2302 -1 7134 -1 151980 -1 2302 -1 #SUP: 2
7134 -1 2302 -1 2286 -1 7134 -1 151980 -1 2302 -1 #SUP: 2
7134 -1 151980 -1 2286 -1 7134 -1 151980 -1 2302 -1 #SUP: 2
7134 -1 151980 -1 2302 -1 2286 -1 7134 -1 2302 -1 #SUP: 2
7134 -1 151980 -1 2302 -1 2286 -1 7134 -1 151980 -1 #SUP: 2
7134 -1 151980 -1 2302 -1 2286 -1 151980 -1 2302 -1 #SUP: 2
7134 -1 151980 -1 2302 -1 7134 -1 151980 -1 2302 -1 #SUP: 2
151980 -1 2302 -1 2286 -1 7134 -1 151980 -1 2302 -1 #SUP: 2
2286 -1 7134 -1 2302 -1 2286 -1 7134 -1 151980 -1 2302 -1 #SUP: 2
2286 -1 7134 -1 151980 -1 2286 -1 7134 -1 151980 -1 2302 -1 #SUP: 2
2286 -1 7134 -1 151980 -1 2302 -1 2286 -1 7134 -1 2302 -1 #SUP: 2
2286 -1 7134 -1 151980 -1 2302 -1 2286 -1 7134 -1 151980 -1 #SUP: 2
2286 -1 7134 -1 151980 -1 2302 -1 2286 -1 151980 -1 2302 -1 #SUP: 2
2286 -1 7134 -1 151980 -1 2302 -1 7134 -1 151980 -1 2302 -1 #SUP: 2
2286 -1 151980 -1 2302 -1 2286 -1 7134 -1 151980 -1 2302 -1 #SUP: 2
7134 -1 151980 -1 2302 -1 2286 -1 7134 -1 151980 -1 2302 -1 #SUP: 2
2286 -1 7134 -1 151980 -1 2302 -1 2286 -1 7134 -1 151980 -1 2302 -1 #SUP: 2
