19 -2
114672 -1 262 -1 42 -1 50 -1 285 -1 19 -2
3824 -1 13565 -1 19 -2
9983 -1 1131 -1 3079 -1 117 -1 2349 -1 890 -1 53 -1 225 -1 1175 -1 290 -1 19 -2
262 -1 405 -1 19 -2
498 -1 3927 -1 50 -1 262 -1 19 -2
117 -1 271 -1 74 -1 50 -1 1797 -1 19 -2
48 -1 5662 -1 1125 -1 269 -1 5837 -1 6178 -1 50 -1 405 -1 453 -1 4613 -1 1024 -1 5798 -1 5289 -1 240 -1 48 -1 6250 -1 19 -2
466 -1 49 -1 1 -2
5432 -1 717 -1 114673 -1 3258 -1 50 -1 262 -1 5017 -1 19 -2
1225 -1 7 -1 30 -1 1426 -1 2751 -1 271 -1 30 -1 3455 -1 19 -2
240 -1 1059 -1 2777 -1 2127 -1 1051 -1 3119 -1 3952 -1 19 -2
1265 -1 1370 -1 50 -1 91 -1 240 -1 19 -2
50 -1 4214 -1 50 -1 471 -1 2229 -1 91 -1 1455 -1 184 -1 19 -2
692 -1 1455 -1 19776 -1 4403 -2
201 -1 50 -1 1265 -1 139 -1 19 -2
1612 -1 5298 -1 4127 -1 50 -1 19 -2
5432 -1 196 -2
122 -1 5724 -1 19 -2
14316 -1 1508 -1 202 -1 1 -2
1690 -1 50 -1 1 -2
48 -1 894 -1 348 -1 19329 -1 125 -1 27979 -1 2708 -1 155 -1 350 -1 9 -1 19 -2
2722 -1 19 -2
5350 -1 50 -1 19 -2
48 -1 507 -1 317 -1 508 -1 255 -1 30303 -1 1660 -1 9979 -1 116 -1 255 -1 3304 -1 3032 -1 50 -1 240 -1 3824 -1 50 -1 117 -1 525 -1 3075 -1 748 -1 19 -2
498 -1 524 -1 50 -1 614 -1 640 -1 700 -1 20254 -1 19 -2
957 -1 197 -1 652 -1 50 -1 155 -1 652 -1 19 -2
255 -1 1712 -1 761 -1 19 -2
1015 -1 509 -1 19 -2
9657 -1 1690 -1 196 -2
50 -1 967 -1 1 -2
498 -1 524 -1 50 -1 2722 -1 3375 -1 19 -2
48 -1 2317 -1 19 -2
971 -1 1332 -1 114674 -1 50 -1 1645 -1 412 -1 523 -1 564 -1 775 -1 19 -2
50 -1 680 -1 50 -1 326 -1 637 -1 19 -2
50 -1 698 -1 849 -1 6509 -1 2783 -1 16399 -1 14316 -1 19 -2
1645 -1 107 -1 550 -1 50 -1 1357 -1 12604 -1 19 -2
679 -1 3075 -1 196 -2
118 -1 609 -1 407 -1 50 -1 91 -1 1377 -1 262 -1 3604 -1 44 -1 1692 -1 5865 -1 523 -1 2139 -1 543 -1 3246 -1 19 -2
999 -1 48 -1 894 -1 196 -2
1538 -1 312 -1 1036 -1 2774 -1 75551 -1 1692 -1 361 -1 262 -1 766 -1 19 -2
4038 -1 1 -2
498 -1 6742 -1 25069 -1 196 -2
2246 -1 523 -1 747 -1 50 -1 679 -1 19 -2
122 -1 19 -2
50 -1 5345 -1 35235 -1 35236 -1 122 -1 19 -2
5415 -1 50 -1 748 -1 7386 -1 107 -1 1 -2
12899 -1 488 -1 1 -2
298 -1 35468 -1 8977 -1 2657 -1 50 -1 148 -1 5662 -1 19 -2
278 -1 1 -2
1272 -1 1 -2
197 -1 1272 -1 50 -1 91 -1 197 -1 255 -1 278 -1 306 -1 1973 -1 2178 -1 19 -2
154 -1 327 -1 598 -1 155 -1 19 -2
19 -2
578 -1 19 -2
552 -1 361 -1 637 -1 1998 -1 853 -1 155 -1 1538 -1 1692 -1 578 -1 19 -2
361 -1 50 -1 681 -1 117 -1 11462 -1 58228 -1 2691 -1 19 -2
2147 -1 1018 -1 19 -2
5330 -1 10855 -1 1498 -1 784 -1 266 -1 1487 -1 361 -1 50 -1 1121 -1 1741 -1 121 -1 117 -1 742 -1 19 -2
498 -1 524 -1 50 -1 7645 -1 19764 -1 17728 -1 10766 -1 35468 -1 1125 -1 19 -2
91 -1 197 -1 91 -1 1499 -1 1340 -1 48 -1 1010 -1 121 -1 91 -1 19 -2
5405 -1 965 -1 263 -1 1 -2
3273 -1 1 -2
5405 -1 524 -1 19 -2
1188 -1 69469 -1 4107 -1 1511 -1 1131 -1 2089 -1 19219 -1 1888 -1 2569 -1 19 -2
853 -1 13960 -1 1 -2
1350 -1 1793 -1 19 -2
48 -1 3800 -1 1321 -1 50 -1 957 -1 91 -1 197 -1 19 -2
91 -1 29532 -1 2244 -1 54 -1 3079 -1 1249 -1 1275 -1 19 -2
3824 -1 144 -1 19 -2
508 -1 507 -1 1286 -1 19 -2
809 -1 785 -1 767 -1 19 -2
1011 -1 50 -1 63879 -1 2066 -1 50 -1 1018 -1 3693 -1 2066 -1 50 -1 720 -1 1888 -1 872 -1 107 -1 19 -2
685 -1 196 -2
1971 -1 486 -1 2460 -1 1 -2
498 -1 999 -1 524 -1 50 -1 117 -1 19764 -1 1711 -1 19 -2
8977 -1 760 -1 298 -1 35468 -1 50 -1 2687 -1 1487 -1 1508 -1 583 -1 19 -2
19 -2
197 -1 48 -1 5284 -1 3141 -1 19 -2
350 -1 9 -1 50 -1 91 -1 1016 -1 50 -1 48 -1 700 -1 50 -1 242 -1 785 -1 3598 -1 155 -1 50 -1 262 -1 1881 -1 652 -1 19 -2
114675 -1 196 -2
117 -1 2878 -1 690 -1 155 -1 1615 -1 10935 -1 493 -1 35065 -1 19 -2
982 -1 622 -1 45993 -1 35065 -1 801 -1 9228 -1 267 -1 55 -1 19 -2
1690 -1 50 -1 262 -1 654 -1 1435 -1 825 -1 19 -2
752 -1 3135 -1 50 -1 2540 -1 197 -1 1 -2
297 -1 1495 -1 50 -1 957 -1 1711 -1 4974 -1 8923 -1 19 -2
7874 -1 196 -2
173 -1 19219 -1 73801 -1 5478 -1 1690 -1 19 -2
7042 -1 50 -1 28219 -1 5965 -1 782 -1 1370 -1 2724 -1 19 -2
7045 -1 50 -1 4860 -1 10654 -1 1204 -1 1447 -1 17560 -1 19 -2
1 -1 196 -2
5432 -1 5432 -1 5432 -1 50 -1 752 -1 271 -1 196 -2
5415 -1 50 -1 50 -1 3647 -1 507 -1 2235 -1 1645 -1 50 -1 91 -1 564 -1 826 -1 1 -2
5164 -1 19 -2
785 -1 8253 -1 262 -1 9998 -1 19 -2
240 -1 993 -1 262 -1 6359 -1 50 -1 656 -1 19 -2
999 -1 50 -1 255 -1 4058 -1 33 -1 19 -1 1 -2
19 -2
50 -1 91 -1 240 -1 614 -1 118 -1 55 -1 19 -2
747 -1 16265 -1 1257 -1 1016 -1 19219 -1 9256 -1 50 -1 748 -1 609 -1 19 -2
1774 -1 19 -2
1395 -1 27 -1 50 -1 638 -1 50 -1 262 -1 2783 -1 19 -2
91 -1 240 -1 50 -1 262 -1 2178 -1 2934 -1 4613 -1 1435 -1 10654 -1 881 -1 4857 -1 50 -1 271 -1 760 -1 11762 -1 19 -2
50 -1 849 -1 1793 -1 19 -2
2722 -1 50 -1 1455 -1 155 -1 240 -1 68 -1 51 -1 19 -2
362 -1 23183 -1 114676 -1 1137 -1 124 -1 271 -1 125 -1 544 -1 19 -2
6793 -1 50 -1 1111 -1 3545 -1 155 -1 1216 -1 48 -1 894 -1 19219 -1 196 -2
50 -1 262 -1 624 -1 50 -1 614 -1 609 -1 1968 -1 19 -2
5432 -1 50 -1 1975 -1 19 -2
1690 -1 4571 -1 19 -2
1645 -1 466 -1 1094 -1 50 -1 48 -1 3283 -1 935 -1 288 -1 50 -1 1645 -1 6742 -1 637 -1 19 -2
117 -1 286 -1 1005 -1 423 -1 8770 -1 50 -1 117 -1 118 -1 1763 -1 19219 -1 225 -1 114677 -1 2701 -1 19 -2
240 -1 19 -2
33360 -1 196 -2
262 -1 507 -1 311 -1 19 -2
1447 -1 114678 -1 7161 -1 1896 -1 19 -2
117 -1 3394 -1 1637 -1 1476 -1 42304 -1 4906 -1 4403 -2
44466 -1 56502 -1 50 -1 2436 -1 23084 -1 50 -1 126 -1 127 -1 50 -1 19 -2
240 -1 96 -1 19 -2
117 -1 2331 -1 3138 -1 1220 -1 520 -1 1637 -1 19 -2
361 -1 155 -1 1973 -1 858 -1 2927 -1 255 -1 19 -2
19 -2