7 -1 #SUP: 3
19 -1 #SUP: 4
33 -1 #SUP: 2
36 -1 #SUP: 2
41 -1 #SUP: 2
48 -1 #SUP: 9
49 -1 #SUP: 3
50 -1 #SUP: 54
91 -1 #SUP: 2
114 -1 #SUP: 3
117 -1 #SUP: 9
118 -1 #SUP: 3
121 -1 #SUP: 2
144 -1 #SUP: 2
148 -1 #SUP: 6
154 -1 #SUP: 2
155 -1 #SUP: 6
197 -1 #SUP: 8
216 -1 #SUP: 2
225 -1 #SUP: 2
240 -1 #SUP: 2
255 -1 #SUP: 5
262 -1 #SUP: 10
263 -1 #SUP: 2
287 -1 #SUP: 3
311 -1 #SUP: 2
361 -1 #SUP: 3
380 -1 #SUP: 2
393 -1 #SUP: 2
399 -1 #SUP: 2
404 -1 #SUP: 2
431 -1 #SUP: 3
460 -1 #SUP: 2
471 -1 #SUP: 2
488 -1 #SUP: 2
523 -1 #SUP: 2
535 -1 #SUP: 4
545 -1 #SUP: 4
559 -1 #SUP: 2
600 -1 #SUP: 2
643 -1 #SUP: 2
644 -1 #SUP: 3
670 -1 #SUP: 2
692 -1 #SUP: 2
695 -1 #SUP: 2
785 -1 #SUP: 2
820 -1 #SUP: 2
853 -1 #SUP: 3
917 -1 #SUP: 2
928 -1 #SUP: 2
953 -1 #SUP: 2
973 -1 #SUP: 2
979 -1 #SUP: 4
994 -1 #SUP: 2
1022 -1 #SUP: 2
1043 -1 #SUP: 4
1059 -1 #SUP: 2
1124 -1 #SUP: 2
1265 -1 #SUP: 4
1377 -1 #SUP: 3
1415 -1 #SUP: 3
1426 -1 #SUP: 6
1499 -1 #SUP: 2
1572 -1 #SUP: 2
1677 -1 #SUP: 4
1730 -1 #SUP: 3
1760 -1 #SUP: 2
1796 -1 #SUP: 2
1905 -1 #SUP: 2
2671 -1 #SUP: 3
2724 -1 #SUP: 2
2896 -1 #SUP: 2
4605 -1 #SUP: 2
5990 -1 #SUP: 2
6930 -1 #SUP: 2
8732 -1 #SUP: 2
11731 -1 #SUP: 2
15073 -1 #SUP: 2
21093 -1 #SUP: 2
48040 -1 #SUP: 2
7 -1 1677 -1 #SUP: 2
7 -1 2724 -1 #SUP: 2
49 -1 50 -1 #SUP: 2
50 -1 48 -1 #SUP: 5
50 -1 50 -1 #SUP: 12
50 -1 118 -1 #SUP: 2
50 -1 121 -1 #SUP: 2
50 -1 148 -1 #SUP: 3
50 -1 155 -1 #SUP: 2
50 -1 197 -1 #SUP: 2
50 -1 262 -1 #SUP: 2
50 -1 361 -1 #SUP: 3
50 -1 488 -1 #SUP: 2
50 -1 644 -1 #SUP: 2
50 -1 785 -1 #SUP: 2
50 -1 1043 -1 #SUP: 2
50 -1 1415 -1 #SUP: 2
117 -1 50 -1 #SUP: 5
117 -1 155 -1 #SUP: 2
148 -1 50 -1 #SUP: 4
197 -1 48 -1 #SUP: 2
197 -1 50 -1 #SUP: 6
262 -1 50 -1 #SUP: 2
262 -1 287 -1 #SUP: 2
262 -1 404 -1 #SUP: 2
361 -1 50 -1 #SUP: 2
404 -1 287 -1 #SUP: 2
431 -1 50 -1 #SUP: 2
471 -1 50 -1 #SUP: 2
545 -1 50 -1 #SUP: 3
643 -1 50 -1 #SUP: 2
644 -1 50 -1 #SUP: 2
928 -1 50 -1 #SUP: 2
979 -1 50 -1 #SUP: 2
979 -1 2671 -1 #SUP: 2
1043 -1 50 -1 #SUP: 2
1265 -1 8732 -1 #SUP: 2
1265 -1 21093 -1 #SUP: 2
1426 -1 50 -1 #SUP: 3
1426 -1 117 -1 #SUP: 2
1677 -1 7 -1 #SUP: 2
1677 -1 535 -1 #SUP: 2
1677 -1 1677 -1 #SUP: 2
1677 -1 2724 -1 #SUP: 2
1730 -1 7 -1 #SUP: 2
1730 -1 1677 -1 #SUP: 2
1730 -1 2724 -1 #SUP: 2
2671 -1 33 -1 #SUP: 2
2724 -1 1677 -1 #SUP: 2
8732 -1 21093 -1 #SUP: 2
48040 -1 15073 -1 #SUP: 2
7 -1 2724 -1 1677 -1 #SUP: 2
50 -1 50 -1 50 -1 #SUP: 2
50 -1 148 -1 50 -1 #SUP: 2
50 -1 361 -1 50 -1 #SUP: 2
197 -1 50 -1 48 -1 #SUP: 2
262 -1 404 -1 287 -1 #SUP: 2
1265 -1 8732 -1 21093 -1 #SUP: 2
1677 -1 7 -1 1677 -1 #SUP: 2
1677 -1 7 -1 2724 -1 #SUP: 2
1677 -1 2724 -1 1677 -1 #SUP: 2
1730 -1 7 -1 1677 -1 #SUP: 2
1730 -1 7 -1 2724 -1 #SUP: 2
1730 -1 1677 -1 7 -1 #SUP: 2
1730 -1 1677 -1 1677 -1 #SUP: 2
1730 -1 1677 -1 2724 -1 #SUP: 2
1730 -1 2724 -1 1677 -1 #SUP: 2
1677 -1 7 -1 2724 -1 1677 -1 #SUP: 2
1730 -1 7 -1 2724 -1 1677 -1 #SUP: 2
1730 -1 1677 -1 7 -1 1677 -1 #SUP: 2
1730 -1 1677 -1 7 -1 2724 -1 #SUP: 2
1730 -1 1677 -1 2724 -1 1677 -1 #SUP: 2
1730 -1 1677 -1 7 -1 2724 -1 1677 -1 #SUP: 2
