471 -1 201 -1 5358 -1 200 -1 520 -1 50 -1 766 -1 50 -1 91 -1 361 -1 1311 -1 201 -1 19 -2
154 -1 1712 -1 19 -2
163 -1 50 -1 75 -1 196 -2
809 -1 453 -1 361 -1 530 -1 817 -1 19 -2
1151 -1 1781 -1 785 -1 50 -1 262 -1 108 -1 993 -1 4141 -1 19 -2
535 -1 1538 -1 507 -1 306 -1 19 -2
55 -1 344 -1 3376 -1 2158 -1 19 -2
1019 -1 50 -1 672 -1 50 -1 453 -1 595 -1 2759 -1 451 -1 50 -1 91 -1 3244 -1 19 -2
1019 -1 50 -1 1616 -1 49 -1 2427 -1 50 -1 240 -1 50 -1 453 -1 10605 -1 2070 -1 97 -1 50 -1 680 -1 19 -2
2687 -1 2067 -1 186 -1 3373 -1 1097 -1 262 -1 1494 -1 13040 -1 1879 -1 50 -1 255 -1 801 -1 5180 -1 801 -1 6376 -1 19 -2
3421 -1 2002 -1 84425 -1 197 -1 19 -2
1024 -1 36 -1 50 -1 2751 -1 48 -1 196 -2
262 -1 509 -1 114 -1 22708 -1 19 -2
197 -1 2751 -1 50 -1 262 -1 993 -1 19 -2
1489 -1 240 -1 1577 -1 648 -1 9179 -1 564 -1 84426 -1 19 -2
9661 -1 50 -1 775 -1 817 -1 19 -2
271 -1 1059 -1 1175 -1 290 -1 50 -1 504 -1 407 -1 19 -2
262 -1 5115 -1 197 -1 19 -2
262 -1 507 -1 993 -1 262 -1 535 -1 50 -1 169 -1 535 -1 1645 -1 19 -2
48 -1 842 -1 1 -2
262 -1 2624 -1 117 -1 3366 -1 19 -2
262 -1 43211 -1 1894 -1 67 -1 19 -2
1377 -1 7104 -1 55 -1 633 -1 1367 -1 262 -1 1318 -1 50 -1 19 -2
656 -1 1968 -1 19 -2
262 -1 84427 -1 2565 -1 50 -1 504 -1 1783 -1 5791 -1 19 -2
50 -1 262 -1 864 -1 1714 -1 366 -1 4141 -1 19 -2
50 -1 262 -1 820 -1 33 -1 1692 -1 545 -1 19 -2
423 -1 255 -1 535 -1 50 -1 1005 -1 993 -1 19 -2
116 -1 3079 -1 323 -1 117 -1 19 -2
353 -1 1455 -1 297 -1 535 -1 19 -2
48 -1 3816 -1 2813 -1 7213 -1 954 -1 955 -1 50 -1 48 -1 175 -1 175 -1 19 -1 33 -1 117 -1 271 -1 35214 -1 1800 -1 19 -2
5 -1 1218 -1 84428 -1 2286 -1 7713 -1 2302 -1 19687 -1 993 -1 2286 -1 7713 -1 2302 -1 1495 -1 405 -1 19 -2
91 -1 300 -1 2814 -1 520 -1 285 -1 1435 -1 71803 -1 19 -2
164 -1 3816 -1 3718 -1 50 -1 117 -1 2814 -1 520 -1 523 -1 19 -2
5 -1 18 -1 17 -1 70137 -1 262 -1 5 -1 18 -1 17 -1 84429 -1 3141 -1 50 -1 2078 -1 5471 -1 2705 -1 19 -2
2215 -1 543 -1 19 -2
3141 -1 520 -1 918 -1 1686 -1 50 -1 3792 -1 115 -1 1686 -1 115 -1 185 -1 19 -2
6759 -1 262 -1 7216 -1 19 -2
1645 -1 91 -1 118 -1 7 -1 20171 -1 2616 -1 19 -2
50 -1 785 -1 50 -1 5330 -1 1705 -1 792 -1 19 -2
2882 -1 785 -1 5867 -1 19 -2
48 -1 19 -2
37265 -1 602 -1 8097 -1 13356 -1 19 -2
19 -2
2398 -1 656 -1 196 -2
785 -1 6759 -1 15442 -1 50 -1 6620 -1 19 -2
50 -1 48 -1 271 -1 350 -1 1373 -1 842 -1 19 -2
656 -1 196 -2
685 -1 196 -2
456 -1 2867 -1 1559 -1 2616 -1 19 -2
1645 -1 602 -1 2775 -1 49841 -1 6383 -1 19 -2
656 -1 196 -2
453 -1 692 -1 19 -2
163 -1 50 -1 1048 -1 19 -2
48 -1 700 -1 148 -1 1973 -1 602 -1 2045 -1 3776 -1 19 -2
27077 -1 2499 -1 4056 -1 19 -2
685 -1 196 -2
240 -1 1497 -1 5096 -1 50 -1 118 -1 1637 -1 254 -1 1956 -1 7752 -1 2499 -1 19 -2
407 -1 4106 -1 114 -1 19 -2
255 -1 1076 -1 19 -2
84430 -1 407 -1 7625 -1 50 -1 1 -2
155 -1 196 -2
255 -1 117 -1 1435 -1 196 -2
607 -1 5405 -1 50 -1 1912 -1 19 -2
620 -1 50 -1 1050 -1 572 -1 7961 -1 19 -2
148 -1 66 -1 572 -1 613 -1 3687 -1 6632 -1 50 -1 48 -1 842 -1 3856 -1 19 -2
50 -1 48 -1 2601 -1 2882 -1 361 -1 66 -1 894 -1 19 -2
842 -1 48 -1 3987 -1 22708 -1 19 -2
2683 -1 1016 -1 50 -1 8751 -1 19 -2
1973 -1 1 -2
1519 -1 1 -2
721 -1 196 -2
1151 -1 19 -2
314 -1 155 -1 19 -2
637 -1 19 -2
809 -1 48 -1 10477 -1 50 -1 1690 -1 1019 -1 50 -1 48 -1 466 -1 1099 -1 48 -1 747 -1 19 -2
50 -1 262 -1 735 -1 19693 -1 19 -2
453 -1 773 -1 609 -1 7437 -1 50 -1 817 -1 2820 -1 36 -1 50 -1 413 -1 196 -2
352 -1 2834 -1 2616 -1 262 -1 735 -1 19 -2
2601 -1 19 -2
262 -1 1039 -1 2601 -1 50 -1 1360 -1 19 -2
50 -1 2395 -1 50 -1 1497 -1 19 -2
685 -1 196 -2
817 -1 19 -2
197 -1 262 -1 216 -1 196 -2
1010 -1 6041 -1 50 -1 48 -1 842 -1 494 -1 1271 -1 3987 -1 22708 -1 19 -2
2917 -1 50 -1 1071 -1 50 -1 75 -1 19 -2
262 -1 311 -1 262 -1 1574 -1 19 -2
412 -1 2418 -1 50 -1 2398 -1 36 -1 50 -1 643 -1 196 -2
262 -1 735 -1 2616 -1 2834 -1 113 -1 7 -1 19 -2
10906 -1 352 -1 19 -2
255 -1 50 -1 240 -1 783 -1 50 -1 602 -1 993 -1 48 -1 5585 -1 196 -2
537 -1 7730 -1 3066 -1 327 -1 50 -1 266 -1 5109 -1 50 -1 1166 -1 7442 -1 5469 -1 2705 -1 50 -1 6858 -1 50 -1 2868 -1 50 -1 3005 -1 50 -1 4144 -1 50 -1 5990 -1 1312 -1 50 -1 8402 -1 50 -1 19 -2
721 -1 196 -2
602 -1 522 -1 361 -1 117 -1 6523 -1 3225 -1 19 -2
1538 -1 255 -1 535 -1 1495 -1 4179 -1 114 -1 50 -1 262 -1 2550 -1 993 -1 19 -2
262 -1 1059 -1 19 -1 19 -1 4260 -1 853 -1 306 -1 19 -2
48 -1 489 -1 15407 -1 19 -2
1602 -1 19 -2
262 -1 993 -1 48 -1 413 -1 96 -1 19 -2
413 -1 197 -1 306 -1 50 -1 785 -1 1538 -1 1 -2
2113 -1 124 -1 50 -1 1690 -1 3747 -1 19 -2
50 -1 14748 -1 26858 -1 291 -1 19693 -1 3464 -1 50 -1 2692 -1 163 -1 196 -2
262 -1 311 -1 535 -1 19 -2
1482 -1 597 -1 196 -2
2398 -1 685 -1 196 -2
48 -1 817 -1 1094 -1 36 -1 50 -1 196 -2
262 -1 1410 -1 368 -1 288 -1 66 -1 18357 -1 19 -2
262 -1 311 -1 4267 -1 2318 -1 254 -1 121 -1 785 -1 595 -1 2289 -1 1019 -1 50 -1 262 -1 535 -1 1094 -2