27 -1 #SUP: 2
31 -1 #SUP: 3
33 -1 #SUP: 2
48 -1 #SUP: 17
49 -1 #SUP: 2
50 -1 #SUP: 40
107 -1 #SUP: 3
117 -1 #SUP: 5
122 -1 #SUP: 3
135 -1 #SUP: 3
144 -1 #SUP: 2
148 -1 #SUP: 3
155 -1 #SUP: 2
181 -1 #SUP: 2
225 -1 #SUP: 3
255 -1 #SUP: 7
262 -1 #SUP: 11
268 -1 #SUP: 3
306 -1 #SUP: 2
311 -1 #SUP: 2
312 -1 #SUP: 2
381 -1 #SUP: 2
411 -1 #SUP: 2
444 -1 #SUP: 2
453 -1 #SUP: 2
471 -1 #SUP: 3
520 -1 #SUP: 3
535 -1 #SUP: 2
583 -1 #SUP: 2
602 -1 #SUP: 2
622 -1 #SUP: 2
656 -1 #SUP: 4
670 -1 #SUP: 3
672 -1 #SUP: 2
685 -1 #SUP: 2
713 -1 #SUP: 2
722 -1 #SUP: 2
725 -1 #SUP: 19
1121 -1 #SUP: 2
1176 -1 #SUP: 5
1455 -1 #SUP: 2
1482 -1 #SUP: 2
1538 -1 #SUP: 4
1651 -1 #SUP: 2
1690 -1 #SUP: 2
1838 -1 #SUP: 2
1959 -1 #SUP: 5
1983 -1 #SUP: 4
2049 -1 #SUP: 2
2070 -1 #SUP: 2
2091 -1 #SUP: 2
2182 -1 #SUP: 2
2532 -1 #SUP: 2
3134 -1 #SUP: 2
3647 -1 #SUP: 3
3918 -1 #SUP: 2
4503 -1 #SUP: 2
4552 -1 #SUP: 4
4850 -1 #SUP: 2
6631 -1 #SUP: 2
8181 -1 #SUP: 2
9826 -1 #SUP: 2
10506 -1 #SUP: 2
10636 -1 #SUP: 2
13000 -1 #SUP: 2
18984 -1 #SUP: 2
19857 -1 #SUP: 2
33545 -1 #SUP: 3
46668 -1 #SUP: 2
72654 -1 #SUP: 3
72658 -1 #SUP: 2
27 -1 725 -1 #SUP: 2
31 -1 50 -1 #SUP: 2
31 -1 117 -1 #SUP: 2
33 -1 50 -1 #SUP: 2
48 -1 48 -1 #SUP: 2
48 -1 50 -1 #SUP: 6
48 -1 122 -1 #SUP: 3
48 -1 225 -1 #SUP: 2
48 -1 255 -1 #SUP: 3
48 -1 262 -1 #SUP: 3
48 -1 1121 -1 #SUP: 2
48 -1 1482 -1 #SUP: 2
48 -1 1651 -1 #SUP: 2
48 -1 4850 -1 #SUP: 2
48 -1 10506 -1 #SUP: 2
50 -1 48 -1 #SUP: 5
50 -1 50 -1 #SUP: 11
50 -1 117 -1 #SUP: 4
50 -1 225 -1 #SUP: 2
50 -1 255 -1 #SUP: 6
50 -1 262 -1 #SUP: 5
50 -1 306 -1 #SUP: 2
50 -1 444 -1 #SUP: 2
50 -1 471 -1 #SUP: 3
50 -1 622 -1 #SUP: 2
50 -1 722 -1 #SUP: 2
50 -1 1538 -1 #SUP: 2
50 -1 1959 -1 #SUP: 3
50 -1 1983 -1 #SUP: 2
50 -1 2049 -1 #SUP: 2
50 -1 2182 -1 #SUP: 2
50 -1 3134 -1 #SUP: 2
50 -1 3918 -1 #SUP: 2
50 -1 8181 -1 #SUP: 2
50 -1 18984 -1 #SUP: 2
50 -1 19857 -1 #SUP: 2
50 -1 33545 -1 #SUP: 2
50 -1 72658 -1 #SUP: 2
117 -1 3134 -1 #SUP: 2
117 -1 3918 -1 #SUP: 2
122 -1 1121 -1 #SUP: 2
122 -1 1651 -1 #SUP: 2
122 -1 4850 -1 #SUP: 2
122 -1 10506 -1 #SUP: 2
148 -1 50 -1 #SUP: 3
148 -1 144 -1 #SUP: 2
148 -1 255 -1 #SUP: 2
255 -1 50 -1 #SUP: 3
255 -1 225 -1 #SUP: 2
255 -1 72658 -1 #SUP: 2
262 -1 48 -1 #SUP: 2
262 -1 50 -1 #SUP: 3
262 -1 1690 -1 #SUP: 2
411 -1 48 -1 #SUP: 2
411 -1 50 -1 #SUP: 2
520 -1 50 -1 #SUP: 2
602 -1 453 -1 #SUP: 2
622 -1 50 -1 #SUP: 2
670 -1 262 -1 #SUP: 2
722 -1 50 -1 #SUP: 2
722 -1 117 -1 #SUP: 2
722 -1 2182 -1 #SUP: 2
722 -1 3134 -1 #SUP: 2
722 -1 3918 -1 #SUP: 2
722 -1 8181 -1 #SUP: 2
722 -1 18984 -1 #SUP: 2
725 -1 48 -1 #SUP: 2
725 -1 50 -1 #SUP: 2
725 -1 656 -1 #SUP: 2
725 -1 725 -1 #SUP: 7
1176 -1 50 -1 #SUP: 2
1176 -1 1176 -1 #SUP: 3
1538 -1 453 -1 #SUP: 2
1538 -1 1959 -1 #SUP: 3
1651 -1 1121 -1 #SUP: 2
1690 -1 48 -1 #SUP: 2
1838 -1 3647 -1 #SUP: 2
1959 -1 50 -1 #SUP: 3
1959 -1 453 -1 #SUP: 2
1983 -1 50 -1 #SUP: 2
1983 -1 72658 -1 #SUP: 2
2182 -1 50 -1 #SUP: 2
2182 -1 117 -1 #SUP: 2
2182 -1 3134 -1 #SUP: 2
2182 -1 3918 -1 #SUP: 2
2182 -1 18984 -1 #SUP: 2
2532 -1 50 -1 #SUP: 2
2532 -1 1983 -1 #SUP: 2
2532 -1 13000 -1 #SUP: 2
3918 -1 3134 -1 #SUP: 2
4850 -1 1121 -1 #SUP: 2
4850 -1 1651 -1 #SUP: 2
6631 -1 50 -1 #SUP: 2
6631 -1 19857 -1 #SUP: 2
6631 -1 33545 -1 #SUP: 2
8181 -1 50 -1 #SUP: 2
8181 -1 117 -1 #SUP: 2
8181 -1 2182 -1 #SUP: 2
8181 -1 3134 -1 #SUP: 2
8181 -1 3918 -1 #SUP: 2
8181 -1 18984 -1 #SUP: 2
10506 -1 1121 -1 #SUP: 2
10506 -1 1651 -1 #SUP: 2
10506 -1 4850 -1 #SUP: 2
10636 -1 27 -1 #SUP: 2
10636 -1 725 -1 #SUP: 2
13000 -1 50 -1 #SUP: 2
13000 -1 1983 -1 #SUP: 2
18984 -1 50 -1 #SUP: 2
18984 -1 117 -1 #SUP: 2
18984 -1 3134 -1 #SUP: 2
18984 -1 3918 -1 #SUP: 2
33545 -1 19857 -1 #SUP: 2
46668 -1 50 -1 #SUP: 2
46668 -1 1983 -1 #SUP: 2
72654 -1 50 -1 #SUP: 2
72654 -1 6631 -1 #SUP: 2
72654 -1 19857 -1 #SUP: 2
72654 -1 33545 -1 #SUP: 3
31 -1 50 -1 117 -1 #SUP: 2
48 -1 50 -1 50 -1 #SUP: 3
48 -1 50 -1 255 -1 #SUP: 2
48 -1 122 -1 1121 -1 #SUP: 2
48 -1 122 -1 1651 -1 #SUP: 2
48 -1 122 -1 4850 -1 #SUP: 2
48 -1 122 -1 10506 -1 #SUP: 2
48 -1 1651 -1 1121 -1 #SUP: 2
48 -1 4850 -1 1121 -1 #SUP: 2
48 -1 4850 -1 1651 -1 #SUP: 2
48 -1 10506 -1 1121 -1 #SUP: 2
48 -1 10506 -1 1651 -1 #SUP: 2
48 -1 10506 -1 4850 -1 #SUP: 2
50 -1 50 -1 48 -1 #SUP: 2
50 -1 50 -1 50 -1 #SUP: 3
50 -1 50 -1 117 -1 #SUP: 2
50 -1 50 -1 225 -1 #SUP: 2
50 -1 50 -1 255 -1 #SUP: 2
50 -1 50 -1 262 -1 #SUP: 3
50 -1 50 -1 444 -1 #SUP: 2
50 -1 50 -1 471 -1 #SUP: 2
50 -1 50 -1 722 -1 #SUP: 2
50 -1 50 -1 2182 -1 #SUP: 2
50 -1 50 -1 3134 -1 #SUP: 2
50 -1 50 -1 3918 -1 #SUP: 2
50 -1 50 -1 8181 -1 #SUP: 2
50 -1 50 -1 18984 -1 #SUP: 2
50 -1 117 -1 3134 -1 #SUP: 2
50 -1 117 -1 3918 -1 #SUP: 2
50 -1 255 -1 72658 -1 #SUP: 2
50 -1 622 -1 50 -1 #SUP: 2
50 -1 722 -1 50 -1 #SUP: 2
50 -1 722 -1 117 -1 #SUP: 2
50 -1 722 -1 2182 -1 #SUP: 2
50 -1 722 -1 3134 -1 #SUP: 2
50 -1 722 -1 3918 -1 #SUP: 2
50 -1 722 -1 8181 -1 #SUP: 2
50 -1 722 -1 18984 -1 #SUP: 2
50 -1 1538 -1 1959 -1 #SUP: 2
50 -1 1959 -1 50 -1 #SUP: 2
50 -1 1983 -1 72658 -1 #SUP: 2
50 -1 2182 -1 50 -1 #SUP: 2
50 -1 2182 -1 117 -1 #SUP: 2
50 -1 2182 -1 3134 -1 #SUP: 2
50 -1 2182 -1 3918 -1 #SUP: 2
50 -1 2182 -1 18984 -1 #SUP: 2
50 -1 3918 -1 3134 -1 #SUP: 2
50 -1 8181 -1 50 -1 #SUP: 2
50 -1 8181 -1 117 -1 #SUP: 2
50 -1 8181 -1 2182 -1 #SUP: 2
50 -1 8181 -1 3134 -1 #SUP: 2
50 -1 8181 -1 3918 -1 #SUP: 2
50 -1 8181 -1 18984 -1 #SUP: 2
50 -1 18984 -1 50 -1 #SUP: 2
50 -1 18984 -1 117 -1 #SUP: 2
50 -1 18984 -1 3134 -1 #SUP: 2
50 -1 18984 -1 3918 -1 #SUP: 2
50 -1 33545 -1 19857 -1 #SUP: 2
117 -1 3918 -1 3134 -1 #SUP: 2
122 -1 1651 -1 1121 -1 #SUP: 2
122 -1 4850 -1 1121 -1 #SUP: 2
122 -1 4850 -1 1651 -1 #SUP: 2
122 -1 10506 -1 1121 -1 #SUP: 2
122 -1 10506 -1 1651 -1 #SUP: 2
122 -1 10506 -1 4850 -1 #SUP: 2
148 -1 255 -1 50 -1 #SUP: 2
255 -1 50 -1 225 -1 #SUP: 2
411 -1 48 -1 50 -1 #SUP: 2
622 -1 50 -1 50 -1 #SUP: 2
722 -1 50 -1 117 -1 #SUP: 2
722 -1 50 -1 3134 -1 #SUP: 2
722 -1 50 -1 3918 -1 #SUP: 2
722 -1 117 -1 3134 -1 #SUP: 2
722 -1 117 -1 3918 -1 #SUP: 2
722 -1 2182 -1 50 -1 #SUP: 2
722 -1 2182 -1 117 -1 #SUP: 2
722 -1 2182 -1 3134 -1 #SUP: 2
722 -1 2182 -1 3918 -1 #SUP: 2
722 -1 2182 -1 18984 -1 #SUP: 2
722 -1 3918 -1 3134 -1 #SUP: 2
722 -1 8181 -1 50 -1 #SUP: 2
722 -1 8181 -1 117 -1 #SUP: 2
722 -1 8181 -1 2182 -1 #SUP: 2
722 -1 8181 -1 3134 -1 #SUP: 2
722 -1 8181 -1 3918 -1 #SUP: 2
722 -1 8181 -1 18984 -1 #SUP: 2
722 -1 18984 -1 50 -1 #SUP: 2
722 -1 18984 -1 117 -1 #SUP: 2
722 -1 18984 -1 3134 -1 #SUP: 2
722 -1 18984 -1 3918 -1 #SUP: 2
725 -1 725 -1 50 -1 #SUP: 2
725 -1 725 -1 656 -1 #SUP: 2
725 -1 725 -1 725 -1 #SUP: 4
1176 -1 1176 -1 50 -1 #SUP: 2
1176 -1 1176 -1 1176 -1 #SUP: 3
1538 -1 1959 -1 453 -1 #SUP: 2
2182 -1 50 -1 117 -1 #SUP: 2
2182 -1 50 -1 3134 -1 #SUP: 2
2182 -1 50 -1 3918 -1 #SUP: 2
2182 -1 117 -1 3134 -1 #SUP: 2
2182 -1 117 -1 3918 -1 #SUP: 2
2182 -1 3918 -1 3134 -1 #SUP: 2
2182 -1 18984 -1 50 -1 #SUP: 2
2182 -1 18984 -1 117 -1 #SUP: 2
2182 -1 18984 -1 3134 -1 #SUP: 2
2182 -1 18984 -1 3918 -1 #SUP: 2
2532 -1 13000 -1 50 -1 #SUP: 2
2532 -1 13000 -1 1983 -1 #SUP: 2
4850 -1 1651 -1 1121 -1 #SUP: 2
6631 -1 50 -1 19857 -1 #SUP: 2
6631 -1 50 -1 33545 -1 #SUP: 2
6631 -1 33545 -1 19857 -1 #SUP: 2
8181 -1 50 -1 117 -1 #SUP: 2
8181 -1 50 -1 3134 -1 #SUP: 2
8181 -1 50 -1 3918 -1 #SUP: 2
8181 -1 117 -1 3134 -1 #SUP: 2
8181 -1 117 -1 3918 -1 #SUP: 2
8181 -1 2182 -1 50 -1 #SUP: 2
8181 -1 2182 -1 117 -1 #SUP: 2
8181 -1 2182 -1 3134 -1 #SUP: 2
8181 -1 2182 -1 3918 -1 #SUP: 2
8181 -1 2182 -1 18984 -1 #SUP: 2
8181 -1 3918 -1 3134 -1 #SUP: 2
8181 -1 18984 -1 50 -1 #SUP: 2
8181 -1 18984 -1 117 -1 #SUP: 2
8181 -1 18984 -1 3134 -1 #SUP: 2
8181 -1 18984 -1 3918 -1 #SUP: 2
10506 -1 1651 -1 1121 -1 #SUP: 2
10506 -1 4850 -1 1121 -1 #SUP: 2
10506 -1 4850 -1 1651 -1 #SUP: 2
18984 -1 50 -1 117 -1 #SUP: 2
18984 -1 50 -1 3134 -1 #SUP: 2
18984 -1 50 -1 3918 -1 #SUP: 2
18984 -1 117 -1 3134 -1 #SUP: 2
18984 -1 117 -1 3918 -1 #SUP: 2
18984 -1 3918 -1 3134 -1 #SUP: 2
46668 -1 1983 -1 50 -1 #SUP: 2
72654 -1 50 -1 19857 -1 #SUP: 2
72654 -1 50 -1 33545 -1 #SUP: 2
72654 -1 6631 -1 50 -1 #SUP: 2
72654 -1 6631 -1 19857 -1 #SUP: 2
72654 -1 6631 -1 33545 -1 #SUP: 2
72654 -1 33545 -1 19857 -1 #SUP: 2
48 -1 122 -1 1651 -1 1121 -1 #SUP: 2
48 -1 122 -1 4850 -1 1121 -1 #SUP: 2
48 -1 122 -1 4850 -1 1651 -1 #SUP: 2
48 -1 122 -1 10506 -1 1121 -1 #SUP: 2
48 -1 122 -1 10506 -1 1651 -1 #SUP: 2
48 -1 122 -1 10506 -1 4850 -1 #SUP: 2
48 -1 4850 -1 1651 -1 1121 -1 #SUP: 2
48 -1 10506 -1 1651 -1 1121 -1 #SUP: 2
48 -1 10506 -1 4850 -1 1121 -1 #SUP: 2
48 -1 10506 -1 4850 -1 1651 -1 #SUP: 2
50 -1 50 -1 50 -1 117 -1 #SUP: 2
50 -1 50 -1 50 -1 3134 -1 #SUP: 2
50 -1 50 -1 50 -1 3918 -1 #SUP: 2
50 -1 50 -1 117 -1 3134 -1 #SUP: 2
50 -1 50 -1 117 -1 3918 -1 #SUP: 2
50 -1 50 -1 722 -1 50 -1 #SUP: 2
50 -1 50 -1 722 -1 117 -1 #SUP: 2
50 -1 50 -1 722 -1 2182 -1 #SUP: 2
50 -1 50 -1 722 -1 3134 -1 #SUP: 2
50 -1 50 -1 722 -1 3918 -1 #SUP: 2
50 -1 50 -1 722 -1 8181 -1 #SUP: 2
50 -1 50 -1 722 -1 18984 -1 #SUP: 2
50 -1 50 -1 2182 -1 50 -1 #SUP: 2
50 -1 50 -1 2182 -1 117 -1 #SUP: 2
50 -1 50 -1 2182 -1 3134 -1 #SUP: 2
50 -1 50 -1 2182 -1 3918 -1 #SUP: 2
50 -1 50 -1 2182 -1 18984 -1 #SUP: 2
50 -1 50 -1 3918 -1 3134 -1 #SUP: 2
50 -1 50 -1 8181 -1 50 -1 #SUP: 2
50 -1 50 -1 8181 -1 117 -1 #SUP: 2
50 -1 50 -1 8181 -1 2182 -1 #SUP: 2
50 -1 50 -1 8181 -1 3134 -1 #SUP: 2
50 -1 50 -1 8181 -1 3918 -1 #SUP: 2
50 -1 50 -1 8181 -1 18984 -1 #SUP: 2
50 -1 50 -1 18984 -1 50 -1 #SUP: 2
50 -1 50 -1 18984 -1 117 -1 #SUP: 2
50 -1 50 -1 18984 -1 3134 -1 #SUP: 2
50 -1 50 -1 18984 -1 3918 -1 #SUP: 2
50 -1 117 -1 3918 -1 3134 -1 #SUP: 2
50 -1 722 -1 50 -1 117 -1 #SUP: 2
50 -1 722 -1 50 -1 3134 -1 #SUP: 2
50 -1 722 -1 50 -1 3918 -1 #SUP: 2
50 -1 722 -1 117 -1 3134 -1 #SUP: 2
50 -1 722 -1 117 -1 3918 -1 #SUP: 2
50 -1 722 -1 2182 -1 50 -1 #SUP: 2
50 -1 722 -1 2182 -1 117 -1 #SUP: 2
50 -1 722 -1 2182 -1 3134 -1 #SUP: 2
50 -1 722 -1 2182 -1 3918 -1 #SUP: 2
50 -1 722 -1 2182 -1 18984 -1 #SUP: 2
50 -1 722 -1 3918 -1 3134 -1 #SUP: 2
50 -1 722 -1 8181 -1 50 -1 #SUP: 2
50 -1 722 -1 8181 -1 117 -1 #SUP: 2
50 -1 722 -1 8181 -1 2182 -1 #SUP: 2
50 -1 722 -1 8181 -1 3134 -1 #SUP: 2
50 -1 722 -1 8181 -1 3918 -1 #SUP: 2
50 -1 722 -1 8181 -1 18984 -1 #SUP: 2
50 -1 722 -1 18984 -1 50 -1 #SUP: 2
50 -1 722 -1 18984 -1 117 -1 #SUP: 2
50 -1 722 -1 18984 -1 3134 -1 #SUP: 2
50 -1 722 -1 18984 -1 3918 -1 #SUP: 2
50 -1 2182 -1 50 -1 117 -1 #SUP: 2
50 -1 2182 -1 50 -1 3134 -1 #SUP: 2
50 -1 2182 -1 50 -1 3918 -1 #SUP: 2
50 -1 2182 -1 117 -1 3134 -1 #SUP: 2
50 -1 2182 -1 117 -1 3918 -1 #SUP: 2
50 -1 2182 -1 3918 -1 3134 -1 #SUP: 2
50 -1 2182 -1 18984 -1 50 -1 #SUP: 2
50 -1 2182 -1 18984 -1 117 -1 #SUP: 2
50 -1 2182 -1 18984 -1 3134 -1 #SUP: 2
50 -1 2182 -1 18984 -1 3918 -1 #SUP: 2
50 -1 8181 -1 50 -1 117 -1 #SUP: 2
50 -1 8181 -1 50 -1 3134 -1 #SUP: 2
50 -1 8181 -1 50 -1 3918 -1 #SUP: 2
50 -1 8181 -1 117 -1 3134 -1 #SUP: 2
50 -1 8181 -1 117 -1 3918 -1 #SUP: 2
50 -1 8181 -1 2182 -1 50 -1 #SUP: 2
50 -1 8181 -1 2182 -1 117 -1 #SUP: 2
50 -1 8181 -1 2182 -1 3134 -1 #SUP: 2
50 -1 8181 -1 2182 -1 3918 -1 #SUP: 2
50 -1 8181 -1 2182 -1 18984 -1 #SUP: 2
50 -1 8181 -1 3918 -1 3134 -1 #SUP: 2
50 -1 8181 -1 18984 -1 50 -1 #SUP: 2
50 -1 8181 -1 18984 -1 117 -1 #SUP: 2
50 -1 8181 -1 18984 -1 3134 -1 #SUP: 2
50 -1 8181 -1 18984 -1 3918 -1 #SUP: 2
50 -1 18984 -1 50 -1 117 -1 #SUP: 2
50 -1 18984 -1 50 -1 3134 -1 #SUP: 2
50 -1 18984 -1 50 -1 3918 -1 #SUP: 2
50 -1 18984 -1 117 -1 3134 -1 #SUP: 2
50 -1 18984 -1 117 -1 3918 -1 #SUP: 2
50 -1 18984 -1 3918 -1 3134 -1 #SUP: 2
122 -1 4850 -1 1651 -1 1121 -1 #SUP: 2
122 -1 10506 -1 1651 -1 1121 -1 #SUP: 2
122 -1 10506 -1 4850 -1 1121 -1 #SUP: 2
122 -1 10506 -1 4850 -1 1651 -1 #SUP: 2
722 -1 50 -1 117 -1 3134 -1 #SUP: 2
722 -1 50 -1 117 -1 3918 -1 #SUP: 2
722 -1 50 -1 3918 -1 3134 -1 #SUP: 2
722 -1 117 -1 3918 -1 3134 -1 #SUP: 2
722 -1 2182 -1 50 -1 117 -1 #SUP: 2
722 -1 2182 -1 50 -1 3134 -1 #SUP: 2
722 -1 2182 -1 50 -1 3918 -1 #SUP: 2
722 -1 2182 -1 117 -1 3134 -1 #SUP: 2
722 -1 2182 -1 117 -1 3918 -1 #SUP: 2
722 -1 2182 -1 3918 -1 3134 -1 #SUP: 2
722 -1 2182 -1 18984 -1 50 -1 #SUP: 2
722 -1 2182 -1 18984 -1 117 -1 #SUP: 2
722 -1 2182 -1 18984 -1 3134 -1 #SUP: 2
722 -1 2182 -1 18984 -1 3918 -1 #SUP: 2
722 -1 8181 -1 50 -1 117 -1 #SUP: 2
722 -1 8181 -1 50 -1 3134 -1 #SUP: 2
722 -1 8181 -1 50 -1 3918 -1 #SUP: 2
722 -1 8181 -1 117 -1 3134 -1 #SUP: 2
722 -1 8181 -1 117 -1 3918 -1 #SUP: 2
722 -1 8181 -1 2182 -1 50 -1 #SUP: 2
722 -1 8181 -1 2182 -1 117 -1 #SUP: 2
722 -1 8181 -1 2182 -1 3134 -1 #SUP: 2
722 -1 8181 -1 2182 -1 3918 -1 #SUP: 2
722 -1 8181 -1 2182 -1 18984 -1 #SUP: 2
722 -1 8181 -1 3918 -1 3134 -1 #SUP: 2
722 -1 8181 -1 18984 -1 50 -1 #SUP: 2
722 -1 8181 -1 18984 -1 117 -1 #SUP: 2
722 -1 8181 -1 18984 -1 3134 -1 #SUP: 2
722 -1 8181 -1 18984 -1 3918 -1 #SUP: 2
722 -1 18984 -1 50 -1 117 -1 #SUP: 2
722 -1 18984 -1 50 -1 3134 -1 #SUP: 2
722 -1 18984 -1 50 -1 3918 -1 #SUP: 2
722 -1 18984 -1 117 -1 3134 -1 #SUP: 2
722 -1 18984 -1 117 -1 3918 -1 #SUP: 2
722 -1 18984 -1 3918 -1 3134 -1 #SUP: 2
1176 -1 1176 -1 1176 -1 1176 -1 #SUP: 2
2182 -1 50 -1 117 -1 3134 -1 #SUP: 2
2182 -1 50 -1 117 -1 3918 -1 #SUP: 2
2182 -1 50 -1 3918 -1 3134 -1 #SUP: 2
2182 -1 117 -1 3918 -1 3134 -1 #SUP: 2
2182 -1 18984 -1 50 -1 117 -1 #SUP: 2
2182 -1 18984 -1 50 -1 3134 -1 #SUP: 2
2182 -1 18984 -1 50 -1 3918 -1 #SUP: 2
2182 -1 18984 -1 117 -1 3134 -1 #SUP: 2
2182 -1 18984 -1 117 -1 3918 -1 #SUP: 2
2182 -1 18984 -1 3918 -1 3134 -1 #SUP: 2
6631 -1 50 -1 33545 -1 19857 -1 #SUP: 2
8181 -1 50 -1 117 -1 3134 -1 #SUP: 2
8181 -1 50 -1 117 -1 3918 -1 #SUP: 2
8181 -1 50 -1 3918 -1 3134 -1 #SUP: 2
8181 -1 117 -1 3918 -1 3134 -1 #SUP: 2
8181 -1 2182 -1 50 -1 117 -1 #SUP: 2
8181 -1 2182 -1 50 -1 3134 -1 #SUP: 2
8181 -1 2182 -1 50 -1 3918 -1 #SUP: 2
8181 -1 2182 -1 117 -1 3134 -1 #SUP: 2
8181 -1 2182 -1 117 -1 3918 -1 #SUP: 2
8181 -1 2182 -1 3918 -1 3134 -1 #SUP: 2
8181 -1 2182 -1 18984 -1 50 -1 #SUP: 2
8181 -1 2182 -1 18984 -1 117 -1 #SUP: 2
8181 -1 2182 -1 18984 -1 3134 -1 #SUP: 2
8181 -1 2182 -1 18984 -1 3918 -1 #SUP: 2
8181 -1 18984 -1 50 -1 117 -1 #SUP: 2
8181 -1 18984 -1 50 -1 3134 -1 #SUP: 2
8181 -1 18984 -1 50 -1 3918 -1 #SUP: 2
8181 -1 18984 -1 117 -1 3134 -1 #SUP: 2
8181 -1 18984 -1 117 -1 3918 -1 #SUP: 2
8181 -1 18984 -1 3918 -1 3134 -1 #SUP: 2
10506 -1 4850 -1 1651 -1 1121 -1 #SUP: 2
18984 -1 50 -1 117 -1 3134 -1 #SUP: 2
18984 -1 50 -1 117 -1 3918 -1 #SUP: 2
18984 -1 50 -1 3918 -1 3134 -1 #SUP: 2
18984 -1 117 -1 3918 -1 3134 -1 #SUP: 2
72654 -1 50 -1 33545 -1 19857 -1 #SUP: 2
72654 -1 6631 -1 50 -1 19857 -1 #SUP: 2
72654 -1 6631 -1 50 -1 33545 -1 #SUP: 2
72654 -1 6631 -1 33545 -1 19857 -1 #SUP: 2
48 -1 122 -1 4850 -1 1651 -1 1121 -1 #SUP: 2
48 -1 122 -1 10506 -1 1651 -1 1121 -1 #SUP: 2
48 -1 122 -1 10506 -1 4850 -1 1121 -1 #SUP: 2
48 -1 122 -1 10506 -1 4850 -1 1651 -1 #SUP: 2
48 -1 10506 -1 4850 -1 1651 -1 1121 -1 #SUP: 2
50 -1 50 -1 50 -1 117 -1 3134 -1 #SUP: 2
50 -1 50 -1 50 -1 117 -1 3918 -1 #SUP: 2
50 -1 50 -1 50 -1 3918 -1 3134 -1 #SUP: 2
50 -1 50 -1 117 -1 3918 -1 3134 -1 #SUP: 2
50 -1 50 -1 722 -1 50 -1 117 -1 #SUP: 2
50 -1 50 -1 722 -1 50 -1 3134 -1 #SUP: 2
50 -1 50 -1 722 -1 50 -1 3918 -1 #SUP: 2
50 -1 50 -1 722 -1 117 -1 3134 -1 #SUP: 2
50 -1 50 -1 722 -1 117 -1 3918 -1 #SUP: 2
50 -1 50 -1 722 -1 2182 -1 50 -1 #SUP: 2
50 -1 50 -1 722 -1 2182 -1 117 -1 #SUP: 2
50 -1 50 -1 722 -1 2182 -1 3134 -1 #SUP: 2
50 -1 50 -1 722 -1 2182 -1 3918 -1 #SUP: 2
50 -1 50 -1 722 -1 2182 -1 18984 -1 #SUP: 2
50 -1 50 -1 722 -1 3918 -1 3134 -1 #SUP: 2
50 -1 50 -1 722 -1 8181 -1 50 -1 #SUP: 2
50 -1 50 -1 722 -1 8181 -1 117 -1 #SUP: 2
50 -1 50 -1 722 -1 8181 -1 2182 -1 #SUP: 2
50 -1 50 -1 722 -1 8181 -1 3134 -1 #SUP: 2
50 -1 50 -1 722 -1 8181 -1 3918 -1 #SUP: 2
50 -1 50 -1 722 -1 8181 -1 18984 -1 #SUP: 2
50 -1 50 -1 722 -1 18984 -1 50 -1 #SUP: 2
50 -1 50 -1 722 -1 18984 -1 117 -1 #SUP: 2
50 -1 50 -1 722 -1 18984 -1 3134 -1 #SUP: 2
50 -1 50 -1 722 -1 18984 -1 3918 -1 #SUP: 2
50 -1 50 -1 2182 -1 50 -1 117 -1 #SUP: 2
50 -1 50 -1 2182 -1 50 -1 3134 -1 #SUP: 2
50 -1 50 -1 2182 -1 50 -1 3918 -1 #SUP: 2
50 -1 50 -1 2182 -1 117 -1 3134 -1 #SUP: 2
50 -1 50 -1 2182 -1 117 -1 3918 -1 #SUP: 2
50 -1 50 -1 2182 -1 3918 -1 3134 -1 #SUP: 2
50 -1 50 -1 2182 -1 18984 -1 50 -1 #SUP: 2
50 -1 50 -1 2182 -1 18984 -1 117 -1 #SUP: 2
50 -1 50 -1 2182 -1 18984 -1 3134 -1 #SUP: 2
50 -1 50 -1 2182 -1 18984 -1 3918 -1 #SUP: 2
50 -1 50 -1 8181 -1 50 -1 117 -1 #SUP: 2
50 -1 50 -1 8181 -1 50 -1 3134 -1 #SUP: 2
50 -1 50 -1 8181 -1 50 -1 3918 -1 #SUP: 2
50 -1 50 -1 8181 -1 117 -1 3134 -1 #SUP: 2
50 -1 50 -1 8181 -1 117 -1 3918 -1 #SUP: 2
50 -1 50 -1 8181 -1 2182 -1 50 -1 #SUP: 2
50 -1 50 -1 8181 -1 2182 -1 117 -1 #SUP: 2
50 -1 50 -1 8181 -1 2182 -1 3134 -1 #SUP: 2
50 -1 50 -1 8181 -1 2182 -1 3918 -1 #SUP: 2
50 -1 50 -1 8181 -1 2182 -1 18984 -1 #SUP: 2
50 -1 50 -1 8181 -1 3918 -1 3134 -1 #SUP: 2
50 -1 50 -1 8181 -1 18984 -1 50 -1 #SUP: 2
50 -1 50 -1 8181 -1 18984 -1 117 -1 #SUP: 2
50 -1 50 -1 8181 -1 18984 -1 3134 -1 #SUP: 2
50 -1 50 -1 8181 -1 18984 -1 3918 -1 #SUP: 2
50 -1 50 -1 18984 -1 50 -1 117 -1 #SUP: 2
50 -1 50 -1 18984 -1 50 -1 3134 -1 #SUP: 2
50 -1 50 -1 18984 -1 50 -1 3918 -1 #SUP: 2
50 -1 50 -1 18984 -1 117 -1 3134 -1 #SUP: 2
50 -1 50 -1 18984 -1 117 -1 3918 -1 #SUP: 2
50 -1 50 -1 18984 -1 3918 -1 3134 -1 #SUP: 2
50 -1 722 -1 50 -1 117 -1 3134 -1 #SUP: 2
50 -1 722 -1 50 -1 117 -1 3918 -1 #SUP: 2
50 -1 722 -1 50 -1 3918 -1 3134 -1 #SUP: 2
50 -1 722 -1 117 -1 3918 -1 3134 -1 #SUP: 2
50 -1 722 -1 2182 -1 50 -1 117 -1 #SUP: 2
50 -1 722 -1 2182 -1 50 -1 3134 -1 #SUP: 2
50 -1 722 -1 2182 -1 50 -1 3918 -1 #SUP: 2
50 -1 722 -1 2182 -1 117 -1 3134 -1 #SUP: 2
50 -1 722 -1 2182 -1 117 -1 3918 -1 #SUP: 2
50 -1 722 -1 2182 -1 3918 -1 3134 -1 #SUP: 2
50 -1 722 -1 2182 -1 18984 -1 50 -1 #SUP: 2
50 -1 722 -1 2182 -1 18984 -1 117 -1 #SUP: 2
50 -1 722 -1 2182 -1 18984 -1 3134 -1 #SUP: 2
50 -1 722 -1 2182 -1 18984 -1 3918 -1 #SUP: 2
50 -1 722 -1 8181 -1 50 -1 117 -1 #SUP: 2
50 -1 722 -1 8181 -1 50 -1 3134 -1 #SUP: 2
50 -1 722 -1 8181 -1 50 -1 3918 -1 #SUP: 2
50 -1 722 -1 8181 -1 117 -1 3134 -1 #SUP: 2
50 -1 722 -1 8181 -1 117 -1 3918 -1 #SUP: 2
50 -1 722 -1 8181 -1 2182 -1 50 -1 #SUP: 2
50 -1 722 -1 8181 -1 2182 -1 117 -1 #SUP: 2
50 -1 722 -1 8181 -1 2182 -1 3134 -1 #SUP: 2
50 -1 722 -1 8181 -1 2182 -1 3918 -1 #SUP: 2
50 -1 722 -1 8181 -1 2182 -1 18984 -1 #SUP: 2
50 -1 722 -1 8181 -1 3918 -1 3134 -1 #SUP: 2
50 -1 722 -1 8181 -1 18984 -1 50 -1 #SUP: 2
50 -1 722 -1 8181 -1 18984 -1 117 -1 #SUP: 2
50 -1 722 -1 8181 -1 18984 -1 3134 -1 #SUP: 2
50 -1 722 -1 8181 -1 18984 -1 3918 -1 #SUP: 2
50 -1 722 -1 18984 -1 50 -1 117 -1 #SUP: 2
50 -1 722 -1 18984 -1 50 -1 3134 -1 #SUP: 2
50 -1 722 -1 18984 -1 50 -1 3918 -1 #SUP: 2
50 -1 722 -1 18984 -1 117 -1 3134 -1 #SUP: 2
50 -1 722 -1 18984 -1 117 -1 3918 -1 #SUP: 2
50 -1 722 -1 18984 -1 3918 -1 3134 -1 #SUP: 2
50 -1 2182 -1 50 -1 117 -1 3134 -1 #SUP: 2
50 -1 2182 -1 50 -1 117 -1 3918 -1 #SUP: 2
50 -1 2182 -1 50 -1 3918 -1 3134 -1 #SUP: 2
50 -1 2182 -1 117 -1 3918 -1 3134 -1 #SUP: 2
50 -1 2182 -1 18984 -1 50 -1 117 -1 #SUP: 2
50 -1 2182 -1 18984 -1 50 -1 3134 -1 #SUP: 2
50 -1 2182 -1 18984 -1 50 -1 3918 -1 #SUP: 2
50 -1 2182 -1 18984 -1 117 -1 3134 -1 #SUP: 2
50 -1 2182 -1 18984 -1 117 -1 3918 -1 #SUP: 2
50 -1 2182 -1 18984 -1 3918 -1 3134 -1 #SUP: 2
50 -1 8181 -1 50 -1 117 -1 3134 -1 #SUP: 2
50 -1 8181 -1 50 -1 117 -1 3918 -1 #SUP: 2
50 -1 8181 -1 50 -1 3918 -1 3134 -1 #SUP: 2
50 -1 8181 -1 117 -1 3918 -1 3134 -1 #SUP: 2
50 -1 8181 -1 2182 -1 50 -1 117 -1 #SUP: 2
50 -1 8181 -1 2182 -1 50 -1 3134 -1 #SUP: 2
50 -1 8181 -1 2182 -1 50 -1 3918 -1 #SUP: 2
50 -1 8181 -1 2182 -1 117 -1 3134 -1 #SUP: 2
50 -1 8181 -1 2182 -1 117 -1 3918 -1 #SUP: 2
50 -1 8181 -1 2182 -1 3918 -1 3134 -1 #SUP: 2
50 -1 8181 -1 2182 -1 18984 -1 50 -1 #SUP: 2
50 -1 8181 -1 2182 -1 18984 -1 117 -1 #SUP: 2
50 -1 8181 -1 2182 -1 18984 -1 3134 -1 #SUP: 2
50 -1 8181 -1 2182 -1 18984 -1 3918 -1 #SUP: 2
50 -1 8181 -1 18984 -1 50 -1 117 -1 #SUP: 2
50 -1 8181 -1 18984 -1 50 -1 3134 -1 #SUP: 2
50 -1 8181 -1 18984 -1 50 -1 3918 -1 #SUP: 2
50 -1 8181 -1 18984 -1 117 -1 3134 -1 #SUP: 2
50 -1 8181 -1 18984 -1 117 -1 3918 -1 #SUP: 2
50 -1 8181 -1 18984 -1 3918 -1 3134 -1 #SUP: 2
50 -1 18984 -1 50 -1 117 -1 3134 -1 #SUP: 2
50 -1 18984 -1 50 -1 117 -1 3918 -1 #SUP: 2
50 -1 18984 -1 50 -1 3918 -1 3134 -1 #SUP: 2
50 -1 18984 -1 117 -1 3918 -1 3134 -1 #SUP: 2
122 -1 10506 -1 4850 -1 1651 -1 1121 -1 #SUP: 2
722 -1 50 -1 117 -1 3918 -1 3134 -1 #SUP: 2
722 -1 2182 -1 50 -1 117 -1 3134 -1 #SUP: 2
722 -1 2182 -1 50 -1 117 -1 3918 -1 #SUP: 2
722 -1 2182 -1 50 -1 3918 -1 3134 -1 #SUP: 2
722 -1 2182 -1 117 -1 3918 -1 3134 -1 #SUP: 2
722 -1 2182 -1 18984 -1 50 -1 117 -1 #SUP: 2
722 -1 2182 -1 18984 -1 50 -1 3134 -1 #SUP: 2
722 -1 2182 -1 18984 -1 50 -1 3918 -1 #SUP: 2
722 -1 2182 -1 18984 -1 117 -1 3134 -1 #SUP: 2
722 -1 2182 -1 18984 -1 117 -1 3918 -1 #SUP: 2
722 -1 2182 -1 18984 -1 3918 -1 3134 -1 #SUP: 2
722 -1 8181 -1 50 -1 117 -1 3134 -1 #SUP: 2
722 -1 8181 -1 50 -1 117 -1 3918 -1 #SUP: 2
722 -1 8181 -1 50 -1 3918 -1 3134 -1 #SUP: 2
722 -1 8181 -1 117 -1 3918 -1 3134 -1 #SUP: 2
722 -1 8181 -1 2182 -1 50 -1 117 -1 #SUP: 2
722 -1 8181 -1 2182 -1 50 -1 3134 -1 #SUP: 2
722 -1 8181 -1 2182 -1 50 -1 3918 -1 #SUP: 2
722 -1 8181 -1 2182 -1 117 -1 3134 -1 #SUP: 2
722 -1 8181 -1 2182 -1 117 -1 3918 -1 #SUP: 2
722 -1 8181 -1 2182 -1 3918 -1 3134 -1 #SUP: 2
722 -1 8181 -1 2182 -1 18984 -1 50 -1 #SUP: 2
722 -1 8181 -1 2182 -1 18984 -1 117 -1 #SUP: 2
722 -1 8181 -1 2182 -1 18984 -1 3134 -1 #SUP: 2
722 -1 8181 -1 2182 -1 18984 -1 3918 -1 #SUP: 2
722 -1 8181 -1 18984 -1 50 -1 117 -1 #SUP: 2
722 -1 8181 -1 18984 -1 50 -1 3134 -1 #SUP: 2
722 -1 8181 -1 18984 -1 50 -1 3918 -1 #SUP: 2
722 -1 8181 -1 18984 -1 117 -1 3134 -1 #SUP: 2
722 -1 8181 -1 18984 -1 117 -1 3918 -1 #SUP: 2
722 -1 8181 -1 18984 -1 3918 -1 3134 -1 #SUP: 2
722 -1 18984 -1 50 -1 117 -1 3134 -1 #SUP: 2
722 -1 18984 -1 50 -1 117 -1 3918 -1 #SUP: 2
722 -1 18984 -1 50 -1 3918 -1 3134 -1 #SUP: 2
722 -1 18984 -1 117 -1 3918 -1 3134 -1 #SUP: 2
2182 -1 50 -1 117 -1 3918 -1 3134 -1 #SUP: 2
2182 -1 18984 -1 50 -1 117 -1 3134 -1 #SUP: 2
2182 -1 18984 -1 50 -1 117 -1 3918 -1 #SUP: 2
2182 -1 18984 -1 50 -1 3918 -1 3134 -1 #SUP: 2
2182 -1 18984 -1 117 -1 3918 -1 3134 -1 #SUP: 2
8181 -1 50 -1 117 -1 3918 -1 3134 -1 #SUP: 2
8181 -1 2182 -1 50 -1 117 -1 3134 -1 #SUP: 2
8181 -1 2182 -1 50 -1 117 -1 3918 -1 #SUP: 2
8181 -1 2182 -1 50 -1 3918 -1 3134 -1 #SUP: 2
8181 -1 2182 -1 117 -1 3918 -1 3134 -1 #SUP: 2
8181 -1 2182 -1 18984 -1 50 -1 117 -1 #SUP: 2
8181 -1 2182 -1 18984 -1 50 -1 3134 -1 #SUP: 2
8181 -1 2182 -1 18984 -1 50 -1 3918 -1 #SUP: 2
8181 -1 2182 -1 18984 -1 117 -1 3134 -1 #SUP: 2
8181 -1 2182 -1 18984 -1 117 -1 3918 -1 #SUP: 2
8181 -1 2182 -1 18984 -1 3918 -1 3134 -1 #SUP: 2
8181 -1 18984 -1 50 -1 117 -1 3134 -1 #SUP: 2
8181 -1 18984 -1 50 -1 117 -1 3918 -1 #SUP: 2
8181 -1 18984 -1 50 -1 3918 -1 3134 -1 #SUP: 2
8181 -1 18984 -1 117 -1 3918 -1 3134 -1 #SUP: 2
18984 -1 50 -1 117 -1 3918 -1 3134 -1 #SUP: 2
72654 -1 6631 -1 50 -1 33545 -1 19857 -1 #SUP: 2
48 -1 122 -1 10506 -1 4850 -1 1651 -1 1121 -1 #SUP: 2
50 -1 50 -1 50 -1 117 -1 3918 -1 3134 -1 #SUP: 2
50 -1 50 -1 722 -1 50 -1 117 -1 3134 -1 #SUP: 2
50 -1 50 -1 722 -1 50 -1 117 -1 3918 -1 #SUP: 2
50 -1 50 -1 722 -1 50 -1 3918 -1 3134 -1 #SUP: 2
50 -1 50 -1 722 -1 117 -1 3918 -1 3134 -1 #SUP: 2
50 -1 50 -1 722 -1 2182 -1 50 -1 117 -1 #SUP: 2
50 -1 50 -1 722 -1 2182 -1 50 -1 3134 -1 #SUP: 2
50 -1 50 -1 722 -1 2182 -1 50 -1 3918 -1 #SUP: 2
50 -1 50 -1 722 -1 2182 -1 117 -1 3134 -1 #SUP: 2
50 -1 50 -1 722 -1 2182 -1 117 -1 3918 -1 #SUP: 2
50 -1 50 -1 722 -1 2182 -1 3918 -1 3134 -1 #SUP: 2
50 -1 50 -1 722 -1 2182 -1 18984 -1 50 -1 #SUP: 2
50 -1 50 -1 722 -1 2182 -1 18984 -1 117 -1 #SUP: 2
50 -1 50 -1 722 -1 2182 -1 18984 -1 3134 -1 #SUP: 2
50 -1 50 -1 722 -1 2182 -1 18984 -1 3918 -1 #SUP: 2
50 -1 50 -1 722 -1 8181 -1 50 -1 117 -1 #SUP: 2
50 -1 50 -1 722 -1 8181 -1 50 -1 3134 -1 #SUP: 2
50 -1 50 -1 722 -1 8181 -1 50 -1 3918 -1 #SUP: 2
50 -1 50 -1 722 -1 8181 -1 117 -1 3134 -1 #SUP: 2
50 -1 50 -1 722 -1 8181 -1 117 -1 3918 -1 #SUP: 2
50 -1 50 -1 722 -1 8181 -1 2182 -1 50 -1 #SUP: 2
50 -1 50 -1 722 -1 8181 -1 2182 -1 117 -1 #SUP: 2
50 -1 50 -1 722 -1 8181 -1 2182 -1 3134 -1 #SUP: 2
50 -1 50 -1 722 -1 8181 -1 2182 -1 3918 -1 #SUP: 2
50 -1 50 -1 722 -1 8181 -1 2182 -1 18984 -1 #SUP: 2
50 -1 50 -1 722 -1 8181 -1 3918 -1 3134 -1 #SUP: 2
50 -1 50 -1 722 -1 8181 -1 18984 -1 50 -1 #SUP: 2
50 -1 50 -1 722 -1 8181 -1 18984 -1 117 -1 #SUP: 2
50 -1 50 -1 722 -1 8181 -1 18984 -1 3134 -1 #SUP: 2
50 -1 50 -1 722 -1 8181 -1 18984 -1 3918 -1 #SUP: 2
50 -1 50 -1 722 -1 18984 -1 50 -1 117 -1 #SUP: 2
50 -1 50 -1 722 -1 18984 -1 50 -1 3134 -1 #SUP: 2
50 -1 50 -1 722 -1 18984 -1 50 -1 3918 -1 #SUP: 2
50 -1 50 -1 722 -1 18984 -1 117 -1 3134 -1 #SUP: 2
50 -1 50 -1 722 -1 18984 -1 117 -1 3918 -1 #SUP: 2
50 -1 50 -1 722 -1 18984 -1 3918 -1 3134 -1 #SUP: 2
50 -1 50 -1 2182 -1 50 -1 117 -1 3134 -1 #SUP: 2
50 -1 50 -1 2182 -1 50 -1 117 -1 3918 -1 #SUP: 2
50 -1 50 -1 2182 -1 50 -1 3918 -1 3134 -1 #SUP: 2
50 -1 50 -1 2182 -1 117 -1 3918 -1 3134 -1 #SUP: 2
50 -1 50 -1 2182 -1 18984 -1 50 -1 117 -1 #SUP: 2
50 -1 50 -1 2182 -1 18984 -1 50 -1 3134 -1 #SUP: 2
50 -1 50 -1 2182 -1 18984 -1 50 -1 3918 -1 #SUP: 2
50 -1 50 -1 2182 -1 18984 -1 117 -1 3134 -1 #SUP: 2
50 -1 50 -1 2182 -1 18984 -1 117 -1 3918 -1 #SUP: 2
50 -1 50 -1 2182 -1 18984 -1 3918 -1 3134 -1 #SUP: 2
50 -1 50 -1 8181 -1 50 -1 117 -1 3134 -1 #SUP: 2
50 -1 50 -1 8181 -1 50 -1 117 -1 3918 -1 #SUP: 2
50 -1 50 -1 8181 -1 50 -1 3918 -1 3134 -1 #SUP: 2
50 -1 50 -1 8181 -1 117 -1 3918 -1 3134 -1 #SUP: 2
50 -1 50 -1 8181 -1 2182 -1 50 -1 117 -1 #SUP: 2
50 -1 50 -1 8181 -1 2182 -1 50 -1 3134 -1 #SUP: 2
50 -1 50 -1 8181 -1 2182 -1 50 -1 3918 -1 #SUP: 2
50 -1 50 -1 8181 -1 2182 -1 117 -1 3134 -1 #SUP: 2
50 -1 50 -1 8181 -1 2182 -1 117 -1 3918 -1 #SUP: 2
50 -1 50 -1 8181 -1 2182 -1 3918 -1 3134 -1 #SUP: 2
50 -1 50 -1 8181 -1 2182 -1 18984 -1 50 -1 #SUP: 2
50 -1 50 -1 8181 -1 2182 -1 18984 -1 117 -1 #SUP: 2
50 -1 50 -1 8181 -1 2182 -1 18984 -1 3134 -1 #SUP: 2
50 -1 50 -1 8181 -1 2182 -1 18984 -1 3918 -1 #SUP: 2
50 -1 50 -1 8181 -1 18984 -1 50 -1 117 -1 #SUP: 2
50 -1 50 -1 8181 -1 18984 -1 50 -1 3134 -1 #SUP: 2
50 -1 50 -1 8181 -1 18984 -1 50 -1 3918 -1 #SUP: 2
50 -1 50 -1 8181 -1 18984 -1 117 -1 3134 -1 #SUP: 2
50 -1 50 -1 8181 -1 18984 -1 117 -1 3918 -1 #SUP: 2
50 -1 50 -1 8181 -1 18984 -1 3918 -1 3134 -1 #SUP: 2
50 -1 50 -1 18984 -1 50 -1 117 -1 3134 -1 #SUP: 2
50 -1 50 -1 18984 -1 50 -1 117 -1 3918 -1 #SUP: 2
50 -1 50 -1 18984 -1 50 -1 3918 -1 3134 -1 #SUP: 2
50 -1 50 -1 18984 -1 117 -1 3918 -1 3134 -1 #SUP: 2
50 -1 722 -1 50 -1 117 -1 3918 -1 3134 -1 #SUP: 2
50 -1 722 -1 2182 -1 50 -1 117 -1 3134 -1 #SUP: 2
50 -1 722 -1 2182 -1 50 -1 117 -1 3918 -1 #SUP: 2
50 -1 722 -1 2182 -1 50 -1 3918 -1 3134 -1 #SUP: 2
50 -1 722 -1 2182 -1 117 -1 3918 -1 3134 -1 #SUP: 2
50 -1 722 -1 2182 -1 18984 -1 50 -1 117 -1 #SUP: 2
50 -1 722 -1 2182 -1 18984 -1 50 -1 3134 -1 #SUP: 2
50 -1 722 -1 2182 -1 18984 -1 50 -1 3918 -1 #SUP: 2
50 -1 722 -1 2182 -1 18984 -1 117 -1 3134 -1 #SUP: 2
50 -1 722 -1 2182 -1 18984 -1 117 -1 3918 -1 #SUP: 2
50 -1 722 -1 2182 -1 18984 -1 3918 -1 3134 -1 #SUP: 2
50 -1 722 -1 8181 -1 50 -1 117 -1 3134 -1 #SUP: 2
50 -1 722 -1 8181 -1 50 -1 117 -1 3918 -1 #SUP: 2
50 -1 722 -1 8181 -1 50 -1 3918 -1 3134 -1 #SUP: 2
50 -1 722 -1 8181 -1 117 -1 3918 -1 3134 -1 #SUP: 2
50 -1 722 -1 8181 -1 2182 -1 50 -1 117 -1 #SUP: 2
50 -1 722 -1 8181 -1 2182 -1 50 -1 3134 -1 #SUP: 2
50 -1 722 -1 8181 -1 2182 -1 50 -1 3918 -1 #SUP: 2
50 -1 722 -1 8181 -1 2182 -1 117 -1 3134 -1 #SUP: 2
50 -1 722 -1 8181 -1 2182 -1 117 -1 3918 -1 #SUP: 2
50 -1 722 -1 8181 -1 2182 -1 3918 -1 3134 -1 #SUP: 2
50 -1 722 -1 8181 -1 2182 -1 18984 -1 50 -1 #SUP: 2
50 -1 722 -1 8181 -1 2182 -1 18984 -1 117 -1 #SUP: 2
50 -1 722 -1 8181 -1 2182 -1 18984 -1 3134 -1 #SUP: 2
50 -1 722 -1 8181 -1 2182 -1 18984 -1 3918 -1 #SUP: 2
50 -1 722 -1 8181 -1 18984 -1 50 -1 117 -1 #SUP: 2
50 -1 722 -1 8181 -1 18984 -1 50 -1 3134 -1 #SUP: 2
50 -1 722 -1 8181 -1 18984 -1 50 -1 3918 -1 #SUP: 2
50 -1 722 -1 8181 -1 18984 -1 117 -1 3134 -1 #SUP: 2
50 -1 722 -1 8181 -1 18984 -1 117 -1 3918 -1 #SUP: 2
50 -1 722 -1 8181 -1 18984 -1 3918 -1 3134 -1 #SUP: 2
50 -1 722 -1 18984 -1 50 -1 117 -1 3134 -1 #SUP: 2
50 -1 722 -1 18984 -1 50 -1 117 -1 3918 -1 #SUP: 2
50 -1 722 -1 18984 -1 50 -1 3918 -1 3134 -1 #SUP: 2
50 -1 722 -1 18984 -1 117 -1 3918 -1 3134 -1 #SUP: 2
50 -1 2182 -1 50 -1 117 -1 3918 -1 3134 -1 #SUP: 2
50 -1 2182 -1 18984 -1 50 -1 117 -1 3134 -1 #SUP: 2
50 -1 2182 -1 18984 -1 50 -1 117 -1 3918 -1 #SUP: 2
50 -1 2182 -1 18984 -1 50 -1 3918 -1 3134 -1 #SUP: 2
50 -1 2182 -1 18984 -1 117 -1 3918 -1 3134 -1 #SUP: 2
50 -1 8181 -1 50 -1 117 -1 3918 -1 3134 -1 #SUP: 2
50 -1 8181 -1 2182 -1 50 -1 117 -1 3134 -1 #SUP: 2
50 -1 8181 -1 2182 -1 50 -1 117 -1 3918 -1 #SUP: 2
50 -1 8181 -1 2182 -1 50 -1 3918 -1 3134 -1 #SUP: 2
50 -1 8181 -1 2182 -1 117 -1 3918 -1 3134 -1 #SUP: 2
50 -1 8181 -1 2182 -1 18984 -1 50 -1 117 -1 #SUP: 2
50 -1 8181 -1 2182 -1 18984 -1 50 -1 3134 -1 #SUP: 2
50 -1 8181 -1 2182 -1 18984 -1 50 -1 3918 -1 #SUP: 2
50 -1 8181 -1 2182 -1 18984 -1 117 -1 3134 -1 #SUP: 2
50 -1 8181 -1 2182 -1 18984 -1 117 -1 3918 -1 #SUP: 2
50 -1 8181 -1 2182 -1 18984 -1 3918 -1 3134 -1 #SUP: 2
50 -1 8181 -1 18984 -1 50 -1 117 -1 3134 -1 #SUP: 2
50 -1 8181 -1 18984 -1 50 -1 117 -1 3918 -1 #SUP: 2
50 -1 8181 -1 18984 -1 50 -1 3918 -1 3134 -1 #SUP: 2
50 -1 8181 -1 18984 -1 117 -1 3918 -1 3134 -1 #SUP: 2
50 -1 18984 -1 50 -1 117 -1 3918 -1 3134 -1 #SUP: 2
722 -1 2182 -1 50 -1 117 -1 3918 -1 3134 -1 #SUP: 2
722 -1 2182 -1 18984 -1 50 -1 117 -1 3134 -1 #SUP: 2
722 -1 2182 -1 18984 -1 50 -1 117 -1 3918 -1 #SUP: 2
722 -1 2182 -1 18984 -1 50 -1 3918 -1 3134 -1 #SUP: 2
722 -1 2182 -1 18984 -1 117 -1 3918 -1 3134 -1 #SUP: 2
722 -1 8181 -1 50 -1 117 -1 3918 -1 3134 -1 #SUP: 2
722 -1 8181 -1 2182 -1 50 -1 117 -1 3134 -1 #SUP: 2
722 -1 8181 -1 2182 -1 50 -1 117 -1 3918 -1 #SUP: 2
722 -1 8181 -1 2182 -1 50 -1 3918 -1 3134 -1 #SUP: 2
722 -1 8181 -1 2182 -1 117 -1 3918 -1 3134 -1 #SUP: 2
722 -1 8181 -1 2182 -1 18984 -1 50 -1 117 -1 #SUP: 2
722 -1 8181 -1 2182 -1 18984 -1 50 -1 3134 -1 #SUP: 2
722 -1 8181 -1 2182 -1 18984 -1 50 -1 3918 -1 #SUP: 2
722 -1 8181 -1 2182 -1 18984 -1 117 -1 3134 -1 #SUP: 2
722 -1 8181 -1 2182 -1 18984 -1 117 -1 3918 -1 #SUP: 2
722 -1 8181 -1 2182 -1 18984 -1 3918 -1 3134 -1 #SUP: 2
722 -1 8181 -1 18984 -1 50 -1 117 -1 3134 -1 #SUP: 2
722 -1 8181 -1 18984 -1 50 -1 117 -1 3918 -1 #SUP: 2
722 -1 8181 -1 18984 -1 50 -1 3918 -1 3134 -1 #SUP: 2
722 -1 8181 -1 18984 -1 117 -1 3918 -1 3134 -1 #SUP: 2
722 -1 18984 -1 50 -1 117 -1 3918 -1 3134 -1 #SUP: 2
2182 -1 18984 -1 50 -1 117 -1 3918 -1 3134 -1 #SUP: 2
8181 -1 2182 -1 50 -1 117 -1 3918 -1 3134 -1 #SUP: 2
8181 -1 2182 -1 18984 -1 50 -1 117 -1 3134 -1 #SUP: 2
8181 -1 2182 -1 18984 -1 50 -1 117 -1 3918 -1 #SUP: 2
8181 -1 2182 -1 18984 -1 50 -1 3918 -1 3134 -1 #SUP: 2
8181 -1 2182 -1 18984 -1 117 -1 3918 -1 3134 -1 #SUP: 2
8181 -1 18984 -1 50 -1 117 -1 3918 -1 3134 -1 #SUP: 2
50 -1 50 -1 722 -1 50 -1 117 -1 3918 -1 3134 -1 #SUP: 2
50 -1 50 -1 722 -1 2182 -1 50 -1 117 -1 3134 -1 #SUP: 2
50 -1 50 -1 722 -1 2182 -1 50 -1 117 -1 3918 -1 #SUP: 2
50 -1 50 -1 722 -1 2182 -1 50 -1 3918 -1 3134 -1 #SUP: 2
50 -1 50 -1 722 -1 2182 -1 117 -1 3918 -1 3134 -1 #SUP: 2
50 -1 50 -1 722 -1 2182 -1 18984 -1 50 -1 117 -1 #SUP: 2
50 -1 50 -1 722 -1 2182 -1 18984 -1 50 -1 3134 -1 #SUP: 2
50 -1 50 -1 722 -1 2182 -1 18984 -1 50 -1 3918 -1 #SUP: 2
50 -1 50 -1 722 -1 2182 -1 18984 -1 117 -1 3134 -1 #SUP: 2
50 -1 50 -1 722 -1 2182 -1 18984 -1 117 -1 3918 -1 #SUP: 2
50 -1 50 -1 722 -1 2182 -1 18984 -1 3918 -1 3134 -1 #SUP: 2
50 -1 50 -1 722 -1 8181 -1 50 -1 117 -1 3134 -1 #SUP: 2
50 -1 50 -1 722 -1 8181 -1 50 -1 117 -1 3918 -1 #SUP: 2
50 -1 50 -1 722 -1 8181 -1 50 -1 3918 -1 3134 -1 #SUP: 2
50 -1 50 -1 722 -1 8181 -1 117 -1 3918 -1 3134 -1 #SUP: 2
50 -1 50 -1 722 -1 8181 -1 2182 -1 50 -1 117 -1 #SUP: 2
50 -1 50 -1 722 -1 8181 -1 2182 -1 50 -1 3134 -1 #SUP: 2
50 -1 50 -1 722 -1 8181 -1 2182 -1 50 -1 3918 -1 #SUP: 2
50 -1 50 -1 722 -1 8181 -1 2182 -1 117 -1 3134 -1 #SUP: 2
50 -1 50 -1 722 -1 8181 -1 2182 -1 117 -1 3918 -1 #SUP: 2
50 -1 50 -1 722 -1 8181 -1 2182 -1 3918 -1 3134 -1 #SUP: 2
50 -1 50 -1 722 -1 8181 -1 2182 -1 18984 -1 50 -1 #SUP: 2
50 -1 50 -1 722 -1 8181 -1 2182 -1 18984 -1 117 -1 #SUP: 2
50 -1 50 -1 722 -1 8181 -1 2182 -1 18984 -1 3134 -1 #SUP: 2
50 -1 50 -1 722 -1 8181 -1 2182 -1 18984 -1 3918 -1 #SUP: 2
50 -1 50 -1 722 -1 8181 -1 18984 -1 50 -1 117 -1 #SUP: 2
50 -1 50 -1 722 -1 8181 -1 18984 -1 50 -1 3134 -1 #SUP: 2
50 -1 50 -1 722 -1 8181 -1 18984 -1 50 -1 3918 -1 #SUP: 2
50 -1 50 -1 722 -1 8181 -1 18984 -1 117 -1 3134 -1 #SUP: 2
50 -1 50 -1 722 -1 8181 -1 18984 -1 117 -1 3918 -1 #SUP: 2
50 -1 50 -1 722 -1 8181 -1 18984 -1 3918 -1 3134 -1 #SUP: 2
50 -1 50 -1 722 -1 18984 -1 50 -1 117 -1 3134 -1 #SUP: 2
50 -1 50 -1 722 -1 18984 -1 50 -1 117 -1 3918 -1 #SUP: 2
50 -1 50 -1 722 -1 18984 -1 50 -1 3918 -1 3134 -1 #SUP: 2
50 -1 50 -1 722 -1 18984 -1 117 -1 3918 -1 3134 -1 #SUP: 2
50 -1 50 -1 2182 -1 50 -1 117 -1 3918 -1 3134 -1 #SUP: 2
50 -1 50 -1 2182 -1 18984 -1 50 -1 117 -1 3134 -1 #SUP: 2
50 -1 50 -1 2182 -1 18984 -1 50 -1 117 -1 3918 -1 #SUP: 2
50 -1 50 -1 2182 -1 18984 -1 50 -1 3918 -1 3134 -1 #SUP: 2
50 -1 50 -1 2182 -1 18984 -1 117 -1 3918 -1 3134 -1 #SUP: 2
50 -1 50 -1 8181 -1 50 -1 117 -1 3918 -1 3134 -1 #SUP: 2
50 -1 50 -1 8181 -1 2182 -1 50 -1 117 -1 3134 -1 #SUP: 2
50 -1 50 -1 8181 -1 2182 -1 50 -1 117 -1 3918 -1 #SUP: 2
50 -1 50 -1 8181 -1 2182 -1 50 -1 3918 -1 3134 -1 #SUP: 2
50 -1 50 -1 8181 -1 2182 -1 117 -1 3918 -1 3134 -1 #SUP: 2
50 -1 50 -1 8181 -1 2182 -1 18984 -1 50 -1 117 -1 #SUP: 2
50 -1 50 -1 8181 -1 2182 -1 18984 -1 50 -1 3134 -1 #SUP: 2
50 -1 50 -1 8181 -1 2182 -1 18984 -1 50 -1 3918 -1 #SUP: 2
50 -1 50 -1 8181 -1 2182 -1 18984 -1 117 -1 3134 -1 #SUP: 2
50 -1 50 -1 8181 -1 2182 -1 18984 -1 117 -1 3918 -1 #SUP: 2
50 -1 50 -1 8181 -1 2182 -1 18984 -1 3918 -1 3134 -1 #SUP: 2
50 -1 50 -1 8181 -1 18984 -1 50 -1 117 -1 3134 -1 #SUP: 2
50 -1 50 -1 8181 -1 18984 -1 50 -1 117 -1 3918 -1 #SUP: 2
50 -1 50 -1 8181 -1 18984 -1 50 -1 3918 -1 3134 -1 #SUP: 2
50 -1 50 -1 8181 -1 18984 -1 117 -1 3918 -1 3134 -1 #SUP: 2
50 -1 50 -1 18984 -1 50 -1 117 -1 3918 -1 3134 -1 #SUP: 2
50 -1 722 -1 2182 -1 50 -1 117 -1 3918 -1 3134 -1 #SUP: 2
50 -1 722 -1 2182 -1 18984 -1 50 -1 117 -1 3134 -1 #SUP: 2
50 -1 722 -1 2182 -1 18984 -1 50 -1 117 -1 3918 -1 #SUP: 2
50 -1 722 -1 2182 -1 18984 -1 50 -1 3918 -1 3134 -1 #SUP: 2
50 -1 722 -1 2182 -1 18984 -1 117 -1 3918 -1 3134 -1 #SUP: 2
50 -1 722 -1 8181 -1 50 -1 117 -1 3918 -1 3134 -1 #SUP: 2
50 -1 722 -1 8181 -1 2182 -1 50 -1 117 -1 3134 -1 #SUP: 2
50 -1 722 -1 8181 -1 2182 -1 50 -1 117 -1 3918 -1 #SUP: 2
50 -1 722 -1 8181 -1 2182 -1 50 -1 3918 -1 3134 -1 #SUP: 2
50 -1 722 -1 8181 -1 2182 -1 117 -1 3918 -1 3134 -1 #SUP: 2
50 -1 722 -1 8181 -1 2182 -1 18984 -1 50 -1 117 -1 #SUP: 2
50 -1 722 -1 8181 -1 2182 -1 18984 -1 50 -1 3134 -1 #SUP: 2
50 -1 722 -1 8181 -1 2182 -1 18984 -1 50 -1 3918 -1 #SUP: 2
50 -1 722 -1 8181 -1 2182 -1 18984 -1 117 -1 3134 -1 #SUP: 2
50 -1 722 -1 8181 -1 2182 -1 18984 -1 117 -1 3918 -1 #SUP: 2
50 -1 722 -1 8181 -1 2182 -1 18984 -1 3918 -1 3134 -1 #SUP: 2
50 -1 722 -1 8181 -1 18984 -1 50 -1 117 -1 3134 -1 #SUP: 2
50 -1 722 -1 8181 -1 18984 -1 50 -1 117 -1 3918 -1 #SUP: 2
50 -1 722 -1 8181 -1 18984 -1 50 -1 3918 -1 3134 -1 #SUP: 2
50 -1 722 -1 8181 -1 18984 -1 117 -1 3918 -1 3134 -1 #SUP: 2
50 -1 722 -1 18984 -1 50 -1 117 -1 3918 -1 3134 -1 #SUP: 2
50 -1 2182 -1 18984 -1 50 -1 117 -1 3918 -1 3134 -1 #SUP: 2
50 -1 8181 -1 2182 -1 50 -1 117 -1 3918 -1 3134 -1 #SUP: 2
50 -1 8181 -1 2182 -1 18984 -1 50 -1 117 -1 3134 -1 #SUP: 2
50 -1 8181 -1 2182 -1 18984 -1 50 -1 117 -1 3918 -1 #SUP: 2
50 -1 8181 -1 2182 -1 18984 -1 50 -1 3918 -1 3134 -1 #SUP: 2
50 -1 8181 -1 2182 -1 18984 -1 117 -1 3918 -1 3134 -1 #SUP: 2
50 -1 8181 -1 18984 -1 50 -1 117 -1 3918 -1 3134 -1 #SUP: 2
722 -1 2182 -1 18984 -1 50 -1 117 -1 3918 -1 3134 -1 #SUP: 2
722 -1 8181 -1 2182 -1 50 -1 117 -1 3918 -1 3134 -1 #SUP: 2
722 -1 8181 -1 2182 -1 18984 -1 50 -1 117 -1 3134 -1 #SUP: 2
722 -1 8181 -1 2182 -1 18984 -1 50 -1 117 -1 3918 -1 #SUP: 2
722 -1 8181 -1 2182 -1 18984 -1 50 -1 3918 -1 3134 -1 #SUP: 2
722 -1 8181 -1 2182 -1 18984 -1 117 -1 3918 -1 3134 -1 #SUP: 2
722 -1 8181 -1 18984 -1 50 -1 117 -1 3918 -1 3134 -1 #SUP: 2
8181 -1 2182 -1 18984 -1 50 -1 117 -1 3918 -1 3134 -1 #SUP: 2
50 -1 50 -1 722 -1 2182 -1 50 -1 117 -1 3918 -1 3134 -1 #SUP: 2
50 -1 50 -1 722 -1 2182 -1 18984 -1 50 -1 117 -1 3134 -1 #SUP: 2
50 -1 50 -1 722 -1 2182 -1 18984 -1 50 -1 117 -1 3918 -1 #SUP: 2
50 -1 50 -1 722 -1 2182 -1 18984 -1 50 -1 3918 -1 3134 -1 #SUP: 2
50 -1 50 -1 722 -1 2182 -1 18984 -1 117 -1 3918 -1 3134 -1 #SUP: 2
50 -1 50 -1 722 -1 8181 -1 50 -1 117 -1 3918 -1 3134 -1 #SUP: 2
50 -1 50 -1 722 -1 8181 -1 2182 -1 50 -1 117 -1 3134 -1 #SUP: 2
50 -1 50 -1 722 -1 8181 -1 2182 -1 50 -1 117 -1 3918 -1 #SUP: 2
50 -1 50 -1 722 -1 8181 -1 2182 -1 50 -1 3918 -1 3134 -1 #SUP: 2
50 -1 50 -1 722 -1 8181 -1 2182 -1 117 -1 3918 -1 3134 -1 #SUP: 2
50 -1 50 -1 722 -1 8181 -1 2182 -1 18984 -1 50 -1 117 -1 #SUP: 2
50 -1 50 -1 722 -1 8181 -1 2182 -1 18984 -1 50 -1 3134 -1 #SUP: 2
50 -1 50 -1 722 -1 8181 -1 2182 -1 18984 -1 50 -1 3918 -1 #SUP: 2
50 -1 50 -1 722 -1 8181 -1 2182 -1 18984 -1 117 -1 3134 -1 #SUP: 2
50 -1 50 -1 722 -1 8181 -1 2182 -1 18984 -1 117 -1 3918 -1 #SUP: 2
50 -1 50 -1 722 -1 8181 -1 2182 -1 18984 -1 3918 -1 3134 -1 #SUP: 2
50 -1 50 -1 722 -1 8181 -1 18984 -1 50 -1 117 -1 3134 -1 #SUP: 2
50 -1 50 -1 722 -1 8181 -1 18984 -1 50 -1 117 -1 3918 -1 #SUP: 2
50 -1 50 -1 722 -1 8181 -1 18984 -1 50 -1 3918 -1 3134 -1 #SUP: 2
50 -1 50 -1 722 -1 8181 -1 18984 -1 117 -1 3918 -1 3134 -1 #SUP: 2
50 -1 50 -1 722 -1 18984 -1 50 -1 117 -1 3918 -1 3134 -1 #SUP: 2
50 -1 50 -1 2182 -1 18984 -1 50 -1 117 -1 3918 -1 3134 -1 #SUP: 2
50 -1 50 -1 8181 -1 2182 -1 50 -1 117 -1 3918 -1 3134 -1 #SUP: 2
50 -1 50 -1 8181 -1 2182 -1 18984 -1 50 -1 117 -1 3134 -1 #SUP: 2
50 -1 50 -1 8181 -1 2182 -1 18984 -1 50 -1 117 -1 3918 -1 #SUP: 2
50 -1 50 -1 8181 -1 2182 -1 18984 -1 50 -1 3918 -1 3134 -1 #SUP: 2
50 -1 50 -1 8181 -1 2182 -1 18984 -1 117 -1 3918 -1 3134 -1 #SUP: 2
50 -1 50 -1 8181 -1 18984 -1 50 -1 117 -1 3918 -1 3134 -1 #SUP: 2
50 -1 722 -1 2182 -1 18984 -1 50 -1 117 -1 3918 -1 3134 -1 #SUP: 2
50 -1 722 -1 8181 -1 2182 -1 50 -1 117 -1 3918 -1 3134 -1 #SUP: 2
50 -1 722 -1 8181 -1 2182 -1 18984 -1 50 -1 117 -1 3134 -1 #SUP: 2
50 -1 722 -1 8181 -1 2182 -1 18984 -1 50 -1 117 -1 3918 -1 #SUP: 2
50 -1 722 -1 8181 -1 2182 -1 18984 -1 50 -1 3918 -1 3134 -1 #SUP: 2
50 -1 722 -1 8181 -1 2182 -1 18984 -1 117 -1 3918 -1 3134 -1 #SUP: 2
50 -1 722 -1 8181 -1 18984 -1 50 -1 117 -1 3918 -1 3134 -1 #SUP: 2
50 -1 8181 -1 2182 -1 18984 -1 50 -1 117 -1 3918 -1 3134 -1 #SUP: 2
722 -1 8181 -1 2182 -1 18984 -1 50 -1 117 -1 3918 -1 3134 -1 #SUP: 2
50 -1 50 -1 722 -1 2182 -1 18984 -1 50 -1 117 -1 3918 -1 3134 -1 #SUP: 2
50 -1 50 -1 722 -1 8181 -1 2182 -1 50 -1 117 -1 3918 -1 3134 -1 #SUP: 2
50 -1 50 -1 722 -1 8181 -1 2182 -1 18984 -1 50 -1 117 -1 3134 -1 #SUP: 2
50 -1 50 -1 722 -1 8181 -1 2182 -1 18984 -1 50 -1 117 -1 3918 -1 #SUP: 2
50 -1 50 -1 722 -1 8181 -1 2182 -1 18984 -1 50 -1 3918 -1 3134 -1 #SUP: 2
50 -1 50 -1 722 -1 8181 -1 2182 -1 18984 -1 117 -1 3918 -1 3134 -1 #SUP: 2
50 -1 50 -1 722 -1 8181 -1 18984 -1 50 -1 117 -1 3918 -1 3134 -1 #SUP: 2
50 -1 50 -1 8181 -1 2182 -1 18984 -1 50 -1 117 -1 3918 -1 3134 -1 #SUP: 2
50 -1 722 -1 8181 -1 2182 -1 18984 -1 50 -1 117 -1 3918 -1 3134 -1 #SUP: 2
50 -1 50 -1 722 -1 8181 -1 2182 -1 18984 -1 50 -1 117 -1 3918 -1 3134 -1 #SUP: 2
