44 -1 50 -1 107 -1 8652 -1 535 -1 48 -1 8556 -1 50 -1 255 -1 3124 -1 322 -1 1016 -1 397 -1 19 -2
197 -1 50 -1 752 -1 366 -1 19 -2
832 -1 48 -1 6813 -1 91 -1 240 -1 2445 -1 6813 -1 2189 -1 122 -1 550 -1 19 -2
376 -1 18879 -1 18881 -1 2957 -1 1228 -1 19 -2
48 -1 784 -1 50 -1 535 -1 156 -1 19 -2
1005 -1 7285 -1 7300 -1 50 -1 535 -1 4387 -1 1272 -1 415 -1 62972 -1 1272 -1 415 -1 248 -1 1 -2
19 -2
1137 -1 50 -1 3449 -1 2273 -1 19 -2
1619 -1 5454 -1 522 -1 11 -1 9 -1 96 -1 1519 -1 19 -2
48 -1 384 -1 278 -1 3862 -1 19 -2
350 -1 3862 -1 19 -2
3099 -1 2045 -1 172 -1 19 -1 1760 -1 50 -1 263 -1 5164 -1 19 -2
2751 -1 842 -1 1377 -1 50 -1 155 -1 5164 -1 19 -2
2777 -1 5164 -1 19 -2
19 -2
48 -1 2394 -1 1783 -1 681 -1 155 -1 773 -1 597 -1 350 -1 9 -1 91 -1 493 -1 19 -2
1538 -1 1100 -1 155 -1 1061 -1 775 -1 50 -1 19 -2
520 -1 91 -1 8471 -1 65 -1 197 -1 48 -1 3529 -1 1016 -1 1173 -1 1018 -1 520 -1 8471 -1 50 -1 118 -1 461 -1 520 -1 520 -1 1005 -1 19 -2
894 -1 19 -2
286 -1 19 -2
262 -1 28 -1 271 -1 520 -1 50 -1 118 -1 10421 -1 19 -2
262 -1 766 -1 3077 -1 535 -1 48 -1 255 -1 19 -2
197 -1 19 -2
1692 -1 6033 -1 19 -2
118 -1 50 -1 1645 -1 48 -1 1055 -1 535 -1 1055 -1 50 -1 535 -1 564 -1 62973 -1 19 -2
1645 -1 535 -1 1637 -1 50 -1 581 -1 19 -2
679 -1 50 -1 240 -1 535 -1 1140 -1 48 -1 350 -1 515 -1 117 -1 271 -1 520 -1 9 -1 19 -2
50 -1 1974 -1 50 -1 155 -1 535 -1 1227 -1 323 -1 6234 -1 19 -2
809 -1 849 -1 50 -1 48 -1 278 -1 2455 -1 50 -1 50 -1 3141 -1 1016 -1 1 -2
240 -1 263 -1 19 -2
197 -1 50 -1 530 -1 597 -1 535 -1 1140 -1 323 -1 6315 -1 1616 -1 361 -1 19 -2
1616 -1 271 -1 6997 -1 722 -1 2624 -1 19 -2
679 -1 50 -1 3473 -1 3296 -1 973 -1 216 -1 19 -2
2692 -1 50 -1 144 -1 396 -1 50 -1 6051 -1 681 -1 240 -1 853 -1 263 -1 1760 -1 19 -2
50 -1 118 -1 240 -1 167 -1 114 -1 263 -1 118 -1 62974 -1 19 -2
50 -1 137 -1 559 -1 1134 -1 50 -1 3485 -1 1121 -1 271 -1 19 -2
144 -1 1140 -1 2692 -1 50 -1 849 -1 96 -1 50 -1 91 -1 240 -1 3135 -1 2321 -1 266 -1 10112 -1 7259 -1 2616 -1 50 -1 849 -1 1125 -1 50 -1 197 -1 91 -1 19 -2
2692 -1 849 -1 19 -2
2045 -1 50 -1 144 -1 19 -2
915 -1 50 -1 255 -1 408 -1 1 -2
55 -1 3376 -1 48 -1 637 -1 50 -1 91 -1 1877 -1 1076 -1 197 -1 50 -1 19 -2
91 -1 255 -1 1258 -1 19 -2
2575 -1 1229 -1 50 -1 118 -1 1285 -1 118 -1 2427 -1 50 -1 1538 -1 10870 -1 50 -1 91 -1 240 -1 19 -2
255 -1 19 -2
2692 -1 50 -1 91 -1 240 -1 1877 -1 50 -1 1435 -1 4912 -1 19 -2
148 -1 144 -1 766 -1 19 -2
240 -1 356 -1 1392 -1 1358 -1 50 -1 504 -1 240 -1 291 -1 1358 -1 19 -2
356 -1 535 -1 15460 -1 1 -2
197 -1 5937 -1 894 -1 1682 -1 1018 -1 700 -1 535 -1 48 -1 3649 -1 19 -2
1068 -1 50 -1 3449 -1 19 -2
95 -1 48 -1 21888 -1 19 -2
3 -1 48 -1 535 -1 48 -1 986 -1 1741 -1 197 -1 19 -2
12013 -1 363 -1 50 -1 3 -1 1998 -1 19 -2
679 -1 50 -1 3075 -1 525 -1 681 -1 91 -1 19 -2
1974 -1 155 -1 1016 -1 1068 -1 74 -1 50 -1 323 -1 408 -1 529 -1 3649 -1 19 -2
33 -1 1204 -1 9 -1 19 -2
679 -1 50 -1 240 -1 1228 -1 508 -1 4162 -1 19 -2
504 -1 240 -1 50 -1 3108 -1 19 -2
262 -1 2289 -1 91 -1 240 -1 897 -1 515 -1 50 -1 91 -1 50 -1 565 -1 19 -2
155 -1 7215 -1 5745 -1 451 -1 843 -1 7491 -1 19 -2
9 -1 155 -1 1005 -1 3361 -1 50 -1 19 -2
361 -1 2872 -1 19 -2
2289 -1 50 -1 466 -1 5199 -1 5176 -1 6390 -1 48 -1 1373 -1 384 -1 5771 -1 271 -1 19 -2
271 -1 19 -2
3686 -1 595 -1 1550 -1 55 -1 1094 -1 595 -1 291 -1 1743 -1 19 -2
1692 -1 50 -1 91 -1 1538 -1 255 -1 746 -1 148 -1 262 -1 766 -1 415 -1 767 -1 50 -1 91 -1 62976 -1 50 -1 262 -1 62977 -1 1339 -1 306 -1 62975 -1 19 -2
197 -1 1658 -1 9939 -1 1024 -1 62978 -1 679 -1 50 -1 849 -1 1049 -1 917 -1 2284 -1 55 -1 271 -1 853 -1 2710 -1 197 -1 144 -1 3075 -1 488 -1 1538 -1 19 -2
1790 -1 155 -1 240 -1 5610 -1 1272 -1 19 -2
18879 -1 18881 -1 3693 -1 326 -1 893 -1 33 -1 1470 -1 1520 -1 153 -1 9810 -1 1106 -1 19 -2
50 -1 1495 -1 4141 -1 613 -1 8924 -1 50 -1 488 -1 488 -1 511 -1 516 -1 240 -1 3272 -1 50 -1 1538 -1 19 -2
118 -1 240 -1 50 -1 197 -1 91 -1 19 -2
271 -1 1016 -1 121 -1 262 -1 766 -1 1538 -1 428 -1 1068 -1 2127 -1 19 -2
271 -1 19 -2
15021 -1 3306 -1 3305 -1 1 -2
700 -1 6738 -1 1 -2
255 -1 747 -1 3091 -1 3306 -1 3305 -1 10696 -1 249 -1 22659 -1 38599 -1 613 -1 3687 -1 50 -1 19 -2
91 -1 240 -1 50 -1 262 -1 2289 -1 644 -1 50 -1 2375 -1 408 -1 155 -1 50 -1 1487 -1 5989 -1 19 -2
6915 -1 19 -2
19 -2
679 -1 50 -1 50 -1 955 -1 306 -1 19 -2
197 -1 50 -1 48 -1 91 -1 1016 -1 395 -1 50 -1 4221 -1 4177 -1 62979 -1 19 -2
262 -1 2624 -1 341 -1 19 -2
859 -1 1036 -1 1219 -1 2301 -1 58232 -1 49 -1 271 -1 169 -1 1100 -1 19 -2
695 -1 255 -1 2035 -1 19 -1 19 -1 1692 -1 522 -1 3015 -1 50 -1 240 -1 853 -1 973 -1 19 -2
255 -1 50 -1 361 -1 4950 -1 19 -2
197 -1 50 -1 535 -1 48 -1 973 -1 24179 -1 2652 -1 19 -2
1757 -1 48 -1 306 -1 1256 -1 95 -1 535 -1 700 -1 19 -2
2934 -1 3148 -1 946 -1 3350 -1 1392 -1 19 -2
262 -1 766 -1 1126 -1 1099 -1 19 -2
2560 -1 832 -1 946 -1 1392 -1 216 -1 1 -2
19 -2
286 -1 50 -1 412 -1 775 -1 50 -1 155 -1 1752 -1 306 -1 1256 -1 50 -1 1862 -1 62980 -1 644 -1 19 -2
197 -1 1509 -1 19 -2
271 -1 19 -2
1373 -1 4859 -1 5759 -1 471 -1 50 -1 504 -1 471 -1 19 -2
523 -1 564 -1 4162 -1 50 -1 504 -1 1016 -1 91 -1 1016 -1 1637 -1 50 -1 197 -1 50 -1 19 -2
197 -1 50 -1 197 -1 1538 -1 19 -2
197 -1 50 -1 50 -1 155 -1 980 -1 681 -1 366 -1 50 -1 366 -1 271 -1 209 -1 19 -2
50 -1 118 -1 272 -1 335 -1 50 -1 50 -1 50 -1 95 -1 550 -1 1559 -1 50 -1 49 -1 6759 -1 767 -1 50 -1 12605 -1 122 -1 306 -1 255 -1 19 -2
50 -1 197 -1 117 -1 271 -1 5765 -1 779 -1 306 -1 19 -2
262 -1 5435 -1 980 -1 50 -1 240 -1 263 -1 19 -2
48 -1 622 -1 700 -1 5454 -1 50 -1 1024 -1 498 -1 352 -1 50 -1 3766 -1 1 -2
42 -1 504 -1 4168 -1 19 -2
3776 -1 50 -1 766 -1 19 -2
508 -1 894 -1 19 -2
1482 -1 254 -1 197 -1 19 -2
197 -1 350 -1 2064 -1 62981 -1 444 -1 50 -1 27356 -1 2045 -1 466 -1 49 -1 1204 -1 19 -2
197 -1 1830 -1 395 -1 306 -1 19 -2
2064 -1 1865 -1 50 -1 19 -2
1452 -1 255 -1 341 -1 50 -1 48 -1 559 -1 50 -1 361 -1 216 -1 581 -1 19 -2
932 -1 255 -1 121 -1 50 -1 197 -1 932 -1 306 -1 19 -2
2827 -1 471 -1 853 -1 1024 -1 2692 -1 19 -1 1692 -1 1984 -1 19 -2
271 -1 1228 -1 50 -1 535 -1 1426 -1 1495 -1 488 -1 361 -1 1076 -1 894 -1 19 -2
91 -1 118 -1 19 -2
8473 -1 3816 -1 121 -1 1392 -1 50 -1 155 -1 523 -1 564 -1 1051 -1 50 -1 1862 -1 520 -1 50 -1 361 -1 5284 -1 50 -1 1005 -1 407 -1 255 -1 262 -1 1265 -1 19 -2
197 -1 50 -1 6882 -1 19 -2
48 -1 1144 -1 50 -1 2106 -1 8901 -1 2091 -1 19 -2
638 -1 50 -1 48 -1 255 -1 523 -1 700 -1 523 -1 19 -2
255 -1 2061 -1 3769 -1 19 -2
1210 -1 19 -2
681 -1 19 -2
117 -1 271 -1 3694 -1 681 -1 5771 -1 19 -2
155 -1 91 -1 6759 -1 50 -1 681 -1 2624 -1 19 -2
19 -2
240 -1 535 -1 50 -1 1577 -1 50 -1 526 -1 3270 -1 700 -1 153 -1 19 -2
3654 -1 91 -1 118 -1 875 -1 50 -1 153 -1 1874 -1 27411 -1 19 -2