4 -1 #SUP: 2
5 -1 #SUP: 5
9 -1 #SUP: 5
17 -1 #SUP: 3
18 -1 #SUP: 3
37 -1 #SUP: 3
48 -1 #SUP: 11
50 -1 #SUP: 92
54 -1 #SUP: 2
55 -1 #SUP: 2
91 -1 #SUP: 3
95 -1 #SUP: 3
96 -1 #SUP: 2
107 -1 #SUP: 3
117 -1 #SUP: 12
118 -1 #SUP: 2
121 -1 #SUP: 9
122 -1 #SUP: 3
138 -1 #SUP: 2
153 -1 #SUP: 4
155 -1 #SUP: 7
181 -1 #SUP: 3
197 -1 #SUP: 10
216 -1 #SUP: 2
240 -1 #SUP: 4
255 -1 #SUP: 8
262 -1 #SUP: 4
271 -1 #SUP: 4
294 -1 #SUP: 3
300 -1 #SUP: 2
306 -1 #SUP: 4
324 -1 #SUP: 2
352 -1 #SUP: 2
356 -1 #SUP: 4
358 -1 #SUP: 2
361 -1 #SUP: 2
368 -1 #SUP: 2
384 -1 #SUP: 2
390 -1 #SUP: 3
407 -1 #SUP: 2
461 -1 #SUP: 2
471 -1 #SUP: 14
507 -1 #SUP: 2
516 -1 #SUP: 2
522 -1 #SUP: 2
550 -1 #SUP: 2
559 -1 #SUP: 3
595 -1 #SUP: 2
602 -1 #SUP: 2
617 -1 #SUP: 3
656 -1 #SUP: 4
672 -1 #SUP: 2
679 -1 #SUP: 2
685 -1 #SUP: 2
715 -1 #SUP: 3
738 -1 #SUP: 3
752 -1 #SUP: 3
809 -1 #SUP: 2
820 -1 #SUP: 2
846 -1 #SUP: 2
853 -1 #SUP: 2
893 -1 #SUP: 3
894 -1 #SUP: 2
937 -1 #SUP: 2
967 -1 #SUP: 3
968 -1 #SUP: 2
1024 -1 #SUP: 8
1125 -1 #SUP: 2
1151 -1 #SUP: 2
1228 -1 #SUP: 2
1263 -1 #SUP: 2
1265 -1 #SUP: 3
1366 -1 #SUP: 2
1392 -1 #SUP: 3
1435 -1 #SUP: 2
1475 -1 #SUP: 3
1489 -1 #SUP: 2
1494 -1 #SUP: 2
1519 -1 #SUP: 2
1538 -1 #SUP: 2
1688 -1 #SUP: 2
1692 -1 #SUP: 3
1973 -1 #SUP: 2
2045 -1 #SUP: 2
2064 -1 #SUP: 2
2401 -1 #SUP: 2
2569 -1 #SUP: 2
2957 -1 #SUP: 2
3365 -1 #SUP: 2
3502 -1 #SUP: 2
5096 -1 #SUP: 2
5100 -1 #SUP: 2
5638 -1 #SUP: 2
5650 -1 #SUP: 2
5652 -1 #SUP: 2
6265 -1 #SUP: 2
6813 -1 #SUP: 2
7686 -1 #SUP: 2
9309 -1 #SUP: 2
12745 -1 #SUP: 2
13638 -1 #SUP: 2
17368 -1 #SUP: 2
18239 -1 #SUP: 2
47936 -1 #SUP: 2
5 -1 17 -1 #SUP: 3
5 -1 18 -1 #SUP: 3
9 -1 50 -1 #SUP: 3
18 -1 17 -1 #SUP: 3
48 -1 50 -1 #SUP: 7
48 -1 91 -1 #SUP: 2
48 -1 118 -1 #SUP: 2
48 -1 121 -1 #SUP: 2
48 -1 471 -1 #SUP: 2
48 -1 559 -1 #SUP: 3
48 -1 1024 -1 #SUP: 2
50 -1 4 -1 #SUP: 2
50 -1 9 -1 #SUP: 2
50 -1 48 -1 #SUP: 3
50 -1 50 -1 #SUP: 21
50 -1 91 -1 #SUP: 2
50 -1 95 -1 #SUP: 2
50 -1 117 -1 #SUP: 6
50 -1 121 -1 #SUP: 2
50 -1 153 -1 #SUP: 2
50 -1 155 -1 #SUP: 4
50 -1 197 -1 #SUP: 2
50 -1 216 -1 #SUP: 2
50 -1 240 -1 #SUP: 2
50 -1 255 -1 #SUP: 5
50 -1 358 -1 #SUP: 2
50 -1 361 -1 #SUP: 2
50 -1 471 -1 #SUP: 2
50 -1 656 -1 #SUP: 3
50 -1 738 -1 #SUP: 2
50 -1 752 -1 #SUP: 2
50 -1 820 -1 #SUP: 2
50 -1 894 -1 #SUP: 2
50 -1 1125 -1 #SUP: 2
50 -1 1392 -1 #SUP: 2
50 -1 1538 -1 #SUP: 2
50 -1 1692 -1 #SUP: 2
50 -1 1973 -1 #SUP: 2
50 -1 2064 -1 #SUP: 2
50 -1 3365 -1 #SUP: 2
54 -1 50 -1 #SUP: 2
91 -1 50 -1 #SUP: 2
96 -1 50 -1 #SUP: 2
117 -1 50 -1 #SUP: 4
117 -1 117 -1 #SUP: 2
117 -1 121 -1 #SUP: 2
117 -1 255 -1 #SUP: 2
117 -1 271 -1 #SUP: 3
117 -1 738 -1 #SUP: 2
117 -1 893 -1 #SUP: 2
118 -1 50 -1 #SUP: 2
121 -1 50 -1 #SUP: 3
121 -1 121 -1 #SUP: 2
121 -1 893 -1 #SUP: 2
155 -1 50 -1 #SUP: 2
197 -1 50 -1 #SUP: 4
197 -1 471 -1 #SUP: 2
255 -1 50 -1 #SUP: 3
255 -1 1024 -1 #SUP: 2
262 -1 50 -1 #SUP: 2
271 -1 50 -1 #SUP: 2
294 -1 50 -1 #SUP: 2
306 -1 50 -1 #SUP: 3
356 -1 50 -1 #SUP: 2
390 -1 50 -1 #SUP: 2
407 -1 50 -1 #SUP: 2
471 -1 48 -1 #SUP: 2
471 -1 50 -1 #SUP: 5
471 -1 471 -1 #SUP: 2
507 -1 300 -1 #SUP: 2
559 -1 50 -1 #SUP: 2
559 -1 91 -1 #SUP: 2
559 -1 121 -1 #SUP: 2
617 -1 50 -1 #SUP: 2
656 -1 50 -1 #SUP: 2
672 -1 17368 -1 #SUP: 2
679 -1 50 -1 #SUP: 2
715 -1 50 -1 #SUP: 3
752 -1 50 -1 #SUP: 3
752 -1 117 -1 #SUP: 2
752 -1 1125 -1 #SUP: 2
846 -1 471 -1 #SUP: 2
894 -1 50 -1 #SUP: 2
967 -1 617 -1 #SUP: 2
1024 -1 50 -1 #SUP: 5
1024 -1 471 -1 #SUP: 2
1024 -1 3365 -1 #SUP: 2
1151 -1 50 -1 #SUP: 2
1265 -1 50 -1 #SUP: 2
1366 -1 50 -1 #SUP: 2
1392 -1 50 -1 #SUP: 2
1692 -1 50 -1 #SUP: 2
5638 -1 5652 -1 #SUP: 2
5 -1 18 -1 17 -1 #SUP: 3
48 -1 50 -1 50 -1 #SUP: 2
48 -1 118 -1 50 -1 #SUP: 2
48 -1 121 -1 50 -1 #SUP: 2
48 -1 471 -1 50 -1 #SUP: 2
48 -1 559 -1 50 -1 #SUP: 2
48 -1 559 -1 91 -1 #SUP: 2
48 -1 559 -1 121 -1 #SUP: 2
50 -1 50 -1 48 -1 #SUP: 2
50 -1 50 -1 50 -1 #SUP: 13
50 -1 50 -1 117 -1 #SUP: 4
50 -1 50 -1 255 -1 #SUP: 2
50 -1 50 -1 738 -1 #SUP: 2
50 -1 50 -1 752 -1 #SUP: 2
50 -1 117 -1 50 -1 #SUP: 2
50 -1 155 -1 50 -1 #SUP: 2
50 -1 255 -1 50 -1 #SUP: 2
50 -1 752 -1 50 -1 #SUP: 2
50 -1 894 -1 50 -1 #SUP: 2
91 -1 50 -1 50 -1 #SUP: 2
117 -1 50 -1 117 -1 #SUP: 2
117 -1 121 -1 893 -1 #SUP: 2
117 -1 271 -1 50 -1 #SUP: 2
121 -1 50 -1 50 -1 #SUP: 2
255 -1 50 -1 50 -1 #SUP: 2
559 -1 121 -1 50 -1 #SUP: 2
752 -1 50 -1 117 -1 #SUP: 2
752 -1 50 -1 1125 -1 #SUP: 2
48 -1 559 -1 121 -1 50 -1 #SUP: 2
50 -1 50 -1 50 -1 50 -1 #SUP: 4
50 -1 50 -1 752 -1 50 -1 #SUP: 2
50 -1 255 -1 50 -1 50 -1 #SUP: 2
121 -1 50 -1 50 -1 50 -1 #SUP: 2
