4 -1 #SUP: 2
5 -1 #SUP: 2
9 -1 #SUP: 2
17 -1 #SUP: 3
18 -1 #SUP: 3
19 -1 #SUP: 2
48 -1 #SUP: 7
50 -1 #SUP: 24
91 -1 #SUP: 2
115 -1 #SUP: 3
121 -1 #SUP: 2
155 -1 #SUP: 4
167 -1 #SUP: 3
197 -1 #SUP: 6
255 -1 #SUP: 2
306 -1 #SUP: 2
380 -1 #SUP: 2
453 -1 #SUP: 2
471 -1 #SUP: 2
515 -1 #SUP: 2
535 -1 #SUP: 2
675 -1 #SUP: 2
761 -1 #SUP: 3
1044 -1 #SUP: 2
1059 -1 #SUP: 3
1512 -1 #SUP: 2
1665 -1 #SUP: 2
1767 -1 #SUP: 2
2737 -1 #SUP: 2
19747 -1 #SUP: 3
20812 -1 #SUP: 2
111336 -1 #SUP: 2
5 -1 17 -1 #SUP: 2
5 -1 18 -1 #SUP: 2
9 -1 50 -1 #SUP: 2
18 -1 17 -1 #SUP: 3
48 -1 48 -1 #SUP: 3
48 -1 50 -1 #SUP: 2
48 -1 1059 -1 #SUP: 2
50 -1 48 -1 #SUP: 2
50 -1 50 -1 #SUP: 7
50 -1 115 -1 #SUP: 2
50 -1 155 -1 #SUP: 3
50 -1 167 -1 #SUP: 2
155 -1 50 -1 #SUP: 3
155 -1 115 -1 #SUP: 2
155 -1 155 -1 #SUP: 2
155 -1 167 -1 #SUP: 2
167 -1 115 -1 #SUP: 2
380 -1 1512 -1 #SUP: 2
761 -1 50 -1 #SUP: 3
1059 -1 48 -1 #SUP: 2
1665 -1 50 -1 #SUP: 2
5 -1 18 -1 17 -1 #SUP: 2
48 -1 48 -1 48 -1 #SUP: 2
48 -1 1059 -1 48 -1 #SUP: 2
50 -1 50 -1 50 -1 #SUP: 2
50 -1 50 -1 155 -1 #SUP: 2
50 -1 155 -1 50 -1 #SUP: 2
50 -1 167 -1 115 -1 #SUP: 2
155 -1 50 -1 115 -1 #SUP: 2
155 -1 50 -1 155 -1 #SUP: 2
155 -1 50 -1 167 -1 #SUP: 2
155 -1 167 -1 115 -1 #SUP: 2
1665 -1 50 -1 50 -1 #SUP: 2
155 -1 50 -1 167 -1 115 -1 #SUP: 2
