5 -1 #SUP: 7
9 -1 #SUP: 3
17 -1 #SUP: 4
18 -1 #SUP: 4
19 -1 #SUP: 2
27 -1 #SUP: 2
48 -1 #SUP: 4
50 -1 #SUP: 58
53 -1 #SUP: 2
54 -1 #SUP: 2
91 -1 #SUP: 4
121 -1 #SUP: 3
124 -1 #SUP: 3
155 -1 #SUP: 6
169 -1 #SUP: 2
181 -1 #SUP: 4
197 -1 #SUP: 3
204 -1 #SUP: 2
240 -1 #SUP: 3
255 -1 #SUP: 9
262 -1 #SUP: 3
289 -1 #SUP: 3
311 -1 #SUP: 2
361 -1 #SUP: 2
381 -1 #SUP: 2
423 -1 #SUP: 2
471 -1 #SUP: 2
506 -1 #SUP: 2
515 -1 #SUP: 3
546 -1 #SUP: 2
740 -1 #SUP: 2
779 -1 #SUP: 2
866 -1 #SUP: 2
869 -1 #SUP: 3
885 -1 #SUP: 2
953 -1 #SUP: 2
993 -1 #SUP: 3
1061 -1 #SUP: 2
1167 -1 #SUP: 2
1387 -1 #SUP: 2
1528 -1 #SUP: 2
1585 -1 #SUP: 2
1610 -1 #SUP: 2
1874 -1 #SUP: 3
2015 -1 #SUP: 2
2033 -1 #SUP: 2
2045 -1 #SUP: 3
2127 -1 #SUP: 2
2303 -1 #SUP: 2
2798 -1 #SUP: 2
3309 -1 #SUP: 2
3366 -1 #SUP: 2
3410 -1 #SUP: 3
3554 -1 #SUP: 2
3649 -1 #SUP: 3
4162 -1 #SUP: 2
4385 -1 #SUP: 2
4570 -1 #SUP: 2
4941 -1 #SUP: 2
5172 -1 #SUP: 3
5660 -1 #SUP: 3
5840 -1 #SUP: 2
6263 -1 #SUP: 2
6865 -1 #SUP: 2
7092 -1 #SUP: 3
8107 -1 #SUP: 2
9756 -1 #SUP: 2
10937 -1 #SUP: 2
16567 -1 #SUP: 2
23517 -1 #SUP: 2
27924 -1 #SUP: 2
69174 -1 #SUP: 2
5 -1 5 -1 #SUP: 2
5 -1 17 -1 #SUP: 4
5 -1 18 -1 #SUP: 4
5 -1 50 -1 #SUP: 3
5 -1 3554 -1 #SUP: 2
5 -1 4385 -1 #SUP: 2
17 -1 5 -1 #SUP: 2
17 -1 50 -1 #SUP: 2
17 -1 3554 -1 #SUP: 2
17 -1 4385 -1 #SUP: 2
18 -1 5 -1 #SUP: 2
18 -1 17 -1 #SUP: 4
18 -1 50 -1 #SUP: 2
18 -1 3554 -1 #SUP: 2
18 -1 4385 -1 #SUP: 2
27 -1 50 -1 #SUP: 2
50 -1 5 -1 #SUP: 2
50 -1 50 -1 #SUP: 11
50 -1 124 -1 #SUP: 3
50 -1 181 -1 #SUP: 2
50 -1 197 -1 #SUP: 2
50 -1 2033 -1 #SUP: 2
50 -1 2303 -1 #SUP: 2
50 -1 3309 -1 #SUP: 2
50 -1 3649 -1 #SUP: 3
50 -1 4162 -1 #SUP: 2
91 -1 50 -1 #SUP: 3
91 -1 240 -1 #SUP: 2
155 -1 50 -1 #SUP: 2
169 -1 50 -1 #SUP: 2
255 -1 50 -1 #SUP: 4
262 -1 50 -1 #SUP: 2
546 -1 50 -1 #SUP: 2
740 -1 50 -1 #SUP: 2
869 -1 50 -1 #SUP: 2
993 -1 50 -1 #SUP: 2
1167 -1 50 -1 #SUP: 2
1585 -1 885 -1 #SUP: 2
1585 -1 4570 -1 #SUP: 2
2798 -1 50 -1 #SUP: 2
3554 -1 5 -1 #SUP: 2
4385 -1 5 -1 #SUP: 2
4385 -1 3554 -1 #SUP: 2
4570 -1 885 -1 #SUP: 2
5660 -1 50 -1 #SUP: 3
6865 -1 50 -1 #SUP: 2
8107 -1 50 -1 #SUP: 2
8107 -1 5660 -1 #SUP: 2
5 -1 17 -1 5 -1 #SUP: 2
5 -1 17 -1 50 -1 #SUP: 2
5 -1 17 -1 3554 -1 #SUP: 2
5 -1 17 -1 4385 -1 #SUP: 2
5 -1 18 -1 5 -1 #SUP: 2
5 -1 18 -1 17 -1 #SUP: 4
5 -1 18 -1 50 -1 #SUP: 2
5 -1 18 -1 3554 -1 #SUP: 2
5 -1 18 -1 4385 -1 #SUP: 2
5 -1 3554 -1 5 -1 #SUP: 2
5 -1 4385 -1 5 -1 #SUP: 2
5 -1 4385 -1 3554 -1 #SUP: 2
17 -1 3554 -1 5 -1 #SUP: 2
17 -1 4385 -1 5 -1 #SUP: 2
17 -1 4385 -1 3554 -1 #SUP: 2
18 -1 17 -1 5 -1 #SUP: 2
18 -1 17 -1 50 -1 #SUP: 2
18 -1 17 -1 3554 -1 #SUP: 2
18 -1 17 -1 4385 -1 #SUP: 2
18 -1 3554 -1 5 -1 #SUP: 2
18 -1 4385 -1 5 -1 #SUP: 2
18 -1 4385 -1 3554 -1 #SUP: 2
50 -1 50 -1 50 -1 #SUP: 4
50 -1 50 -1 124 -1 #SUP: 2
50 -1 50 -1 3649 -1 #SUP: 2
1585 -1 4570 -1 885 -1 #SUP: 2
4385 -1 3554 -1 5 -1 #SUP: 2
8107 -1 5660 -1 50 -1 #SUP: 2
5 -1 17 -1 3554 -1 5 -1 #SUP: 2
5 -1 17 -1 4385 -1 5 -1 #SUP: 2
5 -1 17 -1 4385 -1 3554 -1 #SUP: 2
5 -1 18 -1 17 -1 5 -1 #SUP: 2
5 -1 18 -1 17 -1 50 -1 #SUP: 2
5 -1 18 -1 17 -1 3554 -1 #SUP: 2
5 -1 18 -1 17 -1 4385 -1 #SUP: 2
5 -1 18 -1 3554 -1 5 -1 #SUP: 2
5 -1 18 -1 4385 -1 5 -1 #SUP: 2
5 -1 18 -1 4385 -1 3554 -1 #SUP: 2
5 -1 4385 -1 3554 -1 5 -1 #SUP: 2
17 -1 4385 -1 3554 -1 5 -1 #SUP: 2
18 -1 17 -1 3554 -1 5 -1 #SUP: 2
18 -1 17 -1 4385 -1 5 -1 #SUP: 2
18 -1 17 -1 4385 -1 3554 -1 #SUP: 2
18 -1 4385 -1 3554 -1 5 -1 #SUP: 2
50 -1 50 -1 50 -1 50 -1 #SUP: 2
50 -1 50 -1 50 -1 3649 -1 #SUP: 2
5 -1 17 -1 4385 -1 3554 -1 5 -1 #SUP: 2
5 -1 18 -1 17 -1 3554 -1 5 -1 #SUP: 2
5 -1 18 -1 17 -1 4385 -1 5 -1 #SUP: 2
5 -1 18 -1 17 -1 4385 -1 3554 -1 #SUP: 2
5 -1 18 -1 4385 -1 3554 -1 5 -1 #SUP: 2
18 -1 17 -1 4385 -1 3554 -1 5 -1 #SUP: 2
5 -1 18 -1 17 -1 4385 -1 3554 -1 5 -1 #SUP: 2
