3 -1 #SUP: 2
19 -1 #SUP: 2
29 -1 #SUP: 4
48 -1 #SUP: 12
49 -1 #SUP: 4
50 -1 #SUP: 64
67 -1 #SUP: 4
74 -1 #SUP: 4
91 -1 #SUP: 14
118 -1 #SUP: 3
122 -1 #SUP: 3
133 -1 #SUP: 2
172 -1 #SUP: 2
197 -1 #SUP: 6
216 -1 #SUP: 3
225 -1 #SUP: 2
240 -1 #SUP: 10
255 -1 #SUP: 2
262 -1 #SUP: 14
266 -1 #SUP: 2
271 -1 #SUP: 5
290 -1 #SUP: 4
362 -1 #SUP: 2
390 -1 #SUP: 2
408 -1 #SUP: 2
466 -1 #SUP: 2
471 -1 #SUP: 2
488 -1 #SUP: 4
506 -1 #SUP: 2
509 -1 #SUP: 2
515 -1 #SUP: 2
520 -1 #SUP: 3
522 -1 #SUP: 2
564 -1 #SUP: 3
602 -1 #SUP: 3
679 -1 #SUP: 2
685 -1 #SUP: 2
700 -1 #SUP: 2
713 -1 #SUP: 2
752 -1 #SUP: 5
766 -1 #SUP: 2
785 -1 #SUP: 4
786 -1 #SUP: 2
792 -1 #SUP: 3
801 -1 #SUP: 2
849 -1 #SUP: 3
917 -1 #SUP: 2
1005 -1 #SUP: 2
1011 -1 #SUP: 3
1016 -1 #SUP: 3
1017 -1 #SUP: 2
1018 -1 #SUP: 2
1019 -1 #SUP: 2
1023 -1 #SUP: 3
1036 -1 #SUP: 4
1038 -1 #SUP: 2
1051 -1 #SUP: 3
1063 -1 #SUP: 2
1122 -1 #SUP: 2
1125 -1 #SUP: 3
1137 -1 #SUP: 2
1228 -1 #SUP: 3
1262 -1 #SUP: 3
1265 -1 #SUP: 2
1285 -1 #SUP: 2
1373 -1 #SUP: 3
1426 -1 #SUP: 4
1498 -1 #SUP: 4
1519 -1 #SUP: 3
1537 -1 #SUP: 2
1663 -1 #SUP: 2
1677 -1 #SUP: 3
1692 -1 #SUP: 2
1757 -1 #SUP: 2
2004 -1 #SUP: 3
2378 -1 #SUP: 2
2525 -1 #SUP: 2
2552 -1 #SUP: 3
2557 -1 #SUP: 2
2629 -1 #SUP: 4
2657 -1 #SUP: 3
2692 -1 #SUP: 2
2723 -1 #SUP: 2
3211 -1 #SUP: 2
3306 -1 #SUP: 2
3435 -1 #SUP: 2
3589 -1 #SUP: 2
3782 -1 #SUP: 2
4092 -1 #SUP: 4
4195 -1 #SUP: 2
4248 -1 #SUP: 2
4652 -1 #SUP: 2
5050 -1 #SUP: 5
5859 -1 #SUP: 4
6419 -1 #SUP: 3
6435 -1 #SUP: 2
10862 -1 #SUP: 2
11194 -1 #SUP: 2
14168 -1 #SUP: 2
15488 -1 #SUP: 2
30612 -1 #SUP: 2
3 -1 50 -1 #SUP: 2
29 -1 50 -1 #SUP: 2
48 -1 50 -1 #SUP: 6
50 -1 48 -1 #SUP: 3
50 -1 50 -1 #SUP: 19
50 -1 74 -1 #SUP: 2
50 -1 91 -1 #SUP: 4
50 -1 197 -1 #SUP: 4
50 -1 225 -1 #SUP: 2
50 -1 262 -1 #SUP: 3
50 -1 290 -1 #SUP: 3
50 -1 488 -1 #SUP: 3
50 -1 564 -1 #SUP: 2
50 -1 752 -1 #SUP: 3
50 -1 786 -1 #SUP: 2
50 -1 1019 -1 #SUP: 2
50 -1 1122 -1 #SUP: 2
50 -1 2004 -1 #SUP: 2
50 -1 2552 -1 #SUP: 2
50 -1 2629 -1 #SUP: 3
50 -1 2657 -1 #SUP: 2
50 -1 14168 -1 #SUP: 2
91 -1 50 -1 #SUP: 4
91 -1 240 -1 #SUP: 3
91 -1 262 -1 #SUP: 2
91 -1 849 -1 #SUP: 3
91 -1 1519 -1 #SUP: 3
118 -1 50 -1 #SUP: 2
133 -1 50 -1 #SUP: 2
197 -1 49 -1 #SUP: 2
197 -1 2004 -1 #SUP: 2
240 -1 50 -1 #SUP: 3
240 -1 74 -1 #SUP: 2
240 -1 91 -1 #SUP: 2
240 -1 240 -1 #SUP: 2
240 -1 262 -1 #SUP: 2
262 -1 50 -1 #SUP: 2
262 -1 122 -1 #SUP: 2
262 -1 262 -1 #SUP: 2
262 -1 506 -1 #SUP: 2
262 -1 1036 -1 #SUP: 2
271 -1 50 -1 #SUP: 2
271 -1 1498 -1 #SUP: 2
290 -1 50 -1 #SUP: 2
408 -1 50 -1 #SUP: 2
488 -1 50 -1 #SUP: 2
488 -1 488 -1 #SUP: 2
488 -1 1019 -1 #SUP: 2
488 -1 2629 -1 #SUP: 2
752 -1 50 -1 #SUP: 2
766 -1 262 -1 #SUP: 2
785 -1 91 -1 #SUP: 2
1036 -1 50 -1 #SUP: 2
1036 -1 752 -1 #SUP: 2
1036 -1 3589 -1 #SUP: 2
1036 -1 10862 -1 #SUP: 2
1137 -1 50 -1 #SUP: 2
1137 -1 488 -1 #SUP: 2
1137 -1 1019 -1 #SUP: 2
1137 -1 2629 -1 #SUP: 2
1262 -1 50 -1 #SUP: 2
1265 -1 50 -1 #SUP: 2
1285 -1 4092 -1 #SUP: 2
1426 -1 29 -1 #SUP: 3
1426 -1 50 -1 #SUP: 3
1426 -1 564 -1 #SUP: 2
1498 -1 50 -1 #SUP: 2
1498 -1 262 -1 #SUP: 2
1663 -1 2723 -1 #SUP: 2
1677 -1 50 -1 #SUP: 2
2004 -1 49 -1 #SUP: 2
2378 -1 1051 -1 #SUP: 2
2525 -1 50 -1 #SUP: 2
2552 -1 290 -1 #SUP: 2
2557 -1 50 -1 #SUP: 2
2629 -1 50 -1 #SUP: 2
2629 -1 488 -1 #SUP: 2
2629 -1 1019 -1 #SUP: 2
3211 -1 290 -1 #SUP: 2
3306 -1 50 -1 #SUP: 2
5050 -1 50 -1 #SUP: 3
5050 -1 4092 -1 #SUP: 2
6419 -1 4652 -1 #SUP: 2
10862 -1 3589 -1 #SUP: 2
3 -1 50 -1 50 -1 #SUP: 2
50 -1 50 -1 48 -1 #SUP: 3
50 -1 50 -1 50 -1 #SUP: 7
50 -1 50 -1 197 -1 #SUP: 2
50 -1 50 -1 225 -1 #SUP: 2
50 -1 50 -1 488 -1 #SUP: 2
50 -1 290 -1 50 -1 #SUP: 2
50 -1 488 -1 1019 -1 #SUP: 2
91 -1 240 -1 262 -1 #SUP: 2
133 -1 50 -1 50 -1 #SUP: 2
197 -1 2004 -1 49 -1 #SUP: 2
262 -1 262 -1 506 -1 #SUP: 2
408 -1 50 -1 50 -1 #SUP: 2
488 -1 50 -1 488 -1 #SUP: 2
1036 -1 50 -1 752 -1 #SUP: 2
1036 -1 10862 -1 3589 -1 #SUP: 2
1137 -1 50 -1 488 -1 #SUP: 2
1137 -1 50 -1 1019 -1 #SUP: 2
1137 -1 50 -1 2629 -1 #SUP: 2
1137 -1 488 -1 50 -1 #SUP: 2
1137 -1 488 -1 488 -1 #SUP: 2
1137 -1 488 -1 1019 -1 #SUP: 2
1137 -1 2629 -1 50 -1 #SUP: 2
1137 -1 2629 -1 488 -1 #SUP: 2
1137 -1 2629 -1 1019 -1 #SUP: 2
1262 -1 50 -1 50 -1 #SUP: 2
1426 -1 29 -1 50 -1 #SUP: 2
1426 -1 50 -1 50 -1 #SUP: 2
1426 -1 50 -1 564 -1 #SUP: 2
2525 -1 50 -1 50 -1 #SUP: 2
2629 -1 50 -1 488 -1 #SUP: 2
2629 -1 50 -1 1019 -1 #SUP: 2
2629 -1 488 -1 1019 -1 #SUP: 2
1137 -1 50 -1 488 -1 1019 -1 #SUP: 2
1137 -1 488 -1 50 -1 488 -1 #SUP: 2
1137 -1 2629 -1 50 -1 488 -1 #SUP: 2
1137 -1 2629 -1 50 -1 1019 -1 #SUP: 2
1137 -1 2629 -1 488 -1 1019 -1 #SUP: 2
1262 -1 50 -1 50 -1 50 -1 #SUP: 2
2629 -1 50 -1 488 -1 1019 -1 #SUP: 2
1137 -1 2629 -1 50 -1 488 -1 1019 -1 #SUP: 2
