2857 -1 6429 -1 6195 -1 1295 -1 1433 -1 4652 -1 50 -1 262 -1 506 -1 19 -2
5763 -1 255 -1 1792 -1 7296 -1 225 -1 50 -1 197 -1 19 -2
262 -1 1265 -1 2616 -1 28914 -1 50 -1 3517 -1 3583 -1 306 -1 6137 -1 2285 -1 48 -1 10687 -1 19 -2
155 -1 19 -2
50 -1 5147 -1 408 -1 9944 -1 50 -1 1550 -1 14114 -1 50 -1 3135 -1 50 -1 5015 -1 50 -1 19 -2
1054 -1 5015 -1 19 -2
1083 -1 412 -1 9346 -1 60158 -1 8214 -1 429 -1 43 -1 19 -2
111449 -1 3800 -1 15829 -1 50 -1 2867 -1 366 -1 3800 -1 6821 -1 19 -2
2045 -1 19 -2
111450 -1 148 -1 5274 -1 240 -1 50 -1 50 -1 1041 -1 1216 -1 19 -2
50 -1 49 -1 50 -1 2575 -1 1265 -1 262 -1 4525 -1 1228 -1 266 -1 380 -1 19 -2
1024 -1 849 -1 96 -1 19 -2
262 -1 50 -1 54 -1 361 -1 19136 -1 395 -1 1067 -1 1749 -1 849 -1 107 -1 1319 -1 780 -1 19 -2
1726 -1 19 -2
736 -1 2626 -1 395 -1 780 -1 19 -2
4915 -1 1404 -1 494 -1 918 -1 2657 -1 50 -1 4586 -1 101 -1 476 -1 1216 -1 50 -1 1125 -1 984 -1 506 -1 733 -1 19 -2
2055 -1 562 -1 50 -1 19 -2
111451 -1 76231 -1 127 -1 266 -1 3776 -1 5199 -1 4551 -1 139 -1 801 -1 19 -2
1395 -1 697 -1 3400 -1 3730 -1 19 -2
50 -1 36702 -1 50 -1 111452 -1 19 -2
91 -1 1928 -1 1983 -1 1111 -1 545 -1 471 -1 4244 -1 50 -1 53217 -1 21912 -1 196 -2
50 -1 508 -1 255 -1 722 -1 4972 -1 306 -1 19 -2
111454 -1 148 -1 286 -1 10348 -1 3735 -1 111453 -1 685 -1 25287 -1 19 -2
6581 -1 779 -1 19 -2
662 -1 1615 -1 1141 -1 1121 -1 11849 -1 9836 -1 19 -1 262 -1 1094 -1 19 -2
25349 -1 2694 -1 50 -1 91 -1 240 -1 3075 -1 1586 -1 50 -1 448 -1 7752 -1 19 -2
312 -1 853 -1 6995 -1 50 -1 531 -1 14672 -1 50 -1 6759 -1 1017 -1 1538 -1 19 -2
42 -1 50 -1 453 -1 437 -1 285 -1 752 -1 390 -1 50 -1 666 -1 3361 -1 11414 -1 67 -1 50 -1 1111 -1 196 -2
50 -1 518 -1 19 -2
1373 -1 262 -1 984 -1 114 -1 16051 -1 19 -2
262 -1 984 -1 1509 -1 2575 -1 736 -1 1 -1 50 -1 736 -1 19 -2
502 -1 33 -1 19 -2
91 -1 1616 -1 248 -1 9350 -1 50 -1 91 -1 1616 -1 2101 -1 19 -2
780 -1 50 -1 1356 -1 9181 -1 3170 -1 516 -1 1024 -1 1051 -1 520 -1 118 -1 19 -2
935 -1 96 -1 19 -2
957 -1 50 -1 471 -1 111456 -1 121 -1 361 -1 111455 -1 1 -2
148 -1 144 -1 306 -1 19 -2
1487 -1 1210 -1 2557 -1 2906 -1 19 -2
11797 -1 784 -1 19 -2
16547 -1 155 -1 91 -1 197 -1 50 -1 1228 -1 19 -2
148 -1 1499 -1 2575 -1 16970 -1 1184 -1 1039 -1 1619 -1 1449 -1 50 -1 19 -2
255 -1 1248 -1 1141 -1 1754 -1 4446 -1 380 -1 3048 -1 111457 -1 148 -1 111459 -1 50 -1 58613 -1 111457 -1 111458 -1 1 -2
4493 -1 24633 -1 50 -1 146 -1 26900 -1 893 -1 19 -2
111457 -1 148 -1 111459 -1 36830 -1 17026 -1 111457 -1 111458 -1 17026 -1 5593 -1 19 -2
262 -1 5015 -1 6280 -1 1068 -1 255 -1 50 -1 3773 -1 5015 -1 19 -2
498 -1 50 -1 675 -1 19 -2
306 -1 3237 -1 112 -1 7896 -1 155 -1 111460 -1 19 -2
1154 -1 502 -1 638 -1 50 -1 48 -1 19 -2
42 -1 50 -1 96 -1 27983 -1 50 -1 3487 -1 3649 -1 19 -2
738 -1 550 -1 19 -2
172 -1 19 -1 18819 -1 9741 -1 1263 -1 84639 -1 19 -2
358 -1 50 -1 1068 -1 50 -1 187 -1 50 -1 8244 -1 19 -2
287 -1 307 -1 1538 -1 1865 -1 44230 -1 19 -2
11797 -1 967 -1 143 -1 19 -2
262 -1 1015 -1 14774 -1 50 -1 262 -1 3552 -1 7372 -1 5252 -1 112 -1 7896 -1 3097 -1 967 -1 22743 -1 19 -2
7194 -1 13714 -1 31324 -1 390 -1 19 -2
14114 -1 50 -1 5147 -1 853 -1 461 -1 6664 -1 854 -1 451 -1 153 -1 50 -1 1225 -1 1433 -1 19 -2
748 -1 7793 -1 3800 -1 12913 -1 826 -1 4389 -1 19 -2
95 -1 2827 -1 613 -1 216 -1 1452 -1 19 -2
3375 -1 48 -1 1760 -1 19 -2
1373 -1 2101 -1 155 -1 20903 -1 522 -1 361 -1 5769 -1 50 -1 19 -2
1692 -1 8503 -1 3840 -1 1 -2
96 -1 50 -1 262 -1 42922 -1 118 -1 112 -1 50 -1 49 -1 967 -1 2628 -1 111461 -1 19 -2
6039 -1 5769 -1 19 -2
789 -1 792 -1 22316 -1 111462 -1 17744 -1 595 -1 1722 -1 3375 -1 453 -1 181 -1 196 -2
3075 -1 19 -2
110479 -1 1455 -1 8560 -1 7733 -1 50 -1 50 -1 9228 -1 7733 -1 468 -1 1122 -1 732 -1 111463 -1 48 -1 13541 -1 50 -1 898 -1 110479 -1 19 -2
50 -1 6855 -1 270 -1 466 -1 3361 -1 19 -2
3375 -1 19 -2
3375 -1 5507 -1 853 -1 9702 -1 155 -1 1453 -1 19 -2
19 -2
50 -1 1487 -1 522 -1 5274 -1 19 -2
118 -1 240 -1 3075 -1 1392 -1 1091 -1 83275 -1 3131 -1 2582 -1 1623 -1 19 -2
7288 -1 2857 -1 773 -1 30 -1 2550 -1 2552 -1 1580 -1 121 -1 50 -1 3776 -1 9246 -1 549 -1 86 -1 1354 -1 19 -2
2055 -1 523 -1 2060 -1 74 -1 19 -2
1658 -1 1177 -1 418 -1 19 -2
47975 -1 896 -1 19 -2
287 -1 74 -1 3777 -1 4908 -1 5293 -1 12093 -1 19 -2
498 -1 50 -1 1947 -1 19 -2
262 -1 2814 -1 872 -1 18834 -1 1782 -1 1741 -1 1743 -1 361 -1 637 -1 13608 -1 19 -2
1743 -1 1538 -1 879 -1 2774 -1 898 -1 5078 -1 19 -2
48 -1 54 -1 1538 -1 631 -1 50 -1 1373 -1 19 -2
3006 -1 2065 -1 3079 -1 148 -1 752 -1 3508 -1 19 -2
17973 -1 3554 -1 1228 -1 111464 -1 10788 -1 1743 -1 19 -2
1538 -1 125 -1 8631 -1 395 -1 778 -1 19 -2
50 -1 50 -1 48 -1 3751 -1 95 -1 111465 -1 395 -1 9146 -1 50 -1 19694 -1 19 -2
111454 -1 679 -1 50 -1 48 -1 1141 -1 2980 -1 748 -1 255 -1 6897 -1 50 -1 2326 -1 16512 -1 111466 -1 1685 -1 19 -2
25737 -1 35019 -1 2957 -1 19 -2
1173 -1 564 -1 25820 -1 7733 -1 41 -1 155 -1 255 -1 287 -1 19 -2
125 -1 1367 -1 306 -1 849 -1 49807 -1 2895 -1 287 -1 50 -1 1512 -1 19 -2
117 -1 448 -1 2759 -1 1796 -1 50 -1 3395 -1 4119 -1 1928 -1 124 -1 50 -1 695 -1 15732 -1 50 -1 111467 -1 4119 -1 1630 -1 124 -1 19 -2
2906 -1 19788 -1 3395 -1 4622 -1 41244 -1 16489 -1 362 -1 8704 -1 11440 -1 50 -1 111469 -1 3830 -1 22991 -1 1355 -1 50 -1 111468 -1 3247 -1 3900 -1 19 -2
792 -1 1 -2
197 -1 48 -1 240 -1 19 -2
6 -1 18 -1 17 -1 111470 -1 4029 -1 1857 -1 616 -1 564 -1 6 -1 18 -1 17 -1 111471 -1 449 -1 1726 -1 19 -2
488 -1 1487 -1 1040 -1 1962 -1 10547 -1 91 -1 255 -1 263 -1 50 -1 19 -2
25820 -1 5491 -1 3079 -1 7296 -1 225 -1 50 -1 1266 -1 1173 -1 19 -2
111454 -1 538 -1 2916 -1 19 -2
38676 -1 498 -1 50 -1 91 -1 1388 -1 196 -2
164 -1 2655 -1 54 -1 19 -2
3693 -1 2248 -1 35648 -1 6527 -1 50 -1 111472 -1 2131 -1 326 -1 8747 -1 19 -2
91 -1 692 -1 50 -1 19 -2
25820 -1 24409 -1 117 -1 19 -2
5 -1 87171 -1 491 -1 66535 -1 111474 -1 5607 -1 111475 -1 109727 -1 111473 -1 4776 -1 6160 -1 291 -1 1 -2
1 -2
117 -1 2596 -1 95 -1 725 -1 299 -1 509 -1 122 -1 801 -1 48 -1 810 -1 19 -2
3375 -1 33 -1 117 -1 3366 -1 1012 -1 1508 -1 853 -1 1703 -1 1692 -1 810 -1 19 -2