262 -1 3075 -1 306 -1 196 -2
1862 -1 5181 -1 46631 -1 19 -2
2578 -1 5916 -1 41230 -1 5759 -1 7814 -1 36739 -1 2289 -1 1176 -1 286 -1 3647 -1 1094 -1 9 -1 602 -1 361 -1 3775 -1 19 -2
197 -1 461 -1 254 -1 361 -1 53 -1 361 -1 698 -1 4387 -1 19 -2
19 -2
408 -1 520 -1 2601 -1 692 -1 1039 -1 23609 -1 255 -1 48033 -1 14157 -1 1690 -1 1176 -1 498 -1 91 -1 240 -1 1690 -1 1987 -1 1874 -1 255 -1 8807 -1 444 -1 19 -2
19 -2
1987 -1 10430 -1 520 -1 2512 -1 88606 -1 19 -2
255 -1 2938 -1 537 -1 721 -1 2395 -1 752 -1 19 -2
408 -1 520 -1 26275 -1 1360 -1 352 -1 271 -1 2601 -1 19 -2
3732 -1 144 -1 19 -2
144 -1 523 -1 240 -1 155 -1 1 -2
155 -1 197 -1 240 -1 255 -1 408 -1 520 -1 1387 -1 19 -2
255 -1 42520 -1 366 -1 1892 -1 148 -1 21454 -1 19 -2
1151 -1 19 -2
640 -1 7227 -1 19 -2
255 -1 1248 -1 7629 -1 197 -1 793 -1 550 -1 3258 -1 3419 -1 19 -2
1733 -1 1212 -1 4858 -1 550 -1 1538 -1 19 -2
488 -1 4370 -1 255 -1 19 -2
1137 -1 144 -1 676 -1 19 -2
3366 -1 2045 -1 121 -1 255 -1 293 -1 9123 -1 19 -2
197 -1 155 -1 2045 -1 27 -1 1794 -1 2045 -1 19 -2
1455 -1 142 -1 312 -1 1199 -1 255 -1 19 -2
545 -1 520 -1 155 -1 1685 -1 19 -2
2551 -1 88607 -1 1210 -1 10508 -1 19 -2
262 -1 3345 -1 15547 -1 33 -1 810 -1 1572 -1 508 -1 138 -1 19 -2
254 -1 1 -2
242 -1 19 -2
656 -1 1281 -1 6456 -1 19 -2
1722 -1 6867 -1 999 -1 3117 -1 19 -2
1494 -1 656 -1 12027 -1 242 -1 19 -2
656 -1 263 -1 1 -2
6301 -1 5768 -1 1176 -1 19 -2
197 -1 2371 -1 7315 -1 2128 -1 19 -2
10583 -1 19 -2
1987 -1 262 -1 506 -1 6510 -1 6512 -1 476 -1 1088 -1 1756 -1 216 -1 1 -2
498 -1 361 -1 88608 -1 2044 -1 7958 -1 1 -2
2098 -1 95 -1 326 -1 3947 -1 2898 -1 408 -1 1 -2
1722 -1 95 -1 494 -1 19 -2
216 -1 5663 -1 80749 -1 1662 -1 271 -1 648 -1 1228 -1 1662 -1 172 -1 172 -1 1 -2
1662 -1 1392 -1 19 -2
3686 -1 19 -2
2321 -1 1358 -1 1337 -1 121 -1 197 -1 25822 -1 254 -1 1457 -1 50 -1 91 -1 197 -1 1962 -1 19 -2
2370 -1 288 -1 1 -2
91 -1 255 -1 1784 -1 19 -2
471 -1 155 -1 240 -1 50 -1 289 -1 10508 -1 965 -1 1248 -1 121 -1 285 -1 1404 -1 311 -1 155 -1 466 -1 49 -1 48 -1 8026 -1 19 -2
19 -2
88610 -1 242 -1 240 -1 13298 -1 393 -1 88609 -1 31740 -1 31743 -1 19 -2
6301 -1 196 -2
197 -1 138 -1 1094 -1 49 -1 761 -1 317 -1 121 -1 317 -1 19 -2
255 -1 894 -1 209 -1 50 -1 1846 -1 19 -2
1571 -1 7814 -1 1094 -1 498 -1 19 -2
2370 -1 3294 -1 1047 -1 196 -2
48040 -1 1 -2
865 -1 1176 -1 95 -1 4730 -1 1919 -1 19 -2
6404 -1 17237 -1 388 -1 88611 -1 88612 -1 196 -2
146 -1 26900 -1 54029 -1 88613 -1 196 -2
42 -1 785 -1 2941 -1 3048 -1 1752 -1 13298 -1 59656 -1 88614 -1 19 -2
1827 -1 498 -1 1023 -1 19 -2
95 -1 1023 -1 1587 -1 317 -1 3555 -1 2113 -1 1722 -1 993 -1 117 -1 1404 -1 7 -1 350 -1 9 -1 1722 -1 1538 -1 2904 -1 9724 -1 498 -1 993 -1 1 -2
1094 -1 19 -2
820 -1 19 -2
2908 -1 864 -1 7437 -1 984 -1 112 -1 3546 -1 2536 -1 19 -2
4925 -1 897 -1 62930 -1 20869 -1 2370 -1 88615 -1 508 -1 2044 -1 1753 -1 19 -2
88616 -1 197 -1 520 -1 1 -2
4509 -1 1987 -1 407 -1 1730 -1 1722 -1 25181 -1 2920 -1 288 -1 2066 -1 2650 -1 25181 -1 6301 -1 196 -2
1176 -1 2759 -1 507 -1 615 -1 520 -1 1 -2
583 -1 3294 -1 388 -1 88611 -1 88612 -1 196 -2
172 -1 19 -1 471 -1 11469 -1 648 -1 846 -1 6659 -1 122 -1 4570 -1 1722 -1 1585 -1 18582 -1 6659 -1 1392 -1 173 -1 19 -1 1377 -1 2063 -1 19 -2
2569 -1 20190 -1 564 -1 3013 -1 2370 -1 1824 -1 620 -1 74 -1 242 -1 11397 -1 2338 -1 8737 -1 25439 -1 2338 -1 196 -2
842 -1 411 -1 7982 -1 19 -2
679 -1 1862 -1 1652 -1 7664 -1 116 -1 648 -1 341 -1 885 -1 388 -1 88611 -1 1692 -1 54029 -1 88617 -1 54 -1 214 -1 1585 -1 19 -2
1491 -1 2038 -1 9 -1 19 -2
1377 -1 417 -1 616 -1 752 -1 692 -1 29 -1 1973 -1 255 -1 91 -1 1538 -1 255 -1 785 -1 240 -1 967 -1 19 -2
2918 -1 6456 -1 2957 -1 41 -1 155 -1 23827 -1 88618 -1 582 -1 88619 -1 26678 -1 33 -1 68302 -1 842 -1 524 -1 508 -1 2722 -1 2370 -2