50 -1 55 -1 2401 -1 1846 -1 19 -2
164 -1 3448 -1 1577 -1 515 -1 50 -1 306 -1 9089 -1 19 -2
8325 -1 19 -2
242 -1 240 -1 1126 -1 4051 -1 50 -1 197 -1 240 -1 1509 -1 19 -2
1204 -1 19 -2
2139 -1 1018 -1 187 -1 10006 -1 323 -1 50 -1 321 -1 19 -2
999 -1 50 -1 2286 -1 50 -1 5724 -1 19 -2
7 -1 48 -1 471 -1 3697 -1 2284 -1 50 -1 1333 -1 19 -2
1373 -1 337 -1 881 -1 15775 -1 50 -1 350 -1 19 -2
3429 -1 993 -1 19 -2
718 -1 365 -1 19 -2
7237 -1 50 -1 10132 -1 449 -1 270 -1 17649 -1 466 -1 19 -2
240 -1 242 -1 2178 -1 12230 -1 6234 -1 3736 -1 1198 -1 3435 -1 19 -2
679 -1 19 -2
262 -1 7348 -1 186 -1 2567 -1 50 -1 7059 -1 47006 -1 2195 -1 48 -1 23649 -1 17102 -1 50 -1 117 -1 426 -1 822 -1 361 -1 3151 -1 10613 -1 311 -1 155 -1 19 -2
255 -1 6 -1 18 -1 17 -1 47007 -1 14324 -1 50 -1 122 -1 7122 -1 50 -1 968 -1 1377 -1 50 -1 116 -1 1266 -1 19 -2
282 -1 50 -1 2572 -1 47008 -1 5336 -1 19 -2
7237 -1 8915 -1 55 -1 3435 -1 19 -2
874 -1 1559 -1 50 -1 2705 -1 1137 -1 27554 -1 19 -2
1370 -1 19 -2
785 -1 9422 -1 1855 -1 50 -1 7363 -1 420 -1 47009 -1 196 -2
1862 -1 2512 -1 4503 -1 1519 -1 263 -1 783 -1 19 -2
3824 -1 50 -1 91 -1 156 -1 19 -2
1125 -1 186 -1 289 -1 36406 -1 1176 -1 8735 -1 530 -1 5107 -1 1447 -1 993 -1 91 -1 19 -2
7215 -1 1287 -1 311 -1 47010 -1 8768 -1 1945 -1 3917 -1 630 -1 6929 -1 19 -2
1482 -1 643 -1 7999 -1 19138 -1 1265 -1 95 -1 1 -2
135 -1 155 -1 461 -1 19 -2
413 -1 1508 -1 1265 -1 1 -2
117 -1 2022 -1 2657 -1 3546 -1 318 -1 759 -1 196 -2
37680 -1 515 -1 19 -2
1954 -1 172 -1 122 -1 27 -1 1482 -1 50 -1 1055 -1 19 -2
1055 -1 740 -1 33 -1 19 -2
1947 -1 1373 -1 692 -1 121 -1 18470 -1 1 -2
186 -1 530 -1 50 -1 4787 -1 974 -1 1 -2
1525 -1 19 -2
928 -1 19 -2
5376 -1 1 -2
21344 -1 306 -1 545 -1 15277 -1 15758 -1 13183 -1 595 -1 19 -2
1016 -1 773 -1 5352 -1 7483 -1 242 -1 1519 -1 1005 -1 118 -1 840 -1 19 -2
216 -1 1392 -1 50 -1 356 -1 33 -1 19 -2
1353 -1 47011 -1 122 -1 50 -1 962 -1 216 -1 1392 -1 19 -2
953 -1 42 -1 50 -1 1576 -1 390 -1 2956 -1 2045 -1 3225 -1 19 -2
7 -1 29 -1 2814 -1 968 -1 515 -1 19 -2
47012 -1 408 -1 1905 -1 114 -1 47013 -1 1760 -1 19 -2
117 -1 425 -1 54 -1 50 -1 2808 -1 759 -1 19 -2
2774 -1 47014 -1 48 -1 506 -1 19 -2
44193 -1 50 -1 14139 -1 47016 -1 50 -1 30189 -1 153 -1 47014 -1 47015 -1 1956 -1 47014 -1 19 -2
47017 -1 50 -1 16346 -1 50 -1 3438 -1 50 -1 107 -1 19 -2
47012 -1 2531 -1 2532 -1 361 -1 3203 -1 5333 -1 19 -2
8183 -1 47018 -1 4775 -1 1591 -1 50 -1 8527 -1 19 -2
47019 -1 50 -1 551 -1 19 -2
752 -1 19 -2
47020 -1 2214 -1 44193 -1 107 -1 15143 -1 47021 -1 2214 -1 50 -1 412 -1 2214 -1 15143 -1 2214 -1 551 -1 50 -1 2214 -1 15143 -1 19 -2
19 -2
197 -1 17654 -1 33 -1 50 -1 1928 -1 638 -1 50 -1 47022 -1 19 -2
197 -1 1161 -1 4385 -1 7 -1 9344 -1 30189 -1 898 -1 926 -1 86 -1 50 -1 48 -1 27460 -1 19 -2
19 -2
3122 -1 19519 -1 538 -1 279 -1 169 -1 9527 -1 19 -2
50 -1 780 -1 955 -1 968 -1 27625 -1 1393 -1 1016 -1 173 -1 155 -1 49 -1 19 -2
8325 -1 19 -2
679 -1 50 -1 240 -1 50 -1 7215 -1 19 -2
44653 -1 48 -1 81 -1 19 -2
5356 -1 5302 -1 2499 -1 9240 -1 29459 -1 19498 -1 7194 -1 50 -1 285 -1 752 -1 50 -1 196 -2
91 -1 197 -1 201 -1 24649 -1 50 -1 361 -1 19 -2
7181 -1 19 -2
1377 -1 1047 -1 2479 -1 11355 -1 3858 -1 48 -1 30457 -1 50 -1 9001 -1 19 -2
564 -1 534 -1 47023 -1 50 -1 91 -1 197 -1 19 -2
155 -1 117 -1 1404 -1 50 -1 679 -1 19 -2
520 -1 50 -1 679 -1 19 -2
10997 -1 520 -1 50 -1 679 -1 19 -2
1929 -1 3015 -1 50 -1 50 -1 614 -1 240 -1 50 -1 117 -1 2310 -1 55 -1 19 -2
1108 -1 50 -1 95 -1 8801 -1 684 -1 19 -2
7135 -1 9205 -1 13158 -1 740 -1 380 -1 50 -1 450 -1 4912 -1 50 -1 90 -1 3456 -1 89 -1 19 -2
3060 -1 5125 -1 16961 -1 1695 -1 3804 -1 19 -2
19 -2
471 -1 413 -1 196 -2
8490 -1 116 -1 6455 -1 27828 -1 50 -1 1355 -1 19 -2
2083 -1 218 -1 399 -1 4447 -1 197 -1 783 -1 19 -2
49 -1 50 -1 197 -1 783 -1 197 -1 197 -1 197 -1 197 -1 1265 -1 19 -2
91 -1 240 -1 19 -2
117 -1 748 -1 2103 -1 515 -1 1574 -1 5797 -1 155 -1 620 -1 3642 -1 431 -1 2427 -1 2044 -1 255 -1 180 -1 1688 -1 19 -2
3157 -1 255 -1 1 -2
49 -1 1220 -1 318 -1 773 -1 1122 -1 50 -1 96 -1 1929 -1 27601 -1 1480 -1 3546 -1 318 -1 19 -2
551 -1 476 -1 19 -2
7 -1 50 -1 1538 -1 255 -1 47024 -1 262 -1 782 -1 2750 -1 7709 -1 19 -2
48 -1 1538 -1 255 -1 928 -1 676 -1 50 -1 1862 -1 1650 -1 255 -1 2445 -1 643 -1 19 -2
643 -1 5376 -1 4793 -1 6993 -1 47025 -1 19 -2
50 -1 825 -1 50 -1 47026 -1 773 -1 898 -1 2328 -1 19 -2
17826 -1 5078 -1 47027 -1 582 -1 306 -1 50 -1 255 -1 66 -1 739 -1 9 -1 679 -1 19 -2
262 -1 5331 -1 3117 -1 27115 -1 262 -1 429 -1 19 -2
262 -1 993 -1 1467 -1 50 -1 680 -1 50 -1 1377 -1 19 -2
1489 -1 545 -1 117 -1 107 -1 1377 -1 4881 -1 164 -1 19 -2
47028 -1 4700 -1 6381 -1 8195 -1 17614 -1 19 -2
47012 -1 30851 -1 126 -1 50 -1 24649 -1 7961 -1 1912 -1 19 -2
47029 -1 50 -1 48 -1 172 -1 4700 -1 2310 -1 506 -1 1264 -1 1392 -1 18759 -1 12011 -1 50 -1 48 -1 172 -1 19 -1 5813 -1 15467 -1 1 -2
345 -1 735 -1 744 -1 15467 -1 48 -1 1956 -1 7237 -1 50 -1 752 -1 879 -1 47030 -1 197 -1 2375 -1 4051 -1 461 -1 19 -2
50 -1 29 -1 759 -1 1011 -1 19 -2
2401 -1 19 -2
32 -1 30646 -1 50 -1 24522 -1 50 -1 14679 -1 50 -1 1271 -1 50 -1 2321 -1 19 -2
117 -1 294 -1 461 -1 471 -1 1018 -1 255 -1 122 -1 3345 -1 19 -2
48 -1 50 -1 240 -1 48 -1 50 -1 48 -1 1614 -1 50 -1 197 -1 19 -2
1396 -1 19 -2
759 -1 50 -1 117 -1 2596 -1 1393 -1 11730 -1 2591 -1 3094 -1 1263 -1 3779 -1 1216 -1 117 -1 760 -1 785 -1 1266 -1 1511 -1 2135 -1 19 -1 19 -1 50 -1 2882 -1 10669 -1 6910 -1 12135 -1 196 -2
555 -1 780 -1 18870 -1 11708 -1 5199 -1 17959 -1 1 -2
33 -1 6507 -1 1006 -1 19 -2
1215 -1 13129 -1 19 -2
872 -1 1257 -1 700 -1 50 -1 1248 -1 6507 -1 19 -2
10011 -1 19 -2
262 -1 506 -1 1360 -1 390 -1 19 -2
2062 -1 50 -1 957 -1 5344 -1 266 -1 7811 -1 19 -2
493 -1 1220 -1 3153 -1 3119 -1 50 -1 49 -1 49 -1 19 -2
118 -1 43211 -1 8066 -1 19 -2
105 -1 6250 -1 8066 -1 50 -1 8965 -1 19 -2
717 -1 9811 -1 1210 -1 409 -1 1449 -1 13663 -1 14872 -1 50 -1 822 -1 897 -1 19 -2
66 -1 29 -1 50 -1 285 -1 501 -1 50 -1 2427 -1 50 -1 2286 -1 5417 -1 1480 -1 3546 -1 318 -1 19 -2
51 -1 49 -1 5934 -1 19 -2
1024 -1 605 -1 4825 -1 45 -1 7 -1 143 -1 1929 -1 644 -1 50 -1 30363 -1 451 -1 1373 -1 1 -2
66 -1 117 -1 766 -1 1090 -1 19 -2
1494 -1 5376 -1 3232 -1 4011 -1 1227 -1 3076 -1 1137 -1 181 -1 489 -1 28679 -1 3736 -1 2560 -1 197 -1 5405 -1 50 -1 285 -1 4924 -1 25 -1 1 -2
692 -1 19 -2
7745 -1 1865 -1 7 -1 143 -1 19 -2
13071 -1 216 -1 50 -1 13332 -1 216 -1 1392 -1 19 -2
240 -1 6922 -1 19 -2