12 -1 0 -1 5 -1 453 -1 441 -1 39 -1 28 -1 47 -1 569 -1 555 -1 1 -2
21 -1 50 -1 5 -1 3953 -1 48 -1 47 -1 83 -1 1083 -1 1 -2
9 -1 92 -1 5 -1 3904 -1 86 -1 105 -1 28 -1 140 -1 38 -1 61 -1 39 -1 343 -1 116 -1 66 -1 79 -1 437 -1 1 -2
5 -1 273 -1 5 -1 529 -1 140 -1 39 -1 35 -1 437 -1 55 -1 850 -1 550 -1 5 -1 176 -1 18 -1 402 -1 1182 -1 462 -1 822 -1 1 -2
5 -1 214 -1 66 -1 463 -1 92 -1 5 -1 60 -1 86 -1 21 -1 40 -1 76 -1 439 -1 769 -1 1 -2
39 -1 1463 -1 128 -1 210 -1 28 -1 148 -1 1062 -1 27 -1 1 -2
5 -1 190 -1 5 -1 51 -1 2052 -1 12 -1 22 -1 40 -1 1077 -1 14 -1 222 -1 656 -1 1 -2
5 -1 298 -1 18 -1 1082 -1 28 -1 70 -1 769 -1 1 -2
5 -1 470 -1 2 -1 63 -1 2585 -1 122 -1 1597 -1 69 -1 5 -1 51 -1 0 -1 14 -1 5 -1 900 -1 11 -1 32 -1 137 -1 683 -1 172 -1 68 -1 1 -2
265 -1 214 -1 5 -1 526 -1 28 -1 171 -1 0 -1 6 -1 2454 -1 86 -1 38 -1 47 -1 1186 -1 226 -1 402 -1 1430 -1 220 -2
270 -1 480 -1 125 -1 2 -1 655 -1 21 -1 40 -1 210 -1 1 -2
137 -1 368 -1 18 -1 267 -1 122 -1 128 -1 28 -1 171 -1 306 -1 1 -2
5 -1 230 -1 5 -1 225 -1 2968 -1 0 -1 14 -1 5 -1 119 -1 550 -1 1272 -1 125 -1 407 -1 179 -1 6085 -1 32 -1 5 -1 151 -1 47 -1 185 -1 1 -2
1506 -1 9 -1 550 -1 21 -1 47 -1 841 -1 3083 -1 1 -2
5 -1 2515 -1 495 -1 125 -1 6 -1 767 -1 2 -1 759 -1 3006 -1 325 -1 47 -1 240 -1 94 -1 1 -2
5 -1 273 -1 124 -1 41 -1 38 -1 2 -1 559 -1 2632 -1 270 -1 333 -1 1 -2
39 -1 266 -1 116 -1 330 -1 28 -1 6 -1 3309 -1 97 -1 250 -1 28 -1 144 -1 86 -1 1 -2
5 -1 273 -1 40 -1 431 -1 2242 -1 86 -1 740 -1 1 -1 8663 -1 351 -1 116 -1 860 -1 553 -1 1619 -1 128 -1 28 -1 3488 -1 122 -1 688 -1 1 -2
5 -1 151 -1 28 -1 1413 -1 688 -1 429 -1 122 -1 554 -1 2550 -1 1 -2
5 -1 273 -1 47 -1 3952 -1 553 -1 60 -1 49 -1 985 -1 4 -1 554 -1 1272 -1 187 -1 1425 -1 1 -2
5 -1 119 -1 668 -1 553 -1 335 -1 140 -1 2 -1 2666 -1 4 -1 985 -1 21 -1 153 -1 83 -1 754 -1 1 -2
5 -1 106 -1 553 -1 49 -1 2809 -1 325 -1 92 -1 0 -1 14 -1 21 -1 50 -1 553 -1 99 -1 368 -1 1899 -1 92 -1 28 -1 128 -1 1 -2
19 -1 111 -1 559 -1 282 -1 92 -1 5 -1 119 -1 331 -1 28 -1 688 -1 325 -1 830 -1 1 -2
226 -1 83 -1 193 -1 0 -1 5 -1 106 -1 553 -1 335 -1 106 -1 265 -1 28 -1 135 -1 69 -1 5 -1 1242 -1 0 -1 14 -1 5 -1 6 -1 319 -1 493 -1 92 -1 81 -1 5 -1 17 -1 75 -1 981 -1 28 -1 8664 -1 187 -1 3251 -1 137 -1 99 -1 106 -1 105 -1 28 -1 2276 -1 47 -1 3083 -1 256 -1 1 -2
14 -1 265 -1 529 -1 5 -1 258 -1 0 -1 308 -1 6 -1 2 -1 355 -1 1 -2
308 -1 1154 -1 128 -1 1273 -1 92 -1 553 -1 1243 -1 2276 -1 47 -1 3856 -1 91 -1 348 -1 12 -1 1 -2
113 -1 843 -1 553 -1 4462 -1 28 -1 128 -1 1 -2
124 -1 1418 -1 5 -1 17 -1 47 -1 2323 -1 28 -1 331 -1 28 -1 8665 -1 2026 -1 1 -2
5 -1 89 -1 171 -1 470 -1 559 -1 325 -1 41 -1 3545 -1 234 -1 0 -1 14 -1 5 -1 82 -1 39 -1 49 -1 1006 -1 122 -1 1114 -1 81 -1 280 -1 335 -1 157 -1 234 -1 1 -2
113 -1 843 -1 239 -1 1243 -1 126 -1 61 -1 243 -1 1 -2
5 -1 190 -1 92 -1 99 -1 116 -1 2 -1 559 -1 3083 -1 1 -2
5 -1 89 -1 273 -1 239 -1 290 -1 328 -1 688 -1 43 -1 1 -2
1336 -1 75 -1 380 -1 111 -1 200 -1 0 -1 32 -1 19 -1 6 -1 41 -1 58 -1 234 -1 293 -1 78 -1 1 -2
5 -1 321 -1 749 -1 2150 -1 86 -1 21 -1 27 -1 28 -1 135 -1 0 -1 32 -1 92 -1 1243 -1 1654 -1 28 -1 128 -1 348 -1 286 -1 1 -2
805 -1 19 -1 669 -1 65 -1 286 -1 1 -2
5 -1 89 -1 202 -1 39 -1 61 -1 113 -1 191 -1 0 -1 14 -1 39 -1 125 -1 2767 -1 3704 -1 1 -2
5 -1 157 -1 7138 -1 21 -1 133 -1 366 -1 0 -1 14 -1 124 -1 53 -1 3704 -1 1 -2
5 -1 336 -1 93 -1 161 -1 124 -1 22 -1 47 -1 352 -1 122 -1 66 -1 200 -1 709 -1 193 -1 1 -2
5 -1 151 -1 28 -1 470 -1 879 -1 28 -1 40 -1 407 -1 172 -1 81 -1 5 -1 102 -1 157 -1 153 -1 33 -1 163 -1 33 -1 5 -1 211 -1 28 -1 1 -2
805 -1 0 -1 124 -1 22 -1 47 -1 352 -1 66 -1 163 -1 92 -1 5 -1 102 -1 140 -1 163 -1 827 -1 35 -1 1 -2
19 -1 1822 -1 961 -1 699 -1 281 -1 147 -1 1 -2
5 -1 368 -1 17 -1 28 -1 148 -1 38 -1 281 -1 147 -1 1 -2
9 -1 124 -1 66 -1 499 -1 0 -1 32 -1 5 -1 102 -1 106 -1 81 -1 5 -1 184 -1 16 -1 140 -1 1766 -1 11 -1 1 -2
5 -1 336 -1 69 -1 124 -1 35 -1 179 -1 270 -1 5 -1 184 -1 144 -1 148 -1 48 -1 40 -1 186 -1 76 -1 0 -1 565 -1 347 -1 28 -1 116 -1 757 -1 1 -2
5 -1 392 -1 270 -1 49 -1 526 -1 28 -1 116 -1 2 -1 4208 -1 38 -1 798 -1 2555 -1 1 -2
12 -1 0 -1 270 -1 461 -1 489 -1 1508 -1 128 -1 663 -1 14 -1 2 -1 1464 -1 1 -2
928 -1 21 -1 8666 -1 5 -1 119 -1 1004 -1 28 -1 140 -1 2285 -1 21 -1 750 -1 1 -2
19 -1 985 -1 798 -1 187 -1 7555 -1 1 -2
985 -1 149 -1 124 -1 2225 -1 1 -2
12 -1 0 -1 124 -1 453 -1 35 -1 66 -1 5 -1 336 -1 270 -1 125 -1 39 -1 1 -2