740 -1 0 -1 1581 -1 891 -1 0 -1 265 -1 28 -1 135 -1 1 -2
3050 -1 22 -1 449 -1 1 -2
119 -1 482 -1 1057 -1 183 -1 0 -1 373 -1 111 -1 1057 -1 1 -2
1049 -1 1 -2
4881 -1 1 -2
337 -1 65 -1 1503 -1 13526 -1 0 -1 337 -1 65 -1 2765 -1 1611 -1 1 -2
1809 -1 1361 -1 1 -2
2071 -1 1081 -1 1 -2
348 -1 13527 -1 1361 -1 1597 -1 555 -1 1 -2
298 -1 18 -1 11853 -1 1273 -1 538 -1 1 -2
356 -1 125 -1 4674 -1 21 -1 12836 -1 1 -2
256 -1 41 -1 422 -1 215 -1 1 -2
797 -1 119 -1 173 -1 39 -1 1 -2
3251 -1 2034 -1 1 -2
10391 -1 1081 -1 1 -2
5003 -1 1 -2
270 -1 1243 -1 422 -1 293 -1 254 -1 912 -1 39 -1 1 -2
615 -1 171 -1 78 -1 32 -1 41 -1 655 -1 132 -1 185 -1 1 -2
1272 -1 1425 -1 66 -1 78 -1 28 -1 128 -1 1 -2
202 -1 153 -1 14 -1 119 -1 135 -1 39 -1 1 -2
1049 -1 1 -2
4886 -1 1361 -1 1053 -1 4886 -1 1 -2
5045 -1 1 -2
151 -1 5045 -1 1 -2
789 -1 0 -1 789 -1 789 -1 1 -2
813 -1 813 -1 813 -1 0 -1 1 -2
13528 -1 119 -1 262 -1 271 -1 235 -1 467 -1 348 -1 257 -1 1 -2
13529 -1 10284 -1 13530 -1 1 -2
13532 -1 0 -1 2182 -1 13531 -1 13533 -1 1 -2
5884 -1 274 -1 1715 -1 553 -1 489 -1 3595 -1 1 -2
3595 -1 287 -1 0 -1 10592 -1 1 -2
971 -1 1 -2
592 -1 615 -1 116 -1 78 -1 179 -1 234 -1 1 -2
789 -1 329 -1 1 -2
41 -1 89 -1 0 -1 14 -1 119 -1 482 -1 271 -1 1 -2
1581 -1 468 -1 7029 -1 971 -1 1 -2
13534 -1 1082 -1 1336 -1 287 -1 13535 -1 2228 -1 13536 -1 1 -2
1081 -1 230 -1 12856 -1 49 -1 4961 -1 1 -2
970 -1 740 -1 722 -1 8243 -1 2026 -1 1 -2
559 -1 1 -2
66 -1 265 -1 302 -1 5 -1 298 -1 18 -1 1082 -1 1 -2
13537 -1 1 -2
9529 -1 0 -1 330 -1 841 -1 308 -1 908 -1 1 -2
13538 -1 2794 -1 222 -1 1 -2
516 -1 1 -2
13539 -1 13540 -1 6203 -1 2132 -1 13541 -1 1 -2
0 -1 1 -2
0 -1 1 -2
0 -1 1 -2
0 -1 1 -2
0 -1 1 -2
0 -1 5 -1 403 -1 13542 -1 214 -1 5 -1 58 -1 1 -2
2781 -1 0 -1 151 -1 156 -1 569 -1 1393 -1 569 -1 185 -1 480 -1 1 -2
151 -1 480 -1 657 -1 8335 -1 13543 -1 7089 -1 2260 -1 226 -1 7089 -1 0 -1 1 -2
1468 -1 7089 -1 840 -1 670 -1 1 -2
6700 -1 2535 -1 128 -1 1 -2
6384 -1 6385 -1 1 -2
330 -1 514 -1 1 -2
592 -1 592 -1 592 -1 592 -1 592 -1 592 -1 592 -1 592 -1 1497 -1 9316 -1 2 -1 1497 -1 1497 -1 1497 -1 13544 -1 191 -1 182 -1 3949 -1 13545 -1 1 -2
4886 -1 1 -2
1547 -1 1 -2
13546 -1 1776 -1 128 -1 4507 -1 13547 -1 1 -2
445 -1 1159 -1 468 -1 3324 -1 1 -2
447 -1 150 -1 22 -1 1 -2