270 -1 461 -1 125 -1 774 -1 21 -1 79 -1 1 -2
124 -1 41 -1 211 -1 28 -1 6 -1 272 -1 12122 -1 15042 -1 327 -1 28 -1 128 -1 1 -2
124 -1 1115 -1 61 -1 804 -1 28 -1 659 -1 709 -1 392 -1 38 -1 40 -1 446 -1 14 -1 40 -1 373 -1 849 -1 28 -1 144 -1 789 -1 69 -1 5 -1 102 -1 159 -1 39 -1 28 -1 32 -1 549 -1 2 -1 678 -1 1196 -1 2 -1 1083 -1 69 -1 124 -1 804 -1 28 -1 557 -1 73 -1 38 -1 76 -1 1 -2
5 -1 298 -1 116 -1 38 -1 17884 -1 179 -1 407 -1 2 -1 3204 -1 32 -1 4500 -1 1 -2
5 -1 151 -1 28 -1 144 -1 17885 -1 65 -1 1 -2
147 -1 125 -1 28 -1 210 -1 1295 -1 1 -2
5 -1 102 -1 172 -1 106 -1 81 -1 5 -1 89 -1 159 -1 28 -1 171 -1 39 -1 1 -2
47 -1 70 -1 125 -1 4787 -1 1 -2
5 -1 102 -1 373 -1 251 -1 28 -1 76 -1 14 -1 5 -1 417 -1 71 -1 47 -1 1321 -1 275 -1 32 -1 37 -1 1 -2
19 -1 41 -1 172 -1 92 -1 5 -1 1589 -1 275 -1 5 -1 6 -1 159 -1 28 -1 430 -1 265 -1 5 -1 159 -1 28 -1 430 -1 41 -1 218 -1 50 -1 2907 -1 313 -1 1 -2
47 -1 1096 -1 21 -1 114 -1 125 -1 131 -1 21 -1 47 -1 367 -1 7846 -1 1817 -1 92 -1 5 -1 18 -1 16 -1 430 -1 32 -1 5 -1 18 -1 1716 -1 172 -1 2678 -1 742 -1 1711 -1 31 -1 21 -1 39 -1 686 -1 1 -2
302 -1 5 -1 226 -1 39 -1 66 -1 163 -1 550 -1 21 -1 47 -1 2469 -1 1 -2
308 -1 41 -1 316 -1 21 -1 207 -1 27 -1 32 -1 93 -1 870 -1 105 -1 5 -1 470 -1 1 -2
5 -1 159 -1 28 -1 116 -1 1462 -1 14 -1 113 -1 47 -1 713 -1 210 -1 5 -1 417 -1 2902 -1 179 -1 367 -1 133 -1 1 -2
5 -1 190 -1 367 -1 133 -1 203 -1 1716 -1 744 -1 981 -1 28 -1 1 -2
158 -1 2092 -1 0 -1 137 -1 18 -1 663 -1 28 -1 135 -1 1 -2
1314 -1 2771 -1 1 -2
133 -1 1009 -1 1 -2
17886 -1 270 -1 86 -1 125 -1 598 -1 0 -1 383 -1 203 -1 27 -1 5 -1 298 -1 174 -1 28 -1 260 -1 550 -1 5 -1 102 -1 172 -1 106 -1 81 -1 5 -1 1475 -1 668 -1 265 -1 124 -1 1047 -1 187 -1 81 -1 124 -1 6 -1 59 -1 4179 -1 329 -1 1 -2
5 -1 171 -1 140 -1 4179 -1 28 -1 163 -1 1 -2
302 -1 5 -1 298 -1 2968 -1 2970 -1 1 -2
5 -1 106 -1 5 -1 298 -1 14 -1 1314 -1 79 -1 1 -2
5 -1 17 -1 337 -1 861 -1 22 -1 47 -1 828 -1 14 -1 92 -1 49 -1 550 -1 5 -1 225 -1 1716 -1 140 -1 293 -1 5 -1 6 -1 119 -1 171 -1 39 -1 204 -1 47 -1 17892 -1 0 -1 280 -1 4982 -1 28 -1 163 -1 122 -1 316 -1 0 -1 4624 -1 185 -1 154 -1 14 -1 1306 -1 185 -1 5 -1 1443 -1 61 -1 32 -1 798 -1 22 -1 105 -1 163 -1 185 -1 5 -1 189 -1 86 -1 21 -1 40 -1 4922 -1 32 -1 376 -1 38 -1 47 -1 713 -1 3915 -1 135 -1 28 -1 260 -1 5 -1 102 -1 853 -1 2 -1 1306 -1 325 -1 185 -1 1306 -1 185 -1 5 -1 298 -1 18 -1 75 -1 3016 -1 2 -1 200 -1 210 -1 2022 -1 69 -1 142 -1 9540 -1 122 -1 1897 -1 32 -1 81 -1 142 -1 225 -1 1716 -1 7578 -1 21 -1 2007 -1 376 -1 142 -1 288 -1 38 -1 2512 -1 1306 -1 17891 -1 2116 -1 11498 -1 190 -1 92 -1 550 -1 137 -1 102 -1 570 -1 3646 -1 137 -1 203 -1 263 -1 878 -1 128 -1 1306 -1 92 -1 81 -1 280 -1 51 -1 1716 -1 570 -1 3646 -1 5 -1 403 -1 1299 -1 5 -1 151 -1 28 -1 375 -1 2526 -1 325 -1 1431 -1 66 -1 163 -1 28 -1 5 -1 72 -1 135 -1 5 -1 102 -1 853 -1 2 -1 1306 -1 921 -1 124 -1 815 -1 1044 -1 187 -1 41 -1 14 -1 124 -1 72 -1 493 -1 325 -1 1431 -1 2494 -1 5 -1 151 -1 28 -1 140 -1 86 -1 22 -1 40 -1 156 -1 32 -1 866 -1 71 -1 383 -1 27 -1 86 -1 5 -1 298 -1 41 -1 167 -1 66 -1 163 -1 14 -1 5 -1 171 -1 113 -1 843 -1 5 -1 18 -1 897 -1 32 -1 40 -1 2127 -1 32 -1 12788 -1 222 -1 1396 -1 5 -1 102 -1 144 -1 86 -1 33 -1 163 -1 5 -1 53 -1 202 -1 39 -1 6 -1 33 -1 163 -1 113 -1 843 -1 5 -1 190 -1 5 -1 53 -1 171 -1 14 -1 5 -1 529 -1 731 -1 157 -1 260 -1 15005 -1 154 -1 1314 -1 797 -1 550 -1 5 -1 4982 -1 28 -1 163 -1 92 -1 511 -1 2569 -1 142 -1 0 -1 377 -1 2307 -1 32 -1 377 -1 1423 -1 686 -1 5 -1 202 -1 39 -1 66 -1 163 -1 32 -1 5 -1 119 -1 2968 -1 4965 -1 270 -1 125 -1 2 -1 759 -1 94 -1 28 -1 128 -1 550 -1 124 -1 72 -1 5418 -1 22 -1 39 -1 32 -1 1306 -1 798 -1 17893 -1 39 -1 327 -1 4 -1 5 -1 230 -1 5 -1 225 -1 2875 -1 798 -1 912 -1 663 -1 756 -1 1715 -1 23 -1 5 -1 1106 -1 28 -1 116 -1 798 -1 761 -1 14 -1 1314 -1 4663 -1 1506 -1 179 -1 147 -1 72 -1 17890 -1 328 -1 105 -1 163 -1 171 -1 5 -1 17376 -1 159 -1 28 -1 144 -1 28 -1 147 -1 5 -1 102 -1 106 -1 5 -1 106 -1 5 -1 225 -1 144 -1 32 -1 422 -1 2 -1 127 -1 97 -1 147 -1 32 -1 302 -1 5 -1 10369 -1 550 -1 124 -1 1148 -1 21 -1 59 -1 71 -1 270 -1 1798 -1 92 -1 372 -1 17888 -1 28 -1 17887 -1 1321 -1 21 -1 191 -1 21 -1 50 -1 47 -1 511 -1 125 -1 17889 -1 40 -1 373 -1 32 -1 2021 -1 21 -1 47 -1 166 -1 10 -1 1306 -1 92 -1 5 -1 126 -1 38 -1 26 -1 32 -1 5 -1 102 -1 89 -1 1615 -1 325 -1 28 -1 207 -1 1062 -1 836 -1 161 -1 298 -1 5 -2