0 -1 #SUP: 5
2 -1 #SUP: 3
3 -1 #SUP: 4
5 -1 #SUP: 42
6 -1 #SUP: 2
9 -1 #SUP: 2
10 -1 #SUP: 4
11 -1 #SUP: 4
18 -1 #SUP: 5
21 -1 #SUP: 2
22 -1 #SUP: 2
28 -1 #SUP: 20
32 -1 #SUP: 2
38 -1 #SUP: 2
39 -1 #SUP: 8
40 -1 #SUP: 14
47 -1 #SUP: 6
49 -1 #SUP: 2
58 -1 #SUP: 2
65 -1 #SUP: 2
66 -1 #SUP: 2
70 -1 #SUP: 2
71 -1 #SUP: 2
74 -1 #SUP: 2
86 -1 #SUP: 2
92 -1 #SUP: 10
94 -1 #SUP: 3
105 -1 #SUP: 2
113 -1 #SUP: 2
116 -1 #SUP: 2
123 -1 #SUP: 2
125 -1 #SUP: 10
128 -1 #SUP: 3
131 -1 #SUP: 2
140 -1 #SUP: 3
144 -1 #SUP: 2
147 -1 #SUP: 2
151 -1 #SUP: 5
153 -1 #SUP: 2
163 -1 #SUP: 2
171 -1 #SUP: 2
190 -1 #SUP: 2
210 -1 #SUP: 3
214 -1 #SUP: 4
232 -1 #SUP: 2
235 -1 #SUP: 3
265 -1 #SUP: 5
266 -1 #SUP: 2
270 -1 #SUP: 3
273 -1 #SUP: 4
298 -1 #SUP: 2
299 -1 #SUP: 2
325 -1 #SUP: 2
336 -1 #SUP: 2
337 -1 #SUP: 2
373 -1 #SUP: 2
437 -1 #SUP: 2
445 -1 #SUP: 2
470 -1 #SUP: 3
493 -1 #SUP: 2
529 -1 #SUP: 5
553 -1 #SUP: 2
717 -1 #SUP: 2
789 -1 #SUP: 2
840 -1 #SUP: 2
1413 -1 #SUP: 2
1743 -1 #SUP: 2
0 -1 5 -1 #SUP: 2
0 -1 11 -1 #SUP: 2
0 -1 28 -1 #SUP: 2
5 -1 0 -1 #SUP: 2
5 -1 2 -1 #SUP: 3
5 -1 3 -1 #SUP: 2
5 -1 5 -1 #SUP: 9
5 -1 10 -1 #SUP: 3
5 -1 11 -1 #SUP: 3
5 -1 18 -1 #SUP: 5
5 -1 22 -1 #SUP: 2
5 -1 28 -1 #SUP: 12
5 -1 38 -1 #SUP: 2
5 -1 39 -1 #SUP: 4
5 -1 40 -1 #SUP: 5
5 -1 47 -1 #SUP: 5
5 -1 58 -1 #SUP: 2
5 -1 66 -1 #SUP: 2
5 -1 70 -1 #SUP: 2
5 -1 71 -1 #SUP: 2
5 -1 74 -1 #SUP: 2
5 -1 86 -1 #SUP: 2
5 -1 92 -1 #SUP: 5
5 -1 125 -1 #SUP: 5
5 -1 140 -1 #SUP: 3
5 -1 147 -1 #SUP: 2
5 -1 151 -1 #SUP: 5
5 -1 214 -1 #SUP: 4
5 -1 235 -1 #SUP: 3
5 -1 265 -1 #SUP: 2
5 -1 266 -1 #SUP: 2
5 -1 270 -1 #SUP: 2
5 -1 273 -1 #SUP: 4
5 -1 298 -1 #SUP: 2
5 -1 299 -1 #SUP: 2
5 -1 325 -1 #SUP: 2
5 -1 336 -1 #SUP: 2
5 -1 437 -1 #SUP: 2
5 -1 470 -1 #SUP: 3
5 -1 493 -1 #SUP: 2
5 -1 529 -1 #SUP: 5
5 -1 717 -1 #SUP: 2
5 -1 1413 -1 #SUP: 2
6 -1 28 -1 #SUP: 2
10 -1 9 -1 #SUP: 2
18 -1 11 -1 #SUP: 2
18 -1 28 -1 #SUP: 4
28 -1 5 -1 #SUP: 3
28 -1 11 -1 #SUP: 2
28 -1 28 -1 #SUP: 2
28 -1 40 -1 #SUP: 4
28 -1 47 -1 #SUP: 2
28 -1 92 -1 #SUP: 2
28 -1 116 -1 #SUP: 2
28 -1 144 -1 #SUP: 2
28 -1 190 -1 #SUP: 2
39 -1 28 -1 #SUP: 3
39 -1 40 -1 #SUP: 2
39 -1 47 -1 #SUP: 3
40 -1 3 -1 #SUP: 2
40 -1 32 -1 #SUP: 2
40 -1 40 -1 #SUP: 2
40 -1 125 -1 #SUP: 3
40 -1 373 -1 #SUP: 2
40 -1 789 -1 #SUP: 2
40 -1 840 -1 #SUP: 2
47 -1 147 -1 #SUP: 2
58 -1 10 -1 #SUP: 2
70 -1 22 -1 #SUP: 2
71 -1 1743 -1 #SUP: 2
92 -1 5 -1 #SUP: 5
92 -1 39 -1 #SUP: 2
92 -1 47 -1 #SUP: 2
92 -1 140 -1 #SUP: 3
92 -1 147 -1 #SUP: 2
92 -1 235 -1 #SUP: 3
92 -1 529 -1 #SUP: 3
94 -1 28 -1 #SUP: 2
125 -1 10 -1 #SUP: 2
125 -1 28 -1 #SUP: 2
125 -1 39 -1 #SUP: 2
125 -1 40 -1 #SUP: 2
125 -1 789 -1 #SUP: 2
131 -1 3 -1 #SUP: 2
140 -1 47 -1 #SUP: 2
140 -1 147 -1 #SUP: 2
140 -1 235 -1 #SUP: 3
151 -1 28 -1 #SUP: 5
210 -1 11 -1 #SUP: 2
235 -1 47 -1 #SUP: 2
235 -1 147 -1 #SUP: 2
265 -1 5 -1 #SUP: 2
265 -1 125 -1 #SUP: 3
265 -1 210 -1 #SUP: 2
273 -1 5 -1 #SUP: 4
273 -1 92 -1 #SUP: 2
273 -1 140 -1 #SUP: 2
273 -1 214 -1 #SUP: 2
273 -1 235 -1 #SUP: 2
273 -1 529 -1 #SUP: 2
298 -1 40 -1 #SUP: 2
299 -1 125 -1 #SUP: 2
336 -1 39 -1 #SUP: 2
373 -1 125 -1 #SUP: 2
373 -1 789 -1 #SUP: 2
445 -1 0 -1 #SUP: 2
529 -1 47 -1 #SUP: 2
529 -1 140 -1 #SUP: 3
529 -1 147 -1 #SUP: 2
529 -1 235 -1 #SUP: 3
1413 -1 40 -1 #SUP: 2
5 -1 5 -1 28 -1 #SUP: 2
5 -1 5 -1 47 -1 #SUP: 2
5 -1 5 -1 140 -1 #SUP: 3
5 -1 5 -1 214 -1 #SUP: 3
5 -1 5 -1 235 -1 #SUP: 2
5 -1 5 -1 529 -1 #SUP: 4
5 -1 18 -1 11 -1 #SUP: 2
5 -1 18 -1 28 -1 #SUP: 4
5 -1 28 -1 5 -1 #SUP: 2
5 -1 28 -1 11 -1 #SUP: 2
5 -1 28 -1 47 -1 #SUP: 2
5 -1 47 -1 147 -1 #SUP: 2
5 -1 58 -1 10 -1 #SUP: 2
5 -1 70 -1 22 -1 #SUP: 2
5 -1 92 -1 5 -1 #SUP: 4
5 -1 92 -1 140 -1 #SUP: 3
5 -1 92 -1 235 -1 #SUP: 2
5 -1 92 -1 529 -1 #SUP: 3
5 -1 125 -1 10 -1 #SUP: 2
5 -1 140 -1 47 -1 #SUP: 2
5 -1 140 -1 147 -1 #SUP: 2
5 -1 140 -1 235 -1 #SUP: 3
5 -1 151 -1 28 -1 #SUP: 5
5 -1 235 -1 47 -1 #SUP: 2
5 -1 235 -1 147 -1 #SUP: 2
5 -1 273 -1 5 -1 #SUP: 4
5 -1 273 -1 92 -1 #SUP: 2
5 -1 273 -1 140 -1 #SUP: 2
5 -1 273 -1 214 -1 #SUP: 2
5 -1 273 -1 235 -1 #SUP: 2
5 -1 273 -1 529 -1 #SUP: 2
5 -1 298 -1 40 -1 #SUP: 2
5 -1 299 -1 125 -1 #SUP: 2
5 -1 336 -1 39 -1 #SUP: 2
5 -1 529 -1 47 -1 #SUP: 2
5 -1 529 -1 140 -1 #SUP: 3
5 -1 529 -1 147 -1 #SUP: 2
5 -1 529 -1 235 -1 #SUP: 3
5 -1 1413 -1 40 -1 #SUP: 2
18 -1 28 -1 11 -1 #SUP: 2
28 -1 5 -1 47 -1 #SUP: 2
40 -1 125 -1 789 -1 #SUP: 2
40 -1 373 -1 125 -1 #SUP: 2
40 -1 373 -1 789 -1 #SUP: 2
92 -1 5 -1 39 -1 #SUP: 2
92 -1 5 -1 47 -1 #SUP: 2
92 -1 5 -1 140 -1 #SUP: 3
92 -1 5 -1 147 -1 #SUP: 2
92 -1 5 -1 235 -1 #SUP: 3
92 -1 5 -1 529 -1 #SUP: 3
92 -1 47 -1 147 -1 #SUP: 2
92 -1 140 -1 47 -1 #SUP: 2
92 -1 140 -1 147 -1 #SUP: 2
92 -1 140 -1 235 -1 #SUP: 3
92 -1 235 -1 47 -1 #SUP: 2
92 -1 235 -1 147 -1 #SUP: 2
92 -1 529 -1 47 -1 #SUP: 2
92 -1 529 -1 140 -1 #SUP: 3
92 -1 529 -1 147 -1 #SUP: 2
92 -1 529 -1 235 -1 #SUP: 3
140 -1 47 -1 147 -1 #SUP: 2
140 -1 235 -1 47 -1 #SUP: 2
140 -1 235 -1 147 -1 #SUP: 2
235 -1 47 -1 147 -1 #SUP: 2
273 -1 5 -1 140 -1 #SUP: 2
273 -1 5 -1 214 -1 #SUP: 2
273 -1 5 -1 235 -1 #SUP: 2
273 -1 5 -1 529 -1 #SUP: 2
273 -1 92 -1 5 -1 #SUP: 2
273 -1 92 -1 140 -1 #SUP: 2
273 -1 92 -1 235 -1 #SUP: 2
273 -1 92 -1 529 -1 #SUP: 2
273 -1 140 -1 235 -1 #SUP: 2
273 -1 529 -1 140 -1 #SUP: 2
273 -1 529 -1 235 -1 #SUP: 2
373 -1 125 -1 789 -1 #SUP: 2
529 -1 47 -1 147 -1 #SUP: 2
529 -1 140 -1 47 -1 #SUP: 2
529 -1 140 -1 147 -1 #SUP: 2
529 -1 140 -1 235 -1 #SUP: 3
529 -1 235 -1 47 -1 #SUP: 2
529 -1 235 -1 147 -1 #SUP: 2
5 -1 5 -1 140 -1 235 -1 #SUP: 2
5 -1 5 -1 529 -1 140 -1 #SUP: 3
5 -1 5 -1 529 -1 235 -1 #SUP: 2
5 -1 18 -1 28 -1 11 -1 #SUP: 2
5 -1 92 -1 5 -1 140 -1 #SUP: 3
5 -1 92 -1 5 -1 235 -1 #SUP: 2
5 -1 92 -1 5 -1 529 -1 #SUP: 3
5 -1 92 -1 140 -1 235 -1 #SUP: 2
5 -1 92 -1 529 -1 140 -1 #SUP: 3
5 -1 92 -1 529 -1 235 -1 #SUP: 2
5 -1 140 -1 47 -1 147 -1 #SUP: 2
5 -1 140 -1 235 -1 47 -1 #SUP: 2
5 -1 140 -1 235 -1 147 -1 #SUP: 2
5 -1 235 -1 47 -1 147 -1 #SUP: 2
5 -1 273 -1 5 -1 140 -1 #SUP: 2
5 -1 273 -1 5 -1 214 -1 #SUP: 2
5 -1 273 -1 5 -1 235 -1 #SUP: 2
5 -1 273 -1 5 -1 529 -1 #SUP: 2
5 -1 273 -1 92 -1 5 -1 #SUP: 2
5 -1 273 -1 92 -1 140 -1 #SUP: 2
5 -1 273 -1 92 -1 235 -1 #SUP: 2
5 -1 273 -1 92 -1 529 -1 #SUP: 2
5 -1 273 -1 140 -1 235 -1 #SUP: 2
5 -1 273 -1 529 -1 140 -1 #SUP: 2
5 -1 273 -1 529 -1 235 -1 #SUP: 2
5 -1 529 -1 47 -1 147 -1 #SUP: 2
5 -1 529 -1 140 -1 47 -1 #SUP: 2
5 -1 529 -1 140 -1 147 -1 #SUP: 2
5 -1 529 -1 140 -1 235 -1 #SUP: 3
5 -1 529 -1 235 -1 47 -1 #SUP: 2
5 -1 529 -1 235 -1 147 -1 #SUP: 2
40 -1 373 -1 125 -1 789 -1 #SUP: 2
92 -1 5 -1 47 -1 147 -1 #SUP: 2
92 -1 5 -1 140 -1 47 -1 #SUP: 2
92 -1 5 -1 140 -1 147 -1 #SUP: 2
92 -1 5 -1 140 -1 235 -1 #SUP: 3
92 -1 5 -1 235 -1 47 -1 #SUP: 2
92 -1 5 -1 235 -1 147 -1 #SUP: 2
92 -1 5 -1 529 -1 47 -1 #SUP: 2
92 -1 5 -1 529 -1 140 -1 #SUP: 3
92 -1 5 -1 529 -1 147 -1 #SUP: 2
92 -1 5 -1 529 -1 235 -1 #SUP: 3
92 -1 140 -1 47 -1 147 -1 #SUP: 2
92 -1 140 -1 235 -1 47 -1 #SUP: 2
92 -1 140 -1 235 -1 147 -1 #SUP: 2
92 -1 235 -1 47 -1 147 -1 #SUP: 2
92 -1 529 -1 47 -1 147 -1 #SUP: 2
92 -1 529 -1 140 -1 47 -1 #SUP: 2
92 -1 529 -1 140 -1 147 -1 #SUP: 2
92 -1 529 -1 140 -1 235 -1 #SUP: 3
92 -1 529 -1 235 -1 47 -1 #SUP: 2
92 -1 529 -1 235 -1 147 -1 #SUP: 2
140 -1 235 -1 47 -1 147 -1 #SUP: 2
273 -1 5 -1 140 -1 235 -1 #SUP: 2
273 -1 5 -1 529 -1 140 -1 #SUP: 2
273 -1 5 -1 529 -1 235 -1 #SUP: 2
273 -1 92 -1 5 -1 140 -1 #SUP: 2
273 -1 92 -1 5 -1 235 -1 #SUP: 2
273 -1 92 -1 5 -1 529 -1 #SUP: 2
273 -1 92 -1 140 -1 235 -1 #SUP: 2
273 -1 92 -1 529 -1 140 -1 #SUP: 2
273 -1 92 -1 529 -1 235 -1 #SUP: 2
273 -1 529 -1 140 -1 235 -1 #SUP: 2
529 -1 140 -1 47 -1 147 -1 #SUP: 2
529 -1 140 -1 235 -1 47 -1 #SUP: 2
529 -1 140 -1 235 -1 147 -1 #SUP: 2
529 -1 235 -1 47 -1 147 -1 #SUP: 2
5 -1 5 -1 529 -1 140 -1 235 -1 #SUP: 2
5 -1 92 -1 5 -1 140 -1 235 -1 #SUP: 2
5 -1 92 -1 5 -1 529 -1 140 -1 #SUP: 3
5 -1 92 -1 5 -1 529 -1 235 -1 #SUP: 2
5 -1 92 -1 529 -1 140 -1 235 -1 #SUP: 2
5 -1 140 -1 235 -1 47 -1 147 -1 #SUP: 2
5 -1 273 -1 5 -1 140 -1 235 -1 #SUP: 2
5 -1 273 -1 5 -1 529 -1 140 -1 #SUP: 2
5 -1 273 -1 5 -1 529 -1 235 -1 #SUP: 2
5 -1 273 -1 92 -1 5 -1 140 -1 #SUP: 2
5 -1 273 -1 92 -1 5 -1 235 -1 #SUP: 2
5 -1 273 -1 92 -1 5 -1 529 -1 #SUP: 2
5 -1 273 -1 92 -1 140 -1 235 -1 #SUP: 2
5 -1 273 -1 92 -1 529 -1 140 -1 #SUP: 2
5 -1 273 -1 92 -1 529 -1 235 -1 #SUP: 2
5 -1 273 -1 529 -1 140 -1 235 -1 #SUP: 2
5 -1 529 -1 140 -1 47 -1 147 -1 #SUP: 2
5 -1 529 -1 140 -1 235 -1 47 -1 #SUP: 2
5 -1 529 -1 140 -1 235 -1 147 -1 #SUP: 2
5 -1 529 -1 235 -1 47 -1 147 -1 #SUP: 2
92 -1 5 -1 140 -1 47 -1 147 -1 #SUP: 2
92 -1 5 -1 140 -1 235 -1 47 -1 #SUP: 2
92 -1 5 -1 140 -1 235 -1 147 -1 #SUP: 2
92 -1 5 -1 235 -1 47 -1 147 -1 #SUP: 2
92 -1 5 -1 529 -1 47 -1 147 -1 #SUP: 2
92 -1 5 -1 529 -1 140 -1 47 -1 #SUP: 2
92 -1 5 -1 529 -1 140 -1 147 -1 #SUP: 2
92 -1 5 -1 529 -1 140 -1 235 -1 #SUP: 3
92 -1 5 -1 529 -1 235 -1 47 -1 #SUP: 2
92 -1 5 -1 529 -1 235 -1 147 -1 #SUP: 2
92 -1 140 -1 235 -1 47 -1 147 -1 #SUP: 2
92 -1 529 -1 140 -1 47 -1 147 -1 #SUP: 2
92 -1 529 -1 140 -1 235 -1 47 -1 #SUP: 2
92 -1 529 -1 140 -1 235 -1 147 -1 #SUP: 2
92 -1 529 -1 235 -1 47 -1 147 -1 #SUP: 2
273 -1 5 -1 529 -1 140 -1 235 -1 #SUP: 2
273 -1 92 -1 5 -1 140 -1 235 -1 #SUP: 2
273 -1 92 -1 5 -1 529 -1 140 -1 #SUP: 2
273 -1 92 -1 5 -1 529 -1 235 -1 #SUP: 2
273 -1 92 -1 529 -1 140 -1 235 -1 #SUP: 2
529 -1 140 -1 235 -1 47 -1 147 -1 #SUP: 2
5 -1 92 -1 5 -1 529 -1 140 -1 235 -1 #SUP: 2
5 -1 273 -1 5 -1 529 -1 140 -1 235 -1 #SUP: 2
5 -1 273 -1 92 -1 5 -1 140 -1 235 -1 #SUP: 2
5 -1 273 -1 92 -1 5 -1 529 -1 140 -1 #SUP: 2
5 -1 273 -1 92 -1 5 -1 529 -1 235 -1 #SUP: 2
5 -1 273 -1 92 -1 529 -1 140 -1 235 -1 #SUP: 2
5 -1 529 -1 140 -1 235 -1 47 -1 147 -1 #SUP: 2
92 -1 5 -1 140 -1 235 -1 47 -1 147 -1 #SUP: 2
92 -1 5 -1 529 -1 140 -1 47 -1 147 -1 #SUP: 2
92 -1 5 -1 529 -1 140 -1 235 -1 47 -1 #SUP: 2
92 -1 5 -1 529 -1 140 -1 235 -1 147 -1 #SUP: 2
92 -1 5 -1 529 -1 235 -1 47 -1 147 -1 #SUP: 2
92 -1 529 -1 140 -1 235 -1 47 -1 147 -1 #SUP: 2
273 -1 92 -1 5 -1 529 -1 140 -1 235 -1 #SUP: 2
5 -1 273 -1 92 -1 5 -1 529 -1 140 -1 235 -1 #SUP: 2
92 -1 5 -1 529 -1 140 -1 235 -1 47 -1 147 -1 #SUP: 2
