0 -1 #SUP: 20
2 -1 #SUP: 8
5 -1 #SUP: 43
6 -1 #SUP: 3
10 -1 #SUP: 2
12 -1 #SUP: 4
14 -1 #SUP: 6
18 -1 #SUP: 2
19 -1 #SUP: 5
21 -1 #SUP: 8
28 -1 #SUP: 13
32 -1 #SUP: 13
39 -1 #SUP: 2
40 -1 #SUP: 19
41 -1 #SUP: 7
47 -1 #SUP: 9
48 -1 #SUP: 2
49 -1 #SUP: 2
51 -1 #SUP: 2
58 -1 #SUP: 4
61 -1 #SUP: 2
64 -1 #SUP: 2
66 -1 #SUP: 5
71 -1 #SUP: 7
74 -1 #SUP: 2
81 -1 #SUP: 3
89 -1 #SUP: 7
92 -1 #SUP: 8
99 -1 #SUP: 2
102 -1 #SUP: 3
106 -1 #SUP: 2
116 -1 #SUP: 4
119 -1 #SUP: 2
122 -1 #SUP: 7
124 -1 #SUP: 6
125 -1 #SUP: 6
128 -1 #SUP: 3
137 -1 #SUP: 5
140 -1 #SUP: 4
142 -1 #SUP: 2
158 -1 #SUP: 3
159 -1 #SUP: 2
160 -1 #SUP: 3
171 -1 #SUP: 2
172 -1 #SUP: 2
179 -1 #SUP: 3
190 -1 #SUP: 3
198 -1 #SUP: 2
203 -1 #SUP: 4
210 -1 #SUP: 5
226 -1 #SUP: 4
234 -1 #SUP: 8
239 -1 #SUP: 4
251 -1 #SUP: 4
265 -1 #SUP: 3
266 -1 #SUP: 2
267 -1 #SUP: 2
270 -1 #SUP: 4
273 -1 #SUP: 2
275 -1 #SUP: 2
284 -1 #SUP: 2
298 -1 #SUP: 5
299 -1 #SUP: 3
302 -1 #SUP: 6
317 -1 #SUP: 2
325 -1 #SUP: 4
333 -1 #SUP: 3
336 -1 #SUP: 4
349 -1 #SUP: 2
406 -1 #SUP: 3
407 -1 #SUP: 2
445 -1 #SUP: 3
461 -1 #SUP: 3
470 -1 #SUP: 3
550 -1 #SUP: 3
553 -1 #SUP: 2
597 -1 #SUP: 3
601 -1 #SUP: 2
757 -1 #SUP: 3
774 -1 #SUP: 3
776 -1 #SUP: 4
1053 -1 #SUP: 2
1342 -1 #SUP: 2
1375 -1 #SUP: 2
1619 -1 #SUP: 2
2550 -1 #SUP: 4
2802 -1 #SUP: 2
3014 -1 #SUP: 2
3580 -1 #SUP: 2
5248 -1 #SUP: 3
7265 -1 #SUP: 3
21201 -1 #SUP: 2
0 -1 0 -1 #SUP: 4
0 -1 2 -1 #SUP: 2
0 -1 5 -1 #SUP: 8
0 -1 14 -1 #SUP: 5
0 -1 21 -1 #SUP: 2
0 -1 28 -1 #SUP: 4
0 -1 32 -1 #SUP: 3
0 -1 40 -1 #SUP: 4
0 -1 47 -1 #SUP: 2
0 -1 71 -1 #SUP: 2
0 -1 92 -1 #SUP: 4
0 -1 124 -1 #SUP: 3
0 -1 128 -1 #SUP: 2
0 -1 190 -1 #SUP: 2
0 -1 210 -1 #SUP: 3
0 -1 251 -1 #SUP: 2
0 -1 266 -1 #SUP: 2
0 -1 325 -1 #SUP: 2
0 -1 333 -1 #SUP: 2
0 -1 336 -1 #SUP: 2
0 -1 601 -1 #SUP: 2
2 -1 21 -1 #SUP: 2
2 -1 64 -1 #SUP: 2
2 -1 406 -1 #SUP: 2
5 -1 0 -1 #SUP: 5
5 -1 2 -1 #SUP: 5
5 -1 5 -1 #SUP: 6
5 -1 10 -1 #SUP: 2
5 -1 14 -1 #SUP: 2
5 -1 18 -1 #SUP: 2
5 -1 21 -1 #SUP: 2
5 -1 28 -1 #SUP: 8
5 -1 32 -1 #SUP: 8
5 -1 40 -1 #SUP: 10
5 -1 41 -1 #SUP: 3
5 -1 47 -1 #SUP: 4
5 -1 48 -1 #SUP: 2
5 -1 49 -1 #SUP: 2
5 -1 58 -1 #SUP: 2
5 -1 66 -1 #SUP: 3
5 -1 71 -1 #SUP: 2
5 -1 81 -1 #SUP: 3
5 -1 89 -1 #SUP: 4
5 -1 92 -1 #SUP: 3
5 -1 102 -1 #SUP: 3
5 -1 116 -1 #SUP: 3
5 -1 119 -1 #SUP: 2
5 -1 122 -1 #SUP: 5
5 -1 124 -1 #SUP: 2
5 -1 137 -1 #SUP: 3
5 -1 140 -1 #SUP: 2
5 -1 159 -1 #SUP: 2
5 -1 160 -1 #SUP: 2
5 -1 172 -1 #SUP: 2
5 -1 190 -1 #SUP: 3
5 -1 203 -1 #SUP: 2
5 -1 210 -1 #SUP: 3
5 -1 226 -1 #SUP: 2
5 -1 234 -1 #SUP: 4
5 -1 251 -1 #SUP: 3
5 -1 270 -1 #SUP: 3
5 -1 273 -1 #SUP: 2
5 -1 298 -1 #SUP: 4
5 -1 299 -1 #SUP: 3
5 -1 336 -1 #SUP: 4
5 -1 461 -1 #SUP: 3
5 -1 470 -1 #SUP: 3
5 -1 601 -1 #SUP: 2
5 -1 757 -1 #SUP: 2
5 -1 1053 -1 #SUP: 2
5 -1 1619 -1 #SUP: 2
5 -1 3014 -1 #SUP: 2
6 -1 32 -1 #SUP: 2
12 -1 0 -1 #SUP: 3
14 -1 0 -1 #SUP: 2
14 -1 5 -1 #SUP: 3
14 -1 71 -1 #SUP: 2
14 -1 124 -1 #SUP: 2
14 -1 210 -1 #SUP: 2
14 -1 325 -1 #SUP: 2
14 -1 601 -1 #SUP: 2
19 -1 14 -1 #SUP: 2
19 -1 71 -1 #SUP: 2
19 -1 325 -1 #SUP: 2
21 -1 0 -1 #SUP: 2
21 -1 5 -1 #SUP: 2
21 -1 336 -1 #SUP: 2
28 -1 0 -1 #SUP: 2
28 -1 14 -1 #SUP: 2
28 -1 32 -1 #SUP: 3
28 -1 40 -1 #SUP: 3
28 -1 122 -1 #SUP: 2
28 -1 171 -1 #SUP: 2
28 -1 234 -1 #SUP: 3
28 -1 270 -1 #SUP: 2
28 -1 2550 -1 #SUP: 2
32 -1 0 -1 #SUP: 2
32 -1 5 -1 #SUP: 2
32 -1 21 -1 #SUP: 2
32 -1 28 -1 #SUP: 3
32 -1 40 -1 #SUP: 2
32 -1 124 -1 #SUP: 2
32 -1 234 -1 #SUP: 2
32 -1 239 -1 #SUP: 2
40 -1 0 -1 #SUP: 2
40 -1 32 -1 #SUP: 2
40 -1 40 -1 #SUP: 2
40 -1 122 -1 #SUP: 4
40 -1 203 -1 #SUP: 3
40 -1 407 -1 #SUP: 2
40 -1 757 -1 #SUP: 2
41 -1 0 -1 #SUP: 2
41 -1 28 -1 #SUP: 2
41 -1 47 -1 #SUP: 2
41 -1 122 -1 #SUP: 2
47 -1 47 -1 #SUP: 2
47 -1 333 -1 #SUP: 2
58 -1 1342 -1 #SUP: 2
61 -1 32 -1 #SUP: 2
66 -1 2 -1 #SUP: 2
66 -1 5 -1 #SUP: 2
66 -1 28 -1 #SUP: 2
71 -1 32 -1 #SUP: 2
71 -1 325 -1 #SUP: 3
89 -1 0 -1 #SUP: 2
89 -1 28 -1 #SUP: 2
92 -1 0 -1 #SUP: 2
92 -1 128 -1 #SUP: 2
99 -1 116 -1 #SUP: 2
102 -1 0 -1 #SUP: 2
119 -1 48 -1 #SUP: 2
122 -1 0 -1 #SUP: 3
122 -1 14 -1 #SUP: 2
122 -1 234 -1 #SUP: 2
122 -1 757 -1 #SUP: 2
122 -1 2550 -1 #SUP: 2
124 -1 270 -1 #SUP: 2
125 -1 28 -1 #SUP: 2
125 -1 32 -1 #SUP: 3
125 -1 40 -1 #SUP: 2
137 -1 32 -1 #SUP: 2
137 -1 2802 -1 #SUP: 2
140 -1 122 -1 #SUP: 2
140 -1 234 -1 #SUP: 3
140 -1 267 -1 #SUP: 2
140 -1 2550 -1 #SUP: 2
158 -1 32 -1 #SUP: 2
158 -1 71 -1 #SUP: 2
159 -1 28 -1 #SUP: 2
160 -1 5 -1 #SUP: 2
160 -1 198 -1 #SUP: 2
179 -1 40 -1 #SUP: 2
190 -1 18 -1 #SUP: 2
190 -1 28 -1 #SUP: 2
190 -1 251 -1 #SUP: 2
226 -1 40 -1 #SUP: 2
226 -1 92 -1 #SUP: 2
226 -1 203 -1 #SUP: 2
234 -1 0 -1 #SUP: 2
234 -1 5 -1 #SUP: 2
234 -1 14 -1 #SUP: 2
234 -1 32 -1 #SUP: 2
234 -1 122 -1 #SUP: 2
234 -1 234 -1 #SUP: 4
234 -1 239 -1 #SUP: 2
234 -1 267 -1 #SUP: 2
234 -1 2550 -1 #SUP: 2
251 -1 28 -1 #SUP: 4
298 -1 5 -1 #SUP: 2
298 -1 116 -1 #SUP: 2
298 -1 122 -1 #SUP: 2
299 -1 81 -1 #SUP: 2
302 -1 5 -1 #SUP: 3
302 -1 19 -1 #SUP: 2
302 -1 298 -1 #SUP: 2
302 -1 550 -1 #SUP: 2
336 -1 137 -1 #SUP: 2
445 -1 0 -1 #SUP: 3
445 -1 12 -1 #SUP: 2
461 -1 10 -1 #SUP: 2
470 -1 40 -1 #SUP: 2
470 -1 203 -1 #SUP: 2
470 -1 226 -1 #SUP: 2
550 -1 47 -1 #SUP: 2
601 -1 40 -1 #SUP: 2
601 -1 122 -1 #SUP: 2
601 -1 757 -1 #SUP: 2
774 -1 21 -1 #SUP: 3
776 -1 0 -1 #SUP: 2
776 -1 92 -1 #SUP: 2
2802 -1 32 -1 #SUP: 2
7265 -1 0 -1 #SUP: 2
0 -1 0 -1 28 -1 #SUP: 2
0 -1 0 -1 124 -1 #SUP: 2
0 -1 5 -1 5 -1 #SUP: 2
0 -1 5 -1 28 -1 #SUP: 2
0 -1 5 -1 40 -1 #SUP: 3
0 -1 5 -1 190 -1 #SUP: 2
0 -1 5 -1 336 -1 #SUP: 2
0 -1 5 -1 601 -1 #SUP: 2
0 -1 14 -1 0 -1 #SUP: 2
0 -1 14 -1 5 -1 #SUP: 3
0 -1 14 -1 124 -1 #SUP: 2
0 -1 14 -1 210 -1 #SUP: 2
0 -1 28 -1 40 -1 #SUP: 2
0 -1 32 -1 28 -1 #SUP: 2
0 -1 71 -1 325 -1 #SUP: 2
0 -1 92 -1 128 -1 #SUP: 2
0 -1 251 -1 28 -1 #SUP: 2
0 -1 601 -1 40 -1 #SUP: 2
5 -1 0 -1 5 -1 #SUP: 2
5 -1 0 -1 14 -1 #SUP: 2
5 -1 0 -1 28 -1 #SUP: 2
5 -1 5 -1 28 -1 #SUP: 2
5 -1 5 -1 40 -1 #SUP: 3
5 -1 5 -1 601 -1 #SUP: 2
5 -1 28 -1 32 -1 #SUP: 3
5 -1 28 -1 40 -1 #SUP: 2
5 -1 32 -1 40 -1 #SUP: 2
5 -1 40 -1 40 -1 #SUP: 2
5 -1 40 -1 122 -1 #SUP: 4
5 -1 40 -1 203 -1 #SUP: 2
5 -1 40 -1 757 -1 #SUP: 2
5 -1 41 -1 28 -1 #SUP: 2
5 -1 102 -1 0 -1 #SUP: 2
5 -1 119 -1 48 -1 #SUP: 2
5 -1 122 -1 757 -1 #SUP: 2
5 -1 140 -1 234 -1 #SUP: 2
5 -1 159 -1 28 -1 #SUP: 2
5 -1 190 -1 18 -1 #SUP: 2
5 -1 190 -1 251 -1 #SUP: 2
5 -1 226 -1 40 -1 #SUP: 2
5 -1 226 -1 203 -1 #SUP: 2
5 -1 234 -1 32 -1 #SUP: 2
5 -1 234 -1 234 -1 #SUP: 2
5 -1 251 -1 28 -1 #SUP: 2
5 -1 298 -1 116 -1 #SUP: 2
5 -1 299 -1 81 -1 #SUP: 2
5 -1 336 -1 137 -1 #SUP: 2
5 -1 461 -1 10 -1 #SUP: 2
5 -1 470 -1 40 -1 #SUP: 2
5 -1 470 -1 203 -1 #SUP: 2
5 -1 470 -1 226 -1 #SUP: 2
5 -1 601 -1 40 -1 #SUP: 2
5 -1 601 -1 122 -1 #SUP: 2
5 -1 601 -1 757 -1 #SUP: 2
14 -1 5 -1 5 -1 #SUP: 2
14 -1 5 -1 601 -1 #SUP: 2
14 -1 71 -1 325 -1 #SUP: 2
19 -1 71 -1 325 -1 #SUP: 2
21 -1 5 -1 336 -1 #SUP: 2
28 -1 0 -1 14 -1 #SUP: 2
28 -1 234 -1 0 -1 #SUP: 2
28 -1 234 -1 14 -1 #SUP: 2
28 -1 234 -1 234 -1 #SUP: 2
40 -1 122 -1 757 -1 #SUP: 2
41 -1 122 -1 0 -1 #SUP: 2
122 -1 0 -1 14 -1 #SUP: 2
122 -1 234 -1 2550 -1 #SUP: 2
137 -1 2802 -1 32 -1 #SUP: 2
140 -1 122 -1 234 -1 #SUP: 2
140 -1 122 -1 2550 -1 #SUP: 2
140 -1 234 -1 122 -1 #SUP: 2
140 -1 234 -1 234 -1 #SUP: 2
140 -1 234 -1 267 -1 #SUP: 2
140 -1 234 -1 2550 -1 #SUP: 2
190 -1 251 -1 28 -1 #SUP: 2
226 -1 40 -1 203 -1 #SUP: 2
234 -1 0 -1 14 -1 #SUP: 2
234 -1 32 -1 234 -1 #SUP: 2
234 -1 32 -1 239 -1 #SUP: 2
234 -1 122 -1 234 -1 #SUP: 2
234 -1 122 -1 2550 -1 #SUP: 2
234 -1 234 -1 0 -1 #SUP: 2
234 -1 234 -1 14 -1 #SUP: 2
234 -1 234 -1 2550 -1 #SUP: 2
302 -1 5 -1 298 -1 #SUP: 2
445 -1 12 -1 0 -1 #SUP: 2
470 -1 40 -1 203 -1 #SUP: 2
470 -1 226 -1 40 -1 #SUP: 2
470 -1 226 -1 203 -1 #SUP: 2
601 -1 40 -1 122 -1 #SUP: 2
601 -1 40 -1 757 -1 #SUP: 2
601 -1 122 -1 757 -1 #SUP: 2
776 -1 0 -1 92 -1 #SUP: 2
0 -1 5 -1 601 -1 40 -1 #SUP: 2
0 -1 14 -1 5 -1 5 -1 #SUP: 2
5 -1 0 -1 5 -1 28 -1 #SUP: 2
5 -1 5 -1 601 -1 40 -1 #SUP: 2
5 -1 40 -1 122 -1 757 -1 #SUP: 2
5 -1 226 -1 40 -1 203 -1 #SUP: 2
5 -1 470 -1 40 -1 203 -1 #SUP: 2
5 -1 470 -1 226 -1 40 -1 #SUP: 2
5 -1 470 -1 226 -1 203 -1 #SUP: 2
5 -1 601 -1 40 -1 122 -1 #SUP: 2
5 -1 601 -1 40 -1 757 -1 #SUP: 2
5 -1 601 -1 122 -1 757 -1 #SUP: 2
14 -1 5 -1 5 -1 601 -1 #SUP: 2
28 -1 234 -1 0 -1 14 -1 #SUP: 2
28 -1 234 -1 234 -1 0 -1 #SUP: 2
28 -1 234 -1 234 -1 14 -1 #SUP: 2
140 -1 122 -1 234 -1 2550 -1 #SUP: 2
140 -1 234 -1 122 -1 234 -1 #SUP: 2
140 -1 234 -1 122 -1 2550 -1 #SUP: 2
140 -1 234 -1 234 -1 2550 -1 #SUP: 2
234 -1 122 -1 234 -1 2550 -1 #SUP: 2
234 -1 234 -1 0 -1 14 -1 #SUP: 2
470 -1 226 -1 40 -1 203 -1 #SUP: 2
601 -1 40 -1 122 -1 757 -1 #SUP: 2
5 -1 470 -1 226 -1 40 -1 203 -1 #SUP: 2
5 -1 601 -1 40 -1 122 -1 757 -1 #SUP: 2
28 -1 234 -1 234 -1 0 -1 14 -1 #SUP: 2
140 -1 234 -1 122 -1 234 -1 2550 -1 #SUP: 2
