124 -1 251 -1 28 -1 116 -1 107 -1 0 -1 161 -1 51 -1 5 -1 3802 -1 40 -1 822 -1 66 -1 107 -1 38 -1 47 -1 3 -1 220 -2
5 -1 317 -1 39 -1 49 -1 256 -1 28 -1 18 -1 301 -1 822 -1 0 -1 14 -1 372 -1 1581 -1 2390 -1 122 -1 40 -1 611 -1 76 -1 2 -1 1030 -1 111 -1 107 -1 220 -2
19 -1 111 -1 163 -1 2512 -1 28 -1 342 -1 39 -1 0 -1 32 -1 445 -1 40 -1 6191 -1 423 -2
105 -1 214 -1 5 -1 526 -1 28 -1 120 -1 38 -1 2 -1 177 -1 21 -1 325 -1 2766 -1 133 -1 179 -1 40 -1 5767 -1 1375 -1 767 -1 66 -1 88 -1 32 -1 362 -1 1 -2
39 -1 978 -1 128 -1 21 -1 40 -1 5829 -1 134 -1 2741 -1 76 -1 2400 -1 754 -1 1 -2
39 -1 49 -1 233 -1 0 -1 5 -1 225 -1 6277 -1 110 -1 3578 -1 1 -2
1581 -1 2390 -1 125 -1 4282 -1 69 -1 5 -1 189 -1 40 -1 3431 -1 8 -1 33 -1 12 -1 0 -1 142 -1 106 -1 220 -2
9 -1 19 -1 2593 -1 33 -1 79 -1 28 -1 110 -1 3578 -1 38 -1 92 -1 76 -1 113 -1 92 -1 210 -1 1 -2
32 -1 769 -1 5 -1 321 -1 60 -1 2 -1 1672 -1 16949 -1 76 -1 0 -1 565 -1 5 -1 336 -1 125 -1 2 -1 256 -1 210 -1 0 -1 102 -1 142 -1 190 -1 220 -2
2026 -1 5 -1 17 -1 2 -1 64 -1 21 -1 210 -1 28 -1 6318 -1 1273 -1 76 -1 0 -1 66 -1 5 -1 13 -1 11 -1 439 -1 0 -1 32 -1 198 -1 28 -1 144 -1 70 -1 86 -1 0 -1 565 -1 98 -1 86 -1 740 -1 1 -1 124 -1 251 -1 28 -1 144 -1 3800 -1 28 -1 3 -1 33 -1 12 -1 1 -2
124 -1 251 -1 28 -1 1106 -1 28 -1 70 -1 86 -1 33 -1 163 -1 33 -1 1158 -1 1 -2
142 -1 106 -1 105 -1 137 -1 331 -1 325 -1 47 -1 746 -1 657 -1 220 -2
92 -1 3562 -1 128 -1 1 -2
5 -1 252 -1 5 -1 529 -1 157 -1 105 -1 2937 -1 529 -1 1151 -1 92 -1 2959 -1 1 -2
122 -1 1084 -1 0 -1 5 -1 3503 -1 11 -1 5798 -1 778 -1 2026 -1 0 -1 32 -1 17 -1 2 -1 759 -1 708 -1 0 -1 565 -1 125 -1 65 -1 92 -1 5 -1 4282 -1 99 -1 570 -1 122 -1 2 -1 708 -1 1 -2
66 -1 5 -1 687 -1 11 -1 1998 -1 65 -1 699 -1 2508 -1 1 -2
14 -1 122 -1 431 -1 5 -1 17 -1 2 -1 2031 -1 32 -1 218 -1 3991 -1 0 -1 66 -1 5 -1 190 -1 92 -1 49 -1 256 -1 1 -2
113 -1 123 -1 5 -1 6 -1 370 -1 21023 -1 0 -1 565 -1 5 -1 317 -1 125 -1 776 -1 256 -1 699 -1 1998 -1 612 -1 3391 -1 1 -2
14 -1 113 -1 123 -1 0 -1 5 -1 776 -1 17 -1 572 -1 1012 -1 204 -1 47 -1 577 -1 92 -1 5 -1 225 -1 6 -1 1721 -1 11 -1 113 -1 293 -1 210 -1 1 -2
38 -1 40 -1 182 -1 0 -1 22 -1 47 -1 1062 -1 2531 -1 0 -1 806 -1 60 -1 9160 -1 0 -1 66 -1 5 -1 119 -1 6 -1 18 -1 572 -1 86 -1 1975 -1 1 -2
32 -1 178 -1 1002 -1 18 -1 2 -1 240 -1 21025 -1 612 -1 21 -1 572 -1 38 -1 1342 -1 182 -1 0 -1 5 -1 321 -1 60 -1 2 -1 888 -1 21 -1 21024 -1 0 -1 3991 -1 0 -1 218 -1 7282 -1 0 -1 32 -1 12497 -1 20077 -1 1 -2
5 -1 199 -1 17 -1 3989 -1 38 -1 3044 -1 0 -1 302 -1 5 -1 184 -1 18 -1 3989 -1 122 -1 778 -1 769 -1 1 -2
298 -1 5 -1 220 -2
550 -1 81 -1 5 -1 171 -1 92 -1 376 -1 5 -1 343 -1 89 -1 18 -1 2 -1 708 -1 0 -1 14 -1 778 -1 122 -1 708 -1 142 -1 106 -1 220 -2
11006 -1 1 -2
5 -1 102 -1 106 -1 0 -1 830 -1 125 -1 287 -1 1743 -1 1 -2
270 -1 240 -1 232 -1 4313 -1 1 -2
445 -1 40 -1 6191 -1 47 -1 611 -1 684 -1 21 -1 814 -1 5 -1 49 -1 61 -1 5 -1 49 -1 89 -1 1417 -1 1 -2
5 -1 335 -1 157 -1 348 -1 207 -1 21 -1 40 -1 407 -1 0 -1 32 -1 47 -1 407 -1 92 -1 5 -1 49 -1 815 -1 4369 -1 40 -1 4722 -1 21 -1 407 -1 1 -2
14 -1 280 -1 198 -1 328 -1 28 -1 131 -1 21 -1 40 -1 303 -1 597 -1 2287 -1 47 -1 1062 -1 3 -1 0 -1 32 -1 6 -1 4499 -1 86 -1 32 -1 957 -1 325 -1 391 -1 210 -1 1 -2
9 -1 92 -1 49 -1 215 -1 1 -2
19 -1 79 -1 59 -1 71 -1 1638 -1 406 -1 0 -1 550 -1 1114 -1 597 -1 60 -1 1342 -1 156 -1 3802 -1 32 -1 27 -1 28 -1 171 -1 1 -2
1729 -1 116 -1 330 -1 28 -1 140 -1 1638 -1 329 -1 1 -2
131 -1 3 -1 113 -1 708 -1 5 -1 60 -1 1638 -1 179 -1 2 -1 240 -1 2153 -1 21 -1 40 -1 407 -1 0 -1 39 -1 49 -1 2 -1 64 -1 21 -1 215 -1 1 -2
256 -1 699 -1 6 -1 250 -1 2 -1 362 -1 708 -1 179 -1 218 -1 407 -1 92 -1 6277 -1 172 -1 331 -1 1 -2
32 -1 40 -1 182 -1 177 -1 1 -2
5 -1 252 -1 5 -1 226 -1 39 -1 0 -1 14 -1 69 -1 142 -1 2464 -1 28 -1 1062 -1 1140 -1 182 -1 6705 -1 1 -2
445 -1 40 -1 6191 -1 423 -2
218 -1 133 -1 89 -1 198 -1 71 -1 86 -1 1 -2
5 -1 22 -1 47 -1 1062 -1 2531 -1 0 -1 6 -1 262 -1 11 -1 2 -1 420 -1 11141 -1 32 -1 218 -1 7664 -1 1 -2
12 -1 218 -1 266 -1 12000 -1 86 -1 179 -1 718 -1 32 -1 2 -1 4755 -1 10215 -1 7526 -1 1342 -1 1231 -1 1 -2
5 -1 252 -1 93 -1 908 -1 32 -1 71 -1 0 -1 14 -1 5 -1 336 -1 5 -1 440 -1 2208 -1 28 -1 171 -1 71 -1 92 -1 1 -2
93 -1 143 -1 94 -1 1 -2
2 -1 64 -1 21 -1 133 -1 255 -1 18 -1 8588 -1 222 -1 203 -1 251 -1 61 -1 0 -1 187 -1 18 -1 6755 -1 1082 -1 61 -1 1 -2
93 -1 161 -1 137 -1 106 -1 66 -1 163 -1 325 -1 47 -1 8697 -1 32 -1 47 -1 27 -1 204 -1 201 -1 1 -2
137 -1 1583 -1 18 -1 1175 -1 28 -1 2 -1 841 -1 0 -1 143 -1 94 -1 5 -1 102 -1 18 -1 0 -1 565 -1 529 -1 140 -1 774 -1 21 -1 79 -1 1 -2
265 -1 81 -1 5 -1 159 -1 28 -1 144 -1 74 -1 28 -1 1738 -1 220 -2
5 -1 102 -1 89 -1 470 -1 3489 -1 221 -1 6 -1 4337 -1 122 -1 2 -1 2648 -1 0 -1 32 -1 47 -1 3339 -1 220 -2
5 -1 102 -1 106 -1 1 -2
5 -1 199 -1 776 -1 3147 -1 22 -1 2 -1 3339 -1 28 -1 144 -1 4 -1 846 -1 28 -1 846 -1 1 -2
32 -1 5 -1 102 -1 159 -1 28 -1 422 -1 40 -1 833 -1 1423 -1 1066 -1 62 -1 28 -1 201 -1 0 -1 6 -1 28 -1 1721 -1 128 -1 11 -1 0 -1 32 -1 1066 -1 62 -1 74 -1 28 -1 1738 -1 0 -1 376 -1 71 -1 328 -1 329 -1 28 -1 2628 -1 128 -1 74 -1 194 -1 28 -1 147 -1 1 -2
5 -1 102 -1 106 -1 1 -2
137 -1 135 -1 311 -1 66 -1 163 -1 28 -1 171 -1 22 -1 118 -1 32 -1 28 -1 140 -1 2154 -1 0 -1 14 -1 38 -1 265 -1 220 -2
68 -1 203 -1 66 -1 207 -1 961 -1 8697 -1 0 -1 32 -1 47 -1 131 -1 5 -1 159 -1 0 -1 5 -1 119 -1 283 -1 1 -2
5 -1 317 -1 92 -1 68 -1 49 -1 402 -1 21026 -1 15758 -1 6311 -1 38 -1 201 -1 0 -1 32 -1 10712 -1 116 -1 89 -1 908 -1 81 -1 5 -1 776 -1 346 -1 47 -1 6777 -1 32 -1 4734 -1 1 -2
5 -1 886 -1 28 -1 85 -1 153 -1 11 -1 2232 -1 0 -1 14 -1 958 -1 47 -1 3406 -1 1168 -1 1243 -1 70 -1 1 -2
124 -1 41 -1 89 -1 450 -1 32 -1 6 -1 339 -1 981 -1 28 -1 133 -1 0 -1 66 -1 1441 -1 2 -1 240 -1 1743 -1 2153 -1 21 -1 407 -1 125 -1 41 -1 56 -1 0 -1 14 -1 41 -1 66 -1 892 -1 985 -1 1 -2
40 -1 359 -1 125 -1 838 -1 3489 -1 6 -1 981 -1 28 -1 4337 -1 1 -2
5 -1 22 -1 47 -1 1062 -1 2531 -1 0 -1 102 -1 283 -1 39 -1 66 -1 892 -1 1 -2
124 -1 573 -1 1 -2
298 -1 5 -1 140 -1 218 -1 708 -1 220 -2
5 -1 199 -1 89 -1 17 -1 2 -1 838 -1 778 -1 1 -2
51 -1 5 -1 255 -1 135 -1 92 -1 220 -2
338 -1 1 -2
66 -1 298 -1 5 -1 6 -1 140 -1 218 -1 3991 -1 0 -1 550 -1 124 -1 41 -1 71 -1 92 -1 573 -1 0 -1 187 -1 298 -1 5 -1 140 -1 2 -1 708 -1 220 -2
5 -1 102 -1 106 -1 0 -1 5 -1 184 -1 6 -1 157 -1 265 -1 137 -1 18 -1 122 -1 708 -1 0 -1 32 -1 376 -1 5 -1 184 -1 918 -1 4 -1 40 -1 4455 -1 1 -2
105 -1 912 -1 92 -1 320 -1 220 -2
11006 -1 1 -2
32 -1 948 -1 5478 -1 1243 -1 70 -1 1 -2
445 -1 1703 -1 423 -2
311 -1 143 -1 5478 -1 1 -2
5 -1 1221 -1 1066 -1 13706 -1 21 -1 6199 -1 122 -1 663 -1 376 -1 220 -2
445 -1 12 -1 1 -2
78 -1 2036 -1 10 -1 220 -2
5 -1 335 -1 1328 -1 280 -1 17 -1 96 -1 14589 -1 550 -1 5 -1 72 -1 6 -1 189 -1 47 -1 131 -1 124 -1 211 -1 28 -1 0 -1 14 -1 19 -1 10869 -1 86 -1 21 -1 269 -1 1 -2
912 -1 92 -1 252 -1 47 -1 1062 -1 131 -1 266 -1 116 -1 86 -1 21 -1 269 -1 111 -1 220 -2
338 -1 1 -2
5 -1 184 -1 144 -1 157 -1 1 -2
740 -1 1 -1 5 -1 336 -1 93 -1 325 -1 39 -1 1 -2
302 -1 5 -1 298 -1 339 -1 143 -1 2106 -1 1 -2
5 -1 637 -1 47 -1 611 -1 131 -1 5 -1 17 -1 1 -2
5 -1 321 -1 17 -1 39 -1 24 -1 5 -1 49 -1 325 -1 1672 -1 1 -1 19 -1 774 -1 21 -1 1081 -1 1041 -1 74 -1 113 -1 71 -1 47 -1 27 -1 5 -1 1790 -1 325 -1 1 -2