0 -1 #SUP: 18
2 -1 #SUP: 8
5 -1 #SUP: 53
6 -1 #SUP: 2
11 -1 #SUP: 3
14 -1 #SUP: 6
18 -1 #SUP: 5
19 -1 #SUP: 3
21 -1 #SUP: 4
22 -1 #SUP: 2
28 -1 #SUP: 20
32 -1 #SUP: 3
33 -1 #SUP: 4
35 -1 #SUP: 2
38 -1 #SUP: 5
39 -1 #SUP: 3
40 -1 #SUP: 18
41 -1 #SUP: 4
44 -1 #SUP: 2
47 -1 #SUP: 7
53 -1 #SUP: 3
59 -1 #SUP: 2
64 -1 #SUP: 2
65 -1 #SUP: 5
66 -1 #SUP: 5
68 -1 #SUP: 3
81 -1 #SUP: 3
86 -1 #SUP: 2
92 -1 #SUP: 7
96 -1 #SUP: 2
102 -1 #SUP: 4
105 -1 #SUP: 4
106 -1 #SUP: 4
116 -1 #SUP: 2
122 -1 #SUP: 2
124 -1 #SUP: 6
125 -1 #SUP: 11
128 -1 #SUP: 2
140 -1 #SUP: 2
144 -1 #SUP: 7
151 -1 #SUP: 5
171 -1 #SUP: 3
176 -1 #SUP: 5
179 -1 #SUP: 2
203 -1 #SUP: 4
207 -1 #SUP: 3
214 -1 #SUP: 8
226 -1 #SUP: 3
251 -1 #SUP: 2
270 -1 #SUP: 8
272 -1 #SUP: 3
287 -1 #SUP: 3
299 -1 #SUP: 8
316 -1 #SUP: 7
348 -1 #SUP: 2
356 -1 #SUP: 5
376 -1 #SUP: 2
378 -1 #SUP: 6
437 -1 #SUP: 4
439 -1 #SUP: 3
445 -1 #SUP: 3
467 -1 #SUP: 2
482 -1 #SUP: 2
497 -1 #SUP: 2
529 -1 #SUP: 4
550 -1 #SUP: 2
553 -1 #SUP: 2
769 -1 #SUP: 3
897 -1 #SUP: 2
908 -1 #SUP: 3
981 -1 #SUP: 2
1053 -1 #SUP: 3
1083 -1 #SUP: 2
1148 -1 #SUP: 2
1418 -1 #SUP: 3
1455 -1 #SUP: 3
6191 -1 #SUP: 3
7718 -1 #SUP: 2
0 -1 0 -1 #SUP: 5
0 -1 5 -1 #SUP: 6
0 -1 14 -1 #SUP: 5
0 -1 18 -1 #SUP: 3
0 -1 28 -1 #SUP: 2
0 -1 32 -1 #SUP: 2
0 -1 35 -1 #SUP: 2
0 -1 40 -1 #SUP: 4
0 -1 65 -1 #SUP: 2
0 -1 66 -1 #SUP: 2
0 -1 92 -1 #SUP: 2
0 -1 124 -1 #SUP: 2
0 -1 125 -1 #SUP: 2
0 -1 176 -1 #SUP: 2
0 -1 214 -1 #SUP: 2
0 -1 378 -1 #SUP: 3
0 -1 497 -1 #SUP: 2
2 -1 64 -1 #SUP: 2
5 -1 0 -1 #SUP: 5
5 -1 2 -1 #SUP: 3
5 -1 5 -1 #SUP: 10
5 -1 11 -1 #SUP: 2
5 -1 14 -1 #SUP: 4
5 -1 18 -1 #SUP: 5
5 -1 21 -1 #SUP: 2
5 -1 28 -1 #SUP: 14
5 -1 38 -1 #SUP: 4
5 -1 39 -1 #SUP: 2
5 -1 40 -1 #SUP: 7
5 -1 41 -1 #SUP: 2
5 -1 47 -1 #SUP: 5
5 -1 53 -1 #SUP: 3
5 -1 66 -1 #SUP: 3
5 -1 81 -1 #SUP: 3
5 -1 92 -1 #SUP: 2
5 -1 102 -1 #SUP: 4
5 -1 105 -1 #SUP: 4
5 -1 106 -1 #SUP: 4
5 -1 116 -1 #SUP: 2
5 -1 140 -1 #SUP: 2
5 -1 144 -1 #SUP: 4
5 -1 151 -1 #SUP: 5
5 -1 171 -1 #SUP: 3
5 -1 176 -1 #SUP: 2
5 -1 179 -1 #SUP: 2
5 -1 203 -1 #SUP: 2
5 -1 207 -1 #SUP: 3
5 -1 214 -1 #SUP: 7
5 -1 226 -1 #SUP: 2
5 -1 251 -1 #SUP: 2
5 -1 270 -1 #SUP: 4
5 -1 272 -1 #SUP: 3
5 -1 299 -1 #SUP: 8
5 -1 316 -1 #SUP: 3
5 -1 356 -1 #SUP: 2
5 -1 378 -1 #SUP: 2
5 -1 437 -1 #SUP: 4
5 -1 439 -1 #SUP: 2
5 -1 467 -1 #SUP: 2
5 -1 482 -1 #SUP: 2
5 -1 497 -1 #SUP: 2
5 -1 529 -1 #SUP: 4
5 -1 769 -1 #SUP: 2
5 -1 1418 -1 #SUP: 2
5 -1 7718 -1 #SUP: 2
14 -1 5 -1 #SUP: 3
14 -1 125 -1 #SUP: 2
14 -1 497 -1 #SUP: 2
18 -1 28 -1 #SUP: 2
18 -1 378 -1 #SUP: 2
21 -1 38 -1 #SUP: 2
22 -1 47 -1 #SUP: 2
28 -1 0 -1 #SUP: 3
28 -1 5 -1 #SUP: 2
28 -1 14 -1 #SUP: 3
28 -1 28 -1 #SUP: 2
28 -1 40 -1 #SUP: 2
28 -1 144 -1 #SUP: 4
28 -1 270 -1 #SUP: 2
28 -1 272 -1 #SUP: 2
28 -1 7718 -1 #SUP: 2
33 -1 33 -1 #SUP: 2
40 -1 0 -1 #SUP: 3
40 -1 5 -1 #SUP: 2
40 -1 28 -1 #SUP: 2
40 -1 40 -1 #SUP: 3
40 -1 44 -1 #SUP: 2
40 -1 125 -1 #SUP: 5
40 -1 287 -1 #SUP: 2
40 -1 356 -1 #SUP: 4
40 -1 897 -1 #SUP: 2
41 -1 769 -1 #SUP: 2
44 -1 28 -1 #SUP: 2
53 -1 28 -1 #SUP: 2
53 -1 40 -1 #SUP: 2
53 -1 151 -1 #SUP: 2
65 -1 28 -1 #SUP: 3
65 -1 144 -1 #SUP: 3
65 -1 378 -1 #SUP: 4
68 -1 203 -1 #SUP: 2
81 -1 5 -1 #SUP: 2
81 -1 28 -1 #SUP: 2
92 -1 2 -1 #SUP: 4
92 -1 5 -1 #SUP: 4
92 -1 214 -1 #SUP: 2
92 -1 316 -1 #SUP: 2
102 -1 5 -1 #SUP: 2
102 -1 28 -1 #SUP: 2
102 -1 47 -1 #SUP: 2
105 -1 5 -1 #SUP: 2
105 -1 207 -1 #SUP: 3
105 -1 467 -1 #SUP: 2
106 -1 47 -1 #SUP: 2
124 -1 5 -1 #SUP: 2
124 -1 92 -1 #SUP: 2
124 -1 348 -1 #SUP: 2
125 -1 28 -1 #SUP: 2
125 -1 44 -1 #SUP: 2
125 -1 287 -1 #SUP: 2
125 -1 908 -1 #SUP: 2
144 -1 28 -1 #SUP: 2
144 -1 437 -1 #SUP: 2
151 -1 28 -1 #SUP: 5
151 -1 40 -1 #SUP: 2
151 -1 7718 -1 #SUP: 2
176 -1 18 -1 #SUP: 2
176 -1 28 -1 #SUP: 3
176 -1 65 -1 #SUP: 3
176 -1 144 -1 #SUP: 3
176 -1 378 -1 #SUP: 4
203 -1 28 -1 #SUP: 2
203 -1 270 -1 #SUP: 2
207 -1 5 -1 #SUP: 2
207 -1 467 -1 #SUP: 2
214 -1 5 -1 #SUP: 2
214 -1 28 -1 #SUP: 2
214 -1 92 -1 #SUP: 2
214 -1 1418 -1 #SUP: 2
226 -1 5 -1 #SUP: 2
226 -1 39 -1 #SUP: 2
270 -1 125 -1 #SUP: 3
287 -1 14 -1 #SUP: 2
299 -1 5 -1 #SUP: 4
299 -1 28 -1 #SUP: 2
299 -1 81 -1 #SUP: 3
299 -1 105 -1 #SUP: 4
299 -1 203 -1 #SUP: 2
299 -1 207 -1 #SUP: 3
299 -1 467 -1 #SUP: 2
316 -1 2 -1 #SUP: 4
316 -1 21 -1 #SUP: 2
316 -1 38 -1 #SUP: 3
316 -1 64 -1 #SUP: 2
316 -1 86 -1 #SUP: 2
316 -1 171 -1 #SUP: 2
356 -1 125 -1 #SUP: 2
356 -1 897 -1 #SUP: 2
378 -1 28 -1 #SUP: 3
378 -1 144 -1 #SUP: 3
439 -1 0 -1 #SUP: 2
439 -1 14 -1 #SUP: 2
445 -1 0 -1 #SUP: 3
445 -1 65 -1 #SUP: 2
445 -1 378 -1 #SUP: 2
467 -1 5 -1 #SUP: 2
497 -1 5 -1 #SUP: 2
497 -1 18 -1 #SUP: 2
550 -1 5 -1 #SUP: 2
1418 -1 5 -1 #SUP: 3
1418 -1 92 -1 #SUP: 3
1418 -1 214 -1 #SUP: 2
1455 -1 0 -1 #SUP: 2
6191 -1 0 -1 #SUP: 2
6191 -1 5 -1 #SUP: 2
0 -1 0 -1 0 -1 #SUP: 2
0 -1 0 -1 32 -1 #SUP: 2
0 -1 0 -1 40 -1 #SUP: 3
0 -1 5 -1 5 -1 #SUP: 3
0 -1 5 -1 18 -1 #SUP: 3
0 -1 5 -1 28 -1 #SUP: 2
0 -1 5 -1 66 -1 #SUP: 2
0 -1 5 -1 214 -1 #SUP: 2
0 -1 5 -1 497 -1 #SUP: 2
0 -1 14 -1 5 -1 #SUP: 2
0 -1 14 -1 125 -1 #SUP: 2
0 -1 14 -1 497 -1 #SUP: 2
0 -1 18 -1 28 -1 #SUP: 2
0 -1 40 -1 0 -1 #SUP: 3
0 -1 40 -1 40 -1 #SUP: 3
0 -1 65 -1 378 -1 #SUP: 2
0 -1 176 -1 378 -1 #SUP: 2
0 -1 497 -1 5 -1 #SUP: 2
5 -1 0 -1 5 -1 #SUP: 2
5 -1 0 -1 14 -1 #SUP: 4
5 -1 5 -1 2 -1 #SUP: 2
5 -1 5 -1 5 -1 #SUP: 3
5 -1 5 -1 18 -1 #SUP: 3
5 -1 5 -1 28 -1 #SUP: 4
5 -1 5 -1 66 -1 #SUP: 2
5 -1 5 -1 214 -1 #SUP: 4
5 -1 5 -1 497 -1 #SUP: 2
5 -1 5 -1 529 -1 #SUP: 2
5 -1 14 -1 5 -1 #SUP: 2
5 -1 18 -1 28 -1 #SUP: 2
5 -1 18 -1 378 -1 #SUP: 2
5 -1 28 -1 0 -1 #SUP: 3
5 -1 28 -1 5 -1 #SUP: 2
5 -1 28 -1 14 -1 #SUP: 3
5 -1 28 -1 40 -1 #SUP: 2
5 -1 28 -1 144 -1 #SUP: 2
5 -1 28 -1 270 -1 #SUP: 2
5 -1 28 -1 272 -1 #SUP: 2
5 -1 28 -1 7718 -1 #SUP: 2
5 -1 53 -1 28 -1 #SUP: 2
5 -1 53 -1 40 -1 #SUP: 2
5 -1 53 -1 151 -1 #SUP: 2
5 -1 81 -1 5 -1 #SUP: 2
5 -1 81 -1 28 -1 #SUP: 2
5 -1 92 -1 5 -1 #SUP: 2
5 -1 102 -1 5 -1 #SUP: 2
5 -1 102 -1 28 -1 #SUP: 2
5 -1 102 -1 47 -1 #SUP: 2
5 -1 105 -1 5 -1 #SUP: 2
5 -1 105 -1 207 -1 #SUP: 3
5 -1 105 -1 467 -1 #SUP: 2
5 -1 106 -1 47 -1 #SUP: 2
5 -1 144 -1 28 -1 #SUP: 2
5 -1 144 -1 437 -1 #SUP: 2
5 -1 151 -1 28 -1 #SUP: 5
5 -1 151 -1 40 -1 #SUP: 2
5 -1 151 -1 7718 -1 #SUP: 2
5 -1 176 -1 18 -1 #SUP: 2
5 -1 207 -1 5 -1 #SUP: 2
5 -1 207 -1 467 -1 #SUP: 2
5 -1 214 -1 5 -1 #SUP: 2
5 -1 214 -1 28 -1 #SUP: 2
5 -1 214 -1 92 -1 #SUP: 2
5 -1 214 -1 1418 -1 #SUP: 2
5 -1 299 -1 5 -1 #SUP: 4
5 -1 299 -1 28 -1 #SUP: 2
5 -1 299 -1 81 -1 #SUP: 3
5 -1 299 -1 105 -1 #SUP: 4
5 -1 299 -1 203 -1 #SUP: 2
5 -1 299 -1 207 -1 #SUP: 3
5 -1 299 -1 467 -1 #SUP: 2
5 -1 316 -1 38 -1 #SUP: 2
5 -1 316 -1 171 -1 #SUP: 2
5 -1 439 -1 0 -1 #SUP: 2
5 -1 439 -1 14 -1 #SUP: 2
5 -1 467 -1 5 -1 #SUP: 2
5 -1 497 -1 5 -1 #SUP: 2
5 -1 1418 -1 5 -1 #SUP: 2
5 -1 1418 -1 92 -1 #SUP: 2
14 -1 5 -1 5 -1 #SUP: 3
14 -1 5 -1 497 -1 #SUP: 2
14 -1 497 -1 5 -1 #SUP: 2
28 -1 0 -1 5 -1 #SUP: 2
28 -1 0 -1 14 -1 #SUP: 3
28 -1 5 -1 5 -1 #SUP: 2
28 -1 14 -1 5 -1 #SUP: 2
40 -1 0 -1 0 -1 #SUP: 3
40 -1 0 -1 40 -1 #SUP: 3
40 -1 40 -1 0 -1 #SUP: 3
40 -1 40 -1 40 -1 #SUP: 3
40 -1 44 -1 28 -1 #SUP: 2
40 -1 125 -1 28 -1 #SUP: 2
40 -1 125 -1 44 -1 #SUP: 2
40 -1 125 -1 287 -1 #SUP: 2
40 -1 356 -1 125 -1 #SUP: 2
40 -1 356 -1 897 -1 #SUP: 2
53 -1 151 -1 28 -1 #SUP: 2
65 -1 28 -1 144 -1 #SUP: 3
65 -1 378 -1 28 -1 #SUP: 3
65 -1 378 -1 144 -1 #SUP: 3
92 -1 5 -1 2 -1 #SUP: 2
92 -1 5 -1 214 -1 #SUP: 2
105 -1 207 -1 5 -1 #SUP: 2
105 -1 207 -1 467 -1 #SUP: 2
105 -1 467 -1 5 -1 #SUP: 2
124 -1 92 -1 5 -1 #SUP: 2
125 -1 44 -1 28 -1 #SUP: 2
151 -1 28 -1 40 -1 #SUP: 2
151 -1 28 -1 7718 -1 #SUP: 2
176 -1 28 -1 144 -1 #SUP: 3
176 -1 65 -1 28 -1 #SUP: 3
176 -1 65 -1 144 -1 #SUP: 3
176 -1 65 -1 378 -1 #SUP: 3
176 -1 378 -1 28 -1 #SUP: 3
176 -1 378 -1 144 -1 #SUP: 3
207 -1 467 -1 5 -1 #SUP: 2
214 -1 92 -1 5 -1 #SUP: 2
214 -1 1418 -1 5 -1 #SUP: 2
214 -1 1418 -1 92 -1 #SUP: 2
226 -1 5 -1 39 -1 #SUP: 2
299 -1 81 -1 5 -1 #SUP: 2
299 -1 81 -1 28 -1 #SUP: 2
299 -1 105 -1 5 -1 #SUP: 2
299 -1 105 -1 207 -1 #SUP: 3
299 -1 105 -1 467 -1 #SUP: 2
299 -1 207 -1 5 -1 #SUP: 2
299 -1 207 -1 467 -1 #SUP: 2
299 -1 467 -1 5 -1 #SUP: 2
316 -1 2 -1 64 -1 #SUP: 2
316 -1 21 -1 38 -1 #SUP: 2
378 -1 28 -1 144 -1 #SUP: 3
439 -1 0 -1 14 -1 #SUP: 2
445 -1 0 -1 65 -1 #SUP: 2
445 -1 0 -1 378 -1 #SUP: 2
445 -1 65 -1 378 -1 #SUP: 2
497 -1 5 -1 18 -1 #SUP: 2
1418 -1 5 -1 214 -1 #SUP: 2
1418 -1 92 -1 5 -1 #SUP: 3
1418 -1 92 -1 214 -1 #SUP: 2
6191 -1 0 -1 5 -1 #SUP: 2
0 -1 0 -1 0 -1 40 -1 #SUP: 2
0 -1 0 -1 40 -1 0 -1 #SUP: 2
0 -1 0 -1 40 -1 40 -1 #SUP: 2
0 -1 5 -1 5 -1 18 -1 #SUP: 2
0 -1 5 -1 5 -1 66 -1 #SUP: 2
0 -1 5 -1 18 -1 28 -1 #SUP: 2
0 -1 5 -1 497 -1 5 -1 #SUP: 2
0 -1 14 -1 5 -1 5 -1 #SUP: 2
0 -1 14 -1 5 -1 497 -1 #SUP: 2
0 -1 14 -1 497 -1 5 -1 #SUP: 2
0 -1 40 -1 0 -1 0 -1 #SUP: 2
0 -1 40 -1 0 -1 40 -1 #SUP: 3
0 -1 40 -1 40 -1 0 -1 #SUP: 2
0 -1 40 -1 40 -1 40 -1 #SUP: 2
5 -1 0 -1 14 -1 5 -1 #SUP: 2
5 -1 5 -1 214 -1 28 -1 #SUP: 2
5 -1 5 -1 497 -1 5 -1 #SUP: 2
5 -1 28 -1 0 -1 5 -1 #SUP: 2
5 -1 28 -1 0 -1 14 -1 #SUP: 3
5 -1 28 -1 14 -1 5 -1 #SUP: 2
5 -1 53 -1 151 -1 28 -1 #SUP: 2
5 -1 105 -1 207 -1 5 -1 #SUP: 2
5 -1 105 -1 207 -1 467 -1 #SUP: 2
5 -1 105 -1 467 -1 5 -1 #SUP: 2
5 -1 151 -1 28 -1 40 -1 #SUP: 2
5 -1 151 -1 28 -1 7718 -1 #SUP: 2
5 -1 207 -1 467 -1 5 -1 #SUP: 2
5 -1 214 -1 92 -1 5 -1 #SUP: 2
5 -1 214 -1 1418 -1 5 -1 #SUP: 2
5 -1 214 -1 1418 -1 92 -1 #SUP: 2
5 -1 299 -1 81 -1 5 -1 #SUP: 2
5 -1 299 -1 81 -1 28 -1 #SUP: 2
5 -1 299 -1 105 -1 5 -1 #SUP: 2
5 -1 299 -1 105 -1 207 -1 #SUP: 3
5 -1 299 -1 105 -1 467 -1 #SUP: 2
5 -1 299 -1 207 -1 5 -1 #SUP: 2
5 -1 299 -1 207 -1 467 -1 #SUP: 2
5 -1 299 -1 467 -1 5 -1 #SUP: 2
5 -1 439 -1 0 -1 14 -1 #SUP: 2
5 -1 1418 -1 92 -1 5 -1 #SUP: 2
14 -1 5 -1 497 -1 5 -1 #SUP: 2
28 -1 0 -1 5 -1 5 -1 #SUP: 2
28 -1 0 -1 14 -1 5 -1 #SUP: 2
28 -1 14 -1 5 -1 5 -1 #SUP: 2
40 -1 0 -1 0 -1 0 -1 #SUP: 2
40 -1 0 -1 0 -1 40 -1 #SUP: 3
40 -1 0 -1 40 -1 0 -1 #SUP: 3
40 -1 0 -1 40 -1 40 -1 #SUP: 3
40 -1 40 -1 0 -1 0 -1 #SUP: 2
40 -1 40 -1 0 -1 40 -1 #SUP: 3
40 -1 40 -1 40 -1 0 -1 #SUP: 2
40 -1 125 -1 44 -1 28 -1 #SUP: 2
65 -1 378 -1 28 -1 144 -1 #SUP: 3
105 -1 207 -1 467 -1 5 -1 #SUP: 2
176 -1 65 -1 28 -1 144 -1 #SUP: 3
176 -1 65 -1 378 -1 28 -1 #SUP: 3
176 -1 65 -1 378 -1 144 -1 #SUP: 3
176 -1 378 -1 28 -1 144 -1 #SUP: 3
214 -1 1418 -1 92 -1 5 -1 #SUP: 2
299 -1 105 -1 207 -1 5 -1 #SUP: 2
299 -1 105 -1 207 -1 467 -1 #SUP: 2
299 -1 105 -1 467 -1 5 -1 #SUP: 2
299 -1 207 -1 467 -1 5 -1 #SUP: 2
445 -1 0 -1 65 -1 378 -1 #SUP: 2
1418 -1 92 -1 5 -1 214 -1 #SUP: 2
0 -1 0 -1 40 -1 0 -1 40 -1 #SUP: 2
0 -1 14 -1 5 -1 497 -1 5 -1 #SUP: 2
0 -1 40 -1 0 -1 0 -1 40 -1 #SUP: 2
0 -1 40 -1 0 -1 40 -1 0 -1 #SUP: 2
0 -1 40 -1 0 -1 40 -1 40 -1 #SUP: 2
0 -1 40 -1 40 -1 0 -1 40 -1 #SUP: 2
5 -1 28 -1 0 -1 14 -1 5 -1 #SUP: 2
5 -1 105 -1 207 -1 467 -1 5 -1 #SUP: 2
5 -1 214 -1 1418 -1 92 -1 5 -1 #SUP: 2
5 -1 299 -1 105 -1 207 -1 5 -1 #SUP: 2
5 -1 299 -1 105 -1 207 -1 467 -1 #SUP: 2
5 -1 299 -1 105 -1 467 -1 5 -1 #SUP: 2
5 -1 299 -1 207 -1 467 -1 5 -1 #SUP: 2
28 -1 0 -1 14 -1 5 -1 5 -1 #SUP: 2
40 -1 0 -1 0 -1 40 -1 0 -1 #SUP: 2
40 -1 0 -1 40 -1 0 -1 0 -1 #SUP: 2
40 -1 0 -1 40 -1 0 -1 40 -1 #SUP: 3
40 -1 0 -1 40 -1 40 -1 0 -1 #SUP: 2
40 -1 40 -1 0 -1 40 -1 0 -1 #SUP: 2
176 -1 65 -1 378 -1 28 -1 144 -1 #SUP: 3
299 -1 105 -1 207 -1 467 -1 5 -1 #SUP: 2
0 -1 40 -1 0 -1 40 -1 0 -1 40 -1 #SUP: 2
5 -1 299 -1 105 -1 207 -1 467 -1 5 -1 #SUP: 2
40 -1 0 -1 40 -1 0 -1 40 -1 0 -1 #SUP: 2
