0 -1 #SUP: 25
1 -1 #SUP: 7
2 -1 #SUP: 14
5 -1 #SUP: 102
6 -1 #SUP: 9
9 -1 #SUP: 2
12 -1 #SUP: 3
14 -1 #SUP: 13
17 -1 #SUP: 3
18 -1 #SUP: 14
21 -1 #SUP: 6
22 -1 #SUP: 2
27 -1 #SUP: 7
28 -1 #SUP: 38
32 -1 #SUP: 37
33 -1 #SUP: 3
38 -1 #SUP: 7
39 -1 #SUP: 15
40 -1 #SUP: 8
41 -1 #SUP: 9
47 -1 #SUP: 15
49 -1 #SUP: 4
53 -1 #SUP: 2
58 -1 #SUP: 3
61 -1 #SUP: 9
63 -1 #SUP: 3
65 -1 #SUP: 3
66 -1 #SUP: 14
68 -1 #SUP: 3
69 -1 #SUP: 2
71 -1 #SUP: 4
78 -1 #SUP: 2
81 -1 #SUP: 12
86 -1 #SUP: 4
89 -1 #SUP: 12
92 -1 #SUP: 16
99 -1 #SUP: 9
102 -1 #SUP: 12
105 -1 #SUP: 3
106 -1 #SUP: 7
113 -1 #SUP: 4
116 -1 #SUP: 15
119 -1 #SUP: 5
122 -1 #SUP: 3
124 -1 #SUP: 5
125 -1 #SUP: 23
126 -1 #SUP: 4
128 -1 #SUP: 3
131 -1 #SUP: 3
137 -1 #SUP: 2
140 -1 #SUP: 3
144 -1 #SUP: 7
151 -1 #SUP: 8
159 -1 #SUP: 12
162 -1 #SUP: 2
163 -1 #SUP: 3
171 -1 #SUP: 11
172 -1 #SUP: 4
177 -1 #SUP: 2
179 -1 #SUP: 3
185 -1 #SUP: 3
187 -1 #SUP: 3
190 -1 #SUP: 14
198 -1 #SUP: 3
199 -1 #SUP: 3
201 -1 #SUP: 2
202 -1 #SUP: 2
203 -1 #SUP: 5
207 -1 #SUP: 2
210 -1 #SUP: 4
214 -1 #SUP: 11
215 -1 #SUP: 4
218 -1 #SUP: 2
225 -1 #SUP: 4
226 -1 #SUP: 4
230 -1 #SUP: 4
233 -1 #SUP: 3
239 -1 #SUP: 3
240 -1 #SUP: 2
251 -1 #SUP: 3
265 -1 #SUP: 11
266 -1 #SUP: 8
267 -1 #SUP: 5
270 -1 #SUP: 4
273 -1 #SUP: 2
280 -1 #SUP: 11
293 -1 #SUP: 2
325 -1 #SUP: 3
337 -1 #SUP: 4
346 -1 #SUP: 2
349 -1 #SUP: 2
368 -1 #SUP: 3
376 -1 #SUP: 3
419 -1 #SUP: 4
463 -1 #SUP: 3
470 -1 #SUP: 3
480 -1 #SUP: 2
529 -1 #SUP: 5
550 -1 #SUP: 5
553 -1 #SUP: 13
568 -1 #SUP: 2
577 -1 #SUP: 3
580 -1 #SUP: 2
598 -1 #SUP: 2
687 -1 #SUP: 3
688 -1 #SUP: 7
692 -1 #SUP: 2
713 -1 #SUP: 4
769 -1 #SUP: 5
830 -1 #SUP: 2
838 -1 #SUP: 2
844 -1 #SUP: 3
853 -1 #SUP: 2
890 -1 #SUP: 2
912 -1 #SUP: 2
961 -1 #SUP: 2
989 -1 #SUP: 2
1061 -1 #SUP: 2
1062 -1 #SUP: 2
1177 -1 #SUP: 2
1231 -1 #SUP: 2
1382 -1 #SUP: 2
1418 -1 #SUP: 2
1726 -1 #SUP: 2
1780 -1 #SUP: 2
2047 -1 #SUP: 3
2630 -1 #SUP: 2
3266 -1 #SUP: 2
8322 -1 #SUP: 4
13324 -1 #SUP: 3
0 -1 0 -1 #SUP: 2
0 -1 1 -1 #SUP: 3
0 -1 5 -1 #SUP: 13
0 -1 6 -1 #SUP: 3
0 -1 14 -1 #SUP: 5
0 -1 28 -1 #SUP: 4
0 -1 32 -1 #SUP: 7
0 -1 39 -1 #SUP: 3
0 -1 47 -1 #SUP: 2
0 -1 81 -1 #SUP: 2
0 -1 86 -1 #SUP: 2
0 -1 92 -1 #SUP: 2
0 -1 102 -1 #SUP: 4
0 -1 106 -1 #SUP: 2
0 -1 116 -1 #SUP: 4
0 -1 125 -1 #SUP: 2
0 -1 131 -1 #SUP: 2
0 -1 159 -1 #SUP: 2
0 -1 171 -1 #SUP: 2
0 -1 172 -1 #SUP: 3
0 -1 190 -1 #SUP: 3
0 -1 265 -1 #SUP: 2
0 -1 266 -1 #SUP: 4
0 -1 337 -1 #SUP: 2
0 -1 368 -1 #SUP: 2
0 -1 376 -1 #SUP: 2
0 -1 529 -1 #SUP: 3
0 -1 550 -1 #SUP: 2
0 -1 553 -1 #SUP: 2
1 -1 1 -1 #SUP: 3
1 -1 5 -1 #SUP: 2
1 -1 66 -1 #SUP: 2
1 -1 171 -1 #SUP: 2
2 -1 0 -1 #SUP: 2
2 -1 5 -1 #SUP: 3
2 -1 6 -1 #SUP: 2
2 -1 14 -1 #SUP: 2
2 -1 21 -1 #SUP: 2
2 -1 32 -1 #SUP: 5
2 -1 39 -1 #SUP: 2
2 -1 41 -1 #SUP: 2
2 -1 78 -1 #SUP: 2
2 -1 81 -1 #SUP: 2
2 -1 179 -1 #SUP: 2
2 -1 266 -1 #SUP: 2
2 -1 480 -1 #SUP: 2
2 -1 844 -1 #SUP: 2
2 -1 2047 -1 #SUP: 2
2 -1 2630 -1 #SUP: 2
5 -1 0 -1 #SUP: 8
5 -1 1 -1 #SUP: 4
5 -1 2 -1 #SUP: 8
5 -1 5 -1 #SUP: 24
5 -1 6 -1 #SUP: 5
5 -1 9 -1 #SUP: 2
5 -1 14 -1 #SUP: 4
5 -1 17 -1 #SUP: 3
5 -1 18 -1 #SUP: 11
5 -1 21 -1 #SUP: 4
5 -1 22 -1 #SUP: 2
5 -1 27 -1 #SUP: 6
5 -1 28 -1 #SUP: 24
5 -1 32 -1 #SUP: 14
5 -1 33 -1 #SUP: 2
5 -1 38 -1 #SUP: 2
5 -1 39 -1 #SUP: 6
5 -1 40 -1 #SUP: 5
5 -1 41 -1 #SUP: 4
5 -1 47 -1 #SUP: 2
5 -1 49 -1 #SUP: 2
5 -1 58 -1 #SUP: 2
5 -1 61 -1 #SUP: 6
5 -1 63 -1 #SUP: 3
5 -1 65 -1 #SUP: 3
5 -1 66 -1 #SUP: 7
5 -1 68 -1 #SUP: 2
5 -1 71 -1 #SUP: 4
5 -1 78 -1 #SUP: 2
5 -1 81 -1 #SUP: 7
5 -1 86 -1 #SUP: 2
5 -1 89 -1 #SUP: 9
5 -1 92 -1 #SUP: 9
5 -1 99 -1 #SUP: 4
5 -1 102 -1 #SUP: 12
5 -1 105 -1 #SUP: 2
5 -1 106 -1 #SUP: 7
5 -1 113 -1 #SUP: 3
5 -1 116 -1 #SUP: 9
5 -1 119 -1 #SUP: 4
5 -1 122 -1 #SUP: 3
5 -1 124 -1 #SUP: 3
5 -1 125 -1 #SUP: 7
5 -1 131 -1 #SUP: 2
5 -1 140 -1 #SUP: 3
5 -1 144 -1 #SUP: 6
5 -1 151 -1 #SUP: 7
5 -1 159 -1 #SUP: 12
5 -1 163 -1 #SUP: 2
5 -1 171 -1 #SUP: 9
5 -1 179 -1 #SUP: 2
5 -1 185 -1 #SUP: 2
5 -1 187 -1 #SUP: 2
5 -1 190 -1 #SUP: 14
5 -1 198 -1 #SUP: 3
5 -1 199 -1 #SUP: 2
5 -1 202 -1 #SUP: 2
5 -1 203 -1 #SUP: 3
5 -1 207 -1 #SUP: 2
5 -1 210 -1 #SUP: 4
5 -1 214 -1 #SUP: 10
5 -1 215 -1 #SUP: 2
5 -1 218 -1 #SUP: 2
5 -1 225 -1 #SUP: 3
5 -1 226 -1 #SUP: 3
5 -1 230 -1 #SUP: 4
5 -1 240 -1 #SUP: 2
5 -1 265 -1 #SUP: 8
5 -1 266 -1 #SUP: 6
5 -1 267 -1 #SUP: 2
5 -1 273 -1 #SUP: 2
5 -1 280 -1 #SUP: 5
5 -1 293 -1 #SUP: 2
5 -1 337 -1 #SUP: 4
5 -1 346 -1 #SUP: 2
5 -1 368 -1 #SUP: 2
5 -1 376 -1 #SUP: 3
5 -1 463 -1 #SUP: 2
5 -1 470 -1 #SUP: 2
5 -1 480 -1 #SUP: 2
5 -1 529 -1 #SUP: 5
5 -1 550 -1 #SUP: 4
5 -1 553 -1 #SUP: 4
5 -1 688 -1 #SUP: 5
5 -1 769 -1 #SUP: 4
5 -1 838 -1 #SUP: 2
5 -1 961 -1 #SUP: 2
5 -1 1231 -1 #SUP: 2
5 -1 1418 -1 #SUP: 2
5 -1 8322 -1 #SUP: 3
5 -1 13324 -1 #SUP: 3
6 -1 0 -1 #SUP: 2
6 -1 5 -1 #SUP: 3
6 -1 28 -1 #SUP: 3
6 -1 32 -1 #SUP: 2
6 -1 61 -1 #SUP: 2
6 -1 92 -1 #SUP: 2
6 -1 116 -1 #SUP: 2
6 -1 125 -1 #SUP: 2
6 -1 190 -1 #SUP: 2
6 -1 265 -1 #SUP: 2
6 -1 550 -1 #SUP: 2
12 -1 0 -1 #SUP: 3
12 -1 266 -1 #SUP: 2
14 -1 5 -1 #SUP: 11
14 -1 6 -1 #SUP: 2
14 -1 18 -1 #SUP: 2
14 -1 28 -1 #SUP: 4
14 -1 89 -1 #SUP: 2
14 -1 102 -1 #SUP: 5
14 -1 125 -1 #SUP: 2
14 -1 140 -1 #SUP: 2
14 -1 159 -1 #SUP: 2
14 -1 190 -1 #SUP: 3
14 -1 210 -1 #SUP: 2
14 -1 214 -1 #SUP: 2
17 -1 240 -1 #SUP: 2
18 -1 2 -1 #SUP: 2
18 -1 5 -1 #SUP: 3
18 -1 28 -1 #SUP: 3
18 -1 32 -1 #SUP: 2
18 -1 61 -1 #SUP: 2
18 -1 66 -1 #SUP: 3
18 -1 81 -1 #SUP: 2
18 -1 163 -1 #SUP: 2
18 -1 171 -1 #SUP: 2
18 -1 215 -1 #SUP: 2
18 -1 769 -1 #SUP: 2
21 -1 0 -1 #SUP: 2
21 -1 5 -1 #SUP: 2
21 -1 32 -1 #SUP: 2
21 -1 40 -1 #SUP: 2
22 -1 40 -1 #SUP: 2
27 -1 0 -1 #SUP: 2
27 -1 5 -1 #SUP: 2
27 -1 32 -1 #SUP: 3
28 -1 0 -1 #SUP: 3
28 -1 2 -1 #SUP: 3
28 -1 5 -1 #SUP: 10
28 -1 14 -1 #SUP: 4
28 -1 18 -1 #SUP: 3
28 -1 27 -1 #SUP: 3
28 -1 28 -1 #SUP: 4
28 -1 32 -1 #SUP: 11
28 -1 38 -1 #SUP: 2
28 -1 40 -1 #SUP: 2
28 -1 41 -1 #SUP: 3
28 -1 61 -1 #SUP: 2
28 -1 66 -1 #SUP: 3
28 -1 68 -1 #SUP: 2
28 -1 71 -1 #SUP: 2
28 -1 92 -1 #SUP: 5
28 -1 102 -1 #SUP: 4
28 -1 106 -1 #SUP: 2
28 -1 113 -1 #SUP: 2
28 -1 116 -1 #SUP: 9
28 -1 124 -1 #SUP: 2
28 -1 140 -1 #SUP: 3
28 -1 144 -1 #SUP: 4
28 -1 171 -1 #SUP: 5
28 -1 190 -1 #SUP: 2
28 -1 210 -1 #SUP: 3
28 -1 265 -1 #SUP: 2
28 -1 349 -1 #SUP: 2
28 -1 470 -1 #SUP: 2
28 -1 853 -1 #SUP: 2
32 -1 0 -1 #SUP: 4
32 -1 5 -1 #SUP: 13
32 -1 6 -1 #SUP: 2
32 -1 18 -1 #SUP: 3
32 -1 27 -1 #SUP: 2
32 -1 28 -1 #SUP: 3
32 -1 32 -1 #SUP: 7
32 -1 39 -1 #SUP: 2
32 -1 40 -1 #SUP: 2
32 -1 41 -1 #SUP: 3
32 -1 47 -1 #SUP: 5
32 -1 66 -1 #SUP: 2
32 -1 81 -1 #SUP: 3
32 -1 92 -1 #SUP: 3
32 -1 99 -1 #SUP: 2
32 -1 106 -1 #SUP: 3
32 -1 116 -1 #SUP: 4
32 -1 125 -1 #SUP: 2
32 -1 126 -1 #SUP: 3
32 -1 137 -1 #SUP: 2
32 -1 144 -1 #SUP: 2
32 -1 159 -1 #SUP: 2
32 -1 171 -1 #SUP: 3
32 -1 179 -1 #SUP: 2
32 -1 199 -1 #SUP: 2
32 -1 215 -1 #SUP: 2
32 -1 266 -1 #SUP: 4
32 -1 267 -1 #SUP: 3
32 -1 280 -1 #SUP: 2
32 -1 368 -1 #SUP: 2
32 -1 419 -1 #SUP: 2
32 -1 470 -1 #SUP: 2
32 -1 553 -1 #SUP: 3
32 -1 688 -1 #SUP: 2
32 -1 713 -1 #SUP: 2
32 -1 1177 -1 #SUP: 2
32 -1 2047 -1 #SUP: 2
33 -1 553 -1 #SUP: 2
38 -1 32 -1 #SUP: 2
38 -1 47 -1 #SUP: 3
38 -1 201 -1 #SUP: 2
38 -1 577 -1 #SUP: 3
38 -1 713 -1 #SUP: 3
39 -1 0 -1 #SUP: 2
39 -1 2 -1 #SUP: 2
39 -1 5 -1 #SUP: 3
39 -1 14 -1 #SUP: 2
39 -1 39 -1 #SUP: 2
39 -1 61 -1 #SUP: 2
39 -1 66 -1 #SUP: 3
39 -1 89 -1 #SUP: 3
39 -1 105 -1 #SUP: 2
39 -1 116 -1 #SUP: 2
39 -1 125 -1 #SUP: 6
40 -1 32 -1 #SUP: 2
40 -1 769 -1 #SUP: 2
41 -1 0 -1 #SUP: 2
41 -1 6 -1 #SUP: 2
41 -1 39 -1 #SUP: 2
41 -1 47 -1 #SUP: 2
41 -1 172 -1 #SUP: 2
47 -1 0 -1 #SUP: 2
47 -1 18 -1 #SUP: 2
47 -1 21 -1 #SUP: 2
47 -1 32 -1 #SUP: 5
47 -1 38 -1 #SUP: 3
47 -1 47 -1 #SUP: 5
47 -1 126 -1 #SUP: 2
47 -1 577 -1 #SUP: 3
47 -1 687 -1 #SUP: 3
47 -1 713 -1 #SUP: 3
58 -1 5 -1 #SUP: 2
58 -1 6 -1 #SUP: 2
61 -1 0 -1 #SUP: 2
61 -1 5 -1 #SUP: 3
61 -1 32 -1 #SUP: 3
61 -1 368 -1 #SUP: 2
63 -1 27 -1 #SUP: 3
65 -1 32 -1 #SUP: 2
66 -1 5 -1 #SUP: 4
66 -1 32 -1 #SUP: 3
66 -1 106 -1 #SUP: 2
66 -1 163 -1 #SUP: 2
66 -1 207 -1 #SUP: 2
66 -1 233 -1 #SUP: 2
66 -1 265 -1 #SUP: 3
68 -1 32 -1 #SUP: 2
69 -1 265 -1 #SUP: 2
71 -1 32 -1 #SUP: 2
78 -1 32 -1 #SUP: 2
81 -1 5 -1 #SUP: 8
81 -1 6 -1 #SUP: 4
81 -1 21 -1 #SUP: 2
81 -1 32 -1 #SUP: 2
81 -1 61 -1 #SUP: 2
81 -1 81 -1 #SUP: 2
81 -1 102 -1 #SUP: 2
81 -1 125 -1 #SUP: 2
81 -1 187 -1 #SUP: 2
81 -1 214 -1 #SUP: 3
81 -1 265 -1 #SUP: 3
81 -1 553 -1 #SUP: 2
86 -1 32 -1 #SUP: 2
86 -1 171 -1 #SUP: 2
86 -1 280 -1 #SUP: 2
89 -1 5 -1 #SUP: 4
89 -1 18 -1 #SUP: 2
89 -1 28 -1 #SUP: 4
89 -1 32 -1 #SUP: 2
89 -1 61 -1 #SUP: 2
89 -1 106 -1 #SUP: 2
89 -1 125 -1 #SUP: 2
89 -1 187 -1 #SUP: 2
89 -1 214 -1 #SUP: 3
89 -1 226 -1 #SUP: 2
89 -1 265 -1 #SUP: 3
89 -1 553 -1 #SUP: 2
92 -1 0 -1 #SUP: 4
92 -1 2 -1 #SUP: 2
92 -1 5 -1 #SUP: 7
92 -1 14 -1 #SUP: 2
92 -1 32 -1 #SUP: 3
92 -1 47 -1 #SUP: 2
92 -1 66 -1 #SUP: 3
92 -1 106 -1 #SUP: 2
92 -1 125 -1 #SUP: 5
92 -1 198 -1 #SUP: 2
92 -1 265 -1 #SUP: 2
92 -1 529 -1 #SUP: 2
99 -1 0 -1 #SUP: 2
99 -1 28 -1 #SUP: 2
99 -1 32 -1 #SUP: 2
99 -1 116 -1 #SUP: 3
99 -1 144 -1 #SUP: 2
99 -1 172 -1 #SUP: 2
102 -1 5 -1 #SUP: 3
102 -1 18 -1 #SUP: 2
102 -1 28 -1 #SUP: 5
102 -1 32 -1 #SUP: 2
102 -1 40 -1 #SUP: 2
102 -1 61 -1 #SUP: 2
102 -1 89 -1 #SUP: 3
102 -1 106 -1 #SUP: 2
102 -1 113 -1 #SUP: 2
102 -1 125 -1 #SUP: 2
102 -1 159 -1 #SUP: 4
102 -1 190 -1 #SUP: 3
102 -1 210 -1 #SUP: 3
105 -1 32 -1 #SUP: 2
106 -1 5 -1 #SUP: 5
106 -1 28 -1 #SUP: 2
106 -1 32 -1 #SUP: 2
106 -1 81 -1 #SUP: 3
106 -1 116 -1 #SUP: 2
106 -1 214 -1 #SUP: 2
106 -1 265 -1 #SUP: 3
106 -1 266 -1 #SUP: 2
113 -1 2 -1 #SUP: 2
113 -1 5 -1 #SUP: 2
113 -1 28 -1 #SUP: 2
113 -1 171 -1 #SUP: 2
116 -1 0 -1 #SUP: 2
116 -1 2 -1 #SUP: 2
116 -1 5 -1 #SUP: 3
116 -1 32 -1 #SUP: 2
116 -1 66 -1 #SUP: 2
116 -1 86 -1 #SUP: 2
116 -1 265 -1 #SUP: 2
116 -1 463 -1 #SUP: 2
116 -1 692 -1 #SUP: 2
116 -1 961 -1 #SUP: 2
119 -1 28 -1 #SUP: 2
119 -1 171 -1 #SUP: 2
119 -1 267 -1 #SUP: 2
119 -1 890 -1 #SUP: 2
119 -1 13324 -1 #SUP: 3
124 -1 28 -1 #SUP: 2
124 -1 122 -1 #SUP: 2
125 -1 2 -1 #SUP: 4
125 -1 5 -1 #SUP: 4
125 -1 14 -1 #SUP: 3
125 -1 28 -1 #SUP: 3
125 -1 32 -1 #SUP: 4
125 -1 39 -1 #SUP: 2
125 -1 47 -1 #SUP: 3
125 -1 61 -1 #SUP: 3
125 -1 66 -1 #SUP: 5
125 -1 71 -1 #SUP: 2
125 -1 81 -1 #SUP: 2
125 -1 89 -1 #SUP: 2
125 -1 105 -1 #SUP: 2
125 -1 125 -1 #SUP: 2
125 -1 190 -1 #SUP: 2
125 -1 203 -1 #SUP: 2
125 -1 233 -1 #SUP: 2
125 -1 251 -1 #SUP: 2
125 -1 280 -1 #SUP: 2
125 -1 419 -1 #SUP: 2
125 -1 2047 -1 #SUP: 2
126 -1 38 -1 #SUP: 3
126 -1 47 -1 #SUP: 3
126 -1 126 -1 #SUP: 2
126 -1 577 -1 #SUP: 3
126 -1 713 -1 #SUP: 3
140 -1 5 -1 #SUP: 2
144 -1 0 -1 #SUP: 2
144 -1 5 -1 #SUP: 3
144 -1 14 -1 #SUP: 2
144 -1 18 -1 #SUP: 3
144 -1 28 -1 #SUP: 3
144 -1 32 -1 #SUP: 2
144 -1 198 -1 #SUP: 2
151 -1 5 -1 #SUP: 2
151 -1 28 -1 #SUP: 7
151 -1 32 -1 #SUP: 2
151 -1 66 -1 #SUP: 2
151 -1 92 -1 #SUP: 2
151 -1 116 -1 #SUP: 2
159 -1 1 -1 #SUP: 2
159 -1 5 -1 #SUP: 4
159 -1 14 -1 #SUP: 2
159 -1 27 -1 #SUP: 2
159 -1 28 -1 #SUP: 10
159 -1 32 -1 #SUP: 3
159 -1 102 -1 #SUP: 2
159 -1 116 -1 #SUP: 3
159 -1 171 -1 #SUP: 2
159 -1 210 -1 #SUP: 3
163 -1 5 -1 #SUP: 2
163 -1 28 -1 #SUP: 2
171 -1 2 -1 #SUP: 2
171 -1 5 -1 #SUP: 2
171 -1 27 -1 #SUP: 3
171 -1 28 -1 #SUP: 2
171 -1 32 -1 #SUP: 4
171 -1 61 -1 #SUP: 2
171 -1 106 -1 #SUP: 2
171 -1 266 -1 #SUP: 2
171 -1 267 -1 #SUP: 3
171 -1 853 -1 #SUP: 2
171 -1 890 -1 #SUP: 2
172 -1 39 -1 #SUP: 2
187 -1 5 -1 #SUP: 3
187 -1 6 -1 #SUP: 2
187 -1 125 -1 #SUP: 2
187 -1 190 -1 #SUP: 2
187 -1 265 -1 #SUP: 2
190 -1 0 -1 #SUP: 2
190 -1 2 -1 #SUP: 2
190 -1 5 -1 #SUP: 5
190 -1 18 -1 #SUP: 2
190 -1 21 -1 #SUP: 2
190 -1 28 -1 #SUP: 2
190 -1 32 -1 #SUP: 3
190 -1 39 -1 #SUP: 3
190 -1 71 -1 #SUP: 2
190 -1 78 -1 #SUP: 2
190 -1 92 -1 #SUP: 3
190 -1 99 -1 #SUP: 2
190 -1 116 -1 #SUP: 2
190 -1 125 -1 #SUP: 5
190 -1 203 -1 #SUP: 3
190 -1 214 -1 #SUP: 2
190 -1 280 -1 #SUP: 2
190 -1 376 -1 #SUP: 2
190 -1 553 -1 #SUP: 2
198 -1 0 -1 #SUP: 2
198 -1 5 -1 #SUP: 3
198 -1 28 -1 #SUP: 3
198 -1 151 -1 #SUP: 2
199 -1 122 -1 #SUP: 2
199 -1 124 -1 #SUP: 2
199 -1 265 -1 #SUP: 2
199 -1 346 -1 #SUP: 2
210 -1 5 -1 #SUP: 2
210 -1 28 -1 #SUP: 2
210 -1 32 -1 #SUP: 2
214 -1 0 -1 #SUP: 3
214 -1 5 -1 #SUP: 5
214 -1 6 -1 #SUP: 3
214 -1 21 -1 #SUP: 2
214 -1 28 -1 #SUP: 4
214 -1 32 -1 #SUP: 2
214 -1 39 -1 #SUP: 2
214 -1 41 -1 #SUP: 2
214 -1 58 -1 #SUP: 2
214 -1 81 -1 #SUP: 2
214 -1 102 -1 #SUP: 2
214 -1 187 -1 #SUP: 2
214 -1 190 -1 #SUP: 3
214 -1 550 -1 #SUP: 2
214 -1 1418 -1 #SUP: 2
215 -1 5 -1 #SUP: 2
225 -1 2 -1 #SUP: 3
225 -1 18 -1 #SUP: 2
225 -1 81 -1 #SUP: 2
226 -1 0 -1 #SUP: 2
226 -1 39 -1 #SUP: 2
230 -1 5 -1 #SUP: 2
230 -1 49 -1 #SUP: 2
239 -1 81 -1 #SUP: 2
239 -1 125 -1 #SUP: 2
251 -1 28 -1 #SUP: 3
265 -1 5 -1 #SUP: 5
265 -1 28 -1 #SUP: 2
265 -1 122 -1 #SUP: 3
265 -1 124 -1 #SUP: 3
265 -1 125 -1 #SUP: 2
265 -1 214 -1 #SUP: 2
266 -1 5 -1 #SUP: 3
266 -1 41 -1 #SUP: 2
266 -1 81 -1 #SUP: 3
266 -1 86 -1 #SUP: 2
266 -1 106 -1 #SUP: 2
266 -1 116 -1 #SUP: 2
266 -1 128 -1 #SUP: 2
266 -1 214 -1 #SUP: 2
267 -1 5 -1 #SUP: 2
267 -1 28 -1 #SUP: 2
267 -1 32 -1 #SUP: 3
267 -1 81 -1 #SUP: 2
267 -1 128 -1 #SUP: 2
267 -1 266 -1 #SUP: 2
267 -1 853 -1 #SUP: 2
267 -1 890 -1 #SUP: 2
270 -1 47 -1 #SUP: 2
270 -1 125 -1 #SUP: 3
280 -1 0 -1 #SUP: 3
280 -1 32 -1 #SUP: 4
280 -1 66 -1 #SUP: 2
280 -1 137 -1 #SUP: 2
280 -1 203 -1 #SUP: 4
280 -1 280 -1 #SUP: 3
280 -1 1062 -1 #SUP: 2
280 -1 1780 -1 #SUP: 2
337 -1 131 -1 #SUP: 2
346 -1 122 -1 #SUP: 2
346 -1 124 -1 #SUP: 2
346 -1 265 -1 #SUP: 2
349 -1 116 -1 #SUP: 2
376 -1 5 -1 #SUP: 3
376 -1 116 -1 #SUP: 2
419 -1 47 -1 #SUP: 2
463 -1 280 -1 #SUP: 2
470 -1 5 -1 #SUP: 2
470 -1 92 -1 #SUP: 2
529 -1 5 -1 #SUP: 3
529 -1 32 -1 #SUP: 3
529 -1 106 -1 #SUP: 2
529 -1 171 -1 #SUP: 2
550 -1 5 -1 #SUP: 4
550 -1 28 -1 #SUP: 2
550 -1 32 -1 #SUP: 2
550 -1 92 -1 #SUP: 2
550 -1 151 -1 #SUP: 2
553 -1 0 -1 #SUP: 3
553 -1 28 -1 #SUP: 4
553 -1 61 -1 #SUP: 2
553 -1 89 -1 #SUP: 2
553 -1 99 -1 #SUP: 4
553 -1 116 -1 #SUP: 2
553 -1 172 -1 #SUP: 2
553 -1 267 -1 #SUP: 2
553 -1 553 -1 #SUP: 2
568 -1 2 -1 #SUP: 2
568 -1 2630 -1 #SUP: 2
598 -1 5 -1 #SUP: 2
688 -1 0 -1 #SUP: 2
688 -1 5 -1 #SUP: 2
688 -1 32 -1 #SUP: 4
688 -1 688 -1 #SUP: 2
713 -1 38 -1 #SUP: 2
713 -1 47 -1 #SUP: 2
713 -1 126 -1 #SUP: 2
713 -1 577 -1 #SUP: 3
713 -1 713 -1 #SUP: 2
853 -1 32 -1 #SUP: 2
890 -1 28 -1 #SUP: 2
890 -1 32 -1 #SUP: 2
890 -1 853 -1 #SUP: 2
1418 -1 0 -1 #SUP: 2
1418 -1 5 -1 #SUP: 2
1418 -1 550 -1 #SUP: 2
1780 -1 1062 -1 #SUP: 2
2630 -1 553 -1 #SUP: 2
8322 -1 32 -1 #SUP: 2
0 -1 5 -1 1 -1 #SUP: 2
0 -1 5 -1 5 -1 #SUP: 2
0 -1 5 -1 28 -1 #SUP: 4
0 -1 5 -1 32 -1 #SUP: 3
0 -1 5 -1 92 -1 #SUP: 2
0 -1 5 -1 102 -1 #SUP: 4
0 -1 5 -1 106 -1 #SUP: 2
0 -1 5 -1 116 -1 #SUP: 2
0 -1 5 -1 159 -1 #SUP: 2
0 -1 5 -1 171 -1 #SUP: 2
0 -1 5 -1 190 -1 #SUP: 3
0 -1 5 -1 266 -1 #SUP: 3
0 -1 5 -1 529 -1 #SUP: 3
0 -1 6 -1 5 -1 #SUP: 2
0 -1 6 -1 28 -1 #SUP: 2
0 -1 14 -1 5 -1 #SUP: 4
0 -1 14 -1 28 -1 #SUP: 2
0 -1 14 -1 102 -1 #SUP: 2
0 -1 32 -1 5 -1 #SUP: 2
0 -1 102 -1 190 -1 #SUP: 2
0 -1 337 -1 131 -1 #SUP: 2
0 -1 376 -1 5 -1 #SUP: 2
0 -1 529 -1 32 -1 #SUP: 2
0 -1 529 -1 171 -1 #SUP: 2
0 -1 550 -1 5 -1 #SUP: 2
1 -1 5 -1 171 -1 #SUP: 2
2 -1 14 -1 5 -1 #SUP: 2
2 -1 32 -1 41 -1 #SUP: 2
2 -1 32 -1 266 -1 #SUP: 2
2 -1 78 -1 32 -1 #SUP: 2
5 -1 0 -1 5 -1 #SUP: 5
5 -1 0 -1 6 -1 #SUP: 2
5 -1 0 -1 28 -1 #SUP: 2
5 -1 0 -1 32 -1 #SUP: 2
5 -1 0 -1 116 -1 #SUP: 2
5 -1 0 -1 376 -1 #SUP: 2
5 -1 0 -1 550 -1 #SUP: 2
5 -1 1 -1 1 -1 #SUP: 3
5 -1 1 -1 5 -1 #SUP: 2
5 -1 2 -1 21 -1 #SUP: 2
5 -1 2 -1 32 -1 #SUP: 3
5 -1 2 -1 78 -1 #SUP: 2
5 -1 2 -1 480 -1 #SUP: 2
5 -1 5 -1 0 -1 #SUP: 5
5 -1 5 -1 2 -1 #SUP: 3
5 -1 5 -1 5 -1 #SUP: 4
5 -1 5 -1 6 -1 #SUP: 3
5 -1 5 -1 18 -1 #SUP: 3
5 -1 5 -1 21 -1 #SUP: 2
5 -1 5 -1 28 -1 #SUP: 5
5 -1 5 -1 32 -1 #SUP: 2
5 -1 5 -1 58 -1 #SUP: 2
5 -1 5 -1 89 -1 #SUP: 2
5 -1 5 -1 102 -1 #SUP: 3
5 -1 5 -1 106 -1 #SUP: 4
5 -1 5 -1 116 -1 #SUP: 2
5 -1 5 -1 144 -1 #SUP: 2
5 -1 5 -1 151 -1 #SUP: 2
5 -1 5 -1 198 -1 #SUP: 2
5 -1 5 -1 214 -1 #SUP: 5
5 -1 5 -1 265 -1 #SUP: 2
5 -1 5 -1 266 -1 #SUP: 2
5 -1 5 -1 529 -1 #SUP: 3
5 -1 5 -1 550 -1 #SUP: 2
5 -1 5 -1 688 -1 #SUP: 2
5 -1 5 -1 769 -1 #SUP: 2
5 -1 6 -1 5 -1 #SUP: 3
5 -1 6 -1 28 -1 #SUP: 2
5 -1 6 -1 32 -1 #SUP: 2
5 -1 6 -1 265 -1 #SUP: 2
5 -1 6 -1 550 -1 #SUP: 2
5 -1 14 -1 5 -1 #SUP: 3
5 -1 14 -1 18 -1 #SUP: 2
5 -1 14 -1 102 -1 #SUP: 2
5 -1 17 -1 240 -1 #SUP: 2
5 -1 18 -1 5 -1 #SUP: 3
5 -1 18 -1 28 -1 #SUP: 3
5 -1 18 -1 66 -1 #SUP: 3
5 -1 18 -1 163 -1 #SUP: 2
5 -1 18 -1 171 -1 #SUP: 2
5 -1 18 -1 769 -1 #SUP: 2
5 -1 22 -1 40 -1 #SUP: 2
5 -1 28 -1 2 -1 #SUP: 2
5 -1 28 -1 5 -1 #SUP: 8
5 -1 28 -1 14 -1 #SUP: 2
5 -1 28 -1 18 -1 #SUP: 2
5 -1 28 -1 27 -1 #SUP: 3
5 -1 28 -1 28 -1 #SUP: 2
5 -1 28 -1 32 -1 #SUP: 7
5 -1 28 -1 38 -1 #SUP: 2
5 -1 28 -1 40 -1 #SUP: 2
5 -1 28 -1 61 -1 #SUP: 2
5 -1 28 -1 66 -1 #SUP: 3
5 -1 28 -1 68 -1 #SUP: 2
5 -1 28 -1 71 -1 #SUP: 2
5 -1 28 -1 92 -1 #SUP: 3
5 -1 28 -1 102 -1 #SUP: 2
5 -1 28 -1 113 -1 #SUP: 2
5 -1 28 -1 116 -1 #SUP: 5
5 -1 28 -1 140 -1 #SUP: 3
5 -1 28 -1 144 -1 #SUP: 3
5 -1 28 -1 171 -1 #SUP: 4
5 -1 28 -1 190 -1 #SUP: 2
5 -1 28 -1 210 -1 #SUP: 2
5 -1 32 -1 5 -1 #SUP: 5
5 -1 32 -1 27 -1 #SUP: 2
5 -1 32 -1 41 -1 #SUP: 2
5 -1 32 -1 106 -1 #SUP: 3
5 -1 32 -1 116 -1 #SUP: 2
5 -1 32 -1 171 -1 #SUP: 2
5 -1 32 -1 280 -1 #SUP: 2
5 -1 39 -1 5 -1 #SUP: 2
5 -1 39 -1 125 -1 #SUP: 2
5 -1 40 -1 769 -1 #SUP: 2
5 -1 63 -1 27 -1 #SUP: 2
5 -1 65 -1 32 -1 #SUP: 2
5 -1 66 -1 5 -1 #SUP: 4
5 -1 66 -1 106 -1 #SUP: 2
5 -1 66 -1 163 -1 #SUP: 2
5 -1 66 -1 207 -1 #SUP: 2
5 -1 66 -1 265 -1 #SUP: 2
5 -1 81 -1 5 -1 #SUP: 6
5 -1 81 -1 6 -1 #SUP: 2
5 -1 81 -1 214 -1 #SUP: 2
5 -1 86 -1 32 -1 #SUP: 2
5 -1 89 -1 5 -1 #SUP: 4
5 -1 89 -1 18 -1 #SUP: 2
5 -1 89 -1 28 -1 #SUP: 3
5 -1 89 -1 32 -1 #SUP: 2
5 -1 89 -1 106 -1 #SUP: 2
5 -1 89 -1 214 -1 #SUP: 3
5 -1 89 -1 226 -1 #SUP: 2
5 -1 89 -1 265 -1 #SUP: 3
5 -1 89 -1 553 -1 #SUP: 2
5 -1 92 -1 0 -1 #SUP: 2
5 -1 92 -1 5 -1 #SUP: 4
5 -1 99 -1 28 -1 #SUP: 2
5 -1 99 -1 116 -1 #SUP: 2
5 -1 99 -1 144 -1 #SUP: 2
5 -1 102 -1 5 -1 #SUP: 3
5 -1 102 -1 18 -1 #SUP: 2
5 -1 102 -1 28 -1 #SUP: 5
5 -1 102 -1 40 -1 #SUP: 2
5 -1 102 -1 61 -1 #SUP: 2
5 -1 102 -1 89 -1 #SUP: 3
5 -1 102 -1 106 -1 #SUP: 2
5 -1 102 -1 113 -1 #SUP: 2
5 -1 102 -1 125 -1 #SUP: 2
5 -1 102 -1 159 -1 #SUP: 4
5 -1 102 -1 190 -1 #SUP: 3
5 -1 102 -1 210 -1 #SUP: 3
5 -1 106 -1 5 -1 #SUP: 4
5 -1 106 -1 32 -1 #SUP: 2
5 -1 106 -1 81 -1 #SUP: 3
5 -1 106 -1 116 -1 #SUP: 2
5 -1 106 -1 214 -1 #SUP: 2
5 -1 106 -1 265 -1 #SUP: 3
5 -1 106 -1 266 -1 #SUP: 2
5 -1 116 -1 5 -1 #SUP: 2
5 -1 116 -1 32 -1 #SUP: 2
5 -1 116 -1 961 -1 #SUP: 2
5 -1 119 -1 13324 -1 #SUP: 3
5 -1 124 -1 122 -1 #SUP: 2
5 -1 125 -1 5 -1 #SUP: 2
5 -1 125 -1 61 -1 #SUP: 2
5 -1 125 -1 71 -1 #SUP: 2
5 -1 125 -1 203 -1 #SUP: 2
5 -1 125 -1 280 -1 #SUP: 2
5 -1 140 -1 5 -1 #SUP: 2
5 -1 144 -1 5 -1 #SUP: 2
5 -1 144 -1 18 -1 #SUP: 2
5 -1 144 -1 28 -1 #SUP: 3
5 -1 144 -1 198 -1 #SUP: 2
5 -1 151 -1 5 -1 #SUP: 2
5 -1 151 -1 28 -1 #SUP: 7
5 -1 151 -1 32 -1 #SUP: 2
5 -1 151 -1 66 -1 #SUP: 2
5 -1 151 -1 92 -1 #SUP: 2
5 -1 151 -1 116 -1 #SUP: 2
5 -1 159 -1 1 -1 #SUP: 2
5 -1 159 -1 5 -1 #SUP: 4
5 -1 159 -1 14 -1 #SUP: 2
5 -1 159 -1 27 -1 #SUP: 2
5 -1 159 -1 28 -1 #SUP: 10
5 -1 159 -1 32 -1 #SUP: 2
5 -1 159 -1 102 -1 #SUP: 2
5 -1 159 -1 116 -1 #SUP: 3
5 -1 159 -1 171 -1 #SUP: 2
5 -1 159 -1 210 -1 #SUP: 2
5 -1 171 -1 2 -1 #SUP: 2
5 -1 171 -1 27 -1 #SUP: 3
5 -1 171 -1 32 -1 #SUP: 2
5 -1 171 -1 61 -1 #SUP: 2
5 -1 171 -1 106 -1 #SUP: 2
5 -1 171 -1 267 -1 #SUP: 2
5 -1 187 -1 5 -1 #SUP: 2
5 -1 187 -1 6 -1 #SUP: 2
5 -1 190 -1 2 -1 #SUP: 2
5 -1 190 -1 5 -1 #SUP: 4
5 -1 190 -1 21 -1 #SUP: 2
5 -1 190 -1 28 -1 #SUP: 2
5 -1 190 -1 39 -1 #SUP: 3
5 -1 190 -1 71 -1 #SUP: 2
5 -1 190 -1 78 -1 #SUP: 2
5 -1 190 -1 92 -1 #SUP: 3
5 -1 190 -1 99 -1 #SUP: 2
5 -1 190 -1 116 -1 #SUP: 2
5 -1 190 -1 125 -1 #SUP: 5
5 -1 190 -1 203 -1 #SUP: 3
5 -1 190 -1 214 -1 #SUP: 2
5 -1 190 -1 280 -1 #SUP: 2
5 -1 190 -1 376 -1 #SUP: 2
5 -1 190 -1 553 -1 #SUP: 2
5 -1 198 -1 5 -1 #SUP: 2
5 -1 198 -1 28 -1 #SUP: 2
5 -1 198 -1 151 -1 #SUP: 2
5 -1 199 -1 122 -1 #SUP: 2
5 -1 199 -1 124 -1 #SUP: 2
5 -1 199 -1 265 -1 #SUP: 2
5 -1 199 -1 346 -1 #SUP: 2
5 -1 214 -1 0 -1 #SUP: 3
5 -1 214 -1 5 -1 #SUP: 5
5 -1 214 -1 6 -1 #SUP: 3
5 -1 214 -1 21 -1 #SUP: 2
5 -1 214 -1 28 -1 #SUP: 3
5 -1 214 -1 32 -1 #SUP: 2
5 -1 214 -1 41 -1 #SUP: 2
5 -1 214 -1 58 -1 #SUP: 2
5 -1 214 -1 81 -1 #SUP: 2
5 -1 214 -1 187 -1 #SUP: 2
5 -1 214 -1 190 -1 #SUP: 2
5 -1 214 -1 550 -1 #SUP: 2
5 -1 214 -1 1418 -1 #SUP: 2
5 -1 226 -1 39 -1 #SUP: 2
5 -1 230 -1 5 -1 #SUP: 2
5 -1 230 -1 49 -1 #SUP: 2
5 -1 265 -1 5 -1 #SUP: 4
5 -1 265 -1 122 -1 #SUP: 3
5 -1 265 -1 124 -1 #SUP: 3
5 -1 265 -1 214 -1 #SUP: 2
5 -1 266 -1 81 -1 #SUP: 2
5 -1 266 -1 106 -1 #SUP: 2
5 -1 266 -1 116 -1 #SUP: 2
5 -1 280 -1 203 -1 #SUP: 2
5 -1 337 -1 131 -1 #SUP: 2
5 -1 346 -1 122 -1 #SUP: 2
5 -1 346 -1 124 -1 #SUP: 2
5 -1 346 -1 265 -1 #SUP: 2
5 -1 376 -1 5 -1 #SUP: 2
5 -1 376 -1 116 -1 #SUP: 2
5 -1 463 -1 280 -1 #SUP: 2
5 -1 529 -1 5 -1 #SUP: 2
5 -1 529 -1 32 -1 #SUP: 3
5 -1 529 -1 106 -1 #SUP: 2
5 -1 529 -1 171 -1 #SUP: 2
5 -1 550 -1 5 -1 #SUP: 3
5 -1 553 -1 99 -1 #SUP: 2
5 -1 688 -1 5 -1 #SUP: 2
5 -1 688 -1 32 -1 #SUP: 2
5 -1 1418 -1 0 -1 #SUP: 2
5 -1 1418 -1 5 -1 #SUP: 2
5 -1 1418 -1 550 -1 #SUP: 2
6 -1 28 -1 116 -1 #SUP: 2
6 -1 32 -1 0 -1 #SUP: 2
6 -1 92 -1 5 -1 #SUP: 2
6 -1 190 -1 125 -1 #SUP: 2
6 -1 265 -1 5 -1 #SUP: 2
6 -1 550 -1 5 -1 #SUP: 2
6 -1 550 -1 92 -1 #SUP: 2
12 -1 0 -1 266 -1 #SUP: 2
14 -1 5 -1 5 -1 #SUP: 3
14 -1 5 -1 6 -1 #SUP: 2
14 -1 5 -1 18 -1 #SUP: 2
14 -1 5 -1 28 -1 #SUP: 4
14 -1 5 -1 89 -1 #SUP: 2
14 -1 5 -1 102 -1 #SUP: 5
14 -1 5 -1 140 -1 #SUP: 2
14 -1 5 -1 159 -1 #SUP: 2
14 -1 5 -1 190 -1 #SUP: 3
14 -1 5 -1 210 -1 #SUP: 2
14 -1 5 -1 214 -1 #SUP: 2
14 -1 28 -1 140 -1 #SUP: 2
14 -1 102 -1 28 -1 #SUP: 2
14 -1 102 -1 190 -1 #SUP: 2
14 -1 102 -1 210 -1 #SUP: 2
14 -1 159 -1 28 -1 #SUP: 2
18 -1 28 -1 171 -1 #SUP: 2
18 -1 66 -1 5 -1 #SUP: 2
18 -1 66 -1 163 -1 #SUP: 2
27 -1 0 -1 5 -1 #SUP: 2
28 -1 0 -1 5 -1 #SUP: 2
28 -1 0 -1 14 -1 #SUP: 2
28 -1 5 -1 5 -1 #SUP: 2
28 -1 5 -1 28 -1 #SUP: 3
28 -1 5 -1 102 -1 #SUP: 4
28 -1 5 -1 106 -1 #SUP: 2
28 -1 5 -1 124 -1 #SUP: 2
28 -1 5 -1 265 -1 #SUP: 2
28 -1 14 -1 5 -1 #SUP: 4
28 -1 14 -1 28 -1 #SUP: 2
28 -1 14 -1 102 -1 #SUP: 3
28 -1 32 -1 5 -1 #SUP: 2
28 -1 32 -1 18 -1 #SUP: 2
28 -1 32 -1 32 -1 #SUP: 3
28 -1 32 -1 41 -1 #SUP: 2
28 -1 32 -1 92 -1 #SUP: 2
28 -1 32 -1 116 -1 #SUP: 3
28 -1 32 -1 470 -1 #SUP: 2
28 -1 66 -1 5 -1 #SUP: 2
28 -1 92 -1 5 -1 #SUP: 3
28 -1 102 -1 28 -1 #SUP: 2
28 -1 116 -1 5 -1 #SUP: 2
28 -1 140 -1 5 -1 #SUP: 2
28 -1 144 -1 5 -1 #SUP: 2
28 -1 144 -1 18 -1 #SUP: 2
28 -1 171 -1 2 -1 #SUP: 2
28 -1 265 -1 124 -1 #SUP: 2
28 -1 349 -1 116 -1 #SUP: 2
28 -1 470 -1 92 -1 #SUP: 2
28 -1 853 -1 32 -1 #SUP: 2
32 -1 0 -1 5 -1 #SUP: 2
32 -1 5 -1 0 -1 #SUP: 2
32 -1 5 -1 5 -1 #SUP: 2
32 -1 5 -1 106 -1 #SUP: 2
32 -1 5 -1 159 -1 #SUP: 2
32 -1 5 -1 171 -1 #SUP: 2
32 -1 5 -1 266 -1 #SUP: 2
32 -1 5 -1 368 -1 #SUP: 2
32 -1 18 -1 32 -1 #SUP: 2
32 -1 41 -1 6 -1 #SUP: 2
32 -1 47 -1 32 -1 #SUP: 2
32 -1 47 -1 713 -1 #SUP: 2
32 -1 81 -1 5 -1 #SUP: 2
32 -1 92 -1 5 -1 #SUP: 2
32 -1 106 -1 5 -1 #SUP: 2
32 -1 106 -1 266 -1 #SUP: 2
32 -1 126 -1 47 -1 #SUP: 2
32 -1 126 -1 713 -1 #SUP: 2
32 -1 171 -1 27 -1 #SUP: 2
32 -1 266 -1 5 -1 #SUP: 2
32 -1 266 -1 81 -1 #SUP: 2
32 -1 470 -1 5 -1 #SUP: 2
32 -1 470 -1 92 -1 #SUP: 2
38 -1 32 -1 47 -1 #SUP: 2
38 -1 47 -1 32 -1 #SUP: 2
38 -1 47 -1 47 -1 #SUP: 2
38 -1 47 -1 577 -1 #SUP: 3
38 -1 47 -1 713 -1 #SUP: 3
38 -1 713 -1 577 -1 #SUP: 3
39 -1 125 -1 5 -1 #SUP: 2
39 -1 125 -1 14 -1 #SUP: 2
39 -1 125 -1 61 -1 #SUP: 2
39 -1 125 -1 66 -1 #SUP: 2
39 -1 125 -1 89 -1 #SUP: 2
39 -1 125 -1 105 -1 #SUP: 2
41 -1 172 -1 39 -1 #SUP: 2
47 -1 0 -1 32 -1 #SUP: 2
47 -1 32 -1 47 -1 #SUP: 4
47 -1 38 -1 47 -1 #SUP: 3
47 -1 38 -1 713 -1 #SUP: 2
47 -1 47 -1 713 -1 #SUP: 2
47 -1 126 -1 38 -1 #SUP: 2
47 -1 126 -1 47 -1 #SUP: 2
47 -1 126 -1 713 -1 #SUP: 2
47 -1 713 -1 38 -1 #SUP: 2
47 -1 713 -1 47 -1 #SUP: 2
47 -1 713 -1 126 -1 #SUP: 2
47 -1 713 -1 577 -1 #SUP: 3
47 -1 713 -1 713 -1 #SUP: 2
58 -1 5 -1 6 -1 #SUP: 2
61 -1 32 -1 5 -1 #SUP: 2
65 -1 32 -1 32 -1 #SUP: 2
66 -1 5 -1 106 -1 #SUP: 2
66 -1 5 -1 265 -1 #SUP: 2
66 -1 106 -1 265 -1 #SUP: 2
81 -1 5 -1 5 -1 #SUP: 2
81 -1 5 -1 6 -1 #SUP: 4
81 -1 5 -1 21 -1 #SUP: 2
81 -1 5 -1 32 -1 #SUP: 2
81 -1 5 -1 102 -1 #SUP: 2
81 -1 5 -1 125 -1 #SUP: 2
81 -1 5 -1 187 -1 #SUP: 2
81 -1 5 -1 214 -1 #SUP: 3
81 -1 5 -1 265 -1 #SUP: 2
81 -1 6 -1 32 -1 #SUP: 2
81 -1 6 -1 61 -1 #SUP: 2
81 -1 6 -1 265 -1 #SUP: 2
81 -1 81 -1 5 -1 #SUP: 2
81 -1 214 -1 187 -1 #SUP: 2
86 -1 32 -1 32 -1 #SUP: 2
89 -1 5 -1 125 -1 #SUP: 2
89 -1 5 -1 214 -1 #SUP: 2
89 -1 106 -1 5 -1 #SUP: 2
89 -1 106 -1 214 -1 #SUP: 2
89 -1 106 -1 265 -1 #SUP: 2
89 -1 265 -1 5 -1 #SUP: 3
89 -1 265 -1 125 -1 #SUP: 2
89 -1 265 -1 214 -1 #SUP: 2
92 -1 0 -1 5 -1 #SUP: 4
92 -1 0 -1 14 -1 #SUP: 2
92 -1 2 -1 32 -1 #SUP: 2
92 -1 5 -1 5 -1 #SUP: 2
92 -1 5 -1 106 -1 #SUP: 2
92 -1 5 -1 529 -1 #SUP: 2
92 -1 14 -1 5 -1 #SUP: 2
92 -1 125 -1 66 -1 #SUP: 2
92 -1 265 -1 5 -1 #SUP: 2
99 -1 28 -1 32 -1 #SUP: 2
99 -1 144 -1 32 -1 #SUP: 2
102 -1 28 -1 5 -1 #SUP: 2
102 -1 28 -1 32 -1 #SUP: 2
102 -1 28 -1 61 -1 #SUP: 2
102 -1 28 -1 210 -1 #SUP: 2
102 -1 106 -1 5 -1 #SUP: 2
102 -1 159 -1 28 -1 #SUP: 3
102 -1 159 -1 210 -1 #SUP: 2
106 -1 5 -1 81 -1 #SUP: 2
106 -1 5 -1 214 -1 #SUP: 2
106 -1 81 -1 5 -1 #SUP: 3
106 -1 265 -1 5 -1 #SUP: 2
106 -1 265 -1 214 -1 #SUP: 2
106 -1 266 -1 116 -1 #SUP: 2
113 -1 5 -1 28 -1 #SUP: 2
113 -1 5 -1 171 -1 #SUP: 2
113 -1 28 -1 171 -1 #SUP: 2
119 -1 171 -1 28 -1 #SUP: 2
119 -1 171 -1 267 -1 #SUP: 2
119 -1 171 -1 890 -1 #SUP: 2
119 -1 267 -1 28 -1 #SUP: 2
119 -1 267 -1 890 -1 #SUP: 2
119 -1 890 -1 28 -1 #SUP: 2
125 -1 2 -1 32 -1 #SUP: 2
125 -1 2 -1 2047 -1 #SUP: 2
125 -1 5 -1 39 -1 #SUP: 2
125 -1 5 -1 190 -1 #SUP: 2
125 -1 14 -1 5 -1 #SUP: 2
125 -1 66 -1 32 -1 #SUP: 2
125 -1 66 -1 233 -1 #SUP: 2
125 -1 251 -1 28 -1 #SUP: 2
125 -1 280 -1 203 -1 #SUP: 2
126 -1 38 -1 47 -1 #SUP: 3
126 -1 38 -1 577 -1 #SUP: 3
126 -1 38 -1 713 -1 #SUP: 3
126 -1 47 -1 38 -1 #SUP: 2
126 -1 47 -1 126 -1 #SUP: 2
126 -1 47 -1 577 -1 #SUP: 3
126 -1 47 -1 713 -1 #SUP: 3
126 -1 126 -1 38 -1 #SUP: 2
126 -1 713 -1 38 -1 #SUP: 2
126 -1 713 -1 126 -1 #SUP: 2
126 -1 713 -1 577 -1 #SUP: 3
144 -1 32 -1 18 -1 #SUP: 2
144 -1 198 -1 28 -1 #SUP: 2
151 -1 28 -1 5 -1 #SUP: 2
151 -1 28 -1 32 -1 #SUP: 2
151 -1 28 -1 66 -1 #SUP: 2
151 -1 28 -1 92 -1 #SUP: 2
151 -1 28 -1 116 -1 #SUP: 2
151 -1 32 -1 116 -1 #SUP: 2
151 -1 66 -1 5 -1 #SUP: 2
159 -1 1 -1 1 -1 #SUP: 2
159 -1 5 -1 102 -1 #SUP: 2
159 -1 14 -1 5 -1 #SUP: 2
159 -1 14 -1 102 -1 #SUP: 2
159 -1 28 -1 5 -1 #SUP: 3
159 -1 28 -1 14 -1 #SUP: 2
159 -1 28 -1 27 -1 #SUP: 2
159 -1 28 -1 32 -1 #SUP: 3
159 -1 28 -1 102 -1 #SUP: 2
159 -1 28 -1 116 -1 #SUP: 3
159 -1 28 -1 210 -1 #SUP: 3
171 -1 27 -1 32 -1 #SUP: 2
171 -1 28 -1 853 -1 #SUP: 2
171 -1 106 -1 5 -1 #SUP: 2
171 -1 267 -1 28 -1 #SUP: 2
171 -1 267 -1 32 -1 #SUP: 2
171 -1 267 -1 853 -1 #SUP: 2
171 -1 267 -1 890 -1 #SUP: 2
171 -1 890 -1 28 -1 #SUP: 2
171 -1 890 -1 853 -1 #SUP: 2
187 -1 5 -1 125 -1 #SUP: 2
187 -1 5 -1 190 -1 #SUP: 2
187 -1 6 -1 125 -1 #SUP: 2
187 -1 6 -1 190 -1 #SUP: 2
187 -1 190 -1 125 -1 #SUP: 2
187 -1 265 -1 5 -1 #SUP: 2
190 -1 2 -1 32 -1 #SUP: 2
190 -1 2 -1 78 -1 #SUP: 2
190 -1 5 -1 21 -1 #SUP: 2
190 -1 5 -1 28 -1 #SUP: 2
190 -1 5 -1 214 -1 #SUP: 2
190 -1 39 -1 125 -1 #SUP: 2
190 -1 78 -1 32 -1 #SUP: 2
190 -1 92 -1 5 -1 #SUP: 2
190 -1 125 -1 71 -1 #SUP: 2
190 -1 125 -1 203 -1 #SUP: 2
190 -1 125 -1 280 -1 #SUP: 2
190 -1 214 -1 21 -1 #SUP: 2
190 -1 280 -1 203 -1 #SUP: 2
190 -1 376 -1 5 -1 #SUP: 2
198 -1 0 -1 5 -1 #SUP: 2
198 -1 0 -1 28 -1 #SUP: 2
198 -1 5 -1 28 -1 #SUP: 3
198 -1 5 -1 151 -1 #SUP: 2
198 -1 28 -1 5 -1 #SUP: 2
198 -1 28 -1 28 -1 #SUP: 2
198 -1 151 -1 28 -1 #SUP: 2
199 -1 124 -1 122 -1 #SUP: 2
199 -1 265 -1 122 -1 #SUP: 2
199 -1 265 -1 124 -1 #SUP: 2
199 -1 346 -1 122 -1 #SUP: 2
199 -1 346 -1 124 -1 #SUP: 2
199 -1 346 -1 265 -1 #SUP: 2
214 -1 0 -1 5 -1 #SUP: 3
214 -1 0 -1 6 -1 #SUP: 2
214 -1 0 -1 550 -1 #SUP: 2
214 -1 5 -1 0 -1 #SUP: 2
214 -1 5 -1 5 -1 #SUP: 2
214 -1 5 -1 6 -1 #SUP: 2
214 -1 5 -1 102 -1 #SUP: 2
214 -1 5 -1 190 -1 #SUP: 2
214 -1 5 -1 550 -1 #SUP: 2
214 -1 6 -1 5 -1 #SUP: 2
214 -1 6 -1 190 -1 #SUP: 2
214 -1 81 -1 5 -1 #SUP: 2
214 -1 187 -1 5 -1 #SUP: 2
214 -1 187 -1 6 -1 #SUP: 2
214 -1 187 -1 190 -1 #SUP: 2
214 -1 550 -1 5 -1 #SUP: 2
214 -1 1418 -1 0 -1 #SUP: 2
214 -1 1418 -1 5 -1 #SUP: 2
214 -1 1418 -1 550 -1 #SUP: 2
225 -1 18 -1 2 -1 #SUP: 2
225 -1 18 -1 81 -1 #SUP: 2
265 -1 5 -1 125 -1 #SUP: 2
265 -1 5 -1 214 -1 #SUP: 2
265 -1 124 -1 122 -1 #SUP: 2
266 -1 5 -1 214 -1 #SUP: 2
266 -1 81 -1 5 -1 #SUP: 3
266 -1 81 -1 214 -1 #SUP: 2
267 -1 28 -1 32 -1 #SUP: 2
267 -1 28 -1 853 -1 #SUP: 2
267 -1 81 -1 5 -1 #SUP: 2
267 -1 266 -1 5 -1 #SUP: 2
267 -1 266 -1 81 -1 #SUP: 2
267 -1 890 -1 28 -1 #SUP: 2
267 -1 890 -1 32 -1 #SUP: 2
267 -1 890 -1 853 -1 #SUP: 2
270 -1 125 -1 47 -1 #SUP: 2
280 -1 0 -1 32 -1 #SUP: 2
280 -1 32 -1 137 -1 #SUP: 2
280 -1 1780 -1 1062 -1 #SUP: 2
346 -1 124 -1 122 -1 #SUP: 2
346 -1 265 -1 122 -1 #SUP: 2
346 -1 265 -1 124 -1 #SUP: 2
376 -1 5 -1 116 -1 #SUP: 2
470 -1 92 -1 5 -1 #SUP: 2
529 -1 106 -1 5 -1 #SUP: 2
550 -1 5 -1 28 -1 #SUP: 2
550 -1 5 -1 151 -1 #SUP: 2
550 -1 92 -1 5 -1 #SUP: 2
550 -1 151 -1 28 -1 #SUP: 2
553 -1 99 -1 0 -1 #SUP: 2
553 -1 99 -1 172 -1 #SUP: 2
568 -1 2 -1 2630 -1 #SUP: 2
688 -1 32 -1 688 -1 #SUP: 2
713 -1 38 -1 47 -1 #SUP: 2
713 -1 38 -1 577 -1 #SUP: 2
713 -1 38 -1 713 -1 #SUP: 2
713 -1 47 -1 577 -1 #SUP: 2
713 -1 47 -1 713 -1 #SUP: 2
713 -1 126 -1 38 -1 #SUP: 2
713 -1 126 -1 47 -1 #SUP: 2
713 -1 126 -1 577 -1 #SUP: 2
713 -1 126 -1 713 -1 #SUP: 2
713 -1 713 -1 577 -1 #SUP: 2
890 -1 28 -1 32 -1 #SUP: 2
890 -1 28 -1 853 -1 #SUP: 2
1418 -1 0 -1 5 -1 #SUP: 2
1418 -1 0 -1 550 -1 #SUP: 2
1418 -1 5 -1 0 -1 #SUP: 2
1418 -1 5 -1 5 -1 #SUP: 2
1418 -1 5 -1 550 -1 #SUP: 2
1418 -1 550 -1 5 -1 #SUP: 2
0 -1 5 -1 102 -1 190 -1 #SUP: 2
0 -1 5 -1 529 -1 32 -1 #SUP: 2
0 -1 5 -1 529 -1 171 -1 #SUP: 2
0 -1 14 -1 5 -1 28 -1 #SUP: 2
0 -1 14 -1 5 -1 102 -1 #SUP: 2
5 -1 0 -1 5 -1 28 -1 #SUP: 2
5 -1 0 -1 6 -1 5 -1 #SUP: 2
5 -1 0 -1 550 -1 5 -1 #SUP: 2
5 -1 5 -1 0 -1 5 -1 #SUP: 2
5 -1 5 -1 0 -1 550 -1 #SUP: 2
5 -1 5 -1 106 -1 265 -1 #SUP: 2
5 -1 5 -1 151 -1 28 -1 #SUP: 2
5 -1 5 -1 214 -1 21 -1 #SUP: 2
5 -1 5 -1 214 -1 58 -1 #SUP: 2
5 -1 5 -1 529 -1 5 -1 #SUP: 2
5 -1 5 -1 550 -1 5 -1 #SUP: 2
5 -1 6 -1 265 -1 5 -1 #SUP: 2
5 -1 6 -1 550 -1 5 -1 #SUP: 2
5 -1 14 -1 5 -1 18 -1 #SUP: 2
5 -1 14 -1 5 -1 102 -1 #SUP: 2
5 -1 18 -1 28 -1 171 -1 #SUP: 2
5 -1 18 -1 66 -1 5 -1 #SUP: 2
5 -1 18 -1 66 -1 163 -1 #SUP: 2
5 -1 28 -1 5 -1 102 -1 #SUP: 2
5 -1 28 -1 14 -1 5 -1 #SUP: 2
5 -1 28 -1 14 -1 102 -1 #SUP: 2
5 -1 28 -1 32 -1 5 -1 #SUP: 2
5 -1 28 -1 32 -1 116 -1 #SUP: 2
5 -1 28 -1 66 -1 5 -1 #SUP: 2
5 -1 28 -1 140 -1 5 -1 #SUP: 2
5 -1 28 -1 144 -1 18 -1 #SUP: 2
5 -1 28 -1 171 -1 2 -1 #SUP: 2
5 -1 32 -1 5 -1 106 -1 #SUP: 2
5 -1 32 -1 171 -1 27 -1 #SUP: 2
5 -1 66 -1 5 -1 106 -1 #SUP: 2
5 -1 66 -1 5 -1 265 -1 #SUP: 2
5 -1 66 -1 106 -1 265 -1 #SUP: 2
5 -1 81 -1 5 -1 6 -1 #SUP: 2
5 -1 81 -1 5 -1 214 -1 #SUP: 2
5 -1 89 -1 5 -1 214 -1 #SUP: 2
5 -1 89 -1 106 -1 5 -1 #SUP: 2
5 -1 89 -1 106 -1 214 -1 #SUP: 2
5 -1 89 -1 106 -1 265 -1 #SUP: 2
5 -1 89 -1 265 -1 5 -1 #SUP: 3
5 -1 89 -1 265 -1 214 -1 #SUP: 2
5 -1 102 -1 28 -1 5 -1 #SUP: 2
5 -1 102 -1 28 -1 61 -1 #SUP: 2
5 -1 102 -1 28 -1 210 -1 #SUP: 2
5 -1 102 -1 106 -1 5 -1 #SUP: 2
5 -1 102 -1 159 -1 28 -1 #SUP: 3
5 -1 102 -1 159 -1 210 -1 #SUP: 2
5 -1 106 -1 5 -1 214 -1 #SUP: 2
5 -1 106 -1 265 -1 5 -1 #SUP: 2
5 -1 106 -1 265 -1 214 -1 #SUP: 2
5 -1 106 -1 266 -1 116 -1 #SUP: 2
5 -1 125 -1 280 -1 203 -1 #SUP: 2
5 -1 151 -1 28 -1 5 -1 #SUP: 2
5 -1 151 -1 28 -1 32 -1 #SUP: 2
5 -1 151 -1 28 -1 66 -1 #SUP: 2
5 -1 151 -1 28 -1 92 -1 #SUP: 2
5 -1 151 -1 28 -1 116 -1 #SUP: 2
5 -1 151 -1 32 -1 116 -1 #SUP: 2
5 -1 151 -1 66 -1 5 -1 #SUP: 2
5 -1 159 -1 1 -1 1 -1 #SUP: 2
5 -1 159 -1 5 -1 102 -1 #SUP: 2
5 -1 159 -1 14 -1 5 -1 #SUP: 2
5 -1 159 -1 14 -1 102 -1 #SUP: 2
5 -1 159 -1 28 -1 5 -1 #SUP: 3
5 -1 159 -1 28 -1 14 -1 #SUP: 2
5 -1 159 -1 28 -1 27 -1 #SUP: 2
5 -1 159 -1 28 -1 32 -1 #SUP: 2
5 -1 159 -1 28 -1 102 -1 #SUP: 2
5 -1 159 -1 28 -1 116 -1 #SUP: 3
5 -1 159 -1 28 -1 210 -1 #SUP: 2
5 -1 190 -1 2 -1 78 -1 #SUP: 2
5 -1 190 -1 5 -1 21 -1 #SUP: 2
5 -1 190 -1 5 -1 28 -1 #SUP: 2
5 -1 190 -1 5 -1 214 -1 #SUP: 2
5 -1 190 -1 39 -1 125 -1 #SUP: 2
5 -1 190 -1 125 -1 71 -1 #SUP: 2
5 -1 190 -1 125 -1 203 -1 #SUP: 2
5 -1 190 -1 125 -1 280 -1 #SUP: 2
5 -1 190 -1 214 -1 21 -1 #SUP: 2
5 -1 190 -1 280 -1 203 -1 #SUP: 2
5 -1 198 -1 5 -1 28 -1 #SUP: 2
5 -1 198 -1 5 -1 151 -1 #SUP: 2
5 -1 198 -1 151 -1 28 -1 #SUP: 2
5 -1 199 -1 124 -1 122 -1 #SUP: 2
5 -1 199 -1 265 -1 122 -1 #SUP: 2
5 -1 199 -1 265 -1 124 -1 #SUP: 2
5 -1 199 -1 346 -1 122 -1 #SUP: 2
5 -1 199 -1 346 -1 124 -1 #SUP: 2
5 -1 199 -1 346 -1 265 -1 #SUP: 2
5 -1 214 -1 0 -1 5 -1 #SUP: 3
5 -1 214 -1 0 -1 6 -1 #SUP: 2
5 -1 214 -1 0 -1 550 -1 #SUP: 2
5 -1 214 -1 5 -1 0 -1 #SUP: 2
5 -1 214 -1 5 -1 5 -1 #SUP: 2
5 -1 214 -1 5 -1 6 -1 #SUP: 2
5 -1 214 -1 5 -1 550 -1 #SUP: 2
5 -1 214 -1 6 -1 5 -1 #SUP: 2
5 -1 214 -1 81 -1 5 -1 #SUP: 2
5 -1 214 -1 187 -1 5 -1 #SUP: 2
5 -1 214 -1 187 -1 6 -1 #SUP: 2
5 -1 214 -1 550 -1 5 -1 #SUP: 2
5 -1 214 -1 1418 -1 0 -1 #SUP: 2
5 -1 214 -1 1418 -1 5 -1 #SUP: 2
5 -1 214 -1 1418 -1 550 -1 #SUP: 2
5 -1 265 -1 5 -1 214 -1 #SUP: 2
5 -1 265 -1 124 -1 122 -1 #SUP: 2
5 -1 346 -1 124 -1 122 -1 #SUP: 2
5 -1 346 -1 265 -1 122 -1 #SUP: 2
5 -1 346 -1 265 -1 124 -1 #SUP: 2
5 -1 376 -1 5 -1 116 -1 #SUP: 2
5 -1 1418 -1 0 -1 5 -1 #SUP: 2
5 -1 1418 -1 0 -1 550 -1 #SUP: 2
5 -1 1418 -1 5 -1 0 -1 #SUP: 2
5 -1 1418 -1 5 -1 5 -1 #SUP: 2
5 -1 1418 -1 5 -1 550 -1 #SUP: 2
5 -1 1418 -1 550 -1 5 -1 #SUP: 2
6 -1 550 -1 92 -1 5 -1 #SUP: 2
14 -1 5 -1 28 -1 140 -1 #SUP: 2
14 -1 5 -1 102 -1 28 -1 #SUP: 2
14 -1 5 -1 102 -1 190 -1 #SUP: 2
14 -1 5 -1 102 -1 210 -1 #SUP: 2
14 -1 5 -1 159 -1 28 -1 #SUP: 2
28 -1 0 -1 14 -1 5 -1 #SUP: 2
28 -1 5 -1 102 -1 28 -1 #SUP: 2
28 -1 5 -1 265 -1 124 -1 #SUP: 2
28 -1 14 -1 5 -1 28 -1 #SUP: 2
28 -1 14 -1 5 -1 102 -1 #SUP: 3
28 -1 14 -1 102 -1 28 -1 #SUP: 2
28 -1 32 -1 470 -1 92 -1 #SUP: 2
32 -1 5 -1 106 -1 266 -1 #SUP: 2
32 -1 126 -1 47 -1 713 -1 #SUP: 2
32 -1 266 -1 81 -1 5 -1 #SUP: 2
32 -1 470 -1 92 -1 5 -1 #SUP: 2
38 -1 47 -1 32 -1 47 -1 #SUP: 2
38 -1 47 -1 713 -1 577 -1 #SUP: 3
47 -1 38 -1 47 -1 713 -1 #SUP: 2
47 -1 126 -1 38 -1 47 -1 #SUP: 2
47 -1 126 -1 38 -1 713 -1 #SUP: 2
47 -1 126 -1 47 -1 713 -1 #SUP: 2
47 -1 713 -1 38 -1 47 -1 #SUP: 2
47 -1 713 -1 38 -1 713 -1 #SUP: 2
47 -1 713 -1 47 -1 713 -1 #SUP: 2
47 -1 713 -1 126 -1 38 -1 #SUP: 2
47 -1 713 -1 126 -1 47 -1 #SUP: 2
47 -1 713 -1 126 -1 713 -1 #SUP: 2
66 -1 5 -1 106 -1 265 -1 #SUP: 2
81 -1 5 -1 6 -1 32 -1 #SUP: 2
81 -1 5 -1 6 -1 265 -1 #SUP: 2
81 -1 5 -1 214 -1 187 -1 #SUP: 2
89 -1 106 -1 5 -1 214 -1 #SUP: 2
89 -1 106 -1 265 -1 5 -1 #SUP: 2
89 -1 106 -1 265 -1 214 -1 #SUP: 2
89 -1 265 -1 5 -1 125 -1 #SUP: 2
89 -1 265 -1 5 -1 214 -1 #SUP: 2
92 -1 0 -1 14 -1 5 -1 #SUP: 2
102 -1 159 -1 28 -1 210 -1 #SUP: 2
106 -1 265 -1 5 -1 214 -1 #SUP: 2
113 -1 5 -1 28 -1 171 -1 #SUP: 2
119 -1 171 -1 267 -1 28 -1 #SUP: 2
119 -1 171 -1 267 -1 890 -1 #SUP: 2
119 -1 171 -1 890 -1 28 -1 #SUP: 2
119 -1 267 -1 890 -1 28 -1 #SUP: 2
126 -1 38 -1 47 -1 577 -1 #SUP: 3
126 -1 38 -1 47 -1 713 -1 #SUP: 3
126 -1 38 -1 713 -1 577 -1 #SUP: 3
126 -1 47 -1 126 -1 38 -1 #SUP: 2
126 -1 47 -1 713 -1 38 -1 #SUP: 2
126 -1 47 -1 713 -1 126 -1 #SUP: 2
126 -1 47 -1 713 -1 577 -1 #SUP: 3
126 -1 713 -1 126 -1 38 -1 #SUP: 2
151 -1 28 -1 32 -1 116 -1 #SUP: 2
151 -1 28 -1 66 -1 5 -1 #SUP: 2
159 -1 14 -1 5 -1 102 -1 #SUP: 2
159 -1 28 -1 5 -1 102 -1 #SUP: 2
159 -1 28 -1 14 -1 5 -1 #SUP: 2
159 -1 28 -1 14 -1 102 -1 #SUP: 2
171 -1 267 -1 28 -1 853 -1 #SUP: 2
171 -1 267 -1 890 -1 28 -1 #SUP: 2
171 -1 267 -1 890 -1 853 -1 #SUP: 2
171 -1 890 -1 28 -1 853 -1 #SUP: 2
187 -1 5 -1 190 -1 125 -1 #SUP: 2
187 -1 6 -1 190 -1 125 -1 #SUP: 2
190 -1 2 -1 78 -1 32 -1 #SUP: 2
190 -1 5 -1 214 -1 21 -1 #SUP: 2
190 -1 125 -1 280 -1 203 -1 #SUP: 2
198 -1 0 -1 5 -1 28 -1 #SUP: 2
198 -1 5 -1 151 -1 28 -1 #SUP: 2
198 -1 28 -1 5 -1 28 -1 #SUP: 2
199 -1 265 -1 124 -1 122 -1 #SUP: 2
199 -1 346 -1 124 -1 122 -1 #SUP: 2
199 -1 346 -1 265 -1 122 -1 #SUP: 2
199 -1 346 -1 265 -1 124 -1 #SUP: 2
214 -1 0 -1 6 -1 5 -1 #SUP: 2
214 -1 0 -1 550 -1 5 -1 #SUP: 2
214 -1 5 -1 0 -1 5 -1 #SUP: 2
214 -1 5 -1 0 -1 550 -1 #SUP: 2
214 -1 5 -1 550 -1 5 -1 #SUP: 2
214 -1 187 -1 5 -1 190 -1 #SUP: 2
214 -1 187 -1 6 -1 190 -1 #SUP: 2
214 -1 1418 -1 0 -1 5 -1 #SUP: 2
214 -1 1418 -1 0 -1 550 -1 #SUP: 2
214 -1 1418 -1 5 -1 0 -1 #SUP: 2
214 -1 1418 -1 5 -1 5 -1 #SUP: 2
214 -1 1418 -1 5 -1 550 -1 #SUP: 2
214 -1 1418 -1 550 -1 5 -1 #SUP: 2
266 -1 81 -1 5 -1 214 -1 #SUP: 2
267 -1 266 -1 81 -1 5 -1 #SUP: 2
267 -1 890 -1 28 -1 32 -1 #SUP: 2
267 -1 890 -1 28 -1 853 -1 #SUP: 2
346 -1 265 -1 124 -1 122 -1 #SUP: 2
550 -1 5 -1 151 -1 28 -1 #SUP: 2
713 -1 38 -1 47 -1 577 -1 #SUP: 2
713 -1 38 -1 47 -1 713 -1 #SUP: 2
713 -1 38 -1 713 -1 577 -1 #SUP: 2
713 -1 47 -1 713 -1 577 -1 #SUP: 2
713 -1 126 -1 38 -1 47 -1 #SUP: 2
713 -1 126 -1 38 -1 577 -1 #SUP: 2
713 -1 126 -1 38 -1 713 -1 #SUP: 2
713 -1 126 -1 47 -1 577 -1 #SUP: 2
713 -1 126 -1 47 -1 713 -1 #SUP: 2
713 -1 126 -1 713 -1 577 -1 #SUP: 2
1418 -1 0 -1 550 -1 5 -1 #SUP: 2
1418 -1 5 -1 0 -1 5 -1 #SUP: 2
1418 -1 5 -1 0 -1 550 -1 #SUP: 2
1418 -1 5 -1 550 -1 5 -1 #SUP: 2
5 -1 5 -1 0 -1 550 -1 5 -1 #SUP: 2
5 -1 28 -1 14 -1 5 -1 102 -1 #SUP: 2
5 -1 66 -1 5 -1 106 -1 265 -1 #SUP: 2
5 -1 89 -1 106 -1 5 -1 214 -1 #SUP: 2
5 -1 89 -1 106 -1 265 -1 5 -1 #SUP: 2
5 -1 89 -1 106 -1 265 -1 214 -1 #SUP: 2
5 -1 89 -1 265 -1 5 -1 214 -1 #SUP: 2
5 -1 102 -1 159 -1 28 -1 210 -1 #SUP: 2
5 -1 106 -1 265 -1 5 -1 214 -1 #SUP: 2
5 -1 151 -1 28 -1 32 -1 116 -1 #SUP: 2
5 -1 151 -1 28 -1 66 -1 5 -1 #SUP: 2
5 -1 159 -1 14 -1 5 -1 102 -1 #SUP: 2
5 -1 159 -1 28 -1 5 -1 102 -1 #SUP: 2
5 -1 159 -1 28 -1 14 -1 5 -1 #SUP: 2
5 -1 159 -1 28 -1 14 -1 102 -1 #SUP: 2
5 -1 190 -1 5 -1 214 -1 21 -1 #SUP: 2
5 -1 190 -1 125 -1 280 -1 203 -1 #SUP: 2
5 -1 198 -1 5 -1 151 -1 28 -1 #SUP: 2
5 -1 199 -1 265 -1 124 -1 122 -1 #SUP: 2
5 -1 199 -1 346 -1 124 -1 122 -1 #SUP: 2
5 -1 199 -1 346 -1 265 -1 122 -1 #SUP: 2
5 -1 199 -1 346 -1 265 -1 124 -1 #SUP: 2
5 -1 214 -1 0 -1 6 -1 5 -1 #SUP: 2
5 -1 214 -1 0 -1 550 -1 5 -1 #SUP: 2
5 -1 214 -1 5 -1 0 -1 5 -1 #SUP: 2
5 -1 214 -1 5 -1 0 -1 550 -1 #SUP: 2
5 -1 214 -1 5 -1 550 -1 5 -1 #SUP: 2
5 -1 214 -1 1418 -1 0 -1 5 -1 #SUP: 2
5 -1 214 -1 1418 -1 0 -1 550 -1 #SUP: 2
5 -1 214 -1 1418 -1 5 -1 0 -1 #SUP: 2
5 -1 214 -1 1418 -1 5 -1 5 -1 #SUP: 2
5 -1 214 -1 1418 -1 5 -1 550 -1 #SUP: 2
5 -1 214 -1 1418 -1 550 -1 5 -1 #SUP: 2
5 -1 346 -1 265 -1 124 -1 122 -1 #SUP: 2
5 -1 1418 -1 0 -1 550 -1 5 -1 #SUP: 2
5 -1 1418 -1 5 -1 0 -1 5 -1 #SUP: 2
5 -1 1418 -1 5 -1 0 -1 550 -1 #SUP: 2
5 -1 1418 -1 5 -1 550 -1 5 -1 #SUP: 2
28 -1 14 -1 5 -1 102 -1 28 -1 #SUP: 2
47 -1 126 -1 38 -1 47 -1 713 -1 #SUP: 2
47 -1 713 -1 38 -1 47 -1 713 -1 #SUP: 2
47 -1 713 -1 126 -1 38 -1 47 -1 #SUP: 2
47 -1 713 -1 126 -1 38 -1 713 -1 #SUP: 2
47 -1 713 -1 126 -1 47 -1 713 -1 #SUP: 2
89 -1 106 -1 265 -1 5 -1 214 -1 #SUP: 2
119 -1 171 -1 267 -1 890 -1 28 -1 #SUP: 2
126 -1 38 -1 47 -1 713 -1 577 -1 #SUP: 3
126 -1 47 -1 713 -1 126 -1 38 -1 #SUP: 2
159 -1 28 -1 14 -1 5 -1 102 -1 #SUP: 2
171 -1 267 -1 890 -1 28 -1 853 -1 #SUP: 2
199 -1 346 -1 265 -1 124 -1 122 -1 #SUP: 2
214 -1 5 -1 0 -1 550 -1 5 -1 #SUP: 2
214 -1 1418 -1 0 -1 550 -1 5 -1 #SUP: 2
214 -1 1418 -1 5 -1 0 -1 5 -1 #SUP: 2
214 -1 1418 -1 5 -1 0 -1 550 -1 #SUP: 2
214 -1 1418 -1 5 -1 550 -1 5 -1 #SUP: 2
713 -1 38 -1 47 -1 713 -1 577 -1 #SUP: 2
713 -1 126 -1 38 -1 47 -1 577 -1 #SUP: 2
713 -1 126 -1 38 -1 47 -1 713 -1 #SUP: 2
713 -1 126 -1 38 -1 713 -1 577 -1 #SUP: 2
713 -1 126 -1 47 -1 713 -1 577 -1 #SUP: 2
1418 -1 5 -1 0 -1 550 -1 5 -1 #SUP: 2
5 -1 89 -1 106 -1 265 -1 5 -1 214 -1 #SUP: 2
5 -1 159 -1 28 -1 14 -1 5 -1 102 -1 #SUP: 2
5 -1 199 -1 346 -1 265 -1 124 -1 122 -1 #SUP: 2
5 -1 214 -1 5 -1 0 -1 550 -1 5 -1 #SUP: 2
5 -1 214 -1 1418 -1 0 -1 550 -1 5 -1 #SUP: 2
5 -1 214 -1 1418 -1 5 -1 0 -1 5 -1 #SUP: 2
5 -1 214 -1 1418 -1 5 -1 0 -1 550 -1 #SUP: 2
5 -1 214 -1 1418 -1 5 -1 550 -1 5 -1 #SUP: 2
5 -1 1418 -1 5 -1 0 -1 550 -1 5 -1 #SUP: 2
47 -1 713 -1 126 -1 38 -1 47 -1 713 -1 #SUP: 2
214 -1 1418 -1 5 -1 0 -1 550 -1 5 -1 #SUP: 2
713 -1 126 -1 38 -1 47 -1 713 -1 577 -1 #SUP: 2
5 -1 214 -1 1418 -1 5 -1 0 -1 550 -1 5 -1 #SUP: 2
