12 -1 28 -1 128 -1 5 -1 266 -1 116 -1 9984 -1 122 -1 2 -1 3899 -1 1256 -1 11690 -1 66 -1 5 -1 336 -1 5 -1 266 -1 331 -1 325 -1 2 -1 348 -1 908 -1 3059 -1 92 -1 489 -1 6 -1 24813 -1 128 -1 38 -1 47 -1 109 -1 420 -1 3 -1 1 -2
439 -1 270 -1 413 -1 5 -1 24816 -1 47 -1 1743 -1 481 -1 22383 -1 0 -1 2 -1 22383 -1 92 -1 1222 -1 47 -1 4168 -1 32 -1 24815 -1 21 -1 47 -1 1743 -1 24814 -1 76 -1 1 -2
12 -1 0 -1 69 -1 5 -1 611 -1 60 -1 47 -1 22383 -1 40 -1 136 -1 222 -1 125 -1 2060 -1 1317 -1 113 -1 39 -1 611 -1 1 -2
69 -1 5 -1 453 -1 60 -1 2 -1 2323 -1 28 -1 157 -1 39 -1 5 -1 1147 -1 40 -1 136 -1 17 -1 1053 -1 128 -1 2 -1 3102 -1 92 -1 1061 -1 0 -1 1361 -1 142 -1 203 -1 251 -1 28 -1 2209 -1 2437 -1 6308 -1 1981 -1 24817 -1 8445 -1 1 -2
5 -1 1317 -1 24818 -1 47 -1 2019 -1 21 -1 47 -1 1361 -1 8680 -1 113 -1 40 -1 3559 -1 3466 -1 5102 -1 32 -1 262 -1 47 -1 24819 -1 22 -1 40 -1 7949 -1 0 -1 32 -1 392 -1 663 -1 65 -1 21 -1 47 -1 1361 -1 1 -2
376 -1 22 -1 22328 -1 21 -1 270 -1 109 -1 1371 -1 5 -1 157 -1 270 -1 867 -1 86 -1 1353 -1 580 -1 47 -1 24820 -1 1 -2
5 -1 49 -1 1353 -1 179 -1 218 -1 407 -1 32 -1 38 -1 402 -1 6188 -1 28 -1 140 -1 2 -1 256 -1 85 -1 113 -1 270 -1 2034 -1 1361 -1 5 -1 1154 -1 40 -1 407 -1 28 -1 144 -1 1101 -1 1 -2
66 -1 5 -1 886 -1 28 -1 422 -1 260 -1 0 -1 41 -1 92 -1 1044 -1 1147 -1 1 -2
740 -1 6634 -1 5 -1 18 -1 1092 -1 226 -1 2000 -1 9160 -1 178 -1 5 -1 18 -1 75 -1 16501 -1 270 -1 94 -1 1 -2
293 -1 149 -1 5 -1 886 -1 28 -1 422 -1 260 -1 85 -1 226 -1 5 -1 49 -1 58 -1 349 -1 48 -1 239 -1 24821 -1 47 -1 1377 -1 1 -2
5 -1 376 -1 3068 -1 86 -1 32 -1 24822 -1 1493 -1 47 -1 1377 -1 122 -1 234 -1 1 -2
239 -1 1061 -1 0 -1 730 -1 142 -1 0 -1 32 -1 663 -1 65 -1 14 -1 5 -1 2220 -1 692 -1 423 -2
12 -1 33 -1 5 -1 24823 -1 234 -1 2270 -1 154 -1 5 -1 2220 -1 349 -1 38 -1 40 -1 1248 -1 152 -1 128 -1 28 -1 144 -1 11 -1 32 -1 135 -1 5133 -1 187 -1 349 -1 21 -1 92 -1 1600 -1 1 -2
12 -1 0 -1 5 -1 214 -1 2052 -1 2930 -1 227 -1 32 -1 5 -1 18 -1 75 -1 2620 -1 22 -1 1023 -1 28 -1 144 -1 152 -1 1431 -1 5 -1 392 -1 288 -1 348 -1 287 -1 0 -1 6 -1 92 -1 0 -1 92 -1 137 -1 288 -1 287 -1 1 -2
5 -1 102 -1 89 -1 106 -1 161 -1 5 -1 135 -1 383 -1 27 -1 282 -1 39 -1 6 -1 541 -1 128 -1 470 -1 256 -1 92 -1 5 -1 1154 -1 153 -1 137 -1 203 -1 287 -1 1 -2
740 -1 966 -1 2658 -1 6 -1 60 -1 39 -1 1 -2
740 -1 66 -1 5 -1 18 -1 270 -1 1248 -1 2047 -1 28 -1 144 -1 11 -1 32 -1 152 -1 234 -1 5 -1 190 -1 239 -1 125 -1 2034 -1 1 -2
66 -1 5 -1 2150 -1 11 -1 28 -1 160 -1 239 -1 125 -1 1353 -1 0 -1 32 -1 5 -1 774 -1 21 -1 140 -1 16626 -1 21 -1 234 -1 32 -1 135 -1 0 -1 5133 -1 0 -1 5 -1 6 -1 1204 -1 28 -1 152 -1 142 -1 5 -1 190 -1 142 -1 203 -1 89 -1 287 -1 1 -2
93 -1 71 -1 93 -1 71 -1 5 -1 1204 -1 28 -1 152 -1 142 -1 1 -2
239 -1 1733 -1 730 -1 142 -1 32 -1 774 -1 21 -1 7627 -1 1 -2
39 -1 615 -1 116 -1 9686 -1 122 -1 234 -1 28 -1 18 -1 218 -1 634 -1 355 -1 6 -1 661 -1 11 -1 32 -1 152 -1 234 -1 92 -1 0 -1 14 -1 5 -1 6 -1 774 -1 21 -1 1419 -1 28 -1 1 -2
12 -1 9 -1 122 -1 47 -1 908 -1 33 -1 2580 -1 2113 -1 1 -2
5 -1 2532 -1 86 -1 40 -1 2531 -1 28 -1 2387 -1 260 -1 0 -1 5133 -1 40 -1 616 -1 125 -1 15248 -1 0 -1 32 -1 239 -1 1733 -1 5133 -1 5 -1 214 -1 24817 -1 1 -2
265 -1 125 -1 377 -1 83 -1 616 -1 220 -2
5 -1 1619 -1 32 -1 239 -1 1733 -1 8445 -1 1 -2
12 -1 113 -1 270 -1 141 -1 5 -1 102 -1 106 -1 81 -1 142 -1 529 -1 889 -1 74 -1 11 -1 28 -1 47 -1 11656 -1 21 -1 40 -1 1096 -1 14 -1 0 -1 270 -1 125 -1 47 -1 713 -1 1361 -1 40 -1 2060 -1 754 -1 391 -1 136 -1 2799 -1 86 -1 122 -1 128 -1 28 -1 2209 -1 423 -2
5 -1 829 -1 668 -1 39 -1 423 -2
948 -1 345 -1 774 -1 21 -1 3503 -1 68 -1 5 -1 1061 -1 5 -1 99 -1 157 -1 234 -1 15444 -1 32 -1 239 -1 1061 -1 78 -1 447 -1 1 -1 1 -1 5 -1 214 -1 419 -1 86 -1 21 -1 210 -1 14 -1 5 -1 3503 -1 11 -1 981 -1 28 -1 234 -1 22 -1 1681 -1 32 -1 280 -1 203 -1 251 -1 28 -1 144 -1 86 -1 3635 -1 270 -1 1371 -1 1 -2
5 -1 829 -1 668 -1 105 -1 598 -1 270 -1 240 -1 94 -1 412 -1 86 -1 14 -1 0 -1 5 -1 106 -1 5 -1 18 -1 1324 -1 325 -1 39 -1 32 -1 5 -1 214 -1 6 -1 251 -1 28 -1 174 -1 804 -1 283 -1 14269 -1 10 -1 2491 -1 32 -1 222 -1 656 -1 0 -1 39 -1 351 -1 116 -1 349 -1 1165 -1 1 -2