5 -1 3412 -1 92 -1 280 -1 288 -1 251 -1 28 -1 116 -1 4111 -1 0 -1 5 -1 299 -1 81 -1 280 -1 18 -1 28 -1 482 -1 12 -1 0 -1 5 -1 299 -1 81 -1 830 -1 489 -1 28 -1 116 -1 38 -1 1503 -1 535 -1 187 -1 172 -1 18 -1 47 -1 101 -1 456 -1 21 -1 2484 -1 1 -2
270 -1 125 -1 774 -1 21 -1 824 -1 699 -1 5 -1 392 -1 1 -2
66 -1 298 -1 5 -1 144 -1 74 -1 32 -1 2599 -1 659 -1 40 -1 611 -1 2836 -1 38 -1 1503 -1 535 -1 220 -2
445 -1 12 -1 0 -1 5 -1 102 -1 190 -1 5 -1 266 -1 1 -2
5 -1 184 -1 6 -1 174 -1 251 -1 1 -2
5 -1 151 -1 28 -1 174 -1 538 -1 325 -1 349 -1 1 -2
5 -1 151 -1 28 -1 482 -1 265 -1 124 -1 2047 -1 1 -2
124 -1 2047 -1 2 -1 63 -1 2143 -1 550 -1 5 -1 18 -1 28 -1 174 -1 538 -1 71 -1 270 -1 210 -1 1 -2
5 -1 299 -1 105 -1 200 -1 270 -1 298 -1 116 -1 0 -1 1506 -1 81 -1 5 -1 18 -1 28 -1 174 -1 538 -1 122 -1 2 -1 240 -1 1256 -1 378 -1 1 -2
19 -1 176 -1 75 -1 1066 -1 378 -1 1 -2
8473 -1 423 -2
5 -1 392 -1 270 -1 49 -1 251 -1 28 -1 116 -1 402 -1 892 -1 461 -1 1 -2
12 -1 0 -1 39 -1 125 -1 3177 -1 892 -1 1 -2
19 -1 6 -1 961 -1 4 -1 265 -1 5 -1 2361 -1 1 -2
5 -1 299 -1 81 -1 8828 -1 32 -1 10526 -1 18 -1 1082 -1 28 -1 1231 -1 686 -1 1 -2
5 -1 368 -1 106 -1 105 -1 107 -1 137 -1 110 -1 11 -1 550 -1 124 -1 72 -1 1 -2
445 -1 40 -1 352 -1 125 -1 596 -1 423 -2
14 -1 5 -1 119 -1 1721 -1 39 -1 11 -1 550 -1 5 -1 18 -1 28 -1 174 -1 538 -1 1 -2
445 -1 12 -1 1 -2
137 -1 529 -1 681 -1 1 -2
5 -1 1759 -1 19 -1 18263 -1 1 -2
5 -1 53 -1 199 -1 935 -1 688 -1 1 -2
14 -1 2002 -1 1061 -1 553 -1 440 -1 172 -1 92 -1 1809 -1 1 -2
553 -1 125 -1 2 -1 3039 -1 406 -1 0 -1 66 -1 553 -1 489 -1 113 -1 843 -1 75 -1 284 -1 28 -1 331 -1 28 -1 328 -1 47 -1 352 -1 1 -2
5 -1 151 -1 28 -1 1413 -1 26393 -1 32 -1 422 -1 316 -1 280 -1 529 -1 71 -1 144 -1 86 -1 22 -1 1681 -1 193 -1 1 -2
40 -1 1470 -1 125 -1 2963 -1 1 -2
5 -1 230 -1 5 -1 49 -1 2 -1 2868 -1 10822 -1 222 -1 1514 -1 21240 -1 457 -1 350 -1 86 -1 1 -2
92 -1 99 -1 116 -1 66 -1 330 -1 1 -2
5 -1 119 -1 668 -1 5 -1 1246 -1 224 -1 7876 -1 597 -1 5427 -1 4913 -1 1 -2
5 -1 417 -1 92 -1 1 -2
39 -1 1810 -1 66 -1 163 -1 2307 -1 122 -1 128 -1 28 -1 140 -1 2039 -1 28 -1 2270 -1 71 -1 47 -1 149 -1 328 -1 28 -1 47 -1 2952 -1 32 -1 376 -1 2150 -1 1066 -1 1196 -1 1 -2
14 -1 376 -1 5 -1 6 -1 661 -1 123 -1 32 -1 655 -1 71 -1 21 -1 47 -1 20079 -1 5 -1 3425 -1 194 -1 22 -1 4913 -1 1 -2
5 -1 299 -1 161 -1 5 -1 140 -1 224 -1 12156 -1 122 -1 3533 -1 1 -2
5 -1 174 -1 493 -1 92 -1 39 -1 99 -1 116 -1 66 -1 892 -1 122 -1 128 -1 28 -1 6 -1 1641 -1 86 -1 71 -1 3533 -1 4 -1 40 -1 3941 -1 1 -2
124 -1 208 -1 204 -1 47 -1 95 -1 38 -1 568 -1 586 -1 1 -2
5 -1 89 -1 417 -1 28 -1 2150 -1 1 -2
12 -1 0 -1 5 -1 336 -1 5 -1 102 -1 417 -1 39 -1 1 -2
39 -1 912 -1 470 -1 78 -1 113 -1 1345 -1 0 -1 226 -1 457 -1 792 -1 35 -1 32 -1 4008 -1 4303 -1 1066 -1 1196 -1 1 -2
14 -1 178 -1 38 -1 47 -1 819 -1 21 -1 47 -1 821 -1 208 -1 39 -1 673 -1 66 -1 79 -1 423 -2
39 -1 1810 -1 2 -1 64 -1 21 -1 4406 -1 5375 -1 33 -1 12 -1 33 -1 2024 -1 5375 -1 550 -1 142 -1 6 -1 174 -1 493 -1 325 -1 105 -1 163 -1 3468 -1 39 -1 99 -1 116 -1 28 -1 6 -1 375 -1 1 -2
5 -1 299 -1 222 -1 125 -1 776 -1 251 -1 28 -1 430 -1 270 -1 220 -2
5 -1 273 -1 337 -1 131 -1 9440 -1 128 -1 28 -1 116 -1 2 -1 26394 -1 26395 -1 1 -2
5 -1 102 -1 106 -1 81 -1 92 -1 172 -1 541 -1 254 -1 1 -2
7089 -1 0 -1 40 -1 303 -1 113 -1 18064 -1 1790 -1 92 -1 769 -1 38 -1 234 -1 1399 -1 1 -2
5 -1 18 -1 568 -1 1912 -1 122 -1 133 -1 179 -1 402 -1 13755 -1 8829 -1 1 -2
5 -1 470 -1 92 -1 149 -1 1512 -1 550 -1 5 -1 285 -1 47 -1 1 -2
157 -1 5 -1 119 -1 172 -1 190 -1 21 -1 47 -1 467 -1 1 -2
5 -1 285 -1 47 -1 1389 -1 28 -1 190 -1 21 -1 47 -1 467 -1 1 -2
47 -1 2927 -1 340 -1 125 -1 5 -1 151 -1 28 -1 70 -1 22 -1 40 -1 9709 -1 550 -1 5 -1 6 -1 102 -1 18 -1 92 -1 10474 -1 122 -1 17889 -1 40 -1 9709 -1 3649 -1 7089 -1 1 -2
1068 -1 0 -1 5 -1 51 -1 1721 -1 11 -1 2 -1 11091 -1 12448 -1 32 -1 2 -1 13984 -1 178 -1 5 -1 49 -1 59 -1 40 -1 147 -1 5450 -1 1 -2
5 -1 369 -1 92 -1 40 -1 1611 -1 4397 -1 288 -1 809 -1 2140 -1 1 -2
14 -1 376 -1 7996 -1 69 -1 5 -1 453 -1 658 -1 47 -1 210 -1 28 -1 85 -1 11 -1 1818 -1 467 -1 122 -1 1342 -1 101 -1 1611 -1 0 -1 5 -1 829 -1 283 -1 153 -1 38 -1 40 -1 12448 -1 423 -2
5 -1 368 -1 85 -1 467 -1 11 -1 550 -1 5 -1 6 -1 17605 -1 47 -1 4690 -1 32 -1 376 -1 69 -1 5 -1 453 -1 886 -1 28 -1 342 -1 40 -1 883 -1 32 -1 116 -1 3136 -1 32 -1 339 -1 1192 -1 73 -1 28 -1 1000 -1 0 -1 226 -1 105 -1 467 -1 288 -1 3197 -1 0 -1 137 -1 4369 -1 38 -1 47 -1 12448 -1 423 -2
39 -1 6 -1 628 -1 28 -1 900 -1 92 -1 5 -1 529 -1 1106 -1 14 -1 124 -1 287 -1 316 -1 92 -1 68 -1 266 -1 368 -1 116 -1 2 -1 11268 -1 342 -1 38 -1 40 -1 4397 -1 28 -1 3449 -1 187 -1 9286 -1 40 -1 8829 -1 1 -2
302 -1 5 -1 151 -1 28 -1 430 -1 65 -1 1 -2
5 -1 151 -1 28 -1 430 -1 47 -1 6880 -1 366 -1 1 -2
5 -1 831 -1 1662 -1 92 -1 5 -1 17 -1 28 -1 1721 -1 11 -1 32 -1 430 -1 2 -1 2281 -1 1109 -1 122 -1 40 -1 1102 -1 76 -1 1 -2
40 -1 1446 -1 53 -1 387 -1 1 -2
5 -1 151 -1 2 -1 1468 -1 1 -2
5 -1 99 -1 202 -1 28 -1 6 -1 140 -1 21240 -1 71 -1 47 -1 210 -1 1 -2
92 -1 99 -1 116 -1 66 -1 330 -1 1 -2
5 -1 176 -1 18 -1 96 -1 378 -1 1053 -1 1 -2
39 -1 673 -1 226 -1 5 -1 199 -1 75 -1 538 -1 122 -1 348 -1 200 -1 1 -2
5 -1 190 -1 538 -1 7588 -1 28 -1 40 -1 407 -1 22 -1 3915 -1 13505 -1 489 -1 441 -1 128 -1 2 -1 256 -1 1162 -1 1 -2
5 -1 53 -1 119 -1 482 -1 348 -1 1057 -1 1 -2
419 -1 35 -1 1 -2
435 -1 1845 -1 1 -2
341 -1 270 -1 125 -1 2 -1 200 -1 891 -1 1845 -1 1 -2