40 -1 1035 -1 89 -1 387 -1 1 -2
5 -1 299 -1 81 -1 5 -1 18 -1 22425 -1 187 -1 349 -1 1 -2
5 -1 299 -1 81 -1 5 -1 6976 -1 349 -1 270 -1 717 -1 38 -1 92 -1 3699 -1 76 -1 1 -2
92 -1 355 -1 49 -1 66 -1 1049 -1 1 -2
32 -1 568 -1 402 -1 1165 -1 3939 -1 423 -2
5 -1 230 -1 5 -1 225 -1 150 -1 226 -1 688 -1 1 -2
47 -1 149 -1 553 -1 49 -1 213 -1 28 -1 3380 -1 554 -1 13804 -1 32 -1 3699 -1 66 -1 3477 -1 49 -1 66 -1 908 -1 1 -2
5 -1 119 -1 681 -1 28 -1 157 -1 1342 -1 790 -1 270 -1 1681 -1 1 -2
5 -1 1583 -1 119 -1 681 -1 28 -1 157 -1 47 -1 44 -1 340 -1 1 -2
1785 -1 423 -2
5 -1 214 -1 251 -1 28 -1 2266 -1 38 -1 202 -1 179 -1 10539 -1 32 -1 553 -1 125 -1 251 -1 28 -1 2266 -1 38 -1 202 -1 179 -1 128 -1 1 -2
445 -1 842 -1 0 -1 5 -1 151 -1 28 -1 283 -1 92 -1 10234 -1 966 -1 1 -2
5 -1 18 -1 2 -1 64 -1 21 -1 70 -1 28 -1 171 -1 328 -1 383 -1 186 -1 420 -1 814 -1 1 -2
5 -1 273 -1 429 -1 125 -1 215 -1 0 -1 32 -1 744 -1 47 -1 7083 -1 28 -1 140 -1 68 -1 1 -2
8143 -1 849 -1 28 -1 116 -1 2 -1 838 -1 1288 -1 282 -1 0 -1 5 -1 53 -1 273 -1 5 -1 140 -1 28 -1 177 -1 179 -1 234 -1 1 -2
5 -1 299 -1 81 -1 270 -1 3966 -1 1361 -1 125 -1 2 -1 12808 -1 1 -2
239 -1 316 -1 125 -1 41 -1 47 -1 1361 -1 5 -1 392 -1 239 -1 49 -1 0 -1 14 -1 5 -1 190 -1 5 -1 184 -1 18 -1 215 -1 179 -1 234 -1 38 -1 26298 -1 1 -2
47 -1 3696 -1 3699 -1 94 -1 1987 -1 226 -1 66 -1 163 -1 215 -1 1 -2
39 -1 849 -1 226 -1 830 -1 125 -1 6 -1 5497 -1 235 -1 588 -1 1 -2
124 -1 41 -1 89 -1 738 -1 325 -1 47 -1 2099 -1 122 -1 26299 -1 0 -1 14 -1 5 -1 797 -1 266 -1 116 -1 301 -1 22 -1 1 -2
408 -1 0 -1 265 -1 125 -1 270 -1 586 -1 38 -1 40 -1 1035 -1 220 -2
5 -1 299 -1 81 -1 5 -1 298 -1 157 -1 2 -1 3811 -1 0 -1 187 -1 681 -1 0 -1 5 -1 255 -1 214 -1 1 -2
5 -1 214 -1 66 -1 2260 -1 21 -1 9350 -1 28 -1 147 -1 1 -2
127 -1 22 -1 118 -1 125 -1 251 -1 28 -1 116 -1 66 -1 330 -1 1 -2
5 -1 151 -1 28 -1 297 -1 38 -1 40 -1 4353 -1 43 -1 1 -2
1314 -1 908 -1 92 -1 5 -1 1476 -1 3105 -1 769 -1 0 -1 32 -1 2395 -1 2026 -1 1 -2
5 -1 53 -1 226 -1 2395 -1 0 -1 5520 -1 423 -2
5 -1 299 -1 81 -1 5 -1 184 -1 16 -1 140 -1 328 -1 688 -1 1 -2
445 -1 14 -1 124 -1 5085 -1 10539 -1 66 -1 941 -1 6 -1 18 -1 28 -1 1 -2
5 -1 89 -1 151 -1 28 -1 339 -1 1998 -1 65 -1 3806 -1 1 -2
81 -1 5 -1 159 -1 28 -1 18 -1 2 -1 200 -1 231 -1 33 -1 2 -1 3939 -1 0 -1 5 -1 298 -1 116 -1 895 -1 256 -1 1615 -1 21 -1 40 -1 1136 -1 1 -2
14 -1 124 -1 41 -1 38 -1 92 -1 559 -1 21 -1 416 -1 1 -2
124 -1 797 -1 26300 -1 1 -2
47 -1 8573 -1 1321 -1 978 -1 128 -1 21 -1 47 -1 210 -1 5 -1 49 -1 38 -1 270 -1 177 -1 0 -1 32 -1 68 -1 49 -1 2 -1 25578 -1 1321 -1 1 -2
5 -1 989 -1 224 -1 1345 -1 21 -1 767 -1 979 -1 0 -1 5 -1 89 -1 989 -1 2425 -1 1 -2
5 -1 202 -1 201 -1 406 -1 1 -2
9 -1 92 -1 124 -1 251 -1 28 -1 191 -1 0 -1 124 -1 44 -1 28 -1 1328 -1 105 -1 2357 -1 5 -1 214 -1 28 -1 116 -1 251 -1 28 -1 147 -1 38 -1 568 -1 2 -1 908 -1 588 -1 1 -2
5 -1 89 -1 273 -1 5 -1 140 -1 235 -1 26299 -1 0 -1 187 -1 26301 -1 0 -1 14 -1 5 -1 89 -1 273 -1 26299 -1 1 -2
5 -1 106 -1 427 -1 347 -1 0 -1 347 -1 122 -1 2 -1 241 -1 1 -2
5 -1 190 -1 251 -1 28 -1 191 -1 270 -1 754 -1 49 -1 47 -1 711 -1 94 -1 122 -1 128 -1 1 -2
5 -1 202 -1 39 -1 0 -1 32 -1 71 -1 47 -1 330 -1 133 -1 5 -1 18 -1 935 -1 38 -1 3699 -1 0 -1 5 -1 470 -1 10 -1 113 -1 123 -1 1 -2
5 -1 299 -1 81 -1 5 -1 184 -1 159 -1 28 -1 2556 -1 1 -2
5 -1 491 -1 18 -1 3175 -1 92 -1 2141 -1 10033 -1 5012 -1 769 -1 0 -1 1314 -1 797 -1 862 -1 1441 -1 128 -1 470 -1 2260 -1 1 -2
5 -1 273 -1 5 -1 335 -1 9571 -1 3966 -1 38 -1 306 -1 1 -2
337 -1 0 -1 124 -1 6 -1 26300 -1 1 -2
5 -1 89 -1 989 -1 26302 -1 1 -2
5 -1 299 -1 160 -1 239 -1 125 -1 0 -1 81 -1 239 -1 20 -1 0 -1 161 -1 239 -1 3546 -1 6502 -1 40 -1 2148 -1 1 -2
239 -1 125 -1 66 -1 287 -1 0 -1 5 -1 230 -1 5 -1 1317 -1 226 -1 234 -1 1 -2
5 -1 299 -1 265 -1 9106 -1 125 -1 11 -1 28 -1 383 -1 814 -1 0 -1 5 -1 159 -1 28 -1 1187 -1 47 -1 905 -1 553 -1 1790 -1 325 -1 128 -1 0 -1 14 -1 39 -1 99 -1 116 -1 79 -1 28 -1 1413 -1 688 -1 457 -1 71 -1 270 -1 210 -1 1 -2
124 -1 41 -1 251 -1 28 -1 116 -1 143 -1 1749 -1 1400 -1 890 -1 5 -1 776 -1 0 -1 1475 -1 226 -1 688 -1 1 -2
11936 -1 0 -1 335 -1 7946 -1 5256 -1 128 -1 92 -1 4208 -1 220 -2
5 -1 417 -1 7946 -1 1 -2
337 -1 5 -1 491 -1 135 -1 92 -1 0 -1 5 -1 25094 -1 688 -1 1 -2
553 -1 4880 -1 128 -1 1 -2
298 -1 5 -1 67 -1 47 -1 193 -1 113 -1 3428 -1 597 -1 429 -1 220 -2
5 -1 529 -1 430 -1 6769 -1 3151 -1 437 -1 113 -1 1753 -1 0 -1 32 -1 376 -1 5 -1 184 -1 144 -1 1382 -1 47 -1 2675 -1 1 -2
5 -1 190 -1 5 -1 225 -1 2169 -1 28 -1 24403 -1 113 -1 234 -1 588 -1 376 -1 429 -1 1 -2
408 -1 0 -1 270 -1 586 -1 343 -1 144 -1 154 -1 423 -2
265 -1 125 -1 39 -1 220 -2
298 -1 5 -1 1641 -1 383 -1 5894 -1 194 -1 0 -1 158 -1 44 -1 28 -1 85 -1 2 -1 63 -1 26303 -1 1 -2
5 -1 119 -1 681 -1 28 -1 144 -1 4502 -1 38 -1 92 -1 1275 -1 1366 -1 717 -1 0 -1 93 -1 47 -1 3 -1 21 -1 47 -1 1385 -1 423 -2
5 -1 214 -1 251 -1 28 -1 853 -1 40 -1 966 -1 28 -1 10539 -1 0 -1 337 -1 26304 -1 86 -1 423 -2
553 -1 32 -1 5 -1 203 -1 2514 -1 28 -1 116 -1 0 -1 5 -1 6 -1 18 -1 28 -1 174 -1 12824 -1 92 -1 1 -2
5 -1 774 -1 21 -1 470 -1 9221 -1 0 -1 1314 -1 92 -1 586 -1 38 -1 40 -1 1035 -1 1 -2