0 -1 #SUP: 8
2 -1 #SUP: 6
5 -1 #SUP: 38
6 -1 #SUP: 3
9 -1 #SUP: 2
10 -1 #SUP: 2
12 -1 #SUP: 2
14 -1 #SUP: 4
18 -1 #SUP: 4
21 -1 #SUP: 2
22 -1 #SUP: 2
28 -1 #SUP: 12
32 -1 #SUP: 6
39 -1 #SUP: 6
40 -1 #SUP: 16
47 -1 #SUP: 8
49 -1 #SUP: 3
51 -1 #SUP: 3
53 -1 #SUP: 2
58 -1 #SUP: 3
61 -1 #SUP: 2
66 -1 #SUP: 5
68 -1 #SUP: 2
69 -1 #SUP: 6
81 -1 #SUP: 3
86 -1 #SUP: 2
89 -1 #SUP: 5
92 -1 #SUP: 4
106 -1 #SUP: 2
111 -1 #SUP: 2
116 -1 #SUP: 2
122 -1 #SUP: 4
124 -1 #SUP: 3
125 -1 #SUP: 15
128 -1 #SUP: 2
137 -1 #SUP: 4
140 -1 #SUP: 3
144 -1 #SUP: 2
161 -1 #SUP: 3
163 -1 #SUP: 2
171 -1 #SUP: 3
179 -1 #SUP: 2
203 -1 #SUP: 4
210 -1 #SUP: 3
214 -1 #SUP: 6
218 -1 #SUP: 4
227 -1 #SUP: 2
233 -1 #SUP: 2
239 -1 #SUP: 2
251 -1 #SUP: 7
252 -1 #SUP: 2
265 -1 #SUP: 10
266 -1 #SUP: 4
270 -1 #SUP: 6
273 -1 #SUP: 2
288 -1 #SUP: 3
299 -1 #SUP: 9
325 -1 #SUP: 2
344 -1 #SUP: 2
348 -1 #SUP: 2
356 -1 #SUP: 3
392 -1 #SUP: 2
408 -1 #SUP: 2
445 -1 #SUP: 7
457 -1 #SUP: 2
550 -1 #SUP: 2
553 -1 #SUP: 3
554 -1 #SUP: 3
611 -1 #SUP: 2
708 -1 #SUP: 2
737 -1 #SUP: 4
797 -1 #SUP: 2
822 -1 #SUP: 2
842 -1 #SUP: 3
892 -1 #SUP: 2
912 -1 #SUP: 2
981 -1 #SUP: 2
1049 -1 #SUP: 4
1115 -1 #SUP: 2
1365 -1 #SUP: 3
1400 -1 #SUP: 2
1413 -1 #SUP: 2
1455 -1 #SUP: 3
1460 -1 #SUP: 2
1761 -1 #SUP: 2
2237 -1 #SUP: 2
0 -1 14 -1 #SUP: 2
0 -1 32 -1 #SUP: 2
0 -1 49 -1 #SUP: 2
0 -1 125 -1 #SUP: 2
0 -1 137 -1 #SUP: 2
0 -1 270 -1 #SUP: 2
2 -1 0 -1 #SUP: 2
2 -1 5 -1 #SUP: 2
2 -1 32 -1 #SUP: 2
2 -1 210 -1 #SUP: 2
5 -1 2 -1 #SUP: 3
5 -1 5 -1 #SUP: 9
5 -1 9 -1 #SUP: 2
5 -1 10 -1 #SUP: 2
5 -1 18 -1 #SUP: 4
5 -1 22 -1 #SUP: 2
5 -1 28 -1 #SUP: 6
5 -1 32 -1 #SUP: 2
5 -1 39 -1 #SUP: 3
5 -1 40 -1 #SUP: 10
5 -1 47 -1 #SUP: 5
5 -1 49 -1 #SUP: 2
5 -1 51 -1 #SUP: 2
5 -1 53 -1 #SUP: 2
5 -1 58 -1 #SUP: 3
5 -1 61 -1 #SUP: 2
5 -1 69 -1 #SUP: 3
5 -1 81 -1 #SUP: 2
5 -1 86 -1 #SUP: 2
5 -1 106 -1 #SUP: 2
5 -1 122 -1 #SUP: 2
5 -1 125 -1 #SUP: 5
5 -1 137 -1 #SUP: 2
5 -1 140 -1 #SUP: 3
5 -1 144 -1 #SUP: 2
5 -1 203 -1 #SUP: 3
5 -1 210 -1 #SUP: 2
5 -1 214 -1 #SUP: 5
5 -1 218 -1 #SUP: 3
5 -1 251 -1 #SUP: 5
5 -1 265 -1 #SUP: 6
5 -1 266 -1 #SUP: 3
5 -1 273 -1 #SUP: 2
5 -1 299 -1 #SUP: 8
5 -1 356 -1 #SUP: 2
5 -1 392 -1 #SUP: 2
5 -1 553 -1 #SUP: 2
5 -1 737 -1 #SUP: 2
5 -1 797 -1 #SUP: 2
5 -1 1115 -1 #SUP: 2
5 -1 1413 -1 #SUP: 2
6 -1 128 -1 #SUP: 2
10 -1 9 -1 #SUP: 2
14 -1 12 -1 #SUP: 2
14 -1 125 -1 #SUP: 2
14 -1 137 -1 #SUP: 2
28 -1 5 -1 #SUP: 2
28 -1 28 -1 #SUP: 2
28 -1 40 -1 #SUP: 3
28 -1 214 -1 #SUP: 2
28 -1 251 -1 #SUP: 2
28 -1 266 -1 #SUP: 2
32 -1 66 -1 #SUP: 2
32 -1 89 -1 #SUP: 2
32 -1 125 -1 #SUP: 2
32 -1 981 -1 #SUP: 2
32 -1 1049 -1 #SUP: 2
39 -1 5 -1 #SUP: 3
39 -1 125 -1 #SUP: 4
40 -1 0 -1 #SUP: 2
40 -1 5 -1 #SUP: 5
40 -1 9 -1 #SUP: 2
40 -1 10 -1 #SUP: 2
40 -1 32 -1 #SUP: 2
40 -1 39 -1 #SUP: 3
40 -1 40 -1 #SUP: 2
40 -1 47 -1 #SUP: 2
40 -1 58 -1 #SUP: 3
40 -1 122 -1 #SUP: 2
40 -1 125 -1 #SUP: 2
40 -1 356 -1 #SUP: 3
47 -1 0 -1 #SUP: 2
47 -1 5 -1 #SUP: 3
47 -1 125 -1 #SUP: 3
47 -1 227 -1 #SUP: 2
47 -1 270 -1 #SUP: 2
47 -1 1365 -1 #SUP: 2
51 -1 40 -1 #SUP: 2
58 -1 5 -1 #SUP: 2
61 -1 28 -1 #SUP: 2
61 -1 251 -1 #SUP: 2
66 -1 0 -1 #SUP: 2
66 -1 125 -1 #SUP: 3
66 -1 265 -1 #SUP: 2
66 -1 554 -1 #SUP: 2
69 -1 5 -1 #SUP: 3
69 -1 28 -1 #SUP: 3
69 -1 125 -1 #SUP: 2
69 -1 251 -1 #SUP: 3
69 -1 266 -1 #SUP: 2
69 -1 270 -1 #SUP: 2
81 -1 5 -1 #SUP: 2
89 -1 111 -1 #SUP: 2
89 -1 1049 -1 #SUP: 3
106 -1 47 -1 #SUP: 2
122 -1 0 -1 #SUP: 2
122 -1 5 -1 #SUP: 2
122 -1 270 -1 #SUP: 2
122 -1 708 -1 #SUP: 2
125 -1 2 -1 #SUP: 2
125 -1 5 -1 #SUP: 3
125 -1 28 -1 #SUP: 4
125 -1 58 -1 #SUP: 2
125 -1 125 -1 #SUP: 2
125 -1 251 -1 #SUP: 2
125 -1 265 -1 #SUP: 2
125 -1 270 -1 #SUP: 3
125 -1 554 -1 #SUP: 3
125 -1 981 -1 #SUP: 2
128 -1 14 -1 #SUP: 2
161 -1 32 -1 #SUP: 2
161 -1 66 -1 #SUP: 2
161 -1 981 -1 #SUP: 2
214 -1 5 -1 #SUP: 3
214 -1 28 -1 #SUP: 3
214 -1 214 -1 #SUP: 2
214 -1 251 -1 #SUP: 3
233 -1 0 -1 #SUP: 2
251 -1 28 -1 #SUP: 6
265 -1 5 -1 #SUP: 5
265 -1 28 -1 #SUP: 2
265 -1 39 -1 #SUP: 2
265 -1 40 -1 #SUP: 3
265 -1 58 -1 #SUP: 3
265 -1 125 -1 #SUP: 5
265 -1 214 -1 #SUP: 2
265 -1 251 -1 #SUP: 2
265 -1 1460 -1 #SUP: 2
266 -1 140 -1 #SUP: 2
270 -1 2 -1 #SUP: 2
270 -1 28 -1 #SUP: 3
270 -1 125 -1 #SUP: 4
270 -1 251 -1 #SUP: 2
270 -1 265 -1 #SUP: 2
288 -1 0 -1 #SUP: 2
288 -1 233 -1 #SUP: 2
299 -1 5 -1 #SUP: 2
299 -1 9 -1 #SUP: 2
299 -1 10 -1 #SUP: 2
299 -1 40 -1 #SUP: 6
299 -1 47 -1 #SUP: 2
299 -1 58 -1 #SUP: 3
299 -1 81 -1 #SUP: 2
299 -1 125 -1 #SUP: 3
299 -1 265 -1 #SUP: 4
299 -1 356 -1 #SUP: 2
356 -1 0 -1 #SUP: 2
356 -1 125 -1 #SUP: 2
445 -1 32 -1 #SUP: 2
445 -1 40 -1 #SUP: 3
445 -1 125 -1 #SUP: 3
445 -1 408 -1 #SUP: 2
445 -1 842 -1 #SUP: 2
457 -1 2237 -1 #SUP: 2
550 -1 5 -1 #SUP: 2
553 -1 553 -1 #SUP: 2
611 -1 5 -1 #SUP: 2
708 -1 0 -1 #SUP: 2
842 -1 28 -1 #SUP: 2
842 -1 40 -1 #SUP: 2
892 -1 5 -1 #SUP: 2
981 -1 66 -1 #SUP: 2
1049 -1 111 -1 #SUP: 2
1365 -1 5 -1 #SUP: 3
1455 -1 5 -1 #SUP: 2
1455 -1 22 -1 #SUP: 2
0 -1 14 -1 137 -1 #SUP: 2
0 -1 270 -1 125 -1 #SUP: 2
5 -1 5 -1 28 -1 #SUP: 3
5 -1 5 -1 39 -1 #SUP: 2
5 -1 5 -1 214 -1 #SUP: 2
5 -1 5 -1 251 -1 #SUP: 4
5 -1 10 -1 9 -1 #SUP: 2
5 -1 28 -1 5 -1 #SUP: 2
5 -1 28 -1 28 -1 #SUP: 2
5 -1 28 -1 40 -1 #SUP: 2
5 -1 28 -1 214 -1 #SUP: 2
5 -1 28 -1 251 -1 #SUP: 2
5 -1 28 -1 266 -1 #SUP: 2
5 -1 39 -1 125 -1 #SUP: 2
5 -1 40 -1 5 -1 #SUP: 2
5 -1 40 -1 9 -1 #SUP: 2
5 -1 40 -1 10 -1 #SUP: 2
5 -1 40 -1 58 -1 #SUP: 3
5 -1 40 -1 125 -1 #SUP: 2
5 -1 40 -1 356 -1 #SUP: 2
5 -1 51 -1 40 -1 #SUP: 2
5 -1 106 -1 47 -1 #SUP: 2
5 -1 125 -1 58 -1 #SUP: 2
5 -1 214 -1 5 -1 #SUP: 2
5 -1 214 -1 28 -1 #SUP: 3
5 -1 214 -1 251 -1 #SUP: 3
5 -1 251 -1 28 -1 #SUP: 5
5 -1 265 -1 5 -1 #SUP: 2
5 -1 265 -1 40 -1 #SUP: 3
5 -1 265 -1 58 -1 #SUP: 3
5 -1 265 -1 125 -1 #SUP: 3
5 -1 266 -1 140 -1 #SUP: 2
5 -1 299 -1 5 -1 #SUP: 2
5 -1 299 -1 9 -1 #SUP: 2
5 -1 299 -1 10 -1 #SUP: 2
5 -1 299 -1 40 -1 #SUP: 6
5 -1 299 -1 47 -1 #SUP: 2
5 -1 299 -1 58 -1 #SUP: 3
5 -1 299 -1 81 -1 #SUP: 2
5 -1 299 -1 125 -1 #SUP: 3
5 -1 299 -1 265 -1 #SUP: 4
5 -1 299 -1 356 -1 #SUP: 2
28 -1 5 -1 28 -1 #SUP: 2
28 -1 5 -1 251 -1 #SUP: 2
28 -1 214 -1 28 -1 #SUP: 2
28 -1 214 -1 251 -1 #SUP: 2
28 -1 251 -1 28 -1 #SUP: 2
32 -1 89 -1 1049 -1 #SUP: 2
32 -1 981 -1 66 -1 #SUP: 2
40 -1 10 -1 9 -1 #SUP: 2
40 -1 40 -1 5 -1 #SUP: 2
40 -1 58 -1 5 -1 #SUP: 2
40 -1 125 -1 58 -1 #SUP: 2
47 -1 125 -1 5 -1 #SUP: 2
47 -1 125 -1 270 -1 #SUP: 2
47 -1 1365 -1 5 -1 #SUP: 2
61 -1 251 -1 28 -1 #SUP: 2
66 -1 125 -1 554 -1 #SUP: 2
69 -1 5 -1 28 -1 #SUP: 2
69 -1 5 -1 251 -1 #SUP: 2
69 -1 251 -1 28 -1 #SUP: 2
89 -1 1049 -1 111 -1 #SUP: 2
122 -1 708 -1 0 -1 #SUP: 2
125 -1 251 -1 28 -1 #SUP: 2
125 -1 270 -1 28 -1 #SUP: 2
125 -1 270 -1 251 -1 #SUP: 2
125 -1 270 -1 265 -1 #SUP: 2
161 -1 981 -1 66 -1 #SUP: 2
214 -1 5 -1 28 -1 #SUP: 3
214 -1 5 -1 214 -1 #SUP: 2
214 -1 5 -1 251 -1 #SUP: 3
214 -1 214 -1 28 -1 #SUP: 2
214 -1 214 -1 251 -1 #SUP: 2
214 -1 251 -1 28 -1 #SUP: 3
265 -1 5 -1 28 -1 #SUP: 2
265 -1 5 -1 214 -1 #SUP: 2
265 -1 5 -1 251 -1 #SUP: 2
265 -1 39 -1 125 -1 #SUP: 2
265 -1 40 -1 5 -1 #SUP: 2
265 -1 40 -1 58 -1 #SUP: 3
265 -1 40 -1 125 -1 #SUP: 2
265 -1 58 -1 5 -1 #SUP: 2
265 -1 125 -1 58 -1 #SUP: 2
265 -1 214 -1 28 -1 #SUP: 2
265 -1 214 -1 251 -1 #SUP: 2
265 -1 251 -1 28 -1 #SUP: 2
270 -1 125 -1 2 -1 #SUP: 2
270 -1 251 -1 28 -1 #SUP: 2
288 -1 233 -1 0 -1 #SUP: 2
299 -1 10 -1 9 -1 #SUP: 2
299 -1 40 -1 9 -1 #SUP: 2
299 -1 40 -1 10 -1 #SUP: 2
299 -1 40 -1 58 -1 #SUP: 3
299 -1 40 -1 125 -1 #SUP: 2
299 -1 40 -1 356 -1 #SUP: 2
299 -1 125 -1 58 -1 #SUP: 2
299 -1 265 -1 40 -1 #SUP: 3
299 -1 265 -1 58 -1 #SUP: 3
299 -1 265 -1 125 -1 #SUP: 3
445 -1 842 -1 40 -1 #SUP: 2
1455 -1 5 -1 22 -1 #SUP: 2
5 -1 5 -1 214 -1 251 -1 #SUP: 2
5 -1 5 -1 251 -1 28 -1 #SUP: 3
5 -1 28 -1 5 -1 28 -1 #SUP: 2
5 -1 28 -1 5 -1 251 -1 #SUP: 2
5 -1 28 -1 214 -1 28 -1 #SUP: 2
5 -1 28 -1 214 -1 251 -1 #SUP: 2
5 -1 28 -1 251 -1 28 -1 #SUP: 2
5 -1 40 -1 10 -1 9 -1 #SUP: 2
5 -1 40 -1 125 -1 58 -1 #SUP: 2
5 -1 214 -1 5 -1 251 -1 #SUP: 2
5 -1 214 -1 251 -1 28 -1 #SUP: 3
5 -1 265 -1 40 -1 58 -1 #SUP: 3
5 -1 265 -1 40 -1 125 -1 #SUP: 2
5 -1 265 -1 125 -1 58 -1 #SUP: 2
5 -1 299 -1 10 -1 9 -1 #SUP: 2
5 -1 299 -1 40 -1 9 -1 #SUP: 2
5 -1 299 -1 40 -1 10 -1 #SUP: 2
5 -1 299 -1 40 -1 58 -1 #SUP: 3
5 -1 299 -1 40 -1 125 -1 #SUP: 2
5 -1 299 -1 40 -1 356 -1 #SUP: 2
5 -1 299 -1 125 -1 58 -1 #SUP: 2
5 -1 299 -1 265 -1 40 -1 #SUP: 3
5 -1 299 -1 265 -1 58 -1 #SUP: 3
5 -1 299 -1 265 -1 125 -1 #SUP: 3
28 -1 5 -1 251 -1 28 -1 #SUP: 2
28 -1 214 -1 251 -1 28 -1 #SUP: 2
125 -1 270 -1 251 -1 28 -1 #SUP: 2
214 -1 5 -1 214 -1 28 -1 #SUP: 2
214 -1 5 -1 214 -1 251 -1 #SUP: 2
214 -1 5 -1 251 -1 28 -1 #SUP: 3
214 -1 214 -1 251 -1 28 -1 #SUP: 2
265 -1 5 -1 214 -1 251 -1 #SUP: 2
265 -1 5 -1 251 -1 28 -1 #SUP: 2
265 -1 40 -1 58 -1 5 -1 #SUP: 2
265 -1 40 -1 125 -1 58 -1 #SUP: 2
265 -1 214 -1 251 -1 28 -1 #SUP: 2
299 -1 40 -1 10 -1 9 -1 #SUP: 2
299 -1 40 -1 125 -1 58 -1 #SUP: 2
299 -1 265 -1 40 -1 58 -1 #SUP: 3
299 -1 265 -1 40 -1 125 -1 #SUP: 2
299 -1 265 -1 125 -1 58 -1 #SUP: 2
5 -1 28 -1 5 -1 251 -1 28 -1 #SUP: 2
5 -1 28 -1 214 -1 251 -1 28 -1 #SUP: 2
5 -1 265 -1 40 -1 125 -1 58 -1 #SUP: 2
5 -1 299 -1 40 -1 10 -1 9 -1 #SUP: 2
5 -1 299 -1 40 -1 125 -1 58 -1 #SUP: 2
5 -1 299 -1 265 -1 40 -1 58 -1 #SUP: 3
5 -1 299 -1 265 -1 40 -1 125 -1 #SUP: 2
5 -1 299 -1 265 -1 125 -1 58 -1 #SUP: 2
214 -1 5 -1 214 -1 251 -1 28 -1 #SUP: 2
299 -1 265 -1 40 -1 125 -1 58 -1 #SUP: 2
5 -1 299 -1 265 -1 40 -1 125 -1 58 -1 #SUP: 2
