0 -1 #SUP: 12
2 -1 #SUP: 9
5 -1 #SUP: 36
6 -1 #SUP: 6
9 -1 #SUP: 5
10 -1 #SUP: 3
11 -1 #SUP: 3
14 -1 #SUP: 3
18 -1 #SUP: 8
21 -1 #SUP: 3
22 -1 #SUP: 2
24 -1 #SUP: 2
28 -1 #SUP: 30
32 -1 #SUP: 8
38 -1 #SUP: 5
39 -1 #SUP: 10
40 -1 #SUP: 8
41 -1 #SUP: 4
47 -1 #SUP: 8
49 -1 #SUP: 3
55 -1 #SUP: 2
58 -1 #SUP: 4
63 -1 #SUP: 3
65 -1 #SUP: 2
66 -1 #SUP: 2
69 -1 #SUP: 5
71 -1 #SUP: 5
75 -1 #SUP: 3
76 -1 #SUP: 3
78 -1 #SUP: 2
79 -1 #SUP: 2
83 -1 #SUP: 2
86 -1 #SUP: 4
89 -1 #SUP: 3
92 -1 #SUP: 12
105 -1 #SUP: 5
111 -1 #SUP: 2
113 -1 #SUP: 2
116 -1 #SUP: 5
122 -1 #SUP: 7
124 -1 #SUP: 2
125 -1 #SUP: 5
128 -1 #SUP: 3
131 -1 #SUP: 2
140 -1 #SUP: 5
142 -1 #SUP: 8
163 -1 #SUP: 2
171 -1 #SUP: 4
172 -1 #SUP: 2
183 -1 #SUP: 3
187 -1 #SUP: 9
188 -1 #SUP: 3
189 -1 #SUP: 2
190 -1 #SUP: 5
194 -1 #SUP: 3
210 -1 #SUP: 5
213 -1 #SUP: 4
214 -1 #SUP: 4
226 -1 #SUP: 5
251 -1 #SUP: 4
260 -1 #SUP: 3
265 -1 #SUP: 4
266 -1 #SUP: 3
267 -1 #SUP: 5
270 -1 #SUP: 6
272 -1 #SUP: 4
321 -1 #SUP: 3
325 -1 #SUP: 13
328 -1 #SUP: 3
349 -1 #SUP: 2
350 -1 #SUP: 2
377 -1 #SUP: 6
378 -1 #SUP: 2
461 -1 #SUP: 2
470 -1 #SUP: 4
482 -1 #SUP: 2
493 -1 #SUP: 5
557 -1 #SUP: 3
559 -1 #SUP: 2
659 -1 #SUP: 4
748 -1 #SUP: 2
849 -1 #SUP: 2
921 -1 #SUP: 3
1062 -1 #SUP: 2
1314 -1 #SUP: 4
1484 -1 #SUP: 2
1534 -1 #SUP: 2
1583 -1 #SUP: 2
1818 -1 #SUP: 2
1853 -1 #SUP: 2
3170 -1 #SUP: 2
29863 -1 #SUP: 2
0 -1 2 -1 #SUP: 2
0 -1 5 -1 #SUP: 8
0 -1 18 -1 #SUP: 2
0 -1 28 -1 #SUP: 6
0 -1 89 -1 #SUP: 2
0 -1 92 -1 #SUP: 4
0 -1 125 -1 #SUP: 3
0 -1 214 -1 #SUP: 2
0 -1 265 -1 #SUP: 2
0 -1 325 -1 #SUP: 3
0 -1 377 -1 #SUP: 2
0 -1 470 -1 #SUP: 2
0 -1 1583 -1 #SUP: 2
0 -1 3170 -1 #SUP: 2
2 -1 0 -1 #SUP: 2
2 -1 5 -1 #SUP: 3
2 -1 32 -1 #SUP: 2
2 -1 39 -1 #SUP: 3
2 -1 63 -1 #SUP: 3
2 -1 111 -1 #SUP: 2
2 -1 210 -1 #SUP: 2
5 -1 0 -1 #SUP: 6
5 -1 2 -1 #SUP: 4
5 -1 5 -1 #SUP: 8
5 -1 9 -1 #SUP: 2
5 -1 18 -1 #SUP: 4
5 -1 22 -1 #SUP: 2
5 -1 28 -1 #SUP: 8
5 -1 32 -1 #SUP: 3
5 -1 38 -1 #SUP: 3
5 -1 40 -1 #SUP: 3
5 -1 47 -1 #SUP: 3
5 -1 49 -1 #SUP: 3
5 -1 63 -1 #SUP: 3
5 -1 65 -1 #SUP: 2
5 -1 75 -1 #SUP: 3
5 -1 76 -1 #SUP: 2
5 -1 78 -1 #SUP: 2
5 -1 86 -1 #SUP: 2
5 -1 92 -1 #SUP: 6
5 -1 105 -1 #SUP: 3
5 -1 116 -1 #SUP: 3
5 -1 122 -1 #SUP: 3
5 -1 125 -1 #SUP: 2
5 -1 140 -1 #SUP: 2
5 -1 163 -1 #SUP: 2
5 -1 171 -1 #SUP: 3
5 -1 188 -1 #SUP: 2
5 -1 190 -1 #SUP: 4
5 -1 213 -1 #SUP: 3
5 -1 214 -1 #SUP: 4
5 -1 251 -1 #SUP: 2
5 -1 260 -1 #SUP: 3
5 -1 265 -1 #SUP: 2
5 -1 266 -1 #SUP: 3
5 -1 270 -1 #SUP: 3
5 -1 272 -1 #SUP: 4
5 -1 321 -1 #SUP: 3
5 -1 325 -1 #SUP: 3
5 -1 328 -1 #SUP: 3
5 -1 350 -1 #SUP: 2
5 -1 470 -1 #SUP: 3
5 -1 493 -1 #SUP: 2
5 -1 1583 -1 #SUP: 2
5 -1 3170 -1 #SUP: 2
5 -1 29863 -1 #SUP: 2
6 -1 0 -1 #SUP: 2
6 -1 28 -1 #SUP: 3
6 -1 38 -1 #SUP: 2
6 -1 39 -1 #SUP: 2
6 -1 76 -1 #SUP: 2
6 -1 142 -1 #SUP: 2
6 -1 267 -1 #SUP: 2
6 -1 325 -1 #SUP: 2
6 -1 377 -1 #SUP: 2
9 -1 5 -1 #SUP: 2
9 -1 32 -1 #SUP: 2
10 -1 9 -1 #SUP: 3
11 -1 28 -1 #SUP: 2
14 -1 0 -1 #SUP: 2
14 -1 5 -1 #SUP: 2
14 -1 28 -1 #SUP: 2
18 -1 2 -1 #SUP: 3
18 -1 28 -1 #SUP: 3
18 -1 32 -1 #SUP: 2
18 -1 39 -1 #SUP: 2
18 -1 40 -1 #SUP: 2
18 -1 187 -1 #SUP: 2
21 -1 28 -1 #SUP: 2
21 -1 267 -1 #SUP: 2
28 -1 0 -1 #SUP: 2
28 -1 2 -1 #SUP: 5
28 -1 5 -1 #SUP: 6
28 -1 6 -1 #SUP: 2
28 -1 11 -1 #SUP: 3
28 -1 18 -1 #SUP: 4
28 -1 21 -1 #SUP: 2
28 -1 28 -1 #SUP: 6
28 -1 32 -1 #SUP: 3
28 -1 39 -1 #SUP: 3
28 -1 40 -1 #SUP: 4
28 -1 47 -1 #SUP: 4
28 -1 65 -1 #SUP: 2
28 -1 66 -1 #SUP: 2
28 -1 69 -1 #SUP: 2
28 -1 71 -1 #SUP: 2
28 -1 92 -1 #SUP: 5
28 -1 116 -1 #SUP: 4
28 -1 140 -1 #SUP: 3
28 -1 171 -1 #SUP: 2
28 -1 183 -1 #SUP: 2
28 -1 187 -1 #SUP: 4
28 -1 190 -1 #SUP: 2
28 -1 194 -1 #SUP: 2
28 -1 210 -1 #SUP: 2
28 -1 213 -1 #SUP: 4
28 -1 265 -1 #SUP: 3
28 -1 266 -1 #SUP: 2
28 -1 267 -1 #SUP: 3
28 -1 325 -1 #SUP: 5
28 -1 377 -1 #SUP: 4
28 -1 493 -1 #SUP: 4
28 -1 557 -1 #SUP: 3
28 -1 659 -1 #SUP: 3
32 -1 0 -1 #SUP: 2
32 -1 5 -1 #SUP: 2
32 -1 28 -1 #SUP: 2
32 -1 32 -1 #SUP: 2
32 -1 39 -1 #SUP: 3
32 -1 140 -1 #SUP: 2
38 -1 6 -1 #SUP: 2
38 -1 28 -1 #SUP: 3
38 -1 76 -1 #SUP: 2
38 -1 116 -1 #SUP: 2
38 -1 187 -1 #SUP: 2
38 -1 377 -1 #SUP: 2
39 -1 2 -1 #SUP: 2
39 -1 5 -1 #SUP: 2
39 -1 28 -1 #SUP: 2
39 -1 32 -1 #SUP: 2
39 -1 38 -1 #SUP: 2
39 -1 39 -1 #SUP: 2
39 -1 122 -1 #SUP: 2
39 -1 140 -1 #SUP: 2
39 -1 187 -1 #SUP: 2
39 -1 226 -1 #SUP: 2
39 -1 377 -1 #SUP: 2
40 -1 5 -1 #SUP: 2
40 -1 28 -1 #SUP: 3
40 -1 40 -1 #SUP: 2
40 -1 83 -1 #SUP: 2
40 -1 92 -1 #SUP: 2
40 -1 187 -1 #SUP: 3
40 -1 188 -1 #SUP: 2
40 -1 251 -1 #SUP: 2
40 -1 1534 -1 #SUP: 2
41 -1 28 -1 #SUP: 4
41 -1 265 -1 #SUP: 2
41 -1 325 -1 #SUP: 2
41 -1 377 -1 #SUP: 2
41 -1 493 -1 #SUP: 2
47 -1 0 -1 #SUP: 3
47 -1 5 -1 #SUP: 2
47 -1 21 -1 #SUP: 2
47 -1 28 -1 #SUP: 4
47 -1 76 -1 #SUP: 2
47 -1 187 -1 #SUP: 2
47 -1 210 -1 #SUP: 2
47 -1 270 -1 #SUP: 2
49 -1 40 -1 #SUP: 2
49 -1 92 -1 #SUP: 2
63 -1 5 -1 #SUP: 2
63 -1 39 -1 #SUP: 2
66 -1 5 -1 #SUP: 2
66 -1 28 -1 #SUP: 2
66 -1 92 -1 #SUP: 2
66 -1 213 -1 #SUP: 2
69 -1 5 -1 #SUP: 2
69 -1 18 -1 #SUP: 2
69 -1 28 -1 #SUP: 2
69 -1 142 -1 #SUP: 3
69 -1 325 -1 #SUP: 3
69 -1 493 -1 #SUP: 2
71 -1 5 -1 #SUP: 4
71 -1 18 -1 #SUP: 2
71 -1 28 -1 #SUP: 2
71 -1 39 -1 #SUP: 2
71 -1 270 -1 #SUP: 2
75 -1 122 -1 #SUP: 2
75 -1 272 -1 #SUP: 3
75 -1 378 -1 #SUP: 2
76 -1 28 -1 #SUP: 2
78 -1 28 -1 #SUP: 2
79 -1 28 -1 #SUP: 2
79 -1 493 -1 #SUP: 2
83 -1 188 -1 #SUP: 2
89 -1 28 -1 #SUP: 2
89 -1 190 -1 #SUP: 2
89 -1 325 -1 #SUP: 2
92 -1 2 -1 #SUP: 2
92 -1 5 -1 #SUP: 7
92 -1 18 -1 #SUP: 2
92 -1 28 -1 #SUP: 4
92 -1 63 -1 #SUP: 2
92 -1 65 -1 #SUP: 2
92 -1 75 -1 #SUP: 2
92 -1 116 -1 #SUP: 3
92 -1 122 -1 #SUP: 2
92 -1 140 -1 #SUP: 2
92 -1 213 -1 #SUP: 3
92 -1 214 -1 #SUP: 2
92 -1 266 -1 #SUP: 2
92 -1 272 -1 #SUP: 2
92 -1 328 -1 #SUP: 2
105 -1 5 -1 #SUP: 2
105 -1 28 -1 #SUP: 3
105 -1 125 -1 #SUP: 2
105 -1 251 -1 #SUP: 2
105 -1 270 -1 #SUP: 2
116 -1 5 -1 #SUP: 2
116 -1 28 -1 #SUP: 4
116 -1 92 -1 #SUP: 2
116 -1 140 -1 #SUP: 2
116 -1 213 -1 #SUP: 3
122 -1 28 -1 #SUP: 3
122 -1 32 -1 #SUP: 2
122 -1 124 -1 #SUP: 2
122 -1 128 -1 #SUP: 2
122 -1 187 -1 #SUP: 2
122 -1 325 -1 #SUP: 2
122 -1 378 -1 #SUP: 2
125 -1 6 -1 #SUP: 2
125 -1 28 -1 #SUP: 4
125 -1 38 -1 #SUP: 2
125 -1 116 -1 #SUP: 2
125 -1 251 -1 #SUP: 2
128 -1 28 -1 #SUP: 2
131 -1 0 -1 #SUP: 2
140 -1 28 -1 #SUP: 2
140 -1 39 -1 #SUP: 2
140 -1 92 -1 #SUP: 2
142 -1 0 -1 #SUP: 2
142 -1 2 -1 #SUP: 2
142 -1 6 -1 #SUP: 3
142 -1 18 -1 #SUP: 3
142 -1 28 -1 #SUP: 4
142 -1 38 -1 #SUP: 2
142 -1 39 -1 #SUP: 2
142 -1 125 -1 #SUP: 2
142 -1 142 -1 #SUP: 2
142 -1 267 -1 #SUP: 3
142 -1 325 -1 #SUP: 3
142 -1 659 -1 #SUP: 2
163 -1 0 -1 #SUP: 2
171 -1 28 -1 #SUP: 2
171 -1 78 -1 #SUP: 2
171 -1 325 -1 #SUP: 2
183 -1 28 -1 #SUP: 3
183 -1 40 -1 #SUP: 2
187 -1 6 -1 #SUP: 2
187 -1 18 -1 #SUP: 2
187 -1 28 -1 #SUP: 4
187 -1 40 -1 #SUP: 2
187 -1 142 -1 #SUP: 2
187 -1 183 -1 #SUP: 2
187 -1 187 -1 #SUP: 3
190 -1 0 -1 #SUP: 2
190 -1 2 -1 #SUP: 2
190 -1 5 -1 #SUP: 3
190 -1 28 -1 #SUP: 2
190 -1 92 -1 #SUP: 2
190 -1 260 -1 #SUP: 2
190 -1 325 -1 #SUP: 2
194 -1 377 -1 #SUP: 2
194 -1 1484 -1 #SUP: 2
210 -1 0 -1 #SUP: 2
210 -1 28 -1 #SUP: 2
213 -1 28 -1 #SUP: 4
213 -1 140 -1 #SUP: 2
214 -1 28 -1 #SUP: 2
214 -1 213 -1 #SUP: 2
226 -1 0 -1 #SUP: 2
226 -1 5 -1 #SUP: 2
226 -1 122 -1 #SUP: 2
251 -1 28 -1 #SUP: 4
251 -1 116 -1 #SUP: 2
251 -1 183 -1 #SUP: 2
260 -1 2 -1 #SUP: 2
260 -1 5 -1 #SUP: 2
260 -1 63 -1 #SUP: 2
265 -1 2 -1 #SUP: 2
265 -1 5 -1 #SUP: 2
265 -1 92 -1 #SUP: 2
265 -1 113 -1 #SUP: 2
265 -1 210 -1 #SUP: 2
265 -1 325 -1 #SUP: 3
265 -1 377 -1 #SUP: 2
265 -1 493 -1 #SUP: 4
266 -1 28 -1 #SUP: 2
266 -1 92 -1 #SUP: 2
266 -1 116 -1 #SUP: 2
267 -1 2 -1 #SUP: 2
267 -1 39 -1 #SUP: 2
267 -1 69 -1 #SUP: 2
267 -1 142 -1 #SUP: 2
267 -1 325 -1 #SUP: 2
270 -1 5 -1 #SUP: 2
270 -1 18 -1 #SUP: 2
270 -1 28 -1 #SUP: 2
270 -1 125 -1 #SUP: 3
270 -1 251 -1 #SUP: 2
270 -1 461 -1 #SUP: 2
272 -1 122 -1 #SUP: 2
272 -1 378 -1 #SUP: 2
321 -1 5 -1 #SUP: 2
321 -1 75 -1 #SUP: 3
321 -1 122 -1 #SUP: 2
321 -1 272 -1 #SUP: 3
325 -1 0 -1 #SUP: 2
325 -1 2 -1 #SUP: 4
325 -1 5 -1 #SUP: 2
325 -1 39 -1 #SUP: 2
325 -1 69 -1 #SUP: 2
325 -1 89 -1 #SUP: 2
325 -1 92 -1 #SUP: 3
325 -1 125 -1 #SUP: 2
325 -1 142 -1 #SUP: 3
325 -1 210 -1 #SUP: 2
325 -1 267 -1 #SUP: 2
325 -1 325 -1 #SUP: 4
325 -1 377 -1 #SUP: 2
325 -1 1818 -1 #SUP: 2
328 -1 32 -1 #SUP: 2
349 -1 0 -1 #SUP: 2
350 -1 86 -1 #SUP: 2
377 -1 2 -1 #SUP: 3
377 -1 142 -1 #SUP: 2
377 -1 210 -1 #SUP: 2
377 -1 325 -1 #SUP: 2
377 -1 493 -1 #SUP: 2
377 -1 1484 -1 #SUP: 2
470 -1 5 -1 #SUP: 2
470 -1 28 -1 #SUP: 2
470 -1 92 -1 #SUP: 2
493 -1 2 -1 #SUP: 2
493 -1 5 -1 #SUP: 3
493 -1 9 -1 #SUP: 2
493 -1 92 -1 #SUP: 2
493 -1 105 -1 #SUP: 2
493 -1 113 -1 #SUP: 2
493 -1 210 -1 #SUP: 2
493 -1 325 -1 #SUP: 4
557 -1 40 -1 #SUP: 2
659 -1 2 -1 #SUP: 2
659 -1 92 -1 #SUP: 2
659 -1 265 -1 #SUP: 2
659 -1 267 -1 #SUP: 2
659 -1 325 -1 #SUP: 3
659 -1 377 -1 #SUP: 2
659 -1 493 -1 #SUP: 2
921 -1 38 -1 #SUP: 2
921 -1 187 -1 #SUP: 3
1314 -1 28 -1 #SUP: 4
1314 -1 41 -1 #SUP: 2
1314 -1 69 -1 #SUP: 2
1314 -1 79 -1 #SUP: 2
1314 -1 265 -1 #SUP: 2
1314 -1 377 -1 #SUP: 2
1314 -1 493 -1 #SUP: 2
3170 -1 5 -1 #SUP: 2
3170 -1 92 -1 #SUP: 2
3170 -1 325 -1 #SUP: 2
29863 -1 105 -1 #SUP: 2
29863 -1 125 -1 #SUP: 2
29863 -1 251 -1 #SUP: 2
29863 -1 270 -1 #SUP: 2
0 -1 5 -1 5 -1 #SUP: 5
0 -1 5 -1 28 -1 #SUP: 3
0 -1 5 -1 92 -1 #SUP: 4
0 -1 5 -1 214 -1 #SUP: 2
0 -1 5 -1 325 -1 #SUP: 2
0 -1 5 -1 470 -1 #SUP: 2
0 -1 5 -1 1583 -1 #SUP: 2
0 -1 5 -1 3170 -1 #SUP: 2
0 -1 92 -1 5 -1 #SUP: 4
0 -1 92 -1 28 -1 #SUP: 2
0 -1 470 -1 5 -1 #SUP: 2
0 -1 470 -1 28 -1 #SUP: 2
0 -1 470 -1 92 -1 #SUP: 2
0 -1 3170 -1 5 -1 #SUP: 2
0 -1 3170 -1 325 -1 #SUP: 2
2 -1 0 -1 5 -1 #SUP: 2
2 -1 63 -1 5 -1 #SUP: 2
2 -1 63 -1 39 -1 #SUP: 2
5 -1 0 -1 5 -1 #SUP: 5
5 -1 0 -1 92 -1 #SUP: 3
5 -1 2 -1 0 -1 #SUP: 2
5 -1 2 -1 5 -1 #SUP: 3
5 -1 2 -1 63 -1 #SUP: 3
5 -1 5 -1 0 -1 #SUP: 2
5 -1 5 -1 2 -1 #SUP: 2
5 -1 5 -1 5 -1 #SUP: 3
5 -1 5 -1 28 -1 #SUP: 4
5 -1 5 -1 63 -1 #SUP: 2
5 -1 5 -1 75 -1 #SUP: 2
5 -1 5 -1 92 -1 #SUP: 4
5 -1 5 -1 116 -1 #SUP: 2
5 -1 5 -1 214 -1 #SUP: 2
5 -1 5 -1 260 -1 #SUP: 3
5 -1 5 -1 272 -1 #SUP: 2
5 -1 5 -1 321 -1 #SUP: 2
5 -1 5 -1 325 -1 #SUP: 2
5 -1 5 -1 493 -1 #SUP: 2
5 -1 18 -1 2 -1 #SUP: 2
5 -1 28 -1 5 -1 #SUP: 3
5 -1 28 -1 65 -1 #SUP: 2
5 -1 28 -1 92 -1 #SUP: 2
5 -1 28 -1 140 -1 #SUP: 2
5 -1 32 -1 5 -1 #SUP: 2
5 -1 38 -1 76 -1 #SUP: 2
5 -1 49 -1 40 -1 #SUP: 2
5 -1 63 -1 5 -1 #SUP: 2
5 -1 75 -1 122 -1 #SUP: 2
5 -1 75 -1 272 -1 #SUP: 3
5 -1 92 -1 5 -1 #SUP: 5
5 -1 92 -1 28 -1 #SUP: 3
5 -1 92 -1 116 -1 #SUP: 2
5 -1 105 -1 125 -1 #SUP: 2
5 -1 105 -1 270 -1 #SUP: 2
5 -1 116 -1 28 -1 #SUP: 3
5 -1 116 -1 213 -1 #SUP: 2
5 -1 163 -1 0 -1 #SUP: 2
5 -1 171 -1 78 -1 #SUP: 2
5 -1 190 -1 5 -1 #SUP: 3
5 -1 190 -1 92 -1 #SUP: 2
5 -1 190 -1 260 -1 #SUP: 2
5 -1 213 -1 28 -1 #SUP: 3
5 -1 214 -1 28 -1 #SUP: 2
5 -1 214 -1 213 -1 #SUP: 2
5 -1 251 -1 28 -1 #SUP: 2
5 -1 260 -1 2 -1 #SUP: 2
5 -1 260 -1 5 -1 #SUP: 2
5 -1 260 -1 63 -1 #SUP: 2
5 -1 265 -1 5 -1 #SUP: 2
5 -1 265 -1 493 -1 #SUP: 2
5 -1 266 -1 28 -1 #SUP: 2
5 -1 266 -1 116 -1 #SUP: 2
5 -1 270 -1 125 -1 #SUP: 2
5 -1 272 -1 122 -1 #SUP: 2
5 -1 321 -1 5 -1 #SUP: 2
5 -1 321 -1 75 -1 #SUP: 3
5 -1 321 -1 122 -1 #SUP: 2
5 -1 321 -1 272 -1 #SUP: 3
5 -1 325 -1 92 -1 #SUP: 2
5 -1 470 -1 5 -1 #SUP: 2
5 -1 470 -1 28 -1 #SUP: 2
5 -1 470 -1 92 -1 #SUP: 2
5 -1 493 -1 5 -1 #SUP: 2
5 -1 493 -1 92 -1 #SUP: 2
5 -1 3170 -1 5 -1 #SUP: 2
5 -1 3170 -1 325 -1 #SUP: 2
5 -1 29863 -1 105 -1 #SUP: 2
5 -1 29863 -1 125 -1 #SUP: 2
5 -1 29863 -1 270 -1 #SUP: 2
6 -1 38 -1 28 -1 #SUP: 2
6 -1 142 -1 0 -1 #SUP: 2
6 -1 325 -1 267 -1 #SUP: 2
14 -1 0 -1 5 -1 #SUP: 2
18 -1 28 -1 187 -1 #SUP: 2
28 -1 5 -1 5 -1 #SUP: 2
28 -1 5 -1 18 -1 #SUP: 2
28 -1 5 -1 92 -1 #SUP: 2
28 -1 5 -1 116 -1 #SUP: 2
28 -1 5 -1 213 -1 #SUP: 2
28 -1 5 -1 266 -1 #SUP: 2
28 -1 28 -1 11 -1 #SUP: 2
28 -1 28 -1 40 -1 #SUP: 2
28 -1 39 -1 32 -1 #SUP: 2
28 -1 40 -1 5 -1 #SUP: 2
28 -1 40 -1 92 -1 #SUP: 2
28 -1 40 -1 187 -1 #SUP: 2
28 -1 47 -1 28 -1 #SUP: 2
28 -1 66 -1 5 -1 #SUP: 2
28 -1 66 -1 92 -1 #SUP: 2
28 -1 66 -1 213 -1 #SUP: 2
28 -1 92 -1 5 -1 #SUP: 5
28 -1 92 -1 116 -1 #SUP: 2
28 -1 92 -1 213 -1 #SUP: 2
28 -1 92 -1 266 -1 #SUP: 2
28 -1 116 -1 213 -1 #SUP: 3
28 -1 183 -1 28 -1 #SUP: 2
28 -1 183 -1 40 -1 #SUP: 2
28 -1 265 -1 2 -1 #SUP: 2
28 -1 265 -1 325 -1 #SUP: 2
28 -1 265 -1 377 -1 #SUP: 2
28 -1 265 -1 493 -1 #SUP: 3
28 -1 266 -1 116 -1 #SUP: 2
28 -1 325 -1 2 -1 #SUP: 3
28 -1 325 -1 325 -1 #SUP: 2
28 -1 325 -1 377 -1 #SUP: 2
28 -1 377 -1 2 -1 #SUP: 3
28 -1 377 -1 325 -1 #SUP: 2
28 -1 377 -1 493 -1 #SUP: 2
28 -1 493 -1 2 -1 #SUP: 2
28 -1 493 -1 325 -1 #SUP: 3
28 -1 557 -1 40 -1 #SUP: 2
28 -1 659 -1 92 -1 #SUP: 2
28 -1 659 -1 265 -1 #SUP: 2
28 -1 659 -1 325 -1 #SUP: 2
28 -1 659 -1 377 -1 #SUP: 2
28 -1 659 -1 493 -1 #SUP: 2
32 -1 140 -1 39 -1 #SUP: 2
38 -1 76 -1 28 -1 #SUP: 2
38 -1 187 -1 6 -1 #SUP: 2
39 -1 32 -1 140 -1 #SUP: 2
39 -1 38 -1 377 -1 #SUP: 2
40 -1 83 -1 188 -1 #SUP: 2
40 -1 92 -1 5 -1 #SUP: 2
40 -1 187 -1 40 -1 #SUP: 2
40 -1 187 -1 187 -1 #SUP: 2
40 -1 251 -1 28 -1 #SUP: 2
41 -1 28 -1 265 -1 #SUP: 2
41 -1 28 -1 325 -1 #SUP: 2
41 -1 28 -1 377 -1 #SUP: 2
41 -1 28 -1 493 -1 #SUP: 2
41 -1 265 -1 325 -1 #SUP: 2
41 -1 265 -1 377 -1 #SUP: 2
41 -1 265 -1 493 -1 #SUP: 2
41 -1 377 -1 325 -1 #SUP: 2
41 -1 377 -1 493 -1 #SUP: 2
41 -1 493 -1 325 -1 #SUP: 2
47 -1 0 -1 5 -1 #SUP: 2
47 -1 187 -1 28 -1 #SUP: 2
47 -1 210 -1 0 -1 #SUP: 2
47 -1 210 -1 28 -1 #SUP: 2
66 -1 5 -1 28 -1 #SUP: 2
66 -1 5 -1 213 -1 #SUP: 2
66 -1 92 -1 5 -1 #SUP: 2
66 -1 92 -1 28 -1 #SUP: 2
66 -1 92 -1 213 -1 #SUP: 2
66 -1 213 -1 28 -1 #SUP: 2
69 -1 142 -1 18 -1 #SUP: 2
69 -1 142 -1 28 -1 #SUP: 2
69 -1 325 -1 5 -1 #SUP: 2
69 -1 493 -1 5 -1 #SUP: 2
69 -1 493 -1 325 -1 #SUP: 2
71 -1 270 -1 5 -1 #SUP: 2
75 -1 122 -1 378 -1 #SUP: 2
75 -1 272 -1 122 -1 #SUP: 2
75 -1 272 -1 378 -1 #SUP: 2
79 -1 28 -1 493 -1 #SUP: 2
89 -1 190 -1 325 -1 #SUP: 2
92 -1 2 -1 63 -1 #SUP: 2
92 -1 5 -1 2 -1 #SUP: 2
92 -1 5 -1 18 -1 #SUP: 2
92 -1 5 -1 28 -1 #SUP: 4
92 -1 5 -1 63 -1 #SUP: 2
92 -1 5 -1 65 -1 #SUP: 2
92 -1 5 -1 75 -1 #SUP: 2
92 -1 5 -1 116 -1 #SUP: 3
92 -1 5 -1 122 -1 #SUP: 2
92 -1 5 -1 140 -1 #SUP: 2
92 -1 5 -1 213 -1 #SUP: 3
92 -1 5 -1 214 -1 #SUP: 2
92 -1 5 -1 266 -1 #SUP: 2
92 -1 5 -1 272 -1 #SUP: 2
92 -1 5 -1 328 -1 #SUP: 2
92 -1 28 -1 65 -1 #SUP: 2
92 -1 28 -1 140 -1 #SUP: 2
92 -1 75 -1 272 -1 #SUP: 2
92 -1 116 -1 28 -1 #SUP: 3
92 -1 116 -1 213 -1 #SUP: 2
92 -1 213 -1 28 -1 #SUP: 3
92 -1 214 -1 28 -1 #SUP: 2
92 -1 214 -1 213 -1 #SUP: 2
92 -1 266 -1 28 -1 #SUP: 2
92 -1 266 -1 116 -1 #SUP: 2
105 -1 125 -1 28 -1 #SUP: 2
105 -1 125 -1 251 -1 #SUP: 2
105 -1 251 -1 28 -1 #SUP: 2
105 -1 270 -1 28 -1 #SUP: 2
105 -1 270 -1 125 -1 #SUP: 2
105 -1 270 -1 251 -1 #SUP: 2
116 -1 28 -1 5 -1 #SUP: 2
116 -1 28 -1 92 -1 #SUP: 2
116 -1 28 -1 140 -1 #SUP: 2
116 -1 92 -1 5 -1 #SUP: 2
116 -1 213 -1 28 -1 #SUP: 3
122 -1 128 -1 28 -1 #SUP: 2
122 -1 187 -1 28 -1 #SUP: 2
125 -1 251 -1 28 -1 #SUP: 2
142 -1 6 -1 267 -1 #SUP: 2
142 -1 6 -1 325 -1 #SUP: 2
142 -1 18 -1 28 -1 #SUP: 2
142 -1 28 -1 6 -1 #SUP: 2
142 -1 28 -1 325 -1 #SUP: 2
142 -1 39 -1 38 -1 #SUP: 2
142 -1 125 -1 38 -1 #SUP: 2
142 -1 325 -1 267 -1 #SUP: 2
142 -1 325 -1 325 -1 #SUP: 2
142 -1 659 -1 267 -1 #SUP: 2
142 -1 659 -1 325 -1 #SUP: 2
183 -1 28 -1 40 -1 #SUP: 2
187 -1 28 -1 28 -1 #SUP: 2
187 -1 183 -1 28 -1 #SUP: 2
187 -1 187 -1 28 -1 #SUP: 2
187 -1 187 -1 183 -1 #SUP: 2
190 -1 5 -1 28 -1 #SUP: 2
190 -1 5 -1 260 -1 #SUP: 2
194 -1 377 -1 1484 -1 #SUP: 2
213 -1 28 -1 140 -1 #SUP: 2
214 -1 213 -1 28 -1 #SUP: 2
251 -1 28 -1 28 -1 #SUP: 2
251 -1 28 -1 116 -1 #SUP: 2
251 -1 28 -1 183 -1 #SUP: 2
251 -1 183 -1 28 -1 #SUP: 2
260 -1 2 -1 5 -1 #SUP: 2
260 -1 2 -1 63 -1 #SUP: 2
260 -1 63 -1 5 -1 #SUP: 2
265 -1 2 -1 210 -1 #SUP: 2
265 -1 5 -1 5 -1 #SUP: 2
265 -1 5 -1 92 -1 #SUP: 2
265 -1 5 -1 493 -1 #SUP: 2
265 -1 92 -1 5 -1 #SUP: 2
265 -1 325 -1 2 -1 #SUP: 2
265 -1 325 -1 210 -1 #SUP: 2
265 -1 377 -1 2 -1 #SUP: 2
265 -1 377 -1 210 -1 #SUP: 2
265 -1 377 -1 325 -1 #SUP: 2
265 -1 377 -1 493 -1 #SUP: 2
265 -1 493 -1 2 -1 #SUP: 2
265 -1 493 -1 5 -1 #SUP: 2
265 -1 493 -1 92 -1 #SUP: 2
265 -1 493 -1 113 -1 #SUP: 2
265 -1 493 -1 210 -1 #SUP: 2
265 -1 493 -1 325 -1 #SUP: 3
266 -1 28 -1 92 -1 #SUP: 2
266 -1 116 -1 28 -1 #SUP: 2
266 -1 116 -1 92 -1 #SUP: 2
267 -1 142 -1 2 -1 #SUP: 2
270 -1 125 -1 28 -1 #SUP: 2
270 -1 125 -1 251 -1 #SUP: 2
270 -1 251 -1 28 -1 #SUP: 2
272 -1 122 -1 378 -1 #SUP: 2
321 -1 75 -1 122 -1 #SUP: 2
321 -1 75 -1 272 -1 #SUP: 3
321 -1 272 -1 122 -1 #SUP: 2
325 -1 2 -1 210 -1 #SUP: 2
325 -1 69 -1 142 -1 #SUP: 2
325 -1 142 -1 2 -1 #SUP: 2
325 -1 325 -1 267 -1 #SUP: 2
377 -1 2 -1 210 -1 #SUP: 2
377 -1 325 -1 2 -1 #SUP: 2
377 -1 325 -1 210 -1 #SUP: 2
377 -1 493 -1 2 -1 #SUP: 2
377 -1 493 -1 210 -1 #SUP: 2
377 -1 493 -1 325 -1 #SUP: 2
470 -1 5 -1 28 -1 #SUP: 2
470 -1 92 -1 5 -1 #SUP: 2
470 -1 92 -1 28 -1 #SUP: 2
493 -1 2 -1 210 -1 #SUP: 2
493 -1 5 -1 5 -1 #SUP: 2
493 -1 92 -1 5 -1 #SUP: 2
493 -1 105 -1 5 -1 #SUP: 2
493 -1 325 -1 2 -1 #SUP: 2
493 -1 325 -1 5 -1 #SUP: 2
493 -1 325 -1 210 -1 #SUP: 2
659 -1 265 -1 493 -1 #SUP: 2
659 -1 325 -1 2 -1 #SUP: 2
659 -1 325 -1 267 -1 #SUP: 2
921 -1 38 -1 187 -1 #SUP: 2
1314 -1 28 -1 265 -1 #SUP: 2
1314 -1 28 -1 377 -1 #SUP: 2
1314 -1 28 -1 493 -1 #SUP: 2
1314 -1 41 -1 28 -1 #SUP: 2
1314 -1 41 -1 265 -1 #SUP: 2
1314 -1 41 -1 377 -1 #SUP: 2
1314 -1 41 -1 493 -1 #SUP: 2
1314 -1 79 -1 28 -1 #SUP: 2
1314 -1 265 -1 377 -1 #SUP: 2
1314 -1 265 -1 493 -1 #SUP: 2
1314 -1 377 -1 493 -1 #SUP: 2
3170 -1 5 -1 92 -1 #SUP: 2
3170 -1 5 -1 325 -1 #SUP: 2
3170 -1 325 -1 92 -1 #SUP: 2
29863 -1 105 -1 125 -1 #SUP: 2
29863 -1 105 -1 251 -1 #SUP: 2
29863 -1 105 -1 270 -1 #SUP: 2
29863 -1 125 -1 251 -1 #SUP: 2
29863 -1 270 -1 125 -1 #SUP: 2
29863 -1 270 -1 251 -1 #SUP: 2
0 -1 5 -1 5 -1 28 -1 #SUP: 2
0 -1 5 -1 5 -1 325 -1 #SUP: 2
0 -1 5 -1 92 -1 5 -1 #SUP: 4
0 -1 5 -1 92 -1 28 -1 #SUP: 2
0 -1 5 -1 470 -1 5 -1 #SUP: 2
0 -1 5 -1 470 -1 28 -1 #SUP: 2
0 -1 5 -1 470 -1 92 -1 #SUP: 2
0 -1 5 -1 3170 -1 5 -1 #SUP: 2
0 -1 5 -1 3170 -1 325 -1 #SUP: 2
0 -1 92 -1 5 -1 28 -1 #SUP: 2
0 -1 470 -1 5 -1 28 -1 #SUP: 2
0 -1 470 -1 92 -1 5 -1 #SUP: 2
0 -1 470 -1 92 -1 28 -1 #SUP: 2
0 -1 3170 -1 5 -1 325 -1 #SUP: 2
5 -1 0 -1 5 -1 5 -1 #SUP: 2
5 -1 0 -1 5 -1 92 -1 #SUP: 3
5 -1 0 -1 92 -1 5 -1 #SUP: 2
5 -1 2 -1 0 -1 5 -1 #SUP: 2
5 -1 2 -1 63 -1 5 -1 #SUP: 2
5 -1 5 -1 2 -1 63 -1 #SUP: 2
5 -1 5 -1 75 -1 272 -1 #SUP: 2
5 -1 5 -1 92 -1 5 -1 #SUP: 2
5 -1 5 -1 116 -1 28 -1 #SUP: 2
5 -1 5 -1 260 -1 2 -1 #SUP: 2
5 -1 5 -1 260 -1 63 -1 #SUP: 2
5 -1 75 -1 272 -1 122 -1 #SUP: 2
5 -1 92 -1 5 -1 28 -1 #SUP: 3
5 -1 92 -1 5 -1 116 -1 #SUP: 2
5 -1 92 -1 116 -1 28 -1 #SUP: 2
5 -1 105 -1 270 -1 125 -1 #SUP: 2
5 -1 116 -1 213 -1 28 -1 #SUP: 2
5 -1 190 -1 5 -1 260 -1 #SUP: 2
5 -1 214 -1 213 -1 28 -1 #SUP: 2
5 -1 260 -1 2 -1 5 -1 #SUP: 2
5 -1 260 -1 2 -1 63 -1 #SUP: 2
5 -1 260 -1 63 -1 5 -1 #SUP: 2
5 -1 265 -1 5 -1 493 -1 #SUP: 2
5 -1 266 -1 116 -1 28 -1 #SUP: 2
5 -1 321 -1 75 -1 122 -1 #SUP: 2
5 -1 321 -1 75 -1 272 -1 #SUP: 3
5 -1 321 -1 272 -1 122 -1 #SUP: 2
5 -1 470 -1 5 -1 28 -1 #SUP: 2
5 -1 470 -1 92 -1 5 -1 #SUP: 2
5 -1 470 -1 92 -1 28 -1 #SUP: 2
5 -1 493 -1 92 -1 5 -1 #SUP: 2
5 -1 3170 -1 5 -1 325 -1 #SUP: 2
5 -1 29863 -1 105 -1 125 -1 #SUP: 2
5 -1 29863 -1 105 -1 270 -1 #SUP: 2
5 -1 29863 -1 270 -1 125 -1 #SUP: 2
28 -1 5 -1 92 -1 5 -1 #SUP: 2
28 -1 5 -1 266 -1 116 -1 #SUP: 2
28 -1 40 -1 92 -1 5 -1 #SUP: 2
28 -1 66 -1 5 -1 213 -1 #SUP: 2
28 -1 66 -1 92 -1 5 -1 #SUP: 2
28 -1 66 -1 92 -1 213 -1 #SUP: 2
28 -1 92 -1 5 -1 116 -1 #SUP: 2
28 -1 92 -1 5 -1 213 -1 #SUP: 2
28 -1 92 -1 5 -1 266 -1 #SUP: 2
28 -1 92 -1 266 -1 116 -1 #SUP: 2
28 -1 183 -1 28 -1 40 -1 #SUP: 2
28 -1 265 -1 325 -1 2 -1 #SUP: 2
28 -1 265 -1 377 -1 2 -1 #SUP: 2
28 -1 265 -1 377 -1 325 -1 #SUP: 2
28 -1 265 -1 377 -1 493 -1 #SUP: 2
28 -1 265 -1 493 -1 2 -1 #SUP: 2
28 -1 265 -1 493 -1 325 -1 #SUP: 2
28 -1 377 -1 325 -1 2 -1 #SUP: 2
28 -1 377 -1 493 -1 2 -1 #SUP: 2
28 -1 377 -1 493 -1 325 -1 #SUP: 2
28 -1 493 -1 325 -1 2 -1 #SUP: 2
28 -1 659 -1 265 -1 493 -1 #SUP: 2
41 -1 28 -1 265 -1 325 -1 #SUP: 2
41 -1 28 -1 265 -1 377 -1 #SUP: 2
41 -1 28 -1 265 -1 493 -1 #SUP: 2
41 -1 28 -1 377 -1 325 -1 #SUP: 2
41 -1 28 -1 377 -1 493 -1 #SUP: 2
41 -1 28 -1 493 -1 325 -1 #SUP: 2
41 -1 265 -1 377 -1 325 -1 #SUP: 2
41 -1 265 -1 377 -1 493 -1 #SUP: 2
41 -1 265 -1 493 -1 325 -1 #SUP: 2
41 -1 377 -1 493 -1 325 -1 #SUP: 2
66 -1 5 -1 213 -1 28 -1 #SUP: 2
66 -1 92 -1 5 -1 28 -1 #SUP: 2
66 -1 92 -1 5 -1 213 -1 #SUP: 2
66 -1 92 -1 213 -1 28 -1 #SUP: 2
69 -1 493 -1 325 -1 5 -1 #SUP: 2
75 -1 272 -1 122 -1 378 -1 #SUP: 2
92 -1 5 -1 2 -1 63 -1 #SUP: 2
92 -1 5 -1 28 -1 65 -1 #SUP: 2
92 -1 5 -1 28 -1 140 -1 #SUP: 2
92 -1 5 -1 75 -1 272 -1 #SUP: 2
92 -1 5 -1 116 -1 28 -1 #SUP: 3
92 -1 5 -1 116 -1 213 -1 #SUP: 2
92 -1 5 -1 213 -1 28 -1 #SUP: 3
92 -1 5 -1 214 -1 28 -1 #SUP: 2
92 -1 5 -1 214 -1 213 -1 #SUP: 2
92 -1 5 -1 266 -1 28 -1 #SUP: 2
92 -1 5 -1 266 -1 116 -1 #SUP: 2
92 -1 116 -1 213 -1 28 -1 #SUP: 2
92 -1 214 -1 213 -1 28 -1 #SUP: 2
92 -1 266 -1 116 -1 28 -1 #SUP: 2
105 -1 125 -1 251 -1 28 -1 #SUP: 2
105 -1 270 -1 125 -1 28 -1 #SUP: 2
105 -1 270 -1 125 -1 251 -1 #SUP: 2
105 -1 270 -1 251 -1 28 -1 #SUP: 2
116 -1 28 -1 92 -1 5 -1 #SUP: 2
142 -1 6 -1 325 -1 267 -1 #SUP: 2
142 -1 325 -1 325 -1 267 -1 #SUP: 2
142 -1 659 -1 325 -1 267 -1 #SUP: 2
251 -1 28 -1 183 -1 28 -1 #SUP: 2
260 -1 2 -1 63 -1 5 -1 #SUP: 2
265 -1 5 -1 92 -1 5 -1 #SUP: 2
265 -1 5 -1 493 -1 5 -1 #SUP: 2
265 -1 5 -1 493 -1 92 -1 #SUP: 2
265 -1 325 -1 2 -1 210 -1 #SUP: 2
265 -1 377 -1 2 -1 210 -1 #SUP: 2
265 -1 377 -1 325 -1 2 -1 #SUP: 2
265 -1 377 -1 325 -1 210 -1 #SUP: 2
265 -1 377 -1 493 -1 2 -1 #SUP: 2
265 -1 377 -1 493 -1 210 -1 #SUP: 2
265 -1 377 -1 493 -1 325 -1 #SUP: 2
265 -1 493 -1 2 -1 210 -1 #SUP: 2
265 -1 493 -1 92 -1 5 -1 #SUP: 2
265 -1 493 -1 325 -1 2 -1 #SUP: 2
265 -1 493 -1 325 -1 210 -1 #SUP: 2
266 -1 116 -1 28 -1 92 -1 #SUP: 2
270 -1 125 -1 251 -1 28 -1 #SUP: 2
321 -1 75 -1 272 -1 122 -1 #SUP: 2
377 -1 325 -1 2 -1 210 -1 #SUP: 2
377 -1 493 -1 2 -1 210 -1 #SUP: 2
377 -1 493 -1 325 -1 2 -1 #SUP: 2
377 -1 493 -1 325 -1 210 -1 #SUP: 2
470 -1 92 -1 5 -1 28 -1 #SUP: 2
493 -1 325 -1 2 -1 210 -1 #SUP: 2
1314 -1 28 -1 265 -1 377 -1 #SUP: 2
1314 -1 28 -1 265 -1 493 -1 #SUP: 2
1314 -1 28 -1 377 -1 493 -1 #SUP: 2
1314 -1 41 -1 28 -1 265 -1 #SUP: 2
1314 -1 41 -1 28 -1 377 -1 #SUP: 2
1314 -1 41 -1 28 -1 493 -1 #SUP: 2
1314 -1 41 -1 265 -1 377 -1 #SUP: 2
1314 -1 41 -1 265 -1 493 -1 #SUP: 2
1314 -1 41 -1 377 -1 493 -1 #SUP: 2
1314 -1 265 -1 377 -1 493 -1 #SUP: 2
3170 -1 5 -1 325 -1 92 -1 #SUP: 2
29863 -1 105 -1 125 -1 251 -1 #SUP: 2
29863 -1 105 -1 270 -1 125 -1 #SUP: 2
29863 -1 105 -1 270 -1 251 -1 #SUP: 2
29863 -1 270 -1 125 -1 251 -1 #SUP: 2
0 -1 5 -1 92 -1 5 -1 28 -1 #SUP: 2
0 -1 5 -1 470 -1 5 -1 28 -1 #SUP: 2
0 -1 5 -1 470 -1 92 -1 5 -1 #SUP: 2
0 -1 5 -1 470 -1 92 -1 28 -1 #SUP: 2
0 -1 5 -1 3170 -1 5 -1 325 -1 #SUP: 2
0 -1 470 -1 92 -1 5 -1 28 -1 #SUP: 2
5 -1 0 -1 5 -1 92 -1 5 -1 #SUP: 2
5 -1 5 -1 260 -1 2 -1 63 -1 #SUP: 2
5 -1 92 -1 5 -1 116 -1 28 -1 #SUP: 2
5 -1 260 -1 2 -1 63 -1 5 -1 #SUP: 2
5 -1 321 -1 75 -1 272 -1 122 -1 #SUP: 2
5 -1 470 -1 92 -1 5 -1 28 -1 #SUP: 2
5 -1 29863 -1 105 -1 270 -1 125 -1 #SUP: 2
28 -1 66 -1 92 -1 5 -1 213 -1 #SUP: 2
28 -1 92 -1 5 -1 266 -1 116 -1 #SUP: 2
28 -1 265 -1 377 -1 325 -1 2 -1 #SUP: 2
28 -1 265 -1 377 -1 493 -1 2 -1 #SUP: 2
28 -1 265 -1 377 -1 493 -1 325 -1 #SUP: 2
28 -1 265 -1 493 -1 325 -1 2 -1 #SUP: 2
28 -1 377 -1 493 -1 325 -1 2 -1 #SUP: 2
41 -1 28 -1 265 -1 377 -1 325 -1 #SUP: 2
41 -1 28 -1 265 -1 377 -1 493 -1 #SUP: 2
41 -1 28 -1 265 -1 493 -1 325 -1 #SUP: 2
41 -1 28 -1 377 -1 493 -1 325 -1 #SUP: 2
41 -1 265 -1 377 -1 493 -1 325 -1 #SUP: 2
66 -1 92 -1 5 -1 213 -1 28 -1 #SUP: 2
92 -1 5 -1 116 -1 213 -1 28 -1 #SUP: 2
92 -1 5 -1 214 -1 213 -1 28 -1 #SUP: 2
92 -1 5 -1 266 -1 116 -1 28 -1 #SUP: 2
105 -1 270 -1 125 -1 251 -1 28 -1 #SUP: 2
265 -1 5 -1 493 -1 92 -1 5 -1 #SUP: 2
265 -1 377 -1 325 -1 2 -1 210 -1 #SUP: 2
265 -1 377 -1 493 -1 2 -1 210 -1 #SUP: 2
265 -1 377 -1 493 -1 325 -1 2 -1 #SUP: 2
265 -1 377 -1 493 -1 325 -1 210 -1 #SUP: 2
265 -1 493 -1 325 -1 2 -1 210 -1 #SUP: 2
377 -1 493 -1 325 -1 2 -1 210 -1 #SUP: 2
1314 -1 28 -1 265 -1 377 -1 493 -1 #SUP: 2
1314 -1 41 -1 28 -1 265 -1 377 -1 #SUP: 2
1314 -1 41 -1 28 -1 265 -1 493 -1 #SUP: 2
1314 -1 41 -1 28 -1 377 -1 493 -1 #SUP: 2
1314 -1 41 -1 265 -1 377 -1 493 -1 #SUP: 2
29863 -1 105 -1 270 -1 125 -1 251 -1 #SUP: 2
0 -1 5 -1 470 -1 92 -1 5 -1 28 -1 #SUP: 2
28 -1 265 -1 377 -1 493 -1 325 -1 2 -1 #SUP: 2
41 -1 28 -1 265 -1 377 -1 493 -1 325 -1 #SUP: 2
265 -1 377 -1 493 -1 325 -1 2 -1 210 -1 #SUP: 2
1314 -1 41 -1 28 -1 265 -1 377 -1 493 -1 #SUP: 2
