2 -1 #SUP: 23
3 -1 #SUP: 5
8 -1 #SUP: 2
10 -1 #SUP: 14
15 -1 #SUP: 4
16 -1 #SUP: 7
22 -1 #SUP: 29
27 -1 #SUP: 11
29 -1 #SUP: 2
30 -1 #SUP: 4
31 -1 #SUP: 12
32 -1 #SUP: 25
33 -1 #SUP: 12
41 -1 #SUP: 20
42 -1 #SUP: 3
48 -1 #SUP: 6
50 -1 #SUP: 15
63 -1 #SUP: 3
64 -1 #SUP: 34
65 -1 #SUP: 32
66 -1 #SUP: 5
67 -1 #SUP: 10
68 -1 #SUP: 2
70 -1 #SUP: 9
76 -1 #SUP: 3
77 -1 #SUP: 42
78 -1 #SUP: 8
82 -1 #SUP: 3
117 -1 #SUP: 9
120 -1 #SUP: 9
123 -1 #SUP: 85
132 -1 #SUP: 3
134 -1 #SUP: 7
140 -1 #SUP: 2
144 -1 #SUP: 6
149 -1 #SUP: 2
152 -1 #SUP: 6
153 -1 #SUP: 2
154 -1 #SUP: 17
158 -1 #SUP: 7
162 -1 #SUP: 9
164 -1 #SUP: 11
165 -1 #SUP: 6
167 -1 #SUP: 3
170 -1 #SUP: 12
171 -1 #SUP: 8
173 -1 #SUP: 3
174 -1 #SUP: 5
175 -1 #SUP: 2
177 -1 #SUP: 3
183 -1 #SUP: 3
189 -1 #SUP: 3
190 -1 #SUP: 2
193 -1 #SUP: 14
196 -1 #SUP: 6
197 -1 #SUP: 4
198 -1 #SUP: 2
199 -1 #SUP: 3
201 -1 #SUP: 4
202 -1 #SUP: 2
205 -1 #SUP: 5
206 -1 #SUP: 6
210 -1 #SUP: 4
212 -1 #SUP: 13
213 -1 #SUP: 4
220 -1 #SUP: 9
222 -1 #SUP: 13
223 -1 #SUP: 2
224 -1 #SUP: 2
225 -1 #SUP: 7
228 -1 #SUP: 2
236 -1 #SUP: 7
244 -1 #SUP: 3
246 -1 #SUP: 4
248 -1 #SUP: 2
249 -1 #SUP: 2
250 -1 #SUP: 2
254 -1 #SUP: 2
256 -1 #SUP: 2
260 -1 #SUP: 15
262 -1 #SUP: 8
263 -1 #SUP: 2
268 -1 #SUP: 5
276 -1 #SUP: 4
280 -1 #SUP: 4
286 -1 #SUP: 7
291 -1 #SUP: 7
318 -1 #SUP: 2
322 -1 #SUP: 3
326 -1 #SUP: 8
340 -1 #SUP: 7
356 -1 #SUP: 9
364 -1 #SUP: 17
369 -1 #SUP: 3
371 -1 #SUP: 2
381 -1 #SUP: 4
383 -1 #SUP: 4
384 -1 #SUP: 3
392 -1 #SUP: 2
393 -1 #SUP: 2
395 -1 #SUP: 2
396 -1 #SUP: 2
405 -1 #SUP: 2
407 -1 #SUP: 9
409 -1 #SUP: 3
411 -1 #SUP: 5
417 -1 #SUP: 2
425 -1 #SUP: 2
431 -1 #SUP: 4
441 -1 #SUP: 13
443 -1 #SUP: 5
444 -1 #SUP: 3
483 -1 #SUP: 2
484 -1 #SUP: 2
505 -1 #SUP: 2
517 -1 #SUP: 2
520 -1 #SUP: 11
529 -1 #SUP: 2
533 -1 #SUP: 2
538 -1 #SUP: 3
540 -1 #SUP: 3
544 -1 #SUP: 2
548 -1 #SUP: 2
564 -1 #SUP: 3
566 -1 #SUP: 2
567 -1 #SUP: 3
589 -1 #SUP: 2
599 -1 #SUP: 15
627 -1 #SUP: 3
628 -1 #SUP: 2
653 -1 #SUP: 2
693 -1 #SUP: 5
694 -1 #SUP: 4
698 -1 #SUP: 2
699 -1 #SUP: 2
702 -1 #SUP: 2
704 -1 #SUP: 3
710 -1 #SUP: 2
720 -1 #SUP: 2
749 -1 #SUP: 2
753 -1 #SUP: 2
765 -1 #SUP: 6
789 -1 #SUP: 5
823 -1 #SUP: 2
871 -1 #SUP: 3
872 -1 #SUP: 2
905 -1 #SUP: 3
906 -1 #SUP: 2
929 -1 #SUP: 2
936 -1 #SUP: 7
951 -1 #SUP: 6
974 -1 #SUP: 2
1030 -1 #SUP: 3
1034 -1 #SUP: 2
1039 -1 #SUP: 3
1191 -1 #SUP: 4
1210 -1 #SUP: 3
1219 -1 #SUP: 4
1224 -1 #SUP: 2
1241 -1 #SUP: 5
1263 -1 #SUP: 2
1313 -1 #SUP: 2
1468 -1 #SUP: 3
1478 -1 #SUP: 2
1610 -1 #SUP: 2
1650 -1 #SUP: 2
1672 -1 #SUP: 3
1685 -1 #SUP: 3
1700 -1 #SUP: 2
1713 -1 #SUP: 2
1758 -1 #SUP: 5
1792 -1 #SUP: 2
1898 -1 #SUP: 2
1899 -1 #SUP: 2
1913 -1 #SUP: 2
2104 -1 #SUP: 2
2248 -1 #SUP: 2
2339 -1 #SUP: 2
2674 -1 #SUP: 2
2681 -1 #SUP: 2
2910 -1 #SUP: 2
3150 -1 #SUP: 3
3336 -1 #SUP: 3
3632 -1 #SUP: 2
3641 -1 #SUP: 2
3956 -1 #SUP: 2
4460 -1 #SUP: 2
5372 -1 #SUP: 2
5666 -1 #SUP: 2
6593 -1 #SUP: 3
7058 -1 #SUP: 2
10862 -1 #SUP: 2
11636 -1 #SUP: 2
11760 -1 #SUP: 2
18243 -1 #SUP: 2
31644 -1 #SUP: 2
48661 -1 #SUP: 2
55191 -1 #SUP: 2
73717 -1 #SUP: 2
144392 -1 #SUP: 2
2 -1 2 -1 #SUP: 3
2 -1 22 -1 #SUP: 2
2 -1 29 -1 #SUP: 2
2 -1 31 -1 #SUP: 2
2 -1 32 -1 #SUP: 2
2 -1 41 -1 #SUP: 2
2 -1 64 -1 #SUP: 4
2 -1 65 -1 #SUP: 3
2 -1 77 -1 #SUP: 3
2 -1 123 -1 #SUP: 6
2 -1 134 -1 #SUP: 2
2 -1 154 -1 #SUP: 2
2 -1 193 -1 #SUP: 2
2 -1 205 -1 #SUP: 2
2 -1 212 -1 #SUP: 2
2 -1 220 -1 #SUP: 2
2 -1 262 -1 #SUP: 2
2 -1 407 -1 #SUP: 2
2 -1 441 -1 #SUP: 2
2 -1 484 -1 #SUP: 2
2 -1 1650 -1 #SUP: 2
2 -1 1898 -1 #SUP: 2
3 -1 871 -1 #SUP: 2
10 -1 2 -1 #SUP: 3
10 -1 22 -1 #SUP: 5
10 -1 50 -1 #SUP: 2
10 -1 70 -1 #SUP: 2
10 -1 123 -1 #SUP: 4
10 -1 154 -1 #SUP: 2
10 -1 291 -1 #SUP: 2
10 -1 589 -1 #SUP: 2
10 -1 871 -1 #SUP: 2
15 -1 32 -1 #SUP: 2
15 -1 77 -1 #SUP: 2
15 -1 123 -1 #SUP: 2
15 -1 599 -1 #SUP: 2
16 -1 27 -1 #SUP: 2
16 -1 77 -1 #SUP: 2
16 -1 364 -1 #SUP: 2
22 -1 2 -1 #SUP: 3
22 -1 10 -1 #SUP: 3
22 -1 22 -1 #SUP: 3
22 -1 30 -1 #SUP: 3
22 -1 31 -1 #SUP: 4
22 -1 32 -1 #SUP: 3
22 -1 41 -1 #SUP: 2
22 -1 64 -1 #SUP: 3
22 -1 65 -1 #SUP: 2
22 -1 76 -1 #SUP: 2
22 -1 77 -1 #SUP: 4
22 -1 123 -1 #SUP: 7
22 -1 132 -1 #SUP: 3
22 -1 144 -1 #SUP: 2
22 -1 170 -1 #SUP: 2
22 -1 196 -1 #SUP: 2
22 -1 393 -1 #SUP: 2
22 -1 538 -1 #SUP: 2
22 -1 5372 -1 #SUP: 2
27 -1 16 -1 #SUP: 2
27 -1 22 -1 #SUP: 2
27 -1 32 -1 #SUP: 3
27 -1 41 -1 #SUP: 5
27 -1 77 -1 #SUP: 3
27 -1 123 -1 #SUP: 5
27 -1 165 -1 #SUP: 2
27 -1 193 -1 #SUP: 3
27 -1 220 -1 #SUP: 2
27 -1 286 -1 #SUP: 3
27 -1 364 -1 #SUP: 3
27 -1 599 -1 #SUP: 2
27 -1 765 -1 #SUP: 2
30 -1 32 -1 #SUP: 2
30 -1 123 -1 #SUP: 2
30 -1 11636 -1 #SUP: 2
31 -1 10 -1 #SUP: 2
31 -1 22 -1 #SUP: 3
31 -1 27 -1 #SUP: 2
31 -1 64 -1 #SUP: 4
31 -1 65 -1 #SUP: 2
31 -1 77 -1 #SUP: 3
31 -1 123 -1 #SUP: 3
31 -1 154 -1 #SUP: 2
31 -1 165 -1 #SUP: 2
31 -1 174 -1 #SUP: 2
31 -1 193 -1 #SUP: 2
31 -1 599 -1 #SUP: 2
31 -1 936 -1 #SUP: 2
32 -1 2 -1 #SUP: 2
32 -1 22 -1 #SUP: 4
32 -1 27 -1 #SUP: 2
32 -1 32 -1 #SUP: 3
32 -1 41 -1 #SUP: 2
32 -1 50 -1 #SUP: 2
32 -1 64 -1 #SUP: 3
32 -1 77 -1 #SUP: 5
32 -1 120 -1 #SUP: 2
32 -1 123 -1 #SUP: 4
32 -1 134 -1 #SUP: 2
32 -1 171 -1 #SUP: 2
32 -1 225 -1 #SUP: 2
32 -1 260 -1 #SUP: 3
32 -1 364 -1 #SUP: 3
32 -1 381 -1 #SUP: 2
32 -1 599 -1 #SUP: 3
33 -1 32 -1 #SUP: 3
33 -1 50 -1 #SUP: 2
33 -1 70 -1 #SUP: 2
33 -1 134 -1 #SUP: 2
33 -1 193 -1 #SUP: 3
33 -1 222 -1 #SUP: 2
41 -1 2 -1 #SUP: 4
41 -1 22 -1 #SUP: 2
41 -1 32 -1 #SUP: 2
41 -1 41 -1 #SUP: 4
41 -1 64 -1 #SUP: 5
41 -1 65 -1 #SUP: 3
41 -1 67 -1 #SUP: 4
41 -1 154 -1 #SUP: 2
41 -1 162 -1 #SUP: 3
41 -1 165 -1 #SUP: 2
41 -1 173 -1 #SUP: 2
41 -1 193 -1 #SUP: 6
41 -1 220 -1 #SUP: 3
41 -1 262 -1 #SUP: 2
41 -1 520 -1 #SUP: 2
41 -1 599 -1 #SUP: 2
41 -1 1758 -1 #SUP: 4
48 -1 2 -1 #SUP: 2
48 -1 32 -1 #SUP: 2
48 -1 66 -1 #SUP: 2
48 -1 123 -1 #SUP: 3
48 -1 164 -1 #SUP: 2
48 -1 280 -1 #SUP: 2
48 -1 599 -1 #SUP: 2
50 -1 32 -1 #SUP: 2
50 -1 50 -1 #SUP: 2
50 -1 77 -1 #SUP: 2
50 -1 120 -1 #SUP: 3
50 -1 123 -1 #SUP: 2
50 -1 164 -1 #SUP: 2
50 -1 260 -1 #SUP: 2
50 -1 698 -1 #SUP: 2
64 -1 2 -1 #SUP: 2
64 -1 10 -1 #SUP: 2
64 -1 22 -1 #SUP: 3
64 -1 27 -1 #SUP: 3
64 -1 29 -1 #SUP: 2
64 -1 31 -1 #SUP: 2
64 -1 33 -1 #SUP: 3
64 -1 41 -1 #SUP: 2
64 -1 48 -1 #SUP: 2
64 -1 50 -1 #SUP: 3
64 -1 64 -1 #SUP: 4
64 -1 65 -1 #SUP: 2
64 -1 67 -1 #SUP: 4
64 -1 77 -1 #SUP: 6
64 -1 78 -1 #SUP: 2
64 -1 120 -1 #SUP: 2
64 -1 123 -1 #SUP: 4
64 -1 134 -1 #SUP: 2
64 -1 158 -1 #SUP: 2
64 -1 164 -1 #SUP: 3
64 -1 170 -1 #SUP: 2
64 -1 201 -1 #SUP: 2
64 -1 212 -1 #SUP: 2
64 -1 213 -1 #SUP: 2
64 -1 236 -1 #SUP: 2
64 -1 260 -1 #SUP: 2
64 -1 262 -1 #SUP: 2
64 -1 268 -1 #SUP: 3
64 -1 286 -1 #SUP: 2
64 -1 322 -1 #SUP: 3
64 -1 326 -1 #SUP: 3
64 -1 364 -1 #SUP: 2
64 -1 384 -1 #SUP: 2
64 -1 520 -1 #SUP: 3
64 -1 599 -1 #SUP: 4
64 -1 765 -1 #SUP: 2
64 -1 1241 -1 #SUP: 2
64 -1 3150 -1 #SUP: 2
65 -1 2 -1 #SUP: 4
65 -1 10 -1 #SUP: 2
65 -1 22 -1 #SUP: 2
65 -1 31 -1 #SUP: 3
65 -1 32 -1 #SUP: 4
65 -1 64 -1 #SUP: 4
65 -1 65 -1 #SUP: 3
65 -1 67 -1 #SUP: 2
65 -1 77 -1 #SUP: 8
65 -1 117 -1 #SUP: 2
65 -1 123 -1 #SUP: 8
65 -1 154 -1 #SUP: 2
65 -1 164 -1 #SUP: 2
65 -1 222 -1 #SUP: 2
65 -1 225 -1 #SUP: 2
65 -1 260 -1 #SUP: 3
65 -1 326 -1 #SUP: 4
65 -1 381 -1 #SUP: 2
65 -1 383 -1 #SUP: 2
65 -1 484 -1 #SUP: 2
65 -1 599 -1 #SUP: 2
65 -1 720 -1 #SUP: 2
65 -1 936 -1 #SUP: 2
65 -1 1219 -1 #SUP: 4
65 -1 1700 -1 #SUP: 2
65 -1 1898 -1 #SUP: 2
65 -1 1899 -1 #SUP: 2
65 -1 3150 -1 #SUP: 3
65 -1 6593 -1 #SUP: 2
65 -1 73717 -1 #SUP: 2
66 -1 22 -1 #SUP: 2
66 -1 32 -1 #SUP: 3
66 -1 123 -1 #SUP: 2
66 -1 220 -1 #SUP: 2
66 -1 268 -1 #SUP: 2
67 -1 32 -1 #SUP: 2
67 -1 33 -1 #SUP: 2
67 -1 64 -1 #SUP: 3
67 -1 77 -1 #SUP: 4
67 -1 123 -1 #SUP: 3
67 -1 134 -1 #SUP: 2
67 -1 158 -1 #SUP: 2
67 -1 291 -1 #SUP: 2
67 -1 326 -1 #SUP: 3
67 -1 936 -1 #SUP: 2
67 -1 3150 -1 #SUP: 2
70 -1 2 -1 #SUP: 2
70 -1 32 -1 #SUP: 2
70 -1 33 -1 #SUP: 2
70 -1 64 -1 #SUP: 2
70 -1 154 -1 #SUP: 2
70 -1 193 -1 #SUP: 3
70 -1 222 -1 #SUP: 3
77 -1 2 -1 #SUP: 5
77 -1 10 -1 #SUP: 5
77 -1 16 -1 #SUP: 4
77 -1 22 -1 #SUP: 4
77 -1 27 -1 #SUP: 2
77 -1 31 -1 #SUP: 2
77 -1 32 -1 #SUP: 4
77 -1 33 -1 #SUP: 2
77 -1 41 -1 #SUP: 5
77 -1 64 -1 #SUP: 5
77 -1 65 -1 #SUP: 5
77 -1 70 -1 #SUP: 2
77 -1 77 -1 #SUP: 4
77 -1 120 -1 #SUP: 3
77 -1 123 -1 #SUP: 16
77 -1 144 -1 #SUP: 3
77 -1 162 -1 #SUP: 2
77 -1 170 -1 #SUP: 2
77 -1 171 -1 #SUP: 2
77 -1 174 -1 #SUP: 3
77 -1 193 -1 #SUP: 3
77 -1 212 -1 #SUP: 4
77 -1 220 -1 #SUP: 2
77 -1 244 -1 #SUP: 2
77 -1 286 -1 #SUP: 2
77 -1 340 -1 #SUP: 3
77 -1 364 -1 #SUP: 5
77 -1 383 -1 #SUP: 2
77 -1 441 -1 #SUP: 2
77 -1 520 -1 #SUP: 2
77 -1 599 -1 #SUP: 4
77 -1 699 -1 #SUP: 2
77 -1 936 -1 #SUP: 4
77 -1 1191 -1 #SUP: 2
77 -1 1758 -1 #SUP: 2
77 -1 2681 -1 #SUP: 2
78 -1 65 -1 #SUP: 2
78 -1 77 -1 #SUP: 2
78 -1 78 -1 #SUP: 2
78 -1 123 -1 #SUP: 3
82 -1 123 -1 #SUP: 2
117 -1 22 -1 #SUP: 3
117 -1 32 -1 #SUP: 2
117 -1 50 -1 #SUP: 2
117 -1 70 -1 #SUP: 2
117 -1 123 -1 #SUP: 3
117 -1 599 -1 #SUP: 2
117 -1 1191 -1 #SUP: 2
120 -1 32 -1 #SUP: 2
120 -1 77 -1 #SUP: 2
120 -1 123 -1 #SUP: 3
120 -1 212 -1 #SUP: 2
120 -1 260 -1 #SUP: 3
120 -1 340 -1 #SUP: 4
120 -1 356 -1 #SUP: 2
120 -1 3336 -1 #SUP: 2
123 -1 2 -1 #SUP: 5
123 -1 10 -1 #SUP: 6
123 -1 15 -1 #SUP: 2
123 -1 16 -1 #SUP: 5
123 -1 22 -1 #SUP: 6
123 -1 27 -1 #SUP: 5
123 -1 31 -1 #SUP: 2
123 -1 32 -1 #SUP: 10
123 -1 33 -1 #SUP: 3
123 -1 41 -1 #SUP: 2
123 -1 48 -1 #SUP: 3
123 -1 50 -1 #SUP: 6
123 -1 64 -1 #SUP: 17
123 -1 65 -1 #SUP: 14
123 -1 67 -1 #SUP: 5
123 -1 77 -1 #SUP: 12
123 -1 78 -1 #SUP: 3
123 -1 117 -1 #SUP: 3
123 -1 120 -1 #SUP: 7
123 -1 123 -1 #SUP: 16
123 -1 134 -1 #SUP: 2
123 -1 144 -1 #SUP: 4
123 -1 152 -1 #SUP: 4
123 -1 154 -1 #SUP: 6
123 -1 158 -1 #SUP: 4
123 -1 162 -1 #SUP: 3
123 -1 164 -1 #SUP: 7
123 -1 165 -1 #SUP: 4
123 -1 170 -1 #SUP: 5
123 -1 171 -1 #SUP: 2
123 -1 174 -1 #SUP: 5
123 -1 175 -1 #SUP: 2
123 -1 193 -1 #SUP: 4
123 -1 196 -1 #SUP: 2
123 -1 197 -1 #SUP: 2
123 -1 205 -1 #SUP: 5
123 -1 206 -1 #SUP: 4
123 -1 210 -1 #SUP: 4
123 -1 212 -1 #SUP: 6
123 -1 220 -1 #SUP: 5
123 -1 224 -1 #SUP: 2
123 -1 225 -1 #SUP: 2
123 -1 236 -1 #SUP: 3
123 -1 260 -1 #SUP: 8
123 -1 262 -1 #SUP: 3
123 -1 268 -1 #SUP: 2
123 -1 276 -1 #SUP: 2
123 -1 286 -1 #SUP: 5
123 -1 291 -1 #SUP: 6
123 -1 322 -1 #SUP: 2
123 -1 326 -1 #SUP: 2
123 -1 340 -1 #SUP: 4
123 -1 356 -1 #SUP: 5
123 -1 364 -1 #SUP: 6
123 -1 392 -1 #SUP: 2
123 -1 407 -1 #SUP: 9
123 -1 411 -1 #SUP: 5
123 -1 441 -1 #SUP: 7
123 -1 443 -1 #SUP: 2
123 -1 517 -1 #SUP: 2
123 -1 520 -1 #SUP: 3
123 -1 529 -1 #SUP: 2
123 -1 540 -1 #SUP: 2
123 -1 589 -1 #SUP: 2
123 -1 599 -1 #SUP: 4
123 -1 627 -1 #SUP: 2
123 -1 693 -1 #SUP: 2
123 -1 765 -1 #SUP: 5
123 -1 789 -1 #SUP: 3
123 -1 929 -1 #SUP: 2
123 -1 936 -1 #SUP: 4
123 -1 951 -1 #SUP: 4
123 -1 1034 -1 #SUP: 2
123 -1 1039 -1 #SUP: 3
123 -1 1191 -1 #SUP: 3
123 -1 1219 -1 #SUP: 2
123 -1 1610 -1 #SUP: 2
123 -1 1650 -1 #SUP: 2
123 -1 1672 -1 #SUP: 3
123 -1 1685 -1 #SUP: 2
123 -1 1713 -1 #SUP: 2
123 -1 1898 -1 #SUP: 2
123 -1 1899 -1 #SUP: 2
123 -1 2104 -1 #SUP: 2
123 -1 2339 -1 #SUP: 2
123 -1 2674 -1 #SUP: 2
123 -1 2910 -1 #SUP: 2
123 -1 3336 -1 #SUP: 2
123 -1 3632 -1 #SUP: 2
123 -1 3641 -1 #SUP: 2
123 -1 3956 -1 #SUP: 2
123 -1 4460 -1 #SUP: 2
123 -1 7058 -1 #SUP: 2
123 -1 31644 -1 #SUP: 2
134 -1 77 -1 #SUP: 2
134 -1 123 -1 #SUP: 2
144 -1 16 -1 #SUP: 2
144 -1 41 -1 #SUP: 2
144 -1 170 -1 #SUP: 2
144 -1 364 -1 #SUP: 2
149 -1 10 -1 #SUP: 2
152 -1 77 -1 #SUP: 3
152 -1 123 -1 #SUP: 2
152 -1 364 -1 #SUP: 2
153 -1 193 -1 #SUP: 2
154 -1 27 -1 #SUP: 2
154 -1 31 -1 #SUP: 2
154 -1 32 -1 #SUP: 3
154 -1 48 -1 #SUP: 2
154 -1 64 -1 #SUP: 3
154 -1 65 -1 #SUP: 5
154 -1 67 -1 #SUP: 2
154 -1 77 -1 #SUP: 4
154 -1 123 -1 #SUP: 6
154 -1 154 -1 #SUP: 3
154 -1 199 -1 #SUP: 2
154 -1 222 -1 #SUP: 3
154 -1 225 -1 #SUP: 2
154 -1 260 -1 #SUP: 4
154 -1 326 -1 #SUP: 4
154 -1 383 -1 #SUP: 2
154 -1 443 -1 #SUP: 2
154 -1 599 -1 #SUP: 3
154 -1 936 -1 #SUP: 2
158 -1 33 -1 #SUP: 3
158 -1 77 -1 #SUP: 2
162 -1 64 -1 #SUP: 3
162 -1 123 -1 #SUP: 2
162 -1 152 -1 #SUP: 2
162 -1 162 -1 #SUP: 3
162 -1 173 -1 #SUP: 2
162 -1 193 -1 #SUP: 3
162 -1 212 -1 #SUP: 2
162 -1 262 -1 #SUP: 2
162 -1 364 -1 #SUP: 2
162 -1 1210 -1 #SUP: 3
164 -1 22 -1 #SUP: 2
164 -1 32 -1 #SUP: 2
164 -1 42 -1 #SUP: 2
164 -1 50 -1 #SUP: 3
164 -1 64 -1 #SUP: 2
164 -1 134 -1 #SUP: 2
164 -1 222 -1 #SUP: 3
164 -1 280 -1 #SUP: 2
164 -1 364 -1 #SUP: 2
165 -1 32 -1 #SUP: 2
165 -1 64 -1 #SUP: 2
165 -1 67 -1 #SUP: 3
165 -1 123 -1 #SUP: 2
165 -1 193 -1 #SUP: 2
170 -1 2 -1 #SUP: 2
170 -1 32 -1 #SUP: 2
170 -1 65 -1 #SUP: 3
170 -1 77 -1 #SUP: 3
170 -1 120 -1 #SUP: 2
170 -1 123 -1 #SUP: 5
170 -1 154 -1 #SUP: 2
170 -1 196 -1 #SUP: 2
170 -1 212 -1 #SUP: 2
170 -1 220 -1 #SUP: 2
170 -1 268 -1 #SUP: 2
170 -1 276 -1 #SUP: 2
170 -1 356 -1 #SUP: 2
170 -1 599 -1 #SUP: 2
170 -1 1030 -1 #SUP: 2
171 -1 32 -1 #SUP: 2
171 -1 134 -1 #SUP: 2
171 -1 171 -1 #SUP: 2
174 -1 64 -1 #SUP: 2
174 -1 4460 -1 #SUP: 2
177 -1 2 -1 #SUP: 2
183 -1 77 -1 #SUP: 3
183 -1 123 -1 #SUP: 2
189 -1 2 -1 #SUP: 2
189 -1 123 -1 #SUP: 3
189 -1 407 -1 #SUP: 2
190 -1 10 -1 #SUP: 2
193 -1 64 -1 #SUP: 6
193 -1 65 -1 #SUP: 2
193 -1 67 -1 #SUP: 2
193 -1 1210 -1 #SUP: 3
196 -1 384 -1 #SUP: 2
197 -1 78 -1 #SUP: 2
197 -1 123 -1 #SUP: 2
197 -1 340 -1 #SUP: 2
199 -1 77 -1 #SUP: 2
199 -1 599 -1 #SUP: 2
201 -1 65 -1 #SUP: 2
201 -1 77 -1 #SUP: 2
205 -1 64 -1 #SUP: 2
205 -1 123 -1 #SUP: 3
205 -1 165 -1 #SUP: 3
205 -1 193 -1 #SUP: 3
205 -1 262 -1 #SUP: 2
206 -1 2 -1 #SUP: 2
206 -1 64 -1 #SUP: 3
206 -1 65 -1 #SUP: 2
206 -1 222 -1 #SUP: 2
206 -1 291 -1 #SUP: 2
206 -1 326 -1 #SUP: 2
210 -1 33 -1 #SUP: 2
210 -1 197 -1 #SUP: 2
212 -1 2 -1 #SUP: 3
212 -1 10 -1 #SUP: 4
212 -1 16 -1 #SUP: 2
212 -1 22 -1 #SUP: 2
212 -1 64 -1 #SUP: 2
212 -1 65 -1 #SUP: 2
212 -1 77 -1 #SUP: 3
212 -1 123 -1 #SUP: 4
212 -1 158 -1 #SUP: 2
212 -1 193 -1 #SUP: 3
212 -1 417 -1 #SUP: 2
212 -1 1468 -1 #SUP: 2
212 -1 1650 -1 #SUP: 2
220 -1 32 -1 #SUP: 2
220 -1 64 -1 #SUP: 3
220 -1 65 -1 #SUP: 2
220 -1 77 -1 #SUP: 3
220 -1 123 -1 #SUP: 2
220 -1 193 -1 #SUP: 2
220 -1 268 -1 #SUP: 2
220 -1 520 -1 #SUP: 2
220 -1 599 -1 #SUP: 2
220 -1 765 -1 #SUP: 2
220 -1 1713 -1 #SUP: 2
222 -1 22 -1 #SUP: 3
222 -1 27 -1 #SUP: 2
222 -1 64 -1 #SUP: 2
222 -1 77 -1 #SUP: 2
222 -1 123 -1 #SUP: 5
222 -1 162 -1 #SUP: 2
222 -1 193 -1 #SUP: 3
222 -1 236 -1 #SUP: 2
222 -1 407 -1 #SUP: 2
222 -1 441 -1 #SUP: 2
225 -1 123 -1 #SUP: 2
225 -1 222 -1 #SUP: 2
236 -1 22 -1 #SUP: 2
236 -1 65 -1 #SUP: 2
236 -1 66 -1 #SUP: 2
236 -1 123 -1 #SUP: 5
236 -1 262 -1 #SUP: 2
236 -1 356 -1 #SUP: 2
236 -1 599 -1 #SUP: 2
236 -1 702 -1 #SUP: 2
246 -1 10 -1 #SUP: 2
246 -1 77 -1 #SUP: 2
246 -1 123 -1 #SUP: 2
249 -1 30 -1 #SUP: 2
249 -1 123 -1 #SUP: 2
256 -1 2 -1 #SUP: 2
256 -1 177 -1 #SUP: 2
260 -1 2 -1 #SUP: 2
260 -1 10 -1 #SUP: 2
260 -1 22 -1 #SUP: 2
260 -1 27 -1 #SUP: 2
260 -1 31 -1 #SUP: 3
260 -1 32 -1 #SUP: 3
260 -1 33 -1 #SUP: 3
260 -1 41 -1 #SUP: 3
260 -1 50 -1 #SUP: 2
260 -1 64 -1 #SUP: 2
260 -1 67 -1 #SUP: 2
260 -1 77 -1 #SUP: 4
260 -1 123 -1 #SUP: 2
260 -1 158 -1 #SUP: 2
260 -1 164 -1 #SUP: 2
260 -1 175 -1 #SUP: 2
260 -1 364 -1 #SUP: 2
260 -1 520 -1 #SUP: 2
260 -1 1039 -1 #SUP: 2
260 -1 2339 -1 #SUP: 2
260 -1 5666 -1 #SUP: 2
262 -1 50 -1 #SUP: 2
262 -1 123 -1 #SUP: 4
262 -1 170 -1 #SUP: 3
262 -1 193 -1 #SUP: 3
262 -1 520 -1 #SUP: 2
262 -1 599 -1 #SUP: 2
263 -1 520 -1 #SUP: 2
268 -1 33 -1 #SUP: 2
268 -1 520 -1 #SUP: 3
268 -1 599 -1 #SUP: 2
268 -1 1241 -1 #SUP: 2
276 -1 31 -1 #SUP: 2
276 -1 65 -1 #SUP: 2
280 -1 77 -1 #SUP: 2
280 -1 123 -1 #SUP: 2
286 -1 22 -1 #SUP: 2
286 -1 32 -1 #SUP: 2
286 -1 64 -1 #SUP: 2
286 -1 123 -1 #SUP: 2
291 -1 64 -1 #SUP: 2
291 -1 123 -1 #SUP: 4
291 -1 196 -1 #SUP: 2
326 -1 2 -1 #SUP: 2
326 -1 32 -1 #SUP: 2
326 -1 48 -1 #SUP: 3
326 -1 77 -1 #SUP: 2
326 -1 123 -1 #SUP: 3
326 -1 228 -1 #SUP: 2
326 -1 3150 -1 #SUP: 2
340 -1 27 -1 #SUP: 2
340 -1 64 -1 #SUP: 2
340 -1 77 -1 #SUP: 2
340 -1 123 -1 #SUP: 2
340 -1 212 -1 #SUP: 2
340 -1 220 -1 #SUP: 2
356 -1 2 -1 #SUP: 2
356 -1 64 -1 #SUP: 2
356 -1 65 -1 #SUP: 2
356 -1 67 -1 #SUP: 2
356 -1 77 -1 #SUP: 4
356 -1 123 -1 #SUP: 3
356 -1 260 -1 #SUP: 2
356 -1 364 -1 #SUP: 2
356 -1 1700 -1 #SUP: 2
364 -1 10 -1 #SUP: 2
364 -1 16 -1 #SUP: 3
364 -1 22 -1 #SUP: 3
364 -1 32 -1 #SUP: 3
364 -1 63 -1 #SUP: 3
364 -1 64 -1 #SUP: 3
364 -1 65 -1 #SUP: 3
364 -1 77 -1 #SUP: 4
364 -1 123 -1 #SUP: 4
364 -1 152 -1 #SUP: 2
364 -1 162 -1 #SUP: 2
364 -1 212 -1 #SUP: 3
364 -1 364 -1 #SUP: 3
364 -1 520 -1 #SUP: 2
364 -1 11760 -1 #SUP: 2
383 -1 32 -1 #SUP: 4
405 -1 32 -1 #SUP: 2
407 -1 32 -1 #SUP: 2
407 -1 64 -1 #SUP: 2
407 -1 65 -1 #SUP: 2
407 -1 123 -1 #SUP: 2
407 -1 152 -1 #SUP: 2
407 -1 1219 -1 #SUP: 2
411 -1 50 -1 #SUP: 2
411 -1 64 -1 #SUP: 2
411 -1 123 -1 #SUP: 2
411 -1 158 -1 #SUP: 2
431 -1 64 -1 #SUP: 2
441 -1 2 -1 #SUP: 2
441 -1 64 -1 #SUP: 2
441 -1 65 -1 #SUP: 4
441 -1 123 -1 #SUP: 3
441 -1 164 -1 #SUP: 2
441 -1 431 -1 #SUP: 2
441 -1 441 -1 #SUP: 3
441 -1 1898 -1 #SUP: 2
441 -1 1899 -1 #SUP: 2
443 -1 64 -1 #SUP: 2
443 -1 123 -1 #SUP: 2
443 -1 2248 -1 #SUP: 2
505 -1 171 -1 #SUP: 2
520 -1 3 -1 #SUP: 2
520 -1 22 -1 #SUP: 2
520 -1 33 -1 #SUP: 2
520 -1 41 -1 #SUP: 2
520 -1 50 -1 #SUP: 2
520 -1 64 -1 #SUP: 2
520 -1 123 -1 #SUP: 3
520 -1 158 -1 #SUP: 2
520 -1 171 -1 #SUP: 3
520 -1 193 -1 #SUP: 2
520 -1 1241 -1 #SUP: 4
520 -1 5666 -1 #SUP: 2
529 -1 441 -1 #SUP: 2
544 -1 170 -1 #SUP: 2
548 -1 371 -1 #SUP: 2
567 -1 123 -1 #SUP: 2
599 -1 3 -1 #SUP: 2
599 -1 22 -1 #SUP: 2
599 -1 32 -1 #SUP: 2
599 -1 70 -1 #SUP: 3
599 -1 77 -1 #SUP: 2
599 -1 123 -1 #SUP: 8
599 -1 164 -1 #SUP: 2
599 -1 171 -1 #SUP: 2
599 -1 193 -1 #SUP: 2
599 -1 205 -1 #SUP: 2
599 -1 212 -1 #SUP: 2
599 -1 520 -1 #SUP: 3
599 -1 1224 -1 #SUP: 2
599 -1 1241 -1 #SUP: 2
627 -1 22 -1 #SUP: 2
627 -1 2674 -1 #SUP: 2
628 -1 123 -1 #SUP: 2
628 -1 154 -1 #SUP: 2
653 -1 65 -1 #SUP: 2
653 -1 77 -1 #SUP: 2
653 -1 260 -1 #SUP: 2
653 -1 356 -1 #SUP: 2
653 -1 1700 -1 #SUP: 2
693 -1 32 -1 #SUP: 2
693 -1 117 -1 #SUP: 2
694 -1 222 -1 #SUP: 2
699 -1 154 -1 #SUP: 2
702 -1 65 -1 #SUP: 2
765 -1 22 -1 #SUP: 2
765 -1 65 -1 #SUP: 3
765 -1 77 -1 #SUP: 2
765 -1 123 -1 #SUP: 2
765 -1 364 -1 #SUP: 2
789 -1 117 -1 #SUP: 2
789 -1 693 -1 #SUP: 2
789 -1 906 -1 #SUP: 2
823 -1 31 -1 #SUP: 2
871 -1 70 -1 #SUP: 2
871 -1 599 -1 #SUP: 2
936 -1 123 -1 #SUP: 3
951 -1 123 -1 #SUP: 2
951 -1 228 -1 #SUP: 2
951 -1 326 -1 #SUP: 2
974 -1 409 -1 #SUP: 2
1030 -1 318 -1 #SUP: 2
1039 -1 2339 -1 #SUP: 2
1191 -1 32 -1 #SUP: 2
1191 -1 64 -1 #SUP: 2
1191 -1 174 -1 #SUP: 2
1191 -1 4460 -1 #SUP: 2
1210 -1 64 -1 #SUP: 3
1219 -1 32 -1 #SUP: 3
1219 -1 77 -1 #SUP: 2
1241 -1 3 -1 #SUP: 2
1241 -1 22 -1 #SUP: 2
1241 -1 123 -1 #SUP: 2
1313 -1 213 -1 #SUP: 2
1610 -1 158 -1 #SUP: 2
1650 -1 164 -1 #SUP: 2
1672 -1 77 -1 #SUP: 2
1685 -1 123 -1 #SUP: 3
1685 -1 165 -1 #SUP: 2
1700 -1 77 -1 #SUP: 2
1713 -1 64 -1 #SUP: 2
1758 -1 2 -1 #SUP: 2
1758 -1 65 -1 #SUP: 2
1758 -1 193 -1 #SUP: 2
1792 -1 31 -1 #SUP: 2
1899 -1 2 -1 #SUP: 2
1899 -1 65 -1 #SUP: 2
1899 -1 484 -1 #SUP: 2
1899 -1 1898 -1 #SUP: 2
2674 -1 22 -1 #SUP: 2
2910 -1 291 -1 #SUP: 2
3336 -1 77 -1 #SUP: 2
3632 -1 64 -1 #SUP: 2
3641 -1 123 -1 #SUP: 2
3956 -1 41 -1 #SUP: 2
3956 -1 162 -1 #SUP: 2
4460 -1 64 -1 #SUP: 2
5372 -1 30 -1 #SUP: 2
5372 -1 11636 -1 #SUP: 2
5666 -1 33 -1 #SUP: 2
5666 -1 158 -1 #SUP: 2
6593 -1 2 -1 #SUP: 2
6593 -1 905 -1 #SUP: 2
7058 -1 27 -1 #SUP: 2
18243 -1 177 -1 #SUP: 2
18243 -1 256 -1 #SUP: 2
18243 -1 144392 -1 #SUP: 2
55191 -1 32 -1 #SUP: 2
144392 -1 2 -1 #SUP: 2
144392 -1 177 -1 #SUP: 2
144392 -1 256 -1 #SUP: 2
2 -1 2 -1 220 -1 #SUP: 2
2 -1 41 -1 2 -1 #SUP: 2
2 -1 64 -1 29 -1 #SUP: 2
2 -1 65 -1 123 -1 #SUP: 2
2 -1 65 -1 484 -1 #SUP: 2
2 -1 65 -1 1898 -1 #SUP: 2
2 -1 123 -1 65 -1 #SUP: 2
2 -1 123 -1 123 -1 #SUP: 4
2 -1 123 -1 205 -1 #SUP: 2
2 -1 123 -1 212 -1 #SUP: 2
2 -1 123 -1 262 -1 #SUP: 2
2 -1 123 -1 407 -1 #SUP: 2
2 -1 123 -1 441 -1 #SUP: 2
2 -1 123 -1 1650 -1 #SUP: 2
2 -1 205 -1 262 -1 #SUP: 2
2 -1 441 -1 65 -1 #SUP: 2
10 -1 22 -1 123 -1 #SUP: 2
10 -1 871 -1 70 -1 #SUP: 2
16 -1 77 -1 364 -1 #SUP: 2
22 -1 77 -1 123 -1 #SUP: 2
22 -1 5372 -1 30 -1 #SUP: 2
27 -1 32 -1 123 -1 #SUP: 2
27 -1 41 -1 193 -1 #SUP: 3
27 -1 77 -1 16 -1 #SUP: 2
27 -1 77 -1 364 -1 #SUP: 2
27 -1 123 -1 77 -1 #SUP: 2
27 -1 123 -1 286 -1 #SUP: 2
27 -1 165 -1 123 -1 #SUP: 2
27 -1 364 -1 16 -1 #SUP: 2
27 -1 599 -1 123 -1 #SUP: 2
31 -1 123 -1 64 -1 #SUP: 2
31 -1 123 -1 174 -1 #SUP: 2
31 -1 193 -1 64 -1 #SUP: 2
31 -1 599 -1 123 -1 #SUP: 2
31 -1 936 -1 123 -1 #SUP: 2
32 -1 123 -1 64 -1 #SUP: 2
32 -1 123 -1 120 -1 #SUP: 2
32 -1 123 -1 260 -1 #SUP: 3
33 -1 70 -1 193 -1 #SUP: 2
33 -1 222 -1 193 -1 #SUP: 2
41 -1 2 -1 2 -1 #SUP: 2
41 -1 2 -1 64 -1 #SUP: 2
41 -1 2 -1 220 -1 #SUP: 2
41 -1 41 -1 2 -1 #SUP: 2
41 -1 41 -1 64 -1 #SUP: 2
41 -1 41 -1 1758 -1 #SUP: 2
41 -1 67 -1 32 -1 #SUP: 2
41 -1 162 -1 173 -1 #SUP: 2
41 -1 162 -1 262 -1 #SUP: 2
41 -1 165 -1 67 -1 #SUP: 2
41 -1 193 -1 64 -1 #SUP: 2
41 -1 193 -1 65 -1 #SUP: 2
41 -1 193 -1 67 -1 #SUP: 2
41 -1 1758 -1 2 -1 #SUP: 2
41 -1 1758 -1 65 -1 #SUP: 2
41 -1 1758 -1 193 -1 #SUP: 2
50 -1 123 -1 120 -1 #SUP: 2
50 -1 123 -1 260 -1 #SUP: 2
50 -1 164 -1 50 -1 #SUP: 2
64 -1 31 -1 77 -1 #SUP: 2
64 -1 48 -1 164 -1 #SUP: 2
64 -1 67 -1 326 -1 #SUP: 3
64 -1 67 -1 3150 -1 #SUP: 2
64 -1 77 -1 599 -1 #SUP: 2
64 -1 268 -1 33 -1 #SUP: 2
64 -1 268 -1 520 -1 #SUP: 2
64 -1 326 -1 3150 -1 #SUP: 2
65 -1 2 -1 65 -1 #SUP: 2
65 -1 2 -1 123 -1 #SUP: 2
65 -1 2 -1 1898 -1 #SUP: 2
65 -1 31 -1 77 -1 #SUP: 2
65 -1 32 -1 225 -1 #SUP: 2
65 -1 64 -1 67 -1 #SUP: 2
65 -1 65 -1 484 -1 #SUP: 2
65 -1 65 -1 1898 -1 #SUP: 2
65 -1 77 -1 123 -1 #SUP: 4
65 -1 77 -1 383 -1 #SUP: 2
65 -1 123 -1 2 -1 #SUP: 2
65 -1 123 -1 77 -1 #SUP: 2
65 -1 154 -1 64 -1 #SUP: 2
65 -1 260 -1 77 -1 #SUP: 2
65 -1 326 -1 3150 -1 #SUP: 2
65 -1 599 -1 123 -1 #SUP: 2
65 -1 1219 -1 32 -1 #SUP: 3
65 -1 1219 -1 77 -1 #SUP: 2
65 -1 1700 -1 77 -1 #SUP: 2
65 -1 1899 -1 2 -1 #SUP: 2
65 -1 1899 -1 65 -1 #SUP: 2
65 -1 1899 -1 1898 -1 #SUP: 2
66 -1 123 -1 220 -1 #SUP: 2
67 -1 77 -1 123 -1 #SUP: 2
67 -1 134 -1 77 -1 #SUP: 2
67 -1 326 -1 123 -1 #SUP: 2
67 -1 326 -1 3150 -1 #SUP: 2
67 -1 936 -1 123 -1 #SUP: 2
70 -1 222 -1 193 -1 #SUP: 2
77 -1 27 -1 41 -1 #SUP: 2
77 -1 41 -1 162 -1 #SUP: 2
77 -1 41 -1 1758 -1 #SUP: 2
77 -1 77 -1 2681 -1 #SUP: 2
77 -1 123 -1 16 -1 #SUP: 2
77 -1 123 -1 64 -1 #SUP: 3
77 -1 123 -1 120 -1 #SUP: 2
77 -1 123 -1 144 -1 #SUP: 2
77 -1 123 -1 174 -1 #SUP: 3
77 -1 123 -1 220 -1 #SUP: 2
77 -1 123 -1 441 -1 #SUP: 2
77 -1 123 -1 1191 -1 #SUP: 2
77 -1 212 -1 65 -1 #SUP: 2
77 -1 364 -1 16 -1 #SUP: 2
77 -1 364 -1 32 -1 #SUP: 2
77 -1 364 -1 123 -1 #SUP: 2
77 -1 364 -1 212 -1 #SUP: 2
77 -1 383 -1 32 -1 #SUP: 2
77 -1 936 -1 123 -1 #SUP: 2
117 -1 123 -1 50 -1 #SUP: 2
120 -1 260 -1 32 -1 #SUP: 2
120 -1 340 -1 212 -1 #SUP: 2
120 -1 356 -1 123 -1 #SUP: 2
123 -1 2 -1 65 -1 #SUP: 3
123 -1 2 -1 123 -1 #SUP: 3
123 -1 2 -1 1898 -1 #SUP: 2
123 -1 10 -1 2 -1 #SUP: 2
123 -1 10 -1 22 -1 #SUP: 2
123 -1 10 -1 589 -1 #SUP: 2
123 -1 27 -1 32 -1 #SUP: 2
123 -1 27 -1 77 -1 #SUP: 2
123 -1 27 -1 123 -1 #SUP: 2
123 -1 27 -1 286 -1 #SUP: 2
123 -1 27 -1 364 -1 #SUP: 2
123 -1 32 -1 50 -1 #SUP: 2
123 -1 32 -1 64 -1 #SUP: 2
123 -1 32 -1 123 -1 #SUP: 2
123 -1 41 -1 162 -1 #SUP: 2
123 -1 64 -1 27 -1 #SUP: 2
123 -1 64 -1 64 -1 #SUP: 2
123 -1 64 -1 77 -1 #SUP: 3
123 -1 64 -1 286 -1 #SUP: 2
123 -1 64 -1 322 -1 #SUP: 2
123 -1 64 -1 599 -1 #SUP: 2
123 -1 64 -1 765 -1 #SUP: 2
123 -1 65 -1 2 -1 #SUP: 3
123 -1 65 -1 32 -1 #SUP: 3
123 -1 65 -1 65 -1 #SUP: 2
123 -1 65 -1 77 -1 #SUP: 2
123 -1 65 -1 123 -1 #SUP: 4
123 -1 65 -1 1219 -1 #SUP: 2
123 -1 65 -1 1898 -1 #SUP: 2
123 -1 65 -1 1899 -1 #SUP: 2
123 -1 67 -1 64 -1 #SUP: 3
123 -1 67 -1 77 -1 #SUP: 2
123 -1 67 -1 291 -1 #SUP: 2
123 -1 77 -1 65 -1 #SUP: 2
123 -1 77 -1 123 -1 #SUP: 5
123 -1 77 -1 212 -1 #SUP: 2
123 -1 77 -1 364 -1 #SUP: 2
123 -1 78 -1 65 -1 #SUP: 2
123 -1 120 -1 32 -1 #SUP: 2
123 -1 120 -1 123 -1 #SUP: 2
123 -1 120 -1 260 -1 #SUP: 3
123 -1 120 -1 340 -1 #SUP: 2
123 -1 120 -1 356 -1 #SUP: 2
123 -1 120 -1 3336 -1 #SUP: 2
123 -1 123 -1 22 -1 #SUP: 2
123 -1 123 -1 27 -1 #SUP: 2
123 -1 123 -1 32 -1 #SUP: 2
123 -1 123 -1 64 -1 #SUP: 4
123 -1 123 -1 65 -1 #SUP: 2
123 -1 123 -1 67 -1 #SUP: 2
123 -1 123 -1 123 -1 #SUP: 3
123 -1 123 -1 165 -1 #SUP: 2
123 -1 123 -1 205 -1 #SUP: 2
123 -1 123 -1 210 -1 #SUP: 2
123 -1 123 -1 286 -1 #SUP: 3
123 -1 123 -1 407 -1 #SUP: 2
123 -1 144 -1 16 -1 #SUP: 2
123 -1 144 -1 170 -1 #SUP: 2
123 -1 154 -1 65 -1 #SUP: 2
123 -1 154 -1 123 -1 #SUP: 2
123 -1 162 -1 152 -1 #SUP: 2
123 -1 164 -1 50 -1 #SUP: 2
123 -1 165 -1 64 -1 #SUP: 2
123 -1 165 -1 67 -1 #SUP: 2
123 -1 170 -1 65 -1 #SUP: 2
123 -1 174 -1 64 -1 #SUP: 2
123 -1 174 -1 4460 -1 #SUP: 2
123 -1 193 -1 64 -1 #SUP: 2
123 -1 205 -1 123 -1 #SUP: 3
123 -1 205 -1 165 -1 #SUP: 3
123 -1 205 -1 193 -1 #SUP: 3
123 -1 205 -1 262 -1 #SUP: 2
123 -1 206 -1 291 -1 #SUP: 2
123 -1 210 -1 197 -1 #SUP: 2
123 -1 212 -1 10 -1 #SUP: 2
123 -1 212 -1 65 -1 #SUP: 2
123 -1 212 -1 158 -1 #SUP: 2
123 -1 220 -1 64 -1 #SUP: 2
123 -1 220 -1 268 -1 #SUP: 2
123 -1 220 -1 599 -1 #SUP: 2
123 -1 220 -1 1713 -1 #SUP: 2
123 -1 260 -1 31 -1 #SUP: 2
123 -1 260 -1 32 -1 #SUP: 2
123 -1 260 -1 50 -1 #SUP: 2
123 -1 260 -1 175 -1 #SUP: 2
123 -1 260 -1 1039 -1 #SUP: 2
123 -1 260 -1 2339 -1 #SUP: 2
123 -1 262 -1 193 -1 #SUP: 2
123 -1 286 -1 22 -1 #SUP: 2
123 -1 286 -1 64 -1 #SUP: 2
123 -1 340 -1 77 -1 #SUP: 2
123 -1 356 -1 67 -1 #SUP: 2
123 -1 356 -1 123 -1 #SUP: 2
123 -1 364 -1 32 -1 #SUP: 2
123 -1 364 -1 65 -1 #SUP: 2
123 -1 407 -1 64 -1 #SUP: 2
123 -1 407 -1 65 -1 #SUP: 2
123 -1 407 -1 123 -1 #SUP: 2
123 -1 407 -1 152 -1 #SUP: 2
123 -1 407 -1 1219 -1 #SUP: 2
123 -1 411 -1 50 -1 #SUP: 2
123 -1 411 -1 64 -1 #SUP: 2
123 -1 411 -1 123 -1 #SUP: 2
123 -1 411 -1 158 -1 #SUP: 2
123 -1 441 -1 2 -1 #SUP: 2
123 -1 441 -1 64 -1 #SUP: 2
123 -1 441 -1 65 -1 #SUP: 3
123 -1 441 -1 123 -1 #SUP: 2
123 -1 441 -1 1898 -1 #SUP: 2
123 -1 441 -1 1899 -1 #SUP: 2
123 -1 529 -1 441 -1 #SUP: 2
123 -1 627 -1 22 -1 #SUP: 2
123 -1 627 -1 2674 -1 #SUP: 2
123 -1 765 -1 22 -1 #SUP: 2
123 -1 765 -1 65 -1 #SUP: 3
123 -1 765 -1 123 -1 #SUP: 2
123 -1 765 -1 364 -1 #SUP: 2
123 -1 1039 -1 2339 -1 #SUP: 2
123 -1 1191 -1 64 -1 #SUP: 2
123 -1 1191 -1 174 -1 #SUP: 2
123 -1 1191 -1 4460 -1 #SUP: 2
123 -1 1219 -1 32 -1 #SUP: 2
123 -1 1610 -1 158 -1 #SUP: 2
123 -1 1713 -1 64 -1 #SUP: 2
123 -1 1899 -1 2 -1 #SUP: 2
123 -1 1899 -1 65 -1 #SUP: 2
123 -1 1899 -1 1898 -1 #SUP: 2
123 -1 2674 -1 22 -1 #SUP: 2
123 -1 2910 -1 291 -1 #SUP: 2
123 -1 3336 -1 77 -1 #SUP: 2
123 -1 3632 -1 64 -1 #SUP: 2
123 -1 3641 -1 123 -1 #SUP: 2
123 -1 3956 -1 41 -1 #SUP: 2
123 -1 3956 -1 162 -1 #SUP: 2
123 -1 4460 -1 64 -1 #SUP: 2
152 -1 77 -1 123 -1 #SUP: 2
152 -1 364 -1 77 -1 #SUP: 2
154 -1 64 -1 67 -1 #SUP: 2
154 -1 64 -1 326 -1 #SUP: 2
154 -1 65 -1 326 -1 #SUP: 2
154 -1 67 -1 326 -1 #SUP: 2
154 -1 123 -1 65 -1 #SUP: 2
154 -1 123 -1 77 -1 #SUP: 2
154 -1 123 -1 260 -1 #SUP: 2
154 -1 199 -1 77 -1 #SUP: 2
154 -1 326 -1 48 -1 #SUP: 2
154 -1 383 -1 32 -1 #SUP: 2
162 -1 123 -1 162 -1 #SUP: 2
162 -1 152 -1 364 -1 #SUP: 2
162 -1 193 -1 64 -1 #SUP: 3
162 -1 193 -1 1210 -1 #SUP: 3
162 -1 1210 -1 64 -1 #SUP: 3
170 -1 120 -1 356 -1 #SUP: 2
170 -1 123 -1 120 -1 #SUP: 2
170 -1 123 -1 220 -1 #SUP: 2
170 -1 123 -1 268 -1 #SUP: 2
170 -1 123 -1 356 -1 #SUP: 2
170 -1 154 -1 65 -1 #SUP: 2
171 -1 32 -1 134 -1 #SUP: 2
174 -1 4460 -1 64 -1 #SUP: 2
183 -1 77 -1 123 -1 #SUP: 2
189 -1 2 -1 123 -1 #SUP: 2
189 -1 123 -1 123 -1 #SUP: 2
189 -1 123 -1 407 -1 #SUP: 2
193 -1 1210 -1 64 -1 #SUP: 3
205 -1 193 -1 64 -1 #SUP: 2
205 -1 262 -1 193 -1 #SUP: 2
212 -1 10 -1 2 -1 #SUP: 2
212 -1 123 -1 64 -1 #SUP: 2
212 -1 123 -1 1650 -1 #SUP: 2
220 -1 123 -1 65 -1 #SUP: 2
220 -1 765 -1 65 -1 #SUP: 2
220 -1 1713 -1 64 -1 #SUP: 2
222 -1 22 -1 123 -1 #SUP: 2
222 -1 123 -1 407 -1 #SUP: 2
222 -1 236 -1 123 -1 #SUP: 2
236 -1 262 -1 123 -1 #SUP: 2
236 -1 262 -1 599 -1 #SUP: 2
236 -1 356 -1 123 -1 #SUP: 2
236 -1 599 -1 123 -1 #SUP: 2
236 -1 702 -1 65 -1 #SUP: 2
249 -1 30 -1 123 -1 #SUP: 2
256 -1 177 -1 2 -1 #SUP: 2
260 -1 77 -1 10 -1 #SUP: 2
260 -1 158 -1 33 -1 #SUP: 2
260 -1 364 -1 32 -1 #SUP: 2
260 -1 520 -1 33 -1 #SUP: 2
260 -1 520 -1 158 -1 #SUP: 2
260 -1 520 -1 5666 -1 #SUP: 2
260 -1 1039 -1 2339 -1 #SUP: 2
260 -1 5666 -1 33 -1 #SUP: 2
260 -1 5666 -1 158 -1 #SUP: 2
262 -1 170 -1 123 -1 #SUP: 2
262 -1 599 -1 123 -1 #SUP: 2
268 -1 520 -1 1241 -1 #SUP: 2
326 -1 48 -1 2 -1 #SUP: 2
326 -1 48 -1 32 -1 #SUP: 2
326 -1 77 -1 123 -1 #SUP: 2
340 -1 123 -1 64 -1 #SUP: 2
356 -1 65 -1 77 -1 #SUP: 2
356 -1 65 -1 260 -1 #SUP: 2
356 -1 65 -1 1700 -1 #SUP: 2
356 -1 67 -1 64 -1 #SUP: 2
356 -1 77 -1 364 -1 #SUP: 2
356 -1 260 -1 77 -1 #SUP: 2
356 -1 1700 -1 77 -1 #SUP: 2
364 -1 22 -1 123 -1 #SUP: 2
364 -1 32 -1 123 -1 #SUP: 2
364 -1 77 -1 123 -1 #SUP: 3
364 -1 77 -1 364 -1 #SUP: 2
407 -1 65 -1 32 -1 #SUP: 2
407 -1 65 -1 1219 -1 #SUP: 2
407 -1 1219 -1 32 -1 #SUP: 2
441 -1 2 -1 65 -1 #SUP: 2
441 -1 2 -1 1898 -1 #SUP: 2
441 -1 65 -1 2 -1 #SUP: 2
441 -1 65 -1 65 -1 #SUP: 2
441 -1 65 -1 123 -1 #SUP: 2
441 -1 65 -1 1898 -1 #SUP: 2
441 -1 65 -1 1899 -1 #SUP: 2
441 -1 123 -1 441 -1 #SUP: 2
441 -1 1899 -1 2 -1 #SUP: 2
441 -1 1899 -1 65 -1 #SUP: 2
441 -1 1899 -1 1898 -1 #SUP: 2
520 -1 158 -1 33 -1 #SUP: 2
520 -1 1241 -1 3 -1 #SUP: 2
520 -1 1241 -1 22 -1 #SUP: 2
520 -1 5666 -1 33 -1 #SUP: 2
520 -1 5666 -1 158 -1 #SUP: 2
599 -1 123 -1 205 -1 #SUP: 2
599 -1 520 -1 22 -1 #SUP: 2
599 -1 520 -1 123 -1 #SUP: 2
599 -1 520 -1 1241 -1 #SUP: 2
599 -1 1241 -1 22 -1 #SUP: 2
627 -1 2674 -1 22 -1 #SUP: 2
628 -1 154 -1 123 -1 #SUP: 2
653 -1 65 -1 77 -1 #SUP: 2
653 -1 65 -1 260 -1 #SUP: 2
653 -1 65 -1 1700 -1 #SUP: 2
653 -1 260 -1 77 -1 #SUP: 2
653 -1 356 -1 65 -1 #SUP: 2
653 -1 356 -1 77 -1 #SUP: 2
653 -1 356 -1 260 -1 #SUP: 2
653 -1 356 -1 1700 -1 #SUP: 2
653 -1 1700 -1 77 -1 #SUP: 2
765 -1 364 -1 65 -1 #SUP: 2
789 -1 693 -1 117 -1 #SUP: 2
951 -1 326 -1 228 -1 #SUP: 2
1191 -1 174 -1 64 -1 #SUP: 2
1191 -1 174 -1 4460 -1 #SUP: 2
1191 -1 4460 -1 64 -1 #SUP: 2
1685 -1 123 -1 123 -1 #SUP: 2
1685 -1 123 -1 165 -1 #SUP: 2
1899 -1 2 -1 65 -1 #SUP: 2
1899 -1 2 -1 484 -1 #SUP: 2
1899 -1 2 -1 1898 -1 #SUP: 2
1899 -1 65 -1 484 -1 #SUP: 2
1899 -1 65 -1 1898 -1 #SUP: 2
3956 -1 41 -1 162 -1 #SUP: 2
5372 -1 30 -1 11636 -1 #SUP: 2
5666 -1 158 -1 33 -1 #SUP: 2
18243 -1 256 -1 177 -1 #SUP: 2
18243 -1 144392 -1 177 -1 #SUP: 2
18243 -1 144392 -1 256 -1 #SUP: 2
144392 -1 177 -1 2 -1 #SUP: 2
144392 -1 256 -1 2 -1 #SUP: 2
144392 -1 256 -1 177 -1 #SUP: 2
2 -1 123 -1 123 -1 407 -1 #SUP: 2
2 -1 123 -1 205 -1 262 -1 #SUP: 2
2 -1 123 -1 441 -1 65 -1 #SUP: 2
27 -1 77 -1 364 -1 16 -1 #SUP: 2
64 -1 67 -1 326 -1 3150 -1 #SUP: 2
65 -1 2 -1 65 -1 1898 -1 #SUP: 2
65 -1 1899 -1 2 -1 65 -1 #SUP: 2
65 -1 1899 -1 2 -1 1898 -1 #SUP: 2
65 -1 1899 -1 65 -1 1898 -1 #SUP: 2
123 -1 2 -1 65 -1 1898 -1 #SUP: 2
123 -1 27 -1 123 -1 286 -1 #SUP: 2
123 -1 32 -1 123 -1 64 -1 #SUP: 2
123 -1 65 -1 2 -1 65 -1 #SUP: 2
123 -1 65 -1 2 -1 1898 -1 #SUP: 2
123 -1 65 -1 65 -1 1898 -1 #SUP: 2
123 -1 65 -1 77 -1 123 -1 #SUP: 2
123 -1 65 -1 1219 -1 32 -1 #SUP: 2
123 -1 65 -1 1899 -1 2 -1 #SUP: 2
123 -1 65 -1 1899 -1 65 -1 #SUP: 2
123 -1 65 -1 1899 -1 1898 -1 #SUP: 2
123 -1 77 -1 212 -1 65 -1 #SUP: 2
123 -1 120 -1 260 -1 32 -1 #SUP: 2
123 -1 120 -1 356 -1 123 -1 #SUP: 2
123 -1 123 -1 27 -1 123 -1 #SUP: 2
123 -1 123 -1 286 -1 22 -1 #SUP: 2
123 -1 174 -1 4460 -1 64 -1 #SUP: 2
123 -1 205 -1 262 -1 193 -1 #SUP: 2
123 -1 220 -1 1713 -1 64 -1 #SUP: 2
123 -1 260 -1 1039 -1 2339 -1 #SUP: 2
123 -1 407 -1 65 -1 1219 -1 #SUP: 2
123 -1 441 -1 2 -1 65 -1 #SUP: 2
123 -1 441 -1 2 -1 1898 -1 #SUP: 2
123 -1 441 -1 65 -1 2 -1 #SUP: 2
123 -1 441 -1 65 -1 65 -1 #SUP: 2
123 -1 441 -1 65 -1 123 -1 #SUP: 2
123 -1 441 -1 65 -1 1898 -1 #SUP: 2
123 -1 441 -1 65 -1 1899 -1 #SUP: 2
123 -1 441 -1 1899 -1 2 -1 #SUP: 2
123 -1 441 -1 1899 -1 65 -1 #SUP: 2
123 -1 441 -1 1899 -1 1898 -1 #SUP: 2
123 -1 627 -1 2674 -1 22 -1 #SUP: 2
123 -1 765 -1 364 -1 65 -1 #SUP: 2
123 -1 1191 -1 174 -1 64 -1 #SUP: 2
123 -1 1191 -1 174 -1 4460 -1 #SUP: 2
123 -1 1191 -1 4460 -1 64 -1 #SUP: 2
123 -1 1899 -1 2 -1 65 -1 #SUP: 2
123 -1 1899 -1 2 -1 1898 -1 #SUP: 2
123 -1 1899 -1 65 -1 1898 -1 #SUP: 2
123 -1 3956 -1 41 -1 162 -1 #SUP: 2
154 -1 64 -1 67 -1 326 -1 #SUP: 2
162 -1 193 -1 1210 -1 64 -1 #SUP: 3
170 -1 123 -1 120 -1 356 -1 #SUP: 2
236 -1 262 -1 599 -1 123 -1 #SUP: 2
260 -1 520 -1 158 -1 33 -1 #SUP: 2
260 -1 520 -1 5666 -1 33 -1 #SUP: 2
260 -1 520 -1 5666 -1 158 -1 #SUP: 2
260 -1 5666 -1 158 -1 33 -1 #SUP: 2
356 -1 65 -1 260 -1 77 -1 #SUP: 2
356 -1 65 -1 1700 -1 77 -1 #SUP: 2
407 -1 65 -1 1219 -1 32 -1 #SUP: 2
441 -1 2 -1 65 -1 1898 -1 #SUP: 2
441 -1 65 -1 2 -1 65 -1 #SUP: 2
441 -1 65 -1 2 -1 1898 -1 #SUP: 2
441 -1 65 -1 65 -1 1898 -1 #SUP: 2
441 -1 65 -1 1899 -1 2 -1 #SUP: 2
441 -1 65 -1 1899 -1 65 -1 #SUP: 2
441 -1 65 -1 1899 -1 1898 -1 #SUP: 2
441 -1 1899 -1 2 -1 65 -1 #SUP: 2
441 -1 1899 -1 2 -1 1898 -1 #SUP: 2
441 -1 1899 -1 65 -1 1898 -1 #SUP: 2
520 -1 5666 -1 158 -1 33 -1 #SUP: 2
599 -1 520 -1 1241 -1 22 -1 #SUP: 2
653 -1 65 -1 260 -1 77 -1 #SUP: 2
653 -1 65 -1 1700 -1 77 -1 #SUP: 2
653 -1 356 -1 65 -1 77 -1 #SUP: 2
653 -1 356 -1 65 -1 260 -1 #SUP: 2
653 -1 356 -1 65 -1 1700 -1 #SUP: 2
653 -1 356 -1 260 -1 77 -1 #SUP: 2
653 -1 356 -1 1700 -1 77 -1 #SUP: 2
1191 -1 174 -1 4460 -1 64 -1 #SUP: 2
1899 -1 2 -1 65 -1 484 -1 #SUP: 2
1899 -1 2 -1 65 -1 1898 -1 #SUP: 2
18243 -1 144392 -1 256 -1 177 -1 #SUP: 2
144392 -1 256 -1 177 -1 2 -1 #SUP: 2
65 -1 1899 -1 2 -1 65 -1 1898 -1 #SUP: 2
123 -1 65 -1 2 -1 65 -1 1898 -1 #SUP: 2
123 -1 65 -1 1899 -1 2 -1 65 -1 #SUP: 2
123 -1 65 -1 1899 -1 2 -1 1898 -1 #SUP: 2
123 -1 65 -1 1899 -1 65 -1 1898 -1 #SUP: 2
123 -1 441 -1 2 -1 65 -1 1898 -1 #SUP: 2
123 -1 441 -1 65 -1 2 -1 65 -1 #SUP: 2
123 -1 441 -1 65 -1 2 -1 1898 -1 #SUP: 2
123 -1 441 -1 65 -1 65 -1 1898 -1 #SUP: 2
123 -1 441 -1 65 -1 1899 -1 2 -1 #SUP: 2
123 -1 441 -1 65 -1 1899 -1 65 -1 #SUP: 2
123 -1 441 -1 65 -1 1899 -1 1898 -1 #SUP: 2
123 -1 441 -1 1899 -1 2 -1 65 -1 #SUP: 2
123 -1 441 -1 1899 -1 2 -1 1898 -1 #SUP: 2
123 -1 441 -1 1899 -1 65 -1 1898 -1 #SUP: 2
123 -1 1191 -1 174 -1 4460 -1 64 -1 #SUP: 2
123 -1 1899 -1 2 -1 65 -1 1898 -1 #SUP: 2
260 -1 520 -1 5666 -1 158 -1 33 -1 #SUP: 2
441 -1 65 -1 2 -1 65 -1 1898 -1 #SUP: 2
441 -1 65 -1 1899 -1 2 -1 65 -1 #SUP: 2
441 -1 65 -1 1899 -1 2 -1 1898 -1 #SUP: 2
441 -1 65 -1 1899 -1 65 -1 1898 -1 #SUP: 2
441 -1 1899 -1 2 -1 65 -1 1898 -1 #SUP: 2
653 -1 356 -1 65 -1 260 -1 77 -1 #SUP: 2
653 -1 356 -1 65 -1 1700 -1 77 -1 #SUP: 2
123 -1 65 -1 1899 -1 2 -1 65 -1 1898 -1 #SUP: 2
123 -1 441 -1 65 -1 2 -1 65 -1 1898 -1 #SUP: 2
123 -1 441 -1 65 -1 1899 -1 2 -1 65 -1 #SUP: 2
123 -1 441 -1 65 -1 1899 -1 2 -1 1898 -1 #SUP: 2
123 -1 441 -1 65 -1 1899 -1 65 -1 1898 -1 #SUP: 2
123 -1 441 -1 1899 -1 2 -1 65 -1 1898 -1 #SUP: 2
441 -1 65 -1 1899 -1 2 -1 65 -1 1898 -1 #SUP: 2
123 -1 441 -1 65 -1 1899 -1 2 -1 65 -1 1898 -1 #SUP: 2
