1 -1 #SUP: 4
2 -1 #SUP: 31
3 -1 #SUP: 4
7 -1 #SUP: 2
10 -1 #SUP: 8
11 -1 #SUP: 3
16 -1 #SUP: 2
22 -1 #SUP: 36
27 -1 #SUP: 2
29 -1 #SUP: 5
30 -1 #SUP: 6
31 -1 #SUP: 8
32 -1 #SUP: 12
33 -1 #SUP: 8
41 -1 #SUP: 22
49 -1 #SUP: 3
50 -1 #SUP: 13
54 -1 #SUP: 2
64 -1 #SUP: 32
65 -1 #SUP: 29
66 -1 #SUP: 5
67 -1 #SUP: 9
70 -1 #SUP: 3
71 -1 #SUP: 2
72 -1 #SUP: 2
73 -1 #SUP: 2
76 -1 #SUP: 2
77 -1 #SUP: 26
78 -1 #SUP: 5
82 -1 #SUP: 2
83 -1 #SUP: 2
103 -1 #SUP: 2
117 -1 #SUP: 3
123 -1 #SUP: 59
126 -1 #SUP: 2
144 -1 #SUP: 9
151 -1 #SUP: 2
152 -1 #SUP: 4
153 -1 #SUP: 2
154 -1 #SUP: 17
158 -1 #SUP: 5
160 -1 #SUP: 2
162 -1 #SUP: 6
164 -1 #SUP: 7
165 -1 #SUP: 2
167 -1 #SUP: 2
170 -1 #SUP: 9
171 -1 #SUP: 3
174 -1 #SUP: 7
175 -1 #SUP: 3
183 -1 #SUP: 9
189 -1 #SUP: 2
190 -1 #SUP: 3
193 -1 #SUP: 13
196 -1 #SUP: 3
198 -1 #SUP: 6
200 -1 #SUP: 2
206 -1 #SUP: 3
210 -1 #SUP: 4
212 -1 #SUP: 8
213 -1 #SUP: 2
220 -1 #SUP: 4
222 -1 #SUP: 7
225 -1 #SUP: 2
226 -1 #SUP: 6
233 -1 #SUP: 2
236 -1 #SUP: 7
244 -1 #SUP: 3
246 -1 #SUP: 5
260 -1 #SUP: 2
262 -1 #SUP: 10
268 -1 #SUP: 3
276 -1 #SUP: 2
280 -1 #SUP: 2
283 -1 #SUP: 5
284 -1 #SUP: 3
285 -1 #SUP: 4
286 -1 #SUP: 7
291 -1 #SUP: 5
322 -1 #SUP: 4
323 -1 #SUP: 2
326 -1 #SUP: 5
349 -1 #SUP: 5
356 -1 #SUP: 5
364 -1 #SUP: 6
384 -1 #SUP: 2
398 -1 #SUP: 3
409 -1 #SUP: 2
441 -1 #SUP: 12
443 -1 #SUP: 3
444 -1 #SUP: 3
445 -1 #SUP: 3
483 -1 #SUP: 4
488 -1 #SUP: 2
499 -1 #SUP: 2
501 -1 #SUP: 2
505 -1 #SUP: 2
520 -1 #SUP: 4
536 -1 #SUP: 5
539 -1 #SUP: 2
547 -1 #SUP: 2
561 -1 #SUP: 2
566 -1 #SUP: 2
599 -1 #SUP: 8
608 -1 #SUP: 3
613 -1 #SUP: 3
638 -1 #SUP: 4
648 -1 #SUP: 3
652 -1 #SUP: 2
654 -1 #SUP: 3
655 -1 #SUP: 2
671 -1 #SUP: 2
693 -1 #SUP: 2
700 -1 #SUP: 2
704 -1 #SUP: 2
711 -1 #SUP: 4
714 -1 #SUP: 2
739 -1 #SUP: 2
764 -1 #SUP: 2
786 -1 #SUP: 2
810 -1 #SUP: 3
823 -1 #SUP: 2
850 -1 #SUP: 2
858 -1 #SUP: 2
871 -1 #SUP: 2
929 -1 #SUP: 2
965 -1 #SUP: 3
1027 -1 #SUP: 2
1105 -1 #SUP: 2
1150 -1 #SUP: 2
1184 -1 #SUP: 2
1193 -1 #SUP: 2
1263 -1 #SUP: 4
1300 -1 #SUP: 2
1313 -1 #SUP: 2
1321 -1 #SUP: 2
1342 -1 #SUP: 2
1364 -1 #SUP: 2
1440 -1 #SUP: 3
1472 -1 #SUP: 2
1568 -1 #SUP: 4
1610 -1 #SUP: 2
1717 -1 #SUP: 2
1737 -1 #SUP: 2
1758 -1 #SUP: 2
1808 -1 #SUP: 2
1867 -1 #SUP: 2
1913 -1 #SUP: 2
2299 -1 #SUP: 2
2378 -1 #SUP: 2
2945 -1 #SUP: 2
3069 -1 #SUP: 2
3251 -1 #SUP: 2
3340 -1 #SUP: 2
3489 -1 #SUP: 2
3842 -1 #SUP: 2
3917 -1 #SUP: 3
4932 -1 #SUP: 3
5052 -1 #SUP: 2
5526 -1 #SUP: 2
5875 -1 #SUP: 2
6532 -1 #SUP: 2
8021 -1 #SUP: 2
8730 -1 #SUP: 2
9445 -1 #SUP: 2
9728 -1 #SUP: 2
10232 -1 #SUP: 2
12699 -1 #SUP: 2
16849 -1 #SUP: 2
148380 -1 #SUP: 2
1 -1 1 -1 #SUP: 3
1 -1 283 -1 #SUP: 3
2 -1 2 -1 #SUP: 2
2 -1 22 -1 #SUP: 7
2 -1 31 -1 #SUP: 2
2 -1 32 -1 #SUP: 2
2 -1 41 -1 #SUP: 3
2 -1 50 -1 #SUP: 2
2 -1 64 -1 #SUP: 5
2 -1 77 -1 #SUP: 4
2 -1 123 -1 #SUP: 6
2 -1 154 -1 #SUP: 2
2 -1 164 -1 #SUP: 2
2 -1 183 -1 #SUP: 3
2 -1 193 -1 #SUP: 2
2 -1 220 -1 #SUP: 2
2 -1 226 -1 #SUP: 2
2 -1 244 -1 #SUP: 2
2 -1 443 -1 #SUP: 2
2 -1 613 -1 #SUP: 2
2 -1 711 -1 #SUP: 3
2 -1 9445 -1 #SUP: 2
3 -1 158 -1 #SUP: 2
3 -1 268 -1 #SUP: 2
10 -1 2 -1 #SUP: 3
10 -1 22 -1 #SUP: 4
10 -1 65 -1 #SUP: 2
10 -1 123 -1 #SUP: 2
16 -1 64 -1 #SUP: 2
22 -1 2 -1 #SUP: 2
22 -1 22 -1 #SUP: 3
22 -1 32 -1 #SUP: 5
22 -1 41 -1 #SUP: 2
22 -1 49 -1 #SUP: 3
22 -1 64 -1 #SUP: 4
22 -1 65 -1 #SUP: 4
22 -1 77 -1 #SUP: 3
22 -1 117 -1 #SUP: 2
22 -1 123 -1 #SUP: 5
22 -1 144 -1 #SUP: 2
22 -1 154 -1 #SUP: 2
22 -1 170 -1 #SUP: 3
22 -1 222 -1 #SUP: 2
22 -1 276 -1 #SUP: 2
22 -1 322 -1 #SUP: 2
22 -1 599 -1 #SUP: 2
22 -1 871 -1 #SUP: 2
22 -1 1440 -1 #SUP: 3
22 -1 1568 -1 #SUP: 2
22 -1 2299 -1 #SUP: 2
29 -1 2 -1 #SUP: 2
30 -1 22 -1 #SUP: 2
30 -1 30 -1 #SUP: 2
30 -1 154 -1 #SUP: 2
31 -1 22 -1 #SUP: 2
31 -1 50 -1 #SUP: 2
32 -1 2 -1 #SUP: 3
32 -1 22 -1 #SUP: 5
32 -1 32 -1 #SUP: 2
32 -1 41 -1 #SUP: 3
32 -1 164 -1 #SUP: 2
32 -1 222 -1 #SUP: 2
32 -1 349 -1 #SUP: 2
33 -1 22 -1 #SUP: 3
33 -1 64 -1 #SUP: 3
33 -1 77 -1 #SUP: 3
33 -1 123 -1 #SUP: 3
41 -1 2 -1 #SUP: 5
41 -1 22 -1 #SUP: 2
41 -1 33 -1 #SUP: 2
41 -1 64 -1 #SUP: 5
41 -1 65 -1 #SUP: 4
41 -1 77 -1 #SUP: 2
41 -1 123 -1 #SUP: 2
41 -1 183 -1 #SUP: 3
41 -1 398 -1 #SUP: 2
41 -1 441 -1 #SUP: 2
41 -1 1263 -1 #SUP: 2
41 -1 8021 -1 #SUP: 2
49 -1 123 -1 #SUP: 2
50 -1 3 -1 #SUP: 2
50 -1 31 -1 #SUP: 2
50 -1 50 -1 #SUP: 2
50 -1 64 -1 #SUP: 2
50 -1 123 -1 #SUP: 2
50 -1 154 -1 #SUP: 2
50 -1 196 -1 #SUP: 2
50 -1 536 -1 #SUP: 2
50 -1 608 -1 #SUP: 2
50 -1 5526 -1 #SUP: 2
50 -1 16849 -1 #SUP: 2
54 -1 64 -1 #SUP: 2
64 -1 2 -1 #SUP: 2
64 -1 22 -1 #SUP: 10
64 -1 27 -1 #SUP: 2
64 -1 33 -1 #SUP: 3
64 -1 41 -1 #SUP: 3
64 -1 50 -1 #SUP: 2
64 -1 65 -1 #SUP: 5
64 -1 66 -1 #SUP: 2
64 -1 67 -1 #SUP: 3
64 -1 77 -1 #SUP: 8
64 -1 117 -1 #SUP: 2
64 -1 123 -1 #SUP: 2
64 -1 144 -1 #SUP: 2
64 -1 154 -1 #SUP: 3
64 -1 170 -1 #SUP: 3
64 -1 322 -1 #SUP: 4
64 -1 441 -1 #SUP: 2
64 -1 483 -1 #SUP: 2
64 -1 536 -1 #SUP: 3
64 -1 654 -1 #SUP: 2
64 -1 1440 -1 #SUP: 2
64 -1 1568 -1 #SUP: 2
64 -1 3069 -1 #SUP: 2
65 -1 2 -1 #SUP: 6
65 -1 10 -1 #SUP: 2
65 -1 22 -1 #SUP: 6
65 -1 33 -1 #SUP: 4
65 -1 64 -1 #SUP: 5
65 -1 65 -1 #SUP: 4
65 -1 77 -1 #SUP: 6
65 -1 123 -1 #SUP: 5
65 -1 144 -1 #SUP: 2
65 -1 152 -1 #SUP: 2
65 -1 154 -1 #SUP: 4
65 -1 160 -1 #SUP: 2
65 -1 174 -1 #SUP: 2
65 -1 198 -1 #SUP: 2
65 -1 262 -1 #SUP: 2
65 -1 599 -1 #SUP: 3
65 -1 1105 -1 #SUP: 2
65 -1 3069 -1 #SUP: 2
65 -1 3340 -1 #SUP: 2
65 -1 3917 -1 #SUP: 2
65 -1 5875 -1 #SUP: 2
66 -1 22 -1 #SUP: 2
67 -1 2 -1 #SUP: 2
67 -1 10 -1 #SUP: 2
67 -1 22 -1 #SUP: 2
67 -1 64 -1 #SUP: 2
70 -1 22 -1 #SUP: 2
77 -1 22 -1 #SUP: 7
77 -1 30 -1 #SUP: 3
77 -1 31 -1 #SUP: 2
77 -1 41 -1 #SUP: 2
77 -1 64 -1 #SUP: 3
77 -1 65 -1 #SUP: 4
77 -1 77 -1 #SUP: 5
77 -1 123 -1 #SUP: 10
77 -1 154 -1 #SUP: 3
77 -1 212 -1 #SUP: 2
77 -1 220 -1 #SUP: 2
77 -1 236 -1 #SUP: 2
77 -1 262 -1 #SUP: 2
77 -1 286 -1 #SUP: 2
77 -1 3917 -1 #SUP: 3
78 -1 50 -1 #SUP: 2
78 -1 123 -1 #SUP: 2
78 -1 441 -1 #SUP: 2
78 -1 10232 -1 #SUP: 2
82 -1 65 -1 #SUP: 2
82 -1 3340 -1 #SUP: 2
83 -1 65 -1 #SUP: 2
103 -1 22 -1 #SUP: 2
103 -1 64 -1 #SUP: 2
103 -1 1440 -1 #SUP: 2
123 -1 2 -1 #SUP: 9
123 -1 3 -1 #SUP: 4
123 -1 10 -1 #SUP: 6
123 -1 11 -1 #SUP: 2
123 -1 22 -1 #SUP: 10
123 -1 31 -1 #SUP: 3
123 -1 32 -1 #SUP: 4
123 -1 33 -1 #SUP: 3
123 -1 41 -1 #SUP: 2
123 -1 50 -1 #SUP: 4
123 -1 64 -1 #SUP: 8
123 -1 65 -1 #SUP: 14
123 -1 67 -1 #SUP: 3
123 -1 70 -1 #SUP: 2
123 -1 77 -1 #SUP: 4
123 -1 78 -1 #SUP: 3
123 -1 82 -1 #SUP: 2
123 -1 83 -1 #SUP: 2
123 -1 123 -1 #SUP: 9
123 -1 144 -1 #SUP: 3
123 -1 152 -1 #SUP: 3
123 -1 154 -1 #SUP: 8
123 -1 158 -1 #SUP: 3
123 -1 160 -1 #SUP: 2
123 -1 162 -1 #SUP: 2
123 -1 174 -1 #SUP: 6
123 -1 175 -1 #SUP: 2
123 -1 193 -1 #SUP: 2
123 -1 196 -1 #SUP: 2
123 -1 198 -1 #SUP: 4
123 -1 210 -1 #SUP: 3
123 -1 212 -1 #SUP: 2
123 -1 213 -1 #SUP: 2
123 -1 220 -1 #SUP: 3
123 -1 226 -1 #SUP: 3
123 -1 262 -1 #SUP: 5
123 -1 268 -1 #SUP: 2
123 -1 280 -1 #SUP: 2
123 -1 284 -1 #SUP: 2
123 -1 286 -1 #SUP: 5
123 -1 326 -1 #SUP: 2
123 -1 441 -1 #SUP: 6
123 -1 483 -1 #SUP: 3
123 -1 505 -1 #SUP: 2
123 -1 561 -1 #SUP: 2
123 -1 599 -1 #SUP: 3
123 -1 608 -1 #SUP: 2
123 -1 613 -1 #SUP: 2
123 -1 638 -1 #SUP: 3
123 -1 648 -1 #SUP: 2
123 -1 655 -1 #SUP: 2
123 -1 871 -1 #SUP: 2
123 -1 965 -1 #SUP: 2
123 -1 1150 -1 #SUP: 2
123 -1 1364 -1 #SUP: 2
123 -1 3340 -1 #SUP: 2
123 -1 6532 -1 #SUP: 2
123 -1 10232 -1 #SUP: 2
144 -1 2 -1 #SUP: 2
144 -1 41 -1 #SUP: 2
144 -1 123 -1 #SUP: 2
144 -1 193 -1 #SUP: 2
154 -1 22 -1 #SUP: 3
154 -1 64 -1 #SUP: 3
154 -1 123 -1 #SUP: 4
154 -1 154 -1 #SUP: 2
154 -1 170 -1 #SUP: 2
154 -1 220 -1 #SUP: 2
154 -1 226 -1 #SUP: 2
158 -1 10 -1 #SUP: 2
158 -1 33 -1 #SUP: 2
160 -1 64 -1 #SUP: 2
162 -1 2 -1 #SUP: 2
162 -1 41 -1 #SUP: 2
162 -1 64 -1 #SUP: 2
162 -1 65 -1 #SUP: 2
164 -1 2 -1 #SUP: 2
164 -1 222 -1 #SUP: 2
170 -1 50 -1 #SUP: 2
170 -1 64 -1 #SUP: 2
170 -1 291 -1 #SUP: 2
174 -1 2 -1 #SUP: 2
174 -1 65 -1 #SUP: 2
174 -1 123 -1 #SUP: 2
174 -1 154 -1 #SUP: 3
175 -1 32 -1 #SUP: 2
175 -1 441 -1 #SUP: 2
183 -1 2 -1 #SUP: 2
183 -1 41 -1 #SUP: 2
183 -1 64 -1 #SUP: 2
183 -1 77 -1 #SUP: 2
183 -1 1263 -1 #SUP: 2
189 -1 123 -1 #SUP: 2
189 -1 154 -1 #SUP: 2
193 -1 2 -1 #SUP: 3
193 -1 64 -1 #SUP: 2
193 -1 67 -1 #SUP: 2
193 -1 164 -1 #SUP: 2
193 -1 212 -1 #SUP: 2
193 -1 260 -1 #SUP: 2
196 -1 31 -1 #SUP: 2
196 -1 50 -1 #SUP: 2
196 -1 608 -1 #SUP: 2
212 -1 22 -1 #SUP: 3
212 -1 64 -1 #SUP: 3
212 -1 65 -1 #SUP: 3
212 -1 77 -1 #SUP: 2
212 -1 441 -1 #SUP: 2
220 -1 154 -1 #SUP: 2
222 -1 77 -1 #SUP: 2
226 -1 64 -1 #SUP: 2
226 -1 154 -1 #SUP: 2
236 -1 2 -1 #SUP: 2
236 -1 41 -1 #SUP: 4
236 -1 123 -1 #SUP: 3
236 -1 152 -1 #SUP: 2
236 -1 349 -1 #SUP: 2
244 -1 193 -1 #SUP: 2
246 -1 77 -1 #SUP: 2
260 -1 164 -1 #SUP: 2
262 -1 22 -1 #SUP: 2
262 -1 64 -1 #SUP: 2
262 -1 226 -1 #SUP: 2
268 -1 22 -1 #SUP: 2
268 -1 33 -1 #SUP: 2
283 -1 1 -1 #SUP: 3
283 -1 283 -1 #SUP: 3
284 -1 64 -1 #SUP: 2
284 -1 67 -1 #SUP: 3
285 -1 193 -1 #SUP: 2
286 -1 10 -1 #SUP: 2
286 -1 22 -1 #SUP: 3
286 -1 65 -1 #SUP: 2
286 -1 70 -1 #SUP: 2
286 -1 154 -1 #SUP: 2
322 -1 27 -1 #SUP: 2
349 -1 32 -1 #SUP: 2
349 -1 41 -1 #SUP: 3
349 -1 244 -1 #SUP: 2
349 -1 441 -1 #SUP: 2
349 -1 1717 -1 #SUP: 2
349 -1 1737 -1 #SUP: 2
356 -1 22 -1 #SUP: 2
364 -1 50 -1 #SUP: 2
364 -1 64 -1 #SUP: 2
441 -1 2 -1 #SUP: 5
441 -1 3 -1 #SUP: 2
441 -1 10 -1 #SUP: 2
441 -1 22 -1 #SUP: 4
441 -1 32 -1 #SUP: 2
441 -1 50 -1 #SUP: 2
441 -1 64 -1 #SUP: 3
441 -1 65 -1 #SUP: 3
441 -1 77 -1 #SUP: 3
441 -1 10232 -1 #SUP: 2
444 -1 123 -1 #SUP: 2
445 -1 64 -1 #SUP: 2
499 -1 193 -1 #SUP: 2
520 -1 41 -1 #SUP: 2
520 -1 144 -1 #SUP: 2
536 -1 33 -1 #SUP: 2
536 -1 64 -1 #SUP: 2
536 -1 154 -1 #SUP: 3
599 -1 64 -1 #SUP: 4
599 -1 77 -1 #SUP: 3
599 -1 123 -1 #SUP: 2
599 -1 236 -1 #SUP: 2
599 -1 322 -1 #SUP: 2
608 -1 31 -1 #SUP: 2
608 -1 50 -1 #SUP: 2
638 -1 2 -1 #SUP: 2
638 -1 65 -1 #SUP: 2
648 -1 64 -1 #SUP: 2
654 -1 2 -1 #SUP: 2
654 -1 22 -1 #SUP: 2
654 -1 1568 -1 #SUP: 2
704 -1 1568 -1 #SUP: 2
714 -1 64 -1 #SUP: 2
764 -1 22 -1 #SUP: 2
810 -1 22 -1 #SUP: 2
810 -1 64 -1 #SUP: 2
810 -1 654 -1 #SUP: 2
929 -1 22 -1 #SUP: 2
1105 -1 33 -1 #SUP: 2
1105 -1 77 -1 #SUP: 2
1150 -1 10 -1 #SUP: 2
1150 -1 65 -1 #SUP: 2
1263 -1 41 -1 #SUP: 2
1263 -1 64 -1 #SUP: 2
1610 -1 158 -1 #SUP: 2
1717 -1 41 -1 #SUP: 2
1737 -1 41 -1 #SUP: 2
1737 -1 1717 -1 #SUP: 2
1758 -1 398 -1 #SUP: 2
1867 -1 441 -1 #SUP: 2
1913 -1 599 -1 #SUP: 2
2299 -1 32 -1 #SUP: 2
2378 -1 65 -1 #SUP: 2
3251 -1 64 -1 #SUP: 2
4932 -1 31 -1 #SUP: 2
4932 -1 123 -1 #SUP: 2
8021 -1 77 -1 #SUP: 2
8021 -1 123 -1 #SUP: 2
148380 -1 3489 -1 #SUP: 2
1 -1 1 -1 1 -1 #SUP: 2
1 -1 1 -1 283 -1 #SUP: 3
1 -1 283 -1 1 -1 #SUP: 3
1 -1 283 -1 283 -1 #SUP: 3
2 -1 22 -1 64 -1 #SUP: 2
2 -1 22 -1 123 -1 #SUP: 2
2 -1 77 -1 123 -1 #SUP: 4
2 -1 123 -1 64 -1 #SUP: 2
10 -1 65 -1 2 -1 #SUP: 2
10 -1 65 -1 123 -1 #SUP: 2
22 -1 32 -1 22 -1 #SUP: 2
22 -1 49 -1 123 -1 #SUP: 2
22 -1 77 -1 65 -1 #SUP: 2
22 -1 123 -1 64 -1 #SUP: 2
22 -1 123 -1 65 -1 #SUP: 3
22 -1 599 -1 322 -1 #SUP: 2
22 -1 2299 -1 32 -1 #SUP: 2
30 -1 30 -1 22 -1 #SUP: 2
41 -1 64 -1 33 -1 #SUP: 2
41 -1 64 -1 65 -1 #SUP: 2
41 -1 65 -1 33 -1 #SUP: 2
41 -1 77 -1 123 -1 #SUP: 2
41 -1 183 -1 2 -1 #SUP: 2
41 -1 183 -1 1263 -1 #SUP: 2
41 -1 441 -1 2 -1 #SUP: 2
41 -1 8021 -1 77 -1 #SUP: 2
41 -1 8021 -1 123 -1 #SUP: 2
50 -1 31 -1 50 -1 #SUP: 2
50 -1 196 -1 31 -1 #SUP: 2
50 -1 196 -1 50 -1 #SUP: 2
50 -1 196 -1 608 -1 #SUP: 2
50 -1 608 -1 31 -1 #SUP: 2
50 -1 608 -1 50 -1 #SUP: 2
64 -1 2 -1 22 -1 #SUP: 2
64 -1 22 -1 77 -1 #SUP: 2
64 -1 22 -1 117 -1 #SUP: 2
64 -1 22 -1 170 -1 #SUP: 2
64 -1 22 -1 1440 -1 #SUP: 2
64 -1 33 -1 77 -1 #SUP: 2
64 -1 65 -1 33 -1 #SUP: 2
64 -1 65 -1 77 -1 #SUP: 3
64 -1 77 -1 123 -1 #SUP: 2
64 -1 322 -1 27 -1 #SUP: 2
64 -1 441 -1 22 -1 #SUP: 2
64 -1 536 -1 33 -1 #SUP: 2
65 -1 2 -1 22 -1 #SUP: 2
65 -1 33 -1 22 -1 #SUP: 2
65 -1 33 -1 77 -1 #SUP: 2
65 -1 64 -1 3069 -1 #SUP: 2
65 -1 77 -1 22 -1 #SUP: 2
65 -1 77 -1 77 -1 #SUP: 3
65 -1 77 -1 3917 -1 #SUP: 2
65 -1 123 -1 144 -1 #SUP: 2
65 -1 154 -1 123 -1 #SUP: 2
65 -1 160 -1 64 -1 #SUP: 2
65 -1 1105 -1 33 -1 #SUP: 2
65 -1 1105 -1 77 -1 #SUP: 2
77 -1 30 -1 30 -1 #SUP: 2
77 -1 77 -1 30 -1 #SUP: 2
77 -1 77 -1 3917 -1 #SUP: 3
77 -1 123 -1 22 -1 #SUP: 4
77 -1 123 -1 31 -1 #SUP: 2
77 -1 123 -1 64 -1 #SUP: 2
77 -1 123 -1 65 -1 #SUP: 3
77 -1 123 -1 123 -1 #SUP: 3
77 -1 123 -1 154 -1 #SUP: 2
77 -1 123 -1 220 -1 #SUP: 2
77 -1 123 -1 286 -1 #SUP: 2
77 -1 236 -1 41 -1 #SUP: 2
77 -1 286 -1 22 -1 #SUP: 2
78 -1 123 -1 441 -1 #SUP: 2
78 -1 123 -1 10232 -1 #SUP: 2
78 -1 441 -1 10232 -1 #SUP: 2
82 -1 65 -1 3340 -1 #SUP: 2
103 -1 22 -1 1440 -1 #SUP: 2
103 -1 64 -1 22 -1 #SUP: 2
103 -1 64 -1 1440 -1 #SUP: 2
123 -1 2 -1 50 -1 #SUP: 2
123 -1 3 -1 268 -1 #SUP: 2
123 -1 22 -1 871 -1 #SUP: 2
123 -1 32 -1 22 -1 #SUP: 2
123 -1 41 -1 65 -1 #SUP: 2
123 -1 64 -1 22 -1 #SUP: 3
123 -1 64 -1 67 -1 #SUP: 2
123 -1 65 -1 2 -1 #SUP: 2
123 -1 65 -1 10 -1 #SUP: 2
123 -1 65 -1 33 -1 #SUP: 2
123 -1 65 -1 77 -1 #SUP: 2
123 -1 65 -1 152 -1 #SUP: 2
123 -1 65 -1 154 -1 #SUP: 2
123 -1 65 -1 3340 -1 #SUP: 2
123 -1 70 -1 22 -1 #SUP: 2
123 -1 82 -1 65 -1 #SUP: 2
123 -1 82 -1 3340 -1 #SUP: 2
123 -1 83 -1 65 -1 #SUP: 2
123 -1 123 -1 65 -1 #SUP: 3
123 -1 123 -1 220 -1 #SUP: 2
123 -1 123 -1 441 -1 #SUP: 3
123 -1 154 -1 123 -1 #SUP: 2
123 -1 154 -1 220 -1 #SUP: 2
123 -1 158 -1 10 -1 #SUP: 2
123 -1 174 -1 2 -1 #SUP: 2
123 -1 174 -1 65 -1 #SUP: 2
123 -1 174 -1 154 -1 #SUP: 2
123 -1 212 -1 65 -1 #SUP: 2
123 -1 220 -1 154 -1 #SUP: 2
123 -1 286 -1 10 -1 #SUP: 2
123 -1 286 -1 22 -1 #SUP: 3
123 -1 286 -1 70 -1 #SUP: 2
123 -1 441 -1 2 -1 #SUP: 2
123 -1 441 -1 3 -1 #SUP: 2
123 -1 441 -1 10 -1 #SUP: 2
123 -1 441 -1 65 -1 #SUP: 2
123 -1 441 -1 10232 -1 #SUP: 2
123 -1 638 -1 65 -1 #SUP: 2
123 -1 1150 -1 10 -1 #SUP: 2
123 -1 1150 -1 65 -1 #SUP: 2
154 -1 123 -1 220 -1 #SUP: 2
154 -1 226 -1 64 -1 #SUP: 2
162 -1 41 -1 64 -1 #SUP: 2
174 -1 65 -1 123 -1 #SUP: 2
193 -1 260 -1 164 -1 #SUP: 2
196 -1 31 -1 50 -1 #SUP: 2
196 -1 608 -1 31 -1 #SUP: 2
196 -1 608 -1 50 -1 #SUP: 2
236 -1 349 -1 41 -1 #SUP: 2
283 -1 1 -1 1 -1 #SUP: 2
283 -1 1 -1 283 -1 #SUP: 3
283 -1 283 -1 1 -1 #SUP: 2
283 -1 283 -1 283 -1 #SUP: 2
286 -1 70 -1 22 -1 #SUP: 2
349 -1 32 -1 41 -1 #SUP: 2
349 -1 1717 -1 41 -1 #SUP: 2
349 -1 1737 -1 41 -1 #SUP: 2
349 -1 1737 -1 1717 -1 #SUP: 2
441 -1 2 -1 22 -1 #SUP: 2
441 -1 32 -1 2 -1 #SUP: 2
441 -1 64 -1 77 -1 #SUP: 2
599 -1 123 -1 64 -1 #SUP: 2
608 -1 31 -1 50 -1 #SUP: 2
654 -1 22 -1 1568 -1 #SUP: 2
1105 -1 33 -1 77 -1 #SUP: 2
1150 -1 10 -1 65 -1 #SUP: 2
1737 -1 1717 -1 41 -1 #SUP: 2
8021 -1 77 -1 123 -1 #SUP: 2
1 -1 1 -1 1 -1 283 -1 #SUP: 2
1 -1 1 -1 283 -1 1 -1 #SUP: 2
1 -1 1 -1 283 -1 283 -1 #SUP: 2
1 -1 283 -1 1 -1 1 -1 #SUP: 2
1 -1 283 -1 1 -1 283 -1 #SUP: 3
1 -1 283 -1 283 -1 1 -1 #SUP: 2
1 -1 283 -1 283 -1 283 -1 #SUP: 2
41 -1 64 -1 65 -1 33 -1 #SUP: 2
41 -1 8021 -1 77 -1 123 -1 #SUP: 2
50 -1 196 -1 31 -1 50 -1 #SUP: 2
50 -1 196 -1 608 -1 31 -1 #SUP: 2
50 -1 196 -1 608 -1 50 -1 #SUP: 2
50 -1 608 -1 31 -1 50 -1 #SUP: 2
65 -1 77 -1 77 -1 3917 -1 #SUP: 2
65 -1 1105 -1 33 -1 77 -1 #SUP: 2
77 -1 123 -1 123 -1 65 -1 #SUP: 2
77 -1 123 -1 286 -1 22 -1 #SUP: 2
78 -1 123 -1 441 -1 10232 -1 #SUP: 2
103 -1 64 -1 22 -1 1440 -1 #SUP: 2
123 -1 82 -1 65 -1 3340 -1 #SUP: 2
123 -1 154 -1 123 -1 220 -1 #SUP: 2
123 -1 286 -1 70 -1 22 -1 #SUP: 2
196 -1 608 -1 31 -1 50 -1 #SUP: 2
283 -1 1 -1 1 -1 283 -1 #SUP: 2
283 -1 1 -1 283 -1 1 -1 #SUP: 2
283 -1 1 -1 283 -1 283 -1 #SUP: 2
283 -1 283 -1 1 -1 283 -1 #SUP: 2
349 -1 1737 -1 1717 -1 41 -1 #SUP: 2
1 -1 1 -1 283 -1 1 -1 283 -1 #SUP: 2
1 -1 283 -1 1 -1 1 -1 283 -1 #SUP: 2
1 -1 283 -1 1 -1 283 -1 1 -1 #SUP: 2
1 -1 283 -1 1 -1 283 -1 283 -1 #SUP: 2
1 -1 283 -1 283 -1 1 -1 283 -1 #SUP: 2
50 -1 196 -1 608 -1 31 -1 50 -1 #SUP: 2
283 -1 1 -1 283 -1 1 -1 283 -1 #SUP: 2
1 -1 283 -1 1 -1 283 -1 1 -1 283 -1 #SUP: 2
