2 -1 #SUP: 39
3 -1 #SUP: 3
7 -1 #SUP: 5
10 -1 #SUP: 21
15 -1 #SUP: 2
16 -1 #SUP: 14
22 -1 #SUP: 43
27 -1 #SUP: 3
29 -1 #SUP: 13
31 -1 #SUP: 14
32 -1 #SUP: 33
33 -1 #SUP: 12
41 -1 #SUP: 19
42 -1 #SUP: 4
46 -1 #SUP: 2
48 -1 #SUP: 6
49 -1 #SUP: 3
50 -1 #SUP: 17
54 -1 #SUP: 2
63 -1 #SUP: 2
64 -1 #SUP: 58
65 -1 #SUP: 38
66 -1 #SUP: 10
67 -1 #SUP: 6
70 -1 #SUP: 8
73 -1 #SUP: 5
76 -1 #SUP: 6
77 -1 #SUP: 97
78 -1 #SUP: 6
83 -1 #SUP: 2
102 -1 #SUP: 2
117 -1 #SUP: 7
120 -1 #SUP: 13
123 -1 #SUP: 75
132 -1 #SUP: 2
134 -1 #SUP: 5
138 -1 #SUP: 2
140 -1 #SUP: 4
144 -1 #SUP: 2
151 -1 #SUP: 3
152 -1 #SUP: 10
153 -1 #SUP: 3
154 -1 #SUP: 19
156 -1 #SUP: 2
157 -1 #SUP: 2
158 -1 #SUP: 9
160 -1 #SUP: 10
162 -1 #SUP: 6
164 -1 #SUP: 13
167 -1 #SUP: 5
168 -1 #SUP: 4
170 -1 #SUP: 15
171 -1 #SUP: 6
174 -1 #SUP: 2
175 -1 #SUP: 4
183 -1 #SUP: 6
193 -1 #SUP: 25
198 -1 #SUP: 7
202 -1 #SUP: 3
206 -1 #SUP: 6
210 -1 #SUP: 2
212 -1 #SUP: 8
213 -1 #SUP: 2
220 -1 #SUP: 6
222 -1 #SUP: 16
223 -1 #SUP: 3
224 -1 #SUP: 3
225 -1 #SUP: 9
236 -1 #SUP: 11
237 -1 #SUP: 3
246 -1 #SUP: 2
248 -1 #SUP: 2
254 -1 #SUP: 8
256 -1 #SUP: 7
260 -1 #SUP: 7
262 -1 #SUP: 14
263 -1 #SUP: 2
268 -1 #SUP: 2
274 -1 #SUP: 2
276 -1 #SUP: 8
284 -1 #SUP: 2
286 -1 #SUP: 9
291 -1 #SUP: 12
308 -1 #SUP: 2
309 -1 #SUP: 3
317 -1 #SUP: 4
318 -1 #SUP: 4
326 -1 #SUP: 10
340 -1 #SUP: 3
349 -1 #SUP: 5
356 -1 #SUP: 10
364 -1 #SUP: 11
369 -1 #SUP: 3
372 -1 #SUP: 2
376 -1 #SUP: 2
381 -1 #SUP: 6
398 -1 #SUP: 4
407 -1 #SUP: 4
408 -1 #SUP: 2
411 -1 #SUP: 2
417 -1 #SUP: 4
424 -1 #SUP: 3
431 -1 #SUP: 4
433 -1 #SUP: 2
441 -1 #SUP: 10
445 -1 #SUP: 2
452 -1 #SUP: 3
483 -1 #SUP: 2
488 -1 #SUP: 3
499 -1 #SUP: 2
505 -1 #SUP: 9
507 -1 #SUP: 2
517 -1 #SUP: 3
519 -1 #SUP: 2
520 -1 #SUP: 7
529 -1 #SUP: 2
533 -1 #SUP: 3
539 -1 #SUP: 2
543 -1 #SUP: 2
544 -1 #SUP: 3
548 -1 #SUP: 3
566 -1 #SUP: 4
571 -1 #SUP: 2
589 -1 #SUP: 2
599 -1 #SUP: 16
608 -1 #SUP: 2
613 -1 #SUP: 3
650 -1 #SUP: 3
651 -1 #SUP: 3
654 -1 #SUP: 3
656 -1 #SUP: 2
657 -1 #SUP: 2
664 -1 #SUP: 2
693 -1 #SUP: 2
699 -1 #SUP: 3
701 -1 #SUP: 3
706 -1 #SUP: 2
711 -1 #SUP: 11
749 -1 #SUP: 3
752 -1 #SUP: 2
755 -1 #SUP: 5
779 -1 #SUP: 2
835 -1 #SUP: 3
852 -1 #SUP: 2
855 -1 #SUP: 2
863 -1 #SUP: 4
871 -1 #SUP: 5
879 -1 #SUP: 2
886 -1 #SUP: 2
888 -1 #SUP: 2
894 -1 #SUP: 3
909 -1 #SUP: 2
929 -1 #SUP: 4
936 -1 #SUP: 4
944 -1 #SUP: 2
951 -1 #SUP: 2
1034 -1 #SUP: 2
1039 -1 #SUP: 2
1082 -1 #SUP: 4
1084 -1 #SUP: 3
1107 -1 #SUP: 2
1125 -1 #SUP: 3
1127 -1 #SUP: 3
1139 -1 #SUP: 3
1141 -1 #SUP: 3
1149 -1 #SUP: 3
1152 -1 #SUP: 3
1165 -1 #SUP: 5
1181 -1 #SUP: 2
1198 -1 #SUP: 3
1209 -1 #SUP: 4
1214 -1 #SUP: 2
1216 -1 #SUP: 2
1217 -1 #SUP: 2
1219 -1 #SUP: 2
1263 -1 #SUP: 2
1274 -1 #SUP: 2
1306 -1 #SUP: 2
1310 -1 #SUP: 2
1314 -1 #SUP: 2
1320 -1 #SUP: 2
1433 -1 #SUP: 5
1436 -1 #SUP: 2
1442 -1 #SUP: 2
1470 -1 #SUP: 2
1602 -1 #SUP: 2
1630 -1 #SUP: 2
1741 -1 #SUP: 2
1743 -1 #SUP: 2
1758 -1 #SUP: 2
1897 -1 #SUP: 2
1907 -1 #SUP: 2
1913 -1 #SUP: 5
1946 -1 #SUP: 3
2193 -1 #SUP: 2
2236 -1 #SUP: 2
2378 -1 #SUP: 3
2436 -1 #SUP: 2
2566 -1 #SUP: 2
2704 -1 #SUP: 2
2874 -1 #SUP: 3
2910 -1 #SUP: 3
3014 -1 #SUP: 2
3029 -1 #SUP: 2
3069 -1 #SUP: 2
3132 -1 #SUP: 2
3275 -1 #SUP: 2
3632 -1 #SUP: 2
3711 -1 #SUP: 2
3994 -1 #SUP: 2
4005 -1 #SUP: 2
4018 -1 #SUP: 3
4157 -1 #SUP: 2
4161 -1 #SUP: 2
4181 -1 #SUP: 2
4305 -1 #SUP: 2
4384 -1 #SUP: 2
4524 -1 #SUP: 3
4598 -1 #SUP: 2
5048 -1 #SUP: 2
6002 -1 #SUP: 2
6603 -1 #SUP: 2
7767 -1 #SUP: 4
10015 -1 #SUP: 2
17146 -1 #SUP: 3
18442 -1 #SUP: 2
109531 -1 #SUP: 3
2 -1 2 -1 #SUP: 4
2 -1 10 -1 #SUP: 2
2 -1 16 -1 #SUP: 2
2 -1 22 -1 #SUP: 4
2 -1 29 -1 #SUP: 3
2 -1 32 -1 #SUP: 3
2 -1 41 -1 #SUP: 2
2 -1 50 -1 #SUP: 3
2 -1 64 -1 #SUP: 6
2 -1 65 -1 #SUP: 4
2 -1 67 -1 #SUP: 2
2 -1 76 -1 #SUP: 2
2 -1 77 -1 #SUP: 5
2 -1 123 -1 #SUP: 9
2 -1 154 -1 #SUP: 3
2 -1 193 -1 #SUP: 6
2 -1 206 -1 #SUP: 2
2 -1 222 -1 #SUP: 3
2 -1 236 -1 #SUP: 3
2 -1 254 -1 #SUP: 2
2 -1 274 -1 #SUP: 2
2 -1 340 -1 #SUP: 2
2 -1 349 -1 #SUP: 2
2 -1 483 -1 #SUP: 2
2 -1 499 -1 #SUP: 2
2 -1 517 -1 #SUP: 2
2 -1 711 -1 #SUP: 4
2 -1 1913 -1 #SUP: 3
2 -1 2566 -1 #SUP: 2
3 -1 164 -1 #SUP: 2
7 -1 22 -1 #SUP: 2
7 -1 262 -1 #SUP: 2
10 -1 2 -1 #SUP: 6
10 -1 22 -1 #SUP: 8
10 -1 32 -1 #SUP: 4
10 -1 64 -1 #SUP: 5
10 -1 77 -1 #SUP: 8
10 -1 123 -1 #SUP: 3
10 -1 198 -1 #SUP: 2
10 -1 222 -1 #SUP: 2
10 -1 599 -1 #SUP: 3
10 -1 711 -1 #SUP: 3
10 -1 755 -1 #SUP: 2
16 -1 32 -1 #SUP: 2
16 -1 64 -1 #SUP: 6
16 -1 65 -1 #SUP: 4
16 -1 117 -1 #SUP: 2
16 -1 123 -1 #SUP: 2
16 -1 152 -1 #SUP: 2
16 -1 193 -1 #SUP: 2
16 -1 505 -1 #SUP: 3
16 -1 1149 -1 #SUP: 2
22 -1 2 -1 #SUP: 8
22 -1 10 -1 #SUP: 3
22 -1 22 -1 #SUP: 4
22 -1 32 -1 #SUP: 6
22 -1 33 -1 #SUP: 2
22 -1 42 -1 #SUP: 2
22 -1 49 -1 #SUP: 2
22 -1 50 -1 #SUP: 3
22 -1 54 -1 #SUP: 2
22 -1 64 -1 #SUP: 7
22 -1 65 -1 #SUP: 6
22 -1 76 -1 #SUP: 3
22 -1 77 -1 #SUP: 14
22 -1 123 -1 #SUP: 7
22 -1 132 -1 #SUP: 2
22 -1 134 -1 #SUP: 2
22 -1 158 -1 #SUP: 3
22 -1 170 -1 #SUP: 2
22 -1 222 -1 #SUP: 3
22 -1 254 -1 #SUP: 2
22 -1 262 -1 #SUP: 2
22 -1 417 -1 #SUP: 2
22 -1 424 -1 #SUP: 2
22 -1 599 -1 #SUP: 4
22 -1 711 -1 #SUP: 3
22 -1 755 -1 #SUP: 2
22 -1 3994 -1 #SUP: 2
22 -1 4524 -1 #SUP: 2
22 -1 4598 -1 #SUP: 2
27 -1 22 -1 #SUP: 2
27 -1 123 -1 #SUP: 3
27 -1 170 -1 #SUP: 2
27 -1 291 -1 #SUP: 2
29 -1 2 -1 #SUP: 2
29 -1 10 -1 #SUP: 2
29 -1 32 -1 #SUP: 2
29 -1 65 -1 #SUP: 2
29 -1 77 -1 #SUP: 4
29 -1 317 -1 #SUP: 2
31 -1 22 -1 #SUP: 2
31 -1 64 -1 #SUP: 2
31 -1 77 -1 #SUP: 7
31 -1 123 -1 #SUP: 3
31 -1 222 -1 #SUP: 2
31 -1 291 -1 #SUP: 2
32 -1 2 -1 #SUP: 7
32 -1 10 -1 #SUP: 3
32 -1 22 -1 #SUP: 7
32 -1 32 -1 #SUP: 5
32 -1 33 -1 #SUP: 2
32 -1 50 -1 #SUP: 2
32 -1 64 -1 #SUP: 3
32 -1 65 -1 #SUP: 5
32 -1 76 -1 #SUP: 2
32 -1 77 -1 #SUP: 12
32 -1 123 -1 #SUP: 3
32 -1 158 -1 #SUP: 3
32 -1 162 -1 #SUP: 3
32 -1 170 -1 #SUP: 4
32 -1 262 -1 #SUP: 3
32 -1 309 -1 #SUP: 2
32 -1 381 -1 #SUP: 2
32 -1 599 -1 #SUP: 3
32 -1 650 -1 #SUP: 2
32 -1 1152 -1 #SUP: 2
32 -1 1209 -1 #SUP: 2
32 -1 4598 -1 #SUP: 2
33 -1 2 -1 #SUP: 2
33 -1 22 -1 #SUP: 2
33 -1 29 -1 #SUP: 2
33 -1 32 -1 #SUP: 3
33 -1 64 -1 #SUP: 3
33 -1 65 -1 #SUP: 3
33 -1 77 -1 #SUP: 3
33 -1 154 -1 #SUP: 2
33 -1 871 -1 #SUP: 2
41 -1 10 -1 #SUP: 2
41 -1 16 -1 #SUP: 2
41 -1 22 -1 #SUP: 3
41 -1 31 -1 #SUP: 3
41 -1 64 -1 #SUP: 8
41 -1 65 -1 #SUP: 2
41 -1 77 -1 #SUP: 5
41 -1 123 -1 #SUP: 2
41 -1 154 -1 #SUP: 2
41 -1 160 -1 #SUP: 2
41 -1 171 -1 #SUP: 2
41 -1 183 -1 #SUP: 2
41 -1 222 -1 #SUP: 2
41 -1 441 -1 #SUP: 3
41 -1 699 -1 #SUP: 2
41 -1 711 -1 #SUP: 2
41 -1 1149 -1 #SUP: 2
42 -1 64 -1 #SUP: 2
42 -1 77 -1 #SUP: 2
46 -1 64 -1 #SUP: 2
48 -1 64 -1 #SUP: 2
48 -1 77 -1 #SUP: 3
48 -1 326 -1 #SUP: 2
48 -1 1436 -1 #SUP: 2
48 -1 1897 -1 #SUP: 2
49 -1 2 -1 #SUP: 2
49 -1 77 -1 #SUP: 2
50 -1 2 -1 #SUP: 4
50 -1 22 -1 #SUP: 2
50 -1 64 -1 #SUP: 2
50 -1 77 -1 #SUP: 4
50 -1 123 -1 #SUP: 3
50 -1 193 -1 #SUP: 3
50 -1 291 -1 #SUP: 2
50 -1 317 -1 #SUP: 2
50 -1 326 -1 #SUP: 2
50 -1 599 -1 #SUP: 2
64 -1 2 -1 #SUP: 6
64 -1 10 -1 #SUP: 4
64 -1 16 -1 #SUP: 2
64 -1 22 -1 #SUP: 7
64 -1 29 -1 #SUP: 4
64 -1 32 -1 #SUP: 6
64 -1 33 -1 #SUP: 4
64 -1 46 -1 #SUP: 2
64 -1 50 -1 #SUP: 6
64 -1 64 -1 #SUP: 8
64 -1 65 -1 #SUP: 9
64 -1 67 -1 #SUP: 2
64 -1 77 -1 #SUP: 11
64 -1 117 -1 #SUP: 2
64 -1 123 -1 #SUP: 5
64 -1 134 -1 #SUP: 2
64 -1 151 -1 #SUP: 3
64 -1 152 -1 #SUP: 2
64 -1 153 -1 #SUP: 2
64 -1 158 -1 #SUP: 2
64 -1 160 -1 #SUP: 3
64 -1 164 -1 #SUP: 2
64 -1 167 -1 #SUP: 3
64 -1 174 -1 #SUP: 2
64 -1 193 -1 #SUP: 2
64 -1 222 -1 #SUP: 3
64 -1 225 -1 #SUP: 2
64 -1 254 -1 #SUP: 2
64 -1 262 -1 #SUP: 2
64 -1 276 -1 #SUP: 3
64 -1 317 -1 #SUP: 2
64 -1 326 -1 #SUP: 3
64 -1 364 -1 #SUP: 2
64 -1 376 -1 #SUP: 2
64 -1 441 -1 #SUP: 3
64 -1 505 -1 #SUP: 5
64 -1 519 -1 #SUP: 2
64 -1 711 -1 #SUP: 6
64 -1 752 -1 #SUP: 2
64 -1 871 -1 #SUP: 2
64 -1 1139 -1 #SUP: 2
64 -1 1141 -1 #SUP: 2
64 -1 1152 -1 #SUP: 2
64 -1 1314 -1 #SUP: 2
64 -1 1442 -1 #SUP: 2
64 -1 1743 -1 #SUP: 2
64 -1 1897 -1 #SUP: 2
64 -1 1946 -1 #SUP: 2
64 -1 2566 -1 #SUP: 2
64 -1 4305 -1 #SUP: 2
65 -1 2 -1 #SUP: 5
65 -1 10 -1 #SUP: 3
65 -1 22 -1 #SUP: 2
65 -1 29 -1 #SUP: 3
65 -1 31 -1 #SUP: 3
65 -1 32 -1 #SUP: 5
65 -1 33 -1 #SUP: 4
65 -1 42 -1 #SUP: 2
65 -1 50 -1 #SUP: 3
65 -1 64 -1 #SUP: 3
65 -1 65 -1 #SUP: 4
65 -1 66 -1 #SUP: 2
65 -1 77 -1 #SUP: 9
65 -1 120 -1 #SUP: 2
65 -1 123 -1 #SUP: 7
65 -1 154 -1 #SUP: 2
65 -1 193 -1 #SUP: 2
65 -1 262 -1 #SUP: 3
65 -1 291 -1 #SUP: 2
65 -1 364 -1 #SUP: 2
65 -1 381 -1 #SUP: 3
65 -1 424 -1 #SUP: 2
65 -1 599 -1 #SUP: 3
65 -1 1219 -1 #SUP: 2
65 -1 3069 -1 #SUP: 2
66 -1 10 -1 #SUP: 2
66 -1 22 -1 #SUP: 4
66 -1 32 -1 #SUP: 2
66 -1 64 -1 #SUP: 3
66 -1 65 -1 #SUP: 2
66 -1 77 -1 #SUP: 2
66 -1 398 -1 #SUP: 2
66 -1 711 -1 #SUP: 2
67 -1 31 -1 #SUP: 2
67 -1 77 -1 #SUP: 2
67 -1 123 -1 #SUP: 2
70 -1 16 -1 #SUP: 2
70 -1 22 -1 #SUP: 3
70 -1 32 -1 #SUP: 2
70 -1 64 -1 #SUP: 3
70 -1 65 -1 #SUP: 3
73 -1 10 -1 #SUP: 2
73 -1 22 -1 #SUP: 2
73 -1 123 -1 #SUP: 2
73 -1 162 -1 #SUP: 2
73 -1 407 -1 #SUP: 2
76 -1 76 -1 #SUP: 2
76 -1 77 -1 #SUP: 4
77 -1 2 -1 #SUP: 14
77 -1 7 -1 #SUP: 2
77 -1 10 -1 #SUP: 6
77 -1 16 -1 #SUP: 5
77 -1 22 -1 #SUP: 9
77 -1 29 -1 #SUP: 5
77 -1 31 -1 #SUP: 6
77 -1 32 -1 #SUP: 8
77 -1 41 -1 #SUP: 8
77 -1 42 -1 #SUP: 2
77 -1 48 -1 #SUP: 2
77 -1 50 -1 #SUP: 3
77 -1 64 -1 #SUP: 17
77 -1 65 -1 #SUP: 7
77 -1 66 -1 #SUP: 4
77 -1 67 -1 #SUP: 2
77 -1 70 -1 #SUP: 5
77 -1 73 -1 #SUP: 2
77 -1 77 -1 #SUP: 14
77 -1 117 -1 #SUP: 3
77 -1 120 -1 #SUP: 5
77 -1 123 -1 #SUP: 20
77 -1 134 -1 #SUP: 3
77 -1 140 -1 #SUP: 3
77 -1 151 -1 #SUP: 2
77 -1 152 -1 #SUP: 3
77 -1 154 -1 #SUP: 6
77 -1 158 -1 #SUP: 3
77 -1 162 -1 #SUP: 2
77 -1 167 -1 #SUP: 2
77 -1 170 -1 #SUP: 2
77 -1 171 -1 #SUP: 4
77 -1 183 -1 #SUP: 5
77 -1 193 -1 #SUP: 4
77 -1 206 -1 #SUP: 2
77 -1 212 -1 #SUP: 2
77 -1 213 -1 #SUP: 2
77 -1 220 -1 #SUP: 4
77 -1 222 -1 #SUP: 4
77 -1 225 -1 #SUP: 4
77 -1 236 -1 #SUP: 3
77 -1 237 -1 #SUP: 3
77 -1 254 -1 #SUP: 4
77 -1 256 -1 #SUP: 3
77 -1 260 -1 #SUP: 3
77 -1 262 -1 #SUP: 2
77 -1 276 -1 #SUP: 4
77 -1 286 -1 #SUP: 5
77 -1 291 -1 #SUP: 3
77 -1 308 -1 #SUP: 2
77 -1 349 -1 #SUP: 3
77 -1 356 -1 #SUP: 3
77 -1 364 -1 #SUP: 3
77 -1 381 -1 #SUP: 2
77 -1 417 -1 #SUP: 2
77 -1 441 -1 #SUP: 3
77 -1 452 -1 #SUP: 2
77 -1 488 -1 #SUP: 2
77 -1 505 -1 #SUP: 2
77 -1 520 -1 #SUP: 3
77 -1 529 -1 #SUP: 2
77 -1 533 -1 #SUP: 3
77 -1 599 -1 #SUP: 12
77 -1 664 -1 #SUP: 2
77 -1 693 -1 #SUP: 2
77 -1 711 -1 #SUP: 2
77 -1 863 -1 #SUP: 2
77 -1 936 -1 #SUP: 2
77 -1 1039 -1 #SUP: 2
77 -1 1084 -1 #SUP: 2
77 -1 1149 -1 #SUP: 2
77 -1 1165 -1 #SUP: 3
77 -1 1214 -1 #SUP: 2
77 -1 1320 -1 #SUP: 2
77 -1 1433 -1 #SUP: 2
77 -1 3029 -1 #SUP: 2
77 -1 3632 -1 #SUP: 2
77 -1 3994 -1 #SUP: 2
78 -1 2 -1 #SUP: 3
78 -1 22 -1 #SUP: 3
78 -1 65 -1 #SUP: 2
78 -1 77 -1 #SUP: 2
78 -1 123 -1 #SUP: 3
78 -1 193 -1 #SUP: 2
117 -1 2 -1 #SUP: 2
117 -1 64 -1 #SUP: 2
117 -1 871 -1 #SUP: 2
120 -1 32 -1 #SUP: 2
120 -1 77 -1 #SUP: 4
120 -1 123 -1 #SUP: 3
120 -1 225 -1 #SUP: 3
120 -1 254 -1 #SUP: 2
120 -1 356 -1 #SUP: 2
120 -1 599 -1 #SUP: 3
120 -1 863 -1 #SUP: 3
120 -1 1433 -1 #SUP: 2
123 -1 2 -1 #SUP: 10
123 -1 3 -1 #SUP: 2
123 -1 10 -1 #SUP: 4
123 -1 16 -1 #SUP: 4
123 -1 22 -1 #SUP: 13
123 -1 31 -1 #SUP: 2
123 -1 32 -1 #SUP: 9
123 -1 33 -1 #SUP: 3
123 -1 41 -1 #SUP: 4
123 -1 48 -1 #SUP: 2
123 -1 49 -1 #SUP: 3
123 -1 50 -1 #SUP: 4
123 -1 64 -1 #SUP: 14
123 -1 65 -1 #SUP: 10
123 -1 66 -1 #SUP: 5
123 -1 67 -1 #SUP: 2
123 -1 70 -1 #SUP: 2
123 -1 73 -1 #SUP: 4
123 -1 77 -1 #SUP: 14
123 -1 83 -1 #SUP: 2
123 -1 120 -1 #SUP: 7
123 -1 123 -1 #SUP: 16
123 -1 134 -1 #SUP: 3
123 -1 138 -1 #SUP: 2
123 -1 140 -1 #SUP: 2
123 -1 152 -1 #SUP: 2
123 -1 154 -1 #SUP: 5
123 -1 158 -1 #SUP: 5
123 -1 160 -1 #SUP: 5
123 -1 162 -1 #SUP: 4
123 -1 164 -1 #SUP: 5
123 -1 167 -1 #SUP: 3
123 -1 170 -1 #SUP: 2
123 -1 171 -1 #SUP: 3
123 -1 174 -1 #SUP: 2
123 -1 193 -1 #SUP: 7
123 -1 198 -1 #SUP: 2
123 -1 206 -1 #SUP: 4
123 -1 210 -1 #SUP: 2
123 -1 220 -1 #SUP: 6
123 -1 222 -1 #SUP: 3
123 -1 225 -1 #SUP: 6
123 -1 236 -1 #SUP: 4
123 -1 254 -1 #SUP: 2
123 -1 256 -1 #SUP: 2
123 -1 260 -1 #SUP: 2
123 -1 262 -1 #SUP: 2
123 -1 276 -1 #SUP: 4
123 -1 284 -1 #SUP: 2
123 -1 286 -1 #SUP: 7
123 -1 291 -1 #SUP: 3
123 -1 309 -1 #SUP: 3
123 -1 340 -1 #SUP: 3
123 -1 356 -1 #SUP: 3
123 -1 364 -1 #SUP: 4
123 -1 381 -1 #SUP: 2
123 -1 398 -1 #SUP: 2
123 -1 407 -1 #SUP: 4
123 -1 433 -1 #SUP: 2
123 -1 441 -1 #SUP: 5
123 -1 488 -1 #SUP: 2
123 -1 505 -1 #SUP: 6
123 -1 517 -1 #SUP: 2
123 -1 529 -1 #SUP: 2
123 -1 599 -1 #SUP: 3
123 -1 711 -1 #SUP: 3
123 -1 749 -1 #SUP: 2
123 -1 863 -1 #SUP: 3
123 -1 879 -1 #SUP: 2
123 -1 929 -1 #SUP: 3
123 -1 1034 -1 #SUP: 2
123 -1 1209 -1 #SUP: 2
123 -1 1216 -1 #SUP: 2
123 -1 1219 -1 #SUP: 2
123 -1 1320 -1 #SUP: 2
123 -1 1433 -1 #SUP: 3
123 -1 1442 -1 #SUP: 2
123 -1 1470 -1 #SUP: 2
123 -1 1913 -1 #SUP: 4
123 -1 4161 -1 #SUP: 2
123 -1 10015 -1 #SUP: 2
134 -1 2 -1 #SUP: 2
134 -1 77 -1 #SUP: 2
134 -1 349 -1 #SUP: 2
140 -1 41 -1 #SUP: 2
140 -1 64 -1 #SUP: 2
140 -1 123 -1 #SUP: 2
140 -1 276 -1 #SUP: 2
144 -1 123 -1 #SUP: 2
151 -1 153 -1 #SUP: 2
152 -1 22 -1 #SUP: 2
152 -1 64 -1 #SUP: 2
152 -1 77 -1 #SUP: 2
152 -1 152 -1 #SUP: 3
152 -1 254 -1 #SUP: 2
152 -1 599 -1 #SUP: 2
153 -1 123 -1 #SUP: 2
154 -1 2 -1 #SUP: 3
154 -1 10 -1 #SUP: 2
154 -1 32 -1 #SUP: 3
154 -1 33 -1 #SUP: 3
154 -1 41 -1 #SUP: 3
154 -1 64 -1 #SUP: 5
154 -1 65 -1 #SUP: 3
154 -1 77 -1 #SUP: 2
154 -1 123 -1 #SUP: 2
154 -1 152 -1 #SUP: 2
154 -1 154 -1 #SUP: 2
154 -1 164 -1 #SUP: 2
154 -1 222 -1 #SUP: 3
154 -1 548 -1 #SUP: 2
154 -1 852 -1 #SUP: 2
154 -1 1198 -1 #SUP: 2
154 -1 3711 -1 #SUP: 2
154 -1 7767 -1 #SUP: 2
157 -1 77 -1 #SUP: 2
158 -1 2 -1 #SUP: 2
158 -1 10 -1 #SUP: 2
158 -1 22 -1 #SUP: 3
158 -1 64 -1 #SUP: 2
158 -1 65 -1 #SUP: 2
158 -1 77 -1 #SUP: 3
158 -1 123 -1 #SUP: 3
158 -1 599 -1 #SUP: 2
160 -1 64 -1 #SUP: 8
160 -1 65 -1 #SUP: 2
160 -1 77 -1 #SUP: 2
160 -1 151 -1 #SUP: 2
160 -1 222 -1 #SUP: 2
160 -1 262 -1 #SUP: 2
160 -1 364 -1 #SUP: 2
160 -1 505 -1 #SUP: 2
160 -1 599 -1 #SUP: 2
160 -1 711 -1 #SUP: 2
162 -1 2 -1 #SUP: 3
162 -1 65 -1 #SUP: 2
162 -1 66 -1 #SUP: 2
162 -1 123 -1 #SUP: 4
162 -1 407 -1 #SUP: 3
164 -1 10 -1 #SUP: 3
164 -1 22 -1 #SUP: 3
164 -1 50 -1 #SUP: 2
164 -1 65 -1 #SUP: 2
164 -1 77 -1 #SUP: 5
164 -1 123 -1 #SUP: 3
164 -1 154 -1 #SUP: 2
164 -1 599 -1 #SUP: 4
167 -1 77 -1 #SUP: 2
167 -1 123 -1 #SUP: 2
168 -1 64 -1 #SUP: 2
170 -1 22 -1 #SUP: 2
170 -1 64 -1 #SUP: 2
170 -1 65 -1 #SUP: 3
170 -1 77 -1 #SUP: 2
170 -1 871 -1 #SUP: 2
171 -1 10 -1 #SUP: 2
171 -1 22 -1 #SUP: 3
171 -1 32 -1 #SUP: 2
171 -1 123 -1 #SUP: 2
175 -1 16 -1 #SUP: 2
175 -1 65 -1 #SUP: 2
175 -1 77 -1 #SUP: 3
183 -1 64 -1 #SUP: 3
183 -1 431 -1 #SUP: 2
193 -1 2 -1 #SUP: 2
193 -1 22 -1 #SUP: 2
193 -1 32 -1 #SUP: 3
193 -1 41 -1 #SUP: 2
193 -1 64 -1 #SUP: 6
193 -1 65 -1 #SUP: 4
193 -1 77 -1 #SUP: 7
193 -1 78 -1 #SUP: 2
193 -1 123 -1 #SUP: 5
193 -1 154 -1 #SUP: 3
193 -1 160 -1 #SUP: 2
193 -1 170 -1 #SUP: 3
193 -1 174 -1 #SUP: 2
193 -1 193 -1 #SUP: 3
193 -1 222 -1 #SUP: 4
193 -1 701 -1 #SUP: 2
193 -1 1165 -1 #SUP: 2
198 -1 32 -1 #SUP: 2
198 -1 33 -1 #SUP: 2
198 -1 50 -1 #SUP: 2
198 -1 64 -1 #SUP: 2
198 -1 65 -1 #SUP: 2
198 -1 77 -1 #SUP: 2
198 -1 123 -1 #SUP: 2
198 -1 225 -1 #SUP: 2
202 -1 65 -1 #SUP: 2
202 -1 755 -1 #SUP: 2
202 -1 3069 -1 #SUP: 2
206 -1 2 -1 #SUP: 3
206 -1 64 -1 #SUP: 2
212 -1 64 -1 #SUP: 2
212 -1 65 -1 #SUP: 2
212 -1 77 -1 #SUP: 2
213 -1 77 -1 #SUP: 2
220 -1 10 -1 #SUP: 2
220 -1 22 -1 #SUP: 2
220 -1 66 -1 #SUP: 2
220 -1 73 -1 #SUP: 2
220 -1 123 -1 #SUP: 3
220 -1 162 -1 #SUP: 2
222 -1 2 -1 #SUP: 2
222 -1 10 -1 #SUP: 2
222 -1 22 -1 #SUP: 3
222 -1 32 -1 #SUP: 3
222 -1 64 -1 #SUP: 3
222 -1 65 -1 #SUP: 2
222 -1 67 -1 #SUP: 2
222 -1 77 -1 #SUP: 8
222 -1 123 -1 #SUP: 4
222 -1 154 -1 #SUP: 2
222 -1 193 -1 #SUP: 2
222 -1 198 -1 #SUP: 2
222 -1 225 -1 #SUP: 2
222 -1 262 -1 #SUP: 2
222 -1 268 -1 #SUP: 2
222 -1 276 -1 #SUP: 2
222 -1 599 -1 #SUP: 2
222 -1 1181 -1 #SUP: 2
222 -1 10015 -1 #SUP: 2
223 -1 64 -1 #SUP: 2
225 -1 2 -1 #SUP: 2
225 -1 10 -1 #SUP: 2
225 -1 16 -1 #SUP: 2
225 -1 64 -1 #SUP: 4
225 -1 65 -1 #SUP: 3
225 -1 77 -1 #SUP: 3
225 -1 123 -1 #SUP: 3
225 -1 276 -1 #SUP: 3
225 -1 1433 -1 #SUP: 2
236 -1 41 -1 #SUP: 6
236 -1 64 -1 #SUP: 2
236 -1 65 -1 #SUP: 4
236 -1 77 -1 #SUP: 4
236 -1 123 -1 #SUP: 4
236 -1 160 -1 #SUP: 2
236 -1 222 -1 #SUP: 2
236 -1 364 -1 #SUP: 2
236 -1 711 -1 #SUP: 2
236 -1 1913 -1 #SUP: 2
254 -1 2 -1 #SUP: 2
254 -1 64 -1 #SUP: 2
254 -1 120 -1 #SUP: 3
254 -1 123 -1 #SUP: 4
254 -1 152 -1 #SUP: 3
256 -1 32 -1 #SUP: 2
256 -1 77 -1 #SUP: 4
260 -1 64 -1 #SUP: 2
260 -1 65 -1 #SUP: 2
260 -1 77 -1 #SUP: 2
260 -1 160 -1 #SUP: 2
260 -1 222 -1 #SUP: 2
260 -1 236 -1 #SUP: 3
260 -1 1165 -1 #SUP: 2
262 -1 2 -1 #SUP: 4
262 -1 123 -1 #SUP: 3
262 -1 170 -1 #SUP: 3
262 -1 262 -1 #SUP: 2
262 -1 871 -1 #SUP: 2
276 -1 16 -1 #SUP: 2
276 -1 64 -1 #SUP: 2
276 -1 123 -1 #SUP: 2
286 -1 32 -1 #SUP: 2
286 -1 64 -1 #SUP: 2
286 -1 65 -1 #SUP: 2
286 -1 123 -1 #SUP: 4
286 -1 220 -1 #SUP: 2
286 -1 291 -1 #SUP: 2
286 -1 1139 -1 #SUP: 2
291 -1 2 -1 #SUP: 4
291 -1 22 -1 #SUP: 4
291 -1 64 -1 #SUP: 3
291 -1 65 -1 #SUP: 2
291 -1 77 -1 #SUP: 3
291 -1 123 -1 #SUP: 2
291 -1 154 -1 #SUP: 2
291 -1 170 -1 #SUP: 2
291 -1 274 -1 #SUP: 2
291 -1 318 -1 #SUP: 2
291 -1 1084 -1 #SUP: 2
291 -1 2193 -1 #SUP: 2
309 -1 123 -1 #SUP: 3
309 -1 1470 -1 #SUP: 2
317 -1 2 -1 #SUP: 2
317 -1 22 -1 #SUP: 2
318 -1 77 -1 #SUP: 3
318 -1 1084 -1 #SUP: 2
318 -1 1165 -1 #SUP: 2
326 -1 2 -1 #SUP: 3
326 -1 48 -1 #SUP: 3
326 -1 77 -1 #SUP: 3
326 -1 78 -1 #SUP: 2
326 -1 123 -1 #SUP: 2
326 -1 1897 -1 #SUP: 2
340 -1 123 -1 #SUP: 2
349 -1 31 -1 #SUP: 2
349 -1 67 -1 #SUP: 2
349 -1 77 -1 #SUP: 2
356 -1 31 -1 #SUP: 2
356 -1 64 -1 #SUP: 2
356 -1 77 -1 #SUP: 5
356 -1 123 -1 #SUP: 3
364 -1 2 -1 #SUP: 2
364 -1 10 -1 #SUP: 2
364 -1 16 -1 #SUP: 3
364 -1 32 -1 #SUP: 2
364 -1 48 -1 #SUP: 2
364 -1 50 -1 #SUP: 2
364 -1 64 -1 #SUP: 3
364 -1 65 -1 #SUP: 2
364 -1 77 -1 #SUP: 4
364 -1 123 -1 #SUP: 2
364 -1 193 -1 #SUP: 3
364 -1 326 -1 #SUP: 3
364 -1 599 -1 #SUP: 2
364 -1 711 -1 #SUP: 3
369 -1 22 -1 #SUP: 2
381 -1 31 -1 #SUP: 2
381 -1 64 -1 #SUP: 2
381 -1 291 -1 #SUP: 2
398 -1 2 -1 #SUP: 2
398 -1 64 -1 #SUP: 2
398 -1 77 -1 #SUP: 2
407 -1 3 -1 #SUP: 2
407 -1 50 -1 #SUP: 2
407 -1 66 -1 #SUP: 2
407 -1 164 -1 #SUP: 2
417 -1 22 -1 #SUP: 2
431 -1 64 -1 #SUP: 2
441 -1 2 -1 #SUP: 2
441 -1 22 -1 #SUP: 2
441 -1 64 -1 #SUP: 3
441 -1 77 -1 #SUP: 4
517 -1 2 -1 #SUP: 2
517 -1 29 -1 #SUP: 2
517 -1 64 -1 #SUP: 2
517 -1 77 -1 #SUP: 2
520 -1 77 -1 #SUP: 2
520 -1 123 -1 #SUP: 2
533 -1 77 -1 #SUP: 2
533 -1 123 -1 #SUP: 2
539 -1 123 -1 #SUP: 2
544 -1 2 -1 #SUP: 3
544 -1 10 -1 #SUP: 3
544 -1 64 -1 #SUP: 2
548 -1 222 -1 #SUP: 2
566 -1 64 -1 #SUP: 2
599 -1 22 -1 #SUP: 2
599 -1 32 -1 #SUP: 2
599 -1 41 -1 #SUP: 2
599 -1 50 -1 #SUP: 2
599 -1 64 -1 #SUP: 2
599 -1 65 -1 #SUP: 3
599 -1 77 -1 #SUP: 5
599 -1 123 -1 #SUP: 6
599 -1 236 -1 #SUP: 2
599 -1 254 -1 #SUP: 2
599 -1 256 -1 #SUP: 2
599 -1 262 -1 #SUP: 2
599 -1 326 -1 #SUP: 2
599 -1 364 -1 #SUP: 3
599 -1 452 -1 #SUP: 2
613 -1 32 -1 #SUP: 2
613 -1 77 -1 #SUP: 3
613 -1 599 -1 #SUP: 2
651 -1 33 -1 #SUP: 2
651 -1 64 -1 #SUP: 2
651 -1 117 -1 #SUP: 2
654 -1 29 -1 #SUP: 2
656 -1 64 -1 #SUP: 2
657 -1 254 -1 #SUP: 2
693 -1 2 -1 #SUP: 2
699 -1 1139 -1 #SUP: 2
711 -1 2 -1 #SUP: 4
711 -1 22 -1 #SUP: 2
711 -1 41 -1 #SUP: 2
711 -1 64 -1 #SUP: 2
711 -1 77 -1 #SUP: 4
711 -1 123 -1 #SUP: 2
711 -1 193 -1 #SUP: 3
711 -1 222 -1 #SUP: 2
711 -1 398 -1 #SUP: 2
711 -1 1758 -1 #SUP: 2
749 -1 2 -1 #SUP: 2
755 -1 2 -1 #SUP: 4
835 -1 10 -1 #SUP: 2
835 -1 22 -1 #SUP: 2
852 -1 152 -1 #SUP: 2
863 -1 2 -1 #SUP: 2
863 -1 225 -1 #SUP: 3
863 -1 1433 -1 #SUP: 2
871 -1 77 -1 #SUP: 4
871 -1 123 -1 #SUP: 2
871 -1 1314 -1 #SUP: 2
871 -1 4305 -1 #SUP: 2
894 -1 10 -1 #SUP: 2
894 -1 77 -1 #SUP: 3
929 -1 22 -1 #SUP: 2
929 -1 222 -1 #SUP: 2
1034 -1 154 -1 #SUP: 2
1034 -1 193 -1 #SUP: 2
1039 -1 64 -1 #SUP: 2
1084 -1 77 -1 #SUP: 3
1107 -1 33 -1 #SUP: 2
1125 -1 32 -1 #SUP: 2
1125 -1 64 -1 #SUP: 2
1139 -1 1946 -1 #SUP: 2
1165 -1 41 -1 #SUP: 3
1165 -1 64 -1 #SUP: 2
1165 -1 77 -1 #SUP: 3
1165 -1 154 -1 #SUP: 3
1165 -1 7767 -1 #SUP: 2
1209 -1 77 -1 #SUP: 2
1209 -1 158 -1 #SUP: 2
1209 -1 5048 -1 #SUP: 2
1214 -1 2 -1 #SUP: 2
1314 -1 2 -1 #SUP: 2
1314 -1 77 -1 #SUP: 2
1433 -1 77 -1 #SUP: 2
1433 -1 154 -1 #SUP: 2
1433 -1 318 -1 #SUP: 2
1433 -1 1165 -1 #SUP: 3
1436 -1 64 -1 #SUP: 2
1436 -1 326 -1 #SUP: 2
1436 -1 1897 -1 #SUP: 2
1442 -1 505 -1 #SUP: 2
1470 -1 123 -1 #SUP: 2
1743 -1 46 -1 #SUP: 2
1758 -1 77 -1 #SUP: 2
1913 -1 64 -1 #SUP: 2
1913 -1 225 -1 #SUP: 2
2193 -1 1084 -1 #SUP: 2
2378 -1 22 -1 #SUP: 2
2378 -1 77 -1 #SUP: 2
2378 -1 193 -1 #SUP: 2
2704 -1 22 -1 #SUP: 2
2874 -1 123 -1 #SUP: 2
2874 -1 286 -1 #SUP: 2
2910 -1 2 -1 #SUP: 2
2910 -1 77 -1 #SUP: 2
2910 -1 274 -1 #SUP: 2
2910 -1 291 -1 #SUP: 3
2910 -1 318 -1 #SUP: 2
2910 -1 1084 -1 #SUP: 2
2910 -1 2193 -1 #SUP: 2
3132 -1 64 -1 #SUP: 2
3711 -1 64 -1 #SUP: 2
4018 -1 2 -1 #SUP: 2
4018 -1 4018 -1 #SUP: 2
4157 -1 78 -1 #SUP: 2
4157 -1 193 -1 #SUP: 2
4305 -1 2 -1 #SUP: 2
4305 -1 77 -1 #SUP: 2
4384 -1 77 -1 #SUP: 2
4524 -1 22 -1 #SUP: 2
4524 -1 32 -1 #SUP: 2
4524 -1 222 -1 #SUP: 2
4524 -1 4598 -1 #SUP: 2
5048 -1 77 -1 #SUP: 2
6603 -1 64 -1 #SUP: 2
6603 -1 193 -1 #SUP: 2
7767 -1 64 -1 #SUP: 2
7767 -1 154 -1 #SUP: 2
7767 -1 1165 -1 #SUP: 2
17146 -1 4181 -1 #SUP: 2
109531 -1 1306 -1 #SUP: 2
109531 -1 6002 -1 #SUP: 2
2 -1 22 -1 32 -1 #SUP: 2
2 -1 64 -1 29 -1 #SUP: 2
2 -1 76 -1 77 -1 #SUP: 2
2 -1 123 -1 123 -1 #SUP: 3
2 -1 123 -1 193 -1 #SUP: 2
2 -1 123 -1 340 -1 #SUP: 2
2 -1 123 -1 711 -1 #SUP: 2
2 -1 123 -1 1913 -1 #SUP: 2
2 -1 193 -1 65 -1 #SUP: 2
2 -1 193 -1 123 -1 #SUP: 3
2 -1 193 -1 222 -1 #SUP: 2
2 -1 222 -1 123 -1 #SUP: 3
2 -1 236 -1 123 -1 #SUP: 2
2 -1 517 -1 29 -1 #SUP: 2
2 -1 517 -1 64 -1 #SUP: 2
10 -1 22 -1 2 -1 #SUP: 2
10 -1 22 -1 64 -1 #SUP: 2
10 -1 22 -1 77 -1 #SUP: 5
10 -1 22 -1 123 -1 #SUP: 2
10 -1 22 -1 222 -1 #SUP: 2
10 -1 22 -1 599 -1 #SUP: 2
10 -1 32 -1 2 -1 #SUP: 3
10 -1 32 -1 77 -1 #SUP: 2
10 -1 77 -1 2 -1 #SUP: 2
10 -1 77 -1 599 -1 #SUP: 2
10 -1 222 -1 77 -1 #SUP: 2
10 -1 599 -1 123 -1 #SUP: 2
10 -1 711 -1 77 -1 #SUP: 2
10 -1 755 -1 2 -1 #SUP: 2
16 -1 64 -1 505 -1 #SUP: 2
22 -1 2 -1 50 -1 #SUP: 2
22 -1 2 -1 65 -1 #SUP: 2
22 -1 10 -1 32 -1 #SUP: 2
22 -1 32 -1 2 -1 #SUP: 2
22 -1 32 -1 10 -1 #SUP: 2
22 -1 32 -1 22 -1 #SUP: 2
22 -1 32 -1 32 -1 #SUP: 2
22 -1 32 -1 65 -1 #SUP: 2
22 -1 32 -1 77 -1 #SUP: 3
22 -1 32 -1 4598 -1 #SUP: 2
22 -1 64 -1 50 -1 #SUP: 2
22 -1 64 -1 711 -1 #SUP: 2
22 -1 65 -1 424 -1 #SUP: 2
22 -1 76 -1 77 -1 #SUP: 2
22 -1 77 -1 2 -1 #SUP: 2
22 -1 77 -1 22 -1 #SUP: 2
22 -1 77 -1 123 -1 #SUP: 3
22 -1 77 -1 254 -1 #SUP: 2
22 -1 77 -1 599 -1 #SUP: 4
22 -1 77 -1 3994 -1 #SUP: 2
22 -1 222 -1 2 -1 #SUP: 2
22 -1 222 -1 22 -1 #SUP: 2
22 -1 222 -1 77 -1 #SUP: 3
22 -1 254 -1 123 -1 #SUP: 2
22 -1 417 -1 22 -1 #SUP: 2
22 -1 599 -1 123 -1 #SUP: 2
22 -1 711 -1 2 -1 #SUP: 2
22 -1 711 -1 77 -1 #SUP: 2
22 -1 755 -1 2 -1 #SUP: 2
22 -1 4524 -1 32 -1 #SUP: 2
22 -1 4524 -1 4598 -1 #SUP: 2
27 -1 123 -1 22 -1 #SUP: 2
27 -1 123 -1 170 -1 #SUP: 2
27 -1 123 -1 291 -1 #SUP: 2
27 -1 291 -1 22 -1 #SUP: 2
31 -1 77 -1 22 -1 #SUP: 2
31 -1 77 -1 123 -1 #SUP: 3
31 -1 222 -1 77 -1 #SUP: 2
32 -1 2 -1 22 -1 #SUP: 2
32 -1 2 -1 32 -1 #SUP: 2
32 -1 10 -1 32 -1 #SUP: 3
32 -1 22 -1 32 -1 #SUP: 3
32 -1 22 -1 76 -1 #SUP: 2
32 -1 22 -1 77 -1 #SUP: 2
32 -1 76 -1 77 -1 #SUP: 2
32 -1 77 -1 2 -1 #SUP: 4
32 -1 77 -1 22 -1 #SUP: 3
32 -1 77 -1 32 -1 #SUP: 3
32 -1 77 -1 599 -1 #SUP: 3
32 -1 309 -1 123 -1 #SUP: 2
33 -1 64 -1 32 -1 #SUP: 2
33 -1 154 -1 64 -1 #SUP: 2
41 -1 16 -1 1149 -1 #SUP: 2
41 -1 64 -1 711 -1 #SUP: 2
41 -1 65 -1 77 -1 #SUP: 2
41 -1 77 -1 183 -1 #SUP: 2
41 -1 160 -1 64 -1 #SUP: 2
41 -1 441 -1 77 -1 #SUP: 2
48 -1 64 -1 326 -1 #SUP: 2
48 -1 64 -1 1897 -1 #SUP: 2
48 -1 326 -1 1897 -1 #SUP: 2
48 -1 1436 -1 64 -1 #SUP: 2
48 -1 1436 -1 326 -1 #SUP: 2
48 -1 1436 -1 1897 -1 #SUP: 2
50 -1 77 -1 22 -1 #SUP: 2
64 -1 2 -1 50 -1 #SUP: 3
64 -1 2 -1 711 -1 #SUP: 2
64 -1 2 -1 2566 -1 #SUP: 2
64 -1 22 -1 2 -1 #SUP: 3
64 -1 22 -1 50 -1 #SUP: 2
64 -1 22 -1 65 -1 #SUP: 2
64 -1 64 -1 505 -1 #SUP: 2
64 -1 65 -1 32 -1 #SUP: 3
64 -1 65 -1 77 -1 #SUP: 2
64 -1 67 -1 123 -1 #SUP: 2
64 -1 77 -1 32 -1 #SUP: 2
64 -1 77 -1 123 -1 #SUP: 2
64 -1 123 -1 174 -1 #SUP: 2
64 -1 151 -1 153 -1 #SUP: 2
64 -1 160 -1 64 -1 #SUP: 3
64 -1 164 -1 65 -1 #SUP: 2
64 -1 167 -1 77 -1 #SUP: 2
64 -1 222 -1 10 -1 #SUP: 2
64 -1 326 -1 1897 -1 #SUP: 2
64 -1 711 -1 2 -1 #SUP: 2
64 -1 711 -1 77 -1 #SUP: 2
64 -1 871 -1 1314 -1 #SUP: 2
64 -1 871 -1 4305 -1 #SUP: 2
64 -1 1442 -1 505 -1 #SUP: 2
64 -1 1743 -1 46 -1 #SUP: 2
65 -1 2 -1 77 -1 #SUP: 2
65 -1 32 -1 33 -1 #SUP: 2
65 -1 32 -1 65 -1 #SUP: 2
65 -1 32 -1 381 -1 #SUP: 2
65 -1 77 -1 29 -1 #SUP: 2
65 -1 77 -1 65 -1 #SUP: 2
65 -1 77 -1 123 -1 #SUP: 3
65 -1 77 -1 364 -1 #SUP: 2
65 -1 77 -1 599 -1 #SUP: 2
65 -1 123 -1 120 -1 #SUP: 2
65 -1 123 -1 193 -1 #SUP: 2
66 -1 22 -1 77 -1 #SUP: 2
66 -1 711 -1 398 -1 #SUP: 2
70 -1 64 -1 65 -1 #SUP: 2
73 -1 123 -1 407 -1 #SUP: 2
73 -1 162 -1 123 -1 #SUP: 2
73 -1 162 -1 407 -1 #SUP: 2
77 -1 2 -1 2 -1 #SUP: 2
77 -1 2 -1 22 -1 #SUP: 2
77 -1 2 -1 32 -1 #SUP: 2
77 -1 2 -1 154 -1 #SUP: 2
77 -1 7 -1 22 -1 #SUP: 2
77 -1 10 -1 22 -1 #SUP: 2
77 -1 16 -1 65 -1 #SUP: 2
77 -1 22 -1 32 -1 #SUP: 2
77 -1 22 -1 64 -1 #SUP: 2
77 -1 41 -1 31 -1 #SUP: 2
77 -1 41 -1 64 -1 #SUP: 4
77 -1 64 -1 10 -1 #SUP: 2
77 -1 64 -1 64 -1 #SUP: 2
77 -1 64 -1 123 -1 #SUP: 2
77 -1 65 -1 123 -1 #SUP: 3
77 -1 70 -1 16 -1 #SUP: 2
77 -1 70 -1 64 -1 #SUP: 2
77 -1 77 -1 64 -1 #SUP: 3
77 -1 77 -1 77 -1 #SUP: 4
77 -1 77 -1 123 -1 #SUP: 4
77 -1 77 -1 171 -1 #SUP: 2
77 -1 77 -1 183 -1 #SUP: 2
77 -1 77 -1 286 -1 #SUP: 2
77 -1 120 -1 225 -1 #SUP: 2
77 -1 120 -1 356 -1 #SUP: 2
77 -1 120 -1 863 -1 #SUP: 2
77 -1 123 -1 2 -1 #SUP: 2
77 -1 123 -1 32 -1 #SUP: 3
77 -1 123 -1 41 -1 #SUP: 2
77 -1 123 -1 64 -1 #SUP: 4
77 -1 123 -1 65 -1 #SUP: 2
77 -1 123 -1 73 -1 #SUP: 2
77 -1 123 -1 77 -1 #SUP: 2
77 -1 123 -1 120 -1 #SUP: 3
77 -1 123 -1 123 -1 #SUP: 4
77 -1 123 -1 134 -1 #SUP: 2
77 -1 123 -1 167 -1 #SUP: 2
77 -1 123 -1 171 -1 #SUP: 2
77 -1 123 -1 193 -1 #SUP: 2
77 -1 123 -1 220 -1 #SUP: 3
77 -1 123 -1 225 -1 #SUP: 2
77 -1 123 -1 276 -1 #SUP: 3
77 -1 123 -1 286 -1 #SUP: 4
77 -1 123 -1 441 -1 #SUP: 2
77 -1 123 -1 529 -1 #SUP: 2
77 -1 123 -1 863 -1 #SUP: 2
77 -1 134 -1 349 -1 #SUP: 2
77 -1 154 -1 64 -1 #SUP: 2
77 -1 162 -1 123 -1 #SUP: 2
77 -1 171 -1 10 -1 #SUP: 2
77 -1 171 -1 22 -1 #SUP: 2
77 -1 183 -1 64 -1 #SUP: 2
77 -1 220 -1 73 -1 #SUP: 2
77 -1 220 -1 123 -1 #SUP: 2
77 -1 254 -1 2 -1 #SUP: 2
77 -1 254 -1 123 -1 #SUP: 3
77 -1 286 -1 32 -1 #SUP: 2
77 -1 286 -1 123 -1 #SUP: 2
77 -1 291 -1 2 -1 #SUP: 2
77 -1 356 -1 64 -1 #SUP: 2
77 -1 533 -1 77 -1 #SUP: 2
77 -1 533 -1 123 -1 #SUP: 2
77 -1 599 -1 22 -1 #SUP: 2
77 -1 599 -1 32 -1 #SUP: 2
77 -1 599 -1 65 -1 #SUP: 2
77 -1 599 -1 123 -1 #SUP: 4
77 -1 599 -1 254 -1 #SUP: 2
77 -1 599 -1 364 -1 #SUP: 2
77 -1 599 -1 452 -1 #SUP: 2
77 -1 863 -1 225 -1 #SUP: 2
77 -1 1039 -1 64 -1 #SUP: 2
77 -1 1084 -1 77 -1 #SUP: 2
77 -1 1165 -1 64 -1 #SUP: 2
77 -1 1165 -1 154 -1 #SUP: 2
78 -1 2 -1 65 -1 #SUP: 2
120 -1 77 -1 123 -1 #SUP: 2
120 -1 77 -1 254 -1 #SUP: 2
120 -1 77 -1 599 -1 #SUP: 2
120 -1 225 -1 1433 -1 #SUP: 2
120 -1 863 -1 225 -1 #SUP: 3
120 -1 863 -1 1433 -1 #SUP: 2
123 -1 2 -1 123 -1 #SUP: 2
123 -1 2 -1 193 -1 #SUP: 2
123 -1 2 -1 222 -1 #SUP: 2
123 -1 3 -1 164 -1 #SUP: 2
123 -1 16 -1 64 -1 #SUP: 2
123 -1 16 -1 505 -1 #SUP: 2
123 -1 22 -1 2 -1 #SUP: 2
123 -1 22 -1 32 -1 #SUP: 3
123 -1 22 -1 49 -1 #SUP: 2
123 -1 22 -1 64 -1 #SUP: 3
123 -1 22 -1 123 -1 #SUP: 3
123 -1 22 -1 134 -1 #SUP: 2
123 -1 32 -1 10 -1 #SUP: 2
123 -1 32 -1 77 -1 #SUP: 3
123 -1 32 -1 123 -1 #SUP: 3
123 -1 32 -1 158 -1 #SUP: 2
123 -1 32 -1 162 -1 #SUP: 2
123 -1 32 -1 309 -1 #SUP: 2
123 -1 41 -1 64 -1 #SUP: 2
123 -1 48 -1 77 -1 #SUP: 2
123 -1 64 -1 2 -1 #SUP: 2
123 -1 64 -1 22 -1 #SUP: 2
123 -1 64 -1 64 -1 #SUP: 5
123 -1 64 -1 65 -1 #SUP: 2
123 -1 64 -1 77 -1 #SUP: 2
123 -1 64 -1 160 -1 #SUP: 2
123 -1 64 -1 167 -1 #SUP: 2
123 -1 64 -1 441 -1 #SUP: 2
123 -1 64 -1 505 -1 #SUP: 3
123 -1 64 -1 1442 -1 #SUP: 2
123 -1 65 -1 77 -1 #SUP: 2
123 -1 65 -1 123 -1 #SUP: 2
123 -1 65 -1 1219 -1 #SUP: 2
123 -1 66 -1 22 -1 #SUP: 2
123 -1 66 -1 64 -1 #SUP: 2
123 -1 73 -1 10 -1 #SUP: 2
123 -1 73 -1 123 -1 #SUP: 2
123 -1 73 -1 162 -1 #SUP: 2
123 -1 73 -1 407 -1 #SUP: 2
123 -1 77 -1 2 -1 #SUP: 2
123 -1 77 -1 64 -1 #SUP: 2
123 -1 77 -1 123 -1 #SUP: 2
123 -1 77 -1 599 -1 #SUP: 2
123 -1 120 -1 77 -1 #SUP: 3
123 -1 120 -1 123 -1 #SUP: 2
123 -1 120 -1 225 -1 #SUP: 3
123 -1 120 -1 863 -1 #SUP: 3
123 -1 120 -1 1433 -1 #SUP: 2
123 -1 123 -1 2 -1 #SUP: 2
123 -1 123 -1 64 -1 #SUP: 2
123 -1 123 -1 77 -1 #SUP: 2
123 -1 123 -1 120 -1 #SUP: 2
123 -1 123 -1 154 -1 #SUP: 2
123 -1 123 -1 160 -1 #SUP: 2
123 -1 123 -1 262 -1 #SUP: 2
123 -1 123 -1 407 -1 #SUP: 3
123 -1 154 -1 222 -1 #SUP: 2
123 -1 158 -1 77 -1 #SUP: 2
123 -1 160 -1 64 -1 #SUP: 3
123 -1 160 -1 262 -1 #SUP: 2
123 -1 160 -1 505 -1 #SUP: 2
123 -1 162 -1 123 -1 #SUP: 3
123 -1 162 -1 407 -1 #SUP: 2
123 -1 164 -1 10 -1 #SUP: 2
123 -1 164 -1 50 -1 #SUP: 2
123 -1 171 -1 123 -1 #SUP: 2
123 -1 193 -1 32 -1 #SUP: 2
123 -1 193 -1 77 -1 #SUP: 2
123 -1 206 -1 2 -1 #SUP: 2
123 -1 206 -1 64 -1 #SUP: 2
123 -1 220 -1 10 -1 #SUP: 2
123 -1 220 -1 66 -1 #SUP: 2
123 -1 220 -1 73 -1 #SUP: 2
123 -1 220 -1 123 -1 #SUP: 2
123 -1 220 -1 162 -1 #SUP: 2
123 -1 225 -1 2 -1 #SUP: 2
123 -1 225 -1 16 -1 #SUP: 2
123 -1 225 -1 65 -1 #SUP: 2
123 -1 225 -1 77 -1 #SUP: 2
123 -1 225 -1 123 -1 #SUP: 2
123 -1 225 -1 1433 -1 #SUP: 2
123 -1 236 -1 123 -1 #SUP: 2
123 -1 286 -1 32 -1 #SUP: 2
123 -1 286 -1 64 -1 #SUP: 2
123 -1 286 -1 65 -1 #SUP: 2
123 -1 286 -1 123 -1 #SUP: 4
123 -1 286 -1 220 -1 #SUP: 2
123 -1 286 -1 291 -1 #SUP: 2
123 -1 291 -1 22 -1 #SUP: 2
123 -1 309 -1 123 -1 #SUP: 2
123 -1 309 -1 1470 -1 #SUP: 2
123 -1 340 -1 123 -1 #SUP: 2
123 -1 407 -1 3 -1 #SUP: 2
123 -1 407 -1 50 -1 #SUP: 2
123 -1 407 -1 66 -1 #SUP: 2
123 -1 407 -1 164 -1 #SUP: 2
123 -1 441 -1 22 -1 #SUP: 2
123 -1 441 -1 64 -1 #SUP: 3
123 -1 441 -1 77 -1 #SUP: 2
123 -1 517 -1 77 -1 #SUP: 2
123 -1 863 -1 225 -1 #SUP: 3
123 -1 863 -1 1433 -1 #SUP: 2
123 -1 1034 -1 154 -1 #SUP: 2
123 -1 1034 -1 193 -1 #SUP: 2
123 -1 1442 -1 505 -1 #SUP: 2
123 -1 1913 -1 64 -1 #SUP: 2
123 -1 1913 -1 225 -1 #SUP: 2
152 -1 77 -1 599 -1 #SUP: 2
152 -1 152 -1 152 -1 #SUP: 2
154 -1 32 -1 33 -1 #SUP: 2
154 -1 41 -1 64 -1 #SUP: 2
154 -1 64 -1 33 -1 #SUP: 2
154 -1 64 -1 65 -1 #SUP: 2
154 -1 65 -1 32 -1 #SUP: 2
154 -1 65 -1 33 -1 #SUP: 2
154 -1 548 -1 222 -1 #SUP: 2
154 -1 3711 -1 64 -1 #SUP: 2
158 -1 77 -1 599 -1 #SUP: 2
160 -1 64 -1 65 -1 #SUP: 2
160 -1 64 -1 77 -1 #SUP: 2
160 -1 64 -1 151 -1 #SUP: 2
160 -1 64 -1 364 -1 #SUP: 2
160 -1 64 -1 505 -1 #SUP: 2
160 -1 64 -1 711 -1 #SUP: 2
160 -1 262 -1 262 -1 #SUP: 2
162 -1 123 -1 2 -1 #SUP: 2
162 -1 123 -1 66 -1 #SUP: 2
162 -1 123 -1 407 -1 #SUP: 3
162 -1 407 -1 66 -1 #SUP: 2
164 -1 50 -1 123 -1 #SUP: 2
164 -1 77 -1 599 -1 #SUP: 3
164 -1 599 -1 123 -1 #SUP: 2
171 -1 10 -1 22 -1 #SUP: 2
175 -1 16 -1 65 -1 #SUP: 2
175 -1 77 -1 16 -1 #SUP: 2
175 -1 77 -1 65 -1 #SUP: 2
193 -1 64 -1 123 -1 #SUP: 2
193 -1 64 -1 174 -1 #SUP: 2
193 -1 64 -1 222 -1 #SUP: 2
193 -1 77 -1 22 -1 #SUP: 2
193 -1 77 -1 154 -1 #SUP: 2
193 -1 123 -1 174 -1 #SUP: 2
193 -1 154 -1 41 -1 #SUP: 2
193 -1 222 -1 123 -1 #SUP: 2
193 -1 1165 -1 41 -1 #SUP: 2
193 -1 1165 -1 154 -1 #SUP: 2
202 -1 65 -1 3069 -1 #SUP: 2
220 -1 73 -1 22 -1 #SUP: 2
222 -1 77 -1 2 -1 #SUP: 2
222 -1 77 -1 22 -1 #SUP: 2
222 -1 77 -1 599 -1 #SUP: 2
225 -1 16 -1 64 -1 #SUP: 2
225 -1 77 -1 123 -1 #SUP: 3
225 -1 77 -1 276 -1 #SUP: 2
236 -1 41 -1 64 -1 #SUP: 2
236 -1 41 -1 65 -1 #SUP: 2
236 -1 41 -1 77 -1 #SUP: 3
236 -1 41 -1 160 -1 #SUP: 2
236 -1 41 -1 222 -1 #SUP: 2
236 -1 65 -1 77 -1 #SUP: 2
236 -1 123 -1 65 -1 #SUP: 2
236 -1 160 -1 64 -1 #SUP: 2
254 -1 123 -1 64 -1 #SUP: 2
254 -1 123 -1 120 -1 #SUP: 3
254 -1 123 -1 123 -1 #SUP: 3
254 -1 123 -1 152 -1 #SUP: 2
256 -1 32 -1 77 -1 #SUP: 2
256 -1 77 -1 77 -1 #SUP: 2
286 -1 32 -1 123 -1 #SUP: 2
291 -1 2 -1 274 -1 #SUP: 2
291 -1 22 -1 64 -1 #SUP: 2
291 -1 318 -1 77 -1 #SUP: 2
291 -1 318 -1 1084 -1 #SUP: 2
291 -1 1084 -1 77 -1 #SUP: 2
291 -1 2193 -1 1084 -1 #SUP: 2
309 -1 1470 -1 123 -1 #SUP: 2
318 -1 1084 -1 77 -1 #SUP: 2
326 -1 2 -1 123 -1 #SUP: 2
326 -1 48 -1 77 -1 #SUP: 2
326 -1 78 -1 123 -1 #SUP: 2
349 -1 67 -1 31 -1 #SUP: 2
356 -1 31 -1 77 -1 #SUP: 2
356 -1 77 -1 77 -1 #SUP: 2
364 -1 32 -1 77 -1 #SUP: 2
364 -1 65 -1 77 -1 #SUP: 2
364 -1 77 -1 599 -1 #SUP: 2
364 -1 123 -1 711 -1 #SUP: 2
364 -1 326 -1 48 -1 #SUP: 2
364 -1 711 -1 193 -1 #SUP: 2
407 -1 3 -1 164 -1 #SUP: 2
517 -1 64 -1 29 -1 #SUP: 2
533 -1 77 -1 123 -1 #SUP: 2
544 -1 10 -1 2 -1 #SUP: 3
544 -1 64 -1 2 -1 #SUP: 2
599 -1 123 -1 77 -1 #SUP: 2
599 -1 123 -1 236 -1 #SUP: 2
599 -1 123 -1 364 -1 #SUP: 2
599 -1 256 -1 77 -1 #SUP: 2
613 -1 77 -1 599 -1 #SUP: 2
711 -1 77 -1 2 -1 #SUP: 3
711 -1 193 -1 193 -1 #SUP: 2
711 -1 398 -1 77 -1 #SUP: 2
711 -1 1758 -1 77 -1 #SUP: 2
863 -1 225 -1 1433 -1 #SUP: 2
871 -1 77 -1 77 -1 #SUP: 2
871 -1 77 -1 123 -1 #SUP: 2
871 -1 1314 -1 77 -1 #SUP: 2
871 -1 4305 -1 77 -1 #SUP: 2
894 -1 77 -1 10 -1 #SUP: 2
1165 -1 41 -1 77 -1 #SUP: 2
1165 -1 77 -1 154 -1 #SUP: 2
1165 -1 154 -1 41 -1 #SUP: 2
1165 -1 154 -1 64 -1 #SUP: 2
1209 -1 5048 -1 77 -1 #SUP: 2
1433 -1 318 -1 1165 -1 #SUP: 2
1433 -1 1165 -1 154 -1 #SUP: 2
1436 -1 64 -1 326 -1 #SUP: 2
1436 -1 64 -1 1897 -1 #SUP: 2
1436 -1 326 -1 1897 -1 #SUP: 2
2874 -1 123 -1 286 -1 #SUP: 2
2910 -1 2 -1 274 -1 #SUP: 2
2910 -1 291 -1 2 -1 #SUP: 2
2910 -1 291 -1 77 -1 #SUP: 2
2910 -1 291 -1 274 -1 #SUP: 2
2910 -1 291 -1 318 -1 #SUP: 2
2910 -1 291 -1 1084 -1 #SUP: 2
2910 -1 291 -1 2193 -1 #SUP: 2
2910 -1 318 -1 77 -1 #SUP: 2
2910 -1 318 -1 1084 -1 #SUP: 2
2910 -1 1084 -1 77 -1 #SUP: 2
2910 -1 2193 -1 1084 -1 #SUP: 2
4157 -1 193 -1 78 -1 #SUP: 2
4524 -1 22 -1 222 -1 #SUP: 2
4524 -1 32 -1 4598 -1 #SUP: 2
6603 -1 193 -1 64 -1 #SUP: 2
2 -1 193 -1 222 -1 123 -1 #SUP: 2
2 -1 517 -1 64 -1 29 -1 #SUP: 2
10 -1 22 -1 77 -1 599 -1 #SUP: 2
10 -1 22 -1 222 -1 77 -1 #SUP: 2
10 -1 32 -1 77 -1 2 -1 #SUP: 2
22 -1 32 -1 10 -1 32 -1 #SUP: 2
22 -1 77 -1 254 -1 123 -1 #SUP: 2
22 -1 77 -1 599 -1 123 -1 #SUP: 2
22 -1 222 -1 77 -1 2 -1 #SUP: 2
22 -1 4524 -1 32 -1 4598 -1 #SUP: 2
27 -1 123 -1 291 -1 22 -1 #SUP: 2
32 -1 2 -1 22 -1 32 -1 #SUP: 2
32 -1 22 -1 76 -1 77 -1 #SUP: 2
32 -1 77 -1 2 -1 22 -1 #SUP: 2
32 -1 77 -1 2 -1 32 -1 #SUP: 2
32 -1 77 -1 22 -1 32 -1 #SUP: 2
48 -1 64 -1 326 -1 1897 -1 #SUP: 2
48 -1 1436 -1 64 -1 326 -1 #SUP: 2
48 -1 1436 -1 64 -1 1897 -1 #SUP: 2
48 -1 1436 -1 326 -1 1897 -1 #SUP: 2
64 -1 22 -1 2 -1 50 -1 #SUP: 2
73 -1 162 -1 123 -1 407 -1 #SUP: 2
77 -1 2 -1 22 -1 32 -1 #SUP: 2
77 -1 77 -1 123 -1 171 -1 #SUP: 2
77 -1 120 -1 863 -1 225 -1 #SUP: 2
77 -1 123 -1 120 -1 225 -1 #SUP: 2
77 -1 123 -1 120 -1 863 -1 #SUP: 2
77 -1 123 -1 220 -1 73 -1 #SUP: 2
77 -1 123 -1 220 -1 123 -1 #SUP: 2
77 -1 123 -1 286 -1 32 -1 #SUP: 2
77 -1 123 -1 286 -1 123 -1 #SUP: 2
77 -1 123 -1 863 -1 225 -1 #SUP: 2
77 -1 171 -1 10 -1 22 -1 #SUP: 2
77 -1 533 -1 77 -1 123 -1 #SUP: 2
77 -1 1165 -1 154 -1 64 -1 #SUP: 2
120 -1 863 -1 225 -1 1433 -1 #SUP: 2
123 -1 32 -1 309 -1 123 -1 #SUP: 2
123 -1 64 -1 22 -1 2 -1 #SUP: 2
123 -1 64 -1 160 -1 64 -1 #SUP: 2
123 -1 64 -1 1442 -1 505 -1 #SUP: 2
123 -1 73 -1 123 -1 407 -1 #SUP: 2
123 -1 73 -1 162 -1 123 -1 #SUP: 2
123 -1 73 -1 162 -1 407 -1 #SUP: 2
123 -1 120 -1 225 -1 1433 -1 #SUP: 2
123 -1 120 -1 863 -1 225 -1 #SUP: 3
123 -1 120 -1 863 -1 1433 -1 #SUP: 2
123 -1 123 -1 160 -1 262 -1 #SUP: 2
123 -1 160 -1 64 -1 505 -1 #SUP: 2
123 -1 162 -1 123 -1 407 -1 #SUP: 2
123 -1 225 -1 77 -1 123 -1 #SUP: 2
123 -1 286 -1 32 -1 123 -1 #SUP: 2
123 -1 407 -1 3 -1 164 -1 #SUP: 2
123 -1 863 -1 225 -1 1433 -1 #SUP: 2
154 -1 65 -1 32 -1 33 -1 #SUP: 2
162 -1 123 -1 407 -1 66 -1 #SUP: 2
175 -1 77 -1 16 -1 65 -1 #SUP: 2
193 -1 64 -1 123 -1 174 -1 #SUP: 2
193 -1 1165 -1 154 -1 41 -1 #SUP: 2
236 -1 41 -1 65 -1 77 -1 #SUP: 2
236 -1 41 -1 160 -1 64 -1 #SUP: 2
291 -1 318 -1 1084 -1 77 -1 #SUP: 2
1436 -1 64 -1 326 -1 1897 -1 #SUP: 2
2910 -1 291 -1 2 -1 274 -1 #SUP: 2
2910 -1 291 -1 318 -1 77 -1 #SUP: 2
2910 -1 291 -1 318 -1 1084 -1 #SUP: 2
2910 -1 291 -1 1084 -1 77 -1 #SUP: 2
2910 -1 291 -1 2193 -1 1084 -1 #SUP: 2
2910 -1 318 -1 1084 -1 77 -1 #SUP: 2
32 -1 77 -1 2 -1 22 -1 32 -1 #SUP: 2
48 -1 1436 -1 64 -1 326 -1 1897 -1 #SUP: 2
77 -1 123 -1 120 -1 863 -1 225 -1 #SUP: 2
123 -1 73 -1 162 -1 123 -1 407 -1 #SUP: 2
123 -1 120 -1 863 -1 225 -1 1433 -1 #SUP: 2
2910 -1 291 -1 318 -1 1084 -1 77 -1 #SUP: 2
