2 -1 #SUP: 28
3 -1 #SUP: 4
7 -1 #SUP: 2
8 -1 #SUP: 4
10 -1 #SUP: 18
11 -1 #SUP: 4
13 -1 #SUP: 4
15 -1 #SUP: 6
16 -1 #SUP: 12
22 -1 #SUP: 33
27 -1 #SUP: 6
29 -1 #SUP: 8
30 -1 #SUP: 2
31 -1 #SUP: 7
32 -1 #SUP: 24
33 -1 #SUP: 8
39 -1 #SUP: 2
41 -1 #SUP: 25
45 -1 #SUP: 2
46 -1 #SUP: 2
50 -1 #SUP: 10
64 -1 #SUP: 36
65 -1 #SUP: 30
66 -1 #SUP: 9
67 -1 #SUP: 11
70 -1 #SUP: 13
73 -1 #SUP: 2
76 -1 #SUP: 5
77 -1 #SUP: 49
91 -1 #SUP: 2
117 -1 #SUP: 8
120 -1 #SUP: 10
123 -1 #SUP: 68
127 -1 #SUP: 2
132 -1 #SUP: 2
134 -1 #SUP: 3
138 -1 #SUP: 2
140 -1 #SUP: 2
144 -1 #SUP: 13
151 -1 #SUP: 2
152 -1 #SUP: 2
153 -1 #SUP: 2
154 -1 #SUP: 15
156 -1 #SUP: 4
158 -1 #SUP: 4
162 -1 #SUP: 5
164 -1 #SUP: 8
165 -1 #SUP: 17
168 -1 #SUP: 3
170 -1 #SUP: 18
171 -1 #SUP: 4
174 -1 #SUP: 3
183 -1 #SUP: 9
193 -1 #SUP: 26
196 -1 #SUP: 2
197 -1 #SUP: 2
198 -1 #SUP: 6
199 -1 #SUP: 3
200 -1 #SUP: 2
201 -1 #SUP: 3
202 -1 #SUP: 3
205 -1 #SUP: 3
206 -1 #SUP: 9
212 -1 #SUP: 2
213 -1 #SUP: 2
220 -1 #SUP: 4
222 -1 #SUP: 12
223 -1 #SUP: 5
225 -1 #SUP: 5
226 -1 #SUP: 2
233 -1 #SUP: 3
236 -1 #SUP: 9
238 -1 #SUP: 2
241 -1 #SUP: 2
248 -1 #SUP: 7
254 -1 #SUP: 9
256 -1 #SUP: 3
259 -1 #SUP: 2
260 -1 #SUP: 7
262 -1 #SUP: 9
268 -1 #SUP: 3
276 -1 #SUP: 3
280 -1 #SUP: 4
284 -1 #SUP: 3
285 -1 #SUP: 3
286 -1 #SUP: 9
291 -1 #SUP: 3
292 -1 #SUP: 2
308 -1 #SUP: 2
326 -1 #SUP: 11
334 -1 #SUP: 2
340 -1 #SUP: 3
349 -1 #SUP: 10
356 -1 #SUP: 8
364 -1 #SUP: 5
369 -1 #SUP: 2
381 -1 #SUP: 5
384 -1 #SUP: 5
393 -1 #SUP: 2
398 -1 #SUP: 2
411 -1 #SUP: 2
417 -1 #SUP: 8
427 -1 #SUP: 2
431 -1 #SUP: 2
441 -1 #SUP: 10
443 -1 #SUP: 2
445 -1 #SUP: 2
452 -1 #SUP: 6
477 -1 #SUP: 2
499 -1 #SUP: 2
505 -1 #SUP: 3
517 -1 #SUP: 5
519 -1 #SUP: 2
520 -1 #SUP: 8
529 -1 #SUP: 3
548 -1 #SUP: 3
564 -1 #SUP: 2
567 -1 #SUP: 7
596 -1 #SUP: 3
599 -1 #SUP: 12
603 -1 #SUP: 3
630 -1 #SUP: 4
638 -1 #SUP: 3
648 -1 #SUP: 2
651 -1 #SUP: 2
654 -1 #SUP: 2
664 -1 #SUP: 2
668 -1 #SUP: 2
671 -1 #SUP: 2
672 -1 #SUP: 2
694 -1 #SUP: 2
710 -1 #SUP: 2
711 -1 #SUP: 3
749 -1 #SUP: 2
756 -1 #SUP: 2
765 -1 #SUP: 6
778 -1 #SUP: 4
781 -1 #SUP: 3
786 -1 #SUP: 3
805 -1 #SUP: 2
850 -1 #SUP: 3
871 -1 #SUP: 3
879 -1 #SUP: 2
890 -1 #SUP: 2
951 -1 #SUP: 2
972 -1 #SUP: 2
989 -1 #SUP: 2
1027 -1 #SUP: 2
1082 -1 #SUP: 3
1105 -1 #SUP: 2
1127 -1 #SUP: 2
1163 -1 #SUP: 3
1193 -1 #SUP: 3
1210 -1 #SUP: 2
1211 -1 #SUP: 4
1216 -1 #SUP: 2
1219 -1 #SUP: 2
1224 -1 #SUP: 2
1306 -1 #SUP: 2
1314 -1 #SUP: 2
1322 -1 #SUP: 2
1436 -1 #SUP: 3
1475 -1 #SUP: 3
1489 -1 #SUP: 2
1608 -1 #SUP: 2
1610 -1 #SUP: 2
1700 -1 #SUP: 3
1876 -1 #SUP: 2
2256 -1 #SUP: 2
2310 -1 #SUP: 2
2560 -1 #SUP: 2
2884 -1 #SUP: 2
3053 -1 #SUP: 3
3176 -1 #SUP: 2
3180 -1 #SUP: 3
3641 -1 #SUP: 2
3777 -1 #SUP: 2
4955 -1 #SUP: 2
6548 -1 #SUP: 4
20302 -1 #SUP: 5
20304 -1 #SUP: 5
41366 -1 #SUP: 2
2 -1 10 -1 #SUP: 2
2 -1 13 -1 #SUP: 2
2 -1 22 -1 #SUP: 7
2 -1 31 -1 #SUP: 2
2 -1 32 -1 #SUP: 5
2 -1 41 -1 #SUP: 4
2 -1 64 -1 #SUP: 4
2 -1 65 -1 #SUP: 2
2 -1 67 -1 #SUP: 3
2 -1 77 -1 #SUP: 3
2 -1 123 -1 #SUP: 4
2 -1 134 -1 #SUP: 2
2 -1 144 -1 #SUP: 2
2 -1 154 -1 #SUP: 2
2 -1 165 -1 #SUP: 6
2 -1 170 -1 #SUP: 2
2 -1 183 -1 #SUP: 2
2 -1 193 -1 #SUP: 3
2 -1 202 -1 #SUP: 2
2 -1 356 -1 #SUP: 3
2 -1 567 -1 #SUP: 4
2 -1 1475 -1 #SUP: 2
2 -1 1608 -1 #SUP: 2
3 -1 32 -1 #SUP: 2
3 -1 123 -1 #SUP: 2
3 -1 349 -1 #SUP: 2
8 -1 77 -1 #SUP: 2
8 -1 1876 -1 #SUP: 2
10 -1 2 -1 #SUP: 2
10 -1 22 -1 #SUP: 4
10 -1 29 -1 #SUP: 2
10 -1 32 -1 #SUP: 3
10 -1 50 -1 #SUP: 2
10 -1 64 -1 #SUP: 3
10 -1 65 -1 #SUP: 6
10 -1 77 -1 #SUP: 4
10 -1 262 -1 #SUP: 2
10 -1 417 -1 #SUP: 3
10 -1 805 -1 #SUP: 2
10 -1 1700 -1 #SUP: 2
10 -1 20302 -1 #SUP: 2
10 -1 20304 -1 #SUP: 2
11 -1 162 -1 #SUP: 2
11 -1 262 -1 #SUP: 2
15 -1 10 -1 #SUP: 4
15 -1 77 -1 #SUP: 2
15 -1 170 -1 #SUP: 2
16 -1 65 -1 #SUP: 3
16 -1 66 -1 #SUP: 2
16 -1 67 -1 #SUP: 3
16 -1 77 -1 #SUP: 3
16 -1 117 -1 #SUP: 2
16 -1 193 -1 #SUP: 2
16 -1 452 -1 #SUP: 2
22 -1 10 -1 #SUP: 2
22 -1 15 -1 #SUP: 2
22 -1 32 -1 #SUP: 6
22 -1 41 -1 #SUP: 2
22 -1 64 -1 #SUP: 3
22 -1 66 -1 #SUP: 2
22 -1 67 -1 #SUP: 3
22 -1 77 -1 #SUP: 2
22 -1 117 -1 #SUP: 2
22 -1 123 -1 #SUP: 3
22 -1 132 -1 #SUP: 2
22 -1 154 -1 #SUP: 2
22 -1 165 -1 #SUP: 3
22 -1 170 -1 #SUP: 5
22 -1 171 -1 #SUP: 2
22 -1 183 -1 #SUP: 4
22 -1 199 -1 #SUP: 2
22 -1 206 -1 #SUP: 3
22 -1 222 -1 #SUP: 2
22 -1 356 -1 #SUP: 2
22 -1 630 -1 #SUP: 2
22 -1 20302 -1 #SUP: 3
22 -1 20304 -1 #SUP: 3
27 -1 41 -1 #SUP: 2
27 -1 381 -1 #SUP: 2
27 -1 630 -1 #SUP: 2
29 -1 2 -1 #SUP: 3
29 -1 77 -1 #SUP: 2
29 -1 123 -1 #SUP: 2
29 -1 193 -1 #SUP: 2
29 -1 520 -1 #SUP: 3
29 -1 972 -1 #SUP: 2
30 -1 10 -1 #SUP: 2
30 -1 29 -1 #SUP: 2
30 -1 786 -1 #SUP: 2
31 -1 222 -1 #SUP: 2
31 -1 381 -1 #SUP: 2
32 -1 2 -1 #SUP: 5
32 -1 10 -1 #SUP: 2
32 -1 16 -1 #SUP: 2
32 -1 22 -1 #SUP: 3
32 -1 31 -1 #SUP: 2
32 -1 76 -1 #SUP: 2
32 -1 77 -1 #SUP: 4
32 -1 123 -1 #SUP: 4
32 -1 134 -1 #SUP: 2
32 -1 144 -1 #SUP: 2
32 -1 154 -1 #SUP: 4
32 -1 170 -1 #SUP: 3
32 -1 183 -1 #SUP: 2
32 -1 222 -1 #SUP: 2
32 -1 356 -1 #SUP: 2
32 -1 20302 -1 #SUP: 2
32 -1 20304 -1 #SUP: 2
33 -1 50 -1 #SUP: 2
33 -1 65 -1 #SUP: 3
41 -1 2 -1 #SUP: 2
41 -1 10 -1 #SUP: 6
41 -1 11 -1 #SUP: 3
41 -1 32 -1 #SUP: 2
41 -1 41 -1 #SUP: 3
41 -1 64 -1 #SUP: 2
41 -1 65 -1 #SUP: 4
41 -1 77 -1 #SUP: 6
41 -1 123 -1 #SUP: 3
41 -1 144 -1 #SUP: 3
41 -1 154 -1 #SUP: 2
41 -1 162 -1 #SUP: 3
41 -1 193 -1 #SUP: 2
41 -1 248 -1 #SUP: 2
41 -1 254 -1 #SUP: 3
41 -1 262 -1 #SUP: 2
41 -1 276 -1 #SUP: 2
41 -1 284 -1 #SUP: 2
41 -1 326 -1 #SUP: 2
41 -1 340 -1 #SUP: 2
41 -1 630 -1 #SUP: 2
41 -1 951 -1 #SUP: 2
50 -1 32 -1 #SUP: 2
50 -1 77 -1 #SUP: 3
50 -1 222 -1 #SUP: 2
50 -1 349 -1 #SUP: 2
50 -1 805 -1 #SUP: 2
64 -1 2 -1 #SUP: 4
64 -1 10 -1 #SUP: 3
64 -1 22 -1 #SUP: 3
64 -1 33 -1 #SUP: 2
64 -1 41 -1 #SUP: 2
64 -1 50 -1 #SUP: 2
64 -1 64 -1 #SUP: 6
64 -1 65 -1 #SUP: 7
64 -1 67 -1 #SUP: 3
64 -1 77 -1 #SUP: 4
64 -1 123 -1 #SUP: 6
64 -1 144 -1 #SUP: 2
64 -1 164 -1 #SUP: 2
64 -1 165 -1 #SUP: 4
64 -1 193 -1 #SUP: 4
64 -1 222 -1 #SUP: 3
64 -1 254 -1 #SUP: 2
64 -1 417 -1 #SUP: 2
64 -1 499 -1 #SUP: 2
64 -1 517 -1 #SUP: 2
64 -1 765 -1 #SUP: 3
64 -1 781 -1 #SUP: 2
64 -1 1224 -1 #SUP: 2
64 -1 1700 -1 #SUP: 2
64 -1 3777 -1 #SUP: 2
65 -1 2 -1 #SUP: 6
65 -1 22 -1 #SUP: 4
65 -1 32 -1 #SUP: 8
65 -1 33 -1 #SUP: 2
65 -1 46 -1 #SUP: 2
65 -1 64 -1 #SUP: 6
65 -1 65 -1 #SUP: 3
65 -1 77 -1 #SUP: 7
65 -1 123 -1 #SUP: 4
65 -1 134 -1 #SUP: 3
65 -1 154 -1 #SUP: 2
65 -1 170 -1 #SUP: 3
65 -1 198 -1 #SUP: 2
65 -1 260 -1 #SUP: 2
65 -1 417 -1 #SUP: 4
65 -1 603 -1 #SUP: 2
65 -1 1700 -1 #SUP: 2
65 -1 4955 -1 #SUP: 2
66 -1 77 -1 #SUP: 2
66 -1 165 -1 #SUP: 2
66 -1 349 -1 #SUP: 2
66 -1 441 -1 #SUP: 3
67 -1 2 -1 #SUP: 2
67 -1 64 -1 #SUP: 2
67 -1 65 -1 #SUP: 3
67 -1 77 -1 #SUP: 3
67 -1 117 -1 #SUP: 2
67 -1 6548 -1 #SUP: 2
70 -1 2 -1 #SUP: 2
70 -1 10 -1 #SUP: 2
70 -1 16 -1 #SUP: 2
70 -1 22 -1 #SUP: 3
70 -1 50 -1 #SUP: 2
70 -1 64 -1 #SUP: 5
70 -1 65 -1 #SUP: 3
70 -1 77 -1 #SUP: 2
70 -1 123 -1 #SUP: 2
70 -1 193 -1 #SUP: 2
70 -1 254 -1 #SUP: 2
70 -1 529 -1 #SUP: 2
70 -1 871 -1 #SUP: 2
70 -1 1082 -1 #SUP: 2
76 -1 2 -1 #SUP: 3
76 -1 193 -1 #SUP: 2
76 -1 1608 -1 #SUP: 2
77 -1 2 -1 #SUP: 7
77 -1 10 -1 #SUP: 3
77 -1 16 -1 #SUP: 5
77 -1 22 -1 #SUP: 6
77 -1 32 -1 #SUP: 5
77 -1 33 -1 #SUP: 2
77 -1 41 -1 #SUP: 3
77 -1 50 -1 #SUP: 4
77 -1 64 -1 #SUP: 9
77 -1 65 -1 #SUP: 5
77 -1 66 -1 #SUP: 2
77 -1 67 -1 #SUP: 2
77 -1 76 -1 #SUP: 2
77 -1 77 -1 #SUP: 2
77 -1 123 -1 #SUP: 16
77 -1 144 -1 #SUP: 4
77 -1 156 -1 #SUP: 2
77 -1 164 -1 #SUP: 4
77 -1 165 -1 #SUP: 4
77 -1 170 -1 #SUP: 5
77 -1 183 -1 #SUP: 3
77 -1 193 -1 #SUP: 11
77 -1 206 -1 #SUP: 3
77 -1 220 -1 #SUP: 2
77 -1 222 -1 #SUP: 3
77 -1 225 -1 #SUP: 3
77 -1 254 -1 #SUP: 2
77 -1 260 -1 #SUP: 3
77 -1 286 -1 #SUP: 2
77 -1 326 -1 #SUP: 3
77 -1 349 -1 #SUP: 2
77 -1 356 -1 #SUP: 3
77 -1 364 -1 #SUP: 2
77 -1 384 -1 #SUP: 2
77 -1 417 -1 #SUP: 2
77 -1 441 -1 #SUP: 3
77 -1 452 -1 #SUP: 2
77 -1 517 -1 #SUP: 2
77 -1 520 -1 #SUP: 2
77 -1 567 -1 #SUP: 2
77 -1 599 -1 #SUP: 4
77 -1 603 -1 #SUP: 2
77 -1 710 -1 #SUP: 2
77 -1 765 -1 #SUP: 2
77 -1 850 -1 #SUP: 2
77 -1 1211 -1 #SUP: 2
77 -1 20302 -1 #SUP: 2
77 -1 20304 -1 #SUP: 2
117 -1 66 -1 #SUP: 4
120 -1 22 -1 #SUP: 2
120 -1 41 -1 #SUP: 2
120 -1 64 -1 #SUP: 2
120 -1 65 -1 #SUP: 4
120 -1 70 -1 #SUP: 2
120 -1 77 -1 #SUP: 3
120 -1 152 -1 #SUP: 2
120 -1 170 -1 #SUP: 2
120 -1 193 -1 #SUP: 2
120 -1 236 -1 #SUP: 2
120 -1 254 -1 #SUP: 2
120 -1 286 -1 #SUP: 3
123 -1 2 -1 #SUP: 4
123 -1 10 -1 #SUP: 3
123 -1 16 -1 #SUP: 4
123 -1 22 -1 #SUP: 9
123 -1 27 -1 #SUP: 3
123 -1 29 -1 #SUP: 2
123 -1 31 -1 #SUP: 4
123 -1 32 -1 #SUP: 8
123 -1 33 -1 #SUP: 2
123 -1 41 -1 #SUP: 2
123 -1 50 -1 #SUP: 2
123 -1 64 -1 #SUP: 13
123 -1 65 -1 #SUP: 11
123 -1 66 -1 #SUP: 3
123 -1 67 -1 #SUP: 3
123 -1 70 -1 #SUP: 2
123 -1 76 -1 #SUP: 3
123 -1 77 -1 #SUP: 10
123 -1 120 -1 #SUP: 7
123 -1 123 -1 #SUP: 11
123 -1 127 -1 #SUP: 2
123 -1 138 -1 #SUP: 2
123 -1 144 -1 #SUP: 5
123 -1 154 -1 #SUP: 6
123 -1 164 -1 #SUP: 4
123 -1 165 -1 #SUP: 13
123 -1 170 -1 #SUP: 4
123 -1 174 -1 #SUP: 3
123 -1 193 -1 #SUP: 12
123 -1 205 -1 #SUP: 2
123 -1 206 -1 #SUP: 5
123 -1 220 -1 #SUP: 3
123 -1 222 -1 #SUP: 2
123 -1 236 -1 #SUP: 2
123 -1 254 -1 #SUP: 2
123 -1 260 -1 #SUP: 5
123 -1 262 -1 #SUP: 3
123 -1 286 -1 #SUP: 9
123 -1 326 -1 #SUP: 2
123 -1 356 -1 #SUP: 2
123 -1 381 -1 #SUP: 2
123 -1 384 -1 #SUP: 3
123 -1 411 -1 #SUP: 2
123 -1 441 -1 #SUP: 6
123 -1 499 -1 #SUP: 2
123 -1 505 -1 #SUP: 2
123 -1 517 -1 #SUP: 3
123 -1 520 -1 #SUP: 2
123 -1 596 -1 #SUP: 2
123 -1 599 -1 #SUP: 3
123 -1 603 -1 #SUP: 2
123 -1 630 -1 #SUP: 2
123 -1 638 -1 #SUP: 2
123 -1 654 -1 #SUP: 2
123 -1 756 -1 #SUP: 2
123 -1 765 -1 #SUP: 5
123 -1 778 -1 #SUP: 4
123 -1 1193 -1 #SUP: 3
123 -1 1219 -1 #SUP: 2
123 -1 1436 -1 #SUP: 2
123 -1 1608 -1 #SUP: 2
123 -1 3641 -1 #SUP: 2
134 -1 77 -1 #SUP: 2
144 -1 22 -1 #SUP: 2
144 -1 41 -1 #SUP: 2
144 -1 64 -1 #SUP: 2
144 -1 77 -1 #SUP: 2
144 -1 123 -1 #SUP: 3
144 -1 144 -1 #SUP: 2
144 -1 154 -1 #SUP: 3
144 -1 596 -1 #SUP: 2
154 -1 10 -1 #SUP: 2
154 -1 22 -1 #SUP: 2
154 -1 64 -1 #SUP: 3
154 -1 77 -1 #SUP: 2
154 -1 222 -1 #SUP: 2
154 -1 417 -1 #SUP: 2
154 -1 520 -1 #SUP: 2
156 -1 64 -1 #SUP: 2
162 -1 123 -1 #SUP: 2
162 -1 262 -1 #SUP: 2
164 -1 65 -1 #SUP: 2
164 -1 77 -1 #SUP: 2
165 -1 10 -1 #SUP: 2
165 -1 22 -1 #SUP: 2
165 -1 32 -1 #SUP: 2
165 -1 64 -1 #SUP: 6
165 -1 67 -1 #SUP: 6
165 -1 164 -1 #SUP: 2
165 -1 193 -1 #SUP: 2
165 -1 222 -1 #SUP: 2
165 -1 411 -1 #SUP: 2
165 -1 441 -1 #SUP: 2
165 -1 765 -1 #SUP: 2
170 -1 10 -1 #SUP: 2
170 -1 15 -1 #SUP: 2
170 -1 22 -1 #SUP: 2
170 -1 32 -1 #SUP: 2
170 -1 33 -1 #SUP: 2
170 -1 64 -1 #SUP: 3
170 -1 65 -1 #SUP: 2
170 -1 77 -1 #SUP: 3
170 -1 134 -1 #SUP: 2
170 -1 170 -1 #SUP: 2
170 -1 171 -1 #SUP: 3
171 -1 32 -1 #SUP: 2
171 -1 77 -1 #SUP: 2
183 -1 2 -1 #SUP: 3
183 -1 31 -1 #SUP: 2
193 -1 2 -1 #SUP: 3
193 -1 10 -1 #SUP: 4
193 -1 16 -1 #SUP: 3
193 -1 22 -1 #SUP: 6
193 -1 64 -1 #SUP: 4
193 -1 65 -1 #SUP: 4
193 -1 67 -1 #SUP: 4
193 -1 77 -1 #SUP: 5
193 -1 154 -1 #SUP: 4
193 -1 165 -1 #SUP: 3
193 -1 198 -1 #SUP: 2
193 -1 206 -1 #SUP: 4
193 -1 225 -1 #SUP: 2
193 -1 254 -1 #SUP: 3
193 -1 326 -1 #SUP: 2
193 -1 417 -1 #SUP: 6
193 -1 567 -1 #SUP: 2
193 -1 1700 -1 #SUP: 3
193 -1 2256 -1 #SUP: 2
193 -1 20302 -1 #SUP: 2
193 -1 20304 -1 #SUP: 2
198 -1 32 -1 #SUP: 3
198 -1 154 -1 #SUP: 2
198 -1 356 -1 #SUP: 2
201 -1 77 -1 #SUP: 2
202 -1 22 -1 #SUP: 3
202 -1 567 -1 #SUP: 2
205 -1 1306 -1 #SUP: 2
206 -1 2 -1 #SUP: 2
206 -1 77 -1 #SUP: 3
206 -1 123 -1 #SUP: 2
206 -1 356 -1 #SUP: 2
220 -1 77 -1 #SUP: 2
220 -1 123 -1 #SUP: 3
220 -1 144 -1 #SUP: 2
222 -1 2 -1 #SUP: 3
222 -1 32 -1 #SUP: 3
222 -1 64 -1 #SUP: 3
222 -1 77 -1 #SUP: 2
222 -1 123 -1 #SUP: 3
222 -1 144 -1 #SUP: 2
222 -1 165 -1 #SUP: 2
222 -1 443 -1 #SUP: 2
222 -1 20302 -1 #SUP: 2
222 -1 20304 -1 #SUP: 2
223 -1 32 -1 #SUP: 2
223 -1 64 -1 #SUP: 2
225 -1 183 -1 #SUP: 2
226 -1 193 -1 #SUP: 2
236 -1 16 -1 #SUP: 2
236 -1 41 -1 #SUP: 2
236 -1 64 -1 #SUP: 3
236 -1 65 -1 #SUP: 2
236 -1 77 -1 #SUP: 5
236 -1 123 -1 #SUP: 2
236 -1 193 -1 #SUP: 3
236 -1 196 -1 #SUP: 2
236 -1 248 -1 #SUP: 2
236 -1 268 -1 #SUP: 2
236 -1 280 -1 #SUP: 2
236 -1 326 -1 #SUP: 2
236 -1 1211 -1 #SUP: 2
238 -1 10 -1 #SUP: 2
241 -1 156 -1 #SUP: 2
248 -1 11 -1 #SUP: 2
248 -1 16 -1 #SUP: 2
248 -1 65 -1 #SUP: 2
248 -1 77 -1 #SUP: 3
248 -1 162 -1 #SUP: 2
248 -1 170 -1 #SUP: 2
248 -1 262 -1 #SUP: 2
248 -1 326 -1 #SUP: 4
254 -1 2 -1 #SUP: 3
254 -1 16 -1 #SUP: 2
254 -1 22 -1 #SUP: 3
254 -1 32 -1 #SUP: 2
254 -1 41 -1 #SUP: 2
254 -1 65 -1 #SUP: 3
254 -1 77 -1 #SUP: 2
254 -1 168 -1 #SUP: 2
254 -1 222 -1 #SUP: 2
254 -1 349 -1 #SUP: 2
259 -1 31 -1 #SUP: 2
259 -1 32 -1 #SUP: 2
259 -1 144 -1 #SUP: 2
259 -1 222 -1 #SUP: 2
260 -1 123 -1 #SUP: 2
260 -1 193 -1 #SUP: 3
260 -1 254 -1 #SUP: 2
262 -1 64 -1 #SUP: 2
262 -1 65 -1 #SUP: 2
262 -1 77 -1 #SUP: 5
262 -1 123 -1 #SUP: 2
262 -1 170 -1 #SUP: 2
262 -1 171 -1 #SUP: 2
262 -1 222 -1 #SUP: 2
262 -1 548 -1 #SUP: 2
276 -1 64 -1 #SUP: 2
284 -1 2 -1 #SUP: 2
284 -1 154 -1 #SUP: 2
284 -1 193 -1 #SUP: 2
284 -1 765 -1 #SUP: 2
286 -1 16 -1 #SUP: 2
286 -1 22 -1 #SUP: 3
286 -1 64 -1 #SUP: 3
286 -1 67 -1 #SUP: 2
286 -1 70 -1 #SUP: 2
286 -1 123 -1 #SUP: 2
286 -1 152 -1 #SUP: 2
286 -1 165 -1 #SUP: 3
286 -1 170 -1 #SUP: 2
286 -1 193 -1 #SUP: 2
286 -1 254 -1 #SUP: 2
326 -1 11 -1 #SUP: 2
326 -1 77 -1 #SUP: 3
326 -1 162 -1 #SUP: 2
326 -1 170 -1 #SUP: 2
326 -1 262 -1 #SUP: 2
326 -1 6548 -1 #SUP: 2
340 -1 11 -1 #SUP: 2
340 -1 77 -1 #SUP: 2
340 -1 162 -1 #SUP: 2
340 -1 248 -1 #SUP: 2
340 -1 262 -1 #SUP: 2
340 -1 326 -1 #SUP: 2
349 -1 2 -1 #SUP: 4
349 -1 32 -1 #SUP: 2
349 -1 64 -1 #SUP: 3
349 -1 65 -1 #SUP: 3
349 -1 77 -1 #SUP: 2
349 -1 123 -1 #SUP: 2
349 -1 183 -1 #SUP: 2
349 -1 198 -1 #SUP: 3
349 -1 222 -1 #SUP: 5
349 -1 268 -1 #SUP: 2
349 -1 1475 -1 #SUP: 2
356 -1 2 -1 #SUP: 3
356 -1 193 -1 #SUP: 2
364 -1 16 -1 #SUP: 2
364 -1 193 -1 #SUP: 2
384 -1 2 -1 #SUP: 2
384 -1 64 -1 #SUP: 2
384 -1 123 -1 #SUP: 2
398 -1 64 -1 #SUP: 2
417 -1 22 -1 #SUP: 2
417 -1 64 -1 #SUP: 2
417 -1 77 -1 #SUP: 2
441 -1 2 -1 #SUP: 2
441 -1 3 -1 #SUP: 3
441 -1 32 -1 #SUP: 2
441 -1 64 -1 #SUP: 3
441 -1 65 -1 #SUP: 2
441 -1 77 -1 #SUP: 2
441 -1 222 -1 #SUP: 2
441 -1 349 -1 #SUP: 3
452 -1 2 -1 #SUP: 2
452 -1 326 -1 #SUP: 2
517 -1 32 -1 #SUP: 3
520 -1 2 -1 #SUP: 2
520 -1 123 -1 #SUP: 2
520 -1 165 -1 #SUP: 2
520 -1 384 -1 #SUP: 2
529 -1 10 -1 #SUP: 2
529 -1 22 -1 #SUP: 3
529 -1 123 -1 #SUP: 2
529 -1 193 -1 #SUP: 2
548 -1 41 -1 #SUP: 2
564 -1 2 -1 #SUP: 2
564 -1 280 -1 #SUP: 2
567 -1 22 -1 #SUP: 2
567 -1 77 -1 #SUP: 2
567 -1 117 -1 #SUP: 2
567 -1 164 -1 #SUP: 2
596 -1 77 -1 #SUP: 2
596 -1 123 -1 #SUP: 2
599 -1 2 -1 #SUP: 2
599 -1 22 -1 #SUP: 3
599 -1 31 -1 #SUP: 2
599 -1 64 -1 #SUP: 2
599 -1 77 -1 #SUP: 3
599 -1 123 -1 #SUP: 5
599 -1 193 -1 #SUP: 5
599 -1 206 -1 #SUP: 2
599 -1 222 -1 #SUP: 2
599 -1 248 -1 #SUP: 2
599 -1 326 -1 #SUP: 3
599 -1 381 -1 #SUP: 2
599 -1 1163 -1 #SUP: 2
603 -1 32 -1 #SUP: 2
630 -1 170 -1 #SUP: 2
654 -1 64 -1 #SUP: 2
671 -1 64 -1 #SUP: 2
711 -1 193 -1 #SUP: 2
756 -1 64 -1 #SUP: 2
765 -1 10 -1 #SUP: 3
765 -1 65 -1 #SUP: 3
765 -1 154 -1 #SUP: 2
765 -1 193 -1 #SUP: 4
765 -1 417 -1 #SUP: 3
765 -1 1700 -1 #SUP: 2
778 -1 165 -1 #SUP: 2
778 -1 441 -1 #SUP: 2
781 -1 41 -1 #SUP: 2
781 -1 64 -1 #SUP: 2
786 -1 29 -1 #SUP: 2
951 -1 65 -1 #SUP: 2
1027 -1 280 -1 #SUP: 2
1082 -1 77 -1 #SUP: 2
1163 -1 65 -1 #SUP: 2
1163 -1 4955 -1 #SUP: 2
1700 -1 417 -1 #SUP: 2
2310 -1 292 -1 #SUP: 2
3180 -1 77 -1 #SUP: 3
6548 -1 77 -1 #SUP: 2
20302 -1 183 -1 #SUP: 2
20304 -1 183 -1 #SUP: 2
20304 -1 20302 -1 #SUP: 5
2 -1 32 -1 22 -1 #SUP: 2
2 -1 77 -1 123 -1 #SUP: 2
2 -1 123 -1 165 -1 #SUP: 3
2 -1 134 -1 77 -1 #SUP: 2
2 -1 165 -1 32 -1 #SUP: 2
2 -1 165 -1 67 -1 #SUP: 3
2 -1 202 -1 22 -1 #SUP: 2
10 -1 50 -1 805 -1 #SUP: 2
10 -1 64 -1 65 -1 #SUP: 2
10 -1 65 -1 32 -1 #SUP: 2
10 -1 65 -1 65 -1 #SUP: 2
10 -1 65 -1 417 -1 #SUP: 3
10 -1 65 -1 1700 -1 #SUP: 2
10 -1 262 -1 77 -1 #SUP: 2
10 -1 1700 -1 417 -1 #SUP: 2
10 -1 20304 -1 20302 -1 #SUP: 2
11 -1 162 -1 262 -1 #SUP: 2
15 -1 77 -1 10 -1 #SUP: 2
16 -1 67 -1 65 -1 #SUP: 2
16 -1 67 -1 77 -1 #SUP: 2
16 -1 117 -1 66 -1 #SUP: 2
22 -1 15 -1 170 -1 #SUP: 2
22 -1 32 -1 183 -1 #SUP: 2
22 -1 32 -1 20302 -1 #SUP: 2
22 -1 32 -1 20304 -1 #SUP: 2
22 -1 165 -1 67 -1 #SUP: 2
22 -1 20302 -1 183 -1 #SUP: 2
22 -1 20304 -1 183 -1 #SUP: 2
22 -1 20304 -1 20302 -1 #SUP: 3
29 -1 77 -1 123 -1 #SUP: 2
30 -1 10 -1 29 -1 #SUP: 2
30 -1 786 -1 29 -1 #SUP: 2
32 -1 2 -1 134 -1 #SUP: 2
32 -1 170 -1 77 -1 #SUP: 2
32 -1 222 -1 144 -1 #SUP: 2
32 -1 20302 -1 183 -1 #SUP: 2
32 -1 20304 -1 183 -1 #SUP: 2
32 -1 20304 -1 20302 -1 #SUP: 2
41 -1 10 -1 65 -1 #SUP: 2
41 -1 11 -1 162 -1 #SUP: 2
41 -1 11 -1 262 -1 #SUP: 2
41 -1 77 -1 41 -1 #SUP: 2
41 -1 77 -1 123 -1 #SUP: 2
41 -1 162 -1 262 -1 #SUP: 2
41 -1 248 -1 11 -1 #SUP: 2
41 -1 248 -1 162 -1 #SUP: 2
41 -1 248 -1 262 -1 #SUP: 2
41 -1 248 -1 326 -1 #SUP: 2
41 -1 254 -1 41 -1 #SUP: 2
41 -1 276 -1 64 -1 #SUP: 2
41 -1 284 -1 154 -1 #SUP: 2
41 -1 326 -1 11 -1 #SUP: 2
41 -1 326 -1 162 -1 #SUP: 2
41 -1 326 -1 262 -1 #SUP: 2
41 -1 340 -1 11 -1 #SUP: 2
41 -1 340 -1 162 -1 #SUP: 2
41 -1 340 -1 248 -1 #SUP: 2
41 -1 340 -1 262 -1 #SUP: 2
41 -1 340 -1 326 -1 #SUP: 2
50 -1 77 -1 222 -1 #SUP: 2
50 -1 77 -1 349 -1 #SUP: 2
50 -1 349 -1 222 -1 #SUP: 2
64 -1 10 -1 65 -1 #SUP: 2
64 -1 10 -1 417 -1 #SUP: 2
64 -1 10 -1 1700 -1 #SUP: 2
64 -1 65 -1 2 -1 #SUP: 2
64 -1 65 -1 33 -1 #SUP: 2
64 -1 65 -1 417 -1 #SUP: 2
64 -1 65 -1 1700 -1 #SUP: 2
64 -1 77 -1 123 -1 #SUP: 3
64 -1 123 -1 165 -1 #SUP: 2
64 -1 123 -1 517 -1 #SUP: 2
64 -1 193 -1 10 -1 #SUP: 2
64 -1 193 -1 65 -1 #SUP: 2
64 -1 193 -1 417 -1 #SUP: 2
64 -1 193 -1 1700 -1 #SUP: 2
64 -1 765 -1 10 -1 #SUP: 2
64 -1 765 -1 65 -1 #SUP: 2
64 -1 765 -1 193 -1 #SUP: 2
64 -1 765 -1 417 -1 #SUP: 2
64 -1 765 -1 1700 -1 #SUP: 2
64 -1 781 -1 41 -1 #SUP: 2
64 -1 1700 -1 417 -1 #SUP: 2
65 -1 2 -1 134 -1 #SUP: 2
65 -1 32 -1 2 -1 #SUP: 2
65 -1 32 -1 123 -1 #SUP: 2
65 -1 64 -1 65 -1 #SUP: 2
65 -1 64 -1 123 -1 #SUP: 2
65 -1 77 -1 22 -1 #SUP: 2
65 -1 77 -1 123 -1 #SUP: 2
65 -1 77 -1 260 -1 #SUP: 2
65 -1 603 -1 32 -1 #SUP: 2
65 -1 1700 -1 417 -1 #SUP: 2
66 -1 441 -1 349 -1 #SUP: 2
67 -1 77 -1 65 -1 #SUP: 2
70 -1 529 -1 22 -1 #SUP: 2
70 -1 529 -1 123 -1 #SUP: 2
76 -1 2 -1 1608 -1 #SUP: 2
77 -1 22 -1 20302 -1 #SUP: 2
77 -1 22 -1 20304 -1 #SUP: 2
77 -1 32 -1 2 -1 #SUP: 2
77 -1 64 -1 64 -1 #SUP: 2
77 -1 64 -1 193 -1 #SUP: 2
77 -1 65 -1 64 -1 #SUP: 2
77 -1 67 -1 64 -1 #SUP: 2
77 -1 77 -1 123 -1 #SUP: 2
77 -1 123 -1 2 -1 #SUP: 2
77 -1 123 -1 10 -1 #SUP: 2
77 -1 123 -1 22 -1 #SUP: 4
77 -1 123 -1 64 -1 #SUP: 6
77 -1 123 -1 123 -1 #SUP: 3
77 -1 123 -1 144 -1 #SUP: 2
77 -1 123 -1 165 -1 #SUP: 4
77 -1 123 -1 193 -1 #SUP: 6
77 -1 123 -1 260 -1 #SUP: 2
77 -1 123 -1 286 -1 #SUP: 2
77 -1 123 -1 384 -1 #SUP: 2
77 -1 123 -1 441 -1 #SUP: 2
77 -1 123 -1 517 -1 #SUP: 2
77 -1 123 -1 520 -1 #SUP: 2
77 -1 123 -1 765 -1 #SUP: 2
77 -1 165 -1 64 -1 #SUP: 3
77 -1 183 -1 2 -1 #SUP: 2
77 -1 193 -1 2 -1 #SUP: 2
77 -1 193 -1 64 -1 #SUP: 2
77 -1 193 -1 206 -1 #SUP: 2
77 -1 206 -1 2 -1 #SUP: 2
77 -1 222 -1 2 -1 #SUP: 2
77 -1 222 -1 123 -1 #SUP: 2
77 -1 225 -1 183 -1 #SUP: 2
77 -1 286 -1 165 -1 #SUP: 2
77 -1 349 -1 2 -1 #SUP: 2
77 -1 349 -1 32 -1 #SUP: 2
77 -1 349 -1 222 -1 #SUP: 2
77 -1 356 -1 2 -1 #SUP: 2
77 -1 599 -1 2 -1 #SUP: 2
77 -1 599 -1 193 -1 #SUP: 3
77 -1 599 -1 206 -1 #SUP: 2
77 -1 765 -1 193 -1 #SUP: 2
77 -1 20304 -1 20302 -1 #SUP: 2
120 -1 64 -1 65 -1 #SUP: 2
120 -1 70 -1 65 -1 #SUP: 2
120 -1 286 -1 152 -1 #SUP: 2
123 -1 2 -1 193 -1 #SUP: 2
123 -1 2 -1 1608 -1 #SUP: 2
123 -1 22 -1 64 -1 #SUP: 2
123 -1 22 -1 165 -1 #SUP: 2
123 -1 27 -1 630 -1 #SUP: 2
123 -1 32 -1 154 -1 #SUP: 2
123 -1 33 -1 65 -1 #SUP: 2
123 -1 64 -1 67 -1 #SUP: 2
123 -1 64 -1 193 -1 #SUP: 4
123 -1 64 -1 765 -1 #SUP: 3
123 -1 65 -1 32 -1 #SUP: 5
123 -1 65 -1 64 -1 #SUP: 2
123 -1 66 -1 165 -1 #SUP: 2
123 -1 70 -1 16 -1 #SUP: 2
123 -1 76 -1 2 -1 #SUP: 2
123 -1 76 -1 1608 -1 #SUP: 2
123 -1 77 -1 16 -1 #SUP: 2
123 -1 77 -1 123 -1 #SUP: 5
123 -1 77 -1 144 -1 #SUP: 2
123 -1 77 -1 193 -1 #SUP: 2
123 -1 77 -1 206 -1 #SUP: 2
123 -1 77 -1 599 -1 #SUP: 3
123 -1 120 -1 65 -1 #SUP: 2
123 -1 120 -1 77 -1 #SUP: 2
123 -1 120 -1 170 -1 #SUP: 2
123 -1 120 -1 286 -1 #SUP: 3
123 -1 123 -1 144 -1 #SUP: 2
123 -1 123 -1 165 -1 #SUP: 2
123 -1 123 -1 193 -1 #SUP: 2
123 -1 123 -1 220 -1 #SUP: 2
123 -1 123 -1 1193 -1 #SUP: 2
123 -1 144 -1 22 -1 #SUP: 2
123 -1 144 -1 77 -1 #SUP: 2
123 -1 144 -1 123 -1 #SUP: 2
123 -1 144 -1 596 -1 #SUP: 2
123 -1 165 -1 22 -1 #SUP: 2
123 -1 165 -1 64 -1 #SUP: 5
123 -1 165 -1 67 -1 #SUP: 3
123 -1 165 -1 164 -1 #SUP: 2
123 -1 165 -1 193 -1 #SUP: 2
123 -1 165 -1 411 -1 #SUP: 2
123 -1 165 -1 441 -1 #SUP: 2
123 -1 165 -1 765 -1 #SUP: 2
123 -1 193 -1 10 -1 #SUP: 2
123 -1 193 -1 22 -1 #SUP: 2
123 -1 193 -1 67 -1 #SUP: 2
123 -1 193 -1 165 -1 #SUP: 2
123 -1 193 -1 206 -1 #SUP: 3
123 -1 220 -1 77 -1 #SUP: 2
123 -1 220 -1 123 -1 #SUP: 3
123 -1 220 -1 144 -1 #SUP: 2
123 -1 236 -1 123 -1 #SUP: 2
123 -1 254 -1 65 -1 #SUP: 2
123 -1 260 -1 123 -1 #SUP: 2
123 -1 260 -1 193 -1 #SUP: 2
123 -1 286 -1 16 -1 #SUP: 2
123 -1 286 -1 22 -1 #SUP: 3
123 -1 286 -1 64 -1 #SUP: 3
123 -1 286 -1 67 -1 #SUP: 2
123 -1 286 -1 70 -1 #SUP: 2
123 -1 286 -1 123 -1 #SUP: 2
123 -1 286 -1 165 -1 #SUP: 3
123 -1 286 -1 170 -1 #SUP: 2
123 -1 286 -1 193 -1 #SUP: 2
123 -1 356 -1 193 -1 #SUP: 2
123 -1 441 -1 64 -1 #SUP: 2
123 -1 441 -1 65 -1 #SUP: 2
123 -1 517 -1 32 -1 #SUP: 2
123 -1 599 -1 193 -1 #SUP: 2
123 -1 599 -1 206 -1 #SUP: 2
123 -1 654 -1 64 -1 #SUP: 2
123 -1 765 -1 193 -1 #SUP: 3
123 -1 778 -1 165 -1 #SUP: 2
123 -1 778 -1 441 -1 #SUP: 2
144 -1 77 -1 123 -1 #SUP: 2
165 -1 64 -1 10 -1 #SUP: 2
165 -1 64 -1 67 -1 #SUP: 2
165 -1 64 -1 193 -1 #SUP: 2
165 -1 64 -1 765 -1 #SUP: 2
165 -1 193 -1 10 -1 #SUP: 2
165 -1 765 -1 10 -1 #SUP: 2
165 -1 765 -1 193 -1 #SUP: 2
170 -1 171 -1 32 -1 #SUP: 2
171 -1 32 -1 77 -1 #SUP: 2
183 -1 2 -1 31 -1 #SUP: 2
193 -1 10 -1 22 -1 #SUP: 2
193 -1 10 -1 65 -1 #SUP: 3
193 -1 10 -1 417 -1 #SUP: 3
193 -1 10 -1 1700 -1 #SUP: 2
193 -1 65 -1 22 -1 #SUP: 2
193 -1 65 -1 417 -1 #SUP: 3
193 -1 65 -1 1700 -1 #SUP: 2
193 -1 77 -1 16 -1 #SUP: 2
193 -1 154 -1 417 -1 #SUP: 2
193 -1 165 -1 67 -1 #SUP: 3
193 -1 254 -1 22 -1 #SUP: 2
193 -1 1700 -1 417 -1 #SUP: 2
193 -1 20304 -1 20302 -1 #SUP: 2
202 -1 567 -1 22 -1 #SUP: 2
220 -1 77 -1 123 -1 #SUP: 2
220 -1 144 -1 77 -1 #SUP: 2
220 -1 144 -1 123 -1 #SUP: 2
222 -1 2 -1 165 -1 #SUP: 2
222 -1 64 -1 64 -1 #SUP: 2
222 -1 123 -1 64 -1 #SUP: 2
222 -1 20304 -1 20302 -1 #SUP: 2
236 -1 77 -1 1211 -1 #SUP: 2
236 -1 248 -1 326 -1 #SUP: 2
248 -1 11 -1 162 -1 #SUP: 2
248 -1 11 -1 262 -1 #SUP: 2
248 -1 77 -1 170 -1 #SUP: 2
248 -1 162 -1 262 -1 #SUP: 2
248 -1 326 -1 11 -1 #SUP: 2
248 -1 326 -1 77 -1 #SUP: 2
248 -1 326 -1 162 -1 #SUP: 2
248 -1 326 -1 170 -1 #SUP: 2
248 -1 326 -1 262 -1 #SUP: 2
254 -1 222 -1 2 -1 #SUP: 2
254 -1 349 -1 2 -1 #SUP: 2
259 -1 32 -1 31 -1 #SUP: 2
259 -1 32 -1 144 -1 #SUP: 2
259 -1 32 -1 222 -1 #SUP: 2
259 -1 222 -1 144 -1 #SUP: 2
260 -1 193 -1 254 -1 #SUP: 2
262 -1 64 -1 77 -1 #SUP: 2
262 -1 77 -1 123 -1 #SUP: 2
262 -1 123 -1 77 -1 #SUP: 2
262 -1 123 -1 123 -1 #SUP: 2
276 -1 64 -1 64 -1 #SUP: 2
284 -1 765 -1 193 -1 #SUP: 2
286 -1 22 -1 165 -1 #SUP: 2
286 -1 64 -1 67 -1 #SUP: 2
286 -1 70 -1 16 -1 #SUP: 2
286 -1 165 -1 64 -1 #SUP: 2
286 -1 165 -1 67 -1 #SUP: 2
326 -1 11 -1 162 -1 #SUP: 2
326 -1 11 -1 262 -1 #SUP: 2
326 -1 77 -1 170 -1 #SUP: 2
326 -1 162 -1 262 -1 #SUP: 2
340 -1 11 -1 162 -1 #SUP: 2
340 -1 11 -1 262 -1 #SUP: 2
340 -1 162 -1 262 -1 #SUP: 2
340 -1 248 -1 11 -1 #SUP: 2
340 -1 248 -1 162 -1 #SUP: 2
340 -1 248 -1 262 -1 #SUP: 2
340 -1 248 -1 326 -1 #SUP: 2
340 -1 326 -1 11 -1 #SUP: 2
340 -1 326 -1 162 -1 #SUP: 2
340 -1 326 -1 262 -1 #SUP: 2
349 -1 32 -1 2 -1 #SUP: 2
349 -1 64 -1 222 -1 #SUP: 2
349 -1 222 -1 2 -1 #SUP: 2
349 -1 222 -1 123 -1 #SUP: 2
364 -1 16 -1 193 -1 #SUP: 2
441 -1 349 -1 222 -1 #SUP: 2
520 -1 384 -1 2 -1 #SUP: 2
529 -1 10 -1 22 -1 #SUP: 2
529 -1 193 -1 10 -1 #SUP: 2
529 -1 193 -1 22 -1 #SUP: 2
567 -1 77 -1 164 -1 #SUP: 2
596 -1 77 -1 123 -1 #SUP: 2
599 -1 77 -1 123 -1 #SUP: 2
599 -1 193 -1 2 -1 #SUP: 2
599 -1 193 -1 206 -1 #SUP: 2
599 -1 193 -1 326 -1 #SUP: 2
765 -1 10 -1 65 -1 #SUP: 3
765 -1 10 -1 417 -1 #SUP: 3
765 -1 10 -1 1700 -1 #SUP: 2
765 -1 65 -1 417 -1 #SUP: 3
765 -1 65 -1 1700 -1 #SUP: 2
765 -1 193 -1 10 -1 #SUP: 3
765 -1 193 -1 65 -1 #SUP: 3
765 -1 193 -1 417 -1 #SUP: 3
765 -1 193 -1 1700 -1 #SUP: 2
765 -1 1700 -1 417 -1 #SUP: 2
781 -1 64 -1 64 -1 #SUP: 2
1163 -1 65 -1 4955 -1 #SUP: 2
20304 -1 20302 -1 183 -1 #SUP: 2
10 -1 65 -1 1700 -1 417 -1 #SUP: 2
22 -1 32 -1 20302 -1 183 -1 #SUP: 2
22 -1 32 -1 20304 -1 183 -1 #SUP: 2
22 -1 32 -1 20304 -1 20302 -1 #SUP: 2
22 -1 20304 -1 20302 -1 183 -1 #SUP: 2
32 -1 20304 -1 20302 -1 183 -1 #SUP: 2
41 -1 11 -1 162 -1 262 -1 #SUP: 2
41 -1 248 -1 11 -1 162 -1 #SUP: 2
41 -1 248 -1 11 -1 262 -1 #SUP: 2
41 -1 248 -1 162 -1 262 -1 #SUP: 2
41 -1 248 -1 326 -1 11 -1 #SUP: 2
41 -1 248 -1 326 -1 162 -1 #SUP: 2
41 -1 248 -1 326 -1 262 -1 #SUP: 2
41 -1 326 -1 11 -1 162 -1 #SUP: 2
41 -1 326 -1 11 -1 262 -1 #SUP: 2
41 -1 326 -1 162 -1 262 -1 #SUP: 2
41 -1 340 -1 11 -1 162 -1 #SUP: 2
41 -1 340 -1 11 -1 262 -1 #SUP: 2
41 -1 340 -1 162 -1 262 -1 #SUP: 2
41 -1 340 -1 248 -1 11 -1 #SUP: 2
41 -1 340 -1 248 -1 162 -1 #SUP: 2
41 -1 340 -1 248 -1 262 -1 #SUP: 2
41 -1 340 -1 248 -1 326 -1 #SUP: 2
41 -1 340 -1 326 -1 11 -1 #SUP: 2
41 -1 340 -1 326 -1 162 -1 #SUP: 2
41 -1 340 -1 326 -1 262 -1 #SUP: 2
50 -1 77 -1 349 -1 222 -1 #SUP: 2
64 -1 10 -1 65 -1 417 -1 #SUP: 2
64 -1 10 -1 65 -1 1700 -1 #SUP: 2
64 -1 10 -1 1700 -1 417 -1 #SUP: 2
64 -1 65 -1 1700 -1 417 -1 #SUP: 2
64 -1 193 -1 10 -1 65 -1 #SUP: 2
64 -1 193 -1 10 -1 417 -1 #SUP: 2
64 -1 193 -1 10 -1 1700 -1 #SUP: 2
64 -1 193 -1 65 -1 417 -1 #SUP: 2
64 -1 193 -1 65 -1 1700 -1 #SUP: 2
64 -1 193 -1 1700 -1 417 -1 #SUP: 2
64 -1 765 -1 10 -1 65 -1 #SUP: 2
64 -1 765 -1 10 -1 417 -1 #SUP: 2
64 -1 765 -1 10 -1 1700 -1 #SUP: 2
64 -1 765 -1 65 -1 417 -1 #SUP: 2
64 -1 765 -1 65 -1 1700 -1 #SUP: 2
64 -1 765 -1 193 -1 10 -1 #SUP: 2
64 -1 765 -1 193 -1 65 -1 #SUP: 2
64 -1 765 -1 193 -1 417 -1 #SUP: 2
64 -1 765 -1 193 -1 1700 -1 #SUP: 2
64 -1 765 -1 1700 -1 417 -1 #SUP: 2
77 -1 22 -1 20304 -1 20302 -1 #SUP: 2
77 -1 123 -1 64 -1 193 -1 #SUP: 2
77 -1 123 -1 165 -1 64 -1 #SUP: 3
77 -1 123 -1 286 -1 165 -1 #SUP: 2
77 -1 123 -1 765 -1 193 -1 #SUP: 2
77 -1 349 -1 32 -1 2 -1 #SUP: 2
77 -1 349 -1 222 -1 2 -1 #SUP: 2
77 -1 599 -1 193 -1 2 -1 #SUP: 2
77 -1 599 -1 193 -1 206 -1 #SUP: 2
123 -1 64 -1 765 -1 193 -1 #SUP: 2
123 -1 76 -1 2 -1 1608 -1 #SUP: 2
123 -1 77 -1 123 -1 144 -1 #SUP: 2
123 -1 77 -1 193 -1 206 -1 #SUP: 2
123 -1 77 -1 599 -1 193 -1 #SUP: 2
123 -1 77 -1 599 -1 206 -1 #SUP: 2
123 -1 144 -1 77 -1 123 -1 #SUP: 2
123 -1 165 -1 64 -1 67 -1 #SUP: 2
123 -1 165 -1 64 -1 193 -1 #SUP: 2
123 -1 165 -1 64 -1 765 -1 #SUP: 2
123 -1 165 -1 765 -1 193 -1 #SUP: 2
123 -1 193 -1 165 -1 67 -1 #SUP: 2
123 -1 220 -1 77 -1 123 -1 #SUP: 2
123 -1 220 -1 144 -1 77 -1 #SUP: 2
123 -1 220 -1 144 -1 123 -1 #SUP: 2
123 -1 286 -1 22 -1 165 -1 #SUP: 2
123 -1 286 -1 64 -1 67 -1 #SUP: 2
123 -1 286 -1 70 -1 16 -1 #SUP: 2
123 -1 286 -1 165 -1 64 -1 #SUP: 2
123 -1 286 -1 165 -1 67 -1 #SUP: 2
123 -1 599 -1 193 -1 206 -1 #SUP: 2
165 -1 64 -1 193 -1 10 -1 #SUP: 2
165 -1 64 -1 765 -1 10 -1 #SUP: 2
165 -1 64 -1 765 -1 193 -1 #SUP: 2
165 -1 765 -1 193 -1 10 -1 #SUP: 2
193 -1 10 -1 65 -1 417 -1 #SUP: 3
193 -1 10 -1 65 -1 1700 -1 #SUP: 2
193 -1 10 -1 1700 -1 417 -1 #SUP: 2
193 -1 65 -1 1700 -1 417 -1 #SUP: 2
220 -1 144 -1 77 -1 123 -1 #SUP: 2
248 -1 11 -1 162 -1 262 -1 #SUP: 2
248 -1 326 -1 11 -1 162 -1 #SUP: 2
248 -1 326 -1 11 -1 262 -1 #SUP: 2
248 -1 326 -1 77 -1 170 -1 #SUP: 2
248 -1 326 -1 162 -1 262 -1 #SUP: 2
259 -1 32 -1 222 -1 144 -1 #SUP: 2
262 -1 123 -1 77 -1 123 -1 #SUP: 2
286 -1 165 -1 64 -1 67 -1 #SUP: 2
326 -1 11 -1 162 -1 262 -1 #SUP: 2
340 -1 11 -1 162 -1 262 -1 #SUP: 2
340 -1 248 -1 11 -1 162 -1 #SUP: 2
340 -1 248 -1 11 -1 262 -1 #SUP: 2
340 -1 248 -1 162 -1 262 -1 #SUP: 2
340 -1 248 -1 326 -1 11 -1 #SUP: 2
340 -1 248 -1 326 -1 162 -1 #SUP: 2
340 -1 248 -1 326 -1 262 -1 #SUP: 2
340 -1 326 -1 11 -1 162 -1 #SUP: 2
340 -1 326 -1 11 -1 262 -1 #SUP: 2
340 -1 326 -1 162 -1 262 -1 #SUP: 2
529 -1 193 -1 10 -1 22 -1 #SUP: 2
765 -1 10 -1 65 -1 417 -1 #SUP: 3
765 -1 10 -1 65 -1 1700 -1 #SUP: 2
765 -1 10 -1 1700 -1 417 -1 #SUP: 2
765 -1 65 -1 1700 -1 417 -1 #SUP: 2
765 -1 193 -1 10 -1 65 -1 #SUP: 3
765 -1 193 -1 10 -1 417 -1 #SUP: 3
765 -1 193 -1 10 -1 1700 -1 #SUP: 2
765 -1 193 -1 65 -1 417 -1 #SUP: 3
765 -1 193 -1 65 -1 1700 -1 #SUP: 2
765 -1 193 -1 1700 -1 417 -1 #SUP: 2
22 -1 32 -1 20304 -1 20302 -1 183 -1 #SUP: 2
41 -1 248 -1 11 -1 162 -1 262 -1 #SUP: 2
41 -1 248 -1 326 -1 11 -1 162 -1 #SUP: 2
41 -1 248 -1 326 -1 11 -1 262 -1 #SUP: 2
41 -1 248 -1 326 -1 162 -1 262 -1 #SUP: 2
41 -1 326 -1 11 -1 162 -1 262 -1 #SUP: 2
41 -1 340 -1 11 -1 162 -1 262 -1 #SUP: 2
41 -1 340 -1 248 -1 11 -1 162 -1 #SUP: 2
41 -1 340 -1 248 -1 11 -1 262 -1 #SUP: 2
41 -1 340 -1 248 -1 162 -1 262 -1 #SUP: 2
41 -1 340 -1 248 -1 326 -1 11 -1 #SUP: 2
41 -1 340 -1 248 -1 326 -1 162 -1 #SUP: 2
41 -1 340 -1 248 -1 326 -1 262 -1 #SUP: 2
41 -1 340 -1 326 -1 11 -1 162 -1 #SUP: 2
41 -1 340 -1 326 -1 11 -1 262 -1 #SUP: 2
41 -1 340 -1 326 -1 162 -1 262 -1 #SUP: 2
64 -1 10 -1 65 -1 1700 -1 417 -1 #SUP: 2
64 -1 193 -1 10 -1 65 -1 417 -1 #SUP: 2
64 -1 193 -1 10 -1 65 -1 1700 -1 #SUP: 2
64 -1 193 -1 10 -1 1700 -1 417 -1 #SUP: 2
64 -1 193 -1 65 -1 1700 -1 417 -1 #SUP: 2
64 -1 765 -1 10 -1 65 -1 417 -1 #SUP: 2
64 -1 765 -1 10 -1 65 -1 1700 -1 #SUP: 2
64 -1 765 -1 10 -1 1700 -1 417 -1 #SUP: 2
64 -1 765 -1 65 -1 1700 -1 417 -1 #SUP: 2
64 -1 765 -1 193 -1 10 -1 65 -1 #SUP: 2
64 -1 765 -1 193 -1 10 -1 417 -1 #SUP: 2
64 -1 765 -1 193 -1 10 -1 1700 -1 #SUP: 2
64 -1 765 -1 193 -1 65 -1 417 -1 #SUP: 2
64 -1 765 -1 193 -1 65 -1 1700 -1 #SUP: 2
64 -1 765 -1 193 -1 1700 -1 417 -1 #SUP: 2
123 -1 77 -1 599 -1 193 -1 206 -1 #SUP: 2
123 -1 165 -1 64 -1 765 -1 193 -1 #SUP: 2
123 -1 220 -1 144 -1 77 -1 123 -1 #SUP: 2
123 -1 286 -1 165 -1 64 -1 67 -1 #SUP: 2
165 -1 64 -1 765 -1 193 -1 10 -1 #SUP: 2
193 -1 10 -1 65 -1 1700 -1 417 -1 #SUP: 2
248 -1 326 -1 11 -1 162 -1 262 -1 #SUP: 2
340 -1 248 -1 11 -1 162 -1 262 -1 #SUP: 2
340 -1 248 -1 326 -1 11 -1 162 -1 #SUP: 2
340 -1 248 -1 326 -1 11 -1 262 -1 #SUP: 2
340 -1 248 -1 326 -1 162 -1 262 -1 #SUP: 2
340 -1 326 -1 11 -1 162 -1 262 -1 #SUP: 2
765 -1 10 -1 65 -1 1700 -1 417 -1 #SUP: 2
765 -1 193 -1 10 -1 65 -1 417 -1 #SUP: 3
765 -1 193 -1 10 -1 65 -1 1700 -1 #SUP: 2
765 -1 193 -1 10 -1 1700 -1 417 -1 #SUP: 2
765 -1 193 -1 65 -1 1700 -1 417 -1 #SUP: 2
41 -1 248 -1 326 -1 11 -1 162 -1 262 -1 #SUP: 2
41 -1 340 -1 248 -1 11 -1 162 -1 262 -1 #SUP: 2
41 -1 340 -1 248 -1 326 -1 11 -1 162 -1 #SUP: 2
41 -1 340 -1 248 -1 326 -1 11 -1 262 -1 #SUP: 2
41 -1 340 -1 248 -1 326 -1 162 -1 262 -1 #SUP: 2
41 -1 340 -1 326 -1 11 -1 162 -1 262 -1 #SUP: 2
64 -1 193 -1 10 -1 65 -1 1700 -1 417 -1 #SUP: 2
64 -1 765 -1 10 -1 65 -1 1700 -1 417 -1 #SUP: 2
64 -1 765 -1 193 -1 10 -1 65 -1 417 -1 #SUP: 2
64 -1 765 -1 193 -1 10 -1 65 -1 1700 -1 #SUP: 2
64 -1 765 -1 193 -1 10 -1 1700 -1 417 -1 #SUP: 2
64 -1 765 -1 193 -1 65 -1 1700 -1 417 -1 #SUP: 2
340 -1 248 -1 326 -1 11 -1 162 -1 262 -1 #SUP: 2
765 -1 193 -1 10 -1 65 -1 1700 -1 417 -1 #SUP: 2
41 -1 340 -1 248 -1 326 -1 11 -1 162 -1 262 -1 #SUP: 2
64 -1 765 -1 193 -1 10 -1 65 -1 1700 -1 417 -1 #SUP: 2
