3266 -1 123 -1 322 -1 2681 -1 2 -1 3049 -1 10 -1 66 -1 32 -1 22 -1 974 -1 30 -2
220 -1 383 -1 32 -1 322 -1 22 -1 10368 -1 3421 -1 30 -2
599 -1 285 -1 144 -1 225 -1 322 -1 2061 -1 10 -1 193 -1 1 -2
2940 -1 1141 -1 1780 -1 152 -1 4497 -1 30 -2
162 -1 164 -1 200 -1 77 -1 364 -1 1141 -1 987 -1 152 -1 3533 -1 134 -1 30 -2
123 -1 529 -1 356 -1 64 -1 2940 -1 2171 -1 77 -1 657 -1 170 -1 749 -1 50 -1 668 -1 28968 -1 222 -1 6270 -1 30 -2
26145 -1 77 -1 905 -1 77 -1 2 -1 2370 -1 2805 -1 919 -1 77 -1 916 -1 77 -1 35222 -1 2765 -1 7028 -1 9882 -1 5195 -1 1627 -1 13324 -1 5432 -1 24873 -1 5432 -1 4521 -1 59986 -1 5044 -1 3601 -1 31 -1 1224 -1 59985 -1 520 -1 27 -1 848 -1 262 -1 127 -1 1 -2
249 -1 1040 -1 2 -1 2173 -1 22 -1 2937 -1 30 -2
236 -1 201 -1 170 -1 65 -1 12320 -1 11472 -1 50 -1 3202 -1 2172 -1 77 -1 244 -1 123 -1 593 -1 4123 -1 7199 -1 5763 -1 30 -2
2906 -1 77 -1 800 -1 3137 -1 6479 -1 22 -1 2937 -1 1105 -1 30 -2
250 -1 654 -1 50 -1 2983 -1 6590 -1 6435 -1 22 -1 4836 -1 30 -2
781 -1 1214 -1 76 -1 2 -1 1726 -1 15865 -1 1214 -1 30 -2
70 -1 951 -1 10 -1 1214 -1 972 -1 77 -1 599 -1 437 -1 381 -1 17699 -1 237 -1 22 -1 3573 -1 32 -1 123 -1 226 -1 142 -1 64 -1 193 -1 162 -1 123 -1 142 -1 64 -1 193 -1 30 -2
9 -1 28 -1 26 -1 59987 -1 1529 -1 10055 -1 630 -1 262 -1 170 -1 2279 -1 27 -1 171 -1 32 -1 50 -1 6525 -1 4393 -1 633 -1 356 -1 164 -1 3379 -1 66 -1 274 -1 22 -1 678 -1 30 -2
35 -1 123 -1 12983 -1 65 -1 5407 -1 19829 -1 291 -1 22 -1 5093 -1 32 -1 65 -1 9193 -1 617 -1 2 -1 5407 -1 40240 -1 59989 -1 59988 -1 164 -1 309 -1 608 -1 2061 -1 17498 -1 651 -1 1326 -1 33 -1 145 -1 1457 -1 30 -2
262 -1 206 -1 9166 -1 10 -1 404 -1 64 -1 326 -1 5992 -1 9037 -1 34265 -1 6593 -1 30 -1 30 -1 1564 -1 1675 -1 30888 -1 452 -1 196 -1 1241 -1 987 -1 64 -1 286 -1 30 -2
59990 -1 59991 -1 30 -2
13613 -1 59993 -1 59992 -1 30 -2
516 -1 4252 -1 59994 -1 4223 -1 59996 -1 4004 -1 59995 -1 32078 -1 4774 -1 59998 -1 59997 -1 30 -2
123 -1 174 -1 2788 -1 30 -2
123 -1 120 -1 260 -1 499 -1 64 -1 1934 -1 154 -1 384 -1 1274 -1 254 -1 123 -1 212 -1 120 -1 356 -1 133 -1 201 -1 2897 -1 7807 -1 30 -2
123 -1 144 -1 710 -1 2786 -1 65 -1 1942 -1 9356 -1 1078 -1 3070 -1 30 -2
262 -1 170 -1 64 -1 1034 -1 50 -1 3128 -1 30 -2
70 -1 14094 -1 22 -1 628 -1 154 -1 170 -1 22 -1 81 -1 259 -1 32 -1 1238 -1 30 -2
123 -1 120 -1 356 -1 3380 -1 154 -1 22 -1 2864 -1 170 -1 651 -1 64 -1 1610 -1 30 -2
9382 -1 30 -2
123 -1 2760 -1 117 -1 618 -1 17146 -1 30 -2
1035 -1 260 -1 699 -1 170 -1 162 -1 50 -1 2958 -1 7 -1 65 -1 1107 -1 2 -1 364 -1 1238 -1 276 -1 33 -1 22 -1 5195 -1 30 -2
123 -1 453 -1 134 -1 77 -1 599 -1 144 -1 16 -1 2280 -1 27 -1 349 -1 630 -1 117 -1 66 -1 30 -2
349 -1 2173 -1 222 -1 198 -1 33 -1 193 -1 30 -2
1275 -1 25629 -1 2 -1 1842 -1 237 -1 1505 -1 162 -1 123 -1 206 -1 651 -1 64 -1 10012 -1 65 -1 4859 -1 32 -1 347 -1 3570 -1 1679 -1 6729 -1 65 -1 4033 -1 30 -2
18885 -1 198 -1 2 -1 50 -1 2773 -1 638 -1 64 -1 2273 -1 222 -1 30 -2
1252 -1 158 -1 14038 -1 14600 -1 2 -1 2739 -1 655 -1 22 -1 4033 -1 30 -2
126 -1 41 -1 190 -1 196 -1 5824 -1 1 -2
123 -1 120 -1 260 -1 340 -1 30 -2
13613 -1 523 -1 17799 -1 32072 -1 30 -2
59999 -1 1 -2
3676 -1 33 -1 29 -1 141 -1 146 -1 77 -1 29 -1 156 -1 170 -1 15 -1 150 -1 15 -1 150 -1 11 -1 152 -1 1294 -1 1819 -1 911 -1 152 -1 5480 -1 1819 -1 1118 -1 29 -1 141 -1 146 -1 183 -1 77 -1 10 -1 986 -1 32 -1 30 -2
596 -1 164 -1 236 -1 154 -1 353 -1 78 -1 65 -1 1669 -1 30 -2
3116 -1 30 -2
60001 -1 77 -1 19048 -1 77 -1 60000 -1 233 -1 5644 -1 154 -1 924 -1 6754 -1 30 -2
894 -1 197 -1 77 -1 1647 -1 34809 -1 22817 -1 12409 -1 29968 -1 1770 -1 6657 -1 77 -1 23493 -1 1 -2
60002 -1 16 -1 164 -1 3325 -1 77 -1 599 -1 3456 -1 144 -1 154 -1 31 -1 222 -1 30 -2
2297 -1 77 -1 1672 -1 70 -1 212 -1 65 -1 2467 -1 31962 -1 32 -1 489 -1 30 -2
50 -1 910 -1 170 -1 951 -1 1184 -1 64 -1 154 -1 256 -1 22 -1 22 -1 584 -1 32 -1 5940 -1 140 -1 54839 -1 30 -2
608 -1 16022 -1 7521 -1 154 -1 120 -1 260 -1 2098 -1 246 -1 237 -1 30 -2
11320 -1 30 -2
30431 -1 120 -1 1758 -1 30 -2
1672 -1 64 -1 1707 -1 193 -1 198 -1 1141 -1 4995 -1 77 -1 991 -1 77 -1 152 -1 144 -1 276 -1 12852 -1 30 -2
223 -1 9871 -1 77 -1 1045 -1 22 -1 13480 -1 151 -1 30 -2
273 -1 183 -1 1700 -1 30 -2
213 -1 153 -1 154 -1 193 -1 866 -1 739 -1 30 -2
651 -1 6763 -1 30 -2
22 -1 5940 -1 2633 -1 222 -1 30 -2
123 -1 340 -1 154 -1 381 -1 6763 -1 60003 -1 22 -1 213 -1 3727 -1 77 -1 599 -1 123 -1 597 -1 67 -1 2301 -1 64 -1 193 -1 117 -1 22 -1 1779 -1 236 -1 193 -1 879 -1 334 -1 1808 -1 30 -2
123 -1 14586 -1 10694 -1 869 -1 24688 -1 11147 -1 8940 -1 60004 -1 30 -2
12134 -1 60005 -1 7373 -1 940 -1 1320 -1 60006 -1 60007 -1 10 -1 34173 -1 1874 -1 51 -1 6657 -1 30 -2
60008 -1 123 -1 483 -1 225 -1 8745 -1 3348 -1 64 -1 67 -1 431 -1 468 -1 30 -2
567 -1 355 -1 749 -1 77 -1 599 -1 123 -1 212 -1 441 -1 64 -1 16136 -1 50 -1 949 -1 30 -2
1126 -1 33 -1 22 -1 225 -1 30 -2
236 -1 123 -1 340 -1 567 -1 171 -1 77 -1 244 -1 193 -1 2284 -1 3649 -1 4497 -1 2 -1 123 -1 160 -1 64 -1 752 -1 30 -2
236 -1 70 -1 164 -1 668 -1 77 -1 244 -1 193 -1 170 -1 672 -1 30 -2
78 -1 608 -1 78 -1 123 -1 220 -1 159 -1 50 -1 7189 -1 2 -1 225 -1 226 -1 1386 -1 64 -1 222 -1 244 -1 70 -1 1146 -1 123 -1 210 -1 752 -1 236 -1 566 -1 206 -1 1649 -1 50 -1 58 -1 164 -1 5954 -1 5288 -1 152 -1 11681 -1 8620 -1 30 -2
529 -1 77 -1 749 -1 848 -1 566 -1 268 -1 22 -1 12431 -1 1 -2
151 -1 10 -1 1270 -1 10 -1 693 -1 1722 -1 356 -1 1340 -1 2 -1 1627 -1 30 -2
1672 -1 262 -1 2284 -1 60009 -1 274 -1 10 -1 22 -1 1263 -1 65 -1 720 -1 30 -2
951 -1 77 -1 2805 -1 77 -1 728 -1 14915 -1 77 -1 13 -1 7767 -1 77 -1 393 -1 30 -2
4521 -1 2 -1 4520 -1 2 -1 13390 -1 2 -1 30 -2
44514 -1 1 -2
2 -1 123 -1 120 -1 340 -1 31 -1 16179 -1 30 -2
27 -1 1 -2
60010 -1 70 -1 66 -1 308 -1 30 -2
120 -1 863 -1 6581 -1 236 -1 123 -1 441 -1 64 -1 30 -2
212 -1 2760 -1 117 -1 18796 -1 4 -1 77 -1 599 -1 2378 -1 398 -1 30 -2
567 -1 77 -1 193 -1 6755 -1 699 -1 30 -2
3180 -1 66 -1 22 -1 167 -1 10 -1 395 -1 298 -1 291 -1 285 -1 699 -1 193 -1 170 -1 30 -2
710 -1 77 -1 123 -1 144 -1 340 -1 225 -1 154 -1 144 -1 1724 -1 30 -2
123 -1 1672 -1 83 -1 64 -1 16 -1 8512 -1 162 -1 349 -1 183 -1 4843 -1 5237 -1 77 -1 599 -1 123 -1 144 -1 16 -1 30 -2
201 -1 183 -1 4898 -1 154 -1 356 -1 109 -1 32 -1 7313 -1 30 -2
151 -1 1996 -1 183 -1 41 -1 2910 -1 291 -1 22 -1 628 -1 77 -1 22 -1 1105 -1 77 -1 152 -1 571 -1 1 -2
256 -1 2528 -1 4836 -1 4028 -1 44591 -1 704 -1 269 -1 395 -1 7582 -1 8649 -1 2301 -1 64 -1 1442 -1 1263 -1 27 -1 3074 -1 144 -1 236 -1 41 -1 638 -1 65 -1 4981 -1 2443 -1 2 -1 41 -1 648 -1 441 -1 64 -1 756 -1 30 -2
2 -1 28352 -1 27 -1 3074 -1 765 -1 206 -1 3158 -1 30 -2
868 -1 117 -1 7410 -1 30 -2
638 -1 64 -1 441 -1 668 -1 154 -1 1169 -1 193 -1 670 -1 222 -1 198 -1 30 -2
60011 -1 711 -1 65 -1 1219 -1 32 -1 2253 -1 2 -1 70 -1 998 -1 64 -1 441 -1 200 -1 543 -1 274 -1 193 -1 162 -1 4375 -1 30 -2
529 -1 220 -1 1822 -1 909 -1 30 -2
301 -1 2958 -1 3660 -1 1401 -1 30 -2
123 -1 73 -1 3660 -1 65 -1 401 -1 164 -1 134 -1 30 -2
1716 -1 134 -1 193 -1 206 -1 65 -1 1022 -1 32 -1 76 -1 2 -1 154 -1 349 -1 648 -1 764 -1 64 -1 322 -1 68 -1 2666 -1 30 -2
2429 -1 198 -1 123 -1 206 -1 308 -1 30 -2
3005 -1 699 -1 77 -1 123 -1 1913 -1 1664 -1 30 -2
123 -1 1591 -1 910 -1 30 -2
70 -1 196 -1 182 -1 31 -1 222 -1 30 -2
123 -1 789 -1 3242 -1 30 -2
123 -1 441 -1 181 -1 32 -1 65 -1 7957 -1 241 -1 156 -1 65 -1 77 -1 657 -1 170 -1 699 -1 2691 -1 285 -1 12283 -1 4511 -1 123 -1 174 -1 30 -2
286 -1 50 -1 49 -1 171 -1 206 -1 6485 -1 77 -1 2 -1 22 -1 171 -1 42 -1 154 -1 206 -1 27449 -1 30 -2
123 -1 83 -1 64 -1 499 -1 68 -1 213 -1 44 -1 77 -1 599 -1 3756 -1 498 -1 30 -2
2284 -1 2468 -1 162 -1 123 -1 764 -1 64 -1 2984 -1 50 -1 125 -1 30 -2
124 -1 201 -1 183 -1 2850 -1 64 -1 1040 -1 22 -1 2544 -1 30 -2