2 -1 #SUP: 23
7 -1 #SUP: 2
8 -1 #SUP: 5
10 -1 #SUP: 5
16 -1 #SUP: 8
22 -1 #SUP: 14
26 -1 #SUP: 4
27 -1 #SUP: 5
28 -1 #SUP: 4
31 -1 #SUP: 7
32 -1 #SUP: 13
33 -1 #SUP: 2
41 -1 #SUP: 7
48 -1 #SUP: 3
50 -1 #SUP: 4
64 -1 #SUP: 26
65 -1 #SUP: 18
66 -1 #SUP: 2
67 -1 #SUP: 9
73 -1 #SUP: 3
76 -1 #SUP: 3
77 -1 #SUP: 37
78 -1 #SUP: 3
82 -1 #SUP: 2
117 -1 #SUP: 2
120 -1 #SUP: 4
123 -1 #SUP: 36
132 -1 #SUP: 2
134 -1 #SUP: 3
144 -1 #SUP: 4
151 -1 #SUP: 3
152 -1 #SUP: 7
154 -1 #SUP: 16
156 -1 #SUP: 2
160 -1 #SUP: 5
162 -1 #SUP: 3
164 -1 #SUP: 4
165 -1 #SUP: 2
167 -1 #SUP: 2
169 -1 #SUP: 2
170 -1 #SUP: 13
171 -1 #SUP: 5
174 -1 #SUP: 2
175 -1 #SUP: 3
183 -1 #SUP: 7
193 -1 #SUP: 20
196 -1 #SUP: 4
206 -1 #SUP: 3
212 -1 #SUP: 3
220 -1 #SUP: 5
221 -1 #SUP: 2
222 -1 #SUP: 2
225 -1 #SUP: 9
236 -1 #SUP: 5
237 -1 #SUP: 2
244 -1 #SUP: 6
256 -1 #SUP: 4
260 -1 #SUP: 2
262 -1 #SUP: 3
280 -1 #SUP: 4
286 -1 #SUP: 2
291 -1 #SUP: 2
294 -1 #SUP: 2
318 -1 #SUP: 2
322 -1 #SUP: 2
334 -1 #SUP: 3
340 -1 #SUP: 2
349 -1 #SUP: 2
356 -1 #SUP: 6
364 -1 #SUP: 5
369 -1 #SUP: 4
381 -1 #SUP: 3
383 -1 #SUP: 2
393 -1 #SUP: 3
396 -1 #SUP: 2
407 -1 #SUP: 2
411 -1 #SUP: 3
438 -1 #SUP: 2
441 -1 #SUP: 5
473 -1 #SUP: 3
508 -1 #SUP: 2
519 -1 #SUP: 2
520 -1 #SUP: 2
529 -1 #SUP: 5
533 -1 #SUP: 4
567 -1 #SUP: 2
599 -1 #SUP: 7
628 -1 #SUP: 4
654 -1 #SUP: 2
657 -1 #SUP: 3
693 -1 #SUP: 2
765 -1 #SUP: 2
773 -1 #SUP: 2
778 -1 #SUP: 2
850 -1 #SUP: 2
871 -1 #SUP: 3
929 -1 #SUP: 4
1029 -1 #SUP: 3
1030 -1 #SUP: 2
1152 -1 #SUP: 2
1166 -1 #SUP: 2
1184 -1 #SUP: 2
1205 -1 #SUP: 2
1216 -1 #SUP: 2
1245 -1 #SUP: 2
1685 -1 #SUP: 2
1712 -1 #SUP: 2
1737 -1 #SUP: 2
1793 -1 #SUP: 3
1934 -1 #SUP: 2
2521 -1 #SUP: 3
2555 -1 #SUP: 2
2658 -1 #SUP: 3
2690 -1 #SUP: 2
2880 -1 #SUP: 2
2897 -1 #SUP: 2
3014 -1 #SUP: 3
3723 -1 #SUP: 2
4146 -1 #SUP: 2
5419 -1 #SUP: 2
6265 -1 #SUP: 2
6821 -1 #SUP: 2
10700 -1 #SUP: 2
10892 -1 #SUP: 2
13737 -1 #SUP: 2
13849 -1 #SUP: 3
2 -1 10 -1 #SUP: 2
2 -1 16 -1 #SUP: 2
2 -1 22 -1 #SUP: 2
2 -1 27 -1 #SUP: 2
2 -1 32 -1 #SUP: 3
2 -1 64 -1 #SUP: 6
2 -1 65 -1 #SUP: 6
2 -1 67 -1 #SUP: 2
2 -1 77 -1 #SUP: 8
2 -1 123 -1 #SUP: 6
2 -1 151 -1 #SUP: 2
2 -1 154 -1 #SUP: 5
2 -1 160 -1 #SUP: 2
2 -1 170 -1 #SUP: 4
2 -1 174 -1 #SUP: 2
2 -1 193 -1 #SUP: 7
2 -1 206 -1 #SUP: 2
2 -1 222 -1 #SUP: 2
2 -1 225 -1 #SUP: 2
2 -1 244 -1 #SUP: 2
2 -1 318 -1 #SUP: 2
2 -1 356 -1 #SUP: 2
2 -1 369 -1 #SUP: 2
2 -1 381 -1 #SUP: 2
2 -1 529 -1 #SUP: 2
2 -1 628 -1 #SUP: 2
2 -1 929 -1 #SUP: 2
2 -1 2521 -1 #SUP: 2
2 -1 2658 -1 #SUP: 2
8 -1 26 -1 #SUP: 4
8 -1 28 -1 #SUP: 4
8 -1 64 -1 #SUP: 2
8 -1 123 -1 #SUP: 2
10 -1 64 -1 #SUP: 2
10 -1 225 -1 #SUP: 3
16 -1 77 -1 #SUP: 3
16 -1 123 -1 #SUP: 2
16 -1 154 -1 #SUP: 2
22 -1 2 -1 #SUP: 4
22 -1 22 -1 #SUP: 2
22 -1 32 -1 #SUP: 3
22 -1 65 -1 #SUP: 2
22 -1 77 -1 #SUP: 5
22 -1 123 -1 #SUP: 3
22 -1 132 -1 #SUP: 2
22 -1 170 -1 #SUP: 2
22 -1 244 -1 #SUP: 2
22 -1 473 -1 #SUP: 3
22 -1 13849 -1 #SUP: 2
26 -1 64 -1 #SUP: 2
26 -1 123 -1 #SUP: 3
27 -1 41 -1 #SUP: 2
27 -1 64 -1 #SUP: 3
27 -1 77 -1 #SUP: 2
27 -1 134 -1 #SUP: 2
27 -1 256 -1 #SUP: 2
28 -1 26 -1 #SUP: 4
28 -1 64 -1 #SUP: 2
28 -1 123 -1 #SUP: 2
31 -1 2 -1 #SUP: 3
31 -1 41 -1 #SUP: 2
31 -1 64 -1 #SUP: 2
31 -1 193 -1 #SUP: 2
31 -1 212 -1 #SUP: 2
31 -1 369 -1 #SUP: 2
32 -1 2 -1 #SUP: 4
32 -1 22 -1 #SUP: 2
32 -1 41 -1 #SUP: 3
32 -1 64 -1 #SUP: 5
32 -1 67 -1 #SUP: 3
32 -1 77 -1 #SUP: 2
32 -1 123 -1 #SUP: 4
32 -1 164 -1 #SUP: 2
32 -1 183 -1 #SUP: 2
32 -1 193 -1 #SUP: 3
32 -1 369 -1 #SUP: 2
32 -1 1152 -1 #SUP: 2
32 -1 1184 -1 #SUP: 2
32 -1 13849 -1 #SUP: 3
33 -1 77 -1 #SUP: 2
41 -1 22 -1 #SUP: 3
41 -1 64 -1 #SUP: 3
41 -1 77 -1 #SUP: 2
41 -1 134 -1 #SUP: 2
41 -1 183 -1 #SUP: 3
41 -1 256 -1 #SUP: 2
41 -1 441 -1 #SUP: 2
48 -1 280 -1 #SUP: 2
50 -1 10 -1 #SUP: 2
64 -1 2 -1 #SUP: 6
64 -1 10 -1 #SUP: 2
64 -1 16 -1 #SUP: 2
64 -1 22 -1 #SUP: 2
64 -1 27 -1 #SUP: 2
64 -1 64 -1 #SUP: 5
64 -1 65 -1 #SUP: 2
64 -1 67 -1 #SUP: 6
64 -1 77 -1 #SUP: 5
64 -1 123 -1 #SUP: 5
64 -1 144 -1 #SUP: 2
64 -1 154 -1 #SUP: 4
64 -1 175 -1 #SUP: 2
64 -1 193 -1 #SUP: 2
64 -1 225 -1 #SUP: 3
64 -1 256 -1 #SUP: 2
64 -1 340 -1 #SUP: 2
64 -1 381 -1 #SUP: 2
64 -1 929 -1 #SUP: 3
64 -1 1152 -1 #SUP: 2
64 -1 2521 -1 #SUP: 3
64 -1 10892 -1 #SUP: 2
65 -1 2 -1 #SUP: 4
65 -1 10 -1 #SUP: 2
65 -1 16 -1 #SUP: 2
65 -1 32 -1 #SUP: 2
65 -1 64 -1 #SUP: 5
65 -1 65 -1 #SUP: 2
65 -1 77 -1 #SUP: 9
65 -1 123 -1 #SUP: 5
65 -1 152 -1 #SUP: 2
65 -1 154 -1 #SUP: 4
65 -1 160 -1 #SUP: 2
65 -1 171 -1 #SUP: 2
65 -1 193 -1 #SUP: 2
65 -1 206 -1 #SUP: 2
65 -1 225 -1 #SUP: 2
65 -1 236 -1 #SUP: 2
65 -1 244 -1 #SUP: 3
65 -1 599 -1 #SUP: 2
65 -1 628 -1 #SUP: 2
65 -1 773 -1 #SUP: 2
65 -1 1184 -1 #SUP: 2
67 -1 64 -1 #SUP: 4
67 -1 67 -1 #SUP: 2
67 -1 1152 -1 #SUP: 2
76 -1 123 -1 #SUP: 2
77 -1 2 -1 #SUP: 10
77 -1 10 -1 #SUP: 2
77 -1 16 -1 #SUP: 3
77 -1 22 -1 #SUP: 2
77 -1 27 -1 #SUP: 2
77 -1 31 -1 #SUP: 3
77 -1 32 -1 #SUP: 6
77 -1 41 -1 #SUP: 3
77 -1 50 -1 #SUP: 3
77 -1 64 -1 #SUP: 7
77 -1 65 -1 #SUP: 8
77 -1 67 -1 #SUP: 2
77 -1 76 -1 #SUP: 2
77 -1 77 -1 #SUP: 5
77 -1 123 -1 #SUP: 11
77 -1 151 -1 #SUP: 2
77 -1 152 -1 #SUP: 2
77 -1 154 -1 #SUP: 9
77 -1 162 -1 #SUP: 2
77 -1 164 -1 #SUP: 3
77 -1 170 -1 #SUP: 6
77 -1 171 -1 #SUP: 2
77 -1 183 -1 #SUP: 4
77 -1 193 -1 #SUP: 9
77 -1 196 -1 #SUP: 2
77 -1 212 -1 #SUP: 3
77 -1 220 -1 #SUP: 4
77 -1 222 -1 #SUP: 2
77 -1 225 -1 #SUP: 3
77 -1 244 -1 #SUP: 2
77 -1 256 -1 #SUP: 2
77 -1 356 -1 #SUP: 2
77 -1 364 -1 #SUP: 2
77 -1 411 -1 #SUP: 2
77 -1 533 -1 #SUP: 2
77 -1 599 -1 #SUP: 2
77 -1 628 -1 #SUP: 2
77 -1 657 -1 #SUP: 2
77 -1 765 -1 #SUP: 2
77 -1 1245 -1 #SUP: 2
77 -1 2521 -1 #SUP: 2
77 -1 3723 -1 #SUP: 2
78 -1 2 -1 #SUP: 2
78 -1 32 -1 #SUP: 2
78 -1 77 -1 #SUP: 2
78 -1 183 -1 #SUP: 2
82 -1 123 -1 #SUP: 2
120 -1 356 -1 #SUP: 2
120 -1 6265 -1 #SUP: 2
123 -1 2 -1 #SUP: 5
123 -1 10 -1 #SUP: 2
123 -1 22 -1 #SUP: 4
123 -1 50 -1 #SUP: 3
123 -1 64 -1 #SUP: 10
123 -1 65 -1 #SUP: 6
123 -1 67 -1 #SUP: 3
123 -1 77 -1 #SUP: 10
123 -1 120 -1 #SUP: 3
123 -1 123 -1 #SUP: 10
123 -1 144 -1 #SUP: 2
123 -1 151 -1 #SUP: 2
123 -1 152 -1 #SUP: 2
123 -1 154 -1 #SUP: 9
123 -1 160 -1 #SUP: 3
123 -1 164 -1 #SUP: 2
123 -1 170 -1 #SUP: 2
123 -1 174 -1 #SUP: 2
123 -1 175 -1 #SUP: 2
123 -1 193 -1 #SUP: 5
123 -1 206 -1 #SUP: 3
123 -1 221 -1 #SUP: 2
123 -1 225 -1 #SUP: 3
123 -1 237 -1 #SUP: 2
123 -1 286 -1 #SUP: 2
123 -1 334 -1 #SUP: 2
123 -1 356 -1 #SUP: 3
123 -1 381 -1 #SUP: 2
123 -1 396 -1 #SUP: 2
123 -1 407 -1 #SUP: 2
123 -1 441 -1 #SUP: 2
123 -1 473 -1 #SUP: 2
123 -1 628 -1 #SUP: 3
123 -1 654 -1 #SUP: 2
123 -1 765 -1 #SUP: 2
123 -1 929 -1 #SUP: 3
123 -1 1029 -1 #SUP: 2
123 -1 1152 -1 #SUP: 2
123 -1 1793 -1 #SUP: 3
123 -1 6821 -1 #SUP: 2
134 -1 2 -1 #SUP: 2
134 -1 64 -1 #SUP: 2
151 -1 123 -1 #SUP: 2
151 -1 628 -1 #SUP: 2
152 -1 64 -1 #SUP: 2
152 -1 77 -1 #SUP: 3
152 -1 123 -1 #SUP: 4
154 -1 2 -1 #SUP: 3
154 -1 16 -1 #SUP: 2
154 -1 22 -1 #SUP: 3
154 -1 32 -1 #SUP: 2
154 -1 41 -1 #SUP: 2
154 -1 64 -1 #SUP: 5
154 -1 65 -1 #SUP: 3
154 -1 77 -1 #SUP: 4
154 -1 123 -1 #SUP: 4
154 -1 134 -1 #SUP: 2
154 -1 154 -1 #SUP: 3
154 -1 170 -1 #SUP: 4
154 -1 183 -1 #SUP: 2
154 -1 225 -1 #SUP: 2
154 -1 364 -1 #SUP: 2
154 -1 1205 -1 #SUP: 2
154 -1 2658 -1 #SUP: 2
154 -1 2690 -1 #SUP: 2
160 -1 64 -1 #SUP: 4
160 -1 144 -1 #SUP: 2
162 -1 123 -1 #SUP: 2
162 -1 225 -1 #SUP: 2
164 -1 50 -1 #SUP: 2
165 -1 64 -1 #SUP: 2
165 -1 160 -1 #SUP: 2
170 -1 2 -1 #SUP: 2
170 -1 16 -1 #SUP: 2
170 -1 22 -1 #SUP: 4
170 -1 32 -1 #SUP: 4
170 -1 41 -1 #SUP: 2
170 -1 64 -1 #SUP: 2
170 -1 65 -1 #SUP: 2
170 -1 73 -1 #SUP: 2
170 -1 77 -1 #SUP: 5
170 -1 123 -1 #SUP: 3
170 -1 152 -1 #SUP: 2
170 -1 154 -1 #SUP: 4
170 -1 193 -1 #SUP: 2
170 -1 225 -1 #SUP: 2
170 -1 244 -1 #SUP: 2
170 -1 1245 -1 #SUP: 2
170 -1 2897 -1 #SUP: 2
170 -1 4146 -1 #SUP: 2
170 -1 13849 -1 #SUP: 2
171 -1 77 -1 #SUP: 3
171 -1 152 -1 #SUP: 2
171 -1 171 -1 #SUP: 2
174 -1 77 -1 #SUP: 2
174 -1 154 -1 #SUP: 2
175 -1 50 -1 #SUP: 2
183 -1 2 -1 #SUP: 2
183 -1 22 -1 #SUP: 2
183 -1 32 -1 #SUP: 2
183 -1 77 -1 #SUP: 2
193 -1 2 -1 #SUP: 2
193 -1 22 -1 #SUP: 2
193 -1 31 -1 #SUP: 2
193 -1 32 -1 #SUP: 4
193 -1 41 -1 #SUP: 2
193 -1 64 -1 #SUP: 5
193 -1 65 -1 #SUP: 4
193 -1 77 -1 #SUP: 4
193 -1 123 -1 #SUP: 6
193 -1 152 -1 #SUP: 3
193 -1 154 -1 #SUP: 5
193 -1 170 -1 #SUP: 6
193 -1 183 -1 #SUP: 2
193 -1 193 -1 #SUP: 2
193 -1 206 -1 #SUP: 2
193 -1 220 -1 #SUP: 3
193 -1 225 -1 #SUP: 2
193 -1 236 -1 #SUP: 2
193 -1 383 -1 #SUP: 2
193 -1 529 -1 #SUP: 3
193 -1 599 -1 #SUP: 2
193 -1 657 -1 #SUP: 2
193 -1 1184 -1 #SUP: 2
196 -1 64 -1 #SUP: 2
196 -1 2521 -1 #SUP: 2
196 -1 2880 -1 #SUP: 2
196 -1 10892 -1 #SUP: 2
206 -1 64 -1 #SUP: 2
206 -1 123 -1 #SUP: 2
206 -1 193 -1 #SUP: 2
220 -1 2 -1 #SUP: 2
220 -1 64 -1 #SUP: 2
220 -1 154 -1 #SUP: 2
221 -1 77 -1 #SUP: 2
221 -1 154 -1 #SUP: 2
222 -1 32 -1 #SUP: 2
225 -1 2 -1 #SUP: 2
225 -1 32 -1 #SUP: 2
225 -1 64 -1 #SUP: 2
225 -1 65 -1 #SUP: 3
225 -1 77 -1 #SUP: 5
225 -1 154 -1 #SUP: 2
225 -1 170 -1 #SUP: 2
225 -1 183 -1 #SUP: 2
225 -1 441 -1 #SUP: 2
225 -1 871 -1 #SUP: 2
225 -1 13737 -1 #SUP: 2
236 -1 77 -1 #SUP: 3
236 -1 152 -1 #SUP: 2
244 -1 65 -1 #SUP: 3
244 -1 77 -1 #SUP: 3
244 -1 154 -1 #SUP: 2
244 -1 170 -1 #SUP: 2
244 -1 193 -1 #SUP: 4
244 -1 291 -1 #SUP: 2
262 -1 1685 -1 #SUP: 2
280 -1 154 -1 #SUP: 2
286 -1 225 -1 #SUP: 2
286 -1 13737 -1 #SUP: 2
291 -1 193 -1 #SUP: 2
294 -1 1737 -1 #SUP: 2
318 -1 77 -1 #SUP: 2
318 -1 183 -1 #SUP: 2
334 -1 22 -1 #SUP: 2
334 -1 65 -1 #SUP: 2
334 -1 473 -1 #SUP: 2
356 -1 65 -1 #SUP: 2
364 -1 2 -1 #SUP: 2
364 -1 16 -1 #SUP: 2
383 -1 32 -1 #SUP: 2
383 -1 123 -1 #SUP: 2
393 -1 77 -1 #SUP: 3
393 -1 123 -1 #SUP: 2
393 -1 164 -1 #SUP: 2
407 -1 2 -1 #SUP: 2
407 -1 65 -1 #SUP: 2
407 -1 929 -1 #SUP: 2
438 -1 77 -1 #SUP: 2
441 -1 16 -1 #SUP: 2
441 -1 64 -1 #SUP: 2
441 -1 77 -1 #SUP: 3
441 -1 154 -1 #SUP: 2
441 -1 381 -1 #SUP: 2
473 -1 65 -1 #SUP: 2
473 -1 244 -1 #SUP: 2
520 -1 123 -1 #SUP: 2
529 -1 77 -1 #SUP: 2
533 -1 123 -1 #SUP: 3
533 -1 170 -1 #SUP: 2
599 -1 2 -1 #SUP: 3
599 -1 64 -1 #SUP: 2
599 -1 77 -1 #SUP: 2
599 -1 123 -1 #SUP: 2
599 -1 154 -1 #SUP: 2
599 -1 1205 -1 #SUP: 2
599 -1 2690 -1 #SUP: 2
628 -1 64 -1 #SUP: 2
628 -1 123 -1 #SUP: 3
628 -1 160 -1 #SUP: 2
693 -1 65 -1 #SUP: 2
693 -1 77 -1 #SUP: 2
693 -1 170 -1 #SUP: 2
765 -1 154 -1 #SUP: 2
773 -1 64 -1 #SUP: 2
850 -1 2 -1 #SUP: 2
850 -1 65 -1 #SUP: 2
850 -1 77 -1 #SUP: 2
871 -1 64 -1 #SUP: 2
871 -1 77 -1 #SUP: 2
929 -1 2 -1 #SUP: 2
929 -1 65 -1 #SUP: 2
929 -1 77 -1 #SUP: 3
929 -1 123 -1 #SUP: 3
929 -1 154 -1 #SUP: 2
929 -1 193 -1 #SUP: 2
1166 -1 170 -1 #SUP: 2
1205 -1 2690 -1 #SUP: 2
1216 -1 65 -1 #SUP: 2
1245 -1 123 -1 #SUP: 2
1712 -1 2 -1 #SUP: 2
1712 -1 31 -1 #SUP: 2
1793 -1 77 -1 #SUP: 2
1793 -1 123 -1 #SUP: 2
1793 -1 1029 -1 #SUP: 2
2521 -1 10892 -1 #SUP: 2
2555 -1 77 -1 #SUP: 2
2555 -1 123 -1 #SUP: 2
3014 -1 77 -1 #SUP: 2
5419 -1 64 -1 #SUP: 2
5419 -1 196 -1 #SUP: 2
5419 -1 2521 -1 #SUP: 2
6265 -1 27 -1 #SUP: 2
6821 -1 193 -1 #SUP: 2
13849 -1 64 -1 #SUP: 2
2 -1 64 -1 67 -1 #SUP: 2
2 -1 64 -1 2521 -1 #SUP: 2
2 -1 65 -1 10 -1 #SUP: 2
2 -1 65 -1 77 -1 #SUP: 3
2 -1 65 -1 154 -1 #SUP: 2
2 -1 77 -1 123 -1 #SUP: 2
2 -1 77 -1 170 -1 #SUP: 2
2 -1 123 -1 64 -1 #SUP: 2
2 -1 123 -1 65 -1 #SUP: 2
2 -1 123 -1 77 -1 #SUP: 2
2 -1 123 -1 123 -1 #SUP: 2
2 -1 123 -1 151 -1 #SUP: 2
2 -1 123 -1 160 -1 #SUP: 2
2 -1 123 -1 174 -1 #SUP: 2
2 -1 123 -1 206 -1 #SUP: 2
2 -1 123 -1 628 -1 #SUP: 2
2 -1 151 -1 628 -1 #SUP: 2
2 -1 154 -1 65 -1 #SUP: 2
2 -1 160 -1 64 -1 #SUP: 2
2 -1 193 -1 32 -1 #SUP: 2
2 -1 193 -1 65 -1 #SUP: 3
2 -1 193 -1 77 -1 #SUP: 2
2 -1 193 -1 123 -1 #SUP: 2
2 -1 193 -1 154 -1 #SUP: 2
2 -1 193 -1 170 -1 #SUP: 2
2 -1 193 -1 529 -1 #SUP: 2
2 -1 222 -1 32 -1 #SUP: 2
2 -1 318 -1 77 -1 #SUP: 2
8 -1 26 -1 64 -1 #SUP: 2
8 -1 26 -1 123 -1 #SUP: 2
8 -1 28 -1 26 -1 #SUP: 4
8 -1 28 -1 64 -1 #SUP: 2
8 -1 28 -1 123 -1 #SUP: 2
10 -1 225 -1 64 -1 #SUP: 2
16 -1 77 -1 123 -1 #SUP: 2
22 -1 32 -1 13849 -1 #SUP: 2
22 -1 170 -1 22 -1 #SUP: 2
22 -1 473 -1 65 -1 #SUP: 2
22 -1 473 -1 244 -1 #SUP: 2
27 -1 41 -1 134 -1 #SUP: 2
27 -1 41 -1 256 -1 #SUP: 2
28 -1 26 -1 64 -1 #SUP: 2
28 -1 26 -1 123 -1 #SUP: 2
32 -1 2 -1 64 -1 #SUP: 2
32 -1 2 -1 67 -1 #SUP: 2
32 -1 41 -1 64 -1 #SUP: 2
32 -1 41 -1 183 -1 #SUP: 2
32 -1 64 -1 67 -1 #SUP: 3
32 -1 64 -1 1152 -1 #SUP: 2
32 -1 67 -1 1152 -1 #SUP: 2
32 -1 123 -1 64 -1 #SUP: 3
32 -1 123 -1 67 -1 #SUP: 2
32 -1 123 -1 1152 -1 #SUP: 2
32 -1 13849 -1 64 -1 #SUP: 2
41 -1 64 -1 22 -1 #SUP: 2
64 -1 2 -1 16 -1 #SUP: 2
64 -1 67 -1 64 -1 #SUP: 2
64 -1 67 -1 1152 -1 #SUP: 2
64 -1 77 -1 2 -1 #SUP: 2
64 -1 77 -1 123 -1 #SUP: 2
64 -1 123 -1 65 -1 #SUP: 2
64 -1 154 -1 123 -1 #SUP: 2
64 -1 929 -1 123 -1 #SUP: 2
64 -1 2521 -1 10892 -1 #SUP: 2
65 -1 2 -1 77 -1 #SUP: 2
65 -1 2 -1 123 -1 #SUP: 3
65 -1 10 -1 225 -1 #SUP: 2
65 -1 77 -1 2 -1 #SUP: 2
65 -1 77 -1 16 -1 #SUP: 2
65 -1 77 -1 77 -1 #SUP: 2
65 -1 77 -1 123 -1 #SUP: 2
65 -1 77 -1 599 -1 #SUP: 2
65 -1 123 -1 64 -1 #SUP: 3
65 -1 123 -1 160 -1 #SUP: 2
65 -1 123 -1 206 -1 #SUP: 2
65 -1 160 -1 64 -1 #SUP: 2
65 -1 628 -1 123 -1 #SUP: 2
65 -1 773 -1 64 -1 #SUP: 2
67 -1 64 -1 64 -1 #SUP: 2
67 -1 64 -1 67 -1 #SUP: 2
67 -1 67 -1 64 -1 #SUP: 2
77 -1 2 -1 64 -1 #SUP: 2
77 -1 2 -1 65 -1 #SUP: 4
77 -1 2 -1 77 -1 #SUP: 2
77 -1 2 -1 123 -1 #SUP: 2
77 -1 2 -1 154 -1 #SUP: 3
77 -1 2 -1 193 -1 #SUP: 2
77 -1 2 -1 222 -1 #SUP: 2
77 -1 2 -1 356 -1 #SUP: 2
77 -1 31 -1 2 -1 #SUP: 2
77 -1 41 -1 183 -1 #SUP: 2
77 -1 64 -1 64 -1 #SUP: 2
77 -1 64 -1 225 -1 #SUP: 2
77 -1 64 -1 2521 -1 #SUP: 2
77 -1 65 -1 32 -1 #SUP: 2
77 -1 65 -1 154 -1 #SUP: 3
77 -1 67 -1 64 -1 #SUP: 2
77 -1 77 -1 65 -1 #SUP: 2
77 -1 123 -1 50 -1 #SUP: 2
77 -1 123 -1 64 -1 #SUP: 2
77 -1 123 -1 65 -1 #SUP: 2
77 -1 123 -1 123 -1 #SUP: 2
77 -1 123 -1 154 -1 #SUP: 4
77 -1 123 -1 164 -1 #SUP: 2
77 -1 123 -1 170 -1 #SUP: 2
77 -1 123 -1 193 -1 #SUP: 3
77 -1 123 -1 628 -1 #SUP: 2
77 -1 123 -1 765 -1 #SUP: 2
77 -1 154 -1 65 -1 #SUP: 3
77 -1 154 -1 123 -1 #SUP: 2
77 -1 154 -1 170 -1 #SUP: 3
77 -1 164 -1 50 -1 #SUP: 2
77 -1 170 -1 65 -1 #SUP: 2
77 -1 170 -1 154 -1 #SUP: 2
77 -1 193 -1 64 -1 #SUP: 2
77 -1 193 -1 65 -1 #SUP: 3
77 -1 193 -1 154 -1 #SUP: 3
77 -1 193 -1 170 -1 #SUP: 2
77 -1 193 -1 220 -1 #SUP: 2
77 -1 220 -1 64 -1 #SUP: 2
77 -1 244 -1 65 -1 #SUP: 2
77 -1 244 -1 193 -1 #SUP: 2
77 -1 364 -1 2 -1 #SUP: 2
77 -1 533 -1 123 -1 #SUP: 2
77 -1 628 -1 123 -1 #SUP: 2
77 -1 765 -1 154 -1 #SUP: 2
123 -1 2 -1 123 -1 #SUP: 2
123 -1 2 -1 381 -1 #SUP: 2
123 -1 22 -1 65 -1 #SUP: 2
123 -1 22 -1 473 -1 #SUP: 2
123 -1 64 -1 2 -1 #SUP: 2
123 -1 64 -1 64 -1 #SUP: 2
123 -1 64 -1 67 -1 #SUP: 3
123 -1 64 -1 77 -1 #SUP: 3
123 -1 64 -1 123 -1 #SUP: 3
123 -1 64 -1 154 -1 #SUP: 3
123 -1 64 -1 929 -1 #SUP: 2
123 -1 64 -1 1152 -1 #SUP: 2
123 -1 65 -1 77 -1 #SUP: 3
123 -1 65 -1 123 -1 #SUP: 2
123 -1 67 -1 1152 -1 #SUP: 2
123 -1 77 -1 2 -1 #SUP: 2
123 -1 77 -1 123 -1 #SUP: 6
123 -1 77 -1 154 -1 #SUP: 2
123 -1 77 -1 164 -1 #SUP: 2
123 -1 77 -1 193 -1 #SUP: 2
123 -1 120 -1 356 -1 #SUP: 2
123 -1 123 -1 64 -1 #SUP: 2
123 -1 123 -1 160 -1 #SUP: 2
123 -1 123 -1 164 -1 #SUP: 2
123 -1 123 -1 193 -1 #SUP: 2
123 -1 151 -1 123 -1 #SUP: 2
123 -1 151 -1 628 -1 #SUP: 2
123 -1 154 -1 22 -1 #SUP: 2
123 -1 154 -1 123 -1 #SUP: 2
123 -1 154 -1 170 -1 #SUP: 2
123 -1 160 -1 64 -1 #SUP: 3
123 -1 174 -1 77 -1 #SUP: 2
123 -1 174 -1 154 -1 #SUP: 2
123 -1 193 -1 123 -1 #SUP: 2
123 -1 206 -1 64 -1 #SUP: 2
123 -1 206 -1 123 -1 #SUP: 2
123 -1 206 -1 193 -1 #SUP: 2
123 -1 221 -1 77 -1 #SUP: 2
123 -1 225 -1 77 -1 #SUP: 2
123 -1 286 -1 225 -1 #SUP: 2
123 -1 334 -1 22 -1 #SUP: 2
123 -1 334 -1 65 -1 #SUP: 2
123 -1 334 -1 473 -1 #SUP: 2
123 -1 407 -1 2 -1 #SUP: 2
123 -1 407 -1 65 -1 #SUP: 2
123 -1 407 -1 929 -1 #SUP: 2
123 -1 473 -1 65 -1 #SUP: 2
123 -1 628 -1 123 -1 #SUP: 3
123 -1 628 -1 160 -1 #SUP: 2
123 -1 765 -1 154 -1 #SUP: 2
123 -1 929 -1 2 -1 #SUP: 2
123 -1 929 -1 123 -1 #SUP: 2
123 -1 1793 -1 77 -1 #SUP: 2
123 -1 1793 -1 123 -1 #SUP: 2
123 -1 1793 -1 1029 -1 #SUP: 2
123 -1 6821 -1 193 -1 #SUP: 2
134 -1 64 -1 2 -1 #SUP: 2
151 -1 628 -1 123 -1 #SUP: 2
154 -1 41 -1 183 -1 #SUP: 2
154 -1 64 -1 2 -1 #SUP: 2
154 -1 123 -1 64 -1 #SUP: 2
154 -1 123 -1 154 -1 #SUP: 2
154 -1 154 -1 123 -1 #SUP: 2
154 -1 225 -1 64 -1 #SUP: 2
154 -1 1205 -1 2690 -1 #SUP: 2
160 -1 64 -1 144 -1 #SUP: 2
165 -1 160 -1 64 -1 #SUP: 2
170 -1 22 -1 32 -1 #SUP: 3
170 -1 22 -1 77 -1 #SUP: 2
170 -1 22 -1 13849 -1 #SUP: 2
170 -1 32 -1 13849 -1 #SUP: 2
170 -1 152 -1 123 -1 #SUP: 2
171 -1 77 -1 152 -1 #SUP: 2
171 -1 77 -1 171 -1 #SUP: 2
174 -1 77 -1 154 -1 #SUP: 2
193 -1 2 -1 123 -1 #SUP: 2
193 -1 65 -1 123 -1 #SUP: 2
193 -1 65 -1 154 -1 #SUP: 2
193 -1 65 -1 206 -1 #SUP: 2
193 -1 77 -1 64 -1 #SUP: 2
193 -1 77 -1 123 -1 #SUP: 2
193 -1 77 -1 225 -1 #SUP: 2
193 -1 123 -1 206 -1 #SUP: 2
193 -1 170 -1 64 -1 #SUP: 2
193 -1 170 -1 152 -1 #SUP: 2
193 -1 170 -1 154 -1 #SUP: 2
193 -1 193 -1 77 -1 #SUP: 2
193 -1 193 -1 123 -1 #SUP: 2
193 -1 220 -1 64 -1 #SUP: 2
193 -1 383 -1 32 -1 #SUP: 2
196 -1 64 -1 2521 -1 #SUP: 2
196 -1 64 -1 10892 -1 #SUP: 2
196 -1 2521 -1 10892 -1 #SUP: 2
221 -1 77 -1 154 -1 #SUP: 2
225 -1 64 -1 77 -1 #SUP: 2
225 -1 65 -1 77 -1 #SUP: 2
225 -1 77 -1 170 -1 #SUP: 2
244 -1 77 -1 65 -1 #SUP: 2
244 -1 77 -1 154 -1 #SUP: 2
244 -1 77 -1 170 -1 #SUP: 2
244 -1 77 -1 193 -1 #SUP: 3
244 -1 170 -1 154 -1 #SUP: 2
244 -1 193 -1 65 -1 #SUP: 2
244 -1 193 -1 154 -1 #SUP: 2
244 -1 291 -1 193 -1 #SUP: 2
286 -1 225 -1 13737 -1 #SUP: 2
318 -1 77 -1 183 -1 #SUP: 2
334 -1 22 -1 65 -1 #SUP: 2
334 -1 22 -1 473 -1 #SUP: 2
334 -1 473 -1 65 -1 #SUP: 2
383 -1 32 -1 123 -1 #SUP: 2
393 -1 77 -1 123 -1 #SUP: 2
393 -1 77 -1 164 -1 #SUP: 2
393 -1 123 -1 77 -1 #SUP: 2
393 -1 123 -1 123 -1 #SUP: 2
393 -1 123 -1 164 -1 #SUP: 2
407 -1 929 -1 2 -1 #SUP: 2
599 -1 154 -1 1205 -1 #SUP: 2
599 -1 154 -1 2690 -1 #SUP: 2
599 -1 1205 -1 2690 -1 #SUP: 2
628 -1 123 -1 64 -1 #SUP: 2
628 -1 123 -1 160 -1 #SUP: 2
628 -1 160 -1 64 -1 #SUP: 2
693 -1 77 -1 65 -1 #SUP: 2
693 -1 77 -1 170 -1 #SUP: 2
693 -1 170 -1 65 -1 #SUP: 2
773 -1 64 -1 64 -1 #SUP: 2
850 -1 2 -1 65 -1 #SUP: 2
850 -1 77 -1 2 -1 #SUP: 2
850 -1 77 -1 65 -1 #SUP: 2
929 -1 2 -1 65 -1 #SUP: 2
929 -1 2 -1 77 -1 #SUP: 2
929 -1 2 -1 123 -1 #SUP: 2
929 -1 77 -1 154 -1 #SUP: 2
929 -1 123 -1 65 -1 #SUP: 2
1712 -1 31 -1 2 -1 #SUP: 2
1793 -1 77 -1 123 -1 #SUP: 2
2555 -1 77 -1 123 -1 #SUP: 2
5419 -1 64 -1 2521 -1 #SUP: 2
5419 -1 196 -1 64 -1 #SUP: 2
5419 -1 196 -1 2521 -1 #SUP: 2
2 -1 123 -1 151 -1 628 -1 #SUP: 2
2 -1 123 -1 160 -1 64 -1 #SUP: 2
2 -1 193 -1 65 -1 154 -1 #SUP: 2
8 -1 28 -1 26 -1 64 -1 #SUP: 2
8 -1 28 -1 26 -1 123 -1 #SUP: 2
32 -1 2 -1 64 -1 67 -1 #SUP: 2
32 -1 64 -1 67 -1 1152 -1 #SUP: 2
32 -1 123 -1 64 -1 67 -1 #SUP: 2
32 -1 123 -1 64 -1 1152 -1 #SUP: 2
32 -1 123 -1 67 -1 1152 -1 #SUP: 2
65 -1 123 -1 160 -1 64 -1 #SUP: 2
67 -1 64 -1 67 -1 64 -1 #SUP: 2
77 -1 2 -1 65 -1 154 -1 #SUP: 2
77 -1 2 -1 154 -1 65 -1 #SUP: 2
77 -1 2 -1 193 -1 65 -1 #SUP: 2
77 -1 2 -1 193 -1 154 -1 #SUP: 2
77 -1 123 -1 154 -1 170 -1 #SUP: 2
77 -1 123 -1 628 -1 123 -1 #SUP: 2
77 -1 123 -1 765 -1 154 -1 #SUP: 2
77 -1 193 -1 65 -1 154 -1 #SUP: 2
77 -1 193 -1 220 -1 64 -1 #SUP: 2
123 -1 22 -1 473 -1 65 -1 #SUP: 2
123 -1 64 -1 67 -1 1152 -1 #SUP: 2
123 -1 64 -1 77 -1 2 -1 #SUP: 2
123 -1 77 -1 123 -1 164 -1 #SUP: 2
123 -1 151 -1 628 -1 123 -1 #SUP: 2
123 -1 174 -1 77 -1 154 -1 #SUP: 2
123 -1 334 -1 22 -1 65 -1 #SUP: 2
123 -1 334 -1 22 -1 473 -1 #SUP: 2
123 -1 334 -1 473 -1 65 -1 #SUP: 2
123 -1 407 -1 929 -1 2 -1 #SUP: 2
123 -1 628 -1 123 -1 160 -1 #SUP: 2
123 -1 1793 -1 77 -1 123 -1 #SUP: 2
170 -1 22 -1 32 -1 13849 -1 #SUP: 2
193 -1 65 -1 123 -1 206 -1 #SUP: 2
193 -1 193 -1 77 -1 123 -1 #SUP: 2
196 -1 64 -1 2521 -1 10892 -1 #SUP: 2
244 -1 77 -1 170 -1 154 -1 #SUP: 2
244 -1 77 -1 193 -1 65 -1 #SUP: 2
244 -1 77 -1 193 -1 154 -1 #SUP: 2
334 -1 22 -1 473 -1 65 -1 #SUP: 2
393 -1 77 -1 123 -1 164 -1 #SUP: 2
393 -1 123 -1 77 -1 123 -1 #SUP: 2
393 -1 123 -1 77 -1 164 -1 #SUP: 2
393 -1 123 -1 123 -1 164 -1 #SUP: 2
599 -1 154 -1 1205 -1 2690 -1 #SUP: 2
628 -1 123 -1 160 -1 64 -1 #SUP: 2
693 -1 77 -1 170 -1 65 -1 #SUP: 2
850 -1 77 -1 2 -1 65 -1 #SUP: 2
929 -1 2 -1 123 -1 65 -1 #SUP: 2
5419 -1 196 -1 64 -1 2521 -1 #SUP: 2
32 -1 123 -1 64 -1 67 -1 1152 -1 #SUP: 2
77 -1 2 -1 193 -1 65 -1 154 -1 #SUP: 2
123 -1 334 -1 22 -1 473 -1 65 -1 #SUP: 2
393 -1 123 -1 77 -1 123 -1 164 -1 #SUP: 2
