5246 -1 12118 -1 5115 -1 64 -1 1999 -1 393 -1 916 -1 919 -1 2141 -1 740 -1 30260 -1 2651 -1 13816 -1 67609 -1 28308 -1 224 -1 740 -1 693 -1 151 -1 6204 -1 2 -1 2378 -1 167 -1 1326 -1 117 -1 22 -1 132 -1 76 -1 50 -1 2773 -1 280 -1 11 -1 123 -1 441 -1 47 -1 465 -1 5093 -1 77 -1 2544 -1 602 -1 77 -1 959 -1 3834 -1 77 -1 2436 -1 4513 -1 566 -1 206 -1 965 -1 652 -1 56538 -1 2640 -1 2958 -1 4855 -1 223 -1 765 -1 123 -1 30956 -1 50 -1 3153 -1 2645 -1 2 -1 22 -1 417 -1 566 -1 2048 -1 30 -2
123 -1 160 -1 64 -1 67 -1 65 -1 133144 -1 30 -2
228 -1 30 -2
599 -1 123 -1 120 -1 260 -1 340 -1 50 -1 156 -1 154 -1 384 -1 30 -2
4949 -1 123 -1 654 -1 65 -1 473 -1 193 -1 1752 -1 222 -1 364 -1 1103 -1 30 -2
498 -1 123 -1 268 -1 1641 -1 533 -1 30 -2
520 -1 193 -1 383 -1 32 -1 1126 -1 30 -2
364 -1 437 -1 10 -1 75 -1 164 -1 228 -1 2 -1 30 -2
5161 -1 364 -1 27370 -1 189 -1 30 -2
144919 -1 3470 -1 759 -1 170 -1 2062 -1 196 -1 30 -2
144920 -1 63 -1 30 -2
123 -1 648 -1 127 -1 193 -1 10 -1 65 -1 7415 -1 417 -1 77 -1 123 -1 212 -1 120 -1 356 -1 193 -1 162 -1 123 -1 765 -1 276 -1 452 -1 16 -1 3641 -1 64 -1 67 -1 1413 -1 1276 -1 77 -1 152 -1 65 -1 3240 -1 77 -1 2 -1 200 -1 965 -1 848 -1 654 -1 193 -1 1276 -1 77 -1 452 -1 66 -1 30 -1 30 -1 123 -1 1591 -1 162 -1 225 -1 144 -1 154 -1 77 -1 123 -1 334 -1 193 -1 520 -1 41 -1 165 -1 788 -1 77 -1 16 -1 520 -1 3074 -1 654 -1 193 -1 1276 -1 30 -2
212 -1 1002 -1 27 -1 213 -1 167 -1 1524 -1 22 -1 228 -1 77 -1 10 -1 65 -1 1107 -1 3002 -1 123 -1 340 -1 262 -1 228 -1 369 -1 223 -1 613 -1 2910 -1 291 -1 167 -1 154 -1 165 -1 67 -1 1224 -1 64 -1 144 -1 77 -1 566 -1 498 -1 6728 -1 291 -1 285 -1 4457 -1 6476 -1 164 -1 30 -2
162 -1 41 -1 1913 -1 1534 -1 200 -1 77 -1 41 -1 1014 -1 64 -1 144 -1 276 -1 260 -1 1389 -1 212 -1 64 -1 322 -1 318 -1 1104 -1 30 -2
356 -1 77157 -1 29 -1 5002 -1 2 -1 125 -1 117 -1 22 -1 132 -1 76 -1 30 -2
162 -1 41 -1 1967 -1 65 -1 1537 -1 1487 -1 32 -1 1146 -1 517 -1 2779 -1 2780 -1 781 -1 41 -1 158 -1 30 -2
517 -1 2779 -1 2780 -1 1707 -1 41 -1 872 -1 30 -2
248 -1 295 -1 599 -1 65 -1 1401 -1 1727 -1 30 -2
41 -1 212 -1 2613 -1 1127 -1 30 -2
123 -1 212 -1 630 -1 154 -1 520 -1 123 -1 778 -1 441 -1 64 -1 708 -1 164 -1 41 -1 30 -2
248 -1 16 -1 468 -1 30 -2
41 -1 83 -1 196 -1 81 -1 30 -2
248 -1 432 -1 30 -2
123 -1 659 -1 664 -1 123 -1 14035 -1 262 -1 519 -1 2 -1 29 -1 1000 -1 1945 -1 856 -1 41 -1 31 -1 381 -1 773 -1 64 -1 322 -1 262 -1 2944 -1 32 -1 1263 -1 1785 -1 30 -2
371 -1 3701 -1 872 -1 6720 -1 30 -2
123 -1 286 -1 1305 -1 67 -1 1211 -1 236 -1 41 -1 1726 -1 8077 -1 2 -1 2378 -1 3253 -1 30 -2
236 -1 41 -1 543 -1 356 -1 166 -1 375 -1 193 -1 909 -1 77 -1 3129 -1 3314 -1 41 -1 30 -2
599 -1 1785 -1 226 -1 73 -1 1943 -1 318 -1 4420 -1 753 -1 349 -1 30 -2
364 -1 63 -1 543 -1 117 -1 22 -1 6674 -1 283 -2
63 -1 123 -1 206 -1 15547 -1 198 -1 203 -1 30 -2
27 -1 1 -2
1943 -1 33 -1 10 -1 65 -1 29368 -1 364 -1 1161 -1 381 -1 4511 -1 1442 -1 222 -1 836 -1 517 -1 863 -1 120 -1 227 -1 291 -1 193 -1 781 -1 1214 -1 4898 -1 32 -1 3057 -1 77 -1 67 -1 2417 -1 599 -1 120 -1 499 -1 196 -1 4497 -1 152 -1 8451 -1 10 -1 196 -1 242 -1 77 -1 67 -1 1780 -1 2 -1 5358 -1 30 -2
236 -1 41 -1 1758 -1 356 -1 193 -1 39 -1 67 -1 651 -1 196 -1 4497 -1 77 -1 212 -1 781 -1 193 -1 76 -1 30 -2
5846 -1 1105 -1 154 -1 41 -1 1737 -1 30 -2
103 -1 283 -2
364 -1 1191 -1 1305 -1 356 -1 193 -1 936 -1 30 -2
1700 -1 64 -1 441 -1 1160 -1 834 -1 1641 -1 30 -2
4781 -1 120 -1 3756 -1 1785 -1 30 -2
4781 -1 1217 -1 291 -1 733 -1 30 -2
256 -1 326 -1 11 -1 30 -2
20642 -1 823 -1 520 -1 384 -1 283 -2
4781 -1 123 -1 4180 -1 65 -1 168 -1 889 -1 32 -1 262 -1 77 -1 254 -1 162 -1 123 -1 938 -1 1478 -1 32 -1 102 -1 77 -1 50 -1 863 -1 165 -1 3146 -1 222 -1 1193 -1 326 -1 67 -1 356 -1 262 -1 446 -1 2239 -1 77 -1 3146 -1 193 -1 198 -1 283 -2
244 -1 27 -1 206 -1 22 -1 1335 -1 32 -1 1478 -1 30 -2
819 -1 1906 -1 3986 -1 2094 -1 13887 -1 2192 -1 7556 -1 2560 -1 2 -1 15 -1 32 -1 66 -1 77 -1 3975 -1 123 -1 1216 -1 1364 -1 164 -1 262 -1 171 -1 30 -2
123 -1 1758 -1 356 -1 123 -1 764 -1 22 -1 5824 -1 3653 -1 498 -1 30 -2
123 -1 223 -1 613 -1 381 -1 224 -1 134 -1 254 -1 193 -1 220 -1 1707 -1 222 -1 340 -1 27 -1 318 -1 1478 -1 77 -1 27 -1 738 -1 1051 -1 77 -1 285 -1 318 -1 30 -2
175 -1 769 -1 33 -1 285 -1 64 -1 670 -1 2831 -1 523 -1 151 -1 1 -2
823 -1 349 -1 190 -1 826 -1 16459 -1 33 -1 65 -1 892 -1 631 -1 144921 -1 850 -1 77 -1 50 -1 1180 -1 2 -1 123 -1 268 -1 1790 -1 431 -1 246 -1 30 -2
599 -1 1672 -1 2703 -1 223 -1 10 -1 65 -1 699 -1 2620 -1 254 -1 1214 -1 144922 -1 2 -1 50 -1 3153 -1 30 -2
246 -1 77 -1 144923 -1 120 -1 5548 -1 246 -1 30 -2
443 -1 120 -1 3964 -1 431 -1 433 -1 77 -1 599 -1 30 -2
1180 -1 1641 -1 1895 -1 11 -1 5364 -1 1899 -1 1118 -1 484 -1 1899 -1 4378 -1 1226 -1 306 -1 5363 -1 1899 -1 1897 -1 484 -1 1899 -1 4378 -1 1226 -1 5363 -1 1899 -1 11 -1 484 -1 1899 -1 4378 -1 2773 -1 30 -2
123 -1 613 -1 4267 -1 2 -1 30098 -1 77 -1 349 -1 1313 -1 356 -1 1163 -1 5463 -1 2 -1 5063 -1 1003 -1 321 -1 123 -1 529 -1 356 -1 144924 -1 2 -1 302 -1 304 -1 321 -1 8 -1 144926 -1 101 -1 91 -1 98 -1 8460 -1 84 -1 144925 -1 30 -2
856 -1 41 -1 30 -2
123 -1 174 -1 618 -1 64 -1 321 -1 48 -1 280 -1 738 -1 356 -1 50 -1 5759 -1 668 -1 10 -1 22 -1 301 -1 9652 -1 219 -1 30 -2
2 -1 123 -1 613 -1 1127 -1 291 -1 134 -1 632 -1 77 -1 498 -1 171 -1 32 -1 134 -1 701 -1 64 -1 268 -1 1008 -1 2456 -1 30 -2
7092 -1 30 -2
8 -1 144932 -1 12433 -1 19395 -1 144930 -1 144928 -1 144931 -1 8 -1 144932 -1 12433 -1 19395 -1 144930 -1 144927 -1 144931 -1 8 -1 144932 -1 12433 -1 19395 -1 144930 -1 144929 -1 144931 -1 30 -2
3559 -1 123 -1 356 -1 193 -1 283 -2
70 -1 375 -1 65 -1 1700 -1 5358 -1 611 -1 30 -2
653 -1 66 -1 144933 -1 30 -2
123 -1 613 -1 193 -1 77 -1 603 -1 2630 -1 283 -2
123 -1 206 -1 212 -1 540 -1 224 -1 164 -1 144934 -1 30 -2
208 -1 144934 -1 5190 -1 3017 -1 70 -1 652 -1 887 -1 64 -1 222 -1 30 -2
21001 -1 3107 -1 30 -2
498 -1 30 -2
599 -1 1672 -1 364 -1 6060 -1 9657 -1 30 -2
250 -1 30 -1 123 -1 286 -1 123 -1 407 -1 73 -1 1619 -1 249 -1 152 -1 250 -1 30 -1 599 -1 123 -1 120 -1 286 -1 123 -1 407 -1 638 -1 232 -1 164 -1 175 -1 30 -2
321 -1 30 -1 1177 -1 570 -1 123 -1 165 -1 765 -1 30 -2
1468 -1 823 -1 31 -1 22 -1 4832 -1 549 -1 1300 -1 50 -1 1180 -1 1716 -1 222 -1 65 -1 608 -1 76 -1 397 -1 162 -1 123 -1 206 -1 65 -1 302 -1 77 -1 162 -1 123 -1 1348 -1 65 -1 87879 -1 77 -1 123 -1 210 -1 47158 -1 256 -1 22 -1 559 -1 2 -1 1040 -1 50 -1 3107 -1 30 -2
193 -1 206 -1 22 -1 559 -1 154 -1 962 -1 222 -1 77 -1 599 -1 30 -2
162 -1 373 -1 65 -1 2979 -1 5642 -1 65 -1 122350 -1 206 -1 65 -1 1679 -1 77 -1 2 -1 244 -1 836 -1 692 -1 193 -1 237 -1 65 -1 122349 -1 254 -1 193 -1 633 -1 151 -1 1809 -1 30 -2
223 -1 564 -1 2520 -1 33 -1 22 -1 56725 -1 30 -2
2010 -1 826 -1 326 -1 17821 -1 77 -1 244 -1 30 -2
48 -1 94 -1 208 -1 443 -1 223 -1 765 -1 102 -1 356 -1 236 -1 73 -1 41 -1 152 -1 222 -1 190 -1 65 -1 90 -1 30 -2
244 -1 123 -1 210 -1 3956 -1 2672 -1 41 -1 30 -2
249 -1 30 -1 850 -1 30 -2
250 -1 30 -1 236 -1 123 -1 220 -1 322 -1 22 -1 81 -1 756 -1 564 -1 237 -1 193 -1 77 -1 244 -1 123 -1 220 -1 2808 -1 30 -2
321 -1 30 -1 613 -1 134 -1 30 -2
589 -1 30 -1 1141 -1 51071 -1 77 -1 152 -1 139607 -1 14035 -1 5 -1 152 -1 1900 -1 642 -1 50 -1 4900 -1 30 -2
193 -1 206 -1 1216 -1 65 -1 4003 -1 923 -1 208 -1 123 -1 845 -1 2351 -1 31822 -1 30 -2
768 -1 5631 -1 222 -1 32 -1 411 -1 10 -1 65 -1 151 -1 819 -1 417 -1 30 -2
123 -1 517 -1 375 -1 64 -1 2389 -1 22 -1 923 -1 533 -1 30 -2
123 -1 340 -1 262 -1 7 -1 295 -1 64 -1 144 -1 164 -1 29 -1 519 -1 2 -1 226 -1 951 -1 3334 -1 41 -1 117 -1 22 -1 15 -1 30 -2
599 -1 31822 -1 1 -2
41 -1 929 -1 193 -1 196 -1 1 -2
123 -1 8734 -1 50 -1 5195 -1 26067 -1 207 -1 8 -1 28 -1 26 -1 144935 -1 123 -1 407 -1 3 -1 5115 -1 64 -1 262 -1 604 -1 879 -1 1685 -1 123 -1 206 -1 356 -1 793 -1 30 -1 488 -1 3550 -1 222 -1 35 -1 30 -2
246 -1 77 -1 123 -1 1251 -1 694 -1 505 -1 599 -1 123 -1 120 -1 160 -1 64 -1 691 -1 47 -1 852 -1 2395 -1 123 -1 4096 -1 286 -1 154 -1 41 -1 212 -1 120 -1 1737 -1 498 -1 30 -2
123 -1 1758 -1 356 -1 248 -1 151 -1 4170 -1 164 -1 29 -1 668 -1 2 -1 29 -1 187 -1 153 -1 41 -1 183 -1 30 -2
123 -1 7881 -1 642 -1 7881 -1 3925 -1 1641 -1 15516 -1 8003 -1 170 -1 50 -1 73 -1 1587 -1 31 -1 674 -1 30 -2
262 -1 779 -1 77 -1 132 -1 164 -1 1263 -1 30 -2
823 -1 31 -1 1691 -1 222 -1 262 -1 77 -1 262 -1 334 -1 965 -1 227 -1 222 -1 30 -2
236 -1 566 -1 1907 -1 64 -1 20832 -1 47 -1 21798 -1 123 -1 220 -1 1717 -1 154 -1 30 -2
123 -1 212 -1 648 -1 340 -1 236 -1 193 -1 206 -1 212 -1 254 -1 123 -1 777 -1 1082 -1 445 -1 64 -1 268 -1 505 -1 33 -1 30 -2
566 -1 1205 -1 1105 -1 596 -1 198 -1 32 -1 22 -1 6762 -1 77 -1 162 -1 566 -1 3173 -1 222 -1 77 -1 566 -1 7624 -1 77 -1 443 -1 2918 -1 30 -2
599 -1 452 -1 1672 -1 27 -1 443 -1 144 -1 68 -1 76 -1 30 -2
364 -1 1191 -1 566 -1 848 -1 2547 -1 222 -1 533 -1 566 -1 7 -1 630 -1 193 -1 64 -1 222 -1 599 -1 123 -1 1963 -1 664 -2