2 -1 #SUP: 19
3 -1 #SUP: 3
8 -1 #SUP: 2
10 -1 #SUP: 10
16 -1 #SUP: 15
22 -1 #SUP: 28
29 -1 #SUP: 3
31 -1 #SUP: 8
32 -1 #SUP: 19
33 -1 #SUP: 6
41 -1 #SUP: 16
44 -1 #SUP: 3
47 -1 #SUP: 2
50 -1 #SUP: 8
54 -1 #SUP: 2
62 -1 #SUP: 3
64 -1 #SUP: 40
65 -1 #SUP: 30
67 -1 #SUP: 10
70 -1 #SUP: 14
76 -1 #SUP: 2
77 -1 #SUP: 52
78 -1 #SUP: 5
83 -1 #SUP: 2
102 -1 #SUP: 2
117 -1 #SUP: 6
120 -1 #SUP: 6
123 -1 #SUP: 38
134 -1 #SUP: 4
142 -1 #SUP: 2
144 -1 #SUP: 2
152 -1 #SUP: 4
154 -1 #SUP: 9
158 -1 #SUP: 3
162 -1 #SUP: 4
164 -1 #SUP: 6
165 -1 #SUP: 2
167 -1 #SUP: 3
168 -1 #SUP: 3
170 -1 #SUP: 10
171 -1 #SUP: 3
175 -1 #SUP: 2
176 -1 #SUP: 2
183 -1 #SUP: 3
190 -1 #SUP: 2
193 -1 #SUP: 8
196 -1 #SUP: 2
197 -1 #SUP: 2
198 -1 #SUP: 4
200 -1 #SUP: 5
206 -1 #SUP: 3
210 -1 #SUP: 3
212 -1 #SUP: 3
219 -1 #SUP: 2
220 -1 #SUP: 5
222 -1 #SUP: 12
223 -1 #SUP: 3
224 -1 #SUP: 3
225 -1 #SUP: 5
233 -1 #SUP: 2
236 -1 #SUP: 3
241 -1 #SUP: 4
243 -1 #SUP: 2
244 -1 #SUP: 3
248 -1 #SUP: 6
250 -1 #SUP: 2
254 -1 #SUP: 4
260 -1 #SUP: 5
262 -1 #SUP: 6
263 -1 #SUP: 3
276 -1 #SUP: 4
280 -1 #SUP: 2
285 -1 #SUP: 4
286 -1 #SUP: 4
291 -1 #SUP: 6
318 -1 #SUP: 4
326 -1 #SUP: 8
349 -1 #SUP: 3
356 -1 #SUP: 9
364 -1 #SUP: 13
369 -1 #SUP: 4
407 -1 #SUP: 2
411 -1 #SUP: 2
430 -1 #SUP: 2
431 -1 #SUP: 4
441 -1 #SUP: 5
443 -1 #SUP: 6
446 -1 #SUP: 3
485 -1 #SUP: 2
505 -1 #SUP: 3
520 -1 #SUP: 5
543 -1 #SUP: 3
547 -1 #SUP: 2
591 -1 #SUP: 2
599 -1 #SUP: 7
613 -1 #SUP: 4
632 -1 #SUP: 2
642 -1 #SUP: 2
651 -1 #SUP: 2
652 -1 #SUP: 3
656 -1 #SUP: 2
671 -1 #SUP: 2
672 -1 #SUP: 2
702 -1 #SUP: 2
716 -1 #SUP: 2
728 -1 #SUP: 2
768 -1 #SUP: 5
781 -1 #SUP: 4
842 -1 #SUP: 2
871 -1 #SUP: 3
872 -1 #SUP: 3
907 -1 #SUP: 2
911 -1 #SUP: 6
955 -1 #SUP: 2
965 -1 #SUP: 2
972 -1 #SUP: 2
1160 -1 #SUP: 2
1171 -1 #SUP: 2
1191 -1 #SUP: 2
1193 -1 #SUP: 2
1205 -1 #SUP: 2
1209 -1 #SUP: 2
1214 -1 #SUP: 2
1216 -1 #SUP: 2
1263 -1 #SUP: 2
1380 -1 #SUP: 2
1388 -1 #SUP: 2
1442 -1 #SUP: 2
1471 -1 #SUP: 2
1672 -1 #SUP: 2
1700 -1 #SUP: 2
1713 -1 #SUP: 3
1724 -1 #SUP: 3
1736 -1 #SUP: 2
1758 -1 #SUP: 4
1898 -1 #SUP: 2
2173 -1 #SUP: 2
2208 -1 #SUP: 2
2319 -1 #SUP: 2
2703 -1 #SUP: 3
2707 -1 #SUP: 2
2784 -1 #SUP: 2
2805 -1 #SUP: 2
2910 -1 #SUP: 2
3503 -1 #SUP: 2
3595 -1 #SUP: 4
3956 -1 #SUP: 2
4836 -1 #SUP: 2
5230 -1 #SUP: 2
6564 -1 #SUP: 2
9585 -1 #SUP: 2
14078 -1 #SUP: 2
17634 -1 #SUP: 2
155452 -1 #SUP: 2
2 -1 2 -1 #SUP: 2
2 -1 16 -1 #SUP: 2
2 -1 22 -1 #SUP: 4
2 -1 32 -1 #SUP: 2
2 -1 64 -1 #SUP: 3
2 -1 65 -1 #SUP: 5
2 -1 67 -1 #SUP: 2
2 -1 70 -1 #SUP: 2
2 -1 77 -1 #SUP: 3
2 -1 123 -1 #SUP: 2
2 -1 152 -1 #SUP: 2
2 -1 158 -1 #SUP: 2
2 -1 225 -1 #SUP: 2
2 -1 441 -1 #SUP: 2
3 -1 65 -1 #SUP: 2
10 -1 22 -1 #SUP: 4
10 -1 64 -1 #SUP: 2
10 -1 65 -1 #SUP: 4
10 -1 77 -1 #SUP: 2
10 -1 164 -1 #SUP: 2
10 -1 219 -1 #SUP: 2
10 -1 955 -1 #SUP: 2
16 -1 2 -1 #SUP: 2
16 -1 32 -1 #SUP: 3
16 -1 64 -1 #SUP: 3
16 -1 65 -1 #SUP: 3
16 -1 77 -1 #SUP: 3
16 -1 254 -1 #SUP: 2
16 -1 318 -1 #SUP: 2
16 -1 431 -1 #SUP: 2
16 -1 2173 -1 #SUP: 2
22 -1 2 -1 #SUP: 2
22 -1 22 -1 #SUP: 3
22 -1 32 -1 #SUP: 5
22 -1 33 -1 #SUP: 3
22 -1 41 -1 #SUP: 2
22 -1 47 -1 #SUP: 2
22 -1 64 -1 #SUP: 5
22 -1 65 -1 #SUP: 4
22 -1 67 -1 #SUP: 2
22 -1 77 -1 #SUP: 5
22 -1 117 -1 #SUP: 2
22 -1 168 -1 #SUP: 2
22 -1 224 -1 #SUP: 2
22 -1 326 -1 #SUP: 2
22 -1 1380 -1 #SUP: 2
22 -1 9585 -1 #SUP: 2
31 -1 77 -1 #SUP: 3
31 -1 1388 -1 #SUP: 2
32 -1 2 -1 #SUP: 2
32 -1 65 -1 #SUP: 3
32 -1 77 -1 #SUP: 4
32 -1 102 -1 #SUP: 2
32 -1 241 -1 #SUP: 2
33 -1 2 -1 #SUP: 2
33 -1 22 -1 #SUP: 4
33 -1 64 -1 #SUP: 2
33 -1 65 -1 #SUP: 2
33 -1 1471 -1 #SUP: 2
33 -1 2784 -1 #SUP: 2
33 -1 9585 -1 #SUP: 2
41 -1 2 -1 #SUP: 2
41 -1 29 -1 #SUP: 2
41 -1 41 -1 #SUP: 2
41 -1 65 -1 #SUP: 2
41 -1 77 -1 #SUP: 3
41 -1 154 -1 #SUP: 3
44 -1 32 -1 #SUP: 2
50 -1 77 -1 #SUP: 2
50 -1 170 -1 #SUP: 2
62 -1 41 -1 #SUP: 2
64 -1 2 -1 #SUP: 3
64 -1 10 -1 #SUP: 4
64 -1 22 -1 #SUP: 8
64 -1 32 -1 #SUP: 5
64 -1 47 -1 #SUP: 2
64 -1 50 -1 #SUP: 2
64 -1 64 -1 #SUP: 5
64 -1 65 -1 #SUP: 7
64 -1 67 -1 #SUP: 7
64 -1 77 -1 #SUP: 7
64 -1 117 -1 #SUP: 3
64 -1 120 -1 #SUP: 2
64 -1 164 -1 #SUP: 2
64 -1 167 -1 #SUP: 2
64 -1 171 -1 #SUP: 2
64 -1 193 -1 #SUP: 2
64 -1 198 -1 #SUP: 2
64 -1 224 -1 #SUP: 3
64 -1 318 -1 #SUP: 2
64 -1 326 -1 #SUP: 3
64 -1 411 -1 #SUP: 2
64 -1 599 -1 #SUP: 3
64 -1 871 -1 #SUP: 3
64 -1 1380 -1 #SUP: 2
64 -1 2208 -1 #SUP: 2
64 -1 9585 -1 #SUP: 2
65 -1 2 -1 #SUP: 3
65 -1 10 -1 #SUP: 2
65 -1 16 -1 #SUP: 2
65 -1 32 -1 #SUP: 3
65 -1 64 -1 #SUP: 6
65 -1 65 -1 #SUP: 3
65 -1 77 -1 #SUP: 4
65 -1 170 -1 #SUP: 2
65 -1 243 -1 #SUP: 2
65 -1 651 -1 #SUP: 2
65 -1 871 -1 #SUP: 3
65 -1 955 -1 #SUP: 2
67 -1 2 -1 #SUP: 2
67 -1 64 -1 #SUP: 3
70 -1 2 -1 #SUP: 2
70 -1 3 -1 #SUP: 2
70 -1 16 -1 #SUP: 4
70 -1 22 -1 #SUP: 2
70 -1 32 -1 #SUP: 3
70 -1 64 -1 #SUP: 4
70 -1 65 -1 #SUP: 3
70 -1 67 -1 #SUP: 2
70 -1 198 -1 #SUP: 2
70 -1 254 -1 #SUP: 2
70 -1 326 -1 #SUP: 3
70 -1 356 -1 #SUP: 2
70 -1 431 -1 #SUP: 2
70 -1 5230 -1 #SUP: 2
77 -1 2 -1 #SUP: 5
77 -1 16 -1 #SUP: 3
77 -1 22 -1 #SUP: 11
77 -1 31 -1 #SUP: 2
77 -1 32 -1 #SUP: 4
77 -1 41 -1 #SUP: 9
77 -1 62 -1 #SUP: 2
77 -1 64 -1 #SUP: 8
77 -1 65 -1 #SUP: 4
77 -1 67 -1 #SUP: 2
77 -1 70 -1 #SUP: 4
77 -1 77 -1 #SUP: 8
77 -1 117 -1 #SUP: 3
77 -1 123 -1 #SUP: 5
77 -1 134 -1 #SUP: 3
77 -1 144 -1 #SUP: 2
77 -1 152 -1 #SUP: 3
77 -1 154 -1 #SUP: 2
77 -1 193 -1 #SUP: 5
77 -1 248 -1 #SUP: 2
77 -1 262 -1 #SUP: 2
77 -1 326 -1 #SUP: 3
77 -1 356 -1 #SUP: 3
77 -1 599 -1 #SUP: 7
77 -1 632 -1 #SUP: 2
77 -1 2703 -1 #SUP: 2
77 -1 3956 -1 #SUP: 2
78 -1 32 -1 #SUP: 2
78 -1 65 -1 #SUP: 2
78 -1 77 -1 #SUP: 3
83 -1 64 -1 #SUP: 2
117 -1 22 -1 #SUP: 2
120 -1 77 -1 #SUP: 2
120 -1 123 -1 #SUP: 2
123 -1 2 -1 #SUP: 5
123 -1 10 -1 #SUP: 3
123 -1 16 -1 #SUP: 2
123 -1 22 -1 #SUP: 4
123 -1 31 -1 #SUP: 3
123 -1 32 -1 #SUP: 4
123 -1 41 -1 #SUP: 3
123 -1 50 -1 #SUP: 2
123 -1 62 -1 #SUP: 2
123 -1 64 -1 #SUP: 12
123 -1 65 -1 #SUP: 6
123 -1 67 -1 #SUP: 2
123 -1 77 -1 #SUP: 6
123 -1 117 -1 #SUP: 2
123 -1 120 -1 #SUP: 2
123 -1 123 -1 #SUP: 2
123 -1 154 -1 #SUP: 2
123 -1 190 -1 #SUP: 2
123 -1 212 -1 #SUP: 2
123 -1 220 -1 #SUP: 2
123 -1 222 -1 #SUP: 2
123 -1 250 -1 #SUP: 2
123 -1 262 -1 #SUP: 3
123 -1 263 -1 #SUP: 2
123 -1 285 -1 #SUP: 2
123 -1 286 -1 #SUP: 3
123 -1 291 -1 #SUP: 2
123 -1 356 -1 #SUP: 3
123 -1 407 -1 #SUP: 2
123 -1 441 -1 #SUP: 4
123 -1 543 -1 #SUP: 2
123 -1 613 -1 #SUP: 2
123 -1 656 -1 #SUP: 2
123 -1 907 -1 #SUP: 2
123 -1 911 -1 #SUP: 2
123 -1 1160 -1 #SUP: 2
123 -1 1713 -1 #SUP: 2
123 -1 1724 -1 #SUP: 3
123 -1 1758 -1 #SUP: 2
123 -1 2707 -1 #SUP: 2
123 -1 3956 -1 #SUP: 2
123 -1 155452 -1 #SUP: 2
144 -1 41 -1 #SUP: 2
152 -1 32 -1 #SUP: 2
154 -1 29 -1 #SUP: 2
154 -1 64 -1 #SUP: 2
154 -1 77 -1 #SUP: 3
154 -1 170 -1 #SUP: 2
162 -1 64 -1 #SUP: 2
162 -1 77 -1 #SUP: 2
164 -1 64 -1 #SUP: 2
164 -1 65 -1 #SUP: 3
167 -1 77 -1 #SUP: 2
167 -1 120 -1 #SUP: 2
168 -1 117 -1 #SUP: 2
170 -1 64 -1 #SUP: 3
170 -1 65 -1 #SUP: 2
175 -1 32 -1 #SUP: 2
190 -1 64 -1 #SUP: 2
193 -1 22 -1 #SUP: 2
193 -1 77 -1 #SUP: 3
193 -1 326 -1 #SUP: 2
197 -1 64 -1 #SUP: 2
197 -1 369 -1 #SUP: 2
197 -1 2319 -1 #SUP: 2
198 -1 64 -1 #SUP: 2
200 -1 65 -1 #SUP: 2
200 -1 77 -1 #SUP: 2
200 -1 123 -1 #SUP: 2
200 -1 291 -1 #SUP: 2
210 -1 123 -1 #SUP: 2
212 -1 64 -1 #SUP: 2
212 -1 65 -1 #SUP: 2
220 -1 64 -1 #SUP: 3
220 -1 67 -1 #SUP: 2
220 -1 1713 -1 #SUP: 2
222 -1 32 -1 #SUP: 2
222 -1 50 -1 #SUP: 2
222 -1 77 -1 #SUP: 5
222 -1 170 -1 #SUP: 2
222 -1 356 -1 #SUP: 2
222 -1 768 -1 #SUP: 2
225 -1 318 -1 #SUP: 2
233 -1 236 -1 #SUP: 2
241 -1 77 -1 #SUP: 2
241 -1 3595 -1 #SUP: 3
248 -1 431 -1 #SUP: 2
254 -1 22 -1 #SUP: 2
260 -1 41 -1 #SUP: 2
260 -1 77 -1 #SUP: 2
260 -1 154 -1 #SUP: 2
260 -1 6564 -1 #SUP: 2
262 -1 41 -1 #SUP: 3
262 -1 77 -1 #SUP: 2
262 -1 170 -1 #SUP: 2
263 -1 10 -1 #SUP: 2
263 -1 64 -1 #SUP: 3
276 -1 41 -1 #SUP: 2
276 -1 77 -1 #SUP: 2
285 -1 41 -1 #SUP: 2
285 -1 77 -1 #SUP: 2
291 -1 2 -1 #SUP: 2
291 -1 65 -1 #SUP: 2
291 -1 77 -1 #SUP: 2
291 -1 443 -1 #SUP: 2
318 -1 65 -1 #SUP: 2
326 -1 65 -1 #SUP: 2
326 -1 154 -1 #SUP: 2
349 -1 64 -1 #SUP: 2
356 -1 22 -1 #SUP: 2
356 -1 77 -1 #SUP: 4
356 -1 198 -1 #SUP: 2
356 -1 356 -1 #SUP: 2
356 -1 768 -1 #SUP: 2
364 -1 2 -1 #SUP: 2
364 -1 10 -1 #SUP: 2
364 -1 16 -1 #SUP: 4
364 -1 64 -1 #SUP: 4
364 -1 65 -1 #SUP: 2
364 -1 77 -1 #SUP: 2
364 -1 123 -1 #SUP: 2
364 -1 223 -1 #SUP: 2
364 -1 441 -1 #SUP: 2
369 -1 64 -1 #SUP: 2
369 -1 65 -1 #SUP: 2
369 -1 77 -1 #SUP: 2
369 -1 2319 -1 #SUP: 2
411 -1 65 -1 #SUP: 2
411 -1 77 -1 #SUP: 2
411 -1 599 -1 #SUP: 2
431 -1 32 -1 #SUP: 2
441 -1 65 -1 #SUP: 2
441 -1 77 -1 #SUP: 2
441 -1 152 -1 #SUP: 2
443 -1 64 -1 #SUP: 2
443 -1 77 -1 #SUP: 3
443 -1 120 -1 #SUP: 2
505 -1 64 -1 #SUP: 2
520 -1 41 -1 #SUP: 3
520 -1 77 -1 #SUP: 3
543 -1 77 -1 #SUP: 3
591 -1 64 -1 #SUP: 2
599 -1 22 -1 #SUP: 2
599 -1 64 -1 #SUP: 2
599 -1 65 -1 #SUP: 2
599 -1 70 -1 #SUP: 2
599 -1 134 -1 #SUP: 2
599 -1 326 -1 #SUP: 2
613 -1 291 -1 #SUP: 2
613 -1 443 -1 #SUP: 2
656 -1 64 -1 #SUP: 2
672 -1 77 -1 #SUP: 2
768 -1 22 -1 #SUP: 2
768 -1 32 -1 #SUP: 2
768 -1 77 -1 #SUP: 3
768 -1 222 -1 #SUP: 2
781 -1 222 -1 #SUP: 2
781 -1 505 -1 #SUP: 2
842 -1 77 -1 #SUP: 2
871 -1 64 -1 #SUP: 2
872 -1 2 -1 #SUP: 2
872 -1 50 -1 #SUP: 2
907 -1 2 -1 #SUP: 2
907 -1 65 -1 #SUP: 2
911 -1 64 -1 #SUP: 2
911 -1 67 -1 #SUP: 2
965 -1 77 -1 #SUP: 2
965 -1 193 -1 #SUP: 2
972 -1 22 -1 #SUP: 2
972 -1 33 -1 #SUP: 2
972 -1 64 -1 #SUP: 2
972 -1 1471 -1 #SUP: 2
972 -1 2784 -1 #SUP: 2
972 -1 9585 -1 #SUP: 2
1191 -1 248 -1 #SUP: 2
1388 -1 77 -1 #SUP: 2
1471 -1 22 -1 #SUP: 2
1471 -1 64 -1 #SUP: 2
1471 -1 9585 -1 #SUP: 2
1672 -1 77 -1 #SUP: 2
1713 -1 64 -1 #SUP: 3
1724 -1 250 -1 #SUP: 2
1758 -1 10 -1 #SUP: 2
1758 -1 356 -1 #SUP: 2
2319 -1 64 -1 #SUP: 2
2319 -1 65 -1 #SUP: 2
2319 -1 871 -1 #SUP: 2
2707 -1 64 -1 #SUP: 2
2707 -1 65 -1 #SUP: 2
2784 -1 22 -1 #SUP: 2
2784 -1 64 -1 #SUP: 2
2784 -1 1471 -1 #SUP: 2
2784 -1 9585 -1 #SUP: 2
3595 -1 67 -1 #SUP: 2
17634 -1 241 -1 #SUP: 2
17634 -1 3595 -1 #SUP: 2
2 -1 22 -1 32 -1 #SUP: 2
2 -1 64 -1 64 -1 #SUP: 2
2 -1 441 -1 152 -1 #SUP: 2
10 -1 22 -1 22 -1 #SUP: 2
10 -1 65 -1 955 -1 #SUP: 2
16 -1 64 -1 32 -1 #SUP: 2
16 -1 431 -1 32 -1 #SUP: 2
22 -1 64 -1 47 -1 #SUP: 2
22 -1 64 -1 67 -1 #SUP: 2
31 -1 1388 -1 77 -1 #SUP: 2
33 -1 22 -1 9585 -1 #SUP: 2
33 -1 64 -1 22 -1 #SUP: 2
33 -1 64 -1 9585 -1 #SUP: 2
33 -1 1471 -1 22 -1 #SUP: 2
33 -1 1471 -1 64 -1 #SUP: 2
33 -1 1471 -1 9585 -1 #SUP: 2
33 -1 2784 -1 22 -1 #SUP: 2
33 -1 2784 -1 64 -1 #SUP: 2
33 -1 2784 -1 1471 -1 #SUP: 2
33 -1 2784 -1 9585 -1 #SUP: 2
41 -1 2 -1 77 -1 #SUP: 2
41 -1 77 -1 41 -1 #SUP: 2
64 -1 22 -1 32 -1 #SUP: 2
64 -1 22 -1 224 -1 #SUP: 2
64 -1 22 -1 9585 -1 #SUP: 2
64 -1 32 -1 65 -1 #SUP: 2
64 -1 64 -1 32 -1 #SUP: 2
64 -1 65 -1 871 -1 #SUP: 3
64 -1 77 -1 22 -1 #SUP: 2
64 -1 77 -1 599 -1 #SUP: 3
65 -1 871 -1 64 -1 #SUP: 2
70 -1 3 -1 65 -1 #SUP: 2
70 -1 16 -1 65 -1 #SUP: 2
70 -1 64 -1 32 -1 #SUP: 2
70 -1 64 -1 64 -1 #SUP: 2
70 -1 64 -1 67 -1 #SUP: 2
70 -1 356 -1 198 -1 #SUP: 2
77 -1 2 -1 22 -1 #SUP: 2
77 -1 2 -1 64 -1 #SUP: 2
77 -1 2 -1 77 -1 #SUP: 2
77 -1 22 -1 32 -1 #SUP: 2
77 -1 22 -1 64 -1 #SUP: 2
77 -1 22 -1 67 -1 #SUP: 2
77 -1 22 -1 117 -1 #SUP: 2
77 -1 22 -1 326 -1 #SUP: 2
77 -1 41 -1 2 -1 #SUP: 2
77 -1 41 -1 77 -1 #SUP: 2
77 -1 64 -1 22 -1 #SUP: 3
77 -1 64 -1 64 -1 #SUP: 2
77 -1 64 -1 67 -1 #SUP: 2
77 -1 70 -1 64 -1 #SUP: 2
77 -1 77 -1 32 -1 #SUP: 2
77 -1 77 -1 77 -1 #SUP: 3
77 -1 77 -1 152 -1 #SUP: 2
77 -1 123 -1 41 -1 #SUP: 2
77 -1 123 -1 64 -1 #SUP: 3
77 -1 123 -1 262 -1 #SUP: 2
77 -1 123 -1 3956 -1 #SUP: 2
77 -1 144 -1 41 -1 #SUP: 2
77 -1 152 -1 32 -1 #SUP: 2
77 -1 193 -1 22 -1 #SUP: 2
77 -1 599 -1 22 -1 #SUP: 2
77 -1 599 -1 64 -1 #SUP: 2
77 -1 599 -1 65 -1 #SUP: 2
77 -1 599 -1 70 -1 #SUP: 2
77 -1 599 -1 134 -1 #SUP: 2
77 -1 599 -1 326 -1 #SUP: 2
78 -1 65 -1 77 -1 #SUP: 2
123 -1 22 -1 32 -1 #SUP: 2
123 -1 62 -1 41 -1 #SUP: 2
123 -1 64 -1 22 -1 #SUP: 2
123 -1 64 -1 32 -1 #SUP: 2
123 -1 64 -1 64 -1 #SUP: 2
123 -1 64 -1 65 -1 #SUP: 3
123 -1 64 -1 67 -1 #SUP: 2
123 -1 64 -1 117 -1 #SUP: 2
123 -1 65 -1 64 -1 #SUP: 2
123 -1 77 -1 31 -1 #SUP: 2
123 -1 190 -1 64 -1 #SUP: 2
123 -1 212 -1 64 -1 #SUP: 2
123 -1 356 -1 77 -1 #SUP: 2
123 -1 441 -1 65 -1 #SUP: 2
123 -1 656 -1 64 -1 #SUP: 2
123 -1 907 -1 65 -1 #SUP: 2
123 -1 1713 -1 64 -1 #SUP: 2
123 -1 1724 -1 250 -1 #SUP: 2
123 -1 2707 -1 64 -1 #SUP: 2
123 -1 2707 -1 65 -1 #SUP: 2
197 -1 369 -1 64 -1 #SUP: 2
197 -1 369 -1 2319 -1 #SUP: 2
197 -1 2319 -1 64 -1 #SUP: 2
220 -1 1713 -1 64 -1 #SUP: 2
222 -1 32 -1 77 -1 #SUP: 2
260 -1 77 -1 41 -1 #SUP: 2
262 -1 77 -1 41 -1 #SUP: 2
263 -1 64 -1 10 -1 #SUP: 2
364 -1 16 -1 65 -1 #SUP: 2
364 -1 123 -1 441 -1 #SUP: 2
369 -1 64 -1 65 -1 #SUP: 2
369 -1 2319 -1 64 -1 #SUP: 2
369 -1 2319 -1 65 -1 #SUP: 2
411 -1 65 -1 77 -1 #SUP: 2
411 -1 77 -1 599 -1 #SUP: 2
441 -1 77 -1 77 -1 #SUP: 2
443 -1 64 -1 77 -1 #SUP: 2
520 -1 77 -1 41 -1 #SUP: 3
613 -1 291 -1 443 -1 #SUP: 2
768 -1 32 -1 77 -1 #SUP: 2
768 -1 222 -1 32 -1 #SUP: 2
768 -1 222 -1 77 -1 #SUP: 2
965 -1 77 -1 193 -1 #SUP: 2
972 -1 22 -1 9585 -1 #SUP: 2
972 -1 33 -1 22 -1 #SUP: 2
972 -1 33 -1 64 -1 #SUP: 2
972 -1 33 -1 1471 -1 #SUP: 2
972 -1 33 -1 2784 -1 #SUP: 2
972 -1 33 -1 9585 -1 #SUP: 2
972 -1 64 -1 22 -1 #SUP: 2
972 -1 64 -1 9585 -1 #SUP: 2
972 -1 1471 -1 22 -1 #SUP: 2
972 -1 1471 -1 64 -1 #SUP: 2
972 -1 1471 -1 9585 -1 #SUP: 2
972 -1 2784 -1 22 -1 #SUP: 2
972 -1 2784 -1 64 -1 #SUP: 2
972 -1 2784 -1 1471 -1 #SUP: 2
972 -1 2784 -1 9585 -1 #SUP: 2
1471 -1 22 -1 9585 -1 #SUP: 2
1471 -1 64 -1 22 -1 #SUP: 2
1471 -1 64 -1 9585 -1 #SUP: 2
2319 -1 64 -1 65 -1 #SUP: 2
2319 -1 64 -1 871 -1 #SUP: 2
2319 -1 65 -1 871 -1 #SUP: 2
2707 -1 64 -1 65 -1 #SUP: 2
2784 -1 22 -1 9585 -1 #SUP: 2
2784 -1 64 -1 22 -1 #SUP: 2
2784 -1 64 -1 9585 -1 #SUP: 2
2784 -1 1471 -1 22 -1 #SUP: 2
2784 -1 1471 -1 64 -1 #SUP: 2
2784 -1 1471 -1 9585 -1 #SUP: 2
17634 -1 241 -1 3595 -1 #SUP: 2
33 -1 64 -1 22 -1 9585 -1 #SUP: 2
33 -1 1471 -1 22 -1 9585 -1 #SUP: 2
33 -1 1471 -1 64 -1 22 -1 #SUP: 2
33 -1 1471 -1 64 -1 9585 -1 #SUP: 2
33 -1 2784 -1 22 -1 9585 -1 #SUP: 2
33 -1 2784 -1 64 -1 22 -1 #SUP: 2
33 -1 2784 -1 64 -1 9585 -1 #SUP: 2
33 -1 2784 -1 1471 -1 22 -1 #SUP: 2
33 -1 2784 -1 1471 -1 64 -1 #SUP: 2
33 -1 2784 -1 1471 -1 9585 -1 #SUP: 2
77 -1 2 -1 64 -1 64 -1 #SUP: 2
77 -1 22 -1 64 -1 67 -1 #SUP: 2
77 -1 77 -1 152 -1 32 -1 #SUP: 2
123 -1 2707 -1 64 -1 65 -1 #SUP: 2
197 -1 369 -1 2319 -1 64 -1 #SUP: 2
369 -1 2319 -1 64 -1 65 -1 #SUP: 2
768 -1 222 -1 32 -1 77 -1 #SUP: 2
972 -1 33 -1 22 -1 9585 -1 #SUP: 2
972 -1 33 -1 64 -1 22 -1 #SUP: 2
972 -1 33 -1 64 -1 9585 -1 #SUP: 2
972 -1 33 -1 1471 -1 22 -1 #SUP: 2
972 -1 33 -1 1471 -1 64 -1 #SUP: 2
972 -1 33 -1 1471 -1 9585 -1 #SUP: 2
972 -1 33 -1 2784 -1 22 -1 #SUP: 2
972 -1 33 -1 2784 -1 64 -1 #SUP: 2
972 -1 33 -1 2784 -1 1471 -1 #SUP: 2
972 -1 33 -1 2784 -1 9585 -1 #SUP: 2
972 -1 64 -1 22 -1 9585 -1 #SUP: 2
972 -1 1471 -1 22 -1 9585 -1 #SUP: 2
972 -1 1471 -1 64 -1 22 -1 #SUP: 2
972 -1 1471 -1 64 -1 9585 -1 #SUP: 2
972 -1 2784 -1 22 -1 9585 -1 #SUP: 2
972 -1 2784 -1 64 -1 22 -1 #SUP: 2
972 -1 2784 -1 64 -1 9585 -1 #SUP: 2
972 -1 2784 -1 1471 -1 22 -1 #SUP: 2
972 -1 2784 -1 1471 -1 64 -1 #SUP: 2
972 -1 2784 -1 1471 -1 9585 -1 #SUP: 2
1471 -1 64 -1 22 -1 9585 -1 #SUP: 2
2319 -1 64 -1 65 -1 871 -1 #SUP: 2
2784 -1 64 -1 22 -1 9585 -1 #SUP: 2
2784 -1 1471 -1 22 -1 9585 -1 #SUP: 2
2784 -1 1471 -1 64 -1 22 -1 #SUP: 2
2784 -1 1471 -1 64 -1 9585 -1 #SUP: 2
33 -1 1471 -1 64 -1 22 -1 9585 -1 #SUP: 2
33 -1 2784 -1 64 -1 22 -1 9585 -1 #SUP: 2
33 -1 2784 -1 1471 -1 22 -1 9585 -1 #SUP: 2
33 -1 2784 -1 1471 -1 64 -1 22 -1 #SUP: 2
33 -1 2784 -1 1471 -1 64 -1 9585 -1 #SUP: 2
972 -1 33 -1 64 -1 22 -1 9585 -1 #SUP: 2
972 -1 33 -1 1471 -1 22 -1 9585 -1 #SUP: 2
972 -1 33 -1 1471 -1 64 -1 22 -1 #SUP: 2
972 -1 33 -1 1471 -1 64 -1 9585 -1 #SUP: 2
972 -1 33 -1 2784 -1 22 -1 9585 -1 #SUP: 2
972 -1 33 -1 2784 -1 64 -1 22 -1 #SUP: 2
972 -1 33 -1 2784 -1 64 -1 9585 -1 #SUP: 2
972 -1 33 -1 2784 -1 1471 -1 22 -1 #SUP: 2
972 -1 33 -1 2784 -1 1471 -1 64 -1 #SUP: 2
972 -1 33 -1 2784 -1 1471 -1 9585 -1 #SUP: 2
972 -1 1471 -1 64 -1 22 -1 9585 -1 #SUP: 2
972 -1 2784 -1 64 -1 22 -1 9585 -1 #SUP: 2
972 -1 2784 -1 1471 -1 22 -1 9585 -1 #SUP: 2
972 -1 2784 -1 1471 -1 64 -1 22 -1 #SUP: 2
972 -1 2784 -1 1471 -1 64 -1 9585 -1 #SUP: 2
2784 -1 1471 -1 64 -1 22 -1 9585 -1 #SUP: 2
33 -1 2784 -1 1471 -1 64 -1 22 -1 9585 -1 #SUP: 2
972 -1 33 -1 1471 -1 64 -1 22 -1 9585 -1 #SUP: 2
972 -1 33 -1 2784 -1 64 -1 22 -1 9585 -1 #SUP: 2
972 -1 33 -1 2784 -1 1471 -1 22 -1 9585 -1 #SUP: 2
972 -1 33 -1 2784 -1 1471 -1 64 -1 22 -1 #SUP: 2
972 -1 33 -1 2784 -1 1471 -1 64 -1 9585 -1 #SUP: 2
972 -1 2784 -1 1471 -1 64 -1 22 -1 9585 -1 #SUP: 2
972 -1 33 -1 2784 -1 1471 -1 64 -1 22 -1 9585 -1 #SUP: 2
