123 -1 3774 -1 64 -1 10061 -1 77 -1 599 -1 5503 -1 193 -1 535 -1 65 -1 401 -1 1388 -1 77 -1 2 -1 3774 -1 536 -1 64 -1 50 -1 394 -1 13 -1 30 -2
35566 -1 30 -2
184 -1 23 -1 886 -1 634 -1 12804 -1 2060 -1 140 -1 8066 -1 6306 -1 65 -1 613 -1 3859 -1 140 -1 162708 -1 95425 -1 280 -1 9287 -1 140 -1 162708 -1 3038 -1 2134 -1 1995 -1 77 -1 599 -1 123 -1 174 -1 212 -1 189 -1 7904 -1 262 -1 7692 -1 2681 -1 7596 -1 140 -1 11262 -1 30 -2
12748 -1 2 -1 243 -1 2023 -1 571 -1 32 -1 657 -1 77 -1 123 -1 437 -1 5126 -1 30 -2
123 -1 206 -1 529 -1 431 -1 168 -1 10 -1 1807 -1 77 -1 5431 -1 1318 -1 517 -1 1238 -1 22 -1 17444 -1 3912 -1 30 -2
123 -1 1216 -1 340 -1 27 -1 41 -1 183 -1 2910 -1 291 -1 30 -2
78 -1 4377 -1 77 -1 704 -1 489 -1 2 -1 525 -1 2525 -1 1123 -1 30 -2
193 -1 170 -1 66 -1 8947 -1 2944 -1 32 -1 1263 -1 77 -1 657 -1 220 -1 2453 -1 441 -1 22 -1 29968 -1 60114 -1 3035 -1 30 -2
443 -1 1672 -1 83 -1 64 -1 30 -2
123 -1 441 -1 914 -1 232 -1 164 -1 411 -1 198 -1 4087 -1 30 -2
538 -1 32 -1 66 -1 77 -1 123 -1 613 -1 262 -1 263 -1 30 -2
193 -1 170 -1 9236 -1 64 -1 222 -1 30 -2
123 -1 356 -1 22 -1 960 -1 154 -1 2006 -1 2354 -1 33 -1 2003 -1 77 -1 254 -1 443 -1 183 -1 4540 -1 656 -1 64 -1 3268 -1 369 -1 443 -1 183 -1 78 -1 915 -1 1054 -1 30 -2
123 -1 356 -1 154 -1 443 -1 30 -2
183 -1 5962 -1 1191 -1 41 -1 1475 -1 2910 -1 291 -1 2637 -1 1 -2
123 -1 1314 -1 326 -1 1900 -1 78 -1 693 -1 32 -1 22 -1 3601 -1 5328 -1 4005 -1 117 -1 50 -1 269 -1 395 -1 77 -1 152 -1 22 -1 10816 -1 2771 -1 117 -1 22 -1 395 -1 123 -1 756 -1 10 -1 30 -2
349 -1 183 -1 223 -1 33 -1 6447 -1 30 -2
1127 -1 30 -2
2229 -1 2 -1 1968 -1 66 -1 22 -1 417 -1 283 -2
123 -1 144 -1 317 -1 65 -1 561 -1 32 -1 162709 -1 77 -1 236 -1 225 -1 1757 -1 154 -1 739 -1 77 -1 599 -1 22 -1 4614 -1 6291 -1 32 -1 22 -1 76 -1 123 -1 2521 -1 431 -1 3722 -1 3113 -1 30 -2
123 -1 441 -1 3 -1 3979 -1 31 -1 274 -1 250 -1 2 -1 65 -1 484 -1 408 -1 30 -2
70 -1 1274 -1 31 -1 294 -1 300 -1 77 -1 599 -1 22 -1 151 -1 123 -1 2643 -1 285 -1 3388 -1 183 -1 8570 -1 77 -1 3084 -1 330 -1 65 -1 1587 -1 78 -1 246 -1 30 -2
123 -1 441 -1 1743 -1 16149 -1 10 -1 22 -1 30 -2
50 -1 440 -1 280 -1 2773 -1 170 -1 5 -1 30 -2
566 -1 170 -1 260 -1 192 -1 77 -1 2 -1 22 -1 73 -1 365 -1 10 -1 1214 -1 2958 -1 123 -1 965 -1 356 -1 77 -1 690 -1 30 -2
566 -1 170 -1 431 -1 8223 -1 77 -1 599 -1 16 -1 10 -1 326 -1 3132 -1 83007 -1 417 -1 356 -1 326 -1 2849 -1 30 -2
566 -1 2 -1 123 -1 220 -1 1217 -1 31 -1 30 -2
3336 -1 262 -1 30 -2
6095 -1 225 -1 12592 -1 50 -1 4126 -1 5227 -1 657 -1 170 -1 212 -1 1160 -1 2189 -1 32 -1 12592 -1 50 -1 4126 -1 50 -1 1226 -1 170 -1 6842 -1 50 -1 2773 -1 170 -1 10210 -1 364 -1 164 -1 41 -1 33 -1 262 -1 77 -1 2 -1 123 -1 593 -1 2218 -1 50 -1 317 -1 6267 -1 33 -1 193 -1 256 -1 50 -1 241 -1 280 -1 5558 -1 30 -2
78 -1 326 -1 683 -1 77 -1 123 -1 174 -1 36504 -1 4153 -1 64 -1 3043 -1 30 -2
123 -1 286 -1 154 -1 77 -1 10 -1 704 -1 317 -1 211 -1 7027 -1 77 -1 443 -1 322 -1 2003 -1 78 -1 30 -2
6215 -1 162711 -1 77 -1 162710 -1 225 -1 938 -1 2019 -1 198 -1 32 -1 22 -1 162712 -1 50 -1 2544 -1 77 -1 2 -1 22 -1 123 -1 340 -1 30 -2
364 -1 63 -1 959 -1 30 -2
162713 -1 3985 -1 283 -2
123 -1 1348 -1 82471 -1 3287 -1 140 -1 411 -1 30 -2
123 -1 529 -1 1348 -1 17385 -1 5777 -1 66801 -1 140 -1 411 -1 30 -2
4233 -1 3414 -1 31 -1 200 -1 30 -2
1191 -1 77 -1 193 -1 170 -1 9016 -1 64 -1 499 -1 164 -1 200 -1 77 -1 599 -1 236 -1 202 -1 567 -1 171 -1 64 -1 499 -1 164 -1 77 -1 193 -1 30 -2
5768 -1 283 -2
547 -1 77 -1 2 -1 123 -1 3641 -1 41 -1 441 -1 64 -1 13812 -1 3951 -1 158 -1 33 -1 22 -1 16164 -1 77 -1 5431 -1 22 -1 960 -1 154 -1 248 -1 3158 -1 64 -1 67 -1 19065 -1 283 -2
520 -1 364 -1 2378 -1 95 -1 35 -1 2 -1 123 -1 268 -1 262 -1 3216 -1 2173 -1 30 -2
193 -1 206 -1 262 -1 6360 -1 256 -1 162714 -1 136447 -1 2270 -1 164 -1 4574 -1 123 -1 11075 -1 49 -1 3340 -1 30 -2
768 -1 206 -1 12246 -1 64 -1 222 -1 140 -1 200 -1 369 -1 123 -1 1757 -1 65 -1 168 -1 46 -1 32 -1 30 -2
5768 -1 30 -2
123 -1 433 -1 765 -1 262 -1 162 -1 276 -1 170 -1 468 -1 30 -2
65 -1 1219 -1 32 -1 22 -1 76 -1 77 -1 123 -1 593 -1 212 -1 765 -1 193 -1 10 -1 65 -1 20853 -1 417 -1 10 -1 33135 -1 32 -1 65 -1 788 -1 30 -2
213 -1 82 -1 77 -1 123 -1 226 -1 3146 -1 50 -1 972 -1 536 -1 2 -1 5618 -1 77 -1 30 -2
262 -1 170 -1 22 -1 393 -1 173 -1 31 -1 65 -1 604 -1 631 -1 22 -1 17532 -1 154 -1 123 -1 334 -1 10 -1 262 -1 3070 -1 123 -1 2301 -1 64 -1 67 -1 10 -1 30 -2
123 -1 174 -1 22 -1 637 -1 4102 -1 10 -1 22 -1 16607 -1 2 -1 7150 -1 30 -2
65 -1 561 -1 1224 -1 2074 -1 291 -1 262 -1 10379 -1 22 -1 395 -1 11163 -1 30 -2
41 -1 183 -1 520 -1 1123 -1 77 -1 4381 -1 2 -1 77 -1 4140 -1 30 -2
123 -1 1485 -1 29 -1 7569 -1 77 -1 2 -1 285 -1 41 -1 183 -1 9108 -1 32 -1 1166 -1 30 -2
123 -1 1034 -1 41 -1 30 -2
850 -1 77 -1 41 -1 220 -1 1908 -1 29 -1 162715 -1 170 -1 65 -1 16 -1 65 -1 14210 -1 34876 -1 30 -2
123 -1 174 -1 2658 -1 193 -1 77 -1 599 -1 50 -1 440 -1 170 -1 66 -1 291 -1 193 -1 30 -2
443 -1 638 -1 65 -1 13190 -1 8101 -1 1288 -1 274 -1 262 -1 30 -2
236 -1 443 -1 268 -1 1436 -1 2 -1 441 -1 4005 -1 77 -1 193 -1 226 -1 67 -1 1082 -1 30 -2
123 -1 286 -1 123 -1 1949 -1 64 -1 144 -1 22 -1 13195 -1 54 -1 30 -2
603 -1 263 -1 283 -2
201 -1 183 -1 520 -1 278 -1 167 -1 123 -1 284 -1 564 -1 10 -1 262 -1 13069 -1 30 -2
10 -1 1859 -1 77 -1 225 -1 120 -1 322 -1 222 -1 78 -1 123 -1 322 -1 411 -1 30 -2
1964 -1 123 -1 441 -1 65 -1 1107 -1 164 -1 200 -1 369 -1 965 -1 2284 -1 222 -1 77 -1 193 -1 548 -1 222 -1 1758 -1 431 -1 30 -2
11482 -1 683 -1 936 -1 283 -2
123 -1 1216 -1 120 -1 286 -1 193 -1 170 -1 65 -1 8313 -1 154 -1 201 -1 183 -1 520 -1 278 -1 32 -1 1263 -1 10 -1 936 -1 30 -2
123 -1 220 -1 3956 -1 1713 -1 64 -1 22 -1 7753 -1 30 -2
566 -1 3217 -1 222 -1 65 -1 1219 -1 32 -1 222 -1 2 -1 123 -1 174 -1 1216 -1 65 -1 2094 -1 683 -1 30 -2
123 -1 1216 -1 144 -1 27 -1 22 -1 1174 -1 170 -1 11979 -1 30 -2
123 -1 2940 -1 224 -1 50 -1 5155 -1 66 -1 22 -1 76 -1 77 -1 433 -1 138 -1 2910 -1 64 -1 411 -1 30 -2
123 -1 441 -1 2425 -1 213 -1 739 -1 7215 -1 78 -1 246 -1 30 -2
50 -1 440 -1 170 -1 130 -1 10 -1 164 -1 222 -1 30 -2
123 -1 176 -1 715 -1 164 -1 1433 -1 2514 -1 21743 -1 6782 -1 171 -1 280 -1 368 -1 245 -1 30 -2
50 -1 489 -1 183 -1 260 -1 8024 -1 77 -1 599 -1 1964 -1 123 -1 83 -1 64 -1 2233 -1 65 -1 205 -1 77 -1 193 -1 1210 -1 198 -1 78 -1 39465 -1 77 -1 30 -2
123 -1 220 -1 715 -1 164 -1 22 -1 1174 -1 77 -1 254 -1 123 -1 174 -1 651 -1 655 -1 276 -1 1184 -1 10 -1 50 -1 2630 -1 78 -1 65 -1 2771 -1 123 -1 165 -1 16 -1 5628 -1 65 -1 44 -1 32 -1 381 -1 65 -1 4244 -1 77 -1 533 -1 30 -2
123 -1 9544 -1 50 -1 1380 -1 77 -1 2 -1 564 -1 520 -1 384 -1 2245 -1 76 -1 30 -2
123 -1 1216 -1 781 -1 1193 -1 65 -1 17529 -1 6930 -1 4615 -1 64 -1 650 -1 369 -1 6907 -1 340 -1 222 -1 30 -2
50 -1 17529 -1 6930 -1 4615 -1 226 -1 1141 -1 711 -1 225 -1 2338 -1 222 -1 512 -1 152 -1 83 -1 64 -1 2940 -1 66 -1 274 -1 222 -1 152 -1 571 -1 30 -2
123 -1 174 -1 65 -1 13495 -1 610 -1 30 -2
123 -1 529 -1 789 -1 17570 -1 2 -1 12056 -1 10 -1 902 -1 905 -1 2 -1 3019 -1 30 -2
123 -1 613 -1 262 -1 263 -1 30 -2
696 -1 34451 -1 183 -1 520 -1 176 -1 55553 -1 64 -1 326 -1 683 -1 280 -1 1115 -1 30 -2
262 -1 3217 -1 222 -1 32 -1 154 -1 236 -1 4377 -1 15594 -1 22 -1 219 -1 263 -1 77 -1 599 -1 151 -1 2442 -1 2 -1 1809 -1 30 -2
123 -1 286 -1 30 -2
8 -1 28 -1 26 -1 162716 -1 123 -1 212 -1 120 -1 356 -1 22 -1 1608 -1 10 -1 936 -1 30 -2
123 -1 174 -1 590 -1 78 -1 65 -1 431 -1 2612 -1 637 -1 77 -1 2 -1 193 -1 451 -1 65 -1 1219 -1 64 -1 268 -1 222 -1 21933 -1 28304 -1 158 -1 30 -2
710 -1 77 -1 236 -1 41 -1 3279 -1 22 -1 308 -1 3278 -1 77 -1 1305 -1 441 -1 65 -1 219 -1 32 -1 691 -1 2019 -1 29 -1 417 -1 30 -2
78 -1 1241 -1 78 -1 5381 -1 10438 -1 499 -1 77 -1 30 -2
285 -1 12808 -1 32 -1 222 -1 64 -1 16 -1 781 -1 50 -1 834 -1 3312 -1 65 -1 1074 -1 8282 -1 30 -2
8 -1 28 -1 26 -1 162717 -1 1664 -1 3060 -1 30 -2
849 -1 201 -1 165 -1 67 -1 567 -1 4179 -1 2 -1 2134 -1 6337 -1 30 -2
1580 -1 201 -1 165 -1 67 -1 2134 -1 24767 -1 77 -1 254 -1 22 -1 8577 -1 2 -1 1925 -1 32 -1 24767 -1 183 -1 65 -1 1219 -1 2134 -1 150 -1 64 -1 67 -1 826 -1 140 -1 1263 -1 30 -1 30 -1 123 -1 144 -1 16 -1 356 -1 5528 -1 117 -1 66 -1 30 -2
123 -1 1310 -1 1364 -1 164 -1 22 -1 4106 -1 77 -1 236 -1 41 -1 638 -1 65 -1 43769 -1 77 -1 165 -1 41 -1 564 -1 37641 -1 58651 -1 33 -1 193 -1 1 -2
123 -1 238 -1 10 -1 65 -1 6103 -1 11885 -1 444 -1 193 -1 701 -1 78 -1 533 -1 22 -1 4614 -1 6291 -1 30 -2
123 -1 1834 -1 64 -1 3322 -1 718 -1 32389 -1 30 -2
123 -1 120 -1 322 -1 326 -1 683 -1 5171 -1 3508 -1 201 -1 170 -1 65 -1 1123 -1 4334 -1 1110 -1 3533 -1 193 -1 8202 -1 77 -1 19078 -1 1232 -1 77 -1 152 -1 65 -1 23383 -1 764 -1 8202 -1 77 -1 15878 -1 30 -2
78 -1 326 -1 683 -1 77 -1 123 -1 441 -1 65 -1 81 -1 76 -1 1480 -1 749 -1 225 -1 144 -1 167 -1 356 -1 30 -2
123 -1 527 -1 879 -1 1664 -1 2394 -1 30 -2
123 -1 120 -1 268 -1 237 -1 278 -1 2674 -1 30 -2
710 -1 77 -1 123 -1 613 -1 30135 -1 30 -2
193 -1 170 -1 65 -1 431 -1 3028 -1 28005 -1 1105 -1 30 -2
123 -1 260 -1 715 -1 2289 -1 164 -1 27 -1 10110 -1 22 -1 239 -1 2746 -1 2319 -1 655 -1 117 -1 1214 -1 30 -2
123 -1 174 -1 65 -1 13495 -1 610 -1 77 -1 2 -1 123 -1 441 -1 213 -1 2489 -1 5683 -1 10 -1 657 -1 123 -1 12056 -1 30 -2
123 -1 441 -1 638 -1 65 -1 401 -1 871 -1 4305 -1 10 -1 50 -1 13 -1 444 -1 123 -1 29022 -1 8020 -1 2 -1 9020 -1 30 -2
308 -1 189 -1 123 -1 174 -1 65 -1 2771 -1 77 -1 2 -1 30 -2
262 -1 170 -1 326 -1 779 -1 263 -1 283 -2
41 -1 549 -1 630 -1 65 -1 1219 -1 32 -1 759 -1 77 -1 520 -1 123 -1 212 -1 1438 -1 33 -1 65 -1 9008 -1 12885 -1 77 -1 547 -1 30 -2
1160 -1 171 -1 123 -1 210 -1 356 -1 64 -1 2218 -1 3508 -1 200 -1 1027 -1 630 -1 193 -1 77 -1 2 -1 123 -1 20121 -1 193 -1 170 -1 12592 -1 50 -1 30 -2
50 -1 440 -1 2 -1 123 -1 5126 -1 117 -1 22 -1 132 -1 395 -1 30 -2
1964 -1 123 -1 268 -1 260 -1 872 -1 14675 -1 198 -1 77 -1 768 -1 15443 -1 430 -1 613 -1 5579 -1 10 -1 50 -1 4406 -1 7573 -1 31 -1 222 -1 64 -1 1629 -1 30 -2
326 -1 439 -1 32 -1 262 -1 165 -1 67 -1 276 -1 1790 -1 22 -1 30 -2
123 -1 356 -1 262 -1 10403 -1 30 -2
123 -1 286 -1 193 -1 170 -1 431 -1 887 -1 77 -1 10 -1 1859 -1 30 -2
78 -1 326 -1 3028 -1 77 -1 123 -1 1216 -1 286 -1 443 -1 543 -1 31 -1 22 -1 13907 -1 1271 -1 2 -1 1113 -1 6078 -1 10 -1 704 -1 393 -1 30 -2
123 -1 174 -1 326 -1 1082 -1 851 -1 77 -1 30 -2
22 -1 49 -1 624 -1 123 -1 1438 -1 64 -1 22 -1 12390 -1 64 -1 322 -1 206 -1 6627 -1 686 -1 30 -2
123 -1 174 -1 326 -1 65 -1 107134 -1 8490 -1 30 -2
334 -1 193 -1 7279 -1 65 -1 50641 -1 393 -1 246 -1 1 -2
16 -1 260 -1 77 -1 599 -1 364 -1 10324 -1 64 -1 322 -1 65 -1 50641 -1 393 -1 1600 -1 12696 -1 30 -2
850 -1 283 -2
123 -1 176 -1 1364 -1 283 -2
123 -1 715 -1 164 -1 12080 -1 27923 -1 10 -1 520 -1 278 -1 1125 -1 77 -1 2 -1 123 -1 2351 -1 154 -1 3352 -1 30 -2
856 -1 41 -1 66 -1 31 -1 10611 -1 29 -1 489 -1 936 -1 30 -2
123 -1 174 -1 65 -1 1444 -1 491 -1 394 -1 683 -1 656 -1 64 -1 483 -1 50 -1 417 -1 10 -1 22 -1 219 -1 78 -1 443 -1 66 -1 183 -1 30 -2
123 -1 437 -1 5126 -1 306 -1 395 -1 30 -2
123 -1 1591 -1 193 -1 77 -1 2 -1 1762 -1 64 -1 5033 -1 535 -1 30 -2