2 -1 #SUP: 16
7 -1 #SUP: 2
9 -1 #SUP: 2
10 -1 #SUP: 11
11 -1 #SUP: 3
16 -1 #SUP: 4
22 -1 #SUP: 32
26 -1 #SUP: 2
27 -1 #SUP: 3
28 -1 #SUP: 2
29 -1 #SUP: 4
30 -1 #SUP: 2
31 -1 #SUP: 8
32 -1 #SUP: 15
33 -1 #SUP: 7
41 -1 #SUP: 15
42 -1 #SUP: 2
50 -1 #SUP: 5
64 -1 #SUP: 31
65 -1 #SUP: 17
66 -1 #SUP: 4
67 -1 #SUP: 6
70 -1 #SUP: 3
77 -1 #SUP: 35
78 -1 #SUP: 6
115 -1 #SUP: 2
120 -1 #SUP: 3
123 -1 #SUP: 20
132 -1 #SUP: 2
134 -1 #SUP: 3
142 -1 #SUP: 2
144 -1 #SUP: 8
151 -1 #SUP: 2
152 -1 #SUP: 3
154 -1 #SUP: 17
156 -1 #SUP: 3
159 -1 #SUP: 2
164 -1 #SUP: 8
165 -1 #SUP: 6
170 -1 #SUP: 8
171 -1 #SUP: 5
175 -1 #SUP: 3
178 -1 #SUP: 2
183 -1 #SUP: 6
189 -1 #SUP: 4
190 -1 #SUP: 4
192 -1 #SUP: 2
193 -1 #SUP: 11
196 -1 #SUP: 2
197 -1 #SUP: 2
198 -1 #SUP: 2
200 -1 #SUP: 2
201 -1 #SUP: 7
206 -1 #SUP: 3
212 -1 #SUP: 4
220 -1 #SUP: 4
221 -1 #SUP: 2
222 -1 #SUP: 4
223 -1 #SUP: 2
228 -1 #SUP: 7
236 -1 #SUP: 2
241 -1 #SUP: 2
244 -1 #SUP: 3
246 -1 #SUP: 3
256 -1 #SUP: 3
262 -1 #SUP: 4
276 -1 #SUP: 2
280 -1 #SUP: 3
285 -1 #SUP: 4
286 -1 #SUP: 4
291 -1 #SUP: 5
308 -1 #SUP: 2
322 -1 #SUP: 2
326 -1 #SUP: 4
356 -1 #SUP: 3
365 -1 #SUP: 2
381 -1 #SUP: 4
384 -1 #SUP: 2
409 -1 #SUP: 2
431 -1 #SUP: 2
441 -1 #SUP: 3
443 -1 #SUP: 3
452 -1 #SUP: 2
485 -1 #SUP: 2
499 -1 #SUP: 3
501 -1 #SUP: 3
510 -1 #SUP: 2
519 -1 #SUP: 2
520 -1 #SUP: 4
533 -1 #SUP: 3
536 -1 #SUP: 2
544 -1 #SUP: 2
599 -1 #SUP: 3
650 -1 #SUP: 2
652 -1 #SUP: 2
700 -1 #SUP: 2
711 -1 #SUP: 2
749 -1 #SUP: 3
762 -1 #SUP: 2
765 -1 #SUP: 4
773 -1 #SUP: 2
786 -1 #SUP: 2
823 -1 #SUP: 2
910 -1 #SUP: 2
921 -1 #SUP: 3
1041 -1 #SUP: 2
1191 -1 #SUP: 2
1382 -1 #SUP: 2
1428 -1 #SUP: 2
1441 -1 #SUP: 2
2029 -1 #SUP: 2
2208 -1 #SUP: 2
3006 -1 #SUP: 2
3083 -1 #SUP: 2
3369 -1 #SUP: 4
6230 -1 #SUP: 2
6609 -1 #SUP: 2
7358 -1 #SUP: 3
9284 -1 #SUP: 2
17667 -1 #SUP: 2
96395 -1 #SUP: 2
128249 -1 #SUP: 2
2 -1 10 -1 #SUP: 2
2 -1 22 -1 #SUP: 2
2 -1 64 -1 #SUP: 3
2 -1 65 -1 #SUP: 3
2 -1 77 -1 #SUP: 3
2 -1 142 -1 #SUP: 2
2 -1 244 -1 #SUP: 2
9 -1 26 -1 #SUP: 2
9 -1 28 -1 #SUP: 2
10 -1 22 -1 #SUP: 2
10 -1 32 -1 #SUP: 3
10 -1 64 -1 #SUP: 2
10 -1 65 -1 #SUP: 5
10 -1 77 -1 #SUP: 3
10 -1 132 -1 #SUP: 2
10 -1 1428 -1 #SUP: 2
16 -1 77 -1 #SUP: 2
22 -1 2 -1 #SUP: 5
22 -1 10 -1 #SUP: 3
22 -1 22 -1 #SUP: 3
22 -1 31 -1 #SUP: 2
22 -1 32 -1 #SUP: 5
22 -1 64 -1 #SUP: 7
22 -1 65 -1 #SUP: 3
22 -1 67 -1 #SUP: 2
22 -1 77 -1 #SUP: 12
22 -1 78 -1 #SUP: 3
22 -1 115 -1 #SUP: 2
22 -1 123 -1 #SUP: 2
22 -1 132 -1 #SUP: 2
22 -1 164 -1 #SUP: 3
22 -1 170 -1 #SUP: 2
22 -1 193 -1 #SUP: 3
22 -1 246 -1 #SUP: 3
22 -1 409 -1 #SUP: 2
22 -1 499 -1 #SUP: 2
22 -1 501 -1 #SUP: 3
22 -1 519 -1 #SUP: 2
22 -1 544 -1 #SUP: 2
22 -1 711 -1 #SUP: 2
22 -1 765 -1 #SUP: 2
22 -1 1191 -1 #SUP: 2
22 -1 2029 -1 #SUP: 2
22 -1 3083 -1 #SUP: 2
22 -1 6230 -1 #SUP: 2
22 -1 6609 -1 #SUP: 2
27 -1 41 -1 #SUP: 2
28 -1 26 -1 #SUP: 2
29 -1 10 -1 #SUP: 2
31 -1 22 -1 #SUP: 4
31 -1 77 -1 #SUP: 3
31 -1 78 -1 #SUP: 2
31 -1 222 -1 #SUP: 2
31 -1 246 -1 #SUP: 2
32 -1 2 -1 #SUP: 4
32 -1 22 -1 #SUP: 7
32 -1 64 -1 #SUP: 2
32 -1 65 -1 #SUP: 3
32 -1 77 -1 #SUP: 5
32 -1 123 -1 #SUP: 3
33 -1 22 -1 #SUP: 2
33 -1 77 -1 #SUP: 2
33 -1 154 -1 #SUP: 3
33 -1 164 -1 #SUP: 2
33 -1 178 -1 #SUP: 2
41 -1 2 -1 #SUP: 2
41 -1 10 -1 #SUP: 2
41 -1 29 -1 #SUP: 2
41 -1 32 -1 #SUP: 3
41 -1 64 -1 #SUP: 2
41 -1 65 -1 #SUP: 2
41 -1 66 -1 #SUP: 2
41 -1 154 -1 #SUP: 4
41 -1 286 -1 #SUP: 3
41 -1 291 -1 #SUP: 2
41 -1 910 -1 #SUP: 2
41 -1 921 -1 #SUP: 2
50 -1 65 -1 #SUP: 2
50 -1 77 -1 #SUP: 2
50 -1 183 -1 #SUP: 2
64 -1 2 -1 #SUP: 5
64 -1 10 -1 #SUP: 3
64 -1 22 -1 #SUP: 5
64 -1 29 -1 #SUP: 2
64 -1 32 -1 #SUP: 3
64 -1 33 -1 #SUP: 3
64 -1 41 -1 #SUP: 2
64 -1 50 -1 #SUP: 2
64 -1 64 -1 #SUP: 7
64 -1 67 -1 #SUP: 4
64 -1 77 -1 #SUP: 8
64 -1 123 -1 #SUP: 3
64 -1 154 -1 #SUP: 2
64 -1 159 -1 #SUP: 2
64 -1 164 -1 #SUP: 2
64 -1 165 -1 #SUP: 2
64 -1 170 -1 #SUP: 2
64 -1 193 -1 #SUP: 3
64 -1 499 -1 #SUP: 2
64 -1 536 -1 #SUP: 2
64 -1 765 -1 #SUP: 3
65 -1 2 -1 #SUP: 2
65 -1 10 -1 #SUP: 2
65 -1 32 -1 #SUP: 5
65 -1 41 -1 #SUP: 2
65 -1 64 -1 #SUP: 3
65 -1 65 -1 #SUP: 3
65 -1 77 -1 #SUP: 3
65 -1 123 -1 #SUP: 2
65 -1 154 -1 #SUP: 2
65 -1 256 -1 #SUP: 2
65 -1 1428 -1 #SUP: 2
66 -1 10 -1 #SUP: 3
66 -1 22 -1 #SUP: 2
66 -1 32 -1 #SUP: 2
66 -1 154 -1 #SUP: 2
67 -1 64 -1 #SUP: 2
67 -1 164 -1 #SUP: 2
70 -1 10 -1 #SUP: 2
70 -1 64 -1 #SUP: 2
77 -1 2 -1 #SUP: 10
77 -1 10 -1 #SUP: 2
77 -1 22 -1 #SUP: 6
77 -1 31 -1 #SUP: 2
77 -1 33 -1 #SUP: 2
77 -1 41 -1 #SUP: 2
77 -1 64 -1 #SUP: 8
77 -1 65 -1 #SUP: 3
77 -1 67 -1 #SUP: 2
77 -1 77 -1 #SUP: 5
77 -1 123 -1 #SUP: 7
77 -1 152 -1 #SUP: 2
77 -1 154 -1 #SUP: 5
77 -1 165 -1 #SUP: 3
77 -1 170 -1 #SUP: 3
77 -1 183 -1 #SUP: 3
77 -1 193 -1 #SUP: 3
77 -1 201 -1 #SUP: 3
77 -1 206 -1 #SUP: 2
77 -1 244 -1 #SUP: 3
77 -1 381 -1 #SUP: 2
77 -1 499 -1 #SUP: 3
77 -1 599 -1 #SUP: 2
77 -1 650 -1 #SUP: 2
77 -1 762 -1 #SUP: 2
77 -1 3369 -1 #SUP: 3
78 -1 22 -1 #SUP: 3
78 -1 77 -1 #SUP: 2
78 -1 78 -1 #SUP: 2
78 -1 246 -1 #SUP: 2
78 -1 381 -1 #SUP: 2
115 -1 31 -1 #SUP: 2
115 -1 78 -1 #SUP: 2
115 -1 246 -1 #SUP: 2
120 -1 64 -1 #SUP: 2
120 -1 134 -1 #SUP: 2
123 -1 2 -1 #SUP: 2
123 -1 10 -1 #SUP: 2
123 -1 22 -1 #SUP: 4
123 -1 41 -1 #SUP: 2
123 -1 50 -1 #SUP: 2
123 -1 64 -1 #SUP: 10
123 -1 67 -1 #SUP: 2
123 -1 77 -1 #SUP: 5
123 -1 120 -1 #SUP: 2
123 -1 123 -1 #SUP: 4
123 -1 134 -1 #SUP: 2
123 -1 142 -1 #SUP: 2
123 -1 154 -1 #SUP: 4
123 -1 164 -1 #SUP: 3
123 -1 165 -1 #SUP: 4
123 -1 170 -1 #SUP: 2
123 -1 193 -1 #SUP: 2
123 -1 765 -1 #SUP: 2
132 -1 41 -1 #SUP: 2
134 -1 64 -1 #SUP: 2
134 -1 134 -1 #SUP: 2
142 -1 64 -1 #SUP: 2
144 -1 22 -1 #SUP: 2
144 -1 31 -1 #SUP: 2
144 -1 41 -1 #SUP: 4
144 -1 154 -1 #SUP: 2
144 -1 286 -1 #SUP: 2
144 -1 291 -1 #SUP: 2
152 -1 2 -1 #SUP: 2
152 -1 64 -1 #SUP: 2
154 -1 2 -1 #SUP: 3
154 -1 10 -1 #SUP: 2
154 -1 22 -1 #SUP: 2
154 -1 32 -1 #SUP: 2
154 -1 41 -1 #SUP: 2
154 -1 64 -1 #SUP: 3
154 -1 65 -1 #SUP: 2
154 -1 67 -1 #SUP: 2
154 -1 77 -1 #SUP: 7
154 -1 123 -1 #SUP: 2
154 -1 164 -1 #SUP: 2
154 -1 178 -1 #SUP: 2
154 -1 183 -1 #SUP: 2
154 -1 193 -1 #SUP: 2
154 -1 201 -1 #SUP: 2
154 -1 17667 -1 #SUP: 2
164 -1 22 -1 #SUP: 2
164 -1 41 -1 #SUP: 2
164 -1 64 -1 #SUP: 2
164 -1 65 -1 #SUP: 2
164 -1 77 -1 #SUP: 2
164 -1 154 -1 #SUP: 2
164 -1 501 -1 #SUP: 2
165 -1 2 -1 #SUP: 2
165 -1 64 -1 #SUP: 5
165 -1 67 -1 #SUP: 2
165 -1 154 -1 #SUP: 2
170 -1 31 -1 #SUP: 2
170 -1 41 -1 #SUP: 3
170 -1 64 -1 #SUP: 2
170 -1 154 -1 #SUP: 2
170 -1 196 -1 #SUP: 2
170 -1 384 -1 #SUP: 2
171 -1 222 -1 #SUP: 2
175 -1 22 -1 #SUP: 2
175 -1 156 -1 #SUP: 2
183 -1 2 -1 #SUP: 2
183 -1 154 -1 #SUP: 2
190 -1 77 -1 #SUP: 3
193 -1 10 -1 #SUP: 3
193 -1 22 -1 #SUP: 2
193 -1 64 -1 #SUP: 4
193 -1 65 -1 #SUP: 3
193 -1 67 -1 #SUP: 3
193 -1 77 -1 #SUP: 2
193 -1 206 -1 #SUP: 2
196 -1 31 -1 #SUP: 2
196 -1 384 -1 #SUP: 2
197 -1 77 -1 #SUP: 2
200 -1 533 -1 #SUP: 2
201 -1 2 -1 #SUP: 3
201 -1 22 -1 #SUP: 2
201 -1 64 -1 #SUP: 2
201 -1 77 -1 #SUP: 4
201 -1 154 -1 #SUP: 3
201 -1 183 -1 #SUP: 2
201 -1 190 -1 #SUP: 2
206 -1 2 -1 #SUP: 2
206 -1 65 -1 #SUP: 2
212 -1 32 -1 #SUP: 2
212 -1 64 -1 #SUP: 3
220 -1 22 -1 #SUP: 2
220 -1 32 -1 #SUP: 2
221 -1 22 -1 #SUP: 2
222 -1 2 -1 #SUP: 2
223 -1 77 -1 #SUP: 2
228 -1 2 -1 #SUP: 2
228 -1 77 -1 #SUP: 2
228 -1 183 -1 #SUP: 2
228 -1 280 -1 #SUP: 2
228 -1 749 -1 #SUP: 2
241 -1 156 -1 #SUP: 2
246 -1 22 -1 #SUP: 2
256 -1 22 -1 #SUP: 2
262 -1 41 -1 #SUP: 2
262 -1 170 -1 #SUP: 3
276 -1 64 -1 #SUP: 2
280 -1 183 -1 #SUP: 2
285 -1 22 -1 #SUP: 2
285 -1 41 -1 #SUP: 2
285 -1 64 -1 #SUP: 2
285 -1 144 -1 #SUP: 2
285 -1 291 -1 #SUP: 2
286 -1 64 -1 #SUP: 2
286 -1 151 -1 #SUP: 2
291 -1 22 -1 #SUP: 2
291 -1 308 -1 #SUP: 2
381 -1 2 -1 #SUP: 2
381 -1 22 -1 #SUP: 2
381 -1 171 -1 #SUP: 2
384 -1 31 -1 #SUP: 2
409 -1 77 -1 #SUP: 2
409 -1 3083 -1 #SUP: 2
441 -1 64 -1 #SUP: 2
441 -1 77 -1 #SUP: 2
443 -1 22 -1 #SUP: 2
443 -1 77 -1 #SUP: 3
452 -1 50 -1 #SUP: 2
499 -1 64 -1 #SUP: 2
501 -1 22 -1 #SUP: 3
501 -1 519 -1 #SUP: 2
510 -1 64 -1 #SUP: 2
519 -1 22 -1 #SUP: 2
519 -1 6230 -1 #SUP: 2
520 -1 22 -1 #SUP: 2
520 -1 154 -1 #SUP: 2
536 -1 64 -1 #SUP: 2
544 -1 31 -1 #SUP: 2
544 -1 78 -1 #SUP: 2
544 -1 115 -1 #SUP: 2
544 -1 246 -1 #SUP: 2
599 -1 77 -1 #SUP: 2
650 -1 77 -1 #SUP: 2
711 -1 1191 -1 #SUP: 2
749 -1 144 -1 #SUP: 2
765 -1 77 -1 #SUP: 2
765 -1 154 -1 #SUP: 2
773 -1 22 -1 #SUP: 2
773 -1 64 -1 #SUP: 2
786 -1 64 -1 #SUP: 2
2029 -1 77 -1 #SUP: 2
3083 -1 77 -1 #SUP: 2
3369 -1 3369 -1 #SUP: 3
7358 -1 7358 -1 #SUP: 2
2 -1 10 -1 65 -1 #SUP: 2
2 -1 142 -1 64 -1 #SUP: 2
9 -1 28 -1 26 -1 #SUP: 2
10 -1 22 -1 132 -1 #SUP: 2
10 -1 32 -1 77 -1 #SUP: 2
10 -1 65 -1 32 -1 #SUP: 2
10 -1 65 -1 1428 -1 #SUP: 2
22 -1 22 -1 22 -1 #SUP: 2
22 -1 31 -1 78 -1 #SUP: 2
22 -1 31 -1 246 -1 #SUP: 2
22 -1 32 -1 22 -1 #SUP: 2
22 -1 64 -1 67 -1 #SUP: 2
22 -1 64 -1 77 -1 #SUP: 2
22 -1 77 -1 2 -1 #SUP: 3
22 -1 77 -1 64 -1 #SUP: 2
22 -1 77 -1 123 -1 #SUP: 2
22 -1 77 -1 170 -1 #SUP: 2
22 -1 77 -1 499 -1 #SUP: 2
22 -1 78 -1 246 -1 #SUP: 2
22 -1 115 -1 31 -1 #SUP: 2
22 -1 115 -1 78 -1 #SUP: 2
22 -1 115 -1 246 -1 #SUP: 2
22 -1 164 -1 22 -1 #SUP: 2
22 -1 164 -1 501 -1 #SUP: 2
22 -1 409 -1 77 -1 #SUP: 2
22 -1 409 -1 3083 -1 #SUP: 2
22 -1 501 -1 22 -1 #SUP: 2
22 -1 519 -1 22 -1 #SUP: 2
22 -1 544 -1 31 -1 #SUP: 2
22 -1 544 -1 78 -1 #SUP: 2
22 -1 544 -1 115 -1 #SUP: 2
22 -1 544 -1 246 -1 #SUP: 2
22 -1 711 -1 1191 -1 #SUP: 2
22 -1 2029 -1 77 -1 #SUP: 2
22 -1 3083 -1 77 -1 #SUP: 2
31 -1 77 -1 22 -1 #SUP: 2
31 -1 78 -1 22 -1 #SUP: 2
31 -1 78 -1 246 -1 #SUP: 2
31 -1 246 -1 22 -1 #SUP: 2
32 -1 2 -1 22 -1 #SUP: 2
32 -1 22 -1 77 -1 #SUP: 3
32 -1 77 -1 22 -1 #SUP: 2
32 -1 77 -1 123 -1 #SUP: 3
33 -1 154 -1 178 -1 #SUP: 2
41 -1 32 -1 65 -1 #SUP: 2
41 -1 65 -1 32 -1 #SUP: 2
41 -1 65 -1 65 -1 #SUP: 2
41 -1 66 -1 10 -1 #SUP: 2
64 -1 22 -1 2 -1 #SUP: 2
64 -1 22 -1 22 -1 #SUP: 2
64 -1 22 -1 64 -1 #SUP: 2
64 -1 64 -1 22 -1 #SUP: 3
64 -1 77 -1 2 -1 #SUP: 2
64 -1 77 -1 123 -1 #SUP: 3
64 -1 77 -1 165 -1 #SUP: 2
64 -1 77 -1 170 -1 #SUP: 2
64 -1 123 -1 123 -1 #SUP: 2
64 -1 123 -1 165 -1 #SUP: 2
64 -1 154 -1 77 -1 #SUP: 2
64 -1 499 -1 64 -1 #SUP: 2
64 -1 536 -1 64 -1 #SUP: 2
64 -1 765 -1 77 -1 #SUP: 2
65 -1 32 -1 65 -1 #SUP: 2
65 -1 123 -1 64 -1 #SUP: 2
77 -1 2 -1 65 -1 #SUP: 2
77 -1 22 -1 2 -1 #SUP: 2
77 -1 64 -1 2 -1 #SUP: 2
77 -1 64 -1 22 -1 #SUP: 2
77 -1 64 -1 499 -1 #SUP: 2
77 -1 65 -1 64 -1 #SUP: 2
77 -1 77 -1 77 -1 #SUP: 2
77 -1 77 -1 3369 -1 #SUP: 2
77 -1 123 -1 2 -1 #SUP: 2
77 -1 123 -1 64 -1 #SUP: 5
77 -1 123 -1 77 -1 #SUP: 2
77 -1 123 -1 154 -1 #SUP: 2
77 -1 123 -1 165 -1 #SUP: 3
77 -1 154 -1 64 -1 #SUP: 2
77 -1 165 -1 64 -1 #SUP: 2
77 -1 165 -1 154 -1 #SUP: 2
77 -1 193 -1 64 -1 #SUP: 2
77 -1 193 -1 65 -1 #SUP: 2
77 -1 206 -1 2 -1 #SUP: 2
77 -1 381 -1 22 -1 #SUP: 2
77 -1 3369 -1 3369 -1 #SUP: 3
78 -1 246 -1 22 -1 #SUP: 2
115 -1 31 -1 78 -1 #SUP: 2
115 -1 31 -1 246 -1 #SUP: 2
115 -1 78 -1 246 -1 #SUP: 2
123 -1 2 -1 142 -1 #SUP: 2
123 -1 22 -1 64 -1 #SUP: 2
123 -1 64 -1 77 -1 #SUP: 2
123 -1 64 -1 170 -1 #SUP: 2
123 -1 77 -1 123 -1 #SUP: 3
123 -1 77 -1 170 -1 #SUP: 2
123 -1 123 -1 165 -1 #SUP: 2
123 -1 165 -1 64 -1 #SUP: 3
123 -1 165 -1 154 -1 #SUP: 2
144 -1 41 -1 154 -1 #SUP: 2
144 -1 41 -1 286 -1 #SUP: 2
144 -1 41 -1 291 -1 #SUP: 2
152 -1 64 -1 2 -1 #SUP: 2
154 -1 77 -1 2 -1 #SUP: 2
154 -1 77 -1 123 -1 #SUP: 2
154 -1 123 -1 77 -1 #SUP: 2
154 -1 123 -1 123 -1 #SUP: 2
164 -1 501 -1 22 -1 #SUP: 2
165 -1 154 -1 64 -1 #SUP: 2
170 -1 41 -1 154 -1 #SUP: 2
170 -1 196 -1 31 -1 #SUP: 2
170 -1 196 -1 384 -1 #SUP: 2
170 -1 384 -1 31 -1 #SUP: 2
193 -1 64 -1 67 -1 #SUP: 3
193 -1 206 -1 65 -1 #SUP: 2
196 -1 384 -1 31 -1 #SUP: 2
201 -1 22 -1 77 -1 #SUP: 2
201 -1 77 -1 2 -1 #SUP: 2
201 -1 183 -1 154 -1 #SUP: 2
201 -1 190 -1 77 -1 #SUP: 2
212 -1 64 -1 32 -1 #SUP: 2
228 -1 280 -1 183 -1 #SUP: 2
262 -1 170 -1 41 -1 #SUP: 2
285 -1 41 -1 291 -1 #SUP: 2
285 -1 144 -1 41 -1 #SUP: 2
285 -1 144 -1 291 -1 #SUP: 2
409 -1 3083 -1 77 -1 #SUP: 2
441 -1 64 -1 77 -1 #SUP: 2
443 -1 22 -1 77 -1 #SUP: 2
501 -1 22 -1 22 -1 #SUP: 2
501 -1 22 -1 519 -1 #SUP: 2
501 -1 519 -1 22 -1 #SUP: 2
544 -1 31 -1 78 -1 #SUP: 2
544 -1 31 -1 246 -1 #SUP: 2
544 -1 78 -1 246 -1 #SUP: 2
544 -1 115 -1 31 -1 #SUP: 2
544 -1 115 -1 78 -1 #SUP: 2
544 -1 115 -1 246 -1 #SUP: 2
773 -1 64 -1 22 -1 #SUP: 2
773 -1 64 -1 64 -1 #SUP: 2
3369 -1 3369 -1 3369 -1 #SUP: 2
22 -1 31 -1 78 -1 246 -1 #SUP: 2
22 -1 115 -1 31 -1 78 -1 #SUP: 2
22 -1 115 -1 31 -1 246 -1 #SUP: 2
22 -1 115 -1 78 -1 246 -1 #SUP: 2
22 -1 409 -1 3083 -1 77 -1 #SUP: 2
22 -1 544 -1 31 -1 78 -1 #SUP: 2
22 -1 544 -1 31 -1 246 -1 #SUP: 2
22 -1 544 -1 78 -1 246 -1 #SUP: 2
22 -1 544 -1 115 -1 31 -1 #SUP: 2
22 -1 544 -1 115 -1 78 -1 #SUP: 2
22 -1 544 -1 115 -1 246 -1 #SUP: 2
31 -1 78 -1 246 -1 22 -1 #SUP: 2
41 -1 65 -1 32 -1 65 -1 #SUP: 2
64 -1 77 -1 123 -1 165 -1 #SUP: 2
64 -1 123 -1 123 -1 165 -1 #SUP: 2
77 -1 64 -1 22 -1 2 -1 #SUP: 2
77 -1 77 -1 3369 -1 3369 -1 #SUP: 2
77 -1 123 -1 165 -1 64 -1 #SUP: 2
77 -1 123 -1 165 -1 154 -1 #SUP: 2
77 -1 3369 -1 3369 -1 3369 -1 #SUP: 2
115 -1 31 -1 78 -1 246 -1 #SUP: 2
123 -1 64 -1 77 -1 170 -1 #SUP: 2
154 -1 123 -1 77 -1 123 -1 #SUP: 2
170 -1 196 -1 384 -1 31 -1 #SUP: 2
285 -1 144 -1 41 -1 291 -1 #SUP: 2
501 -1 22 -1 519 -1 22 -1 #SUP: 2
544 -1 31 -1 78 -1 246 -1 #SUP: 2
544 -1 115 -1 31 -1 78 -1 #SUP: 2
544 -1 115 -1 31 -1 246 -1 #SUP: 2
544 -1 115 -1 78 -1 246 -1 #SUP: 2
22 -1 115 -1 31 -1 78 -1 246 -1 #SUP: 2
22 -1 544 -1 31 -1 78 -1 246 -1 #SUP: 2
22 -1 544 -1 115 -1 31 -1 78 -1 #SUP: 2
22 -1 544 -1 115 -1 31 -1 246 -1 #SUP: 2
22 -1 544 -1 115 -1 78 -1 246 -1 #SUP: 2
77 -1 77 -1 3369 -1 3369 -1 3369 -1 #SUP: 2
544 -1 115 -1 31 -1 78 -1 246 -1 #SUP: 2
22 -1 544 -1 115 -1 31 -1 78 -1 246 -1 #SUP: 2
