2 -1 #SUP: 38
10 -1 #SUP: 20
13 -1 #SUP: 4
16 -1 #SUP: 7
22 -1 #SUP: 32
27 -1 #SUP: 4
29 -1 #SUP: 4
30 -1 #SUP: 7
31 -1 #SUP: 14
32 -1 #SUP: 20
33 -1 #SUP: 4
41 -1 #SUP: 17
44 -1 #SUP: 4
47 -1 #SUP: 3
50 -1 #SUP: 9
54 -1 #SUP: 2
64 -1 #SUP: 28
65 -1 #SUP: 22
66 -1 #SUP: 2
67 -1 #SUP: 9
73 -1 #SUP: 4
76 -1 #SUP: 6
77 -1 #SUP: 10
78 -1 #SUP: 7
81 -1 #SUP: 2
102 -1 #SUP: 3
117 -1 #SUP: 2
120 -1 #SUP: 5
123 -1 #SUP: 41
134 -1 #SUP: 4
140 -1 #SUP: 3
144 -1 #SUP: 8
147 -1 #SUP: 2
151 -1 #SUP: 4
154 -1 #SUP: 18
158 -1 #SUP: 2
160 -1 #SUP: 3
162 -1 #SUP: 7
164 -1 #SUP: 7
165 -1 #SUP: 7
166 -1 #SUP: 2
170 -1 #SUP: 18
171 -1 #SUP: 2
183 -1 #SUP: 11
189 -1 #SUP: 5
193 -1 #SUP: 15
196 -1 #SUP: 4
201 -1 #SUP: 5
205 -1 #SUP: 2
206 -1 #SUP: 4
212 -1 #SUP: 8
220 -1 #SUP: 3
222 -1 #SUP: 10
225 -1 #SUP: 4
233 -1 #SUP: 2
236 -1 #SUP: 6
241 -1 #SUP: 2
244 -1 #SUP: 3
246 -1 #SUP: 3
254 -1 #SUP: 5
256 -1 #SUP: 3
259 -1 #SUP: 2
260 -1 #SUP: 6
262 -1 #SUP: 6
269 -1 #SUP: 3
276 -1 #SUP: 2
280 -1 #SUP: 3
285 -1 #SUP: 2
286 -1 #SUP: 11
291 -1 #SUP: 8
326 -1 #SUP: 13
334 -1 #SUP: 2
349 -1 #SUP: 15
356 -1 #SUP: 6
364 -1 #SUP: 8
368 -1 #SUP: 3
381 -1 #SUP: 4
384 -1 #SUP: 5
395 -1 #SUP: 2
407 -1 #SUP: 3
417 -1 #SUP: 2
425 -1 #SUP: 2
431 -1 #SUP: 7
433 -1 #SUP: 2
441 -1 #SUP: 9
443 -1 #SUP: 4
444 -1 #SUP: 3
446 -1 #SUP: 2
452 -1 #SUP: 5
468 -1 #SUP: 2
477 -1 #SUP: 2
498 -1 #SUP: 4
499 -1 #SUP: 2
502 -1 #SUP: 3
518 -1 #SUP: 2
520 -1 #SUP: 5
529 -1 #SUP: 3
533 -1 #SUP: 3
544 -1 #SUP: 2
547 -1 #SUP: 6
566 -1 #SUP: 7
567 -1 #SUP: 5
599 -1 #SUP: 6
613 -1 #SUP: 2
638 -1 #SUP: 2
652 -1 #SUP: 4
653 -1 #SUP: 2
669 -1 #SUP: 2
693 -1 #SUP: 2
694 -1 #SUP: 2
701 -1 #SUP: 2
720 -1 #SUP: 3
764 -1 #SUP: 4
782 -1 #SUP: 10
796 -1 #SUP: 2
835 -1 #SUP: 2
863 -1 #SUP: 3
911 -1 #SUP: 7
960 -1 #SUP: 3
964 -1 #SUP: 2
965 -1 #SUP: 3
1051 -1 #SUP: 3
1127 -1 #SUP: 2
1182 -1 #SUP: 2
1191 -1 #SUP: 4
1193 -1 #SUP: 2
1219 -1 #SUP: 3
1220 -1 #SUP: 2
1225 -1 #SUP: 2
1263 -1 #SUP: 2
1275 -1 #SUP: 2
1364 -1 #SUP: 3
1475 -1 #SUP: 2
1478 -1 #SUP: 2
1591 -1 #SUP: 5
1670 -1 #SUP: 2
1727 -1 #SUP: 2
1758 -1 #SUP: 4
1817 -1 #SUP: 2
1896 -1 #SUP: 2
1913 -1 #SUP: 7
1994 -1 #SUP: 2
2091 -1 #SUP: 2
2180 -1 #SUP: 2
2366 -1 #SUP: 2
2681 -1 #SUP: 2
2800 -1 #SUP: 3
2849 -1 #SUP: 4
3261 -1 #SUP: 3
3336 -1 #SUP: 2
3622 -1 #SUP: 3
4132 -1 #SUP: 2
4305 -1 #SUP: 2
4313 -1 #SUP: 3
5663 -1 #SUP: 2
6244 -1 #SUP: 2
6567 -1 #SUP: 2
9677 -1 #SUP: 2
10962 -1 #SUP: 2
12592 -1 #SUP: 2
16888 -1 #SUP: 2
24605 -1 #SUP: 3
82222 -1 #SUP: 2
2 -1 2 -1 #SUP: 3
2 -1 10 -1 #SUP: 2
2 -1 22 -1 #SUP: 6
2 -1 31 -1 #SUP: 2
2 -1 32 -1 #SUP: 3
2 -1 64 -1 #SUP: 2
2 -1 65 -1 #SUP: 4
2 -1 73 -1 #SUP: 2
2 -1 76 -1 #SUP: 2
2 -1 123 -1 #SUP: 4
2 -1 158 -1 #SUP: 2
2 -1 162 -1 #SUP: 3
2 -1 170 -1 #SUP: 3
2 -1 171 -1 #SUP: 2
2 -1 183 -1 #SUP: 3
2 -1 193 -1 #SUP: 6
2 -1 233 -1 #SUP: 2
2 -1 244 -1 #SUP: 3
2 -1 256 -1 #SUP: 2
2 -1 326 -1 #SUP: 3
2 -1 349 -1 #SUP: 5
2 -1 364 -1 #SUP: 3
2 -1 441 -1 #SUP: 2
2 -1 911 -1 #SUP: 2
2 -1 1913 -1 #SUP: 2
10 -1 22 -1 #SUP: 5
10 -1 32 -1 #SUP: 3
10 -1 50 -1 #SUP: 2
10 -1 64 -1 #SUP: 2
10 -1 77 -1 #SUP: 4
10 -1 123 -1 #SUP: 2
10 -1 151 -1 #SUP: 2
10 -1 160 -1 #SUP: 2
10 -1 170 -1 #SUP: 3
10 -1 193 -1 #SUP: 2
10 -1 291 -1 #SUP: 2
10 -1 326 -1 #SUP: 3
10 -1 395 -1 #SUP: 2
10 -1 431 -1 #SUP: 2
10 -1 566 -1 #SUP: 3
10 -1 782 -1 #SUP: 3
10 -1 863 -1 #SUP: 3
10 -1 960 -1 #SUP: 3
10 -1 1051 -1 #SUP: 2
16 -1 2 -1 #SUP: 2
16 -1 64 -1 #SUP: 2
22 -1 2 -1 #SUP: 5
22 -1 22 -1 #SUP: 4
22 -1 29 -1 #SUP: 2
22 -1 31 -1 #SUP: 3
22 -1 32 -1 #SUP: 4
22 -1 41 -1 #SUP: 3
22 -1 54 -1 #SUP: 2
22 -1 64 -1 #SUP: 5
22 -1 65 -1 #SUP: 4
22 -1 67 -1 #SUP: 2
22 -1 73 -1 #SUP: 2
22 -1 76 -1 #SUP: 3
22 -1 120 -1 #SUP: 3
22 -1 123 -1 #SUP: 2
22 -1 144 -1 #SUP: 2
22 -1 154 -1 #SUP: 2
22 -1 165 -1 #SUP: 4
22 -1 170 -1 #SUP: 6
22 -1 193 -1 #SUP: 3
22 -1 349 -1 #SUP: 2
22 -1 499 -1 #SUP: 2
22 -1 566 -1 #SUP: 2
27 -1 6567 -1 #SUP: 2
29 -1 22 -1 #SUP: 3
30 -1 30 -1 #SUP: 3
30 -1 82222 -1 #SUP: 2
31 -1 2 -1 #SUP: 2
31 -1 76 -1 #SUP: 2
31 -1 162 -1 #SUP: 2
31 -1 183 -1 #SUP: 2
31 -1 189 -1 #SUP: 2
31 -1 193 -1 #SUP: 2
31 -1 222 -1 #SUP: 2
31 -1 349 -1 #SUP: 2
31 -1 381 -1 #SUP: 2
32 -1 2 -1 #SUP: 4
32 -1 22 -1 #SUP: 4
32 -1 30 -1 #SUP: 2
32 -1 32 -1 #SUP: 2
32 -1 64 -1 #SUP: 4
32 -1 77 -1 #SUP: 2
32 -1 170 -1 #SUP: 2
32 -1 193 -1 #SUP: 2
32 -1 225 -1 #SUP: 2
32 -1 276 -1 #SUP: 2
32 -1 291 -1 #SUP: 2
32 -1 368 -1 #SUP: 2
41 -1 2 -1 #SUP: 4
41 -1 22 -1 #SUP: 5
41 -1 33 -1 #SUP: 2
41 -1 41 -1 #SUP: 3
41 -1 154 -1 #SUP: 2
41 -1 212 -1 #SUP: 2
41 -1 269 -1 #SUP: 2
41 -1 286 -1 #SUP: 2
41 -1 1913 -1 #SUP: 2
44 -1 41 -1 #SUP: 3
47 -1 32 -1 #SUP: 2
47 -1 431 -1 #SUP: 2
50 -1 10 -1 #SUP: 2
50 -1 65 -1 #SUP: 2
50 -1 170 -1 #SUP: 2
50 -1 326 -1 #SUP: 2
64 -1 2 -1 #SUP: 6
64 -1 22 -1 #SUP: 3
64 -1 32 -1 #SUP: 2
64 -1 41 -1 #SUP: 2
64 -1 64 -1 #SUP: 6
64 -1 67 -1 #SUP: 2
64 -1 78 -1 #SUP: 2
64 -1 120 -1 #SUP: 2
64 -1 123 -1 #SUP: 3
64 -1 144 -1 #SUP: 4
64 -1 154 -1 #SUP: 6
64 -1 193 -1 #SUP: 2
64 -1 222 -1 #SUP: 2
64 -1 356 -1 #SUP: 2
64 -1 384 -1 #SUP: 2
64 -1 520 -1 #SUP: 2
64 -1 782 -1 #SUP: 2
64 -1 911 -1 #SUP: 2
64 -1 965 -1 #SUP: 2
64 -1 1758 -1 #SUP: 2
64 -1 3622 -1 #SUP: 2
64 -1 9677 -1 #SUP: 2
65 -1 2 -1 #SUP: 6
65 -1 30 -1 #SUP: 2
65 -1 31 -1 #SUP: 2
65 -1 32 -1 #SUP: 5
65 -1 41 -1 #SUP: 3
65 -1 44 -1 #SUP: 3
65 -1 140 -1 #SUP: 3
65 -1 154 -1 #SUP: 2
65 -1 170 -1 #SUP: 2
65 -1 193 -1 #SUP: 2
65 -1 225 -1 #SUP: 2
65 -1 262 -1 #SUP: 2
65 -1 349 -1 #SUP: 2
65 -1 720 -1 #SUP: 3
65 -1 1219 -1 #SUP: 3
67 -1 2 -1 #SUP: 3
67 -1 22 -1 #SUP: 3
67 -1 33 -1 #SUP: 2
67 -1 41 -1 #SUP: 2
67 -1 64 -1 #SUP: 3
67 -1 154 -1 #SUP: 2
67 -1 236 -1 #SUP: 3
67 -1 269 -1 #SUP: 2
67 -1 326 -1 #SUP: 2
67 -1 911 -1 #SUP: 2
67 -1 1182 -1 #SUP: 2
76 -1 64 -1 #SUP: 4
76 -1 154 -1 #SUP: 2
77 -1 2 -1 #SUP: 3
77 -1 10 -1 #SUP: 2
77 -1 22 -1 #SUP: 3
77 -1 32 -1 #SUP: 3
77 -1 64 -1 #SUP: 2
77 -1 77 -1 #SUP: 2
77 -1 154 -1 #SUP: 2
77 -1 170 -1 #SUP: 2
77 -1 193 -1 #SUP: 2
77 -1 349 -1 #SUP: 2
77 -1 599 -1 #SUP: 2
78 -1 78 -1 #SUP: 2
78 -1 965 -1 #SUP: 2
81 -1 64 -1 #SUP: 2
102 -1 123 -1 #SUP: 2
120 -1 41 -1 #SUP: 2
120 -1 1364 -1 #SUP: 2
123 -1 2 -1 #SUP: 7
123 -1 10 -1 #SUP: 4
123 -1 13 -1 #SUP: 2
123 -1 22 -1 #SUP: 5
123 -1 31 -1 #SUP: 3
123 -1 32 -1 #SUP: 8
123 -1 33 -1 #SUP: 2
123 -1 41 -1 #SUP: 3
123 -1 50 -1 #SUP: 3
123 -1 64 -1 #SUP: 6
123 -1 65 -1 #SUP: 5
123 -1 67 -1 #SUP: 5
123 -1 120 -1 #SUP: 3
123 -1 123 -1 #SUP: 2
123 -1 144 -1 #SUP: 2
123 -1 154 -1 #SUP: 4
123 -1 160 -1 #SUP: 2
123 -1 164 -1 #SUP: 5
123 -1 165 -1 #SUP: 2
123 -1 170 -1 #SUP: 3
123 -1 193 -1 #SUP: 2
123 -1 206 -1 #SUP: 3
123 -1 212 -1 #SUP: 3
123 -1 222 -1 #SUP: 2
123 -1 236 -1 #SUP: 3
123 -1 254 -1 #SUP: 3
123 -1 262 -1 #SUP: 4
123 -1 269 -1 #SUP: 3
123 -1 286 -1 #SUP: 7
123 -1 291 -1 #SUP: 3
123 -1 326 -1 #SUP: 4
123 -1 356 -1 #SUP: 2
123 -1 381 -1 #SUP: 3
123 -1 407 -1 #SUP: 3
123 -1 431 -1 #SUP: 2
123 -1 441 -1 #SUP: 2
123 -1 547 -1 #SUP: 2
123 -1 566 -1 #SUP: 2
123 -1 567 -1 #SUP: 2
123 -1 599 -1 #SUP: 2
123 -1 720 -1 #SUP: 2
123 -1 782 -1 #SUP: 2
123 -1 911 -1 #SUP: 2
123 -1 1182 -1 #SUP: 2
123 -1 1364 -1 #SUP: 3
123 -1 1478 -1 #SUP: 2
123 -1 1591 -1 #SUP: 2
123 -1 1758 -1 #SUP: 2
123 -1 1913 -1 #SUP: 4
123 -1 24605 -1 #SUP: 2
140 -1 41 -1 #SUP: 2
144 -1 2 -1 #SUP: 2
144 -1 22 -1 #SUP: 2
144 -1 41 -1 #SUP: 3
144 -1 64 -1 #SUP: 2
144 -1 120 -1 #SUP: 3
144 -1 154 -1 #SUP: 3
144 -1 193 -1 #SUP: 2
144 -1 520 -1 #SUP: 2
144 -1 965 -1 #SUP: 2
144 -1 1758 -1 #SUP: 2
151 -1 193 -1 #SUP: 2
154 -1 2 -1 #SUP: 3
154 -1 22 -1 #SUP: 2
154 -1 32 -1 #SUP: 2
154 -1 41 -1 #SUP: 4
154 -1 64 -1 #SUP: 6
154 -1 120 -1 #SUP: 2
154 -1 123 -1 #SUP: 2
154 -1 144 -1 #SUP: 3
154 -1 154 -1 #SUP: 3
154 -1 170 -1 #SUP: 3
154 -1 193 -1 #SUP: 2
154 -1 286 -1 #SUP: 3
154 -1 1670 -1 #SUP: 2
154 -1 1758 -1 #SUP: 2
154 -1 1913 -1 #SUP: 2
158 -1 782 -1 #SUP: 2
160 -1 2 -1 #SUP: 2
160 -1 64 -1 #SUP: 2
162 -1 2 -1 #SUP: 2
162 -1 22 -1 #SUP: 2
162 -1 32 -1 #SUP: 2
162 -1 349 -1 #SUP: 3
164 -1 22 -1 #SUP: 3
164 -1 326 -1 #SUP: 2
164 -1 599 -1 #SUP: 2
165 -1 2 -1 #SUP: 3
165 -1 67 -1 #SUP: 3
170 -1 22 -1 #SUP: 2
170 -1 32 -1 #SUP: 2
170 -1 64 -1 #SUP: 3
170 -1 65 -1 #SUP: 3
170 -1 154 -1 #SUP: 2
171 -1 10 -1 #SUP: 2
183 -1 2 -1 #SUP: 2
183 -1 10 -1 #SUP: 2
183 -1 31 -1 #SUP: 3
183 -1 154 -1 #SUP: 2
183 -1 183 -1 #SUP: 2
183 -1 326 -1 #SUP: 3
183 -1 349 -1 #SUP: 2
183 -1 431 -1 #SUP: 2
183 -1 1051 -1 #SUP: 2
193 -1 10 -1 #SUP: 2
193 -1 31 -1 #SUP: 2
193 -1 170 -1 #SUP: 5
193 -1 220 -1 #SUP: 2
193 -1 260 -1 #SUP: 2
193 -1 349 -1 #SUP: 2
193 -1 599 -1 #SUP: 2
201 -1 64 -1 #SUP: 2
201 -1 67 -1 #SUP: 2
201 -1 183 -1 #SUP: 2
206 -1 65 -1 #SUP: 2
206 -1 212 -1 #SUP: 2
212 -1 10 -1 #SUP: 2
212 -1 22 -1 #SUP: 3
212 -1 41 -1 #SUP: 2
212 -1 154 -1 #SUP: 2
212 -1 477 -1 #SUP: 2
212 -1 547 -1 #SUP: 2
222 -1 2 -1 #SUP: 2
222 -1 13 -1 #SUP: 2
222 -1 50 -1 #SUP: 2
222 -1 65 -1 #SUP: 2
222 -1 193 -1 #SUP: 2
236 -1 22 -1 #SUP: 2
236 -1 33 -1 #SUP: 2
236 -1 41 -1 #SUP: 2
236 -1 65 -1 #SUP: 2
236 -1 269 -1 #SUP: 2
236 -1 326 -1 #SUP: 2
236 -1 349 -1 #SUP: 3
236 -1 444 -1 #SUP: 2
236 -1 911 -1 #SUP: 2
244 -1 2 -1 #SUP: 2
244 -1 171 -1 #SUP: 2
254 -1 2 -1 #SUP: 3
254 -1 32 -1 #SUP: 2
254 -1 65 -1 #SUP: 2
254 -1 193 -1 #SUP: 2
260 -1 32 -1 #SUP: 2
262 -1 32 -1 #SUP: 2
269 -1 33 -1 #SUP: 2
276 -1 64 -1 #SUP: 2
280 -1 431 -1 #SUP: 2
286 -1 22 -1 #SUP: 3
286 -1 32 -1 #SUP: 5
286 -1 65 -1 #SUP: 2
286 -1 154 -1 #SUP: 2
286 -1 170 -1 #SUP: 3
286 -1 193 -1 #SUP: 3
286 -1 254 -1 #SUP: 2
286 -1 566 -1 #SUP: 2
286 -1 720 -1 #SUP: 2
291 -1 22 -1 #SUP: 2
291 -1 32 -1 #SUP: 2
291 -1 64 -1 #SUP: 2
291 -1 154 -1 #SUP: 2
291 -1 262 -1 #SUP: 2
326 -1 10 -1 #SUP: 2
326 -1 64 -1 #SUP: 2
326 -1 123 -1 #SUP: 2
326 -1 183 -1 #SUP: 2
326 -1 349 -1 #SUP: 3
326 -1 911 -1 #SUP: 4
326 -1 2849 -1 #SUP: 3
349 -1 2 -1 #SUP: 5
349 -1 22 -1 #SUP: 3
349 -1 31 -1 #SUP: 3
349 -1 32 -1 #SUP: 2
349 -1 64 -1 #SUP: 2
349 -1 77 -1 #SUP: 2
349 -1 154 -1 #SUP: 2
349 -1 162 -1 #SUP: 2
349 -1 183 -1 #SUP: 5
349 -1 286 -1 #SUP: 2
349 -1 326 -1 #SUP: 2
349 -1 349 -1 #SUP: 3
349 -1 381 -1 #SUP: 2
349 -1 441 -1 #SUP: 2
349 -1 24605 -1 #SUP: 2
364 -1 2 -1 #SUP: 2
364 -1 30 -1 #SUP: 2
364 -1 32 -1 #SUP: 2
364 -1 65 -1 #SUP: 2
364 -1 652 -1 #SUP: 2
364 -1 1191 -1 #SUP: 2
381 -1 31 -1 #SUP: 2
381 -1 349 -1 #SUP: 2
384 -1 154 -1 #SUP: 2
407 -1 31 -1 #SUP: 2
407 -1 262 -1 #SUP: 2
431 -1 2 -1 #SUP: 2
431 -1 32 -1 #SUP: 2
431 -1 326 -1 #SUP: 2
431 -1 1817 -1 #SUP: 2
441 -1 31 -1 #SUP: 3
441 -1 64 -1 #SUP: 3
441 -1 78 -1 #SUP: 2
441 -1 193 -1 #SUP: 2
441 -1 3261 -1 #SUP: 3
443 -1 64 -1 #SUP: 2
443 -1 441 -1 #SUP: 2
443 -1 764 -1 #SUP: 2
444 -1 2 -1 #SUP: 2
446 -1 2 -1 #SUP: 2
452 -1 547 -1 #SUP: 2
477 -1 41 -1 #SUP: 2
498 -1 64 -1 #SUP: 2
520 -1 2 -1 #SUP: 2
520 -1 965 -1 #SUP: 2
529 -1 2 -1 #SUP: 2
544 -1 64 -1 #SUP: 2
544 -1 9677 -1 #SUP: 2
547 -1 10 -1 #SUP: 3
547 -1 31 -1 #SUP: 2
547 -1 50 -1 #SUP: 3
547 -1 123 -1 #SUP: 2
566 -1 47 -1 #SUP: 2
566 -1 65 -1 #SUP: 2
566 -1 154 -1 #SUP: 2
566 -1 170 -1 #SUP: 2
566 -1 431 -1 #SUP: 2
566 -1 566 -1 #SUP: 2
599 -1 64 -1 #SUP: 2
638 -1 65 -1 #SUP: 2
652 -1 64 -1 #SUP: 2
652 -1 1191 -1 #SUP: 2
693 -1 64 -1 #SUP: 2
694 -1 222 -1 #SUP: 2
764 -1 22 -1 #SUP: 2
764 -1 64 -1 #SUP: 2
764 -1 2800 -1 #SUP: 2
782 -1 2 -1 #SUP: 2
782 -1 16 -1 #SUP: 2
782 -1 32 -1 #SUP: 3
782 -1 64 -1 #SUP: 2
782 -1 65 -1 #SUP: 2
782 -1 123 -1 #SUP: 2
782 -1 162 -1 #SUP: 2
782 -1 170 -1 #SUP: 2
782 -1 193 -1 #SUP: 2
782 -1 254 -1 #SUP: 3
835 -1 164 -1 #SUP: 2
960 -1 431 -1 #SUP: 2
1182 -1 33 -1 #SUP: 2
1182 -1 41 -1 #SUP: 2
1182 -1 236 -1 #SUP: 2
1182 -1 269 -1 #SUP: 2
1191 -1 64 -1 #SUP: 2
1219 -1 32 -1 #SUP: 2
1219 -1 225 -1 #SUP: 2
1591 -1 2 -1 #SUP: 3
1591 -1 73 -1 #SUP: 2
1758 -1 356 -1 #SUP: 2
1913 -1 41 -1 #SUP: 3
1913 -1 164 -1 #SUP: 2
1913 -1 189 -1 #SUP: 2
1913 -1 193 -1 #SUP: 2
1913 -1 599 -1 #SUP: 2
1913 -1 835 -1 #SUP: 2
2849 -1 13 -1 #SUP: 2
2849 -1 123 -1 #SUP: 2
6244 -1 32 -1 #SUP: 2
6244 -1 170 -1 #SUP: 2
6244 -1 368 -1 #SUP: 2
24605 -1 4132 -1 #SUP: 2
2 -1 10 -1 22 -1 #SUP: 2
2 -1 22 -1 170 -1 #SUP: 2
2 -1 22 -1 193 -1 #SUP: 2
2 -1 22 -1 349 -1 #SUP: 2
2 -1 123 -1 2 -1 #SUP: 2
2 -1 123 -1 1913 -1 #SUP: 2
2 -1 162 -1 349 -1 #SUP: 3
2 -1 193 -1 170 -1 #SUP: 2
2 -1 349 -1 183 -1 #SUP: 2
10 -1 22 -1 566 -1 #SUP: 2
10 -1 960 -1 431 -1 #SUP: 2
22 -1 32 -1 22 -1 #SUP: 2
22 -1 64 -1 64 -1 #SUP: 2
22 -1 64 -1 144 -1 #SUP: 2
22 -1 76 -1 64 -1 #SUP: 2
22 -1 154 -1 64 -1 #SUP: 2
22 -1 165 -1 2 -1 #SUP: 2
22 -1 165 -1 67 -1 #SUP: 2
22 -1 193 -1 170 -1 #SUP: 2
30 -1 30 -1 30 -1 #SUP: 2
31 -1 349 -1 183 -1 #SUP: 2
32 -1 22 -1 64 -1 #SUP: 2
32 -1 276 -1 64 -1 #SUP: 2
41 -1 269 -1 33 -1 #SUP: 2
41 -1 286 -1 22 -1 #SUP: 2
47 -1 431 -1 32 -1 #SUP: 2
64 -1 22 -1 2 -1 #SUP: 2
64 -1 64 -1 2 -1 #SUP: 2
64 -1 64 -1 144 -1 #SUP: 3
64 -1 144 -1 41 -1 #SUP: 2
64 -1 144 -1 120 -1 #SUP: 2
64 -1 144 -1 154 -1 #SUP: 3
64 -1 144 -1 520 -1 #SUP: 2
64 -1 144 -1 965 -1 #SUP: 2
64 -1 144 -1 1758 -1 #SUP: 2
64 -1 154 -1 2 -1 #SUP: 2
64 -1 154 -1 41 -1 #SUP: 2
64 -1 154 -1 64 -1 #SUP: 4
64 -1 154 -1 120 -1 #SUP: 2
64 -1 154 -1 123 -1 #SUP: 2
64 -1 154 -1 144 -1 #SUP: 2
64 -1 154 -1 1758 -1 #SUP: 2
64 -1 384 -1 154 -1 #SUP: 2
64 -1 520 -1 965 -1 #SUP: 2
65 -1 2 -1 32 -1 #SUP: 2
65 -1 2 -1 193 -1 #SUP: 2
65 -1 32 -1 30 -1 #SUP: 2
65 -1 41 -1 2 -1 #SUP: 2
65 -1 44 -1 41 -1 #SUP: 2
65 -1 1219 -1 32 -1 #SUP: 2
65 -1 1219 -1 225 -1 #SUP: 2
67 -1 41 -1 33 -1 #SUP: 2
67 -1 41 -1 269 -1 #SUP: 2
67 -1 236 -1 22 -1 #SUP: 2
67 -1 236 -1 33 -1 #SUP: 2
67 -1 236 -1 41 -1 #SUP: 2
67 -1 236 -1 269 -1 #SUP: 2
67 -1 269 -1 33 -1 #SUP: 2
67 -1 1182 -1 33 -1 #SUP: 2
67 -1 1182 -1 41 -1 #SUP: 2
67 -1 1182 -1 236 -1 #SUP: 2
67 -1 1182 -1 269 -1 #SUP: 2
76 -1 154 -1 64 -1 #SUP: 2
77 -1 2 -1 22 -1 #SUP: 2
123 -1 32 -1 2 -1 #SUP: 2
123 -1 41 -1 33 -1 #SUP: 2
123 -1 41 -1 269 -1 #SUP: 2
123 -1 64 -1 154 -1 #SUP: 2
123 -1 64 -1 356 -1 #SUP: 2
123 -1 65 -1 2 -1 #SUP: 2
123 -1 65 -1 720 -1 #SUP: 2
123 -1 67 -1 22 -1 #SUP: 2
123 -1 67 -1 33 -1 #SUP: 2
123 -1 67 -1 41 -1 #SUP: 2
123 -1 67 -1 236 -1 #SUP: 3
123 -1 67 -1 269 -1 #SUP: 2
123 -1 67 -1 326 -1 #SUP: 2
123 -1 67 -1 1182 -1 #SUP: 2
123 -1 120 -1 1364 -1 #SUP: 2
123 -1 144 -1 120 -1 #SUP: 2
123 -1 160 -1 64 -1 #SUP: 2
123 -1 164 -1 22 -1 #SUP: 2
123 -1 165 -1 67 -1 #SUP: 2
123 -1 206 -1 65 -1 #SUP: 2
123 -1 206 -1 212 -1 #SUP: 2
123 -1 236 -1 22 -1 #SUP: 2
123 -1 236 -1 33 -1 #SUP: 2
123 -1 236 -1 41 -1 #SUP: 2
123 -1 236 -1 269 -1 #SUP: 2
123 -1 262 -1 32 -1 #SUP: 2
123 -1 269 -1 33 -1 #SUP: 2
123 -1 286 -1 32 -1 #SUP: 4
123 -1 286 -1 65 -1 #SUP: 2
123 -1 286 -1 170 -1 #SUP: 2
123 -1 286 -1 254 -1 #SUP: 2
123 -1 286 -1 566 -1 #SUP: 2
123 -1 286 -1 720 -1 #SUP: 2
123 -1 291 -1 32 -1 #SUP: 2
123 -1 291 -1 262 -1 #SUP: 2
123 -1 326 -1 911 -1 #SUP: 2
123 -1 407 -1 31 -1 #SUP: 2
123 -1 407 -1 262 -1 #SUP: 2
123 -1 782 -1 254 -1 #SUP: 2
123 -1 1182 -1 33 -1 #SUP: 2
123 -1 1182 -1 41 -1 #SUP: 2
123 -1 1182 -1 236 -1 #SUP: 2
123 -1 1182 -1 269 -1 #SUP: 2
123 -1 1913 -1 599 -1 #SUP: 2
144 -1 154 -1 41 -1 #SUP: 2
144 -1 154 -1 120 -1 #SUP: 2
144 -1 154 -1 1758 -1 #SUP: 2
144 -1 520 -1 965 -1 #SUP: 2
154 -1 41 -1 22 -1 #SUP: 2
154 -1 41 -1 286 -1 #SUP: 2
154 -1 64 -1 144 -1 #SUP: 2
154 -1 64 -1 154 -1 #SUP: 2
154 -1 144 -1 154 -1 #SUP: 2
154 -1 286 -1 22 -1 #SUP: 2
212 -1 477 -1 41 -1 #SUP: 2
236 -1 41 -1 33 -1 #SUP: 2
236 -1 41 -1 269 -1 #SUP: 2
236 -1 269 -1 33 -1 #SUP: 2
236 -1 326 -1 911 -1 #SUP: 2
244 -1 2 -1 171 -1 #SUP: 2
254 -1 32 -1 193 -1 #SUP: 2
286 -1 65 -1 720 -1 #SUP: 2
291 -1 262 -1 32 -1 #SUP: 2
326 -1 349 -1 183 -1 #SUP: 2
326 -1 2849 -1 123 -1 #SUP: 2
349 -1 2 -1 22 -1 #SUP: 2
349 -1 2 -1 162 -1 #SUP: 2
349 -1 2 -1 349 -1 #SUP: 2
349 -1 2 -1 441 -1 #SUP: 2
349 -1 183 -1 2 -1 #SUP: 2
349 -1 183 -1 31 -1 #SUP: 2
349 -1 183 -1 326 -1 #SUP: 2
349 -1 183 -1 349 -1 #SUP: 2
349 -1 286 -1 22 -1 #SUP: 2
364 -1 32 -1 30 -1 #SUP: 2
364 -1 652 -1 1191 -1 #SUP: 2
544 -1 64 -1 9677 -1 #SUP: 2
547 -1 10 -1 50 -1 #SUP: 2
547 -1 123 -1 50 -1 #SUP: 2
782 -1 254 -1 32 -1 #SUP: 2
1182 -1 41 -1 33 -1 #SUP: 2
1182 -1 41 -1 269 -1 #SUP: 2
1182 -1 236 -1 33 -1 #SUP: 2
1182 -1 236 -1 41 -1 #SUP: 2
1182 -1 236 -1 269 -1 #SUP: 2
1182 -1 269 -1 33 -1 #SUP: 2
1591 -1 2 -1 73 -1 #SUP: 2
1913 -1 835 -1 164 -1 #SUP: 2
2849 -1 123 -1 13 -1 #SUP: 2
6244 -1 32 -1 170 -1 #SUP: 2
6244 -1 32 -1 368 -1 #SUP: 2
2 -1 22 -1 193 -1 170 -1 #SUP: 2
64 -1 144 -1 154 -1 41 -1 #SUP: 2
64 -1 144 -1 154 -1 120 -1 #SUP: 2
64 -1 144 -1 154 -1 1758 -1 #SUP: 2
64 -1 144 -1 520 -1 965 -1 #SUP: 2
64 -1 154 -1 64 -1 144 -1 #SUP: 2
67 -1 41 -1 269 -1 33 -1 #SUP: 2
67 -1 236 -1 41 -1 33 -1 #SUP: 2
67 -1 236 -1 41 -1 269 -1 #SUP: 2
67 -1 236 -1 269 -1 33 -1 #SUP: 2
67 -1 1182 -1 41 -1 33 -1 #SUP: 2
67 -1 1182 -1 41 -1 269 -1 #SUP: 2
67 -1 1182 -1 236 -1 33 -1 #SUP: 2
67 -1 1182 -1 236 -1 41 -1 #SUP: 2
67 -1 1182 -1 236 -1 269 -1 #SUP: 2
67 -1 1182 -1 269 -1 33 -1 #SUP: 2
123 -1 41 -1 269 -1 33 -1 #SUP: 2
123 -1 67 -1 41 -1 33 -1 #SUP: 2
123 -1 67 -1 41 -1 269 -1 #SUP: 2
123 -1 67 -1 236 -1 22 -1 #SUP: 2
123 -1 67 -1 236 -1 33 -1 #SUP: 2
123 -1 67 -1 236 -1 41 -1 #SUP: 2
123 -1 67 -1 236 -1 269 -1 #SUP: 2
123 -1 67 -1 269 -1 33 -1 #SUP: 2
123 -1 67 -1 1182 -1 33 -1 #SUP: 2
123 -1 67 -1 1182 -1 41 -1 #SUP: 2
123 -1 67 -1 1182 -1 236 -1 #SUP: 2
123 -1 67 -1 1182 -1 269 -1 #SUP: 2
123 -1 236 -1 41 -1 33 -1 #SUP: 2
123 -1 236 -1 41 -1 269 -1 #SUP: 2
123 -1 236 -1 269 -1 33 -1 #SUP: 2
123 -1 286 -1 65 -1 720 -1 #SUP: 2
123 -1 291 -1 262 -1 32 -1 #SUP: 2
123 -1 1182 -1 41 -1 33 -1 #SUP: 2
123 -1 1182 -1 41 -1 269 -1 #SUP: 2
123 -1 1182 -1 236 -1 33 -1 #SUP: 2
123 -1 1182 -1 236 -1 41 -1 #SUP: 2
123 -1 1182 -1 236 -1 269 -1 #SUP: 2
123 -1 1182 -1 269 -1 33 -1 #SUP: 2
154 -1 41 -1 286 -1 22 -1 #SUP: 2
154 -1 64 -1 144 -1 154 -1 #SUP: 2
236 -1 41 -1 269 -1 33 -1 #SUP: 2
1182 -1 41 -1 269 -1 33 -1 #SUP: 2
1182 -1 236 -1 41 -1 33 -1 #SUP: 2
1182 -1 236 -1 41 -1 269 -1 #SUP: 2
1182 -1 236 -1 269 -1 33 -1 #SUP: 2
67 -1 236 -1 41 -1 269 -1 33 -1 #SUP: 2
67 -1 1182 -1 41 -1 269 -1 33 -1 #SUP: 2
67 -1 1182 -1 236 -1 41 -1 33 -1 #SUP: 2
67 -1 1182 -1 236 -1 41 -1 269 -1 #SUP: 2
67 -1 1182 -1 236 -1 269 -1 33 -1 #SUP: 2
123 -1 67 -1 41 -1 269 -1 33 -1 #SUP: 2
123 -1 67 -1 236 -1 41 -1 33 -1 #SUP: 2
123 -1 67 -1 236 -1 41 -1 269 -1 #SUP: 2
123 -1 67 -1 236 -1 269 -1 33 -1 #SUP: 2
123 -1 67 -1 1182 -1 41 -1 33 -1 #SUP: 2
123 -1 67 -1 1182 -1 41 -1 269 -1 #SUP: 2
123 -1 67 -1 1182 -1 236 -1 33 -1 #SUP: 2
123 -1 67 -1 1182 -1 236 -1 41 -1 #SUP: 2
123 -1 67 -1 1182 -1 236 -1 269 -1 #SUP: 2
123 -1 67 -1 1182 -1 269 -1 33 -1 #SUP: 2
123 -1 236 -1 41 -1 269 -1 33 -1 #SUP: 2
123 -1 1182 -1 41 -1 269 -1 33 -1 #SUP: 2
123 -1 1182 -1 236 -1 41 -1 33 -1 #SUP: 2
123 -1 1182 -1 236 -1 41 -1 269 -1 #SUP: 2
123 -1 1182 -1 236 -1 269 -1 33 -1 #SUP: 2
1182 -1 236 -1 41 -1 269 -1 33 -1 #SUP: 2
67 -1 1182 -1 236 -1 41 -1 269 -1 33 -1 #SUP: 2
123 -1 67 -1 236 -1 41 -1 269 -1 33 -1 #SUP: 2
123 -1 67 -1 1182 -1 41 -1 269 -1 33 -1 #SUP: 2
123 -1 67 -1 1182 -1 236 -1 41 -1 33 -1 #SUP: 2
123 -1 67 -1 1182 -1 236 -1 41 -1 269 -1 #SUP: 2
123 -1 67 -1 1182 -1 236 -1 269 -1 33 -1 #SUP: 2
123 -1 1182 -1 236 -1 41 -1 269 -1 33 -1 #SUP: 2
123 -1 67 -1 1182 -1 236 -1 41 -1 269 -1 33 -1 #SUP: 2
