6215 -1 567 -1 77 -1 566 -1 777 -1 3055 -1 30 -2
541 -1 167 -1 356 -1 41 -1 340 -1 27 -1 248 -1 2910 -1 291 -1 1205 -1 711 -1 41 -1 3055 -1 30 -2
123 -1 1913 -1 477 -1 123 -1 2487 -1 26123 -1 283 -2
416 -1 65 -1 431 -1 1639 -1 77 -1 6592 -1 48 -1 2902 -1 30 -2
123 -1 205 -1 154 -1 535 -1 290 -1 65 -1 1296 -1 3108 -1 388 -1 30 -2
123 -1 407 -1 73 -1 142 -1 3104 -1 171 -1 213 -1 12876 -1 15020 -1 12877 -1 533 -1 30 -2
31 -1 693 -1 1587 -1 4377 -1 433 -1 441 -1 6862 -1 2 -1 16 -1 15020 -1 10 -1 318 -1 2813 -1 29927 -1 388 -1 30 -2
123 -1 407 -1 73 -1 142 -1 3104 -1 171 -1 213 -1 12876 -1 15020 -1 12877 -1 533 -1 30 -2
31 -1 693 -1 1587 -1 4377 -1 433 -1 441 -1 6862 -1 2 -1 16 -1 15020 -1 10 -1 318 -1 2813 -1 29927 -1 642 -1 1249 -1 77 -1 3336 -1 262 -1 283 -2
196 -1 3055 -1 64 -1 340 -1 154 -1 364 -1 16 -1 3055 -1 445 -1 30 -2
364 -1 16 -1 432 -1 152 -1 3164 -1 445 -1 64 -1 67 -1 672 -1 164 -1 22 -1 1156 -1 886 -1 17532 -1 599 -1 364 -1 1216 -1 16 -1 3055 -1 445 -1 64 -1 144 -1 276 -1 260 -1 192 -1 30 -2
144 -1 41 -1 340 -1 29 -1 4384 -1 156 -1 1 -2
123 -1 210 -1 67 -1 5 -1 30 -2
123 -1 286 -1 2858 -1 6 -1 65 -1 1219 -1 151 -1 2157 -1 153 -1 1263 -1 1310 -1 77 -1 183 -1 1310 -1 65 -1 1219 -1 7072 -1 77 -1 2 -1 441 -1 4898 -1 32 -1 1224 -1 30 -2
349 -1 1834 -1 64 -1 67 -1 65 -1 1219 -1 151 -1 2255 -1 10 -1 68 -1 417 -1 30 -2
123 -1 1913 -1 5448 -1 364 -1 1030 -1 30 -2
248 -1 1461 -1 65 -1 1219 -1 32 -1 18936 -1 1221 -1 30 -2
1994 -1 77 -1 78 -1 326 -1 683 -1 2 -1 200 -1 2748 -1 3 -1 33 -1 430 -1 4547 -1 31 -1 408 -1 77 -1 1177 -1 848 -1 268 -1 47124 -1 33 -1 151 -1 153 -1 213 -1 146 -1 30 -2
1442 -1 175 -1 683 -1 3131 -1 2748 -1 3 -1 936 -1 1146 -1 364 -1 223 -1 2114 -1 431 -1 618 -1 2109 -1 64 -1 430 -1 4928 -1 2 -1 68 -1 48 -1 123 -1 340 -1 260 -1 1205 -1 356 -1 1223 -1 349 -1 120 -1 441 -1 193 -1 2135 -1 10 -1 318 -1 2807 -1 2 -1 193 -1 446 -1 431 -1 10421 -1 30 -2
349 -1 1834 -1 64 -1 483 -1 193 -1 30 -2
2297 -1 30 -2
212 -1 1367 -1 27 -1 123 -1 407 -1 10419 -1 1030 -1 7386 -1 274 -1 22 -1 408 -1 30 -2
168 -1 6018 -1 427 -1 326 -1 48 -1 369 -1 226 -1 2672 -1 41 -1 16935 -1 30 -2
349 -1 1475 -1 6859 -1 32 -1 1812 -1 1223 -1 30 -2
123 -1 322 -1 703 -1 2 -1 16 -1 22 -1 4806 -1 683 -1 383 -1 1030 -1 11960 -1 77 -1 3076 -1 164 -1 68 -1 342 -1 632 -1 31 -1 1118 -1 30 -2
4869 -1 567 -1 77 -1 364 -1 16 -1 65 -1 4458 -1 30 -2
364 -1 1367 -1 27 -1 123 -1 1265 -1 30 -2
248 -1 154 -1 23190 -1 140 -1 50 -1 3176 -1 154 -1 248 -1 651 -1 64 -1 5304 -1 222 -1 1 -2
1220 -1 77 -1 248 -1 1216 -1 326 -1 1118 -1 196 -1 22744 -1 30 -2
71970 -1 77 -1 63 -1 599 -1 41 -1 391 -1 5542 -1 356 -1 326 -1 1118 -1 64 -1 222 -1 10 -1 175 -1 32 -1 29 -1 429 -1 30 -2
895 -1 893 -1 41 -1 183 -1 171 -1 30 -2
2 -1 1741 -1 369 -1 446 -1 3956 -1 13712 -1 226 -1 3030 -1 256 -1 430 -1 4547 -1 154 -1 1177 -1 4537 -1 268 -1 47124 -1 33 -1 30 -2
202 -1 65 -1 3069 -1 755 -1 3388 -1 1885 -1 8717 -1 198 -1 10 -1 22 -1 6352 -1 2 -1 4478 -1 8290 -1 10 -1 65 -1 45500 -1 13851 -1 77 -1 2947 -1 30 -2
2 -1 171 -1 220 -1 1737 -1 571 -1 291 -1 225 -1 2 -1 291 -1 3388 -1 30 -2
529 -1 77 -1 443 -1 66 -1 764 -1 30 -2
22 -1 171 -1 54 -1 8849 -1 7 -1 826 -1 28175 -1 3369 -1 170 -1 154 -1 197 -1 5816 -1 1177 -1 4537 -1 77 -1 5846 -1 4377 -1 30 -2
567 -1 171 -1 1379 -1 64 -1 2672 -1 134 -1 30 -2
1220 -1 1220 -1 77 -1 197 -1 968 -1 2858 -1 30 -2
443 -1 66 -1 340 -1 30 -2
183 -1 41 -1 10 -1 65 -1 2161 -1 75 -1 1 -2
236 -1 520 -1 77 -1 164 -1 27 -1 156 -1 1 -2
965 -1 123 -1 407 -1 73 -1 913 -1 683 -1 9740 -1 164 -1 213 -1 3312 -1 16935 -1 30 -2
738 -1 22 -1 73 -1 383 -1 32 -1 683 -1 123 -1 407 -1 913 -1 164 -1 3006 -1 152 -1 1896 -1 31 -1 3578 -1 1653 -1 738 -1 529 -1 431 -1 11960 -1 164 -1 14126 -1 30 -2
123 -1 286 -1 683 -1 4598 -1 764 -1 30 -2
123 -1 356 -1 3914 -1 71972 -1 2 -1 71971 -1 51149 -1 280 -1 602 -1 30 -2
24164 -1 1533 -1 656 -1 196 -1 81 -1 30 -2
168 -1 39030 -1 16 -1 45149 -1 77 -1 71973 -1 152 -1 71974 -1 71974 -1 30 -2
123 -1 286 -1 66 -1 156 -1 5725 -1 183 -1 4444 -1 9102 -1 77 -1 599 -1 16 -1 66 -1 183 -1 3405 -1 30 -2
322 -1 1896 -1 77 -1 48 -1 683 -1 1897 -1 170 -1 965 -1 65 -1 431 -1 1264 -1 71975 -1 75 -1 599 -1 73 -1 164 -1 65 -1 1245 -1 4384 -1 32 -1 683 -1 30 -2
144 -1 41 -1 340 -1 29 -1 4384 -1 1 -2
452 -1 520 -1 1082 -1 30 -2
444 -1 144 -1 41 -1 142 -1 3104 -1 650 -1 2637 -1 1 -2
123 -1 1758 -1 356 -1 364 -1 517 -1 2135 -1 349 -1 165 -1 3337 -1 30 -2
16 -1 154 -1 123 -1 165 -1 160 -1 64 -1 2672 -1 171 -1 30 -2
126 -1 198 -1 32 -1 323 -1 683 -1 65729 -1 123 -1 407 -1 1956 -1 64 -1 10 -1 16935 -1 3276 -1 65 -1 401 -1 408 -1 152 -1 151 -1 77 -1 1625 -1 183 -1 164 -1 11 -1 71977 -1 2 -1 309 -1 183 -1 164 -1 1118 -1 71976 -1 30 -2
683 -1 9740 -1 15 -1 11960 -1 1313 -1 64 -1 1610 -1 158 -1 164 -1 3043 -1 77 -1 30 -2
123 -1 268 -1 65 -1 2094 -1 8939 -1 4615 -1 256 -1 1214 -1 30 -2
2703 -1 1216 -1 3013 -1 70 -1 81 -1 64 -1 765 -1 30 -2
2703 -1 1216 -1 3169 -1 2 -1 1212 -1 364 -1 717 -1 151 -1 2205 -1 683 -1 254 -1 1214 -1 908 -1 183 -1 212 -1 520 -1 8940 -1 2 -1 4177 -1 22 -1 1927 -1 520 -1 384 -1 30 -2
1641 -1 756 -1 170 -1 384 -1 151 -1 4886 -1 30 -2
123 -1 176 -1 1364 -1 30 -2
4377 -1 183 -1 22 -1 28229 -1 13260 -1 32 -1 22 -1 219 -1 30 -2
70 -1 8648 -1 599 -1 443 -1 764 -1 64 -1 2831 -1 2003 -1 164 -1 27 -1 443 -1 441 -1 30 -2
27 -1 1177 -1 4201 -1 10 -1 2446 -1 170 -1 1241 -1 151 -1 153 -1 596 -1 849 -1 193 -1 4201 -1 30 -2
1082 -1 254 -1 123 -1 286 -1 154 -1 596 -1 599 -1 10421 -1 3644 -1 8052 -1 64 -1 67 -1 431 -1 804 -1 274 -1 22 -1 71978 -1 30 -2
201 -1 1907 -1 64 -1 67 -1 65 -1 1064 -1 32 -1 1480 -1 6533 -1 70 -1 544 -1 64 -1 378 -1 1478 -1 2 -1 30 -2
364 -1 16 -1 1150 -1 6175 -1 10 -1 22 -1 4928 -1 922 -1 198 -1 30 -2
349 -1 212 -1 441 -1 1061 -1 198 -1 154 -1 417 -1 30 -2
10 -1 960 -1 77 -1 123 -1 63026 -1 543 -1 31 -1 32886 -1 256 -1 22 -1 4928 -1 599 -1 441 -1 73 -1 1650 -1 171 -1 152 -1 309 -1 3360 -1 32 -1 193 -1 30 -2
193 -1 1351 -1 123 -1 286 -1 65 -1 12423 -1 77 -1 2 -1 262 -1 170 -1 749 -1 520 -1 278 -1 683 -1 65729 -1 1610 -1 158 -1 164 -1 810 -1 30 -2
443 -1 378 -1 1177 -1 2 -1 1223 -1 520 -1 202 -1 154 -1 1982 -1 1480 -1 77 -1 599 -1 349 -1 220 -1 62217 -1 704 -1 1223 -1 2 -1 22 -1 1223 -1 446 -1 196 -1 5352 -1 2006 -1 30 -2
547 -1 364 -1 431 -1 568 -1 154 -1 4928 -1 120 -1 7626 -1 167 -1 31 -1 197 -1 77 -1 599 -1 162 -1 166 -1 1956 -1 64 -1 278 -1 278 -1 4377 -1 291 -1 3276 -1 2 -1 349 -1 765 -1 22 -1 132 -1 167 -1 2 -1 183 -1 164 -1 22 -1 132 -1 157 -1 274 -1 2 -1 274 -1 30 -2
3043 -1 183 -1 73 -1 260 -1 4000 -1 164 -1 683 -1 9740 -1 443 -1 183 -1 66 -1 4122 -1 77 -1 1191 -1 77 -1 599 -1 749 -1 244 -1 183 -1 201 -1 1163 -1 6212 -1 2094 -1 3501 -1 4928 -1 1 -2
749 -1 244 -1 183 -1 201 -1 1341 -1 567 -1 2849 -1 683 -1 3276 -1 64 -1 67 -1 1650 -1 1 -2
123 -1 165 -1 613 -1 236 -1 443 -1 190 -1 66 -1 512 -1 30 -2
123 -1 340 -1 32 -1 309 -1 683 -1 65729 -1 10 -1 16935 -1 3276 -1 164 -1 1118 -1 71976 -1 30 -2
22 -1 683 -1 65729 -1 183 -1 431 -1 246 -1 667 -1 441 -1 652 -1 2094 -1 1223 -1 2 -1 183 -1 1030 -1 2809 -1 2862 -1 30 -2
246 -1 667 -1 683 -1 4598 -1 220 -1 1318 -1 30 -2
123 -1 1164 -1 4377 -1 284 -1 2672 -1 4377 -1 78 -1 7205 -1 78 -1 1455 -1 2672 -1 1455 -1 30 -2
364 -1 16 -1 154 -1 3131 -1 599 -1 123 -1 407 -1 392 -1 291 -1 309 -1 683 -1 12876 -1 3276 -1 164 -1 1118 -1 71976 -1 30 -2
430 -1 4377 -1 183 -1 1382 -1 246 -1 667 -1 2 -1 1313 -1 64 -1 6 -1 65 -1 603 -1 75 -1 32 -1 18145 -1 18696 -1 701 -1 356 -1 326 -1 1639 -1 228 -1 64 -1 222 -1 30 -2
10875 -1 1184 -1 64 -1 520 -1 278 -1 572 -1 123 -1 407 -1 590 -1 30 -2
416 -1 223 -1 1382 -1 3905 -1 77 -1 1228 -1 10 -1 2746 -1 152 -1 16 -1 144 -1 41 -1 340 -1 32 -1 175 -1 683 -1 1118 -1 20133 -1 1 -2
1981 -1 285 -1 334 -1 41 -1 1014 -1 248 -1 65 -1 1156 -1 2 -1 16 -1 65 -1 589 -1 152 -1 796 -1 1 -2
1987 -1 2269 -1 936 -1 236 -1 3074 -1 356 -1 77 -1 254 -1 154 -1 165 -1 8337 -1 1062 -1 1360 -1 3501 -1 30 -2
683 -1 9740 -1 1313 -1 64 -1 67 -1 384 -1 151 -1 11157 -1 10 -1 16935 -1 3276 -1 153 -1 683 -1 4598 -1 30 -2
123 -1 322 -1 134 -1 65 -1 1219 -1 164 -1 3371 -1 77 -1 3043 -1 77 -1 4880 -1 77 -1 2 -1 3594 -1 30 -2
431 -1 4412 -1 164 -1 1118 -1 30 -2
738 -1 66 -1 164 -1 2858 -1 283 -2
170 -1 768 -1 383 -1 32 -1 27968 -1 152 -1 151 -1 32 -1 65 -1 260 -1 2325 -1 77 -1 5463 -1 156 -1 1 -2
192 -1 283 -2
1220 -1 77 -1 123 -1 3374 -1 30 -2
123 -1 441 -1 73 -1 879 -1 913 -1 683 -1 9740 -1 164 -1 3043 -1 147 -1 154 -1 248 -1 326 -1 683 -1 248 -1 951 -1 151 -1 150 -1 65 -1 6862 -1 30 -2
171 -1 260 -1 409 -1 3069 -1 755 -1 15020 -1 2 -1 6862 -1 170 -1 154 -1 71979 -1 636 -1 30 -2
236 -1 70 -1 651 -1 64 -1 756 -1 22 -1 1118 -1 1907 -1 64 -1 67 -1 11255 -1 64 -1 8025 -1 2 -1 525 -1 2 -1 22 -1 683 -1 1907 -1 64 -1 67 -1 33206 -1 153 -1 15 -1 30 -2
236 -1 171 -1 152 -1 571 -1 183 -1 15688 -1 193 -1 2947 -1 446 -1 651 -1 64 -1 756 -1 30 -1 30 -1 23021 -1 334 -1 41 -1 1014 -1 33 -1 29 -1 4384 -1 156 -1 1 -2
144 -1 41 -1 340 -1 27 -1 29 -1 4384 -1 156 -1 170 -1 1 -2
123 -1 120 -1 1737 -1 291 -1 22 -1 3276 -1 154 -1 648 -1 756 -1 198 -1 77 -1 322 -1 1174 -1 642 -1 1082 -1 77 -1 123 -1 648 -1 286 -1 703 -1 284 -1 67 -1 36805 -1 283 -2
701 -1 652 -1 5769 -1 164 -1 22 -1 1261 -1 156 -1 30 -2
1220 -1 123 -1 441 -1 65 -1 260 -1 618 -1 48 -1 6862 -1 46 -1 2 -1 2703 -1 520 -1 384 -1 151 -1 12929 -1 93 -1 3981 -1 153 -1 30 -2
547 -1 452 -1 468 -1 4377 -1 5625 -1 3381 -1 153 -1 15 -1 162 -1 193 -1 1210 -1 64 -1 5498 -1 1 -2
14049 -1 1 -2