2 -1 #SUP: 19
7 -1 #SUP: 2
10 -1 #SUP: 5
16 -1 #SUP: 5
22 -1 #SUP: 17
27 -1 #SUP: 2
29 -1 #SUP: 5
30 -1 #SUP: 4
31 -1 #SUP: 6
32 -1 #SUP: 8
33 -1 #SUP: 2
41 -1 #SUP: 22
46 -1 #SUP: 2
48 -1 #SUP: 3
50 -1 #SUP: 6
63 -1 #SUP: 2
64 -1 #SUP: 15
65 -1 #SUP: 13
66 -1 #SUP: 3
67 -1 #SUP: 7
73 -1 #SUP: 2
77 -1 #SUP: 15
78 -1 #SUP: 3
83 -1 #SUP: 2
123 -1 #SUP: 26
134 -1 #SUP: 3
140 -1 #SUP: 3
144 -1 #SUP: 2
146 -1 #SUP: 2
149 -1 #SUP: 2
151 -1 #SUP: 2
152 -1 #SUP: 7
153 -1 #SUP: 2
154 -1 #SUP: 15
156 -1 #SUP: 3
159 -1 #SUP: 4
164 -1 #SUP: 4
165 -1 #SUP: 4
170 -1 #SUP: 15
171 -1 #SUP: 6
174 -1 #SUP: 2
175 -1 #SUP: 3
183 -1 #SUP: 3
193 -1 #SUP: 9
198 -1 #SUP: 3
200 -1 #SUP: 3
206 -1 #SUP: 4
212 -1 #SUP: 7
220 -1 #SUP: 11
222 -1 #SUP: 2
225 -1 #SUP: 2
236 -1 #SUP: 4
237 -1 #SUP: 4
254 -1 #SUP: 4
262 -1 #SUP: 5
276 -1 #SUP: 3
280 -1 #SUP: 3
285 -1 #SUP: 4
286 -1 #SUP: 3
291 -1 #SUP: 4
318 -1 #SUP: 3
326 -1 #SUP: 5
334 -1 #SUP: 2
340 -1 #SUP: 2
356 -1 #SUP: 6
364 -1 #SUP: 3
383 -1 #SUP: 2
384 -1 #SUP: 2
417 -1 #SUP: 2
424 -1 #SUP: 2
431 -1 #SUP: 6
441 -1 #SUP: 4
443 -1 #SUP: 3
506 -1 #SUP: 4
517 -1 #SUP: 5
518 -1 #SUP: 7
520 -1 #SUP: 5
523 -1 #SUP: 2
526 -1 #SUP: 2
529 -1 #SUP: 7
599 -1 #SUP: 9
609 -1 #SUP: 2
670 -1 #SUP: 2
671 -1 #SUP: 2
683 -1 #SUP: 2
701 -1 #SUP: 2
711 -1 #SUP: 2
749 -1 #SUP: 2
764 -1 #SUP: 2
777 -1 #SUP: 2
786 -1 #SUP: 3
850 -1 #SUP: 3
856 -1 #SUP: 6
1103 -1 #SUP: 2
1127 -1 #SUP: 2
1177 -1 #SUP: 2
1257 -1 #SUP: 2
1261 -1 #SUP: 3
1468 -1 #SUP: 3
1743 -1 #SUP: 2
1812 -1 #SUP: 2
2106 -1 #SUP: 4
2173 -1 #SUP: 2
2297 -1 #SUP: 2
2334 -1 #SUP: 2
2640 -1 #SUP: 4
2831 -1 #SUP: 2
2918 -1 #SUP: 2
4069 -1 #SUP: 2
4126 -1 #SUP: 3
6379 -1 #SUP: 3
7164 -1 #SUP: 2
7569 -1 #SUP: 4
7573 -1 #SUP: 2
13641 -1 #SUP: 2
117819 -1 #SUP: 2
2 -1 22 -1 #SUP: 3
2 -1 41 -1 #SUP: 3
2 -1 67 -1 #SUP: 2
2 -1 77 -1 #SUP: 2
2 -1 123 -1 #SUP: 3
2 -1 152 -1 #SUP: 2
2 -1 193 -1 #SUP: 3
2 -1 431 -1 #SUP: 3
2 -1 529 -1 #SUP: 2
2 -1 670 -1 #SUP: 2
2 -1 2297 -1 #SUP: 2
10 -1 77 -1 #SUP: 2
22 -1 22 -1 #SUP: 3
22 -1 32 -1 #SUP: 5
22 -1 41 -1 #SUP: 2
22 -1 77 -1 #SUP: 3
22 -1 123 -1 #SUP: 2
22 -1 152 -1 #SUP: 4
22 -1 170 -1 #SUP: 3
22 -1 220 -1 #SUP: 2
22 -1 517 -1 #SUP: 3
22 -1 701 -1 #SUP: 2
22 -1 749 -1 #SUP: 2
22 -1 1257 -1 #SUP: 2
22 -1 1261 -1 #SUP: 2
22 -1 13641 -1 #SUP: 2
29 -1 170 -1 #SUP: 2
30 -1 30 -1 #SUP: 2
30 -1 123 -1 #SUP: 2
31 -1 22 -1 #SUP: 3
31 -1 156 -1 #SUP: 2
32 -1 22 -1 #SUP: 2
41 -1 2 -1 #SUP: 2
41 -1 22 -1 #SUP: 3
41 -1 29 -1 #SUP: 3
41 -1 32 -1 #SUP: 3
41 -1 41 -1 #SUP: 2
41 -1 64 -1 #SUP: 2
41 -1 65 -1 #SUP: 2
41 -1 77 -1 #SUP: 4
41 -1 123 -1 #SUP: 3
41 -1 154 -1 #SUP: 3
41 -1 170 -1 #SUP: 2
41 -1 220 -1 #SUP: 2
41 -1 517 -1 #SUP: 2
41 -1 518 -1 #SUP: 2
41 -1 529 -1 #SUP: 2
41 -1 786 -1 #SUP: 2
41 -1 850 -1 #SUP: 2
41 -1 2640 -1 #SUP: 2
41 -1 13641 -1 #SUP: 2
41 -1 117819 -1 #SUP: 2
50 -1 41 -1 #SUP: 3
50 -1 77 -1 #SUP: 2
50 -1 170 -1 #SUP: 2
50 -1 174 -1 #SUP: 2
50 -1 856 -1 #SUP: 2
64 -1 2 -1 #SUP: 3
64 -1 64 -1 #SUP: 4
64 -1 154 -1 #SUP: 3
64 -1 159 -1 #SUP: 2
64 -1 193 -1 #SUP: 3
64 -1 326 -1 #SUP: 2
64 -1 599 -1 #SUP: 2
65 -1 2 -1 #SUP: 2
65 -1 22 -1 #SUP: 2
65 -1 31 -1 #SUP: 2
65 -1 41 -1 #SUP: 2
65 -1 77 -1 #SUP: 4
65 -1 123 -1 #SUP: 2
65 -1 146 -1 #SUP: 2
65 -1 170 -1 #SUP: 3
65 -1 212 -1 #SUP: 2
65 -1 222 -1 #SUP: 2
65 -1 236 -1 #SUP: 2
65 -1 237 -1 #SUP: 2
65 -1 599 -1 #SUP: 2
65 -1 1812 -1 #SUP: 2
67 -1 2 -1 #SUP: 3
67 -1 67 -1 #SUP: 2
67 -1 152 -1 #SUP: 2
67 -1 431 -1 #SUP: 3
67 -1 441 -1 #SUP: 2
67 -1 671 -1 #SUP: 2
77 -1 2 -1 #SUP: 3
77 -1 16 -1 #SUP: 3
77 -1 22 -1 #SUP: 3
77 -1 32 -1 #SUP: 2
77 -1 41 -1 #SUP: 4
77 -1 50 -1 #SUP: 2
77 -1 63 -1 #SUP: 2
77 -1 64 -1 #SUP: 4
77 -1 123 -1 #SUP: 4
77 -1 154 -1 #SUP: 3
77 -1 170 -1 #SUP: 4
77 -1 193 -1 #SUP: 2
77 -1 212 -1 #SUP: 3
77 -1 220 -1 #SUP: 2
77 -1 599 -1 #SUP: 2
77 -1 850 -1 #SUP: 2
77 -1 856 -1 #SUP: 2
77 -1 1468 -1 #SUP: 2
77 -1 13641 -1 #SUP: 2
78 -1 65 -1 #SUP: 2
78 -1 170 -1 #SUP: 2
78 -1 1812 -1 #SUP: 2
123 -1 2 -1 #SUP: 6
123 -1 22 -1 #SUP: 3
123 -1 48 -1 #SUP: 3
123 -1 64 -1 #SUP: 3
123 -1 65 -1 #SUP: 6
123 -1 77 -1 #SUP: 5
123 -1 78 -1 #SUP: 3
123 -1 123 -1 #SUP: 5
123 -1 144 -1 #SUP: 2
123 -1 154 -1 #SUP: 3
123 -1 206 -1 #SUP: 2
123 -1 212 -1 #SUP: 2
123 -1 220 -1 #SUP: 2
123 -1 262 -1 #SUP: 2
123 -1 291 -1 #SUP: 2
123 -1 326 -1 #SUP: 2
123 -1 356 -1 #SUP: 2
123 -1 431 -1 #SUP: 2
123 -1 529 -1 #SUP: 2
123 -1 777 -1 #SUP: 2
123 -1 1177 -1 #SUP: 2
123 -1 1812 -1 #SUP: 2
140 -1 22 -1 #SUP: 2
140 -1 41 -1 #SUP: 2
146 -1 77 -1 #SUP: 2
146 -1 170 -1 #SUP: 2
152 -1 31 -1 #SUP: 2
153 -1 254 -1 #SUP: 2
154 -1 22 -1 #SUP: 3
154 -1 41 -1 #SUP: 2
154 -1 64 -1 #SUP: 2
154 -1 65 -1 #SUP: 2
154 -1 146 -1 #SUP: 2
154 -1 159 -1 #SUP: 2
154 -1 170 -1 #SUP: 3
154 -1 193 -1 #SUP: 2
154 -1 356 -1 #SUP: 2
154 -1 417 -1 #SUP: 2
154 -1 599 -1 #SUP: 2
154 -1 1468 -1 #SUP: 2
156 -1 22 -1 #SUP: 2
159 -1 22 -1 #SUP: 2
159 -1 170 -1 #SUP: 2
159 -1 193 -1 #SUP: 2
164 -1 46 -1 #SUP: 2
164 -1 526 -1 #SUP: 2
165 -1 41 -1 #SUP: 2
165 -1 159 -1 #SUP: 2
170 -1 10 -1 #SUP: 2
170 -1 16 -1 #SUP: 5
170 -1 31 -1 #SUP: 2
170 -1 41 -1 #SUP: 2
170 -1 64 -1 #SUP: 2
170 -1 65 -1 #SUP: 2
170 -1 154 -1 #SUP: 2
170 -1 212 -1 #SUP: 2
170 -1 276 -1 #SUP: 2
170 -1 599 -1 #SUP: 2
171 -1 2 -1 #SUP: 4
171 -1 67 -1 #SUP: 3
171 -1 220 -1 #SUP: 3
171 -1 431 -1 #SUP: 2
171 -1 441 -1 #SUP: 2
171 -1 506 -1 #SUP: 2
183 -1 22 -1 #SUP: 2
193 -1 154 -1 #SUP: 2
193 -1 170 -1 #SUP: 2
198 -1 523 -1 #SUP: 2
212 -1 2 -1 #SUP: 2
212 -1 529 -1 #SUP: 2
220 -1 2 -1 #SUP: 3
220 -1 67 -1 #SUP: 3
220 -1 262 -1 #SUP: 3
220 -1 431 -1 #SUP: 2
220 -1 517 -1 #SUP: 2
225 -1 154 -1 #SUP: 2
236 -1 41 -1 #SUP: 2
254 -1 22 -1 #SUP: 2
254 -1 65 -1 #SUP: 2
254 -1 170 -1 #SUP: 2
286 -1 356 -1 #SUP: 2
291 -1 2 -1 #SUP: 2
291 -1 154 -1 #SUP: 2
318 -1 156 -1 #SUP: 2
326 -1 48 -1 #SUP: 2
326 -1 64 -1 #SUP: 2
326 -1 65 -1 #SUP: 2
334 -1 123 -1 #SUP: 2
340 -1 154 -1 #SUP: 2
340 -1 291 -1 #SUP: 2
356 -1 2 -1 #SUP: 3
356 -1 29 -1 #SUP: 2
364 -1 64 -1 #SUP: 2
431 -1 123 -1 #SUP: 2
431 -1 671 -1 #SUP: 2
441 -1 431 -1 #SUP: 2
441 -1 506 -1 #SUP: 2
441 -1 671 -1 #SUP: 2
443 -1 212 -1 #SUP: 2
506 -1 441 -1 #SUP: 2
517 -1 123 -1 #SUP: 2
517 -1 212 -1 #SUP: 2
518 -1 2 -1 #SUP: 2
518 -1 212 -1 #SUP: 2
518 -1 220 -1 #SUP: 2
518 -1 506 -1 #SUP: 2
520 -1 48 -1 #SUP: 2
520 -1 326 -1 #SUP: 2
529 -1 50 -1 #SUP: 2
529 -1 123 -1 #SUP: 2
529 -1 262 -1 #SUP: 2
599 -1 41 -1 #SUP: 2
599 -1 64 -1 #SUP: 3
599 -1 154 -1 #SUP: 2
599 -1 170 -1 #SUP: 2
599 -1 171 -1 #SUP: 2
599 -1 193 -1 #SUP: 2
599 -1 236 -1 #SUP: 2
701 -1 152 -1 #SUP: 2
777 -1 123 -1 #SUP: 2
856 -1 22 -1 #SUP: 2
856 -1 32 -1 #SUP: 2
856 -1 41 -1 #SUP: 6
856 -1 77 -1 #SUP: 2
856 -1 123 -1 #SUP: 2
856 -1 170 -1 #SUP: 2
1177 -1 65 -1 #SUP: 2
1177 -1 78 -1 #SUP: 2
1177 -1 170 -1 #SUP: 2
1177 -1 1812 -1 #SUP: 2
1257 -1 22 -1 #SUP: 2
1257 -1 156 -1 #SUP: 2
1468 -1 599 -1 #SUP: 2
1812 -1 170 -1 #SUP: 2
2106 -1 77 -1 #SUP: 2
2106 -1 529 -1 #SUP: 2
2106 -1 850 -1 #SUP: 2
2334 -1 64 -1 #SUP: 2
2334 -1 77 -1 #SUP: 2
2640 -1 41 -1 #SUP: 2
2640 -1 154 -1 #SUP: 2
2640 -1 206 -1 #SUP: 2
6379 -1 64 -1 #SUP: 2
6379 -1 6379 -1 #SUP: 2
7164 -1 64 -1 #SUP: 2
7569 -1 16 -1 #SUP: 2
7569 -1 32 -1 #SUP: 2
7569 -1 170 -1 #SUP: 2
13641 -1 32 -1 #SUP: 2
2 -1 123 -1 123 -1 #SUP: 2
22 -1 220 -1 517 -1 #SUP: 2
22 -1 13641 -1 32 -1 #SUP: 2
30 -1 30 -1 123 -1 #SUP: 2
31 -1 156 -1 22 -1 #SUP: 2
41 -1 22 -1 32 -1 #SUP: 3
41 -1 22 -1 13641 -1 #SUP: 2
41 -1 77 -1 123 -1 #SUP: 3
41 -1 123 -1 77 -1 #SUP: 2
41 -1 123 -1 123 -1 #SUP: 2
41 -1 13641 -1 32 -1 #SUP: 2
50 -1 41 -1 170 -1 #SUP: 2
50 -1 856 -1 41 -1 #SUP: 2
50 -1 856 -1 170 -1 #SUP: 2
65 -1 77 -1 170 -1 #SUP: 2
65 -1 146 -1 77 -1 #SUP: 2
65 -1 146 -1 170 -1 #SUP: 2
65 -1 1812 -1 170 -1 #SUP: 2
67 -1 2 -1 67 -1 #SUP: 2
67 -1 2 -1 431 -1 #SUP: 2
67 -1 431 -1 671 -1 #SUP: 2
67 -1 441 -1 431 -1 #SUP: 2
67 -1 441 -1 671 -1 #SUP: 2
77 -1 22 -1 32 -1 #SUP: 2
77 -1 22 -1 13641 -1 #SUP: 2
77 -1 41 -1 22 -1 #SUP: 2
77 -1 41 -1 32 -1 #SUP: 2
77 -1 41 -1 13641 -1 #SUP: 2
77 -1 123 -1 212 -1 #SUP: 2
77 -1 154 -1 1468 -1 #SUP: 2
77 -1 170 -1 16 -1 #SUP: 2
77 -1 856 -1 41 -1 #SUP: 2
77 -1 13641 -1 32 -1 #SUP: 2
78 -1 65 -1 170 -1 #SUP: 2
78 -1 65 -1 1812 -1 #SUP: 2
78 -1 1812 -1 170 -1 #SUP: 2
123 -1 65 -1 77 -1 #SUP: 2
123 -1 65 -1 123 -1 #SUP: 2
123 -1 65 -1 1812 -1 #SUP: 2
123 -1 77 -1 123 -1 #SUP: 3
123 -1 78 -1 65 -1 #SUP: 2
123 -1 78 -1 1812 -1 #SUP: 2
123 -1 123 -1 529 -1 #SUP: 2
123 -1 212 -1 2 -1 #SUP: 2
123 -1 220 -1 262 -1 #SUP: 2
123 -1 326 -1 48 -1 #SUP: 2
123 -1 777 -1 123 -1 #SUP: 2
123 -1 1177 -1 65 -1 #SUP: 2
123 -1 1177 -1 78 -1 #SUP: 2
123 -1 1177 -1 1812 -1 #SUP: 2
146 -1 77 -1 170 -1 #SUP: 2
154 -1 65 -1 146 -1 #SUP: 2
154 -1 1468 -1 599 -1 #SUP: 2
171 -1 2 -1 431 -1 #SUP: 2
171 -1 67 -1 2 -1 #SUP: 3
171 -1 67 -1 431 -1 #SUP: 2
171 -1 220 -1 2 -1 #SUP: 3
171 -1 220 -1 67 -1 #SUP: 3
171 -1 220 -1 431 -1 #SUP: 2
171 -1 441 -1 506 -1 #SUP: 2
220 -1 2 -1 67 -1 #SUP: 2
220 -1 2 -1 431 -1 #SUP: 2
220 -1 67 -1 2 -1 #SUP: 3
220 -1 67 -1 67 -1 #SUP: 2
220 -1 67 -1 431 -1 #SUP: 2
340 -1 291 -1 154 -1 #SUP: 2
441 -1 431 -1 671 -1 #SUP: 2
520 -1 326 -1 48 -1 #SUP: 2
599 -1 64 -1 193 -1 #SUP: 2
856 -1 22 -1 32 -1 #SUP: 2
856 -1 41 -1 22 -1 #SUP: 2
856 -1 41 -1 32 -1 #SUP: 2
856 -1 41 -1 77 -1 #SUP: 2
856 -1 41 -1 123 -1 #SUP: 2
856 -1 41 -1 170 -1 #SUP: 2
856 -1 77 -1 123 -1 #SUP: 2
1177 -1 65 -1 170 -1 #SUP: 2
1177 -1 65 -1 1812 -1 #SUP: 2
1177 -1 78 -1 65 -1 #SUP: 2
1177 -1 78 -1 170 -1 #SUP: 2
1177 -1 78 -1 1812 -1 #SUP: 2
1177 -1 1812 -1 170 -1 #SUP: 2
1257 -1 156 -1 22 -1 #SUP: 2
2334 -1 77 -1 64 -1 #SUP: 2
7569 -1 170 -1 16 -1 #SUP: 2
41 -1 22 -1 13641 -1 32 -1 #SUP: 2
41 -1 123 -1 77 -1 123 -1 #SUP: 2
50 -1 856 -1 41 -1 170 -1 #SUP: 2
65 -1 146 -1 77 -1 170 -1 #SUP: 2
67 -1 441 -1 431 -1 671 -1 #SUP: 2
77 -1 22 -1 13641 -1 32 -1 #SUP: 2
77 -1 41 -1 22 -1 32 -1 #SUP: 2
77 -1 41 -1 22 -1 13641 -1 #SUP: 2
77 -1 41 -1 13641 -1 32 -1 #SUP: 2
78 -1 65 -1 1812 -1 170 -1 #SUP: 2
123 -1 78 -1 65 -1 1812 -1 #SUP: 2
123 -1 1177 -1 65 -1 1812 -1 #SUP: 2
123 -1 1177 -1 78 -1 65 -1 #SUP: 2
123 -1 1177 -1 78 -1 1812 -1 #SUP: 2
171 -1 67 -1 2 -1 431 -1 #SUP: 2
171 -1 220 -1 2 -1 431 -1 #SUP: 2
171 -1 220 -1 67 -1 2 -1 #SUP: 3
171 -1 220 -1 67 -1 431 -1 #SUP: 2
220 -1 67 -1 2 -1 67 -1 #SUP: 2
220 -1 67 -1 2 -1 431 -1 #SUP: 2
856 -1 41 -1 22 -1 32 -1 #SUP: 2
856 -1 41 -1 77 -1 123 -1 #SUP: 2
1177 -1 65 -1 1812 -1 170 -1 #SUP: 2
1177 -1 78 -1 65 -1 170 -1 #SUP: 2
1177 -1 78 -1 65 -1 1812 -1 #SUP: 2
1177 -1 78 -1 1812 -1 170 -1 #SUP: 2
77 -1 41 -1 22 -1 13641 -1 32 -1 #SUP: 2
123 -1 1177 -1 78 -1 65 -1 1812 -1 #SUP: 2
171 -1 220 -1 67 -1 2 -1 431 -1 #SUP: 2
1177 -1 78 -1 65 -1 1812 -1 170 -1 #SUP: 2
