2 -1 #SUP: 21
8 -1 #SUP: 2
10 -1 #SUP: 19
13 -1 #SUP: 3
15 -1 #SUP: 3
16 -1 #SUP: 4
22 -1 #SUP: 44
26 -1 #SUP: 2
27 -1 #SUP: 8
28 -1 #SUP: 2
29 -1 #SUP: 5
30 -1 #SUP: 2
31 -1 #SUP: 8
32 -1 #SUP: 29
33 -1 #SUP: 6
41 -1 #SUP: 14
44 -1 #SUP: 4
49 -1 #SUP: 3
50 -1 #SUP: 20
64 -1 #SUP: 24
65 -1 #SUP: 26
66 -1 #SUP: 2
67 -1 #SUP: 6
68 -1 #SUP: 2
70 -1 #SUP: 6
76 -1 #SUP: 5
77 -1 #SUP: 28
78 -1 #SUP: 5
82 -1 #SUP: 5
117 -1 #SUP: 5
123 -1 #SUP: 57
140 -1 #SUP: 3
144 -1 #SUP: 6
154 -1 #SUP: 8
159 -1 #SUP: 3
162 -1 #SUP: 5
164 -1 #SUP: 4
165 -1 #SUP: 10
168 -1 #SUP: 2
170 -1 #SUP: 6
171 -1 #SUP: 7
174 -1 #SUP: 2
193 -1 #SUP: 15
196 -1 #SUP: 3
205 -1 #SUP: 2
206 -1 #SUP: 10
212 -1 #SUP: 2
220 -1 #SUP: 3
222 -1 #SUP: 9
224 -1 #SUP: 2
225 -1 #SUP: 3
226 -1 #SUP: 3
236 -1 #SUP: 5
246 -1 #SUP: 4
254 -1 #SUP: 2
256 -1 #SUP: 2
260 -1 #SUP: 4
262 -1 #SUP: 6
268 -1 #SUP: 2
280 -1 #SUP: 8
285 -1 #SUP: 6
286 -1 #SUP: 5
291 -1 #SUP: 6
301 -1 #SUP: 2
326 -1 #SUP: 3
334 -1 #SUP: 2
340 -1 #SUP: 3
356 -1 #SUP: 5
384 -1 #SUP: 2
392 -1 #SUP: 2
394 -1 #SUP: 3
397 -1 #SUP: 2
401 -1 #SUP: 2
408 -1 #SUP: 3
409 -1 #SUP: 2
441 -1 #SUP: 8
443 -1 #SUP: 5
483 -1 #SUP: 2
491 -1 #SUP: 2
499 -1 #SUP: 2
520 -1 #SUP: 4
543 -1 #SUP: 3
566 -1 #SUP: 2
567 -1 #SUP: 3
599 -1 #SUP: 4
603 -1 #SUP: 3
613 -1 #SUP: 2
624 -1 #SUP: 5
638 -1 #SUP: 6
648 -1 #SUP: 4
652 -1 #SUP: 5
654 -1 #SUP: 2
657 -1 #SUP: 2
671 -1 #SUP: 2
711 -1 #SUP: 2
764 -1 #SUP: 2
765 -1 #SUP: 2
778 -1 #SUP: 2
850 -1 #SUP: 2
863 -1 #SUP: 2
886 -1 #SUP: 2
905 -1 #SUP: 2
921 -1 #SUP: 2
923 -1 #SUP: 2
926 -1 #SUP: 2
936 -1 #SUP: 2
951 -1 #SUP: 5
1118 -1 #SUP: 2
1219 -1 #SUP: 2
1225 -1 #SUP: 2
1241 -1 #SUP: 2
1432 -1 #SUP: 2
1476 -1 #SUP: 3
1489 -1 #SUP: 4
1610 -1 #SUP: 3
1664 -1 #SUP: 2
1724 -1 #SUP: 2
1899 -1 #SUP: 3
1901 -1 #SUP: 2
2160 -1 #SUP: 2
2301 -1 #SUP: 2
2566 -1 #SUP: 2
3180 -1 #SUP: 2
3216 -1 #SUP: 3
3660 -1 #SUP: 3
4520 -1 #SUP: 2
4820 -1 #SUP: 2
5237 -1 #SUP: 2
5987 -1 #SUP: 4
6895 -1 #SUP: 2
7079 -1 #SUP: 2
11857 -1 #SUP: 3
12366 -1 #SUP: 2
13844 -1 #SUP: 2
19309 -1 #SUP: 2
20730 -1 #SUP: 2
31564 -1 #SUP: 2
43089 -1 #SUP: 2
44564 -1 #SUP: 2
2 -1 2 -1 #SUP: 2
2 -1 10 -1 #SUP: 4
2 -1 22 -1 #SUP: 4
2 -1 32 -1 #SUP: 5
2 -1 41 -1 #SUP: 2
2 -1 50 -1 #SUP: 3
2 -1 82 -1 #SUP: 2
2 -1 123 -1 #SUP: 2
2 -1 140 -1 #SUP: 2
2 -1 170 -1 #SUP: 2
2 -1 193 -1 #SUP: 2
2 -1 224 -1 #SUP: 2
2 -1 356 -1 #SUP: 2
2 -1 5987 -1 #SUP: 2
2 -1 12366 -1 #SUP: 2
2 -1 44564 -1 #SUP: 2
10 -1 2 -1 #SUP: 4
10 -1 22 -1 #SUP: 7
10 -1 32 -1 #SUP: 4
10 -1 65 -1 #SUP: 2
10 -1 77 -1 #SUP: 2
10 -1 123 -1 #SUP: 2
10 -1 863 -1 #SUP: 2
10 -1 5987 -1 #SUP: 2
10 -1 12366 -1 #SUP: 2
10 -1 44564 -1 #SUP: 2
13 -1 140 -1 #SUP: 2
16 -1 77 -1 #SUP: 2
16 -1 123 -1 #SUP: 2
22 -1 2 -1 #SUP: 5
22 -1 10 -1 #SUP: 10
22 -1 13 -1 #SUP: 3
22 -1 22 -1 #SUP: 4
22 -1 30 -1 #SUP: 2
22 -1 32 -1 #SUP: 15
22 -1 64 -1 #SUP: 2
22 -1 65 -1 #SUP: 3
22 -1 77 -1 #SUP: 4
22 -1 78 -1 #SUP: 2
22 -1 82 -1 #SUP: 3
22 -1 123 -1 #SUP: 4
22 -1 140 -1 #SUP: 2
22 -1 165 -1 #SUP: 2
22 -1 171 -1 #SUP: 3
22 -1 280 -1 #SUP: 2
22 -1 301 -1 #SUP: 2
22 -1 356 -1 #SUP: 2
22 -1 441 -1 #SUP: 2
22 -1 543 -1 #SUP: 2
22 -1 638 -1 #SUP: 3
22 -1 863 -1 #SUP: 2
22 -1 1610 -1 #SUP: 3
22 -1 1901 -1 #SUP: 2
22 -1 5987 -1 #SUP: 4
22 -1 13844 -1 #SUP: 2
22 -1 43089 -1 #SUP: 2
27 -1 22 -1 #SUP: 4
27 -1 32 -1 #SUP: 2
27 -1 41 -1 #SUP: 3
27 -1 64 -1 #SUP: 2
27 -1 144 -1 #SUP: 3
27 -1 159 -1 #SUP: 2
27 -1 3216 -1 #SUP: 2
28 -1 26 -1 #SUP: 2
29 -1 3216 -1 #SUP: 2
31 -1 22 -1 #SUP: 2
32 -1 2 -1 #SUP: 4
32 -1 10 -1 #SUP: 6
32 -1 22 -1 #SUP: 7
32 -1 50 -1 #SUP: 2
32 -1 64 -1 #SUP: 4
32 -1 65 -1 #SUP: 4
32 -1 77 -1 #SUP: 4
32 -1 123 -1 #SUP: 3
32 -1 1432 -1 #SUP: 2
33 -1 22 -1 #SUP: 3
33 -1 123 -1 #SUP: 2
41 -1 2 -1 #SUP: 3
41 -1 22 -1 #SUP: 2
41 -1 29 -1 #SUP: 2
41 -1 32 -1 #SUP: 3
41 -1 65 -1 #SUP: 2
41 -1 77 -1 #SUP: 4
41 -1 159 -1 #SUP: 2
41 -1 224 -1 #SUP: 2
41 -1 246 -1 #SUP: 2
41 -1 260 -1 #SUP: 2
41 -1 286 -1 #SUP: 2
41 -1 3216 -1 #SUP: 2
49 -1 50 -1 #SUP: 2
50 -1 2 -1 #SUP: 2
50 -1 64 -1 #SUP: 2
50 -1 65 -1 #SUP: 3
50 -1 77 -1 #SUP: 2
50 -1 193 -1 #SUP: 2
50 -1 280 -1 #SUP: 2
50 -1 394 -1 #SUP: 2
50 -1 491 -1 #SUP: 2
50 -1 886 -1 #SUP: 2
50 -1 1118 -1 #SUP: 2
50 -1 6895 -1 #SUP: 2
50 -1 11857 -1 #SUP: 3
64 -1 2 -1 #SUP: 3
64 -1 10 -1 #SUP: 4
64 -1 22 -1 #SUP: 8
64 -1 27 -1 #SUP: 2
64 -1 32 -1 #SUP: 4
64 -1 50 -1 #SUP: 2
64 -1 64 -1 #SUP: 4
64 -1 65 -1 #SUP: 4
64 -1 77 -1 #SUP: 3
64 -1 123 -1 #SUP: 3
64 -1 236 -1 #SUP: 2
64 -1 262 -1 #SUP: 2
64 -1 285 -1 #SUP: 2
64 -1 356 -1 #SUP: 2
64 -1 441 -1 #SUP: 2
65 -1 2 -1 #SUP: 5
65 -1 22 -1 #SUP: 4
65 -1 32 -1 #SUP: 4
65 -1 41 -1 #SUP: 3
65 -1 50 -1 #SUP: 4
65 -1 64 -1 #SUP: 4
65 -1 65 -1 #SUP: 2
65 -1 77 -1 #SUP: 5
65 -1 123 -1 #SUP: 7
65 -1 162 -1 #SUP: 2
65 -1 171 -1 #SUP: 2
65 -1 193 -1 #SUP: 2
65 -1 291 -1 #SUP: 2
65 -1 401 -1 #SUP: 2
65 -1 765 -1 #SUP: 2
65 -1 923 -1 #SUP: 2
65 -1 1219 -1 #SUP: 2
65 -1 1432 -1 #SUP: 2
65 -1 5237 -1 #SUP: 2
67 -1 2 -1 #SUP: 3
68 -1 76 -1 #SUP: 2
68 -1 123 -1 #SUP: 2
68 -1 1664 -1 #SUP: 2
70 -1 10 -1 #SUP: 2
70 -1 50 -1 #SUP: 2
70 -1 123 -1 #SUP: 2
70 -1 280 -1 #SUP: 2
70 -1 652 -1 #SUP: 2
76 -1 65 -1 #SUP: 2
76 -1 123 -1 #SUP: 4
76 -1 1664 -1 #SUP: 2
77 -1 2 -1 #SUP: 6
77 -1 22 -1 #SUP: 4
77 -1 41 -1 #SUP: 2
77 -1 65 -1 #SUP: 6
77 -1 77 -1 #SUP: 7
77 -1 123 -1 #SUP: 7
77 -1 154 -1 #SUP: 2
77 -1 165 -1 #SUP: 2
77 -1 171 -1 #SUP: 2
77 -1 193 -1 #SUP: 2
77 -1 224 -1 #SUP: 2
77 -1 246 -1 #SUP: 2
77 -1 260 -1 #SUP: 3
77 -1 441 -1 #SUP: 2
77 -1 599 -1 #SUP: 3
77 -1 648 -1 #SUP: 2
78 -1 65 -1 #SUP: 3
78 -1 123 -1 #SUP: 2
117 -1 22 -1 #SUP: 3
117 -1 65 -1 #SUP: 2
117 -1 77 -1 #SUP: 2
117 -1 123 -1 #SUP: 2
123 -1 2 -1 #SUP: 2
123 -1 10 -1 #SUP: 8
123 -1 22 -1 #SUP: 12
123 -1 27 -1 #SUP: 3
123 -1 31 -1 #SUP: 3
123 -1 32 -1 #SUP: 7
123 -1 33 -1 #SUP: 2
123 -1 50 -1 #SUP: 6
123 -1 64 -1 #SUP: 13
123 -1 65 -1 #SUP: 7
123 -1 67 -1 #SUP: 3
123 -1 76 -1 #SUP: 2
123 -1 77 -1 #SUP: 9
123 -1 123 -1 #SUP: 9
123 -1 154 -1 #SUP: 5
123 -1 165 -1 #SUP: 5
123 -1 171 -1 #SUP: 4
123 -1 174 -1 #SUP: 2
123 -1 193 -1 #SUP: 5
123 -1 205 -1 #SUP: 2
123 -1 206 -1 #SUP: 6
123 -1 212 -1 #SUP: 2
123 -1 220 -1 #SUP: 2
123 -1 225 -1 #SUP: 2
123 -1 236 -1 #SUP: 3
123 -1 268 -1 #SUP: 2
123 -1 285 -1 #SUP: 3
123 -1 286 -1 #SUP: 3
123 -1 291 -1 #SUP: 3
123 -1 392 -1 #SUP: 2
123 -1 408 -1 #SUP: 2
123 -1 441 -1 #SUP: 5
123 -1 520 -1 #SUP: 3
123 -1 567 -1 #SUP: 2
123 -1 599 -1 #SUP: 4
123 -1 613 -1 #SUP: 2
123 -1 624 -1 #SUP: 2
123 -1 638 -1 #SUP: 5
123 -1 648 -1 #SUP: 3
123 -1 765 -1 #SUP: 2
123 -1 905 -1 #SUP: 2
123 -1 1610 -1 #SUP: 2
123 -1 1664 -1 #SUP: 2
123 -1 2160 -1 #SUP: 2
123 -1 2301 -1 #SUP: 2
123 -1 7079 -1 #SUP: 2
123 -1 11857 -1 #SUP: 2
144 -1 29 -1 #SUP: 2
144 -1 41 -1 #SUP: 5
144 -1 159 -1 #SUP: 2
144 -1 3216 -1 #SUP: 2
154 -1 50 -1 #SUP: 2
154 -1 77 -1 #SUP: 2
154 -1 123 -1 #SUP: 3
162 -1 22 -1 #SUP: 3
162 -1 32 -1 #SUP: 2
162 -1 64 -1 #SUP: 2
162 -1 77 -1 #SUP: 2
162 -1 123 -1 #SUP: 4
162 -1 599 -1 #SUP: 2
164 -1 22 -1 #SUP: 2
164 -1 50 -1 #SUP: 2
165 -1 32 -1 #SUP: 2
165 -1 44 -1 #SUP: 2
165 -1 64 -1 #SUP: 2
165 -1 65 -1 #SUP: 4
165 -1 67 -1 #SUP: 3
165 -1 123 -1 #SUP: 3
165 -1 236 -1 #SUP: 2
165 -1 441 -1 #SUP: 2
165 -1 7079 -1 #SUP: 2
170 -1 2 -1 #SUP: 2
170 -1 22 -1 #SUP: 2
170 -1 50 -1 #SUP: 3
171 -1 10 -1 #SUP: 2
171 -1 22 -1 #SUP: 2
171 -1 32 -1 #SUP: 3
171 -1 50 -1 #SUP: 2
174 -1 32 -1 #SUP: 2
193 -1 50 -1 #SUP: 2
193 -1 76 -1 #SUP: 2
193 -1 77 -1 #SUP: 2
193 -1 193 -1 #SUP: 2
193 -1 206 -1 #SUP: 2
193 -1 356 -1 #SUP: 2
206 -1 22 -1 #SUP: 2
206 -1 50 -1 #SUP: 2
206 -1 64 -1 #SUP: 3
206 -1 77 -1 #SUP: 2
206 -1 520 -1 #SUP: 2
220 -1 2 -1 #SUP: 2
222 -1 65 -1 #SUP: 2
222 -1 123 -1 #SUP: 2
225 -1 10 -1 #SUP: 2
236 -1 123 -1 #SUP: 2
246 -1 2 -1 #SUP: 2
246 -1 77 -1 #SUP: 3
246 -1 224 -1 #SUP: 2
254 -1 123 -1 #SUP: 2
254 -1 638 -1 #SUP: 2
256 -1 22 -1 #SUP: 2
260 -1 2 -1 #SUP: 2
260 -1 77 -1 #SUP: 2
260 -1 224 -1 #SUP: 2
260 -1 246 -1 #SUP: 3
262 -1 123 -1 #SUP: 2
262 -1 624 -1 #SUP: 2
285 -1 10 -1 #SUP: 2
285 -1 22 -1 #SUP: 3
285 -1 32 -1 #SUP: 2
285 -1 64 -1 #SUP: 3
286 -1 22 -1 #SUP: 2
286 -1 32 -1 #SUP: 2
286 -1 64 -1 #SUP: 3
286 -1 65 -1 #SUP: 2
286 -1 67 -1 #SUP: 3
286 -1 77 -1 #SUP: 2
286 -1 123 -1 #SUP: 3
286 -1 165 -1 #SUP: 3
291 -1 22 -1 #SUP: 2
334 -1 78 -1 #SUP: 2
384 -1 66 -1 #SUP: 2
392 -1 65 -1 #SUP: 2
408 -1 397 -1 #SUP: 2
441 -1 10 -1 #SUP: 2
441 -1 22 -1 #SUP: 2
441 -1 33 -1 #SUP: 2
441 -1 77 -1 #SUP: 2
441 -1 82 -1 #SUP: 2
441 -1 123 -1 #SUP: 2
443 -1 10 -1 #SUP: 2
443 -1 22 -1 #SUP: 2
491 -1 394 -1 #SUP: 2
499 -1 64 -1 #SUP: 2
543 -1 356 -1 #SUP: 3
566 -1 22 -1 #SUP: 2
567 -1 22 -1 #SUP: 2
567 -1 77 -1 #SUP: 2
567 -1 82 -1 #SUP: 2
599 -1 123 -1 #SUP: 2
599 -1 260 -1 #SUP: 2
599 -1 648 -1 #SUP: 2
638 -1 50 -1 #SUP: 2
648 -1 22 -1 #SUP: 2
648 -1 64 -1 #SUP: 2
648 -1 65 -1 #SUP: 2
648 -1 67 -1 #SUP: 2
648 -1 78 -1 #SUP: 2
648 -1 123 -1 #SUP: 2
648 -1 286 -1 #SUP: 2
886 -1 394 -1 #SUP: 2
886 -1 491 -1 #SUP: 2
905 -1 65 -1 #SUP: 2
936 -1 65 -1 #SUP: 2
1118 -1 11857 -1 #SUP: 2
1219 -1 32 -1 #SUP: 2
1489 -1 22 -1 #SUP: 2
1489 -1 32 -1 #SUP: 2
1610 -1 77 -1 #SUP: 2
1901 -1 43089 -1 #SUP: 2
2566 -1 340 -1 #SUP: 2
3180 -1 123 -1 #SUP: 2
3180 -1 206 -1 #SUP: 2
3660 -1 193 -1 #SUP: 2
5237 -1 50 -1 #SUP: 2
12366 -1 2 -1 #SUP: 2
12366 -1 44564 -1 #SUP: 2
13844 -1 5987 -1 #SUP: 2
2 -1 10 -1 22 -1 #SUP: 2
2 -1 10 -1 12366 -1 #SUP: 2
2 -1 22 -1 32 -1 #SUP: 2
2 -1 170 -1 50 -1 #SUP: 2
10 -1 2 -1 44564 -1 #SUP: 2
10 -1 22 -1 32 -1 #SUP: 2
10 -1 22 -1 863 -1 #SUP: 2
10 -1 32 -1 22 -1 #SUP: 2
10 -1 12366 -1 2 -1 #SUP: 2
10 -1 12366 -1 44564 -1 #SUP: 2
16 -1 77 -1 123 -1 #SUP: 2
22 -1 2 -1 10 -1 #SUP: 2
22 -1 2 -1 140 -1 #SUP: 2
22 -1 10 -1 5987 -1 #SUP: 2
22 -1 13 -1 140 -1 #SUP: 2
22 -1 32 -1 10 -1 #SUP: 4
22 -1 32 -1 22 -1 #SUP: 3
22 -1 32 -1 64 -1 #SUP: 2
22 -1 64 -1 10 -1 #SUP: 2
22 -1 77 -1 65 -1 #SUP: 2
22 -1 123 -1 10 -1 #SUP: 2
22 -1 123 -1 65 -1 #SUP: 2
22 -1 123 -1 171 -1 #SUP: 2
22 -1 123 -1 638 -1 #SUP: 2
22 -1 543 -1 356 -1 #SUP: 2
22 -1 1901 -1 43089 -1 #SUP: 2
22 -1 13844 -1 5987 -1 #SUP: 2
27 -1 41 -1 159 -1 #SUP: 2
27 -1 144 -1 41 -1 #SUP: 2
27 -1 144 -1 159 -1 #SUP: 2
32 -1 10 -1 2 -1 #SUP: 2
32 -1 22 -1 10 -1 #SUP: 2
32 -1 22 -1 65 -1 #SUP: 3
32 -1 22 -1 77 -1 #SUP: 2
32 -1 64 -1 10 -1 #SUP: 2
32 -1 77 -1 65 -1 #SUP: 2
32 -1 77 -1 123 -1 #SUP: 2
41 -1 2 -1 224 -1 #SUP: 2
41 -1 29 -1 3216 -1 #SUP: 2
41 -1 32 -1 77 -1 #SUP: 2
41 -1 77 -1 2 -1 #SUP: 2
41 -1 77 -1 224 -1 #SUP: 2
41 -1 246 -1 2 -1 #SUP: 2
41 -1 246 -1 77 -1 #SUP: 2
41 -1 246 -1 224 -1 #SUP: 2
41 -1 260 -1 2 -1 #SUP: 2
41 -1 260 -1 77 -1 #SUP: 2
41 -1 260 -1 224 -1 #SUP: 2
41 -1 260 -1 246 -1 #SUP: 2
50 -1 491 -1 394 -1 #SUP: 2
50 -1 886 -1 394 -1 #SUP: 2
50 -1 886 -1 491 -1 #SUP: 2
50 -1 1118 -1 11857 -1 #SUP: 2
64 -1 10 -1 22 -1 #SUP: 2
64 -1 22 -1 2 -1 #SUP: 2
64 -1 22 -1 32 -1 #SUP: 3
64 -1 27 -1 22 -1 #SUP: 2
64 -1 32 -1 22 -1 #SUP: 2
64 -1 64 -1 22 -1 #SUP: 2
64 -1 64 -1 65 -1 #SUP: 2
64 -1 285 -1 64 -1 #SUP: 2
65 -1 32 -1 64 -1 #SUP: 2
65 -1 32 -1 1432 -1 #SUP: 2
65 -1 65 -1 32 -1 #SUP: 2
65 -1 65 -1 1219 -1 #SUP: 2
65 -1 77 -1 123 -1 #SUP: 2
65 -1 123 -1 64 -1 #SUP: 2
65 -1 123 -1 77 -1 #SUP: 2
65 -1 162 -1 123 -1 #SUP: 2
65 -1 1219 -1 32 -1 #SUP: 2
65 -1 5237 -1 50 -1 #SUP: 2
68 -1 76 -1 123 -1 #SUP: 2
68 -1 76 -1 1664 -1 #SUP: 2
68 -1 123 -1 1664 -1 #SUP: 2
76 -1 123 -1 65 -1 #SUP: 2
76 -1 123 -1 1664 -1 #SUP: 2
77 -1 2 -1 22 -1 #SUP: 3
77 -1 2 -1 224 -1 #SUP: 2
77 -1 77 -1 2 -1 #SUP: 3
77 -1 123 -1 65 -1 #SUP: 2
77 -1 123 -1 123 -1 #SUP: 2
77 -1 123 -1 441 -1 #SUP: 2
77 -1 260 -1 246 -1 #SUP: 2
77 -1 599 -1 123 -1 #SUP: 2
78 -1 65 -1 123 -1 #SUP: 2
117 -1 22 -1 77 -1 #SUP: 2
123 -1 10 -1 32 -1 #SUP: 2
123 -1 10 -1 123 -1 #SUP: 2
123 -1 22 -1 10 -1 #SUP: 2
123 -1 22 -1 32 -1 #SUP: 3
123 -1 22 -1 77 -1 #SUP: 2
123 -1 22 -1 123 -1 #SUP: 2
123 -1 22 -1 1610 -1 #SUP: 2
123 -1 27 -1 64 -1 #SUP: 2
123 -1 50 -1 11857 -1 #SUP: 2
123 -1 64 -1 22 -1 #SUP: 3
123 -1 64 -1 27 -1 #SUP: 2
123 -1 64 -1 32 -1 #SUP: 3
123 -1 64 -1 64 -1 #SUP: 4
123 -1 64 -1 65 -1 #SUP: 3
123 -1 64 -1 77 -1 #SUP: 3
123 -1 64 -1 123 -1 #SUP: 2
123 -1 64 -1 236 -1 #SUP: 2
123 -1 64 -1 285 -1 #SUP: 2
123 -1 65 -1 32 -1 #SUP: 2
123 -1 65 -1 123 -1 #SUP: 3
123 -1 77 -1 123 -1 #SUP: 3
123 -1 77 -1 599 -1 #SUP: 3
123 -1 123 -1 64 -1 #SUP: 4
123 -1 123 -1 165 -1 #SUP: 2
123 -1 123 -1 286 -1 #SUP: 2
123 -1 123 -1 638 -1 #SUP: 3
123 -1 171 -1 22 -1 #SUP: 2
123 -1 174 -1 32 -1 #SUP: 2
123 -1 206 -1 64 -1 #SUP: 2
123 -1 206 -1 77 -1 #SUP: 2
123 -1 206 -1 520 -1 #SUP: 2
123 -1 285 -1 64 -1 #SUP: 2
123 -1 286 -1 64 -1 #SUP: 3
123 -1 286 -1 123 -1 #SUP: 3
123 -1 286 -1 165 -1 #SUP: 2
123 -1 392 -1 65 -1 #SUP: 2
123 -1 441 -1 10 -1 #SUP: 2
123 -1 441 -1 77 -1 #SUP: 2
123 -1 567 -1 77 -1 #SUP: 2
123 -1 599 -1 123 -1 #SUP: 2
123 -1 638 -1 50 -1 #SUP: 2
123 -1 648 -1 22 -1 #SUP: 2
123 -1 648 -1 64 -1 #SUP: 2
123 -1 648 -1 123 -1 #SUP: 2
123 -1 648 -1 286 -1 #SUP: 2
144 -1 29 -1 3216 -1 #SUP: 2
144 -1 41 -1 29 -1 #SUP: 2
144 -1 41 -1 159 -1 #SUP: 2
144 -1 41 -1 3216 -1 #SUP: 2
162 -1 77 -1 123 -1 #SUP: 2
162 -1 77 -1 599 -1 #SUP: 2
162 -1 123 -1 22 -1 #SUP: 3
162 -1 123 -1 77 -1 #SUP: 2
162 -1 123 -1 123 -1 #SUP: 2
162 -1 123 -1 599 -1 #SUP: 2
162 -1 599 -1 123 -1 #SUP: 2
165 -1 123 -1 65 -1 #SUP: 2
246 -1 2 -1 224 -1 #SUP: 2
246 -1 77 -1 2 -1 #SUP: 2
246 -1 77 -1 224 -1 #SUP: 2
254 -1 123 -1 638 -1 #SUP: 2
260 -1 2 -1 224 -1 #SUP: 2
260 -1 77 -1 2 -1 #SUP: 2
260 -1 77 -1 224 -1 #SUP: 2
260 -1 246 -1 2 -1 #SUP: 2
260 -1 246 -1 77 -1 #SUP: 2
260 -1 246 -1 224 -1 #SUP: 2
285 -1 22 -1 10 -1 #SUP: 2
286 -1 123 -1 64 -1 #SUP: 2
286 -1 123 -1 67 -1 #SUP: 2
286 -1 123 -1 165 -1 #SUP: 2
286 -1 165 -1 67 -1 #SUP: 2
567 -1 22 -1 82 -1 #SUP: 2
648 -1 123 -1 64 -1 #SUP: 2
648 -1 123 -1 67 -1 #SUP: 2
648 -1 286 -1 64 -1 #SUP: 2
648 -1 286 -1 67 -1 #SUP: 2
648 -1 286 -1 123 -1 #SUP: 2
886 -1 491 -1 394 -1 #SUP: 2
3180 -1 123 -1 206 -1 #SUP: 2
12366 -1 2 -1 44564 -1 #SUP: 2
10 -1 12366 -1 2 -1 44564 -1 #SUP: 2
22 -1 32 -1 64 -1 10 -1 #SUP: 2
27 -1 144 -1 41 -1 159 -1 #SUP: 2
32 -1 22 -1 77 -1 65 -1 #SUP: 2
41 -1 77 -1 2 -1 224 -1 #SUP: 2
41 -1 246 -1 2 -1 224 -1 #SUP: 2
41 -1 246 -1 77 -1 2 -1 #SUP: 2
41 -1 246 -1 77 -1 224 -1 #SUP: 2
41 -1 260 -1 2 -1 224 -1 #SUP: 2
41 -1 260 -1 77 -1 2 -1 #SUP: 2
41 -1 260 -1 77 -1 224 -1 #SUP: 2
41 -1 260 -1 246 -1 2 -1 #SUP: 2
41 -1 260 -1 246 -1 77 -1 #SUP: 2
41 -1 260 -1 246 -1 224 -1 #SUP: 2
50 -1 886 -1 491 -1 394 -1 #SUP: 2
65 -1 65 -1 1219 -1 32 -1 #SUP: 2
68 -1 76 -1 123 -1 1664 -1 #SUP: 2
123 -1 64 -1 22 -1 32 -1 #SUP: 2
123 -1 64 -1 64 -1 65 -1 #SUP: 2
123 -1 64 -1 285 -1 64 -1 #SUP: 2
123 -1 77 -1 599 -1 123 -1 #SUP: 2
123 -1 286 -1 123 -1 64 -1 #SUP: 2
123 -1 286 -1 123 -1 165 -1 #SUP: 2
123 -1 648 -1 123 -1 64 -1 #SUP: 2
123 -1 648 -1 286 -1 64 -1 #SUP: 2
123 -1 648 -1 286 -1 123 -1 #SUP: 2
144 -1 41 -1 29 -1 3216 -1 #SUP: 2
162 -1 77 -1 599 -1 123 -1 #SUP: 2
162 -1 123 -1 77 -1 123 -1 #SUP: 2
162 -1 123 -1 77 -1 599 -1 #SUP: 2
162 -1 123 -1 599 -1 123 -1 #SUP: 2
246 -1 77 -1 2 -1 224 -1 #SUP: 2
260 -1 77 -1 2 -1 224 -1 #SUP: 2
260 -1 246 -1 2 -1 224 -1 #SUP: 2
260 -1 246 -1 77 -1 2 -1 #SUP: 2
260 -1 246 -1 77 -1 224 -1 #SUP: 2
648 -1 286 -1 123 -1 64 -1 #SUP: 2
648 -1 286 -1 123 -1 67 -1 #SUP: 2
41 -1 246 -1 77 -1 2 -1 224 -1 #SUP: 2
41 -1 260 -1 77 -1 2 -1 224 -1 #SUP: 2
41 -1 260 -1 246 -1 2 -1 224 -1 #SUP: 2
41 -1 260 -1 246 -1 77 -1 2 -1 #SUP: 2
41 -1 260 -1 246 -1 77 -1 224 -1 #SUP: 2
123 -1 648 -1 286 -1 123 -1 64 -1 #SUP: 2
162 -1 123 -1 77 -1 599 -1 123 -1 #SUP: 2
260 -1 246 -1 77 -1 2 -1 224 -1 #SUP: 2
41 -1 260 -1 246 -1 77 -1 2 -1 224 -1 #SUP: 2
