2 -1 #SUP: 16
7 -1 #SUP: 3
8 -1 #SUP: 7
10 -1 #SUP: 11
16 -1 #SUP: 5
22 -1 #SUP: 33
26 -1 #SUP: 6
27 -1 #SUP: 3
28 -1 #SUP: 6
30 -1 #SUP: 8
31 -1 #SUP: 6
32 -1 #SUP: 16
33 -1 #SUP: 3
41 -1 #SUP: 2
44 -1 #SUP: 2
46 -1 #SUP: 3
50 -1 #SUP: 13
54 -1 #SUP: 2
64 -1 #SUP: 20
65 -1 #SUP: 28
66 -1 #SUP: 7
67 -1 #SUP: 5
70 -1 #SUP: 3
77 -1 #SUP: 49
78 -1 #SUP: 5
81 -1 #SUP: 2
120 -1 #SUP: 5
123 -1 #SUP: 41
134 -1 #SUP: 2
144 -1 #SUP: 6
151 -1 #SUP: 2
154 -1 #SUP: 17
157 -1 #SUP: 2
158 -1 #SUP: 2
164 -1 #SUP: 8
165 -1 #SUP: 5
167 -1 #SUP: 2
170 -1 #SUP: 14
171 -1 #SUP: 3
174 -1 #SUP: 6
183 -1 #SUP: 9
190 -1 #SUP: 3
193 -1 #SUP: 12
201 -1 #SUP: 2
206 -1 #SUP: 8
210 -1 #SUP: 2
212 -1 #SUP: 7
213 -1 #SUP: 5
220 -1 #SUP: 3
222 -1 #SUP: 7
223 -1 #SUP: 2
225 -1 #SUP: 5
228 -1 #SUP: 4
236 -1 #SUP: 3
237 -1 #SUP: 2
249 -1 #SUP: 3
250 -1 #SUP: 3
254 -1 #SUP: 4
256 -1 #SUP: 4
260 -1 #SUP: 2
262 -1 #SUP: 6
280 -1 #SUP: 6
284 -1 #SUP: 2
286 -1 #SUP: 3
291 -1 #SUP: 3
309 -1 #SUP: 3
326 -1 #SUP: 4
334 -1 #SUP: 2
349 -1 #SUP: 3
356 -1 #SUP: 3
364 -1 #SUP: 3
375 -1 #SUP: 2
431 -1 #SUP: 4
441 -1 #SUP: 5
443 -1 #SUP: 4
444 -1 #SUP: 2
520 -1 #SUP: 6
535 -1 #SUP: 2
571 -1 #SUP: 2
599 -1 #SUP: 4
613 -1 #SUP: 4
624 -1 #SUP: 4
638 -1 #SUP: 3
651 -1 #SUP: 3
668 -1 #SUP: 2
693 -1 #SUP: 2
699 -1 #SUP: 3
704 -1 #SUP: 4
710 -1 #SUP: 2
764 -1 #SUP: 2
765 -1 #SUP: 3
827 -1 #SUP: 2
850 -1 #SUP: 2
960 -1 #SUP: 2
1032 -1 #SUP: 2
1061 -1 #SUP: 2
1146 -1 #SUP: 2
1217 -1 #SUP: 2
1220 -1 #SUP: 2
1224 -1 #SUP: 2
1225 -1 #SUP: 2
1263 -1 #SUP: 3
1264 -1 #SUP: 2
1310 -1 #SUP: 2
1425 -1 #SUP: 2
1461 -1 #SUP: 2
1984 -1 #SUP: 3
2006 -1 #SUP: 2
2109 -1 #SUP: 2
3000 -1 #SUP: 2
3276 -1 #SUP: 2
3649 -1 #SUP: 3
5354 -1 #SUP: 2
5987 -1 #SUP: 2
5997 -1 #SUP: 6
6024 -1 #SUP: 4
7028 -1 #SUP: 2
8192 -1 #SUP: 2
11318 -1 #SUP: 2
16702 -1 #SUP: 2
19085 -1 #SUP: 3
2 -1 10 -1 #SUP: 3
2 -1 22 -1 #SUP: 2
2 -1 32 -1 #SUP: 2
2 -1 64 -1 #SUP: 5
2 -1 66 -1 #SUP: 2
2 -1 77 -1 #SUP: 3
2 -1 120 -1 #SUP: 2
2 -1 123 -1 #SUP: 6
2 -1 157 -1 #SUP: 2
2 -1 170 -1 #SUP: 2
2 -1 183 -1 #SUP: 3
2 -1 193 -1 #SUP: 2
2 -1 206 -1 #SUP: 2
2 -1 213 -1 #SUP: 2
2 -1 704 -1 #SUP: 3
7 -1 1061 -1 #SUP: 2
8 -1 8 -1 #SUP: 3
8 -1 26 -1 #SUP: 4
8 -1 28 -1 #SUP: 4
8 -1 5997 -1 #SUP: 4
8 -1 6024 -1 #SUP: 3
8 -1 16702 -1 #SUP: 2
10 -1 2 -1 #SUP: 2
10 -1 22 -1 #SUP: 2
10 -1 65 -1 #SUP: 3
10 -1 77 -1 #SUP: 4
10 -1 123 -1 #SUP: 2
10 -1 170 -1 #SUP: 2
10 -1 193 -1 #SUP: 2
16 -1 65 -1 #SUP: 2
16 -1 77 -1 #SUP: 3
22 -1 22 -1 #SUP: 6
22 -1 31 -1 #SUP: 2
22 -1 32 -1 #SUP: 7
22 -1 44 -1 #SUP: 2
22 -1 50 -1 #SUP: 4
22 -1 64 -1 #SUP: 4
22 -1 65 -1 #SUP: 7
22 -1 66 -1 #SUP: 2
22 -1 77 -1 #SUP: 7
22 -1 78 -1 #SUP: 2
22 -1 123 -1 #SUP: 5
22 -1 144 -1 #SUP: 2
22 -1 154 -1 #SUP: 4
22 -1 164 -1 #SUP: 3
22 -1 170 -1 #SUP: 4
22 -1 183 -1 #SUP: 2
22 -1 212 -1 #SUP: 2
22 -1 222 -1 #SUP: 3
22 -1 225 -1 #SUP: 2
22 -1 228 -1 #SUP: 3
22 -1 256 -1 #SUP: 2
22 -1 280 -1 #SUP: 3
22 -1 444 -1 #SUP: 2
22 -1 624 -1 #SUP: 3
22 -1 668 -1 #SUP: 2
22 -1 1425 -1 #SUP: 2
22 -1 19085 -1 #SUP: 2
26 -1 8 -1 #SUP: 3
26 -1 26 -1 #SUP: 3
26 -1 28 -1 #SUP: 3
26 -1 5997 -1 #SUP: 4
26 -1 6024 -1 #SUP: 3
26 -1 16702 -1 #SUP: 2
27 -1 77 -1 #SUP: 2
27 -1 704 -1 #SUP: 2
28 -1 8 -1 #SUP: 3
28 -1 26 -1 #SUP: 4
28 -1 28 -1 #SUP: 3
28 -1 5997 -1 #SUP: 4
28 -1 6024 -1 #SUP: 3
28 -1 16702 -1 #SUP: 2
30 -1 65 -1 #SUP: 2
30 -1 77 -1 #SUP: 5
30 -1 123 -1 #SUP: 3
30 -1 174 -1 #SUP: 2
30 -1 1984 -1 #SUP: 3
30 -1 3649 -1 #SUP: 3
30 -1 8192 -1 #SUP: 2
31 -1 22 -1 #SUP: 2
31 -1 222 -1 #SUP: 3
32 -1 2 -1 #SUP: 3
32 -1 10 -1 #SUP: 2
32 -1 22 -1 #SUP: 3
32 -1 32 -1 #SUP: 4
32 -1 50 -1 #SUP: 3
32 -1 65 -1 #SUP: 3
32 -1 77 -1 #SUP: 2
32 -1 183 -1 #SUP: 2
32 -1 668 -1 #SUP: 2
32 -1 704 -1 #SUP: 3
32 -1 1263 -1 #SUP: 2
32 -1 19085 -1 #SUP: 2
41 -1 2 -1 #SUP: 2
50 -1 2 -1 #SUP: 2
50 -1 32 -1 #SUP: 2
50 -1 65 -1 #SUP: 4
50 -1 77 -1 #SUP: 3
50 -1 123 -1 #SUP: 5
50 -1 213 -1 #SUP: 2
50 -1 668 -1 #SUP: 2
64 -1 10 -1 #SUP: 4
64 -1 22 -1 #SUP: 7
64 -1 50 -1 #SUP: 2
64 -1 64 -1 #SUP: 2
64 -1 65 -1 #SUP: 5
64 -1 67 -1 #SUP: 3
64 -1 77 -1 #SUP: 4
64 -1 78 -1 #SUP: 2
64 -1 158 -1 #SUP: 2
64 -1 164 -1 #SUP: 2
64 -1 193 -1 #SUP: 2
64 -1 5354 -1 #SUP: 2
64 -1 19085 -1 #SUP: 2
65 -1 2 -1 #SUP: 3
65 -1 22 -1 #SUP: 3
65 -1 31 -1 #SUP: 2
65 -1 32 -1 #SUP: 4
65 -1 46 -1 #SUP: 3
65 -1 64 -1 #SUP: 4
65 -1 77 -1 #SUP: 9
65 -1 120 -1 #SUP: 2
65 -1 123 -1 #SUP: 6
65 -1 154 -1 #SUP: 2
65 -1 164 -1 #SUP: 2
65 -1 170 -1 #SUP: 2
65 -1 193 -1 #SUP: 2
65 -1 225 -1 #SUP: 2
65 -1 254 -1 #SUP: 2
65 -1 1264 -1 #SUP: 2
66 -1 32 -1 #SUP: 3
66 -1 50 -1 #SUP: 2
66 -1 154 -1 #SUP: 3
66 -1 704 -1 #SUP: 2
67 -1 64 -1 #SUP: 2
77 -1 2 -1 #SUP: 10
77 -1 10 -1 #SUP: 3
77 -1 16 -1 #SUP: 2
77 -1 22 -1 #SUP: 11
77 -1 31 -1 #SUP: 5
77 -1 32 -1 #SUP: 2
77 -1 50 -1 #SUP: 5
77 -1 64 -1 #SUP: 8
77 -1 65 -1 #SUP: 6
77 -1 66 -1 #SUP: 3
77 -1 77 -1 #SUP: 7
77 -1 78 -1 #SUP: 3
77 -1 81 -1 #SUP: 2
77 -1 123 -1 #SUP: 12
77 -1 154 -1 #SUP: 9
77 -1 157 -1 #SUP: 2
77 -1 164 -1 #SUP: 4
77 -1 165 -1 #SUP: 2
77 -1 170 -1 #SUP: 6
77 -1 174 -1 #SUP: 2
77 -1 183 -1 #SUP: 4
77 -1 193 -1 #SUP: 6
77 -1 206 -1 #SUP: 2
77 -1 212 -1 #SUP: 3
77 -1 213 -1 #SUP: 3
77 -1 220 -1 #SUP: 2
77 -1 222 -1 #SUP: 3
77 -1 225 -1 #SUP: 2
77 -1 228 -1 #SUP: 2
77 -1 254 -1 #SUP: 2
77 -1 256 -1 #SUP: 2
77 -1 262 -1 #SUP: 2
77 -1 284 -1 #SUP: 2
77 -1 291 -1 #SUP: 2
77 -1 356 -1 #SUP: 2
77 -1 364 -1 #SUP: 2
77 -1 431 -1 #SUP: 2
77 -1 443 -1 #SUP: 3
77 -1 520 -1 #SUP: 3
77 -1 599 -1 #SUP: 2
77 -1 699 -1 #SUP: 2
77 -1 765 -1 #SUP: 3
77 -1 1425 -1 #SUP: 2
77 -1 1461 -1 #SUP: 2
78 -1 22 -1 #SUP: 2
78 -1 50 -1 #SUP: 2
78 -1 65 -1 #SUP: 3
78 -1 77 -1 #SUP: 2
78 -1 123 -1 #SUP: 4
120 -1 22 -1 #SUP: 3
120 -1 64 -1 #SUP: 2
120 -1 77 -1 #SUP: 2
123 -1 2 -1 #SUP: 5
123 -1 10 -1 #SUP: 5
123 -1 22 -1 #SUP: 13
123 -1 31 -1 #SUP: 2
123 -1 32 -1 #SUP: 4
123 -1 44 -1 #SUP: 2
123 -1 50 -1 #SUP: 3
123 -1 54 -1 #SUP: 2
123 -1 64 -1 #SUP: 6
123 -1 65 -1 #SUP: 7
123 -1 77 -1 #SUP: 13
123 -1 120 -1 #SUP: 4
123 -1 123 -1 #SUP: 9
123 -1 144 -1 #SUP: 4
123 -1 154 -1 #SUP: 3
123 -1 164 -1 #SUP: 3
123 -1 165 -1 #SUP: 4
123 -1 170 -1 #SUP: 3
123 -1 174 -1 #SUP: 6
123 -1 183 -1 #SUP: 2
123 -1 193 -1 #SUP: 3
123 -1 206 -1 #SUP: 4
123 -1 212 -1 #SUP: 3
123 -1 213 -1 #SUP: 2
123 -1 222 -1 #SUP: 2
123 -1 223 -1 #SUP: 2
123 -1 225 -1 #SUP: 2
123 -1 280 -1 #SUP: 4
123 -1 286 -1 #SUP: 3
123 -1 291 -1 #SUP: 2
123 -1 309 -1 #SUP: 2
123 -1 375 -1 #SUP: 2
123 -1 431 -1 #SUP: 2
123 -1 441 -1 #SUP: 4
123 -1 613 -1 #SUP: 2
123 -1 624 -1 #SUP: 3
123 -1 638 -1 #SUP: 3
123 -1 651 -1 #SUP: 2
123 -1 710 -1 #SUP: 2
123 -1 764 -1 #SUP: 2
123 -1 765 -1 #SUP: 2
123 -1 827 -1 #SUP: 2
123 -1 1217 -1 #SUP: 2
123 -1 1225 -1 #SUP: 2
123 -1 1461 -1 #SUP: 2
123 -1 3000 -1 #SUP: 2
144 -1 154 -1 #SUP: 2
144 -1 164 -1 #SUP: 2
154 -1 2 -1 #SUP: 2
154 -1 7 -1 #SUP: 2
154 -1 22 -1 #SUP: 5
154 -1 31 -1 #SUP: 3
154 -1 64 -1 #SUP: 3
154 -1 65 -1 #SUP: 3
154 -1 77 -1 #SUP: 5
154 -1 120 -1 #SUP: 2
154 -1 123 -1 #SUP: 2
154 -1 144 -1 #SUP: 2
154 -1 154 -1 #SUP: 3
154 -1 170 -1 #SUP: 3
154 -1 183 -1 #SUP: 2
154 -1 193 -1 #SUP: 2
154 -1 222 -1 #SUP: 3
154 -1 228 -1 #SUP: 2
154 -1 1264 -1 #SUP: 2
157 -1 22 -1 #SUP: 2
157 -1 183 -1 #SUP: 2
164 -1 2 -1 #SUP: 2
164 -1 22 -1 #SUP: 2
164 -1 50 -1 #SUP: 2
164 -1 65 -1 #SUP: 2
164 -1 77 -1 #SUP: 3
164 -1 123 -1 #SUP: 4
164 -1 154 -1 #SUP: 2
164 -1 212 -1 #SUP: 2
165 -1 22 -1 #SUP: 2
165 -1 64 -1 #SUP: 2
165 -1 65 -1 #SUP: 2
167 -1 77 -1 #SUP: 2
170 -1 22 -1 #SUP: 4
170 -1 31 -1 #SUP: 2
170 -1 32 -1 #SUP: 2
170 -1 65 -1 #SUP: 5
170 -1 77 -1 #SUP: 4
170 -1 144 -1 #SUP: 2
170 -1 154 -1 #SUP: 3
170 -1 613 -1 #SUP: 2
171 -1 31 -1 #SUP: 2
174 -1 2 -1 #SUP: 2
174 -1 65 -1 #SUP: 2
174 -1 77 -1 #SUP: 2
174 -1 120 -1 #SUP: 2
174 -1 1461 -1 #SUP: 2
183 -1 32 -1 #SUP: 2
183 -1 64 -1 #SUP: 2
183 -1 65 -1 #SUP: 4
183 -1 67 -1 #SUP: 2
183 -1 77 -1 #SUP: 4
183 -1 120 -1 #SUP: 2
183 -1 123 -1 #SUP: 2
183 -1 154 -1 #SUP: 2
190 -1 2 -1 #SUP: 2
190 -1 77 -1 #SUP: 3
193 -1 10 -1 #SUP: 3
193 -1 22 -1 #SUP: 3
193 -1 65 -1 #SUP: 3
193 -1 77 -1 #SUP: 5
193 -1 154 -1 #SUP: 2
193 -1 170 -1 #SUP: 6
193 -1 206 -1 #SUP: 3
193 -1 599 -1 #SUP: 2
201 -1 123 -1 #SUP: 2
206 -1 2 -1 #SUP: 2
206 -1 10 -1 #SUP: 3
206 -1 22 -1 #SUP: 3
206 -1 32 -1 #SUP: 2
206 -1 64 -1 #SUP: 2
206 -1 77 -1 #SUP: 4
206 -1 212 -1 #SUP: 2
212 -1 2 -1 #SUP: 2
212 -1 22 -1 #SUP: 2
212 -1 77 -1 #SUP: 2
212 -1 123 -1 #SUP: 2
212 -1 154 -1 #SUP: 2
212 -1 225 -1 #SUP: 2
212 -1 280 -1 #SUP: 2
213 -1 2 -1 #SUP: 3
213 -1 22 -1 #SUP: 2
213 -1 32 -1 #SUP: 2
213 -1 77 -1 #SUP: 3
213 -1 280 -1 #SUP: 2
222 -1 2 -1 #SUP: 2
222 -1 77 -1 #SUP: 2
222 -1 256 -1 #SUP: 2
223 -1 64 -1 #SUP: 2
225 -1 22 -1 #SUP: 2
225 -1 77 -1 #SUP: 2
228 -1 64 -1 #SUP: 2
228 -1 183 -1 #SUP: 2
228 -1 225 -1 #SUP: 2
228 -1 280 -1 #SUP: 2
236 -1 65 -1 #SUP: 2
236 -1 77 -1 #SUP: 3
236 -1 183 -1 #SUP: 2
237 -1 19085 -1 #SUP: 2
249 -1 30 -1 #SUP: 3
249 -1 65 -1 #SUP: 2
249 -1 77 -1 #SUP: 2
250 -1 30 -1 #SUP: 3
254 -1 123 -1 #SUP: 2
256 -1 22 -1 #SUP: 2
256 -1 32 -1 #SUP: 2
260 -1 77 -1 #SUP: 2
260 -1 520 -1 #SUP: 2
262 -1 170 -1 #SUP: 3
262 -1 193 -1 #SUP: 2
280 -1 64 -1 #SUP: 2
280 -1 65 -1 #SUP: 2
280 -1 77 -1 #SUP: 3
280 -1 183 -1 #SUP: 2
280 -1 254 -1 #SUP: 2
286 -1 22 -1 #SUP: 2
291 -1 22 -1 #SUP: 2
326 -1 65 -1 #SUP: 2
356 -1 22 -1 #SUP: 2
356 -1 77 -1 #SUP: 2
356 -1 170 -1 #SUP: 2
356 -1 193 -1 #SUP: 2
364 -1 212 -1 #SUP: 2
375 -1 154 -1 #SUP: 2
431 -1 77 -1 #SUP: 3
441 -1 77 -1 #SUP: 3
441 -1 280 -1 #SUP: 2
443 -1 183 -1 #SUP: 2
444 -1 77 -1 #SUP: 2
520 -1 22 -1 #SUP: 2
520 -1 77 -1 #SUP: 3
520 -1 154 -1 #SUP: 2
571 -1 32 -1 #SUP: 2
571 -1 704 -1 #SUP: 2
599 -1 212 -1 #SUP: 2
613 -1 2 -1 #SUP: 3
613 -1 32 -1 #SUP: 2
613 -1 77 -1 #SUP: 3
613 -1 183 -1 #SUP: 2
613 -1 704 -1 #SUP: 2
624 -1 2 -1 #SUP: 2
624 -1 123 -1 #SUP: 2
624 -1 206 -1 #SUP: 2
638 -1 65 -1 #SUP: 2
638 -1 77 -1 #SUP: 2
638 -1 123 -1 #SUP: 2
638 -1 254 -1 #SUP: 2
651 -1 10 -1 #SUP: 2
651 -1 22 -1 #SUP: 2
651 -1 64 -1 #SUP: 3
693 -1 2 -1 #SUP: 2
693 -1 10 -1 #SUP: 2
693 -1 123 -1 #SUP: 2
699 -1 77 -1 #SUP: 2
699 -1 123 -1 #SUP: 2
710 -1 22 -1 #SUP: 2
710 -1 64 -1 #SUP: 2
764 -1 64 -1 #SUP: 2
827 -1 32 -1 #SUP: 2
850 -1 77 -1 #SUP: 2
1217 -1 77 -1 #SUP: 2
1217 -1 291 -1 #SUP: 2
1220 -1 77 -1 #SUP: 2
1225 -1 77 -1 #SUP: 2
1263 -1 2 -1 #SUP: 2
1263 -1 704 -1 #SUP: 2
1310 -1 65 -1 #SUP: 2
1425 -1 222 -1 #SUP: 2
1425 -1 256 -1 #SUP: 2
3649 -1 1984 -1 #SUP: 2
5987 -1 32 -1 #SUP: 2
5987 -1 50 -1 #SUP: 2
5997 -1 8 -1 #SUP: 3
5997 -1 26 -1 #SUP: 3
5997 -1 28 -1 #SUP: 3
5997 -1 5997 -1 #SUP: 3
5997 -1 6024 -1 #SUP: 3
5997 -1 16702 -1 #SUP: 2
6024 -1 8 -1 #SUP: 3
6024 -1 26 -1 #SUP: 3
6024 -1 28 -1 #SUP: 3
6024 -1 5997 -1 #SUP: 3
6024 -1 6024 -1 #SUP: 2
8192 -1 1984 -1 #SUP: 2
8192 -1 3649 -1 #SUP: 2
11318 -1 32 -1 #SUP: 2
11318 -1 5987 -1 #SUP: 2
2 -1 32 -1 704 -1 #SUP: 2
2 -1 77 -1 77 -1 #SUP: 2
2 -1 120 -1 64 -1 #SUP: 2
2 -1 123 -1 10 -1 #SUP: 2
2 -1 123 -1 22 -1 #SUP: 2
2 -1 123 -1 64 -1 #SUP: 3
2 -1 123 -1 170 -1 #SUP: 2
2 -1 123 -1 193 -1 #SUP: 2
2 -1 123 -1 206 -1 #SUP: 2
2 -1 193 -1 170 -1 #SUP: 2
8 -1 8 -1 26 -1 #SUP: 3
8 -1 8 -1 28 -1 #SUP: 3
8 -1 26 -1 8 -1 #SUP: 3
8 -1 26 -1 26 -1 #SUP: 3
8 -1 26 -1 28 -1 #SUP: 3
8 -1 26 -1 5997 -1 #SUP: 4
8 -1 26 -1 6024 -1 #SUP: 3
8 -1 26 -1 16702 -1 #SUP: 2
8 -1 28 -1 8 -1 #SUP: 3
8 -1 28 -1 26 -1 #SUP: 4
8 -1 28 -1 28 -1 #SUP: 3
8 -1 28 -1 5997 -1 #SUP: 4
8 -1 28 -1 6024 -1 #SUP: 3
8 -1 28 -1 16702 -1 #SUP: 2
8 -1 5997 -1 8 -1 #SUP: 3
8 -1 5997 -1 26 -1 #SUP: 3
8 -1 5997 -1 28 -1 #SUP: 3
8 -1 5997 -1 6024 -1 #SUP: 3
8 -1 5997 -1 16702 -1 #SUP: 2
8 -1 6024 -1 8 -1 #SUP: 3
8 -1 6024 -1 26 -1 #SUP: 3
8 -1 6024 -1 28 -1 #SUP: 3
10 -1 77 -1 2 -1 #SUP: 2
10 -1 77 -1 123 -1 #SUP: 2
22 -1 22 -1 32 -1 #SUP: 2
22 -1 32 -1 50 -1 #SUP: 3
22 -1 32 -1 65 -1 #SUP: 2
22 -1 32 -1 77 -1 #SUP: 2
22 -1 32 -1 668 -1 #SUP: 2
22 -1 32 -1 19085 -1 #SUP: 2
22 -1 50 -1 668 -1 #SUP: 2
22 -1 65 -1 123 -1 #SUP: 2
22 -1 77 -1 123 -1 #SUP: 3
22 -1 77 -1 154 -1 #SUP: 2
22 -1 78 -1 123 -1 #SUP: 2
22 -1 170 -1 65 -1 #SUP: 2
22 -1 222 -1 256 -1 #SUP: 2
22 -1 1425 -1 222 -1 #SUP: 2
22 -1 1425 -1 256 -1 #SUP: 2
26 -1 8 -1 26 -1 #SUP: 3
26 -1 8 -1 28 -1 #SUP: 3
26 -1 8 -1 5997 -1 #SUP: 3
26 -1 8 -1 16702 -1 #SUP: 2
26 -1 26 -1 5997 -1 #SUP: 3
26 -1 26 -1 16702 -1 #SUP: 2
26 -1 28 -1 26 -1 #SUP: 3
26 -1 28 -1 5997 -1 #SUP: 3
26 -1 28 -1 16702 -1 #SUP: 2
26 -1 5997 -1 8 -1 #SUP: 3
26 -1 5997 -1 26 -1 #SUP: 3
26 -1 5997 -1 28 -1 #SUP: 3
26 -1 5997 -1 5997 -1 #SUP: 3
26 -1 5997 -1 6024 -1 #SUP: 3
26 -1 5997 -1 16702 -1 #SUP: 2
26 -1 6024 -1 8 -1 #SUP: 3
26 -1 6024 -1 26 -1 #SUP: 3
26 -1 6024 -1 28 -1 #SUP: 3
26 -1 6024 -1 5997 -1 #SUP: 3
28 -1 8 -1 26 -1 #SUP: 3
28 -1 8 -1 28 -1 #SUP: 3
28 -1 8 -1 5997 -1 #SUP: 3
28 -1 26 -1 8 -1 #SUP: 3
28 -1 26 -1 26 -1 #SUP: 3
28 -1 26 -1 28 -1 #SUP: 3
28 -1 26 -1 5997 -1 #SUP: 4
28 -1 26 -1 6024 -1 #SUP: 3
28 -1 26 -1 16702 -1 #SUP: 2
28 -1 28 -1 26 -1 #SUP: 3
28 -1 28 -1 5997 -1 #SUP: 3
28 -1 5997 -1 8 -1 #SUP: 3
28 -1 5997 -1 26 -1 #SUP: 3
28 -1 5997 -1 28 -1 #SUP: 3
28 -1 5997 -1 5997 -1 #SUP: 3
28 -1 5997 -1 6024 -1 #SUP: 3
28 -1 5997 -1 16702 -1 #SUP: 2
28 -1 6024 -1 8 -1 #SUP: 3
28 -1 6024 -1 26 -1 #SUP: 3
28 -1 6024 -1 28 -1 #SUP: 3
28 -1 6024 -1 5997 -1 #SUP: 2
30 -1 77 -1 123 -1 #SUP: 2
30 -1 123 -1 77 -1 #SUP: 2
30 -1 123 -1 174 -1 #SUP: 2
30 -1 3649 -1 1984 -1 #SUP: 2
30 -1 8192 -1 1984 -1 #SUP: 2
30 -1 8192 -1 3649 -1 #SUP: 2
31 -1 22 -1 22 -1 #SUP: 2
32 -1 2 -1 704 -1 #SUP: 2
32 -1 22 -1 32 -1 #SUP: 2
32 -1 50 -1 668 -1 #SUP: 2
32 -1 1263 -1 2 -1 #SUP: 2
32 -1 1263 -1 704 -1 #SUP: 2
50 -1 2 -1 123 -1 #SUP: 2
50 -1 77 -1 123 -1 #SUP: 2
64 -1 22 -1 65 -1 #SUP: 2
64 -1 22 -1 77 -1 #SUP: 3
64 -1 22 -1 78 -1 #SUP: 2
65 -1 2 -1 120 -1 #SUP: 2
65 -1 77 -1 31 -1 #SUP: 2
65 -1 77 -1 123 -1 #SUP: 4
65 -1 77 -1 154 -1 #SUP: 2
65 -1 77 -1 254 -1 #SUP: 2
65 -1 164 -1 77 -1 #SUP: 2
66 -1 32 -1 704 -1 #SUP: 2
77 -1 2 -1 64 -1 #SUP: 4
77 -1 2 -1 123 -1 #SUP: 5
77 -1 2 -1 183 -1 #SUP: 3
77 -1 2 -1 193 -1 #SUP: 2
77 -1 22 -1 31 -1 #SUP: 2
77 -1 22 -1 154 -1 #SUP: 3
77 -1 22 -1 222 -1 #SUP: 2
77 -1 22 -1 228 -1 #SUP: 2
77 -1 22 -1 256 -1 #SUP: 2
77 -1 22 -1 1425 -1 #SUP: 2
77 -1 31 -1 22 -1 #SUP: 2
77 -1 31 -1 222 -1 #SUP: 2
77 -1 64 -1 22 -1 #SUP: 2
77 -1 64 -1 50 -1 #SUP: 2
77 -1 66 -1 154 -1 #SUP: 3
77 -1 77 -1 2 -1 #SUP: 2
77 -1 77 -1 65 -1 #SUP: 3
77 -1 77 -1 77 -1 #SUP: 3
77 -1 77 -1 154 -1 #SUP: 3
77 -1 77 -1 164 -1 #SUP: 2
77 -1 77 -1 699 -1 #SUP: 2
77 -1 78 -1 123 -1 #SUP: 2
77 -1 123 -1 22 -1 #SUP: 5
77 -1 123 -1 50 -1 #SUP: 3
77 -1 123 -1 64 -1 #SUP: 4
77 -1 123 -1 123 -1 #SUP: 2
77 -1 123 -1 165 -1 #SUP: 2
77 -1 123 -1 170 -1 #SUP: 2
77 -1 123 -1 174 -1 #SUP: 2
77 -1 123 -1 193 -1 #SUP: 2
77 -1 123 -1 291 -1 #SUP: 2
77 -1 123 -1 765 -1 #SUP: 2
77 -1 154 -1 64 -1 #SUP: 2
77 -1 154 -1 170 -1 #SUP: 2
77 -1 154 -1 228 -1 #SUP: 2
77 -1 164 -1 77 -1 #SUP: 2
77 -1 170 -1 22 -1 #SUP: 3
77 -1 193 -1 10 -1 #SUP: 2
77 -1 193 -1 170 -1 #SUP: 2
77 -1 212 -1 22 -1 #SUP: 2
77 -1 222 -1 256 -1 #SUP: 2
77 -1 254 -1 123 -1 #SUP: 2
77 -1 356 -1 193 -1 #SUP: 2
77 -1 364 -1 212 -1 #SUP: 2
77 -1 431 -1 77 -1 #SUP: 2
77 -1 443 -1 183 -1 #SUP: 2
77 -1 1425 -1 222 -1 #SUP: 2
77 -1 1425 -1 256 -1 #SUP: 2
78 -1 123 -1 50 -1 #SUP: 2
78 -1 123 -1 65 -1 #SUP: 2
123 -1 2 -1 123 -1 #SUP: 2
123 -1 10 -1 77 -1 #SUP: 2
123 -1 22 -1 32 -1 #SUP: 2
123 -1 22 -1 44 -1 #SUP: 2
123 -1 22 -1 77 -1 #SUP: 3
123 -1 22 -1 123 -1 #SUP: 2
123 -1 22 -1 164 -1 #SUP: 2
123 -1 22 -1 624 -1 #SUP: 3
123 -1 64 -1 22 -1 #SUP: 4
123 -1 64 -1 77 -1 #SUP: 2
123 -1 65 -1 77 -1 #SUP: 2
123 -1 77 -1 2 -1 #SUP: 3
123 -1 77 -1 123 -1 #SUP: 5
123 -1 77 -1 174 -1 #SUP: 2
123 -1 120 -1 22 -1 #SUP: 2
123 -1 120 -1 77 -1 #SUP: 2
123 -1 123 -1 64 -1 #SUP: 2
123 -1 123 -1 77 -1 #SUP: 2
123 -1 123 -1 144 -1 #SUP: 2
123 -1 123 -1 174 -1 #SUP: 2
123 -1 165 -1 22 -1 #SUP: 2
123 -1 170 -1 65 -1 #SUP: 2
123 -1 174 -1 2 -1 #SUP: 2
123 -1 174 -1 77 -1 #SUP: 2
123 -1 174 -1 120 -1 #SUP: 2
123 -1 174 -1 1461 -1 #SUP: 2
123 -1 193 -1 65 -1 #SUP: 2
123 -1 193 -1 170 -1 #SUP: 2
123 -1 206 -1 10 -1 #SUP: 2
123 -1 206 -1 22 -1 #SUP: 3
123 -1 206 -1 77 -1 #SUP: 3
123 -1 212 -1 77 -1 #SUP: 2
123 -1 223 -1 64 -1 #SUP: 2
123 -1 280 -1 77 -1 #SUP: 2
123 -1 286 -1 22 -1 #SUP: 2
123 -1 375 -1 154 -1 #SUP: 2
123 -1 441 -1 77 -1 #SUP: 2
123 -1 441 -1 280 -1 #SUP: 2
123 -1 613 -1 77 -1 #SUP: 2
123 -1 638 -1 65 -1 #SUP: 2
123 -1 638 -1 77 -1 #SUP: 2
123 -1 651 -1 22 -1 #SUP: 2
123 -1 651 -1 64 -1 #SUP: 2
123 -1 1217 -1 77 -1 #SUP: 2
123 -1 1217 -1 291 -1 #SUP: 2
154 -1 31 -1 222 -1 #SUP: 2
154 -1 65 -1 77 -1 #SUP: 2
154 -1 65 -1 1264 -1 #SUP: 2
154 -1 77 -1 2 -1 #SUP: 2
154 -1 77 -1 22 -1 #SUP: 2
154 -1 170 -1 65 -1 #SUP: 2
154 -1 170 -1 154 -1 #SUP: 2
164 -1 77 -1 123 -1 #SUP: 2
165 -1 64 -1 65 -1 #SUP: 2
183 -1 65 -1 77 -1 #SUP: 2
183 -1 77 -1 65 -1 #SUP: 2
183 -1 123 -1 120 -1 #SUP: 2
190 -1 77 -1 2 -1 #SUP: 2
193 -1 77 -1 22 -1 #SUP: 2
193 -1 77 -1 599 -1 #SUP: 2
193 -1 170 -1 65 -1 #SUP: 3
193 -1 206 -1 22 -1 #SUP: 2
193 -1 206 -1 77 -1 #SUP: 2
206 -1 10 -1 77 -1 #SUP: 2
206 -1 64 -1 10 -1 #SUP: 2
206 -1 77 -1 22 -1 #SUP: 2
212 -1 77 -1 2 -1 #SUP: 2
213 -1 77 -1 2 -1 #SUP: 3
222 -1 77 -1 2 -1 #SUP: 2
228 -1 280 -1 183 -1 #SUP: 2
236 -1 183 -1 65 -1 #SUP: 2
236 -1 183 -1 77 -1 #SUP: 2
249 -1 30 -1 65 -1 #SUP: 2
249 -1 30 -1 77 -1 #SUP: 2
356 -1 22 -1 170 -1 #SUP: 2
571 -1 32 -1 704 -1 #SUP: 2
613 -1 2 -1 704 -1 #SUP: 2
613 -1 32 -1 704 -1 #SUP: 2
613 -1 77 -1 183 -1 #SUP: 2
624 -1 2 -1 123 -1 #SUP: 2
638 -1 77 -1 123 -1 #SUP: 2
638 -1 77 -1 254 -1 #SUP: 2
638 -1 254 -1 123 -1 #SUP: 2
651 -1 64 -1 10 -1 #SUP: 2
651 -1 64 -1 22 -1 #SUP: 2
693 -1 2 -1 10 -1 #SUP: 2
693 -1 2 -1 123 -1 #SUP: 2
693 -1 123 -1 10 -1 #SUP: 2
699 -1 77 -1 123 -1 #SUP: 2
1263 -1 2 -1 704 -1 #SUP: 2
1425 -1 222 -1 256 -1 #SUP: 2
5987 -1 32 -1 50 -1 #SUP: 2
5997 -1 8 -1 8 -1 #SUP: 2
5997 -1 8 -1 26 -1 #SUP: 3
5997 -1 8 -1 28 -1 #SUP: 3
5997 -1 8 -1 5997 -1 #SUP: 3
5997 -1 8 -1 6024 -1 #SUP: 2
5997 -1 8 -1 16702 -1 #SUP: 2
5997 -1 26 -1 8 -1 #SUP: 2
5997 -1 26 -1 28 -1 #SUP: 2
5997 -1 26 -1 5997 -1 #SUP: 3
5997 -1 26 -1 6024 -1 #SUP: 2
5997 -1 26 -1 16702 -1 #SUP: 2
5997 -1 28 -1 8 -1 #SUP: 2
5997 -1 28 -1 26 -1 #SUP: 3
5997 -1 28 -1 28 -1 #SUP: 2
5997 -1 28 -1 5997 -1 #SUP: 3
5997 -1 28 -1 6024 -1 #SUP: 2
5997 -1 28 -1 16702 -1 #SUP: 2
5997 -1 5997 -1 8 -1 #SUP: 2
5997 -1 5997 -1 28 -1 #SUP: 2
5997 -1 5997 -1 6024 -1 #SUP: 2
5997 -1 5997 -1 16702 -1 #SUP: 2
5997 -1 6024 -1 8 -1 #SUP: 3
5997 -1 6024 -1 26 -1 #SUP: 3
5997 -1 6024 -1 28 -1 #SUP: 3
5997 -1 6024 -1 5997 -1 #SUP: 3
5997 -1 6024 -1 6024 -1 #SUP: 2
6024 -1 8 -1 8 -1 #SUP: 2
6024 -1 8 -1 26 -1 #SUP: 3
6024 -1 8 -1 28 -1 #SUP: 3
6024 -1 8 -1 5997 -1 #SUP: 3
6024 -1 8 -1 6024 -1 #SUP: 2
6024 -1 26 -1 8 -1 #SUP: 2
6024 -1 26 -1 26 -1 #SUP: 2
6024 -1 26 -1 28 -1 #SUP: 2
6024 -1 26 -1 5997 -1 #SUP: 3
6024 -1 26 -1 6024 -1 #SUP: 2
6024 -1 28 -1 8 -1 #SUP: 2
6024 -1 28 -1 26 -1 #SUP: 3
6024 -1 28 -1 28 -1 #SUP: 2
6024 -1 28 -1 5997 -1 #SUP: 3
6024 -1 28 -1 6024 -1 #SUP: 2
6024 -1 5997 -1 8 -1 #SUP: 2
6024 -1 5997 -1 26 -1 #SUP: 2
6024 -1 5997 -1 28 -1 #SUP: 2
6024 -1 5997 -1 6024 -1 #SUP: 2
8192 -1 3649 -1 1984 -1 #SUP: 2
11318 -1 5987 -1 32 -1 #SUP: 2
2 -1 123 -1 193 -1 170 -1 #SUP: 2
8 -1 8 -1 28 -1 26 -1 #SUP: 3
8 -1 26 -1 8 -1 26 -1 #SUP: 3
8 -1 26 -1 8 -1 28 -1 #SUP: 3
8 -1 26 -1 28 -1 26 -1 #SUP: 3
8 -1 26 -1 5997 -1 8 -1 #SUP: 3
8 -1 26 -1 5997 -1 26 -1 #SUP: 3
8 -1 26 -1 5997 -1 28 -1 #SUP: 3
8 -1 26 -1 5997 -1 6024 -1 #SUP: 3
8 -1 26 -1 5997 -1 16702 -1 #SUP: 2
8 -1 26 -1 6024 -1 8 -1 #SUP: 3
8 -1 26 -1 6024 -1 26 -1 #SUP: 3
8 -1 26 -1 6024 -1 28 -1 #SUP: 3
8 -1 28 -1 8 -1 26 -1 #SUP: 3
8 -1 28 -1 8 -1 28 -1 #SUP: 3
8 -1 28 -1 26 -1 8 -1 #SUP: 3
8 -1 28 -1 26 -1 26 -1 #SUP: 3
8 -1 28 -1 26 -1 28 -1 #SUP: 3
8 -1 28 -1 26 -1 5997 -1 #SUP: 4
8 -1 28 -1 26 -1 6024 -1 #SUP: 3
8 -1 28 -1 26 -1 16702 -1 #SUP: 2
8 -1 28 -1 28 -1 26 -1 #SUP: 3
8 -1 28 -1 5997 -1 8 -1 #SUP: 3
8 -1 28 -1 5997 -1 26 -1 #SUP: 3
8 -1 28 -1 5997 -1 28 -1 #SUP: 3
8 -1 28 -1 5997 -1 6024 -1 #SUP: 3
8 -1 28 -1 5997 -1 16702 -1 #SUP: 2
8 -1 28 -1 6024 -1 8 -1 #SUP: 3
8 -1 28 -1 6024 -1 26 -1 #SUP: 3
8 -1 28 -1 6024 -1 28 -1 #SUP: 3
8 -1 5997 -1 8 -1 26 -1 #SUP: 3
8 -1 5997 -1 8 -1 28 -1 #SUP: 3
8 -1 5997 -1 28 -1 26 -1 #SUP: 3
8 -1 5997 -1 6024 -1 8 -1 #SUP: 3
8 -1 5997 -1 6024 -1 26 -1 #SUP: 3
8 -1 5997 -1 6024 -1 28 -1 #SUP: 3
8 -1 6024 -1 8 -1 26 -1 #SUP: 3
8 -1 6024 -1 8 -1 28 -1 #SUP: 3
8 -1 6024 -1 28 -1 26 -1 #SUP: 3
22 -1 32 -1 50 -1 668 -1 #SUP: 2
22 -1 1425 -1 222 -1 256 -1 #SUP: 2
26 -1 8 -1 26 -1 5997 -1 #SUP: 3
26 -1 8 -1 26 -1 16702 -1 #SUP: 2
26 -1 8 -1 28 -1 26 -1 #SUP: 3
26 -1 8 -1 28 -1 5997 -1 #SUP: 3
26 -1 8 -1 28 -1 16702 -1 #SUP: 2
26 -1 8 -1 5997 -1 16702 -1 #SUP: 2
26 -1 26 -1 5997 -1 16702 -1 #SUP: 2
26 -1 28 -1 26 -1 5997 -1 #SUP: 3
26 -1 28 -1 26 -1 16702 -1 #SUP: 2
26 -1 28 -1 5997 -1 16702 -1 #SUP: 2
26 -1 5997 -1 8 -1 26 -1 #SUP: 3
26 -1 5997 -1 8 -1 28 -1 #SUP: 3
26 -1 5997 -1 8 -1 5997 -1 #SUP: 3
26 -1 5997 -1 8 -1 16702 -1 #SUP: 2
26 -1 5997 -1 26 -1 5997 -1 #SUP: 3
26 -1 5997 -1 26 -1 16702 -1 #SUP: 2
26 -1 5997 -1 28 -1 26 -1 #SUP: 3
26 -1 5997 -1 28 -1 5997 -1 #SUP: 3
26 -1 5997 -1 28 -1 16702 -1 #SUP: 2
26 -1 5997 -1 5997 -1 16702 -1 #SUP: 2
26 -1 5997 -1 6024 -1 8 -1 #SUP: 3
26 -1 5997 -1 6024 -1 26 -1 #SUP: 3
26 -1 5997 -1 6024 -1 28 -1 #SUP: 3
26 -1 5997 -1 6024 -1 5997 -1 #SUP: 3
26 -1 6024 -1 8 -1 26 -1 #SUP: 3
26 -1 6024 -1 8 -1 28 -1 #SUP: 3
26 -1 6024 -1 8 -1 5997 -1 #SUP: 3
26 -1 6024 -1 26 -1 5997 -1 #SUP: 3
26 -1 6024 -1 28 -1 26 -1 #SUP: 3
26 -1 6024 -1 28 -1 5997 -1 #SUP: 3
28 -1 8 -1 26 -1 5997 -1 #SUP: 3
28 -1 8 -1 28 -1 26 -1 #SUP: 3
28 -1 8 -1 28 -1 5997 -1 #SUP: 3
28 -1 26 -1 8 -1 26 -1 #SUP: 3
28 -1 26 -1 8 -1 28 -1 #SUP: 3
28 -1 26 -1 8 -1 5997 -1 #SUP: 3
28 -1 26 -1 26 -1 5997 -1 #SUP: 3
28 -1 26 -1 28 -1 26 -1 #SUP: 3
28 -1 26 -1 28 -1 5997 -1 #SUP: 3
28 -1 26 -1 5997 -1 8 -1 #SUP: 3
28 -1 26 -1 5997 -1 26 -1 #SUP: 3
28 -1 26 -1 5997 -1 28 -1 #SUP: 3
28 -1 26 -1 5997 -1 5997 -1 #SUP: 3
28 -1 26 -1 5997 -1 6024 -1 #SUP: 3
28 -1 26 -1 5997 -1 16702 -1 #SUP: 2
28 -1 26 -1 6024 -1 8 -1 #SUP: 3
28 -1 26 -1 6024 -1 26 -1 #SUP: 3
28 -1 26 -1 6024 -1 28 -1 #SUP: 3
28 -1 26 -1 6024 -1 5997 -1 #SUP: 2
28 -1 28 -1 26 -1 5997 -1 #SUP: 3
28 -1 5997 -1 8 -1 26 -1 #SUP: 3
28 -1 5997 -1 8 -1 28 -1 #SUP: 3
28 -1 5997 -1 8 -1 5997 -1 #SUP: 3
28 -1 5997 -1 26 -1 5997 -1 #SUP: 3
28 -1 5997 -1 28 -1 26 -1 #SUP: 3
28 -1 5997 -1 28 -1 5997 -1 #SUP: 3
28 -1 5997 -1 6024 -1 8 -1 #SUP: 3
28 -1 5997 -1 6024 -1 26 -1 #SUP: 3
28 -1 5997 -1 6024 -1 28 -1 #SUP: 3
28 -1 5997 -1 6024 -1 5997 -1 #SUP: 2
28 -1 6024 -1 8 -1 26 -1 #SUP: 3
28 -1 6024 -1 8 -1 28 -1 #SUP: 3
28 -1 6024 -1 8 -1 5997 -1 #SUP: 2
28 -1 6024 -1 26 -1 5997 -1 #SUP: 2
28 -1 6024 -1 28 -1 26 -1 #SUP: 3
28 -1 6024 -1 28 -1 5997 -1 #SUP: 2
30 -1 8192 -1 3649 -1 1984 -1 #SUP: 2
32 -1 1263 -1 2 -1 704 -1 #SUP: 2
77 -1 2 -1 123 -1 64 -1 #SUP: 3
77 -1 2 -1 123 -1 193 -1 #SUP: 2
77 -1 22 -1 222 -1 256 -1 #SUP: 2
77 -1 22 -1 1425 -1 222 -1 #SUP: 2
77 -1 22 -1 1425 -1 256 -1 #SUP: 2
77 -1 123 -1 64 -1 22 -1 #SUP: 2
77 -1 1425 -1 222 -1 256 -1 #SUP: 2
123 -1 64 -1 22 -1 77 -1 #SUP: 2
123 -1 77 -1 2 -1 123 -1 #SUP: 2
123 -1 77 -1 123 -1 174 -1 #SUP: 2
123 -1 193 -1 170 -1 65 -1 #SUP: 2
123 -1 206 -1 10 -1 77 -1 #SUP: 2
123 -1 651 -1 64 -1 22 -1 #SUP: 2
193 -1 206 -1 77 -1 22 -1 #SUP: 2
638 -1 77 -1 254 -1 123 -1 #SUP: 2
693 -1 2 -1 123 -1 10 -1 #SUP: 2
5997 -1 8 -1 8 -1 28 -1 #SUP: 2
5997 -1 8 -1 26 -1 8 -1 #SUP: 2
5997 -1 8 -1 26 -1 28 -1 #SUP: 2
5997 -1 8 -1 26 -1 5997 -1 #SUP: 3
5997 -1 8 -1 26 -1 6024 -1 #SUP: 2
5997 -1 8 -1 26 -1 16702 -1 #SUP: 2
5997 -1 8 -1 28 -1 8 -1 #SUP: 2
5997 -1 8 -1 28 -1 26 -1 #SUP: 3
5997 -1 8 -1 28 -1 28 -1 #SUP: 2
5997 -1 8 -1 28 -1 5997 -1 #SUP: 3
5997 -1 8 -1 28 -1 6024 -1 #SUP: 2
5997 -1 8 -1 28 -1 16702 -1 #SUP: 2
5997 -1 8 -1 5997 -1 8 -1 #SUP: 2
5997 -1 8 -1 5997 -1 28 -1 #SUP: 2
5997 -1 8 -1 5997 -1 6024 -1 #SUP: 2
5997 -1 8 -1 5997 -1 16702 -1 #SUP: 2
5997 -1 26 -1 8 -1 28 -1 #SUP: 2
5997 -1 26 -1 5997 -1 8 -1 #SUP: 2
5997 -1 26 -1 5997 -1 28 -1 #SUP: 2
5997 -1 26 -1 5997 -1 6024 -1 #SUP: 2
5997 -1 26 -1 5997 -1 16702 -1 #SUP: 2
5997 -1 28 -1 8 -1 28 -1 #SUP: 2
5997 -1 28 -1 26 -1 8 -1 #SUP: 2
5997 -1 28 -1 26 -1 28 -1 #SUP: 2
5997 -1 28 -1 26 -1 5997 -1 #SUP: 3
5997 -1 28 -1 26 -1 6024 -1 #SUP: 2
5997 -1 28 -1 26 -1 16702 -1 #SUP: 2
5997 -1 28 -1 5997 -1 8 -1 #SUP: 2
5997 -1 28 -1 5997 -1 28 -1 #SUP: 2
5997 -1 28 -1 5997 -1 6024 -1 #SUP: 2
5997 -1 28 -1 5997 -1 16702 -1 #SUP: 2
5997 -1 5997 -1 8 -1 28 -1 #SUP: 2
5997 -1 6024 -1 8 -1 8 -1 #SUP: 2
5997 -1 6024 -1 8 -1 26 -1 #SUP: 3
5997 -1 6024 -1 8 -1 28 -1 #SUP: 3
5997 -1 6024 -1 8 -1 5997 -1 #SUP: 3
5997 -1 6024 -1 8 -1 6024 -1 #SUP: 2
5997 -1 6024 -1 26 -1 8 -1 #SUP: 2
5997 -1 6024 -1 26 -1 28 -1 #SUP: 2
5997 -1 6024 -1 26 -1 5997 -1 #SUP: 3
5997 -1 6024 -1 26 -1 6024 -1 #SUP: 2
5997 -1 6024 -1 28 -1 8 -1 #SUP: 2
5997 -1 6024 -1 28 -1 26 -1 #SUP: 3
5997 -1 6024 -1 28 -1 28 -1 #SUP: 2
5997 -1 6024 -1 28 -1 5997 -1 #SUP: 3
5997 -1 6024 -1 28 -1 6024 -1 #SUP: 2
5997 -1 6024 -1 5997 -1 8 -1 #SUP: 2
5997 -1 6024 -1 5997 -1 28 -1 #SUP: 2
5997 -1 6024 -1 5997 -1 6024 -1 #SUP: 2
6024 -1 8 -1 8 -1 26 -1 #SUP: 2
6024 -1 8 -1 8 -1 28 -1 #SUP: 2
6024 -1 8 -1 26 -1 8 -1 #SUP: 2
6024 -1 8 -1 26 -1 26 -1 #SUP: 2
6024 -1 8 -1 26 -1 28 -1 #SUP: 2
6024 -1 8 -1 26 -1 5997 -1 #SUP: 3
6024 -1 8 -1 26 -1 6024 -1 #SUP: 2
6024 -1 8 -1 28 -1 8 -1 #SUP: 2
6024 -1 8 -1 28 -1 26 -1 #SUP: 3
6024 -1 8 -1 28 -1 28 -1 #SUP: 2
6024 -1 8 -1 28 -1 5997 -1 #SUP: 3
6024 -1 8 -1 28 -1 6024 -1 #SUP: 2
6024 -1 8 -1 5997 -1 8 -1 #SUP: 2
6024 -1 8 -1 5997 -1 26 -1 #SUP: 2
6024 -1 8 -1 5997 -1 28 -1 #SUP: 2
6024 -1 8 -1 5997 -1 6024 -1 #SUP: 2
6024 -1 26 -1 8 -1 26 -1 #SUP: 2
6024 -1 26 -1 8 -1 28 -1 #SUP: 2
6024 -1 26 -1 28 -1 26 -1 #SUP: 2
6024 -1 26 -1 5997 -1 8 -1 #SUP: 2
6024 -1 26 -1 5997 -1 26 -1 #SUP: 2
6024 -1 26 -1 5997 -1 28 -1 #SUP: 2
6024 -1 26 -1 5997 -1 6024 -1 #SUP: 2
6024 -1 28 -1 8 -1 26 -1 #SUP: 2
6024 -1 28 -1 8 -1 28 -1 #SUP: 2
6024 -1 28 -1 26 -1 8 -1 #SUP: 2
6024 -1 28 -1 26 -1 26 -1 #SUP: 2
6024 -1 28 -1 26 -1 28 -1 #SUP: 2
6024 -1 28 -1 26 -1 5997 -1 #SUP: 3
6024 -1 28 -1 26 -1 6024 -1 #SUP: 2
6024 -1 28 -1 28 -1 26 -1 #SUP: 2
6024 -1 28 -1 5997 -1 8 -1 #SUP: 2
6024 -1 28 -1 5997 -1 26 -1 #SUP: 2
6024 -1 28 -1 5997 -1 28 -1 #SUP: 2
6024 -1 28 -1 5997 -1 6024 -1 #SUP: 2
6024 -1 5997 -1 8 -1 26 -1 #SUP: 2
6024 -1 5997 -1 8 -1 28 -1 #SUP: 2
6024 -1 5997 -1 28 -1 26 -1 #SUP: 2
8 -1 26 -1 8 -1 28 -1 26 -1 #SUP: 3
8 -1 26 -1 5997 -1 8 -1 26 -1 #SUP: 3
8 -1 26 -1 5997 -1 8 -1 28 -1 #SUP: 3
8 -1 26 -1 5997 -1 28 -1 26 -1 #SUP: 3
8 -1 26 -1 5997 -1 6024 -1 8 -1 #SUP: 3
8 -1 26 -1 5997 -1 6024 -1 26 -1 #SUP: 3
8 -1 26 -1 5997 -1 6024 -1 28 -1 #SUP: 3
8 -1 26 -1 6024 -1 8 -1 26 -1 #SUP: 3
8 -1 26 -1 6024 -1 8 -1 28 -1 #SUP: 3
8 -1 26 -1 6024 -1 28 -1 26 -1 #SUP: 3
8 -1 28 -1 8 -1 28 -1 26 -1 #SUP: 3
8 -1 28 -1 26 -1 8 -1 26 -1 #SUP: 3
8 -1 28 -1 26 -1 8 -1 28 -1 #SUP: 3
8 -1 28 -1 26 -1 28 -1 26 -1 #SUP: 3
8 -1 28 -1 26 -1 5997 -1 8 -1 #SUP: 3
8 -1 28 -1 26 -1 5997 -1 26 -1 #SUP: 3
8 -1 28 -1 26 -1 5997 -1 28 -1 #SUP: 3
8 -1 28 -1 26 -1 5997 -1 6024 -1 #SUP: 3
8 -1 28 -1 26 -1 5997 -1 16702 -1 #SUP: 2
8 -1 28 -1 26 -1 6024 -1 8 -1 #SUP: 3
8 -1 28 -1 26 -1 6024 -1 26 -1 #SUP: 3
8 -1 28 -1 26 -1 6024 -1 28 -1 #SUP: 3
8 -1 28 -1 5997 -1 8 -1 26 -1 #SUP: 3
8 -1 28 -1 5997 -1 8 -1 28 -1 #SUP: 3
8 -1 28 -1 5997 -1 28 -1 26 -1 #SUP: 3
8 -1 28 -1 5997 -1 6024 -1 8 -1 #SUP: 3
8 -1 28 -1 5997 -1 6024 -1 26 -1 #SUP: 3
8 -1 28 -1 5997 -1 6024 -1 28 -1 #SUP: 3
8 -1 28 -1 6024 -1 8 -1 26 -1 #SUP: 3
8 -1 28 -1 6024 -1 8 -1 28 -1 #SUP: 3
8 -1 28 -1 6024 -1 28 -1 26 -1 #SUP: 3
8 -1 5997 -1 8 -1 28 -1 26 -1 #SUP: 3
8 -1 5997 -1 6024 -1 8 -1 26 -1 #SUP: 3
8 -1 5997 -1 6024 -1 8 -1 28 -1 #SUP: 3
8 -1 5997 -1 6024 -1 28 -1 26 -1 #SUP: 3
8 -1 6024 -1 8 -1 28 -1 26 -1 #SUP: 3
26 -1 8 -1 26 -1 5997 -1 16702 -1 #SUP: 2
26 -1 8 -1 28 -1 26 -1 5997 -1 #SUP: 3
26 -1 8 -1 28 -1 26 -1 16702 -1 #SUP: 2
26 -1 8 -1 28 -1 5997 -1 16702 -1 #SUP: 2
26 -1 28 -1 26 -1 5997 -1 16702 -1 #SUP: 2
26 -1 5997 -1 8 -1 26 -1 5997 -1 #SUP: 3
26 -1 5997 -1 8 -1 26 -1 16702 -1 #SUP: 2
26 -1 5997 -1 8 -1 28 -1 26 -1 #SUP: 3
26 -1 5997 -1 8 -1 28 -1 5997 -1 #SUP: 3
26 -1 5997 -1 8 -1 28 -1 16702 -1 #SUP: 2
26 -1 5997 -1 8 -1 5997 -1 16702 -1 #SUP: 2
26 -1 5997 -1 26 -1 5997 -1 16702 -1 #SUP: 2
26 -1 5997 -1 28 -1 26 -1 5997 -1 #SUP: 3
26 -1 5997 -1 28 -1 26 -1 16702 -1 #SUP: 2
26 -1 5997 -1 28 -1 5997 -1 16702 -1 #SUP: 2
26 -1 5997 -1 6024 -1 8 -1 26 -1 #SUP: 3
26 -1 5997 -1 6024 -1 8 -1 28 -1 #SUP: 3
26 -1 5997 -1 6024 -1 8 -1 5997 -1 #SUP: 3
26 -1 5997 -1 6024 -1 26 -1 5997 -1 #SUP: 3
26 -1 5997 -1 6024 -1 28 -1 26 -1 #SUP: 3
26 -1 5997 -1 6024 -1 28 -1 5997 -1 #SUP: 3
26 -1 6024 -1 8 -1 26 -1 5997 -1 #SUP: 3
26 -1 6024 -1 8 -1 28 -1 26 -1 #SUP: 3
26 -1 6024 -1 8 -1 28 -1 5997 -1 #SUP: 3
26 -1 6024 -1 28 -1 26 -1 5997 -1 #SUP: 3
28 -1 8 -1 28 -1 26 -1 5997 -1 #SUP: 3
28 -1 26 -1 8 -1 26 -1 5997 -1 #SUP: 3
28 -1 26 -1 8 -1 28 -1 26 -1 #SUP: 3
28 -1 26 -1 8 -1 28 -1 5997 -1 #SUP: 3
28 -1 26 -1 28 -1 26 -1 5997 -1 #SUP: 3
28 -1 26 -1 5997 -1 8 -1 26 -1 #SUP: 3
28 -1 26 -1 5997 -1 8 -1 28 -1 #SUP: 3
28 -1 26 -1 5997 -1 8 -1 5997 -1 #SUP: 3
28 -1 26 -1 5997 -1 26 -1 5997 -1 #SUP: 3
28 -1 26 -1 5997 -1 28 -1 26 -1 #SUP: 3
28 -1 26 -1 5997 -1 28 -1 5997 -1 #SUP: 3
28 -1 26 -1 5997 -1 6024 -1 8 -1 #SUP: 3
28 -1 26 -1 5997 -1 6024 -1 26 -1 #SUP: 3
28 -1 26 -1 5997 -1 6024 -1 28 -1 #SUP: 3
28 -1 26 -1 5997 -1 6024 -1 5997 -1 #SUP: 2
28 -1 26 -1 6024 -1 8 -1 26 -1 #SUP: 3
28 -1 26 -1 6024 -1 8 -1 28 -1 #SUP: 3
28 -1 26 -1 6024 -1 8 -1 5997 -1 #SUP: 2
28 -1 26 -1 6024 -1 26 -1 5997 -1 #SUP: 2
28 -1 26 -1 6024 -1 28 -1 26 -1 #SUP: 3
28 -1 26 -1 6024 -1 28 -1 5997 -1 #SUP: 2
28 -1 5997 -1 8 -1 26 -1 5997 -1 #SUP: 3
28 -1 5997 -1 8 -1 28 -1 26 -1 #SUP: 3
28 -1 5997 -1 8 -1 28 -1 5997 -1 #SUP: 3
28 -1 5997 -1 28 -1 26 -1 5997 -1 #SUP: 3
28 -1 5997 -1 6024 -1 8 -1 26 -1 #SUP: 3
28 -1 5997 -1 6024 -1 8 -1 28 -1 #SUP: 3
28 -1 5997 -1 6024 -1 8 -1 5997 -1 #SUP: 2
28 -1 5997 -1 6024 -1 26 -1 5997 -1 #SUP: 2
28 -1 5997 -1 6024 -1 28 -1 26 -1 #SUP: 3
28 -1 5997 -1 6024 -1 28 -1 5997 -1 #SUP: 2
28 -1 6024 -1 8 -1 26 -1 5997 -1 #SUP: 2
28 -1 6024 -1 8 -1 28 -1 26 -1 #SUP: 3
28 -1 6024 -1 8 -1 28 -1 5997 -1 #SUP: 2
28 -1 6024 -1 28 -1 26 -1 5997 -1 #SUP: 2
77 -1 22 -1 1425 -1 222 -1 256 -1 #SUP: 2
5997 -1 8 -1 26 -1 8 -1 28 -1 #SUP: 2
5997 -1 8 -1 26 -1 5997 -1 8 -1 #SUP: 2
5997 -1 8 -1 26 -1 5997 -1 28 -1 #SUP: 2
5997 -1 8 -1 26 -1 5997 -1 6024 -1 #SUP: 2
5997 -1 8 -1 26 -1 5997 -1 16702 -1 #SUP: 2
5997 -1 8 -1 28 -1 8 -1 28 -1 #SUP: 2
5997 -1 8 -1 28 -1 26 -1 8 -1 #SUP: 2
5997 -1 8 -1 28 -1 26 -1 28 -1 #SUP: 2
5997 -1 8 -1 28 -1 26 -1 5997 -1 #SUP: 3
5997 -1 8 -1 28 -1 26 -1 6024 -1 #SUP: 2
5997 -1 8 -1 28 -1 26 -1 16702 -1 #SUP: 2
5997 -1 8 -1 28 -1 5997 -1 8 -1 #SUP: 2
5997 -1 8 -1 28 -1 5997 -1 28 -1 #SUP: 2
5997 -1 8 -1 28 -1 5997 -1 6024 -1 #SUP: 2
5997 -1 8 -1 28 -1 5997 -1 16702 -1 #SUP: 2
5997 -1 8 -1 5997 -1 8 -1 28 -1 #SUP: 2
5997 -1 26 -1 5997 -1 8 -1 28 -1 #SUP: 2
5997 -1 28 -1 26 -1 8 -1 28 -1 #SUP: 2
5997 -1 28 -1 26 -1 5997 -1 8 -1 #SUP: 2
5997 -1 28 -1 26 -1 5997 -1 28 -1 #SUP: 2
5997 -1 28 -1 26 -1 5997 -1 6024 -1 #SUP: 2
5997 -1 28 -1 26 -1 5997 -1 16702 -1 #SUP: 2
5997 -1 28 -1 5997 -1 8 -1 28 -1 #SUP: 2
5997 -1 6024 -1 8 -1 8 -1 28 -1 #SUP: 2
5997 -1 6024 -1 8 -1 26 -1 8 -1 #SUP: 2
5997 -1 6024 -1 8 -1 26 -1 28 -1 #SUP: 2
5997 -1 6024 -1 8 -1 26 -1 5997 -1 #SUP: 3
5997 -1 6024 -1 8 -1 26 -1 6024 -1 #SUP: 2
5997 -1 6024 -1 8 -1 28 -1 8 -1 #SUP: 2
5997 -1 6024 -1 8 -1 28 -1 26 -1 #SUP: 3
5997 -1 6024 -1 8 -1 28 -1 28 -1 #SUP: 2
5997 -1 6024 -1 8 -1 28 -1 5997 -1 #SUP: 3
5997 -1 6024 -1 8 -1 28 -1 6024 -1 #SUP: 2
5997 -1 6024 -1 8 -1 5997 -1 8 -1 #SUP: 2
5997 -1 6024 -1 8 -1 5997 -1 28 -1 #SUP: 2
5997 -1 6024 -1 8 -1 5997 -1 6024 -1 #SUP: 2
5997 -1 6024 -1 26 -1 8 -1 28 -1 #SUP: 2
5997 -1 6024 -1 26 -1 5997 -1 8 -1 #SUP: 2
5997 -1 6024 -1 26 -1 5997 -1 28 -1 #SUP: 2
5997 -1 6024 -1 26 -1 5997 -1 6024 -1 #SUP: 2
5997 -1 6024 -1 28 -1 8 -1 28 -1 #SUP: 2
5997 -1 6024 -1 28 -1 26 -1 8 -1 #SUP: 2
5997 -1 6024 -1 28 -1 26 -1 28 -1 #SUP: 2
5997 -1 6024 -1 28 -1 26 -1 5997 -1 #SUP: 3
5997 -1 6024 -1 28 -1 26 -1 6024 -1 #SUP: 2
5997 -1 6024 -1 28 -1 5997 -1 8 -1 #SUP: 2
5997 -1 6024 -1 28 -1 5997 -1 28 -1 #SUP: 2
5997 -1 6024 -1 28 -1 5997 -1 6024 -1 #SUP: 2
5997 -1 6024 -1 5997 -1 8 -1 28 -1 #SUP: 2
6024 -1 8 -1 8 -1 28 -1 26 -1 #SUP: 2
6024 -1 8 -1 26 -1 8 -1 26 -1 #SUP: 2
6024 -1 8 -1 26 -1 8 -1 28 -1 #SUP: 2
6024 -1 8 -1 26 -1 28 -1 26 -1 #SUP: 2
6024 -1 8 -1 26 -1 5997 -1 8 -1 #SUP: 2
6024 -1 8 -1 26 -1 5997 -1 26 -1 #SUP: 2
6024 -1 8 -1 26 -1 5997 -1 28 -1 #SUP: 2
6024 -1 8 -1 26 -1 5997 -1 6024 -1 #SUP: 2
6024 -1 8 -1 28 -1 8 -1 26 -1 #SUP: 2
6024 -1 8 -1 28 -1 8 -1 28 -1 #SUP: 2
6024 -1 8 -1 28 -1 26 -1 8 -1 #SUP: 2
6024 -1 8 -1 28 -1 26 -1 26 -1 #SUP: 2
6024 -1 8 -1 28 -1 26 -1 28 -1 #SUP: 2
6024 -1 8 -1 28 -1 26 -1 5997 -1 #SUP: 3
6024 -1 8 -1 28 -1 26 -1 6024 -1 #SUP: 2
6024 -1 8 -1 28 -1 28 -1 26 -1 #SUP: 2
6024 -1 8 -1 28 -1 5997 -1 8 -1 #SUP: 2
6024 -1 8 -1 28 -1 5997 -1 26 -1 #SUP: 2
6024 -1 8 -1 28 -1 5997 -1 28 -1 #SUP: 2
6024 -1 8 -1 28 -1 5997 -1 6024 -1 #SUP: 2
6024 -1 8 -1 5997 -1 8 -1 26 -1 #SUP: 2
6024 -1 8 -1 5997 -1 8 -1 28 -1 #SUP: 2
6024 -1 8 -1 5997 -1 28 -1 26 -1 #SUP: 2
6024 -1 26 -1 8 -1 28 -1 26 -1 #SUP: 2
6024 -1 26 -1 5997 -1 8 -1 26 -1 #SUP: 2
6024 -1 26 -1 5997 -1 8 -1 28 -1 #SUP: 2
6024 -1 26 -1 5997 -1 28 -1 26 -1 #SUP: 2
6024 -1 28 -1 8 -1 28 -1 26 -1 #SUP: 2
6024 -1 28 -1 26 -1 8 -1 26 -1 #SUP: 2
6024 -1 28 -1 26 -1 8 -1 28 -1 #SUP: 2
6024 -1 28 -1 26 -1 28 -1 26 -1 #SUP: 2
6024 -1 28 -1 26 -1 5997 -1 8 -1 #SUP: 2
6024 -1 28 -1 26 -1 5997 -1 26 -1 #SUP: 2
6024 -1 28 -1 26 -1 5997 -1 28 -1 #SUP: 2
6024 -1 28 -1 26 -1 5997 -1 6024 -1 #SUP: 2
6024 -1 28 -1 5997 -1 8 -1 26 -1 #SUP: 2
6024 -1 28 -1 5997 -1 8 -1 28 -1 #SUP: 2
6024 -1 28 -1 5997 -1 28 -1 26 -1 #SUP: 2
6024 -1 5997 -1 8 -1 28 -1 26 -1 #SUP: 2
8 -1 26 -1 5997 -1 8 -1 28 -1 26 -1 #SUP: 3
8 -1 26 -1 5997 -1 6024 -1 8 -1 26 -1 #SUP: 3
8 -1 26 -1 5997 -1 6024 -1 8 -1 28 -1 #SUP: 3
8 -1 26 -1 5997 -1 6024 -1 28 -1 26 -1 #SUP: 3
8 -1 26 -1 6024 -1 8 -1 28 -1 26 -1 #SUP: 3
8 -1 28 -1 26 -1 8 -1 28 -1 26 -1 #SUP: 3
8 -1 28 -1 26 -1 5997 -1 8 -1 26 -1 #SUP: 3
8 -1 28 -1 26 -1 5997 -1 8 -1 28 -1 #SUP: 3
8 -1 28 -1 26 -1 5997 -1 28 -1 26 -1 #SUP: 3
8 -1 28 -1 26 -1 5997 -1 6024 -1 8 -1 #SUP: 3
8 -1 28 -1 26 -1 5997 -1 6024 -1 26 -1 #SUP: 3
8 -1 28 -1 26 -1 5997 -1 6024 -1 28 -1 #SUP: 3
8 -1 28 -1 26 -1 6024 -1 8 -1 26 -1 #SUP: 3
8 -1 28 -1 26 -1 6024 -1 8 -1 28 -1 #SUP: 3
8 -1 28 -1 26 -1 6024 -1 28 -1 26 -1 #SUP: 3
8 -1 28 -1 5997 -1 8 -1 28 -1 26 -1 #SUP: 3
8 -1 28 -1 5997 -1 6024 -1 8 -1 26 -1 #SUP: 3
8 -1 28 -1 5997 -1 6024 -1 8 -1 28 -1 #SUP: 3
8 -1 28 -1 5997 -1 6024 -1 28 -1 26 -1 #SUP: 3
8 -1 28 -1 6024 -1 8 -1 28 -1 26 -1 #SUP: 3
8 -1 5997 -1 6024 -1 8 -1 28 -1 26 -1 #SUP: 3
26 -1 8 -1 28 -1 26 -1 5997 -1 16702 -1 #SUP: 2
26 -1 5997 -1 8 -1 26 -1 5997 -1 16702 -1 #SUP: 2
26 -1 5997 -1 8 -1 28 -1 26 -1 5997 -1 #SUP: 3
26 -1 5997 -1 8 -1 28 -1 26 -1 16702 -1 #SUP: 2
26 -1 5997 -1 8 -1 28 -1 5997 -1 16702 -1 #SUP: 2
26 -1 5997 -1 28 -1 26 -1 5997 -1 16702 -1 #SUP: 2
26 -1 5997 -1 6024 -1 8 -1 26 -1 5997 -1 #SUP: 3
26 -1 5997 -1 6024 -1 8 -1 28 -1 26 -1 #SUP: 3
26 -1 5997 -1 6024 -1 8 -1 28 -1 5997 -1 #SUP: 3
26 -1 5997 -1 6024 -1 28 -1 26 -1 5997 -1 #SUP: 3
26 -1 6024 -1 8 -1 28 -1 26 -1 5997 -1 #SUP: 3
28 -1 26 -1 8 -1 28 -1 26 -1 5997 -1 #SUP: 3
28 -1 26 -1 5997 -1 8 -1 26 -1 5997 -1 #SUP: 3
28 -1 26 -1 5997 -1 8 -1 28 -1 26 -1 #SUP: 3
28 -1 26 -1 5997 -1 8 -1 28 -1 5997 -1 #SUP: 3
28 -1 26 -1 5997 -1 28 -1 26 -1 5997 -1 #SUP: 3
28 -1 26 -1 5997 -1 6024 -1 8 -1 26 -1 #SUP: 3
28 -1 26 -1 5997 -1 6024 -1 8 -1 28 -1 #SUP: 3
28 -1 26 -1 5997 -1 6024 -1 8 -1 5997 -1 #SUP: 2
28 -1 26 -1 5997 -1 6024 -1 26 -1 5997 -1 #SUP: 2
28 -1 26 -1 5997 -1 6024 -1 28 -1 26 -1 #SUP: 3
28 -1 26 -1 5997 -1 6024 -1 28 -1 5997 -1 #SUP: 2
28 -1 26 -1 6024 -1 8 -1 26 -1 5997 -1 #SUP: 2
28 -1 26 -1 6024 -1 8 -1 28 -1 26 -1 #SUP: 3
28 -1 26 -1 6024 -1 8 -1 28 -1 5997 -1 #SUP: 2
28 -1 26 -1 6024 -1 28 -1 26 -1 5997 -1 #SUP: 2
28 -1 5997 -1 8 -1 28 -1 26 -1 5997 -1 #SUP: 3
28 -1 5997 -1 6024 -1 8 -1 26 -1 5997 -1 #SUP: 2
28 -1 5997 -1 6024 -1 8 -1 28 -1 26 -1 #SUP: 3
28 -1 5997 -1 6024 -1 8 -1 28 -1 5997 -1 #SUP: 2
28 -1 5997 -1 6024 -1 28 -1 26 -1 5997 -1 #SUP: 2
28 -1 6024 -1 8 -1 28 -1 26 -1 5997 -1 #SUP: 2
5997 -1 8 -1 26 -1 5997 -1 8 -1 28 -1 #SUP: 2
5997 -1 8 -1 28 -1 26 -1 8 -1 28 -1 #SUP: 2
5997 -1 8 -1 28 -1 26 -1 5997 -1 8 -1 #SUP: 2
5997 -1 8 -1 28 -1 26 -1 5997 -1 28 -1 #SUP: 2
5997 -1 8 -1 28 -1 26 -1 5997 -1 6024 -1 #SUP: 2
5997 -1 8 -1 28 -1 26 -1 5997 -1 16702 -1 #SUP: 2
5997 -1 8 -1 28 -1 5997 -1 8 -1 28 -1 #SUP: 2
5997 -1 28 -1 26 -1 5997 -1 8 -1 28 -1 #SUP: 2
5997 -1 6024 -1 8 -1 26 -1 8 -1 28 -1 #SUP: 2
5997 -1 6024 -1 8 -1 26 -1 5997 -1 8 -1 #SUP: 2
5997 -1 6024 -1 8 -1 26 -1 5997 -1 28 -1 #SUP: 2
5997 -1 6024 -1 8 -1 26 -1 5997 -1 6024 -1 #SUP: 2
5997 -1 6024 -1 8 -1 28 -1 8 -1 28 -1 #SUP: 2
5997 -1 6024 -1 8 -1 28 -1 26 -1 8 -1 #SUP: 2
5997 -1 6024 -1 8 -1 28 -1 26 -1 28 -1 #SUP: 2
5997 -1 6024 -1 8 -1 28 -1 26 -1 5997 -1 #SUP: 3
5997 -1 6024 -1 8 -1 28 -1 26 -1 6024 -1 #SUP: 2
5997 -1 6024 -1 8 -1 28 -1 5997 -1 8 -1 #SUP: 2
5997 -1 6024 -1 8 -1 28 -1 5997 -1 28 -1 #SUP: 2
5997 -1 6024 -1 8 -1 28 -1 5997 -1 6024 -1 #SUP: 2
5997 -1 6024 -1 8 -1 5997 -1 8 -1 28 -1 #SUP: 2
5997 -1 6024 -1 26 -1 5997 -1 8 -1 28 -1 #SUP: 2
5997 -1 6024 -1 28 -1 26 -1 8 -1 28 -1 #SUP: 2
5997 -1 6024 -1 28 -1 26 -1 5997 -1 8 -1 #SUP: 2
5997 -1 6024 -1 28 -1 26 -1 5997 -1 28 -1 #SUP: 2
5997 -1 6024 -1 28 -1 26 -1 5997 -1 6024 -1 #SUP: 2
5997 -1 6024 -1 28 -1 5997 -1 8 -1 28 -1 #SUP: 2
6024 -1 8 -1 26 -1 8 -1 28 -1 26 -1 #SUP: 2
6024 -1 8 -1 26 -1 5997 -1 8 -1 26 -1 #SUP: 2
6024 -1 8 -1 26 -1 5997 -1 8 -1 28 -1 #SUP: 2
6024 -1 8 -1 26 -1 5997 -1 28 -1 26 -1 #SUP: 2
6024 -1 8 -1 28 -1 8 -1 28 -1 26 -1 #SUP: 2
6024 -1 8 -1 28 -1 26 -1 8 -1 26 -1 #SUP: 2
6024 -1 8 -1 28 -1 26 -1 8 -1 28 -1 #SUP: 2
6024 -1 8 -1 28 -1 26 -1 28 -1 26 -1 #SUP: 2
6024 -1 8 -1 28 -1 26 -1 5997 -1 8 -1 #SUP: 2
6024 -1 8 -1 28 -1 26 -1 5997 -1 26 -1 #SUP: 2
6024 -1 8 -1 28 -1 26 -1 5997 -1 28 -1 #SUP: 2
6024 -1 8 -1 28 -1 26 -1 5997 -1 6024 -1 #SUP: 2
6024 -1 8 -1 28 -1 5997 -1 8 -1 26 -1 #SUP: 2
6024 -1 8 -1 28 -1 5997 -1 8 -1 28 -1 #SUP: 2
6024 -1 8 -1 28 -1 5997 -1 28 -1 26 -1 #SUP: 2
6024 -1 8 -1 5997 -1 8 -1 28 -1 26 -1 #SUP: 2
6024 -1 26 -1 5997 -1 8 -1 28 -1 26 -1 #SUP: 2
6024 -1 28 -1 26 -1 8 -1 28 -1 26 -1 #SUP: 2
6024 -1 28 -1 26 -1 5997 -1 8 -1 26 -1 #SUP: 2
6024 -1 28 -1 26 -1 5997 -1 8 -1 28 -1 #SUP: 2
6024 -1 28 -1 26 -1 5997 -1 28 -1 26 -1 #SUP: 2
6024 -1 28 -1 5997 -1 8 -1 28 -1 26 -1 #SUP: 2
8 -1 26 -1 5997 -1 6024 -1 8 -1 28 -1 26 -1 #SUP: 3
8 -1 28 -1 26 -1 5997 -1 8 -1 28 -1 26 -1 #SUP: 3
8 -1 28 -1 26 -1 5997 -1 6024 -1 8 -1 26 -1 #SUP: 3
8 -1 28 -1 26 -1 5997 -1 6024 -1 8 -1 28 -1 #SUP: 3
8 -1 28 -1 26 -1 5997 -1 6024 -1 28 -1 26 -1 #SUP: 3
8 -1 28 -1 26 -1 6024 -1 8 -1 28 -1 26 -1 #SUP: 3
8 -1 28 -1 5997 -1 6024 -1 8 -1 28 -1 26 -1 #SUP: 3
26 -1 5997 -1 8 -1 28 -1 26 -1 5997 -1 16702 -1 #SUP: 2
26 -1 5997 -1 6024 -1 8 -1 28 -1 26 -1 5997 -1 #SUP: 3
28 -1 26 -1 5997 -1 8 -1 28 -1 26 -1 5997 -1 #SUP: 3
28 -1 26 -1 5997 -1 6024 -1 8 -1 26 -1 5997 -1 #SUP: 2
28 -1 26 -1 5997 -1 6024 -1 8 -1 28 -1 26 -1 #SUP: 3
28 -1 26 -1 5997 -1 6024 -1 8 -1 28 -1 5997 -1 #SUP: 2
28 -1 26 -1 5997 -1 6024 -1 28 -1 26 -1 5997 -1 #SUP: 2
28 -1 26 -1 6024 -1 8 -1 28 -1 26 -1 5997 -1 #SUP: 2
28 -1 5997 -1 6024 -1 8 -1 28 -1 26 -1 5997 -1 #SUP: 2
5997 -1 8 -1 28 -1 26 -1 5997 -1 8 -1 28 -1 #SUP: 2
5997 -1 6024 -1 8 -1 26 -1 5997 -1 8 -1 28 -1 #SUP: 2
5997 -1 6024 -1 8 -1 28 -1 26 -1 8 -1 28 -1 #SUP: 2
5997 -1 6024 -1 8 -1 28 -1 26 -1 5997 -1 8 -1 #SUP: 2
5997 -1 6024 -1 8 -1 28 -1 26 -1 5997 -1 28 -1 #SUP: 2
5997 -1 6024 -1 8 -1 28 -1 26 -1 5997 -1 6024 -1 #SUP: 2
5997 -1 6024 -1 8 -1 28 -1 5997 -1 8 -1 28 -1 #SUP: 2
5997 -1 6024 -1 28 -1 26 -1 5997 -1 8 -1 28 -1 #SUP: 2
6024 -1 8 -1 26 -1 5997 -1 8 -1 28 -1 26 -1 #SUP: 2
6024 -1 8 -1 28 -1 26 -1 8 -1 28 -1 26 -1 #SUP: 2
6024 -1 8 -1 28 -1 26 -1 5997 -1 8 -1 26 -1 #SUP: 2
6024 -1 8 -1 28 -1 26 -1 5997 -1 8 -1 28 -1 #SUP: 2
6024 -1 8 -1 28 -1 26 -1 5997 -1 28 -1 26 -1 #SUP: 2
6024 -1 8 -1 28 -1 5997 -1 8 -1 28 -1 26 -1 #SUP: 2
6024 -1 28 -1 26 -1 5997 -1 8 -1 28 -1 26 -1 #SUP: 2
8 -1 28 -1 26 -1 5997 -1 6024 -1 8 -1 28 -1 26 -1 #SUP: 3
28 -1 26 -1 5997 -1 6024 -1 8 -1 28 -1 26 -1 5997 -1 #SUP: 2
5997 -1 6024 -1 8 -1 28 -1 26 -1 5997 -1 8 -1 28 -1 #SUP: 2
6024 -1 8 -1 28 -1 26 -1 5997 -1 8 -1 28 -1 26 -1 #SUP: 2
