123 -1 407 -1 2803 -1 1193 -1 50 -1 1345 -1 13285 -1 161081 -1 7267 -1 30 -2
879 -1 1685 -1 1231 -1 16346 -1 77 -1 70 -1 3 -1 7264 -1 396 -1 31 -1 222 -1 30 -2
22 -1 109 -1 17597 -1 17 -1 2406 -1 77 -1 41 -1 1767 -1 65 -1 12336 -1 2 -1 7264 -1 4931 -1 47 -1 6437 -1 655 -1 693 -1 30 -2
452 -1 134665 -1 77 -1 599 -1 260 -1 171 -1 5616 -1 2209 -1 152 -1 16 -1 22 -1 637 -1 27393 -1 161082 -1 10 -1 22 -1 2435 -1 280 -1 77 -1 170 -1 488 -1 922 -1 77 -1 2 -1 7 -1 14407 -1 1535 -1 32 -1 2949 -1 506 -1 374 -1 47 -1 8494 -1 30 -2
5282 -1 2 -1 34962 -1 206 -1 65 -1 168 -1 30 -2
3569 -1 2509 -1 102 -1 22 -1 13194 -1 2 -1 1792 -1 32 -1 18533 -1 10 -1 5420 -1 12376 -1 249 -1 5388 -1 4120 -1 3569 -1 2509 -1 102 -1 22 -1 13194 -1 2 -1 1792 -1 32 -1 18533 -1 10 -1 5420 -1 12376 -1 250 -1 99875 -1 38011 -1 22 -1 132 -1 5388 -1 77 -1 30 -2
642 -1 70 -1 16 -1 356 -1 123 -1 1650 -1 193 -1 33 -1 22 -1 1719 -1 30 -2
1204 -1 2 -1 850 -1 77 -1 123 -1 160 -1 693 -1 196 -1 123 -1 1650 -1 134 -1 431 -1 168 -1 283 -2
8 -1 161084 -1 6122 -1 49022 -1 7526 -1 11438 -1 793 -1 161083 -1 936 -1 142264 -1 77 -1 364 -1 63 -1 77 -1 441 -1 50 -1 10239 -1 30 -2
321 -1 19558 -1 1193 -1 47 -1 4953 -1 123 -1 322 -1 65 -1 161085 -1 30 -2
768 -1 4455 -1 77 -1 599 -1 123 -1 4190 -1 1662 -1 103425 -1 7810 -1 22 -1 728 -1 30 -2
2906 -1 77 -1 964 -1 2864 -1 30 -2
364 -1 520 -1 1499 -1 123 -1 120 -1 233 -1 1737 -1 236 -1 349 -1 190 -1 33 -1 22 -1 1719 -1 77 -1 123 -1 1275 -1 20197 -1 117 -1 65 -1 10239 -1 123 -1 638 -1 12287 -1 33 -1 22 -1 17381 -1 32 -1 326 -1 30782 -1 57061 -1 31 -1 21 -1 3648 -1 77 -1 244 -1 917 -1 193 -1 158 -1 2 -1 161086 -1 123 -1 6436 -1 22 -1 7931 -1 77 -1 1674 -1 134 -1 77 -1 599 -1 123 -1 638 -1 23057 -1 424 -1 7931 -1 2 -1 564 -1 134 -1 10 -1 22 -1 11775 -1 42 -1 63556 -1 284 -1 233 -1 543 -1 117 -1 134 -1 283 -2
27 -1 220 -1 123 -1 765 -1 77 -1 364 -1 65 -1 19423 -1 77 -1 543 -1 117 -1 222 -1 77 -1 749 -1 921 -1 123 -1 3413 -1 411 -1 1 -2
321 -1 3414 -1 33 -1 161087 -1 64 -1 268 -1 3962 -1 520 -1 443 -1 220 -1 499 -1 198 -1 2 -1 144 -1 102 -1 164 -1 193 -1 30 -2
123 -1 120 -1 286 -1 123 -1 407 -1 879 -1 3 -1 3947 -1 64 -1 6317 -1 198 -1 3647 -1 1409 -1 2897 -1 22 -1 3254 -1 32 -1 65 -1 624 -1 10 -1 65 -1 5044 -1 77 -1 198 -1 4087 -1 77 -1 2 -1 117 -1 10922 -1 42 -1 30 -2
22 -1 14278 -1 170 -1 951 -1 171 -1 32 -1 50 -1 7895 -1 10 -1 66 -1 32 -1 3352 -1 77 -1 30 -2
42911 -1 183 -1 652 -1 192 -1 3203 -1 30 -2
693 -1 402 -1 7538 -1 183 -1 890 -1 81 -1 64 -1 4577 -1 233 -1 246 -1 237 -1 8199 -1 30 -2
123 -1 778 -1 3503 -1 154 -1 381 -1 65 -1 12777 -1 170 -1 65 -1 1208 -1 8382 -1 54 -1 77 -1 225 -1 2865 -1 144 -1 596 -1 64 -1 268 -1 27 -1 349 -1 160 -1 30 -2
70 -1 16 -1 78 -1 236 -1 768 -1 55826 -1 262 -1 1965 -1 198 -1 32 -1 3271 -1 77 -1 1214 -1 1602 -1 47040 -1 2 -1 15191 -1 262 -1 1965 -1 77 -1 349 -1 764 -1 65 -1 10762 -1 712 -1 10 -1 22 -1 1380 -1 151 -1 153 -1 22 -1 94 -1 848 -1 30 -2
262 -1 170 -1 714 -1 30 -2
3149 -1 43470 -1 2104 -1 356 -1 326 -1 11822 -1 161089 -1 434 -1 161088 -1 30 -2
13755 -1 11320 -1 2104 -1 356 -1 65 -1 260 -1 5663 -1 12363 -1 30 -2
2 -1 452 -1 1086 -1 10830 -1 364 -1 319 -1 201 -1 30 -2
738 -1 571 -1 1082 -1 77 -1 30 -2
3661 -1 782 -1 488 -1 546 -1 2 -1 2508 -1 64 -1 222 -1 13929 -1 13932 -1 4782 -1 2248 -1 22 -1 161091 -1 31 -1 3870 -1 161090 -1 356 -1 222 -1 30 -2
5113 -1 161092 -1 30 -2
7658 -1 161093 -1 30 -2
161094 -1 30 -2
961 -1 9472 -1 12208 -1 30 -2
22 -1 5524 -1 32 -1 3307 -1 30 -2
22 -1 13353 -1 30 -2
193 -1 2027 -1 77 -1 599 -1 70 -1 192 -1 77 -1 254 -1 162 -1 248 -1 133 -1 10 -1 65 -1 372 -1 2 -1 225 -1 369 -1 1475 -1 41 -1 183 -1 52751 -1 2 -1 406 -1 462 -1 41 -1 1797 -1 33 -1 545 -1 77 -1 3517 -1 318 -1 14804 -1 33355 -1 2 -1 28429 -1 33 -1 3092 -1 41 -1 30 -2
443 -1 378 -1 2 -1 890 -1 608 -1 4520 -1 32 -1 6773 -1 198 -1 32 -1 6379 -1 2 -1 743 -1 1662 -1 103425 -1 3104 -1 22 -1 41016 -1 32 -1 3534 -1 2963 -1 30 -2
171 -1 76 -1 162 -1 123 -1 206 -1 27676 -1 140 -1 411 -1 123 -1 31254 -1 198 -1 32 -1 22 -1 2127 -1 30 -2
260 -1 533 -1 77 -1 1220 -1 30 -2
78 -1 65 -1 1892 -1 430 -1 628 -1 781 -1 41 -1 693 -1 161095 -1 998 -1 9867 -1 599 -1 162 -1 193 -1 1210 -1 308 -1 872 -1 64 -1 193 -1 1035 -1 651 -1 64 -1 670 -1 41 -1 15 -1 170 -1 29 -1 317 -1 646 -1 6 -1 77 -1 30 -2
364 -1 821 -1 64 -1 441 -1 32547 -1 29 -1 7067 -1 30 -2
1707 -1 222 -1 2041 -1 11603 -1 29 -1 3610 -1 321 -1 75050 -1 3029 -1 68326 -1 7392 -1 77 -1 22 -1 2192 -1 7391 -1 3661 -1 15618 -1 157782 -1 161098 -1 161097 -1 256 -1 161096 -1 31 -1 7956 -1 1174 -1 26094 -1 7494 -1 262 -1 170 -1 16 -1 31 -1 225 -1 2456 -1 3615 -1 140 -1 2094 -1 9723 -1 152 -1 369 -1 2906 -1 144 -1 16 -1 356 -1 1738 -1 1067 -1 3522 -1 30 -2
3661 -1 12798 -1 8412 -1 201 -1 593 -1 67 -1 58 -1 10 -1 22 -1 20018 -1 77 -1 164 -1 2248 -1 30 -2
3661 -1 4028 -1 152486 -1 2 -1 3569 -1 280 -1 2508 -1 22 -1 19569 -1 4262 -1 978 -1 6857 -1 30 -2
94129 -1 6282 -1 1907 -1 64 -1 67 -1 29831 -1 10 -1 4050 -1 32 -1 47 -1 1489 -1 30 -2
364 -1 63 -1 77 -1 599 -1 123 -1 260 -1 212 -1 1591 -1 154 -1 637 -1 30 -2
752 -1 22 -1 1574 -1 1152 -1 283 -2
22 -1 151 -1 149 -1 38339 -1 22 -1 151 -1 26529 -1 41 -1 764 -1 64 -1 1150 -1 5060 -1 10 -1 283 -2
22621 -1 1156 -1 170 -1 22 -1 544 -1 624 -1 123 -1 407 -1 913 -1 262 -1 491 -1 77 -1 171 -1 32 -1 22 -1 544 -1 2704 -1 123 -1 407 -1 913 -1 1685 -1 30 -2
17003 -1 32 -1 22 -1 8450 -1 2993 -1 170 -1 22 -1 544 -1 54 -1 64 -1 142 -1 198 -1 32 -1 15955 -1 1685 -1 16562 -1 144161 -1 10 -1 22 -1 4639 -1 15854 -1 2 -1 22 -1 2864 -1 32 -1 12080 -1 30 -2
22 -1 259 -1 32 -1 161099 -1 444 -1 41 -1 670 -1 774 -1 161100 -1 206 -1 603 -1 77 -1 749 -1 1205 -1 35618 -1 144 -1 102 -1 356 -1 154 -1 2107 -1 10 -1 318 -1 1273 -1 187 -1 1 -2
140 -1 22 -1 417 -1 67587 -1 77 -1 7985 -1 158 -1 152 -1 203 -1 753 -1 1141 -1 222 -1 152 -1 7270 -1 1210 -1 274 -1 30 -2
244 -1 499 -1 1032 -1 77 -1 15 -1 951 -1 797 -1 794 -1 77 -1 126 -1 9666 -1 256 -1 22 -1 2411 -1 31 -1 22 -1 1970 -1 32 -1 704 -1 317 -1 7883 -1 244 -1 789 -1 22 -1 316 -1 109 -1 33 -1 1141 -1 29 -1 247 -1 77 -1 152 -1 30 -2
3661 -1 161101 -1 71972 -1 13613 -1 59993 -1 161102 -1 1223 -1 23383 -1 3661 -1 22 -1 10393 -1 19125 -1 164 -1 2248 -1 3661 -1 1220 -1 1220 -1 88558 -1 19119 -1 3661 -1 694 -1 22867 -1 123 -1 613 -1 1214 -1 8544 -1 93219 -1 4782 -1 2248 -1 30 -2
78 -1 192 -1 78 -1 193 -1 633 -1 161103 -1 206 -1 1157 -1 556 -1 64 -1 21654 -1 30 -2
22 -1 161104 -1 6162 -1 190 -1 845 -1 3519 -1 64 -1 543 -1 117 -1 77 -1 533 -1 77 -1 2 -1 1721 -1 196 -1 15 -1 32 -1 22 -1 76 -1 30 -2
22 -1 161105 -1 19978 -1 190 -1 652 -1 192 -1 30 -2
70 -1 65 -1 6238 -1 31228 -1 972 -1 5717 -1 65 -1 13289 -1 3455 -1 30 -2
27 -1 170 -1 16 -1 8146 -1 291 -1 262 -1 4470 -1 30 -2
193 -1 548 -1 222 -1 8496 -1 4949 -1 123 -1 322 -1 193 -1 77 -1 567 -1 413 -1 3533 -1 193 -1 193 -1 212 -1 6206 -1 222 -1 2157 -1 64 -1 543 -1 117 -1 30 -2
123 -1 924 -1 262 -1 2366 -1 78 -1 246 -1 67 -1 65 -1 168 -1 678 -1 64 -1 378 -1 65 -1 2864 -1 154 -1 1417 -1 64 -1 65 -1 46 -1 32 -1 759 -1 77 -1 326 -1 3116 -1 7240 -1 692 -1 24714 -1 369 -1 422 -1 123 -1 488 -1 3448 -1 34583 -1 32 -1 76 -1 164 -1 77 -1 566 -1 638 -1 3 -1 77 -1 32 -1 842 -1 78 -1 170 -1 72 -1 30 -2
1726 -1 27 -1 364 -1 1051 -1 30 -2
499 -1 2124 -1 77 -1 2940 -1 64 -1 22 -1 1424 -1 2 -1 2034 -1 693 -1 161106 -1 2 -1 65 -1 8710 -1 77 -1 2940 -1 64 -1 22 -1 12079 -1 2 -1 907 -1 77 -1 1724 -1 22 -1 161106 -1 2 -1 225 -1 1664 -1 753 -1 22 -1 5465 -1 2284 -1 196 -1 5663 -1 2 -1 22 -1 225 -1 30 -2
123 -1 206 -1 5963 -1 2787 -1 152 -1 161107 -1 30 -2
123 -1 826 -1 668 -1 164 -1 571 -1 1483 -1 4005 -1 2 -1 1157 -1 17350 -1 77 -1 1363 -1 7 -1 65 -1 2864 -1 77 -1 193 -1 5187 -1 64 -1 67 -1 7326 -1 30 -2
64 -1 441 -1 2094 -1 668 -1 10 -1 2310 -1 3338 -1 2 -1 6874 -1 668 -1 30 -2
8 -1 28 -1 26 -1 161108 -1 65 -1 168 -1 604 -1 31 -1 22 -1 1779 -1 32 -1 276 -1 30 -2
246 -1 22 -1 417 -1 41 -1 711 -1 193 -1 559 -1 77 -1 248 -1 16 -1 381 -1 786 -1 77 -1 599 -1 248 -1 656 -1 64 -1 67 -1 27 -1 213 -1 225 -1 694 -1 41 -1 41 -1 921 -1 67 -1 77 -1 152 -1 7246 -1 77 -1 248 -1 373 -1 769 -1 196 -1 1341 -1 77 -1 2 -1 5269 -1 193 -1 198 -1 30 -2
3006 -1 280 -1 2521 -1 468 -1 3456 -1 2 -1 613 -1 64 -1 6111 -1 744 -1 31 -1 22 -1 1970 -1 32 -1 1166 -1 77 -1 499 -1 31 -1 1263 -1 30 -2
533 -1 77 -1 16 -1 222 -1 77 -1 364 -1 65 -1 3142 -1 30 -2
151 -1 1730 -1 64 -1 41 -1 77 -1 710 -1 77 -1 10 -1 29 -1 21888 -1 30 -2
151 -1 1730 -1 64 -1 1741 -1 4843 -1 30 -2
123 -1 477 -1 70 -1 544 -1 64 -1 800 -1 198 -1 32 -1 213 -1 3134 -1 21888 -1 30 -2
225 -1 226 -1 67 -1 225 -1 77 -1 17759 -1 318 -1 6681 -1 226 -1 161109 -1 318 -1 1357 -1 2 -1 349 -1 226 -1 403 -1 744 -1 117 -1 65 -1 1335 -1 444 -1 349 -1 226 -1 67 -1 30 -2
123 -1 11354 -1 161110 -1 77 -1 285 -1 1102 -1 144 -1 41 -1 286 -1 123 -1 356 -1 161106 -1 1 -2
1275 -1 41 -1 1281 -1 154 -1 1441 -1 77 -1 123 -1 477 -1 5902 -1 67 -1 1094 -1 64 -1 499 -1 237 -1 22 -1 59800 -1 32 -1 704 -1 93 -1 30 -2
642 -1 2 -1 30185 -1 1021 -1 77 -1 22 -1 861 -1 77 -1 30 -2
2 -1 749 -1 283 -1 1 -2
70 -1 50 -1 1021 -1 123 -1 2803 -1 31 -1 193 -1 77 -1 236 -1 123 -1 160 -1 64 -1 266 -1 193 -1 152 -1 7192 -1 193 -1 198 -1 32 -1 65 -1 130 -1 728 -1 117 -1 65 -1 24739 -1 123 -1 477 -1 452 -1 50 -1 2 -1 10 -1 22 -1 17936 -1 851 -1 77 -1 704 -1 1215 -1 283 -2
8 -1 28 -1 26 -1 161111 -1 123 -1 220 -1 266 -1 5663 -1 3390 -1 2 -1 1498 -1 13642 -1 77 -1 123 -1 212 -1 2643 -1 364 -1 1551 -1 24199 -1 53363 -1 6989 -1 33 -1 27112 -1 28725 -1 41906 -1 2 -1 6163 -1 65 -1 2681 -1 9285 -1 36247 -1 154 -1 6732 -1 655 -1 50 -1 12017 -1 30 -2
364 -1 4096 -1 1211 -1 30 -2
8 -1 10603 -1 10602 -1 161113 -1 161112 -1 1654 -1 193 -1 21731 -1 244 -1 396 -1 441 -1 41 -1 879 -1 16371 -1 693 -1 5215 -1 443 -1 15188 -1 78 -1 1017 -1 78 -1 381 -1 176 -1 161114 -1 3426 -1 1 -2
14302 -1 77 -1 31 -1 3578 -1 6206 -1 64 -1 863 -1 278 -1 19492 -1 2688 -1 983 -1 536 -1 117 -1 95 -1 164 -1 30 -2
8 -1 16516 -1 634 -1 161117 -1 161116 -1 161115 -1 41 -1 69473 -1 154 -1 106464 -1 77 -1 1316 -1 283 -1 1 -2
1316 -1 283 -1 1 -1 283 -1 1 -2
41 -1 2760 -1 30 -2
41 -1 921 -1 67 -1 821 -1 123 -1 233 -1 1794 -1 1939 -1 41 -1 10 -1 22 -1 538 -1 678 -1 77 -1 55684 -1 30 -2
235 -1 77 -1 364 -1 63458 -1 30 -2
50 -1 471 -1 1000 -1 170 -1 3182 -1 77 -1 152 -1 6589 -1 10472 -1 77 -1 78 -1 123 -1 356 -1 64 -1 2521 -1 65 -1 139517 -1 30 -2
123 -1 356 -1 3722 -1 167 -1 77 -1 4088 -1 167 -1 154 -1 225 -1 220 -1 378 -1 755 -1 145 -1 213 -1 33 -1 65 -1 3840 -1 1131 -1 77 -1 30 -2
50 -1 1899 -1 630 -1 1275 -1 154 -1 123 -1 633 -1 356 -1 22 -1 16618 -1 256 -1 12798 -1 23245 -1 2 -1 12179 -1 29131 -1 30 -2
533 -1 65 -1 401 -1 225 -1 117 -1 262 -1 5044 -1 3705 -1 123 -1 499 -1 64 -1 8020 -1 433 -1 765 -1 123 -1 1603 -1 134 -1 32 -1 65 -1 2118 -1 30 -2
32552 -1 30 -2
826 -1 2468 -1 140 -1 965 -1 1738 -1 193 -1 10 -1 65 -1 5044 -1 30 -2
123 -1 120 -1 441 -1 64 -1 765 -1 596 -1 151 -1 77 -1 212 -1 1664 -1 154 -1 624 -1 30 -2