16 -1 260 -1 77 -1 349 -1 190 -1 3369 -1 123 -1 227 -1 154 -1 566 -1 170 -1 962 -1 32 -1 222 -1 283 -2
642 -1 185 -1 30 -2
123 -1 711 -1 50 -1 3649 -1 8062 -1 5058 -1 30 -2
123 -1 1332 -1 6021 -1 21084 -1 2 -1 566 -1 630 -1 566 -1 165 -1 1707 -1 222 -1 340 -1 78 -1 566 -1 2366 -1 441 -1 2084 -1 2 -1 244 -1 566 -1 648 -1 2 -1 1320 -1 222 -1 64 -1 1654 -1 193 -1 158 -1 836 -1 162 -1 443 -1 1619 -1 396 -1 30 -2
123 -1 174 -1 16 -1 22 -1 383 -1 32 -1 1425 -1 369 -1 3156 -1 158 -1 164 -1 30 -2
154 -1 170 -1 27 -1 1321 -1 285 -1 183 -1 41 -1 1 -2
274 -1 2 -1 274 -1 1165 -1 349 -1 356 -1 41 -1 1 -2
123 -1 356 -1 65 -1 637 -1 369 -1 123 -1 174 -1 1433 -1 65 -1 431 -1 81 -1 76 -1 5644 -1 254 -1 443 -1 183 -1 520 -1 1184 -1 30 -2
123 -1 174 -1 1216 -1 11 -1 2 -1 443 -1 441 -1 693 -1 7257 -1 5400 -1 10 -1 1578 -1 30 -2
117 -1 538 -1 123 -1 205 -1 566 -1 206 -1 683 -1 152 -1 30 -2
566 -1 648 -1 2742 -1 222 -1 872 -1 123 -1 286 -1 262 -1 48 -1 637 -1 968 -1 222 -1 30 -2
416 -1 447 -1 585 -1 9627 -1 533 -1 30 -2
566 -1 517 -1 6618 -1 222 -1 2 -1 2020 -1 6688 -1 152 -1 4832 -1 64 -1 50 -1 6688 -1 77 -1 599 -1 10 -1 365 -1 416 -1 1321 -1 222 -1 64 -1 6161 -1 198 -1 77 -1 1321 -1 291 -1 50 -1 13 -1 77 -1 456 -1 77 -1 30 -2
123 -1 3632 -1 16 -1 64 -1 30 -2
123 -1 212 -1 3065 -1 64 -1 22 -1 213 -1 1902 -1 32 -1 22 -1 372 -1 1727 -1 123 -1 174 -1 520 -1 762 -1 13697 -1 30 -2
64 -1 6536 -1 193 -1 77 -1 123 -1 1438 -1 2 -1 5357 -1 164 -1 505 -1 836 -1 30 -2
599 -1 47 -1 9167 -1 189 -1 548 -1 222 -1 3649 -1 30 -2
123 -1 174 -1 5399 -1 64 -1 2209 -1 236 -1 123 -1 334 -1 21048 -1 505 -1 30 -2
123 -1 127 -1 77 -1 381 -1 2880 -1 2 -1 8865 -1 183 -1 50 -1 111233 -1 30 -2
193 -1 170 -1 3502 -1 1429 -1 154 -1 193 -1 170 -1 222 -1 77 -1 16 -1 505 -1 30 -2
16 -1 233 -1 1461 -1 4090 -1 31 -1 505 -1 77 -1 599 -1 123 -1 529 -1 340 -1 30 -2
6655 -1 126 -1 77 -1 566 -1 170 -1 196 -1 6930 -1 64 -1 7182 -1 144 -1 193 -1 30 -2
3121 -1 77 -1 599 -1 16 -1 127 -1 30 -2
123 -1 391 -1 1332 -1 10 -1 365 -1 30 -2
566 -1 206 -1 16906 -1 16905 -1 274 -1 1874 -1 162 -1 123 -1 1332 -1 2 -1 1411 -1 222 -1 22 -1 3413 -1 836 -1 154 -1 566 -1 7 -1 3 -1 1161 -1 164 -1 395 -1 756 -1 30 -2
193 -1 170 -1 964 -1 77 -1 599 -1 488 -1 283 -2
123 -1 120 -1 160 -1 64 -1 67 -1 73 -1 7020 -1 31 -1 30 -2
31193 -1 1348 -1 505 -1 396 -1 77 -1 262 -1 76 -1 123 -1 206 -1 431 -1 4008 -1 2 -1 1700 -1 30 -2
27 -1 848 -1 123 -1 356 -1 29 -1 5621 -1 127 -1 1 -2
566 -1 1884 -1 154 -1 65 -1 1219 -1 30 -2
566 -1 968 -1 50 -1 7060 -1 30 -2
3917 -1 3917 -1 30 -2
66 -1 430 -1 3057 -1 256 -1 65 -1 637 -1 369 -1 30 -2
123 -1 174 -1 326 -1 11 -1 1425 -1 369 -1 12197 -1 158 -1 30 -2
123 -1 16697 -1 718 -1 30202 -1 30201 -1 2104 -1 154 -1 183 -1 2354 -1 77 -1 599 -1 16 -1 6564 -1 1712 -1 30 -2
193 -1 170 -1 65 -1 1211 -1 463 -1 32 -1 24719 -1 2 -1 4228 -1 30 -2
236 -1 41 -1 322 -1 65 -1 1425 -1 369 -1 170 -1 223 -1 1712 -1 30 -2
994 -1 77 -1 262 -1 170 -1 22 -1 851 -1 2 -1 16 -1 154 -1 566 -1 170 -1 237 -1 200 -1 1027 -1 196 -1 30 -2
3873 -1 64 -1 222 -1 77 -1 566 -1 170 -1 431 -1 3013 -1 30 -2
123 -1 174 -1 151 -1 3280 -1 11338 -1 657 -1 170 -1 749 -1 193 -1 170 -1 35052 -1 154 -1 65 -1 2415 -1 2412 -1 156 -1 170 -1 233 -1 4153 -1 64 -1 222 -1 30 -2
41 -1 1913 -1 2918 -1 326 -1 8011 -1 98419 -1 77 -1 599 -1 566 -1 334 -1 283 -2
452 -1 27 -1 7745 -1 50 -1 863 -1 30 -2
246 -1 77 -1 262 -1 1905 -1 65 -1 1219 -1 30 -2
126 -1 566 -1 170 -1 22 -1 132 -1 417 -1 30 -2
566 -1 170 -1 520 -1 237 -1 222 -1 77 -1 12489 -1 33 -1 64 -1 50 -1 68 -1 1669 -1 77 -1 1321 -1 1574 -1 212 -1 64 -1 711 -1 222 -1 6161 -1 291 -1 77 -1 2 -1 244 -1 123 -1 3761 -1 505 -1 65 -1 1874 -1 1321 -1 236 -1 566 -1 1379 -1 64 -1 3448 -1 30 -2
123 -1 286 -1 566 -1 1379 -1 222 -1 64 -1 67 -1 22 -1 87925 -1 30 -2
566 -1 212 -1 4216 -1 15526 -1 6186 -1 2 -1 7604 -1 123 -1 1777 -1 134 -1 158 -1 30 -2
196 -1 699 -1 566 -1 1205 -1 340 -1 123 -1 174 -1 699 -1 117 -1 14876 -1 356 -1 154 -1 30 -2
123 -1 1164 -1 566 -1 206 -1 78 -1 1300 -1 291 -1 381 -1 11801 -1 140 -1 30 -2
262 -1 701 -1 5759 -1 64 -1 704 -1 1984 -1 30 -2
123 -1 268 -1 22 -1 1039 -1 154 -1 123 -1 441 -1 64 -1 2877 -1 505 -1 164 -1 2566 -1 20074 -1 254 -1 566 -1 701 -1 520 -1 9475 -1 2 -1 383 -1 3147 -1 30 -2
123 -1 356 -1 154 -1 291 -1 505 -1 30 -2
212 -1 120 -1 1034 -1 749 -1 566 -1 170 -1 30 -2
1670 -1 9626 -1 11 -1 1425 -1 936 -1 30 -2
262 -1 683 -1 507 -1 700 -1 64 -1 50 -1 756 -1 678 -1 31 -1 65 -1 2563 -1 76 -1 2 -1 7 -1 1112 -1 23665 -1 10 -1 50 -1 13 -1 30 -2
50 -1 13518 -1 7 -1 16 -1 3400 -1 4222 -1 2 -1 566 -1 170 -1 10325 -1 196 -1 30 -2
123 -1 564 -1 411 -1 30 -2
566 -1 170 -1 15 -1 150 -1 10 -1 1897 -1 30 -2
431 -1 81 -1 31 -1 222 -1 64 -1 1105 -1 1524 -1 30 -2
123 -1 174 -1 326 -1 11 -1 1425 -1 30 -2
262 -1 394 -1 9842 -1 937 -1 375 -1 10 -1 958 -1 30 -2
566 -1 206 -1 65 -1 7346 -1 3150 -1 369 -1 638 -1 326 -1 1904 -1 1277 -1 2 -1 334 -1 16 -1 9218 -1 164 -1 1263 -1 384 -1 30 -2
710 -1 566 -1 2 -1 123 -1 190 -1 1030 -1 7750 -1 2 -1 65 -1 46 -1 588 -1 154 -1 77 -1 1225 -1 193 -1 10923 -1 755 -1 309 -1 24508 -1 31 -1 15 -1 11 -1 1059 -1 77 -1 123 -1 286 -1 30 -2
249 -1 30 -1 1688 -1 47 -1 1214 -1 2270 -1 2270 -1 2 -1 67 -1 127 -1 6095 -1 1408 -1 71316 -1 125296 -1 64 -1 15058 -1 630 -1 666 -1 30 -2
2252 -1 134 -1 64 -1 286 -1 41 -1 1591 -1 134 -1 77 -1 30 -2
57 -1 396 -1 77 -1 220 -1 443 -1 3060 -1 441 -1 693 -1 660 -1 11 -1 8282 -1 3060 -1 1 -2
1734 -1 134 -1 164 -1 7569 -1 77 -1 599 -1 67 -1 786 -1 30 -2
154 -1 7 -1 1061 -1 603 -1 31 -1 222 -1 30 -2
1191 -1 77 -1 443 -1 183 -1 13718 -1 30 -2
452 -1 749 -1 443 -1 764 -1 1829 -1 225 -1 64 -1 1943 -1 318 -1 317 -1 164 -1 1263 -1 30 -2
123 -1 174 -1 326 -1 11 -1 1425 -1 77 -1 28058 -1 30457 -1 2 -1 6383 -1 32 -1 1115 -1 164 -1 671 -1 1480 -1 32 -1 243 -1 14876 -1 30 -2
123 -1 937 -1 31767 -1 164 -1 65 -1 46 -1 256 -1 608 -1 1927 -1 2 -1 123 -1 286 -1 566 -1 206 -1 326 -1 1171 -1 1818 -1 123 -1 174 -1 16 -1 30 -2
11 -1 6538 -1 2172 -1 3389 -1 30 -2
452 -1 22 -1 73 -1 54 -1 283 -2
123 -1 441 -1 65 -1 6538 -1 2172 -1 31 -1 30 -2
1978 -1 2568 -1 30 -2
443 -1 144 -1 441 -1 8335 -1 1605 -1 77 -1 2091 -1 162 -1 193 -1 1210 -1 64 -1 704 -1 4126 -1 30 -2
123 -1 1150 -1 165 -1 483 -1 198 -1 66 -1 123 -1 220 -1 30 -2
39537 -1 283 -2
123 -1 441 -1 567 -1 1084 -1 164 -1 373 -1 10 -1 22 -1 3446 -1 33 -1 50 -1 317 -1 30 -2
599 -1 162 -1 123 -1 11824 -1 64 -1 6613 -1 444 -1 123 -1 120 -1 340 -1 225 -1 1770 -1 283 -2
77 -1 123 -1 120 -1 221 -1 193 -1 30 -2
4381 -1 77 -1 2314 -1 2 -1 29569 -1 1533 -1 5868 -1 37561 -1 291 -1 225 -1 3676 -1 33 -1 318 -1 1056 -1 77 -1 3747 -1 77 -1 5362 -1 77 -1 3917 -1 30 -2
200 -1 369 -1 220 -1 8154 -1 1217 -1 1127 -1 256 -1 7062 -1 3714 -1 64 -1 30 -2
123 -1 1913 -1 3631 -1 31 -1 66 -1 11 -1 1059 -1 2 -1 5803 -1 77 -1 16 -1 233 -1 1191 -1 154 -1 768 -1 170 -1 326 -1 11 -1 16 -1 445 -1 1435 -1 30 -2
599 -1 123 -1 226 -1 694 -1 41 -1 50 -1 355 -1 32 -1 3400 -1 30 -2
193 -1 170 -1 787 -1 283 -2
123 -1 120 -1 477 -1 10 -1 193 -1 152 -1 193 -1 7078 -1 30 -2
268 -1 262 -1 123 -1 223 -1 268 -1 262 -1 256 -1 197 -1 77 -1 318 -1 1180 -1 2 -1 50 -1 1180 -1 183 -1 41 -1 1024 -1 1 -2
222 -1 567 -1 30 -2
41 -1 543 -1 125297 -1 921 -1 3893 -1 30 -2
222 -1 123 -1 120 -1 286 -1 520 -1 30 -2
16 -1 31 -1 29 -1 2231 -1 30 -2
27 -1 220 -1 30 -2
2864 -1 32 -1 50 -1 13 -1 283 -2
753 -1 123 -1 206 -1 291 -1 5141 -1 77 -1 2010 -1 165 -1 83 -1 64 -1 3146 -1 222 -1 198 -1 32 -1 22 -1 12353 -1 2973 -1 164 -1 77 -1 3413 -1 222 -1 77 -1 262 -1 170 -1 65 -1 12353 -1 2973 -1 283 -2
162 -1 123 -1 206 -1 7082 -1 2 -1 6744 -1 1032 -1 10 -1 50 -1 30 -2
154 -1 206 -1 22 -1 1762 -1 162 -1 123 -1 13231 -1 198 -1 32 -1 193 -1 65 -1 671 -1 138 -1 536 -1 30 -2
567 -1 6018 -1 520 -1 1241 -1 30 -2
193 -1 7 -1 1743 -1 3830 -1 9697 -1 411 -1 2658 -1 50311 -1 291 -1 27 -1 174 -1 123 -1 1051 -1 164 -1 222 -1 13 -1 1 -2
123 -1 441 -1 392 -1 22 -1 6233 -1 291 -1 222 -1 1141 -1 64 -1 50 -1 959 -1 152 -1 3533 -1 50 -1 536 -1 22 -1 677 -1 737 -1 30 -2
6136 -1 17304 -1 371 -1 8072 -1 1904 -1 3999 -1 3481 -1 693 -1 306 -1 4241 -1 1470 -1 3710 -1 65 -1 1219 -1 468 -1 41 -1 921 -1 1442 -1 154 -1 1685 -1 123 -1 206 -1 5520 -1 291 -1 22 -1 132 -1 1441 -1 30 -2
22 -1 1281 -1 260 -1 170 -1 567 -1 30 -2
201 -1 170 -1 65 -1 9567 -1 599 -1 123 -1 120 -1 863 -1 22 -1 1152 -1 76 -1 30 -2
193 -1 220 -1 268 -1 2078 -1 236 -1 41 -1 1707 -1 193 -1 123 -1 1867 -1 77 -1 599 -1 30 -2
123 -1 31201 -1 411 -1 64 -1 650 -1 167 -1 356 -1 2715 -1 2 -1 6411 -1 64 -1 1062 -1 225 -1 280 -1 2346 -1 32 -1 222 -1 30 -2
599 -1 193 -1 334 -1 16 -1 1726 -1 225 -1 256 -1 541 -1 154 -1 123 -1 174 -1 3675 -1 243 -1 152 -1 8789 -1 30 -2
123 -1 488 -1 268 -1 154 -1 30 -2
498 -1 30 -2
123 -1 441 -1 11766 -1 77 -1 1318 -1 196 -1 384 -1 11766 -1 30 -2
22 -1 227 -1 2 -1 24145 -1 10047 -1 222 -1 30 -2
50 -1 663 -1 170 -1 154 -1 123 -1 1838 -1 225 -1 64 -1 1485 -1 15409 -1 162 -1 6511 -1 222 -1 30 -2
10 -1 50 -1 6 -1 77 -1 22 -1 1346 -1 123 -1 441 -1 638 -1 16091 -1 30 -2
123 -1 174 -1 16 -1 2910 -1 31 -1 66 -1 810 -1 77 -1 599 -1 274 -1 76 -1 936 -1 77 -1 123 -1 441 -1 913 -1 154 -1 201 -1 170 -1 65 -1 12537 -1 31 -1 1263 -1 64 -1 67 -1 1030 -1 3288 -1 30 -2
498 -1 2446 -1 77 -1 4496 -1 77 -1 2958 -1 2036 -1 77 -1 410 -1 77 -1 29950 -1 77 -1 152 -1 30 -2
41 -1 183 -1 1163 -1 65 -1 14082 -1 41 -1 183 -1 223 -1 5717 -1 5663 -1 6905 -1 41 -1 183 -1 1163 -1 65 -1 1500 -1 77 -1 3029 -1 11300 -1 94 -1 30 -2
212 -1 3486 -1 283 -2
41 -1 183 -1 520 -1 20532 -1 77 -1 16 -1 8789 -1 117 -1 66 -1 283 -2
22 -1 5142 -1 356 -1 41 -1 520 -1 384 -1 254 -1 41 -1 30 -2
567 -1 77 -1 648 -1 322 -1 2957 -1 30 -2
220 -1 41 -1 1105 -1 222 -1 65 -1 592 -1 1 -2
162 -1 123 -1 206 -1 188 -1 158 -1 77 -1 671 -1 2010 -1 190 -1 3158 -1 64 -1 67 -1 19365 -1 77 -1 44329 -1 77 -1 243 -1 77 -1 3917 -1 30 -2
64 -1 262 -1 44 -1 77 -1 15 -1 20781 -1 10921 -1 5142 -1 16823 -1 2010 -1 5380 -1 30 -2
123 -1 206 -1 22 -1 3812 -1 32 -1 66 -1 22 -1 1700 -1 167 -1 671 -1 30 -2
1191 -1 77 -1 123 -1 488 -1 477 -1 193 -1 30 -2
123 -1 220 -1 73 -1 4047 -1 256 -1 50 -1 6 -1 657 -1 1210 -1 256 -1 9079 -1 2 -1 22 -1 13518 -1 30 -2
21282 -1 183 -1 225 -1 369 -1 30 -2
56275 -1 31079 -1 6021 -1 5547 -1 77 -1 7187 -1 5603 -1 77 -1 8671 -1 4684 -2
424 -1 4999 -1 77 -1 30 -2
193 -1 170 -1 65 -1 2467 -1 1441 -1 77 -1 123 -1 340 -1 30 -2
599 -1 236 -1 1741 -1 7 -1 3620 -1 77 -1 810 -1 144 -1 30 -2
443 -1 711 -1 704 -1 317 -1 1480 -1 78 -1 1070 -1 78 -1 1429 -1 30 -2
520 -1 77 -1 123 -1 165 -1 260 -1 356 -1 64 -1 340 -1 27 -1 41 -1 286 -1 168 -1 7234 -1 170 -1 30 -2
27 -1 170 -1 30 -2
1364 -1 164 -1 154 -1 30 -2
443 -1 17597 -1 21152 -1 22 -1 3120 -1 5424 -1 959 -1 30 -2
3 -1 3801 -1 164 -1 262 -1 171 -1 1212 -1 30 -2
990 -1 2 -1 11 -1 9832 -1 170 -1 65 -1 804 -1 1259 -1 30 -2
123 -1 286 -1 704 -1 1480 -1 32 -1 990 -1 170 -1 65 -1 671 -1 2134 -1 39973 -1 153 -1 693 -1 30 -2
117 -1 22 -1 132 -1 76 -1 77 -1 443 -1 1834 -1 64 -1 286 -1 704 -1 30 -2
31 -1 22 -1 644 -1 3975 -1 156 -1 77 -1 202 -1 16149 -1 10893 -1 30 -2
123 -1 1150 -1 286 -1 10893 -1 30 -2
193 -1 6347 -1 283 -2
22 -1 11 -1 863 -1 30 -2
16 -1 10894 -1 6935 -1 10893 -1 77 -1 657 -1 170 -1 2945 -1 30 -1 599 -1 151 -1 356 -1 262 -1 30 -2
125298 -1 293 -1 77 -1 262 -1 170 -1 50 -1 2684 -1 283 -2