154 -1 170 -1 65 -1 431 -1 1082 -1 2864 -1 30 -2
39 -1 123 -1 1442 -1 27 -1 1806 -1 41 -1 1252 -1 158 -1 1051 -1 1 -2
123 -1 1758 -1 154 -1 123 -1 1713 -1 64 -1 41 -1 10 -1 285 -1 123 -1 488 -1 160 -1 915 -1 3642 -1 77 -1 2 -1 1369 -1 64 -1 1758 -1 154 -1 123 -1 174 -1 965 -1 1250 -1 30 -2
123 -1 286 -1 171 -1 30 -2
57 -1 40 -1 608 -1 76 -1 567 -1 322 -1 308 -1 189 -1 364 -1 7690 -1 65 -1 1219 -1 291 -1 27 -1 123 -1 160 -1 64 -1 144 -1 162 -1 123 -1 8623 -1 77 -1 2 -1 1685 -1 189 -1 170 -1 224 -1 22 -1 76 -1 64 -1 425 -1 7231 -1 64 -1 1796 -1 77 -1 364 -1 53465 -1 2222 -1 32 -1 27 -1 64 -1 30 -2
308 -1 189 -1 123 -1 174 -1 123127 -1 164 -1 326 -1 5 -1 94 -1 30 -2
443 -1 529 -1 1808 -1 64 -1 67 -1 544 -1 668 -1 30 -2
782 -1 965 -1 520 -1 846 -1 123 -1 144 -1 342 -1 340 -1 749 -1 599 -1 202 -1 212 -1 262 -1 409 -1 2156 -1 444 -1 443 -1 1313 -1 64 -1 1034 -1 145 -1 213 -1 30 -2
749 -1 144 -1 430 -1 608 -1 5419 -1 5100 -1 1313 -1 64 -1 268 -1 2468 -1 30 -2
2 -1 749 -1 183 -1 443 -1 520 -1 3950 -1 189 -1 1 -2
364 -1 962 -1 64 -1 499 -1 536 -1 64 -1 395 -1 77 -1 599 -1 117 -1 22 -1 132 -1 76 -1 123 -1 990 -1 443 -1 212 -1 16587 -1 425 -1 2910 -1 356 -1 443 -1 2301 -1 64 -1 22 -1 30 -2
1300 -1 424 -1 491 -1 64 -1 41 -1 66 -1 123 -1 120 -1 142 -1 140 -1 936 -1 433 -1 599 -1 123 -1 223 -1 483 -1 411 -1 1793 -1 151 -1 2 -1 151 -1 77 -1 2 -1 212 -1 1973 -1 222 -1 268 -1 140 -1 10 -1 13 -1 384 -1 2636 -1 30 -2
123 -1 1758 -1 356 -1 123 -1 1034 -1 520 -1 384 -1 189 -1 210 -1 364 -1 520 -1 199 -1 30 -2
262 -1 2791 -1 1209 -1 7 -1 3 -1 65 -1 3534 -1 1022 -1 30 -2
2 -1 123 -1 517 -1 375 -1 64 -1 322 -1 41 -1 117 -1 66 -1 77 -1 41 -1 630 -1 443 -1 165 -1 30 -2
123 -1 2547 -1 41 -1 520 -1 384 -1 599 -1 193 -1 4109 -1 64 -1 2209 -1 236 -1 41 -1 2547 -1 222 -1 78 -1 384 -1 189 -1 30 -2
41 -1 120 -1 1313 -1 30 -2
2055 -1 850 -1 65 -1 8041 -1 263 -1 30 -2
123 -1 529 -1 174 -1 326 -1 48 -1 8041 -1 152 -1 123 -1 286 -1 123 -1 174 -1 30 -2
70 -1 3 -1 65 -1 491 -1 32 -1 3418 -1 755 -1 683 -1 152 -1 48 -1 599 -1 989 -1 77 -1 2 -1 364 -1 520 -1 8924 -1 64 -1 16 -1 67 -1 1152 -1 1039 -1 1127 -1 2897 -1 30 -2
1220 -1 123 -1 165 -1 1364 -1 164 -1 123128 -1 30 -2
26685 -1 280 -1 301 -1 1099 -1 1734 -1 66 -1 64137 -1 1533 -1 260 -1 5115 -1 64 -1 2977 -1 2279 -1 5965 -1 222 -1 78 -1 1171 -1 152 -1 1900 -1 35952 -1 123 -1 286 -1 170 -1 11 -1 17437 -1 6750 -1 17437 -1 280 -1 520 -1 1700 -1 599 -1 47 -1 30 -2
23131 -1 693 -1 10787 -1 2805 -1 6782 -1 368 -1 162 -1 76 -1 170 -1 308 -1 123 -1 1834 -1 64 -1 1022 -1 591 -1 10 -1 393 -1 77 -1 789 -1 22 -1 73 -1 321 -1 589 -1 4550 -1 908 -1 123 -1 340 -1 77 -1 83 -1 64 -1 268 -1 198 -1 2 -1 499 -1 31 -1 693 -1 3492 -1 77 -1 2 -1 10 -1 1355 -1 82 -1 123 -1 210 -1 3901 -1 193 -1 66 -1 198 -1 1914 -1 260 -1 1 -2
246 -1 65 -1 624 -1 32 -1 193 -1 170 -1 2019 -1 198 -1 51 -1 491 -1 30 -2
364 -1 1051 -1 65 -1 4054 -1 1412 -1 33 -1 193 -1 965 -1 30 -2
22 -1 923 -1 73 -1 2284 -1 398 -1 210 -1 123 -1 407 -1 223 -1 1320 -1 64 -1 62 -1 1741 -1 1027 -1 280 -1 805 -1 33 -1 262 -1 77 -1 2091 -1 200 -1 369 -1 1207 -1 291 -1 1261 -1 30 -2
123 -1 3374 -1 123 -1 284 -1 425 -1 164 -1 22 -1 703 -1 154 -1 441 -1 929 -1 193 -1 2 -1 441 -1 693 -1 3904 -1 30 -2
123 -1 165 -1 286 -1 30 -2
4852 -1 823 -1 31 -1 22 -1 4832 -1 549 -1 850 -1 123 -1 2643 -1 70 -1 1837 -1 65 -1 417 -1 64 -1 2279 -1 376 -1 151 -1 291 -1 786 -1 2 -1 483 -1 398 -1 167 -1 64 -1 670 -1 41 -1 1803 -1 77 -1 599 -1 193 -1 529 -1 212 -1 1973 -1 64 -1 340 -1 2006 -1 16 -1 1152 -1 30 -2
520 -1 123 -1 174 -1 1191 -1 65 -1 1219 -1 32 -1 22 -1 48 -1 1440 -1 3191 -1 7 -1 117 -1 124 -1 913 -1 262 -1 52 -1 1275 -1 152 -1 3721 -1 8 -1 28 -1 26 -1 105954 -1 27 -1 123 -1 160 -1 64 -1 340 -1 170 -1 154 -1 170 -1 193 -1 431 -1 4223 -1 48 -1 356 -1 64 -1 30 -2
35 -1 123 -1 700 -1 95 -1 77 -1 2 -1 535 -1 65 -1 401 -1 827 -1 123 -1 212 -1 2050 -1 872 -1 2051 -1 31 -1 22 -1 538 -1 76 -1 879 -1 30 -2
123 -1 120 -1 260 -1 340 -1 27 -1 10522 -1 64 -1 193 -1 30 -2
269 -1 395 -1 212 -1 701 -1 64 -1 16 -1 67 -1 50 -1 678 -1 30 -2
123 -1 205 -1 291 -1 1691 -1 30 -2
123 -1 120 -1 260 -1 863 -1 3649 -1 24984 -1 77 -1 753 -1 123 -1 268 -1 22 -1 1039 -1 154 -1 349 -1 1758 -1 65 -1 720 -1 5552 -1 30 -2
452 -1 162 -1 3649 -1 622 -1 48 -1 8906 -1 10 -1 210 -1 123129 -1 1 -2
672 -1 850 -1 1004 -1 268 -1 64 -1 1281 -1 262 -1 30 -2
123 -1 990 -1 41 -1 220 -1 488 -1 3396 -1 2 -1 4922 -1 262 -1 535 -1 65 -1 3340 -1 249 -1 30 -1 7890 -1 1653 -1 123 -1 210 -1 488 -1 67 -1 8924 -1 364 -1 16 -1 2168 -1 158 -1 2 -1 441 -1 567 -1 4836 -1 117 -1 66 -1 77 -1 207 -1 5542 -1 1031 -1 30 -2
248 -1 8816 -1 3653 -1 548 -1 222 -1 50198 -1 10 -1 9804 -1 642 -1 1249 -1 210 -1 1914 -1 246 -1 1238 -1 22 -1 9558 -1 77 -1 657 -1 165 -1 41 -1 765 -1 364 -1 951 -1 5759 -1 64 -1 1 -2
2 -1 33 -1 65 -1 815 -1 178 -1 27 -1 848 -1 29 -1 357 -1 127 -1 1 -2
740 -1 123 -1 3660 -1 154 -1 4292 -1 965 -1 30 -2
15 -1 32 -1 27 -1 566 -1 206 -1 541 -1 291 -1 48 -1 5942 -1 64 -1 222 -1 965 -1 77 -1 599 -1 201 -1 190 -1 488 -1 65 -1 401 -1 21972 -1 33 -1 22 -1 683 -1 599 -1 123 -1 1867 -1 154 -1 284 -1 67 -1 1257 -1 30 -2
488 -1 160 -1 64 -1 322 -1 30 -2
1914 -1 850 -1 3060 -1 520 -1 123 -1 212 -1 52 -1 65 -1 9558 -1 10 -1 22 -1 48 -1 1440 -1 30 -2
220 -1 1741 -1 3060 -1 654 -1 65 -1 543 -1 1 -2
249 -1 27 -1 6086 -1 32 -1 29 -1 241 -1 826 -1 41 -1 2222 -1 32 -1 29 -1 156 -1 1 -2
141 -1 146 -1 30 -2
123 -1 441 -1 11502 -1 193 -1 872 -1 64 -1 48 -1 2 -1 683 -1 77 -1 599 -1 123 -1 441 -1 529 -1 3058 -1 1896 -1 30 -2
123 -1 4540 -1 929 -1 33 -1 285 -1 531 -1 183 -1 30 -2
452 -1 1082 -1 30 -2
246 -1 144 -1 41 -1 441 -1 175 -1 485 -1 33 -1 27 -1 157 -1 123 -1 921 -1 67 -1 1712 -1 64 -1 1757 -1 1 -2
683 -1 1 -2
123130 -1 30 -2
123 -1 356 -1 262 -1 263 -1 30 -2
738 -1 133 -1 2171 -1 10 -1 22 -1 287 -1 212 -1 3414 -1 31 -1 41 -1 64 -1 1449 -1 134 -1 77 -1 138 -1 738 -1 10 -1 318 -1 317 -1 972 -1 1478 -1 32 -1 68 -1 1296 -1 1429 -1 54 -1 64 -1 765 -1 77 -1 2 -1 162 -1 41 -1 144 -1 1449 -1 134 -1 29 -1 5136 -1 30 -2
165 -1 1741 -1 356 -1 64 -1 654 -1 65 -1 543 -1 117 -1 222 -1 2 -1 519 -1 29 -1 4420 -1 1 -2
123 -1 340 -1 123 -1 391 -1 260 -1 3 -1 33 -1 29422 -1 384 -1 77 -1 599 -1 123 -1 937 -1 375 -1 308 -1 536 -1 237 -1 1261 -1 782 -1 520 -1 81 -1 64 -1 800 -1 591 -1 2055 -1 254 -1 32 -1 693 -1 30 -2
2306 -1 308 -1 189 -1 77 -1 2 -1 123 -1 144 -1 342 -1 286 -1 364 -1 14328 -1 30 -2
2 -1 782 -1 16 -1 356 -1 123 -1 391 -1 3 -1 7996 -1 64 -1 193 -1 77 -1 734 -1 222 -1 123 -1 441 -1 30 -2
193 -1 2366 -1 67 -1 1727 -1 123 -1 1758 -1 151 -1 3126 -1 77 -1 599 -1 70 -1 468 -1 254 -1 123 -1 220 -1 67 -1 22 -1 7870 -1 30 -2
1914 -1 1220 -1 123 -1 1318 -1 938 -1 2051 -1 117 -1 154 -1 888 -1 58013 -1 782 -1 256 -1 65 -1 1105 -1 1914 -1 30 -2
1023 -1 76 -1 283 -2
431 -1 603 -1 236 -1 41 -1 160 -1 64 -1 212 -1 30 -2
246 -1 64 -1 564 -1 193 -1 1837 -1 77 -1 268 -1 269 -1 176 -1 1966 -1 599 -1 123 -1 356 -1 29 -1 2961 -1 1331 -1 210 -1 823 -1 549 -1 283 -2
638 -1 64 -1 459 -1 484 -1 1899 -1 1727 -1 123 -1 1650 -1 198 -1 123 -1 638 -1 64 -1 459 -1 22 -1 923 -1 22 -1 44 -1 535 -1 123 -1 1325 -1 64 -1 1777 -1 193 -1 158 -1 396 -1 30 -2
599 -1 123 -1 1650 -1 65 -1 923 -1 154 -1 701 -1 64 -1 2137 -1 10 -1 164 -1 1261 -1 65 -1 720 -1 2 -1 381 -1 30 -2
43783 -1 77 -1 2489 -1 77 -1 2545 -1 3002 -1 520 -1 35 -1 123 -1 407 -1 1325 -1 123 -1 260 -1 764 -1 64 -1 268 -1 536 -1 237 -1 1238 -1 30 -2
2306 -1 408 -1 394 -1 936 -1 77 -1 2 -1 123 -1 407 -1 223 -1 1320 -1 64 -1 929 -1 65 -1 1219 -1 151 -1 599 -1 268 -1 2579 -1 140 -1 196 -1 384 -1 173 -1 187 -1 364 -1 1712 -1 117 -1 41 -1 1727 -1 668 -1 30 -2
20317 -1 50 -1 4046 -1 170 -1 15375 -1 30 -2
246 -1 123 -1 1164 -1 193 -1 206 -1 30 -2
41 -1 549 -1 183 -1 196 -1 779 -1 1249 -1 15218 -1 30 -2
364 -1 5399 -1 64 -1 1792 -1 31 -1 326 -1 5 -1 2748 -1 529 -1 171 -1 32 -1 50 -1 5759 -1 22 -1 5759 -1 1 -2
668 -1 154 -1 170 -1 65 -1 94 -1 30 -2
1249 -1 30 -2
815 -1 6621 -1 1867 -1 911 -1 1 -2
123 -1 1867 -1 2469 -1 2 -1 1817 -1 77 -1 599 -1 498 -1 381 -1 326 -1 3028 -1 30 -2
123131 -1 507 -1 782 -1 196 -1 1123 -1 123 -1 286 -1 154 -1 539 -1 64 -1 222 -1 1030 -1 433 -1 965 -1 30 -2
356 -1 77 -1 50 -1 5 -1 46 -1 165 -1 765 -1 364 -1 2700 -1 254 -1 41 -1 1449 -1 225 -1 78 -1 65 -1 2542 -1 365 -1 77 -1 599 -1 201 -1 183 -1 9486 -1 162 -1 41 -1 183 -1 22 -1 17397 -1 365 -1 10 -1 30 -2
1900 -1 1727 -1 3390 -1 183 -1 356 -1 123133 -1 123132 -1 123 -1 286 -1 364 -1 6054 -1 31 -1 50 -1 5 -1 46 -1 30 -2
782 -1 196 -1 384 -1 30 -2
2703 -1 196 -1 384 -1 30 -2
120 -1 3154 -1 694 -1 222 -1 27 -1 123 -1 921 -1 144 -1 30 -2
220 -1 41 -1 781 -1 222 -1 65 -1 9525 -1 1309 -1 33 -1 27 -1 430 -1 183 -1 1 -2
123 -1 286 -1 123 -1 210 -1 356 -1 171 -1 196 -1 3559 -1 3589 -1 364 -1 2306 -1 2 -1 123 -1 286 -1 364 -1 48 -1 283 -2
246 -1 308 -1 189 -1 123 -1 286 -1 123 -1 356 -1 262 -1 94 -1 77 -1 2 -1 27 -1 123 -1 165 -1 144 -1 2279 -1 653 -1 356 -1 154 -1 30 -2
171 -1 3504 -1 223 -1 2910 -1 64 -1 1214 -1 77 -1 22 -1 51 -1 212 -1 2279 -1 15181 -1 1214 -1 198 -1 30 -2
123 -1 441 -1 924 -1 65 -1 720 -1 4013 -1 1212 -1 30 -2
364 -1 65 -1 269 -1 395 -1 2566 -1 369 -1 7 -1 567 -1 355 -1 27 -1 416 -1 1051 -1 164 -1 47 -1 13 -1 77 -1 1758 -1 78 -1 236 -1 566 -1 7 -1 1772 -1 175 -1 668 -1 77 -1 2 -1 7 -1 22 -1 82797 -1 764 -1 64 -1 3901 -1 30 -2
599 -1 687 -1 566 -1 848 -1 16 -1 30 -2
5930 -1 269 -1 395 -1 30 -2
123 -1 593 -1 1707 -1 41 -1 340 -1 162 -1 236 -1 123 -1 1014 -1 276 -1 154 -1 171 -1 280 -1 2354 -1 162 -1 262 -1 1210 -1 64 -1 863 -1 8 -1 28 -1 26 -1 123134 -1 123 -1 917 -1 789 -1 4550 -1 533 -1 77 -1 599 -1 123 -1 1386 -1 64 -1 9401 -1 123135 -1 65 -1 38838 -1 151 -1 153 -1 789 -1 73 -1 171 -1 1 -2
2078 -1 3980 -1 30 -2
123 -1 1758 -1 41 -1 30 -2
123 -1 1758 -1 41 -1 520 -1 384 -1 30 -2
452 -1 222 -1 308 -1 189 -1 30 -2
123 -1 441 -1 652 -1 384 -1 567 -1 171 -1 123 -1 220 -1 1217 -1 64 -1 291 -1 22 -1 151 -1 1271 -1 2 -1 1123 -1 2058 -1 254 -1 123 -1 212 -1 2197 -1 342 -1 1313 -1 64 -1 268 -1 1790 -1 164 -1 196 -1 278 -1 33 -1 1146 -1 123 -1 286 -1 193 -1 638 -1 1030 -1 65 -1 720 -1 151 -1 1360 -1 30 -2
349 -1 13567 -1 22 -1 1294 -1 2684 -1 520 -1 70 -1 1821 -1 154 -1 30 -2
613 -1 22 -1 108640 -1 1331 -1 1981 -1 210 -1 642 -1 2 -1 64 -1 1174 -1 77 -1 7199 -1 33 -1 26101 -1 170 -1 326 -1 846 -1 171 -1 30 -2
70 -1 5677 -1 710 -2