248 -1 571 -1 488 -1 5443 -1 77 -1 1191 -1 77 -1 41 -1 2366 -1 5687 -1 10 -1 871 -1 10374 -1 32 -1 241 -1 157 -1 599 -1 30 -2
248 -1 488 -1 3175 -1 5443 -1 30 -2
364 -1 1191 -1 1261 -1 220 -1 694 -1 1263 -1 278 -1 167 -1 291 -1 326 -1 1129 -1 77 -1 1225 -1 8 -1 28 -1 26 -1 82777 -1 5663 -1 283 -2
34423 -1 334 -1 41 -1 268 -1 82243 -1 162 -1 41 -1 190 -1 2118 -1 1 -2
285 -1 334 -1 41 -1 1758 -1 291 -1 193 -1 1 -2
1275 -1 152 -1 3721 -1 77 -1 123 -1 286 -1 30 -2
16 -1 81 -1 30 -2
1913 -1 2280 -1 285 -1 123 -1 924 -1 77 -1 648 -1 144 -1 384 -1 2082 -1 30 -2
165 -1 41 -1 48483 -1 29 -1 1489 -1 1 -2
567 -1 77 -1 1225 -1 16 -1 260 -1 11182 -1 291 -1 596 -1 30 -2
1821 -1 154 -1 200 -1 593 -1 483 -1 66 -1 50 -1 10962 -1 30 -2
2527 -1 256 -1 50 -1 3216 -1 30 -2
193 -1 206 -1 65 -1 7363 -1 4165 -1 417 -1 32 -1 541 -1 154 -1 2849 -1 280 -1 183 -1 82778 -1 2527 -1 256 -1 50 -1 3216 -1 30 -2
2849 -1 280 -1 10774 -1 1127 -1 30 -2
50 -1 2829 -1 170 -1 1257 -1 77 -1 78 -1 1241 -1 78 -1 123 -1 340 -1 30 -2
2527 -1 256 -1 50 -1 3216 -1 30 -2
921 -1 193 -1 67 -1 12380 -1 1 -2
850 -1 30 -2
2 -1 13408 -1 7826 -1 138 -1 248 -1 117 -1 193 -1 30 -2
27 -1 144 -1 41 -1 356 -1 152 -1 1256 -1 291 -1 193 -1 1 -2
70 -1 1224 -1 30 -2
70 -1 196 -1 714 -1 64 -1 268 -1 269 -1 77 -1 520 -1 41 -1 268 -1 8792 -1 4790 -1 491 -1 1601 -1 2378 -1 30 -2
236 -1 123 -1 268 -1 19440 -1 123 -1 286 -1 193 -1 274 -1 77 -1 201 -1 2366 -1 67 -1 276 -1 64 -1 193 -1 30 -2
236 -1 201 -1 170 -1 77 -1 123 -1 593 -1 856 -1 31 -1 22 -1 769 -1 2 -1 4131 -1 1300 -1 254 -1 123 -1 402 -1 276 -1 30 -2
236 -1 70 -1 326 -1 8792 -1 4022 -1 123 -1 593 -1 212 -1 30 -2
123 -1 286 -1 41 -1 3710 -1 222 -1 30 -2
123 -1 648 -1 127 -1 2849 -1 280 -1 1205 -1 356 -1 4005 -1 30 -2
123 -1 2195 -1 154 -1 443 -1 597 -1 67 -1 154 -1 3187 -1 236 -1 443 -1 517 -1 483 -1 1741 -1 30 -2
41 -1 340 -1 22 -1 252 -1 491 -1 394 -1 637 -1 369 -1 170 -1 652 -1 192 -1 2 -1 30 -2
951 -1 254 -1 443 -1 120 -1 8451 -1 237 -1 193 -1 2 -1 73 -1 4873 -1 236 -1 2006 -1 260 -1 1191 -1 291 -1 193 -1 30 -2
123 -1 165 -1 356 -1 64 -1 322 -1 22 -1 9799 -1 31 -1 225 -1 369 -1 517 -1 268 -1 4005 -1 30 -2
123 -1 778 -1 67 -1 4001 -1 236 -1 22 -1 6291 -1 183 -1 2849 -1 1351 -1 364 -1 5644 -1 262 -1 10 -1 22 -1 15 -1 4223 -1 6095 -1 2 -1 409 -1 77 -1 6905 -1 77 -1 5842 -1 8214 -1 417 -1 1429 -1 30 -2
1913 -1 765 -1 123 -1 238 -1 65 -1 3701 -1 13 -1 30 -2
50 -1 2958 -1 170 -1 652 -1 2138 -1 2 -1 3132 -1 30 -2
236 -1 123 -1 879 -1 268 -1 65 -1 720 -1 3299 -1 77 -1 193 -1 4707 -1 652 -1 30 -2
222 -1 77 -1 3457 -1 1 -2
1204 -1 3320 -1 1 -2
498 -1 123 -1 5642 -1 64 -1 67 -1 3299 -1 64 -1 268 -1 225 -1 1193 -1 50 -1 536 -1 77 -1 599 -1 452 -1 66 -1 30 -2
29 -1 3620 -1 4123 -1 222 -1 30 -2
123 -1 205 -1 443 -1 2849 -1 280 -1 190 -1 1634 -1 77 -1 863 -1 584 -1 2 -1 66 -1 154 -1 30 -2
1037 -1 170 -1 30 -2
749 -1 183 -1 41 -1 16 -1 4001 -1 1 -2
7 -1 193 -1 375 -1 64 -1 144 -1 164 -1 646 -1 80 -1 1 -2
642 -1 30 -2
246 -1 30 -2
6354 -1 441 -1 64 -1 7185 -1 33 -1 200 -1 1027 -1 30 -2
22 -1 417 -1 123 -1 322 -1 193 -1 77 -1 236 -1 41 -1 483 -1 22 -1 308 -1 365 -1 77 -1 201 -1 170 -1 567 -1 1587 -1 64 -1 13564 -1 22 -1 708 -1 30 -2
1305 -1 2734 -1 909 -1 753 -1 41 -1 120 -1 613 -1 145 -1 213 -1 2107 -1 77 -1 2 -1 162 -1 154 -1 539 -1 70 -1 2636 -1 64 -1 3810 -1 30 -1 30 -1 687 -1 123 -1 1705 -1 483 -1 65 -1 168 -1 1331 -1 32 -1 22 -1 7436 -1 6902 -1 30 -2
193 -1 206 -1 233 -1 398 -1 30 -2
2897 -1 22 -1 5872 -1 32 -1 65 -1 1382 -1 6791 -1 14832 -1 2720 -1 10 -1 65 -1 624 -1 222 -1 2 -1 65 -1 401 -1 1166 -1 183 -1 922 -1 33 -1 8 -1 3831 -1 82779 -1 8 -1 3831 -1 82780 -1 1126 -1 33 -1 27 -1 41 -1 127 -1 30 -2
364 -1 16 -1 17707 -1 117 -1 66 -1 77 -1 236 -1 452 -1 27 -1 2006 -1 2910 -1 291 -1 30 -2
162 -1 193 -1 1210 -1 64 -1 167 -1 154 -1 4523 -1 222 -1 77 -1 710 -1 77 -1 123 -1 226 -1 441 -1 193 -1 50 -1 417 -1 77 -1 254 -1 123 -1 223 -1 340 -1 398 -1 153 -1 30 -2
364 -1 651 -1 64 -1 2397 -1 197 -1 64 -1 929 -1 22 -1 12954 -1 30 -2
123 -1 391 -1 375 -1 1241 -1 77 -1 599 -1 27 -1 123 -1 407 -1 929 -1 170 -1 5768 -1 30 -2
936 -1 77 -1 441 -1 326 -1 11555 -1 256 -1 65 -1 259 -1 431 -1 2437 -1 33 -1 77 -1 444 -1 22 -1 239 -1 2746 -1 170 -1 10 -1 65 -1 16471 -1 372 -1 77 -1 30 -2
15064 -1 170 -1 50 -1 4851 -1 1073 -1 30 -2
443 -1 921 -1 1610 -1 262 -1 42 -1 193 -1 2284 -1 198 -1 32 -1 466 -1 2 -1 200 -1 3535 -1 30 -2
120 -1 227 -1 77 -1 443 -1 183 -1 381 -1 5899 -1 30 -2
567 -1 7291 -1 77 -1 193 -1 170 -1 212 -1 22 -1 417 -1 443 -1 183 -1 30 -2
2703 -1 1216 -1 2450 -1 77 -1 123 -1 220 -1 260 -1 1713 -1 64 -1 27 -1 2703 -1 910 -1 30 -2
123 -1 212 -1 648 -1 441 -1 22 -1 9015 -1 64 -1 156 -1 193 -1 198 -1 411 -1 30 -2
652 -1 384 -1 262 -1 120 -1 1441 -1 29 -1 1249 -1 283 -2
364 -1 16 -1 431 -1 2087 -1 77 -1 599 -1 123 -1 593 -1 378 -1 27 -1 123 -1 220 -1 30 -2
249 -1 30 -1 162 -1 41 -1 260 -1 356 -1 200 -1 152 -1 10 -1 613 -1 164 -1 200 -1 77 -1 285 -1 144 -1 41 -1 2208 -1 224 -1 29 -1 3733 -1 32 -1 7305 -1 1 -2
123 -1 83 -1 64 -1 67 -1 222 -1 78 -1 384 -1 78 -1 30 -2
183 -1 41 -1 1851 -1 1 -2
749 -1 152 -1 749 -1 16 -1 30 -2
567 -1 30 -2
78 -1 123 -1 630 -1 10 -1 65 -1 871 -1 263 -1 77 -1 123 -1 120 -1 286 -1 65 -1 13504 -1 491 -1 394 -1 923 -1 170 -1 65 -1 7738 -1 2022 -1 32 -1 1630 -1 30 -2
27 -1 1554 -1 144 -1 41 -1 3767 -1 1 -2
82781 -1 30 -2
41 -1 3032 -1 1116 -1 198 -1 326 -1 914 -1 2237 -1 212 -1 356 -1 154 -1 30 -2
289 -1 77 -1 628 -1 77 -1 393 -1 77 -1 11335 -1 77 -1 974 -1 77 -1 173 -1 187 -1 30 -2
349 -1 66 -1 441 -1 318 -1 8730 -1 2 -1 5624 -1 30 -2
123 -1 83 -1 64 -1 800 -1 819 -1 64 -1 1127 -1 77 -1 2 -1 123 -1 685 -1 123 -1 2707 -1 7219 -1 3790 -1 77 -1 599 -1 3581 -1 170 -1 260 -1 168 -1 30 -2
364 -1 1274 -1 944 -1 10 -1 6725 -1 31942 -1 77 -1 2 -1 22 -1 1499 -1 3747 -1 30 -2
193 -1 206 -1 1112 -1 140 -1 431 -1 4668 -1 77 -1 278 -1 82 -1 431 -1 4381 -1 225 -1 10 -1 22 -1 30 -2
364 -1 965 -1 1712 -1 224 -1 31 -1 268 -1 10 -1 22 -1 4209 -1 140 -1 6725 -1 31942 -1 308 -1 189 -1 77 -1 657 -1 123 -1 3641 -1 170 -1 65 -1 7803 -1 30 -2
123 -1 286 -1 65 -1 13504 -1 491 -1 394 -1 923 -1 170 -1 65 -1 4493 -1 168 -1 2022 -1 32 -1 1630 -1 30 -2
1240 -1 850 -1 77 -1 123 -1 286 -1 29 -1 241 -1 3548 -1 77 -1 65 -1 720 -1 30 -2
3993 -1 33 -1 236 -1 41 -1 764 -1 276 -1 64 -1 781 -1 13 -1 65 -1 2144 -1 2 -1 520 -1 33 -1 30 -2
120 -1 67 -1 1352 -1 77 -1 10962 -1 170 -1 22 -1 15 -1 1081 -1 54 -1 10 -1 22 -1 219 -1 30 -2
286 -1 32 -1 66 -1 22 -1 168 -1 4546 -1 77 -1 356 -1 22 -1 76 -1 41 -1 1768 -1 786 -1 10 -1 22 -1 959 -1 254 -1 41 -1 638 -1 3 -1 33 -1 65 -1 10866 -1 3970 -1 19545 -1 26488 -1 30 -1 30 -1 193 -1 206 -1 1740 -1 64 -1 929 -1 276 -1 356 -1 154 -1 33 -1 262 -1 1440 -1 77 -1 599 -1 236 -1 70 -1 4520 -1 193 -1 1205 -1 260 -1 2365 -1 2107 -1 30 -2
520 -1 567 -1 764 -1 31 -1 175 -1 8971 -1 30 -2
364 -1 16 -1 1191 -1 236 -1 30 -2
203 -1 30 -2
27 -1 1 -2
3092 -1 183 -1 50 -1 2142 -1 259 -1 10 -1 628 -1 196 -1 30 -2
123 -1 593 -1 441 -1 65 -1 543 -1 117 -1 21927 -1 1508 -1 77 -1 126 -1 123 -1 593 -1 483 -1 276 -1 1082 -1 10 -1 193 -1 30 -2
24010 -1 123 -1 407 -1 1671 -1 158 -1 4781 -1 31 -1 17322 -1 31 -1 65 -1 1238 -1 77 -1 123 -1 593 -1 178 -1 22 -1 30 -2
2006 -1 951 -1 652 -1 2094 -1 2944 -1 77 -1 599 -1 2006 -1 16 -1 2852 -1 64 -1 2158 -1 30 -2
2 -1 1685 -1 443 -1 1591 -1 2910 -1 291 -1 193 -1 164 -1 225 -1 77 -1 262 -1 170 -1 65 -1 168 -1 678 -1 30 -2
2213 -1 283 -2
2688 -1 283 -2
196 -1 699 -1 123 -1 1591 -1 381 -1 2124 -1 77 -1 2 -1 133 -1 10 -1 4050 -1 32 -1 22 -1 5195 -1 66 -1 44 -1 2284 -1 432 -1 535 -1 65 -1 401 -1 5611 -1 30 -2
16070 -1 755 -1 16 -1 381 -1 10 -1 4050 -1 32 -1 22 -1 5195 -1 2 -1 16 -1 381 -1 30 -2
123 -1 73 -1 144 -1 193 -1 520 -1 154 -1 197 -1 39 -1 788 -1 117 -1 22 -1 468 -1 9963 -1 154 -1 170 -1 852 -1 30 -2
2527 -1 256 -1 50 -1 3216 -1 30 -2
1249 -1 1099 -1 8381 -1 67 -1 326 -1 2849 -1 533 -1 30 -2
286 -1 291 -1 193 -1 30 -2
82782 -1 8884 -1 1533 -1 1214 -1 9152 -1 77 -1 11975 -1 18030 -1 35721 -1 236 -1 349 -1 2660 -1 744 -1 158 -1 30 -2
571 -1 1335 -1 64 -1 65 -1 2340 -1 31857 -1 2 -1 65 -1 15746 -1 955 -1 32 -1 954 -1 30 -2
364 -1 2065 -1 256 -1 50 -1 3216 -1 254 -1 123 -1 407 -1 3 -1 198 -1 77 -1 599 -1 123 -1 144 -1 519 -1 256 -1 50 -1 5195 -1 498 -1 30 -2
1362 -1 3069 -1 193 -1 548 -1 406 -1 32 -1 381 -1 198 -1 77 -1 123 -1 702 -1 2292 -1 154 -1 24785 -1 64 -1 154 -1 94 -1 30 -2
235 -1 77 -1 22 -1 94 -1 64 -1 637 -1 8220 -1 170 -1 2736 -1 30 -2
2527 -1 256 -1 50 -1 3216 -1 30 -2
123 -1 519 -1 936 -1 66 -1 22 -1 76 -1 30 -2
2527 -1 256 -1 50 -1 3216 -1 30 -2
943 -1 82785 -1 319 -1 82786 -1 15458 -1 13982 -1 239 -1 82783 -1 57 -1 82784 -1 2 -1 103 -1 64 -1 22 -1 1440 -1 459 -1 4303 -1 2715 -1 170 -1 432 -1 2 -1 123 -1 233 -1 483 -1 193 -1 3426 -1 498 -1 77 -1 233 -1 236 -1 123 -1 1274 -1 120 -1 1737 -1 30 -2
123 -1 144 -1 77 -1 710 -1 77 -1 356 -1 22 -1 793 -1 2850 -1 2010 -1 183 -1 5717 -1 2897 -1 22 -1 2688 -1 1945 -1 123 -1 286 -1 225 -1 1737 -1 196 -1 384 -1 30 -2
1685 -1 24010 -1 1411 -1 222 -1 65 -1 3279 -1 10 -1 65 -1 263 -1 123 -1 1112 -1 65 -1 401 -1 2800 -1 397 -1 123 -1 3641 -1 123 -1 921 -1 1726 -1 10011 -1 262 -1 263 -1 189 -1 30 -2
278 -1 167 -1 441 -1 3 -1 630 -1 77 -1 520 -1 123 -1 593 -1 67 -1 10030 -1 384 -1 30 -2
123 -1 1867 -1 193 -1 1210 -1 872 -1 64 -1 30 -2
8 -1 4556 -1 2849 -1 1440 -1 27434 -1 82787 -1 27 -1 6567 -1 41 -1 82788 -1 165 -1 951 -1 441 -1 693 -1 929 -1 4081 -1 429 -1 30 -2
225 -1 369 -1 183 -1 381 -1 6095 -1 30 -2
364 -1 16 -1 5091 -1 77 -1 8613 -1 123 -1 543 -1 202 -1 693 -1 30 -2
8 -1 4556 -1 1859 -1 5626 -1 82789 -1 23 -1 886 -1 12070 -1 225 -1 441 -1 318 -1 82790 -1 82791 -1 3161 -1 1174 -1 77 -1 123 -1 340 -1 30 -2
22 -1 23 -1 886 -1 12070 -1 225 -1 441 -1 33 -1 318 -1 82792 -1 82793 -1 123 -1 2336 -1 274 -1 262 -1 3267 -1 2115 -1 35 -1 77 -1 2 -1 205 -1 123 -1 210 -1 378 -1 30 -2
364 -1 16 -1 1191 -1 285 -1 364 -1 3158 -1 64 -1 425 -1 65 -1 3904 -1 936 -1 77 -1 599 -1 5333 -1 30 -1 30 -1 27 -1 1440 -1 4285 -1 848 -1 193 -1 2137 -1 10 -1 1 -2
78 -1 123 -1 66738 -1 22 -1 10838 -1 123 -1 2336 -1 274 -1 262 -1 3267 -1 22 -1 23 -1 886 -1 12070 -1 225 -1 441 -1 33 -1 318 -1 82792 -1 82793 -1 364 -1 1478 -1 291 -1 1999 -1 65 -1 263 -1 291 -1 193 -1 1032 -1 10 -1 22 -1 1859 -1 3521 -1 32 -1 22 -1 30 -2