2 -1 #SUP: 14
7 -1 #SUP: 2
8 -1 #SUP: 11
10 -1 #SUP: 9
22 -1 #SUP: 31
26 -1 #SUP: 8
27 -1 #SUP: 2
28 -1 #SUP: 8
29 -1 #SUP: 3
30 -1 #SUP: 20
31 -1 #SUP: 4
32 -1 #SUP: 11
33 -1 #SUP: 2
41 -1 #SUP: 13
64 -1 #SUP: 10
65 -1 #SUP: 16
66 -1 #SUP: 4
70 -1 #SUP: 2
76 -1 #SUP: 7
77 -1 #SUP: 19
117 -1 #SUP: 2
120 -1 #SUP: 3
123 -1 #SUP: 20
140 -1 #SUP: 3
144 -1 #SUP: 2
152 -1 #SUP: 2
154 -1 #SUP: 5
159 -1 #SUP: 2
162 -1 #SUP: 3
164 -1 #SUP: 8
165 -1 #SUP: 4
170 -1 #SUP: 7
171 -1 #SUP: 3
175 -1 #SUP: 2
183 -1 #SUP: 9
193 -1 #SUP: 6
201 -1 #SUP: 3
212 -1 #SUP: 2
220 -1 #SUP: 2
236 -1 #SUP: 4
249 -1 #SUP: 5
250 -1 #SUP: 5
256 -1 #SUP: 3
262 -1 #SUP: 2
269 -1 #SUP: 2
276 -1 #SUP: 2
289 -1 #SUP: 2
291 -1 #SUP: 2
318 -1 #SUP: 2
321 -1 #SUP: 5
323 -1 #SUP: 2
349 -1 #SUP: 4
364 -1 #SUP: 3
368 -1 #SUP: 3
394 -1 #SUP: 2
408 -1 #SUP: 2
409 -1 #SUP: 2
441 -1 #SUP: 10
443 -1 #SUP: 4
488 -1 #SUP: 4
491 -1 #SUP: 2
520 -1 #SUP: 3
538 -1 #SUP: 3
567 -1 #SUP: 6
573 -1 #SUP: 2
589 -1 #SUP: 3
597 -1 #SUP: 2
599 -1 #SUP: 5
624 -1 #SUP: 2
650 -1 #SUP: 2
652 -1 #SUP: 2
704 -1 #SUP: 2
708 -1 #SUP: 2
782 -1 #SUP: 2
794 -1 #SUP: 4
796 -1 #SUP: 3
797 -1 #SUP: 4
840 -1 #SUP: 2
886 -1 #SUP: 3
936 -1 #SUP: 2
990 -1 #SUP: 2
1034 -1 #SUP: 2
1062 -1 #SUP: 3
1127 -1 #SUP: 2
1231 -1 #SUP: 2
1236 -1 #SUP: 2
1342 -1 #SUP: 2
1567 -1 #SUP: 2
1591 -1 #SUP: 2
1664 -1 #SUP: 2
1685 -1 #SUP: 2
1813 -1 #SUP: 2
1913 -1 #SUP: 2
2334 -1 #SUP: 2
2798 -1 #SUP: 3
2880 -1 #SUP: 2
3061 -1 #SUP: 2
3429 -1 #SUP: 2
3820 -1 #SUP: 3
3850 -1 #SUP: 2
4666 -1 #SUP: 3
5622 -1 #SUP: 2
6002 -1 #SUP: 3
9780 -1 #SUP: 2
25636 -1 #SUP: 2
41185 -1 #SUP: 2
51555 -1 #SUP: 2
2 -1 10 -1 #SUP: 2
2 -1 22 -1 #SUP: 3
2 -1 64 -1 #SUP: 2
2 -1 65 -1 #SUP: 2
2 -1 77 -1 #SUP: 3
2 -1 123 -1 #SUP: 2
2 -1 599 -1 #SUP: 2
8 -1 2 -1 #SUP: 2
8 -1 8 -1 #SUP: 3
8 -1 26 -1 #SUP: 6
8 -1 28 -1 #SUP: 6
8 -1 41 -1 #SUP: 2
8 -1 840 -1 #SUP: 2
8 -1 2334 -1 #SUP: 2
8 -1 3820 -1 #SUP: 3
8 -1 4666 -1 #SUP: 3
10 -1 22 -1 #SUP: 4
10 -1 32 -1 #SUP: 2
22 -1 2 -1 #SUP: 2
22 -1 10 -1 #SUP: 3
22 -1 22 -1 #SUP: 7
22 -1 32 -1 #SUP: 5
22 -1 76 -1 #SUP: 3
22 -1 77 -1 #SUP: 4
22 -1 164 -1 #SUP: 2
22 -1 193 -1 #SUP: 2
22 -1 349 -1 #SUP: 2
22 -1 409 -1 #SUP: 2
22 -1 538 -1 #SUP: 2
22 -1 599 -1 #SUP: 2
22 -1 794 -1 #SUP: 2
22 -1 6002 -1 #SUP: 2
26 -1 8 -1 #SUP: 2
26 -1 22 -1 #SUP: 2
26 -1 26 -1 #SUP: 2
26 -1 28 -1 #SUP: 2
26 -1 41 -1 #SUP: 2
26 -1 2334 -1 #SUP: 2
26 -1 3820 -1 #SUP: 3
26 -1 4666 -1 #SUP: 3
27 -1 236 -1 #SUP: 2
28 -1 8 -1 #SUP: 2
28 -1 26 -1 #SUP: 6
28 -1 28 -1 #SUP: 2
28 -1 41 -1 #SUP: 2
28 -1 2334 -1 #SUP: 2
28 -1 3820 -1 #SUP: 3
28 -1 4666 -1 #SUP: 3
29 -1 183 -1 #SUP: 2
30 -1 22 -1 #SUP: 2
30 -1 30 -1 #SUP: 5
30 -1 170 -1 #SUP: 2
30 -1 193 -1 #SUP: 3
30 -1 201 -1 #SUP: 2
30 -1 250 -1 #SUP: 3
30 -1 321 -1 #SUP: 2
30 -1 567 -1 #SUP: 3
30 -1 797 -1 #SUP: 2
31 -1 22 -1 #SUP: 2
31 -1 77 -1 #SUP: 2
31 -1 120 -1 #SUP: 2
31 -1 599 -1 #SUP: 2
32 -1 22 -1 #SUP: 4
32 -1 32 -1 #SUP: 3
32 -1 164 -1 #SUP: 2
33 -1 22 -1 #SUP: 2
41 -1 2 -1 #SUP: 2
41 -1 22 -1 #SUP: 2
41 -1 31 -1 #SUP: 2
41 -1 41 -1 #SUP: 3
41 -1 65 -1 #SUP: 2
41 -1 77 -1 #SUP: 3
41 -1 183 -1 #SUP: 4
41 -1 441 -1 #SUP: 3
64 -1 22 -1 #SUP: 2
65 -1 2 -1 #SUP: 3
65 -1 10 -1 #SUP: 2
65 -1 22 -1 #SUP: 3
65 -1 32 -1 #SUP: 2
65 -1 64 -1 #SUP: 2
65 -1 76 -1 #SUP: 3
66 -1 22 -1 #SUP: 2
70 -1 65 -1 #SUP: 2
76 -1 2 -1 #SUP: 2
77 -1 2 -1 #SUP: 4
77 -1 10 -1 #SUP: 2
77 -1 22 -1 #SUP: 3
77 -1 27 -1 #SUP: 2
77 -1 32 -1 #SUP: 3
77 -1 41 -1 #SUP: 2
77 -1 65 -1 #SUP: 2
77 -1 77 -1 #SUP: 5
77 -1 120 -1 #SUP: 2
77 -1 123 -1 #SUP: 4
77 -1 236 -1 #SUP: 2
77 -1 441 -1 #SUP: 2
77 -1 443 -1 #SUP: 2
77 -1 488 -1 #SUP: 2
77 -1 599 -1 #SUP: 3
120 -1 65 -1 #SUP: 2
120 -1 441 -1 #SUP: 2
123 -1 2 -1 #SUP: 4
123 -1 10 -1 #SUP: 2
123 -1 22 -1 #SUP: 5
123 -1 31 -1 #SUP: 2
123 -1 32 -1 #SUP: 4
123 -1 64 -1 #SUP: 2
123 -1 65 -1 #SUP: 7
123 -1 76 -1 #SUP: 3
123 -1 77 -1 #SUP: 3
123 -1 120 -1 #SUP: 2
123 -1 159 -1 #SUP: 2
123 -1 165 -1 #SUP: 2
123 -1 171 -1 #SUP: 2
123 -1 441 -1 #SUP: 5
123 -1 488 -1 #SUP: 2
123 -1 1034 -1 #SUP: 2
123 -1 1062 -1 #SUP: 2
123 -1 1913 -1 #SUP: 2
140 -1 77 -1 #SUP: 2
144 -1 41 -1 #SUP: 2
162 -1 2 -1 #SUP: 2
162 -1 41 -1 #SUP: 2
162 -1 77 -1 #SUP: 3
162 -1 782 -1 #SUP: 2
164 -1 22 -1 #SUP: 2
164 -1 65 -1 #SUP: 2
165 -1 2 -1 #SUP: 2
165 -1 171 -1 #SUP: 2
170 -1 65 -1 #SUP: 3
170 -1 520 -1 #SUP: 2
171 -1 2 -1 #SUP: 2
171 -1 318 -1 #SUP: 2
183 -1 22 -1 #SUP: 2
183 -1 64 -1 #SUP: 2
193 -1 10 -1 #SUP: 2
193 -1 22 -1 #SUP: 2
201 -1 65 -1 #SUP: 2
201 -1 170 -1 #SUP: 2
236 -1 183 -1 #SUP: 2
236 -1 443 -1 #SUP: 2
249 -1 2 -1 #SUP: 2
249 -1 30 -1 #SUP: 3
249 -1 250 -1 #SUP: 4
249 -1 321 -1 #SUP: 2
249 -1 567 -1 #SUP: 2
250 -1 30 -1 #SUP: 3
250 -1 321 -1 #SUP: 3
250 -1 567 -1 #SUP: 2
256 -1 22 -1 #SUP: 2
321 -1 30 -1 #SUP: 2
321 -1 589 -1 #SUP: 2
349 -1 22 -1 #SUP: 2
349 -1 32 -1 #SUP: 2
349 -1 6002 -1 #SUP: 2
364 -1 10 -1 #SUP: 2
394 -1 323 -1 #SUP: 2
394 -1 1342 -1 #SUP: 2
408 -1 77 -1 #SUP: 2
441 -1 2 -1 #SUP: 2
441 -1 22 -1 #SUP: 2
441 -1 65 -1 #SUP: 4
443 -1 22 -1 #SUP: 2
488 -1 22 -1 #SUP: 2
488 -1 441 -1 #SUP: 2
491 -1 323 -1 #SUP: 2
491 -1 394 -1 #SUP: 2
491 -1 1342 -1 #SUP: 2
567 -1 30 -1 #SUP: 2
589 -1 30 -1 #SUP: 2
589 -1 567 -1 #SUP: 2
589 -1 886 -1 #SUP: 2
599 -1 120 -1 #SUP: 2
599 -1 123 -1 #SUP: 2
704 -1 22 -1 #SUP: 2
708 -1 164 -1 #SUP: 2
782 -1 77 -1 #SUP: 2
794 -1 794 -1 #SUP: 2
796 -1 30 -1 #SUP: 2
796 -1 193 -1 #SUP: 2
796 -1 797 -1 #SUP: 2
797 -1 30 -1 #SUP: 2
797 -1 77 -1 #SUP: 2
797 -1 193 -1 #SUP: 2
886 -1 22 -1 #SUP: 2
886 -1 30 -1 #SUP: 2
886 -1 796 -1 #SUP: 2
936 -1 170 -1 #SUP: 2
936 -1 520 -1 #SUP: 2
1127 -1 170 -1 #SUP: 2
1127 -1 520 -1 #SUP: 2
1127 -1 936 -1 #SUP: 2
1231 -1 22 -1 #SUP: 2
1342 -1 323 -1 #SUP: 2
1591 -1 64 -1 #SUP: 2
1685 -1 441 -1 #SUP: 2
1813 -1 30 -1 #SUP: 2
2880 -1 1231 -1 #SUP: 2
4666 -1 3820 -1 #SUP: 3
5622 -1 323 -1 #SUP: 2
5622 -1 394 -1 #SUP: 2
5622 -1 491 -1 #SUP: 2
5622 -1 1342 -1 #SUP: 2
6002 -1 22 -1 #SUP: 3
6002 -1 32 -1 #SUP: 2
25636 -1 64 -1 #SUP: 2
41185 -1 3850 -1 #SUP: 2
51555 -1 77 -1 #SUP: 2
2 -1 22 -1 22 -1 #SUP: 2
8 -1 8 -1 26 -1 #SUP: 3
8 -1 8 -1 28 -1 #SUP: 3
8 -1 26 -1 8 -1 #SUP: 2
8 -1 26 -1 26 -1 #SUP: 2
8 -1 26 -1 28 -1 #SUP: 2
8 -1 26 -1 41 -1 #SUP: 2
8 -1 26 -1 2334 -1 #SUP: 2
8 -1 26 -1 3820 -1 #SUP: 3
8 -1 26 -1 4666 -1 #SUP: 3
8 -1 28 -1 8 -1 #SUP: 2
8 -1 28 -1 26 -1 #SUP: 6
8 -1 28 -1 28 -1 #SUP: 2
8 -1 28 -1 41 -1 #SUP: 2
8 -1 28 -1 2334 -1 #SUP: 2
8 -1 28 -1 3820 -1 #SUP: 3
8 -1 28 -1 4666 -1 #SUP: 3
8 -1 4666 -1 3820 -1 #SUP: 3
22 -1 10 -1 22 -1 #SUP: 2
22 -1 22 -1 538 -1 #SUP: 2
22 -1 32 -1 22 -1 #SUP: 3
22 -1 6002 -1 22 -1 #SUP: 2
22 -1 6002 -1 32 -1 #SUP: 2
26 -1 8 -1 26 -1 #SUP: 2
26 -1 8 -1 28 -1 #SUP: 2
26 -1 28 -1 26 -1 #SUP: 2
26 -1 4666 -1 3820 -1 #SUP: 3
28 -1 8 -1 26 -1 #SUP: 2
28 -1 8 -1 28 -1 #SUP: 2
28 -1 26 -1 8 -1 #SUP: 2
28 -1 26 -1 26 -1 #SUP: 2
28 -1 26 -1 28 -1 #SUP: 2
28 -1 26 -1 41 -1 #SUP: 2
28 -1 26 -1 2334 -1 #SUP: 2
28 -1 26 -1 3820 -1 #SUP: 3
28 -1 26 -1 4666 -1 #SUP: 3
28 -1 28 -1 26 -1 #SUP: 2
28 -1 4666 -1 3820 -1 #SUP: 3
30 -1 30 -1 30 -1 #SUP: 3
30 -1 30 -1 193 -1 #SUP: 3
30 -1 30 -1 321 -1 #SUP: 2
30 -1 30 -1 567 -1 #SUP: 3
30 -1 250 -1 30 -1 #SUP: 3
30 -1 250 -1 321 -1 #SUP: 2
30 -1 250 -1 567 -1 #SUP: 2
30 -1 321 -1 30 -1 #SUP: 2
30 -1 567 -1 30 -1 #SUP: 2
30 -1 797 -1 30 -1 #SUP: 2
30 -1 797 -1 193 -1 #SUP: 2
31 -1 77 -1 120 -1 #SUP: 2
31 -1 77 -1 599 -1 #SUP: 2
31 -1 599 -1 120 -1 #SUP: 2
32 -1 22 -1 32 -1 #SUP: 2
41 -1 77 -1 441 -1 #SUP: 2
77 -1 27 -1 236 -1 #SUP: 2
77 -1 32 -1 32 -1 #SUP: 2
77 -1 123 -1 65 -1 #SUP: 2
77 -1 599 -1 120 -1 #SUP: 2
77 -1 599 -1 123 -1 #SUP: 2
123 -1 65 -1 76 -1 #SUP: 2
123 -1 120 -1 65 -1 #SUP: 2
123 -1 165 -1 2 -1 #SUP: 2
123 -1 165 -1 171 -1 #SUP: 2
123 -1 171 -1 2 -1 #SUP: 2
123 -1 441 -1 65 -1 #SUP: 3
162 -1 77 -1 2 -1 #SUP: 2
162 -1 782 -1 77 -1 #SUP: 2
165 -1 171 -1 2 -1 #SUP: 2
193 -1 10 -1 22 -1 #SUP: 2
201 -1 170 -1 65 -1 #SUP: 2
249 -1 30 -1 30 -1 #SUP: 3
249 -1 30 -1 250 -1 #SUP: 3
249 -1 30 -1 321 -1 #SUP: 2
249 -1 30 -1 567 -1 #SUP: 2
249 -1 250 -1 30 -1 #SUP: 3
249 -1 250 -1 321 -1 #SUP: 2
249 -1 250 -1 567 -1 #SUP: 2
249 -1 321 -1 30 -1 #SUP: 2
250 -1 30 -1 30 -1 #SUP: 2
250 -1 30 -1 321 -1 #SUP: 2
250 -1 30 -1 567 -1 #SUP: 2
250 -1 321 -1 30 -1 #SUP: 2
349 -1 22 -1 32 -1 #SUP: 2
349 -1 22 -1 6002 -1 #SUP: 2
349 -1 6002 -1 32 -1 #SUP: 2
394 -1 1342 -1 323 -1 #SUP: 2
491 -1 394 -1 323 -1 #SUP: 2
491 -1 394 -1 1342 -1 #SUP: 2
491 -1 1342 -1 323 -1 #SUP: 2
567 -1 30 -1 30 -1 #SUP: 2
589 -1 30 -1 567 -1 #SUP: 2
796 -1 30 -1 30 -1 #SUP: 2
796 -1 30 -1 193 -1 #SUP: 2
796 -1 30 -1 797 -1 #SUP: 2
796 -1 797 -1 30 -1 #SUP: 2
796 -1 797 -1 193 -1 #SUP: 2
797 -1 30 -1 193 -1 #SUP: 2
936 -1 170 -1 520 -1 #SUP: 2
1127 -1 170 -1 520 -1 #SUP: 2
1127 -1 936 -1 170 -1 #SUP: 2
1127 -1 936 -1 520 -1 #SUP: 2
5622 -1 394 -1 323 -1 #SUP: 2
5622 -1 394 -1 1342 -1 #SUP: 2
5622 -1 491 -1 323 -1 #SUP: 2
5622 -1 491 -1 394 -1 #SUP: 2
5622 -1 491 -1 1342 -1 #SUP: 2
5622 -1 1342 -1 323 -1 #SUP: 2
6002 -1 32 -1 22 -1 #SUP: 2
51555 -1 77 -1 77 -1 #SUP: 2
8 -1 8 -1 28 -1 26 -1 #SUP: 3
8 -1 26 -1 8 -1 26 -1 #SUP: 2
8 -1 26 -1 8 -1 28 -1 #SUP: 2
8 -1 26 -1 28 -1 26 -1 #SUP: 2
8 -1 26 -1 4666 -1 3820 -1 #SUP: 3
8 -1 28 -1 8 -1 26 -1 #SUP: 2
8 -1 28 -1 8 -1 28 -1 #SUP: 2
8 -1 28 -1 26 -1 8 -1 #SUP: 2
8 -1 28 -1 26 -1 26 -1 #SUP: 2
8 -1 28 -1 26 -1 28 -1 #SUP: 2
8 -1 28 -1 26 -1 41 -1 #SUP: 2
8 -1 28 -1 26 -1 2334 -1 #SUP: 2
8 -1 28 -1 26 -1 3820 -1 #SUP: 3
8 -1 28 -1 26 -1 4666 -1 #SUP: 3
8 -1 28 -1 28 -1 26 -1 #SUP: 2
8 -1 28 -1 4666 -1 3820 -1 #SUP: 3
22 -1 6002 -1 32 -1 22 -1 #SUP: 2
26 -1 8 -1 28 -1 26 -1 #SUP: 2
28 -1 8 -1 28 -1 26 -1 #SUP: 2
28 -1 26 -1 8 -1 26 -1 #SUP: 2
28 -1 26 -1 8 -1 28 -1 #SUP: 2
28 -1 26 -1 28 -1 26 -1 #SUP: 2
28 -1 26 -1 4666 -1 3820 -1 #SUP: 3
30 -1 30 -1 30 -1 30 -1 #SUP: 2
30 -1 30 -1 30 -1 567 -1 #SUP: 2
30 -1 30 -1 321 -1 30 -1 #SUP: 2
30 -1 30 -1 567 -1 30 -1 #SUP: 2
30 -1 250 -1 30 -1 30 -1 #SUP: 2
30 -1 250 -1 30 -1 321 -1 #SUP: 2
30 -1 250 -1 30 -1 567 -1 #SUP: 2
30 -1 250 -1 321 -1 30 -1 #SUP: 2
30 -1 567 -1 30 -1 30 -1 #SUP: 2
30 -1 797 -1 30 -1 193 -1 #SUP: 2
31 -1 77 -1 599 -1 120 -1 #SUP: 2
123 -1 165 -1 171 -1 2 -1 #SUP: 2
249 -1 30 -1 30 -1 30 -1 #SUP: 2
249 -1 30 -1 30 -1 321 -1 #SUP: 2
249 -1 30 -1 30 -1 567 -1 #SUP: 2
249 -1 30 -1 250 -1 30 -1 #SUP: 3
249 -1 30 -1 250 -1 321 -1 #SUP: 2
249 -1 30 -1 250 -1 567 -1 #SUP: 2
249 -1 30 -1 321 -1 30 -1 #SUP: 2
249 -1 250 -1 30 -1 30 -1 #SUP: 2
249 -1 250 -1 30 -1 321 -1 #SUP: 2
249 -1 250 -1 30 -1 567 -1 #SUP: 2
249 -1 250 -1 321 -1 30 -1 #SUP: 2
250 -1 30 -1 321 -1 30 -1 #SUP: 2
349 -1 22 -1 6002 -1 32 -1 #SUP: 2
491 -1 394 -1 1342 -1 323 -1 #SUP: 2
567 -1 30 -1 30 -1 30 -1 #SUP: 2
796 -1 30 -1 30 -1 193 -1 #SUP: 2
796 -1 30 -1 797 -1 30 -1 #SUP: 2
796 -1 30 -1 797 -1 193 -1 #SUP: 2
796 -1 797 -1 30 -1 193 -1 #SUP: 2
1127 -1 936 -1 170 -1 520 -1 #SUP: 2
5622 -1 394 -1 1342 -1 323 -1 #SUP: 2
5622 -1 491 -1 394 -1 323 -1 #SUP: 2
5622 -1 491 -1 394 -1 1342 -1 #SUP: 2
5622 -1 491 -1 1342 -1 323 -1 #SUP: 2
8 -1 26 -1 8 -1 28 -1 26 -1 #SUP: 2
8 -1 28 -1 8 -1 28 -1 26 -1 #SUP: 2
8 -1 28 -1 26 -1 8 -1 26 -1 #SUP: 2
8 -1 28 -1 26 -1 8 -1 28 -1 #SUP: 2
8 -1 28 -1 26 -1 28 -1 26 -1 #SUP: 2
8 -1 28 -1 26 -1 4666 -1 3820 -1 #SUP: 3
28 -1 26 -1 8 -1 28 -1 26 -1 #SUP: 2
30 -1 250 -1 30 -1 321 -1 30 -1 #SUP: 2
249 -1 30 -1 30 -1 321 -1 30 -1 #SUP: 2
249 -1 30 -1 250 -1 30 -1 30 -1 #SUP: 2
249 -1 30 -1 250 -1 30 -1 321 -1 #SUP: 2
249 -1 30 -1 250 -1 30 -1 567 -1 #SUP: 2
249 -1 30 -1 250 -1 321 -1 30 -1 #SUP: 2
249 -1 250 -1 30 -1 321 -1 30 -1 #SUP: 2
796 -1 30 -1 797 -1 30 -1 193 -1 #SUP: 2
5622 -1 491 -1 394 -1 1342 -1 323 -1 #SUP: 2
8 -1 28 -1 26 -1 8 -1 28 -1 26 -1 #SUP: 2
249 -1 30 -1 250 -1 30 -1 321 -1 30 -1 #SUP: 2
