2 -1 #SUP: 8
3 -1 #SUP: 2
9 -1 #SUP: 5
10 -1 #SUP: 16
15 -1 #SUP: 3
16 -1 #SUP: 19
22 -1 #SUP: 25
26 -1 #SUP: 5
27 -1 #SUP: 4
28 -1 #SUP: 5
29 -1 #SUP: 5
31 -1 #SUP: 7
32 -1 #SUP: 13
33 -1 #SUP: 7
39 -1 #SUP: 2
41 -1 #SUP: 9
48 -1 #SUP: 3
50 -1 #SUP: 13
64 -1 #SUP: 33
65 -1 #SUP: 18
67 -1 #SUP: 10
70 -1 #SUP: 3
75 -1 #SUP: 2
77 -1 #SUP: 73
78 -1 #SUP: 6
117 -1 #SUP: 5
120 -1 #SUP: 4
123 -1 #SUP: 44
140 -1 #SUP: 2
144 -1 #SUP: 6
151 -1 #SUP: 3
152 -1 #SUP: 6
153 -1 #SUP: 2
154 -1 #SUP: 16
156 -1 #SUP: 5
158 -1 #SUP: 2
159 -1 #SUP: 2
162 -1 #SUP: 3
164 -1 #SUP: 10
165 -1 #SUP: 3
170 -1 #SUP: 11
171 -1 #SUP: 4
174 -1 #SUP: 13
175 -1 #SUP: 4
183 -1 #SUP: 6
189 -1 #SUP: 2
190 -1 #SUP: 4
193 -1 #SUP: 9
200 -1 #SUP: 2
201 -1 #SUP: 4
206 -1 #SUP: 6
212 -1 #SUP: 3
220 -1 #SUP: 6
222 -1 #SUP: 4
236 -1 #SUP: 5
254 -1 #SUP: 2
256 -1 #SUP: 4
262 -1 #SUP: 10
263 -1 #SUP: 2
274 -1 #SUP: 2
286 -1 #SUP: 4
292 -1 #SUP: 2
308 -1 #SUP: 4
317 -1 #SUP: 4
318 -1 #SUP: 2
322 -1 #SUP: 3
334 -1 #SUP: 2
340 -1 #SUP: 4
349 -1 #SUP: 3
369 -1 #SUP: 3
381 -1 #SUP: 2
408 -1 #SUP: 2
417 -1 #SUP: 2
422 -1 #SUP: 2
441 -1 #SUP: 6
488 -1 #SUP: 2
520 -1 #SUP: 4
529 -1 #SUP: 4
538 -1 #SUP: 2
544 -1 #SUP: 3
571 -1 #SUP: 2
599 -1 #SUP: 8
628 -1 #SUP: 2
642 -1 #SUP: 2
646 -1 #SUP: 2
654 -1 #SUP: 2
657 -1 #SUP: 3
671 -1 #SUP: 4
765 -1 #SUP: 2
773 -1 #SUP: 2
850 -1 #SUP: 2
872 -1 #SUP: 2
913 -1 #SUP: 3
999 -1 #SUP: 2
1034 -1 #SUP: 2
1086 -1 #SUP: 4
1149 -1 #SUP: 2
1166 -1 #SUP: 3
1208 -1 #SUP: 2
1214 -1 #SUP: 4
1266 -1 #SUP: 3
1275 -1 #SUP: 2
1379 -1 #SUP: 2
1449 -1 #SUP: 3
1611 -1 #SUP: 2
1650 -1 #SUP: 2
1741 -1 #SUP: 3
1755 -1 #SUP: 2
1772 -1 #SUP: 2
2703 -1 #SUP: 2
3149 -1 #SUP: 2
3159 -1 #SUP: 2
3352 -1 #SUP: 2
3969 -1 #SUP: 3
5027 -1 #SUP: 2
5298 -1 #SUP: 2
5875 -1 #SUP: 2
6377 -1 #SUP: 3
7528 -1 #SUP: 3
8642 -1 #SUP: 2
10577 -1 #SUP: 3
10613 -1 #SUP: 2
12545 -1 #SUP: 4
15086 -1 #SUP: 2
16078 -1 #SUP: 2
43470 -1 #SUP: 2
123886 -1 #SUP: 2
2 -1 22 -1 #SUP: 2
2 -1 64 -1 #SUP: 3
2 -1 77 -1 #SUP: 3
2 -1 10613 -1 #SUP: 2
9 -1 9 -1 #SUP: 2
9 -1 26 -1 #SUP: 3
9 -1 28 -1 #SUP: 3
9 -1 422 -1 #SUP: 2
9 -1 123886 -1 #SUP: 2
10 -1 22 -1 #SUP: 3
10 -1 32 -1 #SUP: 2
10 -1 41 -1 #SUP: 2
10 -1 64 -1 #SUP: 4
10 -1 77 -1 #SUP: 6
10 -1 123 -1 #SUP: 4
10 -1 152 -1 #SUP: 2
10 -1 154 -1 #SUP: 2
10 -1 3149 -1 #SUP: 2
10 -1 15086 -1 #SUP: 2
10 -1 43470 -1 #SUP: 2
15 -1 22 -1 #SUP: 2
16 -1 32 -1 #SUP: 3
16 -1 48 -1 #SUP: 2
16 -1 64 -1 #SUP: 6
16 -1 65 -1 #SUP: 4
16 -1 67 -1 #SUP: 3
16 -1 77 -1 #SUP: 7
16 -1 78 -1 #SUP: 2
16 -1 123 -1 #SUP: 5
16 -1 154 -1 #SUP: 4
16 -1 164 -1 #SUP: 4
16 -1 175 -1 #SUP: 2
16 -1 340 -1 #SUP: 3
16 -1 369 -1 #SUP: 2
16 -1 599 -1 #SUP: 2
22 -1 2 -1 #SUP: 3
22 -1 10 -1 #SUP: 4
22 -1 22 -1 #SUP: 5
22 -1 31 -1 #SUP: 2
22 -1 32 -1 #SUP: 4
22 -1 64 -1 #SUP: 2
22 -1 75 -1 #SUP: 2
22 -1 77 -1 #SUP: 7
22 -1 78 -1 #SUP: 2
22 -1 123 -1 #SUP: 3
22 -1 154 -1 #SUP: 3
22 -1 164 -1 #SUP: 2
22 -1 170 -1 #SUP: 2
22 -1 671 -1 #SUP: 2
22 -1 1449 -1 #SUP: 2
22 -1 3149 -1 #SUP: 2
22 -1 43470 -1 #SUP: 2
26 -1 9 -1 #SUP: 2
26 -1 26 -1 #SUP: 2
26 -1 28 -1 #SUP: 2
26 -1 50 -1 #SUP: 2
26 -1 422 -1 #SUP: 2
26 -1 123886 -1 #SUP: 2
27 -1 123 -1 #SUP: 2
28 -1 9 -1 #SUP: 2
28 -1 26 -1 #SUP: 3
28 -1 28 -1 #SUP: 2
28 -1 422 -1 #SUP: 2
28 -1 123886 -1 #SUP: 2
31 -1 2 -1 #SUP: 2
31 -1 22 -1 #SUP: 2
31 -1 193 -1 #SUP: 2
32 -1 10 -1 #SUP: 3
32 -1 22 -1 #SUP: 2
32 -1 32 -1 #SUP: 2
32 -1 48 -1 #SUP: 2
32 -1 64 -1 #SUP: 5
32 -1 67 -1 #SUP: 2
32 -1 77 -1 #SUP: 6
32 -1 123 -1 #SUP: 5
32 -1 152 -1 #SUP: 2
32 -1 153 -1 #SUP: 2
32 -1 154 -1 #SUP: 2
32 -1 183 -1 #SUP: 2
32 -1 369 -1 #SUP: 2
32 -1 671 -1 #SUP: 2
33 -1 64 -1 #SUP: 2
33 -1 77 -1 #SUP: 3
33 -1 164 -1 #SUP: 2
33 -1 222 -1 #SUP: 2
39 -1 67 -1 #SUP: 2
41 -1 27 -1 #SUP: 2
41 -1 64 -1 #SUP: 2
41 -1 77 -1 #SUP: 3
41 -1 193 -1 #SUP: 3
41 -1 262 -1 #SUP: 2
41 -1 322 -1 #SUP: 2
41 -1 441 -1 #SUP: 3
41 -1 913 -1 #SUP: 2
50 -1 3 -1 #SUP: 2
50 -1 9 -1 #SUP: 2
50 -1 16 -1 #SUP: 2
50 -1 26 -1 #SUP: 2
50 -1 28 -1 #SUP: 2
50 -1 50 -1 #SUP: 2
50 -1 64 -1 #SUP: 2
50 -1 67 -1 #SUP: 2
50 -1 77 -1 #SUP: 5
50 -1 78 -1 #SUP: 3
50 -1 123 -1 #SUP: 2
50 -1 156 -1 #SUP: 2
50 -1 317 -1 #SUP: 3
50 -1 408 -1 #SUP: 2
50 -1 544 -1 #SUP: 2
50 -1 646 -1 #SUP: 2
50 -1 3159 -1 #SUP: 2
64 -1 2 -1 #SUP: 2
64 -1 10 -1 #SUP: 4
64 -1 22 -1 #SUP: 4
64 -1 27 -1 #SUP: 2
64 -1 29 -1 #SUP: 3
64 -1 32 -1 #SUP: 3
64 -1 33 -1 #SUP: 2
64 -1 48 -1 #SUP: 2
64 -1 64 -1 #SUP: 5
64 -1 65 -1 #SUP: 3
64 -1 67 -1 #SUP: 5
64 -1 77 -1 #SUP: 6
64 -1 123 -1 #SUP: 3
64 -1 152 -1 #SUP: 2
64 -1 154 -1 #SUP: 2
64 -1 159 -1 #SUP: 2
64 -1 183 -1 #SUP: 2
64 -1 222 -1 #SUP: 2
64 -1 236 -1 #SUP: 2
64 -1 262 -1 #SUP: 2
64 -1 317 -1 #SUP: 2
64 -1 318 -1 #SUP: 2
64 -1 322 -1 #SUP: 2
64 -1 441 -1 #SUP: 2
64 -1 520 -1 #SUP: 2
64 -1 1379 -1 #SUP: 2
64 -1 3969 -1 #SUP: 2
64 -1 7528 -1 #SUP: 3
65 -1 2 -1 #SUP: 2
65 -1 10 -1 #SUP: 2
65 -1 22 -1 #SUP: 2
65 -1 31 -1 #SUP: 2
65 -1 64 -1 #SUP: 4
65 -1 65 -1 #SUP: 3
65 -1 77 -1 #SUP: 5
65 -1 123 -1 #SUP: 3
65 -1 154 -1 #SUP: 2
65 -1 1086 -1 #SUP: 2
65 -1 1275 -1 #SUP: 2
67 -1 29 -1 #SUP: 3
67 -1 48 -1 #SUP: 2
67 -1 65 -1 #SUP: 2
67 -1 77 -1 #SUP: 2
67 -1 156 -1 #SUP: 2
70 -1 65 -1 #SUP: 2
75 -1 10 -1 #SUP: 2
75 -1 22 -1 #SUP: 2
75 -1 77 -1 #SUP: 2
75 -1 3149 -1 #SUP: 2
75 -1 43470 -1 #SUP: 2
77 -1 2 -1 #SUP: 5
77 -1 10 -1 #SUP: 7
77 -1 16 -1 #SUP: 6
77 -1 22 -1 #SUP: 8
77 -1 27 -1 #SUP: 2
77 -1 29 -1 #SUP: 4
77 -1 31 -1 #SUP: 2
77 -1 32 -1 #SUP: 3
77 -1 33 -1 #SUP: 4
77 -1 41 -1 #SUP: 4
77 -1 50 -1 #SUP: 4
77 -1 64 -1 #SUP: 21
77 -1 65 -1 #SUP: 7
77 -1 67 -1 #SUP: 5
77 -1 77 -1 #SUP: 15
77 -1 78 -1 #SUP: 5
77 -1 120 -1 #SUP: 2
77 -1 123 -1 #SUP: 12
77 -1 144 -1 #SUP: 3
77 -1 152 -1 #SUP: 5
77 -1 154 -1 #SUP: 6
77 -1 156 -1 #SUP: 2
77 -1 162 -1 #SUP: 2
77 -1 164 -1 #SUP: 5
77 -1 170 -1 #SUP: 8
77 -1 174 -1 #SUP: 2
77 -1 175 -1 #SUP: 2
77 -1 189 -1 #SUP: 2
77 -1 193 -1 #SUP: 4
77 -1 206 -1 #SUP: 3
77 -1 220 -1 #SUP: 3
77 -1 222 -1 #SUP: 3
77 -1 262 -1 #SUP: 3
77 -1 317 -1 #SUP: 3
77 -1 322 -1 #SUP: 2
77 -1 340 -1 #SUP: 3
77 -1 349 -1 #SUP: 2
77 -1 369 -1 #SUP: 2
77 -1 381 -1 #SUP: 2
77 -1 417 -1 #SUP: 2
77 -1 441 -1 #SUP: 3
77 -1 599 -1 #SUP: 5
77 -1 654 -1 #SUP: 2
77 -1 657 -1 #SUP: 2
77 -1 765 -1 #SUP: 2
77 -1 1166 -1 #SUP: 2
77 -1 1214 -1 #SUP: 2
77 -1 1275 -1 #SUP: 2
77 -1 1379 -1 #SUP: 2
77 -1 1650 -1 #SUP: 2
77 -1 1741 -1 #SUP: 2
77 -1 3149 -1 #SUP: 2
77 -1 3352 -1 #SUP: 2
77 -1 5298 -1 #SUP: 2
77 -1 6377 -1 #SUP: 2
77 -1 10613 -1 #SUP: 2
77 -1 12545 -1 #SUP: 2
77 -1 15086 -1 #SUP: 2
77 -1 43470 -1 #SUP: 2
78 -1 10 -1 #SUP: 2
117 -1 9 -1 #SUP: 2
117 -1 28 -1 #SUP: 2
117 -1 50 -1 #SUP: 3
117 -1 77 -1 #SUP: 2
120 -1 77 -1 #SUP: 2
120 -1 123 -1 #SUP: 2
120 -1 286 -1 #SUP: 2
123 -1 2 -1 #SUP: 2
123 -1 10 -1 #SUP: 3
123 -1 16 -1 #SUP: 10
123 -1 22 -1 #SUP: 9
123 -1 31 -1 #SUP: 3
123 -1 32 -1 #SUP: 3
123 -1 33 -1 #SUP: 2
123 -1 48 -1 #SUP: 2
123 -1 50 -1 #SUP: 3
123 -1 64 -1 #SUP: 7
123 -1 65 -1 #SUP: 5
123 -1 67 -1 #SUP: 4
123 -1 77 -1 #SUP: 15
123 -1 78 -1 #SUP: 2
123 -1 120 -1 #SUP: 4
123 -1 123 -1 #SUP: 6
123 -1 144 -1 #SUP: 3
123 -1 154 -1 #SUP: 6
123 -1 158 -1 #SUP: 2
123 -1 164 -1 #SUP: 5
123 -1 165 -1 #SUP: 2
123 -1 174 -1 #SUP: 10
123 -1 206 -1 #SUP: 2
123 -1 220 -1 #SUP: 3
123 -1 256 -1 #SUP: 2
123 -1 262 -1 #SUP: 2
123 -1 263 -1 #SUP: 2
123 -1 286 -1 #SUP: 3
123 -1 340 -1 #SUP: 3
123 -1 349 -1 #SUP: 2
123 -1 369 -1 #SUP: 3
123 -1 441 -1 #SUP: 3
123 -1 529 -1 #SUP: 3
123 -1 599 -1 #SUP: 4
123 -1 1034 -1 #SUP: 2
123 -1 1214 -1 #SUP: 2
123 -1 1275 -1 #SUP: 2
123 -1 1650 -1 #SUP: 2
123 -1 1741 -1 #SUP: 2
123 -1 1755 -1 #SUP: 2
123 -1 6377 -1 #SUP: 2
144 -1 16 -1 #SUP: 2
144 -1 41 -1 #SUP: 2
144 -1 64 -1 #SUP: 2
144 -1 77 -1 #SUP: 2
144 -1 340 -1 #SUP: 2
151 -1 64 -1 #SUP: 2
152 -1 22 -1 #SUP: 2
152 -1 64 -1 #SUP: 2
152 -1 77 -1 #SUP: 2
153 -1 64 -1 #SUP: 2
154 -1 16 -1 #SUP: 3
154 -1 22 -1 #SUP: 2
154 -1 32 -1 #SUP: 2
154 -1 48 -1 #SUP: 2
154 -1 64 -1 #SUP: 3
154 -1 65 -1 #SUP: 2
154 -1 67 -1 #SUP: 2
154 -1 77 -1 #SUP: 5
154 -1 117 -1 #SUP: 2
154 -1 123 -1 #SUP: 8
154 -1 154 -1 #SUP: 2
154 -1 164 -1 #SUP: 2
154 -1 174 -1 #SUP: 2
154 -1 206 -1 #SUP: 2
154 -1 256 -1 #SUP: 2
154 -1 340 -1 #SUP: 2
154 -1 441 -1 #SUP: 2
154 -1 1772 -1 #SUP: 2
154 -1 3969 -1 #SUP: 2
154 -1 6377 -1 #SUP: 2
156 -1 77 -1 #SUP: 2
162 -1 64 -1 #SUP: 3
162 -1 77 -1 #SUP: 2
162 -1 193 -1 #SUP: 2
164 -1 22 -1 #SUP: 2
164 -1 77 -1 #SUP: 5
164 -1 152 -1 #SUP: 2
164 -1 170 -1 #SUP: 2
170 -1 16 -1 #SUP: 3
170 -1 32 -1 #SUP: 2
170 -1 64 -1 #SUP: 6
170 -1 65 -1 #SUP: 3
170 -1 77 -1 #SUP: 2
170 -1 183 -1 #SUP: 2
170 -1 193 -1 #SUP: 2
171 -1 77 -1 #SUP: 2
171 -1 571 -1 #SUP: 2
171 -1 10577 -1 #SUP: 2
174 -1 10 -1 #SUP: 3
174 -1 16 -1 #SUP: 5
174 -1 22 -1 #SUP: 2
174 -1 33 -1 #SUP: 2
174 -1 50 -1 #SUP: 3
174 -1 64 -1 #SUP: 3
174 -1 65 -1 #SUP: 3
174 -1 77 -1 #SUP: 5
174 -1 123 -1 #SUP: 3
174 -1 151 -1 #SUP: 2
174 -1 154 -1 #SUP: 3
174 -1 164 -1 #SUP: 2
174 -1 599 -1 #SUP: 3
183 -1 64 -1 #SUP: 2
183 -1 77 -1 #SUP: 2
189 -1 220 -1 #SUP: 2
190 -1 77 -1 #SUP: 3
190 -1 123 -1 #SUP: 2
193 -1 10 -1 #SUP: 2
193 -1 64 -1 #SUP: 5
193 -1 77 -1 #SUP: 4
201 -1 10 -1 #SUP: 2
201 -1 77 -1 #SUP: 2
206 -1 16 -1 #SUP: 2
206 -1 64 -1 #SUP: 2
206 -1 65 -1 #SUP: 2
220 -1 22 -1 #SUP: 2
220 -1 29 -1 #SUP: 2
220 -1 32 -1 #SUP: 2
220 -1 67 -1 #SUP: 2
220 -1 77 -1 #SUP: 3
220 -1 154 -1 #SUP: 2
222 -1 77 -1 #SUP: 2
236 -1 16 -1 #SUP: 2
236 -1 41 -1 #SUP: 2
236 -1 77 -1 #SUP: 4
236 -1 144 -1 #SUP: 2
236 -1 193 -1 #SUP: 2
236 -1 441 -1 #SUP: 2
236 -1 913 -1 #SUP: 2
256 -1 22 -1 #SUP: 2
256 -1 77 -1 #SUP: 2
256 -1 123 -1 #SUP: 2
256 -1 349 -1 #SUP: 2
262 -1 16 -1 #SUP: 2
262 -1 32 -1 #SUP: 2
262 -1 65 -1 #SUP: 2
262 -1 170 -1 #SUP: 3
262 -1 263 -1 #SUP: 2
286 -1 77 -1 #SUP: 2
286 -1 123 -1 #SUP: 3
308 -1 77 -1 #SUP: 2
317 -1 77 -1 #SUP: 2
317 -1 156 -1 #SUP: 2
322 -1 27 -1 #SUP: 2
322 -1 77 -1 #SUP: 2
334 -1 10 -1 #SUP: 2
340 -1 48 -1 #SUP: 3
340 -1 67 -1 #SUP: 2
340 -1 369 -1 #SUP: 2
349 -1 22 -1 #SUP: 2
369 -1 48 -1 #SUP: 2
369 -1 67 -1 #SUP: 2
408 -1 16 -1 #SUP: 2
417 -1 77 -1 #SUP: 2
417 -1 262 -1 #SUP: 2
441 -1 16 -1 #SUP: 2
441 -1 64 -1 #SUP: 2
441 -1 77 -1 #SUP: 5
441 -1 193 -1 #SUP: 2
441 -1 913 -1 #SUP: 2
441 -1 1650 -1 #SUP: 2
488 -1 65 -1 #SUP: 2
520 -1 77 -1 #SUP: 3
529 -1 32 -1 #SUP: 2
538 -1 292 -1 #SUP: 2
599 -1 22 -1 #SUP: 2
599 -1 77 -1 #SUP: 4
599 -1 123 -1 #SUP: 4
599 -1 154 -1 #SUP: 3
599 -1 164 -1 #SUP: 3
599 -1 441 -1 #SUP: 2
599 -1 5298 -1 #SUP: 2
628 -1 77 -1 #SUP: 2
671 -1 22 -1 #SUP: 2
671 -1 64 -1 #SUP: 2
671 -1 77 -1 #SUP: 2
671 -1 151 -1 #SUP: 2
773 -1 64 -1 #SUP: 2
850 -1 77 -1 #SUP: 2
913 -1 77 -1 #SUP: 3
913 -1 193 -1 #SUP: 2
1034 -1 22 -1 #SUP: 2
1086 -1 10 -1 #SUP: 2
1086 -1 64 -1 #SUP: 2
1086 -1 1611 -1 #SUP: 2
1166 -1 64 -1 #SUP: 2
1266 -1 308 -1 #SUP: 2
1275 -1 65 -1 #SUP: 2
1379 -1 29 -1 #SUP: 2
1379 -1 64 -1 #SUP: 2
1379 -1 67 -1 #SUP: 2
1611 -1 10 -1 #SUP: 2
1611 -1 64 -1 #SUP: 2
1650 -1 64 -1 #SUP: 2
1650 -1 77 -1 #SUP: 2
1741 -1 64 -1 #SUP: 2
1755 -1 77 -1 #SUP: 2
2703 -1 123 -1 #SUP: 2
2703 -1 1214 -1 #SUP: 2
3149 -1 77 -1 #SUP: 2
3149 -1 43470 -1 #SUP: 2
3159 -1 16 -1 #SUP: 2
3159 -1 408 -1 #SUP: 2
3352 -1 10 -1 #SUP: 2
3352 -1 77 -1 #SUP: 2
3969 -1 50 -1 #SUP: 2
3969 -1 77 -1 #SUP: 2
3969 -1 317 -1 #SUP: 2
5027 -1 64 -1 #SUP: 2
5027 -1 7528 -1 #SUP: 2
5298 -1 64 -1 #SUP: 2
6377 -1 31 -1 #SUP: 2
6377 -1 77 -1 #SUP: 2
6377 -1 123 -1 #SUP: 2
8642 -1 77 -1 #SUP: 2
10613 -1 64 -1 #SUP: 2
12545 -1 77 -1 #SUP: 2
12545 -1 12545 -1 #SUP: 2
15086 -1 64 -1 #SUP: 2
15086 -1 77 -1 #SUP: 2
43470 -1 77 -1 #SUP: 2
123886 -1 422 -1 #SUP: 2
2 -1 10613 -1 64 -1 #SUP: 2
9 -1 9 -1 26 -1 #SUP: 2
9 -1 9 -1 28 -1 #SUP: 2
9 -1 26 -1 9 -1 #SUP: 2
9 -1 26 -1 26 -1 #SUP: 2
9 -1 26 -1 28 -1 #SUP: 2
9 -1 26 -1 422 -1 #SUP: 2
9 -1 26 -1 123886 -1 #SUP: 2
9 -1 28 -1 9 -1 #SUP: 2
9 -1 28 -1 26 -1 #SUP: 3
9 -1 28 -1 28 -1 #SUP: 2
9 -1 28 -1 422 -1 #SUP: 2
9 -1 28 -1 123886 -1 #SUP: 2
9 -1 123886 -1 422 -1 #SUP: 2
10 -1 22 -1 3149 -1 #SUP: 2
10 -1 22 -1 43470 -1 #SUP: 2
10 -1 64 -1 77 -1 #SUP: 2
10 -1 77 -1 64 -1 #SUP: 2
10 -1 77 -1 77 -1 #SUP: 2
10 -1 77 -1 3149 -1 #SUP: 2
10 -1 77 -1 43470 -1 #SUP: 2
10 -1 123 -1 154 -1 #SUP: 2
10 -1 154 -1 123 -1 #SUP: 2
10 -1 3149 -1 43470 -1 #SUP: 2
10 -1 15086 -1 64 -1 #SUP: 2
10 -1 15086 -1 77 -1 #SUP: 2
16 -1 32 -1 369 -1 #SUP: 2
16 -1 64 -1 48 -1 #SUP: 2
16 -1 65 -1 77 -1 #SUP: 2
16 -1 77 -1 64 -1 #SUP: 2
16 -1 77 -1 77 -1 #SUP: 2
16 -1 77 -1 78 -1 #SUP: 2
16 -1 77 -1 123 -1 #SUP: 2
16 -1 77 -1 599 -1 #SUP: 2
16 -1 123 -1 340 -1 #SUP: 2
16 -1 154 -1 123 -1 #SUP: 3
16 -1 154 -1 340 -1 #SUP: 2
16 -1 340 -1 48 -1 #SUP: 2
16 -1 340 -1 369 -1 #SUP: 2
22 -1 10 -1 22 -1 #SUP: 3
22 -1 10 -1 77 -1 #SUP: 2
22 -1 10 -1 3149 -1 #SUP: 2
22 -1 22 -1 154 -1 #SUP: 2
22 -1 22 -1 3149 -1 #SUP: 2
22 -1 75 -1 10 -1 #SUP: 2
22 -1 75 -1 22 -1 #SUP: 2
22 -1 75 -1 77 -1 #SUP: 2
22 -1 75 -1 3149 -1 #SUP: 2
22 -1 77 -1 2 -1 #SUP: 2
22 -1 77 -1 22 -1 #SUP: 3
22 -1 77 -1 77 -1 #SUP: 3
22 -1 77 -1 78 -1 #SUP: 2
22 -1 77 -1 3149 -1 #SUP: 2
22 -1 154 -1 123 -1 #SUP: 2
22 -1 3149 -1 77 -1 #SUP: 2
22 -1 3149 -1 43470 -1 #SUP: 2
22 -1 43470 -1 77 -1 #SUP: 2
26 -1 9 -1 26 -1 #SUP: 2
26 -1 9 -1 28 -1 #SUP: 2
26 -1 28 -1 26 -1 #SUP: 2
26 -1 123886 -1 422 -1 #SUP: 2
28 -1 9 -1 26 -1 #SUP: 2
28 -1 9 -1 28 -1 #SUP: 2
28 -1 26 -1 9 -1 #SUP: 2
28 -1 26 -1 26 -1 #SUP: 2
28 -1 26 -1 28 -1 #SUP: 2
28 -1 26 -1 422 -1 #SUP: 2
28 -1 26 -1 123886 -1 #SUP: 2
28 -1 28 -1 26 -1 #SUP: 2
28 -1 123886 -1 422 -1 #SUP: 2
32 -1 10 -1 152 -1 #SUP: 2
32 -1 67 -1 48 -1 #SUP: 2
32 -1 77 -1 10 -1 #SUP: 2
32 -1 77 -1 64 -1 #SUP: 3
32 -1 77 -1 123 -1 #SUP: 4
32 -1 77 -1 152 -1 #SUP: 2
32 -1 123 -1 64 -1 #SUP: 2
32 -1 154 -1 123 -1 #SUP: 2
32 -1 369 -1 48 -1 #SUP: 2
32 -1 369 -1 67 -1 #SUP: 2
33 -1 77 -1 164 -1 #SUP: 2
41 -1 64 -1 27 -1 #SUP: 2
41 -1 64 -1 322 -1 #SUP: 2
41 -1 193 -1 77 -1 #SUP: 3
41 -1 322 -1 27 -1 #SUP: 2
41 -1 441 -1 77 -1 #SUP: 2
41 -1 441 -1 193 -1 #SUP: 2
41 -1 441 -1 913 -1 #SUP: 2
41 -1 913 -1 77 -1 #SUP: 2
41 -1 913 -1 193 -1 #SUP: 2
50 -1 9 -1 26 -1 #SUP: 2
50 -1 9 -1 28 -1 #SUP: 2
50 -1 28 -1 26 -1 #SUP: 2
50 -1 77 -1 78 -1 #SUP: 2
50 -1 123 -1 64 -1 #SUP: 2
50 -1 317 -1 77 -1 #SUP: 2
50 -1 317 -1 156 -1 #SUP: 2
50 -1 408 -1 16 -1 #SUP: 2
50 -1 3159 -1 16 -1 #SUP: 2
50 -1 3159 -1 408 -1 #SUP: 2
64 -1 10 -1 32 -1 #SUP: 2
64 -1 33 -1 222 -1 #SUP: 2
64 -1 67 -1 29 -1 #SUP: 2
64 -1 77 -1 10 -1 #SUP: 2
64 -1 77 -1 64 -1 #SUP: 4
64 -1 77 -1 77 -1 #SUP: 2
64 -1 154 -1 123 -1 #SUP: 2
64 -1 322 -1 27 -1 #SUP: 2
64 -1 1379 -1 64 -1 #SUP: 2
65 -1 77 -1 64 -1 #SUP: 2
65 -1 77 -1 65 -1 #SUP: 2
65 -1 77 -1 77 -1 #SUP: 2
65 -1 77 -1 123 -1 #SUP: 2
65 -1 77 -1 1275 -1 #SUP: 2
67 -1 77 -1 29 -1 #SUP: 2
75 -1 10 -1 22 -1 #SUP: 2
75 -1 10 -1 77 -1 #SUP: 2
75 -1 10 -1 3149 -1 #SUP: 2
75 -1 10 -1 43470 -1 #SUP: 2
75 -1 22 -1 3149 -1 #SUP: 2
75 -1 22 -1 43470 -1 #SUP: 2
75 -1 77 -1 3149 -1 #SUP: 2
75 -1 77 -1 43470 -1 #SUP: 2
75 -1 3149 -1 43470 -1 #SUP: 2
77 -1 2 -1 22 -1 #SUP: 2
77 -1 10 -1 22 -1 #SUP: 3
77 -1 10 -1 64 -1 #SUP: 2
77 -1 10 -1 77 -1 #SUP: 3
77 -1 10 -1 15086 -1 #SUP: 2
77 -1 16 -1 64 -1 #SUP: 3
77 -1 16 -1 65 -1 #SUP: 2
77 -1 16 -1 340 -1 #SUP: 3
77 -1 22 -1 22 -1 #SUP: 2
77 -1 22 -1 77 -1 #SUP: 2
77 -1 32 -1 64 -1 #SUP: 2
77 -1 33 -1 222 -1 #SUP: 2
77 -1 50 -1 317 -1 #SUP: 2
77 -1 64 -1 33 -1 #SUP: 2
77 -1 64 -1 65 -1 #SUP: 2
77 -1 64 -1 67 -1 #SUP: 3
77 -1 64 -1 77 -1 #SUP: 3
77 -1 64 -1 123 -1 #SUP: 2
77 -1 64 -1 154 -1 #SUP: 2
77 -1 64 -1 222 -1 #SUP: 2
77 -1 64 -1 317 -1 #SUP: 2
77 -1 64 -1 441 -1 #SUP: 2
77 -1 67 -1 29 -1 #SUP: 2
77 -1 77 -1 10 -1 #SUP: 2
77 -1 77 -1 22 -1 #SUP: 2
77 -1 77 -1 31 -1 #SUP: 2
77 -1 77 -1 33 -1 #SUP: 2
77 -1 77 -1 50 -1 #SUP: 2
77 -1 77 -1 64 -1 #SUP: 6
77 -1 77 -1 65 -1 #SUP: 2
77 -1 77 -1 123 -1 #SUP: 3
77 -1 77 -1 154 -1 #SUP: 2
77 -1 77 -1 170 -1 #SUP: 3
77 -1 77 -1 15086 -1 #SUP: 2
77 -1 78 -1 10 -1 #SUP: 2
77 -1 123 -1 16 -1 #SUP: 3
77 -1 123 -1 22 -1 #SUP: 2
77 -1 123 -1 64 -1 #SUP: 5
77 -1 123 -1 65 -1 #SUP: 4
77 -1 123 -1 120 -1 #SUP: 2
77 -1 123 -1 144 -1 #SUP: 2
77 -1 123 -1 154 -1 #SUP: 2
77 -1 123 -1 174 -1 #SUP: 2
77 -1 123 -1 206 -1 #SUP: 2
77 -1 123 -1 340 -1 #SUP: 3
77 -1 123 -1 441 -1 #SUP: 2
77 -1 123 -1 1650 -1 #SUP: 2
77 -1 144 -1 16 -1 #SUP: 2
77 -1 144 -1 64 -1 #SUP: 2
77 -1 144 -1 340 -1 #SUP: 2
77 -1 152 -1 22 -1 #SUP: 2
77 -1 152 -1 64 -1 #SUP: 2
77 -1 154 -1 22 -1 #SUP: 2
77 -1 154 -1 123 -1 #SUP: 2
77 -1 162 -1 193 -1 #SUP: 2
77 -1 170 -1 16 -1 #SUP: 2
77 -1 170 -1 64 -1 #SUP: 3
77 -1 170 -1 65 -1 #SUP: 2
77 -1 189 -1 220 -1 #SUP: 2
77 -1 206 -1 64 -1 #SUP: 2
77 -1 220 -1 29 -1 #SUP: 2
77 -1 417 -1 77 -1 #SUP: 2
77 -1 441 -1 1650 -1 #SUP: 2
77 -1 599 -1 22 -1 #SUP: 2
77 -1 599 -1 123 -1 #SUP: 2
77 -1 599 -1 164 -1 #SUP: 2
77 -1 1275 -1 65 -1 #SUP: 2
77 -1 1741 -1 64 -1 #SUP: 2
77 -1 3149 -1 77 -1 #SUP: 2
77 -1 3149 -1 43470 -1 #SUP: 2
77 -1 3352 -1 77 -1 #SUP: 2
77 -1 6377 -1 77 -1 #SUP: 2
77 -1 10613 -1 64 -1 #SUP: 2
77 -1 15086 -1 64 -1 #SUP: 2
77 -1 15086 -1 77 -1 #SUP: 2
77 -1 43470 -1 77 -1 #SUP: 2
117 -1 9 -1 28 -1 #SUP: 2
117 -1 50 -1 9 -1 #SUP: 2
117 -1 50 -1 28 -1 #SUP: 2
120 -1 77 -1 123 -1 #SUP: 2
123 -1 16 -1 32 -1 #SUP: 2
123 -1 16 -1 65 -1 #SUP: 2
123 -1 16 -1 77 -1 #SUP: 5
123 -1 16 -1 123 -1 #SUP: 2
123 -1 16 -1 154 -1 #SUP: 2
123 -1 16 -1 164 -1 #SUP: 2
123 -1 16 -1 340 -1 #SUP: 2
123 -1 22 -1 77 -1 #SUP: 3
123 -1 64 -1 22 -1 #SUP: 2
123 -1 64 -1 67 -1 #SUP: 3
123 -1 65 -1 77 -1 #SUP: 4
123 -1 77 -1 2 -1 #SUP: 2
123 -1 77 -1 22 -1 #SUP: 2
123 -1 77 -1 64 -1 #SUP: 2
123 -1 77 -1 77 -1 #SUP: 2
123 -1 77 -1 78 -1 #SUP: 2
123 -1 77 -1 123 -1 #SUP: 3
123 -1 77 -1 349 -1 #SUP: 2
123 -1 77 -1 599 -1 #SUP: 3
123 -1 77 -1 6377 -1 #SUP: 2
123 -1 120 -1 77 -1 #SUP: 2
123 -1 120 -1 123 -1 #SUP: 2
123 -1 120 -1 286 -1 #SUP: 2
123 -1 123 -1 16 -1 #SUP: 2
123 -1 123 -1 144 -1 #SUP: 2
123 -1 144 -1 16 -1 #SUP: 2
123 -1 144 -1 340 -1 #SUP: 2
123 -1 154 -1 123 -1 #SUP: 2
123 -1 164 -1 77 -1 #SUP: 3
123 -1 174 -1 10 -1 #SUP: 2
123 -1 174 -1 16 -1 #SUP: 5
123 -1 174 -1 22 -1 #SUP: 2
123 -1 174 -1 33 -1 #SUP: 2
123 -1 174 -1 50 -1 #SUP: 3
123 -1 174 -1 64 -1 #SUP: 3
123 -1 174 -1 65 -1 #SUP: 3
123 -1 174 -1 77 -1 #SUP: 5
123 -1 174 -1 123 -1 #SUP: 2
123 -1 174 -1 154 -1 #SUP: 2
123 -1 174 -1 164 -1 #SUP: 2
123 -1 174 -1 599 -1 #SUP: 2
123 -1 206 -1 64 -1 #SUP: 2
123 -1 220 -1 22 -1 #SUP: 2
123 -1 220 -1 32 -1 #SUP: 2
123 -1 220 -1 154 -1 #SUP: 2
123 -1 262 -1 263 -1 #SUP: 2
123 -1 286 -1 123 -1 #SUP: 2
123 -1 340 -1 48 -1 #SUP: 2
123 -1 340 -1 67 -1 #SUP: 2
123 -1 340 -1 369 -1 #SUP: 2
123 -1 369 -1 67 -1 #SUP: 2
123 -1 441 -1 77 -1 #SUP: 2
123 -1 441 -1 1650 -1 #SUP: 2
123 -1 599 -1 123 -1 #SUP: 2
123 -1 1034 -1 22 -1 #SUP: 2
123 -1 1755 -1 77 -1 #SUP: 2
144 -1 16 -1 340 -1 #SUP: 2
154 -1 123 -1 48 -1 #SUP: 2
154 -1 123 -1 67 -1 #SUP: 2
154 -1 123 -1 77 -1 #SUP: 3
154 -1 123 -1 154 -1 #SUP: 2
154 -1 123 -1 256 -1 #SUP: 2
154 -1 123 -1 340 -1 #SUP: 2
154 -1 123 -1 441 -1 #SUP: 2
154 -1 206 -1 65 -1 #SUP: 2
154 -1 340 -1 48 -1 #SUP: 2
162 -1 193 -1 64 -1 #SUP: 2
164 -1 77 -1 152 -1 #SUP: 2
164 -1 77 -1 170 -1 #SUP: 2
170 -1 16 -1 64 -1 #SUP: 2
174 -1 16 -1 77 -1 #SUP: 3
174 -1 16 -1 154 -1 #SUP: 2
174 -1 16 -1 164 -1 #SUP: 2
174 -1 16 -1 599 -1 #SUP: 2
174 -1 65 -1 77 -1 #SUP: 2
174 -1 77 -1 77 -1 #SUP: 2
174 -1 77 -1 599 -1 #SUP: 2
193 -1 77 -1 10 -1 #SUP: 2
193 -1 77 -1 64 -1 #SUP: 3
201 -1 10 -1 77 -1 #SUP: 2
220 -1 22 -1 77 -1 #SUP: 2
236 -1 41 -1 77 -1 #SUP: 2
236 -1 41 -1 193 -1 #SUP: 2
236 -1 41 -1 441 -1 #SUP: 2
236 -1 41 -1 913 -1 #SUP: 2
236 -1 77 -1 144 -1 #SUP: 2
236 -1 193 -1 77 -1 #SUP: 2
236 -1 441 -1 77 -1 #SUP: 2
236 -1 441 -1 193 -1 #SUP: 2
236 -1 441 -1 913 -1 #SUP: 2
236 -1 913 -1 77 -1 #SUP: 2
236 -1 913 -1 193 -1 #SUP: 2
256 -1 77 -1 349 -1 #SUP: 2
262 -1 170 -1 16 -1 #SUP: 2
262 -1 170 -1 65 -1 #SUP: 2
286 -1 77 -1 123 -1 #SUP: 2
340 -1 67 -1 48 -1 #SUP: 2
340 -1 369 -1 48 -1 #SUP: 2
340 -1 369 -1 67 -1 #SUP: 2
369 -1 67 -1 48 -1 #SUP: 2
417 -1 77 -1 262 -1 #SUP: 2
441 -1 16 -1 77 -1 #SUP: 2
441 -1 77 -1 77 -1 #SUP: 2
441 -1 193 -1 77 -1 #SUP: 2
441 -1 913 -1 77 -1 #SUP: 2
441 -1 913 -1 193 -1 #SUP: 2
441 -1 1650 -1 77 -1 #SUP: 2
599 -1 77 -1 5298 -1 #SUP: 2
599 -1 123 -1 154 -1 #SUP: 2
599 -1 123 -1 441 -1 #SUP: 2
599 -1 154 -1 123 -1 #SUP: 2
599 -1 154 -1 441 -1 #SUP: 2
913 -1 193 -1 77 -1 #SUP: 2
1086 -1 10 -1 64 -1 #SUP: 2
1086 -1 1611 -1 10 -1 #SUP: 2
1086 -1 1611 -1 64 -1 #SUP: 2
1379 -1 64 -1 29 -1 #SUP: 2
1379 -1 64 -1 67 -1 #SUP: 2
1379 -1 67 -1 29 -1 #SUP: 2
1611 -1 10 -1 64 -1 #SUP: 2
2703 -1 123 -1 1214 -1 #SUP: 2
3149 -1 43470 -1 77 -1 #SUP: 2
3159 -1 408 -1 16 -1 #SUP: 2
3352 -1 77 -1 10 -1 #SUP: 2
3969 -1 50 -1 77 -1 #SUP: 2
3969 -1 50 -1 317 -1 #SUP: 2
3969 -1 317 -1 77 -1 #SUP: 2
5027 -1 64 -1 7528 -1 #SUP: 2
15086 -1 64 -1 77 -1 #SUP: 2
9 -1 9 -1 28 -1 26 -1 #SUP: 2
9 -1 26 -1 9 -1 26 -1 #SUP: 2
9 -1 26 -1 9 -1 28 -1 #SUP: 2
9 -1 26 -1 28 -1 26 -1 #SUP: 2
9 -1 26 -1 123886 -1 422 -1 #SUP: 2
9 -1 28 -1 9 -1 26 -1 #SUP: 2
9 -1 28 -1 9 -1 28 -1 #SUP: 2
9 -1 28 -1 26 -1 9 -1 #SUP: 2
9 -1 28 -1 26 -1 26 -1 #SUP: 2
9 -1 28 -1 26 -1 28 -1 #SUP: 2
9 -1 28 -1 26 -1 422 -1 #SUP: 2
9 -1 28 -1 26 -1 123886 -1 #SUP: 2
9 -1 28 -1 28 -1 26 -1 #SUP: 2
9 -1 28 -1 123886 -1 422 -1 #SUP: 2
10 -1 22 -1 3149 -1 43470 -1 #SUP: 2
10 -1 77 -1 3149 -1 43470 -1 #SUP: 2
10 -1 15086 -1 64 -1 77 -1 #SUP: 2
16 -1 65 -1 77 -1 77 -1 #SUP: 2
16 -1 154 -1 123 -1 340 -1 #SUP: 2
22 -1 10 -1 22 -1 3149 -1 #SUP: 2
22 -1 10 -1 77 -1 3149 -1 #SUP: 2
22 -1 75 -1 10 -1 22 -1 #SUP: 2
22 -1 75 -1 10 -1 77 -1 #SUP: 2
22 -1 75 -1 10 -1 3149 -1 #SUP: 2
22 -1 75 -1 22 -1 3149 -1 #SUP: 2
22 -1 75 -1 77 -1 3149 -1 #SUP: 2
22 -1 3149 -1 43470 -1 77 -1 #SUP: 2
26 -1 9 -1 28 -1 26 -1 #SUP: 2
28 -1 9 -1 28 -1 26 -1 #SUP: 2
28 -1 26 -1 9 -1 26 -1 #SUP: 2
28 -1 26 -1 9 -1 28 -1 #SUP: 2
28 -1 26 -1 28 -1 26 -1 #SUP: 2
28 -1 26 -1 123886 -1 422 -1 #SUP: 2
32 -1 77 -1 123 -1 64 -1 #SUP: 2
32 -1 369 -1 67 -1 48 -1 #SUP: 2
41 -1 64 -1 322 -1 27 -1 #SUP: 2
41 -1 441 -1 193 -1 77 -1 #SUP: 2
41 -1 441 -1 913 -1 77 -1 #SUP: 2
41 -1 441 -1 913 -1 193 -1 #SUP: 2
41 -1 913 -1 193 -1 77 -1 #SUP: 2
50 -1 9 -1 28 -1 26 -1 #SUP: 2
50 -1 3159 -1 408 -1 16 -1 #SUP: 2
75 -1 10 -1 22 -1 3149 -1 #SUP: 2
75 -1 10 -1 22 -1 43470 -1 #SUP: 2
75 -1 10 -1 77 -1 3149 -1 #SUP: 2
75 -1 10 -1 77 -1 43470 -1 #SUP: 2
75 -1 10 -1 3149 -1 43470 -1 #SUP: 2
75 -1 22 -1 3149 -1 43470 -1 #SUP: 2
75 -1 77 -1 3149 -1 43470 -1 #SUP: 2
77 -1 10 -1 64 -1 77 -1 #SUP: 2
77 -1 10 -1 15086 -1 64 -1 #SUP: 2
77 -1 10 -1 15086 -1 77 -1 #SUP: 2
77 -1 64 -1 33 -1 222 -1 #SUP: 2
77 -1 64 -1 154 -1 123 -1 #SUP: 2
77 -1 77 -1 10 -1 64 -1 #SUP: 2
77 -1 77 -1 10 -1 15086 -1 #SUP: 2
77 -1 77 -1 15086 -1 64 -1 #SUP: 2
77 -1 123 -1 16 -1 340 -1 #SUP: 2
77 -1 123 -1 144 -1 16 -1 #SUP: 2
77 -1 123 -1 144 -1 340 -1 #SUP: 2
77 -1 123 -1 206 -1 64 -1 #SUP: 2
77 -1 123 -1 441 -1 1650 -1 #SUP: 2
77 -1 144 -1 16 -1 340 -1 #SUP: 2
77 -1 3149 -1 43470 -1 77 -1 #SUP: 2
77 -1 15086 -1 64 -1 77 -1 #SUP: 2
117 -1 50 -1 9 -1 28 -1 #SUP: 2
123 -1 16 -1 65 -1 77 -1 #SUP: 2
123 -1 16 -1 154 -1 123 -1 #SUP: 2
123 -1 120 -1 77 -1 123 -1 #SUP: 2
123 -1 144 -1 16 -1 340 -1 #SUP: 2
123 -1 174 -1 16 -1 77 -1 #SUP: 3
123 -1 174 -1 16 -1 164 -1 #SUP: 2
123 -1 174 -1 65 -1 77 -1 #SUP: 2
123 -1 174 -1 77 -1 77 -1 #SUP: 2
123 -1 340 -1 369 -1 67 -1 #SUP: 2
154 -1 123 -1 340 -1 48 -1 #SUP: 2
174 -1 16 -1 77 -1 599 -1 #SUP: 2
236 -1 41 -1 193 -1 77 -1 #SUP: 2
236 -1 41 -1 441 -1 77 -1 #SUP: 2
236 -1 41 -1 441 -1 193 -1 #SUP: 2
236 -1 41 -1 441 -1 913 -1 #SUP: 2
236 -1 41 -1 913 -1 77 -1 #SUP: 2
236 -1 41 -1 913 -1 193 -1 #SUP: 2
236 -1 441 -1 193 -1 77 -1 #SUP: 2
236 -1 441 -1 913 -1 77 -1 #SUP: 2
236 -1 441 -1 913 -1 193 -1 #SUP: 2
236 -1 913 -1 193 -1 77 -1 #SUP: 2
340 -1 369 -1 67 -1 48 -1 #SUP: 2
441 -1 913 -1 193 -1 77 -1 #SUP: 2
599 -1 154 -1 123 -1 441 -1 #SUP: 2
1086 -1 1611 -1 10 -1 64 -1 #SUP: 2
1379 -1 64 -1 67 -1 29 -1 #SUP: 2
3969 -1 50 -1 317 -1 77 -1 #SUP: 2
9 -1 26 -1 9 -1 28 -1 26 -1 #SUP: 2
9 -1 28 -1 9 -1 28 -1 26 -1 #SUP: 2
9 -1 28 -1 26 -1 9 -1 26 -1 #SUP: 2
9 -1 28 -1 26 -1 9 -1 28 -1 #SUP: 2
9 -1 28 -1 26 -1 28 -1 26 -1 #SUP: 2
9 -1 28 -1 26 -1 123886 -1 422 -1 #SUP: 2
22 -1 75 -1 10 -1 22 -1 3149 -1 #SUP: 2
22 -1 75 -1 10 -1 77 -1 3149 -1 #SUP: 2
28 -1 26 -1 9 -1 28 -1 26 -1 #SUP: 2
41 -1 441 -1 913 -1 193 -1 77 -1 #SUP: 2
75 -1 10 -1 22 -1 3149 -1 43470 -1 #SUP: 2
75 -1 10 -1 77 -1 3149 -1 43470 -1 #SUP: 2
77 -1 10 -1 15086 -1 64 -1 77 -1 #SUP: 2
77 -1 77 -1 10 -1 15086 -1 64 -1 #SUP: 2
77 -1 123 -1 144 -1 16 -1 340 -1 #SUP: 2
236 -1 41 -1 441 -1 193 -1 77 -1 #SUP: 2
236 -1 41 -1 441 -1 913 -1 77 -1 #SUP: 2
236 -1 41 -1 441 -1 913 -1 193 -1 #SUP: 2
236 -1 41 -1 913 -1 193 -1 77 -1 #SUP: 2
236 -1 441 -1 913 -1 193 -1 77 -1 #SUP: 2
9 -1 28 -1 26 -1 9 -1 28 -1 26 -1 #SUP: 2
236 -1 41 -1 441 -1 913 -1 193 -1 77 -1 #SUP: 2
