87465 -1 123 -1 1364 -1 164 -1 22 -1 1398 -1 259 -1 30 -2
443 -1 441 -1 668 -1 32 -1 668 -1 30 -2
533 -1 443 -1 183 -1 16 -1 10 -1 22 -1 132 -1 438 -1 30 -2
123 -1 220 -1 3256 -1 31 -1 411 -1 77 -1 369 -1 123 -1 160 -1 64 -1 67 -1 164 -1 30 -2
64 -1 67 -1 10 -1 65 -1 1580 -1 152 -1 849 -1 30 -2
56980 -1 823 -1 31 -1 22 -1 769 -1 30 -2
2 -1 3000 -1 30 -2
850 -1 30 -2
452 -1 22 -1 1762 -1 123 -1 226 -1 2734 -1 196 -1 30 -2
87465 -1 123 -1 268 -1 27 -1 41 -1 127 -1 30 -2
381 -1 87466 -1 77 -1 1480 -1 225 -1 31 -1 369 -1 349 -1 183 -1 30 -2
599 -1 154 -1 212 -1 4172 -1 189 -1 30 -2
782 -1 16 -1 50 -1 3415 -1 30 -2
162 -1 123 -1 3451 -1 285 -1 1389 -1 566 -1 206 -1 30 -2
123 -1 803 -1 198 -1 30 -2
123 -1 334 -1 342 -1 30 -2
27276 -1 823 -1 31 -1 29 -1 1314 -1 2 -1 4420 -1 30 -2
193 -1 1973 -1 222 -1 3369 -1 50 -1 863 -1 30 -2
193 -1 81 -1 5133 -1 2094 -1 77 -1 162 -1 2094 -1 170 -1 22 -1 73 -1 5009 -1 30 -2
123 -1 848 -1 711 -1 222 -1 1758 -1 2192 -1 78 -1 65 -1 365 -1 30 -2
123 -1 16336 -1 4313 -1 160 -1 64 -1 3146 -1 10 -1 30 -2
9029 -1 9027 -1 9028 -1 9027 -1 123 -1 268 -1 27 -1 41 -1 127 -1 30 -2
262 -1 170 -1 65 -1 637 -1 123 -1 638 -1 260 -1 2094 -1 852 -1 31 -1 30 -2
123 -1 1842 -1 81 -1 31 -1 505 -1 30 -2
16 -1 2107 -1 30 -2
123 -1 160 -1 505 -1 198 -1 32 -1 50 -1 13 -1 30 -2
123 -1 174 -1 1478 -1 2 -1 2910 -1 291 -1 505 -1 30 -2
20888 -1 1129 -1 123 -1 226 -1 83 -1 50 -1 544 -1 30 -2
322 -1 50 -1 49 -1 519 -1 30 -2
9029 -1 9027 -1 9028 -1 9027 -1 850 -1 30 -2
256 -1 65 -1 1235 -1 1335 -1 32 -1 1314 -1 30 -2
1441 -1 1736 -1 249 -1 566 -1 30952 -1 64 -1 287 -1 222 -1 4949 -1 30 -2
256 -1 1433 -1 668 -1 4151 -1 232 -1 164 -1 222 -1 291 -1 505 -1 30 -2
64 -1 2259 -1 1044 -1 2537 -1 30 -2
18910 -1 566 -1 170 -1 13255 -1 222 -1 30 -2
405 -1 32 -1 30 -2
520 -1 123 -1 2197 -1 342 -1 3757 -1 505 -1 30 -2
599 -1 123 -1 83 -1 30 -2
2 -1 154 -1 866 -1 168 -1 30 -2
850 -1 30 -2
566 -1 848 -1 342 -1 993 -1 64 -1 67 -1 10 -1 50 -1 13 -1 30 -2
168 -1 225 -1 1165 -1 520 -1 384 -1 151 -1 64 -1 222 -1 30 -2
75105 -1 566 -1 3748 -1 10 -1 22 -1 932 -1 154 -1 566 -1 170 -1 65 -1 10181 -1 30 -2
520 -1 154 -1 1669 -1 7783 -1 342 -1 691 -1 505 -1 30 -2
123 -1 174 -1 16 -1 3434 -1 32 -1 1690 -1 47 -1 87467 -1 30 -2
123 -1 1326 -1 193 -1 278 -1 82 -1 30 -2
566 -1 170 -1 431 -1 7076 -1 30 -2
225 -1 30 -2
87468 -1 222 -1 5963 -1 30 -2
123 -1 206 -1 8195 -1 274 -1 22 -1 3216 -1 196 -1 505 -1 30 -2
123 -1 206 -1 520 -1 1024 -1 30 -2
566 -1 212 -1 826 -1 1160 -1 932 -1 7207 -1 291 -1 30 -2
2 -1 233 -1 151 -1 1432 -1 30 -2
520 -1 3581 -1 1655 -1 10 -1 154 -1 418 -1 170 -1 383 -1 32 -1 30 -2
168 -1 894 -1 171 -1 32 -1 22 -1 2048 -1 32 -1 32 -1 50 -1 13 -1 206 -1 1051 -1 6164 -1 77 -1 87470 -1 77 -1 87469 -1 77 -1 25900 -1 77 -1 35268 -1 30 -2
566 -1 7 -1 65 -1 2094 -1 226 -1 77 -1 1210 -1 256 -1 65 -1 4036 -1 2 -1 4381 -1 2958 -1 77 -1 7 -1 65 -1 1219 -1 32 -1 260 -1 168 -1 668 -1 30 -2
894 -1 171 -1 32 -1 22 -1 2048 -1 32 -1 32 -1 50 -1 13 -1 206 -1 1051 -1 6164 -1 77 -1 87470 -1 77 -1 87469 -1 77 -1 25900 -1 77 -1 35268 -1 30 -2
566 -1 7 -1 65 -1 2094 -1 226 -1 77 -1 1210 -1 256 -1 65 -1 4036 -1 2 -1 4381 -1 2958 -1 77 -1 7 -1 65 -1 1219 -1 32 -1 260 -1 168 -1 668 -1 30 -2
894 -1 171 -1 32 -1 22 -1 2048 -1 32 -1 32 -1 50 -1 13 -1 206 -1 1051 -1 6164 -1 77 -1 87470 -1 77 -1 87469 -1 77 -1 25900 -1 77 -1 35268 -1 30 -2
566 -1 7 -1 65 -1 2094 -1 226 -1 77 -1 1210 -1 256 -1 65 -1 4036 -1 2 -1 4381 -1 2958 -1 77 -1 7 -1 65 -1 1219 -1 32 -1 260 -1 168 -1 668 -1 30 -2
123 -1 638 -1 22 -1 132 -1 75 -1 774 -1 158 -1 164 -1 326 -1 2849 -1 30 -2
168 -1 6018 -1 236 -1 29 -1 16 -1 154 -1 237 -1 1214 -1 77 -1 782 -1 398 -1 64 -1 1707 -1 1214 -1 499 -1 77 -1 520 -1 154 -1 768 -1 220 -1 67 -1 164 -1 200 -1 369 -1 1242 -1 1214 -1 151 -1 30 -2
850 -1 850 -1 30 -2
123 -1 174 -1 65 -1 1044 -1 3120 -1 30 -2
123 -1 638 -1 520 -1 384 -1 651 -1 33 -1 10 -1 50 -1 13 -1 77 -1 64 -1 22 -1 1335 -1 77 -1 782 -1 398 -1 64 -1 5448 -1 153 -1 64 -1 67 -1 471 -1 30 -2
65 -1 686 -1 44 -1 11012 -1 10 -1 370 -1 5693 -1 2 -1 5115 -1 64 -1 393 -1 123 -1 212 -1 160 -1 1817 -1 3559 -1 4726 -1 4726 -1 505 -1 64 -1 22 -1 1335 -1 444 -1 566 -1 212 -1 1961 -1 158 -1 2 -1 7624 -1 30 -2
658 -1 666 -1 33 -1 22 -1 658 -1 1405 -1 879 -1 30 -1 30 -1 162 -1 29 -1 1326 -1 65 -1 243 -1 12988 -1 123 -1 1591 -1 4755 -1 291 -1 222 -1 520 -1 384 -1 30 -2
2 -1 22 -1 622 -1 637 -1 212 -1 322 -1 222 -1 78 -1 871 -1 2179 -1 30 -2
123 -1 212 -1 160 -1 65 -1 645 -1 2 -1 65 -1 9521 -1 256 -1 964 -1 613 -1 409 -1 645 -1 443 -1 183 -1 10 -1 22 -1 132 -1 438 -1 30 -2
443 -1 2070 -1 158 -1 164 -1 22 -1 132 -1 225 -1 30 -2
123 -1 174 -1 256 -1 22 -1 22998 -1 78 -1 246 -1 30 -2
520 -1 123 -1 375 -1 871 -1 1952 -1 64 -1 1234 -1 196 -1 30 -2
189 -1 123 -1 174 -1 10 -1 65 -1 3044 -1 164 -1 171 -1 32 -1 430 -1 549 -1 768 -1 1351 -1 768 -1 170 -1 4153 -1 64 -1 262 -1 34325 -1 356 -1 65 -1 17632 -1 64 -1 65 -1 11750 -1 30 -2
123 -1 286 -1 193 -1 226 -1 67 -1 81 -1 31 -1 1214 -1 64 -1 1034 -1 1214 -1 3623 -1 6133 -1 30 -2
123 -1 2209 -1 285 -1 123 -1 220 -1 1034 -1 262 -1 94 -1 77 -1 911 -1 77 -1 10 -1 326 -1 526 -1 528 -1 858 -1 30 -2
2001 -1 3383 -1 1210 -1 256 -1 326 -1 922 -1 292 -1 20611 -1 77 -1 6164 -1 77 -1 2 -1 1257 -1 225 -1 164 -1 168 -1 1346 -1 438 -1 444 -1 65 -1 401 -1 30 -2
87471 -1 77 -1 6532 -1 77 -1 1300 -1 30 -2
123 -1 206 -1 1002 -1 10 -1 1859 -1 27 -1 2637 -1 963 -1 77 -1 154 -1 206 -1 27 -1 123 -1 206 -1 1712 -1 31 -1 30 -2
520 -1 823 -1 22 -1 1984 -1 408 -1 397 -1 206 -1 65 -1 1219 -1 151 -1 7516 -1 30 -2
599 -1 123 -1 174 -1 16 -1 1002 -1 291 -1 154 -1 30 -2
144 -1 41 -1 613 -1 1214 -1 1 -2
520 -1 236 -1 326 -1 2849 -1 1379 -1 326 -1 3116 -1 536 -1 77 -1 349 -1 160 -1 64 -1 789 -1 187 -1 164 -1 154 -1 365 -1 64 -1 473 -1 152 -1 144 -1 349 -1 765 -1 193 -1 164 -1 1471 -1 2810 -1 30 -2
212 -1 1002 -1 77 -1 256 -1 326 -1 6 -1 408 -1 397 -1 59825 -1 2470 -1 87472 -1 15459 -1 77 -1 15375 -1 2 -1 28333 -1 14484 -1 11933 -1 1021 -1 306 -1 8854 -1 1021 -1 9898 -1 2 -1 18163 -1 1021 -1 73 -1 10 -1 18681 -1 15421 -1 32 -1 65 -1 671 -1 4088 -1 3987 -1 38497 -1 65 -1 1892 -1 64 -1 4047 -1 326 -1 2208 -1 291 -1 22 -1 3481 -1 2067 -1 2302 -1 408 -1 397 -1 77 -1 2 -1 6520 -1 326 -1 14641 -1 64 -1 789 -1 193 -1 30 -2
566 -1 1379 -1 193 -1 64 -1 67 -1 65 -1 35235 -1 31 -1 6103 -1 87473 -1 77 -1 520 -1 566 -1 170 -1 171 -1 30 -2
693 -1 637 -1 369 -1 206 -1 65 -1 46 -1 32 -1 65 -1 46 -1 32 -1 65 -1 46 -1 30 -2
326 -1 2849 -1 30 -2
566 -1 63062 -1 291 -1 2010 -1 566 -1 1045 -1 30 -2
1533 -1 134 -1 3380 -1 193 -1 30 -2
566 -1 667 -1 693 -1 405 -1 32 -1 666 -1 33 -1 222 -1 30 -2
566 -1 1045 -1 50 -1 2104 -1 77 -1 599 -1 1320 -1 64 -1 1062 -1 1146 -1 9 -1 87474 -1 30097 -1 22956 -1 23795 -1 939 -1 256 -1 50 -1 13 -1 162 -1 22 -1 7537 -1 637 -1 77 -1 65 -1 12376 -1 117 -1 29 -1 4932 -1 77 -1 697 -1 198 -1 66 -1 22 -1 229 -1 30 -2
244 -1 2284 -1 65 -1 440 -1 77 -1 65 -1 3958 -1 2118 -1 4319 -1 77 -1 369 -1 2048 -1 505 -1 31 -1 212 -1 22 -1 417 -1 566 -1 183 -1 30 -2
244 -1 22 -1 1542 -1 94 -1 30 -2
84329 -1 321 -1 3109 -1 369 -1 226 -1 2598 -1 704 -1 23830 -1 2436 -1 64 -1 67 -1 356 -1 47 -1 12833 -1 2436 -1 77 -1 140 -1 22 -1 1730 -1 154 -1 20894 -1 505 -1 233 -1 64 -1 1852 -1 66 -1 167 -1 64 -1 2977 -1 30 -2
123 -1 144 -1 342 -1 260 -1 1386 -1 64 -1 393 -1 356 -1 262 -1 30 -2
599 -1 123 -1 1045 -1 193 -1 30 -2
193 -1 638 -1 356 -1 326 -1 4234 -1 546 -1 2469 -1 2508 -1 6317 -1 2 -1 905 -1 64 -1 193 -1 2 -1 356 -1 65 -1 5784 -1 14689 -1 7596 -1 559 -1 64 -1 193 -1 30 -2
50 -1 604 -1 30 -2
123 -1 826 -1 326 -1 2537 -1 3695 -1 164 -1 9356 -1 462 -1 117 -1 9 -1 81033 -1 87476 -1 123 -1 441 -1 826 -1 326 -1 2537 -1 3695 -1 164 -1 87475 -1 117 -1 9 -1 81033 -1 87476 -1 1211 -1 30495 -1 30 -2
13642 -1 10 -1 87478 -1 2 -1 35759 -1 1805 -1 33 -1 87477 -1 17793 -1 30 -2
16 -1 699 -1 31 -1 65 -1 6485 -1 30 -2
123 -1 174 -1 1008 -1 33 -1 65 -1 14429 -1 981 -1 2 -1 782 -1 50 -1 317 -1 3415 -1 30 -2
520 -1 123 -1 174 -1 5115 -1 64 -1 87479 -1 30 -2
547 -1 443 -1 441 -1 1184 -1 519 -1 30 -2
123 -1 160 -1 29074 -1 77 -1 8674 -1 2 -1 1675 -1 152 -1 65 -1 1421 -1 154 -1 220 -1 711 -1 50 -1 584 -1 611 -1 6590 -1 2 -1 781 -1 222 -1 87480 -1 10 -1 50 -1 44148 -1 30 -2
12071 -1 8010 -1 87482 -1 87481 -1 393 -1 30 -2
162 -1 65 -1 637 -1 46691 -1 198 -1 462 -1 356 -1 154 -1 77 -1 123 -1 174 -1 16 -1 944 -1 10 -1 5115 -1 64 -1 193 -1 30 -2
356 -1 77 -1 268 -1 65 -1 18909 -1 30 -2
8 -1 28 -1 26 -1 87484 -1 87483 -1 90 -1 51 -1 3515 -1 383 -1 32 -1 65 -1 156 -1 30 -2
17282 -1 604 -1 30 -2
31 -1 693 -1 1587 -1 123 -1 286 -1 549 -1 369 -1 183 -1 773 -1 117 -1 6782 -1 318 -1 525 -1 356 -1 154 -1 170 -1 4381 -1 2 -1 4051 -1 30 -2
13785 -1 50 -1 584 -1 30 -2
549 -1 356 -1 154 -1 206 -1 342 -1 224 -1 30 -2
87481 -1 2370 -1 4102 -1 4168 -1 2719 -1 30 -2
1758 -1 168 -1 393 -1 30 -2
8 -1 28 -1 26 -1 87485 -1 50 -1 424 -1 4441 -1 859 -1 30 -2
22 -1 658 -1 3120 -1 10 -1 25607 -1 77 -1 17711 -1 17710 -1 30 -2
768 -1 3217 -1 222 -1 22 -1 21199 -1 2544 -1 77 -1 22 -1 1432 -1 77 -1 22 -1 3893 -1 2 -1 2882 -1 32 -1 65 -1 478 -1 46 -1 256 -1 1144 -1 395 -1 30 -2
768 -1 692 -1 564 -1 30 -2
2860 -1 158 -1 663 -1 381 -1 1296 -1 2 -1 1300 -1 164 -1 154 -1 30 -2
123 -1 441 -1 65 -1 666 -1 33 -1 200 -1 30 -2
599 -1 2826 -1 64 -1 2001 -1 291 -1 22 -1 424 -1 408 -1 13337 -1 6717 -1 1648 -1 30 -2
236 -1 318 -1 170 -1 651 -1 64 -1 67 -1 151 -1 8749 -1 153 -1 1296 -1 2 -1 30 -2