2 -1 #SUP: 29
5 -1 #SUP: 8
7 -1 #SUP: 3
8 -1 #SUP: 6
10 -1 #SUP: 11
16 -1 #SUP: 2
22 -1 #SUP: 37
27 -1 #SUP: 6
29 -1 #SUP: 10
31 -1 #SUP: 5
32 -1 #SUP: 12
33 -1 #SUP: 5
39 -1 #SUP: 2
41 -1 #SUP: 23
48 -1 #SUP: 2
50 -1 #SUP: 7
64 -1 #SUP: 14
65 -1 #SUP: 21
66 -1 #SUP: 4
67 -1 #SUP: 8
68 -1 #SUP: 8
73 -1 #SUP: 2
76 -1 #SUP: 3
77 -1 #SUP: 49
78 -1 #SUP: 2
103 -1 #SUP: 3
113 -1 #SUP: 2
123 -1 #SUP: 14
144 -1 #SUP: 6
151 -1 #SUP: 7
154 -1 #SUP: 8
158 -1 #SUP: 3
162 -1 #SUP: 2
164 -1 #SUP: 7
165 -1 #SUP: 3
168 -1 #SUP: 2
170 -1 #SUP: 10
171 -1 #SUP: 5
183 -1 #SUP: 3
193 -1 #SUP: 7
201 -1 #SUP: 4
210 -1 #SUP: 10
219 -1 #SUP: 2
220 -1 #SUP: 4
222 -1 #SUP: 4
223 -1 #SUP: 3
225 -1 #SUP: 3
233 -1 #SUP: 4
236 -1 #SUP: 2
239 -1 #SUP: 2
244 -1 #SUP: 4
246 -1 #SUP: 2
256 -1 #SUP: 4
262 -1 #SUP: 9
268 -1 #SUP: 4
284 -1 #SUP: 2
286 -1 #SUP: 2
291 -1 #SUP: 2
308 -1 #SUP: 4
310 -1 #SUP: 2
321 -1 #SUP: 3
326 -1 #SUP: 3
340 -1 #SUP: 3
342 -1 #SUP: 2
349 -1 #SUP: 3
356 -1 #SUP: 4
364 -1 #SUP: 7
381 -1 #SUP: 4
430 -1 #SUP: 2
431 -1 #SUP: 3
441 -1 #SUP: 3
443 -1 #SUP: 3
452 -1 #SUP: 4
458 -1 #SUP: 2
507 -1 #SUP: 2
518 -1 #SUP: 2
520 -1 #SUP: 6
529 -1 #SUP: 2
548 -1 #SUP: 3
567 -1 #SUP: 6
591 -1 #SUP: 2
599 -1 #SUP: 7
603 -1 #SUP: 2
613 -1 #SUP: 2
630 -1 #SUP: 3
642 -1 #SUP: 3
704 -1 #SUP: 2
711 -1 #SUP: 2
765 -1 #SUP: 2
782 -1 #SUP: 2
826 -1 #SUP: 2
831 -1 #SUP: 2
850 -1 #SUP: 2
863 -1 #SUP: 2
888 -1 #SUP: 3
936 -1 #SUP: 2
964 -1 #SUP: 3
1259 -1 #SUP: 2
1300 -1 #SUP: 3
1305 -1 #SUP: 2
1331 -1 #SUP: 2
1389 -1 #SUP: 4
1468 -1 #SUP: 3
1620 -1 #SUP: 2
1669 -1 #SUP: 2
1758 -1 #SUP: 3
1893 -1 #SUP: 2
1946 -1 #SUP: 3
2106 -1 #SUP: 2
2134 -1 #SUP: 2
2173 -1 #SUP: 2
2295 -1 #SUP: 2
2351 -1 #SUP: 2
2366 -1 #SUP: 2
2563 -1 #SUP: 2
2771 -1 #SUP: 2
2945 -1 #SUP: 3
3002 -1 #SUP: 3
3107 -1 #SUP: 2
4653 -1 #SUP: 2
4833 -1 #SUP: 2
4935 -1 #SUP: 2
5242 -1 #SUP: 2
6666 -1 #SUP: 2
7376 -1 #SUP: 3
7701 -1 #SUP: 2
10542 -1 #SUP: 2
11147 -1 #SUP: 2
18124 -1 #SUP: 2
24085 -1 #SUP: 2
29147 -1 #SUP: 2
52245 -1 #SUP: 2
52251 -1 #SUP: 2
123785 -1 #SUP: 2
140718 -1 #SUP: 2
2 -1 2 -1 #SUP: 4
2 -1 5 -1 #SUP: 3
2 -1 10 -1 #SUP: 3
2 -1 22 -1 #SUP: 8
2 -1 33 -1 #SUP: 2
2 -1 41 -1 #SUP: 3
2 -1 50 -1 #SUP: 2
2 -1 64 -1 #SUP: 3
2 -1 65 -1 #SUP: 3
2 -1 77 -1 #SUP: 5
2 -1 123 -1 #SUP: 2
2 -1 144 -1 #SUP: 2
2 -1 151 -1 #SUP: 3
2 -1 154 -1 #SUP: 3
2 -1 170 -1 #SUP: 3
2 -1 193 -1 #SUP: 3
2 -1 201 -1 #SUP: 2
2 -1 244 -1 #SUP: 3
2 -1 262 -1 #SUP: 2
2 -1 268 -1 #SUP: 2
2 -1 340 -1 #SUP: 2
2 -1 349 -1 #SUP: 2
2 -1 364 -1 #SUP: 2
2 -1 381 -1 #SUP: 2
2 -1 2351 -1 #SUP: 2
2 -1 7376 -1 #SUP: 3
5 -1 2 -1 #SUP: 2
5 -1 22 -1 #SUP: 3
5 -1 64 -1 #SUP: 2
5 -1 67 -1 #SUP: 2
5 -1 77 -1 #SUP: 3
5 -1 151 -1 #SUP: 2
5 -1 364 -1 #SUP: 2
7 -1 31 -1 #SUP: 2
8 -1 1893 -1 #SUP: 2
10 -1 22 -1 #SUP: 4
10 -1 41 -1 #SUP: 3
10 -1 65 -1 #SUP: 5
10 -1 77 -1 #SUP: 2
10 -1 113 -1 #SUP: 2
10 -1 364 -1 #SUP: 2
16 -1 22 -1 #SUP: 2
22 -1 2 -1 #SUP: 7
22 -1 5 -1 #SUP: 2
22 -1 10 -1 #SUP: 3
22 -1 16 -1 #SUP: 2
22 -1 22 -1 #SUP: 8
22 -1 32 -1 #SUP: 6
22 -1 33 -1 #SUP: 2
22 -1 64 -1 #SUP: 3
22 -1 65 -1 #SUP: 3
22 -1 66 -1 #SUP: 2
22 -1 76 -1 #SUP: 2
22 -1 77 -1 #SUP: 12
22 -1 123 -1 #SUP: 2
22 -1 144 -1 #SUP: 2
22 -1 154 -1 #SUP: 3
22 -1 170 -1 #SUP: 3
22 -1 193 -1 #SUP: 3
22 -1 222 -1 #SUP: 2
22 -1 364 -1 #SUP: 3
22 -1 548 -1 #SUP: 2
22 -1 599 -1 #SUP: 2
27 -1 22 -1 #SUP: 2
27 -1 41 -1 #SUP: 3
27 -1 64 -1 #SUP: 3
27 -1 144 -1 #SUP: 2
27 -1 222 -1 #SUP: 2
27 -1 441 -1 #SUP: 2
29 -1 2 -1 #SUP: 3
29 -1 29 -1 #SUP: 2
29 -1 41 -1 #SUP: 3
29 -1 64 -1 #SUP: 2
29 -1 77 -1 #SUP: 4
29 -1 170 -1 #SUP: 2
29 -1 183 -1 #SUP: 2
29 -1 244 -1 #SUP: 2
29 -1 256 -1 #SUP: 2
31 -1 22 -1 #SUP: 2
32 -1 5 -1 #SUP: 2
32 -1 22 -1 #SUP: 4
32 -1 32 -1 #SUP: 3
32 -1 77 -1 #SUP: 4
33 -1 22 -1 #SUP: 3
41 -1 10 -1 #SUP: 2
41 -1 22 -1 #SUP: 2
41 -1 29 -1 #SUP: 2
41 -1 41 -1 #SUP: 5
41 -1 65 -1 #SUP: 4
41 -1 68 -1 #SUP: 3
41 -1 77 -1 #SUP: 4
41 -1 151 -1 #SUP: 2
41 -1 154 -1 #SUP: 2
41 -1 158 -1 #SUP: 2
41 -1 183 -1 #SUP: 3
41 -1 220 -1 #SUP: 3
41 -1 244 -1 #SUP: 2
41 -1 381 -1 #SUP: 3
41 -1 630 -1 #SUP: 3
41 -1 1331 -1 #SUP: 2
48 -1 77 -1 #SUP: 2
50 -1 10 -1 #SUP: 3
50 -1 22 -1 #SUP: 3
50 -1 77 -1 #SUP: 3
50 -1 863 -1 #SUP: 2
64 -1 22 -1 #SUP: 4
64 -1 77 -1 #SUP: 4
64 -1 151 -1 #SUP: 2
64 -1 356 -1 #SUP: 2
65 -1 10 -1 #SUP: 2
65 -1 22 -1 #SUP: 4
65 -1 27 -1 #SUP: 2
65 -1 31 -1 #SUP: 2
65 -1 41 -1 #SUP: 5
65 -1 64 -1 #SUP: 2
65 -1 65 -1 #SUP: 4
65 -1 77 -1 #SUP: 4
65 -1 144 -1 #SUP: 2
65 -1 164 -1 #SUP: 2
65 -1 210 -1 #SUP: 3
65 -1 220 -1 #SUP: 2
65 -1 308 -1 #SUP: 2
65 -1 441 -1 #SUP: 2
65 -1 603 -1 #SUP: 2
65 -1 1331 -1 #SUP: 2
66 -1 10 -1 #SUP: 2
66 -1 22 -1 #SUP: 2
67 -1 2 -1 #SUP: 3
67 -1 22 -1 #SUP: 2
67 -1 64 -1 #SUP: 3
67 -1 151 -1 #SUP: 2
67 -1 210 -1 #SUP: 2
68 -1 68 -1 #SUP: 3
68 -1 381 -1 #SUP: 2
68 -1 443 -1 #SUP: 3
76 -1 77 -1 #SUP: 3
77 -1 2 -1 #SUP: 10
77 -1 5 -1 #SUP: 4
77 -1 10 -1 #SUP: 2
77 -1 22 -1 #SUP: 12
77 -1 29 -1 #SUP: 2
77 -1 32 -1 #SUP: 3
77 -1 33 -1 #SUP: 2
77 -1 41 -1 #SUP: 7
77 -1 50 -1 #SUP: 2
77 -1 64 -1 #SUP: 4
77 -1 65 -1 #SUP: 7
77 -1 66 -1 #SUP: 2
77 -1 67 -1 #SUP: 3
77 -1 77 -1 #SUP: 8
77 -1 123 -1 #SUP: 4
77 -1 144 -1 #SUP: 2
77 -1 151 -1 #SUP: 4
77 -1 154 -1 #SUP: 4
77 -1 170 -1 #SUP: 5
77 -1 193 -1 #SUP: 2
77 -1 220 -1 #SUP: 3
77 -1 236 -1 #SUP: 2
77 -1 244 -1 #SUP: 2
77 -1 256 -1 #SUP: 2
77 -1 262 -1 #SUP: 4
77 -1 308 -1 #SUP: 2
77 -1 326 -1 #SUP: 2
77 -1 340 -1 #SUP: 2
77 -1 356 -1 #SUP: 2
77 -1 364 -1 #SUP: 2
77 -1 381 -1 #SUP: 2
77 -1 520 -1 #SUP: 3
77 -1 599 -1 #SUP: 6
77 -1 603 -1 #SUP: 2
77 -1 831 -1 #SUP: 2
77 -1 2563 -1 #SUP: 2
77 -1 52251 -1 #SUP: 2
77 -1 123785 -1 #SUP: 2
103 -1 77 -1 #SUP: 2
123 -1 2 -1 #SUP: 4
123 -1 22 -1 #SUP: 2
123 -1 41 -1 #SUP: 2
123 -1 50 -1 #SUP: 2
123 -1 64 -1 #SUP: 2
123 -1 65 -1 #SUP: 3
123 -1 77 -1 #SUP: 5
123 -1 144 -1 #SUP: 3
123 -1 170 -1 #SUP: 2
123 -1 262 -1 #SUP: 2
123 -1 268 -1 #SUP: 2
123 -1 286 -1 #SUP: 2
123 -1 342 -1 #SUP: 2
123 -1 356 -1 #SUP: 3
123 -1 765 -1 #SUP: 2
123 -1 2771 -1 #SUP: 2
144 -1 22 -1 #SUP: 3
144 -1 41 -1 #SUP: 2
144 -1 64 -1 #SUP: 2
144 -1 340 -1 #SUP: 2
144 -1 342 -1 #SUP: 2
144 -1 349 -1 #SUP: 2
144 -1 441 -1 #SUP: 2
151 -1 2 -1 #SUP: 2
151 -1 5 -1 #SUP: 4
151 -1 22 -1 #SUP: 3
151 -1 77 -1 #SUP: 3
151 -1 151 -1 #SUP: 2
151 -1 364 -1 #SUP: 2
154 -1 2 -1 #SUP: 2
154 -1 7 -1 #SUP: 2
154 -1 31 -1 #SUP: 2
154 -1 65 -1 #SUP: 2
154 -1 77 -1 #SUP: 3
154 -1 381 -1 #SUP: 2
158 -1 10 -1 #SUP: 2
158 -1 22 -1 #SUP: 2
162 -1 41 -1 #SUP: 2
164 -1 8 -1 #SUP: 2
164 -1 41 -1 #SUP: 2
164 -1 65 -1 #SUP: 2
170 -1 41 -1 #SUP: 3
170 -1 64 -1 #SUP: 2
170 -1 65 -1 #SUP: 2
170 -1 77 -1 #SUP: 2
170 -1 154 -1 #SUP: 2
171 -1 154 -1 #SUP: 2
171 -1 1946 -1 #SUP: 2
183 -1 77 -1 #SUP: 2
193 -1 193 -1 #SUP: 2
193 -1 591 -1 #SUP: 2
193 -1 5242 -1 #SUP: 2
201 -1 27 -1 #SUP: 2
210 -1 2 -1 #SUP: 2
210 -1 22 -1 #SUP: 2
210 -1 41 -1 #SUP: 2
210 -1 65 -1 #SUP: 4
210 -1 67 -1 #SUP: 2
210 -1 210 -1 #SUP: 2
222 -1 77 -1 #SUP: 3
222 -1 154 -1 #SUP: 2
223 -1 2 -1 #SUP: 2
223 -1 64 -1 #SUP: 2
223 -1 77 -1 #SUP: 2
233 -1 64 -1 #SUP: 2
236 -1 41 -1 #SUP: 2
236 -1 183 -1 #SUP: 2
236 -1 244 -1 #SUP: 2
244 -1 22 -1 #SUP: 2
244 -1 41 -1 #SUP: 2
262 -1 64 -1 #SUP: 2
262 -1 170 -1 #SUP: 3
262 -1 599 -1 #SUP: 2
262 -1 888 -1 #SUP: 2
268 -1 22 -1 #SUP: 2
268 -1 77 -1 #SUP: 2
284 -1 67 -1 #SUP: 2
286 -1 2 -1 #SUP: 2
291 -1 2 -1 #SUP: 2
291 -1 77 -1 #SUP: 2
308 -1 22 -1 #SUP: 2
308 -1 64 -1 #SUP: 3
308 -1 77 -1 #SUP: 2
326 -1 77 -1 #SUP: 2
326 -1 18124 -1 #SUP: 2
340 -1 2 -1 #SUP: 2
340 -1 77 -1 #SUP: 2
342 -1 22 -1 #SUP: 2
349 -1 77 -1 #SUP: 2
349 -1 222 -1 #SUP: 2
349 -1 2173 -1 #SUP: 2
356 -1 77 -1 #SUP: 2
364 -1 16 -1 #SUP: 2
364 -1 22 -1 #SUP: 3
364 -1 77 -1 #SUP: 2
364 -1 256 -1 #SUP: 2
431 -1 431 -1 #SUP: 2
441 -1 22 -1 #SUP: 2
443 -1 68 -1 #SUP: 3
443 -1 443 -1 #SUP: 2
452 -1 77 -1 #SUP: 2
520 -1 2 -1 #SUP: 2
520 -1 5 -1 #SUP: 2
520 -1 22 -1 #SUP: 2
520 -1 41 -1 #SUP: 2
520 -1 77 -1 #SUP: 3
548 -1 41 -1 #SUP: 2
567 -1 567 -1 #SUP: 3
599 -1 22 -1 #SUP: 2
599 -1 41 -1 #SUP: 2
599 -1 123 -1 #SUP: 3
599 -1 144 -1 #SUP: 2
630 -1 41 -1 #SUP: 2
936 -1 77 -1 #SUP: 2
1259 -1 8 -1 #SUP: 2
1259 -1 164 -1 #SUP: 2
1305 -1 68 -1 #SUP: 2
1389 -1 1389 -1 #SUP: 2
1389 -1 4833 -1 #SUP: 2
1758 -1 22 -1 #SUP: 2
1946 -1 77 -1 #SUP: 2
2134 -1 2 -1 #SUP: 2
2134 -1 5 -1 #SUP: 2
2134 -1 151 -1 #SUP: 2
2134 -1 7376 -1 #SUP: 2
2173 -1 77 -1 #SUP: 2
2173 -1 222 -1 #SUP: 2
2366 -1 77 -1 #SUP: 2
2945 -1 77 -1 #SUP: 3
3107 -1 77 -1 #SUP: 2
4935 -1 77 -1 #SUP: 2
5242 -1 591 -1 #SUP: 2
7376 -1 5 -1 #SUP: 2
7376 -1 22 -1 #SUP: 2
7376 -1 77 -1 #SUP: 2
7376 -1 151 -1 #SUP: 2
7376 -1 364 -1 #SUP: 2
7701 -1 8 -1 #SUP: 2
7701 -1 164 -1 #SUP: 2
7701 -1 1259 -1 #SUP: 2
11147 -1 65 -1 #SUP: 2
11147 -1 210 -1 #SUP: 2
18124 -1 77 -1 #SUP: 2
140718 -1 8 -1 #SUP: 2
140718 -1 164 -1 #SUP: 2
140718 -1 1259 -1 #SUP: 2
140718 -1 7701 -1 #SUP: 2
2 -1 5 -1 22 -1 #SUP: 2
2 -1 41 -1 41 -1 #SUP: 2
2 -1 50 -1 10 -1 #SUP: 2
2 -1 144 -1 349 -1 #SUP: 2
2 -1 151 -1 5 -1 #SUP: 3
2 -1 151 -1 22 -1 #SUP: 2
2 -1 151 -1 77 -1 #SUP: 2
2 -1 151 -1 364 -1 #SUP: 2
2 -1 170 -1 65 -1 #SUP: 2
2 -1 7376 -1 5 -1 #SUP: 2
2 -1 7376 -1 77 -1 #SUP: 2
2 -1 7376 -1 151 -1 #SUP: 2
2 -1 7376 -1 364 -1 #SUP: 2
5 -1 22 -1 364 -1 #SUP: 2
10 -1 65 -1 65 -1 #SUP: 2
10 -1 65 -1 77 -1 #SUP: 2
22 -1 2 -1 22 -1 #SUP: 2
22 -1 22 -1 22 -1 #SUP: 2
22 -1 22 -1 32 -1 #SUP: 3
22 -1 22 -1 77 -1 #SUP: 4
22 -1 32 -1 22 -1 #SUP: 2
22 -1 32 -1 77 -1 #SUP: 2
22 -1 76 -1 77 -1 #SUP: 2
22 -1 77 -1 2 -1 #SUP: 4
22 -1 77 -1 22 -1 #SUP: 2
22 -1 77 -1 65 -1 #SUP: 2
22 -1 77 -1 77 -1 #SUP: 6
22 -1 77 -1 123 -1 #SUP: 2
22 -1 77 -1 154 -1 #SUP: 3
22 -1 77 -1 170 -1 #SUP: 2
22 -1 77 -1 599 -1 #SUP: 2
22 -1 364 -1 16 -1 #SUP: 2
22 -1 599 -1 123 -1 #SUP: 2
27 -1 144 -1 64 -1 #SUP: 2
29 -1 2 -1 2 -1 #SUP: 2
29 -1 41 -1 183 -1 #SUP: 2
29 -1 77 -1 41 -1 #SUP: 2
29 -1 77 -1 77 -1 #SUP: 2
29 -1 244 -1 41 -1 #SUP: 2
32 -1 22 -1 32 -1 #SUP: 2
32 -1 22 -1 77 -1 #SUP: 2
41 -1 41 -1 22 -1 #SUP: 2
41 -1 65 -1 65 -1 #SUP: 2
41 -1 65 -1 1331 -1 #SUP: 2
41 -1 68 -1 381 -1 #SUP: 2
41 -1 77 -1 41 -1 #SUP: 3
41 -1 77 -1 244 -1 #SUP: 2
41 -1 154 -1 381 -1 #SUP: 2
41 -1 183 -1 77 -1 #SUP: 2
41 -1 244 -1 41 -1 #SUP: 2
41 -1 630 -1 41 -1 #SUP: 2
50 -1 77 -1 22 -1 #SUP: 2
64 -1 22 -1 77 -1 #SUP: 2
64 -1 356 -1 77 -1 #SUP: 2
65 -1 27 -1 441 -1 #SUP: 2
65 -1 41 -1 65 -1 #SUP: 2
65 -1 41 -1 220 -1 #SUP: 2
65 -1 77 -1 41 -1 #SUP: 2
65 -1 144 -1 441 -1 #SUP: 2
65 -1 210 -1 41 -1 #SUP: 2
65 -1 210 -1 65 -1 #SUP: 2
68 -1 68 -1 68 -1 #SUP: 3
68 -1 68 -1 443 -1 #SUP: 3
68 -1 443 -1 68 -1 #SUP: 3
68 -1 443 -1 443 -1 #SUP: 2
77 -1 2 -1 5 -1 #SUP: 2
77 -1 2 -1 22 -1 #SUP: 2
77 -1 2 -1 50 -1 #SUP: 2
77 -1 2 -1 77 -1 #SUP: 2
77 -1 2 -1 151 -1 #SUP: 2
77 -1 2 -1 170 -1 #SUP: 2
77 -1 2 -1 340 -1 #SUP: 2
77 -1 22 -1 2 -1 #SUP: 3
77 -1 22 -1 5 -1 #SUP: 2
77 -1 22 -1 22 -1 #SUP: 3
77 -1 22 -1 32 -1 #SUP: 2
77 -1 22 -1 77 -1 #SUP: 3
77 -1 29 -1 41 -1 #SUP: 2
77 -1 41 -1 41 -1 #SUP: 2
77 -1 41 -1 220 -1 #SUP: 3
77 -1 41 -1 244 -1 #SUP: 2
77 -1 64 -1 22 -1 #SUP: 2
77 -1 65 -1 603 -1 #SUP: 2
77 -1 67 -1 151 -1 #SUP: 2
77 -1 77 -1 2 -1 #SUP: 4
77 -1 77 -1 22 -1 #SUP: 2
77 -1 77 -1 41 -1 #SUP: 2
77 -1 77 -1 77 -1 #SUP: 4
77 -1 77 -1 340 -1 #SUP: 2
77 -1 123 -1 41 -1 #SUP: 2
77 -1 151 -1 5 -1 #SUP: 3
77 -1 154 -1 2 -1 #SUP: 2
77 -1 236 -1 41 -1 #SUP: 2
77 -1 236 -1 244 -1 #SUP: 2
77 -1 244 -1 41 -1 #SUP: 2
77 -1 262 -1 64 -1 #SUP: 2
77 -1 364 -1 22 -1 #SUP: 2
77 -1 520 -1 2 -1 #SUP: 2
77 -1 599 -1 41 -1 #SUP: 2
77 -1 599 -1 123 -1 #SUP: 3
123 -1 144 -1 22 -1 #SUP: 2
123 -1 144 -1 342 -1 #SUP: 2
123 -1 268 -1 77 -1 #SUP: 2
123 -1 286 -1 2 -1 #SUP: 2
123 -1 342 -1 22 -1 #SUP: 2
144 -1 342 -1 22 -1 #SUP: 2
151 -1 5 -1 2 -1 #SUP: 2
151 -1 5 -1 22 -1 #SUP: 3
151 -1 5 -1 151 -1 #SUP: 2
151 -1 77 -1 2 -1 #SUP: 2
151 -1 77 -1 151 -1 #SUP: 2
154 -1 7 -1 31 -1 #SUP: 2
158 -1 10 -1 22 -1 #SUP: 2
170 -1 41 -1 41 -1 #SUP: 2
193 -1 5242 -1 591 -1 #SUP: 2
222 -1 77 -1 77 -1 #SUP: 2
223 -1 2 -1 64 -1 #SUP: 2
236 -1 41 -1 41 -1 #SUP: 2
236 -1 41 -1 183 -1 #SUP: 2
236 -1 41 -1 244 -1 #SUP: 2
236 -1 244 -1 41 -1 #SUP: 2
326 -1 18124 -1 77 -1 #SUP: 2
349 -1 2173 -1 222 -1 #SUP: 2
364 -1 16 -1 22 -1 #SUP: 2
443 -1 68 -1 68 -1 #SUP: 2
443 -1 68 -1 443 -1 #SUP: 2
443 -1 443 -1 68 -1 #SUP: 2
520 -1 2 -1 22 -1 #SUP: 2
567 -1 567 -1 567 -1 #SUP: 2
599 -1 123 -1 144 -1 #SUP: 2
1259 -1 164 -1 8 -1 #SUP: 2
1389 -1 1389 -1 4833 -1 #SUP: 2
2134 -1 2 -1 5 -1 #SUP: 2
2134 -1 2 -1 151 -1 #SUP: 2
2134 -1 2 -1 7376 -1 #SUP: 2
2134 -1 151 -1 5 -1 #SUP: 2
2173 -1 222 -1 77 -1 #SUP: 2
7376 -1 151 -1 5 -1 #SUP: 2
7376 -1 151 -1 77 -1 #SUP: 2
7376 -1 364 -1 22 -1 #SUP: 2
7701 -1 164 -1 8 -1 #SUP: 2
7701 -1 1259 -1 8 -1 #SUP: 2
7701 -1 1259 -1 164 -1 #SUP: 2
11147 -1 65 -1 210 -1 #SUP: 2
140718 -1 164 -1 8 -1 #SUP: 2
140718 -1 1259 -1 8 -1 #SUP: 2
140718 -1 1259 -1 164 -1 #SUP: 2
140718 -1 7701 -1 8 -1 #SUP: 2
140718 -1 7701 -1 164 -1 #SUP: 2
140718 -1 7701 -1 1259 -1 #SUP: 2
2 -1 151 -1 5 -1 22 -1 #SUP: 2
2 -1 7376 -1 151 -1 5 -1 #SUP: 2
2 -1 7376 -1 151 -1 77 -1 #SUP: 2
22 -1 22 -1 77 -1 77 -1 #SUP: 2
22 -1 77 -1 22 -1 77 -1 #SUP: 2
22 -1 77 -1 77 -1 2 -1 #SUP: 3
22 -1 77 -1 77 -1 77 -1 #SUP: 2
22 -1 77 -1 599 -1 123 -1 #SUP: 2
68 -1 68 -1 443 -1 68 -1 #SUP: 3
68 -1 443 -1 68 -1 68 -1 #SUP: 2
68 -1 443 -1 68 -1 443 -1 #SUP: 2
77 -1 2 -1 151 -1 5 -1 #SUP: 2
77 -1 22 -1 77 -1 77 -1 #SUP: 3
77 -1 41 -1 244 -1 41 -1 #SUP: 2
77 -1 236 -1 41 -1 41 -1 #SUP: 2
77 -1 236 -1 41 -1 244 -1 #SUP: 2
77 -1 236 -1 244 -1 41 -1 #SUP: 2
123 -1 144 -1 342 -1 22 -1 #SUP: 2
236 -1 41 -1 244 -1 41 -1 #SUP: 2
443 -1 68 -1 68 -1 68 -1 #SUP: 2
443 -1 68 -1 443 -1 68 -1 #SUP: 2
2134 -1 2 -1 151 -1 5 -1 #SUP: 2
7701 -1 1259 -1 164 -1 8 -1 #SUP: 2
140718 -1 1259 -1 164 -1 8 -1 #SUP: 2
140718 -1 7701 -1 164 -1 8 -1 #SUP: 2
140718 -1 7701 -1 1259 -1 8 -1 #SUP: 2
140718 -1 7701 -1 1259 -1 164 -1 #SUP: 2
22 -1 77 -1 22 -1 77 -1 77 -1 #SUP: 2
77 -1 236 -1 41 -1 244 -1 41 -1 #SUP: 2
140718 -1 7701 -1 1259 -1 164 -1 8 -1 #SUP: 2
