8 -1 120305 -1 8460 -1 84 -1 886 -1 57945 -1 8067 -1 1294 -1 23809 -1 120306 -1 252 -1 120304 -1 9745 -1 120303 -1 3778 -1 62973 -1 41 -1 340 -1 248 -1 260 -1 2078 -1 162 -1 41 -1 142 -1 536 -1 64 -1 65 -1 1440 -1 3074 -1 149 -1 31 -1 408 -1 10 -1 7604 -1 32 -1 8723 -1 164 -1 120307 -1 30 -2
7724 -1 1675 -1 3282 -1 2 -1 123 -1 2292 -1 68 -1 4554 -1 30 -2
1002 -1 749 -1 123 -1 517 -1 322 -1 225 -1 123 -1 159 -1 64 -1 340 -1 33 -1 936 -1 162 -1 123 -1 142 -1 536 -1 30 -2
529 -1 77 -1 262 -1 26624 -1 170 -1 373 -1 65 -1 13 -1 76 -1 64 -1 7693 -1 30 -2
3001 -1 12582 -1 1535 -1 32 -1 6122 -1 170 -1 567 -1 3240 -1 19341 -1 30 -2
120 -1 521 -1 200 -1 212 -1 254 -1 349 -1 8198 -1 5380 -1 153 -1 41 -1 30 -2
120308 -1 123 -1 1867 -1 262 -1 548 -1 222 -1 821 -1 123 -1 14458 -1 50 -1 17570 -1 164 -1 41142 -1 2115 -1 262 -1 982 -1 30 -2
9 -1 28 -1 26 -1 120309 -1 103 -1 5915 -1 283 -2
2334 -1 77 -1 123 -1 3641 -1 123 -1 356 -1 2591 -1 167 -1 10 -1 5411 -1 30 -2
533 -1 123 -1 220 -1 708 -1 164 -1 167 -1 154 -1 183 -1 5168 -1 32 -1 22 -1 71 -1 30 -2
1672 -1 123 -1 543 -1 31 -1 424 -1 20687 -1 1069 -1 2 -1 441 -1 65 -1 409 -1 2175 -1 4390 -1 164 -1 1521 -1 5710 -1 30 -2
1225 -1 894 -1 201 -1 77 -1 365 -1 283 -2
123 -1 407 -1 527 -1 879 -1 913 -1 50 -1 1118 -1 2773 -1 2 -1 671 -1 1899 -1 1118 -1 164 -1 65 -1 2310 -1 515 -1 1491 -1 30 -2
738 -1 1672 -1 431 -1 8865 -1 10 -1 650 -1 3355 -1 30 -2
22 -1 73 -1 82 -1 123 -1 407 -1 913 -1 134 -1 1491 -1 10016 -1 206 -1 162 -1 171 -1 32 -1 50 -1 1950 -1 2260 -1 30 -2
41 -1 549 -1 559 -1 1224 -1 30 -2
262 -1 170 -1 276 -1 123 -1 144 -1 411 -1 77 -1 533 -1 364 -1 326 -1 48 -1 30 -2
123 -1 1913 -1 670 -1 599 -1 67 -1 1352 -1 2 -1 123 -1 613 -1 64 -1 67 -1 224 -1 225 -1 369 -1 220 -1 1034 -1 50 -1 77121 -1 955 -1 32 -1 954 -1 30 -2
371 -1 5330 -1 444 -1 22 -1 17035 -1 226 -1 425 -1 30 -2
599 -1 23114 -1 77 -1 120 -1 694 -1 1741 -1 30 -2
2106 -1 170 -1 201 -1 1163 -1 65 -1 54 -1 78 -1 326 -1 5 -1 154 -1 1205 -1 356 -1 966 -1 1 -2
24446 -1 936 -1 77 -1 63 -1 30 -2
262 -1 7 -1 3 -1 222 -1 652 -1 384 -1 10 -1 65 -1 16673 -1 31 -1 22 -1 49 -1 321 -1 408 -1 30 -2
850 -1 77 -1 123 -1 431 -1 384 -1 1713 -1 30 -2
49226 -1 283 -2
5038 -1 77 -1 20500 -1 30 -2
29 -1 429 -1 183 -1 223 -1 1535 -1 1238 -1 30 -2
371 -1 262 -1 701 -1 64 -1 67 -1 65 -1 260 -1 1264 -1 1441 -1 999 -1 30 -2
200 -1 921 -1 1141 -1 1062 -1 22 -1 2693 -1 6602 -1 31 -1 193 -1 152 -1 10462 -1 171 -1 32 -1 262 -1 3494 -1 154 -1 7 -1 22 -1 417 -1 64 -1 6536 -1 193 -1 30 -2
199 -1 749 -1 850 -1 77 -1 850 -1 123 -1 165 -1 30 -2
371 -1 4293 -1 356 -1 64 -1 1762 -1 167 -1 198 -1 987 -1 32 -1 76 -1 30 -2
1389 -1 8 -1 28 -1 26 -1 120310 -1 20747 -1 821 -1 123 -1 375 -1 693 -1 991 -1 30 -2
123 -1 391 -1 3 -1 1039 -1 520 -1 246 -1 30 -2
123 -1 441 -1 567 -1 663 -1 3422 -1 162 -1 123 -1 1758 -1 123 -1 441 -1 1326 -1 276 -1 1607 -1 30 -2
70 -1 517 -1 3 -1 326 -1 999 -1 164 -1 222 -1 30 -2
3647 -1 519 -1 847 -1 283 -2
5038 -1 77 -1 41 -1 4497 -1 3262 -1 77 -1 41 -1 283 -2
371 -1 1199 -1 77 -1 154 -1 206 -1 1382 -1 4497 -1 283 -2
4927 -1 77 -1 94 -1 283 -2
10368 -1 31 -1 120311 -1 170 -1 33 -1 782 -1 417 -1 30 -2
8 -1 17971 -1 7526 -1 1886 -1 468 -1 974 -1 1902 -1 1571 -1 11194 -1 123 -1 286 -1 70 -1 603 -1 30 -2
1945 -1 3661 -1 41428 -1 120313 -1 4223 -1 120312 -1 1257 -1 41429 -1 41427 -1 248 -1 488 -1 6058 -1 14409 -1 254 -1 248 -1 488 -1 120314 -1 64 -1 22 -1 3494 -1 41 -1 52 -1 33 -1 8296 -1 64 -1 44379 -1 6124 -1 14409 -1 30 -2
27 -1 123 -1 334 -1 170 -1 123 -1 1438 -1 64 -1 3131 -1 12548 -1 117 -1 22 -1 23 -1 77 -1 1438 -1 64 -1 1240 -1 30 -2
1700 -1 1389 -1 1914 -1 77 -1 154 -1 165 -1 67 -1 65 -1 168 -1 5292 -1 64 -1 262 -1 30 -2
1389 -1 50 -1 2773 -1 170 -1 326 -1 1118 -1 2 -1 566 -1 701 -1 64 -1 268 -1 1024 -1 3891 -1 162 -1 566 -1 17487 -1 416 -1 381 -1 26408 -1 30 -2
566 -1 529 -1 2284 -1 431 -1 1962 -1 236 -1 566 -1 15883 -1 31813 -1 2 -1 1205 -1 286 -1 3721 -1 291 -1 406 -1 158 -1 291 -1 30 -2
144 -1 41 -1 441 -1 65 -1 4520 -1 32 -1 743 -1 591 -1 256 -1 3276 -1 152 -1 225 -1 248 -1 944 -1 10 -1 1 -2
3060 -1 1841 -1 749 -1 2 -1 27 -1 6183 -1 262 -1 152 -1 749 -1 16 -1 30 -2
1118 -1 2773 -1 1896 -1 1226 -1 3006 -1 1899 -1 5 -1 1898 -1 1118 -1 671 -1 1899 -1 164 -1 65 -1 2310 -1 515 -1 2 -1 171 -1 1899 -1 4251 -1 156 -1 123 -1 120 -1 340 -1 599 -1 206 -1 15 -1 150 -1 16775 -1 30 -2
2764 -1 77 -1 123 -1 220 -1 1713 -1 64 -1 154 -1 151 -1 153 -1 41 -1 340 -1 30 -2
199 -1 966 -1 8 -1 28 -1 26 -1 120320 -1 8 -1 28 -1 26 -1 120315 -1 8 -1 28 -1 26 -1 120317 -1 8 -1 28 -1 26 -1 120316 -1 8 -1 28 -1 26 -1 120318 -1 120319 -1 5038 -1 283 -2
8 -1 28 -1 26 -1 120321 -1 6929 -1 77 -1 248 -1 65 -1 431 -1 1500 -1 365 -1 30 -2
1305 -1 67 -1 3773 -1 283 -2
654 -1 384 -1 1737 -1 30 -2
642 -1 50 -1 1249 -1 77 -1 41 -1 549 -1 183 -1 212 -1 196 -1 384 -1 30 -2
120322 -1 283 -2
1389 -1 41 -1 6212 -1 546 -1 77 -1 38143 -1 30 -2
1389 -1 8 -1 28 -1 26 -1 120324 -1 120323 -1 49226 -1 283 -2
5038 -1 64 -1 41 -1 30 -2
210 -1 249 -1 30 -1 81909 -1 50151 -1 5827 -1 250 -1 30 -1 628 -1 321 -1 30 -1 19977 -1 589 -1 30 -1 23532 -1 14522 -1 4912 -1 23532 -1 886 -1 30 -1 815 -1 93548 -1 6122 -1 30 -2
21887 -1 283 -2
4927 -1 283 -2
210 -1 8 -1 28 -1 26 -1 120325 -2