2 -1 #SUP: 30
3 -1 #SUP: 2
8 -1 #SUP: 2
10 -1 #SUP: 14
13 -1 #SUP: 4
16 -1 #SUP: 8
22 -1 #SUP: 41
26 -1 #SUP: 2
27 -1 #SUP: 5
28 -1 #SUP: 2
29 -1 #SUP: 10
30 -1 #SUP: 4
31 -1 #SUP: 9
32 -1 #SUP: 23
33 -1 #SUP: 3
41 -1 #SUP: 25
44 -1 #SUP: 3
50 -1 #SUP: 16
64 -1 #SUP: 39
65 -1 #SUP: 33
67 -1 #SUP: 5
73 -1 #SUP: 2
75 -1 #SUP: 2
76 -1 #SUP: 3
77 -1 #SUP: 44
78 -1 #SUP: 6
90 -1 #SUP: 2
94 -1 #SUP: 2
110 -1 #SUP: 3
120 -1 #SUP: 10
123 -1 #SUP: 88
127 -1 #SUP: 3
128 -1 #SUP: 2
134 -1 #SUP: 2
140 -1 #SUP: 2
142 -1 #SUP: 3
144 -1 #SUP: 8
145 -1 #SUP: 2
151 -1 #SUP: 2
152 -1 #SUP: 8
154 -1 #SUP: 14
160 -1 #SUP: 2
162 -1 #SUP: 6
164 -1 #SUP: 7
166 -1 #SUP: 2
168 -1 #SUP: 2
170 -1 #SUP: 22
171 -1 #SUP: 6
174 -1 #SUP: 7
183 -1 #SUP: 9
189 -1 #SUP: 4
193 -1 #SUP: 22
196 -1 #SUP: 2
198 -1 #SUP: 5
201 -1 #SUP: 2
206 -1 #SUP: 13
210 -1 #SUP: 3
212 -1 #SUP: 10
213 -1 #SUP: 3
219 -1 #SUP: 2
220 -1 #SUP: 4
222 -1 #SUP: 17
223 -1 #SUP: 2
224 -1 #SUP: 3
225 -1 #SUP: 12
226 -1 #SUP: 3
236 -1 #SUP: 9
237 -1 #SUP: 2
238 -1 #SUP: 2
248 -1 #SUP: 4
249 -1 #SUP: 4
250 -1 #SUP: 2
254 -1 #SUP: 6
260 -1 #SUP: 3
262 -1 #SUP: 6
268 -1 #SUP: 5
276 -1 #SUP: 4
280 -1 #SUP: 5
284 -1 #SUP: 2
285 -1 #SUP: 3
286 -1 #SUP: 11
291 -1 #SUP: 4
292 -1 #SUP: 4
317 -1 #SUP: 2
321 -1 #SUP: 3
326 -1 #SUP: 5
334 -1 #SUP: 3
340 -1 #SUP: 5
349 -1 #SUP: 3
356 -1 #SUP: 10
364 -1 #SUP: 9
368 -1 #SUP: 4
369 -1 #SUP: 3
375 -1 #SUP: 3
392 -1 #SUP: 2
395 -1 #SUP: 2
398 -1 #SUP: 2
401 -1 #SUP: 4
407 -1 #SUP: 2
411 -1 #SUP: 2
425 -1 #SUP: 3
431 -1 #SUP: 2
433 -1 #SUP: 2
441 -1 #SUP: 10
444 -1 #SUP: 2
451 -1 #SUP: 2
452 -1 #SUP: 2
484 -1 #SUP: 2
498 -1 #SUP: 4
505 -1 #SUP: 3
517 -1 #SUP: 3
520 -1 #SUP: 4
529 -1 #SUP: 3
535 -1 #SUP: 3
538 -1 #SUP: 5
544 -1 #SUP: 3
548 -1 #SUP: 2
566 -1 #SUP: 2
567 -1 #SUP: 2
589 -1 #SUP: 2
599 -1 #SUP: 8
613 -1 #SUP: 6
628 -1 #SUP: 4
637 -1 #SUP: 2
642 -1 #SUP: 3
651 -1 #SUP: 3
653 -1 #SUP: 2
693 -1 #SUP: 7
702 -1 #SUP: 2
711 -1 #SUP: 5
749 -1 #SUP: 2
756 -1 #SUP: 2
764 -1 #SUP: 5
765 -1 #SUP: 7
768 -1 #SUP: 3
782 -1 #SUP: 3
786 -1 #SUP: 2
848 -1 #SUP: 3
850 -1 #SUP: 5
863 -1 #SUP: 2
866 -1 #SUP: 3
894 -1 #SUP: 4
911 -1 #SUP: 3
923 -1 #SUP: 4
929 -1 #SUP: 4
936 -1 #SUP: 3
965 -1 #SUP: 2
991 -1 #SUP: 2
1039 -1 #SUP: 2
1059 -1 #SUP: 2
1205 -1 #SUP: 4
1214 -1 #SUP: 3
1219 -1 #SUP: 5
1263 -1 #SUP: 2
1326 -1 #SUP: 2
1351 -1 #SUP: 2
1389 -1 #SUP: 3
1459 -1 #SUP: 4
1472 -1 #SUP: 3
1650 -1 #SUP: 2
1672 -1 #SUP: 2
1685 -1 #SUP: 2
1707 -1 #SUP: 2
1712 -1 #SUP: 2
1758 -1 #SUP: 3
1817 -1 #SUP: 2
1859 -1 #SUP: 2
1991 -1 #SUP: 2
2118 -1 #SUP: 2
2141 -1 #SUP: 2
2192 -1 #SUP: 2
2294 -1 #SUP: 2
2389 -1 #SUP: 2
2630 -1 #SUP: 2
2765 -1 #SUP: 2
2910 -1 #SUP: 2
3253 -1 #SUP: 2
3572 -1 #SUP: 2
3639 -1 #SUP: 2
3661 -1 #SUP: 2
4639 -1 #SUP: 2
4702 -1 #SUP: 2
4996 -1 #SUP: 2
5419 -1 #SUP: 2
5570 -1 #SUP: 3
5962 -1 #SUP: 3
6590 -1 #SUP: 2
7633 -1 #SUP: 2
10285 -1 #SUP: 2
11909 -1 #SUP: 2
12804 -1 #SUP: 2
18996 -1 #SUP: 2
21051 -1 #SUP: 2
2 -1 2 -1 #SUP: 4
2 -1 22 -1 #SUP: 6
2 -1 32 -1 #SUP: 3
2 -1 64 -1 #SUP: 4
2 -1 65 -1 #SUP: 5
2 -1 77 -1 #SUP: 3
2 -1 123 -1 #SUP: 7
2 -1 174 -1 #SUP: 2
2 -1 193 -1 #SUP: 2
2 -1 198 -1 #SUP: 2
2 -1 206 -1 #SUP: 4
2 -1 225 -1 #SUP: 3
2 -1 286 -1 #SUP: 2
2 -1 613 -1 #SUP: 2
2 -1 756 -1 #SUP: 2
2 -1 1219 -1 #SUP: 2
2 -1 1817 -1 #SUP: 2
2 -1 1859 -1 #SUP: 2
8 -1 26 -1 #SUP: 2
8 -1 28 -1 #SUP: 2
10 -1 2 -1 #SUP: 2
10 -1 13 -1 #SUP: 2
10 -1 22 -1 #SUP: 5
10 -1 41 -1 #SUP: 3
10 -1 50 -1 #SUP: 4
10 -1 64 -1 #SUP: 2
10 -1 77 -1 #SUP: 6
10 -1 123 -1 #SUP: 3
10 -1 154 -1 #SUP: 2
10 -1 170 -1 #SUP: 2
10 -1 226 -1 #SUP: 2
16 -1 22 -1 #SUP: 2
16 -1 164 -1 #SUP: 2
22 -1 2 -1 #SUP: 8
22 -1 10 -1 #SUP: 4
22 -1 22 -1 #SUP: 7
22 -1 29 -1 #SUP: 2
22 -1 30 -1 #SUP: 2
22 -1 32 -1 #SUP: 5
22 -1 41 -1 #SUP: 4
22 -1 50 -1 #SUP: 2
22 -1 64 -1 #SUP: 3
22 -1 67 -1 #SUP: 2
22 -1 77 -1 #SUP: 5
22 -1 123 -1 #SUP: 7
22 -1 140 -1 #SUP: 2
22 -1 152 -1 #SUP: 2
22 -1 162 -1 #SUP: 2
22 -1 170 -1 #SUP: 2
22 -1 171 -1 #SUP: 2
22 -1 219 -1 #SUP: 2
22 -1 220 -1 #SUP: 2
22 -1 225 -1 #SUP: 3
22 -1 238 -1 #SUP: 2
22 -1 248 -1 #SUP: 2
22 -1 286 -1 #SUP: 2
22 -1 401 -1 #SUP: 2
22 -1 544 -1 #SUP: 2
22 -1 923 -1 #SUP: 3
22 -1 1389 -1 #SUP: 2
22 -1 1459 -1 #SUP: 2
22 -1 1859 -1 #SUP: 2
22 -1 2118 -1 #SUP: 2
22 -1 4639 -1 #SUP: 2
22 -1 18996 -1 #SUP: 2
27 -1 65 -1 #SUP: 2
27 -1 154 -1 #SUP: 2
27 -1 170 -1 #SUP: 3
27 -1 193 -1 #SUP: 2
27 -1 262 -1 #SUP: 2
28 -1 26 -1 #SUP: 2
29 -1 170 -1 #SUP: 2
29 -1 317 -1 #SUP: 2
29 -1 863 -1 #SUP: 2
30 -1 123 -1 #SUP: 3
31 -1 64 -1 #SUP: 2
31 -1 65 -1 #SUP: 2
31 -1 123 -1 #SUP: 3
31 -1 154 -1 #SUP: 2
31 -1 222 -1 #SUP: 4
32 -1 2 -1 #SUP: 4
32 -1 10 -1 #SUP: 2
32 -1 22 -1 #SUP: 5
32 -1 29 -1 #SUP: 2
32 -1 32 -1 #SUP: 2
32 -1 41 -1 #SUP: 2
32 -1 50 -1 #SUP: 2
32 -1 64 -1 #SUP: 3
32 -1 65 -1 #SUP: 3
32 -1 123 -1 #SUP: 5
32 -1 206 -1 #SUP: 2
32 -1 225 -1 #SUP: 3
32 -1 368 -1 #SUP: 2
32 -1 401 -1 #SUP: 2
32 -1 18996 -1 #SUP: 2
41 -1 2 -1 #SUP: 2
41 -1 10 -1 #SUP: 2
41 -1 22 -1 #SUP: 7
41 -1 29 -1 #SUP: 2
41 -1 32 -1 #SUP: 3
41 -1 41 -1 #SUP: 4
41 -1 64 -1 #SUP: 9
41 -1 65 -1 #SUP: 3
41 -1 77 -1 #SUP: 4
41 -1 120 -1 #SUP: 2
41 -1 152 -1 #SUP: 2
41 -1 154 -1 #SUP: 4
41 -1 170 -1 #SUP: 2
41 -1 183 -1 #SUP: 4
41 -1 222 -1 #SUP: 2
41 -1 225 -1 #SUP: 2
41 -1 268 -1 #SUP: 2
41 -1 285 -1 #SUP: 2
41 -1 286 -1 #SUP: 2
41 -1 340 -1 #SUP: 2
41 -1 764 -1 #SUP: 3
41 -1 765 -1 #SUP: 2
41 -1 768 -1 #SUP: 2
41 -1 786 -1 #SUP: 2
41 -1 866 -1 #SUP: 2
41 -1 923 -1 #SUP: 2
41 -1 1214 -1 #SUP: 2
41 -1 1758 -1 #SUP: 2
50 -1 13 -1 #SUP: 2
50 -1 64 -1 #SUP: 4
50 -1 77 -1 #SUP: 2
50 -1 123 -1 #SUP: 5
50 -1 170 -1 #SUP: 5
50 -1 206 -1 #SUP: 3
50 -1 292 -1 #SUP: 2
50 -1 395 -1 #SUP: 2
50 -1 544 -1 #SUP: 2
50 -1 1991 -1 #SUP: 2
64 -1 2 -1 #SUP: 5
64 -1 22 -1 #SUP: 4
64 -1 29 -1 #SUP: 5
64 -1 32 -1 #SUP: 2
64 -1 41 -1 #SUP: 2
64 -1 64 -1 #SUP: 3
64 -1 65 -1 #SUP: 6
64 -1 77 -1 #SUP: 4
64 -1 123 -1 #SUP: 3
64 -1 154 -1 #SUP: 2
64 -1 162 -1 #SUP: 2
64 -1 193 -1 #SUP: 2
64 -1 222 -1 #SUP: 5
64 -1 224 -1 #SUP: 2
64 -1 280 -1 #SUP: 2
64 -1 285 -1 #SUP: 2
64 -1 441 -1 #SUP: 2
64 -1 765 -1 #SUP: 4
64 -1 768 -1 #SUP: 2
64 -1 866 -1 #SUP: 2
64 -1 929 -1 #SUP: 2
64 -1 1214 -1 #SUP: 2
64 -1 3572 -1 #SUP: 2
65 -1 2 -1 #SUP: 5
65 -1 22 -1 #SUP: 3
65 -1 29 -1 #SUP: 2
65 -1 32 -1 #SUP: 5
65 -1 64 -1 #SUP: 2
65 -1 65 -1 #SUP: 3
65 -1 75 -1 #SUP: 2
65 -1 77 -1 #SUP: 2
65 -1 94 -1 #SUP: 2
65 -1 110 -1 #SUP: 2
65 -1 123 -1 #SUP: 5
65 -1 152 -1 #SUP: 2
65 -1 154 -1 #SUP: 3
65 -1 206 -1 #SUP: 2
65 -1 212 -1 #SUP: 3
65 -1 222 -1 #SUP: 3
65 -1 225 -1 #SUP: 3
65 -1 356 -1 #SUP: 3
65 -1 401 -1 #SUP: 2
65 -1 756 -1 #SUP: 2
65 -1 1219 -1 #SUP: 4
65 -1 4996 -1 #SUP: 2
76 -1 65 -1 #SUP: 2
76 -1 123 -1 #SUP: 2
77 -1 2 -1 #SUP: 3
77 -1 16 -1 #SUP: 5
77 -1 22 -1 #SUP: 6
77 -1 29 -1 #SUP: 2
77 -1 31 -1 #SUP: 3
77 -1 41 -1 #SUP: 3
77 -1 50 -1 #SUP: 3
77 -1 64 -1 #SUP: 5
77 -1 65 -1 #SUP: 3
77 -1 77 -1 #SUP: 6
77 -1 120 -1 #SUP: 2
77 -1 123 -1 #SUP: 14
77 -1 142 -1 #SUP: 2
77 -1 144 -1 #SUP: 2
77 -1 170 -1 #SUP: 3
77 -1 171 -1 #SUP: 2
77 -1 183 -1 #SUP: 3
77 -1 193 -1 #SUP: 3
77 -1 196 -1 #SUP: 2
77 -1 198 -1 #SUP: 2
77 -1 220 -1 #SUP: 2
77 -1 225 -1 #SUP: 3
77 -1 236 -1 #SUP: 3
77 -1 262 -1 #SUP: 2
77 -1 284 -1 #SUP: 2
77 -1 334 -1 #SUP: 3
77 -1 433 -1 #SUP: 2
77 -1 441 -1 #SUP: 2
77 -1 599 -1 #SUP: 5
77 -1 4639 -1 #SUP: 2
78 -1 123 -1 #SUP: 2
78 -1 356 -1 #SUP: 2
110 -1 280 -1 #SUP: 2
120 -1 32 -1 #SUP: 2
120 -1 123 -1 #SUP: 4
120 -1 236 -1 #SUP: 2
120 -1 340 -1 #SUP: 3
120 -1 356 -1 #SUP: 2
120 -1 711 -1 #SUP: 2
120 -1 749 -1 #SUP: 2
120 -1 764 -1 #SUP: 2
123 -1 2 -1 #SUP: 10
123 -1 3 -1 #SUP: 2
123 -1 10 -1 #SUP: 6
123 -1 13 -1 #SUP: 2
123 -1 16 -1 #SUP: 5
123 -1 22 -1 #SUP: 12
123 -1 29 -1 #SUP: 4
123 -1 31 -1 #SUP: 3
123 -1 32 -1 #SUP: 10
123 -1 41 -1 #SUP: 2
123 -1 44 -1 #SUP: 2
123 -1 50 -1 #SUP: 8
123 -1 64 -1 #SUP: 13
123 -1 65 -1 #SUP: 16
123 -1 67 -1 #SUP: 2
123 -1 76 -1 #SUP: 3
123 -1 77 -1 #SUP: 7
123 -1 78 -1 #SUP: 3
123 -1 94 -1 #SUP: 2
123 -1 120 -1 #SUP: 7
123 -1 123 -1 #SUP: 16
123 -1 142 -1 #SUP: 2
123 -1 144 -1 #SUP: 6
123 -1 152 -1 #SUP: 2
123 -1 154 -1 #SUP: 7
123 -1 164 -1 #SUP: 3
123 -1 170 -1 #SUP: 4
123 -1 171 -1 #SUP: 2
123 -1 174 -1 #SUP: 7
123 -1 183 -1 #SUP: 2
123 -1 193 -1 #SUP: 5
123 -1 198 -1 #SUP: 2
123 -1 206 -1 #SUP: 8
123 -1 210 -1 #SUP: 3
123 -1 212 -1 #SUP: 4
123 -1 220 -1 #SUP: 3
123 -1 222 -1 #SUP: 2
123 -1 225 -1 #SUP: 5
123 -1 236 -1 #SUP: 3
123 -1 237 -1 #SUP: 2
123 -1 254 -1 #SUP: 4
123 -1 284 -1 #SUP: 2
123 -1 286 -1 #SUP: 7
123 -1 291 -1 #SUP: 3
123 -1 292 -1 #SUP: 2
123 -1 340 -1 #SUP: 3
123 -1 356 -1 #SUP: 6
123 -1 375 -1 #SUP: 2
123 -1 392 -1 #SUP: 2
123 -1 407 -1 #SUP: 2
123 -1 411 -1 #SUP: 2
123 -1 431 -1 #SUP: 2
123 -1 441 -1 #SUP: 7
123 -1 444 -1 #SUP: 2
123 -1 498 -1 #SUP: 2
123 -1 505 -1 #SUP: 3
123 -1 517 -1 #SUP: 2
123 -1 520 -1 #SUP: 2
123 -1 529 -1 #SUP: 2
123 -1 538 -1 #SUP: 2
123 -1 613 -1 #SUP: 6
123 -1 693 -1 #SUP: 4
123 -1 749 -1 #SUP: 2
123 -1 764 -1 #SUP: 2
123 -1 765 -1 #SUP: 4
123 -1 923 -1 #SUP: 2
123 -1 929 -1 #SUP: 3
123 -1 936 -1 #SUP: 2
123 -1 965 -1 #SUP: 2
123 -1 1039 -1 #SUP: 2
123 -1 1389 -1 #SUP: 2
123 -1 1650 -1 #SUP: 2
123 -1 1712 -1 #SUP: 2
123 -1 2118 -1 #SUP: 2
123 -1 2141 -1 #SUP: 2
123 -1 2294 -1 #SUP: 2
123 -1 2389 -1 #SUP: 2
123 -1 4702 -1 #SUP: 2
123 -1 11909 -1 #SUP: 2
127 -1 41 -1 #SUP: 2
128 -1 32 -1 #SUP: 2
144 -1 10 -1 #SUP: 2
144 -1 16 -1 #SUP: 2
144 -1 22 -1 #SUP: 3
144 -1 67 -1 #SUP: 3
144 -1 123 -1 #SUP: 2
144 -1 220 -1 #SUP: 2
144 -1 441 -1 #SUP: 2
144 -1 923 -1 #SUP: 2
152 -1 65 -1 #SUP: 2
152 -1 152 -1 #SUP: 2
152 -1 425 -1 #SUP: 2
154 -1 2 -1 #SUP: 4
154 -1 10 -1 #SUP: 2
154 -1 41 -1 #SUP: 3
154 -1 64 -1 #SUP: 2
154 -1 123 -1 #SUP: 4
154 -1 152 -1 #SUP: 2
154 -1 170 -1 #SUP: 3
154 -1 183 -1 #SUP: 2
154 -1 222 -1 #SUP: 2
154 -1 226 -1 #SUP: 2
154 -1 292 -1 #SUP: 2
160 -1 22 -1 #SUP: 2
160 -1 64 -1 #SUP: 2
162 -1 2 -1 #SUP: 2
162 -1 64 -1 #SUP: 2
162 -1 123 -1 #SUP: 3
162 -1 174 -1 #SUP: 2
162 -1 183 -1 #SUP: 2
164 -1 65 -1 #SUP: 2
164 -1 225 -1 #SUP: 2
166 -1 702 -1 #SUP: 2
168 -1 77 -1 #SUP: 2
170 -1 10 -1 #SUP: 2
170 -1 16 -1 #SUP: 2
170 -1 29 -1 #SUP: 2
170 -1 31 -1 #SUP: 3
170 -1 32 -1 #SUP: 2
170 -1 64 -1 #SUP: 6
170 -1 65 -1 #SUP: 2
170 -1 77 -1 #SUP: 4
170 -1 123 -1 #SUP: 5
170 -1 152 -1 #SUP: 3
170 -1 154 -1 #SUP: 2
170 -1 162 -1 #SUP: 3
170 -1 170 -1 #SUP: 2
170 -1 174 -1 #SUP: 2
170 -1 193 -1 #SUP: 2
170 -1 206 -1 #SUP: 2
170 -1 222 -1 #SUP: 2
170 -1 262 -1 #SUP: 2
170 -1 292 -1 #SUP: 2
171 -1 22 -1 #SUP: 3
171 -1 32 -1 #SUP: 4
171 -1 401 -1 #SUP: 2
171 -1 18996 -1 #SUP: 2
174 -1 2 -1 #SUP: 2
174 -1 65 -1 #SUP: 3
174 -1 1712 -1 #SUP: 2
183 -1 22 -1 #SUP: 2
183 -1 32 -1 #SUP: 3
183 -1 64 -1 #SUP: 2
183 -1 65 -1 #SUP: 2
193 -1 22 -1 #SUP: 2
193 -1 31 -1 #SUP: 3
193 -1 41 -1 #SUP: 4
193 -1 64 -1 #SUP: 4
193 -1 65 -1 #SUP: 3
193 -1 77 -1 #SUP: 4
193 -1 123 -1 #SUP: 4
193 -1 154 -1 #SUP: 3
193 -1 162 -1 #SUP: 3
193 -1 170 -1 #SUP: 4
193 -1 174 -1 #SUP: 2
193 -1 183 -1 #SUP: 2
193 -1 193 -1 #SUP: 2
193 -1 201 -1 #SUP: 2
193 -1 206 -1 #SUP: 2
193 -1 212 -1 #SUP: 2
193 -1 222 -1 #SUP: 4
193 -1 225 -1 #SUP: 3
193 -1 451 -1 #SUP: 2
193 -1 548 -1 #SUP: 2
193 -1 653 -1 #SUP: 2
193 -1 1205 -1 #SUP: 2
198 -1 65 -1 #SUP: 3
206 -1 2 -1 #SUP: 2
206 -1 22 -1 #SUP: 2
206 -1 44 -1 #SUP: 2
206 -1 50 -1 #SUP: 2
206 -1 64 -1 #SUP: 3
206 -1 65 -1 #SUP: 4
206 -1 90 -1 #SUP: 2
206 -1 94 -1 #SUP: 2
206 -1 123 -1 #SUP: 6
206 -1 292 -1 #SUP: 2
206 -1 520 -1 #SUP: 2
210 -1 65 -1 #SUP: 2
210 -1 444 -1 #SUP: 2
212 -1 32 -1 #SUP: 2
212 -1 65 -1 #SUP: 2
213 -1 286 -1 #SUP: 2
220 -1 67 -1 #SUP: 2
222 -1 22 -1 #SUP: 3
222 -1 64 -1 #SUP: 5
222 -1 65 -1 #SUP: 3
222 -1 77 -1 #SUP: 2
222 -1 123 -1 #SUP: 4
222 -1 154 -1 #SUP: 2
222 -1 224 -1 #SUP: 2
222 -1 249 -1 #SUP: 2
222 -1 286 -1 #SUP: 2
222 -1 375 -1 #SUP: 2
222 -1 863 -1 #SUP: 2
224 -1 22 -1 #SUP: 2
224 -1 77 -1 #SUP: 2
224 -1 219 -1 #SUP: 2
225 -1 2 -1 #SUP: 4
225 -1 22 -1 #SUP: 3
225 -1 64 -1 #SUP: 2
225 -1 65 -1 #SUP: 2
225 -1 123 -1 #SUP: 3
225 -1 183 -1 #SUP: 4
225 -1 286 -1 #SUP: 2
225 -1 369 -1 #SUP: 3
225 -1 1758 -1 #SUP: 2
226 -1 29 -1 #SUP: 2
236 -1 22 -1 #SUP: 3
236 -1 32 -1 #SUP: 2
236 -1 41 -1 #SUP: 2
236 -1 77 -1 #SUP: 5
236 -1 123 -1 #SUP: 5
236 -1 198 -1 #SUP: 2
248 -1 22 -1 #SUP: 2
249 -1 65 -1 #SUP: 2
249 -1 123 -1 #SUP: 2
254 -1 123 -1 #SUP: 2
262 -1 32 -1 #SUP: 2
262 -1 170 -1 #SUP: 4
268 -1 2 -1 #SUP: 2
268 -1 64 -1 #SUP: 2
268 -1 65 -1 #SUP: 2
268 -1 110 -1 #SUP: 2
276 -1 123 -1 #SUP: 2
285 -1 768 -1 #SUP: 2
285 -1 866 -1 #SUP: 2
286 -1 2 -1 #SUP: 2
286 -1 22 -1 #SUP: 3
286 -1 170 -1 #SUP: 3
286 -1 248 -1 #SUP: 2
292 -1 65 -1 #SUP: 2
321 -1 77 -1 #SUP: 2
326 -1 64 -1 #SUP: 2
326 -1 911 -1 #SUP: 2
334 -1 16 -1 #SUP: 2
340 -1 32 -1 #SUP: 2
340 -1 123 -1 #SUP: 2
340 -1 749 -1 #SUP: 2
349 -1 22 -1 #SUP: 2
356 -1 2 -1 #SUP: 2
356 -1 22 -1 #SUP: 4
356 -1 32 -1 #SUP: 2
356 -1 64 -1 #SUP: 3
356 -1 65 -1 #SUP: 2
356 -1 123 -1 #SUP: 2
356 -1 193 -1 #SUP: 2
356 -1 198 -1 #SUP: 2
356 -1 222 -1 #SUP: 2
356 -1 236 -1 #SUP: 2
356 -1 254 -1 #SUP: 2
364 -1 50 -1 #SUP: 2
364 -1 77 -1 #SUP: 2
364 -1 170 -1 #SUP: 2
364 -1 326 -1 #SUP: 3
364 -1 911 -1 #SUP: 2
369 -1 65 -1 #SUP: 2
369 -1 183 -1 #SUP: 2
401 -1 18996 -1 #SUP: 2
441 -1 22 -1 #SUP: 2
441 -1 65 -1 #SUP: 6
441 -1 123 -1 #SUP: 2
484 -1 248 -1 #SUP: 2
484 -1 286 -1 #SUP: 2
498 -1 123 -1 #SUP: 3
498 -1 2389 -1 #SUP: 2
520 -1 10 -1 #SUP: 2
520 -1 123 -1 #SUP: 2
520 -1 154 -1 #SUP: 2
535 -1 65 -1 #SUP: 3
538 -1 44 -1 #SUP: 2
538 -1 77 -1 #SUP: 2
538 -1 123 -1 #SUP: 4
538 -1 236 -1 #SUP: 2
544 -1 170 -1 #SUP: 2
567 -1 16 -1 #SUP: 2
567 -1 77 -1 #SUP: 2
599 -1 31 -1 #SUP: 2
599 -1 41 -1 #SUP: 2
599 -1 50 -1 #SUP: 2
599 -1 123 -1 #SUP: 2
599 -1 170 -1 #SUP: 2
599 -1 183 -1 #SUP: 2
599 -1 193 -1 #SUP: 3
637 -1 22 -1 #SUP: 2
653 -1 41 -1 #SUP: 2
693 -1 77 -1 #SUP: 3
693 -1 123 -1 #SUP: 3
711 -1 123 -1 #SUP: 2
711 -1 222 -1 #SUP: 3
764 -1 64 -1 #SUP: 4
764 -1 1214 -1 #SUP: 2
765 -1 41 -1 #SUP: 2
768 -1 866 -1 #SUP: 2
850 -1 77 -1 #SUP: 3
850 -1 123 -1 #SUP: 2
923 -1 29 -1 #SUP: 2
923 -1 64 -1 #SUP: 2
923 -1 67 -1 #SUP: 2
923 -1 77 -1 #SUP: 2
936 -1 123 -1 #SUP: 2
936 -1 236 -1 #SUP: 2
936 -1 538 -1 #SUP: 2
1205 -1 22 -1 #SUP: 2
1205 -1 41 -1 #SUP: 2
1205 -1 127 -1 #SUP: 3
1214 -1 41 -1 #SUP: 2
1219 -1 2 -1 #SUP: 2
1219 -1 32 -1 #SUP: 2
1219 -1 65 -1 #SUP: 2
1326 -1 77 -1 #SUP: 2
1459 -1 64 -1 #SUP: 2
1459 -1 65 -1 #SUP: 2
1459 -1 123 -1 #SUP: 2
1459 -1 206 -1 #SUP: 3
1672 -1 10 -1 #SUP: 2
1672 -1 123 -1 #SUP: 2
1685 -1 123 -1 #SUP: 2
1685 -1 206 -1 #SUP: 2
2910 -1 64 -1 #SUP: 2
3253 -1 123 -1 #SUP: 2
3572 -1 224 -1 #SUP: 2
3661 -1 12804 -1 #SUP: 2
5419 -1 628 -1 #SUP: 2
5570 -1 628 -1 #SUP: 2
5570 -1 5419 -1 #SUP: 2
2 -1 22 -1 22 -1 #SUP: 2
2 -1 32 -1 2 -1 #SUP: 2
2 -1 65 -1 32 -1 #SUP: 2
2 -1 65 -1 1219 -1 #SUP: 2
2 -1 123 -1 206 -1 #SUP: 2
2 -1 193 -1 206 -1 #SUP: 2
8 -1 28 -1 26 -1 #SUP: 2
10 -1 22 -1 2 -1 #SUP: 2
10 -1 22 -1 22 -1 #SUP: 2
10 -1 22 -1 41 -1 #SUP: 2
10 -1 22 -1 77 -1 #SUP: 3
10 -1 50 -1 13 -1 #SUP: 2
10 -1 50 -1 77 -1 #SUP: 2
10 -1 77 -1 41 -1 #SUP: 2
22 -1 2 -1 2 -1 #SUP: 2
22 -1 2 -1 22 -1 #SUP: 3
22 -1 2 -1 77 -1 #SUP: 2
22 -1 2 -1 123 -1 #SUP: 2
22 -1 10 -1 22 -1 #SUP: 3
22 -1 10 -1 77 -1 #SUP: 2
22 -1 22 -1 2 -1 #SUP: 4
22 -1 22 -1 22 -1 #SUP: 3
22 -1 22 -1 77 -1 #SUP: 2
22 -1 41 -1 2 -1 #SUP: 2
22 -1 41 -1 64 -1 #SUP: 2
22 -1 64 -1 29 -1 #SUP: 2
22 -1 77 -1 22 -1 #SUP: 2
22 -1 170 -1 123 -1 #SUP: 2
22 -1 286 -1 248 -1 #SUP: 2
22 -1 401 -1 18996 -1 #SUP: 2
22 -1 923 -1 29 -1 #SUP: 2
22 -1 923 -1 64 -1 #SUP: 2
22 -1 923 -1 67 -1 #SUP: 2
27 -1 170 -1 154 -1 #SUP: 2
27 -1 170 -1 262 -1 #SUP: 2
27 -1 193 -1 154 -1 #SUP: 2
31 -1 222 -1 64 -1 #SUP: 2
31 -1 222 -1 123 -1 #SUP: 2
32 -1 2 -1 2 -1 #SUP: 2
32 -1 22 -1 2 -1 #SUP: 2
32 -1 22 -1 401 -1 #SUP: 2
32 -1 22 -1 18996 -1 #SUP: 2
32 -1 50 -1 64 -1 #SUP: 2
32 -1 50 -1 123 -1 #SUP: 2
32 -1 64 -1 65 -1 #SUP: 2
32 -1 401 -1 18996 -1 #SUP: 2
41 -1 10 -1 22 -1 #SUP: 2
41 -1 64 -1 22 -1 #SUP: 3
41 -1 64 -1 41 -1 #SUP: 2
41 -1 64 -1 285 -1 #SUP: 2
41 -1 64 -1 1214 -1 #SUP: 2
41 -1 77 -1 41 -1 #SUP: 2
41 -1 77 -1 183 -1 #SUP: 2
41 -1 154 -1 41 -1 #SUP: 2
41 -1 183 -1 32 -1 #SUP: 2
41 -1 285 -1 768 -1 #SUP: 2
41 -1 285 -1 866 -1 #SUP: 2
41 -1 764 -1 64 -1 #SUP: 3
41 -1 764 -1 1214 -1 #SUP: 2
41 -1 768 -1 866 -1 #SUP: 2
50 -1 123 -1 64 -1 #SUP: 2
50 -1 123 -1 206 -1 #SUP: 2
50 -1 170 -1 64 -1 #SUP: 2
64 -1 285 -1 768 -1 #SUP: 2
64 -1 285 -1 866 -1 #SUP: 2
64 -1 768 -1 866 -1 #SUP: 2
64 -1 3572 -1 224 -1 #SUP: 2
65 -1 2 -1 65 -1 #SUP: 2
65 -1 2 -1 206 -1 #SUP: 2
65 -1 32 -1 2 -1 #SUP: 2
65 -1 32 -1 29 -1 #SUP: 2
65 -1 32 -1 225 -1 #SUP: 2
65 -1 123 -1 2 -1 #SUP: 2
65 -1 123 -1 356 -1 #SUP: 2
65 -1 154 -1 2 -1 #SUP: 2
65 -1 154 -1 123 -1 #SUP: 2
65 -1 1219 -1 2 -1 #SUP: 2
65 -1 1219 -1 32 -1 #SUP: 2
65 -1 1219 -1 65 -1 #SUP: 2
76 -1 65 -1 123 -1 #SUP: 2
77 -1 16 -1 22 -1 #SUP: 2
77 -1 22 -1 4639 -1 #SUP: 2
77 -1 123 -1 16 -1 #SUP: 3
77 -1 123 -1 22 -1 #SUP: 2
77 -1 123 -1 31 -1 #SUP: 2
77 -1 123 -1 64 -1 #SUP: 2
77 -1 123 -1 65 -1 #SUP: 3
77 -1 123 -1 123 -1 #SUP: 2
77 -1 123 -1 284 -1 #SUP: 2
77 -1 170 -1 64 -1 #SUP: 2
77 -1 193 -1 64 -1 #SUP: 2
77 -1 225 -1 183 -1 #SUP: 2
77 -1 236 -1 123 -1 #SUP: 3
77 -1 334 -1 16 -1 #SUP: 2
77 -1 599 -1 31 -1 #SUP: 2
77 -1 599 -1 123 -1 #SUP: 2
120 -1 236 -1 123 -1 #SUP: 2
120 -1 340 -1 32 -1 #SUP: 2
120 -1 340 -1 749 -1 #SUP: 2
123 -1 2 -1 65 -1 #SUP: 2
123 -1 2 -1 123 -1 #SUP: 4
123 -1 2 -1 206 -1 #SUP: 2
123 -1 10 -1 22 -1 #SUP: 2
123 -1 10 -1 50 -1 #SUP: 3
123 -1 16 -1 164 -1 #SUP: 2
123 -1 22 -1 77 -1 #SUP: 2
123 -1 22 -1 123 -1 #SUP: 2
123 -1 22 -1 923 -1 #SUP: 2
123 -1 32 -1 22 -1 #SUP: 2
123 -1 50 -1 123 -1 #SUP: 3
123 -1 64 -1 29 -1 #SUP: 2
123 -1 64 -1 64 -1 #SUP: 2
123 -1 64 -1 65 -1 #SUP: 3
123 -1 64 -1 441 -1 #SUP: 2
123 -1 64 -1 929 -1 #SUP: 2
123 -1 65 -1 2 -1 #SUP: 3
123 -1 65 -1 22 -1 #SUP: 2
123 -1 65 -1 32 -1 #SUP: 3
123 -1 65 -1 94 -1 #SUP: 2
123 -1 65 -1 123 -1 #SUP: 3
123 -1 77 -1 123 -1 #SUP: 2
123 -1 120 -1 32 -1 #SUP: 2
123 -1 120 -1 123 -1 #SUP: 2
123 -1 120 -1 236 -1 #SUP: 2
123 -1 120 -1 340 -1 #SUP: 3
123 -1 120 -1 356 -1 #SUP: 2
123 -1 120 -1 749 -1 #SUP: 2
123 -1 123 -1 32 -1 #SUP: 2
123 -1 123 -1 65 -1 #SUP: 3
123 -1 123 -1 67 -1 #SUP: 2
123 -1 123 -1 120 -1 #SUP: 2
123 -1 123 -1 164 -1 #SUP: 2
123 -1 123 -1 174 -1 #SUP: 2
123 -1 123 -1 206 -1 #SUP: 2
123 -1 123 -1 212 -1 #SUP: 2
123 -1 123 -1 220 -1 #SUP: 2
123 -1 123 -1 517 -1 #SUP: 2
123 -1 144 -1 16 -1 #SUP: 2
123 -1 144 -1 22 -1 #SUP: 2
123 -1 144 -1 67 -1 #SUP: 2
123 -1 144 -1 123 -1 #SUP: 2
123 -1 144 -1 220 -1 #SUP: 2
123 -1 144 -1 441 -1 #SUP: 2
123 -1 154 -1 2 -1 #SUP: 2
123 -1 154 -1 123 -1 #SUP: 3
123 -1 171 -1 32 -1 #SUP: 2
123 -1 174 -1 2 -1 #SUP: 2
123 -1 174 -1 65 -1 #SUP: 2
123 -1 174 -1 1712 -1 #SUP: 2
123 -1 206 -1 2 -1 #SUP: 2
123 -1 206 -1 50 -1 #SUP: 2
123 -1 206 -1 64 -1 #SUP: 3
123 -1 206 -1 65 -1 #SUP: 3
123 -1 206 -1 94 -1 #SUP: 2
123 -1 206 -1 123 -1 #SUP: 4
123 -1 206 -1 292 -1 #SUP: 2
123 -1 210 -1 65 -1 #SUP: 2
123 -1 210 -1 444 -1 #SUP: 2
123 -1 220 -1 67 -1 #SUP: 2
123 -1 225 -1 123 -1 #SUP: 2
123 -1 225 -1 183 -1 #SUP: 2
123 -1 236 -1 123 -1 #SUP: 2
123 -1 286 -1 170 -1 #SUP: 3
123 -1 340 -1 32 -1 #SUP: 2
123 -1 340 -1 749 -1 #SUP: 2
123 -1 356 -1 32 -1 #SUP: 2
123 -1 356 -1 193 -1 #SUP: 2
123 -1 356 -1 254 -1 #SUP: 2
123 -1 441 -1 65 -1 #SUP: 5
123 -1 441 -1 123 -1 #SUP: 2
123 -1 538 -1 236 -1 #SUP: 2
123 -1 693 -1 123 -1 #SUP: 2
123 -1 936 -1 236 -1 #SUP: 2
123 -1 936 -1 538 -1 #SUP: 2
144 -1 10 -1 22 -1 #SUP: 2
144 -1 22 -1 22 -1 #SUP: 2
144 -1 22 -1 67 -1 #SUP: 2
144 -1 22 -1 923 -1 #SUP: 2
144 -1 123 -1 67 -1 #SUP: 2
144 -1 123 -1 220 -1 #SUP: 2
144 -1 220 -1 67 -1 #SUP: 2
144 -1 923 -1 67 -1 #SUP: 2
154 -1 123 -1 2 -1 #SUP: 2
154 -1 170 -1 152 -1 #SUP: 2
160 -1 64 -1 22 -1 #SUP: 2
162 -1 123 -1 174 -1 #SUP: 2
170 -1 31 -1 64 -1 #SUP: 2
170 -1 31 -1 222 -1 #SUP: 2
170 -1 64 -1 123 -1 #SUP: 2
170 -1 123 -1 64 -1 #SUP: 2
170 -1 123 -1 174 -1 #SUP: 2
170 -1 123 -1 206 -1 #SUP: 2
170 -1 162 -1 123 -1 #SUP: 3
170 -1 162 -1 174 -1 #SUP: 2
170 -1 170 -1 31 -1 #SUP: 2
170 -1 222 -1 64 -1 #SUP: 2
171 -1 22 -1 401 -1 #SUP: 2
171 -1 22 -1 18996 -1 #SUP: 2
171 -1 32 -1 22 -1 #SUP: 3
171 -1 32 -1 401 -1 #SUP: 2
171 -1 32 -1 18996 -1 #SUP: 2
171 -1 401 -1 18996 -1 #SUP: 2
193 -1 31 -1 123 -1 #SUP: 2
193 -1 31 -1 154 -1 #SUP: 2
193 -1 31 -1 222 -1 #SUP: 2
193 -1 41 -1 225 -1 #SUP: 2
193 -1 64 -1 77 -1 #SUP: 2
193 -1 65 -1 154 -1 #SUP: 2
193 -1 123 -1 174 -1 #SUP: 2
193 -1 162 -1 123 -1 #SUP: 2
193 -1 162 -1 174 -1 #SUP: 2
193 -1 170 -1 31 -1 #SUP: 2
193 -1 170 -1 123 -1 #SUP: 3
193 -1 170 -1 162 -1 #SUP: 2
193 -1 170 -1 174 -1 #SUP: 2
193 -1 222 -1 123 -1 #SUP: 2
193 -1 653 -1 41 -1 #SUP: 2
206 -1 2 -1 123 -1 #SUP: 2
206 -1 65 -1 94 -1 #SUP: 2
206 -1 123 -1 65 -1 #SUP: 3
222 -1 123 -1 154 -1 #SUP: 2
222 -1 224 -1 22 -1 #SUP: 2
224 -1 22 -1 219 -1 #SUP: 2
225 -1 369 -1 65 -1 #SUP: 2
225 -1 369 -1 183 -1 #SUP: 2
236 -1 41 -1 77 -1 #SUP: 2
236 -1 77 -1 123 -1 #SUP: 2
236 -1 123 -1 77 -1 #SUP: 2
262 -1 170 -1 32 -1 #SUP: 2
268 -1 65 -1 110 -1 #SUP: 2
285 -1 768 -1 866 -1 #SUP: 2
356 -1 2 -1 64 -1 #SUP: 2
356 -1 32 -1 22 -1 #SUP: 2
356 -1 236 -1 123 -1 #SUP: 2
364 -1 50 -1 170 -1 #SUP: 2
364 -1 326 -1 911 -1 #SUP: 2
484 -1 286 -1 248 -1 #SUP: 2
498 -1 123 -1 2389 -1 #SUP: 2
538 -1 77 -1 123 -1 #SUP: 2
538 -1 123 -1 77 -1 #SUP: 2
538 -1 123 -1 123 -1 #SUP: 2
538 -1 236 -1 123 -1 #SUP: 2
567 -1 77 -1 16 -1 #SUP: 2
599 -1 50 -1 170 -1 #SUP: 2
599 -1 193 -1 41 -1 #SUP: 2
693 -1 77 -1 123 -1 #SUP: 2
764 -1 64 -1 1214 -1 #SUP: 2
850 -1 77 -1 123 -1 #SUP: 2
923 -1 64 -1 29 -1 #SUP: 2
936 -1 123 -1 123 -1 #SUP: 2
936 -1 236 -1 123 -1 #SUP: 2
936 -1 538 -1 123 -1 #SUP: 2
936 -1 538 -1 236 -1 #SUP: 2
1205 -1 127 -1 41 -1 #SUP: 2
1219 -1 32 -1 2 -1 #SUP: 2
1459 -1 206 -1 64 -1 #SUP: 2
1685 -1 123 -1 206 -1 #SUP: 2
5570 -1 5419 -1 628 -1 #SUP: 2
22 -1 923 -1 64 -1 29 -1 #SUP: 2
32 -1 22 -1 401 -1 18996 -1 #SUP: 2
41 -1 285 -1 768 -1 866 -1 #SUP: 2
41 -1 764 -1 64 -1 1214 -1 #SUP: 2
64 -1 285 -1 768 -1 866 -1 #SUP: 2
65 -1 154 -1 123 -1 2 -1 #SUP: 2
65 -1 1219 -1 32 -1 2 -1 #SUP: 2
123 -1 120 -1 340 -1 32 -1 #SUP: 2
123 -1 120 -1 340 -1 749 -1 #SUP: 2
123 -1 123 -1 220 -1 67 -1 #SUP: 2
123 -1 144 -1 123 -1 67 -1 #SUP: 2
123 -1 144 -1 123 -1 220 -1 #SUP: 2
123 -1 144 -1 220 -1 67 -1 #SUP: 2
123 -1 206 -1 2 -1 123 -1 #SUP: 2
123 -1 206 -1 65 -1 94 -1 #SUP: 2
123 -1 206 -1 123 -1 65 -1 #SUP: 2
123 -1 936 -1 538 -1 236 -1 #SUP: 2
144 -1 22 -1 923 -1 67 -1 #SUP: 2
144 -1 123 -1 220 -1 67 -1 #SUP: 2
170 -1 31 -1 222 -1 64 -1 #SUP: 2
170 -1 162 -1 123 -1 174 -1 #SUP: 2
171 -1 22 -1 401 -1 18996 -1 #SUP: 2
171 -1 32 -1 22 -1 401 -1 #SUP: 2
171 -1 32 -1 22 -1 18996 -1 #SUP: 2
171 -1 32 -1 401 -1 18996 -1 #SUP: 2
193 -1 31 -1 222 -1 123 -1 #SUP: 2
193 -1 162 -1 123 -1 174 -1 #SUP: 2
193 -1 170 -1 123 -1 174 -1 #SUP: 2
193 -1 170 -1 162 -1 123 -1 #SUP: 2
193 -1 170 -1 162 -1 174 -1 #SUP: 2
936 -1 538 -1 123 -1 123 -1 #SUP: 2
936 -1 538 -1 236 -1 123 -1 #SUP: 2
123 -1 144 -1 123 -1 220 -1 67 -1 #SUP: 2
171 -1 32 -1 22 -1 401 -1 18996 -1 #SUP: 2
193 -1 170 -1 162 -1 123 -1 174 -1 #SUP: 2
