1 -1 #SUP: 2
2 -1 #SUP: 12
8 -1 #SUP: 2
9 -1 #SUP: 11
10 -1 #SUP: 2
11 -1 #SUP: 4
15 -1 #SUP: 2
16 -1 #SUP: 4
22 -1 #SUP: 8
26 -1 #SUP: 8
27 -1 #SUP: 5
28 -1 #SUP: 8
31 -1 #SUP: 5
32 -1 #SUP: 6
33 -1 #SUP: 3
41 -1 #SUP: 8
46 -1 #SUP: 2
64 -1 #SUP: 19
65 -1 #SUP: 9
66 -1 #SUP: 2
67 -1 #SUP: 2
77 -1 #SUP: 3
78 -1 #SUP: 2
117 -1 #SUP: 3
123 -1 #SUP: 14
144 -1 #SUP: 6
152 -1 #SUP: 2
160 -1 #SUP: 2
162 -1 #SUP: 3
164 -1 #SUP: 4
167 -1 #SUP: 2
168 -1 #SUP: 2
183 -1 #SUP: 3
193 -1 #SUP: 4
198 -1 #SUP: 2
222 -1 #SUP: 5
224 -1 #SUP: 2
225 -1 #SUP: 3
237 -1 #SUP: 2
260 -1 #SUP: 2
262 -1 #SUP: 4
286 -1 #SUP: 3
318 -1 #SUP: 2
340 -1 #SUP: 3
356 -1 #SUP: 4
364 -1 #SUP: 3
368 -1 #SUP: 2
371 -1 #SUP: 2
441 -1 #SUP: 2
501 -1 #SUP: 3
520 -1 #SUP: 3
531 -1 #SUP: 2
599 -1 #SUP: 4
651 -1 #SUP: 4
655 -1 #SUP: 2
683 -1 #SUP: 4
686 -1 #SUP: 2
693 -1 #SUP: 2
727 -1 #SUP: 2
744 -1 #SUP: 2
749 -1 #SUP: 2
850 -1 #SUP: 4
1052 -1 #SUP: 2
1069 -1 #SUP: 2
1118 -1 #SUP: 2
1127 -1 #SUP: 2
1191 -1 #SUP: 4
1281 -1 #SUP: 2
1332 -1 #SUP: 2
1461 -1 #SUP: 2
1641 -1 #SUP: 2
1700 -1 #SUP: 2
1712 -1 #SUP: 2
2222 -1 #SUP: 4
2640 -1 #SUP: 2
3470 -1 #SUP: 2
6554 -1 #SUP: 2
7258 -1 #SUP: 3
9981 -1 #SUP: 6
11235 -1 #SUP: 2
2 -1 41 -1 #SUP: 4
2 -1 64 -1 #SUP: 2
2 -1 193 -1 #SUP: 2
2 -1 224 -1 #SUP: 2
2 -1 318 -1 #SUP: 2
9 -1 2 -1 #SUP: 2
9 -1 26 -1 #SUP: 8
9 -1 27 -1 #SUP: 2
9 -1 28 -1 #SUP: 8
9 -1 64 -1 #SUP: 2
9 -1 123 -1 #SUP: 2
9 -1 11235 -1 #SUP: 2
16 -1 1191 -1 #SUP: 2
22 -1 2 -1 #SUP: 2
22 -1 22 -1 #SUP: 2
26 -1 2 -1 #SUP: 2
26 -1 27 -1 #SUP: 2
26 -1 64 -1 #SUP: 3
26 -1 123 -1 #SUP: 2
27 -1 2 -1 #SUP: 3
27 -1 41 -1 #SUP: 2
27 -1 183 -1 #SUP: 2
28 -1 2 -1 #SUP: 2
28 -1 26 -1 #SUP: 8
28 -1 27 -1 #SUP: 2
28 -1 64 -1 #SUP: 2
28 -1 123 -1 #SUP: 2
31 -1 41 -1 #SUP: 2
32 -1 2 -1 #SUP: 2
32 -1 152 -1 #SUP: 2
32 -1 651 -1 #SUP: 2
33 -1 22 -1 #SUP: 2
46 -1 32 -1 #SUP: 2
64 -1 2 -1 #SUP: 6
64 -1 22 -1 #SUP: 3
64 -1 32 -1 #SUP: 3
64 -1 41 -1 #SUP: 3
64 -1 64 -1 #SUP: 3
64 -1 65 -1 #SUP: 3
64 -1 67 -1 #SUP: 2
64 -1 262 -1 #SUP: 2
64 -1 318 -1 #SUP: 2
64 -1 655 -1 #SUP: 2
64 -1 1069 -1 #SUP: 2
65 -1 22 -1 #SUP: 2
65 -1 32 -1 #SUP: 2
65 -1 41 -1 #SUP: 2
65 -1 599 -1 #SUP: 2
65 -1 651 -1 #SUP: 2
77 -1 64 -1 #SUP: 2
117 -1 222 -1 #SUP: 2
123 -1 27 -1 #SUP: 2
123 -1 64 -1 #SUP: 3
123 -1 65 -1 #SUP: 2
123 -1 123 -1 #SUP: 4
123 -1 144 -1 #SUP: 4
123 -1 262 -1 #SUP: 3
123 -1 286 -1 #SUP: 3
123 -1 340 -1 #SUP: 3
123 -1 364 -1 #SUP: 2
123 -1 599 -1 #SUP: 2
123 -1 686 -1 #SUP: 2
123 -1 693 -1 #SUP: 2
144 -1 41 -1 #SUP: 2
144 -1 441 -1 #SUP: 2
160 -1 2 -1 #SUP: 2
160 -1 64 -1 #SUP: 2
162 -1 41 -1 #SUP: 2
162 -1 164 -1 #SUP: 2
222 -1 2 -1 #SUP: 2
222 -1 64 -1 #SUP: 2
225 -1 2 -1 #SUP: 2
237 -1 2 -1 #SUP: 2
262 -1 2 -1 #SUP: 2
286 -1 222 -1 #SUP: 2
356 -1 66 -1 #SUP: 2
364 -1 65 -1 #SUP: 2
364 -1 686 -1 #SUP: 2
520 -1 9 -1 #SUP: 2
520 -1 28 -1 #SUP: 2
520 -1 850 -1 #SUP: 2
531 -1 31 -1 #SUP: 2
599 -1 123 -1 #SUP: 2
651 -1 850 -1 #SUP: 2
683 -1 9 -1 #SUP: 2
683 -1 26 -1 #SUP: 2
683 -1 28 -1 #SUP: 2
683 -1 1641 -1 #SUP: 2
749 -1 144 -1 #SUP: 2
850 -1 683 -1 #SUP: 2
1191 -1 65 -1 #SUP: 2
1191 -1 123 -1 #SUP: 2
1191 -1 286 -1 #SUP: 2
1332 -1 41 -1 #SUP: 2
1461 -1 222 -1 #SUP: 2
1712 -1 31 -1 #SUP: 2
2222 -1 9 -1 #SUP: 3
2222 -1 26 -1 #SUP: 3
2222 -1 28 -1 #SUP: 3
3470 -1 64 -1 #SUP: 2
9981 -1 2 -1 #SUP: 2
9981 -1 64 -1 #SUP: 5
9981 -1 65 -1 #SUP: 4
9981 -1 318 -1 #SUP: 2
9 -1 26 -1 2 -1 #SUP: 2
9 -1 26 -1 27 -1 #SUP: 2
9 -1 26 -1 64 -1 #SUP: 2
9 -1 26 -1 123 -1 #SUP: 2
9 -1 28 -1 2 -1 #SUP: 2
9 -1 28 -1 26 -1 #SUP: 8
9 -1 28 -1 27 -1 #SUP: 2
9 -1 28 -1 64 -1 #SUP: 2
9 -1 28 -1 123 -1 #SUP: 2
28 -1 26 -1 2 -1 #SUP: 2
28 -1 26 -1 27 -1 #SUP: 2
28 -1 26 -1 64 -1 #SUP: 2
28 -1 26 -1 123 -1 #SUP: 2
64 -1 2 -1 318 -1 #SUP: 2
64 -1 262 -1 2 -1 #SUP: 2
65 -1 32 -1 651 -1 #SUP: 2
123 -1 64 -1 262 -1 #SUP: 2
123 -1 123 -1 144 -1 #SUP: 2
123 -1 364 -1 686 -1 #SUP: 2
160 -1 64 -1 2 -1 #SUP: 2
222 -1 64 -1 2 -1 #SUP: 2
520 -1 9 -1 28 -1 #SUP: 2
683 -1 9 -1 26 -1 #SUP: 2
683 -1 9 -1 28 -1 #SUP: 2
683 -1 28 -1 26 -1 #SUP: 2
1191 -1 123 -1 286 -1 #SUP: 2
2222 -1 9 -1 26 -1 #SUP: 3
2222 -1 9 -1 28 -1 #SUP: 3
2222 -1 28 -1 26 -1 #SUP: 3
9981 -1 2 -1 318 -1 #SUP: 2
9981 -1 64 -1 2 -1 #SUP: 2
9981 -1 64 -1 65 -1 #SUP: 3
9981 -1 64 -1 318 -1 #SUP: 2
9 -1 28 -1 26 -1 2 -1 #SUP: 2
9 -1 28 -1 26 -1 27 -1 #SUP: 2
9 -1 28 -1 26 -1 64 -1 #SUP: 2
9 -1 28 -1 26 -1 123 -1 #SUP: 2
683 -1 9 -1 28 -1 26 -1 #SUP: 2
2222 -1 9 -1 28 -1 26 -1 #SUP: 3
9981 -1 64 -1 2 -1 318 -1 #SUP: 2
