2 -1 #SUP: 10
7 -1 #SUP: 2
10 -1 #SUP: 9
16 -1 #SUP: 4
22 -1 #SUP: 7
29 -1 #SUP: 2
30 -1 #SUP: 9
32 -1 #SUP: 13
33 -1 #SUP: 4
41 -1 #SUP: 5
47 -1 #SUP: 2
50 -1 #SUP: 2
64 -1 #SUP: 11
65 -1 #SUP: 13
66 -1 #SUP: 4
70 -1 #SUP: 2
77 -1 #SUP: 26
78 -1 #SUP: 6
120 -1 #SUP: 4
123 -1 #SUP: 20
152 -1 #SUP: 3
154 -1 #SUP: 5
162 -1 #SUP: 2
164 -1 #SUP: 4
167 -1 #SUP: 2
171 -1 #SUP: 4
174 -1 #SUP: 2
183 -1 #SUP: 5
193 -1 #SUP: 6
212 -1 #SUP: 3
219 -1 #SUP: 2
220 -1 #SUP: 2
223 -1 #SUP: 2
236 -1 #SUP: 2
249 -1 #SUP: 2
250 -1 #SUP: 2
278 -1 #SUP: 2
286 -1 #SUP: 2
321 -1 #SUP: 2
326 -1 #SUP: 6
340 -1 #SUP: 3
356 -1 #SUP: 2
364 -1 #SUP: 2
381 -1 #SUP: 4
384 -1 #SUP: 2
407 -1 #SUP: 2
424 -1 #SUP: 2
431 -1 #SUP: 2
443 -1 #SUP: 2
472 -1 #SUP: 2
520 -1 #SUP: 4
536 -1 #SUP: 2
567 -1 #SUP: 2
589 -1 #SUP: 3
599 -1 #SUP: 4
693 -1 #SUP: 4
711 -1 #SUP: 2
764 -1 #SUP: 3
765 -1 #SUP: 2
886 -1 #SUP: 3
911 -1 #SUP: 3
1191 -1 #SUP: 4
1216 -1 #SUP: 2
1591 -1 #SUP: 2
1611 -1 #SUP: 2
1672 -1 #SUP: 3
1700 -1 #SUP: 2
2730 -1 #SUP: 2
7323 -1 #SUP: 3
7562 -1 #SUP: 2
17090 -1 #SUP: 2
17091 -1 #SUP: 2
19900 -1 #SUP: 2
19909 -1 #SUP: 2
30271 -1 #SUP: 2
30273 -1 #SUP: 3
2 -1 64 -1 #SUP: 2
2 -1 65 -1 #SUP: 2
2 -1 77 -1 #SUP: 2
2 -1 78 -1 #SUP: 2
2 -1 120 -1 #SUP: 2
2 -1 123 -1 #SUP: 3
2 -1 30273 -1 #SUP: 2
7 -1 1700 -1 #SUP: 2
7 -1 2730 -1 #SUP: 2
10 -1 22 -1 #SUP: 2
10 -1 32 -1 #SUP: 3
10 -1 65 -1 #SUP: 3
10 -1 77 -1 #SUP: 4
10 -1 381 -1 #SUP: 2
22 -1 2 -1 #SUP: 3
22 -1 22 -1 #SUP: 2
22 -1 32 -1 #SUP: 3
22 -1 65 -1 #SUP: 2
22 -1 77 -1 #SUP: 2
22 -1 123 -1 #SUP: 2
22 -1 171 -1 #SUP: 2
22 -1 381 -1 #SUP: 2
29 -1 32 -1 #SUP: 2
29 -1 472 -1 #SUP: 2
29 -1 19900 -1 #SUP: 2
30 -1 30 -1 #SUP: 3
30 -1 250 -1 #SUP: 2
30 -1 321 -1 #SUP: 2
30 -1 589 -1 #SUP: 2
32 -1 2 -1 #SUP: 2
32 -1 10 -1 #SUP: 2
32 -1 22 -1 #SUP: 3
32 -1 32 -1 #SUP: 3
32 -1 77 -1 #SUP: 3
32 -1 120 -1 #SUP: 2
32 -1 183 -1 #SUP: 2
32 -1 326 -1 #SUP: 2
32 -1 381 -1 #SUP: 2
32 -1 19900 -1 #SUP: 2
32 -1 19909 -1 #SUP: 2
41 -1 10 -1 #SUP: 2
41 -1 41 -1 #SUP: 2
41 -1 66 -1 #SUP: 2
41 -1 77 -1 #SUP: 2
41 -1 193 -1 #SUP: 2
47 -1 32 -1 #SUP: 2
50 -1 77 -1 #SUP: 2
64 -1 2 -1 #SUP: 3
64 -1 22 -1 #SUP: 2
64 -1 64 -1 #SUP: 2
64 -1 65 -1 #SUP: 3
64 -1 219 -1 #SUP: 2
64 -1 30271 -1 #SUP: 2
65 -1 2 -1 #SUP: 3
65 -1 33 -1 #SUP: 2
65 -1 64 -1 #SUP: 4
65 -1 65 -1 #SUP: 2
65 -1 77 -1 #SUP: 5
65 -1 123 -1 #SUP: 2
65 -1 193 -1 #SUP: 2
65 -1 326 -1 #SUP: 2
65 -1 599 -1 #SUP: 2
65 -1 7562 -1 #SUP: 2
66 -1 10 -1 #SUP: 2
66 -1 123 -1 #SUP: 2
77 -1 2 -1 #SUP: 3
77 -1 10 -1 #SUP: 3
77 -1 22 -1 #SUP: 3
77 -1 32 -1 #SUP: 2
77 -1 64 -1 #SUP: 2
77 -1 65 -1 #SUP: 4
77 -1 77 -1 #SUP: 6
77 -1 123 -1 #SUP: 5
77 -1 154 -1 #SUP: 3
77 -1 164 -1 #SUP: 3
77 -1 174 -1 #SUP: 2
77 -1 183 -1 #SUP: 3
77 -1 193 -1 #SUP: 2
77 -1 326 -1 #SUP: 4
77 -1 381 -1 #SUP: 2
77 -1 520 -1 #SUP: 2
77 -1 599 -1 #SUP: 4
77 -1 1672 -1 #SUP: 2
77 -1 7562 -1 #SUP: 2
78 -1 77 -1 #SUP: 2
78 -1 78 -1 #SUP: 2
78 -1 384 -1 #SUP: 2
120 -1 64 -1 #SUP: 2
120 -1 123 -1 #SUP: 2
120 -1 764 -1 #SUP: 2
120 -1 30271 -1 #SUP: 2
123 -1 2 -1 #SUP: 2
123 -1 10 -1 #SUP: 3
123 -1 22 -1 #SUP: 2
123 -1 32 -1 #SUP: 5
123 -1 64 -1 #SUP: 4
123 -1 65 -1 #SUP: 3
123 -1 77 -1 #SUP: 2
123 -1 123 -1 #SUP: 3
123 -1 154 -1 #SUP: 2
123 -1 167 -1 #SUP: 2
123 -1 171 -1 #SUP: 3
123 -1 183 -1 #SUP: 2
123 -1 193 -1 #SUP: 2
123 -1 223 -1 #SUP: 2
123 -1 340 -1 #SUP: 2
123 -1 356 -1 #SUP: 2
123 -1 381 -1 #SUP: 2
123 -1 407 -1 #SUP: 2
152 -1 32 -1 #SUP: 2
154 -1 10 -1 #SUP: 3
154 -1 32 -1 #SUP: 2
154 -1 183 -1 #SUP: 3
164 -1 65 -1 #SUP: 2
171 -1 22 -1 #SUP: 2
171 -1 32 -1 #SUP: 2
183 -1 10 -1 #SUP: 3
183 -1 77 -1 #SUP: 3
193 -1 65 -1 #SUP: 3
193 -1 77 -1 #SUP: 2
193 -1 599 -1 #SUP: 2
212 -1 66 -1 #SUP: 2
278 -1 32 -1 #SUP: 2
321 -1 886 -1 #SUP: 2
326 -1 10 -1 #SUP: 2
326 -1 41 -1 #SUP: 2
326 -1 77 -1 #SUP: 2
340 -1 41 -1 #SUP: 2
340 -1 66 -1 #SUP: 2
340 -1 77 -1 #SUP: 2
381 -1 65 -1 #SUP: 2
381 -1 326 -1 #SUP: 2
384 -1 78 -1 #SUP: 2
407 -1 64 -1 #SUP: 2
443 -1 64 -1 #SUP: 2
443 -1 120 -1 #SUP: 2
443 -1 764 -1 #SUP: 2
443 -1 30271 -1 #SUP: 2
472 -1 32 -1 #SUP: 2
472 -1 19900 -1 #SUP: 2
472 -1 19909 -1 #SUP: 2
520 -1 66 -1 #SUP: 2
536 -1 2 -1 #SUP: 2
764 -1 64 -1 #SUP: 3
764 -1 30271 -1 #SUP: 2
886 -1 2 -1 #SUP: 2
886 -1 30 -1 #SUP: 2
886 -1 589 -1 #SUP: 2
886 -1 7323 -1 #SUP: 2
886 -1 30273 -1 #SUP: 2
1191 -1 77 -1 #SUP: 3
1191 -1 123 -1 #SUP: 2
1191 -1 193 -1 #SUP: 2
1191 -1 693 -1 #SUP: 2
1216 -1 326 -1 #SUP: 2
1672 -1 77 -1 #SUP: 2
1672 -1 164 -1 #SUP: 2
1700 -1 2730 -1 #SUP: 2
7323 -1 2 -1 #SUP: 3
7323 -1 30273 -1 #SUP: 3
17090 -1 32 -1 #SUP: 2
17091 -1 32 -1 #SUP: 2
17091 -1 17090 -1 #SUP: 2
19900 -1 19909 -1 #SUP: 2
2 -1 65 -1 77 -1 #SUP: 2
2 -1 65 -1 123 -1 #SUP: 2
2 -1 77 -1 123 -1 #SUP: 2
7 -1 1700 -1 2730 -1 #SUP: 2
10 -1 32 -1 22 -1 #SUP: 2
10 -1 77 -1 77 -1 #SUP: 2
10 -1 381 -1 65 -1 #SUP: 2
22 -1 32 -1 381 -1 #SUP: 2
22 -1 65 -1 2 -1 #SUP: 2
29 -1 32 -1 19900 -1 #SUP: 2
29 -1 472 -1 32 -1 #SUP: 2
29 -1 472 -1 19900 -1 #SUP: 2
30 -1 30 -1 30 -1 #SUP: 3
32 -1 22 -1 32 -1 #SUP: 2
32 -1 22 -1 77 -1 #SUP: 2
32 -1 183 -1 10 -1 #SUP: 2
32 -1 381 -1 326 -1 #SUP: 2
32 -1 19900 -1 19909 -1 #SUP: 2
64 -1 65 -1 64 -1 #SUP: 2
65 -1 77 -1 123 -1 #SUP: 2
65 -1 77 -1 326 -1 #SUP: 2
65 -1 77 -1 599 -1 #SUP: 2
77 -1 65 -1 77 -1 #SUP: 2
77 -1 65 -1 7562 -1 #SUP: 2
77 -1 77 -1 77 -1 #SUP: 3
77 -1 77 -1 164 -1 #SUP: 3
77 -1 123 -1 65 -1 #SUP: 2
77 -1 183 -1 77 -1 #SUP: 2
77 -1 1672 -1 77 -1 #SUP: 2
77 -1 1672 -1 164 -1 #SUP: 2
78 -1 384 -1 78 -1 #SUP: 2
120 -1 64 -1 30271 -1 #SUP: 2
120 -1 764 -1 64 -1 #SUP: 2
120 -1 764 -1 30271 -1 #SUP: 2
123 -1 32 -1 22 -1 #SUP: 2
123 -1 123 -1 171 -1 #SUP: 2
123 -1 154 -1 183 -1 #SUP: 2
123 -1 171 -1 22 -1 #SUP: 2
123 -1 171 -1 32 -1 #SUP: 2
123 -1 407 -1 64 -1 #SUP: 2
154 -1 10 -1 32 -1 #SUP: 2
154 -1 183 -1 10 -1 #SUP: 2
171 -1 32 -1 22 -1 #SUP: 2
193 -1 77 -1 599 -1 #SUP: 2
443 -1 64 -1 30271 -1 #SUP: 2
443 -1 120 -1 64 -1 #SUP: 2
443 -1 120 -1 764 -1 #SUP: 2
443 -1 120 -1 30271 -1 #SUP: 2
443 -1 764 -1 64 -1 #SUP: 2
443 -1 764 -1 30271 -1 #SUP: 2
472 -1 32 -1 19900 -1 #SUP: 2
472 -1 32 -1 19909 -1 #SUP: 2
472 -1 19900 -1 19909 -1 #SUP: 2
764 -1 64 -1 30271 -1 #SUP: 2
886 -1 2 -1 30273 -1 #SUP: 2
886 -1 7323 -1 2 -1 #SUP: 2
886 -1 7323 -1 30273 -1 #SUP: 2
1672 -1 77 -1 164 -1 #SUP: 2
7323 -1 2 -1 30273 -1 #SUP: 2
17091 -1 17090 -1 32 -1 #SUP: 2
2 -1 65 -1 77 -1 123 -1 #SUP: 2
29 -1 472 -1 32 -1 19900 -1 #SUP: 2
77 -1 1672 -1 77 -1 164 -1 #SUP: 2
120 -1 764 -1 64 -1 30271 -1 #SUP: 2
123 -1 171 -1 32 -1 22 -1 #SUP: 2
443 -1 120 -1 64 -1 30271 -1 #SUP: 2
443 -1 120 -1 764 -1 64 -1 #SUP: 2
443 -1 120 -1 764 -1 30271 -1 #SUP: 2
443 -1 764 -1 64 -1 30271 -1 #SUP: 2
472 -1 32 -1 19900 -1 19909 -1 #SUP: 2
886 -1 7323 -1 2 -1 30273 -1 #SUP: 2
443 -1 120 -1 764 -1 64 -1 30271 -1 #SUP: 2
