2 -1 #SUP: 27
3 -1 #SUP: 6
6 -1 #SUP: 2
7 -1 #SUP: 6
10 -1 #SUP: 16
15 -1 #SUP: 7
16 -1 #SUP: 10
22 -1 #SUP: 59
27 -1 #SUP: 6
30 -1 #SUP: 2
31 -1 #SUP: 17
32 -1 #SUP: 32
33 -1 #SUP: 5
41 -1 #SUP: 23
44 -1 #SUP: 3
49 -1 #SUP: 2
50 -1 #SUP: 11
59 -1 #SUP: 4
64 -1 #SUP: 27
65 -1 #SUP: 30
66 -1 #SUP: 5
67 -1 #SUP: 8
68 -1 #SUP: 2
70 -1 #SUP: 5
73 -1 #SUP: 3
76 -1 #SUP: 4
77 -1 #SUP: 63
78 -1 #SUP: 25
81 -1 #SUP: 3
117 -1 #SUP: 8
120 -1 #SUP: 5
123 -1 #SUP: 46
132 -1 #SUP: 2
134 -1 #SUP: 5
140 -1 #SUP: 7
144 -1 #SUP: 9
145 -1 #SUP: 3
151 -1 #SUP: 8
153 -1 #SUP: 3
154 -1 #SUP: 20
156 -1 #SUP: 2
159 -1 #SUP: 2
162 -1 #SUP: 5
164 -1 #SUP: 8
165 -1 #SUP: 4
167 -1 #SUP: 7
168 -1 #SUP: 6
170 -1 #SUP: 31
171 -1 #SUP: 9
174 -1 #SUP: 7
175 -1 #SUP: 2
183 -1 #SUP: 11
193 -1 #SUP: 31
201 -1 #SUP: 5
205 -1 #SUP: 2
206 -1 #SUP: 5
213 -1 #SUP: 6
219 -1 #SUP: 5
220 -1 #SUP: 6
222 -1 #SUP: 11
223 -1 #SUP: 2
224 -1 #SUP: 2
225 -1 #SUP: 6
226 -1 #SUP: 3
236 -1 #SUP: 8
244 -1 #SUP: 3
246 -1 #SUP: 2
250 -1 #SUP: 2
254 -1 #SUP: 4
256 -1 #SUP: 5
259 -1 #SUP: 2
262 -1 #SUP: 4
278 -1 #SUP: 6
286 -1 #SUP: 5
291 -1 #SUP: 2
295 -1 #SUP: 3
308 -1 #SUP: 2
318 -1 #SUP: 2
326 -1 #SUP: 3
330 -1 #SUP: 2
349 -1 #SUP: 9
356 -1 #SUP: 7
364 -1 #SUP: 8
365 -1 #SUP: 3
369 -1 #SUP: 2
401 -1 #SUP: 5
407 -1 #SUP: 5
408 -1 #SUP: 4
409 -1 #SUP: 4
417 -1 #SUP: 2
431 -1 #SUP: 2
432 -1 #SUP: 2
439 -1 #SUP: 2
441 -1 #SUP: 11
445 -1 #SUP: 2
491 -1 #SUP: 2
499 -1 #SUP: 2
517 -1 #SUP: 2
520 -1 #SUP: 7
523 -1 #SUP: 2
529 -1 #SUP: 3
533 -1 #SUP: 2
539 -1 #SUP: 2
544 -1 #SUP: 2
551 -1 #SUP: 2
599 -1 #SUP: 11
608 -1 #SUP: 3
613 -1 #SUP: 2
638 -1 #SUP: 2
657 -1 #SUP: 5
660 -1 #SUP: 2
667 -1 #SUP: 2
678 -1 #SUP: 2
683 -1 #SUP: 7
693 -1 #SUP: 3
702 -1 #SUP: 2
711 -1 #SUP: 2
756 -1 #SUP: 4
764 -1 #SUP: 4
765 -1 #SUP: 2
783 -1 #SUP: 2
789 -1 #SUP: 3
796 -1 #SUP: 2
827 -1 #SUP: 3
830 -1 #SUP: 2
835 -1 #SUP: 2
863 -1 #SUP: 2
921 -1 #SUP: 2
936 -1 #SUP: 2
1026 -1 #SUP: 2
1051 -1 #SUP: 2
1073 -1 #SUP: 2
1127 -1 #SUP: 3
1160 -1 #SUP: 2
1177 -1 #SUP: 2
1206 -1 #SUP: 2
1223 -1 #SUP: 2
1238 -1 #SUP: 2
1241 -1 #SUP: 2
1326 -1 #SUP: 2
1423 -1 #SUP: 2
1443 -1 #SUP: 2
1478 -1 #SUP: 2
1487 -1 #SUP: 2
1650 -1 #SUP: 2
1685 -1 #SUP: 2
1810 -1 #SUP: 2
1902 -1 #SUP: 3
2071 -1 #SUP: 2
2134 -1 #SUP: 2
2418 -1 #SUP: 2
2569 -1 #SUP: 2
2630 -1 #SUP: 2
2658 -1 #SUP: 2
2707 -1 #SUP: 2
3672 -1 #SUP: 2
3680 -1 #SUP: 2
4441 -1 #SUP: 2
5159 -1 #SUP: 2
6775 -1 #SUP: 2
7648 -1 #SUP: 2
7828 -1 #SUP: 5
8685 -1 #SUP: 2
9200 -1 #SUP: 2
10788 -1 #SUP: 2
11822 -1 #SUP: 2
12246 -1 #SUP: 2
12409 -1 #SUP: 2
14122 -1 #SUP: 2
16519 -1 #SUP: 2
18546 -1 #SUP: 2
18550 -1 #SUP: 2
18561 -1 #SUP: 2
2 -1 7 -1 #SUP: 2
2 -1 15 -1 #SUP: 2
2 -1 22 -1 #SUP: 3
2 -1 27 -1 #SUP: 2
2 -1 32 -1 #SUP: 2
2 -1 33 -1 #SUP: 2
2 -1 41 -1 #SUP: 2
2 -1 50 -1 #SUP: 4
2 -1 64 -1 #SUP: 3
2 -1 65 -1 #SUP: 2
2 -1 77 -1 #SUP: 6
2 -1 117 -1 #SUP: 2
2 -1 123 -1 #SUP: 5
2 -1 164 -1 #SUP: 2
2 -1 167 -1 #SUP: 2
2 -1 170 -1 #SUP: 3
2 -1 183 -1 #SUP: 3
2 -1 193 -1 #SUP: 4
2 -1 220 -1 #SUP: 2
2 -1 356 -1 #SUP: 2
2 -1 599 -1 #SUP: 3
2 -1 835 -1 #SUP: 2
3 -1 65 -1 #SUP: 2
3 -1 1685 -1 #SUP: 2
7 -1 65 -1 #SUP: 2
7 -1 167 -1 #SUP: 2
7 -1 278 -1 #SUP: 3
10 -1 22 -1 #SUP: 4
10 -1 32 -1 #SUP: 2
10 -1 50 -1 #SUP: 2
10 -1 65 -1 #SUP: 2
10 -1 67 -1 #SUP: 2
10 -1 70 -1 #SUP: 2
10 -1 77 -1 #SUP: 3
10 -1 154 -1 #SUP: 3
10 -1 183 -1 #SUP: 2
10 -1 678 -1 #SUP: 2
15 -1 2 -1 #SUP: 2
15 -1 32 -1 #SUP: 3
15 -1 183 -1 #SUP: 3
15 -1 193 -1 #SUP: 2
15 -1 432 -1 #SUP: 2
15 -1 8685 -1 #SUP: 2
15 -1 16519 -1 #SUP: 2
16 -1 10 -1 #SUP: 2
16 -1 22 -1 #SUP: 4
16 -1 32 -1 #SUP: 2
16 -1 64 -1 #SUP: 2
16 -1 65 -1 #SUP: 2
16 -1 77 -1 #SUP: 5
16 -1 117 -1 #SUP: 2
16 -1 123 -1 #SUP: 2
16 -1 170 -1 #SUP: 3
16 -1 193 -1 #SUP: 2
16 -1 222 -1 #SUP: 3
16 -1 599 -1 #SUP: 2
16 -1 1127 -1 #SUP: 2
22 -1 2 -1 #SUP: 3
22 -1 10 -1 #SUP: 7
22 -1 16 -1 #SUP: 3
22 -1 22 -1 #SUP: 11
22 -1 27 -1 #SUP: 2
22 -1 31 -1 #SUP: 3
22 -1 32 -1 #SUP: 9
22 -1 41 -1 #SUP: 4
22 -1 49 -1 #SUP: 2
22 -1 50 -1 #SUP: 3
22 -1 59 -1 #SUP: 4
22 -1 64 -1 #SUP: 9
22 -1 65 -1 #SUP: 7
22 -1 66 -1 #SUP: 2
22 -1 67 -1 #SUP: 3
22 -1 77 -1 #SUP: 14
22 -1 78 -1 #SUP: 6
22 -1 117 -1 #SUP: 3
22 -1 123 -1 #SUP: 6
22 -1 132 -1 #SUP: 2
22 -1 134 -1 #SUP: 2
22 -1 140 -1 #SUP: 3
22 -1 144 -1 #SUP: 2
22 -1 151 -1 #SUP: 2
22 -1 154 -1 #SUP: 5
22 -1 165 -1 #SUP: 2
22 -1 170 -1 #SUP: 9
22 -1 171 -1 #SUP: 3
22 -1 174 -1 #SUP: 2
22 -1 183 -1 #SUP: 2
22 -1 193 -1 #SUP: 2
22 -1 213 -1 #SUP: 2
22 -1 219 -1 #SUP: 4
22 -1 226 -1 #SUP: 2
22 -1 262 -1 #SUP: 2
22 -1 349 -1 #SUP: 2
22 -1 356 -1 #SUP: 2
22 -1 407 -1 #SUP: 2
22 -1 408 -1 #SUP: 3
22 -1 529 -1 #SUP: 2
22 -1 544 -1 #SUP: 2
22 -1 551 -1 #SUP: 2
22 -1 657 -1 #SUP: 2
22 -1 678 -1 #SUP: 2
22 -1 683 -1 #SUP: 3
22 -1 1127 -1 #SUP: 3
22 -1 1902 -1 #SUP: 2
22 -1 7648 -1 #SUP: 2
22 -1 12246 -1 #SUP: 2
27 -1 22 -1 #SUP: 2
27 -1 170 -1 #SUP: 2
30 -1 170 -1 #SUP: 2
31 -1 2 -1 #SUP: 4
31 -1 22 -1 #SUP: 4
31 -1 41 -1 #SUP: 2
31 -1 65 -1 #SUP: 2
31 -1 77 -1 #SUP: 7
31 -1 123 -1 #SUP: 3
31 -1 167 -1 #SUP: 2
31 -1 170 -1 #SUP: 3
31 -1 193 -1 #SUP: 2
31 -1 201 -1 #SUP: 2
31 -1 222 -1 #SUP: 5
31 -1 356 -1 #SUP: 2
31 -1 439 -1 #SUP: 2
32 -1 2 -1 #SUP: 3
32 -1 10 -1 #SUP: 6
32 -1 22 -1 #SUP: 16
32 -1 31 -1 #SUP: 2
32 -1 32 -1 #SUP: 3
32 -1 41 -1 #SUP: 2
32 -1 49 -1 #SUP: 2
32 -1 50 -1 #SUP: 2
32 -1 64 -1 #SUP: 5
32 -1 65 -1 #SUP: 4
32 -1 77 -1 #SUP: 6
32 -1 78 -1 #SUP: 5
32 -1 117 -1 #SUP: 3
32 -1 123 -1 #SUP: 3
32 -1 134 -1 #SUP: 2
32 -1 140 -1 #SUP: 2
32 -1 154 -1 #SUP: 2
32 -1 170 -1 #SUP: 5
32 -1 171 -1 #SUP: 2
32 -1 193 -1 #SUP: 3
32 -1 219 -1 #SUP: 4
32 -1 256 -1 #SUP: 2
32 -1 441 -1 #SUP: 2
32 -1 678 -1 #SUP: 2
32 -1 863 -1 #SUP: 2
32 -1 1051 -1 #SUP: 2
32 -1 1127 -1 #SUP: 2
33 -1 123 -1 #SUP: 3
41 -1 2 -1 #SUP: 3
41 -1 10 -1 #SUP: 3
41 -1 22 -1 #SUP: 6
41 -1 31 -1 #SUP: 2
41 -1 32 -1 #SUP: 3
41 -1 41 -1 #SUP: 2
41 -1 64 -1 #SUP: 3
41 -1 65 -1 #SUP: 4
41 -1 77 -1 #SUP: 4
41 -1 117 -1 #SUP: 3
41 -1 120 -1 #SUP: 2
41 -1 123 -1 #SUP: 3
41 -1 144 -1 #SUP: 2
41 -1 151 -1 #SUP: 2
41 -1 154 -1 #SUP: 4
41 -1 171 -1 #SUP: 3
41 -1 193 -1 #SUP: 3
41 -1 220 -1 #SUP: 3
41 -1 225 -1 #SUP: 2
41 -1 330 -1 #SUP: 2
41 -1 441 -1 #SUP: 2
41 -1 683 -1 #SUP: 2
41 -1 764 -1 #SUP: 2
41 -1 783 -1 #SUP: 2
41 -1 2134 -1 #SUP: 2
49 -1 64 -1 #SUP: 2
50 -1 6 -1 #SUP: 2
50 -1 7 -1 #SUP: 2
50 -1 65 -1 #SUP: 2
50 -1 170 -1 #SUP: 3
50 -1 193 -1 #SUP: 3
50 -1 222 -1 #SUP: 2
50 -1 756 -1 #SUP: 2
59 -1 32 -1 #SUP: 2
59 -1 77 -1 #SUP: 2
59 -1 170 -1 #SUP: 2
64 -1 2 -1 #SUP: 4
64 -1 10 -1 #SUP: 2
64 -1 22 -1 #SUP: 9
64 -1 31 -1 #SUP: 2
64 -1 32 -1 #SUP: 5
64 -1 41 -1 #SUP: 2
64 -1 50 -1 #SUP: 2
64 -1 64 -1 #SUP: 3
64 -1 65 -1 #SUP: 2
64 -1 67 -1 #SUP: 2
64 -1 68 -1 #SUP: 2
64 -1 77 -1 #SUP: 6
64 -1 78 -1 #SUP: 6
64 -1 117 -1 #SUP: 3
64 -1 123 -1 #SUP: 3
64 -1 144 -1 #SUP: 4
64 -1 151 -1 #SUP: 2
64 -1 164 -1 #SUP: 2
64 -1 170 -1 #SUP: 5
64 -1 193 -1 #SUP: 5
64 -1 220 -1 #SUP: 2
64 -1 262 -1 #SUP: 3
64 -1 401 -1 #SUP: 2
64 -1 499 -1 #SUP: 2
64 -1 756 -1 #SUP: 2
64 -1 764 -1 #SUP: 2
64 -1 827 -1 #SUP: 3
64 -1 14122 -1 #SUP: 2
65 -1 2 -1 #SUP: 3
65 -1 22 -1 #SUP: 6
65 -1 32 -1 #SUP: 6
65 -1 50 -1 #SUP: 2
65 -1 64 -1 #SUP: 2
65 -1 77 -1 #SUP: 6
65 -1 78 -1 #SUP: 2
65 -1 154 -1 #SUP: 3
65 -1 167 -1 #SUP: 2
65 -1 170 -1 #SUP: 6
65 -1 193 -1 #SUP: 5
65 -1 225 -1 #SUP: 2
65 -1 365 -1 #SUP: 2
65 -1 401 -1 #SUP: 3
65 -1 408 -1 #SUP: 2
65 -1 599 -1 #SUP: 4
65 -1 1177 -1 #SUP: 2
65 -1 7828 -1 #SUP: 3
66 -1 65 -1 #SUP: 2
66 -1 77 -1 #SUP: 2
67 -1 22 -1 #SUP: 5
67 -1 31 -1 #SUP: 2
67 -1 32 -1 #SUP: 3
67 -1 64 -1 #SUP: 2
67 -1 65 -1 #SUP: 2
67 -1 77 -1 #SUP: 3
67 -1 78 -1 #SUP: 2
67 -1 170 -1 #SUP: 2
67 -1 171 -1 #SUP: 2
67 -1 683 -1 #SUP: 2
68 -1 78 -1 #SUP: 2
68 -1 193 -1 #SUP: 2
70 -1 65 -1 #SUP: 2
70 -1 77 -1 #SUP: 4
70 -1 170 -1 #SUP: 2
70 -1 193 -1 #SUP: 2
73 -1 64 -1 #SUP: 2
76 -1 2 -1 #SUP: 2
76 -1 123 -1 #SUP: 2
77 -1 2 -1 #SUP: 11
77 -1 7 -1 #SUP: 3
77 -1 10 -1 #SUP: 7
77 -1 16 -1 #SUP: 3
77 -1 22 -1 #SUP: 14
77 -1 27 -1 #SUP: 4
77 -1 31 -1 #SUP: 4
77 -1 32 -1 #SUP: 8
77 -1 41 -1 #SUP: 5
77 -1 50 -1 #SUP: 4
77 -1 59 -1 #SUP: 3
77 -1 64 -1 #SUP: 8
77 -1 65 -1 #SUP: 9
77 -1 67 -1 #SUP: 3
77 -1 77 -1 #SUP: 11
77 -1 78 -1 #SUP: 8
77 -1 117 -1 #SUP: 2
77 -1 120 -1 #SUP: 2
77 -1 123 -1 #SUP: 9
77 -1 134 -1 #SUP: 3
77 -1 140 -1 #SUP: 3
77 -1 151 -1 #SUP: 2
77 -1 154 -1 #SUP: 4
77 -1 156 -1 #SUP: 2
77 -1 162 -1 #SUP: 2
77 -1 164 -1 #SUP: 2
77 -1 167 -1 #SUP: 2
77 -1 168 -1 #SUP: 4
77 -1 170 -1 #SUP: 10
77 -1 171 -1 #SUP: 4
77 -1 183 -1 #SUP: 4
77 -1 193 -1 #SUP: 7
77 -1 201 -1 #SUP: 2
77 -1 213 -1 #SUP: 3
77 -1 219 -1 #SUP: 3
77 -1 222 -1 #SUP: 3
77 -1 225 -1 #SUP: 3
77 -1 236 -1 #SUP: 2
77 -1 244 -1 #SUP: 2
77 -1 254 -1 #SUP: 2
77 -1 256 -1 #SUP: 2
77 -1 262 -1 #SUP: 2
77 -1 278 -1 #SUP: 2
77 -1 349 -1 #SUP: 4
77 -1 441 -1 #SUP: 2
77 -1 499 -1 #SUP: 2
77 -1 520 -1 #SUP: 2
77 -1 533 -1 #SUP: 2
77 -1 599 -1 #SUP: 6
77 -1 657 -1 #SUP: 4
77 -1 693 -1 #SUP: 2
77 -1 756 -1 #SUP: 2
77 -1 764 -1 #SUP: 2
77 -1 789 -1 #SUP: 2
77 -1 1487 -1 #SUP: 2
77 -1 2071 -1 #SUP: 2
77 -1 7828 -1 #SUP: 2
77 -1 12246 -1 #SUP: 2
78 -1 2 -1 #SUP: 4
78 -1 10 -1 #SUP: 2
78 -1 22 -1 #SUP: 6
78 -1 32 -1 #SUP: 5
78 -1 41 -1 #SUP: 2
78 -1 59 -1 #SUP: 2
78 -1 64 -1 #SUP: 2
78 -1 65 -1 #SUP: 5
78 -1 77 -1 #SUP: 7
78 -1 78 -1 #SUP: 6
78 -1 123 -1 #SUP: 3
78 -1 154 -1 #SUP: 2
78 -1 168 -1 #SUP: 2
78 -1 170 -1 #SUP: 6
78 -1 193 -1 #SUP: 6
78 -1 219 -1 #SUP: 2
78 -1 608 -1 #SUP: 3
78 -1 657 -1 #SUP: 2
78 -1 7828 -1 #SUP: 2
81 -1 2 -1 #SUP: 3
81 -1 41 -1 #SUP: 2
81 -1 64 -1 #SUP: 2
81 -1 123 -1 #SUP: 2
81 -1 193 -1 #SUP: 2
117 -1 2 -1 #SUP: 2
117 -1 22 -1 #SUP: 2
117 -1 64 -1 #SUP: 2
117 -1 66 -1 #SUP: 2
117 -1 77 -1 #SUP: 2
117 -1 193 -1 #SUP: 3
120 -1 22 -1 #SUP: 2
120 -1 31 -1 #SUP: 2
120 -1 64 -1 #SUP: 2
120 -1 193 -1 #SUP: 2
120 -1 349 -1 #SUP: 2
123 -1 2 -1 #SUP: 8
123 -1 3 -1 #SUP: 2
123 -1 15 -1 #SUP: 2
123 -1 16 -1 #SUP: 3
123 -1 22 -1 #SUP: 10
123 -1 31 -1 #SUP: 3
123 -1 32 -1 #SUP: 6
123 -1 33 -1 #SUP: 4
123 -1 41 -1 #SUP: 2
123 -1 44 -1 #SUP: 2
123 -1 50 -1 #SUP: 3
123 -1 64 -1 #SUP: 9
123 -1 65 -1 #SUP: 10
123 -1 66 -1 #SUP: 2
123 -1 67 -1 #SUP: 2
123 -1 77 -1 #SUP: 5
123 -1 78 -1 #SUP: 2
123 -1 117 -1 #SUP: 4
123 -1 120 -1 #SUP: 3
123 -1 123 -1 #SUP: 5
123 -1 144 -1 #SUP: 4
123 -1 145 -1 #SUP: 2
123 -1 151 -1 #SUP: 2
123 -1 154 -1 #SUP: 4
123 -1 164 -1 #SUP: 3
123 -1 170 -1 #SUP: 3
123 -1 171 -1 #SUP: 2
123 -1 174 -1 #SUP: 7
123 -1 183 -1 #SUP: 2
123 -1 193 -1 #SUP: 7
123 -1 205 -1 #SUP: 2
123 -1 206 -1 #SUP: 3
123 -1 213 -1 #SUP: 2
123 -1 220 -1 #SUP: 2
123 -1 286 -1 #SUP: 4
123 -1 349 -1 #SUP: 4
123 -1 356 -1 #SUP: 3
123 -1 401 -1 #SUP: 3
123 -1 407 -1 #SUP: 4
123 -1 441 -1 #SUP: 6
123 -1 599 -1 #SUP: 2
123 -1 683 -1 #SUP: 2
123 -1 764 -1 #SUP: 3
123 -1 789 -1 #SUP: 3
123 -1 1206 -1 #SUP: 2
123 -1 2658 -1 #SUP: 2
123 -1 2707 -1 #SUP: 2
123 -1 7828 -1 #SUP: 2
134 -1 22 -1 #SUP: 2
140 -1 22 -1 #SUP: 3
140 -1 32 -1 #SUP: 2
140 -1 65 -1 #SUP: 2
140 -1 77 -1 #SUP: 2
140 -1 134 -1 #SUP: 2
144 -1 2 -1 #SUP: 2
144 -1 22 -1 #SUP: 2
144 -1 65 -1 #SUP: 2
144 -1 167 -1 #SUP: 2
144 -1 356 -1 #SUP: 2
144 -1 401 -1 #SUP: 2
145 -1 77 -1 #SUP: 2
151 -1 2 -1 #SUP: 2
151 -1 64 -1 #SUP: 3
151 -1 65 -1 #SUP: 2
151 -1 153 -1 #SUP: 3
153 -1 65 -1 #SUP: 2
154 -1 16 -1 #SUP: 3
154 -1 22 -1 #SUP: 8
154 -1 31 -1 #SUP: 3
154 -1 32 -1 #SUP: 4
154 -1 41 -1 #SUP: 3
154 -1 64 -1 #SUP: 2
154 -1 65 -1 #SUP: 5
154 -1 67 -1 #SUP: 3
154 -1 77 -1 #SUP: 5
154 -1 145 -1 #SUP: 2
154 -1 165 -1 #SUP: 2
154 -1 170 -1 #SUP: 5
154 -1 183 -1 #SUP: 2
154 -1 193 -1 #SUP: 2
154 -1 222 -1 #SUP: 2
154 -1 441 -1 #SUP: 2
154 -1 529 -1 #SUP: 2
154 -1 544 -1 #SUP: 2
154 -1 599 -1 #SUP: 2
156 -1 2 -1 #SUP: 2
156 -1 77 -1 #SUP: 2
162 -1 41 -1 #SUP: 2
162 -1 123 -1 #SUP: 2
162 -1 830 -1 #SUP: 2
164 -1 22 -1 #SUP: 3
164 -1 123 -1 #SUP: 2
164 -1 441 -1 #SUP: 2
165 -1 67 -1 #SUP: 2
165 -1 123 -1 #SUP: 2
165 -1 174 -1 #SUP: 2
167 -1 2 -1 #SUP: 2
168 -1 2 -1 #SUP: 2
168 -1 50 -1 #SUP: 2
168 -1 77 -1 #SUP: 3
170 -1 2 -1 #SUP: 5
170 -1 10 -1 #SUP: 3
170 -1 16 -1 #SUP: 3
170 -1 22 -1 #SUP: 7
170 -1 31 -1 #SUP: 3
170 -1 32 -1 #SUP: 4
170 -1 41 -1 #SUP: 2
170 -1 64 -1 #SUP: 5
170 -1 65 -1 #SUP: 6
170 -1 77 -1 #SUP: 8
170 -1 78 -1 #SUP: 2
170 -1 123 -1 #SUP: 2
170 -1 154 -1 #SUP: 3
170 -1 167 -1 #SUP: 2
170 -1 213 -1 #SUP: 2
170 -1 222 -1 #SUP: 5
170 -1 259 -1 #SUP: 2
170 -1 295 -1 #SUP: 2
170 -1 667 -1 #SUP: 2
170 -1 756 -1 #SUP: 2
171 -1 10 -1 #SUP: 2
171 -1 22 -1 #SUP: 4
171 -1 32 -1 #SUP: 2
171 -1 64 -1 #SUP: 2
171 -1 65 -1 #SUP: 2
171 -1 77 -1 #SUP: 2
171 -1 170 -1 #SUP: 3
171 -1 1423 -1 #SUP: 2
171 -1 18546 -1 #SUP: 2
174 -1 2 -1 #SUP: 3
174 -1 22 -1 #SUP: 3
174 -1 32 -1 #SUP: 2
174 -1 65 -1 #SUP: 2
174 -1 123 -1 #SUP: 2
174 -1 171 -1 #SUP: 2
183 -1 2 -1 #SUP: 3
183 -1 10 -1 #SUP: 2
183 -1 22 -1 #SUP: 2
183 -1 32 -1 #SUP: 2
183 -1 77 -1 #SUP: 5
183 -1 78 -1 #SUP: 3
183 -1 154 -1 #SUP: 2
183 -1 168 -1 #SUP: 2
183 -1 170 -1 #SUP: 2
183 -1 432 -1 #SUP: 2
183 -1 8685 -1 #SUP: 2
183 -1 16519 -1 #SUP: 2
183 -1 18550 -1 #SUP: 2
193 -1 2 -1 #SUP: 8
193 -1 3 -1 #SUP: 2
193 -1 7 -1 #SUP: 4
193 -1 15 -1 #SUP: 2
193 -1 22 -1 #SUP: 3
193 -1 31 -1 #SUP: 3
193 -1 32 -1 #SUP: 2
193 -1 41 -1 #SUP: 4
193 -1 64 -1 #SUP: 6
193 -1 65 -1 #SUP: 3
193 -1 76 -1 #SUP: 2
193 -1 77 -1 #SUP: 8
193 -1 78 -1 #SUP: 2
193 -1 81 -1 #SUP: 2
193 -1 123 -1 #SUP: 4
193 -1 151 -1 #SUP: 3
193 -1 154 -1 #SUP: 4
193 -1 162 -1 #SUP: 2
193 -1 170 -1 #SUP: 5
193 -1 175 -1 #SUP: 2
193 -1 193 -1 #SUP: 4
193 -1 206 -1 #SUP: 2
193 -1 213 -1 #SUP: 2
193 -1 220 -1 #SUP: 2
193 -1 222 -1 #SUP: 2
193 -1 225 -1 #SUP: 2
193 -1 278 -1 #SUP: 2
193 -1 431 -1 #SUP: 2
193 -1 520 -1 #SUP: 2
193 -1 702 -1 #SUP: 2
193 -1 7828 -1 #SUP: 3
201 -1 65 -1 #SUP: 3
201 -1 170 -1 #SUP: 4
201 -1 295 -1 #SUP: 2
206 -1 22 -1 #SUP: 2
206 -1 32 -1 #SUP: 2
206 -1 140 -1 #SUP: 2
213 -1 65 -1 #SUP: 2
213 -1 225 -1 #SUP: 2
213 -1 830 -1 #SUP: 2
219 -1 32 -1 #SUP: 2
219 -1 77 -1 #SUP: 3
220 -1 144 -1 #SUP: 2
220 -1 193 -1 #SUP: 2
222 -1 2 -1 #SUP: 2
222 -1 7 -1 #SUP: 3
222 -1 65 -1 #SUP: 2
222 -1 77 -1 #SUP: 5
222 -1 162 -1 #SUP: 2
222 -1 170 -1 #SUP: 3
222 -1 193 -1 #SUP: 4
225 -1 65 -1 #SUP: 2
225 -1 77 -1 #SUP: 2
225 -1 154 -1 #SUP: 2
225 -1 441 -1 #SUP: 2
226 -1 22 -1 #SUP: 2
226 -1 32 -1 #SUP: 2
226 -1 65 -1 #SUP: 2
236 -1 2 -1 #SUP: 4
236 -1 22 -1 #SUP: 2
236 -1 41 -1 #SUP: 5
236 -1 64 -1 #SUP: 2
236 -1 65 -1 #SUP: 3
236 -1 77 -1 #SUP: 2
236 -1 117 -1 #SUP: 2
236 -1 170 -1 #SUP: 2
236 -1 193 -1 #SUP: 4
236 -1 364 -1 #SUP: 2
246 -1 1326 -1 #SUP: 2
254 -1 22 -1 #SUP: 2
254 -1 32 -1 #SUP: 2
254 -1 41 -1 #SUP: 2
254 -1 193 -1 #SUP: 2
256 -1 22 -1 #SUP: 3
256 -1 32 -1 #SUP: 2
256 -1 64 -1 #SUP: 2
256 -1 65 -1 #SUP: 2
259 -1 22 -1 #SUP: 2
259 -1 32 -1 #SUP: 2
262 -1 22 -1 #SUP: 2
262 -1 78 -1 #SUP: 2
262 -1 170 -1 #SUP: 2
278 -1 22 -1 #SUP: 2
278 -1 32 -1 #SUP: 4
286 -1 349 -1 #SUP: 3
286 -1 441 -1 #SUP: 2
286 -1 1206 -1 #SUP: 2
291 -1 22 -1 #SUP: 2
291 -1 41 -1 #SUP: 2
295 -1 65 -1 #SUP: 2
308 -1 22 -1 #SUP: 2
308 -1 77 -1 #SUP: 2
330 -1 2134 -1 #SUP: 2
349 -1 22 -1 #SUP: 3
349 -1 64 -1 #SUP: 3
349 -1 77 -1 #SUP: 4
349 -1 78 -1 #SUP: 2
349 -1 170 -1 #SUP: 2
349 -1 183 -1 #SUP: 2
349 -1 262 -1 #SUP: 2
349 -1 318 -1 #SUP: 2
349 -1 441 -1 #SUP: 2
356 -1 2 -1 #SUP: 2
356 -1 22 -1 #SUP: 2
356 -1 41 -1 #SUP: 2
356 -1 77 -1 #SUP: 2
364 -1 22 -1 #SUP: 3
364 -1 64 -1 #SUP: 2
364 -1 65 -1 #SUP: 3
364 -1 170 -1 #SUP: 2
401 -1 2 -1 #SUP: 2
401 -1 78 -1 #SUP: 2
401 -1 193 -1 #SUP: 2
407 -1 3 -1 #SUP: 2
408 -1 22 -1 #SUP: 2
408 -1 78 -1 #SUP: 2
409 -1 409 -1 #SUP: 2
441 -1 22 -1 #SUP: 5
441 -1 32 -1 #SUP: 2
441 -1 41 -1 #SUP: 2
441 -1 64 -1 #SUP: 3
441 -1 65 -1 #SUP: 3
441 -1 77 -1 #SUP: 3
441 -1 123 -1 #SUP: 2
441 -1 1177 -1 #SUP: 2
445 -1 64 -1 #SUP: 2
445 -1 123 -1 #SUP: 2
445 -1 764 -1 #SUP: 2
520 -1 64 -1 #SUP: 3
520 -1 123 -1 #SUP: 2
520 -1 134 -1 #SUP: 2
520 -1 441 -1 #SUP: 2
523 -1 170 -1 #SUP: 2
523 -1 667 -1 #SUP: 2
529 -1 22 -1 #SUP: 3
529 -1 77 -1 #SUP: 2
529 -1 441 -1 #SUP: 2
539 -1 154 -1 #SUP: 2
599 -1 16 -1 #SUP: 2
599 -1 22 -1 #SUP: 3
599 -1 31 -1 #SUP: 2
599 -1 32 -1 #SUP: 3
599 -1 41 -1 #SUP: 2
599 -1 77 -1 #SUP: 2
599 -1 123 -1 #SUP: 5
599 -1 154 -1 #SUP: 3
599 -1 170 -1 #SUP: 3
599 -1 193 -1 #SUP: 5
599 -1 1902 -1 #SUP: 2
608 -1 32 -1 #SUP: 2
608 -1 78 -1 #SUP: 3
608 -1 123 -1 #SUP: 2
657 -1 10 -1 #SUP: 2
657 -1 22 -1 #SUP: 2
657 -1 77 -1 #SUP: 2
657 -1 165 -1 #SUP: 2
683 -1 22 -1 #SUP: 3
683 -1 32 -1 #SUP: 2
683 -1 77 -1 #SUP: 3
683 -1 154 -1 #SUP: 2
683 -1 164 -1 #SUP: 2
683 -1 170 -1 #SUP: 3
693 -1 168 -1 #SUP: 2
756 -1 2 -1 #SUP: 2
756 -1 68 -1 #SUP: 2
756 -1 77 -1 #SUP: 2
756 -1 78 -1 #SUP: 3
756 -1 193 -1 #SUP: 3
756 -1 827 -1 #SUP: 2
764 -1 64 -1 #SUP: 3
783 -1 193 -1 #SUP: 2
789 -1 33 -1 #SUP: 2
827 -1 44 -1 #SUP: 2
827 -1 78 -1 #SUP: 2
827 -1 193 -1 #SUP: 2
835 -1 193 -1 #SUP: 2
921 -1 32 -1 #SUP: 2
921 -1 78 -1 #SUP: 2
936 -1 64 -1 #SUP: 2
1026 -1 22 -1 #SUP: 2
1026 -1 77 -1 #SUP: 2
1127 -1 22 -1 #SUP: 2
1127 -1 64 -1 #SUP: 2
1206 -1 77 -1 #SUP: 2
1206 -1 599 -1 #SUP: 2
1241 -1 22 -1 #SUP: 2
1423 -1 22 -1 #SUP: 2
1423 -1 18546 -1 #SUP: 2
1487 -1 32 -1 #SUP: 2
2418 -1 2 -1 #SUP: 2
2418 -1 31 -1 #SUP: 2
3672 -1 22 -1 #SUP: 2
3672 -1 10788 -1 #SUP: 2
3672 -1 18546 -1 #SUP: 2
6775 -1 77 -1 #SUP: 2
6775 -1 168 -1 #SUP: 2
7648 -1 78 -1 #SUP: 2
7648 -1 408 -1 #SUP: 2
7828 -1 22 -1 #SUP: 2
7828 -1 32 -1 #SUP: 2
7828 -1 170 -1 #SUP: 2
8685 -1 2 -1 #SUP: 2
8685 -1 77 -1 #SUP: 2
8685 -1 18550 -1 #SUP: 2
10788 -1 22 -1 #SUP: 2
10788 -1 18546 -1 #SUP: 2
11822 -1 77 -1 #SUP: 2
12246 -1 22 -1 #SUP: 2
12246 -1 77 -1 #SUP: 2
12246 -1 78 -1 #SUP: 2
14122 -1 151 -1 #SUP: 2
14122 -1 193 -1 #SUP: 2
16519 -1 2 -1 #SUP: 2
16519 -1 77 -1 #SUP: 2
16519 -1 8685 -1 #SUP: 2
16519 -1 18550 -1 #SUP: 2
18546 -1 22 -1 #SUP: 2
18550 -1 77 -1 #SUP: 2
2 -1 41 -1 193 -1 #SUP: 2
2 -1 77 -1 183 -1 #SUP: 2
2 -1 77 -1 599 -1 #SUP: 3
2 -1 193 -1 220 -1 #SUP: 2
2 -1 835 -1 193 -1 #SUP: 2
10 -1 22 -1 67 -1 #SUP: 2
15 -1 183 -1 2 -1 #SUP: 2
15 -1 183 -1 432 -1 #SUP: 2
15 -1 183 -1 8685 -1 #SUP: 2
15 -1 183 -1 16519 -1 #SUP: 2
15 -1 8685 -1 2 -1 #SUP: 2
15 -1 16519 -1 2 -1 #SUP: 2
15 -1 16519 -1 8685 -1 #SUP: 2
16 -1 22 -1 64 -1 #SUP: 2
16 -1 65 -1 193 -1 #SUP: 2
16 -1 65 -1 599 -1 #SUP: 2
16 -1 222 -1 77 -1 #SUP: 2
16 -1 599 -1 193 -1 #SUP: 2
22 -1 10 -1 50 -1 #SUP: 2
22 -1 10 -1 65 -1 #SUP: 2
22 -1 22 -1 77 -1 #SUP: 4
22 -1 22 -1 170 -1 #SUP: 3
22 -1 22 -1 219 -1 #SUP: 3
22 -1 32 -1 10 -1 #SUP: 2
22 -1 32 -1 22 -1 #SUP: 3
22 -1 32 -1 50 -1 #SUP: 2
22 -1 32 -1 64 -1 #SUP: 2
22 -1 32 -1 77 -1 #SUP: 5
22 -1 32 -1 78 -1 #SUP: 2
22 -1 32 -1 117 -1 #SUP: 2
22 -1 32 -1 170 -1 #SUP: 2
22 -1 32 -1 219 -1 #SUP: 3
22 -1 32 -1 1127 -1 #SUP: 2
22 -1 41 -1 22 -1 #SUP: 2
22 -1 59 -1 32 -1 #SUP: 2
22 -1 59 -1 77 -1 #SUP: 2
22 -1 59 -1 170 -1 #SUP: 2
22 -1 64 -1 22 -1 #SUP: 3
22 -1 64 -1 32 -1 #SUP: 2
22 -1 64 -1 64 -1 #SUP: 2
22 -1 77 -1 2 -1 #SUP: 2
22 -1 77 -1 10 -1 #SUP: 2
22 -1 77 -1 22 -1 #SUP: 5
22 -1 77 -1 41 -1 #SUP: 2
22 -1 77 -1 78 -1 #SUP: 3
22 -1 77 -1 140 -1 #SUP: 2
22 -1 77 -1 349 -1 #SUP: 2
22 -1 77 -1 657 -1 #SUP: 2
22 -1 77 -1 12246 -1 #SUP: 2
22 -1 78 -1 22 -1 #SUP: 3
22 -1 78 -1 78 -1 #SUP: 2
22 -1 123 -1 174 -1 #SUP: 2
22 -1 123 -1 407 -1 #SUP: 2
22 -1 154 -1 16 -1 #SUP: 2
22 -1 154 -1 22 -1 #SUP: 2
22 -1 154 -1 170 -1 #SUP: 3
22 -1 170 -1 22 -1 #SUP: 2
22 -1 170 -1 32 -1 #SUP: 2
22 -1 170 -1 64 -1 #SUP: 2
22 -1 170 -1 77 -1 #SUP: 2
22 -1 219 -1 77 -1 #SUP: 2
22 -1 408 -1 78 -1 #SUP: 2
22 -1 683 -1 170 -1 #SUP: 2
22 -1 7648 -1 78 -1 #SUP: 2
22 -1 7648 -1 408 -1 #SUP: 2
31 -1 22 -1 77 -1 #SUP: 2
31 -1 22 -1 356 -1 #SUP: 2
31 -1 201 -1 170 -1 #SUP: 2
31 -1 222 -1 77 -1 #SUP: 2
31 -1 222 -1 170 -1 #SUP: 2
32 -1 10 -1 65 -1 #SUP: 2
32 -1 22 -1 10 -1 #SUP: 3
32 -1 22 -1 22 -1 #SUP: 2
32 -1 22 -1 32 -1 #SUP: 2
32 -1 22 -1 49 -1 #SUP: 2
32 -1 22 -1 64 -1 #SUP: 2
32 -1 22 -1 65 -1 #SUP: 2
32 -1 22 -1 77 -1 #SUP: 2
32 -1 22 -1 78 -1 #SUP: 2
32 -1 22 -1 170 -1 #SUP: 4
32 -1 22 -1 219 -1 #SUP: 3
32 -1 22 -1 678 -1 #SUP: 2
32 -1 64 -1 22 -1 #SUP: 3
32 -1 65 -1 77 -1 #SUP: 2
32 -1 77 -1 22 -1 #SUP: 3
32 -1 77 -1 78 -1 #SUP: 2
32 -1 78 -1 22 -1 #SUP: 3
32 -1 78 -1 77 -1 #SUP: 2
32 -1 117 -1 22 -1 #SUP: 2
32 -1 123 -1 22 -1 #SUP: 2
32 -1 134 -1 22 -1 #SUP: 2
32 -1 219 -1 77 -1 #SUP: 2
32 -1 256 -1 22 -1 #SUP: 2
32 -1 441 -1 22 -1 #SUP: 2
32 -1 1127 -1 22 -1 #SUP: 2
41 -1 2 -1 123 -1 #SUP: 2
41 -1 22 -1 10 -1 #SUP: 2
41 -1 32 -1 22 -1 #SUP: 2
41 -1 77 -1 64 -1 #SUP: 2
41 -1 77 -1 171 -1 #SUP: 2
41 -1 123 -1 2 -1 #SUP: 2
41 -1 123 -1 123 -1 #SUP: 2
41 -1 193 -1 2 -1 #SUP: 3
41 -1 225 -1 154 -1 #SUP: 2
41 -1 330 -1 2134 -1 #SUP: 2
41 -1 783 -1 193 -1 #SUP: 2
59 -1 32 -1 170 -1 #SUP: 2
64 -1 22 -1 10 -1 #SUP: 2
64 -1 22 -1 22 -1 #SUP: 2
64 -1 22 -1 32 -1 #SUP: 2
64 -1 22 -1 77 -1 #SUP: 3
64 -1 22 -1 78 -1 #SUP: 3
64 -1 22 -1 170 -1 #SUP: 2
64 -1 22 -1 193 -1 #SUP: 2
64 -1 32 -1 22 -1 #SUP: 2
64 -1 41 -1 220 -1 #SUP: 2
64 -1 77 -1 78 -1 #SUP: 3
64 -1 78 -1 170 -1 #SUP: 2
64 -1 78 -1 193 -1 #SUP: 2
64 -1 123 -1 764 -1 #SUP: 2
64 -1 170 -1 77 -1 #SUP: 2
64 -1 193 -1 151 -1 #SUP: 2
64 -1 262 -1 22 -1 #SUP: 2
64 -1 756 -1 68 -1 #SUP: 2
64 -1 756 -1 827 -1 #SUP: 2
64 -1 14122 -1 151 -1 #SUP: 2
64 -1 14122 -1 193 -1 #SUP: 2
65 -1 2 -1 22 -1 #SUP: 2
65 -1 2 -1 64 -1 #SUP: 2
65 -1 32 -1 22 -1 #SUP: 2
65 -1 77 -1 22 -1 #SUP: 2
65 -1 77 -1 32 -1 #SUP: 2
65 -1 77 -1 170 -1 #SUP: 3
65 -1 77 -1 599 -1 #SUP: 2
65 -1 193 -1 170 -1 #SUP: 2
65 -1 193 -1 7828 -1 #SUP: 2
65 -1 599 -1 170 -1 #SUP: 2
65 -1 599 -1 193 -1 #SUP: 2
65 -1 7828 -1 170 -1 #SUP: 2
67 -1 32 -1 22 -1 #SUP: 2
67 -1 77 -1 171 -1 #SUP: 2
67 -1 170 -1 22 -1 #SUP: 2
70 -1 77 -1 170 -1 #SUP: 2
70 -1 77 -1 193 -1 #SUP: 2
77 -1 2 -1 27 -1 #SUP: 2
77 -1 2 -1 77 -1 #SUP: 3
77 -1 10 -1 22 -1 #SUP: 2
77 -1 10 -1 50 -1 #SUP: 2
77 -1 10 -1 77 -1 #SUP: 2
77 -1 22 -1 10 -1 #SUP: 2
77 -1 22 -1 22 -1 #SUP: 4
77 -1 22 -1 32 -1 #SUP: 5
77 -1 22 -1 59 -1 #SUP: 3
77 -1 22 -1 65 -1 #SUP: 2
77 -1 22 -1 77 -1 #SUP: 2
77 -1 22 -1 170 -1 #SUP: 2
77 -1 22 -1 219 -1 #SUP: 2
77 -1 27 -1 22 -1 #SUP: 2
77 -1 32 -1 10 -1 #SUP: 2
77 -1 32 -1 22 -1 #SUP: 4
77 -1 32 -1 170 -1 #SUP: 2
77 -1 41 -1 22 -1 #SUP: 2
77 -1 50 -1 170 -1 #SUP: 2
77 -1 50 -1 193 -1 #SUP: 2
77 -1 59 -1 32 -1 #SUP: 2
77 -1 59 -1 170 -1 #SUP: 2
77 -1 64 -1 22 -1 #SUP: 2
77 -1 64 -1 499 -1 #SUP: 2
77 -1 65 -1 77 -1 #SUP: 2
77 -1 77 -1 123 -1 #SUP: 2
77 -1 78 -1 22 -1 #SUP: 4
77 -1 78 -1 32 -1 #SUP: 2
77 -1 78 -1 65 -1 #SUP: 2
77 -1 78 -1 77 -1 #SUP: 3
77 -1 78 -1 78 -1 #SUP: 2
77 -1 78 -1 170 -1 #SUP: 2
77 -1 78 -1 193 -1 #SUP: 3
77 -1 78 -1 7828 -1 #SUP: 2
77 -1 123 -1 22 -1 #SUP: 2
77 -1 123 -1 64 -1 #SUP: 3
77 -1 123 -1 65 -1 #SUP: 3
77 -1 123 -1 123 -1 #SUP: 2
77 -1 123 -1 764 -1 #SUP: 2
77 -1 123 -1 789 -1 #SUP: 2
77 -1 140 -1 77 -1 #SUP: 2
77 -1 168 -1 77 -1 #SUP: 2
77 -1 170 -1 31 -1 #SUP: 2
77 -1 170 -1 222 -1 #SUP: 2
77 -1 183 -1 77 -1 #SUP: 3
77 -1 183 -1 78 -1 #SUP: 2
77 -1 193 -1 2 -1 #SUP: 3
77 -1 193 -1 7 -1 #SUP: 3
77 -1 193 -1 64 -1 #SUP: 2
77 -1 193 -1 65 -1 #SUP: 2
77 -1 193 -1 77 -1 #SUP: 2
77 -1 193 -1 170 -1 #SUP: 2
77 -1 193 -1 7828 -1 #SUP: 2
77 -1 201 -1 170 -1 #SUP: 2
77 -1 213 -1 225 -1 #SUP: 2
77 -1 219 -1 32 -1 #SUP: 2
77 -1 236 -1 41 -1 #SUP: 2
77 -1 256 -1 22 -1 #SUP: 2
77 -1 256 -1 32 -1 #SUP: 2
77 -1 349 -1 22 -1 #SUP: 3
77 -1 349 -1 64 -1 #SUP: 2
77 -1 349 -1 77 -1 #SUP: 2
77 -1 349 -1 78 -1 #SUP: 2
77 -1 599 -1 123 -1 #SUP: 2
77 -1 599 -1 154 -1 #SUP: 3
77 -1 599 -1 170 -1 #SUP: 2
77 -1 599 -1 193 -1 #SUP: 3
77 -1 657 -1 10 -1 #SUP: 2
77 -1 657 -1 22 -1 #SUP: 2
77 -1 693 -1 168 -1 #SUP: 2
77 -1 1487 -1 32 -1 #SUP: 2
77 -1 12246 -1 22 -1 #SUP: 2
77 -1 12246 -1 78 -1 #SUP: 2
78 -1 22 -1 10 -1 #SUP: 2
78 -1 22 -1 22 -1 #SUP: 2
78 -1 22 -1 32 -1 #SUP: 2
78 -1 22 -1 59 -1 #SUP: 2
78 -1 22 -1 77 -1 #SUP: 4
78 -1 22 -1 219 -1 #SUP: 2
78 -1 22 -1 657 -1 #SUP: 2
78 -1 32 -1 22 -1 #SUP: 2
78 -1 32 -1 77 -1 #SUP: 2
78 -1 32 -1 78 -1 #SUP: 2
78 -1 65 -1 32 -1 #SUP: 2
78 -1 65 -1 77 -1 #SUP: 2
78 -1 65 -1 78 -1 #SUP: 2
78 -1 65 -1 193 -1 #SUP: 2
78 -1 77 -1 2 -1 #SUP: 2
78 -1 77 -1 10 -1 #SUP: 2
78 -1 77 -1 154 -1 #SUP: 2
78 -1 77 -1 657 -1 #SUP: 2
78 -1 78 -1 22 -1 #SUP: 2
78 -1 78 -1 32 -1 #SUP: 2
78 -1 78 -1 77 -1 #SUP: 2
78 -1 78 -1 123 -1 #SUP: 2
78 -1 170 -1 2 -1 #SUP: 2
78 -1 193 -1 2 -1 #SUP: 3
78 -1 193 -1 77 -1 #SUP: 2
78 -1 193 -1 170 -1 #SUP: 3
78 -1 193 -1 7828 -1 #SUP: 2
78 -1 608 -1 32 -1 #SUP: 2
78 -1 608 -1 78 -1 #SUP: 3
78 -1 608 -1 123 -1 #SUP: 2
81 -1 41 -1 2 -1 #SUP: 2
81 -1 41 -1 123 -1 #SUP: 2
81 -1 64 -1 2 -1 #SUP: 2
81 -1 123 -1 2 -1 #SUP: 2
120 -1 193 -1 31 -1 #SUP: 2
123 -1 2 -1 33 -1 #SUP: 2
123 -1 2 -1 50 -1 #SUP: 2
123 -1 2 -1 65 -1 #SUP: 2
123 -1 2 -1 123 -1 #SUP: 2
123 -1 15 -1 32 -1 #SUP: 2
123 -1 16 -1 22 -1 #SUP: 2
123 -1 22 -1 64 -1 #SUP: 3
123 -1 32 -1 22 -1 #SUP: 3
123 -1 32 -1 123 -1 #SUP: 2
123 -1 64 -1 2 -1 #SUP: 2
123 -1 64 -1 22 -1 #SUP: 2
123 -1 64 -1 117 -1 #SUP: 2
123 -1 64 -1 144 -1 #SUP: 2
123 -1 65 -1 2 -1 #SUP: 2
123 -1 65 -1 22 -1 #SUP: 2
123 -1 65 -1 193 -1 #SUP: 2
123 -1 65 -1 401 -1 #SUP: 2
123 -1 65 -1 7828 -1 #SUP: 2
123 -1 78 -1 65 -1 #SUP: 2
123 -1 120 -1 22 -1 #SUP: 2
123 -1 123 -1 22 -1 #SUP: 2
123 -1 144 -1 401 -1 #SUP: 2
123 -1 174 -1 2 -1 #SUP: 3
123 -1 174 -1 22 -1 #SUP: 3
123 -1 174 -1 32 -1 #SUP: 2
123 -1 174 -1 65 -1 #SUP: 2
123 -1 174 -1 123 -1 #SUP: 2
123 -1 174 -1 171 -1 #SUP: 2
123 -1 193 -1 41 -1 #SUP: 2
123 -1 193 -1 77 -1 #SUP: 2
123 -1 193 -1 123 -1 #SUP: 2
123 -1 193 -1 7828 -1 #SUP: 2
123 -1 286 -1 349 -1 #SUP: 3
123 -1 286 -1 441 -1 #SUP: 2
123 -1 286 -1 1206 -1 #SUP: 2
123 -1 349 -1 183 -1 #SUP: 2
123 -1 407 -1 3 -1 #SUP: 2
123 -1 441 -1 22 -1 #SUP: 3
123 -1 441 -1 32 -1 #SUP: 2
123 -1 441 -1 64 -1 #SUP: 2
123 -1 441 -1 65 -1 #SUP: 2
123 -1 441 -1 123 -1 #SUP: 2
123 -1 683 -1 154 -1 #SUP: 2
123 -1 764 -1 64 -1 #SUP: 2
123 -1 789 -1 33 -1 #SUP: 2
151 -1 153 -1 65 -1 #SUP: 2
154 -1 16 -1 65 -1 #SUP: 2
154 -1 16 -1 77 -1 #SUP: 2
154 -1 16 -1 193 -1 #SUP: 2
154 -1 16 -1 599 -1 #SUP: 2
154 -1 22 -1 65 -1 #SUP: 2
154 -1 22 -1 170 -1 #SUP: 2
154 -1 22 -1 529 -1 #SUP: 2
154 -1 22 -1 544 -1 #SUP: 2
154 -1 32 -1 22 -1 #SUP: 3
154 -1 65 -1 193 -1 #SUP: 2
154 -1 65 -1 599 -1 #SUP: 2
154 -1 67 -1 22 -1 #SUP: 2
154 -1 145 -1 77 -1 #SUP: 2
154 -1 170 -1 77 -1 #SUP: 2
154 -1 599 -1 193 -1 #SUP: 2
164 -1 441 -1 22 -1 #SUP: 2
165 -1 123 -1 174 -1 #SUP: 2
168 -1 77 -1 50 -1 #SUP: 2
170 -1 16 -1 77 -1 #SUP: 2
170 -1 16 -1 222 -1 #SUP: 2
170 -1 22 -1 77 -1 #SUP: 2
170 -1 31 -1 77 -1 #SUP: 2
170 -1 31 -1 167 -1 #SUP: 2
170 -1 31 -1 222 -1 #SUP: 2
170 -1 32 -1 22 -1 #SUP: 3
170 -1 64 -1 22 -1 #SUP: 2
170 -1 65 -1 22 -1 #SUP: 2
170 -1 77 -1 2 -1 #SUP: 3
170 -1 77 -1 10 -1 #SUP: 2
170 -1 77 -1 22 -1 #SUP: 4
170 -1 77 -1 78 -1 #SUP: 2
170 -1 77 -1 123 -1 #SUP: 2
170 -1 222 -1 77 -1 #SUP: 2
170 -1 259 -1 22 -1 #SUP: 2
170 -1 259 -1 32 -1 #SUP: 2
171 -1 10 -1 65 -1 #SUP: 2
171 -1 22 -1 10 -1 #SUP: 2
171 -1 22 -1 65 -1 #SUP: 2
171 -1 1423 -1 22 -1 #SUP: 2
171 -1 1423 -1 18546 -1 #SUP: 2
174 -1 65 -1 22 -1 #SUP: 2
183 -1 2 -1 77 -1 #SUP: 2
183 -1 78 -1 168 -1 #SUP: 2
183 -1 8685 -1 2 -1 #SUP: 2
183 -1 8685 -1 77 -1 #SUP: 2
183 -1 8685 -1 18550 -1 #SUP: 2
183 -1 16519 -1 2 -1 #SUP: 2
183 -1 16519 -1 77 -1 #SUP: 2
183 -1 16519 -1 8685 -1 #SUP: 2
183 -1 16519 -1 18550 -1 #SUP: 2
183 -1 18550 -1 77 -1 #SUP: 2
193 -1 2 -1 41 -1 #SUP: 2
193 -1 2 -1 64 -1 #SUP: 2
193 -1 2 -1 77 -1 #SUP: 2
193 -1 7 -1 278 -1 #SUP: 2
193 -1 65 -1 32 -1 #SUP: 2
193 -1 76 -1 2 -1 #SUP: 2
193 -1 77 -1 2 -1 #SUP: 3
193 -1 77 -1 170 -1 #SUP: 2
193 -1 78 -1 193 -1 #SUP: 2
193 -1 81 -1 64 -1 #SUP: 2
193 -1 123 -1 64 -1 #SUP: 2
193 -1 170 -1 2 -1 #SUP: 3
193 -1 220 -1 193 -1 #SUP: 2
201 -1 170 -1 65 -1 #SUP: 3
201 -1 170 -1 295 -1 #SUP: 2
222 -1 77 -1 162 -1 #SUP: 2
222 -1 77 -1 170 -1 #SUP: 2
222 -1 193 -1 7 -1 #SUP: 3
226 -1 32 -1 22 -1 #SUP: 2
236 -1 2 -1 64 -1 #SUP: 2
236 -1 41 -1 2 -1 #SUP: 2
236 -1 41 -1 22 -1 #SUP: 2
236 -1 41 -1 65 -1 #SUP: 2
236 -1 41 -1 117 -1 #SUP: 2
236 -1 41 -1 193 -1 #SUP: 2
236 -1 65 -1 2 -1 #SUP: 2
236 -1 77 -1 2 -1 #SUP: 2
236 -1 170 -1 2 -1 #SUP: 2
236 -1 170 -1 77 -1 #SUP: 2
236 -1 193 -1 2 -1 #SUP: 3
254 -1 41 -1 32 -1 #SUP: 2
256 -1 22 -1 32 -1 #SUP: 2
256 -1 22 -1 65 -1 #SUP: 2
259 -1 32 -1 22 -1 #SUP: 2
278 -1 32 -1 22 -1 #SUP: 2
291 -1 41 -1 22 -1 #SUP: 2
308 -1 22 -1 77 -1 #SUP: 2
349 -1 22 -1 77 -1 #SUP: 2
349 -1 64 -1 262 -1 #SUP: 2
349 -1 78 -1 22 -1 #SUP: 2
349 -1 78 -1 77 -1 #SUP: 2
349 -1 183 -1 77 -1 #SUP: 2
408 -1 78 -1 22 -1 #SUP: 2
441 -1 22 -1 64 -1 #SUP: 2
445 -1 123 -1 764 -1 #SUP: 2
523 -1 170 -1 667 -1 #SUP: 2
529 -1 22 -1 77 -1 #SUP: 2
529 -1 441 -1 22 -1 #SUP: 2
599 -1 41 -1 193 -1 #SUP: 2
599 -1 170 -1 31 -1 #SUP: 2
608 -1 78 -1 32 -1 #SUP: 2
608 -1 78 -1 123 -1 #SUP: 2
683 -1 154 -1 22 -1 #SUP: 2
756 -1 68 -1 78 -1 #SUP: 2
756 -1 68 -1 193 -1 #SUP: 2
756 -1 78 -1 193 -1 #SUP: 2
756 -1 827 -1 78 -1 #SUP: 2
756 -1 827 -1 193 -1 #SUP: 2
835 -1 193 -1 193 -1 #SUP: 2
921 -1 32 -1 78 -1 #SUP: 2
1026 -1 77 -1 22 -1 #SUP: 2
1206 -1 77 -1 599 -1 #SUP: 2
2418 -1 31 -1 2 -1 #SUP: 2
3672 -1 10788 -1 22 -1 #SUP: 2
3672 -1 10788 -1 18546 -1 #SUP: 2
3672 -1 18546 -1 22 -1 #SUP: 2
6775 -1 168 -1 77 -1 #SUP: 2
7648 -1 408 -1 78 -1 #SUP: 2
8685 -1 2 -1 77 -1 #SUP: 2
8685 -1 18550 -1 77 -1 #SUP: 2
10788 -1 18546 -1 22 -1 #SUP: 2
12246 -1 22 -1 77 -1 #SUP: 2
12246 -1 78 -1 22 -1 #SUP: 2
12246 -1 78 -1 77 -1 #SUP: 2
14122 -1 193 -1 151 -1 #SUP: 2
16519 -1 2 -1 77 -1 #SUP: 2
16519 -1 8685 -1 2 -1 #SUP: 2
16519 -1 8685 -1 77 -1 #SUP: 2
16519 -1 8685 -1 18550 -1 #SUP: 2
16519 -1 18550 -1 77 -1 #SUP: 2
15 -1 183 -1 8685 -1 2 -1 #SUP: 2
15 -1 183 -1 16519 -1 2 -1 #SUP: 2
15 -1 183 -1 16519 -1 8685 -1 #SUP: 2
15 -1 16519 -1 8685 -1 2 -1 #SUP: 2
16 -1 65 -1 599 -1 193 -1 #SUP: 2
22 -1 32 -1 22 -1 219 -1 #SUP: 2
22 -1 59 -1 32 -1 170 -1 #SUP: 2
22 -1 77 -1 78 -1 22 -1 #SUP: 2
22 -1 77 -1 78 -1 78 -1 #SUP: 2
22 -1 7648 -1 408 -1 78 -1 #SUP: 2
32 -1 22 -1 10 -1 65 -1 #SUP: 2
32 -1 77 -1 78 -1 22 -1 #SUP: 2
41 -1 123 -1 2 -1 123 -1 #SUP: 2
64 -1 14122 -1 193 -1 151 -1 #SUP: 2
77 -1 22 -1 32 -1 170 -1 #SUP: 2
77 -1 22 -1 59 -1 32 -1 #SUP: 2
77 -1 22 -1 59 -1 170 -1 #SUP: 2
77 -1 59 -1 32 -1 170 -1 #SUP: 2
77 -1 78 -1 22 -1 32 -1 #SUP: 2
77 -1 78 -1 22 -1 77 -1 #SUP: 2
77 -1 78 -1 78 -1 22 -1 #SUP: 2
77 -1 78 -1 193 -1 7828 -1 #SUP: 2
77 -1 256 -1 22 -1 32 -1 #SUP: 2
77 -1 349 -1 78 -1 22 -1 #SUP: 2
77 -1 12246 -1 78 -1 22 -1 #SUP: 2
78 -1 22 -1 77 -1 10 -1 #SUP: 2
78 -1 22 -1 77 -1 657 -1 #SUP: 2
78 -1 193 -1 170 -1 2 -1 #SUP: 2
78 -1 608 -1 78 -1 32 -1 #SUP: 2
78 -1 608 -1 78 -1 123 -1 #SUP: 2
81 -1 41 -1 123 -1 2 -1 #SUP: 2
123 -1 65 -1 193 -1 7828 -1 #SUP: 2
123 -1 174 -1 65 -1 22 -1 #SUP: 2
123 -1 441 -1 22 -1 64 -1 #SUP: 2
154 -1 16 -1 65 -1 193 -1 #SUP: 2
154 -1 16 -1 65 -1 599 -1 #SUP: 2
154 -1 16 -1 599 -1 193 -1 #SUP: 2
154 -1 65 -1 599 -1 193 -1 #SUP: 2
170 -1 16 -1 222 -1 77 -1 #SUP: 2
170 -1 259 -1 32 -1 22 -1 #SUP: 2
171 -1 22 -1 10 -1 65 -1 #SUP: 2
183 -1 8685 -1 2 -1 77 -1 #SUP: 2
183 -1 16519 -1 2 -1 77 -1 #SUP: 2
183 -1 16519 -1 8685 -1 2 -1 #SUP: 2
183 -1 16519 -1 8685 -1 77 -1 #SUP: 2
183 -1 16519 -1 8685 -1 18550 -1 #SUP: 2
236 -1 41 -1 193 -1 2 -1 #SUP: 2
236 -1 170 -1 77 -1 2 -1 #SUP: 2
349 -1 78 -1 22 -1 77 -1 #SUP: 2
3672 -1 10788 -1 18546 -1 22 -1 #SUP: 2
12246 -1 78 -1 22 -1 77 -1 #SUP: 2
16519 -1 8685 -1 2 -1 77 -1 #SUP: 2
16519 -1 8685 -1 18550 -1 77 -1 #SUP: 2
15 -1 183 -1 16519 -1 8685 -1 2 -1 #SUP: 2
77 -1 22 -1 59 -1 32 -1 170 -1 #SUP: 2
154 -1 16 -1 65 -1 599 -1 193 -1 #SUP: 2
183 -1 16519 -1 8685 -1 2 -1 77 -1 #SUP: 2
