123 -1 174 -1 488 -1 10 -1 22 -1 18126 -1 6447 -1 32 -1 427 -1 65 -1 2809 -1 30 -2
123 -1 174 -1 651 -1 31 -1 39150 -1 395 -1 30 -2
749 -1 1 -2
567 -1 2160 -1 1587 -1 213 -1 153 -1 22 -1 960 -1 154 -1 193 -1 701 -1 652 -1 1700 -1 2 -1 154 -1 193 -1 170 -1 168 -1 3962 -1 30 -2
123 -1 441 -1 30 -2
1465 -1 12931 -1 123 -1 777 -1 224 -1 244 -1 200 -1 30 -2
2918 -1 222 -1 64 -1 177 -1 30 -2
520 -1 364 -1 1465 -1 30 -2
17984 -1 283 -2
66 -1 430 -1 3203 -1 88527 -1 222 -1 283 -2
444 -1 183 -1 22 -1 229 -1 283 -2
1943 -1 222 -1 6260 -1 30 -2
1249 -1 41 -1 1181 -1 1584 -1 283 -2
41 -1 160 -1 64 -1 144 -1 65 -1 12931 -1 1 -2
123 -1 17820 -1 1204 -1 196 -1 25398 -1 283 -2
9164 -1 888 -1 17984 -1 30 -2
8716 -1 283 -2
123 -1 120 -1 340 -1 41 -1 599 -1 2502 -1 488 -1 1251 -1 29188 -1 41 -1 9164 -1 65 -1 49100 -1 30 -2
25398 -1 9164 -1 65 -1 31415 -1 196 -1 850 -1 30 -2
9164 -1 65 -1 88528 -1 850 -1 30 -2
210 -1 64 -1 9575 -1 123 -1 206 -1 1321 -1 291 -1 285 -1 1602 -1 3615 -1 1263 -1 78 -1 4377 -1 30 -2
31 -1 222 -1 123 -1 206 -1 374 -1 603 -1 297 -1 64 -1 4326 -1 1382 -1 7359 -1 10 -1 395 -1 2 -1 123 -1 1867 -1 50 -1 1602 -1 1320 -1 222 -1 64 -1 1836 -1 50 -1 1662 -1 1360 -1 30 -2
520 -1 30 -2
285 -1 144 -1 41 -1 549 -1 1758 -1 5495 -1 7 -1 3615 -1 29 -1 6 -1 2 -1 4332 -1 78 -1 326 -1 683 -1 1 -2
88530 -1 248 -1 356 -1 22 -1 8078 -1 365 -1 123 -1 88529 -1 10 -1 269 -1 395 -1 123 -1 206 -1 1409 -1 30 -2
123 -1 648 -1 356 -1 411 -1 2 -1 1712 -1 536 -1 123 -1 488 -1 286 -1 123 -1 206 -1 1409 -1 30 -2
154 -1 381 -1 630 -1 77 -1 31 -1 693 -1 1587 -1 123 -1 488 -1 223 -1 638 -1 65 -1 2186 -1 32 -1 668 -1 533 -1 123 -1 165 -1 498 -1 3279 -1 30 -2
123 -1 2301 -1 64 -1 286 -1 32 -1 22 -1 1819 -1 32 -1 193 -1 2 -1 12447 -1 33 -1 285 -1 50 -1 88531 -1 165 -1 5209 -1 22 -1 219 -1 30 -2
123 -1 286 -1 126 -1 171 -1 152 -1 309 -1 82 -1 123 -1 206 -1 260 -1 26198 -1 618 -1 64 -1 22 -1 1819 -1 599 -1 212 -1 6675 -1 50 -1 30 -2
256 -1 50 -1 317 -1 6 -1 123 -1 638 -1 65 -1 652 -1 4334 -1 1485 -1 551 -1 530 -1 64 -1 65 -1 787 -1 1942 -1 7713 -1 154 -1 23076 -1 222 -1 31 -1 417 -1 196 -1 278 -1 408 -1 30 -2
193 -1 206 -1 3164 -1 30 -2
164 -1 6 -1 2 -1 60329 -1 2 -1 212 -1 30 -2
6929 -1 88530 -1 77 -1 22 -1 88532 -1 226 -1 223 -1 67 -1 936 -1 31 -1 41 -1 2 -1 1741 -1 283 -2
12931 -1 966 -1 88530 -1 177 -1 966 -1 88530 -1 123 -1 3632 -1 64 -1 929 -1 14904 -1 18063 -1 250 -1 408 -1 397 -1 30 -2
599 -1 535 -1 6399 -1 2207 -1 123 -1 375 -1 26174 -1 140 -1 213 -1 167 -1 30 -2
123 -1 286 -1 364 -1 651 -1 64 -1 1777 -1 193 -1 536 -1 158 -1 2 -1 929 -1 30 -2
123 -1 1108 -1 193 -1 1881 -1 30 -2
658 -1 2918 -1 88533 -1 990 -1 380 -1 1758 -1 398 -1 283 -2
8 -1 28 -1 26 -1 88534 -1 123 -1 1758 -1 356 -1 364 -1 212 -1 30 -2
201 -1 30 -2
31 -1 3000 -1 152 -1 295 -1 117 -1 66 -1 152 -1 276 -1 123 -1 11354 -1 285 -1 1166 -1 1314 -1 222 -1 260 -1 30407 -1 65 -1 1219 -1 32 -1 193 -1 45748 -1 164 -1 285 -1 123 -1 206 -1 674 -1 50 -1 13 -1 212 -1 64 -1 5457 -1 164 -1 167 -1 30 -2
520 -1 193 -1 88535 -1 246 -1 164 -1 222 -1 123 -1 441 -1 929 -1 22 -1 33081 -1 1223 -1 33080 -1 30 -2
123 -1 356 -1 193 -1 30 -2
123 -1 654 -1 871 -1 3521 -1 32 -1 871 -1 4194 -1 154 -1 548 -1 13 -1 2636 -1 31 -1 222 -1 30 -2
126 -1 41 -1 284 -1 2173 -1 222 -1 65 -1 4549 -1 27077 -1 126 -1 30 -2
3655 -1 30 -2
1216 -1 30 -2
2918 -1 37918 -1 201 -1 283 -2
8 -1 88537 -1 101 -1 91 -1 98 -1 10475 -1 1886 -1 88536 -1 2918 -1 7508 -1 88538 -1 283 -2
88539 -1 12931 -1 17820 -1 283 -2
90 -1 1000 -1 88541 -1 94 -1 1000 -1 88541 -1 6691 -1 8 -1 60031 -1 69800 -1 88540 -1 2918 -1 1 -2
152 -1 30 -2
4078 -1 28403 -1 28403 -1 28403 -1 283 -2
547 -1 2918 -1 88542 -1 966 -1 88543 -1 2918 -1 2918 -1 2918 -1 88544 -1 236 -1 4386 -1 1379 -1 65 -1 2918 -1 30 -2
2918 -1 263 -1 210 -1 966 -1 988 -1 201 -1 190 -1 520 -1 278 -1 225 -1 33 -1 3901 -1 42 -1 123 -1 149 -1 2 -1 899 -1 22547 -1 836 -1 123 -1 142 -1 536 -1 2 -1 364 -1 66 -1 88545 -1 27 -1 88546 -1 88547 -1 235 -1 507 -1 77 -1 123 -1 286 -1 22 -1 8957 -1 41 -1 441 -1 142 -1 64 -1 183 -1 603 -1 30 -2
123 -1 1364 -1 164 -1 134 -1 176 -1 30 -2
189 -1 364 -1 16 -1 65 -1 1900 -1 152 -1 2849 -1 77 -1 599 -1 10 -1 50 -1 1952 -1 77 -1 193 -1 212 -1 446 -1 1429 -1 152 -1 1535 -1 193 -1 64 -1 8264 -1 30 -2
123 -1 1758 -1 356 -1 123 -1 62 -1 22 -1 213 -1 414 -1 489 -1 1670 -1 599 -1 123 -1 120 -1 879 -1 7737 -1 4456 -1 64 -1 462 -1 30 -2
1672 -1 123 -1 499 -1 536 -1 64 -1 50 -1 317 -1 2944 -1 205 -1 972 -1 2 -1 286 -1 291 -1 285 -1 64 -1 3627 -1 2 -1 2208 -1 30 -2
235 -1 520 -1 77 -1 8415 -1 170 -1 65 -1 46 -1 32 -1 759 -1 2 -1 123 -1 1034 -1 154 -1 566 -1 7 -1 3 -1 253 -1 31 -1 28824 -1 30 -2
566 -1 334 -1 519 -1 65 -1 1219 -1 10 -1 65 -1 2563 -1 3625 -1 32 -1 76 -1 30 -2
2 -1 566 -1 848 -1 765 -1 167 -1 356 -1 22 -1 2071 -1 77 -1 599 -1 154 -1 170 -1 1837 -1 30 -2
3063 -1 549 -1 1758 -1 1050 -1 224 -1 222 -1 78 -1 246 -1 30 -2
123 -1 1758 -1 6019 -1 65 -1 1219 -1 32 -1 22 -1 76 -1 2 -1 123 -1 441 -1 3 -1 7986 -1 65 -1 1219 -1 32 -1 76 -1 1152 -1 30 -2
364 -1 16 -1 4013 -1 152 -1 596 -1 30 -2
123 -1 174 -1 1809 -1 2 -1 123 -1 2643 -1 123 -1 593 -1 268 -1 198 -1 32 -1 262 -1 1975 -1 6104 -1 152 -1 836 -1 30 -2
965 -1 1225 -1 123 -1 1758 -1 356 -1 123 -1 223 -1 670 -1 213 -1 225 -1 1758 -1 398 -1 599 -1 1198 -1 1027 -1 220 -1 711 -1 222 -1 1758 -1 398 -1 30 -2
193 -1 2027 -1 30 -2
88548 -1 210 -1 1700 -1 30 -2
123 -1 613 -1 7272 -1 7272 -1 35878 -1 30 -2
8 -1 28 -1 26 -1 88553 -1 88549 -1 4666 -1 5981 -1 88554 -1 88552 -1 88556 -1 1138 -1 1104 -1 37763 -1 28541 -1 5113 -1 88555 -1 29136 -1 88551 -1 2208 -1 589 -1 77 -1 4422 -1 88557 -1 88550 -1 6115 -1 645 -1 645 -1 1220 -1 1220 -1 88558 -1 123 -1 3 -1 1393 -1 65 -1 608 -1 76 -1 68 -1 76 -1 123 -1 3538 -1 603 -1 18541 -1 30 -2
152 -1 262 -1 283 -2
15100 -1 905 -1 283 -2
8 -1 28 -1 26 -1 88559 -1 4666 -1 5981 -1 262 -1 170 -1 1966 -1 30 -2
599 -1 123 -1 220 -1 694 -1 123 -1 407 -1 3 -1 5115 -1 64 -1 196 -1 384 -1 393 -1 162 -1 22 -1 538 -1 54 -1 123 -1 286 -1 32 -1 162 -1 123 -1 322 -1 32 -1 14157 -1 2 -1 1470 -1 170 -1 32 -1 22 -1 519 -1 1499 -1 6593 -1 30 -2
2 -1 16 -1 8261 -1 30 -2
8 -1 28 -1 26 -1 88560 -1 739 -1 30 -2
364 -1 22 -1 132 -1 417 -1 30 -2
1672 -1 123 -1 2403 -1 50 -1 6040 -1 32 -1 12432 -1 64 -1 1588 -1 50 -1 1357 -1 533 -1 30 -2
123 -1 223 -1 2068 -1 431 -1 1271 -1 431 -1 242 -1 2897 -1 12040 -1 30 -2
274 -1 76 -1 123 -1 407 -1 402 -1 64 -1 30 -2
1126 -1 952 -1 22 -1 1507 -1 2206 -1 2 -1 285 -1 384 -1 8412 -1 248 -1 4558 -1 64 -1 8506 -1 198 -1 88562 -1 88561 -1 508 -1 1 -2