1 -1 #SUP: 3
2 -1 #SUP: 16
3 -1 #SUP: 3
9 -1 #SUP: 2
10 -1 #SUP: 11
15 -1 #SUP: 3
16 -1 #SUP: 3
22 -1 #SUP: 26
26 -1 #SUP: 3
27 -1 #SUP: 3
28 -1 #SUP: 3
30 -1 #SUP: 3
31 -1 #SUP: 7
32 -1 #SUP: 12
33 -1 #SUP: 11
41 -1 #SUP: 15
47 -1 #SUP: 2
50 -1 #SUP: 6
64 -1 #SUP: 38
65 -1 #SUP: 30
66 -1 #SUP: 4
67 -1 #SUP: 4
70 -1 #SUP: 9
73 -1 #SUP: 2
75 -1 #SUP: 2
76 -1 #SUP: 4
77 -1 #SUP: 79
78 -1 #SUP: 9
94 -1 #SUP: 2
117 -1 #SUP: 2
120 -1 #SUP: 8
123 -1 #SUP: 60
134 -1 #SUP: 2
144 -1 #SUP: 5
151 -1 #SUP: 3
152 -1 #SUP: 6
154 -1 #SUP: 14
158 -1 #SUP: 4
160 -1 #SUP: 5
162 -1 #SUP: 8
164 -1 #SUP: 7
165 -1 #SUP: 6
167 -1 #SUP: 5
168 -1 #SUP: 6
170 -1 #SUP: 7
171 -1 #SUP: 2
174 -1 #SUP: 2
183 -1 #SUP: 4
186 -1 #SUP: 2
189 -1 #SUP: 4
193 -1 #SUP: 8
196 -1 #SUP: 3
197 -1 #SUP: 3
198 -1 #SUP: 5
205 -1 #SUP: 2
206 -1 #SUP: 10
210 -1 #SUP: 2
212 -1 #SUP: 7
219 -1 #SUP: 2
220 -1 #SUP: 6
222 -1 #SUP: 5
223 -1 #SUP: 6
225 -1 #SUP: 4
244 -1 #SUP: 3
246 -1 #SUP: 2
254 -1 #SUP: 2
262 -1 #SUP: 7
268 -1 #SUP: 3
269 -1 #SUP: 3
280 -1 #SUP: 2
283 -1 #SUP: 2
285 -1 #SUP: 6
286 -1 #SUP: 4
291 -1 #SUP: 6
308 -1 #SUP: 3
326 -1 #SUP: 7
340 -1 #SUP: 4
349 -1 #SUP: 4
355 -1 #SUP: 2
356 -1 #SUP: 6
364 -1 #SUP: 7
369 -1 #SUP: 2
381 -1 #SUP: 2
384 -1 #SUP: 2
393 -1 #SUP: 2
396 -1 #SUP: 3
407 -1 #SUP: 4
411 -1 #SUP: 2
417 -1 #SUP: 3
441 -1 #SUP: 10
443 -1 #SUP: 3
452 -1 #SUP: 3
471 -1 #SUP: 2
505 -1 #SUP: 3
507 -1 #SUP: 3
517 -1 #SUP: 2
520 -1 #SUP: 2
529 -1 #SUP: 5
533 -1 #SUP: 3
538 -1 #SUP: 2
547 -1 #SUP: 8
549 -1 #SUP: 2
567 -1 #SUP: 4
584 -1 #SUP: 2
593 -1 #SUP: 2
599 -1 #SUP: 16
603 -1 #SUP: 2
613 -1 #SUP: 3
638 -1 #SUP: 4
650 -1 #SUP: 2
651 -1 #SUP: 2
652 -1 #SUP: 3
693 -1 #SUP: 2
704 -1 #SUP: 3
711 -1 #SUP: 5
716 -1 #SUP: 2
720 -1 #SUP: 2
749 -1 #SUP: 2
765 -1 #SUP: 2
768 -1 #SUP: 3
781 -1 #SUP: 2
850 -1 #SUP: 3
862 -1 #SUP: 2
866 -1 #SUP: 2
910 -1 #SUP: 2
921 -1 #SUP: 3
938 -1 #SUP: 3
944 -1 #SUP: 3
965 -1 #SUP: 3
981 -1 #SUP: 2
1030 -1 #SUP: 2
1067 -1 #SUP: 2
1150 -1 #SUP: 2
1163 -1 #SUP: 2
1164 -1 #SUP: 4
1166 -1 #SUP: 2
1171 -1 #SUP: 2
1214 -1 #SUP: 2
1224 -1 #SUP: 2
1263 -1 #SUP: 3
1275 -1 #SUP: 2
1300 -1 #SUP: 4
1409 -1 #SUP: 2
1591 -1 #SUP: 3
1627 -1 #SUP: 2
1672 -1 #SUP: 2
1758 -1 #SUP: 3
1792 -1 #SUP: 2
1838 -1 #SUP: 2
1867 -1 #SUP: 2
1913 -1 #SUP: 2
2134 -1 #SUP: 2
2301 -1 #SUP: 2
2411 -1 #SUP: 2
3006 -1 #SUP: 2
3483 -1 #SUP: 2
5089 -1 #SUP: 2
5137 -1 #SUP: 2
5253 -1 #SUP: 2
5874 -1 #SUP: 2
5876 -1 #SUP: 4
5883 -1 #SUP: 2
5891 -1 #SUP: 2
5894 -1 #SUP: 2
5929 -1 #SUP: 3
5965 -1 #SUP: 2
2 -1 31 -1 #SUP: 3
2 -1 33 -1 #SUP: 2
2 -1 64 -1 #SUP: 2
2 -1 77 -1 #SUP: 5
2 -1 123 -1 #SUP: 2
2 -1 154 -1 #SUP: 2
2 -1 193 -1 #SUP: 3
2 -1 198 -1 #SUP: 3
2 -1 965 -1 #SUP: 2
3 -1 10 -1 #SUP: 2
9 -1 26 -1 #SUP: 2
9 -1 28 -1 #SUP: 2
9 -1 123 -1 #SUP: 2
10 -1 2 -1 #SUP: 2
10 -1 22 -1 #SUP: 3
10 -1 64 -1 #SUP: 2
10 -1 65 -1 #SUP: 3
10 -1 77 -1 #SUP: 6
10 -1 123 -1 #SUP: 3
10 -1 154 -1 #SUP: 2
10 -1 165 -1 #SUP: 2
10 -1 1627 -1 #SUP: 2
10 -1 5253 -1 #SUP: 2
15 -1 22 -1 #SUP: 2
15 -1 32 -1 #SUP: 3
15 -1 76 -1 #SUP: 2
16 -1 77 -1 #SUP: 2
16 -1 193 -1 #SUP: 2
16 -1 599 -1 #SUP: 2
22 -1 2 -1 #SUP: 4
22 -1 22 -1 #SUP: 5
22 -1 32 -1 #SUP: 4
22 -1 41 -1 #SUP: 2
22 -1 64 -1 #SUP: 3
22 -1 70 -1 #SUP: 2
22 -1 76 -1 #SUP: 2
22 -1 77 -1 #SUP: 10
22 -1 78 -1 #SUP: 2
22 -1 120 -1 #SUP: 2
22 -1 123 -1 #SUP: 5
22 -1 151 -1 #SUP: 2
22 -1 154 -1 #SUP: 2
22 -1 158 -1 #SUP: 2
22 -1 162 -1 #SUP: 3
22 -1 193 -1 #SUP: 2
22 -1 198 -1 #SUP: 2
22 -1 219 -1 #SUP: 2
22 -1 286 -1 #SUP: 2
22 -1 417 -1 #SUP: 2
22 -1 471 -1 #SUP: 2
22 -1 533 -1 #SUP: 2
22 -1 538 -1 #SUP: 2
22 -1 599 -1 #SUP: 2
22 -1 866 -1 #SUP: 2
22 -1 5089 -1 #SUP: 2
22 -1 5876 -1 #SUP: 2
22 -1 5965 -1 #SUP: 2
26 -1 123 -1 #SUP: 2
26 -1 262 -1 #SUP: 2
28 -1 26 -1 #SUP: 3
28 -1 123 -1 #SUP: 2
28 -1 262 -1 #SUP: 2
30 -1 77 -1 #SUP: 3
31 -1 2 -1 #SUP: 3
31 -1 77 -1 #SUP: 2
31 -1 123 -1 #SUP: 2
32 -1 22 -1 #SUP: 2
32 -1 50 -1 #SUP: 2
32 -1 64 -1 #SUP: 3
32 -1 65 -1 #SUP: 2
32 -1 76 -1 #SUP: 3
32 -1 77 -1 #SUP: 3
32 -1 123 -1 #SUP: 2
32 -1 164 -1 #SUP: 2
32 -1 198 -1 #SUP: 2
33 -1 2 -1 #SUP: 2
33 -1 22 -1 #SUP: 2
33 -1 77 -1 #SUP: 5
33 -1 123 -1 #SUP: 4
33 -1 193 -1 #SUP: 3
33 -1 471 -1 #SUP: 2
33 -1 768 -1 #SUP: 2
33 -1 5876 -1 #SUP: 2
41 -1 22 -1 #SUP: 2
41 -1 31 -1 #SUP: 2
41 -1 41 -1 #SUP: 3
41 -1 64 -1 #SUP: 4
41 -1 65 -1 #SUP: 2
41 -1 77 -1 #SUP: 4
41 -1 164 -1 #SUP: 2
41 -1 189 -1 #SUP: 2
41 -1 223 -1 #SUP: 2
41 -1 441 -1 #SUP: 2
41 -1 549 -1 #SUP: 2
41 -1 711 -1 #SUP: 2
41 -1 921 -1 #SUP: 2
41 -1 1913 -1 #SUP: 2
64 -1 2 -1 #SUP: 4
64 -1 10 -1 #SUP: 2
64 -1 22 -1 #SUP: 6
64 -1 33 -1 #SUP: 3
64 -1 41 -1 #SUP: 3
64 -1 50 -1 #SUP: 3
64 -1 64 -1 #SUP: 9
64 -1 65 -1 #SUP: 2
64 -1 70 -1 #SUP: 2
64 -1 77 -1 #SUP: 11
64 -1 78 -1 #SUP: 2
64 -1 123 -1 #SUP: 3
64 -1 134 -1 #SUP: 2
64 -1 154 -1 #SUP: 6
64 -1 160 -1 #SUP: 2
64 -1 162 -1 #SUP: 2
64 -1 164 -1 #SUP: 3
64 -1 193 -1 #SUP: 2
64 -1 198 -1 #SUP: 2
64 -1 206 -1 #SUP: 2
64 -1 222 -1 #SUP: 2
64 -1 225 -1 #SUP: 2
64 -1 417 -1 #SUP: 2
64 -1 538 -1 #SUP: 2
64 -1 547 -1 #SUP: 2
64 -1 599 -1 #SUP: 4
64 -1 613 -1 #SUP: 2
64 -1 711 -1 #SUP: 2
64 -1 765 -1 #SUP: 2
64 -1 850 -1 #SUP: 2
64 -1 2411 -1 #SUP: 2
65 -1 2 -1 #SUP: 3
65 -1 22 -1 #SUP: 2
65 -1 32 -1 #SUP: 4
65 -1 33 -1 #SUP: 2
65 -1 64 -1 #SUP: 8
65 -1 76 -1 #SUP: 2
65 -1 77 -1 #SUP: 10
65 -1 123 -1 #SUP: 5
65 -1 154 -1 #SUP: 3
65 -1 162 -1 #SUP: 2
65 -1 164 -1 #SUP: 2
65 -1 168 -1 #SUP: 2
65 -1 269 -1 #SUP: 2
65 -1 599 -1 #SUP: 3
65 -1 603 -1 #SUP: 2
65 -1 650 -1 #SUP: 2
65 -1 704 -1 #SUP: 2
65 -1 720 -1 #SUP: 2
65 -1 938 -1 #SUP: 2
65 -1 5089 -1 #SUP: 2
66 -1 22 -1 #SUP: 2
70 -1 22 -1 #SUP: 2
70 -1 32 -1 #SUP: 2
70 -1 64 -1 #SUP: 2
70 -1 65 -1 #SUP: 2
70 -1 77 -1 #SUP: 3
70 -1 78 -1 #SUP: 3
73 -1 77 -1 #SUP: 2
76 -1 123 -1 #SUP: 2
77 -1 2 -1 #SUP: 7
77 -1 3 -1 #SUP: 2
77 -1 10 -1 #SUP: 5
77 -1 15 -1 #SUP: 2
77 -1 22 -1 #SUP: 8
77 -1 31 -1 #SUP: 3
77 -1 32 -1 #SUP: 6
77 -1 33 -1 #SUP: 5
77 -1 41 -1 #SUP: 5
77 -1 50 -1 #SUP: 3
77 -1 64 -1 #SUP: 13
77 -1 65 -1 #SUP: 8
77 -1 66 -1 #SUP: 2
77 -1 70 -1 #SUP: 5
77 -1 75 -1 #SUP: 2
77 -1 77 -1 #SUP: 16
77 -1 78 -1 #SUP: 5
77 -1 123 -1 #SUP: 17
77 -1 152 -1 #SUP: 3
77 -1 154 -1 #SUP: 6
77 -1 160 -1 #SUP: 2
77 -1 162 -1 #SUP: 3
77 -1 165 -1 #SUP: 2
77 -1 167 -1 #SUP: 2
77 -1 170 -1 #SUP: 2
77 -1 193 -1 #SUP: 4
77 -1 198 -1 #SUP: 3
77 -1 206 -1 #SUP: 3
77 -1 212 -1 #SUP: 3
77 -1 220 -1 #SUP: 2
77 -1 244 -1 #SUP: 2
77 -1 285 -1 #SUP: 2
77 -1 308 -1 #SUP: 2
77 -1 340 -1 #SUP: 3
77 -1 356 -1 #SUP: 2
77 -1 364 -1 #SUP: 2
77 -1 396 -1 #SUP: 2
77 -1 417 -1 #SUP: 2
77 -1 441 -1 #SUP: 4
77 -1 452 -1 #SUP: 2
77 -1 533 -1 #SUP: 2
77 -1 567 -1 #SUP: 2
77 -1 599 -1 #SUP: 7
77 -1 638 -1 #SUP: 2
77 -1 704 -1 #SUP: 2
77 -1 711 -1 #SUP: 3
77 -1 850 -1 #SUP: 2
77 -1 866 -1 #SUP: 2
77 -1 981 -1 #SUP: 2
77 -1 1150 -1 #SUP: 2
77 -1 1214 -1 #SUP: 2
77 -1 1263 -1 #SUP: 2
77 -1 1300 -1 #SUP: 2
77 -1 1591 -1 #SUP: 3
77 -1 1838 -1 #SUP: 2
77 -1 2134 -1 #SUP: 2
77 -1 5876 -1 #SUP: 2
78 -1 22 -1 #SUP: 3
78 -1 65 -1 #SUP: 3
78 -1 77 -1 #SUP: 3
78 -1 78 -1 #SUP: 2
78 -1 123 -1 #SUP: 2
94 -1 77 -1 #SUP: 2
117 -1 77 -1 #SUP: 2
120 -1 22 -1 #SUP: 2
120 -1 77 -1 #SUP: 4
120 -1 123 -1 #SUP: 4
120 -1 291 -1 #SUP: 2
120 -1 340 -1 #SUP: 3
120 -1 507 -1 #SUP: 2
120 -1 781 -1 #SUP: 2
123 -1 2 -1 #SUP: 5
123 -1 3 -1 #SUP: 3
123 -1 10 -1 #SUP: 6
123 -1 15 -1 #SUP: 2
123 -1 16 -1 #SUP: 2
123 -1 22 -1 #SUP: 7
123 -1 32 -1 #SUP: 5
123 -1 33 -1 #SUP: 3
123 -1 41 -1 #SUP: 4
123 -1 50 -1 #SUP: 3
123 -1 64 -1 #SUP: 15
123 -1 65 -1 #SUP: 14
123 -1 67 -1 #SUP: 2
123 -1 75 -1 #SUP: 2
123 -1 76 -1 #SUP: 2
123 -1 77 -1 #SUP: 15
123 -1 78 -1 #SUP: 2
123 -1 120 -1 #SUP: 4
123 -1 123 -1 #SUP: 15
123 -1 144 -1 #SUP: 3
123 -1 151 -1 #SUP: 2
123 -1 152 -1 #SUP: 3
123 -1 154 -1 #SUP: 7
123 -1 158 -1 #SUP: 3
123 -1 160 -1 #SUP: 3
123 -1 162 -1 #SUP: 2
123 -1 164 -1 #SUP: 2
123 -1 165 -1 #SUP: 3
123 -1 167 -1 #SUP: 2
123 -1 174 -1 #SUP: 2
123 -1 193 -1 #SUP: 3
123 -1 198 -1 #SUP: 3
123 -1 206 -1 #SUP: 6
123 -1 212 -1 #SUP: 2
123 -1 220 -1 #SUP: 2
123 -1 223 -1 #SUP: 5
123 -1 262 -1 #SUP: 4
123 -1 268 -1 #SUP: 2
123 -1 285 -1 #SUP: 3
123 -1 286 -1 #SUP: 4
123 -1 291 -1 #SUP: 3
123 -1 340 -1 #SUP: 4
123 -1 356 -1 #SUP: 2
123 -1 407 -1 #SUP: 4
123 -1 441 -1 #SUP: 4
123 -1 529 -1 #SUP: 3
123 -1 593 -1 #SUP: 2
123 -1 599 -1 #SUP: 2
123 -1 638 -1 #SUP: 4
123 -1 720 -1 #SUP: 2
123 -1 749 -1 #SUP: 2
123 -1 938 -1 #SUP: 2
123 -1 944 -1 #SUP: 2
123 -1 1164 -1 #SUP: 4
123 -1 1214 -1 #SUP: 2
123 -1 1300 -1 #SUP: 2
123 -1 1591 -1 #SUP: 3
123 -1 1672 -1 #SUP: 2
123 -1 1758 -1 #SUP: 2
123 -1 1867 -1 #SUP: 2
123 -1 2301 -1 #SUP: 2
123 -1 3483 -1 #SUP: 2
123 -1 5883 -1 #SUP: 2
144 -1 77 -1 #SUP: 2
151 -1 123 -1 #SUP: 2
154 -1 2 -1 #SUP: 2
154 -1 22 -1 #SUP: 2
154 -1 33 -1 #SUP: 2
154 -1 50 -1 #SUP: 3
154 -1 64 -1 #SUP: 2
154 -1 70 -1 #SUP: 2
154 -1 77 -1 #SUP: 3
154 -1 120 -1 #SUP: 2
154 -1 123 -1 #SUP: 2
154 -1 162 -1 #SUP: 2
154 -1 165 -1 #SUP: 2
154 -1 206 -1 #SUP: 3
154 -1 567 -1 #SUP: 2
158 -1 77 -1 #SUP: 2
160 -1 22 -1 #SUP: 2
160 -1 32 -1 #SUP: 2
160 -1 64 -1 #SUP: 3
160 -1 65 -1 #SUP: 2
160 -1 77 -1 #SUP: 3
160 -1 154 -1 #SUP: 2
160 -1 599 -1 #SUP: 2
162 -1 10 -1 #SUP: 2
162 -1 22 -1 #SUP: 2
162 -1 64 -1 #SUP: 2
162 -1 70 -1 #SUP: 2
162 -1 77 -1 #SUP: 4
162 -1 123 -1 #SUP: 2
162 -1 206 -1 #SUP: 2
162 -1 5965 -1 #SUP: 2
164 -1 77 -1 #SUP: 4
165 -1 64 -1 #SUP: 2
167 -1 2 -1 #SUP: 2
167 -1 77 -1 #SUP: 2
168 -1 65 -1 #SUP: 3
168 -1 77 -1 #SUP: 2
168 -1 123 -1 #SUP: 2
170 -1 65 -1 #SUP: 3
170 -1 77 -1 #SUP: 2
170 -1 78 -1 #SUP: 2
170 -1 154 -1 #SUP: 2
170 -1 567 -1 #SUP: 2
171 -1 77 -1 #SUP: 2
171 -1 123 -1 #SUP: 2
174 -1 77 -1 #SUP: 2
183 -1 64 -1 #SUP: 2
183 -1 222 -1 #SUP: 2
189 -1 77 -1 #SUP: 2
193 -1 77 -1 #SUP: 2
193 -1 285 -1 #SUP: 2
193 -1 356 -1 #SUP: 2
193 -1 768 -1 #SUP: 2
198 -1 206 -1 #SUP: 2
206 -1 50 -1 #SUP: 2
206 -1 65 -1 #SUP: 3
206 -1 77 -1 #SUP: 3
206 -1 768 -1 #SUP: 2
206 -1 5874 -1 #SUP: 2
212 -1 64 -1 #SUP: 4
212 -1 196 -1 #SUP: 2
212 -1 268 -1 #SUP: 2
220 -1 77 -1 #SUP: 2
220 -1 144 -1 #SUP: 2
220 -1 167 -1 #SUP: 2
220 -1 268 -1 #SUP: 2
222 -1 77 -1 #SUP: 2
223 -1 3 -1 #SUP: 2
223 -1 10 -1 #SUP: 3
223 -1 64 -1 #SUP: 2
223 -1 65 -1 #SUP: 3
223 -1 77 -1 #SUP: 2
225 -1 77 -1 #SUP: 2
244 -1 77 -1 #SUP: 3
244 -1 123 -1 #SUP: 2
244 -1 396 -1 #SUP: 3
262 -1 123 -1 #SUP: 2
269 -1 77 -1 #SUP: 3
280 -1 613 -1 #SUP: 2
285 -1 41 -1 #SUP: 3
285 -1 64 -1 #SUP: 2
285 -1 1166 -1 #SUP: 2
285 -1 1758 -1 #SUP: 2
286 -1 41 -1 #SUP: 3
286 -1 223 -1 #SUP: 2
286 -1 441 -1 #SUP: 2
291 -1 10 -1 #SUP: 2
291 -1 65 -1 #SUP: 2
291 -1 77 -1 #SUP: 4
291 -1 704 -1 #SUP: 2
291 -1 5929 -1 #SUP: 2
308 -1 189 -1 #SUP: 2
326 -1 77 -1 #SUP: 4
326 -1 123 -1 #SUP: 2
326 -1 154 -1 #SUP: 2
326 -1 206 -1 #SUP: 2
326 -1 599 -1 #SUP: 3
340 -1 2 -1 #SUP: 2
340 -1 123 -1 #SUP: 2
355 -1 77 -1 #SUP: 2
364 -1 2 -1 #SUP: 2
364 -1 10 -1 #SUP: 2
364 -1 77 -1 #SUP: 2
364 -1 123 -1 #SUP: 4
364 -1 381 -1 #SUP: 2
364 -1 599 -1 #SUP: 3
364 -1 944 -1 #SUP: 2
364 -1 1591 -1 #SUP: 2
369 -1 77 -1 #SUP: 2
369 -1 123 -1 #SUP: 2
381 -1 123 -1 #SUP: 2
393 -1 77 -1 #SUP: 2
396 -1 77 -1 #SUP: 3
396 -1 123 -1 #SUP: 2
407 -1 2 -1 #SUP: 2
407 -1 3 -1 #SUP: 2
407 -1 10 -1 #SUP: 2
407 -1 77 -1 #SUP: 2
407 -1 223 -1 #SUP: 3
411 -1 65 -1 #SUP: 2
417 -1 41 -1 #SUP: 2
441 -1 41 -1 #SUP: 2
441 -1 64 -1 #SUP: 5
441 -1 65 -1 #SUP: 2
441 -1 77 -1 #SUP: 4
441 -1 285 -1 #SUP: 2
441 -1 711 -1 #SUP: 2
443 -1 77 -1 #SUP: 2
443 -1 212 -1 #SUP: 2
471 -1 77 -1 #SUP: 2
471 -1 123 -1 #SUP: 2
471 -1 5876 -1 #SUP: 2
505 -1 41 -1 #SUP: 2
505 -1 64 -1 #SUP: 2
507 -1 77 -1 #SUP: 2
529 -1 64 -1 #SUP: 2
529 -1 77 -1 #SUP: 2
529 -1 441 -1 #SUP: 2
533 -1 2 -1 #SUP: 2
533 -1 77 -1 #SUP: 2
538 -1 77 -1 #SUP: 2
538 -1 193 -1 #SUP: 2
547 -1 77 -1 #SUP: 2
549 -1 31 -1 #SUP: 2
599 -1 10 -1 #SUP: 2
599 -1 22 -1 #SUP: 2
599 -1 41 -1 #SUP: 3
599 -1 50 -1 #SUP: 2
599 -1 64 -1 #SUP: 2
599 -1 65 -1 #SUP: 3
599 -1 66 -1 #SUP: 2
599 -1 77 -1 #SUP: 6
599 -1 123 -1 #SUP: 4
599 -1 154 -1 #SUP: 2
599 -1 162 -1 #SUP: 2
599 -1 197 -1 #SUP: 2
599 -1 206 -1 #SUP: 3
599 -1 220 -1 #SUP: 2
599 -1 244 -1 #SUP: 2
599 -1 291 -1 #SUP: 2
599 -1 396 -1 #SUP: 2
638 -1 32 -1 #SUP: 2
638 -1 64 -1 #SUP: 2
638 -1 65 -1 #SUP: 4
638 -1 77 -1 #SUP: 2
651 -1 64 -1 #SUP: 2
704 -1 64 -1 #SUP: 2
711 -1 77 -1 #SUP: 2
711 -1 1263 -1 #SUP: 2
749 -1 22 -1 #SUP: 2
768 -1 206 -1 #SUP: 2
781 -1 77 -1 #SUP: 2
938 -1 10 -1 #SUP: 2
938 -1 64 -1 #SUP: 2
938 -1 393 -1 #SUP: 2
944 -1 2 -1 #SUP: 2
944 -1 10 -1 #SUP: 3
1067 -1 64 -1 #SUP: 2
1150 -1 77 -1 #SUP: 2
1163 -1 77 -1 #SUP: 2
1164 -1 65 -1 #SUP: 4
1164 -1 123 -1 #SUP: 4
1164 -1 206 -1 #SUP: 2
1164 -1 638 -1 #SUP: 2
1171 -1 599 -1 #SUP: 2
1409 -1 22 -1 #SUP: 2
1591 -1 64 -1 #SUP: 2
1867 -1 22 -1 #SUP: 2
1867 -1 123 -1 #SUP: 2
1913 -1 64 -1 #SUP: 2
2301 -1 22 -1 #SUP: 2
2301 -1 64 -1 #SUP: 2
2301 -1 599 -1 #SUP: 2
3006 -1 77 -1 #SUP: 2
3483 -1 64 -1 #SUP: 2
5089 -1 77 -1 #SUP: 2
5253 -1 1627 -1 #SUP: 2
5876 -1 77 -1 #SUP: 3
5876 -1 123 -1 #SUP: 2
5883 -1 64 -1 #SUP: 2
5891 -1 77 -1 #SUP: 2
5894 -1 862 -1 #SUP: 2
5929 -1 64 -1 #SUP: 2
5929 -1 65 -1 #SUP: 3
5929 -1 77 -1 #SUP: 2
2 -1 77 -1 198 -1 #SUP: 2
9 -1 26 -1 123 -1 #SUP: 2
9 -1 28 -1 26 -1 #SUP: 2
9 -1 28 -1 123 -1 #SUP: 2
10 -1 22 -1 22 -1 #SUP: 2
10 -1 65 -1 64 -1 #SUP: 2
10 -1 77 -1 22 -1 #SUP: 2
10 -1 77 -1 123 -1 #SUP: 2
10 -1 154 -1 165 -1 #SUP: 2
10 -1 5253 -1 1627 -1 #SUP: 2
15 -1 22 -1 76 -1 #SUP: 2
15 -1 32 -1 22 -1 #SUP: 2
15 -1 32 -1 76 -1 #SUP: 2
22 -1 32 -1 77 -1 #SUP: 2
22 -1 77 -1 22 -1 #SUP: 2
22 -1 77 -1 64 -1 #SUP: 3
22 -1 77 -1 70 -1 #SUP: 2
22 -1 77 -1 78 -1 #SUP: 2
22 -1 77 -1 123 -1 #SUP: 2
22 -1 77 -1 193 -1 #SUP: 2
22 -1 77 -1 533 -1 #SUP: 2
22 -1 123 -1 120 -1 #SUP: 2
22 -1 123 -1 123 -1 #SUP: 2
22 -1 123 -1 158 -1 #SUP: 2
22 -1 123 -1 286 -1 #SUP: 2
22 -1 162 -1 22 -1 #SUP: 2
22 -1 162 -1 5965 -1 #SUP: 2
22 -1 417 -1 41 -1 #SUP: 2
22 -1 471 -1 77 -1 #SUP: 2
22 -1 471 -1 123 -1 #SUP: 2
22 -1 471 -1 5876 -1 #SUP: 2
22 -1 538 -1 77 -1 #SUP: 2
22 -1 538 -1 193 -1 #SUP: 2
22 -1 5876 -1 77 -1 #SUP: 2
22 -1 5876 -1 123 -1 #SUP: 2
28 -1 26 -1 123 -1 #SUP: 2
28 -1 26 -1 262 -1 #SUP: 2
31 -1 77 -1 123 -1 #SUP: 2
32 -1 22 -1 76 -1 #SUP: 2
32 -1 76 -1 123 -1 #SUP: 2
33 -1 22 -1 77 -1 #SUP: 2
33 -1 22 -1 123 -1 #SUP: 2
33 -1 22 -1 471 -1 #SUP: 2
33 -1 22 -1 5876 -1 #SUP: 2
33 -1 77 -1 123 -1 #SUP: 4
33 -1 471 -1 77 -1 #SUP: 2
33 -1 471 -1 123 -1 #SUP: 2
33 -1 471 -1 5876 -1 #SUP: 2
33 -1 5876 -1 77 -1 #SUP: 2
33 -1 5876 -1 123 -1 #SUP: 2
41 -1 65 -1 164 -1 #SUP: 2
41 -1 77 -1 77 -1 #SUP: 2
41 -1 223 -1 64 -1 #SUP: 2
41 -1 441 -1 64 -1 #SUP: 2
41 -1 549 -1 31 -1 #SUP: 2
41 -1 1913 -1 64 -1 #SUP: 2
64 -1 22 -1 22 -1 #SUP: 2
64 -1 22 -1 77 -1 #SUP: 3
64 -1 22 -1 417 -1 #SUP: 2
64 -1 22 -1 538 -1 #SUP: 2
64 -1 22 -1 599 -1 #SUP: 2
64 -1 64 -1 22 -1 #SUP: 2
64 -1 77 -1 2 -1 #SUP: 2
64 -1 77 -1 22 -1 #SUP: 2
64 -1 77 -1 33 -1 #SUP: 2
64 -1 77 -1 41 -1 #SUP: 2
64 -1 77 -1 70 -1 #SUP: 2
64 -1 77 -1 77 -1 #SUP: 2
64 -1 77 -1 154 -1 #SUP: 2
64 -1 77 -1 193 -1 #SUP: 2
64 -1 77 -1 599 -1 #SUP: 2
64 -1 78 -1 22 -1 #SUP: 2
64 -1 154 -1 50 -1 #SUP: 2
64 -1 154 -1 162 -1 #SUP: 2
64 -1 154 -1 206 -1 #SUP: 2
64 -1 160 -1 22 -1 #SUP: 2
64 -1 160 -1 64 -1 #SUP: 2
64 -1 538 -1 77 -1 #SUP: 2
64 -1 599 -1 154 -1 #SUP: 2
65 -1 22 -1 5089 -1 #SUP: 2
65 -1 64 -1 154 -1 #SUP: 2
65 -1 77 -1 2 -1 #SUP: 2
65 -1 77 -1 64 -1 #SUP: 3
65 -1 77 -1 123 -1 #SUP: 2
65 -1 77 -1 704 -1 #SUP: 2
65 -1 123 -1 938 -1 #SUP: 2
65 -1 162 -1 123 -1 #SUP: 2
65 -1 164 -1 77 -1 #SUP: 2
65 -1 269 -1 77 -1 #SUP: 2
65 -1 704 -1 64 -1 #SUP: 2
70 -1 78 -1 65 -1 #SUP: 2
77 -1 10 -1 65 -1 #SUP: 3
77 -1 22 -1 2 -1 #SUP: 2
77 -1 22 -1 77 -1 #SUP: 4
77 -1 22 -1 417 -1 #SUP: 2
77 -1 22 -1 866 -1 #SUP: 2
77 -1 32 -1 64 -1 #SUP: 2
77 -1 33 -1 77 -1 #SUP: 2
77 -1 33 -1 193 -1 #SUP: 2
77 -1 64 -1 50 -1 #SUP: 2
77 -1 64 -1 64 -1 #SUP: 3
77 -1 64 -1 77 -1 #SUP: 3
77 -1 64 -1 154 -1 #SUP: 3
77 -1 64 -1 599 -1 #SUP: 2
77 -1 65 -1 32 -1 #SUP: 2
77 -1 65 -1 64 -1 #SUP: 3
77 -1 70 -1 78 -1 #SUP: 3
77 -1 77 -1 3 -1 #SUP: 2
77 -1 77 -1 22 -1 #SUP: 2
77 -1 77 -1 64 -1 #SUP: 4
77 -1 77 -1 66 -1 #SUP: 2
77 -1 77 -1 70 -1 #SUP: 2
77 -1 77 -1 77 -1 #SUP: 3
77 -1 77 -1 123 -1 #SUP: 7
77 -1 77 -1 206 -1 #SUP: 2
77 -1 77 -1 441 -1 #SUP: 3
77 -1 77 -1 599 -1 #SUP: 3
77 -1 77 -1 711 -1 #SUP: 2
77 -1 77 -1 981 -1 #SUP: 2
77 -1 78 -1 77 -1 #SUP: 2
77 -1 78 -1 78 -1 #SUP: 2
77 -1 123 -1 2 -1 #SUP: 2
77 -1 123 -1 3 -1 #SUP: 2
77 -1 123 -1 10 -1 #SUP: 2
77 -1 123 -1 15 -1 #SUP: 2
77 -1 123 -1 22 -1 #SUP: 2
77 -1 123 -1 32 -1 #SUP: 4
77 -1 123 -1 50 -1 #SUP: 2
77 -1 123 -1 64 -1 #SUP: 7
77 -1 123 -1 65 -1 #SUP: 5
77 -1 123 -1 75 -1 #SUP: 2
77 -1 123 -1 77 -1 #SUP: 4
77 -1 123 -1 123 -1 #SUP: 4
77 -1 123 -1 154 -1 #SUP: 4
77 -1 123 -1 165 -1 #SUP: 2
77 -1 123 -1 198 -1 #SUP: 2
77 -1 123 -1 340 -1 #SUP: 3
77 -1 123 -1 599 -1 #SUP: 2
77 -1 123 -1 638 -1 #SUP: 2
77 -1 123 -1 1214 -1 #SUP: 2
77 -1 123 -1 1591 -1 #SUP: 3
77 -1 154 -1 50 -1 #SUP: 2
77 -1 160 -1 64 -1 #SUP: 2
77 -1 162 -1 64 -1 #SUP: 2
77 -1 162 -1 77 -1 #SUP: 2
77 -1 170 -1 77 -1 #SUP: 2
77 -1 206 -1 50 -1 #SUP: 2
77 -1 212 -1 64 -1 #SUP: 3
77 -1 244 -1 77 -1 #SUP: 2
77 -1 244 -1 396 -1 #SUP: 2
77 -1 340 -1 2 -1 #SUP: 2
77 -1 396 -1 77 -1 #SUP: 2
77 -1 441 -1 77 -1 #SUP: 2
77 -1 599 -1 41 -1 #SUP: 2
77 -1 599 -1 77 -1 #SUP: 3
77 -1 599 -1 206 -1 #SUP: 2
77 -1 599 -1 244 -1 #SUP: 2
77 -1 599 -1 396 -1 #SUP: 2
77 -1 638 -1 32 -1 #SUP: 2
77 -1 638 -1 64 -1 #SUP: 2
77 -1 638 -1 65 -1 #SUP: 2
77 -1 704 -1 64 -1 #SUP: 2
78 -1 77 -1 22 -1 #SUP: 2
120 -1 77 -1 77 -1 #SUP: 2
120 -1 77 -1 123 -1 #SUP: 2
120 -1 340 -1 123 -1 #SUP: 2
120 -1 781 -1 77 -1 #SUP: 2
123 -1 3 -1 10 -1 #SUP: 2
123 -1 10 -1 65 -1 #SUP: 2
123 -1 10 -1 77 -1 #SUP: 2
123 -1 10 -1 123 -1 #SUP: 2
123 -1 15 -1 32 -1 #SUP: 2
123 -1 22 -1 2 -1 #SUP: 2
123 -1 22 -1 77 -1 #SUP: 2
123 -1 32 -1 50 -1 #SUP: 2
123 -1 32 -1 64 -1 #SUP: 2
123 -1 32 -1 76 -1 #SUP: 2
123 -1 32 -1 198 -1 #SUP: 2
123 -1 41 -1 41 -1 #SUP: 2
123 -1 41 -1 223 -1 #SUP: 2
123 -1 64 -1 2 -1 #SUP: 2
123 -1 64 -1 22 -1 #SUP: 4
123 -1 64 -1 50 -1 #SUP: 3
123 -1 64 -1 64 -1 #SUP: 3
123 -1 64 -1 77 -1 #SUP: 4
123 -1 64 -1 154 -1 #SUP: 4
123 -1 64 -1 599 -1 #SUP: 2
123 -1 65 -1 64 -1 #SUP: 2
123 -1 65 -1 77 -1 #SUP: 3
123 -1 65 -1 123 -1 #SUP: 3
123 -1 65 -1 154 -1 #SUP: 2
123 -1 65 -1 720 -1 #SUP: 2
123 -1 77 -1 123 -1 #SUP: 5
123 -1 77 -1 152 -1 #SUP: 2
123 -1 77 -1 154 -1 #SUP: 2
123 -1 77 -1 599 -1 #SUP: 2
123 -1 120 -1 77 -1 #SUP: 2
123 -1 120 -1 123 -1 #SUP: 3
123 -1 120 -1 340 -1 #SUP: 2
123 -1 123 -1 15 -1 #SUP: 2
123 -1 123 -1 32 -1 #SUP: 2
123 -1 123 -1 64 -1 #SUP: 2
123 -1 123 -1 65 -1 #SUP: 5
123 -1 123 -1 206 -1 #SUP: 4
123 -1 123 -1 638 -1 #SUP: 2
123 -1 154 -1 50 -1 #SUP: 2
123 -1 154 -1 64 -1 #SUP: 2
123 -1 158 -1 77 -1 #SUP: 2
123 -1 160 -1 64 -1 #SUP: 2
123 -1 174 -1 77 -1 #SUP: 2
123 -1 206 -1 65 -1 #SUP: 3
123 -1 206 -1 77 -1 #SUP: 2
123 -1 212 -1 64 -1 #SUP: 2
123 -1 220 -1 144 -1 #SUP: 2
123 -1 223 -1 3 -1 #SUP: 2
123 -1 223 -1 10 -1 #SUP: 2
123 -1 262 -1 123 -1 #SUP: 2
123 -1 285 -1 41 -1 #SUP: 2
123 -1 285 -1 1758 -1 #SUP: 2
123 -1 286 -1 41 -1 #SUP: 2
123 -1 286 -1 223 -1 #SUP: 2
123 -1 291 -1 77 -1 #SUP: 2
123 -1 340 -1 2 -1 #SUP: 2
123 -1 340 -1 123 -1 #SUP: 2
123 -1 407 -1 2 -1 #SUP: 2
123 -1 407 -1 3 -1 #SUP: 2
123 -1 407 -1 10 -1 #SUP: 2
123 -1 407 -1 77 -1 #SUP: 2
123 -1 407 -1 223 -1 #SUP: 3
123 -1 441 -1 41 -1 #SUP: 2
123 -1 441 -1 64 -1 #SUP: 2
123 -1 529 -1 441 -1 #SUP: 2
123 -1 638 -1 32 -1 #SUP: 2
123 -1 638 -1 64 -1 #SUP: 2
123 -1 638 -1 65 -1 #SUP: 3
123 -1 638 -1 77 -1 #SUP: 2
123 -1 944 -1 10 -1 #SUP: 2
123 -1 1164 -1 65 -1 #SUP: 4
123 -1 1164 -1 123 -1 #SUP: 4
123 -1 1164 -1 206 -1 #SUP: 2
123 -1 1164 -1 638 -1 #SUP: 2
123 -1 1867 -1 123 -1 #SUP: 2
123 -1 2301 -1 22 -1 #SUP: 2
123 -1 2301 -1 64 -1 #SUP: 2
123 -1 3483 -1 64 -1 #SUP: 2
154 -1 64 -1 77 -1 #SUP: 2
154 -1 77 -1 70 -1 #SUP: 2
160 -1 64 -1 22 -1 #SUP: 2
160 -1 64 -1 154 -1 #SUP: 2
160 -1 65 -1 77 -1 #SUP: 2
162 -1 10 -1 77 -1 #SUP: 2
162 -1 77 -1 70 -1 #SUP: 2
162 -1 123 -1 206 -1 #SUP: 2
168 -1 77 -1 123 -1 #SUP: 2
189 -1 77 -1 77 -1 #SUP: 2
244 -1 77 -1 123 -1 #SUP: 2
244 -1 396 -1 77 -1 #SUP: 3
244 -1 396 -1 123 -1 #SUP: 2
286 -1 41 -1 41 -1 #SUP: 2
286 -1 41 -1 223 -1 #SUP: 2
286 -1 41 -1 441 -1 #SUP: 2
291 -1 10 -1 65 -1 #SUP: 2
291 -1 77 -1 10 -1 #SUP: 2
291 -1 77 -1 65 -1 #SUP: 2
291 -1 77 -1 704 -1 #SUP: 2
364 -1 77 -1 123 -1 #SUP: 2
364 -1 77 -1 1591 -1 #SUP: 2
364 -1 123 -1 1591 -1 #SUP: 2
364 -1 599 -1 123 -1 #SUP: 2
364 -1 944 -1 10 -1 #SUP: 2
369 -1 77 -1 123 -1 #SUP: 2
396 -1 77 -1 77 -1 #SUP: 2
396 -1 77 -1 123 -1 #SUP: 2
407 -1 223 -1 3 -1 #SUP: 2
407 -1 223 -1 10 -1 #SUP: 2
441 -1 64 -1 64 -1 #SUP: 3
471 -1 77 -1 123 -1 #SUP: 2
471 -1 5876 -1 77 -1 #SUP: 2
471 -1 5876 -1 123 -1 #SUP: 2
533 -1 77 -1 2 -1 #SUP: 2
538 -1 77 -1 193 -1 #SUP: 2
547 -1 77 -1 77 -1 #SUP: 2
599 -1 66 -1 22 -1 #SUP: 2
599 -1 77 -1 123 -1 #SUP: 2
599 -1 123 -1 10 -1 #SUP: 2
599 -1 123 -1 65 -1 #SUP: 2
599 -1 244 -1 77 -1 #SUP: 2
599 -1 244 -1 396 -1 #SUP: 2
599 -1 396 -1 77 -1 #SUP: 2
638 -1 32 -1 64 -1 #SUP: 2
638 -1 65 -1 64 -1 #SUP: 2
638 -1 65 -1 77 -1 #SUP: 2
944 -1 10 -1 2 -1 #SUP: 2
1164 -1 123 -1 65 -1 #SUP: 4
1164 -1 123 -1 206 -1 #SUP: 2
1164 -1 123 -1 638 -1 #SUP: 2
1164 -1 206 -1 65 -1 #SUP: 2
1164 -1 638 -1 65 -1 #SUP: 2
2301 -1 22 -1 599 -1 #SUP: 2
2301 -1 64 -1 22 -1 #SUP: 2
2301 -1 64 -1 599 -1 #SUP: 2
5876 -1 77 -1 123 -1 #SUP: 2
5929 -1 65 -1 77 -1 #SUP: 2
9 -1 28 -1 26 -1 123 -1 #SUP: 2
15 -1 32 -1 22 -1 76 -1 #SUP: 2
22 -1 471 -1 77 -1 123 -1 #SUP: 2
22 -1 471 -1 5876 -1 77 -1 #SUP: 2
22 -1 471 -1 5876 -1 123 -1 #SUP: 2
22 -1 538 -1 77 -1 193 -1 #SUP: 2
22 -1 5876 -1 77 -1 123 -1 #SUP: 2
33 -1 22 -1 77 -1 123 -1 #SUP: 2
33 -1 22 -1 471 -1 77 -1 #SUP: 2
33 -1 22 -1 471 -1 123 -1 #SUP: 2
33 -1 22 -1 471 -1 5876 -1 #SUP: 2
33 -1 22 -1 5876 -1 77 -1 #SUP: 2
33 -1 22 -1 5876 -1 123 -1 #SUP: 2
33 -1 471 -1 77 -1 123 -1 #SUP: 2
33 -1 471 -1 5876 -1 77 -1 #SUP: 2
33 -1 471 -1 5876 -1 123 -1 #SUP: 2
33 -1 5876 -1 77 -1 123 -1 #SUP: 2
64 -1 22 -1 538 -1 77 -1 #SUP: 2
64 -1 160 -1 64 -1 22 -1 #SUP: 2
65 -1 77 -1 704 -1 64 -1 #SUP: 2
77 -1 64 -1 77 -1 599 -1 #SUP: 2
77 -1 64 -1 154 -1 50 -1 #SUP: 2
77 -1 77 -1 77 -1 77 -1 #SUP: 3
77 -1 77 -1 77 -1 441 -1 #SUP: 2
77 -1 77 -1 123 -1 3 -1 #SUP: 2
77 -1 77 -1 123 -1 64 -1 #SUP: 2
77 -1 77 -1 441 -1 77 -1 #SUP: 2
77 -1 77 -1 599 -1 206 -1 #SUP: 2
77 -1 123 -1 10 -1 65 -1 #SUP: 2
77 -1 123 -1 32 -1 64 -1 #SUP: 2
77 -1 123 -1 64 -1 50 -1 #SUP: 2
77 -1 123 -1 64 -1 77 -1 #SUP: 2
77 -1 123 -1 64 -1 154 -1 #SUP: 3
77 -1 123 -1 64 -1 599 -1 #SUP: 2
77 -1 123 -1 65 -1 64 -1 #SUP: 2
77 -1 123 -1 77 -1 599 -1 #SUP: 2
77 -1 123 -1 123 -1 64 -1 #SUP: 2
77 -1 123 -1 154 -1 50 -1 #SUP: 2
77 -1 123 -1 340 -1 2 -1 #SUP: 2
77 -1 123 -1 638 -1 32 -1 #SUP: 2
77 -1 123 -1 638 -1 64 -1 #SUP: 2
77 -1 123 -1 638 -1 65 -1 #SUP: 2
77 -1 244 -1 396 -1 77 -1 #SUP: 2
77 -1 599 -1 244 -1 77 -1 #SUP: 2
77 -1 599 -1 244 -1 396 -1 #SUP: 2
77 -1 599 -1 396 -1 77 -1 #SUP: 2
77 -1 638 -1 32 -1 64 -1 #SUP: 2
77 -1 638 -1 65 -1 64 -1 #SUP: 2
120 -1 77 -1 77 -1 123 -1 #SUP: 2
123 -1 64 -1 22 -1 77 -1 #SUP: 2
123 -1 64 -1 77 -1 599 -1 #SUP: 2
123 -1 64 -1 154 -1 50 -1 #SUP: 2
123 -1 65 -1 77 -1 123 -1 #SUP: 2
123 -1 120 -1 340 -1 123 -1 #SUP: 2
123 -1 123 -1 206 -1 65 -1 #SUP: 3
123 -1 123 -1 638 -1 65 -1 #SUP: 2
123 -1 286 -1 41 -1 41 -1 #SUP: 2
123 -1 286 -1 41 -1 223 -1 #SUP: 2
123 -1 407 -1 223 -1 3 -1 #SUP: 2
123 -1 407 -1 223 -1 10 -1 #SUP: 2
123 -1 638 -1 32 -1 64 -1 #SUP: 2
123 -1 638 -1 65 -1 64 -1 #SUP: 2
123 -1 1164 -1 123 -1 65 -1 #SUP: 4
123 -1 1164 -1 123 -1 206 -1 #SUP: 2
123 -1 1164 -1 123 -1 638 -1 #SUP: 2
123 -1 1164 -1 206 -1 65 -1 #SUP: 2
123 -1 1164 -1 638 -1 65 -1 #SUP: 2
123 -1 2301 -1 64 -1 22 -1 #SUP: 2
244 -1 396 -1 77 -1 123 -1 #SUP: 2
291 -1 77 -1 10 -1 65 -1 #SUP: 2
364 -1 77 -1 123 -1 1591 -1 #SUP: 2
471 -1 5876 -1 77 -1 123 -1 #SUP: 2
599 -1 244 -1 396 -1 77 -1 #SUP: 2
1164 -1 123 -1 206 -1 65 -1 #SUP: 2
1164 -1 123 -1 638 -1 65 -1 #SUP: 2
2301 -1 64 -1 22 -1 599 -1 #SUP: 2
22 -1 471 -1 5876 -1 77 -1 123 -1 #SUP: 2
33 -1 22 -1 471 -1 77 -1 123 -1 #SUP: 2
33 -1 22 -1 471 -1 5876 -1 77 -1 #SUP: 2
33 -1 22 -1 471 -1 5876 -1 123 -1 #SUP: 2
33 -1 22 -1 5876 -1 77 -1 123 -1 #SUP: 2
33 -1 471 -1 5876 -1 77 -1 123 -1 #SUP: 2
77 -1 77 -1 77 -1 441 -1 77 -1 #SUP: 2
77 -1 123 -1 64 -1 77 -1 599 -1 #SUP: 2
77 -1 123 -1 64 -1 154 -1 50 -1 #SUP: 2
77 -1 123 -1 638 -1 32 -1 64 -1 #SUP: 2
77 -1 123 -1 638 -1 65 -1 64 -1 #SUP: 2
77 -1 599 -1 244 -1 396 -1 77 -1 #SUP: 2
123 -1 1164 -1 123 -1 206 -1 65 -1 #SUP: 2
123 -1 1164 -1 123 -1 638 -1 65 -1 #SUP: 2
33 -1 22 -1 471 -1 5876 -1 77 -1 123 -1 #SUP: 2
