2 -1 #SUP: 40
3 -1 #SUP: 3
7 -1 #SUP: 2
8 -1 #SUP: 3
10 -1 #SUP: 16
11 -1 #SUP: 2
13 -1 #SUP: 2
15 -1 #SUP: 2
16 -1 #SUP: 6
22 -1 #SUP: 33
27 -1 #SUP: 3
29 -1 #SUP: 11
30 -1 #SUP: 13
31 -1 #SUP: 15
32 -1 #SUP: 25
33 -1 #SUP: 7
41 -1 #SUP: 18
42 -1 #SUP: 3
46 -1 #SUP: 3
50 -1 #SUP: 16
57 -1 #SUP: 4
64 -1 #SUP: 37
65 -1 #SUP: 37
66 -1 #SUP: 3
67 -1 #SUP: 11
70 -1 #SUP: 5
73 -1 #SUP: 2
75 -1 #SUP: 3
76 -1 #SUP: 4
77 -1 #SUP: 100
78 -1 #SUP: 11
82 -1 #SUP: 3
109 -1 #SUP: 2
112 -1 #SUP: 2
117 -1 #SUP: 2
120 -1 #SUP: 4
123 -1 #SUP: 70
134 -1 #SUP: 3
138 -1 #SUP: 5
144 -1 #SUP: 4
151 -1 #SUP: 6
153 -1 #SUP: 4
154 -1 #SUP: 14
158 -1 #SUP: 2
160 -1 #SUP: 3
162 -1 #SUP: 4
164 -1 #SUP: 8
165 -1 #SUP: 4
167 -1 #SUP: 4
170 -1 #SUP: 17
171 -1 #SUP: 5
174 -1 #SUP: 4
176 -1 #SUP: 2
183 -1 #SUP: 8
189 -1 #SUP: 4
190 -1 #SUP: 2
193 -1 #SUP: 10
196 -1 #SUP: 2
198 -1 #SUP: 3
200 -1 #SUP: 2
201 -1 #SUP: 11
206 -1 #SUP: 8
210 -1 #SUP: 4
212 -1 #SUP: 11
213 -1 #SUP: 3
219 -1 #SUP: 3
220 -1 #SUP: 5
222 -1 #SUP: 9
223 -1 #SUP: 3
224 -1 #SUP: 2
225 -1 #SUP: 3
226 -1 #SUP: 3
235 -1 #SUP: 3
236 -1 #SUP: 5
244 -1 #SUP: 2
246 -1 #SUP: 2
248 -1 #SUP: 2
250 -1 #SUP: 2
254 -1 #SUP: 6
256 -1 #SUP: 3
262 -1 #SUP: 13
268 -1 #SUP: 2
274 -1 #SUP: 3
276 -1 #SUP: 3
278 -1 #SUP: 2
280 -1 #SUP: 10
284 -1 #SUP: 2
285 -1 #SUP: 5
286 -1 #SUP: 2
291 -1 #SUP: 8
308 -1 #SUP: 2
318 -1 #SUP: 3
321 -1 #SUP: 3
322 -1 #SUP: 2
326 -1 #SUP: 11
340 -1 #SUP: 9
349 -1 #SUP: 2
356 -1 #SUP: 6
364 -1 #SUP: 14
369 -1 #SUP: 4
373 -1 #SUP: 3
381 -1 #SUP: 5
384 -1 #SUP: 2
397 -1 #SUP: 2
401 -1 #SUP: 3
407 -1 #SUP: 10
408 -1 #SUP: 2
411 -1 #SUP: 5
425 -1 #SUP: 2
431 -1 #SUP: 4
441 -1 #SUP: 11
443 -1 #SUP: 11
447 -1 #SUP: 2
465 -1 #SUP: 2
480 -1 #SUP: 2
488 -1 #SUP: 2
489 -1 #SUP: 3
499 -1 #SUP: 3
517 -1 #SUP: 3
520 -1 #SUP: 6
523 -1 #SUP: 2
529 -1 #SUP: 3
533 -1 #SUP: 3
549 -1 #SUP: 2
566 -1 #SUP: 2
589 -1 #SUP: 2
593 -1 #SUP: 2
596 -1 #SUP: 3
599 -1 #SUP: 13
613 -1 #SUP: 5
627 -1 #SUP: 3
629 -1 #SUP: 2
646 -1 #SUP: 2
648 -1 #SUP: 2
655 -1 #SUP: 2
668 -1 #SUP: 3
683 -1 #SUP: 13
693 -1 #SUP: 7
699 -1 #SUP: 2
704 -1 #SUP: 2
711 -1 #SUP: 2
720 -1 #SUP: 2
749 -1 #SUP: 2
765 -1 #SUP: 4
789 -1 #SUP: 2
796 -1 #SUP: 2
826 -1 #SUP: 2
850 -1 #SUP: 2
856 -1 #SUP: 3
879 -1 #SUP: 3
908 -1 #SUP: 2
936 -1 #SUP: 2
955 -1 #SUP: 2
965 -1 #SUP: 2
981 -1 #SUP: 2
987 -1 #SUP: 2
1001 -1 #SUP: 2
1035 -1 #SUP: 2
1103 -1 #SUP: 2
1127 -1 #SUP: 4
1160 -1 #SUP: 3
1163 -1 #SUP: 3
1169 -1 #SUP: 2
1214 -1 #SUP: 2
1219 -1 #SUP: 2
1238 -1 #SUP: 2
1241 -1 #SUP: 2
1242 -1 #SUP: 2
1263 -1 #SUP: 4
1271 -1 #SUP: 2
1276 -1 #SUP: 2
1320 -1 #SUP: 2
1351 -1 #SUP: 3
1364 -1 #SUP: 3
1413 -1 #SUP: 2
1591 -1 #SUP: 3
1607 -1 #SUP: 2
1712 -1 #SUP: 2
1730 -1 #SUP: 2
1758 -1 #SUP: 2
1841 -1 #SUP: 2
1896 -1 #SUP: 2
1902 -1 #SUP: 3
2006 -1 #SUP: 3
2446 -1 #SUP: 2
2555 -1 #SUP: 2
2627 -1 #SUP: 2
2845 -1 #SUP: 3
2864 -1 #SUP: 2
2945 -1 #SUP: 3
3142 -1 #SUP: 3
3390 -1 #SUP: 2
3439 -1 #SUP: 2
3448 -1 #SUP: 2
3538 -1 #SUP: 2
3831 -1 #SUP: 2
4096 -1 #SUP: 2
4377 -1 #SUP: 4
5953 -1 #SUP: 3
6896 -1 #SUP: 2
10254 -1 #SUP: 2
11839 -1 #SUP: 3
63254 -1 #SUP: 2
76374 -1 #SUP: 2
77951 -1 #SUP: 2
2 -1 2 -1 #SUP: 4
2 -1 10 -1 #SUP: 4
2 -1 13 -1 #SUP: 2
2 -1 22 -1 #SUP: 6
2 -1 31 -1 #SUP: 2
2 -1 42 -1 #SUP: 2
2 -1 50 -1 #SUP: 3
2 -1 64 -1 #SUP: 5
2 -1 65 -1 #SUP: 2
2 -1 67 -1 #SUP: 2
2 -1 76 -1 #SUP: 2
2 -1 77 -1 #SUP: 9
2 -1 78 -1 #SUP: 2
2 -1 123 -1 #SUP: 8
2 -1 134 -1 #SUP: 2
2 -1 154 -1 #SUP: 2
2 -1 170 -1 #SUP: 3
2 -1 171 -1 #SUP: 2
2 -1 183 -1 #SUP: 2
2 -1 201 -1 #SUP: 2
2 -1 222 -1 #SUP: 2
2 -1 223 -1 #SUP: 2
2 -1 254 -1 #SUP: 2
2 -1 262 -1 #SUP: 3
2 -1 291 -1 #SUP: 2
2 -1 364 -1 #SUP: 3
2 -1 425 -1 #SUP: 2
2 -1 441 -1 #SUP: 2
2 -1 566 -1 #SUP: 2
2 -1 599 -1 #SUP: 5
2 -1 693 -1 #SUP: 3
3 -1 31 -1 #SUP: 3
3 -1 64 -1 #SUP: 2
3 -1 65 -1 #SUP: 2
3 -1 77 -1 #SUP: 2
3 -1 138 -1 #SUP: 2
3 -1 262 -1 #SUP: 2
8 -1 3831 -1 #SUP: 2
10 -1 2 -1 #SUP: 2
10 -1 15 -1 #SUP: 2
10 -1 22 -1 #SUP: 8
10 -1 32 -1 #SUP: 2
10 -1 65 -1 #SUP: 3
10 -1 67 -1 #SUP: 2
10 -1 77 -1 #SUP: 2
10 -1 123 -1 #SUP: 2
10 -1 6896 -1 #SUP: 2
16 -1 32 -1 #SUP: 2
16 -1 77 -1 #SUP: 2
16 -1 78 -1 #SUP: 3
16 -1 381 -1 #SUP: 2
16 -1 1169 -1 #SUP: 2
22 -1 22 -1 #SUP: 3
22 -1 29 -1 #SUP: 2
22 -1 31 -1 #SUP: 3
22 -1 32 -1 #SUP: 6
22 -1 41 -1 #SUP: 2
22 -1 42 -1 #SUP: 2
22 -1 50 -1 #SUP: 2
22 -1 64 -1 #SUP: 4
22 -1 65 -1 #SUP: 3
22 -1 77 -1 #SUP: 5
22 -1 78 -1 #SUP: 2
22 -1 109 -1 #SUP: 2
22 -1 123 -1 #SUP: 3
22 -1 134 -1 #SUP: 2
22 -1 154 -1 #SUP: 3
22 -1 170 -1 #SUP: 4
22 -1 326 -1 #SUP: 2
22 -1 826 -1 #SUP: 2
22 -1 1238 -1 #SUP: 2
22 -1 2845 -1 #SUP: 2
22 -1 6896 -1 #SUP: 2
27 -1 2 -1 #SUP: 3
27 -1 41 -1 #SUP: 2
27 -1 77 -1 #SUP: 2
29 -1 2 -1 #SUP: 2
29 -1 22 -1 #SUP: 2
29 -1 41 -1 #SUP: 2
29 -1 65 -1 #SUP: 3
29 -1 77 -1 #SUP: 4
29 -1 154 -1 #SUP: 2
29 -1 170 -1 #SUP: 4
29 -1 222 -1 #SUP: 2
30 -1 30 -1 #SUP: 4
30 -1 50 -1 #SUP: 3
30 -1 123 -1 #SUP: 2
30 -1 262 -1 #SUP: 2
31 -1 2 -1 #SUP: 3
31 -1 22 -1 #SUP: 4
31 -1 65 -1 #SUP: 4
31 -1 77 -1 #SUP: 5
31 -1 138 -1 #SUP: 3
31 -1 170 -1 #SUP: 3
31 -1 189 -1 #SUP: 2
31 -1 212 -1 #SUP: 2
31 -1 278 -1 #SUP: 2
31 -1 318 -1 #SUP: 2
31 -1 397 -1 #SUP: 2
32 -1 2 -1 #SUP: 2
32 -1 22 -1 #SUP: 7
32 -1 29 -1 #SUP: 3
32 -1 64 -1 #SUP: 5
32 -1 65 -1 #SUP: 4
32 -1 67 -1 #SUP: 3
32 -1 77 -1 #SUP: 6
32 -1 123 -1 #SUP: 3
32 -1 170 -1 #SUP: 2
32 -1 222 -1 #SUP: 2
32 -1 274 -1 #SUP: 2
32 -1 285 -1 #SUP: 2
32 -1 401 -1 #SUP: 2
32 -1 1127 -1 #SUP: 2
32 -1 76374 -1 #SUP: 2
33 -1 77 -1 #SUP: 2
33 -1 280 -1 #SUP: 2
41 -1 2 -1 #SUP: 3
41 -1 22 -1 #SUP: 2
41 -1 29 -1 #SUP: 3
41 -1 64 -1 #SUP: 4
41 -1 67 -1 #SUP: 2
41 -1 77 -1 #SUP: 7
41 -1 123 -1 #SUP: 2
41 -1 164 -1 #SUP: 2
41 -1 170 -1 #SUP: 2
41 -1 193 -1 #SUP: 3
41 -1 222 -1 #SUP: 2
41 -1 226 -1 #SUP: 2
41 -1 340 -1 #SUP: 4
41 -1 520 -1 #SUP: 2
41 -1 1238 -1 #SUP: 2
41 -1 77951 -1 #SUP: 2
42 -1 77 -1 #SUP: 2
50 -1 2 -1 #SUP: 4
50 -1 30 -1 #SUP: 3
50 -1 32 -1 #SUP: 2
50 -1 50 -1 #SUP: 3
50 -1 64 -1 #SUP: 5
50 -1 67 -1 #SUP: 3
50 -1 76 -1 #SUP: 2
50 -1 77 -1 #SUP: 4
50 -1 123 -1 #SUP: 2
50 -1 170 -1 #SUP: 3
50 -1 326 -1 #SUP: 2
64 -1 2 -1 #SUP: 7
64 -1 10 -1 #SUP: 2
64 -1 22 -1 #SUP: 4
64 -1 29 -1 #SUP: 3
64 -1 31 -1 #SUP: 3
64 -1 33 -1 #SUP: 3
64 -1 41 -1 #SUP: 3
64 -1 50 -1 #SUP: 2
64 -1 65 -1 #SUP: 6
64 -1 67 -1 #SUP: 4
64 -1 77 -1 #SUP: 11
64 -1 78 -1 #SUP: 2
64 -1 123 -1 #SUP: 5
64 -1 138 -1 #SUP: 2
64 -1 144 -1 #SUP: 2
64 -1 154 -1 #SUP: 2
64 -1 193 -1 #SUP: 2
64 -1 201 -1 #SUP: 3
64 -1 212 -1 #SUP: 3
64 -1 222 -1 #SUP: 2
64 -1 254 -1 #SUP: 2
64 -1 262 -1 #SUP: 4
64 -1 274 -1 #SUP: 2
64 -1 291 -1 #SUP: 3
64 -1 599 -1 #SUP: 2
64 -1 765 -1 #SUP: 3
64 -1 908 -1 #SUP: 2
64 -1 981 -1 #SUP: 2
64 -1 1263 -1 #SUP: 2
64 -1 1841 -1 #SUP: 2
65 -1 2 -1 #SUP: 6
65 -1 22 -1 #SUP: 4
65 -1 32 -1 #SUP: 6
65 -1 41 -1 #SUP: 3
65 -1 64 -1 #SUP: 8
65 -1 67 -1 #SUP: 2
65 -1 75 -1 #SUP: 3
65 -1 77 -1 #SUP: 10
65 -1 123 -1 #SUP: 4
65 -1 138 -1 #SUP: 3
65 -1 151 -1 #SUP: 2
65 -1 154 -1 #SUP: 2
65 -1 171 -1 #SUP: 2
65 -1 176 -1 #SUP: 2
65 -1 183 -1 #SUP: 2
65 -1 189 -1 #SUP: 2
65 -1 193 -1 #SUP: 2
65 -1 201 -1 #SUP: 3
65 -1 222 -1 #SUP: 2
65 -1 254 -1 #SUP: 2
65 -1 274 -1 #SUP: 3
65 -1 285 -1 #SUP: 2
65 -1 340 -1 #SUP: 2
65 -1 364 -1 #SUP: 2
65 -1 381 -1 #SUP: 2
65 -1 401 -1 #SUP: 3
65 -1 411 -1 #SUP: 2
65 -1 431 -1 #SUP: 2
65 -1 599 -1 #SUP: 3
65 -1 720 -1 #SUP: 2
65 -1 1219 -1 #SUP: 2
65 -1 1591 -1 #SUP: 2
65 -1 1902 -1 #SUP: 2
65 -1 3439 -1 #SUP: 2
67 -1 22 -1 #SUP: 2
67 -1 64 -1 #SUP: 2
67 -1 123 -1 #SUP: 2
67 -1 200 -1 #SUP: 2
67 -1 201 -1 #SUP: 2
70 -1 10 -1 #SUP: 2
70 -1 15 -1 #SUP: 2
70 -1 65 -1 #SUP: 3
73 -1 77 -1 #SUP: 2
73 -1 683 -1 #SUP: 2
76 -1 30 -1 #SUP: 2
76 -1 64 -1 #SUP: 2
76 -1 222 -1 #SUP: 2
77 -1 2 -1 #SUP: 12
77 -1 10 -1 #SUP: 5
77 -1 11 -1 #SUP: 2
77 -1 16 -1 #SUP: 3
77 -1 22 -1 #SUP: 14
77 -1 29 -1 #SUP: 7
77 -1 31 -1 #SUP: 2
77 -1 32 -1 #SUP: 7
77 -1 33 -1 #SUP: 4
77 -1 41 -1 #SUP: 5
77 -1 50 -1 #SUP: 4
77 -1 64 -1 #SUP: 8
77 -1 65 -1 #SUP: 13
77 -1 67 -1 #SUP: 4
77 -1 70 -1 #SUP: 2
77 -1 73 -1 #SUP: 2
77 -1 77 -1 #SUP: 20
77 -1 78 -1 #SUP: 4
77 -1 123 -1 #SUP: 23
77 -1 138 -1 #SUP: 2
77 -1 144 -1 #SUP: 2
77 -1 154 -1 #SUP: 8
77 -1 167 -1 #SUP: 3
77 -1 170 -1 #SUP: 8
77 -1 183 -1 #SUP: 6
77 -1 189 -1 #SUP: 3
77 -1 193 -1 #SUP: 5
77 -1 201 -1 #SUP: 6
77 -1 206 -1 #SUP: 4
77 -1 210 -1 #SUP: 2
77 -1 212 -1 #SUP: 5
77 -1 213 -1 #SUP: 2
77 -1 220 -1 #SUP: 3
77 -1 222 -1 #SUP: 4
77 -1 236 -1 #SUP: 2
77 -1 262 -1 #SUP: 5
77 -1 268 -1 #SUP: 2
77 -1 280 -1 #SUP: 3
77 -1 285 -1 #SUP: 3
77 -1 286 -1 #SUP: 2
77 -1 291 -1 #SUP: 4
77 -1 326 -1 #SUP: 3
77 -1 340 -1 #SUP: 2
77 -1 364 -1 #SUP: 7
77 -1 369 -1 #SUP: 2
77 -1 373 -1 #SUP: 2
77 -1 381 -1 #SUP: 2
77 -1 407 -1 #SUP: 4
77 -1 431 -1 #SUP: 3
77 -1 441 -1 #SUP: 4
77 -1 443 -1 #SUP: 2
77 -1 488 -1 #SUP: 2
77 -1 489 -1 #SUP: 2
77 -1 517 -1 #SUP: 2
77 -1 520 -1 #SUP: 3
77 -1 529 -1 #SUP: 2
77 -1 593 -1 #SUP: 2
77 -1 599 -1 #SUP: 12
77 -1 613 -1 #SUP: 2
77 -1 627 -1 #SUP: 2
77 -1 683 -1 #SUP: 5
77 -1 693 -1 #SUP: 4
77 -1 720 -1 #SUP: 2
77 -1 765 -1 #SUP: 2
77 -1 1001 -1 #SUP: 2
77 -1 1127 -1 #SUP: 2
77 -1 1163 -1 #SUP: 2
77 -1 1263 -1 #SUP: 2
77 -1 1351 -1 #SUP: 2
77 -1 1591 -1 #SUP: 2
77 -1 2006 -1 #SUP: 2
77 -1 2446 -1 #SUP: 2
77 -1 2555 -1 #SUP: 2
77 -1 3142 -1 #SUP: 2
77 -1 4096 -1 #SUP: 2
77 -1 5953 -1 #SUP: 2
78 -1 16 -1 #SUP: 2
78 -1 32 -1 #SUP: 2
78 -1 64 -1 #SUP: 2
78 -1 65 -1 #SUP: 4
78 -1 77 -1 #SUP: 7
78 -1 123 -1 #SUP: 4
78 -1 171 -1 #SUP: 2
78 -1 274 -1 #SUP: 2
78 -1 326 -1 #SUP: 2
78 -1 381 -1 #SUP: 2
78 -1 407 -1 #SUP: 2
78 -1 683 -1 #SUP: 3
78 -1 3439 -1 #SUP: 2
82 -1 77 -1 #SUP: 2
120 -1 64 -1 #SUP: 2
120 -1 77 -1 #SUP: 3
123 -1 2 -1 #SUP: 8
123 -1 3 -1 #SUP: 2
123 -1 10 -1 #SUP: 5
123 -1 22 -1 #SUP: 10
123 -1 29 -1 #SUP: 4
123 -1 31 -1 #SUP: 4
123 -1 32 -1 #SUP: 8
123 -1 33 -1 #SUP: 2
123 -1 41 -1 #SUP: 7
123 -1 50 -1 #SUP: 4
123 -1 64 -1 #SUP: 13
123 -1 65 -1 #SUP: 15
123 -1 67 -1 #SUP: 5
123 -1 75 -1 #SUP: 2
123 -1 77 -1 #SUP: 23
123 -1 120 -1 #SUP: 3
123 -1 123 -1 #SUP: 9
123 -1 138 -1 #SUP: 3
123 -1 144 -1 #SUP: 4
123 -1 151 -1 #SUP: 3
123 -1 153 -1 #SUP: 2
123 -1 154 -1 #SUP: 5
123 -1 160 -1 #SUP: 2
123 -1 162 -1 #SUP: 2
123 -1 164 -1 #SUP: 6
123 -1 171 -1 #SUP: 2
123 -1 174 -1 #SUP: 4
123 -1 189 -1 #SUP: 2
123 -1 193 -1 #SUP: 4
123 -1 201 -1 #SUP: 3
123 -1 206 -1 #SUP: 5
123 -1 210 -1 #SUP: 3
123 -1 212 -1 #SUP: 3
123 -1 220 -1 #SUP: 3
123 -1 222 -1 #SUP: 2
123 -1 256 -1 #SUP: 2
123 -1 262 -1 #SUP: 7
123 -1 268 -1 #SUP: 2
123 -1 276 -1 #SUP: 3
123 -1 285 -1 #SUP: 2
123 -1 286 -1 #SUP: 2
123 -1 291 -1 #SUP: 3
123 -1 340 -1 #SUP: 5
123 -1 373 -1 #SUP: 2
123 -1 407 -1 #SUP: 9
123 -1 411 -1 #SUP: 3
123 -1 431 -1 #SUP: 3
123 -1 441 -1 #SUP: 7
123 -1 517 -1 #SUP: 2
123 -1 529 -1 #SUP: 2
123 -1 593 -1 #SUP: 2
123 -1 599 -1 #SUP: 6
123 -1 613 -1 #SUP: 3
123 -1 627 -1 #SUP: 2
123 -1 693 -1 #SUP: 2
123 -1 765 -1 #SUP: 2
123 -1 908 -1 #SUP: 2
123 -1 1219 -1 #SUP: 2
123 -1 1242 -1 #SUP: 2
123 -1 1263 -1 #SUP: 2
123 -1 1320 -1 #SUP: 2
123 -1 1364 -1 #SUP: 3
123 -1 1591 -1 #SUP: 2
123 -1 3538 -1 #SUP: 2
123 -1 5953 -1 #SUP: 3
138 -1 41 -1 #SUP: 2
138 -1 77 -1 #SUP: 3
138 -1 123 -1 #SUP: 3
138 -1 189 -1 #SUP: 2
144 -1 32 -1 #SUP: 2
151 -1 64 -1 #SUP: 2
151 -1 77 -1 #SUP: 3
151 -1 153 -1 #SUP: 3
153 -1 64 -1 #SUP: 2
153 -1 77 -1 #SUP: 2
154 -1 2 -1 #SUP: 2
154 -1 22 -1 #SUP: 2
154 -1 65 -1 #SUP: 3
154 -1 77 -1 #SUP: 3
154 -1 123 -1 #SUP: 5
154 -1 164 -1 #SUP: 3
154 -1 170 -1 #SUP: 2
154 -1 441 -1 #SUP: 2
160 -1 22 -1 #SUP: 2
160 -1 64 -1 #SUP: 3
162 -1 32 -1 #SUP: 2
162 -1 64 -1 #SUP: 2
162 -1 77 -1 #SUP: 3
162 -1 123 -1 #SUP: 3
164 -1 22 -1 #SUP: 2
164 -1 41 -1 #SUP: 2
164 -1 65 -1 #SUP: 3
165 -1 64 -1 #SUP: 2
165 -1 67 -1 #SUP: 2
167 -1 123 -1 #SUP: 2
170 -1 22 -1 #SUP: 2
170 -1 64 -1 #SUP: 3
170 -1 65 -1 #SUP: 3
170 -1 77 -1 #SUP: 2
170 -1 154 -1 #SUP: 3
170 -1 222 -1 #SUP: 3
170 -1 326 -1 #SUP: 3
171 -1 2 -1 #SUP: 2
171 -1 77 -1 #SUP: 2
174 -1 22 -1 #SUP: 2
174 -1 65 -1 #SUP: 2
174 -1 77 -1 #SUP: 2
183 -1 2 -1 #SUP: 2
183 -1 123 -1 #SUP: 2
183 -1 154 -1 #SUP: 2
183 -1 683 -1 #SUP: 2
183 -1 693 -1 #SUP: 2
189 -1 64 -1 #SUP: 2
189 -1 77 -1 #SUP: 4
189 -1 123 -1 #SUP: 2
189 -1 170 -1 #SUP: 2
190 -1 22 -1 #SUP: 2
193 -1 77 -1 #SUP: 4
193 -1 165 -1 #SUP: 2
193 -1 212 -1 #SUP: 2
201 -1 10 -1 #SUP: 2
201 -1 67 -1 #SUP: 3
201 -1 123 -1 #SUP: 4
201 -1 154 -1 #SUP: 3
201 -1 164 -1 #SUP: 2
201 -1 183 -1 #SUP: 2
201 -1 223 -1 #SUP: 2
201 -1 226 -1 #SUP: 2
201 -1 369 -1 #SUP: 2
201 -1 441 -1 #SUP: 2
201 -1 693 -1 #SUP: 2
206 -1 10 -1 #SUP: 2
206 -1 41 -1 #SUP: 2
206 -1 65 -1 #SUP: 4
210 -1 123 -1 #SUP: 2
212 -1 64 -1 #SUP: 2
212 -1 65 -1 #SUP: 3
212 -1 77 -1 #SUP: 2
212 -1 201 -1 #SUP: 2
212 -1 212 -1 #SUP: 2
213 -1 77 -1 #SUP: 3
220 -1 2 -1 #SUP: 2
220 -1 77 -1 #SUP: 2
220 -1 4096 -1 #SUP: 2
222 -1 170 -1 #SUP: 2
222 -1 222 -1 #SUP: 2
223 -1 67 -1 #SUP: 3
226 -1 67 -1 #SUP: 3
226 -1 223 -1 #SUP: 2
235 -1 77 -1 #SUP: 3
236 -1 41 -1 #SUP: 2
236 -1 77 -1 #SUP: 5
236 -1 123 -1 #SUP: 3
236 -1 193 -1 #SUP: 3
246 -1 77 -1 #SUP: 2
254 -1 2 -1 #SUP: 2
254 -1 64 -1 #SUP: 3
254 -1 134 -1 #SUP: 2
262 -1 22 -1 #SUP: 2
262 -1 31 -1 #SUP: 2
262 -1 41 -1 #SUP: 3
262 -1 42 -1 #SUP: 2
262 -1 65 -1 #SUP: 3
262 -1 77 -1 #SUP: 2
262 -1 138 -1 #SUP: 2
262 -1 340 -1 #SUP: 2
262 -1 599 -1 #SUP: 2
274 -1 22 -1 #SUP: 2
274 -1 1127 -1 #SUP: 2
274 -1 2627 -1 #SUP: 2
278 -1 77 -1 #SUP: 2
280 -1 2 -1 #SUP: 4
280 -1 31 -1 #SUP: 2
280 -1 64 -1 #SUP: 2
280 -1 77 -1 #SUP: 2
280 -1 254 -1 #SUP: 2
280 -1 318 -1 #SUP: 2
285 -1 170 -1 #SUP: 3
286 -1 123 -1 #SUP: 2
291 -1 2 -1 #SUP: 2
291 -1 33 -1 #SUP: 2
291 -1 77 -1 #SUP: 3
291 -1 123 -1 #SUP: 2
291 -1 212 -1 #SUP: 2
318 -1 2 -1 #SUP: 2
326 -1 2 -1 #SUP: 2
326 -1 41 -1 #SUP: 2
326 -1 64 -1 #SUP: 2
326 -1 77 -1 #SUP: 3
326 -1 123 -1 #SUP: 2
326 -1 154 -1 #SUP: 2
326 -1 683 -1 #SUP: 5
340 -1 41 -1 #SUP: 2
340 -1 64 -1 #SUP: 2
340 -1 65 -1 #SUP: 4
340 -1 77 -1 #SUP: 4
340 -1 123 -1 #SUP: 3
340 -1 162 -1 #SUP: 2
340 -1 170 -1 #SUP: 2
340 -1 206 -1 #SUP: 2
340 -1 285 -1 #SUP: 2
340 -1 326 -1 #SUP: 2
356 -1 64 -1 #SUP: 2
356 -1 65 -1 #SUP: 2
356 -1 77 -1 #SUP: 2
364 -1 2 -1 #SUP: 4
364 -1 10 -1 #SUP: 2
364 -1 32 -1 #SUP: 2
364 -1 33 -1 #SUP: 2
364 -1 64 -1 #SUP: 3
364 -1 65 -1 #SUP: 3
364 -1 77 -1 #SUP: 2
364 -1 123 -1 #SUP: 3
364 -1 170 -1 #SUP: 2
364 -1 326 -1 #SUP: 3
364 -1 411 -1 #SUP: 2
364 -1 593 -1 #SUP: 2
364 -1 693 -1 #SUP: 2
369 -1 2 -1 #SUP: 2
369 -1 64 -1 #SUP: 2
369 -1 165 -1 #SUP: 2
373 -1 65 -1 #SUP: 2
381 -1 65 -1 #SUP: 3
381 -1 77 -1 #SUP: 2
381 -1 78 -1 #SUP: 2
381 -1 1169 -1 #SUP: 2
407 -1 2 -1 #SUP: 2
407 -1 3 -1 #SUP: 2
407 -1 31 -1 #SUP: 3
407 -1 64 -1 #SUP: 3
407 -1 65 -1 #SUP: 3
407 -1 77 -1 #SUP: 7
407 -1 123 -1 #SUP: 2
407 -1 138 -1 #SUP: 3
407 -1 189 -1 #SUP: 2
407 -1 262 -1 #SUP: 3
407 -1 291 -1 #SUP: 2
407 -1 5953 -1 #SUP: 2
408 -1 2 -1 #SUP: 2
408 -1 77 -1 #SUP: 2
411 -1 10 -1 #SUP: 3
411 -1 65 -1 #SUP: 2
431 -1 2 -1 #SUP: 2
431 -1 693 -1 #SUP: 2
441 -1 2 -1 #SUP: 2
441 -1 41 -1 #SUP: 2
441 -1 64 -1 #SUP: 5
441 -1 65 -1 #SUP: 4
441 -1 75 -1 #SUP: 2
441 -1 77 -1 #SUP: 4
441 -1 164 -1 #SUP: 2
441 -1 193 -1 #SUP: 2
441 -1 201 -1 #SUP: 2
441 -1 431 -1 #SUP: 2
441 -1 765 -1 #SUP: 2
443 -1 2 -1 #SUP: 2
443 -1 10 -1 #SUP: 2
443 -1 22 -1 #SUP: 2
443 -1 77 -1 #SUP: 2
443 -1 212 -1 #SUP: 2
443 -1 291 -1 #SUP: 2
443 -1 441 -1 #SUP: 2
465 -1 212 -1 #SUP: 2
489 -1 33 -1 #SUP: 2
499 -1 2 -1 #SUP: 3
499 -1 10 -1 #SUP: 2
499 -1 22 -1 #SUP: 2
499 -1 987 -1 #SUP: 2
520 -1 384 -1 #SUP: 2
533 -1 77 -1 #SUP: 3
549 -1 222 -1 #SUP: 2
589 -1 30 -1 #SUP: 2
596 -1 77 -1 #SUP: 2
599 -1 10 -1 #SUP: 2
599 -1 22 -1 #SUP: 3
599 -1 33 -1 #SUP: 2
599 -1 77 -1 #SUP: 4
599 -1 123 -1 #SUP: 7
599 -1 154 -1 #SUP: 3
599 -1 164 -1 #SUP: 2
599 -1 167 -1 #SUP: 2
599 -1 193 -1 #SUP: 2
599 -1 201 -1 #SUP: 2
599 -1 364 -1 #SUP: 2
599 -1 441 -1 #SUP: 2
599 -1 488 -1 #SUP: 2
599 -1 593 -1 #SUP: 2
599 -1 693 -1 #SUP: 2
613 -1 64 -1 #SUP: 2
627 -1 77 -1 #SUP: 2
627 -1 63254 -1 #SUP: 2
629 -1 280 -1 #SUP: 2
683 -1 2 -1 #SUP: 2
683 -1 29 -1 #SUP: 2
683 -1 64 -1 #SUP: 2
683 -1 77 -1 #SUP: 5
683 -1 123 -1 #SUP: 3
683 -1 280 -1 #SUP: 3
683 -1 340 -1 #SUP: 2
683 -1 683 -1 #SUP: 2
683 -1 1712 -1 #SUP: 2
683 -1 3142 -1 #SUP: 3
693 -1 77 -1 #SUP: 2
693 -1 123 -1 #SUP: 2
693 -1 154 -1 #SUP: 2
693 -1 167 -1 #SUP: 2
749 -1 77 -1 #SUP: 2
765 -1 77 -1 #SUP: 3
850 -1 77 -1 #SUP: 2
856 -1 41 -1 #SUP: 3
856 -1 520 -1 #SUP: 2
965 -1 32 -1 #SUP: 2
965 -1 65 -1 #SUP: 2
981 -1 2 -1 #SUP: 2
987 -1 2 -1 #SUP: 2
987 -1 10 -1 #SUP: 2
987 -1 22 -1 #SUP: 2
1103 -1 77 -1 #SUP: 2
1127 -1 10 -1 #SUP: 2
1127 -1 22 -1 #SUP: 3
1127 -1 77 -1 #SUP: 2
1127 -1 2627 -1 #SUP: 2
1163 -1 65 -1 #SUP: 2
1169 -1 65 -1 #SUP: 2
1169 -1 78 -1 #SUP: 2
1169 -1 3439 -1 #SUP: 2
1214 -1 2 -1 #SUP: 2
1214 -1 123 -1 #SUP: 2
1219 -1 32 -1 #SUP: 2
1238 -1 77 -1 #SUP: 2
1242 -1 77 -1 #SUP: 2
1276 -1 77 -1 #SUP: 2
1320 -1 64 -1 #SUP: 2
1364 -1 77 -1 #SUP: 2
1364 -1 164 -1 #SUP: 2
1413 -1 77 -1 #SUP: 2
1841 -1 77 -1 #SUP: 2
2446 -1 170 -1 #SUP: 2
2845 -1 32 -1 #SUP: 2
2864 -1 2 -1 #SUP: 2
2945 -1 77 -1 #SUP: 2
2945 -1 123 -1 #SUP: 2
3142 -1 77 -1 #SUP: 3
3142 -1 213 -1 #SUP: 2
3142 -1 683 -1 #SUP: 2
3142 -1 3142 -1 #SUP: 2
3439 -1 32 -1 #SUP: 2
3439 -1 77 -1 #SUP: 2
3439 -1 274 -1 #SUP: 2
3448 -1 2 -1 #SUP: 2
3538 -1 77 -1 #SUP: 2
3538 -1 123 -1 #SUP: 2
4377 -1 170 -1 #SUP: 2
5953 -1 77 -1 #SUP: 2
10254 -1 11839 -1 #SUP: 2
77951 -1 2 -1 #SUP: 2
77951 -1 77 -1 #SUP: 2
2 -1 10 -1 22 -1 #SUP: 3
2 -1 22 -1 42 -1 #SUP: 2
2 -1 77 -1 2 -1 #SUP: 2
2 -1 77 -1 123 -1 #SUP: 3
2 -1 77 -1 599 -1 #SUP: 5
2 -1 123 -1 64 -1 #SUP: 2
2 -1 123 -1 65 -1 #SUP: 2
2 -1 123 -1 77 -1 #SUP: 2
2 -1 123 -1 154 -1 #SUP: 2
2 -1 123 -1 441 -1 #SUP: 2
2 -1 223 -1 67 -1 #SUP: 2
3 -1 31 -1 65 -1 #SUP: 2
3 -1 31 -1 77 -1 #SUP: 2
3 -1 31 -1 138 -1 #SUP: 2
3 -1 64 -1 31 -1 #SUP: 2
3 -1 64 -1 65 -1 #SUP: 2
3 -1 64 -1 138 -1 #SUP: 2
3 -1 64 -1 262 -1 #SUP: 2
3 -1 65 -1 138 -1 #SUP: 2
3 -1 262 -1 31 -1 #SUP: 2
3 -1 262 -1 65 -1 #SUP: 2
3 -1 262 -1 138 -1 #SUP: 2
10 -1 22 -1 6896 -1 #SUP: 2
16 -1 77 -1 78 -1 #SUP: 2
16 -1 381 -1 78 -1 #SUP: 2
16 -1 381 -1 1169 -1 #SUP: 2
16 -1 1169 -1 78 -1 #SUP: 2
22 -1 31 -1 65 -1 #SUP: 2
22 -1 32 -1 22 -1 #SUP: 3
22 -1 41 -1 1238 -1 #SUP: 2
22 -1 50 -1 64 -1 #SUP: 2
22 -1 170 -1 326 -1 #SUP: 2
27 -1 41 -1 2 -1 #SUP: 2
27 -1 41 -1 77 -1 #SUP: 2
27 -1 77 -1 2 -1 #SUP: 2
29 -1 65 -1 41 -1 #SUP: 2
29 -1 170 -1 65 -1 #SUP: 2
29 -1 170 -1 222 -1 #SUP: 2
30 -1 30 -1 30 -1 #SUP: 3
30 -1 30 -1 50 -1 #SUP: 3
30 -1 50 -1 30 -1 #SUP: 3
30 -1 50 -1 50 -1 #SUP: 3
30 -1 123 -1 262 -1 #SUP: 2
31 -1 65 -1 77 -1 #SUP: 2
31 -1 65 -1 138 -1 #SUP: 3
31 -1 65 -1 189 -1 #SUP: 2
31 -1 77 -1 77 -1 #SUP: 2
31 -1 77 -1 212 -1 #SUP: 2
31 -1 138 -1 77 -1 #SUP: 2
31 -1 138 -1 189 -1 #SUP: 2
31 -1 189 -1 77 -1 #SUP: 2
31 -1 278 -1 77 -1 #SUP: 2
31 -1 318 -1 2 -1 #SUP: 2
32 -1 22 -1 29 -1 #SUP: 2
32 -1 22 -1 77 -1 #SUP: 2
32 -1 64 -1 67 -1 #SUP: 2
32 -1 65 -1 401 -1 #SUP: 2
32 -1 67 -1 123 -1 #SUP: 2
32 -1 77 -1 29 -1 #SUP: 3
32 -1 77 -1 123 -1 #SUP: 2
32 -1 274 -1 1127 -1 #SUP: 2
41 -1 77 -1 2 -1 #SUP: 3
41 -1 77 -1 29 -1 #SUP: 2
41 -1 77 -1 77 -1 #SUP: 2
41 -1 77 -1 123 -1 #SUP: 2
41 -1 193 -1 77 -1 #SUP: 2
41 -1 226 -1 67 -1 #SUP: 2
41 -1 1238 -1 77 -1 #SUP: 2
41 -1 77951 -1 2 -1 #SUP: 2
41 -1 77951 -1 77 -1 #SUP: 2
50 -1 2 -1 64 -1 #SUP: 2
50 -1 30 -1 30 -1 #SUP: 3
50 -1 30 -1 50 -1 #SUP: 2
50 -1 50 -1 30 -1 #SUP: 2
50 -1 64 -1 67 -1 #SUP: 2
50 -1 77 -1 2 -1 #SUP: 2
64 -1 22 -1 123 -1 #SUP: 2
64 -1 31 -1 65 -1 #SUP: 2
64 -1 31 -1 138 -1 #SUP: 2
64 -1 41 -1 77 -1 #SUP: 2
64 -1 41 -1 193 -1 #SUP: 2
64 -1 65 -1 138 -1 #SUP: 2
64 -1 77 -1 2 -1 #SUP: 2
64 -1 77 -1 41 -1 #SUP: 3
64 -1 77 -1 77 -1 #SUP: 3
64 -1 77 -1 123 -1 #SUP: 3
64 -1 77 -1 193 -1 #SUP: 2
64 -1 77 -1 201 -1 #SUP: 2
64 -1 77 -1 212 -1 #SUP: 2
64 -1 77 -1 599 -1 #SUP: 2
64 -1 78 -1 65 -1 #SUP: 2
64 -1 154 -1 123 -1 #SUP: 2
64 -1 193 -1 77 -1 #SUP: 2
64 -1 262 -1 31 -1 #SUP: 2
64 -1 262 -1 65 -1 #SUP: 2
64 -1 262 -1 138 -1 #SUP: 2
64 -1 765 -1 77 -1 #SUP: 3
64 -1 981 -1 2 -1 #SUP: 2
65 -1 2 -1 77 -1 #SUP: 2
65 -1 2 -1 599 -1 #SUP: 2
65 -1 32 -1 22 -1 #SUP: 2
65 -1 32 -1 64 -1 #SUP: 2
65 -1 32 -1 77 -1 #SUP: 2
65 -1 32 -1 222 -1 #SUP: 2
65 -1 32 -1 274 -1 #SUP: 2
65 -1 41 -1 64 -1 #SUP: 2
65 -1 64 -1 274 -1 #SUP: 2
65 -1 77 -1 22 -1 #SUP: 2
65 -1 77 -1 64 -1 #SUP: 2
65 -1 77 -1 123 -1 #SUP: 3
65 -1 77 -1 201 -1 #SUP: 2
65 -1 77 -1 599 -1 #SUP: 3
65 -1 138 -1 77 -1 #SUP: 2
65 -1 138 -1 189 -1 #SUP: 2
65 -1 189 -1 77 -1 #SUP: 2
65 -1 1219 -1 32 -1 #SUP: 2
65 -1 3439 -1 32 -1 #SUP: 2
65 -1 3439 -1 77 -1 #SUP: 2
65 -1 3439 -1 274 -1 #SUP: 2
70 -1 10 -1 15 -1 #SUP: 2
73 -1 77 -1 683 -1 #SUP: 2
73 -1 683 -1 77 -1 #SUP: 2
76 -1 64 -1 222 -1 #SUP: 2
77 -1 2 -1 2 -1 #SUP: 2
77 -1 2 -1 22 -1 #SUP: 2
77 -1 2 -1 77 -1 #SUP: 5
77 -1 2 -1 123 -1 #SUP: 3
77 -1 10 -1 22 -1 #SUP: 4
77 -1 22 -1 50 -1 #SUP: 2
77 -1 22 -1 64 -1 #SUP: 3
77 -1 29 -1 77 -1 #SUP: 2
77 -1 29 -1 170 -1 #SUP: 2
77 -1 32 -1 22 -1 #SUP: 2
77 -1 41 -1 77 -1 #SUP: 2
77 -1 41 -1 193 -1 #SUP: 3
77 -1 50 -1 64 -1 #SUP: 2
77 -1 64 -1 65 -1 #SUP: 2
77 -1 65 -1 32 -1 #SUP: 3
77 -1 65 -1 77 -1 #SUP: 2
77 -1 65 -1 720 -1 #SUP: 2
77 -1 65 -1 1591 -1 #SUP: 2
77 -1 73 -1 77 -1 #SUP: 2
77 -1 77 -1 2 -1 #SUP: 3
77 -1 77 -1 22 -1 #SUP: 4
77 -1 77 -1 64 -1 #SUP: 2
77 -1 77 -1 77 -1 #SUP: 5
77 -1 77 -1 123 -1 #SUP: 7
77 -1 77 -1 170 -1 #SUP: 2
77 -1 77 -1 599 -1 #SUP: 3
77 -1 78 -1 65 -1 #SUP: 2
77 -1 78 -1 77 -1 #SUP: 2
77 -1 123 -1 2 -1 #SUP: 2
77 -1 123 -1 22 -1 #SUP: 4
77 -1 123 -1 29 -1 #SUP: 2
77 -1 123 -1 33 -1 #SUP: 2
77 -1 123 -1 50 -1 #SUP: 2
77 -1 123 -1 64 -1 #SUP: 4
77 -1 123 -1 65 -1 #SUP: 3
77 -1 123 -1 67 -1 #SUP: 3
77 -1 123 -1 77 -1 #SUP: 6
77 -1 123 -1 123 -1 #SUP: 3
77 -1 123 -1 154 -1 #SUP: 2
77 -1 123 -1 193 -1 #SUP: 2
77 -1 123 -1 206 -1 #SUP: 2
77 -1 123 -1 210 -1 #SUP: 2
77 -1 123 -1 212 -1 #SUP: 3
77 -1 123 -1 220 -1 #SUP: 2
77 -1 123 -1 268 -1 #SUP: 2
77 -1 123 -1 286 -1 #SUP: 2
77 -1 123 -1 291 -1 #SUP: 2
77 -1 123 -1 373 -1 #SUP: 2
77 -1 123 -1 407 -1 #SUP: 4
77 -1 123 -1 441 -1 #SUP: 2
77 -1 123 -1 593 -1 #SUP: 2
77 -1 123 -1 1263 -1 #SUP: 2
77 -1 123 -1 5953 -1 #SUP: 2
77 -1 154 -1 123 -1 #SUP: 3
77 -1 170 -1 22 -1 #SUP: 2
77 -1 170 -1 154 -1 #SUP: 2
77 -1 183 -1 123 -1 #SUP: 2
77 -1 183 -1 154 -1 #SUP: 2
77 -1 183 -1 693 -1 #SUP: 2
77 -1 189 -1 77 -1 #SUP: 2
77 -1 193 -1 77 -1 #SUP: 3
77 -1 201 -1 10 -1 #SUP: 2
77 -1 201 -1 123 -1 #SUP: 3
77 -1 201 -1 154 -1 #SUP: 3
77 -1 201 -1 183 -1 #SUP: 2
77 -1 201 -1 693 -1 #SUP: 2
77 -1 206 -1 65 -1 #SUP: 2
77 -1 236 -1 77 -1 #SUP: 2
77 -1 236 -1 193 -1 #SUP: 2
77 -1 285 -1 170 -1 #SUP: 2
77 -1 286 -1 123 -1 #SUP: 2
77 -1 364 -1 32 -1 #SUP: 2
77 -1 364 -1 65 -1 #SUP: 2
77 -1 364 -1 170 -1 #SUP: 2
77 -1 407 -1 77 -1 #SUP: 3
77 -1 407 -1 291 -1 #SUP: 2
77 -1 441 -1 65 -1 #SUP: 2
77 -1 489 -1 33 -1 #SUP: 2
77 -1 599 -1 10 -1 #SUP: 2
77 -1 599 -1 22 -1 #SUP: 3
77 -1 599 -1 33 -1 #SUP: 2
77 -1 599 -1 77 -1 #SUP: 4
77 -1 599 -1 123 -1 #SUP: 7
77 -1 599 -1 154 -1 #SUP: 3
77 -1 599 -1 167 -1 #SUP: 2
77 -1 599 -1 193 -1 #SUP: 2
77 -1 599 -1 201 -1 #SUP: 2
77 -1 599 -1 364 -1 #SUP: 2
77 -1 599 -1 441 -1 #SUP: 2
77 -1 599 -1 488 -1 #SUP: 2
77 -1 599 -1 693 -1 #SUP: 2
77 -1 627 -1 77 -1 #SUP: 2
77 -1 683 -1 77 -1 #SUP: 3
77 -1 683 -1 3142 -1 #SUP: 2
77 -1 693 -1 123 -1 #SUP: 2
77 -1 693 -1 154 -1 #SUP: 2
77 -1 693 -1 167 -1 #SUP: 2
77 -1 2446 -1 170 -1 #SUP: 2
78 -1 32 -1 77 -1 #SUP: 2
78 -1 65 -1 32 -1 #SUP: 2
78 -1 65 -1 64 -1 #SUP: 2
78 -1 65 -1 77 -1 #SUP: 3
78 -1 65 -1 274 -1 #SUP: 2
78 -1 65 -1 381 -1 #SUP: 2
78 -1 65 -1 3439 -1 #SUP: 2
78 -1 77 -1 123 -1 #SUP: 4
78 -1 77 -1 407 -1 #SUP: 2
78 -1 123 -1 407 -1 #SUP: 2
78 -1 326 -1 77 -1 #SUP: 2
78 -1 326 -1 123 -1 #SUP: 2
78 -1 326 -1 683 -1 #SUP: 2
78 -1 683 -1 77 -1 #SUP: 3
78 -1 683 -1 123 -1 #SUP: 2
78 -1 3439 -1 32 -1 #SUP: 2
78 -1 3439 -1 77 -1 #SUP: 2
123 -1 2 -1 77 -1 #SUP: 2
123 -1 2 -1 599 -1 #SUP: 2
123 -1 3 -1 31 -1 #SUP: 2
123 -1 3 -1 64 -1 #SUP: 2
123 -1 3 -1 65 -1 #SUP: 2
123 -1 3 -1 138 -1 #SUP: 2
123 -1 3 -1 262 -1 #SUP: 2
123 -1 22 -1 32 -1 #SUP: 2
123 -1 22 -1 77 -1 #SUP: 2
123 -1 29 -1 22 -1 #SUP: 2
123 -1 29 -1 77 -1 #SUP: 2
123 -1 31 -1 65 -1 #SUP: 3
123 -1 31 -1 138 -1 #SUP: 3
123 -1 32 -1 22 -1 #SUP: 2
123 -1 32 -1 64 -1 #SUP: 2
123 -1 32 -1 65 -1 #SUP: 2
123 -1 32 -1 67 -1 #SUP: 2
123 -1 41 -1 77 -1 #SUP: 2
123 -1 41 -1 193 -1 #SUP: 2
123 -1 64 -1 2 -1 #SUP: 2
123 -1 64 -1 22 -1 #SUP: 2
123 -1 64 -1 29 -1 #SUP: 2
123 -1 64 -1 31 -1 #SUP: 2
123 -1 64 -1 41 -1 #SUP: 2
123 -1 64 -1 65 -1 #SUP: 3
123 -1 64 -1 67 -1 #SUP: 3
123 -1 64 -1 77 -1 #SUP: 6
123 -1 64 -1 123 -1 #SUP: 2
123 -1 64 -1 138 -1 #SUP: 2
123 -1 64 -1 144 -1 #SUP: 2
123 -1 64 -1 193 -1 #SUP: 2
123 -1 64 -1 262 -1 #SUP: 3
123 -1 64 -1 908 -1 #SUP: 2
123 -1 65 -1 2 -1 #SUP: 2
123 -1 65 -1 32 -1 #SUP: 2
123 -1 65 -1 75 -1 #SUP: 2
123 -1 65 -1 77 -1 #SUP: 3
123 -1 65 -1 123 -1 #SUP: 2
123 -1 65 -1 138 -1 #SUP: 3
123 -1 65 -1 431 -1 #SUP: 2
123 -1 65 -1 1219 -1 #SUP: 2
123 -1 77 -1 2 -1 #SUP: 4
123 -1 77 -1 22 -1 #SUP: 2
123 -1 77 -1 32 -1 #SUP: 2
123 -1 77 -1 41 -1 #SUP: 2
123 -1 77 -1 50 -1 #SUP: 2
123 -1 77 -1 65 -1 #SUP: 3
123 -1 77 -1 77 -1 #SUP: 4
123 -1 77 -1 123 -1 #SUP: 5
123 -1 77 -1 144 -1 #SUP: 2
123 -1 77 -1 193 -1 #SUP: 2
123 -1 77 -1 201 -1 #SUP: 2
123 -1 77 -1 407 -1 #SUP: 2
123 -1 77 -1 599 -1 #SUP: 6
123 -1 120 -1 77 -1 #SUP: 2
123 -1 123 -1 22 -1 #SUP: 2
123 -1 123 -1 50 -1 #SUP: 2
123 -1 123 -1 65 -1 #SUP: 2
123 -1 123 -1 407 -1 #SUP: 2
123 -1 123 -1 5953 -1 #SUP: 2
123 -1 144 -1 32 -1 #SUP: 2
123 -1 151 -1 153 -1 #SUP: 2
123 -1 154 -1 65 -1 #SUP: 2
123 -1 154 -1 164 -1 #SUP: 2
123 -1 160 -1 64 -1 #SUP: 2
123 -1 162 -1 123 -1 #SUP: 2
123 -1 164 -1 22 -1 #SUP: 2
123 -1 171 -1 77 -1 #SUP: 2
123 -1 174 -1 22 -1 #SUP: 2
123 -1 174 -1 65 -1 #SUP: 2
123 -1 174 -1 77 -1 #SUP: 2
123 -1 206 -1 41 -1 #SUP: 2
123 -1 206 -1 65 -1 #SUP: 3
123 -1 262 -1 31 -1 #SUP: 2
123 -1 262 -1 65 -1 #SUP: 2
123 -1 262 -1 138 -1 #SUP: 2
123 -1 286 -1 123 -1 #SUP: 2
123 -1 291 -1 77 -1 #SUP: 2
123 -1 340 -1 65 -1 #SUP: 3
123 -1 340 -1 77 -1 #SUP: 4
123 -1 340 -1 123 -1 #SUP: 2
123 -1 407 -1 2 -1 #SUP: 2
123 -1 407 -1 3 -1 #SUP: 2
123 -1 407 -1 31 -1 #SUP: 3
123 -1 407 -1 64 -1 #SUP: 3
123 -1 407 -1 65 -1 #SUP: 3
123 -1 407 -1 77 -1 #SUP: 7
123 -1 407 -1 138 -1 #SUP: 3
123 -1 407 -1 262 -1 #SUP: 3
123 -1 407 -1 291 -1 #SUP: 2
123 -1 407 -1 5953 -1 #SUP: 2
123 -1 411 -1 10 -1 #SUP: 2
123 -1 441 -1 41 -1 #SUP: 2
123 -1 441 -1 64 -1 #SUP: 2
123 -1 441 -1 65 -1 #SUP: 3
123 -1 441 -1 77 -1 #SUP: 3
123 -1 441 -1 164 -1 #SUP: 2
123 -1 441 -1 193 -1 #SUP: 2
123 -1 441 -1 431 -1 #SUP: 2
123 -1 1242 -1 77 -1 #SUP: 2
123 -1 1320 -1 64 -1 #SUP: 2
123 -1 1364 -1 77 -1 #SUP: 2
123 -1 1364 -1 164 -1 #SUP: 2
123 -1 3538 -1 77 -1 #SUP: 2
123 -1 3538 -1 123 -1 #SUP: 2
123 -1 5953 -1 77 -1 #SUP: 2
138 -1 77 -1 123 -1 #SUP: 2
138 -1 189 -1 77 -1 #SUP: 2
151 -1 153 -1 64 -1 #SUP: 2
162 -1 77 -1 32 -1 #SUP: 2
162 -1 123 -1 32 -1 #SUP: 2
162 -1 123 -1 77 -1 #SUP: 3
170 -1 326 -1 154 -1 #SUP: 2
183 -1 154 -1 123 -1 #SUP: 2
183 -1 693 -1 123 -1 #SUP: 2
183 -1 693 -1 154 -1 #SUP: 2
189 -1 77 -1 64 -1 #SUP: 2
189 -1 77 -1 123 -1 #SUP: 2
189 -1 77 -1 170 -1 #SUP: 2
201 -1 123 -1 164 -1 #SUP: 2
201 -1 154 -1 123 -1 #SUP: 3
201 -1 183 -1 123 -1 #SUP: 2
201 -1 183 -1 154 -1 #SUP: 2
201 -1 183 -1 693 -1 #SUP: 2
201 -1 223 -1 67 -1 #SUP: 2
201 -1 226 -1 67 -1 #SUP: 2
201 -1 226 -1 223 -1 #SUP: 2
201 -1 693 -1 123 -1 #SUP: 2
201 -1 693 -1 154 -1 #SUP: 2
226 -1 223 -1 67 -1 #SUP: 2
236 -1 41 -1 193 -1 #SUP: 2
236 -1 123 -1 77 -1 #SUP: 3
236 -1 123 -1 193 -1 #SUP: 2
236 -1 193 -1 77 -1 #SUP: 2
262 -1 31 -1 65 -1 #SUP: 2
262 -1 31 -1 138 -1 #SUP: 2
262 -1 41 -1 340 -1 #SUP: 2
262 -1 65 -1 138 -1 #SUP: 2
262 -1 77 -1 599 -1 #SUP: 2
274 -1 1127 -1 2627 -1 #SUP: 2
280 -1 31 -1 2 -1 #SUP: 2
280 -1 31 -1 318 -1 #SUP: 2
280 -1 318 -1 2 -1 #SUP: 2
291 -1 77 -1 212 -1 #SUP: 2
326 -1 77 -1 123 -1 #SUP: 2
326 -1 683 -1 77 -1 #SUP: 2
326 -1 683 -1 123 -1 #SUP: 2
340 -1 77 -1 65 -1 #SUP: 3
340 -1 123 -1 65 -1 #SUP: 3
340 -1 123 -1 206 -1 #SUP: 2
340 -1 206 -1 65 -1 #SUP: 2
340 -1 285 -1 170 -1 #SUP: 2
340 -1 326 -1 41 -1 #SUP: 2
364 -1 2 -1 10 -1 #SUP: 2
364 -1 65 -1 411 -1 #SUP: 2
364 -1 77 -1 123 -1 #SUP: 2
364 -1 77 -1 593 -1 #SUP: 2
364 -1 123 -1 593 -1 #SUP: 2
381 -1 65 -1 77 -1 #SUP: 2
381 -1 78 -1 65 -1 #SUP: 2
381 -1 1169 -1 65 -1 #SUP: 2
381 -1 1169 -1 78 -1 #SUP: 2
407 -1 3 -1 31 -1 #SUP: 2
407 -1 3 -1 64 -1 #SUP: 2
407 -1 3 -1 65 -1 #SUP: 2
407 -1 3 -1 138 -1 #SUP: 2
407 -1 3 -1 262 -1 #SUP: 2
407 -1 31 -1 65 -1 #SUP: 3
407 -1 31 -1 138 -1 #SUP: 3
407 -1 31 -1 189 -1 #SUP: 2
407 -1 64 -1 31 -1 #SUP: 2
407 -1 64 -1 65 -1 #SUP: 2
407 -1 64 -1 138 -1 #SUP: 2
407 -1 64 -1 262 -1 #SUP: 2
407 -1 65 -1 138 -1 #SUP: 3
407 -1 65 -1 189 -1 #SUP: 2
407 -1 77 -1 2 -1 #SUP: 2
407 -1 77 -1 77 -1 #SUP: 2
407 -1 77 -1 123 -1 #SUP: 2
407 -1 138 -1 189 -1 #SUP: 2
407 -1 262 -1 31 -1 #SUP: 2
407 -1 262 -1 65 -1 #SUP: 2
407 -1 262 -1 138 -1 #SUP: 2
407 -1 291 -1 77 -1 #SUP: 2
407 -1 5953 -1 77 -1 #SUP: 2
408 -1 77 -1 2 -1 #SUP: 2
411 -1 10 -1 65 -1 #SUP: 2
431 -1 2 -1 693 -1 #SUP: 2
441 -1 2 -1 201 -1 #SUP: 2
441 -1 41 -1 193 -1 #SUP: 2
441 -1 64 -1 41 -1 #SUP: 2
441 -1 64 -1 77 -1 #SUP: 3
441 -1 64 -1 193 -1 #SUP: 2
441 -1 64 -1 765 -1 #SUP: 2
441 -1 65 -1 75 -1 #SUP: 2
441 -1 65 -1 431 -1 #SUP: 2
441 -1 77 -1 41 -1 #SUP: 2
441 -1 77 -1 193 -1 #SUP: 2
441 -1 77 -1 201 -1 #SUP: 2
441 -1 765 -1 77 -1 #SUP: 2
443 -1 10 -1 22 -1 #SUP: 2
499 -1 2 -1 10 -1 #SUP: 2
499 -1 2 -1 22 -1 #SUP: 2
499 -1 10 -1 22 -1 #SUP: 2
499 -1 987 -1 2 -1 #SUP: 2
499 -1 987 -1 10 -1 #SUP: 2
499 -1 987 -1 22 -1 #SUP: 2
599 -1 10 -1 22 -1 #SUP: 2
599 -1 77 -1 123 -1 #SUP: 2
599 -1 123 -1 77 -1 #SUP: 2
599 -1 123 -1 164 -1 #SUP: 2
599 -1 123 -1 441 -1 #SUP: 2
599 -1 123 -1 593 -1 #SUP: 2
599 -1 154 -1 123 -1 #SUP: 2
599 -1 154 -1 164 -1 #SUP: 2
599 -1 201 -1 123 -1 #SUP: 2
599 -1 201 -1 154 -1 #SUP: 2
599 -1 441 -1 164 -1 #SUP: 2
599 -1 693 -1 167 -1 #SUP: 2
683 -1 77 -1 2 -1 #SUP: 2
683 -1 77 -1 77 -1 #SUP: 3
683 -1 77 -1 123 -1 #SUP: 2
683 -1 77 -1 683 -1 #SUP: 2
683 -1 3142 -1 77 -1 #SUP: 2
683 -1 3142 -1 683 -1 #SUP: 2
693 -1 154 -1 123 -1 #SUP: 2
856 -1 41 -1 520 -1 #SUP: 2
965 -1 65 -1 32 -1 #SUP: 2
987 -1 2 -1 10 -1 #SUP: 2
987 -1 2 -1 22 -1 #SUP: 2
987 -1 10 -1 22 -1 #SUP: 2
1103 -1 77 -1 77 -1 #SUP: 2
1127 -1 10 -1 22 -1 #SUP: 2
1127 -1 77 -1 22 -1 #SUP: 2
1169 -1 65 -1 3439 -1 #SUP: 2
1169 -1 78 -1 65 -1 #SUP: 2
1169 -1 78 -1 3439 -1 #SUP: 2
1214 -1 123 -1 2 -1 #SUP: 2
2945 -1 77 -1 123 -1 #SUP: 2
3142 -1 77 -1 683 -1 #SUP: 2
3142 -1 77 -1 3142 -1 #SUP: 2
3142 -1 683 -1 3142 -1 #SUP: 2
3439 -1 32 -1 77 -1 #SUP: 2
3439 -1 32 -1 274 -1 #SUP: 2
3538 -1 77 -1 123 -1 #SUP: 2
77951 -1 77 -1 2 -1 #SUP: 2
3 -1 31 -1 65 -1 138 -1 #SUP: 2
3 -1 64 -1 31 -1 65 -1 #SUP: 2
3 -1 64 -1 31 -1 138 -1 #SUP: 2
3 -1 64 -1 65 -1 138 -1 #SUP: 2
3 -1 64 -1 262 -1 31 -1 #SUP: 2
3 -1 64 -1 262 -1 65 -1 #SUP: 2
3 -1 64 -1 262 -1 138 -1 #SUP: 2
3 -1 262 -1 31 -1 65 -1 #SUP: 2
3 -1 262 -1 31 -1 138 -1 #SUP: 2
3 -1 262 -1 65 -1 138 -1 #SUP: 2
16 -1 381 -1 1169 -1 78 -1 #SUP: 2
27 -1 41 -1 77 -1 2 -1 #SUP: 2
30 -1 50 -1 30 -1 30 -1 #SUP: 2
30 -1 50 -1 30 -1 50 -1 #SUP: 2
30 -1 50 -1 50 -1 30 -1 #SUP: 2
31 -1 65 -1 138 -1 77 -1 #SUP: 2
31 -1 65 -1 138 -1 189 -1 #SUP: 2
31 -1 65 -1 189 -1 77 -1 #SUP: 2
31 -1 138 -1 189 -1 77 -1 #SUP: 2
41 -1 77 -1 77 -1 123 -1 #SUP: 2
41 -1 77951 -1 77 -1 2 -1 #SUP: 2
64 -1 31 -1 65 -1 138 -1 #SUP: 2
64 -1 41 -1 193 -1 77 -1 #SUP: 2
64 -1 77 -1 41 -1 77 -1 #SUP: 2
64 -1 77 -1 41 -1 193 -1 #SUP: 2
64 -1 77 -1 193 -1 77 -1 #SUP: 2
64 -1 262 -1 31 -1 65 -1 #SUP: 2
64 -1 262 -1 31 -1 138 -1 #SUP: 2
64 -1 262 -1 65 -1 138 -1 #SUP: 2
65 -1 2 -1 77 -1 599 -1 #SUP: 2
65 -1 138 -1 189 -1 77 -1 #SUP: 2
65 -1 3439 -1 32 -1 77 -1 #SUP: 2
65 -1 3439 -1 32 -1 274 -1 #SUP: 2
77 -1 2 -1 77 -1 2 -1 #SUP: 2
77 -1 2 -1 77 -1 123 -1 #SUP: 3
77 -1 22 -1 50 -1 64 -1 #SUP: 2
77 -1 41 -1 193 -1 77 -1 #SUP: 2
77 -1 77 -1 77 -1 77 -1 #SUP: 4
77 -1 123 -1 123 -1 22 -1 #SUP: 2
77 -1 123 -1 286 -1 123 -1 #SUP: 2
77 -1 123 -1 407 -1 77 -1 #SUP: 3
77 -1 123 -1 407 -1 291 -1 #SUP: 2
77 -1 183 -1 154 -1 123 -1 #SUP: 2
77 -1 183 -1 693 -1 123 -1 #SUP: 2
77 -1 183 -1 693 -1 154 -1 #SUP: 2
77 -1 201 -1 154 -1 123 -1 #SUP: 3
77 -1 201 -1 183 -1 123 -1 #SUP: 2
77 -1 201 -1 183 -1 154 -1 #SUP: 2
77 -1 201 -1 183 -1 693 -1 #SUP: 2
77 -1 201 -1 693 -1 123 -1 #SUP: 2
77 -1 201 -1 693 -1 154 -1 #SUP: 2
77 -1 236 -1 193 -1 77 -1 #SUP: 2
77 -1 599 -1 10 -1 22 -1 #SUP: 2
77 -1 599 -1 77 -1 123 -1 #SUP: 2
77 -1 599 -1 123 -1 77 -1 #SUP: 2
77 -1 599 -1 123 -1 441 -1 #SUP: 2
77 -1 599 -1 154 -1 123 -1 #SUP: 2
77 -1 599 -1 201 -1 123 -1 #SUP: 2
77 -1 599 -1 201 -1 154 -1 #SUP: 2
77 -1 599 -1 693 -1 167 -1 #SUP: 2
77 -1 693 -1 154 -1 123 -1 #SUP: 2
78 -1 65 -1 32 -1 77 -1 #SUP: 2
78 -1 65 -1 3439 -1 32 -1 #SUP: 2
78 -1 65 -1 3439 -1 77 -1 #SUP: 2
78 -1 77 -1 123 -1 407 -1 #SUP: 2
78 -1 326 -1 77 -1 123 -1 #SUP: 2
78 -1 326 -1 683 -1 77 -1 #SUP: 2
78 -1 326 -1 683 -1 123 -1 #SUP: 2
78 -1 683 -1 77 -1 123 -1 #SUP: 2
78 -1 3439 -1 32 -1 77 -1 #SUP: 2
123 -1 2 -1 77 -1 599 -1 #SUP: 2
123 -1 3 -1 31 -1 65 -1 #SUP: 2
123 -1 3 -1 31 -1 138 -1 #SUP: 2
123 -1 3 -1 64 -1 31 -1 #SUP: 2
123 -1 3 -1 64 -1 65 -1 #SUP: 2
123 -1 3 -1 64 -1 138 -1 #SUP: 2
123 -1 3 -1 64 -1 262 -1 #SUP: 2
123 -1 3 -1 65 -1 138 -1 #SUP: 2
123 -1 3 -1 262 -1 31 -1 #SUP: 2
123 -1 3 -1 262 -1 65 -1 #SUP: 2
123 -1 3 -1 262 -1 138 -1 #SUP: 2
123 -1 31 -1 65 -1 138 -1 #SUP: 3
123 -1 32 -1 64 -1 67 -1 #SUP: 2
123 -1 64 -1 31 -1 65 -1 #SUP: 2
123 -1 64 -1 31 -1 138 -1 #SUP: 2
123 -1 64 -1 41 -1 193 -1 #SUP: 2
123 -1 64 -1 65 -1 138 -1 #SUP: 2
123 -1 64 -1 77 -1 41 -1 #SUP: 2
123 -1 64 -1 77 -1 123 -1 #SUP: 2
123 -1 64 -1 77 -1 193 -1 #SUP: 2
123 -1 64 -1 262 -1 31 -1 #SUP: 2
123 -1 64 -1 262 -1 65 -1 #SUP: 2
123 -1 64 -1 262 -1 138 -1 #SUP: 2
123 -1 77 -1 41 -1 193 -1 #SUP: 2
123 -1 77 -1 123 -1 407 -1 #SUP: 2
123 -1 262 -1 31 -1 65 -1 #SUP: 2
123 -1 262 -1 31 -1 138 -1 #SUP: 2
123 -1 262 -1 65 -1 138 -1 #SUP: 2
123 -1 340 -1 77 -1 65 -1 #SUP: 3
123 -1 340 -1 123 -1 65 -1 #SUP: 2
123 -1 407 -1 3 -1 31 -1 #SUP: 2
123 -1 407 -1 3 -1 64 -1 #SUP: 2
123 -1 407 -1 3 -1 65 -1 #SUP: 2
123 -1 407 -1 3 -1 138 -1 #SUP: 2
123 -1 407 -1 3 -1 262 -1 #SUP: 2
123 -1 407 -1 31 -1 65 -1 #SUP: 3
123 -1 407 -1 31 -1 138 -1 #SUP: 3
123 -1 407 -1 64 -1 31 -1 #SUP: 2
123 -1 407 -1 64 -1 65 -1 #SUP: 2
123 -1 407 -1 64 -1 138 -1 #SUP: 2
123 -1 407 -1 64 -1 262 -1 #SUP: 2
123 -1 407 -1 65 -1 138 -1 #SUP: 3
123 -1 407 -1 77 -1 2 -1 #SUP: 2
123 -1 407 -1 262 -1 31 -1 #SUP: 2
123 -1 407 -1 262 -1 65 -1 #SUP: 2
123 -1 407 -1 262 -1 138 -1 #SUP: 2
123 -1 407 -1 291 -1 77 -1 #SUP: 2
123 -1 407 -1 5953 -1 77 -1 #SUP: 2
123 -1 441 -1 41 -1 193 -1 #SUP: 2
123 -1 441 -1 64 -1 41 -1 #SUP: 2
123 -1 441 -1 64 -1 77 -1 #SUP: 2
123 -1 441 -1 64 -1 193 -1 #SUP: 2
123 -1 441 -1 65 -1 431 -1 #SUP: 2
123 -1 441 -1 77 -1 41 -1 #SUP: 2
123 -1 441 -1 77 -1 193 -1 #SUP: 2
123 -1 3538 -1 77 -1 123 -1 #SUP: 2
162 -1 123 -1 77 -1 32 -1 #SUP: 2
183 -1 693 -1 154 -1 123 -1 #SUP: 2
201 -1 183 -1 154 -1 123 -1 #SUP: 2
201 -1 183 -1 693 -1 123 -1 #SUP: 2
201 -1 183 -1 693 -1 154 -1 #SUP: 2
201 -1 226 -1 223 -1 67 -1 #SUP: 2
201 -1 693 -1 154 -1 123 -1 #SUP: 2
262 -1 31 -1 65 -1 138 -1 #SUP: 2
280 -1 31 -1 318 -1 2 -1 #SUP: 2
326 -1 683 -1 77 -1 123 -1 #SUP: 2
340 -1 123 -1 206 -1 65 -1 #SUP: 2
364 -1 77 -1 123 -1 593 -1 #SUP: 2
381 -1 1169 -1 78 -1 65 -1 #SUP: 2
407 -1 3 -1 31 -1 65 -1 #SUP: 2
407 -1 3 -1 31 -1 138 -1 #SUP: 2
407 -1 3 -1 64 -1 31 -1 #SUP: 2
407 -1 3 -1 64 -1 65 -1 #SUP: 2
407 -1 3 -1 64 -1 138 -1 #SUP: 2
407 -1 3 -1 64 -1 262 -1 #SUP: 2
407 -1 3 -1 65 -1 138 -1 #SUP: 2
407 -1 3 -1 262 -1 31 -1 #SUP: 2
407 -1 3 -1 262 -1 65 -1 #SUP: 2
407 -1 3 -1 262 -1 138 -1 #SUP: 2
407 -1 31 -1 65 -1 138 -1 #SUP: 3
407 -1 31 -1 65 -1 189 -1 #SUP: 2
407 -1 31 -1 138 -1 189 -1 #SUP: 2
407 -1 64 -1 31 -1 65 -1 #SUP: 2
407 -1 64 -1 31 -1 138 -1 #SUP: 2
407 -1 64 -1 65 -1 138 -1 #SUP: 2
407 -1 64 -1 262 -1 31 -1 #SUP: 2
407 -1 64 -1 262 -1 65 -1 #SUP: 2
407 -1 64 -1 262 -1 138 -1 #SUP: 2
407 -1 65 -1 138 -1 189 -1 #SUP: 2
407 -1 262 -1 31 -1 65 -1 #SUP: 2
407 -1 262 -1 31 -1 138 -1 #SUP: 2
407 -1 262 -1 65 -1 138 -1 #SUP: 2
441 -1 64 -1 41 -1 193 -1 #SUP: 2
441 -1 64 -1 77 -1 41 -1 #SUP: 2
441 -1 64 -1 77 -1 193 -1 #SUP: 2
441 -1 64 -1 765 -1 77 -1 #SUP: 2
441 -1 77 -1 41 -1 193 -1 #SUP: 2
499 -1 2 -1 10 -1 22 -1 #SUP: 2
499 -1 987 -1 2 -1 10 -1 #SUP: 2
499 -1 987 -1 2 -1 22 -1 #SUP: 2
499 -1 987 -1 10 -1 22 -1 #SUP: 2
599 -1 123 -1 441 -1 164 -1 #SUP: 2
599 -1 201 -1 154 -1 123 -1 #SUP: 2
683 -1 3142 -1 77 -1 683 -1 #SUP: 2
987 -1 2 -1 10 -1 22 -1 #SUP: 2
1169 -1 78 -1 65 -1 3439 -1 #SUP: 2
3142 -1 77 -1 683 -1 3142 -1 #SUP: 2
3 -1 64 -1 31 -1 65 -1 138 -1 #SUP: 2
3 -1 64 -1 262 -1 31 -1 65 -1 #SUP: 2
3 -1 64 -1 262 -1 31 -1 138 -1 #SUP: 2
3 -1 64 -1 262 -1 65 -1 138 -1 #SUP: 2
3 -1 262 -1 31 -1 65 -1 138 -1 #SUP: 2
31 -1 65 -1 138 -1 189 -1 77 -1 #SUP: 2
64 -1 77 -1 41 -1 193 -1 77 -1 #SUP: 2
64 -1 262 -1 31 -1 65 -1 138 -1 #SUP: 2
77 -1 183 -1 693 -1 154 -1 123 -1 #SUP: 2
77 -1 201 -1 183 -1 154 -1 123 -1 #SUP: 2
77 -1 201 -1 183 -1 693 -1 123 -1 #SUP: 2
77 -1 201 -1 183 -1 693 -1 154 -1 #SUP: 2
77 -1 201 -1 693 -1 154 -1 123 -1 #SUP: 2
77 -1 599 -1 201 -1 154 -1 123 -1 #SUP: 2
78 -1 65 -1 3439 -1 32 -1 77 -1 #SUP: 2
78 -1 326 -1 683 -1 77 -1 123 -1 #SUP: 2
123 -1 3 -1 31 -1 65 -1 138 -1 #SUP: 2
123 -1 3 -1 64 -1 31 -1 65 -1 #SUP: 2
123 -1 3 -1 64 -1 31 -1 138 -1 #SUP: 2
123 -1 3 -1 64 -1 65 -1 138 -1 #SUP: 2
123 -1 3 -1 64 -1 262 -1 31 -1 #SUP: 2
123 -1 3 -1 64 -1 262 -1 65 -1 #SUP: 2
123 -1 3 -1 64 -1 262 -1 138 -1 #SUP: 2
123 -1 3 -1 262 -1 31 -1 65 -1 #SUP: 2
123 -1 3 -1 262 -1 31 -1 138 -1 #SUP: 2
123 -1 3 -1 262 -1 65 -1 138 -1 #SUP: 2
123 -1 64 -1 31 -1 65 -1 138 -1 #SUP: 2
123 -1 64 -1 77 -1 41 -1 193 -1 #SUP: 2
123 -1 64 -1 262 -1 31 -1 65 -1 #SUP: 2
123 -1 64 -1 262 -1 31 -1 138 -1 #SUP: 2
123 -1 64 -1 262 -1 65 -1 138 -1 #SUP: 2
123 -1 262 -1 31 -1 65 -1 138 -1 #SUP: 2
123 -1 407 -1 3 -1 31 -1 65 -1 #SUP: 2
123 -1 407 -1 3 -1 31 -1 138 -1 #SUP: 2
123 -1 407 -1 3 -1 64 -1 31 -1 #SUP: 2
123 -1 407 -1 3 -1 64 -1 65 -1 #SUP: 2
123 -1 407 -1 3 -1 64 -1 138 -1 #SUP: 2
123 -1 407 -1 3 -1 64 -1 262 -1 #SUP: 2
123 -1 407 -1 3 -1 65 -1 138 -1 #SUP: 2
123 -1 407 -1 3 -1 262 -1 31 -1 #SUP: 2
123 -1 407 -1 3 -1 262 -1 65 -1 #SUP: 2
123 -1 407 -1 3 -1 262 -1 138 -1 #SUP: 2
123 -1 407 -1 31 -1 65 -1 138 -1 #SUP: 3
123 -1 407 -1 64 -1 31 -1 65 -1 #SUP: 2
123 -1 407 -1 64 -1 31 -1 138 -1 #SUP: 2
123 -1 407 -1 64 -1 65 -1 138 -1 #SUP: 2
123 -1 407 -1 64 -1 262 -1 31 -1 #SUP: 2
123 -1 407 -1 64 -1 262 -1 65 -1 #SUP: 2
123 -1 407 -1 64 -1 262 -1 138 -1 #SUP: 2
123 -1 407 -1 262 -1 31 -1 65 -1 #SUP: 2
123 -1 407 -1 262 -1 31 -1 138 -1 #SUP: 2
123 -1 407 -1 262 -1 65 -1 138 -1 #SUP: 2
123 -1 441 -1 64 -1 41 -1 193 -1 #SUP: 2
123 -1 441 -1 64 -1 77 -1 41 -1 #SUP: 2
123 -1 441 -1 64 -1 77 -1 193 -1 #SUP: 2
123 -1 441 -1 77 -1 41 -1 193 -1 #SUP: 2
201 -1 183 -1 693 -1 154 -1 123 -1 #SUP: 2
407 -1 3 -1 31 -1 65 -1 138 -1 #SUP: 2
407 -1 3 -1 64 -1 31 -1 65 -1 #SUP: 2
407 -1 3 -1 64 -1 31 -1 138 -1 #SUP: 2
407 -1 3 -1 64 -1 65 -1 138 -1 #SUP: 2
407 -1 3 -1 64 -1 262 -1 31 -1 #SUP: 2
407 -1 3 -1 64 -1 262 -1 65 -1 #SUP: 2
407 -1 3 -1 64 -1 262 -1 138 -1 #SUP: 2
407 -1 3 -1 262 -1 31 -1 65 -1 #SUP: 2
407 -1 3 -1 262 -1 31 -1 138 -1 #SUP: 2
407 -1 3 -1 262 -1 65 -1 138 -1 #SUP: 2
407 -1 31 -1 65 -1 138 -1 189 -1 #SUP: 2
407 -1 64 -1 31 -1 65 -1 138 -1 #SUP: 2
407 -1 64 -1 262 -1 31 -1 65 -1 #SUP: 2
407 -1 64 -1 262 -1 31 -1 138 -1 #SUP: 2
407 -1 64 -1 262 -1 65 -1 138 -1 #SUP: 2
407 -1 262 -1 31 -1 65 -1 138 -1 #SUP: 2
441 -1 64 -1 77 -1 41 -1 193 -1 #SUP: 2
499 -1 987 -1 2 -1 10 -1 22 -1 #SUP: 2
3 -1 64 -1 262 -1 31 -1 65 -1 138 -1 #SUP: 2
77 -1 201 -1 183 -1 693 -1 154 -1 123 -1 #SUP: 2
123 -1 3 -1 64 -1 31 -1 65 -1 138 -1 #SUP: 2
123 -1 3 -1 64 -1 262 -1 31 -1 65 -1 #SUP: 2
123 -1 3 -1 64 -1 262 -1 31 -1 138 -1 #SUP: 2
123 -1 3 -1 64 -1 262 -1 65 -1 138 -1 #SUP: 2
123 -1 3 -1 262 -1 31 -1 65 -1 138 -1 #SUP: 2
123 -1 64 -1 262 -1 31 -1 65 -1 138 -1 #SUP: 2
123 -1 407 -1 3 -1 31 -1 65 -1 138 -1 #SUP: 2
123 -1 407 -1 3 -1 64 -1 31 -1 65 -1 #SUP: 2
123 -1 407 -1 3 -1 64 -1 31 -1 138 -1 #SUP: 2
123 -1 407 -1 3 -1 64 -1 65 -1 138 -1 #SUP: 2
123 -1 407 -1 3 -1 64 -1 262 -1 31 -1 #SUP: 2
123 -1 407 -1 3 -1 64 -1 262 -1 65 -1 #SUP: 2
123 -1 407 -1 3 -1 64 -1 262 -1 138 -1 #SUP: 2
123 -1 407 -1 3 -1 262 -1 31 -1 65 -1 #SUP: 2
123 -1 407 -1 3 -1 262 -1 31 -1 138 -1 #SUP: 2
123 -1 407 -1 3 -1 262 -1 65 -1 138 -1 #SUP: 2
123 -1 407 -1 64 -1 31 -1 65 -1 138 -1 #SUP: 2
123 -1 407 -1 64 -1 262 -1 31 -1 65 -1 #SUP: 2
123 -1 407 -1 64 -1 262 -1 31 -1 138 -1 #SUP: 2
123 -1 407 -1 64 -1 262 -1 65 -1 138 -1 #SUP: 2
123 -1 407 -1 262 -1 31 -1 65 -1 138 -1 #SUP: 2
123 -1 441 -1 64 -1 77 -1 41 -1 193 -1 #SUP: 2
407 -1 3 -1 64 -1 31 -1 65 -1 138 -1 #SUP: 2
407 -1 3 -1 64 -1 262 -1 31 -1 65 -1 #SUP: 2
407 -1 3 -1 64 -1 262 -1 31 -1 138 -1 #SUP: 2
407 -1 3 -1 64 -1 262 -1 65 -1 138 -1 #SUP: 2
407 -1 3 -1 262 -1 31 -1 65 -1 138 -1 #SUP: 2
407 -1 64 -1 262 -1 31 -1 65 -1 138 -1 #SUP: 2
123 -1 3 -1 64 -1 262 -1 31 -1 65 -1 138 -1 #SUP: 2
123 -1 407 -1 3 -1 64 -1 31 -1 65 -1 138 -1 #SUP: 2
123 -1 407 -1 3 -1 64 -1 262 -1 31 -1 65 -1 #SUP: 2
123 -1 407 -1 3 -1 64 -1 262 -1 31 -1 138 -1 #SUP: 2
123 -1 407 -1 3 -1 64 -1 262 -1 65 -1 138 -1 #SUP: 2
123 -1 407 -1 3 -1 262 -1 31 -1 65 -1 138 -1 #SUP: 2
123 -1 407 -1 64 -1 262 -1 31 -1 65 -1 138 -1 #SUP: 2
407 -1 3 -1 64 -1 262 -1 31 -1 65 -1 138 -1 #SUP: 2
123 -1 407 -1 3 -1 64 -1 262 -1 31 -1 65 -1 138 -1 #SUP: 2
