2 -1 #SUP: 39
3 -1 #SUP: 2
7 -1 #SUP: 2
10 -1 #SUP: 10
13 -1 #SUP: 4
15 -1 #SUP: 3
16 -1 #SUP: 6
22 -1 #SUP: 27
27 -1 #SUP: 10
29 -1 #SUP: 6
30 -1 #SUP: 3
31 -1 #SUP: 17
32 -1 #SUP: 16
33 -1 #SUP: 13
35 -1 #SUP: 3
41 -1 #SUP: 24
50 -1 #SUP: 17
54 -1 #SUP: 2
64 -1 #SUP: 30
65 -1 #SUP: 30
66 -1 #SUP: 3
67 -1 #SUP: 8
70 -1 #SUP: 7
75 -1 #SUP: 3
77 -1 #SUP: 46
78 -1 #SUP: 9
117 -1 #SUP: 3
120 -1 #SUP: 10
123 -1 #SUP: 86
134 -1 #SUP: 5
144 -1 #SUP: 10
152 -1 #SUP: 3
154 -1 #SUP: 16
156 -1 #SUP: 5
157 -1 #SUP: 2
160 -1 #SUP: 3
162 -1 #SUP: 4
164 -1 #SUP: 13
165 -1 #SUP: 6
167 -1 #SUP: 2
168 -1 #SUP: 5
170 -1 #SUP: 19
174 -1 #SUP: 9
175 -1 #SUP: 2
183 -1 #SUP: 12
193 -1 #SUP: 12
197 -1 #SUP: 2
198 -1 #SUP: 10
200 -1 #SUP: 4
201 -1 #SUP: 3
206 -1 #SUP: 4
210 -1 #SUP: 2
212 -1 #SUP: 5
213 -1 #SUP: 3
220 -1 #SUP: 4
222 -1 #SUP: 13
223 -1 #SUP: 2
224 -1 #SUP: 3
225 -1 #SUP: 5
226 -1 #SUP: 2
236 -1 #SUP: 10
237 -1 #SUP: 2
243 -1 #SUP: 2
248 -1 #SUP: 3
254 -1 #SUP: 3
256 -1 #SUP: 3
259 -1 #SUP: 2
260 -1 #SUP: 3
262 -1 #SUP: 6
268 -1 #SUP: 2
276 -1 #SUP: 4
278 -1 #SUP: 3
285 -1 #SUP: 4
286 -1 #SUP: 10
291 -1 #SUP: 8
308 -1 #SUP: 4
309 -1 #SUP: 2
317 -1 #SUP: 2
326 -1 #SUP: 6
334 -1 #SUP: 2
340 -1 #SUP: 4
349 -1 #SUP: 11
356 -1 #SUP: 14
364 -1 #SUP: 8
369 -1 #SUP: 2
373 -1 #SUP: 3
384 -1 #SUP: 2
401 -1 #SUP: 3
407 -1 #SUP: 2
417 -1 #SUP: 4
425 -1 #SUP: 2
431 -1 #SUP: 10
441 -1 #SUP: 13
443 -1 #SUP: 2
477 -1 #SUP: 5
483 -1 #SUP: 4
499 -1 #SUP: 4
505 -1 #SUP: 2
517 -1 #SUP: 2
518 -1 #SUP: 2
520 -1 #SUP: 7
544 -1 #SUP: 2
547 -1 #SUP: 4
548 -1 #SUP: 2
566 -1 #SUP: 6
567 -1 #SUP: 3
599 -1 #SUP: 11
608 -1 #SUP: 2
613 -1 #SUP: 8
618 -1 #SUP: 2
630 -1 #SUP: 2
638 -1 #SUP: 3
651 -1 #SUP: 3
668 -1 #SUP: 4
670 -1 #SUP: 2
683 -1 #SUP: 4
691 -1 #SUP: 2
693 -1 #SUP: 5
711 -1 #SUP: 2
720 -1 #SUP: 2
737 -1 #SUP: 2
740 -1 #SUP: 5
749 -1 #SUP: 2
755 -1 #SUP: 2
756 -1 #SUP: 4
768 -1 #SUP: 2
781 -1 #SUP: 3
788 -1 #SUP: 2
823 -1 #SUP: 5
840 -1 #SUP: 3
850 -1 #SUP: 2
852 -1 #SUP: 3
856 -1 #SUP: 5
872 -1 #SUP: 2
879 -1 #SUP: 2
921 -1 #SUP: 2
936 -1 #SUP: 3
995 -1 #SUP: 2
1002 -1 #SUP: 2
1008 -1 #SUP: 2
1035 -1 #SUP: 2
1081 -1 #SUP: 2
1141 -1 #SUP: 2
1193 -1 #SUP: 3
1212 -1 #SUP: 2
1214 -1 #SUP: 2
1217 -1 #SUP: 2
1218 -1 #SUP: 2
1224 -1 #SUP: 4
1276 -1 #SUP: 2
1360 -1 #SUP: 2
1364 -1 #SUP: 2
1433 -1 #SUP: 2
1461 -1 #SUP: 3
1489 -1 #SUP: 2
1498 -1 #SUP: 2
1574 -1 #SUP: 2
1672 -1 #SUP: 4
1700 -1 #SUP: 3
1712 -1 #SUP: 2
1737 -1 #SUP: 2
1758 -1 #SUP: 6
1838 -1 #SUP: 2
1913 -1 #SUP: 2
1945 -1 #SUP: 2
1952 -1 #SUP: 2
2096 -1 #SUP: 2
2163 -1 #SUP: 3
2257 -1 #SUP: 2
2551 -1 #SUP: 2
2612 -1 #SUP: 2
2813 -1 #SUP: 2
2849 -1 #SUP: 6
3000 -1 #SUP: 2
3060 -1 #SUP: 2
3261 -1 #SUP: 2
3336 -1 #SUP: 2
3812 -1 #SUP: 2
4018 -1 #SUP: 2
4377 -1 #SUP: 2
4726 -1 #SUP: 2
4833 -1 #SUP: 2
7112 -1 #SUP: 2
11353 -1 #SUP: 3
17709 -1 #SUP: 2
27010 -1 #SUP: 2
30807 -1 #SUP: 2
2 -1 2 -1 #SUP: 6
2 -1 10 -1 #SUP: 2
2 -1 22 -1 #SUP: 2
2 -1 27 -1 #SUP: 3
2 -1 29 -1 #SUP: 2
2 -1 32 -1 #SUP: 4
2 -1 33 -1 #SUP: 2
2 -1 41 -1 #SUP: 2
2 -1 50 -1 #SUP: 4
2 -1 64 -1 #SUP: 6
2 -1 65 -1 #SUP: 2
2 -1 67 -1 #SUP: 2
2 -1 77 -1 #SUP: 5
2 -1 123 -1 #SUP: 9
2 -1 164 -1 #SUP: 4
2 -1 165 -1 #SUP: 2
2 -1 170 -1 #SUP: 2
2 -1 198 -1 #SUP: 6
2 -1 213 -1 #SUP: 2
2 -1 222 -1 #SUP: 2
2 -1 224 -1 #SUP: 3
2 -1 225 -1 #SUP: 4
2 -1 236 -1 #SUP: 2
2 -1 256 -1 #SUP: 2
2 -1 349 -1 #SUP: 3
2 -1 356 -1 #SUP: 2
2 -1 441 -1 #SUP: 2
2 -1 599 -1 #SUP: 2
2 -1 1224 -1 #SUP: 3
2 -1 1672 -1 #SUP: 2
2 -1 2096 -1 #SUP: 2
2 -1 3060 -1 #SUP: 2
7 -1 64 -1 #SUP: 2
10 -1 65 -1 #SUP: 5
10 -1 77 -1 #SUP: 2
10 -1 123 -1 #SUP: 2
10 -1 154 -1 #SUP: 2
10 -1 170 -1 #SUP: 3
15 -1 2 -1 #SUP: 2
15 -1 64 -1 #SUP: 2
15 -1 77 -1 #SUP: 2
16 -1 77 -1 #SUP: 5
16 -1 154 -1 #SUP: 2
16 -1 170 -1 #SUP: 2
22 -1 2 -1 #SUP: 9
22 -1 15 -1 #SUP: 2
22 -1 22 -1 #SUP: 3
22 -1 27 -1 #SUP: 2
22 -1 32 -1 #SUP: 4
22 -1 54 -1 #SUP: 2
22 -1 64 -1 #SUP: 2
22 -1 75 -1 #SUP: 2
22 -1 77 -1 #SUP: 3
22 -1 123 -1 #SUP: 6
22 -1 164 -1 #SUP: 3
22 -1 170 -1 #SUP: 2
22 -1 193 -1 #SUP: 2
22 -1 259 -1 #SUP: 2
22 -1 291 -1 #SUP: 2
22 -1 340 -1 #SUP: 2
22 -1 349 -1 #SUP: 2
22 -1 431 -1 #SUP: 2
22 -1 755 -1 #SUP: 2
22 -1 879 -1 #SUP: 2
22 -1 11353 -1 #SUP: 3
27 -1 2 -1 #SUP: 2
27 -1 41 -1 #SUP: 3
27 -1 67 -1 #SUP: 2
27 -1 123 -1 #SUP: 3
27 -1 144 -1 #SUP: 3
27 -1 156 -1 #SUP: 2
27 -1 170 -1 #SUP: 2
27 -1 256 -1 #SUP: 2
27 -1 334 -1 #SUP: 2
27 -1 349 -1 #SUP: 2
27 -1 356 -1 #SUP: 2
29 -1 41 -1 #SUP: 3
29 -1 156 -1 #SUP: 2
29 -1 262 -1 #SUP: 2
31 -1 22 -1 #SUP: 2
31 -1 32 -1 #SUP: 2
31 -1 41 -1 #SUP: 2
31 -1 64 -1 #SUP: 2
31 -1 77 -1 #SUP: 3
31 -1 123 -1 #SUP: 2
31 -1 164 -1 #SUP: 2
31 -1 222 -1 #SUP: 4
31 -1 236 -1 #SUP: 2
32 -1 2 -1 #SUP: 4
32 -1 50 -1 #SUP: 2
32 -1 77 -1 #SUP: 2
32 -1 123 -1 #SUP: 3
32 -1 152 -1 #SUP: 2
32 -1 222 -1 #SUP: 2
32 -1 262 -1 #SUP: 2
32 -1 276 -1 #SUP: 2
32 -1 340 -1 #SUP: 2
33 -1 32 -1 #SUP: 2
33 -1 41 -1 #SUP: 2
33 -1 77 -1 #SUP: 2
33 -1 78 -1 #SUP: 2
33 -1 123 -1 #SUP: 2
33 -1 152 -1 #SUP: 2
33 -1 164 -1 #SUP: 2
35 -1 123 -1 #SUP: 2
41 -1 2 -1 #SUP: 3
41 -1 16 -1 #SUP: 2
41 -1 22 -1 #SUP: 2
41 -1 29 -1 #SUP: 2
41 -1 31 -1 #SUP: 2
41 -1 41 -1 #SUP: 2
41 -1 64 -1 #SUP: 3
41 -1 65 -1 #SUP: 3
41 -1 67 -1 #SUP: 2
41 -1 77 -1 #SUP: 3
41 -1 123 -1 #SUP: 3
41 -1 154 -1 #SUP: 3
41 -1 160 -1 #SUP: 2
41 -1 164 -1 #SUP: 2
41 -1 170 -1 #SUP: 4
41 -1 183 -1 #SUP: 2
41 -1 286 -1 #SUP: 2
41 -1 309 -1 #SUP: 2
41 -1 441 -1 #SUP: 4
50 -1 2 -1 #SUP: 4
50 -1 31 -1 #SUP: 3
50 -1 65 -1 #SUP: 4
50 -1 77 -1 #SUP: 3
50 -1 123 -1 #SUP: 8
50 -1 165 -1 #SUP: 2
50 -1 168 -1 #SUP: 2
50 -1 170 -1 #SUP: 4
50 -1 222 -1 #SUP: 2
50 -1 224 -1 #SUP: 2
50 -1 356 -1 #SUP: 2
50 -1 613 -1 #SUP: 2
50 -1 740 -1 #SUP: 2
50 -1 788 -1 #SUP: 2
50 -1 2163 -1 #SUP: 3
50 -1 2849 -1 #SUP: 4
50 -1 4018 -1 #SUP: 2
64 -1 2 -1 #SUP: 6
64 -1 10 -1 #SUP: 2
64 -1 13 -1 #SUP: 2
64 -1 22 -1 #SUP: 2
64 -1 29 -1 #SUP: 2
64 -1 32 -1 #SUP: 3
64 -1 41 -1 #SUP: 3
64 -1 50 -1 #SUP: 3
64 -1 64 -1 #SUP: 2
64 -1 65 -1 #SUP: 3
64 -1 67 -1 #SUP: 4
64 -1 77 -1 #SUP: 5
64 -1 123 -1 #SUP: 3
64 -1 134 -1 #SUP: 2
64 -1 144 -1 #SUP: 2
64 -1 154 -1 #SUP: 2
64 -1 164 -1 #SUP: 3
64 -1 225 -1 #SUP: 2
64 -1 236 -1 #SUP: 3
64 -1 262 -1 #SUP: 2
64 -1 291 -1 #SUP: 2
64 -1 349 -1 #SUP: 2
64 -1 356 -1 #SUP: 2
64 -1 441 -1 #SUP: 3
64 -1 599 -1 #SUP: 2
64 -1 852 -1 #SUP: 2
64 -1 1489 -1 #SUP: 2
64 -1 3261 -1 #SUP: 2
65 -1 2 -1 #SUP: 3
65 -1 13 -1 #SUP: 4
65 -1 16 -1 #SUP: 2
65 -1 22 -1 #SUP: 2
65 -1 32 -1 #SUP: 5
65 -1 33 -1 #SUP: 2
65 -1 41 -1 #SUP: 3
65 -1 64 -1 #SUP: 8
65 -1 65 -1 #SUP: 2
65 -1 75 -1 #SUP: 2
65 -1 77 -1 #SUP: 8
65 -1 78 -1 #SUP: 2
65 -1 123 -1 #SUP: 7
65 -1 144 -1 #SUP: 3
65 -1 154 -1 #SUP: 2
65 -1 165 -1 #SUP: 2
65 -1 168 -1 #SUP: 3
65 -1 170 -1 #SUP: 3
65 -1 222 -1 #SUP: 2
65 -1 286 -1 #SUP: 2
65 -1 401 -1 #SUP: 2
65 -1 431 -1 #SUP: 3
65 -1 599 -1 #SUP: 3
65 -1 608 -1 #SUP: 2
65 -1 693 -1 #SUP: 2
65 -1 720 -1 #SUP: 2
65 -1 1212 -1 #SUP: 2
65 -1 2551 -1 #SUP: 2
66 -1 32 -1 #SUP: 2
67 -1 2 -1 #SUP: 2
67 -1 22 -1 #SUP: 2
67 -1 77 -1 #SUP: 2
67 -1 78 -1 #SUP: 2
70 -1 64 -1 #SUP: 2
70 -1 65 -1 #SUP: 5
70 -1 77 -1 #SUP: 2
70 -1 123 -1 #SUP: 2
70 -1 170 -1 #SUP: 2
70 -1 356 -1 #SUP: 2
70 -1 431 -1 #SUP: 2
70 -1 599 -1 #SUP: 2
70 -1 1700 -1 #SUP: 2
77 -1 2 -1 #SUP: 9
77 -1 3 -1 #SUP: 2
77 -1 10 -1 #SUP: 3
77 -1 16 -1 #SUP: 2
77 -1 22 -1 #SUP: 4
77 -1 27 -1 #SUP: 2
77 -1 31 -1 #SUP: 3
77 -1 32 -1 #SUP: 3
77 -1 41 -1 #SUP: 4
77 -1 50 -1 #SUP: 3
77 -1 64 -1 #SUP: 7
77 -1 65 -1 #SUP: 6
77 -1 67 -1 #SUP: 3
77 -1 77 -1 #SUP: 10
77 -1 123 -1 #SUP: 15
77 -1 144 -1 #SUP: 3
77 -1 154 -1 #SUP: 5
77 -1 162 -1 #SUP: 2
77 -1 164 -1 #SUP: 2
77 -1 165 -1 #SUP: 3
77 -1 170 -1 #SUP: 3
77 -1 174 -1 #SUP: 2
77 -1 183 -1 #SUP: 2
77 -1 193 -1 #SUP: 3
77 -1 198 -1 #SUP: 3
77 -1 236 -1 #SUP: 4
77 -1 286 -1 #SUP: 2
77 -1 431 -1 #SUP: 3
77 -1 441 -1 #SUP: 2
77 -1 566 -1 #SUP: 2
77 -1 599 -1 #SUP: 8
77 -1 670 -1 #SUP: 2
77 -1 711 -1 #SUP: 2
77 -1 781 -1 #SUP: 2
77 -1 1224 -1 #SUP: 2
77 -1 1758 -1 #SUP: 2
77 -1 1838 -1 #SUP: 2
78 -1 16 -1 #SUP: 2
78 -1 29 -1 #SUP: 2
78 -1 41 -1 #SUP: 4
78 -1 64 -1 #SUP: 4
78 -1 78 -1 #SUP: 2
78 -1 123 -1 #SUP: 2
78 -1 144 -1 #SUP: 2
78 -1 160 -1 #SUP: 2
120 -1 64 -1 #SUP: 2
120 -1 164 -1 #SUP: 2
120 -1 183 -1 #SUP: 2
120 -1 193 -1 #SUP: 2
120 -1 236 -1 #SUP: 2
120 -1 286 -1 #SUP: 2
120 -1 349 -1 #SUP: 2
120 -1 425 -1 #SUP: 2
120 -1 1672 -1 #SUP: 2
123 -1 2 -1 #SUP: 11
123 -1 3 -1 #SUP: 2
123 -1 10 -1 #SUP: 4
123 -1 16 -1 #SUP: 3
123 -1 22 -1 #SUP: 11
123 -1 27 -1 #SUP: 4
123 -1 29 -1 #SUP: 4
123 -1 30 -1 #SUP: 2
123 -1 31 -1 #SUP: 5
123 -1 32 -1 #SUP: 4
123 -1 33 -1 #SUP: 9
123 -1 41 -1 #SUP: 6
123 -1 50 -1 #SUP: 8
123 -1 64 -1 #SUP: 13
123 -1 65 -1 #SUP: 14
123 -1 67 -1 #SUP: 3
123 -1 70 -1 #SUP: 3
123 -1 77 -1 #SUP: 15
123 -1 78 -1 #SUP: 5
123 -1 120 -1 #SUP: 7
123 -1 123 -1 #SUP: 16
123 -1 134 -1 #SUP: 4
123 -1 144 -1 #SUP: 5
123 -1 154 -1 #SUP: 8
123 -1 156 -1 #SUP: 3
123 -1 162 -1 #SUP: 2
123 -1 164 -1 #SUP: 9
123 -1 165 -1 #SUP: 5
123 -1 170 -1 #SUP: 6
123 -1 174 -1 #SUP: 8
123 -1 183 -1 #SUP: 5
123 -1 193 -1 #SUP: 7
123 -1 198 -1 #SUP: 4
123 -1 200 -1 #SUP: 2
123 -1 201 -1 #SUP: 2
123 -1 206 -1 #SUP: 3
123 -1 220 -1 #SUP: 2
123 -1 225 -1 #SUP: 2
123 -1 226 -1 #SUP: 2
123 -1 236 -1 #SUP: 3
123 -1 243 -1 #SUP: 2
123 -1 254 -1 #SUP: 2
123 -1 256 -1 #SUP: 2
123 -1 260 -1 #SUP: 3
123 -1 262 -1 #SUP: 4
123 -1 268 -1 #SUP: 2
123 -1 286 -1 #SUP: 9
123 -1 291 -1 #SUP: 6
123 -1 308 -1 #SUP: 3
123 -1 326 -1 #SUP: 3
123 -1 340 -1 #SUP: 3
123 -1 349 -1 #SUP: 3
123 -1 356 -1 #SUP: 8
123 -1 364 -1 #SUP: 2
123 -1 373 -1 #SUP: 2
123 -1 401 -1 #SUP: 3
123 -1 407 -1 #SUP: 2
123 -1 417 -1 #SUP: 4
123 -1 431 -1 #SUP: 5
123 -1 441 -1 #SUP: 7
123 -1 477 -1 #SUP: 5
123 -1 483 -1 #SUP: 2
123 -1 505 -1 #SUP: 2
123 -1 517 -1 #SUP: 2
123 -1 520 -1 #SUP: 3
123 -1 547 -1 #SUP: 2
123 -1 599 -1 #SUP: 2
123 -1 613 -1 #SUP: 6
123 -1 638 -1 #SUP: 2
123 -1 668 -1 #SUP: 2
123 -1 683 -1 #SUP: 3
123 -1 693 -1 #SUP: 4
123 -1 737 -1 #SUP: 2
123 -1 740 -1 #SUP: 2
123 -1 756 -1 #SUP: 2
123 -1 781 -1 #SUP: 3
123 -1 921 -1 #SUP: 2
123 -1 936 -1 #SUP: 3
123 -1 1214 -1 #SUP: 2
123 -1 1224 -1 #SUP: 2
123 -1 1276 -1 #SUP: 2
123 -1 1364 -1 #SUP: 2
123 -1 1672 -1 #SUP: 3
123 -1 1758 -1 #SUP: 4
123 -1 1838 -1 #SUP: 2
123 -1 1913 -1 #SUP: 2
123 -1 2849 -1 #SUP: 2
123 -1 27010 -1 #SUP: 2
134 -1 2 -1 #SUP: 2
134 -1 64 -1 #SUP: 2
144 -1 2 -1 #SUP: 2
144 -1 16 -1 #SUP: 2
144 -1 22 -1 #SUP: 3
144 -1 41 -1 #SUP: 4
144 -1 64 -1 #SUP: 2
144 -1 77 -1 #SUP: 4
144 -1 123 -1 #SUP: 3
144 -1 286 -1 #SUP: 2
144 -1 441 -1 #SUP: 2
144 -1 599 -1 #SUP: 2
154 -1 2 -1 #SUP: 2
154 -1 10 -1 #SUP: 2
154 -1 22 -1 #SUP: 3
154 -1 41 -1 #SUP: 4
154 -1 50 -1 #SUP: 3
154 -1 77 -1 #SUP: 2
154 -1 123 -1 #SUP: 5
154 -1 162 -1 #SUP: 2
154 -1 165 -1 #SUP: 2
154 -1 170 -1 #SUP: 3
154 -1 193 -1 #SUP: 2
154 -1 222 -1 #SUP: 2
154 -1 237 -1 #SUP: 2
154 -1 547 -1 #SUP: 2
154 -1 613 -1 #SUP: 2
156 -1 77 -1 #SUP: 2
156 -1 286 -1 #SUP: 2
156 -1 356 -1 #SUP: 2
160 -1 2 -1 #SUP: 2
160 -1 41 -1 #SUP: 2
162 -1 16 -1 #SUP: 2
162 -1 123 -1 #SUP: 3
162 -1 222 -1 #SUP: 2
164 -1 2 -1 #SUP: 3
164 -1 22 -1 #SUP: 2
164 -1 123 -1 #SUP: 3
164 -1 174 -1 #SUP: 2
164 -1 262 -1 #SUP: 2
164 -1 401 -1 #SUP: 2
164 -1 431 -1 #SUP: 2
164 -1 668 -1 #SUP: 2
165 -1 67 -1 #SUP: 2
168 -1 31 -1 #SUP: 2
170 -1 2 -1 #SUP: 3
170 -1 22 -1 #SUP: 2
170 -1 31 -1 #SUP: 4
170 -1 41 -1 #SUP: 3
170 -1 50 -1 #SUP: 2
170 -1 64 -1 #SUP: 3
170 -1 65 -1 #SUP: 2
170 -1 123 -1 #SUP: 2
170 -1 160 -1 #SUP: 2
170 -1 168 -1 #SUP: 2
170 -1 170 -1 #SUP: 3
170 -1 222 -1 #SUP: 4
170 -1 326 -1 #SUP: 2
170 -1 431 -1 #SUP: 3
170 -1 768 -1 #SUP: 2
174 -1 22 -1 #SUP: 3
174 -1 77 -1 #SUP: 4
174 -1 123 -1 #SUP: 5
174 -1 164 -1 #SUP: 2
183 -1 2 -1 #SUP: 2
183 -1 22 -1 #SUP: 3
183 -1 32 -1 #SUP: 2
183 -1 33 -1 #SUP: 2
183 -1 64 -1 #SUP: 3
183 -1 65 -1 #SUP: 2
183 -1 123 -1 #SUP: 3
183 -1 168 -1 #SUP: 2
183 -1 200 -1 #SUP: 2
183 -1 349 -1 #SUP: 2
183 -1 441 -1 #SUP: 2
183 -1 1081 -1 #SUP: 2
193 -1 31 -1 #SUP: 2
193 -1 41 -1 #SUP: 2
193 -1 64 -1 #SUP: 4
193 -1 123 -1 #SUP: 2
193 -1 170 -1 #SUP: 3
193 -1 212 -1 #SUP: 2
193 -1 222 -1 #SUP: 2
193 -1 291 -1 #SUP: 2
198 -1 32 -1 #SUP: 6
198 -1 50 -1 #SUP: 3
198 -1 152 -1 #SUP: 2
198 -1 183 -1 #SUP: 2
198 -1 222 -1 #SUP: 2
198 -1 224 -1 #SUP: 2
201 -1 77 -1 #SUP: 2
201 -1 183 -1 #SUP: 2
206 -1 22 -1 #SUP: 2
206 -1 27 -1 #SUP: 2
206 -1 156 -1 #SUP: 2
206 -1 164 -1 #SUP: 2
210 -1 22 -1 #SUP: 2
212 -1 2 -1 #SUP: 2
212 -1 356 -1 #SUP: 2
213 -1 225 -1 #SUP: 2
220 -1 22 -1 #SUP: 2
220 -1 77 -1 #SUP: 3
220 -1 154 -1 #SUP: 2
220 -1 170 -1 #SUP: 2
222 -1 31 -1 #SUP: 3
222 -1 64 -1 #SUP: 2
222 -1 123 -1 #SUP: 4
222 -1 200 -1 #SUP: 2
222 -1 222 -1 #SUP: 3
222 -1 236 -1 #SUP: 3
222 -1 567 -1 #SUP: 2
222 -1 1218 -1 #SUP: 2
222 -1 1737 -1 #SUP: 2
224 -1 788 -1 #SUP: 2
236 -1 10 -1 #SUP: 2
236 -1 27 -1 #SUP: 2
236 -1 31 -1 #SUP: 2
236 -1 41 -1 #SUP: 2
236 -1 64 -1 #SUP: 2
236 -1 65 -1 #SUP: 3
236 -1 77 -1 #SUP: 3
236 -1 123 -1 #SUP: 5
236 -1 134 -1 #SUP: 2
236 -1 154 -1 #SUP: 2
236 -1 170 -1 #SUP: 2
236 -1 198 -1 #SUP: 2
236 -1 349 -1 #SUP: 2
236 -1 567 -1 #SUP: 2
236 -1 1218 -1 #SUP: 2
236 -1 1737 -1 #SUP: 2
236 -1 1758 -1 #SUP: 2
259 -1 123 -1 #SUP: 2
259 -1 291 -1 #SUP: 2
262 -1 31 -1 #SUP: 2
268 -1 198 -1 #SUP: 2
276 -1 123 -1 #SUP: 2
285 -1 41 -1 #SUP: 2
286 -1 64 -1 #SUP: 2
286 -1 65 -1 #SUP: 4
286 -1 70 -1 #SUP: 3
286 -1 123 -1 #SUP: 2
286 -1 168 -1 #SUP: 2
286 -1 183 -1 #SUP: 2
286 -1 193 -1 #SUP: 2
286 -1 291 -1 #SUP: 2
286 -1 349 -1 #SUP: 2
286 -1 1360 -1 #SUP: 2
291 -1 65 -1 #SUP: 2
291 -1 77 -1 #SUP: 2
291 -1 123 -1 #SUP: 4
291 -1 154 -1 #SUP: 2
291 -1 356 -1 #SUP: 2
291 -1 520 -1 #SUP: 2
291 -1 1672 -1 #SUP: 2
291 -1 3261 -1 #SUP: 2
308 -1 22 -1 #SUP: 2
326 -1 2 -1 #SUP: 2
326 -1 22 -1 #SUP: 2
326 -1 123 -1 #SUP: 2
326 -1 683 -1 #SUP: 3
326 -1 2849 -1 #SUP: 2
334 -1 41 -1 #SUP: 2
349 -1 2 -1 #SUP: 2
349 -1 22 -1 #SUP: 4
349 -1 64 -1 #SUP: 2
349 -1 123 -1 #SUP: 2
349 -1 183 -1 #SUP: 3
349 -1 349 -1 #SUP: 3
349 -1 11353 -1 #SUP: 2
356 -1 2 -1 #SUP: 3
356 -1 22 -1 #SUP: 3
356 -1 41 -1 #SUP: 2
356 -1 64 -1 #SUP: 4
356 -1 65 -1 #SUP: 2
356 -1 67 -1 #SUP: 3
356 -1 77 -1 #SUP: 2
356 -1 78 -1 #SUP: 2
356 -1 123 -1 #SUP: 5
356 -1 164 -1 #SUP: 2
356 -1 193 -1 #SUP: 2
356 -1 566 -1 #SUP: 2
364 -1 10 -1 #SUP: 2
364 -1 22 -1 #SUP: 2
364 -1 65 -1 #SUP: 3
364 -1 77 -1 #SUP: 3
364 -1 123 -1 #SUP: 4
364 -1 599 -1 #SUP: 2
369 -1 2 -1 #SUP: 2
373 -1 193 -1 #SUP: 3
407 -1 154 -1 #SUP: 2
417 -1 2 -1 #SUP: 2
417 -1 64 -1 #SUP: 2
431 -1 2 -1 #SUP: 5
431 -1 31 -1 #SUP: 3
431 -1 32 -1 #SUP: 2
431 -1 64 -1 #SUP: 2
431 -1 77 -1 #SUP: 2
431 -1 168 -1 #SUP: 2
431 -1 222 -1 #SUP: 3
431 -1 236 -1 #SUP: 2
431 -1 618 -1 #SUP: 2
431 -1 852 -1 #SUP: 2
431 -1 1672 -1 #SUP: 2
431 -1 2096 -1 #SUP: 2
441 -1 22 -1 #SUP: 4
441 -1 32 -1 #SUP: 2
441 -1 41 -1 #SUP: 2
441 -1 65 -1 #SUP: 2
441 -1 77 -1 #SUP: 2
441 -1 164 -1 #SUP: 2
441 -1 170 -1 #SUP: 2
477 -1 67 -1 #SUP: 2
477 -1 154 -1 #SUP: 2
477 -1 308 -1 #SUP: 2
483 -1 2 -1 #SUP: 2
483 -1 64 -1 #SUP: 4
518 -1 29 -1 #SUP: 2
520 -1 2 -1 #SUP: 2
520 -1 31 -1 #SUP: 2
520 -1 64 -1 #SUP: 2
520 -1 77 -1 #SUP: 2
520 -1 123 -1 #SUP: 2
520 -1 349 -1 #SUP: 2
547 -1 65 -1 #SUP: 2
547 -1 212 -1 #SUP: 2
548 -1 123 -1 #SUP: 2
566 -1 64 -1 #SUP: 3
566 -1 67 -1 #SUP: 2
566 -1 77 -1 #SUP: 2
566 -1 222 -1 #SUP: 2
567 -1 31 -1 #SUP: 2
567 -1 123 -1 #SUP: 2
567 -1 1218 -1 #SUP: 2
567 -1 1737 -1 #SUP: 2
599 -1 33 -1 #SUP: 2
599 -1 64 -1 #SUP: 3
599 -1 65 -1 #SUP: 3
599 -1 123 -1 #SUP: 5
599 -1 193 -1 #SUP: 2
599 -1 198 -1 #SUP: 2
599 -1 566 -1 #SUP: 3
599 -1 1758 -1 #SUP: 2
613 -1 2 -1 #SUP: 2
613 -1 50 -1 #SUP: 2
613 -1 64 -1 #SUP: 2
613 -1 65 -1 #SUP: 2
613 -1 123 -1 #SUP: 2
613 -1 183 -1 #SUP: 2
613 -1 356 -1 #SUP: 2
613 -1 613 -1 #SUP: 2
630 -1 123 -1 #SUP: 2
638 -1 2 -1 #SUP: 2
651 -1 33 -1 #SUP: 2
668 -1 2 -1 #SUP: 2
668 -1 123 -1 #SUP: 3
693 -1 77 -1 #SUP: 2
693 -1 123 -1 #SUP: 3
737 -1 123 -1 #SUP: 2
740 -1 31 -1 #SUP: 2
740 -1 41 -1 #SUP: 2
740 -1 65 -1 #SUP: 3
740 -1 77 -1 #SUP: 2
740 -1 123 -1 #SUP: 3
740 -1 520 -1 #SUP: 2
756 -1 2 -1 #SUP: 2
756 -1 2257 -1 #SUP: 2
768 -1 170 -1 #SUP: 2
781 -1 123 -1 #SUP: 2
823 -1 22 -1 #SUP: 2
823 -1 31 -1 #SUP: 2
840 -1 840 -1 #SUP: 2
852 -1 2 -1 #SUP: 2
852 -1 64 -1 #SUP: 2
852 -1 65 -1 #SUP: 2
856 -1 41 -1 #SUP: 4
1002 -1 123 -1 #SUP: 2
1193 -1 10 -1 #SUP: 2
1193 -1 65 -1 #SUP: 2
1193 -1 123 -1 #SUP: 2
1218 -1 31 -1 #SUP: 2
1218 -1 1737 -1 #SUP: 2
1224 -1 64 -1 #SUP: 2
1224 -1 224 -1 #SUP: 2
1276 -1 212 -1 #SUP: 2
1360 -1 13 -1 #SUP: 2
1364 -1 123 -1 #SUP: 2
1461 -1 65 -1 #SUP: 2
1672 -1 32 -1 #SUP: 2
1672 -1 198 -1 #SUP: 2
1672 -1 222 -1 #SUP: 2
1700 -1 64 -1 #SUP: 2
1700 -1 599 -1 #SUP: 2
1712 -1 31 -1 #SUP: 2
1737 -1 31 -1 #SUP: 2
1758 -1 123 -1 #SUP: 3
1758 -1 170 -1 #SUP: 3
1758 -1 193 -1 #SUP: 2
1758 -1 308 -1 #SUP: 2
1758 -1 356 -1 #SUP: 3
1945 -1 22 -1 #SUP: 2
2096 -1 64 -1 #SUP: 2
2096 -1 77 -1 #SUP: 2
2096 -1 236 -1 #SUP: 2
2551 -1 13 -1 #SUP: 2
2551 -1 32 -1 #SUP: 2
2849 -1 2 -1 #SUP: 3
2849 -1 123 -1 #SUP: 5
2849 -1 740 -1 #SUP: 2
2849 -1 2163 -1 #SUP: 2
4018 -1 2 -1 #SUP: 2
4018 -1 123 -1 #SUP: 2
4726 -1 995 -1 #SUP: 2
4726 -1 30807 -1 #SUP: 2
11353 -1 879 -1 #SUP: 2
17709 -1 77 -1 #SUP: 2
17709 -1 123 -1 #SUP: 2
2 -1 2 -1 123 -1 #SUP: 2
2 -1 32 -1 2 -1 #SUP: 2
2 -1 50 -1 2 -1 #SUP: 2
2 -1 50 -1 123 -1 #SUP: 2
2 -1 64 -1 67 -1 #SUP: 2
2 -1 64 -1 164 -1 #SUP: 2
2 -1 77 -1 2 -1 #SUP: 2
2 -1 77 -1 64 -1 #SUP: 2
2 -1 77 -1 123 -1 #SUP: 3
2 -1 77 -1 198 -1 #SUP: 2
2 -1 77 -1 236 -1 #SUP: 2
2 -1 77 -1 599 -1 #SUP: 2
2 -1 123 -1 2 -1 #SUP: 2
2 -1 123 -1 50 -1 #SUP: 2
2 -1 123 -1 123 -1 #SUP: 2
2 -1 123 -1 164 -1 #SUP: 2
2 -1 123 -1 165 -1 #SUP: 2
2 -1 123 -1 198 -1 #SUP: 2
2 -1 123 -1 256 -1 #SUP: 2
2 -1 123 -1 356 -1 #SUP: 2
2 -1 198 -1 32 -1 #SUP: 3
2 -1 198 -1 50 -1 #SUP: 2
2 -1 213 -1 225 -1 #SUP: 2
2 -1 599 -1 198 -1 #SUP: 2
2 -1 1672 -1 32 -1 #SUP: 2
2 -1 1672 -1 198 -1 #SUP: 2
2 -1 2096 -1 77 -1 #SUP: 2
2 -1 2096 -1 236 -1 #SUP: 2
10 -1 65 -1 77 -1 #SUP: 2
10 -1 65 -1 123 -1 #SUP: 2
15 -1 77 -1 2 -1 #SUP: 2
16 -1 77 -1 154 -1 #SUP: 2
22 -1 2 -1 27 -1 #SUP: 2
22 -1 2 -1 77 -1 #SUP: 2
22 -1 2 -1 123 -1 #SUP: 3
22 -1 2 -1 349 -1 #SUP: 2
22 -1 32 -1 2 -1 #SUP: 2
22 -1 77 -1 2 -1 #SUP: 2
22 -1 77 -1 123 -1 #SUP: 2
22 -1 123 -1 27 -1 #SUP: 2
22 -1 259 -1 123 -1 #SUP: 2
22 -1 259 -1 291 -1 #SUP: 2
22 -1 431 -1 2 -1 #SUP: 2
22 -1 11353 -1 879 -1 #SUP: 2
27 -1 41 -1 67 -1 #SUP: 2
27 -1 123 -1 256 -1 #SUP: 2
27 -1 144 -1 41 -1 #SUP: 2
27 -1 334 -1 41 -1 #SUP: 2
31 -1 222 -1 236 -1 #SUP: 2
32 -1 2 -1 2 -1 #SUP: 2
32 -1 77 -1 123 -1 #SUP: 2
41 -1 77 -1 154 -1 #SUP: 2
41 -1 160 -1 2 -1 #SUP: 2
41 -1 441 -1 65 -1 #SUP: 2
41 -1 441 -1 164 -1 #SUP: 2
50 -1 2 -1 123 -1 #SUP: 3
50 -1 2 -1 165 -1 #SUP: 2
50 -1 77 -1 123 -1 #SUP: 2
50 -1 123 -1 31 -1 #SUP: 2
50 -1 123 -1 165 -1 #SUP: 2
50 -1 123 -1 356 -1 #SUP: 2
50 -1 170 -1 65 -1 #SUP: 2
50 -1 170 -1 168 -1 #SUP: 2
50 -1 224 -1 788 -1 #SUP: 2
50 -1 2849 -1 123 -1 #SUP: 3
50 -1 2849 -1 740 -1 #SUP: 2
50 -1 4018 -1 2 -1 #SUP: 2
50 -1 4018 -1 123 -1 #SUP: 2
64 -1 2 -1 2 -1 #SUP: 2
64 -1 22 -1 32 -1 #SUP: 2
64 -1 77 -1 2 -1 #SUP: 2
64 -1 77 -1 64 -1 #SUP: 2
64 -1 77 -1 77 -1 #SUP: 2
64 -1 77 -1 599 -1 #SUP: 2
64 -1 164 -1 262 -1 #SUP: 2
64 -1 852 -1 65 -1 #SUP: 2
65 -1 2 -1 123 -1 #SUP: 2
65 -1 22 -1 32 -1 #SUP: 2
65 -1 64 -1 22 -1 #SUP: 2
65 -1 64 -1 32 -1 #SUP: 2
65 -1 77 -1 41 -1 #SUP: 2
65 -1 77 -1 64 -1 #SUP: 2
65 -1 77 -1 123 -1 #SUP: 3
65 -1 77 -1 144 -1 #SUP: 2
65 -1 77 -1 599 -1 #SUP: 3
65 -1 123 -1 16 -1 #SUP: 2
65 -1 123 -1 64 -1 #SUP: 2
65 -1 123 -1 170 -1 #SUP: 2
65 -1 144 -1 41 -1 #SUP: 2
65 -1 2551 -1 13 -1 #SUP: 2
65 -1 2551 -1 32 -1 #SUP: 2
70 -1 65 -1 431 -1 #SUP: 2
70 -1 123 -1 356 -1 #SUP: 2
70 -1 1700 -1 599 -1 #SUP: 2
77 -1 2 -1 77 -1 #SUP: 2
77 -1 2 -1 123 -1 #SUP: 4
77 -1 2 -1 236 -1 #SUP: 2
77 -1 16 -1 77 -1 #SUP: 2
77 -1 22 -1 2 -1 #SUP: 2
77 -1 22 -1 32 -1 #SUP: 2
77 -1 41 -1 77 -1 #SUP: 2
77 -1 50 -1 123 -1 #SUP: 2
77 -1 64 -1 77 -1 #SUP: 3
77 -1 64 -1 236 -1 #SUP: 2
77 -1 65 -1 64 -1 #SUP: 2
77 -1 65 -1 77 -1 #SUP: 2
77 -1 77 -1 2 -1 #SUP: 3
77 -1 77 -1 10 -1 #SUP: 2
77 -1 77 -1 64 -1 #SUP: 3
77 -1 77 -1 77 -1 #SUP: 3
77 -1 77 -1 123 -1 #SUP: 2
77 -1 77 -1 236 -1 #SUP: 2
77 -1 123 -1 2 -1 #SUP: 3
77 -1 123 -1 3 -1 #SUP: 2
77 -1 123 -1 16 -1 #SUP: 2
77 -1 123 -1 50 -1 #SUP: 2
77 -1 123 -1 64 -1 #SUP: 4
77 -1 123 -1 65 -1 #SUP: 3
77 -1 123 -1 77 -1 #SUP: 4
77 -1 123 -1 123 -1 #SUP: 3
77 -1 123 -1 144 -1 #SUP: 2
77 -1 123 -1 164 -1 #SUP: 2
77 -1 123 -1 165 -1 #SUP: 2
77 -1 123 -1 174 -1 #SUP: 2
77 -1 123 -1 441 -1 #SUP: 2
77 -1 123 -1 781 -1 #SUP: 2
77 -1 123 -1 1838 -1 #SUP: 2
77 -1 144 -1 41 -1 #SUP: 2
77 -1 154 -1 170 -1 #SUP: 2
77 -1 165 -1 67 -1 #SUP: 2
77 -1 170 -1 31 -1 #SUP: 2
77 -1 174 -1 77 -1 #SUP: 2
77 -1 236 -1 41 -1 #SUP: 2
77 -1 236 -1 123 -1 #SUP: 2
77 -1 599 -1 64 -1 #SUP: 3
77 -1 599 -1 65 -1 #SUP: 3
77 -1 599 -1 123 -1 #SUP: 4
77 -1 599 -1 198 -1 #SUP: 2
77 -1 599 -1 566 -1 #SUP: 2
77 -1 1224 -1 64 -1 #SUP: 2
78 -1 144 -1 41 -1 #SUP: 2
120 -1 286 -1 193 -1 #SUP: 2
123 -1 2 -1 2 -1 #SUP: 2
123 -1 2 -1 64 -1 #SUP: 2
123 -1 2 -1 123 -1 #SUP: 5
123 -1 2 -1 256 -1 #SUP: 2
123 -1 2 -1 356 -1 #SUP: 2
123 -1 10 -1 65 -1 #SUP: 2
123 -1 16 -1 77 -1 #SUP: 3
123 -1 16 -1 154 -1 #SUP: 2
123 -1 22 -1 2 -1 #SUP: 3
123 -1 22 -1 123 -1 #SUP: 2
123 -1 22 -1 164 -1 #SUP: 2
123 -1 27 -1 123 -1 #SUP: 2
123 -1 29 -1 262 -1 #SUP: 2
123 -1 31 -1 77 -1 #SUP: 2
123 -1 32 -1 2 -1 #SUP: 2
123 -1 32 -1 50 -1 #SUP: 2
123 -1 33 -1 123 -1 #SUP: 2
123 -1 33 -1 164 -1 #SUP: 2
123 -1 41 -1 65 -1 #SUP: 2
123 -1 41 -1 77 -1 #SUP: 2
123 -1 41 -1 123 -1 #SUP: 2
123 -1 41 -1 441 -1 #SUP: 2
123 -1 50 -1 2 -1 #SUP: 3
123 -1 50 -1 77 -1 #SUP: 2
123 -1 50 -1 123 -1 #SUP: 4
123 -1 50 -1 2849 -1 #SUP: 2
123 -1 65 -1 64 -1 #SUP: 3
123 -1 65 -1 77 -1 #SUP: 2
123 -1 65 -1 78 -1 #SUP: 2
123 -1 65 -1 401 -1 #SUP: 2
123 -1 65 -1 431 -1 #SUP: 2
123 -1 65 -1 693 -1 #SUP: 2
123 -1 67 -1 78 -1 #SUP: 2
123 -1 70 -1 65 -1 #SUP: 2
123 -1 77 -1 2 -1 #SUP: 3
123 -1 77 -1 22 -1 #SUP: 2
123 -1 77 -1 77 -1 #SUP: 2
123 -1 77 -1 123 -1 #SUP: 6
123 -1 77 -1 154 -1 #SUP: 2
123 -1 77 -1 193 -1 #SUP: 2
123 -1 77 -1 441 -1 #SUP: 2
123 -1 77 -1 599 -1 #SUP: 2
123 -1 78 -1 64 -1 #SUP: 2
123 -1 120 -1 164 -1 #SUP: 2
123 -1 120 -1 183 -1 #SUP: 2
123 -1 120 -1 193 -1 #SUP: 2
123 -1 120 -1 286 -1 #SUP: 2
123 -1 120 -1 349 -1 #SUP: 2
123 -1 120 -1 1672 -1 #SUP: 2
123 -1 123 -1 2 -1 #SUP: 2
123 -1 123 -1 22 -1 #SUP: 3
123 -1 123 -1 27 -1 #SUP: 2
123 -1 123 -1 77 -1 #SUP: 2
123 -1 123 -1 123 -1 #SUP: 3
123 -1 123 -1 144 -1 #SUP: 3
123 -1 123 -1 174 -1 #SUP: 3
123 -1 123 -1 256 -1 #SUP: 2
123 -1 123 -1 291 -1 #SUP: 2
123 -1 123 -1 356 -1 #SUP: 3
123 -1 123 -1 441 -1 #SUP: 2
123 -1 144 -1 2 -1 #SUP: 2
123 -1 144 -1 123 -1 #SUP: 2
123 -1 154 -1 41 -1 #SUP: 2
123 -1 154 -1 162 -1 #SUP: 2
123 -1 156 -1 77 -1 #SUP: 2
123 -1 164 -1 2 -1 #SUP: 2
123 -1 164 -1 22 -1 #SUP: 2
123 -1 164 -1 123 -1 #SUP: 2
123 -1 164 -1 401 -1 #SUP: 2
123 -1 164 -1 431 -1 #SUP: 2
123 -1 170 -1 50 -1 #SUP: 2
123 -1 170 -1 64 -1 #SUP: 2
123 -1 174 -1 22 -1 #SUP: 3
123 -1 174 -1 77 -1 #SUP: 4
123 -1 174 -1 123 -1 #SUP: 5
123 -1 174 -1 164 -1 #SUP: 2
123 -1 193 -1 64 -1 #SUP: 3
123 -1 198 -1 32 -1 #SUP: 2
123 -1 198 -1 50 -1 #SUP: 2
123 -1 206 -1 164 -1 #SUP: 2
123 -1 268 -1 198 -1 #SUP: 2
123 -1 286 -1 64 -1 #SUP: 2
123 -1 286 -1 65 -1 #SUP: 4
123 -1 286 -1 70 -1 #SUP: 3
123 -1 286 -1 123 -1 #SUP: 2
123 -1 286 -1 183 -1 #SUP: 2
123 -1 286 -1 193 -1 #SUP: 2
123 -1 286 -1 291 -1 #SUP: 2
123 -1 291 -1 123 -1 #SUP: 2
123 -1 291 -1 154 -1 #SUP: 2
123 -1 308 -1 22 -1 #SUP: 2
123 -1 326 -1 683 -1 #SUP: 2
123 -1 349 -1 183 -1 #SUP: 2
123 -1 356 -1 2 -1 #SUP: 2
123 -1 356 -1 22 -1 #SUP: 2
123 -1 356 -1 64 -1 #SUP: 2
123 -1 356 -1 65 -1 #SUP: 2
123 -1 356 -1 78 -1 #SUP: 2
123 -1 356 -1 123 -1 #SUP: 3
123 -1 373 -1 193 -1 #SUP: 2
123 -1 407 -1 154 -1 #SUP: 2
123 -1 417 -1 2 -1 #SUP: 2
123 -1 417 -1 64 -1 #SUP: 2
123 -1 431 -1 2 -1 #SUP: 2
123 -1 441 -1 22 -1 #SUP: 3
123 -1 441 -1 32 -1 #SUP: 2
123 -1 441 -1 41 -1 #SUP: 2
123 -1 441 -1 65 -1 #SUP: 2
123 -1 477 -1 67 -1 #SUP: 2
123 -1 477 -1 154 -1 #SUP: 2
123 -1 477 -1 308 -1 #SUP: 2
123 -1 520 -1 123 -1 #SUP: 2
123 -1 613 -1 2 -1 #SUP: 2
123 -1 613 -1 64 -1 #SUP: 2
123 -1 613 -1 65 -1 #SUP: 2
123 -1 613 -1 183 -1 #SUP: 2
123 -1 613 -1 356 -1 #SUP: 2
123 -1 668 -1 2 -1 #SUP: 2
123 -1 693 -1 77 -1 #SUP: 2
123 -1 781 -1 123 -1 #SUP: 2
123 -1 1364 -1 123 -1 #SUP: 2
123 -1 1758 -1 123 -1 #SUP: 2
123 -1 1758 -1 356 -1 #SUP: 3
123 -1 2849 -1 123 -1 #SUP: 2
144 -1 41 -1 22 -1 #SUP: 2
144 -1 77 -1 599 -1 #SUP: 2
144 -1 123 -1 123 -1 #SUP: 2
154 -1 41 -1 123 -1 #SUP: 2
154 -1 50 -1 123 -1 #SUP: 2
154 -1 77 -1 123 -1 #SUP: 2
154 -1 123 -1 50 -1 #SUP: 2
154 -1 123 -1 123 -1 #SUP: 2
154 -1 170 -1 22 -1 #SUP: 2
162 -1 123 -1 16 -1 #SUP: 2
164 -1 22 -1 123 -1 #SUP: 2
164 -1 123 -1 123 -1 #SUP: 2
164 -1 123 -1 174 -1 #SUP: 2
164 -1 431 -1 2 -1 #SUP: 2
170 -1 2 -1 170 -1 #SUP: 2
170 -1 31 -1 222 -1 #SUP: 4
170 -1 41 -1 160 -1 #SUP: 2
170 -1 431 -1 31 -1 #SUP: 3
170 -1 431 -1 222 -1 #SUP: 3
170 -1 768 -1 170 -1 #SUP: 2
174 -1 77 -1 22 -1 #SUP: 2
174 -1 77 -1 123 -1 #SUP: 3
174 -1 123 -1 22 -1 #SUP: 2
174 -1 123 -1 77 -1 #SUP: 2
174 -1 123 -1 123 -1 #SUP: 3
193 -1 170 -1 64 -1 #SUP: 2
198 -1 32 -1 50 -1 #SUP: 2
198 -1 32 -1 152 -1 #SUP: 2
198 -1 50 -1 224 -1 #SUP: 2
206 -1 27 -1 156 -1 #SUP: 2
220 -1 77 -1 154 -1 #SUP: 2
220 -1 77 -1 170 -1 #SUP: 2
220 -1 154 -1 170 -1 #SUP: 2
222 -1 123 -1 31 -1 #SUP: 2
222 -1 222 -1 123 -1 #SUP: 2
222 -1 222 -1 236 -1 #SUP: 2
222 -1 567 -1 31 -1 #SUP: 2
222 -1 567 -1 1218 -1 #SUP: 2
222 -1 567 -1 1737 -1 #SUP: 2
222 -1 1218 -1 31 -1 #SUP: 2
222 -1 1218 -1 1737 -1 #SUP: 2
222 -1 1737 -1 31 -1 #SUP: 2
236 -1 65 -1 64 -1 #SUP: 2
236 -1 123 -1 134 -1 #SUP: 2
236 -1 567 -1 31 -1 #SUP: 2
236 -1 567 -1 1218 -1 #SUP: 2
236 -1 567 -1 1737 -1 #SUP: 2
236 -1 1218 -1 31 -1 #SUP: 2
236 -1 1218 -1 1737 -1 #SUP: 2
236 -1 1737 -1 31 -1 #SUP: 2
286 -1 65 -1 168 -1 #SUP: 2
286 -1 70 -1 65 -1 #SUP: 2
291 -1 123 -1 356 -1 #SUP: 2
291 -1 123 -1 1672 -1 #SUP: 2
349 -1 2 -1 22 -1 #SUP: 2
349 -1 22 -1 11353 -1 #SUP: 2
349 -1 183 -1 22 -1 #SUP: 2
349 -1 183 -1 349 -1 #SUP: 2
356 -1 2 -1 64 -1 #SUP: 2
356 -1 64 -1 67 -1 #SUP: 2
356 -1 123 -1 22 -1 #SUP: 2
364 -1 10 -1 65 -1 #SUP: 2
364 -1 10 -1 77 -1 #SUP: 2
364 -1 10 -1 123 -1 #SUP: 2
364 -1 65 -1 77 -1 #SUP: 2
364 -1 65 -1 123 -1 #SUP: 2
364 -1 77 -1 123 -1 #SUP: 2
364 -1 77 -1 599 -1 #SUP: 2
364 -1 599 -1 123 -1 #SUP: 2
431 -1 2 -1 77 -1 #SUP: 2
431 -1 2 -1 1672 -1 #SUP: 2
431 -1 2 -1 2096 -1 #SUP: 2
431 -1 31 -1 222 -1 #SUP: 3
431 -1 2096 -1 77 -1 #SUP: 2
520 -1 123 -1 77 -1 #SUP: 2
520 -1 349 -1 64 -1 #SUP: 2
566 -1 67 -1 77 -1 #SUP: 2
567 -1 1218 -1 31 -1 #SUP: 2
567 -1 1218 -1 1737 -1 #SUP: 2
567 -1 1737 -1 31 -1 #SUP: 2
599 -1 123 -1 64 -1 #SUP: 2
599 -1 123 -1 193 -1 #SUP: 2
599 -1 123 -1 1758 -1 #SUP: 2
613 -1 356 -1 65 -1 #SUP: 2
668 -1 2 -1 123 -1 #SUP: 2
693 -1 123 -1 123 -1 #SUP: 2
740 -1 65 -1 123 -1 #SUP: 2
740 -1 520 -1 31 -1 #SUP: 2
823 -1 31 -1 22 -1 #SUP: 2
852 -1 65 -1 64 -1 #SUP: 2
1218 -1 1737 -1 31 -1 #SUP: 2
1672 -1 198 -1 32 -1 #SUP: 2
1758 -1 123 -1 308 -1 #SUP: 2
1758 -1 356 -1 123 -1 #SUP: 2
2096 -1 77 -1 64 -1 #SUP: 2
2096 -1 77 -1 236 -1 #SUP: 2
2849 -1 2 -1 123 -1 #SUP: 2
4018 -1 2 -1 123 -1 #SUP: 2
17709 -1 77 -1 123 -1 #SUP: 2
2 -1 77 -1 2 -1 123 -1 #SUP: 2
2 -1 77 -1 599 -1 198 -1 #SUP: 2
2 -1 123 -1 50 -1 2 -1 #SUP: 2
2 -1 1672 -1 198 -1 32 -1 #SUP: 2
2 -1 2096 -1 77 -1 236 -1 #SUP: 2
50 -1 2 -1 123 -1 165 -1 #SUP: 2
50 -1 4018 -1 2 -1 123 -1 #SUP: 2
64 -1 77 -1 77 -1 64 -1 #SUP: 2
65 -1 64 -1 22 -1 32 -1 #SUP: 2
65 -1 77 -1 123 -1 64 -1 #SUP: 2
65 -1 77 -1 144 -1 41 -1 #SUP: 2
77 -1 64 -1 77 -1 77 -1 #SUP: 2
77 -1 77 -1 64 -1 77 -1 #SUP: 2
77 -1 77 -1 77 -1 64 -1 #SUP: 2
77 -1 77 -1 77 -1 77 -1 #SUP: 2
77 -1 123 -1 2 -1 123 -1 #SUP: 2
77 -1 123 -1 16 -1 77 -1 #SUP: 2
77 -1 123 -1 77 -1 123 -1 #SUP: 2
77 -1 123 -1 174 -1 77 -1 #SUP: 2
77 -1 599 -1 123 -1 64 -1 #SUP: 2
123 -1 2 -1 123 -1 256 -1 #SUP: 2
123 -1 2 -1 123 -1 356 -1 #SUP: 2
123 -1 16 -1 77 -1 154 -1 #SUP: 2
123 -1 50 -1 2 -1 123 -1 #SUP: 2
123 -1 50 -1 77 -1 123 -1 #SUP: 2
123 -1 50 -1 2849 -1 123 -1 #SUP: 2
123 -1 77 -1 2 -1 123 -1 #SUP: 2
123 -1 77 -1 123 -1 441 -1 #SUP: 2
123 -1 120 -1 286 -1 193 -1 #SUP: 2
123 -1 123 -1 144 -1 123 -1 #SUP: 2
123 -1 123 -1 174 -1 22 -1 #SUP: 2
123 -1 174 -1 77 -1 22 -1 #SUP: 2
123 -1 174 -1 77 -1 123 -1 #SUP: 2
123 -1 174 -1 123 -1 22 -1 #SUP: 2
123 -1 174 -1 123 -1 77 -1 #SUP: 2
123 -1 198 -1 32 -1 50 -1 #SUP: 2
123 -1 286 -1 70 -1 65 -1 #SUP: 2
123 -1 613 -1 356 -1 65 -1 #SUP: 2
123 -1 1758 -1 356 -1 123 -1 #SUP: 2
154 -1 123 -1 50 -1 123 -1 #SUP: 2
170 -1 431 -1 31 -1 222 -1 #SUP: 3
174 -1 123 -1 77 -1 123 -1 #SUP: 2
220 -1 77 -1 154 -1 170 -1 #SUP: 2
222 -1 567 -1 1218 -1 31 -1 #SUP: 2
222 -1 567 -1 1218 -1 1737 -1 #SUP: 2
222 -1 567 -1 1737 -1 31 -1 #SUP: 2
222 -1 1218 -1 1737 -1 31 -1 #SUP: 2
236 -1 567 -1 1218 -1 31 -1 #SUP: 2
236 -1 567 -1 1218 -1 1737 -1 #SUP: 2
236 -1 567 -1 1737 -1 31 -1 #SUP: 2
236 -1 1218 -1 1737 -1 31 -1 #SUP: 2
364 -1 10 -1 65 -1 77 -1 #SUP: 2
364 -1 10 -1 65 -1 123 -1 #SUP: 2
364 -1 77 -1 599 -1 123 -1 #SUP: 2
431 -1 2 -1 2096 -1 77 -1 #SUP: 2
567 -1 1218 -1 1737 -1 31 -1 #SUP: 2
222 -1 567 -1 1218 -1 1737 -1 31 -1 #SUP: 2
236 -1 567 -1 1218 -1 1737 -1 31 -1 #SUP: 2
