2 -1 #SUP: 5
8 -1 #SUP: 5
9 -1 #SUP: 5
10 -1 #SUP: 2
16 -1 #SUP: 3
22 -1 #SUP: 13
26 -1 #SUP: 2
28 -1 #SUP: 2
31 -1 #SUP: 2
32 -1 #SUP: 4
33 -1 #SUP: 3
41 -1 #SUP: 7
50 -1 #SUP: 2
64 -1 #SUP: 6
65 -1 #SUP: 12
73 -1 #SUP: 2
76 -1 #SUP: 2
77 -1 #SUP: 16
78 -1 #SUP: 3
81 -1 #SUP: 3
91 -1 #SUP: 2
98 -1 #SUP: 2
101 -1 #SUP: 2
123 -1 #SUP: 18
144 -1 #SUP: 6
154 -1 #SUP: 5
158 -1 #SUP: 2
162 -1 #SUP: 6
168 -1 #SUP: 2
170 -1 #SUP: 7
174 -1 #SUP: 2
183 -1 #SUP: 2
189 -1 #SUP: 2
193 -1 #SUP: 3
201 -1 #SUP: 3
212 -1 #SUP: 2
222 -1 #SUP: 2
225 -1 #SUP: 3
226 -1 #SUP: 3
250 -1 #SUP: 6
262 -1 #SUP: 4
280 -1 #SUP: 3
286 -1 #SUP: 2
326 -1 #SUP: 2
342 -1 #SUP: 2
356 -1 #SUP: 5
369 -1 #SUP: 2
507 -1 #SUP: 4
520 -1 #SUP: 4
566 -1 #SUP: 2
567 -1 #SUP: 2
589 -1 #SUP: 2
599 -1 #SUP: 2
793 -1 #SUP: 2
850 -1 #SUP: 2
929 -1 #SUP: 2
960 -1 #SUP: 3
1120 -1 #SUP: 2
1204 -1 #SUP: 10
1313 -1 #SUP: 2
1679 -1 #SUP: 3
1738 -1 #SUP: 2
1758 -1 #SUP: 3
1893 -1 #SUP: 2
2395 -1 #SUP: 7
2630 -1 #SUP: 2
3441 -1 #SUP: 2
5126 -1 #SUP: 2
5611 -1 #SUP: 2
6599 -1 #SUP: 2
8449 -1 #SUP: 2
9143 -1 #SUP: 2
9164 -1 #SUP: 2
14427 -1 #SUP: 2
14926 -1 #SUP: 3
16339 -1 #SUP: 2
17570 -1 #SUP: 2
18344 -1 #SUP: 2
47987 -1 #SUP: 3
56593 -1 #SUP: 2
158158 -1 #SUP: 2
2 -1 123 -1 #SUP: 4
2 -1 14926 -1 #SUP: 2
2 -1 47987 -1 #SUP: 2
8 -1 158158 -1 #SUP: 2
9 -1 26 -1 #SUP: 2
9 -1 28 -1 #SUP: 2
9 -1 123 -1 #SUP: 2
9 -1 369 -1 #SUP: 2
16 -1 123 -1 #SUP: 2
16 -1 1204 -1 #SUP: 2
22 -1 2 -1 #SUP: 2
22 -1 22 -1 #SUP: 2
22 -1 32 -1 #SUP: 2
22 -1 64 -1 #SUP: 2
22 -1 65 -1 #SUP: 2
22 -1 76 -1 #SUP: 2
22 -1 77 -1 #SUP: 4
22 -1 91 -1 #SUP: 2
22 -1 101 -1 #SUP: 2
22 -1 342 -1 #SUP: 2
22 -1 1204 -1 #SUP: 2
28 -1 26 -1 #SUP: 2
33 -1 154 -1 #SUP: 2
41 -1 2 -1 #SUP: 2
41 -1 33 -1 #SUP: 2
64 -1 2 -1 #SUP: 2
64 -1 22 -1 #SUP: 3
64 -1 77 -1 #SUP: 2
65 -1 22 -1 #SUP: 3
65 -1 64 -1 #SUP: 2
65 -1 65 -1 #SUP: 4
65 -1 77 -1 #SUP: 6
65 -1 123 -1 #SUP: 2
65 -1 170 -1 #SUP: 2
65 -1 226 -1 #SUP: 3
65 -1 507 -1 #SUP: 3
65 -1 566 -1 #SUP: 2
65 -1 589 -1 #SUP: 2
65 -1 1204 -1 #SUP: 3
65 -1 1679 -1 #SUP: 3
77 -1 22 -1 #SUP: 3
77 -1 65 -1 #SUP: 3
77 -1 77 -1 #SUP: 5
77 -1 123 -1 #SUP: 3
77 -1 162 -1 #SUP: 2
77 -1 170 -1 #SUP: 3
77 -1 193 -1 #SUP: 2
77 -1 226 -1 #SUP: 2
77 -1 507 -1 #SUP: 2
77 -1 520 -1 #SUP: 2
77 -1 566 -1 #SUP: 2
77 -1 589 -1 #SUP: 2
77 -1 1204 -1 #SUP: 3
77 -1 1679 -1 #SUP: 2
77 -1 6599 -1 #SUP: 2
78 -1 65 -1 #SUP: 2
78 -1 225 -1 #SUP: 2
78 -1 1313 -1 #SUP: 2
81 -1 960 -1 #SUP: 2
91 -1 98 -1 #SUP: 2
101 -1 91 -1 #SUP: 2
101 -1 98 -1 #SUP: 2
123 -1 2 -1 #SUP: 2
123 -1 9 -1 #SUP: 2
123 -1 16 -1 #SUP: 3
123 -1 22 -1 #SUP: 3
123 -1 41 -1 #SUP: 2
123 -1 64 -1 #SUP: 3
123 -1 77 -1 #SUP: 3
123 -1 123 -1 #SUP: 4
123 -1 144 -1 #SUP: 3
123 -1 225 -1 #SUP: 2
123 -1 286 -1 #SUP: 2
123 -1 1204 -1 #SUP: 3
123 -1 9143 -1 #SUP: 2
123 -1 14926 -1 #SUP: 2
144 -1 16 -1 #SUP: 3
144 -1 77 -1 #SUP: 2
144 -1 123 -1 #SUP: 2
144 -1 174 -1 #SUP: 2
144 -1 1204 -1 #SUP: 3
162 -1 22 -1 #SUP: 3
162 -1 77 -1 #SUP: 3
162 -1 123 -1 #SUP: 2
162 -1 14427 -1 #SUP: 2
170 -1 22 -1 #SUP: 3
170 -1 65 -1 #SUP: 3
170 -1 77 -1 #SUP: 2
170 -1 201 -1 #SUP: 2
201 -1 65 -1 #SUP: 2
201 -1 170 -1 #SUP: 2
225 -1 1313 -1 #SUP: 2
226 -1 65 -1 #SUP: 2
226 -1 77 -1 #SUP: 2
226 -1 589 -1 #SUP: 2
250 -1 77 -1 #SUP: 2
250 -1 123 -1 #SUP: 2
250 -1 5611 -1 #SUP: 2
262 -1 32 -1 #SUP: 2
280 -1 2630 -1 #SUP: 2
342 -1 77 -1 #SUP: 2
356 -1 22 -1 #SUP: 3
356 -1 77 -1 #SUP: 2
356 -1 123 -1 #SUP: 2
356 -1 162 -1 #SUP: 2
356 -1 250 -1 #SUP: 2
356 -1 1204 -1 #SUP: 2
356 -1 5611 -1 #SUP: 2
507 -1 77 -1 #SUP: 3
507 -1 226 -1 #SUP: 2
507 -1 566 -1 #SUP: 2
507 -1 589 -1 #SUP: 2
507 -1 1679 -1 #SUP: 2
520 -1 77 -1 #SUP: 3
520 -1 520 -1 #SUP: 3
566 -1 226 -1 #SUP: 2
566 -1 589 -1 #SUP: 2
850 -1 929 -1 #SUP: 2
850 -1 8449 -1 #SUP: 2
929 -1 2 -1 #SUP: 2
929 -1 123 -1 #SUP: 2
929 -1 47987 -1 #SUP: 2
1204 -1 41 -1 #SUP: 2
1204 -1 65 -1 #SUP: 2
1204 -1 77 -1 #SUP: 2
1204 -1 144 -1 #SUP: 3
1204 -1 154 -1 #SUP: 2
1204 -1 162 -1 #SUP: 3
1204 -1 222 -1 #SUP: 2
1204 -1 250 -1 #SUP: 2
1204 -1 1204 -1 #SUP: 2
1204 -1 1758 -1 #SUP: 2
1204 -1 3441 -1 #SUP: 2
1204 -1 16339 -1 #SUP: 2
1679 -1 77 -1 #SUP: 2
1679 -1 226 -1 #SUP: 2
1679 -1 566 -1 #SUP: 2
1679 -1 589 -1 #SUP: 2
2395 -1 280 -1 #SUP: 2
2395 -1 2395 -1 #SUP: 3
2395 -1 18344 -1 #SUP: 2
8449 -1 929 -1 #SUP: 2
14427 -1 77 -1 #SUP: 2
17570 -1 2395 -1 #SUP: 2
17570 -1 18344 -1 #SUP: 2
18344 -1 2395 -1 #SUP: 2
47987 -1 123 -1 #SUP: 2
56593 -1 280 -1 #SUP: 2
56593 -1 2630 -1 #SUP: 2
2 -1 47987 -1 123 -1 #SUP: 2
9 -1 28 -1 26 -1 #SUP: 2
22 -1 22 -1 77 -1 #SUP: 2
22 -1 101 -1 91 -1 #SUP: 2
65 -1 65 -1 77 -1 #SUP: 3
65 -1 65 -1 566 -1 #SUP: 2
65 -1 65 -1 1679 -1 #SUP: 2
65 -1 77 -1 22 -1 #SUP: 2
65 -1 77 -1 65 -1 #SUP: 3
65 -1 77 -1 77 -1 #SUP: 2
65 -1 77 -1 170 -1 #SUP: 2
65 -1 77 -1 226 -1 #SUP: 2
65 -1 77 -1 566 -1 #SUP: 2
65 -1 77 -1 589 -1 #SUP: 2
65 -1 77 -1 1679 -1 #SUP: 2
65 -1 226 -1 65 -1 #SUP: 2
65 -1 226 -1 77 -1 #SUP: 2
65 -1 226 -1 589 -1 #SUP: 2
65 -1 507 -1 77 -1 #SUP: 3
65 -1 507 -1 226 -1 #SUP: 2
65 -1 507 -1 566 -1 #SUP: 2
65 -1 507 -1 589 -1 #SUP: 2
65 -1 507 -1 1679 -1 #SUP: 2
65 -1 566 -1 226 -1 #SUP: 2
65 -1 566 -1 589 -1 #SUP: 2
65 -1 1679 -1 77 -1 #SUP: 2
65 -1 1679 -1 226 -1 #SUP: 2
65 -1 1679 -1 566 -1 #SUP: 2
65 -1 1679 -1 589 -1 #SUP: 2
77 -1 65 -1 77 -1 #SUP: 2
77 -1 65 -1 507 -1 #SUP: 2
77 -1 226 -1 589 -1 #SUP: 2
77 -1 520 -1 77 -1 #SUP: 2
77 -1 520 -1 520 -1 #SUP: 2
77 -1 566 -1 226 -1 #SUP: 2
77 -1 566 -1 589 -1 #SUP: 2
78 -1 225 -1 1313 -1 #SUP: 2
101 -1 91 -1 98 -1 #SUP: 2
123 -1 16 -1 123 -1 #SUP: 2
123 -1 16 -1 1204 -1 #SUP: 2
123 -1 22 -1 22 -1 #SUP: 2
123 -1 144 -1 16 -1 #SUP: 3
123 -1 144 -1 123 -1 #SUP: 2
123 -1 144 -1 1204 -1 #SUP: 2
144 -1 16 -1 123 -1 #SUP: 2
144 -1 16 -1 1204 -1 #SUP: 2
162 -1 22 -1 22 -1 #SUP: 2
162 -1 123 -1 22 -1 #SUP: 2
162 -1 14427 -1 77 -1 #SUP: 2
170 -1 65 -1 77 -1 #SUP: 2
201 -1 170 -1 65 -1 #SUP: 2
226 -1 77 -1 65 -1 #SUP: 2
356 -1 77 -1 22 -1 #SUP: 2
356 -1 123 -1 22 -1 #SUP: 2
356 -1 162 -1 22 -1 #SUP: 2
356 -1 162 -1 123 -1 #SUP: 2
356 -1 250 -1 5611 -1 #SUP: 2
507 -1 77 -1 226 -1 #SUP: 2
507 -1 77 -1 566 -1 #SUP: 2
507 -1 77 -1 589 -1 #SUP: 2
507 -1 226 -1 589 -1 #SUP: 2
507 -1 566 -1 226 -1 #SUP: 2
507 -1 566 -1 589 -1 #SUP: 2
507 -1 1679 -1 77 -1 #SUP: 2
507 -1 1679 -1 226 -1 #SUP: 2
507 -1 1679 -1 566 -1 #SUP: 2
507 -1 1679 -1 589 -1 #SUP: 2
520 -1 77 -1 77 -1 #SUP: 2
520 -1 77 -1 520 -1 #SUP: 2
520 -1 520 -1 77 -1 #SUP: 2
520 -1 520 -1 520 -1 #SUP: 2
566 -1 226 -1 589 -1 #SUP: 2
850 -1 8449 -1 929 -1 #SUP: 2
929 -1 2 -1 123 -1 #SUP: 2
929 -1 2 -1 47987 -1 #SUP: 2
929 -1 47987 -1 123 -1 #SUP: 2
1204 -1 144 -1 1204 -1 #SUP: 2
1679 -1 77 -1 226 -1 #SUP: 2
1679 -1 77 -1 566 -1 #SUP: 2
1679 -1 77 -1 589 -1 #SUP: 2
1679 -1 226 -1 589 -1 #SUP: 2
1679 -1 566 -1 226 -1 #SUP: 2
1679 -1 566 -1 589 -1 #SUP: 2
2395 -1 18344 -1 2395 -1 #SUP: 2
17570 -1 18344 -1 2395 -1 #SUP: 2
56593 -1 280 -1 2630 -1 #SUP: 2
65 -1 65 -1 77 -1 566 -1 #SUP: 2
65 -1 65 -1 1679 -1 77 -1 #SUP: 2
65 -1 65 -1 1679 -1 566 -1 #SUP: 2
65 -1 77 -1 65 -1 77 -1 #SUP: 2
65 -1 77 -1 226 -1 589 -1 #SUP: 2
65 -1 77 -1 566 -1 226 -1 #SUP: 2
65 -1 77 -1 566 -1 589 -1 #SUP: 2
65 -1 507 -1 77 -1 226 -1 #SUP: 2
65 -1 507 -1 77 -1 566 -1 #SUP: 2
65 -1 507 -1 77 -1 589 -1 #SUP: 2
65 -1 507 -1 226 -1 589 -1 #SUP: 2
65 -1 507 -1 566 -1 226 -1 #SUP: 2
65 -1 507 -1 566 -1 589 -1 #SUP: 2
65 -1 507 -1 1679 -1 77 -1 #SUP: 2
65 -1 507 -1 1679 -1 226 -1 #SUP: 2
65 -1 507 -1 1679 -1 566 -1 #SUP: 2
65 -1 507 -1 1679 -1 589 -1 #SUP: 2
65 -1 566 -1 226 -1 589 -1 #SUP: 2
65 -1 1679 -1 77 -1 226 -1 #SUP: 2
65 -1 1679 -1 77 -1 566 -1 #SUP: 2
65 -1 1679 -1 77 -1 589 -1 #SUP: 2
65 -1 1679 -1 226 -1 589 -1 #SUP: 2
65 -1 1679 -1 566 -1 226 -1 #SUP: 2
65 -1 1679 -1 566 -1 589 -1 #SUP: 2
77 -1 566 -1 226 -1 589 -1 #SUP: 2
123 -1 144 -1 16 -1 123 -1 #SUP: 2
123 -1 144 -1 16 -1 1204 -1 #SUP: 2
356 -1 162 -1 123 -1 22 -1 #SUP: 2
507 -1 77 -1 226 -1 589 -1 #SUP: 2
507 -1 77 -1 566 -1 226 -1 #SUP: 2
507 -1 77 -1 566 -1 589 -1 #SUP: 2
507 -1 566 -1 226 -1 589 -1 #SUP: 2
507 -1 1679 -1 77 -1 226 -1 #SUP: 2
507 -1 1679 -1 77 -1 566 -1 #SUP: 2
507 -1 1679 -1 77 -1 589 -1 #SUP: 2
507 -1 1679 -1 226 -1 589 -1 #SUP: 2
507 -1 1679 -1 566 -1 226 -1 #SUP: 2
507 -1 1679 -1 566 -1 589 -1 #SUP: 2
520 -1 77 -1 520 -1 77 -1 #SUP: 2
520 -1 77 -1 520 -1 520 -1 #SUP: 2
929 -1 2 -1 47987 -1 123 -1 #SUP: 2
1679 -1 77 -1 226 -1 589 -1 #SUP: 2
1679 -1 77 -1 566 -1 226 -1 #SUP: 2
1679 -1 77 -1 566 -1 589 -1 #SUP: 2
1679 -1 566 -1 226 -1 589 -1 #SUP: 2
65 -1 65 -1 1679 -1 77 -1 566 -1 #SUP: 2
65 -1 77 -1 566 -1 226 -1 589 -1 #SUP: 2
65 -1 507 -1 77 -1 226 -1 589 -1 #SUP: 2
65 -1 507 -1 77 -1 566 -1 226 -1 #SUP: 2
65 -1 507 -1 77 -1 566 -1 589 -1 #SUP: 2
65 -1 507 -1 566 -1 226 -1 589 -1 #SUP: 2
65 -1 507 -1 1679 -1 77 -1 226 -1 #SUP: 2
65 -1 507 -1 1679 -1 77 -1 566 -1 #SUP: 2
65 -1 507 -1 1679 -1 77 -1 589 -1 #SUP: 2
65 -1 507 -1 1679 -1 226 -1 589 -1 #SUP: 2
65 -1 507 -1 1679 -1 566 -1 226 -1 #SUP: 2
65 -1 507 -1 1679 -1 566 -1 589 -1 #SUP: 2
65 -1 1679 -1 77 -1 226 -1 589 -1 #SUP: 2
65 -1 1679 -1 77 -1 566 -1 226 -1 #SUP: 2
65 -1 1679 -1 77 -1 566 -1 589 -1 #SUP: 2
65 -1 1679 -1 566 -1 226 -1 589 -1 #SUP: 2
507 -1 77 -1 566 -1 226 -1 589 -1 #SUP: 2
507 -1 1679 -1 77 -1 226 -1 589 -1 #SUP: 2
507 -1 1679 -1 77 -1 566 -1 226 -1 #SUP: 2
507 -1 1679 -1 77 -1 566 -1 589 -1 #SUP: 2
507 -1 1679 -1 566 -1 226 -1 589 -1 #SUP: 2
1679 -1 77 -1 566 -1 226 -1 589 -1 #SUP: 2
65 -1 507 -1 77 -1 566 -1 226 -1 589 -1 #SUP: 2
65 -1 507 -1 1679 -1 77 -1 226 -1 589 -1 #SUP: 2
65 -1 507 -1 1679 -1 77 -1 566 -1 226 -1 #SUP: 2
65 -1 507 -1 1679 -1 77 -1 566 -1 589 -1 #SUP: 2
65 -1 507 -1 1679 -1 566 -1 226 -1 589 -1 #SUP: 2
65 -1 1679 -1 77 -1 566 -1 226 -1 589 -1 #SUP: 2
507 -1 1679 -1 77 -1 566 -1 226 -1 589 -1 #SUP: 2
65 -1 507 -1 1679 -1 77 -1 566 -1 226 -1 589 -1 #SUP: 2
