2 -1 #SUP: 16
5 -1 #SUP: 2
7 -1 #SUP: 3
8 -1 #SUP: 4
9 -1 #SUP: 2
10 -1 #SUP: 10
16 -1 #SUP: 7
22 -1 #SUP: 22
26 -1 #SUP: 3
27 -1 #SUP: 3
28 -1 #SUP: 3
29 -1 #SUP: 5
30 -1 #SUP: 6
31 -1 #SUP: 7
32 -1 #SUP: 10
33 -1 #SUP: 3
41 -1 #SUP: 15
50 -1 #SUP: 9
64 -1 #SUP: 19
65 -1 #SUP: 14
67 -1 #SUP: 11
70 -1 #SUP: 3
73 -1 #SUP: 3
76 -1 #SUP: 5
77 -1 #SUP: 54
78 -1 #SUP: 8
117 -1 #SUP: 3
120 -1 #SUP: 5
123 -1 #SUP: 49
132 -1 #SUP: 2
144 -1 #SUP: 6
152 -1 #SUP: 4
154 -1 #SUP: 15
158 -1 #SUP: 2
162 -1 #SUP: 3
164 -1 #SUP: 7
165 -1 #SUP: 2
168 -1 #SUP: 3
170 -1 #SUP: 10
171 -1 #SUP: 5
174 -1 #SUP: 3
175 -1 #SUP: 2
183 -1 #SUP: 5
189 -1 #SUP: 4
193 -1 #SUP: 16
196 -1 #SUP: 4
198 -1 #SUP: 3
201 -1 #SUP: 3
206 -1 #SUP: 2
210 -1 #SUP: 4
212 -1 #SUP: 9
213 -1 #SUP: 2
220 -1 #SUP: 3
222 -1 #SUP: 8
223 -1 #SUP: 2
224 -1 #SUP: 2
225 -1 #SUP: 5
226 -1 #SUP: 4
236 -1 #SUP: 8
246 -1 #SUP: 2
248 -1 #SUP: 6
256 -1 #SUP: 2
259 -1 #SUP: 2
260 -1 #SUP: 5
262 -1 #SUP: 11
263 -1 #SUP: 2
276 -1 #SUP: 3
280 -1 #SUP: 2
285 -1 #SUP: 2
286 -1 #SUP: 3
291 -1 #SUP: 2
295 -1 #SUP: 2
308 -1 #SUP: 4
309 -1 #SUP: 2
321 -1 #SUP: 3
326 -1 #SUP: 3
349 -1 #SUP: 3
356 -1 #SUP: 9
364 -1 #SUP: 10
365 -1 #SUP: 4
381 -1 #SUP: 2
384 -1 #SUP: 2
407 -1 #SUP: 6
417 -1 #SUP: 2
441 -1 #SUP: 5
443 -1 #SUP: 5
444 -1 #SUP: 2
488 -1 #SUP: 2
520 -1 #SUP: 9
533 -1 #SUP: 3
536 -1 #SUP: 2
543 -1 #SUP: 2
544 -1 #SUP: 2
549 -1 #SUP: 2
567 -1 #SUP: 2
599 -1 #SUP: 4
613 -1 #SUP: 5
624 -1 #SUP: 2
630 -1 #SUP: 3
632 -1 #SUP: 3
638 -1 #SUP: 3
652 -1 #SUP: 2
656 -1 #SUP: 2
668 -1 #SUP: 4
671 -1 #SUP: 2
693 -1 #SUP: 2
699 -1 #SUP: 3
702 -1 #SUP: 2
738 -1 #SUP: 2
831 -1 #SUP: 2
840 -1 #SUP: 4
856 -1 #SUP: 3
872 -1 #SUP: 2
879 -1 #SUP: 3
929 -1 #SUP: 2
1039 -1 #SUP: 2
1082 -1 #SUP: 2
1127 -1 #SUP: 3
1191 -1 #SUP: 2
1193 -1 #SUP: 3
1205 -1 #SUP: 2
1216 -1 #SUP: 2
1220 -1 #SUP: 2
1225 -1 #SUP: 2
1284 -1 #SUP: 2
1325 -1 #SUP: 2
1326 -1 #SUP: 3
1354 -1 #SUP: 2
1382 -1 #SUP: 5
1468 -1 #SUP: 2
1591 -1 #SUP: 4
1617 -1 #SUP: 2
1619 -1 #SUP: 2
1673 -1 #SUP: 2
1737 -1 #SUP: 3
1758 -1 #SUP: 2
1914 -1 #SUP: 4
1984 -1 #SUP: 3
2205 -1 #SUP: 2
2366 -1 #SUP: 2
2544 -1 #SUP: 2
2823 -1 #SUP: 2
2880 -1 #SUP: 5
3956 -1 #SUP: 2
4153 -1 #SUP: 2
5369 -1 #SUP: 3
5570 -1 #SUP: 2
5684 -1 #SUP: 2
5702 -1 #SUP: 2
6100 -1 #SUP: 2
8865 -1 #SUP: 2
9052 -1 #SUP: 2
9500 -1 #SUP: 2
11737 -1 #SUP: 2
16111 -1 #SUP: 2
28934 -1 #SUP: 2
31071 -1 #SUP: 2
37703 -1 #SUP: 2
2 -1 10 -1 #SUP: 2
2 -1 22 -1 #SUP: 3
2 -1 67 -1 #SUP: 3
2 -1 123 -1 #SUP: 6
2 -1 154 -1 #SUP: 2
2 -1 170 -1 #SUP: 2
2 -1 171 -1 #SUP: 2
2 -1 225 -1 #SUP: 2
2 -1 407 -1 #SUP: 3
2 -1 1127 -1 #SUP: 2
8 -1 26 -1 #SUP: 3
8 -1 28 -1 #SUP: 3
8 -1 67 -1 #SUP: 2
9 -1 210 -1 #SUP: 2
9 -1 6100 -1 #SUP: 2
9 -1 9500 -1 #SUP: 2
9 -1 11737 -1 #SUP: 2
9 -1 16111 -1 #SUP: 2
9 -1 28934 -1 #SUP: 2
9 -1 31071 -1 #SUP: 2
10 -1 22 -1 #SUP: 2
10 -1 77 -1 #SUP: 5
10 -1 123 -1 #SUP: 2
16 -1 64 -1 #SUP: 2
16 -1 67 -1 #SUP: 2
16 -1 77 -1 #SUP: 5
16 -1 1354 -1 #SUP: 2
22 -1 10 -1 #SUP: 3
22 -1 22 -1 #SUP: 2
22 -1 32 -1 #SUP: 2
22 -1 41 -1 #SUP: 2
22 -1 77 -1 #SUP: 5
22 -1 123 -1 #SUP: 2
22 -1 225 -1 #SUP: 3
22 -1 520 -1 #SUP: 3
22 -1 1284 -1 #SUP: 2
26 -1 67 -1 #SUP: 2
28 -1 26 -1 #SUP: 3
28 -1 67 -1 #SUP: 2
29 -1 154 -1 #SUP: 2
29 -1 831 -1 #SUP: 2
30 -1 30 -1 #SUP: 2
30 -1 64 -1 #SUP: 2
31 -1 22 -1 #SUP: 3
32 -1 2 -1 #SUP: 3
32 -1 22 -1 #SUP: 2
32 -1 50 -1 #SUP: 2
32 -1 65 -1 #SUP: 2
32 -1 67 -1 #SUP: 2
32 -1 123 -1 #SUP: 3
32 -1 668 -1 #SUP: 2
32 -1 879 -1 #SUP: 2
32 -1 1984 -1 #SUP: 2
33 -1 22 -1 #SUP: 2
41 -1 77 -1 #SUP: 2
41 -1 144 -1 #SUP: 2
41 -1 170 -1 #SUP: 2
41 -1 549 -1 #SUP: 2
41 -1 1617 -1 #SUP: 2
41 -1 2205 -1 #SUP: 2
50 -1 2 -1 #SUP: 3
50 -1 67 -1 #SUP: 2
50 -1 77 -1 #SUP: 2
50 -1 123 -1 #SUP: 2
50 -1 171 -1 #SUP: 3
50 -1 668 -1 #SUP: 3
50 -1 1354 -1 #SUP: 2
50 -1 2366 -1 #SUP: 2
64 -1 65 -1 #SUP: 4
64 -1 67 -1 #SUP: 3
64 -1 77 -1 #SUP: 3
64 -1 78 -1 #SUP: 2
64 -1 193 -1 #SUP: 2
65 -1 2 -1 #SUP: 2
65 -1 67 -1 #SUP: 2
65 -1 77 -1 #SUP: 5
65 -1 123 -1 #SUP: 2
65 -1 162 -1 #SUP: 2
65 -1 183 -1 #SUP: 2
65 -1 193 -1 #SUP: 3
65 -1 222 -1 #SUP: 2
65 -1 1984 -1 #SUP: 2
67 -1 10 -1 #SUP: 2
67 -1 22 -1 #SUP: 4
67 -1 65 -1 #SUP: 2
67 -1 77 -1 #SUP: 4
67 -1 123 -1 #SUP: 2
67 -1 171 -1 #SUP: 2
67 -1 236 -1 #SUP: 2
67 -1 356 -1 #SUP: 2
67 -1 365 -1 #SUP: 2
67 -1 1193 -1 #SUP: 2
67 -1 8865 -1 #SUP: 2
73 -1 236 -1 #SUP: 2
76 -1 76 -1 #SUP: 3
76 -1 77 -1 #SUP: 3
77 -1 2 -1 #SUP: 5
77 -1 10 -1 #SUP: 3
77 -1 22 -1 #SUP: 3
77 -1 30 -1 #SUP: 3
77 -1 31 -1 #SUP: 2
77 -1 32 -1 #SUP: 2
77 -1 41 -1 #SUP: 4
77 -1 50 -1 #SUP: 3
77 -1 64 -1 #SUP: 3
77 -1 76 -1 #SUP: 3
77 -1 77 -1 #SUP: 13
77 -1 78 -1 #SUP: 2
77 -1 123 -1 #SUP: 9
77 -1 164 -1 #SUP: 2
77 -1 183 -1 #SUP: 2
77 -1 193 -1 #SUP: 7
77 -1 196 -1 #SUP: 2
77 -1 212 -1 #SUP: 4
77 -1 222 -1 #SUP: 2
77 -1 225 -1 #SUP: 2
77 -1 236 -1 #SUP: 3
77 -1 262 -1 #SUP: 3
77 -1 349 -1 #SUP: 2
77 -1 364 -1 #SUP: 3
77 -1 520 -1 #SUP: 3
77 -1 599 -1 #SUP: 4
77 -1 613 -1 #SUP: 4
77 -1 840 -1 #SUP: 2
77 -1 1591 -1 #SUP: 2
77 -1 5369 -1 #SUP: 2
78 -1 65 -1 #SUP: 2
78 -1 78 -1 #SUP: 3
78 -1 154 -1 #SUP: 2
120 -1 77 -1 #SUP: 2
120 -1 123 -1 #SUP: 2
123 -1 10 -1 #SUP: 4
123 -1 16 -1 #SUP: 2
123 -1 22 -1 #SUP: 8
123 -1 29 -1 #SUP: 2
123 -1 30 -1 #SUP: 2
123 -1 31 -1 #SUP: 3
123 -1 33 -1 #SUP: 2
123 -1 41 -1 #SUP: 3
123 -1 64 -1 #SUP: 6
123 -1 65 -1 #SUP: 4
123 -1 67 -1 #SUP: 3
123 -1 73 -1 #SUP: 2
123 -1 77 -1 #SUP: 7
123 -1 78 -1 #SUP: 3
123 -1 120 -1 #SUP: 4
123 -1 123 -1 #SUP: 8
123 -1 144 -1 #SUP: 2
123 -1 154 -1 #SUP: 8
123 -1 162 -1 #SUP: 2
123 -1 170 -1 #SUP: 2
123 -1 174 -1 #SUP: 3
123 -1 193 -1 #SUP: 4
123 -1 210 -1 #SUP: 2
123 -1 212 -1 #SUP: 4
123 -1 225 -1 #SUP: 2
123 -1 226 -1 #SUP: 2
123 -1 236 -1 #SUP: 2
123 -1 260 -1 #SUP: 2
123 -1 262 -1 #SUP: 4
123 -1 276 -1 #SUP: 2
123 -1 286 -1 #SUP: 2
123 -1 349 -1 #SUP: 2
123 -1 356 -1 #SUP: 4
123 -1 365 -1 #SUP: 3
123 -1 384 -1 #SUP: 2
123 -1 407 -1 #SUP: 6
123 -1 441 -1 #SUP: 4
123 -1 520 -1 #SUP: 3
123 -1 613 -1 #SUP: 3
123 -1 632 -1 #SUP: 2
123 -1 638 -1 #SUP: 3
123 -1 879 -1 #SUP: 3
123 -1 929 -1 #SUP: 2
123 -1 1039 -1 #SUP: 2
123 -1 1193 -1 #SUP: 2
123 -1 1284 -1 #SUP: 2
123 -1 1326 -1 #SUP: 2
123 -1 1382 -1 #SUP: 2
123 -1 1591 -1 #SUP: 3
123 -1 1619 -1 #SUP: 2
123 -1 1737 -1 #SUP: 2
123 -1 2544 -1 #SUP: 2
123 -1 3956 -1 #SUP: 2
123 -1 8865 -1 #SUP: 2
144 -1 170 -1 #SUP: 2
152 -1 193 -1 #SUP: 2
154 -1 2 -1 #SUP: 2
154 -1 10 -1 #SUP: 2
154 -1 22 -1 #SUP: 2
154 -1 64 -1 #SUP: 2
154 -1 77 -1 #SUP: 4
154 -1 154 -1 #SUP: 2
154 -1 170 -1 #SUP: 5
154 -1 193 -1 #SUP: 2
154 -1 365 -1 #SUP: 2
154 -1 520 -1 #SUP: 2
154 -1 1127 -1 #SUP: 2
164 -1 41 -1 #SUP: 3
164 -1 222 -1 #SUP: 2
165 -1 67 -1 #SUP: 2
168 -1 533 -1 #SUP: 2
170 -1 2 -1 #SUP: 2
170 -1 65 -1 #SUP: 3
170 -1 77 -1 #SUP: 2
170 -1 520 -1 #SUP: 2
171 -1 32 -1 #SUP: 2
171 -1 123 -1 #SUP: 2
171 -1 407 -1 #SUP: 2
183 -1 1216 -1 #SUP: 2
189 -1 77 -1 #SUP: 3
189 -1 123 -1 #SUP: 2
193 -1 64 -1 #SUP: 3
193 -1 77 -1 #SUP: 2
193 -1 78 -1 #SUP: 2
193 -1 123 -1 #SUP: 2
193 -1 154 -1 #SUP: 3
193 -1 170 -1 #SUP: 2
196 -1 154 -1 #SUP: 2
198 -1 77 -1 #SUP: 2
206 -1 22 -1 #SUP: 2
206 -1 123 -1 #SUP: 2
210 -1 6100 -1 #SUP: 2
210 -1 9500 -1 #SUP: 2
210 -1 11737 -1 #SUP: 2
210 -1 31071 -1 #SUP: 2
212 -1 22 -1 #SUP: 2
212 -1 32 -1 #SUP: 2
212 -1 77 -1 #SUP: 2
212 -1 123 -1 #SUP: 2
220 -1 16 -1 #SUP: 2
220 -1 64 -1 #SUP: 2
222 -1 236 -1 #SUP: 2
222 -1 356 -1 #SUP: 2
225 -1 123 -1 #SUP: 2
226 -1 22 -1 #SUP: 3
226 -1 41 -1 #SUP: 2
236 -1 77 -1 #SUP: 3
236 -1 123 -1 #SUP: 3
236 -1 365 -1 #SUP: 2
248 -1 77 -1 #SUP: 4
262 -1 77 -1 #SUP: 3
262 -1 154 -1 #SUP: 2
262 -1 196 -1 #SUP: 2
262 -1 222 -1 #SUP: 2
262 -1 1082 -1 #SUP: 2
276 -1 154 -1 #SUP: 2
276 -1 356 -1 #SUP: 2
286 -1 123 -1 #SUP: 2
286 -1 879 -1 #SUP: 2
308 -1 77 -1 #SUP: 2
308 -1 189 -1 #SUP: 2
356 -1 2 -1 #SUP: 2
356 -1 22 -1 #SUP: 3
356 -1 123 -1 #SUP: 2
364 -1 64 -1 #SUP: 2
364 -1 123 -1 #SUP: 2
364 -1 164 -1 #SUP: 2
364 -1 656 -1 #SUP: 2
364 -1 1191 -1 #SUP: 2
365 -1 170 -1 #SUP: 2
407 -1 262 -1 #SUP: 2
407 -1 879 -1 #SUP: 2
407 -1 1619 -1 #SUP: 2
441 -1 154 -1 #SUP: 2
443 -1 22 -1 #SUP: 2
444 -1 123 -1 #SUP: 2
520 -1 123 -1 #SUP: 2
533 -1 77 -1 #SUP: 2
599 -1 77 -1 #SUP: 2
599 -1 123 -1 #SUP: 2
613 -1 77 -1 #SUP: 2
613 -1 1591 -1 #SUP: 2
624 -1 77 -1 #SUP: 2
630 -1 123 -1 #SUP: 2
630 -1 613 -1 #SUP: 2
638 -1 123 -1 #SUP: 2
652 -1 77 -1 #SUP: 2
668 -1 2 -1 #SUP: 2
693 -1 64 -1 #SUP: 2
856 -1 41 -1 #SUP: 3
879 -1 1619 -1 #SUP: 2
929 -1 22 -1 #SUP: 2
929 -1 77 -1 #SUP: 2
929 -1 1284 -1 #SUP: 2
1082 -1 154 -1 #SUP: 2
1284 -1 77 -1 #SUP: 2
1354 -1 77 -1 #SUP: 2
1382 -1 2544 -1 #SUP: 2
1617 -1 2205 -1 #SUP: 2
1673 -1 9052 -1 #SUP: 2
1984 -1 67 -1 #SUP: 2
1984 -1 123 -1 #SUP: 2
1984 -1 162 -1 #SUP: 2
5369 -1 77 -1 #SUP: 2
5369 -1 5369 -1 #SUP: 2
6100 -1 11737 -1 #SUP: 2
6100 -1 31071 -1 #SUP: 2
9500 -1 6100 -1 #SUP: 2
9500 -1 11737 -1 #SUP: 2
9500 -1 31071 -1 #SUP: 2
11737 -1 31071 -1 #SUP: 2
16111 -1 210 -1 #SUP: 2
16111 -1 6100 -1 #SUP: 2
16111 -1 9500 -1 #SUP: 2
16111 -1 11737 -1 #SUP: 2
16111 -1 31071 -1 #SUP: 2
28934 -1 210 -1 #SUP: 2
28934 -1 6100 -1 #SUP: 2
28934 -1 9500 -1 #SUP: 2
28934 -1 11737 -1 #SUP: 2
28934 -1 16111 -1 #SUP: 2
28934 -1 31071 -1 #SUP: 2
2 -1 10 -1 22 -1 #SUP: 2
2 -1 22 -1 123 -1 #SUP: 2
2 -1 22 -1 225 -1 #SUP: 2
2 -1 123 -1 407 -1 #SUP: 3
2 -1 171 -1 123 -1 #SUP: 2
2 -1 171 -1 407 -1 #SUP: 2
2 -1 225 -1 123 -1 #SUP: 2
8 -1 26 -1 67 -1 #SUP: 2
8 -1 28 -1 26 -1 #SUP: 3
8 -1 28 -1 67 -1 #SUP: 2
9 -1 210 -1 6100 -1 #SUP: 2
9 -1 210 -1 9500 -1 #SUP: 2
9 -1 210 -1 11737 -1 #SUP: 2
9 -1 210 -1 31071 -1 #SUP: 2
9 -1 6100 -1 11737 -1 #SUP: 2
9 -1 6100 -1 31071 -1 #SUP: 2
9 -1 9500 -1 6100 -1 #SUP: 2
9 -1 9500 -1 11737 -1 #SUP: 2
9 -1 9500 -1 31071 -1 #SUP: 2
9 -1 11737 -1 31071 -1 #SUP: 2
9 -1 16111 -1 210 -1 #SUP: 2
9 -1 16111 -1 6100 -1 #SUP: 2
9 -1 16111 -1 9500 -1 #SUP: 2
9 -1 16111 -1 11737 -1 #SUP: 2
9 -1 16111 -1 31071 -1 #SUP: 2
9 -1 28934 -1 210 -1 #SUP: 2
9 -1 28934 -1 6100 -1 #SUP: 2
9 -1 28934 -1 9500 -1 #SUP: 2
9 -1 28934 -1 11737 -1 #SUP: 2
9 -1 28934 -1 16111 -1 #SUP: 2
9 -1 28934 -1 31071 -1 #SUP: 2
10 -1 77 -1 123 -1 #SUP: 2
16 -1 64 -1 77 -1 #SUP: 2
16 -1 67 -1 77 -1 #SUP: 2
16 -1 77 -1 77 -1 #SUP: 2
16 -1 1354 -1 77 -1 #SUP: 2
22 -1 77 -1 77 -1 #SUP: 2
22 -1 77 -1 520 -1 #SUP: 2
22 -1 225 -1 123 -1 #SUP: 2
22 -1 1284 -1 77 -1 #SUP: 2
28 -1 26 -1 67 -1 #SUP: 2
32 -1 50 -1 2 -1 #SUP: 2
32 -1 50 -1 668 -1 #SUP: 2
32 -1 65 -1 67 -1 #SUP: 2
32 -1 65 -1 1984 -1 #SUP: 2
32 -1 123 -1 879 -1 #SUP: 2
32 -1 668 -1 2 -1 #SUP: 2
32 -1 1984 -1 67 -1 #SUP: 2
41 -1 1617 -1 2205 -1 #SUP: 2
50 -1 67 -1 77 -1 #SUP: 2
50 -1 668 -1 2 -1 #SUP: 2
50 -1 1354 -1 77 -1 #SUP: 2
64 -1 77 -1 77 -1 #SUP: 2
64 -1 78 -1 65 -1 #SUP: 2
65 -1 1984 -1 67 -1 #SUP: 2
67 -1 123 -1 356 -1 #SUP: 2
67 -1 236 -1 365 -1 #SUP: 2
76 -1 76 -1 76 -1 #SUP: 2
76 -1 76 -1 77 -1 #SUP: 2
76 -1 77 -1 76 -1 #SUP: 3
76 -1 77 -1 77 -1 #SUP: 2
77 -1 30 -1 30 -1 #SUP: 2
77 -1 76 -1 76 -1 #SUP: 2
77 -1 76 -1 77 -1 #SUP: 2
77 -1 77 -1 30 -1 #SUP: 2
77 -1 77 -1 76 -1 #SUP: 2
77 -1 123 -1 22 -1 #SUP: 3
77 -1 123 -1 77 -1 #SUP: 2
77 -1 123 -1 78 -1 #SUP: 2
77 -1 123 -1 193 -1 #SUP: 3
77 -1 123 -1 225 -1 #SUP: 2
77 -1 123 -1 613 -1 #SUP: 2
77 -1 599 -1 77 -1 #SUP: 2
77 -1 613 -1 77 -1 #SUP: 2
123 -1 10 -1 77 -1 #SUP: 2
123 -1 22 -1 77 -1 #SUP: 2
123 -1 22 -1 1284 -1 #SUP: 2
123 -1 33 -1 22 -1 #SUP: 2
123 -1 67 -1 8865 -1 #SUP: 2
123 -1 77 -1 123 -1 #SUP: 2
123 -1 77 -1 212 -1 #SUP: 3
123 -1 120 -1 123 -1 #SUP: 2
123 -1 123 -1 212 -1 #SUP: 2
123 -1 154 -1 170 -1 #SUP: 2
123 -1 226 -1 41 -1 #SUP: 2
123 -1 276 -1 154 -1 #SUP: 2
123 -1 407 -1 262 -1 #SUP: 2
123 -1 407 -1 879 -1 #SUP: 2
123 -1 407 -1 1619 -1 #SUP: 2
123 -1 441 -1 154 -1 #SUP: 2
123 -1 638 -1 123 -1 #SUP: 2
123 -1 879 -1 1619 -1 #SUP: 2
123 -1 929 -1 22 -1 #SUP: 2
123 -1 929 -1 1284 -1 #SUP: 2
123 -1 1382 -1 2544 -1 #SUP: 2
154 -1 170 -1 77 -1 #SUP: 2
154 -1 365 -1 170 -1 #SUP: 2
171 -1 123 -1 407 -1 #SUP: 2
193 -1 154 -1 170 -1 #SUP: 2
206 -1 123 -1 22 -1 #SUP: 2
210 -1 6100 -1 11737 -1 #SUP: 2
210 -1 6100 -1 31071 -1 #SUP: 2
210 -1 9500 -1 6100 -1 #SUP: 2
210 -1 9500 -1 11737 -1 #SUP: 2
210 -1 9500 -1 31071 -1 #SUP: 2
210 -1 11737 -1 31071 -1 #SUP: 2
212 -1 32 -1 22 -1 #SUP: 2
236 -1 77 -1 123 -1 #SUP: 2
262 -1 196 -1 154 -1 #SUP: 2
262 -1 1082 -1 154 -1 #SUP: 2
286 -1 123 -1 879 -1 #SUP: 2
308 -1 189 -1 77 -1 #SUP: 2
407 -1 879 -1 1619 -1 #SUP: 2
630 -1 123 -1 613 -1 #SUP: 2
929 -1 22 -1 77 -1 #SUP: 2
929 -1 22 -1 1284 -1 #SUP: 2
929 -1 1284 -1 77 -1 #SUP: 2
1984 -1 67 -1 123 -1 #SUP: 2
5369 -1 77 -1 5369 -1 #SUP: 2
6100 -1 11737 -1 31071 -1 #SUP: 2
9500 -1 6100 -1 11737 -1 #SUP: 2
9500 -1 6100 -1 31071 -1 #SUP: 2
9500 -1 11737 -1 31071 -1 #SUP: 2
16111 -1 210 -1 6100 -1 #SUP: 2
16111 -1 210 -1 9500 -1 #SUP: 2
16111 -1 210 -1 11737 -1 #SUP: 2
16111 -1 210 -1 31071 -1 #SUP: 2
16111 -1 6100 -1 11737 -1 #SUP: 2
16111 -1 6100 -1 31071 -1 #SUP: 2
16111 -1 9500 -1 6100 -1 #SUP: 2
16111 -1 9500 -1 11737 -1 #SUP: 2
16111 -1 9500 -1 31071 -1 #SUP: 2
16111 -1 11737 -1 31071 -1 #SUP: 2
28934 -1 210 -1 6100 -1 #SUP: 2
28934 -1 210 -1 9500 -1 #SUP: 2
28934 -1 210 -1 11737 -1 #SUP: 2
28934 -1 210 -1 31071 -1 #SUP: 2
28934 -1 6100 -1 11737 -1 #SUP: 2
28934 -1 6100 -1 31071 -1 #SUP: 2
28934 -1 9500 -1 6100 -1 #SUP: 2
28934 -1 9500 -1 11737 -1 #SUP: 2
28934 -1 9500 -1 31071 -1 #SUP: 2
28934 -1 11737 -1 31071 -1 #SUP: 2
28934 -1 16111 -1 210 -1 #SUP: 2
28934 -1 16111 -1 6100 -1 #SUP: 2
28934 -1 16111 -1 9500 -1 #SUP: 2
28934 -1 16111 -1 11737 -1 #SUP: 2
28934 -1 16111 -1 31071 -1 #SUP: 2
2 -1 22 -1 225 -1 123 -1 #SUP: 2
2 -1 171 -1 123 -1 407 -1 #SUP: 2
8 -1 28 -1 26 -1 67 -1 #SUP: 2
9 -1 210 -1 6100 -1 11737 -1 #SUP: 2
9 -1 210 -1 6100 -1 31071 -1 #SUP: 2
9 -1 210 -1 9500 -1 6100 -1 #SUP: 2
9 -1 210 -1 9500 -1 11737 -1 #SUP: 2
9 -1 210 -1 9500 -1 31071 -1 #SUP: 2
9 -1 210 -1 11737 -1 31071 -1 #SUP: 2
9 -1 6100 -1 11737 -1 31071 -1 #SUP: 2
9 -1 9500 -1 6100 -1 11737 -1 #SUP: 2
9 -1 9500 -1 6100 -1 31071 -1 #SUP: 2
9 -1 9500 -1 11737 -1 31071 -1 #SUP: 2
9 -1 16111 -1 210 -1 6100 -1 #SUP: 2
9 -1 16111 -1 210 -1 9500 -1 #SUP: 2
9 -1 16111 -1 210 -1 11737 -1 #SUP: 2
9 -1 16111 -1 210 -1 31071 -1 #SUP: 2
9 -1 16111 -1 6100 -1 11737 -1 #SUP: 2
9 -1 16111 -1 6100 -1 31071 -1 #SUP: 2
9 -1 16111 -1 9500 -1 6100 -1 #SUP: 2
9 -1 16111 -1 9500 -1 11737 -1 #SUP: 2
9 -1 16111 -1 9500 -1 31071 -1 #SUP: 2
9 -1 16111 -1 11737 -1 31071 -1 #SUP: 2
9 -1 28934 -1 210 -1 6100 -1 #SUP: 2
9 -1 28934 -1 210 -1 9500 -1 #SUP: 2
9 -1 28934 -1 210 -1 11737 -1 #SUP: 2
9 -1 28934 -1 210 -1 31071 -1 #SUP: 2
9 -1 28934 -1 6100 -1 11737 -1 #SUP: 2
9 -1 28934 -1 6100 -1 31071 -1 #SUP: 2
9 -1 28934 -1 9500 -1 6100 -1 #SUP: 2
9 -1 28934 -1 9500 -1 11737 -1 #SUP: 2
9 -1 28934 -1 9500 -1 31071 -1 #SUP: 2
9 -1 28934 -1 11737 -1 31071 -1 #SUP: 2
9 -1 28934 -1 16111 -1 210 -1 #SUP: 2
9 -1 28934 -1 16111 -1 6100 -1 #SUP: 2
9 -1 28934 -1 16111 -1 9500 -1 #SUP: 2
9 -1 28934 -1 16111 -1 11737 -1 #SUP: 2
9 -1 28934 -1 16111 -1 31071 -1 #SUP: 2
16 -1 64 -1 77 -1 77 -1 #SUP: 2
32 -1 50 -1 668 -1 2 -1 #SUP: 2
32 -1 65 -1 1984 -1 67 -1 #SUP: 2
76 -1 76 -1 77 -1 76 -1 #SUP: 2
76 -1 77 -1 76 -1 76 -1 #SUP: 2
76 -1 77 -1 76 -1 77 -1 #SUP: 2
76 -1 77 -1 77 -1 76 -1 #SUP: 2
77 -1 76 -1 77 -1 76 -1 #SUP: 2
77 -1 77 -1 30 -1 30 -1 #SUP: 2
123 -1 407 -1 879 -1 1619 -1 #SUP: 2
123 -1 929 -1 22 -1 1284 -1 #SUP: 2
210 -1 6100 -1 11737 -1 31071 -1 #SUP: 2
210 -1 9500 -1 6100 -1 11737 -1 #SUP: 2
210 -1 9500 -1 6100 -1 31071 -1 #SUP: 2
210 -1 9500 -1 11737 -1 31071 -1 #SUP: 2
929 -1 22 -1 1284 -1 77 -1 #SUP: 2
9500 -1 6100 -1 11737 -1 31071 -1 #SUP: 2
16111 -1 210 -1 6100 -1 11737 -1 #SUP: 2
16111 -1 210 -1 6100 -1 31071 -1 #SUP: 2
16111 -1 210 -1 9500 -1 6100 -1 #SUP: 2
16111 -1 210 -1 9500 -1 11737 -1 #SUP: 2
16111 -1 210 -1 9500 -1 31071 -1 #SUP: 2
16111 -1 210 -1 11737 -1 31071 -1 #SUP: 2
16111 -1 6100 -1 11737 -1 31071 -1 #SUP: 2
16111 -1 9500 -1 6100 -1 11737 -1 #SUP: 2
16111 -1 9500 -1 6100 -1 31071 -1 #SUP: 2
16111 -1 9500 -1 11737 -1 31071 -1 #SUP: 2
28934 -1 210 -1 6100 -1 11737 -1 #SUP: 2
28934 -1 210 -1 6100 -1 31071 -1 #SUP: 2
28934 -1 210 -1 9500 -1 6100 -1 #SUP: 2
28934 -1 210 -1 9500 -1 11737 -1 #SUP: 2
28934 -1 210 -1 9500 -1 31071 -1 #SUP: 2
28934 -1 210 -1 11737 -1 31071 -1 #SUP: 2
28934 -1 6100 -1 11737 -1 31071 -1 #SUP: 2
28934 -1 9500 -1 6100 -1 11737 -1 #SUP: 2
28934 -1 9500 -1 6100 -1 31071 -1 #SUP: 2
28934 -1 9500 -1 11737 -1 31071 -1 #SUP: 2
28934 -1 16111 -1 210 -1 6100 -1 #SUP: 2
28934 -1 16111 -1 210 -1 9500 -1 #SUP: 2
28934 -1 16111 -1 210 -1 11737 -1 #SUP: 2
28934 -1 16111 -1 210 -1 31071 -1 #SUP: 2
28934 -1 16111 -1 6100 -1 11737 -1 #SUP: 2
28934 -1 16111 -1 6100 -1 31071 -1 #SUP: 2
28934 -1 16111 -1 9500 -1 6100 -1 #SUP: 2
28934 -1 16111 -1 9500 -1 11737 -1 #SUP: 2
28934 -1 16111 -1 9500 -1 31071 -1 #SUP: 2
28934 -1 16111 -1 11737 -1 31071 -1 #SUP: 2
9 -1 210 -1 6100 -1 11737 -1 31071 -1 #SUP: 2
9 -1 210 -1 9500 -1 6100 -1 11737 -1 #SUP: 2
9 -1 210 -1 9500 -1 6100 -1 31071 -1 #SUP: 2
9 -1 210 -1 9500 -1 11737 -1 31071 -1 #SUP: 2
9 -1 9500 -1 6100 -1 11737 -1 31071 -1 #SUP: 2
9 -1 16111 -1 210 -1 6100 -1 11737 -1 #SUP: 2
9 -1 16111 -1 210 -1 6100 -1 31071 -1 #SUP: 2
9 -1 16111 -1 210 -1 9500 -1 6100 -1 #SUP: 2
9 -1 16111 -1 210 -1 9500 -1 11737 -1 #SUP: 2
9 -1 16111 -1 210 -1 9500 -1 31071 -1 #SUP: 2
9 -1 16111 -1 210 -1 11737 -1 31071 -1 #SUP: 2
9 -1 16111 -1 6100 -1 11737 -1 31071 -1 #SUP: 2
9 -1 16111 -1 9500 -1 6100 -1 11737 -1 #SUP: 2
9 -1 16111 -1 9500 -1 6100 -1 31071 -1 #SUP: 2
9 -1 16111 -1 9500 -1 11737 -1 31071 -1 #SUP: 2
9 -1 28934 -1 210 -1 6100 -1 11737 -1 #SUP: 2
9 -1 28934 -1 210 -1 6100 -1 31071 -1 #SUP: 2
9 -1 28934 -1 210 -1 9500 -1 6100 -1 #SUP: 2
9 -1 28934 -1 210 -1 9500 -1 11737 -1 #SUP: 2
9 -1 28934 -1 210 -1 9500 -1 31071 -1 #SUP: 2
9 -1 28934 -1 210 -1 11737 -1 31071 -1 #SUP: 2
9 -1 28934 -1 6100 -1 11737 -1 31071 -1 #SUP: 2
9 -1 28934 -1 9500 -1 6100 -1 11737 -1 #SUP: 2
9 -1 28934 -1 9500 -1 6100 -1 31071 -1 #SUP: 2
9 -1 28934 -1 9500 -1 11737 -1 31071 -1 #SUP: 2
9 -1 28934 -1 16111 -1 210 -1 6100 -1 #SUP: 2
9 -1 28934 -1 16111 -1 210 -1 9500 -1 #SUP: 2
9 -1 28934 -1 16111 -1 210 -1 11737 -1 #SUP: 2
9 -1 28934 -1 16111 -1 210 -1 31071 -1 #SUP: 2
9 -1 28934 -1 16111 -1 6100 -1 11737 -1 #SUP: 2
9 -1 28934 -1 16111 -1 6100 -1 31071 -1 #SUP: 2
9 -1 28934 -1 16111 -1 9500 -1 6100 -1 #SUP: 2
9 -1 28934 -1 16111 -1 9500 -1 11737 -1 #SUP: 2
9 -1 28934 -1 16111 -1 9500 -1 31071 -1 #SUP: 2
9 -1 28934 -1 16111 -1 11737 -1 31071 -1 #SUP: 2
76 -1 77 -1 76 -1 77 -1 76 -1 #SUP: 2
210 -1 9500 -1 6100 -1 11737 -1 31071 -1 #SUP: 2
16111 -1 210 -1 6100 -1 11737 -1 31071 -1 #SUP: 2
16111 -1 210 -1 9500 -1 6100 -1 11737 -1 #SUP: 2
16111 -1 210 -1 9500 -1 6100 -1 31071 -1 #SUP: 2
16111 -1 210 -1 9500 -1 11737 -1 31071 -1 #SUP: 2
16111 -1 9500 -1 6100 -1 11737 -1 31071 -1 #SUP: 2
28934 -1 210 -1 6100 -1 11737 -1 31071 -1 #SUP: 2
28934 -1 210 -1 9500 -1 6100 -1 11737 -1 #SUP: 2
28934 -1 210 -1 9500 -1 6100 -1 31071 -1 #SUP: 2
28934 -1 210 -1 9500 -1 11737 -1 31071 -1 #SUP: 2
28934 -1 9500 -1 6100 -1 11737 -1 31071 -1 #SUP: 2
28934 -1 16111 -1 210 -1 6100 -1 11737 -1 #SUP: 2
28934 -1 16111 -1 210 -1 6100 -1 31071 -1 #SUP: 2
28934 -1 16111 -1 210 -1 9500 -1 6100 -1 #SUP: 2
28934 -1 16111 -1 210 -1 9500 -1 11737 -1 #SUP: 2
28934 -1 16111 -1 210 -1 9500 -1 31071 -1 #SUP: 2
28934 -1 16111 -1 210 -1 11737 -1 31071 -1 #SUP: 2
28934 -1 16111 -1 6100 -1 11737 -1 31071 -1 #SUP: 2
28934 -1 16111 -1 9500 -1 6100 -1 11737 -1 #SUP: 2
28934 -1 16111 -1 9500 -1 6100 -1 31071 -1 #SUP: 2
28934 -1 16111 -1 9500 -1 11737 -1 31071 -1 #SUP: 2
9 -1 210 -1 9500 -1 6100 -1 11737 -1 31071 -1 #SUP: 2
9 -1 16111 -1 210 -1 6100 -1 11737 -1 31071 -1 #SUP: 2
9 -1 16111 -1 210 -1 9500 -1 6100 -1 11737 -1 #SUP: 2
9 -1 16111 -1 210 -1 9500 -1 6100 -1 31071 -1 #SUP: 2
9 -1 16111 -1 210 -1 9500 -1 11737 -1 31071 -1 #SUP: 2
9 -1 16111 -1 9500 -1 6100 -1 11737 -1 31071 -1 #SUP: 2
9 -1 28934 -1 210 -1 6100 -1 11737 -1 31071 -1 #SUP: 2
9 -1 28934 -1 210 -1 9500 -1 6100 -1 11737 -1 #SUP: 2
9 -1 28934 -1 210 -1 9500 -1 6100 -1 31071 -1 #SUP: 2
9 -1 28934 -1 210 -1 9500 -1 11737 -1 31071 -1 #SUP: 2
9 -1 28934 -1 9500 -1 6100 -1 11737 -1 31071 -1 #SUP: 2
9 -1 28934 -1 16111 -1 210 -1 6100 -1 11737 -1 #SUP: 2
9 -1 28934 -1 16111 -1 210 -1 6100 -1 31071 -1 #SUP: 2
9 -1 28934 -1 16111 -1 210 -1 9500 -1 6100 -1 #SUP: 2
9 -1 28934 -1 16111 -1 210 -1 9500 -1 11737 -1 #SUP: 2
9 -1 28934 -1 16111 -1 210 -1 9500 -1 31071 -1 #SUP: 2
9 -1 28934 -1 16111 -1 210 -1 11737 -1 31071 -1 #SUP: 2
9 -1 28934 -1 16111 -1 6100 -1 11737 -1 31071 -1 #SUP: 2
9 -1 28934 -1 16111 -1 9500 -1 6100 -1 11737 -1 #SUP: 2
9 -1 28934 -1 16111 -1 9500 -1 6100 -1 31071 -1 #SUP: 2
9 -1 28934 -1 16111 -1 9500 -1 11737 -1 31071 -1 #SUP: 2
16111 -1 210 -1 9500 -1 6100 -1 11737 -1 31071 -1 #SUP: 2
28934 -1 210 -1 9500 -1 6100 -1 11737 -1 31071 -1 #SUP: 2
28934 -1 16111 -1 210 -1 6100 -1 11737 -1 31071 -1 #SUP: 2
28934 -1 16111 -1 210 -1 9500 -1 6100 -1 11737 -1 #SUP: 2
28934 -1 16111 -1 210 -1 9500 -1 6100 -1 31071 -1 #SUP: 2
28934 -1 16111 -1 210 -1 9500 -1 11737 -1 31071 -1 #SUP: 2
28934 -1 16111 -1 9500 -1 6100 -1 11737 -1 31071 -1 #SUP: 2
9 -1 16111 -1 210 -1 9500 -1 6100 -1 11737 -1 31071 -1 #SUP: 2
9 -1 28934 -1 210 -1 9500 -1 6100 -1 11737 -1 31071 -1 #SUP: 2
9 -1 28934 -1 16111 -1 210 -1 6100 -1 11737 -1 31071 -1 #SUP: 2
9 -1 28934 -1 16111 -1 210 -1 9500 -1 6100 -1 11737 -1 #SUP: 2
9 -1 28934 -1 16111 -1 210 -1 9500 -1 6100 -1 31071 -1 #SUP: 2
9 -1 28934 -1 16111 -1 210 -1 9500 -1 11737 -1 31071 -1 #SUP: 2
9 -1 28934 -1 16111 -1 9500 -1 6100 -1 11737 -1 31071 -1 #SUP: 2
28934 -1 16111 -1 210 -1 9500 -1 6100 -1 11737 -1 31071 -1 #SUP: 2
9 -1 28934 -1 16111 -1 210 -1 9500 -1 6100 -1 11737 -1 31071 -1 #SUP: 2
