2 -1 #SUP: 44
3 -1 #SUP: 3
10 -1 #SUP: 24
13 -1 #SUP: 4
15 -1 #SUP: 3
16 -1 #SUP: 11
22 -1 #SUP: 58
27 -1 #SUP: 4
29 -1 #SUP: 8
30 -1 #SUP: 4
31 -1 #SUP: 27
32 -1 #SUP: 25
33 -1 #SUP: 8
41 -1 #SUP: 11
42 -1 #SUP: 3
44 -1 #SUP: 3
49 -1 #SUP: 2
50 -1 #SUP: 25
54 -1 #SUP: 2
64 -1 #SUP: 44
65 -1 #SUP: 47
66 -1 #SUP: 8
67 -1 #SUP: 9
68 -1 #SUP: 5
70 -1 #SUP: 12
73 -1 #SUP: 2
76 -1 #SUP: 11
77 -1 #SUP: 41
78 -1 #SUP: 15
81 -1 #SUP: 2
102 -1 #SUP: 3
117 -1 #SUP: 11
120 -1 #SUP: 7
123 -1 #SUP: 79
132 -1 #SUP: 3
134 -1 #SUP: 3
138 -1 #SUP: 3
140 -1 #SUP: 6
144 -1 #SUP: 13
151 -1 #SUP: 2
152 -1 #SUP: 7
153 -1 #SUP: 2
154 -1 #SUP: 14
155 -1 #SUP: 3
158 -1 #SUP: 6
162 -1 #SUP: 9
164 -1 #SUP: 16
165 -1 #SUP: 2
167 -1 #SUP: 3
168 -1 #SUP: 3
170 -1 #SUP: 10
171 -1 #SUP: 9
174 -1 #SUP: 2
175 -1 #SUP: 3
176 -1 #SUP: 2
183 -1 #SUP: 6
186 -1 #SUP: 3
189 -1 #SUP: 7
190 -1 #SUP: 2
193 -1 #SUP: 26
197 -1 #SUP: 5
198 -1 #SUP: 7
200 -1 #SUP: 3
201 -1 #SUP: 2
206 -1 #SUP: 20
212 -1 #SUP: 6
220 -1 #SUP: 5
222 -1 #SUP: 12
223 -1 #SUP: 6
224 -1 #SUP: 3
225 -1 #SUP: 6
233 -1 #SUP: 3
236 -1 #SUP: 5
244 -1 #SUP: 4
248 -1 #SUP: 4
249 -1 #SUP: 2
250 -1 #SUP: 2
254 -1 #SUP: 3
259 -1 #SUP: 2
262 -1 #SUP: 8
268 -1 #SUP: 7
269 -1 #SUP: 3
276 -1 #SUP: 3
278 -1 #SUP: 4
280 -1 #SUP: 7
284 -1 #SUP: 2
285 -1 #SUP: 2
286 -1 #SUP: 5
291 -1 #SUP: 8
292 -1 #SUP: 5
306 -1 #SUP: 2
308 -1 #SUP: 7
309 -1 #SUP: 4
318 -1 #SUP: 3
322 -1 #SUP: 3
326 -1 #SUP: 11
334 -1 #SUP: 2
340 -1 #SUP: 3
349 -1 #SUP: 3
356 -1 #SUP: 7
364 -1 #SUP: 15
369 -1 #SUP: 5
375 -1 #SUP: 9
381 -1 #SUP: 2
383 -1 #SUP: 2
384 -1 #SUP: 2
395 -1 #SUP: 12
401 -1 #SUP: 3
407 -1 #SUP: 11
408 -1 #SUP: 3
411 -1 #SUP: 2
417 -1 #SUP: 5
422 -1 #SUP: 2
424 -1 #SUP: 2
431 -1 #SUP: 3
441 -1 #SUP: 6
443 -1 #SUP: 8
444 -1 #SUP: 4
445 -1 #SUP: 3
452 -1 #SUP: 3
483 -1 #SUP: 3
488 -1 #SUP: 2
491 -1 #SUP: 4
499 -1 #SUP: 2
505 -1 #SUP: 3
520 -1 #SUP: 6
538 -1 #SUP: 4
566 -1 #SUP: 6
571 -1 #SUP: 2
599 -1 #SUP: 11
608 -1 #SUP: 3
613 -1 #SUP: 4
628 -1 #SUP: 3
629 -1 #SUP: 2
630 -1 #SUP: 3
638 -1 #SUP: 6
648 -1 #SUP: 4
651 -1 #SUP: 5
654 -1 #SUP: 2
655 -1 #SUP: 2
656 -1 #SUP: 2
668 -1 #SUP: 3
671 -1 #SUP: 2
693 -1 #SUP: 7
699 -1 #SUP: 2
704 -1 #SUP: 2
753 -1 #SUP: 2
756 -1 #SUP: 9
764 -1 #SUP: 4
765 -1 #SUP: 3
768 -1 #SUP: 2
773 -1 #SUP: 2
828 -1 #SUP: 4
836 -1 #SUP: 2
879 -1 #SUP: 2
921 -1 #SUP: 3
922 -1 #SUP: 3
923 -1 #SUP: 2
938 -1 #SUP: 2
965 -1 #SUP: 3
1061 -1 #SUP: 2
1118 -1 #SUP: 2
1160 -1 #SUP: 2
1207 -1 #SUP: 2
1219 -1 #SUP: 2
1238 -1 #SUP: 6
1263 -1 #SUP: 2
1275 -1 #SUP: 2
1294 -1 #SUP: 3
1313 -1 #SUP: 2
1318 -1 #SUP: 2
1326 -1 #SUP: 3
1335 -1 #SUP: 2
1340 -1 #SUP: 2
1346 -1 #SUP: 3
1385 -1 #SUP: 3
1433 -1 #SUP: 2
1442 -1 #SUP: 2
1459 -1 #SUP: 5
1462 -1 #SUP: 3
1479 -1 #SUP: 2
1587 -1 #SUP: 2
1610 -1 #SUP: 2
1672 -1 #SUP: 4
1716 -1 #SUP: 4
1730 -1 #SUP: 2
1741 -1 #SUP: 4
1758 -1 #SUP: 3
1770 -1 #SUP: 3
1792 -1 #SUP: 2
1884 -1 #SUP: 2
1986 -1 #SUP: 3
2029 -1 #SUP: 2
2195 -1 #SUP: 3
2221 -1 #SUP: 3
2453 -1 #SUP: 2
2563 -1 #SUP: 2
2630 -1 #SUP: 12
2688 -1 #SUP: 2
2771 -1 #SUP: 3
2809 -1 #SUP: 2
2830 -1 #SUP: 2
2945 -1 #SUP: 2
2958 -1 #SUP: 2
2975 -1 #SUP: 2
3192 -1 #SUP: 2
3244 -1 #SUP: 4
3251 -1 #SUP: 2
3473 -1 #SUP: 2
3504 -1 #SUP: 2
3570 -1 #SUP: 2
3677 -1 #SUP: 2
3711 -1 #SUP: 2
3912 -1 #SUP: 2
4005 -1 #SUP: 2
4525 -1 #SUP: 2
4551 -1 #SUP: 3
5126 -1 #SUP: 2
5140 -1 #SUP: 2
5157 -1 #SUP: 2
5436 -1 #SUP: 2
5622 -1 #SUP: 2
5987 -1 #SUP: 2
6581 -1 #SUP: 2
6947 -1 #SUP: 2
7686 -1 #SUP: 2
7801 -1 #SUP: 2
7885 -1 #SUP: 3
8996 -1 #SUP: 3
9402 -1 #SUP: 2
9831 -1 #SUP: 3
9835 -1 #SUP: 2
12079 -1 #SUP: 3
28793 -1 #SUP: 2
32000 -1 #SUP: 2
47183 -1 #SUP: 2
62934 -1 #SUP: 2
2 -1 2 -1 #SUP: 3
2 -1 10 -1 #SUP: 3
2 -1 22 -1 #SUP: 8
2 -1 27 -1 #SUP: 2
2 -1 29 -1 #SUP: 2
2 -1 31 -1 #SUP: 4
2 -1 32 -1 #SUP: 4
2 -1 33 -1 #SUP: 3
2 -1 41 -1 #SUP: 3
2 -1 50 -1 #SUP: 2
2 -1 64 -1 #SUP: 4
2 -1 65 -1 #SUP: 8
2 -1 66 -1 #SUP: 2
2 -1 67 -1 #SUP: 2
2 -1 68 -1 #SUP: 2
2 -1 77 -1 #SUP: 9
2 -1 78 -1 #SUP: 3
2 -1 117 -1 #SUP: 3
2 -1 123 -1 #SUP: 7
2 -1 158 -1 #SUP: 2
2 -1 170 -1 #SUP: 3
2 -1 171 -1 #SUP: 2
2 -1 175 -1 #SUP: 2
2 -1 183 -1 #SUP: 3
2 -1 189 -1 #SUP: 2
2 -1 193 -1 #SUP: 7
2 -1 220 -1 #SUP: 2
2 -1 244 -1 #SUP: 2
2 -1 268 -1 #SUP: 2
2 -1 308 -1 #SUP: 2
2 -1 326 -1 #SUP: 2
2 -1 364 -1 #SUP: 2
2 -1 383 -1 #SUP: 2
2 -1 452 -1 #SUP: 2
2 -1 520 -1 #SUP: 2
2 -1 599 -1 #SUP: 2
2 -1 756 -1 #SUP: 2
2 -1 1335 -1 #SUP: 2
2 -1 2630 -1 #SUP: 3
2 -1 9831 -1 #SUP: 2
2 -1 12079 -1 #SUP: 2
3 -1 22 -1 #SUP: 2
10 -1 2 -1 #SUP: 6
10 -1 16 -1 #SUP: 2
10 -1 22 -1 #SUP: 6
10 -1 31 -1 #SUP: 2
10 -1 50 -1 #SUP: 3
10 -1 65 -1 #SUP: 8
10 -1 77 -1 #SUP: 5
10 -1 78 -1 #SUP: 2
10 -1 123 -1 #SUP: 4
10 -1 164 -1 #SUP: 2
10 -1 168 -1 #SUP: 2
10 -1 193 -1 #SUP: 3
10 -1 206 -1 #SUP: 2
10 -1 212 -1 #SUP: 2
10 -1 269 -1 #SUP: 3
10 -1 306 -1 #SUP: 2
10 -1 326 -1 #SUP: 3
10 -1 369 -1 #SUP: 2
10 -1 395 -1 #SUP: 6
10 -1 443 -1 #SUP: 2
10 -1 1459 -1 #SUP: 3
10 -1 2771 -1 #SUP: 2
16 -1 22 -1 #SUP: 3
16 -1 32 -1 #SUP: 2
16 -1 50 -1 #SUP: 2
16 -1 65 -1 #SUP: 3
16 -1 77 -1 #SUP: 3
16 -1 193 -1 #SUP: 2
16 -1 599 -1 #SUP: 2
16 -1 3677 -1 #SUP: 2
22 -1 2 -1 #SUP: 10
22 -1 10 -1 #SUP: 3
22 -1 13 -1 #SUP: 2
22 -1 15 -1 #SUP: 2
22 -1 16 -1 #SUP: 2
22 -1 22 -1 #SUP: 9
22 -1 27 -1 #SUP: 3
22 -1 31 -1 #SUP: 5
22 -1 32 -1 #SUP: 8
22 -1 33 -1 #SUP: 2
22 -1 64 -1 #SUP: 5
22 -1 65 -1 #SUP: 7
22 -1 66 -1 #SUP: 2
22 -1 76 -1 #SUP: 4
22 -1 77 -1 #SUP: 10
22 -1 78 -1 #SUP: 3
22 -1 123 -1 #SUP: 6
22 -1 132 -1 #SUP: 3
22 -1 140 -1 #SUP: 2
22 -1 144 -1 #SUP: 5
22 -1 158 -1 #SUP: 4
22 -1 164 -1 #SUP: 2
22 -1 170 -1 #SUP: 3
22 -1 183 -1 #SUP: 2
22 -1 193 -1 #SUP: 6
22 -1 198 -1 #SUP: 3
22 -1 222 -1 #SUP: 3
22 -1 244 -1 #SUP: 2
22 -1 291 -1 #SUP: 2
22 -1 309 -1 #SUP: 2
22 -1 318 -1 #SUP: 2
22 -1 364 -1 #SUP: 2
22 -1 383 -1 #SUP: 2
22 -1 417 -1 #SUP: 4
22 -1 444 -1 #SUP: 2
22 -1 491 -1 #SUP: 2
22 -1 538 -1 #SUP: 2
22 -1 599 -1 #SUP: 4
22 -1 655 -1 #SUP: 2
22 -1 756 -1 #SUP: 2
22 -1 1294 -1 #SUP: 2
22 -1 1610 -1 #SUP: 2
22 -1 2029 -1 #SUP: 2
22 -1 2630 -1 #SUP: 3
22 -1 3244 -1 #SUP: 2
22 -1 4005 -1 #SUP: 2
27 -1 170 -1 #SUP: 2
29 -1 77 -1 #SUP: 3
31 -1 10 -1 #SUP: 3
31 -1 16 -1 #SUP: 3
31 -1 22 -1 #SUP: 5
31 -1 29 -1 #SUP: 2
31 -1 32 -1 #SUP: 3
31 -1 50 -1 #SUP: 3
31 -1 64 -1 #SUP: 5
31 -1 65 -1 #SUP: 9
31 -1 70 -1 #SUP: 2
31 -1 76 -1 #SUP: 3
31 -1 77 -1 #SUP: 3
31 -1 78 -1 #SUP: 2
31 -1 123 -1 #SUP: 4
31 -1 144 -1 #SUP: 2
31 -1 162 -1 #SUP: 2
31 -1 164 -1 #SUP: 2
31 -1 170 -1 #SUP: 2
31 -1 193 -1 #SUP: 3
31 -1 198 -1 #SUP: 2
31 -1 222 -1 #SUP: 3
31 -1 408 -1 #SUP: 2
31 -1 693 -1 #SUP: 3
31 -1 922 -1 #SUP: 2
31 -1 1479 -1 #SUP: 2
31 -1 1587 -1 #SUP: 2
31 -1 5987 -1 #SUP: 2
32 -1 2 -1 #SUP: 5
32 -1 10 -1 #SUP: 2
32 -1 22 -1 #SUP: 4
32 -1 29 -1 #SUP: 3
32 -1 31 -1 #SUP: 4
32 -1 64 -1 #SUP: 6
32 -1 65 -1 #SUP: 4
32 -1 77 -1 #SUP: 2
32 -1 123 -1 #SUP: 3
32 -1 134 -1 #SUP: 2
32 -1 183 -1 #SUP: 3
32 -1 222 -1 #SUP: 2
32 -1 613 -1 #SUP: 2
32 -1 628 -1 #SUP: 2
32 -1 5157 -1 #SUP: 2
33 -1 2 -1 #SUP: 3
33 -1 10 -1 #SUP: 2
33 -1 22 -1 #SUP: 2
33 -1 64 -1 #SUP: 2
41 -1 2 -1 #SUP: 3
41 -1 22 -1 #SUP: 2
41 -1 65 -1 #SUP: 2
41 -1 152 -1 #SUP: 2
41 -1 154 -1 #SUP: 2
41 -1 220 -1 #SUP: 2
41 -1 326 -1 #SUP: 2
41 -1 499 -1 #SUP: 2
42 -1 123 -1 #SUP: 2
50 -1 2 -1 #SUP: 3
50 -1 10 -1 #SUP: 2
50 -1 22 -1 #SUP: 3
50 -1 31 -1 #SUP: 3
50 -1 33 -1 #SUP: 2
50 -1 64 -1 #SUP: 2
50 -1 65 -1 #SUP: 5
50 -1 77 -1 #SUP: 3
50 -1 78 -1 #SUP: 2
50 -1 123 -1 #SUP: 2
50 -1 162 -1 #SUP: 2
50 -1 164 -1 #SUP: 3
50 -1 186 -1 #SUP: 3
50 -1 206 -1 #SUP: 3
50 -1 222 -1 #SUP: 2
50 -1 269 -1 #SUP: 2
50 -1 292 -1 #SUP: 3
50 -1 395 -1 #SUP: 3
50 -1 401 -1 #SUP: 2
50 -1 491 -1 #SUP: 2
50 -1 520 -1 #SUP: 2
50 -1 566 -1 #SUP: 2
50 -1 693 -1 #SUP: 2
50 -1 1385 -1 #SUP: 2
50 -1 2630 -1 #SUP: 2
64 -1 2 -1 #SUP: 9
64 -1 10 -1 #SUP: 4
64 -1 13 -1 #SUP: 2
64 -1 22 -1 #SUP: 10
64 -1 29 -1 #SUP: 4
64 -1 31 -1 #SUP: 3
64 -1 32 -1 #SUP: 8
64 -1 33 -1 #SUP: 3
64 -1 50 -1 #SUP: 3
64 -1 64 -1 #SUP: 6
64 -1 65 -1 #SUP: 5
64 -1 67 -1 #SUP: 5
64 -1 77 -1 #SUP: 8
64 -1 78 -1 #SUP: 3
64 -1 102 -1 #SUP: 2
64 -1 123 -1 #SUP: 4
64 -1 144 -1 #SUP: 7
64 -1 164 -1 #SUP: 2
64 -1 193 -1 #SUP: 3
64 -1 198 -1 #SUP: 2
64 -1 212 -1 #SUP: 2
64 -1 222 -1 #SUP: 3
64 -1 233 -1 #SUP: 2
64 -1 244 -1 #SUP: 2
64 -1 268 -1 #SUP: 4
64 -1 318 -1 #SUP: 2
64 -1 322 -1 #SUP: 2
64 -1 599 -1 #SUP: 2
64 -1 613 -1 #SUP: 2
64 -1 668 -1 #SUP: 2
64 -1 693 -1 #SUP: 2
64 -1 1118 -1 #SUP: 2
64 -1 1610 -1 #SUP: 2
64 -1 1770 -1 #SUP: 2
64 -1 1986 -1 #SUP: 2
64 -1 3244 -1 #SUP: 2
65 -1 2 -1 #SUP: 8
65 -1 10 -1 #SUP: 5
65 -1 16 -1 #SUP: 2
65 -1 22 -1 #SUP: 7
65 -1 31 -1 #SUP: 5
65 -1 32 -1 #SUP: 7
65 -1 50 -1 #SUP: 2
65 -1 64 -1 #SUP: 9
65 -1 65 -1 #SUP: 5
65 -1 76 -1 #SUP: 5
65 -1 77 -1 #SUP: 8
65 -1 117 -1 #SUP: 4
65 -1 123 -1 #SUP: 3
65 -1 152 -1 #SUP: 2
65 -1 154 -1 #SUP: 2
65 -1 164 -1 #SUP: 3
65 -1 170 -1 #SUP: 2
65 -1 189 -1 #SUP: 2
65 -1 197 -1 #SUP: 2
65 -1 198 -1 #SUP: 2
65 -1 280 -1 #SUP: 2
65 -1 308 -1 #SUP: 2
65 -1 326 -1 #SUP: 3
65 -1 401 -1 #SUP: 2
65 -1 408 -1 #SUP: 2
65 -1 599 -1 #SUP: 2
65 -1 608 -1 #SUP: 2
65 -1 756 -1 #SUP: 2
65 -1 1219 -1 #SUP: 2
65 -1 1340 -1 #SUP: 2
65 -1 1462 -1 #SUP: 2
65 -1 1730 -1 #SUP: 2
65 -1 1792 -1 #SUP: 2
65 -1 2630 -1 #SUP: 7
65 -1 2688 -1 #SUP: 2
65 -1 2771 -1 #SUP: 2
65 -1 3244 -1 #SUP: 3
65 -1 4551 -1 #SUP: 2
65 -1 6947 -1 #SUP: 2
65 -1 7885 -1 #SUP: 2
65 -1 9831 -1 #SUP: 3
66 -1 22 -1 #SUP: 4
66 -1 64 -1 #SUP: 3
66 -1 158 -1 #SUP: 2
67 -1 10 -1 #SUP: 2
67 -1 65 -1 #SUP: 3
67 -1 291 -1 #SUP: 2
68 -1 2 -1 #SUP: 2
68 -1 76 -1 #SUP: 2
68 -1 123 -1 #SUP: 2
70 -1 16 -1 #SUP: 2
70 -1 65 -1 #SUP: 2
70 -1 70 -1 #SUP: 2
70 -1 154 -1 #SUP: 2
70 -1 291 -1 #SUP: 2
70 -1 417 -1 #SUP: 2
70 -1 1479 -1 #SUP: 2
70 -1 2453 -1 #SUP: 2
76 -1 2 -1 #SUP: 2
76 -1 22 -1 #SUP: 2
76 -1 64 -1 #SUP: 4
76 -1 76 -1 #SUP: 2
76 -1 77 -1 #SUP: 3
76 -1 123 -1 #SUP: 2
76 -1 193 -1 #SUP: 2
76 -1 222 -1 #SUP: 4
76 -1 599 -1 #SUP: 2
76 -1 2630 -1 #SUP: 3
77 -1 2 -1 #SUP: 7
77 -1 10 -1 #SUP: 2
77 -1 16 -1 #SUP: 2
77 -1 22 -1 #SUP: 5
77 -1 27 -1 #SUP: 2
77 -1 29 -1 #SUP: 2
77 -1 31 -1 #SUP: 5
77 -1 32 -1 #SUP: 4
77 -1 50 -1 #SUP: 2
77 -1 54 -1 #SUP: 2
77 -1 64 -1 #SUP: 8
77 -1 65 -1 #SUP: 4
77 -1 66 -1 #SUP: 2
77 -1 67 -1 #SUP: 2
77 -1 70 -1 #SUP: 2
77 -1 76 -1 #SUP: 2
77 -1 77 -1 #SUP: 2
77 -1 123 -1 #SUP: 9
77 -1 140 -1 #SUP: 2
77 -1 152 -1 #SUP: 2
77 -1 154 -1 #SUP: 2
77 -1 162 -1 #SUP: 3
77 -1 170 -1 #SUP: 3
77 -1 193 -1 #SUP: 7
77 -1 198 -1 #SUP: 2
77 -1 206 -1 #SUP: 2
77 -1 222 -1 #SUP: 4
77 -1 248 -1 #SUP: 2
77 -1 262 -1 #SUP: 2
77 -1 326 -1 #SUP: 2
77 -1 364 -1 #SUP: 5
77 -1 407 -1 #SUP: 2
77 -1 411 -1 #SUP: 2
77 -1 445 -1 #SUP: 2
77 -1 483 -1 #SUP: 2
77 -1 520 -1 #SUP: 3
77 -1 599 -1 #SUP: 11
77 -1 693 -1 #SUP: 3
77 -1 2630 -1 #SUP: 2
78 -1 22 -1 #SUP: 3
78 -1 31 -1 #SUP: 2
78 -1 65 -1 #SUP: 3
78 -1 77 -1 #SUP: 3
78 -1 78 -1 #SUP: 3
78 -1 123 -1 #SUP: 4
78 -1 154 -1 #SUP: 2
78 -1 162 -1 #SUP: 2
78 -1 164 -1 #SUP: 2
78 -1 168 -1 #SUP: 2
78 -1 225 -1 #SUP: 2
78 -1 278 -1 #SUP: 2
78 -1 1716 -1 #SUP: 2
102 -1 2 -1 #SUP: 2
102 -1 65 -1 #SUP: 2
117 -1 2 -1 #SUP: 2
117 -1 10 -1 #SUP: 2
117 -1 22 -1 #SUP: 4
117 -1 32 -1 #SUP: 2
117 -1 50 -1 #SUP: 2
117 -1 64 -1 #SUP: 2
117 -1 65 -1 #SUP: 2
117 -1 66 -1 #SUP: 3
117 -1 76 -1 #SUP: 2
117 -1 77 -1 #SUP: 2
117 -1 123 -1 #SUP: 2
117 -1 364 -1 #SUP: 2
117 -1 395 -1 #SUP: 3
120 -1 22 -1 #SUP: 3
120 -1 64 -1 #SUP: 2
120 -1 77 -1 #SUP: 3
120 -1 123 -1 #SUP: 2
120 -1 340 -1 #SUP: 2
120 -1 364 -1 #SUP: 2
123 -1 2 -1 #SUP: 17
123 -1 10 -1 #SUP: 8
123 -1 15 -1 #SUP: 3
123 -1 22 -1 #SUP: 10
123 -1 31 -1 #SUP: 8
123 -1 32 -1 #SUP: 8
123 -1 41 -1 #SUP: 2
123 -1 50 -1 #SUP: 9
123 -1 64 -1 #SUP: 8
123 -1 65 -1 #SUP: 19
123 -1 66 -1 #SUP: 2
123 -1 67 -1 #SUP: 2
123 -1 77 -1 #SUP: 13
123 -1 78 -1 #SUP: 2
123 -1 81 -1 #SUP: 2
123 -1 117 -1 #SUP: 6
123 -1 120 -1 #SUP: 5
123 -1 123 -1 #SUP: 10
123 -1 140 -1 #SUP: 3
123 -1 144 -1 #SUP: 5
123 -1 153 -1 #SUP: 2
123 -1 154 -1 #SUP: 3
123 -1 162 -1 #SUP: 5
123 -1 164 -1 #SUP: 6
123 -1 167 -1 #SUP: 3
123 -1 170 -1 #SUP: 2
123 -1 171 -1 #SUP: 4
123 -1 174 -1 #SUP: 2
123 -1 193 -1 #SUP: 6
123 -1 197 -1 #SUP: 4
123 -1 198 -1 #SUP: 3
123 -1 206 -1 #SUP: 10
123 -1 212 -1 #SUP: 3
123 -1 220 -1 #SUP: 3
123 -1 225 -1 #SUP: 3
123 -1 236 -1 #SUP: 3
123 -1 268 -1 #SUP: 2
123 -1 280 -1 #SUP: 2
123 -1 284 -1 #SUP: 2
123 -1 286 -1 #SUP: 5
123 -1 291 -1 #SUP: 3
123 -1 308 -1 #SUP: 2
123 -1 309 -1 #SUP: 3
123 -1 326 -1 #SUP: 4
123 -1 340 -1 #SUP: 3
123 -1 356 -1 #SUP: 5
123 -1 364 -1 #SUP: 4
123 -1 369 -1 #SUP: 3
123 -1 375 -1 #SUP: 9
123 -1 395 -1 #SUP: 4
123 -1 407 -1 #SUP: 11
123 -1 408 -1 #SUP: 2
123 -1 411 -1 #SUP: 2
123 -1 422 -1 #SUP: 2
123 -1 441 -1 #SUP: 3
123 -1 571 -1 #SUP: 2
123 -1 599 -1 #SUP: 3
123 -1 613 -1 #SUP: 2
123 -1 638 -1 #SUP: 5
123 -1 648 -1 #SUP: 2
123 -1 651 -1 #SUP: 4
123 -1 654 -1 #SUP: 2
123 -1 671 -1 #SUP: 2
123 -1 693 -1 #SUP: 3
123 -1 756 -1 #SUP: 6
123 -1 765 -1 #SUP: 3
123 -1 828 -1 #SUP: 3
123 -1 922 -1 #SUP: 2
123 -1 965 -1 #SUP: 3
123 -1 1061 -1 #SUP: 2
123 -1 1340 -1 #SUP: 2
123 -1 1346 -1 #SUP: 2
123 -1 1459 -1 #SUP: 4
123 -1 1462 -1 #SUP: 2
123 -1 1741 -1 #SUP: 2
123 -1 1758 -1 #SUP: 3
123 -1 2630 -1 #SUP: 4
123 -1 4551 -1 #SUP: 2
123 -1 7885 -1 #SUP: 3
132 -1 77 -1 #SUP: 2
144 -1 2 -1 #SUP: 4
144 -1 22 -1 #SUP: 3
144 -1 32 -1 #SUP: 3
144 -1 65 -1 #SUP: 3
144 -1 67 -1 #SUP: 2
144 -1 77 -1 #SUP: 3
144 -1 78 -1 #SUP: 3
144 -1 123 -1 #SUP: 3
144 -1 193 -1 #SUP: 3
144 -1 599 -1 #SUP: 2
144 -1 1716 -1 #SUP: 2
152 -1 2 -1 #SUP: 2
152 -1 65 -1 #SUP: 2
152 -1 77 -1 #SUP: 2
154 -1 41 -1 #SUP: 2
154 -1 50 -1 #SUP: 2
154 -1 64 -1 #SUP: 3
154 -1 77 -1 #SUP: 2
154 -1 198 -1 #SUP: 2
154 -1 206 -1 #SUP: 2
154 -1 222 -1 #SUP: 3
154 -1 268 -1 #SUP: 2
154 -1 7686 -1 #SUP: 2
158 -1 22 -1 #SUP: 2
158 -1 144 -1 #SUP: 2
162 -1 65 -1 #SUP: 3
162 -1 123 -1 #SUP: 4
162 -1 206 -1 #SUP: 3
162 -1 364 -1 #SUP: 2
164 -1 2 -1 #SUP: 4
164 -1 10 -1 #SUP: 2
164 -1 22 -1 #SUP: 5
164 -1 31 -1 #SUP: 4
164 -1 32 -1 #SUP: 3
164 -1 65 -1 #SUP: 2
164 -1 76 -1 #SUP: 2
164 -1 77 -1 #SUP: 3
164 -1 123 -1 #SUP: 4
164 -1 170 -1 #SUP: 2
164 -1 206 -1 #SUP: 2
164 -1 222 -1 #SUP: 2
164 -1 309 -1 #SUP: 2
167 -1 225 -1 #SUP: 2
168 -1 31 -1 #SUP: 2
168 -1 164 -1 #SUP: 2
168 -1 5126 -1 #SUP: 2
170 -1 22 -1 #SUP: 3
170 -1 31 -1 #SUP: 2
170 -1 64 -1 #SUP: 4
170 -1 65 -1 #SUP: 2
170 -1 77 -1 #SUP: 2
170 -1 123 -1 #SUP: 2
170 -1 756 -1 #SUP: 2
170 -1 3244 -1 #SUP: 2
171 -1 2 -1 #SUP: 2
171 -1 10 -1 #SUP: 2
171 -1 31 -1 #SUP: 2
171 -1 50 -1 #SUP: 3
171 -1 78 -1 #SUP: 2
171 -1 123 -1 #SUP: 2
171 -1 171 -1 #SUP: 2
171 -1 186 -1 #SUP: 2
171 -1 262 -1 #SUP: 2
171 -1 280 -1 #SUP: 2
171 -1 1770 -1 #SUP: 2
175 -1 32 -1 #SUP: 3
189 -1 31 -1 #SUP: 2
189 -1 64 -1 #SUP: 2
189 -1 65 -1 #SUP: 2
189 -1 123 -1 #SUP: 2
193 -1 2 -1 #SUP: 3
193 -1 22 -1 #SUP: 7
193 -1 31 -1 #SUP: 2
193 -1 32 -1 #SUP: 5
193 -1 64 -1 #SUP: 3
193 -1 65 -1 #SUP: 5
193 -1 66 -1 #SUP: 2
193 -1 67 -1 #SUP: 2
193 -1 76 -1 #SUP: 2
193 -1 123 -1 #SUP: 7
193 -1 154 -1 #SUP: 2
193 -1 162 -1 #SUP: 2
193 -1 206 -1 #SUP: 6
193 -1 254 -1 #SUP: 2
193 -1 326 -1 #SUP: 2
193 -1 417 -1 #SUP: 2
193 -1 921 -1 #SUP: 2
197 -1 65 -1 #SUP: 2
198 -1 32 -1 #SUP: 4
200 -1 64 -1 #SUP: 2
206 -1 10 -1 #SUP: 4
206 -1 22 -1 #SUP: 6
206 -1 31 -1 #SUP: 2
206 -1 32 -1 #SUP: 2
206 -1 64 -1 #SUP: 4
206 -1 65 -1 #SUP: 6
206 -1 67 -1 #SUP: 2
206 -1 77 -1 #SUP: 3
206 -1 123 -1 #SUP: 5
206 -1 154 -1 #SUP: 3
206 -1 162 -1 #SUP: 3
206 -1 164 -1 #SUP: 4
206 -1 206 -1 #SUP: 3
206 -1 280 -1 #SUP: 2
206 -1 538 -1 #SUP: 2
206 -1 648 -1 #SUP: 2
206 -1 651 -1 #SUP: 2
206 -1 671 -1 #SUP: 2
206 -1 1741 -1 #SUP: 2
212 -1 22 -1 #SUP: 3
212 -1 65 -1 #SUP: 2
212 -1 78 -1 #SUP: 2
220 -1 50 -1 #SUP: 2
222 -1 2 -1 #SUP: 2
222 -1 31 -1 #SUP: 2
222 -1 32 -1 #SUP: 2
222 -1 50 -1 #SUP: 2
222 -1 76 -1 #SUP: 2
222 -1 77 -1 #SUP: 3
222 -1 123 -1 #SUP: 2
222 -1 144 -1 #SUP: 2
222 -1 170 -1 #SUP: 2
222 -1 193 -1 #SUP: 2
223 -1 64 -1 #SUP: 2
225 -1 64 -1 #SUP: 2
225 -1 102 -1 #SUP: 2
225 -1 162 -1 #SUP: 2
233 -1 22 -1 #SUP: 2
233 -1 1610 -1 #SUP: 2
236 -1 2 -1 #SUP: 2
236 -1 64 -1 #SUP: 2
236 -1 170 -1 #SUP: 2
236 -1 773 -1 #SUP: 2
244 -1 22 -1 #SUP: 2
248 -1 77 -1 #SUP: 2
248 -1 193 -1 #SUP: 2
254 -1 193 -1 #SUP: 2
259 -1 76 -1 #SUP: 2
259 -1 2630 -1 #SUP: 2
262 -1 10 -1 #SUP: 2
262 -1 22 -1 #SUP: 2
262 -1 50 -1 #SUP: 2
262 -1 123 -1 #SUP: 2
262 -1 170 -1 #SUP: 2
262 -1 171 -1 #SUP: 3
262 -1 280 -1 #SUP: 2
268 -1 123 -1 #SUP: 2
269 -1 395 -1 #SUP: 3
278 -1 2 -1 #SUP: 2
278 -1 123 -1 #SUP: 2
280 -1 22 -1 #SUP: 2
280 -1 64 -1 #SUP: 3
280 -1 77 -1 #SUP: 2
280 -1 291 -1 #SUP: 2
286 -1 32 -1 #SUP: 2
286 -1 64 -1 #SUP: 2
286 -1 123 -1 #SUP: 2
291 -1 22 -1 #SUP: 3
291 -1 31 -1 #SUP: 3
291 -1 65 -1 #SUP: 2
291 -1 77 -1 #SUP: 3
291 -1 123 -1 #SUP: 3
291 -1 193 -1 #SUP: 2
306 -1 395 -1 #SUP: 2
308 -1 64 -1 #SUP: 2
308 -1 189 -1 #SUP: 5
309 -1 32 -1 #SUP: 2
318 -1 64 -1 #SUP: 2
318 -1 65 -1 #SUP: 2
318 -1 170 -1 #SUP: 2
326 -1 77 -1 #SUP: 3
326 -1 170 -1 #SUP: 3
326 -1 9831 -1 #SUP: 2
326 -1 12079 -1 #SUP: 2
340 -1 77 -1 #SUP: 2
340 -1 364 -1 #SUP: 2
349 -1 64 -1 #SUP: 2
356 -1 50 -1 #SUP: 2
356 -1 65 -1 #SUP: 2
356 -1 2630 -1 #SUP: 2
364 -1 50 -1 #SUP: 2
364 -1 64 -1 #SUP: 4
364 -1 65 -1 #SUP: 2
364 -1 77 -1 #SUP: 2
364 -1 123 -1 #SUP: 2
364 -1 189 -1 #SUP: 2
364 -1 268 -1 #SUP: 2
364 -1 308 -1 #SUP: 2
364 -1 628 -1 #SUP: 2
364 -1 651 -1 #SUP: 2
364 -1 1238 -1 #SUP: 3
364 -1 1672 -1 #SUP: 2
369 -1 206 -1 #SUP: 2
375 -1 2 -1 #SUP: 5
375 -1 64 -1 #SUP: 2
375 -1 65 -1 #SUP: 6
375 -1 77 -1 #SUP: 2
375 -1 571 -1 #SUP: 2
375 -1 2630 -1 #SUP: 3
381 -1 326 -1 #SUP: 2
383 -1 32 -1 #SUP: 2
384 -1 123 -1 #SUP: 2
395 -1 22 -1 #SUP: 2
395 -1 31 -1 #SUP: 2
395 -1 65 -1 #SUP: 3
395 -1 123 -1 #SUP: 2
395 -1 193 -1 #SUP: 3
395 -1 233 -1 #SUP: 2
395 -1 326 -1 #SUP: 2
395 -1 443 -1 #SUP: 2
395 -1 444 -1 #SUP: 2
395 -1 704 -1 #SUP: 2
395 -1 2830 -1 #SUP: 2
401 -1 408 -1 #SUP: 2
407 -1 2 -1 #SUP: 4
407 -1 65 -1 #SUP: 4
407 -1 77 -1 #SUP: 3
407 -1 123 -1 #SUP: 2
407 -1 140 -1 #SUP: 2
407 -1 375 -1 #SUP: 5
407 -1 571 -1 #SUP: 2
407 -1 638 -1 #SUP: 2
407 -1 828 -1 #SUP: 2
407 -1 2630 -1 #SUP: 2
417 -1 144 -1 #SUP: 2
417 -1 193 -1 #SUP: 3
431 -1 154 -1 #SUP: 2
441 -1 22 -1 #SUP: 2
441 -1 64 -1 #SUP: 4
441 -1 144 -1 #SUP: 2
443 -1 22 -1 #SUP: 2
443 -1 33 -1 #SUP: 2
443 -1 64 -1 #SUP: 3
443 -1 65 -1 #SUP: 3
443 -1 704 -1 #SUP: 2
443 -1 764 -1 #SUP: 2
444 -1 65 -1 #SUP: 2
444 -1 123 -1 #SUP: 2
445 -1 64 -1 #SUP: 3
452 -1 22 -1 #SUP: 2
452 -1 193 -1 #SUP: 3
452 -1 417 -1 #SUP: 2
491 -1 78 -1 #SUP: 2
499 -1 22 -1 #SUP: 2
499 -1 64 -1 #SUP: 2
505 -1 64 -1 #SUP: 2
520 -1 22 -1 #SUP: 2
520 -1 31 -1 #SUP: 2
520 -1 32 -1 #SUP: 2
520 -1 64 -1 #SUP: 2
520 -1 66 -1 #SUP: 2
520 -1 117 -1 #SUP: 2
520 -1 123 -1 #SUP: 2
520 -1 170 -1 #SUP: 2
520 -1 222 -1 #SUP: 2
520 -1 395 -1 #SUP: 2
520 -1 444 -1 #SUP: 2
566 -1 154 -1 #SUP: 2
571 -1 2 -1 #SUP: 2
571 -1 65 -1 #SUP: 2
571 -1 2630 -1 #SUP: 2
599 -1 2 -1 #SUP: 3
599 -1 64 -1 #SUP: 3
599 -1 65 -1 #SUP: 2
599 -1 123 -1 #SUP: 3
599 -1 154 -1 #SUP: 2
599 -1 222 -1 #SUP: 2
599 -1 364 -1 #SUP: 2
599 -1 445 -1 #SUP: 2
599 -1 483 -1 #SUP: 2
608 -1 77 -1 #SUP: 2
608 -1 599 -1 #SUP: 2
613 -1 2 -1 #SUP: 2
628 -1 65 -1 #SUP: 2
629 -1 78 -1 #SUP: 2
629 -1 144 -1 #SUP: 2
629 -1 1716 -1 #SUP: 2
630 -1 1346 -1 #SUP: 2
638 -1 10 -1 #SUP: 2
638 -1 171 -1 #SUP: 3
638 -1 369 -1 #SUP: 2
648 -1 41 -1 #SUP: 2
648 -1 193 -1 #SUP: 2
651 -1 31 -1 #SUP: 2
651 -1 64 -1 #SUP: 3
651 -1 65 -1 #SUP: 2
651 -1 67 -1 #SUP: 2
651 -1 77 -1 #SUP: 4
651 -1 599 -1 #SUP: 2
654 -1 22 -1 #SUP: 2
656 -1 64 -1 #SUP: 2
656 -1 78 -1 #SUP: 2
668 -1 2958 -1 #SUP: 2
693 -1 2 -1 #SUP: 2
693 -1 32 -1 #SUP: 2
693 -1 64 -1 #SUP: 3
693 -1 76 -1 #SUP: 2
693 -1 1587 -1 #SUP: 2
756 -1 2 -1 #SUP: 2
756 -1 22 -1 #SUP: 2
756 -1 31 -1 #SUP: 2
756 -1 32 -1 #SUP: 2
756 -1 65 -1 #SUP: 2
756 -1 77 -1 #SUP: 2
756 -1 164 -1 #SUP: 2
764 -1 64 -1 #SUP: 2
764 -1 65 -1 #SUP: 3
768 -1 2 -1 #SUP: 2
768 -1 10 -1 #SUP: 2
773 -1 64 -1 #SUP: 2
921 -1 67 -1 #SUP: 2
922 -1 81 -1 #SUP: 2
965 -1 65 -1 #SUP: 2
1061 -1 10 -1 #SUP: 2
1160 -1 171 -1 #SUP: 2
1219 -1 32 -1 #SUP: 2
1238 -1 189 -1 #SUP: 2
1238 -1 308 -1 #SUP: 2
1238 -1 628 -1 #SUP: 2
1238 -1 2221 -1 #SUP: 2
1238 -1 3912 -1 #SUP: 2
1238 -1 47183 -1 #SUP: 2
1275 -1 2 -1 #SUP: 2
1294 -1 22 -1 #SUP: 2
1313 -1 64 -1 #SUP: 2
1385 -1 222 -1 #SUP: 2
1459 -1 65 -1 #SUP: 2
1459 -1 123 -1 #SUP: 2
1462 -1 64 -1 #SUP: 2
1462 -1 77 -1 #SUP: 2
1610 -1 2 -1 #SUP: 2
1672 -1 65 -1 #SUP: 2
1741 -1 64 -1 #SUP: 2
1741 -1 879 -1 #SUP: 2
1758 -1 356 -1 #SUP: 3
1986 -1 65 -1 #SUP: 2
1986 -1 193 -1 #SUP: 2
2029 -1 132 -1 #SUP: 2
2195 -1 64 -1 #SUP: 2
2221 -1 1238 -1 #SUP: 3
2221 -1 3912 -1 #SUP: 2
2221 -1 47183 -1 #SUP: 2
2630 -1 2 -1 #SUP: 4
2630 -1 22 -1 #SUP: 2
2630 -1 65 -1 #SUP: 2
2630 -1 76 -1 #SUP: 2
2630 -1 117 -1 #SUP: 2
2630 -1 123 -1 #SUP: 2
2630 -1 152 -1 #SUP: 2
2630 -1 326 -1 #SUP: 2
2630 -1 383 -1 #SUP: 2
2630 -1 2630 -1 #SUP: 3
2630 -1 9831 -1 #SUP: 2
2630 -1 12079 -1 #SUP: 2
2688 -1 2630 -1 #SUP: 2
2809 -1 2 -1 #SUP: 2
2830 -1 32 -1 #SUP: 2
2830 -1 64 -1 #SUP: 2
3244 -1 756 -1 #SUP: 2
3251 -1 2 -1 #SUP: 2
3473 -1 31 -1 #SUP: 2
3473 -1 65 -1 #SUP: 2
3912 -1 2221 -1 #SUP: 2
3912 -1 47183 -1 #SUP: 2
5126 -1 16 -1 #SUP: 2
5126 -1 31 -1 #SUP: 2
5126 -1 50 -1 #SUP: 2
5126 -1 5987 -1 #SUP: 2
5987 -1 16 -1 #SUP: 2
5987 -1 50 -1 #SUP: 2
6581 -1 2 -1 #SUP: 2
6947 -1 31 -1 #SUP: 2
6947 -1 64 -1 #SUP: 2
7885 -1 2 -1 #SUP: 2
8996 -1 31 -1 #SUP: 2
8996 -1 123 -1 #SUP: 2
9831 -1 2630 -1 #SUP: 2
9831 -1 12079 -1 #SUP: 3
9835 -1 395 -1 #SUP: 2
12079 -1 2630 -1 #SUP: 2
28793 -1 77 -1 #SUP: 2
28793 -1 206 -1 #SUP: 2
32000 -1 77 -1 #SUP: 2
47183 -1 1238 -1 #SUP: 2
2 -1 2 -1 22 -1 #SUP: 3
2 -1 10 -1 65 -1 #SUP: 2
2 -1 22 -1 77 -1 #SUP: 2
2 -1 31 -1 65 -1 #SUP: 2
2 -1 65 -1 2 -1 #SUP: 2
2 -1 77 -1 65 -1 #SUP: 2
2 -1 77 -1 123 -1 #SUP: 3
2 -1 77 -1 193 -1 #SUP: 2
2 -1 77 -1 520 -1 #SUP: 2
2 -1 77 -1 599 -1 #SUP: 2
2 -1 123 -1 65 -1 #SUP: 2
2 -1 123 -1 123 -1 #SUP: 2
2 -1 123 -1 193 -1 #SUP: 2
2 -1 170 -1 64 -1 #SUP: 2
2 -1 193 -1 31 -1 #SUP: 2
2 -1 326 -1 9831 -1 #SUP: 2
2 -1 326 -1 12079 -1 #SUP: 2
2 -1 383 -1 32 -1 #SUP: 2
2 -1 452 -1 193 -1 #SUP: 2
2 -1 9831 -1 12079 -1 #SUP: 2
10 -1 2 -1 77 -1 #SUP: 2
10 -1 2 -1 193 -1 #SUP: 2
10 -1 22 -1 2 -1 #SUP: 2
10 -1 22 -1 16 -1 #SUP: 2
10 -1 22 -1 77 -1 #SUP: 2
10 -1 50 -1 65 -1 #SUP: 2
10 -1 65 -1 2 -1 #SUP: 2
10 -1 65 -1 77 -1 #SUP: 2
10 -1 65 -1 2771 -1 #SUP: 2
10 -1 78 -1 164 -1 #SUP: 2
10 -1 78 -1 168 -1 #SUP: 2
10 -1 168 -1 164 -1 #SUP: 2
10 -1 269 -1 395 -1 #SUP: 3
10 -1 306 -1 395 -1 #SUP: 2
10 -1 395 -1 65 -1 #SUP: 2
10 -1 395 -1 193 -1 #SUP: 2
16 -1 77 -1 599 -1 #SUP: 2
22 -1 2 -1 22 -1 #SUP: 3
22 -1 2 -1 27 -1 #SUP: 2
22 -1 2 -1 78 -1 #SUP: 2
22 -1 2 -1 193 -1 #SUP: 2
22 -1 22 -1 31 -1 #SUP: 2
22 -1 22 -1 64 -1 #SUP: 2
22 -1 22 -1 123 -1 #SUP: 2
22 -1 22 -1 144 -1 #SUP: 2
22 -1 27 -1 170 -1 #SUP: 2
22 -1 32 -1 2 -1 #SUP: 2
22 -1 32 -1 22 -1 #SUP: 2
22 -1 32 -1 31 -1 #SUP: 2
22 -1 32 -1 64 -1 #SUP: 2
22 -1 32 -1 222 -1 #SUP: 2
22 -1 64 -1 2 -1 #SUP: 2
22 -1 64 -1 22 -1 #SUP: 3
22 -1 64 -1 144 -1 #SUP: 4
22 -1 65 -1 76 -1 #SUP: 2
22 -1 76 -1 222 -1 #SUP: 2
22 -1 77 -1 65 -1 #SUP: 2
22 -1 77 -1 123 -1 #SUP: 3
22 -1 77 -1 193 -1 #SUP: 2
22 -1 77 -1 599 -1 #SUP: 4
22 -1 123 -1 22 -1 #SUP: 3
22 -1 123 -1 65 -1 #SUP: 2
22 -1 132 -1 77 -1 #SUP: 2
22 -1 144 -1 22 -1 #SUP: 2
22 -1 144 -1 193 -1 #SUP: 2
22 -1 158 -1 144 -1 #SUP: 2
22 -1 170 -1 31 -1 #SUP: 2
22 -1 383 -1 32 -1 #SUP: 2
22 -1 417 -1 144 -1 #SUP: 2
22 -1 417 -1 193 -1 #SUP: 3
22 -1 599 -1 123 -1 #SUP: 2
22 -1 1610 -1 2 -1 #SUP: 2
22 -1 2029 -1 132 -1 #SUP: 2
31 -1 16 -1 50 -1 #SUP: 2
31 -1 64 -1 29 -1 #SUP: 2
31 -1 64 -1 144 -1 #SUP: 2
31 -1 65 -1 22 -1 #SUP: 3
31 -1 65 -1 65 -1 #SUP: 3
31 -1 65 -1 76 -1 #SUP: 2
31 -1 70 -1 1479 -1 #SUP: 2
31 -1 77 -1 123 -1 #SUP: 2
31 -1 222 -1 77 -1 #SUP: 2
31 -1 693 -1 1587 -1 #SUP: 2
31 -1 5987 -1 16 -1 #SUP: 2
31 -1 5987 -1 50 -1 #SUP: 2
32 -1 2 -1 183 -1 #SUP: 2
32 -1 64 -1 65 -1 #SUP: 2
32 -1 77 -1 2 -1 #SUP: 2
50 -1 10 -1 269 -1 #SUP: 2
50 -1 10 -1 395 -1 #SUP: 2
50 -1 206 -1 164 -1 #SUP: 2
50 -1 269 -1 395 -1 #SUP: 2
50 -1 1385 -1 222 -1 #SUP: 2
64 -1 2 -1 22 -1 #SUP: 2
64 -1 2 -1 67 -1 #SUP: 2
64 -1 2 -1 77 -1 #SUP: 3
64 -1 10 -1 2 -1 #SUP: 2
64 -1 22 -1 2 -1 #SUP: 2
64 -1 22 -1 32 -1 #SUP: 3
64 -1 22 -1 64 -1 #SUP: 2
64 -1 22 -1 77 -1 #SUP: 2
64 -1 22 -1 193 -1 #SUP: 2
64 -1 22 -1 318 -1 #SUP: 2
64 -1 22 -1 1610 -1 #SUP: 2
64 -1 64 -1 268 -1 #SUP: 2
64 -1 65 -1 77 -1 #SUP: 2
64 -1 77 -1 599 -1 #SUP: 2
64 -1 123 -1 32 -1 #SUP: 2
64 -1 144 -1 2 -1 #SUP: 2
64 -1 144 -1 22 -1 #SUP: 2
64 -1 144 -1 32 -1 #SUP: 2
64 -1 144 -1 67 -1 #SUP: 2
64 -1 144 -1 77 -1 #SUP: 2
64 -1 144 -1 123 -1 #SUP: 2
64 -1 144 -1 193 -1 #SUP: 2
64 -1 198 -1 32 -1 #SUP: 2
64 -1 1986 -1 193 -1 #SUP: 2
65 -1 2 -1 2 -1 #SUP: 2
65 -1 2 -1 64 -1 #SUP: 2
65 -1 2 -1 117 -1 #SUP: 3
65 -1 2 -1 170 -1 #SUP: 2
65 -1 2 -1 326 -1 #SUP: 2
65 -1 2 -1 9831 -1 #SUP: 2
65 -1 10 -1 22 -1 #SUP: 3
65 -1 22 -1 65 -1 #SUP: 2
65 -1 65 -1 22 -1 #SUP: 3
65 -1 65 -1 76 -1 #SUP: 3
65 -1 65 -1 1792 -1 #SUP: 2
65 -1 76 -1 22 -1 #SUP: 2
65 -1 76 -1 64 -1 #SUP: 2
65 -1 76 -1 77 -1 #SUP: 2
65 -1 76 -1 599 -1 #SUP: 2
65 -1 76 -1 2630 -1 #SUP: 2
65 -1 77 -1 64 -1 #SUP: 4
65 -1 77 -1 599 -1 #SUP: 2
65 -1 117 -1 22 -1 #SUP: 2
65 -1 170 -1 64 -1 #SUP: 2
65 -1 198 -1 32 -1 #SUP: 2
65 -1 308 -1 189 -1 #SUP: 2
65 -1 326 -1 9831 -1 #SUP: 2
65 -1 401 -1 408 -1 #SUP: 2
65 -1 599 -1 64 -1 #SUP: 2
65 -1 1219 -1 32 -1 #SUP: 2
65 -1 2630 -1 2 -1 #SUP: 3
65 -1 2630 -1 22 -1 #SUP: 2
65 -1 2630 -1 65 -1 #SUP: 2
65 -1 2630 -1 117 -1 #SUP: 2
65 -1 2630 -1 326 -1 #SUP: 2
65 -1 2630 -1 9831 -1 #SUP: 2
65 -1 2688 -1 2630 -1 #SUP: 2
65 -1 3244 -1 756 -1 #SUP: 2
65 -1 6947 -1 31 -1 #SUP: 2
65 -1 7885 -1 2 -1 #SUP: 2
66 -1 64 -1 22 -1 #SUP: 2
66 -1 158 -1 22 -1 #SUP: 2
68 -1 76 -1 123 -1 #SUP: 2
68 -1 123 -1 123 -1 #SUP: 2
76 -1 77 -1 64 -1 #SUP: 2
76 -1 77 -1 599 -1 #SUP: 2
76 -1 123 -1 123 -1 #SUP: 2
76 -1 599 -1 64 -1 #SUP: 2
77 -1 2 -1 27 -1 #SUP: 2
77 -1 22 -1 2 -1 #SUP: 4
77 -1 22 -1 27 -1 #SUP: 2
77 -1 31 -1 170 -1 #SUP: 2
77 -1 31 -1 222 -1 #SUP: 2
77 -1 64 -1 123 -1 #SUP: 2
77 -1 64 -1 693 -1 #SUP: 2
77 -1 123 -1 65 -1 #SUP: 2
77 -1 123 -1 198 -1 #SUP: 2
77 -1 123 -1 206 -1 #SUP: 2
77 -1 123 -1 407 -1 #SUP: 2
77 -1 123 -1 411 -1 #SUP: 2
77 -1 162 -1 123 -1 #SUP: 2
77 -1 193 -1 123 -1 #SUP: 2
77 -1 364 -1 64 -1 #SUP: 2
77 -1 445 -1 64 -1 #SUP: 2
77 -1 520 -1 31 -1 #SUP: 2
77 -1 520 -1 32 -1 #SUP: 2
77 -1 520 -1 170 -1 #SUP: 2
77 -1 520 -1 222 -1 #SUP: 2
77 -1 599 -1 2 -1 #SUP: 2
77 -1 599 -1 64 -1 #SUP: 3
77 -1 599 -1 65 -1 #SUP: 2
77 -1 599 -1 123 -1 #SUP: 3
77 -1 599 -1 222 -1 #SUP: 2
77 -1 599 -1 364 -1 #SUP: 2
77 -1 599 -1 445 -1 #SUP: 2
77 -1 599 -1 483 -1 #SUP: 2
77 -1 693 -1 64 -1 #SUP: 2
78 -1 78 -1 31 -1 #SUP: 2
78 -1 78 -1 123 -1 #SUP: 3
78 -1 123 -1 31 -1 #SUP: 2
78 -1 123 -1 162 -1 #SUP: 2
78 -1 168 -1 164 -1 #SUP: 2
102 -1 2 -1 65 -1 #SUP: 2
117 -1 22 -1 32 -1 #SUP: 2
117 -1 22 -1 66 -1 #SUP: 2
117 -1 22 -1 123 -1 #SUP: 2
117 -1 65 -1 76 -1 #SUP: 2
120 -1 340 -1 364 -1 #SUP: 2
123 -1 2 -1 10 -1 #SUP: 2
123 -1 2 -1 65 -1 #SUP: 4
123 -1 2 -1 123 -1 #SUP: 4
123 -1 10 -1 65 -1 #SUP: 3
123 -1 10 -1 395 -1 #SUP: 3
123 -1 10 -1 1459 -1 #SUP: 2
123 -1 22 -1 15 -1 #SUP: 2
123 -1 22 -1 32 -1 #SUP: 2
123 -1 22 -1 64 -1 #SUP: 2
123 -1 22 -1 77 -1 #SUP: 3
123 -1 31 -1 65 -1 #SUP: 3
123 -1 32 -1 65 -1 #SUP: 2
123 -1 41 -1 326 -1 #SUP: 2
123 -1 50 -1 2 -1 #SUP: 2
123 -1 50 -1 77 -1 #SUP: 2
123 -1 64 -1 77 -1 #SUP: 2
123 -1 65 -1 2 -1 #SUP: 4
123 -1 65 -1 65 -1 #SUP: 2
123 -1 65 -1 77 -1 #SUP: 3
123 -1 65 -1 1462 -1 #SUP: 2
123 -1 65 -1 2630 -1 #SUP: 3
123 -1 65 -1 7885 -1 #SUP: 2
123 -1 67 -1 65 -1 #SUP: 2
123 -1 77 -1 123 -1 #SUP: 3
123 -1 77 -1 193 -1 #SUP: 2
123 -1 77 -1 407 -1 #SUP: 2
123 -1 77 -1 599 -1 #SUP: 3
123 -1 117 -1 22 -1 #SUP: 2
123 -1 117 -1 77 -1 #SUP: 2
123 -1 120 -1 22 -1 #SUP: 2
123 -1 120 -1 123 -1 #SUP: 2
123 -1 120 -1 340 -1 #SUP: 2
123 -1 120 -1 364 -1 #SUP: 2
123 -1 123 -1 65 -1 #SUP: 2
123 -1 123 -1 375 -1 #SUP: 2
123 -1 123 -1 407 -1 #SUP: 2
123 -1 123 -1 638 -1 #SUP: 2
123 -1 144 -1 65 -1 #SUP: 2
123 -1 144 -1 77 -1 #SUP: 2
123 -1 144 -1 123 -1 #SUP: 2
123 -1 162 -1 364 -1 #SUP: 2
123 -1 164 -1 32 -1 #SUP: 2
123 -1 164 -1 65 -1 #SUP: 2
123 -1 167 -1 225 -1 #SUP: 2
123 -1 193 -1 65 -1 #SUP: 2
123 -1 193 -1 123 -1 #SUP: 2
123 -1 198 -1 32 -1 #SUP: 2
123 -1 206 -1 10 -1 #SUP: 3
123 -1 206 -1 22 -1 #SUP: 2
123 -1 206 -1 65 -1 #SUP: 5
123 -1 206 -1 77 -1 #SUP: 3
123 -1 206 -1 280 -1 #SUP: 2
123 -1 206 -1 651 -1 #SUP: 2
123 -1 206 -1 671 -1 #SUP: 2
123 -1 220 -1 50 -1 #SUP: 2
123 -1 268 -1 123 -1 #SUP: 2
123 -1 291 -1 22 -1 #SUP: 2
123 -1 291 -1 31 -1 #SUP: 2
123 -1 291 -1 77 -1 #SUP: 2
123 -1 309 -1 32 -1 #SUP: 2
123 -1 340 -1 364 -1 #SUP: 2
123 -1 356 -1 50 -1 #SUP: 2
123 -1 369 -1 206 -1 #SUP: 2
123 -1 375 -1 2 -1 #SUP: 5
123 -1 375 -1 64 -1 #SUP: 2
123 -1 375 -1 65 -1 #SUP: 6
123 -1 375 -1 77 -1 #SUP: 2
123 -1 375 -1 571 -1 #SUP: 2
123 -1 375 -1 2630 -1 #SUP: 2
123 -1 407 -1 2 -1 #SUP: 4
123 -1 407 -1 65 -1 #SUP: 4
123 -1 407 -1 77 -1 #SUP: 3
123 -1 407 -1 123 -1 #SUP: 2
123 -1 407 -1 140 -1 #SUP: 2
123 -1 407 -1 375 -1 #SUP: 5
123 -1 407 -1 571 -1 #SUP: 2
123 -1 407 -1 638 -1 #SUP: 2
123 -1 407 -1 828 -1 #SUP: 2
123 -1 441 -1 64 -1 #SUP: 2
123 -1 571 -1 2 -1 #SUP: 2
123 -1 571 -1 65 -1 #SUP: 2
123 -1 638 -1 10 -1 #SUP: 2
123 -1 638 -1 171 -1 #SUP: 2
123 -1 648 -1 193 -1 #SUP: 2
123 -1 651 -1 65 -1 #SUP: 2
123 -1 651 -1 77 -1 #SUP: 2
123 -1 756 -1 2 -1 #SUP: 2
123 -1 756 -1 65 -1 #SUP: 2
123 -1 922 -1 81 -1 #SUP: 2
123 -1 1061 -1 10 -1 #SUP: 2
123 -1 1758 -1 356 -1 #SUP: 3
123 -1 2630 -1 2 -1 #SUP: 2
123 -1 7885 -1 2 -1 #SUP: 2
144 -1 2 -1 67 -1 #SUP: 2
144 -1 22 -1 32 -1 #SUP: 2
144 -1 77 -1 123 -1 #SUP: 2
144 -1 77 -1 599 -1 #SUP: 2
144 -1 78 -1 1716 -1 #SUP: 2
144 -1 123 -1 65 -1 #SUP: 2
154 -1 50 -1 77 -1 #SUP: 2
154 -1 64 -1 268 -1 #SUP: 2
162 -1 123 -1 65 -1 #SUP: 2
162 -1 123 -1 206 -1 #SUP: 3
162 -1 206 -1 65 -1 #SUP: 2
164 -1 2 -1 22 -1 #SUP: 2
164 -1 2 -1 123 -1 #SUP: 2
164 -1 22 -1 22 -1 #SUP: 2
164 -1 77 -1 170 -1 #SUP: 2
164 -1 123 -1 206 -1 #SUP: 2
164 -1 222 -1 76 -1 #SUP: 2
168 -1 5126 -1 31 -1 #SUP: 2
170 -1 65 -1 756 -1 #SUP: 2
170 -1 65 -1 3244 -1 #SUP: 2
170 -1 77 -1 64 -1 #SUP: 2
170 -1 3244 -1 756 -1 #SUP: 2
171 -1 10 -1 78 -1 #SUP: 2
171 -1 50 -1 186 -1 #SUP: 2
193 -1 22 -1 32 -1 #SUP: 2
193 -1 22 -1 417 -1 #SUP: 2
193 -1 123 -1 64 -1 #SUP: 2
193 -1 162 -1 123 -1 #SUP: 2
193 -1 206 -1 22 -1 #SUP: 2
193 -1 206 -1 123 -1 #SUP: 3
193 -1 206 -1 162 -1 #SUP: 2
193 -1 921 -1 67 -1 #SUP: 2
206 -1 10 -1 22 -1 #SUP: 2
206 -1 10 -1 65 -1 #SUP: 2
206 -1 22 -1 538 -1 #SUP: 2
206 -1 64 -1 67 -1 #SUP: 2
206 -1 65 -1 77 -1 #SUP: 2
206 -1 123 -1 206 -1 #SUP: 3
206 -1 162 -1 123 -1 #SUP: 2
206 -1 162 -1 206 -1 #SUP: 2
206 -1 651 -1 64 -1 #SUP: 2
206 -1 651 -1 67 -1 #SUP: 2
222 -1 77 -1 170 -1 #SUP: 2
225 -1 64 -1 102 -1 #SUP: 2
233 -1 22 -1 1610 -1 #SUP: 2
236 -1 773 -1 64 -1 #SUP: 2
248 -1 77 -1 193 -1 #SUP: 2
259 -1 76 -1 2630 -1 #SUP: 2
262 -1 171 -1 280 -1 #SUP: 2
280 -1 64 -1 22 -1 #SUP: 2
291 -1 22 -1 77 -1 #SUP: 2
291 -1 22 -1 123 -1 #SUP: 2
291 -1 31 -1 22 -1 #SUP: 2
291 -1 77 -1 123 -1 #SUP: 2
318 -1 64 -1 65 -1 #SUP: 2
326 -1 9831 -1 12079 -1 #SUP: 2
364 -1 308 -1 189 -1 #SUP: 2
364 -1 1238 -1 189 -1 #SUP: 2
364 -1 1238 -1 308 -1 #SUP: 2
364 -1 1238 -1 628 -1 #SUP: 2
375 -1 2 -1 65 -1 #SUP: 2
375 -1 65 -1 2 -1 #SUP: 2
375 -1 65 -1 2630 -1 #SUP: 3
375 -1 571 -1 2 -1 #SUP: 2
375 -1 571 -1 65 -1 #SUP: 2
375 -1 571 -1 2630 -1 #SUP: 2
395 -1 443 -1 704 -1 #SUP: 2
407 -1 2 -1 65 -1 #SUP: 2
407 -1 65 -1 2 -1 #SUP: 2
407 -1 65 -1 2630 -1 #SUP: 2
407 -1 123 -1 638 -1 #SUP: 2
407 -1 375 -1 2 -1 #SUP: 3
407 -1 375 -1 65 -1 #SUP: 3
407 -1 375 -1 77 -1 #SUP: 2
407 -1 375 -1 571 -1 #SUP: 2
407 -1 375 -1 2630 -1 #SUP: 2
407 -1 571 -1 2 -1 #SUP: 2
407 -1 571 -1 65 -1 #SUP: 2
407 -1 571 -1 2630 -1 #SUP: 2
417 -1 144 -1 193 -1 #SUP: 2
441 -1 64 -1 144 -1 #SUP: 2
443 -1 764 -1 65 -1 #SUP: 2
452 -1 22 -1 193 -1 #SUP: 2
452 -1 22 -1 417 -1 #SUP: 2
452 -1 417 -1 193 -1 #SUP: 2
499 -1 64 -1 22 -1 #SUP: 2
520 -1 22 -1 22 -1 #SUP: 2
520 -1 31 -1 222 -1 #SUP: 2
520 -1 117 -1 66 -1 #SUP: 2
520 -1 395 -1 444 -1 #SUP: 2
571 -1 65 -1 2 -1 #SUP: 2
571 -1 65 -1 2630 -1 #SUP: 2
571 -1 2630 -1 2 -1 #SUP: 2
599 -1 123 -1 2 -1 #SUP: 2
599 -1 364 -1 64 -1 #SUP: 2
599 -1 445 -1 64 -1 #SUP: 2
608 -1 77 -1 599 -1 #SUP: 2
629 -1 144 -1 78 -1 #SUP: 2
651 -1 64 -1 67 -1 #SUP: 2
651 -1 65 -1 77 -1 #SUP: 2
651 -1 77 -1 599 -1 #SUP: 2
656 -1 64 -1 78 -1 #SUP: 2
756 -1 164 -1 32 -1 #SUP: 2
764 -1 65 -1 64 -1 #SUP: 2
768 -1 10 -1 2 -1 #SUP: 2
1238 -1 308 -1 189 -1 #SUP: 2
1238 -1 3912 -1 2221 -1 #SUP: 2
1238 -1 3912 -1 47183 -1 #SUP: 2
2221 -1 1238 -1 3912 -1 #SUP: 2
2221 -1 1238 -1 47183 -1 #SUP: 2
2221 -1 3912 -1 47183 -1 #SUP: 2
2630 -1 2 -1 117 -1 #SUP: 2
2630 -1 2 -1 326 -1 #SUP: 2
2630 -1 2 -1 383 -1 #SUP: 2
2630 -1 2 -1 9831 -1 #SUP: 2
2630 -1 2 -1 12079 -1 #SUP: 2
2630 -1 65 -1 76 -1 #SUP: 2
2630 -1 65 -1 2630 -1 #SUP: 2
2630 -1 76 -1 2630 -1 #SUP: 2
2630 -1 326 -1 9831 -1 #SUP: 2
2630 -1 326 -1 12079 -1 #SUP: 2
2630 -1 9831 -1 12079 -1 #SUP: 2
2830 -1 64 -1 32 -1 #SUP: 2
5126 -1 16 -1 50 -1 #SUP: 2
5126 -1 31 -1 16 -1 #SUP: 2
5126 -1 31 -1 50 -1 #SUP: 2
5126 -1 31 -1 5987 -1 #SUP: 2
5126 -1 5987 -1 16 -1 #SUP: 2
5126 -1 5987 -1 50 -1 #SUP: 2
5987 -1 16 -1 50 -1 #SUP: 2
6947 -1 31 -1 64 -1 #SUP: 2
9831 -1 12079 -1 2630 -1 #SUP: 2
2 -1 326 -1 9831 -1 12079 -1 #SUP: 2
10 -1 78 -1 168 -1 164 -1 #SUP: 2
22 -1 22 -1 64 -1 144 -1 #SUP: 2
22 -1 64 -1 144 -1 22 -1 #SUP: 2
22 -1 77 -1 599 -1 123 -1 #SUP: 2
22 -1 417 -1 144 -1 193 -1 #SUP: 2
31 -1 65 -1 65 -1 22 -1 #SUP: 2
31 -1 65 -1 65 -1 76 -1 #SUP: 2
31 -1 5987 -1 16 -1 50 -1 #SUP: 2
50 -1 10 -1 269 -1 395 -1 #SUP: 2
64 -1 144 -1 2 -1 67 -1 #SUP: 2
65 -1 2 -1 170 -1 64 -1 #SUP: 2
65 -1 2 -1 326 -1 9831 -1 #SUP: 2
65 -1 65 -1 76 -1 22 -1 #SUP: 2
65 -1 76 -1 77 -1 64 -1 #SUP: 2
65 -1 76 -1 77 -1 599 -1 #SUP: 2
65 -1 76 -1 599 -1 64 -1 #SUP: 2
65 -1 77 -1 599 -1 64 -1 #SUP: 2
65 -1 2630 -1 2 -1 117 -1 #SUP: 2
65 -1 2630 -1 2 -1 326 -1 #SUP: 2
65 -1 2630 -1 2 -1 9831 -1 #SUP: 2
65 -1 2630 -1 326 -1 9831 -1 #SUP: 2
68 -1 76 -1 123 -1 123 -1 #SUP: 2
76 -1 77 -1 599 -1 64 -1 #SUP: 2
77 -1 22 -1 2 -1 27 -1 #SUP: 2
77 -1 520 -1 31 -1 222 -1 #SUP: 2
77 -1 599 -1 364 -1 64 -1 #SUP: 2
77 -1 599 -1 445 -1 64 -1 #SUP: 2
78 -1 78 -1 123 -1 31 -1 #SUP: 2
123 -1 65 -1 2630 -1 2 -1 #SUP: 2
123 -1 65 -1 7885 -1 2 -1 #SUP: 2
123 -1 77 -1 123 -1 407 -1 #SUP: 2
123 -1 120 -1 340 -1 364 -1 #SUP: 2
123 -1 206 -1 10 -1 65 -1 #SUP: 2
123 -1 206 -1 65 -1 77 -1 #SUP: 2
123 -1 375 -1 2 -1 65 -1 #SUP: 2
123 -1 375 -1 65 -1 2 -1 #SUP: 2
123 -1 375 -1 65 -1 2630 -1 #SUP: 2
123 -1 375 -1 571 -1 2 -1 #SUP: 2
123 -1 375 -1 571 -1 65 -1 #SUP: 2
123 -1 407 -1 2 -1 65 -1 #SUP: 2
123 -1 407 -1 65 -1 2 -1 #SUP: 2
123 -1 407 -1 123 -1 638 -1 #SUP: 2
123 -1 407 -1 375 -1 2 -1 #SUP: 3
123 -1 407 -1 375 -1 65 -1 #SUP: 3
123 -1 407 -1 375 -1 77 -1 #SUP: 2
123 -1 407 -1 375 -1 571 -1 #SUP: 2
123 -1 407 -1 571 -1 2 -1 #SUP: 2
123 -1 407 -1 571 -1 65 -1 #SUP: 2
123 -1 571 -1 65 -1 2 -1 #SUP: 2
123 -1 651 -1 65 -1 77 -1 #SUP: 2
162 -1 123 -1 206 -1 65 -1 #SUP: 2
170 -1 65 -1 3244 -1 756 -1 #SUP: 2
193 -1 206 -1 162 -1 123 -1 #SUP: 2
206 -1 162 -1 123 -1 206 -1 #SUP: 2
206 -1 651 -1 64 -1 67 -1 #SUP: 2
291 -1 22 -1 77 -1 123 -1 #SUP: 2
364 -1 1238 -1 308 -1 189 -1 #SUP: 2
375 -1 571 -1 65 -1 2 -1 #SUP: 2
375 -1 571 -1 65 -1 2630 -1 #SUP: 2
407 -1 375 -1 65 -1 2 -1 #SUP: 2
407 -1 375 -1 65 -1 2630 -1 #SUP: 2
407 -1 375 -1 571 -1 2 -1 #SUP: 2
407 -1 375 -1 571 -1 65 -1 #SUP: 2
407 -1 375 -1 571 -1 2630 -1 #SUP: 2
407 -1 571 -1 65 -1 2 -1 #SUP: 2
407 -1 571 -1 65 -1 2630 -1 #SUP: 2
452 -1 22 -1 417 -1 193 -1 #SUP: 2
571 -1 65 -1 2630 -1 2 -1 #SUP: 2
2221 -1 1238 -1 3912 -1 47183 -1 #SUP: 2
2630 -1 2 -1 326 -1 9831 -1 #SUP: 2
2630 -1 2 -1 326 -1 12079 -1 #SUP: 2
2630 -1 2 -1 9831 -1 12079 -1 #SUP: 2
2630 -1 65 -1 76 -1 2630 -1 #SUP: 2
2630 -1 326 -1 9831 -1 12079 -1 #SUP: 2
5126 -1 31 -1 16 -1 50 -1 #SUP: 2
5126 -1 31 -1 5987 -1 16 -1 #SUP: 2
5126 -1 31 -1 5987 -1 50 -1 #SUP: 2
5126 -1 5987 -1 16 -1 50 -1 #SUP: 2
65 -1 76 -1 77 -1 599 -1 64 -1 #SUP: 2
65 -1 2630 -1 2 -1 326 -1 9831 -1 #SUP: 2
123 -1 375 -1 571 -1 65 -1 2 -1 #SUP: 2
123 -1 407 -1 375 -1 65 -1 2 -1 #SUP: 2
123 -1 407 -1 375 -1 571 -1 2 -1 #SUP: 2
123 -1 407 -1 375 -1 571 -1 65 -1 #SUP: 2
123 -1 407 -1 571 -1 65 -1 2 -1 #SUP: 2
407 -1 375 -1 571 -1 65 -1 2 -1 #SUP: 2
407 -1 375 -1 571 -1 65 -1 2630 -1 #SUP: 2
2630 -1 2 -1 326 -1 9831 -1 12079 -1 #SUP: 2
5126 -1 31 -1 5987 -1 16 -1 50 -1 #SUP: 2
123 -1 407 -1 375 -1 571 -1 65 -1 2 -1 #SUP: 2
