123 -1 286 -1 22 -1 3352 -1 27 -1 22 -1 294 -1 206 -1 65 -1 77476 -1 3352 -1 64 -1 22 -1 249 -1 13194 -1 10 -1 7075 -1 10 -1 22 -1 59425 -1 8010 -1 250 -1 40026 -1 8010 -1 2631 -1 65 -1 4614 -1 18249 -1 10 -1 10230 -1 36240 -1 77 -1 4974 -1 193 -1 164 -1 12359 -1 30 -2
254 -1 41 -1 78 -1 326 -1 1129 -1 77 -1 7181 -1 10 -1 1349 -1 64 -1 65 -1 5148 -1 243 -1 551 -1 77 -1 117 -1 301 -1 30 -2
2096 -1 152 -1 16 -1 2096 -1 77 -1 1471 -1 2 -1 10189 -1 17067 -1 41 -1 33 -1 953 -1 2236 -1 32 -1 3881 -1 7103 -1 77 -1 1141 -1 30 -2
262 -1 170 -1 65 -1 431 -1 804 -1 1441 -1 78 -1 193 -1 1471 -1 2319 -1 2658 -1 50 -1 1139 -1 5388 -1 1946 -1 77 -1 356 -1 749 -1 1 -2
285 -1 142 -1 1 -2
567 -1 417 -1 283 -2
1198 -1 3140 -1 64 -1 694 -1 222 -1 27 -1 123 -1 441 -1 64 -1 781 -1 158 -1 33 -1 77 -1 632 -1 31 -1 222 -1 77 -1 2 -1 233 -1 30 -2
123 -1 286 -1 65 -1 1219 -1 32 -1 225 -1 183 -1 7322 -1 140 -1 318 -1 569 -1 77 -1 2 -1 5741 -1 11962 -1 441 -1 65 -1 8024 -1 5384 -1 33 -1 285 -1 349 -1 2742 -1 198 -1 64 -1 67 -1 30 -2
2555 -1 77 -1 201 -1 183 -1 65 -1 401 -1 5443 -1 369 -1 226 -1 7182 -1 511 -1 193 -1 30 -2
3934 -1 30 -2
1607 -1 263 -1 30 -2
7198 -1 170 -1 262 -1 37533 -1 3631 -1 31 -1 123 -1 206 -1 65 -1 3958 -1 21918 -1 1361 -1 50 -1 914 -1 263 -1 519 -1 77 -1 599 -1 160 -1 295 -1 64 -1 144 -1 164 -1 193 -1 1 -2
61098 -1 30 -2
740 -1 9 -1 28 -1 26 -1 147456 -1 9 -1 28 -1 26 -1 147453 -1 62275 -1 5118 -1 899 -1 698 -1 147455 -1 147454 -1 5117 -1 9 -1 28 -1 26 -1 147457 -1 30 -2
123 -1 441 -1 65 -1 2174 -1 32 -1 9183 -1 10680 -1 908 -1 123 -1 441 -1 567 -1 6093 -1 27 -1 22 -1 2248 -1 183 -1 291 -1 77 -1 599 -1 70 -1 22 -1 2405 -1 77 -1 22 -1 12974 -1 77 -1 22 -1 4102 -1 77 -1 22 -1 3244 -1 32 -1 22 -1 1994 -1 1423 -1 162 -1 564 -1 909 -1 30 -2
9469 -1 105291 -1 5658 -1 147461 -1 2634 -1 19105 -1 12528 -1 147460 -1 21508 -1 77 -1 22722 -1 77 -1 2157 -1 209 -1 85472 -1 77 -1 147458 -1 77 -1 147459 -1 77 -1 26331 -1 154 -1 8558 -1 147462 -1 604 -1 77 -1 364 -1 10 -1 613 -1 147463 -1 45710 -1 77 -1 3559 -1 36559 -1 3559 -1 36559 -1 3559 -1 30 -2
364 -1 10 -1 613 -1 164 -1 22 -1 3834 -1 32 -1 41 -1 30 -2
364 -1 10 -1 613 -1 147463 -1 45710 -1 30 -2
3559 -1 36559 -1 3559 -1 36559 -1 3589 -1 30 -2
3589 -1 36559 -1 3559 -1 36559 -1 147464 -1 1199 -1 30 -2
17 -1 33 -1 30 -2
406 -1 32 -1 12798 -1 5816 -1 7595 -1 30 -2
1389 -1 9 -1 28 -1 26 -1 147465 -1 9 -1 28 -1 26 -1 147466 -1 5117 -1 123 -1 356 -1 22 -1 1299 -1 6416 -1 117 -1 22 -1 23 -1 32 -1 22 -1 5 -1 1440 -1 77 -1 657 -1 1905 -1 5400 -1 9360 -1 2858 -1 1760 -1 64 -1 4384 -1 30 -2
123 -1 1758 -1 70 -1 1030 -1 964 -1 283 -2
123 -1 1745 -1 65 -1 842 -1 10 -1 1459 -1 77 -1 2 -1 704 -1 10837 -1 638 -1 30 -2
123 -1 613 -1 20035 -1 280 -1 84863 -1 30 -2
309 -1 3383 -1 154 -1 5398 -1 65 -1 414 -1 3244 -1 32 -1 13 -1 7726 -1 2 -1 613 -1 30 -2
41 -1 220 -1 233 -1 2784 -1 84863 -1 212 -1 1712 -1 117 -1 29 -1 372 -1 2 -1 4844 -1 22 -1 628 -1 41 -1 1834 -1 64 -1 30 -2
50 -1 3216 -1 2335 -1 2070 -1 65 -1 8832 -1 154 -1 147467 -1 198 -1 65 -1 7724 -1 26399 -1 154 -1 206 -1 38397 -1 1902 -1 64 -1 1902 -1 356 -1 193 -1 2335 -1 667 -1 326 -1 4252 -1 30 -2
193 -1 2290 -1 130 -1 536 -1 2 -1 4663 -1 356 -1 65 -1 7373 -1 2681 -1 10066 -1 17546 -1 158 -1 2 -1 872 -1 30 -2
1035 -1 2617 -1 222 -1 15 -1 170 -1 8010 -1 30 -2
1433 -1 56523 -1 25768 -1 220 -1 1216 -1 147468 -1 22 -1 4327 -1 77 -1 520 -1 123 -1 4447 -1 27 -1 22 -1 9660 -1 2573 -1 190 -1 249 -1 15787 -1 250 -1 5131 -1 2942 -1 154 -1 14797 -1 30 -2
285 -1 8303 -1 65 -1 6291 -1 32 -1 22 -1 3191 -1 170 -1 64 -1 318 -1 3055 -1 8598 -1 77 -1 2091 -1 117 -1 12851 -1 30 -2
1205 -1 154 -1 15971 -1 22 -1 2144 -1 32 -1 7190 -1 164 -1 145 -1 213 -1 10 -1 365 -1 1 -2
285 -1 225 -1 1155 -1 2156 -1 77 -1 30 -2
24338 -1 1950 -1 8891 -1 198 -1 2 -1 120944 -1 65 -1 6291 -1 32 -1 22 -1 8985 -1 30 -1 404 -1 6745 -1 3754 -1 140 -1 6746 -1 536 -1 33 -1 21097 -1 2 -1 4063 -1 198 -1 23 -1 6745 -1 75084 -1 30 -2
189 -1 2509 -1 5140 -1 880 -1 133911 -1 30 -2
162 -1 1225 -1 6408 -1 655 -1 22 -1 28474 -1 77 -1 78 -1 23123 -1 9 -1 28 -1 26 -1 147469 -1 19269 -1 283 -2
50 -1 449 -1 170 -1 77 -1 22 -1 469 -1 170 -1 895 -1 1725 -1 77 -1 2 -1 22 -1 309 -1 157 -1 11960 -1 1650 -1 10 -1 1469 -1 164 -1 12473 -1 183 -1 249 -1 147470 -1 1529 -1 85946 -1 250 -1 147472 -1 147471 -1 13600 -1 164 -1 22 -1 2159 -1 3457 -1 30 -2
147473 -1 6262 -1 4103 -1 24217 -1 30720 -1 9068 -1 5469 -1 2 -1 1973 -1 64 -1 4518 -1 28255 -1 234 -1 2 -1 2446 -1 30 -2
9 -1 28 -1 26 -1 147475 -1 7071 -1 32 -1 21351 -1 31 -1 147474 -1 30 -2
447 -1 65 -1 4961 -1 164 -1 24091 -1 864 -1 10 -1 755 -1 50 -1 1297 -1 30 -2
71648 -1 9664 -1 1021 -1 64 -1 34104 -1 5103 -1 599 -1 147476 -1 193 -1 11414 -1 138 -1 349 -1 13607 -1 65 -1 460 -1 7238 -1 30 -2
123 -1 613 -1 5230 -1 30 -2
693 -1 225 -1 183 -1 356 -1 35417 -1 2 -1 1314 -1 13 -1 78 -1 65 -1 109 -1 32 -1 3500 -1 349 -1 160 -1 64 -1 1974 -1 41 -1 872 -1 64 -1 1777 -1 744 -1 158 -1 30 -2
349 -1 183 -1 27 -1 41 -1 2173 -1 147477 -1 30 -2
154 -1 14651 -1 733 -1 170 -1 2195 -1 64 -1 691 -1 41 -1 78 -1 30 -2
39932 -1 77 -1 1224 -1 77 -1 12322 -1 77 -1 1116 -1 55800 -1 283 -2
171 -1 10 -1 2160 -1 170 -1 965 -1 1030 -1 33751 -1 30 -2
11 -1 30 -2
5301 -1 30 -2
819 -1 1906 -1 30 -2
349 -1 183 -1 1672 -1 603 -1 117 -1 35899 -1 2 -1 238 -1 65 -1 13 -1 1662 -1 32 -1 30 -2
123 -1 165 -1 788 -1 536 -1 30 -2
2 -1 2525 -1 64 -1 134 -1 164 -1 65 -1 409 -1 16794 -1 2918 -1 30 -2
152 -1 144 -1 65 -1 147478 -1 30 -2
70 -1 16 -1 65 -1 75 -1 236 -1 41 -1 220 -1 16 -1 9806 -1 1713 -1 64 -1 134 -1 33 -1 65 -1 3766 -1 1244 -1 30 -2
850 -1 77 -1 262 -1 4504 -1 2 -1 12402 -1 413 -1 260 -1 1907 -1 64 -1 1726 -1 30 -2
70 -1 35846 -1 872 -1 1553 -1 77 -1 24925 -1 10 -1 3915 -1 13 -1 30 -2
4820 -1 44 -1 147479 -1 3601 -1 10 -1 147480 -1 30 -2
8816 -1 2658 -1 22 -1 147481 -1 30 -2
1726 -1 1238 -1 2 -1 290 -1 4403 -1 8487 -1 14161 -1 77 -1 1726 -1 6524 -1 10 -1 243 -1 1876 -1 2224 -1 1112 -1 8299 -1 77 -1 2 -1 213 -1 3781 -1 32 -1 863 -1 1655 -1 77 -1 1854 -1 78 -1 30 -2
123 -1 286 -1 693 -1 225 -1 183 -1 9679 -1 64 -1 286 -1 59978 -1 170 -1 65 -1 5663 -1 2022 -1 32 -1 29548 -1 30 -2
2 -1 77 -1 33 -1 693 -1 1244 -1 77 -1 78 -1 65 -1 4794 -1 4562 -1 193 -1 170 -1 30 -2
1126 -1 30 -2
599 -1 22 -1 301 -1 413 -1 32 -1 1433 -1 27 -1 170 -1 1355 -1 2 -1 30 -2
123 -1 286 -1 70 -1 65 -1 309 -1 417 -1 4639 -1 30 -2
64 -1 65 -1 1245 -1 1806 -1 77 -1 41 -1 441 -1 64 -1 441 -1 326 -1 4477 -1 33392 -1 32 -1 1655 -1 30 -2
452 -1 1672 -1 667 -1 2437 -1 33 -1 10 -1 1951 -1 77 -1 444 -1 65 -1 8291 -1 955 -1 32 -1 368 -1 4387 -1 64 -1 22 -1 30 -2
123 -1 120 -1 340 -1 291 -1 13085 -1 30 -2
85944 -1 33 -1 11853 -1 446 -1 276 -1 123 -1 286 -1 15 -1 225 -1 356 -1 30 -2
123 -1 1191 -1 659 -1 664 -1 50 -1 1449 -1 170 -1 64 -1 483 -1 211 -1 58 -1 30 -2
225 -1 226 -1 144 -1 27 -1 349 -1 160 -1 2 -1 27 -1 9304 -1 134 -1 30 -2
520 -1 30 -2
1220 -1 77 -1 123 -1 517 -1 1169 -1 22 -1 301 -1 11220 -1 32 -1 65 -1 7075 -1 6928 -1 30 -2
123 -1 284 -1 781 -1 65 -1 1409 -1 236 -1 225 -1 356 -1 222 -1 152 -1 16 -1 30 -2
2 -1 123 -1 356 -1 2996 -1 225 -1 30 -2
117 -1 22 -1 1610 -1 32 -1 22 -1 44 -1 77 -1 70 -1 291 -1 368 -1 23111 -1 2 -1 30 -2
123 -1 120 -1 322 -1 134 -1 78 -1 13732 -1 9294 -1 30 -2
349 -1 499 -1 466 -1 10 -1 466 -1 30 -2
347 -1 1116 -1 120 -1 144 -1 26264 -1 1166 -1 27 -1 41 -1 165 -1 16 -1 160 -1 64 -1 144 -1 26264 -1 786 -1 30 -2
11256 -1 2082 -1 78 -1 384 -1 78 -1 1429 -1 8216 -1 1116 -1 2338 -1 30 -2
78 -1 65 -1 2566 -1 77 -1 2 -1 233 -1 189 -1 77 -1 50 -1 646 -1 9235 -1 183 -1 3915 -1 1264 -1 225 -1 152 -1 22 -1 26972 -1 369 -1 9505 -1 64 -1 670 -1 1166 -1 1790 -1 22 -1 417 -1 30 -2
123 -1 2280 -1 10 -1 8617 -1 5622 -1 77 -1 123 -1 3773 -1 15 -1 32 -1 3967 -1 395 -1 158 -1 753 -1 30 -2
1472 -1 13924 -1 18681 -1 9 -1 28 -1 26 -1 147483 -1 9 -1 28 -1 26 -1 147482 -1 1389 -1 1389 -1 1389 -1 30 -2
1300 -1 3307 -1 44 -1 283 -1 30 -2
1389 -1 1389 -1 1389 -1 123 -1 2209 -1 236 -1 70 -1 254 -1 248 -1 326 -1 7880 -1 77 -1 2 -1 41 -1 356 -1 64 -1 67 -1 2879 -1 2975 -1 2 -1 41 -1 160 -1 22 -1 132 -1 31 -1 1166 -1 30 -2
693 -1 225 -1 2137 -1 2944 -1 22 -1 2295 -1 398 -1 153 -1 1166 -1 30 -2
2 -1 693 -1 225 -1 165 -1 356 -1 64 -1 30 -2
285 -1 384 -1 220 -1 41 -1 260 -1 734 -1 29 -1 10116 -1 38545 -1 469 -1 48371 -1 1 -2
9 -1 1431 -1 147484 -1 280 -1 1126 -1 33 -1 27 -1 225 -1 483 -1 15 -1 2835 -1 77 -1 599 -1 262 -1 3980 -1 170 -1 3956 -1 5 -1 2 -1 123 -1 220 -1 322 -1 285 -1 14477 -1 193 -1 170 -1 64 -1 67 -1 224 -1 171 -1 283 -2
9 -1 28 -1 26 -1 147485 -1 9565 -1 1220 -1 30 -2
123 -1 407 -1 913 -1 11086 -1 198 -1 936 -1 356 -1 262 -1 30 -2
16 -1 196 -1 8877 -1 30 -2
2091 -1 164 -1 22 -1 2479 -1 77 -1 2 -1 22 -1 31202 -1 413 -1 30 -2
3934 -1 30 -2
8530 -1 1834 -1 64 -1 67 -1 3793 -1 1268 -1 77 -1 2 -1 159 -1 1987 -1 3631 -1 30 -2
1741 -1 220 -1 268 -1 64 -1 22 -1 1335 -1 32 -1 381 -1 127 -1 152 -1 1268 -1 77 -1 5302 -1 77 -1 254 -1 2006 -1 915 -1 77 -1 599 -1 1948 -1 8052 -1 64 -1 499 -1 466 -1 10 -1 466 -1 164 -1 636 -1 77 -1 1369 -1 30 -2
4903 -1 356 -1 430 -1 183 -1 260 -1 27 -1 958 -1 50 -1 584 -1 30 -2
70 -1 7928 -1 2 -1 9133 -1 77 -1 599 -1 22 -1 8500 -1 2 -1 9015 -1 32 -1 368 -1 1699 -1 10 -1 22 -1 19796 -1 170 -1 779 -1 283 -2
518 -1 9 -1 28 -1 26 -1 147486 -1 31 -1 22 -1 4614 -1 6291 -1 32 -1 22 -1 915 -1 3191 -1 77 -1 123 -1 765 -1 15 -1 225 -1 144 -1 2294 -1 2156 -1 30 -2
2006 -1 243 -1 1003 -1 212 -1 356 -1 68 -1 213 -1 644 -1 33 -1 262 -1 1350 -1 154 -1 1126 -1 33 -1 171 -1 1160 -1 31 -1 4794 -1 30 -1 30 -1 894 -1 2 -1 103 -1 283 -2
123 -1 196 -1 1834 -1 64 -1 483 -1 411 -1 10 -1 1123 -1 5603 -1 164 -1 703 -1 30 -2
443 -1 1216 -1 378 -1 65 -1 17753 -1 2156 -1 77 -1 2 -1 1653 -1 13 -1 39 -1 654 -1 1263 -1 10 -1 6805 -1 1125 -1 530 -1 64 -1 2232 -1 77 -1 4161 -1 77 -1 1489 -1 77 -1 30 -2
33 -1 693 -1 1244 -1 77 -1 123 -1 286 -1 443 -1 66 -1 144 -1 193 -1 30 -2
11310 -1 170 -1 326 -1 34393 -1 259 -1 32 -1 13 -1 30 -2
162 -1 443 -1 1758 -1 1751 -1 31 -1 22 -1 8344 -1 10 -1 704 -1 1359 -1 77 -1 443 -1 220 -1 529 -1 483 -1 4317 -1 64 -1 41467 -1 1263 -1 237 -1 65 -1 398 -1 2172 -1 30 -1 30 -1 642 -1 1199 -1 30 -2
364 -1 520 -1 431 -1 63 -1 41 -1 441 -1 64 -1 564 -1 158 -1 164 -1 1163 -1 65 -1 1269 -1 438 -1 30 -2
123 -1 144 -1 533 -1 781 -1 41 -1 384 -1 7161 -1 31 -1 381 -1 773 -1 64 -1 2403 -1 29 -1 955 -1 32 -1 368 -1 77 -1 2 -1 256 -1 29 -1 519 -1 77 -1 41 -1 441 -1 29 -1 30 -2
123 -1 2209 -1 236 -1 2552 -1 7 -1 596 -1 64 -1 144 -1 164 -1 381 -1 20317 -1 164 -1 1166 -1 489 -1 2 -1 4420 -1 77 -1 650 -1 369 -1 3892 -1 160 -1 1035 -1 544 -1 31 -1 41 -1 77 -1 599 -1 965 -1 120 -1 1034 -1 27 -1 965 -1 945 -1 31 -1 30 -2
120 -1 340 -1 236 -1 262 -1 170 -1 1274 -1 11064 -1 77 -1 599 -1 168 -1 31 -1 505 -1 30 -2
123 -1 2453 -1 990 -1 416 -1 1650 -1 693 -1 16624 -1 1051 -1 147487 -1 3084 -1 77 -1 535 -1 66 -1 22 -1 3581 -1 452 -1 3 -1 1326 -1 164 -1 147488 -1 7668 -1 33 -1 6930 -1 30 -2
9 -1 28 -1 26 -1 147489 -1 174 -1 4666 -1 378 -2