,pattern,sup,author
305,"(0, 5, 28)",2,1998_499467
306,"(0, 5, 66)",2,1998_499467
307,"(0, 5, 92)",2,1998_499467
308,"(0, 28, 66)",2,1998_499467
309,"(0, 28, 92)",2,1998_499467
310,"(0, 66, 5)",2,1998_499467
311,"(0, 66, 28)",2,1998_499467
312,"(0, 66, 66)",2,1998_499467
313,"(0, 66, 92)",2,1998_499467
314,"(5, 5, 18)",2,1998_499467
315,"(5, 5, 529)",2,1998_499467
316,"(5, 18, 5)",2,1998_499467
317,"(5, 18, 28)",4,1998_499467
318,"(5, 28, 5)",3,1998_499467
319,"(5, 28, 40)",2,1998_499467
320,"(5, 28, 66)",3,1998_499467
321,"(5, 28, 92)",2,1998_499467
322,"(5, 28, 116)",2,1998_499467
323,"(5, 28, 122)",2,1998_499467
324,"(5, 28, 144)",2,1998_499467
325,"(5, 28, 270)",2,1998_499467
326,"(5, 28, 350)",2,1998_499467
327,"(5, 28, 529)",2,1998_499467
328,"(5, 28, 767)",2,1998_499467
329,"(5, 28, 823)",2,1998_499467
330,"(5, 66, 5)",2,1998_499467
331,"(5, 66, 92)",2,1998_499467
332,"(5, 66, 529)",2,1998_499467
333,"(5, 116, 350)",2,1998_499467
334,"(5, 151, 28)",3,1998_499467
335,"(5, 151, 116)",2,1998_499467
336,"(5, 151, 350)",2,1998_499467
337,"(5, 270, 823)",2,1998_499467
338,"(5, 321, 32)",2,1998_499467
339,"(5, 529, 28)",2,1998_499467
340,"(6, 55, 28)",2,1998_499467
341,"(6, 55, 1321)",2,1998_499467
342,"(6, 1221, 28)",2,1998_499467
343,"(6, 1221, 55)",2,1998_499467
344,"(6, 1221, 1321)",2,1998_499467
345,"(6, 1321, 28)",2,1998_499467
346,"(14, 222, 5)",2,1998_499467
347,"(18, 28, 5)",2,1998_499467
348,"(18, 28, 28)",2,1998_499467
349,"(28, 5, 28)",2,1998_499467
350,"(28, 5, 529)",2,1998_499467
351,"(28, 32, 218)",2,1998_499467
352,"(28, 47, 4841)",2,1998_499467
353,"(28, 66, 5)",2,1998_499467
354,"(28, 66, 92)",2,1998_499467
355,"(28, 66, 529)",2,1998_499467
356,"(28, 116, 28)",2,1998_499467
357,"(28, 116, 350)",2,1998_499467
358,"(28, 122, 76)",2,1998_499467
359,"(28, 122, 270)",2,1998_499467
360,"(28, 122, 823)",2,1998_499467
361,"(28, 133, 2141)",2,1998_499467
362,"(28, 270, 76)",2,1998_499467
363,"(28, 270, 823)",3,1998_499467
364,"(28, 350, 28)",2,1998_499467
365,"(28, 557, 76)",2,1998_499467
366,"(28, 557, 122)",2,1998_499467
367,"(28, 557, 270)",2,1998_499467
368,"(28, 557, 823)",2,1998_499467
369,"(28, 823, 76)",2,1998_499467
370,"(32, 40, 28)",2,1998_499467
371,"(32, 128, 59)",2,1998_499467
372,"(39, 28, 32)",2,1998_499467
373,"(40, 28, 32)",2,1998_499467
374,"(40, 32, 40)",2,1998_499467
375,"(40, 32, 128)",2,1998_499467
376,"(40, 480, 32)",2,1998_499467
377,"(41, 28, 270)",2,1998_499467
378,"(41, 28, 823)",2,1998_499467
379,"(41, 270, 823)",2,1998_499467
380,"(47, 32, 81)",2,1998_499467
381,"(47, 4841, 32)",2,1998_499467
382,"(55, 1321, 28)",2,1998_499467
383,"(66, 5, 18)",2,1998_499467
384,"(66, 5, 28)",4,1998_499467
385,"(66, 5, 66)",2,1998_499467
386,"(66, 5, 92)",2,1998_499467
387,"(66, 5, 234)",2,1998_499467
388,"(66, 5, 529)",2,1998_499467
389,"(66, 18, 28)",2,1998_499467
390,"(66, 28, 66)",2,1998_499467
391,"(66, 28, 92)",2,1998_499467
392,"(66, 66, 92)",2,1998_499467
393,"(66, 92, 5)",3,1998_499467
394,"(66, 92, 28)",2,1998_499467
395,"(66, 529, 28)",2,1998_499467
396,"(81, 5, 18)",2,1998_499467
397,"(81, 28, 47)",2,1998_499467
398,"(81, 28, 4841)",2,1998_499467
399,"(81, 47, 4841)",2,1998_499467
400,"(81, 133, 47)",2,1998_499467
401,"(81, 203, 28)",2,1998_499467
402,"(81, 203, 47)",2,1998_499467
403,"(81, 203, 4841)",2,1998_499467
404,"(92, 5, 28)",2,1998_499467
405,"(92, 5, 325)",2,1998_499467
406,"(116, 350, 28)",2,1998_499467
407,"(122, 5, 2)",2,1998_499467
408,"(122, 270, 76)",2,1998_499467
409,"(122, 270, 823)",2,1998_499467
410,"(122, 823, 76)",2,1998_499467
411,"(124, 14, 239)",2,1998_499467
412,"(124, 251, 28)",2,1998_499467
413,"(133, 6, 47)",2,1998_499467
414,"(133, 47, 4841)",2,1998_499467
415,"(133, 203, 28)",2,1998_499467
416,"(151, 28, 28)",2,1998_499467
417,"(151, 28, 116)",2,1998_499467
418,"(151, 28, 350)",2,1998_499467
419,"(151, 116, 28)",2,1998_499467
420,"(151, 116, 350)",2,1998_499467
421,"(151, 350, 28)",2,1998_499467
422,"(183, 28, 18)",2,1998_499467
423,"(203, 28, 47)",2,1998_499467
424,"(203, 28, 4841)",2,1998_499467
425,"(203, 47, 4841)",2,1998_499467
426,"(251, 28, 32)",2,1998_499467
427,"(251, 28, 218)",2,1998_499467
428,"(251, 32, 218)",2,1998_499467
429,"(270, 823, 76)",2,1998_499467
430,"(282, 2, 2329)",2,1998_499467
431,"(306, 5, 18)",2,1998_499467
432,"(358, 32, 14)",2,1998_499467
433,"(422, 28, 823)",2,1998_499467
434,"(538, 5, 28)",2,1998_499467
435,"(550, 5, 5)",2,1998_499467
436,"(550, 183, 28)",2,1998_499467
437,"(557, 122, 76)",2,1998_499467
438,"(557, 122, 270)",2,1998_499467
439,"(557, 122, 823)",2,1998_499467
440,"(557, 270, 76)",2,1998_499467
441,"(557, 270, 823)",2,1998_499467
442,"(557, 823, 76)",2,1998_499467
443,"(639, 81, 47)",2,1998_499467
444,"(675, 5, 18)",2,1998_499467
445,"(1221, 55, 28)",2,1998_499467
446,"(1221, 55, 1321)",2,1998_499467
447,"(1221, 1321, 28)",2,1998_499467
448,"(2141, 14, 222)",2,1998_499467
449,"(0, 5, 28, 66)",2,1998_499467
450,"(0, 5, 28, 92)",2,1998_499467
451,"(0, 5, 66, 92)",2,1998_499467
452,"(0, 28, 66, 92)",2,1998_499467
453,"(0, 66, 5, 28)",2,1998_499467
454,"(0, 66, 5, 66)",2,1998_499467
455,"(0, 66, 5, 92)",2,1998_499467
456,"(0, 66, 28, 66)",2,1998_499467
457,"(0, 66, 28, 92)",2,1998_499467
458,"(0, 66, 66, 92)",2,1998_499467
459,"(5, 18, 28, 5)",2,1998_499467
460,"(5, 28, 5, 529)",2,1998_499467
461,"(5, 28, 66, 5)",2,1998_499467
462,"(5, 28, 66, 92)",2,1998_499467
463,"(5, 28, 66, 529)",2,1998_499467
464,"(5, 28, 116, 350)",2,1998_499467
465,"(5, 28, 270, 823)",2,1998_499467
466,"(5, 66, 5, 529)",2,1998_499467
467,"(5, 151, 28, 116)",2,1998_499467
468,"(5, 151, 28, 350)",2,1998_499467
469,"(5, 151, 116, 350)",2,1998_499467
470,"(6, 55, 1321, 28)",2,1998_499467
471,"(6, 1221, 55, 28)",2,1998_499467
472,"(6, 1221, 55, 1321)",2,1998_499467
473,"(6, 1221, 1321, 28)",2,1998_499467
474,"(28, 66, 5, 529)",2,1998_499467
475,"(28, 116, 350, 28)",2,1998_499467
476,"(28, 122, 270, 76)",2,1998_499467
477,"(28, 122, 270, 823)",2,1998_499467
478,"(28, 122, 823, 76)",2,1998_499467
479,"(28, 270, 823, 76)",2,1998_499467
480,"(28, 557, 122, 76)",2,1998_499467
481,"(28, 557, 122, 270)",2,1998_499467
482,"(28, 557, 122, 823)",2,1998_499467
483,"(28, 557, 270, 76)",2,1998_499467
484,"(28, 557, 270, 823)",2,1998_499467
485,"(28, 557, 823, 76)",2,1998_499467
486,"(41, 28, 270, 823)",2,1998_499467
487,"(66, 5, 18, 28)",2,1998_499467
488,"(66, 5, 28, 66)",2,1998_499467
489,"(66, 5, 28, 92)",2,1998_499467
490,"(66, 5, 66, 92)",2,1998_499467
491,"(66, 5, 529, 28)",2,1998_499467
492,"(66, 28, 66, 92)",2,1998_499467
493,"(66, 92, 5, 28)",2,1998_499467
494,"(81, 28, 47, 4841)",2,1998_499467
495,"(81, 203, 28, 47)",2,1998_499467
496,"(81, 203, 28, 4841)",2,1998_499467
497,"(81, 203, 47, 4841)",2,1998_499467
498,"(122, 270, 823, 76)",2,1998_499467
499,"(151, 28, 116, 28)",2,1998_499467
500,"(151, 28, 116, 350)",2,1998_499467
501,"(151, 28, 350, 28)",2,1998_499467
502,"(151, 116, 350, 28)",2,1998_499467
503,"(203, 28, 47, 4841)",2,1998_499467
504,"(251, 28, 32, 218)",2,1998_499467
505,"(557, 122, 270, 76)",2,1998_499467
506,"(557, 122, 270, 823)",2,1998_499467
507,"(557, 122, 823, 76)",2,1998_499467
508,"(557, 270, 823, 76)",2,1998_499467
509,"(1221, 55, 1321, 28)",2,1998_499467
510,"(0, 5, 28, 66, 92)",2,1998_499467
511,"(0, 66, 5, 28, 66)",2,1998_499467
512,"(0, 66, 5, 28, 92)",2,1998_499467
513,"(0, 66, 5, 66, 92)",2,1998_499467
514,"(0, 66, 28, 66, 92)",2,1998_499467
515,"(5, 28, 66, 5, 529)",2,1998_499467
516,"(5, 151, 28, 116, 350)",2,1998_499467
517,"(6, 1221, 55, 1321, 28)",2,1998_499467
518,"(28, 122, 270, 823, 76)",2,1998_499467
519,"(28, 557, 122, 270, 76)",2,1998_499467
520,"(28, 557, 122, 270, 823)",2,1998_499467
521,"(28, 557, 122, 823, 76)",2,1998_499467
522,"(28, 557, 270, 823, 76)",2,1998_499467
523,"(66, 5, 28, 66, 92)",2,1998_499467
524,"(81, 203, 28, 47, 4841)",2,1998_499467
525,"(151, 28, 116, 350, 28)",2,1998_499467
526,"(557, 122, 270, 823, 76)",2,1998_499467
527,"(0, 66, 5, 28, 66, 92)",2,1998_499467
528,"(28, 557, 122, 270, 823, 76)",2,1998_499467
