,pattern,sup,author
330,"(0, 5, 89)",2,1998_859548
331,"(0, 5, 99)",2,1998_859548
332,"(0, 5, 171)",2,1998_859548
333,"(0, 14, 5)",4,1998_859548
334,"(0, 14, 28)",2,1998_859548
335,"(0, 14, 92)",2,1998_859548
336,"(0, 14, 99)",2,1998_859548
337,"(0, 14, 102)",2,1998_859548
338,"(0, 14, 171)",3,1998_859548
339,"(0, 92, 171)",2,1998_859548
340,"(0, 1625, 0)",2,1998_859548
341,"(5, 0, 5)",3,1998_859548
342,"(5, 0, 14)",3,1998_859548
343,"(5, 2, 64)",3,1998_859548
344,"(5, 5, 0)",3,1998_859548
345,"(5, 5, 5)",3,1998_859548
346,"(5, 5, 14)",2,1998_859548
347,"(5, 5, 89)",2,1998_859548
348,"(5, 5, 214)",2,1998_859548
349,"(5, 14, 5)",2,1998_859548
350,"(5, 18, 21)",2,1998_859548
351,"(5, 28, 21)",2,1998_859548
352,"(5, 28, 28)",2,1998_859548
353,"(5, 28, 38)",2,1998_859548
354,"(5, 28, 40)",2,1998_859548
355,"(5, 28, 293)",2,1998_859548
356,"(5, 40, 2)",2,1998_859548
357,"(5, 40, 64)",2,1998_859548
358,"(5, 47, 5)",2,1998_859548
359,"(5, 72, 21)",2,1998_859548
360,"(5, 89, 39)",2,1998_859548
361,"(5, 89, 102)",2,1998_859548
362,"(5, 102, 28)",2,1998_859548
363,"(5, 102, 78)",2,1998_859548
364,"(5, 102, 171)",2,1998_859548
365,"(5, 102, 190)",3,1998_859548
366,"(5, 102, 293)",2,1998_859548
367,"(5, 102, 348)",2,1998_859548
368,"(5, 106, 0)",2,1998_859548
369,"(5, 106, 5)",5,1998_859548
370,"(5, 106, 21)",2,1998_859548
371,"(5, 106, 28)",2,1998_859548
372,"(5, 106, 47)",2,1998_859548
373,"(5, 106, 265)",2,1998_859548
374,"(5, 124, 28)",2,1998_859548
375,"(5, 125, 2)",2,1998_859548
376,"(5, 125, 348)",2,1998_859548
377,"(5, 133, 128)",2,1998_859548
378,"(5, 179, 688)",2,1998_859548
379,"(5, 190, 78)",2,1998_859548
380,"(5, 190, 171)",2,1998_859548
381,"(5, 190, 348)",2,1998_859548
382,"(5, 214, 2047)",2,1998_859548
383,"(5, 251, 28)",2,1998_859548
384,"(5, 265, 21)",2,1998_859548
385,"(5, 293, 21)",2,1998_859548
386,"(5, 299, 265)",2,1998_859548
387,"(5, 299, 325)",2,1998_859548
388,"(5, 325, 265)",3,1998_859548
389,"(5, 553, 32)",2,1998_859548
390,"(5, 688, 0)",2,1998_859548
391,"(14, 5, 99)",2,1998_859548
392,"(14, 5, 171)",2,1998_859548
393,"(14, 92, 171)",2,1998_859548
394,"(14, 280, 1780)",2,1998_859548
395,"(21, 40, 822)",2,1998_859548
396,"(28, 0, 14)",2,1998_859548
397,"(28, 21, 40)",2,1998_859548
398,"(28, 21, 822)",2,1998_859548
399,"(28, 38, 32)",2,1998_859548
400,"(28, 40, 822)",2,1998_859548
401,"(28, 147, 28)",2,1998_859548
402,"(28, 293, 21)",2,1998_859548
403,"(28, 293, 40)",2,1998_859548
404,"(28, 293, 822)",2,1998_859548
405,"(32, 688, 113)",2,1998_859548
406,"(38, 1625, 0)",2,1998_859548
407,"(38, 2652, 2653)",2,1998_859548
408,"(40, 2, 64)",2,1998_859548
409,"(47, 0, 14)",2,1998_859548
410,"(47, 5, 99)",2,1998_859548
411,"(69, 85, 113)",2,1998_859548
412,"(69, 85, 128)",2,1998_859548
413,"(69, 113, 128)",2,1998_859548
414,"(69, 280, 203)",2,1998_859548
415,"(85, 113, 128)",2,1998_859548
416,"(92, 171, 128)",2,1998_859548
417,"(102, 190, 78)",2,1998_859548
418,"(102, 190, 171)",2,1998_859548
419,"(102, 190, 348)",2,1998_859548
420,"(106, 5, 0)",2,1998_859548
421,"(106, 47, 5)",2,1998_859548
422,"(124, 251, 28)",2,1998_859548
423,"(125, 2, 128)",2,1998_859548
424,"(133, 85, 113)",2,1998_859548
425,"(133, 85, 128)",2,1998_859548
426,"(133, 105, 470)",2,1998_859548
427,"(133, 113, 128)",2,1998_859548
428,"(151, 0, 5)",2,1998_859548
429,"(233, 69, 203)",2,1998_859548
430,"(233, 69, 280)",2,1998_859548
431,"(233, 280, 203)",2,1998_859548
432,"(251, 28, 32)",2,1998_859548
433,"(251, 28, 38)",2,1998_859548
434,"(251, 28, 147)",2,1998_859548
435,"(251, 28, 688)",2,1998_859548
436,"(251, 38, 32)",2,1998_859548
437,"(265, 5, 214)",2,1998_859548
438,"(265, 125, 2)",2,1998_859548
439,"(270, 0, 1625)",2,1998_859548
440,"(270, 1625, 0)",2,1998_859548
441,"(270, 1625, 1625)",2,1998_859548
442,"(280, 69, 203)",2,1998_859548
443,"(280, 69, 280)",2,1998_859548
444,"(280, 233, 69)",2,1998_859548
445,"(280, 233, 203)",2,1998_859548
446,"(280, 233, 280)",2,1998_859548
447,"(280, 280, 203)",2,1998_859548
448,"(280, 1062, 32)",2,1998_859548
449,"(280, 1062, 69)",2,1998_859548
450,"(280, 1062, 203)",2,1998_859548
451,"(280, 1062, 233)",2,1998_859548
452,"(280, 1062, 280)",2,1998_859548
453,"(280, 1780, 32)",2,1998_859548
454,"(280, 1780, 69)",2,1998_859548
455,"(280, 1780, 203)",2,1998_859548
456,"(280, 1780, 233)",2,1998_859548
457,"(280, 1780, 280)",2,1998_859548
458,"(280, 1780, 1062)",3,1998_859548
459,"(293, 21, 40)",2,1998_859548
460,"(293, 21, 822)",2,1998_859548
461,"(293, 40, 822)",2,1998_859548
462,"(299, 325, 265)",2,1998_859548
463,"(325, 5, 214)",2,1998_859548
464,"(325, 125, 2)",2,1998_859548
465,"(325, 265, 2)",2,1998_859548
466,"(325, 265, 5)",2,1998_859548
467,"(325, 265, 125)",2,1998_859548
468,"(325, 265, 214)",2,1998_859548
469,"(325, 265, 493)",2,1998_859548
470,"(335, 0, 5)",2,1998_859548
471,"(335, 0, 14)",2,1998_859548
472,"(335, 14, 5)",2,1998_859548
473,"(553, 125, 32)",3,1998_859548
474,"(688, 0, 5)",2,1998_859548
475,"(688, 122, 2247)",2,1998_859548
476,"(1062, 69, 203)",2,1998_859548
477,"(1062, 69, 280)",2,1998_859548
478,"(1062, 233, 69)",2,1998_859548
479,"(1062, 233, 203)",2,1998_859548
480,"(1062, 233, 280)",2,1998_859548
481,"(1062, 280, 203)",2,1998_859548
482,"(1625, 0, 1625)",2,1998_859548
483,"(1780, 69, 203)",2,1998_859548
484,"(1780, 69, 280)",2,1998_859548
485,"(1780, 233, 69)",2,1998_859548
486,"(1780, 233, 203)",2,1998_859548
487,"(1780, 233, 280)",2,1998_859548
488,"(1780, 280, 203)",2,1998_859548
489,"(1780, 1062, 32)",2,1998_859548
490,"(1780, 1062, 69)",2,1998_859548
491,"(1780, 1062, 203)",2,1998_859548
492,"(1780, 1062, 233)",2,1998_859548
493,"(1780, 1062, 280)",2,1998_859548
494,"(2652, 2653, 122)",2,1998_859548
495,"(0, 14, 5, 99)",2,1998_859548
496,"(0, 14, 5, 171)",2,1998_859548
497,"(0, 14, 92, 171)",2,1998_859548
498,"(5, 0, 14, 5)",2,1998_859548
499,"(5, 5, 0, 5)",2,1998_859548
500,"(5, 5, 0, 14)",2,1998_859548
501,"(5, 5, 14, 5)",2,1998_859548
502,"(5, 28, 293, 21)",2,1998_859548
503,"(5, 40, 2, 64)",2,1998_859548
504,"(5, 102, 190, 78)",2,1998_859548
505,"(5, 102, 190, 171)",2,1998_859548
506,"(5, 102, 190, 348)",2,1998_859548
507,"(5, 106, 5, 0)",2,1998_859548
508,"(5, 106, 47, 5)",2,1998_859548
509,"(5, 299, 325, 265)",2,1998_859548
510,"(28, 21, 40, 822)",2,1998_859548
511,"(28, 293, 21, 40)",2,1998_859548
512,"(28, 293, 21, 822)",2,1998_859548
513,"(28, 293, 40, 822)",2,1998_859548
514,"(69, 85, 113, 128)",2,1998_859548
515,"(133, 85, 113, 128)",2,1998_859548
516,"(233, 69, 280, 203)",2,1998_859548
517,"(251, 28, 38, 32)",2,1998_859548
518,"(270, 1625, 0, 1625)",2,1998_859548
519,"(280, 69, 280, 203)",2,1998_859548
520,"(280, 233, 69, 203)",2,1998_859548
521,"(280, 233, 69, 280)",2,1998_859548
522,"(280, 233, 280, 203)",2,1998_859548
523,"(280, 1062, 69, 203)",2,1998_859548
524,"(280, 1062, 69, 280)",2,1998_859548
525,"(280, 1062, 233, 69)",2,1998_859548
526,"(280, 1062, 233, 203)",2,1998_859548
527,"(280, 1062, 233, 280)",2,1998_859548
528,"(280, 1062, 280, 203)",2,1998_859548
529,"(280, 1780, 69, 203)",2,1998_859548
530,"(280, 1780, 69, 280)",2,1998_859548
531,"(280, 1780, 233, 69)",2,1998_859548
532,"(280, 1780, 233, 203)",2,1998_859548
533,"(280, 1780, 233, 280)",2,1998_859548
534,"(280, 1780, 280, 203)",2,1998_859548
535,"(280, 1780, 1062, 32)",2,1998_859548
536,"(280, 1780, 1062, 69)",2,1998_859548
537,"(280, 1780, 1062, 203)",2,1998_859548
538,"(280, 1780, 1062, 233)",2,1998_859548
539,"(280, 1780, 1062, 280)",2,1998_859548
540,"(293, 21, 40, 822)",2,1998_859548
541,"(325, 265, 5, 214)",2,1998_859548
542,"(325, 265, 125, 2)",2,1998_859548
543,"(335, 0, 14, 5)",2,1998_859548
544,"(1062, 69, 280, 203)",2,1998_859548
545,"(1062, 233, 69, 203)",2,1998_859548
546,"(1062, 233, 69, 280)",2,1998_859548
547,"(1062, 233, 280, 203)",2,1998_859548
548,"(1780, 69, 280, 203)",2,1998_859548
549,"(1780, 233, 69, 203)",2,1998_859548
550,"(1780, 233, 69, 280)",2,1998_859548
551,"(1780, 233, 280, 203)",2,1998_859548
552,"(1780, 1062, 69, 203)",2,1998_859548
553,"(1780, 1062, 69, 280)",2,1998_859548
554,"(1780, 1062, 233, 69)",2,1998_859548
555,"(1780, 1062, 233, 203)",2,1998_859548
556,"(1780, 1062, 233, 280)",2,1998_859548
557,"(1780, 1062, 280, 203)",2,1998_859548
558,"(5, 5, 0, 14, 5)",2,1998_859548
559,"(28, 293, 21, 40, 822)",2,1998_859548
560,"(280, 233, 69, 280, 203)",2,1998_859548
561,"(280, 1062, 69, 280, 203)",2,1998_859548
562,"(280, 1062, 233, 69, 203)",2,1998_859548
563,"(280, 1062, 233, 69, 280)",2,1998_859548
564,"(280, 1062, 233, 280, 203)",2,1998_859548
565,"(280, 1780, 69, 280, 203)",2,1998_859548
566,"(280, 1780, 233, 69, 203)",2,1998_859548
567,"(280, 1780, 233, 69, 280)",2,1998_859548
568,"(280, 1780, 233, 280, 203)",2,1998_859548
569,"(280, 1780, 1062, 69, 203)",2,1998_859548
570,"(280, 1780, 1062, 69, 280)",2,1998_859548
571,"(280, 1780, 1062, 233, 69)",2,1998_859548
572,"(280, 1780, 1062, 233, 203)",2,1998_859548
573,"(280, 1780, 1062, 233, 280)",2,1998_859548
574,"(280, 1780, 1062, 280, 203)",2,1998_859548
575,"(1062, 233, 69, 280, 203)",2,1998_859548
576,"(1780, 233, 69, 280, 203)",2,1998_859548
577,"(1780, 1062, 69, 280, 203)",2,1998_859548
578,"(1780, 1062, 233, 69, 203)",2,1998_859548
579,"(1780, 1062, 233, 69, 280)",2,1998_859548
580,"(1780, 1062, 233, 280, 203)",2,1998_859548
581,"(280, 1062, 233, 69, 280, 203)",2,1998_859548
582,"(280, 1780, 233, 69, 280, 203)",2,1998_859548
583,"(280, 1780, 1062, 69, 280, 203)",2,1998_859548
584,"(280, 1780, 1062, 233, 69, 203)",2,1998_859548
585,"(280, 1780, 1062, 233, 69, 280)",2,1998_859548
586,"(280, 1780, 1062, 233, 280, 203)",2,1998_859548
587,"(1780, 1062, 233, 69, 280, 203)",2,1998_859548
588,"(280, 1780, 1062, 233, 69, 280, 203)",2,1998_859548
