,pattern,sup,author
401,"(0, 5, 28)",3,1999_916457
402,"(0, 5, 92)",2,1999_916457
403,"(0, 5, 125)",2,1999_916457
404,"(0, 5, 159)",2,1999_916457
405,"(0, 5, 214)",2,1999_916457
406,"(0, 14, 5)",2,1999_916457
407,"(0, 14, 28)",2,1999_916457
408,"(0, 32, 5)",2,1999_916457
409,"(0, 32, 28)",2,1999_916457
410,"(0, 32, 159)",2,1999_916457
411,"(0, 32, 691)",2,1999_916457
412,"(0, 92, 125)",2,1999_916457
413,"(0, 159, 28)",2,1999_916457
414,"(0, 922, 32)",2,1999_916457
415,"(0, 922, 691)",2,1999_916457
416,"(5, 0, 5)",2,1999_916457
417,"(5, 0, 32)",3,1999_916457
418,"(5, 2, 9)",2,1999_916457
419,"(5, 2, 64)",2,1999_916457
420,"(5, 5, 5)",3,1999_916457
421,"(5, 5, 6)",2,1999_916457
422,"(5, 5, 28)",4,1999_916457
423,"(5, 5, 92)",2,1999_916457
424,"(5, 5, 102)",2,1999_916457
425,"(5, 5, 214)",3,1999_916457
426,"(5, 6, 2)",2,1999_916457
427,"(5, 6, 21)",2,1999_916457
428,"(5, 6, 102)",2,1999_916457
429,"(5, 6, 133)",2,1999_916457
430,"(5, 6, 179)",2,1999_916457
431,"(5, 18, 28)",3,1999_916457
432,"(5, 21, 0)",2,1999_916457
433,"(5, 21, 40)",3,1999_916457
434,"(5, 21, 133)",2,1999_916457
435,"(5, 22, 21)",2,1999_916457
436,"(5, 22, 38)",2,1999_916457
437,"(5, 28, 0)",3,1999_916457
438,"(5, 28, 2)",3,1999_916457
439,"(5, 28, 5)",4,1999_916457
440,"(5, 28, 6)",2,1999_916457
441,"(5, 28, 21)",3,1999_916457
442,"(5, 28, 28)",2,1999_916457
443,"(5, 28, 32)",2,1999_916457
444,"(5, 28, 40)",2,1999_916457
445,"(5, 28, 92)",2,1999_916457
446,"(5, 28, 116)",2,1999_916457
447,"(5, 28, 234)",2,1999_916457
448,"(5, 28, 331)",2,1999_916457
449,"(5, 32, 5)",2,1999_916457
450,"(5, 38, 0)",2,1999_916457
451,"(5, 38, 21)",2,1999_916457
452,"(5, 38, 32)",2,1999_916457
453,"(5, 38, 822)",2,1999_916457
454,"(5, 41, 28)",2,1999_916457
455,"(5, 92, 125)",2,1999_916457
456,"(5, 102, 6)",2,1999_916457
457,"(5, 102, 106)",2,1999_916457
458,"(5, 102, 133)",2,1999_916457
459,"(5, 102, 179)",2,1999_916457
460,"(5, 106, 5)",2,1999_916457
461,"(5, 122, 2)",2,1999_916457
462,"(5, 133, 5)",2,1999_916457
463,"(5, 151, 28)",2,1999_916457
464,"(5, 159, 5)",2,1999_916457
465,"(5, 159, 28)",4,1999_916457
466,"(5, 179, 133)",2,1999_916457
467,"(5, 214, 0)",2,1999_916457
468,"(5, 214, 5)",3,1999_916457
469,"(5, 214, 28)",2,1999_916457
470,"(5, 214, 32)",2,1999_916457
471,"(5, 214, 38)",3,1999_916457
472,"(5, 214, 92)",2,1999_916457
473,"(5, 226, 133)",2,1999_916457
474,"(5, 234, 0)",2,1999_916457
475,"(5, 321, 9)",2,1999_916457
476,"(5, 325, 5)",2,1999_916457
477,"(5, 331, 5)",2,1999_916457
478,"(5, 331, 28)",2,1999_916457
479,"(5, 367, 21)",2,1999_916457
480,"(5, 529, 2)",2,1999_916457
481,"(5, 822, 0)",2,1999_916457
482,"(5, 822, 32)",2,1999_916457
483,"(5, 1476, 234)",2,1999_916457
484,"(6, 21, 133)",2,1999_916457
485,"(6, 179, 21)",2,1999_916457
486,"(6, 179, 133)",2,1999_916457
487,"(14, 5, 28)",2,1999_916457
488,"(14, 39, 125)",2,1999_916457
489,"(18, 0, 32)",2,1999_916457
490,"(21, 0, 5)",2,1999_916457
491,"(21, 40, 92)",2,1999_916457
492,"(21, 47, 39)",2,1999_916457
493,"(21, 822, 0)",2,1999_916457
494,"(22, 21, 14)",2,1999_916457
495,"(22, 38, 40)",2,1999_916457
496,"(22, 38, 92)",2,1999_916457
497,"(28, 0, 5)",3,1999_916457
498,"(28, 5, 6)",2,1999_916457
499,"(28, 5, 28)",2,1999_916457
500,"(28, 21, 40)",2,1999_916457
501,"(28, 28, 28)",2,1999_916457
502,"(28, 28, 40)",2,1999_916457
503,"(28, 32, 5)",2,1999_916457
504,"(28, 92, 5)",2,1999_916457
505,"(28, 116, 21)",2,1999_916457
506,"(28, 116, 39)",2,1999_916457
507,"(28, 234, 5)",2,1999_916457
508,"(32, 5, 5)",2,1999_916457
509,"(32, 5, 28)",3,1999_916457
510,"(32, 5, 159)",2,1999_916457
511,"(32, 159, 28)",2,1999_916457
512,"(38, 0, 691)",2,1999_916457
513,"(38, 21, 133)",2,1999_916457
514,"(38, 21, 822)",2,1999_916457
515,"(38, 32, 691)",2,1999_916457
516,"(38, 232, 5)",2,1999_916457
517,"(38, 822, 0)",2,1999_916457
518,"(38, 822, 32)",2,1999_916457
519,"(38, 822, 691)",2,1999_916457
520,"(38, 2118, 21)",2,1999_916457
521,"(39, 38, 21)",2,1999_916457
522,"(39, 210, 5)",2,1999_916457
523,"(40, 5, 28)",2,1999_916457
524,"(40, 5, 123)",2,1999_916457
525,"(40, 1400, 5)",2,1999_916457
526,"(40, 1400, 234)",2,1999_916457
527,"(62, 21, 193)",2,1999_916457
528,"(71, 21, 47)",3,1999_916457
529,"(83, 5, 234)",2,1999_916457
530,"(92, 5, 5)",2,1999_916457
531,"(102, 179, 21)",2,1999_916457
532,"(102, 179, 133)",2,1999_916457
533,"(113, 398, 5)",2,1999_916457
534,"(122, 5, 2)",2,1999_916457
535,"(125, 21, 47)",2,1999_916457
536,"(125, 38, 21)",2,1999_916457
537,"(125, 38, 2118)",2,1999_916457
538,"(125, 47, 5)",2,1999_916457
539,"(125, 2118, 21)",2,1999_916457
540,"(133, 0, 5)",2,1999_916457
541,"(133, 113, 0)",2,1999_916457
542,"(159, 28, 5)",2,1999_916457
543,"(234, 5, 28)",2,1999_916457
544,"(234, 5, 234)",2,1999_916457
545,"(234, 83, 5)",2,1999_916457
546,"(234, 83, 234)",2,1999_916457
547,"(331, 28, 5)",2,1999_916457
548,"(367, 21, 5)",2,1999_916457
549,"(529, 38, 47)",2,1999_916457
550,"(822, 0, 32)",2,1999_916457
551,"(822, 0, 691)",3,1999_916457
552,"(822, 0, 922)",2,1999_916457
553,"(822, 32, 691)",3,1999_916457
554,"(822, 922, 32)",2,1999_916457
555,"(822, 922, 691)",2,1999_916457
556,"(922, 32, 691)",2,1999_916457
557,"(0, 5, 92, 125)",2,1999_916457
558,"(0, 5, 159, 28)",2,1999_916457
559,"(0, 14, 5, 28)",2,1999_916457
560,"(0, 32, 5, 28)",2,1999_916457
561,"(0, 32, 5, 159)",2,1999_916457
562,"(0, 32, 159, 28)",2,1999_916457
563,"(0, 922, 32, 691)",2,1999_916457
564,"(5, 6, 179, 133)",2,1999_916457
565,"(5, 28, 5, 6)",2,1999_916457
566,"(5, 38, 822, 0)",2,1999_916457
567,"(5, 38, 822, 32)",2,1999_916457
568,"(5, 102, 179, 133)",2,1999_916457
569,"(5, 159, 28, 5)",2,1999_916457
570,"(5, 331, 28, 5)",2,1999_916457
571,"(32, 5, 159, 28)",2,1999_916457
572,"(38, 822, 0, 691)",2,1999_916457
573,"(38, 822, 32, 691)",2,1999_916457
574,"(125, 38, 2118, 21)",2,1999_916457
575,"(234, 83, 5, 234)",2,1999_916457
576,"(822, 0, 32, 691)",2,1999_916457
577,"(822, 0, 922, 32)",2,1999_916457
578,"(822, 0, 922, 691)",2,1999_916457
579,"(822, 922, 32, 691)",2,1999_916457
580,"(0, 32, 5, 159, 28)",2,1999_916457
581,"(822, 0, 922, 32, 691)",2,1999_916457
