,pattern,sup,author
340,"(0, 0, 5)",2,2002_039724
341,"(0, 0, 14)",2,2002_039724
342,"(0, 0, 40)",2,2002_039724
343,"(0, 5, 321)",2,2002_039724
344,"(0, 5, 529)",2,2002_039724
345,"(0, 14, 0)",2,2002_039724
346,"(0, 14, 5)",2,2002_039724
347,"(0, 14, 47)",2,2002_039724
348,"(0, 19, 47)",2,2002_039724
349,"(0, 28, 0)",2,2002_039724
350,"(0, 28, 2)",2,2002_039724
351,"(0, 28, 144)",2,2002_039724
352,"(0, 32, 40)",2,2002_039724
353,"(0, 40, 28)",2,2002_039724
354,"(0, 40, 480)",2,2002_039724
355,"(2, 0, 28)",2,2002_039724
356,"(2, 0, 128)",2,2002_039724
357,"(2, 0, 179)",2,2002_039724
358,"(5, 0, 32)",3,2002_039724
359,"(5, 0, 185)",2,2002_039724
360,"(5, 5, 92)",2,2002_039724
361,"(5, 5, 171)",3,2002_039724
362,"(5, 28, 0)",2,2002_039724
363,"(5, 28, 21)",2,2002_039724
364,"(5, 28, 86)",2,2002_039724
365,"(5, 28, 92)",3,2002_039724
366,"(5, 28, 122)",2,2002_039724
367,"(5, 28, 140)",2,2002_039724
368,"(5, 40, 0)",2,2002_039724
369,"(5, 81, 5)",2,2002_039724
370,"(5, 81, 92)",2,2002_039724
371,"(5, 86, 21)",2,2002_039724
372,"(5, 89, 151)",2,2002_039724
373,"(5, 92, 124)",2,2002_039724
374,"(5, 102, 28)",2,2002_039724
375,"(5, 102, 190)",2,2002_039724
376,"(5, 102, 251)",2,2002_039724
377,"(5, 122, 0)",4,2002_039724
378,"(5, 122, 5)",2,2002_039724
379,"(5, 122, 40)",2,2002_039724
380,"(5, 140, 0)",2,2002_039724
381,"(5, 151, 0)",3,2002_039724
382,"(5, 151, 28)",2,2002_039724
383,"(5, 151, 122)",2,2002_039724
384,"(5, 159, 28)",2,2002_039724
385,"(5, 190, 28)",2,2002_039724
386,"(5, 190, 251)",2,2002_039724
387,"(5, 199, 40)",2,2002_039724
388,"(5, 251, 28)",3,2002_039724
389,"(5, 251, 92)",2,2002_039724
390,"(5, 321, 0)",3,2002_039724
391,"(5, 321, 32)",2,2002_039724
392,"(5, 321, 111)",2,2002_039724
393,"(5, 529, 47)",2,2002_039724
394,"(5, 529, 140)",2,2002_039724
395,"(5, 10475, 122)",2,2002_039724
396,"(9, 40, 28)",2,2002_039724
397,"(18, 28, 40)",2,2002_039724
398,"(18, 28, 122)",3,2002_039724
399,"(19, 69, 28)",2,2002_039724
400,"(28, 0, 14)",2,2002_039724
401,"(28, 2, 0)",3,2002_039724
402,"(28, 39, 0)",2,2002_039724
403,"(28, 86, 21)",2,2002_039724
404,"(28, 122, 0)",3,2002_039724
405,"(28, 122, 260)",2,2002_039724
406,"(38, 0, 40)",2,2002_039724
407,"(38, 5, 122)",2,2002_039724
408,"(38, 9, 40)",2,2002_039724
409,"(38, 40, 0)",2,2002_039724
410,"(38, 40, 9)",2,2002_039724
411,"(38, 40, 40)",2,2002_039724
412,"(38, 40, 844)",2,2002_039724
413,"(40, 0, 40)",3,2002_039724
414,"(40, 9, 40)",2,2002_039724
415,"(41, 28, 38)",2,2002_039724
416,"(69, 5, 122)",2,2002_039724
417,"(69, 5, 10475)",2,2002_039724
418,"(69, 28, 122)",2,2002_039724
419,"(69, 10475, 122)",2,2002_039724
420,"(92, 0, 5)",2,2002_039724
421,"(92, 553, 0)",2,2002_039724
422,"(102, 190, 28)",2,2002_039724
423,"(102, 190, 251)",2,2002_039724
424,"(102, 251, 28)",2,2002_039724
425,"(105, 5, 28)",2,2002_039724
426,"(122, 0, 5)",2,2002_039724
427,"(122, 17, 28)",2,2002_039724
428,"(124, 28, 38)",2,2002_039724
429,"(124, 251, 28)",3,2002_039724
430,"(140, 0, 1079)",2,2002_039724
431,"(140, 480, 1079)",2,2002_039724
432,"(151, 122, 0)",2,2002_039724
433,"(159, 28, 688)",2,2002_039724
434,"(190, 28, 116)",2,2002_039724
435,"(190, 251, 28)",2,2002_039724
436,"(190, 251, 116)",2,2002_039724
437,"(239, 2, 21)",2,2002_039724
438,"(251, 28, 92)",2,2002_039724
439,"(251, 28, 116)",3,2002_039724
440,"(321, 0, 32)",2,2002_039724
441,"(445, 0, 12)",2,2002_039724
442,"(526, 28, 47)",2,2002_039724
443,"(5, 28, 86, 21)",2,2002_039724
444,"(5, 102, 190, 28)",2,2002_039724
445,"(5, 102, 190, 251)",2,2002_039724
446,"(5, 102, 251, 28)",2,2002_039724
447,"(5, 151, 122, 0)",2,2002_039724
448,"(5, 190, 251, 28)",2,2002_039724
449,"(5, 251, 28, 92)",2,2002_039724
450,"(5, 321, 0, 32)",2,2002_039724
451,"(38, 40, 0, 40)",2,2002_039724
452,"(38, 40, 9, 40)",2,2002_039724
453,"(69, 5, 10475, 122)",2,2002_039724
454,"(102, 190, 251, 28)",2,2002_039724
455,"(190, 251, 28, 116)",2,2002_039724
456,"(5, 102, 190, 251, 28)",2,2002_039724
