,pattern,sup,author
1180,"(2, 32, 22)",2,mbtiauth_3491
1181,"(2, 123, 64)",3,mbtiauth_3491
1182,"(2, 123, 76)",2,mbtiauth_3491
1183,"(2, 123, 193)",2,mbtiauth_3491
1184,"(2, 123, 206)",2,mbtiauth_3491
1185,"(2, 123, 260)",2,mbtiauth_3491
1186,"(2, 123, 1214)",2,mbtiauth_3491
1187,"(2, 326, 1896)",2,mbtiauth_3491
1188,"(10, 22, 32)",2,mbtiauth_3491
1189,"(10, 22, 123)",2,mbtiauth_3491
1190,"(10, 64, 123)",2,mbtiauth_3491
1191,"(10, 77, 123)",4,mbtiauth_3491
1192,"(10, 123, 64)",2,mbtiauth_3491
1193,"(10, 123, 123)",3,mbtiauth_3491
1194,"(10, 123, 407)",2,mbtiauth_3491
1195,"(10, 1859, 123)",2,mbtiauth_3491
1196,"(10, 4573, 64)",2,mbtiauth_3491
1197,"(15, 22, 2910)",2,mbtiauth_3491
1198,"(15, 32, 22)",2,mbtiauth_3491
1199,"(15, 32, 2910)",2,mbtiauth_3491
1200,"(16, 41, 77)",2,mbtiauth_3491
1201,"(16, 64, 65)",2,mbtiauth_3491
1202,"(16, 64, 123)",2,mbtiauth_3491
1203,"(16, 64, 765)",2,mbtiauth_3491
1204,"(16, 77, 70)",2,mbtiauth_3491
1205,"(16, 765, 123)",2,mbtiauth_3491
1206,"(22, 10, 64)",2,mbtiauth_3491
1207,"(22, 10, 4573)",2,mbtiauth_3491
1208,"(22, 15, 22)",2,mbtiauth_3491
1209,"(22, 15, 123)",2,mbtiauth_3491
1210,"(22, 22, 123)",2,mbtiauth_3491
1211,"(22, 32, 2)",3,mbtiauth_3491
1212,"(22, 32, 22)",2,mbtiauth_3491
1213,"(22, 32, 77)",2,mbtiauth_3491
1214,"(22, 32, 123)",3,mbtiauth_3491
1215,"(22, 54, 154)",2,mbtiauth_3491
1216,"(22, 77, 123)",3,mbtiauth_3491
1217,"(22, 123, 22)",3,mbtiauth_3491
1218,"(22, 123, 77)",2,mbtiauth_3491
1219,"(22, 123, 123)",2,mbtiauth_3491
1220,"(22, 123, 160)",2,mbtiauth_3491
1221,"(22, 123, 407)",2,mbtiauth_3491
1222,"(22, 123, 638)",2,mbtiauth_3491
1223,"(22, 154, 443)",2,mbtiauth_3491
1224,"(22, 407, 638)",2,mbtiauth_3491
1225,"(22, 3276, 123)",2,mbtiauth_3491
1226,"(22, 3276, 407)",2,mbtiauth_3491
1227,"(22, 3276, 638)",2,mbtiauth_3491
1228,"(22, 4573, 64)",2,mbtiauth_3491
1229,"(27, 32, 41)",2,mbtiauth_3491
1230,"(27, 123, 64)",3,mbtiauth_3491
1231,"(29, 77, 154)",2,mbtiauth_3491
1232,"(30, 41, 32)",2,mbtiauth_3491
1233,"(31, 22, 32)",3,mbtiauth_3491
1234,"(31, 22, 300)",2,mbtiauth_3491
1235,"(31, 123, 22)",2,mbtiauth_3491
1236,"(31, 533, 123)",2,mbtiauth_3491
1237,"(32, 22, 123)",2,mbtiauth_3491
1238,"(32, 22, 2910)",2,mbtiauth_3491
1239,"(32, 29, 13)",2,mbtiauth_3491
1240,"(32, 32, 29)",2,mbtiauth_3491
1241,"(32, 65, 32)",2,mbtiauth_3491
1242,"(32, 65, 123)",2,mbtiauth_3491
1243,"(32, 65, 152)",2,mbtiauth_3491
1244,"(32, 123, 260)",2,mbtiauth_3491
1245,"(32, 123, 407)",2,mbtiauth_3491
1246,"(32, 123, 638)",2,mbtiauth_3491
1247,"(32, 407, 638)",2,mbtiauth_3491
1248,"(32, 3276, 123)",2,mbtiauth_3491
1249,"(32, 3276, 407)",2,mbtiauth_3491
1250,"(32, 3276, 638)",2,mbtiauth_3491
1251,"(33, 22, 32)",2,mbtiauth_3491
1252,"(33, 65, 1852)",2,mbtiauth_3491
1253,"(33, 77, 123)",2,mbtiauth_3491
1254,"(33, 193, 77)",2,mbtiauth_3491
1255,"(33, 193, 123)",2,mbtiauth_3491
1256,"(33, 285, 123)",2,mbtiauth_3491
1257,"(41, 77, 260)",2,mbtiauth_3491
1258,"(41, 123, 765)",2,mbtiauth_3491
1259,"(50, 2, 50)",2,mbtiauth_3491
1260,"(50, 2, 64)",2,mbtiauth_3491
1261,"(50, 2, 123)",4,mbtiauth_3491
1262,"(50, 123, 64)",2,mbtiauth_3491
1263,"(50, 123, 193)",2,mbtiauth_3491
1264,"(50, 123, 340)",2,mbtiauth_3491
1265,"(50, 170, 326)",2,mbtiauth_3491
1266,"(50, 170, 1896)",2,mbtiauth_3491
1267,"(50, 326, 1896)",3,mbtiauth_3491
1268,"(50, 599, 22)",2,mbtiauth_3491
1269,"(50, 599, 123)",2,mbtiauth_3491
1270,"(50, 1226, 326)",2,mbtiauth_3491
1271,"(50, 1226, 1896)",2,mbtiauth_3491
1272,"(50, 4191, 64)",2,mbtiauth_3491
1273,"(54, 154, 64)",2,mbtiauth_3491
1274,"(54, 170, 154)",2,mbtiauth_3491
1275,"(64, 2, 123)",2,mbtiauth_3491
1276,"(64, 2, 1707)",2,mbtiauth_3491
1277,"(64, 22, 32)",2,mbtiauth_3491
1278,"(64, 22, 64)",2,mbtiauth_3491
1279,"(64, 22, 77)",2,mbtiauth_3491
1280,"(64, 22, 123)",2,mbtiauth_3491
1281,"(64, 27, 64)",2,mbtiauth_3491
1282,"(64, 27, 123)",3,mbtiauth_3491
1283,"(64, 50, 2)",2,mbtiauth_3491
1284,"(64, 50, 123)",2,mbtiauth_3491
1285,"(64, 64, 22)",2,mbtiauth_3491
1286,"(64, 64, 123)",2,mbtiauth_3491
1287,"(64, 67, 32)",2,mbtiauth_3491
1288,"(64, 67, 151)",2,mbtiauth_3491
1289,"(64, 77, 123)",3,mbtiauth_3491
1290,"(64, 123, 64)",5,mbtiauth_3491
1291,"(64, 123, 120)",2,mbtiauth_3491
1292,"(64, 123, 206)",2,mbtiauth_3491
1293,"(64, 154, 162)",2,mbtiauth_3491
1294,"(64, 158, 77)",2,mbtiauth_3491
1295,"(64, 158, 123)",2,mbtiauth_3491
1296,"(64, 164, 123)",3,mbtiauth_3491
1297,"(64, 164, 200)",3,mbtiauth_3491
1298,"(64, 164, 364)",2,mbtiauth_3491
1299,"(64, 200, 123)",2,mbtiauth_3491
1300,"(64, 200, 364)",2,mbtiauth_3491
1301,"(64, 520, 384)",2,mbtiauth_3491
1302,"(64, 765, 120)",2,mbtiauth_3491
1303,"(64, 765, 123)",3,mbtiauth_3491
1304,"(64, 765, 154)",2,mbtiauth_3491
1305,"(64, 765, 162)",2,mbtiauth_3491
1306,"(64, 1364, 291)",2,mbtiauth_3491
1307,"(65, 2, 123)",2,mbtiauth_3491
1308,"(65, 22, 32)",2,mbtiauth_3491
1309,"(65, 32, 10)",2,mbtiauth_3491
1310,"(65, 32, 50)",2,mbtiauth_3491
1311,"(65, 77, 123)",3,mbtiauth_3491
1312,"(65, 120, 260)",2,mbtiauth_3491
1313,"(65, 123, 120)",3,mbtiauth_3491
1314,"(65, 123, 260)",2,mbtiauth_3491
1315,"(65, 123, 407)",2,mbtiauth_3491
1316,"(65, 123, 638)",2,mbtiauth_3491
1317,"(65, 154, 120)",2,mbtiauth_3491
1318,"(65, 154, 123)",2,mbtiauth_3491
1319,"(65, 407, 638)",2,mbtiauth_3491
1320,"(65, 1219, 32)",3,mbtiauth_3491
1321,"(66, 32, 22)",2,mbtiauth_3491
1322,"(70, 27, 41)",2,mbtiauth_3491
1323,"(70, 65, 123)",2,mbtiauth_3491
1324,"(70, 276, 123)",2,mbtiauth_3491
1325,"(76, 64, 123)",2,mbtiauth_3491
1326,"(76, 164, 134)",2,mbtiauth_3491
1327,"(77, 22, 64)",2,mbtiauth_3491
1328,"(77, 22, 123)",2,mbtiauth_3491
1329,"(77, 22, 160)",2,mbtiauth_3491
1330,"(77, 27, 41)",2,mbtiauth_3491
1331,"(77, 32, 22)",2,mbtiauth_3491
1332,"(77, 41, 1758)",2,mbtiauth_3491
1333,"(77, 50, 489)",2,mbtiauth_3491
1334,"(77, 70, 27)",2,mbtiauth_3491
1335,"(77, 70, 41)",2,mbtiauth_3491
1336,"(77, 70, 65)",2,mbtiauth_3491
1337,"(77, 77, 22)",2,mbtiauth_3491
1338,"(77, 77, 64)",2,mbtiauth_3491
1339,"(77, 77, 77)",3,mbtiauth_3491
1340,"(77, 123, 22)",4,mbtiauth_3491
1341,"(77, 123, 32)",3,mbtiauth_3491
1342,"(77, 123, 64)",3,mbtiauth_3491
1343,"(77, 123, 76)",2,mbtiauth_3491
1344,"(77, 123, 120)",2,mbtiauth_3491
1345,"(77, 123, 123)",4,mbtiauth_3491
1346,"(77, 123, 154)",6,mbtiauth_3491
1347,"(77, 123, 160)",3,mbtiauth_3491
1348,"(77, 123, 164)",3,mbtiauth_3491
1349,"(77, 123, 193)",2,mbtiauth_3491
1350,"(77, 123, 198)",2,mbtiauth_3491
1351,"(77, 123, 220)",2,mbtiauth_3491
1352,"(77, 123, 260)",4,mbtiauth_3491
1353,"(77, 123, 407)",2,mbtiauth_3491
1354,"(77, 123, 441)",4,mbtiauth_3491
1355,"(77, 123, 765)",2,mbtiauth_3491
1356,"(77, 144, 41)",2,mbtiauth_3491
1357,"(77, 144, 1758)",2,mbtiauth_3491
1358,"(77, 154, 10)",2,mbtiauth_3491
1359,"(77, 193, 64)",2,mbtiauth_3491
1360,"(77, 220, 154)",2,mbtiauth_3491
1361,"(77, 452, 22)",2,mbtiauth_3491
1362,"(77, 765, 154)",2,mbtiauth_3491
1363,"(77, 1225, 123)",2,mbtiauth_3491
1364,"(78, 2, 123)",2,mbtiauth_3491
1365,"(78, 78, 123)",2,mbtiauth_3491
1366,"(78, 123, 65)",2,mbtiauth_3491
1367,"(78, 326, 1896)",2,mbtiauth_3491
1368,"(83, 64, 123)",2,mbtiauth_3491
1369,"(120, 64, 384)",2,mbtiauth_3491
1370,"(120, 162, 77)",2,mbtiauth_3491
1371,"(120, 162, 123)",2,mbtiauth_3491
1372,"(120, 196, 384)",2,mbtiauth_3491
1373,"(120, 384, 123)",2,mbtiauth_3491
1374,"(120, 384, 599)",2,mbtiauth_3491
1375,"(120, 599, 77)",2,mbtiauth_3491
1376,"(120, 599, 123)",3,mbtiauth_3491
1377,"(120, 599, 162)",2,mbtiauth_3491
1378,"(123, 2, 123)",2,mbtiauth_3491
1379,"(123, 2, 260)",2,mbtiauth_3491
1380,"(123, 10, 64)",2,mbtiauth_3491
1381,"(123, 10, 123)",2,mbtiauth_3491
1382,"(123, 10, 417)",3,mbtiauth_3491
1383,"(123, 22, 10)",2,mbtiauth_3491
1384,"(123, 22, 32)",4,mbtiauth_3491
1385,"(123, 22, 64)",3,mbtiauth_3491
1386,"(123, 22, 123)",4,mbtiauth_3491
1387,"(123, 22, 538)",3,mbtiauth_3491
1388,"(123, 22, 2910)",3,mbtiauth_3491
1389,"(123, 27, 123)",2,mbtiauth_3491
1390,"(123, 31, 22)",2,mbtiauth_3491
1391,"(123, 31, 123)",5,mbtiauth_3491
1392,"(123, 31, 1214)",2,mbtiauth_3491
1393,"(123, 32, 22)",5,mbtiauth_3491
1394,"(123, 32, 32)",2,mbtiauth_3491
1395,"(123, 32, 50)",2,mbtiauth_3491
1396,"(123, 32, 65)",2,mbtiauth_3491
1397,"(123, 32, 167)",3,mbtiauth_3491
1398,"(123, 32, 2910)",2,mbtiauth_3491
1399,"(123, 41, 441)",2,mbtiauth_3491
1400,"(123, 50, 2)",2,mbtiauth_3491
1401,"(123, 50, 123)",2,mbtiauth_3491
1402,"(123, 50, 170)",2,mbtiauth_3491
1403,"(123, 50, 326)",3,mbtiauth_3491
1404,"(123, 50, 599)",2,mbtiauth_3491
1405,"(123, 50, 1226)",2,mbtiauth_3491
1406,"(123, 50, 1896)",3,mbtiauth_3491
1407,"(123, 64, 2)",2,mbtiauth_3491
1408,"(123, 64, 10)",3,mbtiauth_3491
1409,"(123, 64, 22)",6,mbtiauth_3491
1410,"(123, 64, 27)",2,mbtiauth_3491
1411,"(123, 64, 31)",2,mbtiauth_3491
1412,"(123, 64, 32)",4,mbtiauth_3491
1413,"(123, 64, 50)",3,mbtiauth_3491
1414,"(123, 64, 64)",4,mbtiauth_3491
1415,"(123, 64, 65)",2,mbtiauth_3491
1416,"(123, 64, 67)",4,mbtiauth_3491
1417,"(123, 64, 77)",2,mbtiauth_3491
1418,"(123, 64, 123)",5,mbtiauth_3491
1419,"(123, 64, 158)",2,mbtiauth_3491
1420,"(123, 64, 164)",5,mbtiauth_3491
1421,"(123, 64, 200)",2,mbtiauth_3491
1422,"(123, 64, 291)",2,mbtiauth_3491
1423,"(123, 64, 326)",2,mbtiauth_3491
1424,"(123, 64, 781)",2,mbtiauth_3491
1425,"(123, 64, 1364)",2,mbtiauth_3491
1426,"(123, 65, 2)",2,mbtiauth_3491
1427,"(123, 65, 32)",4,mbtiauth_3491
1428,"(123, 65, 64)",2,mbtiauth_3491
1429,"(123, 65, 123)",3,mbtiauth_3491
1430,"(123, 65, 154)",2,mbtiauth_3491
1431,"(123, 65, 164)",2,mbtiauth_3491
1432,"(123, 65, 1219)",3,mbtiauth_3491
1433,"(123, 66, 22)",2,mbtiauth_3491
1434,"(123, 66, 32)",3,mbtiauth_3491
1435,"(123, 67, 32)",3,mbtiauth_3491
1436,"(123, 67, 64)",2,mbtiauth_3491
1437,"(123, 67, 65)",2,mbtiauth_3491
1438,"(123, 76, 64)",2,mbtiauth_3491
1439,"(123, 77, 22)",2,mbtiauth_3491
1440,"(123, 77, 123)",4,mbtiauth_3491
1441,"(123, 77, 154)",2,mbtiauth_3491
1442,"(123, 83, 64)",3,mbtiauth_3491
1443,"(123, 120, 10)",3,mbtiauth_3491
1444,"(123, 120, 22)",3,mbtiauth_3491
1445,"(123, 120, 32)",2,mbtiauth_3491
1446,"(123, 120, 33)",2,mbtiauth_3491
1447,"(123, 120, 64)",5,mbtiauth_3491
1448,"(123, 120, 77)",3,mbtiauth_3491
1449,"(123, 120, 123)",3,mbtiauth_3491
1450,"(123, 120, 144)",2,mbtiauth_3491
1451,"(123, 120, 162)",2,mbtiauth_3491
1452,"(123, 120, 260)",2,mbtiauth_3491
1453,"(123, 120, 340)",2,mbtiauth_3491
1454,"(123, 120, 384)",2,mbtiauth_3491
1455,"(123, 120, 417)",2,mbtiauth_3491
1456,"(123, 120, 441)",2,mbtiauth_3491
1457,"(123, 120, 533)",2,mbtiauth_3491
1458,"(123, 120, 599)",3,mbtiauth_3491
1459,"(123, 120, 693)",2,mbtiauth_3491
1460,"(123, 123, 10)",3,mbtiauth_3491
1461,"(123, 123, 64)",5,mbtiauth_3491
1462,"(123, 123, 67)",2,mbtiauth_3491
1463,"(123, 123, 120)",2,mbtiauth_3491
1464,"(123, 123, 144)",2,mbtiauth_3491
1465,"(123, 123, 154)",2,mbtiauth_3491
1466,"(123, 123, 160)",3,mbtiauth_3491
1467,"(123, 123, 206)",3,mbtiauth_3491
1468,"(123, 123, 220)",2,mbtiauth_3491
1469,"(123, 123, 441)",3,mbtiauth_3491
1470,"(123, 123, 1758)",2,mbtiauth_3491
1471,"(123, 144, 64)",2,mbtiauth_3491
1472,"(123, 154, 10)",3,mbtiauth_3491
1473,"(123, 154, 22)",2,mbtiauth_3491
1474,"(123, 154, 32)",3,mbtiauth_3491
1475,"(123, 154, 66)",2,mbtiauth_3491
1476,"(123, 154, 123)",3,mbtiauth_3491
1477,"(123, 154, 162)",3,mbtiauth_3491
1478,"(123, 154, 193)",2,mbtiauth_3491
1479,"(123, 154, 443)",2,mbtiauth_3491
1480,"(123, 154, 536)",3,mbtiauth_3491
1481,"(123, 154, 871)",2,mbtiauth_3491
1482,"(123, 154, 2006)",2,mbtiauth_3491
1483,"(123, 154, 7570)",2,mbtiauth_3491
1484,"(123, 158, 77)",2,mbtiauth_3491
1485,"(123, 160, 64)",2,mbtiauth_3491
1486,"(123, 162, 77)",2,mbtiauth_3491
1487,"(123, 162, 123)",3,mbtiauth_3491
1488,"(123, 162, 144)",2,mbtiauth_3491
1489,"(123, 164, 22)",3,mbtiauth_3491
1490,"(123, 164, 32)",2,mbtiauth_3491
1491,"(123, 164, 154)",2,mbtiauth_3491
1492,"(123, 164, 200)",2,mbtiauth_3491
1493,"(123, 164, 520)",2,mbtiauth_3491
1494,"(123, 165, 31)",2,mbtiauth_3491
1495,"(123, 165, 123)",2,mbtiauth_3491
1496,"(123, 170, 22)",2,mbtiauth_3491
1497,"(123, 170, 64)",2,mbtiauth_3491
1498,"(123, 170, 326)",3,mbtiauth_3491
1499,"(123, 170, 1896)",3,mbtiauth_3491
1500,"(123, 171, 22)",2,mbtiauth_3491
1501,"(123, 171, 32)",2,mbtiauth_3491
1502,"(123, 193, 64)",2,mbtiauth_3491
1503,"(123, 193, 77)",2,mbtiauth_3491
1504,"(123, 193, 123)",3,mbtiauth_3491
1505,"(123, 193, 206)",3,mbtiauth_3491
1506,"(123, 193, 260)",2,mbtiauth_3491
1507,"(123, 193, 356)",2,mbtiauth_3491
1508,"(123, 196, 123)",2,mbtiauth_3491
1509,"(123, 196, 599)",2,mbtiauth_3491
1510,"(123, 205, 32)",3,mbtiauth_3491
1511,"(123, 205, 206)",2,mbtiauth_3491
1512,"(123, 206, 15)",2,mbtiauth_3491
1513,"(123, 206, 22)",4,mbtiauth_3491
1514,"(123, 206, 31)",2,mbtiauth_3491
1515,"(123, 206, 32)",4,mbtiauth_3491
1516,"(123, 206, 50)",2,mbtiauth_3491
1517,"(123, 206, 64)",5,mbtiauth_3491
1518,"(123, 206, 171)",2,mbtiauth_3491
1519,"(123, 206, 1214)",2,mbtiauth_3491
1520,"(123, 212, 64)",2,mbtiauth_3491
1521,"(123, 212, 356)",2,mbtiauth_3491
1522,"(123, 220, 32)",4,mbtiauth_3491
1523,"(123, 220, 64)",3,mbtiauth_3491
1524,"(123, 220, 154)",2,mbtiauth_3491
1525,"(123, 220, 1713)",2,mbtiauth_3491
1526,"(123, 260, 32)",3,mbtiauth_3491
1527,"(123, 260, 123)",3,mbtiauth_3491
1528,"(123, 260, 441)",2,mbtiauth_3491
1529,"(123, 268, 64)",2,mbtiauth_3491
1530,"(123, 268, 76)",2,mbtiauth_3491
1531,"(123, 268, 123)",2,mbtiauth_3491
1532,"(123, 276, 123)",2,mbtiauth_3491
1533,"(123, 285, 123)",2,mbtiauth_3491
1534,"(123, 285, 1758)",2,mbtiauth_3491
1535,"(123, 286, 50)",2,mbtiauth_3491
1536,"(123, 286, 65)",2,mbtiauth_3491
1537,"(123, 286, 123)",2,mbtiauth_3491
1538,"(123, 286, 154)",2,mbtiauth_3491
1539,"(123, 286, 170)",2,mbtiauth_3491
1540,"(123, 286, 326)",2,mbtiauth_3491
1541,"(123, 286, 1896)",2,mbtiauth_3491
1542,"(123, 326, 1896)",4,mbtiauth_3491
1543,"(123, 340, 22)",2,mbtiauth_3491
1544,"(123, 340, 170)",2,mbtiauth_3491
1545,"(123, 356, 22)",2,mbtiauth_3491
1546,"(123, 381, 123)",2,mbtiauth_3491
1547,"(123, 384, 123)",2,mbtiauth_3491
1548,"(123, 384, 599)",2,mbtiauth_3491
1549,"(123, 407, 10)",2,mbtiauth_3491
1550,"(123, 407, 123)",2,mbtiauth_3491
1551,"(123, 407, 154)",2,mbtiauth_3491
1552,"(123, 407, 638)",3,mbtiauth_3491
1553,"(123, 441, 22)",3,mbtiauth_3491
1554,"(123, 441, 64)",5,mbtiauth_3491
1555,"(123, 441, 65)",5,mbtiauth_3491
1556,"(123, 441, 164)",5,mbtiauth_3491
1557,"(123, 441, 291)",2,mbtiauth_3491
1558,"(123, 441, 538)",2,mbtiauth_3491
1559,"(123, 441, 1364)",2,mbtiauth_3491
1560,"(123, 441, 6174)",2,mbtiauth_3491
1561,"(123, 519, 77)",2,mbtiauth_3491
1562,"(123, 520, 64)",2,mbtiauth_3491
1563,"(123, 520, 123)",2,mbtiauth_3491
1564,"(123, 536, 10)",2,mbtiauth_3491
1565,"(123, 538, 154)",2,mbtiauth_3491
1566,"(123, 544, 123)",2,mbtiauth_3491
1567,"(123, 593, 22)",2,mbtiauth_3491
1568,"(123, 593, 64)",2,mbtiauth_3491
1569,"(123, 599, 77)",2,mbtiauth_3491
1570,"(123, 599, 123)",4,mbtiauth_3491
1571,"(123, 599, 162)",2,mbtiauth_3491
1572,"(123, 638, 50)",2,mbtiauth_3491
1573,"(123, 638, 64)",2,mbtiauth_3491
1574,"(123, 638, 765)",2,mbtiauth_3491
1575,"(123, 765, 154)",2,mbtiauth_3491
1576,"(123, 768, 206)",2,mbtiauth_3491
1577,"(123, 929, 22)",2,mbtiauth_3491
1578,"(123, 1214, 32)",2,mbtiauth_3491
1579,"(123, 1219, 32)",2,mbtiauth_3491
1580,"(123, 1226, 326)",2,mbtiauth_3491
1581,"(123, 1226, 1896)",2,mbtiauth_3491
1582,"(123, 1274, 10)",2,mbtiauth_3491
1583,"(123, 1364, 164)",4,mbtiauth_3491
1584,"(123, 1364, 291)",2,mbtiauth_3491
1585,"(123, 1713, 64)",2,mbtiauth_3491
1586,"(123, 1758, 65)",2,mbtiauth_3491
1587,"(123, 1758, 77)",2,mbtiauth_3491
1588,"(123, 1758, 123)",3,mbtiauth_3491
1589,"(123, 1758, 164)",2,mbtiauth_3491
1590,"(123, 1834, 2)",2,mbtiauth_3491
1591,"(123, 1834, 32)",2,mbtiauth_3491
1592,"(123, 1834, 64)",3,mbtiauth_3491
1593,"(123, 1834, 67)",2,mbtiauth_3491
1594,"(123, 1913, 32)",2,mbtiauth_3491
1595,"(123, 1913, 65)",2,mbtiauth_3491
1596,"(123, 1913, 260)",2,mbtiauth_3491
1597,"(123, 2006, 10)",2,mbtiauth_3491
1598,"(123, 2006, 536)",2,mbtiauth_3491
1599,"(123, 2006, 7570)",2,mbtiauth_3491
1600,"(123, 4096, 32)",2,mbtiauth_3491
1601,"(123, 4096, 154)",2,mbtiauth_3491
1602,"(123, 7570, 10)",2,mbtiauth_3491
1603,"(123, 7570, 536)",2,mbtiauth_3491
1604,"(144, 41, 1758)",2,mbtiauth_3491
1605,"(152, 64, 411)",2,mbtiauth_3491
1606,"(154, 10, 417)",2,mbtiauth_3491
1607,"(154, 32, 22)",2,mbtiauth_3491
1608,"(154, 77, 123)",2,mbtiauth_3491
1609,"(154, 77, 260)",2,mbtiauth_3491
1610,"(154, 123, 10)",2,mbtiauth_3491
1611,"(154, 123, 64)",2,mbtiauth_3491
1612,"(154, 123, 65)",2,mbtiauth_3491
1613,"(154, 123, 120)",3,mbtiauth_3491
1614,"(154, 123, 154)",4,mbtiauth_3491
1615,"(154, 123, 417)",2,mbtiauth_3491
1616,"(154, 162, 123)",3,mbtiauth_3491
1617,"(154, 162, 154)",2,mbtiauth_3491
1618,"(154, 206, 123)",2,mbtiauth_3491
1619,"(154, 443, 73)",2,mbtiauth_3491
1620,"(154, 443, 520)",2,mbtiauth_3491
1621,"(154, 443, 704)",2,mbtiauth_3491
1622,"(154, 533, 77)",3,mbtiauth_3491
1623,"(154, 536, 10)",2,mbtiauth_3491
1624,"(154, 2006, 10)",2,mbtiauth_3491
1625,"(154, 2006, 536)",2,mbtiauth_3491
1626,"(154, 2006, 7570)",2,mbtiauth_3491
1627,"(154, 7570, 10)",2,mbtiauth_3491
1628,"(154, 7570, 536)",2,mbtiauth_3491
1629,"(158, 77, 123)",2,mbtiauth_3491
1630,"(162, 22, 32)",2,mbtiauth_3491
1631,"(162, 77, 22)",2,mbtiauth_3491
1632,"(162, 123, 22)",2,mbtiauth_3491
1633,"(162, 123, 32)",2,mbtiauth_3491
1634,"(162, 123, 65)",2,mbtiauth_3491
1635,"(162, 123, 77)",2,mbtiauth_3491
1636,"(162, 123, 144)",2,mbtiauth_3491
1637,"(162, 123, 154)",2,mbtiauth_3491
1638,"(162, 123, 193)",2,mbtiauth_3491
1639,"(162, 123, 206)",2,mbtiauth_3491
1640,"(164, 32, 22)",2,mbtiauth_3491
1641,"(164, 123, 206)",2,mbtiauth_3491
1642,"(164, 200, 123)",2,mbtiauth_3491
1643,"(164, 200, 364)",2,mbtiauth_3491
1644,"(165, 31, 123)",2,mbtiauth_3491
1645,"(170, 64, 22)",2,mbtiauth_3491
1646,"(170, 154, 443)",2,mbtiauth_3491
1647,"(170, 326, 1896)",3,mbtiauth_3491
1648,"(171, 32, 22)",3,mbtiauth_3491
1649,"(171, 54, 154)",2,mbtiauth_3491
1650,"(183, 32, 22)",2,mbtiauth_3491
1651,"(193, 22, 123)",2,mbtiauth_3491
1652,"(193, 41, 236)",2,mbtiauth_3491
1653,"(193, 77, 123)",5,mbtiauth_3491
1654,"(193, 77, 154)",3,mbtiauth_3491
1655,"(193, 77, 165)",2,mbtiauth_3491
1656,"(193, 77, 193)",2,mbtiauth_3491
1657,"(193, 77, 260)",2,mbtiauth_3491
1658,"(193, 123, 123)",3,mbtiauth_3491
1659,"(193, 123, 154)",2,mbtiauth_3491
1660,"(193, 123, 260)",3,mbtiauth_3491
1661,"(193, 170, 64)",2,mbtiauth_3491
1662,"(193, 206, 77)",3,mbtiauth_3491
1663,"(193, 206, 154)",2,mbtiauth_3491
1664,"(193, 356, 123)",2,mbtiauth_3491
1665,"(193, 613, 123)",2,mbtiauth_3491
1666,"(193, 1322, 41)",2,mbtiauth_3491
1667,"(193, 1322, 236)",2,mbtiauth_3491
1668,"(196, 599, 123)",2,mbtiauth_3491
1669,"(198, 32, 29)",2,mbtiauth_3491
1670,"(206, 22, 300)",2,mbtiauth_3491
1671,"(206, 31, 22)",2,mbtiauth_3491
1672,"(206, 31, 32)",2,mbtiauth_3491
1673,"(206, 31, 300)",2,mbtiauth_3491
1674,"(206, 32, 22)",4,mbtiauth_3491
1675,"(206, 64, 22)",2,mbtiauth_3491
1676,"(206, 64, 31)",2,mbtiauth_3491
1677,"(206, 64, 32)",2,mbtiauth_3491
1678,"(206, 77, 123)",2,mbtiauth_3491
1679,"(206, 77, 260)",2,mbtiauth_3491
1680,"(206, 123, 260)",2,mbtiauth_3491
1681,"(206, 164, 32)",2,mbtiauth_3491
1682,"(206, 171, 22)",2,mbtiauth_3491
1683,"(206, 171, 32)",2,mbtiauth_3491
1684,"(206, 1214, 32)",2,mbtiauth_3491
1685,"(212, 520, 123)",2,mbtiauth_3491
1686,"(220, 1713, 64)",2,mbtiauth_3491
1687,"(222, 77, 16)",2,mbtiauth_3491
1688,"(222, 599, 123)",2,mbtiauth_3491
1689,"(249, 30, 41)",2,mbtiauth_3491
1690,"(249, 30, 236)",2,mbtiauth_3491
1691,"(262, 64, 22)",2,mbtiauth_3491
1692,"(262, 154, 443)",2,mbtiauth_3491
1693,"(268, 64, 64)",2,mbtiauth_3491
1694,"(268, 123, 64)",2,mbtiauth_3491
1695,"(285, 41, 154)",2,mbtiauth_3491
1696,"(285, 77, 123)",2,mbtiauth_3491
1697,"(285, 123, 1758)",3,mbtiauth_3491
1698,"(286, 170, 326)",2,mbtiauth_3491
1699,"(286, 170, 1896)",2,mbtiauth_3491
1700,"(286, 326, 1896)",2,mbtiauth_3491
1701,"(326, 1103, 206)",2,mbtiauth_3491
1702,"(356, 22, 538)",2,mbtiauth_3491
1703,"(356, 154, 22)",2,mbtiauth_3491
1704,"(364, 123, 64)",2,mbtiauth_3491
1705,"(364, 520, 123)",2,mbtiauth_3491
1706,"(384, 77, 123)",2,mbtiauth_3491
1707,"(384, 144, 22)",2,mbtiauth_3491
1708,"(384, 599, 123)",2,mbtiauth_3491
1709,"(441, 64, 164)",3,mbtiauth_3491
1710,"(441, 64, 291)",2,mbtiauth_3491
1711,"(441, 64, 1364)",2,mbtiauth_3491
1712,"(441, 65, 164)",2,mbtiauth_3491
1713,"(441, 1364, 291)",2,mbtiauth_3491
1714,"(519, 77, 22)",2,mbtiauth_3491
1715,"(520, 41, 1758)",2,mbtiauth_3491
1716,"(520, 64, 27)",2,mbtiauth_3491
1717,"(520, 64, 64)",2,mbtiauth_3491
1718,"(520, 77, 41)",3,mbtiauth_3491
1719,"(520, 77, 123)",3,mbtiauth_3491
1720,"(520, 77, 144)",2,mbtiauth_3491
1721,"(520, 77, 1758)",2,mbtiauth_3491
1722,"(520, 123, 41)",2,mbtiauth_3491
1723,"(520, 123, 64)",4,mbtiauth_3491
1724,"(520, 123, 120)",2,mbtiauth_3491
1725,"(520, 144, 41)",2,mbtiauth_3491
1726,"(520, 144, 1758)",2,mbtiauth_3491
1727,"(530, 64, 22)",2,mbtiauth_3491
1728,"(533, 123, 22)",2,mbtiauth_3491
1729,"(533, 441, 65)",2,mbtiauth_3491
1730,"(567, 123, 22)",2,mbtiauth_3491
1731,"(599, 22, 32)",2,mbtiauth_3491
1732,"(599, 123, 22)",3,mbtiauth_3491
1733,"(599, 123, 32)",2,mbtiauth_3491
1734,"(599, 123, 64)",2,mbtiauth_3491
1735,"(599, 123, 123)",2,mbtiauth_3491
1736,"(599, 123, 206)",2,mbtiauth_3491
1737,"(599, 123, 517)",2,mbtiauth_3491
1738,"(599, 162, 22)",2,mbtiauth_3491
1739,"(599, 162, 77)",2,mbtiauth_3491
1740,"(599, 162, 123)",3,mbtiauth_3491
1741,"(599, 162, 193)",2,mbtiauth_3491
1742,"(599, 193, 123)",2,mbtiauth_3491
1743,"(599, 260, 123)",2,mbtiauth_3491
1744,"(638, 50, 32)",2,mbtiauth_3491
1745,"(650, 852, 22)",2,mbtiauth_3491
1746,"(765, 123, 120)",2,mbtiauth_3491
1747,"(765, 123, 154)",3,mbtiauth_3491
1748,"(765, 123, 3397)",2,mbtiauth_3491
1749,"(765, 154, 123)",3,mbtiauth_3491
1750,"(765, 154, 154)",2,mbtiauth_3491
1751,"(765, 154, 162)",2,mbtiauth_3491
1752,"(848, 41, 236)",2,mbtiauth_3491
1753,"(848, 193, 41)",2,mbtiauth_3491
1754,"(848, 193, 236)",2,mbtiauth_3491
1755,"(848, 193, 1322)",2,mbtiauth_3491
1756,"(848, 1322, 41)",2,mbtiauth_3491
1757,"(848, 1322, 236)",2,mbtiauth_3491
1758,"(852, 22, 123)",2,mbtiauth_3491
1759,"(1226, 326, 1896)",2,mbtiauth_3491
1760,"(1322, 41, 236)",2,mbtiauth_3491
1761,"(1351, 77, 123)",2,mbtiauth_3491
1762,"(1758, 77, 123)",2,mbtiauth_3491
1763,"(1834, 64, 2)",2,mbtiauth_3491
1764,"(1834, 64, 67)",2,mbtiauth_3491
1765,"(1913, 65, 32)",2,mbtiauth_3491
1766,"(2006, 536, 10)",2,mbtiauth_3491
1767,"(2006, 7570, 10)",2,mbtiauth_3491
1768,"(2006, 7570, 536)",2,mbtiauth_3491
1769,"(2636, 64, 200)",2,mbtiauth_3491
1770,"(3276, 123, 407)",2,mbtiauth_3491
1771,"(3276, 123, 638)",2,mbtiauth_3491
1772,"(3276, 407, 638)",2,mbtiauth_3491
1773,"(4096, 154, 32)",2,mbtiauth_3491
1774,"(7570, 536, 10)",2,mbtiauth_3491
1775,"(10, 123, 64, 123)",2,mbtiauth_3491
1776,"(15, 32, 22, 2910)",2,mbtiauth_3491
1777,"(16, 64, 765, 123)",2,mbtiauth_3491
1778,"(22, 10, 4573, 64)",2,mbtiauth_3491
1779,"(22, 123, 77, 123)",2,mbtiauth_3491
1780,"(22, 123, 407, 638)",2,mbtiauth_3491
1781,"(22, 3276, 123, 407)",2,mbtiauth_3491
1782,"(22, 3276, 123, 638)",2,mbtiauth_3491
1783,"(22, 3276, 407, 638)",2,mbtiauth_3491
1784,"(32, 123, 407, 638)",2,mbtiauth_3491
1785,"(32, 3276, 123, 407)",2,mbtiauth_3491
1786,"(32, 3276, 123, 638)",2,mbtiauth_3491
1787,"(32, 3276, 407, 638)",2,mbtiauth_3491
1788,"(33, 193, 77, 123)",2,mbtiauth_3491
1789,"(50, 2, 123, 64)",2,mbtiauth_3491
1790,"(50, 170, 326, 1896)",2,mbtiauth_3491
1791,"(50, 1226, 326, 1896)",2,mbtiauth_3491
1792,"(64, 27, 123, 64)",2,mbtiauth_3491
1793,"(64, 50, 2, 123)",2,mbtiauth_3491
1794,"(64, 158, 77, 123)",2,mbtiauth_3491
1795,"(64, 164, 200, 123)",2,mbtiauth_3491
1796,"(64, 164, 200, 364)",2,mbtiauth_3491
1797,"(64, 765, 123, 120)",2,mbtiauth_3491
1798,"(64, 765, 154, 162)",2,mbtiauth_3491
1799,"(65, 123, 120, 260)",2,mbtiauth_3491
1800,"(65, 123, 407, 638)",2,mbtiauth_3491
1801,"(65, 154, 123, 120)",2,mbtiauth_3491
1802,"(77, 22, 123, 160)",2,mbtiauth_3491
1803,"(77, 70, 27, 41)",2,mbtiauth_3491
1804,"(77, 77, 77, 77)",2,mbtiauth_3491
1805,"(77, 123, 32, 22)",2,mbtiauth_3491
1806,"(77, 123, 123, 160)",2,mbtiauth_3491
1807,"(77, 123, 220, 154)",2,mbtiauth_3491
1808,"(77, 123, 765, 154)",2,mbtiauth_3491
1809,"(77, 144, 41, 1758)",2,mbtiauth_3491
1810,"(120, 384, 599, 123)",2,mbtiauth_3491
1811,"(120, 599, 162, 77)",2,mbtiauth_3491
1812,"(120, 599, 162, 123)",2,mbtiauth_3491
1813,"(123, 50, 170, 326)",2,mbtiauth_3491
1814,"(123, 50, 170, 1896)",2,mbtiauth_3491
1815,"(123, 50, 326, 1896)",3,mbtiauth_3491
1816,"(123, 50, 1226, 326)",2,mbtiauth_3491
1817,"(123, 50, 1226, 1896)",2,mbtiauth_3491
1818,"(123, 64, 64, 22)",2,mbtiauth_3491
1819,"(123, 64, 67, 32)",2,mbtiauth_3491
1820,"(123, 64, 164, 200)",2,mbtiauth_3491
1821,"(123, 64, 1364, 291)",2,mbtiauth_3491
1822,"(123, 65, 1219, 32)",2,mbtiauth_3491
1823,"(123, 66, 32, 22)",2,mbtiauth_3491
1824,"(123, 120, 162, 77)",2,mbtiauth_3491
1825,"(123, 120, 384, 123)",2,mbtiauth_3491
1826,"(123, 120, 384, 599)",2,mbtiauth_3491
1827,"(123, 120, 599, 77)",2,mbtiauth_3491
1828,"(123, 120, 599, 123)",2,mbtiauth_3491
1829,"(123, 120, 599, 162)",2,mbtiauth_3491
1830,"(123, 154, 32, 22)",2,mbtiauth_3491
1831,"(123, 154, 536, 10)",2,mbtiauth_3491
1832,"(123, 154, 2006, 10)",2,mbtiauth_3491
1833,"(123, 154, 2006, 536)",2,mbtiauth_3491
1834,"(123, 154, 2006, 7570)",2,mbtiauth_3491
1835,"(123, 154, 7570, 10)",2,mbtiauth_3491
1836,"(123, 154, 7570, 536)",2,mbtiauth_3491
1837,"(123, 162, 123, 144)",2,mbtiauth_3491
1838,"(123, 164, 32, 22)",2,mbtiauth_3491
1839,"(123, 165, 31, 123)",2,mbtiauth_3491
1840,"(123, 170, 326, 1896)",3,mbtiauth_3491
1841,"(123, 171, 32, 22)",2,mbtiauth_3491
1842,"(123, 196, 599, 123)",2,mbtiauth_3491
1843,"(123, 206, 32, 22)",3,mbtiauth_3491
1844,"(123, 206, 64, 22)",2,mbtiauth_3491
1845,"(123, 206, 64, 31)",2,mbtiauth_3491
1846,"(123, 206, 64, 32)",2,mbtiauth_3491
1847,"(123, 206, 171, 22)",2,mbtiauth_3491
1848,"(123, 206, 171, 32)",2,mbtiauth_3491
1849,"(123, 220, 1713, 64)",2,mbtiauth_3491
1850,"(123, 268, 123, 64)",2,mbtiauth_3491
1851,"(123, 285, 123, 1758)",2,mbtiauth_3491
1852,"(123, 286, 170, 326)",2,mbtiauth_3491
1853,"(123, 286, 170, 1896)",2,mbtiauth_3491
1854,"(123, 286, 326, 1896)",2,mbtiauth_3491
1855,"(123, 384, 599, 123)",2,mbtiauth_3491
1856,"(123, 441, 64, 164)",3,mbtiauth_3491
1857,"(123, 441, 64, 291)",2,mbtiauth_3491
1858,"(123, 441, 64, 1364)",2,mbtiauth_3491
1859,"(123, 441, 65, 164)",2,mbtiauth_3491
1860,"(123, 441, 1364, 291)",2,mbtiauth_3491
1861,"(123, 599, 162, 77)",2,mbtiauth_3491
1862,"(123, 1226, 326, 1896)",2,mbtiauth_3491
1863,"(123, 1758, 77, 123)",2,mbtiauth_3491
1864,"(123, 1834, 64, 2)",2,mbtiauth_3491
1865,"(123, 1834, 64, 67)",2,mbtiauth_3491
1866,"(123, 1913, 65, 32)",2,mbtiauth_3491
1867,"(123, 2006, 536, 10)",2,mbtiauth_3491
1868,"(123, 2006, 7570, 10)",2,mbtiauth_3491
1869,"(123, 2006, 7570, 536)",2,mbtiauth_3491
1870,"(123, 4096, 154, 32)",2,mbtiauth_3491
1871,"(123, 7570, 536, 10)",2,mbtiauth_3491
1872,"(154, 123, 10, 417)",2,mbtiauth_3491
1873,"(154, 162, 123, 154)",2,mbtiauth_3491
1874,"(154, 2006, 536, 10)",2,mbtiauth_3491
1875,"(154, 2006, 7570, 10)",2,mbtiauth_3491
1876,"(154, 2006, 7570, 536)",2,mbtiauth_3491
1877,"(154, 7570, 536, 10)",2,mbtiauth_3491
1878,"(162, 123, 77, 22)",2,mbtiauth_3491
1879,"(193, 77, 123, 123)",2,mbtiauth_3491
1880,"(193, 77, 123, 154)",2,mbtiauth_3491
1881,"(193, 77, 123, 260)",2,mbtiauth_3491
1882,"(193, 1322, 41, 236)",2,mbtiauth_3491
1883,"(206, 31, 22, 300)",2,mbtiauth_3491
1884,"(206, 77, 123, 260)",2,mbtiauth_3491
1885,"(206, 171, 32, 22)",2,mbtiauth_3491
1886,"(286, 170, 326, 1896)",2,mbtiauth_3491
1887,"(441, 64, 1364, 291)",2,mbtiauth_3491
1888,"(520, 77, 41, 1758)",2,mbtiauth_3491
1889,"(520, 77, 144, 41)",2,mbtiauth_3491
1890,"(520, 77, 144, 1758)",2,mbtiauth_3491
1891,"(520, 144, 41, 1758)",2,mbtiauth_3491
1892,"(765, 154, 123, 154)",2,mbtiauth_3491
1893,"(848, 193, 41, 236)",2,mbtiauth_3491
1894,"(848, 193, 1322, 41)",2,mbtiauth_3491
1895,"(848, 193, 1322, 236)",2,mbtiauth_3491
1896,"(848, 1322, 41, 236)",2,mbtiauth_3491
1897,"(2006, 7570, 536, 10)",2,mbtiauth_3491
1898,"(3276, 123, 407, 638)",2,mbtiauth_3491
1899,"(22, 3276, 123, 407, 638)",2,mbtiauth_3491
1900,"(32, 3276, 123, 407, 638)",2,mbtiauth_3491
1901,"(123, 50, 170, 326, 1896)",2,mbtiauth_3491
1902,"(123, 50, 1226, 326, 1896)",2,mbtiauth_3491
1903,"(123, 120, 384, 599, 123)",2,mbtiauth_3491
1904,"(123, 120, 599, 162, 77)",2,mbtiauth_3491
1905,"(123, 154, 2006, 536, 10)",2,mbtiauth_3491
1906,"(123, 154, 2006, 7570, 10)",2,mbtiauth_3491
1907,"(123, 154, 2006, 7570, 536)",2,mbtiauth_3491
1908,"(123, 154, 7570, 536, 10)",2,mbtiauth_3491
1909,"(123, 206, 171, 32, 22)",2,mbtiauth_3491
1910,"(123, 286, 170, 326, 1896)",2,mbtiauth_3491
1911,"(123, 441, 64, 1364, 291)",2,mbtiauth_3491
1912,"(123, 2006, 7570, 536, 10)",2,mbtiauth_3491
1913,"(154, 2006, 7570, 536, 10)",2,mbtiauth_3491
1914,"(520, 77, 144, 41, 1758)",2,mbtiauth_3491
1915,"(848, 193, 1322, 41, 236)",2,mbtiauth_3491
1916,"(123, 154, 2006, 7570, 536, 10)",2,mbtiauth_3491
