,pattern,sup,author
743,"(2, 10, 65)",2,mbtiauth_1258
744,"(2, 22, 10)",2,mbtiauth_1258
745,"(2, 22, 65)",2,mbtiauth_1258
746,"(2, 22, 77)",2,mbtiauth_1258
747,"(2, 22, 132)",2,mbtiauth_1258
748,"(2, 22, 146)",2,mbtiauth_1258
749,"(2, 22, 212)",2,mbtiauth_1258
750,"(2, 32, 77)",2,mbtiauth_1258
751,"(2, 77, 10)",2,mbtiauth_1258
752,"(2, 77, 65)",2,mbtiauth_1258
753,"(2, 77, 170)",2,mbtiauth_1258
754,"(2, 77, 212)",2,mbtiauth_1258
755,"(2, 77, 520)",2,mbtiauth_1258
756,"(2, 77, 599)",2,mbtiauth_1258
757,"(2, 132, 10)",2,mbtiauth_1258
758,"(2, 132, 65)",2,mbtiauth_1258
759,"(2, 132, 77)",2,mbtiauth_1258
760,"(2, 132, 146)",2,mbtiauth_1258
761,"(2, 132, 212)",2,mbtiauth_1258
762,"(2, 146, 10)",2,mbtiauth_1258
763,"(2, 146, 65)",2,mbtiauth_1258
764,"(2, 146, 77)",2,mbtiauth_1258
765,"(2, 146, 212)",2,mbtiauth_1258
766,"(2, 170, 77)",2,mbtiauth_1258
767,"(2, 212, 10)",2,mbtiauth_1258
768,"(2, 212, 65)",2,mbtiauth_1258
769,"(2, 228, 77)",2,mbtiauth_1258
770,"(2, 441, 10)",2,mbtiauth_1258
771,"(2, 441, 22)",2,mbtiauth_1258
772,"(2, 441, 65)",4,mbtiauth_1258
773,"(2, 441, 77)",2,mbtiauth_1258
774,"(2, 441, 132)",2,mbtiauth_1258
775,"(2, 441, 146)",2,mbtiauth_1258
776,"(2, 441, 212)",2,mbtiauth_1258
777,"(9, 28, 26)",2,mbtiauth_1258
778,"(10, 65, 871)",2,mbtiauth_1258
779,"(10, 65, 986)",2,mbtiauth_1258
780,"(10, 77, 31)",2,mbtiauth_1258
781,"(10, 77, 32)",2,mbtiauth_1258
782,"(10, 871, 986)",2,mbtiauth_1258
783,"(22, 10, 65)",2,mbtiauth_1258
784,"(22, 10, 871)",2,mbtiauth_1258
785,"(22, 10, 986)",2,mbtiauth_1258
786,"(22, 32, 152)",2,mbtiauth_1258
787,"(22, 32, 170)",2,mbtiauth_1258
788,"(22, 65, 871)",2,mbtiauth_1258
789,"(22, 65, 986)",2,mbtiauth_1258
790,"(22, 77, 10)",2,mbtiauth_1258
791,"(22, 77, 65)",2,mbtiauth_1258
792,"(22, 77, 212)",2,mbtiauth_1258
793,"(22, 77, 871)",2,mbtiauth_1258
794,"(22, 77, 986)",2,mbtiauth_1258
795,"(22, 132, 10)",2,mbtiauth_1258
796,"(22, 132, 65)",2,mbtiauth_1258
797,"(22, 132, 77)",2,mbtiauth_1258
798,"(22, 132, 146)",2,mbtiauth_1258
799,"(22, 132, 212)",2,mbtiauth_1258
800,"(22, 132, 871)",2,mbtiauth_1258
801,"(22, 132, 986)",2,mbtiauth_1258
802,"(22, 146, 10)",2,mbtiauth_1258
803,"(22, 146, 65)",2,mbtiauth_1258
804,"(22, 146, 77)",3,mbtiauth_1258
805,"(22, 146, 212)",2,mbtiauth_1258
806,"(22, 146, 871)",2,mbtiauth_1258
807,"(22, 146, 986)",2,mbtiauth_1258
808,"(22, 212, 10)",2,mbtiauth_1258
809,"(22, 212, 65)",2,mbtiauth_1258
810,"(22, 212, 871)",2,mbtiauth_1258
811,"(22, 212, 986)",2,mbtiauth_1258
812,"(22, 280, 123)",2,mbtiauth_1258
813,"(22, 871, 986)",2,mbtiauth_1258
814,"(27, 170, 29)",2,mbtiauth_1258
815,"(31, 77, 599)",2,mbtiauth_1258
816,"(32, 11, 911)",2,mbtiauth_1258
817,"(32, 64, 77)",2,mbtiauth_1258
818,"(32, 65, 1131)",2,mbtiauth_1258
819,"(32, 77, 2)",2,mbtiauth_1258
820,"(32, 77, 77)",3,mbtiauth_1258
821,"(32, 77, 152)",2,mbtiauth_1258
822,"(32, 77, 17993)",2,mbtiauth_1258
823,"(32, 77, 48118)",2,mbtiauth_1258
824,"(32, 78, 65)",2,mbtiauth_1258
825,"(32, 78, 1131)",2,mbtiauth_1258
826,"(32, 123, 340)",2,mbtiauth_1258
827,"(32, 170, 154)",2,mbtiauth_1258
828,"(32, 326, 123)",2,mbtiauth_1258
829,"(32, 326, 911)",2,mbtiauth_1258
830,"(32, 668, 2)",2,mbtiauth_1258
831,"(32, 1541, 65)",2,mbtiauth_1258
832,"(41, 32, 77)",2,mbtiauth_1258
833,"(41, 32, 78)",2,mbtiauth_1258
834,"(41, 64, 32)",2,mbtiauth_1258
835,"(41, 64, 78)",2,mbtiauth_1258
836,"(41, 64, 286)",2,mbtiauth_1258
837,"(41, 78, 65)",2,mbtiauth_1258
838,"(41, 286, 32)",2,mbtiauth_1258
839,"(41, 286, 78)",2,mbtiauth_1258
840,"(50, 146, 64)",2,mbtiauth_1258
841,"(50, 170, 326)",4,mbtiauth_1258
842,"(64, 10, 22)",2,mbtiauth_1258
843,"(64, 22, 32)",2,mbtiauth_1258
844,"(64, 22, 77)",2,mbtiauth_1258
845,"(64, 32, 65)",2,mbtiauth_1258
846,"(64, 32, 77)",4,mbtiauth_1258
847,"(64, 32, 78)",2,mbtiauth_1258
848,"(64, 32, 152)",2,mbtiauth_1258
849,"(64, 64, 77)",2,mbtiauth_1258
850,"(64, 64, 156)",2,mbtiauth_1258
851,"(64, 64, 164)",2,mbtiauth_1258
852,"(64, 65, 77)",2,mbtiauth_1258
853,"(64, 65, 395)",2,mbtiauth_1258
854,"(64, 67, 64)",2,mbtiauth_1258
855,"(64, 77, 77)",2,mbtiauth_1258
856,"(64, 77, 123)",2,mbtiauth_1258
857,"(64, 77, 152)",2,mbtiauth_1258
858,"(64, 77, 164)",2,mbtiauth_1258
859,"(64, 78, 65)",2,mbtiauth_1258
860,"(64, 154, 77)",2,mbtiauth_1258
861,"(64, 154, 123)",2,mbtiauth_1258
862,"(64, 175, 77)",2,mbtiauth_1258
863,"(64, 286, 32)",2,mbtiauth_1258
864,"(64, 286, 65)",2,mbtiauth_1258
865,"(64, 286, 78)",2,mbtiauth_1258
866,"(64, 911, 77)",2,mbtiauth_1258
867,"(65, 50, 13)",2,mbtiauth_1258
868,"(65, 871, 986)",2,mbtiauth_1258
869,"(77, 2, 64)",2,mbtiauth_1258
870,"(77, 2, 183)",2,mbtiauth_1258
871,"(77, 2, 228)",2,mbtiauth_1258
872,"(77, 2, 364)",2,mbtiauth_1258
873,"(77, 2, 48118)",2,mbtiauth_1258
874,"(77, 10, 65)",2,mbtiauth_1258
875,"(77, 10, 77)",3,mbtiauth_1258
876,"(77, 10, 164)",2,mbtiauth_1258
877,"(77, 10, 755)",2,mbtiauth_1258
878,"(77, 10, 871)",2,mbtiauth_1258
879,"(77, 10, 986)",2,mbtiauth_1258
880,"(77, 16, 32)",2,mbtiauth_1258
881,"(77, 22, 32)",2,mbtiauth_1258
882,"(77, 31, 64)",2,mbtiauth_1258
883,"(77, 50, 64)",2,mbtiauth_1258
884,"(77, 50, 146)",2,mbtiauth_1258
885,"(77, 64, 32)",2,mbtiauth_1258
886,"(77, 64, 64)",3,mbtiauth_1258
887,"(77, 64, 175)",2,mbtiauth_1258
888,"(77, 65, 871)",2,mbtiauth_1258
889,"(77, 65, 986)",2,mbtiauth_1258
890,"(77, 67, 64)",2,mbtiauth_1258
891,"(77, 77, 77)",6,mbtiauth_1258
892,"(77, 77, 608)",2,mbtiauth_1258
893,"(77, 77, 1495)",2,mbtiauth_1258
894,"(77, 78, 171)",2,mbtiauth_1258
895,"(77, 78, 749)",2,mbtiauth_1258
896,"(77, 120, 64)",2,mbtiauth_1258
897,"(77, 123, 64)",3,mbtiauth_1258
898,"(77, 123, 65)",2,mbtiauth_1258
899,"(77, 123, 156)",2,mbtiauth_1258
900,"(77, 123, 175)",2,mbtiauth_1258
901,"(77, 146, 64)",2,mbtiauth_1258
902,"(77, 146, 170)",2,mbtiauth_1258
903,"(77, 153, 381)",2,mbtiauth_1258
904,"(77, 212, 10)",2,mbtiauth_1258
905,"(77, 212, 65)",3,mbtiauth_1258
906,"(77, 212, 871)",2,mbtiauth_1258
907,"(77, 212, 986)",2,mbtiauth_1258
908,"(77, 364, 749)",2,mbtiauth_1258
909,"(77, 369, 64)",2,mbtiauth_1258
910,"(77, 510, 153)",2,mbtiauth_1258
911,"(77, 510, 381)",2,mbtiauth_1258
912,"(77, 599, 2)",2,mbtiauth_1258
913,"(77, 599, 32)",2,mbtiauth_1258
914,"(77, 599, 50)",2,mbtiauth_1258
915,"(77, 599, 64)",4,mbtiauth_1258
916,"(77, 599, 123)",3,mbtiauth_1258
917,"(77, 599, 566)",2,mbtiauth_1258
918,"(77, 668, 2)",2,mbtiauth_1258
919,"(77, 871, 986)",2,mbtiauth_1258
920,"(77, 1313, 64)",2,mbtiauth_1258
921,"(78, 64, 67)",2,mbtiauth_1258
922,"(78, 65, 77)",2,mbtiauth_1258
923,"(78, 65, 1131)",2,mbtiauth_1258
924,"(78, 65, 19895)",2,mbtiauth_1258
925,"(78, 77, 2)",2,mbtiauth_1258
926,"(78, 77, 16)",2,mbtiauth_1258
927,"(78, 77, 67)",2,mbtiauth_1258
928,"(123, 10, 31)",2,mbtiauth_1258
929,"(123, 10, 77)",2,mbtiauth_1258
930,"(123, 64, 64)",3,mbtiauth_1258
931,"(123, 64, 65)",2,mbtiauth_1258
932,"(123, 64, 77)",3,mbtiauth_1258
933,"(123, 64, 175)",2,mbtiauth_1258
934,"(123, 64, 222)",2,mbtiauth_1258
935,"(123, 64, 395)",2,mbtiauth_1258
936,"(123, 65, 64)",2,mbtiauth_1258
937,"(123, 65, 156)",2,mbtiauth_1258
938,"(123, 65, 395)",2,mbtiauth_1258
939,"(123, 67, 64)",2,mbtiauth_1258
940,"(123, 77, 123)",2,mbtiauth_1258
941,"(123, 154, 123)",2,mbtiauth_1258
942,"(123, 156, 64)",2,mbtiauth_1258
943,"(123, 206, 64)",2,mbtiauth_1258
944,"(123, 254, 520)",2,mbtiauth_1258
945,"(123, 286, 254)",2,mbtiauth_1258
946,"(123, 286, 520)",2,mbtiauth_1258
947,"(123, 807, 65)",2,mbtiauth_1258
948,"(132, 10, 65)",2,mbtiauth_1258
949,"(132, 10, 871)",2,mbtiauth_1258
950,"(132, 10, 986)",2,mbtiauth_1258
951,"(132, 65, 871)",2,mbtiauth_1258
952,"(132, 65, 986)",2,mbtiauth_1258
953,"(132, 77, 10)",2,mbtiauth_1258
954,"(132, 77, 65)",2,mbtiauth_1258
955,"(132, 77, 212)",2,mbtiauth_1258
956,"(132, 77, 871)",2,mbtiauth_1258
957,"(132, 77, 986)",2,mbtiauth_1258
958,"(132, 146, 10)",2,mbtiauth_1258
959,"(132, 146, 65)",2,mbtiauth_1258
960,"(132, 146, 77)",2,mbtiauth_1258
961,"(132, 146, 212)",2,mbtiauth_1258
962,"(132, 146, 871)",2,mbtiauth_1258
963,"(132, 146, 986)",2,mbtiauth_1258
964,"(132, 212, 10)",2,mbtiauth_1258
965,"(132, 212, 65)",2,mbtiauth_1258
966,"(132, 212, 871)",2,mbtiauth_1258
967,"(132, 212, 986)",2,mbtiauth_1258
968,"(132, 871, 986)",2,mbtiauth_1258
969,"(146, 10, 65)",2,mbtiauth_1258
970,"(146, 10, 871)",2,mbtiauth_1258
971,"(146, 10, 986)",2,mbtiauth_1258
972,"(146, 65, 871)",2,mbtiauth_1258
973,"(146, 65, 986)",2,mbtiauth_1258
974,"(146, 77, 10)",2,mbtiauth_1258
975,"(146, 77, 65)",2,mbtiauth_1258
976,"(146, 77, 212)",2,mbtiauth_1258
977,"(146, 77, 871)",2,mbtiauth_1258
978,"(146, 77, 986)",2,mbtiauth_1258
979,"(146, 212, 10)",2,mbtiauth_1258
980,"(146, 212, 65)",2,mbtiauth_1258
981,"(146, 212, 871)",2,mbtiauth_1258
982,"(146, 212, 986)",2,mbtiauth_1258
983,"(146, 871, 986)",2,mbtiauth_1258
984,"(151, 32, 65)",2,mbtiauth_1258
985,"(154, 65, 156)",2,mbtiauth_1258
986,"(154, 77, 65)",2,mbtiauth_1258
987,"(154, 77, 123)",3,mbtiauth_1258
988,"(154, 123, 65)",3,mbtiauth_1258
989,"(154, 123, 156)",2,mbtiauth_1258
990,"(154, 381, 77)",2,mbtiauth_1258
991,"(154, 381, 630)",2,mbtiauth_1258
992,"(154, 630, 77)",2,mbtiauth_1258
993,"(154, 911, 77)",2,mbtiauth_1258
994,"(157, 151, 64)",2,mbtiauth_1258
995,"(170, 77, 520)",2,mbtiauth_1258
996,"(175, 32, 77)",2,mbtiauth_1258
997,"(175, 77, 77)",2,mbtiauth_1258
998,"(183, 117, 16493)",2,mbtiauth_1258
999,"(183, 151, 153)",2,mbtiauth_1258
1000,"(183, 398, 117)",2,mbtiauth_1258
1001,"(183, 398, 16493)",2,mbtiauth_1258
1002,"(193, 165, 64)",2,mbtiauth_1258
1003,"(212, 10, 65)",2,mbtiauth_1258
1004,"(212, 10, 871)",2,mbtiauth_1258
1005,"(212, 10, 986)",2,mbtiauth_1258
1006,"(212, 65, 871)",2,mbtiauth_1258
1007,"(212, 65, 986)",2,mbtiauth_1258
1008,"(212, 871, 986)",2,mbtiauth_1258
1009,"(225, 77, 618)",2,mbtiauth_1258
1010,"(225, 77, 668)",2,mbtiauth_1258
1011,"(228, 22, 10)",2,mbtiauth_1258
1012,"(228, 22, 77)",3,mbtiauth_1258
1013,"(228, 22, 132)",2,mbtiauth_1258
1014,"(228, 22, 146)",2,mbtiauth_1258
1015,"(228, 22, 212)",2,mbtiauth_1258
1016,"(228, 77, 10)",2,mbtiauth_1258
1017,"(228, 77, 212)",2,mbtiauth_1258
1018,"(228, 132, 10)",2,mbtiauth_1258
1019,"(228, 132, 77)",2,mbtiauth_1258
1020,"(228, 132, 146)",2,mbtiauth_1258
1021,"(228, 132, 212)",2,mbtiauth_1258
1022,"(228, 146, 10)",2,mbtiauth_1258
1023,"(228, 146, 77)",2,mbtiauth_1258
1024,"(228, 146, 212)",2,mbtiauth_1258
1025,"(228, 212, 10)",2,mbtiauth_1258
1026,"(228, 441, 10)",2,mbtiauth_1258
1027,"(228, 441, 22)",2,mbtiauth_1258
1028,"(228, 441, 77)",2,mbtiauth_1258
1029,"(228, 441, 132)",2,mbtiauth_1258
1030,"(228, 441, 146)",2,mbtiauth_1258
1031,"(228, 441, 212)",2,mbtiauth_1258
1032,"(254, 520, 123)",2,mbtiauth_1258
1033,"(280, 22, 15)",2,mbtiauth_1258
1034,"(280, 193, 165)",2,mbtiauth_1258
1035,"(280, 711, 64)",2,mbtiauth_1258
1036,"(286, 32, 65)",3,mbtiauth_1258
1037,"(286, 32, 78)",2,mbtiauth_1258
1038,"(286, 32, 1131)",2,mbtiauth_1258
1039,"(286, 65, 1131)",2,mbtiauth_1258
1040,"(286, 78, 65)",2,mbtiauth_1258
1041,"(286, 78, 1131)",2,mbtiauth_1258
1042,"(286, 151, 32)",2,mbtiauth_1258
1043,"(286, 151, 65)",2,mbtiauth_1258
1044,"(286, 254, 520)",2,mbtiauth_1258
1045,"(326, 2, 326)",2,mbtiauth_1258
1046,"(326, 77, 10)",2,mbtiauth_1258
1047,"(326, 77, 123)",2,mbtiauth_1258
1048,"(326, 77, 326)",2,mbtiauth_1258
1049,"(326, 77, 1118)",2,mbtiauth_1258
1050,"(326, 326, 11)",2,mbtiauth_1258
1051,"(326, 911, 77)",3,mbtiauth_1258
1052,"(326, 911, 123)",2,mbtiauth_1258
1053,"(326, 911, 364)",2,mbtiauth_1258
1054,"(326, 7306, 77)",2,mbtiauth_1258
1055,"(364, 77, 32)",2,mbtiauth_1258
1056,"(364, 123, 65)",2,mbtiauth_1258
1057,"(364, 326, 77)",2,mbtiauth_1258
1058,"(364, 326, 326)",2,mbtiauth_1258
1059,"(364, 326, 364)",2,mbtiauth_1258
1060,"(364, 326, 911)",4,mbtiauth_1258
1061,"(364, 911, 77)",2,mbtiauth_1258
1062,"(364, 911, 364)",2,mbtiauth_1258
1063,"(369, 64, 3092)",2,mbtiauth_1258
1064,"(381, 630, 77)",2,mbtiauth_1258
1065,"(393, 2, 77)",2,mbtiauth_1258
1066,"(393, 32, 77)",2,mbtiauth_1258
1067,"(393, 77, 2)",2,mbtiauth_1258
1068,"(398, 117, 16493)",2,mbtiauth_1258
1069,"(408, 64, 65)",2,mbtiauth_1258
1070,"(408, 123, 64)",2,mbtiauth_1258
1071,"(408, 123, 65)",2,mbtiauth_1258
1072,"(408, 793, 64)",2,mbtiauth_1258
1073,"(408, 793, 65)",2,mbtiauth_1258
1074,"(408, 793, 123)",2,mbtiauth_1258
1075,"(441, 10, 65)",2,mbtiauth_1258
1076,"(441, 10, 871)",2,mbtiauth_1258
1077,"(441, 10, 986)",2,mbtiauth_1258
1078,"(441, 22, 10)",2,mbtiauth_1258
1079,"(441, 22, 65)",2,mbtiauth_1258
1080,"(441, 22, 77)",2,mbtiauth_1258
1081,"(441, 22, 132)",2,mbtiauth_1258
1082,"(441, 22, 146)",2,mbtiauth_1258
1083,"(441, 22, 212)",2,mbtiauth_1258
1084,"(441, 22, 871)",2,mbtiauth_1258
1085,"(441, 22, 986)",2,mbtiauth_1258
1086,"(441, 65, 871)",2,mbtiauth_1258
1087,"(441, 65, 986)",2,mbtiauth_1258
1088,"(441, 77, 10)",2,mbtiauth_1258
1089,"(441, 77, 65)",2,mbtiauth_1258
1090,"(441, 77, 212)",2,mbtiauth_1258
1091,"(441, 77, 871)",2,mbtiauth_1258
1092,"(441, 77, 986)",2,mbtiauth_1258
1093,"(441, 132, 10)",2,mbtiauth_1258
1094,"(441, 132, 65)",2,mbtiauth_1258
1095,"(441, 132, 77)",2,mbtiauth_1258
1096,"(441, 132, 146)",2,mbtiauth_1258
1097,"(441, 132, 212)",2,mbtiauth_1258
1098,"(441, 132, 871)",2,mbtiauth_1258
1099,"(441, 132, 986)",2,mbtiauth_1258
1100,"(441, 146, 10)",2,mbtiauth_1258
1101,"(441, 146, 65)",2,mbtiauth_1258
1102,"(441, 146, 77)",2,mbtiauth_1258
1103,"(441, 146, 212)",2,mbtiauth_1258
1104,"(441, 146, 871)",2,mbtiauth_1258
1105,"(441, 146, 986)",2,mbtiauth_1258
1106,"(441, 212, 10)",2,mbtiauth_1258
1107,"(441, 212, 65)",2,mbtiauth_1258
1108,"(441, 212, 871)",2,mbtiauth_1258
1109,"(441, 212, 986)",2,mbtiauth_1258
1110,"(441, 286, 193)",2,mbtiauth_1258
1111,"(441, 871, 986)",2,mbtiauth_1258
1112,"(510, 153, 381)",2,mbtiauth_1258
1113,"(516, 151, 64)",2,mbtiauth_1258
1114,"(516, 157, 64)",2,mbtiauth_1258
1115,"(516, 157, 151)",2,mbtiauth_1258
1116,"(516, 222, 64)",2,mbtiauth_1258
1117,"(599, 64, 32)",2,mbtiauth_1258
1118,"(660, 77, 77)",2,mbtiauth_1258
1119,"(693, 280, 2)",2,mbtiauth_1258
1120,"(793, 64, 65)",2,mbtiauth_1258
1121,"(793, 123, 64)",2,mbtiauth_1258
1122,"(793, 123, 65)",2,mbtiauth_1258
1123,"(911, 2, 10)",2,mbtiauth_1258
1124,"(911, 2, 228)",2,mbtiauth_1258
1125,"(911, 2, 441)",2,mbtiauth_1258
1126,"(911, 22, 10)",2,mbtiauth_1258
1127,"(911, 22, 77)",2,mbtiauth_1258
1128,"(911, 22, 132)",2,mbtiauth_1258
1129,"(911, 22, 146)",2,mbtiauth_1258
1130,"(911, 22, 212)",2,mbtiauth_1258
1131,"(911, 77, 2)",2,mbtiauth_1258
1132,"(911, 77, 10)",3,mbtiauth_1258
1133,"(911, 77, 123)",2,mbtiauth_1258
1134,"(911, 77, 164)",2,mbtiauth_1258
1135,"(911, 77, 212)",2,mbtiauth_1258
1136,"(911, 123, 64)",2,mbtiauth_1258
1137,"(911, 132, 10)",2,mbtiauth_1258
1138,"(911, 132, 77)",2,mbtiauth_1258
1139,"(911, 132, 146)",2,mbtiauth_1258
1140,"(911, 132, 212)",2,mbtiauth_1258
1141,"(911, 146, 10)",2,mbtiauth_1258
1142,"(911, 146, 77)",2,mbtiauth_1258
1143,"(911, 146, 212)",2,mbtiauth_1258
1144,"(911, 212, 10)",2,mbtiauth_1258
1145,"(911, 228, 77)",2,mbtiauth_1258
1146,"(911, 364, 77)",2,mbtiauth_1258
1147,"(911, 441, 10)",2,mbtiauth_1258
1148,"(911, 441, 22)",2,mbtiauth_1258
1149,"(911, 441, 65)",2,mbtiauth_1258
1150,"(911, 441, 77)",2,mbtiauth_1258
1151,"(911, 441, 132)",2,mbtiauth_1258
1152,"(911, 441, 146)",2,mbtiauth_1258
1153,"(911, 441, 212)",2,mbtiauth_1258
1154,"(1171, 280, 222)",2,mbtiauth_1258
1155,"(1216, 16, 1118)",2,mbtiauth_1258
1156,"(1313, 64, 22)",2,mbtiauth_1258
1157,"(1717, 22, 15)",2,mbtiauth_1258
1158,"(3014, 77, 10)",2,mbtiauth_1258
1159,"(5588, 3092, 1261)",2,mbtiauth_1258
1160,"(20611, 117, 16493)",2,mbtiauth_1258
1161,"(20611, 183, 117)",2,mbtiauth_1258
1162,"(20611, 183, 398)",2,mbtiauth_1258
1163,"(20611, 183, 16493)",2,mbtiauth_1258
1164,"(20611, 398, 117)",2,mbtiauth_1258
1165,"(20611, 398, 16493)",2,mbtiauth_1258
1166,"(2, 22, 10, 65)",2,mbtiauth_1258
1167,"(2, 22, 77, 10)",2,mbtiauth_1258
1168,"(2, 22, 77, 65)",2,mbtiauth_1258
1169,"(2, 22, 77, 212)",2,mbtiauth_1258
1170,"(2, 22, 132, 10)",2,mbtiauth_1258
1171,"(2, 22, 132, 65)",2,mbtiauth_1258
1172,"(2, 22, 132, 77)",2,mbtiauth_1258
1173,"(2, 22, 132, 146)",2,mbtiauth_1258
1174,"(2, 22, 132, 212)",2,mbtiauth_1258
1175,"(2, 22, 146, 10)",2,mbtiauth_1258
1176,"(2, 22, 146, 65)",2,mbtiauth_1258
1177,"(2, 22, 146, 77)",2,mbtiauth_1258
1178,"(2, 22, 146, 212)",2,mbtiauth_1258
1179,"(2, 22, 212, 10)",2,mbtiauth_1258
1180,"(2, 22, 212, 65)",2,mbtiauth_1258
1181,"(2, 77, 10, 65)",2,mbtiauth_1258
1182,"(2, 77, 212, 10)",2,mbtiauth_1258
1183,"(2, 77, 212, 65)",2,mbtiauth_1258
1184,"(2, 132, 10, 65)",2,mbtiauth_1258
1185,"(2, 132, 77, 10)",2,mbtiauth_1258
1186,"(2, 132, 77, 65)",2,mbtiauth_1258
1187,"(2, 132, 77, 212)",2,mbtiauth_1258
1188,"(2, 132, 146, 10)",2,mbtiauth_1258
1189,"(2, 132, 146, 65)",2,mbtiauth_1258
1190,"(2, 132, 146, 77)",2,mbtiauth_1258
1191,"(2, 132, 146, 212)",2,mbtiauth_1258
1192,"(2, 132, 212, 10)",2,mbtiauth_1258
1193,"(2, 132, 212, 65)",2,mbtiauth_1258
1194,"(2, 146, 10, 65)",2,mbtiauth_1258
1195,"(2, 146, 77, 10)",2,mbtiauth_1258
1196,"(2, 146, 77, 65)",2,mbtiauth_1258
1197,"(2, 146, 77, 212)",2,mbtiauth_1258
1198,"(2, 146, 212, 10)",2,mbtiauth_1258
1199,"(2, 146, 212, 65)",2,mbtiauth_1258
1200,"(2, 212, 10, 65)",2,mbtiauth_1258
1201,"(2, 441, 10, 65)",2,mbtiauth_1258
1202,"(2, 441, 22, 10)",2,mbtiauth_1258
1203,"(2, 441, 22, 65)",2,mbtiauth_1258
1204,"(2, 441, 22, 77)",2,mbtiauth_1258
1205,"(2, 441, 22, 132)",2,mbtiauth_1258
1206,"(2, 441, 22, 146)",2,mbtiauth_1258
1207,"(2, 441, 22, 212)",2,mbtiauth_1258
1208,"(2, 441, 77, 10)",2,mbtiauth_1258
1209,"(2, 441, 77, 65)",2,mbtiauth_1258
1210,"(2, 441, 77, 212)",2,mbtiauth_1258
1211,"(2, 441, 132, 10)",2,mbtiauth_1258
1212,"(2, 441, 132, 65)",2,mbtiauth_1258
1213,"(2, 441, 132, 77)",2,mbtiauth_1258
1214,"(2, 441, 132, 146)",2,mbtiauth_1258
1215,"(2, 441, 132, 212)",2,mbtiauth_1258
1216,"(2, 441, 146, 10)",2,mbtiauth_1258
1217,"(2, 441, 146, 65)",2,mbtiauth_1258
1218,"(2, 441, 146, 77)",2,mbtiauth_1258
1219,"(2, 441, 146, 212)",2,mbtiauth_1258
1220,"(2, 441, 212, 10)",2,mbtiauth_1258
1221,"(2, 441, 212, 65)",2,mbtiauth_1258
1222,"(10, 65, 871, 986)",2,mbtiauth_1258
1223,"(22, 10, 65, 871)",2,mbtiauth_1258
1224,"(22, 10, 65, 986)",2,mbtiauth_1258
1225,"(22, 10, 871, 986)",2,mbtiauth_1258
1226,"(22, 65, 871, 986)",2,mbtiauth_1258
1227,"(22, 77, 10, 65)",2,mbtiauth_1258
1228,"(22, 77, 10, 871)",2,mbtiauth_1258
1229,"(22, 77, 10, 986)",2,mbtiauth_1258
1230,"(22, 77, 65, 871)",2,mbtiauth_1258
1231,"(22, 77, 65, 986)",2,mbtiauth_1258
1232,"(22, 77, 212, 10)",2,mbtiauth_1258
1233,"(22, 77, 212, 65)",2,mbtiauth_1258
1234,"(22, 77, 212, 871)",2,mbtiauth_1258
1235,"(22, 77, 212, 986)",2,mbtiauth_1258
1236,"(22, 77, 871, 986)",2,mbtiauth_1258
1237,"(22, 132, 10, 65)",2,mbtiauth_1258
1238,"(22, 132, 10, 871)",2,mbtiauth_1258
1239,"(22, 132, 10, 986)",2,mbtiauth_1258
1240,"(22, 132, 65, 871)",2,mbtiauth_1258
1241,"(22, 132, 65, 986)",2,mbtiauth_1258
1242,"(22, 132, 77, 10)",2,mbtiauth_1258
1243,"(22, 132, 77, 65)",2,mbtiauth_1258
1244,"(22, 132, 77, 212)",2,mbtiauth_1258
1245,"(22, 132, 77, 871)",2,mbtiauth_1258
1246,"(22, 132, 77, 986)",2,mbtiauth_1258
1247,"(22, 132, 146, 10)",2,mbtiauth_1258
1248,"(22, 132, 146, 65)",2,mbtiauth_1258
1249,"(22, 132, 146, 77)",2,mbtiauth_1258
1250,"(22, 132, 146, 212)",2,mbtiauth_1258
1251,"(22, 132, 146, 871)",2,mbtiauth_1258
1252,"(22, 132, 146, 986)",2,mbtiauth_1258
1253,"(22, 132, 212, 10)",2,mbtiauth_1258
1254,"(22, 132, 212, 65)",2,mbtiauth_1258
1255,"(22, 132, 212, 871)",2,mbtiauth_1258
1256,"(22, 132, 212, 986)",2,mbtiauth_1258
1257,"(22, 132, 871, 986)",2,mbtiauth_1258
1258,"(22, 146, 10, 65)",2,mbtiauth_1258
1259,"(22, 146, 10, 871)",2,mbtiauth_1258
1260,"(22, 146, 10, 986)",2,mbtiauth_1258
1261,"(22, 146, 65, 871)",2,mbtiauth_1258
1262,"(22, 146, 65, 986)",2,mbtiauth_1258
1263,"(22, 146, 77, 10)",2,mbtiauth_1258
1264,"(22, 146, 77, 65)",2,mbtiauth_1258
1265,"(22, 146, 77, 212)",2,mbtiauth_1258
1266,"(22, 146, 77, 871)",2,mbtiauth_1258
1267,"(22, 146, 77, 986)",2,mbtiauth_1258
1268,"(22, 146, 212, 10)",2,mbtiauth_1258
1269,"(22, 146, 212, 65)",2,mbtiauth_1258
1270,"(22, 146, 212, 871)",2,mbtiauth_1258
1271,"(22, 146, 212, 986)",2,mbtiauth_1258
1272,"(22, 146, 871, 986)",2,mbtiauth_1258
1273,"(22, 212, 10, 65)",2,mbtiauth_1258
1274,"(22, 212, 10, 871)",2,mbtiauth_1258
1275,"(22, 212, 10, 986)",2,mbtiauth_1258
1276,"(22, 212, 65, 871)",2,mbtiauth_1258
1277,"(22, 212, 65, 986)",2,mbtiauth_1258
1278,"(22, 212, 871, 986)",2,mbtiauth_1258
1279,"(32, 78, 65, 1131)",2,mbtiauth_1258
1280,"(41, 64, 32, 78)",2,mbtiauth_1258
1281,"(41, 64, 286, 32)",2,mbtiauth_1258
1282,"(41, 64, 286, 78)",2,mbtiauth_1258
1283,"(41, 286, 32, 78)",2,mbtiauth_1258
1284,"(64, 32, 77, 152)",2,mbtiauth_1258
1285,"(64, 32, 78, 65)",2,mbtiauth_1258
1286,"(64, 154, 77, 123)",2,mbtiauth_1258
1287,"(64, 175, 77, 77)",2,mbtiauth_1258
1288,"(64, 286, 32, 65)",2,mbtiauth_1258
1289,"(64, 286, 32, 78)",2,mbtiauth_1258
1290,"(64, 286, 78, 65)",2,mbtiauth_1258
1291,"(77, 10, 65, 871)",2,mbtiauth_1258
1292,"(77, 10, 65, 986)",2,mbtiauth_1258
1293,"(77, 10, 871, 986)",2,mbtiauth_1258
1294,"(77, 50, 146, 64)",2,mbtiauth_1258
1295,"(77, 65, 871, 986)",2,mbtiauth_1258
1296,"(77, 77, 77, 77)",3,mbtiauth_1258
1297,"(77, 123, 64, 175)",2,mbtiauth_1258
1298,"(77, 212, 10, 65)",2,mbtiauth_1258
1299,"(77, 212, 10, 871)",2,mbtiauth_1258
1300,"(77, 212, 10, 986)",2,mbtiauth_1258
1301,"(77, 212, 65, 871)",2,mbtiauth_1258
1302,"(77, 212, 65, 986)",2,mbtiauth_1258
1303,"(77, 212, 871, 986)",2,mbtiauth_1258
1304,"(77, 510, 153, 381)",2,mbtiauth_1258
1305,"(123, 64, 65, 395)",2,mbtiauth_1258
1306,"(123, 286, 254, 520)",2,mbtiauth_1258
1307,"(132, 10, 65, 871)",2,mbtiauth_1258
1308,"(132, 10, 65, 986)",2,mbtiauth_1258
1309,"(132, 10, 871, 986)",2,mbtiauth_1258
1310,"(132, 65, 871, 986)",2,mbtiauth_1258
1311,"(132, 77, 10, 65)",2,mbtiauth_1258
1312,"(132, 77, 10, 871)",2,mbtiauth_1258
1313,"(132, 77, 10, 986)",2,mbtiauth_1258
1314,"(132, 77, 65, 871)",2,mbtiauth_1258
1315,"(132, 77, 65, 986)",2,mbtiauth_1258
1316,"(132, 77, 212, 10)",2,mbtiauth_1258
1317,"(132, 77, 212, 65)",2,mbtiauth_1258
1318,"(132, 77, 212, 871)",2,mbtiauth_1258
1319,"(132, 77, 212, 986)",2,mbtiauth_1258
1320,"(132, 77, 871, 986)",2,mbtiauth_1258
1321,"(132, 146, 10, 65)",2,mbtiauth_1258
1322,"(132, 146, 10, 871)",2,mbtiauth_1258
1323,"(132, 146, 10, 986)",2,mbtiauth_1258
1324,"(132, 146, 65, 871)",2,mbtiauth_1258
1325,"(132, 146, 65, 986)",2,mbtiauth_1258
1326,"(132, 146, 77, 10)",2,mbtiauth_1258
1327,"(132, 146, 77, 65)",2,mbtiauth_1258
1328,"(132, 146, 77, 212)",2,mbtiauth_1258
1329,"(132, 146, 77, 871)",2,mbtiauth_1258
1330,"(132, 146, 77, 986)",2,mbtiauth_1258
1331,"(132, 146, 212, 10)",2,mbtiauth_1258
1332,"(132, 146, 212, 65)",2,mbtiauth_1258
1333,"(132, 146, 212, 871)",2,mbtiauth_1258
1334,"(132, 146, 212, 986)",2,mbtiauth_1258
1335,"(132, 146, 871, 986)",2,mbtiauth_1258
1336,"(132, 212, 10, 65)",2,mbtiauth_1258
1337,"(132, 212, 10, 871)",2,mbtiauth_1258
1338,"(132, 212, 10, 986)",2,mbtiauth_1258
1339,"(132, 212, 65, 871)",2,mbtiauth_1258
1340,"(132, 212, 65, 986)",2,mbtiauth_1258
1341,"(132, 212, 871, 986)",2,mbtiauth_1258
1342,"(146, 10, 65, 871)",2,mbtiauth_1258
1343,"(146, 10, 65, 986)",2,mbtiauth_1258
1344,"(146, 10, 871, 986)",2,mbtiauth_1258
1345,"(146, 65, 871, 986)",2,mbtiauth_1258
1346,"(146, 77, 10, 65)",2,mbtiauth_1258
1347,"(146, 77, 10, 871)",2,mbtiauth_1258
1348,"(146, 77, 10, 986)",2,mbtiauth_1258
1349,"(146, 77, 65, 871)",2,mbtiauth_1258
1350,"(146, 77, 65, 986)",2,mbtiauth_1258
1351,"(146, 77, 212, 10)",2,mbtiauth_1258
1352,"(146, 77, 212, 65)",2,mbtiauth_1258
1353,"(146, 77, 212, 871)",2,mbtiauth_1258
1354,"(146, 77, 212, 986)",2,mbtiauth_1258
1355,"(146, 77, 871, 986)",2,mbtiauth_1258
1356,"(146, 212, 10, 65)",2,mbtiauth_1258
1357,"(146, 212, 10, 871)",2,mbtiauth_1258
1358,"(146, 212, 10, 986)",2,mbtiauth_1258
1359,"(146, 212, 65, 871)",2,mbtiauth_1258
1360,"(146, 212, 65, 986)",2,mbtiauth_1258
1361,"(146, 212, 871, 986)",2,mbtiauth_1258
1362,"(154, 77, 123, 65)",2,mbtiauth_1258
1363,"(154, 123, 65, 156)",2,mbtiauth_1258
1364,"(154, 381, 630, 77)",2,mbtiauth_1258
1365,"(183, 398, 117, 16493)",2,mbtiauth_1258
1366,"(212, 10, 65, 871)",2,mbtiauth_1258
1367,"(212, 10, 65, 986)",2,mbtiauth_1258
1368,"(212, 10, 871, 986)",2,mbtiauth_1258
1369,"(212, 65, 871, 986)",2,mbtiauth_1258
1370,"(228, 22, 77, 10)",2,mbtiauth_1258
1371,"(228, 22, 77, 212)",2,mbtiauth_1258
1372,"(228, 22, 132, 10)",2,mbtiauth_1258
1373,"(228, 22, 132, 77)",2,mbtiauth_1258
1374,"(228, 22, 132, 146)",2,mbtiauth_1258
1375,"(228, 22, 132, 212)",2,mbtiauth_1258
1376,"(228, 22, 146, 10)",2,mbtiauth_1258
1377,"(228, 22, 146, 77)",2,mbtiauth_1258
1378,"(228, 22, 146, 212)",2,mbtiauth_1258
1379,"(228, 22, 212, 10)",2,mbtiauth_1258
1380,"(228, 77, 212, 10)",2,mbtiauth_1258
1381,"(228, 132, 77, 10)",2,mbtiauth_1258
1382,"(228, 132, 77, 212)",2,mbtiauth_1258
1383,"(228, 132, 146, 10)",2,mbtiauth_1258
1384,"(228, 132, 146, 77)",2,mbtiauth_1258
1385,"(228, 132, 146, 212)",2,mbtiauth_1258
1386,"(228, 132, 212, 10)",2,mbtiauth_1258
1387,"(228, 146, 77, 10)",2,mbtiauth_1258
1388,"(228, 146, 77, 212)",2,mbtiauth_1258
1389,"(228, 146, 212, 10)",2,mbtiauth_1258
1390,"(228, 441, 22, 10)",2,mbtiauth_1258
1391,"(228, 441, 22, 77)",2,mbtiauth_1258
1392,"(228, 441, 22, 132)",2,mbtiauth_1258
1393,"(228, 441, 22, 146)",2,mbtiauth_1258
1394,"(228, 441, 22, 212)",2,mbtiauth_1258
1395,"(228, 441, 77, 10)",2,mbtiauth_1258
1396,"(228, 441, 77, 212)",2,mbtiauth_1258
1397,"(228, 441, 132, 10)",2,mbtiauth_1258
1398,"(228, 441, 132, 77)",2,mbtiauth_1258
1399,"(228, 441, 132, 146)",2,mbtiauth_1258
1400,"(228, 441, 132, 212)",2,mbtiauth_1258
1401,"(228, 441, 146, 10)",2,mbtiauth_1258
1402,"(228, 441, 146, 77)",2,mbtiauth_1258
1403,"(228, 441, 146, 212)",2,mbtiauth_1258
1404,"(228, 441, 212, 10)",2,mbtiauth_1258
1405,"(286, 32, 65, 1131)",2,mbtiauth_1258
1406,"(286, 32, 78, 65)",2,mbtiauth_1258
1407,"(286, 32, 78, 1131)",2,mbtiauth_1258
1408,"(286, 78, 65, 1131)",2,mbtiauth_1258
1409,"(286, 151, 32, 65)",2,mbtiauth_1258
1410,"(326, 911, 77, 123)",2,mbtiauth_1258
1411,"(364, 326, 911, 77)",2,mbtiauth_1258
1412,"(364, 326, 911, 364)",2,mbtiauth_1258
1413,"(408, 123, 64, 65)",2,mbtiauth_1258
1414,"(408, 793, 64, 65)",2,mbtiauth_1258
1415,"(408, 793, 123, 64)",2,mbtiauth_1258
1416,"(408, 793, 123, 65)",2,mbtiauth_1258
1417,"(441, 10, 65, 871)",2,mbtiauth_1258
1418,"(441, 10, 65, 986)",2,mbtiauth_1258
1419,"(441, 10, 871, 986)",2,mbtiauth_1258
1420,"(441, 22, 10, 65)",2,mbtiauth_1258
1421,"(441, 22, 10, 871)",2,mbtiauth_1258
1422,"(441, 22, 10, 986)",2,mbtiauth_1258
1423,"(441, 22, 65, 871)",2,mbtiauth_1258
1424,"(441, 22, 65, 986)",2,mbtiauth_1258
1425,"(441, 22, 77, 10)",2,mbtiauth_1258
1426,"(441, 22, 77, 65)",2,mbtiauth_1258
1427,"(441, 22, 77, 212)",2,mbtiauth_1258
1428,"(441, 22, 77, 871)",2,mbtiauth_1258
1429,"(441, 22, 77, 986)",2,mbtiauth_1258
1430,"(441, 22, 132, 10)",2,mbtiauth_1258
1431,"(441, 22, 132, 65)",2,mbtiauth_1258
1432,"(441, 22, 132, 77)",2,mbtiauth_1258
1433,"(441, 22, 132, 146)",2,mbtiauth_1258
1434,"(441, 22, 132, 212)",2,mbtiauth_1258
1435,"(441, 22, 132, 871)",2,mbtiauth_1258
1436,"(441, 22, 132, 986)",2,mbtiauth_1258
1437,"(441, 22, 146, 10)",2,mbtiauth_1258
1438,"(441, 22, 146, 65)",2,mbtiauth_1258
1439,"(441, 22, 146, 77)",2,mbtiauth_1258
1440,"(441, 22, 146, 212)",2,mbtiauth_1258
1441,"(441, 22, 146, 871)",2,mbtiauth_1258
1442,"(441, 22, 146, 986)",2,mbtiauth_1258
1443,"(441, 22, 212, 10)",2,mbtiauth_1258
1444,"(441, 22, 212, 65)",2,mbtiauth_1258
1445,"(441, 22, 212, 871)",2,mbtiauth_1258
1446,"(441, 22, 212, 986)",2,mbtiauth_1258
1447,"(441, 22, 871, 986)",2,mbtiauth_1258
1448,"(441, 65, 871, 986)",2,mbtiauth_1258
1449,"(441, 77, 10, 65)",2,mbtiauth_1258
1450,"(441, 77, 10, 871)",2,mbtiauth_1258
1451,"(441, 77, 10, 986)",2,mbtiauth_1258
1452,"(441, 77, 65, 871)",2,mbtiauth_1258
1453,"(441, 77, 65, 986)",2,mbtiauth_1258
1454,"(441, 77, 212, 10)",2,mbtiauth_1258
1455,"(441, 77, 212, 65)",2,mbtiauth_1258
1456,"(441, 77, 212, 871)",2,mbtiauth_1258
1457,"(441, 77, 212, 986)",2,mbtiauth_1258
1458,"(441, 77, 871, 986)",2,mbtiauth_1258
1459,"(441, 132, 10, 65)",2,mbtiauth_1258
1460,"(441, 132, 10, 871)",2,mbtiauth_1258
1461,"(441, 132, 10, 986)",2,mbtiauth_1258
1462,"(441, 132, 65, 871)",2,mbtiauth_1258
1463,"(441, 132, 65, 986)",2,mbtiauth_1258
1464,"(441, 132, 77, 10)",2,mbtiauth_1258
1465,"(441, 132, 77, 65)",2,mbtiauth_1258
1466,"(441, 132, 77, 212)",2,mbtiauth_1258
1467,"(441, 132, 77, 871)",2,mbtiauth_1258
1468,"(441, 132, 77, 986)",2,mbtiauth_1258
1469,"(441, 132, 146, 10)",2,mbtiauth_1258
1470,"(441, 132, 146, 65)",2,mbtiauth_1258
1471,"(441, 132, 146, 77)",2,mbtiauth_1258
1472,"(441, 132, 146, 212)",2,mbtiauth_1258
1473,"(441, 132, 146, 871)",2,mbtiauth_1258
1474,"(441, 132, 146, 986)",2,mbtiauth_1258
1475,"(441, 132, 212, 10)",2,mbtiauth_1258
1476,"(441, 132, 212, 65)",2,mbtiauth_1258
1477,"(441, 132, 212, 871)",2,mbtiauth_1258
1478,"(441, 132, 212, 986)",2,mbtiauth_1258
1479,"(441, 132, 871, 986)",2,mbtiauth_1258
1480,"(441, 146, 10, 65)",2,mbtiauth_1258
1481,"(441, 146, 10, 871)",2,mbtiauth_1258
1482,"(441, 146, 10, 986)",2,mbtiauth_1258
1483,"(441, 146, 65, 871)",2,mbtiauth_1258
1484,"(441, 146, 65, 986)",2,mbtiauth_1258
1485,"(441, 146, 77, 10)",2,mbtiauth_1258
1486,"(441, 146, 77, 65)",2,mbtiauth_1258
1487,"(441, 146, 77, 212)",2,mbtiauth_1258
1488,"(441, 146, 77, 871)",2,mbtiauth_1258
1489,"(441, 146, 77, 986)",2,mbtiauth_1258
1490,"(441, 146, 212, 10)",2,mbtiauth_1258
1491,"(441, 146, 212, 65)",2,mbtiauth_1258
1492,"(441, 146, 212, 871)",2,mbtiauth_1258
1493,"(441, 146, 212, 986)",2,mbtiauth_1258
1494,"(441, 146, 871, 986)",2,mbtiauth_1258
1495,"(441, 212, 10, 65)",2,mbtiauth_1258
1496,"(441, 212, 10, 871)",2,mbtiauth_1258
1497,"(441, 212, 10, 986)",2,mbtiauth_1258
1498,"(441, 212, 65, 871)",2,mbtiauth_1258
1499,"(441, 212, 65, 986)",2,mbtiauth_1258
1500,"(441, 212, 871, 986)",2,mbtiauth_1258
1501,"(516, 157, 151, 64)",2,mbtiauth_1258
1502,"(793, 123, 64, 65)",2,mbtiauth_1258
1503,"(911, 22, 77, 10)",2,mbtiauth_1258
1504,"(911, 22, 77, 212)",2,mbtiauth_1258
1505,"(911, 22, 132, 10)",2,mbtiauth_1258
1506,"(911, 22, 132, 77)",2,mbtiauth_1258
1507,"(911, 22, 132, 146)",2,mbtiauth_1258
1508,"(911, 22, 132, 212)",2,mbtiauth_1258
1509,"(911, 22, 146, 10)",2,mbtiauth_1258
1510,"(911, 22, 146, 77)",2,mbtiauth_1258
1511,"(911, 22, 146, 212)",2,mbtiauth_1258
1512,"(911, 22, 212, 10)",2,mbtiauth_1258
1513,"(911, 77, 212, 10)",2,mbtiauth_1258
1514,"(911, 132, 77, 10)",2,mbtiauth_1258
1515,"(911, 132, 77, 212)",2,mbtiauth_1258
1516,"(911, 132, 146, 10)",2,mbtiauth_1258
1517,"(911, 132, 146, 77)",2,mbtiauth_1258
1518,"(911, 132, 146, 212)",2,mbtiauth_1258
1519,"(911, 132, 212, 10)",2,mbtiauth_1258
1520,"(911, 146, 77, 10)",2,mbtiauth_1258
1521,"(911, 146, 77, 212)",2,mbtiauth_1258
1522,"(911, 146, 212, 10)",2,mbtiauth_1258
1523,"(911, 441, 22, 10)",2,mbtiauth_1258
1524,"(911, 441, 22, 77)",2,mbtiauth_1258
1525,"(911, 441, 22, 132)",2,mbtiauth_1258
1526,"(911, 441, 22, 146)",2,mbtiauth_1258
1527,"(911, 441, 22, 212)",2,mbtiauth_1258
1528,"(911, 441, 77, 10)",2,mbtiauth_1258
1529,"(911, 441, 77, 212)",2,mbtiauth_1258
1530,"(911, 441, 132, 10)",2,mbtiauth_1258
1531,"(911, 441, 132, 77)",2,mbtiauth_1258
1532,"(911, 441, 132, 146)",2,mbtiauth_1258
1533,"(911, 441, 132, 212)",2,mbtiauth_1258
1534,"(911, 441, 146, 10)",2,mbtiauth_1258
1535,"(911, 441, 146, 77)",2,mbtiauth_1258
1536,"(911, 441, 146, 212)",2,mbtiauth_1258
1537,"(911, 441, 212, 10)",2,mbtiauth_1258
1538,"(20611, 183, 117, 16493)",2,mbtiauth_1258
1539,"(20611, 183, 398, 117)",2,mbtiauth_1258
1540,"(20611, 183, 398, 16493)",2,mbtiauth_1258
1541,"(20611, 398, 117, 16493)",2,mbtiauth_1258
1542,"(2, 22, 77, 10, 65)",2,mbtiauth_1258
1543,"(2, 22, 77, 212, 10)",2,mbtiauth_1258
1544,"(2, 22, 77, 212, 65)",2,mbtiauth_1258
1545,"(2, 22, 132, 10, 65)",2,mbtiauth_1258
1546,"(2, 22, 132, 77, 10)",2,mbtiauth_1258
1547,"(2, 22, 132, 77, 65)",2,mbtiauth_1258
1548,"(2, 22, 132, 77, 212)",2,mbtiauth_1258
1549,"(2, 22, 132, 146, 10)",2,mbtiauth_1258
1550,"(2, 22, 132, 146, 65)",2,mbtiauth_1258
1551,"(2, 22, 132, 146, 77)",2,mbtiauth_1258
1552,"(2, 22, 132, 146, 212)",2,mbtiauth_1258
1553,"(2, 22, 132, 212, 10)",2,mbtiauth_1258
1554,"(2, 22, 132, 212, 65)",2,mbtiauth_1258
1555,"(2, 22, 146, 10, 65)",2,mbtiauth_1258
1556,"(2, 22, 146, 77, 10)",2,mbtiauth_1258
1557,"(2, 22, 146, 77, 65)",2,mbtiauth_1258
1558,"(2, 22, 146, 77, 212)",2,mbtiauth_1258
1559,"(2, 22, 146, 212, 10)",2,mbtiauth_1258
1560,"(2, 22, 146, 212, 65)",2,mbtiauth_1258
1561,"(2, 22, 212, 10, 65)",2,mbtiauth_1258
1562,"(2, 77, 212, 10, 65)",2,mbtiauth_1258
1563,"(2, 132, 77, 10, 65)",2,mbtiauth_1258
1564,"(2, 132, 77, 212, 10)",2,mbtiauth_1258
1565,"(2, 132, 77, 212, 65)",2,mbtiauth_1258
1566,"(2, 132, 146, 10, 65)",2,mbtiauth_1258
1567,"(2, 132, 146, 77, 10)",2,mbtiauth_1258
1568,"(2, 132, 146, 77, 65)",2,mbtiauth_1258
1569,"(2, 132, 146, 77, 212)",2,mbtiauth_1258
1570,"(2, 132, 146, 212, 10)",2,mbtiauth_1258
1571,"(2, 132, 146, 212, 65)",2,mbtiauth_1258
1572,"(2, 132, 212, 10, 65)",2,mbtiauth_1258
1573,"(2, 146, 77, 10, 65)",2,mbtiauth_1258
1574,"(2, 146, 77, 212, 10)",2,mbtiauth_1258
1575,"(2, 146, 77, 212, 65)",2,mbtiauth_1258
1576,"(2, 146, 212, 10, 65)",2,mbtiauth_1258
1577,"(2, 441, 22, 10, 65)",2,mbtiauth_1258
1578,"(2, 441, 22, 77, 10)",2,mbtiauth_1258
1579,"(2, 441, 22, 77, 65)",2,mbtiauth_1258
1580,"(2, 441, 22, 77, 212)",2,mbtiauth_1258
1581,"(2, 441, 22, 132, 10)",2,mbtiauth_1258
1582,"(2, 441, 22, 132, 65)",2,mbtiauth_1258
1583,"(2, 441, 22, 132, 77)",2,mbtiauth_1258
1584,"(2, 441, 22, 132, 146)",2,mbtiauth_1258
1585,"(2, 441, 22, 132, 212)",2,mbtiauth_1258
1586,"(2, 441, 22, 146, 10)",2,mbtiauth_1258
1587,"(2, 441, 22, 146, 65)",2,mbtiauth_1258
1588,"(2, 441, 22, 146, 77)",2,mbtiauth_1258
1589,"(2, 441, 22, 146, 212)",2,mbtiauth_1258
1590,"(2, 441, 22, 212, 10)",2,mbtiauth_1258
1591,"(2, 441, 22, 212, 65)",2,mbtiauth_1258
1592,"(2, 441, 77, 10, 65)",2,mbtiauth_1258
1593,"(2, 441, 77, 212, 10)",2,mbtiauth_1258
1594,"(2, 441, 77, 212, 65)",2,mbtiauth_1258
1595,"(2, 441, 132, 10, 65)",2,mbtiauth_1258
1596,"(2, 441, 132, 77, 10)",2,mbtiauth_1258
1597,"(2, 441, 132, 77, 65)",2,mbtiauth_1258
1598,"(2, 441, 132, 77, 212)",2,mbtiauth_1258
1599,"(2, 441, 132, 146, 10)",2,mbtiauth_1258
1600,"(2, 441, 132, 146, 65)",2,mbtiauth_1258
1601,"(2, 441, 132, 146, 77)",2,mbtiauth_1258
1602,"(2, 441, 132, 146, 212)",2,mbtiauth_1258
1603,"(2, 441, 132, 212, 10)",2,mbtiauth_1258
1604,"(2, 441, 132, 212, 65)",2,mbtiauth_1258
1605,"(2, 441, 146, 10, 65)",2,mbtiauth_1258
1606,"(2, 441, 146, 77, 10)",2,mbtiauth_1258
1607,"(2, 441, 146, 77, 65)",2,mbtiauth_1258
1608,"(2, 441, 146, 77, 212)",2,mbtiauth_1258
1609,"(2, 441, 146, 212, 10)",2,mbtiauth_1258
1610,"(2, 441, 146, 212, 65)",2,mbtiauth_1258
1611,"(2, 441, 212, 10, 65)",2,mbtiauth_1258
1612,"(22, 10, 65, 871, 986)",2,mbtiauth_1258
1613,"(22, 77, 10, 65, 871)",2,mbtiauth_1258
1614,"(22, 77, 10, 65, 986)",2,mbtiauth_1258
1615,"(22, 77, 10, 871, 986)",2,mbtiauth_1258
1616,"(22, 77, 65, 871, 986)",2,mbtiauth_1258
1617,"(22, 77, 212, 10, 65)",2,mbtiauth_1258
1618,"(22, 77, 212, 10, 871)",2,mbtiauth_1258
1619,"(22, 77, 212, 10, 986)",2,mbtiauth_1258
1620,"(22, 77, 212, 65, 871)",2,mbtiauth_1258
1621,"(22, 77, 212, 65, 986)",2,mbtiauth_1258
1622,"(22, 77, 212, 871, 986)",2,mbtiauth_1258
1623,"(22, 132, 10, 65, 871)",2,mbtiauth_1258
1624,"(22, 132, 10, 65, 986)",2,mbtiauth_1258
1625,"(22, 132, 10, 871, 986)",2,mbtiauth_1258
1626,"(22, 132, 65, 871, 986)",2,mbtiauth_1258
1627,"(22, 132, 77, 10, 65)",2,mbtiauth_1258
1628,"(22, 132, 77, 10, 871)",2,mbtiauth_1258
1629,"(22, 132, 77, 10, 986)",2,mbtiauth_1258
1630,"(22, 132, 77, 65, 871)",2,mbtiauth_1258
1631,"(22, 132, 77, 65, 986)",2,mbtiauth_1258
1632,"(22, 132, 77, 212, 10)",2,mbtiauth_1258
1633,"(22, 132, 77, 212, 65)",2,mbtiauth_1258
1634,"(22, 132, 77, 212, 871)",2,mbtiauth_1258
1635,"(22, 132, 77, 212, 986)",2,mbtiauth_1258
1636,"(22, 132, 77, 871, 986)",2,mbtiauth_1258
1637,"(22, 132, 146, 10, 65)",2,mbtiauth_1258
1638,"(22, 132, 146, 10, 871)",2,mbtiauth_1258
1639,"(22, 132, 146, 10, 986)",2,mbtiauth_1258
1640,"(22, 132, 146, 65, 871)",2,mbtiauth_1258
1641,"(22, 132, 146, 65, 986)",2,mbtiauth_1258
1642,"(22, 132, 146, 77, 10)",2,mbtiauth_1258
1643,"(22, 132, 146, 77, 65)",2,mbtiauth_1258
1644,"(22, 132, 146, 77, 212)",2,mbtiauth_1258
1645,"(22, 132, 146, 77, 871)",2,mbtiauth_1258
1646,"(22, 132, 146, 77, 986)",2,mbtiauth_1258
1647,"(22, 132, 146, 212, 10)",2,mbtiauth_1258
1648,"(22, 132, 146, 212, 65)",2,mbtiauth_1258
1649,"(22, 132, 146, 212, 871)",2,mbtiauth_1258
1650,"(22, 132, 146, 212, 986)",2,mbtiauth_1258
1651,"(22, 132, 146, 871, 986)",2,mbtiauth_1258
1652,"(22, 132, 212, 10, 65)",2,mbtiauth_1258
1653,"(22, 132, 212, 10, 871)",2,mbtiauth_1258
1654,"(22, 132, 212, 10, 986)",2,mbtiauth_1258
1655,"(22, 132, 212, 65, 871)",2,mbtiauth_1258
1656,"(22, 132, 212, 65, 986)",2,mbtiauth_1258
1657,"(22, 132, 212, 871, 986)",2,mbtiauth_1258
1658,"(22, 146, 10, 65, 871)",2,mbtiauth_1258
1659,"(22, 146, 10, 65, 986)",2,mbtiauth_1258
1660,"(22, 146, 10, 871, 986)",2,mbtiauth_1258
1661,"(22, 146, 65, 871, 986)",2,mbtiauth_1258
1662,"(22, 146, 77, 10, 65)",2,mbtiauth_1258
1663,"(22, 146, 77, 10, 871)",2,mbtiauth_1258
1664,"(22, 146, 77, 10, 986)",2,mbtiauth_1258
1665,"(22, 146, 77, 65, 871)",2,mbtiauth_1258
1666,"(22, 146, 77, 65, 986)",2,mbtiauth_1258
1667,"(22, 146, 77, 212, 10)",2,mbtiauth_1258
1668,"(22, 146, 77, 212, 65)",2,mbtiauth_1258
1669,"(22, 146, 77, 212, 871)",2,mbtiauth_1258
1670,"(22, 146, 77, 212, 986)",2,mbtiauth_1258
1671,"(22, 146, 77, 871, 986)",2,mbtiauth_1258
1672,"(22, 146, 212, 10, 65)",2,mbtiauth_1258
1673,"(22, 146, 212, 10, 871)",2,mbtiauth_1258
1674,"(22, 146, 212, 10, 986)",2,mbtiauth_1258
1675,"(22, 146, 212, 65, 871)",2,mbtiauth_1258
1676,"(22, 146, 212, 65, 986)",2,mbtiauth_1258
1677,"(22, 146, 212, 871, 986)",2,mbtiauth_1258
1678,"(22, 212, 10, 65, 871)",2,mbtiauth_1258
1679,"(22, 212, 10, 65, 986)",2,mbtiauth_1258
1680,"(22, 212, 10, 871, 986)",2,mbtiauth_1258
1681,"(22, 212, 65, 871, 986)",2,mbtiauth_1258
1682,"(41, 64, 286, 32, 78)",2,mbtiauth_1258
1683,"(64, 286, 32, 78, 65)",2,mbtiauth_1258
1684,"(77, 10, 65, 871, 986)",2,mbtiauth_1258
1685,"(77, 77, 77, 77, 77)",2,mbtiauth_1258
1686,"(77, 212, 10, 65, 871)",2,mbtiauth_1258
1687,"(77, 212, 10, 65, 986)",2,mbtiauth_1258
1688,"(77, 212, 10, 871, 986)",2,mbtiauth_1258
1689,"(77, 212, 65, 871, 986)",2,mbtiauth_1258
1690,"(132, 10, 65, 871, 986)",2,mbtiauth_1258
1691,"(132, 77, 10, 65, 871)",2,mbtiauth_1258
1692,"(132, 77, 10, 65, 986)",2,mbtiauth_1258
1693,"(132, 77, 10, 871, 986)",2,mbtiauth_1258
1694,"(132, 77, 65, 871, 986)",2,mbtiauth_1258
1695,"(132, 77, 212, 10, 65)",2,mbtiauth_1258
1696,"(132, 77, 212, 10, 871)",2,mbtiauth_1258
1697,"(132, 77, 212, 10, 986)",2,mbtiauth_1258
1698,"(132, 77, 212, 65, 871)",2,mbtiauth_1258
1699,"(132, 77, 212, 65, 986)",2,mbtiauth_1258
1700,"(132, 77, 212, 871, 986)",2,mbtiauth_1258
1701,"(132, 146, 10, 65, 871)",2,mbtiauth_1258
1702,"(132, 146, 10, 65, 986)",2,mbtiauth_1258
1703,"(132, 146, 10, 871, 986)",2,mbtiauth_1258
1704,"(132, 146, 65, 871, 986)",2,mbtiauth_1258
1705,"(132, 146, 77, 10, 65)",2,mbtiauth_1258
1706,"(132, 146, 77, 10, 871)",2,mbtiauth_1258
1707,"(132, 146, 77, 10, 986)",2,mbtiauth_1258
1708,"(132, 146, 77, 65, 871)",2,mbtiauth_1258
1709,"(132, 146, 77, 65, 986)",2,mbtiauth_1258
1710,"(132, 146, 77, 212, 10)",2,mbtiauth_1258
1711,"(132, 146, 77, 212, 65)",2,mbtiauth_1258
1712,"(132, 146, 77, 212, 871)",2,mbtiauth_1258
1713,"(132, 146, 77, 212, 986)",2,mbtiauth_1258
1714,"(132, 146, 77, 871, 986)",2,mbtiauth_1258
1715,"(132, 146, 212, 10, 65)",2,mbtiauth_1258
1716,"(132, 146, 212, 10, 871)",2,mbtiauth_1258
1717,"(132, 146, 212, 10, 986)",2,mbtiauth_1258
1718,"(132, 146, 212, 65, 871)",2,mbtiauth_1258
1719,"(132, 146, 212, 65, 986)",2,mbtiauth_1258
1720,"(132, 146, 212, 871, 986)",2,mbtiauth_1258
1721,"(132, 212, 10, 65, 871)",2,mbtiauth_1258
1722,"(132, 212, 10, 65, 986)",2,mbtiauth_1258
1723,"(132, 212, 10, 871, 986)",2,mbtiauth_1258
1724,"(132, 212, 65, 871, 986)",2,mbtiauth_1258
1725,"(146, 10, 65, 871, 986)",2,mbtiauth_1258
1726,"(146, 77, 10, 65, 871)",2,mbtiauth_1258
1727,"(146, 77, 10, 65, 986)",2,mbtiauth_1258
1728,"(146, 77, 10, 871, 986)",2,mbtiauth_1258
1729,"(146, 77, 65, 871, 986)",2,mbtiauth_1258
1730,"(146, 77, 212, 10, 65)",2,mbtiauth_1258
1731,"(146, 77, 212, 10, 871)",2,mbtiauth_1258
1732,"(146, 77, 212, 10, 986)",2,mbtiauth_1258
1733,"(146, 77, 212, 65, 871)",2,mbtiauth_1258
1734,"(146, 77, 212, 65, 986)",2,mbtiauth_1258
1735,"(146, 77, 212, 871, 986)",2,mbtiauth_1258
1736,"(146, 212, 10, 65, 871)",2,mbtiauth_1258
1737,"(146, 212, 10, 65, 986)",2,mbtiauth_1258
1738,"(146, 212, 10, 871, 986)",2,mbtiauth_1258
1739,"(146, 212, 65, 871, 986)",2,mbtiauth_1258
1740,"(212, 10, 65, 871, 986)",2,mbtiauth_1258
1741,"(228, 22, 77, 212, 10)",2,mbtiauth_1258
1742,"(228, 22, 132, 77, 10)",2,mbtiauth_1258
1743,"(228, 22, 132, 77, 212)",2,mbtiauth_1258
1744,"(228, 22, 132, 146, 10)",2,mbtiauth_1258
1745,"(228, 22, 132, 146, 77)",2,mbtiauth_1258
1746,"(228, 22, 132, 146, 212)",2,mbtiauth_1258
1747,"(228, 22, 132, 212, 10)",2,mbtiauth_1258
1748,"(228, 22, 146, 77, 10)",2,mbtiauth_1258
1749,"(228, 22, 146, 77, 212)",2,mbtiauth_1258
1750,"(228, 22, 146, 212, 10)",2,mbtiauth_1258
1751,"(228, 132, 77, 212, 10)",2,mbtiauth_1258
1752,"(228, 132, 146, 77, 10)",2,mbtiauth_1258
1753,"(228, 132, 146, 77, 212)",2,mbtiauth_1258
1754,"(228, 132, 146, 212, 10)",2,mbtiauth_1258
1755,"(228, 146, 77, 212, 10)",2,mbtiauth_1258
1756,"(228, 441, 22, 77, 10)",2,mbtiauth_1258
1757,"(228, 441, 22, 77, 212)",2,mbtiauth_1258
1758,"(228, 441, 22, 132, 10)",2,mbtiauth_1258
1759,"(228, 441, 22, 132, 77)",2,mbtiauth_1258
1760,"(228, 441, 22, 132, 146)",2,mbtiauth_1258
1761,"(228, 441, 22, 132, 212)",2,mbtiauth_1258
1762,"(228, 441, 22, 146, 10)",2,mbtiauth_1258
1763,"(228, 441, 22, 146, 77)",2,mbtiauth_1258
1764,"(228, 441, 22, 146, 212)",2,mbtiauth_1258
1765,"(228, 441, 22, 212, 10)",2,mbtiauth_1258
1766,"(228, 441, 77, 212, 10)",2,mbtiauth_1258
1767,"(228, 441, 132, 77, 10)",2,mbtiauth_1258
1768,"(228, 441, 132, 77, 212)",2,mbtiauth_1258
1769,"(228, 441, 132, 146, 10)",2,mbtiauth_1258
1770,"(228, 441, 132, 146, 77)",2,mbtiauth_1258
1771,"(228, 441, 132, 146, 212)",2,mbtiauth_1258
1772,"(228, 441, 132, 212, 10)",2,mbtiauth_1258
1773,"(228, 441, 146, 77, 10)",2,mbtiauth_1258
1774,"(228, 441, 146, 77, 212)",2,mbtiauth_1258
1775,"(228, 441, 146, 212, 10)",2,mbtiauth_1258
1776,"(286, 32, 78, 65, 1131)",2,mbtiauth_1258
1777,"(408, 793, 123, 64, 65)",2,mbtiauth_1258
1778,"(441, 10, 65, 871, 986)",2,mbtiauth_1258
1779,"(441, 22, 10, 65, 871)",2,mbtiauth_1258
1780,"(441, 22, 10, 65, 986)",2,mbtiauth_1258
1781,"(441, 22, 10, 871, 986)",2,mbtiauth_1258
1782,"(441, 22, 65, 871, 986)",2,mbtiauth_1258
1783,"(441, 22, 77, 10, 65)",2,mbtiauth_1258
1784,"(441, 22, 77, 10, 871)",2,mbtiauth_1258
1785,"(441, 22, 77, 10, 986)",2,mbtiauth_1258
1786,"(441, 22, 77, 65, 871)",2,mbtiauth_1258
1787,"(441, 22, 77, 65, 986)",2,mbtiauth_1258
1788,"(441, 22, 77, 212, 10)",2,mbtiauth_1258
1789,"(441, 22, 77, 212, 65)",2,mbtiauth_1258
1790,"(441, 22, 77, 212, 871)",2,mbtiauth_1258
1791,"(441, 22, 77, 212, 986)",2,mbtiauth_1258
1792,"(441, 22, 77, 871, 986)",2,mbtiauth_1258
1793,"(441, 22, 132, 10, 65)",2,mbtiauth_1258
1794,"(441, 22, 132, 10, 871)",2,mbtiauth_1258
1795,"(441, 22, 132, 10, 986)",2,mbtiauth_1258
1796,"(441, 22, 132, 65, 871)",2,mbtiauth_1258
1797,"(441, 22, 132, 65, 986)",2,mbtiauth_1258
1798,"(441, 22, 132, 77, 10)",2,mbtiauth_1258
1799,"(441, 22, 132, 77, 65)",2,mbtiauth_1258
1800,"(441, 22, 132, 77, 212)",2,mbtiauth_1258
1801,"(441, 22, 132, 77, 871)",2,mbtiauth_1258
1802,"(441, 22, 132, 77, 986)",2,mbtiauth_1258
1803,"(441, 22, 132, 146, 10)",2,mbtiauth_1258
1804,"(441, 22, 132, 146, 65)",2,mbtiauth_1258
1805,"(441, 22, 132, 146, 77)",2,mbtiauth_1258
1806,"(441, 22, 132, 146, 212)",2,mbtiauth_1258
1807,"(441, 22, 132, 146, 871)",2,mbtiauth_1258
1808,"(441, 22, 132, 146, 986)",2,mbtiauth_1258
1809,"(441, 22, 132, 212, 10)",2,mbtiauth_1258
1810,"(441, 22, 132, 212, 65)",2,mbtiauth_1258
1811,"(441, 22, 132, 212, 871)",2,mbtiauth_1258
1812,"(441, 22, 132, 212, 986)",2,mbtiauth_1258
1813,"(441, 22, 132, 871, 986)",2,mbtiauth_1258
1814,"(441, 22, 146, 10, 65)",2,mbtiauth_1258
1815,"(441, 22, 146, 10, 871)",2,mbtiauth_1258
1816,"(441, 22, 146, 10, 986)",2,mbtiauth_1258
1817,"(441, 22, 146, 65, 871)",2,mbtiauth_1258
1818,"(441, 22, 146, 65, 986)",2,mbtiauth_1258
1819,"(441, 22, 146, 77, 10)",2,mbtiauth_1258
1820,"(441, 22, 146, 77, 65)",2,mbtiauth_1258
1821,"(441, 22, 146, 77, 212)",2,mbtiauth_1258
1822,"(441, 22, 146, 77, 871)",2,mbtiauth_1258
1823,"(441, 22, 146, 77, 986)",2,mbtiauth_1258
1824,"(441, 22, 146, 212, 10)",2,mbtiauth_1258
1825,"(441, 22, 146, 212, 65)",2,mbtiauth_1258
1826,"(441, 22, 146, 212, 871)",2,mbtiauth_1258
1827,"(441, 22, 146, 212, 986)",2,mbtiauth_1258
1828,"(441, 22, 146, 871, 986)",2,mbtiauth_1258
1829,"(441, 22, 212, 10, 65)",2,mbtiauth_1258
1830,"(441, 22, 212, 10, 871)",2,mbtiauth_1258
1831,"(441, 22, 212, 10, 986)",2,mbtiauth_1258
1832,"(441, 22, 212, 65, 871)",2,mbtiauth_1258
1833,"(441, 22, 212, 65, 986)",2,mbtiauth_1258
1834,"(441, 22, 212, 871, 986)",2,mbtiauth_1258
1835,"(441, 77, 10, 65, 871)",2,mbtiauth_1258
1836,"(441, 77, 10, 65, 986)",2,mbtiauth_1258
1837,"(441, 77, 10, 871, 986)",2,mbtiauth_1258
1838,"(441, 77, 65, 871, 986)",2,mbtiauth_1258
1839,"(441, 77, 212, 10, 65)",2,mbtiauth_1258
1840,"(441, 77, 212, 10, 871)",2,mbtiauth_1258
1841,"(441, 77, 212, 10, 986)",2,mbtiauth_1258
1842,"(441, 77, 212, 65, 871)",2,mbtiauth_1258
1843,"(441, 77, 212, 65, 986)",2,mbtiauth_1258
1844,"(441, 77, 212, 871, 986)",2,mbtiauth_1258
1845,"(441, 132, 10, 65, 871)",2,mbtiauth_1258
1846,"(441, 132, 10, 65, 986)",2,mbtiauth_1258
1847,"(441, 132, 10, 871, 986)",2,mbtiauth_1258
1848,"(441, 132, 65, 871, 986)",2,mbtiauth_1258
1849,"(441, 132, 77, 10, 65)",2,mbtiauth_1258
1850,"(441, 132, 77, 10, 871)",2,mbtiauth_1258
1851,"(441, 132, 77, 10, 986)",2,mbtiauth_1258
1852,"(441, 132, 77, 65, 871)",2,mbtiauth_1258
1853,"(441, 132, 77, 65, 986)",2,mbtiauth_1258
1854,"(441, 132, 77, 212, 10)",2,mbtiauth_1258
1855,"(441, 132, 77, 212, 65)",2,mbtiauth_1258
1856,"(441, 132, 77, 212, 871)",2,mbtiauth_1258
1857,"(441, 132, 77, 212, 986)",2,mbtiauth_1258
1858,"(441, 132, 77, 871, 986)",2,mbtiauth_1258
1859,"(441, 132, 146, 10, 65)",2,mbtiauth_1258
1860,"(441, 132, 146, 10, 871)",2,mbtiauth_1258
1861,"(441, 132, 146, 10, 986)",2,mbtiauth_1258
1862,"(441, 132, 146, 65, 871)",2,mbtiauth_1258
1863,"(441, 132, 146, 65, 986)",2,mbtiauth_1258
1864,"(441, 132, 146, 77, 10)",2,mbtiauth_1258
1865,"(441, 132, 146, 77, 65)",2,mbtiauth_1258
1866,"(441, 132, 146, 77, 212)",2,mbtiauth_1258
1867,"(441, 132, 146, 77, 871)",2,mbtiauth_1258
1868,"(441, 132, 146, 77, 986)",2,mbtiauth_1258
1869,"(441, 132, 146, 212, 10)",2,mbtiauth_1258
1870,"(441, 132, 146, 212, 65)",2,mbtiauth_1258
1871,"(441, 132, 146, 212, 871)",2,mbtiauth_1258
1872,"(441, 132, 146, 212, 986)",2,mbtiauth_1258
1873,"(441, 132, 146, 871, 986)",2,mbtiauth_1258
1874,"(441, 132, 212, 10, 65)",2,mbtiauth_1258
1875,"(441, 132, 212, 10, 871)",2,mbtiauth_1258
1876,"(441, 132, 212, 10, 986)",2,mbtiauth_1258
1877,"(441, 132, 212, 65, 871)",2,mbtiauth_1258
1878,"(441, 132, 212, 65, 986)",2,mbtiauth_1258
1879,"(441, 132, 212, 871, 986)",2,mbtiauth_1258
1880,"(441, 146, 10, 65, 871)",2,mbtiauth_1258
1881,"(441, 146, 10, 65, 986)",2,mbtiauth_1258
1882,"(441, 146, 10, 871, 986)",2,mbtiauth_1258
1883,"(441, 146, 65, 871, 986)",2,mbtiauth_1258
1884,"(441, 146, 77, 10, 65)",2,mbtiauth_1258
1885,"(441, 146, 77, 10, 871)",2,mbtiauth_1258
1886,"(441, 146, 77, 10, 986)",2,mbtiauth_1258
1887,"(441, 146, 77, 65, 871)",2,mbtiauth_1258
1888,"(441, 146, 77, 65, 986)",2,mbtiauth_1258
1889,"(441, 146, 77, 212, 10)",2,mbtiauth_1258
1890,"(441, 146, 77, 212, 65)",2,mbtiauth_1258
1891,"(441, 146, 77, 212, 871)",2,mbtiauth_1258
1892,"(441, 146, 77, 212, 986)",2,mbtiauth_1258
1893,"(441, 146, 77, 871, 986)",2,mbtiauth_1258
1894,"(441, 146, 212, 10, 65)",2,mbtiauth_1258
1895,"(441, 146, 212, 10, 871)",2,mbtiauth_1258
1896,"(441, 146, 212, 10, 986)",2,mbtiauth_1258
1897,"(441, 146, 212, 65, 871)",2,mbtiauth_1258
1898,"(441, 146, 212, 65, 986)",2,mbtiauth_1258
1899,"(441, 146, 212, 871, 986)",2,mbtiauth_1258
1900,"(441, 212, 10, 65, 871)",2,mbtiauth_1258
1901,"(441, 212, 10, 65, 986)",2,mbtiauth_1258
1902,"(441, 212, 10, 871, 986)",2,mbtiauth_1258
1903,"(441, 212, 65, 871, 986)",2,mbtiauth_1258
1904,"(911, 22, 77, 212, 10)",2,mbtiauth_1258
1905,"(911, 22, 132, 77, 10)",2,mbtiauth_1258
1906,"(911, 22, 132, 77, 212)",2,mbtiauth_1258
1907,"(911, 22, 132, 146, 10)",2,mbtiauth_1258
1908,"(911, 22, 132, 146, 77)",2,mbtiauth_1258
1909,"(911, 22, 132, 146, 212)",2,mbtiauth_1258
1910,"(911, 22, 132, 212, 10)",2,mbtiauth_1258
1911,"(911, 22, 146, 77, 10)",2,mbtiauth_1258
1912,"(911, 22, 146, 77, 212)",2,mbtiauth_1258
1913,"(911, 22, 146, 212, 10)",2,mbtiauth_1258
1914,"(911, 132, 77, 212, 10)",2,mbtiauth_1258
1915,"(911, 132, 146, 77, 10)",2,mbtiauth_1258
1916,"(911, 132, 146, 77, 212)",2,mbtiauth_1258
1917,"(911, 132, 146, 212, 10)",2,mbtiauth_1258
1918,"(911, 146, 77, 212, 10)",2,mbtiauth_1258
1919,"(911, 441, 22, 77, 10)",2,mbtiauth_1258
1920,"(911, 441, 22, 77, 212)",2,mbtiauth_1258
1921,"(911, 441, 22, 132, 10)",2,mbtiauth_1258
1922,"(911, 441, 22, 132, 77)",2,mbtiauth_1258
1923,"(911, 441, 22, 132, 146)",2,mbtiauth_1258
1924,"(911, 441, 22, 132, 212)",2,mbtiauth_1258
1925,"(911, 441, 22, 146, 10)",2,mbtiauth_1258
1926,"(911, 441, 22, 146, 77)",2,mbtiauth_1258
1927,"(911, 441, 22, 146, 212)",2,mbtiauth_1258
1928,"(911, 441, 22, 212, 10)",2,mbtiauth_1258
1929,"(911, 441, 77, 212, 10)",2,mbtiauth_1258
1930,"(911, 441, 132, 77, 10)",2,mbtiauth_1258
1931,"(911, 441, 132, 77, 212)",2,mbtiauth_1258
1932,"(911, 441, 132, 146, 10)",2,mbtiauth_1258
1933,"(911, 441, 132, 146, 77)",2,mbtiauth_1258
1934,"(911, 441, 132, 146, 212)",2,mbtiauth_1258
1935,"(911, 441, 132, 212, 10)",2,mbtiauth_1258
1936,"(911, 441, 146, 77, 10)",2,mbtiauth_1258
1937,"(911, 441, 146, 77, 212)",2,mbtiauth_1258
1938,"(911, 441, 146, 212, 10)",2,mbtiauth_1258
1939,"(20611, 183, 398, 117, 16493)",2,mbtiauth_1258
1940,"(2, 22, 77, 212, 10, 65)",2,mbtiauth_1258
1941,"(2, 22, 132, 77, 10, 65)",2,mbtiauth_1258
1942,"(2, 22, 132, 77, 212, 10)",2,mbtiauth_1258
1943,"(2, 22, 132, 77, 212, 65)",2,mbtiauth_1258
1944,"(2, 22, 132, 146, 10, 65)",2,mbtiauth_1258
1945,"(2, 22, 132, 146, 77, 10)",2,mbtiauth_1258
1946,"(2, 22, 132, 146, 77, 65)",2,mbtiauth_1258
1947,"(2, 22, 132, 146, 77, 212)",2,mbtiauth_1258
1948,"(2, 22, 132, 146, 212, 10)",2,mbtiauth_1258
1949,"(2, 22, 132, 146, 212, 65)",2,mbtiauth_1258
1950,"(2, 22, 132, 212, 10, 65)",2,mbtiauth_1258
1951,"(2, 22, 146, 77, 10, 65)",2,mbtiauth_1258
1952,"(2, 22, 146, 77, 212, 10)",2,mbtiauth_1258
1953,"(2, 22, 146, 77, 212, 65)",2,mbtiauth_1258
1954,"(2, 22, 146, 212, 10, 65)",2,mbtiauth_1258
1955,"(2, 132, 77, 212, 10, 65)",2,mbtiauth_1258
1956,"(2, 132, 146, 77, 10, 65)",2,mbtiauth_1258
1957,"(2, 132, 146, 77, 212, 10)",2,mbtiauth_1258
1958,"(2, 132, 146, 77, 212, 65)",2,mbtiauth_1258
1959,"(2, 132, 146, 212, 10, 65)",2,mbtiauth_1258
1960,"(2, 146, 77, 212, 10, 65)",2,mbtiauth_1258
1961,"(2, 441, 22, 77, 10, 65)",2,mbtiauth_1258
1962,"(2, 441, 22, 77, 212, 10)",2,mbtiauth_1258
1963,"(2, 441, 22, 77, 212, 65)",2,mbtiauth_1258
1964,"(2, 441, 22, 132, 10, 65)",2,mbtiauth_1258
1965,"(2, 441, 22, 132, 77, 10)",2,mbtiauth_1258
1966,"(2, 441, 22, 132, 77, 65)",2,mbtiauth_1258
1967,"(2, 441, 22, 132, 77, 212)",2,mbtiauth_1258
1968,"(2, 441, 22, 132, 146, 10)",2,mbtiauth_1258
1969,"(2, 441, 22, 132, 146, 65)",2,mbtiauth_1258
1970,"(2, 441, 22, 132, 146, 77)",2,mbtiauth_1258
1971,"(2, 441, 22, 132, 146, 212)",2,mbtiauth_1258
1972,"(2, 441, 22, 132, 212, 10)",2,mbtiauth_1258
1973,"(2, 441, 22, 132, 212, 65)",2,mbtiauth_1258
1974,"(2, 441, 22, 146, 10, 65)",2,mbtiauth_1258
1975,"(2, 441, 22, 146, 77, 10)",2,mbtiauth_1258
1976,"(2, 441, 22, 146, 77, 65)",2,mbtiauth_1258
1977,"(2, 441, 22, 146, 77, 212)",2,mbtiauth_1258
1978,"(2, 441, 22, 146, 212, 10)",2,mbtiauth_1258
1979,"(2, 441, 22, 146, 212, 65)",2,mbtiauth_1258
1980,"(2, 441, 22, 212, 10, 65)",2,mbtiauth_1258
1981,"(2, 441, 77, 212, 10, 65)",2,mbtiauth_1258
1982,"(2, 441, 132, 77, 10, 65)",2,mbtiauth_1258
1983,"(2, 441, 132, 77, 212, 10)",2,mbtiauth_1258
1984,"(2, 441, 132, 77, 212, 65)",2,mbtiauth_1258
1985,"(2, 441, 132, 146, 10, 65)",2,mbtiauth_1258
1986,"(2, 441, 132, 146, 77, 10)",2,mbtiauth_1258
1987,"(2, 441, 132, 146, 77, 65)",2,mbtiauth_1258
1988,"(2, 441, 132, 146, 77, 212)",2,mbtiauth_1258
1989,"(2, 441, 132, 146, 212, 10)",2,mbtiauth_1258
1990,"(2, 441, 132, 146, 212, 65)",2,mbtiauth_1258
1991,"(2, 441, 132, 212, 10, 65)",2,mbtiauth_1258
1992,"(2, 441, 146, 77, 10, 65)",2,mbtiauth_1258
1993,"(2, 441, 146, 77, 212, 10)",2,mbtiauth_1258
1994,"(2, 441, 146, 77, 212, 65)",2,mbtiauth_1258
1995,"(2, 441, 146, 212, 10, 65)",2,mbtiauth_1258
1996,"(22, 77, 10, 65, 871, 986)",2,mbtiauth_1258
1997,"(22, 77, 212, 10, 65, 871)",2,mbtiauth_1258
1998,"(22, 77, 212, 10, 65, 986)",2,mbtiauth_1258
1999,"(22, 77, 212, 10, 871, 986)",2,mbtiauth_1258
2000,"(22, 77, 212, 65, 871, 986)",2,mbtiauth_1258
2001,"(22, 132, 10, 65, 871, 986)",2,mbtiauth_1258
2002,"(22, 132, 77, 10, 65, 871)",2,mbtiauth_1258
2003,"(22, 132, 77, 10, 65, 986)",2,mbtiauth_1258
2004,"(22, 132, 77, 10, 871, 986)",2,mbtiauth_1258
2005,"(22, 132, 77, 65, 871, 986)",2,mbtiauth_1258
2006,"(22, 132, 77, 212, 10, 65)",2,mbtiauth_1258
2007,"(22, 132, 77, 212, 10, 871)",2,mbtiauth_1258
2008,"(22, 132, 77, 212, 10, 986)",2,mbtiauth_1258
2009,"(22, 132, 77, 212, 65, 871)",2,mbtiauth_1258
2010,"(22, 132, 77, 212, 65, 986)",2,mbtiauth_1258
2011,"(22, 132, 77, 212, 871, 986)",2,mbtiauth_1258
2012,"(22, 132, 146, 10, 65, 871)",2,mbtiauth_1258
2013,"(22, 132, 146, 10, 65, 986)",2,mbtiauth_1258
2014,"(22, 132, 146, 10, 871, 986)",2,mbtiauth_1258
2015,"(22, 132, 146, 65, 871, 986)",2,mbtiauth_1258
2016,"(22, 132, 146, 77, 10, 65)",2,mbtiauth_1258
2017,"(22, 132, 146, 77, 10, 871)",2,mbtiauth_1258
2018,"(22, 132, 146, 77, 10, 986)",2,mbtiauth_1258
2019,"(22, 132, 146, 77, 65, 871)",2,mbtiauth_1258
2020,"(22, 132, 146, 77, 65, 986)",2,mbtiauth_1258
2021,"(22, 132, 146, 77, 212, 10)",2,mbtiauth_1258
2022,"(22, 132, 146, 77, 212, 65)",2,mbtiauth_1258
2023,"(22, 132, 146, 77, 212, 871)",2,mbtiauth_1258
2024,"(22, 132, 146, 77, 212, 986)",2,mbtiauth_1258
2025,"(22, 132, 146, 77, 871, 986)",2,mbtiauth_1258
2026,"(22, 132, 146, 212, 10, 65)",2,mbtiauth_1258
2027,"(22, 132, 146, 212, 10, 871)",2,mbtiauth_1258
2028,"(22, 132, 146, 212, 10, 986)",2,mbtiauth_1258
2029,"(22, 132, 146, 212, 65, 871)",2,mbtiauth_1258
2030,"(22, 132, 146, 212, 65, 986)",2,mbtiauth_1258
2031,"(22, 132, 146, 212, 871, 986)",2,mbtiauth_1258
2032,"(22, 132, 212, 10, 65, 871)",2,mbtiauth_1258
2033,"(22, 132, 212, 10, 65, 986)",2,mbtiauth_1258
2034,"(22, 132, 212, 10, 871, 986)",2,mbtiauth_1258
2035,"(22, 132, 212, 65, 871, 986)",2,mbtiauth_1258
2036,"(22, 146, 10, 65, 871, 986)",2,mbtiauth_1258
2037,"(22, 146, 77, 10, 65, 871)",2,mbtiauth_1258
2038,"(22, 146, 77, 10, 65, 986)",2,mbtiauth_1258
2039,"(22, 146, 77, 10, 871, 986)",2,mbtiauth_1258
2040,"(22, 146, 77, 65, 871, 986)",2,mbtiauth_1258
2041,"(22, 146, 77, 212, 10, 65)",2,mbtiauth_1258
2042,"(22, 146, 77, 212, 10, 871)",2,mbtiauth_1258
2043,"(22, 146, 77, 212, 10, 986)",2,mbtiauth_1258
2044,"(22, 146, 77, 212, 65, 871)",2,mbtiauth_1258
2045,"(22, 146, 77, 212, 65, 986)",2,mbtiauth_1258
2046,"(22, 146, 77, 212, 871, 986)",2,mbtiauth_1258
2047,"(22, 146, 212, 10, 65, 871)",2,mbtiauth_1258
2048,"(22, 146, 212, 10, 65, 986)",2,mbtiauth_1258
2049,"(22, 146, 212, 10, 871, 986)",2,mbtiauth_1258
2050,"(22, 146, 212, 65, 871, 986)",2,mbtiauth_1258
2051,"(22, 212, 10, 65, 871, 986)",2,mbtiauth_1258
2052,"(77, 212, 10, 65, 871, 986)",2,mbtiauth_1258
2053,"(132, 77, 10, 65, 871, 986)",2,mbtiauth_1258
2054,"(132, 77, 212, 10, 65, 871)",2,mbtiauth_1258
2055,"(132, 77, 212, 10, 65, 986)",2,mbtiauth_1258
2056,"(132, 77, 212, 10, 871, 986)",2,mbtiauth_1258
2057,"(132, 77, 212, 65, 871, 986)",2,mbtiauth_1258
2058,"(132, 146, 10, 65, 871, 986)",2,mbtiauth_1258
2059,"(132, 146, 77, 10, 65, 871)",2,mbtiauth_1258
2060,"(132, 146, 77, 10, 65, 986)",2,mbtiauth_1258
2061,"(132, 146, 77, 10, 871, 986)",2,mbtiauth_1258
2062,"(132, 146, 77, 65, 871, 986)",2,mbtiauth_1258
2063,"(132, 146, 77, 212, 10, 65)",2,mbtiauth_1258
2064,"(132, 146, 77, 212, 10, 871)",2,mbtiauth_1258
2065,"(132, 146, 77, 212, 10, 986)",2,mbtiauth_1258
2066,"(132, 146, 77, 212, 65, 871)",2,mbtiauth_1258
2067,"(132, 146, 77, 212, 65, 986)",2,mbtiauth_1258
2068,"(132, 146, 77, 212, 871, 986)",2,mbtiauth_1258
2069,"(132, 146, 212, 10, 65, 871)",2,mbtiauth_1258
2070,"(132, 146, 212, 10, 65, 986)",2,mbtiauth_1258
2071,"(132, 146, 212, 10, 871, 986)",2,mbtiauth_1258
2072,"(132, 146, 212, 65, 871, 986)",2,mbtiauth_1258
2073,"(132, 212, 10, 65, 871, 986)",2,mbtiauth_1258
2074,"(146, 77, 10, 65, 871, 986)",2,mbtiauth_1258
2075,"(146, 77, 212, 10, 65, 871)",2,mbtiauth_1258
2076,"(146, 77, 212, 10, 65, 986)",2,mbtiauth_1258
2077,"(146, 77, 212, 10, 871, 986)",2,mbtiauth_1258
2078,"(146, 77, 212, 65, 871, 986)",2,mbtiauth_1258
2079,"(146, 212, 10, 65, 871, 986)",2,mbtiauth_1258
2080,"(228, 22, 132, 77, 212, 10)",2,mbtiauth_1258
2081,"(228, 22, 132, 146, 77, 10)",2,mbtiauth_1258
2082,"(228, 22, 132, 146, 77, 212)",2,mbtiauth_1258
2083,"(228, 22, 132, 146, 212, 10)",2,mbtiauth_1258
2084,"(228, 22, 146, 77, 212, 10)",2,mbtiauth_1258
2085,"(228, 132, 146, 77, 212, 10)",2,mbtiauth_1258
2086,"(228, 441, 22, 77, 212, 10)",2,mbtiauth_1258
2087,"(228, 441, 22, 132, 77, 10)",2,mbtiauth_1258
2088,"(228, 441, 22, 132, 77, 212)",2,mbtiauth_1258
2089,"(228, 441, 22, 132, 146, 10)",2,mbtiauth_1258
2090,"(228, 441, 22, 132, 146, 77)",2,mbtiauth_1258
2091,"(228, 441, 22, 132, 146, 212)",2,mbtiauth_1258
2092,"(228, 441, 22, 132, 212, 10)",2,mbtiauth_1258
2093,"(228, 441, 22, 146, 77, 10)",2,mbtiauth_1258
2094,"(228, 441, 22, 146, 77, 212)",2,mbtiauth_1258
2095,"(228, 441, 22, 146, 212, 10)",2,mbtiauth_1258
2096,"(228, 441, 132, 77, 212, 10)",2,mbtiauth_1258
2097,"(228, 441, 132, 146, 77, 10)",2,mbtiauth_1258
2098,"(228, 441, 132, 146, 77, 212)",2,mbtiauth_1258
2099,"(228, 441, 132, 146, 212, 10)",2,mbtiauth_1258
2100,"(228, 441, 146, 77, 212, 10)",2,mbtiauth_1258
2101,"(441, 22, 10, 65, 871, 986)",2,mbtiauth_1258
2102,"(441, 22, 77, 10, 65, 871)",2,mbtiauth_1258
2103,"(441, 22, 77, 10, 65, 986)",2,mbtiauth_1258
2104,"(441, 22, 77, 10, 871, 986)",2,mbtiauth_1258
2105,"(441, 22, 77, 65, 871, 986)",2,mbtiauth_1258
2106,"(441, 22, 77, 212, 10, 65)",2,mbtiauth_1258
2107,"(441, 22, 77, 212, 10, 871)",2,mbtiauth_1258
2108,"(441, 22, 77, 212, 10, 986)",2,mbtiauth_1258
2109,"(441, 22, 77, 212, 65, 871)",2,mbtiauth_1258
2110,"(441, 22, 77, 212, 65, 986)",2,mbtiauth_1258
2111,"(441, 22, 77, 212, 871, 986)",2,mbtiauth_1258
2112,"(441, 22, 132, 10, 65, 871)",2,mbtiauth_1258
2113,"(441, 22, 132, 10, 65, 986)",2,mbtiauth_1258
2114,"(441, 22, 132, 10, 871, 986)",2,mbtiauth_1258
2115,"(441, 22, 132, 65, 871, 986)",2,mbtiauth_1258
2116,"(441, 22, 132, 77, 10, 65)",2,mbtiauth_1258
2117,"(441, 22, 132, 77, 10, 871)",2,mbtiauth_1258
2118,"(441, 22, 132, 77, 10, 986)",2,mbtiauth_1258
2119,"(441, 22, 132, 77, 65, 871)",2,mbtiauth_1258
2120,"(441, 22, 132, 77, 65, 986)",2,mbtiauth_1258
2121,"(441, 22, 132, 77, 212, 10)",2,mbtiauth_1258
2122,"(441, 22, 132, 77, 212, 65)",2,mbtiauth_1258
2123,"(441, 22, 132, 77, 212, 871)",2,mbtiauth_1258
2124,"(441, 22, 132, 77, 212, 986)",2,mbtiauth_1258
2125,"(441, 22, 132, 77, 871, 986)",2,mbtiauth_1258
2126,"(441, 22, 132, 146, 10, 65)",2,mbtiauth_1258
2127,"(441, 22, 132, 146, 10, 871)",2,mbtiauth_1258
2128,"(441, 22, 132, 146, 10, 986)",2,mbtiauth_1258
2129,"(441, 22, 132, 146, 65, 871)",2,mbtiauth_1258
2130,"(441, 22, 132, 146, 65, 986)",2,mbtiauth_1258
2131,"(441, 22, 132, 146, 77, 10)",2,mbtiauth_1258
2132,"(441, 22, 132, 146, 77, 65)",2,mbtiauth_1258
2133,"(441, 22, 132, 146, 77, 212)",2,mbtiauth_1258
2134,"(441, 22, 132, 146, 77, 871)",2,mbtiauth_1258
2135,"(441, 22, 132, 146, 77, 986)",2,mbtiauth_1258
2136,"(441, 22, 132, 146, 212, 10)",2,mbtiauth_1258
2137,"(441, 22, 132, 146, 212, 65)",2,mbtiauth_1258
2138,"(441, 22, 132, 146, 212, 871)",2,mbtiauth_1258
2139,"(441, 22, 132, 146, 212, 986)",2,mbtiauth_1258
2140,"(441, 22, 132, 146, 871, 986)",2,mbtiauth_1258
2141,"(441, 22, 132, 212, 10, 65)",2,mbtiauth_1258
2142,"(441, 22, 132, 212, 10, 871)",2,mbtiauth_1258
2143,"(441, 22, 132, 212, 10, 986)",2,mbtiauth_1258
2144,"(441, 22, 132, 212, 65, 871)",2,mbtiauth_1258
2145,"(441, 22, 132, 212, 65, 986)",2,mbtiauth_1258
2146,"(441, 22, 132, 212, 871, 986)",2,mbtiauth_1258
2147,"(441, 22, 146, 10, 65, 871)",2,mbtiauth_1258
2148,"(441, 22, 146, 10, 65, 986)",2,mbtiauth_1258
2149,"(441, 22, 146, 10, 871, 986)",2,mbtiauth_1258
2150,"(441, 22, 146, 65, 871, 986)",2,mbtiauth_1258
2151,"(441, 22, 146, 77, 10, 65)",2,mbtiauth_1258
2152,"(441, 22, 146, 77, 10, 871)",2,mbtiauth_1258
2153,"(441, 22, 146, 77, 10, 986)",2,mbtiauth_1258
2154,"(441, 22, 146, 77, 65, 871)",2,mbtiauth_1258
2155,"(441, 22, 146, 77, 65, 986)",2,mbtiauth_1258
2156,"(441, 22, 146, 77, 212, 10)",2,mbtiauth_1258
2157,"(441, 22, 146, 77, 212, 65)",2,mbtiauth_1258
2158,"(441, 22, 146, 77, 212, 871)",2,mbtiauth_1258
2159,"(441, 22, 146, 77, 212, 986)",2,mbtiauth_1258
2160,"(441, 22, 146, 77, 871, 986)",2,mbtiauth_1258
2161,"(441, 22, 146, 212, 10, 65)",2,mbtiauth_1258
2162,"(441, 22, 146, 212, 10, 871)",2,mbtiauth_1258
2163,"(441, 22, 146, 212, 10, 986)",2,mbtiauth_1258
2164,"(441, 22, 146, 212, 65, 871)",2,mbtiauth_1258
2165,"(441, 22, 146, 212, 65, 986)",2,mbtiauth_1258
2166,"(441, 22, 146, 212, 871, 986)",2,mbtiauth_1258
2167,"(441, 22, 212, 10, 65, 871)",2,mbtiauth_1258
2168,"(441, 22, 212, 10, 65, 986)",2,mbtiauth_1258
2169,"(441, 22, 212, 10, 871, 986)",2,mbtiauth_1258
2170,"(441, 22, 212, 65, 871, 986)",2,mbtiauth_1258
2171,"(441, 77, 10, 65, 871, 986)",2,mbtiauth_1258
2172,"(441, 77, 212, 10, 65, 871)",2,mbtiauth_1258
2173,"(441, 77, 212, 10, 65, 986)",2,mbtiauth_1258
2174,"(441, 77, 212, 10, 871, 986)",2,mbtiauth_1258
2175,"(441, 77, 212, 65, 871, 986)",2,mbtiauth_1258
2176,"(441, 132, 10, 65, 871, 986)",2,mbtiauth_1258
2177,"(441, 132, 77, 10, 65, 871)",2,mbtiauth_1258
2178,"(441, 132, 77, 10, 65, 986)",2,mbtiauth_1258
2179,"(441, 132, 77, 10, 871, 986)",2,mbtiauth_1258
2180,"(441, 132, 77, 65, 871, 986)",2,mbtiauth_1258
2181,"(441, 132, 77, 212, 10, 65)",2,mbtiauth_1258
2182,"(441, 132, 77, 212, 10, 871)",2,mbtiauth_1258
2183,"(441, 132, 77, 212, 10, 986)",2,mbtiauth_1258
2184,"(441, 132, 77, 212, 65, 871)",2,mbtiauth_1258
2185,"(441, 132, 77, 212, 65, 986)",2,mbtiauth_1258
2186,"(441, 132, 77, 212, 871, 986)",2,mbtiauth_1258
2187,"(441, 132, 146, 10, 65, 871)",2,mbtiauth_1258
2188,"(441, 132, 146, 10, 65, 986)",2,mbtiauth_1258
2189,"(441, 132, 146, 10, 871, 986)",2,mbtiauth_1258
2190,"(441, 132, 146, 65, 871, 986)",2,mbtiauth_1258
2191,"(441, 132, 146, 77, 10, 65)",2,mbtiauth_1258
2192,"(441, 132, 146, 77, 10, 871)",2,mbtiauth_1258
2193,"(441, 132, 146, 77, 10, 986)",2,mbtiauth_1258
2194,"(441, 132, 146, 77, 65, 871)",2,mbtiauth_1258
2195,"(441, 132, 146, 77, 65, 986)",2,mbtiauth_1258
2196,"(441, 132, 146, 77, 212, 10)",2,mbtiauth_1258
2197,"(441, 132, 146, 77, 212, 65)",2,mbtiauth_1258
2198,"(441, 132, 146, 77, 212, 871)",2,mbtiauth_1258
2199,"(441, 132, 146, 77, 212, 986)",2,mbtiauth_1258
2200,"(441, 132, 146, 77, 871, 986)",2,mbtiauth_1258
2201,"(441, 132, 146, 212, 10, 65)",2,mbtiauth_1258
2202,"(441, 132, 146, 212, 10, 871)",2,mbtiauth_1258
2203,"(441, 132, 146, 212, 10, 986)",2,mbtiauth_1258
2204,"(441, 132, 146, 212, 65, 871)",2,mbtiauth_1258
2205,"(441, 132, 146, 212, 65, 986)",2,mbtiauth_1258
2206,"(441, 132, 146, 212, 871, 986)",2,mbtiauth_1258
2207,"(441, 132, 212, 10, 65, 871)",2,mbtiauth_1258
2208,"(441, 132, 212, 10, 65, 986)",2,mbtiauth_1258
2209,"(441, 132, 212, 10, 871, 986)",2,mbtiauth_1258
2210,"(441, 132, 212, 65, 871, 986)",2,mbtiauth_1258
2211,"(441, 146, 10, 65, 871, 986)",2,mbtiauth_1258
2212,"(441, 146, 77, 10, 65, 871)",2,mbtiauth_1258
2213,"(441, 146, 77, 10, 65, 986)",2,mbtiauth_1258
2214,"(441, 146, 77, 10, 871, 986)",2,mbtiauth_1258
2215,"(441, 146, 77, 65, 871, 986)",2,mbtiauth_1258
2216,"(441, 146, 77, 212, 10, 65)",2,mbtiauth_1258
2217,"(441, 146, 77, 212, 10, 871)",2,mbtiauth_1258
2218,"(441, 146, 77, 212, 10, 986)",2,mbtiauth_1258
2219,"(441, 146, 77, 212, 65, 871)",2,mbtiauth_1258
2220,"(441, 146, 77, 212, 65, 986)",2,mbtiauth_1258
2221,"(441, 146, 77, 212, 871, 986)",2,mbtiauth_1258
2222,"(441, 146, 212, 10, 65, 871)",2,mbtiauth_1258
2223,"(441, 146, 212, 10, 65, 986)",2,mbtiauth_1258
2224,"(441, 146, 212, 10, 871, 986)",2,mbtiauth_1258
2225,"(441, 146, 212, 65, 871, 986)",2,mbtiauth_1258
2226,"(441, 212, 10, 65, 871, 986)",2,mbtiauth_1258
2227,"(911, 22, 132, 77, 212, 10)",2,mbtiauth_1258
2228,"(911, 22, 132, 146, 77, 10)",2,mbtiauth_1258
2229,"(911, 22, 132, 146, 77, 212)",2,mbtiauth_1258
2230,"(911, 22, 132, 146, 212, 10)",2,mbtiauth_1258
2231,"(911, 22, 146, 77, 212, 10)",2,mbtiauth_1258
2232,"(911, 132, 146, 77, 212, 10)",2,mbtiauth_1258
2233,"(911, 441, 22, 77, 212, 10)",2,mbtiauth_1258
2234,"(911, 441, 22, 132, 77, 10)",2,mbtiauth_1258
2235,"(911, 441, 22, 132, 77, 212)",2,mbtiauth_1258
2236,"(911, 441, 22, 132, 146, 10)",2,mbtiauth_1258
2237,"(911, 441, 22, 132, 146, 77)",2,mbtiauth_1258
2238,"(911, 441, 22, 132, 146, 212)",2,mbtiauth_1258
2239,"(911, 441, 22, 132, 212, 10)",2,mbtiauth_1258
2240,"(911, 441, 22, 146, 77, 10)",2,mbtiauth_1258
2241,"(911, 441, 22, 146, 77, 212)",2,mbtiauth_1258
2242,"(911, 441, 22, 146, 212, 10)",2,mbtiauth_1258
2243,"(911, 441, 132, 77, 212, 10)",2,mbtiauth_1258
2244,"(911, 441, 132, 146, 77, 10)",2,mbtiauth_1258
2245,"(911, 441, 132, 146, 77, 212)",2,mbtiauth_1258
2246,"(911, 441, 132, 146, 212, 10)",2,mbtiauth_1258
2247,"(911, 441, 146, 77, 212, 10)",2,mbtiauth_1258
2248,"(2, 22, 132, 77, 212, 10, 65)",2,mbtiauth_1258
2249,"(2, 22, 132, 146, 77, 10, 65)",2,mbtiauth_1258
2250,"(2, 22, 132, 146, 77, 212, 10)",2,mbtiauth_1258
2251,"(2, 22, 132, 146, 77, 212, 65)",2,mbtiauth_1258
2252,"(2, 22, 132, 146, 212, 10, 65)",2,mbtiauth_1258
2253,"(2, 22, 146, 77, 212, 10, 65)",2,mbtiauth_1258
2254,"(2, 132, 146, 77, 212, 10, 65)",2,mbtiauth_1258
2255,"(2, 441, 22, 77, 212, 10, 65)",2,mbtiauth_1258
2256,"(2, 441, 22, 132, 77, 10, 65)",2,mbtiauth_1258
2257,"(2, 441, 22, 132, 77, 212, 10)",2,mbtiauth_1258
2258,"(2, 441, 22, 132, 77, 212, 65)",2,mbtiauth_1258
2259,"(2, 441, 22, 132, 146, 10, 65)",2,mbtiauth_1258
2260,"(2, 441, 22, 132, 146, 77, 10)",2,mbtiauth_1258
2261,"(2, 441, 22, 132, 146, 77, 65)",2,mbtiauth_1258
2262,"(2, 441, 22, 132, 146, 77, 212)",2,mbtiauth_1258
2263,"(2, 441, 22, 132, 146, 212, 10)",2,mbtiauth_1258
2264,"(2, 441, 22, 132, 146, 212, 65)",2,mbtiauth_1258
2265,"(2, 441, 22, 132, 212, 10, 65)",2,mbtiauth_1258
2266,"(2, 441, 22, 146, 77, 10, 65)",2,mbtiauth_1258
2267,"(2, 441, 22, 146, 77, 212, 10)",2,mbtiauth_1258
2268,"(2, 441, 22, 146, 77, 212, 65)",2,mbtiauth_1258
2269,"(2, 441, 22, 146, 212, 10, 65)",2,mbtiauth_1258
2270,"(2, 441, 132, 77, 212, 10, 65)",2,mbtiauth_1258
2271,"(2, 441, 132, 146, 77, 10, 65)",2,mbtiauth_1258
2272,"(2, 441, 132, 146, 77, 212, 10)",2,mbtiauth_1258
2273,"(2, 441, 132, 146, 77, 212, 65)",2,mbtiauth_1258
2274,"(2, 441, 132, 146, 212, 10, 65)",2,mbtiauth_1258
2275,"(2, 441, 146, 77, 212, 10, 65)",2,mbtiauth_1258
2276,"(22, 77, 212, 10, 65, 871, 986)",2,mbtiauth_1258
2277,"(22, 132, 77, 10, 65, 871, 986)",2,mbtiauth_1258
2278,"(22, 132, 77, 212, 10, 65, 871)",2,mbtiauth_1258
2279,"(22, 132, 77, 212, 10, 65, 986)",2,mbtiauth_1258
2280,"(22, 132, 77, 212, 10, 871, 986)",2,mbtiauth_1258
2281,"(22, 132, 77, 212, 65, 871, 986)",2,mbtiauth_1258
2282,"(22, 132, 146, 10, 65, 871, 986)",2,mbtiauth_1258
2283,"(22, 132, 146, 77, 10, 65, 871)",2,mbtiauth_1258
2284,"(22, 132, 146, 77, 10, 65, 986)",2,mbtiauth_1258
2285,"(22, 132, 146, 77, 10, 871, 986)",2,mbtiauth_1258
2286,"(22, 132, 146, 77, 65, 871, 986)",2,mbtiauth_1258
2287,"(22, 132, 146, 77, 212, 10, 65)",2,mbtiauth_1258
2288,"(22, 132, 146, 77, 212, 10, 871)",2,mbtiauth_1258
2289,"(22, 132, 146, 77, 212, 10, 986)",2,mbtiauth_1258
2290,"(22, 132, 146, 77, 212, 65, 871)",2,mbtiauth_1258
2291,"(22, 132, 146, 77, 212, 65, 986)",2,mbtiauth_1258
2292,"(22, 132, 146, 77, 212, 871, 986)",2,mbtiauth_1258
2293,"(22, 132, 146, 212, 10, 65, 871)",2,mbtiauth_1258
2294,"(22, 132, 146, 212, 10, 65, 986)",2,mbtiauth_1258
2295,"(22, 132, 146, 212, 10, 871, 986)",2,mbtiauth_1258
2296,"(22, 132, 146, 212, 65, 871, 986)",2,mbtiauth_1258
2297,"(22, 132, 212, 10, 65, 871, 986)",2,mbtiauth_1258
2298,"(22, 146, 77, 10, 65, 871, 986)",2,mbtiauth_1258
2299,"(22, 146, 77, 212, 10, 65, 871)",2,mbtiauth_1258
2300,"(22, 146, 77, 212, 10, 65, 986)",2,mbtiauth_1258
2301,"(22, 146, 77, 212, 10, 871, 986)",2,mbtiauth_1258
2302,"(22, 146, 77, 212, 65, 871, 986)",2,mbtiauth_1258
2303,"(22, 146, 212, 10, 65, 871, 986)",2,mbtiauth_1258
2304,"(132, 77, 212, 10, 65, 871, 986)",2,mbtiauth_1258
2305,"(132, 146, 77, 10, 65, 871, 986)",2,mbtiauth_1258
2306,"(132, 146, 77, 212, 10, 65, 871)",2,mbtiauth_1258
2307,"(132, 146, 77, 212, 10, 65, 986)",2,mbtiauth_1258
2308,"(132, 146, 77, 212, 10, 871, 986)",2,mbtiauth_1258
2309,"(132, 146, 77, 212, 65, 871, 986)",2,mbtiauth_1258
2310,"(132, 146, 212, 10, 65, 871, 986)",2,mbtiauth_1258
2311,"(146, 77, 212, 10, 65, 871, 986)",2,mbtiauth_1258
2312,"(228, 22, 132, 146, 77, 212, 10)",2,mbtiauth_1258
2313,"(228, 441, 22, 132, 77, 212, 10)",2,mbtiauth_1258
2314,"(228, 441, 22, 132, 146, 77, 10)",2,mbtiauth_1258
2315,"(228, 441, 22, 132, 146, 77, 212)",2,mbtiauth_1258
2316,"(228, 441, 22, 132, 146, 212, 10)",2,mbtiauth_1258
2317,"(228, 441, 22, 146, 77, 212, 10)",2,mbtiauth_1258
2318,"(228, 441, 132, 146, 77, 212, 10)",2,mbtiauth_1258
2319,"(441, 22, 77, 10, 65, 871, 986)",2,mbtiauth_1258
2320,"(441, 22, 77, 212, 10, 65, 871)",2,mbtiauth_1258
2321,"(441, 22, 77, 212, 10, 65, 986)",2,mbtiauth_1258
2322,"(441, 22, 77, 212, 10, 871, 986)",2,mbtiauth_1258
2323,"(441, 22, 77, 212, 65, 871, 986)",2,mbtiauth_1258
2324,"(441, 22, 132, 10, 65, 871, 986)",2,mbtiauth_1258
2325,"(441, 22, 132, 77, 10, 65, 871)",2,mbtiauth_1258
2326,"(441, 22, 132, 77, 10, 65, 986)",2,mbtiauth_1258
2327,"(441, 22, 132, 77, 10, 871, 986)",2,mbtiauth_1258
2328,"(441, 22, 132, 77, 65, 871, 986)",2,mbtiauth_1258
2329,"(441, 22, 132, 77, 212, 10, 65)",2,mbtiauth_1258
2330,"(441, 22, 132, 77, 212, 10, 871)",2,mbtiauth_1258
2331,"(441, 22, 132, 77, 212, 10, 986)",2,mbtiauth_1258
2332,"(441, 22, 132, 77, 212, 65, 871)",2,mbtiauth_1258
2333,"(441, 22, 132, 77, 212, 65, 986)",2,mbtiauth_1258
2334,"(441, 22, 132, 77, 212, 871, 986)",2,mbtiauth_1258
2335,"(441, 22, 132, 146, 10, 65, 871)",2,mbtiauth_1258
2336,"(441, 22, 132, 146, 10, 65, 986)",2,mbtiauth_1258
2337,"(441, 22, 132, 146, 10, 871, 986)",2,mbtiauth_1258
2338,"(441, 22, 132, 146, 65, 871, 986)",2,mbtiauth_1258
2339,"(441, 22, 132, 146, 77, 10, 65)",2,mbtiauth_1258
2340,"(441, 22, 132, 146, 77, 10, 871)",2,mbtiauth_1258
2341,"(441, 22, 132, 146, 77, 10, 986)",2,mbtiauth_1258
2342,"(441, 22, 132, 146, 77, 65, 871)",2,mbtiauth_1258
2343,"(441, 22, 132, 146, 77, 65, 986)",2,mbtiauth_1258
2344,"(441, 22, 132, 146, 77, 212, 10)",2,mbtiauth_1258
2345,"(441, 22, 132, 146, 77, 212, 65)",2,mbtiauth_1258
2346,"(441, 22, 132, 146, 77, 212, 871)",2,mbtiauth_1258
2347,"(441, 22, 132, 146, 77, 212, 986)",2,mbtiauth_1258
2348,"(441, 22, 132, 146, 77, 871, 986)",2,mbtiauth_1258
2349,"(441, 22, 132, 146, 212, 10, 65)",2,mbtiauth_1258
2350,"(441, 22, 132, 146, 212, 10, 871)",2,mbtiauth_1258
2351,"(441, 22, 132, 146, 212, 10, 986)",2,mbtiauth_1258
2352,"(441, 22, 132, 146, 212, 65, 871)",2,mbtiauth_1258
2353,"(441, 22, 132, 146, 212, 65, 986)",2,mbtiauth_1258
2354,"(441, 22, 132, 146, 212, 871, 986)",2,mbtiauth_1258
2355,"(441, 22, 132, 212, 10, 65, 871)",2,mbtiauth_1258
2356,"(441, 22, 132, 212, 10, 65, 986)",2,mbtiauth_1258
2357,"(441, 22, 132, 212, 10, 871, 986)",2,mbtiauth_1258
2358,"(441, 22, 132, 212, 65, 871, 986)",2,mbtiauth_1258
2359,"(441, 22, 146, 10, 65, 871, 986)",2,mbtiauth_1258
2360,"(441, 22, 146, 77, 10, 65, 871)",2,mbtiauth_1258
2361,"(441, 22, 146, 77, 10, 65, 986)",2,mbtiauth_1258
2362,"(441, 22, 146, 77, 10, 871, 986)",2,mbtiauth_1258
2363,"(441, 22, 146, 77, 65, 871, 986)",2,mbtiauth_1258
2364,"(441, 22, 146, 77, 212, 10, 65)",2,mbtiauth_1258
2365,"(441, 22, 146, 77, 212, 10, 871)",2,mbtiauth_1258
2366,"(441, 22, 146, 77, 212, 10, 986)",2,mbtiauth_1258
2367,"(441, 22, 146, 77, 212, 65, 871)",2,mbtiauth_1258
2368,"(441, 22, 146, 77, 212, 65, 986)",2,mbtiauth_1258
2369,"(441, 22, 146, 77, 212, 871, 986)",2,mbtiauth_1258
2370,"(441, 22, 146, 212, 10, 65, 871)",2,mbtiauth_1258
2371,"(441, 22, 146, 212, 10, 65, 986)",2,mbtiauth_1258
2372,"(441, 22, 146, 212, 10, 871, 986)",2,mbtiauth_1258
2373,"(441, 22, 146, 212, 65, 871, 986)",2,mbtiauth_1258
2374,"(441, 22, 212, 10, 65, 871, 986)",2,mbtiauth_1258
2375,"(441, 77, 212, 10, 65, 871, 986)",2,mbtiauth_1258
2376,"(441, 132, 77, 10, 65, 871, 986)",2,mbtiauth_1258
2377,"(441, 132, 77, 212, 10, 65, 871)",2,mbtiauth_1258
2378,"(441, 132, 77, 212, 10, 65, 986)",2,mbtiauth_1258
2379,"(441, 132, 77, 212, 10, 871, 986)",2,mbtiauth_1258
2380,"(441, 132, 77, 212, 65, 871, 986)",2,mbtiauth_1258
2381,"(441, 132, 146, 10, 65, 871, 986)",2,mbtiauth_1258
2382,"(441, 132, 146, 77, 10, 65, 871)",2,mbtiauth_1258
2383,"(441, 132, 146, 77, 10, 65, 986)",2,mbtiauth_1258
2384,"(441, 132, 146, 77, 10, 871, 986)",2,mbtiauth_1258
2385,"(441, 132, 146, 77, 65, 871, 986)",2,mbtiauth_1258
2386,"(441, 132, 146, 77, 212, 10, 65)",2,mbtiauth_1258
2387,"(441, 132, 146, 77, 212, 10, 871)",2,mbtiauth_1258
2388,"(441, 132, 146, 77, 212, 10, 986)",2,mbtiauth_1258
2389,"(441, 132, 146, 77, 212, 65, 871)",2,mbtiauth_1258
2390,"(441, 132, 146, 77, 212, 65, 986)",2,mbtiauth_1258
2391,"(441, 132, 146, 77, 212, 871, 986)",2,mbtiauth_1258
2392,"(441, 132, 146, 212, 10, 65, 871)",2,mbtiauth_1258
2393,"(441, 132, 146, 212, 10, 65, 986)",2,mbtiauth_1258
2394,"(441, 132, 146, 212, 10, 871, 986)",2,mbtiauth_1258
2395,"(441, 132, 146, 212, 65, 871, 986)",2,mbtiauth_1258
2396,"(441, 132, 212, 10, 65, 871, 986)",2,mbtiauth_1258
2397,"(441, 146, 77, 10, 65, 871, 986)",2,mbtiauth_1258
2398,"(441, 146, 77, 212, 10, 65, 871)",2,mbtiauth_1258
2399,"(441, 146, 77, 212, 10, 65, 986)",2,mbtiauth_1258
2400,"(441, 146, 77, 212, 10, 871, 986)",2,mbtiauth_1258
2401,"(441, 146, 77, 212, 65, 871, 986)",2,mbtiauth_1258
2402,"(441, 146, 212, 10, 65, 871, 986)",2,mbtiauth_1258
2403,"(911, 22, 132, 146, 77, 212, 10)",2,mbtiauth_1258
2404,"(911, 441, 22, 132, 77, 212, 10)",2,mbtiauth_1258
2405,"(911, 441, 22, 132, 146, 77, 10)",2,mbtiauth_1258
2406,"(911, 441, 22, 132, 146, 77, 212)",2,mbtiauth_1258
2407,"(911, 441, 22, 132, 146, 212, 10)",2,mbtiauth_1258
2408,"(911, 441, 22, 146, 77, 212, 10)",2,mbtiauth_1258
2409,"(911, 441, 132, 146, 77, 212, 10)",2,mbtiauth_1258
2410,"(2, 22, 132, 146, 77, 212, 10, 65)",2,mbtiauth_1258
2411,"(2, 441, 22, 132, 77, 212, 10, 65)",2,mbtiauth_1258
2412,"(2, 441, 22, 132, 146, 77, 10, 65)",2,mbtiauth_1258
2413,"(2, 441, 22, 132, 146, 77, 212, 10)",2,mbtiauth_1258
2414,"(2, 441, 22, 132, 146, 77, 212, 65)",2,mbtiauth_1258
2415,"(2, 441, 22, 132, 146, 212, 10, 65)",2,mbtiauth_1258
2416,"(2, 441, 22, 146, 77, 212, 10, 65)",2,mbtiauth_1258
2417,"(2, 441, 132, 146, 77, 212, 10, 65)",2,mbtiauth_1258
2418,"(22, 132, 77, 212, 10, 65, 871, 986)",2,mbtiauth_1258
2419,"(22, 132, 146, 77, 10, 65, 871, 986)",2,mbtiauth_1258
2420,"(22, 132, 146, 77, 212, 10, 65, 871)",2,mbtiauth_1258
2421,"(22, 132, 146, 77, 212, 10, 65, 986)",2,mbtiauth_1258
2422,"(22, 132, 146, 77, 212, 10, 871, 986)",2,mbtiauth_1258
2423,"(22, 132, 146, 77, 212, 65, 871, 986)",2,mbtiauth_1258
2424,"(22, 132, 146, 212, 10, 65, 871, 986)",2,mbtiauth_1258
2425,"(22, 146, 77, 212, 10, 65, 871, 986)",2,mbtiauth_1258
2426,"(132, 146, 77, 212, 10, 65, 871, 986)",2,mbtiauth_1258
2427,"(228, 441, 22, 132, 146, 77, 212, 10)",2,mbtiauth_1258
2428,"(441, 22, 77, 212, 10, 65, 871, 986)",2,mbtiauth_1258
2429,"(441, 22, 132, 77, 10, 65, 871, 986)",2,mbtiauth_1258
2430,"(441, 22, 132, 77, 212, 10, 65, 871)",2,mbtiauth_1258
2431,"(441, 22, 132, 77, 212, 10, 65, 986)",2,mbtiauth_1258
2432,"(441, 22, 132, 77, 212, 10, 871, 986)",2,mbtiauth_1258
2433,"(441, 22, 132, 77, 212, 65, 871, 986)",2,mbtiauth_1258
2434,"(441, 22, 132, 146, 10, 65, 871, 986)",2,mbtiauth_1258
2435,"(441, 22, 132, 146, 77, 10, 65, 871)",2,mbtiauth_1258
2436,"(441, 22, 132, 146, 77, 10, 65, 986)",2,mbtiauth_1258
2437,"(441, 22, 132, 146, 77, 10, 871, 986)",2,mbtiauth_1258
2438,"(441, 22, 132, 146, 77, 65, 871, 986)",2,mbtiauth_1258
2439,"(441, 22, 132, 146, 77, 212, 10, 65)",2,mbtiauth_1258
2440,"(441, 22, 132, 146, 77, 212, 10, 871)",2,mbtiauth_1258
2441,"(441, 22, 132, 146, 77, 212, 10, 986)",2,mbtiauth_1258
2442,"(441, 22, 132, 146, 77, 212, 65, 871)",2,mbtiauth_1258
2443,"(441, 22, 132, 146, 77, 212, 65, 986)",2,mbtiauth_1258
2444,"(441, 22, 132, 146, 77, 212, 871, 986)",2,mbtiauth_1258
2445,"(441, 22, 132, 146, 212, 10, 65, 871)",2,mbtiauth_1258
2446,"(441, 22, 132, 146, 212, 10, 65, 986)",2,mbtiauth_1258
2447,"(441, 22, 132, 146, 212, 10, 871, 986)",2,mbtiauth_1258
2448,"(441, 22, 132, 146, 212, 65, 871, 986)",2,mbtiauth_1258
2449,"(441, 22, 132, 212, 10, 65, 871, 986)",2,mbtiauth_1258
2450,"(441, 22, 146, 77, 10, 65, 871, 986)",2,mbtiauth_1258
2451,"(441, 22, 146, 77, 212, 10, 65, 871)",2,mbtiauth_1258
2452,"(441, 22, 146, 77, 212, 10, 65, 986)",2,mbtiauth_1258
2453,"(441, 22, 146, 77, 212, 10, 871, 986)",2,mbtiauth_1258
2454,"(441, 22, 146, 77, 212, 65, 871, 986)",2,mbtiauth_1258
2455,"(441, 22, 146, 212, 10, 65, 871, 986)",2,mbtiauth_1258
2456,"(441, 132, 77, 212, 10, 65, 871, 986)",2,mbtiauth_1258
2457,"(441, 132, 146, 77, 10, 65, 871, 986)",2,mbtiauth_1258
2458,"(441, 132, 146, 77, 212, 10, 65, 871)",2,mbtiauth_1258
2459,"(441, 132, 146, 77, 212, 10, 65, 986)",2,mbtiauth_1258
2460,"(441, 132, 146, 77, 212, 10, 871, 986)",2,mbtiauth_1258
2461,"(441, 132, 146, 77, 212, 65, 871, 986)",2,mbtiauth_1258
2462,"(441, 132, 146, 212, 10, 65, 871, 986)",2,mbtiauth_1258
2463,"(441, 146, 77, 212, 10, 65, 871, 986)",2,mbtiauth_1258
2464,"(911, 441, 22, 132, 146, 77, 212, 10)",2,mbtiauth_1258
2465,"(2, 441, 22, 132, 146, 77, 212, 10, 65)",2,mbtiauth_1258
2466,"(22, 132, 146, 77, 212, 10, 65, 871, 986)",2,mbtiauth_1258
2467,"(441, 22, 132, 77, 212, 10, 65, 871, 986)",2,mbtiauth_1258
2468,"(441, 22, 132, 146, 77, 10, 65, 871, 986)",2,mbtiauth_1258
2469,"(441, 22, 132, 146, 77, 212, 10, 65, 871)",2,mbtiauth_1258
2470,"(441, 22, 132, 146, 77, 212, 10, 65, 986)",2,mbtiauth_1258
2471,"(441, 22, 132, 146, 77, 212, 10, 871, 986)",2,mbtiauth_1258
2472,"(441, 22, 132, 146, 77, 212, 65, 871, 986)",2,mbtiauth_1258
2473,"(441, 22, 132, 146, 212, 10, 65, 871, 986)",2,mbtiauth_1258
2474,"(441, 22, 146, 77, 212, 10, 65, 871, 986)",2,mbtiauth_1258
2475,"(441, 132, 146, 77, 212, 10, 65, 871, 986)",2,mbtiauth_1258
2476,"(441, 22, 132, 146, 77, 212, 10, 65, 871, 986)",2,mbtiauth_1258
