,pattern,sup,author
861,"(2, 22, 32)",2,mbtiauth_2655
862,"(2, 22, 64)",3,mbtiauth_2655
863,"(2, 22, 123)",3,mbtiauth_2655
864,"(2, 22, 170)",2,mbtiauth_2655
865,"(2, 27, 123)",2,mbtiauth_2655
866,"(2, 77, 22)",2,mbtiauth_2655
867,"(2, 123, 64)",2,mbtiauth_2655
868,"(2, 123, 65)",2,mbtiauth_2655
869,"(2, 123, 174)",2,mbtiauth_2655
870,"(2, 123, 441)",2,mbtiauth_2655
871,"(2, 425, 64)",2,mbtiauth_2655
872,"(10, 50, 64)",2,mbtiauth_2655
873,"(22, 2, 65)",2,mbtiauth_2655
874,"(22, 2, 77)",2,mbtiauth_2655
875,"(22, 27, 123)",2,mbtiauth_2655
876,"(22, 32, 22)",2,mbtiauth_2655
877,"(22, 32, 64)",2,mbtiauth_2655
878,"(22, 64, 50)",2,mbtiauth_2655
879,"(22, 64, 64)",2,mbtiauth_2655
880,"(22, 64, 222)",2,mbtiauth_2655
881,"(22, 64, 1217)",2,mbtiauth_2655
882,"(22, 65, 77)",2,mbtiauth_2655
883,"(22, 77, 123)",2,mbtiauth_2655
884,"(22, 77, 174)",2,mbtiauth_2655
885,"(22, 77, 599)",5,mbtiauth_2655
886,"(22, 123, 32)",2,mbtiauth_2655
887,"(22, 123, 170)",4,mbtiauth_2655
888,"(22, 123, 174)",2,mbtiauth_2655
889,"(22, 123, 356)",2,mbtiauth_2655
890,"(22, 145, 213)",2,mbtiauth_2655
891,"(22, 170, 27)",2,mbtiauth_2655
892,"(22, 222, 65)",2,mbtiauth_2655
893,"(22, 228, 64)",2,mbtiauth_2655
894,"(22, 228, 65)",2,mbtiauth_2655
895,"(22, 228, 77)",3,mbtiauth_2655
896,"(22, 228, 123)",3,mbtiauth_2655
897,"(22, 228, 222)",3,mbtiauth_2655
898,"(22, 228, 599)",2,mbtiauth_2655
899,"(22, 291, 170)",2,mbtiauth_2655
900,"(22, 383, 32)",2,mbtiauth_2655
901,"(22, 599, 123)",2,mbtiauth_2655
902,"(22, 599, 174)",2,mbtiauth_2655
903,"(22, 1217, 64)",3,mbtiauth_2655
904,"(22, 1217, 222)",2,mbtiauth_2655
905,"(22, 1669, 41)",2,mbtiauth_2655
906,"(27, 41, 64)",3,mbtiauth_2655
907,"(27, 41, 183)",3,mbtiauth_2655
908,"(27, 41, 656)",2,mbtiauth_2655
909,"(27, 123, 123)",3,mbtiauth_2655
910,"(27, 123, 144)",2,mbtiauth_2655
911,"(27, 123, 165)",2,mbtiauth_2655
912,"(27, 123, 174)",3,mbtiauth_2655
913,"(27, 123, 326)",3,mbtiauth_2655
914,"(27, 123, 630)",3,mbtiauth_2655
915,"(27, 123, 683)",3,mbtiauth_2655
916,"(27, 165, 144)",2,mbtiauth_2655
917,"(27, 174, 326)",3,mbtiauth_2655
918,"(27, 174, 683)",3,mbtiauth_2655
919,"(27, 183, 64)",2,mbtiauth_2655
920,"(27, 183, 656)",2,mbtiauth_2655
921,"(27, 326, 683)",3,mbtiauth_2655
922,"(27, 630, 123)",3,mbtiauth_2655
923,"(27, 630, 174)",3,mbtiauth_2655
924,"(27, 630, 326)",3,mbtiauth_2655
925,"(27, 630, 683)",3,mbtiauth_2655
926,"(27, 656, 64)",2,mbtiauth_2655
927,"(32, 22, 64)",2,mbtiauth_2655
928,"(32, 22, 123)",2,mbtiauth_2655
929,"(32, 33, 50)",2,mbtiauth_2655
930,"(32, 50, 77)",2,mbtiauth_2655
931,"(32, 123, 543)",2,mbtiauth_2655
932,"(32, 225, 123)",2,mbtiauth_2655
933,"(32, 233, 533)",2,mbtiauth_2655
934,"(32, 1927, 77)",2,mbtiauth_2655
935,"(33, 77, 2)",2,mbtiauth_2655
936,"(33, 77, 599)",2,mbtiauth_2655
937,"(41, 154, 123)",2,mbtiauth_2655
938,"(41, 183, 64)",3,mbtiauth_2655
939,"(41, 183, 656)",2,mbtiauth_2655
940,"(41, 441, 64)",2,mbtiauth_2655
941,"(41, 656, 64)",2,mbtiauth_2655
942,"(63, 123, 174)",2,mbtiauth_2655
943,"(63, 123, 1034)",2,mbtiauth_2655
944,"(64, 2, 120)",2,mbtiauth_2655
945,"(64, 2, 365)",2,mbtiauth_2655
946,"(64, 2, 1160)",2,mbtiauth_2655
947,"(64, 41, 183)",2,mbtiauth_2655
948,"(64, 65, 120)",2,mbtiauth_2655
949,"(64, 65, 123)",2,mbtiauth_2655
950,"(64, 77, 599)",2,mbtiauth_2655
951,"(64, 123, 120)",2,mbtiauth_2655
952,"(64, 123, 174)",2,mbtiauth_2655
953,"(64, 144, 164)",2,mbtiauth_2655
954,"(64, 656, 64)",2,mbtiauth_2655
955,"(64, 1217, 64)",2,mbtiauth_2655
956,"(65, 2, 123)",2,mbtiauth_2655
957,"(65, 22, 1261)",2,mbtiauth_2655
958,"(65, 32, 22)",2,mbtiauth_2655
959,"(65, 32, 50)",2,mbtiauth_2655
960,"(65, 120, 64)",2,mbtiauth_2655
961,"(65, 123, 64)",2,mbtiauth_2655
962,"(65, 123, 120)",2,mbtiauth_2655
963,"(65, 720, 22)",2,mbtiauth_2655
964,"(65, 755, 2)",2,mbtiauth_2655
965,"(65, 1331, 32)",2,mbtiauth_2655
966,"(65, 1331, 50)",2,mbtiauth_2655
967,"(65, 2109, 4553)",2,mbtiauth_2655
968,"(77, 22, 123)",2,mbtiauth_2655
969,"(77, 27, 123)",2,mbtiauth_2655
970,"(77, 77, 2)",3,mbtiauth_2655
971,"(77, 123, 2)",2,mbtiauth_2655
972,"(77, 123, 120)",2,mbtiauth_2655
973,"(77, 123, 174)",2,mbtiauth_2655
974,"(77, 123, 212)",2,mbtiauth_2655
975,"(77, 236, 120)",2,mbtiauth_2655
976,"(77, 236, 123)",2,mbtiauth_2655
977,"(77, 599, 2)",3,mbtiauth_2655
978,"(77, 599, 16)",2,mbtiauth_2655
979,"(77, 599, 22)",3,mbtiauth_2655
980,"(77, 599, 27)",2,mbtiauth_2655
981,"(77, 599, 41)",2,mbtiauth_2655
982,"(77, 599, 120)",2,mbtiauth_2655
983,"(77, 599, 123)",8,mbtiauth_2655
984,"(77, 599, 164)",2,mbtiauth_2655
985,"(77, 599, 170)",2,mbtiauth_2655
986,"(77, 599, 174)",2,mbtiauth_2655
987,"(77, 599, 212)",2,mbtiauth_2655
988,"(77, 599, 222)",2,mbtiauth_2655
989,"(77, 599, 236)",2,mbtiauth_2655
990,"(78, 65, 365)",2,mbtiauth_2655
991,"(120, 27, 41)",2,mbtiauth_2655
992,"(120, 27, 183)",2,mbtiauth_2655
993,"(120, 41, 183)",2,mbtiauth_2655
994,"(120, 123, 174)",2,mbtiauth_2655
995,"(120, 236, 123)",2,mbtiauth_2655
996,"(120, 236, 174)",2,mbtiauth_2655
997,"(120, 1034, 27)",2,mbtiauth_2655
998,"(120, 1034, 41)",2,mbtiauth_2655
999,"(120, 1034, 183)",2,mbtiauth_2655
1000,"(123, 2, 22)",2,mbtiauth_2655
1001,"(123, 2, 123)",2,mbtiauth_2655
1002,"(123, 10, 65)",2,mbtiauth_2655
1003,"(123, 10, 219)",2,mbtiauth_2655
1004,"(123, 22, 64)",3,mbtiauth_2655
1005,"(123, 22, 154)",2,mbtiauth_2655
1006,"(123, 22, 228)",3,mbtiauth_2655
1007,"(123, 22, 291)",2,mbtiauth_2655
1008,"(123, 27, 41)",3,mbtiauth_2655
1009,"(123, 27, 64)",2,mbtiauth_2655
1010,"(123, 27, 183)",3,mbtiauth_2655
1011,"(123, 27, 656)",2,mbtiauth_2655
1012,"(123, 32, 22)",2,mbtiauth_2655
1013,"(123, 32, 33)",2,mbtiauth_2655
1014,"(123, 32, 50)",2,mbtiauth_2655
1015,"(123, 32, 77)",2,mbtiauth_2655
1016,"(123, 33, 50)",2,mbtiauth_2655
1017,"(123, 33, 77)",3,mbtiauth_2655
1018,"(123, 41, 64)",4,mbtiauth_2655
1019,"(123, 41, 183)",3,mbtiauth_2655
1020,"(123, 41, 656)",2,mbtiauth_2655
1021,"(123, 50, 2)",2,mbtiauth_2655
1022,"(123, 50, 33)",2,mbtiauth_2655
1023,"(123, 63, 123)",2,mbtiauth_2655
1024,"(123, 64, 2)",4,mbtiauth_2655
1025,"(123, 64, 22)",3,mbtiauth_2655
1026,"(123, 64, 41)",2,mbtiauth_2655
1027,"(123, 64, 50)",3,mbtiauth_2655
1028,"(123, 64, 65)",3,mbtiauth_2655
1029,"(123, 64, 67)",2,mbtiauth_2655
1030,"(123, 64, 123)",3,mbtiauth_2655
1031,"(123, 64, 144)",2,mbtiauth_2655
1032,"(123, 64, 154)",2,mbtiauth_2655
1033,"(123, 64, 262)",2,mbtiauth_2655
1034,"(123, 64, 441)",3,mbtiauth_2655
1035,"(123, 64, 1034)",2,mbtiauth_2655
1036,"(123, 64, 1281)",2,mbtiauth_2655
1037,"(123, 65, 22)",3,mbtiauth_2655
1038,"(123, 65, 32)",2,mbtiauth_2655
1039,"(123, 65, 48)",2,mbtiauth_2655
1040,"(123, 65, 138)",2,mbtiauth_2655
1041,"(123, 65, 152)",2,mbtiauth_2655
1042,"(123, 65, 225)",2,mbtiauth_2655
1043,"(123, 65, 547)",2,mbtiauth_2655
1044,"(123, 65, 671)",2,mbtiauth_2655
1045,"(123, 65, 2109)",2,mbtiauth_2655
1046,"(123, 65, 4553)",2,mbtiauth_2655
1047,"(123, 77, 22)",2,mbtiauth_2655
1048,"(123, 77, 599)",6,mbtiauth_2655
1049,"(123, 78, 246)",2,mbtiauth_2655
1050,"(123, 83, 64)",3,mbtiauth_2655
1051,"(123, 120, 27)",2,mbtiauth_2655
1052,"(123, 120, 41)",2,mbtiauth_2655
1053,"(123, 120, 50)",2,mbtiauth_2655
1054,"(123, 120, 64)",3,mbtiauth_2655
1055,"(123, 120, 123)",2,mbtiauth_2655
1056,"(123, 120, 174)",2,mbtiauth_2655
1057,"(123, 120, 183)",2,mbtiauth_2655
1058,"(123, 120, 236)",2,mbtiauth_2655
1059,"(123, 120, 1034)",2,mbtiauth_2655
1060,"(123, 123, 48)",2,mbtiauth_2655
1061,"(123, 123, 65)",3,mbtiauth_2655
1062,"(123, 123, 174)",8,mbtiauth_2655
1063,"(123, 123, 193)",2,mbtiauth_2655
1064,"(123, 123, 285)",2,mbtiauth_2655
1065,"(123, 123, 326)",4,mbtiauth_2655
1066,"(123, 123, 683)",3,mbtiauth_2655
1067,"(123, 123, 965)",2,mbtiauth_2655
1068,"(123, 154, 123)",2,mbtiauth_2655
1069,"(123, 160, 2)",2,mbtiauth_2655
1070,"(123, 160, 64)",4,mbtiauth_2655
1071,"(123, 165, 144)",2,mbtiauth_2655
1072,"(123, 170, 15)",2,mbtiauth_2655
1073,"(123, 174, 10)",2,mbtiauth_2655
1074,"(123, 174, 16)",2,mbtiauth_2655
1075,"(123, 174, 22)",3,mbtiauth_2655
1076,"(123, 174, 27)",2,mbtiauth_2655
1077,"(123, 174, 32)",3,mbtiauth_2655
1078,"(123, 174, 41)",3,mbtiauth_2655
1079,"(123, 174, 48)",4,mbtiauth_2655
1080,"(123, 174, 63)",2,mbtiauth_2655
1081,"(123, 174, 64)",3,mbtiauth_2655
1082,"(123, 174, 65)",5,mbtiauth_2655
1083,"(123, 174, 77)",2,mbtiauth_2655
1084,"(123, 174, 123)",5,mbtiauth_2655
1085,"(123, 174, 174)",2,mbtiauth_2655
1086,"(123, 174, 212)",3,mbtiauth_2655
1087,"(123, 174, 262)",3,mbtiauth_2655
1088,"(123, 174, 326)",5,mbtiauth_2655
1089,"(123, 174, 599)",2,mbtiauth_2655
1090,"(123, 174, 656)",2,mbtiauth_2655
1091,"(123, 174, 683)",3,mbtiauth_2655
1092,"(123, 174, 965)",2,mbtiauth_2655
1093,"(123, 174, 1034)",2,mbtiauth_2655
1094,"(123, 183, 64)",2,mbtiauth_2655
1095,"(123, 183, 656)",2,mbtiauth_2655
1096,"(123, 193, 22)",3,mbtiauth_2655
1097,"(123, 193, 32)",2,mbtiauth_2655
1098,"(123, 193, 64)",2,mbtiauth_2655
1099,"(123, 193, 65)",3,mbtiauth_2655
1100,"(123, 193, 206)",2,mbtiauth_2655
1101,"(123, 193, 441)",2,mbtiauth_2655
1102,"(123, 206, 2)",3,mbtiauth_2655
1103,"(123, 206, 22)",2,mbtiauth_2655
1104,"(123, 206, 64)",2,mbtiauth_2655
1105,"(123, 206, 65)",3,mbtiauth_2655
1106,"(123, 206, 123)",2,mbtiauth_2655
1107,"(123, 206, 212)",2,mbtiauth_2655
1108,"(123, 212, 2)",2,mbtiauth_2655
1109,"(123, 212, 64)",4,mbtiauth_2655
1110,"(123, 212, 123)",2,mbtiauth_2655
1111,"(123, 212, 167)",2,mbtiauth_2655
1112,"(123, 212, 656)",2,mbtiauth_2655
1113,"(123, 236, 123)",2,mbtiauth_2655
1114,"(123, 236, 174)",2,mbtiauth_2655
1115,"(123, 254, 123)",3,mbtiauth_2655
1116,"(123, 260, 123)",2,mbtiauth_2655
1117,"(123, 286, 64)",2,mbtiauth_2655
1118,"(123, 286, 65)",2,mbtiauth_2655
1119,"(123, 322, 77)",2,mbtiauth_2655
1120,"(123, 326, 48)",2,mbtiauth_2655
1121,"(123, 326, 683)",3,mbtiauth_2655
1122,"(123, 340, 48)",2,mbtiauth_2655
1123,"(123, 340, 77)",2,mbtiauth_2655
1124,"(123, 340, 123)",2,mbtiauth_2655
1125,"(123, 356, 65)",2,mbtiauth_2655
1126,"(123, 356, 77)",2,mbtiauth_2655
1127,"(123, 383, 32)",2,mbtiauth_2655
1128,"(123, 383, 77)",2,mbtiauth_2655
1129,"(123, 441, 22)",3,mbtiauth_2655
1130,"(123, 441, 64)",2,mbtiauth_2655
1131,"(123, 441, 65)",2,mbtiauth_2655
1132,"(123, 441, 123)",2,mbtiauth_2655
1133,"(123, 441, 164)",3,mbtiauth_2655
1134,"(123, 441, 170)",2,mbtiauth_2655
1135,"(123, 441, 657)",2,mbtiauth_2655
1136,"(123, 441, 693)",2,mbtiauth_2655
1137,"(123, 441, 2109)",2,mbtiauth_2655
1138,"(123, 441, 4553)",2,mbtiauth_2655
1139,"(123, 529, 32)",2,mbtiauth_2655
1140,"(123, 529, 174)",2,mbtiauth_2655
1141,"(123, 529, 431)",2,mbtiauth_2655
1142,"(123, 630, 123)",3,mbtiauth_2655
1143,"(123, 630, 174)",3,mbtiauth_2655
1144,"(123, 630, 326)",3,mbtiauth_2655
1145,"(123, 630, 683)",3,mbtiauth_2655
1146,"(123, 638, 65)",2,mbtiauth_2655
1147,"(123, 656, 64)",5,mbtiauth_2655
1148,"(123, 965, 326)",2,mbtiauth_2655
1149,"(123, 1034, 27)",2,mbtiauth_2655
1150,"(123, 1034, 41)",2,mbtiauth_2655
1151,"(123, 1034, 183)",2,mbtiauth_2655
1152,"(123, 1321, 291)",2,mbtiauth_2655
1153,"(123, 2109, 4553)",2,mbtiauth_2655
1154,"(127, 228, 64)",2,mbtiauth_2655
1155,"(144, 41, 64)",2,mbtiauth_2655
1156,"(144, 123, 174)",2,mbtiauth_2655
1157,"(152, 123, 174)",2,mbtiauth_2655
1158,"(154, 123, 65)",2,mbtiauth_2655
1159,"(160, 64, 2)",2,mbtiauth_2655
1160,"(162, 123, 65)",2,mbtiauth_2655
1161,"(162, 154, 65)",2,mbtiauth_2655
1162,"(162, 154, 123)",2,mbtiauth_2655
1163,"(170, 27, 123)",2,mbtiauth_2655
1164,"(171, 54, 123)",2,mbtiauth_2655
1165,"(171, 123, 33)",2,mbtiauth_2655
1166,"(174, 27, 41)",2,mbtiauth_2655
1167,"(174, 41, 64)",2,mbtiauth_2655
1168,"(174, 48, 164)",2,mbtiauth_2655
1169,"(174, 63, 123)",2,mbtiauth_2655
1170,"(174, 65, 32)",2,mbtiauth_2655
1171,"(174, 77, 599)",2,mbtiauth_2655
1172,"(174, 123, 65)",2,mbtiauth_2655
1173,"(174, 123, 174)",2,mbtiauth_2655
1174,"(174, 326, 48)",2,mbtiauth_2655
1175,"(174, 326, 683)",3,mbtiauth_2655
1176,"(174, 656, 64)",2,mbtiauth_2655
1177,"(174, 965, 326)",2,mbtiauth_2655
1178,"(183, 656, 64)",2,mbtiauth_2655
1179,"(189, 123, 183)",2,mbtiauth_2655
1180,"(193, 22, 22)",2,mbtiauth_2655
1181,"(193, 22, 32)",2,mbtiauth_2655
1182,"(193, 32, 22)",2,mbtiauth_2655
1183,"(193, 41, 441)",2,mbtiauth_2655
1184,"(193, 64, 22)",3,mbtiauth_2655
1185,"(193, 64, 144)",2,mbtiauth_2655
1186,"(193, 64, 164)",2,mbtiauth_2655
1187,"(193, 77, 599)",2,mbtiauth_2655
1188,"(193, 144, 164)",2,mbtiauth_2655
1189,"(193, 206, 22)",2,mbtiauth_2655
1190,"(193, 441, 22)",3,mbtiauth_2655
1191,"(193, 441, 64)",2,mbtiauth_2655
1192,"(193, 441, 164)",2,mbtiauth_2655
1193,"(193, 701, 41)",2,mbtiauth_2655
1194,"(206, 212, 2)",2,mbtiauth_2655
1195,"(212, 656, 64)",2,mbtiauth_2655
1196,"(222, 2, 123)",2,mbtiauth_2655
1197,"(222, 2, 174)",2,mbtiauth_2655
1198,"(222, 77, 599)",2,mbtiauth_2655
1199,"(222, 123, 2)",2,mbtiauth_2655
1200,"(222, 123, 174)",2,mbtiauth_2655
1201,"(225, 77, 2)",2,mbtiauth_2655
1202,"(228, 2, 32)",2,mbtiauth_2655
1203,"(228, 22, 32)",2,mbtiauth_2655
1204,"(228, 77, 599)",2,mbtiauth_2655
1205,"(228, 222, 65)",2,mbtiauth_2655
1206,"(236, 77, 123)",2,mbtiauth_2655
1207,"(236, 77, 236)",2,mbtiauth_2655
1208,"(236, 77, 599)",3,mbtiauth_2655
1209,"(236, 123, 174)",3,mbtiauth_2655
1210,"(236, 222, 123)",2,mbtiauth_2655
1211,"(236, 599, 123)",2,mbtiauth_2655
1212,"(236, 599, 236)",2,mbtiauth_2655
1213,"(246, 41, 123)",2,mbtiauth_2655
1214,"(246, 41, 154)",2,mbtiauth_2655
1215,"(246, 123, 41)",2,mbtiauth_2655
1216,"(246, 123, 64)",2,mbtiauth_2655
1217,"(246, 123, 123)",2,mbtiauth_2655
1218,"(246, 123, 441)",2,mbtiauth_2655
1219,"(246, 154, 123)",3,mbtiauth_2655
1220,"(246, 162, 123)",2,mbtiauth_2655
1221,"(246, 162, 154)",2,mbtiauth_2655
1222,"(254, 123, 2)",2,mbtiauth_2655
1223,"(262, 65, 671)",2,mbtiauth_2655
1224,"(285, 10, 65)",2,mbtiauth_2655
1225,"(285, 32, 22)",2,mbtiauth_2655
1226,"(291, 77, 599)",2,mbtiauth_2655
1227,"(356, 123, 65)",2,mbtiauth_2655
1228,"(383, 32, 50)",2,mbtiauth_2655
1229,"(383, 32, 77)",3,mbtiauth_2655
1230,"(383, 32, 1927)",2,mbtiauth_2655
1231,"(383, 50, 77)",2,mbtiauth_2655
1232,"(383, 1927, 77)",2,mbtiauth_2655
1233,"(441, 64, 22)",2,mbtiauth_2655
1234,"(441, 65, 2109)",2,mbtiauth_2655
1235,"(441, 65, 4553)",2,mbtiauth_2655
1236,"(441, 123, 64)",2,mbtiauth_2655
1237,"(441, 123, 160)",2,mbtiauth_2655
1238,"(441, 160, 64)",2,mbtiauth_2655
1239,"(441, 164, 123)",2,mbtiauth_2655
1240,"(441, 2109, 4553)",2,mbtiauth_2655
1241,"(572, 77, 599)",2,mbtiauth_2655
1242,"(599, 22, 170)",2,mbtiauth_2655
1243,"(599, 27, 41)",2,mbtiauth_2655
1244,"(599, 27, 123)",2,mbtiauth_2655
1245,"(599, 27, 183)",2,mbtiauth_2655
1246,"(599, 41, 183)",2,mbtiauth_2655
1247,"(599, 123, 2)",2,mbtiauth_2655
1248,"(599, 123, 27)",3,mbtiauth_2655
1249,"(599, 123, 41)",2,mbtiauth_2655
1250,"(599, 123, 64)",2,mbtiauth_2655
1251,"(599, 123, 120)",2,mbtiauth_2655
1252,"(599, 123, 174)",3,mbtiauth_2655
1253,"(599, 123, 183)",2,mbtiauth_2655
1254,"(599, 123, 193)",2,mbtiauth_2655
1255,"(599, 123, 206)",2,mbtiauth_2655
1256,"(599, 123, 212)",2,mbtiauth_2655
1257,"(599, 236, 123)",2,mbtiauth_2655
1258,"(630, 123, 174)",3,mbtiauth_2655
1259,"(630, 123, 326)",3,mbtiauth_2655
1260,"(630, 123, 683)",3,mbtiauth_2655
1261,"(630, 174, 326)",3,mbtiauth_2655
1262,"(630, 174, 683)",3,mbtiauth_2655
1263,"(630, 326, 683)",3,mbtiauth_2655
1264,"(703, 2, 123)",2,mbtiauth_2655
1265,"(703, 2, 441)",2,mbtiauth_2655
1266,"(703, 123, 441)",3,mbtiauth_2655
1267,"(848, 64, 22)",2,mbtiauth_2655
1268,"(848, 441, 22)",2,mbtiauth_2655
1269,"(848, 441, 64)",2,mbtiauth_2655
1270,"(936, 212, 2)",2,mbtiauth_2655
1271,"(1034, 27, 41)",2,mbtiauth_2655
1272,"(1034, 27, 183)",2,mbtiauth_2655
1273,"(1034, 41, 183)",2,mbtiauth_2655
1274,"(1160, 1441, 41)",2,mbtiauth_2655
1275,"(1160, 1441, 170)",2,mbtiauth_2655
1276,"(1205, 64, 222)",2,mbtiauth_2655
1277,"(1217, 64, 222)",2,mbtiauth_2655
1278,"(1331, 32, 50)",2,mbtiauth_2655
1279,"(2109, 4553, 236)",2,mbtiauth_2655
1280,"(4553, 236, 123)",2,mbtiauth_2655
1281,"(4833, 162, 154)",2,mbtiauth_2655
1282,"(4833, 246, 154)",2,mbtiauth_2655
1283,"(4833, 246, 162)",2,mbtiauth_2655
1284,"(18910, 642, 50)",2,mbtiauth_2655
1285,"(21194, 27, 123)",3,mbtiauth_2655
1286,"(21194, 27, 174)",3,mbtiauth_2655
1287,"(21194, 27, 326)",3,mbtiauth_2655
1288,"(21194, 27, 630)",3,mbtiauth_2655
1289,"(21194, 27, 683)",3,mbtiauth_2655
1290,"(21194, 123, 123)",3,mbtiauth_2655
1291,"(21194, 123, 174)",3,mbtiauth_2655
1292,"(21194, 123, 326)",3,mbtiauth_2655
1293,"(21194, 123, 630)",3,mbtiauth_2655
1294,"(21194, 123, 683)",3,mbtiauth_2655
1295,"(21194, 174, 326)",3,mbtiauth_2655
1296,"(21194, 174, 683)",3,mbtiauth_2655
1297,"(21194, 326, 683)",3,mbtiauth_2655
1298,"(21194, 630, 123)",3,mbtiauth_2655
1299,"(21194, 630, 174)",3,mbtiauth_2655
1300,"(21194, 630, 326)",3,mbtiauth_2655
1301,"(21194, 630, 683)",3,mbtiauth_2655
1302,"(22, 64, 1217, 64)",2,mbtiauth_2655
1303,"(22, 77, 123, 174)",2,mbtiauth_2655
1304,"(22, 77, 599, 123)",2,mbtiauth_2655
1305,"(22, 77, 599, 174)",2,mbtiauth_2655
1306,"(22, 228, 77, 599)",2,mbtiauth_2655
1307,"(22, 228, 222, 65)",2,mbtiauth_2655
1308,"(22, 599, 123, 174)",2,mbtiauth_2655
1309,"(22, 1217, 64, 222)",2,mbtiauth_2655
1310,"(27, 41, 183, 64)",2,mbtiauth_2655
1311,"(27, 41, 183, 656)",2,mbtiauth_2655
1312,"(27, 41, 656, 64)",2,mbtiauth_2655
1313,"(27, 123, 123, 174)",3,mbtiauth_2655
1314,"(27, 123, 123, 326)",3,mbtiauth_2655
1315,"(27, 123, 123, 683)",3,mbtiauth_2655
1316,"(27, 123, 165, 144)",2,mbtiauth_2655
1317,"(27, 123, 174, 326)",3,mbtiauth_2655
1318,"(27, 123, 174, 683)",3,mbtiauth_2655
1319,"(27, 123, 326, 683)",3,mbtiauth_2655
1320,"(27, 123, 630, 123)",3,mbtiauth_2655
1321,"(27, 123, 630, 174)",3,mbtiauth_2655
1322,"(27, 123, 630, 326)",3,mbtiauth_2655
1323,"(27, 123, 630, 683)",3,mbtiauth_2655
1324,"(27, 174, 326, 683)",3,mbtiauth_2655
1325,"(27, 183, 656, 64)",2,mbtiauth_2655
1326,"(27, 630, 123, 174)",3,mbtiauth_2655
1327,"(27, 630, 123, 326)",3,mbtiauth_2655
1328,"(27, 630, 123, 683)",3,mbtiauth_2655
1329,"(27, 630, 174, 326)",3,mbtiauth_2655
1330,"(27, 630, 174, 683)",3,mbtiauth_2655
1331,"(27, 630, 326, 683)",3,mbtiauth_2655
1332,"(41, 183, 656, 64)",2,mbtiauth_2655
1333,"(64, 65, 123, 120)",2,mbtiauth_2655
1334,"(65, 123, 120, 64)",2,mbtiauth_2655
1335,"(65, 1331, 32, 50)",2,mbtiauth_2655
1336,"(77, 599, 123, 2)",2,mbtiauth_2655
1337,"(77, 599, 123, 120)",2,mbtiauth_2655
1338,"(77, 599, 123, 174)",2,mbtiauth_2655
1339,"(77, 599, 123, 212)",2,mbtiauth_2655
1340,"(77, 599, 236, 123)",2,mbtiauth_2655
1341,"(120, 27, 41, 183)",2,mbtiauth_2655
1342,"(120, 236, 123, 174)",2,mbtiauth_2655
1343,"(120, 1034, 27, 41)",2,mbtiauth_2655
1344,"(120, 1034, 27, 183)",2,mbtiauth_2655
1345,"(120, 1034, 41, 183)",2,mbtiauth_2655
1346,"(123, 27, 41, 64)",2,mbtiauth_2655
1347,"(123, 27, 41, 183)",3,mbtiauth_2655
1348,"(123, 27, 41, 656)",2,mbtiauth_2655
1349,"(123, 27, 183, 64)",2,mbtiauth_2655
1350,"(123, 27, 183, 656)",2,mbtiauth_2655
1351,"(123, 27, 656, 64)",2,mbtiauth_2655
1352,"(123, 32, 33, 50)",2,mbtiauth_2655
1353,"(123, 41, 183, 64)",2,mbtiauth_2655
1354,"(123, 41, 183, 656)",2,mbtiauth_2655
1355,"(123, 41, 656, 64)",2,mbtiauth_2655
1356,"(123, 65, 2109, 4553)",2,mbtiauth_2655
1357,"(123, 120, 27, 41)",2,mbtiauth_2655
1358,"(123, 120, 27, 183)",2,mbtiauth_2655
1359,"(123, 120, 41, 183)",2,mbtiauth_2655
1360,"(123, 120, 123, 174)",2,mbtiauth_2655
1361,"(123, 120, 236, 123)",2,mbtiauth_2655
1362,"(123, 120, 236, 174)",2,mbtiauth_2655
1363,"(123, 120, 1034, 27)",2,mbtiauth_2655
1364,"(123, 120, 1034, 41)",2,mbtiauth_2655
1365,"(123, 120, 1034, 183)",2,mbtiauth_2655
1366,"(123, 123, 174, 65)",2,mbtiauth_2655
1367,"(123, 123, 174, 326)",3,mbtiauth_2655
1368,"(123, 123, 174, 683)",3,mbtiauth_2655
1369,"(123, 123, 174, 965)",2,mbtiauth_2655
1370,"(123, 123, 326, 683)",3,mbtiauth_2655
1371,"(123, 123, 965, 326)",2,mbtiauth_2655
1372,"(123, 160, 64, 2)",2,mbtiauth_2655
1373,"(123, 174, 41, 64)",2,mbtiauth_2655
1374,"(123, 174, 63, 123)",2,mbtiauth_2655
1375,"(123, 174, 65, 32)",2,mbtiauth_2655
1376,"(123, 174, 77, 599)",2,mbtiauth_2655
1377,"(123, 174, 123, 65)",2,mbtiauth_2655
1378,"(123, 174, 123, 174)",2,mbtiauth_2655
1379,"(123, 174, 326, 48)",2,mbtiauth_2655
1380,"(123, 174, 326, 683)",3,mbtiauth_2655
1381,"(123, 174, 656, 64)",2,mbtiauth_2655
1382,"(123, 174, 965, 326)",2,mbtiauth_2655
1383,"(123, 183, 656, 64)",2,mbtiauth_2655
1384,"(123, 193, 64, 22)",2,mbtiauth_2655
1385,"(123, 193, 206, 22)",2,mbtiauth_2655
1386,"(123, 193, 441, 22)",2,mbtiauth_2655
1387,"(123, 206, 212, 2)",2,mbtiauth_2655
1388,"(123, 212, 656, 64)",2,mbtiauth_2655
1389,"(123, 236, 123, 174)",2,mbtiauth_2655
1390,"(123, 383, 32, 77)",2,mbtiauth_2655
1391,"(123, 441, 65, 2109)",2,mbtiauth_2655
1392,"(123, 441, 65, 4553)",2,mbtiauth_2655
1393,"(123, 441, 2109, 4553)",2,mbtiauth_2655
1394,"(123, 630, 123, 174)",3,mbtiauth_2655
1395,"(123, 630, 123, 326)",3,mbtiauth_2655
1396,"(123, 630, 123, 683)",3,mbtiauth_2655
1397,"(123, 630, 174, 326)",3,mbtiauth_2655
1398,"(123, 630, 174, 683)",3,mbtiauth_2655
1399,"(123, 630, 326, 683)",3,mbtiauth_2655
1400,"(123, 1034, 27, 41)",2,mbtiauth_2655
1401,"(123, 1034, 27, 183)",2,mbtiauth_2655
1402,"(123, 1034, 41, 183)",2,mbtiauth_2655
1403,"(162, 154, 123, 65)",2,mbtiauth_2655
1404,"(193, 22, 32, 22)",2,mbtiauth_2655
1405,"(193, 64, 144, 164)",2,mbtiauth_2655
1406,"(193, 441, 64, 22)",2,mbtiauth_2655
1407,"(222, 2, 123, 174)",2,mbtiauth_2655
1408,"(236, 77, 599, 123)",2,mbtiauth_2655
1409,"(236, 77, 599, 236)",2,mbtiauth_2655
1410,"(246, 41, 154, 123)",2,mbtiauth_2655
1411,"(246, 162, 154, 123)",2,mbtiauth_2655
1412,"(383, 32, 50, 77)",2,mbtiauth_2655
1413,"(383, 32, 1927, 77)",2,mbtiauth_2655
1414,"(441, 65, 2109, 4553)",2,mbtiauth_2655
1415,"(441, 123, 160, 64)",2,mbtiauth_2655
1416,"(599, 27, 41, 183)",2,mbtiauth_2655
1417,"(599, 123, 27, 41)",2,mbtiauth_2655
1418,"(599, 123, 27, 183)",2,mbtiauth_2655
1419,"(599, 123, 41, 183)",2,mbtiauth_2655
1420,"(630, 123, 174, 326)",3,mbtiauth_2655
1421,"(630, 123, 174, 683)",3,mbtiauth_2655
1422,"(630, 123, 326, 683)",3,mbtiauth_2655
1423,"(630, 174, 326, 683)",3,mbtiauth_2655
1424,"(703, 2, 123, 441)",2,mbtiauth_2655
1425,"(848, 441, 64, 22)",2,mbtiauth_2655
1426,"(1034, 27, 41, 183)",2,mbtiauth_2655
1427,"(4833, 246, 162, 154)",2,mbtiauth_2655
1428,"(21194, 27, 123, 123)",3,mbtiauth_2655
1429,"(21194, 27, 123, 174)",3,mbtiauth_2655
1430,"(21194, 27, 123, 326)",3,mbtiauth_2655
1431,"(21194, 27, 123, 630)",3,mbtiauth_2655
1432,"(21194, 27, 123, 683)",3,mbtiauth_2655
1433,"(21194, 27, 174, 326)",3,mbtiauth_2655
1434,"(21194, 27, 174, 683)",3,mbtiauth_2655
1435,"(21194, 27, 326, 683)",3,mbtiauth_2655
1436,"(21194, 27, 630, 123)",3,mbtiauth_2655
1437,"(21194, 27, 630, 174)",3,mbtiauth_2655
1438,"(21194, 27, 630, 326)",3,mbtiauth_2655
1439,"(21194, 27, 630, 683)",3,mbtiauth_2655
1440,"(21194, 123, 123, 174)",3,mbtiauth_2655
1441,"(21194, 123, 123, 326)",3,mbtiauth_2655
1442,"(21194, 123, 123, 683)",3,mbtiauth_2655
1443,"(21194, 123, 174, 326)",3,mbtiauth_2655
1444,"(21194, 123, 174, 683)",3,mbtiauth_2655
1445,"(21194, 123, 326, 683)",3,mbtiauth_2655
1446,"(21194, 123, 630, 123)",3,mbtiauth_2655
1447,"(21194, 123, 630, 174)",3,mbtiauth_2655
1448,"(21194, 123, 630, 326)",3,mbtiauth_2655
1449,"(21194, 123, 630, 683)",3,mbtiauth_2655
1450,"(21194, 174, 326, 683)",3,mbtiauth_2655
1451,"(21194, 630, 123, 174)",3,mbtiauth_2655
1452,"(21194, 630, 123, 326)",3,mbtiauth_2655
1453,"(21194, 630, 123, 683)",3,mbtiauth_2655
1454,"(21194, 630, 174, 326)",3,mbtiauth_2655
1455,"(21194, 630, 174, 683)",3,mbtiauth_2655
1456,"(21194, 630, 326, 683)",3,mbtiauth_2655
1457,"(22, 77, 599, 123, 174)",2,mbtiauth_2655
1458,"(27, 41, 183, 656, 64)",2,mbtiauth_2655
1459,"(27, 123, 123, 174, 326)",3,mbtiauth_2655
1460,"(27, 123, 123, 174, 683)",3,mbtiauth_2655
1461,"(27, 123, 123, 326, 683)",3,mbtiauth_2655
1462,"(27, 123, 174, 326, 683)",3,mbtiauth_2655
1463,"(27, 123, 630, 123, 174)",3,mbtiauth_2655
1464,"(27, 123, 630, 123, 326)",3,mbtiauth_2655
1465,"(27, 123, 630, 123, 683)",3,mbtiauth_2655
1466,"(27, 123, 630, 174, 326)",3,mbtiauth_2655
1467,"(27, 123, 630, 174, 683)",3,mbtiauth_2655
1468,"(27, 123, 630, 326, 683)",3,mbtiauth_2655
1469,"(27, 630, 123, 174, 326)",3,mbtiauth_2655
1470,"(27, 630, 123, 174, 683)",3,mbtiauth_2655
1471,"(27, 630, 123, 326, 683)",3,mbtiauth_2655
1472,"(27, 630, 174, 326, 683)",3,mbtiauth_2655
1473,"(120, 1034, 27, 41, 183)",2,mbtiauth_2655
1474,"(123, 27, 41, 183, 64)",2,mbtiauth_2655
1475,"(123, 27, 41, 183, 656)",2,mbtiauth_2655
1476,"(123, 27, 41, 656, 64)",2,mbtiauth_2655
1477,"(123, 27, 183, 656, 64)",2,mbtiauth_2655
1478,"(123, 41, 183, 656, 64)",2,mbtiauth_2655
1479,"(123, 120, 27, 41, 183)",2,mbtiauth_2655
1480,"(123, 120, 236, 123, 174)",2,mbtiauth_2655
1481,"(123, 120, 1034, 27, 41)",2,mbtiauth_2655
1482,"(123, 120, 1034, 27, 183)",2,mbtiauth_2655
1483,"(123, 120, 1034, 41, 183)",2,mbtiauth_2655
1484,"(123, 123, 174, 326, 683)",3,mbtiauth_2655
1485,"(123, 441, 65, 2109, 4553)",2,mbtiauth_2655
1486,"(123, 630, 123, 174, 326)",3,mbtiauth_2655
1487,"(123, 630, 123, 174, 683)",3,mbtiauth_2655
1488,"(123, 630, 123, 326, 683)",3,mbtiauth_2655
1489,"(123, 630, 174, 326, 683)",3,mbtiauth_2655
1490,"(123, 1034, 27, 41, 183)",2,mbtiauth_2655
1491,"(599, 123, 27, 41, 183)",2,mbtiauth_2655
1492,"(630, 123, 174, 326, 683)",3,mbtiauth_2655
1493,"(21194, 27, 123, 123, 174)",3,mbtiauth_2655
1494,"(21194, 27, 123, 123, 326)",3,mbtiauth_2655
1495,"(21194, 27, 123, 123, 683)",3,mbtiauth_2655
1496,"(21194, 27, 123, 174, 326)",3,mbtiauth_2655
1497,"(21194, 27, 123, 174, 683)",3,mbtiauth_2655
1498,"(21194, 27, 123, 326, 683)",3,mbtiauth_2655
1499,"(21194, 27, 123, 630, 123)",3,mbtiauth_2655
1500,"(21194, 27, 123, 630, 174)",3,mbtiauth_2655
1501,"(21194, 27, 123, 630, 326)",3,mbtiauth_2655
1502,"(21194, 27, 123, 630, 683)",3,mbtiauth_2655
1503,"(21194, 27, 174, 326, 683)",3,mbtiauth_2655
1504,"(21194, 27, 630, 123, 174)",3,mbtiauth_2655
1505,"(21194, 27, 630, 123, 326)",3,mbtiauth_2655
1506,"(21194, 27, 630, 123, 683)",3,mbtiauth_2655
1507,"(21194, 27, 630, 174, 326)",3,mbtiauth_2655
1508,"(21194, 27, 630, 174, 683)",3,mbtiauth_2655
1509,"(21194, 27, 630, 326, 683)",3,mbtiauth_2655
1510,"(21194, 123, 123, 174, 326)",3,mbtiauth_2655
1511,"(21194, 123, 123, 174, 683)",3,mbtiauth_2655
1512,"(21194, 123, 123, 326, 683)",3,mbtiauth_2655
1513,"(21194, 123, 174, 326, 683)",3,mbtiauth_2655
1514,"(21194, 123, 630, 123, 174)",3,mbtiauth_2655
1515,"(21194, 123, 630, 123, 326)",3,mbtiauth_2655
1516,"(21194, 123, 630, 123, 683)",3,mbtiauth_2655
1517,"(21194, 123, 630, 174, 326)",3,mbtiauth_2655
1518,"(21194, 123, 630, 174, 683)",3,mbtiauth_2655
1519,"(21194, 123, 630, 326, 683)",3,mbtiauth_2655
1520,"(21194, 630, 123, 174, 326)",3,mbtiauth_2655
1521,"(21194, 630, 123, 174, 683)",3,mbtiauth_2655
1522,"(21194, 630, 123, 326, 683)",3,mbtiauth_2655
1523,"(21194, 630, 174, 326, 683)",3,mbtiauth_2655
1524,"(27, 123, 123, 174, 326, 683)",3,mbtiauth_2655
1525,"(27, 123, 630, 123, 174, 326)",3,mbtiauth_2655
1526,"(27, 123, 630, 123, 174, 683)",3,mbtiauth_2655
1527,"(27, 123, 630, 123, 326, 683)",3,mbtiauth_2655
1528,"(27, 123, 630, 174, 326, 683)",3,mbtiauth_2655
1529,"(27, 630, 123, 174, 326, 683)",3,mbtiauth_2655
1530,"(123, 27, 41, 183, 656, 64)",2,mbtiauth_2655
1531,"(123, 120, 1034, 27, 41, 183)",2,mbtiauth_2655
1532,"(123, 630, 123, 174, 326, 683)",3,mbtiauth_2655
1533,"(21194, 27, 123, 123, 174, 326)",3,mbtiauth_2655
1534,"(21194, 27, 123, 123, 174, 683)",3,mbtiauth_2655
1535,"(21194, 27, 123, 123, 326, 683)",3,mbtiauth_2655
1536,"(21194, 27, 123, 174, 326, 683)",3,mbtiauth_2655
1537,"(21194, 27, 123, 630, 123, 174)",3,mbtiauth_2655
1538,"(21194, 27, 123, 630, 123, 326)",3,mbtiauth_2655
1539,"(21194, 27, 123, 630, 123, 683)",3,mbtiauth_2655
1540,"(21194, 27, 123, 630, 174, 326)",3,mbtiauth_2655
1541,"(21194, 27, 123, 630, 174, 683)",3,mbtiauth_2655
1542,"(21194, 27, 123, 630, 326, 683)",3,mbtiauth_2655
1543,"(21194, 27, 630, 123, 174, 326)",3,mbtiauth_2655
1544,"(21194, 27, 630, 123, 174, 683)",3,mbtiauth_2655
1545,"(21194, 27, 630, 123, 326, 683)",3,mbtiauth_2655
1546,"(21194, 27, 630, 174, 326, 683)",3,mbtiauth_2655
1547,"(21194, 123, 123, 174, 326, 683)",3,mbtiauth_2655
1548,"(21194, 123, 630, 123, 174, 326)",3,mbtiauth_2655
1549,"(21194, 123, 630, 123, 174, 683)",3,mbtiauth_2655
1550,"(21194, 123, 630, 123, 326, 683)",3,mbtiauth_2655
1551,"(21194, 123, 630, 174, 326, 683)",3,mbtiauth_2655
1552,"(21194, 630, 123, 174, 326, 683)",3,mbtiauth_2655
1553,"(27, 123, 630, 123, 174, 326, 683)",3,mbtiauth_2655
1554,"(21194, 27, 123, 123, 174, 326, 683)",3,mbtiauth_2655
1555,"(21194, 27, 123, 630, 123, 174, 326)",3,mbtiauth_2655
1556,"(21194, 27, 123, 630, 123, 174, 683)",3,mbtiauth_2655
1557,"(21194, 27, 123, 630, 123, 326, 683)",3,mbtiauth_2655
1558,"(21194, 27, 123, 630, 174, 326, 683)",3,mbtiauth_2655
1559,"(21194, 27, 630, 123, 174, 326, 683)",3,mbtiauth_2655
1560,"(21194, 123, 630, 123, 174, 326, 683)",3,mbtiauth_2655
1561,"(21194, 27, 123, 630, 123, 174, 326, 683)",3,mbtiauth_2655
