,pattern,sup,author
461,"(2, 22, 123)",2,mbtiauth_3934
462,"(10, 50, 77)",3,mbtiauth_3934
463,"(10, 50, 805)",3,mbtiauth_3934
464,"(10, 64, 236)",2,mbtiauth_3934
465,"(10, 805, 77)",3,mbtiauth_3934
466,"(11, 718, 14437)",2,mbtiauth_3934
467,"(22, 2, 22)",3,mbtiauth_3934
468,"(22, 22, 2)",2,mbtiauth_3934
469,"(22, 22, 77)",3,mbtiauth_3934
470,"(22, 32, 31)",2,mbtiauth_3934
471,"(22, 64, 65)",2,mbtiauth_3934
472,"(22, 64, 268)",2,mbtiauth_3934
473,"(22, 77, 2)",4,mbtiauth_3934
474,"(22, 77, 22)",3,mbtiauth_3934
475,"(22, 77, 64)",3,mbtiauth_3934
476,"(22, 77, 77)",2,mbtiauth_3934
477,"(22, 77, 123)",2,mbtiauth_3934
478,"(22, 77, 140)",2,mbtiauth_3934
479,"(22, 140, 22)",3,mbtiauth_3934
480,"(22, 164, 123)",2,mbtiauth_3934
481,"(22, 241, 77)",2,mbtiauth_3934
482,"(22, 519, 77)",2,mbtiauth_3934
483,"(31, 2, 2)",2,mbtiauth_3934
484,"(32, 241, 77)",2,mbtiauth_3934
485,"(41, 10, 64)",2,mbtiauth_3934
486,"(41, 10, 236)",2,mbtiauth_3934
487,"(41, 16, 22)",2,mbtiauth_3934
488,"(41, 64, 236)",2,mbtiauth_3934
489,"(41, 154, 22)",2,mbtiauth_3934
490,"(41, 183, 22)",2,mbtiauth_3934
491,"(41, 206, 16)",2,mbtiauth_3934
492,"(41, 1498, 10)",2,mbtiauth_3934
493,"(41, 1498, 64)",2,mbtiauth_3934
494,"(41, 1498, 236)",2,mbtiauth_3934
495,"(50, 805, 77)",3,mbtiauth_3934
496,"(64, 22, 64)",2,mbtiauth_3934
497,"(64, 22, 263)",2,mbtiauth_3934
498,"(64, 22, 519)",2,mbtiauth_3934
499,"(64, 67, 22)",2,mbtiauth_3934
500,"(64, 77, 152)",2,mbtiauth_3934
501,"(64, 326, 77)",2,mbtiauth_3934
502,"(65, 22, 31)",2,mbtiauth_3934
503,"(65, 32, 22)",2,mbtiauth_3934
504,"(65, 77, 32)",2,mbtiauth_3934
505,"(65, 77, 77)",2,mbtiauth_3934
506,"(65, 77, 599)",3,mbtiauth_3934
507,"(65, 123, 22)",2,mbtiauth_3934
508,"(65, 428, 32)",2,mbtiauth_3934
509,"(65, 3439, 22)",2,mbtiauth_3934
510,"(65, 3439, 123)",2,mbtiauth_3934
511,"(77, 2, 22)",3,mbtiauth_3934
512,"(77, 2, 123)",2,mbtiauth_3934
513,"(77, 2, 483)",2,mbtiauth_3934
514,"(77, 10, 50)",2,mbtiauth_3934
515,"(77, 10, 77)",2,mbtiauth_3934
516,"(77, 10, 805)",2,mbtiauth_3934
517,"(77, 22, 31)",2,mbtiauth_3934
518,"(77, 22, 123)",2,mbtiauth_3934
519,"(77, 41, 22)",3,mbtiauth_3934
520,"(77, 50, 77)",2,mbtiauth_3934
521,"(77, 50, 805)",2,mbtiauth_3934
522,"(77, 64, 22)",3,mbtiauth_3934
523,"(77, 64, 65)",2,mbtiauth_3934
524,"(77, 64, 67)",2,mbtiauth_3934
525,"(77, 77, 2)",2,mbtiauth_3934
526,"(77, 77, 77)",2,mbtiauth_3934
527,"(77, 123, 22)",2,mbtiauth_3934
528,"(77, 123, 64)",2,mbtiauth_3934
529,"(77, 123, 65)",2,mbtiauth_3934
530,"(77, 123, 123)",3,mbtiauth_3934
531,"(77, 123, 165)",2,mbtiauth_3934
532,"(77, 123, 205)",2,mbtiauth_3934
533,"(77, 123, 411)",2,mbtiauth_3934
534,"(77, 140, 22)",2,mbtiauth_3934
535,"(77, 152, 22)",2,mbtiauth_3934
536,"(77, 165, 64)",2,mbtiauth_3934
537,"(77, 205, 65)",2,mbtiauth_3934
538,"(77, 205, 123)",2,mbtiauth_3934
539,"(77, 428, 32)",2,mbtiauth_3934
540,"(77, 520, 123)",2,mbtiauth_3934
541,"(77, 599, 32)",2,mbtiauth_3934
542,"(77, 599, 64)",2,mbtiauth_3934
543,"(77, 599, 193)",2,mbtiauth_3934
544,"(77, 599, 201)",2,mbtiauth_3934
545,"(77, 599, 428)",2,mbtiauth_3934
546,"(77, 805, 77)",2,mbtiauth_3934
547,"(123, 22, 22)",2,mbtiauth_3934
548,"(123, 22, 31)",2,mbtiauth_3934
549,"(123, 22, 241)",2,mbtiauth_3934
550,"(123, 22, 519)",2,mbtiauth_3934
551,"(123, 31, 77)",2,mbtiauth_3934
552,"(123, 64, 22)",3,mbtiauth_3934
553,"(123, 65, 22)",2,mbtiauth_3934
554,"(123, 65, 77)",3,mbtiauth_3934
555,"(123, 65, 599)",2,mbtiauth_3934
556,"(123, 77, 22)",2,mbtiauth_3934
557,"(123, 77, 64)",2,mbtiauth_3934
558,"(123, 77, 123)",3,mbtiauth_3934
559,"(123, 77, 599)",2,mbtiauth_3934
560,"(123, 123, 65)",2,mbtiauth_3934
561,"(123, 165, 64)",2,mbtiauth_3934
562,"(123, 165, 356)",2,mbtiauth_3934
563,"(123, 170, 65)",2,mbtiauth_3934
564,"(123, 193, 22)",3,mbtiauth_3934
565,"(123, 193, 64)",3,mbtiauth_3934
566,"(123, 193, 65)",2,mbtiauth_3934
567,"(123, 205, 65)",2,mbtiauth_3934
568,"(123, 205, 123)",2,mbtiauth_3934
569,"(123, 262, 65)",2,mbtiauth_3934
570,"(123, 262, 77)",2,mbtiauth_3934
571,"(123, 334, 22)",2,mbtiauth_3934
572,"(123, 356, 64)",2,mbtiauth_3934
573,"(123, 937, 237)",2,mbtiauth_3934
574,"(123, 1834, 64)",2,mbtiauth_3934
575,"(140, 22, 22)",2,mbtiauth_3934
576,"(140, 22, 77)",2,mbtiauth_3934
577,"(140, 22, 140)",2,mbtiauth_3934
578,"(140, 77, 22)",2,mbtiauth_3934
579,"(140, 77, 140)",2,mbtiauth_3934
580,"(140, 140, 22)",2,mbtiauth_3934
581,"(154, 22, 2)",2,mbtiauth_3934
582,"(154, 22, 1632)",2,mbtiauth_3934
583,"(165, 11, 718)",2,mbtiauth_3934
584,"(165, 11, 14437)",2,mbtiauth_3934
585,"(165, 64, 22)",3,mbtiauth_3934
586,"(165, 64, 64)",2,mbtiauth_3934
587,"(165, 356, 64)",2,mbtiauth_3934
588,"(165, 718, 14437)",2,mbtiauth_3934
589,"(165, 1313, 11)",2,mbtiauth_3934
590,"(165, 1313, 64)",2,mbtiauth_3934
591,"(165, 1313, 65)",2,mbtiauth_3934
592,"(165, 1313, 718)",2,mbtiauth_3934
593,"(165, 1313, 14437)",2,mbtiauth_3934
594,"(170, 22, 22)",2,mbtiauth_3934
595,"(170, 22, 77)",2,mbtiauth_3934
596,"(170, 32, 22)",2,mbtiauth_3934
597,"(170, 65, 77)",2,mbtiauth_3934
598,"(170, 65, 599)",2,mbtiauth_3934
599,"(170, 77, 22)",2,mbtiauth_3934
600,"(170, 77, 599)",2,mbtiauth_3934
601,"(193, 11, 718)",2,mbtiauth_3934
602,"(193, 32, 77)",2,mbtiauth_3934
603,"(193, 32, 241)",2,mbtiauth_3934
604,"(193, 64, 22)",3,mbtiauth_3934
605,"(193, 64, 67)",2,mbtiauth_3934
606,"(193, 64, 77)",2,mbtiauth_3934
607,"(193, 65, 22)",2,mbtiauth_3934
608,"(193, 65, 32)",3,mbtiauth_3934
609,"(193, 65, 77)",2,mbtiauth_3934
610,"(193, 65, 599)",2,mbtiauth_3934
611,"(193, 77, 599)",3,mbtiauth_3934
612,"(193, 165, 11)",2,mbtiauth_3934
613,"(193, 165, 718)",2,mbtiauth_3934
614,"(193, 165, 1313)",2,mbtiauth_3934
615,"(193, 193, 170)",2,mbtiauth_3934
616,"(193, 241, 77)",2,mbtiauth_3934
617,"(193, 1313, 11)",2,mbtiauth_3934
618,"(193, 1313, 64)",2,mbtiauth_3934
619,"(193, 1313, 718)",2,mbtiauth_3934
620,"(205, 123, 65)",2,mbtiauth_3934
621,"(206, 65, 77)",2,mbtiauth_3934
622,"(236, 10, 64)",2,mbtiauth_3934
623,"(236, 41, 10)",2,mbtiauth_3934
624,"(236, 41, 64)",2,mbtiauth_3934
625,"(236, 41, 1498)",2,mbtiauth_3934
626,"(236, 276, 10)",2,mbtiauth_3934
627,"(236, 276, 41)",2,mbtiauth_3934
628,"(236, 276, 64)",2,mbtiauth_3934
629,"(236, 276, 539)",2,mbtiauth_3934
630,"(236, 276, 1498)",2,mbtiauth_3934
631,"(236, 539, 10)",2,mbtiauth_3934
632,"(236, 539, 41)",2,mbtiauth_3934
633,"(236, 539, 64)",2,mbtiauth_3934
634,"(236, 539, 1498)",2,mbtiauth_3934
635,"(236, 1498, 10)",2,mbtiauth_3934
636,"(236, 1498, 64)",2,mbtiauth_3934
637,"(237, 1261, 2)",2,mbtiauth_3934
638,"(262, 64, 22)",2,mbtiauth_3934
639,"(262, 65, 77)",2,mbtiauth_3934
640,"(262, 77, 64)",2,mbtiauth_3934
641,"(262, 165, 41)",2,mbtiauth_3934
642,"(262, 165, 64)",2,mbtiauth_3934
643,"(262, 205, 65)",2,mbtiauth_3934
644,"(263, 77, 64)",2,mbtiauth_3934
645,"(276, 10, 64)",2,mbtiauth_3934
646,"(276, 41, 10)",2,mbtiauth_3934
647,"(276, 41, 64)",2,mbtiauth_3934
648,"(276, 41, 1498)",2,mbtiauth_3934
649,"(276, 539, 10)",2,mbtiauth_3934
650,"(276, 539, 41)",2,mbtiauth_3934
651,"(276, 539, 64)",2,mbtiauth_3934
652,"(276, 539, 1498)",2,mbtiauth_3934
653,"(276, 1498, 10)",2,mbtiauth_3934
654,"(276, 1498, 64)",2,mbtiauth_3934
655,"(285, 41, 22)",2,mbtiauth_3934
656,"(326, 77, 22)",2,mbtiauth_3934
657,"(356, 64, 268)",2,mbtiauth_3934
658,"(441, 64, 77)",2,mbtiauth_3934
659,"(539, 10, 64)",2,mbtiauth_3934
660,"(539, 10, 236)",2,mbtiauth_3934
661,"(539, 41, 10)",2,mbtiauth_3934
662,"(539, 41, 64)",2,mbtiauth_3934
663,"(539, 41, 236)",2,mbtiauth_3934
664,"(539, 41, 1498)",2,mbtiauth_3934
665,"(539, 64, 236)",2,mbtiauth_3934
666,"(539, 1498, 10)",2,mbtiauth_3934
667,"(539, 1498, 64)",2,mbtiauth_3934
668,"(539, 1498, 236)",2,mbtiauth_3934
669,"(599, 65, 32)",2,mbtiauth_3934
670,"(599, 193, 206)",2,mbtiauth_3934
671,"(599, 356, 693)",2,mbtiauth_3934
672,"(599, 428, 32)",2,mbtiauth_3934
673,"(937, 237, 1261)",2,mbtiauth_3934
674,"(988, 154, 22)",2,mbtiauth_3934
675,"(1261, 2, 156)",2,mbtiauth_3934
676,"(1313, 11, 718)",2,mbtiauth_3934
677,"(1313, 11, 14437)",2,mbtiauth_3934
678,"(1313, 718, 14437)",2,mbtiauth_3934
679,"(1498, 10, 64)",2,mbtiauth_3934
680,"(1498, 10, 236)",2,mbtiauth_3934
681,"(1498, 64, 236)",2,mbtiauth_3934
682,"(1632, 78, 7738)",2,mbtiauth_3934
683,"(1632, 1666, 78)",2,mbtiauth_3934
684,"(1632, 1666, 7738)",2,mbtiauth_3934
685,"(1632, 1866, 78)",2,mbtiauth_3934
686,"(1632, 1866, 1666)",2,mbtiauth_3934
687,"(1632, 1866, 7738)",2,mbtiauth_3934
688,"(1666, 78, 7738)",2,mbtiauth_3934
689,"(1866, 78, 7738)",2,mbtiauth_3934
690,"(1866, 1666, 78)",2,mbtiauth_3934
691,"(1866, 1666, 7738)",2,mbtiauth_3934
692,"(2218, 64, 22)",2,mbtiauth_3934
693,"(19027, 154, 22)",2,mbtiauth_3934
694,"(19027, 988, 22)",2,mbtiauth_3934
695,"(19027, 988, 154)",2,mbtiauth_3934
696,"(10, 50, 805, 77)",3,mbtiauth_3934
697,"(22, 22, 77, 2)",2,mbtiauth_3934
698,"(22, 77, 2, 22)",2,mbtiauth_3934
699,"(22, 77, 140, 22)",2,mbtiauth_3934
700,"(41, 10, 64, 236)",2,mbtiauth_3934
701,"(41, 1498, 10, 64)",2,mbtiauth_3934
702,"(41, 1498, 10, 236)",2,mbtiauth_3934
703,"(41, 1498, 64, 236)",2,mbtiauth_3934
704,"(77, 2, 22, 123)",2,mbtiauth_3934
705,"(77, 10, 50, 77)",2,mbtiauth_3934
706,"(77, 10, 50, 805)",2,mbtiauth_3934
707,"(77, 10, 805, 77)",2,mbtiauth_3934
708,"(77, 50, 805, 77)",2,mbtiauth_3934
709,"(77, 123, 123, 65)",2,mbtiauth_3934
710,"(77, 123, 205, 65)",2,mbtiauth_3934
711,"(77, 123, 205, 123)",2,mbtiauth_3934
712,"(77, 205, 123, 65)",2,mbtiauth_3934
713,"(77, 599, 428, 32)",2,mbtiauth_3934
714,"(123, 65, 77, 599)",2,mbtiauth_3934
715,"(123, 165, 356, 64)",2,mbtiauth_3934
716,"(123, 193, 65, 22)",2,mbtiauth_3934
717,"(123, 205, 123, 65)",2,mbtiauth_3934
718,"(140, 22, 77, 22)",2,mbtiauth_3934
719,"(140, 22, 77, 140)",2,mbtiauth_3934
720,"(140, 22, 140, 22)",2,mbtiauth_3934
721,"(140, 77, 140, 22)",2,mbtiauth_3934
722,"(165, 11, 718, 14437)",2,mbtiauth_3934
723,"(165, 1313, 11, 718)",2,mbtiauth_3934
724,"(165, 1313, 11, 14437)",2,mbtiauth_3934
725,"(165, 1313, 718, 14437)",2,mbtiauth_3934
726,"(170, 65, 77, 599)",2,mbtiauth_3934
727,"(193, 32, 241, 77)",2,mbtiauth_3934
728,"(193, 65, 77, 599)",2,mbtiauth_3934
729,"(193, 165, 11, 718)",2,mbtiauth_3934
730,"(193, 165, 1313, 11)",2,mbtiauth_3934
731,"(193, 165, 1313, 718)",2,mbtiauth_3934
732,"(193, 1313, 11, 718)",2,mbtiauth_3934
733,"(236, 41, 10, 64)",2,mbtiauth_3934
734,"(236, 41, 1498, 10)",2,mbtiauth_3934
735,"(236, 41, 1498, 64)",2,mbtiauth_3934
736,"(236, 276, 10, 64)",2,mbtiauth_3934
737,"(236, 276, 41, 10)",2,mbtiauth_3934
738,"(236, 276, 41, 64)",2,mbtiauth_3934
739,"(236, 276, 41, 1498)",2,mbtiauth_3934
740,"(236, 276, 539, 10)",2,mbtiauth_3934
741,"(236, 276, 539, 41)",2,mbtiauth_3934
742,"(236, 276, 539, 64)",2,mbtiauth_3934
743,"(236, 276, 539, 1498)",2,mbtiauth_3934
744,"(236, 276, 1498, 10)",2,mbtiauth_3934
745,"(236, 276, 1498, 64)",2,mbtiauth_3934
746,"(236, 539, 10, 64)",2,mbtiauth_3934
747,"(236, 539, 41, 10)",2,mbtiauth_3934
748,"(236, 539, 41, 64)",2,mbtiauth_3934
749,"(236, 539, 41, 1498)",2,mbtiauth_3934
750,"(236, 539, 1498, 10)",2,mbtiauth_3934
751,"(236, 539, 1498, 64)",2,mbtiauth_3934
752,"(236, 1498, 10, 64)",2,mbtiauth_3934
753,"(276, 41, 10, 64)",2,mbtiauth_3934
754,"(276, 41, 1498, 10)",2,mbtiauth_3934
755,"(276, 41, 1498, 64)",2,mbtiauth_3934
756,"(276, 539, 10, 64)",2,mbtiauth_3934
757,"(276, 539, 41, 10)",2,mbtiauth_3934
758,"(276, 539, 41, 64)",2,mbtiauth_3934
759,"(276, 539, 41, 1498)",2,mbtiauth_3934
760,"(276, 539, 1498, 10)",2,mbtiauth_3934
761,"(276, 539, 1498, 64)",2,mbtiauth_3934
762,"(276, 1498, 10, 64)",2,mbtiauth_3934
763,"(539, 10, 64, 236)",2,mbtiauth_3934
764,"(539, 41, 10, 64)",2,mbtiauth_3934
765,"(539, 41, 10, 236)",2,mbtiauth_3934
766,"(539, 41, 64, 236)",2,mbtiauth_3934
767,"(539, 41, 1498, 10)",2,mbtiauth_3934
768,"(539, 41, 1498, 64)",2,mbtiauth_3934
769,"(539, 41, 1498, 236)",2,mbtiauth_3934
770,"(539, 1498, 10, 64)",2,mbtiauth_3934
771,"(539, 1498, 10, 236)",2,mbtiauth_3934
772,"(539, 1498, 64, 236)",2,mbtiauth_3934
773,"(1313, 11, 718, 14437)",2,mbtiauth_3934
774,"(1498, 10, 64, 236)",2,mbtiauth_3934
775,"(1632, 1666, 78, 7738)",2,mbtiauth_3934
776,"(1632, 1866, 78, 7738)",2,mbtiauth_3934
777,"(1632, 1866, 1666, 78)",2,mbtiauth_3934
778,"(1632, 1866, 1666, 7738)",2,mbtiauth_3934
779,"(1866, 1666, 78, 7738)",2,mbtiauth_3934
780,"(19027, 988, 154, 22)",2,mbtiauth_3934
781,"(41, 1498, 10, 64, 236)",2,mbtiauth_3934
782,"(77, 10, 50, 805, 77)",2,mbtiauth_3934
783,"(77, 123, 205, 123, 65)",2,mbtiauth_3934
784,"(140, 22, 77, 140, 22)",2,mbtiauth_3934
785,"(165, 1313, 11, 718, 14437)",2,mbtiauth_3934
786,"(193, 165, 1313, 11, 718)",2,mbtiauth_3934
787,"(236, 41, 1498, 10, 64)",2,mbtiauth_3934
788,"(236, 276, 41, 10, 64)",2,mbtiauth_3934
789,"(236, 276, 41, 1498, 10)",2,mbtiauth_3934
790,"(236, 276, 41, 1498, 64)",2,mbtiauth_3934
791,"(236, 276, 539, 10, 64)",2,mbtiauth_3934
792,"(236, 276, 539, 41, 10)",2,mbtiauth_3934
793,"(236, 276, 539, 41, 64)",2,mbtiauth_3934
794,"(236, 276, 539, 41, 1498)",2,mbtiauth_3934
795,"(236, 276, 539, 1498, 10)",2,mbtiauth_3934
796,"(236, 276, 539, 1498, 64)",2,mbtiauth_3934
797,"(236, 276, 1498, 10, 64)",2,mbtiauth_3934
798,"(236, 539, 41, 10, 64)",2,mbtiauth_3934
799,"(236, 539, 41, 1498, 10)",2,mbtiauth_3934
800,"(236, 539, 41, 1498, 64)",2,mbtiauth_3934
801,"(236, 539, 1498, 10, 64)",2,mbtiauth_3934
802,"(276, 41, 1498, 10, 64)",2,mbtiauth_3934
803,"(276, 539, 41, 10, 64)",2,mbtiauth_3934
804,"(276, 539, 41, 1498, 10)",2,mbtiauth_3934
805,"(276, 539, 41, 1498, 64)",2,mbtiauth_3934
806,"(276, 539, 1498, 10, 64)",2,mbtiauth_3934
807,"(539, 41, 10, 64, 236)",2,mbtiauth_3934
808,"(539, 41, 1498, 10, 64)",2,mbtiauth_3934
809,"(539, 41, 1498, 10, 236)",2,mbtiauth_3934
810,"(539, 41, 1498, 64, 236)",2,mbtiauth_3934
811,"(539, 1498, 10, 64, 236)",2,mbtiauth_3934
812,"(1632, 1866, 1666, 78, 7738)",2,mbtiauth_3934
813,"(236, 276, 41, 1498, 10, 64)",2,mbtiauth_3934
814,"(236, 276, 539, 41, 10, 64)",2,mbtiauth_3934
815,"(236, 276, 539, 41, 1498, 10)",2,mbtiauth_3934
816,"(236, 276, 539, 41, 1498, 64)",2,mbtiauth_3934
817,"(236, 276, 539, 1498, 10, 64)",2,mbtiauth_3934
818,"(236, 539, 41, 1498, 10, 64)",2,mbtiauth_3934
819,"(276, 539, 41, 1498, 10, 64)",2,mbtiauth_3934
820,"(539, 41, 1498, 10, 64, 236)",2,mbtiauth_3934
821,"(236, 276, 539, 41, 1498, 10, 64)",2,mbtiauth_3934
