,pattern,sup,author
794,"(2, 64, 66)",2,mbtiauth_3575
795,"(2, 64, 326)",2,mbtiauth_3575
796,"(2, 77, 77)",2,mbtiauth_3575
797,"(2, 77, 123)",2,mbtiauth_3575
798,"(2, 77, 193)",2,mbtiauth_3575
799,"(2, 83, 64)",2,mbtiauth_3575
800,"(2, 117, 124)",2,mbtiauth_3575
801,"(2, 123, 22)",2,mbtiauth_3575
802,"(2, 123, 77)",2,mbtiauth_3575
803,"(2, 123, 193)",2,mbtiauth_3575
804,"(2, 123, 206)",2,mbtiauth_3575
805,"(2, 160, 64)",2,mbtiauth_3575
806,"(2, 193, 64)",2,mbtiauth_3575
807,"(2, 193, 65)",2,mbtiauth_3575
808,"(2, 193, 77)",2,mbtiauth_3575
809,"(10, 22, 33)",2,mbtiauth_3575
810,"(10, 22, 64)",2,mbtiauth_3575
811,"(10, 22, 160)",2,mbtiauth_3575
812,"(10, 520, 123)",2,mbtiauth_3575
813,"(10, 728, 154)",2,mbtiauth_3575
814,"(22, 2, 64)",3,mbtiauth_3575
815,"(22, 2, 65)",2,mbtiauth_3575
816,"(22, 2, 83)",2,mbtiauth_3575
817,"(22, 22, 32)",2,mbtiauth_3575
818,"(22, 22, 123)",2,mbtiauth_3575
819,"(22, 31, 22)",2,mbtiauth_3575
820,"(22, 32, 64)",2,mbtiauth_3575
821,"(22, 32, 77)",2,mbtiauth_3575
822,"(22, 32, 123)",3,mbtiauth_3575
823,"(22, 50, 13)",2,mbtiauth_3575
824,"(22, 54, 64)",2,mbtiauth_3575
825,"(22, 64, 50)",2,mbtiauth_3575
826,"(22, 64, 65)",2,mbtiauth_3575
827,"(22, 76, 77)",2,mbtiauth_3575
828,"(22, 76, 123)",3,mbtiauth_3575
829,"(22, 77, 123)",2,mbtiauth_3575
830,"(22, 77, 212)",2,mbtiauth_3575
831,"(22, 77, 599)",3,mbtiauth_3575
832,"(22, 123, 64)",3,mbtiauth_3575
833,"(22, 123, 65)",2,mbtiauth_3575
834,"(22, 123, 77)",2,mbtiauth_3575
835,"(22, 132, 50)",2,mbtiauth_3575
836,"(22, 132, 66)",2,mbtiauth_3575
837,"(22, 154, 22)",2,mbtiauth_3575
838,"(22, 417, 872)",2,mbtiauth_3575
839,"(22, 1927, 77)",2,mbtiauth_3575
840,"(22, 1927, 827)",2,mbtiauth_3575
841,"(31, 22, 77)",2,mbtiauth_3575
842,"(31, 22, 827)",2,mbtiauth_3575
843,"(31, 22, 1927)",3,mbtiauth_3575
844,"(31, 1927, 77)",2,mbtiauth_3575
845,"(31, 1927, 827)",2,mbtiauth_3575
846,"(32, 10, 50)",2,mbtiauth_3575
847,"(32, 50, 154)",2,mbtiauth_3575
848,"(32, 64, 65)",2,mbtiauth_3575
849,"(32, 77, 123)",2,mbtiauth_3575
850,"(32, 123, 65)",3,mbtiauth_3575
851,"(32, 123, 123)",2,mbtiauth_3575
852,"(32, 123, 441)",2,mbtiauth_3575
853,"(32, 154, 123)",2,mbtiauth_3575
854,"(32, 441, 65)",2,mbtiauth_3575
855,"(32, 9472, 50)",2,mbtiauth_3575
856,"(32, 9472, 154)",2,mbtiauth_3575
857,"(33, 2, 77)",2,mbtiauth_3575
858,"(33, 50, 2)",2,mbtiauth_3575
859,"(33, 50, 77)",2,mbtiauth_3575
860,"(33, 64, 50)",2,mbtiauth_3575
861,"(33, 77, 599)",2,mbtiauth_3575
862,"(35, 154, 22)",2,mbtiauth_3575
863,"(41, 65, 32)",2,mbtiauth_3575
864,"(41, 520, 154)",2,mbtiauth_3575
865,"(49, 77, 193)",2,mbtiauth_3575
866,"(50, 2, 123)",3,mbtiauth_3575
867,"(50, 2, 193)",2,mbtiauth_3575
868,"(50, 64, 22)",2,mbtiauth_3575
869,"(50, 65, 154)",2,mbtiauth_3575
870,"(50, 65, 3842)",2,mbtiauth_3575
871,"(50, 77, 193)",2,mbtiauth_3575
872,"(50, 123, 193)",2,mbtiauth_3575
873,"(50, 154, 123)",2,mbtiauth_3575
874,"(50, 1226, 33)",2,mbtiauth_3575
875,"(50, 1226, 35)",2,mbtiauth_3575
876,"(50, 1226, 65)",2,mbtiauth_3575
877,"(50, 1226, 123)",2,mbtiauth_3575
878,"(50, 1898, 2)",2,mbtiauth_3575
879,"(50, 1898, 65)",2,mbtiauth_3575
880,"(50, 1898, 193)",2,mbtiauth_3575
881,"(50, 3842, 154)",2,mbtiauth_3575
882,"(64, 22, 32)",2,mbtiauth_3575
883,"(64, 22, 1927)",2,mbtiauth_3575
884,"(64, 22, 2800)",2,mbtiauth_3575
885,"(64, 31, 22)",2,mbtiauth_3575
886,"(64, 31, 1927)",2,mbtiauth_3575
887,"(64, 50, 64)",2,mbtiauth_3575
888,"(64, 50, 123)",2,mbtiauth_3575
889,"(64, 50, 1226)",2,mbtiauth_3575
890,"(64, 66, 32)",2,mbtiauth_3575
891,"(64, 123, 65)",2,mbtiauth_3575
892,"(64, 154, 65)",2,mbtiauth_3575
893,"(64, 154, 123)",3,mbtiauth_3575
894,"(65, 10, 50)",2,mbtiauth_3575
895,"(65, 32, 10)",2,mbtiauth_3575
896,"(65, 32, 50)",2,mbtiauth_3575
897,"(65, 32, 154)",3,mbtiauth_3575
898,"(65, 32, 9472)",3,mbtiauth_3575
899,"(65, 35, 2)",2,mbtiauth_3575
900,"(65, 50, 154)",2,mbtiauth_3575
901,"(65, 65, 2556)",2,mbtiauth_3575
902,"(65, 123, 22)",2,mbtiauth_3575
903,"(65, 154, 123)",2,mbtiauth_3575
904,"(65, 3842, 154)",2,mbtiauth_3575
905,"(65, 9472, 50)",2,mbtiauth_3575
906,"(65, 9472, 154)",2,mbtiauth_3575
907,"(70, 22, 22)",2,mbtiauth_3575
908,"(70, 22, 31)",2,mbtiauth_3575
909,"(70, 31, 22)",2,mbtiauth_3575
910,"(76, 123, 77)",2,mbtiauth_3575
911,"(77, 22, 77)",3,mbtiauth_3575
912,"(77, 22, 599)",2,mbtiauth_3575
913,"(77, 31, 827)",2,mbtiauth_3575
914,"(77, 77, 123)",2,mbtiauth_3575
915,"(77, 77, 599)",2,mbtiauth_3575
916,"(77, 123, 22)",3,mbtiauth_3575
917,"(77, 123, 50)",2,mbtiauth_3575
918,"(77, 123, 64)",2,mbtiauth_3575
919,"(77, 123, 77)",2,mbtiauth_3575
920,"(77, 123, 154)",3,mbtiauth_3575
921,"(77, 123, 193)",4,mbtiauth_3575
922,"(77, 123, 212)",2,mbtiauth_3575
923,"(77, 123, 564)",2,mbtiauth_3575
924,"(77, 123, 1867)",2,mbtiauth_3575
925,"(77, 123, 9472)",2,mbtiauth_3575
926,"(77, 154, 10)",2,mbtiauth_3575
927,"(77, 164, 222)",2,mbtiauth_3575
928,"(77, 193, 77)",2,mbtiauth_3575
929,"(77, 193, 193)",2,mbtiauth_3575
930,"(77, 193, 206)",2,mbtiauth_3575
931,"(77, 212, 564)",2,mbtiauth_3575
932,"(77, 520, 193)",2,mbtiauth_3575
933,"(77, 599, 31)",2,mbtiauth_3575
934,"(77, 599, 32)",2,mbtiauth_3575
935,"(77, 599, 193)",3,mbtiauth_3575
936,"(77, 599, 567)",2,mbtiauth_3575
937,"(77, 1867, 22)",2,mbtiauth_3575
938,"(78, 77, 123)",2,mbtiauth_3575
939,"(123, 2, 64)",2,mbtiauth_3575
940,"(123, 2, 123)",2,mbtiauth_3575
941,"(123, 2, 193)",2,mbtiauth_3575
942,"(123, 10, 22)",3,mbtiauth_3575
943,"(123, 10, 50)",3,mbtiauth_3575
944,"(123, 22, 2)",3,mbtiauth_3575
945,"(123, 22, 50)",4,mbtiauth_3575
946,"(123, 22, 64)",5,mbtiauth_3575
947,"(123, 22, 77)",2,mbtiauth_3575
948,"(123, 22, 123)",3,mbtiauth_3575
949,"(123, 22, 132)",2,mbtiauth_3575
950,"(123, 22, 417)",2,mbtiauth_3575
951,"(123, 32, 10)",2,mbtiauth_3575
952,"(123, 32, 22)",2,mbtiauth_3575
953,"(123, 32, 50)",3,mbtiauth_3575
954,"(123, 32, 64)",2,mbtiauth_3575
955,"(123, 32, 154)",2,mbtiauth_3575
956,"(123, 32, 9472)",3,mbtiauth_3575
957,"(123, 33, 50)",5,mbtiauth_3575
958,"(123, 33, 64)",2,mbtiauth_3575
959,"(123, 35, 254)",2,mbtiauth_3575
960,"(123, 41, 154)",2,mbtiauth_3575
961,"(123, 49, 981)",2,mbtiauth_3575
962,"(123, 50, 35)",2,mbtiauth_3575
963,"(123, 64, 50)",3,mbtiauth_3575
964,"(123, 64, 65)",2,mbtiauth_3575
965,"(123, 64, 123)",2,mbtiauth_3575
966,"(123, 64, 154)",3,mbtiauth_3575
967,"(123, 64, 158)",2,mbtiauth_3575
968,"(123, 64, 213)",2,mbtiauth_3575
969,"(123, 65, 2)",2,mbtiauth_3575
970,"(123, 65, 10)",2,mbtiauth_3575
971,"(123, 65, 32)",3,mbtiauth_3575
972,"(123, 65, 35)",2,mbtiauth_3575
973,"(123, 65, 50)",4,mbtiauth_3575
974,"(123, 65, 65)",2,mbtiauth_3575
975,"(123, 65, 77)",3,mbtiauth_3575
976,"(123, 65, 123)",3,mbtiauth_3575
977,"(123, 65, 551)",2,mbtiauth_3575
978,"(123, 65, 2556)",2,mbtiauth_3575
979,"(123, 65, 9472)",3,mbtiauth_3575
980,"(123, 66, 123)",2,mbtiauth_3575
981,"(123, 77, 22)",2,mbtiauth_3575
982,"(123, 77, 123)",5,mbtiauth_3575
983,"(123, 77, 599)",3,mbtiauth_3575
984,"(123, 123, 64)",2,mbtiauth_3575
985,"(123, 123, 212)",2,mbtiauth_3575
986,"(123, 132, 50)",2,mbtiauth_3575
987,"(123, 154, 10)",2,mbtiauth_3575
988,"(123, 154, 22)",2,mbtiauth_3575
989,"(123, 193, 77)",2,mbtiauth_3575
990,"(123, 193, 206)",3,mbtiauth_3575
991,"(123, 193, 599)",2,mbtiauth_3575
992,"(123, 205, 67)",2,mbtiauth_3575
993,"(123, 205, 154)",2,mbtiauth_3575
994,"(123, 205, 925)",2,mbtiauth_3575
995,"(123, 206, 2)",2,mbtiauth_3575
996,"(123, 206, 22)",3,mbtiauth_3575
997,"(123, 206, 49)",2,mbtiauth_3575
998,"(123, 206, 64)",5,mbtiauth_3575
999,"(123, 206, 77)",3,mbtiauth_3575
1000,"(123, 206, 123)",4,mbtiauth_3575
1001,"(123, 206, 154)",2,mbtiauth_3575
1002,"(123, 206, 193)",2,mbtiauth_3575
1003,"(123, 206, 206)",2,mbtiauth_3575
1004,"(123, 206, 599)",3,mbtiauth_3575
1005,"(123, 212, 10)",2,mbtiauth_3575
1006,"(123, 212, 22)",2,mbtiauth_3575
1007,"(123, 212, 50)",2,mbtiauth_3575
1008,"(123, 212, 64)",2,mbtiauth_3575
1009,"(123, 212, 65)",3,mbtiauth_3575
1010,"(123, 212, 154)",2,mbtiauth_3575
1011,"(123, 212, 564)",2,mbtiauth_3575
1012,"(123, 212, 9472)",2,mbtiauth_3575
1013,"(123, 284, 32)",2,mbtiauth_3575
1014,"(123, 286, 32)",2,mbtiauth_3575
1015,"(123, 291, 154)",2,mbtiauth_3575
1016,"(123, 356, 364)",2,mbtiauth_3575
1017,"(123, 375, 123)",2,mbtiauth_3575
1018,"(123, 375, 262)",2,mbtiauth_3575
1019,"(123, 441, 65)",3,mbtiauth_3575
1020,"(123, 441, 551)",2,mbtiauth_3575
1021,"(123, 599, 154)",2,mbtiauth_3575
1022,"(123, 638, 22)",2,mbtiauth_3575
1023,"(123, 638, 50)",2,mbtiauth_3575
1024,"(123, 638, 132)",2,mbtiauth_3575
1025,"(123, 753, 123)",2,mbtiauth_3575
1026,"(123, 925, 67)",2,mbtiauth_3575
1027,"(123, 1650, 10)",2,mbtiauth_3575
1028,"(123, 1650, 50)",3,mbtiauth_3575
1029,"(123, 1650, 65)",2,mbtiauth_3575
1030,"(123, 1758, 356)",2,mbtiauth_3575
1031,"(123, 1758, 364)",2,mbtiauth_3575
1032,"(123, 1867, 22)",2,mbtiauth_3575
1033,"(123, 3632, 64)",2,mbtiauth_3575
1034,"(123, 9472, 10)",2,mbtiauth_3575
1035,"(123, 9472, 50)",2,mbtiauth_3575
1036,"(152, 123, 77)",2,mbtiauth_3575
1037,"(154, 10, 22)",3,mbtiauth_3575
1038,"(154, 32, 286)",2,mbtiauth_3575
1039,"(154, 33, 22)",3,mbtiauth_3575
1040,"(154, 41, 22)",2,mbtiauth_3575
1041,"(154, 65, 2)",3,mbtiauth_3575
1042,"(154, 65, 32)",2,mbtiauth_3575
1043,"(154, 123, 2)",2,mbtiauth_3575
1044,"(154, 123, 33)",2,mbtiauth_3575
1045,"(154, 123, 65)",3,mbtiauth_3575
1046,"(154, 193, 123)",2,mbtiauth_3575
1047,"(158, 22, 1927)",2,mbtiauth_3575
1048,"(158, 31, 22)",3,mbtiauth_3575
1049,"(158, 31, 827)",2,mbtiauth_3575
1050,"(158, 31, 1927)",2,mbtiauth_3575
1051,"(162, 32, 154)",2,mbtiauth_3575
1052,"(162, 123, 123)",2,mbtiauth_3575
1053,"(162, 123, 206)",2,mbtiauth_3575
1054,"(162, 123, 259)",2,mbtiauth_3575
1055,"(162, 206, 123)",2,mbtiauth_3575
1056,"(170, 123, 441)",2,mbtiauth_3575
1057,"(170, 223, 117)",2,mbtiauth_3575
1058,"(185, 77, 41)",2,mbtiauth_3575
1059,"(193, 7, 67)",2,mbtiauth_3575
1060,"(193, 10, 123)",2,mbtiauth_3575
1061,"(193, 77, 123)",3,mbtiauth_3575
1062,"(193, 123, 593)",2,mbtiauth_3575
1063,"(193, 206, 10)",2,mbtiauth_3575
1064,"(193, 206, 22)",2,mbtiauth_3575
1065,"(193, 206, 32)",2,mbtiauth_3575
1066,"(193, 206, 599)",2,mbtiauth_3575
1067,"(205, 925, 67)",2,mbtiauth_3575
1068,"(206, 2, 123)",2,mbtiauth_3575
1069,"(206, 2, 206)",2,mbtiauth_3575
1070,"(206, 10, 32)",2,mbtiauth_3575
1071,"(206, 10, 50)",2,mbtiauth_3575
1072,"(206, 22, 50)",2,mbtiauth_3575
1073,"(206, 22, 64)",2,mbtiauth_3575
1074,"(206, 32, 50)",2,mbtiauth_3575
1075,"(206, 49, 77)",2,mbtiauth_3575
1076,"(206, 77, 193)",2,mbtiauth_3575
1077,"(206, 77, 206)",2,mbtiauth_3575
1078,"(206, 77, 599)",2,mbtiauth_3575
1079,"(206, 123, 64)",2,mbtiauth_3575
1080,"(206, 123, 286)",2,mbtiauth_3575
1081,"(206, 193, 10)",2,mbtiauth_3575
1082,"(206, 193, 206)",2,mbtiauth_3575
1083,"(206, 599, 154)",2,mbtiauth_3575
1084,"(206, 599, 212)",2,mbtiauth_3575
1085,"(212, 64, 222)",2,mbtiauth_3575
1086,"(212, 154, 22)",2,mbtiauth_3575
1087,"(212, 9472, 10)",2,mbtiauth_3575
1088,"(222, 22, 22)",2,mbtiauth_3575
1089,"(222, 154, 22)",2,mbtiauth_3575
1090,"(236, 77, 123)",3,mbtiauth_3575
1091,"(260, 64, 6536)",2,mbtiauth_3575
1092,"(280, 2, 77)",2,mbtiauth_3575
1093,"(280, 2, 123)",2,mbtiauth_3575
1094,"(280, 2, 193)",2,mbtiauth_3575
1095,"(280, 77, 123)",2,mbtiauth_3575
1096,"(280, 77, 193)",2,mbtiauth_3575
1097,"(280, 123, 193)",2,mbtiauth_3575
1098,"(286, 32, 441)",2,mbtiauth_3575
1099,"(286, 123, 441)",2,mbtiauth_3575
1100,"(349, 64, 222)",2,mbtiauth_3575
1101,"(349, 356, 64)",2,mbtiauth_3575
1102,"(349, 356, 222)",2,mbtiauth_3575
1103,"(349, 356, 3614)",2,mbtiauth_3575
1104,"(349, 543, 64)",2,mbtiauth_3575
1105,"(349, 543, 222)",2,mbtiauth_3575
1106,"(349, 543, 356)",2,mbtiauth_3575
1107,"(349, 543, 3614)",2,mbtiauth_3575
1108,"(349, 3614, 64)",2,mbtiauth_3575
1109,"(349, 3614, 222)",2,mbtiauth_3575
1110,"(356, 64, 222)",2,mbtiauth_3575
1111,"(356, 3614, 64)",2,mbtiauth_3575
1112,"(356, 3614, 222)",2,mbtiauth_3575
1113,"(375, 123, 286)",2,mbtiauth_3575
1114,"(441, 65, 551)",2,mbtiauth_3575
1115,"(441, 77, 599)",2,mbtiauth_3575
1116,"(520, 32, 9472)",2,mbtiauth_3575
1117,"(520, 65, 32)",2,mbtiauth_3575
1118,"(520, 65, 9472)",2,mbtiauth_3575
1119,"(520, 123, 32)",2,mbtiauth_3575
1120,"(520, 123, 65)",2,mbtiauth_3575
1121,"(520, 123, 9472)",2,mbtiauth_3575
1122,"(520, 154, 22)",2,mbtiauth_3575
1123,"(520, 154, 123)",2,mbtiauth_3575
1124,"(520, 154, 284)",2,mbtiauth_3575
1125,"(543, 64, 222)",2,mbtiauth_3575
1126,"(543, 356, 64)",2,mbtiauth_3575
1127,"(543, 356, 222)",2,mbtiauth_3575
1128,"(543, 356, 3614)",2,mbtiauth_3575
1129,"(543, 3614, 64)",2,mbtiauth_3575
1130,"(543, 3614, 222)",2,mbtiauth_3575
1131,"(561, 2800, 193)",2,mbtiauth_3575
1132,"(564, 154, 22)",2,mbtiauth_3575
1133,"(599, 193, 193)",2,mbtiauth_3575
1134,"(638, 22, 50)",2,mbtiauth_3575
1135,"(638, 22, 132)",2,mbtiauth_3575
1136,"(638, 77, 567)",2,mbtiauth_3575
1137,"(638, 77, 599)",2,mbtiauth_3575
1138,"(638, 132, 50)",2,mbtiauth_3575
1139,"(638, 599, 567)",2,mbtiauth_3575
1140,"(740, 4528, 123)",2,mbtiauth_3575
1141,"(1650, 10, 50)",2,mbtiauth_3575
1142,"(1650, 65, 10)",2,mbtiauth_3575
1143,"(1650, 65, 50)",2,mbtiauth_3575
1144,"(1758, 356, 364)",2,mbtiauth_3575
1145,"(1898, 2, 123)",2,mbtiauth_3575
1146,"(1898, 2, 193)",2,mbtiauth_3575
1147,"(1898, 77, 123)",2,mbtiauth_3575
1148,"(3614, 64, 222)",2,mbtiauth_3575
1149,"(3738, 22, 3738)",2,mbtiauth_3575
1150,"(3842, 170, 223)",2,mbtiauth_3575
1151,"(4528, 50, 35)",2,mbtiauth_3575
1152,"(4528, 123, 22)",2,mbtiauth_3575
1153,"(4528, 123, 31)",2,mbtiauth_3575
1154,"(4528, 123, 35)",2,mbtiauth_3575
1155,"(4528, 123, 50)",2,mbtiauth_3575
1156,"(4528, 123, 64)",3,mbtiauth_3575
1157,"(4528, 123, 65)",2,mbtiauth_3575
1158,"(9472, 50, 154)",2,mbtiauth_3575
1159,"(15806, 73, 64)",2,mbtiauth_3575
1160,"(15806, 3473, 50)",2,mbtiauth_3575
1161,"(2, 77, 123, 77)",2,mbtiauth_3575
1162,"(2, 77, 123, 193)",2,mbtiauth_3575
1163,"(2, 77, 193, 77)",2,mbtiauth_3575
1164,"(2, 123, 193, 77)",2,mbtiauth_3575
1165,"(22, 76, 123, 77)",2,mbtiauth_3575
1166,"(31, 22, 1927, 77)",2,mbtiauth_3575
1167,"(31, 22, 1927, 827)",2,mbtiauth_3575
1168,"(32, 123, 441, 65)",2,mbtiauth_3575
1169,"(32, 9472, 50, 154)",2,mbtiauth_3575
1170,"(50, 65, 3842, 154)",2,mbtiauth_3575
1171,"(50, 1898, 2, 193)",2,mbtiauth_3575
1172,"(64, 31, 22, 1927)",2,mbtiauth_3575
1173,"(64, 154, 123, 65)",2,mbtiauth_3575
1174,"(65, 32, 50, 154)",2,mbtiauth_3575
1175,"(65, 32, 9472, 50)",2,mbtiauth_3575
1176,"(65, 32, 9472, 154)",2,mbtiauth_3575
1177,"(65, 9472, 50, 154)",2,mbtiauth_3575
1178,"(70, 22, 31, 22)",2,mbtiauth_3575
1179,"(77, 22, 77, 599)",2,mbtiauth_3575
1180,"(77, 123, 193, 77)",2,mbtiauth_3575
1181,"(77, 123, 212, 564)",2,mbtiauth_3575
1182,"(77, 123, 1867, 22)",2,mbtiauth_3575
1183,"(77, 599, 193, 193)",2,mbtiauth_3575
1184,"(123, 22, 2, 64)",2,mbtiauth_3575
1185,"(123, 22, 64, 50)",2,mbtiauth_3575
1186,"(123, 22, 132, 50)",2,mbtiauth_3575
1187,"(123, 32, 9472, 50)",2,mbtiauth_3575
1188,"(123, 33, 64, 50)",2,mbtiauth_3575
1189,"(123, 65, 10, 50)",2,mbtiauth_3575
1190,"(123, 65, 32, 50)",2,mbtiauth_3575
1191,"(123, 65, 32, 9472)",3,mbtiauth_3575
1192,"(123, 65, 9472, 50)",2,mbtiauth_3575
1193,"(123, 154, 10, 22)",2,mbtiauth_3575
1194,"(123, 193, 206, 599)",2,mbtiauth_3575
1195,"(123, 205, 925, 67)",2,mbtiauth_3575
1196,"(123, 206, 2, 123)",2,mbtiauth_3575
1197,"(123, 206, 22, 64)",2,mbtiauth_3575
1198,"(123, 206, 77, 599)",2,mbtiauth_3575
1199,"(123, 206, 123, 64)",2,mbtiauth_3575
1200,"(123, 206, 599, 154)",2,mbtiauth_3575
1201,"(123, 212, 9472, 10)",2,mbtiauth_3575
1202,"(123, 441, 65, 551)",2,mbtiauth_3575
1203,"(123, 638, 22, 50)",2,mbtiauth_3575
1204,"(123, 638, 22, 132)",2,mbtiauth_3575
1205,"(123, 638, 132, 50)",2,mbtiauth_3575
1206,"(123, 1650, 10, 50)",2,mbtiauth_3575
1207,"(123, 1650, 65, 10)",2,mbtiauth_3575
1208,"(123, 1650, 65, 50)",2,mbtiauth_3575
1209,"(123, 1758, 356, 364)",2,mbtiauth_3575
1210,"(154, 123, 65, 2)",2,mbtiauth_3575
1211,"(158, 31, 22, 1927)",2,mbtiauth_3575
1212,"(162, 123, 206, 123)",2,mbtiauth_3575
1213,"(206, 77, 193, 206)",2,mbtiauth_3575
1214,"(280, 2, 77, 123)",2,mbtiauth_3575
1215,"(280, 2, 77, 193)",2,mbtiauth_3575
1216,"(280, 2, 123, 193)",2,mbtiauth_3575
1217,"(280, 77, 123, 193)",2,mbtiauth_3575
1218,"(349, 356, 64, 222)",2,mbtiauth_3575
1219,"(349, 356, 3614, 64)",2,mbtiauth_3575
1220,"(349, 356, 3614, 222)",2,mbtiauth_3575
1221,"(349, 543, 64, 222)",2,mbtiauth_3575
1222,"(349, 543, 356, 64)",2,mbtiauth_3575
1223,"(349, 543, 356, 222)",2,mbtiauth_3575
1224,"(349, 543, 356, 3614)",2,mbtiauth_3575
1225,"(349, 543, 3614, 64)",2,mbtiauth_3575
1226,"(349, 543, 3614, 222)",2,mbtiauth_3575
1227,"(349, 3614, 64, 222)",2,mbtiauth_3575
1228,"(356, 3614, 64, 222)",2,mbtiauth_3575
1229,"(520, 65, 32, 9472)",2,mbtiauth_3575
1230,"(520, 123, 32, 9472)",2,mbtiauth_3575
1231,"(520, 123, 65, 32)",2,mbtiauth_3575
1232,"(520, 123, 65, 9472)",2,mbtiauth_3575
1233,"(543, 356, 64, 222)",2,mbtiauth_3575
1234,"(543, 356, 3614, 64)",2,mbtiauth_3575
1235,"(543, 356, 3614, 222)",2,mbtiauth_3575
1236,"(543, 3614, 64, 222)",2,mbtiauth_3575
1237,"(638, 22, 132, 50)",2,mbtiauth_3575
1238,"(638, 77, 599, 567)",2,mbtiauth_3575
1239,"(1650, 65, 10, 50)",2,mbtiauth_3575
1240,"(4528, 123, 50, 35)",2,mbtiauth_3575
1241,"(2, 77, 123, 193, 77)",2,mbtiauth_3575
1242,"(65, 32, 9472, 50, 154)",2,mbtiauth_3575
1243,"(123, 65, 32, 9472, 50)",2,mbtiauth_3575
1244,"(123, 638, 22, 132, 50)",2,mbtiauth_3575
1245,"(123, 1650, 65, 10, 50)",2,mbtiauth_3575
1246,"(280, 2, 77, 123, 193)",2,mbtiauth_3575
1247,"(349, 356, 3614, 64, 222)",2,mbtiauth_3575
1248,"(349, 543, 356, 64, 222)",2,mbtiauth_3575
1249,"(349, 543, 356, 3614, 64)",2,mbtiauth_3575
1250,"(349, 543, 356, 3614, 222)",2,mbtiauth_3575
1251,"(349, 543, 3614, 64, 222)",2,mbtiauth_3575
1252,"(520, 123, 65, 32, 9472)",2,mbtiauth_3575
1253,"(543, 356, 3614, 64, 222)",2,mbtiauth_3575
1254,"(349, 543, 356, 3614, 64, 222)",2,mbtiauth_3575
