,pattern,sup,author
798,"(2, 2, 1721)",2,mbtiauth_2036
799,"(2, 64, 2)",2,mbtiauth_2036
800,"(2, 64, 65)",2,mbtiauth_2036
801,"(2, 64, 67)",2,mbtiauth_2036
802,"(2, 64, 123)",2,mbtiauth_2036
803,"(2, 64, 1721)",2,mbtiauth_2036
804,"(2, 123, 64)",2,mbtiauth_2036
805,"(2, 123, 65)",3,mbtiauth_2036
806,"(2, 164, 222)",2,mbtiauth_2036
807,"(2, 164, 262)",2,mbtiauth_2036
808,"(2, 174, 65)",2,mbtiauth_2036
809,"(2, 349, 260)",2,mbtiauth_2036
810,"(2, 434, 10)",2,mbtiauth_2036
811,"(2, 434, 170)",2,mbtiauth_2036
812,"(10, 77, 77)",2,mbtiauth_2036
813,"(13, 41, 64)",2,mbtiauth_2036
814,"(13, 154, 64)",2,mbtiauth_2036
815,"(16, 16, 65)",2,mbtiauth_2036
816,"(16, 65, 22)",2,mbtiauth_2036
817,"(16, 77, 16)",3,mbtiauth_2036
818,"(16, 77, 599)",2,mbtiauth_2036
819,"(16, 123, 174)",2,mbtiauth_2036
820,"(16, 198, 32)",2,mbtiauth_2036
821,"(16, 599, 16)",2,mbtiauth_2036
822,"(22, 32, 50)",2,mbtiauth_2036
823,"(22, 41, 64)",2,mbtiauth_2036
824,"(22, 41, 160)",2,mbtiauth_2036
825,"(22, 64, 22)",2,mbtiauth_2036
826,"(22, 64, 499)",2,mbtiauth_2036
827,"(22, 77, 77)",3,mbtiauth_2036
828,"(22, 160, 64)",2,mbtiauth_2036
829,"(22, 365, 64)",2,mbtiauth_2036
830,"(22, 599, 123)",2,mbtiauth_2036
831,"(27, 29, 2343)",2,mbtiauth_2036
832,"(27, 656, 64)",2,mbtiauth_2036
833,"(29, 41, 441)",2,mbtiauth_2036
834,"(29, 154, 41)",2,mbtiauth_2036
835,"(29, 154, 441)",2,mbtiauth_2036
836,"(32, 65, 441)",2,mbtiauth_2036
837,"(33, 22, 77)",2,mbtiauth_2036
838,"(33, 77, 77)",2,mbtiauth_2036
839,"(41, 41, 48)",2,mbtiauth_2036
840,"(41, 41, 183)",2,mbtiauth_2036
841,"(41, 41, 326)",2,mbtiauth_2036
842,"(41, 64, 2)",2,mbtiauth_2036
843,"(41, 64, 65)",2,mbtiauth_2036
844,"(41, 64, 67)",2,mbtiauth_2036
845,"(41, 64, 520)",2,mbtiauth_2036
846,"(41, 65, 2)",2,mbtiauth_2036
847,"(41, 120, 64)",2,mbtiauth_2036
848,"(41, 120, 67)",2,mbtiauth_2036
849,"(41, 154, 41)",2,mbtiauth_2036
850,"(41, 160, 64)",2,mbtiauth_2036
851,"(41, 183, 48)",2,mbtiauth_2036
852,"(41, 183, 326)",2,mbtiauth_2036
853,"(41, 326, 48)",2,mbtiauth_2036
854,"(41, 340, 41)",2,mbtiauth_2036
855,"(41, 340, 48)",2,mbtiauth_2036
856,"(41, 340, 183)",2,mbtiauth_2036
857,"(41, 340, 326)",2,mbtiauth_2036
858,"(41, 441, 1)",2,mbtiauth_2036
859,"(41, 441, 64)",2,mbtiauth_2036
860,"(41, 441, 65)",2,mbtiauth_2036
861,"(48, 64, 41)",2,mbtiauth_2036
862,"(48, 123, 64)",2,mbtiauth_2036
863,"(50, 78, 246)",2,mbtiauth_2036
864,"(50, 183, 78)",2,mbtiauth_2036
865,"(50, 183, 246)",2,mbtiauth_2036
866,"(64, 2, 1721)",2,mbtiauth_2036
867,"(64, 16, 2)",2,mbtiauth_2036
868,"(64, 22, 64)",3,mbtiauth_2036
869,"(64, 22, 76)",2,mbtiauth_2036
870,"(64, 22, 144)",2,mbtiauth_2036
871,"(64, 32, 22)",2,mbtiauth_2036
872,"(64, 65, 2)",2,mbtiauth_2036
873,"(64, 66, 22)",2,mbtiauth_2036
874,"(64, 67, 2)",2,mbtiauth_2036
875,"(64, 67, 22)",3,mbtiauth_2036
876,"(64, 67, 32)",2,mbtiauth_2036
877,"(64, 67, 520)",2,mbtiauth_2036
878,"(64, 123, 2)",2,mbtiauth_2036
879,"(64, 123, 64)",2,mbtiauth_2036
880,"(64, 164, 434)",2,mbtiauth_2036
881,"(64, 198, 64)",2,mbtiauth_2036
882,"(64, 411, 123)",2,mbtiauth_2036
883,"(64, 2343, 64)",2,mbtiauth_2036
884,"(65, 22, 123)",2,mbtiauth_2036
885,"(65, 82, 254)",2,mbtiauth_2036
886,"(65, 123, 10)",2,mbtiauth_2036
887,"(65, 123, 608)",2,mbtiauth_2036
888,"(65, 263, 291)",2,mbtiauth_2036
889,"(65, 263, 3457)",2,mbtiauth_2036
890,"(65, 291, 3457)",2,mbtiauth_2036
891,"(65, 401, 82)",2,mbtiauth_2036
892,"(65, 401, 254)",2,mbtiauth_2036
893,"(66, 22, 76)",3,mbtiauth_2036
894,"(77, 2, 64)",2,mbtiauth_2036
895,"(77, 2, 67)",2,mbtiauth_2036
896,"(77, 16, 65)",2,mbtiauth_2036
897,"(77, 16, 77)",2,mbtiauth_2036
898,"(77, 27, 123)",2,mbtiauth_2036
899,"(77, 64, 67)",2,mbtiauth_2036
900,"(77, 77, 2)",2,mbtiauth_2036
901,"(77, 77, 64)",2,mbtiauth_2036
902,"(77, 77, 77)",5,mbtiauth_2036
903,"(77, 77, 123)",2,mbtiauth_2036
904,"(77, 77, 220)",2,mbtiauth_2036
905,"(77, 77, 222)",2,mbtiauth_2036
906,"(77, 77, 599)",2,mbtiauth_2036
907,"(77, 77, 650)",2,mbtiauth_2036
908,"(77, 123, 64)",2,mbtiauth_2036
909,"(77, 140, 656)",2,mbtiauth_2036
910,"(77, 599, 16)",3,mbtiauth_2036
911,"(77, 599, 65)",2,mbtiauth_2036
912,"(77, 599, 77)",2,mbtiauth_2036
913,"(77, 650, 369)",2,mbtiauth_2036
914,"(77, 656, 64)",2,mbtiauth_2036
915,"(78, 22, 64)",2,mbtiauth_2036
916,"(78, 22, 222)",2,mbtiauth_2036
917,"(78, 48, 64)",2,mbtiauth_2036
918,"(78, 48, 123)",2,mbtiauth_2036
919,"(78, 78, 22)",2,mbtiauth_2036
920,"(78, 78, 64)",3,mbtiauth_2036
921,"(78, 78, 123)",2,mbtiauth_2036
922,"(78, 78, 222)",2,mbtiauth_2036
923,"(78, 123, 10)",2,mbtiauth_2036
924,"(78, 123, 64)",3,mbtiauth_2036
925,"(78, 123, 123)",2,mbtiauth_2036
926,"(78, 326, 48)",3,mbtiauth_2036
927,"(78, 326, 64)",2,mbtiauth_2036
928,"(78, 326, 123)",2,mbtiauth_2036
929,"(78, 608, 64)",2,mbtiauth_2036
930,"(78, 608, 78)",2,mbtiauth_2036
931,"(78, 608, 123)",2,mbtiauth_2036
932,"(120, 64, 67)",2,mbtiauth_2036
933,"(120, 65, 64)",2,mbtiauth_2036
934,"(123, 2, 10)",3,mbtiauth_2036
935,"(123, 2, 64)",2,mbtiauth_2036
936,"(123, 2, 65)",2,mbtiauth_2036
937,"(123, 2, 123)",2,mbtiauth_2036
938,"(123, 3, 2)",2,mbtiauth_2036
939,"(123, 10, 2)",2,mbtiauth_2036
940,"(123, 10, 50)",2,mbtiauth_2036
941,"(123, 10, 65)",2,mbtiauth_2036
942,"(123, 10, 77)",2,mbtiauth_2036
943,"(123, 10, 21764)",2,mbtiauth_2036
944,"(123, 16, 22)",3,mbtiauth_2036
945,"(123, 16, 65)",2,mbtiauth_2036
946,"(123, 16, 123)",2,mbtiauth_2036
947,"(123, 16, 174)",2,mbtiauth_2036
948,"(123, 22, 2)",3,mbtiauth_2036
949,"(123, 22, 10)",2,mbtiauth_2036
950,"(123, 22, 76)",3,mbtiauth_2036
951,"(123, 22, 77)",2,mbtiauth_2036
952,"(123, 22, 499)",2,mbtiauth_2036
953,"(123, 29, 170)",2,mbtiauth_2036
954,"(123, 32, 65)",2,mbtiauth_2036
955,"(123, 32, 66)",2,mbtiauth_2036
956,"(123, 33, 22)",2,mbtiauth_2036
957,"(123, 33, 77)",2,mbtiauth_2036
958,"(123, 64, 16)",2,mbtiauth_2036
959,"(123, 64, 22)",4,mbtiauth_2036
960,"(123, 64, 29)",2,mbtiauth_2036
961,"(123, 64, 32)",3,mbtiauth_2036
962,"(123, 64, 41)",2,mbtiauth_2036
963,"(123, 64, 65)",3,mbtiauth_2036
964,"(123, 64, 66)",2,mbtiauth_2036
965,"(123, 64, 67)",5,mbtiauth_2036
966,"(123, 64, 123)",2,mbtiauth_2036
967,"(123, 64, 599)",2,mbtiauth_2036
968,"(123, 64, 654)",2,mbtiauth_2036
969,"(123, 64, 1655)",2,mbtiauth_2036
970,"(123, 65, 22)",4,mbtiauth_2036
971,"(123, 65, 64)",2,mbtiauth_2036
972,"(123, 65, 78)",2,mbtiauth_2036
973,"(123, 65, 82)",2,mbtiauth_2036
974,"(123, 65, 123)",2,mbtiauth_2036
975,"(123, 65, 170)",2,mbtiauth_2036
976,"(123, 65, 254)",2,mbtiauth_2036
977,"(123, 65, 401)",2,mbtiauth_2036
978,"(123, 65, 444)",2,mbtiauth_2036
979,"(123, 66, 10)",2,mbtiauth_2036
980,"(123, 66, 22)",4,mbtiauth_2036
981,"(123, 66, 76)",3,mbtiauth_2036
982,"(123, 77, 27)",2,mbtiauth_2036
983,"(123, 77, 77)",3,mbtiauth_2036
984,"(123, 78, 246)",2,mbtiauth_2036
985,"(123, 82, 254)",2,mbtiauth_2036
986,"(123, 123, 10)",2,mbtiauth_2036
987,"(123, 123, 65)",3,mbtiauth_2036
988,"(123, 123, 174)",3,mbtiauth_2036
989,"(123, 142, 64)",2,mbtiauth_2036
990,"(123, 151, 32)",2,mbtiauth_2036
991,"(123, 160, 22)",2,mbtiauth_2036
992,"(123, 162, 123)",2,mbtiauth_2036
993,"(123, 171, 365)",2,mbtiauth_2036
994,"(123, 174, 16)",2,mbtiauth_2036
995,"(123, 174, 22)",2,mbtiauth_2036
996,"(123, 174, 50)",2,mbtiauth_2036
997,"(123, 174, 77)",3,mbtiauth_2036
998,"(123, 174, 123)",4,mbtiauth_2036
999,"(123, 206, 32)",2,mbtiauth_2036
1000,"(123, 206, 64)",3,mbtiauth_2036
1001,"(123, 206, 656)",2,mbtiauth_2036
1002,"(123, 220, 2)",2,mbtiauth_2036
1003,"(123, 220, 22)",2,mbtiauth_2036
1004,"(123, 226, 3631)",2,mbtiauth_2036
1005,"(123, 254, 123)",2,mbtiauth_2036
1006,"(123, 254, 170)",2,mbtiauth_2036
1007,"(123, 254, 193)",2,mbtiauth_2036
1008,"(123, 262, 22)",2,mbtiauth_2036
1009,"(123, 268, 164)",2,mbtiauth_2036
1010,"(123, 401, 82)",2,mbtiauth_2036
1011,"(123, 401, 254)",2,mbtiauth_2036
1012,"(123, 407, 2)",2,mbtiauth_2036
1013,"(123, 441, 2)",2,mbtiauth_2036
1014,"(123, 441, 10)",3,mbtiauth_2036
1015,"(123, 441, 65)",2,mbtiauth_2036
1016,"(123, 441, 78)",2,mbtiauth_2036
1017,"(123, 599, 16)",2,mbtiauth_2036
1018,"(123, 599, 123)",2,mbtiauth_2036
1019,"(123, 599, 254)",2,mbtiauth_2036
1020,"(123, 608, 31)",2,mbtiauth_2036
1021,"(123, 613, 22)",2,mbtiauth_2036
1022,"(123, 656, 64)",2,mbtiauth_2036
1023,"(123, 764, 64)",3,mbtiauth_2036
1024,"(123, 764, 67)",2,mbtiauth_2036
1025,"(123, 929, 655)",2,mbtiauth_2036
1026,"(123, 1313, 64)",3,mbtiauth_2036
1027,"(123, 1758, 2)",2,mbtiauth_2036
1028,"(123, 1758, 22)",3,mbtiauth_2036
1029,"(123, 2280, 123)",2,mbtiauth_2036
1030,"(123, 2787, 22)",2,mbtiauth_2036
1031,"(140, 77, 140)",2,mbtiauth_2036
1032,"(140, 77, 656)",2,mbtiauth_2036
1033,"(140, 140, 656)",2,mbtiauth_2036
1034,"(154, 41, 2)",2,mbtiauth_2036
1035,"(154, 41, 441)",3,mbtiauth_2036
1036,"(154, 123, 16)",2,mbtiauth_2036
1037,"(154, 365, 64)",2,mbtiauth_2036
1038,"(160, 2, 164)",2,mbtiauth_2036
1039,"(162, 77, 77)",2,mbtiauth_2036
1040,"(162, 123, 77)",2,mbtiauth_2036
1041,"(162, 123, 123)",2,mbtiauth_2036
1042,"(162, 123, 206)",2,mbtiauth_2036
1043,"(170, 22, 41)",3,mbtiauth_2036
1044,"(170, 22, 64)",2,mbtiauth_2036
1045,"(170, 22, 160)",2,mbtiauth_2036
1046,"(170, 41, 64)",3,mbtiauth_2036
1047,"(170, 41, 160)",2,mbtiauth_2036
1048,"(170, 123, 64)",2,mbtiauth_2036
1049,"(170, 154, 41)",2,mbtiauth_2036
1050,"(170, 160, 64)",2,mbtiauth_2036
1051,"(170, 171, 1160)",2,mbtiauth_2036
1052,"(170, 262, 22)",3,mbtiauth_2036
1053,"(170, 262, 41)",3,mbtiauth_2036
1054,"(170, 262, 64)",2,mbtiauth_2036
1055,"(170, 262, 160)",2,mbtiauth_2036
1056,"(183, 2, 16)",2,mbtiauth_2036
1057,"(183, 78, 246)",2,mbtiauth_2036
1058,"(183, 326, 48)",2,mbtiauth_2036
1059,"(189, 193, 170)",2,mbtiauth_2036
1060,"(206, 64, 64)",2,mbtiauth_2036
1061,"(206, 656, 64)",2,mbtiauth_2036
1062,"(222, 64, 520)",2,mbtiauth_2036
1063,"(262, 22, 41)",3,mbtiauth_2036
1064,"(262, 22, 64)",2,mbtiauth_2036
1065,"(262, 22, 160)",2,mbtiauth_2036
1066,"(262, 41, 64)",2,mbtiauth_2036
1067,"(262, 41, 160)",2,mbtiauth_2036
1068,"(262, 160, 64)",2,mbtiauth_2036
1069,"(262, 198, 193)",2,mbtiauth_2036
1070,"(262, 624, 22)",2,mbtiauth_2036
1071,"(263, 291, 3457)",2,mbtiauth_2036
1072,"(326, 48, 41)",2,mbtiauth_2036
1073,"(326, 48, 64)",3,mbtiauth_2036
1074,"(326, 48, 123)",2,mbtiauth_2036
1075,"(326, 64, 41)",2,mbtiauth_2036
1076,"(326, 123, 64)",2,mbtiauth_2036
1077,"(340, 41, 48)",2,mbtiauth_2036
1078,"(340, 41, 183)",2,mbtiauth_2036
1079,"(340, 41, 326)",2,mbtiauth_2036
1080,"(340, 183, 48)",2,mbtiauth_2036
1081,"(340, 183, 326)",2,mbtiauth_2036
1082,"(340, 326, 48)",2,mbtiauth_2036
1083,"(365, 22, 32)",2,mbtiauth_2036
1084,"(401, 82, 254)",2,mbtiauth_2036
1085,"(411, 2, 174)",2,mbtiauth_2036
1086,"(411, 64, 22)",2,mbtiauth_2036
1087,"(434, 22, 132)",2,mbtiauth_2036
1088,"(441, 41, 291)",2,mbtiauth_2036
1089,"(441, 65, 263)",2,mbtiauth_2036
1090,"(441, 65, 291)",2,mbtiauth_2036
1091,"(441, 65, 3457)",2,mbtiauth_2036
1092,"(441, 263, 291)",2,mbtiauth_2036
1093,"(441, 263, 3457)",2,mbtiauth_2036
1094,"(441, 291, 3457)",2,mbtiauth_2036
1095,"(441, 1650, 65)",2,mbtiauth_2036
1096,"(441, 1650, 263)",2,mbtiauth_2036
1097,"(441, 1650, 291)",2,mbtiauth_2036
1098,"(441, 1650, 3457)",2,mbtiauth_2036
1099,"(547, 326, 48)",2,mbtiauth_2036
1100,"(599, 16, 16)",2,mbtiauth_2036
1101,"(599, 16, 65)",2,mbtiauth_2036
1102,"(599, 16, 77)",3,mbtiauth_2036
1103,"(599, 16, 599)",3,mbtiauth_2036
1104,"(599, 77, 16)",2,mbtiauth_2036
1105,"(599, 77, 599)",2,mbtiauth_2036
1106,"(599, 123, 2)",2,mbtiauth_2036
1107,"(599, 123, 77)",2,mbtiauth_2036
1108,"(599, 123, 144)",2,mbtiauth_2036
1109,"(599, 254, 123)",2,mbtiauth_2036
1110,"(599, 599, 16)",2,mbtiauth_2036
1111,"(608, 78, 64)",2,mbtiauth_2036
1112,"(608, 78, 123)",2,mbtiauth_2036
1113,"(656, 64, 198)",3,mbtiauth_2036
1114,"(656, 77, 140)",2,mbtiauth_2036
1115,"(701, 64, 67)",2,mbtiauth_2036
1116,"(764, 64, 67)",2,mbtiauth_2036
1117,"(929, 198, 4087)",2,mbtiauth_2036
1118,"(929, 655, 123)",2,mbtiauth_2036
1119,"(1650, 65, 263)",2,mbtiauth_2036
1120,"(1650, 65, 291)",2,mbtiauth_2036
1121,"(1650, 65, 3457)",2,mbtiauth_2036
1122,"(1650, 263, 291)",2,mbtiauth_2036
1123,"(1650, 263, 3457)",2,mbtiauth_2036
1124,"(1650, 291, 3457)",2,mbtiauth_2036
1125,"(1758, 22, 2)",2,mbtiauth_2036
1126,"(2, 64, 2, 1721)",2,mbtiauth_2036
1127,"(16, 77, 599, 16)",2,mbtiauth_2036
1128,"(22, 41, 160, 64)",2,mbtiauth_2036
1129,"(29, 154, 41, 441)",2,mbtiauth_2036
1130,"(33, 22, 77, 77)",2,mbtiauth_2036
1131,"(41, 41, 183, 48)",2,mbtiauth_2036
1132,"(41, 41, 183, 326)",2,mbtiauth_2036
1133,"(41, 41, 326, 48)",2,mbtiauth_2036
1134,"(41, 64, 65, 2)",2,mbtiauth_2036
1135,"(41, 120, 64, 67)",2,mbtiauth_2036
1136,"(41, 183, 326, 48)",2,mbtiauth_2036
1137,"(41, 340, 41, 48)",2,mbtiauth_2036
1138,"(41, 340, 41, 183)",2,mbtiauth_2036
1139,"(41, 340, 41, 326)",2,mbtiauth_2036
1140,"(41, 340, 183, 48)",2,mbtiauth_2036
1141,"(41, 340, 183, 326)",2,mbtiauth_2036
1142,"(41, 340, 326, 48)",2,mbtiauth_2036
1143,"(50, 183, 78, 246)",2,mbtiauth_2036
1144,"(65, 263, 291, 3457)",2,mbtiauth_2036
1145,"(65, 401, 82, 254)",2,mbtiauth_2036
1146,"(77, 2, 64, 67)",2,mbtiauth_2036
1147,"(77, 77, 77, 77)",2,mbtiauth_2036
1148,"(77, 599, 16, 65)",2,mbtiauth_2036
1149,"(77, 599, 16, 77)",2,mbtiauth_2036
1150,"(78, 48, 123, 64)",2,mbtiauth_2036
1151,"(78, 78, 22, 64)",2,mbtiauth_2036
1152,"(78, 78, 22, 222)",2,mbtiauth_2036
1153,"(78, 326, 48, 64)",2,mbtiauth_2036
1154,"(78, 326, 48, 123)",2,mbtiauth_2036
1155,"(78, 326, 123, 64)",2,mbtiauth_2036
1156,"(78, 608, 78, 64)",2,mbtiauth_2036
1157,"(78, 608, 78, 123)",2,mbtiauth_2036
1158,"(123, 2, 123, 65)",2,mbtiauth_2036
1159,"(123, 16, 65, 22)",2,mbtiauth_2036
1160,"(123, 16, 123, 174)",2,mbtiauth_2036
1161,"(123, 33, 22, 77)",2,mbtiauth_2036
1162,"(123, 64, 66, 22)",2,mbtiauth_2036
1163,"(123, 65, 82, 254)",2,mbtiauth_2036
1164,"(123, 65, 401, 82)",2,mbtiauth_2036
1165,"(123, 65, 401, 254)",2,mbtiauth_2036
1166,"(123, 66, 22, 76)",3,mbtiauth_2036
1167,"(123, 206, 656, 64)",2,mbtiauth_2036
1168,"(123, 401, 82, 254)",2,mbtiauth_2036
1169,"(123, 599, 254, 123)",2,mbtiauth_2036
1170,"(123, 764, 64, 67)",2,mbtiauth_2036
1171,"(123, 1758, 22, 2)",2,mbtiauth_2036
1172,"(140, 77, 140, 656)",2,mbtiauth_2036
1173,"(170, 22, 41, 64)",2,mbtiauth_2036
1174,"(170, 22, 41, 160)",2,mbtiauth_2036
1175,"(170, 22, 160, 64)",2,mbtiauth_2036
1176,"(170, 41, 160, 64)",2,mbtiauth_2036
1177,"(170, 262, 22, 41)",3,mbtiauth_2036
1178,"(170, 262, 22, 64)",2,mbtiauth_2036
1179,"(170, 262, 22, 160)",2,mbtiauth_2036
1180,"(170, 262, 41, 64)",2,mbtiauth_2036
1181,"(170, 262, 41, 160)",2,mbtiauth_2036
1182,"(170, 262, 160, 64)",2,mbtiauth_2036
1183,"(262, 22, 41, 64)",2,mbtiauth_2036
1184,"(262, 22, 41, 160)",2,mbtiauth_2036
1185,"(262, 22, 160, 64)",2,mbtiauth_2036
1186,"(262, 41, 160, 64)",2,mbtiauth_2036
1187,"(326, 48, 64, 41)",2,mbtiauth_2036
1188,"(326, 48, 123, 64)",2,mbtiauth_2036
1189,"(340, 41, 183, 48)",2,mbtiauth_2036
1190,"(340, 41, 183, 326)",2,mbtiauth_2036
1191,"(340, 41, 326, 48)",2,mbtiauth_2036
1192,"(340, 183, 326, 48)",2,mbtiauth_2036
1193,"(441, 65, 263, 291)",2,mbtiauth_2036
1194,"(441, 65, 263, 3457)",2,mbtiauth_2036
1195,"(441, 65, 291, 3457)",2,mbtiauth_2036
1196,"(441, 263, 291, 3457)",2,mbtiauth_2036
1197,"(441, 1650, 65, 263)",2,mbtiauth_2036
1198,"(441, 1650, 65, 291)",2,mbtiauth_2036
1199,"(441, 1650, 65, 3457)",2,mbtiauth_2036
1200,"(441, 1650, 263, 291)",2,mbtiauth_2036
1201,"(441, 1650, 263, 3457)",2,mbtiauth_2036
1202,"(441, 1650, 291, 3457)",2,mbtiauth_2036
1203,"(599, 16, 77, 16)",2,mbtiauth_2036
1204,"(599, 16, 77, 599)",2,mbtiauth_2036
1205,"(599, 16, 599, 16)",2,mbtiauth_2036
1206,"(599, 77, 599, 16)",2,mbtiauth_2036
1207,"(1650, 65, 263, 291)",2,mbtiauth_2036
1208,"(1650, 65, 263, 3457)",2,mbtiauth_2036
1209,"(1650, 65, 291, 3457)",2,mbtiauth_2036
1210,"(1650, 263, 291, 3457)",2,mbtiauth_2036
1211,"(41, 41, 183, 326, 48)",2,mbtiauth_2036
1212,"(41, 340, 41, 183, 48)",2,mbtiauth_2036
1213,"(41, 340, 41, 183, 326)",2,mbtiauth_2036
1214,"(41, 340, 41, 326, 48)",2,mbtiauth_2036
1215,"(41, 340, 183, 326, 48)",2,mbtiauth_2036
1216,"(78, 326, 48, 123, 64)",2,mbtiauth_2036
1217,"(123, 65, 401, 82, 254)",2,mbtiauth_2036
1218,"(170, 22, 41, 160, 64)",2,mbtiauth_2036
1219,"(170, 262, 22, 41, 64)",2,mbtiauth_2036
1220,"(170, 262, 22, 41, 160)",2,mbtiauth_2036
1221,"(170, 262, 22, 160, 64)",2,mbtiauth_2036
1222,"(170, 262, 41, 160, 64)",2,mbtiauth_2036
1223,"(262, 22, 41, 160, 64)",2,mbtiauth_2036
1224,"(340, 41, 183, 326, 48)",2,mbtiauth_2036
1225,"(441, 65, 263, 291, 3457)",2,mbtiauth_2036
1226,"(441, 1650, 65, 263, 291)",2,mbtiauth_2036
1227,"(441, 1650, 65, 263, 3457)",2,mbtiauth_2036
1228,"(441, 1650, 65, 291, 3457)",2,mbtiauth_2036
1229,"(441, 1650, 263, 291, 3457)",2,mbtiauth_2036
1230,"(599, 16, 77, 599, 16)",2,mbtiauth_2036
1231,"(1650, 65, 263, 291, 3457)",2,mbtiauth_2036
1232,"(41, 340, 41, 183, 326, 48)",2,mbtiauth_2036
1233,"(170, 262, 22, 41, 160, 64)",2,mbtiauth_2036
1234,"(441, 1650, 65, 263, 291, 3457)",2,mbtiauth_2036
