,pattern,sup,author
979,"(2, 2, 32)",2,mbtiauth_6304
980,"(2, 22, 2)",3,mbtiauth_6304
981,"(2, 22, 77)",3,mbtiauth_6304
982,"(2, 22, 123)",2,mbtiauth_6304
983,"(2, 22, 170)",2,mbtiauth_6304
984,"(2, 22, 262)",2,mbtiauth_6304
985,"(2, 27, 123)",2,mbtiauth_6304
986,"(2, 27, 262)",2,mbtiauth_6304
987,"(2, 32, 27)",2,mbtiauth_6304
988,"(2, 41, 77)",2,mbtiauth_6304
989,"(2, 64, 2958)",2,mbtiauth_6304
990,"(2, 77, 2)",2,mbtiauth_6304
991,"(2, 77, 65)",2,mbtiauth_6304
992,"(2, 77, 123)",3,mbtiauth_6304
993,"(2, 77, 154)",2,mbtiauth_6304
994,"(2, 152, 64)",2,mbtiauth_6304
995,"(2, 154, 650)",2,mbtiauth_6304
996,"(2, 164, 77)",2,mbtiauth_6304
997,"(2, 170, 27)",2,mbtiauth_6304
998,"(2, 170, 262)",2,mbtiauth_6304
999,"(2, 221, 123)",2,mbtiauth_6304
1000,"(2, 650, 183)",2,mbtiauth_6304
1001,"(2, 650, 369)",2,mbtiauth_6304
1002,"(10, 65, 77)",2,mbtiauth_6304
1003,"(10, 77, 77)",2,mbtiauth_6304
1004,"(10, 77, 599)",2,mbtiauth_6304
1005,"(10, 77, 657)",2,mbtiauth_6304
1006,"(10, 123, 77)",2,mbtiauth_6304
1007,"(10, 170, 27)",2,mbtiauth_6304
1008,"(10, 262, 123)",2,mbtiauth_6304
1009,"(16, 77, 599)",2,mbtiauth_6304
1010,"(22, 2, 22)",2,mbtiauth_6304
1011,"(22, 2, 27)",2,mbtiauth_6304
1012,"(22, 2, 32)",3,mbtiauth_6304
1013,"(22, 2, 77)",2,mbtiauth_6304
1014,"(22, 2, 123)",2,mbtiauth_6304
1015,"(22, 2, 170)",2,mbtiauth_6304
1016,"(22, 10, 77)",2,mbtiauth_6304
1017,"(22, 10, 599)",2,mbtiauth_6304
1018,"(22, 22, 32)",2,mbtiauth_6304
1019,"(22, 22, 538)",2,mbtiauth_6304
1020,"(22, 32, 10)",2,mbtiauth_6304
1021,"(22, 32, 22)",2,mbtiauth_6304
1022,"(22, 32, 66)",2,mbtiauth_6304
1023,"(22, 32, 77)",2,mbtiauth_6304
1024,"(22, 32, 183)",2,mbtiauth_6304
1025,"(22, 32, 657)",2,mbtiauth_6304
1026,"(22, 77, 2)",3,mbtiauth_6304
1027,"(22, 77, 77)",2,mbtiauth_6304
1028,"(22, 77, 123)",3,mbtiauth_6304
1029,"(22, 77, 244)",2,mbtiauth_6304
1030,"(22, 77, 599)",4,mbtiauth_6304
1031,"(22, 123, 77)",2,mbtiauth_6304
1032,"(22, 123, 120)",2,mbtiauth_6304
1033,"(22, 123, 152)",2,mbtiauth_6304
1034,"(22, 123, 193)",2,mbtiauth_6304
1035,"(22, 123, 441)",2,mbtiauth_6304
1036,"(22, 170, 27)",2,mbtiauth_6304
1037,"(22, 183, 22)",2,mbtiauth_6304
1038,"(22, 183, 140)",2,mbtiauth_6304
1039,"(22, 193, 164)",2,mbtiauth_6304
1040,"(22, 193, 170)",2,mbtiauth_6304
1041,"(22, 206, 32)",2,mbtiauth_6304
1042,"(22, 213, 77)",2,mbtiauth_6304
1043,"(22, 233, 193)",2,mbtiauth_6304
1044,"(22, 657, 183)",3,mbtiauth_6304
1045,"(22, 756, 77)",3,mbtiauth_6304
1046,"(22, 756, 827)",2,mbtiauth_6304
1047,"(22, 827, 77)",2,mbtiauth_6304
1048,"(22, 1441, 27)",2,mbtiauth_6304
1049,"(22, 2630, 123)",2,mbtiauth_6304
1050,"(22, 2630, 193)",2,mbtiauth_6304
1051,"(22, 2630, 233)",2,mbtiauth_6304
1052,"(22, 2665, 10)",2,mbtiauth_6304
1053,"(22, 2665, 65)",2,mbtiauth_6304
1054,"(22, 7831, 77)",2,mbtiauth_6304
1055,"(22, 7831, 599)",2,mbtiauth_6304
1056,"(27, 41, 127)",3,mbtiauth_6304
1057,"(27, 41, 144)",2,mbtiauth_6304
1058,"(27, 77, 41)",2,mbtiauth_6304
1059,"(27, 123, 22)",2,mbtiauth_6304
1060,"(27, 123, 50)",2,mbtiauth_6304
1061,"(27, 123, 64)",2,mbtiauth_6304
1062,"(27, 123, 77)",2,mbtiauth_6304
1063,"(27, 123, 144)",2,mbtiauth_6304
1064,"(27, 144, 41)",2,mbtiauth_6304
1065,"(27, 170, 22)",2,mbtiauth_6304
1066,"(27, 170, 32)",2,mbtiauth_6304
1067,"(27, 236, 41)",2,mbtiauth_6304
1068,"(27, 236, 144)",2,mbtiauth_6304
1069,"(27, 236, 225)",2,mbtiauth_6304
1070,"(27, 291, 22)",2,mbtiauth_6304
1071,"(31, 77, 64)",2,mbtiauth_6304
1072,"(31, 77, 170)",2,mbtiauth_6304
1073,"(31, 77, 193)",3,mbtiauth_6304
1074,"(31, 170, 64)",2,mbtiauth_6304
1075,"(31, 193, 64)",2,mbtiauth_6304
1076,"(31, 193, 170)",2,mbtiauth_6304
1077,"(32, 22, 2)",2,mbtiauth_6304
1078,"(32, 123, 64)",2,mbtiauth_6304
1079,"(32, 657, 183)",2,mbtiauth_6304
1080,"(32, 842, 22)",2,mbtiauth_6304
1081,"(41, 2, 41)",2,mbtiauth_6304
1082,"(41, 22, 77)",2,mbtiauth_6304
1083,"(41, 31, 77)",2,mbtiauth_6304
1084,"(41, 64, 65)",2,mbtiauth_6304
1085,"(41, 64, 774)",2,mbtiauth_6304
1086,"(41, 77, 41)",3,mbtiauth_6304
1087,"(41, 77, 193)",2,mbtiauth_6304
1088,"(41, 117, 77)",2,mbtiauth_6304
1089,"(41, 120, 441)",2,mbtiauth_6304
1090,"(50, 77, 64)",2,mbtiauth_6304
1091,"(50, 77, 123)",3,mbtiauth_6304
1092,"(50, 77, 154)",2,mbtiauth_6304
1093,"(50, 123, 64)",2,mbtiauth_6304
1094,"(64, 2, 64)",2,mbtiauth_6304
1095,"(64, 10, 262)",2,mbtiauth_6304
1096,"(64, 22, 2)",2,mbtiauth_6304
1097,"(64, 22, 10)",2,mbtiauth_6304
1098,"(64, 22, 22)",2,mbtiauth_6304
1099,"(64, 64, 10)",2,mbtiauth_6304
1100,"(64, 64, 123)",2,mbtiauth_6304
1101,"(64, 64, 369)",2,mbtiauth_6304
1102,"(64, 66, 650)",2,mbtiauth_6304
1103,"(64, 66, 1062)",2,mbtiauth_6304
1104,"(64, 66, 2691)",2,mbtiauth_6304
1105,"(64, 66, 2809)",2,mbtiauth_6304
1106,"(64, 67, 10)",2,mbtiauth_6304
1107,"(64, 67, 77)",2,mbtiauth_6304
1108,"(64, 67, 599)",2,mbtiauth_6304
1109,"(64, 77, 2)",2,mbtiauth_6304
1110,"(64, 77, 64)",2,mbtiauth_6304
1111,"(64, 77, 599)",2,mbtiauth_6304
1112,"(64, 77, 650)",2,mbtiauth_6304
1113,"(64, 77, 1062)",2,mbtiauth_6304
1114,"(64, 78, 193)",2,mbtiauth_6304
1115,"(64, 144, 2)",2,mbtiauth_6304
1116,"(64, 164, 2)",2,mbtiauth_6304
1117,"(64, 170, 123)",2,mbtiauth_6304
1118,"(64, 183, 2809)",2,mbtiauth_6304
1119,"(64, 193, 170)",3,mbtiauth_6304
1120,"(64, 238, 64)",2,mbtiauth_6304
1121,"(64, 485, 31)",2,mbtiauth_6304
1122,"(64, 538, 5954)",2,mbtiauth_6304
1123,"(64, 756, 2)",2,mbtiauth_6304
1124,"(64, 774, 2958)",2,mbtiauth_6304
1125,"(64, 1146, 123)",2,mbtiauth_6304
1126,"(64, 2691, 2809)",2,mbtiauth_6304
1127,"(64, 2958, 2)",2,mbtiauth_6304
1128,"(65, 2, 22)",2,mbtiauth_6304
1129,"(65, 2, 64)",2,mbtiauth_6304
1130,"(65, 32, 220)",2,mbtiauth_6304
1131,"(65, 64, 22)",2,mbtiauth_6304
1132,"(65, 64, 2958)",2,mbtiauth_6304
1133,"(65, 77, 2)",2,mbtiauth_6304
1134,"(65, 77, 22)",2,mbtiauth_6304
1135,"(65, 77, 64)",2,mbtiauth_6304
1136,"(65, 77, 65)",2,mbtiauth_6304
1137,"(65, 77, 220)",2,mbtiauth_6304
1138,"(65, 755, 2)",2,mbtiauth_6304
1139,"(66, 2691, 64)",2,mbtiauth_6304
1140,"(66, 2691, 2809)",2,mbtiauth_6304
1141,"(66, 2809, 64)",2,mbtiauth_6304
1142,"(67, 77, 599)",2,mbtiauth_6304
1143,"(77, 2, 2)",3,mbtiauth_6304
1144,"(77, 2, 22)",2,mbtiauth_6304
1145,"(77, 2, 32)",3,mbtiauth_6304
1146,"(77, 2, 64)",2,mbtiauth_6304
1147,"(77, 2, 77)",2,mbtiauth_6304
1148,"(77, 2, 123)",3,mbtiauth_6304
1149,"(77, 2, 170)",2,mbtiauth_6304
1150,"(77, 2, 221)",2,mbtiauth_6304
1151,"(77, 2, 650)",2,mbtiauth_6304
1152,"(77, 22, 2)",3,mbtiauth_6304
1153,"(77, 22, 77)",2,mbtiauth_6304
1154,"(77, 22, 123)",2,mbtiauth_6304
1155,"(77, 22, 2630)",4,mbtiauth_6304
1156,"(77, 27, 123)",2,mbtiauth_6304
1157,"(77, 27, 144)",2,mbtiauth_6304
1158,"(77, 31, 77)",2,mbtiauth_6304
1159,"(77, 41, 2)",2,mbtiauth_6304
1160,"(77, 41, 29)",2,mbtiauth_6304
1161,"(77, 50, 77)",3,mbtiauth_6304
1162,"(77, 50, 123)",2,mbtiauth_6304
1163,"(77, 64, 2)",3,mbtiauth_6304
1164,"(77, 64, 22)",3,mbtiauth_6304
1165,"(77, 64, 77)",2,mbtiauth_6304
1166,"(77, 64, 238)",2,mbtiauth_6304
1167,"(77, 65, 2)",3,mbtiauth_6304
1168,"(77, 65, 22)",2,mbtiauth_6304
1169,"(77, 65, 64)",2,mbtiauth_6304
1170,"(77, 65, 77)",2,mbtiauth_6304
1171,"(77, 65, 2630)",2,mbtiauth_6304
1172,"(77, 73, 77)",2,mbtiauth_6304
1173,"(77, 77, 2)",4,mbtiauth_6304
1174,"(77, 77, 16)",2,mbtiauth_6304
1175,"(77, 77, 50)",2,mbtiauth_6304
1176,"(77, 77, 64)",2,mbtiauth_6304
1177,"(77, 77, 65)",2,mbtiauth_6304
1178,"(77, 77, 77)",2,mbtiauth_6304
1179,"(77, 77, 123)",5,mbtiauth_6304
1180,"(77, 77, 174)",2,mbtiauth_6304
1181,"(77, 77, 221)",2,mbtiauth_6304
1182,"(77, 78, 64)",3,mbtiauth_6304
1183,"(77, 123, 22)",4,mbtiauth_6304
1184,"(77, 123, 50)",3,mbtiauth_6304
1185,"(77, 123, 64)",6,mbtiauth_6304
1186,"(77, 123, 77)",6,mbtiauth_6304
1187,"(77, 123, 120)",3,mbtiauth_6304
1188,"(77, 123, 123)",4,mbtiauth_6304
1189,"(77, 123, 144)",2,mbtiauth_6304
1190,"(77, 123, 154)",3,mbtiauth_6304
1191,"(77, 123, 174)",3,mbtiauth_6304
1192,"(77, 123, 221)",2,mbtiauth_6304
1193,"(77, 123, 260)",2,mbtiauth_6304
1194,"(77, 123, 441)",2,mbtiauth_6304
1195,"(77, 123, 765)",2,mbtiauth_6304
1196,"(77, 123, 938)",2,mbtiauth_6304
1197,"(77, 144, 41)",2,mbtiauth_6304
1198,"(77, 152, 22)",2,mbtiauth_6304
1199,"(77, 154, 22)",3,mbtiauth_6304
1200,"(77, 154, 64)",2,mbtiauth_6304
1201,"(77, 154, 77)",2,mbtiauth_6304
1202,"(77, 154, 170)",2,mbtiauth_6304
1203,"(77, 154, 650)",2,mbtiauth_6304
1204,"(77, 170, 2)",3,mbtiauth_6304
1205,"(77, 170, 64)",3,mbtiauth_6304
1206,"(77, 174, 64)",2,mbtiauth_6304
1207,"(77, 193, 2)",2,mbtiauth_6304
1208,"(77, 193, 27)",2,mbtiauth_6304
1209,"(77, 193, 41)",2,mbtiauth_6304
1210,"(77, 193, 64)",3,mbtiauth_6304
1211,"(77, 193, 170)",4,mbtiauth_6304
1212,"(77, 220, 2)",2,mbtiauth_6304
1213,"(77, 221, 22)",3,mbtiauth_6304
1214,"(77, 221, 123)",3,mbtiauth_6304
1215,"(77, 221, 144)",2,mbtiauth_6304
1216,"(77, 221, 2630)",3,mbtiauth_6304
1217,"(77, 236, 123)",2,mbtiauth_6304
1218,"(77, 260, 2)",2,mbtiauth_6304
1219,"(77, 260, 22)",2,mbtiauth_6304
1220,"(77, 260, 123)",2,mbtiauth_6304
1221,"(77, 260, 144)",2,mbtiauth_6304
1222,"(77, 260, 221)",3,mbtiauth_6304
1223,"(77, 260, 2630)",2,mbtiauth_6304
1224,"(77, 599, 2)",2,mbtiauth_6304
1225,"(77, 599, 22)",3,mbtiauth_6304
1226,"(77, 599, 41)",2,mbtiauth_6304
1227,"(77, 599, 120)",2,mbtiauth_6304
1228,"(77, 599, 123)",5,mbtiauth_6304
1229,"(77, 599, 174)",2,mbtiauth_6304
1230,"(77, 599, 285)",2,mbtiauth_6304
1231,"(77, 650, 369)",2,mbtiauth_6304
1232,"(77, 2630, 123)",2,mbtiauth_6304
1233,"(78, 64, 77)",2,mbtiauth_6304
1234,"(78, 123, 22)",2,mbtiauth_6304
1235,"(78, 123, 64)",3,mbtiauth_6304
1236,"(78, 123, 77)",2,mbtiauth_6304
1237,"(78, 4303, 4832)",2,mbtiauth_6304
1238,"(117, 77, 123)",2,mbtiauth_6304
1239,"(117, 77, 599)",2,mbtiauth_6304
1240,"(117, 269, 77)",2,mbtiauth_6304
1241,"(117, 269, 395)",2,mbtiauth_6304
1242,"(117, 395, 77)",2,mbtiauth_6304
1243,"(117, 599, 123)",2,mbtiauth_6304
1244,"(123, 2, 27)",2,mbtiauth_6304
1245,"(123, 2, 77)",2,mbtiauth_6304
1246,"(123, 2, 123)",2,mbtiauth_6304
1247,"(123, 10, 77)",3,mbtiauth_6304
1248,"(123, 22, 2)",3,mbtiauth_6304
1249,"(123, 22, 10)",2,mbtiauth_6304
1250,"(123, 22, 22)",2,mbtiauth_6304
1251,"(123, 22, 32)",2,mbtiauth_6304
1252,"(123, 22, 50)",2,mbtiauth_6304
1253,"(123, 22, 77)",4,mbtiauth_6304
1254,"(123, 22, 123)",3,mbtiauth_6304
1255,"(123, 22, 170)",2,mbtiauth_6304
1256,"(123, 22, 1441)",2,mbtiauth_6304
1257,"(123, 22, 3812)",2,mbtiauth_6304
1258,"(123, 22, 7831)",2,mbtiauth_6304
1259,"(123, 27, 41)",2,mbtiauth_6304
1260,"(123, 27, 123)",5,mbtiauth_6304
1261,"(123, 27, 127)",2,mbtiauth_6304
1262,"(123, 27, 144)",2,mbtiauth_6304
1263,"(123, 41, 127)",2,mbtiauth_6304
1264,"(123, 50, 1441)",2,mbtiauth_6304
1265,"(123, 64, 10)",3,mbtiauth_6304
1266,"(123, 64, 22)",4,mbtiauth_6304
1267,"(123, 64, 50)",2,mbtiauth_6304
1268,"(123, 64, 64)",2,mbtiauth_6304
1269,"(123, 64, 67)",2,mbtiauth_6304
1270,"(123, 64, 77)",6,mbtiauth_6304
1271,"(123, 64, 123)",2,mbtiauth_6304
1272,"(123, 64, 1146)",2,mbtiauth_6304
1273,"(123, 65, 46)",2,mbtiauth_6304
1274,"(123, 65, 77)",2,mbtiauth_6304
1275,"(123, 77, 2)",2,mbtiauth_6304
1276,"(123, 77, 27)",3,mbtiauth_6304
1277,"(123, 77, 50)",2,mbtiauth_6304
1278,"(123, 77, 65)",2,mbtiauth_6304
1279,"(123, 77, 123)",4,mbtiauth_6304
1280,"(123, 77, 144)",2,mbtiauth_6304
1281,"(123, 77, 260)",2,mbtiauth_6304
1282,"(123, 77, 599)",4,mbtiauth_6304
1283,"(123, 123, 123)",2,mbtiauth_6304
1284,"(123, 123, 144)",2,mbtiauth_6304
1285,"(123, 123, 174)",2,mbtiauth_6304
1286,"(123, 123, 441)",2,mbtiauth_6304
1287,"(123, 127, 1341)",2,mbtiauth_6304
1288,"(123, 154, 10)",2,mbtiauth_6304
1289,"(123, 154, 22)",3,mbtiauth_6304
1290,"(123, 154, 278)",2,mbtiauth_6304
1291,"(123, 160, 64)",2,mbtiauth_6304
1292,"(123, 165, 50)",2,mbtiauth_6304
1293,"(123, 165, 64)",3,mbtiauth_6304
1294,"(123, 165, 356)",2,mbtiauth_6304
1295,"(123, 168, 117)",2,mbtiauth_6304
1296,"(123, 170, 27)",2,mbtiauth_6304
1297,"(123, 170, 123)",2,mbtiauth_6304
1298,"(123, 174, 10)",2,mbtiauth_6304
1299,"(123, 174, 64)",2,mbtiauth_6304
1300,"(123, 174, 77)",4,mbtiauth_6304
1301,"(123, 174, 117)",2,mbtiauth_6304
1302,"(123, 174, 599)",2,mbtiauth_6304
1303,"(123, 193, 27)",2,mbtiauth_6304
1304,"(123, 193, 50)",2,mbtiauth_6304
1305,"(123, 193, 144)",2,mbtiauth_6304
1306,"(123, 193, 170)",2,mbtiauth_6304
1307,"(123, 206, 64)",2,mbtiauth_6304
1308,"(123, 206, 77)",2,mbtiauth_6304
1309,"(123, 221, 123)",2,mbtiauth_6304
1310,"(123, 221, 144)",2,mbtiauth_6304
1311,"(123, 260, 123)",2,mbtiauth_6304
1312,"(123, 260, 144)",2,mbtiauth_6304
1313,"(123, 260, 221)",2,mbtiauth_6304
1314,"(123, 286, 2)",2,mbtiauth_6304
1315,"(123, 286, 22)",4,mbtiauth_6304
1316,"(123, 286, 32)",2,mbtiauth_6304
1317,"(123, 286, 1441)",2,mbtiauth_6304
1318,"(123, 356, 64)",2,mbtiauth_6304
1319,"(123, 648, 127)",2,mbtiauth_6304
1320,"(123, 648, 1341)",2,mbtiauth_6304
1321,"(123, 656, 64)",2,mbtiauth_6304
1322,"(123, 711, 65)",2,mbtiauth_6304
1323,"(123, 756, 2)",2,mbtiauth_6304
1324,"(123, 756, 77)",3,mbtiauth_6304
1325,"(123, 765, 27)",2,mbtiauth_6304
1326,"(123, 765, 77)",3,mbtiauth_6304
1327,"(123, 765, 123)",4,mbtiauth_6304
1328,"(123, 765, 441)",2,mbtiauth_6304
1329,"(123, 1030, 22)",2,mbtiauth_6304
1330,"(123, 2195, 77)",2,mbtiauth_6304
1331,"(123, 6233, 22)",2,mbtiauth_6304
1332,"(123, 6233, 7831)",2,mbtiauth_6304
1333,"(127, 77, 599)",2,mbtiauth_6304
1334,"(144, 41, 1838)",2,mbtiauth_6304
1335,"(144, 64, 774)",2,mbtiauth_6304
1336,"(144, 64, 2958)",2,mbtiauth_6304
1337,"(144, 65, 2)",2,mbtiauth_6304
1338,"(144, 193, 170)",2,mbtiauth_6304
1339,"(144, 533, 50)",2,mbtiauth_6304
1340,"(144, 774, 2958)",2,mbtiauth_6304
1341,"(154, 22, 22)",3,mbtiauth_6304
1342,"(154, 22, 77)",2,mbtiauth_6304
1343,"(154, 64, 22)",2,mbtiauth_6304
1344,"(154, 64, 417)",2,mbtiauth_6304
1345,"(154, 77, 123)",2,mbtiauth_6304
1346,"(154, 77, 599)",2,mbtiauth_6304
1347,"(154, 123, 441)",2,mbtiauth_6304
1348,"(154, 193, 164)",2,mbtiauth_6304
1349,"(154, 193, 170)",2,mbtiauth_6304
1350,"(154, 599, 123)",2,mbtiauth_6304
1351,"(154, 650, 183)",2,mbtiauth_6304
1352,"(162, 123, 77)",2,mbtiauth_6304
1353,"(164, 2, 32)",2,mbtiauth_6304
1354,"(165, 356, 64)",2,mbtiauth_6304
1355,"(168, 77, 599)",2,mbtiauth_6304
1356,"(168, 117, 77)",2,mbtiauth_6304
1357,"(168, 117, 599)",2,mbtiauth_6304
1358,"(170, 2, 22)",2,mbtiauth_6304
1359,"(170, 2, 64)",2,mbtiauth_6304
1360,"(170, 2, 77)",2,mbtiauth_6304
1361,"(170, 22, 2)",2,mbtiauth_6304
1362,"(170, 22, 77)",2,mbtiauth_6304
1363,"(170, 22, 1587)",2,mbtiauth_6304
1364,"(170, 27, 50)",2,mbtiauth_6304
1365,"(170, 27, 123)",3,mbtiauth_6304
1366,"(170, 64, 64)",2,mbtiauth_6304
1367,"(170, 65, 2)",4,mbtiauth_6304
1368,"(170, 77, 2)",2,mbtiauth_6304
1369,"(170, 123, 50)",2,mbtiauth_6304
1370,"(170, 123, 64)",2,mbtiauth_6304
1371,"(170, 154, 77)",2,mbtiauth_6304
1372,"(170, 714, 64)",2,mbtiauth_6304
1373,"(174, 64, 77)",2,mbtiauth_6304
1374,"(174, 77, 599)",2,mbtiauth_6304
1375,"(183, 2, 77)",3,mbtiauth_6304
1376,"(183, 22, 756)",2,mbtiauth_6304
1377,"(183, 278, 10)",2,mbtiauth_6304
1378,"(183, 657, 64)",2,mbtiauth_6304
1379,"(189, 77, 64)",2,mbtiauth_6304
1380,"(193, 64, 64)",2,mbtiauth_6304
1381,"(193, 170, 2)",3,mbtiauth_6304
1382,"(193, 170, 64)",4,mbtiauth_6304
1383,"(193, 170, 65)",3,mbtiauth_6304
1384,"(193, 170, 77)",2,mbtiauth_6304
1385,"(193, 170, 154)",2,mbtiauth_6304
1386,"(193, 170, 164)",2,mbtiauth_6304
1387,"(193, 170, 1318)",2,mbtiauth_6304
1388,"(193, 170, 1851)",2,mbtiauth_6304
1389,"(193, 701, 154)",2,mbtiauth_6304
1390,"(201, 183, 10)",2,mbtiauth_6304
1391,"(201, 183, 278)",2,mbtiauth_6304
1392,"(201, 183, 657)",2,mbtiauth_6304
1393,"(201, 183, 756)",2,mbtiauth_6304
1394,"(201, 278, 10)",2,mbtiauth_6304
1395,"(206, 22, 77)",2,mbtiauth_6304
1396,"(206, 32, 10)",2,mbtiauth_6304
1397,"(206, 64, 77)",2,mbtiauth_6304
1398,"(206, 66, 77)",2,mbtiauth_6304
1399,"(206, 77, 599)",2,mbtiauth_6304
1400,"(220, 22, 2)",2,mbtiauth_6304
1401,"(221, 22, 123)",2,mbtiauth_6304
1402,"(221, 22, 193)",2,mbtiauth_6304
1403,"(221, 22, 233)",2,mbtiauth_6304
1404,"(221, 22, 2630)",3,mbtiauth_6304
1405,"(221, 123, 144)",2,mbtiauth_6304
1406,"(221, 123, 193)",2,mbtiauth_6304
1407,"(221, 233, 193)",2,mbtiauth_6304
1408,"(221, 2630, 123)",2,mbtiauth_6304
1409,"(221, 2630, 193)",2,mbtiauth_6304
1410,"(221, 2630, 233)",2,mbtiauth_6304
1411,"(222, 77, 2)",2,mbtiauth_6304
1412,"(225, 369, 2)",2,mbtiauth_6304
1413,"(225, 369, 441)",2,mbtiauth_6304
1414,"(225, 441, 2)",2,mbtiauth_6304
1415,"(225, 2809, 2411)",2,mbtiauth_6304
1416,"(225, 3256, 64)",2,mbtiauth_6304
1417,"(233, 193, 50)",2,mbtiauth_6304
1418,"(236, 41, 2)",2,mbtiauth_6304
1419,"(236, 41, 22)",2,mbtiauth_6304
1420,"(236, 41, 77)",2,mbtiauth_6304
1421,"(236, 41, 144)",2,mbtiauth_6304
1422,"(236, 225, 441)",2,mbtiauth_6304
1423,"(246, 77, 22)",2,mbtiauth_6304
1424,"(246, 77, 77)",2,mbtiauth_6304
1425,"(256, 22, 77)",3,mbtiauth_6304
1426,"(256, 123, 77)",2,mbtiauth_6304
1427,"(260, 2, 22)",2,mbtiauth_6304
1428,"(260, 22, 2630)",2,mbtiauth_6304
1429,"(260, 123, 144)",2,mbtiauth_6304
1430,"(260, 221, 22)",2,mbtiauth_6304
1431,"(260, 221, 123)",2,mbtiauth_6304
1432,"(260, 221, 144)",2,mbtiauth_6304
1433,"(260, 221, 2630)",2,mbtiauth_6304
1434,"(269, 77, 123)",2,mbtiauth_6304
1435,"(269, 395, 77)",2,mbtiauth_6304
1436,"(286, 2, 27)",2,mbtiauth_6304
1437,"(286, 22, 2)",2,mbtiauth_6304
1438,"(286, 22, 27)",2,mbtiauth_6304
1439,"(286, 22, 32)",2,mbtiauth_6304
1440,"(286, 22, 77)",2,mbtiauth_6304
1441,"(286, 22, 1441)",2,mbtiauth_6304
1442,"(286, 32, 2)",2,mbtiauth_6304
1443,"(286, 1441, 27)",2,mbtiauth_6304
1444,"(326, 77, 123)",3,mbtiauth_6304
1445,"(369, 183, 64)",2,mbtiauth_6304
1446,"(369, 434, 22)",2,mbtiauth_6304
1447,"(369, 441, 2)",2,mbtiauth_6304
1448,"(441, 2, 22)",2,mbtiauth_6304
1449,"(441, 77, 599)",2,mbtiauth_6304
1450,"(533, 193, 170)",2,mbtiauth_6304
1451,"(599, 22, 2)",2,mbtiauth_6304
1452,"(599, 22, 183)",2,mbtiauth_6304
1453,"(599, 22, 213)",2,mbtiauth_6304
1454,"(599, 27, 123)",2,mbtiauth_6304
1455,"(599, 64, 22)",2,mbtiauth_6304
1456,"(599, 123, 22)",2,mbtiauth_6304
1457,"(599, 123, 64)",4,mbtiauth_6304
1458,"(599, 123, 120)",2,mbtiauth_6304
1459,"(599, 123, 174)",2,mbtiauth_6304
1460,"(599, 123, 206)",2,mbtiauth_6304
1461,"(599, 123, 213)",2,mbtiauth_6304
1462,"(599, 206, 64)",2,mbtiauth_6304
1463,"(599, 291, 213)",2,mbtiauth_6304
1464,"(613, 77, 2)",2,mbtiauth_6304
1465,"(648, 127, 1341)",2,mbtiauth_6304
1466,"(650, 183, 2)",2,mbtiauth_6304
1467,"(650, 183, 64)",2,mbtiauth_6304
1468,"(650, 369, 64)",2,mbtiauth_6304
1469,"(650, 369, 183)",2,mbtiauth_6304
1470,"(657, 64, 2)",2,mbtiauth_6304
1471,"(657, 64, 77)",3,mbtiauth_6304
1472,"(657, 77, 2)",2,mbtiauth_6304
1473,"(693, 77, 193)",2,mbtiauth_6304
1474,"(714, 64, 64)",2,mbtiauth_6304
1475,"(756, 2, 77)",2,mbtiauth_6304
1476,"(756, 77, 2)",2,mbtiauth_6304
1477,"(756, 77, 44)",2,mbtiauth_6304
1478,"(756, 827, 44)",2,mbtiauth_6304
1479,"(756, 827, 77)",2,mbtiauth_6304
1480,"(765, 27, 123)",2,mbtiauth_6304
1481,"(765, 77, 123)",2,mbtiauth_6304
1482,"(765, 123, 441)",2,mbtiauth_6304
1483,"(2411, 64, 77)",2,mbtiauth_6304
1484,"(2411, 77, 64)",2,mbtiauth_6304
1485,"(2555, 77, 77)",2,mbtiauth_6304
1486,"(2555, 77, 123)",2,mbtiauth_6304
1487,"(2555, 123, 77)",2,mbtiauth_6304
1488,"(2630, 123, 193)",2,mbtiauth_6304
1489,"(2630, 233, 193)",2,mbtiauth_6304
1490,"(2691, 2809, 64)",2,mbtiauth_6304
1491,"(2800, 77, 2)",2,mbtiauth_6304
1492,"(2829, 77, 2)",2,mbtiauth_6304
1493,"(2958, 2, 22)",2,mbtiauth_6304
1494,"(3336, 27, 123)",2,mbtiauth_6304
1495,"(3572, 64, 67)",2,mbtiauth_6304
1496,"(6233, 22, 77)",2,mbtiauth_6304
1497,"(6233, 22, 599)",2,mbtiauth_6304
1498,"(6233, 22, 7831)",2,mbtiauth_6304
1499,"(6233, 77, 599)",2,mbtiauth_6304
1500,"(6233, 7831, 77)",2,mbtiauth_6304
1501,"(6233, 7831, 599)",2,mbtiauth_6304
1502,"(7831, 77, 599)",2,mbtiauth_6304
1503,"(11909, 2, 77)",2,mbtiauth_6304
1504,"(2, 22, 77, 2)",2,mbtiauth_6304
1505,"(22, 10, 77, 599)",2,mbtiauth_6304
1506,"(22, 32, 657, 183)",2,mbtiauth_6304
1507,"(22, 77, 77, 123)",2,mbtiauth_6304
1508,"(22, 756, 827, 77)",2,mbtiauth_6304
1509,"(22, 2630, 123, 193)",2,mbtiauth_6304
1510,"(22, 2630, 233, 193)",2,mbtiauth_6304
1511,"(22, 7831, 77, 599)",2,mbtiauth_6304
1512,"(27, 236, 41, 144)",2,mbtiauth_6304
1513,"(31, 77, 170, 64)",2,mbtiauth_6304
1514,"(31, 77, 193, 64)",2,mbtiauth_6304
1515,"(31, 77, 193, 170)",2,mbtiauth_6304
1516,"(31, 193, 170, 64)",2,mbtiauth_6304
1517,"(50, 77, 123, 64)",2,mbtiauth_6304
1518,"(64, 66, 2691, 2809)",2,mbtiauth_6304
1519,"(64, 67, 77, 599)",2,mbtiauth_6304
1520,"(66, 2691, 2809, 64)",2,mbtiauth_6304
1521,"(77, 2, 221, 123)",2,mbtiauth_6304
1522,"(77, 22, 2630, 123)",2,mbtiauth_6304
1523,"(77, 50, 77, 123)",2,mbtiauth_6304
1524,"(77, 77, 2, 221)",2,mbtiauth_6304
1525,"(77, 77, 123, 174)",2,mbtiauth_6304
1526,"(77, 123, 64, 77)",2,mbtiauth_6304
1527,"(77, 123, 77, 50)",2,mbtiauth_6304
1528,"(77, 123, 77, 123)",2,mbtiauth_6304
1529,"(77, 123, 123, 144)",2,mbtiauth_6304
1530,"(77, 123, 174, 64)",2,mbtiauth_6304
1531,"(77, 123, 221, 123)",2,mbtiauth_6304
1532,"(77, 123, 221, 144)",2,mbtiauth_6304
1533,"(77, 123, 260, 123)",2,mbtiauth_6304
1534,"(77, 123, 260, 144)",2,mbtiauth_6304
1535,"(77, 123, 260, 221)",2,mbtiauth_6304
1536,"(77, 193, 170, 2)",2,mbtiauth_6304
1537,"(77, 193, 170, 64)",3,mbtiauth_6304
1538,"(77, 221, 22, 123)",2,mbtiauth_6304
1539,"(77, 221, 22, 2630)",3,mbtiauth_6304
1540,"(77, 221, 123, 144)",2,mbtiauth_6304
1541,"(77, 221, 2630, 123)",2,mbtiauth_6304
1542,"(77, 260, 22, 2630)",2,mbtiauth_6304
1543,"(77, 260, 123, 144)",2,mbtiauth_6304
1544,"(77, 260, 221, 22)",2,mbtiauth_6304
1545,"(77, 260, 221, 123)",2,mbtiauth_6304
1546,"(77, 260, 221, 144)",2,mbtiauth_6304
1547,"(77, 260, 221, 2630)",2,mbtiauth_6304
1548,"(77, 599, 22, 2)",2,mbtiauth_6304
1549,"(77, 599, 123, 120)",2,mbtiauth_6304
1550,"(77, 599, 123, 174)",2,mbtiauth_6304
1551,"(78, 123, 64, 77)",2,mbtiauth_6304
1552,"(117, 77, 599, 123)",2,mbtiauth_6304
1553,"(117, 269, 395, 77)",2,mbtiauth_6304
1554,"(123, 2, 27, 123)",2,mbtiauth_6304
1555,"(123, 27, 41, 127)",2,mbtiauth_6304
1556,"(123, 64, 22, 10)",2,mbtiauth_6304
1557,"(123, 77, 27, 123)",2,mbtiauth_6304
1558,"(123, 77, 27, 144)",2,mbtiauth_6304
1559,"(123, 165, 356, 64)",2,mbtiauth_6304
1560,"(123, 170, 27, 123)",2,mbtiauth_6304
1561,"(123, 174, 64, 77)",2,mbtiauth_6304
1562,"(123, 174, 77, 599)",2,mbtiauth_6304
1563,"(123, 206, 64, 77)",2,mbtiauth_6304
1564,"(123, 221, 123, 144)",2,mbtiauth_6304
1565,"(123, 260, 123, 144)",2,mbtiauth_6304
1566,"(123, 260, 221, 123)",2,mbtiauth_6304
1567,"(123, 260, 221, 144)",2,mbtiauth_6304
1568,"(123, 286, 22, 2)",2,mbtiauth_6304
1569,"(123, 286, 22, 32)",2,mbtiauth_6304
1570,"(123, 286, 22, 1441)",2,mbtiauth_6304
1571,"(123, 648, 127, 1341)",2,mbtiauth_6304
1572,"(123, 765, 27, 123)",2,mbtiauth_6304
1573,"(123, 765, 77, 123)",2,mbtiauth_6304
1574,"(123, 765, 123, 441)",2,mbtiauth_6304
1575,"(123, 6233, 22, 7831)",2,mbtiauth_6304
1576,"(144, 64, 774, 2958)",2,mbtiauth_6304
1577,"(154, 77, 599, 123)",2,mbtiauth_6304
1578,"(168, 117, 77, 599)",2,mbtiauth_6304
1579,"(170, 27, 123, 50)",2,mbtiauth_6304
1580,"(193, 170, 64, 64)",2,mbtiauth_6304
1581,"(201, 183, 278, 10)",2,mbtiauth_6304
1582,"(221, 22, 123, 193)",2,mbtiauth_6304
1583,"(221, 22, 233, 193)",2,mbtiauth_6304
1584,"(221, 22, 2630, 123)",2,mbtiauth_6304
1585,"(221, 22, 2630, 193)",2,mbtiauth_6304
1586,"(221, 22, 2630, 233)",2,mbtiauth_6304
1587,"(221, 2630, 123, 193)",2,mbtiauth_6304
1588,"(221, 2630, 233, 193)",2,mbtiauth_6304
1589,"(225, 369, 441, 2)",2,mbtiauth_6304
1590,"(260, 221, 22, 2630)",2,mbtiauth_6304
1591,"(260, 221, 123, 144)",2,mbtiauth_6304
1592,"(286, 22, 2, 27)",2,mbtiauth_6304
1593,"(286, 22, 1441, 27)",2,mbtiauth_6304
1594,"(599, 123, 206, 64)",2,mbtiauth_6304
1595,"(650, 369, 183, 64)",2,mbtiauth_6304
1596,"(657, 64, 77, 2)",2,mbtiauth_6304
1597,"(2555, 77, 123, 77)",2,mbtiauth_6304
1598,"(6233, 22, 77, 599)",2,mbtiauth_6304
1599,"(6233, 22, 7831, 77)",2,mbtiauth_6304
1600,"(6233, 22, 7831, 599)",2,mbtiauth_6304
1601,"(6233, 7831, 77, 599)",2,mbtiauth_6304
1602,"(31, 77, 193, 170, 64)",2,mbtiauth_6304
1603,"(77, 123, 221, 123, 144)",2,mbtiauth_6304
1604,"(77, 123, 260, 123, 144)",2,mbtiauth_6304
1605,"(77, 123, 260, 221, 123)",2,mbtiauth_6304
1606,"(77, 123, 260, 221, 144)",2,mbtiauth_6304
1607,"(77, 221, 22, 2630, 123)",2,mbtiauth_6304
1608,"(77, 260, 221, 22, 2630)",2,mbtiauth_6304
1609,"(77, 260, 221, 123, 144)",2,mbtiauth_6304
1610,"(123, 260, 221, 123, 144)",2,mbtiauth_6304
1611,"(221, 22, 2630, 123, 193)",2,mbtiauth_6304
1612,"(221, 22, 2630, 233, 193)",2,mbtiauth_6304
1613,"(6233, 22, 7831, 77, 599)",2,mbtiauth_6304
1614,"(77, 123, 260, 221, 123, 144)",2,mbtiauth_6304
