,pattern,sup,author
916,"(2, 2, 22)",2,mbtiauth_7500
917,"(2, 2, 31)",2,mbtiauth_7500
918,"(2, 2, 64)",2,mbtiauth_7500
919,"(2, 2, 123)",3,mbtiauth_7500
920,"(2, 2, 431)",2,mbtiauth_7500
921,"(2, 2, 566)",2,mbtiauth_7500
922,"(2, 10, 2)",2,mbtiauth_7500
923,"(2, 10, 22)",2,mbtiauth_7500
924,"(2, 22, 16)",2,mbtiauth_7500
925,"(2, 22, 77)",3,mbtiauth_7500
926,"(2, 31, 22)",2,mbtiauth_7500
927,"(2, 32, 22)",2,mbtiauth_7500
928,"(2, 32, 77)",2,mbtiauth_7500
929,"(2, 41, 2)",3,mbtiauth_7500
930,"(2, 41, 41)",2,mbtiauth_7500
931,"(2, 50, 2)",3,mbtiauth_7500
932,"(2, 50, 64)",2,mbtiauth_7500
933,"(2, 50, 78)",2,mbtiauth_7500
934,"(2, 50, 368)",2,mbtiauth_7500
935,"(2, 64, 2)",3,mbtiauth_7500
936,"(2, 64, 77)",2,mbtiauth_7500
937,"(2, 64, 164)",2,mbtiauth_7500
938,"(2, 64, 1498)",2,mbtiauth_7500
939,"(2, 65, 32)",2,mbtiauth_7500
940,"(2, 65, 1219)",2,mbtiauth_7500
941,"(2, 66, 77)",2,mbtiauth_7500
942,"(2, 76, 152)",2,mbtiauth_7500
943,"(2, 77, 2)",4,mbtiauth_7500
944,"(2, 77, 123)",4,mbtiauth_7500
945,"(2, 77, 144)",2,mbtiauth_7500
946,"(2, 77, 268)",3,mbtiauth_7500
947,"(2, 77, 431)",2,mbtiauth_7500
948,"(2, 77, 566)",2,mbtiauth_7500
949,"(2, 77, 599)",4,mbtiauth_7500
950,"(2, 123, 2)",4,mbtiauth_7500
951,"(2, 123, 50)",3,mbtiauth_7500
952,"(2, 123, 64)",3,mbtiauth_7500
953,"(2, 123, 65)",2,mbtiauth_7500
954,"(2, 123, 77)",5,mbtiauth_7500
955,"(2, 123, 123)",4,mbtiauth_7500
956,"(2, 123, 144)",4,mbtiauth_7500
957,"(2, 123, 151)",2,mbtiauth_7500
958,"(2, 123, 206)",2,mbtiauth_7500
959,"(2, 123, 223)",2,mbtiauth_7500
960,"(2, 123, 268)",3,mbtiauth_7500
961,"(2, 123, 286)",2,mbtiauth_7500
962,"(2, 123, 340)",2,mbtiauth_7500
963,"(2, 123, 342)",3,mbtiauth_7500
964,"(2, 123, 441)",2,mbtiauth_7500
965,"(2, 123, 529)",2,mbtiauth_7500
966,"(2, 123, 613)",4,mbtiauth_7500
967,"(2, 144, 2)",2,mbtiauth_7500
968,"(2, 144, 77)",2,mbtiauth_7500
969,"(2, 144, 340)",2,mbtiauth_7500
970,"(2, 144, 342)",5,mbtiauth_7500
971,"(2, 144, 520)",2,mbtiauth_7500
972,"(2, 151, 2)",2,mbtiauth_7500
973,"(2, 151, 77)",2,mbtiauth_7500
974,"(2, 151, 123)",2,mbtiauth_7500
975,"(2, 151, 268)",2,mbtiauth_7500
976,"(2, 154, 22)",2,mbtiauth_7500
977,"(2, 154, 50)",2,mbtiauth_7500
978,"(2, 162, 64)",2,mbtiauth_7500
979,"(2, 164, 368)",2,mbtiauth_7500
980,"(2, 170, 22)",2,mbtiauth_7500
981,"(2, 171, 77)",2,mbtiauth_7500
982,"(2, 183, 77)",2,mbtiauth_7500
983,"(2, 201, 10)",2,mbtiauth_7500
984,"(2, 206, 2)",3,mbtiauth_7500
985,"(2, 206, 64)",2,mbtiauth_7500
986,"(2, 206, 164)",2,mbtiauth_7500
987,"(2, 223, 2)",2,mbtiauth_7500
988,"(2, 225, 2)",2,mbtiauth_7500
989,"(2, 225, 10)",2,mbtiauth_7500
990,"(2, 236, 77)",2,mbtiauth_7500
991,"(2, 236, 183)",2,mbtiauth_7500
992,"(2, 326, 683)",2,mbtiauth_7500
993,"(2, 342, 77)",2,mbtiauth_7500
994,"(2, 342, 340)",2,mbtiauth_7500
995,"(2, 368, 2)",2,mbtiauth_7500
996,"(2, 529, 65)",2,mbtiauth_7500
997,"(2, 566, 2)",3,mbtiauth_7500
998,"(2, 566, 41)",2,mbtiauth_7500
999,"(2, 566, 170)",2,mbtiauth_7500
1000,"(2, 566, 206)",2,mbtiauth_7500
1001,"(2, 566, 212)",2,mbtiauth_7500
1002,"(2, 566, 566)",2,mbtiauth_7500
1003,"(2, 599, 123)",3,mbtiauth_7500
1004,"(2, 599, 144)",3,mbtiauth_7500
1005,"(2, 599, 342)",2,mbtiauth_7500
1006,"(2, 613, 64)",2,mbtiauth_7500
1007,"(2, 28444, 28443)",2,mbtiauth_7500
1008,"(2, 52962, 77)",2,mbtiauth_7500
1009,"(10, 77, 123)",2,mbtiauth_7500
1010,"(16, 77, 117)",2,mbtiauth_7500
1011,"(16, 77, 599)",3,mbtiauth_7500
1012,"(16, 117, 66)",2,mbtiauth_7500
1013,"(16, 168, 117)",2,mbtiauth_7500
1014,"(22, 10, 22)",2,mbtiauth_7500
1015,"(22, 10, 50)",2,mbtiauth_7500
1016,"(22, 22, 22)",2,mbtiauth_7500
1017,"(22, 22, 77)",3,mbtiauth_7500
1018,"(22, 76, 77)",2,mbtiauth_7500
1019,"(22, 77, 22)",3,mbtiauth_7500
1020,"(22, 77, 77)",3,mbtiauth_7500
1021,"(22, 77, 123)",2,mbtiauth_7500
1022,"(22, 77, 567)",2,mbtiauth_7500
1023,"(31, 77, 2)",2,mbtiauth_7500
1024,"(31, 77, 123)",2,mbtiauth_7500
1025,"(32, 22, 77)",2,mbtiauth_7500
1026,"(32, 22, 78)",2,mbtiauth_7500
1027,"(32, 599, 782)",2,mbtiauth_7500
1028,"(41, 2, 123)",2,mbtiauth_7500
1029,"(41, 10, 41)",2,mbtiauth_7500
1030,"(41, 41, 2)",2,mbtiauth_7500
1031,"(41, 64, 41)",2,mbtiauth_7500
1032,"(41, 64, 65)",2,mbtiauth_7500
1033,"(41, 64, 164)",2,mbtiauth_7500
1034,"(41, 77, 41)",2,mbtiauth_7500
1035,"(41, 77, 144)",2,mbtiauth_7500
1036,"(41, 77, 599)",2,mbtiauth_7500
1037,"(41, 144, 342)",2,mbtiauth_7500
1038,"(41, 326, 911)",2,mbtiauth_7500
1039,"(41, 566, 2)",2,mbtiauth_7500
1040,"(41, 566, 41)",2,mbtiauth_7500
1041,"(41, 599, 144)",2,mbtiauth_7500
1042,"(41, 921, 31)",2,mbtiauth_7500
1043,"(50, 2, 64)",2,mbtiauth_7500
1044,"(50, 123, 64)",2,mbtiauth_7500
1045,"(50, 206, 123)",2,mbtiauth_7500
1046,"(50, 206, 162)",2,mbtiauth_7500
1047,"(50, 538, 162)",2,mbtiauth_7500
1048,"(50, 538, 206)",2,mbtiauth_7500
1049,"(50, 538, 645)",2,mbtiauth_7500
1050,"(50, 645, 162)",2,mbtiauth_7500
1051,"(50, 645, 206)",2,mbtiauth_7500
1052,"(50, 1226, 64)",2,mbtiauth_7500
1053,"(50, 1226, 123)",2,mbtiauth_7500
1054,"(64, 2, 22)",2,mbtiauth_7500
1055,"(64, 2, 67)",2,mbtiauth_7500
1056,"(64, 2, 77)",3,mbtiauth_7500
1057,"(64, 2, 144)",2,mbtiauth_7500
1058,"(64, 2, 164)",2,mbtiauth_7500
1059,"(64, 67, 164)",2,mbtiauth_7500
1060,"(64, 77, 2)",3,mbtiauth_7500
1061,"(64, 77, 123)",2,mbtiauth_7500
1062,"(64, 77, 144)",2,mbtiauth_7500
1063,"(64, 77, 268)",2,mbtiauth_7500
1064,"(64, 77, 3055)",2,mbtiauth_7500
1065,"(64, 123, 64)",2,mbtiauth_7500
1066,"(64, 123, 144)",2,mbtiauth_7500
1067,"(64, 162, 144)",2,mbtiauth_7500
1068,"(64, 164, 1186)",2,mbtiauth_7500
1069,"(64, 260, 260)",2,mbtiauth_7500
1070,"(64, 356, 77)",2,mbtiauth_7500
1071,"(65, 2, 2)",3,mbtiauth_7500
1072,"(65, 2, 223)",2,mbtiauth_7500
1073,"(65, 10, 22)",2,mbtiauth_7500
1074,"(65, 77, 2)",2,mbtiauth_7500
1075,"(65, 206, 50)",2,mbtiauth_7500
1076,"(65, 223, 2)",2,mbtiauth_7500
1077,"(65, 1219, 32)",2,mbtiauth_7500
1078,"(66, 77, 123)",2,mbtiauth_7500
1079,"(66, 77, 193)",2,mbtiauth_7500
1080,"(66, 77, 356)",2,mbtiauth_7500
1081,"(66, 77, 599)",2,mbtiauth_7500
1082,"(66, 123, 193)",2,mbtiauth_7500
1083,"(66, 123, 356)",2,mbtiauth_7500
1084,"(66, 356, 193)",2,mbtiauth_7500
1085,"(66, 599, 123)",2,mbtiauth_7500
1086,"(66, 599, 193)",2,mbtiauth_7500
1087,"(66, 599, 356)",2,mbtiauth_7500
1088,"(67, 77, 2)",2,mbtiauth_7500
1089,"(76, 65, 123)",2,mbtiauth_7500
1090,"(77, 2, 2)",5,mbtiauth_7500
1091,"(77, 2, 22)",2,mbtiauth_7500
1092,"(77, 2, 31)",3,mbtiauth_7500
1093,"(77, 2, 32)",2,mbtiauth_7500
1094,"(77, 2, 50)",3,mbtiauth_7500
1095,"(77, 2, 64)",2,mbtiauth_7500
1096,"(77, 2, 65)",3,mbtiauth_7500
1097,"(77, 2, 77)",7,mbtiauth_7500
1098,"(77, 2, 123)",6,mbtiauth_7500
1099,"(77, 2, 144)",2,mbtiauth_7500
1100,"(77, 2, 152)",2,mbtiauth_7500
1101,"(77, 2, 162)",2,mbtiauth_7500
1102,"(77, 2, 268)",2,mbtiauth_7500
1103,"(77, 2, 431)",2,mbtiauth_7500
1104,"(77, 2, 535)",2,mbtiauth_7500
1105,"(77, 2, 599)",2,mbtiauth_7500
1106,"(77, 10, 50)",2,mbtiauth_7500
1107,"(77, 16, 599)",2,mbtiauth_7500
1108,"(77, 22, 22)",3,mbtiauth_7500
1109,"(77, 22, 77)",3,mbtiauth_7500
1110,"(77, 31, 439)",2,mbtiauth_7500
1111,"(77, 41, 65)",2,mbtiauth_7500
1112,"(77, 41, 123)",2,mbtiauth_7500
1113,"(77, 64, 2)",2,mbtiauth_7500
1114,"(77, 64, 123)",2,mbtiauth_7500
1115,"(77, 77, 2)",2,mbtiauth_7500
1116,"(77, 77, 22)",2,mbtiauth_7500
1117,"(77, 77, 50)",2,mbtiauth_7500
1118,"(77, 77, 77)",3,mbtiauth_7500
1119,"(77, 77, 123)",2,mbtiauth_7500
1120,"(77, 77, 599)",2,mbtiauth_7500
1121,"(77, 123, 2)",4,mbtiauth_7500
1122,"(77, 123, 50)",2,mbtiauth_7500
1123,"(77, 123, 64)",3,mbtiauth_7500
1124,"(77, 123, 77)",4,mbtiauth_7500
1125,"(77, 123, 123)",3,mbtiauth_7500
1126,"(77, 123, 144)",3,mbtiauth_7500
1127,"(77, 123, 162)",2,mbtiauth_7500
1128,"(77, 123, 193)",4,mbtiauth_7500
1129,"(77, 123, 206)",2,mbtiauth_7500
1130,"(77, 123, 260)",2,mbtiauth_7500
1131,"(77, 123, 268)",3,mbtiauth_7500
1132,"(77, 123, 342)",2,mbtiauth_7500
1133,"(77, 123, 356)",2,mbtiauth_7500
1134,"(77, 123, 638)",2,mbtiauth_7500
1135,"(77, 144, 22)",2,mbtiauth_7500
1136,"(77, 144, 123)",2,mbtiauth_7500
1137,"(77, 144, 193)",2,mbtiauth_7500
1138,"(77, 144, 342)",3,mbtiauth_7500
1139,"(77, 162, 123)",2,mbtiauth_7500
1140,"(77, 162, 144)",2,mbtiauth_7500
1141,"(77, 206, 2)",3,mbtiauth_7500
1142,"(77, 254, 123)",2,mbtiauth_7500
1143,"(77, 254, 599)",2,mbtiauth_7500
1144,"(77, 268, 123)",2,mbtiauth_7500
1145,"(77, 342, 2)",2,mbtiauth_7500
1146,"(77, 342, 123)",2,mbtiauth_7500
1147,"(77, 356, 193)",2,mbtiauth_7500
1148,"(77, 566, 47)",2,mbtiauth_7500
1149,"(77, 599, 64)",2,mbtiauth_7500
1150,"(77, 599, 123)",3,mbtiauth_7500
1151,"(77, 599, 144)",3,mbtiauth_7500
1152,"(77, 599, 193)",2,mbtiauth_7500
1153,"(77, 599, 225)",2,mbtiauth_7500
1154,"(77, 599, 342)",2,mbtiauth_7500
1155,"(77, 599, 356)",2,mbtiauth_7500
1156,"(77, 3055, 77)",2,mbtiauth_7500
1157,"(77, 3055, 599)",2,mbtiauth_7500
1158,"(123, 2, 2)",2,mbtiauth_7500
1159,"(123, 2, 50)",2,mbtiauth_7500
1160,"(123, 2, 77)",2,mbtiauth_7500
1161,"(123, 2, 123)",7,mbtiauth_7500
1162,"(123, 2, 151)",2,mbtiauth_7500
1163,"(123, 2, 164)",2,mbtiauth_7500
1164,"(123, 2, 206)",2,mbtiauth_7500
1165,"(123, 2, 223)",2,mbtiauth_7500
1166,"(123, 2, 268)",3,mbtiauth_7500
1167,"(123, 10, 22)",4,mbtiauth_7500
1168,"(123, 22, 10)",4,mbtiauth_7500
1169,"(123, 22, 22)",3,mbtiauth_7500
1170,"(123, 22, 77)",3,mbtiauth_7500
1171,"(123, 31, 50)",2,mbtiauth_7500
1172,"(123, 31, 77)",2,mbtiauth_7500
1173,"(123, 31, 154)",2,mbtiauth_7500
1174,"(123, 33, 77)",2,mbtiauth_7500
1175,"(123, 50, 2)",2,mbtiauth_7500
1176,"(123, 50, 368)",2,mbtiauth_7500
1177,"(123, 64, 2)",4,mbtiauth_7500
1178,"(123, 64, 50)",3,mbtiauth_7500
1179,"(123, 64, 64)",2,mbtiauth_7500
1180,"(123, 64, 77)",3,mbtiauth_7500
1181,"(123, 64, 123)",4,mbtiauth_7500
1182,"(123, 64, 162)",2,mbtiauth_7500
1183,"(123, 64, 164)",2,mbtiauth_7500
1184,"(123, 64, 929)",2,mbtiauth_7500
1185,"(123, 65, 2)",3,mbtiauth_7500
1186,"(123, 65, 77)",2,mbtiauth_7500
1187,"(123, 65, 223)",2,mbtiauth_7500
1188,"(123, 65, 431)",2,mbtiauth_7500
1189,"(123, 65, 1219)",3,mbtiauth_7500
1190,"(123, 77, 2)",7,mbtiauth_7500
1191,"(123, 77, 22)",2,mbtiauth_7500
1192,"(123, 77, 50)",2,mbtiauth_7500
1193,"(123, 77, 123)",7,mbtiauth_7500
1194,"(123, 77, 254)",2,mbtiauth_7500
1195,"(123, 77, 268)",3,mbtiauth_7500
1196,"(123, 77, 599)",2,mbtiauth_7500
1197,"(123, 123, 50)",2,mbtiauth_7500
1198,"(123, 123, 64)",2,mbtiauth_7500
1199,"(123, 123, 65)",2,mbtiauth_7500
1200,"(123, 123, 268)",5,mbtiauth_7500
1201,"(123, 123, 431)",2,mbtiauth_7500
1202,"(123, 123, 441)",2,mbtiauth_7500
1203,"(123, 144, 22)",2,mbtiauth_7500
1204,"(123, 144, 77)",3,mbtiauth_7500
1205,"(123, 144, 123)",3,mbtiauth_7500
1206,"(123, 144, 193)",2,mbtiauth_7500
1207,"(123, 144, 286)",2,mbtiauth_7500
1208,"(123, 144, 340)",4,mbtiauth_7500
1209,"(123, 144, 342)",9,mbtiauth_7500
1210,"(123, 144, 356)",2,mbtiauth_7500
1211,"(123, 144, 520)",3,mbtiauth_7500
1212,"(123, 151, 2)",3,mbtiauth_7500
1213,"(123, 151, 77)",2,mbtiauth_7500
1214,"(123, 151, 123)",3,mbtiauth_7500
1215,"(123, 151, 151)",2,mbtiauth_7500
1216,"(123, 151, 268)",2,mbtiauth_7500
1217,"(123, 160, 2)",2,mbtiauth_7500
1218,"(123, 160, 77)",3,mbtiauth_7500
1219,"(123, 160, 123)",2,mbtiauth_7500
1220,"(123, 160, 268)",2,mbtiauth_7500
1221,"(123, 162, 144)",2,mbtiauth_7500
1222,"(123, 206, 2)",2,mbtiauth_7500
1223,"(123, 206, 50)",2,mbtiauth_7500
1224,"(123, 206, 77)",2,mbtiauth_7500
1225,"(123, 206, 206)",2,mbtiauth_7500
1226,"(123, 220, 268)",2,mbtiauth_7500
1227,"(123, 236, 22)",2,mbtiauth_7500
1228,"(123, 256, 22)",2,mbtiauth_7500
1229,"(123, 268, 2)",3,mbtiauth_7500
1230,"(123, 268, 22)",3,mbtiauth_7500
1231,"(123, 268, 65)",4,mbtiauth_7500
1232,"(123, 268, 77)",3,mbtiauth_7500
1233,"(123, 268, 431)",3,mbtiauth_7500
1234,"(123, 286, 22)",2,mbtiauth_7500
1235,"(123, 286, 170)",2,mbtiauth_7500
1236,"(123, 286, 196)",2,mbtiauth_7500
1237,"(123, 286, 520)",2,mbtiauth_7500
1238,"(123, 326, 683)",2,mbtiauth_7500
1239,"(123, 342, 22)",2,mbtiauth_7500
1240,"(123, 342, 77)",3,mbtiauth_7500
1241,"(123, 342, 123)",3,mbtiauth_7500
1242,"(123, 342, 193)",2,mbtiauth_7500
1243,"(123, 342, 268)",2,mbtiauth_7500
1244,"(123, 342, 286)",2,mbtiauth_7500
1245,"(123, 342, 340)",4,mbtiauth_7500
1246,"(123, 342, 356)",2,mbtiauth_7500
1247,"(123, 342, 520)",2,mbtiauth_7500
1248,"(123, 356, 64)",3,mbtiauth_7500
1249,"(123, 356, 77)",3,mbtiauth_7500
1250,"(123, 356, 123)",2,mbtiauth_7500
1251,"(123, 356, 193)",2,mbtiauth_7500
1252,"(123, 433, 2)",2,mbtiauth_7500
1253,"(123, 441, 65)",2,mbtiauth_7500
1254,"(123, 599, 123)",2,mbtiauth_7500
1255,"(123, 613, 2)",4,mbtiauth_7500
1256,"(123, 613, 64)",4,mbtiauth_7500
1257,"(123, 613, 123)",2,mbtiauth_7500
1258,"(123, 613, 162)",2,mbtiauth_7500
1259,"(123, 613, 164)",3,mbtiauth_7500
1260,"(123, 613, 4377)",2,mbtiauth_7500
1261,"(123, 638, 64)",2,mbtiauth_7500
1262,"(123, 638, 123)",2,mbtiauth_7500
1263,"(123, 652, 384)",2,mbtiauth_7500
1264,"(123, 1498, 2)",3,mbtiauth_7500
1265,"(123, 1498, 123)",2,mbtiauth_7500
1266,"(123, 1591, 193)",4,mbtiauth_7500
1267,"(123, 2197, 342)",2,mbtiauth_7500
1268,"(144, 22, 22)",2,mbtiauth_7500
1269,"(144, 77, 342)",2,mbtiauth_7500
1270,"(144, 144, 342)",3,mbtiauth_7500
1271,"(144, 286, 520)",2,mbtiauth_7500
1272,"(144, 342, 2)",3,mbtiauth_7500
1273,"(144, 342, 10)",2,mbtiauth_7500
1274,"(144, 342, 22)",3,mbtiauth_7500
1275,"(144, 342, 77)",4,mbtiauth_7500
1276,"(144, 342, 123)",2,mbtiauth_7500
1277,"(144, 342, 144)",3,mbtiauth_7500
1278,"(144, 342, 286)",2,mbtiauth_7500
1279,"(144, 342, 340)",5,mbtiauth_7500
1280,"(144, 342, 342)",4,mbtiauth_7500
1281,"(144, 342, 356)",2,mbtiauth_7500
1282,"(144, 342, 520)",3,mbtiauth_7500
1283,"(144, 356, 77)",2,mbtiauth_7500
1284,"(144, 520, 50)",2,mbtiauth_7500
1285,"(144, 1498, 520)",2,mbtiauth_7500
1286,"(151, 2, 77)",2,mbtiauth_7500
1287,"(151, 2, 123)",3,mbtiauth_7500
1288,"(151, 2, 151)",2,mbtiauth_7500
1289,"(151, 2, 268)",2,mbtiauth_7500
1290,"(151, 77, 123)",2,mbtiauth_7500
1291,"(151, 77, 268)",2,mbtiauth_7500
1292,"(151, 123, 268)",2,mbtiauth_7500
1293,"(151, 151, 77)",2,mbtiauth_7500
1294,"(151, 151, 123)",2,mbtiauth_7500
1295,"(151, 151, 268)",2,mbtiauth_7500
1296,"(154, 22, 77)",2,mbtiauth_7500
1297,"(154, 123, 441)",2,mbtiauth_7500
1298,"(154, 199, 77)",2,mbtiauth_7500
1299,"(160, 2, 123)",2,mbtiauth_7500
1300,"(160, 64, 41)",2,mbtiauth_7500
1301,"(160, 64, 64)",2,mbtiauth_7500
1302,"(160, 77, 123)",2,mbtiauth_7500
1303,"(160, 77, 268)",2,mbtiauth_7500
1304,"(162, 41, 64)",2,mbtiauth_7500
1305,"(162, 64, 183)",2,mbtiauth_7500
1306,"(162, 77, 2)",2,mbtiauth_7500
1307,"(162, 123, 2)",2,mbtiauth_7500
1308,"(162, 123, 50)",2,mbtiauth_7500
1309,"(162, 123, 77)",3,mbtiauth_7500
1310,"(162, 123, 206)",2,mbtiauth_7500
1311,"(162, 144, 64)",2,mbtiauth_7500
1312,"(164, 368, 2)",2,mbtiauth_7500
1313,"(168, 77, 123)",2,mbtiauth_7500
1314,"(170, 22, 77)",2,mbtiauth_7500
1315,"(170, 171, 32)",2,mbtiauth_7500
1316,"(171, 2, 50)",2,mbtiauth_7500
1317,"(171, 65, 123)",2,mbtiauth_7500
1318,"(171, 76, 65)",2,mbtiauth_7500
1319,"(171, 76, 123)",2,mbtiauth_7500
1320,"(171, 77, 2)",2,mbtiauth_7500
1321,"(171, 77, 50)",2,mbtiauth_7500
1322,"(171, 123, 31)",2,mbtiauth_7500
1323,"(183, 199, 77)",2,mbtiauth_7500
1324,"(193, 77, 2)",2,mbtiauth_7500
1325,"(193, 284, 67)",2,mbtiauth_7500
1326,"(194, 50, 2)",2,mbtiauth_7500
1327,"(196, 77, 2)",2,mbtiauth_7500
1328,"(206, 2, 64)",2,mbtiauth_7500
1329,"(206, 2, 164)",2,mbtiauth_7500
1330,"(206, 2, 205)",2,mbtiauth_7500
1331,"(206, 2, 206)",3,mbtiauth_7500
1332,"(206, 50, 2)",2,mbtiauth_7500
1333,"(206, 77, 2)",2,mbtiauth_7500
1334,"(206, 77, 206)",2,mbtiauth_7500
1335,"(206, 123, 77)",2,mbtiauth_7500
1336,"(206, 162, 123)",2,mbtiauth_7500
1337,"(206, 206, 164)",2,mbtiauth_7500
1338,"(212, 77, 2)",2,mbtiauth_7500
1339,"(220, 10, 22)",2,mbtiauth_7500
1340,"(220, 268, 10)",2,mbtiauth_7500
1341,"(220, 268, 164)",2,mbtiauth_7500
1342,"(222, 77, 2)",2,mbtiauth_7500
1343,"(222, 77, 364)",2,mbtiauth_7500
1344,"(222, 77, 599)",2,mbtiauth_7500
1345,"(222, 196, 2)",2,mbtiauth_7500
1346,"(222, 196, 77)",2,mbtiauth_7500
1347,"(225, 2, 520)",2,mbtiauth_7500
1348,"(225, 286, 787)",2,mbtiauth_7500
1349,"(236, 41, 183)",2,mbtiauth_7500
1350,"(236, 183, 77)",2,mbtiauth_7500
1351,"(256, 22, 10)",2,mbtiauth_7500
1352,"(268, 2, 2)",2,mbtiauth_7500
1353,"(268, 2, 77)",3,mbtiauth_7500
1354,"(268, 2, 123)",2,mbtiauth_7500
1355,"(268, 65, 431)",2,mbtiauth_7500
1356,"(268, 77, 2)",3,mbtiauth_7500
1357,"(268, 77, 123)",2,mbtiauth_7500
1358,"(268, 151, 123)",2,mbtiauth_7500
1359,"(285, 64, 67)",2,mbtiauth_7500
1360,"(285, 220, 10)",2,mbtiauth_7500
1361,"(285, 220, 268)",2,mbtiauth_7500
1362,"(285, 268, 10)",2,mbtiauth_7500
1363,"(342, 22, 22)",3,mbtiauth_7500
1364,"(342, 77, 77)",2,mbtiauth_7500
1365,"(342, 77, 342)",2,mbtiauth_7500
1366,"(342, 123, 268)",2,mbtiauth_7500
1367,"(342, 144, 342)",3,mbtiauth_7500
1368,"(342, 286, 520)",2,mbtiauth_7500
1369,"(342, 342, 2)",2,mbtiauth_7500
1370,"(342, 356, 77)",2,mbtiauth_7500
1371,"(356, 77, 2)",2,mbtiauth_7500
1372,"(356, 77, 268)",2,mbtiauth_7500
1373,"(356, 193, 67)",2,mbtiauth_7500
1374,"(364, 16, 154)",2,mbtiauth_7500
1375,"(368, 2, 64)",2,mbtiauth_7500
1376,"(433, 2, 64)",2,mbtiauth_7500
1377,"(433, 2, 77)",2,mbtiauth_7500
1378,"(441, 434, 164)",2,mbtiauth_7500
1379,"(443, 183, 77)",2,mbtiauth_7500
1380,"(529, 2, 50)",2,mbtiauth_7500
1381,"(538, 162, 123)",2,mbtiauth_7500
1382,"(538, 206, 123)",2,mbtiauth_7500
1383,"(538, 206, 162)",2,mbtiauth_7500
1384,"(538, 645, 123)",2,mbtiauth_7500
1385,"(538, 645, 162)",2,mbtiauth_7500
1386,"(538, 645, 206)",2,mbtiauth_7500
1387,"(566, 2, 566)",2,mbtiauth_7500
1388,"(566, 41, 2)",2,mbtiauth_7500
1389,"(599, 16, 77)",3,mbtiauth_7500
1390,"(599, 16, 154)",2,mbtiauth_7500
1391,"(599, 22, 77)",2,mbtiauth_7500
1392,"(599, 64, 67)",2,mbtiauth_7500
1393,"(599, 64, 77)",2,mbtiauth_7500
1394,"(599, 64, 123)",2,mbtiauth_7500
1395,"(599, 76, 123)",2,mbtiauth_7500
1396,"(599, 77, 123)",2,mbtiauth_7500
1397,"(599, 123, 2)",2,mbtiauth_7500
1398,"(599, 123, 64)",3,mbtiauth_7500
1399,"(599, 123, 77)",5,mbtiauth_7500
1400,"(599, 123, 123)",3,mbtiauth_7500
1401,"(599, 123, 144)",4,mbtiauth_7500
1402,"(599, 123, 193)",2,mbtiauth_7500
1403,"(599, 123, 206)",2,mbtiauth_7500
1404,"(599, 123, 268)",3,mbtiauth_7500
1405,"(599, 123, 340)",2,mbtiauth_7500
1406,"(599, 123, 342)",5,mbtiauth_7500
1407,"(599, 123, 356)",3,mbtiauth_7500
1408,"(599, 123, 364)",3,mbtiauth_7500
1409,"(599, 123, 411)",2,mbtiauth_7500
1410,"(599, 123, 638)",2,mbtiauth_7500
1411,"(599, 144, 10)",2,mbtiauth_7500
1412,"(599, 144, 22)",2,mbtiauth_7500
1413,"(599, 144, 77)",3,mbtiauth_7500
1414,"(599, 144, 340)",2,mbtiauth_7500
1415,"(599, 144, 342)",6,mbtiauth_7500
1416,"(599, 144, 356)",2,mbtiauth_7500
1417,"(599, 193, 67)",2,mbtiauth_7500
1418,"(599, 193, 77)",2,mbtiauth_7500
1419,"(599, 268, 2)",2,mbtiauth_7500
1420,"(599, 268, 77)",2,mbtiauth_7500
1421,"(599, 342, 77)",3,mbtiauth_7500
1422,"(599, 342, 340)",2,mbtiauth_7500
1423,"(599, 342, 356)",2,mbtiauth_7500
1424,"(599, 356, 77)",2,mbtiauth_7500
1425,"(599, 356, 193)",2,mbtiauth_7500
1426,"(599, 364, 16)",2,mbtiauth_7500
1427,"(599, 364, 154)",2,mbtiauth_7500
1428,"(599, 782, 67)",2,mbtiauth_7500
1429,"(613, 2, 164)",2,mbtiauth_7500
1430,"(613, 64, 2)",2,mbtiauth_7500
1431,"(613, 64, 164)",2,mbtiauth_7500
1432,"(638, 64, 77)",2,mbtiauth_7500
1433,"(638, 64, 123)",2,mbtiauth_7500
1434,"(645, 162, 123)",2,mbtiauth_7500
1435,"(645, 206, 123)",2,mbtiauth_7500
1436,"(645, 206, 162)",2,mbtiauth_7500
1437,"(1214, 236, 41)",2,mbtiauth_7500
1438,"(1226, 123, 64)",2,mbtiauth_7500
1439,"(1498, 2, 123)",2,mbtiauth_7500
1440,"(1498, 2, 144)",2,mbtiauth_7500
1441,"(29542, 15549, 529)",2,mbtiauth_7500
1442,"(43123, 2, 52962)",2,mbtiauth_7500
1443,"(52962, 77, 599)",2,mbtiauth_7500
1444,"(2, 50, 2, 64)",2,mbtiauth_7500
1445,"(2, 77, 2, 431)",2,mbtiauth_7500
1446,"(2, 77, 123, 268)",2,mbtiauth_7500
1447,"(2, 77, 599, 123)",2,mbtiauth_7500
1448,"(2, 77, 599, 144)",2,mbtiauth_7500
1449,"(2, 123, 2, 123)",2,mbtiauth_7500
1450,"(2, 123, 77, 123)",3,mbtiauth_7500
1451,"(2, 123, 144, 340)",2,mbtiauth_7500
1452,"(2, 123, 144, 342)",3,mbtiauth_7500
1453,"(2, 123, 151, 2)",2,mbtiauth_7500
1454,"(2, 123, 151, 77)",2,mbtiauth_7500
1455,"(2, 123, 151, 123)",2,mbtiauth_7500
1456,"(2, 123, 342, 340)",2,mbtiauth_7500
1457,"(2, 144, 342, 77)",2,mbtiauth_7500
1458,"(2, 144, 342, 340)",2,mbtiauth_7500
1459,"(2, 151, 2, 123)",2,mbtiauth_7500
1460,"(2, 151, 77, 123)",2,mbtiauth_7500
1461,"(2, 151, 77, 268)",2,mbtiauth_7500
1462,"(2, 151, 123, 268)",2,mbtiauth_7500
1463,"(2, 206, 2, 64)",2,mbtiauth_7500
1464,"(2, 236, 183, 77)",2,mbtiauth_7500
1465,"(2, 566, 2, 566)",2,mbtiauth_7500
1466,"(2, 566, 41, 2)",2,mbtiauth_7500
1467,"(2, 599, 123, 144)",2,mbtiauth_7500
1468,"(2, 599, 123, 342)",2,mbtiauth_7500
1469,"(2, 599, 144, 342)",2,mbtiauth_7500
1470,"(22, 22, 77, 22)",2,mbtiauth_7500
1471,"(22, 77, 22, 22)",2,mbtiauth_7500
1472,"(22, 77, 22, 77)",3,mbtiauth_7500
1473,"(22, 77, 77, 22)",2,mbtiauth_7500
1474,"(41, 77, 599, 144)",2,mbtiauth_7500
1475,"(41, 566, 41, 2)",2,mbtiauth_7500
1476,"(50, 538, 206, 162)",2,mbtiauth_7500
1477,"(50, 538, 645, 162)",2,mbtiauth_7500
1478,"(50, 538, 645, 206)",2,mbtiauth_7500
1479,"(50, 645, 206, 162)",2,mbtiauth_7500
1480,"(50, 1226, 123, 64)",2,mbtiauth_7500
1481,"(65, 2, 223, 2)",2,mbtiauth_7500
1482,"(66, 77, 123, 193)",2,mbtiauth_7500
1483,"(66, 77, 123, 356)",2,mbtiauth_7500
1484,"(66, 77, 356, 193)",2,mbtiauth_7500
1485,"(66, 77, 599, 123)",2,mbtiauth_7500
1486,"(66, 77, 599, 193)",2,mbtiauth_7500
1487,"(66, 77, 599, 356)",2,mbtiauth_7500
1488,"(66, 123, 356, 193)",2,mbtiauth_7500
1489,"(66, 599, 123, 193)",2,mbtiauth_7500
1490,"(66, 599, 123, 356)",2,mbtiauth_7500
1491,"(66, 599, 356, 193)",2,mbtiauth_7500
1492,"(77, 2, 2, 22)",2,mbtiauth_7500
1493,"(77, 2, 77, 599)",2,mbtiauth_7500
1494,"(77, 2, 123, 77)",2,mbtiauth_7500
1495,"(77, 2, 123, 268)",2,mbtiauth_7500
1496,"(77, 22, 22, 77)",2,mbtiauth_7500
1497,"(77, 22, 77, 22)",2,mbtiauth_7500
1498,"(77, 22, 77, 77)",3,mbtiauth_7500
1499,"(77, 77, 22, 77)",2,mbtiauth_7500
1500,"(77, 123, 2, 123)",2,mbtiauth_7500
1501,"(77, 123, 64, 123)",2,mbtiauth_7500
1502,"(77, 123, 77, 50)",2,mbtiauth_7500
1503,"(77, 123, 144, 123)",2,mbtiauth_7500
1504,"(77, 123, 144, 193)",2,mbtiauth_7500
1505,"(77, 123, 162, 144)",2,mbtiauth_7500
1506,"(77, 123, 342, 123)",2,mbtiauth_7500
1507,"(77, 123, 356, 193)",2,mbtiauth_7500
1508,"(77, 599, 123, 64)",2,mbtiauth_7500
1509,"(77, 599, 123, 123)",2,mbtiauth_7500
1510,"(77, 599, 123, 193)",2,mbtiauth_7500
1511,"(77, 599, 123, 356)",2,mbtiauth_7500
1512,"(77, 599, 144, 342)",2,mbtiauth_7500
1513,"(77, 599, 356, 193)",2,mbtiauth_7500
1514,"(123, 2, 123, 268)",3,mbtiauth_7500
1515,"(123, 2, 151, 77)",2,mbtiauth_7500
1516,"(123, 22, 10, 22)",2,mbtiauth_7500
1517,"(123, 64, 77, 123)",2,mbtiauth_7500
1518,"(123, 65, 2, 223)",2,mbtiauth_7500
1519,"(123, 77, 2, 123)",3,mbtiauth_7500
1520,"(123, 77, 123, 268)",2,mbtiauth_7500
1521,"(123, 123, 268, 431)",2,mbtiauth_7500
1522,"(123, 144, 286, 520)",2,mbtiauth_7500
1523,"(123, 144, 342, 22)",2,mbtiauth_7500
1524,"(123, 144, 342, 77)",3,mbtiauth_7500
1525,"(123, 144, 342, 123)",2,mbtiauth_7500
1526,"(123, 144, 342, 286)",2,mbtiauth_7500
1527,"(123, 144, 342, 340)",4,mbtiauth_7500
1528,"(123, 144, 342, 356)",2,mbtiauth_7500
1529,"(123, 144, 342, 520)",2,mbtiauth_7500
1530,"(123, 144, 356, 77)",2,mbtiauth_7500
1531,"(123, 151, 2, 77)",2,mbtiauth_7500
1532,"(123, 151, 2, 123)",3,mbtiauth_7500
1533,"(123, 151, 2, 151)",2,mbtiauth_7500
1534,"(123, 151, 2, 268)",2,mbtiauth_7500
1535,"(123, 151, 77, 123)",2,mbtiauth_7500
1536,"(123, 151, 77, 268)",2,mbtiauth_7500
1537,"(123, 151, 123, 268)",2,mbtiauth_7500
1538,"(123, 151, 151, 77)",2,mbtiauth_7500
1539,"(123, 160, 2, 123)",2,mbtiauth_7500
1540,"(123, 160, 77, 123)",2,mbtiauth_7500
1541,"(123, 160, 77, 268)",2,mbtiauth_7500
1542,"(123, 206, 2, 206)",2,mbtiauth_7500
1543,"(123, 268, 65, 431)",2,mbtiauth_7500
1544,"(123, 268, 77, 2)",2,mbtiauth_7500
1545,"(123, 342, 123, 268)",2,mbtiauth_7500
1546,"(123, 342, 286, 520)",2,mbtiauth_7500
1547,"(123, 342, 356, 77)",2,mbtiauth_7500
1548,"(123, 613, 2, 164)",2,mbtiauth_7500
1549,"(123, 613, 64, 2)",2,mbtiauth_7500
1550,"(123, 613, 64, 164)",2,mbtiauth_7500
1551,"(123, 638, 64, 123)",2,mbtiauth_7500
1552,"(123, 1498, 2, 123)",2,mbtiauth_7500
1553,"(144, 342, 22, 22)",2,mbtiauth_7500
1554,"(144, 342, 77, 342)",2,mbtiauth_7500
1555,"(144, 342, 144, 342)",3,mbtiauth_7500
1556,"(144, 342, 286, 520)",2,mbtiauth_7500
1557,"(144, 342, 356, 77)",2,mbtiauth_7500
1558,"(151, 2, 77, 123)",2,mbtiauth_7500
1559,"(151, 2, 77, 268)",2,mbtiauth_7500
1560,"(151, 2, 123, 268)",2,mbtiauth_7500
1561,"(151, 2, 151, 77)",2,mbtiauth_7500
1562,"(151, 2, 151, 123)",2,mbtiauth_7500
1563,"(151, 2, 151, 268)",2,mbtiauth_7500
1564,"(151, 77, 123, 268)",2,mbtiauth_7500
1565,"(151, 151, 77, 123)",2,mbtiauth_7500
1566,"(151, 151, 77, 268)",2,mbtiauth_7500
1567,"(151, 151, 123, 268)",2,mbtiauth_7500
1568,"(162, 123, 77, 2)",2,mbtiauth_7500
1569,"(171, 76, 65, 123)",2,mbtiauth_7500
1570,"(171, 77, 2, 50)",2,mbtiauth_7500
1571,"(206, 2, 206, 164)",2,mbtiauth_7500
1572,"(222, 196, 77, 2)",2,mbtiauth_7500
1573,"(268, 2, 77, 2)",2,mbtiauth_7500
1574,"(268, 2, 77, 123)",2,mbtiauth_7500
1575,"(285, 220, 268, 10)",2,mbtiauth_7500
1576,"(538, 206, 162, 123)",2,mbtiauth_7500
1577,"(538, 645, 162, 123)",2,mbtiauth_7500
1578,"(538, 645, 206, 123)",2,mbtiauth_7500
1579,"(538, 645, 206, 162)",2,mbtiauth_7500
1580,"(599, 123, 64, 123)",2,mbtiauth_7500
1581,"(599, 123, 77, 123)",2,mbtiauth_7500
1582,"(599, 123, 144, 77)",3,mbtiauth_7500
1583,"(599, 123, 144, 342)",4,mbtiauth_7500
1584,"(599, 123, 144, 356)",2,mbtiauth_7500
1585,"(599, 123, 268, 2)",2,mbtiauth_7500
1586,"(599, 123, 342, 77)",3,mbtiauth_7500
1587,"(599, 123, 342, 356)",2,mbtiauth_7500
1588,"(599, 123, 356, 77)",2,mbtiauth_7500
1589,"(599, 123, 356, 193)",2,mbtiauth_7500
1590,"(599, 144, 342, 77)",3,mbtiauth_7500
1591,"(599, 144, 342, 340)",2,mbtiauth_7500
1592,"(599, 144, 342, 356)",2,mbtiauth_7500
1593,"(599, 144, 356, 77)",2,mbtiauth_7500
1594,"(599, 342, 356, 77)",2,mbtiauth_7500
1595,"(599, 364, 16, 154)",2,mbtiauth_7500
1596,"(645, 206, 162, 123)",2,mbtiauth_7500
1597,"(2, 123, 144, 342, 340)",2,mbtiauth_7500
1598,"(2, 123, 151, 2, 123)",2,mbtiauth_7500
1599,"(2, 123, 151, 77, 123)",2,mbtiauth_7500
1600,"(2, 151, 77, 123, 268)",2,mbtiauth_7500
1601,"(2, 599, 123, 144, 342)",2,mbtiauth_7500
1602,"(22, 77, 22, 77, 22)",2,mbtiauth_7500
1603,"(50, 538, 645, 206, 162)",2,mbtiauth_7500
1604,"(66, 77, 123, 356, 193)",2,mbtiauth_7500
1605,"(66, 77, 599, 123, 193)",2,mbtiauth_7500
1606,"(66, 77, 599, 123, 356)",2,mbtiauth_7500
1607,"(66, 77, 599, 356, 193)",2,mbtiauth_7500
1608,"(66, 599, 123, 356, 193)",2,mbtiauth_7500
1609,"(77, 22, 77, 22, 77)",2,mbtiauth_7500
1610,"(77, 599, 123, 356, 193)",2,mbtiauth_7500
1611,"(123, 144, 342, 286, 520)",2,mbtiauth_7500
1612,"(123, 144, 342, 356, 77)",2,mbtiauth_7500
1613,"(123, 151, 2, 123, 268)",2,mbtiauth_7500
1614,"(123, 151, 2, 151, 77)",2,mbtiauth_7500
1615,"(123, 151, 77, 123, 268)",2,mbtiauth_7500
1616,"(151, 2, 77, 123, 268)",2,mbtiauth_7500
1617,"(151, 2, 151, 77, 123)",2,mbtiauth_7500
1618,"(151, 2, 151, 77, 268)",2,mbtiauth_7500
1619,"(151, 2, 151, 123, 268)",2,mbtiauth_7500
1620,"(151, 151, 77, 123, 268)",2,mbtiauth_7500
1621,"(538, 645, 206, 162, 123)",2,mbtiauth_7500
1622,"(599, 123, 144, 342, 77)",3,mbtiauth_7500
1623,"(599, 123, 144, 342, 356)",2,mbtiauth_7500
1624,"(599, 123, 144, 356, 77)",2,mbtiauth_7500
1625,"(599, 123, 342, 356, 77)",2,mbtiauth_7500
1626,"(599, 144, 342, 356, 77)",2,mbtiauth_7500
1627,"(66, 77, 599, 123, 356, 193)",2,mbtiauth_7500
1628,"(151, 2, 151, 77, 123, 268)",2,mbtiauth_7500
1629,"(599, 123, 144, 342, 356, 77)",2,mbtiauth_7500
