,pattern,sup,author
1063,"(2, 22, 77)",2,mbtiauth_1233
1064,"(2, 64, 22)",3,mbtiauth_1233
1065,"(2, 64, 159)",2,mbtiauth_1233
1066,"(2, 67, 77)",2,mbtiauth_1233
1067,"(2, 123, 2)",2,mbtiauth_1233
1068,"(2, 123, 22)",2,mbtiauth_1233
1069,"(2, 123, 123)",2,mbtiauth_1233
1070,"(2, 123, 164)",2,mbtiauth_1233
1071,"(2, 123, 441)",2,mbtiauth_1233
1072,"(2, 154, 446)",2,mbtiauth_1233
1073,"(2, 269, 446)",2,mbtiauth_1233
1074,"(2, 269, 524)",2,mbtiauth_1233
1075,"(2, 349, 599)",2,mbtiauth_1233
1076,"(2, 524, 446)",2,mbtiauth_1233
1077,"(2, 1099, 67)",2,mbtiauth_1233
1078,"(2, 1165, 446)",2,mbtiauth_1233
1079,"(10, 65, 417)",3,mbtiauth_1233
1080,"(10, 212, 65)",2,mbtiauth_1233
1081,"(15, 32, 22)",2,mbtiauth_1233
1082,"(15, 4524, 64)",2,mbtiauth_1233
1083,"(22, 2, 22)",2,mbtiauth_1233
1084,"(22, 2, 224)",2,mbtiauth_1233
1085,"(22, 10, 22)",2,mbtiauth_1233
1086,"(22, 32, 22)",3,mbtiauth_1233
1087,"(22, 32, 152)",2,mbtiauth_1233
1088,"(22, 32, 349)",3,mbtiauth_1233
1089,"(22, 32, 1223)",2,mbtiauth_1233
1090,"(22, 78, 78)",2,mbtiauth_1233
1091,"(22, 152, 349)",2,mbtiauth_1233
1092,"(22, 170, 123)",2,mbtiauth_1233
1093,"(22, 256, 77)",2,mbtiauth_1233
1094,"(22, 256, 193)",2,mbtiauth_1233
1095,"(22, 417, 2)",2,mbtiauth_1233
1096,"(22, 417, 566)",4,mbtiauth_1233
1097,"(22, 566, 64)",3,mbtiauth_1233
1098,"(27, 123, 77)",2,mbtiauth_1233
1099,"(32, 22, 22)",2,mbtiauth_1233
1100,"(32, 22, 417)",2,mbtiauth_1233
1101,"(32, 152, 349)",2,mbtiauth_1233
1102,"(50, 50, 526)",2,mbtiauth_1233
1103,"(50, 156, 22)",2,mbtiauth_1233
1104,"(50, 170, 22)",2,mbtiauth_1233
1105,"(50, 170, 32)",2,mbtiauth_1233
1106,"(50, 170, 50)",2,mbtiauth_1233
1107,"(50, 206, 67)",2,mbtiauth_1233
1108,"(50, 526, 50)",2,mbtiauth_1233
1109,"(50, 531, 2)",2,mbtiauth_1233
1110,"(50, 1226, 2)",3,mbtiauth_1233
1111,"(50, 3006, 2)",2,mbtiauth_1233
1112,"(50, 3006, 1226)",2,mbtiauth_1233
1113,"(50, 8378, 64)",2,mbtiauth_1233
1114,"(64, 22, 2)",2,mbtiauth_1233
1115,"(64, 22, 32)",3,mbtiauth_1233
1116,"(64, 32, 1223)",2,mbtiauth_1233
1117,"(64, 67, 65)",3,mbtiauth_1233
1118,"(64, 67, 431)",2,mbtiauth_1233
1119,"(64, 77, 170)",2,mbtiauth_1233
1120,"(64, 159, 1223)",2,mbtiauth_1233
1121,"(64, 222, 170)",2,mbtiauth_1233
1122,"(64, 225, 2)",3,mbtiauth_1233
1123,"(64, 1039, 2)",2,mbtiauth_1233
1124,"(65, 2, 326)",2,mbtiauth_1233
1125,"(65, 32, 154)",2,mbtiauth_1233
1126,"(65, 151, 153)",3,mbtiauth_1233
1127,"(65, 220, 67)",2,mbtiauth_1233
1128,"(65, 520, 384)",2,mbtiauth_1233
1129,"(65, 1219, 32)",2,mbtiauth_1233
1130,"(65, 1219, 151)",2,mbtiauth_1233
1131,"(65, 1219, 153)",2,mbtiauth_1233
1132,"(67, 70, 212)",2,mbtiauth_1233
1133,"(67, 77, 123)",2,mbtiauth_1233
1134,"(67, 599, 22)",2,mbtiauth_1233
1135,"(70, 31, 10)",2,mbtiauth_1233
1136,"(77, 65, 151)",2,mbtiauth_1233
1137,"(77, 65, 1219)",2,mbtiauth_1233
1138,"(77, 77, 22)",2,mbtiauth_1233
1139,"(77, 77, 77)",2,mbtiauth_1233
1140,"(77, 77, 123)",2,mbtiauth_1233
1141,"(77, 123, 64)",2,mbtiauth_1233
1142,"(77, 123, 65)",2,mbtiauth_1233
1143,"(77, 123, 77)",3,mbtiauth_1233
1144,"(77, 123, 120)",2,mbtiauth_1233
1145,"(77, 123, 123)",3,mbtiauth_1233
1146,"(77, 123, 144)",2,mbtiauth_1233
1147,"(77, 123, 151)",2,mbtiauth_1233
1148,"(77, 123, 193)",2,mbtiauth_1233
1149,"(77, 123, 286)",4,mbtiauth_1233
1150,"(77, 123, 407)",2,mbtiauth_1233
1151,"(77, 123, 567)",2,mbtiauth_1233
1152,"(77, 123, 782)",2,mbtiauth_1233
1153,"(77, 212, 22)",2,mbtiauth_1233
1154,"(77, 274, 22)",2,mbtiauth_1233
1155,"(77, 286, 782)",2,mbtiauth_1233
1156,"(77, 599, 171)",2,mbtiauth_1233
1157,"(77, 1219, 151)",2,mbtiauth_1233
1158,"(77, 1927, 170)",2,mbtiauth_1233
1159,"(83, 64, 123)",2,mbtiauth_1233
1160,"(120, 64, 237)",2,mbtiauth_1233
1161,"(123, 2, 123)",2,mbtiauth_1233
1162,"(123, 22, 2)",2,mbtiauth_1233
1163,"(123, 22, 32)",3,mbtiauth_1233
1164,"(123, 22, 417)",4,mbtiauth_1233
1165,"(123, 22, 566)",2,mbtiauth_1233
1166,"(123, 27, 154)",2,mbtiauth_1233
1167,"(123, 32, 22)",2,mbtiauth_1233
1168,"(123, 32, 650)",2,mbtiauth_1233
1169,"(123, 50, 1226)",3,mbtiauth_1233
1170,"(123, 50, 3006)",2,mbtiauth_1233
1171,"(123, 64, 22)",2,mbtiauth_1233
1172,"(123, 64, 206)",2,mbtiauth_1233
1173,"(123, 65, 32)",3,mbtiauth_1233
1174,"(123, 65, 151)",2,mbtiauth_1233
1175,"(123, 65, 156)",2,mbtiauth_1233
1176,"(123, 65, 356)",2,mbtiauth_1233
1177,"(123, 65, 1219)",2,mbtiauth_1233
1178,"(123, 77, 2)",2,mbtiauth_1233
1179,"(123, 77, 123)",3,mbtiauth_1233
1180,"(123, 77, 151)",2,mbtiauth_1233
1181,"(123, 77, 567)",2,mbtiauth_1233
1182,"(123, 120, 32)",2,mbtiauth_1233
1183,"(123, 120, 77)",2,mbtiauth_1233
1184,"(123, 120, 154)",2,mbtiauth_1233
1185,"(123, 120, 286)",2,mbtiauth_1233
1186,"(123, 120, 340)",2,mbtiauth_1233
1187,"(123, 123, 32)",2,mbtiauth_1233
1188,"(123, 123, 65)",3,mbtiauth_1233
1189,"(123, 123, 120)",2,mbtiauth_1233
1190,"(123, 123, 151)",2,mbtiauth_1233
1191,"(123, 123, 206)",2,mbtiauth_1233
1192,"(123, 123, 356)",2,mbtiauth_1233
1193,"(123, 123, 441)",3,mbtiauth_1233
1194,"(123, 123, 699)",2,mbtiauth_1233
1195,"(123, 127, 154)",2,mbtiauth_1233
1196,"(123, 164, 2)",2,mbtiauth_1233
1197,"(123, 164, 326)",2,mbtiauth_1233
1198,"(123, 175, 32)",2,mbtiauth_1233
1199,"(123, 193, 2)",2,mbtiauth_1233
1200,"(123, 193, 50)",2,mbtiauth_1233
1201,"(123, 193, 77)",2,mbtiauth_1233
1202,"(123, 193, 206)",2,mbtiauth_1233
1203,"(123, 193, 254)",2,mbtiauth_1233
1204,"(123, 205, 65)",2,mbtiauth_1233
1205,"(123, 206, 50)",2,mbtiauth_1233
1206,"(123, 206, 254)",3,mbtiauth_1233
1207,"(123, 206, 291)",2,mbtiauth_1233
1208,"(123, 223, 206)",2,mbtiauth_1233
1209,"(123, 254, 50)",2,mbtiauth_1233
1210,"(123, 286, 22)",2,mbtiauth_1233
1211,"(123, 286, 64)",2,mbtiauth_1233
1212,"(123, 286, 65)",2,mbtiauth_1233
1213,"(123, 286, 193)",3,mbtiauth_1233
1214,"(123, 286, 782)",2,mbtiauth_1233
1215,"(123, 286, 7229)",2,mbtiauth_1233
1216,"(123, 326, 164)",3,mbtiauth_1233
1217,"(123, 326, 1897)",2,mbtiauth_1233
1218,"(123, 340, 77)",2,mbtiauth_1233
1219,"(123, 340, 123)",3,mbtiauth_1233
1220,"(123, 340, 154)",2,mbtiauth_1233
1221,"(123, 356, 154)",2,mbtiauth_1233
1222,"(123, 407, 2)",2,mbtiauth_1233
1223,"(123, 407, 64)",3,mbtiauth_1233
1224,"(123, 407, 913)",2,mbtiauth_1233
1225,"(123, 417, 566)",2,mbtiauth_1233
1226,"(123, 441, 65)",2,mbtiauth_1233
1227,"(123, 441, 2514)",2,mbtiauth_1233
1228,"(123, 566, 64)",2,mbtiauth_1233
1229,"(123, 613, 2)",2,mbtiauth_1233
1230,"(123, 613, 22)",2,mbtiauth_1233
1231,"(123, 664, 50)",2,mbtiauth_1233
1232,"(123, 664, 123)",2,mbtiauth_1233
1233,"(123, 765, 65)",2,mbtiauth_1233
1234,"(123, 1219, 151)",2,mbtiauth_1233
1235,"(123, 1223, 2)",2,mbtiauth_1233
1236,"(123, 1713, 64)",2,mbtiauth_1233
1237,"(123, 1913, 1713)",2,mbtiauth_1233
1238,"(123, 2195, 22)",2,mbtiauth_1233
1239,"(123, 3006, 1226)",2,mbtiauth_1233
1240,"(127, 77, 77)",2,mbtiauth_1233
1241,"(146, 77, 123)",2,mbtiauth_1233
1242,"(146, 77, 286)",2,mbtiauth_1233
1243,"(146, 123, 286)",2,mbtiauth_1233
1244,"(156, 22, 10)",2,mbtiauth_1233
1245,"(156, 22, 170)",2,mbtiauth_1233
1246,"(156, 32, 22)",2,mbtiauth_1233
1247,"(159, 376, 64)",2,mbtiauth_1233
1248,"(159, 1223, 64)",2,mbtiauth_1233
1249,"(159, 1223, 376)",2,mbtiauth_1233
1250,"(164, 2, 326)",2,mbtiauth_1233
1251,"(164, 32, 1223)",2,mbtiauth_1233
1252,"(164, 65, 2)",2,mbtiauth_1233
1253,"(164, 65, 326)",2,mbtiauth_1233
1254,"(164, 170, 32)",2,mbtiauth_1233
1255,"(170, 10, 12131)",2,mbtiauth_1233
1256,"(170, 22, 32)",2,mbtiauth_1233
1257,"(170, 123, 32)",2,mbtiauth_1233
1258,"(175, 22, 32)",2,mbtiauth_1233
1259,"(175, 32, 22)",2,mbtiauth_1233
1260,"(193, 50, 2)",2,mbtiauth_1233
1261,"(193, 64, 2)",2,mbtiauth_1233
1262,"(193, 77, 123)",2,mbtiauth_1233
1263,"(205, 64, 65)",2,mbtiauth_1233
1264,"(206, 22, 2)",2,mbtiauth_1233
1265,"(206, 254, 50)",2,mbtiauth_1233
1266,"(212, 65, 417)",2,mbtiauth_1233
1267,"(220, 67, 22)",2,mbtiauth_1233
1268,"(220, 67, 77)",2,mbtiauth_1233
1269,"(220, 67, 599)",2,mbtiauth_1233
1270,"(220, 599, 22)",2,mbtiauth_1233
1271,"(222, 285, 123)",2,mbtiauth_1233
1272,"(225, 2, 27)",2,mbtiauth_1233
1273,"(254, 520, 384)",2,mbtiauth_1233
1274,"(254, 526, 77)",2,mbtiauth_1233
1275,"(269, 524, 446)",2,mbtiauth_1233
1276,"(326, 164, 356)",2,mbtiauth_1233
1277,"(340, 77, 123)",2,mbtiauth_1233
1278,"(356, 77, 123)",2,mbtiauth_1233
1279,"(356, 123, 783)",2,mbtiauth_1233
1280,"(364, 2, 123)",2,mbtiauth_1233
1281,"(376, 64, 1223)",2,mbtiauth_1233
1282,"(431, 64, 10)",2,mbtiauth_1233
1283,"(446, 78, 78)",2,mbtiauth_1233
1284,"(520, 151, 153)",2,mbtiauth_1233
1285,"(531, 524, 858)",2,mbtiauth_1233
1286,"(566, 22, 32)",2,mbtiauth_1233
1287,"(566, 64, 65)",2,mbtiauth_1233
1288,"(566, 206, 22)",2,mbtiauth_1233
1289,"(566, 1205, 441)",2,mbtiauth_1233
1290,"(599, 22, 417)",2,mbtiauth_1233
1291,"(599, 22, 566)",2,mbtiauth_1233
1292,"(599, 50, 171)",2,mbtiauth_1233
1293,"(599, 123, 164)",2,mbtiauth_1233
1294,"(599, 123, 326)",2,mbtiauth_1233
1295,"(599, 123, 1897)",2,mbtiauth_1233
1296,"(599, 326, 1897)",2,mbtiauth_1233
1297,"(599, 417, 566)",2,mbtiauth_1233
1298,"(613, 22, 2)",2,mbtiauth_1233
1299,"(651, 10, 65)",2,mbtiauth_1233
1300,"(664, 50, 1226)",2,mbtiauth_1233
1301,"(711, 167, 1808)",2,mbtiauth_1233
1302,"(924, 123, 783)",2,mbtiauth_1233
1303,"(924, 356, 123)",2,mbtiauth_1233
1304,"(924, 356, 783)",2,mbtiauth_1233
1305,"(1219, 151, 153)",2,mbtiauth_1233
1306,"(1223, 376, 64)",2,mbtiauth_1233
1307,"(1313, 64, 154)",2,mbtiauth_1233
1308,"(1521, 2, 64)",2,mbtiauth_1233
1309,"(1521, 164, 225)",2,mbtiauth_1233
1310,"(1713, 64, 22)",3,mbtiauth_1233
1311,"(1913, 64, 22)",2,mbtiauth_1233
1312,"(1913, 1713, 22)",2,mbtiauth_1233
1313,"(1913, 1713, 64)",2,mbtiauth_1233
1314,"(2066, 64, 1303)",2,mbtiauth_1233
1315,"(3006, 1226, 2)",2,mbtiauth_1233
1316,"(3069, 123, 22)",2,mbtiauth_1233
1317,"(3069, 123, 32)",2,mbtiauth_1233
1318,"(33613, 280, 22)",2,mbtiauth_1233
1319,"(136889, 70, 7902)",2,mbtiauth_1233
1320,"(2, 269, 524, 446)",2,mbtiauth_1233
1321,"(22, 32, 152, 349)",2,mbtiauth_1233
1322,"(50, 3006, 1226, 2)",2,mbtiauth_1233
1323,"(65, 1219, 151, 153)",2,mbtiauth_1233
1324,"(77, 65, 1219, 151)",2,mbtiauth_1233
1325,"(77, 123, 123, 151)",2,mbtiauth_1233
1326,"(77, 123, 286, 782)",2,mbtiauth_1233
1327,"(123, 22, 417, 566)",2,mbtiauth_1233
1328,"(123, 50, 3006, 1226)",2,mbtiauth_1233
1329,"(123, 65, 1219, 151)",2,mbtiauth_1233
1330,"(123, 123, 65, 32)",2,mbtiauth_1233
1331,"(123, 206, 254, 50)",2,mbtiauth_1233
1332,"(123, 340, 77, 123)",2,mbtiauth_1233
1333,"(123, 613, 22, 2)",2,mbtiauth_1233
1334,"(146, 77, 123, 286)",2,mbtiauth_1233
1335,"(159, 1223, 376, 64)",2,mbtiauth_1233
1336,"(164, 65, 2, 326)",2,mbtiauth_1233
1337,"(220, 67, 599, 22)",2,mbtiauth_1233
1338,"(599, 22, 417, 566)",2,mbtiauth_1233
1339,"(599, 123, 326, 1897)",2,mbtiauth_1233
1340,"(924, 356, 123, 783)",2,mbtiauth_1233
1341,"(1913, 1713, 64, 22)",2,mbtiauth_1233
