,pattern,sup,author
648,"(2, 22, 154)",2,mbtiauth_2219
649,"(2, 64, 154)",2,mbtiauth_2219
650,"(2, 65, 64)",2,mbtiauth_2219
651,"(10, 22, 77)",2,mbtiauth_2219
652,"(10, 22, 123)",2,mbtiauth_2219
653,"(10, 22, 6103)",2,mbtiauth_2219
654,"(10, 32, 2998)",2,mbtiauth_2219
655,"(10, 77, 22)",2,mbtiauth_2219
656,"(10, 520, 152)",2,mbtiauth_2219
657,"(10, 1532, 32)",2,mbtiauth_2219
658,"(10, 1532, 2998)",2,mbtiauth_2219
659,"(22, 22, 22)",3,mbtiauth_2219
660,"(22, 22, 32)",2,mbtiauth_2219
661,"(22, 32, 22)",2,mbtiauth_2219
662,"(22, 77, 2)",3,mbtiauth_2219
663,"(22, 77, 65)",2,mbtiauth_2219
664,"(22, 77, 70)",2,mbtiauth_2219
665,"(22, 123, 220)",2,mbtiauth_2219
666,"(22, 663, 77)",2,mbtiauth_2219
667,"(22, 16257, 3811)",2,mbtiauth_2219
668,"(31, 77, 65)",2,mbtiauth_2219
669,"(31, 441, 65)",2,mbtiauth_2219
670,"(41, 29, 65)",2,mbtiauth_2219
671,"(41, 64, 65)",2,mbtiauth_2219
672,"(41, 64, 67)",3,mbtiauth_2219
673,"(41, 154, 41)",2,mbtiauth_2219
674,"(41, 1758, 2351)",2,mbtiauth_2219
675,"(41, 2173, 41)",2,mbtiauth_2219
676,"(64, 64, 64)",3,mbtiauth_2219
677,"(64, 64, 1713)",2,mbtiauth_2219
678,"(64, 67, 77)",2,mbtiauth_2219
679,"(64, 123, 65)",2,mbtiauth_2219
680,"(64, 198, 32)",2,mbtiauth_2219
681,"(64, 254, 441)",2,mbtiauth_2219
682,"(65, 31, 41)",2,mbtiauth_2219
683,"(65, 64, 2)",2,mbtiauth_2219
684,"(65, 64, 64)",2,mbtiauth_2219
685,"(65, 64, 417)",2,mbtiauth_2219
686,"(65, 65, 77)",2,mbtiauth_2219
687,"(65, 77, 65)",2,mbtiauth_2219
688,"(65, 77, 77)",2,mbtiauth_2219
689,"(65, 77, 441)",2,mbtiauth_2219
690,"(65, 417, 64)",2,mbtiauth_2219
691,"(67, 154, 64)",2,mbtiauth_2219
692,"(67, 254, 41)",2,mbtiauth_2219
693,"(77, 2, 65)",2,mbtiauth_2219
694,"(77, 10, 64)",2,mbtiauth_2219
695,"(77, 10, 77)",2,mbtiauth_2219
696,"(77, 31, 65)",2,mbtiauth_2219
697,"(77, 41, 1726)",2,mbtiauth_2219
698,"(77, 64, 193)",2,mbtiauth_2219
699,"(77, 65, 64)",2,mbtiauth_2219
700,"(77, 65, 77)",3,mbtiauth_2219
701,"(77, 65, 168)",2,mbtiauth_2219
702,"(77, 66, 65)",2,mbtiauth_2219
703,"(77, 70, 433)",2,mbtiauth_2219
704,"(77, 77, 2)",2,mbtiauth_2219
705,"(77, 77, 64)",3,mbtiauth_2219
706,"(77, 77, 65)",3,mbtiauth_2219
707,"(77, 77, 70)",2,mbtiauth_2219
708,"(77, 77, 193)",2,mbtiauth_2219
709,"(77, 170, 65)",2,mbtiauth_2219
710,"(77, 193, 64)",2,mbtiauth_2219
711,"(77, 260, 64)",2,mbtiauth_2219
712,"(123, 10, 22)",2,mbtiauth_2219
713,"(123, 10, 123)",2,mbtiauth_2219
714,"(123, 22, 123)",2,mbtiauth_2219
715,"(123, 31, 65)",2,mbtiauth_2219
716,"(123, 31, 77)",2,mbtiauth_2219
717,"(123, 31, 411)",2,mbtiauth_2219
718,"(123, 65, 31)",2,mbtiauth_2219
719,"(123, 65, 77)",3,mbtiauth_2219
720,"(123, 65, 168)",2,mbtiauth_2219
721,"(123, 77, 2)",2,mbtiauth_2219
722,"(123, 77, 31)",3,mbtiauth_2219
723,"(123, 77, 65)",2,mbtiauth_2219
724,"(123, 77, 70)",2,mbtiauth_2219
725,"(123, 77, 599)",2,mbtiauth_2219
726,"(123, 154, 170)",2,mbtiauth_2219
727,"(123, 174, 10)",2,mbtiauth_2219
728,"(123, 198, 10)",2,mbtiauth_2219
729,"(123, 220, 236)",2,mbtiauth_2219
730,"(123, 286, 65)",2,mbtiauth_2219
731,"(123, 286, 170)",2,mbtiauth_2219
732,"(123, 286, 1103)",2,mbtiauth_2219
733,"(123, 356, 1039)",2,mbtiauth_2219
734,"(123, 441, 31)",2,mbtiauth_2219
735,"(123, 441, 64)",2,mbtiauth_2219
736,"(123, 441, 65)",2,mbtiauth_2219
737,"(123, 441, 77)",2,mbtiauth_2219
738,"(123, 441, 599)",2,mbtiauth_2219
739,"(144, 41, 1758)",2,mbtiauth_2219
740,"(144, 41, 2351)",2,mbtiauth_2219
741,"(144, 1758, 2351)",2,mbtiauth_2219
742,"(152, 236, 123)",2,mbtiauth_2219
743,"(154, 16, 73)",2,mbtiauth_2219
744,"(154, 41, 64)",2,mbtiauth_2219
745,"(154, 65, 64)",3,mbtiauth_2219
746,"(154, 65, 65)",2,mbtiauth_2219
747,"(162, 10, 22)",2,mbtiauth_2219
748,"(162, 77, 70)",2,mbtiauth_2219
749,"(162, 193, 64)",2,mbtiauth_2219
750,"(162, 198, 10)",2,mbtiauth_2219
751,"(162, 198, 22)",2,mbtiauth_2219
752,"(193, 67, 65)",2,mbtiauth_2219
753,"(193, 67, 154)",2,mbtiauth_2219
754,"(193, 77, 2)",2,mbtiauth_2219
755,"(193, 77, 152)",2,mbtiauth_2219
756,"(193, 154, 65)",2,mbtiauth_2219
757,"(193, 154, 441)",2,mbtiauth_2219
758,"(193, 170, 2)",2,mbtiauth_2219
759,"(193, 212, 65)",2,mbtiauth_2219
760,"(198, 10, 22)",2,mbtiauth_2219
761,"(236, 22, 77)",2,mbtiauth_2219
762,"(236, 41, 64)",2,mbtiauth_2219
763,"(236, 41, 65)",2,mbtiauth_2219
764,"(236, 64, 65)",2,mbtiauth_2219
765,"(236, 123, 65)",2,mbtiauth_2219
766,"(236, 123, 77)",2,mbtiauth_2219
767,"(236, 123, 220)",2,mbtiauth_2219
768,"(260, 65, 2)",2,mbtiauth_2219
769,"(262, 170, 291)",2,mbtiauth_2219
770,"(326, 64, 2349)",2,mbtiauth_2219
771,"(326, 1103, 77)",2,mbtiauth_2219
772,"(364, 10, 123)",2,mbtiauth_2219
773,"(364, 10, 193)",2,mbtiauth_2219
774,"(416, 274, 77)",2,mbtiauth_2219
775,"(441, 64, 65)",2,mbtiauth_2219
776,"(441, 65, 64)",2,mbtiauth_2219
777,"(441, 77, 599)",2,mbtiauth_2219
778,"(571, 22, 2)",2,mbtiauth_2219
779,"(710, 77, 77)",2,mbtiauth_2219
780,"(1335, 77, 2)",2,mbtiauth_2219
781,"(1532, 32, 2998)",2,mbtiauth_2219
782,"(10, 1532, 32, 2998)",2,mbtiauth_2219
783,"(22, 22, 32, 22)",2,mbtiauth_2219
784,"(65, 77, 65, 77)",2,mbtiauth_2219
785,"(77, 77, 193, 64)",2,mbtiauth_2219
786,"(123, 10, 22, 123)",2,mbtiauth_2219
787,"(123, 441, 77, 599)",2,mbtiauth_2219
788,"(144, 41, 1758, 2351)",2,mbtiauth_2219
789,"(162, 198, 10, 22)",2,mbtiauth_2219
790,"(236, 41, 64, 65)",2,mbtiauth_2219
