,pattern,sup,author
574,"(2, 2, 65)",3,mbtiauth_2565
575,"(2, 2, 720)",2,mbtiauth_2565
576,"(2, 10, 164)",2,mbtiauth_2565
577,"(2, 64, 22)",3,mbtiauth_2565
578,"(2, 64, 32)",2,mbtiauth_2565
579,"(2, 64, 222)",2,mbtiauth_2565
580,"(2, 64, 657)",2,mbtiauth_2565
581,"(2, 65, 32)",2,mbtiauth_2565
582,"(2, 65, 720)",2,mbtiauth_2565
583,"(2, 67, 30)",2,mbtiauth_2565
584,"(2, 123, 2)",2,mbtiauth_2565
585,"(2, 123, 198)",2,mbtiauth_2565
586,"(2, 170, 154)",2,mbtiauth_2565
587,"(2, 193, 2)",2,mbtiauth_2565
588,"(2, 246, 154)",2,mbtiauth_2565
589,"(2, 246, 170)",2,mbtiauth_2565
590,"(2, 246, 381)",2,mbtiauth_2565
591,"(2, 381, 154)",2,mbtiauth_2565
592,"(2, 381, 170)",2,mbtiauth_2565
593,"(2, 499, 22)",2,mbtiauth_2565
594,"(2, 657, 170)",2,mbtiauth_2565
595,"(8, 3831, 123)",2,mbtiauth_2565
596,"(8, 82305, 82306)",2,mbtiauth_2565
597,"(9, 262, 170)",2,mbtiauth_2565
598,"(10, 2, 123)",2,mbtiauth_2565
599,"(10, 77, 70)",3,mbtiauth_2565
600,"(16, 77, 70)",2,mbtiauth_2565
601,"(22, 22, 538)",2,mbtiauth_2565
602,"(22, 31, 22)",2,mbtiauth_2565
603,"(22, 31, 538)",2,mbtiauth_2565
604,"(22, 33, 22)",2,mbtiauth_2565
605,"(22, 77, 65)",2,mbtiauth_2565
606,"(22, 538, 76)",2,mbtiauth_2565
607,"(27, 22, 1584)",2,mbtiauth_2565
608,"(30, 77, 193)",2,mbtiauth_2565
609,"(31, 22, 76)",2,mbtiauth_2565
610,"(31, 22, 538)",2,mbtiauth_2565
611,"(31, 538, 76)",2,mbtiauth_2565
612,"(32, 64, 50)",2,mbtiauth_2565
613,"(64, 22, 22)",4,mbtiauth_2565
614,"(64, 22, 109)",2,mbtiauth_2565
615,"(64, 22, 193)",2,mbtiauth_2565
616,"(64, 22, 520)",2,mbtiauth_2565
617,"(64, 32, 10)",2,mbtiauth_2565
618,"(64, 32, 22)",2,mbtiauth_2565
619,"(64, 198, 22)",2,mbtiauth_2565
620,"(65, 164, 213)",2,mbtiauth_2565
621,"(66, 193, 123)",2,mbtiauth_2565
622,"(70, 10, 417)",2,mbtiauth_2565
623,"(70, 65, 65)",2,mbtiauth_2565
624,"(70, 65, 349)",2,mbtiauth_2565
625,"(73, 77, 2)",2,mbtiauth_2565
626,"(77, 2, 123)",2,mbtiauth_2565
627,"(77, 10, 65)",2,mbtiauth_2565
628,"(77, 22, 70)",2,mbtiauth_2565
629,"(77, 64, 77)",2,mbtiauth_2565
630,"(77, 70, 10)",2,mbtiauth_2565
631,"(77, 70, 65)",2,mbtiauth_2565
632,"(77, 77, 2)",2,mbtiauth_2565
633,"(77, 77, 123)",2,mbtiauth_2565
634,"(77, 123, 2)",4,mbtiauth_2565
635,"(77, 123, 33)",3,mbtiauth_2565
636,"(77, 123, 64)",2,mbtiauth_2565
637,"(77, 123, 160)",2,mbtiauth_2565
638,"(77, 123, 593)",2,mbtiauth_2565
639,"(77, 162, 123)",2,mbtiauth_2565
640,"(77, 349, 70)",2,mbtiauth_2565
641,"(77, 593, 2)",2,mbtiauth_2565
642,"(77, 593, 33)",2,mbtiauth_2565
643,"(120, 64, 77)",2,mbtiauth_2565
644,"(123, 15, 32)",2,mbtiauth_2565
645,"(123, 73, 2)",2,mbtiauth_2565
646,"(123, 73, 77)",2,mbtiauth_2565
647,"(123, 77, 2)",3,mbtiauth_2565
648,"(123, 120, 10)",2,mbtiauth_2565
649,"(123, 154, 10)",2,mbtiauth_2565
650,"(123, 154, 65)",2,mbtiauth_2565
651,"(123, 154, 170)",2,mbtiauth_2565
652,"(123, 280, 2)",2,mbtiauth_2565
653,"(123, 322, 10)",2,mbtiauth_2565
654,"(123, 538, 77)",2,mbtiauth_2565
655,"(123, 593, 2)",2,mbtiauth_2565
656,"(123, 593, 33)",3,mbtiauth_2565
657,"(123, 593, 499)",2,mbtiauth_2565
658,"(123, 2509, 637)",2,mbtiauth_2565
659,"(123, 2509, 3376)",2,mbtiauth_2565
660,"(123, 3376, 637)",2,mbtiauth_2565
661,"(150, 566, 170)",2,mbtiauth_2565
662,"(154, 7, 193)",2,mbtiauth_2565
663,"(154, 170, 65)",2,mbtiauth_2565
664,"(154, 443, 183)",2,mbtiauth_2565
665,"(164, 213, 225)",2,mbtiauth_2565
666,"(170, 2, 64)",2,mbtiauth_2565
667,"(170, 65, 54)",2,mbtiauth_2565
668,"(170, 77, 170)",2,mbtiauth_2565
669,"(170, 154, 2)",2,mbtiauth_2565
670,"(170, 213, 2)",2,mbtiauth_2565
671,"(170, 213, 225)",2,mbtiauth_2565
672,"(170, 225, 2)",2,mbtiauth_2565
673,"(193, 77, 123)",2,mbtiauth_2565
674,"(193, 123, 520)",2,mbtiauth_2565
675,"(213, 2, 170)",2,mbtiauth_2565
676,"(213, 2, 246)",2,mbtiauth_2565
677,"(213, 2, 381)",2,mbtiauth_2565
678,"(213, 225, 2)",3,mbtiauth_2565
679,"(213, 225, 170)",2,mbtiauth_2565
680,"(213, 225, 246)",2,mbtiauth_2565
681,"(213, 225, 280)",2,mbtiauth_2565
682,"(213, 225, 381)",2,mbtiauth_2565
683,"(213, 225, 1359)",2,mbtiauth_2565
684,"(213, 246, 170)",2,mbtiauth_2565
685,"(213, 246, 381)",2,mbtiauth_2565
686,"(213, 280, 2)",2,mbtiauth_2565
687,"(213, 280, 170)",2,mbtiauth_2565
688,"(213, 280, 246)",2,mbtiauth_2565
689,"(213, 280, 381)",2,mbtiauth_2565
690,"(213, 280, 1359)",2,mbtiauth_2565
691,"(213, 381, 170)",2,mbtiauth_2565
692,"(213, 1359, 2)",2,mbtiauth_2565
693,"(213, 1359, 170)",2,mbtiauth_2565
694,"(213, 1359, 246)",2,mbtiauth_2565
695,"(213, 1359, 381)",2,mbtiauth_2565
696,"(225, 2, 170)",2,mbtiauth_2565
697,"(225, 2, 246)",2,mbtiauth_2565
698,"(225, 2, 381)",2,mbtiauth_2565
699,"(225, 2, 657)",2,mbtiauth_2565
700,"(225, 246, 170)",2,mbtiauth_2565
701,"(225, 246, 381)",2,mbtiauth_2565
702,"(225, 280, 2)",2,mbtiauth_2565
703,"(225, 280, 170)",2,mbtiauth_2565
704,"(225, 280, 246)",2,mbtiauth_2565
705,"(225, 280, 381)",2,mbtiauth_2565
706,"(225, 280, 1359)",2,mbtiauth_2565
707,"(225, 381, 170)",2,mbtiauth_2565
708,"(225, 1359, 2)",2,mbtiauth_2565
709,"(225, 1359, 170)",2,mbtiauth_2565
710,"(225, 1359, 246)",2,mbtiauth_2565
711,"(225, 1359, 381)",2,mbtiauth_2565
712,"(246, 170, 154)",2,mbtiauth_2565
713,"(246, 381, 154)",2,mbtiauth_2565
714,"(246, 381, 170)",2,mbtiauth_2565
715,"(262, 170, 16)",2,mbtiauth_2565
716,"(280, 2, 170)",2,mbtiauth_2565
717,"(280, 2, 246)",2,mbtiauth_2565
718,"(280, 2, 381)",2,mbtiauth_2565
719,"(280, 246, 170)",2,mbtiauth_2565
720,"(280, 246, 381)",2,mbtiauth_2565
721,"(280, 381, 170)",2,mbtiauth_2565
722,"(280, 1359, 2)",2,mbtiauth_2565
723,"(280, 1359, 170)",2,mbtiauth_2565
724,"(280, 1359, 246)",2,mbtiauth_2565
725,"(280, 1359, 381)",2,mbtiauth_2565
726,"(364, 77, 10)",2,mbtiauth_2565
727,"(381, 170, 154)",2,mbtiauth_2565
728,"(443, 183, 22)",2,mbtiauth_2565
729,"(499, 33, 693)",2,mbtiauth_2565
730,"(520, 33, 693)",2,mbtiauth_2565
731,"(520, 123, 593)",2,mbtiauth_2565
732,"(850, 77, 222)",2,mbtiauth_2565
733,"(1359, 2, 154)",2,mbtiauth_2565
734,"(1359, 2, 170)",2,mbtiauth_2565
735,"(1359, 2, 246)",2,mbtiauth_2565
736,"(1359, 2, 381)",2,mbtiauth_2565
737,"(1359, 170, 154)",2,mbtiauth_2565
738,"(1359, 246, 154)",2,mbtiauth_2565
739,"(1359, 246, 170)",2,mbtiauth_2565
740,"(1359, 246, 381)",2,mbtiauth_2565
741,"(1359, 381, 154)",2,mbtiauth_2565
742,"(1359, 381, 170)",2,mbtiauth_2565
743,"(1584, 123, 593)",2,mbtiauth_2565
744,"(2509, 637, 566)",2,mbtiauth_2565
745,"(2509, 3376, 566)",2,mbtiauth_2565
746,"(2509, 3376, 637)",2,mbtiauth_2565
747,"(3376, 637, 566)",2,mbtiauth_2565
748,"(29221, 153, 21566)",2,mbtiauth_2565
749,"(2, 2, 65, 720)",2,mbtiauth_2565
750,"(2, 246, 170, 154)",2,mbtiauth_2565
751,"(2, 246, 381, 154)",2,mbtiauth_2565
752,"(2, 246, 381, 170)",2,mbtiauth_2565
753,"(2, 381, 170, 154)",2,mbtiauth_2565
754,"(22, 31, 22, 538)",2,mbtiauth_2565
755,"(31, 22, 538, 76)",2,mbtiauth_2565
756,"(77, 123, 593, 2)",2,mbtiauth_2565
757,"(77, 123, 593, 33)",2,mbtiauth_2565
758,"(123, 73, 77, 2)",2,mbtiauth_2565
759,"(123, 2509, 3376, 637)",2,mbtiauth_2565
760,"(170, 213, 225, 2)",2,mbtiauth_2565
761,"(213, 2, 246, 170)",2,mbtiauth_2565
762,"(213, 2, 246, 381)",2,mbtiauth_2565
763,"(213, 2, 381, 170)",2,mbtiauth_2565
764,"(213, 225, 2, 170)",2,mbtiauth_2565
765,"(213, 225, 2, 246)",2,mbtiauth_2565
766,"(213, 225, 2, 381)",2,mbtiauth_2565
767,"(213, 225, 246, 170)",2,mbtiauth_2565
768,"(213, 225, 246, 381)",2,mbtiauth_2565
769,"(213, 225, 280, 2)",2,mbtiauth_2565
770,"(213, 225, 280, 170)",2,mbtiauth_2565
771,"(213, 225, 280, 246)",2,mbtiauth_2565
772,"(213, 225, 280, 381)",2,mbtiauth_2565
773,"(213, 225, 280, 1359)",2,mbtiauth_2565
774,"(213, 225, 381, 170)",2,mbtiauth_2565
775,"(213, 225, 1359, 2)",2,mbtiauth_2565
776,"(213, 225, 1359, 170)",2,mbtiauth_2565
777,"(213, 225, 1359, 246)",2,mbtiauth_2565
778,"(213, 225, 1359, 381)",2,mbtiauth_2565
779,"(213, 246, 381, 170)",2,mbtiauth_2565
780,"(213, 280, 2, 170)",2,mbtiauth_2565
781,"(213, 280, 2, 246)",2,mbtiauth_2565
782,"(213, 280, 2, 381)",2,mbtiauth_2565
783,"(213, 280, 246, 170)",2,mbtiauth_2565
784,"(213, 280, 246, 381)",2,mbtiauth_2565
785,"(213, 280, 381, 170)",2,mbtiauth_2565
786,"(213, 280, 1359, 2)",2,mbtiauth_2565
787,"(213, 280, 1359, 170)",2,mbtiauth_2565
788,"(213, 280, 1359, 246)",2,mbtiauth_2565
789,"(213, 280, 1359, 381)",2,mbtiauth_2565
790,"(213, 1359, 2, 170)",2,mbtiauth_2565
791,"(213, 1359, 2, 246)",2,mbtiauth_2565
792,"(213, 1359, 2, 381)",2,mbtiauth_2565
793,"(213, 1359, 246, 170)",2,mbtiauth_2565
794,"(213, 1359, 246, 381)",2,mbtiauth_2565
795,"(213, 1359, 381, 170)",2,mbtiauth_2565
796,"(225, 2, 246, 170)",2,mbtiauth_2565
797,"(225, 2, 246, 381)",2,mbtiauth_2565
798,"(225, 2, 381, 170)",2,mbtiauth_2565
799,"(225, 246, 381, 170)",2,mbtiauth_2565
800,"(225, 280, 2, 170)",2,mbtiauth_2565
801,"(225, 280, 2, 246)",2,mbtiauth_2565
802,"(225, 280, 2, 381)",2,mbtiauth_2565
803,"(225, 280, 246, 170)",2,mbtiauth_2565
804,"(225, 280, 246, 381)",2,mbtiauth_2565
805,"(225, 280, 381, 170)",2,mbtiauth_2565
806,"(225, 280, 1359, 2)",2,mbtiauth_2565
807,"(225, 280, 1359, 170)",2,mbtiauth_2565
808,"(225, 280, 1359, 246)",2,mbtiauth_2565
809,"(225, 280, 1359, 381)",2,mbtiauth_2565
810,"(225, 1359, 2, 170)",2,mbtiauth_2565
811,"(225, 1359, 2, 246)",2,mbtiauth_2565
812,"(225, 1359, 2, 381)",2,mbtiauth_2565
813,"(225, 1359, 246, 170)",2,mbtiauth_2565
814,"(225, 1359, 246, 381)",2,mbtiauth_2565
815,"(225, 1359, 381, 170)",2,mbtiauth_2565
816,"(246, 381, 170, 154)",2,mbtiauth_2565
817,"(280, 2, 246, 170)",2,mbtiauth_2565
818,"(280, 2, 246, 381)",2,mbtiauth_2565
819,"(280, 2, 381, 170)",2,mbtiauth_2565
820,"(280, 246, 381, 170)",2,mbtiauth_2565
821,"(280, 1359, 2, 170)",2,mbtiauth_2565
822,"(280, 1359, 2, 246)",2,mbtiauth_2565
823,"(280, 1359, 2, 381)",2,mbtiauth_2565
824,"(280, 1359, 246, 170)",2,mbtiauth_2565
825,"(280, 1359, 246, 381)",2,mbtiauth_2565
826,"(280, 1359, 381, 170)",2,mbtiauth_2565
827,"(1359, 2, 170, 154)",2,mbtiauth_2565
828,"(1359, 2, 246, 154)",2,mbtiauth_2565
829,"(1359, 2, 246, 170)",2,mbtiauth_2565
830,"(1359, 2, 246, 381)",2,mbtiauth_2565
831,"(1359, 2, 381, 154)",2,mbtiauth_2565
832,"(1359, 2, 381, 170)",2,mbtiauth_2565
833,"(1359, 246, 170, 154)",2,mbtiauth_2565
834,"(1359, 246, 381, 154)",2,mbtiauth_2565
835,"(1359, 246, 381, 170)",2,mbtiauth_2565
836,"(1359, 381, 170, 154)",2,mbtiauth_2565
837,"(2509, 3376, 637, 566)",2,mbtiauth_2565
838,"(2, 246, 381, 170, 154)",2,mbtiauth_2565
839,"(213, 2, 246, 381, 170)",2,mbtiauth_2565
840,"(213, 225, 2, 246, 170)",2,mbtiauth_2565
841,"(213, 225, 2, 246, 381)",2,mbtiauth_2565
842,"(213, 225, 2, 381, 170)",2,mbtiauth_2565
843,"(213, 225, 246, 381, 170)",2,mbtiauth_2565
844,"(213, 225, 280, 2, 170)",2,mbtiauth_2565
845,"(213, 225, 280, 2, 246)",2,mbtiauth_2565
846,"(213, 225, 280, 2, 381)",2,mbtiauth_2565
847,"(213, 225, 280, 246, 170)",2,mbtiauth_2565
848,"(213, 225, 280, 246, 381)",2,mbtiauth_2565
849,"(213, 225, 280, 381, 170)",2,mbtiauth_2565
850,"(213, 225, 280, 1359, 2)",2,mbtiauth_2565
851,"(213, 225, 280, 1359, 170)",2,mbtiauth_2565
852,"(213, 225, 280, 1359, 246)",2,mbtiauth_2565
853,"(213, 225, 280, 1359, 381)",2,mbtiauth_2565
854,"(213, 225, 1359, 2, 170)",2,mbtiauth_2565
855,"(213, 225, 1359, 2, 246)",2,mbtiauth_2565
856,"(213, 225, 1359, 2, 381)",2,mbtiauth_2565
857,"(213, 225, 1359, 246, 170)",2,mbtiauth_2565
858,"(213, 225, 1359, 246, 381)",2,mbtiauth_2565
859,"(213, 225, 1359, 381, 170)",2,mbtiauth_2565
860,"(213, 280, 2, 246, 170)",2,mbtiauth_2565
861,"(213, 280, 2, 246, 381)",2,mbtiauth_2565
862,"(213, 280, 2, 381, 170)",2,mbtiauth_2565
863,"(213, 280, 246, 381, 170)",2,mbtiauth_2565
864,"(213, 280, 1359, 2, 170)",2,mbtiauth_2565
865,"(213, 280, 1359, 2, 246)",2,mbtiauth_2565
866,"(213, 280, 1359, 2, 381)",2,mbtiauth_2565
867,"(213, 280, 1359, 246, 170)",2,mbtiauth_2565
868,"(213, 280, 1359, 246, 381)",2,mbtiauth_2565
869,"(213, 280, 1359, 381, 170)",2,mbtiauth_2565
870,"(213, 1359, 2, 246, 170)",2,mbtiauth_2565
871,"(213, 1359, 2, 246, 381)",2,mbtiauth_2565
872,"(213, 1359, 2, 381, 170)",2,mbtiauth_2565
873,"(213, 1359, 246, 381, 170)",2,mbtiauth_2565
874,"(225, 2, 246, 381, 170)",2,mbtiauth_2565
875,"(225, 280, 2, 246, 170)",2,mbtiauth_2565
876,"(225, 280, 2, 246, 381)",2,mbtiauth_2565
877,"(225, 280, 2, 381, 170)",2,mbtiauth_2565
878,"(225, 280, 246, 381, 170)",2,mbtiauth_2565
879,"(225, 280, 1359, 2, 170)",2,mbtiauth_2565
880,"(225, 280, 1359, 2, 246)",2,mbtiauth_2565
881,"(225, 280, 1359, 2, 381)",2,mbtiauth_2565
882,"(225, 280, 1359, 246, 170)",2,mbtiauth_2565
883,"(225, 280, 1359, 246, 381)",2,mbtiauth_2565
884,"(225, 280, 1359, 381, 170)",2,mbtiauth_2565
885,"(225, 1359, 2, 246, 170)",2,mbtiauth_2565
886,"(225, 1359, 2, 246, 381)",2,mbtiauth_2565
887,"(225, 1359, 2, 381, 170)",2,mbtiauth_2565
888,"(225, 1359, 246, 381, 170)",2,mbtiauth_2565
889,"(280, 2, 246, 381, 170)",2,mbtiauth_2565
890,"(280, 1359, 2, 246, 170)",2,mbtiauth_2565
891,"(280, 1359, 2, 246, 381)",2,mbtiauth_2565
892,"(280, 1359, 2, 381, 170)",2,mbtiauth_2565
893,"(280, 1359, 246, 381, 170)",2,mbtiauth_2565
894,"(1359, 2, 246, 170, 154)",2,mbtiauth_2565
895,"(1359, 2, 246, 381, 154)",2,mbtiauth_2565
896,"(1359, 2, 246, 381, 170)",2,mbtiauth_2565
897,"(1359, 2, 381, 170, 154)",2,mbtiauth_2565
898,"(1359, 246, 381, 170, 154)",2,mbtiauth_2565
899,"(213, 225, 2, 246, 381, 170)",2,mbtiauth_2565
900,"(213, 225, 280, 2, 246, 170)",2,mbtiauth_2565
901,"(213, 225, 280, 2, 246, 381)",2,mbtiauth_2565
902,"(213, 225, 280, 2, 381, 170)",2,mbtiauth_2565
903,"(213, 225, 280, 246, 381, 170)",2,mbtiauth_2565
904,"(213, 225, 280, 1359, 2, 170)",2,mbtiauth_2565
905,"(213, 225, 280, 1359, 2, 246)",2,mbtiauth_2565
906,"(213, 225, 280, 1359, 2, 381)",2,mbtiauth_2565
907,"(213, 225, 280, 1359, 246, 170)",2,mbtiauth_2565
908,"(213, 225, 280, 1359, 246, 381)",2,mbtiauth_2565
909,"(213, 225, 280, 1359, 381, 170)",2,mbtiauth_2565
910,"(213, 225, 1359, 2, 246, 170)",2,mbtiauth_2565
911,"(213, 225, 1359, 2, 246, 381)",2,mbtiauth_2565
912,"(213, 225, 1359, 2, 381, 170)",2,mbtiauth_2565
913,"(213, 225, 1359, 246, 381, 170)",2,mbtiauth_2565
914,"(213, 280, 2, 246, 381, 170)",2,mbtiauth_2565
915,"(213, 280, 1359, 2, 246, 170)",2,mbtiauth_2565
916,"(213, 280, 1359, 2, 246, 381)",2,mbtiauth_2565
917,"(213, 280, 1359, 2, 381, 170)",2,mbtiauth_2565
918,"(213, 280, 1359, 246, 381, 170)",2,mbtiauth_2565
919,"(213, 1359, 2, 246, 381, 170)",2,mbtiauth_2565
920,"(225, 280, 2, 246, 381, 170)",2,mbtiauth_2565
921,"(225, 280, 1359, 2, 246, 170)",2,mbtiauth_2565
922,"(225, 280, 1359, 2, 246, 381)",2,mbtiauth_2565
923,"(225, 280, 1359, 2, 381, 170)",2,mbtiauth_2565
924,"(225, 280, 1359, 246, 381, 170)",2,mbtiauth_2565
925,"(225, 1359, 2, 246, 381, 170)",2,mbtiauth_2565
926,"(280, 1359, 2, 246, 381, 170)",2,mbtiauth_2565
927,"(1359, 2, 246, 381, 170, 154)",2,mbtiauth_2565
928,"(213, 225, 280, 2, 246, 381, 170)",2,mbtiauth_2565
929,"(213, 225, 280, 1359, 2, 246, 170)",2,mbtiauth_2565
930,"(213, 225, 280, 1359, 2, 246, 381)",2,mbtiauth_2565
931,"(213, 225, 280, 1359, 2, 381, 170)",2,mbtiauth_2565
932,"(213, 225, 280, 1359, 246, 381, 170)",2,mbtiauth_2565
933,"(213, 225, 1359, 2, 246, 381, 170)",2,mbtiauth_2565
934,"(213, 280, 1359, 2, 246, 381, 170)",2,mbtiauth_2565
935,"(225, 280, 1359, 2, 246, 381, 170)",2,mbtiauth_2565
936,"(213, 225, 280, 1359, 2, 246, 381, 170)",2,mbtiauth_2565
