,pattern,sup,author
898,"(2, 32, 193)",2,mbtiauth_4264
899,"(2, 77, 599)",3,mbtiauth_4264
900,"(2, 77, 638)",2,mbtiauth_4264
901,"(2, 123, 22)",2,mbtiauth_4264
902,"(3, 254, 123)",2,mbtiauth_4264
903,"(22, 2, 222)",2,mbtiauth_4264
904,"(22, 11, 2)",2,mbtiauth_4264
905,"(22, 22, 22)",2,mbtiauth_4264
906,"(22, 22, 77)",2,mbtiauth_4264
907,"(22, 22, 170)",2,mbtiauth_4264
908,"(22, 22, 544)",2,mbtiauth_4264
909,"(22, 31, 65)",2,mbtiauth_4264
910,"(22, 32, 22)",3,mbtiauth_4264
911,"(22, 32, 31)",2,mbtiauth_4264
912,"(22, 32, 170)",3,mbtiauth_4264
913,"(22, 64, 170)",2,mbtiauth_4264
914,"(22, 64, 193)",2,mbtiauth_4264
915,"(22, 77, 2)",4,mbtiauth_4264
916,"(22, 77, 32)",2,mbtiauth_4264
917,"(22, 77, 123)",2,mbtiauth_4264
918,"(22, 77, 262)",2,mbtiauth_4264
919,"(22, 77, 356)",2,mbtiauth_4264
920,"(22, 123, 134)",2,mbtiauth_4264
921,"(22, 123, 356)",2,mbtiauth_4264
922,"(22, 132, 2813)",2,mbtiauth_4264
923,"(22, 139, 2)",2,mbtiauth_4264
924,"(22, 146, 123)",2,mbtiauth_4264
925,"(22, 170, 64)",2,mbtiauth_4264
926,"(22, 193, 170)",2,mbtiauth_4264
927,"(22, 349, 190)",2,mbtiauth_4264
928,"(22, 356, 2)",2,mbtiauth_4264
929,"(22, 1335, 32)",2,mbtiauth_4264
930,"(22, 10373, 5028)",2,mbtiauth_4264
931,"(32, 22, 77)",2,mbtiauth_4264
932,"(32, 22, 170)",2,mbtiauth_4264
933,"(32, 22, 193)",2,mbtiauth_4264
934,"(32, 22, 222)",2,mbtiauth_4264
935,"(32, 77, 193)",2,mbtiauth_4264
936,"(32, 77, 599)",3,mbtiauth_4264
937,"(32, 170, 77)",2,mbtiauth_4264
938,"(32, 170, 193)",2,mbtiauth_4264
939,"(32, 193, 170)",2,mbtiauth_4264
940,"(33, 77, 123)",2,mbtiauth_4264
941,"(33, 123, 123)",2,mbtiauth_4264
942,"(41, 64, 41)",2,mbtiauth_4264
943,"(41, 64, 64)",2,mbtiauth_4264
944,"(41, 64, 65)",3,mbtiauth_4264
945,"(41, 64, 193)",2,mbtiauth_4264
946,"(41, 64, 892)",2,mbtiauth_4264
947,"(41, 65, 77)",2,mbtiauth_4264
948,"(41, 65, 892)",2,mbtiauth_4264
949,"(41, 159, 29)",2,mbtiauth_4264
950,"(41, 286, 32)",2,mbtiauth_4264
951,"(41, 499, 64)",2,mbtiauth_4264
952,"(41, 499, 65)",2,mbtiauth_4264
953,"(41, 499, 892)",2,mbtiauth_4264
954,"(64, 41, 164)",2,mbtiauth_4264
955,"(64, 65, 64)",2,mbtiauth_4264
956,"(64, 65, 892)",2,mbtiauth_4264
957,"(64, 67, 10)",2,mbtiauth_4264
958,"(64, 77, 144)",2,mbtiauth_4264
959,"(64, 144, 1062)",2,mbtiauth_4264
960,"(64, 170, 64)",2,mbtiauth_4264
961,"(64, 1442, 225)",2,mbtiauth_4264
962,"(65, 77, 123)",2,mbtiauth_4264
963,"(65, 77, 599)",2,mbtiauth_4264
964,"(65, 123, 356)",3,mbtiauth_4264
965,"(65, 154, 165)",2,mbtiauth_4264
966,"(65, 356, 65)",2,mbtiauth_4264
967,"(65, 401, 64)",2,mbtiauth_4264
968,"(65, 401, 77)",2,mbtiauth_4264
969,"(65, 599, 123)",2,mbtiauth_4264
970,"(65, 1331, 32)",2,mbtiauth_4264
971,"(65, 1700, 123)",2,mbtiauth_4264
972,"(65, 1700, 356)",2,mbtiauth_4264
973,"(65, 28422, 200)",2,mbtiauth_4264
974,"(77, 2, 123)",2,mbtiauth_4264
975,"(77, 22, 32)",2,mbtiauth_4264
976,"(77, 64, 77)",2,mbtiauth_4264
977,"(77, 64, 144)",2,mbtiauth_4264
978,"(77, 64, 340)",2,mbtiauth_4264
979,"(77, 77, 144)",2,mbtiauth_4264
980,"(77, 123, 22)",4,mbtiauth_4264
981,"(77, 123, 64)",2,mbtiauth_4264
982,"(77, 123, 123)",2,mbtiauth_4264
983,"(77, 123, 193)",2,mbtiauth_4264
984,"(77, 123, 286)",4,mbtiauth_4264
985,"(77, 123, 356)",2,mbtiauth_4264
986,"(77, 123, 648)",2,mbtiauth_4264
987,"(77, 165, 67)",2,mbtiauth_4264
988,"(77, 170, 326)",2,mbtiauth_4264
989,"(77, 226, 22)",2,mbtiauth_4264
990,"(77, 356, 2)",2,mbtiauth_4264
991,"(77, 599, 22)",2,mbtiauth_4264
992,"(77, 599, 64)",2,mbtiauth_4264
993,"(77, 599, 65)",3,mbtiauth_4264
994,"(77, 599, 123)",3,mbtiauth_4264
995,"(77, 599, 193)",2,mbtiauth_4264
996,"(77, 599, 286)",2,mbtiauth_4264
997,"(77, 599, 356)",3,mbtiauth_4264
998,"(77, 648, 22)",2,mbtiauth_4264
999,"(77, 2643, 22)",2,mbtiauth_4264
1000,"(78, 123, 120)",2,mbtiauth_4264
1001,"(117, 124, 65)",2,mbtiauth_4264
1002,"(120, 322, 749)",2,mbtiauth_4264
1003,"(120, 356, 154)",2,mbtiauth_4264
1004,"(123, 2, 32)",2,mbtiauth_4264
1005,"(123, 2, 77)",2,mbtiauth_4264
1006,"(123, 3, 123)",2,mbtiauth_4264
1007,"(123, 3, 254)",2,mbtiauth_4264
1008,"(123, 22, 2)",2,mbtiauth_4264
1009,"(123, 22, 10)",2,mbtiauth_4264
1010,"(123, 22, 22)",2,mbtiauth_4264
1011,"(123, 22, 31)",2,mbtiauth_4264
1012,"(123, 22, 64)",2,mbtiauth_4264
1013,"(123, 22, 77)",2,mbtiauth_4264
1014,"(123, 22, 123)",3,mbtiauth_4264
1015,"(123, 22, 132)",2,mbtiauth_4264
1016,"(123, 22, 139)",2,mbtiauth_4264
1017,"(123, 22, 146)",2,mbtiauth_4264
1018,"(123, 22, 193)",2,mbtiauth_4264
1019,"(123, 22, 2813)",2,mbtiauth_4264
1020,"(123, 22, 5028)",2,mbtiauth_4264
1021,"(123, 22, 10373)",2,mbtiauth_4264
1022,"(123, 32, 22)",2,mbtiauth_4264
1023,"(123, 32, 77)",2,mbtiauth_4264
1024,"(123, 32, 193)",2,mbtiauth_4264
1025,"(123, 50, 33)",2,mbtiauth_4264
1026,"(123, 50, 123)",2,mbtiauth_4264
1027,"(123, 64, 22)",2,mbtiauth_4264
1028,"(123, 64, 41)",2,mbtiauth_4264
1029,"(123, 64, 144)",2,mbtiauth_4264
1030,"(123, 64, 225)",3,mbtiauth_4264
1031,"(123, 64, 765)",2,mbtiauth_4264
1032,"(123, 64, 1442)",2,mbtiauth_4264
1033,"(123, 65, 32)",2,mbtiauth_4264
1034,"(123, 65, 65)",2,mbtiauth_4264
1035,"(123, 65, 77)",2,mbtiauth_4264
1036,"(123, 65, 1331)",2,mbtiauth_4264
1037,"(123, 65, 28422)",2,mbtiauth_4264
1038,"(123, 77, 123)",2,mbtiauth_4264
1039,"(123, 120, 22)",2,mbtiauth_4264
1040,"(123, 120, 154)",3,mbtiauth_4264
1041,"(123, 120, 286)",3,mbtiauth_4264
1042,"(123, 120, 322)",2,mbtiauth_4264
1043,"(123, 120, 441)",2,mbtiauth_4264
1044,"(123, 120, 443)",2,mbtiauth_4264
1045,"(123, 120, 548)",2,mbtiauth_4264
1046,"(123, 120, 749)",2,mbtiauth_4264
1047,"(123, 123, 3)",2,mbtiauth_4264
1048,"(123, 123, 123)",2,mbtiauth_4264
1049,"(123, 123, 151)",2,mbtiauth_4264
1050,"(123, 123, 174)",2,mbtiauth_4264
1051,"(123, 123, 206)",2,mbtiauth_4264
1052,"(123, 123, 441)",2,mbtiauth_4264
1053,"(123, 123, 2530)",2,mbtiauth_4264
1054,"(123, 134, 2)",2,mbtiauth_4264
1055,"(123, 146, 123)",2,mbtiauth_4264
1056,"(123, 154, 22)",2,mbtiauth_4264
1057,"(123, 165, 67)",2,mbtiauth_4264
1058,"(123, 165, 165)",2,mbtiauth_4264
1059,"(123, 165, 286)",3,mbtiauth_4264
1060,"(123, 174, 151)",2,mbtiauth_4264
1061,"(123, 174, 526)",2,mbtiauth_4264
1062,"(123, 176, 1364)",3,mbtiauth_4264
1063,"(123, 193, 22)",2,mbtiauth_4264
1064,"(123, 193, 170)",2,mbtiauth_4264
1065,"(123, 193, 193)",2,mbtiauth_4264
1066,"(123, 206, 22)",2,mbtiauth_4264
1067,"(123, 206, 64)",2,mbtiauth_4264
1068,"(123, 206, 77)",2,mbtiauth_4264
1069,"(123, 206, 123)",3,mbtiauth_4264
1070,"(123, 206, 146)",2,mbtiauth_4264
1071,"(123, 206, 206)",3,mbtiauth_4264
1072,"(123, 206, 291)",2,mbtiauth_4264
1073,"(123, 206, 651)",2,mbtiauth_4264
1074,"(123, 206, 8969)",2,mbtiauth_4264
1075,"(123, 236, 225)",3,mbtiauth_4264
1076,"(123, 254, 123)",3,mbtiauth_4264
1077,"(123, 260, 22)",2,mbtiauth_4264
1078,"(123, 260, 32)",2,mbtiauth_4264
1079,"(123, 260, 659)",2,mbtiauth_4264
1080,"(123, 260, 664)",2,mbtiauth_4264
1081,"(123, 285, 22)",2,mbtiauth_4264
1082,"(123, 286, 22)",4,mbtiauth_4264
1083,"(123, 286, 31)",2,mbtiauth_4264
1084,"(123, 286, 32)",2,mbtiauth_4264
1085,"(123, 286, 64)",2,mbtiauth_4264
1086,"(123, 286, 67)",2,mbtiauth_4264
1087,"(123, 286, 123)",3,mbtiauth_4264
1088,"(123, 286, 132)",2,mbtiauth_4264
1089,"(123, 286, 151)",2,mbtiauth_4264
1090,"(123, 286, 154)",3,mbtiauth_4264
1091,"(123, 286, 165)",3,mbtiauth_4264
1092,"(123, 286, 170)",3,mbtiauth_4264
1093,"(123, 286, 174)",2,mbtiauth_4264
1094,"(123, 286, 183)",2,mbtiauth_4264
1095,"(123, 286, 193)",2,mbtiauth_4264
1096,"(123, 286, 225)",2,mbtiauth_4264
1097,"(123, 286, 254)",2,mbtiauth_4264
1098,"(123, 286, 326)",2,mbtiauth_4264
1099,"(123, 286, 364)",2,mbtiauth_4264
1100,"(123, 286, 526)",2,mbtiauth_4264
1101,"(123, 286, 2530)",2,mbtiauth_4264
1102,"(123, 291, 22)",2,mbtiauth_4264
1103,"(123, 291, 123)",2,mbtiauth_4264
1104,"(123, 291, 146)",2,mbtiauth_4264
1105,"(123, 322, 749)",2,mbtiauth_4264
1106,"(123, 326, 11)",2,mbtiauth_4264
1107,"(123, 340, 170)",2,mbtiauth_4264
1108,"(123, 356, 22)",2,mbtiauth_4264
1109,"(123, 356, 32)",2,mbtiauth_4264
1110,"(123, 356, 64)",2,mbtiauth_4264
1111,"(123, 356, 65)",3,mbtiauth_4264
1112,"(123, 356, 5028)",2,mbtiauth_4264
1113,"(123, 356, 10373)",2,mbtiauth_4264
1114,"(123, 526, 524)",2,mbtiauth_4264
1115,"(123, 538, 22)",2,mbtiauth_4264
1116,"(123, 538, 77)",2,mbtiauth_4264
1117,"(123, 599, 123)",2,mbtiauth_4264
1118,"(123, 648, 22)",2,mbtiauth_4264
1119,"(123, 648, 154)",2,mbtiauth_4264
1120,"(123, 651, 64)",2,mbtiauth_4264
1121,"(123, 659, 664)",2,mbtiauth_4264
1122,"(123, 1331, 32)",2,mbtiauth_4264
1123,"(123, 1442, 225)",2,mbtiauth_4264
1124,"(123, 10373, 5028)",2,mbtiauth_4264
1125,"(134, 77, 599)",2,mbtiauth_4264
1126,"(144, 41, 64)",2,mbtiauth_4264
1127,"(144, 41, 65)",2,mbtiauth_4264
1128,"(144, 41, 2058)",2,mbtiauth_4264
1129,"(144, 64, 65)",2,mbtiauth_4264
1130,"(145, 213, 77)",2,mbtiauth_4264
1131,"(154, 22, 309)",2,mbtiauth_4264
1132,"(156, 165, 67)",2,mbtiauth_4264
1133,"(159, 29, 317)",2,mbtiauth_4264
1134,"(165, 67, 31)",2,mbtiauth_4264
1135,"(165, 165, 67)",2,mbtiauth_4264
1136,"(165, 286, 67)",2,mbtiauth_4264
1137,"(165, 286, 165)",2,mbtiauth_4264
1138,"(165, 686, 31)",2,mbtiauth_4264
1139,"(170, 22, 32)",2,mbtiauth_4264
1140,"(170, 77, 599)",2,mbtiauth_4264
1141,"(183, 41, 64)",2,mbtiauth_4264
1142,"(183, 201, 175)",2,mbtiauth_4264
1143,"(193, 170, 193)",2,mbtiauth_4264
1144,"(196, 77, 599)",2,mbtiauth_4264
1145,"(200, 123, 64)",2,mbtiauth_4264
1146,"(206, 22, 190)",2,mbtiauth_4264
1147,"(206, 22, 349)",2,mbtiauth_4264
1148,"(206, 22, 638)",2,mbtiauth_4264
1149,"(206, 349, 190)",2,mbtiauth_4264
1150,"(206, 651, 64)",2,mbtiauth_4264
1151,"(222, 77, 599)",2,mbtiauth_4264
1152,"(236, 41, 32)",2,mbtiauth_4264
1153,"(236, 41, 41)",2,mbtiauth_4264
1154,"(236, 41, 286)",2,mbtiauth_4264
1155,"(236, 225, 32)",2,mbtiauth_4264
1156,"(236, 286, 32)",2,mbtiauth_4264
1157,"(254, 123, 146)",2,mbtiauth_4264
1158,"(259, 32, 170)",2,mbtiauth_4264
1159,"(259, 32, 193)",2,mbtiauth_4264
1160,"(259, 193, 170)",2,mbtiauth_4264
1161,"(260, 22, 77)",2,mbtiauth_4264
1162,"(260, 599, 64)",2,mbtiauth_4264
1163,"(260, 659, 77)",2,mbtiauth_4264
1164,"(260, 659, 664)",2,mbtiauth_4264
1165,"(260, 664, 77)",2,mbtiauth_4264
1166,"(262, 77, 123)",2,mbtiauth_4264
1167,"(262, 77, 286)",2,mbtiauth_4264
1168,"(262, 123, 286)",2,mbtiauth_4264
1169,"(262, 165, 67)",2,mbtiauth_4264
1170,"(280, 2346, 32)",2,mbtiauth_4264
1171,"(286, 22, 64)",2,mbtiauth_4264
1172,"(286, 22, 132)",2,mbtiauth_4264
1173,"(286, 22, 544)",2,mbtiauth_4264
1174,"(286, 67, 31)",2,mbtiauth_4264
1175,"(286, 123, 151)",2,mbtiauth_4264
1176,"(286, 123, 174)",2,mbtiauth_4264
1177,"(286, 123, 2530)",2,mbtiauth_4264
1178,"(286, 165, 31)",2,mbtiauth_4264
1179,"(286, 165, 67)",2,mbtiauth_4264
1180,"(286, 174, 151)",2,mbtiauth_4264
1181,"(286, 225, 32)",2,mbtiauth_4264
1182,"(286, 326, 11)",2,mbtiauth_4264
1183,"(291, 22, 123)",2,mbtiauth_4264
1184,"(291, 22, 146)",2,mbtiauth_4264
1185,"(291, 146, 123)",2,mbtiauth_4264
1186,"(318, 77, 599)",2,mbtiauth_4264
1187,"(349, 441, 567)",2,mbtiauth_4264
1188,"(356, 22, 5028)",2,mbtiauth_4264
1189,"(356, 22, 10373)",2,mbtiauth_4264
1190,"(356, 64, 599)",2,mbtiauth_4264
1191,"(356, 77, 599)",2,mbtiauth_4264
1192,"(356, 10373, 5028)",2,mbtiauth_4264
1193,"(364, 41, 154)",2,mbtiauth_4264
1194,"(364, 63, 154)",2,mbtiauth_4264
1195,"(364, 2910, 291)",2,mbtiauth_4264
1196,"(401, 64, 77)",2,mbtiauth_4264
1197,"(499, 64, 65)",2,mbtiauth_4264
1198,"(499, 64, 892)",2,mbtiauth_4264
1199,"(499, 65, 892)",2,mbtiauth_4264
1200,"(520, 123, 66)",2,mbtiauth_4264
1201,"(538, 22, 77)",2,mbtiauth_4264
1202,"(538, 77, 77)",2,mbtiauth_4264
1203,"(538, 77, 123)",2,mbtiauth_4264
1204,"(566, 64, 752)",2,mbtiauth_4264
1205,"(566, 77, 599)",2,mbtiauth_4264
1206,"(566, 638, 64)",2,mbtiauth_4264
1207,"(566, 638, 752)",2,mbtiauth_4264
1208,"(599, 65, 164)",2,mbtiauth_4264
1209,"(599, 123, 22)",2,mbtiauth_4264
1210,"(599, 123, 286)",2,mbtiauth_4264
1211,"(638, 2, 123)",2,mbtiauth_4264
1212,"(638, 64, 752)",2,mbtiauth_4264
1213,"(638, 77, 2)",2,mbtiauth_4264
1214,"(638, 77, 123)",2,mbtiauth_4264
1215,"(642, 77, 123)",2,mbtiauth_4264
1216,"(659, 664, 77)",2,mbtiauth_4264
1217,"(889, 22, 222)",2,mbtiauth_4264
1218,"(889, 32, 22)",2,mbtiauth_4264
1219,"(889, 32, 222)",2,mbtiauth_4264
1220,"(1700, 123, 356)",2,mbtiauth_4264
1221,"(3962, 170, 22)",2,mbtiauth_4264
1222,"(28422, 65, 1331)",2,mbtiauth_4264
1223,"(22, 77, 356, 2)",2,mbtiauth_4264
1224,"(41, 64, 65, 892)",2,mbtiauth_4264
1225,"(41, 499, 64, 65)",2,mbtiauth_4264
1226,"(41, 499, 64, 892)",2,mbtiauth_4264
1227,"(41, 499, 65, 892)",2,mbtiauth_4264
1228,"(65, 77, 599, 123)",2,mbtiauth_4264
1229,"(65, 1700, 123, 356)",2,mbtiauth_4264
1230,"(77, 64, 77, 144)",2,mbtiauth_4264
1231,"(77, 123, 648, 22)",2,mbtiauth_4264
1232,"(77, 599, 123, 22)",2,mbtiauth_4264
1233,"(77, 599, 123, 286)",2,mbtiauth_4264
1234,"(123, 3, 254, 123)",2,mbtiauth_4264
1235,"(123, 22, 146, 123)",2,mbtiauth_4264
1236,"(123, 22, 10373, 5028)",2,mbtiauth_4264
1237,"(123, 64, 1442, 225)",2,mbtiauth_4264
1238,"(123, 65, 1331, 32)",2,mbtiauth_4264
1239,"(123, 120, 322, 749)",2,mbtiauth_4264
1240,"(123, 123, 174, 151)",2,mbtiauth_4264
1241,"(123, 165, 165, 67)",2,mbtiauth_4264
1242,"(123, 165, 286, 67)",2,mbtiauth_4264
1243,"(123, 165, 286, 165)",2,mbtiauth_4264
1244,"(123, 206, 651, 64)",2,mbtiauth_4264
1245,"(123, 260, 659, 664)",2,mbtiauth_4264
1246,"(123, 286, 22, 64)",2,mbtiauth_4264
1247,"(123, 286, 22, 132)",2,mbtiauth_4264
1248,"(123, 286, 123, 151)",2,mbtiauth_4264
1249,"(123, 286, 123, 174)",2,mbtiauth_4264
1250,"(123, 286, 123, 2530)",2,mbtiauth_4264
1251,"(123, 286, 165, 67)",2,mbtiauth_4264
1252,"(123, 286, 174, 151)",2,mbtiauth_4264
1253,"(123, 291, 22, 123)",2,mbtiauth_4264
1254,"(123, 291, 22, 146)",2,mbtiauth_4264
1255,"(123, 291, 146, 123)",2,mbtiauth_4264
1256,"(123, 356, 22, 5028)",2,mbtiauth_4264
1257,"(123, 356, 22, 10373)",2,mbtiauth_4264
1258,"(123, 356, 10373, 5028)",2,mbtiauth_4264
1259,"(144, 41, 64, 65)",2,mbtiauth_4264
1260,"(165, 286, 165, 67)",2,mbtiauth_4264
1261,"(206, 22, 349, 190)",2,mbtiauth_4264
1262,"(236, 41, 286, 32)",2,mbtiauth_4264
1263,"(259, 32, 193, 170)",2,mbtiauth_4264
1264,"(260, 659, 664, 77)",2,mbtiauth_4264
1265,"(262, 77, 123, 286)",2,mbtiauth_4264
1266,"(286, 123, 174, 151)",2,mbtiauth_4264
1267,"(286, 165, 67, 31)",2,mbtiauth_4264
1268,"(291, 22, 146, 123)",2,mbtiauth_4264
1269,"(356, 22, 10373, 5028)",2,mbtiauth_4264
1270,"(499, 64, 65, 892)",2,mbtiauth_4264
1271,"(566, 638, 64, 752)",2,mbtiauth_4264
1272,"(638, 77, 2, 123)",2,mbtiauth_4264
1273,"(889, 32, 22, 222)",2,mbtiauth_4264
1274,"(41, 499, 64, 65, 892)",2,mbtiauth_4264
1275,"(123, 165, 286, 165, 67)",2,mbtiauth_4264
1276,"(123, 286, 123, 174, 151)",2,mbtiauth_4264
1277,"(123, 291, 22, 146, 123)",2,mbtiauth_4264
1278,"(123, 356, 22, 10373, 5028)",2,mbtiauth_4264
