,pattern,sup,author
613,"(2, 64, 222)",2,mbtiauth_800
614,"(2, 77, 154)",2,mbtiauth_800
615,"(2, 77, 599)",2,mbtiauth_800
616,"(2, 123, 22)",2,mbtiauth_800
617,"(2, 656, 64)",2,mbtiauth_800
618,"(16, 77, 599)",2,mbtiauth_800
619,"(22, 22, 239)",2,mbtiauth_800
620,"(22, 22, 3092)",2,mbtiauth_800
621,"(22, 32, 2)",2,mbtiauth_800
622,"(22, 32, 22)",4,mbtiauth_800
623,"(22, 32, 183)",2,mbtiauth_800
624,"(22, 32, 239)",2,mbtiauth_800
625,"(22, 32, 3092)",2,mbtiauth_800
626,"(22, 76, 77)",2,mbtiauth_800
627,"(22, 77, 65)",2,mbtiauth_800
628,"(22, 77, 123)",2,mbtiauth_800
629,"(22, 77, 212)",2,mbtiauth_800
630,"(22, 77, 364)",2,mbtiauth_800
631,"(22, 77, 520)",2,mbtiauth_800
632,"(22, 77, 599)",3,mbtiauth_800
633,"(22, 123, 22)",3,mbtiauth_800
634,"(22, 123, 64)",2,mbtiauth_800
635,"(22, 123, 407)",2,mbtiauth_800
636,"(22, 123, 441)",2,mbtiauth_800
637,"(22, 157, 22)",2,mbtiauth_800
638,"(22, 157, 32)",2,mbtiauth_800
639,"(22, 157, 239)",2,mbtiauth_800
640,"(22, 157, 3092)",2,mbtiauth_800
641,"(22, 239, 3092)",2,mbtiauth_800
642,"(22, 441, 22)",2,mbtiauth_800
643,"(22, 520, 123)",2,mbtiauth_800
644,"(22, 599, 65)",2,mbtiauth_800
645,"(31, 22, 77)",2,mbtiauth_800
646,"(31, 22, 599)",2,mbtiauth_800
647,"(31, 77, 599)",2,mbtiauth_800
648,"(31, 123, 22)",2,mbtiauth_800
649,"(31, 123, 77)",2,mbtiauth_800
650,"(31, 123, 599)",2,mbtiauth_800
651,"(31, 8514, 123)",2,mbtiauth_800
652,"(32, 22, 32)",2,mbtiauth_800
653,"(32, 22, 64)",2,mbtiauth_800
654,"(32, 22, 123)",4,mbtiauth_800
655,"(32, 22, 183)",2,mbtiauth_800
656,"(32, 22, 239)",2,mbtiauth_800
657,"(32, 22, 3092)",2,mbtiauth_800
658,"(32, 77, 66)",2,mbtiauth_800
659,"(32, 77, 123)",2,mbtiauth_800
660,"(32, 77, 520)",2,mbtiauth_800
661,"(32, 123, 64)",2,mbtiauth_800
662,"(32, 225, 64)",2,mbtiauth_800
663,"(32, 239, 3092)",2,mbtiauth_800
664,"(32, 520, 123)",2,mbtiauth_800
665,"(32, 749, 123)",2,mbtiauth_800
666,"(39, 16, 77)",2,mbtiauth_800
667,"(50, 77, 123)",2,mbtiauth_800
668,"(50, 77, 520)",2,mbtiauth_800
669,"(50, 170, 164)",2,mbtiauth_800
670,"(50, 207, 16)",2,mbtiauth_800
671,"(50, 520, 123)",2,mbtiauth_800
672,"(64, 22, 77)",2,mbtiauth_800
673,"(64, 65, 77)",3,mbtiauth_800
674,"(64, 65, 401)",2,mbtiauth_800
675,"(64, 77, 77)",3,mbtiauth_800
676,"(64, 77, 123)",2,mbtiauth_800
677,"(64, 77, 520)",2,mbtiauth_800
678,"(64, 117, 66)",2,mbtiauth_800
679,"(64, 154, 77)",2,mbtiauth_800
680,"(64, 238, 64)",2,mbtiauth_800
681,"(64, 238, 77)",2,mbtiauth_800
682,"(64, 520, 123)",2,mbtiauth_800
683,"(65, 32, 16)",2,mbtiauth_800
684,"(65, 32, 22)",2,mbtiauth_800
685,"(65, 32, 123)",2,mbtiauth_800
686,"(65, 32, 749)",2,mbtiauth_800
687,"(65, 33, 50)",2,mbtiauth_800
688,"(65, 64, 238)",2,mbtiauth_800
689,"(65, 65, 2)",2,mbtiauth_800
690,"(65, 77, 16)",2,mbtiauth_800
691,"(65, 77, 65)",3,mbtiauth_800
692,"(65, 77, 77)",3,mbtiauth_800
693,"(65, 77, 123)",3,mbtiauth_800
694,"(65, 77, 520)",2,mbtiauth_800
695,"(65, 520, 123)",2,mbtiauth_800
696,"(65, 749, 123)",2,mbtiauth_800
697,"(65, 2630, 77)",2,mbtiauth_800
698,"(70, 1413, 22)",2,mbtiauth_800
699,"(77, 27, 225)",2,mbtiauth_800
700,"(77, 64, 65)",2,mbtiauth_800
701,"(77, 64, 77)",2,mbtiauth_800
702,"(77, 65, 32)",2,mbtiauth_800
703,"(77, 65, 65)",2,mbtiauth_800
704,"(77, 65, 77)",3,mbtiauth_800
705,"(77, 65, 603)",2,mbtiauth_800
706,"(77, 77, 50)",2,mbtiauth_800
707,"(77, 77, 65)",3,mbtiauth_800
708,"(77, 77, 77)",7,mbtiauth_800
709,"(77, 77, 123)",2,mbtiauth_800
710,"(77, 77, 2051)",2,mbtiauth_800
711,"(77, 77, 2993)",2,mbtiauth_800
712,"(77, 77, 4087)",3,mbtiauth_800
713,"(77, 77, 6063)",2,mbtiauth_800
714,"(77, 123, 22)",2,mbtiauth_800
715,"(77, 123, 27)",2,mbtiauth_800
716,"(77, 123, 64)",3,mbtiauth_800
717,"(77, 123, 77)",2,mbtiauth_800
718,"(77, 123, 193)",2,mbtiauth_800
719,"(77, 123, 210)",2,mbtiauth_800
720,"(77, 123, 225)",2,mbtiauth_800
721,"(77, 154, 1205)",2,mbtiauth_800
722,"(77, 520, 64)",2,mbtiauth_800
723,"(77, 520, 123)",5,mbtiauth_800
724,"(77, 520, 193)",2,mbtiauth_800
725,"(77, 599, 32)",3,mbtiauth_800
726,"(77, 599, 65)",3,mbtiauth_800
727,"(77, 599, 154)",2,mbtiauth_800
728,"(77, 599, 356)",2,mbtiauth_800
729,"(77, 4087, 77)",3,mbtiauth_800
730,"(77, 6063, 2051)",2,mbtiauth_800
731,"(123, 2, 123)",2,mbtiauth_800
732,"(123, 10, 2)",2,mbtiauth_800
733,"(123, 22, 2)",2,mbtiauth_800
734,"(123, 22, 31)",2,mbtiauth_800
735,"(123, 22, 32)",2,mbtiauth_800
736,"(123, 22, 77)",2,mbtiauth_800
737,"(123, 22, 157)",2,mbtiauth_800
738,"(123, 22, 599)",2,mbtiauth_800
739,"(123, 27, 225)",2,mbtiauth_800
740,"(123, 64, 22)",5,mbtiauth_800
741,"(123, 64, 78)",2,mbtiauth_800
742,"(123, 64, 164)",2,mbtiauth_800
743,"(123, 64, 752)",2,mbtiauth_800
744,"(123, 64, 835)",2,mbtiauth_800
745,"(123, 65, 16)",2,mbtiauth_800
746,"(123, 65, 32)",4,mbtiauth_800
747,"(123, 65, 77)",2,mbtiauth_800
748,"(123, 67, 64)",2,mbtiauth_800
749,"(123, 77, 65)",2,mbtiauth_800
750,"(123, 77, 77)",2,mbtiauth_800
751,"(123, 77, 123)",2,mbtiauth_800
752,"(123, 77, 599)",3,mbtiauth_800
753,"(123, 78, 32)",2,mbtiauth_800
754,"(123, 160, 64)",2,mbtiauth_800
755,"(123, 164, 65)",2,mbtiauth_800
756,"(123, 193, 50)",2,mbtiauth_800
757,"(123, 193, 66)",2,mbtiauth_800
758,"(123, 198, 32)",2,mbtiauth_800
759,"(123, 198, 749)",2,mbtiauth_800
760,"(123, 210, 356)",2,mbtiauth_800
761,"(123, 210, 765)",3,mbtiauth_800
762,"(123, 220, 22)",2,mbtiauth_800
763,"(123, 225, 2)",2,mbtiauth_800
764,"(123, 262, 32)",2,mbtiauth_800
765,"(123, 262, 65)",2,mbtiauth_800
766,"(123, 262, 170)",2,mbtiauth_800
767,"(123, 286, 22)",2,mbtiauth_800
768,"(123, 286, 32)",2,mbtiauth_800
769,"(123, 286, 170)",2,mbtiauth_800
770,"(123, 286, 262)",2,mbtiauth_800
771,"(123, 407, 3)",2,mbtiauth_800
772,"(123, 407, 22)",2,mbtiauth_800
773,"(123, 407, 77)",2,mbtiauth_800
774,"(123, 441, 22)",3,mbtiauth_800
775,"(123, 477, 123)",2,mbtiauth_800
776,"(123, 483, 2)",2,mbtiauth_800
777,"(123, 483, 134)",2,mbtiauth_800
778,"(123, 1313, 64)",3,mbtiauth_800
779,"(123, 1364, 154)",2,mbtiauth_800
780,"(123, 1433, 708)",2,mbtiauth_800
781,"(123, 1913, 225)",2,mbtiauth_800
782,"(123, 1913, 1998)",2,mbtiauth_800
783,"(123, 1998, 225)",2,mbtiauth_800
784,"(154, 77, 123)",2,mbtiauth_800
785,"(157, 22, 239)",2,mbtiauth_800
786,"(157, 22, 3092)",2,mbtiauth_800
787,"(157, 32, 22)",2,mbtiauth_800
788,"(157, 32, 239)",2,mbtiauth_800
789,"(157, 32, 3092)",2,mbtiauth_800
790,"(157, 239, 3092)",2,mbtiauth_800
791,"(164, 65, 77)",3,mbtiauth_800
792,"(164, 77, 123)",2,mbtiauth_800
793,"(170, 22, 77)",2,mbtiauth_800
794,"(170, 64, 238)",2,mbtiauth_800
795,"(170, 77, 123)",2,mbtiauth_800
796,"(170, 77, 520)",2,mbtiauth_800
797,"(170, 164, 123)",2,mbtiauth_800
798,"(170, 520, 123)",2,mbtiauth_800
799,"(193, 50, 2)",2,mbtiauth_800
800,"(193, 77, 599)",3,mbtiauth_800
801,"(193, 349, 165)",2,mbtiauth_800
802,"(220, 22, 32)",2,mbtiauth_800
803,"(220, 32, 22)",2,mbtiauth_800
804,"(225, 256, 50)",2,mbtiauth_800
805,"(254, 123, 77)",2,mbtiauth_800
806,"(262, 65, 32)",2,mbtiauth_800
807,"(286, 22, 32)",2,mbtiauth_800
808,"(286, 22, 183)",2,mbtiauth_800
809,"(286, 32, 22)",2,mbtiauth_800
810,"(286, 32, 183)",2,mbtiauth_800
811,"(286, 262, 170)",2,mbtiauth_800
812,"(322, 77, 599)",2,mbtiauth_800
813,"(364, 32, 77)",2,mbtiauth_800
814,"(364, 65, 77)",2,mbtiauth_800
815,"(364, 77, 599)",2,mbtiauth_800
816,"(520, 123, 64)",2,mbtiauth_800
817,"(520, 123, 193)",2,mbtiauth_800
818,"(599, 65, 32)",2,mbtiauth_800
819,"(599, 123, 225)",2,mbtiauth_800
820,"(1177, 531, 226)",2,mbtiauth_800
821,"(1913, 1998, 225)",2,mbtiauth_800
822,"(2630, 77, 77)",2,mbtiauth_800
823,"(9691, 123, 64)",2,mbtiauth_800
824,"(22, 22, 239, 3092)",2,mbtiauth_800
825,"(22, 32, 22, 239)",2,mbtiauth_800
826,"(22, 32, 22, 3092)",2,mbtiauth_800
827,"(22, 32, 239, 3092)",2,mbtiauth_800
828,"(22, 77, 520, 123)",2,mbtiauth_800
829,"(22, 77, 599, 65)",2,mbtiauth_800
830,"(22, 157, 22, 239)",2,mbtiauth_800
831,"(22, 157, 22, 3092)",2,mbtiauth_800
832,"(22, 157, 32, 22)",2,mbtiauth_800
833,"(22, 157, 32, 239)",2,mbtiauth_800
834,"(22, 157, 32, 3092)",2,mbtiauth_800
835,"(22, 157, 239, 3092)",2,mbtiauth_800
836,"(31, 22, 77, 599)",2,mbtiauth_800
837,"(31, 123, 22, 77)",2,mbtiauth_800
838,"(31, 123, 22, 599)",2,mbtiauth_800
839,"(31, 123, 77, 599)",2,mbtiauth_800
840,"(32, 22, 123, 64)",2,mbtiauth_800
841,"(32, 22, 239, 3092)",2,mbtiauth_800
842,"(32, 77, 520, 123)",2,mbtiauth_800
843,"(50, 77, 520, 123)",2,mbtiauth_800
844,"(64, 77, 520, 123)",2,mbtiauth_800
845,"(65, 32, 749, 123)",2,mbtiauth_800
846,"(65, 77, 520, 123)",2,mbtiauth_800
847,"(65, 2630, 77, 77)",2,mbtiauth_800
848,"(77, 64, 65, 77)",2,mbtiauth_800
849,"(77, 77, 77, 77)",4,mbtiauth_800
850,"(77, 77, 77, 2051)",2,mbtiauth_800
851,"(77, 77, 77, 4087)",3,mbtiauth_800
852,"(77, 77, 77, 6063)",2,mbtiauth_800
853,"(77, 77, 4087, 77)",3,mbtiauth_800
854,"(77, 77, 6063, 2051)",2,mbtiauth_800
855,"(77, 123, 27, 225)",2,mbtiauth_800
856,"(77, 520, 123, 64)",2,mbtiauth_800
857,"(77, 520, 123, 193)",2,mbtiauth_800
858,"(77, 599, 65, 32)",2,mbtiauth_800
859,"(123, 22, 77, 599)",2,mbtiauth_800
860,"(123, 262, 65, 32)",2,mbtiauth_800
861,"(123, 286, 262, 170)",2,mbtiauth_800
862,"(123, 1913, 1998, 225)",2,mbtiauth_800
863,"(157, 22, 239, 3092)",2,mbtiauth_800
864,"(157, 32, 22, 239)",2,mbtiauth_800
865,"(157, 32, 22, 3092)",2,mbtiauth_800
866,"(157, 32, 239, 3092)",2,mbtiauth_800
867,"(170, 77, 520, 123)",2,mbtiauth_800
868,"(286, 22, 32, 183)",2,mbtiauth_800
869,"(286, 32, 22, 183)",2,mbtiauth_800
870,"(2630, 77, 77, 77)",2,mbtiauth_800
871,"(22, 32, 22, 239, 3092)",2,mbtiauth_800
872,"(22, 157, 22, 239, 3092)",2,mbtiauth_800
873,"(22, 157, 32, 22, 239)",2,mbtiauth_800
874,"(22, 157, 32, 22, 3092)",2,mbtiauth_800
875,"(22, 157, 32, 239, 3092)",2,mbtiauth_800
876,"(31, 123, 22, 77, 599)",2,mbtiauth_800
877,"(77, 77, 77, 77, 2051)",2,mbtiauth_800
878,"(77, 77, 77, 77, 4087)",2,mbtiauth_800
879,"(77, 77, 77, 77, 6063)",2,mbtiauth_800
880,"(77, 77, 77, 4087, 77)",3,mbtiauth_800
881,"(77, 77, 77, 6063, 2051)",2,mbtiauth_800
882,"(157, 32, 22, 239, 3092)",2,mbtiauth_800
883,"(22, 157, 32, 22, 239, 3092)",2,mbtiauth_800
884,"(77, 77, 77, 77, 6063, 2051)",2,mbtiauth_800
