,pattern,sup,author
539,"(2, 22, 2)",2,mbtiauth_1061
540,"(2, 77, 2)",3,mbtiauth_1061
541,"(2, 326, 10)",2,mbtiauth_1061
542,"(2, 326, 3150)",2,mbtiauth_1061
543,"(2, 381, 10)",2,mbtiauth_1061
544,"(2, 381, 326)",2,mbtiauth_1061
545,"(2, 381, 3150)",2,mbtiauth_1061
546,"(2, 630, 1249)",2,mbtiauth_1061
547,"(2, 3150, 10)",2,mbtiauth_1061
548,"(8, 8, 634)",3,mbtiauth_1061
549,"(8, 8, 102696)",3,mbtiauth_1061
550,"(8, 634, 8)",3,mbtiauth_1061
551,"(8, 634, 634)",3,mbtiauth_1061
552,"(8, 634, 102694)",2,mbtiauth_1061
553,"(8, 634, 102696)",3,mbtiauth_1061
554,"(8, 634, 102697)",4,mbtiauth_1061
555,"(8, 634, 102698)",4,mbtiauth_1061
556,"(8, 102694, 8)",2,mbtiauth_1061
557,"(8, 102694, 634)",2,mbtiauth_1061
558,"(8, 102694, 102696)",2,mbtiauth_1061
559,"(8, 102696, 8)",3,mbtiauth_1061
560,"(8, 102696, 634)",4,mbtiauth_1061
561,"(8, 102696, 102694)",2,mbtiauth_1061
562,"(8, 102696, 102696)",3,mbtiauth_1061
563,"(8, 102696, 102697)",4,mbtiauth_1061
564,"(8, 102696, 102698)",4,mbtiauth_1061
565,"(8, 102697, 8)",3,mbtiauth_1061
566,"(8, 102697, 634)",3,mbtiauth_1061
567,"(8, 102697, 102694)",2,mbtiauth_1061
568,"(8, 102697, 102696)",3,mbtiauth_1061
569,"(8, 102698, 8)",3,mbtiauth_1061
570,"(8, 102698, 634)",3,mbtiauth_1061
571,"(8, 102698, 102694)",2,mbtiauth_1061
572,"(8, 102698, 102696)",3,mbtiauth_1061
573,"(8, 102698, 102697)",4,mbtiauth_1061
574,"(10, 383, 32)",2,mbtiauth_1061
575,"(15, 32, 22)",2,mbtiauth_1061
576,"(15, 32, 77)",2,mbtiauth_1061
577,"(16, 77, 77)",2,mbtiauth_1061
578,"(16, 77, 599)",3,mbtiauth_1061
579,"(16, 599, 123)",2,mbtiauth_1061
580,"(22, 41, 77)",2,mbtiauth_1061
581,"(22, 77, 77)",2,mbtiauth_1061
582,"(22, 77, 123)",2,mbtiauth_1061
583,"(22, 78, 77)",2,mbtiauth_1061
584,"(22, 132, 77)",3,mbtiauth_1061
585,"(22, 132, 78)",2,mbtiauth_1061
586,"(22, 356, 77)",2,mbtiauth_1061
587,"(32, 22, 64)",2,mbtiauth_1061
588,"(32, 22, 76)",2,mbtiauth_1061
589,"(32, 41, 77)",2,mbtiauth_1061
590,"(32, 77, 2)",2,mbtiauth_1061
591,"(32, 77, 77)",2,mbtiauth_1061
592,"(41, 77, 123)",2,mbtiauth_1061
593,"(41, 77, 599)",2,mbtiauth_1061
594,"(50, 32, 22)",2,mbtiauth_1061
595,"(50, 32, 77)",2,mbtiauth_1061
596,"(50, 77, 32)",3,mbtiauth_1061
597,"(50, 77, 77)",3,mbtiauth_1061
598,"(50, 171, 32)",2,mbtiauth_1061
599,"(64, 16, 77)",2,mbtiauth_1061
600,"(64, 16, 599)",2,mbtiauth_1061
601,"(64, 77, 599)",2,mbtiauth_1061
602,"(64, 599, 123)",2,mbtiauth_1061
603,"(65, 162, 64)",2,mbtiauth_1061
604,"(77, 2, 2)",3,mbtiauth_1061
605,"(77, 2, 10)",2,mbtiauth_1061
606,"(77, 2, 65)",2,mbtiauth_1061
607,"(77, 2, 77)",3,mbtiauth_1061
608,"(77, 2, 164)",2,mbtiauth_1061
609,"(77, 2, 326)",2,mbtiauth_1061
610,"(77, 2, 381)",2,mbtiauth_1061
611,"(77, 2, 566)",2,mbtiauth_1061
612,"(77, 2, 3150)",2,mbtiauth_1061
613,"(77, 16, 77)",2,mbtiauth_1061
614,"(77, 22, 64)",2,mbtiauth_1061
615,"(77, 22, 76)",2,mbtiauth_1061
616,"(77, 22, 77)",2,mbtiauth_1061
617,"(77, 22, 132)",2,mbtiauth_1061
618,"(77, 22, 236)",2,mbtiauth_1061
619,"(77, 27, 41)",2,mbtiauth_1061
620,"(77, 32, 22)",2,mbtiauth_1061
621,"(77, 32, 76)",2,mbtiauth_1061
622,"(77, 32, 77)",3,mbtiauth_1061
623,"(77, 33, 22)",2,mbtiauth_1061
624,"(77, 50, 77)",2,mbtiauth_1061
625,"(77, 50, 523)",2,mbtiauth_1061
626,"(77, 64, 164)",2,mbtiauth_1061
627,"(77, 70, 32)",2,mbtiauth_1061
628,"(77, 73, 33)",3,mbtiauth_1061
629,"(77, 77, 2)",5,mbtiauth_1061
630,"(77, 77, 3917)",2,mbtiauth_1061
631,"(77, 123, 154)",2,mbtiauth_1061
632,"(77, 123, 356)",2,mbtiauth_1061
633,"(77, 123, 441)",2,mbtiauth_1061
634,"(77, 152, 50)",2,mbtiauth_1061
635,"(77, 152, 64)",2,mbtiauth_1061
636,"(77, 183, 77)",3,mbtiauth_1061
637,"(77, 183, 132)",2,mbtiauth_1061
638,"(77, 225, 77)",2,mbtiauth_1061
639,"(77, 254, 77)",2,mbtiauth_1061
640,"(77, 285, 41)",2,mbtiauth_1061
641,"(77, 326, 3150)",2,mbtiauth_1061
642,"(77, 364, 33)",2,mbtiauth_1061
643,"(77, 381, 326)",2,mbtiauth_1061
644,"(77, 381, 3150)",2,mbtiauth_1061
645,"(77, 443, 77)",2,mbtiauth_1061
646,"(77, 443, 183)",2,mbtiauth_1061
647,"(77, 566, 2)",2,mbtiauth_1061
648,"(77, 599, 123)",2,mbtiauth_1061
649,"(77, 1127, 2)",2,mbtiauth_1061
650,"(77, 1127, 77)",2,mbtiauth_1061
651,"(78, 77, 2)",2,mbtiauth_1061
652,"(123, 50, 77)",2,mbtiauth_1061
653,"(123, 64, 16)",2,mbtiauth_1061
654,"(123, 64, 123)",2,mbtiauth_1061
655,"(123, 64, 364)",2,mbtiauth_1061
656,"(123, 77, 70)",2,mbtiauth_1061
657,"(123, 77, 123)",2,mbtiauth_1061
658,"(123, 77, 183)",2,mbtiauth_1061
659,"(123, 77, 349)",2,mbtiauth_1061
660,"(123, 123, 77)",2,mbtiauth_1061
661,"(123, 123, 349)",2,mbtiauth_1061
662,"(123, 162, 364)",2,mbtiauth_1061
663,"(123, 164, 77)",2,mbtiauth_1061
664,"(123, 286, 123)",2,mbtiauth_1061
665,"(123, 286, 162)",2,mbtiauth_1061
666,"(123, 356, 70)",2,mbtiauth_1061
667,"(123, 356, 77)",3,mbtiauth_1061
668,"(123, 356, 256)",2,mbtiauth_1061
669,"(132, 78, 77)",2,mbtiauth_1061
670,"(154, 193, 64)",2,mbtiauth_1061
671,"(154, 193, 383)",2,mbtiauth_1061
672,"(162, 123, 193)",2,mbtiauth_1061
673,"(164, 77, 50)",3,mbtiauth_1061
674,"(171, 22, 64)",2,mbtiauth_1061
675,"(171, 32, 22)",2,mbtiauth_1061
676,"(171, 32, 64)",3,mbtiauth_1061
677,"(183, 16, 77)",2,mbtiauth_1061
678,"(183, 16, 599)",2,mbtiauth_1061
679,"(183, 77, 77)",2,mbtiauth_1061
680,"(183, 77, 599)",2,mbtiauth_1061
681,"(183, 599, 64)",2,mbtiauth_1061
682,"(193, 32, 123)",2,mbtiauth_1061
683,"(193, 383, 32)",2,mbtiauth_1061
684,"(222, 22, 132)",2,mbtiauth_1061
685,"(256, 77, 123)",2,mbtiauth_1061
686,"(276, 154, 77)",2,mbtiauth_1061
687,"(326, 77, 2)",2,mbtiauth_1061
688,"(326, 911, 65)",2,mbtiauth_1061
689,"(326, 3150, 10)",2,mbtiauth_1061
690,"(349, 154, 193)",2,mbtiauth_1061
691,"(356, 77, 70)",2,mbtiauth_1061
692,"(356, 77, 183)",2,mbtiauth_1061
693,"(356, 77, 443)",2,mbtiauth_1061
694,"(356, 256, 77)",2,mbtiauth_1061
695,"(356, 443, 183)",2,mbtiauth_1061
696,"(364, 10, 77)",2,mbtiauth_1061
697,"(364, 77, 254)",2,mbtiauth_1061
698,"(364, 77, 364)",2,mbtiauth_1061
699,"(364, 123, 407)",2,mbtiauth_1061
700,"(364, 168, 77)",2,mbtiauth_1061
701,"(364, 326, 77)",2,mbtiauth_1061
702,"(364, 599, 123)",2,mbtiauth_1061
703,"(364, 599, 407)",2,mbtiauth_1061
704,"(381, 326, 10)",2,mbtiauth_1061
705,"(381, 326, 3150)",2,mbtiauth_1061
706,"(381, 3150, 10)",2,mbtiauth_1061
707,"(443, 16, 77)",2,mbtiauth_1061
708,"(443, 183, 77)",2,mbtiauth_1061
709,"(599, 123, 407)",2,mbtiauth_1061
710,"(634, 8, 634)",3,mbtiauth_1061
711,"(634, 8, 102696)",3,mbtiauth_1061
712,"(634, 8, 102697)",3,mbtiauth_1061
713,"(634, 8, 102698)",3,mbtiauth_1061
714,"(634, 634, 102697)",3,mbtiauth_1061
715,"(634, 634, 102698)",3,mbtiauth_1061
716,"(634, 102694, 8)",2,mbtiauth_1061
717,"(634, 102694, 634)",2,mbtiauth_1061
718,"(634, 102694, 102696)",2,mbtiauth_1061
719,"(634, 102694, 102697)",2,mbtiauth_1061
720,"(634, 102694, 102698)",2,mbtiauth_1061
721,"(634, 102696, 634)",3,mbtiauth_1061
722,"(634, 102696, 102697)",3,mbtiauth_1061
723,"(634, 102696, 102698)",3,mbtiauth_1061
724,"(634, 102697, 8)",3,mbtiauth_1061
725,"(634, 102697, 634)",3,mbtiauth_1061
726,"(634, 102697, 102694)",2,mbtiauth_1061
727,"(634, 102697, 102696)",3,mbtiauth_1061
728,"(634, 102697, 102697)",3,mbtiauth_1061
729,"(634, 102697, 102698)",3,mbtiauth_1061
730,"(634, 102698, 8)",3,mbtiauth_1061
731,"(634, 102698, 634)",3,mbtiauth_1061
732,"(634, 102698, 102694)",2,mbtiauth_1061
733,"(634, 102698, 102696)",3,mbtiauth_1061
734,"(634, 102698, 102697)",4,mbtiauth_1061
735,"(634, 102698, 102698)",3,mbtiauth_1061
736,"(1118, 77, 123)",2,mbtiauth_1061
737,"(1127, 77, 2)",2,mbtiauth_1061
738,"(1896, 77, 2)",2,mbtiauth_1061
739,"(2395, 8198, 208)",2,mbtiauth_1061
740,"(2395, 8198, 45736)",2,mbtiauth_1061
741,"(3955, 77, 123)",2,mbtiauth_1061
742,"(6080, 2395, 8198)",2,mbtiauth_1061
743,"(6080, 45736, 208)",2,mbtiauth_1061
744,"(6080, 45736, 38169)",2,mbtiauth_1061
745,"(38169, 6080, 208)",2,mbtiauth_1061
746,"(38169, 6080, 45736)",2,mbtiauth_1061
747,"(45736, 6080, 208)",2,mbtiauth_1061
748,"(45736, 6080, 45736)",2,mbtiauth_1061
749,"(45736, 38169, 208)",2,mbtiauth_1061
750,"(45736, 38169, 6080)",2,mbtiauth_1061
751,"(45736, 38169, 45736)",2,mbtiauth_1061
752,"(102694, 8, 634)",2,mbtiauth_1061
753,"(102694, 8, 102696)",2,mbtiauth_1061
754,"(102694, 8, 102697)",2,mbtiauth_1061
755,"(102694, 8, 102698)",2,mbtiauth_1061
756,"(102694, 634, 102697)",2,mbtiauth_1061
757,"(102694, 634, 102698)",2,mbtiauth_1061
758,"(102694, 102696, 634)",2,mbtiauth_1061
759,"(102694, 102696, 102697)",2,mbtiauth_1061
760,"(102694, 102696, 102698)",2,mbtiauth_1061
761,"(102694, 102698, 102697)",2,mbtiauth_1061
762,"(102696, 8, 634)",3,mbtiauth_1061
763,"(102696, 8, 102696)",3,mbtiauth_1061
764,"(102696, 8, 102698)",3,mbtiauth_1061
765,"(102696, 634, 8)",3,mbtiauth_1061
766,"(102696, 634, 634)",3,mbtiauth_1061
767,"(102696, 634, 102694)",2,mbtiauth_1061
768,"(102696, 634, 102696)",3,mbtiauth_1061
769,"(102696, 634, 102697)",4,mbtiauth_1061
770,"(102696, 634, 102698)",4,mbtiauth_1061
771,"(102696, 102694, 8)",2,mbtiauth_1061
772,"(102696, 102694, 634)",2,mbtiauth_1061
773,"(102696, 102694, 102696)",2,mbtiauth_1061
774,"(102696, 102694, 102698)",2,mbtiauth_1061
775,"(102696, 102696, 634)",3,mbtiauth_1061
776,"(102696, 102696, 102698)",3,mbtiauth_1061
777,"(102696, 102697, 8)",3,mbtiauth_1061
778,"(102696, 102697, 634)",3,mbtiauth_1061
779,"(102696, 102697, 102694)",2,mbtiauth_1061
780,"(102696, 102697, 102696)",3,mbtiauth_1061
781,"(102696, 102697, 102698)",3,mbtiauth_1061
782,"(102696, 102698, 8)",3,mbtiauth_1061
783,"(102696, 102698, 634)",3,mbtiauth_1061
784,"(102696, 102698, 102694)",2,mbtiauth_1061
785,"(102696, 102698, 102696)",3,mbtiauth_1061
786,"(102696, 102698, 102697)",4,mbtiauth_1061
787,"(102696, 102698, 102698)",3,mbtiauth_1061
788,"(102697, 8, 634)",3,mbtiauth_1061
789,"(102697, 8, 102696)",3,mbtiauth_1061
790,"(102697, 8, 102697)",3,mbtiauth_1061
791,"(102697, 8, 102698)",3,mbtiauth_1061
792,"(102697, 634, 102697)",3,mbtiauth_1061
793,"(102697, 634, 102698)",3,mbtiauth_1061
794,"(102697, 102694, 8)",2,mbtiauth_1061
795,"(102697, 102694, 634)",2,mbtiauth_1061
796,"(102697, 102694, 102696)",2,mbtiauth_1061
797,"(102697, 102694, 102697)",2,mbtiauth_1061
798,"(102697, 102694, 102698)",2,mbtiauth_1061
799,"(102697, 102696, 634)",3,mbtiauth_1061
800,"(102697, 102696, 102697)",3,mbtiauth_1061
801,"(102697, 102696, 102698)",3,mbtiauth_1061
802,"(102697, 102698, 102697)",3,mbtiauth_1061
803,"(102698, 8, 634)",3,mbtiauth_1061
804,"(102698, 8, 102696)",3,mbtiauth_1061
805,"(102698, 8, 102697)",3,mbtiauth_1061
806,"(102698, 8, 102698)",3,mbtiauth_1061
807,"(102698, 634, 102697)",3,mbtiauth_1061
808,"(102698, 634, 102698)",3,mbtiauth_1061
809,"(102698, 102694, 8)",2,mbtiauth_1061
810,"(102698, 102694, 634)",2,mbtiauth_1061
811,"(102698, 102694, 102696)",2,mbtiauth_1061
812,"(102698, 102694, 102697)",2,mbtiauth_1061
813,"(102698, 102694, 102698)",2,mbtiauth_1061
814,"(102698, 102696, 634)",3,mbtiauth_1061
815,"(102698, 102696, 102697)",3,mbtiauth_1061
816,"(102698, 102696, 102698)",3,mbtiauth_1061
817,"(102698, 102697, 8)",3,mbtiauth_1061
818,"(102698, 102697, 634)",3,mbtiauth_1061
819,"(102698, 102697, 102694)",2,mbtiauth_1061
820,"(102698, 102697, 102696)",3,mbtiauth_1061
821,"(102698, 102697, 102697)",3,mbtiauth_1061
822,"(102698, 102697, 102698)",3,mbtiauth_1061
823,"(102698, 102698, 102697)",3,mbtiauth_1061
824,"(2, 326, 3150, 10)",2,mbtiauth_1061
825,"(2, 381, 326, 10)",2,mbtiauth_1061
826,"(2, 381, 326, 3150)",2,mbtiauth_1061
827,"(2, 381, 3150, 10)",2,mbtiauth_1061
828,"(8, 8, 102696, 634)",3,mbtiauth_1061
829,"(8, 634, 8, 634)",3,mbtiauth_1061
830,"(8, 634, 8, 102696)",3,mbtiauth_1061
831,"(8, 634, 102694, 8)",2,mbtiauth_1061
832,"(8, 634, 102694, 634)",2,mbtiauth_1061
833,"(8, 634, 102694, 102696)",2,mbtiauth_1061
834,"(8, 634, 102696, 634)",3,mbtiauth_1061
835,"(8, 634, 102697, 8)",3,mbtiauth_1061
836,"(8, 634, 102697, 634)",3,mbtiauth_1061
837,"(8, 634, 102697, 102694)",2,mbtiauth_1061
838,"(8, 634, 102697, 102696)",3,mbtiauth_1061
839,"(8, 634, 102698, 8)",3,mbtiauth_1061
840,"(8, 634, 102698, 634)",3,mbtiauth_1061
841,"(8, 634, 102698, 102694)",2,mbtiauth_1061
842,"(8, 634, 102698, 102696)",3,mbtiauth_1061
843,"(8, 634, 102698, 102697)",4,mbtiauth_1061
844,"(8, 102694, 8, 634)",2,mbtiauth_1061
845,"(8, 102694, 8, 102696)",2,mbtiauth_1061
846,"(8, 102694, 102696, 634)",2,mbtiauth_1061
847,"(8, 102696, 8, 634)",3,mbtiauth_1061
848,"(8, 102696, 8, 102696)",3,mbtiauth_1061
849,"(8, 102696, 634, 8)",3,mbtiauth_1061
850,"(8, 102696, 634, 634)",3,mbtiauth_1061
851,"(8, 102696, 634, 102694)",2,mbtiauth_1061
852,"(8, 102696, 634, 102696)",3,mbtiauth_1061
853,"(8, 102696, 634, 102697)",4,mbtiauth_1061
854,"(8, 102696, 634, 102698)",4,mbtiauth_1061
855,"(8, 102696, 102694, 8)",2,mbtiauth_1061
856,"(8, 102696, 102694, 634)",2,mbtiauth_1061
857,"(8, 102696, 102694, 102696)",2,mbtiauth_1061
858,"(8, 102696, 102696, 634)",3,mbtiauth_1061
859,"(8, 102696, 102697, 8)",3,mbtiauth_1061
860,"(8, 102696, 102697, 634)",3,mbtiauth_1061
861,"(8, 102696, 102697, 102694)",2,mbtiauth_1061
862,"(8, 102696, 102697, 102696)",3,mbtiauth_1061
863,"(8, 102696, 102698, 8)",3,mbtiauth_1061
864,"(8, 102696, 102698, 634)",3,mbtiauth_1061
865,"(8, 102696, 102698, 102694)",2,mbtiauth_1061
866,"(8, 102696, 102698, 102696)",3,mbtiauth_1061
867,"(8, 102696, 102698, 102697)",4,mbtiauth_1061
868,"(8, 102697, 8, 634)",3,mbtiauth_1061
869,"(8, 102697, 8, 102696)",3,mbtiauth_1061
870,"(8, 102697, 102694, 8)",2,mbtiauth_1061
871,"(8, 102697, 102694, 634)",2,mbtiauth_1061
872,"(8, 102697, 102694, 102696)",2,mbtiauth_1061
873,"(8, 102697, 102696, 634)",3,mbtiauth_1061
874,"(8, 102698, 8, 634)",3,mbtiauth_1061
875,"(8, 102698, 8, 102696)",3,mbtiauth_1061
876,"(8, 102698, 102694, 8)",2,mbtiauth_1061
877,"(8, 102698, 102694, 634)",2,mbtiauth_1061
878,"(8, 102698, 102694, 102696)",2,mbtiauth_1061
879,"(8, 102698, 102696, 634)",3,mbtiauth_1061
880,"(8, 102698, 102697, 8)",3,mbtiauth_1061
881,"(8, 102698, 102697, 634)",3,mbtiauth_1061
882,"(8, 102698, 102697, 102694)",2,mbtiauth_1061
883,"(8, 102698, 102697, 102696)",3,mbtiauth_1061
884,"(22, 132, 78, 77)",2,mbtiauth_1061
885,"(50, 77, 32, 77)",2,mbtiauth_1061
886,"(64, 16, 77, 599)",2,mbtiauth_1061
887,"(77, 2, 77, 2)",2,mbtiauth_1061
888,"(77, 2, 326, 3150)",2,mbtiauth_1061
889,"(77, 2, 381, 326)",2,mbtiauth_1061
890,"(77, 2, 381, 3150)",2,mbtiauth_1061
891,"(77, 32, 22, 76)",2,mbtiauth_1061
892,"(77, 381, 326, 3150)",2,mbtiauth_1061
893,"(77, 443, 183, 77)",2,mbtiauth_1061
894,"(77, 1127, 77, 2)",2,mbtiauth_1061
895,"(123, 356, 77, 70)",2,mbtiauth_1061
896,"(171, 32, 22, 64)",2,mbtiauth_1061
897,"(183, 16, 77, 599)",2,mbtiauth_1061
898,"(356, 77, 443, 183)",2,mbtiauth_1061
899,"(364, 599, 123, 407)",2,mbtiauth_1061
900,"(381, 326, 3150, 10)",2,mbtiauth_1061
901,"(634, 8, 634, 102697)",3,mbtiauth_1061
902,"(634, 8, 634, 102698)",3,mbtiauth_1061
903,"(634, 8, 102696, 634)",3,mbtiauth_1061
904,"(634, 8, 102696, 102697)",3,mbtiauth_1061
905,"(634, 8, 102696, 102698)",3,mbtiauth_1061
906,"(634, 8, 102698, 102697)",3,mbtiauth_1061
907,"(634, 634, 102698, 102697)",3,mbtiauth_1061
908,"(634, 102694, 8, 634)",2,mbtiauth_1061
909,"(634, 102694, 8, 102696)",2,mbtiauth_1061
910,"(634, 102694, 8, 102697)",2,mbtiauth_1061
911,"(634, 102694, 8, 102698)",2,mbtiauth_1061
912,"(634, 102694, 634, 102697)",2,mbtiauth_1061
913,"(634, 102694, 634, 102698)",2,mbtiauth_1061
914,"(634, 102694, 102696, 634)",2,mbtiauth_1061
915,"(634, 102694, 102696, 102697)",2,mbtiauth_1061
916,"(634, 102694, 102696, 102698)",2,mbtiauth_1061
917,"(634, 102694, 102698, 102697)",2,mbtiauth_1061
918,"(634, 102696, 634, 102697)",3,mbtiauth_1061
919,"(634, 102696, 634, 102698)",3,mbtiauth_1061
920,"(634, 102696, 102698, 102697)",3,mbtiauth_1061
921,"(634, 102697, 8, 634)",3,mbtiauth_1061
922,"(634, 102697, 8, 102696)",3,mbtiauth_1061
923,"(634, 102697, 8, 102697)",3,mbtiauth_1061
924,"(634, 102697, 8, 102698)",3,mbtiauth_1061
925,"(634, 102697, 634, 102697)",3,mbtiauth_1061
926,"(634, 102697, 634, 102698)",3,mbtiauth_1061
927,"(634, 102697, 102694, 8)",2,mbtiauth_1061
928,"(634, 102697, 102694, 634)",2,mbtiauth_1061
929,"(634, 102697, 102694, 102696)",2,mbtiauth_1061
930,"(634, 102697, 102694, 102697)",2,mbtiauth_1061
931,"(634, 102697, 102694, 102698)",2,mbtiauth_1061
932,"(634, 102697, 102696, 634)",3,mbtiauth_1061
933,"(634, 102697, 102696, 102697)",3,mbtiauth_1061
934,"(634, 102697, 102696, 102698)",3,mbtiauth_1061
935,"(634, 102697, 102698, 102697)",3,mbtiauth_1061
936,"(634, 102698, 8, 634)",3,mbtiauth_1061
937,"(634, 102698, 8, 102696)",3,mbtiauth_1061
938,"(634, 102698, 8, 102697)",3,mbtiauth_1061
939,"(634, 102698, 8, 102698)",3,mbtiauth_1061
940,"(634, 102698, 634, 102697)",3,mbtiauth_1061
941,"(634, 102698, 634, 102698)",3,mbtiauth_1061
942,"(634, 102698, 102694, 8)",2,mbtiauth_1061
943,"(634, 102698, 102694, 634)",2,mbtiauth_1061
944,"(634, 102698, 102694, 102696)",2,mbtiauth_1061
945,"(634, 102698, 102694, 102697)",2,mbtiauth_1061
946,"(634, 102698, 102694, 102698)",2,mbtiauth_1061
947,"(634, 102698, 102696, 634)",3,mbtiauth_1061
948,"(634, 102698, 102696, 102697)",3,mbtiauth_1061
949,"(634, 102698, 102696, 102698)",3,mbtiauth_1061
950,"(634, 102698, 102697, 8)",3,mbtiauth_1061
951,"(634, 102698, 102697, 634)",3,mbtiauth_1061
952,"(634, 102698, 102697, 102694)",2,mbtiauth_1061
953,"(634, 102698, 102697, 102696)",3,mbtiauth_1061
954,"(634, 102698, 102697, 102697)",3,mbtiauth_1061
955,"(634, 102698, 102697, 102698)",3,mbtiauth_1061
956,"(634, 102698, 102698, 102697)",3,mbtiauth_1061
957,"(45736, 38169, 6080, 208)",2,mbtiauth_1061
958,"(45736, 38169, 6080, 45736)",2,mbtiauth_1061
959,"(102694, 8, 634, 102697)",2,mbtiauth_1061
960,"(102694, 8, 634, 102698)",2,mbtiauth_1061
961,"(102694, 8, 102696, 634)",2,mbtiauth_1061
962,"(102694, 8, 102696, 102697)",2,mbtiauth_1061
963,"(102694, 8, 102696, 102698)",2,mbtiauth_1061
964,"(102694, 8, 102698, 102697)",2,mbtiauth_1061
965,"(102694, 634, 102698, 102697)",2,mbtiauth_1061
966,"(102694, 102696, 634, 102697)",2,mbtiauth_1061
967,"(102694, 102696, 634, 102698)",2,mbtiauth_1061
968,"(102694, 102696, 102698, 102697)",2,mbtiauth_1061
969,"(102696, 8, 634, 102698)",3,mbtiauth_1061
970,"(102696, 8, 102696, 634)",3,mbtiauth_1061
971,"(102696, 8, 102696, 102698)",3,mbtiauth_1061
972,"(102696, 634, 8, 634)",3,mbtiauth_1061
973,"(102696, 634, 8, 102696)",3,mbtiauth_1061
974,"(102696, 634, 8, 102698)",3,mbtiauth_1061
975,"(102696, 634, 634, 102698)",3,mbtiauth_1061
976,"(102696, 634, 102694, 8)",2,mbtiauth_1061
977,"(102696, 634, 102694, 634)",2,mbtiauth_1061
978,"(102696, 634, 102694, 102696)",2,mbtiauth_1061
979,"(102696, 634, 102694, 102698)",2,mbtiauth_1061
980,"(102696, 634, 102696, 634)",3,mbtiauth_1061
981,"(102696, 634, 102696, 102698)",3,mbtiauth_1061
982,"(102696, 634, 102697, 8)",3,mbtiauth_1061
983,"(102696, 634, 102697, 634)",3,mbtiauth_1061
984,"(102696, 634, 102697, 102694)",2,mbtiauth_1061
985,"(102696, 634, 102697, 102696)",3,mbtiauth_1061
986,"(102696, 634, 102697, 102698)",3,mbtiauth_1061
987,"(102696, 634, 102698, 8)",3,mbtiauth_1061
988,"(102696, 634, 102698, 634)",3,mbtiauth_1061
989,"(102696, 634, 102698, 102694)",2,mbtiauth_1061
990,"(102696, 634, 102698, 102696)",3,mbtiauth_1061
991,"(102696, 634, 102698, 102697)",4,mbtiauth_1061
992,"(102696, 634, 102698, 102698)",3,mbtiauth_1061
993,"(102696, 102694, 8, 634)",2,mbtiauth_1061
994,"(102696, 102694, 8, 102696)",2,mbtiauth_1061
995,"(102696, 102694, 8, 102698)",2,mbtiauth_1061
996,"(102696, 102694, 634, 102698)",2,mbtiauth_1061
997,"(102696, 102694, 102696, 634)",2,mbtiauth_1061
998,"(102696, 102694, 102696, 102698)",2,mbtiauth_1061
999,"(102696, 102696, 634, 102698)",3,mbtiauth_1061
1000,"(102696, 102697, 8, 634)",3,mbtiauth_1061
1001,"(102696, 102697, 8, 102696)",3,mbtiauth_1061
1002,"(102696, 102697, 8, 102698)",3,mbtiauth_1061
1003,"(102696, 102697, 634, 102698)",3,mbtiauth_1061
1004,"(102696, 102697, 102694, 8)",2,mbtiauth_1061
1005,"(102696, 102697, 102694, 634)",2,mbtiauth_1061
1006,"(102696, 102697, 102694, 102696)",2,mbtiauth_1061
1007,"(102696, 102697, 102694, 102698)",2,mbtiauth_1061
1008,"(102696, 102697, 102696, 634)",3,mbtiauth_1061
1009,"(102696, 102697, 102696, 102698)",3,mbtiauth_1061
1010,"(102696, 102698, 8, 634)",3,mbtiauth_1061
1011,"(102696, 102698, 8, 102696)",3,mbtiauth_1061
1012,"(102696, 102698, 8, 102698)",3,mbtiauth_1061
1013,"(102696, 102698, 634, 102698)",3,mbtiauth_1061
1014,"(102696, 102698, 102694, 8)",2,mbtiauth_1061
1015,"(102696, 102698, 102694, 634)",2,mbtiauth_1061
1016,"(102696, 102698, 102694, 102696)",2,mbtiauth_1061
1017,"(102696, 102698, 102694, 102698)",2,mbtiauth_1061
1018,"(102696, 102698, 102696, 634)",3,mbtiauth_1061
1019,"(102696, 102698, 102696, 102698)",3,mbtiauth_1061
1020,"(102696, 102698, 102697, 8)",3,mbtiauth_1061
1021,"(102696, 102698, 102697, 634)",3,mbtiauth_1061
1022,"(102696, 102698, 102697, 102694)",2,mbtiauth_1061
1023,"(102696, 102698, 102697, 102696)",3,mbtiauth_1061
1024,"(102696, 102698, 102697, 102698)",3,mbtiauth_1061
1025,"(102697, 8, 634, 102697)",3,mbtiauth_1061
1026,"(102697, 8, 634, 102698)",3,mbtiauth_1061
1027,"(102697, 8, 102696, 634)",3,mbtiauth_1061
1028,"(102697, 8, 102696, 102697)",3,mbtiauth_1061
1029,"(102697, 8, 102696, 102698)",3,mbtiauth_1061
1030,"(102697, 8, 102698, 102697)",3,mbtiauth_1061
1031,"(102697, 634, 102698, 102697)",3,mbtiauth_1061
1032,"(102697, 102694, 8, 634)",2,mbtiauth_1061
1033,"(102697, 102694, 8, 102696)",2,mbtiauth_1061
1034,"(102697, 102694, 8, 102697)",2,mbtiauth_1061
1035,"(102697, 102694, 8, 102698)",2,mbtiauth_1061
1036,"(102697, 102694, 634, 102697)",2,mbtiauth_1061
1037,"(102697, 102694, 634, 102698)",2,mbtiauth_1061
1038,"(102697, 102694, 102696, 634)",2,mbtiauth_1061
1039,"(102697, 102694, 102696, 102697)",2,mbtiauth_1061
1040,"(102697, 102694, 102696, 102698)",2,mbtiauth_1061
1041,"(102697, 102694, 102698, 102697)",2,mbtiauth_1061
1042,"(102697, 102696, 634, 102697)",3,mbtiauth_1061
1043,"(102697, 102696, 634, 102698)",3,mbtiauth_1061
1044,"(102697, 102696, 102698, 102697)",3,mbtiauth_1061
1045,"(102698, 8, 634, 102697)",3,mbtiauth_1061
1046,"(102698, 8, 634, 102698)",3,mbtiauth_1061
1047,"(102698, 8, 102696, 634)",3,mbtiauth_1061
1048,"(102698, 8, 102696, 102697)",3,mbtiauth_1061
1049,"(102698, 8, 102696, 102698)",3,mbtiauth_1061
1050,"(102698, 8, 102698, 102697)",3,mbtiauth_1061
1051,"(102698, 634, 102698, 102697)",3,mbtiauth_1061
1052,"(102698, 102694, 8, 634)",2,mbtiauth_1061
1053,"(102698, 102694, 8, 102696)",2,mbtiauth_1061
1054,"(102698, 102694, 8, 102697)",2,mbtiauth_1061
1055,"(102698, 102694, 8, 102698)",2,mbtiauth_1061
1056,"(102698, 102694, 634, 102697)",2,mbtiauth_1061
1057,"(102698, 102694, 634, 102698)",2,mbtiauth_1061
1058,"(102698, 102694, 102696, 634)",2,mbtiauth_1061
1059,"(102698, 102694, 102696, 102697)",2,mbtiauth_1061
1060,"(102698, 102694, 102696, 102698)",2,mbtiauth_1061
1061,"(102698, 102694, 102698, 102697)",2,mbtiauth_1061
1062,"(102698, 102696, 634, 102697)",3,mbtiauth_1061
1063,"(102698, 102696, 634, 102698)",3,mbtiauth_1061
1064,"(102698, 102696, 102698, 102697)",3,mbtiauth_1061
1065,"(102698, 102697, 8, 634)",3,mbtiauth_1061
1066,"(102698, 102697, 8, 102696)",3,mbtiauth_1061
1067,"(102698, 102697, 8, 102697)",3,mbtiauth_1061
1068,"(102698, 102697, 8, 102698)",3,mbtiauth_1061
1069,"(102698, 102697, 634, 102697)",3,mbtiauth_1061
1070,"(102698, 102697, 634, 102698)",3,mbtiauth_1061
1071,"(102698, 102697, 102694, 8)",2,mbtiauth_1061
1072,"(102698, 102697, 102694, 634)",2,mbtiauth_1061
1073,"(102698, 102697, 102694, 102696)",2,mbtiauth_1061
1074,"(102698, 102697, 102694, 102697)",2,mbtiauth_1061
1075,"(102698, 102697, 102694, 102698)",2,mbtiauth_1061
1076,"(102698, 102697, 102696, 634)",3,mbtiauth_1061
1077,"(102698, 102697, 102696, 102697)",3,mbtiauth_1061
1078,"(102698, 102697, 102696, 102698)",3,mbtiauth_1061
1079,"(102698, 102697, 102698, 102697)",3,mbtiauth_1061
1080,"(2, 381, 326, 3150, 10)",2,mbtiauth_1061
1081,"(8, 634, 8, 102696, 634)",3,mbtiauth_1061
1082,"(8, 634, 102694, 8, 634)",2,mbtiauth_1061
1083,"(8, 634, 102694, 8, 102696)",2,mbtiauth_1061
1084,"(8, 634, 102694, 102696, 634)",2,mbtiauth_1061
1085,"(8, 634, 102697, 8, 634)",3,mbtiauth_1061
1086,"(8, 634, 102697, 8, 102696)",3,mbtiauth_1061
1087,"(8, 634, 102697, 102694, 8)",2,mbtiauth_1061
1088,"(8, 634, 102697, 102694, 634)",2,mbtiauth_1061
1089,"(8, 634, 102697, 102694, 102696)",2,mbtiauth_1061
1090,"(8, 634, 102697, 102696, 634)",3,mbtiauth_1061
1091,"(8, 634, 102698, 8, 634)",3,mbtiauth_1061
1092,"(8, 634, 102698, 8, 102696)",3,mbtiauth_1061
1093,"(8, 634, 102698, 102694, 8)",2,mbtiauth_1061
1094,"(8, 634, 102698, 102694, 634)",2,mbtiauth_1061
1095,"(8, 634, 102698, 102694, 102696)",2,mbtiauth_1061
1096,"(8, 634, 102698, 102696, 634)",3,mbtiauth_1061
1097,"(8, 634, 102698, 102697, 8)",3,mbtiauth_1061
1098,"(8, 634, 102698, 102697, 634)",3,mbtiauth_1061
1099,"(8, 634, 102698, 102697, 102694)",2,mbtiauth_1061
1100,"(8, 634, 102698, 102697, 102696)",3,mbtiauth_1061
1101,"(8, 102694, 8, 102696, 634)",2,mbtiauth_1061
1102,"(8, 102696, 8, 102696, 634)",3,mbtiauth_1061
1103,"(8, 102696, 634, 8, 634)",3,mbtiauth_1061
1104,"(8, 102696, 634, 8, 102696)",3,mbtiauth_1061
1105,"(8, 102696, 634, 102694, 8)",2,mbtiauth_1061
1106,"(8, 102696, 634, 102694, 634)",2,mbtiauth_1061
1107,"(8, 102696, 634, 102694, 102696)",2,mbtiauth_1061
1108,"(8, 102696, 634, 102696, 634)",3,mbtiauth_1061
1109,"(8, 102696, 634, 102697, 8)",3,mbtiauth_1061
1110,"(8, 102696, 634, 102697, 634)",3,mbtiauth_1061
1111,"(8, 102696, 634, 102697, 102694)",2,mbtiauth_1061
1112,"(8, 102696, 634, 102697, 102696)",3,mbtiauth_1061
1113,"(8, 102696, 634, 102698, 8)",3,mbtiauth_1061
1114,"(8, 102696, 634, 102698, 634)",3,mbtiauth_1061
1115,"(8, 102696, 634, 102698, 102694)",2,mbtiauth_1061
1116,"(8, 102696, 634, 102698, 102696)",3,mbtiauth_1061
1117,"(8, 102696, 634, 102698, 102697)",4,mbtiauth_1061
1118,"(8, 102696, 102694, 8, 634)",2,mbtiauth_1061
1119,"(8, 102696, 102694, 8, 102696)",2,mbtiauth_1061
1120,"(8, 102696, 102694, 102696, 634)",2,mbtiauth_1061
1121,"(8, 102696, 102697, 8, 634)",3,mbtiauth_1061
1122,"(8, 102696, 102697, 8, 102696)",3,mbtiauth_1061
1123,"(8, 102696, 102697, 102694, 8)",2,mbtiauth_1061
1124,"(8, 102696, 102697, 102694, 634)",2,mbtiauth_1061
1125,"(8, 102696, 102697, 102694, 102696)",2,mbtiauth_1061
1126,"(8, 102696, 102697, 102696, 634)",3,mbtiauth_1061
1127,"(8, 102696, 102698, 8, 634)",3,mbtiauth_1061
1128,"(8, 102696, 102698, 8, 102696)",3,mbtiauth_1061
1129,"(8, 102696, 102698, 102694, 8)",2,mbtiauth_1061
1130,"(8, 102696, 102698, 102694, 634)",2,mbtiauth_1061
1131,"(8, 102696, 102698, 102694, 102696)",2,mbtiauth_1061
1132,"(8, 102696, 102698, 102696, 634)",3,mbtiauth_1061
1133,"(8, 102696, 102698, 102697, 8)",3,mbtiauth_1061
1134,"(8, 102696, 102698, 102697, 634)",3,mbtiauth_1061
1135,"(8, 102696, 102698, 102697, 102694)",2,mbtiauth_1061
1136,"(8, 102696, 102698, 102697, 102696)",3,mbtiauth_1061
1137,"(8, 102697, 8, 102696, 634)",3,mbtiauth_1061
1138,"(8, 102697, 102694, 8, 634)",2,mbtiauth_1061
1139,"(8, 102697, 102694, 8, 102696)",2,mbtiauth_1061
1140,"(8, 102697, 102694, 102696, 634)",2,mbtiauth_1061
1141,"(8, 102698, 8, 102696, 634)",3,mbtiauth_1061
1142,"(8, 102698, 102694, 8, 634)",2,mbtiauth_1061
1143,"(8, 102698, 102694, 8, 102696)",2,mbtiauth_1061
1144,"(8, 102698, 102694, 102696, 634)",2,mbtiauth_1061
1145,"(8, 102698, 102697, 8, 634)",3,mbtiauth_1061
1146,"(8, 102698, 102697, 8, 102696)",3,mbtiauth_1061
1147,"(8, 102698, 102697, 102694, 8)",2,mbtiauth_1061
1148,"(8, 102698, 102697, 102694, 634)",2,mbtiauth_1061
1149,"(8, 102698, 102697, 102694, 102696)",2,mbtiauth_1061
1150,"(8, 102698, 102697, 102696, 634)",3,mbtiauth_1061
1151,"(77, 2, 381, 326, 3150)",2,mbtiauth_1061
1152,"(634, 8, 634, 102698, 102697)",3,mbtiauth_1061
1153,"(634, 8, 102696, 634, 102697)",3,mbtiauth_1061
1154,"(634, 8, 102696, 634, 102698)",3,mbtiauth_1061
1155,"(634, 8, 102696, 102698, 102697)",3,mbtiauth_1061
1156,"(634, 102694, 8, 634, 102697)",2,mbtiauth_1061
1157,"(634, 102694, 8, 634, 102698)",2,mbtiauth_1061
1158,"(634, 102694, 8, 102696, 634)",2,mbtiauth_1061
1159,"(634, 102694, 8, 102696, 102697)",2,mbtiauth_1061
1160,"(634, 102694, 8, 102696, 102698)",2,mbtiauth_1061
1161,"(634, 102694, 8, 102698, 102697)",2,mbtiauth_1061
1162,"(634, 102694, 634, 102698, 102697)",2,mbtiauth_1061
1163,"(634, 102694, 102696, 634, 102697)",2,mbtiauth_1061
1164,"(634, 102694, 102696, 634, 102698)",2,mbtiauth_1061
1165,"(634, 102694, 102696, 102698, 102697)",2,mbtiauth_1061
1166,"(634, 102696, 634, 102698, 102697)",3,mbtiauth_1061
1167,"(634, 102697, 8, 634, 102697)",3,mbtiauth_1061
1168,"(634, 102697, 8, 634, 102698)",3,mbtiauth_1061
1169,"(634, 102697, 8, 102696, 634)",3,mbtiauth_1061
1170,"(634, 102697, 8, 102696, 102697)",3,mbtiauth_1061
1171,"(634, 102697, 8, 102696, 102698)",3,mbtiauth_1061
1172,"(634, 102697, 8, 102698, 102697)",3,mbtiauth_1061
1173,"(634, 102697, 634, 102698, 102697)",3,mbtiauth_1061
1174,"(634, 102697, 102694, 8, 634)",2,mbtiauth_1061
1175,"(634, 102697, 102694, 8, 102696)",2,mbtiauth_1061
1176,"(634, 102697, 102694, 8, 102697)",2,mbtiauth_1061
1177,"(634, 102697, 102694, 8, 102698)",2,mbtiauth_1061
1178,"(634, 102697, 102694, 634, 102697)",2,mbtiauth_1061
1179,"(634, 102697, 102694, 634, 102698)",2,mbtiauth_1061
1180,"(634, 102697, 102694, 102696, 634)",2,mbtiauth_1061
1181,"(634, 102697, 102694, 102696, 102697)",2,mbtiauth_1061
1182,"(634, 102697, 102694, 102696, 102698)",2,mbtiauth_1061
1183,"(634, 102697, 102694, 102698, 102697)",2,mbtiauth_1061
1184,"(634, 102697, 102696, 634, 102697)",3,mbtiauth_1061
1185,"(634, 102697, 102696, 634, 102698)",3,mbtiauth_1061
1186,"(634, 102697, 102696, 102698, 102697)",3,mbtiauth_1061
1187,"(634, 102698, 8, 634, 102697)",3,mbtiauth_1061
1188,"(634, 102698, 8, 634, 102698)",3,mbtiauth_1061
1189,"(634, 102698, 8, 102696, 634)",3,mbtiauth_1061
1190,"(634, 102698, 8, 102696, 102697)",3,mbtiauth_1061
1191,"(634, 102698, 8, 102696, 102698)",3,mbtiauth_1061
1192,"(634, 102698, 8, 102698, 102697)",3,mbtiauth_1061
1193,"(634, 102698, 634, 102698, 102697)",3,mbtiauth_1061
1194,"(634, 102698, 102694, 8, 634)",2,mbtiauth_1061
1195,"(634, 102698, 102694, 8, 102696)",2,mbtiauth_1061
1196,"(634, 102698, 102694, 8, 102697)",2,mbtiauth_1061
1197,"(634, 102698, 102694, 8, 102698)",2,mbtiauth_1061
1198,"(634, 102698, 102694, 634, 102697)",2,mbtiauth_1061
1199,"(634, 102698, 102694, 634, 102698)",2,mbtiauth_1061
1200,"(634, 102698, 102694, 102696, 634)",2,mbtiauth_1061
1201,"(634, 102698, 102694, 102696, 102697)",2,mbtiauth_1061
1202,"(634, 102698, 102694, 102696, 102698)",2,mbtiauth_1061
1203,"(634, 102698, 102694, 102698, 102697)",2,mbtiauth_1061
1204,"(634, 102698, 102696, 634, 102697)",3,mbtiauth_1061
1205,"(634, 102698, 102696, 634, 102698)",3,mbtiauth_1061
1206,"(634, 102698, 102696, 102698, 102697)",3,mbtiauth_1061
1207,"(634, 102698, 102697, 8, 634)",3,mbtiauth_1061
1208,"(634, 102698, 102697, 8, 102696)",3,mbtiauth_1061
1209,"(634, 102698, 102697, 8, 102697)",3,mbtiauth_1061
1210,"(634, 102698, 102697, 8, 102698)",3,mbtiauth_1061
1211,"(634, 102698, 102697, 634, 102697)",3,mbtiauth_1061
1212,"(634, 102698, 102697, 634, 102698)",3,mbtiauth_1061
1213,"(634, 102698, 102697, 102694, 8)",2,mbtiauth_1061
1214,"(634, 102698, 102697, 102694, 634)",2,mbtiauth_1061
1215,"(634, 102698, 102697, 102694, 102696)",2,mbtiauth_1061
1216,"(634, 102698, 102697, 102694, 102697)",2,mbtiauth_1061
1217,"(634, 102698, 102697, 102694, 102698)",2,mbtiauth_1061
1218,"(634, 102698, 102697, 102696, 634)",3,mbtiauth_1061
1219,"(634, 102698, 102697, 102696, 102697)",3,mbtiauth_1061
1220,"(634, 102698, 102697, 102696, 102698)",3,mbtiauth_1061
1221,"(634, 102698, 102697, 102698, 102697)",3,mbtiauth_1061
1222,"(102694, 8, 634, 102698, 102697)",2,mbtiauth_1061
1223,"(102694, 8, 102696, 634, 102697)",2,mbtiauth_1061
1224,"(102694, 8, 102696, 634, 102698)",2,mbtiauth_1061
1225,"(102694, 8, 102696, 102698, 102697)",2,mbtiauth_1061
1226,"(102694, 102696, 634, 102698, 102697)",2,mbtiauth_1061
1227,"(102696, 8, 102696, 634, 102698)",3,mbtiauth_1061
1228,"(102696, 634, 8, 634, 102698)",3,mbtiauth_1061
1229,"(102696, 634, 8, 102696, 634)",3,mbtiauth_1061
1230,"(102696, 634, 8, 102696, 102698)",3,mbtiauth_1061
1231,"(102696, 634, 102694, 8, 634)",2,mbtiauth_1061
1232,"(102696, 634, 102694, 8, 102696)",2,mbtiauth_1061
1233,"(102696, 634, 102694, 8, 102698)",2,mbtiauth_1061
1234,"(102696, 634, 102694, 634, 102698)",2,mbtiauth_1061
1235,"(102696, 634, 102694, 102696, 634)",2,mbtiauth_1061
1236,"(102696, 634, 102694, 102696, 102698)",2,mbtiauth_1061
1237,"(102696, 634, 102696, 634, 102698)",3,mbtiauth_1061
1238,"(102696, 634, 102697, 8, 634)",3,mbtiauth_1061
1239,"(102696, 634, 102697, 8, 102696)",3,mbtiauth_1061
1240,"(102696, 634, 102697, 8, 102698)",3,mbtiauth_1061
1241,"(102696, 634, 102697, 634, 102698)",3,mbtiauth_1061
1242,"(102696, 634, 102697, 102694, 8)",2,mbtiauth_1061
1243,"(102696, 634, 102697, 102694, 634)",2,mbtiauth_1061
1244,"(102696, 634, 102697, 102694, 102696)",2,mbtiauth_1061
1245,"(102696, 634, 102697, 102694, 102698)",2,mbtiauth_1061
1246,"(102696, 634, 102697, 102696, 634)",3,mbtiauth_1061
1247,"(102696, 634, 102697, 102696, 102698)",3,mbtiauth_1061
1248,"(102696, 634, 102698, 8, 634)",3,mbtiauth_1061
1249,"(102696, 634, 102698, 8, 102696)",3,mbtiauth_1061
1250,"(102696, 634, 102698, 8, 102698)",3,mbtiauth_1061
1251,"(102696, 634, 102698, 634, 102698)",3,mbtiauth_1061
1252,"(102696, 634, 102698, 102694, 8)",2,mbtiauth_1061
1253,"(102696, 634, 102698, 102694, 634)",2,mbtiauth_1061
1254,"(102696, 634, 102698, 102694, 102696)",2,mbtiauth_1061
1255,"(102696, 634, 102698, 102694, 102698)",2,mbtiauth_1061
1256,"(102696, 634, 102698, 102696, 634)",3,mbtiauth_1061
1257,"(102696, 634, 102698, 102696, 102698)",3,mbtiauth_1061
1258,"(102696, 634, 102698, 102697, 8)",3,mbtiauth_1061
1259,"(102696, 634, 102698, 102697, 634)",3,mbtiauth_1061
1260,"(102696, 634, 102698, 102697, 102694)",2,mbtiauth_1061
1261,"(102696, 634, 102698, 102697, 102696)",3,mbtiauth_1061
1262,"(102696, 634, 102698, 102697, 102698)",3,mbtiauth_1061
1263,"(102696, 102694, 8, 634, 102698)",2,mbtiauth_1061
1264,"(102696, 102694, 8, 102696, 634)",2,mbtiauth_1061
1265,"(102696, 102694, 8, 102696, 102698)",2,mbtiauth_1061
1266,"(102696, 102694, 102696, 634, 102698)",2,mbtiauth_1061
1267,"(102696, 102697, 8, 634, 102698)",3,mbtiauth_1061
1268,"(102696, 102697, 8, 102696, 634)",3,mbtiauth_1061
1269,"(102696, 102697, 8, 102696, 102698)",3,mbtiauth_1061
1270,"(102696, 102697, 102694, 8, 634)",2,mbtiauth_1061
1271,"(102696, 102697, 102694, 8, 102696)",2,mbtiauth_1061
1272,"(102696, 102697, 102694, 8, 102698)",2,mbtiauth_1061
1273,"(102696, 102697, 102694, 634, 102698)",2,mbtiauth_1061
1274,"(102696, 102697, 102694, 102696, 634)",2,mbtiauth_1061
1275,"(102696, 102697, 102694, 102696, 102698)",2,mbtiauth_1061
1276,"(102696, 102697, 102696, 634, 102698)",3,mbtiauth_1061
1277,"(102696, 102698, 8, 634, 102698)",3,mbtiauth_1061
1278,"(102696, 102698, 8, 102696, 634)",3,mbtiauth_1061
1279,"(102696, 102698, 8, 102696, 102698)",3,mbtiauth_1061
1280,"(102696, 102698, 102694, 8, 634)",2,mbtiauth_1061
1281,"(102696, 102698, 102694, 8, 102696)",2,mbtiauth_1061
1282,"(102696, 102698, 102694, 8, 102698)",2,mbtiauth_1061
1283,"(102696, 102698, 102694, 634, 102698)",2,mbtiauth_1061
1284,"(102696, 102698, 102694, 102696, 634)",2,mbtiauth_1061
1285,"(102696, 102698, 102694, 102696, 102698)",2,mbtiauth_1061
1286,"(102696, 102698, 102696, 634, 102698)",3,mbtiauth_1061
1287,"(102696, 102698, 102697, 8, 634)",3,mbtiauth_1061
1288,"(102696, 102698, 102697, 8, 102696)",3,mbtiauth_1061
1289,"(102696, 102698, 102697, 8, 102698)",3,mbtiauth_1061
1290,"(102696, 102698, 102697, 634, 102698)",3,mbtiauth_1061
1291,"(102696, 102698, 102697, 102694, 8)",2,mbtiauth_1061
1292,"(102696, 102698, 102697, 102694, 634)",2,mbtiauth_1061
1293,"(102696, 102698, 102697, 102694, 102696)",2,mbtiauth_1061
1294,"(102696, 102698, 102697, 102694, 102698)",2,mbtiauth_1061
1295,"(102696, 102698, 102697, 102696, 634)",3,mbtiauth_1061
1296,"(102696, 102698, 102697, 102696, 102698)",3,mbtiauth_1061
1297,"(102697, 8, 634, 102698, 102697)",3,mbtiauth_1061
1298,"(102697, 8, 102696, 634, 102697)",3,mbtiauth_1061
1299,"(102697, 8, 102696, 634, 102698)",3,mbtiauth_1061
1300,"(102697, 8, 102696, 102698, 102697)",3,mbtiauth_1061
1301,"(102697, 102694, 8, 634, 102697)",2,mbtiauth_1061
1302,"(102697, 102694, 8, 634, 102698)",2,mbtiauth_1061
1303,"(102697, 102694, 8, 102696, 634)",2,mbtiauth_1061
1304,"(102697, 102694, 8, 102696, 102697)",2,mbtiauth_1061
1305,"(102697, 102694, 8, 102696, 102698)",2,mbtiauth_1061
1306,"(102697, 102694, 8, 102698, 102697)",2,mbtiauth_1061
1307,"(102697, 102694, 634, 102698, 102697)",2,mbtiauth_1061
1308,"(102697, 102694, 102696, 634, 102697)",2,mbtiauth_1061
1309,"(102697, 102694, 102696, 634, 102698)",2,mbtiauth_1061
1310,"(102697, 102694, 102696, 102698, 102697)",2,mbtiauth_1061
1311,"(102697, 102696, 634, 102698, 102697)",3,mbtiauth_1061
1312,"(102698, 8, 634, 102698, 102697)",3,mbtiauth_1061
1313,"(102698, 8, 102696, 634, 102697)",3,mbtiauth_1061
1314,"(102698, 8, 102696, 634, 102698)",3,mbtiauth_1061
1315,"(102698, 8, 102696, 102698, 102697)",3,mbtiauth_1061
1316,"(102698, 102694, 8, 634, 102697)",2,mbtiauth_1061
1317,"(102698, 102694, 8, 634, 102698)",2,mbtiauth_1061
1318,"(102698, 102694, 8, 102696, 634)",2,mbtiauth_1061
1319,"(102698, 102694, 8, 102696, 102697)",2,mbtiauth_1061
1320,"(102698, 102694, 8, 102696, 102698)",2,mbtiauth_1061
1321,"(102698, 102694, 8, 102698, 102697)",2,mbtiauth_1061
1322,"(102698, 102694, 634, 102698, 102697)",2,mbtiauth_1061
1323,"(102698, 102694, 102696, 634, 102697)",2,mbtiauth_1061
1324,"(102698, 102694, 102696, 634, 102698)",2,mbtiauth_1061
1325,"(102698, 102694, 102696, 102698, 102697)",2,mbtiauth_1061
1326,"(102698, 102696, 634, 102698, 102697)",3,mbtiauth_1061
1327,"(102698, 102697, 8, 634, 102697)",3,mbtiauth_1061
1328,"(102698, 102697, 8, 634, 102698)",3,mbtiauth_1061
1329,"(102698, 102697, 8, 102696, 634)",3,mbtiauth_1061
1330,"(102698, 102697, 8, 102696, 102697)",3,mbtiauth_1061
1331,"(102698, 102697, 8, 102696, 102698)",3,mbtiauth_1061
1332,"(102698, 102697, 8, 102698, 102697)",3,mbtiauth_1061
1333,"(102698, 102697, 634, 102698, 102697)",3,mbtiauth_1061
1334,"(102698, 102697, 102694, 8, 634)",2,mbtiauth_1061
1335,"(102698, 102697, 102694, 8, 102696)",2,mbtiauth_1061
1336,"(102698, 102697, 102694, 8, 102697)",2,mbtiauth_1061
1337,"(102698, 102697, 102694, 8, 102698)",2,mbtiauth_1061
1338,"(102698, 102697, 102694, 634, 102697)",2,mbtiauth_1061
1339,"(102698, 102697, 102694, 634, 102698)",2,mbtiauth_1061
1340,"(102698, 102697, 102694, 102696, 634)",2,mbtiauth_1061
1341,"(102698, 102697, 102694, 102696, 102697)",2,mbtiauth_1061
1342,"(102698, 102697, 102694, 102696, 102698)",2,mbtiauth_1061
1343,"(102698, 102697, 102694, 102698, 102697)",2,mbtiauth_1061
1344,"(102698, 102697, 102696, 634, 102697)",3,mbtiauth_1061
1345,"(102698, 102697, 102696, 634, 102698)",3,mbtiauth_1061
1346,"(102698, 102697, 102696, 102698, 102697)",3,mbtiauth_1061
1347,"(8, 634, 102694, 8, 102696, 634)",2,mbtiauth_1061
1348,"(8, 634, 102697, 8, 102696, 634)",3,mbtiauth_1061
1349,"(8, 634, 102697, 102694, 8, 634)",2,mbtiauth_1061
1350,"(8, 634, 102697, 102694, 8, 102696)",2,mbtiauth_1061
1351,"(8, 634, 102697, 102694, 102696, 634)",2,mbtiauth_1061
1352,"(8, 634, 102698, 8, 102696, 634)",3,mbtiauth_1061
1353,"(8, 634, 102698, 102694, 8, 634)",2,mbtiauth_1061
1354,"(8, 634, 102698, 102694, 8, 102696)",2,mbtiauth_1061
1355,"(8, 634, 102698, 102694, 102696, 634)",2,mbtiauth_1061
1356,"(8, 634, 102698, 102697, 8, 634)",3,mbtiauth_1061
1357,"(8, 634, 102698, 102697, 8, 102696)",3,mbtiauth_1061
1358,"(8, 634, 102698, 102697, 102694, 8)",2,mbtiauth_1061
1359,"(8, 634, 102698, 102697, 102694, 634)",2,mbtiauth_1061
1360,"(8, 634, 102698, 102697, 102694, 102696)",2,mbtiauth_1061
1361,"(8, 634, 102698, 102697, 102696, 634)",3,mbtiauth_1061
1362,"(8, 102696, 634, 8, 102696, 634)",3,mbtiauth_1061
1363,"(8, 102696, 634, 102694, 8, 634)",2,mbtiauth_1061
1364,"(8, 102696, 634, 102694, 8, 102696)",2,mbtiauth_1061
1365,"(8, 102696, 634, 102694, 102696, 634)",2,mbtiauth_1061
1366,"(8, 102696, 634, 102697, 8, 634)",3,mbtiauth_1061
1367,"(8, 102696, 634, 102697, 8, 102696)",3,mbtiauth_1061
1368,"(8, 102696, 634, 102697, 102694, 8)",2,mbtiauth_1061
1369,"(8, 102696, 634, 102697, 102694, 634)",2,mbtiauth_1061
1370,"(8, 102696, 634, 102697, 102694, 102696)",2,mbtiauth_1061
1371,"(8, 102696, 634, 102697, 102696, 634)",3,mbtiauth_1061
1372,"(8, 102696, 634, 102698, 8, 634)",3,mbtiauth_1061
1373,"(8, 102696, 634, 102698, 8, 102696)",3,mbtiauth_1061
1374,"(8, 102696, 634, 102698, 102694, 8)",2,mbtiauth_1061
1375,"(8, 102696, 634, 102698, 102694, 634)",2,mbtiauth_1061
1376,"(8, 102696, 634, 102698, 102694, 102696)",2,mbtiauth_1061
1377,"(8, 102696, 634, 102698, 102696, 634)",3,mbtiauth_1061
1378,"(8, 102696, 634, 102698, 102697, 8)",3,mbtiauth_1061
1379,"(8, 102696, 634, 102698, 102697, 634)",3,mbtiauth_1061
1380,"(8, 102696, 634, 102698, 102697, 102694)",2,mbtiauth_1061
1381,"(8, 102696, 634, 102698, 102697, 102696)",3,mbtiauth_1061
1382,"(8, 102696, 102694, 8, 102696, 634)",2,mbtiauth_1061
1383,"(8, 102696, 102697, 8, 102696, 634)",3,mbtiauth_1061
1384,"(8, 102696, 102697, 102694, 8, 634)",2,mbtiauth_1061
1385,"(8, 102696, 102697, 102694, 8, 102696)",2,mbtiauth_1061
1386,"(8, 102696, 102697, 102694, 102696, 634)",2,mbtiauth_1061
1387,"(8, 102696, 102698, 8, 102696, 634)",3,mbtiauth_1061
1388,"(8, 102696, 102698, 102694, 8, 634)",2,mbtiauth_1061
1389,"(8, 102696, 102698, 102694, 8, 102696)",2,mbtiauth_1061
1390,"(8, 102696, 102698, 102694, 102696, 634)",2,mbtiauth_1061
1391,"(8, 102696, 102698, 102697, 8, 634)",3,mbtiauth_1061
1392,"(8, 102696, 102698, 102697, 8, 102696)",3,mbtiauth_1061
1393,"(8, 102696, 102698, 102697, 102694, 8)",2,mbtiauth_1061
1394,"(8, 102696, 102698, 102697, 102694, 634)",2,mbtiauth_1061
1395,"(8, 102696, 102698, 102697, 102694, 102696)",2,mbtiauth_1061
1396,"(8, 102696, 102698, 102697, 102696, 634)",3,mbtiauth_1061
1397,"(8, 102697, 102694, 8, 102696, 634)",2,mbtiauth_1061
1398,"(8, 102698, 102694, 8, 102696, 634)",2,mbtiauth_1061
1399,"(8, 102698, 102697, 8, 102696, 634)",3,mbtiauth_1061
1400,"(8, 102698, 102697, 102694, 8, 634)",2,mbtiauth_1061
1401,"(8, 102698, 102697, 102694, 8, 102696)",2,mbtiauth_1061
1402,"(8, 102698, 102697, 102694, 102696, 634)",2,mbtiauth_1061
1403,"(634, 8, 102696, 634, 102698, 102697)",3,mbtiauth_1061
1404,"(634, 102694, 8, 634, 102698, 102697)",2,mbtiauth_1061
1405,"(634, 102694, 8, 102696, 634, 102697)",2,mbtiauth_1061
1406,"(634, 102694, 8, 102696, 634, 102698)",2,mbtiauth_1061
1407,"(634, 102694, 8, 102696, 102698, 102697)",2,mbtiauth_1061
1408,"(634, 102694, 102696, 634, 102698, 102697)",2,mbtiauth_1061
1409,"(634, 102697, 8, 634, 102698, 102697)",3,mbtiauth_1061
1410,"(634, 102697, 8, 102696, 634, 102697)",3,mbtiauth_1061
1411,"(634, 102697, 8, 102696, 634, 102698)",3,mbtiauth_1061
1412,"(634, 102697, 8, 102696, 102698, 102697)",3,mbtiauth_1061
1413,"(634, 102697, 102694, 8, 634, 102697)",2,mbtiauth_1061
1414,"(634, 102697, 102694, 8, 634, 102698)",2,mbtiauth_1061
1415,"(634, 102697, 102694, 8, 102696, 634)",2,mbtiauth_1061
1416,"(634, 102697, 102694, 8, 102696, 102697)",2,mbtiauth_1061
1417,"(634, 102697, 102694, 8, 102696, 102698)",2,mbtiauth_1061
1418,"(634, 102697, 102694, 8, 102698, 102697)",2,mbtiauth_1061
1419,"(634, 102697, 102694, 634, 102698, 102697)",2,mbtiauth_1061
1420,"(634, 102697, 102694, 102696, 634, 102697)",2,mbtiauth_1061
1421,"(634, 102697, 102694, 102696, 634, 102698)",2,mbtiauth_1061
1422,"(634, 102697, 102694, 102696, 102698, 102697)",2,mbtiauth_1061
1423,"(634, 102697, 102696, 634, 102698, 102697)",3,mbtiauth_1061
1424,"(634, 102698, 8, 634, 102698, 102697)",3,mbtiauth_1061
1425,"(634, 102698, 8, 102696, 634, 102697)",3,mbtiauth_1061
1426,"(634, 102698, 8, 102696, 634, 102698)",3,mbtiauth_1061
1427,"(634, 102698, 8, 102696, 102698, 102697)",3,mbtiauth_1061
1428,"(634, 102698, 102694, 8, 634, 102697)",2,mbtiauth_1061
1429,"(634, 102698, 102694, 8, 634, 102698)",2,mbtiauth_1061
1430,"(634, 102698, 102694, 8, 102696, 634)",2,mbtiauth_1061
1431,"(634, 102698, 102694, 8, 102696, 102697)",2,mbtiauth_1061
1432,"(634, 102698, 102694, 8, 102696, 102698)",2,mbtiauth_1061
1433,"(634, 102698, 102694, 8, 102698, 102697)",2,mbtiauth_1061
1434,"(634, 102698, 102694, 634, 102698, 102697)",2,mbtiauth_1061
1435,"(634, 102698, 102694, 102696, 634, 102697)",2,mbtiauth_1061
1436,"(634, 102698, 102694, 102696, 634, 102698)",2,mbtiauth_1061
1437,"(634, 102698, 102694, 102696, 102698, 102697)",2,mbtiauth_1061
1438,"(634, 102698, 102696, 634, 102698, 102697)",3,mbtiauth_1061
1439,"(634, 102698, 102697, 8, 634, 102697)",3,mbtiauth_1061
1440,"(634, 102698, 102697, 8, 634, 102698)",3,mbtiauth_1061
1441,"(634, 102698, 102697, 8, 102696, 634)",3,mbtiauth_1061
1442,"(634, 102698, 102697, 8, 102696, 102697)",3,mbtiauth_1061
1443,"(634, 102698, 102697, 8, 102696, 102698)",3,mbtiauth_1061
1444,"(634, 102698, 102697, 8, 102698, 102697)",3,mbtiauth_1061
1445,"(634, 102698, 102697, 634, 102698, 102697)",3,mbtiauth_1061
1446,"(634, 102698, 102697, 102694, 8, 634)",2,mbtiauth_1061
1447,"(634, 102698, 102697, 102694, 8, 102696)",2,mbtiauth_1061
1448,"(634, 102698, 102697, 102694, 8, 102697)",2,mbtiauth_1061
1449,"(634, 102698, 102697, 102694, 8, 102698)",2,mbtiauth_1061
1450,"(634, 102698, 102697, 102694, 634, 102697)",2,mbtiauth_1061
1451,"(634, 102698, 102697, 102694, 634, 102698)",2,mbtiauth_1061
1452,"(634, 102698, 102697, 102694, 102696, 634)",2,mbtiauth_1061
1453,"(634, 102698, 102697, 102694, 102696, 102697)",2,mbtiauth_1061
1454,"(634, 102698, 102697, 102694, 102696, 102698)",2,mbtiauth_1061
1455,"(634, 102698, 102697, 102694, 102698, 102697)",2,mbtiauth_1061
1456,"(634, 102698, 102697, 102696, 634, 102697)",3,mbtiauth_1061
1457,"(634, 102698, 102697, 102696, 634, 102698)",3,mbtiauth_1061
1458,"(634, 102698, 102697, 102696, 102698, 102697)",3,mbtiauth_1061
1459,"(102694, 8, 102696, 634, 102698, 102697)",2,mbtiauth_1061
1460,"(102696, 634, 8, 102696, 634, 102698)",3,mbtiauth_1061
1461,"(102696, 634, 102694, 8, 634, 102698)",2,mbtiauth_1061
1462,"(102696, 634, 102694, 8, 102696, 634)",2,mbtiauth_1061
1463,"(102696, 634, 102694, 8, 102696, 102698)",2,mbtiauth_1061
1464,"(102696, 634, 102694, 102696, 634, 102698)",2,mbtiauth_1061
1465,"(102696, 634, 102697, 8, 634, 102698)",3,mbtiauth_1061
1466,"(102696, 634, 102697, 8, 102696, 634)",3,mbtiauth_1061
1467,"(102696, 634, 102697, 8, 102696, 102698)",3,mbtiauth_1061
1468,"(102696, 634, 102697, 102694, 8, 634)",2,mbtiauth_1061
1469,"(102696, 634, 102697, 102694, 8, 102696)",2,mbtiauth_1061
1470,"(102696, 634, 102697, 102694, 8, 102698)",2,mbtiauth_1061
1471,"(102696, 634, 102697, 102694, 634, 102698)",2,mbtiauth_1061
1472,"(102696, 634, 102697, 102694, 102696, 634)",2,mbtiauth_1061
1473,"(102696, 634, 102697, 102694, 102696, 102698)",2,mbtiauth_1061
1474,"(102696, 634, 102697, 102696, 634, 102698)",3,mbtiauth_1061
1475,"(102696, 634, 102698, 8, 634, 102698)",3,mbtiauth_1061
1476,"(102696, 634, 102698, 8, 102696, 634)",3,mbtiauth_1061
1477,"(102696, 634, 102698, 8, 102696, 102698)",3,mbtiauth_1061
1478,"(102696, 634, 102698, 102694, 8, 634)",2,mbtiauth_1061
1479,"(102696, 634, 102698, 102694, 8, 102696)",2,mbtiauth_1061
1480,"(102696, 634, 102698, 102694, 8, 102698)",2,mbtiauth_1061
1481,"(102696, 634, 102698, 102694, 634, 102698)",2,mbtiauth_1061
1482,"(102696, 634, 102698, 102694, 102696, 634)",2,mbtiauth_1061
1483,"(102696, 634, 102698, 102694, 102696, 102698)",2,mbtiauth_1061
1484,"(102696, 634, 102698, 102696, 634, 102698)",3,mbtiauth_1061
1485,"(102696, 634, 102698, 102697, 8, 634)",3,mbtiauth_1061
1486,"(102696, 634, 102698, 102697, 8, 102696)",3,mbtiauth_1061
1487,"(102696, 634, 102698, 102697, 8, 102698)",3,mbtiauth_1061
1488,"(102696, 634, 102698, 102697, 634, 102698)",3,mbtiauth_1061
1489,"(102696, 634, 102698, 102697, 102694, 8)",2,mbtiauth_1061
1490,"(102696, 634, 102698, 102697, 102694, 634)",2,mbtiauth_1061
1491,"(102696, 634, 102698, 102697, 102694, 102696)",2,mbtiauth_1061
1492,"(102696, 634, 102698, 102697, 102694, 102698)",2,mbtiauth_1061
1493,"(102696, 634, 102698, 102697, 102696, 634)",3,mbtiauth_1061
1494,"(102696, 634, 102698, 102697, 102696, 102698)",3,mbtiauth_1061
1495,"(102696, 102694, 8, 102696, 634, 102698)",2,mbtiauth_1061
1496,"(102696, 102697, 8, 102696, 634, 102698)",3,mbtiauth_1061
1497,"(102696, 102697, 102694, 8, 634, 102698)",2,mbtiauth_1061
1498,"(102696, 102697, 102694, 8, 102696, 634)",2,mbtiauth_1061
1499,"(102696, 102697, 102694, 8, 102696, 102698)",2,mbtiauth_1061
1500,"(102696, 102697, 102694, 102696, 634, 102698)",2,mbtiauth_1061
1501,"(102696, 102698, 8, 102696, 634, 102698)",3,mbtiauth_1061
1502,"(102696, 102698, 102694, 8, 634, 102698)",2,mbtiauth_1061
1503,"(102696, 102698, 102694, 8, 102696, 634)",2,mbtiauth_1061
1504,"(102696, 102698, 102694, 8, 102696, 102698)",2,mbtiauth_1061
1505,"(102696, 102698, 102694, 102696, 634, 102698)",2,mbtiauth_1061
1506,"(102696, 102698, 102697, 8, 634, 102698)",3,mbtiauth_1061
1507,"(102696, 102698, 102697, 8, 102696, 634)",3,mbtiauth_1061
1508,"(102696, 102698, 102697, 8, 102696, 102698)",3,mbtiauth_1061
1509,"(102696, 102698, 102697, 102694, 8, 634)",2,mbtiauth_1061
1510,"(102696, 102698, 102697, 102694, 8, 102696)",2,mbtiauth_1061
1511,"(102696, 102698, 102697, 102694, 8, 102698)",2,mbtiauth_1061
1512,"(102696, 102698, 102697, 102694, 634, 102698)",2,mbtiauth_1061
1513,"(102696, 102698, 102697, 102694, 102696, 634)",2,mbtiauth_1061
1514,"(102696, 102698, 102697, 102694, 102696, 102698)",2,mbtiauth_1061
1515,"(102696, 102698, 102697, 102696, 634, 102698)",3,mbtiauth_1061
1516,"(102697, 8, 102696, 634, 102698, 102697)",3,mbtiauth_1061
1517,"(102697, 102694, 8, 634, 102698, 102697)",2,mbtiauth_1061
1518,"(102697, 102694, 8, 102696, 634, 102697)",2,mbtiauth_1061
1519,"(102697, 102694, 8, 102696, 634, 102698)",2,mbtiauth_1061
1520,"(102697, 102694, 8, 102696, 102698, 102697)",2,mbtiauth_1061
1521,"(102697, 102694, 102696, 634, 102698, 102697)",2,mbtiauth_1061
1522,"(102698, 8, 102696, 634, 102698, 102697)",3,mbtiauth_1061
1523,"(102698, 102694, 8, 634, 102698, 102697)",2,mbtiauth_1061
1524,"(102698, 102694, 8, 102696, 634, 102697)",2,mbtiauth_1061
1525,"(102698, 102694, 8, 102696, 634, 102698)",2,mbtiauth_1061
1526,"(102698, 102694, 8, 102696, 102698, 102697)",2,mbtiauth_1061
1527,"(102698, 102694, 102696, 634, 102698, 102697)",2,mbtiauth_1061
1528,"(102698, 102697, 8, 634, 102698, 102697)",3,mbtiauth_1061
1529,"(102698, 102697, 8, 102696, 634, 102697)",3,mbtiauth_1061
1530,"(102698, 102697, 8, 102696, 634, 102698)",3,mbtiauth_1061
1531,"(102698, 102697, 8, 102696, 102698, 102697)",3,mbtiauth_1061
1532,"(102698, 102697, 102694, 8, 634, 102697)",2,mbtiauth_1061
1533,"(102698, 102697, 102694, 8, 634, 102698)",2,mbtiauth_1061
1534,"(102698, 102697, 102694, 8, 102696, 634)",2,mbtiauth_1061
1535,"(102698, 102697, 102694, 8, 102696, 102697)",2,mbtiauth_1061
1536,"(102698, 102697, 102694, 8, 102696, 102698)",2,mbtiauth_1061
1537,"(102698, 102697, 102694, 8, 102698, 102697)",2,mbtiauth_1061
1538,"(102698, 102697, 102694, 634, 102698, 102697)",2,mbtiauth_1061
1539,"(102698, 102697, 102694, 102696, 634, 102697)",2,mbtiauth_1061
1540,"(102698, 102697, 102694, 102696, 634, 102698)",2,mbtiauth_1061
1541,"(102698, 102697, 102694, 102696, 102698, 102697)",2,mbtiauth_1061
1542,"(102698, 102697, 102696, 634, 102698, 102697)",3,mbtiauth_1061
1543,"(8, 634, 102697, 102694, 8, 102696, 634)",2,mbtiauth_1061
1544,"(8, 634, 102698, 102694, 8, 102696, 634)",2,mbtiauth_1061
1545,"(8, 634, 102698, 102697, 8, 102696, 634)",3,mbtiauth_1061
1546,"(8, 634, 102698, 102697, 102694, 8, 634)",2,mbtiauth_1061
1547,"(8, 634, 102698, 102697, 102694, 8, 102696)",2,mbtiauth_1061
1548,"(8, 634, 102698, 102697, 102694, 102696, 634)",2,mbtiauth_1061
1549,"(8, 102696, 634, 102694, 8, 102696, 634)",2,mbtiauth_1061
1550,"(8, 102696, 634, 102697, 8, 102696, 634)",3,mbtiauth_1061
1551,"(8, 102696, 634, 102697, 102694, 8, 634)",2,mbtiauth_1061
1552,"(8, 102696, 634, 102697, 102694, 8, 102696)",2,mbtiauth_1061
1553,"(8, 102696, 634, 102697, 102694, 102696, 634)",2,mbtiauth_1061
1554,"(8, 102696, 634, 102698, 8, 102696, 634)",3,mbtiauth_1061
1555,"(8, 102696, 634, 102698, 102694, 8, 634)",2,mbtiauth_1061
1556,"(8, 102696, 634, 102698, 102694, 8, 102696)",2,mbtiauth_1061
1557,"(8, 102696, 634, 102698, 102694, 102696, 634)",2,mbtiauth_1061
1558,"(8, 102696, 634, 102698, 102697, 8, 634)",3,mbtiauth_1061
1559,"(8, 102696, 634, 102698, 102697, 8, 102696)",3,mbtiauth_1061
1560,"(8, 102696, 634, 102698, 102697, 102694, 8)",2,mbtiauth_1061
1561,"(8, 102696, 634, 102698, 102697, 102694, 634)",2,mbtiauth_1061
1562,"(8, 102696, 634, 102698, 102697, 102694, 102696)",2,mbtiauth_1061
1563,"(8, 102696, 634, 102698, 102697, 102696, 634)",3,mbtiauth_1061
1564,"(8, 102696, 102697, 102694, 8, 102696, 634)",2,mbtiauth_1061
1565,"(8, 102696, 102698, 102694, 8, 102696, 634)",2,mbtiauth_1061
1566,"(8, 102696, 102698, 102697, 8, 102696, 634)",3,mbtiauth_1061
1567,"(8, 102696, 102698, 102697, 102694, 8, 634)",2,mbtiauth_1061
1568,"(8, 102696, 102698, 102697, 102694, 8, 102696)",2,mbtiauth_1061
1569,"(8, 102696, 102698, 102697, 102694, 102696, 634)",2,mbtiauth_1061
1570,"(8, 102698, 102697, 102694, 8, 102696, 634)",2,mbtiauth_1061
1571,"(634, 102694, 8, 102696, 634, 102698, 102697)",2,mbtiauth_1061
1572,"(634, 102697, 8, 102696, 634, 102698, 102697)",3,mbtiauth_1061
1573,"(634, 102697, 102694, 8, 634, 102698, 102697)",2,mbtiauth_1061
1574,"(634, 102697, 102694, 8, 102696, 634, 102697)",2,mbtiauth_1061
1575,"(634, 102697, 102694, 8, 102696, 634, 102698)",2,mbtiauth_1061
1576,"(634, 102697, 102694, 8, 102696, 102698, 102697)",2,mbtiauth_1061
1577,"(634, 102697, 102694, 102696, 634, 102698, 102697)",2,mbtiauth_1061
1578,"(634, 102698, 8, 102696, 634, 102698, 102697)",3,mbtiauth_1061
1579,"(634, 102698, 102694, 8, 634, 102698, 102697)",2,mbtiauth_1061
1580,"(634, 102698, 102694, 8, 102696, 634, 102697)",2,mbtiauth_1061
1581,"(634, 102698, 102694, 8, 102696, 634, 102698)",2,mbtiauth_1061
1582,"(634, 102698, 102694, 8, 102696, 102698, 102697)",2,mbtiauth_1061
1583,"(634, 102698, 102694, 102696, 634, 102698, 102697)",2,mbtiauth_1061
1584,"(634, 102698, 102697, 8, 634, 102698, 102697)",3,mbtiauth_1061
1585,"(634, 102698, 102697, 8, 102696, 634, 102697)",3,mbtiauth_1061
1586,"(634, 102698, 102697, 8, 102696, 634, 102698)",3,mbtiauth_1061
1587,"(634, 102698, 102697, 8, 102696, 102698, 102697)",3,mbtiauth_1061
1588,"(634, 102698, 102697, 102694, 8, 634, 102697)",2,mbtiauth_1061
1589,"(634, 102698, 102697, 102694, 8, 634, 102698)",2,mbtiauth_1061
1590,"(634, 102698, 102697, 102694, 8, 102696, 634)",2,mbtiauth_1061
1591,"(634, 102698, 102697, 102694, 8, 102696, 102697)",2,mbtiauth_1061
1592,"(634, 102698, 102697, 102694, 8, 102696, 102698)",2,mbtiauth_1061
1593,"(634, 102698, 102697, 102694, 8, 102698, 102697)",2,mbtiauth_1061
1594,"(634, 102698, 102697, 102694, 634, 102698, 102697)",2,mbtiauth_1061
1595,"(634, 102698, 102697, 102694, 102696, 634, 102697)",2,mbtiauth_1061
1596,"(634, 102698, 102697, 102694, 102696, 634, 102698)",2,mbtiauth_1061
1597,"(634, 102698, 102697, 102694, 102696, 102698, 102697)",2,mbtiauth_1061
1598,"(634, 102698, 102697, 102696, 634, 102698, 102697)",3,mbtiauth_1061
1599,"(102696, 634, 102694, 8, 102696, 634, 102698)",2,mbtiauth_1061
1600,"(102696, 634, 102697, 8, 102696, 634, 102698)",3,mbtiauth_1061
1601,"(102696, 634, 102697, 102694, 8, 634, 102698)",2,mbtiauth_1061
1602,"(102696, 634, 102697, 102694, 8, 102696, 634)",2,mbtiauth_1061
1603,"(102696, 634, 102697, 102694, 8, 102696, 102698)",2,mbtiauth_1061
1604,"(102696, 634, 102697, 102694, 102696, 634, 102698)",2,mbtiauth_1061
1605,"(102696, 634, 102698, 8, 102696, 634, 102698)",3,mbtiauth_1061
1606,"(102696, 634, 102698, 102694, 8, 634, 102698)",2,mbtiauth_1061
1607,"(102696, 634, 102698, 102694, 8, 102696, 634)",2,mbtiauth_1061
1608,"(102696, 634, 102698, 102694, 8, 102696, 102698)",2,mbtiauth_1061
1609,"(102696, 634, 102698, 102694, 102696, 634, 102698)",2,mbtiauth_1061
1610,"(102696, 634, 102698, 102697, 8, 634, 102698)",3,mbtiauth_1061
1611,"(102696, 634, 102698, 102697, 8, 102696, 634)",3,mbtiauth_1061
1612,"(102696, 634, 102698, 102697, 8, 102696, 102698)",3,mbtiauth_1061
1613,"(102696, 634, 102698, 102697, 102694, 8, 634)",2,mbtiauth_1061
1614,"(102696, 634, 102698, 102697, 102694, 8, 102696)",2,mbtiauth_1061
1615,"(102696, 634, 102698, 102697, 102694, 8, 102698)",2,mbtiauth_1061
1616,"(102696, 634, 102698, 102697, 102694, 634, 102698)",2,mbtiauth_1061
1617,"(102696, 634, 102698, 102697, 102694, 102696, 634)",2,mbtiauth_1061
1618,"(102696, 634, 102698, 102697, 102694, 102696, 102698)",2,mbtiauth_1061
1619,"(102696, 634, 102698, 102697, 102696, 634, 102698)",3,mbtiauth_1061
1620,"(102696, 102697, 102694, 8, 102696, 634, 102698)",2,mbtiauth_1061
1621,"(102696, 102698, 102694, 8, 102696, 634, 102698)",2,mbtiauth_1061
1622,"(102696, 102698, 102697, 8, 102696, 634, 102698)",3,mbtiauth_1061
1623,"(102696, 102698, 102697, 102694, 8, 634, 102698)",2,mbtiauth_1061
1624,"(102696, 102698, 102697, 102694, 8, 102696, 634)",2,mbtiauth_1061
1625,"(102696, 102698, 102697, 102694, 8, 102696, 102698)",2,mbtiauth_1061
1626,"(102696, 102698, 102697, 102694, 102696, 634, 102698)",2,mbtiauth_1061
1627,"(102697, 102694, 8, 102696, 634, 102698, 102697)",2,mbtiauth_1061
1628,"(102698, 102694, 8, 102696, 634, 102698, 102697)",2,mbtiauth_1061
1629,"(102698, 102697, 8, 102696, 634, 102698, 102697)",3,mbtiauth_1061
1630,"(102698, 102697, 102694, 8, 634, 102698, 102697)",2,mbtiauth_1061
1631,"(102698, 102697, 102694, 8, 102696, 634, 102697)",2,mbtiauth_1061
1632,"(102698, 102697, 102694, 8, 102696, 634, 102698)",2,mbtiauth_1061
1633,"(102698, 102697, 102694, 8, 102696, 102698, 102697)",2,mbtiauth_1061
1634,"(102698, 102697, 102694, 102696, 634, 102698, 102697)",2,mbtiauth_1061
1635,"(8, 634, 102698, 102697, 102694, 8, 102696, 634)",2,mbtiauth_1061
1636,"(8, 102696, 634, 102697, 102694, 8, 102696, 634)",2,mbtiauth_1061
1637,"(8, 102696, 634, 102698, 102694, 8, 102696, 634)",2,mbtiauth_1061
1638,"(8, 102696, 634, 102698, 102697, 8, 102696, 634)",3,mbtiauth_1061
1639,"(8, 102696, 634, 102698, 102697, 102694, 8, 634)",2,mbtiauth_1061
1640,"(8, 102696, 634, 102698, 102697, 102694, 8, 102696)",2,mbtiauth_1061
1641,"(8, 102696, 634, 102698, 102697, 102694, 102696, 634)",2,mbtiauth_1061
1642,"(8, 102696, 102698, 102697, 102694, 8, 102696, 634)",2,mbtiauth_1061
1643,"(634, 102697, 102694, 8, 102696, 634, 102698, 102697)",2,mbtiauth_1061
1644,"(634, 102698, 102694, 8, 102696, 634, 102698, 102697)",2,mbtiauth_1061
1645,"(634, 102698, 102697, 8, 102696, 634, 102698, 102697)",3,mbtiauth_1061
1646,"(634, 102698, 102697, 102694, 8, 634, 102698, 102697)",2,mbtiauth_1061
1647,"(634, 102698, 102697, 102694, 8, 102696, 634, 102697)",2,mbtiauth_1061
1648,"(634, 102698, 102697, 102694, 8, 102696, 634, 102698)",2,mbtiauth_1061
1649,"(634, 102698, 102697, 102694, 8, 102696, 102698, 102697)",2,mbtiauth_1061
1650,"(634, 102698, 102697, 102694, 102696, 634, 102698, 102697)",2,mbtiauth_1061
1651,"(102696, 634, 102697, 102694, 8, 102696, 634, 102698)",2,mbtiauth_1061
1652,"(102696, 634, 102698, 102694, 8, 102696, 634, 102698)",2,mbtiauth_1061
1653,"(102696, 634, 102698, 102697, 8, 102696, 634, 102698)",3,mbtiauth_1061
1654,"(102696, 634, 102698, 102697, 102694, 8, 634, 102698)",2,mbtiauth_1061
1655,"(102696, 634, 102698, 102697, 102694, 8, 102696, 634)",2,mbtiauth_1061
1656,"(102696, 634, 102698, 102697, 102694, 8, 102696, 102698)",2,mbtiauth_1061
1657,"(102696, 634, 102698, 102697, 102694, 102696, 634, 102698)",2,mbtiauth_1061
1658,"(102696, 102698, 102697, 102694, 8, 102696, 634, 102698)",2,mbtiauth_1061
1659,"(102698, 102697, 102694, 8, 102696, 634, 102698, 102697)",2,mbtiauth_1061
1660,"(8, 102696, 634, 102698, 102697, 102694, 8, 102696, 634)",2,mbtiauth_1061
1661,"(634, 102698, 102697, 102694, 8, 102696, 634, 102698, 102697)",2,mbtiauth_1061
1662,"(102696, 634, 102698, 102697, 102694, 8, 102696, 634, 102698)",2,mbtiauth_1061
