,pattern,sup,author
800,"(2, 31, 193)",2,mbtiauth_4432
801,"(2, 77, 123)",2,mbtiauth_4432
802,"(2, 123, 64)",2,mbtiauth_4432
803,"(2, 123, 77)",2,mbtiauth_4432
804,"(2, 212, 64)",2,mbtiauth_4432
805,"(10, 64, 33)",2,mbtiauth_4432
806,"(16, 64, 67)",2,mbtiauth_4432
807,"(16, 64, 77)",3,mbtiauth_4432
808,"(16, 64, 123)",3,mbtiauth_4432
809,"(16, 64, 144)",2,mbtiauth_4432
810,"(16, 64, 193)",2,mbtiauth_4432
811,"(16, 64, 212)",2,mbtiauth_4432
812,"(16, 67, 77)",2,mbtiauth_4432
813,"(16, 67, 123)",2,mbtiauth_4432
814,"(16, 77, 123)",4,mbtiauth_4432
815,"(16, 77, 144)",2,mbtiauth_4432
816,"(16, 77, 212)",3,mbtiauth_4432
817,"(16, 123, 212)",2,mbtiauth_4432
818,"(16, 144, 193)",2,mbtiauth_4432
819,"(16, 154, 77)",2,mbtiauth_4432
820,"(16, 154, 123)",2,mbtiauth_4432
821,"(16, 160, 123)",2,mbtiauth_4432
822,"(16, 212, 144)",2,mbtiauth_4432
823,"(16, 356, 77)",2,mbtiauth_4432
824,"(16, 599, 123)",2,mbtiauth_4432
825,"(22, 10, 22)",2,mbtiauth_4432
826,"(22, 31, 65)",2,mbtiauth_4432
827,"(22, 50, 64)",2,mbtiauth_4432
828,"(22, 50, 65)",2,mbtiauth_4432
829,"(22, 73, 67)",2,mbtiauth_4432
830,"(22, 77, 64)",2,mbtiauth_4432
831,"(22, 123, 10)",2,mbtiauth_4432
832,"(22, 123, 31)",2,mbtiauth_4432
833,"(22, 123, 73)",2,mbtiauth_4432
834,"(22, 123, 356)",2,mbtiauth_4432
835,"(22, 123, 520)",2,mbtiauth_4432
836,"(22, 154, 29)",2,mbtiauth_4432
837,"(22, 220, 31)",2,mbtiauth_4432
838,"(22, 417, 64)",2,mbtiauth_4432
839,"(31, 64, 64)",2,mbtiauth_4432
840,"(32, 10, 77)",2,mbtiauth_4432
841,"(32, 50, 77)",2,mbtiauth_4432
842,"(32, 65, 77)",2,mbtiauth_4432
843,"(32, 123, 174)",2,mbtiauth_4432
844,"(32, 254, 123)",2,mbtiauth_4432
845,"(33, 77, 123)",2,mbtiauth_4432
846,"(33, 77, 202)",2,mbtiauth_4432
847,"(33, 536, 222)",2,mbtiauth_4432
848,"(41, 183, 77)",2,mbtiauth_4432
849,"(50, 50, 50)",2,mbtiauth_4432
850,"(50, 50, 77)",3,mbtiauth_4432
851,"(50, 65, 77)",2,mbtiauth_4432
852,"(50, 65, 6562)",2,mbtiauth_4432
853,"(50, 77, 2)",2,mbtiauth_4432
854,"(50, 77, 50)",4,mbtiauth_4432
855,"(50, 77, 77)",3,mbtiauth_4432
856,"(50, 222, 22)",2,mbtiauth_4432
857,"(64, 31, 2)",2,mbtiauth_4432
858,"(64, 64, 31)",2,mbtiauth_4432
859,"(64, 64, 65)",3,mbtiauth_4432
860,"(64, 65, 32)",3,mbtiauth_4432
861,"(64, 65, 64)",2,mbtiauth_4432
862,"(64, 65, 77)",3,mbtiauth_4432
863,"(64, 65, 536)",2,mbtiauth_4432
864,"(64, 65, 2570)",3,mbtiauth_4432
865,"(64, 67, 65)",3,mbtiauth_4432
866,"(64, 67, 77)",3,mbtiauth_4432
867,"(64, 67, 123)",2,mbtiauth_4432
868,"(64, 67, 2570)",2,mbtiauth_4432
869,"(64, 77, 2)",2,mbtiauth_4432
870,"(64, 77, 31)",2,mbtiauth_4432
871,"(64, 77, 64)",4,mbtiauth_4432
872,"(64, 77, 65)",2,mbtiauth_4432
873,"(64, 77, 123)",7,mbtiauth_4432
874,"(64, 77, 144)",2,mbtiauth_4432
875,"(64, 77, 193)",2,mbtiauth_4432
876,"(64, 77, 212)",2,mbtiauth_4432
877,"(64, 77, 226)",2,mbtiauth_4432
878,"(64, 77, 599)",2,mbtiauth_4432
879,"(64, 123, 64)",2,mbtiauth_4432
880,"(64, 123, 120)",2,mbtiauth_4432
881,"(64, 123, 123)",2,mbtiauth_4432
882,"(64, 123, 226)",2,mbtiauth_4432
883,"(64, 144, 193)",2,mbtiauth_4432
884,"(64, 144, 256)",2,mbtiauth_4432
885,"(64, 154, 77)",2,mbtiauth_4432
886,"(64, 154, 123)",2,mbtiauth_4432
887,"(64, 212, 193)",2,mbtiauth_4432
888,"(64, 268, 33)",2,mbtiauth_4432
889,"(64, 599, 123)",3,mbtiauth_4432
890,"(64, 1743, 65)",2,mbtiauth_4432
891,"(65, 77, 2)",3,mbtiauth_4432
892,"(65, 77, 64)",2,mbtiauth_4432
893,"(65, 77, 77)",2,mbtiauth_4432
894,"(65, 77, 123)",4,mbtiauth_4432
895,"(65, 77, 193)",2,mbtiauth_4432
896,"(65, 123, 64)",2,mbtiauth_4432
897,"(65, 123, 193)",2,mbtiauth_4432
898,"(65, 170, 65)",2,mbtiauth_4432
899,"(65, 356, 262)",2,mbtiauth_4432
900,"(65, 431, 77)",2,mbtiauth_4432
901,"(65, 1219, 32)",2,mbtiauth_4432
902,"(67, 65, 2570)",2,mbtiauth_4432
903,"(67, 77, 123)",2,mbtiauth_4432
904,"(73, 64, 268)",2,mbtiauth_4432
905,"(77, 2, 2)",2,mbtiauth_4432
906,"(77, 2, 32)",2,mbtiauth_4432
907,"(77, 2, 66)",2,mbtiauth_4432
908,"(77, 2, 77)",2,mbtiauth_4432
909,"(77, 2, 123)",2,mbtiauth_4432
910,"(77, 16, 64)",2,mbtiauth_4432
911,"(77, 50, 50)",2,mbtiauth_4432
912,"(77, 50, 77)",3,mbtiauth_4432
913,"(77, 64, 50)",2,mbtiauth_4432
914,"(77, 64, 65)",3,mbtiauth_4432
915,"(77, 64, 77)",4,mbtiauth_4432
916,"(77, 64, 144)",3,mbtiauth_4432
917,"(77, 64, 222)",2,mbtiauth_4432
918,"(77, 67, 65)",2,mbtiauth_4432
919,"(77, 77, 2)",3,mbtiauth_4432
920,"(77, 77, 50)",2,mbtiauth_4432
921,"(77, 77, 77)",4,mbtiauth_4432
922,"(77, 77, 520)",2,mbtiauth_4432
923,"(77, 77, 1700)",2,mbtiauth_4432
924,"(77, 123, 10)",2,mbtiauth_4432
925,"(77, 123, 16)",2,mbtiauth_4432
926,"(77, 123, 32)",2,mbtiauth_4432
927,"(77, 123, 64)",7,mbtiauth_4432
928,"(77, 123, 65)",6,mbtiauth_4432
929,"(77, 123, 77)",4,mbtiauth_4432
930,"(77, 123, 120)",3,mbtiauth_4432
931,"(77, 123, 123)",3,mbtiauth_4432
932,"(77, 123, 144)",2,mbtiauth_4432
933,"(77, 123, 165)",2,mbtiauth_4432
934,"(77, 123, 174)",5,mbtiauth_4432
935,"(77, 123, 212)",4,mbtiauth_4432
936,"(77, 123, 226)",2,mbtiauth_4432
937,"(77, 123, 326)",2,mbtiauth_4432
938,"(77, 123, 356)",3,mbtiauth_4432
939,"(77, 123, 364)",2,mbtiauth_4432
940,"(77, 123, 441)",3,mbtiauth_4432
941,"(77, 123, 499)",2,mbtiauth_4432
942,"(77, 123, 520)",3,mbtiauth_4432
943,"(77, 123, 711)",2,mbtiauth_4432
944,"(77, 154, 123)",2,mbtiauth_4432
945,"(77, 167, 154)",2,mbtiauth_4432
946,"(77, 171, 33)",2,mbtiauth_4432
947,"(77, 174, 64)",2,mbtiauth_4432
948,"(77, 174, 65)",2,mbtiauth_4432
949,"(77, 202, 33)",2,mbtiauth_4432
950,"(77, 202, 123)",2,mbtiauth_4432
951,"(77, 202, 171)",2,mbtiauth_4432
952,"(77, 212, 144)",2,mbtiauth_4432
953,"(77, 356, 10)",2,mbtiauth_4432
954,"(77, 356, 77)",2,mbtiauth_4432
955,"(77, 599, 64)",2,mbtiauth_4432
956,"(77, 599, 123)",5,mbtiauth_4432
957,"(77, 1700, 77)",2,mbtiauth_4432
958,"(117, 77, 64)",3,mbtiauth_4432
959,"(117, 123, 174)",2,mbtiauth_4432
960,"(120, 64, 144)",2,mbtiauth_4432
961,"(120, 77, 77)",2,mbtiauth_4432
962,"(120, 77, 123)",2,mbtiauth_4432
963,"(120, 77, 144)",2,mbtiauth_4432
964,"(120, 160, 154)",2,mbtiauth_4432
965,"(120, 441, 64)",2,mbtiauth_4432
966,"(123, 2, 22)",2,mbtiauth_4432
967,"(123, 2, 123)",2,mbtiauth_4432
968,"(123, 2, 193)",2,mbtiauth_4432
969,"(123, 10, 22)",3,mbtiauth_4432
970,"(123, 16, 64)",2,mbtiauth_4432
971,"(123, 22, 15)",2,mbtiauth_4432
972,"(123, 22, 32)",2,mbtiauth_4432
973,"(123, 22, 1940)",2,mbtiauth_4432
974,"(123, 31, 2)",2,mbtiauth_4432
975,"(123, 31, 65)",2,mbtiauth_4432
976,"(123, 31, 123)",2,mbtiauth_4432
977,"(123, 33, 77)",2,mbtiauth_4432
978,"(123, 50, 2)",2,mbtiauth_4432
979,"(123, 50, 65)",2,mbtiauth_4432
980,"(123, 50, 77)",3,mbtiauth_4432
981,"(123, 64, 32)",2,mbtiauth_4432
982,"(123, 64, 33)",3,mbtiauth_4432
983,"(123, 64, 50)",3,mbtiauth_4432
984,"(123, 64, 65)",9,mbtiauth_4432
985,"(123, 64, 67)",4,mbtiauth_4432
986,"(123, 64, 77)",7,mbtiauth_4432
987,"(123, 64, 123)",3,mbtiauth_4432
988,"(123, 64, 154)",2,mbtiauth_4432
989,"(123, 64, 170)",2,mbtiauth_4432
990,"(123, 64, 268)",2,mbtiauth_4432
991,"(123, 64, 599)",2,mbtiauth_4432
992,"(123, 64, 2570)",2,mbtiauth_4432
993,"(123, 65, 2)",2,mbtiauth_4432
994,"(123, 65, 32)",2,mbtiauth_4432
995,"(123, 65, 77)",5,mbtiauth_4432
996,"(123, 65, 123)",4,mbtiauth_4432
997,"(123, 65, 170)",2,mbtiauth_4432
998,"(123, 65, 431)",2,mbtiauth_4432
999,"(123, 65, 693)",2,mbtiauth_4432
1000,"(123, 65, 720)",2,mbtiauth_4432
1001,"(123, 65, 2570)",2,mbtiauth_4432
1002,"(123, 65, 6562)",2,mbtiauth_4432
1003,"(123, 67, 65)",3,mbtiauth_4432
1004,"(123, 67, 123)",2,mbtiauth_4432
1005,"(123, 67, 2570)",2,mbtiauth_4432
1006,"(123, 77, 2)",4,mbtiauth_4432
1007,"(123, 77, 65)",2,mbtiauth_4432
1008,"(123, 77, 77)",2,mbtiauth_4432
1009,"(123, 77, 120)",2,mbtiauth_4432
1010,"(123, 77, 123)",8,mbtiauth_4432
1011,"(123, 77, 202)",2,mbtiauth_4432
1012,"(123, 77, 499)",2,mbtiauth_4432
1013,"(123, 77, 520)",2,mbtiauth_4432
1014,"(123, 77, 599)",3,mbtiauth_4432
1015,"(123, 120, 64)",3,mbtiauth_4432
1016,"(123, 120, 77)",3,mbtiauth_4432
1017,"(123, 120, 268)",2,mbtiauth_4432
1018,"(123, 120, 441)",2,mbtiauth_4432
1019,"(123, 123, 64)",2,mbtiauth_4432
1020,"(123, 123, 65)",2,mbtiauth_4432
1021,"(123, 123, 120)",2,mbtiauth_4432
1022,"(123, 123, 151)",2,mbtiauth_4432
1023,"(123, 123, 165)",2,mbtiauth_4432
1024,"(123, 123, 206)",3,mbtiauth_4432
1025,"(123, 123, 268)",2,mbtiauth_4432
1026,"(123, 123, 356)",3,mbtiauth_4432
1027,"(123, 123, 364)",2,mbtiauth_4432
1028,"(123, 123, 441)",2,mbtiauth_4432
1029,"(123, 123, 499)",2,mbtiauth_4432
1030,"(123, 151, 123)",2,mbtiauth_4432
1031,"(123, 151, 153)",2,mbtiauth_4432
1032,"(123, 151, 356)",2,mbtiauth_4432
1033,"(123, 152, 123)",2,mbtiauth_4432
1034,"(123, 154, 77)",2,mbtiauth_4432
1035,"(123, 154, 123)",2,mbtiauth_4432
1036,"(123, 160, 64)",3,mbtiauth_4432
1037,"(123, 162, 123)",2,mbtiauth_4432
1038,"(123, 164, 262)",2,mbtiauth_4432
1039,"(123, 165, 64)",2,mbtiauth_4432
1040,"(123, 165, 65)",2,mbtiauth_4432
1041,"(123, 165, 67)",2,mbtiauth_4432
1042,"(123, 165, 613)",2,mbtiauth_4432
1043,"(123, 165, 2570)",2,mbtiauth_4432
1044,"(123, 174, 10)",2,mbtiauth_4432
1045,"(123, 174, 16)",2,mbtiauth_4432
1046,"(123, 174, 33)",2,mbtiauth_4432
1047,"(123, 174, 50)",2,mbtiauth_4432
1048,"(123, 174, 64)",4,mbtiauth_4432
1049,"(123, 174, 65)",4,mbtiauth_4432
1050,"(123, 174, 67)",2,mbtiauth_4432
1051,"(123, 174, 77)",2,mbtiauth_4432
1052,"(123, 200, 77)",2,mbtiauth_4432
1053,"(123, 206, 2)",3,mbtiauth_4432
1054,"(123, 206, 31)",2,mbtiauth_4432
1055,"(123, 206, 123)",3,mbtiauth_4432
1056,"(123, 206, 151)",2,mbtiauth_4432
1057,"(123, 206, 193)",2,mbtiauth_4432
1058,"(123, 206, 268)",2,mbtiauth_4432
1059,"(123, 206, 356)",2,mbtiauth_4432
1060,"(123, 212, 64)",3,mbtiauth_4432
1061,"(123, 212, 65)",3,mbtiauth_4432
1062,"(123, 212, 77)",2,mbtiauth_4432
1063,"(123, 212, 144)",2,mbtiauth_4432
1064,"(123, 226, 64)",2,mbtiauth_4432
1065,"(123, 226, 65)",2,mbtiauth_4432
1066,"(123, 260, 64)",2,mbtiauth_4432
1067,"(123, 268, 22)",2,mbtiauth_4432
1068,"(123, 268, 32)",2,mbtiauth_4432
1069,"(123, 268, 123)",2,mbtiauth_4432
1070,"(123, 268, 364)",2,mbtiauth_4432
1071,"(123, 286, 65)",2,mbtiauth_4432
1072,"(123, 291, 22)",2,mbtiauth_4432
1073,"(123, 340, 16)",2,mbtiauth_4432
1074,"(123, 356, 10)",2,mbtiauth_4432
1075,"(123, 356, 29)",2,mbtiauth_4432
1076,"(123, 356, 64)",2,mbtiauth_4432
1077,"(123, 356, 65)",2,mbtiauth_4432
1078,"(123, 356, 77)",2,mbtiauth_4432
1079,"(123, 356, 6562)",2,mbtiauth_4432
1080,"(123, 407, 3)",2,mbtiauth_4432
1081,"(123, 407, 262)",3,mbtiauth_4432
1082,"(123, 425, 65)",2,mbtiauth_4432
1083,"(123, 425, 77)",2,mbtiauth_4432
1084,"(123, 441, 50)",3,mbtiauth_4432
1085,"(123, 441, 64)",3,mbtiauth_4432
1086,"(123, 441, 77)",5,mbtiauth_4432
1087,"(123, 441, 254)",2,mbtiauth_4432
1088,"(123, 441, 668)",3,mbtiauth_4432
1089,"(123, 517, 411)",2,mbtiauth_4432
1090,"(123, 520, 64)",2,mbtiauth_4432
1091,"(123, 537, 65)",2,mbtiauth_4432
1092,"(123, 537, 77)",2,mbtiauth_4432
1093,"(123, 537, 6562)",2,mbtiauth_4432
1094,"(123, 613, 64)",3,mbtiauth_4432
1095,"(123, 613, 65)",2,mbtiauth_4432
1096,"(123, 613, 67)",2,mbtiauth_4432
1097,"(123, 613, 2570)",2,mbtiauth_4432
1098,"(123, 668, 77)",2,mbtiauth_4432
1099,"(123, 711, 65)",2,mbtiauth_4432
1100,"(123, 764, 64)",2,mbtiauth_4432
1101,"(123, 1067, 520)",2,mbtiauth_4432
1102,"(123, 1164, 123)",2,mbtiauth_4432
1103,"(151, 123, 356)",2,mbtiauth_4432
1104,"(152, 154, 77)",2,mbtiauth_4432
1105,"(154, 64, 77)",3,mbtiauth_4432
1106,"(154, 64, 123)",2,mbtiauth_4432
1107,"(154, 67, 123)",2,mbtiauth_4432
1108,"(154, 77, 123)",4,mbtiauth_4432
1109,"(154, 123, 64)",2,mbtiauth_4432
1110,"(154, 123, 77)",2,mbtiauth_4432
1111,"(154, 123, 123)",3,mbtiauth_4432
1112,"(154, 123, 441)",2,mbtiauth_4432
1113,"(154, 2366, 64)",2,mbtiauth_4432
1114,"(154, 2366, 123)",2,mbtiauth_4432
1115,"(160, 123, 356)",2,mbtiauth_4432
1116,"(165, 64, 65)",2,mbtiauth_4432
1117,"(165, 64, 67)",2,mbtiauth_4432
1118,"(165, 64, 2570)",2,mbtiauth_4432
1119,"(165, 65, 2570)",2,mbtiauth_4432
1120,"(165, 67, 65)",2,mbtiauth_4432
1121,"(165, 67, 2570)",2,mbtiauth_4432
1122,"(165, 613, 64)",2,mbtiauth_4432
1123,"(165, 613, 65)",2,mbtiauth_4432
1124,"(165, 613, 67)",2,mbtiauth_4432
1125,"(165, 613, 2570)",2,mbtiauth_4432
1126,"(167, 154, 123)",2,mbtiauth_4432
1127,"(170, 22, 31)",2,mbtiauth_4432
1128,"(170, 22, 32)",2,mbtiauth_4432
1129,"(170, 65, 308)",2,mbtiauth_4432
1130,"(170, 77, 2)",2,mbtiauth_4432
1131,"(170, 77, 567)",2,mbtiauth_4432
1132,"(170, 201, 65)",2,mbtiauth_4432
1133,"(170, 201, 308)",2,mbtiauth_4432
1134,"(174, 64, 65)",2,mbtiauth_4432
1135,"(193, 710, 77)",2,mbtiauth_4432
1136,"(196, 77, 2)",2,mbtiauth_4432
1137,"(200, 77, 123)",2,mbtiauth_4432
1138,"(201, 65, 308)",2,mbtiauth_4432
1139,"(202, 171, 33)",2,mbtiauth_4432
1140,"(206, 2, 206)",2,mbtiauth_4432
1141,"(206, 123, 356)",2,mbtiauth_4432
1142,"(206, 151, 123)",2,mbtiauth_4432
1143,"(206, 151, 356)",2,mbtiauth_4432
1144,"(212, 65, 170)",2,mbtiauth_4432
1145,"(254, 123, 123)",2,mbtiauth_4432
1146,"(254, 123, 322)",2,mbtiauth_4432
1147,"(260, 120, 123)",2,mbtiauth_4432
1148,"(262, 64, 65)",2,mbtiauth_4432
1149,"(262, 64, 237)",2,mbtiauth_4432
1150,"(262, 77, 64)",2,mbtiauth_4432
1151,"(262, 77, 123)",3,mbtiauth_4432
1152,"(262, 77, 599)",2,mbtiauth_4432
1153,"(262, 123, 65)",2,mbtiauth_4432
1154,"(262, 599, 123)",2,mbtiauth_4432
1155,"(268, 64, 64)",2,mbtiauth_4432
1156,"(268, 64, 77)",2,mbtiauth_4432
1157,"(268, 77, 64)",2,mbtiauth_4432
1158,"(268, 77, 123)",2,mbtiauth_4432
1159,"(269, 77, 64)",2,mbtiauth_4432
1160,"(269, 395, 64)",2,mbtiauth_4432
1161,"(269, 395, 77)",2,mbtiauth_4432
1162,"(340, 16, 123)",2,mbtiauth_4432
1163,"(356, 64, 65)",2,mbtiauth_4432
1164,"(356, 65, 64)",2,mbtiauth_4432
1165,"(356, 65, 6562)",2,mbtiauth_4432
1166,"(356, 77, 123)",3,mbtiauth_4432
1167,"(356, 77, 212)",2,mbtiauth_4432
1168,"(356, 77, 356)",2,mbtiauth_4432
1169,"(356, 77, 520)",2,mbtiauth_4432
1170,"(356, 77, 599)",2,mbtiauth_4432
1171,"(356, 123, 356)",2,mbtiauth_4432
1172,"(356, 599, 123)",2,mbtiauth_4432
1173,"(364, 77, 123)",3,mbtiauth_4432
1174,"(364, 212, 167)",2,mbtiauth_4432
1175,"(381, 22, 12361)",2,mbtiauth_4432
1176,"(395, 77, 64)",2,mbtiauth_4432
1177,"(409, 33, 77)",2,mbtiauth_4432
1178,"(409, 33, 1386)",2,mbtiauth_4432
1179,"(425, 64, 77)",2,mbtiauth_4432
1180,"(425, 65, 77)",2,mbtiauth_4432
1181,"(431, 77, 123)",3,mbtiauth_4432
1182,"(441, 64, 77)",2,mbtiauth_4432
1183,"(441, 77, 123)",3,mbtiauth_4432
1184,"(441, 77, 599)",2,mbtiauth_4432
1185,"(441, 254, 123)",2,mbtiauth_4432
1186,"(441, 599, 123)",2,mbtiauth_4432
1187,"(441, 668, 77)",2,mbtiauth_4432
1188,"(520, 384, 77)",2,mbtiauth_4432
1189,"(536, 64, 77)",2,mbtiauth_4432
1190,"(537, 65, 6562)",2,mbtiauth_4432
1191,"(599, 123, 64)",2,mbtiauth_4432
1192,"(613, 64, 65)",2,mbtiauth_4432
1193,"(613, 64, 67)",2,mbtiauth_4432
1194,"(613, 64, 2570)",2,mbtiauth_4432
1195,"(613, 65, 2570)",2,mbtiauth_4432
1196,"(613, 67, 65)",2,mbtiauth_4432
1197,"(613, 67, 2570)",2,mbtiauth_4432
1198,"(653, 356, 77)",2,mbtiauth_4432
1199,"(693, 123, 291)",2,mbtiauth_4432
1200,"(710, 77, 123)",3,mbtiauth_4432
1201,"(710, 154, 123)",2,mbtiauth_4432
1202,"(782, 16, 123)",2,mbtiauth_4432
1203,"(1164, 123, 123)",2,mbtiauth_4432
1204,"(1164, 123, 151)",2,mbtiauth_4432
1205,"(1164, 123, 206)",2,mbtiauth_4432
1206,"(1164, 123, 356)",2,mbtiauth_4432
1207,"(1164, 151, 123)",2,mbtiauth_4432
1208,"(1164, 151, 356)",2,mbtiauth_4432
1209,"(1164, 206, 123)",2,mbtiauth_4432
1210,"(1164, 206, 151)",2,mbtiauth_4432
1211,"(1164, 206, 356)",2,mbtiauth_4432
1212,"(1386, 77, 33)",2,mbtiauth_4432
1213,"(1386, 77, 171)",2,mbtiauth_4432
1214,"(1386, 77, 202)",2,mbtiauth_4432
1215,"(1386, 171, 33)",2,mbtiauth_4432
1216,"(1386, 202, 33)",2,mbtiauth_4432
1217,"(1386, 202, 171)",2,mbtiauth_4432
1218,"(1700, 77, 77)",2,mbtiauth_4432
1219,"(2366, 123, 64)",2,mbtiauth_4432
1220,"(16, 64, 67, 77)",2,mbtiauth_4432
1221,"(16, 64, 67, 123)",2,mbtiauth_4432
1222,"(16, 64, 77, 123)",2,mbtiauth_4432
1223,"(16, 64, 77, 212)",2,mbtiauth_4432
1224,"(16, 64, 144, 193)",2,mbtiauth_4432
1225,"(16, 67, 77, 123)",2,mbtiauth_4432
1226,"(16, 77, 123, 212)",2,mbtiauth_4432
1227,"(16, 77, 212, 144)",2,mbtiauth_4432
1228,"(16, 154, 77, 123)",2,mbtiauth_4432
1229,"(50, 50, 50, 77)",2,mbtiauth_4432
1230,"(50, 50, 77, 50)",2,mbtiauth_4432
1231,"(50, 50, 77, 77)",2,mbtiauth_4432
1232,"(50, 77, 50, 50)",2,mbtiauth_4432
1233,"(50, 77, 50, 77)",3,mbtiauth_4432
1234,"(50, 77, 77, 50)",2,mbtiauth_4432
1235,"(50, 77, 77, 77)",2,mbtiauth_4432
1236,"(64, 67, 65, 2570)",2,mbtiauth_4432
1237,"(64, 67, 77, 123)",2,mbtiauth_4432
1238,"(64, 77, 123, 64)",2,mbtiauth_4432
1239,"(64, 77, 123, 123)",2,mbtiauth_4432
1240,"(64, 77, 123, 226)",2,mbtiauth_4432
1241,"(64, 77, 599, 123)",2,mbtiauth_4432
1242,"(77, 50, 50, 77)",2,mbtiauth_4432
1243,"(77, 50, 77, 50)",2,mbtiauth_4432
1244,"(77, 50, 77, 77)",2,mbtiauth_4432
1245,"(77, 77, 50, 77)",2,mbtiauth_4432
1246,"(77, 77, 1700, 77)",2,mbtiauth_4432
1247,"(77, 123, 64, 65)",3,mbtiauth_4432
1248,"(77, 123, 64, 77)",2,mbtiauth_4432
1249,"(77, 123, 77, 520)",2,mbtiauth_4432
1250,"(77, 123, 174, 64)",2,mbtiauth_4432
1251,"(77, 123, 174, 65)",2,mbtiauth_4432
1252,"(77, 202, 171, 33)",2,mbtiauth_4432
1253,"(77, 1700, 77, 77)",2,mbtiauth_4432
1254,"(123, 50, 77, 2)",2,mbtiauth_4432
1255,"(123, 64, 65, 32)",2,mbtiauth_4432
1256,"(123, 64, 65, 77)",2,mbtiauth_4432
1257,"(123, 64, 65, 2570)",2,mbtiauth_4432
1258,"(123, 64, 67, 65)",2,mbtiauth_4432
1259,"(123, 64, 67, 2570)",2,mbtiauth_4432
1260,"(123, 64, 77, 123)",3,mbtiauth_4432
1261,"(123, 64, 77, 599)",2,mbtiauth_4432
1262,"(123, 65, 77, 123)",3,mbtiauth_4432
1263,"(123, 67, 65, 2570)",2,mbtiauth_4432
1264,"(123, 77, 123, 120)",2,mbtiauth_4432
1265,"(123, 120, 77, 77)",2,mbtiauth_4432
1266,"(123, 120, 441, 64)",2,mbtiauth_4432
1267,"(123, 151, 123, 356)",2,mbtiauth_4432
1268,"(123, 165, 64, 65)",2,mbtiauth_4432
1269,"(123, 165, 64, 67)",2,mbtiauth_4432
1270,"(123, 165, 64, 2570)",2,mbtiauth_4432
1271,"(123, 165, 65, 2570)",2,mbtiauth_4432
1272,"(123, 165, 67, 65)",2,mbtiauth_4432
1273,"(123, 165, 67, 2570)",2,mbtiauth_4432
1274,"(123, 165, 613, 64)",2,mbtiauth_4432
1275,"(123, 165, 613, 65)",2,mbtiauth_4432
1276,"(123, 165, 613, 67)",2,mbtiauth_4432
1277,"(123, 165, 613, 2570)",2,mbtiauth_4432
1278,"(123, 174, 64, 65)",2,mbtiauth_4432
1279,"(123, 206, 123, 356)",2,mbtiauth_4432
1280,"(123, 206, 151, 123)",2,mbtiauth_4432
1281,"(123, 206, 151, 356)",2,mbtiauth_4432
1282,"(123, 356, 65, 6562)",2,mbtiauth_4432
1283,"(123, 425, 65, 77)",2,mbtiauth_4432
1284,"(123, 441, 64, 77)",2,mbtiauth_4432
1285,"(123, 441, 668, 77)",2,mbtiauth_4432
1286,"(123, 537, 65, 6562)",2,mbtiauth_4432
1287,"(123, 613, 64, 65)",2,mbtiauth_4432
1288,"(123, 613, 64, 67)",2,mbtiauth_4432
1289,"(123, 613, 64, 2570)",2,mbtiauth_4432
1290,"(123, 613, 65, 2570)",2,mbtiauth_4432
1291,"(123, 613, 67, 65)",2,mbtiauth_4432
1292,"(123, 613, 67, 2570)",2,mbtiauth_4432
1293,"(154, 64, 77, 123)",2,mbtiauth_4432
1294,"(165, 64, 65, 2570)",2,mbtiauth_4432
1295,"(165, 64, 67, 65)",2,mbtiauth_4432
1296,"(165, 64, 67, 2570)",2,mbtiauth_4432
1297,"(165, 67, 65, 2570)",2,mbtiauth_4432
1298,"(165, 613, 64, 65)",2,mbtiauth_4432
1299,"(165, 613, 64, 67)",2,mbtiauth_4432
1300,"(165, 613, 64, 2570)",2,mbtiauth_4432
1301,"(165, 613, 65, 2570)",2,mbtiauth_4432
1302,"(165, 613, 67, 65)",2,mbtiauth_4432
1303,"(165, 613, 67, 2570)",2,mbtiauth_4432
1304,"(170, 201, 65, 308)",2,mbtiauth_4432
1305,"(206, 151, 123, 356)",2,mbtiauth_4432
1306,"(262, 77, 599, 123)",2,mbtiauth_4432
1307,"(268, 64, 77, 64)",2,mbtiauth_4432
1308,"(269, 395, 77, 64)",2,mbtiauth_4432
1309,"(356, 77, 123, 356)",2,mbtiauth_4432
1310,"(356, 77, 599, 123)",2,mbtiauth_4432
1311,"(441, 77, 599, 123)",2,mbtiauth_4432
1312,"(613, 64, 65, 2570)",2,mbtiauth_4432
1313,"(613, 64, 67, 65)",2,mbtiauth_4432
1314,"(613, 64, 67, 2570)",2,mbtiauth_4432
1315,"(613, 67, 65, 2570)",2,mbtiauth_4432
1316,"(1164, 123, 123, 356)",2,mbtiauth_4432
1317,"(1164, 123, 151, 123)",2,mbtiauth_4432
1318,"(1164, 123, 151, 356)",2,mbtiauth_4432
1319,"(1164, 123, 206, 123)",2,mbtiauth_4432
1320,"(1164, 123, 206, 151)",2,mbtiauth_4432
1321,"(1164, 123, 206, 356)",2,mbtiauth_4432
1322,"(1164, 151, 123, 356)",2,mbtiauth_4432
1323,"(1164, 206, 123, 356)",2,mbtiauth_4432
1324,"(1164, 206, 151, 123)",2,mbtiauth_4432
1325,"(1164, 206, 151, 356)",2,mbtiauth_4432
1326,"(1386, 77, 171, 33)",2,mbtiauth_4432
1327,"(1386, 77, 202, 33)",2,mbtiauth_4432
1328,"(1386, 77, 202, 171)",2,mbtiauth_4432
1329,"(1386, 202, 171, 33)",2,mbtiauth_4432
1330,"(16, 64, 67, 77, 123)",2,mbtiauth_4432
1331,"(50, 50, 77, 50, 77)",2,mbtiauth_4432
1332,"(50, 77, 50, 50, 77)",2,mbtiauth_4432
1333,"(50, 77, 50, 77, 50)",2,mbtiauth_4432
1334,"(50, 77, 50, 77, 77)",2,mbtiauth_4432
1335,"(50, 77, 77, 50, 77)",2,mbtiauth_4432
1336,"(77, 50, 77, 50, 77)",2,mbtiauth_4432
1337,"(123, 64, 67, 65, 2570)",2,mbtiauth_4432
1338,"(123, 165, 64, 65, 2570)",2,mbtiauth_4432
1339,"(123, 165, 64, 67, 65)",2,mbtiauth_4432
1340,"(123, 165, 64, 67, 2570)",2,mbtiauth_4432
1341,"(123, 165, 67, 65, 2570)",2,mbtiauth_4432
1342,"(123, 165, 613, 64, 65)",2,mbtiauth_4432
1343,"(123, 165, 613, 64, 67)",2,mbtiauth_4432
1344,"(123, 165, 613, 64, 2570)",2,mbtiauth_4432
1345,"(123, 165, 613, 65, 2570)",2,mbtiauth_4432
1346,"(123, 165, 613, 67, 65)",2,mbtiauth_4432
1347,"(123, 165, 613, 67, 2570)",2,mbtiauth_4432
1348,"(123, 206, 151, 123, 356)",2,mbtiauth_4432
1349,"(123, 613, 64, 65, 2570)",2,mbtiauth_4432
1350,"(123, 613, 64, 67, 65)",2,mbtiauth_4432
1351,"(123, 613, 64, 67, 2570)",2,mbtiauth_4432
1352,"(123, 613, 67, 65, 2570)",2,mbtiauth_4432
1353,"(165, 64, 67, 65, 2570)",2,mbtiauth_4432
1354,"(165, 613, 64, 65, 2570)",2,mbtiauth_4432
1355,"(165, 613, 64, 67, 65)",2,mbtiauth_4432
1356,"(165, 613, 64, 67, 2570)",2,mbtiauth_4432
1357,"(165, 613, 67, 65, 2570)",2,mbtiauth_4432
1358,"(613, 64, 67, 65, 2570)",2,mbtiauth_4432
1359,"(1164, 123, 151, 123, 356)",2,mbtiauth_4432
1360,"(1164, 123, 206, 123, 356)",2,mbtiauth_4432
1361,"(1164, 123, 206, 151, 123)",2,mbtiauth_4432
1362,"(1164, 123, 206, 151, 356)",2,mbtiauth_4432
1363,"(1164, 206, 151, 123, 356)",2,mbtiauth_4432
1364,"(1386, 77, 202, 171, 33)",2,mbtiauth_4432
1365,"(50, 77, 50, 77, 50, 77)",2,mbtiauth_4432
1366,"(123, 165, 64, 67, 65, 2570)",2,mbtiauth_4432
1367,"(123, 165, 613, 64, 65, 2570)",2,mbtiauth_4432
1368,"(123, 165, 613, 64, 67, 65)",2,mbtiauth_4432
1369,"(123, 165, 613, 64, 67, 2570)",2,mbtiauth_4432
1370,"(123, 165, 613, 67, 65, 2570)",2,mbtiauth_4432
1371,"(123, 613, 64, 67, 65, 2570)",2,mbtiauth_4432
1372,"(165, 613, 64, 67, 65, 2570)",2,mbtiauth_4432
1373,"(1164, 123, 206, 151, 123, 356)",2,mbtiauth_4432
1374,"(123, 165, 613, 64, 67, 65, 2570)",2,mbtiauth_4432
