,pattern,sup,author
942,"(2, 10, 64)",2,mbtiauth_4311
943,"(2, 22, 64)",2,mbtiauth_4311
944,"(2, 64, 32)",2,mbtiauth_4311
945,"(2, 64, 65)",2,mbtiauth_4311
946,"(2, 64, 123)",2,mbtiauth_4311
947,"(2, 65, 77)",2,mbtiauth_4311
948,"(2, 65, 1219)",2,mbtiauth_4311
949,"(2, 65, 7112)",2,mbtiauth_4311
950,"(2, 77, 2)",2,mbtiauth_4311
951,"(2, 77, 599)",2,mbtiauth_4311
952,"(2, 123, 10)",2,mbtiauth_4311
953,"(2, 123, 32)",2,mbtiauth_4311
954,"(2, 123, 64)",3,mbtiauth_4311
955,"(2, 123, 65)",2,mbtiauth_4311
956,"(2, 123, 77)",2,mbtiauth_4311
957,"(2, 123, 286)",2,mbtiauth_4311
958,"(2, 123, 326)",2,mbtiauth_4311
959,"(2, 164, 50)",3,mbtiauth_4311
960,"(2, 193, 64)",2,mbtiauth_4311
961,"(2, 212, 64)",2,mbtiauth_4311
962,"(2, 213, 154)",2,mbtiauth_4311
963,"(2, 656, 64)",2,mbtiauth_4311
964,"(2, 656, 123)",2,mbtiauth_4311
965,"(2, 3951, 4922)",2,mbtiauth_4311
966,"(2, 9635, 164)",2,mbtiauth_4311
967,"(10, 2, 123)",2,mbtiauth_4311
968,"(10, 65, 2)",2,mbtiauth_4311
969,"(10, 77, 2)",2,mbtiauth_4311
970,"(10, 123, 64)",2,mbtiauth_4311
971,"(15, 225, 441)",2,mbtiauth_4311
972,"(22, 2, 64)",2,mbtiauth_4311
973,"(22, 2, 123)",2,mbtiauth_4311
974,"(22, 22, 146)",2,mbtiauth_4311
975,"(22, 32, 22)",2,mbtiauth_4311
976,"(22, 32, 65)",2,mbtiauth_4311
977,"(22, 65, 153)",2,mbtiauth_4311
978,"(22, 65, 1219)",2,mbtiauth_4311
979,"(22, 67, 22)",2,mbtiauth_4311
980,"(22, 123, 286)",2,mbtiauth_4311
981,"(22, 154, 33)",2,mbtiauth_4311
982,"(22, 156, 65)",2,mbtiauth_4311
983,"(22, 171, 22)",2,mbtiauth_4311
984,"(22, 171, 67)",2,mbtiauth_4311
985,"(22, 417, 41)",2,mbtiauth_4311
986,"(22, 889, 2)",2,mbtiauth_4311
987,"(22, 889, 123)",2,mbtiauth_4311
988,"(22, 1335, 444)",2,mbtiauth_4311
989,"(22, 5726, 171)",2,mbtiauth_4311
990,"(22, 5753, 2)",2,mbtiauth_4311
991,"(29, 32, 64)",2,mbtiauth_4311
992,"(29, 32, 21419)",2,mbtiauth_4311
993,"(29, 9036, 32)",2,mbtiauth_4311
994,"(29, 9036, 64)",2,mbtiauth_4311
995,"(29, 9036, 21419)",2,mbtiauth_4311
996,"(29, 21419, 64)",2,mbtiauth_4311
997,"(31, 32, 22)",2,mbtiauth_4311
998,"(32, 2, 123)",3,mbtiauth_4311
999,"(32, 22, 2)",2,mbtiauth_4311
1000,"(32, 22, 123)",2,mbtiauth_4311
1001,"(32, 22, 222)",2,mbtiauth_4311
1002,"(32, 32, 4377)",2,mbtiauth_4311
1003,"(32, 65, 32)",2,mbtiauth_4311
1004,"(32, 65, 1219)",3,mbtiauth_4311
1005,"(32, 77, 599)",3,mbtiauth_4311
1006,"(32, 164, 65)",2,mbtiauth_4311
1007,"(32, 164, 1219)",2,mbtiauth_4311
1008,"(32, 1219, 32)",2,mbtiauth_4311
1009,"(32, 21419, 64)",2,mbtiauth_4311
1010,"(41, 32, 164)",2,mbtiauth_4311
1011,"(50, 22, 3092)",2,mbtiauth_4311
1012,"(64, 22, 2)",2,mbtiauth_4311
1013,"(64, 22, 349)",2,mbtiauth_4311
1014,"(64, 22, 444)",2,mbtiauth_4311
1015,"(64, 22, 1335)",2,mbtiauth_4311
1016,"(64, 64, 2)",2,mbtiauth_4311
1017,"(64, 64, 144)",2,mbtiauth_4311
1018,"(64, 144, 123)",2,mbtiauth_4311
1019,"(64, 144, 1320)",2,mbtiauth_4311
1020,"(64, 222, 2)",2,mbtiauth_4311
1021,"(64, 1335, 444)",2,mbtiauth_4311
1022,"(65, 2, 32)",2,mbtiauth_4311
1023,"(65, 2, 50)",2,mbtiauth_4311
1024,"(65, 2, 64)",2,mbtiauth_4311
1025,"(65, 2, 123)",2,mbtiauth_4311
1026,"(65, 2, 244)",2,mbtiauth_4311
1027,"(65, 2, 872)",2,mbtiauth_4311
1028,"(65, 32, 2)",3,mbtiauth_4311
1029,"(65, 32, 32)",2,mbtiauth_4311
1030,"(65, 32, 123)",2,mbtiauth_4311
1031,"(65, 32, 4377)",2,mbtiauth_4311
1032,"(65, 77, 77)",2,mbtiauth_4311
1033,"(65, 82, 2)",2,mbtiauth_4311
1034,"(65, 254, 364)",2,mbtiauth_4311
1035,"(65, 381, 32)",2,mbtiauth_4311
1036,"(65, 401, 2)",2,mbtiauth_4311
1037,"(65, 401, 82)",2,mbtiauth_4311
1038,"(65, 531, 2)",2,mbtiauth_4311
1039,"(65, 656, 64)",2,mbtiauth_4311
1040,"(65, 1219, 2)",4,mbtiauth_4311
1041,"(65, 1219, 22)",2,mbtiauth_4311
1042,"(65, 1219, 32)",6,mbtiauth_4311
1043,"(65, 1219, 123)",2,mbtiauth_4311
1044,"(65, 1219, 167)",2,mbtiauth_4311
1045,"(65, 1219, 4377)",2,mbtiauth_4311
1046,"(65, 3131, 2)",2,mbtiauth_4311
1047,"(65, 3131, 64)",2,mbtiauth_4311
1048,"(65, 7112, 193)",2,mbtiauth_4311
1049,"(67, 22, 123)",2,mbtiauth_4311
1050,"(67, 773, 64)",2,mbtiauth_4311
1051,"(77, 2, 10)",2,mbtiauth_4311
1052,"(77, 2, 64)",2,mbtiauth_4311
1053,"(77, 10, 64)",2,mbtiauth_4311
1054,"(77, 22, 123)",2,mbtiauth_4311
1055,"(77, 65, 77)",2,mbtiauth_4311
1056,"(77, 77, 2)",2,mbtiauth_4311
1057,"(77, 77, 77)",2,mbtiauth_4311
1058,"(77, 123, 41)",2,mbtiauth_4311
1059,"(77, 123, 64)",2,mbtiauth_4311
1060,"(77, 123, 65)",2,mbtiauth_4311
1061,"(77, 123, 206)",3,mbtiauth_4311
1062,"(77, 123, 286)",2,mbtiauth_4311
1063,"(77, 123, 326)",2,mbtiauth_4311
1064,"(77, 123, 441)",2,mbtiauth_4311
1065,"(77, 286, 326)",2,mbtiauth_4311
1066,"(77, 441, 64)",2,mbtiauth_4311
1067,"(77, 599, 64)",3,mbtiauth_4311
1068,"(77, 599, 65)",2,mbtiauth_4311
1069,"(78, 2, 10)",2,mbtiauth_4311
1070,"(78, 1241, 78)",2,mbtiauth_4311
1071,"(120, 123, 64)",2,mbtiauth_4311
1072,"(120, 286, 64)",2,mbtiauth_4311
1073,"(120, 286, 123)",2,mbtiauth_4311
1074,"(120, 3676, 33)",2,mbtiauth_4311
1075,"(123, 2, 65)",2,mbtiauth_4311
1076,"(123, 2, 77)",2,mbtiauth_4311
1077,"(123, 2, 123)",2,mbtiauth_4311
1078,"(123, 3, 10)",2,mbtiauth_4311
1079,"(123, 10, 2)",2,mbtiauth_4311
1080,"(123, 22, 65)",2,mbtiauth_4311
1081,"(123, 22, 417)",2,mbtiauth_4311
1082,"(123, 22, 1219)",2,mbtiauth_4311
1083,"(123, 32, 2)",2,mbtiauth_4311
1084,"(123, 32, 4377)",2,mbtiauth_4311
1085,"(123, 33, 154)",3,mbtiauth_4311
1086,"(123, 41, 77)",2,mbtiauth_4311
1087,"(123, 64, 22)",4,mbtiauth_4311
1088,"(123, 64, 64)",2,mbtiauth_4311
1089,"(123, 64, 65)",2,mbtiauth_4311
1090,"(123, 64, 123)",2,mbtiauth_4311
1091,"(123, 64, 144)",2,mbtiauth_4311
1092,"(123, 64, 225)",2,mbtiauth_4311
1093,"(123, 64, 254)",2,mbtiauth_4311
1094,"(123, 64, 356)",2,mbtiauth_4311
1095,"(123, 64, 411)",2,mbtiauth_4311
1096,"(123, 65, 2)",4,mbtiauth_4311
1097,"(123, 65, 32)",3,mbtiauth_4311
1098,"(123, 65, 77)",2,mbtiauth_4311
1099,"(123, 65, 164)",2,mbtiauth_4311
1100,"(123, 65, 531)",2,mbtiauth_4311
1101,"(123, 65, 1219)",6,mbtiauth_4311
1102,"(123, 65, 3131)",2,mbtiauth_4311
1103,"(123, 65, 7112)",2,mbtiauth_4311
1104,"(123, 67, 64)",2,mbtiauth_4311
1105,"(123, 78, 1241)",2,mbtiauth_4311
1106,"(123, 120, 64)",3,mbtiauth_4311
1107,"(123, 120, 123)",2,mbtiauth_4311
1108,"(123, 120, 286)",2,mbtiauth_4311
1109,"(123, 120, 3676)",2,mbtiauth_4311
1110,"(123, 123, 22)",2,mbtiauth_4311
1111,"(123, 123, 64)",2,mbtiauth_4311
1112,"(123, 123, 65)",2,mbtiauth_4311
1113,"(123, 123, 67)",2,mbtiauth_4311
1114,"(123, 123, 206)",2,mbtiauth_4311
1115,"(123, 123, 407)",2,mbtiauth_4311
1116,"(123, 144, 151)",2,mbtiauth_4311
1117,"(123, 144, 254)",2,mbtiauth_4311
1118,"(123, 154, 31)",2,mbtiauth_4311
1119,"(123, 154, 65)",4,mbtiauth_4311
1120,"(123, 154, 123)",3,mbtiauth_4311
1121,"(123, 154, 523)",2,mbtiauth_4311
1122,"(123, 164, 22)",2,mbtiauth_4311
1123,"(123, 170, 326)",2,mbtiauth_4311
1124,"(123, 174, 65)",2,mbtiauth_4311
1125,"(123, 193, 2)",2,mbtiauth_4311
1126,"(123, 206, 22)",2,mbtiauth_4311
1127,"(123, 206, 41)",2,mbtiauth_4311
1128,"(123, 206, 64)",2,mbtiauth_4311
1129,"(123, 206, 65)",3,mbtiauth_4311
1130,"(123, 206, 77)",2,mbtiauth_4311
1131,"(123, 206, 123)",2,mbtiauth_4311
1132,"(123, 206, 517)",2,mbtiauth_4311
1133,"(123, 206, 599)",2,mbtiauth_4311
1134,"(123, 210, 41)",2,mbtiauth_4311
1135,"(123, 210, 67)",2,mbtiauth_4311
1136,"(123, 210, 151)",2,mbtiauth_4311
1137,"(123, 212, 22)",2,mbtiauth_4311
1138,"(123, 212, 64)",3,mbtiauth_4311
1139,"(123, 236, 284)",2,mbtiauth_4311
1140,"(123, 254, 123)",3,mbtiauth_4311
1141,"(123, 254, 193)",2,mbtiauth_4311
1142,"(123, 286, 2)",2,mbtiauth_4311
1143,"(123, 286, 64)",2,mbtiauth_4311
1144,"(123, 286, 123)",3,mbtiauth_4311
1145,"(123, 286, 151)",2,mbtiauth_4311
1146,"(123, 286, 170)",2,mbtiauth_4311
1147,"(123, 286, 193)",2,mbtiauth_4311
1148,"(123, 286, 254)",3,mbtiauth_4311
1149,"(123, 286, 326)",2,mbtiauth_4311
1150,"(123, 326, 254)",2,mbtiauth_4311
1151,"(123, 326, 274)",2,mbtiauth_4311
1152,"(123, 326, 2849)",2,mbtiauth_4311
1153,"(123, 356, 22)",3,mbtiauth_4311
1154,"(123, 356, 65)",2,mbtiauth_4311
1155,"(123, 407, 33)",2,mbtiauth_4311
1156,"(123, 407, 65)",2,mbtiauth_4311
1157,"(123, 407, 411)",2,mbtiauth_4311
1158,"(123, 441, 2)",3,mbtiauth_4311
1159,"(123, 441, 22)",2,mbtiauth_4311
1160,"(123, 441, 64)",3,mbtiauth_4311
1161,"(123, 441, 65)",3,mbtiauth_4311
1162,"(123, 441, 411)",2,mbtiauth_4311
1163,"(123, 441, 668)",2,mbtiauth_4311
1164,"(123, 520, 33)",2,mbtiauth_4311
1165,"(123, 520, 154)",2,mbtiauth_4311
1166,"(123, 524, 531)",2,mbtiauth_4311
1167,"(123, 524, 858)",2,mbtiauth_4311
1168,"(123, 531, 2)",2,mbtiauth_4311
1169,"(123, 531, 858)",2,mbtiauth_4311
1170,"(123, 668, 2)",2,mbtiauth_4311
1171,"(123, 715, 164)",2,mbtiauth_4311
1172,"(123, 777, 65)",2,mbtiauth_4311
1173,"(123, 1219, 32)",3,mbtiauth_4311
1174,"(123, 1758, 356)",2,mbtiauth_4311
1175,"(144, 254, 123)",2,mbtiauth_4311
1176,"(151, 2, 10)",3,mbtiauth_4311
1177,"(151, 77, 599)",2,mbtiauth_4311
1178,"(152, 117, 124)",2,mbtiauth_4311
1179,"(154, 41, 22)",2,mbtiauth_4311
1180,"(154, 65, 32)",2,mbtiauth_4311
1181,"(154, 65, 1219)",2,mbtiauth_4311
1182,"(154, 123, 65)",3,mbtiauth_4311
1183,"(154, 123, 407)",3,mbtiauth_4311
1184,"(154, 123, 411)",2,mbtiauth_4311
1185,"(154, 407, 65)",2,mbtiauth_4311
1186,"(154, 407, 411)",2,mbtiauth_4311
1187,"(154, 1219, 32)",2,mbtiauth_4311
1188,"(162, 193, 64)",2,mbtiauth_4311
1189,"(162, 193, 1210)",2,mbtiauth_4311
1190,"(162, 1210, 64)",2,mbtiauth_4311
1191,"(164, 2, 32)",2,mbtiauth_4311
1192,"(164, 2, 326)",2,mbtiauth_4311
1193,"(164, 50, 32)",2,mbtiauth_4311
1194,"(164, 65, 1219)",3,mbtiauth_4311
1195,"(165, 67, 123)",2,mbtiauth_4311
1196,"(165, 67, 164)",2,mbtiauth_4311
1197,"(170, 123, 170)",2,mbtiauth_4311
1198,"(170, 154, 41)",2,mbtiauth_4311
1199,"(170, 326, 170)",2,mbtiauth_4311
1200,"(171, 67, 22)",2,mbtiauth_4311
1201,"(193, 2, 65)",3,mbtiauth_4311
1202,"(193, 2, 123)",2,mbtiauth_4311
1203,"(193, 10, 2)",2,mbtiauth_4311
1204,"(193, 64, 152)",2,mbtiauth_4311
1205,"(193, 65, 2)",2,mbtiauth_4311
1206,"(193, 1210, 64)",2,mbtiauth_4311
1207,"(198, 32, 123)",2,mbtiauth_4311
1208,"(206, 22, 417)",2,mbtiauth_4311
1209,"(206, 64, 123)",2,mbtiauth_4311
1210,"(212, 64, 22)",2,mbtiauth_4311
1211,"(222, 2, 32)",2,mbtiauth_4311
1212,"(222, 2, 50)",2,mbtiauth_4311
1213,"(222, 2, 123)",3,mbtiauth_4311
1214,"(222, 32, 123)",2,mbtiauth_4311
1215,"(222, 65, 2)",2,mbtiauth_4311
1216,"(222, 65, 50)",2,mbtiauth_4311
1217,"(222, 65, 1219)",2,mbtiauth_4311
1218,"(222, 123, 10)",2,mbtiauth_4311
1219,"(222, 151, 10)",2,mbtiauth_4311
1220,"(225, 369, 183)",2,mbtiauth_4311
1221,"(246, 77, 123)",2,mbtiauth_4311
1222,"(254, 123, 2)",2,mbtiauth_4311
1223,"(254, 193, 2)",2,mbtiauth_4311
1224,"(254, 206, 77)",2,mbtiauth_4311
1225,"(260, 531, 2)",2,mbtiauth_4311
1226,"(284, 67, 326)",2,mbtiauth_4311
1227,"(286, 65, 1219)",2,mbtiauth_4311
1228,"(286, 123, 64)",2,mbtiauth_4311
1229,"(286, 123, 206)",2,mbtiauth_4311
1230,"(286, 254, 193)",2,mbtiauth_4311
1231,"(291, 41, 286)",2,mbtiauth_4311
1232,"(326, 123, 441)",2,mbtiauth_4311
1233,"(401, 82, 2)",2,mbtiauth_4311
1234,"(441, 64, 411)",2,mbtiauth_4311
1235,"(441, 65, 2)",2,mbtiauth_4311
1236,"(441, 65, 134)",2,mbtiauth_4311
1237,"(441, 668, 2)",2,mbtiauth_4311
1238,"(520, 33, 154)",3,mbtiauth_4311
1239,"(520, 64, 65)",2,mbtiauth_4311
1240,"(520, 123, 1758)",2,mbtiauth_4311
1241,"(524, 531, 2)",2,mbtiauth_4311
1242,"(524, 531, 858)",2,mbtiauth_4311
1243,"(524, 858, 2)",2,mbtiauth_4311
1244,"(531, 2, 32)",2,mbtiauth_4311
1245,"(531, 2, 123)",3,mbtiauth_4311
1246,"(531, 858, 2)",2,mbtiauth_4311
1247,"(599, 22, 22)",2,mbtiauth_4311
1248,"(599, 123, 22)",2,mbtiauth_4311
1249,"(599, 123, 64)",2,mbtiauth_4311
1250,"(599, 123, 120)",2,mbtiauth_4311
1251,"(656, 64, 123)",2,mbtiauth_4311
1252,"(889, 2, 123)",2,mbtiauth_4311
1253,"(951, 10024, 1896)",2,mbtiauth_4311
1254,"(1219, 32, 2)",3,mbtiauth_4311
1255,"(1219, 32, 123)",2,mbtiauth_4311
1256,"(1219, 32, 4377)",2,mbtiauth_4311
1257,"(1220, 123, 123)",2,mbtiauth_4311
1258,"(1220, 123, 286)",2,mbtiauth_4311
1259,"(1220, 286, 123)",2,mbtiauth_4311
1260,"(1226, 1900, 2773)",2,mbtiauth_4311
1261,"(1226, 1900, 8102)",2,mbtiauth_4311
1262,"(1226, 2773, 8102)",2,mbtiauth_4311
1263,"(1226, 2849, 8102)",2,mbtiauth_4311
1264,"(1241, 78, 2)",2,mbtiauth_4311
1265,"(1313, 64, 10)",2,mbtiauth_4311
1266,"(1313, 64, 77)",2,mbtiauth_4311
1267,"(1478, 29, 32)",2,mbtiauth_4311
1268,"(1478, 29, 64)",2,mbtiauth_4311
1269,"(1478, 29, 9036)",2,mbtiauth_4311
1270,"(1478, 29, 21419)",2,mbtiauth_4311
1271,"(1478, 32, 64)",2,mbtiauth_4311
1272,"(1478, 32, 21419)",2,mbtiauth_4311
1273,"(1478, 9036, 32)",2,mbtiauth_4311
1274,"(1478, 9036, 64)",2,mbtiauth_4311
1275,"(1478, 9036, 21419)",2,mbtiauth_4311
1276,"(1478, 21419, 64)",2,mbtiauth_4311
1277,"(1900, 2, 2849)",2,mbtiauth_4311
1278,"(1900, 2773, 2849)",2,mbtiauth_4311
1279,"(1900, 2773, 8102)",2,mbtiauth_4311
1280,"(1900, 2849, 8102)",2,mbtiauth_4311
1281,"(1900, 8102, 2849)",2,mbtiauth_4311
1282,"(2426, 358, 77)",2,mbtiauth_4311
1283,"(2773, 8102, 2849)",2,mbtiauth_4311
1284,"(2849, 2849, 1896)",2,mbtiauth_4311
1285,"(4922, 2, 3951)",2,mbtiauth_4311
1286,"(4922, 2, 4922)",2,mbtiauth_4311
1287,"(4922, 3951, 4922)",2,mbtiauth_4311
1288,"(8102, 2849, 32)",2,mbtiauth_4311
1289,"(9036, 32, 64)",2,mbtiauth_4311
1290,"(9036, 32, 21419)",2,mbtiauth_4311
1291,"(9036, 21419, 64)",2,mbtiauth_4311
1292,"(2, 656, 64, 123)",2,mbtiauth_4311
1293,"(22, 171, 67, 22)",2,mbtiauth_4311
1294,"(22, 889, 2, 123)",2,mbtiauth_4311
1295,"(29, 32, 21419, 64)",2,mbtiauth_4311
1296,"(29, 9036, 32, 64)",2,mbtiauth_4311
1297,"(29, 9036, 32, 21419)",2,mbtiauth_4311
1298,"(29, 9036, 21419, 64)",2,mbtiauth_4311
1299,"(32, 65, 1219, 32)",2,mbtiauth_4311
1300,"(32, 164, 65, 1219)",2,mbtiauth_4311
1301,"(64, 22, 1335, 444)",2,mbtiauth_4311
1302,"(65, 401, 82, 2)",2,mbtiauth_4311
1303,"(65, 1219, 32, 2)",3,mbtiauth_4311
1304,"(65, 1219, 32, 123)",2,mbtiauth_4311
1305,"(65, 1219, 32, 4377)",2,mbtiauth_4311
1306,"(77, 2, 10, 64)",2,mbtiauth_4311
1307,"(77, 123, 286, 326)",2,mbtiauth_4311
1308,"(77, 123, 441, 64)",2,mbtiauth_4311
1309,"(120, 286, 123, 64)",2,mbtiauth_4311
1310,"(123, 22, 65, 1219)",2,mbtiauth_4311
1311,"(123, 65, 531, 2)",2,mbtiauth_4311
1312,"(123, 65, 1219, 32)",3,mbtiauth_4311
1313,"(123, 120, 123, 64)",2,mbtiauth_4311
1314,"(123, 120, 286, 64)",2,mbtiauth_4311
1315,"(123, 120, 286, 123)",2,mbtiauth_4311
1316,"(123, 154, 123, 65)",2,mbtiauth_4311
1317,"(123, 206, 64, 123)",2,mbtiauth_4311
1318,"(123, 212, 64, 22)",2,mbtiauth_4311
1319,"(123, 286, 123, 64)",2,mbtiauth_4311
1320,"(123, 286, 254, 193)",2,mbtiauth_4311
1321,"(123, 441, 64, 411)",2,mbtiauth_4311
1322,"(123, 441, 65, 2)",2,mbtiauth_4311
1323,"(123, 441, 668, 2)",2,mbtiauth_4311
1324,"(123, 520, 33, 154)",2,mbtiauth_4311
1325,"(123, 524, 531, 858)",2,mbtiauth_4311
1326,"(154, 65, 1219, 32)",2,mbtiauth_4311
1327,"(154, 123, 407, 65)",2,mbtiauth_4311
1328,"(154, 123, 407, 411)",2,mbtiauth_4311
1329,"(162, 193, 1210, 64)",2,mbtiauth_4311
1330,"(222, 65, 2, 50)",2,mbtiauth_4311
1331,"(524, 531, 858, 2)",2,mbtiauth_4311
1332,"(1220, 123, 286, 123)",2,mbtiauth_4311
1333,"(1226, 1900, 2773, 8102)",2,mbtiauth_4311
1334,"(1478, 29, 32, 64)",2,mbtiauth_4311
1335,"(1478, 29, 32, 21419)",2,mbtiauth_4311
1336,"(1478, 29, 9036, 32)",2,mbtiauth_4311
1337,"(1478, 29, 9036, 64)",2,mbtiauth_4311
1338,"(1478, 29, 9036, 21419)",2,mbtiauth_4311
1339,"(1478, 29, 21419, 64)",2,mbtiauth_4311
1340,"(1478, 32, 21419, 64)",2,mbtiauth_4311
1341,"(1478, 9036, 32, 64)",2,mbtiauth_4311
1342,"(1478, 9036, 32, 21419)",2,mbtiauth_4311
1343,"(1478, 9036, 21419, 64)",2,mbtiauth_4311
1344,"(1900, 2773, 8102, 2849)",2,mbtiauth_4311
1345,"(4922, 2, 3951, 4922)",2,mbtiauth_4311
1346,"(9036, 32, 21419, 64)",2,mbtiauth_4311
1347,"(29, 9036, 32, 21419, 64)",2,mbtiauth_4311
1348,"(123, 120, 286, 123, 64)",2,mbtiauth_4311
1349,"(1478, 29, 32, 21419, 64)",2,mbtiauth_4311
1350,"(1478, 29, 9036, 32, 64)",2,mbtiauth_4311
1351,"(1478, 29, 9036, 32, 21419)",2,mbtiauth_4311
1352,"(1478, 29, 9036, 21419, 64)",2,mbtiauth_4311
1353,"(1478, 9036, 32, 21419, 64)",2,mbtiauth_4311
1354,"(1478, 29, 9036, 32, 21419, 64)",2,mbtiauth_4311
