,pattern,sup,author
537,"(2, 16, 64)",2,mbtiauth_8468
538,"(10, 22, 77)",2,mbtiauth_8468
539,"(16, 326, 77)",2,mbtiauth_8468
540,"(16, 2602, 64)",2,mbtiauth_8468
541,"(22, 32, 2)",2,mbtiauth_8468
542,"(22, 32, 77)",2,mbtiauth_8468
543,"(22, 77, 2)",3,mbtiauth_8468
544,"(22, 198, 32)",2,mbtiauth_8468
545,"(27, 170, 77)",2,mbtiauth_8468
546,"(32, 65, 154)",2,mbtiauth_8468
547,"(32, 77, 2)",2,mbtiauth_8468
548,"(41, 29, 164)",2,mbtiauth_8468
549,"(41, 64, 77)",2,mbtiauth_8468
550,"(41, 765, 77)",2,mbtiauth_8468
551,"(50, 16, 22)",2,mbtiauth_8468
552,"(50, 165, 67)",2,mbtiauth_8468
553,"(64, 41, 41)",2,mbtiauth_8468
554,"(64, 50, 165)",2,mbtiauth_8468
555,"(64, 77, 2)",2,mbtiauth_8468
556,"(64, 77, 123)",2,mbtiauth_8468
557,"(64, 77, 193)",2,mbtiauth_8468
558,"(64, 77, 765)",2,mbtiauth_8468
559,"(64, 123, 77)",2,mbtiauth_8468
560,"(64, 154, 165)",2,mbtiauth_8468
561,"(64, 765, 77)",2,mbtiauth_8468
562,"(64, 765, 123)",2,mbtiauth_8468
563,"(64, 18847, 2)",2,mbtiauth_8468
564,"(65, 2, 123)",2,mbtiauth_8468
565,"(65, 2, 165)",2,mbtiauth_8468
566,"(65, 32, 22)",2,mbtiauth_8468
567,"(65, 32, 77)",2,mbtiauth_8468
568,"(65, 32, 123)",2,mbtiauth_8468
569,"(65, 75, 77)",2,mbtiauth_8468
570,"(65, 77, 22)",2,mbtiauth_8468
571,"(65, 77, 123)",2,mbtiauth_8468
572,"(65, 77, 599)",2,mbtiauth_8468
573,"(65, 123, 22)",2,mbtiauth_8468
574,"(65, 154, 123)",2,mbtiauth_8468
575,"(65, 164, 222)",2,mbtiauth_8468
576,"(65, 599, 123)",2,mbtiauth_8468
577,"(65, 668, 2)",2,mbtiauth_8468
578,"(65, 668, 123)",2,mbtiauth_8468
579,"(65, 2935, 64)",2,mbtiauth_8468
580,"(65, 3045, 164)",2,mbtiauth_8468
581,"(65, 3045, 222)",2,mbtiauth_8468
582,"(67, 16, 64)",2,mbtiauth_8468
583,"(77, 2, 64)",2,mbtiauth_8468
584,"(77, 2, 170)",2,mbtiauth_8468
585,"(77, 2, 244)",2,mbtiauth_8468
586,"(77, 50, 1602)",2,mbtiauth_8468
587,"(77, 64, 67)",2,mbtiauth_8468
588,"(77, 65, 64)",2,mbtiauth_8468
589,"(77, 65, 6901)",2,mbtiauth_8468
590,"(77, 70, 65)",2,mbtiauth_8468
591,"(77, 77, 2)",4,mbtiauth_8468
592,"(77, 77, 170)",2,mbtiauth_8468
593,"(77, 77, 244)",2,mbtiauth_8468
594,"(77, 123, 22)",3,mbtiauth_8468
595,"(77, 123, 32)",2,mbtiauth_8468
596,"(77, 123, 64)",2,mbtiauth_8468
597,"(77, 123, 65)",3,mbtiauth_8468
598,"(77, 123, 123)",4,mbtiauth_8468
599,"(77, 123, 193)",2,mbtiauth_8468
600,"(77, 123, 210)",2,mbtiauth_8468
601,"(77, 123, 407)",2,mbtiauth_8468
602,"(77, 123, 765)",2,mbtiauth_8468
603,"(77, 123, 1030)",2,mbtiauth_8468
604,"(77, 123, 6901)",2,mbtiauth_8468
605,"(77, 154, 165)",2,mbtiauth_8468
606,"(77, 165, 64)",2,mbtiauth_8468
607,"(77, 193, 2)",2,mbtiauth_8468
608,"(77, 198, 32)",2,mbtiauth_8468
609,"(77, 210, 765)",2,mbtiauth_8468
610,"(77, 244, 2)",2,mbtiauth_8468
611,"(77, 244, 193)",2,mbtiauth_8468
612,"(77, 268, 2)",2,mbtiauth_8468
613,"(77, 268, 77)",2,mbtiauth_8468
614,"(77, 268, 193)",2,mbtiauth_8468
615,"(77, 285, 41)",2,mbtiauth_8468
616,"(77, 340, 236)",2,mbtiauth_8468
617,"(77, 364, 10)",2,mbtiauth_8468
618,"(77, 599, 123)",4,mbtiauth_8468
619,"(77, 2095, 4270)",2,mbtiauth_8468
620,"(123, 32, 77)",2,mbtiauth_8468
621,"(123, 64, 50)",2,mbtiauth_8468
622,"(123, 64, 77)",4,mbtiauth_8468
623,"(123, 64, 144)",3,mbtiauth_8468
624,"(123, 64, 154)",4,mbtiauth_8468
625,"(123, 65, 32)",4,mbtiauth_8468
626,"(123, 65, 64)",2,mbtiauth_8468
627,"(123, 65, 65)",2,mbtiauth_8468
628,"(123, 65, 75)",2,mbtiauth_8468
629,"(123, 65, 77)",2,mbtiauth_8468
630,"(123, 65, 123)",2,mbtiauth_8468
631,"(123, 65, 154)",2,mbtiauth_8468
632,"(123, 65, 164)",2,mbtiauth_8468
633,"(123, 65, 3045)",2,mbtiauth_8468
634,"(123, 65, 6901)",2,mbtiauth_8468
635,"(123, 77, 2)",3,mbtiauth_8468
636,"(123, 77, 22)",2,mbtiauth_8468
637,"(123, 77, 77)",2,mbtiauth_8468
638,"(123, 77, 123)",3,mbtiauth_8468
639,"(123, 77, 154)",2,mbtiauth_8468
640,"(123, 77, 193)",3,mbtiauth_8468
641,"(123, 77, 599)",2,mbtiauth_8468
642,"(123, 120, 22)",2,mbtiauth_8468
643,"(123, 120, 154)",2,mbtiauth_8468
644,"(123, 120, 477)",2,mbtiauth_8468
645,"(123, 123, 50)",2,mbtiauth_8468
646,"(123, 123, 64)",4,mbtiauth_8468
647,"(123, 123, 77)",2,mbtiauth_8468
648,"(123, 123, 165)",3,mbtiauth_8468
649,"(123, 123, 190)",2,mbtiauth_8468
650,"(123, 123, 441)",2,mbtiauth_8468
651,"(123, 123, 1320)",2,mbtiauth_8468
652,"(123, 144, 32)",2,mbtiauth_8468
653,"(123, 144, 65)",2,mbtiauth_8468
654,"(123, 144, 77)",2,mbtiauth_8468
655,"(123, 144, 441)",2,mbtiauth_8468
656,"(123, 154, 64)",2,mbtiauth_8468
657,"(123, 154, 123)",2,mbtiauth_8468
658,"(123, 154, 193)",2,mbtiauth_8468
659,"(123, 160, 64)",2,mbtiauth_8468
660,"(123, 165, 64)",5,mbtiauth_8468
661,"(123, 165, 77)",2,mbtiauth_8468
662,"(123, 165, 123)",2,mbtiauth_8468
663,"(123, 165, 154)",3,mbtiauth_8468
664,"(123, 190, 50)",2,mbtiauth_8468
665,"(123, 190, 64)",2,mbtiauth_8468
666,"(123, 193, 64)",2,mbtiauth_8468
667,"(123, 210, 765)",2,mbtiauth_8468
668,"(123, 236, 50)",2,mbtiauth_8468
669,"(123, 236, 64)",2,mbtiauth_8468
670,"(123, 236, 123)",3,mbtiauth_8468
671,"(123, 236, 190)",2,mbtiauth_8468
672,"(123, 237, 193)",2,mbtiauth_8468
673,"(123, 268, 193)",2,mbtiauth_8468
674,"(123, 284, 65)",2,mbtiauth_8468
675,"(123, 284, 154)",2,mbtiauth_8468
676,"(123, 286, 64)",2,mbtiauth_8468
677,"(123, 340, 123)",2,mbtiauth_8468
678,"(123, 340, 154)",2,mbtiauth_8468
679,"(123, 340, 236)",2,mbtiauth_8468
680,"(123, 407, 65)",2,mbtiauth_8468
681,"(123, 407, 517)",3,mbtiauth_8468
682,"(123, 441, 32)",4,mbtiauth_8468
683,"(123, 441, 65)",4,mbtiauth_8468
684,"(123, 441, 77)",4,mbtiauth_8468
685,"(123, 441, 164)",2,mbtiauth_8468
686,"(123, 517, 64)",2,mbtiauth_8468
687,"(123, 517, 65)",4,mbtiauth_8468
688,"(123, 599, 123)",2,mbtiauth_8468
689,"(123, 638, 65)",3,mbtiauth_8468
690,"(123, 638, 164)",2,mbtiauth_8468
691,"(123, 638, 3045)",2,mbtiauth_8468
692,"(123, 765, 123)",2,mbtiauth_8468
693,"(123, 765, 441)",2,mbtiauth_8468
694,"(123, 3045, 164)",2,mbtiauth_8468
695,"(144, 32, 77)",2,mbtiauth_8468
696,"(144, 65, 32)",2,mbtiauth_8468
697,"(144, 65, 77)",2,mbtiauth_8468
698,"(144, 441, 32)",2,mbtiauth_8468
699,"(144, 441, 65)",2,mbtiauth_8468
700,"(144, 441, 77)",2,mbtiauth_8468
701,"(154, 77, 123)",2,mbtiauth_8468
702,"(154, 123, 64)",2,mbtiauth_8468
703,"(154, 123, 77)",2,mbtiauth_8468
704,"(154, 123, 165)",2,mbtiauth_8468
705,"(165, 16, 64)",2,mbtiauth_8468
706,"(165, 64, 154)",2,mbtiauth_8468
707,"(165, 65, 64)",2,mbtiauth_8468
708,"(165, 67, 64)",3,mbtiauth_8468
709,"(165, 67, 65)",2,mbtiauth_8468
710,"(165, 2707, 64)",2,mbtiauth_8468
711,"(170, 16, 77)",3,mbtiauth_8468
712,"(170, 77, 32)",2,mbtiauth_8468
713,"(183, 41, 29)",2,mbtiauth_8468
714,"(190, 50, 165)",2,mbtiauth_8468
715,"(190, 64, 50)",2,mbtiauth_8468
716,"(190, 64, 165)",2,mbtiauth_8468
717,"(193, 67, 64)",3,mbtiauth_8468
718,"(198, 32, 22)",2,mbtiauth_8468
719,"(222, 10, 22)",2,mbtiauth_8468
720,"(236, 41, 64)",2,mbtiauth_8468
721,"(236, 41, 765)",2,mbtiauth_8468
722,"(236, 64, 50)",2,mbtiauth_8468
723,"(236, 64, 77)",2,mbtiauth_8468
724,"(236, 77, 244)",2,mbtiauth_8468
725,"(236, 123, 50)",2,mbtiauth_8468
726,"(236, 123, 64)",2,mbtiauth_8468
727,"(236, 123, 154)",3,mbtiauth_8468
728,"(236, 123, 190)",2,mbtiauth_8468
729,"(236, 123, 284)",2,mbtiauth_8468
730,"(236, 190, 50)",2,mbtiauth_8468
731,"(236, 190, 64)",2,mbtiauth_8468
732,"(236, 284, 154)",2,mbtiauth_8468
733,"(244, 123, 22)",2,mbtiauth_8468
734,"(244, 396, 123)",2,mbtiauth_8468
735,"(268, 77, 2)",2,mbtiauth_8468
736,"(268, 193, 2)",2,mbtiauth_8468
737,"(276, 77, 765)",2,mbtiauth_8468
738,"(340, 236, 123)",2,mbtiauth_8468
739,"(364, 65, 64)",2,mbtiauth_8468
740,"(407, 517, 65)",2,mbtiauth_8468
741,"(441, 32, 77)",3,mbtiauth_8468
742,"(441, 65, 32)",3,mbtiauth_8468
743,"(441, 65, 77)",2,mbtiauth_8468
744,"(529, 77, 123)",2,mbtiauth_8468
745,"(529, 123, 50)",2,mbtiauth_8468
746,"(599, 123, 22)",2,mbtiauth_8468
747,"(599, 123, 120)",2,mbtiauth_8468
748,"(599, 123, 123)",3,mbtiauth_8468
749,"(638, 65, 164)",2,mbtiauth_8468
750,"(638, 65, 222)",2,mbtiauth_8468
751,"(638, 65, 3045)",2,mbtiauth_8468
752,"(638, 164, 222)",2,mbtiauth_8468
753,"(638, 3045, 164)",2,mbtiauth_8468
754,"(638, 3045, 222)",2,mbtiauth_8468
755,"(765, 123, 77)",3,mbtiauth_8468
756,"(765, 123, 441)",2,mbtiauth_8468
757,"(765, 441, 77)",2,mbtiauth_8468
758,"(781, 65, 77)",2,mbtiauth_8468
759,"(1030, 32, 77)",2,mbtiauth_8468
760,"(1146, 123, 77)",2,mbtiauth_8468
761,"(2602, 64, 41)",2,mbtiauth_8468
762,"(3045, 164, 222)",2,mbtiauth_8468
763,"(22, 32, 77, 2)",2,mbtiauth_8468
764,"(65, 77, 599, 123)",2,mbtiauth_8468
765,"(65, 3045, 164, 222)",2,mbtiauth_8468
766,"(77, 77, 2, 170)",2,mbtiauth_8468
767,"(77, 77, 2, 244)",2,mbtiauth_8468
768,"(77, 123, 65, 6901)",2,mbtiauth_8468
769,"(77, 123, 210, 765)",2,mbtiauth_8468
770,"(77, 599, 123, 123)",3,mbtiauth_8468
771,"(123, 65, 3045, 164)",2,mbtiauth_8468
772,"(123, 77, 599, 123)",2,mbtiauth_8468
773,"(123, 123, 64, 50)",2,mbtiauth_8468
774,"(123, 123, 190, 50)",2,mbtiauth_8468
775,"(123, 123, 190, 64)",2,mbtiauth_8468
776,"(123, 144, 65, 32)",2,mbtiauth_8468
777,"(123, 144, 441, 32)",2,mbtiauth_8468
778,"(123, 144, 441, 65)",2,mbtiauth_8468
779,"(123, 154, 123, 64)",2,mbtiauth_8468
780,"(123, 165, 64, 154)",2,mbtiauth_8468
781,"(123, 190, 64, 50)",2,mbtiauth_8468
782,"(123, 236, 64, 50)",2,mbtiauth_8468
783,"(123, 236, 123, 50)",2,mbtiauth_8468
784,"(123, 236, 123, 64)",2,mbtiauth_8468
785,"(123, 236, 123, 190)",2,mbtiauth_8468
786,"(123, 236, 190, 50)",2,mbtiauth_8468
787,"(123, 236, 190, 64)",2,mbtiauth_8468
788,"(123, 340, 236, 123)",2,mbtiauth_8468
789,"(123, 407, 517, 65)",2,mbtiauth_8468
790,"(123, 441, 32, 77)",2,mbtiauth_8468
791,"(123, 441, 65, 32)",3,mbtiauth_8468
792,"(123, 638, 65, 164)",2,mbtiauth_8468
793,"(123, 638, 65, 3045)",2,mbtiauth_8468
794,"(123, 638, 3045, 164)",2,mbtiauth_8468
795,"(123, 765, 123, 441)",2,mbtiauth_8468
796,"(144, 65, 32, 77)",2,mbtiauth_8468
797,"(144, 441, 32, 77)",2,mbtiauth_8468
798,"(144, 441, 65, 32)",2,mbtiauth_8468
799,"(144, 441, 65, 77)",2,mbtiauth_8468
800,"(190, 64, 50, 165)",2,mbtiauth_8468
801,"(236, 123, 64, 50)",2,mbtiauth_8468
802,"(236, 123, 190, 50)",2,mbtiauth_8468
803,"(236, 123, 190, 64)",2,mbtiauth_8468
804,"(236, 123, 284, 154)",2,mbtiauth_8468
805,"(236, 190, 64, 50)",2,mbtiauth_8468
806,"(441, 65, 32, 77)",2,mbtiauth_8468
807,"(638, 65, 164, 222)",2,mbtiauth_8468
808,"(638, 65, 3045, 164)",2,mbtiauth_8468
809,"(638, 65, 3045, 222)",2,mbtiauth_8468
810,"(638, 3045, 164, 222)",2,mbtiauth_8468
811,"(765, 123, 441, 77)",2,mbtiauth_8468
812,"(123, 123, 190, 64, 50)",2,mbtiauth_8468
813,"(123, 144, 441, 65, 32)",2,mbtiauth_8468
814,"(123, 236, 123, 64, 50)",2,mbtiauth_8468
815,"(123, 236, 123, 190, 50)",2,mbtiauth_8468
816,"(123, 236, 123, 190, 64)",2,mbtiauth_8468
817,"(123, 236, 190, 64, 50)",2,mbtiauth_8468
818,"(123, 638, 65, 3045, 164)",2,mbtiauth_8468
819,"(144, 441, 65, 32, 77)",2,mbtiauth_8468
820,"(236, 123, 190, 64, 50)",2,mbtiauth_8468
821,"(638, 65, 3045, 164, 222)",2,mbtiauth_8468
822,"(123, 236, 123, 190, 64, 50)",2,mbtiauth_8468
