,pattern,sup,author
791,"(2, 50, 13)",2,mbtiauth_122
792,"(2, 66, 22)",2,mbtiauth_122
793,"(2, 285, 64)",2,mbtiauth_122
794,"(2, 285, 123)",2,mbtiauth_122
795,"(7, 64, 22)",2,mbtiauth_122
796,"(10, 22, 2)",2,mbtiauth_122
797,"(10, 32, 77)",3,mbtiauth_122
798,"(10, 41, 64)",2,mbtiauth_122
799,"(10, 41, 441)",2,mbtiauth_122
800,"(10, 65, 41)",2,mbtiauth_122
801,"(10, 65, 64)",2,mbtiauth_122
802,"(10, 65, 75)",2,mbtiauth_122
803,"(10, 65, 77)",3,mbtiauth_122
804,"(10, 65, 291)",2,mbtiauth_122
805,"(10, 77, 41)",4,mbtiauth_122
806,"(10, 77, 77)",4,mbtiauth_122
807,"(10, 154, 41)",2,mbtiauth_122
808,"(10, 154, 77)",2,mbtiauth_122
809,"(16, 212, 77)",2,mbtiauth_122
810,"(22, 2, 285)",2,mbtiauth_122
811,"(22, 10, 162)",2,mbtiauth_122
812,"(22, 15, 10)",2,mbtiauth_122
813,"(22, 22, 2)",2,mbtiauth_122
814,"(22, 50, 206)",2,mbtiauth_122
815,"(22, 78, 78)",2,mbtiauth_122
816,"(22, 123, 77)",2,mbtiauth_122
817,"(22, 170, 64)",2,mbtiauth_122
818,"(22, 219, 2)",2,mbtiauth_122
819,"(22, 629, 1448)",2,mbtiauth_122
820,"(22, 2029, 132)",2,mbtiauth_122
821,"(30, 2, 65)",2,mbtiauth_122
822,"(30, 30, 30)",3,mbtiauth_122
823,"(30, 30, 123)",2,mbtiauth_122
824,"(30, 30, 167)",2,mbtiauth_122
825,"(30, 123, 30)",2,mbtiauth_122
826,"(30, 167, 30)",2,mbtiauth_122
827,"(30, 222, 30)",2,mbtiauth_122
828,"(32, 22, 32)",2,mbtiauth_122
829,"(32, 77, 22)",2,mbtiauth_122
830,"(32, 77, 77)",2,mbtiauth_122
831,"(33, 22, 213)",2,mbtiauth_122
832,"(41, 10, 41)",2,mbtiauth_122
833,"(41, 10, 77)",2,mbtiauth_122
834,"(41, 27, 41)",2,mbtiauth_122
835,"(41, 31, 41)",2,mbtiauth_122
836,"(41, 33, 505)",2,mbtiauth_122
837,"(41, 64, 65)",2,mbtiauth_122
838,"(41, 160, 64)",2,mbtiauth_122
839,"(41, 441, 64)",3,mbtiauth_122
840,"(50, 162, 123)",2,mbtiauth_122
841,"(50, 206, 123)",2,mbtiauth_122
842,"(50, 206, 162)",2,mbtiauth_122
843,"(64, 10, 65)",3,mbtiauth_122
844,"(64, 22, 32)",2,mbtiauth_122
845,"(64, 31, 65)",2,mbtiauth_122
846,"(64, 65, 32)",2,mbtiauth_122
847,"(64, 65, 77)",3,mbtiauth_122
848,"(64, 65, 11750)",2,mbtiauth_122
849,"(64, 77, 22)",2,mbtiauth_122
850,"(64, 77, 233)",2,mbtiauth_122
851,"(64, 164, 65)",2,mbtiauth_122
852,"(64, 262, 170)",2,mbtiauth_122
853,"(64, 483, 65)",3,mbtiauth_122
854,"(64, 483, 77)",2,mbtiauth_122
855,"(65, 41, 64)",2,mbtiauth_122
856,"(65, 41, 441)",2,mbtiauth_122
857,"(65, 64, 22)",2,mbtiauth_122
858,"(65, 64, 31)",2,mbtiauth_122
859,"(65, 64, 65)",2,mbtiauth_122
860,"(65, 64, 11750)",2,mbtiauth_122
861,"(65, 65, 77)",2,mbtiauth_122
862,"(65, 65, 11750)",2,mbtiauth_122
863,"(65, 441, 64)",2,mbtiauth_122
864,"(65, 683, 693)",2,mbtiauth_122
865,"(65, 17632, 64)",2,mbtiauth_122
866,"(65, 17632, 65)",2,mbtiauth_122
867,"(65, 17632, 11750)",2,mbtiauth_122
868,"(66, 77, 77)",2,mbtiauth_122
869,"(67, 10, 64)",2,mbtiauth_122
870,"(67, 120, 441)",2,mbtiauth_122
871,"(77, 2, 64)",3,mbtiauth_122
872,"(77, 2, 193)",2,mbtiauth_122
873,"(77, 10, 13)",2,mbtiauth_122
874,"(77, 10, 22)",2,mbtiauth_122
875,"(77, 10, 32)",2,mbtiauth_122
876,"(77, 10, 50)",2,mbtiauth_122
877,"(77, 10, 77)",4,mbtiauth_122
878,"(77, 15, 10)",2,mbtiauth_122
879,"(77, 22, 10)",2,mbtiauth_122
880,"(77, 22, 15)",2,mbtiauth_122
881,"(77, 22, 64)",3,mbtiauth_122
882,"(77, 41, 10)",2,mbtiauth_122
883,"(77, 41, 22)",2,mbtiauth_122
884,"(77, 41, 77)",2,mbtiauth_122
885,"(77, 41, 183)",2,mbtiauth_122
886,"(77, 50, 13)",2,mbtiauth_122
887,"(77, 64, 50)",2,mbtiauth_122
888,"(77, 64, 193)",2,mbtiauth_122
889,"(77, 65, 64)",2,mbtiauth_122
890,"(77, 77, 2)",4,mbtiauth_122
891,"(77, 77, 22)",2,mbtiauth_122
892,"(77, 77, 50)",2,mbtiauth_122
893,"(77, 77, 64)",2,mbtiauth_122
894,"(77, 77, 77)",7,mbtiauth_122
895,"(77, 77, 3456)",2,mbtiauth_122
896,"(77, 77, 31051)",2,mbtiauth_122
897,"(77, 77, 37624)",2,mbtiauth_122
898,"(77, 77, 59379)",2,mbtiauth_122
899,"(77, 77, 71967)",2,mbtiauth_122
900,"(77, 123, 22)",3,mbtiauth_122
901,"(77, 123, 64)",3,mbtiauth_122
902,"(77, 123, 441)",2,mbtiauth_122
903,"(77, 151, 153)",2,mbtiauth_122
904,"(77, 151, 1275)",2,mbtiauth_122
905,"(77, 153, 1275)",2,mbtiauth_122
906,"(77, 162, 170)",2,mbtiauth_122
907,"(77, 162, 193)",2,mbtiauth_122
908,"(77, 193, 164)",2,mbtiauth_122
909,"(77, 193, 170)",4,mbtiauth_122
910,"(77, 193, 198)",2,mbtiauth_122
911,"(77, 198, 22)",2,mbtiauth_122
912,"(77, 222, 22)",2,mbtiauth_122
913,"(77, 236, 41)",2,mbtiauth_122
914,"(77, 254, 64)",3,mbtiauth_122
915,"(77, 254, 170)",2,mbtiauth_122
916,"(77, 364, 64)",3,mbtiauth_122
917,"(77, 441, 22)",2,mbtiauth_122
918,"(77, 441, 64)",2,mbtiauth_122
919,"(77, 520, 22)",2,mbtiauth_122
920,"(77, 599, 22)",2,mbtiauth_122
921,"(77, 599, 64)",4,mbtiauth_122
922,"(77, 599, 65)",2,mbtiauth_122
923,"(77, 599, 364)",2,mbtiauth_122
924,"(77, 599, 441)",2,mbtiauth_122
925,"(77, 2269, 22)",2,mbtiauth_122
926,"(77, 2269, 198)",2,mbtiauth_122
927,"(77, 3456, 77)",2,mbtiauth_122
928,"(77, 3456, 71967)",2,mbtiauth_122
929,"(77, 31051, 77)",2,mbtiauth_122
930,"(77, 31051, 3456)",2,mbtiauth_122
931,"(77, 31051, 71967)",2,mbtiauth_122
932,"(77, 37624, 77)",2,mbtiauth_122
933,"(77, 37624, 3456)",2,mbtiauth_122
934,"(77, 37624, 31051)",2,mbtiauth_122
935,"(77, 37624, 71967)",2,mbtiauth_122
936,"(77, 59379, 77)",2,mbtiauth_122
937,"(77, 59379, 3456)",2,mbtiauth_122
938,"(77, 59379, 31051)",2,mbtiauth_122
939,"(77, 59379, 37624)",2,mbtiauth_122
940,"(120, 441, 64)",2,mbtiauth_122
941,"(123, 10, 77)",2,mbtiauth_122
942,"(123, 22, 22)",2,mbtiauth_122
943,"(123, 22, 123)",2,mbtiauth_122
944,"(123, 22, 349)",2,mbtiauth_122
945,"(123, 22, 1249)",2,mbtiauth_122
946,"(123, 22, 1758)",2,mbtiauth_122
947,"(123, 32, 22)",2,mbtiauth_122
948,"(123, 64, 22)",3,mbtiauth_122
949,"(123, 64, 77)",4,mbtiauth_122
950,"(123, 64, 758)",2,mbtiauth_122
951,"(123, 77, 64)",2,mbtiauth_122
952,"(123, 77, 123)",2,mbtiauth_122
953,"(123, 77, 599)",4,mbtiauth_122
954,"(123, 77, 2742)",2,mbtiauth_122
955,"(123, 262, 77)",2,mbtiauth_122
956,"(123, 356, 254)",2,mbtiauth_122
957,"(123, 407, 77)",2,mbtiauth_122
958,"(123, 441, 22)",2,mbtiauth_122
959,"(123, 441, 50)",2,mbtiauth_122
960,"(123, 441, 64)",4,mbtiauth_122
961,"(123, 517, 77)",2,mbtiauth_122
962,"(123, 613, 64)",2,mbtiauth_122
963,"(123, 613, 77)",2,mbtiauth_122
964,"(123, 5238, 10)",2,mbtiauth_122
965,"(151, 153, 1275)",2,mbtiauth_122
966,"(154, 32, 22)",2,mbtiauth_122
967,"(154, 41, 77)",3,mbtiauth_122
968,"(154, 77, 10)",2,mbtiauth_122
969,"(154, 77, 67)",2,mbtiauth_122
970,"(154, 77, 193)",2,mbtiauth_122
971,"(154, 77, 599)",2,mbtiauth_122
972,"(154, 262, 77)",2,mbtiauth_122
973,"(162, 193, 170)",2,mbtiauth_122
974,"(164, 41, 64)",2,mbtiauth_122
975,"(164, 77, 64)",2,mbtiauth_122
976,"(164, 77, 599)",2,mbtiauth_122
977,"(164, 599, 64)",2,mbtiauth_122
978,"(170, 65, 162)",2,mbtiauth_122
979,"(170, 77, 162)",2,mbtiauth_122
980,"(170, 77, 170)",2,mbtiauth_122
981,"(170, 77, 193)",2,mbtiauth_122
982,"(170, 193, 170)",2,mbtiauth_122
983,"(183, 154, 123)",2,mbtiauth_122
984,"(183, 198, 201)",2,mbtiauth_122
985,"(183, 225, 198)",2,mbtiauth_122
986,"(183, 225, 201)",2,mbtiauth_122
987,"(193, 33, 213)",2,mbtiauth_122
988,"(193, 170, 78)",2,mbtiauth_122
989,"(198, 154, 10)",2,mbtiauth_122
990,"(198, 154, 65)",2,mbtiauth_122
991,"(201, 154, 123)",2,mbtiauth_122
992,"(201, 183, 123)",2,mbtiauth_122
993,"(201, 183, 154)",2,mbtiauth_122
994,"(201, 183, 198)",2,mbtiauth_122
995,"(201, 183, 201)",2,mbtiauth_122
996,"(201, 183, 225)",3,mbtiauth_122
997,"(201, 198, 201)",2,mbtiauth_122
998,"(201, 225, 198)",2,mbtiauth_122
999,"(201, 225, 201)",2,mbtiauth_122
1000,"(206, 162, 123)",2,mbtiauth_122
1001,"(212, 77, 193)",2,mbtiauth_122
1002,"(212, 77, 599)",2,mbtiauth_122
1003,"(222, 30, 30)",2,mbtiauth_122
1004,"(222, 32, 77)",2,mbtiauth_122
1005,"(225, 10, 41)",2,mbtiauth_122
1006,"(225, 65, 77)",2,mbtiauth_122
1007,"(225, 77, 599)",3,mbtiauth_122
1008,"(225, 154, 77)",2,mbtiauth_122
1009,"(225, 183, 22)",2,mbtiauth_122
1010,"(225, 198, 201)",2,mbtiauth_122
1011,"(256, 77, 123)",2,mbtiauth_122
1012,"(262, 77, 170)",2,mbtiauth_122
1013,"(262, 77, 254)",2,mbtiauth_122
1014,"(262, 170, 27)",2,mbtiauth_122
1015,"(356, 64, 65)",2,mbtiauth_122
1016,"(356, 64, 11750)",2,mbtiauth_122
1017,"(356, 65, 64)",2,mbtiauth_122
1018,"(356, 65, 65)",2,mbtiauth_122
1019,"(356, 65, 11750)",2,mbtiauth_122
1020,"(356, 65, 17632)",2,mbtiauth_122
1021,"(356, 17632, 64)",2,mbtiauth_122
1022,"(356, 17632, 65)",2,mbtiauth_122
1023,"(356, 17632, 11750)",2,mbtiauth_122
1024,"(364, 77, 599)",2,mbtiauth_122
1025,"(364, 1478, 22)",2,mbtiauth_122
1026,"(441, 64, 10)",2,mbtiauth_122
1027,"(441, 64, 22)",3,mbtiauth_122
1028,"(441, 64, 65)",2,mbtiauth_122
1029,"(520, 278, 871)",2,mbtiauth_122
1030,"(574, 77, 41)",2,mbtiauth_122
1031,"(613, 64, 77)",2,mbtiauth_122
1032,"(693, 77, 599)",2,mbtiauth_122
1033,"(693, 154, 77)",2,mbtiauth_122
1034,"(693, 154, 599)",2,mbtiauth_122
1035,"(756, 68, 44)",2,mbtiauth_122
1036,"(1039, 64, 41)",2,mbtiauth_122
1037,"(1249, 7, 65)",2,mbtiauth_122
1038,"(1441, 64, 22)",2,mbtiauth_122
1039,"(1442, 41, 441)",2,mbtiauth_122
1040,"(2269, 198, 22)",2,mbtiauth_122
1041,"(3456, 77, 71967)",2,mbtiauth_122
1042,"(17632, 64, 65)",2,mbtiauth_122
1043,"(17632, 64, 11750)",2,mbtiauth_122
1044,"(17632, 65, 11750)",2,mbtiauth_122
1045,"(18989, 16, 233)",2,mbtiauth_122
1046,"(31051, 77, 71967)",2,mbtiauth_122
1047,"(31051, 3456, 77)",2,mbtiauth_122
1048,"(31051, 3456, 71967)",2,mbtiauth_122
1049,"(37624, 77, 71967)",2,mbtiauth_122
1050,"(37624, 3456, 77)",2,mbtiauth_122
1051,"(37624, 3456, 71967)",2,mbtiauth_122
1052,"(37624, 31051, 77)",2,mbtiauth_122
1053,"(37624, 31051, 3456)",2,mbtiauth_122
1054,"(37624, 31051, 71967)",2,mbtiauth_122
1055,"(59379, 77, 77)",2,mbtiauth_122
1056,"(59379, 77, 3456)",2,mbtiauth_122
1057,"(59379, 77, 31051)",2,mbtiauth_122
1058,"(59379, 77, 37624)",2,mbtiauth_122
1059,"(59379, 77, 71967)",2,mbtiauth_122
1060,"(59379, 3456, 77)",2,mbtiauth_122
1061,"(59379, 3456, 71967)",2,mbtiauth_122
1062,"(59379, 31051, 77)",2,mbtiauth_122
1063,"(59379, 31051, 3456)",2,mbtiauth_122
1064,"(59379, 31051, 71967)",2,mbtiauth_122
1065,"(59379, 37624, 77)",2,mbtiauth_122
1066,"(59379, 37624, 3456)",2,mbtiauth_122
1067,"(59379, 37624, 31051)",2,mbtiauth_122
1068,"(59379, 37624, 71967)",2,mbtiauth_122
1069,"(10, 32, 77, 77)",2,mbtiauth_122
1070,"(50, 206, 162, 123)",2,mbtiauth_122
1071,"(65, 41, 441, 64)",2,mbtiauth_122
1072,"(65, 64, 65, 11750)",2,mbtiauth_122
1073,"(65, 17632, 64, 65)",2,mbtiauth_122
1074,"(65, 17632, 64, 11750)",2,mbtiauth_122
1075,"(65, 17632, 65, 11750)",2,mbtiauth_122
1076,"(77, 22, 15, 10)",2,mbtiauth_122
1077,"(77, 77, 77, 2)",2,mbtiauth_122
1078,"(77, 77, 77, 77)",6,mbtiauth_122
1079,"(77, 77, 77, 3456)",2,mbtiauth_122
1080,"(77, 77, 77, 31051)",2,mbtiauth_122
1081,"(77, 77, 77, 37624)",2,mbtiauth_122
1082,"(77, 77, 3456, 77)",2,mbtiauth_122
1083,"(77, 77, 31051, 77)",2,mbtiauth_122
1084,"(77, 77, 31051, 3456)",2,mbtiauth_122
1085,"(77, 77, 37624, 77)",2,mbtiauth_122
1086,"(77, 77, 37624, 3456)",2,mbtiauth_122
1087,"(77, 77, 37624, 31051)",2,mbtiauth_122
1088,"(77, 77, 59379, 77)",2,mbtiauth_122
1089,"(77, 77, 59379, 3456)",2,mbtiauth_122
1090,"(77, 77, 59379, 31051)",2,mbtiauth_122
1091,"(77, 77, 59379, 37624)",2,mbtiauth_122
1092,"(77, 123, 441, 22)",2,mbtiauth_122
1093,"(77, 123, 441, 64)",2,mbtiauth_122
1094,"(77, 151, 153, 1275)",2,mbtiauth_122
1095,"(77, 162, 193, 170)",2,mbtiauth_122
1096,"(77, 2269, 198, 22)",2,mbtiauth_122
1097,"(77, 3456, 77, 71967)",2,mbtiauth_122
1098,"(77, 31051, 77, 71967)",2,mbtiauth_122
1099,"(77, 31051, 3456, 77)",2,mbtiauth_122
1100,"(77, 31051, 3456, 71967)",2,mbtiauth_122
1101,"(77, 37624, 77, 71967)",2,mbtiauth_122
1102,"(77, 37624, 3456, 77)",2,mbtiauth_122
1103,"(77, 37624, 3456, 71967)",2,mbtiauth_122
1104,"(77, 37624, 31051, 77)",2,mbtiauth_122
1105,"(77, 37624, 31051, 3456)",2,mbtiauth_122
1106,"(77, 37624, 31051, 71967)",2,mbtiauth_122
1107,"(77, 59379, 77, 77)",2,mbtiauth_122
1108,"(77, 59379, 77, 3456)",2,mbtiauth_122
1109,"(77, 59379, 77, 31051)",2,mbtiauth_122
1110,"(77, 59379, 77, 37624)",2,mbtiauth_122
1111,"(77, 59379, 3456, 77)",2,mbtiauth_122
1112,"(77, 59379, 31051, 77)",2,mbtiauth_122
1113,"(77, 59379, 31051, 3456)",2,mbtiauth_122
1114,"(77, 59379, 37624, 77)",2,mbtiauth_122
1115,"(77, 59379, 37624, 3456)",2,mbtiauth_122
1116,"(77, 59379, 37624, 31051)",2,mbtiauth_122
1117,"(123, 441, 64, 22)",2,mbtiauth_122
1118,"(123, 613, 64, 77)",2,mbtiauth_122
1119,"(164, 77, 599, 64)",2,mbtiauth_122
1120,"(170, 77, 193, 170)",2,mbtiauth_122
1121,"(183, 225, 198, 201)",2,mbtiauth_122
1122,"(201, 183, 154, 123)",2,mbtiauth_122
1123,"(201, 183, 198, 201)",2,mbtiauth_122
1124,"(201, 183, 225, 198)",2,mbtiauth_122
1125,"(201, 183, 225, 201)",2,mbtiauth_122
1126,"(201, 225, 198, 201)",2,mbtiauth_122
1127,"(356, 64, 65, 11750)",2,mbtiauth_122
1128,"(356, 65, 64, 65)",2,mbtiauth_122
1129,"(356, 65, 64, 11750)",2,mbtiauth_122
1130,"(356, 65, 65, 11750)",2,mbtiauth_122
1131,"(356, 65, 17632, 64)",2,mbtiauth_122
1132,"(356, 65, 17632, 65)",2,mbtiauth_122
1133,"(356, 65, 17632, 11750)",2,mbtiauth_122
1134,"(356, 17632, 64, 65)",2,mbtiauth_122
1135,"(356, 17632, 64, 11750)",2,mbtiauth_122
1136,"(356, 17632, 65, 11750)",2,mbtiauth_122
1137,"(693, 154, 77, 599)",2,mbtiauth_122
1138,"(17632, 64, 65, 11750)",2,mbtiauth_122
1139,"(31051, 3456, 77, 71967)",2,mbtiauth_122
1140,"(37624, 3456, 77, 71967)",2,mbtiauth_122
1141,"(37624, 31051, 77, 71967)",2,mbtiauth_122
1142,"(37624, 31051, 3456, 77)",2,mbtiauth_122
1143,"(37624, 31051, 3456, 71967)",2,mbtiauth_122
1144,"(59379, 77, 77, 71967)",2,mbtiauth_122
1145,"(59379, 77, 3456, 77)",2,mbtiauth_122
1146,"(59379, 77, 3456, 71967)",2,mbtiauth_122
1147,"(59379, 77, 31051, 77)",2,mbtiauth_122
1148,"(59379, 77, 31051, 3456)",2,mbtiauth_122
1149,"(59379, 77, 31051, 71967)",2,mbtiauth_122
1150,"(59379, 77, 37624, 77)",2,mbtiauth_122
1151,"(59379, 77, 37624, 3456)",2,mbtiauth_122
1152,"(59379, 77, 37624, 31051)",2,mbtiauth_122
1153,"(59379, 77, 37624, 71967)",2,mbtiauth_122
1154,"(59379, 3456, 77, 71967)",2,mbtiauth_122
1155,"(59379, 31051, 77, 71967)",2,mbtiauth_122
1156,"(59379, 31051, 3456, 77)",2,mbtiauth_122
1157,"(59379, 31051, 3456, 71967)",2,mbtiauth_122
1158,"(59379, 37624, 77, 71967)",2,mbtiauth_122
1159,"(59379, 37624, 3456, 77)",2,mbtiauth_122
1160,"(59379, 37624, 3456, 71967)",2,mbtiauth_122
1161,"(59379, 37624, 31051, 77)",2,mbtiauth_122
1162,"(59379, 37624, 31051, 3456)",2,mbtiauth_122
1163,"(59379, 37624, 31051, 71967)",2,mbtiauth_122
1164,"(65, 17632, 64, 65, 11750)",2,mbtiauth_122
1165,"(77, 77, 77, 77, 77)",3,mbtiauth_122
1166,"(77, 77, 77, 3456, 77)",2,mbtiauth_122
1167,"(77, 77, 77, 31051, 77)",2,mbtiauth_122
1168,"(77, 77, 77, 31051, 3456)",2,mbtiauth_122
1169,"(77, 77, 77, 37624, 77)",2,mbtiauth_122
1170,"(77, 77, 77, 37624, 3456)",2,mbtiauth_122
1171,"(77, 77, 77, 37624, 31051)",2,mbtiauth_122
1172,"(77, 77, 31051, 3456, 77)",2,mbtiauth_122
1173,"(77, 77, 37624, 3456, 77)",2,mbtiauth_122
1174,"(77, 77, 37624, 31051, 77)",2,mbtiauth_122
1175,"(77, 77, 37624, 31051, 3456)",2,mbtiauth_122
1176,"(77, 77, 59379, 77, 77)",2,mbtiauth_122
1177,"(77, 77, 59379, 77, 3456)",2,mbtiauth_122
1178,"(77, 77, 59379, 77, 31051)",2,mbtiauth_122
1179,"(77, 77, 59379, 77, 37624)",2,mbtiauth_122
1180,"(77, 77, 59379, 3456, 77)",2,mbtiauth_122
1181,"(77, 77, 59379, 31051, 77)",2,mbtiauth_122
1182,"(77, 77, 59379, 31051, 3456)",2,mbtiauth_122
1183,"(77, 77, 59379, 37624, 77)",2,mbtiauth_122
1184,"(77, 77, 59379, 37624, 3456)",2,mbtiauth_122
1185,"(77, 77, 59379, 37624, 31051)",2,mbtiauth_122
1186,"(77, 31051, 3456, 77, 71967)",2,mbtiauth_122
1187,"(77, 37624, 3456, 77, 71967)",2,mbtiauth_122
1188,"(77, 37624, 31051, 77, 71967)",2,mbtiauth_122
1189,"(77, 37624, 31051, 3456, 77)",2,mbtiauth_122
1190,"(77, 37624, 31051, 3456, 71967)",2,mbtiauth_122
1191,"(77, 59379, 77, 3456, 77)",2,mbtiauth_122
1192,"(77, 59379, 77, 31051, 77)",2,mbtiauth_122
1193,"(77, 59379, 77, 31051, 3456)",2,mbtiauth_122
1194,"(77, 59379, 77, 37624, 77)",2,mbtiauth_122
1195,"(77, 59379, 77, 37624, 3456)",2,mbtiauth_122
1196,"(77, 59379, 77, 37624, 31051)",2,mbtiauth_122
1197,"(77, 59379, 31051, 3456, 77)",2,mbtiauth_122
1198,"(77, 59379, 37624, 3456, 77)",2,mbtiauth_122
1199,"(77, 59379, 37624, 31051, 77)",2,mbtiauth_122
1200,"(77, 59379, 37624, 31051, 3456)",2,mbtiauth_122
1201,"(201, 183, 225, 198, 201)",2,mbtiauth_122
1202,"(356, 65, 64, 65, 11750)",2,mbtiauth_122
1203,"(356, 65, 17632, 64, 65)",2,mbtiauth_122
1204,"(356, 65, 17632, 64, 11750)",2,mbtiauth_122
1205,"(356, 65, 17632, 65, 11750)",2,mbtiauth_122
1206,"(356, 17632, 64, 65, 11750)",2,mbtiauth_122
1207,"(37624, 31051, 3456, 77, 71967)",2,mbtiauth_122
1208,"(59379, 77, 3456, 77, 71967)",2,mbtiauth_122
1209,"(59379, 77, 31051, 77, 71967)",2,mbtiauth_122
1210,"(59379, 77, 31051, 3456, 77)",2,mbtiauth_122
1211,"(59379, 77, 31051, 3456, 71967)",2,mbtiauth_122
1212,"(59379, 77, 37624, 77, 71967)",2,mbtiauth_122
1213,"(59379, 77, 37624, 3456, 77)",2,mbtiauth_122
1214,"(59379, 77, 37624, 3456, 71967)",2,mbtiauth_122
1215,"(59379, 77, 37624, 31051, 77)",2,mbtiauth_122
1216,"(59379, 77, 37624, 31051, 3456)",2,mbtiauth_122
1217,"(59379, 77, 37624, 31051, 71967)",2,mbtiauth_122
1218,"(59379, 31051, 3456, 77, 71967)",2,mbtiauth_122
1219,"(59379, 37624, 3456, 77, 71967)",2,mbtiauth_122
1220,"(59379, 37624, 31051, 77, 71967)",2,mbtiauth_122
1221,"(59379, 37624, 31051, 3456, 77)",2,mbtiauth_122
1222,"(59379, 37624, 31051, 3456, 71967)",2,mbtiauth_122
1223,"(77, 77, 77, 31051, 3456, 77)",2,mbtiauth_122
1224,"(77, 77, 77, 37624, 3456, 77)",2,mbtiauth_122
1225,"(77, 77, 77, 37624, 31051, 77)",2,mbtiauth_122
1226,"(77, 77, 77, 37624, 31051, 3456)",2,mbtiauth_122
1227,"(77, 77, 37624, 31051, 3456, 77)",2,mbtiauth_122
1228,"(77, 77, 59379, 77, 3456, 77)",2,mbtiauth_122
1229,"(77, 77, 59379, 77, 31051, 77)",2,mbtiauth_122
1230,"(77, 77, 59379, 77, 31051, 3456)",2,mbtiauth_122
1231,"(77, 77, 59379, 77, 37624, 77)",2,mbtiauth_122
1232,"(77, 77, 59379, 77, 37624, 3456)",2,mbtiauth_122
1233,"(77, 77, 59379, 77, 37624, 31051)",2,mbtiauth_122
1234,"(77, 77, 59379, 31051, 3456, 77)",2,mbtiauth_122
1235,"(77, 77, 59379, 37624, 3456, 77)",2,mbtiauth_122
1236,"(77, 77, 59379, 37624, 31051, 77)",2,mbtiauth_122
1237,"(77, 77, 59379, 37624, 31051, 3456)",2,mbtiauth_122
1238,"(77, 37624, 31051, 3456, 77, 71967)",2,mbtiauth_122
1239,"(77, 59379, 77, 31051, 3456, 77)",2,mbtiauth_122
1240,"(77, 59379, 77, 37624, 3456, 77)",2,mbtiauth_122
1241,"(77, 59379, 77, 37624, 31051, 77)",2,mbtiauth_122
1242,"(77, 59379, 77, 37624, 31051, 3456)",2,mbtiauth_122
1243,"(77, 59379, 37624, 31051, 3456, 77)",2,mbtiauth_122
1244,"(356, 65, 17632, 64, 65, 11750)",2,mbtiauth_122
1245,"(59379, 77, 31051, 3456, 77, 71967)",2,mbtiauth_122
1246,"(59379, 77, 37624, 3456, 77, 71967)",2,mbtiauth_122
1247,"(59379, 77, 37624, 31051, 77, 71967)",2,mbtiauth_122
1248,"(59379, 77, 37624, 31051, 3456, 77)",2,mbtiauth_122
1249,"(59379, 77, 37624, 31051, 3456, 71967)",2,mbtiauth_122
1250,"(59379, 37624, 31051, 3456, 77, 71967)",2,mbtiauth_122
1251,"(77, 77, 77, 37624, 31051, 3456, 77)",2,mbtiauth_122
1252,"(77, 77, 59379, 77, 31051, 3456, 77)",2,mbtiauth_122
1253,"(77, 77, 59379, 77, 37624, 3456, 77)",2,mbtiauth_122
1254,"(77, 77, 59379, 77, 37624, 31051, 77)",2,mbtiauth_122
1255,"(77, 77, 59379, 77, 37624, 31051, 3456)",2,mbtiauth_122
1256,"(77, 77, 59379, 37624, 31051, 3456, 77)",2,mbtiauth_122
1257,"(77, 59379, 77, 37624, 31051, 3456, 77)",2,mbtiauth_122
1258,"(59379, 77, 37624, 31051, 3456, 77, 71967)",2,mbtiauth_122
1259,"(77, 77, 59379, 77, 37624, 31051, 3456, 77)",2,mbtiauth_122
