,pattern,sup,author
289,"(7, 50, 50)",2,mbtiauth_3293
290,"(48, 48, 48)",2,mbtiauth_3293
291,"(48, 48, 678)",3,mbtiauth_3293
292,"(48, 48, 2197)",2,mbtiauth_3293
293,"(48, 50, 50)",2,mbtiauth_3293
294,"(48, 888, 48)",2,mbtiauth_3293
295,"(48, 888, 678)",2,mbtiauth_3293
296,"(48, 888, 2197)",2,mbtiauth_3293
297,"(48, 888, 5234)",2,mbtiauth_3293
298,"(48, 934, 48)",2,mbtiauth_3293
299,"(48, 934, 678)",2,mbtiauth_3293
300,"(48, 934, 888)",2,mbtiauth_3293
301,"(48, 934, 2197)",2,mbtiauth_3293
302,"(48, 934, 5234)",2,mbtiauth_3293
303,"(48, 2197, 678)",2,mbtiauth_3293
304,"(48, 5234, 48)",2,mbtiauth_3293
305,"(48, 5234, 678)",2,mbtiauth_3293
306,"(48, 5234, 2197)",2,mbtiauth_3293
307,"(50, 50, 48)",4,mbtiauth_3293
308,"(50, 50, 50)",6,mbtiauth_3293
309,"(50, 50, 89)",3,mbtiauth_3293
310,"(50, 50, 112)",2,mbtiauth_3293
311,"(50, 50, 138)",3,mbtiauth_3293
312,"(50, 50, 472)",2,mbtiauth_3293
313,"(50, 50, 677)",2,mbtiauth_3293
314,"(50, 89, 138)",2,mbtiauth_3293
315,"(50, 115, 50)",2,mbtiauth_3293
316,"(50, 138, 48)",3,mbtiauth_3293
317,"(50, 248, 50)",3,mbtiauth_3293
318,"(50, 296, 48)",2,mbtiauth_3293
319,"(50, 304, 50)",2,mbtiauth_3293
320,"(248, 50, 48)",2,mbtiauth_3293
321,"(248, 50, 50)",3,mbtiauth_3293
322,"(248, 50, 138)",2,mbtiauth_3293
323,"(248, 50, 254)",2,mbtiauth_3293
324,"(248, 4469, 50)",2,mbtiauth_3293
325,"(254, 50, 254)",2,mbtiauth_3293
326,"(262, 439, 1019)",3,mbtiauth_3293
327,"(262, 439, 8472)",3,mbtiauth_3293
328,"(262, 1019, 1019)",2,mbtiauth_3293
329,"(262, 1019, 8472)",3,mbtiauth_3293
330,"(262, 8472, 1019)",2,mbtiauth_3293
331,"(296, 48, 3266)",2,mbtiauth_3293
332,"(296, 50, 48)",2,mbtiauth_3293
333,"(439, 1019, 1019)",2,mbtiauth_3293
334,"(439, 1019, 8472)",3,mbtiauth_3293
335,"(439, 8472, 1019)",2,mbtiauth_3293
336,"(444, 1326, 678)",2,mbtiauth_3293
337,"(444, 1991, 50)",2,mbtiauth_3293
338,"(444, 1991, 4912)",2,mbtiauth_3293
339,"(444, 4912, 50)",2,mbtiauth_3293
340,"(457, 50, 48)",2,mbtiauth_3293
341,"(506, 10372, 112)",2,mbtiauth_3293
342,"(627, 262, 439)",2,mbtiauth_3293
343,"(627, 262, 1019)",2,mbtiauth_3293
344,"(627, 262, 8472)",2,mbtiauth_3293
345,"(627, 439, 1019)",2,mbtiauth_3293
346,"(627, 439, 8472)",2,mbtiauth_3293
347,"(627, 1019, 8472)",2,mbtiauth_3293
348,"(678, 50, 89)",2,mbtiauth_3293
349,"(678, 50, 1336)",2,mbtiauth_3293
350,"(702, 50, 50)",2,mbtiauth_3293
351,"(846, 381, 1349)",2,mbtiauth_3293
352,"(888, 48, 678)",2,mbtiauth_3293
353,"(888, 48, 2197)",2,mbtiauth_3293
354,"(888, 2197, 678)",2,mbtiauth_3293
355,"(888, 5234, 48)",2,mbtiauth_3293
356,"(888, 5234, 678)",2,mbtiauth_3293
357,"(888, 5234, 2197)",2,mbtiauth_3293
358,"(906, 50, 248)",2,mbtiauth_3293
359,"(906, 112, 248)",2,mbtiauth_3293
360,"(934, 48, 678)",2,mbtiauth_3293
361,"(934, 48, 2197)",2,mbtiauth_3293
362,"(934, 888, 48)",2,mbtiauth_3293
363,"(934, 888, 678)",2,mbtiauth_3293
364,"(934, 888, 2197)",2,mbtiauth_3293
365,"(934, 888, 5234)",2,mbtiauth_3293
366,"(934, 2197, 678)",2,mbtiauth_3293
367,"(934, 5234, 48)",2,mbtiauth_3293
368,"(934, 5234, 678)",2,mbtiauth_3293
369,"(934, 5234, 2197)",2,mbtiauth_3293
370,"(1019, 8472, 1019)",2,mbtiauth_3293
371,"(1991, 4912, 50)",2,mbtiauth_3293
372,"(2905, 104, 14436)",2,mbtiauth_3293
373,"(3266, 50, 48)",2,mbtiauth_3293
374,"(5234, 48, 48)",2,mbtiauth_3293
375,"(5234, 48, 50)",2,mbtiauth_3293
376,"(5234, 48, 678)",2,mbtiauth_3293
377,"(5234, 48, 888)",2,mbtiauth_3293
378,"(5234, 48, 934)",2,mbtiauth_3293
379,"(5234, 48, 2197)",2,mbtiauth_3293
380,"(5234, 48, 5234)",2,mbtiauth_3293
381,"(5234, 888, 48)",2,mbtiauth_3293
382,"(5234, 888, 678)",2,mbtiauth_3293
383,"(5234, 888, 2197)",2,mbtiauth_3293
384,"(5234, 888, 5234)",2,mbtiauth_3293
385,"(5234, 934, 48)",2,mbtiauth_3293
386,"(5234, 934, 678)",2,mbtiauth_3293
387,"(5234, 934, 888)",2,mbtiauth_3293
388,"(5234, 934, 2197)",2,mbtiauth_3293
389,"(5234, 934, 5234)",2,mbtiauth_3293
390,"(5234, 2197, 678)",2,mbtiauth_3293
391,"(5234, 5234, 48)",3,mbtiauth_3293
392,"(5234, 5234, 678)",2,mbtiauth_3293
393,"(5234, 5234, 2197)",2,mbtiauth_3293
394,"(5234, 5246, 836)",2,mbtiauth_3293
395,"(48, 48, 2197, 678)",2,mbtiauth_3293
396,"(48, 888, 48, 678)",2,mbtiauth_3293
397,"(48, 888, 48, 2197)",2,mbtiauth_3293
398,"(48, 888, 2197, 678)",2,mbtiauth_3293
399,"(48, 888, 5234, 48)",2,mbtiauth_3293
400,"(48, 888, 5234, 678)",2,mbtiauth_3293
401,"(48, 888, 5234, 2197)",2,mbtiauth_3293
402,"(48, 934, 48, 678)",2,mbtiauth_3293
403,"(48, 934, 48, 2197)",2,mbtiauth_3293
404,"(48, 934, 888, 48)",2,mbtiauth_3293
405,"(48, 934, 888, 678)",2,mbtiauth_3293
406,"(48, 934, 888, 2197)",2,mbtiauth_3293
407,"(48, 934, 888, 5234)",2,mbtiauth_3293
408,"(48, 934, 2197, 678)",2,mbtiauth_3293
409,"(48, 934, 5234, 48)",2,mbtiauth_3293
410,"(48, 934, 5234, 678)",2,mbtiauth_3293
411,"(48, 934, 5234, 2197)",2,mbtiauth_3293
412,"(48, 5234, 48, 678)",2,mbtiauth_3293
413,"(48, 5234, 48, 2197)",2,mbtiauth_3293
414,"(48, 5234, 2197, 678)",2,mbtiauth_3293
415,"(50, 50, 50, 48)",2,mbtiauth_3293
416,"(50, 50, 50, 50)",2,mbtiauth_3293
417,"(50, 50, 50, 112)",2,mbtiauth_3293
418,"(50, 50, 89, 138)",2,mbtiauth_3293
419,"(50, 50, 138, 48)",2,mbtiauth_3293
420,"(50, 248, 50, 50)",2,mbtiauth_3293
421,"(262, 439, 1019, 1019)",2,mbtiauth_3293
422,"(262, 439, 1019, 8472)",3,mbtiauth_3293
423,"(262, 439, 8472, 1019)",2,mbtiauth_3293
424,"(262, 1019, 8472, 1019)",2,mbtiauth_3293
425,"(439, 1019, 8472, 1019)",2,mbtiauth_3293
426,"(444, 1991, 4912, 50)",2,mbtiauth_3293
427,"(627, 262, 439, 1019)",2,mbtiauth_3293
428,"(627, 262, 439, 8472)",2,mbtiauth_3293
429,"(627, 262, 1019, 8472)",2,mbtiauth_3293
430,"(627, 439, 1019, 8472)",2,mbtiauth_3293
431,"(888, 48, 2197, 678)",2,mbtiauth_3293
432,"(888, 5234, 48, 678)",2,mbtiauth_3293
433,"(888, 5234, 48, 2197)",2,mbtiauth_3293
434,"(888, 5234, 2197, 678)",2,mbtiauth_3293
435,"(934, 48, 2197, 678)",2,mbtiauth_3293
436,"(934, 888, 48, 678)",2,mbtiauth_3293
437,"(934, 888, 48, 2197)",2,mbtiauth_3293
438,"(934, 888, 2197, 678)",2,mbtiauth_3293
439,"(934, 888, 5234, 48)",2,mbtiauth_3293
440,"(934, 888, 5234, 678)",2,mbtiauth_3293
441,"(934, 888, 5234, 2197)",2,mbtiauth_3293
442,"(934, 5234, 48, 678)",2,mbtiauth_3293
443,"(934, 5234, 48, 2197)",2,mbtiauth_3293
444,"(934, 5234, 2197, 678)",2,mbtiauth_3293
445,"(5234, 48, 48, 678)",2,mbtiauth_3293
446,"(5234, 48, 48, 2197)",2,mbtiauth_3293
447,"(5234, 48, 888, 48)",2,mbtiauth_3293
448,"(5234, 48, 888, 678)",2,mbtiauth_3293
449,"(5234, 48, 888, 2197)",2,mbtiauth_3293
450,"(5234, 48, 888, 5234)",2,mbtiauth_3293
451,"(5234, 48, 934, 48)",2,mbtiauth_3293
452,"(5234, 48, 934, 678)",2,mbtiauth_3293
453,"(5234, 48, 934, 888)",2,mbtiauth_3293
454,"(5234, 48, 934, 2197)",2,mbtiauth_3293
455,"(5234, 48, 934, 5234)",2,mbtiauth_3293
456,"(5234, 48, 2197, 678)",2,mbtiauth_3293
457,"(5234, 48, 5234, 48)",2,mbtiauth_3293
458,"(5234, 48, 5234, 678)",2,mbtiauth_3293
459,"(5234, 48, 5234, 2197)",2,mbtiauth_3293
460,"(5234, 888, 48, 678)",2,mbtiauth_3293
461,"(5234, 888, 48, 2197)",2,mbtiauth_3293
462,"(5234, 888, 2197, 678)",2,mbtiauth_3293
463,"(5234, 888, 5234, 48)",2,mbtiauth_3293
464,"(5234, 888, 5234, 678)",2,mbtiauth_3293
465,"(5234, 888, 5234, 2197)",2,mbtiauth_3293
466,"(5234, 934, 48, 678)",2,mbtiauth_3293
467,"(5234, 934, 48, 2197)",2,mbtiauth_3293
468,"(5234, 934, 888, 48)",2,mbtiauth_3293
469,"(5234, 934, 888, 678)",2,mbtiauth_3293
470,"(5234, 934, 888, 2197)",2,mbtiauth_3293
471,"(5234, 934, 888, 5234)",2,mbtiauth_3293
472,"(5234, 934, 2197, 678)",2,mbtiauth_3293
473,"(5234, 934, 5234, 48)",2,mbtiauth_3293
474,"(5234, 934, 5234, 678)",2,mbtiauth_3293
475,"(5234, 934, 5234, 2197)",2,mbtiauth_3293
476,"(5234, 5234, 48, 678)",2,mbtiauth_3293
477,"(5234, 5234, 48, 2197)",2,mbtiauth_3293
478,"(5234, 5234, 2197, 678)",2,mbtiauth_3293
479,"(48, 888, 48, 2197, 678)",2,mbtiauth_3293
480,"(48, 888, 5234, 48, 678)",2,mbtiauth_3293
481,"(48, 888, 5234, 48, 2197)",2,mbtiauth_3293
482,"(48, 888, 5234, 2197, 678)",2,mbtiauth_3293
483,"(48, 934, 48, 2197, 678)",2,mbtiauth_3293
484,"(48, 934, 888, 48, 678)",2,mbtiauth_3293
485,"(48, 934, 888, 48, 2197)",2,mbtiauth_3293
486,"(48, 934, 888, 2197, 678)",2,mbtiauth_3293
487,"(48, 934, 888, 5234, 48)",2,mbtiauth_3293
488,"(48, 934, 888, 5234, 678)",2,mbtiauth_3293
489,"(48, 934, 888, 5234, 2197)",2,mbtiauth_3293
490,"(48, 934, 5234, 48, 678)",2,mbtiauth_3293
491,"(48, 934, 5234, 48, 2197)",2,mbtiauth_3293
492,"(48, 934, 5234, 2197, 678)",2,mbtiauth_3293
493,"(48, 5234, 48, 2197, 678)",2,mbtiauth_3293
494,"(262, 439, 1019, 8472, 1019)",2,mbtiauth_3293
495,"(627, 262, 439, 1019, 8472)",2,mbtiauth_3293
496,"(888, 5234, 48, 2197, 678)",2,mbtiauth_3293
497,"(934, 888, 48, 2197, 678)",2,mbtiauth_3293
498,"(934, 888, 5234, 48, 678)",2,mbtiauth_3293
499,"(934, 888, 5234, 48, 2197)",2,mbtiauth_3293
500,"(934, 888, 5234, 2197, 678)",2,mbtiauth_3293
501,"(934, 5234, 48, 2197, 678)",2,mbtiauth_3293
502,"(5234, 48, 48, 2197, 678)",2,mbtiauth_3293
503,"(5234, 48, 888, 48, 678)",2,mbtiauth_3293
504,"(5234, 48, 888, 48, 2197)",2,mbtiauth_3293
505,"(5234, 48, 888, 2197, 678)",2,mbtiauth_3293
506,"(5234, 48, 888, 5234, 48)",2,mbtiauth_3293
507,"(5234, 48, 888, 5234, 678)",2,mbtiauth_3293
508,"(5234, 48, 888, 5234, 2197)",2,mbtiauth_3293
509,"(5234, 48, 934, 48, 678)",2,mbtiauth_3293
510,"(5234, 48, 934, 48, 2197)",2,mbtiauth_3293
511,"(5234, 48, 934, 888, 48)",2,mbtiauth_3293
512,"(5234, 48, 934, 888, 678)",2,mbtiauth_3293
513,"(5234, 48, 934, 888, 2197)",2,mbtiauth_3293
514,"(5234, 48, 934, 888, 5234)",2,mbtiauth_3293
515,"(5234, 48, 934, 2197, 678)",2,mbtiauth_3293
516,"(5234, 48, 934, 5234, 48)",2,mbtiauth_3293
517,"(5234, 48, 934, 5234, 678)",2,mbtiauth_3293
518,"(5234, 48, 934, 5234, 2197)",2,mbtiauth_3293
519,"(5234, 48, 5234, 48, 678)",2,mbtiauth_3293
520,"(5234, 48, 5234, 48, 2197)",2,mbtiauth_3293
521,"(5234, 48, 5234, 2197, 678)",2,mbtiauth_3293
522,"(5234, 888, 48, 2197, 678)",2,mbtiauth_3293
523,"(5234, 888, 5234, 48, 678)",2,mbtiauth_3293
524,"(5234, 888, 5234, 48, 2197)",2,mbtiauth_3293
525,"(5234, 888, 5234, 2197, 678)",2,mbtiauth_3293
526,"(5234, 934, 48, 2197, 678)",2,mbtiauth_3293
527,"(5234, 934, 888, 48, 678)",2,mbtiauth_3293
528,"(5234, 934, 888, 48, 2197)",2,mbtiauth_3293
529,"(5234, 934, 888, 2197, 678)",2,mbtiauth_3293
530,"(5234, 934, 888, 5234, 48)",2,mbtiauth_3293
531,"(5234, 934, 888, 5234, 678)",2,mbtiauth_3293
532,"(5234, 934, 888, 5234, 2197)",2,mbtiauth_3293
533,"(5234, 934, 5234, 48, 678)",2,mbtiauth_3293
534,"(5234, 934, 5234, 48, 2197)",2,mbtiauth_3293
535,"(5234, 934, 5234, 2197, 678)",2,mbtiauth_3293
536,"(5234, 5234, 48, 2197, 678)",2,mbtiauth_3293
537,"(48, 888, 5234, 48, 2197, 678)",2,mbtiauth_3293
538,"(48, 934, 888, 48, 2197, 678)",2,mbtiauth_3293
539,"(48, 934, 888, 5234, 48, 678)",2,mbtiauth_3293
540,"(48, 934, 888, 5234, 48, 2197)",2,mbtiauth_3293
541,"(48, 934, 888, 5234, 2197, 678)",2,mbtiauth_3293
542,"(48, 934, 5234, 48, 2197, 678)",2,mbtiauth_3293
543,"(934, 888, 5234, 48, 2197, 678)",2,mbtiauth_3293
544,"(5234, 48, 888, 48, 2197, 678)",2,mbtiauth_3293
545,"(5234, 48, 888, 5234, 48, 678)",2,mbtiauth_3293
546,"(5234, 48, 888, 5234, 48, 2197)",2,mbtiauth_3293
547,"(5234, 48, 888, 5234, 2197, 678)",2,mbtiauth_3293
548,"(5234, 48, 934, 48, 2197, 678)",2,mbtiauth_3293
549,"(5234, 48, 934, 888, 48, 678)",2,mbtiauth_3293
550,"(5234, 48, 934, 888, 48, 2197)",2,mbtiauth_3293
551,"(5234, 48, 934, 888, 2197, 678)",2,mbtiauth_3293
552,"(5234, 48, 934, 888, 5234, 48)",2,mbtiauth_3293
553,"(5234, 48, 934, 888, 5234, 678)",2,mbtiauth_3293
554,"(5234, 48, 934, 888, 5234, 2197)",2,mbtiauth_3293
555,"(5234, 48, 934, 5234, 48, 678)",2,mbtiauth_3293
556,"(5234, 48, 934, 5234, 48, 2197)",2,mbtiauth_3293
557,"(5234, 48, 934, 5234, 2197, 678)",2,mbtiauth_3293
558,"(5234, 48, 5234, 48, 2197, 678)",2,mbtiauth_3293
559,"(5234, 888, 5234, 48, 2197, 678)",2,mbtiauth_3293
560,"(5234, 934, 888, 48, 2197, 678)",2,mbtiauth_3293
561,"(5234, 934, 888, 5234, 48, 678)",2,mbtiauth_3293
562,"(5234, 934, 888, 5234, 48, 2197)",2,mbtiauth_3293
563,"(5234, 934, 888, 5234, 2197, 678)",2,mbtiauth_3293
564,"(5234, 934, 5234, 48, 2197, 678)",2,mbtiauth_3293
565,"(48, 934, 888, 5234, 48, 2197, 678)",2,mbtiauth_3293
566,"(5234, 48, 888, 5234, 48, 2197, 678)",2,mbtiauth_3293
567,"(5234, 48, 934, 888, 48, 2197, 678)",2,mbtiauth_3293
568,"(5234, 48, 934, 888, 5234, 48, 678)",2,mbtiauth_3293
569,"(5234, 48, 934, 888, 5234, 48, 2197)",2,mbtiauth_3293
570,"(5234, 48, 934, 888, 5234, 2197, 678)",2,mbtiauth_3293
571,"(5234, 48, 934, 5234, 48, 2197, 678)",2,mbtiauth_3293
572,"(5234, 934, 888, 5234, 48, 2197, 678)",2,mbtiauth_3293
573,"(5234, 48, 934, 888, 5234, 48, 2197, 678)",2,mbtiauth_3293
