,pattern,sup,author
190,"(19, 1190, 1024)",2,mbtiauth_6140
191,"(48, 233, 50)",2,mbtiauth_6140
192,"(48, 248, 50)",2,mbtiauth_6140
193,"(50, 50, 50)",2,mbtiauth_6140
194,"(50, 50, 296)",2,mbtiauth_6140
195,"(50, 254, 254)",2,mbtiauth_6140
196,"(50, 254, 471)",2,mbtiauth_6140
197,"(50, 929, 50)",2,mbtiauth_6140
198,"(89, 1336, 1092)",2,mbtiauth_6140
199,"(149, 138, 254)",2,mbtiauth_6140
200,"(247, 682, 9)",2,mbtiauth_6140
201,"(247, 855, 9)",2,mbtiauth_6140
202,"(247, 855, 682)",2,mbtiauth_6140
203,"(270, 50, 248)",2,mbtiauth_6140
204,"(270, 640, 248)",2,mbtiauth_6140
205,"(855, 682, 9)",2,mbtiauth_6140
206,"(929, 50, 50)",2,mbtiauth_6140
207,"(1827, 248, 1079)",2,mbtiauth_6140
208,"(247, 855, 682, 9)",2,mbtiauth_6140
