,pattern,sup,author
194,"(6, 17, 129)",2,mbtiauth_2123
195,"(6, 18, 17)",3,mbtiauth_2123
196,"(6, 18, 129)",2,mbtiauth_2123
197,"(17, 129, 435)",2,mbtiauth_2123
198,"(18, 17, 129)",2,mbtiauth_2123
199,"(18, 17, 435)",2,mbtiauth_2123
200,"(18, 129, 435)",2,mbtiauth_2123
201,"(48, 1349, 48)",2,mbtiauth_2123
202,"(50, 50, 50)",2,mbtiauth_2123
203,"(50, 89, 233)",2,mbtiauth_2123
204,"(50, 4546, 21171)",2,mbtiauth_2123
205,"(118, 29, 495)",2,mbtiauth_2123
206,"(138, 815, 50)",2,mbtiauth_2123
207,"(970, 1146, 50)",2,mbtiauth_2123
208,"(970, 1146, 11843)",2,mbtiauth_2123
209,"(970, 4546, 970)",2,mbtiauth_2123
210,"(970, 11843, 50)",2,mbtiauth_2123
211,"(1146, 11843, 50)",2,mbtiauth_2123
212,"(2257, 2385, 50)",2,mbtiauth_2123
213,"(4546, 112, 422)",2,mbtiauth_2123
214,"(4546, 970, 970)",2,mbtiauth_2123
215,"(4546, 970, 4546)",2,mbtiauth_2123
216,"(4546, 1146, 50)",2,mbtiauth_2123
217,"(4546, 1146, 11843)",2,mbtiauth_2123
218,"(4546, 4546, 970)",2,mbtiauth_2123
219,"(4546, 11843, 50)",2,mbtiauth_2123
220,"(6, 18, 17, 129)",2,mbtiauth_2123
221,"(18, 17, 129, 435)",2,mbtiauth_2123
222,"(970, 1146, 11843, 50)",2,mbtiauth_2123
223,"(4546, 970, 4546, 970)",2,mbtiauth_2123
224,"(4546, 1146, 11843, 50)",2,mbtiauth_2123
