,pattern,sup,author
303,"(5, 678, 1099)",2,mbtiauth_1882
304,"(5, 678, 1106)",2,mbtiauth_1882
305,"(5, 678, 1237)",2,mbtiauth_1882
306,"(5, 678, 4594)",2,mbtiauth_1882
307,"(5, 678, 135251)",2,mbtiauth_1882
308,"(5, 678, 135252)",2,mbtiauth_1882
309,"(5, 1099, 135252)",2,mbtiauth_1882
310,"(5, 1106, 1099)",2,mbtiauth_1882
311,"(5, 1106, 1237)",2,mbtiauth_1882
312,"(5, 1106, 4594)",2,mbtiauth_1882
313,"(5, 1106, 135251)",2,mbtiauth_1882
314,"(5, 1106, 135252)",2,mbtiauth_1882
315,"(5, 1237, 1099)",2,mbtiauth_1882
316,"(5, 1237, 135252)",2,mbtiauth_1882
317,"(5, 3603, 678)",2,mbtiauth_1882
318,"(5, 3603, 1099)",2,mbtiauth_1882
319,"(5, 3603, 1106)",2,mbtiauth_1882
320,"(5, 3603, 1237)",2,mbtiauth_1882
321,"(5, 3603, 4594)",2,mbtiauth_1882
322,"(5, 3603, 135251)",2,mbtiauth_1882
323,"(5, 3603, 135252)",2,mbtiauth_1882
324,"(5, 4594, 1099)",2,mbtiauth_1882
325,"(5, 4594, 1237)",2,mbtiauth_1882
326,"(5, 4594, 135251)",2,mbtiauth_1882
327,"(5, 4594, 135252)",2,mbtiauth_1882
328,"(5, 135251, 1099)",2,mbtiauth_1882
329,"(5, 135251, 1237)",2,mbtiauth_1882
330,"(5, 135251, 135252)",2,mbtiauth_1882
331,"(31, 5, 678)",2,mbtiauth_1882
332,"(31, 5, 1099)",2,mbtiauth_1882
333,"(31, 5, 1106)",2,mbtiauth_1882
334,"(31, 5, 1237)",2,mbtiauth_1882
335,"(31, 5, 3603)",2,mbtiauth_1882
336,"(31, 5, 4594)",2,mbtiauth_1882
337,"(31, 5, 135251)",2,mbtiauth_1882
338,"(31, 5, 135252)",2,mbtiauth_1882
339,"(31, 678, 1099)",2,mbtiauth_1882
340,"(31, 678, 1106)",3,mbtiauth_1882
341,"(31, 678, 1237)",2,mbtiauth_1882
342,"(31, 678, 4594)",2,mbtiauth_1882
343,"(31, 678, 135251)",2,mbtiauth_1882
344,"(31, 678, 135252)",2,mbtiauth_1882
345,"(31, 1099, 135252)",2,mbtiauth_1882
346,"(31, 1106, 1099)",2,mbtiauth_1882
347,"(31, 1106, 1237)",2,mbtiauth_1882
348,"(31, 1106, 4594)",2,mbtiauth_1882
349,"(31, 1106, 135251)",2,mbtiauth_1882
350,"(31, 1106, 135252)",2,mbtiauth_1882
351,"(31, 1237, 1099)",2,mbtiauth_1882
352,"(31, 1237, 135252)",2,mbtiauth_1882
353,"(31, 3603, 678)",2,mbtiauth_1882
354,"(31, 3603, 1099)",2,mbtiauth_1882
355,"(31, 3603, 1106)",2,mbtiauth_1882
356,"(31, 3603, 1237)",2,mbtiauth_1882
357,"(31, 3603, 4594)",2,mbtiauth_1882
358,"(31, 3603, 135251)",2,mbtiauth_1882
359,"(31, 3603, 135252)",2,mbtiauth_1882
360,"(31, 4594, 1099)",2,mbtiauth_1882
361,"(31, 4594, 1237)",2,mbtiauth_1882
362,"(31, 4594, 135251)",2,mbtiauth_1882
363,"(31, 4594, 135252)",2,mbtiauth_1882
364,"(31, 135251, 1099)",2,mbtiauth_1882
365,"(31, 135251, 1237)",2,mbtiauth_1882
366,"(31, 135251, 135252)",2,mbtiauth_1882
367,"(47, 166, 48)",2,mbtiauth_1882
368,"(48, 29, 296)",2,mbtiauth_1882
369,"(48, 50, 29)",2,mbtiauth_1882
370,"(48, 50, 248)",2,mbtiauth_1882
371,"(48, 50, 296)",2,mbtiauth_1882
372,"(48, 151, 29)",2,mbtiauth_1882
373,"(48, 151, 50)",3,mbtiauth_1882
374,"(48, 151, 248)",2,mbtiauth_1882
375,"(48, 151, 296)",2,mbtiauth_1882
376,"(48, 248, 29)",2,mbtiauth_1882
377,"(48, 248, 50)",3,mbtiauth_1882
378,"(48, 248, 296)",2,mbtiauth_1882
379,"(48, 5339, 662)",2,mbtiauth_1882
380,"(48, 20780, 662)",2,mbtiauth_1882
381,"(48, 20780, 5339)",2,mbtiauth_1882
382,"(50, 27, 50)",2,mbtiauth_1882
383,"(50, 29, 296)",2,mbtiauth_1882
384,"(50, 48, 27)",2,mbtiauth_1882
385,"(50, 48, 50)",2,mbtiauth_1882
386,"(50, 48, 151)",2,mbtiauth_1882
387,"(50, 48, 1088)",2,mbtiauth_1882
388,"(50, 50, 115)",3,mbtiauth_1882
389,"(50, 50, 382)",2,mbtiauth_1882
390,"(50, 50, 1014)",2,mbtiauth_1882
391,"(50, 50, 3941)",2,mbtiauth_1882
392,"(50, 115, 3941)",2,mbtiauth_1882
393,"(50, 248, 248)",2,mbtiauth_1882
394,"(50, 732, 50)",2,mbtiauth_1882
395,"(50, 732, 115)",2,mbtiauth_1882
396,"(50, 732, 1014)",2,mbtiauth_1882
397,"(50, 732, 3941)",2,mbtiauth_1882
398,"(50, 732, 48519)",2,mbtiauth_1882
399,"(50, 1014, 115)",2,mbtiauth_1882
400,"(50, 1014, 3941)",2,mbtiauth_1882
401,"(50, 48519, 50)",2,mbtiauth_1882
402,"(50, 48519, 115)",2,mbtiauth_1882
403,"(50, 48519, 1014)",2,mbtiauth_1882
404,"(50, 48519, 3941)",2,mbtiauth_1882
405,"(114, 5, 678)",2,mbtiauth_1882
406,"(114, 5, 1099)",2,mbtiauth_1882
407,"(114, 5, 1106)",2,mbtiauth_1882
408,"(114, 5, 1237)",2,mbtiauth_1882
409,"(114, 5, 3603)",2,mbtiauth_1882
410,"(114, 5, 4594)",2,mbtiauth_1882
411,"(114, 5, 135251)",2,mbtiauth_1882
412,"(114, 31, 5)",2,mbtiauth_1882
413,"(114, 31, 678)",2,mbtiauth_1882
414,"(114, 31, 1099)",2,mbtiauth_1882
415,"(114, 31, 1106)",2,mbtiauth_1882
416,"(114, 31, 1237)",2,mbtiauth_1882
417,"(114, 31, 3603)",2,mbtiauth_1882
418,"(114, 31, 4594)",2,mbtiauth_1882
419,"(114, 31, 135251)",2,mbtiauth_1882
420,"(114, 678, 1099)",2,mbtiauth_1882
421,"(114, 678, 1106)",2,mbtiauth_1882
422,"(114, 678, 1237)",2,mbtiauth_1882
423,"(114, 678, 4594)",2,mbtiauth_1882
424,"(114, 678, 135251)",2,mbtiauth_1882
425,"(114, 1106, 1099)",2,mbtiauth_1882
426,"(114, 1106, 1237)",2,mbtiauth_1882
427,"(114, 1106, 4594)",2,mbtiauth_1882
428,"(114, 1106, 135251)",2,mbtiauth_1882
429,"(114, 1237, 1099)",2,mbtiauth_1882
430,"(114, 3603, 678)",2,mbtiauth_1882
431,"(114, 3603, 1099)",2,mbtiauth_1882
432,"(114, 3603, 1106)",2,mbtiauth_1882
433,"(114, 3603, 1237)",2,mbtiauth_1882
434,"(114, 3603, 4594)",2,mbtiauth_1882
435,"(114, 3603, 135251)",2,mbtiauth_1882
436,"(114, 4594, 1099)",2,mbtiauth_1882
437,"(114, 4594, 1237)",2,mbtiauth_1882
438,"(114, 4594, 135251)",2,mbtiauth_1882
439,"(114, 135251, 1099)",2,mbtiauth_1882
440,"(114, 135251, 1237)",2,mbtiauth_1882
441,"(122, 123, 50)",2,mbtiauth_1882
442,"(138, 47, 48)",2,mbtiauth_1882
443,"(138, 47, 166)",2,mbtiauth_1882
444,"(138, 166, 48)",2,mbtiauth_1882
445,"(138, 470, 47)",2,mbtiauth_1882
446,"(138, 470, 48)",2,mbtiauth_1882
447,"(138, 470, 166)",2,mbtiauth_1882
448,"(151, 29, 296)",2,mbtiauth_1882
449,"(151, 48, 662)",2,mbtiauth_1882
450,"(151, 48, 5339)",2,mbtiauth_1882
451,"(151, 48, 20780)",2,mbtiauth_1882
452,"(151, 50, 29)",2,mbtiauth_1882
453,"(151, 50, 296)",2,mbtiauth_1882
454,"(151, 50, 1326)",2,mbtiauth_1882
455,"(151, 248, 29)",2,mbtiauth_1882
456,"(151, 248, 50)",3,mbtiauth_1882
457,"(151, 248, 296)",2,mbtiauth_1882
458,"(151, 1056, 50)",2,mbtiauth_1882
459,"(151, 1056, 1326)",2,mbtiauth_1882
460,"(151, 1326, 50)",2,mbtiauth_1882
461,"(151, 1326, 1326)",2,mbtiauth_1882
462,"(151, 5339, 662)",2,mbtiauth_1882
463,"(151, 20780, 662)",2,mbtiauth_1882
464,"(151, 20780, 5339)",2,mbtiauth_1882
465,"(248, 29, 296)",2,mbtiauth_1882
466,"(248, 50, 29)",2,mbtiauth_1882
467,"(248, 50, 50)",2,mbtiauth_1882
468,"(248, 50, 296)",2,mbtiauth_1882
469,"(470, 47, 48)",2,mbtiauth_1882
470,"(470, 47, 166)",2,mbtiauth_1882
471,"(470, 166, 48)",2,mbtiauth_1882
472,"(485, 50, 48)",2,mbtiauth_1882
473,"(678, 1099, 135252)",2,mbtiauth_1882
474,"(678, 1106, 1099)",2,mbtiauth_1882
475,"(678, 1106, 1237)",2,mbtiauth_1882
476,"(678, 1106, 4594)",2,mbtiauth_1882
477,"(678, 1106, 135251)",2,mbtiauth_1882
478,"(678, 1106, 135252)",2,mbtiauth_1882
479,"(678, 1237, 1099)",2,mbtiauth_1882
480,"(678, 1237, 135252)",2,mbtiauth_1882
481,"(678, 4594, 1099)",2,mbtiauth_1882
482,"(678, 4594, 1237)",2,mbtiauth_1882
483,"(678, 4594, 135251)",2,mbtiauth_1882
484,"(678, 4594, 135252)",2,mbtiauth_1882
485,"(678, 135251, 1099)",2,mbtiauth_1882
486,"(678, 135251, 1237)",2,mbtiauth_1882
487,"(678, 135251, 135252)",2,mbtiauth_1882
488,"(732, 50, 115)",2,mbtiauth_1882
489,"(732, 50, 1014)",2,mbtiauth_1882
490,"(732, 50, 3941)",2,mbtiauth_1882
491,"(732, 115, 3941)",2,mbtiauth_1882
492,"(732, 1014, 115)",2,mbtiauth_1882
493,"(732, 1014, 3941)",2,mbtiauth_1882
494,"(732, 48519, 50)",2,mbtiauth_1882
495,"(732, 48519, 115)",2,mbtiauth_1882
496,"(732, 48519, 1014)",2,mbtiauth_1882
497,"(732, 48519, 3941)",2,mbtiauth_1882
498,"(1014, 115, 3941)",2,mbtiauth_1882
499,"(1056, 50, 1326)",2,mbtiauth_1882
500,"(1056, 1326, 50)",2,mbtiauth_1882
501,"(1056, 1326, 1326)",2,mbtiauth_1882
502,"(1106, 1099, 135252)",2,mbtiauth_1882
503,"(1106, 1237, 1099)",2,mbtiauth_1882
504,"(1106, 1237, 135252)",2,mbtiauth_1882
505,"(1106, 4594, 1099)",2,mbtiauth_1882
506,"(1106, 4594, 1237)",2,mbtiauth_1882
507,"(1106, 4594, 135251)",2,mbtiauth_1882
508,"(1106, 4594, 135252)",2,mbtiauth_1882
509,"(1106, 135251, 1099)",2,mbtiauth_1882
510,"(1106, 135251, 1237)",2,mbtiauth_1882
511,"(1106, 135251, 135252)",2,mbtiauth_1882
512,"(1175, 50, 1326)",2,mbtiauth_1882
513,"(1175, 151, 50)",2,mbtiauth_1882
514,"(1175, 151, 1056)",2,mbtiauth_1882
515,"(1175, 151, 1326)",2,mbtiauth_1882
516,"(1175, 1056, 50)",2,mbtiauth_1882
517,"(1175, 1056, 1326)",2,mbtiauth_1882
518,"(1175, 1326, 50)",2,mbtiauth_1882
519,"(1175, 1326, 1326)",2,mbtiauth_1882
520,"(1178, 50, 1326)",2,mbtiauth_1882
521,"(1178, 151, 50)",2,mbtiauth_1882
522,"(1178, 151, 1056)",2,mbtiauth_1882
523,"(1178, 151, 1326)",2,mbtiauth_1882
524,"(1178, 1056, 50)",2,mbtiauth_1882
525,"(1178, 1056, 1326)",2,mbtiauth_1882
526,"(1178, 1175, 50)",2,mbtiauth_1882
527,"(1178, 1175, 151)",2,mbtiauth_1882
528,"(1178, 1175, 1056)",2,mbtiauth_1882
529,"(1178, 1175, 1326)",2,mbtiauth_1882
530,"(1178, 1326, 50)",2,mbtiauth_1882
531,"(1178, 1326, 1326)",2,mbtiauth_1882
532,"(1237, 1099, 135252)",2,mbtiauth_1882
533,"(1326, 50, 1326)",2,mbtiauth_1882
534,"(3392, 48, 662)",2,mbtiauth_1882
535,"(3392, 48, 5339)",2,mbtiauth_1882
536,"(3392, 48, 20780)",2,mbtiauth_1882
537,"(3392, 151, 48)",2,mbtiauth_1882
538,"(3392, 151, 662)",2,mbtiauth_1882
539,"(3392, 151, 5339)",2,mbtiauth_1882
540,"(3392, 151, 20780)",2,mbtiauth_1882
541,"(3392, 5339, 662)",2,mbtiauth_1882
542,"(3392, 20780, 662)",2,mbtiauth_1882
543,"(3392, 20780, 5339)",2,mbtiauth_1882
544,"(3603, 678, 1099)",2,mbtiauth_1882
545,"(3603, 678, 1106)",2,mbtiauth_1882
546,"(3603, 678, 1237)",2,mbtiauth_1882
547,"(3603, 678, 4594)",2,mbtiauth_1882
548,"(3603, 678, 135251)",2,mbtiauth_1882
549,"(3603, 678, 135252)",2,mbtiauth_1882
550,"(3603, 1099, 135252)",2,mbtiauth_1882
551,"(3603, 1106, 1099)",2,mbtiauth_1882
552,"(3603, 1106, 1237)",2,mbtiauth_1882
553,"(3603, 1106, 4594)",2,mbtiauth_1882
554,"(3603, 1106, 135251)",2,mbtiauth_1882
555,"(3603, 1106, 135252)",2,mbtiauth_1882
556,"(3603, 1237, 1099)",2,mbtiauth_1882
557,"(3603, 1237, 135252)",2,mbtiauth_1882
558,"(3603, 4594, 1099)",2,mbtiauth_1882
559,"(3603, 4594, 1237)",2,mbtiauth_1882
560,"(3603, 4594, 135251)",2,mbtiauth_1882
561,"(3603, 4594, 135252)",2,mbtiauth_1882
562,"(3603, 135251, 1099)",2,mbtiauth_1882
563,"(3603, 135251, 1237)",2,mbtiauth_1882
564,"(3603, 135251, 135252)",2,mbtiauth_1882
565,"(4594, 1099, 135252)",2,mbtiauth_1882
566,"(4594, 1237, 1099)",2,mbtiauth_1882
567,"(4594, 1237, 135252)",2,mbtiauth_1882
568,"(4594, 135251, 1099)",2,mbtiauth_1882
569,"(4594, 135251, 1237)",2,mbtiauth_1882
570,"(4594, 135251, 135252)",2,mbtiauth_1882
571,"(20780, 5339, 662)",2,mbtiauth_1882
572,"(48519, 50, 115)",2,mbtiauth_1882
573,"(48519, 50, 1014)",2,mbtiauth_1882
574,"(48519, 50, 3941)",2,mbtiauth_1882
575,"(48519, 115, 3941)",2,mbtiauth_1882
576,"(48519, 1014, 115)",2,mbtiauth_1882
577,"(48519, 1014, 3941)",2,mbtiauth_1882
578,"(135251, 1099, 135252)",2,mbtiauth_1882
579,"(135251, 1237, 1099)",2,mbtiauth_1882
580,"(135251, 1237, 135252)",2,mbtiauth_1882
581,"(5, 678, 1099, 135252)",2,mbtiauth_1882
582,"(5, 678, 1106, 1099)",2,mbtiauth_1882
583,"(5, 678, 1106, 1237)",2,mbtiauth_1882
584,"(5, 678, 1106, 4594)",2,mbtiauth_1882
585,"(5, 678, 1106, 135251)",2,mbtiauth_1882
586,"(5, 678, 1106, 135252)",2,mbtiauth_1882
587,"(5, 678, 1237, 1099)",2,mbtiauth_1882
588,"(5, 678, 1237, 135252)",2,mbtiauth_1882
589,"(5, 678, 4594, 1099)",2,mbtiauth_1882
590,"(5, 678, 4594, 1237)",2,mbtiauth_1882
591,"(5, 678, 4594, 135251)",2,mbtiauth_1882
592,"(5, 678, 4594, 135252)",2,mbtiauth_1882
593,"(5, 678, 135251, 1099)",2,mbtiauth_1882
594,"(5, 678, 135251, 1237)",2,mbtiauth_1882
595,"(5, 678, 135251, 135252)",2,mbtiauth_1882
596,"(5, 1106, 1099, 135252)",2,mbtiauth_1882
597,"(5, 1106, 1237, 1099)",2,mbtiauth_1882
598,"(5, 1106, 1237, 135252)",2,mbtiauth_1882
599,"(5, 1106, 4594, 1099)",2,mbtiauth_1882
600,"(5, 1106, 4594, 1237)",2,mbtiauth_1882
601,"(5, 1106, 4594, 135251)",2,mbtiauth_1882
602,"(5, 1106, 4594, 135252)",2,mbtiauth_1882
603,"(5, 1106, 135251, 1099)",2,mbtiauth_1882
604,"(5, 1106, 135251, 1237)",2,mbtiauth_1882
605,"(5, 1106, 135251, 135252)",2,mbtiauth_1882
606,"(5, 1237, 1099, 135252)",2,mbtiauth_1882
607,"(5, 3603, 678, 1099)",2,mbtiauth_1882
608,"(5, 3603, 678, 1106)",2,mbtiauth_1882
609,"(5, 3603, 678, 1237)",2,mbtiauth_1882
610,"(5, 3603, 678, 4594)",2,mbtiauth_1882
611,"(5, 3603, 678, 135251)",2,mbtiauth_1882
612,"(5, 3603, 678, 135252)",2,mbtiauth_1882
613,"(5, 3603, 1099, 135252)",2,mbtiauth_1882
614,"(5, 3603, 1106, 1099)",2,mbtiauth_1882
615,"(5, 3603, 1106, 1237)",2,mbtiauth_1882
616,"(5, 3603, 1106, 4594)",2,mbtiauth_1882
617,"(5, 3603, 1106, 135251)",2,mbtiauth_1882
618,"(5, 3603, 1106, 135252)",2,mbtiauth_1882
619,"(5, 3603, 1237, 1099)",2,mbtiauth_1882
620,"(5, 3603, 1237, 135252)",2,mbtiauth_1882
621,"(5, 3603, 4594, 1099)",2,mbtiauth_1882
622,"(5, 3603, 4594, 1237)",2,mbtiauth_1882
623,"(5, 3603, 4594, 135251)",2,mbtiauth_1882
624,"(5, 3603, 4594, 135252)",2,mbtiauth_1882
625,"(5, 3603, 135251, 1099)",2,mbtiauth_1882
626,"(5, 3603, 135251, 1237)",2,mbtiauth_1882
627,"(5, 3603, 135251, 135252)",2,mbtiauth_1882
628,"(5, 4594, 1099, 135252)",2,mbtiauth_1882
629,"(5, 4594, 1237, 1099)",2,mbtiauth_1882
630,"(5, 4594, 1237, 135252)",2,mbtiauth_1882
631,"(5, 4594, 135251, 1099)",2,mbtiauth_1882
632,"(5, 4594, 135251, 1237)",2,mbtiauth_1882
633,"(5, 4594, 135251, 135252)",2,mbtiauth_1882
634,"(5, 135251, 1099, 135252)",2,mbtiauth_1882
635,"(5, 135251, 1237, 1099)",2,mbtiauth_1882
636,"(5, 135251, 1237, 135252)",2,mbtiauth_1882
637,"(31, 5, 678, 1099)",2,mbtiauth_1882
638,"(31, 5, 678, 1106)",2,mbtiauth_1882
639,"(31, 5, 678, 1237)",2,mbtiauth_1882
640,"(31, 5, 678, 4594)",2,mbtiauth_1882
641,"(31, 5, 678, 135251)",2,mbtiauth_1882
642,"(31, 5, 678, 135252)",2,mbtiauth_1882
643,"(31, 5, 1099, 135252)",2,mbtiauth_1882
644,"(31, 5, 1106, 1099)",2,mbtiauth_1882
645,"(31, 5, 1106, 1237)",2,mbtiauth_1882
646,"(31, 5, 1106, 4594)",2,mbtiauth_1882
647,"(31, 5, 1106, 135251)",2,mbtiauth_1882
648,"(31, 5, 1106, 135252)",2,mbtiauth_1882
649,"(31, 5, 1237, 1099)",2,mbtiauth_1882
650,"(31, 5, 1237, 135252)",2,mbtiauth_1882
651,"(31, 5, 3603, 678)",2,mbtiauth_1882
652,"(31, 5, 3603, 1099)",2,mbtiauth_1882
653,"(31, 5, 3603, 1106)",2,mbtiauth_1882
654,"(31, 5, 3603, 1237)",2,mbtiauth_1882
655,"(31, 5, 3603, 4594)",2,mbtiauth_1882
656,"(31, 5, 3603, 135251)",2,mbtiauth_1882
657,"(31, 5, 3603, 135252)",2,mbtiauth_1882
658,"(31, 5, 4594, 1099)",2,mbtiauth_1882
659,"(31, 5, 4594, 1237)",2,mbtiauth_1882
660,"(31, 5, 4594, 135251)",2,mbtiauth_1882
661,"(31, 5, 4594, 135252)",2,mbtiauth_1882
662,"(31, 5, 135251, 1099)",2,mbtiauth_1882
663,"(31, 5, 135251, 1237)",2,mbtiauth_1882
664,"(31, 5, 135251, 135252)",2,mbtiauth_1882
665,"(31, 678, 1099, 135252)",2,mbtiauth_1882
666,"(31, 678, 1106, 1099)",2,mbtiauth_1882
667,"(31, 678, 1106, 1237)",2,mbtiauth_1882
668,"(31, 678, 1106, 4594)",2,mbtiauth_1882
669,"(31, 678, 1106, 135251)",2,mbtiauth_1882
670,"(31, 678, 1106, 135252)",2,mbtiauth_1882
671,"(31, 678, 1237, 1099)",2,mbtiauth_1882
672,"(31, 678, 1237, 135252)",2,mbtiauth_1882
673,"(31, 678, 4594, 1099)",2,mbtiauth_1882
674,"(31, 678, 4594, 1237)",2,mbtiauth_1882
675,"(31, 678, 4594, 135251)",2,mbtiauth_1882
676,"(31, 678, 4594, 135252)",2,mbtiauth_1882
677,"(31, 678, 135251, 1099)",2,mbtiauth_1882
678,"(31, 678, 135251, 1237)",2,mbtiauth_1882
679,"(31, 678, 135251, 135252)",2,mbtiauth_1882
680,"(31, 1106, 1099, 135252)",2,mbtiauth_1882
681,"(31, 1106, 1237, 1099)",2,mbtiauth_1882
682,"(31, 1106, 1237, 135252)",2,mbtiauth_1882
683,"(31, 1106, 4594, 1099)",2,mbtiauth_1882
684,"(31, 1106, 4594, 1237)",2,mbtiauth_1882
685,"(31, 1106, 4594, 135251)",2,mbtiauth_1882
686,"(31, 1106, 4594, 135252)",2,mbtiauth_1882
687,"(31, 1106, 135251, 1099)",2,mbtiauth_1882
688,"(31, 1106, 135251, 1237)",2,mbtiauth_1882
689,"(31, 1106, 135251, 135252)",2,mbtiauth_1882
690,"(31, 1237, 1099, 135252)",2,mbtiauth_1882
691,"(31, 3603, 678, 1099)",2,mbtiauth_1882
692,"(31, 3603, 678, 1106)",2,mbtiauth_1882
693,"(31, 3603, 678, 1237)",2,mbtiauth_1882
694,"(31, 3603, 678, 4594)",2,mbtiauth_1882
695,"(31, 3603, 678, 135251)",2,mbtiauth_1882
696,"(31, 3603, 678, 135252)",2,mbtiauth_1882
697,"(31, 3603, 1099, 135252)",2,mbtiauth_1882
698,"(31, 3603, 1106, 1099)",2,mbtiauth_1882
699,"(31, 3603, 1106, 1237)",2,mbtiauth_1882
700,"(31, 3603, 1106, 4594)",2,mbtiauth_1882
701,"(31, 3603, 1106, 135251)",2,mbtiauth_1882
702,"(31, 3603, 1106, 135252)",2,mbtiauth_1882
703,"(31, 3603, 1237, 1099)",2,mbtiauth_1882
704,"(31, 3603, 1237, 135252)",2,mbtiauth_1882
705,"(31, 3603, 4594, 1099)",2,mbtiauth_1882
706,"(31, 3603, 4594, 1237)",2,mbtiauth_1882
707,"(31, 3603, 4594, 135251)",2,mbtiauth_1882
708,"(31, 3603, 4594, 135252)",2,mbtiauth_1882
709,"(31, 3603, 135251, 1099)",2,mbtiauth_1882
710,"(31, 3603, 135251, 1237)",2,mbtiauth_1882
711,"(31, 3603, 135251, 135252)",2,mbtiauth_1882
712,"(31, 4594, 1099, 135252)",2,mbtiauth_1882
713,"(31, 4594, 1237, 1099)",2,mbtiauth_1882
714,"(31, 4594, 1237, 135252)",2,mbtiauth_1882
715,"(31, 4594, 135251, 1099)",2,mbtiauth_1882
716,"(31, 4594, 135251, 1237)",2,mbtiauth_1882
717,"(31, 4594, 135251, 135252)",2,mbtiauth_1882
718,"(31, 135251, 1099, 135252)",2,mbtiauth_1882
719,"(31, 135251, 1237, 1099)",2,mbtiauth_1882
720,"(31, 135251, 1237, 135252)",2,mbtiauth_1882
721,"(48, 50, 29, 296)",2,mbtiauth_1882
722,"(48, 151, 29, 296)",2,mbtiauth_1882
723,"(48, 151, 50, 29)",2,mbtiauth_1882
724,"(48, 151, 50, 296)",2,mbtiauth_1882
725,"(48, 151, 248, 29)",2,mbtiauth_1882
726,"(48, 151, 248, 50)",2,mbtiauth_1882
727,"(48, 151, 248, 296)",2,mbtiauth_1882
728,"(48, 248, 29, 296)",2,mbtiauth_1882
729,"(48, 248, 50, 29)",2,mbtiauth_1882
730,"(48, 248, 50, 296)",2,mbtiauth_1882
731,"(48, 20780, 5339, 662)",2,mbtiauth_1882
732,"(50, 50, 115, 3941)",2,mbtiauth_1882
733,"(50, 50, 1014, 115)",2,mbtiauth_1882
734,"(50, 50, 1014, 3941)",2,mbtiauth_1882
735,"(50, 732, 50, 115)",2,mbtiauth_1882
736,"(50, 732, 50, 1014)",2,mbtiauth_1882
737,"(50, 732, 50, 3941)",2,mbtiauth_1882
738,"(50, 732, 115, 3941)",2,mbtiauth_1882
739,"(50, 732, 1014, 115)",2,mbtiauth_1882
740,"(50, 732, 1014, 3941)",2,mbtiauth_1882
741,"(50, 732, 48519, 50)",2,mbtiauth_1882
742,"(50, 732, 48519, 115)",2,mbtiauth_1882
743,"(50, 732, 48519, 1014)",2,mbtiauth_1882
744,"(50, 732, 48519, 3941)",2,mbtiauth_1882
745,"(50, 1014, 115, 3941)",2,mbtiauth_1882
746,"(50, 48519, 50, 115)",2,mbtiauth_1882
747,"(50, 48519, 50, 1014)",2,mbtiauth_1882
748,"(50, 48519, 50, 3941)",2,mbtiauth_1882
749,"(50, 48519, 115, 3941)",2,mbtiauth_1882
750,"(50, 48519, 1014, 115)",2,mbtiauth_1882
751,"(50, 48519, 1014, 3941)",2,mbtiauth_1882
752,"(114, 5, 678, 1099)",2,mbtiauth_1882
753,"(114, 5, 678, 1106)",2,mbtiauth_1882
754,"(114, 5, 678, 1237)",2,mbtiauth_1882
755,"(114, 5, 678, 4594)",2,mbtiauth_1882
756,"(114, 5, 678, 135251)",2,mbtiauth_1882
757,"(114, 5, 1106, 1099)",2,mbtiauth_1882
758,"(114, 5, 1106, 1237)",2,mbtiauth_1882
759,"(114, 5, 1106, 4594)",2,mbtiauth_1882
760,"(114, 5, 1106, 135251)",2,mbtiauth_1882
761,"(114, 5, 1237, 1099)",2,mbtiauth_1882
762,"(114, 5, 3603, 678)",2,mbtiauth_1882
763,"(114, 5, 3603, 1099)",2,mbtiauth_1882
764,"(114, 5, 3603, 1106)",2,mbtiauth_1882
765,"(114, 5, 3603, 1237)",2,mbtiauth_1882
766,"(114, 5, 3603, 4594)",2,mbtiauth_1882
767,"(114, 5, 3603, 135251)",2,mbtiauth_1882
768,"(114, 5, 4594, 1099)",2,mbtiauth_1882
769,"(114, 5, 4594, 1237)",2,mbtiauth_1882
770,"(114, 5, 4594, 135251)",2,mbtiauth_1882
771,"(114, 5, 135251, 1099)",2,mbtiauth_1882
772,"(114, 5, 135251, 1237)",2,mbtiauth_1882
773,"(114, 31, 5, 678)",2,mbtiauth_1882
774,"(114, 31, 5, 1099)",2,mbtiauth_1882
775,"(114, 31, 5, 1106)",2,mbtiauth_1882
776,"(114, 31, 5, 1237)",2,mbtiauth_1882
777,"(114, 31, 5, 3603)",2,mbtiauth_1882
778,"(114, 31, 5, 4594)",2,mbtiauth_1882
779,"(114, 31, 5, 135251)",2,mbtiauth_1882
780,"(114, 31, 678, 1099)",2,mbtiauth_1882
781,"(114, 31, 678, 1106)",2,mbtiauth_1882
782,"(114, 31, 678, 1237)",2,mbtiauth_1882
783,"(114, 31, 678, 4594)",2,mbtiauth_1882
784,"(114, 31, 678, 135251)",2,mbtiauth_1882
785,"(114, 31, 1106, 1099)",2,mbtiauth_1882
786,"(114, 31, 1106, 1237)",2,mbtiauth_1882
787,"(114, 31, 1106, 4594)",2,mbtiauth_1882
788,"(114, 31, 1106, 135251)",2,mbtiauth_1882
789,"(114, 31, 1237, 1099)",2,mbtiauth_1882
790,"(114, 31, 3603, 678)",2,mbtiauth_1882
791,"(114, 31, 3603, 1099)",2,mbtiauth_1882
792,"(114, 31, 3603, 1106)",2,mbtiauth_1882
793,"(114, 31, 3603, 1237)",2,mbtiauth_1882
794,"(114, 31, 3603, 4594)",2,mbtiauth_1882
795,"(114, 31, 3603, 135251)",2,mbtiauth_1882
796,"(114, 31, 4594, 1099)",2,mbtiauth_1882
797,"(114, 31, 4594, 1237)",2,mbtiauth_1882
798,"(114, 31, 4594, 135251)",2,mbtiauth_1882
799,"(114, 31, 135251, 1099)",2,mbtiauth_1882
800,"(114, 31, 135251, 1237)",2,mbtiauth_1882
801,"(114, 678, 1106, 1099)",2,mbtiauth_1882
802,"(114, 678, 1106, 1237)",2,mbtiauth_1882
803,"(114, 678, 1106, 4594)",2,mbtiauth_1882
804,"(114, 678, 1106, 135251)",2,mbtiauth_1882
805,"(114, 678, 1237, 1099)",2,mbtiauth_1882
806,"(114, 678, 4594, 1099)",2,mbtiauth_1882
807,"(114, 678, 4594, 1237)",2,mbtiauth_1882
808,"(114, 678, 4594, 135251)",2,mbtiauth_1882
809,"(114, 678, 135251, 1099)",2,mbtiauth_1882
810,"(114, 678, 135251, 1237)",2,mbtiauth_1882
811,"(114, 1106, 1237, 1099)",2,mbtiauth_1882
812,"(114, 1106, 4594, 1099)",2,mbtiauth_1882
813,"(114, 1106, 4594, 1237)",2,mbtiauth_1882
814,"(114, 1106, 4594, 135251)",2,mbtiauth_1882
815,"(114, 1106, 135251, 1099)",2,mbtiauth_1882
816,"(114, 1106, 135251, 1237)",2,mbtiauth_1882
817,"(114, 3603, 678, 1099)",2,mbtiauth_1882
818,"(114, 3603, 678, 1106)",2,mbtiauth_1882
819,"(114, 3603, 678, 1237)",2,mbtiauth_1882
820,"(114, 3603, 678, 4594)",2,mbtiauth_1882
821,"(114, 3603, 678, 135251)",2,mbtiauth_1882
822,"(114, 3603, 1106, 1099)",2,mbtiauth_1882
823,"(114, 3603, 1106, 1237)",2,mbtiauth_1882
824,"(114, 3603, 1106, 4594)",2,mbtiauth_1882
825,"(114, 3603, 1106, 135251)",2,mbtiauth_1882
826,"(114, 3603, 1237, 1099)",2,mbtiauth_1882
827,"(114, 3603, 4594, 1099)",2,mbtiauth_1882
828,"(114, 3603, 4594, 1237)",2,mbtiauth_1882
829,"(114, 3603, 4594, 135251)",2,mbtiauth_1882
830,"(114, 3603, 135251, 1099)",2,mbtiauth_1882
831,"(114, 3603, 135251, 1237)",2,mbtiauth_1882
832,"(114, 4594, 1237, 1099)",2,mbtiauth_1882
833,"(114, 4594, 135251, 1099)",2,mbtiauth_1882
834,"(114, 4594, 135251, 1237)",2,mbtiauth_1882
835,"(114, 135251, 1237, 1099)",2,mbtiauth_1882
836,"(138, 47, 166, 48)",2,mbtiauth_1882
837,"(138, 470, 47, 48)",2,mbtiauth_1882
838,"(138, 470, 47, 166)",2,mbtiauth_1882
839,"(138, 470, 166, 48)",2,mbtiauth_1882
840,"(151, 48, 5339, 662)",2,mbtiauth_1882
841,"(151, 48, 20780, 662)",2,mbtiauth_1882
842,"(151, 48, 20780, 5339)",2,mbtiauth_1882
843,"(151, 50, 29, 296)",2,mbtiauth_1882
844,"(151, 248, 29, 296)",2,mbtiauth_1882
845,"(151, 248, 50, 29)",2,mbtiauth_1882
846,"(151, 248, 50, 296)",2,mbtiauth_1882
847,"(151, 1056, 50, 1326)",2,mbtiauth_1882
848,"(151, 1056, 1326, 50)",2,mbtiauth_1882
849,"(151, 1056, 1326, 1326)",2,mbtiauth_1882
850,"(151, 1326, 50, 1326)",2,mbtiauth_1882
851,"(151, 20780, 5339, 662)",2,mbtiauth_1882
852,"(248, 50, 29, 296)",2,mbtiauth_1882
853,"(470, 47, 166, 48)",2,mbtiauth_1882
854,"(678, 1106, 1099, 135252)",2,mbtiauth_1882
855,"(678, 1106, 1237, 1099)",2,mbtiauth_1882
856,"(678, 1106, 1237, 135252)",2,mbtiauth_1882
857,"(678, 1106, 4594, 1099)",2,mbtiauth_1882
858,"(678, 1106, 4594, 1237)",2,mbtiauth_1882
859,"(678, 1106, 4594, 135251)",2,mbtiauth_1882
860,"(678, 1106, 4594, 135252)",2,mbtiauth_1882
861,"(678, 1106, 135251, 1099)",2,mbtiauth_1882
862,"(678, 1106, 135251, 1237)",2,mbtiauth_1882
863,"(678, 1106, 135251, 135252)",2,mbtiauth_1882
864,"(678, 1237, 1099, 135252)",2,mbtiauth_1882
865,"(678, 4594, 1099, 135252)",2,mbtiauth_1882
866,"(678, 4594, 1237, 1099)",2,mbtiauth_1882
867,"(678, 4594, 1237, 135252)",2,mbtiauth_1882
868,"(678, 4594, 135251, 1099)",2,mbtiauth_1882
869,"(678, 4594, 135251, 1237)",2,mbtiauth_1882
870,"(678, 4594, 135251, 135252)",2,mbtiauth_1882
871,"(678, 135251, 1099, 135252)",2,mbtiauth_1882
872,"(678, 135251, 1237, 1099)",2,mbtiauth_1882
873,"(678, 135251, 1237, 135252)",2,mbtiauth_1882
874,"(732, 50, 115, 3941)",2,mbtiauth_1882
875,"(732, 50, 1014, 115)",2,mbtiauth_1882
876,"(732, 50, 1014, 3941)",2,mbtiauth_1882
877,"(732, 1014, 115, 3941)",2,mbtiauth_1882
878,"(732, 48519, 50, 115)",2,mbtiauth_1882
879,"(732, 48519, 50, 1014)",2,mbtiauth_1882
880,"(732, 48519, 50, 3941)",2,mbtiauth_1882
881,"(732, 48519, 115, 3941)",2,mbtiauth_1882
882,"(732, 48519, 1014, 115)",2,mbtiauth_1882
883,"(732, 48519, 1014, 3941)",2,mbtiauth_1882
884,"(1056, 1326, 50, 1326)",2,mbtiauth_1882
885,"(1106, 1237, 1099, 135252)",2,mbtiauth_1882
886,"(1106, 4594, 1099, 135252)",2,mbtiauth_1882
887,"(1106, 4594, 1237, 1099)",2,mbtiauth_1882
888,"(1106, 4594, 1237, 135252)",2,mbtiauth_1882
889,"(1106, 4594, 135251, 1099)",2,mbtiauth_1882
890,"(1106, 4594, 135251, 1237)",2,mbtiauth_1882
891,"(1106, 4594, 135251, 135252)",2,mbtiauth_1882
892,"(1106, 135251, 1099, 135252)",2,mbtiauth_1882
893,"(1106, 135251, 1237, 1099)",2,mbtiauth_1882
894,"(1106, 135251, 1237, 135252)",2,mbtiauth_1882
895,"(1175, 151, 50, 1326)",2,mbtiauth_1882
896,"(1175, 151, 1056, 50)",2,mbtiauth_1882
897,"(1175, 151, 1056, 1326)",2,mbtiauth_1882
898,"(1175, 151, 1326, 50)",2,mbtiauth_1882
899,"(1175, 151, 1326, 1326)",2,mbtiauth_1882
900,"(1175, 1056, 50, 1326)",2,mbtiauth_1882
901,"(1175, 1056, 1326, 50)",2,mbtiauth_1882
902,"(1175, 1056, 1326, 1326)",2,mbtiauth_1882
903,"(1175, 1326, 50, 1326)",2,mbtiauth_1882
904,"(1178, 151, 50, 1326)",2,mbtiauth_1882
905,"(1178, 151, 1056, 50)",2,mbtiauth_1882
906,"(1178, 151, 1056, 1326)",2,mbtiauth_1882
907,"(1178, 151, 1326, 50)",2,mbtiauth_1882
908,"(1178, 151, 1326, 1326)",2,mbtiauth_1882
909,"(1178, 1056, 50, 1326)",2,mbtiauth_1882
910,"(1178, 1056, 1326, 50)",2,mbtiauth_1882
911,"(1178, 1056, 1326, 1326)",2,mbtiauth_1882
912,"(1178, 1175, 50, 1326)",2,mbtiauth_1882
913,"(1178, 1175, 151, 50)",2,mbtiauth_1882
914,"(1178, 1175, 151, 1056)",2,mbtiauth_1882
915,"(1178, 1175, 151, 1326)",2,mbtiauth_1882
916,"(1178, 1175, 1056, 50)",2,mbtiauth_1882
917,"(1178, 1175, 1056, 1326)",2,mbtiauth_1882
918,"(1178, 1175, 1326, 50)",2,mbtiauth_1882
919,"(1178, 1175, 1326, 1326)",2,mbtiauth_1882
920,"(1178, 1326, 50, 1326)",2,mbtiauth_1882
921,"(3392, 48, 5339, 662)",2,mbtiauth_1882
922,"(3392, 48, 20780, 662)",2,mbtiauth_1882
923,"(3392, 48, 20780, 5339)",2,mbtiauth_1882
924,"(3392, 151, 48, 662)",2,mbtiauth_1882
925,"(3392, 151, 48, 5339)",2,mbtiauth_1882
926,"(3392, 151, 48, 20780)",2,mbtiauth_1882
927,"(3392, 151, 5339, 662)",2,mbtiauth_1882
928,"(3392, 151, 20780, 662)",2,mbtiauth_1882
929,"(3392, 151, 20780, 5339)",2,mbtiauth_1882
930,"(3392, 20780, 5339, 662)",2,mbtiauth_1882
931,"(3603, 678, 1099, 135252)",2,mbtiauth_1882
932,"(3603, 678, 1106, 1099)",2,mbtiauth_1882
933,"(3603, 678, 1106, 1237)",2,mbtiauth_1882
934,"(3603, 678, 1106, 4594)",2,mbtiauth_1882
935,"(3603, 678, 1106, 135251)",2,mbtiauth_1882
936,"(3603, 678, 1106, 135252)",2,mbtiauth_1882
937,"(3603, 678, 1237, 1099)",2,mbtiauth_1882
938,"(3603, 678, 1237, 135252)",2,mbtiauth_1882
939,"(3603, 678, 4594, 1099)",2,mbtiauth_1882
940,"(3603, 678, 4594, 1237)",2,mbtiauth_1882
941,"(3603, 678, 4594, 135251)",2,mbtiauth_1882
942,"(3603, 678, 4594, 135252)",2,mbtiauth_1882
943,"(3603, 678, 135251, 1099)",2,mbtiauth_1882
944,"(3603, 678, 135251, 1237)",2,mbtiauth_1882
945,"(3603, 678, 135251, 135252)",2,mbtiauth_1882
946,"(3603, 1106, 1099, 135252)",2,mbtiauth_1882
947,"(3603, 1106, 1237, 1099)",2,mbtiauth_1882
948,"(3603, 1106, 1237, 135252)",2,mbtiauth_1882
949,"(3603, 1106, 4594, 1099)",2,mbtiauth_1882
950,"(3603, 1106, 4594, 1237)",2,mbtiauth_1882
951,"(3603, 1106, 4594, 135251)",2,mbtiauth_1882
952,"(3603, 1106, 4594, 135252)",2,mbtiauth_1882
953,"(3603, 1106, 135251, 1099)",2,mbtiauth_1882
954,"(3603, 1106, 135251, 1237)",2,mbtiauth_1882
955,"(3603, 1106, 135251, 135252)",2,mbtiauth_1882
956,"(3603, 1237, 1099, 135252)",2,mbtiauth_1882
957,"(3603, 4594, 1099, 135252)",2,mbtiauth_1882
958,"(3603, 4594, 1237, 1099)",2,mbtiauth_1882
959,"(3603, 4594, 1237, 135252)",2,mbtiauth_1882
960,"(3603, 4594, 135251, 1099)",2,mbtiauth_1882
961,"(3603, 4594, 135251, 1237)",2,mbtiauth_1882
962,"(3603, 4594, 135251, 135252)",2,mbtiauth_1882
963,"(3603, 135251, 1099, 135252)",2,mbtiauth_1882
964,"(3603, 135251, 1237, 1099)",2,mbtiauth_1882
965,"(3603, 135251, 1237, 135252)",2,mbtiauth_1882
966,"(4594, 1237, 1099, 135252)",2,mbtiauth_1882
967,"(4594, 135251, 1099, 135252)",2,mbtiauth_1882
968,"(4594, 135251, 1237, 1099)",2,mbtiauth_1882
969,"(4594, 135251, 1237, 135252)",2,mbtiauth_1882
970,"(48519, 50, 115, 3941)",2,mbtiauth_1882
971,"(48519, 50, 1014, 115)",2,mbtiauth_1882
972,"(48519, 50, 1014, 3941)",2,mbtiauth_1882
973,"(48519, 1014, 115, 3941)",2,mbtiauth_1882
974,"(135251, 1237, 1099, 135252)",2,mbtiauth_1882
975,"(5, 678, 1106, 1099, 135252)",2,mbtiauth_1882
976,"(5, 678, 1106, 1237, 1099)",2,mbtiauth_1882
977,"(5, 678, 1106, 1237, 135252)",2,mbtiauth_1882
978,"(5, 678, 1106, 4594, 1099)",2,mbtiauth_1882
979,"(5, 678, 1106, 4594, 1237)",2,mbtiauth_1882
980,"(5, 678, 1106, 4594, 135251)",2,mbtiauth_1882
981,"(5, 678, 1106, 4594, 135252)",2,mbtiauth_1882
982,"(5, 678, 1106, 135251, 1099)",2,mbtiauth_1882
983,"(5, 678, 1106, 135251, 1237)",2,mbtiauth_1882
984,"(5, 678, 1106, 135251, 135252)",2,mbtiauth_1882
985,"(5, 678, 1237, 1099, 135252)",2,mbtiauth_1882
986,"(5, 678, 4594, 1099, 135252)",2,mbtiauth_1882
987,"(5, 678, 4594, 1237, 1099)",2,mbtiauth_1882
988,"(5, 678, 4594, 1237, 135252)",2,mbtiauth_1882
989,"(5, 678, 4594, 135251, 1099)",2,mbtiauth_1882
990,"(5, 678, 4594, 135251, 1237)",2,mbtiauth_1882
991,"(5, 678, 4594, 135251, 135252)",2,mbtiauth_1882
992,"(5, 678, 135251, 1099, 135252)",2,mbtiauth_1882
993,"(5, 678, 135251, 1237, 1099)",2,mbtiauth_1882
994,"(5, 678, 135251, 1237, 135252)",2,mbtiauth_1882
995,"(5, 1106, 1237, 1099, 135252)",2,mbtiauth_1882
996,"(5, 1106, 4594, 1099, 135252)",2,mbtiauth_1882
997,"(5, 1106, 4594, 1237, 1099)",2,mbtiauth_1882
998,"(5, 1106, 4594, 1237, 135252)",2,mbtiauth_1882
999,"(5, 1106, 4594, 135251, 1099)",2,mbtiauth_1882
1000,"(5, 1106, 4594, 135251, 1237)",2,mbtiauth_1882
1001,"(5, 1106, 4594, 135251, 135252)",2,mbtiauth_1882
1002,"(5, 1106, 135251, 1099, 135252)",2,mbtiauth_1882
1003,"(5, 1106, 135251, 1237, 1099)",2,mbtiauth_1882
1004,"(5, 1106, 135251, 1237, 135252)",2,mbtiauth_1882
1005,"(5, 3603, 678, 1099, 135252)",2,mbtiauth_1882
1006,"(5, 3603, 678, 1106, 1099)",2,mbtiauth_1882
1007,"(5, 3603, 678, 1106, 1237)",2,mbtiauth_1882
1008,"(5, 3603, 678, 1106, 4594)",2,mbtiauth_1882
1009,"(5, 3603, 678, 1106, 135251)",2,mbtiauth_1882
1010,"(5, 3603, 678, 1106, 135252)",2,mbtiauth_1882
1011,"(5, 3603, 678, 1237, 1099)",2,mbtiauth_1882
1012,"(5, 3603, 678, 1237, 135252)",2,mbtiauth_1882
1013,"(5, 3603, 678, 4594, 1099)",2,mbtiauth_1882
1014,"(5, 3603, 678, 4594, 1237)",2,mbtiauth_1882
1015,"(5, 3603, 678, 4594, 135251)",2,mbtiauth_1882
1016,"(5, 3603, 678, 4594, 135252)",2,mbtiauth_1882
1017,"(5, 3603, 678, 135251, 1099)",2,mbtiauth_1882
1018,"(5, 3603, 678, 135251, 1237)",2,mbtiauth_1882
1019,"(5, 3603, 678, 135251, 135252)",2,mbtiauth_1882
1020,"(5, 3603, 1106, 1099, 135252)",2,mbtiauth_1882
1021,"(5, 3603, 1106, 1237, 1099)",2,mbtiauth_1882
1022,"(5, 3603, 1106, 1237, 135252)",2,mbtiauth_1882
1023,"(5, 3603, 1106, 4594, 1099)",2,mbtiauth_1882
1024,"(5, 3603, 1106, 4594, 1237)",2,mbtiauth_1882
1025,"(5, 3603, 1106, 4594, 135251)",2,mbtiauth_1882
1026,"(5, 3603, 1106, 4594, 135252)",2,mbtiauth_1882
1027,"(5, 3603, 1106, 135251, 1099)",2,mbtiauth_1882
1028,"(5, 3603, 1106, 135251, 1237)",2,mbtiauth_1882
1029,"(5, 3603, 1106, 135251, 135252)",2,mbtiauth_1882
1030,"(5, 3603, 1237, 1099, 135252)",2,mbtiauth_1882
1031,"(5, 3603, 4594, 1099, 135252)",2,mbtiauth_1882
1032,"(5, 3603, 4594, 1237, 1099)",2,mbtiauth_1882
1033,"(5, 3603, 4594, 1237, 135252)",2,mbtiauth_1882
1034,"(5, 3603, 4594, 135251, 1099)",2,mbtiauth_1882
1035,"(5, 3603, 4594, 135251, 1237)",2,mbtiauth_1882
1036,"(5, 3603, 4594, 135251, 135252)",2,mbtiauth_1882
1037,"(5, 3603, 135251, 1099, 135252)",2,mbtiauth_1882
1038,"(5, 3603, 135251, 1237, 1099)",2,mbtiauth_1882
1039,"(5, 3603, 135251, 1237, 135252)",2,mbtiauth_1882
1040,"(5, 4594, 1237, 1099, 135252)",2,mbtiauth_1882
1041,"(5, 4594, 135251, 1099, 135252)",2,mbtiauth_1882
1042,"(5, 4594, 135251, 1237, 1099)",2,mbtiauth_1882
1043,"(5, 4594, 135251, 1237, 135252)",2,mbtiauth_1882
1044,"(5, 135251, 1237, 1099, 135252)",2,mbtiauth_1882
1045,"(31, 5, 678, 1099, 135252)",2,mbtiauth_1882
1046,"(31, 5, 678, 1106, 1099)",2,mbtiauth_1882
1047,"(31, 5, 678, 1106, 1237)",2,mbtiauth_1882
1048,"(31, 5, 678, 1106, 4594)",2,mbtiauth_1882
1049,"(31, 5, 678, 1106, 135251)",2,mbtiauth_1882
1050,"(31, 5, 678, 1106, 135252)",2,mbtiauth_1882
1051,"(31, 5, 678, 1237, 1099)",2,mbtiauth_1882
1052,"(31, 5, 678, 1237, 135252)",2,mbtiauth_1882
1053,"(31, 5, 678, 4594, 1099)",2,mbtiauth_1882
1054,"(31, 5, 678, 4594, 1237)",2,mbtiauth_1882
1055,"(31, 5, 678, 4594, 135251)",2,mbtiauth_1882
1056,"(31, 5, 678, 4594, 135252)",2,mbtiauth_1882
1057,"(31, 5, 678, 135251, 1099)",2,mbtiauth_1882
1058,"(31, 5, 678, 135251, 1237)",2,mbtiauth_1882
1059,"(31, 5, 678, 135251, 135252)",2,mbtiauth_1882
1060,"(31, 5, 1106, 1099, 135252)",2,mbtiauth_1882
1061,"(31, 5, 1106, 1237, 1099)",2,mbtiauth_1882
1062,"(31, 5, 1106, 1237, 135252)",2,mbtiauth_1882
1063,"(31, 5, 1106, 4594, 1099)",2,mbtiauth_1882
1064,"(31, 5, 1106, 4594, 1237)",2,mbtiauth_1882
1065,"(31, 5, 1106, 4594, 135251)",2,mbtiauth_1882
1066,"(31, 5, 1106, 4594, 135252)",2,mbtiauth_1882
1067,"(31, 5, 1106, 135251, 1099)",2,mbtiauth_1882
1068,"(31, 5, 1106, 135251, 1237)",2,mbtiauth_1882
1069,"(31, 5, 1106, 135251, 135252)",2,mbtiauth_1882
1070,"(31, 5, 1237, 1099, 135252)",2,mbtiauth_1882
1071,"(31, 5, 3603, 678, 1099)",2,mbtiauth_1882
1072,"(31, 5, 3603, 678, 1106)",2,mbtiauth_1882
1073,"(31, 5, 3603, 678, 1237)",2,mbtiauth_1882
1074,"(31, 5, 3603, 678, 4594)",2,mbtiauth_1882
1075,"(31, 5, 3603, 678, 135251)",2,mbtiauth_1882
1076,"(31, 5, 3603, 678, 135252)",2,mbtiauth_1882
1077,"(31, 5, 3603, 1099, 135252)",2,mbtiauth_1882
1078,"(31, 5, 3603, 1106, 1099)",2,mbtiauth_1882
1079,"(31, 5, 3603, 1106, 1237)",2,mbtiauth_1882
1080,"(31, 5, 3603, 1106, 4594)",2,mbtiauth_1882
1081,"(31, 5, 3603, 1106, 135251)",2,mbtiauth_1882
1082,"(31, 5, 3603, 1106, 135252)",2,mbtiauth_1882
1083,"(31, 5, 3603, 1237, 1099)",2,mbtiauth_1882
1084,"(31, 5, 3603, 1237, 135252)",2,mbtiauth_1882
1085,"(31, 5, 3603, 4594, 1099)",2,mbtiauth_1882
1086,"(31, 5, 3603, 4594, 1237)",2,mbtiauth_1882
1087,"(31, 5, 3603, 4594, 135251)",2,mbtiauth_1882
1088,"(31, 5, 3603, 4594, 135252)",2,mbtiauth_1882
1089,"(31, 5, 3603, 135251, 1099)",2,mbtiauth_1882
1090,"(31, 5, 3603, 135251, 1237)",2,mbtiauth_1882
1091,"(31, 5, 3603, 135251, 135252)",2,mbtiauth_1882
1092,"(31, 5, 4594, 1099, 135252)",2,mbtiauth_1882
1093,"(31, 5, 4594, 1237, 1099)",2,mbtiauth_1882
1094,"(31, 5, 4594, 1237, 135252)",2,mbtiauth_1882
1095,"(31, 5, 4594, 135251, 1099)",2,mbtiauth_1882
1096,"(31, 5, 4594, 135251, 1237)",2,mbtiauth_1882
1097,"(31, 5, 4594, 135251, 135252)",2,mbtiauth_1882
1098,"(31, 5, 135251, 1099, 135252)",2,mbtiauth_1882
1099,"(31, 5, 135251, 1237, 1099)",2,mbtiauth_1882
1100,"(31, 5, 135251, 1237, 135252)",2,mbtiauth_1882
1101,"(31, 678, 1106, 1099, 135252)",2,mbtiauth_1882
1102,"(31, 678, 1106, 1237, 1099)",2,mbtiauth_1882
1103,"(31, 678, 1106, 1237, 135252)",2,mbtiauth_1882
1104,"(31, 678, 1106, 4594, 1099)",2,mbtiauth_1882
1105,"(31, 678, 1106, 4594, 1237)",2,mbtiauth_1882
1106,"(31, 678, 1106, 4594, 135251)",2,mbtiauth_1882
1107,"(31, 678, 1106, 4594, 135252)",2,mbtiauth_1882
1108,"(31, 678, 1106, 135251, 1099)",2,mbtiauth_1882
1109,"(31, 678, 1106, 135251, 1237)",2,mbtiauth_1882
1110,"(31, 678, 1106, 135251, 135252)",2,mbtiauth_1882
1111,"(31, 678, 1237, 1099, 135252)",2,mbtiauth_1882
1112,"(31, 678, 4594, 1099, 135252)",2,mbtiauth_1882
1113,"(31, 678, 4594, 1237, 1099)",2,mbtiauth_1882
1114,"(31, 678, 4594, 1237, 135252)",2,mbtiauth_1882
1115,"(31, 678, 4594, 135251, 1099)",2,mbtiauth_1882
1116,"(31, 678, 4594, 135251, 1237)",2,mbtiauth_1882
1117,"(31, 678, 4594, 135251, 135252)",2,mbtiauth_1882
1118,"(31, 678, 135251, 1099, 135252)",2,mbtiauth_1882
1119,"(31, 678, 135251, 1237, 1099)",2,mbtiauth_1882
1120,"(31, 678, 135251, 1237, 135252)",2,mbtiauth_1882
1121,"(31, 1106, 1237, 1099, 135252)",2,mbtiauth_1882
1122,"(31, 1106, 4594, 1099, 135252)",2,mbtiauth_1882
1123,"(31, 1106, 4594, 1237, 1099)",2,mbtiauth_1882
1124,"(31, 1106, 4594, 1237, 135252)",2,mbtiauth_1882
1125,"(31, 1106, 4594, 135251, 1099)",2,mbtiauth_1882
1126,"(31, 1106, 4594, 135251, 1237)",2,mbtiauth_1882
1127,"(31, 1106, 4594, 135251, 135252)",2,mbtiauth_1882
1128,"(31, 1106, 135251, 1099, 135252)",2,mbtiauth_1882
1129,"(31, 1106, 135251, 1237, 1099)",2,mbtiauth_1882
1130,"(31, 1106, 135251, 1237, 135252)",2,mbtiauth_1882
1131,"(31, 3603, 678, 1099, 135252)",2,mbtiauth_1882
1132,"(31, 3603, 678, 1106, 1099)",2,mbtiauth_1882
1133,"(31, 3603, 678, 1106, 1237)",2,mbtiauth_1882
1134,"(31, 3603, 678, 1106, 4594)",2,mbtiauth_1882
1135,"(31, 3603, 678, 1106, 135251)",2,mbtiauth_1882
1136,"(31, 3603, 678, 1106, 135252)",2,mbtiauth_1882
1137,"(31, 3603, 678, 1237, 1099)",2,mbtiauth_1882
1138,"(31, 3603, 678, 1237, 135252)",2,mbtiauth_1882
1139,"(31, 3603, 678, 4594, 1099)",2,mbtiauth_1882
1140,"(31, 3603, 678, 4594, 1237)",2,mbtiauth_1882
1141,"(31, 3603, 678, 4594, 135251)",2,mbtiauth_1882
1142,"(31, 3603, 678, 4594, 135252)",2,mbtiauth_1882
1143,"(31, 3603, 678, 135251, 1099)",2,mbtiauth_1882
1144,"(31, 3603, 678, 135251, 1237)",2,mbtiauth_1882
1145,"(31, 3603, 678, 135251, 135252)",2,mbtiauth_1882
1146,"(31, 3603, 1106, 1099, 135252)",2,mbtiauth_1882
1147,"(31, 3603, 1106, 1237, 1099)",2,mbtiauth_1882
1148,"(31, 3603, 1106, 1237, 135252)",2,mbtiauth_1882
1149,"(31, 3603, 1106, 4594, 1099)",2,mbtiauth_1882
1150,"(31, 3603, 1106, 4594, 1237)",2,mbtiauth_1882
1151,"(31, 3603, 1106, 4594, 135251)",2,mbtiauth_1882
1152,"(31, 3603, 1106, 4594, 135252)",2,mbtiauth_1882
1153,"(31, 3603, 1106, 135251, 1099)",2,mbtiauth_1882
1154,"(31, 3603, 1106, 135251, 1237)",2,mbtiauth_1882
1155,"(31, 3603, 1106, 135251, 135252)",2,mbtiauth_1882
1156,"(31, 3603, 1237, 1099, 135252)",2,mbtiauth_1882
1157,"(31, 3603, 4594, 1099, 135252)",2,mbtiauth_1882
1158,"(31, 3603, 4594, 1237, 1099)",2,mbtiauth_1882
1159,"(31, 3603, 4594, 1237, 135252)",2,mbtiauth_1882
1160,"(31, 3603, 4594, 135251, 1099)",2,mbtiauth_1882
1161,"(31, 3603, 4594, 135251, 1237)",2,mbtiauth_1882
1162,"(31, 3603, 4594, 135251, 135252)",2,mbtiauth_1882
1163,"(31, 3603, 135251, 1099, 135252)",2,mbtiauth_1882
1164,"(31, 3603, 135251, 1237, 1099)",2,mbtiauth_1882
1165,"(31, 3603, 135251, 1237, 135252)",2,mbtiauth_1882
1166,"(31, 4594, 1237, 1099, 135252)",2,mbtiauth_1882
1167,"(31, 4594, 135251, 1099, 135252)",2,mbtiauth_1882
1168,"(31, 4594, 135251, 1237, 1099)",2,mbtiauth_1882
1169,"(31, 4594, 135251, 1237, 135252)",2,mbtiauth_1882
1170,"(31, 135251, 1237, 1099, 135252)",2,mbtiauth_1882
1171,"(48, 151, 50, 29, 296)",2,mbtiauth_1882
1172,"(48, 151, 248, 29, 296)",2,mbtiauth_1882
1173,"(48, 151, 248, 50, 29)",2,mbtiauth_1882
1174,"(48, 151, 248, 50, 296)",2,mbtiauth_1882
1175,"(48, 248, 50, 29, 296)",2,mbtiauth_1882
1176,"(50, 50, 1014, 115, 3941)",2,mbtiauth_1882
1177,"(50, 732, 50, 115, 3941)",2,mbtiauth_1882
1178,"(50, 732, 50, 1014, 115)",2,mbtiauth_1882
1179,"(50, 732, 50, 1014, 3941)",2,mbtiauth_1882
1180,"(50, 732, 1014, 115, 3941)",2,mbtiauth_1882
1181,"(50, 732, 48519, 50, 115)",2,mbtiauth_1882
1182,"(50, 732, 48519, 50, 1014)",2,mbtiauth_1882
1183,"(50, 732, 48519, 50, 3941)",2,mbtiauth_1882
1184,"(50, 732, 48519, 115, 3941)",2,mbtiauth_1882
1185,"(50, 732, 48519, 1014, 115)",2,mbtiauth_1882
1186,"(50, 732, 48519, 1014, 3941)",2,mbtiauth_1882
1187,"(50, 48519, 50, 115, 3941)",2,mbtiauth_1882
1188,"(50, 48519, 50, 1014, 115)",2,mbtiauth_1882
1189,"(50, 48519, 50, 1014, 3941)",2,mbtiauth_1882
1190,"(50, 48519, 1014, 115, 3941)",2,mbtiauth_1882
1191,"(114, 5, 678, 1106, 1099)",2,mbtiauth_1882
1192,"(114, 5, 678, 1106, 1237)",2,mbtiauth_1882
1193,"(114, 5, 678, 1106, 4594)",2,mbtiauth_1882
1194,"(114, 5, 678, 1106, 135251)",2,mbtiauth_1882
1195,"(114, 5, 678, 1237, 1099)",2,mbtiauth_1882
1196,"(114, 5, 678, 4594, 1099)",2,mbtiauth_1882
1197,"(114, 5, 678, 4594, 1237)",2,mbtiauth_1882
1198,"(114, 5, 678, 4594, 135251)",2,mbtiauth_1882
1199,"(114, 5, 678, 135251, 1099)",2,mbtiauth_1882
1200,"(114, 5, 678, 135251, 1237)",2,mbtiauth_1882
1201,"(114, 5, 1106, 1237, 1099)",2,mbtiauth_1882
1202,"(114, 5, 1106, 4594, 1099)",2,mbtiauth_1882
1203,"(114, 5, 1106, 4594, 1237)",2,mbtiauth_1882
1204,"(114, 5, 1106, 4594, 135251)",2,mbtiauth_1882
1205,"(114, 5, 1106, 135251, 1099)",2,mbtiauth_1882
1206,"(114, 5, 1106, 135251, 1237)",2,mbtiauth_1882
1207,"(114, 5, 3603, 678, 1099)",2,mbtiauth_1882
1208,"(114, 5, 3603, 678, 1106)",2,mbtiauth_1882
1209,"(114, 5, 3603, 678, 1237)",2,mbtiauth_1882
1210,"(114, 5, 3603, 678, 4594)",2,mbtiauth_1882
1211,"(114, 5, 3603, 678, 135251)",2,mbtiauth_1882
1212,"(114, 5, 3603, 1106, 1099)",2,mbtiauth_1882
1213,"(114, 5, 3603, 1106, 1237)",2,mbtiauth_1882
1214,"(114, 5, 3603, 1106, 4594)",2,mbtiauth_1882
1215,"(114, 5, 3603, 1106, 135251)",2,mbtiauth_1882
1216,"(114, 5, 3603, 1237, 1099)",2,mbtiauth_1882
1217,"(114, 5, 3603, 4594, 1099)",2,mbtiauth_1882
1218,"(114, 5, 3603, 4594, 1237)",2,mbtiauth_1882
1219,"(114, 5, 3603, 4594, 135251)",2,mbtiauth_1882
1220,"(114, 5, 3603, 135251, 1099)",2,mbtiauth_1882
1221,"(114, 5, 3603, 135251, 1237)",2,mbtiauth_1882
1222,"(114, 5, 4594, 1237, 1099)",2,mbtiauth_1882
1223,"(114, 5, 4594, 135251, 1099)",2,mbtiauth_1882
1224,"(114, 5, 4594, 135251, 1237)",2,mbtiauth_1882
1225,"(114, 5, 135251, 1237, 1099)",2,mbtiauth_1882
1226,"(114, 31, 5, 678, 1099)",2,mbtiauth_1882
1227,"(114, 31, 5, 678, 1106)",2,mbtiauth_1882
1228,"(114, 31, 5, 678, 1237)",2,mbtiauth_1882
1229,"(114, 31, 5, 678, 4594)",2,mbtiauth_1882
1230,"(114, 31, 5, 678, 135251)",2,mbtiauth_1882
1231,"(114, 31, 5, 1106, 1099)",2,mbtiauth_1882
1232,"(114, 31, 5, 1106, 1237)",2,mbtiauth_1882
1233,"(114, 31, 5, 1106, 4594)",2,mbtiauth_1882
1234,"(114, 31, 5, 1106, 135251)",2,mbtiauth_1882
1235,"(114, 31, 5, 1237, 1099)",2,mbtiauth_1882
1236,"(114, 31, 5, 3603, 678)",2,mbtiauth_1882
1237,"(114, 31, 5, 3603, 1099)",2,mbtiauth_1882
1238,"(114, 31, 5, 3603, 1106)",2,mbtiauth_1882
1239,"(114, 31, 5, 3603, 1237)",2,mbtiauth_1882
1240,"(114, 31, 5, 3603, 4594)",2,mbtiauth_1882
1241,"(114, 31, 5, 3603, 135251)",2,mbtiauth_1882
1242,"(114, 31, 5, 4594, 1099)",2,mbtiauth_1882
1243,"(114, 31, 5, 4594, 1237)",2,mbtiauth_1882
1244,"(114, 31, 5, 4594, 135251)",2,mbtiauth_1882
1245,"(114, 31, 5, 135251, 1099)",2,mbtiauth_1882
1246,"(114, 31, 5, 135251, 1237)",2,mbtiauth_1882
1247,"(114, 31, 678, 1106, 1099)",2,mbtiauth_1882
1248,"(114, 31, 678, 1106, 1237)",2,mbtiauth_1882
1249,"(114, 31, 678, 1106, 4594)",2,mbtiauth_1882
1250,"(114, 31, 678, 1106, 135251)",2,mbtiauth_1882
1251,"(114, 31, 678, 1237, 1099)",2,mbtiauth_1882
1252,"(114, 31, 678, 4594, 1099)",2,mbtiauth_1882
1253,"(114, 31, 678, 4594, 1237)",2,mbtiauth_1882
1254,"(114, 31, 678, 4594, 135251)",2,mbtiauth_1882
1255,"(114, 31, 678, 135251, 1099)",2,mbtiauth_1882
1256,"(114, 31, 678, 135251, 1237)",2,mbtiauth_1882
1257,"(114, 31, 1106, 1237, 1099)",2,mbtiauth_1882
1258,"(114, 31, 1106, 4594, 1099)",2,mbtiauth_1882
1259,"(114, 31, 1106, 4594, 1237)",2,mbtiauth_1882
1260,"(114, 31, 1106, 4594, 135251)",2,mbtiauth_1882
1261,"(114, 31, 1106, 135251, 1099)",2,mbtiauth_1882
1262,"(114, 31, 1106, 135251, 1237)",2,mbtiauth_1882
1263,"(114, 31, 3603, 678, 1099)",2,mbtiauth_1882
1264,"(114, 31, 3603, 678, 1106)",2,mbtiauth_1882
1265,"(114, 31, 3603, 678, 1237)",2,mbtiauth_1882
1266,"(114, 31, 3603, 678, 4594)",2,mbtiauth_1882
1267,"(114, 31, 3603, 678, 135251)",2,mbtiauth_1882
1268,"(114, 31, 3603, 1106, 1099)",2,mbtiauth_1882
1269,"(114, 31, 3603, 1106, 1237)",2,mbtiauth_1882
1270,"(114, 31, 3603, 1106, 4594)",2,mbtiauth_1882
1271,"(114, 31, 3603, 1106, 135251)",2,mbtiauth_1882
1272,"(114, 31, 3603, 1237, 1099)",2,mbtiauth_1882
1273,"(114, 31, 3603, 4594, 1099)",2,mbtiauth_1882
1274,"(114, 31, 3603, 4594, 1237)",2,mbtiauth_1882
1275,"(114, 31, 3603, 4594, 135251)",2,mbtiauth_1882
1276,"(114, 31, 3603, 135251, 1099)",2,mbtiauth_1882
1277,"(114, 31, 3603, 135251, 1237)",2,mbtiauth_1882
1278,"(114, 31, 4594, 1237, 1099)",2,mbtiauth_1882
1279,"(114, 31, 4594, 135251, 1099)",2,mbtiauth_1882
1280,"(114, 31, 4594, 135251, 1237)",2,mbtiauth_1882
1281,"(114, 31, 135251, 1237, 1099)",2,mbtiauth_1882
1282,"(114, 678, 1106, 1237, 1099)",2,mbtiauth_1882
1283,"(114, 678, 1106, 4594, 1099)",2,mbtiauth_1882
1284,"(114, 678, 1106, 4594, 1237)",2,mbtiauth_1882
1285,"(114, 678, 1106, 4594, 135251)",2,mbtiauth_1882
1286,"(114, 678, 1106, 135251, 1099)",2,mbtiauth_1882
1287,"(114, 678, 1106, 135251, 1237)",2,mbtiauth_1882
1288,"(114, 678, 4594, 1237, 1099)",2,mbtiauth_1882
1289,"(114, 678, 4594, 135251, 1099)",2,mbtiauth_1882
1290,"(114, 678, 4594, 135251, 1237)",2,mbtiauth_1882
1291,"(114, 678, 135251, 1237, 1099)",2,mbtiauth_1882
1292,"(114, 1106, 4594, 1237, 1099)",2,mbtiauth_1882
1293,"(114, 1106, 4594, 135251, 1099)",2,mbtiauth_1882
1294,"(114, 1106, 4594, 135251, 1237)",2,mbtiauth_1882
1295,"(114, 1106, 135251, 1237, 1099)",2,mbtiauth_1882
1296,"(114, 3603, 678, 1106, 1099)",2,mbtiauth_1882
1297,"(114, 3603, 678, 1106, 1237)",2,mbtiauth_1882
1298,"(114, 3603, 678, 1106, 4594)",2,mbtiauth_1882
1299,"(114, 3603, 678, 1106, 135251)",2,mbtiauth_1882
1300,"(114, 3603, 678, 1237, 1099)",2,mbtiauth_1882
1301,"(114, 3603, 678, 4594, 1099)",2,mbtiauth_1882
1302,"(114, 3603, 678, 4594, 1237)",2,mbtiauth_1882
1303,"(114, 3603, 678, 4594, 135251)",2,mbtiauth_1882
1304,"(114, 3603, 678, 135251, 1099)",2,mbtiauth_1882
1305,"(114, 3603, 678, 135251, 1237)",2,mbtiauth_1882
1306,"(114, 3603, 1106, 1237, 1099)",2,mbtiauth_1882
1307,"(114, 3603, 1106, 4594, 1099)",2,mbtiauth_1882
1308,"(114, 3603, 1106, 4594, 1237)",2,mbtiauth_1882
1309,"(114, 3603, 1106, 4594, 135251)",2,mbtiauth_1882
1310,"(114, 3603, 1106, 135251, 1099)",2,mbtiauth_1882
1311,"(114, 3603, 1106, 135251, 1237)",2,mbtiauth_1882
1312,"(114, 3603, 4594, 1237, 1099)",2,mbtiauth_1882
1313,"(114, 3603, 4594, 135251, 1099)",2,mbtiauth_1882
1314,"(114, 3603, 4594, 135251, 1237)",2,mbtiauth_1882
1315,"(114, 3603, 135251, 1237, 1099)",2,mbtiauth_1882
1316,"(114, 4594, 135251, 1237, 1099)",2,mbtiauth_1882
1317,"(138, 470, 47, 166, 48)",2,mbtiauth_1882
1318,"(151, 48, 20780, 5339, 662)",2,mbtiauth_1882
1319,"(151, 248, 50, 29, 296)",2,mbtiauth_1882
1320,"(151, 1056, 1326, 50, 1326)",2,mbtiauth_1882
1321,"(678, 1106, 1237, 1099, 135252)",2,mbtiauth_1882
1322,"(678, 1106, 4594, 1099, 135252)",2,mbtiauth_1882
1323,"(678, 1106, 4594, 1237, 1099)",2,mbtiauth_1882
1324,"(678, 1106, 4594, 1237, 135252)",2,mbtiauth_1882
1325,"(678, 1106, 4594, 135251, 1099)",2,mbtiauth_1882
1326,"(678, 1106, 4594, 135251, 1237)",2,mbtiauth_1882
1327,"(678, 1106, 4594, 135251, 135252)",2,mbtiauth_1882
1328,"(678, 1106, 135251, 1099, 135252)",2,mbtiauth_1882
1329,"(678, 1106, 135251, 1237, 1099)",2,mbtiauth_1882
1330,"(678, 1106, 135251, 1237, 135252)",2,mbtiauth_1882
1331,"(678, 4594, 1237, 1099, 135252)",2,mbtiauth_1882
1332,"(678, 4594, 135251, 1099, 135252)",2,mbtiauth_1882
1333,"(678, 4594, 135251, 1237, 1099)",2,mbtiauth_1882
1334,"(678, 4594, 135251, 1237, 135252)",2,mbtiauth_1882
1335,"(678, 135251, 1237, 1099, 135252)",2,mbtiauth_1882
1336,"(732, 50, 1014, 115, 3941)",2,mbtiauth_1882
1337,"(732, 48519, 50, 115, 3941)",2,mbtiauth_1882
1338,"(732, 48519, 50, 1014, 115)",2,mbtiauth_1882
1339,"(732, 48519, 50, 1014, 3941)",2,mbtiauth_1882
1340,"(732, 48519, 1014, 115, 3941)",2,mbtiauth_1882
1341,"(1106, 4594, 1237, 1099, 135252)",2,mbtiauth_1882
1342,"(1106, 4594, 135251, 1099, 135252)",2,mbtiauth_1882
1343,"(1106, 4594, 135251, 1237, 1099)",2,mbtiauth_1882
1344,"(1106, 4594, 135251, 1237, 135252)",2,mbtiauth_1882
1345,"(1106, 135251, 1237, 1099, 135252)",2,mbtiauth_1882
1346,"(1175, 151, 1056, 50, 1326)",2,mbtiauth_1882
1347,"(1175, 151, 1056, 1326, 50)",2,mbtiauth_1882
1348,"(1175, 151, 1056, 1326, 1326)",2,mbtiauth_1882
1349,"(1175, 151, 1326, 50, 1326)",2,mbtiauth_1882
1350,"(1175, 1056, 1326, 50, 1326)",2,mbtiauth_1882
1351,"(1178, 151, 1056, 50, 1326)",2,mbtiauth_1882
1352,"(1178, 151, 1056, 1326, 50)",2,mbtiauth_1882
1353,"(1178, 151, 1056, 1326, 1326)",2,mbtiauth_1882
1354,"(1178, 151, 1326, 50, 1326)",2,mbtiauth_1882
1355,"(1178, 1056, 1326, 50, 1326)",2,mbtiauth_1882
1356,"(1178, 1175, 151, 50, 1326)",2,mbtiauth_1882
1357,"(1178, 1175, 151, 1056, 50)",2,mbtiauth_1882
1358,"(1178, 1175, 151, 1056, 1326)",2,mbtiauth_1882
1359,"(1178, 1175, 151, 1326, 50)",2,mbtiauth_1882
1360,"(1178, 1175, 151, 1326, 1326)",2,mbtiauth_1882
1361,"(1178, 1175, 1056, 50, 1326)",2,mbtiauth_1882
1362,"(1178, 1175, 1056, 1326, 50)",2,mbtiauth_1882
1363,"(1178, 1175, 1056, 1326, 1326)",2,mbtiauth_1882
1364,"(1178, 1175, 1326, 50, 1326)",2,mbtiauth_1882
1365,"(3392, 48, 20780, 5339, 662)",2,mbtiauth_1882
1366,"(3392, 151, 48, 5339, 662)",2,mbtiauth_1882
1367,"(3392, 151, 48, 20780, 662)",2,mbtiauth_1882
1368,"(3392, 151, 48, 20780, 5339)",2,mbtiauth_1882
1369,"(3392, 151, 20780, 5339, 662)",2,mbtiauth_1882
1370,"(3603, 678, 1106, 1099, 135252)",2,mbtiauth_1882
1371,"(3603, 678, 1106, 1237, 1099)",2,mbtiauth_1882
1372,"(3603, 678, 1106, 1237, 135252)",2,mbtiauth_1882
1373,"(3603, 678, 1106, 4594, 1099)",2,mbtiauth_1882
1374,"(3603, 678, 1106, 4594, 1237)",2,mbtiauth_1882
1375,"(3603, 678, 1106, 4594, 135251)",2,mbtiauth_1882
1376,"(3603, 678, 1106, 4594, 135252)",2,mbtiauth_1882
1377,"(3603, 678, 1106, 135251, 1099)",2,mbtiauth_1882
1378,"(3603, 678, 1106, 135251, 1237)",2,mbtiauth_1882
1379,"(3603, 678, 1106, 135251, 135252)",2,mbtiauth_1882
1380,"(3603, 678, 1237, 1099, 135252)",2,mbtiauth_1882
1381,"(3603, 678, 4594, 1099, 135252)",2,mbtiauth_1882
1382,"(3603, 678, 4594, 1237, 1099)",2,mbtiauth_1882
1383,"(3603, 678, 4594, 1237, 135252)",2,mbtiauth_1882
1384,"(3603, 678, 4594, 135251, 1099)",2,mbtiauth_1882
1385,"(3603, 678, 4594, 135251, 1237)",2,mbtiauth_1882
1386,"(3603, 678, 4594, 135251, 135252)",2,mbtiauth_1882
1387,"(3603, 678, 135251, 1099, 135252)",2,mbtiauth_1882
1388,"(3603, 678, 135251, 1237, 1099)",2,mbtiauth_1882
1389,"(3603, 678, 135251, 1237, 135252)",2,mbtiauth_1882
1390,"(3603, 1106, 1237, 1099, 135252)",2,mbtiauth_1882
1391,"(3603, 1106, 4594, 1099, 135252)",2,mbtiauth_1882
1392,"(3603, 1106, 4594, 1237, 1099)",2,mbtiauth_1882
1393,"(3603, 1106, 4594, 1237, 135252)",2,mbtiauth_1882
1394,"(3603, 1106, 4594, 135251, 1099)",2,mbtiauth_1882
1395,"(3603, 1106, 4594, 135251, 1237)",2,mbtiauth_1882
1396,"(3603, 1106, 4594, 135251, 135252)",2,mbtiauth_1882
1397,"(3603, 1106, 135251, 1099, 135252)",2,mbtiauth_1882
1398,"(3603, 1106, 135251, 1237, 1099)",2,mbtiauth_1882
1399,"(3603, 1106, 135251, 1237, 135252)",2,mbtiauth_1882
1400,"(3603, 4594, 1237, 1099, 135252)",2,mbtiauth_1882
1401,"(3603, 4594, 135251, 1099, 135252)",2,mbtiauth_1882
1402,"(3603, 4594, 135251, 1237, 1099)",2,mbtiauth_1882
1403,"(3603, 4594, 135251, 1237, 135252)",2,mbtiauth_1882
1404,"(3603, 135251, 1237, 1099, 135252)",2,mbtiauth_1882
1405,"(4594, 135251, 1237, 1099, 135252)",2,mbtiauth_1882
1406,"(48519, 50, 1014, 115, 3941)",2,mbtiauth_1882
1407,"(5, 678, 1106, 1237, 1099, 135252)",2,mbtiauth_1882
1408,"(5, 678, 1106, 4594, 1099, 135252)",2,mbtiauth_1882
1409,"(5, 678, 1106, 4594, 1237, 1099)",2,mbtiauth_1882
1410,"(5, 678, 1106, 4594, 1237, 135252)",2,mbtiauth_1882
1411,"(5, 678, 1106, 4594, 135251, 1099)",2,mbtiauth_1882
1412,"(5, 678, 1106, 4594, 135251, 1237)",2,mbtiauth_1882
1413,"(5, 678, 1106, 4594, 135251, 135252)",2,mbtiauth_1882
1414,"(5, 678, 1106, 135251, 1099, 135252)",2,mbtiauth_1882
1415,"(5, 678, 1106, 135251, 1237, 1099)",2,mbtiauth_1882
1416,"(5, 678, 1106, 135251, 1237, 135252)",2,mbtiauth_1882
1417,"(5, 678, 4594, 1237, 1099, 135252)",2,mbtiauth_1882
1418,"(5, 678, 4594, 135251, 1099, 135252)",2,mbtiauth_1882
1419,"(5, 678, 4594, 135251, 1237, 1099)",2,mbtiauth_1882
1420,"(5, 678, 4594, 135251, 1237, 135252)",2,mbtiauth_1882
1421,"(5, 678, 135251, 1237, 1099, 135252)",2,mbtiauth_1882
1422,"(5, 1106, 4594, 1237, 1099, 135252)",2,mbtiauth_1882
1423,"(5, 1106, 4594, 135251, 1099, 135252)",2,mbtiauth_1882
1424,"(5, 1106, 4594, 135251, 1237, 1099)",2,mbtiauth_1882
1425,"(5, 1106, 4594, 135251, 1237, 135252)",2,mbtiauth_1882
1426,"(5, 1106, 135251, 1237, 1099, 135252)",2,mbtiauth_1882
1427,"(5, 3603, 678, 1106, 1099, 135252)",2,mbtiauth_1882
1428,"(5, 3603, 678, 1106, 1237, 1099)",2,mbtiauth_1882
1429,"(5, 3603, 678, 1106, 1237, 135252)",2,mbtiauth_1882
1430,"(5, 3603, 678, 1106, 4594, 1099)",2,mbtiauth_1882
1431,"(5, 3603, 678, 1106, 4594, 1237)",2,mbtiauth_1882
1432,"(5, 3603, 678, 1106, 4594, 135251)",2,mbtiauth_1882
1433,"(5, 3603, 678, 1106, 4594, 135252)",2,mbtiauth_1882
1434,"(5, 3603, 678, 1106, 135251, 1099)",2,mbtiauth_1882
1435,"(5, 3603, 678, 1106, 135251, 1237)",2,mbtiauth_1882
1436,"(5, 3603, 678, 1106, 135251, 135252)",2,mbtiauth_1882
1437,"(5, 3603, 678, 1237, 1099, 135252)",2,mbtiauth_1882
1438,"(5, 3603, 678, 4594, 1099, 135252)",2,mbtiauth_1882
1439,"(5, 3603, 678, 4594, 1237, 1099)",2,mbtiauth_1882
1440,"(5, 3603, 678, 4594, 1237, 135252)",2,mbtiauth_1882
1441,"(5, 3603, 678, 4594, 135251, 1099)",2,mbtiauth_1882
1442,"(5, 3603, 678, 4594, 135251, 1237)",2,mbtiauth_1882
1443,"(5, 3603, 678, 4594, 135251, 135252)",2,mbtiauth_1882
1444,"(5, 3603, 678, 135251, 1099, 135252)",2,mbtiauth_1882
1445,"(5, 3603, 678, 135251, 1237, 1099)",2,mbtiauth_1882
1446,"(5, 3603, 678, 135251, 1237, 135252)",2,mbtiauth_1882
1447,"(5, 3603, 1106, 1237, 1099, 135252)",2,mbtiauth_1882
1448,"(5, 3603, 1106, 4594, 1099, 135252)",2,mbtiauth_1882
1449,"(5, 3603, 1106, 4594, 1237, 1099)",2,mbtiauth_1882
1450,"(5, 3603, 1106, 4594, 1237, 135252)",2,mbtiauth_1882
1451,"(5, 3603, 1106, 4594, 135251, 1099)",2,mbtiauth_1882
1452,"(5, 3603, 1106, 4594, 135251, 1237)",2,mbtiauth_1882
1453,"(5, 3603, 1106, 4594, 135251, 135252)",2,mbtiauth_1882
1454,"(5, 3603, 1106, 135251, 1099, 135252)",2,mbtiauth_1882
1455,"(5, 3603, 1106, 135251, 1237, 1099)",2,mbtiauth_1882
1456,"(5, 3603, 1106, 135251, 1237, 135252)",2,mbtiauth_1882
1457,"(5, 3603, 4594, 1237, 1099, 135252)",2,mbtiauth_1882
1458,"(5, 3603, 4594, 135251, 1099, 135252)",2,mbtiauth_1882
1459,"(5, 3603, 4594, 135251, 1237, 1099)",2,mbtiauth_1882
1460,"(5, 3603, 4594, 135251, 1237, 135252)",2,mbtiauth_1882
1461,"(5, 3603, 135251, 1237, 1099, 135252)",2,mbtiauth_1882
1462,"(5, 4594, 135251, 1237, 1099, 135252)",2,mbtiauth_1882
1463,"(31, 5, 678, 1106, 1099, 135252)",2,mbtiauth_1882
1464,"(31, 5, 678, 1106, 1237, 1099)",2,mbtiauth_1882
1465,"(31, 5, 678, 1106, 1237, 135252)",2,mbtiauth_1882
1466,"(31, 5, 678, 1106, 4594, 1099)",2,mbtiauth_1882
1467,"(31, 5, 678, 1106, 4594, 1237)",2,mbtiauth_1882
1468,"(31, 5, 678, 1106, 4594, 135251)",2,mbtiauth_1882
1469,"(31, 5, 678, 1106, 4594, 135252)",2,mbtiauth_1882
1470,"(31, 5, 678, 1106, 135251, 1099)",2,mbtiauth_1882
1471,"(31, 5, 678, 1106, 135251, 1237)",2,mbtiauth_1882
1472,"(31, 5, 678, 1106, 135251, 135252)",2,mbtiauth_1882
1473,"(31, 5, 678, 1237, 1099, 135252)",2,mbtiauth_1882
1474,"(31, 5, 678, 4594, 1099, 135252)",2,mbtiauth_1882
1475,"(31, 5, 678, 4594, 1237, 1099)",2,mbtiauth_1882
1476,"(31, 5, 678, 4594, 1237, 135252)",2,mbtiauth_1882
1477,"(31, 5, 678, 4594, 135251, 1099)",2,mbtiauth_1882
1478,"(31, 5, 678, 4594, 135251, 1237)",2,mbtiauth_1882
1479,"(31, 5, 678, 4594, 135251, 135252)",2,mbtiauth_1882
1480,"(31, 5, 678, 135251, 1099, 135252)",2,mbtiauth_1882
1481,"(31, 5, 678, 135251, 1237, 1099)",2,mbtiauth_1882
1482,"(31, 5, 678, 135251, 1237, 135252)",2,mbtiauth_1882
1483,"(31, 5, 1106, 1237, 1099, 135252)",2,mbtiauth_1882
1484,"(31, 5, 1106, 4594, 1099, 135252)",2,mbtiauth_1882
1485,"(31, 5, 1106, 4594, 1237, 1099)",2,mbtiauth_1882
1486,"(31, 5, 1106, 4594, 1237, 135252)",2,mbtiauth_1882
1487,"(31, 5, 1106, 4594, 135251, 1099)",2,mbtiauth_1882
1488,"(31, 5, 1106, 4594, 135251, 1237)",2,mbtiauth_1882
1489,"(31, 5, 1106, 4594, 135251, 135252)",2,mbtiauth_1882
1490,"(31, 5, 1106, 135251, 1099, 135252)",2,mbtiauth_1882
1491,"(31, 5, 1106, 135251, 1237, 1099)",2,mbtiauth_1882
1492,"(31, 5, 1106, 135251, 1237, 135252)",2,mbtiauth_1882
1493,"(31, 5, 3603, 678, 1099, 135252)",2,mbtiauth_1882
1494,"(31, 5, 3603, 678, 1106, 1099)",2,mbtiauth_1882
1495,"(31, 5, 3603, 678, 1106, 1237)",2,mbtiauth_1882
1496,"(31, 5, 3603, 678, 1106, 4594)",2,mbtiauth_1882
1497,"(31, 5, 3603, 678, 1106, 135251)",2,mbtiauth_1882
1498,"(31, 5, 3603, 678, 1106, 135252)",2,mbtiauth_1882
1499,"(31, 5, 3603, 678, 1237, 1099)",2,mbtiauth_1882
1500,"(31, 5, 3603, 678, 1237, 135252)",2,mbtiauth_1882
1501,"(31, 5, 3603, 678, 4594, 1099)",2,mbtiauth_1882
1502,"(31, 5, 3603, 678, 4594, 1237)",2,mbtiauth_1882
1503,"(31, 5, 3603, 678, 4594, 135251)",2,mbtiauth_1882
1504,"(31, 5, 3603, 678, 4594, 135252)",2,mbtiauth_1882
1505,"(31, 5, 3603, 678, 135251, 1099)",2,mbtiauth_1882
1506,"(31, 5, 3603, 678, 135251, 1237)",2,mbtiauth_1882
1507,"(31, 5, 3603, 678, 135251, 135252)",2,mbtiauth_1882
1508,"(31, 5, 3603, 1106, 1099, 135252)",2,mbtiauth_1882
1509,"(31, 5, 3603, 1106, 1237, 1099)",2,mbtiauth_1882
1510,"(31, 5, 3603, 1106, 1237, 135252)",2,mbtiauth_1882
1511,"(31, 5, 3603, 1106, 4594, 1099)",2,mbtiauth_1882
1512,"(31, 5, 3603, 1106, 4594, 1237)",2,mbtiauth_1882
1513,"(31, 5, 3603, 1106, 4594, 135251)",2,mbtiauth_1882
1514,"(31, 5, 3603, 1106, 4594, 135252)",2,mbtiauth_1882
1515,"(31, 5, 3603, 1106, 135251, 1099)",2,mbtiauth_1882
1516,"(31, 5, 3603, 1106, 135251, 1237)",2,mbtiauth_1882
1517,"(31, 5, 3603, 1106, 135251, 135252)",2,mbtiauth_1882
1518,"(31, 5, 3603, 1237, 1099, 135252)",2,mbtiauth_1882
1519,"(31, 5, 3603, 4594, 1099, 135252)",2,mbtiauth_1882
1520,"(31, 5, 3603, 4594, 1237, 1099)",2,mbtiauth_1882
1521,"(31, 5, 3603, 4594, 1237, 135252)",2,mbtiauth_1882
1522,"(31, 5, 3603, 4594, 135251, 1099)",2,mbtiauth_1882
1523,"(31, 5, 3603, 4594, 135251, 1237)",2,mbtiauth_1882
1524,"(31, 5, 3603, 4594, 135251, 135252)",2,mbtiauth_1882
1525,"(31, 5, 3603, 135251, 1099, 135252)",2,mbtiauth_1882
1526,"(31, 5, 3603, 135251, 1237, 1099)",2,mbtiauth_1882
1527,"(31, 5, 3603, 135251, 1237, 135252)",2,mbtiauth_1882
1528,"(31, 5, 4594, 1237, 1099, 135252)",2,mbtiauth_1882
1529,"(31, 5, 4594, 135251, 1099, 135252)",2,mbtiauth_1882
1530,"(31, 5, 4594, 135251, 1237, 1099)",2,mbtiauth_1882
1531,"(31, 5, 4594, 135251, 1237, 135252)",2,mbtiauth_1882
1532,"(31, 5, 135251, 1237, 1099, 135252)",2,mbtiauth_1882
1533,"(31, 678, 1106, 1237, 1099, 135252)",2,mbtiauth_1882
1534,"(31, 678, 1106, 4594, 1099, 135252)",2,mbtiauth_1882
1535,"(31, 678, 1106, 4594, 1237, 1099)",2,mbtiauth_1882
1536,"(31, 678, 1106, 4594, 1237, 135252)",2,mbtiauth_1882
1537,"(31, 678, 1106, 4594, 135251, 1099)",2,mbtiauth_1882
1538,"(31, 678, 1106, 4594, 135251, 1237)",2,mbtiauth_1882
1539,"(31, 678, 1106, 4594, 135251, 135252)",2,mbtiauth_1882
1540,"(31, 678, 1106, 135251, 1099, 135252)",2,mbtiauth_1882
1541,"(31, 678, 1106, 135251, 1237, 1099)",2,mbtiauth_1882
1542,"(31, 678, 1106, 135251, 1237, 135252)",2,mbtiauth_1882
1543,"(31, 678, 4594, 1237, 1099, 135252)",2,mbtiauth_1882
1544,"(31, 678, 4594, 135251, 1099, 135252)",2,mbtiauth_1882
1545,"(31, 678, 4594, 135251, 1237, 1099)",2,mbtiauth_1882
1546,"(31, 678, 4594, 135251, 1237, 135252)",2,mbtiauth_1882
1547,"(31, 678, 135251, 1237, 1099, 135252)",2,mbtiauth_1882
1548,"(31, 1106, 4594, 1237, 1099, 135252)",2,mbtiauth_1882
1549,"(31, 1106, 4594, 135251, 1099, 135252)",2,mbtiauth_1882
1550,"(31, 1106, 4594, 135251, 1237, 1099)",2,mbtiauth_1882
1551,"(31, 1106, 4594, 135251, 1237, 135252)",2,mbtiauth_1882
1552,"(31, 1106, 135251, 1237, 1099, 135252)",2,mbtiauth_1882
1553,"(31, 3603, 678, 1106, 1099, 135252)",2,mbtiauth_1882
1554,"(31, 3603, 678, 1106, 1237, 1099)",2,mbtiauth_1882
1555,"(31, 3603, 678, 1106, 1237, 135252)",2,mbtiauth_1882
1556,"(31, 3603, 678, 1106, 4594, 1099)",2,mbtiauth_1882
1557,"(31, 3603, 678, 1106, 4594, 1237)",2,mbtiauth_1882
1558,"(31, 3603, 678, 1106, 4594, 135251)",2,mbtiauth_1882
1559,"(31, 3603, 678, 1106, 4594, 135252)",2,mbtiauth_1882
1560,"(31, 3603, 678, 1106, 135251, 1099)",2,mbtiauth_1882
1561,"(31, 3603, 678, 1106, 135251, 1237)",2,mbtiauth_1882
1562,"(31, 3603, 678, 1106, 135251, 135252)",2,mbtiauth_1882
1563,"(31, 3603, 678, 1237, 1099, 135252)",2,mbtiauth_1882
1564,"(31, 3603, 678, 4594, 1099, 135252)",2,mbtiauth_1882
1565,"(31, 3603, 678, 4594, 1237, 1099)",2,mbtiauth_1882
1566,"(31, 3603, 678, 4594, 1237, 135252)",2,mbtiauth_1882
1567,"(31, 3603, 678, 4594, 135251, 1099)",2,mbtiauth_1882
1568,"(31, 3603, 678, 4594, 135251, 1237)",2,mbtiauth_1882
1569,"(31, 3603, 678, 4594, 135251, 135252)",2,mbtiauth_1882
1570,"(31, 3603, 678, 135251, 1099, 135252)",2,mbtiauth_1882
1571,"(31, 3603, 678, 135251, 1237, 1099)",2,mbtiauth_1882
1572,"(31, 3603, 678, 135251, 1237, 135252)",2,mbtiauth_1882
1573,"(31, 3603, 1106, 1237, 1099, 135252)",2,mbtiauth_1882
1574,"(31, 3603, 1106, 4594, 1099, 135252)",2,mbtiauth_1882
1575,"(31, 3603, 1106, 4594, 1237, 1099)",2,mbtiauth_1882
1576,"(31, 3603, 1106, 4594, 1237, 135252)",2,mbtiauth_1882
1577,"(31, 3603, 1106, 4594, 135251, 1099)",2,mbtiauth_1882
1578,"(31, 3603, 1106, 4594, 135251, 1237)",2,mbtiauth_1882
1579,"(31, 3603, 1106, 4594, 135251, 135252)",2,mbtiauth_1882
1580,"(31, 3603, 1106, 135251, 1099, 135252)",2,mbtiauth_1882
1581,"(31, 3603, 1106, 135251, 1237, 1099)",2,mbtiauth_1882
1582,"(31, 3603, 1106, 135251, 1237, 135252)",2,mbtiauth_1882
1583,"(31, 3603, 4594, 1237, 1099, 135252)",2,mbtiauth_1882
1584,"(31, 3603, 4594, 135251, 1099, 135252)",2,mbtiauth_1882
1585,"(31, 3603, 4594, 135251, 1237, 1099)",2,mbtiauth_1882
1586,"(31, 3603, 4594, 135251, 1237, 135252)",2,mbtiauth_1882
1587,"(31, 3603, 135251, 1237, 1099, 135252)",2,mbtiauth_1882
1588,"(31, 4594, 135251, 1237, 1099, 135252)",2,mbtiauth_1882
1589,"(48, 151, 248, 50, 29, 296)",2,mbtiauth_1882
1590,"(50, 732, 50, 1014, 115, 3941)",2,mbtiauth_1882
1591,"(50, 732, 48519, 50, 115, 3941)",2,mbtiauth_1882
1592,"(50, 732, 48519, 50, 1014, 115)",2,mbtiauth_1882
1593,"(50, 732, 48519, 50, 1014, 3941)",2,mbtiauth_1882
1594,"(50, 732, 48519, 1014, 115, 3941)",2,mbtiauth_1882
1595,"(50, 48519, 50, 1014, 115, 3941)",2,mbtiauth_1882
1596,"(114, 5, 678, 1106, 1237, 1099)",2,mbtiauth_1882
1597,"(114, 5, 678, 1106, 4594, 1099)",2,mbtiauth_1882
1598,"(114, 5, 678, 1106, 4594, 1237)",2,mbtiauth_1882
1599,"(114, 5, 678, 1106, 4594, 135251)",2,mbtiauth_1882
1600,"(114, 5, 678, 1106, 135251, 1099)",2,mbtiauth_1882
1601,"(114, 5, 678, 1106, 135251, 1237)",2,mbtiauth_1882
1602,"(114, 5, 678, 4594, 1237, 1099)",2,mbtiauth_1882
1603,"(114, 5, 678, 4594, 135251, 1099)",2,mbtiauth_1882
1604,"(114, 5, 678, 4594, 135251, 1237)",2,mbtiauth_1882
1605,"(114, 5, 678, 135251, 1237, 1099)",2,mbtiauth_1882
1606,"(114, 5, 1106, 4594, 1237, 1099)",2,mbtiauth_1882
1607,"(114, 5, 1106, 4594, 135251, 1099)",2,mbtiauth_1882
1608,"(114, 5, 1106, 4594, 135251, 1237)",2,mbtiauth_1882
1609,"(114, 5, 1106, 135251, 1237, 1099)",2,mbtiauth_1882
1610,"(114, 5, 3603, 678, 1106, 1099)",2,mbtiauth_1882
1611,"(114, 5, 3603, 678, 1106, 1237)",2,mbtiauth_1882
1612,"(114, 5, 3603, 678, 1106, 4594)",2,mbtiauth_1882
1613,"(114, 5, 3603, 678, 1106, 135251)",2,mbtiauth_1882
1614,"(114, 5, 3603, 678, 1237, 1099)",2,mbtiauth_1882
1615,"(114, 5, 3603, 678, 4594, 1099)",2,mbtiauth_1882
1616,"(114, 5, 3603, 678, 4594, 1237)",2,mbtiauth_1882
1617,"(114, 5, 3603, 678, 4594, 135251)",2,mbtiauth_1882
1618,"(114, 5, 3603, 678, 135251, 1099)",2,mbtiauth_1882
1619,"(114, 5, 3603, 678, 135251, 1237)",2,mbtiauth_1882
1620,"(114, 5, 3603, 1106, 1237, 1099)",2,mbtiauth_1882
1621,"(114, 5, 3603, 1106, 4594, 1099)",2,mbtiauth_1882
1622,"(114, 5, 3603, 1106, 4594, 1237)",2,mbtiauth_1882
1623,"(114, 5, 3603, 1106, 4594, 135251)",2,mbtiauth_1882
1624,"(114, 5, 3603, 1106, 135251, 1099)",2,mbtiauth_1882
1625,"(114, 5, 3603, 1106, 135251, 1237)",2,mbtiauth_1882
1626,"(114, 5, 3603, 4594, 1237, 1099)",2,mbtiauth_1882
1627,"(114, 5, 3603, 4594, 135251, 1099)",2,mbtiauth_1882
1628,"(114, 5, 3603, 4594, 135251, 1237)",2,mbtiauth_1882
1629,"(114, 5, 3603, 135251, 1237, 1099)",2,mbtiauth_1882
1630,"(114, 5, 4594, 135251, 1237, 1099)",2,mbtiauth_1882
1631,"(114, 31, 5, 678, 1106, 1099)",2,mbtiauth_1882
1632,"(114, 31, 5, 678, 1106, 1237)",2,mbtiauth_1882
1633,"(114, 31, 5, 678, 1106, 4594)",2,mbtiauth_1882
1634,"(114, 31, 5, 678, 1106, 135251)",2,mbtiauth_1882
1635,"(114, 31, 5, 678, 1237, 1099)",2,mbtiauth_1882
1636,"(114, 31, 5, 678, 4594, 1099)",2,mbtiauth_1882
1637,"(114, 31, 5, 678, 4594, 1237)",2,mbtiauth_1882
1638,"(114, 31, 5, 678, 4594, 135251)",2,mbtiauth_1882
1639,"(114, 31, 5, 678, 135251, 1099)",2,mbtiauth_1882
1640,"(114, 31, 5, 678, 135251, 1237)",2,mbtiauth_1882
1641,"(114, 31, 5, 1106, 1237, 1099)",2,mbtiauth_1882
1642,"(114, 31, 5, 1106, 4594, 1099)",2,mbtiauth_1882
1643,"(114, 31, 5, 1106, 4594, 1237)",2,mbtiauth_1882
1644,"(114, 31, 5, 1106, 4594, 135251)",2,mbtiauth_1882
1645,"(114, 31, 5, 1106, 135251, 1099)",2,mbtiauth_1882
1646,"(114, 31, 5, 1106, 135251, 1237)",2,mbtiauth_1882
1647,"(114, 31, 5, 3603, 678, 1099)",2,mbtiauth_1882
1648,"(114, 31, 5, 3603, 678, 1106)",2,mbtiauth_1882
1649,"(114, 31, 5, 3603, 678, 1237)",2,mbtiauth_1882
1650,"(114, 31, 5, 3603, 678, 4594)",2,mbtiauth_1882
1651,"(114, 31, 5, 3603, 678, 135251)",2,mbtiauth_1882
1652,"(114, 31, 5, 3603, 1106, 1099)",2,mbtiauth_1882
1653,"(114, 31, 5, 3603, 1106, 1237)",2,mbtiauth_1882
1654,"(114, 31, 5, 3603, 1106, 4594)",2,mbtiauth_1882
1655,"(114, 31, 5, 3603, 1106, 135251)",2,mbtiauth_1882
1656,"(114, 31, 5, 3603, 1237, 1099)",2,mbtiauth_1882
1657,"(114, 31, 5, 3603, 4594, 1099)",2,mbtiauth_1882
1658,"(114, 31, 5, 3603, 4594, 1237)",2,mbtiauth_1882
1659,"(114, 31, 5, 3603, 4594, 135251)",2,mbtiauth_1882
1660,"(114, 31, 5, 3603, 135251, 1099)",2,mbtiauth_1882
1661,"(114, 31, 5, 3603, 135251, 1237)",2,mbtiauth_1882
1662,"(114, 31, 5, 4594, 1237, 1099)",2,mbtiauth_1882
1663,"(114, 31, 5, 4594, 135251, 1099)",2,mbtiauth_1882
1664,"(114, 31, 5, 4594, 135251, 1237)",2,mbtiauth_1882
1665,"(114, 31, 5, 135251, 1237, 1099)",2,mbtiauth_1882
1666,"(114, 31, 678, 1106, 1237, 1099)",2,mbtiauth_1882
1667,"(114, 31, 678, 1106, 4594, 1099)",2,mbtiauth_1882
1668,"(114, 31, 678, 1106, 4594, 1237)",2,mbtiauth_1882
1669,"(114, 31, 678, 1106, 4594, 135251)",2,mbtiauth_1882
1670,"(114, 31, 678, 1106, 135251, 1099)",2,mbtiauth_1882
1671,"(114, 31, 678, 1106, 135251, 1237)",2,mbtiauth_1882
1672,"(114, 31, 678, 4594, 1237, 1099)",2,mbtiauth_1882
1673,"(114, 31, 678, 4594, 135251, 1099)",2,mbtiauth_1882
1674,"(114, 31, 678, 4594, 135251, 1237)",2,mbtiauth_1882
1675,"(114, 31, 678, 135251, 1237, 1099)",2,mbtiauth_1882
1676,"(114, 31, 1106, 4594, 1237, 1099)",2,mbtiauth_1882
1677,"(114, 31, 1106, 4594, 135251, 1099)",2,mbtiauth_1882
1678,"(114, 31, 1106, 4594, 135251, 1237)",2,mbtiauth_1882
1679,"(114, 31, 1106, 135251, 1237, 1099)",2,mbtiauth_1882
1680,"(114, 31, 3603, 678, 1106, 1099)",2,mbtiauth_1882
1681,"(114, 31, 3603, 678, 1106, 1237)",2,mbtiauth_1882
1682,"(114, 31, 3603, 678, 1106, 4594)",2,mbtiauth_1882
1683,"(114, 31, 3603, 678, 1106, 135251)",2,mbtiauth_1882
1684,"(114, 31, 3603, 678, 1237, 1099)",2,mbtiauth_1882
1685,"(114, 31, 3603, 678, 4594, 1099)",2,mbtiauth_1882
1686,"(114, 31, 3603, 678, 4594, 1237)",2,mbtiauth_1882
1687,"(114, 31, 3603, 678, 4594, 135251)",2,mbtiauth_1882
1688,"(114, 31, 3603, 678, 135251, 1099)",2,mbtiauth_1882
1689,"(114, 31, 3603, 678, 135251, 1237)",2,mbtiauth_1882
1690,"(114, 31, 3603, 1106, 1237, 1099)",2,mbtiauth_1882
1691,"(114, 31, 3603, 1106, 4594, 1099)",2,mbtiauth_1882
1692,"(114, 31, 3603, 1106, 4594, 1237)",2,mbtiauth_1882
1693,"(114, 31, 3603, 1106, 4594, 135251)",2,mbtiauth_1882
1694,"(114, 31, 3603, 1106, 135251, 1099)",2,mbtiauth_1882
1695,"(114, 31, 3603, 1106, 135251, 1237)",2,mbtiauth_1882
1696,"(114, 31, 3603, 4594, 1237, 1099)",2,mbtiauth_1882
1697,"(114, 31, 3603, 4594, 135251, 1099)",2,mbtiauth_1882
1698,"(114, 31, 3603, 4594, 135251, 1237)",2,mbtiauth_1882
1699,"(114, 31, 3603, 135251, 1237, 1099)",2,mbtiauth_1882
1700,"(114, 31, 4594, 135251, 1237, 1099)",2,mbtiauth_1882
1701,"(114, 678, 1106, 4594, 1237, 1099)",2,mbtiauth_1882
1702,"(114, 678, 1106, 4594, 135251, 1099)",2,mbtiauth_1882
1703,"(114, 678, 1106, 4594, 135251, 1237)",2,mbtiauth_1882
1704,"(114, 678, 1106, 135251, 1237, 1099)",2,mbtiauth_1882
1705,"(114, 678, 4594, 135251, 1237, 1099)",2,mbtiauth_1882
1706,"(114, 1106, 4594, 135251, 1237, 1099)",2,mbtiauth_1882
1707,"(114, 3603, 678, 1106, 1237, 1099)",2,mbtiauth_1882
1708,"(114, 3603, 678, 1106, 4594, 1099)",2,mbtiauth_1882
1709,"(114, 3603, 678, 1106, 4594, 1237)",2,mbtiauth_1882
1710,"(114, 3603, 678, 1106, 4594, 135251)",2,mbtiauth_1882
1711,"(114, 3603, 678, 1106, 135251, 1099)",2,mbtiauth_1882
1712,"(114, 3603, 678, 1106, 135251, 1237)",2,mbtiauth_1882
1713,"(114, 3603, 678, 4594, 1237, 1099)",2,mbtiauth_1882
1714,"(114, 3603, 678, 4594, 135251, 1099)",2,mbtiauth_1882
1715,"(114, 3603, 678, 4594, 135251, 1237)",2,mbtiauth_1882
1716,"(114, 3603, 678, 135251, 1237, 1099)",2,mbtiauth_1882
1717,"(114, 3603, 1106, 4594, 1237, 1099)",2,mbtiauth_1882
1718,"(114, 3603, 1106, 4594, 135251, 1099)",2,mbtiauth_1882
1719,"(114, 3603, 1106, 4594, 135251, 1237)",2,mbtiauth_1882
1720,"(114, 3603, 1106, 135251, 1237, 1099)",2,mbtiauth_1882
1721,"(114, 3603, 4594, 135251, 1237, 1099)",2,mbtiauth_1882
1722,"(678, 1106, 4594, 1237, 1099, 135252)",2,mbtiauth_1882
1723,"(678, 1106, 4594, 135251, 1099, 135252)",2,mbtiauth_1882
1724,"(678, 1106, 4594, 135251, 1237, 1099)",2,mbtiauth_1882
1725,"(678, 1106, 4594, 135251, 1237, 135252)",2,mbtiauth_1882
1726,"(678, 1106, 135251, 1237, 1099, 135252)",2,mbtiauth_1882
1727,"(678, 4594, 135251, 1237, 1099, 135252)",2,mbtiauth_1882
1728,"(732, 48519, 50, 1014, 115, 3941)",2,mbtiauth_1882
1729,"(1106, 4594, 135251, 1237, 1099, 135252)",2,mbtiauth_1882
1730,"(1175, 151, 1056, 1326, 50, 1326)",2,mbtiauth_1882
1731,"(1178, 151, 1056, 1326, 50, 1326)",2,mbtiauth_1882
1732,"(1178, 1175, 151, 1056, 50, 1326)",2,mbtiauth_1882
1733,"(1178, 1175, 151, 1056, 1326, 50)",2,mbtiauth_1882
1734,"(1178, 1175, 151, 1056, 1326, 1326)",2,mbtiauth_1882
1735,"(1178, 1175, 151, 1326, 50, 1326)",2,mbtiauth_1882
1736,"(1178, 1175, 1056, 1326, 50, 1326)",2,mbtiauth_1882
1737,"(3392, 151, 48, 20780, 5339, 662)",2,mbtiauth_1882
1738,"(3603, 678, 1106, 1237, 1099, 135252)",2,mbtiauth_1882
1739,"(3603, 678, 1106, 4594, 1099, 135252)",2,mbtiauth_1882
1740,"(3603, 678, 1106, 4594, 1237, 1099)",2,mbtiauth_1882
1741,"(3603, 678, 1106, 4594, 1237, 135252)",2,mbtiauth_1882
1742,"(3603, 678, 1106, 4594, 135251, 1099)",2,mbtiauth_1882
1743,"(3603, 678, 1106, 4594, 135251, 1237)",2,mbtiauth_1882
1744,"(3603, 678, 1106, 4594, 135251, 135252)",2,mbtiauth_1882
1745,"(3603, 678, 1106, 135251, 1099, 135252)",2,mbtiauth_1882
1746,"(3603, 678, 1106, 135251, 1237, 1099)",2,mbtiauth_1882
1747,"(3603, 678, 1106, 135251, 1237, 135252)",2,mbtiauth_1882
1748,"(3603, 678, 4594, 1237, 1099, 135252)",2,mbtiauth_1882
1749,"(3603, 678, 4594, 135251, 1099, 135252)",2,mbtiauth_1882
1750,"(3603, 678, 4594, 135251, 1237, 1099)",2,mbtiauth_1882
1751,"(3603, 678, 4594, 135251, 1237, 135252)",2,mbtiauth_1882
1752,"(3603, 678, 135251, 1237, 1099, 135252)",2,mbtiauth_1882
1753,"(3603, 1106, 4594, 1237, 1099, 135252)",2,mbtiauth_1882
1754,"(3603, 1106, 4594, 135251, 1099, 135252)",2,mbtiauth_1882
1755,"(3603, 1106, 4594, 135251, 1237, 1099)",2,mbtiauth_1882
1756,"(3603, 1106, 4594, 135251, 1237, 135252)",2,mbtiauth_1882
1757,"(3603, 1106, 135251, 1237, 1099, 135252)",2,mbtiauth_1882
1758,"(3603, 4594, 135251, 1237, 1099, 135252)",2,mbtiauth_1882
1759,"(5, 678, 1106, 4594, 1237, 1099, 135252)",2,mbtiauth_1882
1760,"(5, 678, 1106, 4594, 135251, 1099, 135252)",2,mbtiauth_1882
1761,"(5, 678, 1106, 4594, 135251, 1237, 1099)",2,mbtiauth_1882
1762,"(5, 678, 1106, 4594, 135251, 1237, 135252)",2,mbtiauth_1882
1763,"(5, 678, 1106, 135251, 1237, 1099, 135252)",2,mbtiauth_1882
1764,"(5, 678, 4594, 135251, 1237, 1099, 135252)",2,mbtiauth_1882
1765,"(5, 1106, 4594, 135251, 1237, 1099, 135252)",2,mbtiauth_1882
1766,"(5, 3603, 678, 1106, 1237, 1099, 135252)",2,mbtiauth_1882
1767,"(5, 3603, 678, 1106, 4594, 1099, 135252)",2,mbtiauth_1882
1768,"(5, 3603, 678, 1106, 4594, 1237, 1099)",2,mbtiauth_1882
1769,"(5, 3603, 678, 1106, 4594, 1237, 135252)",2,mbtiauth_1882
1770,"(5, 3603, 678, 1106, 4594, 135251, 1099)",2,mbtiauth_1882
1771,"(5, 3603, 678, 1106, 4594, 135251, 1237)",2,mbtiauth_1882
1772,"(5, 3603, 678, 1106, 4594, 135251, 135252)",2,mbtiauth_1882
1773,"(5, 3603, 678, 1106, 135251, 1099, 135252)",2,mbtiauth_1882
1774,"(5, 3603, 678, 1106, 135251, 1237, 1099)",2,mbtiauth_1882
1775,"(5, 3603, 678, 1106, 135251, 1237, 135252)",2,mbtiauth_1882
1776,"(5, 3603, 678, 4594, 1237, 1099, 135252)",2,mbtiauth_1882
1777,"(5, 3603, 678, 4594, 135251, 1099, 135252)",2,mbtiauth_1882
1778,"(5, 3603, 678, 4594, 135251, 1237, 1099)",2,mbtiauth_1882
1779,"(5, 3603, 678, 4594, 135251, 1237, 135252)",2,mbtiauth_1882
1780,"(5, 3603, 678, 135251, 1237, 1099, 135252)",2,mbtiauth_1882
1781,"(5, 3603, 1106, 4594, 1237, 1099, 135252)",2,mbtiauth_1882
1782,"(5, 3603, 1106, 4594, 135251, 1099, 135252)",2,mbtiauth_1882
1783,"(5, 3603, 1106, 4594, 135251, 1237, 1099)",2,mbtiauth_1882
1784,"(5, 3603, 1106, 4594, 135251, 1237, 135252)",2,mbtiauth_1882
1785,"(5, 3603, 1106, 135251, 1237, 1099, 135252)",2,mbtiauth_1882
1786,"(5, 3603, 4594, 135251, 1237, 1099, 135252)",2,mbtiauth_1882
1787,"(31, 5, 678, 1106, 1237, 1099, 135252)",2,mbtiauth_1882
1788,"(31, 5, 678, 1106, 4594, 1099, 135252)",2,mbtiauth_1882
1789,"(31, 5, 678, 1106, 4594, 1237, 1099)",2,mbtiauth_1882
1790,"(31, 5, 678, 1106, 4594, 1237, 135252)",2,mbtiauth_1882
1791,"(31, 5, 678, 1106, 4594, 135251, 1099)",2,mbtiauth_1882
1792,"(31, 5, 678, 1106, 4594, 135251, 1237)",2,mbtiauth_1882
1793,"(31, 5, 678, 1106, 4594, 135251, 135252)",2,mbtiauth_1882
1794,"(31, 5, 678, 1106, 135251, 1099, 135252)",2,mbtiauth_1882
1795,"(31, 5, 678, 1106, 135251, 1237, 1099)",2,mbtiauth_1882
1796,"(31, 5, 678, 1106, 135251, 1237, 135252)",2,mbtiauth_1882
1797,"(31, 5, 678, 4594, 1237, 1099, 135252)",2,mbtiauth_1882
1798,"(31, 5, 678, 4594, 135251, 1099, 135252)",2,mbtiauth_1882
1799,"(31, 5, 678, 4594, 135251, 1237, 1099)",2,mbtiauth_1882
1800,"(31, 5, 678, 4594, 135251, 1237, 135252)",2,mbtiauth_1882
1801,"(31, 5, 678, 135251, 1237, 1099, 135252)",2,mbtiauth_1882
1802,"(31, 5, 1106, 4594, 1237, 1099, 135252)",2,mbtiauth_1882
1803,"(31, 5, 1106, 4594, 135251, 1099, 135252)",2,mbtiauth_1882
1804,"(31, 5, 1106, 4594, 135251, 1237, 1099)",2,mbtiauth_1882
1805,"(31, 5, 1106, 4594, 135251, 1237, 135252)",2,mbtiauth_1882
1806,"(31, 5, 1106, 135251, 1237, 1099, 135252)",2,mbtiauth_1882
1807,"(31, 5, 3603, 678, 1106, 1099, 135252)",2,mbtiauth_1882
1808,"(31, 5, 3603, 678, 1106, 1237, 1099)",2,mbtiauth_1882
1809,"(31, 5, 3603, 678, 1106, 1237, 135252)",2,mbtiauth_1882
1810,"(31, 5, 3603, 678, 1106, 4594, 1099)",2,mbtiauth_1882
1811,"(31, 5, 3603, 678, 1106, 4594, 1237)",2,mbtiauth_1882
1812,"(31, 5, 3603, 678, 1106, 4594, 135251)",2,mbtiauth_1882
1813,"(31, 5, 3603, 678, 1106, 4594, 135252)",2,mbtiauth_1882
1814,"(31, 5, 3603, 678, 1106, 135251, 1099)",2,mbtiauth_1882
1815,"(31, 5, 3603, 678, 1106, 135251, 1237)",2,mbtiauth_1882
1816,"(31, 5, 3603, 678, 1106, 135251, 135252)",2,mbtiauth_1882
1817,"(31, 5, 3603, 678, 1237, 1099, 135252)",2,mbtiauth_1882
1818,"(31, 5, 3603, 678, 4594, 1099, 135252)",2,mbtiauth_1882
1819,"(31, 5, 3603, 678, 4594, 1237, 1099)",2,mbtiauth_1882
1820,"(31, 5, 3603, 678, 4594, 1237, 135252)",2,mbtiauth_1882
1821,"(31, 5, 3603, 678, 4594, 135251, 1099)",2,mbtiauth_1882
1822,"(31, 5, 3603, 678, 4594, 135251, 1237)",2,mbtiauth_1882
1823,"(31, 5, 3603, 678, 4594, 135251, 135252)",2,mbtiauth_1882
1824,"(31, 5, 3603, 678, 135251, 1099, 135252)",2,mbtiauth_1882
1825,"(31, 5, 3603, 678, 135251, 1237, 1099)",2,mbtiauth_1882
1826,"(31, 5, 3603, 678, 135251, 1237, 135252)",2,mbtiauth_1882
1827,"(31, 5, 3603, 1106, 1237, 1099, 135252)",2,mbtiauth_1882
1828,"(31, 5, 3603, 1106, 4594, 1099, 135252)",2,mbtiauth_1882
1829,"(31, 5, 3603, 1106, 4594, 1237, 1099)",2,mbtiauth_1882
1830,"(31, 5, 3603, 1106, 4594, 1237, 135252)",2,mbtiauth_1882
1831,"(31, 5, 3603, 1106, 4594, 135251, 1099)",2,mbtiauth_1882
1832,"(31, 5, 3603, 1106, 4594, 135251, 1237)",2,mbtiauth_1882
1833,"(31, 5, 3603, 1106, 4594, 135251, 135252)",2,mbtiauth_1882
1834,"(31, 5, 3603, 1106, 135251, 1099, 135252)",2,mbtiauth_1882
1835,"(31, 5, 3603, 1106, 135251, 1237, 1099)",2,mbtiauth_1882
1836,"(31, 5, 3603, 1106, 135251, 1237, 135252)",2,mbtiauth_1882
1837,"(31, 5, 3603, 4594, 1237, 1099, 135252)",2,mbtiauth_1882
1838,"(31, 5, 3603, 4594, 135251, 1099, 135252)",2,mbtiauth_1882
1839,"(31, 5, 3603, 4594, 135251, 1237, 1099)",2,mbtiauth_1882
1840,"(31, 5, 3603, 4594, 135251, 1237, 135252)",2,mbtiauth_1882
1841,"(31, 5, 3603, 135251, 1237, 1099, 135252)",2,mbtiauth_1882
1842,"(31, 5, 4594, 135251, 1237, 1099, 135252)",2,mbtiauth_1882
1843,"(31, 678, 1106, 4594, 1237, 1099, 135252)",2,mbtiauth_1882
1844,"(31, 678, 1106, 4594, 135251, 1099, 135252)",2,mbtiauth_1882
1845,"(31, 678, 1106, 4594, 135251, 1237, 1099)",2,mbtiauth_1882
1846,"(31, 678, 1106, 4594, 135251, 1237, 135252)",2,mbtiauth_1882
1847,"(31, 678, 1106, 135251, 1237, 1099, 135252)",2,mbtiauth_1882
1848,"(31, 678, 4594, 135251, 1237, 1099, 135252)",2,mbtiauth_1882
1849,"(31, 1106, 4594, 135251, 1237, 1099, 135252)",2,mbtiauth_1882
1850,"(31, 3603, 678, 1106, 1237, 1099, 135252)",2,mbtiauth_1882
1851,"(31, 3603, 678, 1106, 4594, 1099, 135252)",2,mbtiauth_1882
1852,"(31, 3603, 678, 1106, 4594, 1237, 1099)",2,mbtiauth_1882
1853,"(31, 3603, 678, 1106, 4594, 1237, 135252)",2,mbtiauth_1882
1854,"(31, 3603, 678, 1106, 4594, 135251, 1099)",2,mbtiauth_1882
1855,"(31, 3603, 678, 1106, 4594, 135251, 1237)",2,mbtiauth_1882
1856,"(31, 3603, 678, 1106, 4594, 135251, 135252)",2,mbtiauth_1882
1857,"(31, 3603, 678, 1106, 135251, 1099, 135252)",2,mbtiauth_1882
1858,"(31, 3603, 678, 1106, 135251, 1237, 1099)",2,mbtiauth_1882
1859,"(31, 3603, 678, 1106, 135251, 1237, 135252)",2,mbtiauth_1882
1860,"(31, 3603, 678, 4594, 1237, 1099, 135252)",2,mbtiauth_1882
1861,"(31, 3603, 678, 4594, 135251, 1099, 135252)",2,mbtiauth_1882
1862,"(31, 3603, 678, 4594, 135251, 1237, 1099)",2,mbtiauth_1882
1863,"(31, 3603, 678, 4594, 135251, 1237, 135252)",2,mbtiauth_1882
1864,"(31, 3603, 678, 135251, 1237, 1099, 135252)",2,mbtiauth_1882
1865,"(31, 3603, 1106, 4594, 1237, 1099, 135252)",2,mbtiauth_1882
1866,"(31, 3603, 1106, 4594, 135251, 1099, 135252)",2,mbtiauth_1882
1867,"(31, 3603, 1106, 4594, 135251, 1237, 1099)",2,mbtiauth_1882
1868,"(31, 3603, 1106, 4594, 135251, 1237, 135252)",2,mbtiauth_1882
1869,"(31, 3603, 1106, 135251, 1237, 1099, 135252)",2,mbtiauth_1882
1870,"(31, 3603, 4594, 135251, 1237, 1099, 135252)",2,mbtiauth_1882
1871,"(50, 732, 48519, 50, 1014, 115, 3941)",2,mbtiauth_1882
1872,"(114, 5, 678, 1106, 4594, 1237, 1099)",2,mbtiauth_1882
1873,"(114, 5, 678, 1106, 4594, 135251, 1099)",2,mbtiauth_1882
1874,"(114, 5, 678, 1106, 4594, 135251, 1237)",2,mbtiauth_1882
1875,"(114, 5, 678, 1106, 135251, 1237, 1099)",2,mbtiauth_1882
1876,"(114, 5, 678, 4594, 135251, 1237, 1099)",2,mbtiauth_1882
1877,"(114, 5, 1106, 4594, 135251, 1237, 1099)",2,mbtiauth_1882
1878,"(114, 5, 3603, 678, 1106, 1237, 1099)",2,mbtiauth_1882
1879,"(114, 5, 3603, 678, 1106, 4594, 1099)",2,mbtiauth_1882
1880,"(114, 5, 3603, 678, 1106, 4594, 1237)",2,mbtiauth_1882
1881,"(114, 5, 3603, 678, 1106, 4594, 135251)",2,mbtiauth_1882
1882,"(114, 5, 3603, 678, 1106, 135251, 1099)",2,mbtiauth_1882
1883,"(114, 5, 3603, 678, 1106, 135251, 1237)",2,mbtiauth_1882
1884,"(114, 5, 3603, 678, 4594, 1237, 1099)",2,mbtiauth_1882
1885,"(114, 5, 3603, 678, 4594, 135251, 1099)",2,mbtiauth_1882
1886,"(114, 5, 3603, 678, 4594, 135251, 1237)",2,mbtiauth_1882
1887,"(114, 5, 3603, 678, 135251, 1237, 1099)",2,mbtiauth_1882
1888,"(114, 5, 3603, 1106, 4594, 1237, 1099)",2,mbtiauth_1882
1889,"(114, 5, 3603, 1106, 4594, 135251, 1099)",2,mbtiauth_1882
1890,"(114, 5, 3603, 1106, 4594, 135251, 1237)",2,mbtiauth_1882
1891,"(114, 5, 3603, 1106, 135251, 1237, 1099)",2,mbtiauth_1882
1892,"(114, 5, 3603, 4594, 135251, 1237, 1099)",2,mbtiauth_1882
1893,"(114, 31, 5, 678, 1106, 1237, 1099)",2,mbtiauth_1882
1894,"(114, 31, 5, 678, 1106, 4594, 1099)",2,mbtiauth_1882
1895,"(114, 31, 5, 678, 1106, 4594, 1237)",2,mbtiauth_1882
1896,"(114, 31, 5, 678, 1106, 4594, 135251)",2,mbtiauth_1882
1897,"(114, 31, 5, 678, 1106, 135251, 1099)",2,mbtiauth_1882
1898,"(114, 31, 5, 678, 1106, 135251, 1237)",2,mbtiauth_1882
1899,"(114, 31, 5, 678, 4594, 1237, 1099)",2,mbtiauth_1882
1900,"(114, 31, 5, 678, 4594, 135251, 1099)",2,mbtiauth_1882
1901,"(114, 31, 5, 678, 4594, 135251, 1237)",2,mbtiauth_1882
1902,"(114, 31, 5, 678, 135251, 1237, 1099)",2,mbtiauth_1882
1903,"(114, 31, 5, 1106, 4594, 1237, 1099)",2,mbtiauth_1882
1904,"(114, 31, 5, 1106, 4594, 135251, 1099)",2,mbtiauth_1882
1905,"(114, 31, 5, 1106, 4594, 135251, 1237)",2,mbtiauth_1882
1906,"(114, 31, 5, 1106, 135251, 1237, 1099)",2,mbtiauth_1882
1907,"(114, 31, 5, 3603, 678, 1106, 1099)",2,mbtiauth_1882
1908,"(114, 31, 5, 3603, 678, 1106, 1237)",2,mbtiauth_1882
1909,"(114, 31, 5, 3603, 678, 1106, 4594)",2,mbtiauth_1882
1910,"(114, 31, 5, 3603, 678, 1106, 135251)",2,mbtiauth_1882
1911,"(114, 31, 5, 3603, 678, 1237, 1099)",2,mbtiauth_1882
1912,"(114, 31, 5, 3603, 678, 4594, 1099)",2,mbtiauth_1882
1913,"(114, 31, 5, 3603, 678, 4594, 1237)",2,mbtiauth_1882
1914,"(114, 31, 5, 3603, 678, 4594, 135251)",2,mbtiauth_1882
1915,"(114, 31, 5, 3603, 678, 135251, 1099)",2,mbtiauth_1882
1916,"(114, 31, 5, 3603, 678, 135251, 1237)",2,mbtiauth_1882
1917,"(114, 31, 5, 3603, 1106, 1237, 1099)",2,mbtiauth_1882
1918,"(114, 31, 5, 3603, 1106, 4594, 1099)",2,mbtiauth_1882
1919,"(114, 31, 5, 3603, 1106, 4594, 1237)",2,mbtiauth_1882
1920,"(114, 31, 5, 3603, 1106, 4594, 135251)",2,mbtiauth_1882
1921,"(114, 31, 5, 3603, 1106, 135251, 1099)",2,mbtiauth_1882
1922,"(114, 31, 5, 3603, 1106, 135251, 1237)",2,mbtiauth_1882
1923,"(114, 31, 5, 3603, 4594, 1237, 1099)",2,mbtiauth_1882
1924,"(114, 31, 5, 3603, 4594, 135251, 1099)",2,mbtiauth_1882
1925,"(114, 31, 5, 3603, 4594, 135251, 1237)",2,mbtiauth_1882
1926,"(114, 31, 5, 3603, 135251, 1237, 1099)",2,mbtiauth_1882
1927,"(114, 31, 5, 4594, 135251, 1237, 1099)",2,mbtiauth_1882
1928,"(114, 31, 678, 1106, 4594, 1237, 1099)",2,mbtiauth_1882
1929,"(114, 31, 678, 1106, 4594, 135251, 1099)",2,mbtiauth_1882
1930,"(114, 31, 678, 1106, 4594, 135251, 1237)",2,mbtiauth_1882
1931,"(114, 31, 678, 1106, 135251, 1237, 1099)",2,mbtiauth_1882
1932,"(114, 31, 678, 4594, 135251, 1237, 1099)",2,mbtiauth_1882
1933,"(114, 31, 1106, 4594, 135251, 1237, 1099)",2,mbtiauth_1882
1934,"(114, 31, 3603, 678, 1106, 1237, 1099)",2,mbtiauth_1882
1935,"(114, 31, 3603, 678, 1106, 4594, 1099)",2,mbtiauth_1882
1936,"(114, 31, 3603, 678, 1106, 4594, 1237)",2,mbtiauth_1882
1937,"(114, 31, 3603, 678, 1106, 4594, 135251)",2,mbtiauth_1882
1938,"(114, 31, 3603, 678, 1106, 135251, 1099)",2,mbtiauth_1882
1939,"(114, 31, 3603, 678, 1106, 135251, 1237)",2,mbtiauth_1882
1940,"(114, 31, 3603, 678, 4594, 1237, 1099)",2,mbtiauth_1882
1941,"(114, 31, 3603, 678, 4594, 135251, 1099)",2,mbtiauth_1882
1942,"(114, 31, 3603, 678, 4594, 135251, 1237)",2,mbtiauth_1882
1943,"(114, 31, 3603, 678, 135251, 1237, 1099)",2,mbtiauth_1882
1944,"(114, 31, 3603, 1106, 4594, 1237, 1099)",2,mbtiauth_1882
1945,"(114, 31, 3603, 1106, 4594, 135251, 1099)",2,mbtiauth_1882
1946,"(114, 31, 3603, 1106, 4594, 135251, 1237)",2,mbtiauth_1882
1947,"(114, 31, 3603, 1106, 135251, 1237, 1099)",2,mbtiauth_1882
1948,"(114, 31, 3603, 4594, 135251, 1237, 1099)",2,mbtiauth_1882
1949,"(114, 678, 1106, 4594, 135251, 1237, 1099)",2,mbtiauth_1882
1950,"(114, 3603, 678, 1106, 4594, 1237, 1099)",2,mbtiauth_1882
1951,"(114, 3603, 678, 1106, 4594, 135251, 1099)",2,mbtiauth_1882
1952,"(114, 3603, 678, 1106, 4594, 135251, 1237)",2,mbtiauth_1882
1953,"(114, 3603, 678, 1106, 135251, 1237, 1099)",2,mbtiauth_1882
1954,"(114, 3603, 678, 4594, 135251, 1237, 1099)",2,mbtiauth_1882
1955,"(114, 3603, 1106, 4594, 135251, 1237, 1099)",2,mbtiauth_1882
1956,"(678, 1106, 4594, 135251, 1237, 1099, 135252)",2,mbtiauth_1882
1957,"(1178, 1175, 151, 1056, 1326, 50, 1326)",2,mbtiauth_1882
1958,"(3603, 678, 1106, 4594, 1237, 1099, 135252)",2,mbtiauth_1882
1959,"(3603, 678, 1106, 4594, 135251, 1099, 135252)",2,mbtiauth_1882
1960,"(3603, 678, 1106, 4594, 135251, 1237, 1099)",2,mbtiauth_1882
1961,"(3603, 678, 1106, 4594, 135251, 1237, 135252)",2,mbtiauth_1882
1962,"(3603, 678, 1106, 135251, 1237, 1099, 135252)",2,mbtiauth_1882
1963,"(3603, 678, 4594, 135251, 1237, 1099, 135252)",2,mbtiauth_1882
1964,"(3603, 1106, 4594, 135251, 1237, 1099, 135252)",2,mbtiauth_1882
1965,"(5, 678, 1106, 4594, 135251, 1237, 1099, 135252)",2,mbtiauth_1882
1966,"(5, 3603, 678, 1106, 4594, 1237, 1099, 135252)",2,mbtiauth_1882
1967,"(5, 3603, 678, 1106, 4594, 135251, 1099, 135252)",2,mbtiauth_1882
1968,"(5, 3603, 678, 1106, 4594, 135251, 1237, 1099)",2,mbtiauth_1882
1969,"(5, 3603, 678, 1106, 4594, 135251, 1237, 135252)",2,mbtiauth_1882
1970,"(5, 3603, 678, 1106, 135251, 1237, 1099, 135252)",2,mbtiauth_1882
1971,"(5, 3603, 678, 4594, 135251, 1237, 1099, 135252)",2,mbtiauth_1882
1972,"(5, 3603, 1106, 4594, 135251, 1237, 1099, 135252)",2,mbtiauth_1882
1973,"(31, 5, 678, 1106, 4594, 1237, 1099, 135252)",2,mbtiauth_1882
1974,"(31, 5, 678, 1106, 4594, 135251, 1099, 135252)",2,mbtiauth_1882
1975,"(31, 5, 678, 1106, 4594, 135251, 1237, 1099)",2,mbtiauth_1882
1976,"(31, 5, 678, 1106, 4594, 135251, 1237, 135252)",2,mbtiauth_1882
1977,"(31, 5, 678, 1106, 135251, 1237, 1099, 135252)",2,mbtiauth_1882
1978,"(31, 5, 678, 4594, 135251, 1237, 1099, 135252)",2,mbtiauth_1882
1979,"(31, 5, 1106, 4594, 135251, 1237, 1099, 135252)",2,mbtiauth_1882
1980,"(31, 5, 3603, 678, 1106, 1237, 1099, 135252)",2,mbtiauth_1882
1981,"(31, 5, 3603, 678, 1106, 4594, 1099, 135252)",2,mbtiauth_1882
1982,"(31, 5, 3603, 678, 1106, 4594, 1237, 1099)",2,mbtiauth_1882
1983,"(31, 5, 3603, 678, 1106, 4594, 1237, 135252)",2,mbtiauth_1882
1984,"(31, 5, 3603, 678, 1106, 4594, 135251, 1099)",2,mbtiauth_1882
1985,"(31, 5, 3603, 678, 1106, 4594, 135251, 1237)",2,mbtiauth_1882
1986,"(31, 5, 3603, 678, 1106, 4594, 135251, 135252)",2,mbtiauth_1882
1987,"(31, 5, 3603, 678, 1106, 135251, 1099, 135252)",2,mbtiauth_1882
1988,"(31, 5, 3603, 678, 1106, 135251, 1237, 1099)",2,mbtiauth_1882
1989,"(31, 5, 3603, 678, 1106, 135251, 1237, 135252)",2,mbtiauth_1882
1990,"(31, 5, 3603, 678, 4594, 1237, 1099, 135252)",2,mbtiauth_1882
1991,"(31, 5, 3603, 678, 4594, 135251, 1099, 135252)",2,mbtiauth_1882
1992,"(31, 5, 3603, 678, 4594, 135251, 1237, 1099)",2,mbtiauth_1882
1993,"(31, 5, 3603, 678, 4594, 135251, 1237, 135252)",2,mbtiauth_1882
1994,"(31, 5, 3603, 678, 135251, 1237, 1099, 135252)",2,mbtiauth_1882
1995,"(31, 5, 3603, 1106, 4594, 1237, 1099, 135252)",2,mbtiauth_1882
1996,"(31, 5, 3603, 1106, 4594, 135251, 1099, 135252)",2,mbtiauth_1882
1997,"(31, 5, 3603, 1106, 4594, 135251, 1237, 1099)",2,mbtiauth_1882
1998,"(31, 5, 3603, 1106, 4594, 135251, 1237, 135252)",2,mbtiauth_1882
1999,"(31, 5, 3603, 1106, 135251, 1237, 1099, 135252)",2,mbtiauth_1882
2000,"(31, 5, 3603, 4594, 135251, 1237, 1099, 135252)",2,mbtiauth_1882
2001,"(31, 678, 1106, 4594, 135251, 1237, 1099, 135252)",2,mbtiauth_1882
2002,"(31, 3603, 678, 1106, 4594, 1237, 1099, 135252)",2,mbtiauth_1882
2003,"(31, 3603, 678, 1106, 4594, 135251, 1099, 135252)",2,mbtiauth_1882
2004,"(31, 3603, 678, 1106, 4594, 135251, 1237, 1099)",2,mbtiauth_1882
2005,"(31, 3603, 678, 1106, 4594, 135251, 1237, 135252)",2,mbtiauth_1882
2006,"(31, 3603, 678, 1106, 135251, 1237, 1099, 135252)",2,mbtiauth_1882
2007,"(31, 3603, 678, 4594, 135251, 1237, 1099, 135252)",2,mbtiauth_1882
2008,"(31, 3603, 1106, 4594, 135251, 1237, 1099, 135252)",2,mbtiauth_1882
2009,"(114, 5, 678, 1106, 4594, 135251, 1237, 1099)",2,mbtiauth_1882
2010,"(114, 5, 3603, 678, 1106, 4594, 1237, 1099)",2,mbtiauth_1882
2011,"(114, 5, 3603, 678, 1106, 4594, 135251, 1099)",2,mbtiauth_1882
2012,"(114, 5, 3603, 678, 1106, 4594, 135251, 1237)",2,mbtiauth_1882
2013,"(114, 5, 3603, 678, 1106, 135251, 1237, 1099)",2,mbtiauth_1882
2014,"(114, 5, 3603, 678, 4594, 135251, 1237, 1099)",2,mbtiauth_1882
2015,"(114, 5, 3603, 1106, 4594, 135251, 1237, 1099)",2,mbtiauth_1882
2016,"(114, 31, 5, 678, 1106, 4594, 1237, 1099)",2,mbtiauth_1882
2017,"(114, 31, 5, 678, 1106, 4594, 135251, 1099)",2,mbtiauth_1882
2018,"(114, 31, 5, 678, 1106, 4594, 135251, 1237)",2,mbtiauth_1882
2019,"(114, 31, 5, 678, 1106, 135251, 1237, 1099)",2,mbtiauth_1882
2020,"(114, 31, 5, 678, 4594, 135251, 1237, 1099)",2,mbtiauth_1882
2021,"(114, 31, 5, 1106, 4594, 135251, 1237, 1099)",2,mbtiauth_1882
2022,"(114, 31, 5, 3603, 678, 1106, 1237, 1099)",2,mbtiauth_1882
2023,"(114, 31, 5, 3603, 678, 1106, 4594, 1099)",2,mbtiauth_1882
2024,"(114, 31, 5, 3603, 678, 1106, 4594, 1237)",2,mbtiauth_1882
2025,"(114, 31, 5, 3603, 678, 1106, 4594, 135251)",2,mbtiauth_1882
2026,"(114, 31, 5, 3603, 678, 1106, 135251, 1099)",2,mbtiauth_1882
2027,"(114, 31, 5, 3603, 678, 1106, 135251, 1237)",2,mbtiauth_1882
2028,"(114, 31, 5, 3603, 678, 4594, 1237, 1099)",2,mbtiauth_1882
2029,"(114, 31, 5, 3603, 678, 4594, 135251, 1099)",2,mbtiauth_1882
2030,"(114, 31, 5, 3603, 678, 4594, 135251, 1237)",2,mbtiauth_1882
2031,"(114, 31, 5, 3603, 678, 135251, 1237, 1099)",2,mbtiauth_1882
2032,"(114, 31, 5, 3603, 1106, 4594, 1237, 1099)",2,mbtiauth_1882
2033,"(114, 31, 5, 3603, 1106, 4594, 135251, 1099)",2,mbtiauth_1882
2034,"(114, 31, 5, 3603, 1106, 4594, 135251, 1237)",2,mbtiauth_1882
2035,"(114, 31, 5, 3603, 1106, 135251, 1237, 1099)",2,mbtiauth_1882
2036,"(114, 31, 5, 3603, 4594, 135251, 1237, 1099)",2,mbtiauth_1882
2037,"(114, 31, 678, 1106, 4594, 135251, 1237, 1099)",2,mbtiauth_1882
2038,"(114, 31, 3603, 678, 1106, 4594, 1237, 1099)",2,mbtiauth_1882
2039,"(114, 31, 3603, 678, 1106, 4594, 135251, 1099)",2,mbtiauth_1882
2040,"(114, 31, 3603, 678, 1106, 4594, 135251, 1237)",2,mbtiauth_1882
2041,"(114, 31, 3603, 678, 1106, 135251, 1237, 1099)",2,mbtiauth_1882
2042,"(114, 31, 3603, 678, 4594, 135251, 1237, 1099)",2,mbtiauth_1882
2043,"(114, 31, 3603, 1106, 4594, 135251, 1237, 1099)",2,mbtiauth_1882
2044,"(114, 3603, 678, 1106, 4594, 135251, 1237, 1099)",2,mbtiauth_1882
2045,"(3603, 678, 1106, 4594, 135251, 1237, 1099, 135252)",2,mbtiauth_1882
2046,"(5, 3603, 678, 1106, 4594, 135251, 1237, 1099, 135252)",2,mbtiauth_1882
2047,"(31, 5, 678, 1106, 4594, 135251, 1237, 1099, 135252)",2,mbtiauth_1882
2048,"(31, 5, 3603, 678, 1106, 4594, 1237, 1099, 135252)",2,mbtiauth_1882
2049,"(31, 5, 3603, 678, 1106, 4594, 135251, 1099, 135252)",2,mbtiauth_1882
2050,"(31, 5, 3603, 678, 1106, 4594, 135251, 1237, 1099)",2,mbtiauth_1882
2051,"(31, 5, 3603, 678, 1106, 4594, 135251, 1237, 135252)",2,mbtiauth_1882
2052,"(31, 5, 3603, 678, 1106, 135251, 1237, 1099, 135252)",2,mbtiauth_1882
2053,"(31, 5, 3603, 678, 4594, 135251, 1237, 1099, 135252)",2,mbtiauth_1882
2054,"(31, 5, 3603, 1106, 4594, 135251, 1237, 1099, 135252)",2,mbtiauth_1882
2055,"(31, 3603, 678, 1106, 4594, 135251, 1237, 1099, 135252)",2,mbtiauth_1882
2056,"(114, 5, 3603, 678, 1106, 4594, 135251, 1237, 1099)",2,mbtiauth_1882
2057,"(114, 31, 5, 678, 1106, 4594, 135251, 1237, 1099)",2,mbtiauth_1882
2058,"(114, 31, 5, 3603, 678, 1106, 4594, 1237, 1099)",2,mbtiauth_1882
2059,"(114, 31, 5, 3603, 678, 1106, 4594, 135251, 1099)",2,mbtiauth_1882
2060,"(114, 31, 5, 3603, 678, 1106, 4594, 135251, 1237)",2,mbtiauth_1882
2061,"(114, 31, 5, 3603, 678, 1106, 135251, 1237, 1099)",2,mbtiauth_1882
2062,"(114, 31, 5, 3603, 678, 4594, 135251, 1237, 1099)",2,mbtiauth_1882
2063,"(114, 31, 5, 3603, 1106, 4594, 135251, 1237, 1099)",2,mbtiauth_1882
2064,"(114, 31, 3603, 678, 1106, 4594, 135251, 1237, 1099)",2,mbtiauth_1882
2065,"(31, 5, 3603, 678, 1106, 4594, 135251, 1237, 1099, 135252)",2,mbtiauth_1882
2066,"(114, 31, 5, 3603, 678, 1106, 4594, 135251, 1237, 1099)",2,mbtiauth_1882
