,pattern,sup,author
157,"(1, 190, 1)",2,mbtiauth_5147
158,"(48, 1, 1)",2,mbtiauth_5147
159,"(48, 1, 190)",2,mbtiauth_5147
160,"(48, 190, 1)",2,mbtiauth_5147
161,"(48, 1788, 1)",2,mbtiauth_5147
162,"(48, 1788, 190)",2,mbtiauth_5147
163,"(50, 50, 9811)",2,mbtiauth_5147
164,"(50, 50, 44687)",2,mbtiauth_5147
165,"(50, 44687, 9811)",2,mbtiauth_5147
166,"(190, 1, 190)",2,mbtiauth_5147
167,"(484, 949, 949)",2,mbtiauth_5147
168,"(1788, 1, 1)",2,mbtiauth_5147
169,"(1788, 1, 190)",2,mbtiauth_5147
170,"(1788, 190, 1)",2,mbtiauth_5147
171,"(48, 1, 190, 1)",2,mbtiauth_5147
172,"(48, 1788, 1, 1)",2,mbtiauth_5147
173,"(48, 1788, 1, 190)",2,mbtiauth_5147
174,"(48, 1788, 190, 1)",2,mbtiauth_5147
175,"(50, 50, 44687, 9811)",2,mbtiauth_5147
176,"(1788, 1, 190, 1)",2,mbtiauth_5147
177,"(48, 1788, 1, 190, 1)",2,mbtiauth_5147
