,pattern,sup,author
196,"(11, 2720, 79)",2,mbtiauth_608
197,"(41, 50, 1490)",2,mbtiauth_608
198,"(48, 50, 50)",2,mbtiauth_608
199,"(48, 2195, 50)",2,mbtiauth_608
200,"(50, 11, 79)",2,mbtiauth_608
201,"(50, 11, 2720)",2,mbtiauth_608
202,"(50, 50, 50)",6,mbtiauth_608
203,"(50, 50, 79)",2,mbtiauth_608
204,"(50, 50, 138)",2,mbtiauth_608
205,"(50, 50, 680)",2,mbtiauth_608
206,"(50, 50, 1034)",2,mbtiauth_608
207,"(50, 929, 50)",2,mbtiauth_608
208,"(50, 1623, 50)",2,mbtiauth_608
209,"(50, 2720, 79)",2,mbtiauth_608
210,"(179, 339, 248)",2,mbtiauth_608
211,"(179, 2195, 248)",2,mbtiauth_608
212,"(179, 2195, 339)",2,mbtiauth_608
213,"(195, 50, 50)",2,mbtiauth_608
214,"(233, 50, 50)",2,mbtiauth_608
215,"(248, 11, 79)",2,mbtiauth_608
216,"(248, 11, 2720)",2,mbtiauth_608
217,"(248, 50, 11)",2,mbtiauth_608
218,"(248, 50, 79)",2,mbtiauth_608
219,"(248, 50, 2720)",2,mbtiauth_608
220,"(248, 382, 11)",2,mbtiauth_608
221,"(248, 382, 50)",2,mbtiauth_608
222,"(248, 382, 79)",2,mbtiauth_608
223,"(248, 382, 2720)",2,mbtiauth_608
224,"(248, 2720, 79)",2,mbtiauth_608
225,"(382, 11, 79)",2,mbtiauth_608
226,"(382, 11, 2720)",2,mbtiauth_608
227,"(382, 50, 11)",2,mbtiauth_608
228,"(382, 50, 79)",2,mbtiauth_608
229,"(382, 50, 2720)",2,mbtiauth_608
230,"(382, 2720, 79)",2,mbtiauth_608
231,"(483, 210, 483)",2,mbtiauth_608
232,"(568, 179, 248)",2,mbtiauth_608
233,"(568, 179, 339)",2,mbtiauth_608
234,"(568, 179, 2195)",2,mbtiauth_608
235,"(568, 339, 248)",2,mbtiauth_608
236,"(568, 2195, 248)",2,mbtiauth_608
237,"(568, 2195, 339)",2,mbtiauth_608
238,"(571, 1024, 2092)",2,mbtiauth_608
239,"(929, 50, 50)",2,mbtiauth_608
240,"(982, 4915, 50)",2,mbtiauth_608
241,"(1190, 179, 248)",2,mbtiauth_608
242,"(1190, 179, 339)",2,mbtiauth_608
243,"(1190, 179, 2195)",2,mbtiauth_608
244,"(1190, 339, 248)",2,mbtiauth_608
245,"(1190, 568, 179)",2,mbtiauth_608
246,"(1190, 568, 248)",2,mbtiauth_608
247,"(1190, 568, 339)",2,mbtiauth_608
248,"(1190, 568, 2195)",2,mbtiauth_608
249,"(1190, 2195, 248)",2,mbtiauth_608
250,"(1190, 2195, 339)",2,mbtiauth_608
251,"(1190, 5609, 179)",2,mbtiauth_608
252,"(1190, 5609, 248)",2,mbtiauth_608
253,"(1190, 5609, 339)",2,mbtiauth_608
254,"(1190, 5609, 568)",2,mbtiauth_608
255,"(1190, 5609, 2195)",2,mbtiauth_608
256,"(2195, 339, 248)",2,mbtiauth_608
257,"(5609, 179, 248)",2,mbtiauth_608
258,"(5609, 179, 339)",2,mbtiauth_608
259,"(5609, 179, 2195)",2,mbtiauth_608
260,"(5609, 339, 248)",2,mbtiauth_608
261,"(5609, 568, 179)",2,mbtiauth_608
262,"(5609, 568, 248)",2,mbtiauth_608
263,"(5609, 568, 339)",2,mbtiauth_608
264,"(5609, 568, 2195)",2,mbtiauth_608
265,"(5609, 2195, 248)",2,mbtiauth_608
266,"(5609, 2195, 339)",2,mbtiauth_608
267,"(50, 11, 2720, 79)",2,mbtiauth_608
268,"(50, 50, 50, 50)",3,mbtiauth_608
269,"(179, 2195, 339, 248)",2,mbtiauth_608
270,"(248, 11, 2720, 79)",2,mbtiauth_608
271,"(248, 50, 11, 79)",2,mbtiauth_608
272,"(248, 50, 11, 2720)",2,mbtiauth_608
273,"(248, 50, 2720, 79)",2,mbtiauth_608
274,"(248, 382, 11, 79)",2,mbtiauth_608
275,"(248, 382, 11, 2720)",2,mbtiauth_608
276,"(248, 382, 50, 11)",2,mbtiauth_608
277,"(248, 382, 50, 79)",2,mbtiauth_608
278,"(248, 382, 50, 2720)",2,mbtiauth_608
279,"(248, 382, 2720, 79)",2,mbtiauth_608
280,"(382, 11, 2720, 79)",2,mbtiauth_608
281,"(382, 50, 11, 79)",2,mbtiauth_608
282,"(382, 50, 11, 2720)",2,mbtiauth_608
283,"(382, 50, 2720, 79)",2,mbtiauth_608
284,"(568, 179, 339, 248)",2,mbtiauth_608
285,"(568, 179, 2195, 248)",2,mbtiauth_608
286,"(568, 179, 2195, 339)",2,mbtiauth_608
287,"(568, 2195, 339, 248)",2,mbtiauth_608
288,"(1190, 179, 339, 248)",2,mbtiauth_608
289,"(1190, 179, 2195, 248)",2,mbtiauth_608
290,"(1190, 179, 2195, 339)",2,mbtiauth_608
291,"(1190, 568, 179, 248)",2,mbtiauth_608
292,"(1190, 568, 179, 339)",2,mbtiauth_608
293,"(1190, 568, 179, 2195)",2,mbtiauth_608
294,"(1190, 568, 339, 248)",2,mbtiauth_608
295,"(1190, 568, 2195, 248)",2,mbtiauth_608
296,"(1190, 568, 2195, 339)",2,mbtiauth_608
297,"(1190, 2195, 339, 248)",2,mbtiauth_608
298,"(1190, 5609, 179, 248)",2,mbtiauth_608
299,"(1190, 5609, 179, 339)",2,mbtiauth_608
300,"(1190, 5609, 179, 2195)",2,mbtiauth_608
301,"(1190, 5609, 339, 248)",2,mbtiauth_608
302,"(1190, 5609, 568, 179)",2,mbtiauth_608
303,"(1190, 5609, 568, 248)",2,mbtiauth_608
304,"(1190, 5609, 568, 339)",2,mbtiauth_608
305,"(1190, 5609, 568, 2195)",2,mbtiauth_608
306,"(1190, 5609, 2195, 248)",2,mbtiauth_608
307,"(1190, 5609, 2195, 339)",2,mbtiauth_608
308,"(5609, 179, 339, 248)",2,mbtiauth_608
309,"(5609, 179, 2195, 248)",2,mbtiauth_608
310,"(5609, 179, 2195, 339)",2,mbtiauth_608
311,"(5609, 568, 179, 248)",2,mbtiauth_608
312,"(5609, 568, 179, 339)",2,mbtiauth_608
313,"(5609, 568, 179, 2195)",2,mbtiauth_608
314,"(5609, 568, 339, 248)",2,mbtiauth_608
315,"(5609, 568, 2195, 248)",2,mbtiauth_608
316,"(5609, 568, 2195, 339)",2,mbtiauth_608
317,"(5609, 2195, 339, 248)",2,mbtiauth_608
318,"(248, 50, 11, 2720, 79)",2,mbtiauth_608
319,"(248, 382, 11, 2720, 79)",2,mbtiauth_608
320,"(248, 382, 50, 11, 79)",2,mbtiauth_608
321,"(248, 382, 50, 11, 2720)",2,mbtiauth_608
322,"(248, 382, 50, 2720, 79)",2,mbtiauth_608
323,"(382, 50, 11, 2720, 79)",2,mbtiauth_608
324,"(568, 179, 2195, 339, 248)",2,mbtiauth_608
325,"(1190, 179, 2195, 339, 248)",2,mbtiauth_608
326,"(1190, 568, 179, 339, 248)",2,mbtiauth_608
327,"(1190, 568, 179, 2195, 248)",2,mbtiauth_608
328,"(1190, 568, 179, 2195, 339)",2,mbtiauth_608
329,"(1190, 568, 2195, 339, 248)",2,mbtiauth_608
330,"(1190, 5609, 179, 339, 248)",2,mbtiauth_608
331,"(1190, 5609, 179, 2195, 248)",2,mbtiauth_608
332,"(1190, 5609, 179, 2195, 339)",2,mbtiauth_608
333,"(1190, 5609, 568, 179, 248)",2,mbtiauth_608
334,"(1190, 5609, 568, 179, 339)",2,mbtiauth_608
335,"(1190, 5609, 568, 179, 2195)",2,mbtiauth_608
336,"(1190, 5609, 568, 339, 248)",2,mbtiauth_608
337,"(1190, 5609, 568, 2195, 248)",2,mbtiauth_608
338,"(1190, 5609, 568, 2195, 339)",2,mbtiauth_608
339,"(1190, 5609, 2195, 339, 248)",2,mbtiauth_608
340,"(5609, 179, 2195, 339, 248)",2,mbtiauth_608
341,"(5609, 568, 179, 339, 248)",2,mbtiauth_608
342,"(5609, 568, 179, 2195, 248)",2,mbtiauth_608
343,"(5609, 568, 179, 2195, 339)",2,mbtiauth_608
344,"(5609, 568, 2195, 339, 248)",2,mbtiauth_608
345,"(248, 382, 50, 11, 2720, 79)",2,mbtiauth_608
346,"(1190, 568, 179, 2195, 339, 248)",2,mbtiauth_608
347,"(1190, 5609, 179, 2195, 339, 248)",2,mbtiauth_608
348,"(1190, 5609, 568, 179, 339, 248)",2,mbtiauth_608
349,"(1190, 5609, 568, 179, 2195, 248)",2,mbtiauth_608
350,"(1190, 5609, 568, 179, 2195, 339)",2,mbtiauth_608
351,"(1190, 5609, 568, 2195, 339, 248)",2,mbtiauth_608
352,"(5609, 568, 179, 2195, 339, 248)",2,mbtiauth_608
353,"(1190, 5609, 568, 179, 2195, 339, 248)",2,mbtiauth_608
