,pattern,sup,author
110,"(6, 6, 6)",3,mbtiauth_231
111,"(6, 6, 17)",3,mbtiauth_231
112,"(6, 6, 18)",3,mbtiauth_231
113,"(6, 17, 6)",3,mbtiauth_231
114,"(6, 17, 17)",3,mbtiauth_231
115,"(6, 17, 18)",3,mbtiauth_231
116,"(6, 18, 6)",3,mbtiauth_231
117,"(6, 18, 17)",4,mbtiauth_231
118,"(6, 18, 18)",3,mbtiauth_231
119,"(17, 6, 6)",3,mbtiauth_231
120,"(17, 6, 17)",3,mbtiauth_231
121,"(17, 6, 18)",3,mbtiauth_231
122,"(17, 17, 6)",3,mbtiauth_231
123,"(17, 17, 17)",3,mbtiauth_231
124,"(17, 17, 18)",3,mbtiauth_231
125,"(17, 18, 6)",3,mbtiauth_231
126,"(17, 18, 17)",3,mbtiauth_231
127,"(17, 18, 18)",3,mbtiauth_231
128,"(18, 6, 6)",3,mbtiauth_231
129,"(18, 6, 17)",3,mbtiauth_231
130,"(18, 6, 18)",3,mbtiauth_231
131,"(18, 17, 6)",3,mbtiauth_231
132,"(18, 17, 17)",3,mbtiauth_231
133,"(18, 17, 18)",3,mbtiauth_231
134,"(18, 18, 6)",3,mbtiauth_231
135,"(18, 18, 17)",3,mbtiauth_231
136,"(18, 18, 18)",3,mbtiauth_231
137,"(50, 19, 19)",2,mbtiauth_231
138,"(50, 50, 19)",2,mbtiauth_231
139,"(50, 50, 50)",3,mbtiauth_231
140,"(50, 50, 233)",2,mbtiauth_231
141,"(50, 248, 50)",2,mbtiauth_231
142,"(50, 248, 233)",2,mbtiauth_231
143,"(89, 233, 50)",2,mbtiauth_231
144,"(248, 50, 50)",2,mbtiauth_231
145,"(428, 49, 590)",2,mbtiauth_231
146,"(428, 245, 3446)",2,mbtiauth_231
147,"(1930, 245, 3446)",2,mbtiauth_231
148,"(1930, 428, 245)",2,mbtiauth_231
149,"(1930, 428, 3446)",2,mbtiauth_231
150,"(2304, 2304, 2304)",2,mbtiauth_231
151,"(6, 6, 6, 18)",2,mbtiauth_231
152,"(6, 6, 17, 6)",3,mbtiauth_231
153,"(6, 6, 17, 18)",2,mbtiauth_231
154,"(6, 6, 18, 6)",3,mbtiauth_231
155,"(6, 6, 18, 17)",3,mbtiauth_231
156,"(6, 6, 18, 18)",2,mbtiauth_231
157,"(6, 17, 6, 6)",3,mbtiauth_231
158,"(6, 17, 6, 17)",3,mbtiauth_231
159,"(6, 17, 6, 18)",3,mbtiauth_231
160,"(6, 17, 17, 6)",3,mbtiauth_231
161,"(6, 17, 17, 18)",2,mbtiauth_231
162,"(6, 17, 18, 6)",3,mbtiauth_231
163,"(6, 17, 18, 17)",3,mbtiauth_231
164,"(6, 17, 18, 18)",2,mbtiauth_231
165,"(6, 18, 6, 6)",3,mbtiauth_231
166,"(6, 18, 6, 17)",3,mbtiauth_231
167,"(6, 18, 6, 18)",3,mbtiauth_231
168,"(6, 18, 17, 6)",3,mbtiauth_231
169,"(6, 18, 17, 17)",3,mbtiauth_231
170,"(6, 18, 17, 18)",3,mbtiauth_231
171,"(6, 18, 18, 6)",3,mbtiauth_231
172,"(6, 18, 18, 17)",3,mbtiauth_231
173,"(6, 18, 18, 18)",2,mbtiauth_231
174,"(17, 6, 6, 17)",3,mbtiauth_231
175,"(17, 6, 6, 18)",3,mbtiauth_231
176,"(17, 6, 17, 6)",3,mbtiauth_231
177,"(17, 6, 17, 17)",3,mbtiauth_231
178,"(17, 6, 17, 18)",3,mbtiauth_231
179,"(17, 6, 18, 6)",3,mbtiauth_231
180,"(17, 6, 18, 17)",3,mbtiauth_231
181,"(17, 6, 18, 18)",3,mbtiauth_231
182,"(17, 17, 6, 17)",3,mbtiauth_231
183,"(17, 17, 6, 18)",3,mbtiauth_231
184,"(17, 17, 18, 17)",3,mbtiauth_231
185,"(17, 18, 6, 17)",3,mbtiauth_231
186,"(17, 18, 6, 18)",3,mbtiauth_231
187,"(17, 18, 17, 6)",3,mbtiauth_231
188,"(17, 18, 17, 17)",3,mbtiauth_231
189,"(17, 18, 17, 18)",3,mbtiauth_231
190,"(17, 18, 18, 17)",3,mbtiauth_231
191,"(18, 6, 6, 17)",2,mbtiauth_231
192,"(18, 6, 6, 18)",3,mbtiauth_231
193,"(18, 6, 17, 6)",3,mbtiauth_231
194,"(18, 6, 17, 17)",2,mbtiauth_231
195,"(18, 6, 17, 18)",3,mbtiauth_231
196,"(18, 6, 18, 6)",3,mbtiauth_231
197,"(18, 6, 18, 17)",3,mbtiauth_231
198,"(18, 6, 18, 18)",3,mbtiauth_231
199,"(18, 17, 6, 6)",3,mbtiauth_231
200,"(18, 17, 6, 17)",3,mbtiauth_231
201,"(18, 17, 6, 18)",3,mbtiauth_231
202,"(18, 17, 17, 6)",3,mbtiauth_231
203,"(18, 17, 17, 17)",2,mbtiauth_231
204,"(18, 17, 17, 18)",3,mbtiauth_231
205,"(18, 17, 18, 6)",3,mbtiauth_231
206,"(18, 17, 18, 17)",3,mbtiauth_231
207,"(18, 17, 18, 18)",3,mbtiauth_231
208,"(18, 18, 6, 17)",2,mbtiauth_231
209,"(18, 18, 6, 18)",3,mbtiauth_231
210,"(18, 18, 17, 6)",3,mbtiauth_231
211,"(18, 18, 17, 17)",2,mbtiauth_231
212,"(18, 18, 17, 18)",3,mbtiauth_231
213,"(18, 18, 18, 17)",2,mbtiauth_231
214,"(1930, 428, 245, 3446)",2,mbtiauth_231
215,"(6, 6, 17, 6, 18)",2,mbtiauth_231
216,"(6, 6, 18, 6, 18)",2,mbtiauth_231
217,"(6, 6, 18, 17, 6)",3,mbtiauth_231
218,"(6, 6, 18, 17, 18)",2,mbtiauth_231
219,"(6, 17, 6, 6, 18)",2,mbtiauth_231
220,"(6, 17, 6, 17, 6)",3,mbtiauth_231
221,"(6, 17, 6, 17, 18)",2,mbtiauth_231
222,"(6, 17, 6, 18, 6)",3,mbtiauth_231
223,"(6, 17, 6, 18, 17)",3,mbtiauth_231
224,"(6, 17, 6, 18, 18)",2,mbtiauth_231
225,"(6, 17, 17, 6, 18)",2,mbtiauth_231
226,"(6, 17, 18, 6, 18)",2,mbtiauth_231
227,"(6, 17, 18, 17, 6)",3,mbtiauth_231
228,"(6, 17, 18, 17, 18)",2,mbtiauth_231
229,"(6, 18, 6, 6, 18)",2,mbtiauth_231
230,"(6, 18, 6, 17, 6)",3,mbtiauth_231
231,"(6, 18, 6, 17, 18)",2,mbtiauth_231
232,"(6, 18, 6, 18, 6)",3,mbtiauth_231
233,"(6, 18, 6, 18, 17)",3,mbtiauth_231
234,"(6, 18, 6, 18, 18)",2,mbtiauth_231
235,"(6, 18, 17, 6, 6)",3,mbtiauth_231
236,"(6, 18, 17, 6, 17)",3,mbtiauth_231
237,"(6, 18, 17, 6, 18)",3,mbtiauth_231
238,"(6, 18, 17, 17, 6)",3,mbtiauth_231
239,"(6, 18, 17, 17, 18)",2,mbtiauth_231
240,"(6, 18, 17, 18, 6)",3,mbtiauth_231
241,"(6, 18, 17, 18, 17)",3,mbtiauth_231
242,"(6, 18, 17, 18, 18)",2,mbtiauth_231
243,"(6, 18, 18, 6, 18)",2,mbtiauth_231
244,"(6, 18, 18, 17, 6)",3,mbtiauth_231
245,"(6, 18, 18, 17, 18)",2,mbtiauth_231
246,"(17, 6, 6, 18, 17)",3,mbtiauth_231
247,"(17, 6, 17, 6, 17)",3,mbtiauth_231
248,"(17, 6, 17, 6, 18)",3,mbtiauth_231
249,"(17, 6, 17, 18, 17)",3,mbtiauth_231
250,"(17, 6, 18, 6, 17)",3,mbtiauth_231
251,"(17, 6, 18, 6, 18)",3,mbtiauth_231
252,"(17, 6, 18, 17, 6)",3,mbtiauth_231
253,"(17, 6, 18, 17, 17)",3,mbtiauth_231
254,"(17, 6, 18, 17, 18)",3,mbtiauth_231
255,"(17, 6, 18, 18, 17)",3,mbtiauth_231
256,"(17, 17, 6, 18, 17)",3,mbtiauth_231
257,"(17, 18, 6, 18, 17)",3,mbtiauth_231
258,"(17, 18, 17, 6, 17)",3,mbtiauth_231
259,"(17, 18, 17, 6, 18)",3,mbtiauth_231
260,"(17, 18, 17, 18, 17)",3,mbtiauth_231
261,"(18, 6, 6, 18, 17)",2,mbtiauth_231
262,"(18, 6, 17, 6, 17)",2,mbtiauth_231
263,"(18, 6, 17, 6, 18)",3,mbtiauth_231
264,"(18, 6, 17, 18, 17)",2,mbtiauth_231
265,"(18, 6, 18, 6, 17)",2,mbtiauth_231
266,"(18, 6, 18, 6, 18)",3,mbtiauth_231
267,"(18, 6, 18, 17, 6)",3,mbtiauth_231
268,"(18, 6, 18, 17, 17)",2,mbtiauth_231
269,"(18, 6, 18, 17, 18)",3,mbtiauth_231
270,"(18, 6, 18, 18, 17)",2,mbtiauth_231
271,"(18, 17, 6, 6, 17)",2,mbtiauth_231
272,"(18, 17, 6, 6, 18)",3,mbtiauth_231
273,"(18, 17, 6, 17, 6)",3,mbtiauth_231
274,"(18, 17, 6, 17, 17)",2,mbtiauth_231
275,"(18, 17, 6, 17, 18)",3,mbtiauth_231
276,"(18, 17, 6, 18, 6)",3,mbtiauth_231
277,"(18, 17, 6, 18, 17)",3,mbtiauth_231
278,"(18, 17, 6, 18, 18)",3,mbtiauth_231
279,"(18, 17, 17, 6, 17)",2,mbtiauth_231
280,"(18, 17, 17, 6, 18)",3,mbtiauth_231
281,"(18, 17, 17, 18, 17)",2,mbtiauth_231
282,"(18, 17, 18, 6, 17)",2,mbtiauth_231
283,"(18, 17, 18, 6, 18)",3,mbtiauth_231
284,"(18, 17, 18, 17, 6)",3,mbtiauth_231
285,"(18, 17, 18, 17, 17)",2,mbtiauth_231
286,"(18, 17, 18, 17, 18)",3,mbtiauth_231
287,"(18, 17, 18, 18, 17)",2,mbtiauth_231
288,"(18, 18, 6, 18, 17)",2,mbtiauth_231
289,"(18, 18, 17, 6, 17)",2,mbtiauth_231
290,"(18, 18, 17, 6, 18)",3,mbtiauth_231
291,"(18, 18, 17, 18, 17)",2,mbtiauth_231
292,"(6, 6, 18, 17, 6, 18)",2,mbtiauth_231
293,"(6, 17, 6, 17, 6, 18)",2,mbtiauth_231
294,"(6, 17, 6, 18, 6, 18)",2,mbtiauth_231
295,"(6, 17, 6, 18, 17, 6)",3,mbtiauth_231
296,"(6, 17, 6, 18, 17, 18)",2,mbtiauth_231
297,"(6, 17, 18, 17, 6, 18)",2,mbtiauth_231
298,"(6, 18, 6, 17, 6, 18)",2,mbtiauth_231
299,"(6, 18, 6, 18, 6, 18)",2,mbtiauth_231
300,"(6, 18, 6, 18, 17, 6)",3,mbtiauth_231
301,"(6, 18, 6, 18, 17, 18)",2,mbtiauth_231
302,"(6, 18, 17, 6, 6, 18)",2,mbtiauth_231
303,"(6, 18, 17, 6, 17, 6)",3,mbtiauth_231
304,"(6, 18, 17, 6, 17, 18)",2,mbtiauth_231
305,"(6, 18, 17, 6, 18, 6)",3,mbtiauth_231
306,"(6, 18, 17, 6, 18, 17)",3,mbtiauth_231
307,"(6, 18, 17, 6, 18, 18)",2,mbtiauth_231
308,"(6, 18, 17, 17, 6, 18)",2,mbtiauth_231
309,"(6, 18, 17, 18, 6, 18)",2,mbtiauth_231
310,"(6, 18, 17, 18, 17, 6)",3,mbtiauth_231
311,"(6, 18, 17, 18, 17, 18)",2,mbtiauth_231
312,"(6, 18, 18, 17, 6, 18)",2,mbtiauth_231
313,"(17, 6, 17, 6, 18, 17)",3,mbtiauth_231
314,"(17, 6, 18, 6, 18, 17)",3,mbtiauth_231
315,"(17, 6, 18, 17, 6, 17)",3,mbtiauth_231
316,"(17, 6, 18, 17, 6, 18)",3,mbtiauth_231
317,"(17, 6, 18, 17, 18, 17)",3,mbtiauth_231
318,"(17, 18, 17, 6, 18, 17)",3,mbtiauth_231
319,"(18, 6, 17, 6, 18, 17)",2,mbtiauth_231
320,"(18, 6, 18, 6, 18, 17)",2,mbtiauth_231
321,"(18, 6, 18, 17, 6, 17)",2,mbtiauth_231
322,"(18, 6, 18, 17, 6, 18)",3,mbtiauth_231
323,"(18, 6, 18, 17, 18, 17)",2,mbtiauth_231
324,"(18, 17, 6, 6, 18, 17)",2,mbtiauth_231
325,"(18, 17, 6, 17, 6, 17)",2,mbtiauth_231
326,"(18, 17, 6, 17, 6, 18)",3,mbtiauth_231
327,"(18, 17, 6, 17, 18, 17)",2,mbtiauth_231
328,"(18, 17, 6, 18, 6, 17)",2,mbtiauth_231
329,"(18, 17, 6, 18, 6, 18)",3,mbtiauth_231
330,"(18, 17, 6, 18, 17, 6)",3,mbtiauth_231
331,"(18, 17, 6, 18, 17, 17)",2,mbtiauth_231
332,"(18, 17, 6, 18, 17, 18)",3,mbtiauth_231
333,"(18, 17, 6, 18, 18, 17)",2,mbtiauth_231
334,"(18, 17, 17, 6, 18, 17)",2,mbtiauth_231
335,"(18, 17, 18, 6, 18, 17)",2,mbtiauth_231
336,"(18, 17, 18, 17, 6, 17)",2,mbtiauth_231
337,"(18, 17, 18, 17, 6, 18)",3,mbtiauth_231
338,"(18, 17, 18, 17, 18, 17)",2,mbtiauth_231
339,"(18, 18, 17, 6, 18, 17)",2,mbtiauth_231
340,"(6, 17, 6, 18, 17, 6, 18)",2,mbtiauth_231
341,"(6, 18, 6, 18, 17, 6, 18)",2,mbtiauth_231
342,"(6, 18, 17, 6, 17, 6, 18)",2,mbtiauth_231
343,"(6, 18, 17, 6, 18, 6, 18)",2,mbtiauth_231
344,"(6, 18, 17, 6, 18, 17, 6)",3,mbtiauth_231
345,"(6, 18, 17, 6, 18, 17, 18)",2,mbtiauth_231
346,"(6, 18, 17, 18, 17, 6, 18)",2,mbtiauth_231
347,"(17, 6, 18, 17, 6, 18, 17)",3,mbtiauth_231
348,"(18, 6, 18, 17, 6, 18, 17)",2,mbtiauth_231
349,"(18, 17, 6, 17, 6, 18, 17)",2,mbtiauth_231
350,"(18, 17, 6, 18, 6, 18, 17)",2,mbtiauth_231
351,"(18, 17, 6, 18, 17, 6, 17)",2,mbtiauth_231
352,"(18, 17, 6, 18, 17, 6, 18)",3,mbtiauth_231
353,"(18, 17, 6, 18, 17, 18, 17)",2,mbtiauth_231
354,"(18, 17, 18, 17, 6, 18, 17)",2,mbtiauth_231
355,"(6, 18, 17, 6, 18, 17, 6, 18)",2,mbtiauth_231
356,"(18, 17, 6, 18, 17, 6, 18, 17)",2,mbtiauth_231
