,pattern,sup,author
173,"(6, 1474, 1474)",2,mbtiauth_6422
174,"(6, 1474, 10574)",2,mbtiauth_6422
175,"(6, 1474, 110699)",2,mbtiauth_6422
176,"(6, 10574, 1474)",2,mbtiauth_6422
177,"(6, 110699, 1474)",2,mbtiauth_6422
178,"(6, 110699, 10574)",2,mbtiauth_6422
179,"(48, 50, 50)",3,mbtiauth_6422
180,"(50, 19, 19)",2,mbtiauth_6422
181,"(50, 50, 19)",2,mbtiauth_6422
182,"(50, 50, 49)",2,mbtiauth_6422
183,"(50, 50, 50)",4,mbtiauth_6422
184,"(50, 50, 115)",3,mbtiauth_6422
185,"(50, 50, 2607)",2,mbtiauth_6422
186,"(50, 1154, 19)",2,mbtiauth_6422
187,"(50, 1623, 19)",2,mbtiauth_6422
188,"(50, 1623, 1154)",2,mbtiauth_6422
189,"(94, 486, 33)",2,mbtiauth_6422
190,"(200, 484, 1479)",2,mbtiauth_6422
191,"(255, 617, 617)",2,mbtiauth_6422
192,"(617, 617, 617)",3,mbtiauth_6422
193,"(1279, 1480, 50)",2,mbtiauth_6422
194,"(1474, 1474, 1474)",2,mbtiauth_6422
195,"(1474, 1474, 10574)",2,mbtiauth_6422
196,"(1474, 10574, 1474)",2,mbtiauth_6422
197,"(1474, 110699, 1474)",2,mbtiauth_6422
198,"(1474, 110699, 10574)",2,mbtiauth_6422
199,"(1623, 1154, 19)",2,mbtiauth_6422
200,"(10774, 50, 50)",2,mbtiauth_6422
201,"(110699, 1474, 1474)",2,mbtiauth_6422
202,"(110699, 1474, 10574)",2,mbtiauth_6422
203,"(110699, 10574, 1474)",2,mbtiauth_6422
204,"(6, 1474, 1474, 1474)",2,mbtiauth_6422
205,"(6, 1474, 1474, 10574)",2,mbtiauth_6422
206,"(6, 1474, 10574, 1474)",2,mbtiauth_6422
207,"(6, 1474, 110699, 1474)",2,mbtiauth_6422
208,"(6, 1474, 110699, 10574)",2,mbtiauth_6422
209,"(6, 110699, 1474, 1474)",2,mbtiauth_6422
210,"(6, 110699, 1474, 10574)",2,mbtiauth_6422
211,"(6, 110699, 10574, 1474)",2,mbtiauth_6422
212,"(50, 50, 19, 19)",2,mbtiauth_6422
213,"(50, 1623, 1154, 19)",2,mbtiauth_6422
214,"(255, 617, 617, 617)",2,mbtiauth_6422
215,"(617, 617, 617, 617)",3,mbtiauth_6422
216,"(1474, 1474, 10574, 1474)",2,mbtiauth_6422
217,"(1474, 110699, 1474, 1474)",2,mbtiauth_6422
218,"(1474, 110699, 1474, 10574)",2,mbtiauth_6422
219,"(1474, 110699, 10574, 1474)",2,mbtiauth_6422
220,"(110699, 1474, 10574, 1474)",2,mbtiauth_6422
221,"(6, 1474, 1474, 10574, 1474)",2,mbtiauth_6422
222,"(6, 1474, 110699, 1474, 1474)",2,mbtiauth_6422
223,"(6, 1474, 110699, 1474, 10574)",2,mbtiauth_6422
224,"(6, 1474, 110699, 10574, 1474)",2,mbtiauth_6422
225,"(6, 110699, 1474, 10574, 1474)",2,mbtiauth_6422
226,"(255, 617, 617, 617, 617)",2,mbtiauth_6422
227,"(617, 617, 617, 617, 617)",3,mbtiauth_6422
228,"(1474, 110699, 1474, 10574, 1474)",2,mbtiauth_6422
229,"(6, 1474, 110699, 1474, 10574, 1474)",2,mbtiauth_6422
230,"(255, 617, 617, 617, 617, 617)",2,mbtiauth_6422
231,"(617, 617, 617, 617, 617, 617)",3,mbtiauth_6422
232,"(255, 617, 617, 617, 617, 617, 617)",2,mbtiauth_6422
233,"(617, 617, 617, 617, 617, 617, 617)",3,mbtiauth_6422
234,"(255, 617, 617, 617, 617, 617, 617, 617)",2,mbtiauth_6422
235,"(617, 617, 617, 617, 617, 617, 617, 617)",3,mbtiauth_6422
236,"(617, 617, 617, 617, 617, 617, 617, 617, 617)",3,mbtiauth_6422
237,"(617, 617, 617, 617, 617, 617, 617, 617, 617, 617)",2,mbtiauth_6422
