,pattern,sup,author
186,"(5, 18, 17)",2,mbtiauth_7876
187,"(19, 19, 50)",2,mbtiauth_7876
188,"(50, 50, 50)",3,mbtiauth_7876
189,"(50, 50, 966)",2,mbtiauth_7876
190,"(50, 65, 8659)",2,mbtiauth_7876
191,"(50, 248, 50)",2,mbtiauth_7876
192,"(50, 718, 79)",2,mbtiauth_7876
193,"(50, 80446, 966)",2,mbtiauth_7876
194,"(65, 50, 65)",2,mbtiauth_7876
195,"(65, 50, 8659)",2,mbtiauth_7876
196,"(65, 65, 8659)",2,mbtiauth_7876
197,"(65, 8659, 50)",2,mbtiauth_7876
198,"(65, 8659, 65)",2,mbtiauth_7876
199,"(65, 8659, 8659)",2,mbtiauth_7876
200,"(118, 50, 50)",3,mbtiauth_7876
201,"(118, 118, 50)",2,mbtiauth_7876
202,"(142, 50, 5)",2,mbtiauth_7876
203,"(149, 248, 50)",2,mbtiauth_7876
204,"(167, 19, 50)",2,mbtiauth_7876
205,"(254, 1559, 50)",2,mbtiauth_7876
206,"(2620, 50, 50)",2,mbtiauth_7876
207,"(2620, 5638, 50)",2,mbtiauth_7876
208,"(8659, 50, 65)",2,mbtiauth_7876
209,"(8659, 50, 8659)",2,mbtiauth_7876
210,"(8659, 65, 8659)",2,mbtiauth_7876
211,"(65, 50, 65, 8659)",2,mbtiauth_7876
212,"(65, 8659, 50, 65)",2,mbtiauth_7876
213,"(65, 8659, 50, 8659)",2,mbtiauth_7876
214,"(65, 8659, 65, 8659)",2,mbtiauth_7876
215,"(118, 50, 50, 50)",2,mbtiauth_7876
216,"(118, 118, 50, 50)",2,mbtiauth_7876
217,"(8659, 50, 65, 8659)",2,mbtiauth_7876
218,"(65, 8659, 50, 65, 8659)",2,mbtiauth_7876
219,"(118, 118, 50, 50, 50)",2,mbtiauth_7876
