,pattern,sup,author
330,"(6, 18, 17)",2,mbtiauth_7316
331,"(7, 50, 50)",2,mbtiauth_7316
332,"(7, 50, 1480)",2,mbtiauth_7316
333,"(7, 50, 2385)",2,mbtiauth_7316
334,"(7, 1479, 50)",2,mbtiauth_7316
335,"(48, 2422, 50)",2,mbtiauth_7316
336,"(50, 50, 50)",12,mbtiauth_7316
337,"(50, 50, 89)",2,mbtiauth_7316
338,"(50, 50, 457)",2,mbtiauth_7316
339,"(50, 50, 2383)",2,mbtiauth_7316
340,"(50, 50, 33106)",2,mbtiauth_7316
341,"(50, 50, 39668)",2,mbtiauth_7316
342,"(50, 50, 91227)",2,mbtiauth_7316
343,"(50, 89, 50)",2,mbtiauth_7316
344,"(50, 248, 50)",3,mbtiauth_7316
345,"(50, 304, 2693)",2,mbtiauth_7316
346,"(50, 677, 50)",2,mbtiauth_7316
347,"(50, 2383, 50)",2,mbtiauth_7316
348,"(50, 4199, 50)",2,mbtiauth_7316
349,"(50, 19685, 50)",2,mbtiauth_7316
350,"(50, 19685, 33106)",2,mbtiauth_7316
351,"(50, 19685, 91227)",2,mbtiauth_7316
352,"(50, 33106, 91227)",2,mbtiauth_7316
353,"(114, 112, 50)",2,mbtiauth_7316
354,"(114, 1129, 50)",2,mbtiauth_7316
355,"(129, 50, 50)",2,mbtiauth_7316
356,"(149, 1129, 1129)",2,mbtiauth_7316
357,"(163, 1419, 462)",2,mbtiauth_7316
358,"(166, 1686, 9930)",2,mbtiauth_7316
359,"(166, 9123, 1686)",2,mbtiauth_7316
360,"(166, 9123, 9930)",2,mbtiauth_7316
361,"(166, 9123, 38892)",2,mbtiauth_7316
362,"(166, 38892, 1686)",2,mbtiauth_7316
363,"(166, 38892, 9930)",2,mbtiauth_7316
364,"(248, 50, 50)",4,mbtiauth_7316
365,"(248, 1129, 50)",2,mbtiauth_7316
366,"(335, 50, 304)",2,mbtiauth_7316
367,"(335, 50, 2693)",2,mbtiauth_7316
368,"(335, 304, 2693)",2,mbtiauth_7316
369,"(335, 2173, 304)",2,mbtiauth_7316
370,"(335, 2173, 2693)",2,mbtiauth_7316
371,"(335, 4446, 304)",2,mbtiauth_7316
372,"(335, 4446, 2173)",2,mbtiauth_7316
373,"(335, 4446, 2693)",2,mbtiauth_7316
374,"(366, 457, 50)",2,mbtiauth_7316
375,"(873, 50, 128)",2,mbtiauth_7316
376,"(1129, 1129, 50)",2,mbtiauth_7316
377,"(1303, 248, 2173)",2,mbtiauth_7316
378,"(1427, 50, 50)",2,mbtiauth_7316
379,"(1479, 50, 1480)",2,mbtiauth_7316
380,"(1479, 50, 2385)",2,mbtiauth_7316
381,"(1686, 50, 50)",2,mbtiauth_7316
382,"(1686, 50, 19685)",2,mbtiauth_7316
383,"(1686, 50, 33106)",2,mbtiauth_7316
384,"(1686, 50, 91227)",2,mbtiauth_7316
385,"(1686, 9930, 50)",2,mbtiauth_7316
386,"(1686, 9930, 19685)",2,mbtiauth_7316
387,"(1686, 9930, 33106)",2,mbtiauth_7316
388,"(1686, 9930, 55643)",2,mbtiauth_7316
389,"(1686, 9930, 91227)",2,mbtiauth_7316
390,"(1686, 19685, 50)",2,mbtiauth_7316
391,"(1686, 19685, 33106)",2,mbtiauth_7316
392,"(1686, 19685, 91227)",2,mbtiauth_7316
393,"(1686, 33106, 91227)",2,mbtiauth_7316
394,"(1686, 55643, 50)",2,mbtiauth_7316
395,"(1686, 55643, 19685)",2,mbtiauth_7316
396,"(1686, 55643, 33106)",2,mbtiauth_7316
397,"(1686, 55643, 91227)",2,mbtiauth_7316
398,"(2173, 304, 2693)",2,mbtiauth_7316
399,"(2385, 50, 50)",2,mbtiauth_7316
400,"(2422, 50, 50)",2,mbtiauth_7316
401,"(4446, 304, 2693)",2,mbtiauth_7316
402,"(4446, 2173, 304)",2,mbtiauth_7316
403,"(4446, 2173, 2693)",2,mbtiauth_7316
404,"(9122, 166, 1686)",2,mbtiauth_7316
405,"(9122, 166, 9123)",2,mbtiauth_7316
406,"(9122, 166, 38892)",2,mbtiauth_7316
407,"(9122, 9123, 1686)",2,mbtiauth_7316
408,"(9122, 9123, 38892)",2,mbtiauth_7316
409,"(9122, 38892, 1686)",2,mbtiauth_7316
410,"(9123, 166, 9123)",2,mbtiauth_7316
411,"(9123, 166, 38892)",2,mbtiauth_7316
412,"(9123, 1686, 9930)",2,mbtiauth_7316
413,"(9123, 9122, 166)",2,mbtiauth_7316
414,"(9123, 9122, 9123)",2,mbtiauth_7316
415,"(9123, 9122, 38892)",2,mbtiauth_7316
416,"(9123, 9123, 38892)",2,mbtiauth_7316
417,"(9123, 38892, 1686)",2,mbtiauth_7316
418,"(9123, 38892, 9930)",2,mbtiauth_7316
419,"(9930, 50, 50)",2,mbtiauth_7316
420,"(9930, 50, 19685)",2,mbtiauth_7316
421,"(9930, 50, 33106)",2,mbtiauth_7316
422,"(9930, 50, 91227)",2,mbtiauth_7316
423,"(9930, 19685, 50)",2,mbtiauth_7316
424,"(9930, 19685, 33106)",2,mbtiauth_7316
425,"(9930, 19685, 91227)",2,mbtiauth_7316
426,"(9930, 33106, 91227)",2,mbtiauth_7316
427,"(9930, 55643, 50)",2,mbtiauth_7316
428,"(9930, 55643, 19685)",2,mbtiauth_7316
429,"(9930, 55643, 33106)",2,mbtiauth_7316
430,"(9930, 55643, 91227)",2,mbtiauth_7316
431,"(19685, 50, 33106)",2,mbtiauth_7316
432,"(19685, 50, 91227)",2,mbtiauth_7316
433,"(19685, 33106, 91227)",2,mbtiauth_7316
434,"(38892, 1686, 9930)",2,mbtiauth_7316
435,"(55643, 50, 50)",2,mbtiauth_7316
436,"(55643, 50, 19685)",2,mbtiauth_7316
437,"(55643, 50, 33106)",2,mbtiauth_7316
438,"(55643, 50, 91227)",2,mbtiauth_7316
439,"(55643, 19685, 50)",2,mbtiauth_7316
440,"(55643, 19685, 33106)",2,mbtiauth_7316
441,"(55643, 19685, 91227)",2,mbtiauth_7316
442,"(55643, 33106, 91227)",2,mbtiauth_7316
443,"(7, 50, 50, 50)",2,mbtiauth_7316
444,"(50, 50, 50, 50)",5,mbtiauth_7316
445,"(50, 50, 50, 2383)",2,mbtiauth_7316
446,"(50, 50, 2383, 50)",2,mbtiauth_7316
447,"(50, 50, 33106, 91227)",2,mbtiauth_7316
448,"(50, 248, 50, 50)",2,mbtiauth_7316
449,"(50, 19685, 50, 33106)",2,mbtiauth_7316
450,"(50, 19685, 50, 91227)",2,mbtiauth_7316
451,"(50, 19685, 33106, 91227)",2,mbtiauth_7316
452,"(166, 9123, 1686, 9930)",2,mbtiauth_7316
453,"(166, 9123, 38892, 1686)",2,mbtiauth_7316
454,"(166, 9123, 38892, 9930)",2,mbtiauth_7316
455,"(166, 38892, 1686, 9930)",2,mbtiauth_7316
456,"(335, 50, 304, 2693)",2,mbtiauth_7316
457,"(335, 2173, 304, 2693)",2,mbtiauth_7316
458,"(335, 4446, 304, 2693)",2,mbtiauth_7316
459,"(335, 4446, 2173, 304)",2,mbtiauth_7316
460,"(335, 4446, 2173, 2693)",2,mbtiauth_7316
461,"(1686, 50, 50, 33106)",2,mbtiauth_7316
462,"(1686, 50, 50, 91227)",2,mbtiauth_7316
463,"(1686, 50, 19685, 50)",2,mbtiauth_7316
464,"(1686, 50, 19685, 33106)",2,mbtiauth_7316
465,"(1686, 50, 19685, 91227)",2,mbtiauth_7316
466,"(1686, 50, 33106, 91227)",2,mbtiauth_7316
467,"(1686, 9930, 50, 50)",2,mbtiauth_7316
468,"(1686, 9930, 50, 19685)",2,mbtiauth_7316
469,"(1686, 9930, 50, 33106)",2,mbtiauth_7316
470,"(1686, 9930, 50, 91227)",2,mbtiauth_7316
471,"(1686, 9930, 19685, 50)",2,mbtiauth_7316
472,"(1686, 9930, 19685, 33106)",2,mbtiauth_7316
473,"(1686, 9930, 19685, 91227)",2,mbtiauth_7316
474,"(1686, 9930, 33106, 91227)",2,mbtiauth_7316
475,"(1686, 9930, 55643, 50)",2,mbtiauth_7316
476,"(1686, 9930, 55643, 19685)",2,mbtiauth_7316
477,"(1686, 9930, 55643, 33106)",2,mbtiauth_7316
478,"(1686, 9930, 55643, 91227)",2,mbtiauth_7316
479,"(1686, 19685, 50, 33106)",2,mbtiauth_7316
480,"(1686, 19685, 50, 91227)",2,mbtiauth_7316
481,"(1686, 19685, 33106, 91227)",2,mbtiauth_7316
482,"(1686, 55643, 50, 50)",2,mbtiauth_7316
483,"(1686, 55643, 50, 19685)",2,mbtiauth_7316
484,"(1686, 55643, 50, 33106)",2,mbtiauth_7316
485,"(1686, 55643, 50, 91227)",2,mbtiauth_7316
486,"(1686, 55643, 19685, 50)",2,mbtiauth_7316
487,"(1686, 55643, 19685, 33106)",2,mbtiauth_7316
488,"(1686, 55643, 19685, 91227)",2,mbtiauth_7316
489,"(1686, 55643, 33106, 91227)",2,mbtiauth_7316
490,"(4446, 2173, 304, 2693)",2,mbtiauth_7316
491,"(9122, 166, 9123, 1686)",2,mbtiauth_7316
492,"(9122, 166, 9123, 38892)",2,mbtiauth_7316
493,"(9122, 166, 38892, 1686)",2,mbtiauth_7316
494,"(9122, 9123, 38892, 1686)",2,mbtiauth_7316
495,"(9123, 166, 9123, 38892)",2,mbtiauth_7316
496,"(9123, 9122, 166, 9123)",2,mbtiauth_7316
497,"(9123, 9122, 166, 38892)",2,mbtiauth_7316
498,"(9123, 9122, 9123, 38892)",2,mbtiauth_7316
499,"(9123, 38892, 1686, 9930)",2,mbtiauth_7316
500,"(9930, 50, 50, 33106)",2,mbtiauth_7316
501,"(9930, 50, 50, 91227)",2,mbtiauth_7316
502,"(9930, 50, 19685, 50)",2,mbtiauth_7316
503,"(9930, 50, 19685, 33106)",2,mbtiauth_7316
504,"(9930, 50, 19685, 91227)",2,mbtiauth_7316
505,"(9930, 50, 33106, 91227)",2,mbtiauth_7316
506,"(9930, 19685, 50, 33106)",2,mbtiauth_7316
507,"(9930, 19685, 50, 91227)",2,mbtiauth_7316
508,"(9930, 19685, 33106, 91227)",2,mbtiauth_7316
509,"(9930, 55643, 50, 50)",2,mbtiauth_7316
510,"(9930, 55643, 50, 19685)",2,mbtiauth_7316
511,"(9930, 55643, 50, 33106)",2,mbtiauth_7316
512,"(9930, 55643, 50, 91227)",2,mbtiauth_7316
513,"(9930, 55643, 19685, 50)",2,mbtiauth_7316
514,"(9930, 55643, 19685, 33106)",2,mbtiauth_7316
515,"(9930, 55643, 19685, 91227)",2,mbtiauth_7316
516,"(9930, 55643, 33106, 91227)",2,mbtiauth_7316
517,"(19685, 50, 33106, 91227)",2,mbtiauth_7316
518,"(55643, 50, 50, 33106)",2,mbtiauth_7316
519,"(55643, 50, 50, 91227)",2,mbtiauth_7316
520,"(55643, 50, 19685, 50)",2,mbtiauth_7316
521,"(55643, 50, 19685, 33106)",2,mbtiauth_7316
522,"(55643, 50, 19685, 91227)",2,mbtiauth_7316
523,"(55643, 50, 33106, 91227)",2,mbtiauth_7316
524,"(55643, 19685, 50, 33106)",2,mbtiauth_7316
525,"(55643, 19685, 50, 91227)",2,mbtiauth_7316
526,"(55643, 19685, 33106, 91227)",2,mbtiauth_7316
527,"(50, 50, 50, 50, 50)",2,mbtiauth_7316
528,"(50, 50, 50, 2383, 50)",2,mbtiauth_7316
529,"(50, 19685, 50, 33106, 91227)",2,mbtiauth_7316
530,"(166, 9123, 38892, 1686, 9930)",2,mbtiauth_7316
531,"(335, 4446, 2173, 304, 2693)",2,mbtiauth_7316
532,"(1686, 50, 50, 33106, 91227)",2,mbtiauth_7316
533,"(1686, 50, 19685, 50, 33106)",2,mbtiauth_7316
534,"(1686, 50, 19685, 50, 91227)",2,mbtiauth_7316
535,"(1686, 50, 19685, 33106, 91227)",2,mbtiauth_7316
536,"(1686, 9930, 50, 50, 33106)",2,mbtiauth_7316
537,"(1686, 9930, 50, 50, 91227)",2,mbtiauth_7316
538,"(1686, 9930, 50, 19685, 50)",2,mbtiauth_7316
539,"(1686, 9930, 50, 19685, 33106)",2,mbtiauth_7316
540,"(1686, 9930, 50, 19685, 91227)",2,mbtiauth_7316
541,"(1686, 9930, 50, 33106, 91227)",2,mbtiauth_7316
542,"(1686, 9930, 19685, 50, 33106)",2,mbtiauth_7316
543,"(1686, 9930, 19685, 50, 91227)",2,mbtiauth_7316
544,"(1686, 9930, 19685, 33106, 91227)",2,mbtiauth_7316
545,"(1686, 9930, 55643, 50, 50)",2,mbtiauth_7316
546,"(1686, 9930, 55643, 50, 19685)",2,mbtiauth_7316
547,"(1686, 9930, 55643, 50, 33106)",2,mbtiauth_7316
548,"(1686, 9930, 55643, 50, 91227)",2,mbtiauth_7316
549,"(1686, 9930, 55643, 19685, 50)",2,mbtiauth_7316
550,"(1686, 9930, 55643, 19685, 33106)",2,mbtiauth_7316
551,"(1686, 9930, 55643, 19685, 91227)",2,mbtiauth_7316
552,"(1686, 9930, 55643, 33106, 91227)",2,mbtiauth_7316
553,"(1686, 19685, 50, 33106, 91227)",2,mbtiauth_7316
554,"(1686, 55643, 50, 50, 33106)",2,mbtiauth_7316
555,"(1686, 55643, 50, 50, 91227)",2,mbtiauth_7316
556,"(1686, 55643, 50, 19685, 50)",2,mbtiauth_7316
557,"(1686, 55643, 50, 19685, 33106)",2,mbtiauth_7316
558,"(1686, 55643, 50, 19685, 91227)",2,mbtiauth_7316
559,"(1686, 55643, 50, 33106, 91227)",2,mbtiauth_7316
560,"(1686, 55643, 19685, 50, 33106)",2,mbtiauth_7316
561,"(1686, 55643, 19685, 50, 91227)",2,mbtiauth_7316
562,"(1686, 55643, 19685, 33106, 91227)",2,mbtiauth_7316
563,"(9122, 166, 9123, 38892, 1686)",2,mbtiauth_7316
564,"(9123, 9122, 166, 9123, 38892)",2,mbtiauth_7316
565,"(9930, 50, 50, 33106, 91227)",2,mbtiauth_7316
566,"(9930, 50, 19685, 50, 33106)",2,mbtiauth_7316
567,"(9930, 50, 19685, 50, 91227)",2,mbtiauth_7316
568,"(9930, 50, 19685, 33106, 91227)",2,mbtiauth_7316
569,"(9930, 19685, 50, 33106, 91227)",2,mbtiauth_7316
570,"(9930, 55643, 50, 50, 33106)",2,mbtiauth_7316
571,"(9930, 55643, 50, 50, 91227)",2,mbtiauth_7316
572,"(9930, 55643, 50, 19685, 50)",2,mbtiauth_7316
573,"(9930, 55643, 50, 19685, 33106)",2,mbtiauth_7316
574,"(9930, 55643, 50, 19685, 91227)",2,mbtiauth_7316
575,"(9930, 55643, 50, 33106, 91227)",2,mbtiauth_7316
576,"(9930, 55643, 19685, 50, 33106)",2,mbtiauth_7316
577,"(9930, 55643, 19685, 50, 91227)",2,mbtiauth_7316
578,"(9930, 55643, 19685, 33106, 91227)",2,mbtiauth_7316
579,"(55643, 50, 50, 33106, 91227)",2,mbtiauth_7316
580,"(55643, 50, 19685, 50, 33106)",2,mbtiauth_7316
581,"(55643, 50, 19685, 50, 91227)",2,mbtiauth_7316
582,"(55643, 50, 19685, 33106, 91227)",2,mbtiauth_7316
583,"(55643, 19685, 50, 33106, 91227)",2,mbtiauth_7316
584,"(1686, 50, 19685, 50, 33106, 91227)",2,mbtiauth_7316
585,"(1686, 9930, 50, 50, 33106, 91227)",2,mbtiauth_7316
586,"(1686, 9930, 50, 19685, 50, 33106)",2,mbtiauth_7316
587,"(1686, 9930, 50, 19685, 50, 91227)",2,mbtiauth_7316
588,"(1686, 9930, 50, 19685, 33106, 91227)",2,mbtiauth_7316
589,"(1686, 9930, 19685, 50, 33106, 91227)",2,mbtiauth_7316
590,"(1686, 9930, 55643, 50, 50, 33106)",2,mbtiauth_7316
591,"(1686, 9930, 55643, 50, 50, 91227)",2,mbtiauth_7316
592,"(1686, 9930, 55643, 50, 19685, 50)",2,mbtiauth_7316
593,"(1686, 9930, 55643, 50, 19685, 33106)",2,mbtiauth_7316
594,"(1686, 9930, 55643, 50, 19685, 91227)",2,mbtiauth_7316
595,"(1686, 9930, 55643, 50, 33106, 91227)",2,mbtiauth_7316
596,"(1686, 9930, 55643, 19685, 50, 33106)",2,mbtiauth_7316
597,"(1686, 9930, 55643, 19685, 50, 91227)",2,mbtiauth_7316
598,"(1686, 9930, 55643, 19685, 33106, 91227)",2,mbtiauth_7316
599,"(1686, 55643, 50, 50, 33106, 91227)",2,mbtiauth_7316
600,"(1686, 55643, 50, 19685, 50, 33106)",2,mbtiauth_7316
601,"(1686, 55643, 50, 19685, 50, 91227)",2,mbtiauth_7316
602,"(1686, 55643, 50, 19685, 33106, 91227)",2,mbtiauth_7316
603,"(1686, 55643, 19685, 50, 33106, 91227)",2,mbtiauth_7316
604,"(9930, 50, 19685, 50, 33106, 91227)",2,mbtiauth_7316
605,"(9930, 55643, 50, 50, 33106, 91227)",2,mbtiauth_7316
606,"(9930, 55643, 50, 19685, 50, 33106)",2,mbtiauth_7316
607,"(9930, 55643, 50, 19685, 50, 91227)",2,mbtiauth_7316
608,"(9930, 55643, 50, 19685, 33106, 91227)",2,mbtiauth_7316
609,"(9930, 55643, 19685, 50, 33106, 91227)",2,mbtiauth_7316
610,"(55643, 50, 19685, 50, 33106, 91227)",2,mbtiauth_7316
611,"(1686, 9930, 50, 19685, 50, 33106, 91227)",2,mbtiauth_7316
612,"(1686, 9930, 55643, 50, 50, 33106, 91227)",2,mbtiauth_7316
613,"(1686, 9930, 55643, 50, 19685, 50, 33106)",2,mbtiauth_7316
614,"(1686, 9930, 55643, 50, 19685, 50, 91227)",2,mbtiauth_7316
615,"(1686, 9930, 55643, 50, 19685, 33106, 91227)",2,mbtiauth_7316
616,"(1686, 9930, 55643, 19685, 50, 33106, 91227)",2,mbtiauth_7316
617,"(1686, 55643, 50, 19685, 50, 33106, 91227)",2,mbtiauth_7316
618,"(9930, 55643, 50, 19685, 50, 33106, 91227)",2,mbtiauth_7316
619,"(1686, 9930, 55643, 50, 19685, 50, 33106, 91227)",2,mbtiauth_7316
