,pattern,sup,author
262,"(6, 18, 17)",2,mbtiauth_7308
263,"(48, 48, 48)",2,mbtiauth_7308
264,"(48, 50, 50)",3,mbtiauth_7308
265,"(48, 254, 50)",2,mbtiauth_7308
266,"(48, 472, 50)",2,mbtiauth_7308
267,"(50, 48, 50)",3,mbtiauth_7308
268,"(50, 48, 254)",2,mbtiauth_7308
269,"(50, 48, 434)",2,mbtiauth_7308
270,"(50, 48, 472)",2,mbtiauth_7308
271,"(50, 50, 50)",6,mbtiauth_7308
272,"(50, 50, 149)",2,mbtiauth_7308
273,"(50, 50, 254)",2,mbtiauth_7308
274,"(50, 50, 640)",2,mbtiauth_7308
275,"(50, 50, 1335)",2,mbtiauth_7308
276,"(50, 50, 1559)",2,mbtiauth_7308
277,"(50, 138, 50)",2,mbtiauth_7308
278,"(50, 149, 50)",2,mbtiauth_7308
279,"(50, 149, 640)",2,mbtiauth_7308
280,"(50, 149, 1335)",2,mbtiauth_7308
281,"(50, 235, 138)",2,mbtiauth_7308
282,"(50, 254, 50)",3,mbtiauth_7308
283,"(50, 384, 1819)",2,mbtiauth_7308
284,"(50, 472, 50)",2,mbtiauth_7308
285,"(114, 50, 48)",2,mbtiauth_7308
286,"(114, 50, 50)",2,mbtiauth_7308
287,"(149, 50, 50)",2,mbtiauth_7308
288,"(149, 50, 1335)",2,mbtiauth_7308
289,"(254, 50, 48)",3,mbtiauth_7308
290,"(254, 50, 50)",2,mbtiauth_7308
291,"(254, 50, 439)",2,mbtiauth_7308
292,"(254, 65, 50)",2,mbtiauth_7308
293,"(254, 472, 50)",2,mbtiauth_7308
294,"(254, 495, 50)",2,mbtiauth_7308
295,"(254, 906, 233)",2,mbtiauth_7308
296,"(254, 1102, 50)",2,mbtiauth_7308
297,"(304, 50, 50)",2,mbtiauth_7308
298,"(836, 304, 50)",2,mbtiauth_7308
299,"(1014, 149, 50)",2,mbtiauth_7308
300,"(1194, 254, 906)",2,mbtiauth_7308
301,"(1707, 1654, 4)",2,mbtiauth_7308
302,"(50, 48, 50, 50)",3,mbtiauth_7308
303,"(50, 48, 254, 50)",2,mbtiauth_7308
304,"(50, 48, 472, 50)",2,mbtiauth_7308
305,"(50, 50, 50, 50)",3,mbtiauth_7308
306,"(50, 50, 50, 640)",2,mbtiauth_7308
307,"(50, 50, 50, 1335)",2,mbtiauth_7308
308,"(50, 50, 149, 50)",2,mbtiauth_7308
309,"(50, 50, 149, 1335)",2,mbtiauth_7308
310,"(50, 149, 50, 50)",2,mbtiauth_7308
311,"(50, 149, 50, 1335)",2,mbtiauth_7308
312,"(50, 50, 149, 50, 1335)",2,mbtiauth_7308
