,pattern,sup,author
286,"(19, 19, 254)",3,mbtiauth_7808
287,"(19, 254, 19)",3,mbtiauth_7808
288,"(19, 254, 254)",2,mbtiauth_7808
289,"(29, 927, 50)",2,mbtiauth_7808
290,"(48, 48, 50)",2,mbtiauth_7808
291,"(48, 50, 48)",3,mbtiauth_7808
292,"(48, 50, 50)",4,mbtiauth_7808
293,"(48, 50, 1326)",2,mbtiauth_7808
294,"(48, 138, 50)",2,mbtiauth_7808
295,"(50, 29, 50)",2,mbtiauth_7808
296,"(50, 29, 927)",2,mbtiauth_7808
297,"(50, 48, 48)",2,mbtiauth_7808
298,"(50, 48, 50)",6,mbtiauth_7808
299,"(50, 48, 254)",2,mbtiauth_7808
300,"(50, 48, 1326)",2,mbtiauth_7808
301,"(50, 50, 48)",3,mbtiauth_7808
302,"(50, 50, 50)",4,mbtiauth_7808
303,"(50, 50, 254)",2,mbtiauth_7808
304,"(50, 50, 1005)",2,mbtiauth_7808
305,"(50, 138, 50)",2,mbtiauth_7808
306,"(50, 254, 50)",2,mbtiauth_7808
307,"(50, 1326, 50)",2,mbtiauth_7808
308,"(50, 3453, 50)",2,mbtiauth_7808
309,"(50, 5820, 2483)",2,mbtiauth_7808
310,"(94, 48, 50)",2,mbtiauth_7808
311,"(94, 50, 48)",2,mbtiauth_7808
312,"(94, 50, 50)",2,mbtiauth_7808
313,"(108, 50, 254)",2,mbtiauth_7808
314,"(113, 50, 254)",2,mbtiauth_7808
315,"(113, 893, 50)",2,mbtiauth_7808
316,"(113, 893, 254)",2,mbtiauth_7808
317,"(114, 29, 50)",2,mbtiauth_7808
318,"(114, 50, 50)",2,mbtiauth_7808
319,"(118, 29, 50)",2,mbtiauth_7808
320,"(149, 254, 50)",2,mbtiauth_7808
321,"(254, 3, 50)",2,mbtiauth_7808
322,"(254, 19, 19)",3,mbtiauth_7808
323,"(254, 19, 254)",2,mbtiauth_7808
324,"(254, 38, 9)",2,mbtiauth_7808
325,"(254, 50, 48)",2,mbtiauth_7808
326,"(254, 50, 50)",2,mbtiauth_7808
327,"(254, 50, 254)",4,mbtiauth_7808
328,"(254, 50, 307)",2,mbtiauth_7808
329,"(254, 50, 708)",2,mbtiauth_7808
330,"(254, 50, 935)",2,mbtiauth_7808
331,"(254, 50, 2483)",2,mbtiauth_7808
332,"(254, 50, 5820)",2,mbtiauth_7808
333,"(254, 254, 19)",2,mbtiauth_7808
334,"(254, 255, 50)",2,mbtiauth_7808
335,"(254, 255, 339)",2,mbtiauth_7808
336,"(254, 456, 50)",2,mbtiauth_7808
337,"(254, 456, 1899)",2,mbtiauth_7808
338,"(254, 471, 1034)",2,mbtiauth_7808
339,"(254, 583, 9)",2,mbtiauth_7808
340,"(254, 583, 38)",2,mbtiauth_7808
341,"(254, 935, 9)",2,mbtiauth_7808
342,"(254, 935, 38)",2,mbtiauth_7808
343,"(254, 995, 9)",2,mbtiauth_7808
344,"(254, 995, 38)",2,mbtiauth_7808
345,"(254, 995, 935)",2,mbtiauth_7808
346,"(254, 1899, 50)",2,mbtiauth_7808
347,"(254, 2296, 50)",2,mbtiauth_7808
348,"(254, 2296, 255)",2,mbtiauth_7808
349,"(254, 2296, 339)",2,mbtiauth_7808
350,"(254, 2935, 50)",2,mbtiauth_7808
351,"(254, 3801, 50)",3,mbtiauth_7808
352,"(254, 5818, 5819)",2,mbtiauth_7808
353,"(254, 5820, 2483)",2,mbtiauth_7808
354,"(374, 893, 50)",2,mbtiauth_7808
355,"(389, 50, 254)",2,mbtiauth_7808
356,"(456, 1899, 50)",2,mbtiauth_7808
357,"(583, 38, 9)",2,mbtiauth_7808
358,"(625, 50, 50)",2,mbtiauth_7808
359,"(893, 50, 254)",2,mbtiauth_7808
360,"(935, 38, 9)",2,mbtiauth_7808
361,"(995, 38, 9)",2,mbtiauth_7808
362,"(995, 935, 9)",2,mbtiauth_7808
363,"(995, 935, 38)",2,mbtiauth_7808
364,"(2296, 255, 50)",2,mbtiauth_7808
365,"(2296, 255, 339)",2,mbtiauth_7808
366,"(2498, 50, 4277)",2,mbtiauth_7808
367,"(19, 254, 19, 254)",2,mbtiauth_7808
368,"(50, 50, 50, 48)",2,mbtiauth_7808
369,"(94, 50, 48, 50)",2,mbtiauth_7808
370,"(113, 893, 50, 254)",2,mbtiauth_7808
371,"(254, 19, 254, 19)",2,mbtiauth_7808
372,"(254, 50, 5820, 2483)",2,mbtiauth_7808
373,"(254, 456, 1899, 50)",2,mbtiauth_7808
374,"(254, 583, 38, 9)",2,mbtiauth_7808
375,"(254, 935, 38, 9)",2,mbtiauth_7808
376,"(254, 995, 38, 9)",2,mbtiauth_7808
377,"(254, 995, 935, 9)",2,mbtiauth_7808
378,"(254, 995, 935, 38)",2,mbtiauth_7808
379,"(254, 2296, 255, 50)",2,mbtiauth_7808
380,"(254, 2296, 255, 339)",2,mbtiauth_7808
381,"(995, 935, 38, 9)",2,mbtiauth_7808
382,"(254, 995, 935, 38, 9)",2,mbtiauth_7808
