,pattern,sup,author
159,"(30, 50, 151)",2,mbtiauth_1459
160,"(30, 151, 85)",2,mbtiauth_1459
161,"(48, 50, 248)",2,mbtiauth_1459
162,"(248, 818, 477)",2,mbtiauth_1459
163,"(507, 89, 637)",2,mbtiauth_1459
164,"(507, 444, 50)",2,mbtiauth_1459
165,"(1029, 50, 1322)",2,mbtiauth_1459
166,"(12663, 7275, 434)",2,mbtiauth_1459
