,pattern,sup,author
210,"(50, 50, 19)",2,mbtiauth_4095
211,"(50, 50, 33)",2,mbtiauth_4095
212,"(50, 50, 50)",9,mbtiauth_4095
213,"(50, 50, 233)",2,mbtiauth_4095
214,"(50, 50, 557)",2,mbtiauth_4095
215,"(50, 50, 637)",2,mbtiauth_4095
216,"(50, 50, 3098)",2,mbtiauth_4095
217,"(50, 138, 50)",2,mbtiauth_4095
218,"(50, 138, 138)",2,mbtiauth_4095
219,"(50, 1803, 50)",3,mbtiauth_4095
220,"(233, 50, 48)",2,mbtiauth_4095
221,"(233, 50, 50)",2,mbtiauth_4095
222,"(233, 50, 637)",2,mbtiauth_4095
223,"(254, 50, 50)",2,mbtiauth_4095
224,"(254, 248, 138)",2,mbtiauth_4095
225,"(301, 50, 50)",2,mbtiauth_4095
226,"(380, 1062, 50)",2,mbtiauth_4095
227,"(444, 50, 444)",2,mbtiauth_4095
228,"(444, 304, 1831)",2,mbtiauth_4095
229,"(444, 640, 304)",2,mbtiauth_4095
230,"(444, 640, 1831)",2,mbtiauth_4095
231,"(640, 50, 50)",2,mbtiauth_4095
232,"(640, 304, 1831)",2,mbtiauth_4095
233,"(10970, 2607, 2346)",2,mbtiauth_4095
234,"(50, 50, 50, 19)",2,mbtiauth_4095
235,"(50, 50, 50, 50)",2,mbtiauth_4095
236,"(444, 640, 304, 1831)",2,mbtiauth_4095
