,pattern,sup,author
194,"(5, 5, 5)",2,mbtiauth_8554
195,"(5, 5, 13118)",2,mbtiauth_8554
196,"(5, 5, 72495)",3,mbtiauth_8554
197,"(5, 5, 72496)",3,mbtiauth_8554
198,"(5, 5, 72497)",3,mbtiauth_8554
199,"(5, 5, 72498)",3,mbtiauth_8554
200,"(5, 13118, 5)",2,mbtiauth_8554
201,"(5, 72495, 5)",2,mbtiauth_8554
202,"(5, 72495, 13118)",2,mbtiauth_8554
203,"(5, 72495, 72496)",3,mbtiauth_8554
204,"(5, 72496, 5)",2,mbtiauth_8554
205,"(5, 72496, 13118)",2,mbtiauth_8554
206,"(5, 72497, 5)",2,mbtiauth_8554
207,"(5, 72497, 13118)",2,mbtiauth_8554
208,"(5, 72497, 72495)",3,mbtiauth_8554
209,"(5, 72497, 72496)",3,mbtiauth_8554
210,"(5, 72498, 5)",2,mbtiauth_8554
211,"(5, 72498, 13118)",2,mbtiauth_8554
212,"(5, 72498, 72495)",3,mbtiauth_8554
213,"(5, 72498, 72496)",3,mbtiauth_8554
214,"(5, 72498, 72497)",3,mbtiauth_8554
215,"(48, 210, 1133)",2,mbtiauth_8554
216,"(48, 231, 210)",2,mbtiauth_8554
217,"(48, 231, 1133)",2,mbtiauth_8554
218,"(48, 457, 210)",2,mbtiauth_8554
219,"(48, 457, 231)",2,mbtiauth_8554
220,"(48, 457, 459)",2,mbtiauth_8554
221,"(48, 457, 1133)",2,mbtiauth_8554
222,"(48, 459, 210)",2,mbtiauth_8554
223,"(48, 459, 231)",2,mbtiauth_8554
224,"(48, 459, 1133)",2,mbtiauth_8554
225,"(231, 210, 1133)",2,mbtiauth_8554
226,"(457, 210, 1133)",2,mbtiauth_8554
227,"(457, 231, 210)",2,mbtiauth_8554
228,"(457, 231, 1133)",2,mbtiauth_8554
229,"(457, 459, 210)",2,mbtiauth_8554
230,"(457, 459, 231)",2,mbtiauth_8554
231,"(457, 459, 1133)",2,mbtiauth_8554
232,"(459, 210, 1133)",2,mbtiauth_8554
233,"(459, 231, 210)",2,mbtiauth_8554
234,"(459, 231, 1133)",2,mbtiauth_8554
235,"(627, 118, 12202)",2,mbtiauth_8554
236,"(739, 8190, 2812)",2,mbtiauth_8554
237,"(739, 15310, 63625)",2,mbtiauth_8554
238,"(1266, 739, 2812)",2,mbtiauth_8554
239,"(1266, 739, 8190)",2,mbtiauth_8554
240,"(1266, 739, 11351)",2,mbtiauth_8554
241,"(1266, 739, 15310)",2,mbtiauth_8554
242,"(1266, 739, 63625)",2,mbtiauth_8554
243,"(1266, 8190, 2812)",2,mbtiauth_8554
244,"(1266, 15310, 63625)",2,mbtiauth_8554
245,"(3991, 739, 2812)",2,mbtiauth_8554
246,"(3991, 739, 8190)",2,mbtiauth_8554
247,"(3991, 739, 15310)",2,mbtiauth_8554
248,"(3991, 739, 63625)",2,mbtiauth_8554
249,"(3991, 1266, 739)",2,mbtiauth_8554
250,"(3991, 1266, 2812)",2,mbtiauth_8554
251,"(3991, 1266, 8190)",2,mbtiauth_8554
252,"(3991, 1266, 15310)",2,mbtiauth_8554
253,"(3991, 1266, 63625)",2,mbtiauth_8554
254,"(3991, 8190, 2812)",2,mbtiauth_8554
255,"(3991, 15310, 63625)",2,mbtiauth_8554
256,"(8190, 2812, 15110)",2,mbtiauth_8554
257,"(8902, 739, 15310)",2,mbtiauth_8554
258,"(8902, 739, 63625)",2,mbtiauth_8554
259,"(8902, 1266, 739)",2,mbtiauth_8554
260,"(8902, 1266, 15310)",2,mbtiauth_8554
261,"(8902, 1266, 63625)",2,mbtiauth_8554
262,"(8902, 3991, 739)",2,mbtiauth_8554
263,"(8902, 3991, 1266)",2,mbtiauth_8554
264,"(8902, 3991, 15310)",2,mbtiauth_8554
265,"(8902, 3991, 63625)",2,mbtiauth_8554
266,"(8902, 13217, 739)",2,mbtiauth_8554
267,"(8902, 13217, 1266)",2,mbtiauth_8554
268,"(8902, 13217, 3991)",2,mbtiauth_8554
269,"(8902, 13217, 15310)",2,mbtiauth_8554
270,"(8902, 13217, 63625)",2,mbtiauth_8554
271,"(8902, 15310, 63625)",2,mbtiauth_8554
272,"(13118, 5, 5)",2,mbtiauth_8554
273,"(13118, 5, 72495)",2,mbtiauth_8554
274,"(13118, 5, 72496)",2,mbtiauth_8554
275,"(13118, 5, 72497)",2,mbtiauth_8554
276,"(13118, 5, 72498)",2,mbtiauth_8554
277,"(13118, 72495, 72496)",2,mbtiauth_8554
278,"(13118, 72497, 72495)",2,mbtiauth_8554
279,"(13118, 72497, 72496)",2,mbtiauth_8554
280,"(13118, 72498, 72495)",2,mbtiauth_8554
281,"(13118, 72498, 72496)",2,mbtiauth_8554
282,"(13118, 72498, 72497)",2,mbtiauth_8554
283,"(13217, 739, 8190)",2,mbtiauth_8554
284,"(13217, 739, 15310)",2,mbtiauth_8554
285,"(13217, 739, 63625)",2,mbtiauth_8554
286,"(13217, 1266, 739)",2,mbtiauth_8554
287,"(13217, 1266, 8190)",2,mbtiauth_8554
288,"(13217, 1266, 15310)",2,mbtiauth_8554
289,"(13217, 1266, 63625)",2,mbtiauth_8554
290,"(13217, 3991, 739)",2,mbtiauth_8554
291,"(13217, 3991, 1266)",2,mbtiauth_8554
292,"(13217, 3991, 8190)",2,mbtiauth_8554
293,"(13217, 3991, 15310)",2,mbtiauth_8554
294,"(13217, 3991, 63625)",2,mbtiauth_8554
295,"(13217, 15310, 63625)",2,mbtiauth_8554
296,"(15310, 63625, 15110)",2,mbtiauth_8554
297,"(72495, 5, 5)",2,mbtiauth_8554
298,"(72495, 5, 72497)",2,mbtiauth_8554
299,"(72495, 5, 72498)",2,mbtiauth_8554
300,"(72495, 13118, 5)",2,mbtiauth_8554
301,"(72495, 13118, 72497)",2,mbtiauth_8554
302,"(72495, 13118, 72498)",2,mbtiauth_8554
303,"(72495, 72496, 5)",2,mbtiauth_8554
304,"(72495, 72496, 13118)",2,mbtiauth_8554
305,"(72495, 72496, 72497)",2,mbtiauth_8554
306,"(72495, 72496, 72498)",2,mbtiauth_8554
307,"(72495, 72498, 72497)",2,mbtiauth_8554
308,"(72496, 5, 5)",2,mbtiauth_8554
309,"(72496, 5, 72495)",2,mbtiauth_8554
310,"(72496, 5, 72497)",2,mbtiauth_8554
311,"(72496, 5, 72498)",2,mbtiauth_8554
312,"(72496, 13118, 5)",2,mbtiauth_8554
313,"(72496, 13118, 72495)",2,mbtiauth_8554
314,"(72496, 13118, 72497)",2,mbtiauth_8554
315,"(72496, 13118, 72498)",2,mbtiauth_8554
316,"(72496, 72497, 72495)",2,mbtiauth_8554
317,"(72496, 72498, 72495)",2,mbtiauth_8554
318,"(72496, 72498, 72497)",2,mbtiauth_8554
319,"(72497, 5, 5)",2,mbtiauth_8554
320,"(72497, 5, 72498)",2,mbtiauth_8554
321,"(72497, 13118, 5)",2,mbtiauth_8554
322,"(72497, 13118, 72498)",2,mbtiauth_8554
323,"(72497, 72495, 5)",2,mbtiauth_8554
324,"(72497, 72495, 13118)",2,mbtiauth_8554
325,"(72497, 72495, 72496)",3,mbtiauth_8554
326,"(72497, 72495, 72498)",2,mbtiauth_8554
327,"(72497, 72496, 5)",2,mbtiauth_8554
328,"(72497, 72496, 13118)",2,mbtiauth_8554
329,"(72497, 72496, 72498)",2,mbtiauth_8554
330,"(72498, 5, 5)",2,mbtiauth_8554
331,"(72498, 13118, 5)",2,mbtiauth_8554
332,"(72498, 72495, 5)",2,mbtiauth_8554
333,"(72498, 72495, 13118)",2,mbtiauth_8554
334,"(72498, 72495, 72496)",3,mbtiauth_8554
335,"(72498, 72496, 5)",2,mbtiauth_8554
336,"(72498, 72496, 13118)",2,mbtiauth_8554
337,"(72498, 72497, 5)",2,mbtiauth_8554
338,"(72498, 72497, 13118)",2,mbtiauth_8554
339,"(72498, 72497, 72495)",3,mbtiauth_8554
340,"(72498, 72497, 72496)",3,mbtiauth_8554
341,"(5, 5, 72495, 13118)",2,mbtiauth_8554
342,"(5, 5, 72495, 72496)",3,mbtiauth_8554
343,"(5, 5, 72496, 13118)",2,mbtiauth_8554
344,"(5, 5, 72497, 13118)",2,mbtiauth_8554
345,"(5, 5, 72497, 72495)",3,mbtiauth_8554
346,"(5, 5, 72497, 72496)",3,mbtiauth_8554
347,"(5, 5, 72498, 13118)",2,mbtiauth_8554
348,"(5, 5, 72498, 72495)",3,mbtiauth_8554
349,"(5, 5, 72498, 72496)",3,mbtiauth_8554
350,"(5, 5, 72498, 72497)",3,mbtiauth_8554
351,"(5, 72495, 13118, 5)",2,mbtiauth_8554
352,"(5, 72495, 72496, 5)",2,mbtiauth_8554
353,"(5, 72495, 72496, 13118)",2,mbtiauth_8554
354,"(5, 72496, 13118, 5)",2,mbtiauth_8554
355,"(5, 72497, 13118, 5)",2,mbtiauth_8554
356,"(5, 72497, 72495, 5)",2,mbtiauth_8554
357,"(5, 72497, 72495, 13118)",2,mbtiauth_8554
358,"(5, 72497, 72495, 72496)",3,mbtiauth_8554
359,"(5, 72497, 72496, 5)",2,mbtiauth_8554
360,"(5, 72497, 72496, 13118)",2,mbtiauth_8554
361,"(5, 72498, 13118, 5)",2,mbtiauth_8554
362,"(5, 72498, 72495, 5)",2,mbtiauth_8554
363,"(5, 72498, 72495, 13118)",2,mbtiauth_8554
364,"(5, 72498, 72495, 72496)",3,mbtiauth_8554
365,"(5, 72498, 72496, 5)",2,mbtiauth_8554
366,"(5, 72498, 72496, 13118)",2,mbtiauth_8554
367,"(5, 72498, 72497, 5)",2,mbtiauth_8554
368,"(5, 72498, 72497, 13118)",2,mbtiauth_8554
369,"(5, 72498, 72497, 72495)",3,mbtiauth_8554
370,"(5, 72498, 72497, 72496)",3,mbtiauth_8554
371,"(48, 231, 210, 1133)",2,mbtiauth_8554
372,"(48, 457, 210, 1133)",2,mbtiauth_8554
373,"(48, 457, 231, 210)",2,mbtiauth_8554
374,"(48, 457, 231, 1133)",2,mbtiauth_8554
375,"(48, 457, 459, 210)",2,mbtiauth_8554
376,"(48, 457, 459, 231)",2,mbtiauth_8554
377,"(48, 457, 459, 1133)",2,mbtiauth_8554
378,"(48, 459, 210, 1133)",2,mbtiauth_8554
379,"(48, 459, 231, 210)",2,mbtiauth_8554
380,"(48, 459, 231, 1133)",2,mbtiauth_8554
381,"(457, 231, 210, 1133)",2,mbtiauth_8554
382,"(457, 459, 210, 1133)",2,mbtiauth_8554
383,"(457, 459, 231, 210)",2,mbtiauth_8554
384,"(457, 459, 231, 1133)",2,mbtiauth_8554
385,"(459, 231, 210, 1133)",2,mbtiauth_8554
386,"(1266, 739, 8190, 2812)",2,mbtiauth_8554
387,"(1266, 739, 15310, 63625)",2,mbtiauth_8554
388,"(3991, 739, 8190, 2812)",2,mbtiauth_8554
389,"(3991, 739, 15310, 63625)",2,mbtiauth_8554
390,"(3991, 1266, 739, 2812)",2,mbtiauth_8554
391,"(3991, 1266, 739, 8190)",2,mbtiauth_8554
392,"(3991, 1266, 739, 15310)",2,mbtiauth_8554
393,"(3991, 1266, 739, 63625)",2,mbtiauth_8554
394,"(3991, 1266, 8190, 2812)",2,mbtiauth_8554
395,"(3991, 1266, 15310, 63625)",2,mbtiauth_8554
396,"(8902, 739, 15310, 63625)",2,mbtiauth_8554
397,"(8902, 1266, 739, 15310)",2,mbtiauth_8554
398,"(8902, 1266, 739, 63625)",2,mbtiauth_8554
399,"(8902, 1266, 15310, 63625)",2,mbtiauth_8554
400,"(8902, 3991, 739, 15310)",2,mbtiauth_8554
401,"(8902, 3991, 739, 63625)",2,mbtiauth_8554
402,"(8902, 3991, 1266, 739)",2,mbtiauth_8554
403,"(8902, 3991, 1266, 15310)",2,mbtiauth_8554
404,"(8902, 3991, 1266, 63625)",2,mbtiauth_8554
405,"(8902, 3991, 15310, 63625)",2,mbtiauth_8554
406,"(8902, 13217, 739, 15310)",2,mbtiauth_8554
407,"(8902, 13217, 739, 63625)",2,mbtiauth_8554
408,"(8902, 13217, 1266, 739)",2,mbtiauth_8554
409,"(8902, 13217, 1266, 15310)",2,mbtiauth_8554
410,"(8902, 13217, 1266, 63625)",2,mbtiauth_8554
411,"(8902, 13217, 3991, 739)",2,mbtiauth_8554
412,"(8902, 13217, 3991, 1266)",2,mbtiauth_8554
413,"(8902, 13217, 3991, 15310)",2,mbtiauth_8554
414,"(8902, 13217, 3991, 63625)",2,mbtiauth_8554
415,"(8902, 13217, 15310, 63625)",2,mbtiauth_8554
416,"(13118, 5, 5, 72495)",2,mbtiauth_8554
417,"(13118, 5, 5, 72496)",2,mbtiauth_8554
418,"(13118, 5, 5, 72497)",2,mbtiauth_8554
419,"(13118, 5, 5, 72498)",2,mbtiauth_8554
420,"(13118, 5, 72495, 72496)",2,mbtiauth_8554
421,"(13118, 5, 72497, 72495)",2,mbtiauth_8554
422,"(13118, 5, 72497, 72496)",2,mbtiauth_8554
423,"(13118, 5, 72498, 72495)",2,mbtiauth_8554
424,"(13118, 5, 72498, 72496)",2,mbtiauth_8554
425,"(13118, 5, 72498, 72497)",2,mbtiauth_8554
426,"(13118, 72497, 72495, 72496)",2,mbtiauth_8554
427,"(13118, 72498, 72495, 72496)",2,mbtiauth_8554
428,"(13118, 72498, 72497, 72495)",2,mbtiauth_8554
429,"(13118, 72498, 72497, 72496)",2,mbtiauth_8554
430,"(13217, 739, 15310, 63625)",2,mbtiauth_8554
431,"(13217, 1266, 739, 8190)",2,mbtiauth_8554
432,"(13217, 1266, 739, 15310)",2,mbtiauth_8554
433,"(13217, 1266, 739, 63625)",2,mbtiauth_8554
434,"(13217, 1266, 15310, 63625)",2,mbtiauth_8554
435,"(13217, 3991, 739, 8190)",2,mbtiauth_8554
436,"(13217, 3991, 739, 15310)",2,mbtiauth_8554
437,"(13217, 3991, 739, 63625)",2,mbtiauth_8554
438,"(13217, 3991, 1266, 739)",2,mbtiauth_8554
439,"(13217, 3991, 1266, 8190)",2,mbtiauth_8554
440,"(13217, 3991, 1266, 15310)",2,mbtiauth_8554
441,"(13217, 3991, 1266, 63625)",2,mbtiauth_8554
442,"(13217, 3991, 15310, 63625)",2,mbtiauth_8554
443,"(72495, 5, 5, 72497)",2,mbtiauth_8554
444,"(72495, 5, 5, 72498)",2,mbtiauth_8554
445,"(72495, 5, 72498, 72497)",2,mbtiauth_8554
446,"(72495, 13118, 5, 5)",2,mbtiauth_8554
447,"(72495, 13118, 5, 72497)",2,mbtiauth_8554
448,"(72495, 13118, 5, 72498)",2,mbtiauth_8554
449,"(72495, 13118, 72498, 72497)",2,mbtiauth_8554
450,"(72495, 72496, 5, 5)",2,mbtiauth_8554
451,"(72495, 72496, 5, 72497)",2,mbtiauth_8554
452,"(72495, 72496, 5, 72498)",2,mbtiauth_8554
453,"(72495, 72496, 13118, 5)",2,mbtiauth_8554
454,"(72495, 72496, 13118, 72497)",2,mbtiauth_8554
455,"(72495, 72496, 13118, 72498)",2,mbtiauth_8554
456,"(72495, 72496, 72498, 72497)",2,mbtiauth_8554
457,"(72496, 5, 5, 72495)",2,mbtiauth_8554
458,"(72496, 5, 5, 72497)",2,mbtiauth_8554
459,"(72496, 5, 5, 72498)",2,mbtiauth_8554
460,"(72496, 5, 72497, 72495)",2,mbtiauth_8554
461,"(72496, 5, 72498, 72495)",2,mbtiauth_8554
462,"(72496, 5, 72498, 72497)",2,mbtiauth_8554
463,"(72496, 13118, 5, 5)",2,mbtiauth_8554
464,"(72496, 13118, 5, 72495)",2,mbtiauth_8554
465,"(72496, 13118, 5, 72497)",2,mbtiauth_8554
466,"(72496, 13118, 5, 72498)",2,mbtiauth_8554
467,"(72496, 13118, 72497, 72495)",2,mbtiauth_8554
468,"(72496, 13118, 72498, 72495)",2,mbtiauth_8554
469,"(72496, 13118, 72498, 72497)",2,mbtiauth_8554
470,"(72496, 72498, 72497, 72495)",2,mbtiauth_8554
471,"(72497, 5, 5, 72498)",2,mbtiauth_8554
472,"(72497, 13118, 5, 5)",2,mbtiauth_8554
473,"(72497, 13118, 5, 72498)",2,mbtiauth_8554
474,"(72497, 72495, 5, 5)",2,mbtiauth_8554
475,"(72497, 72495, 5, 72498)",2,mbtiauth_8554
476,"(72497, 72495, 13118, 5)",2,mbtiauth_8554
477,"(72497, 72495, 13118, 72498)",2,mbtiauth_8554
478,"(72497, 72495, 72496, 5)",2,mbtiauth_8554
479,"(72497, 72495, 72496, 13118)",2,mbtiauth_8554
480,"(72497, 72495, 72496, 72498)",2,mbtiauth_8554
481,"(72497, 72496, 5, 5)",2,mbtiauth_8554
482,"(72497, 72496, 5, 72498)",2,mbtiauth_8554
483,"(72497, 72496, 13118, 5)",2,mbtiauth_8554
484,"(72497, 72496, 13118, 72498)",2,mbtiauth_8554
485,"(72498, 13118, 5, 5)",2,mbtiauth_8554
486,"(72498, 72495, 5, 5)",2,mbtiauth_8554
487,"(72498, 72495, 13118, 5)",2,mbtiauth_8554
488,"(72498, 72495, 72496, 5)",2,mbtiauth_8554
489,"(72498, 72495, 72496, 13118)",2,mbtiauth_8554
490,"(72498, 72496, 5, 5)",2,mbtiauth_8554
491,"(72498, 72496, 13118, 5)",2,mbtiauth_8554
492,"(72498, 72497, 5, 5)",2,mbtiauth_8554
493,"(72498, 72497, 13118, 5)",2,mbtiauth_8554
494,"(72498, 72497, 72495, 5)",2,mbtiauth_8554
495,"(72498, 72497, 72495, 13118)",2,mbtiauth_8554
496,"(72498, 72497, 72495, 72496)",3,mbtiauth_8554
497,"(72498, 72497, 72496, 5)",2,mbtiauth_8554
498,"(72498, 72497, 72496, 13118)",2,mbtiauth_8554
499,"(5, 5, 72495, 72496, 13118)",2,mbtiauth_8554
500,"(5, 5, 72497, 72495, 13118)",2,mbtiauth_8554
501,"(5, 5, 72497, 72495, 72496)",3,mbtiauth_8554
502,"(5, 5, 72497, 72496, 13118)",2,mbtiauth_8554
503,"(5, 5, 72498, 72495, 13118)",2,mbtiauth_8554
504,"(5, 5, 72498, 72495, 72496)",3,mbtiauth_8554
505,"(5, 5, 72498, 72496, 13118)",2,mbtiauth_8554
506,"(5, 5, 72498, 72497, 13118)",2,mbtiauth_8554
507,"(5, 5, 72498, 72497, 72495)",3,mbtiauth_8554
508,"(5, 5, 72498, 72497, 72496)",3,mbtiauth_8554
509,"(5, 72495, 72496, 13118, 5)",2,mbtiauth_8554
510,"(5, 72497, 72495, 13118, 5)",2,mbtiauth_8554
511,"(5, 72497, 72495, 72496, 5)",2,mbtiauth_8554
512,"(5, 72497, 72495, 72496, 13118)",2,mbtiauth_8554
513,"(5, 72497, 72496, 13118, 5)",2,mbtiauth_8554
514,"(5, 72498, 72495, 13118, 5)",2,mbtiauth_8554
515,"(5, 72498, 72495, 72496, 5)",2,mbtiauth_8554
516,"(5, 72498, 72495, 72496, 13118)",2,mbtiauth_8554
517,"(5, 72498, 72496, 13118, 5)",2,mbtiauth_8554
518,"(5, 72498, 72497, 13118, 5)",2,mbtiauth_8554
519,"(5, 72498, 72497, 72495, 5)",2,mbtiauth_8554
520,"(5, 72498, 72497, 72495, 13118)",2,mbtiauth_8554
521,"(5, 72498, 72497, 72495, 72496)",3,mbtiauth_8554
522,"(5, 72498, 72497, 72496, 5)",2,mbtiauth_8554
523,"(5, 72498, 72497, 72496, 13118)",2,mbtiauth_8554
524,"(48, 457, 231, 210, 1133)",2,mbtiauth_8554
525,"(48, 457, 459, 210, 1133)",2,mbtiauth_8554
526,"(48, 457, 459, 231, 210)",2,mbtiauth_8554
527,"(48, 457, 459, 231, 1133)",2,mbtiauth_8554
528,"(48, 459, 231, 210, 1133)",2,mbtiauth_8554
529,"(457, 459, 231, 210, 1133)",2,mbtiauth_8554
530,"(3991, 1266, 739, 8190, 2812)",2,mbtiauth_8554
531,"(3991, 1266, 739, 15310, 63625)",2,mbtiauth_8554
532,"(8902, 1266, 739, 15310, 63625)",2,mbtiauth_8554
533,"(8902, 3991, 739, 15310, 63625)",2,mbtiauth_8554
534,"(8902, 3991, 1266, 739, 15310)",2,mbtiauth_8554
535,"(8902, 3991, 1266, 739, 63625)",2,mbtiauth_8554
536,"(8902, 3991, 1266, 15310, 63625)",2,mbtiauth_8554
537,"(8902, 13217, 739, 15310, 63625)",2,mbtiauth_8554
538,"(8902, 13217, 1266, 739, 15310)",2,mbtiauth_8554
539,"(8902, 13217, 1266, 739, 63625)",2,mbtiauth_8554
540,"(8902, 13217, 1266, 15310, 63625)",2,mbtiauth_8554
541,"(8902, 13217, 3991, 739, 15310)",2,mbtiauth_8554
542,"(8902, 13217, 3991, 739, 63625)",2,mbtiauth_8554
543,"(8902, 13217, 3991, 1266, 739)",2,mbtiauth_8554
544,"(8902, 13217, 3991, 1266, 15310)",2,mbtiauth_8554
545,"(8902, 13217, 3991, 1266, 63625)",2,mbtiauth_8554
546,"(8902, 13217, 3991, 15310, 63625)",2,mbtiauth_8554
547,"(13118, 5, 5, 72495, 72496)",2,mbtiauth_8554
548,"(13118, 5, 5, 72497, 72495)",2,mbtiauth_8554
549,"(13118, 5, 5, 72497, 72496)",2,mbtiauth_8554
550,"(13118, 5, 5, 72498, 72495)",2,mbtiauth_8554
551,"(13118, 5, 5, 72498, 72496)",2,mbtiauth_8554
552,"(13118, 5, 5, 72498, 72497)",2,mbtiauth_8554
553,"(13118, 5, 72497, 72495, 72496)",2,mbtiauth_8554
554,"(13118, 5, 72498, 72495, 72496)",2,mbtiauth_8554
555,"(13118, 5, 72498, 72497, 72495)",2,mbtiauth_8554
556,"(13118, 5, 72498, 72497, 72496)",2,mbtiauth_8554
557,"(13118, 72498, 72497, 72495, 72496)",2,mbtiauth_8554
558,"(13217, 1266, 739, 15310, 63625)",2,mbtiauth_8554
559,"(13217, 3991, 739, 15310, 63625)",2,mbtiauth_8554
560,"(13217, 3991, 1266, 739, 8190)",2,mbtiauth_8554
561,"(13217, 3991, 1266, 739, 15310)",2,mbtiauth_8554
562,"(13217, 3991, 1266, 739, 63625)",2,mbtiauth_8554
563,"(13217, 3991, 1266, 15310, 63625)",2,mbtiauth_8554
564,"(72495, 5, 5, 72498, 72497)",2,mbtiauth_8554
565,"(72495, 13118, 5, 5, 72497)",2,mbtiauth_8554
566,"(72495, 13118, 5, 5, 72498)",2,mbtiauth_8554
567,"(72495, 13118, 5, 72498, 72497)",2,mbtiauth_8554
568,"(72495, 72496, 5, 5, 72497)",2,mbtiauth_8554
569,"(72495, 72496, 5, 5, 72498)",2,mbtiauth_8554
570,"(72495, 72496, 5, 72498, 72497)",2,mbtiauth_8554
571,"(72495, 72496, 13118, 5, 5)",2,mbtiauth_8554
572,"(72495, 72496, 13118, 5, 72497)",2,mbtiauth_8554
573,"(72495, 72496, 13118, 5, 72498)",2,mbtiauth_8554
574,"(72495, 72496, 13118, 72498, 72497)",2,mbtiauth_8554
575,"(72496, 5, 5, 72497, 72495)",2,mbtiauth_8554
576,"(72496, 5, 5, 72498, 72495)",2,mbtiauth_8554
577,"(72496, 5, 5, 72498, 72497)",2,mbtiauth_8554
578,"(72496, 5, 72498, 72497, 72495)",2,mbtiauth_8554
579,"(72496, 13118, 5, 5, 72495)",2,mbtiauth_8554
580,"(72496, 13118, 5, 5, 72497)",2,mbtiauth_8554
581,"(72496, 13118, 5, 5, 72498)",2,mbtiauth_8554
582,"(72496, 13118, 5, 72497, 72495)",2,mbtiauth_8554
583,"(72496, 13118, 5, 72498, 72495)",2,mbtiauth_8554
584,"(72496, 13118, 5, 72498, 72497)",2,mbtiauth_8554
585,"(72496, 13118, 72498, 72497, 72495)",2,mbtiauth_8554
586,"(72497, 13118, 5, 5, 72498)",2,mbtiauth_8554
587,"(72497, 72495, 5, 5, 72498)",2,mbtiauth_8554
588,"(72497, 72495, 13118, 5, 5)",2,mbtiauth_8554
589,"(72497, 72495, 13118, 5, 72498)",2,mbtiauth_8554
590,"(72497, 72495, 72496, 5, 5)",2,mbtiauth_8554
591,"(72497, 72495, 72496, 5, 72498)",2,mbtiauth_8554
592,"(72497, 72495, 72496, 13118, 5)",2,mbtiauth_8554
593,"(72497, 72495, 72496, 13118, 72498)",2,mbtiauth_8554
594,"(72497, 72496, 5, 5, 72498)",2,mbtiauth_8554
595,"(72497, 72496, 13118, 5, 5)",2,mbtiauth_8554
596,"(72497, 72496, 13118, 5, 72498)",2,mbtiauth_8554
597,"(72498, 72495, 13118, 5, 5)",2,mbtiauth_8554
598,"(72498, 72495, 72496, 5, 5)",2,mbtiauth_8554
599,"(72498, 72495, 72496, 13118, 5)",2,mbtiauth_8554
600,"(72498, 72496, 13118, 5, 5)",2,mbtiauth_8554
601,"(72498, 72497, 13118, 5, 5)",2,mbtiauth_8554
602,"(72498, 72497, 72495, 5, 5)",2,mbtiauth_8554
603,"(72498, 72497, 72495, 13118, 5)",2,mbtiauth_8554
604,"(72498, 72497, 72495, 72496, 5)",2,mbtiauth_8554
605,"(72498, 72497, 72495, 72496, 13118)",2,mbtiauth_8554
606,"(72498, 72497, 72496, 5, 5)",2,mbtiauth_8554
607,"(72498, 72497, 72496, 13118, 5)",2,mbtiauth_8554
608,"(5, 5, 72497, 72495, 72496, 13118)",2,mbtiauth_8554
609,"(5, 5, 72498, 72495, 72496, 13118)",2,mbtiauth_8554
610,"(5, 5, 72498, 72497, 72495, 13118)",2,mbtiauth_8554
611,"(5, 5, 72498, 72497, 72495, 72496)",3,mbtiauth_8554
612,"(5, 5, 72498, 72497, 72496, 13118)",2,mbtiauth_8554
613,"(5, 72497, 72495, 72496, 13118, 5)",2,mbtiauth_8554
614,"(5, 72498, 72495, 72496, 13118, 5)",2,mbtiauth_8554
615,"(5, 72498, 72497, 72495, 13118, 5)",2,mbtiauth_8554
616,"(5, 72498, 72497, 72495, 72496, 5)",2,mbtiauth_8554
617,"(5, 72498, 72497, 72495, 72496, 13118)",2,mbtiauth_8554
618,"(5, 72498, 72497, 72496, 13118, 5)",2,mbtiauth_8554
619,"(48, 457, 459, 231, 210, 1133)",2,mbtiauth_8554
620,"(8902, 3991, 1266, 739, 15310, 63625)",2,mbtiauth_8554
621,"(8902, 13217, 1266, 739, 15310, 63625)",2,mbtiauth_8554
622,"(8902, 13217, 3991, 739, 15310, 63625)",2,mbtiauth_8554
623,"(8902, 13217, 3991, 1266, 739, 15310)",2,mbtiauth_8554
624,"(8902, 13217, 3991, 1266, 739, 63625)",2,mbtiauth_8554
625,"(8902, 13217, 3991, 1266, 15310, 63625)",2,mbtiauth_8554
626,"(13118, 5, 5, 72497, 72495, 72496)",2,mbtiauth_8554
627,"(13118, 5, 5, 72498, 72495, 72496)",2,mbtiauth_8554
628,"(13118, 5, 5, 72498, 72497, 72495)",2,mbtiauth_8554
629,"(13118, 5, 5, 72498, 72497, 72496)",2,mbtiauth_8554
630,"(13118, 5, 72498, 72497, 72495, 72496)",2,mbtiauth_8554
631,"(13217, 3991, 1266, 739, 15310, 63625)",2,mbtiauth_8554
632,"(72495, 13118, 5, 5, 72498, 72497)",2,mbtiauth_8554
633,"(72495, 72496, 5, 5, 72498, 72497)",2,mbtiauth_8554
634,"(72495, 72496, 13118, 5, 5, 72497)",2,mbtiauth_8554
635,"(72495, 72496, 13118, 5, 5, 72498)",2,mbtiauth_8554
636,"(72495, 72496, 13118, 5, 72498, 72497)",2,mbtiauth_8554
637,"(72496, 5, 5, 72498, 72497, 72495)",2,mbtiauth_8554
638,"(72496, 13118, 5, 5, 72497, 72495)",2,mbtiauth_8554
639,"(72496, 13118, 5, 5, 72498, 72495)",2,mbtiauth_8554
640,"(72496, 13118, 5, 5, 72498, 72497)",2,mbtiauth_8554
641,"(72496, 13118, 5, 72498, 72497, 72495)",2,mbtiauth_8554
642,"(72497, 72495, 13118, 5, 5, 72498)",2,mbtiauth_8554
643,"(72497, 72495, 72496, 5, 5, 72498)",2,mbtiauth_8554
644,"(72497, 72495, 72496, 13118, 5, 5)",2,mbtiauth_8554
645,"(72497, 72495, 72496, 13118, 5, 72498)",2,mbtiauth_8554
646,"(72497, 72496, 13118, 5, 5, 72498)",2,mbtiauth_8554
647,"(72498, 72495, 72496, 13118, 5, 5)",2,mbtiauth_8554
648,"(72498, 72497, 72495, 13118, 5, 5)",2,mbtiauth_8554
649,"(72498, 72497, 72495, 72496, 5, 5)",2,mbtiauth_8554
650,"(72498, 72497, 72495, 72496, 13118, 5)",2,mbtiauth_8554
651,"(72498, 72497, 72496, 13118, 5, 5)",2,mbtiauth_8554
652,"(5, 5, 72498, 72497, 72495, 72496, 13118)",2,mbtiauth_8554
653,"(5, 72498, 72497, 72495, 72496, 13118, 5)",2,mbtiauth_8554
654,"(8902, 13217, 3991, 1266, 739, 15310, 63625)",2,mbtiauth_8554
655,"(13118, 5, 5, 72498, 72497, 72495, 72496)",2,mbtiauth_8554
656,"(72495, 72496, 13118, 5, 5, 72498, 72497)",2,mbtiauth_8554
657,"(72496, 13118, 5, 5, 72498, 72497, 72495)",2,mbtiauth_8554
658,"(72497, 72495, 72496, 13118, 5, 5, 72498)",2,mbtiauth_8554
659,"(72498, 72497, 72495, 72496, 13118, 5, 5)",2,mbtiauth_8554
