,pattern,sup,author
147,"(6, 6, 17)",5,mbtiauth_903
148,"(6, 6, 18)",5,mbtiauth_903
149,"(6, 17, 6)",5,mbtiauth_903
150,"(6, 17, 17)",5,mbtiauth_903
151,"(6, 17, 18)",5,mbtiauth_903
152,"(6, 17, 19)",2,mbtiauth_903
153,"(6, 17, 48)",3,mbtiauth_903
154,"(6, 17, 50)",4,mbtiauth_903
155,"(6, 17, 435)",2,mbtiauth_903
156,"(6, 17, 1635)",2,mbtiauth_903
157,"(6, 17, 47531)",3,mbtiauth_903
158,"(6, 18, 6)",5,mbtiauth_903
159,"(6, 18, 17)",10,mbtiauth_903
160,"(6, 18, 18)",5,mbtiauth_903
161,"(6, 18, 19)",2,mbtiauth_903
162,"(6, 18, 48)",3,mbtiauth_903
163,"(6, 18, 50)",4,mbtiauth_903
164,"(6, 18, 435)",2,mbtiauth_903
165,"(6, 18, 1635)",2,mbtiauth_903
166,"(6, 18, 47531)",3,mbtiauth_903
167,"(6, 50, 48)",2,mbtiauth_903
168,"(17, 6, 17)",5,mbtiauth_903
169,"(17, 6, 18)",6,mbtiauth_903
170,"(17, 6, 47531)",2,mbtiauth_903
171,"(17, 17, 47531)",2,mbtiauth_903
172,"(17, 18, 17)",5,mbtiauth_903
173,"(17, 18, 47531)",2,mbtiauth_903
174,"(17, 50, 48)",2,mbtiauth_903
175,"(18, 6, 17)",5,mbtiauth_903
176,"(18, 6, 18)",5,mbtiauth_903
177,"(18, 17, 6)",6,mbtiauth_903
178,"(18, 17, 17)",5,mbtiauth_903
179,"(18, 17, 18)",5,mbtiauth_903
180,"(18, 17, 19)",3,mbtiauth_903
181,"(18, 17, 48)",3,mbtiauth_903
182,"(18, 17, 50)",5,mbtiauth_903
183,"(18, 17, 435)",2,mbtiauth_903
184,"(18, 17, 1635)",2,mbtiauth_903
185,"(18, 17, 47531)",3,mbtiauth_903
186,"(18, 18, 17)",5,mbtiauth_903
187,"(18, 50, 48)",2,mbtiauth_903
188,"(19, 50, 48)",2,mbtiauth_903
189,"(1635, 6, 17)",2,mbtiauth_903
190,"(1635, 6, 18)",2,mbtiauth_903
191,"(1635, 18, 17)",2,mbtiauth_903
192,"(6, 6, 18, 17)",5,mbtiauth_903
193,"(6, 17, 6, 17)",5,mbtiauth_903
194,"(6, 17, 6, 18)",5,mbtiauth_903
195,"(6, 17, 18, 17)",5,mbtiauth_903
196,"(6, 17, 50, 48)",2,mbtiauth_903
197,"(6, 18, 6, 17)",5,mbtiauth_903
198,"(6, 18, 6, 18)",5,mbtiauth_903
199,"(6, 18, 17, 6)",5,mbtiauth_903
200,"(6, 18, 17, 17)",5,mbtiauth_903
201,"(6, 18, 17, 18)",5,mbtiauth_903
202,"(6, 18, 17, 19)",2,mbtiauth_903
203,"(6, 18, 17, 48)",3,mbtiauth_903
204,"(6, 18, 17, 50)",4,mbtiauth_903
205,"(6, 18, 17, 435)",2,mbtiauth_903
206,"(6, 18, 17, 1635)",2,mbtiauth_903
207,"(6, 18, 17, 47531)",3,mbtiauth_903
208,"(6, 18, 18, 17)",5,mbtiauth_903
209,"(6, 18, 50, 48)",2,mbtiauth_903
210,"(17, 6, 17, 47531)",2,mbtiauth_903
211,"(17, 6, 18, 17)",5,mbtiauth_903
212,"(17, 6, 18, 47531)",2,mbtiauth_903
213,"(17, 18, 17, 47531)",2,mbtiauth_903
214,"(18, 6, 18, 17)",5,mbtiauth_903
215,"(18, 17, 6, 17)",5,mbtiauth_903
216,"(18, 17, 6, 18)",5,mbtiauth_903
217,"(18, 17, 18, 17)",5,mbtiauth_903
218,"(18, 17, 50, 48)",2,mbtiauth_903
219,"(1635, 6, 18, 17)",2,mbtiauth_903
220,"(6, 17, 6, 18, 17)",5,mbtiauth_903
221,"(6, 18, 6, 18, 17)",5,mbtiauth_903
222,"(6, 18, 17, 6, 17)",5,mbtiauth_903
223,"(6, 18, 17, 6, 18)",5,mbtiauth_903
224,"(6, 18, 17, 18, 17)",5,mbtiauth_903
225,"(6, 18, 17, 50, 48)",2,mbtiauth_903
226,"(17, 6, 18, 17, 47531)",2,mbtiauth_903
227,"(18, 17, 6, 18, 17)",5,mbtiauth_903
228,"(6, 18, 17, 6, 18, 17)",5,mbtiauth_903
