,pattern,sup,author
156,"(0, 0, 0)",3,1998_959671
157,"(0, 0, 106)",2,1998_959671
158,"(0, 38, 0)",3,1998_959671
159,"(0, 55, 58)",2,1998_959671
160,"(0, 125, 274)",2,1998_959671
161,"(0, 582, 0)",2,1998_959671
162,"(0, 1511, 274)",2,1998_959671
163,"(10, 55, 58)",2,1998_959671
164,"(55, 0, 55)",2,1998_959671
165,"(55, 0, 58)",2,1998_959671
166,"(55, 0, 77)",2,1998_959671
167,"(55, 55, 58)",2,1998_959671
168,"(55, 58, 77)",2,1998_959671
169,"(120, 5296, 0)",2,1998_959671
170,"(155, 0, 0)",2,1998_959671
171,"(191, 2019, 6346)",2,1998_959671
172,"(211, 0, 0)",2,1998_959671
173,"(3325, 0, 1908)",2,1998_959671
174,"(55, 0, 55, 58)",2,1998_959671
