,pattern,sup,author
81,"(0, 0, 0)",4,1998_914538
82,"(0, 0, 1)",2,1998_914538
83,"(0, 135, 0)",2,1998_914538
84,"(77, 5234, 0)",2,1998_914538
85,"(77, 5234, 1921)",2,1998_914538
86,"(530, 214, 31)",2,1998_914538
87,"(0, 0, 0, 0)",2,1998_914538
