,pattern,sup,author
149,"(0, 0, 0)",2,1999_846387
150,"(0, 0, 55)",2,1999_846387
151,"(0, 0, 274)",2,1999_846387
152,"(0, 0, 16375)",2,1999_846387
153,"(0, 55, 274)",2,1999_846387
154,"(0, 55, 16375)",2,1999_846387
155,"(0, 101, 101)",2,1999_846387
156,"(0, 217, 0)",2,1999_846387
157,"(0, 621, 223)",2,1999_846387
158,"(0, 621, 274)",2,1999_846387
159,"(0, 621, 16375)",2,1999_846387
160,"(0, 790, 1416)",3,1999_846387
161,"(0, 1511, 274)",2,1999_846387
162,"(0, 16375, 0)",2,1999_846387
163,"(0, 16375, 55)",2,1999_846387
164,"(0, 16375, 274)",2,1999_846387
165,"(5, 0, 55)",2,1999_846387
166,"(5, 0, 274)",2,1999_846387
167,"(5, 0, 16375)",2,1999_846387
168,"(5, 55, 274)",2,1999_846387
169,"(5, 55, 16375)",2,1999_846387
170,"(5, 16375, 274)",2,1999_846387
171,"(55, 329, 6303)",2,1999_846387
172,"(55, 16375, 274)",2,1999_846387
173,"(86, 0, 0)",2,1999_846387
174,"(306, 0, 0)",2,1999_846387
175,"(306, 0, 274)",2,1999_846387
176,"(418, 0, 217)",2,1999_846387
177,"(1416, 0, 274)",2,1999_846387
178,"(1416, 0, 621)",2,1999_846387
179,"(1416, 0, 16375)",2,1999_846387
180,"(1416, 621, 274)",2,1999_846387
181,"(1416, 621, 16375)",2,1999_846387
182,"(0, 0, 16375, 55)",2,1999_846387
183,"(0, 55, 16375, 274)",2,1999_846387
184,"(5, 0, 55, 274)",2,1999_846387
185,"(5, 0, 55, 16375)",2,1999_846387
186,"(5, 0, 16375, 274)",2,1999_846387
187,"(5, 55, 16375, 274)",2,1999_846387
188,"(306, 0, 0, 274)",2,1999_846387
189,"(1416, 0, 621, 274)",2,1999_846387
190,"(1416, 0, 621, 16375)",2,1999_846387
191,"(5, 0, 55, 16375, 274)",2,1999_846387
