,pattern,sup,author
59,"(42, 1033, 765)",2,2000_873310
60,"(42, 1033, 5577)",2,2000_873310
61,"(42, 5577, 765)",2,2000_873310
62,"(70, 0, 4750)",2,2000_873310
63,"(70, 214, 0)",2,2000_873310
64,"(70, 214, 4750)",2,2000_873310
65,"(214, 0, 4750)",2,2000_873310
66,"(1033, 5577, 765)",2,2000_873310
67,"(19782, 1212, 2689)",2,2000_873310
68,"(42, 1033, 5577, 765)",2,2000_873310
69,"(70, 214, 0, 4750)",2,2000_873310
