,pattern,sup,author
178,"(48, 50, 50)",2,mbtiauth_4862
179,"(50, 50, 50)",3,mbtiauth_4862
180,"(121, 24176, 12742)",2,mbtiauth_4862
181,"(355, 1884, 2388)",2,mbtiauth_4862
182,"(1125, 50, 216)",2,mbtiauth_4862
183,"(1246, 6950, 50)",2,mbtiauth_4862
184,"(1884, 1884, 2388)",2,mbtiauth_4862
185,"(1884, 2388, 1884)",2,mbtiauth_4862
186,"(1884, 2388, 2388)",2,mbtiauth_4862
187,"(2388, 1884, 2388)",2,mbtiauth_4862
188,"(2487, 24176, 12742)",2,mbtiauth_4862
189,"(3395, 4622, 50)",2,mbtiauth_4862
190,"(1884, 2388, 1884, 2388)",2,mbtiauth_4862
