,pattern,sup,author
202,"(50, 50, 50)",4,mbtiauth_8443
203,"(50, 50, 684)",2,mbtiauth_8443
204,"(50, 50, 2565)",2,mbtiauth_8443
205,"(50, 110, 50)",2,mbtiauth_8443
206,"(50, 121, 50)",2,mbtiauth_8443
207,"(50, 2708, 50)",2,mbtiauth_8443
208,"(50, 4100, 1565)",2,mbtiauth_8443
209,"(50, 4728, 50)",2,mbtiauth_8443
210,"(75, 122, 5724)",2,mbtiauth_8443
211,"(75, 154, 633)",2,mbtiauth_8443
212,"(75, 167, 114)",2,mbtiauth_8443
213,"(75, 809, 633)",2,mbtiauth_8443
214,"(75, 1227, 50)",2,mbtiauth_8443
215,"(75, 1227, 114)",2,mbtiauth_8443
216,"(75, 1227, 122)",2,mbtiauth_8443
217,"(75, 1227, 154)",2,mbtiauth_8443
218,"(75, 1227, 167)",2,mbtiauth_8443
219,"(75, 1227, 633)",3,mbtiauth_8443
220,"(75, 1227, 809)",3,mbtiauth_8443
221,"(75, 1227, 5724)",2,mbtiauth_8443
222,"(117, 14275, 50)",2,mbtiauth_8443
223,"(394, 50, 50)",2,mbtiauth_8443
224,"(394, 153, 50)",2,mbtiauth_8443
225,"(394, 295, 431)",2,mbtiauth_8443
226,"(684, 3395, 124)",2,mbtiauth_8443
227,"(809, 361, 1494)",2,mbtiauth_8443
228,"(1227, 122, 5724)",2,mbtiauth_8443
229,"(1227, 154, 633)",2,mbtiauth_8443
230,"(1227, 809, 633)",2,mbtiauth_8443
231,"(3429, 50, 50)",2,mbtiauth_8443
232,"(3429, 1039, 240)",2,mbtiauth_8443
233,"(10298, 50, 50)",2,mbtiauth_8443
234,"(75, 1227, 122, 5724)",2,mbtiauth_8443
235,"(75, 1227, 154, 633)",2,mbtiauth_8443
236,"(75, 1227, 809, 633)",2,mbtiauth_8443
