,pattern,sup,author
152,"(19, 19, 19)",3,mbtiauth_7741
153,"(48, 118, 50)",2,mbtiauth_7741
154,"(50, 50, 50)",2,mbtiauth_7741
155,"(50, 50, 118)",2,mbtiauth_7741
156,"(50, 50, 121)",2,mbtiauth_7741
157,"(50, 50, 153)",2,mbtiauth_7741
158,"(50, 118, 50)",2,mbtiauth_7741
159,"(50, 255, 118)",2,mbtiauth_7741
160,"(50, 255, 1292)",2,mbtiauth_7741
161,"(91, 50, 50)",2,mbtiauth_7741
162,"(792, 50, 255)",2,mbtiauth_7741
163,"(1094, 50, 700)",2,mbtiauth_7741
164,"(1272, 50, 121)",2,mbtiauth_7741
165,"(1272, 1272, 50)",2,mbtiauth_7741
166,"(1272, 1272, 121)",2,mbtiauth_7741
167,"(3693, 50, 121)",2,mbtiauth_7741
168,"(3693, 1272, 50)",2,mbtiauth_7741
169,"(3693, 1272, 121)",2,mbtiauth_7741
170,"(19, 19, 19, 19)",3,mbtiauth_7741
171,"(1272, 1272, 50, 121)",2,mbtiauth_7741
172,"(3693, 1272, 50, 121)",2,mbtiauth_7741
173,"(19, 19, 19, 19, 19)",3,mbtiauth_7741
