,pattern,sup,author
209,"(48, 255, 225)",2,mbtiauth_7417
210,"(50, 48, 255)",2,mbtiauth_7417
211,"(50, 49, 50)",2,mbtiauth_7417
212,"(50, 50, 50)",3,mbtiauth_7417
213,"(50, 50, 1018)",2,mbtiauth_7417
214,"(50, 50, 1489)",2,mbtiauth_7417
215,"(50, 50, 3127)",2,mbtiauth_7417
216,"(50, 50, 32792)",2,mbtiauth_7417
217,"(50, 91, 240)",2,mbtiauth_7417
218,"(50, 271, 1169)",2,mbtiauth_7417
219,"(50, 471, 50)",2,mbtiauth_7417
220,"(50, 471, 3127)",2,mbtiauth_7417
221,"(50, 488, 50)",2,mbtiauth_7417
222,"(50, 1024, 50)",2,mbtiauth_7417
223,"(50, 1257, 50)",2,mbtiauth_7417
224,"(50, 1489, 1508)",2,mbtiauth_7417
225,"(155, 50, 50)",2,mbtiauth_7417
226,"(225, 449, 713)",2,mbtiauth_7417
227,"(255, 2995, 1220)",2,mbtiauth_7417
228,"(263, 50, 488)",2,mbtiauth_7417
229,"(300, 50, 1043)",2,mbtiauth_7417
230,"(471, 50, 3127)",2,mbtiauth_7417
231,"(471, 471, 3127)",2,mbtiauth_7417
232,"(488, 50, 395)",2,mbtiauth_7417
233,"(488, 2800, 50)",2,mbtiauth_7417
234,"(488, 2800, 395)",2,mbtiauth_7417
235,"(488, 4639, 4639)",2,mbtiauth_7417
236,"(1024, 50, 121)",2,mbtiauth_7417
237,"(1149, 50, 488)",2,mbtiauth_7417
238,"(1823, 488, 4639)",2,mbtiauth_7417
239,"(1823, 4639, 4639)",2,mbtiauth_7417
240,"(2800, 50, 395)",2,mbtiauth_7417
241,"(488, 2800, 50, 395)",2,mbtiauth_7417
242,"(1823, 488, 4639, 4639)",2,mbtiauth_7417
