,pattern,sup,author
196,"(49, 50, 91)",2,mbtiauth_8040
197,"(50, 50, 50)",2,mbtiauth_8040
198,"(50, 50, 3015)",2,mbtiauth_8040
199,"(50, 155, 50)",2,mbtiauth_8040
200,"(50, 155, 91)",2,mbtiauth_8040
201,"(50, 476, 50)",2,mbtiauth_8040
202,"(50, 476, 3015)",2,mbtiauth_8040
203,"(155, 262, 155)",2,mbtiauth_8040
204,"(255, 50, 155)",2,mbtiauth_8040
205,"(255, 155, 50)",2,mbtiauth_8040
206,"(255, 155, 118)",2,mbtiauth_8040
207,"(255, 155, 155)",2,mbtiauth_8040
208,"(255, 155, 262)",2,mbtiauth_8040
209,"(255, 262, 155)",2,mbtiauth_8040
210,"(262, 50, 155)",2,mbtiauth_8040
211,"(396, 50, 155)",2,mbtiauth_8040
212,"(396, 399, 396)",2,mbtiauth_8040
213,"(399, 50, 396)",2,mbtiauth_8040
214,"(476, 50, 3015)",2,mbtiauth_8040
215,"(1319, 155, 50)",2,mbtiauth_8040
216,"(1888, 737, 737)",2,mbtiauth_8040
217,"(2788, 50, 1862)",2,mbtiauth_8040
218,"(50, 476, 50, 3015)",2,mbtiauth_8040
219,"(255, 155, 262, 155)",2,mbtiauth_8040
