,pattern,sup,author
212,"(5, 17, 462)",2,mbtiauth_234
213,"(5, 18, 17)",4,mbtiauth_234
214,"(5, 18, 462)",2,mbtiauth_234
215,"(18, 17, 462)",2,mbtiauth_234
216,"(19, 19, 19)",3,mbtiauth_234
217,"(19, 19, 50)",2,mbtiauth_234
218,"(19, 50, 50)",2,mbtiauth_234
219,"(50, 50, 50)",2,mbtiauth_234
220,"(50, 50, 91)",3,mbtiauth_234
221,"(50, 50, 197)",2,mbtiauth_234
222,"(50, 91, 91)",2,mbtiauth_234
223,"(50, 91, 1538)",2,mbtiauth_234
224,"(50, 4617, 4617)",2,mbtiauth_234
225,"(118, 50, 91)",2,mbtiauth_234
226,"(173, 12272, 14078)",2,mbtiauth_234
227,"(225, 50, 50)",2,mbtiauth_234
228,"(713, 19, 50)",2,mbtiauth_234
229,"(713, 50, 50)",2,mbtiauth_234
230,"(2388, 50, 4617)",2,mbtiauth_234
231,"(2388, 4617, 4617)",2,mbtiauth_234
232,"(7251, 14077, 14076)",2,mbtiauth_234
233,"(7251, 14082, 14076)",2,mbtiauth_234
234,"(7251, 14082, 14077)",2,mbtiauth_234
235,"(13023, 13020, 14073)",2,mbtiauth_234
236,"(14074, 7251, 14077)",3,mbtiauth_234
237,"(14074, 7251, 14082)",2,mbtiauth_234
238,"(14074, 14075, 7251)",3,mbtiauth_234
239,"(14074, 14075, 14077)",3,mbtiauth_234
240,"(14074, 14075, 14082)",2,mbtiauth_234
241,"(14074, 14082, 14077)",2,mbtiauth_234
242,"(14075, 7251, 14077)",3,mbtiauth_234
243,"(14075, 7251, 14082)",2,mbtiauth_234
244,"(14075, 14082, 14077)",2,mbtiauth_234
245,"(14076, 13020, 14073)",2,mbtiauth_234
246,"(14076, 13023, 13020)",2,mbtiauth_234
247,"(14076, 13023, 14073)",2,mbtiauth_234
248,"(14076, 14081, 13020)",2,mbtiauth_234
249,"(14076, 14081, 13023)",2,mbtiauth_234
250,"(14076, 14081, 14073)",2,mbtiauth_234
251,"(14077, 14076, 13023)",2,mbtiauth_234
252,"(14077, 14076, 14081)",2,mbtiauth_234
253,"(14077, 14081, 13023)",2,mbtiauth_234
254,"(14081, 13020, 14073)",2,mbtiauth_234
255,"(14081, 13023, 13020)",2,mbtiauth_234
256,"(14081, 13023, 14073)",2,mbtiauth_234
257,"(14082, 14076, 14081)",2,mbtiauth_234
258,"(14082, 14077, 14076)",2,mbtiauth_234
259,"(14082, 14077, 14081)",2,mbtiauth_234
260,"(5, 18, 17, 462)",2,mbtiauth_234
261,"(19, 19, 19, 19)",2,mbtiauth_234
262,"(19, 19, 19, 50)",2,mbtiauth_234
263,"(50, 50, 91, 91)",2,mbtiauth_234
264,"(713, 19, 50, 50)",2,mbtiauth_234
265,"(2388, 50, 4617, 4617)",2,mbtiauth_234
266,"(7251, 14082, 14077, 14076)",2,mbtiauth_234
267,"(14074, 7251, 14082, 14077)",2,mbtiauth_234
268,"(14074, 14075, 7251, 14077)",3,mbtiauth_234
269,"(14074, 14075, 7251, 14082)",2,mbtiauth_234
270,"(14074, 14075, 14082, 14077)",2,mbtiauth_234
271,"(14075, 7251, 14082, 14077)",2,mbtiauth_234
272,"(14076, 13023, 13020, 14073)",2,mbtiauth_234
273,"(14076, 14081, 13020, 14073)",2,mbtiauth_234
274,"(14076, 14081, 13023, 13020)",2,mbtiauth_234
275,"(14076, 14081, 13023, 14073)",2,mbtiauth_234
276,"(14077, 14076, 14081, 13023)",2,mbtiauth_234
277,"(14081, 13023, 13020, 14073)",2,mbtiauth_234
278,"(14082, 14077, 14076, 14081)",2,mbtiauth_234
279,"(14074, 14075, 7251, 14082, 14077)",2,mbtiauth_234
280,"(14076, 14081, 13023, 13020, 14073)",2,mbtiauth_234
