,pattern,sup,author
282,"(6, 274, 3177)",5,mbtiauth_4852
283,"(6, 72857, 274)",6,mbtiauth_4852
284,"(6, 72857, 3177)",5,mbtiauth_4852
285,"(6, 72857, 72859)",7,mbtiauth_4852
286,"(6, 72859, 274)",6,mbtiauth_4852
287,"(6, 72859, 3177)",5,mbtiauth_4852
288,"(48, 50, 50)",3,mbtiauth_4852
289,"(48, 114, 352)",2,mbtiauth_4852
290,"(50, 19, 50)",2,mbtiauth_4852
291,"(50, 50, 50)",6,mbtiauth_4852
292,"(50, 50, 144)",2,mbtiauth_4852
293,"(50, 50, 197)",2,mbtiauth_4852
294,"(50, 50, 387)",2,mbtiauth_4852
295,"(50, 50, 979)",3,mbtiauth_4852
296,"(50, 50, 1022)",2,mbtiauth_4852
297,"(50, 50, 1024)",2,mbtiauth_4852
298,"(50, 50, 1076)",2,mbtiauth_4852
299,"(50, 50, 7618)",4,mbtiauth_4852
300,"(50, 91, 50)",2,mbtiauth_4852
301,"(50, 197, 50)",2,mbtiauth_4852
302,"(50, 387, 50)",2,mbtiauth_4852
303,"(50, 387, 1024)",2,mbtiauth_4852
304,"(50, 387, 7618)",2,mbtiauth_4852
305,"(50, 551, 50)",2,mbtiauth_4852
306,"(50, 700, 50)",2,mbtiauth_4852
307,"(50, 700, 387)",2,mbtiauth_4852
308,"(50, 700, 1024)",2,mbtiauth_4852
309,"(50, 700, 7618)",2,mbtiauth_4852
310,"(50, 979, 50)",3,mbtiauth_4852
311,"(50, 979, 1022)",2,mbtiauth_4852
312,"(50, 1076, 255)",2,mbtiauth_4852
313,"(50, 1228, 50)",2,mbtiauth_4852
314,"(50, 2228, 50)",2,mbtiauth_4852
315,"(50, 2228, 979)",2,mbtiauth_4852
316,"(50, 7618, 50)",3,mbtiauth_4852
317,"(50, 7618, 1024)",2,mbtiauth_4852
318,"(50, 7618, 7618)",2,mbtiauth_4852
319,"(91, 255, 50)",2,mbtiauth_4852
320,"(114, 50, 50)",2,mbtiauth_4852
321,"(117, 50, 155)",2,mbtiauth_4852
322,"(117, 5662, 91)",2,mbtiauth_4852
323,"(197, 48, 48)",2,mbtiauth_4852
324,"(197, 50, 48)",2,mbtiauth_4852
325,"(197, 50, 1015)",2,mbtiauth_4852
326,"(197, 387, 7618)",2,mbtiauth_4852
327,"(271, 50, 114)",2,mbtiauth_4852
328,"(306, 387, 50)",2,mbtiauth_4852
329,"(306, 387, 7618)",2,mbtiauth_4852
330,"(306, 7618, 50)",2,mbtiauth_4852
331,"(352, 6, 274)",6,mbtiauth_4852
332,"(352, 6, 3177)",5,mbtiauth_4852
333,"(352, 6, 72857)",7,mbtiauth_4852
334,"(352, 6, 72859)",7,mbtiauth_4852
335,"(352, 54, 1039)",2,mbtiauth_4852
336,"(352, 274, 3177)",5,mbtiauth_4852
337,"(352, 1200, 54)",2,mbtiauth_4852
338,"(352, 1200, 1039)",2,mbtiauth_4852
339,"(352, 72857, 274)",6,mbtiauth_4852
340,"(352, 72857, 3177)",5,mbtiauth_4852
341,"(352, 72857, 72859)",7,mbtiauth_4852
342,"(352, 72859, 274)",6,mbtiauth_4852
343,"(352, 72859, 3177)",5,mbtiauth_4852
344,"(387, 50, 48)",2,mbtiauth_4852
345,"(387, 50, 50)",4,mbtiauth_4852
346,"(387, 50, 979)",2,mbtiauth_4852
347,"(387, 50, 2228)",2,mbtiauth_4852
348,"(387, 50, 7618)",2,mbtiauth_4852
349,"(387, 979, 50)",2,mbtiauth_4852
350,"(387, 2228, 50)",2,mbtiauth_4852
351,"(387, 2228, 979)",2,mbtiauth_4852
352,"(387, 7618, 48)",2,mbtiauth_4852
353,"(387, 7618, 50)",4,mbtiauth_4852
354,"(387, 7618, 1024)",2,mbtiauth_4852
355,"(387, 7618, 7618)",2,mbtiauth_4852
356,"(389, 50, 3355)",2,mbtiauth_4852
357,"(393, 399, 1076)",2,mbtiauth_4852
358,"(393, 1076, 399)",2,mbtiauth_4852
359,"(700, 50, 197)",2,mbtiauth_4852
360,"(700, 50, 387)",2,mbtiauth_4852
361,"(700, 50, 1024)",2,mbtiauth_4852
362,"(700, 50, 7618)",2,mbtiauth_4852
363,"(700, 387, 1024)",2,mbtiauth_4852
364,"(700, 387, 7618)",2,mbtiauth_4852
365,"(700, 7618, 1024)",2,mbtiauth_4852
366,"(979, 50, 1022)",2,mbtiauth_4852
367,"(1010, 7618, 50)",2,mbtiauth_4852
368,"(1059, 106, 109)",2,mbtiauth_4852
369,"(1200, 54, 1039)",2,mbtiauth_4852
370,"(1405, 50, 50)",2,mbtiauth_4852
371,"(2228, 50, 50)",2,mbtiauth_4852
372,"(2228, 50, 979)",2,mbtiauth_4852
373,"(2228, 979, 50)",2,mbtiauth_4852
374,"(7618, 50, 48)",2,mbtiauth_4852
375,"(7618, 50, 50)",3,mbtiauth_4852
376,"(7618, 50, 7618)",3,mbtiauth_4852
377,"(7618, 7618, 50)",3,mbtiauth_4852
378,"(7618, 7618, 7618)",2,mbtiauth_4852
379,"(8316, 398, 1076)",2,mbtiauth_4852
380,"(26177, 6, 274)",6,mbtiauth_4852
381,"(26177, 6, 3177)",5,mbtiauth_4852
382,"(26177, 6, 72857)",7,mbtiauth_4852
383,"(26177, 6, 72859)",7,mbtiauth_4852
384,"(26177, 274, 3177)",5,mbtiauth_4852
385,"(26177, 352, 6)",7,mbtiauth_4852
386,"(26177, 352, 274)",6,mbtiauth_4852
387,"(26177, 352, 3177)",5,mbtiauth_4852
388,"(26177, 352, 72857)",7,mbtiauth_4852
389,"(26177, 352, 72859)",7,mbtiauth_4852
390,"(26177, 72857, 274)",6,mbtiauth_4852
391,"(26177, 72857, 3177)",5,mbtiauth_4852
392,"(26177, 72857, 72859)",7,mbtiauth_4852
393,"(26177, 72859, 274)",6,mbtiauth_4852
394,"(26177, 72859, 3177)",5,mbtiauth_4852
395,"(72857, 274, 3177)",5,mbtiauth_4852
396,"(72857, 72859, 274)",6,mbtiauth_4852
397,"(72857, 72859, 3177)",5,mbtiauth_4852
398,"(72859, 274, 3177)",5,mbtiauth_4852
399,"(6, 72857, 274, 3177)",5,mbtiauth_4852
400,"(6, 72857, 72859, 274)",6,mbtiauth_4852
401,"(6, 72857, 72859, 3177)",5,mbtiauth_4852
402,"(6, 72859, 274, 3177)",5,mbtiauth_4852
403,"(50, 50, 50, 50)",4,mbtiauth_4852
404,"(50, 50, 50, 979)",2,mbtiauth_4852
405,"(50, 50, 50, 1022)",2,mbtiauth_4852
406,"(50, 50, 50, 7618)",2,mbtiauth_4852
407,"(50, 50, 387, 1024)",2,mbtiauth_4852
408,"(50, 50, 387, 7618)",2,mbtiauth_4852
409,"(50, 50, 979, 50)",3,mbtiauth_4852
410,"(50, 50, 979, 1022)",2,mbtiauth_4852
411,"(50, 50, 7618, 50)",3,mbtiauth_4852
412,"(50, 50, 7618, 1024)",2,mbtiauth_4852
413,"(50, 387, 50, 50)",2,mbtiauth_4852
414,"(50, 387, 7618, 1024)",2,mbtiauth_4852
415,"(50, 700, 50, 387)",2,mbtiauth_4852
416,"(50, 700, 50, 1024)",2,mbtiauth_4852
417,"(50, 700, 50, 7618)",2,mbtiauth_4852
418,"(50, 700, 387, 1024)",2,mbtiauth_4852
419,"(50, 700, 387, 7618)",2,mbtiauth_4852
420,"(50, 700, 7618, 1024)",2,mbtiauth_4852
421,"(50, 979, 50, 1022)",2,mbtiauth_4852
422,"(50, 2228, 50, 50)",2,mbtiauth_4852
423,"(50, 2228, 50, 979)",2,mbtiauth_4852
424,"(50, 2228, 979, 50)",2,mbtiauth_4852
425,"(50, 7618, 50, 50)",3,mbtiauth_4852
426,"(50, 7618, 50, 7618)",2,mbtiauth_4852
427,"(50, 7618, 7618, 50)",2,mbtiauth_4852
428,"(306, 387, 7618, 50)",2,mbtiauth_4852
429,"(352, 6, 274, 3177)",5,mbtiauth_4852
430,"(352, 6, 72857, 274)",6,mbtiauth_4852
431,"(352, 6, 72857, 3177)",5,mbtiauth_4852
432,"(352, 6, 72857, 72859)",7,mbtiauth_4852
433,"(352, 6, 72859, 274)",6,mbtiauth_4852
434,"(352, 6, 72859, 3177)",5,mbtiauth_4852
435,"(352, 1200, 54, 1039)",2,mbtiauth_4852
436,"(352, 72857, 274, 3177)",5,mbtiauth_4852
437,"(352, 72857, 72859, 274)",6,mbtiauth_4852
438,"(352, 72857, 72859, 3177)",5,mbtiauth_4852
439,"(352, 72859, 274, 3177)",5,mbtiauth_4852
440,"(387, 50, 50, 50)",2,mbtiauth_4852
441,"(387, 50, 50, 979)",2,mbtiauth_4852
442,"(387, 50, 50, 7618)",2,mbtiauth_4852
443,"(387, 50, 979, 50)",2,mbtiauth_4852
444,"(387, 50, 2228, 50)",2,mbtiauth_4852
445,"(387, 50, 2228, 979)",2,mbtiauth_4852
446,"(387, 2228, 50, 50)",2,mbtiauth_4852
447,"(387, 2228, 50, 979)",2,mbtiauth_4852
448,"(387, 2228, 979, 50)",2,mbtiauth_4852
449,"(387, 7618, 50, 48)",2,mbtiauth_4852
450,"(387, 7618, 50, 50)",3,mbtiauth_4852
451,"(387, 7618, 50, 7618)",2,mbtiauth_4852
452,"(700, 50, 387, 1024)",2,mbtiauth_4852
453,"(700, 50, 387, 7618)",2,mbtiauth_4852
454,"(700, 50, 7618, 1024)",2,mbtiauth_4852
455,"(700, 387, 7618, 1024)",2,mbtiauth_4852
456,"(2228, 50, 50, 50)",2,mbtiauth_4852
457,"(2228, 50, 50, 979)",2,mbtiauth_4852
458,"(2228, 50, 979, 50)",2,mbtiauth_4852
459,"(7618, 50, 50, 50)",2,mbtiauth_4852
460,"(7618, 50, 50, 7618)",3,mbtiauth_4852
461,"(7618, 50, 7618, 50)",3,mbtiauth_4852
462,"(7618, 50, 7618, 7618)",2,mbtiauth_4852
463,"(7618, 7618, 50, 50)",2,mbtiauth_4852
464,"(7618, 7618, 50, 7618)",2,mbtiauth_4852
465,"(7618, 7618, 7618, 50)",2,mbtiauth_4852
466,"(26177, 6, 274, 3177)",5,mbtiauth_4852
467,"(26177, 6, 72857, 274)",6,mbtiauth_4852
468,"(26177, 6, 72857, 3177)",5,mbtiauth_4852
469,"(26177, 6, 72857, 72859)",7,mbtiauth_4852
470,"(26177, 6, 72859, 274)",6,mbtiauth_4852
471,"(26177, 6, 72859, 3177)",5,mbtiauth_4852
472,"(26177, 352, 6, 274)",6,mbtiauth_4852
473,"(26177, 352, 6, 3177)",5,mbtiauth_4852
474,"(26177, 352, 6, 72857)",7,mbtiauth_4852
475,"(26177, 352, 6, 72859)",7,mbtiauth_4852
476,"(26177, 352, 274, 3177)",5,mbtiauth_4852
477,"(26177, 352, 72857, 274)",6,mbtiauth_4852
478,"(26177, 352, 72857, 3177)",5,mbtiauth_4852
479,"(26177, 352, 72857, 72859)",7,mbtiauth_4852
480,"(26177, 352, 72859, 274)",6,mbtiauth_4852
481,"(26177, 352, 72859, 3177)",5,mbtiauth_4852
482,"(26177, 72857, 274, 3177)",5,mbtiauth_4852
483,"(26177, 72857, 72859, 274)",6,mbtiauth_4852
484,"(26177, 72857, 72859, 3177)",5,mbtiauth_4852
485,"(26177, 72859, 274, 3177)",5,mbtiauth_4852
486,"(72857, 72859, 274, 3177)",5,mbtiauth_4852
487,"(6, 72857, 72859, 274, 3177)",5,mbtiauth_4852
488,"(50, 50, 50, 50, 50)",3,mbtiauth_4852
489,"(50, 50, 50, 979, 50)",2,mbtiauth_4852
490,"(50, 50, 50, 7618, 50)",2,mbtiauth_4852
491,"(50, 50, 387, 7618, 1024)",2,mbtiauth_4852
492,"(50, 50, 979, 50, 1022)",2,mbtiauth_4852
493,"(50, 700, 50, 387, 1024)",2,mbtiauth_4852
494,"(50, 700, 50, 387, 7618)",2,mbtiauth_4852
495,"(50, 700, 50, 7618, 1024)",2,mbtiauth_4852
496,"(50, 700, 387, 7618, 1024)",2,mbtiauth_4852
497,"(50, 2228, 50, 50, 50)",2,mbtiauth_4852
498,"(50, 2228, 50, 50, 979)",2,mbtiauth_4852
499,"(50, 2228, 50, 979, 50)",2,mbtiauth_4852
500,"(50, 7618, 50, 7618, 50)",2,mbtiauth_4852
501,"(352, 6, 72857, 274, 3177)",5,mbtiauth_4852
502,"(352, 6, 72857, 72859, 274)",6,mbtiauth_4852
503,"(352, 6, 72857, 72859, 3177)",5,mbtiauth_4852
504,"(352, 6, 72859, 274, 3177)",5,mbtiauth_4852
505,"(352, 72857, 72859, 274, 3177)",5,mbtiauth_4852
506,"(387, 50, 50, 50, 50)",2,mbtiauth_4852
507,"(387, 50, 50, 50, 979)",2,mbtiauth_4852
508,"(387, 50, 50, 979, 50)",2,mbtiauth_4852
509,"(387, 50, 2228, 50, 50)",2,mbtiauth_4852
510,"(387, 50, 2228, 50, 979)",2,mbtiauth_4852
511,"(387, 50, 2228, 979, 50)",2,mbtiauth_4852
512,"(387, 2228, 50, 50, 50)",2,mbtiauth_4852
513,"(387, 2228, 50, 50, 979)",2,mbtiauth_4852
514,"(387, 2228, 50, 979, 50)",2,mbtiauth_4852
515,"(387, 7618, 50, 50, 7618)",2,mbtiauth_4852
516,"(700, 50, 387, 7618, 1024)",2,mbtiauth_4852
517,"(2228, 50, 50, 50, 50)",2,mbtiauth_4852
518,"(2228, 50, 50, 979, 50)",2,mbtiauth_4852
519,"(7618, 50, 50, 50, 50)",2,mbtiauth_4852
520,"(7618, 50, 50, 50, 7618)",2,mbtiauth_4852
521,"(7618, 50, 50, 7618, 50)",2,mbtiauth_4852
522,"(7618, 50, 7618, 50, 50)",2,mbtiauth_4852
523,"(7618, 50, 7618, 50, 7618)",2,mbtiauth_4852
524,"(7618, 50, 7618, 7618, 50)",2,mbtiauth_4852
525,"(7618, 7618, 50, 7618, 50)",2,mbtiauth_4852
526,"(26177, 6, 72857, 274, 3177)",5,mbtiauth_4852
527,"(26177, 6, 72857, 72859, 274)",6,mbtiauth_4852
528,"(26177, 6, 72857, 72859, 3177)",5,mbtiauth_4852
529,"(26177, 6, 72859, 274, 3177)",5,mbtiauth_4852
530,"(26177, 352, 6, 274, 3177)",5,mbtiauth_4852
531,"(26177, 352, 6, 72857, 274)",6,mbtiauth_4852
532,"(26177, 352, 6, 72857, 3177)",5,mbtiauth_4852
533,"(26177, 352, 6, 72857, 72859)",7,mbtiauth_4852
534,"(26177, 352, 6, 72859, 274)",6,mbtiauth_4852
535,"(26177, 352, 6, 72859, 3177)",5,mbtiauth_4852
536,"(26177, 352, 72857, 274, 3177)",5,mbtiauth_4852
537,"(26177, 352, 72857, 72859, 274)",6,mbtiauth_4852
538,"(26177, 352, 72857, 72859, 3177)",5,mbtiauth_4852
539,"(26177, 352, 72859, 274, 3177)",5,mbtiauth_4852
540,"(26177, 72857, 72859, 274, 3177)",5,mbtiauth_4852
541,"(50, 50, 50, 50, 50, 50)",2,mbtiauth_4852
542,"(50, 700, 50, 387, 7618, 1024)",2,mbtiauth_4852
543,"(50, 2228, 50, 50, 979, 50)",2,mbtiauth_4852
544,"(352, 6, 72857, 72859, 274, 3177)",5,mbtiauth_4852
545,"(387, 50, 50, 50, 979, 50)",2,mbtiauth_4852
546,"(387, 50, 2228, 50, 50, 50)",2,mbtiauth_4852
547,"(387, 50, 2228, 50, 50, 979)",2,mbtiauth_4852
548,"(387, 50, 2228, 50, 979, 50)",2,mbtiauth_4852
549,"(387, 2228, 50, 50, 979, 50)",2,mbtiauth_4852
550,"(7618, 50, 50, 50, 7618, 50)",2,mbtiauth_4852
551,"(7618, 50, 7618, 50, 7618, 50)",2,mbtiauth_4852
552,"(26177, 6, 72857, 72859, 274, 3177)",5,mbtiauth_4852
553,"(26177, 352, 6, 72857, 274, 3177)",5,mbtiauth_4852
554,"(26177, 352, 6, 72857, 72859, 274)",6,mbtiauth_4852
555,"(26177, 352, 6, 72857, 72859, 3177)",5,mbtiauth_4852
556,"(26177, 352, 6, 72859, 274, 3177)",5,mbtiauth_4852
557,"(26177, 352, 72857, 72859, 274, 3177)",5,mbtiauth_4852
558,"(387, 50, 2228, 50, 50, 979, 50)",2,mbtiauth_4852
559,"(26177, 352, 6, 72857, 72859, 274, 3177)",5,mbtiauth_4852
