,pattern,sup,author
122,"(5, 5, 17)",3,mbtiauth_8649
123,"(5, 5, 18)",3,mbtiauth_8649
124,"(5, 17, 5)",3,mbtiauth_8649
125,"(5, 17, 17)",3,mbtiauth_8649
126,"(5, 17, 18)",3,mbtiauth_8649
127,"(5, 17, 48)",2,mbtiauth_8649
128,"(5, 17, 197)",2,mbtiauth_8649
129,"(5, 18, 5)",3,mbtiauth_8649
130,"(5, 18, 17)",7,mbtiauth_8649
131,"(5, 18, 18)",3,mbtiauth_8649
132,"(5, 18, 48)",2,mbtiauth_8649
133,"(5, 18, 197)",2,mbtiauth_8649
134,"(17, 5, 17)",3,mbtiauth_8649
135,"(17, 5, 18)",3,mbtiauth_8649
136,"(17, 18, 17)",3,mbtiauth_8649
137,"(18, 5, 17)",3,mbtiauth_8649
138,"(18, 5, 18)",3,mbtiauth_8649
139,"(18, 17, 5)",3,mbtiauth_8649
140,"(18, 17, 17)",3,mbtiauth_8649
141,"(18, 17, 18)",3,mbtiauth_8649
142,"(18, 17, 48)",2,mbtiauth_8649
143,"(18, 17, 197)",2,mbtiauth_8649
144,"(18, 18, 17)",3,mbtiauth_8649
145,"(42, 390, 49)",15,mbtiauth_8649
146,"(42, 390, 685)",15,mbtiauth_8649
147,"(42, 390, 1885)",15,mbtiauth_8649
148,"(42, 466, 49)",15,mbtiauth_8649
149,"(42, 466, 390)",15,mbtiauth_8649
150,"(42, 466, 685)",15,mbtiauth_8649
151,"(42, 466, 1885)",15,mbtiauth_8649
152,"(42, 685, 49)",15,mbtiauth_8649
153,"(42, 1885, 49)",15,mbtiauth_8649
154,"(42, 1885, 685)",15,mbtiauth_8649
155,"(48, 50, 50)",5,mbtiauth_8649
156,"(48, 50, 155)",2,mbtiauth_8649
157,"(48, 535, 50)",2,mbtiauth_8649
158,"(50, 48, 50)",2,mbtiauth_8649
159,"(50, 50, 50)",9,mbtiauth_8649
160,"(50, 50, 155)",2,mbtiauth_8649
161,"(50, 50, 894)",2,mbtiauth_8649
162,"(50, 164, 50)",2,mbtiauth_8649
163,"(50, 784, 50)",2,mbtiauth_8649
164,"(50, 894, 50)",2,mbtiauth_8649
165,"(50, 1377, 1377)",2,mbtiauth_8649
166,"(50, 1692, 849)",2,mbtiauth_8649
167,"(390, 685, 49)",15,mbtiauth_8649
168,"(390, 1885, 49)",15,mbtiauth_8649
169,"(390, 1885, 685)",15,mbtiauth_8649
170,"(466, 390, 49)",15,mbtiauth_8649
171,"(466, 390, 685)",15,mbtiauth_8649
172,"(466, 390, 1885)",15,mbtiauth_8649
173,"(466, 685, 49)",15,mbtiauth_8649
174,"(466, 1885, 49)",15,mbtiauth_8649
175,"(466, 1885, 685)",15,mbtiauth_8649
176,"(535, 50, 50)",2,mbtiauth_8649
177,"(982, 50, 50)",2,mbtiauth_8649
178,"(1885, 685, 49)",15,mbtiauth_8649
179,"(5, 5, 18, 17)",3,mbtiauth_8649
180,"(5, 17, 5, 17)",3,mbtiauth_8649
181,"(5, 17, 5, 18)",3,mbtiauth_8649
182,"(5, 17, 18, 17)",3,mbtiauth_8649
183,"(5, 18, 5, 17)",3,mbtiauth_8649
184,"(5, 18, 5, 18)",3,mbtiauth_8649
185,"(5, 18, 17, 5)",3,mbtiauth_8649
186,"(5, 18, 17, 17)",3,mbtiauth_8649
187,"(5, 18, 17, 18)",3,mbtiauth_8649
188,"(5, 18, 17, 48)",2,mbtiauth_8649
189,"(5, 18, 17, 197)",2,mbtiauth_8649
190,"(5, 18, 18, 17)",3,mbtiauth_8649
191,"(17, 5, 18, 17)",3,mbtiauth_8649
192,"(18, 5, 18, 17)",3,mbtiauth_8649
193,"(18, 17, 5, 17)",3,mbtiauth_8649
194,"(18, 17, 5, 18)",3,mbtiauth_8649
195,"(18, 17, 18, 17)",3,mbtiauth_8649
196,"(42, 390, 685, 49)",15,mbtiauth_8649
197,"(42, 390, 1885, 49)",15,mbtiauth_8649
198,"(42, 390, 1885, 685)",15,mbtiauth_8649
199,"(42, 466, 390, 49)",15,mbtiauth_8649
200,"(42, 466, 390, 685)",15,mbtiauth_8649
201,"(42, 466, 390, 1885)",15,mbtiauth_8649
202,"(42, 466, 685, 49)",15,mbtiauth_8649
203,"(42, 466, 1885, 49)",15,mbtiauth_8649
204,"(42, 466, 1885, 685)",15,mbtiauth_8649
205,"(42, 1885, 685, 49)",15,mbtiauth_8649
206,"(48, 50, 50, 50)",2,mbtiauth_8649
207,"(50, 50, 50, 50)",4,mbtiauth_8649
208,"(50, 50, 894, 50)",2,mbtiauth_8649
209,"(390, 1885, 685, 49)",15,mbtiauth_8649
210,"(466, 390, 685, 49)",15,mbtiauth_8649
211,"(466, 390, 1885, 49)",15,mbtiauth_8649
212,"(466, 390, 1885, 685)",15,mbtiauth_8649
213,"(466, 1885, 685, 49)",15,mbtiauth_8649
214,"(535, 50, 50, 50)",2,mbtiauth_8649
215,"(5, 17, 5, 18, 17)",3,mbtiauth_8649
216,"(5, 18, 5, 18, 17)",3,mbtiauth_8649
217,"(5, 18, 17, 5, 17)",3,mbtiauth_8649
218,"(5, 18, 17, 5, 18)",3,mbtiauth_8649
219,"(5, 18, 17, 18, 17)",3,mbtiauth_8649
220,"(18, 17, 5, 18, 17)",3,mbtiauth_8649
221,"(42, 390, 1885, 685, 49)",15,mbtiauth_8649
222,"(42, 466, 390, 685, 49)",15,mbtiauth_8649
223,"(42, 466, 390, 1885, 49)",15,mbtiauth_8649
224,"(42, 466, 390, 1885, 685)",15,mbtiauth_8649
225,"(42, 466, 1885, 685, 49)",15,mbtiauth_8649
226,"(50, 50, 50, 50, 50)",3,mbtiauth_8649
227,"(466, 390, 1885, 685, 49)",15,mbtiauth_8649
228,"(5, 18, 17, 5, 18, 17)",3,mbtiauth_8649
229,"(42, 466, 390, 1885, 685, 49)",15,mbtiauth_8649
230,"(50, 50, 50, 50, 50, 50)",2,mbtiauth_8649
