,pattern,sup,author
208,"(5, 17, 4385)",2,mbtiauth_7082
209,"(5, 17, 6674)",3,mbtiauth_7082
210,"(5, 18, 17)",4,mbtiauth_7082
211,"(5, 18, 48)",2,mbtiauth_7082
212,"(5, 18, 172)",3,mbtiauth_7082
213,"(5, 18, 306)",2,mbtiauth_7082
214,"(5, 18, 4385)",2,mbtiauth_7082
215,"(5, 18, 4500)",3,mbtiauth_7082
216,"(5, 18, 6674)",5,mbtiauth_7082
217,"(5, 18, 7696)",3,mbtiauth_7082
218,"(5, 18, 7801)",2,mbtiauth_7082
219,"(5, 18, 8263)",2,mbtiauth_7082
220,"(5, 4500, 172)",2,mbtiauth_7082
221,"(5, 4500, 6674)",2,mbtiauth_7082
222,"(5, 4500, 8263)",2,mbtiauth_7082
223,"(5, 6674, 48)",2,mbtiauth_7082
224,"(5, 6674, 172)",3,mbtiauth_7082
225,"(5, 6674, 4385)",2,mbtiauth_7082
226,"(5, 6674, 4500)",3,mbtiauth_7082
227,"(5, 6674, 6674)",3,mbtiauth_7082
228,"(5, 6674, 8263)",2,mbtiauth_7082
229,"(5, 7696, 172)",2,mbtiauth_7082
230,"(5, 7696, 4500)",3,mbtiauth_7082
231,"(5, 7696, 6674)",3,mbtiauth_7082
232,"(5, 7696, 7801)",2,mbtiauth_7082
233,"(5, 7696, 8263)",2,mbtiauth_7082
234,"(5, 7801, 172)",2,mbtiauth_7082
235,"(5, 7801, 4500)",2,mbtiauth_7082
236,"(5, 7801, 6674)",2,mbtiauth_7082
237,"(5, 7801, 8263)",2,mbtiauth_7082
238,"(5, 8263, 172)",2,mbtiauth_7082
239,"(5, 25752, 5)",2,mbtiauth_7082
240,"(17, 4385, 48)",2,mbtiauth_7082
241,"(17, 6674, 48)",2,mbtiauth_7082
242,"(17, 6674, 4385)",2,mbtiauth_7082
243,"(18, 17, 48)",2,mbtiauth_7082
244,"(18, 17, 4385)",2,mbtiauth_7082
245,"(18, 17, 6674)",3,mbtiauth_7082
246,"(18, 172, 48)",2,mbtiauth_7082
247,"(18, 4385, 48)",2,mbtiauth_7082
248,"(18, 4500, 172)",2,mbtiauth_7082
249,"(18, 4500, 6674)",2,mbtiauth_7082
250,"(18, 4500, 8263)",2,mbtiauth_7082
251,"(18, 6674, 48)",3,mbtiauth_7082
252,"(18, 6674, 172)",3,mbtiauth_7082
253,"(18, 6674, 4385)",2,mbtiauth_7082
254,"(18, 6674, 4500)",3,mbtiauth_7082
255,"(18, 6674, 6674)",3,mbtiauth_7082
256,"(18, 6674, 8263)",2,mbtiauth_7082
257,"(18, 7696, 172)",2,mbtiauth_7082
258,"(18, 7696, 4500)",3,mbtiauth_7082
259,"(18, 7696, 6674)",3,mbtiauth_7082
260,"(18, 7696, 7801)",2,mbtiauth_7082
261,"(18, 7696, 8263)",2,mbtiauth_7082
262,"(18, 7801, 172)",2,mbtiauth_7082
263,"(18, 7801, 4500)",2,mbtiauth_7082
264,"(18, 7801, 6674)",2,mbtiauth_7082
265,"(18, 7801, 8263)",2,mbtiauth_7082
266,"(18, 8263, 172)",2,mbtiauth_7082
267,"(167, 1987, 114)",2,mbtiauth_7082
268,"(172, 167, 114)",2,mbtiauth_7082
269,"(172, 167, 1987)",2,mbtiauth_7082
270,"(172, 1987, 114)",2,mbtiauth_7082
271,"(172, 5791, 114)",2,mbtiauth_7082
272,"(172, 5791, 167)",2,mbtiauth_7082
273,"(172, 5791, 1987)",2,mbtiauth_7082
274,"(361, 7, 48)",2,mbtiauth_7082
275,"(361, 7, 50)",2,mbtiauth_7082
276,"(361, 306, 50)",2,mbtiauth_7082
277,"(692, 101823, 5)",2,mbtiauth_7082
278,"(1036, 50, 50)",2,mbtiauth_7082
279,"(1036, 50, 752)",2,mbtiauth_7082
280,"(1692, 50, 50)",2,mbtiauth_7082
281,"(4500, 6674, 172)",2,mbtiauth_7082
282,"(4500, 6674, 8263)",2,mbtiauth_7082
283,"(4500, 8263, 172)",2,mbtiauth_7082
284,"(5791, 167, 114)",2,mbtiauth_7082
285,"(5791, 167, 1987)",2,mbtiauth_7082
286,"(5791, 1987, 114)",2,mbtiauth_7082
287,"(6674, 172, 48)",2,mbtiauth_7082
288,"(6674, 4385, 48)",2,mbtiauth_7082
289,"(6674, 4500, 172)",2,mbtiauth_7082
290,"(6674, 4500, 6674)",2,mbtiauth_7082
291,"(6674, 4500, 8263)",2,mbtiauth_7082
292,"(6674, 6674, 48)",3,mbtiauth_7082
293,"(6674, 6674, 172)",3,mbtiauth_7082
294,"(6674, 6674, 6674)",2,mbtiauth_7082
295,"(6674, 6674, 8263)",2,mbtiauth_7082
296,"(6674, 8263, 172)",2,mbtiauth_7082
297,"(7696, 4500, 172)",2,mbtiauth_7082
298,"(7696, 4500, 6674)",2,mbtiauth_7082
299,"(7696, 4500, 8263)",2,mbtiauth_7082
300,"(7696, 6674, 172)",2,mbtiauth_7082
301,"(7696, 6674, 4500)",3,mbtiauth_7082
302,"(7696, 6674, 6674)",2,mbtiauth_7082
303,"(7696, 6674, 8263)",2,mbtiauth_7082
304,"(7696, 7801, 172)",2,mbtiauth_7082
305,"(7696, 7801, 4500)",2,mbtiauth_7082
306,"(7696, 7801, 6674)",2,mbtiauth_7082
307,"(7696, 7801, 8263)",2,mbtiauth_7082
308,"(7696, 8263, 172)",2,mbtiauth_7082
309,"(7801, 4500, 172)",2,mbtiauth_7082
310,"(7801, 4500, 6674)",2,mbtiauth_7082
311,"(7801, 4500, 8263)",2,mbtiauth_7082
312,"(7801, 6674, 172)",2,mbtiauth_7082
313,"(7801, 6674, 4500)",2,mbtiauth_7082
314,"(7801, 6674, 6674)",2,mbtiauth_7082
315,"(7801, 6674, 8263)",2,mbtiauth_7082
316,"(7801, 8263, 172)",2,mbtiauth_7082
317,"(8156, 76, 25752)",2,mbtiauth_7082
318,"(9508, 19353, 50)",2,mbtiauth_7082
319,"(25752, 5, 5)",2,mbtiauth_7082
320,"(101823, 25752, 5)",2,mbtiauth_7082
321,"(5, 17, 6674, 4385)",2,mbtiauth_7082
322,"(5, 18, 17, 4385)",2,mbtiauth_7082
323,"(5, 18, 17, 6674)",3,mbtiauth_7082
324,"(5, 18, 4500, 172)",2,mbtiauth_7082
325,"(5, 18, 4500, 6674)",2,mbtiauth_7082
326,"(5, 18, 4500, 8263)",2,mbtiauth_7082
327,"(5, 18, 6674, 48)",2,mbtiauth_7082
328,"(5, 18, 6674, 172)",3,mbtiauth_7082
329,"(5, 18, 6674, 4385)",2,mbtiauth_7082
330,"(5, 18, 6674, 4500)",3,mbtiauth_7082
331,"(5, 18, 6674, 6674)",3,mbtiauth_7082
332,"(5, 18, 6674, 8263)",2,mbtiauth_7082
333,"(5, 18, 7696, 172)",2,mbtiauth_7082
334,"(5, 18, 7696, 4500)",3,mbtiauth_7082
335,"(5, 18, 7696, 6674)",3,mbtiauth_7082
336,"(5, 18, 7696, 7801)",2,mbtiauth_7082
337,"(5, 18, 7696, 8263)",2,mbtiauth_7082
338,"(5, 18, 7801, 172)",2,mbtiauth_7082
339,"(5, 18, 7801, 4500)",2,mbtiauth_7082
340,"(5, 18, 7801, 6674)",2,mbtiauth_7082
341,"(5, 18, 7801, 8263)",2,mbtiauth_7082
342,"(5, 18, 8263, 172)",2,mbtiauth_7082
343,"(5, 4500, 6674, 172)",2,mbtiauth_7082
344,"(5, 4500, 6674, 8263)",2,mbtiauth_7082
345,"(5, 4500, 8263, 172)",2,mbtiauth_7082
346,"(5, 6674, 4500, 172)",2,mbtiauth_7082
347,"(5, 6674, 4500, 6674)",2,mbtiauth_7082
348,"(5, 6674, 4500, 8263)",2,mbtiauth_7082
349,"(5, 6674, 6674, 172)",3,mbtiauth_7082
350,"(5, 6674, 6674, 6674)",2,mbtiauth_7082
351,"(5, 6674, 6674, 8263)",2,mbtiauth_7082
352,"(5, 6674, 8263, 172)",2,mbtiauth_7082
353,"(5, 7696, 4500, 172)",2,mbtiauth_7082
354,"(5, 7696, 4500, 6674)",2,mbtiauth_7082
355,"(5, 7696, 4500, 8263)",2,mbtiauth_7082
356,"(5, 7696, 6674, 172)",2,mbtiauth_7082
357,"(5, 7696, 6674, 4500)",3,mbtiauth_7082
358,"(5, 7696, 6674, 6674)",2,mbtiauth_7082
359,"(5, 7696, 6674, 8263)",2,mbtiauth_7082
360,"(5, 7696, 7801, 172)",2,mbtiauth_7082
361,"(5, 7696, 7801, 4500)",2,mbtiauth_7082
362,"(5, 7696, 7801, 6674)",2,mbtiauth_7082
363,"(5, 7696, 7801, 8263)",2,mbtiauth_7082
364,"(5, 7696, 8263, 172)",2,mbtiauth_7082
365,"(5, 7801, 4500, 172)",2,mbtiauth_7082
366,"(5, 7801, 4500, 6674)",2,mbtiauth_7082
367,"(5, 7801, 4500, 8263)",2,mbtiauth_7082
368,"(5, 7801, 6674, 172)",2,mbtiauth_7082
369,"(5, 7801, 6674, 4500)",2,mbtiauth_7082
370,"(5, 7801, 6674, 6674)",2,mbtiauth_7082
371,"(5, 7801, 6674, 8263)",2,mbtiauth_7082
372,"(5, 7801, 8263, 172)",2,mbtiauth_7082
373,"(17, 6674, 4385, 48)",2,mbtiauth_7082
374,"(18, 17, 4385, 48)",2,mbtiauth_7082
375,"(18, 17, 6674, 48)",2,mbtiauth_7082
376,"(18, 17, 6674, 4385)",2,mbtiauth_7082
377,"(18, 4500, 6674, 172)",2,mbtiauth_7082
378,"(18, 4500, 6674, 8263)",2,mbtiauth_7082
379,"(18, 4500, 8263, 172)",2,mbtiauth_7082
380,"(18, 6674, 172, 48)",2,mbtiauth_7082
381,"(18, 6674, 4385, 48)",2,mbtiauth_7082
382,"(18, 6674, 4500, 172)",2,mbtiauth_7082
383,"(18, 6674, 4500, 6674)",2,mbtiauth_7082
384,"(18, 6674, 4500, 8263)",2,mbtiauth_7082
385,"(18, 6674, 6674, 48)",2,mbtiauth_7082
386,"(18, 6674, 6674, 172)",3,mbtiauth_7082
387,"(18, 6674, 6674, 6674)",2,mbtiauth_7082
388,"(18, 6674, 6674, 8263)",2,mbtiauth_7082
389,"(18, 6674, 8263, 172)",2,mbtiauth_7082
390,"(18, 7696, 4500, 172)",2,mbtiauth_7082
391,"(18, 7696, 4500, 6674)",2,mbtiauth_7082
392,"(18, 7696, 4500, 8263)",2,mbtiauth_7082
393,"(18, 7696, 6674, 172)",2,mbtiauth_7082
394,"(18, 7696, 6674, 4500)",3,mbtiauth_7082
395,"(18, 7696, 6674, 6674)",2,mbtiauth_7082
396,"(18, 7696, 6674, 8263)",2,mbtiauth_7082
397,"(18, 7696, 7801, 172)",2,mbtiauth_7082
398,"(18, 7696, 7801, 4500)",2,mbtiauth_7082
399,"(18, 7696, 7801, 6674)",2,mbtiauth_7082
400,"(18, 7696, 7801, 8263)",2,mbtiauth_7082
401,"(18, 7696, 8263, 172)",2,mbtiauth_7082
402,"(18, 7801, 4500, 172)",2,mbtiauth_7082
403,"(18, 7801, 4500, 6674)",2,mbtiauth_7082
404,"(18, 7801, 4500, 8263)",2,mbtiauth_7082
405,"(18, 7801, 6674, 172)",2,mbtiauth_7082
406,"(18, 7801, 6674, 4500)",2,mbtiauth_7082
407,"(18, 7801, 6674, 6674)",2,mbtiauth_7082
408,"(18, 7801, 6674, 8263)",2,mbtiauth_7082
409,"(18, 7801, 8263, 172)",2,mbtiauth_7082
410,"(172, 167, 1987, 114)",2,mbtiauth_7082
411,"(172, 5791, 167, 114)",2,mbtiauth_7082
412,"(172, 5791, 167, 1987)",2,mbtiauth_7082
413,"(172, 5791, 1987, 114)",2,mbtiauth_7082
414,"(4500, 6674, 8263, 172)",2,mbtiauth_7082
415,"(5791, 167, 1987, 114)",2,mbtiauth_7082
416,"(6674, 4500, 6674, 172)",2,mbtiauth_7082
417,"(6674, 4500, 6674, 8263)",2,mbtiauth_7082
418,"(6674, 4500, 8263, 172)",2,mbtiauth_7082
419,"(6674, 6674, 172, 48)",2,mbtiauth_7082
420,"(6674, 6674, 6674, 48)",2,mbtiauth_7082
421,"(6674, 6674, 8263, 172)",2,mbtiauth_7082
422,"(7696, 4500, 6674, 172)",2,mbtiauth_7082
423,"(7696, 4500, 6674, 8263)",2,mbtiauth_7082
424,"(7696, 4500, 8263, 172)",2,mbtiauth_7082
425,"(7696, 6674, 4500, 172)",2,mbtiauth_7082
426,"(7696, 6674, 4500, 6674)",2,mbtiauth_7082
427,"(7696, 6674, 4500, 8263)",2,mbtiauth_7082
428,"(7696, 6674, 6674, 172)",2,mbtiauth_7082
429,"(7696, 6674, 6674, 8263)",2,mbtiauth_7082
430,"(7696, 6674, 8263, 172)",2,mbtiauth_7082
431,"(7696, 7801, 4500, 172)",2,mbtiauth_7082
432,"(7696, 7801, 4500, 6674)",2,mbtiauth_7082
433,"(7696, 7801, 4500, 8263)",2,mbtiauth_7082
434,"(7696, 7801, 6674, 172)",2,mbtiauth_7082
435,"(7696, 7801, 6674, 4500)",2,mbtiauth_7082
436,"(7696, 7801, 6674, 6674)",2,mbtiauth_7082
437,"(7696, 7801, 6674, 8263)",2,mbtiauth_7082
438,"(7696, 7801, 8263, 172)",2,mbtiauth_7082
439,"(7801, 4500, 6674, 172)",2,mbtiauth_7082
440,"(7801, 4500, 6674, 8263)",2,mbtiauth_7082
441,"(7801, 4500, 8263, 172)",2,mbtiauth_7082
442,"(7801, 6674, 4500, 172)",2,mbtiauth_7082
443,"(7801, 6674, 4500, 6674)",2,mbtiauth_7082
444,"(7801, 6674, 4500, 8263)",2,mbtiauth_7082
445,"(7801, 6674, 6674, 172)",2,mbtiauth_7082
446,"(7801, 6674, 6674, 8263)",2,mbtiauth_7082
447,"(7801, 6674, 8263, 172)",2,mbtiauth_7082
448,"(5, 18, 17, 6674, 4385)",2,mbtiauth_7082
449,"(5, 18, 4500, 6674, 172)",2,mbtiauth_7082
450,"(5, 18, 4500, 6674, 8263)",2,mbtiauth_7082
451,"(5, 18, 4500, 8263, 172)",2,mbtiauth_7082
452,"(5, 18, 6674, 4500, 172)",2,mbtiauth_7082
453,"(5, 18, 6674, 4500, 6674)",2,mbtiauth_7082
454,"(5, 18, 6674, 4500, 8263)",2,mbtiauth_7082
455,"(5, 18, 6674, 6674, 172)",3,mbtiauth_7082
456,"(5, 18, 6674, 6674, 6674)",2,mbtiauth_7082
457,"(5, 18, 6674, 6674, 8263)",2,mbtiauth_7082
458,"(5, 18, 6674, 8263, 172)",2,mbtiauth_7082
459,"(5, 18, 7696, 4500, 172)",2,mbtiauth_7082
460,"(5, 18, 7696, 4500, 6674)",2,mbtiauth_7082
461,"(5, 18, 7696, 4500, 8263)",2,mbtiauth_7082
462,"(5, 18, 7696, 6674, 172)",2,mbtiauth_7082
463,"(5, 18, 7696, 6674, 4500)",3,mbtiauth_7082
464,"(5, 18, 7696, 6674, 6674)",2,mbtiauth_7082
465,"(5, 18, 7696, 6674, 8263)",2,mbtiauth_7082
466,"(5, 18, 7696, 7801, 172)",2,mbtiauth_7082
467,"(5, 18, 7696, 7801, 4500)",2,mbtiauth_7082
468,"(5, 18, 7696, 7801, 6674)",2,mbtiauth_7082
469,"(5, 18, 7696, 7801, 8263)",2,mbtiauth_7082
470,"(5, 18, 7696, 8263, 172)",2,mbtiauth_7082
471,"(5, 18, 7801, 4500, 172)",2,mbtiauth_7082
472,"(5, 18, 7801, 4500, 6674)",2,mbtiauth_7082
473,"(5, 18, 7801, 4500, 8263)",2,mbtiauth_7082
474,"(5, 18, 7801, 6674, 172)",2,mbtiauth_7082
475,"(5, 18, 7801, 6674, 4500)",2,mbtiauth_7082
476,"(5, 18, 7801, 6674, 6674)",2,mbtiauth_7082
477,"(5, 18, 7801, 6674, 8263)",2,mbtiauth_7082
478,"(5, 18, 7801, 8263, 172)",2,mbtiauth_7082
479,"(5, 4500, 6674, 8263, 172)",2,mbtiauth_7082
480,"(5, 6674, 4500, 6674, 172)",2,mbtiauth_7082
481,"(5, 6674, 4500, 6674, 8263)",2,mbtiauth_7082
482,"(5, 6674, 4500, 8263, 172)",2,mbtiauth_7082
483,"(5, 6674, 6674, 8263, 172)",2,mbtiauth_7082
484,"(5, 7696, 4500, 6674, 172)",2,mbtiauth_7082
485,"(5, 7696, 4500, 6674, 8263)",2,mbtiauth_7082
486,"(5, 7696, 4500, 8263, 172)",2,mbtiauth_7082
487,"(5, 7696, 6674, 4500, 172)",2,mbtiauth_7082
488,"(5, 7696, 6674, 4500, 6674)",2,mbtiauth_7082
489,"(5, 7696, 6674, 4500, 8263)",2,mbtiauth_7082
490,"(5, 7696, 6674, 6674, 172)",2,mbtiauth_7082
491,"(5, 7696, 6674, 6674, 8263)",2,mbtiauth_7082
492,"(5, 7696, 6674, 8263, 172)",2,mbtiauth_7082
493,"(5, 7696, 7801, 4500, 172)",2,mbtiauth_7082
494,"(5, 7696, 7801, 4500, 6674)",2,mbtiauth_7082
495,"(5, 7696, 7801, 4500, 8263)",2,mbtiauth_7082
496,"(5, 7696, 7801, 6674, 172)",2,mbtiauth_7082
497,"(5, 7696, 7801, 6674, 4500)",2,mbtiauth_7082
498,"(5, 7696, 7801, 6674, 6674)",2,mbtiauth_7082
499,"(5, 7696, 7801, 6674, 8263)",2,mbtiauth_7082
500,"(5, 7696, 7801, 8263, 172)",2,mbtiauth_7082
501,"(5, 7801, 4500, 6674, 172)",2,mbtiauth_7082
502,"(5, 7801, 4500, 6674, 8263)",2,mbtiauth_7082
503,"(5, 7801, 4500, 8263, 172)",2,mbtiauth_7082
504,"(5, 7801, 6674, 4500, 172)",2,mbtiauth_7082
505,"(5, 7801, 6674, 4500, 6674)",2,mbtiauth_7082
506,"(5, 7801, 6674, 4500, 8263)",2,mbtiauth_7082
507,"(5, 7801, 6674, 6674, 172)",2,mbtiauth_7082
508,"(5, 7801, 6674, 6674, 8263)",2,mbtiauth_7082
509,"(5, 7801, 6674, 8263, 172)",2,mbtiauth_7082
510,"(18, 17, 6674, 4385, 48)",2,mbtiauth_7082
511,"(18, 4500, 6674, 8263, 172)",2,mbtiauth_7082
512,"(18, 6674, 4500, 6674, 172)",2,mbtiauth_7082
513,"(18, 6674, 4500, 6674, 8263)",2,mbtiauth_7082
514,"(18, 6674, 4500, 8263, 172)",2,mbtiauth_7082
515,"(18, 6674, 6674, 172, 48)",2,mbtiauth_7082
516,"(18, 6674, 6674, 6674, 48)",2,mbtiauth_7082
517,"(18, 6674, 6674, 8263, 172)",2,mbtiauth_7082
518,"(18, 7696, 4500, 6674, 172)",2,mbtiauth_7082
519,"(18, 7696, 4500, 6674, 8263)",2,mbtiauth_7082
520,"(18, 7696, 4500, 8263, 172)",2,mbtiauth_7082
521,"(18, 7696, 6674, 4500, 172)",2,mbtiauth_7082
522,"(18, 7696, 6674, 4500, 6674)",2,mbtiauth_7082
523,"(18, 7696, 6674, 4500, 8263)",2,mbtiauth_7082
524,"(18, 7696, 6674, 6674, 172)",2,mbtiauth_7082
525,"(18, 7696, 6674, 6674, 8263)",2,mbtiauth_7082
526,"(18, 7696, 6674, 8263, 172)",2,mbtiauth_7082
527,"(18, 7696, 7801, 4500, 172)",2,mbtiauth_7082
528,"(18, 7696, 7801, 4500, 6674)",2,mbtiauth_7082
529,"(18, 7696, 7801, 4500, 8263)",2,mbtiauth_7082
530,"(18, 7696, 7801, 6674, 172)",2,mbtiauth_7082
531,"(18, 7696, 7801, 6674, 4500)",2,mbtiauth_7082
532,"(18, 7696, 7801, 6674, 6674)",2,mbtiauth_7082
533,"(18, 7696, 7801, 6674, 8263)",2,mbtiauth_7082
534,"(18, 7696, 7801, 8263, 172)",2,mbtiauth_7082
535,"(18, 7801, 4500, 6674, 172)",2,mbtiauth_7082
536,"(18, 7801, 4500, 6674, 8263)",2,mbtiauth_7082
537,"(18, 7801, 4500, 8263, 172)",2,mbtiauth_7082
538,"(18, 7801, 6674, 4500, 172)",2,mbtiauth_7082
539,"(18, 7801, 6674, 4500, 6674)",2,mbtiauth_7082
540,"(18, 7801, 6674, 4500, 8263)",2,mbtiauth_7082
541,"(18, 7801, 6674, 6674, 172)",2,mbtiauth_7082
542,"(18, 7801, 6674, 6674, 8263)",2,mbtiauth_7082
543,"(18, 7801, 6674, 8263, 172)",2,mbtiauth_7082
544,"(172, 5791, 167, 1987, 114)",2,mbtiauth_7082
545,"(6674, 4500, 6674, 8263, 172)",2,mbtiauth_7082
546,"(7696, 4500, 6674, 8263, 172)",2,mbtiauth_7082
547,"(7696, 6674, 4500, 6674, 172)",2,mbtiauth_7082
548,"(7696, 6674, 4500, 6674, 8263)",2,mbtiauth_7082
549,"(7696, 6674, 4500, 8263, 172)",2,mbtiauth_7082
550,"(7696, 6674, 6674, 8263, 172)",2,mbtiauth_7082
551,"(7696, 7801, 4500, 6674, 172)",2,mbtiauth_7082
552,"(7696, 7801, 4500, 6674, 8263)",2,mbtiauth_7082
553,"(7696, 7801, 4500, 8263, 172)",2,mbtiauth_7082
554,"(7696, 7801, 6674, 4500, 172)",2,mbtiauth_7082
555,"(7696, 7801, 6674, 4500, 6674)",2,mbtiauth_7082
556,"(7696, 7801, 6674, 4500, 8263)",2,mbtiauth_7082
557,"(7696, 7801, 6674, 6674, 172)",2,mbtiauth_7082
558,"(7696, 7801, 6674, 6674, 8263)",2,mbtiauth_7082
559,"(7696, 7801, 6674, 8263, 172)",2,mbtiauth_7082
560,"(7801, 4500, 6674, 8263, 172)",2,mbtiauth_7082
561,"(7801, 6674, 4500, 6674, 172)",2,mbtiauth_7082
562,"(7801, 6674, 4500, 6674, 8263)",2,mbtiauth_7082
563,"(7801, 6674, 4500, 8263, 172)",2,mbtiauth_7082
564,"(7801, 6674, 6674, 8263, 172)",2,mbtiauth_7082
565,"(5, 18, 4500, 6674, 8263, 172)",2,mbtiauth_7082
566,"(5, 18, 6674, 4500, 6674, 172)",2,mbtiauth_7082
567,"(5, 18, 6674, 4500, 6674, 8263)",2,mbtiauth_7082
568,"(5, 18, 6674, 4500, 8263, 172)",2,mbtiauth_7082
569,"(5, 18, 6674, 6674, 8263, 172)",2,mbtiauth_7082
570,"(5, 18, 7696, 4500, 6674, 172)",2,mbtiauth_7082
571,"(5, 18, 7696, 4500, 6674, 8263)",2,mbtiauth_7082
572,"(5, 18, 7696, 4500, 8263, 172)",2,mbtiauth_7082
573,"(5, 18, 7696, 6674, 4500, 172)",2,mbtiauth_7082
574,"(5, 18, 7696, 6674, 4500, 6674)",2,mbtiauth_7082
575,"(5, 18, 7696, 6674, 4500, 8263)",2,mbtiauth_7082
576,"(5, 18, 7696, 6674, 6674, 172)",2,mbtiauth_7082
577,"(5, 18, 7696, 6674, 6674, 8263)",2,mbtiauth_7082
578,"(5, 18, 7696, 6674, 8263, 172)",2,mbtiauth_7082
579,"(5, 18, 7696, 7801, 4500, 172)",2,mbtiauth_7082
580,"(5, 18, 7696, 7801, 4500, 6674)",2,mbtiauth_7082
581,"(5, 18, 7696, 7801, 4500, 8263)",2,mbtiauth_7082
582,"(5, 18, 7696, 7801, 6674, 172)",2,mbtiauth_7082
583,"(5, 18, 7696, 7801, 6674, 4500)",2,mbtiauth_7082
584,"(5, 18, 7696, 7801, 6674, 6674)",2,mbtiauth_7082
585,"(5, 18, 7696, 7801, 6674, 8263)",2,mbtiauth_7082
586,"(5, 18, 7696, 7801, 8263, 172)",2,mbtiauth_7082
587,"(5, 18, 7801, 4500, 6674, 172)",2,mbtiauth_7082
588,"(5, 18, 7801, 4500, 6674, 8263)",2,mbtiauth_7082
589,"(5, 18, 7801, 4500, 8263, 172)",2,mbtiauth_7082
590,"(5, 18, 7801, 6674, 4500, 172)",2,mbtiauth_7082
591,"(5, 18, 7801, 6674, 4500, 6674)",2,mbtiauth_7082
592,"(5, 18, 7801, 6674, 4500, 8263)",2,mbtiauth_7082
593,"(5, 18, 7801, 6674, 6674, 172)",2,mbtiauth_7082
594,"(5, 18, 7801, 6674, 6674, 8263)",2,mbtiauth_7082
595,"(5, 18, 7801, 6674, 8263, 172)",2,mbtiauth_7082
596,"(5, 6674, 4500, 6674, 8263, 172)",2,mbtiauth_7082
597,"(5, 7696, 4500, 6674, 8263, 172)",2,mbtiauth_7082
598,"(5, 7696, 6674, 4500, 6674, 172)",2,mbtiauth_7082
599,"(5, 7696, 6674, 4500, 6674, 8263)",2,mbtiauth_7082
600,"(5, 7696, 6674, 4500, 8263, 172)",2,mbtiauth_7082
601,"(5, 7696, 6674, 6674, 8263, 172)",2,mbtiauth_7082
602,"(5, 7696, 7801, 4500, 6674, 172)",2,mbtiauth_7082
603,"(5, 7696, 7801, 4500, 6674, 8263)",2,mbtiauth_7082
604,"(5, 7696, 7801, 4500, 8263, 172)",2,mbtiauth_7082
605,"(5, 7696, 7801, 6674, 4500, 172)",2,mbtiauth_7082
606,"(5, 7696, 7801, 6674, 4500, 6674)",2,mbtiauth_7082
607,"(5, 7696, 7801, 6674, 4500, 8263)",2,mbtiauth_7082
608,"(5, 7696, 7801, 6674, 6674, 172)",2,mbtiauth_7082
609,"(5, 7696, 7801, 6674, 6674, 8263)",2,mbtiauth_7082
610,"(5, 7696, 7801, 6674, 8263, 172)",2,mbtiauth_7082
611,"(5, 7801, 4500, 6674, 8263, 172)",2,mbtiauth_7082
612,"(5, 7801, 6674, 4500, 6674, 172)",2,mbtiauth_7082
613,"(5, 7801, 6674, 4500, 6674, 8263)",2,mbtiauth_7082
614,"(5, 7801, 6674, 4500, 8263, 172)",2,mbtiauth_7082
615,"(5, 7801, 6674, 6674, 8263, 172)",2,mbtiauth_7082
616,"(18, 6674, 4500, 6674, 8263, 172)",2,mbtiauth_7082
617,"(18, 7696, 4500, 6674, 8263, 172)",2,mbtiauth_7082
618,"(18, 7696, 6674, 4500, 6674, 172)",2,mbtiauth_7082
619,"(18, 7696, 6674, 4500, 6674, 8263)",2,mbtiauth_7082
620,"(18, 7696, 6674, 4500, 8263, 172)",2,mbtiauth_7082
621,"(18, 7696, 6674, 6674, 8263, 172)",2,mbtiauth_7082
622,"(18, 7696, 7801, 4500, 6674, 172)",2,mbtiauth_7082
623,"(18, 7696, 7801, 4500, 6674, 8263)",2,mbtiauth_7082
624,"(18, 7696, 7801, 4500, 8263, 172)",2,mbtiauth_7082
625,"(18, 7696, 7801, 6674, 4500, 172)",2,mbtiauth_7082
626,"(18, 7696, 7801, 6674, 4500, 6674)",2,mbtiauth_7082
627,"(18, 7696, 7801, 6674, 4500, 8263)",2,mbtiauth_7082
628,"(18, 7696, 7801, 6674, 6674, 172)",2,mbtiauth_7082
629,"(18, 7696, 7801, 6674, 6674, 8263)",2,mbtiauth_7082
630,"(18, 7696, 7801, 6674, 8263, 172)",2,mbtiauth_7082
631,"(18, 7801, 4500, 6674, 8263, 172)",2,mbtiauth_7082
632,"(18, 7801, 6674, 4500, 6674, 172)",2,mbtiauth_7082
633,"(18, 7801, 6674, 4500, 6674, 8263)",2,mbtiauth_7082
634,"(18, 7801, 6674, 4500, 8263, 172)",2,mbtiauth_7082
635,"(18, 7801, 6674, 6674, 8263, 172)",2,mbtiauth_7082
636,"(7696, 6674, 4500, 6674, 8263, 172)",2,mbtiauth_7082
637,"(7696, 7801, 4500, 6674, 8263, 172)",2,mbtiauth_7082
638,"(7696, 7801, 6674, 4500, 6674, 172)",2,mbtiauth_7082
639,"(7696, 7801, 6674, 4500, 6674, 8263)",2,mbtiauth_7082
640,"(7696, 7801, 6674, 4500, 8263, 172)",2,mbtiauth_7082
641,"(7696, 7801, 6674, 6674, 8263, 172)",2,mbtiauth_7082
642,"(7801, 6674, 4500, 6674, 8263, 172)",2,mbtiauth_7082
643,"(5, 18, 6674, 4500, 6674, 8263, 172)",2,mbtiauth_7082
644,"(5, 18, 7696, 4500, 6674, 8263, 172)",2,mbtiauth_7082
645,"(5, 18, 7696, 6674, 4500, 6674, 172)",2,mbtiauth_7082
646,"(5, 18, 7696, 6674, 4500, 6674, 8263)",2,mbtiauth_7082
647,"(5, 18, 7696, 6674, 4500, 8263, 172)",2,mbtiauth_7082
648,"(5, 18, 7696, 6674, 6674, 8263, 172)",2,mbtiauth_7082
649,"(5, 18, 7696, 7801, 4500, 6674, 172)",2,mbtiauth_7082
650,"(5, 18, 7696, 7801, 4500, 6674, 8263)",2,mbtiauth_7082
651,"(5, 18, 7696, 7801, 4500, 8263, 172)",2,mbtiauth_7082
652,"(5, 18, 7696, 7801, 6674, 4500, 172)",2,mbtiauth_7082
653,"(5, 18, 7696, 7801, 6674, 4500, 6674)",2,mbtiauth_7082
654,"(5, 18, 7696, 7801, 6674, 4500, 8263)",2,mbtiauth_7082
655,"(5, 18, 7696, 7801, 6674, 6674, 172)",2,mbtiauth_7082
656,"(5, 18, 7696, 7801, 6674, 6674, 8263)",2,mbtiauth_7082
657,"(5, 18, 7696, 7801, 6674, 8263, 172)",2,mbtiauth_7082
658,"(5, 18, 7801, 4500, 6674, 8263, 172)",2,mbtiauth_7082
659,"(5, 18, 7801, 6674, 4500, 6674, 172)",2,mbtiauth_7082
660,"(5, 18, 7801, 6674, 4500, 6674, 8263)",2,mbtiauth_7082
661,"(5, 18, 7801, 6674, 4500, 8263, 172)",2,mbtiauth_7082
662,"(5, 18, 7801, 6674, 6674, 8263, 172)",2,mbtiauth_7082
663,"(5, 7696, 6674, 4500, 6674, 8263, 172)",2,mbtiauth_7082
664,"(5, 7696, 7801, 4500, 6674, 8263, 172)",2,mbtiauth_7082
665,"(5, 7696, 7801, 6674, 4500, 6674, 172)",2,mbtiauth_7082
666,"(5, 7696, 7801, 6674, 4500, 6674, 8263)",2,mbtiauth_7082
667,"(5, 7696, 7801, 6674, 4500, 8263, 172)",2,mbtiauth_7082
668,"(5, 7696, 7801, 6674, 6674, 8263, 172)",2,mbtiauth_7082
669,"(5, 7801, 6674, 4500, 6674, 8263, 172)",2,mbtiauth_7082
670,"(18, 7696, 6674, 4500, 6674, 8263, 172)",2,mbtiauth_7082
671,"(18, 7696, 7801, 4500, 6674, 8263, 172)",2,mbtiauth_7082
672,"(18, 7696, 7801, 6674, 4500, 6674, 172)",2,mbtiauth_7082
673,"(18, 7696, 7801, 6674, 4500, 6674, 8263)",2,mbtiauth_7082
674,"(18, 7696, 7801, 6674, 4500, 8263, 172)",2,mbtiauth_7082
675,"(18, 7696, 7801, 6674, 6674, 8263, 172)",2,mbtiauth_7082
676,"(18, 7801, 6674, 4500, 6674, 8263, 172)",2,mbtiauth_7082
677,"(7696, 7801, 6674, 4500, 6674, 8263, 172)",2,mbtiauth_7082
678,"(5, 18, 7696, 6674, 4500, 6674, 8263, 172)",2,mbtiauth_7082
679,"(5, 18, 7696, 7801, 4500, 6674, 8263, 172)",2,mbtiauth_7082
680,"(5, 18, 7696, 7801, 6674, 4500, 6674, 172)",2,mbtiauth_7082
681,"(5, 18, 7696, 7801, 6674, 4500, 6674, 8263)",2,mbtiauth_7082
682,"(5, 18, 7696, 7801, 6674, 4500, 8263, 172)",2,mbtiauth_7082
683,"(5, 18, 7696, 7801, 6674, 6674, 8263, 172)",2,mbtiauth_7082
684,"(5, 18, 7801, 6674, 4500, 6674, 8263, 172)",2,mbtiauth_7082
685,"(5, 7696, 7801, 6674, 4500, 6674, 8263, 172)",2,mbtiauth_7082
686,"(18, 7696, 7801, 6674, 4500, 6674, 8263, 172)",2,mbtiauth_7082
687,"(5, 18, 7696, 7801, 6674, 4500, 6674, 8263, 172)",2,mbtiauth_7082
