,pattern,sup,author
146,"(6, 18, 17)",2,mbtiauth_784
147,"(50, 9, 785)",2,mbtiauth_784
148,"(50, 50, 9)",2,mbtiauth_784
149,"(50, 50, 30)",2,mbtiauth_784
150,"(50, 50, 48)",3,mbtiauth_784
151,"(50, 50, 50)",5,mbtiauth_784
152,"(50, 50, 1538)",2,mbtiauth_784
153,"(50, 1387, 50)",2,mbtiauth_784
154,"(54, 50, 1455)",2,mbtiauth_784
155,"(117, 50, 48)",2,mbtiauth_784
156,"(520, 299, 50)",2,mbtiauth_784
157,"(520, 299, 9309)",2,mbtiauth_784
158,"(2705, 50, 50)",2,mbtiauth_784
159,"(2705, 50, 1387)",2,mbtiauth_784
160,"(2705, 1387, 50)",2,mbtiauth_784
161,"(2705, 50, 1387, 50)",2,mbtiauth_784
