,pattern,sup,author
224,"(5, 18, 17)",2,mbtiauth_3889
225,"(29, 50, 255)",2,mbtiauth_3889
226,"(33, 50, 48)",2,mbtiauth_3889
227,"(48, 50, 50)",2,mbtiauth_3889
228,"(48, 884, 1585)",2,mbtiauth_3889
229,"(49, 9, 50)",2,mbtiauth_3889
230,"(49, 50, 50)",2,mbtiauth_3889
231,"(49, 50, 155)",2,mbtiauth_3889
232,"(49, 155, 50)",2,mbtiauth_3889
233,"(50, 48, 50)",3,mbtiauth_3889
234,"(50, 50, 48)",2,mbtiauth_3889
235,"(50, 50, 50)",7,mbtiauth_3889
236,"(50, 50, 148)",2,mbtiauth_3889
237,"(50, 50, 255)",3,mbtiauth_3889
238,"(50, 50, 262)",2,mbtiauth_3889
239,"(50, 50, 1166)",2,mbtiauth_3889
240,"(50, 155, 50)",2,mbtiauth_3889
241,"(50, 155, 155)",2,mbtiauth_3889
242,"(50, 255, 48)",2,mbtiauth_3889
243,"(50, 255, 50)",2,mbtiauth_3889
244,"(50, 262, 50)",3,mbtiauth_3889
245,"(50, 262, 993)",2,mbtiauth_3889
246,"(50, 494, 50)",2,mbtiauth_3889
247,"(50, 1024, 30)",2,mbtiauth_3889
248,"(50, 1156, 50)",2,mbtiauth_3889
249,"(50, 7896, 50)",2,mbtiauth_3889
250,"(53, 49, 50)",3,mbtiauth_3889
251,"(53, 49, 155)",2,mbtiauth_3889
252,"(53, 50, 50)",3,mbtiauth_3889
253,"(53, 50, 155)",2,mbtiauth_3889
254,"(53, 155, 50)",2,mbtiauth_3889
255,"(148, 49, 50)",2,mbtiauth_3889
256,"(255, 50, 255)",2,mbtiauth_3889
257,"(255, 1156, 50)",2,mbtiauth_3889
258,"(262, 50, 50)",3,mbtiauth_3889
259,"(262, 50, 262)",3,mbtiauth_3889
260,"(262, 50, 993)",2,mbtiauth_3889
261,"(262, 50, 7896)",2,mbtiauth_3889
262,"(262, 262, 50)",2,mbtiauth_3889
263,"(262, 262, 993)",2,mbtiauth_3889
264,"(262, 1039, 50)",2,mbtiauth_3889
265,"(262, 1039, 7896)",2,mbtiauth_3889
266,"(262, 7896, 50)",2,mbtiauth_3889
267,"(287, 50, 1024)",2,mbtiauth_3889
268,"(595, 1591, 19)",2,mbtiauth_3889
269,"(1039, 7896, 50)",2,mbtiauth_3889
270,"(49, 50, 155, 50)",2,mbtiauth_3889
271,"(50, 50, 50, 255)",2,mbtiauth_3889
272,"(53, 49, 50, 50)",2,mbtiauth_3889
273,"(53, 49, 50, 155)",2,mbtiauth_3889
274,"(53, 49, 155, 50)",2,mbtiauth_3889
275,"(53, 50, 155, 50)",2,mbtiauth_3889
276,"(262, 50, 262, 50)",2,mbtiauth_3889
277,"(262, 50, 262, 993)",2,mbtiauth_3889
278,"(262, 50, 7896, 50)",2,mbtiauth_3889
279,"(262, 1039, 7896, 50)",2,mbtiauth_3889
280,"(53, 49, 50, 155, 50)",2,mbtiauth_3889
