,pattern,sup,author
177,"(4, 50, 91)",2,mbtiauth_2239
178,"(9, 50, 1538)",2,mbtiauth_2239
179,"(19, 134, 1452)",2,mbtiauth_2239
180,"(48, 50, 50)",2,mbtiauth_2239
181,"(48, 50, 91)",2,mbtiauth_2239
182,"(48, 50, 240)",2,mbtiauth_2239
183,"(48, 91, 240)",2,mbtiauth_2239
184,"(50, 9, 50)",2,mbtiauth_2239
185,"(50, 9, 1538)",2,mbtiauth_2239
186,"(50, 48, 50)",2,mbtiauth_2239
187,"(50, 50, 9)",2,mbtiauth_2239
188,"(50, 50, 48)",2,mbtiauth_2239
189,"(50, 50, 50)",5,mbtiauth_2239
190,"(50, 50, 114)",3,mbtiauth_2239
191,"(50, 50, 155)",2,mbtiauth_2239
192,"(50, 50, 255)",3,mbtiauth_2239
193,"(50, 50, 1538)",2,mbtiauth_2239
194,"(50, 91, 240)",2,mbtiauth_2239
195,"(50, 155, 50)",2,mbtiauth_2239
196,"(50, 262, 50)",2,mbtiauth_2239
197,"(50, 1140, 255)",2,mbtiauth_2239
198,"(50, 3686, 50)",2,mbtiauth_2239
199,"(91, 50, 50)",2,mbtiauth_2239
200,"(91, 50, 91)",2,mbtiauth_2239
201,"(91, 262, 50)",3,mbtiauth_2239
202,"(109, 352, 352)",2,mbtiauth_2239
203,"(117, 50, 50)",2,mbtiauth_2239
204,"(117, 50, 91)",2,mbtiauth_2239
205,"(117, 50, 114)",2,mbtiauth_2239
206,"(117, 50, 240)",2,mbtiauth_2239
207,"(117, 91, 240)",2,mbtiauth_2239
208,"(133, 50, 291)",2,mbtiauth_2239
209,"(1024, 50, 50)",2,mbtiauth_2239
210,"(1024, 50, 91)",2,mbtiauth_2239
211,"(1024, 50, 240)",2,mbtiauth_2239
212,"(1024, 91, 50)",2,mbtiauth_2239
213,"(1024, 91, 240)",2,mbtiauth_2239
214,"(1538, 50, 50)",2,mbtiauth_2239
215,"(1538, 50, 255)",2,mbtiauth_2239
216,"(1538, 262, 50)",2,mbtiauth_2239
217,"(48, 50, 91, 240)",2,mbtiauth_2239
218,"(50, 9, 50, 1538)",2,mbtiauth_2239
219,"(50, 50, 50, 114)",2,mbtiauth_2239
220,"(117, 50, 50, 114)",2,mbtiauth_2239
