,pattern,sup,author
157,"(5, 17, 50)",2,mbtiauth_6155
158,"(5, 18, 17)",4,mbtiauth_6155
159,"(5, 18, 50)",2,mbtiauth_6155
160,"(7, 50, 29)",2,mbtiauth_6155
161,"(7, 50, 50)",2,mbtiauth_6155
162,"(18, 17, 50)",2,mbtiauth_6155
163,"(29, 7, 50)",2,mbtiauth_6155
164,"(48, 50, 48)",2,mbtiauth_6155
165,"(48, 50, 50)",2,mbtiauth_6155
166,"(48, 50, 255)",2,mbtiauth_6155
167,"(50, 7, 50)",3,mbtiauth_6155
168,"(50, 29, 48)",2,mbtiauth_6155
169,"(50, 29, 50)",2,mbtiauth_6155
170,"(50, 29, 1645)",2,mbtiauth_6155
171,"(50, 48, 50)",2,mbtiauth_6155
172,"(50, 48, 155)",2,mbtiauth_6155
173,"(50, 48, 255)",2,mbtiauth_6155
174,"(50, 48, 408)",2,mbtiauth_6155
175,"(50, 48, 1392)",2,mbtiauth_6155
176,"(50, 50, 29)",2,mbtiauth_6155
177,"(50, 50, 48)",3,mbtiauth_6155
178,"(50, 50, 50)",2,mbtiauth_6155
179,"(50, 50, 114)",2,mbtiauth_6155
180,"(50, 50, 262)",4,mbtiauth_6155
181,"(50, 50, 1015)",2,mbtiauth_6155
182,"(50, 114, 50)",2,mbtiauth_6155
183,"(50, 117, 114)",2,mbtiauth_6155
184,"(50, 148, 50)",2,mbtiauth_6155
185,"(50, 197, 48)",2,mbtiauth_6155
186,"(50, 240, 48)",2,mbtiauth_6155
187,"(50, 262, 50)",3,mbtiauth_6155
188,"(50, 262, 167)",2,mbtiauth_6155
189,"(50, 262, 262)",2,mbtiauth_6155
190,"(50, 262, 18335)",2,mbtiauth_6155
191,"(50, 262, 18337)",2,mbtiauth_6155
192,"(50, 408, 29)",3,mbtiauth_6155
193,"(50, 408, 262)",2,mbtiauth_6155
194,"(50, 785, 50)",2,mbtiauth_6155
195,"(53, 408, 262)",2,mbtiauth_6155
196,"(91, 240, 50)",2,mbtiauth_6155
197,"(117, 50, 114)",2,mbtiauth_6155
198,"(148, 50, 48)",2,mbtiauth_6155
199,"(148, 255, 50)",2,mbtiauth_6155
200,"(148, 255, 522)",2,mbtiauth_6155
201,"(148, 522, 50)",2,mbtiauth_6155
202,"(167, 50, 30)",2,mbtiauth_6155
203,"(255, 50, 48)",2,mbtiauth_6155
204,"(255, 50, 240)",2,mbtiauth_6155
205,"(255, 240, 48)",2,mbtiauth_6155
206,"(255, 522, 50)",2,mbtiauth_6155
207,"(262, 48, 408)",2,mbtiauth_6155
208,"(262, 50, 30)",2,mbtiauth_6155
209,"(262, 50, 48)",2,mbtiauth_6155
210,"(262, 50, 50)",3,mbtiauth_6155
211,"(262, 50, 114)",2,mbtiauth_6155
212,"(262, 50, 262)",3,mbtiauth_6155
213,"(262, 50, 408)",2,mbtiauth_6155
214,"(262, 114, 50)",2,mbtiauth_6155
215,"(262, 262, 50)",3,mbtiauth_6155
216,"(515, 50, 117)",2,mbtiauth_6155
217,"(679, 50, 50)",2,mbtiauth_6155
218,"(18337, 50, 50)",2,mbtiauth_6155
219,"(5, 18, 17, 50)",2,mbtiauth_6155
220,"(148, 255, 522, 50)",2,mbtiauth_6155
221,"(255, 50, 240, 48)",2,mbtiauth_6155
222,"(262, 50, 48, 408)",2,mbtiauth_6155
223,"(262, 50, 114, 50)",2,mbtiauth_6155
224,"(262, 50, 262, 50)",2,mbtiauth_6155
