,pattern,sup,author
223,"(0, 2, 27)",2,1999_551864
224,"(0, 113, 1888)",2,1999_551864
225,"(2, 27, 0)",2,1999_551864
226,"(2, 33, 0)",2,1999_551864
227,"(2, 33, 27)",2,1999_551864
228,"(2, 33, 105)",2,1999_551864
229,"(2, 33, 216)",2,1999_551864
230,"(2, 113, 0)",2,1999_551864
231,"(2, 161, 216)",2,1999_551864
232,"(2, 476, 216)",2,1999_551864
233,"(3, 33, 3)",2,1999_551864
234,"(20, 47, 189)",2,1999_551864
235,"(20, 189, 65)",2,1999_551864
236,"(27, 211, 682)",2,1999_551864
237,"(33, 0, 2)",3,1999_551864
238,"(33, 0, 254)",2,1999_551864
239,"(33, 3, 33)",2,1999_551864
240,"(33, 3, 1175)",2,1999_551864
241,"(33, 20, 65)",2,1999_551864
242,"(33, 20, 189)",2,1999_551864
243,"(33, 27, 0)",2,1999_551864
244,"(33, 27, 216)",2,1999_551864
245,"(33, 41, 38)",2,1999_551864
246,"(33, 74, 27)",2,1999_551864
247,"(33, 105, 33)",2,1999_551864
248,"(33, 105, 113)",2,1999_551864
249,"(33, 105, 209)",2,1999_551864
250,"(33, 113, 33)",2,1999_551864
251,"(33, 189, 2)",2,1999_551864
252,"(33, 189, 65)",2,1999_551864
253,"(33, 378, 27)",2,1999_551864
254,"(35, 155, 216)",2,1999_551864
255,"(47, 27, 33)",2,1999_551864
256,"(47, 1391, 33)",2,1999_551864
257,"(105, 113, 33)",2,1999_551864
258,"(113, 0, 33)",2,1999_551864
259,"(113, 0, 47)",2,1999_551864
260,"(146, 0, 2)",2,1999_551864
261,"(146, 2, 33)",2,1999_551864
262,"(146, 33, 0)",2,1999_551864
263,"(146, 33, 2)",2,1999_551864
264,"(158, 87, 216)",2,1999_551864
265,"(158, 169, 378)",2,1999_551864
266,"(158, 216, 169)",2,1999_551864
267,"(158, 216, 378)",2,1999_551864
268,"(161, 216, 378)",2,1999_551864
269,"(169, 216, 80)",2,1999_551864
270,"(169, 378, 80)",2,1999_551864
271,"(169, 378, 216)",2,1999_551864
272,"(189, 0, 113)",2,1999_551864
273,"(190, 27, 2)",2,1999_551864
274,"(211, 682, 773)",2,1999_551864
275,"(216, 47, 27)",2,1999_551864
276,"(216, 158, 216)",2,1999_551864
277,"(216, 169, 80)",2,1999_551864
278,"(216, 169, 216)",2,1999_551864
279,"(216, 169, 378)",2,1999_551864
280,"(216, 216, 80)",2,1999_551864
281,"(216, 241, 1527)",2,1999_551864
282,"(216, 378, 80)",2,1999_551864
283,"(216, 378, 216)",2,1999_551864
284,"(216, 1945, 27)",2,1999_551864
285,"(216, 1945, 47)",2,1999_551864
286,"(254, 27, 2)",2,1999_551864
287,"(254, 27, 33)",2,1999_551864
288,"(378, 216, 80)",2,1999_551864
289,"(1208, 33, 27)",2,1999_551864
290,"(2334, 830, 189)",2,1999_551864
291,"(2334, 830, 254)",2,1999_551864
292,"(33, 20, 189, 65)",2,1999_551864
293,"(33, 105, 113, 33)",2,1999_551864
294,"(146, 33, 0, 2)",2,1999_551864
295,"(158, 216, 169, 378)",2,1999_551864
296,"(169, 378, 216, 80)",2,1999_551864
297,"(216, 169, 216, 80)",2,1999_551864
298,"(216, 169, 378, 80)",2,1999_551864
299,"(216, 169, 378, 216)",2,1999_551864
300,"(216, 378, 216, 80)",2,1999_551864
301,"(216, 169, 378, 216, 80)",2,1999_551864
