,pattern,sup,author
731,"(0, 0, 31)",2,1999_555751
732,"(0, 2, 27)",2,1999_555751
733,"(0, 2, 33)",2,1999_555751
734,"(0, 14, 31)",2,1999_555751
735,"(2, 2, 17)",3,1999_555751
736,"(2, 2, 33)",5,1999_555751
737,"(2, 2, 38)",2,1999_555751
738,"(2, 2, 135)",2,1999_555751
739,"(2, 3, 31)",2,1999_555751
740,"(2, 3, 70)",2,1999_555751
741,"(2, 17, 2)",2,1999_555751
742,"(2, 17, 3)",2,1999_555751
743,"(2, 17, 17)",2,1999_555751
744,"(2, 17, 27)",6,1999_555751
745,"(2, 17, 31)",3,1999_555751
746,"(2, 17, 33)",8,1999_555751
747,"(2, 17, 38)",3,1999_555751
748,"(2, 17, 39)",2,1999_555751
749,"(2, 17, 47)",3,1999_555751
750,"(2, 17, 70)",2,1999_555751
751,"(2, 17, 117)",3,1999_555751
752,"(2, 17, 209)",3,1999_555751
753,"(2, 17, 269)",2,1999_555751
754,"(2, 20, 31)",2,1999_555751
755,"(2, 20, 33)",2,1999_555751
756,"(2, 20, 40)",2,1999_555751
757,"(2, 21, 27)",2,1999_555751
758,"(2, 21, 31)",2,1999_555751
759,"(2, 27, 2)",2,1999_555751
760,"(2, 27, 20)",3,1999_555751
761,"(2, 27, 27)",3,1999_555751
762,"(2, 27, 31)",4,1999_555751
763,"(2, 27, 33)",2,1999_555751
764,"(2, 27, 35)",3,1999_555751
765,"(2, 27, 38)",3,1999_555751
766,"(2, 27, 40)",3,1999_555751
767,"(2, 27, 47)",8,1999_555751
768,"(2, 27, 112)",2,1999_555751
769,"(2, 27, 129)",2,1999_555751
770,"(2, 27, 132)",2,1999_555751
771,"(2, 27, 133)",2,1999_555751
772,"(2, 27, 161)",2,1999_555751
773,"(2, 27, 186)",2,1999_555751
774,"(2, 27, 209)",2,1999_555751
775,"(2, 27, 494)",2,1999_555751
776,"(2, 27, 3447)",2,1999_555751
777,"(2, 31, 33)",2,1999_555751
778,"(2, 31, 35)",2,1999_555751
779,"(2, 31, 254)",2,1999_555751
780,"(2, 32, 20)",2,1999_555751
781,"(2, 33, 2)",2,1999_555751
782,"(2, 33, 3)",2,1999_555751
783,"(2, 33, 20)",5,1999_555751
784,"(2, 33, 27)",5,1999_555751
785,"(2, 33, 31)",4,1999_555751
786,"(2, 33, 32)",4,1999_555751
787,"(2, 33, 33)",3,1999_555751
788,"(2, 33, 38)",5,1999_555751
789,"(2, 33, 41)",2,1999_555751
790,"(2, 33, 47)",5,1999_555751
791,"(2, 33, 87)",2,1999_555751
792,"(2, 33, 112)",2,1999_555751
793,"(2, 33, 132)",3,1999_555751
794,"(2, 33, 161)",2,1999_555751
795,"(2, 33, 209)",2,1999_555751
796,"(2, 33, 212)",2,1999_555751
797,"(2, 33, 244)",2,1999_555751
798,"(2, 33, 601)",2,1999_555751
799,"(2, 33, 1817)",2,1999_555751
800,"(2, 38, 31)",2,1999_555751
801,"(2, 38, 33)",2,1999_555751
802,"(2, 38, 47)",6,1999_555751
803,"(2, 38, 209)",2,1999_555751
804,"(2, 39, 33)",2,1999_555751
805,"(2, 39, 241)",2,1999_555751
806,"(2, 40, 165)",2,1999_555751
807,"(2, 44, 20)",2,1999_555751
808,"(2, 44, 27)",2,1999_555751
809,"(2, 47, 2)",2,1999_555751
810,"(2, 47, 20)",2,1999_555751
811,"(2, 47, 31)",3,1999_555751
812,"(2, 47, 32)",3,1999_555751
813,"(2, 47, 209)",2,1999_555751
814,"(2, 47, 551)",2,1999_555751
815,"(2, 47, 636)",2,1999_555751
816,"(2, 56, 212)",2,1999_555751
817,"(2, 87, 2)",2,1999_555751
818,"(2, 87, 216)",2,1999_555751
819,"(2, 93, 40)",2,1999_555751
820,"(2, 105, 3)",2,1999_555751
821,"(2, 105, 113)",2,1999_555751
822,"(2, 112, 47)",2,1999_555751
823,"(2, 112, 551)",2,1999_555751
824,"(2, 129, 27)",7,1999_555751
825,"(2, 129, 38)",2,1999_555751
826,"(2, 129, 47)",4,1999_555751
827,"(2, 129, 3447)",2,1999_555751
828,"(2, 132, 31)",2,1999_555751
829,"(2, 135, 27)",2,1999_555751
830,"(2, 142, 27)",2,1999_555751
831,"(2, 172, 2)",2,1999_555751
832,"(2, 172, 33)",3,1999_555751
833,"(2, 172, 39)",2,1999_555751
834,"(2, 209, 2)",2,1999_555751
835,"(2, 494, 27)",2,1999_555751
836,"(2, 830, 31)",2,1999_555751
837,"(2, 1817, 38)",2,1999_555751
838,"(2, 3447, 38)",2,1999_555751
839,"(2, 3447, 47)",2,1999_555751
840,"(3, 0, 14)",2,1999_555751
841,"(3, 31, 2)",2,1999_555751
842,"(3, 31, 33)",3,1999_555751
843,"(3, 31, 47)",2,1999_555751
844,"(3, 60, 20)",2,1999_555751
845,"(3, 112, 2)",2,1999_555751
846,"(3, 134, 2)",2,1999_555751
847,"(3, 2024, 209)",2,1999_555751
848,"(17, 3, 31)",3,1999_555751
849,"(17, 3, 33)",3,1999_555751
850,"(17, 17, 27)",2,1999_555751
851,"(17, 27, 47)",3,1999_555751
852,"(17, 27, 209)",2,1999_555751
853,"(17, 31, 33)",4,1999_555751
854,"(17, 33, 3)",2,1999_555751
855,"(17, 33, 20)",2,1999_555751
856,"(17, 33, 27)",2,1999_555751
857,"(17, 33, 31)",3,1999_555751
858,"(17, 33, 33)",2,1999_555751
859,"(17, 33, 112)",2,1999_555751
860,"(17, 33, 497)",2,1999_555751
861,"(17, 33, 2692)",2,1999_555751
862,"(17, 209, 2)",2,1999_555751
863,"(17, 209, 27)",2,1999_555751
864,"(17, 269, 27)",2,1999_555751
865,"(20, 2, 27)",2,1999_555751
866,"(20, 2, 129)",2,1999_555751
867,"(20, 10, 9)",2,1999_555751
868,"(20, 21, 47)",2,1999_555751
869,"(20, 27, 47)",2,1999_555751
870,"(20, 27, 132)",2,1999_555751
871,"(20, 31, 20)",2,1999_555751
872,"(20, 31, 40)",2,1999_555751
873,"(20, 33, 47)",2,1999_555751
874,"(20, 40, 97)",2,1999_555751
875,"(20, 40, 745)",2,1999_555751
876,"(20, 47, 27)",2,1999_555751
877,"(20, 47, 129)",2,1999_555751
878,"(20, 47, 132)",2,1999_555751
879,"(20, 129, 27)",3,1999_555751
880,"(21, 31, 27)",2,1999_555751
881,"(21, 47, 27)",2,1999_555751
882,"(21, 47, 31)",3,1999_555751
883,"(21, 47, 129)",2,1999_555751
884,"(21, 129, 27)",2,1999_555751
885,"(23, 2, 33)",2,1999_555751
886,"(27, 0, 2)",2,1999_555751
887,"(27, 2, 33)",2,1999_555751
888,"(27, 20, 31)",2,1999_555751
889,"(27, 20, 40)",3,1999_555751
890,"(27, 31, 21)",2,1999_555751
891,"(27, 31, 35)",2,1999_555751
892,"(27, 31, 203)",2,1999_555751
893,"(27, 38, 40)",2,1999_555751
894,"(27, 38, 47)",3,1999_555751
895,"(27, 40, 737)",2,1999_555751
896,"(27, 47, 31)",3,1999_555751
897,"(27, 47, 40)",3,1999_555751
898,"(27, 47, 131)",2,1999_555751
899,"(27, 47, 132)",3,1999_555751
900,"(27, 47, 189)",2,1999_555751
901,"(27, 47, 2447)",2,1999_555751
902,"(27, 131, 31)",2,1999_555751
903,"(27, 244, 302)",2,1999_555751
904,"(27, 3447, 38)",2,1999_555751
905,"(27, 3447, 47)",2,1999_555751
906,"(31, 2, 2)",3,1999_555751
907,"(31, 2, 27)",2,1999_555751
908,"(31, 2, 33)",3,1999_555751
909,"(31, 2, 40)",2,1999_555751
910,"(31, 2, 180)",2,1999_555751
911,"(31, 3, 20)",2,1999_555751
912,"(31, 23, 2)",2,1999_555751
913,"(31, 27, 2)",2,1999_555751
914,"(31, 33, 2)",2,1999_555751
915,"(31, 33, 27)",3,1999_555751
916,"(31, 33, 33)",3,1999_555751
917,"(31, 33, 47)",2,1999_555751
918,"(31, 33, 64)",2,1999_555751
919,"(31, 33, 65)",2,1999_555751
920,"(31, 33, 105)",2,1999_555751
921,"(31, 33, 129)",2,1999_555751
922,"(31, 33, 192)",2,1999_555751
923,"(31, 39, 33)",3,1999_555751
924,"(31, 192, 27)",2,1999_555751
925,"(32, 2, 33)",2,1999_555751
926,"(32, 10, 9)",2,1999_555751
927,"(32, 20, 9)",2,1999_555751
928,"(32, 20, 10)",2,1999_555751
929,"(32, 20, 33)",2,1999_555751
930,"(32, 20, 47)",2,1999_555751
931,"(32, 33, 33)",2,1999_555751
932,"(33, 0, 14)",2,1999_555751
933,"(33, 2, 17)",2,1999_555751
934,"(33, 2, 27)",2,1999_555751
935,"(33, 2, 62)",2,1999_555751
936,"(33, 3, 0)",2,1999_555751
937,"(33, 3, 14)",2,1999_555751
938,"(33, 3, 60)",2,1999_555751
939,"(33, 20, 31)",2,1999_555751
940,"(33, 20, 40)",2,1999_555751
941,"(33, 20, 56)",2,1999_555751
942,"(33, 21, 31)",2,1999_555751
943,"(33, 27, 33)",2,1999_555751
944,"(33, 27, 40)",2,1999_555751
945,"(33, 27, 47)",5,1999_555751
946,"(33, 27, 132)",2,1999_555751
947,"(33, 31, 2)",2,1999_555751
948,"(33, 31, 3)",3,1999_555751
949,"(33, 31, 17)",2,1999_555751
950,"(33, 31, 27)",2,1999_555751
951,"(33, 31, 33)",3,1999_555751
952,"(33, 31, 40)",2,1999_555751
953,"(33, 31, 216)",2,1999_555751
954,"(33, 32, 3)",2,1999_555751
955,"(33, 33, 21)",2,1999_555751
956,"(33, 33, 27)",2,1999_555751
957,"(33, 33, 47)",4,1999_555751
958,"(33, 33, 64)",2,1999_555751
959,"(33, 38, 20)",2,1999_555751
960,"(33, 38, 27)",2,1999_555751
961,"(33, 38, 47)",5,1999_555751
962,"(33, 38, 132)",2,1999_555751
963,"(33, 38, 171)",2,1999_555751
964,"(33, 38, 209)",2,1999_555751
965,"(33, 38, 1817)",2,1999_555751
966,"(33, 47, 3)",2,1999_555751
967,"(33, 47, 20)",3,1999_555751
968,"(33, 47, 31)",2,1999_555751
969,"(33, 47, 32)",2,1999_555751
970,"(33, 47, 40)",2,1999_555751
971,"(33, 47, 132)",3,1999_555751
972,"(33, 47, 189)",3,1999_555751
973,"(33, 47, 1817)",2,1999_555751
974,"(33, 87, 216)",2,1999_555751
975,"(33, 93, 31)",2,1999_555751
976,"(33, 112, 2)",2,1999_555751
977,"(33, 132, 31)",2,1999_555751
978,"(33, 189, 3)",2,1999_555751
979,"(33, 192, 27)",2,1999_555751
980,"(33, 212, 152)",2,1999_555751
981,"(33, 244, 31)",2,1999_555751
982,"(33, 1792, 20)",2,1999_555751
983,"(33, 1817, 38)",2,1999_555751
984,"(38, 2, 2)",2,1999_555751
985,"(38, 2, 17)",2,1999_555751
986,"(38, 27, 47)",2,1999_555751
987,"(38, 27, 2447)",2,1999_555751
988,"(38, 31, 33)",4,1999_555751
989,"(38, 31, 39)",2,1999_555751
990,"(38, 31, 47)",2,1999_555751
991,"(38, 33, 47)",2,1999_555751
992,"(38, 39, 33)",2,1999_555751
993,"(38, 40, 20)",2,1999_555751
994,"(38, 40, 33)",2,1999_555751
995,"(38, 40, 338)",2,1999_555751
996,"(38, 47, 2)",2,1999_555751
997,"(38, 47, 20)",2,1999_555751
998,"(38, 47, 31)",3,1999_555751
999,"(38, 47, 33)",3,1999_555751
1000,"(38, 47, 39)",2,1999_555751
1001,"(38, 47, 40)",2,1999_555751
1002,"(38, 47, 1817)",2,1999_555751
1003,"(38, 47, 2447)",2,1999_555751
1004,"(38, 112, 33)",2,1999_555751
1005,"(38, 209, 2)",2,1999_555751
1006,"(39, 33, 53)",2,1999_555751
1007,"(39, 1800, 2)",2,1999_555751
1008,"(40, 20, 40)",2,1999_555751
1009,"(40, 31, 39)",2,1999_555751
1010,"(40, 33, 20)",2,1999_555751
1011,"(40, 33, 1792)",2,1999_555751
1012,"(40, 47, 40)",2,1999_555751
1013,"(40, 122, 20)",2,1999_555751
1014,"(40, 122, 33)",2,1999_555751
1015,"(40, 122, 1792)",2,1999_555751
1016,"(40, 338, 40)",2,1999_555751
1017,"(40, 737, 31)",3,1999_555751
1018,"(40, 1792, 20)",2,1999_555751
1019,"(41, 33, 27)",2,1999_555751
1020,"(41, 33, 192)",2,1999_555751
1021,"(41, 192, 27)",2,1999_555751
1022,"(44, 20, 40)",2,1999_555751
1023,"(44, 27, 20)",2,1999_555751
1024,"(44, 27, 40)",2,1999_555751
1025,"(47, 2, 21)",2,1999_555751
1026,"(47, 2, 31)",2,1999_555751
1027,"(47, 2, 33)",3,1999_555751
1028,"(47, 20, 2)",3,1999_555751
1029,"(47, 20, 31)",2,1999_555751
1030,"(47, 31, 2)",2,1999_555751
1031,"(47, 31, 33)",3,1999_555751
1032,"(47, 31, 39)",2,1999_555751
1033,"(47, 32, 2)",2,1999_555751
1034,"(47, 38, 40)",3,1999_555751
1035,"(47, 39, 33)",2,1999_555751
1036,"(47, 40, 33)",3,1999_555751
1037,"(47, 40, 338)",2,1999_555751
1038,"(47, 47, 31)",2,1999_555751
1039,"(47, 87, 2)",2,1999_555751
1040,"(47, 87, 33)",2,1999_555751
1041,"(47, 105, 47)",2,1999_555751
1042,"(47, 112, 2)",2,1999_555751
1043,"(47, 112, 420)",2,1999_555751
1044,"(47, 129, 27)",3,1999_555751
1045,"(47, 131, 31)",2,1999_555751
1046,"(47, 161, 40)",2,1999_555751
1047,"(47, 189, 3)",2,1999_555751
1048,"(47, 189, 31)",2,1999_555751
1049,"(47, 420, 2)",2,1999_555751
1050,"(47, 551, 189)",2,1999_555751
1051,"(56, 152, 132)",2,1999_555751
1052,"(56, 212, 47)",2,1999_555751
1053,"(56, 212, 132)",2,1999_555751
1054,"(56, 212, 152)",2,1999_555751
1055,"(57, 2, 47)",2,1999_555751
1056,"(57, 105, 47)",2,1999_555751
1057,"(62, 17, 128)",2,1999_555751
1058,"(80, 27, 244)",2,1999_555751
1059,"(80, 2231, 27)",2,1999_555751
1060,"(80, 2231, 244)",2,1999_555751
1061,"(87, 2, 17)",2,1999_555751
1062,"(87, 2, 33)",3,1999_555751
1063,"(87, 33, 31)",2,1999_555751
1064,"(87, 33, 47)",2,1999_555751
1065,"(93, 31, 17)",2,1999_555751
1066,"(103, 27, 244)",2,1999_555751
1067,"(103, 80, 27)",2,1999_555751
1068,"(103, 80, 244)",2,1999_555751
1069,"(103, 80, 2231)",2,1999_555751
1070,"(103, 2231, 27)",2,1999_555751
1071,"(103, 2231, 244)",2,1999_555751
1072,"(105, 3, 1184)",2,1999_555751
1073,"(105, 62, 27)",2,1999_555751
1074,"(112, 2, 2)",2,1999_555751
1075,"(112, 2, 17)",2,1999_555751
1076,"(112, 2, 27)",2,1999_555751
1077,"(112, 2, 601)",2,1999_555751
1078,"(112, 31, 2)",2,1999_555751
1079,"(112, 47, 189)",2,1999_555751
1080,"(112, 47, 551)",2,1999_555751
1081,"(112, 62, 27)",2,1999_555751
1082,"(112, 420, 2)",2,1999_555751
1083,"(112, 551, 189)",2,1999_555751
1084,"(122, 33, 20)",2,1999_555751
1085,"(122, 33, 1792)",2,1999_555751
1086,"(122, 1792, 20)",2,1999_555751
1087,"(129, 27, 3)",2,1999_555751
1088,"(129, 27, 31)",2,1999_555751
1089,"(129, 27, 38)",2,1999_555751
1090,"(129, 27, 47)",5,1999_555751
1091,"(129, 27, 112)",2,1999_555751
1092,"(129, 27, 131)",2,1999_555751
1093,"(129, 27, 132)",2,1999_555751
1094,"(129, 27, 161)",2,1999_555751
1095,"(129, 27, 186)",2,1999_555751
1096,"(129, 27, 189)",2,1999_555751
1097,"(129, 27, 3447)",2,1999_555751
1098,"(129, 38, 47)",2,1999_555751
1099,"(129, 47, 31)",2,1999_555751
1100,"(129, 47, 131)",2,1999_555751
1101,"(129, 47, 189)",2,1999_555751
1102,"(129, 131, 31)",2,1999_555751
1103,"(129, 3447, 38)",2,1999_555751
1104,"(129, 3447, 47)",2,1999_555751
1105,"(132, 33, 47)",2,1999_555751
1106,"(132, 33, 129)",2,1999_555751
1107,"(132, 33, 1817)",2,1999_555751
1108,"(132, 171, 3)",2,1999_555751
1109,"(140, 33, 21)",2,1999_555751
1110,"(161, 112, 2)",2,1999_555751
1111,"(172, 39, 33)",2,1999_555751
1112,"(209, 2, 33)",2,1999_555751
1113,"(209, 2, 47)",2,1999_555751
1114,"(209, 2, 81)",2,1999_555751
1115,"(209, 31, 2)",2,1999_555751
1116,"(212, 152, 132)",2,1999_555751
1117,"(216, 21, 31)",2,1999_555751
1118,"(216, 21, 47)",2,1999_555751
1119,"(216, 33, 3)",2,1999_555751
1120,"(216, 33, 31)",2,1999_555751
1121,"(216, 47, 31)",2,1999_555751
1122,"(228, 119, 2)",2,1999_555751
1123,"(244, 2, 27)",2,1999_555751
1124,"(244, 33, 27)",2,1999_555751
1125,"(244, 494, 27)",2,1999_555751
1126,"(255, 132, 105)",2,1999_555751
1127,"(494, 2, 27)",3,1999_555751
1128,"(494, 2, 40)",2,1999_555751
1129,"(494, 2, 186)",2,1999_555751
1130,"(494, 27, 186)",2,1999_555751
1131,"(497, 31, 17)",2,1999_555751
1132,"(497, 31, 497)",2,1999_555751
1133,"(497, 31, 1077)",2,1999_555751
1134,"(497, 33, 2)",2,1999_555751
1135,"(497, 33, 3)",2,1999_555751
1136,"(497, 33, 31)",3,1999_555751
1137,"(497, 33, 497)",2,1999_555751
1138,"(497, 93, 17)",2,1999_555751
1139,"(497, 93, 31)",2,1999_555751
1140,"(684, 2, 33)",2,1999_555751
1141,"(684, 2, 71)",2,1999_555751
1142,"(830, 2, 40)",2,1999_555751
1143,"(830, 31, 2)",2,1999_555751
1144,"(830, 31, 40)",2,1999_555751
1145,"(830, 33, 40)",2,1999_555751
1146,"(2024, 209, 31)",2,1999_555751
1147,"(2231, 27, 244)",2,1999_555751
1148,"(3447, 38, 31)",2,1999_555751
1149,"(3447, 38, 40)",2,1999_555751
1150,"(3447, 38, 47)",2,1999_555751
1151,"(3447, 47, 31)",2,1999_555751
1152,"(2, 2, 33, 38)",2,1999_555751
1153,"(2, 17, 27, 47)",3,1999_555751
1154,"(2, 17, 27, 209)",2,1999_555751
1155,"(2, 17, 209, 2)",2,1999_555751
1156,"(2, 27, 20, 40)",2,1999_555751
1157,"(2, 27, 31, 35)",2,1999_555751
1158,"(2, 27, 38, 47)",3,1999_555751
1159,"(2, 27, 47, 31)",2,1999_555751
1160,"(2, 27, 3447, 38)",2,1999_555751
1161,"(2, 27, 3447, 47)",2,1999_555751
1162,"(2, 33, 27, 47)",3,1999_555751
1163,"(2, 33, 33, 27)",2,1999_555751
1164,"(2, 33, 33, 47)",2,1999_555751
1165,"(2, 33, 38, 47)",3,1999_555751
1166,"(2, 33, 38, 209)",2,1999_555751
1167,"(2, 33, 47, 20)",2,1999_555751
1168,"(2, 33, 47, 32)",2,1999_555751
1169,"(2, 33, 132, 31)",2,1999_555751
1170,"(2, 33, 1817, 38)",2,1999_555751
1171,"(2, 38, 31, 33)",2,1999_555751
1172,"(2, 44, 27, 20)",2,1999_555751
1173,"(2, 112, 47, 551)",2,1999_555751
1174,"(2, 129, 27, 38)",2,1999_555751
1175,"(2, 129, 27, 47)",4,1999_555751
1176,"(2, 129, 27, 3447)",2,1999_555751
1177,"(2, 129, 38, 47)",2,1999_555751
1178,"(2, 129, 3447, 38)",2,1999_555751
1179,"(2, 129, 3447, 47)",2,1999_555751
1180,"(2, 172, 39, 33)",2,1999_555751
1181,"(2, 3447, 38, 47)",2,1999_555751
1182,"(17, 3, 31, 33)",3,1999_555751
1183,"(17, 33, 31, 33)",2,1999_555751
1184,"(20, 2, 129, 27)",2,1999_555751
1185,"(20, 47, 129, 27)",2,1999_555751
1186,"(27, 38, 47, 40)",2,1999_555751
1187,"(27, 47, 131, 31)",2,1999_555751
1188,"(27, 3447, 38, 47)",2,1999_555751
1189,"(31, 33, 192, 27)",2,1999_555751
1190,"(32, 20, 10, 9)",2,1999_555751
1191,"(33, 3, 0, 14)",2,1999_555751
1192,"(33, 27, 47, 40)",2,1999_555751
1193,"(33, 27, 47, 132)",2,1999_555751
1194,"(33, 33, 27, 47)",2,1999_555751
1195,"(33, 38, 27, 47)",2,1999_555751
1196,"(33, 38, 47, 20)",2,1999_555751
1197,"(33, 38, 47, 1817)",2,1999_555751
1198,"(33, 47, 189, 3)",2,1999_555751
1199,"(38, 27, 47, 2447)",2,1999_555751
1200,"(38, 31, 33, 47)",2,1999_555751
1201,"(38, 31, 39, 33)",2,1999_555751
1202,"(38, 47, 31, 33)",2,1999_555751
1203,"(38, 47, 31, 39)",2,1999_555751
1204,"(38, 47, 39, 33)",2,1999_555751
1205,"(40, 33, 1792, 20)",2,1999_555751
1206,"(40, 122, 33, 20)",2,1999_555751
1207,"(40, 122, 33, 1792)",2,1999_555751
1208,"(40, 122, 1792, 20)",2,1999_555751
1209,"(41, 33, 192, 27)",2,1999_555751
1210,"(44, 27, 20, 40)",2,1999_555751
1211,"(47, 31, 39, 33)",2,1999_555751
1212,"(47, 112, 420, 2)",2,1999_555751
1213,"(56, 212, 152, 132)",2,1999_555751
1214,"(80, 2231, 27, 244)",2,1999_555751
1215,"(103, 80, 27, 244)",2,1999_555751
1216,"(103, 80, 2231, 27)",2,1999_555751
1217,"(103, 80, 2231, 244)",2,1999_555751
1218,"(103, 2231, 27, 244)",2,1999_555751
1219,"(112, 47, 551, 189)",2,1999_555751
1220,"(122, 33, 1792, 20)",2,1999_555751
1221,"(129, 27, 38, 47)",2,1999_555751
1222,"(129, 27, 47, 31)",2,1999_555751
1223,"(129, 27, 47, 131)",2,1999_555751
1224,"(129, 27, 47, 189)",2,1999_555751
1225,"(129, 27, 131, 31)",2,1999_555751
1226,"(129, 27, 3447, 38)",2,1999_555751
1227,"(129, 27, 3447, 47)",2,1999_555751
1228,"(129, 47, 131, 31)",2,1999_555751
1229,"(129, 3447, 38, 47)",2,1999_555751
1230,"(216, 21, 47, 31)",2,1999_555751
1231,"(494, 2, 27, 186)",2,1999_555751
1232,"(497, 93, 31, 17)",2,1999_555751
1233,"(830, 31, 2, 40)",2,1999_555751
1234,"(3447, 38, 47, 31)",2,1999_555751
1235,"(2, 27, 3447, 38, 47)",2,1999_555751
1236,"(2, 129, 27, 38, 47)",2,1999_555751
1237,"(2, 129, 27, 3447, 38)",2,1999_555751
1238,"(2, 129, 27, 3447, 47)",2,1999_555751
1239,"(2, 129, 3447, 38, 47)",2,1999_555751
1240,"(38, 47, 31, 39, 33)",2,1999_555751
1241,"(40, 122, 33, 1792, 20)",2,1999_555751
1242,"(103, 80, 2231, 27, 244)",2,1999_555751
1243,"(129, 27, 47, 131, 31)",2,1999_555751
1244,"(129, 27, 3447, 38, 47)",2,1999_555751
1245,"(2, 129, 27, 3447, 38, 47)",2,1999_555751
