,pattern,sup,author
249,"(0, 2, 2)",3,2002_712420
250,"(0, 2, 17)",3,2002_712420
251,"(0, 2, 27)",2,2002_712420
252,"(0, 2, 33)",2,2002_712420
253,"(0, 2, 40)",3,2002_712420
254,"(0, 2, 76)",2,2002_712420
255,"(0, 2, 77)",3,2002_712420
256,"(0, 2, 95)",2,2002_712420
257,"(0, 2, 305)",2,2002_712420
258,"(0, 2, 337)",3,2002_712420
259,"(0, 2, 1076)",2,2002_712420
260,"(0, 14, 2)",2,2002_712420
261,"(0, 76, 2)",3,2002_712420
262,"(0, 77, 17)",2,2002_712420
263,"(0, 92, 17)",2,2002_712420
264,"(0, 95, 2)",2,2002_712420
265,"(0, 95, 76)",2,2002_712420
266,"(0, 305, 337)",2,2002_712420
267,"(1, 2, 27)",2,2002_712420
268,"(2, 0, 2)",3,2002_712420
269,"(2, 0, 14)",2,2002_712420
270,"(2, 2, 17)",2,2002_712420
271,"(2, 2, 21)",2,2002_712420
272,"(2, 2, 27)",2,2002_712420
273,"(2, 2, 40)",2,2002_712420
274,"(2, 2, 270)",2,2002_712420
275,"(2, 2, 1076)",2,2002_712420
276,"(2, 3, 21)",2,2002_712420
277,"(2, 14, 2)",2,2002_712420
278,"(2, 17, 27)",3,2002_712420
279,"(2, 17, 189)",2,2002_712420
280,"(2, 27, 0)",2,2002_712420
281,"(2, 27, 2)",2,2002_712420
282,"(2, 27, 14)",2,2002_712420
283,"(2, 27, 27)",3,2002_712420
284,"(2, 27, 67)",2,2002_712420
285,"(2, 27, 87)",3,2002_712420
286,"(2, 27, 249)",2,2002_712420
287,"(2, 27, 446)",2,2002_712420
288,"(2, 33, 2)",2,2002_712420
289,"(2, 33, 27)",2,2002_712420
290,"(2, 33, 1076)",2,2002_712420
291,"(2, 56, 39)",2,2002_712420
292,"(2, 76, 2)",3,2002_712420
293,"(2, 77, 2)",2,2002_712420
294,"(2, 77, 17)",2,2002_712420
295,"(2, 77, 27)",2,2002_712420
296,"(2, 87, 2)",2,2002_712420
297,"(2, 87, 39)",2,2002_712420
298,"(2, 87, 40)",2,2002_712420
299,"(2, 95, 2)",3,2002_712420
300,"(2, 95, 17)",2,2002_712420
301,"(2, 95, 27)",4,2002_712420
302,"(2, 95, 76)",2,2002_712420
303,"(2, 95, 77)",2,2002_712420
304,"(2, 95, 189)",2,2002_712420
305,"(2, 95, 446)",2,2002_712420
306,"(2, 110, 39)",2,2002_712420
307,"(2, 129, 27)",3,2002_712420
308,"(2, 135, 27)",2,2002_712420
309,"(2, 142, 27)",2,2002_712420
310,"(2, 305, 337)",2,2002_712420
311,"(2, 1076, 1102)",2,2002_712420
312,"(13, 0, 2)",2,2002_712420
313,"(13, 0, 17)",2,2002_712420
314,"(13, 0, 77)",2,2002_712420
315,"(13, 0, 92)",2,2002_712420
316,"(13, 2, 77)",2,2002_712420
317,"(13, 92, 17)",2,2002_712420
318,"(14, 0, 2)",2,2002_712420
319,"(14, 2, 2)",2,2002_712420
320,"(14, 2, 76)",2,2002_712420
321,"(14, 2, 95)",2,2002_712420
322,"(14, 76, 2)",2,2002_712420
323,"(14, 95, 2)",2,2002_712420
324,"(14, 95, 76)",2,2002_712420
325,"(27, 0, 2)",2,2002_712420
326,"(27, 0, 14)",2,2002_712420
327,"(27, 14, 2)",2,2002_712420
328,"(33, 2, 27)",2,2002_712420
329,"(33, 2, 1076)",2,2002_712420
330,"(33, 2, 1102)",2,2002_712420
331,"(33, 27, 33)",2,2002_712420
332,"(33, 40, 861)",2,2002_712420
333,"(33, 40, 5097)",2,2002_712420
334,"(33, 129, 27)",2,2002_712420
335,"(33, 129, 33)",2,2002_712420
336,"(33, 861, 5097)",2,2002_712420
337,"(33, 1076, 1102)",2,2002_712420
338,"(40, 861, 5097)",2,2002_712420
339,"(76, 2, 56)",2,2002_712420
340,"(87, 2, 40)",2,2002_712420
341,"(92, 17, 2)",2,2002_712420
342,"(95, 17, 189)",2,2002_712420
343,"(95, 27, 446)",2,2002_712420
344,"(95, 76, 2)",2,2002_712420
345,"(95, 77, 27)",2,2002_712420
346,"(122, 33, 113)",2,2002_712420
347,"(129, 27, 33)",2,2002_712420
348,"(142, 27, 27)",2,2002_712420
349,"(144, 33, 40)",2,2002_712420
350,"(144, 33, 861)",2,2002_712420
351,"(144, 33, 5097)",2,2002_712420
352,"(144, 40, 861)",2,2002_712420
353,"(144, 40, 5097)",2,2002_712420
354,"(144, 861, 5097)",2,2002_712420
355,"(216, 33, 57)",2,2002_712420
356,"(216, 270, 33)",2,2002_712420
357,"(216, 270, 57)",2,2002_712420
358,"(270, 33, 57)",2,2002_712420
359,"(662, 0, 2)",2,2002_712420
360,"(662, 1, 2)",2,2002_712420
361,"(662, 1, 27)",2,2002_712420
362,"(662, 2, 27)",2,2002_712420
363,"(662, 2, 40)",2,2002_712420
364,"(0, 2, 2, 17)",2,2002_712420
365,"(0, 2, 76, 2)",2,2002_712420
366,"(0, 2, 77, 17)",2,2002_712420
367,"(0, 2, 95, 2)",2,2002_712420
368,"(0, 2, 95, 76)",2,2002_712420
369,"(0, 2, 305, 337)",2,2002_712420
370,"(0, 95, 76, 2)",2,2002_712420
371,"(2, 0, 14, 2)",2,2002_712420
372,"(2, 27, 0, 2)",2,2002_712420
373,"(2, 27, 0, 14)",2,2002_712420
374,"(2, 27, 14, 2)",2,2002_712420
375,"(2, 33, 2, 1076)",2,2002_712420
376,"(2, 87, 2, 40)",2,2002_712420
377,"(2, 95, 17, 189)",2,2002_712420
378,"(2, 95, 27, 446)",2,2002_712420
379,"(2, 95, 76, 2)",2,2002_712420
380,"(2, 95, 77, 27)",2,2002_712420
381,"(2, 142, 27, 27)",2,2002_712420
382,"(13, 0, 2, 77)",2,2002_712420
383,"(13, 0, 92, 17)",2,2002_712420
384,"(14, 2, 76, 2)",2,2002_712420
385,"(14, 2, 95, 2)",2,2002_712420
386,"(14, 2, 95, 76)",2,2002_712420
387,"(14, 95, 76, 2)",2,2002_712420
388,"(27, 0, 14, 2)",2,2002_712420
389,"(33, 2, 1076, 1102)",2,2002_712420
390,"(33, 40, 861, 5097)",2,2002_712420
391,"(33, 129, 27, 33)",2,2002_712420
392,"(144, 33, 40, 861)",2,2002_712420
393,"(144, 33, 40, 5097)",2,2002_712420
394,"(144, 33, 861, 5097)",2,2002_712420
395,"(144, 40, 861, 5097)",2,2002_712420
396,"(216, 270, 33, 57)",2,2002_712420
397,"(662, 1, 2, 27)",2,2002_712420
398,"(0, 2, 95, 76, 2)",2,2002_712420
399,"(2, 27, 0, 14, 2)",2,2002_712420
400,"(14, 2, 95, 76, 2)",2,2002_712420
401,"(144, 33, 40, 861, 5097)",2,2002_712420
