,pattern,sup,author
471,"(0, 0, 2)",2,2002_913549
472,"(0, 0, 31)",2,2002_913549
473,"(0, 2, 3)",4,2002_913549
474,"(0, 2, 17)",3,2002_913549
475,"(0, 2, 27)",2,2002_913549
476,"(0, 2, 33)",3,2002_913549
477,"(0, 2, 35)",2,2002_913549
478,"(0, 2, 60)",2,2002_913549
479,"(0, 2, 77)",2,2002_913549
480,"(0, 2, 87)",2,2002_913549
481,"(0, 2, 172)",3,2002_913549
482,"(0, 3, 0)",2,2002_913549
483,"(0, 3, 27)",3,2002_913549
484,"(0, 3, 35)",2,2002_913549
485,"(0, 3, 60)",2,2002_913549
486,"(0, 14, 2)",3,2002_913549
487,"(0, 14, 35)",2,2002_913549
488,"(0, 14, 158)",2,2002_913549
489,"(0, 14, 172)",2,2002_913549
490,"(0, 17, 3)",3,2002_913549
491,"(0, 17, 27)",2,2002_913549
492,"(0, 17, 35)",2,2002_913549
493,"(0, 17, 60)",2,2002_913549
494,"(0, 27, 0)",2,2002_913549
495,"(0, 27, 35)",2,2002_913549
496,"(0, 33, 0)",2,2002_913549
497,"(0, 33, 3)",2,2002_913549
498,"(0, 47, 77)",2,2002_913549
499,"(0, 60, 27)",2,2002_913549
500,"(0, 60, 35)",2,2002_913549
501,"(0, 87, 3)",2,2002_913549
502,"(0, 87, 33)",2,2002_913549
503,"(0, 161, 2)",2,2002_913549
504,"(0, 172, 3)",2,2002_913549
505,"(0, 172, 17)",2,2002_913549
506,"(0, 172, 27)",2,2002_913549
507,"(0, 172, 35)",2,2002_913549
508,"(0, 172, 60)",2,2002_913549
509,"(2, 0, 2)",2,2002_913549
510,"(2, 2, 33)",2,2002_913549
511,"(2, 2, 41)",2,2002_913549
512,"(2, 2, 77)",2,2002_913549
513,"(2, 3, 27)",2,2002_913549
514,"(2, 3, 35)",2,2002_913549
515,"(2, 3, 47)",2,2002_913549
516,"(2, 3, 60)",3,2002_913549
517,"(2, 3, 801)",2,2002_913549
518,"(2, 17, 3)",7,2002_913549
519,"(2, 17, 17)",2,2002_913549
520,"(2, 17, 27)",6,2002_913549
521,"(2, 17, 33)",2,2002_913549
522,"(2, 17, 35)",4,2002_913549
523,"(2, 17, 40)",2,2002_913549
524,"(2, 17, 47)",3,2002_913549
525,"(2, 17, 60)",3,2002_913549
526,"(2, 17, 161)",2,2002_913549
527,"(2, 17, 801)",2,2002_913549
528,"(2, 20, 47)",2,2002_913549
529,"(2, 27, 3)",3,2002_913549
530,"(2, 27, 35)",4,2002_913549
531,"(2, 27, 47)",6,2002_913549
532,"(2, 27, 161)",2,2002_913549
533,"(2, 33, 0)",2,2002_913549
534,"(2, 33, 3)",3,2002_913549
535,"(2, 33, 20)",3,2002_913549
536,"(2, 33, 47)",4,2002_913549
537,"(2, 33, 105)",2,2002_913549
538,"(2, 35, 47)",3,2002_913549
539,"(2, 35, 161)",2,2002_913549
540,"(2, 39, 3)",2,2002_913549
541,"(2, 39, 17)",3,2002_913549
542,"(2, 39, 27)",3,2002_913549
543,"(2, 39, 35)",2,2002_913549
544,"(2, 39, 47)",3,2002_913549
545,"(2, 47, 0)",2,2002_913549
546,"(2, 47, 20)",2,2002_913549
547,"(2, 60, 27)",2,2002_913549
548,"(2, 60, 35)",2,2002_913549
549,"(2, 77, 41)",2,2002_913549
550,"(2, 87, 3)",2,2002_913549
551,"(2, 87, 17)",2,2002_913549
552,"(2, 95, 0)",2,2002_913549
553,"(2, 95, 77)",2,2002_913549
554,"(2, 140, 0)",2,2002_913549
555,"(2, 140, 47)",2,2002_913549
556,"(2, 142, 27)",2,2002_913549
557,"(2, 172, 3)",3,2002_913549
558,"(2, 172, 17)",4,2002_913549
559,"(2, 172, 20)",2,2002_913549
560,"(2, 172, 27)",4,2002_913549
561,"(2, 172, 33)",3,2002_913549
562,"(2, 172, 35)",3,2002_913549
563,"(2, 172, 39)",3,2002_913549
564,"(2, 172, 47)",4,2002_913549
565,"(2, 172, 60)",2,2002_913549
566,"(2, 172, 161)",2,2002_913549
567,"(2, 198, 198)",2,2002_913549
568,"(2, 198, 379)",2,2002_913549
569,"(2, 201, 2)",2,2002_913549
570,"(2, 379, 198)",2,2002_913549
571,"(2, 379, 379)",2,2002_913549
572,"(3, 0, 2)",2,2002_913549
573,"(3, 0, 3074)",2,2002_913549
574,"(3, 17, 804)",2,2002_913549
575,"(3, 17, 4492)",2,2002_913549
576,"(3, 27, 35)",2,2002_913549
577,"(3, 31, 2)",2,2002_913549
578,"(3, 33, 3)",2,2002_913549
579,"(3, 60, 27)",2,2002_913549
580,"(3, 60, 35)",2,2002_913549
581,"(3, 112, 2)",2,2002_913549
582,"(3, 622, 17)",2,2002_913549
583,"(3, 622, 804)",2,2002_913549
584,"(3, 622, 4492)",2,2002_913549
585,"(3, 801, 17)",2,2002_913549
586,"(3, 801, 622)",2,2002_913549
587,"(3, 801, 804)",2,2002_913549
588,"(3, 801, 4492)",2,2002_913549
589,"(3, 804, 4492)",2,2002_913549
590,"(10, 2184, 31)",2,2002_913549
591,"(14, 2, 27)",2,2002_913549
592,"(14, 35, 47)",2,2002_913549
593,"(14, 172, 17)",2,2002_913549
594,"(17, 0, 17)",2,2002_913549
595,"(17, 2, 17)",2,2002_913549
596,"(17, 3, 17)",2,2002_913549
597,"(17, 3, 20)",3,2002_913549
598,"(17, 3, 27)",2,2002_913549
599,"(17, 3, 35)",2,2002_913549
600,"(17, 3, 40)",2,2002_913549
601,"(17, 3, 47)",2,2002_913549
602,"(17, 3, 60)",3,2002_913549
603,"(17, 3, 87)",2,2002_913549
604,"(17, 3, 622)",2,2002_913549
605,"(17, 3, 801)",2,2002_913549
606,"(17, 17, 0)",2,2002_913549
607,"(17, 27, 3)",2,2002_913549
608,"(17, 27, 17)",2,2002_913549
609,"(17, 27, 20)",2,2002_913549
610,"(17, 27, 35)",3,2002_913549
611,"(17, 27, 47)",3,2002_913549
612,"(17, 27, 87)",2,2002_913549
613,"(17, 27, 161)",2,2002_913549
614,"(17, 27, 995)",2,2002_913549
615,"(17, 33, 3)",3,2002_913549
616,"(17, 33, 20)",2,2002_913549
617,"(17, 33, 47)",2,2002_913549
618,"(17, 35, 17)",2,2002_913549
619,"(17, 35, 47)",2,2002_913549
620,"(17, 35, 87)",2,2002_913549
621,"(17, 35, 161)",2,2002_913549
622,"(17, 35, 995)",2,2002_913549
623,"(17, 47, 2)",2,2002_913549
624,"(17, 47, 87)",2,2002_913549
625,"(17, 47, 995)",2,2002_913549
626,"(17, 60, 27)",2,2002_913549
627,"(17, 60, 35)",2,2002_913549
628,"(17, 622, 17)",2,2002_913549
629,"(17, 801, 17)",2,2002_913549
630,"(17, 801, 622)",2,2002_913549
631,"(17, 804, 4492)",2,2002_913549
632,"(17, 995, 87)",2,2002_913549
633,"(20, 3, 0)",2,2002_913549
634,"(27, 0, 2)",2,2002_913549
635,"(27, 0, 14)",2,2002_913549
636,"(27, 2, 17)",2,2002_913549
637,"(27, 2, 77)",2,2002_913549
638,"(27, 17, 3)",2,2002_913549
639,"(27, 33, 3)",2,2002_913549
640,"(27, 35, 47)",2,2002_913549
641,"(27, 35, 87)",2,2002_913549
642,"(27, 35, 161)",2,2002_913549
643,"(27, 35, 995)",2,2002_913549
644,"(27, 47, 10)",2,2002_913549
645,"(27, 47, 33)",2,2002_913549
646,"(27, 47, 87)",2,2002_913549
647,"(27, 47, 90)",2,2002_913549
648,"(27, 47, 995)",2,2002_913549
649,"(27, 87, 17)",2,2002_913549
650,"(27, 378, 10)",2,2002_913549
651,"(27, 378, 47)",2,2002_913549
652,"(27, 995, 87)",2,2002_913549
653,"(31, 2, 47)",2,2002_913549
654,"(32, 0, 2)",2,2002_913549
655,"(32, 0, 14)",2,2002_913549
656,"(33, 0, 2)",2,2002_913549
657,"(33, 0, 14)",4,2002_913549
658,"(33, 0, 172)",2,2002_913549
659,"(33, 2, 172)",2,2002_913549
660,"(33, 3, 0)",2,2002_913549
661,"(33, 3, 20)",2,2002_913549
662,"(33, 14, 172)",2,2002_913549
663,"(33, 20, 0)",2,2002_913549
664,"(33, 20, 3)",2,2002_913549
665,"(33, 31, 2274)",2,2002_913549
666,"(33, 39, 87)",2,2002_913549
667,"(33, 41, 0)",3,2002_913549
668,"(33, 41, 2)",2,2002_913549
669,"(33, 41, 14)",3,2002_913549
670,"(33, 41, 87)",2,2002_913549
671,"(33, 41, 105)",2,2002_913549
672,"(33, 47, 0)",2,2002_913549
673,"(33, 47, 2)",2,2002_913549
674,"(33, 47, 3)",2,2002_913549
675,"(33, 47, 20)",4,2002_913549
676,"(33, 47, 1879)",2,2002_913549
677,"(33, 198, 198)",2,2002_913549
678,"(33, 198, 379)",2,2002_913549
679,"(33, 379, 198)",2,2002_913549
680,"(33, 1879, 0)",2,2002_913549
681,"(33, 1879, 3)",2,2002_913549
682,"(33, 1879, 20)",2,2002_913549
683,"(35, 47, 0)",2,2002_913549
684,"(35, 47, 27)",2,2002_913549
685,"(35, 47, 87)",2,2002_913549
686,"(35, 47, 995)",2,2002_913549
687,"(35, 117, 0)",2,2002_913549
688,"(35, 254, 47)",2,2002_913549
689,"(35, 995, 87)",2,2002_913549
690,"(38, 31, 2274)",2,2002_913549
691,"(38, 33, 31)",2,2002_913549
692,"(38, 33, 2274)",2,2002_913549
693,"(38, 47, 35)",2,2002_913549
694,"(39, 3, 47)",2,2002_913549
695,"(39, 3, 87)",2,2002_913549
696,"(39, 17, 3)",2,2002_913549
697,"(39, 17, 27)",3,2002_913549
698,"(39, 17, 35)",2,2002_913549
699,"(39, 17, 47)",3,2002_913549
700,"(39, 17, 87)",2,2002_913549
701,"(39, 17, 995)",2,2002_913549
702,"(39, 27, 35)",2,2002_913549
703,"(39, 27, 47)",3,2002_913549
704,"(39, 27, 87)",2,2002_913549
705,"(39, 27, 995)",2,2002_913549
706,"(39, 33, 47)",2,2002_913549
707,"(39, 35, 47)",2,2002_913549
708,"(39, 35, 87)",2,2002_913549
709,"(39, 35, 995)",2,2002_913549
710,"(39, 47, 2)",2,2002_913549
711,"(39, 47, 87)",2,2002_913549
712,"(39, 47, 995)",2,2002_913549
713,"(39, 87, 2)",2,2002_913549
714,"(39, 995, 87)",2,2002_913549
715,"(40, 0, 2)",2,2002_913549
716,"(40, 0, 3)",2,2002_913549
717,"(40, 0, 17)",2,2002_913549
718,"(40, 0, 87)",2,2002_913549
719,"(40, 2, 3)",2,2002_913549
720,"(40, 2, 17)",2,2002_913549
721,"(40, 2, 87)",2,2002_913549
722,"(40, 17, 3)",2,2002_913549
723,"(41, 0, 2)",2,2002_913549
724,"(41, 0, 14)",3,2002_913549
725,"(41, 27, 47)",2,2002_913549
726,"(41, 87, 33)",2,2002_913549
727,"(41, 87, 47)",2,2002_913549
728,"(47, 0, 14)",2,2002_913549
729,"(47, 0, 33)",2,2002_913549
730,"(47, 0, 87)",2,2002_913549
731,"(47, 2, 17)",2,2002_913549
732,"(47, 2, 27)",2,2002_913549
733,"(47, 3, 0)",2,2002_913549
734,"(47, 10, 31)",2,2002_913549
735,"(47, 10, 33)",2,2002_913549
736,"(47, 10, 39)",2,2002_913549
737,"(47, 10, 2184)",2,2002_913549
738,"(47, 20, 0)",3,2002_913549
739,"(47, 20, 3)",2,2002_913549
740,"(47, 27, 47)",3,2002_913549
741,"(47, 27, 378)",2,2002_913549
742,"(47, 33, 0)",2,2002_913549
743,"(47, 33, 41)",2,2002_913549
744,"(47, 41, 0)",2,2002_913549
745,"(47, 61, 77)",2,2002_913549
746,"(47, 61, 117)",2,2002_913549
747,"(47, 77, 47)",2,2002_913549
748,"(47, 78, 2)",2,2002_913549
749,"(47, 78, 17)",2,2002_913549
750,"(47, 87, 33)",2,2002_913549
751,"(47, 117, 0)",3,2002_913549
752,"(47, 117, 33)",3,2002_913549
753,"(47, 117, 77)",2,2002_913549
754,"(47, 117, 87)",2,2002_913549
755,"(47, 378, 47)",2,2002_913549
756,"(47, 995, 87)",2,2002_913549
757,"(47, 1879, 0)",2,2002_913549
758,"(47, 1879, 3)",2,2002_913549
759,"(47, 1879, 20)",2,2002_913549
760,"(47, 2184, 31)",2,2002_913549
761,"(60, 27, 35)",2,2002_913549
762,"(61, 0, 87)",2,2002_913549
763,"(61, 117, 77)",2,2002_913549
764,"(77, 0, 87)",2,2002_913549
765,"(77, 47, 10)",2,2002_913549
766,"(77, 47, 87)",2,2002_913549
767,"(77, 47, 117)",2,2002_913549
768,"(77, 117, 87)",2,2002_913549
769,"(77, 254, 0)",2,2002_913549
770,"(77, 254, 33)",2,2002_913549
771,"(87, 17, 27)",2,2002_913549
772,"(87, 33, 0)",2,2002_913549
773,"(87, 33, 41)",2,2002_913549
774,"(87, 41, 0)",2,2002_913549
775,"(87, 47, 33)",2,2002_913549
776,"(98, 47, 10)",2,2002_913549
777,"(112, 2, 27)",2,2002_913549
778,"(117, 0, 87)",2,2002_913549
779,"(117, 0, 117)",2,2002_913549
780,"(117, 38, 33)",2,2002_913549
781,"(117, 87, 33)",2,2002_913549
782,"(123, 17, 47)",2,2002_913549
783,"(123, 33, 47)",3,2002_913549
784,"(140, 67, 47)",2,2002_913549
785,"(140, 378, 47)",2,2002_913549
786,"(161, 87, 27)",2,2002_913549
787,"(172, 3, 27)",2,2002_913549
788,"(172, 3, 35)",2,2002_913549
789,"(172, 3, 47)",2,2002_913549
790,"(172, 3, 60)",2,2002_913549
791,"(172, 17, 3)",3,2002_913549
792,"(172, 17, 27)",4,2002_913549
793,"(172, 17, 35)",3,2002_913549
794,"(172, 17, 47)",3,2002_913549
795,"(172, 17, 60)",2,2002_913549
796,"(172, 17, 161)",2,2002_913549
797,"(172, 17, 995)",2,2002_913549
798,"(172, 27, 35)",3,2002_913549
799,"(172, 27, 47)",3,2002_913549
800,"(172, 27, 161)",2,2002_913549
801,"(172, 27, 995)",2,2002_913549
802,"(172, 33, 20)",2,2002_913549
803,"(172, 33, 47)",2,2002_913549
804,"(172, 35, 47)",2,2002_913549
805,"(172, 35, 161)",2,2002_913549
806,"(172, 35, 995)",2,2002_913549
807,"(172, 39, 3)",2,2002_913549
808,"(172, 39, 17)",3,2002_913549
809,"(172, 39, 27)",3,2002_913549
810,"(172, 39, 35)",2,2002_913549
811,"(172, 39, 47)",3,2002_913549
812,"(172, 39, 995)",2,2002_913549
813,"(172, 47, 995)",2,2002_913549
814,"(172, 60, 27)",2,2002_913549
815,"(172, 60, 35)",2,2002_913549
816,"(198, 198, 198)",2,2002_913549
817,"(198, 198, 379)",2,2002_913549
818,"(198, 379, 198)",3,2002_913549
819,"(198, 379, 379)",2,2002_913549
820,"(244, 2, 0)",2,2002_913549
821,"(244, 2, 20)",2,2002_913549
822,"(244, 2, 47)",2,2002_913549
823,"(254, 0, 2)",2,2002_913549
824,"(254, 0, 14)",2,2002_913549
825,"(254, 0, 39)",2,2002_913549
826,"(254, 0, 172)",2,2002_913549
827,"(254, 2, 172)",2,2002_913549
828,"(254, 14, 172)",2,2002_913549
829,"(254, 33, 0)",3,2002_913549
830,"(254, 33, 2)",2,2002_913549
831,"(254, 33, 14)",2,2002_913549
832,"(254, 33, 39)",3,2002_913549
833,"(254, 33, 47)",2,2002_913549
834,"(254, 33, 172)",2,2002_913549
835,"(254, 47, 10)",2,2002_913549
836,"(254, 140, 47)",2,2002_913549
837,"(254, 140, 378)",2,2002_913549
838,"(254, 199, 47)",2,2002_913549
839,"(254, 378, 47)",2,2002_913549
840,"(378, 10, 31)",2,2002_913549
841,"(378, 10, 2184)",2,2002_913549
842,"(378, 47, 10)",3,2002_913549
843,"(378, 47, 31)",2,2002_913549
844,"(378, 47, 2184)",2,2002_913549
845,"(378, 2184, 31)",2,2002_913549
846,"(379, 198, 198)",2,2002_913549
847,"(379, 198, 379)",2,2002_913549
848,"(379, 379, 198)",2,2002_913549
849,"(622, 17, 804)",2,2002_913549
850,"(622, 17, 4492)",2,2002_913549
851,"(622, 804, 4492)",2,2002_913549
852,"(801, 17, 804)",2,2002_913549
853,"(801, 17, 4492)",2,2002_913549
854,"(801, 622, 17)",2,2002_913549
855,"(801, 622, 804)",2,2002_913549
856,"(801, 622, 4492)",2,2002_913549
857,"(801, 804, 4492)",2,2002_913549
858,"(1879, 3, 0)",2,2002_913549
859,"(1879, 20, 0)",2,2002_913549
860,"(1879, 20, 3)",2,2002_913549
861,"(0, 2, 3, 27)",2,2002_913549
862,"(0, 2, 3, 35)",2,2002_913549
863,"(0, 2, 3, 60)",2,2002_913549
864,"(0, 2, 17, 3)",3,2002_913549
865,"(0, 2, 17, 27)",2,2002_913549
866,"(0, 2, 17, 35)",2,2002_913549
867,"(0, 2, 17, 60)",2,2002_913549
868,"(0, 2, 27, 35)",2,2002_913549
869,"(0, 2, 33, 3)",2,2002_913549
870,"(0, 2, 60, 27)",2,2002_913549
871,"(0, 2, 60, 35)",2,2002_913549
872,"(0, 2, 87, 3)",2,2002_913549
873,"(0, 2, 172, 3)",2,2002_913549
874,"(0, 2, 172, 17)",2,2002_913549
875,"(0, 2, 172, 27)",2,2002_913549
876,"(0, 2, 172, 35)",2,2002_913549
877,"(0, 2, 172, 60)",2,2002_913549
878,"(0, 3, 27, 35)",2,2002_913549
879,"(0, 3, 60, 27)",2,2002_913549
880,"(0, 3, 60, 35)",2,2002_913549
881,"(0, 17, 3, 27)",2,2002_913549
882,"(0, 17, 3, 35)",2,2002_913549
883,"(0, 17, 3, 60)",2,2002_913549
884,"(0, 17, 27, 35)",2,2002_913549
885,"(0, 17, 60, 27)",2,2002_913549
886,"(0, 17, 60, 35)",2,2002_913549
887,"(0, 60, 27, 35)",2,2002_913549
888,"(0, 172, 3, 27)",2,2002_913549
889,"(0, 172, 3, 35)",2,2002_913549
890,"(0, 172, 3, 60)",2,2002_913549
891,"(0, 172, 17, 3)",2,2002_913549
892,"(0, 172, 17, 27)",2,2002_913549
893,"(0, 172, 17, 35)",2,2002_913549
894,"(0, 172, 17, 60)",2,2002_913549
895,"(0, 172, 27, 35)",2,2002_913549
896,"(0, 172, 60, 27)",2,2002_913549
897,"(0, 172, 60, 35)",2,2002_913549
898,"(2, 3, 27, 35)",2,2002_913549
899,"(2, 3, 60, 27)",2,2002_913549
900,"(2, 3, 60, 35)",2,2002_913549
901,"(2, 17, 3, 27)",2,2002_913549
902,"(2, 17, 3, 35)",2,2002_913549
903,"(2, 17, 3, 47)",2,2002_913549
904,"(2, 17, 3, 60)",3,2002_913549
905,"(2, 17, 3, 801)",2,2002_913549
906,"(2, 17, 27, 3)",2,2002_913549
907,"(2, 17, 27, 35)",3,2002_913549
908,"(2, 17, 27, 47)",3,2002_913549
909,"(2, 17, 27, 161)",2,2002_913549
910,"(2, 17, 33, 3)",2,2002_913549
911,"(2, 17, 35, 47)",2,2002_913549
912,"(2, 17, 35, 161)",2,2002_913549
913,"(2, 17, 60, 27)",2,2002_913549
914,"(2, 17, 60, 35)",2,2002_913549
915,"(2, 27, 35, 47)",2,2002_913549
916,"(2, 27, 35, 161)",2,2002_913549
917,"(2, 33, 47, 20)",2,2002_913549
918,"(2, 39, 3, 47)",2,2002_913549
919,"(2, 39, 17, 3)",2,2002_913549
920,"(2, 39, 17, 27)",3,2002_913549
921,"(2, 39, 17, 35)",2,2002_913549
922,"(2, 39, 17, 47)",3,2002_913549
923,"(2, 39, 27, 35)",2,2002_913549
924,"(2, 39, 27, 47)",3,2002_913549
925,"(2, 39, 35, 47)",2,2002_913549
926,"(2, 60, 27, 35)",2,2002_913549
927,"(2, 172, 3, 27)",2,2002_913549
928,"(2, 172, 3, 35)",2,2002_913549
929,"(2, 172, 3, 47)",2,2002_913549
930,"(2, 172, 3, 60)",2,2002_913549
931,"(2, 172, 17, 3)",3,2002_913549
932,"(2, 172, 17, 27)",4,2002_913549
933,"(2, 172, 17, 35)",3,2002_913549
934,"(2, 172, 17, 47)",3,2002_913549
935,"(2, 172, 17, 60)",2,2002_913549
936,"(2, 172, 17, 161)",2,2002_913549
937,"(2, 172, 27, 35)",3,2002_913549
938,"(2, 172, 27, 47)",3,2002_913549
939,"(2, 172, 27, 161)",2,2002_913549
940,"(2, 172, 33, 20)",2,2002_913549
941,"(2, 172, 33, 47)",2,2002_913549
942,"(2, 172, 35, 47)",2,2002_913549
943,"(2, 172, 35, 161)",2,2002_913549
944,"(2, 172, 39, 3)",2,2002_913549
945,"(2, 172, 39, 17)",3,2002_913549
946,"(2, 172, 39, 27)",3,2002_913549
947,"(2, 172, 39, 35)",2,2002_913549
948,"(2, 172, 39, 47)",3,2002_913549
949,"(2, 172, 60, 27)",2,2002_913549
950,"(2, 172, 60, 35)",2,2002_913549
951,"(2, 198, 198, 198)",2,2002_913549
952,"(2, 198, 198, 379)",2,2002_913549
953,"(2, 198, 379, 198)",2,2002_913549
954,"(2, 198, 379, 379)",2,2002_913549
955,"(2, 379, 198, 198)",2,2002_913549
956,"(2, 379, 198, 379)",2,2002_913549
957,"(2, 379, 379, 198)",2,2002_913549
958,"(3, 17, 804, 4492)",2,2002_913549
959,"(3, 60, 27, 35)",2,2002_913549
960,"(3, 622, 17, 804)",2,2002_913549
961,"(3, 622, 17, 4492)",2,2002_913549
962,"(3, 622, 804, 4492)",2,2002_913549
963,"(3, 801, 17, 804)",2,2002_913549
964,"(3, 801, 17, 4492)",2,2002_913549
965,"(3, 801, 622, 17)",2,2002_913549
966,"(3, 801, 622, 804)",2,2002_913549
967,"(3, 801, 622, 4492)",2,2002_913549
968,"(3, 801, 804, 4492)",2,2002_913549
969,"(17, 3, 27, 35)",2,2002_913549
970,"(17, 3, 60, 27)",2,2002_913549
971,"(17, 3, 60, 35)",2,2002_913549
972,"(17, 3, 622, 17)",2,2002_913549
973,"(17, 3, 801, 17)",2,2002_913549
974,"(17, 3, 801, 622)",2,2002_913549
975,"(17, 27, 35, 47)",2,2002_913549
976,"(17, 27, 35, 87)",2,2002_913549
977,"(17, 27, 35, 161)",2,2002_913549
978,"(17, 27, 35, 995)",2,2002_913549
979,"(17, 27, 47, 87)",2,2002_913549
980,"(17, 27, 47, 995)",2,2002_913549
981,"(17, 27, 995, 87)",2,2002_913549
982,"(17, 33, 3, 20)",2,2002_913549
983,"(17, 35, 47, 87)",2,2002_913549
984,"(17, 35, 47, 995)",2,2002_913549
985,"(17, 35, 995, 87)",2,2002_913549
986,"(17, 47, 995, 87)",2,2002_913549
987,"(17, 60, 27, 35)",2,2002_913549
988,"(17, 801, 622, 17)",2,2002_913549
989,"(27, 35, 47, 87)",2,2002_913549
990,"(27, 35, 47, 995)",2,2002_913549
991,"(27, 35, 995, 87)",2,2002_913549
992,"(27, 47, 995, 87)",2,2002_913549
993,"(27, 378, 47, 10)",2,2002_913549
994,"(33, 0, 2, 172)",2,2002_913549
995,"(33, 0, 14, 172)",2,2002_913549
996,"(33, 20, 3, 0)",2,2002_913549
997,"(33, 41, 0, 14)",3,2002_913549
998,"(33, 47, 3, 0)",2,2002_913549
999,"(33, 47, 20, 0)",2,2002_913549
1000,"(33, 47, 20, 3)",2,2002_913549
1001,"(33, 47, 1879, 0)",2,2002_913549
1002,"(33, 47, 1879, 3)",2,2002_913549
1003,"(33, 47, 1879, 20)",2,2002_913549
1004,"(33, 198, 379, 198)",2,2002_913549
1005,"(33, 1879, 3, 0)",2,2002_913549
1006,"(33, 1879, 20, 0)",2,2002_913549
1007,"(33, 1879, 20, 3)",2,2002_913549
1008,"(35, 47, 995, 87)",2,2002_913549
1009,"(38, 33, 31, 2274)",2,2002_913549
1010,"(39, 17, 3, 47)",2,2002_913549
1011,"(39, 17, 27, 35)",2,2002_913549
1012,"(39, 17, 27, 47)",3,2002_913549
1013,"(39, 17, 27, 87)",2,2002_913549
1014,"(39, 17, 27, 995)",2,2002_913549
1015,"(39, 17, 35, 47)",2,2002_913549
1016,"(39, 17, 35, 87)",2,2002_913549
1017,"(39, 17, 35, 995)",2,2002_913549
1018,"(39, 17, 47, 87)",2,2002_913549
1019,"(39, 17, 47, 995)",2,2002_913549
1020,"(39, 17, 995, 87)",2,2002_913549
1021,"(39, 27, 35, 47)",2,2002_913549
1022,"(39, 27, 35, 87)",2,2002_913549
1023,"(39, 27, 35, 995)",2,2002_913549
1024,"(39, 27, 47, 87)",2,2002_913549
1025,"(39, 27, 47, 995)",2,2002_913549
1026,"(39, 27, 995, 87)",2,2002_913549
1027,"(39, 35, 47, 87)",2,2002_913549
1028,"(39, 35, 47, 995)",2,2002_913549
1029,"(39, 35, 995, 87)",2,2002_913549
1030,"(39, 47, 995, 87)",2,2002_913549
1031,"(40, 0, 2, 3)",2,2002_913549
1032,"(40, 0, 2, 17)",2,2002_913549
1033,"(40, 0, 2, 87)",2,2002_913549
1034,"(40, 0, 17, 3)",2,2002_913549
1035,"(40, 2, 17, 3)",2,2002_913549
1036,"(47, 10, 2184, 31)",2,2002_913549
1037,"(47, 20, 3, 0)",2,2002_913549
1038,"(47, 27, 378, 47)",2,2002_913549
1039,"(47, 33, 41, 0)",2,2002_913549
1040,"(47, 61, 117, 77)",2,2002_913549
1041,"(47, 117, 0, 87)",2,2002_913549
1042,"(47, 1879, 3, 0)",2,2002_913549
1043,"(47, 1879, 20, 0)",2,2002_913549
1044,"(47, 1879, 20, 3)",2,2002_913549
1045,"(77, 47, 117, 87)",2,2002_913549
1046,"(87, 33, 41, 0)",2,2002_913549
1047,"(172, 3, 27, 35)",2,2002_913549
1048,"(172, 3, 60, 27)",2,2002_913549
1049,"(172, 3, 60, 35)",2,2002_913549
1050,"(172, 17, 3, 27)",2,2002_913549
1051,"(172, 17, 3, 35)",2,2002_913549
1052,"(172, 17, 3, 47)",2,2002_913549
1053,"(172, 17, 3, 60)",2,2002_913549
1054,"(172, 17, 27, 35)",3,2002_913549
1055,"(172, 17, 27, 47)",3,2002_913549
1056,"(172, 17, 27, 161)",2,2002_913549
1057,"(172, 17, 27, 995)",2,2002_913549
1058,"(172, 17, 35, 47)",2,2002_913549
1059,"(172, 17, 35, 161)",2,2002_913549
1060,"(172, 17, 35, 995)",2,2002_913549
1061,"(172, 17, 47, 995)",2,2002_913549
1062,"(172, 17, 60, 27)",2,2002_913549
1063,"(172, 17, 60, 35)",2,2002_913549
1064,"(172, 27, 35, 47)",2,2002_913549
1065,"(172, 27, 35, 161)",2,2002_913549
1066,"(172, 27, 35, 995)",2,2002_913549
1067,"(172, 27, 47, 995)",2,2002_913549
1068,"(172, 35, 47, 995)",2,2002_913549
1069,"(172, 39, 3, 47)",2,2002_913549
1070,"(172, 39, 17, 3)",2,2002_913549
1071,"(172, 39, 17, 27)",3,2002_913549
1072,"(172, 39, 17, 35)",2,2002_913549
1073,"(172, 39, 17, 47)",3,2002_913549
1074,"(172, 39, 17, 995)",2,2002_913549
1075,"(172, 39, 27, 35)",2,2002_913549
1076,"(172, 39, 27, 47)",3,2002_913549
1077,"(172, 39, 27, 995)",2,2002_913549
1078,"(172, 39, 35, 47)",2,2002_913549
1079,"(172, 39, 35, 995)",2,2002_913549
1080,"(172, 39, 47, 995)",2,2002_913549
1081,"(172, 60, 27, 35)",2,2002_913549
1082,"(198, 198, 379, 198)",2,2002_913549
1083,"(198, 379, 198, 198)",2,2002_913549
1084,"(198, 379, 198, 379)",2,2002_913549
1085,"(198, 379, 379, 198)",2,2002_913549
1086,"(254, 0, 2, 172)",2,2002_913549
1087,"(254, 0, 14, 172)",2,2002_913549
1088,"(254, 33, 0, 2)",2,2002_913549
1089,"(254, 33, 0, 14)",2,2002_913549
1090,"(254, 33, 0, 172)",2,2002_913549
1091,"(254, 33, 2, 172)",2,2002_913549
1092,"(254, 33, 14, 172)",2,2002_913549
1093,"(254, 140, 378, 47)",2,2002_913549
1094,"(378, 10, 2184, 31)",2,2002_913549
1095,"(378, 47, 10, 31)",2,2002_913549
1096,"(378, 47, 10, 2184)",2,2002_913549
1097,"(378, 47, 2184, 31)",2,2002_913549
1098,"(379, 198, 379, 198)",2,2002_913549
1099,"(622, 17, 804, 4492)",2,2002_913549
1100,"(801, 17, 804, 4492)",2,2002_913549
1101,"(801, 622, 17, 804)",2,2002_913549
1102,"(801, 622, 17, 4492)",2,2002_913549
1103,"(801, 622, 804, 4492)",2,2002_913549
1104,"(1879, 20, 3, 0)",2,2002_913549
1105,"(0, 2, 3, 27, 35)",2,2002_913549
1106,"(0, 2, 3, 60, 27)",2,2002_913549
1107,"(0, 2, 3, 60, 35)",2,2002_913549
1108,"(0, 2, 17, 3, 27)",2,2002_913549
1109,"(0, 2, 17, 3, 35)",2,2002_913549
1110,"(0, 2, 17, 3, 60)",2,2002_913549
1111,"(0, 2, 17, 27, 35)",2,2002_913549
1112,"(0, 2, 17, 60, 27)",2,2002_913549
1113,"(0, 2, 17, 60, 35)",2,2002_913549
1114,"(0, 2, 60, 27, 35)",2,2002_913549
1115,"(0, 2, 172, 3, 27)",2,2002_913549
1116,"(0, 2, 172, 3, 35)",2,2002_913549
1117,"(0, 2, 172, 3, 60)",2,2002_913549
1118,"(0, 2, 172, 17, 3)",2,2002_913549
1119,"(0, 2, 172, 17, 27)",2,2002_913549
1120,"(0, 2, 172, 17, 35)",2,2002_913549
1121,"(0, 2, 172, 17, 60)",2,2002_913549
1122,"(0, 2, 172, 27, 35)",2,2002_913549
1123,"(0, 2, 172, 60, 27)",2,2002_913549
1124,"(0, 2, 172, 60, 35)",2,2002_913549
1125,"(0, 3, 60, 27, 35)",2,2002_913549
1126,"(0, 17, 3, 27, 35)",2,2002_913549
1127,"(0, 17, 3, 60, 27)",2,2002_913549
1128,"(0, 17, 3, 60, 35)",2,2002_913549
1129,"(0, 17, 60, 27, 35)",2,2002_913549
1130,"(0, 172, 3, 27, 35)",2,2002_913549
1131,"(0, 172, 3, 60, 27)",2,2002_913549
1132,"(0, 172, 3, 60, 35)",2,2002_913549
1133,"(0, 172, 17, 3, 27)",2,2002_913549
1134,"(0, 172, 17, 3, 35)",2,2002_913549
1135,"(0, 172, 17, 3, 60)",2,2002_913549
1136,"(0, 172, 17, 27, 35)",2,2002_913549
1137,"(0, 172, 17, 60, 27)",2,2002_913549
1138,"(0, 172, 17, 60, 35)",2,2002_913549
1139,"(0, 172, 60, 27, 35)",2,2002_913549
1140,"(2, 3, 60, 27, 35)",2,2002_913549
1141,"(2, 17, 3, 27, 35)",2,2002_913549
1142,"(2, 17, 3, 60, 27)",2,2002_913549
1143,"(2, 17, 3, 60, 35)",2,2002_913549
1144,"(2, 17, 27, 35, 47)",2,2002_913549
1145,"(2, 17, 27, 35, 161)",2,2002_913549
1146,"(2, 17, 60, 27, 35)",2,2002_913549
1147,"(2, 39, 17, 3, 47)",2,2002_913549
1148,"(2, 39, 17, 27, 35)",2,2002_913549
1149,"(2, 39, 17, 27, 47)",3,2002_913549
1150,"(2, 39, 17, 35, 47)",2,2002_913549
1151,"(2, 39, 27, 35, 47)",2,2002_913549
1152,"(2, 172, 3, 27, 35)",2,2002_913549
1153,"(2, 172, 3, 60, 27)",2,2002_913549
1154,"(2, 172, 3, 60, 35)",2,2002_913549
1155,"(2, 172, 17, 3, 27)",2,2002_913549
1156,"(2, 172, 17, 3, 35)",2,2002_913549
1157,"(2, 172, 17, 3, 47)",2,2002_913549
1158,"(2, 172, 17, 3, 60)",2,2002_913549
1159,"(2, 172, 17, 27, 35)",3,2002_913549
1160,"(2, 172, 17, 27, 47)",3,2002_913549
1161,"(2, 172, 17, 27, 161)",2,2002_913549
1162,"(2, 172, 17, 35, 47)",2,2002_913549
1163,"(2, 172, 17, 35, 161)",2,2002_913549
1164,"(2, 172, 17, 60, 27)",2,2002_913549
1165,"(2, 172, 17, 60, 35)",2,2002_913549
1166,"(2, 172, 27, 35, 47)",2,2002_913549
1167,"(2, 172, 27, 35, 161)",2,2002_913549
1168,"(2, 172, 39, 3, 47)",2,2002_913549
1169,"(2, 172, 39, 17, 3)",2,2002_913549
1170,"(2, 172, 39, 17, 27)",3,2002_913549
1171,"(2, 172, 39, 17, 35)",2,2002_913549
1172,"(2, 172, 39, 17, 47)",3,2002_913549
1173,"(2, 172, 39, 27, 35)",2,2002_913549
1174,"(2, 172, 39, 27, 47)",3,2002_913549
1175,"(2, 172, 39, 35, 47)",2,2002_913549
1176,"(2, 172, 60, 27, 35)",2,2002_913549
1177,"(2, 198, 198, 379, 198)",2,2002_913549
1178,"(2, 198, 379, 198, 198)",2,2002_913549
1179,"(2, 198, 379, 198, 379)",2,2002_913549
1180,"(2, 198, 379, 379, 198)",2,2002_913549
1181,"(2, 379, 198, 379, 198)",2,2002_913549
1182,"(3, 622, 17, 804, 4492)",2,2002_913549
1183,"(3, 801, 17, 804, 4492)",2,2002_913549
1184,"(3, 801, 622, 17, 804)",2,2002_913549
1185,"(3, 801, 622, 17, 4492)",2,2002_913549
1186,"(3, 801, 622, 804, 4492)",2,2002_913549
1187,"(17, 3, 60, 27, 35)",2,2002_913549
1188,"(17, 3, 801, 622, 17)",2,2002_913549
1189,"(17, 27, 35, 47, 87)",2,2002_913549
1190,"(17, 27, 35, 47, 995)",2,2002_913549
1191,"(17, 27, 35, 995, 87)",2,2002_913549
1192,"(17, 27, 47, 995, 87)",2,2002_913549
1193,"(17, 35, 47, 995, 87)",2,2002_913549
1194,"(27, 35, 47, 995, 87)",2,2002_913549
1195,"(33, 47, 20, 3, 0)",2,2002_913549
1196,"(33, 47, 1879, 3, 0)",2,2002_913549
1197,"(33, 47, 1879, 20, 0)",2,2002_913549
1198,"(33, 47, 1879, 20, 3)",2,2002_913549
1199,"(33, 1879, 20, 3, 0)",2,2002_913549
1200,"(39, 17, 27, 35, 47)",2,2002_913549
1201,"(39, 17, 27, 35, 87)",2,2002_913549
1202,"(39, 17, 27, 35, 995)",2,2002_913549
1203,"(39, 17, 27, 47, 87)",2,2002_913549
1204,"(39, 17, 27, 47, 995)",2,2002_913549
1205,"(39, 17, 27, 995, 87)",2,2002_913549
1206,"(39, 17, 35, 47, 87)",2,2002_913549
1207,"(39, 17, 35, 47, 995)",2,2002_913549
1208,"(39, 17, 35, 995, 87)",2,2002_913549
1209,"(39, 17, 47, 995, 87)",2,2002_913549
1210,"(39, 27, 35, 47, 87)",2,2002_913549
1211,"(39, 27, 35, 47, 995)",2,2002_913549
1212,"(39, 27, 35, 995, 87)",2,2002_913549
1213,"(39, 27, 47, 995, 87)",2,2002_913549
1214,"(39, 35, 47, 995, 87)",2,2002_913549
1215,"(40, 0, 2, 17, 3)",2,2002_913549
1216,"(47, 1879, 20, 3, 0)",2,2002_913549
1217,"(172, 3, 60, 27, 35)",2,2002_913549
1218,"(172, 17, 3, 27, 35)",2,2002_913549
1219,"(172, 17, 3, 60, 27)",2,2002_913549
1220,"(172, 17, 3, 60, 35)",2,2002_913549
1221,"(172, 17, 27, 35, 47)",2,2002_913549
1222,"(172, 17, 27, 35, 161)",2,2002_913549
1223,"(172, 17, 27, 35, 995)",2,2002_913549
1224,"(172, 17, 27, 47, 995)",2,2002_913549
1225,"(172, 17, 35, 47, 995)",2,2002_913549
1226,"(172, 17, 60, 27, 35)",2,2002_913549
1227,"(172, 27, 35, 47, 995)",2,2002_913549
1228,"(172, 39, 17, 3, 47)",2,2002_913549
1229,"(172, 39, 17, 27, 35)",2,2002_913549
1230,"(172, 39, 17, 27, 47)",3,2002_913549
1231,"(172, 39, 17, 27, 995)",2,2002_913549
1232,"(172, 39, 17, 35, 47)",2,2002_913549
1233,"(172, 39, 17, 35, 995)",2,2002_913549
1234,"(172, 39, 17, 47, 995)",2,2002_913549
1235,"(172, 39, 27, 35, 47)",2,2002_913549
1236,"(172, 39, 27, 35, 995)",2,2002_913549
1237,"(172, 39, 27, 47, 995)",2,2002_913549
1238,"(172, 39, 35, 47, 995)",2,2002_913549
1239,"(198, 379, 198, 379, 198)",2,2002_913549
1240,"(254, 33, 0, 2, 172)",2,2002_913549
1241,"(254, 33, 0, 14, 172)",2,2002_913549
1242,"(378, 47, 10, 2184, 31)",2,2002_913549
1243,"(801, 622, 17, 804, 4492)",2,2002_913549
1244,"(0, 2, 3, 60, 27, 35)",2,2002_913549
1245,"(0, 2, 17, 3, 27, 35)",2,2002_913549
1246,"(0, 2, 17, 3, 60, 27)",2,2002_913549
1247,"(0, 2, 17, 3, 60, 35)",2,2002_913549
1248,"(0, 2, 17, 60, 27, 35)",2,2002_913549
1249,"(0, 2, 172, 3, 27, 35)",2,2002_913549
1250,"(0, 2, 172, 3, 60, 27)",2,2002_913549
1251,"(0, 2, 172, 3, 60, 35)",2,2002_913549
1252,"(0, 2, 172, 17, 3, 27)",2,2002_913549
1253,"(0, 2, 172, 17, 3, 35)",2,2002_913549
1254,"(0, 2, 172, 17, 3, 60)",2,2002_913549
1255,"(0, 2, 172, 17, 27, 35)",2,2002_913549
1256,"(0, 2, 172, 17, 60, 27)",2,2002_913549
1257,"(0, 2, 172, 17, 60, 35)",2,2002_913549
1258,"(0, 2, 172, 60, 27, 35)",2,2002_913549
1259,"(0, 17, 3, 60, 27, 35)",2,2002_913549
1260,"(0, 172, 3, 60, 27, 35)",2,2002_913549
1261,"(0, 172, 17, 3, 27, 35)",2,2002_913549
1262,"(0, 172, 17, 3, 60, 27)",2,2002_913549
1263,"(0, 172, 17, 3, 60, 35)",2,2002_913549
1264,"(0, 172, 17, 60, 27, 35)",2,2002_913549
1265,"(2, 17, 3, 60, 27, 35)",2,2002_913549
1266,"(2, 39, 17, 27, 35, 47)",2,2002_913549
1267,"(2, 172, 3, 60, 27, 35)",2,2002_913549
1268,"(2, 172, 17, 3, 27, 35)",2,2002_913549
1269,"(2, 172, 17, 3, 60, 27)",2,2002_913549
1270,"(2, 172, 17, 3, 60, 35)",2,2002_913549
1271,"(2, 172, 17, 27, 35, 47)",2,2002_913549
1272,"(2, 172, 17, 27, 35, 161)",2,2002_913549
1273,"(2, 172, 17, 60, 27, 35)",2,2002_913549
1274,"(2, 172, 39, 17, 3, 47)",2,2002_913549
1275,"(2, 172, 39, 17, 27, 35)",2,2002_913549
1276,"(2, 172, 39, 17, 27, 47)",3,2002_913549
1277,"(2, 172, 39, 17, 35, 47)",2,2002_913549
1278,"(2, 172, 39, 27, 35, 47)",2,2002_913549
1279,"(2, 198, 379, 198, 379, 198)",2,2002_913549
1280,"(3, 801, 622, 17, 804, 4492)",2,2002_913549
1281,"(17, 27, 35, 47, 995, 87)",2,2002_913549
1282,"(33, 47, 1879, 20, 3, 0)",2,2002_913549
1283,"(39, 17, 27, 35, 47, 87)",2,2002_913549
1284,"(39, 17, 27, 35, 47, 995)",2,2002_913549
1285,"(39, 17, 27, 35, 995, 87)",2,2002_913549
1286,"(39, 17, 27, 47, 995, 87)",2,2002_913549
1287,"(39, 17, 35, 47, 995, 87)",2,2002_913549
1288,"(39, 27, 35, 47, 995, 87)",2,2002_913549
1289,"(172, 17, 3, 60, 27, 35)",2,2002_913549
1290,"(172, 17, 27, 35, 47, 995)",2,2002_913549
1291,"(172, 39, 17, 27, 35, 47)",2,2002_913549
1292,"(172, 39, 17, 27, 35, 995)",2,2002_913549
1293,"(172, 39, 17, 27, 47, 995)",2,2002_913549
1294,"(172, 39, 17, 35, 47, 995)",2,2002_913549
1295,"(172, 39, 27, 35, 47, 995)",2,2002_913549
1296,"(0, 2, 17, 3, 60, 27, 35)",2,2002_913549
1297,"(0, 2, 172, 3, 60, 27, 35)",2,2002_913549
1298,"(0, 2, 172, 17, 3, 27, 35)",2,2002_913549
1299,"(0, 2, 172, 17, 3, 60, 27)",2,2002_913549
1300,"(0, 2, 172, 17, 3, 60, 35)",2,2002_913549
1301,"(0, 2, 172, 17, 60, 27, 35)",2,2002_913549
1302,"(0, 172, 17, 3, 60, 27, 35)",2,2002_913549
1303,"(2, 172, 17, 3, 60, 27, 35)",2,2002_913549
1304,"(2, 172, 39, 17, 27, 35, 47)",2,2002_913549
1305,"(39, 17, 27, 35, 47, 995, 87)",2,2002_913549
1306,"(172, 39, 17, 27, 35, 47, 995)",2,2002_913549
1307,"(0, 2, 172, 17, 3, 60, 27, 35)",2,2002_913549
