,pattern,sup,author
378,"(2, 2, 33)",3,2003_100
379,"(2, 2, 84)",2,2003_100
380,"(2, 2, 172)",3,2003_100
381,"(2, 3, 20)",2,2003_100
382,"(2, 17, 3)",2,2003_100
383,"(2, 17, 20)",3,2003_100
384,"(2, 17, 27)",2,2003_100
385,"(2, 17, 33)",3,2003_100
386,"(2, 17, 40)",2,2003_100
387,"(2, 17, 306)",2,2003_100
388,"(2, 17, 683)",2,2003_100
389,"(2, 17, 1086)",2,2003_100
390,"(2, 20, 40)",2,2003_100
391,"(2, 21, 425)",2,2003_100
392,"(2, 27, 17)",2,2003_100
393,"(2, 27, 27)",2,2003_100
394,"(2, 27, 40)",2,2003_100
395,"(2, 27, 47)",2,2003_100
396,"(2, 27, 1086)",2,2003_100
397,"(2, 33, 2)",2,2003_100
398,"(2, 33, 17)",2,2003_100
399,"(2, 33, 27)",3,2003_100
400,"(2, 33, 31)",2,2003_100
401,"(2, 33, 33)",4,2003_100
402,"(2, 33, 40)",3,2003_100
403,"(2, 33, 62)",2,2003_100
404,"(2, 33, 129)",2,2003_100
405,"(2, 33, 172)",3,2003_100
406,"(2, 33, 240)",2,2003_100
407,"(2, 33, 295)",2,2003_100
408,"(2, 33, 597)",2,2003_100
409,"(2, 33, 1086)",2,2003_100
410,"(2, 39, 33)",2,2003_100
411,"(2, 41, 27)",2,2003_100
412,"(2, 44, 298)",2,2003_100
413,"(2, 76, 2)",2,2003_100
414,"(2, 112, 3)",2,2003_100
415,"(2, 129, 3)",2,2003_100
416,"(2, 129, 17)",2,2003_100
417,"(2, 129, 27)",4,2003_100
418,"(2, 129, 40)",2,2003_100
419,"(2, 129, 1086)",2,2003_100
420,"(2, 172, 2)",3,2003_100
421,"(2, 172, 33)",3,2003_100
422,"(2, 172, 172)",3,2003_100
423,"(2, 172, 240)",2,2003_100
424,"(2, 172, 295)",2,2003_100
425,"(2, 240, 2)",2,2003_100
426,"(2, 240, 172)",2,2003_100
427,"(2, 271, 2)",2,2003_100
428,"(2, 295, 2)",2,2003_100
429,"(2, 295, 33)",2,2003_100
430,"(2, 306, 683)",2,2003_100
431,"(2, 420, 13)",2,2003_100
432,"(2, 442, 444)",2,2003_100
433,"(2, 1247, 20)",2,2003_100
434,"(3, 3, 33)",2,2003_100
435,"(3, 169, 317)",2,2003_100
436,"(17, 306, 683)",2,2003_100
437,"(20, 3, 33)",2,2003_100
438,"(26, 2, 33)",2,2003_100
439,"(27, 17, 1086)",2,2003_100
440,"(27, 31, 431)",2,2003_100
441,"(27, 11663, 31)",2,2003_100
442,"(27, 11663, 431)",2,2003_100
443,"(30, 38, 47)",2,2003_100
444,"(31, 2, 17)",3,2003_100
445,"(31, 2, 33)",2,2003_100
446,"(31, 17, 33)",2,2003_100
447,"(31, 27, 33)",2,2003_100
448,"(31, 47, 20)",2,2003_100
449,"(33, 2, 27)",2,2003_100
450,"(33, 2, 33)",2,2003_100
451,"(33, 2, 40)",2,2003_100
452,"(33, 2, 172)",3,2003_100
453,"(33, 17, 1086)",2,2003_100
454,"(33, 20, 40)",2,2003_100
455,"(33, 27, 17)",2,2003_100
456,"(33, 27, 40)",3,2003_100
457,"(33, 27, 1086)",2,2003_100
458,"(33, 31, 2)",4,2003_100
459,"(33, 31, 47)",2,2003_100
460,"(33, 33, 2)",2,2003_100
461,"(33, 33, 172)",2,2003_100
462,"(33, 33, 240)",2,2003_100
463,"(33, 38, 47)",2,2003_100
464,"(33, 40, 275)",2,2003_100
465,"(33, 129, 17)",2,2003_100
466,"(33, 129, 27)",2,2003_100
467,"(33, 129, 1086)",2,2003_100
468,"(33, 158, 2)",3,2003_100
469,"(33, 172, 2)",2,2003_100
470,"(33, 172, 172)",2,2003_100
471,"(33, 172, 240)",2,2003_100
472,"(33, 240, 2)",3,2003_100
473,"(33, 240, 172)",2,2003_100
474,"(33, 295, 2)",2,2003_100
475,"(33, 1086, 341)",2,2003_100
476,"(39, 33, 31)",2,2003_100
477,"(39, 33, 38)",2,2003_100
478,"(39, 33, 158)",2,2003_100
479,"(39, 33, 341)",2,2003_100
480,"(39, 33, 1086)",2,2003_100
481,"(39, 1086, 341)",2,2003_100
482,"(40, 2, 33)",2,2003_100
483,"(40, 31, 2)",2,2003_100
484,"(40, 33, 2)",2,2003_100
485,"(40, 189, 298)",2,2003_100
486,"(40, 275, 1017)",2,2003_100
487,"(41, 38, 47)",2,2003_100
488,"(47, 2, 33)",2,2003_100
489,"(70, 40, 189)",2,2003_100
490,"(70, 40, 298)",2,2003_100
491,"(70, 189, 298)",2,2003_100
492,"(87, 33, 47)",2,2003_100
493,"(103, 41, 27)",2,2003_100
494,"(105, 38, 47)",2,2003_100
495,"(129, 17, 1086)",2,2003_100
496,"(129, 27, 17)",2,2003_100
497,"(129, 27, 1086)",2,2003_100
498,"(134, 102, 146)",2,2003_100
499,"(158, 2, 17)",2,2003_100
500,"(158, 2, 20)",2,2003_100
501,"(158, 2, 33)",2,2003_100
502,"(158, 2, 40)",2,2003_100
503,"(158, 2, 172)",2,2003_100
504,"(158, 20, 40)",2,2003_100
505,"(158, 33, 33)",2,2003_100
506,"(172, 2, 2)",2,2003_100
507,"(172, 2, 33)",3,2003_100
508,"(172, 2, 172)",3,2003_100
509,"(172, 2, 240)",2,2003_100
510,"(172, 33, 2)",2,2003_100
511,"(172, 33, 33)",2,2003_100
512,"(172, 33, 172)",2,2003_100
513,"(172, 33, 240)",2,2003_100
514,"(172, 172, 2)",2,2003_100
515,"(172, 172, 240)",2,2003_100
516,"(172, 240, 2)",2,2003_100
517,"(172, 240, 172)",2,2003_100
518,"(172, 295, 2)",2,2003_100
519,"(172, 295, 33)",2,2003_100
520,"(189, 2, 33)",2,2003_100
521,"(189, 33, 33)",2,2003_100
522,"(240, 2, 172)",2,2003_100
523,"(295, 2, 33)",3,2003_100
524,"(333, 289, 20)",2,2003_100
525,"(11663, 31, 431)",2,2003_100
526,"(2, 2, 33, 172)",2,2003_100
527,"(2, 17, 306, 683)",2,2003_100
528,"(2, 27, 17, 1086)",2,2003_100
529,"(2, 33, 2, 172)",2,2003_100
530,"(2, 33, 17, 1086)",2,2003_100
531,"(2, 33, 27, 17)",2,2003_100
532,"(2, 33, 27, 1086)",2,2003_100
533,"(2, 33, 129, 17)",2,2003_100
534,"(2, 33, 129, 27)",2,2003_100
535,"(2, 33, 129, 1086)",2,2003_100
536,"(2, 33, 172, 2)",2,2003_100
537,"(2, 33, 172, 172)",2,2003_100
538,"(2, 33, 172, 240)",2,2003_100
539,"(2, 33, 240, 2)",2,2003_100
540,"(2, 33, 240, 172)",2,2003_100
541,"(2, 129, 17, 1086)",2,2003_100
542,"(2, 129, 27, 17)",2,2003_100
543,"(2, 129, 27, 1086)",2,2003_100
544,"(2, 172, 2, 33)",3,2003_100
545,"(2, 172, 2, 172)",3,2003_100
546,"(2, 172, 33, 33)",2,2003_100
547,"(2, 172, 33, 172)",2,2003_100
548,"(2, 172, 240, 2)",2,2003_100
549,"(2, 172, 240, 172)",2,2003_100
550,"(2, 172, 295, 2)",2,2003_100
551,"(2, 172, 295, 33)",2,2003_100
552,"(2, 240, 2, 172)",2,2003_100
553,"(2, 295, 2, 33)",2,2003_100
554,"(27, 11663, 31, 431)",2,2003_100
555,"(31, 2, 17, 33)",2,2003_100
556,"(33, 27, 17, 1086)",2,2003_100
557,"(33, 33, 2, 172)",2,2003_100
558,"(33, 33, 240, 2)",2,2003_100
559,"(33, 33, 240, 172)",2,2003_100
560,"(33, 129, 17, 1086)",2,2003_100
561,"(33, 129, 27, 17)",2,2003_100
562,"(33, 129, 27, 1086)",2,2003_100
563,"(33, 172, 2, 172)",2,2003_100
564,"(33, 172, 240, 2)",2,2003_100
565,"(33, 172, 240, 172)",2,2003_100
566,"(33, 240, 2, 172)",2,2003_100
567,"(39, 33, 1086, 341)",2,2003_100
568,"(70, 40, 189, 298)",2,2003_100
569,"(129, 27, 17, 1086)",2,2003_100
570,"(158, 2, 20, 40)",2,2003_100
571,"(158, 2, 33, 33)",2,2003_100
572,"(172, 2, 33, 2)",2,2003_100
573,"(172, 2, 33, 172)",2,2003_100
574,"(172, 2, 33, 240)",2,2003_100
575,"(172, 2, 172, 2)",2,2003_100
576,"(172, 2, 172, 240)",2,2003_100
577,"(172, 2, 240, 2)",2,2003_100
578,"(172, 33, 33, 2)",2,2003_100
579,"(172, 33, 33, 240)",2,2003_100
580,"(172, 33, 172, 2)",2,2003_100
581,"(172, 33, 172, 240)",2,2003_100
582,"(172, 33, 240, 2)",2,2003_100
583,"(172, 172, 240, 2)",2,2003_100
584,"(172, 240, 2, 172)",2,2003_100
585,"(172, 295, 2, 33)",2,2003_100
586,"(2, 33, 27, 17, 1086)",2,2003_100
587,"(2, 33, 129, 17, 1086)",2,2003_100
588,"(2, 33, 129, 27, 17)",2,2003_100
589,"(2, 33, 129, 27, 1086)",2,2003_100
590,"(2, 33, 172, 2, 172)",2,2003_100
591,"(2, 33, 172, 240, 2)",2,2003_100
592,"(2, 33, 172, 240, 172)",2,2003_100
593,"(2, 33, 240, 2, 172)",2,2003_100
594,"(2, 129, 27, 17, 1086)",2,2003_100
595,"(2, 172, 2, 33, 172)",2,2003_100
596,"(2, 172, 240, 2, 172)",2,2003_100
597,"(2, 172, 295, 2, 33)",2,2003_100
598,"(33, 33, 240, 2, 172)",2,2003_100
599,"(33, 129, 27, 17, 1086)",2,2003_100
600,"(33, 172, 240, 2, 172)",2,2003_100
601,"(172, 2, 33, 172, 2)",2,2003_100
602,"(172, 2, 33, 172, 240)",2,2003_100
603,"(172, 2, 33, 240, 2)",2,2003_100
604,"(172, 2, 172, 240, 2)",2,2003_100
605,"(172, 33, 33, 240, 2)",2,2003_100
606,"(172, 33, 172, 240, 2)",2,2003_100
607,"(2, 33, 129, 27, 17, 1086)",2,2003_100
608,"(2, 33, 172, 240, 2, 172)",2,2003_100
609,"(172, 2, 33, 172, 240, 2)",2,2003_100
