,pattern,sup,author
394,"(0, 2, 17)",2,2003_140
395,"(0, 2, 40)",2,2003_140
396,"(0, 2, 84)",3,2003_140
397,"(0, 14, 0)",2,2003_140
398,"(0, 14, 2)",3,2003_140
399,"(0, 14, 33)",2,2003_140
400,"(0, 14, 39)",4,2003_140
401,"(0, 14, 47)",2,2003_140
402,"(0, 14, 84)",2,2003_140
403,"(0, 14, 240)",2,2003_140
404,"(0, 14, 317)",3,2003_140
405,"(0, 39, 33)",2,2003_140
406,"(0, 127, 70)",2,2003_140
407,"(2, 0, 2)",4,2003_140
408,"(2, 0, 14)",3,2003_140
409,"(2, 0, 84)",3,2003_140
410,"(2, 0, 110)",2,2003_140
411,"(2, 2, 0)",2,2003_140
412,"(2, 2, 17)",3,2003_140
413,"(2, 2, 27)",2,2003_140
414,"(2, 2, 33)",2,2003_140
415,"(2, 2, 35)",2,2003_140
416,"(2, 2, 84)",3,2003_140
417,"(2, 6, 31)",2,2003_140
418,"(2, 6, 112)",2,2003_140
419,"(2, 14, 2)",2,2003_140
420,"(2, 14, 84)",2,2003_140
421,"(2, 17, 27)",2,2003_140
422,"(2, 17, 40)",2,2003_140
423,"(2, 27, 2)",2,2003_140
424,"(2, 27, 27)",3,2003_140
425,"(2, 27, 33)",3,2003_140
426,"(2, 27, 35)",2,2003_140
427,"(2, 27, 56)",2,2003_140
428,"(2, 33, 0)",2,2003_140
429,"(2, 33, 3)",2,2003_140
430,"(2, 33, 27)",2,2003_140
431,"(2, 33, 33)",2,2003_140
432,"(2, 33, 47)",2,2003_140
433,"(2, 33, 127)",2,2003_140
434,"(2, 33, 199)",2,2003_140
435,"(2, 33, 689)",2,2003_140
436,"(2, 35, 2)",2,2003_140
437,"(2, 38, 47)",2,2003_140
438,"(2, 39, 33)",2,2003_140
439,"(2, 40, 3018)",2,2003_140
440,"(2, 47, 0)",2,2003_140
441,"(2, 47, 2)",2,2003_140
442,"(2, 77, 33)",2,2003_140
443,"(2, 77, 240)",2,2003_140
444,"(2, 84, 17)",2,2003_140
445,"(2, 84, 27)",2,2003_140
446,"(2, 84, 33)",2,2003_140
447,"(2, 84, 47)",2,2003_140
448,"(2, 84, 95)",2,2003_140
449,"(2, 84, 645)",3,2003_140
450,"(2, 87, 33)",4,2003_140
451,"(2, 112, 31)",2,2003_140
452,"(2, 127, 2)",2,2003_140
453,"(2, 127, 33)",2,2003_140
454,"(2, 129, 38)",2,2003_140
455,"(2, 129, 47)",2,2003_140
456,"(2, 142, 27)",2,2003_140
457,"(2, 172, 0)",3,2003_140
458,"(2, 172, 33)",2,2003_140
459,"(2, 207, 2)",2,2003_140
460,"(2, 207, 27)",2,2003_140
461,"(2, 353, 127)",2,2003_140
462,"(2, 420, 0)",2,2003_140
463,"(2, 420, 14)",2,2003_140
464,"(2, 595, 520)",2,2003_140
465,"(6, 112, 31)",2,2003_140
466,"(13, 0, 2)",2,2003_140
467,"(14, 2, 84)",2,2003_140
468,"(14, 39, 33)",2,2003_140
469,"(27, 27, 56)",2,2003_140
470,"(27, 33, 20)",2,2003_140
471,"(27, 33, 27)",2,2003_140
472,"(27, 33, 47)",2,2003_140
473,"(27, 33, 689)",2,2003_140
474,"(27, 87, 33)",3,2003_140
475,"(33, 0, 0)",2,2003_140
476,"(33, 0, 14)",3,2003_140
477,"(33, 0, 39)",2,2003_140
478,"(33, 3, 796)",2,2003_140
479,"(33, 14, 39)",2,2003_140
480,"(33, 21, 87)",2,2003_140
481,"(33, 27, 33)",3,2003_140
482,"(33, 27, 87)",2,2003_140
483,"(33, 27, 249)",2,2003_140
484,"(33, 33, 27)",2,2003_140
485,"(33, 33, 33)",2,2003_140
486,"(33, 33, 689)",2,2003_140
487,"(33, 39, 33)",2,2003_140
488,"(33, 41, 27)",2,2003_140
489,"(33, 41, 33)",2,2003_140
490,"(33, 87, 2)",2,2003_140
491,"(33, 87, 3)",2,2003_140
492,"(33, 87, 27)",2,2003_140
493,"(33, 87, 33)",4,2003_140
494,"(33, 933, 1602)",2,2003_140
495,"(33, 933, 7540)",2,2003_140
496,"(33, 2981, 20)",2,2003_140
497,"(33, 7540, 1602)",3,2003_140
498,"(38, 47, 20)",2,2003_140
499,"(38, 47, 47)",2,2003_140
500,"(38, 47, 595)",3,2003_140
501,"(39, 0, 14)",2,2003_140
502,"(39, 27, 33)",2,2003_140
503,"(39, 33, 0)",2,2003_140
504,"(39, 33, 39)",2,2003_140
505,"(39, 87, 33)",2,2003_140
506,"(41, 14, 317)",2,2003_140
507,"(41, 33, 27)",2,2003_140
508,"(41, 240, 14)",2,2003_140
509,"(41, 240, 317)",2,2003_140
510,"(41, 287, 14)",2,2003_140
511,"(41, 287, 240)",2,2003_140
512,"(41, 287, 317)",2,2003_140
513,"(44, 105, 30)",2,2003_140
514,"(47, 27, 67)",2,2003_140
515,"(47, 38, 47)",2,2003_140
516,"(47, 117, 27)",2,2003_140
517,"(47, 117, 67)",2,2003_140
518,"(84, 0, 14)",3,2003_140
519,"(84, 0, 39)",2,2003_140
520,"(84, 14, 39)",2,2003_140
521,"(84, 27, 244)",2,2003_140
522,"(84, 33, 0)",2,2003_140
523,"(84, 33, 3)",2,2003_140
524,"(84, 33, 14)",2,2003_140
525,"(84, 33, 39)",2,2003_140
526,"(84, 39, 33)",2,2003_140
527,"(87, 33, 0)",2,2003_140
528,"(87, 33, 2)",2,2003_140
529,"(87, 33, 3)",4,2003_140
530,"(87, 33, 20)",2,2003_140
531,"(87, 33, 47)",3,2003_140
532,"(87, 33, 2981)",2,2003_140
533,"(87, 47, 127)",2,2003_140
534,"(87, 92, 33)",4,2003_140
535,"(87, 2981, 20)",2,2003_140
536,"(95, 142, 27)",2,2003_140
537,"(117, 27, 67)",2,2003_140
538,"(121, 33, 20)",2,2003_140
539,"(121, 33, 2981)",2,2003_140
540,"(121, 87, 20)",2,2003_140
541,"(121, 87, 33)",2,2003_140
542,"(121, 87, 2981)",2,2003_140
543,"(121, 2981, 20)",2,2003_140
544,"(127, 2, 33)",2,2003_140
545,"(129, 38, 47)",2,2003_140
546,"(142, 27, 27)",2,2003_140
547,"(172, 33, 0)",2,2003_140
548,"(240, 3, 538)",2,2003_140
549,"(240, 14, 317)",2,2003_140
550,"(244, 412, 21)",2,2003_140
551,"(287, 14, 317)",2,2003_140
552,"(287, 240, 14)",2,2003_140
553,"(287, 240, 317)",2,2003_140
554,"(317, 0, 14)",2,2003_140
555,"(317, 0, 240)",2,2003_140
556,"(420, 0, 14)",2,2003_140
557,"(933, 7540, 1602)",2,2003_140
558,"(1279, 0, 1287)",3,2003_140
559,"(2981, 33, 1602)",2,2003_140
560,"(2981, 33, 7540)",2,2003_140
561,"(2981, 7540, 1602)",3,2003_140
562,"(0, 14, 2, 84)",2,2003_140
563,"(0, 14, 39, 33)",2,2003_140
564,"(2, 0, 2, 84)",3,2003_140
565,"(2, 0, 14, 2)",2,2003_140
566,"(2, 0, 14, 84)",2,2003_140
567,"(2, 2, 27, 35)",2,2003_140
568,"(2, 6, 112, 31)",2,2003_140
569,"(2, 14, 2, 84)",2,2003_140
570,"(2, 27, 27, 56)",2,2003_140
571,"(2, 127, 2, 33)",2,2003_140
572,"(2, 142, 27, 27)",2,2003_140
573,"(2, 172, 33, 0)",2,2003_140
574,"(2, 420, 0, 14)",2,2003_140
575,"(33, 0, 14, 39)",2,2003_140
576,"(33, 27, 87, 33)",2,2003_140
577,"(33, 41, 33, 27)",2,2003_140
578,"(33, 933, 7540, 1602)",2,2003_140
579,"(41, 240, 14, 317)",2,2003_140
580,"(41, 287, 14, 317)",2,2003_140
581,"(41, 287, 240, 14)",2,2003_140
582,"(41, 287, 240, 317)",2,2003_140
583,"(47, 117, 27, 67)",2,2003_140
584,"(84, 0, 14, 39)",2,2003_140
585,"(84, 33, 0, 14)",2,2003_140
586,"(84, 33, 0, 39)",2,2003_140
587,"(84, 33, 14, 39)",2,2003_140
588,"(87, 33, 2981, 20)",2,2003_140
589,"(121, 33, 2981, 20)",2,2003_140
590,"(121, 87, 33, 20)",2,2003_140
591,"(121, 87, 33, 2981)",2,2003_140
592,"(121, 87, 2981, 20)",2,2003_140
593,"(287, 240, 14, 317)",2,2003_140
594,"(2981, 33, 7540, 1602)",2,2003_140
595,"(2, 0, 14, 2, 84)",2,2003_140
596,"(41, 287, 240, 14, 317)",2,2003_140
597,"(84, 33, 0, 14, 39)",2,2003_140
598,"(121, 87, 33, 2981, 20)",2,2003_140
