,pattern,sup,author
506,"(0, 2, 3)",3,2004_194
507,"(0, 2, 17)",2,2004_194
508,"(0, 2, 40)",2,2004_194
509,"(0, 2, 316)",2,2004_194
510,"(0, 17, 2)",2,2004_194
511,"(0, 17, 3)",3,2004_194
512,"(0, 31, 39)",2,2004_194
513,"(0, 33, 27)",2,2004_194
514,"(0, 40, 17)",2,2004_194
515,"(0, 40, 209)",2,2004_194
516,"(0, 47, 33)",2,2004_194
517,"(0, 56, 20)",2,2004_194
518,"(0, 142, 2)",2,2004_194
519,"(0, 216, 2)",2,2004_194
520,"(2, 0, 2)",3,2004_194
521,"(2, 0, 33)",2,2004_194
522,"(2, 0, 40)",2,2004_194
523,"(2, 0, 216)",2,2004_194
524,"(2, 0, 497)",2,2004_194
525,"(2, 2, 17)",2,2004_194
526,"(2, 2, 27)",3,2004_194
527,"(2, 2, 33)",2,2004_194
528,"(2, 2, 189)",2,2004_194
529,"(2, 3, 2)",3,2004_194
530,"(2, 3, 31)",2,2004_194
531,"(2, 3, 33)",2,2004_194
532,"(2, 3, 430)",2,2004_194
533,"(2, 3, 494)",3,2004_194
534,"(2, 3, 3138)",2,2004_194
535,"(2, 6, 27)",2,2004_194
536,"(2, 11, 40)",2,2004_194
537,"(2, 17, 0)",2,2004_194
538,"(2, 17, 2)",4,2004_194
539,"(2, 17, 3)",4,2004_194
540,"(2, 17, 27)",7,2004_194
541,"(2, 17, 33)",4,2004_194
542,"(2, 17, 47)",2,2004_194
543,"(2, 17, 56)",2,2004_194
544,"(2, 17, 87)",2,2004_194
545,"(2, 17, 316)",2,2004_194
546,"(2, 27, 0)",3,2004_194
547,"(2, 27, 2)",2,2004_194
548,"(2, 27, 3)",3,2004_194
549,"(2, 27, 27)",2,2004_194
550,"(2, 27, 33)",4,2004_194
551,"(2, 27, 35)",2,2004_194
552,"(2, 27, 40)",3,2004_194
553,"(2, 27, 56)",3,2004_194
554,"(2, 27, 537)",2,2004_194
555,"(2, 27, 924)",2,2004_194
556,"(2, 27, 933)",2,2004_194
557,"(2, 27, 997)",2,2004_194
558,"(2, 27, 1527)",2,2004_194
559,"(2, 27, 3138)",2,2004_194
560,"(2, 31, 2)",2,2004_194
561,"(2, 33, 2)",2,2004_194
562,"(2, 33, 27)",3,2004_194
563,"(2, 33, 33)",2,2004_194
564,"(2, 33, 40)",2,2004_194
565,"(2, 33, 494)",2,2004_194
566,"(2, 35, 87)",2,2004_194
567,"(2, 40, 0)",2,2004_194
568,"(2, 40, 118)",2,2004_194
569,"(2, 47, 2)",2,2004_194
570,"(2, 47, 20)",2,2004_194
571,"(2, 47, 27)",2,2004_194
572,"(2, 47, 33)",2,2004_194
573,"(2, 56, 3)",2,2004_194
574,"(2, 56, 430)",2,2004_194
575,"(2, 56, 997)",2,2004_194
576,"(2, 62, 2)",2,2004_194
577,"(2, 77, 2)",4,2004_194
578,"(2, 77, 6)",2,2004_194
579,"(2, 77, 27)",3,2004_194
580,"(2, 77, 38)",2,2004_194
581,"(2, 77, 240)",2,2004_194
582,"(2, 87, 2)",2,2004_194
583,"(2, 95, 27)",2,2004_194
584,"(2, 95, 38)",2,2004_194
585,"(2, 95, 77)",3,2004_194
586,"(2, 95, 203)",2,2004_194
587,"(2, 95, 240)",2,2004_194
588,"(2, 135, 27)",2,2004_194
589,"(2, 135, 40)",2,2004_194
590,"(2, 142, 27)",2,2004_194
591,"(2, 203, 20)",2,2004_194
592,"(2, 203, 33)",3,2004_194
593,"(2, 203, 38)",2,2004_194
594,"(2, 203, 47)",4,2004_194
595,"(2, 203, 494)",2,2004_194
596,"(2, 240, 2)",2,2004_194
597,"(2, 240, 27)",3,2004_194
598,"(2, 494, 33)",2,2004_194
599,"(2, 933, 537)",2,2004_194
600,"(2, 1527, 3)",2,2004_194
601,"(2, 1527, 3138)",2,2004_194
602,"(3, 3, 430)",2,2004_194
603,"(3, 4, 494)",2,2004_194
604,"(3, 27, 3)",2,2004_194
605,"(3, 27, 56)",2,2004_194
606,"(3, 27, 430)",2,2004_194
607,"(3, 33, 21)",2,2004_194
608,"(3, 33, 33)",2,2004_194
609,"(3, 33, 494)",2,2004_194
610,"(3, 56, 3)",2,2004_194
611,"(3, 56, 430)",2,2004_194
612,"(3, 59, 494)",2,2004_194
613,"(3, 494, 2)",2,2004_194
614,"(3, 494, 33)",2,2004_194
615,"(13, 0, 2)",2,2004_194
616,"(17, 0, 33)",2,2004_194
617,"(17, 0, 56)",2,2004_194
618,"(17, 2, 3)",2,2004_194
619,"(17, 2, 33)",2,2004_194
620,"(17, 3, 31)",2,2004_194
621,"(17, 3, 430)",2,2004_194
622,"(17, 27, 0)",2,2004_194
623,"(17, 27, 2)",2,2004_194
624,"(17, 27, 3)",3,2004_194
625,"(17, 27, 33)",3,2004_194
626,"(17, 27, 56)",2,2004_194
627,"(17, 33, 27)",2,2004_194
628,"(17, 33, 40)",3,2004_194
629,"(17, 33, 56)",2,2004_194
630,"(17, 68, 142)",2,2004_194
631,"(18, 2, 95)",2,2004_194
632,"(18, 41, 242)",2,2004_194
633,"(18, 47, 20)",2,2004_194
634,"(18, 87, 2)",2,2004_194
635,"(20, 2, 135)",2,2004_194
636,"(20, 47, 161)",2,2004_194
637,"(21, 47, 1101)",2,2004_194
638,"(23, 2, 17)",2,2004_194
639,"(26, 2, 3)",2,2004_194
640,"(26, 2, 17)",2,2004_194
641,"(26, 2, 33)",2,2004_194
642,"(26, 87, 2)",2,2004_194
643,"(26, 87, 3)",2,2004_194
644,"(26, 295, 3)",2,2004_194
645,"(27, 0, 20)",2,2004_194
646,"(27, 0, 33)",2,2004_194
647,"(27, 2, 2)",2,2004_194
648,"(27, 2, 33)",2,2004_194
649,"(27, 3, 62)",2,2004_194
650,"(27, 3, 430)",2,2004_194
651,"(27, 3, 3138)",2,2004_194
652,"(27, 31, 27)",2,2004_194
653,"(27, 33, 2)",2,2004_194
654,"(27, 35, 27)",2,2004_194
655,"(27, 56, 3)",2,2004_194
656,"(27, 56, 31)",2,2004_194
657,"(27, 56, 430)",2,2004_194
658,"(27, 56, 997)",2,2004_194
659,"(27, 497, 33)",2,2004_194
660,"(27, 497, 67)",2,2004_194
661,"(27, 537, 4121)",2,2004_194
662,"(27, 933, 537)",2,2004_194
663,"(27, 933, 4121)",2,2004_194
664,"(27, 1527, 3)",2,2004_194
665,"(27, 1527, 3138)",2,2004_194
666,"(31, 2, 3)",2,2004_194
667,"(31, 2, 17)",2,2004_194
668,"(31, 27, 39)",2,2004_194
669,"(31, 33, 1352)",2,2004_194
670,"(31, 56, 3)",2,2004_194
671,"(31, 65, 27)",2,2004_194
672,"(33, 2, 2)",2,2004_194
673,"(33, 2, 3)",2,2004_194
674,"(33, 2, 17)",2,2004_194
675,"(33, 2, 31)",2,2004_194
676,"(33, 2, 33)",2,2004_194
677,"(33, 27, 31)",2,2004_194
678,"(33, 27, 35)",2,2004_194
679,"(33, 27, 39)",2,2004_194
680,"(33, 40, 0)",2,2004_194
681,"(33, 40, 118)",2,2004_194
682,"(33, 87, 2)",2,2004_194
683,"(33, 87, 3)",2,2004_194
684,"(33, 192, 27)",2,2004_194
685,"(33, 216, 2)",2,2004_194
686,"(33, 494, 2)",2,2004_194
687,"(33, 494, 33)",2,2004_194
688,"(39, 2, 31)",2,2004_194
689,"(39, 17, 33)",2,2004_194
690,"(39, 17, 40)",2,2004_194
691,"(39, 33, 40)",2,2004_194
692,"(39, 47, 62)",2,2004_194
693,"(39, 62, 2)",2,2004_194
694,"(40, 0, 39)",2,2004_194
695,"(40, 0, 40)",2,2004_194
696,"(40, 2, 3)",2,2004_194
697,"(40, 17, 33)",2,2004_194
698,"(40, 17, 68)",2,2004_194
699,"(40, 39, 40)",2,2004_194
700,"(40, 118, 2)",2,2004_194
701,"(40, 118, 142)",2,2004_194
702,"(40, 209, 745)",2,2004_194
703,"(41, 242, 87)",2,2004_194
704,"(47, 0, 33)",2,2004_194
705,"(47, 0, 47)",2,2004_194
706,"(47, 2, 3)",2,2004_194
707,"(47, 20, 33)",2,2004_194
708,"(47, 20, 47)",2,2004_194
709,"(47, 26, 3)",2,2004_194
710,"(47, 26, 33)",2,2004_194
711,"(47, 26, 87)",2,2004_194
712,"(47, 26, 295)",2,2004_194
713,"(47, 27, 39)",2,2004_194
714,"(47, 33, 27)",2,2004_194
715,"(47, 33, 31)",2,2004_194
716,"(47, 33, 47)",3,2004_194
717,"(47, 39, 33)",2,2004_194
718,"(47, 47, 0)",2,2004_194
719,"(47, 47, 20)",2,2004_194
720,"(47, 47, 33)",2,2004_194
721,"(47, 47, 47)",3,2004_194
722,"(47, 87, 2)",2,2004_194
723,"(47, 494, 39)",2,2004_194
724,"(47, 502, 26)",2,2004_194
725,"(47, 502, 295)",2,2004_194
726,"(56, 3, 430)",3,2004_194
727,"(62, 0, 17)",2,2004_194
728,"(62, 2, 3)",2,2004_194
729,"(62, 2, 17)",3,2004_194
730,"(62, 2, 27)",2,2004_194
731,"(62, 17, 3)",2,2004_194
732,"(62, 17, 62)",2,2004_194
733,"(65, 0, 497)",2,2004_194
734,"(65, 2, 0)",2,2004_194
735,"(65, 2, 497)",2,2004_194
736,"(77, 2, 27)",3,2004_194
737,"(77, 240, 2)",2,2004_194
738,"(77, 240, 27)",2,2004_194
739,"(84, 39, 33)",2,2004_194
740,"(84, 494, 33)",2,2004_194
741,"(84, 494, 39)",2,2004_194
742,"(87, 2, 3)",4,2004_194
743,"(87, 2, 17)",3,2004_194
744,"(87, 2, 33)",3,2004_194
745,"(87, 17, 3)",2,2004_194
746,"(95, 77, 38)",2,2004_194
747,"(95, 240, 27)",2,2004_194
748,"(105, 0, 7986)",2,2004_194
749,"(121, 2, 77)",2,2004_194
750,"(142, 3, 3138)",2,2004_194
751,"(142, 27, 3)",2,2004_194
752,"(142, 27, 1527)",2,2004_194
753,"(142, 27, 3138)",2,2004_194
754,"(142, 1527, 3)",2,2004_194
755,"(142, 1527, 3138)",2,2004_194
756,"(158, 2, 27)",2,2004_194
757,"(158, 33, 2)",2,2004_194
758,"(158, 33, 87)",2,2004_194
759,"(158, 87, 2)",2,2004_194
760,"(169, 2, 95)",2,2004_194
761,"(203, 18, 87)",2,2004_194
762,"(203, 47, 20)",2,2004_194
763,"(203, 47, 31)",2,2004_194
764,"(203, 47, 33)",2,2004_194
765,"(203, 494, 47)",2,2004_194
766,"(240, 2, 27)",2,2004_194
767,"(240, 27, 27)",2,2004_194
768,"(240, 27, 35)",2,2004_194
769,"(240, 35, 27)",2,2004_194
770,"(494, 2, 40)",2,2004_194
771,"(494, 39, 33)",2,2004_194
772,"(494, 40, 118)",3,2004_194
773,"(497, 2, 31)",2,2004_194
774,"(497, 2, 77)",2,2004_194
775,"(502, 26, 295)",2,2004_194
776,"(537, 0, 537)",2,2004_194
777,"(933, 537, 4121)",2,2004_194
778,"(1527, 3, 3138)",2,2004_194
779,"(3138, 33, 2)",2,2004_194
780,"(0, 2, 17, 3)",2,2004_194
781,"(2, 3, 33, 494)",2,2004_194
782,"(2, 17, 0, 33)",2,2004_194
783,"(2, 17, 2, 33)",2,2004_194
784,"(2, 17, 27, 0)",2,2004_194
785,"(2, 17, 27, 2)",2,2004_194
786,"(2, 17, 27, 33)",3,2004_194
787,"(2, 17, 27, 56)",2,2004_194
788,"(2, 17, 33, 27)",2,2004_194
789,"(2, 27, 0, 33)",2,2004_194
790,"(2, 27, 2, 33)",2,2004_194
791,"(2, 27, 3, 3138)",2,2004_194
792,"(2, 27, 56, 997)",2,2004_194
793,"(2, 27, 933, 537)",2,2004_194
794,"(2, 27, 1527, 3)",2,2004_194
795,"(2, 27, 1527, 3138)",2,2004_194
796,"(2, 56, 3, 430)",2,2004_194
797,"(2, 77, 2, 27)",3,2004_194
798,"(2, 77, 240, 2)",2,2004_194
799,"(2, 77, 240, 27)",2,2004_194
800,"(2, 95, 77, 38)",2,2004_194
801,"(2, 95, 240, 27)",2,2004_194
802,"(2, 203, 47, 20)",2,2004_194
803,"(2, 203, 47, 33)",2,2004_194
804,"(2, 240, 2, 27)",2,2004_194
805,"(2, 1527, 3, 3138)",2,2004_194
806,"(3, 27, 3, 430)",2,2004_194
807,"(3, 27, 56, 3)",2,2004_194
808,"(3, 27, 56, 430)",2,2004_194
809,"(3, 33, 494, 33)",2,2004_194
810,"(3, 56, 3, 430)",2,2004_194
811,"(17, 27, 0, 33)",2,2004_194
812,"(17, 27, 2, 33)",2,2004_194
813,"(26, 87, 2, 3)",2,2004_194
814,"(27, 56, 3, 430)",2,2004_194
815,"(27, 933, 537, 4121)",2,2004_194
816,"(27, 1527, 3, 3138)",2,2004_194
817,"(33, 87, 2, 3)",2,2004_194
818,"(39, 17, 33, 40)",2,2004_194
819,"(47, 0, 47, 33)",2,2004_194
820,"(47, 47, 0, 47)",2,2004_194
821,"(47, 502, 26, 295)",2,2004_194
822,"(62, 2, 17, 3)",2,2004_194
823,"(65, 2, 0, 497)",2,2004_194
824,"(77, 240, 2, 27)",2,2004_194
825,"(84, 494, 39, 33)",2,2004_194
826,"(87, 2, 17, 3)",2,2004_194
827,"(142, 27, 3, 3138)",2,2004_194
828,"(142, 27, 1527, 3)",2,2004_194
829,"(142, 27, 1527, 3138)",2,2004_194
830,"(142, 1527, 3, 3138)",2,2004_194
831,"(158, 33, 87, 2)",2,2004_194
832,"(240, 27, 35, 27)",2,2004_194
833,"(2, 17, 27, 0, 33)",2,2004_194
834,"(2, 17, 27, 2, 33)",2,2004_194
835,"(2, 27, 1527, 3, 3138)",2,2004_194
836,"(2, 77, 240, 2, 27)",2,2004_194
837,"(3, 27, 56, 3, 430)",2,2004_194
838,"(142, 27, 1527, 3, 3138)",2,2004_194
