,pattern,sup,author
937,"(2, 2, 2)",2,2004_456
938,"(2, 2, 3)",2,2004_456
939,"(2, 2, 17)",2,2004_456
940,"(2, 2, 27)",3,2004_456
941,"(2, 2, 31)",2,2004_456
942,"(2, 2, 77)",2,2004_456
943,"(2, 2, 95)",2,2004_456
944,"(2, 3, 2)",4,2004_456
945,"(2, 3, 31)",2,2004_456
946,"(2, 3, 40)",2,2004_456
947,"(2, 3, 60)",3,2004_456
948,"(2, 3, 494)",3,2004_456
949,"(2, 6, 20)",2,2004_456
950,"(2, 6, 87)",2,2004_456
951,"(2, 6, 133)",2,2004_456
952,"(2, 6, 144)",2,2004_456
953,"(2, 6, 254)",2,2004_456
954,"(2, 14, 2)",2,2004_456
955,"(2, 17, 2)",3,2004_456
956,"(2, 17, 3)",3,2004_456
957,"(2, 17, 27)",2,2004_456
958,"(2, 17, 31)",3,2004_456
959,"(2, 17, 47)",2,2004_456
960,"(2, 27, 2)",3,2004_456
961,"(2, 27, 31)",3,2004_456
962,"(2, 27, 35)",3,2004_456
963,"(2, 27, 47)",2,2004_456
964,"(2, 27, 56)",2,2004_456
965,"(2, 27, 144)",2,2004_456
966,"(2, 27, 254)",2,2004_456
967,"(2, 31, 2)",3,2004_456
968,"(2, 31, 3)",2,2004_456
969,"(2, 31, 33)",2,2004_456
970,"(2, 31, 47)",2,2004_456
971,"(2, 31, 154)",2,2004_456
972,"(2, 33, 2)",2,2004_456
973,"(2, 33, 14)",2,2004_456
974,"(2, 33, 21)",2,2004_456
975,"(2, 33, 26)",2,2004_456
976,"(2, 33, 47)",3,2004_456
977,"(2, 33, 62)",3,2004_456
978,"(2, 33, 112)",2,2004_456
979,"(2, 33, 497)",2,2004_456
980,"(2, 33, 24630)",2,2004_456
981,"(2, 40, 2)",2,2004_456
982,"(2, 47, 2)",2,2004_456
983,"(2, 47, 877)",2,2004_456
984,"(2, 56, 2)",2,2004_456
985,"(2, 56, 3)",2,2004_456
986,"(2, 60, 2)",3,2004_456
987,"(2, 62, 14)",2,2004_456
988,"(2, 62, 27)",2,2004_456
989,"(2, 66, 2)",2,2004_456
990,"(2, 67, 47)",2,2004_456
991,"(2, 77, 14)",2,2004_456
992,"(2, 77, 103)",2,2004_456
993,"(2, 77, 240)",2,2004_456
994,"(2, 77, 295)",2,2004_456
995,"(2, 77, 497)",2,2004_456
996,"(2, 81, 494)",2,2004_456
997,"(2, 84, 21)",2,2004_456
998,"(2, 84, 87)",3,2004_456
999,"(2, 95, 2)",3,2004_456
1000,"(2, 95, 14)",2,2004_456
1001,"(2, 95, 17)",2,2004_456
1002,"(2, 95, 27)",4,2004_456
1003,"(2, 95, 31)",2,2004_456
1004,"(2, 95, 47)",2,2004_456
1005,"(2, 95, 77)",4,2004_456
1006,"(2, 95, 103)",2,2004_456
1007,"(2, 95, 154)",2,2004_456
1008,"(2, 95, 203)",2,2004_456
1009,"(2, 95, 240)",2,2004_456
1010,"(2, 95, 254)",2,2004_456
1011,"(2, 95, 295)",2,2004_456
1012,"(2, 110, 33)",2,2004_456
1013,"(2, 112, 497)",2,2004_456
1014,"(2, 121, 2)",2,2004_456
1015,"(2, 129, 2)",2,2004_456
1016,"(2, 129, 3)",2,2004_456
1017,"(2, 129, 47)",2,2004_456
1018,"(2, 129, 60)",2,2004_456
1019,"(2, 129, 81)",2,2004_456
1020,"(2, 129, 494)",2,2004_456
1021,"(2, 140, 14)",2,2004_456
1022,"(2, 142, 27)",2,2004_456
1023,"(2, 144, 35)",2,2004_456
1024,"(2, 144, 254)",3,2004_456
1025,"(2, 154, 14)",3,2004_456
1026,"(2, 154, 77)",2,2004_456
1027,"(2, 154, 84)",2,2004_456
1028,"(2, 154, 240)",2,2004_456
1029,"(2, 161, 497)",2,2004_456
1030,"(2, 172, 2)",3,2004_456
1031,"(2, 172, 3)",2,2004_456
1032,"(2, 172, 31)",2,2004_456
1033,"(2, 172, 33)",2,2004_456
1034,"(2, 172, 47)",2,2004_456
1035,"(2, 172, 254)",3,2004_456
1036,"(2, 172, 295)",2,2004_456
1037,"(2, 172, 497)",2,2004_456
1038,"(2, 203, 2)",2,2004_456
1039,"(2, 203, 27)",2,2004_456
1040,"(2, 203, 31)",2,2004_456
1041,"(2, 207, 2)",2,2004_456
1042,"(2, 210, 256)",2,2004_456
1043,"(2, 227, 14)",2,2004_456
1044,"(2, 227, 497)",2,2004_456
1045,"(2, 240, 14)",2,2004_456
1046,"(2, 254, 35)",2,2004_456
1047,"(2, 256, 2)",2,2004_456
1048,"(2, 279, 3)",2,2004_456
1049,"(2, 295, 2)",2,2004_456
1050,"(2, 295, 26)",2,2004_456
1051,"(2, 494, 2)",5,2004_456
1052,"(2, 497, 2)",2,2004_456
1053,"(2, 497, 3)",3,2004_456
1054,"(2, 497, 14)",3,2004_456
1055,"(2, 497, 27)",2,2004_456
1056,"(2, 497, 31)",2,2004_456
1057,"(2, 645, 21)",2,2004_456
1058,"(2, 645, 81)",2,2004_456
1059,"(2, 1352, 3)",2,2004_456
1060,"(2, 1476, 33)",2,2004_456
1061,"(3, 2, 497)",3,2004_456
1062,"(3, 20, 40)",2,2004_456
1063,"(3, 31, 2)",4,2004_456
1064,"(3, 31, 33)",2,2004_456
1065,"(3, 31, 39)",2,2004_456
1066,"(3, 60, 2)",3,2004_456
1067,"(3, 60, 3)",2,2004_456
1068,"(3, 60, 20)",4,2004_456
1069,"(3, 60, 31)",2,2004_456
1070,"(3, 60, 40)",3,2004_456
1071,"(3, 60, 497)",2,2004_456
1072,"(3, 494, 2)",2,2004_456
1073,"(3, 497, 6)",2,2004_456
1074,"(3, 497, 33)",2,2004_456
1075,"(3, 1508, 33)",2,2004_456
1076,"(3, 1508, 203)",2,2004_456
1077,"(4, 27, 3)",2,2004_456
1078,"(6, 2, 3)",2,2004_456
1079,"(6, 3, 2947)",2,2004_456
1080,"(6, 27, 31)",2,2004_456
1081,"(6, 27, 254)",2,2004_456
1082,"(6, 87, 2)",2,2004_456
1083,"(6, 87, 3)",2,2004_456
1084,"(6, 87, 56)",2,2004_456
1085,"(6, 114, 39)",2,2004_456
1086,"(6, 144, 254)",2,2004_456
1087,"(6, 154, 364)",2,2004_456
1088,"(6, 254, 31)",2,2004_456
1089,"(6, 378, 2)",2,2004_456
1090,"(14, 2, 3)",2,2004_456
1091,"(14, 2, 17)",2,2004_456
1092,"(14, 2, 27)",2,2004_456
1093,"(14, 2, 56)",2,2004_456
1094,"(14, 2, 77)",2,2004_456
1095,"(14, 2, 95)",2,2004_456
1096,"(14, 17, 3)",2,2004_456
1097,"(14, 87, 2)",3,2004_456
1098,"(14, 87, 3)",2,2004_456
1099,"(14, 87, 17)",2,2004_456
1100,"(14, 95, 27)",2,2004_456
1101,"(14, 105, 744)",2,2004_456
1102,"(14, 142, 27)",2,2004_456
1103,"(14, 256, 2)",2,2004_456
1104,"(14, 497, 31)",2,2004_456
1105,"(17, 2, 95)",2,2004_456
1106,"(17, 3, 2)",3,2004_456
1107,"(17, 3, 31)",2,2004_456
1108,"(17, 3, 62)",2,2004_456
1109,"(17, 3, 154)",2,2004_456
1110,"(17, 27, 31)",2,2004_456
1111,"(17, 27, 35)",2,2004_456
1112,"(17, 31, 2)",2,2004_456
1113,"(17, 31, 95)",2,2004_456
1114,"(18, 17, 3)",2,2004_456
1115,"(20, 6, 39)",2,2004_456
1116,"(20, 6, 114)",2,2004_456
1117,"(20, 114, 39)",2,2004_456
1118,"(26, 2, 14)",2,2004_456
1119,"(26, 2, 33)",2,2004_456
1120,"(26, 27, 6)",2,2004_456
1121,"(26, 31, 14)",2,2004_456
1122,"(26, 31, 33)",2,2004_456
1123,"(26, 33, 14)",2,2004_456
1124,"(26, 62, 6)",2,2004_456
1125,"(27, 2, 6)",2,2004_456
1126,"(27, 2, 95)",2,2004_456
1127,"(27, 6, 2)",2,2004_456
1128,"(27, 31, 2)",3,2004_456
1129,"(27, 31, 6)",2,2004_456
1130,"(27, 31, 203)",2,2004_456
1131,"(27, 35, 27)",3,2004_456
1132,"(27, 35, 31)",2,2004_456
1133,"(27, 47, 27)",2,2004_456
1134,"(27, 144, 35)",2,2004_456
1135,"(27, 144, 254)",2,2004_456
1136,"(27, 169, 6)",2,2004_456
1137,"(27, 254, 31)",2,2004_456
1138,"(27, 254, 35)",2,2004_456
1139,"(27, 378, 2)",2,2004_456
1140,"(27, 378, 414)",2,2004_456
1141,"(27, 494, 2)",3,2004_456
1142,"(31, 2, 2)",3,2004_456
1143,"(31, 2, 3)",2,2004_456
1144,"(31, 2, 6)",4,2004_456
1145,"(31, 2, 31)",4,2004_456
1146,"(31, 2, 33)",4,2004_456
1147,"(31, 2, 38)",2,2004_456
1148,"(31, 2, 39)",2,2004_456
1149,"(31, 2, 77)",2,2004_456
1150,"(31, 2, 84)",2,2004_456
1151,"(31, 2, 87)",3,2004_456
1152,"(31, 2, 95)",2,2004_456
1153,"(31, 2, 172)",3,2004_456
1154,"(31, 2, 207)",2,2004_456
1155,"(31, 2, 216)",2,2004_456
1156,"(31, 2, 420)",2,2004_456
1157,"(31, 2, 497)",2,2004_456
1158,"(31, 3, 20)",2,2004_456
1159,"(31, 3, 119)",2,2004_456
1160,"(31, 6, 27)",2,2004_456
1161,"(31, 6, 39)",2,2004_456
1162,"(31, 6, 87)",2,2004_456
1163,"(31, 6, 95)",2,2004_456
1164,"(31, 17, 3)",2,2004_456
1165,"(31, 18, 1051)",2,2004_456
1166,"(31, 31, 33)",2,2004_456
1167,"(31, 33, 2)",2,2004_456
1168,"(31, 33, 33)",4,2004_456
1169,"(31, 33, 47)",2,2004_456
1170,"(31, 33, 68)",2,2004_456
1171,"(31, 33, 497)",2,2004_456
1172,"(31, 47, 2)",2,2004_456
1173,"(31, 47, 6)",2,2004_456
1174,"(31, 47, 27)",2,2004_456
1175,"(31, 47, 33)",2,2004_456
1176,"(31, 47, 129)",2,2004_456
1177,"(31, 47, 877)",2,2004_456
1178,"(31, 67, 47)",2,2004_456
1179,"(31, 84, 87)",2,2004_456
1180,"(31, 95, 77)",2,2004_456
1181,"(31, 127, 203)",2,2004_456
1182,"(31, 129, 27)",2,2004_456
1183,"(31, 172, 33)",2,2004_456
1184,"(31, 203, 2)",2,2004_456
1185,"(31, 228, 3)",2,2004_456
1186,"(31, 228, 119)",2,2004_456
1187,"(31, 256, 2)",2,2004_456
1188,"(31, 378, 2)",2,2004_456
1189,"(31, 378, 420)",2,2004_456
1190,"(31, 497, 3)",2,2004_456
1191,"(31, 497, 1077)",2,2004_456
1192,"(31, 7406, 33)",2,2004_456
1193,"(33, 2, 17)",2,2004_456
1194,"(33, 3, 20)",2,2004_456
1195,"(33, 3, 60)",2,2004_456
1196,"(33, 6, 87)",2,2004_456
1197,"(33, 14, 2)",2,2004_456
1198,"(33, 21, 2)",2,2004_456
1199,"(33, 21, 31)",2,2004_456
1200,"(33, 31, 2)",2,2004_456
1201,"(33, 31, 31)",2,2004_456
1202,"(33, 31, 33)",2,2004_456
1203,"(33, 33, 31)",2,2004_456
1204,"(33, 33, 62)",2,2004_456
1205,"(33, 47, 47)",2,2004_456
1206,"(33, 47, 189)",2,2004_456
1207,"(33, 60, 20)",2,2004_456
1208,"(33, 62, 2)",2,2004_456
1209,"(33, 62, 14)",2,2004_456
1210,"(33, 62, 31)",2,2004_456
1211,"(33, 62, 33)",2,2004_456
1212,"(33, 62, 497)",2,2004_456
1213,"(33, 67, 47)",2,2004_456
1214,"(33, 67, 189)",2,2004_456
1215,"(33, 73, 14)",2,2004_456
1216,"(33, 112, 112)",2,2004_456
1217,"(33, 161, 497)",2,2004_456
1218,"(33, 275, 161)",2,2004_456
1219,"(33, 275, 497)",2,2004_456
1220,"(33, 339, 33)",2,2004_456
1221,"(33, 494, 2)",2,2004_456
1222,"(33, 497, 31)",2,2004_456
1223,"(33, 497, 33)",2,2004_456
1224,"(33, 513, 2)",2,2004_456
1225,"(33, 615, 2)",2,2004_456
1226,"(35, 378, 2)",2,2004_456
1227,"(38, 31, 2)",2,2004_456
1228,"(38, 31, 18)",2,2004_456
1229,"(38, 31, 87)",2,2004_456
1230,"(38, 33, 24630)",2,2004_456
1231,"(38, 159, 18)",2,2004_456
1232,"(38, 159, 31)",2,2004_456
1233,"(38, 508, 33)",2,2004_456
1234,"(39, 2, 95)",2,2004_456
1235,"(39, 203, 2)",2,2004_456
1236,"(39, 203, 3)",2,2004_456
1237,"(39, 378, 2)",2,2004_456
1238,"(40, 323, 2)",2,2004_456
1239,"(40, 494, 2)",2,2004_456
1240,"(47, 2, 31)",2,2004_456
1241,"(47, 6, 27)",2,2004_456
1242,"(47, 6, 39)",2,2004_456
1243,"(47, 31, 2)",2,2004_456
1244,"(47, 31, 6)",2,2004_456
1245,"(47, 31, 39)",2,2004_456
1246,"(47, 33, 14)",2,2004_456
1247,"(47, 38, 31)",2,2004_456
1248,"(47, 129, 27)",2,2004_456
1249,"(47, 189, 6)",3,2004_456
1250,"(47, 189, 31)",2,2004_456
1251,"(47, 300, 295)",2,2004_456
1252,"(47, 494, 31)",2,2004_456
1253,"(47, 877, 4)",2,2004_456
1254,"(47, 877, 27)",2,2004_456
1255,"(47, 877, 112)",2,2004_456
1256,"(56, 3, 494)",2,2004_456
1257,"(60, 2, 497)",2,2004_456
1258,"(60, 20, 40)",2,2004_456
1259,"(62, 6, 2)",3,2004_456
1260,"(62, 31, 33)",2,2004_456
1261,"(62, 494, 2)",2,2004_456
1262,"(62, 497, 2)",3,2004_456
1263,"(62, 497, 6)",2,2004_456
1264,"(66, 494, 2)",2,2004_456
1265,"(67, 31, 6)",2,2004_456
1266,"(67, 47, 6)",2,2004_456
1267,"(67, 47, 31)",2,2004_456
1268,"(67, 47, 189)",4,2004_456
1269,"(67, 189, 6)",2,2004_456
1270,"(67, 189, 31)",2,2004_456
1271,"(77, 240, 14)",2,2004_456
1272,"(81, 27, 47)",2,2004_456
1273,"(81, 494, 2)",2,2004_456
1274,"(87, 2, 3)",2,2004_456
1275,"(87, 2, 17)",2,2004_456
1276,"(87, 2, 56)",2,2004_456
1277,"(87, 17, 3)",2,2004_456
1278,"(87, 33, 2)",2,2004_456
1279,"(87, 378, 2)",2,2004_456
1280,"(95, 2, 95)",2,2004_456
1281,"(95, 27, 2)",2,2004_456
1282,"(95, 27, 31)",2,2004_456
1283,"(95, 31, 2)",2,2004_456
1284,"(95, 77, 14)",2,2004_456
1285,"(95, 77, 39)",3,2004_456
1286,"(95, 77, 103)",2,2004_456
1287,"(95, 77, 240)",3,2004_456
1288,"(95, 77, 295)",2,2004_456
1289,"(95, 154, 14)",2,2004_456
1290,"(95, 154, 77)",2,2004_456
1291,"(95, 154, 240)",2,2004_456
1292,"(95, 203, 27)",2,2004_456
1293,"(95, 240, 14)",2,2004_456
1294,"(103, 2, 17)",2,2004_456
1295,"(103, 2, 47)",2,2004_456
1296,"(103, 2, 95)",3,2004_456
1297,"(103, 14, 256)",2,2004_456
1298,"(103, 33, 112)",2,2004_456
1299,"(103, 95, 17)",2,2004_456
1300,"(103, 103, 129)",2,2004_456
1301,"(103, 129, 27)",3,2004_456
1302,"(103, 494, 2)",2,2004_456
1303,"(103, 494, 17)",2,2004_456
1304,"(103, 494, 95)",2,2004_456
1305,"(105, 744, 41)",2,2004_456
1306,"(105, 744, 81)",2,2004_456
1307,"(112, 497, 2)",2,2004_456
1308,"(112, 497, 497)",2,2004_456
1309,"(129, 2, 172)",2,2004_456
1310,"(129, 3, 60)",2,2004_456
1311,"(129, 27, 47)",2,2004_456
1312,"(129, 27, 494)",2,2004_456
1313,"(129, 31, 3)",2,2004_456
1314,"(129, 81, 161)",2,2004_456
1315,"(129, 494, 2)",3,2004_456
1316,"(129, 494, 17)",2,2004_456
1317,"(129, 494, 172)",2,2004_456
1318,"(142, 27, 3)",2,2004_456
1319,"(144, 6, 39)",2,2004_456
1320,"(144, 254, 35)",2,2004_456
1321,"(154, 77, 14)",2,2004_456
1322,"(154, 77, 240)",2,2004_456
1323,"(154, 240, 14)",2,2004_456
1324,"(154, 364, 203)",2,2004_456
1325,"(159, 18, 1051)",2,2004_456
1326,"(159, 31, 18)",2,2004_456
1327,"(159, 31, 1051)",2,2004_456
1328,"(161, 3, 33)",2,2004_456
1329,"(161, 3, 203)",2,2004_456
1330,"(161, 3, 1508)",2,2004_456
1331,"(161, 1508, 33)",2,2004_456
1332,"(161, 1508, 203)",2,2004_456
1333,"(169, 6, 39)",2,2004_456
1334,"(169, 31, 6)",2,2004_456
1335,"(169, 31, 39)",3,2004_456
1336,"(169, 144, 254)",2,2004_456
1337,"(169, 254, 39)",2,2004_456
1338,"(172, 31, 2)",2,2004_456
1339,"(172, 47, 38)",2,2004_456
1340,"(172, 254, 38)",2,2004_456
1341,"(186, 2, 2)",2,2004_456
1342,"(186, 494, 2)",2,2004_456
1343,"(189, 31, 6)",2,2004_456
1344,"(199, 5, 497)",2,2004_456
1345,"(203, 2, 2)",2,2004_456
1346,"(203, 3, 31)",2,2004_456
1347,"(203, 3, 84)",2,2004_456
1348,"(203, 31, 2)",3,2004_456
1349,"(203, 47, 189)",2,2004_456
1350,"(203, 67, 47)",2,2004_456
1351,"(203, 67, 189)",2,2004_456
1352,"(203, 84, 77)",2,2004_456
1353,"(203, 87, 2)",2,2004_456
1354,"(228, 3, 119)",2,2004_456
1355,"(254, 6, 39)",3,2004_456
1356,"(254, 31, 2)",2,2004_456
1357,"(254, 31, 87)",2,2004_456
1358,"(254, 38, 2)",2,2004_456
1359,"(254, 38, 31)",2,2004_456
1360,"(254, 38, 87)",2,2004_456
1361,"(256, 2, 2)",2,2004_456
1362,"(256, 2, 6)",2,2004_456
1363,"(256, 2, 27)",2,2004_456
1364,"(256, 2, 144)",2,2004_456
1365,"(256, 2, 172)",2,2004_456
1366,"(256, 2, 254)",2,2004_456
1367,"(256, 18, 254)",2,2004_456
1368,"(256, 27, 144)",2,2004_456
1369,"(256, 27, 254)",2,2004_456
1370,"(256, 144, 254)",2,2004_456
1371,"(275, 161, 497)",2,2004_456
1372,"(279, 511, 3)",2,2004_456
1373,"(288, 3, 20)",2,2004_456
1374,"(288, 3, 40)",2,2004_456
1375,"(288, 3, 60)",2,2004_456
1376,"(288, 20, 40)",2,2004_456
1377,"(288, 60, 20)",2,2004_456
1378,"(288, 60, 40)",2,2004_456
1379,"(295, 3, 31)",2,2004_456
1380,"(295, 26, 31)",2,2004_456
1381,"(295, 31, 2)",2,2004_456
1382,"(378, 2, 420)",2,2004_456
1383,"(458, 2, 33)",2,2004_456
1384,"(494, 2, 2)",2,2004_456
1385,"(494, 2, 3)",3,2004_456
1386,"(494, 2, 6)",2,2004_456
1387,"(494, 2, 17)",2,2004_456
1388,"(494, 2, 27)",3,2004_456
1389,"(494, 2, 31)",3,2004_456
1390,"(494, 2, 39)",2,2004_456
1391,"(494, 2, 95)",4,2004_456
1392,"(494, 2, 133)",2,2004_456
1393,"(494, 2, 144)",2,2004_456
1394,"(494, 2, 172)",3,2004_456
1395,"(494, 2, 203)",2,2004_456
1396,"(494, 2, 295)",2,2004_456
1397,"(494, 6, 133)",2,2004_456
1398,"(494, 6, 144)",2,2004_456
1399,"(494, 31, 2)",2,2004_456
1400,"(494, 33, 2)",2,2004_456
1401,"(494, 47, 31)",2,2004_456
1402,"(494, 95, 17)",2,2004_456
1403,"(494, 95, 27)",2,2004_456
1404,"(494, 172, 3)",2,2004_456
1405,"(494, 256, 18)",2,2004_456
1406,"(494, 497, 3)",2,2004_456
1407,"(494, 497, 31)",2,2004_456
1408,"(497, 2, 3)",2,2004_456
1409,"(497, 2, 279)",2,2004_456
1410,"(497, 2, 497)",2,2004_456
1411,"(497, 3, 497)",2,2004_456
1412,"(497, 6, 2)",2,2004_456
1413,"(497, 6, 87)",2,2004_456
1414,"(497, 14, 31)",2,2004_456
1415,"(497, 14, 33)",2,2004_456
1416,"(497, 14, 497)",2,2004_456
1417,"(497, 27, 2)",2,2004_456
1418,"(497, 31, 2)",2,2004_456
1419,"(497, 31, 31)",2,2004_456
1420,"(497, 31, 216)",2,2004_456
1421,"(497, 31, 322)",2,2004_456
1422,"(497, 31, 497)",2,2004_456
1423,"(497, 33, 31)",2,2004_456
1424,"(497, 33, 33)",3,2004_456
1425,"(497, 33, 62)",2,2004_456
1426,"(497, 47, 31)",2,2004_456
1427,"(497, 47, 189)",2,2004_456
1428,"(497, 62, 31)",2,2004_456
1429,"(497, 62, 497)",2,2004_456
1430,"(497, 67, 31)",2,2004_456
1431,"(497, 67, 47)",2,2004_456
1432,"(497, 67, 189)",2,2004_456
1433,"(497, 183, 31)",2,2004_456
1434,"(497, 189, 31)",2,2004_456
1435,"(497, 216, 31)",2,2004_456
1436,"(497, 279, 3)",2,2004_456
1437,"(497, 378, 414)",2,2004_456
1438,"(497, 497, 6)",2,2004_456
1439,"(497, 497, 31)",3,2004_456
1440,"(615, 2, 2)",2,2004_456
1441,"(615, 14, 2)",2,2004_456
1442,"(983, 53, 2)",2,2004_456
1443,"(1508, 203, 33)",2,2004_456
1444,"(5876, 2, 33)",2,2004_456
1445,"(5876, 31, 2)",2,2004_456
1446,"(5876, 31, 33)",2,2004_456
1447,"(7406, 33, 497)",2,2004_456
1448,"(11652, 2, 497)",2,2004_456
1449,"(2, 3, 60, 2)",3,2004_456
1450,"(2, 3, 494, 2)",2,2004_456
1451,"(2, 6, 144, 254)",2,2004_456
1452,"(2, 17, 3, 2)",2,2004_456
1453,"(2, 17, 27, 31)",2,2004_456
1454,"(2, 27, 31, 2)",2,2004_456
1455,"(2, 27, 144, 35)",2,2004_456
1456,"(2, 27, 144, 254)",2,2004_456
1457,"(2, 27, 254, 35)",2,2004_456
1458,"(2, 33, 62, 14)",2,2004_456
1459,"(2, 77, 240, 14)",2,2004_456
1460,"(2, 95, 27, 2)",2,2004_456
1461,"(2, 95, 27, 31)",2,2004_456
1462,"(2, 95, 31, 2)",2,2004_456
1463,"(2, 95, 77, 14)",2,2004_456
1464,"(2, 95, 77, 103)",2,2004_456
1465,"(2, 95, 77, 240)",2,2004_456
1466,"(2, 95, 77, 295)",2,2004_456
1467,"(2, 95, 154, 14)",2,2004_456
1468,"(2, 95, 154, 77)",2,2004_456
1469,"(2, 95, 154, 240)",2,2004_456
1470,"(2, 95, 203, 27)",2,2004_456
1471,"(2, 95, 240, 14)",2,2004_456
1472,"(2, 129, 3, 60)",2,2004_456
1473,"(2, 129, 494, 2)",2,2004_456
1474,"(2, 144, 254, 35)",2,2004_456
1475,"(2, 154, 77, 14)",2,2004_456
1476,"(2, 154, 77, 240)",2,2004_456
1477,"(2, 154, 240, 14)",2,2004_456
1478,"(2, 172, 31, 2)",2,2004_456
1479,"(3, 60, 2, 497)",2,2004_456
1480,"(3, 60, 20, 40)",2,2004_456
1481,"(6, 27, 254, 31)",2,2004_456
1482,"(14, 2, 17, 3)",2,2004_456
1483,"(14, 2, 95, 27)",2,2004_456
1484,"(14, 87, 2, 3)",2,2004_456
1485,"(14, 87, 2, 17)",2,2004_456
1486,"(14, 87, 17, 3)",2,2004_456
1487,"(17, 31, 2, 95)",2,2004_456
1488,"(20, 6, 114, 39)",2,2004_456
1489,"(27, 144, 254, 35)",2,2004_456
1490,"(31, 2, 84, 87)",2,2004_456
1491,"(31, 2, 172, 33)",2,2004_456
1492,"(31, 47, 129, 27)",2,2004_456
1493,"(31, 228, 3, 119)",2,2004_456
1494,"(31, 378, 2, 420)",2,2004_456
1495,"(33, 3, 60, 20)",2,2004_456
1496,"(33, 67, 47, 189)",2,2004_456
1497,"(33, 275, 161, 497)",2,2004_456
1498,"(38, 159, 31, 18)",2,2004_456
1499,"(47, 189, 31, 6)",2,2004_456
1500,"(62, 497, 6, 2)",2,2004_456
1501,"(67, 47, 31, 6)",2,2004_456
1502,"(67, 47, 189, 6)",2,2004_456
1503,"(67, 47, 189, 31)",2,2004_456
1504,"(67, 189, 31, 6)",2,2004_456
1505,"(87, 2, 17, 3)",2,2004_456
1506,"(95, 27, 31, 2)",2,2004_456
1507,"(95, 77, 240, 14)",2,2004_456
1508,"(95, 154, 77, 14)",2,2004_456
1509,"(95, 154, 77, 240)",2,2004_456
1510,"(95, 154, 240, 14)",2,2004_456
1511,"(103, 2, 95, 17)",2,2004_456
1512,"(103, 494, 2, 17)",2,2004_456
1513,"(103, 494, 2, 95)",2,2004_456
1514,"(103, 494, 95, 17)",2,2004_456
1515,"(129, 494, 2, 172)",2,2004_456
1516,"(154, 77, 240, 14)",2,2004_456
1517,"(159, 31, 18, 1051)",2,2004_456
1518,"(161, 3, 1508, 33)",2,2004_456
1519,"(161, 3, 1508, 203)",2,2004_456
1520,"(203, 67, 47, 189)",2,2004_456
1521,"(254, 38, 31, 2)",2,2004_456
1522,"(254, 38, 31, 87)",2,2004_456
1523,"(256, 2, 27, 144)",2,2004_456
1524,"(256, 2, 27, 254)",2,2004_456
1525,"(256, 2, 144, 254)",2,2004_456
1526,"(256, 27, 144, 254)",2,2004_456
1527,"(288, 3, 20, 40)",2,2004_456
1528,"(288, 3, 60, 20)",2,2004_456
1529,"(288, 3, 60, 40)",2,2004_456
1530,"(288, 60, 20, 40)",2,2004_456
1531,"(494, 2, 6, 133)",2,2004_456
1532,"(494, 2, 6, 144)",2,2004_456
1533,"(494, 2, 95, 17)",2,2004_456
1534,"(494, 2, 95, 27)",2,2004_456
1535,"(494, 2, 172, 3)",2,2004_456
1536,"(497, 14, 497, 31)",2,2004_456
1537,"(497, 31, 2, 497)",2,2004_456
1538,"(497, 33, 33, 31)",2,2004_456
1539,"(497, 33, 62, 31)",2,2004_456
1540,"(497, 47, 189, 31)",2,2004_456
1541,"(497, 67, 47, 31)",2,2004_456
1542,"(497, 67, 47, 189)",2,2004_456
1543,"(497, 67, 189, 31)",2,2004_456
1544,"(5876, 31, 2, 33)",2,2004_456
1545,"(2, 27, 144, 254, 35)",2,2004_456
1546,"(2, 95, 27, 31, 2)",2,2004_456
1547,"(2, 95, 77, 240, 14)",2,2004_456
1548,"(2, 95, 154, 77, 14)",2,2004_456
1549,"(2, 95, 154, 77, 240)",2,2004_456
1550,"(2, 95, 154, 240, 14)",2,2004_456
1551,"(2, 154, 77, 240, 14)",2,2004_456
1552,"(14, 87, 2, 17, 3)",2,2004_456
1553,"(67, 47, 189, 31, 6)",2,2004_456
1554,"(95, 154, 77, 240, 14)",2,2004_456
1555,"(103, 494, 2, 95, 17)",2,2004_456
1556,"(256, 2, 27, 144, 254)",2,2004_456
1557,"(288, 3, 60, 20, 40)",2,2004_456
1558,"(497, 67, 47, 189, 31)",2,2004_456
1559,"(2, 95, 154, 77, 240, 14)",2,2004_456
