,pattern,sup,author
916,"(2, 22, 10)",2,mbtiauth_645
917,"(3, 3, 32)",2,mbtiauth_645
918,"(3, 3, 65)",2,mbtiauth_645
919,"(3, 10, 22)",2,mbtiauth_645
920,"(3, 10, 76)",3,mbtiauth_645
921,"(3, 22, 2)",3,mbtiauth_645
922,"(3, 22, 3)",2,mbtiauth_645
923,"(3, 22, 32)",2,mbtiauth_645
924,"(3, 22, 76)",4,mbtiauth_645
925,"(3, 22, 7710)",2,mbtiauth_645
926,"(3, 32, 22)",2,mbtiauth_645
927,"(3, 65, 10)",2,mbtiauth_645
928,"(3, 65, 22)",3,mbtiauth_645
929,"(3, 65, 32)",2,mbtiauth_645
930,"(3, 65, 76)",3,mbtiauth_645
931,"(3, 65, 602)",2,mbtiauth_645
932,"(3, 65, 1366)",2,mbtiauth_645
933,"(3, 76, 22)",4,mbtiauth_645
934,"(3, 76, 76)",3,mbtiauth_645
935,"(3, 76, 113)",2,mbtiauth_645
936,"(3, 76, 278)",2,mbtiauth_645
937,"(3, 76, 557)",2,mbtiauth_645
938,"(3, 113, 76)",2,mbtiauth_645
939,"(3, 113, 194)",2,mbtiauth_645
940,"(3, 113, 278)",2,mbtiauth_645
941,"(3, 194, 278)",2,mbtiauth_645
942,"(3, 602, 22)",2,mbtiauth_645
943,"(3, 1452, 340)",2,mbtiauth_645
944,"(3, 7710, 3)",2,mbtiauth_645
945,"(7, 64, 22)",2,mbtiauth_645
946,"(8, 26, 3572)",2,mbtiauth_645
947,"(8, 28, 26)",2,mbtiauth_645
948,"(8, 28, 3572)",2,mbtiauth_645
949,"(10, 22, 2)",2,mbtiauth_645
950,"(10, 22, 10)",2,mbtiauth_645
951,"(10, 22, 22)",3,mbtiauth_645
952,"(10, 22, 32)",4,mbtiauth_645
953,"(10, 22, 76)",2,mbtiauth_645
954,"(10, 22, 168)",2,mbtiauth_645
955,"(10, 22, 7710)",2,mbtiauth_645
956,"(10, 32, 10)",2,mbtiauth_645
957,"(10, 32, 22)",2,mbtiauth_645
958,"(10, 41, 10)",2,mbtiauth_645
959,"(10, 41, 445)",2,mbtiauth_645
960,"(10, 65, 32)",2,mbtiauth_645
961,"(10, 76, 31)",2,mbtiauth_645
962,"(10, 76, 32)",3,mbtiauth_645
963,"(10, 141, 10)",2,mbtiauth_645
964,"(10, 141, 41)",2,mbtiauth_645
965,"(10, 141, 445)",2,mbtiauth_645
966,"(10, 149, 141)",2,mbtiauth_645
967,"(10, 445, 10)",2,mbtiauth_645
968,"(22, 2, 3)",2,mbtiauth_645
969,"(22, 2, 22)",3,mbtiauth_645
970,"(22, 2, 1399)",2,mbtiauth_645
971,"(22, 3, 22)",4,mbtiauth_645
972,"(22, 3, 65)",2,mbtiauth_645
973,"(22, 3, 151)",2,mbtiauth_645
974,"(22, 3, 160)",2,mbtiauth_645
975,"(22, 10, 22)",5,mbtiauth_645
976,"(22, 10, 65)",2,mbtiauth_645
977,"(22, 10, 76)",2,mbtiauth_645
978,"(22, 22, 2)",4,mbtiauth_645
979,"(22, 22, 3)",2,mbtiauth_645
980,"(22, 22, 10)",2,mbtiauth_645
981,"(22, 22, 22)",3,mbtiauth_645
982,"(22, 22, 32)",3,mbtiauth_645
983,"(22, 22, 65)",2,mbtiauth_645
984,"(22, 22, 76)",3,mbtiauth_645
985,"(22, 22, 163)",3,mbtiauth_645
986,"(22, 22, 182)",2,mbtiauth_645
987,"(22, 22, 1399)",2,mbtiauth_645
988,"(22, 22, 7710)",3,mbtiauth_645
989,"(22, 32, 2)",4,mbtiauth_645
990,"(22, 32, 3)",2,mbtiauth_645
991,"(22, 32, 10)",3,mbtiauth_645
992,"(22, 32, 22)",7,mbtiauth_645
993,"(22, 32, 64)",2,mbtiauth_645
994,"(22, 32, 65)",4,mbtiauth_645
995,"(22, 32, 76)",4,mbtiauth_645
996,"(22, 32, 163)",3,mbtiauth_645
997,"(22, 32, 182)",3,mbtiauth_645
998,"(22, 32, 1399)",2,mbtiauth_645
999,"(22, 32, 7710)",3,mbtiauth_645
1000,"(22, 50, 3)",2,mbtiauth_645
1001,"(22, 50, 22)",2,mbtiauth_645
1002,"(22, 64, 3)",2,mbtiauth_645
1003,"(22, 64, 76)",2,mbtiauth_645
1004,"(22, 65, 76)",2,mbtiauth_645
1005,"(22, 65, 26401)",2,mbtiauth_645
1006,"(22, 72, 3)",2,mbtiauth_645
1007,"(22, 76, 10)",2,mbtiauth_645
1008,"(22, 76, 22)",4,mbtiauth_645
1009,"(22, 76, 32)",2,mbtiauth_645
1010,"(22, 76, 65)",3,mbtiauth_645
1011,"(22, 76, 149)",2,mbtiauth_645
1012,"(22, 76, 278)",2,mbtiauth_645
1013,"(22, 76, 340)",2,mbtiauth_645
1014,"(22, 160, 168)",2,mbtiauth_645
1015,"(22, 163, 2)",3,mbtiauth_645
1016,"(22, 163, 10)",2,mbtiauth_645
1017,"(22, 163, 1399)",2,mbtiauth_645
1018,"(22, 312, 22)",2,mbtiauth_645
1019,"(22, 340, 32)",2,mbtiauth_645
1020,"(22, 470, 2)",2,mbtiauth_645
1021,"(22, 470, 163)",2,mbtiauth_645
1022,"(22, 470, 1399)",2,mbtiauth_645
1023,"(22, 686, 5152)",2,mbtiauth_645
1024,"(22, 691, 2)",4,mbtiauth_645
1025,"(22, 691, 22)",2,mbtiauth_645
1026,"(22, 1128, 22)",3,mbtiauth_645
1027,"(22, 1128, 32)",3,mbtiauth_645
1028,"(22, 1128, 182)",2,mbtiauth_645
1029,"(22, 1128, 7710)",3,mbtiauth_645
1030,"(22, 2524, 22)",2,mbtiauth_645
1031,"(22, 2524, 32)",2,mbtiauth_645
1032,"(22, 2654, 2)",4,mbtiauth_645
1033,"(22, 2654, 3)",2,mbtiauth_645
1034,"(22, 2654, 22)",3,mbtiauth_645
1035,"(22, 2654, 76)",2,mbtiauth_645
1036,"(22, 2654, 691)",4,mbtiauth_645
1037,"(22, 7548, 1624)",2,mbtiauth_645
1038,"(22, 7710, 3)",3,mbtiauth_645
1039,"(22, 7710, 22)",2,mbtiauth_645
1040,"(22, 7710, 32)",2,mbtiauth_645
1041,"(22, 7710, 160)",2,mbtiauth_645
1042,"(22, 7710, 182)",2,mbtiauth_645
1043,"(22, 14900, 65)",2,mbtiauth_645
1044,"(22, 14900, 76)",2,mbtiauth_645
1045,"(22, 14900, 26401)",2,mbtiauth_645
1046,"(22, 26401, 76)",2,mbtiauth_645
1047,"(27, 3, 278)",2,mbtiauth_645
1048,"(28, 26, 3572)",2,mbtiauth_645
1049,"(31, 76, 113)",3,mbtiauth_645
1050,"(31, 827, 76)",2,mbtiauth_645
1051,"(31, 827, 113)",2,mbtiauth_645
1052,"(32, 2, 1399)",2,mbtiauth_645
1053,"(32, 10, 22)",2,mbtiauth_645
1054,"(32, 22, 2)",3,mbtiauth_645
1055,"(32, 22, 3)",2,mbtiauth_645
1056,"(32, 22, 10)",2,mbtiauth_645
1057,"(32, 22, 22)",3,mbtiauth_645
1058,"(32, 22, 65)",2,mbtiauth_645
1059,"(32, 22, 76)",2,mbtiauth_645
1060,"(32, 22, 163)",3,mbtiauth_645
1061,"(32, 22, 182)",3,mbtiauth_645
1062,"(32, 22, 470)",2,mbtiauth_645
1063,"(32, 22, 1399)",2,mbtiauth_645
1064,"(32, 22, 7710)",3,mbtiauth_645
1065,"(32, 163, 2)",3,mbtiauth_645
1066,"(32, 163, 1399)",2,mbtiauth_645
1067,"(32, 7710, 3)",2,mbtiauth_645
1068,"(32, 7710, 182)",2,mbtiauth_645
1069,"(41, 76, 65)",2,mbtiauth_645
1070,"(41, 149, 141)",2,mbtiauth_645
1071,"(41, 182, 65)",2,mbtiauth_645
1072,"(41, 340, 65)",2,mbtiauth_645
1073,"(41, 340, 182)",2,mbtiauth_645
1074,"(41, 445, 10)",2,mbtiauth_645
1075,"(41, 485, 113)",2,mbtiauth_645
1076,"(50, 3, 22)",2,mbtiauth_645
1077,"(63, 76, 22)",2,mbtiauth_645
1078,"(63, 76, 32)",2,mbtiauth_645
1079,"(63, 76, 557)",2,mbtiauth_645
1080,"(63, 557, 22)",2,mbtiauth_645
1081,"(63, 557, 32)",2,mbtiauth_645
1082,"(64, 10, 65)",2,mbtiauth_645
1083,"(64, 76, 10)",2,mbtiauth_645
1084,"(64, 76, 22)",2,mbtiauth_645
1085,"(64, 76, 65)",2,mbtiauth_645
1086,"(64, 76, 113)",2,mbtiauth_645
1087,"(64, 76, 165)",2,mbtiauth_645
1088,"(64, 76, 250)",2,mbtiauth_645
1089,"(64, 76, 557)",2,mbtiauth_645
1090,"(64, 113, 2)",2,mbtiauth_645
1091,"(64, 113, 3)",2,mbtiauth_645
1092,"(64, 113, 22)",2,mbtiauth_645
1093,"(64, 113, 64)",2,mbtiauth_645
1094,"(64, 151, 250)",2,mbtiauth_645
1095,"(64, 250, 165)",2,mbtiauth_645
1096,"(64, 2890, 76)",2,mbtiauth_645
1097,"(65, 3, 76)",3,mbtiauth_645
1098,"(65, 32, 22)",2,mbtiauth_645
1099,"(65, 76, 22)",3,mbtiauth_645
1100,"(65, 76, 76)",2,mbtiauth_645
1101,"(65, 113, 76)",2,mbtiauth_645
1102,"(65, 602, 22)",2,mbtiauth_645
1103,"(65, 8293, 2214)",2,mbtiauth_645
1104,"(65, 26401, 22)",2,mbtiauth_645
1105,"(65, 26401, 76)",2,mbtiauth_645
1106,"(69, 22, 22)",2,mbtiauth_645
1107,"(69, 22, 32)",3,mbtiauth_645
1108,"(69, 32, 22)",2,mbtiauth_645
1109,"(76, 3, 22)",4,mbtiauth_645
1110,"(76, 3, 32)",2,mbtiauth_645
1111,"(76, 3, 64)",2,mbtiauth_645
1112,"(76, 3, 65)",2,mbtiauth_645
1113,"(76, 3, 1452)",2,mbtiauth_645
1114,"(76, 7, 64)",2,mbtiauth_645
1115,"(76, 10, 22)",4,mbtiauth_645
1116,"(76, 10, 65)",3,mbtiauth_645
1117,"(76, 10, 394)",2,mbtiauth_645
1118,"(76, 22, 2)",4,mbtiauth_645
1119,"(76, 22, 10)",3,mbtiauth_645
1120,"(76, 22, 22)",5,mbtiauth_645
1121,"(76, 22, 32)",4,mbtiauth_645
1122,"(76, 22, 65)",2,mbtiauth_645
1123,"(76, 22, 163)",4,mbtiauth_645
1124,"(76, 22, 470)",2,mbtiauth_645
1125,"(76, 22, 2524)",2,mbtiauth_645
1126,"(76, 32, 2)",3,mbtiauth_645
1127,"(76, 32, 22)",5,mbtiauth_645
1128,"(76, 32, 65)",2,mbtiauth_645
1129,"(76, 32, 163)",3,mbtiauth_645
1130,"(76, 32, 470)",2,mbtiauth_645
1131,"(76, 64, 10)",2,mbtiauth_645
1132,"(76, 64, 781)",2,mbtiauth_645
1133,"(76, 65, 3)",2,mbtiauth_645
1134,"(76, 65, 76)",2,mbtiauth_645
1135,"(76, 65, 422)",2,mbtiauth_645
1136,"(76, 69, 22)",2,mbtiauth_645
1137,"(76, 69, 32)",2,mbtiauth_645
1138,"(76, 76, 76)",3,mbtiauth_645
1139,"(76, 81, 64)",2,mbtiauth_645
1140,"(76, 113, 41)",2,mbtiauth_645
1141,"(76, 113, 65)",3,mbtiauth_645
1142,"(76, 113, 76)",2,mbtiauth_645
1143,"(76, 131, 182)",2,mbtiauth_645
1144,"(76, 163, 2)",3,mbtiauth_645
1145,"(76, 165, 31)",2,mbtiauth_645
1146,"(76, 182, 3)",2,mbtiauth_645
1147,"(76, 182, 64)",2,mbtiauth_645
1148,"(76, 242, 64)",2,mbtiauth_645
1149,"(76, 242, 80)",2,mbtiauth_645
1150,"(76, 250, 31)",2,mbtiauth_645
1151,"(76, 250, 165)",2,mbtiauth_645
1152,"(76, 278, 2)",2,mbtiauth_645
1153,"(76, 424, 22)",2,mbtiauth_645
1154,"(76, 424, 27)",2,mbtiauth_645
1155,"(76, 470, 2)",2,mbtiauth_645
1156,"(76, 470, 22)",2,mbtiauth_645
1157,"(76, 470, 163)",2,mbtiauth_645
1158,"(76, 484, 64)",2,mbtiauth_645
1159,"(76, 484, 548)",2,mbtiauth_645
1160,"(76, 510, 65)",2,mbtiauth_645
1161,"(76, 510, 76)",2,mbtiauth_645
1162,"(76, 510, 182)",2,mbtiauth_645
1163,"(76, 548, 64)",2,mbtiauth_645
1164,"(76, 557, 10)",3,mbtiauth_645
1165,"(76, 557, 22)",2,mbtiauth_645
1166,"(76, 557, 32)",2,mbtiauth_645
1167,"(76, 557, 64)",2,mbtiauth_645
1168,"(76, 557, 65)",2,mbtiauth_645
1169,"(76, 608, 3)",2,mbtiauth_645
1170,"(76, 1089, 10)",2,mbtiauth_645
1171,"(76, 2524, 22)",2,mbtiauth_645
1172,"(76, 2524, 32)",2,mbtiauth_645
1173,"(76, 17731, 3)",2,mbtiauth_645
1174,"(76, 17731, 608)",2,mbtiauth_645
1175,"(81, 64, 137)",2,mbtiauth_645
1176,"(113, 2, 64)",2,mbtiauth_645
1177,"(113, 3, 65)",2,mbtiauth_645
1178,"(113, 3, 76)",3,mbtiauth_645
1179,"(113, 3, 557)",2,mbtiauth_645
1180,"(113, 7, 22)",2,mbtiauth_645
1181,"(113, 10, 22)",2,mbtiauth_645
1182,"(113, 10, 242)",2,mbtiauth_645
1183,"(113, 10, 394)",2,mbtiauth_645
1184,"(113, 22, 2)",2,mbtiauth_645
1185,"(113, 22, 129)",2,mbtiauth_645
1186,"(113, 22, 691)",2,mbtiauth_645
1187,"(113, 22, 2654)",2,mbtiauth_645
1188,"(113, 27, 41)",2,mbtiauth_645
1189,"(113, 27, 278)",2,mbtiauth_645
1190,"(113, 64, 22)",2,mbtiauth_645
1191,"(113, 64, 256)",2,mbtiauth_645
1192,"(113, 76, 242)",2,mbtiauth_645
1193,"(113, 76, 557)",3,mbtiauth_645
1194,"(113, 118, 31)",2,mbtiauth_645
1195,"(113, 118, 64)",2,mbtiauth_645
1196,"(113, 118, 65)",2,mbtiauth_645
1197,"(113, 182, 22)",2,mbtiauth_645
1198,"(113, 182, 76)",2,mbtiauth_645
1199,"(113, 194, 278)",2,mbtiauth_645
1200,"(113, 200, 244)",2,mbtiauth_645
1201,"(113, 691, 2)",2,mbtiauth_645
1202,"(113, 2654, 2)",2,mbtiauth_645
1203,"(113, 2654, 691)",2,mbtiauth_645
1204,"(118, 41, 113)",2,mbtiauth_645
1205,"(118, 41, 151)",2,mbtiauth_645
1206,"(118, 41, 485)",2,mbtiauth_645
1207,"(118, 485, 113)",2,mbtiauth_645
1208,"(141, 41, 10)",2,mbtiauth_645
1209,"(141, 41, 445)",2,mbtiauth_645
1210,"(141, 445, 10)",2,mbtiauth_645
1211,"(151, 2, 41)",2,mbtiauth_645
1212,"(151, 3, 32)",2,mbtiauth_645
1213,"(151, 3, 65)",2,mbtiauth_645
1214,"(151, 250, 420)",2,mbtiauth_645
1215,"(151, 269, 64)",2,mbtiauth_645
1216,"(158, 50, 3)",2,mbtiauth_645
1217,"(158, 50, 113)",2,mbtiauth_645
1218,"(158, 182, 76)",2,mbtiauth_645
1219,"(158, 182, 113)",2,mbtiauth_645
1220,"(158, 182, 510)",2,mbtiauth_645
1221,"(158, 182, 1223)",2,mbtiauth_645
1222,"(160, 168, 513)",2,mbtiauth_645
1223,"(160, 168, 18440)",2,mbtiauth_645
1224,"(160, 18440, 513)",2,mbtiauth_645
1225,"(163, 2, 1399)",2,mbtiauth_645
1226,"(168, 32, 312)",2,mbtiauth_645
1227,"(168, 18440, 513)",2,mbtiauth_645
1228,"(182, 3, 22)",2,mbtiauth_645
1229,"(182, 3, 76)",2,mbtiauth_645
1230,"(182, 22, 32)",2,mbtiauth_645
1231,"(182, 33, 65)",2,mbtiauth_645
1232,"(182, 76, 76)",3,mbtiauth_645
1233,"(200, 22, 32)",2,mbtiauth_645
1234,"(200, 22, 64)",2,mbtiauth_645
1235,"(224, 3, 76)",2,mbtiauth_645
1236,"(224, 41, 76)",3,mbtiauth_645
1237,"(242, 3, 22)",2,mbtiauth_645
1238,"(242, 3, 65)",2,mbtiauth_645
1239,"(242, 10, 22)",2,mbtiauth_645
1240,"(244, 75, 64)",2,mbtiauth_645
1241,"(250, 165, 31)",2,mbtiauth_645
1242,"(273, 22, 32)",3,mbtiauth_645
1243,"(273, 182, 22)",2,mbtiauth_645
1244,"(278, 22, 32)",3,mbtiauth_645
1245,"(312, 22, 65)",2,mbtiauth_645
1246,"(312, 76, 510)",2,mbtiauth_645
1247,"(340, 32, 65)",2,mbtiauth_645
1248,"(340, 182, 65)",2,mbtiauth_645
1249,"(445, 10, 10)",2,mbtiauth_645
1250,"(445, 10, 22)",2,mbtiauth_645
1251,"(445, 10, 32)",2,mbtiauth_645
1252,"(445, 22, 32)",2,mbtiauth_645
1253,"(470, 2, 1399)",2,mbtiauth_645
1254,"(470, 163, 2)",2,mbtiauth_645
1255,"(470, 163, 1399)",2,mbtiauth_645
1256,"(484, 3, 22)",2,mbtiauth_645
1257,"(484, 22, 32)",2,mbtiauth_645
1258,"(484, 22, 7710)",2,mbtiauth_645
1259,"(484, 76, 3)",2,mbtiauth_645
1260,"(484, 76, 182)",2,mbtiauth_645
1261,"(484, 182, 3)",2,mbtiauth_645
1262,"(484, 548, 64)",2,mbtiauth_645
1263,"(484, 2162, 278)",2,mbtiauth_645
1264,"(504, 76, 32)",2,mbtiauth_645
1265,"(510, 22, 32)",2,mbtiauth_645
1266,"(510, 65, 76)",2,mbtiauth_645
1267,"(510, 76, 76)",2,mbtiauth_645
1268,"(510, 1075, 65)",2,mbtiauth_645
1269,"(557, 10, 65)",2,mbtiauth_645
1270,"(557, 10, 76)",2,mbtiauth_645
1271,"(557, 32, 22)",2,mbtiauth_645
1272,"(557, 64, 47)",2,mbtiauth_645
1273,"(557, 113, 7)",2,mbtiauth_645
1274,"(557, 113, 64)",2,mbtiauth_645
1275,"(557, 113, 65)",2,mbtiauth_645
1276,"(557, 113, 453)",2,mbtiauth_645
1277,"(557, 118, 256)",2,mbtiauth_645
1278,"(827, 76, 113)",2,mbtiauth_645
1279,"(1101, 76, 278)",2,mbtiauth_645
1280,"(1128, 22, 3)",2,mbtiauth_645
1281,"(1128, 22, 182)",2,mbtiauth_645
1282,"(1128, 22, 7710)",3,mbtiauth_645
1283,"(1128, 32, 3)",2,mbtiauth_645
1284,"(1128, 32, 22)",3,mbtiauth_645
1285,"(1128, 32, 182)",2,mbtiauth_645
1286,"(1128, 32, 7710)",3,mbtiauth_645
1287,"(1128, 1128, 5152)",2,mbtiauth_645
1288,"(1128, 2214, 26401)",2,mbtiauth_645
1289,"(1128, 5152, 1128)",2,mbtiauth_645
1290,"(1128, 5152, 2214)",2,mbtiauth_645
1291,"(1128, 5152, 5152)",2,mbtiauth_645
1292,"(1128, 5152, 26401)",2,mbtiauth_645
1293,"(1128, 7710, 3)",2,mbtiauth_645
1294,"(1128, 7710, 182)",2,mbtiauth_645
1295,"(1452, 340, 108130)",2,mbtiauth_645
1296,"(2524, 32, 22)",2,mbtiauth_645
1297,"(2654, 22, 14900)",2,mbtiauth_645
1298,"(2654, 691, 2)",5,mbtiauth_645
1299,"(2654, 691, 22)",2,mbtiauth_645
1300,"(3657, 10, 47)",2,mbtiauth_645
1301,"(5152, 1128, 5152)",2,mbtiauth_645
1302,"(5152, 2214, 26401)",2,mbtiauth_645
1303,"(7710, 3, 22)",2,mbtiauth_645
1304,"(7710, 3, 65)",2,mbtiauth_645
1305,"(7710, 10, 22)",2,mbtiauth_645
1306,"(7710, 242, 3)",2,mbtiauth_645
1307,"(10611, 3, 65)",2,mbtiauth_645
1308,"(14900, 65, 76)",2,mbtiauth_645
1309,"(14900, 65, 26401)",2,mbtiauth_645
1310,"(14900, 26401, 76)",2,mbtiauth_645
1311,"(17731, 608, 3)",2,mbtiauth_645
1312,"(26401, 76, 22)",2,mbtiauth_645
1313,"(3, 65, 76, 76)",2,mbtiauth_645
1314,"(3, 65, 602, 22)",2,mbtiauth_645
1315,"(3, 113, 194, 278)",2,mbtiauth_645
1316,"(8, 28, 26, 3572)",2,mbtiauth_645
1317,"(10, 22, 32, 22)",2,mbtiauth_645
1318,"(10, 22, 76, 32)",2,mbtiauth_645
1319,"(10, 41, 445, 10)",2,mbtiauth_645
1320,"(10, 141, 41, 10)",2,mbtiauth_645
1321,"(10, 141, 41, 445)",2,mbtiauth_645
1322,"(10, 141, 445, 10)",2,mbtiauth_645
1323,"(22, 22, 2, 1399)",2,mbtiauth_645
1324,"(22, 22, 3, 65)",2,mbtiauth_645
1325,"(22, 22, 22, 22)",2,mbtiauth_645
1326,"(22, 22, 32, 22)",2,mbtiauth_645
1327,"(22, 22, 163, 2)",3,mbtiauth_645
1328,"(22, 22, 163, 1399)",2,mbtiauth_645
1329,"(22, 22, 7710, 182)",2,mbtiauth_645
1330,"(22, 32, 2, 1399)",2,mbtiauth_645
1331,"(22, 32, 22, 2)",3,mbtiauth_645
1332,"(22, 32, 22, 10)",2,mbtiauth_645
1333,"(22, 32, 22, 76)",2,mbtiauth_645
1334,"(22, 32, 22, 163)",3,mbtiauth_645
1335,"(22, 32, 22, 182)",2,mbtiauth_645
1336,"(22, 32, 22, 1399)",2,mbtiauth_645
1337,"(22, 32, 22, 7710)",3,mbtiauth_645
1338,"(22, 32, 163, 2)",3,mbtiauth_645
1339,"(22, 32, 163, 1399)",2,mbtiauth_645
1340,"(22, 32, 7710, 182)",2,mbtiauth_645
1341,"(22, 50, 3, 22)",2,mbtiauth_645
1342,"(22, 65, 26401, 76)",2,mbtiauth_645
1343,"(22, 163, 2, 1399)",2,mbtiauth_645
1344,"(22, 470, 2, 1399)",2,mbtiauth_645
1345,"(22, 470, 163, 2)",2,mbtiauth_645
1346,"(22, 470, 163, 1399)",2,mbtiauth_645
1347,"(22, 1128, 22, 182)",2,mbtiauth_645
1348,"(22, 1128, 22, 7710)",3,mbtiauth_645
1349,"(22, 1128, 32, 22)",3,mbtiauth_645
1350,"(22, 1128, 32, 182)",2,mbtiauth_645
1351,"(22, 1128, 32, 7710)",3,mbtiauth_645
1352,"(22, 1128, 7710, 182)",2,mbtiauth_645
1353,"(22, 2524, 32, 22)",2,mbtiauth_645
1354,"(22, 2654, 691, 2)",4,mbtiauth_645
1355,"(22, 2654, 691, 22)",2,mbtiauth_645
1356,"(22, 14900, 65, 76)",2,mbtiauth_645
1357,"(22, 14900, 65, 26401)",2,mbtiauth_645
1358,"(22, 14900, 26401, 76)",2,mbtiauth_645
1359,"(31, 827, 76, 113)",2,mbtiauth_645
1360,"(32, 22, 2, 1399)",2,mbtiauth_645
1361,"(32, 22, 10, 22)",2,mbtiauth_645
1362,"(32, 22, 163, 2)",3,mbtiauth_645
1363,"(32, 22, 163, 1399)",2,mbtiauth_645
1364,"(32, 22, 7710, 3)",2,mbtiauth_645
1365,"(32, 22, 7710, 182)",2,mbtiauth_645
1366,"(32, 163, 2, 1399)",2,mbtiauth_645
1367,"(41, 340, 182, 65)",2,mbtiauth_645
1368,"(63, 76, 557, 22)",2,mbtiauth_645
1369,"(63, 76, 557, 32)",2,mbtiauth_645
1370,"(64, 76, 250, 165)",2,mbtiauth_645
1371,"(65, 26401, 76, 22)",2,mbtiauth_645
1372,"(69, 22, 32, 22)",2,mbtiauth_645
1373,"(76, 3, 32, 22)",2,mbtiauth_645
1374,"(76, 22, 10, 22)",2,mbtiauth_645
1375,"(76, 22, 22, 2)",3,mbtiauth_645
1376,"(76, 22, 22, 163)",3,mbtiauth_645
1377,"(76, 22, 32, 2)",3,mbtiauth_645
1378,"(76, 22, 32, 22)",4,mbtiauth_645
1379,"(76, 22, 32, 163)",3,mbtiauth_645
1380,"(76, 22, 163, 2)",3,mbtiauth_645
1381,"(76, 22, 470, 2)",2,mbtiauth_645
1382,"(76, 22, 470, 163)",2,mbtiauth_645
1383,"(76, 22, 2524, 22)",2,mbtiauth_645
1384,"(76, 22, 2524, 32)",2,mbtiauth_645
1385,"(76, 32, 22, 2)",3,mbtiauth_645
1386,"(76, 32, 22, 163)",3,mbtiauth_645
1387,"(76, 32, 163, 2)",3,mbtiauth_645
1388,"(76, 69, 22, 22)",2,mbtiauth_645
1389,"(76, 69, 22, 32)",2,mbtiauth_645
1390,"(76, 69, 32, 22)",2,mbtiauth_645
1391,"(76, 76, 76, 76)",2,mbtiauth_645
1392,"(76, 250, 165, 31)",2,mbtiauth_645
1393,"(76, 470, 163, 2)",2,mbtiauth_645
1394,"(76, 484, 548, 64)",2,mbtiauth_645
1395,"(76, 510, 65, 76)",2,mbtiauth_645
1396,"(76, 557, 32, 22)",2,mbtiauth_645
1397,"(76, 2524, 32, 22)",2,mbtiauth_645
1398,"(76, 17731, 608, 3)",2,mbtiauth_645
1399,"(113, 3, 76, 557)",2,mbtiauth_645
1400,"(113, 22, 691, 2)",2,mbtiauth_645
1401,"(113, 22, 2654, 2)",2,mbtiauth_645
1402,"(113, 22, 2654, 691)",2,mbtiauth_645
1403,"(113, 2654, 691, 2)",2,mbtiauth_645
1404,"(118, 41, 485, 113)",2,mbtiauth_645
1405,"(141, 41, 445, 10)",2,mbtiauth_645
1406,"(160, 168, 18440, 513)",2,mbtiauth_645
1407,"(445, 10, 22, 32)",2,mbtiauth_645
1408,"(470, 163, 2, 1399)",2,mbtiauth_645
1409,"(1128, 22, 7710, 3)",2,mbtiauth_645
1410,"(1128, 22, 7710, 182)",2,mbtiauth_645
1411,"(1128, 32, 22, 3)",2,mbtiauth_645
1412,"(1128, 32, 22, 182)",2,mbtiauth_645
1413,"(1128, 32, 22, 7710)",3,mbtiauth_645
1414,"(1128, 32, 7710, 3)",2,mbtiauth_645
1415,"(1128, 32, 7710, 182)",2,mbtiauth_645
1416,"(1128, 5152, 1128, 5152)",2,mbtiauth_645
1417,"(1128, 5152, 2214, 26401)",2,mbtiauth_645
1418,"(14900, 65, 26401, 76)",2,mbtiauth_645
1419,"(10, 141, 41, 445, 10)",2,mbtiauth_645
1420,"(22, 22, 163, 2, 1399)",2,mbtiauth_645
1421,"(22, 32, 22, 2, 1399)",2,mbtiauth_645
1422,"(22, 32, 22, 163, 2)",3,mbtiauth_645
1423,"(22, 32, 22, 163, 1399)",2,mbtiauth_645
1424,"(22, 32, 22, 7710, 182)",2,mbtiauth_645
1425,"(22, 32, 163, 2, 1399)",2,mbtiauth_645
1426,"(22, 470, 163, 2, 1399)",2,mbtiauth_645
1427,"(22, 1128, 22, 7710, 182)",2,mbtiauth_645
1428,"(22, 1128, 32, 22, 182)",2,mbtiauth_645
1429,"(22, 1128, 32, 22, 7710)",3,mbtiauth_645
1430,"(22, 1128, 32, 7710, 182)",2,mbtiauth_645
1431,"(22, 14900, 65, 26401, 76)",2,mbtiauth_645
1432,"(32, 22, 163, 2, 1399)",2,mbtiauth_645
1433,"(76, 22, 22, 163, 2)",3,mbtiauth_645
1434,"(76, 22, 32, 22, 2)",3,mbtiauth_645
1435,"(76, 22, 32, 22, 163)",3,mbtiauth_645
1436,"(76, 22, 32, 163, 2)",3,mbtiauth_645
1437,"(76, 22, 470, 163, 2)",2,mbtiauth_645
1438,"(76, 22, 2524, 32, 22)",2,mbtiauth_645
1439,"(76, 32, 22, 163, 2)",3,mbtiauth_645
1440,"(76, 69, 22, 32, 22)",2,mbtiauth_645
1441,"(113, 22, 2654, 691, 2)",2,mbtiauth_645
1442,"(1128, 32, 22, 7710, 3)",2,mbtiauth_645
1443,"(1128, 32, 22, 7710, 182)",2,mbtiauth_645
1444,"(22, 32, 22, 163, 2, 1399)",2,mbtiauth_645
1445,"(22, 1128, 32, 22, 7710, 182)",2,mbtiauth_645
1446,"(76, 22, 32, 22, 163, 2)",3,mbtiauth_645
