,pattern,sup,author
509,"(2, 3, 4840)",2,mbtiauth_1078
510,"(2, 32, 41)",2,mbtiauth_1078
511,"(2, 151, 41)",2,mbtiauth_1078
512,"(2, 256, 41)",2,mbtiauth_1078
513,"(2, 635, 41)",2,mbtiauth_1078
514,"(3, 2, 64)",2,mbtiauth_1078
515,"(3, 41, 22)",3,mbtiauth_1078
516,"(3, 41, 208)",2,mbtiauth_1078
517,"(3, 41, 256)",2,mbtiauth_1078
518,"(3, 64, 22)",2,mbtiauth_1078
519,"(3, 64, 41)",2,mbtiauth_1078
520,"(3, 64, 403)",2,mbtiauth_1078
521,"(3, 65, 22)",2,mbtiauth_1078
522,"(3, 65, 32)",2,mbtiauth_1078
523,"(3, 65, 41)",2,mbtiauth_1078
524,"(3, 65, 163)",2,mbtiauth_1078
525,"(3, 65, 6262)",2,mbtiauth_1078
526,"(3, 151, 41)",2,mbtiauth_1078
527,"(3, 208, 22)",2,mbtiauth_1078
528,"(3, 224, 41)",2,mbtiauth_1078
529,"(3, 224, 256)",2,mbtiauth_1078
530,"(3, 692, 148)",2,mbtiauth_1078
531,"(3, 6262, 22)",2,mbtiauth_1078
532,"(7, 64, 76)",2,mbtiauth_1078
533,"(7, 76, 2)",2,mbtiauth_1078
534,"(10, 65, 1100)",2,mbtiauth_1078
535,"(22, 22, 3)",2,mbtiauth_1078
536,"(22, 65, 32)",3,mbtiauth_1078
537,"(22, 65, 1100)",2,mbtiauth_1078
538,"(22, 76, 2)",3,mbtiauth_1078
539,"(22, 76, 41)",2,mbtiauth_1078
540,"(22, 113, 3)",2,mbtiauth_1078
541,"(22, 113, 22)",2,mbtiauth_1078
542,"(22, 113, 76)",3,mbtiauth_1078
543,"(22, 1100, 32)",2,mbtiauth_1078
544,"(31, 3, 163)",2,mbtiauth_1078
545,"(31, 22, 76)",2,mbtiauth_1078
546,"(31, 76, 2)",2,mbtiauth_1078
547,"(31, 635, 2)",2,mbtiauth_1078
548,"(32, 2, 41)",2,mbtiauth_1078
549,"(32, 3, 33)",2,mbtiauth_1078
550,"(32, 22, 3)",2,mbtiauth_1078
551,"(32, 22, 76)",3,mbtiauth_1078
552,"(32, 22, 113)",2,mbtiauth_1078
553,"(32, 41, 33)",2,mbtiauth_1078
554,"(32, 76, 2)",2,mbtiauth_1078
555,"(32, 76, 3)",2,mbtiauth_1078
556,"(32, 76, 7)",2,mbtiauth_1078
557,"(32, 76, 41)",2,mbtiauth_1078
558,"(32, 113, 76)",2,mbtiauth_1078
559,"(32, 6262, 3)",2,mbtiauth_1078
560,"(41, 64, 76)",2,mbtiauth_1078
561,"(41, 64, 1050)",2,mbtiauth_1078
562,"(41, 76, 41)",2,mbtiauth_1078
563,"(41, 115, 22)",2,mbtiauth_1078
564,"(41, 156, 76)",2,mbtiauth_1078
565,"(41, 208, 2)",2,mbtiauth_1078
566,"(41, 208, 22)",2,mbtiauth_1078
567,"(41, 208, 41)",2,mbtiauth_1078
568,"(41, 256, 22)",2,mbtiauth_1078
569,"(64, 3, 65)",3,mbtiauth_1078
570,"(64, 41, 22)",3,mbtiauth_1078
571,"(64, 41, 115)",2,mbtiauth_1078
572,"(64, 115, 22)",2,mbtiauth_1078
573,"(64, 403, 1213)",2,mbtiauth_1078
574,"(65, 3, 22)",2,mbtiauth_1078
575,"(65, 10, 22)",2,mbtiauth_1078
576,"(65, 22, 3)",2,mbtiauth_1078
577,"(65, 32, 22)",3,mbtiauth_1078
578,"(65, 1100, 22)",3,mbtiauth_1078
579,"(65, 1100, 32)",4,mbtiauth_1078
580,"(65, 6262, 22)",2,mbtiauth_1078
581,"(72, 32, 2)",2,mbtiauth_1078
582,"(76, 2, 3)",2,mbtiauth_1078
583,"(76, 2, 41)",2,mbtiauth_1078
584,"(76, 2, 64)",3,mbtiauth_1078
585,"(76, 2, 69)",2,mbtiauth_1078
586,"(76, 2, 403)",2,mbtiauth_1078
587,"(76, 3, 41)",2,mbtiauth_1078
588,"(76, 3, 64)",3,mbtiauth_1078
589,"(76, 3, 65)",2,mbtiauth_1078
590,"(76, 3, 148)",2,mbtiauth_1078
591,"(76, 22, 3)",3,mbtiauth_1078
592,"(76, 32, 3)",3,mbtiauth_1078
593,"(76, 32, 22)",2,mbtiauth_1078
594,"(76, 32, 6262)",2,mbtiauth_1078
595,"(76, 41, 22)",4,mbtiauth_1078
596,"(76, 41, 208)",2,mbtiauth_1078
597,"(76, 41, 256)",2,mbtiauth_1078
598,"(76, 50, 3)",2,mbtiauth_1078
599,"(76, 64, 256)",2,mbtiauth_1078
600,"(76, 65, 3)",2,mbtiauth_1078
601,"(76, 65, 32)",2,mbtiauth_1078
602,"(76, 65, 1100)",2,mbtiauth_1078
603,"(76, 69, 16)",2,mbtiauth_1078
604,"(76, 76, 2)",4,mbtiauth_1078
605,"(76, 76, 76)",3,mbtiauth_1078
606,"(76, 76, 1552)",2,mbtiauth_1078
607,"(76, 77, 234)",2,mbtiauth_1078
608,"(76, 113, 64)",2,mbtiauth_1078
609,"(76, 113, 326)",2,mbtiauth_1078
610,"(76, 151, 41)",2,mbtiauth_1078
611,"(76, 224, 22)",2,mbtiauth_1078
612,"(76, 224, 41)",3,mbtiauth_1078
613,"(76, 224, 256)",2,mbtiauth_1078
614,"(76, 256, 22)",2,mbtiauth_1078
615,"(76, 417, 7)",2,mbtiauth_1078
616,"(76, 484, 687)",2,mbtiauth_1078
617,"(76, 557, 113)",2,mbtiauth_1078
618,"(76, 692, 148)",2,mbtiauth_1078
619,"(76, 1100, 32)",2,mbtiauth_1078
620,"(76, 1552, 76)",3,mbtiauth_1078
621,"(76, 1552, 1552)",2,mbtiauth_1078
622,"(76, 1614, 3)",2,mbtiauth_1078
623,"(76, 6262, 3)",2,mbtiauth_1078
624,"(113, 3, 163)",2,mbtiauth_1078
625,"(113, 32, 3)",2,mbtiauth_1078
626,"(113, 64, 182)",2,mbtiauth_1078
627,"(113, 64, 326)",2,mbtiauth_1078
628,"(113, 65, 234)",2,mbtiauth_1078
629,"(113, 76, 2)",2,mbtiauth_1078
630,"(113, 76, 3)",2,mbtiauth_1078
631,"(113, 76, 22)",2,mbtiauth_1078
632,"(113, 76, 113)",4,mbtiauth_1078
633,"(113, 76, 484)",2,mbtiauth_1078
634,"(113, 76, 497)",2,mbtiauth_1078
635,"(113, 76, 557)",2,mbtiauth_1078
636,"(113, 77, 234)",2,mbtiauth_1078
637,"(113, 194, 3)",3,mbtiauth_1078
638,"(113, 194, 32)",3,mbtiauth_1078
639,"(113, 194, 163)",2,mbtiauth_1078
640,"(113, 208, 161)",2,mbtiauth_1078
641,"(113, 256, 635)",2,mbtiauth_1078
642,"(113, 340, 76)",2,mbtiauth_1078
643,"(113, 356, 279)",2,mbtiauth_1078
644,"(113, 356, 1592)",2,mbtiauth_1078
645,"(113, 557, 113)",2,mbtiauth_1078
646,"(113, 1592, 279)",2,mbtiauth_1078
647,"(118, 64, 22)",2,mbtiauth_1078
648,"(141, 76, 76)",2,mbtiauth_1078
649,"(148, 4840, 99)",2,mbtiauth_1078
650,"(194, 3, 163)",2,mbtiauth_1078
651,"(194, 32, 3)",2,mbtiauth_1078
652,"(208, 2, 41)",2,mbtiauth_1078
653,"(208, 2, 64)",2,mbtiauth_1078
654,"(208, 41, 403)",2,mbtiauth_1078
655,"(208, 76, 2)",2,mbtiauth_1078
656,"(208, 76, 41)",2,mbtiauth_1078
657,"(224, 41, 22)",2,mbtiauth_1078
658,"(224, 41, 76)",3,mbtiauth_1078
659,"(224, 41, 156)",2,mbtiauth_1078
660,"(224, 41, 256)",3,mbtiauth_1078
661,"(224, 41, 463)",3,mbtiauth_1078
662,"(224, 64, 76)",2,mbtiauth_1078
663,"(224, 76, 141)",2,mbtiauth_1078
664,"(224, 156, 76)",2,mbtiauth_1078
665,"(224, 256, 22)",2,mbtiauth_1078
666,"(224, 463, 76)",2,mbtiauth_1078
667,"(256, 635, 32)",2,mbtiauth_1078
668,"(340, 76, 2)",2,mbtiauth_1078
669,"(340, 76, 113)",2,mbtiauth_1078
670,"(340, 4565, 113)",2,mbtiauth_1078
671,"(356, 65, 279)",2,mbtiauth_1078
672,"(356, 77, 234)",2,mbtiauth_1078
673,"(356, 1592, 279)",2,mbtiauth_1078
674,"(424, 113, 32)",2,mbtiauth_1078
675,"(484, 76, 1552)",2,mbtiauth_1078
676,"(484, 113, 161)",2,mbtiauth_1078
677,"(484, 1552, 76)",2,mbtiauth_1078
678,"(484, 1552, 1552)",2,mbtiauth_1078
679,"(493, 32, 3)",2,mbtiauth_1078
680,"(493, 32, 6262)",2,mbtiauth_1078
681,"(493, 41, 256)",2,mbtiauth_1078
682,"(493, 76, 3)",3,mbtiauth_1078
683,"(493, 76, 22)",2,mbtiauth_1078
684,"(493, 76, 32)",2,mbtiauth_1078
685,"(493, 76, 41)",2,mbtiauth_1078
686,"(493, 76, 224)",2,mbtiauth_1078
687,"(493, 76, 256)",2,mbtiauth_1078
688,"(493, 76, 6262)",2,mbtiauth_1078
689,"(493, 224, 41)",2,mbtiauth_1078
690,"(493, 224, 256)",2,mbtiauth_1078
691,"(493, 6262, 3)",2,mbtiauth_1078
692,"(1016, 33, 22)",2,mbtiauth_1078
693,"(1100, 32, 22)",3,mbtiauth_1078
694,"(1208, 76, 3315)",2,mbtiauth_1078
695,"(1208, 1448, 76)",2,mbtiauth_1078
696,"(1208, 1448, 3315)",2,mbtiauth_1078
697,"(1300, 3, 76)",2,mbtiauth_1078
698,"(1448, 76, 3315)",2,mbtiauth_1078
699,"(1552, 76, 76)",3,mbtiauth_1078
700,"(1552, 76, 1552)",3,mbtiauth_1078
701,"(1552, 1552, 76)",3,mbtiauth_1078
702,"(1552, 1552, 1552)",2,mbtiauth_1078
703,"(1736, 3, 163)",2,mbtiauth_1078
704,"(1736, 31, 3)",2,mbtiauth_1078
705,"(1736, 31, 163)",2,mbtiauth_1078
706,"(1795, 1552, 1552)",2,mbtiauth_1078
707,"(4565, 76, 3)",2,mbtiauth_1078
708,"(4565, 76, 1614)",2,mbtiauth_1078
709,"(4565, 1614, 3)",2,mbtiauth_1078
710,"(8849, 1123, 279)",2,mbtiauth_1078
711,"(3, 41, 208, 22)",2,mbtiauth_1078
712,"(3, 64, 41, 22)",2,mbtiauth_1078
713,"(3, 65, 6262, 22)",2,mbtiauth_1078
714,"(3, 224, 41, 256)",2,mbtiauth_1078
715,"(22, 65, 1100, 32)",2,mbtiauth_1078
716,"(32, 22, 113, 76)",2,mbtiauth_1078
717,"(64, 41, 115, 22)",2,mbtiauth_1078
718,"(65, 1100, 32, 22)",3,mbtiauth_1078
719,"(76, 32, 22, 3)",2,mbtiauth_1078
720,"(76, 32, 6262, 3)",2,mbtiauth_1078
721,"(76, 41, 256, 22)",2,mbtiauth_1078
722,"(76, 65, 1100, 32)",2,mbtiauth_1078
723,"(76, 76, 1552, 76)",2,mbtiauth_1078
724,"(76, 224, 41, 22)",2,mbtiauth_1078
725,"(76, 224, 41, 256)",2,mbtiauth_1078
726,"(76, 224, 256, 22)",2,mbtiauth_1078
727,"(76, 1552, 76, 76)",2,mbtiauth_1078
728,"(76, 1552, 76, 1552)",2,mbtiauth_1078
729,"(76, 1552, 1552, 76)",2,mbtiauth_1078
730,"(113, 76, 557, 113)",2,mbtiauth_1078
731,"(113, 194, 3, 163)",2,mbtiauth_1078
732,"(113, 194, 32, 3)",2,mbtiauth_1078
733,"(113, 356, 1592, 279)",2,mbtiauth_1078
734,"(208, 76, 2, 41)",2,mbtiauth_1078
735,"(224, 41, 156, 76)",2,mbtiauth_1078
736,"(224, 41, 256, 22)",2,mbtiauth_1078
737,"(484, 1552, 76, 1552)",2,mbtiauth_1078
738,"(493, 32, 6262, 3)",2,mbtiauth_1078
739,"(493, 76, 32, 3)",2,mbtiauth_1078
740,"(493, 76, 32, 6262)",2,mbtiauth_1078
741,"(493, 76, 41, 256)",2,mbtiauth_1078
742,"(493, 76, 224, 41)",2,mbtiauth_1078
743,"(493, 76, 224, 256)",2,mbtiauth_1078
744,"(493, 76, 6262, 3)",2,mbtiauth_1078
745,"(493, 224, 41, 256)",2,mbtiauth_1078
746,"(1208, 1448, 76, 3315)",2,mbtiauth_1078
747,"(1552, 76, 76, 1552)",2,mbtiauth_1078
748,"(1552, 76, 1552, 76)",3,mbtiauth_1078
749,"(1552, 76, 1552, 1552)",2,mbtiauth_1078
750,"(1552, 1552, 76, 1552)",2,mbtiauth_1078
751,"(1736, 31, 3, 163)",2,mbtiauth_1078
752,"(4565, 76, 1614, 3)",2,mbtiauth_1078
753,"(76, 224, 41, 256, 22)",2,mbtiauth_1078
754,"(76, 1552, 76, 1552, 76)",2,mbtiauth_1078
755,"(493, 76, 32, 6262, 3)",2,mbtiauth_1078
756,"(493, 76, 224, 41, 256)",2,mbtiauth_1078
757,"(1552, 76, 1552, 76, 1552)",2,mbtiauth_1078
