,pattern,sup,author
732,"(2, 3, 31)",2,mbtiauth_8225
733,"(2, 3, 64)",2,mbtiauth_8225
734,"(2, 3, 113)",2,mbtiauth_8225
735,"(2, 76, 2)",2,mbtiauth_8225
736,"(3, 2, 2)",2,mbtiauth_8225
737,"(3, 2, 1692)",2,mbtiauth_8225
738,"(3, 10, 22)",3,mbtiauth_8225
739,"(3, 10, 32)",2,mbtiauth_8225
740,"(3, 10, 65)",2,mbtiauth_8225
741,"(3, 22, 2)",2,mbtiauth_8225
742,"(3, 22, 22)",2,mbtiauth_8225
743,"(3, 22, 32)",5,mbtiauth_8225
744,"(3, 31, 65)",2,mbtiauth_8225
745,"(3, 31, 113)",2,mbtiauth_8225
746,"(3, 32, 22)",2,mbtiauth_8225
747,"(3, 64, 22)",2,mbtiauth_8225
748,"(3, 66, 2)",2,mbtiauth_8225
749,"(3, 76, 2)",4,mbtiauth_8225
750,"(3, 76, 22)",2,mbtiauth_8225
751,"(3, 76, 32)",2,mbtiauth_8225
752,"(3, 113, 64)",3,mbtiauth_8225
753,"(3, 113, 65)",2,mbtiauth_8225
754,"(3, 115, 2)",2,mbtiauth_8225
755,"(3, 115, 22)",2,mbtiauth_8225
756,"(3, 115, 76)",2,mbtiauth_8225
757,"(3, 151, 22)",2,mbtiauth_8225
758,"(3, 312, 31)",2,mbtiauth_8225
759,"(3, 652, 31)",2,mbtiauth_8225
760,"(3, 814, 151)",2,mbtiauth_8225
761,"(7, 3, 22)",2,mbtiauth_8225
762,"(7, 3, 75)",2,mbtiauth_8225
763,"(7, 65, 150)",2,mbtiauth_8225
764,"(7, 76, 113)",2,mbtiauth_8225
765,"(7, 113, 3)",2,mbtiauth_8225
766,"(7, 113, 115)",2,mbtiauth_8225
767,"(10, 13, 76)",2,mbtiauth_8225
768,"(10, 22, 22)",2,mbtiauth_8225
769,"(10, 22, 32)",4,mbtiauth_8225
770,"(10, 32, 22)",2,mbtiauth_8225
771,"(10, 32, 76)",2,mbtiauth_8225
772,"(10, 65, 160)",2,mbtiauth_8225
773,"(10, 76, 32)",2,mbtiauth_8225
774,"(10, 76, 113)",2,mbtiauth_8225
775,"(16, 3, 76)",2,mbtiauth_8225
776,"(22, 3, 64)",2,mbtiauth_8225
777,"(22, 3, 65)",2,mbtiauth_8225
778,"(22, 3, 113)",2,mbtiauth_8225
779,"(22, 22, 1388)",2,mbtiauth_8225
780,"(22, 32, 3)",2,mbtiauth_8225
781,"(22, 32, 22)",3,mbtiauth_8225
782,"(22, 32, 32)",2,mbtiauth_8225
783,"(22, 32, 50)",3,mbtiauth_8225
784,"(22, 32, 64)",2,mbtiauth_8225
785,"(22, 32, 113)",2,mbtiauth_8225
786,"(22, 32, 1388)",2,mbtiauth_8225
787,"(22, 54, 3)",2,mbtiauth_8225
788,"(22, 54, 113)",2,mbtiauth_8225
789,"(22, 54, 151)",2,mbtiauth_8225
790,"(22, 64, 3)",3,mbtiauth_8225
791,"(22, 64, 64)",2,mbtiauth_8225
792,"(22, 64, 65)",2,mbtiauth_8225
793,"(22, 76, 2)",3,mbtiauth_8225
794,"(22, 76, 22)",2,mbtiauth_8225
795,"(22, 76, 113)",2,mbtiauth_8225
796,"(22, 77, 77)",2,mbtiauth_8225
797,"(22, 113, 3)",4,mbtiauth_8225
798,"(22, 113, 64)",3,mbtiauth_8225
799,"(22, 113, 182)",2,mbtiauth_8225
800,"(22, 113, 635)",2,mbtiauth_8225
801,"(22, 151, 113)",2,mbtiauth_8225
802,"(22, 264, 64)",2,mbtiauth_8225
803,"(27, 113, 144)",2,mbtiauth_8225
804,"(31, 76, 113)",2,mbtiauth_8225
805,"(31, 76, 557)",2,mbtiauth_8225
806,"(31, 113, 65)",2,mbtiauth_8225
807,"(32, 10, 50)",2,mbtiauth_8225
808,"(32, 22, 1388)",2,mbtiauth_8225
809,"(32, 50, 3)",2,mbtiauth_8225
810,"(32, 50, 13)",2,mbtiauth_8225
811,"(32, 50, 41)",2,mbtiauth_8225
812,"(32, 50, 64)",2,mbtiauth_8225
813,"(32, 76, 32)",2,mbtiauth_8225
814,"(33, 22, 113)",2,mbtiauth_8225
815,"(33, 113, 64)",2,mbtiauth_8225
816,"(41, 3, 22)",2,mbtiauth_8225
817,"(41, 33, 22)",3,mbtiauth_8225
818,"(41, 76, 64)",2,mbtiauth_8225
819,"(41, 76, 557)",2,mbtiauth_8225
820,"(50, 13, 41)",2,mbtiauth_8225
821,"(50, 76, 32)",2,mbtiauth_8225
822,"(54, 113, 3)",2,mbtiauth_8225
823,"(64, 3, 3)",4,mbtiauth_8225
824,"(64, 3, 22)",2,mbtiauth_8225
825,"(64, 3, 32)",2,mbtiauth_8225
826,"(64, 3, 65)",2,mbtiauth_8225
827,"(64, 3, 76)",2,mbtiauth_8225
828,"(64, 3, 628)",2,mbtiauth_8225
829,"(64, 7, 113)",2,mbtiauth_8225
830,"(64, 22, 22)",2,mbtiauth_8225
831,"(64, 22, 32)",2,mbtiauth_8225
832,"(64, 22, 76)",2,mbtiauth_8225
833,"(64, 22, 474)",2,mbtiauth_8225
834,"(64, 76, 3)",3,mbtiauth_8225
835,"(64, 76, 22)",2,mbtiauth_8225
836,"(64, 76, 32)",2,mbtiauth_8225
837,"(64, 76, 65)",2,mbtiauth_8225
838,"(64, 76, 113)",2,mbtiauth_8225
839,"(64, 76, 557)",2,mbtiauth_8225
840,"(64, 77, 3)",2,mbtiauth_8225
841,"(64, 77, 234)",2,mbtiauth_8225
842,"(64, 113, 7)",2,mbtiauth_8225
843,"(64, 113, 64)",2,mbtiauth_8225
844,"(64, 182, 3)",2,mbtiauth_8225
845,"(64, 1287, 22)",2,mbtiauth_8225
846,"(65, 3, 41)",2,mbtiauth_8225
847,"(65, 10, 772)",2,mbtiauth_8225
848,"(65, 31, 41)",2,mbtiauth_8225
849,"(65, 32, 50)",2,mbtiauth_8225
850,"(65, 74, 160)",2,mbtiauth_8225
851,"(65, 76, 3)",2,mbtiauth_8225
852,"(65, 76, 385)",2,mbtiauth_8225
853,"(65, 76, 557)",2,mbtiauth_8225
854,"(69, 16, 22)",2,mbtiauth_8225
855,"(76, 10, 22)",2,mbtiauth_8225
856,"(76, 22, 22)",2,mbtiauth_8225
857,"(76, 22, 32)",3,mbtiauth_8225
858,"(76, 22, 113)",2,mbtiauth_8225
859,"(76, 32, 22)",2,mbtiauth_8225
860,"(76, 41, 64)",2,mbtiauth_8225
861,"(76, 65, 10)",2,mbtiauth_8225
862,"(76, 77, 234)",2,mbtiauth_8225
863,"(76, 113, 7)",2,mbtiauth_8225
864,"(76, 113, 22)",2,mbtiauth_8225
865,"(76, 113, 65)",4,mbtiauth_8225
866,"(76, 113, 278)",3,mbtiauth_8225
867,"(76, 113, 504)",2,mbtiauth_8225
868,"(76, 113, 600)",2,mbtiauth_8225
869,"(76, 113, 786)",2,mbtiauth_8225
870,"(76, 182, 3)",2,mbtiauth_8225
871,"(76, 342, 65)",2,mbtiauth_8225
872,"(76, 557, 3)",2,mbtiauth_8225
873,"(76, 557, 10)",2,mbtiauth_8225
874,"(76, 557, 64)",3,mbtiauth_8225
875,"(76, 557, 113)",3,mbtiauth_8225
876,"(76, 557, 182)",2,mbtiauth_8225
877,"(76, 557, 185)",2,mbtiauth_8225
878,"(76, 786, 278)",2,mbtiauth_8225
879,"(77, 234, 10)",2,mbtiauth_8225
880,"(113, 3, 10)",3,mbtiauth_8225
881,"(113, 3, 22)",4,mbtiauth_8225
882,"(113, 3, 31)",2,mbtiauth_8225
883,"(113, 3, 115)",2,mbtiauth_8225
884,"(113, 3, 151)",3,mbtiauth_8225
885,"(113, 7, 32)",2,mbtiauth_8225
886,"(113, 7, 44)",2,mbtiauth_8225
887,"(113, 7, 64)",2,mbtiauth_8225
888,"(113, 7, 76)",2,mbtiauth_8225
889,"(113, 7, 113)",3,mbtiauth_8225
890,"(113, 7, 326)",2,mbtiauth_8225
891,"(113, 10, 22)",3,mbtiauth_8225
892,"(113, 10, 32)",2,mbtiauth_8225
893,"(113, 22, 32)",3,mbtiauth_8225
894,"(113, 31, 76)",2,mbtiauth_8225
895,"(113, 31, 113)",2,mbtiauth_8225
896,"(113, 33, 22)",2,mbtiauth_8225
897,"(113, 41, 3)",2,mbtiauth_8225
898,"(113, 41, 22)",2,mbtiauth_8225
899,"(113, 41, 33)",2,mbtiauth_8225
900,"(113, 49, 385)",2,mbtiauth_8225
901,"(113, 64, 3)",2,mbtiauth_8225
902,"(113, 64, 31)",2,mbtiauth_8225
903,"(113, 64, 65)",2,mbtiauth_8225
904,"(113, 64, 76)",2,mbtiauth_8225
905,"(113, 64, 113)",2,mbtiauth_8225
906,"(113, 65, 74)",2,mbtiauth_8225
907,"(113, 65, 160)",3,mbtiauth_8225
908,"(113, 74, 160)",2,mbtiauth_8225
909,"(113, 76, 113)",5,mbtiauth_8225
910,"(113, 76, 557)",4,mbtiauth_8225
911,"(113, 113, 64)",3,mbtiauth_8225
912,"(113, 113, 115)",2,mbtiauth_8225
913,"(113, 113, 156)",3,mbtiauth_8225
914,"(113, 115, 22)",2,mbtiauth_8225
915,"(113, 115, 113)",2,mbtiauth_8225
916,"(113, 115, 510)",2,mbtiauth_8225
917,"(113, 156, 113)",2,mbtiauth_8225
918,"(113, 182, 10)",2,mbtiauth_8225
919,"(113, 182, 22)",3,mbtiauth_8225
920,"(113, 273, 41)",2,mbtiauth_8225
921,"(113, 326, 76)",2,mbtiauth_8225
922,"(113, 340, 64)",2,mbtiauth_8225
923,"(113, 340, 113)",2,mbtiauth_8225
924,"(113, 340, 156)",2,mbtiauth_8225
925,"(113, 340, 160)",2,mbtiauth_8225
926,"(113, 497, 76)",2,mbtiauth_8225
927,"(113, 557, 113)",3,mbtiauth_8225
928,"(113, 702, 76)",3,mbtiauth_8225
929,"(113, 702, 113)",3,mbtiauth_8225
930,"(113, 702, 557)",2,mbtiauth_8225
931,"(113, 786, 278)",2,mbtiauth_8225
932,"(115, 22, 113)",2,mbtiauth_8225
933,"(115, 76, 2)",2,mbtiauth_8225
934,"(115, 121, 76)",2,mbtiauth_8225
935,"(138, 143, 41)",2,mbtiauth_8225
936,"(151, 69, 64)",2,mbtiauth_8225
937,"(151, 702, 76)",2,mbtiauth_8225
938,"(155, 64, 3)",2,mbtiauth_8225
939,"(158, 113, 64)",2,mbtiauth_8225
940,"(160, 76, 10)",2,mbtiauth_8225
941,"(182, 3, 10)",2,mbtiauth_8225
942,"(182, 3, 65)",2,mbtiauth_8225
943,"(182, 10, 22)",2,mbtiauth_8225
944,"(182, 77, 65)",2,mbtiauth_8225
945,"(200, 64, 22)",2,mbtiauth_8225
946,"(224, 41, 41)",2,mbtiauth_8225
947,"(224, 41, 81)",2,mbtiauth_8225
948,"(234, 76, 113)",2,mbtiauth_8225
949,"(238, 1116, 17)",2,mbtiauth_8225
950,"(242, 10, 22)",2,mbtiauth_8225
951,"(242, 22, 32)",2,mbtiauth_8225
952,"(242, 375, 32)",2,mbtiauth_8225
953,"(326, 76, 342)",2,mbtiauth_8225
954,"(340, 10, 65)",2,mbtiauth_8225
955,"(340, 31, 22)",2,mbtiauth_8225
956,"(340, 76, 22)",2,mbtiauth_8225
957,"(340, 113, 156)",2,mbtiauth_8225
958,"(342, 16, 32)",2,mbtiauth_8225
959,"(342, 22, 2)",2,mbtiauth_8225
960,"(342, 22, 76)",2,mbtiauth_8225
961,"(342, 31, 22)",2,mbtiauth_8225
962,"(342, 65, 10)",2,mbtiauth_8225
963,"(342, 65, 22)",2,mbtiauth_8225
964,"(342, 76, 2)",2,mbtiauth_8225
965,"(364, 64, 76)",2,mbtiauth_8225
966,"(483, 10, 22)",2,mbtiauth_8225
967,"(497, 76, 64)",2,mbtiauth_8225
968,"(590, 32, 76)",2,mbtiauth_8225
969,"(702, 76, 113)",2,mbtiauth_8225
970,"(702, 76, 557)",3,mbtiauth_8225
971,"(702, 151, 64)",2,mbtiauth_8225
972,"(1116, 17, 1498)",2,mbtiauth_8225
973,"(1193, 33, 22)",2,mbtiauth_8225
974,"(1498, 113, 17)",2,mbtiauth_8225
975,"(1707, 76, 41)",2,mbtiauth_8225
976,"(1707, 76, 340)",2,mbtiauth_8225
977,"(13138, 1116, 17)",2,mbtiauth_8225
978,"(3, 10, 22, 32)",2,mbtiauth_8225
979,"(3, 22, 32, 22)",2,mbtiauth_8225
980,"(3, 76, 22, 22)",2,mbtiauth_8225
981,"(3, 76, 22, 32)",2,mbtiauth_8225
982,"(3, 76, 32, 22)",2,mbtiauth_8225
983,"(3, 115, 76, 2)",2,mbtiauth_8225
984,"(10, 22, 32, 22)",2,mbtiauth_8225
985,"(22, 3, 113, 64)",2,mbtiauth_8225
986,"(22, 32, 22, 1388)",2,mbtiauth_8225
987,"(22, 54, 113, 3)",2,mbtiauth_8225
988,"(76, 22, 32, 22)",2,mbtiauth_8225
989,"(76, 113, 786, 278)",2,mbtiauth_8225
990,"(113, 3, 10, 22)",2,mbtiauth_8225
991,"(113, 3, 115, 22)",2,mbtiauth_8225
992,"(113, 7, 76, 113)",2,mbtiauth_8225
993,"(113, 10, 22, 32)",2,mbtiauth_8225
994,"(113, 31, 76, 113)",2,mbtiauth_8225
995,"(113, 41, 33, 22)",2,mbtiauth_8225
996,"(113, 64, 76, 113)",2,mbtiauth_8225
997,"(113, 65, 74, 160)",2,mbtiauth_8225
998,"(113, 76, 557, 113)",3,mbtiauth_8225
999,"(113, 182, 10, 22)",2,mbtiauth_8225
1000,"(113, 340, 113, 156)",2,mbtiauth_8225
1001,"(113, 702, 76, 113)",2,mbtiauth_8225
1002,"(113, 702, 76, 557)",2,mbtiauth_8225
1003,"(342, 22, 76, 2)",2,mbtiauth_8225
1004,"(3, 76, 22, 32, 22)",2,mbtiauth_8225
