,pattern,sup,author
1140,"(2, 3, 22)",2,mbtiauth_1542
1141,"(2, 3, 1603)",2,mbtiauth_1542
1142,"(2, 64, 22)",2,mbtiauth_1542
1143,"(2, 64, 160)",2,mbtiauth_1542
1144,"(2, 76, 31)",2,mbtiauth_1542
1145,"(2, 139, 64)",2,mbtiauth_1542
1146,"(2, 151, 3)",2,mbtiauth_1542
1147,"(2, 403, 22)",2,mbtiauth_1542
1148,"(2, 3126, 33)",2,mbtiauth_1542
1149,"(2, 17299, 33)",2,mbtiauth_1542
1150,"(2, 17299, 3126)",2,mbtiauth_1542
1151,"(3, 3, 3)",2,mbtiauth_1542
1152,"(3, 3, 64)",3,mbtiauth_1542
1153,"(3, 3, 76)",4,mbtiauth_1542
1154,"(3, 3, 786)",2,mbtiauth_1542
1155,"(3, 10, 32)",2,mbtiauth_1542
1156,"(3, 10, 65)",2,mbtiauth_1542
1157,"(3, 10, 151)",2,mbtiauth_1542
1158,"(3, 16, 149)",2,mbtiauth_1542
1159,"(3, 22, 32)",2,mbtiauth_1542
1160,"(3, 22, 76)",4,mbtiauth_1542
1161,"(3, 27, 3)",3,mbtiauth_1542
1162,"(3, 27, 469)",2,mbtiauth_1542
1163,"(3, 27, 786)",2,mbtiauth_1542
1164,"(3, 29, 151)",2,mbtiauth_1542
1165,"(3, 31, 76)",2,mbtiauth_1542
1166,"(3, 31, 149)",2,mbtiauth_1542
1167,"(3, 32, 50)",2,mbtiauth_1542
1168,"(3, 32, 76)",2,mbtiauth_1542
1169,"(3, 32, 151)",3,mbtiauth_1542
1170,"(3, 32, 264)",2,mbtiauth_1542
1171,"(3, 33, 22)",2,mbtiauth_1542
1172,"(3, 33, 32)",2,mbtiauth_1542
1173,"(3, 41, 76)",2,mbtiauth_1542
1174,"(3, 64, 3)",3,mbtiauth_1542
1175,"(3, 64, 10)",2,mbtiauth_1542
1176,"(3, 64, 29)",2,mbtiauth_1542
1177,"(3, 64, 41)",2,mbtiauth_1542
1178,"(3, 64, 65)",2,mbtiauth_1542
1179,"(3, 64, 76)",2,mbtiauth_1542
1180,"(3, 64, 312)",2,mbtiauth_1542
1181,"(3, 65, 32)",3,mbtiauth_1542
1182,"(3, 65, 151)",2,mbtiauth_1542
1183,"(3, 65, 791)",2,mbtiauth_1542
1184,"(3, 76, 3)",4,mbtiauth_1542
1185,"(3, 76, 22)",4,mbtiauth_1542
1186,"(3, 76, 31)",2,mbtiauth_1542
1187,"(3, 76, 64)",3,mbtiauth_1542
1188,"(3, 76, 69)",2,mbtiauth_1542
1189,"(3, 76, 141)",2,mbtiauth_1542
1190,"(3, 76, 182)",2,mbtiauth_1542
1191,"(3, 76, 557)",2,mbtiauth_1542
1192,"(3, 76, 791)",2,mbtiauth_1542
1193,"(3, 77, 77)",3,mbtiauth_1542
1194,"(3, 131, 77)",2,mbtiauth_1542
1195,"(3, 137, 201)",2,mbtiauth_1542
1196,"(3, 151, 3)",3,mbtiauth_1542
1197,"(3, 151, 64)",2,mbtiauth_1542
1198,"(3, 151, 76)",2,mbtiauth_1542
1199,"(3, 151, 150)",3,mbtiauth_1542
1200,"(3, 160, 3)",2,mbtiauth_1542
1201,"(3, 160, 27)",2,mbtiauth_1542
1202,"(3, 160, 469)",2,mbtiauth_1542
1203,"(3, 160, 786)",2,mbtiauth_1542
1204,"(3, 165, 32)",2,mbtiauth_1542
1205,"(3, 165, 264)",2,mbtiauth_1542
1206,"(3, 182, 3)",4,mbtiauth_1542
1207,"(3, 201, 76)",2,mbtiauth_1542
1208,"(3, 250, 76)",2,mbtiauth_1542
1209,"(3, 250, 463)",2,mbtiauth_1542
1210,"(3, 264, 3)",2,mbtiauth_1542
1211,"(3, 264, 151)",2,mbtiauth_1542
1212,"(3, 273, 3)",3,mbtiauth_1542
1213,"(3, 273, 182)",2,mbtiauth_1542
1214,"(3, 312, 149)",2,mbtiauth_1542
1215,"(3, 312, 2599)",2,mbtiauth_1542
1216,"(3, 469, 3)",4,mbtiauth_1542
1217,"(3, 469, 786)",2,mbtiauth_1542
1218,"(3, 506, 31)",3,mbtiauth_1542
1219,"(3, 506, 76)",2,mbtiauth_1542
1220,"(3, 506, 149)",2,mbtiauth_1542
1221,"(3, 557, 3)",2,mbtiauth_1542
1222,"(3, 557, 182)",2,mbtiauth_1542
1223,"(3, 1203, 3)",2,mbtiauth_1542
1224,"(3, 1603, 76)",2,mbtiauth_1542
1225,"(3, 3010, 64)",2,mbtiauth_1542
1226,"(7, 32, 31)",2,mbtiauth_1542
1227,"(7, 65, 3)",2,mbtiauth_1542
1228,"(7, 65, 32)",3,mbtiauth_1542
1229,"(7, 76, 31)",2,mbtiauth_1542
1230,"(7, 76, 142)",2,mbtiauth_1542
1231,"(10, 22, 22)",2,mbtiauth_1542
1232,"(10, 22, 32)",2,mbtiauth_1542
1233,"(10, 32, 273)",2,mbtiauth_1542
1234,"(10, 65, 394)",2,mbtiauth_1542
1235,"(10, 76, 65)",2,mbtiauth_1542
1236,"(10, 131, 76)",2,mbtiauth_1542
1237,"(10, 160, 312)",2,mbtiauth_1542
1238,"(10, 242, 32)",2,mbtiauth_1542
1239,"(10, 394, 151)",2,mbtiauth_1542
1240,"(10, 571, 160)",2,mbtiauth_1542
1241,"(10, 571, 312)",2,mbtiauth_1542
1242,"(22, 3, 3)",2,mbtiauth_1542
1243,"(22, 3, 10)",2,mbtiauth_1542
1244,"(22, 3, 29)",2,mbtiauth_1542
1245,"(22, 3, 64)",3,mbtiauth_1542
1246,"(22, 3, 76)",2,mbtiauth_1542
1247,"(22, 29, 3)",3,mbtiauth_1542
1248,"(22, 29, 22)",2,mbtiauth_1542
1249,"(22, 29, 41)",2,mbtiauth_1542
1250,"(22, 29, 76)",2,mbtiauth_1542
1251,"(22, 32, 3)",5,mbtiauth_1542
1252,"(22, 32, 29)",3,mbtiauth_1542
1253,"(22, 32, 32)",2,mbtiauth_1542
1254,"(22, 32, 50)",3,mbtiauth_1542
1255,"(22, 32, 64)",2,mbtiauth_1542
1256,"(22, 32, 76)",2,mbtiauth_1542
1257,"(22, 32, 151)",3,mbtiauth_1542
1258,"(22, 32, 2599)",2,mbtiauth_1542
1259,"(22, 41, 3)",2,mbtiauth_1542
1260,"(22, 50, 76)",2,mbtiauth_1542
1261,"(22, 50, 2599)",3,mbtiauth_1542
1262,"(22, 64, 10)",2,mbtiauth_1542
1263,"(22, 64, 29)",2,mbtiauth_1542
1264,"(22, 76, 22)",2,mbtiauth_1542
1265,"(22, 76, 50)",2,mbtiauth_1542
1266,"(22, 113, 3)",2,mbtiauth_1542
1267,"(22, 139, 64)",2,mbtiauth_1542
1268,"(22, 706, 10)",2,mbtiauth_1542
1269,"(22, 706, 29)",2,mbtiauth_1542
1270,"(22, 706, 64)",2,mbtiauth_1542
1271,"(22, 1123, 3)",2,mbtiauth_1542
1272,"(22, 1123, 32)",2,mbtiauth_1542
1273,"(22, 1603, 22)",2,mbtiauth_1542
1274,"(22, 1603, 29)",2,mbtiauth_1542
1275,"(22, 1603, 76)",2,mbtiauth_1542
1276,"(27, 3, 786)",2,mbtiauth_1542
1277,"(27, 41, 3)",2,mbtiauth_1542
1278,"(27, 41, 160)",2,mbtiauth_1542
1279,"(27, 469, 3)",3,mbtiauth_1542
1280,"(27, 469, 786)",2,mbtiauth_1542
1281,"(29, 3, 64)",2,mbtiauth_1542
1282,"(29, 76, 22)",2,mbtiauth_1542
1283,"(31, 3, 64)",2,mbtiauth_1542
1284,"(31, 76, 3)",2,mbtiauth_1542
1285,"(31, 151, 3)",2,mbtiauth_1542
1286,"(31, 506, 31)",2,mbtiauth_1542
1287,"(32, 2, 64)",2,mbtiauth_1542
1288,"(32, 3, 3)",2,mbtiauth_1542
1289,"(32, 3, 32)",2,mbtiauth_1542
1290,"(32, 3, 64)",2,mbtiauth_1542
1291,"(32, 3, 65)",3,mbtiauth_1542
1292,"(32, 29, 3)",2,mbtiauth_1542
1293,"(32, 50, 32)",3,mbtiauth_1542
1294,"(32, 50, 76)",2,mbtiauth_1542
1295,"(32, 50, 2599)",2,mbtiauth_1542
1296,"(32, 64, 29)",2,mbtiauth_1542
1297,"(32, 65, 32)",3,mbtiauth_1542
1298,"(32, 76, 3)",3,mbtiauth_1542
1299,"(32, 76, 22)",2,mbtiauth_1542
1300,"(32, 76, 32)",4,mbtiauth_1542
1301,"(32, 76, 64)",2,mbtiauth_1542
1302,"(32, 76, 65)",2,mbtiauth_1542
1303,"(32, 76, 151)",3,mbtiauth_1542
1304,"(32, 76, 182)",2,mbtiauth_1542
1305,"(32, 76, 417)",2,mbtiauth_1542
1306,"(32, 113, 7)",2,mbtiauth_1542
1307,"(32, 131, 64)",2,mbtiauth_1542
1308,"(32, 139, 64)",2,mbtiauth_1542
1309,"(32, 151, 2)",2,mbtiauth_1542
1310,"(32, 151, 3)",2,mbtiauth_1542
1311,"(32, 151, 22)",2,mbtiauth_1542
1312,"(32, 151, 64)",2,mbtiauth_1542
1313,"(32, 151, 113)",3,mbtiauth_1542
1314,"(32, 151, 139)",2,mbtiauth_1542
1315,"(32, 160, 32)",2,mbtiauth_1542
1316,"(32, 160, 50)",2,mbtiauth_1542
1317,"(32, 160, 65)",2,mbtiauth_1542
1318,"(32, 160, 113)",2,mbtiauth_1542
1319,"(32, 182, 3)",2,mbtiauth_1542
1320,"(32, 182, 32)",2,mbtiauth_1542
1321,"(32, 182, 65)",2,mbtiauth_1542
1322,"(32, 401, 65)",2,mbtiauth_1542
1323,"(32, 401, 160)",2,mbtiauth_1542
1324,"(32, 1450, 76)",2,mbtiauth_1542
1325,"(33, 10, 22)",2,mbtiauth_1542
1326,"(33, 22, 3)",2,mbtiauth_1542
1327,"(33, 22, 32)",3,mbtiauth_1542
1328,"(33, 22, 50)",2,mbtiauth_1542
1329,"(33, 76, 22)",2,mbtiauth_1542
1330,"(33, 76, 32)",2,mbtiauth_1542
1331,"(33, 76, 557)",2,mbtiauth_1542
1332,"(33, 557, 22)",2,mbtiauth_1542
1333,"(41, 3, 3)",2,mbtiauth_1542
1334,"(41, 10, 76)",2,mbtiauth_1542
1335,"(41, 31, 76)",2,mbtiauth_1542
1336,"(41, 64, 2)",2,mbtiauth_1542
1337,"(41, 64, 10)",2,mbtiauth_1542
1338,"(41, 64, 65)",2,mbtiauth_1542
1339,"(41, 64, 76)",4,mbtiauth_1542
1340,"(41, 64, 182)",2,mbtiauth_1542
1341,"(41, 64, 308)",2,mbtiauth_1542
1342,"(41, 76, 3)",2,mbtiauth_1542
1343,"(41, 76, 22)",3,mbtiauth_1542
1344,"(41, 76, 31)",2,mbtiauth_1542
1345,"(41, 76, 41)",2,mbtiauth_1542
1346,"(41, 76, 76)",3,mbtiauth_1542
1347,"(41, 76, 189)",2,mbtiauth_1542
1348,"(41, 76, 557)",3,mbtiauth_1542
1349,"(41, 156, 64)",4,mbtiauth_1542
1350,"(41, 156, 76)",3,mbtiauth_1542
1351,"(41, 156, 308)",2,mbtiauth_1542
1352,"(41, 160, 76)",2,mbtiauth_1542
1353,"(41, 160, 469)",2,mbtiauth_1542
1354,"(41, 182, 76)",3,mbtiauth_1542
1355,"(41, 214, 76)",2,mbtiauth_1542
1356,"(41, 264, 182)",2,mbtiauth_1542
1357,"(41, 308, 76)",2,mbtiauth_1542
1358,"(41, 469, 3)",2,mbtiauth_1542
1359,"(41, 469, 76)",2,mbtiauth_1542
1360,"(41, 469, 557)",2,mbtiauth_1542
1361,"(41, 510, 76)",2,mbtiauth_1542
1362,"(41, 510, 469)",2,mbtiauth_1542
1363,"(41, 510, 557)",2,mbtiauth_1542
1364,"(41, 557, 22)",2,mbtiauth_1542
1365,"(41, 1312, 3)",2,mbtiauth_1542
1366,"(50, 3, 312)",2,mbtiauth_1542
1367,"(50, 76, 2)",2,mbtiauth_1542
1368,"(50, 76, 32)",2,mbtiauth_1542
1369,"(50, 76, 151)",2,mbtiauth_1542
1370,"(50, 151, 22)",2,mbtiauth_1542
1371,"(50, 415, 3)",2,mbtiauth_1542
1372,"(50, 1450, 76)",2,mbtiauth_1542
1373,"(50, 2599, 3)",3,mbtiauth_1542
1374,"(50, 2599, 22)",2,mbtiauth_1542
1375,"(50, 2599, 76)",2,mbtiauth_1542
1376,"(54, 151, 3)",2,mbtiauth_1542
1377,"(64, 3, 77)",2,mbtiauth_1542
1378,"(64, 10, 65)",2,mbtiauth_1542
1379,"(64, 10, 131)",2,mbtiauth_1542
1380,"(64, 22, 32)",3,mbtiauth_1542
1381,"(64, 22, 160)",2,mbtiauth_1542
1382,"(64, 22, 1123)",2,mbtiauth_1542
1383,"(64, 33, 22)",2,mbtiauth_1542
1384,"(64, 41, 22)",2,mbtiauth_1542
1385,"(64, 41, 76)",3,mbtiauth_1542
1386,"(64, 65, 32)",2,mbtiauth_1542
1387,"(64, 76, 3)",2,mbtiauth_1542
1388,"(64, 76, 22)",2,mbtiauth_1542
1389,"(64, 76, 64)",2,mbtiauth_1542
1390,"(64, 76, 113)",4,mbtiauth_1542
1391,"(64, 76, 115)",2,mbtiauth_1542
1392,"(64, 76, 189)",2,mbtiauth_1542
1393,"(64, 76, 214)",2,mbtiauth_1542
1394,"(64, 76, 557)",3,mbtiauth_1542
1395,"(64, 113, 3)",3,mbtiauth_1542
1396,"(64, 113, 7)",2,mbtiauth_1542
1397,"(64, 113, 76)",2,mbtiauth_1542
1398,"(64, 113, 113)",2,mbtiauth_1542
1399,"(64, 131, 76)",2,mbtiauth_1542
1400,"(64, 131, 77)",2,mbtiauth_1542
1401,"(64, 160, 3)",2,mbtiauth_1542
1402,"(64, 160, 22)",2,mbtiauth_1542
1403,"(64, 160, 77)",2,mbtiauth_1542
1404,"(64, 308, 76)",2,mbtiauth_1542
1405,"(64, 648, 77)",2,mbtiauth_1542
1406,"(64, 648, 160)",3,mbtiauth_1542
1407,"(65, 3, 3)",2,mbtiauth_1542
1408,"(65, 32, 3)",2,mbtiauth_1542
1409,"(65, 32, 32)",2,mbtiauth_1542
1410,"(65, 32, 65)",2,mbtiauth_1542
1411,"(65, 32, 76)",3,mbtiauth_1542
1412,"(65, 32, 113)",3,mbtiauth_1542
1413,"(65, 32, 151)",4,mbtiauth_1542
1414,"(65, 32, 160)",2,mbtiauth_1542
1415,"(65, 74, 3)",2,mbtiauth_1542
1416,"(65, 76, 65)",2,mbtiauth_1542
1417,"(65, 113, 7)",2,mbtiauth_1542
1418,"(65, 151, 64)",2,mbtiauth_1542
1419,"(65, 151, 113)",2,mbtiauth_1542
1420,"(65, 469, 3)",2,mbtiauth_1542
1421,"(65, 2523, 32)",2,mbtiauth_1542
1422,"(66, 3, 64)",3,mbtiauth_1542
1423,"(66, 200, 64)",2,mbtiauth_1542
1424,"(66, 825, 3)",2,mbtiauth_1542
1425,"(66, 825, 64)",2,mbtiauth_1542
1426,"(69, 264, 208)",2,mbtiauth_1542
1427,"(76, 2, 3)",2,mbtiauth_1542
1428,"(76, 2, 22)",2,mbtiauth_1542
1429,"(76, 2, 64)",2,mbtiauth_1542
1430,"(76, 2, 66)",2,mbtiauth_1542
1431,"(76, 3, 3)",5,mbtiauth_1542
1432,"(76, 3, 64)",3,mbtiauth_1542
1433,"(76, 3, 65)",2,mbtiauth_1542
1434,"(76, 22, 3)",2,mbtiauth_1542
1435,"(76, 22, 41)",2,mbtiauth_1542
1436,"(76, 22, 64)",2,mbtiauth_1542
1437,"(76, 22, 76)",2,mbtiauth_1542
1438,"(76, 22, 154)",2,mbtiauth_1542
1439,"(76, 22, 165)",2,mbtiauth_1542
1440,"(76, 22, 342)",2,mbtiauth_1542
1441,"(76, 31, 2)",2,mbtiauth_1542
1442,"(76, 31, 3)",2,mbtiauth_1542
1443,"(76, 31, 32)",2,mbtiauth_1542
1444,"(76, 31, 76)",2,mbtiauth_1542
1445,"(76, 32, 2)",2,mbtiauth_1542
1446,"(76, 32, 3)",2,mbtiauth_1542
1447,"(76, 32, 22)",3,mbtiauth_1542
1448,"(76, 41, 3)",2,mbtiauth_1542
1449,"(76, 41, 64)",2,mbtiauth_1542
1450,"(76, 64, 3)",3,mbtiauth_1542
1451,"(76, 65, 32)",3,mbtiauth_1542
1452,"(76, 65, 163)",2,mbtiauth_1542
1453,"(76, 76, 2)",2,mbtiauth_1542
1454,"(76, 76, 3)",2,mbtiauth_1542
1455,"(76, 76, 182)",2,mbtiauth_1542
1456,"(76, 76, 1501)",2,mbtiauth_1542
1457,"(76, 77, 77)",2,mbtiauth_1542
1458,"(76, 113, 3)",2,mbtiauth_1542
1459,"(76, 113, 64)",4,mbtiauth_1542
1460,"(76, 113, 118)",2,mbtiauth_1542
1461,"(76, 113, 160)",2,mbtiauth_1542
1462,"(76, 113, 182)",2,mbtiauth_1542
1463,"(76, 113, 1225)",3,mbtiauth_1542
1464,"(76, 113, 2992)",2,mbtiauth_1542
1465,"(76, 118, 32)",2,mbtiauth_1542
1466,"(76, 148, 76)",2,mbtiauth_1542
1467,"(76, 150, 22)",2,mbtiauth_1542
1468,"(76, 151, 2)",2,mbtiauth_1542
1469,"(76, 151, 3)",3,mbtiauth_1542
1470,"(76, 151, 64)",4,mbtiauth_1542
1471,"(76, 151, 312)",2,mbtiauth_1542
1472,"(76, 151, 417)",2,mbtiauth_1542
1473,"(76, 160, 32)",2,mbtiauth_1542
1474,"(76, 160, 76)",2,mbtiauth_1542
1475,"(76, 160, 182)",2,mbtiauth_1542
1476,"(76, 182, 3)",5,mbtiauth_1542
1477,"(76, 182, 32)",2,mbtiauth_1542
1478,"(76, 182, 65)",3,mbtiauth_1542
1479,"(76, 182, 76)",2,mbtiauth_1542
1480,"(76, 182, 187)",2,mbtiauth_1542
1481,"(76, 189, 182)",2,mbtiauth_1542
1482,"(76, 189, 929)",2,mbtiauth_1542
1483,"(76, 364, 32)",2,mbtiauth_1542
1484,"(76, 417, 417)",2,mbtiauth_1542
1485,"(76, 497, 3)",2,mbtiauth_1542
1486,"(76, 497, 65)",2,mbtiauth_1542
1487,"(76, 497, 182)",2,mbtiauth_1542
1488,"(76, 506, 3)",2,mbtiauth_1542
1489,"(76, 506, 31)",2,mbtiauth_1542
1490,"(76, 554, 182)",2,mbtiauth_1542
1491,"(76, 555, 182)",2,mbtiauth_1542
1492,"(76, 555, 554)",2,mbtiauth_1542
1493,"(76, 557, 3)",2,mbtiauth_1542
1494,"(76, 557, 22)",4,mbtiauth_1542
1495,"(76, 557, 32)",2,mbtiauth_1542
1496,"(76, 557, 41)",2,mbtiauth_1542
1497,"(76, 557, 64)",3,mbtiauth_1542
1498,"(76, 557, 113)",2,mbtiauth_1542
1499,"(76, 557, 182)",3,mbtiauth_1542
1500,"(76, 557, 187)",2,mbtiauth_1542
1501,"(76, 557, 1203)",2,mbtiauth_1542
1502,"(76, 1203, 182)",2,mbtiauth_1542
1503,"(76, 1203, 187)",2,mbtiauth_1542
1504,"(76, 1225, 160)",2,mbtiauth_1542
1505,"(76, 1501, 3)",2,mbtiauth_1542
1506,"(76, 1501, 76)",2,mbtiauth_1542
1507,"(76, 1501, 182)",2,mbtiauth_1542
1508,"(76, 1501, 1501)",2,mbtiauth_1542
1509,"(76, 1501, 1936)",2,mbtiauth_1542
1510,"(77, 77, 33)",2,mbtiauth_1542
1511,"(77, 77, 76)",2,mbtiauth_1542
1512,"(77, 77, 77)",2,mbtiauth_1542
1513,"(77, 77, 1277)",2,mbtiauth_1542
1514,"(77, 131, 76)",2,mbtiauth_1542
1515,"(113, 2, 65)",2,mbtiauth_1542
1516,"(113, 2, 76)",2,mbtiauth_1542
1517,"(113, 3, 16)",2,mbtiauth_1542
1518,"(113, 3, 22)",3,mbtiauth_1542
1519,"(113, 3, 32)",2,mbtiauth_1542
1520,"(113, 3, 33)",2,mbtiauth_1542
1521,"(113, 3, 50)",2,mbtiauth_1542
1522,"(113, 7, 32)",2,mbtiauth_1542
1523,"(113, 7, 64)",2,mbtiauth_1542
1524,"(113, 7, 65)",2,mbtiauth_1542
1525,"(113, 7, 76)",2,mbtiauth_1542
1526,"(113, 7, 312)",2,mbtiauth_1542
1527,"(113, 10, 22)",2,mbtiauth_1542
1528,"(113, 22, 3)",5,mbtiauth_1542
1529,"(113, 22, 29)",2,mbtiauth_1542
1530,"(113, 22, 32)",5,mbtiauth_1542
1531,"(113, 22, 64)",2,mbtiauth_1542
1532,"(113, 27, 22)",2,mbtiauth_1542
1533,"(113, 27, 41)",2,mbtiauth_1542
1534,"(113, 32, 3)",3,mbtiauth_1542
1535,"(113, 32, 22)",2,mbtiauth_1542
1536,"(113, 32, 29)",2,mbtiauth_1542
1537,"(113, 32, 151)",2,mbtiauth_1542
1538,"(113, 33, 22)",2,mbtiauth_1542
1539,"(113, 41, 76)",2,mbtiauth_1542
1540,"(113, 64, 76)",3,mbtiauth_1542
1541,"(113, 65, 32)",2,mbtiauth_1542
1542,"(113, 65, 113)",2,mbtiauth_1542
1543,"(113, 76, 65)",2,mbtiauth_1542
1544,"(113, 76, 113)",3,mbtiauth_1542
1545,"(113, 76, 557)",2,mbtiauth_1542
1546,"(113, 118, 7)",2,mbtiauth_1542
1547,"(113, 118, 64)",2,mbtiauth_1542
1548,"(113, 118, 76)",3,mbtiauth_1542
1549,"(113, 118, 124)",2,mbtiauth_1542
1550,"(113, 124, 76)",2,mbtiauth_1542
1551,"(113, 151, 64)",2,mbtiauth_1542
1552,"(113, 151, 113)",2,mbtiauth_1542
1553,"(113, 151, 160)",3,mbtiauth_1542
1554,"(113, 160, 32)",2,mbtiauth_1542
1555,"(113, 185, 22)",2,mbtiauth_1542
1556,"(113, 194, 3)",2,mbtiauth_1542
1557,"(113, 194, 22)",2,mbtiauth_1542
1558,"(113, 194, 32)",2,mbtiauth_1542
1559,"(113, 194, 151)",2,mbtiauth_1542
1560,"(113, 278, 131)",2,mbtiauth_1542
1561,"(113, 308, 22)",2,mbtiauth_1542
1562,"(113, 308, 64)",2,mbtiauth_1542
1563,"(113, 312, 64)",2,mbtiauth_1542
1564,"(113, 326, 22)",2,mbtiauth_1542
1565,"(113, 326, 41)",2,mbtiauth_1542
1566,"(113, 364, 22)",2,mbtiauth_1542
1567,"(113, 1225, 160)",2,mbtiauth_1542
1568,"(118, 76, 557)",2,mbtiauth_1542
1569,"(118, 124, 76)",2,mbtiauth_1542
1570,"(118, 124, 557)",2,mbtiauth_1542
1571,"(118, 250, 76)",2,mbtiauth_1542
1572,"(118, 278, 463)",2,mbtiauth_1542
1573,"(124, 76, 557)",2,mbtiauth_1542
1574,"(131, 10, 22)",2,mbtiauth_1542
1575,"(131, 65, 76)",2,mbtiauth_1542
1576,"(131, 76, 131)",2,mbtiauth_1542
1577,"(131, 76, 557)",2,mbtiauth_1542
1578,"(131, 77, 76)",2,mbtiauth_1542
1579,"(131, 77, 77)",2,mbtiauth_1542
1580,"(135, 3, 153)",2,mbtiauth_1542
1581,"(139, 64, 32)",2,mbtiauth_1542
1582,"(141, 76, 3)",2,mbtiauth_1542
1583,"(148, 76, 307)",2,mbtiauth_1542
1584,"(149, 3, 1003)",2,mbtiauth_1542
1585,"(151, 2, 22)",2,mbtiauth_1542
1586,"(151, 3, 3)",3,mbtiauth_1542
1587,"(151, 3, 27)",2,mbtiauth_1542
1588,"(151, 3, 41)",2,mbtiauth_1542
1589,"(151, 3, 64)",4,mbtiauth_1542
1590,"(151, 3, 76)",2,mbtiauth_1542
1591,"(151, 3, 312)",2,mbtiauth_1542
1592,"(151, 3, 506)",2,mbtiauth_1542
1593,"(151, 3, 3010)",2,mbtiauth_1542
1594,"(151, 22, 481)",2,mbtiauth_1542
1595,"(151, 27, 3)",2,mbtiauth_1542
1596,"(151, 27, 41)",2,mbtiauth_1542
1597,"(151, 32, 131)",2,mbtiauth_1542
1598,"(151, 41, 64)",3,mbtiauth_1542
1599,"(151, 41, 506)",2,mbtiauth_1542
1600,"(151, 64, 312)",2,mbtiauth_1542
1601,"(151, 65, 32)",2,mbtiauth_1542
1602,"(151, 65, 74)",2,mbtiauth_1542
1603,"(151, 76, 2)",3,mbtiauth_1542
1604,"(151, 76, 22)",2,mbtiauth_1542
1605,"(151, 76, 64)",2,mbtiauth_1542
1606,"(151, 76, 182)",2,mbtiauth_1542
1607,"(151, 76, 474)",2,mbtiauth_1542
1608,"(151, 76, 557)",2,mbtiauth_1542
1609,"(151, 113, 64)",3,mbtiauth_1542
1610,"(151, 131, 76)",2,mbtiauth_1542
1611,"(151, 131, 248)",2,mbtiauth_1542
1612,"(151, 139, 64)",2,mbtiauth_1542
1613,"(151, 151, 64)",2,mbtiauth_1542
1614,"(151, 264, 64)",2,mbtiauth_1542
1615,"(151, 3010, 64)",2,mbtiauth_1542
1616,"(153, 833, 2)",2,mbtiauth_1542
1617,"(156, 64, 76)",3,mbtiauth_1542
1618,"(156, 64, 308)",2,mbtiauth_1542
1619,"(156, 308, 76)",2,mbtiauth_1542
1620,"(158, 10, 22)",2,mbtiauth_1542
1621,"(160, 3, 3)",2,mbtiauth_1542
1622,"(160, 3, 786)",2,mbtiauth_1542
1623,"(160, 27, 3)",4,mbtiauth_1542
1624,"(160, 27, 469)",2,mbtiauth_1542
1625,"(160, 27, 786)",2,mbtiauth_1542
1626,"(160, 32, 3)",2,mbtiauth_1542
1627,"(160, 32, 113)",2,mbtiauth_1542
1628,"(160, 32, 182)",2,mbtiauth_1542
1629,"(160, 50, 2599)",2,mbtiauth_1542
1630,"(160, 65, 32)",2,mbtiauth_1542
1631,"(160, 65, 2523)",2,mbtiauth_1542
1632,"(160, 76, 32)",2,mbtiauth_1542
1633,"(160, 76, 182)",3,mbtiauth_1542
1634,"(160, 76, 557)",2,mbtiauth_1542
1635,"(160, 113, 76)",2,mbtiauth_1542
1636,"(160, 131, 77)",2,mbtiauth_1542
1637,"(160, 364, 32)",2,mbtiauth_1542
1638,"(160, 469, 3)",4,mbtiauth_1542
1639,"(160, 469, 41)",2,mbtiauth_1542
1640,"(160, 469, 76)",2,mbtiauth_1542
1641,"(160, 469, 786)",2,mbtiauth_1542
1642,"(160, 2523, 32)",2,mbtiauth_1542
1643,"(165, 32, 22)",2,mbtiauth_1542
1644,"(165, 32, 264)",2,mbtiauth_1542
1645,"(182, 3, 3)",3,mbtiauth_1542
1646,"(182, 3, 65)",4,mbtiauth_1542
1647,"(182, 3, 151)",2,mbtiauth_1542
1648,"(182, 3, 791)",2,mbtiauth_1542
1649,"(182, 22, 50)",2,mbtiauth_1542
1650,"(182, 64, 65)",2,mbtiauth_1542
1651,"(182, 65, 32)",2,mbtiauth_1542
1652,"(182, 76, 3)",2,mbtiauth_1542
1653,"(182, 76, 22)",2,mbtiauth_1542
1654,"(182, 76, 41)",2,mbtiauth_1542
1655,"(182, 76, 182)",2,mbtiauth_1542
1656,"(182, 76, 557)",2,mbtiauth_1542
1657,"(182, 76, 936)",2,mbtiauth_1542
1658,"(182, 187, 65)",2,mbtiauth_1542
1659,"(182, 557, 22)",2,mbtiauth_1542
1660,"(190, 3, 151)",3,mbtiauth_1542
1661,"(194, 22, 3)",2,mbtiauth_1542
1662,"(194, 22, 32)",2,mbtiauth_1542
1663,"(200, 141, 182)",2,mbtiauth_1542
1664,"(201, 22, 165)",2,mbtiauth_1542
1665,"(201, 213, 131)",2,mbtiauth_1542
1666,"(208, 264, 64)",2,mbtiauth_1542
1667,"(208, 504, 76)",2,mbtiauth_1542
1668,"(213, 151, 32)",2,mbtiauth_1542
1669,"(213, 151, 248)",2,mbtiauth_1542
1670,"(224, 41, 64)",2,mbtiauth_1542
1671,"(224, 41, 76)",3,mbtiauth_1542
1672,"(224, 41, 156)",2,mbtiauth_1542
1673,"(224, 41, 189)",2,mbtiauth_1542
1674,"(224, 41, 308)",2,mbtiauth_1542
1675,"(224, 64, 76)",2,mbtiauth_1542
1676,"(224, 64, 308)",2,mbtiauth_1542
1677,"(224, 76, 189)",2,mbtiauth_1542
1678,"(224, 113, 76)",2,mbtiauth_1542
1679,"(224, 156, 64)",2,mbtiauth_1542
1680,"(224, 156, 76)",2,mbtiauth_1542
1681,"(224, 156, 308)",2,mbtiauth_1542
1682,"(224, 308, 76)",2,mbtiauth_1542
1683,"(231, 64, 799)",2,mbtiauth_1542
1684,"(248, 10, 22)",2,mbtiauth_1542
1685,"(250, 3, 10)",2,mbtiauth_1542
1686,"(250, 3, 22)",2,mbtiauth_1542
1687,"(250, 3, 463)",2,mbtiauth_1542
1688,"(250, 76, 3)",2,mbtiauth_1542
1689,"(250, 463, 64)",2,mbtiauth_1542
1690,"(264, 64, 76)",3,mbtiauth_1542
1691,"(264, 64, 113)",2,mbtiauth_1542
1692,"(264, 64, 182)",2,mbtiauth_1542
1693,"(264, 76, 113)",2,mbtiauth_1542
1694,"(264, 76, 182)",2,mbtiauth_1542
1695,"(264, 76, 214)",2,mbtiauth_1542
1696,"(264, 151, 3)",2,mbtiauth_1542
1697,"(264, 151, 64)",2,mbtiauth_1542
1698,"(273, 3, 3)",2,mbtiauth_1542
1699,"(273, 64, 160)",3,mbtiauth_1542
1700,"(273, 64, 648)",2,mbtiauth_1542
1701,"(273, 160, 3)",2,mbtiauth_1542
1702,"(273, 182, 3)",2,mbtiauth_1542
1703,"(273, 417, 141)",2,mbtiauth_1542
1704,"(273, 648, 3)",2,mbtiauth_1542
1705,"(273, 648, 160)",3,mbtiauth_1542
1706,"(308, 32, 64)",2,mbtiauth_1542
1707,"(312, 64, 3)",2,mbtiauth_1542
1708,"(342, 231, 14397)",2,mbtiauth_1542
1709,"(356, 76, 113)",2,mbtiauth_1542
1710,"(356, 76, 160)",2,mbtiauth_1542
1711,"(356, 76, 1225)",2,mbtiauth_1542
1712,"(356, 113, 160)",2,mbtiauth_1542
1713,"(356, 113, 1225)",2,mbtiauth_1542
1714,"(356, 1225, 160)",2,mbtiauth_1542
1715,"(364, 182, 3)",2,mbtiauth_1542
1716,"(401, 65, 32)",2,mbtiauth_1542
1717,"(401, 65, 2523)",2,mbtiauth_1542
1718,"(401, 160, 32)",2,mbtiauth_1542
1719,"(401, 160, 65)",2,mbtiauth_1542
1720,"(401, 160, 2523)",2,mbtiauth_1542
1721,"(401, 2523, 32)",2,mbtiauth_1542
1722,"(417, 64, 22)",2,mbtiauth_1542
1723,"(417, 64, 160)",2,mbtiauth_1542
1724,"(469, 3, 3)",3,mbtiauth_1542
1725,"(469, 3, 27)",3,mbtiauth_1542
1726,"(469, 3, 76)",2,mbtiauth_1542
1727,"(469, 3, 160)",2,mbtiauth_1542
1728,"(469, 3, 469)",2,mbtiauth_1542
1729,"(469, 3, 786)",2,mbtiauth_1542
1730,"(469, 27, 3)",3,mbtiauth_1542
1731,"(469, 27, 469)",2,mbtiauth_1542
1732,"(469, 27, 786)",2,mbtiauth_1542
1733,"(469, 76, 22)",2,mbtiauth_1542
1734,"(469, 76, 41)",2,mbtiauth_1542
1735,"(469, 76, 557)",2,mbtiauth_1542
1736,"(469, 160, 3)",2,mbtiauth_1542
1737,"(469, 160, 27)",2,mbtiauth_1542
1738,"(469, 160, 469)",2,mbtiauth_1542
1739,"(469, 160, 786)",2,mbtiauth_1542
1740,"(469, 469, 3)",2,mbtiauth_1542
1741,"(469, 469, 786)",2,mbtiauth_1542
1742,"(469, 557, 41)",2,mbtiauth_1542
1743,"(489, 76, 76)",2,mbtiauth_1542
1744,"(489, 76, 182)",2,mbtiauth_1542
1745,"(489, 76, 1501)",2,mbtiauth_1542
1746,"(489, 1501, 76)",2,mbtiauth_1542
1747,"(489, 1501, 182)",2,mbtiauth_1542
1748,"(489, 1501, 1501)",2,mbtiauth_1542
1749,"(497, 182, 3)",2,mbtiauth_1542
1750,"(504, 76, 31)",2,mbtiauth_1542
1751,"(506, 31, 3)",2,mbtiauth_1542
1752,"(506, 31, 76)",2,mbtiauth_1542
1753,"(506, 31, 149)",2,mbtiauth_1542
1754,"(510, 76, 151)",2,mbtiauth_1542
1755,"(510, 76, 557)",2,mbtiauth_1542
1756,"(510, 469, 76)",2,mbtiauth_1542
1757,"(510, 469, 557)",2,mbtiauth_1542
1758,"(525, 131, 76)",2,mbtiauth_1542
1759,"(555, 554, 182)",2,mbtiauth_1542
1760,"(557, 3, 65)",2,mbtiauth_1542
1761,"(557, 65, 74)",2,mbtiauth_1542
1762,"(557, 151, 65)",2,mbtiauth_1542
1763,"(557, 151, 74)",2,mbtiauth_1542
1764,"(557, 182, 3)",2,mbtiauth_1542
1765,"(557, 182, 65)",2,mbtiauth_1542
1766,"(557, 182, 187)",2,mbtiauth_1542
1767,"(557, 1203, 182)",2,mbtiauth_1542
1768,"(557, 1203, 187)",2,mbtiauth_1542
1769,"(571, 160, 312)",2,mbtiauth_1542
1770,"(648, 160, 3)",2,mbtiauth_1542
1771,"(648, 160, 65)",2,mbtiauth_1542
1772,"(648, 160, 77)",2,mbtiauth_1542
1773,"(648, 160, 469)",2,mbtiauth_1542
1774,"(648, 469, 3)",2,mbtiauth_1542
1775,"(649, 76, 113)",3,mbtiauth_1542
1776,"(686, 10, 160)",2,mbtiauth_1542
1777,"(686, 10, 312)",2,mbtiauth_1542
1778,"(686, 10, 571)",2,mbtiauth_1542
1779,"(686, 160, 312)",2,mbtiauth_1542
1780,"(686, 571, 160)",2,mbtiauth_1542
1781,"(686, 571, 312)",2,mbtiauth_1542
1782,"(686, 836, 10)",2,mbtiauth_1542
1783,"(686, 836, 160)",2,mbtiauth_1542
1784,"(686, 836, 312)",2,mbtiauth_1542
1785,"(686, 836, 571)",2,mbtiauth_1542
1786,"(686, 836, 1584)",2,mbtiauth_1542
1787,"(686, 1584, 10)",2,mbtiauth_1542
1788,"(686, 1584, 160)",2,mbtiauth_1542
1789,"(686, 1584, 312)",2,mbtiauth_1542
1790,"(686, 1584, 571)",2,mbtiauth_1542
1791,"(702, 76, 113)",2,mbtiauth_1542
1792,"(702, 113, 278)",2,mbtiauth_1542
1793,"(706, 64, 10)",2,mbtiauth_1542
1794,"(706, 64, 29)",2,mbtiauth_1542
1795,"(825, 3, 64)",2,mbtiauth_1542
1796,"(833, 2, 33)",2,mbtiauth_1542
1797,"(833, 2, 3126)",2,mbtiauth_1542
1798,"(833, 2, 17299)",2,mbtiauth_1542
1799,"(833, 3126, 33)",2,mbtiauth_1542
1800,"(833, 17299, 33)",2,mbtiauth_1542
1801,"(833, 17299, 3126)",2,mbtiauth_1542
1802,"(836, 10, 160)",2,mbtiauth_1542
1803,"(836, 10, 312)",2,mbtiauth_1542
1804,"(836, 10, 571)",2,mbtiauth_1542
1805,"(836, 160, 312)",2,mbtiauth_1542
1806,"(836, 571, 160)",2,mbtiauth_1542
1807,"(836, 571, 312)",2,mbtiauth_1542
1808,"(836, 1584, 10)",2,mbtiauth_1542
1809,"(836, 1584, 160)",2,mbtiauth_1542
1810,"(836, 1584, 312)",2,mbtiauth_1542
1811,"(836, 1584, 571)",2,mbtiauth_1542
1812,"(1123, 32, 3)",2,mbtiauth_1542
1813,"(1157, 278, 76)",2,mbtiauth_1542
1814,"(1193, 417, 182)",2,mbtiauth_1542
1815,"(1203, 182, 65)",2,mbtiauth_1542
1816,"(1203, 182, 187)",3,mbtiauth_1542
1817,"(1203, 187, 65)",2,mbtiauth_1542
1818,"(1203, 1203, 182)",2,mbtiauth_1542
1819,"(1203, 1203, 187)",2,mbtiauth_1542
1820,"(1240, 212, 76)",2,mbtiauth_1542
1821,"(1287, 232, 64)",2,mbtiauth_1542
1822,"(1501, 76, 3)",2,mbtiauth_1542
1823,"(1501, 76, 76)",2,mbtiauth_1542
1824,"(1501, 76, 182)",3,mbtiauth_1542
1825,"(1501, 76, 1501)",3,mbtiauth_1542
1826,"(1501, 76, 1936)",2,mbtiauth_1542
1827,"(1501, 182, 3)",2,mbtiauth_1542
1828,"(1501, 489, 76)",2,mbtiauth_1542
1829,"(1501, 489, 1501)",2,mbtiauth_1542
1830,"(1501, 1501, 3)",2,mbtiauth_1542
1831,"(1501, 1501, 76)",2,mbtiauth_1542
1832,"(1501, 1501, 182)",2,mbtiauth_1542
1833,"(1501, 1501, 1501)",2,mbtiauth_1542
1834,"(1501, 1501, 1936)",2,mbtiauth_1542
1835,"(1584, 10, 160)",2,mbtiauth_1542
1836,"(1584, 10, 312)",2,mbtiauth_1542
1837,"(1584, 10, 571)",2,mbtiauth_1542
1838,"(1584, 160, 312)",2,mbtiauth_1542
1839,"(1584, 571, 160)",2,mbtiauth_1542
1840,"(1584, 571, 312)",2,mbtiauth_1542
1841,"(1603, 29, 22)",2,mbtiauth_1542
1842,"(1603, 29, 76)",2,mbtiauth_1542
1843,"(1603, 76, 3)",2,mbtiauth_1542
1844,"(1603, 76, 22)",2,mbtiauth_1542
1845,"(1936, 182, 3)",2,mbtiauth_1542
1846,"(2599, 76, 3)",2,mbtiauth_1542
1847,"(17299, 3126, 33)",2,mbtiauth_1542
1848,"(2, 17299, 3126, 33)",2,mbtiauth_1542
1849,"(3, 3, 64, 76)",2,mbtiauth_1542
1850,"(3, 27, 3, 786)",2,mbtiauth_1542
1851,"(3, 27, 469, 3)",2,mbtiauth_1542
1852,"(3, 27, 469, 786)",2,mbtiauth_1542
1853,"(3, 33, 22, 32)",2,mbtiauth_1542
1854,"(3, 76, 182, 3)",2,mbtiauth_1542
1855,"(3, 131, 77, 77)",2,mbtiauth_1542
1856,"(3, 151, 3, 64)",2,mbtiauth_1542
1857,"(3, 160, 3, 786)",2,mbtiauth_1542
1858,"(3, 160, 27, 3)",2,mbtiauth_1542
1859,"(3, 160, 27, 469)",2,mbtiauth_1542
1860,"(3, 160, 27, 786)",2,mbtiauth_1542
1861,"(3, 160, 469, 3)",2,mbtiauth_1542
1862,"(3, 160, 469, 786)",2,mbtiauth_1542
1863,"(3, 165, 32, 264)",2,mbtiauth_1542
1864,"(3, 264, 151, 3)",2,mbtiauth_1542
1865,"(3, 273, 3, 3)",2,mbtiauth_1542
1866,"(3, 273, 182, 3)",2,mbtiauth_1542
1867,"(3, 469, 3, 786)",2,mbtiauth_1542
1868,"(3, 506, 31, 76)",2,mbtiauth_1542
1869,"(3, 506, 31, 149)",2,mbtiauth_1542
1870,"(3, 557, 182, 3)",2,mbtiauth_1542
1871,"(10, 571, 160, 312)",2,mbtiauth_1542
1872,"(22, 3, 64, 10)",2,mbtiauth_1542
1873,"(22, 3, 64, 29)",2,mbtiauth_1542
1874,"(22, 29, 76, 22)",2,mbtiauth_1542
1875,"(22, 32, 3, 64)",2,mbtiauth_1542
1876,"(22, 32, 29, 3)",2,mbtiauth_1542
1877,"(22, 32, 50, 76)",2,mbtiauth_1542
1878,"(22, 32, 50, 2599)",2,mbtiauth_1542
1879,"(22, 706, 64, 10)",2,mbtiauth_1542
1880,"(22, 706, 64, 29)",2,mbtiauth_1542
1881,"(22, 1123, 32, 3)",2,mbtiauth_1542
1882,"(22, 1603, 29, 22)",2,mbtiauth_1542
1883,"(22, 1603, 29, 76)",2,mbtiauth_1542
1884,"(22, 1603, 76, 22)",2,mbtiauth_1542
1885,"(27, 469, 3, 786)",2,mbtiauth_1542
1886,"(32, 3, 65, 32)",2,mbtiauth_1542
1887,"(32, 50, 76, 32)",2,mbtiauth_1542
1888,"(32, 151, 139, 64)",2,mbtiauth_1542
1889,"(32, 182, 65, 32)",2,mbtiauth_1542
1890,"(32, 401, 160, 65)",2,mbtiauth_1542
1891,"(33, 76, 557, 22)",2,mbtiauth_1542
1892,"(41, 64, 308, 76)",2,mbtiauth_1542
1893,"(41, 76, 31, 76)",2,mbtiauth_1542
1894,"(41, 76, 557, 22)",2,mbtiauth_1542
1895,"(41, 156, 64, 76)",3,mbtiauth_1542
1896,"(41, 156, 64, 308)",2,mbtiauth_1542
1897,"(41, 156, 308, 76)",2,mbtiauth_1542
1898,"(41, 469, 76, 557)",2,mbtiauth_1542
1899,"(41, 510, 76, 557)",2,mbtiauth_1542
1900,"(41, 510, 469, 76)",2,mbtiauth_1542
1901,"(41, 510, 469, 557)",2,mbtiauth_1542
1902,"(64, 41, 76, 22)",2,mbtiauth_1542
1903,"(64, 113, 76, 113)",2,mbtiauth_1542
1904,"(64, 648, 160, 77)",2,mbtiauth_1542
1905,"(65, 32, 76, 65)",2,mbtiauth_1542
1906,"(65, 32, 151, 113)",2,mbtiauth_1542
1907,"(66, 825, 3, 64)",2,mbtiauth_1542
1908,"(76, 76, 1501, 182)",2,mbtiauth_1542
1909,"(76, 113, 1225, 160)",2,mbtiauth_1542
1910,"(76, 151, 3, 64)",2,mbtiauth_1542
1911,"(76, 182, 3, 3)",2,mbtiauth_1542
1912,"(76, 182, 3, 65)",2,mbtiauth_1542
1913,"(76, 182, 65, 32)",2,mbtiauth_1542
1914,"(76, 497, 182, 3)",2,mbtiauth_1542
1915,"(76, 506, 31, 3)",2,mbtiauth_1542
1916,"(76, 555, 554, 182)",2,mbtiauth_1542
1917,"(76, 557, 182, 187)",2,mbtiauth_1542
1918,"(76, 557, 1203, 182)",2,mbtiauth_1542
1919,"(76, 557, 1203, 187)",2,mbtiauth_1542
1920,"(76, 1203, 182, 187)",2,mbtiauth_1542
1921,"(76, 1501, 76, 182)",2,mbtiauth_1542
1922,"(76, 1501, 76, 1501)",2,mbtiauth_1542
1923,"(76, 1501, 182, 3)",2,mbtiauth_1542
1924,"(76, 1501, 1501, 182)",2,mbtiauth_1542
1925,"(113, 3, 33, 22)",2,mbtiauth_1542
1926,"(113, 22, 32, 3)",2,mbtiauth_1542
1927,"(113, 22, 32, 29)",2,mbtiauth_1542
1928,"(113, 118, 124, 76)",2,mbtiauth_1542
1929,"(113, 194, 22, 3)",2,mbtiauth_1542
1930,"(113, 194, 22, 32)",2,mbtiauth_1542
1931,"(118, 124, 76, 557)",2,mbtiauth_1542
1932,"(151, 3, 27, 3)",2,mbtiauth_1542
1933,"(151, 3, 64, 312)",2,mbtiauth_1542
1934,"(151, 3, 3010, 64)",2,mbtiauth_1542
1935,"(156, 64, 308, 76)",2,mbtiauth_1542
1936,"(160, 27, 3, 786)",2,mbtiauth_1542
1937,"(160, 27, 469, 3)",2,mbtiauth_1542
1938,"(160, 27, 469, 786)",2,mbtiauth_1542
1939,"(160, 65, 2523, 32)",2,mbtiauth_1542
1940,"(160, 469, 3, 786)",2,mbtiauth_1542
1941,"(182, 76, 557, 22)",2,mbtiauth_1542
1942,"(224, 41, 64, 76)",2,mbtiauth_1542
1943,"(224, 41, 64, 308)",2,mbtiauth_1542
1944,"(224, 41, 76, 189)",2,mbtiauth_1542
1945,"(224, 41, 156, 64)",2,mbtiauth_1542
1946,"(224, 41, 156, 76)",2,mbtiauth_1542
1947,"(224, 41, 156, 308)",2,mbtiauth_1542
1948,"(224, 41, 308, 76)",2,mbtiauth_1542
1949,"(224, 64, 308, 76)",2,mbtiauth_1542
1950,"(224, 156, 64, 76)",2,mbtiauth_1542
1951,"(224, 156, 64, 308)",2,mbtiauth_1542
1952,"(224, 156, 308, 76)",2,mbtiauth_1542
1953,"(264, 64, 76, 113)",2,mbtiauth_1542
1954,"(273, 64, 648, 160)",2,mbtiauth_1542
1955,"(273, 648, 160, 3)",2,mbtiauth_1542
1956,"(356, 76, 113, 160)",2,mbtiauth_1542
1957,"(356, 76, 113, 1225)",2,mbtiauth_1542
1958,"(356, 76, 1225, 160)",2,mbtiauth_1542
1959,"(356, 113, 1225, 160)",2,mbtiauth_1542
1960,"(401, 65, 2523, 32)",2,mbtiauth_1542
1961,"(401, 160, 65, 32)",2,mbtiauth_1542
1962,"(401, 160, 65, 2523)",2,mbtiauth_1542
1963,"(401, 160, 2523, 32)",2,mbtiauth_1542
1964,"(469, 3, 3, 786)",2,mbtiauth_1542
1965,"(469, 3, 27, 3)",3,mbtiauth_1542
1966,"(469, 3, 27, 469)",2,mbtiauth_1542
1967,"(469, 3, 27, 786)",2,mbtiauth_1542
1968,"(469, 3, 160, 3)",2,mbtiauth_1542
1969,"(469, 3, 160, 27)",2,mbtiauth_1542
1970,"(469, 3, 160, 469)",2,mbtiauth_1542
1971,"(469, 3, 160, 786)",2,mbtiauth_1542
1972,"(469, 3, 469, 3)",2,mbtiauth_1542
1973,"(469, 3, 469, 786)",2,mbtiauth_1542
1974,"(469, 27, 3, 786)",2,mbtiauth_1542
1975,"(469, 27, 469, 3)",2,mbtiauth_1542
1976,"(469, 27, 469, 786)",2,mbtiauth_1542
1977,"(469, 76, 557, 41)",2,mbtiauth_1542
1978,"(469, 160, 3, 786)",2,mbtiauth_1542
1979,"(469, 160, 27, 3)",2,mbtiauth_1542
1980,"(469, 160, 27, 469)",2,mbtiauth_1542
1981,"(469, 160, 27, 786)",2,mbtiauth_1542
1982,"(469, 160, 469, 3)",2,mbtiauth_1542
1983,"(469, 160, 469, 786)",2,mbtiauth_1542
1984,"(469, 469, 3, 786)",2,mbtiauth_1542
1985,"(489, 76, 76, 182)",2,mbtiauth_1542
1986,"(489, 76, 76, 1501)",2,mbtiauth_1542
1987,"(489, 76, 1501, 76)",2,mbtiauth_1542
1988,"(489, 76, 1501, 182)",2,mbtiauth_1542
1989,"(489, 76, 1501, 1501)",2,mbtiauth_1542
1990,"(489, 1501, 76, 182)",2,mbtiauth_1542
1991,"(489, 1501, 76, 1501)",2,mbtiauth_1542
1992,"(489, 1501, 1501, 182)",2,mbtiauth_1542
1993,"(510, 469, 76, 557)",2,mbtiauth_1542
1994,"(557, 151, 65, 74)",2,mbtiauth_1542
1995,"(557, 182, 3, 65)",2,mbtiauth_1542
1996,"(557, 1203, 182, 187)",2,mbtiauth_1542
1997,"(648, 160, 469, 3)",2,mbtiauth_1542
1998,"(686, 10, 160, 312)",2,mbtiauth_1542
1999,"(686, 10, 571, 160)",2,mbtiauth_1542
2000,"(686, 10, 571, 312)",2,mbtiauth_1542
2001,"(686, 571, 160, 312)",2,mbtiauth_1542
2002,"(686, 836, 10, 160)",2,mbtiauth_1542
2003,"(686, 836, 10, 312)",2,mbtiauth_1542
2004,"(686, 836, 10, 571)",2,mbtiauth_1542
2005,"(686, 836, 160, 312)",2,mbtiauth_1542
2006,"(686, 836, 571, 160)",2,mbtiauth_1542
2007,"(686, 836, 571, 312)",2,mbtiauth_1542
2008,"(686, 836, 1584, 10)",2,mbtiauth_1542
2009,"(686, 836, 1584, 160)",2,mbtiauth_1542
2010,"(686, 836, 1584, 312)",2,mbtiauth_1542
2011,"(686, 836, 1584, 571)",2,mbtiauth_1542
2012,"(686, 1584, 10, 160)",2,mbtiauth_1542
2013,"(686, 1584, 10, 312)",2,mbtiauth_1542
2014,"(686, 1584, 10, 571)",2,mbtiauth_1542
2015,"(686, 1584, 160, 312)",2,mbtiauth_1542
2016,"(686, 1584, 571, 160)",2,mbtiauth_1542
2017,"(686, 1584, 571, 312)",2,mbtiauth_1542
2018,"(833, 2, 3126, 33)",2,mbtiauth_1542
2019,"(833, 2, 17299, 33)",2,mbtiauth_1542
2020,"(833, 2, 17299, 3126)",2,mbtiauth_1542
2021,"(833, 17299, 3126, 33)",2,mbtiauth_1542
2022,"(836, 10, 160, 312)",2,mbtiauth_1542
2023,"(836, 10, 571, 160)",2,mbtiauth_1542
2024,"(836, 10, 571, 312)",2,mbtiauth_1542
2025,"(836, 571, 160, 312)",2,mbtiauth_1542
2026,"(836, 1584, 10, 160)",2,mbtiauth_1542
2027,"(836, 1584, 10, 312)",2,mbtiauth_1542
2028,"(836, 1584, 10, 571)",2,mbtiauth_1542
2029,"(836, 1584, 160, 312)",2,mbtiauth_1542
2030,"(836, 1584, 571, 160)",2,mbtiauth_1542
2031,"(836, 1584, 571, 312)",2,mbtiauth_1542
2032,"(1203, 182, 187, 65)",2,mbtiauth_1542
2033,"(1203, 1203, 182, 187)",2,mbtiauth_1542
2034,"(1501, 76, 76, 1501)",2,mbtiauth_1542
2035,"(1501, 76, 182, 3)",2,mbtiauth_1542
2036,"(1501, 76, 1501, 3)",2,mbtiauth_1542
2037,"(1501, 76, 1501, 76)",2,mbtiauth_1542
2038,"(1501, 76, 1501, 182)",2,mbtiauth_1542
2039,"(1501, 76, 1501, 1501)",2,mbtiauth_1542
2040,"(1501, 76, 1501, 1936)",2,mbtiauth_1542
2041,"(1501, 489, 76, 76)",2,mbtiauth_1542
2042,"(1501, 489, 76, 1501)",2,mbtiauth_1542
2043,"(1501, 489, 1501, 76)",2,mbtiauth_1542
2044,"(1501, 489, 1501, 1501)",2,mbtiauth_1542
2045,"(1501, 1501, 76, 1501)",2,mbtiauth_1542
2046,"(1501, 1501, 182, 3)",2,mbtiauth_1542
2047,"(1584, 10, 160, 312)",2,mbtiauth_1542
2048,"(1584, 10, 571, 160)",2,mbtiauth_1542
2049,"(1584, 10, 571, 312)",2,mbtiauth_1542
2050,"(1584, 571, 160, 312)",2,mbtiauth_1542
2051,"(1603, 29, 76, 22)",2,mbtiauth_1542
2052,"(3, 27, 469, 3, 786)",2,mbtiauth_1542
2053,"(3, 160, 27, 3, 786)",2,mbtiauth_1542
2054,"(3, 160, 27, 469, 3)",2,mbtiauth_1542
2055,"(3, 160, 27, 469, 786)",2,mbtiauth_1542
2056,"(3, 160, 469, 3, 786)",2,mbtiauth_1542
2057,"(22, 1603, 29, 76, 22)",2,mbtiauth_1542
2058,"(41, 156, 64, 308, 76)",2,mbtiauth_1542
2059,"(41, 510, 469, 76, 557)",2,mbtiauth_1542
2060,"(76, 557, 1203, 182, 187)",2,mbtiauth_1542
2061,"(76, 1501, 76, 1501, 182)",2,mbtiauth_1542
2062,"(160, 27, 469, 3, 786)",2,mbtiauth_1542
2063,"(224, 41, 64, 308, 76)",2,mbtiauth_1542
2064,"(224, 41, 156, 64, 76)",2,mbtiauth_1542
2065,"(224, 41, 156, 64, 308)",2,mbtiauth_1542
2066,"(224, 41, 156, 308, 76)",2,mbtiauth_1542
2067,"(224, 156, 64, 308, 76)",2,mbtiauth_1542
2068,"(356, 76, 113, 1225, 160)",2,mbtiauth_1542
2069,"(401, 160, 65, 2523, 32)",2,mbtiauth_1542
2070,"(469, 3, 27, 3, 786)",2,mbtiauth_1542
2071,"(469, 3, 27, 469, 3)",2,mbtiauth_1542
2072,"(469, 3, 27, 469, 786)",2,mbtiauth_1542
2073,"(469, 3, 160, 3, 786)",2,mbtiauth_1542
2074,"(469, 3, 160, 27, 3)",2,mbtiauth_1542
2075,"(469, 3, 160, 27, 469)",2,mbtiauth_1542
2076,"(469, 3, 160, 27, 786)",2,mbtiauth_1542
2077,"(469, 3, 160, 469, 3)",2,mbtiauth_1542
2078,"(469, 3, 160, 469, 786)",2,mbtiauth_1542
2079,"(469, 3, 469, 3, 786)",2,mbtiauth_1542
2080,"(469, 27, 469, 3, 786)",2,mbtiauth_1542
2081,"(469, 160, 27, 3, 786)",2,mbtiauth_1542
2082,"(469, 160, 27, 469, 3)",2,mbtiauth_1542
2083,"(469, 160, 27, 469, 786)",2,mbtiauth_1542
2084,"(469, 160, 469, 3, 786)",2,mbtiauth_1542
2085,"(489, 76, 76, 1501, 182)",2,mbtiauth_1542
2086,"(489, 76, 1501, 76, 182)",2,mbtiauth_1542
2087,"(489, 76, 1501, 76, 1501)",2,mbtiauth_1542
2088,"(489, 76, 1501, 1501, 182)",2,mbtiauth_1542
2089,"(489, 1501, 76, 1501, 182)",2,mbtiauth_1542
2090,"(686, 10, 571, 160, 312)",2,mbtiauth_1542
2091,"(686, 836, 10, 160, 312)",2,mbtiauth_1542
2092,"(686, 836, 10, 571, 160)",2,mbtiauth_1542
2093,"(686, 836, 10, 571, 312)",2,mbtiauth_1542
2094,"(686, 836, 571, 160, 312)",2,mbtiauth_1542
2095,"(686, 836, 1584, 10, 160)",2,mbtiauth_1542
2096,"(686, 836, 1584, 10, 312)",2,mbtiauth_1542
2097,"(686, 836, 1584, 10, 571)",2,mbtiauth_1542
2098,"(686, 836, 1584, 160, 312)",2,mbtiauth_1542
2099,"(686, 836, 1584, 571, 160)",2,mbtiauth_1542
2100,"(686, 836, 1584, 571, 312)",2,mbtiauth_1542
2101,"(686, 1584, 10, 160, 312)",2,mbtiauth_1542
2102,"(686, 1584, 10, 571, 160)",2,mbtiauth_1542
2103,"(686, 1584, 10, 571, 312)",2,mbtiauth_1542
2104,"(686, 1584, 571, 160, 312)",2,mbtiauth_1542
2105,"(833, 2, 17299, 3126, 33)",2,mbtiauth_1542
2106,"(836, 10, 571, 160, 312)",2,mbtiauth_1542
2107,"(836, 1584, 10, 160, 312)",2,mbtiauth_1542
2108,"(836, 1584, 10, 571, 160)",2,mbtiauth_1542
2109,"(836, 1584, 10, 571, 312)",2,mbtiauth_1542
2110,"(836, 1584, 571, 160, 312)",2,mbtiauth_1542
2111,"(1501, 76, 1501, 76, 1501)",2,mbtiauth_1542
2112,"(1501, 76, 1501, 182, 3)",2,mbtiauth_1542
2113,"(1501, 489, 76, 76, 1501)",2,mbtiauth_1542
2114,"(1501, 489, 76, 1501, 76)",2,mbtiauth_1542
2115,"(1501, 489, 76, 1501, 1501)",2,mbtiauth_1542
2116,"(1501, 489, 1501, 76, 1501)",2,mbtiauth_1542
2117,"(1584, 10, 571, 160, 312)",2,mbtiauth_1542
2118,"(3, 160, 27, 469, 3, 786)",2,mbtiauth_1542
2119,"(224, 41, 156, 64, 308, 76)",2,mbtiauth_1542
2120,"(469, 3, 27, 469, 3, 786)",2,mbtiauth_1542
2121,"(469, 3, 160, 27, 3, 786)",2,mbtiauth_1542
2122,"(469, 3, 160, 27, 469, 3)",2,mbtiauth_1542
2123,"(469, 3, 160, 27, 469, 786)",2,mbtiauth_1542
2124,"(469, 3, 160, 469, 3, 786)",2,mbtiauth_1542
2125,"(469, 160, 27, 469, 3, 786)",2,mbtiauth_1542
2126,"(489, 76, 1501, 76, 1501, 182)",2,mbtiauth_1542
2127,"(686, 836, 10, 571, 160, 312)",2,mbtiauth_1542
2128,"(686, 836, 1584, 10, 160, 312)",2,mbtiauth_1542
2129,"(686, 836, 1584, 10, 571, 160)",2,mbtiauth_1542
2130,"(686, 836, 1584, 10, 571, 312)",2,mbtiauth_1542
2131,"(686, 836, 1584, 571, 160, 312)",2,mbtiauth_1542
2132,"(686, 1584, 10, 571, 160, 312)",2,mbtiauth_1542
2133,"(836, 1584, 10, 571, 160, 312)",2,mbtiauth_1542
2134,"(1501, 489, 76, 1501, 76, 1501)",2,mbtiauth_1542
2135,"(469, 3, 160, 27, 469, 3, 786)",2,mbtiauth_1542
2136,"(686, 836, 1584, 10, 571, 160, 312)",2,mbtiauth_1542
