,pattern,sup,author
631,"(2, 3, 76)",2,mbtiauth_4275
632,"(2, 22, 3)",2,mbtiauth_4275
633,"(2, 22, 65)",2,mbtiauth_4275
634,"(2, 22, 165)",2,mbtiauth_4275
635,"(2, 54, 3)",2,mbtiauth_4275
636,"(2, 76, 113)",2,mbtiauth_4275
637,"(2, 113, 194)",2,mbtiauth_4275
638,"(3, 10, 2)",2,mbtiauth_4275
639,"(3, 10, 22)",2,mbtiauth_4275
640,"(3, 31, 113)",2,mbtiauth_4275
641,"(3, 64, 64)",3,mbtiauth_4275
642,"(3, 65, 31)",2,mbtiauth_4275
643,"(3, 65, 113)",3,mbtiauth_4275
644,"(3, 66, 22)",2,mbtiauth_4275
645,"(3, 76, 22)",2,mbtiauth_4275
646,"(3, 76, 113)",2,mbtiauth_4275
647,"(3, 76, 557)",2,mbtiauth_4275
648,"(3, 706, 64)",2,mbtiauth_4275
649,"(8, 26, 640)",2,mbtiauth_4275
650,"(8, 26, 3572)",3,mbtiauth_4275
651,"(8, 26, 4301)",2,mbtiauth_4275
652,"(8, 26, 6991)",2,mbtiauth_4275
653,"(8, 28, 26)",5,mbtiauth_4275
654,"(8, 28, 640)",2,mbtiauth_4275
655,"(8, 28, 3572)",3,mbtiauth_4275
656,"(8, 28, 4301)",2,mbtiauth_4275
657,"(8, 28, 6991)",2,mbtiauth_4275
658,"(8, 640, 4301)",2,mbtiauth_4275
659,"(8, 640, 6991)",2,mbtiauth_4275
660,"(8, 6991, 4301)",2,mbtiauth_4275
661,"(10, 50, 76)",2,mbtiauth_4275
662,"(16, 76, 182)",2,mbtiauth_4275
663,"(22, 2, 3)",2,mbtiauth_4275
664,"(22, 22, 2)",2,mbtiauth_4275
665,"(22, 22, 22)",3,mbtiauth_4275
666,"(22, 22, 76)",3,mbtiauth_4275
667,"(22, 66, 22)",2,mbtiauth_4275
668,"(22, 76, 2)",2,mbtiauth_4275
669,"(22, 76, 22)",3,mbtiauth_4275
670,"(22, 76, 76)",3,mbtiauth_4275
671,"(22, 340, 65)",2,mbtiauth_4275
672,"(22, 4502, 65)",2,mbtiauth_4275
673,"(26, 640, 4301)",2,mbtiauth_4275
674,"(26, 640, 6991)",2,mbtiauth_4275
675,"(26, 6991, 4301)",2,mbtiauth_4275
676,"(27, 131, 22)",2,mbtiauth_4275
677,"(28, 26, 640)",2,mbtiauth_4275
678,"(28, 26, 3572)",3,mbtiauth_4275
679,"(28, 26, 4301)",2,mbtiauth_4275
680,"(28, 26, 6991)",2,mbtiauth_4275
681,"(28, 640, 4301)",2,mbtiauth_4275
682,"(28, 640, 6991)",2,mbtiauth_4275
683,"(28, 6991, 4301)",2,mbtiauth_4275
684,"(33, 22, 2)",2,mbtiauth_4275
685,"(41, 65, 41)",2,mbtiauth_4275
686,"(41, 65, 278)",2,mbtiauth_4275
687,"(41, 273, 41)",2,mbtiauth_4275
688,"(41, 326, 41)",2,mbtiauth_4275
689,"(41, 326, 65)",2,mbtiauth_4275
690,"(41, 510, 41)",2,mbtiauth_4275
691,"(41, 510, 278)",2,mbtiauth_4275
692,"(50, 76, 3)",2,mbtiauth_4275
693,"(64, 2, 3)",2,mbtiauth_4275
694,"(64, 27, 141)",2,mbtiauth_4275
695,"(64, 64, 64)",2,mbtiauth_4275
696,"(64, 64, 141)",2,mbtiauth_4275
697,"(64, 64, 168)",2,mbtiauth_4275
698,"(64, 141, 64)",2,mbtiauth_4275
699,"(64, 141, 141)",2,mbtiauth_4275
700,"(64, 403, 182)",2,mbtiauth_4275
701,"(65, 2, 3)",3,mbtiauth_4275
702,"(65, 2, 151)",2,mbtiauth_4275
703,"(65, 3, 65)",2,mbtiauth_4275
704,"(65, 31, 113)",2,mbtiauth_4275
705,"(65, 113, 64)",2,mbtiauth_4275
706,"(65, 182, 3)",2,mbtiauth_4275
707,"(65, 190, 3)",2,mbtiauth_4275
708,"(65, 584, 3)",2,mbtiauth_4275
709,"(65, 584, 65)",2,mbtiauth_4275
710,"(66, 22, 2)",2,mbtiauth_4275
711,"(76, 2, 113)",2,mbtiauth_4275
712,"(76, 2, 194)",2,mbtiauth_4275
713,"(76, 3, 31)",2,mbtiauth_4275
714,"(76, 3, 65)",2,mbtiauth_4275
715,"(76, 22, 22)",2,mbtiauth_4275
716,"(76, 22, 76)",2,mbtiauth_4275
717,"(76, 22, 373)",2,mbtiauth_4275
718,"(76, 76, 22)",2,mbtiauth_4275
719,"(76, 113, 194)",2,mbtiauth_4275
720,"(76, 340, 65)",2,mbtiauth_4275
721,"(76, 557, 113)",3,mbtiauth_4275
722,"(76, 557, 463)",2,mbtiauth_4275
723,"(113, 2, 113)",2,mbtiauth_4275
724,"(113, 3, 64)",2,mbtiauth_4275
725,"(113, 31, 22)",2,mbtiauth_4275
726,"(113, 64, 2)",2,mbtiauth_4275
727,"(113, 64, 22)",2,mbtiauth_4275
728,"(113, 64, 27)",2,mbtiauth_4275
729,"(113, 64, 141)",2,mbtiauth_4275
730,"(113, 76, 76)",3,mbtiauth_4275
731,"(113, 113, 113)",2,mbtiauth_4275
732,"(113, 124, 76)",3,mbtiauth_4275
733,"(113, 141, 2)",2,mbtiauth_4275
734,"(113, 141, 113)",2,mbtiauth_4275
735,"(113, 151, 113)",2,mbtiauth_4275
736,"(113, 151, 151)",2,mbtiauth_4275
737,"(113, 158, 3)",2,mbtiauth_4275
738,"(113, 158, 113)",3,mbtiauth_4275
739,"(113, 182, 151)",2,mbtiauth_4275
740,"(113, 200, 22)",2,mbtiauth_4275
741,"(113, 200, 31)",2,mbtiauth_4275
742,"(113, 208, 66)",2,mbtiauth_4275
743,"(113, 208, 76)",2,mbtiauth_4275
744,"(113, 208, 113)",2,mbtiauth_4275
745,"(113, 278, 182)",2,mbtiauth_4275
746,"(113, 340, 22)",2,mbtiauth_4275
747,"(113, 340, 64)",2,mbtiauth_4275
748,"(113, 469, 504)",2,mbtiauth_4275
749,"(113, 484, 364)",2,mbtiauth_4275
750,"(113, 571, 131)",2,mbtiauth_4275
751,"(131, 64, 22)",2,mbtiauth_4275
752,"(141, 64, 22)",2,mbtiauth_4275
753,"(141, 64, 141)",2,mbtiauth_4275
754,"(141, 141, 64)",2,mbtiauth_4275
755,"(141, 256, 22)",2,mbtiauth_4275
756,"(151, 113, 151)",2,mbtiauth_4275
757,"(151, 141, 27)",2,mbtiauth_4275
758,"(151, 151, 113)",2,mbtiauth_4275
759,"(158, 113, 182)",3,mbtiauth_4275
760,"(165, 2, 182)",2,mbtiauth_4275
761,"(165, 113, 7)",2,mbtiauth_4275
762,"(165, 113, 64)",2,mbtiauth_4275
763,"(182, 3, 22)",3,mbtiauth_4275
764,"(182, 3, 66)",2,mbtiauth_4275
765,"(182, 3, 76)",2,mbtiauth_4275
766,"(182, 113, 158)",2,mbtiauth_4275
767,"(187, 151, 208)",2,mbtiauth_4275
768,"(213, 3, 64)",2,mbtiauth_4275
769,"(213, 64, 64)",2,mbtiauth_4275
770,"(242, 113, 64)",2,mbtiauth_4275
771,"(305, 76, 10)",2,mbtiauth_4275
772,"(305, 76, 305)",2,mbtiauth_4275
773,"(312, 155, 22)",2,mbtiauth_4275
774,"(312, 827, 64)",2,mbtiauth_4275
775,"(326, 65, 41)",2,mbtiauth_4275
776,"(342, 2, 113)",3,mbtiauth_4275
777,"(342, 65, 185)",2,mbtiauth_4275
778,"(342, 312, 827)",2,mbtiauth_4275
779,"(342, 484, 22)",2,mbtiauth_4275
780,"(510, 22, 32)",2,mbtiauth_4275
781,"(527, 3, 10)",2,mbtiauth_4275
782,"(557, 113, 64)",2,mbtiauth_4275
783,"(557, 113, 463)",2,mbtiauth_4275
784,"(584, 3, 65)",2,mbtiauth_4275
785,"(640, 6991, 4301)",2,mbtiauth_4275
786,"(706, 64, 64)",2,mbtiauth_4275
787,"(786, 27, 131)",2,mbtiauth_4275
788,"(3, 65, 31, 113)",2,mbtiauth_4275
789,"(3, 706, 64, 64)",2,mbtiauth_4275
790,"(8, 26, 640, 4301)",2,mbtiauth_4275
791,"(8, 26, 640, 6991)",2,mbtiauth_4275
792,"(8, 26, 6991, 4301)",2,mbtiauth_4275
793,"(8, 28, 26, 640)",2,mbtiauth_4275
794,"(8, 28, 26, 3572)",3,mbtiauth_4275
795,"(8, 28, 26, 4301)",2,mbtiauth_4275
796,"(8, 28, 26, 6991)",2,mbtiauth_4275
797,"(8, 28, 640, 4301)",2,mbtiauth_4275
798,"(8, 28, 640, 6991)",2,mbtiauth_4275
799,"(8, 28, 6991, 4301)",2,mbtiauth_4275
800,"(8, 640, 6991, 4301)",2,mbtiauth_4275
801,"(22, 76, 22, 76)",2,mbtiauth_4275
802,"(26, 640, 6991, 4301)",2,mbtiauth_4275
803,"(28, 26, 640, 4301)",2,mbtiauth_4275
804,"(28, 26, 640, 6991)",2,mbtiauth_4275
805,"(28, 26, 6991, 4301)",2,mbtiauth_4275
806,"(28, 640, 6991, 4301)",2,mbtiauth_4275
807,"(41, 326, 65, 41)",2,mbtiauth_4275
808,"(64, 141, 64, 141)",2,mbtiauth_4275
809,"(65, 584, 3, 65)",2,mbtiauth_4275
810,"(76, 2, 113, 194)",2,mbtiauth_4275
811,"(76, 22, 76, 22)",2,mbtiauth_4275
812,"(213, 3, 64, 64)",2,mbtiauth_4275
813,"(8, 26, 640, 6991, 4301)",2,mbtiauth_4275
814,"(8, 28, 26, 640, 4301)",2,mbtiauth_4275
815,"(8, 28, 26, 640, 6991)",2,mbtiauth_4275
816,"(8, 28, 26, 6991, 4301)",2,mbtiauth_4275
817,"(8, 28, 640, 6991, 4301)",2,mbtiauth_4275
818,"(28, 26, 640, 6991, 4301)",2,mbtiauth_4275
819,"(8, 28, 26, 640, 6991, 4301)",2,mbtiauth_4275
