,pattern,sup,author
1563,"(2, 22, 3)",2,mbtiauth_5814
1564,"(2, 22, 32)",2,mbtiauth_5814
1565,"(2, 22, 76)",2,mbtiauth_5814
1566,"(2, 22, 557)",2,mbtiauth_5814
1567,"(2, 32, 76)",2,mbtiauth_5814
1568,"(2, 76, 113)",3,mbtiauth_5814
1569,"(2, 76, 149)",2,mbtiauth_5814
1570,"(2, 76, 278)",2,mbtiauth_5814
1571,"(2, 76, 497)",2,mbtiauth_5814
1572,"(2, 76, 557)",3,mbtiauth_5814
1573,"(2, 113, 3)",3,mbtiauth_5814
1574,"(2, 113, 15)",2,mbtiauth_5814
1575,"(2, 113, 149)",2,mbtiauth_5814
1576,"(2, 113, 161)",2,mbtiauth_5814
1577,"(2, 113, 194)",3,mbtiauth_5814
1578,"(2, 149, 76)",2,mbtiauth_5814
1579,"(2, 161, 3)",2,mbtiauth_5814
1580,"(2, 194, 149)",2,mbtiauth_5814
1581,"(2, 201, 76)",2,mbtiauth_5814
1582,"(2, 201, 557)",2,mbtiauth_5814
1583,"(2, 484, 3)",2,mbtiauth_5814
1584,"(2, 484, 113)",2,mbtiauth_5814
1585,"(2, 484, 161)",2,mbtiauth_5814
1586,"(3, 2, 22)",3,mbtiauth_5814
1587,"(3, 2, 52)",2,mbtiauth_5814
1588,"(3, 2, 76)",2,mbtiauth_5814
1589,"(3, 2, 149)",2,mbtiauth_5814
1590,"(3, 2, 201)",2,mbtiauth_5814
1591,"(3, 3, 2)",2,mbtiauth_5814
1592,"(3, 3, 22)",2,mbtiauth_5814
1593,"(3, 7, 510)",2,mbtiauth_5814
1594,"(3, 22, 3)",3,mbtiauth_5814
1595,"(3, 22, 76)",2,mbtiauth_5814
1596,"(3, 22, 1079)",2,mbtiauth_5814
1597,"(3, 29, 41)",2,mbtiauth_5814
1598,"(3, 29, 141)",2,mbtiauth_5814
1599,"(3, 31, 76)",2,mbtiauth_5814
1600,"(3, 52, 847)",2,mbtiauth_5814
1601,"(3, 64, 76)",2,mbtiauth_5814
1602,"(3, 65, 3)",2,mbtiauth_5814
1603,"(3, 65, 76)",2,mbtiauth_5814
1604,"(3, 65, 251)",2,mbtiauth_5814
1605,"(3, 65, 648)",3,mbtiauth_5814
1606,"(3, 65, 658)",3,mbtiauth_5814
1607,"(3, 65, 2151)",2,mbtiauth_5814
1608,"(3, 76, 2)",5,mbtiauth_5814
1609,"(3, 76, 16)",2,mbtiauth_5814
1610,"(3, 76, 22)",4,mbtiauth_5814
1611,"(3, 76, 65)",3,mbtiauth_5814
1612,"(3, 76, 76)",3,mbtiauth_5814
1613,"(3, 76, 113)",3,mbtiauth_5814
1614,"(3, 76, 250)",2,mbtiauth_5814
1615,"(3, 76, 375)",2,mbtiauth_5814
1616,"(3, 76, 497)",5,mbtiauth_5814
1617,"(3, 76, 557)",4,mbtiauth_5814
1618,"(3, 77, 7)",2,mbtiauth_5814
1619,"(3, 113, 3)",2,mbtiauth_5814
1620,"(3, 113, 113)",3,mbtiauth_5814
1621,"(3, 113, 118)",2,mbtiauth_5814
1622,"(3, 124, 64)",2,mbtiauth_5814
1623,"(3, 141, 41)",2,mbtiauth_5814
1624,"(3, 151, 7)",2,mbtiauth_5814
1625,"(3, 151, 16)",2,mbtiauth_5814
1626,"(3, 151, 342)",2,mbtiauth_5814
1627,"(3, 151, 3529)",2,mbtiauth_5814
1628,"(3, 153, 76)",2,mbtiauth_5814
1629,"(3, 160, 76)",2,mbtiauth_5814
1630,"(3, 165, 52)",2,mbtiauth_5814
1631,"(3, 278, 3)",2,mbtiauth_5814
1632,"(3, 342, 16)",2,mbtiauth_5814
1633,"(3, 342, 65)",2,mbtiauth_5814
1634,"(3, 375, 22)",2,mbtiauth_5814
1635,"(3, 484, 3)",2,mbtiauth_5814
1636,"(3, 484, 64)",3,mbtiauth_5814
1637,"(3, 484, 160)",2,mbtiauth_5814
1638,"(3, 497, 3)",2,mbtiauth_5814
1639,"(3, 497, 22)",2,mbtiauth_5814
1640,"(3, 497, 113)",2,mbtiauth_5814
1641,"(3, 497, 375)",2,mbtiauth_5814
1642,"(3, 527, 7)",2,mbtiauth_5814
1643,"(3, 557, 2)",2,mbtiauth_5814
1644,"(3, 557, 76)",2,mbtiauth_5814
1645,"(3, 636, 65)",2,mbtiauth_5814
1646,"(3, 636, 342)",2,mbtiauth_5814
1647,"(3, 648, 160)",2,mbtiauth_5814
1648,"(3, 658, 3)",2,mbtiauth_5814
1649,"(3, 1184, 76)",2,mbtiauth_5814
1650,"(3, 1498, 3)",2,mbtiauth_5814
1651,"(3, 2151, 648)",2,mbtiauth_5814
1652,"(3, 3446, 2227)",2,mbtiauth_5814
1653,"(3, 3529, 7)",2,mbtiauth_5814
1654,"(3, 4564, 22)",2,mbtiauth_5814
1655,"(5, 76, 113)",2,mbtiauth_5814
1656,"(5, 76, 484)",2,mbtiauth_5814
1657,"(5, 484, 113)",2,mbtiauth_5814
1658,"(7, 3, 76)",3,mbtiauth_5814
1659,"(7, 32, 22)",2,mbtiauth_5814
1660,"(7, 52, 76)",3,mbtiauth_5814
1661,"(7, 52, 160)",2,mbtiauth_5814
1662,"(7, 52, 847)",2,mbtiauth_5814
1663,"(7, 64, 3)",2,mbtiauth_5814
1664,"(7, 64, 76)",2,mbtiauth_5814
1665,"(7, 64, 250)",2,mbtiauth_5814
1666,"(7, 65, 76)",2,mbtiauth_5814
1667,"(7, 76, 22)",2,mbtiauth_5814
1668,"(7, 76, 497)",2,mbtiauth_5814
1669,"(7, 76, 557)",2,mbtiauth_5814
1670,"(7, 160, 76)",2,mbtiauth_5814
1671,"(7, 205, 22)",2,mbtiauth_5814
1672,"(7, 497, 22)",2,mbtiauth_5814
1673,"(10, 76, 113)",2,mbtiauth_5814
1674,"(10, 76, 497)",2,mbtiauth_5814
1675,"(10, 113, 3)",2,mbtiauth_5814
1676,"(10, 168, 32)",2,mbtiauth_5814
1677,"(10, 168, 113)",2,mbtiauth_5814
1678,"(10, 497, 113)",2,mbtiauth_5814
1679,"(10, 772, 32)",2,mbtiauth_5814
1680,"(10, 772, 113)",2,mbtiauth_5814
1681,"(10, 772, 168)",3,mbtiauth_5814
1682,"(15, 41, 141)",2,mbtiauth_5814
1683,"(16, 3, 1227)",2,mbtiauth_5814
1684,"(16, 16, 113)",2,mbtiauth_5814
1685,"(16, 16, 153)",2,mbtiauth_5814
1686,"(16, 32, 76)",2,mbtiauth_5814
1687,"(16, 32, 113)",2,mbtiauth_5814
1688,"(16, 32, 153)",2,mbtiauth_5814
1689,"(16, 50, 153)",2,mbtiauth_5814
1690,"(16, 64, 3)",2,mbtiauth_5814
1691,"(16, 76, 50)",2,mbtiauth_5814
1692,"(16, 76, 113)",3,mbtiauth_5814
1693,"(16, 76, 484)",2,mbtiauth_5814
1694,"(16, 113, 3)",2,mbtiauth_5814
1695,"(16, 113, 50)",2,mbtiauth_5814
1696,"(16, 113, 445)",2,mbtiauth_5814
1697,"(16, 153, 76)",2,mbtiauth_5814
1698,"(16, 168, 32)",3,mbtiauth_5814
1699,"(16, 168, 76)",2,mbtiauth_5814
1700,"(16, 168, 113)",2,mbtiauth_5814
1701,"(16, 1075, 32)",2,mbtiauth_5814
1702,"(16, 1075, 50)",2,mbtiauth_5814
1703,"(16, 1075, 113)",2,mbtiauth_5814
1704,"(16, 1075, 153)",3,mbtiauth_5814
1705,"(16, 3446, 1075)",2,mbtiauth_5814
1706,"(16, 5650, 64)",2,mbtiauth_5814
1707,"(22, 2, 32)",2,mbtiauth_5814
1708,"(22, 2, 76)",2,mbtiauth_5814
1709,"(22, 3, 31)",2,mbtiauth_5814
1710,"(22, 3, 65)",4,mbtiauth_5814
1711,"(22, 15, 76)",2,mbtiauth_5814
1712,"(22, 29, 52)",2,mbtiauth_5814
1713,"(22, 32, 15)",2,mbtiauth_5814
1714,"(22, 32, 29)",2,mbtiauth_5814
1715,"(22, 32, 52)",3,mbtiauth_5814
1716,"(22, 32, 76)",4,mbtiauth_5814
1717,"(22, 32, 151)",3,mbtiauth_5814
1718,"(22, 32, 250)",2,mbtiauth_5814
1719,"(22, 32, 251)",2,mbtiauth_5814
1720,"(22, 52, 3)",2,mbtiauth_5814
1721,"(22, 52, 76)",4,mbtiauth_5814
1722,"(22, 52, 484)",2,mbtiauth_5814
1723,"(22, 52, 847)",3,mbtiauth_5814
1724,"(22, 76, 76)",3,mbtiauth_5814
1725,"(22, 76, 77)",2,mbtiauth_5814
1726,"(22, 76, 113)",3,mbtiauth_5814
1727,"(22, 76, 342)",2,mbtiauth_5814
1728,"(22, 76, 484)",2,mbtiauth_5814
1729,"(22, 76, 557)",3,mbtiauth_5814
1730,"(22, 113, 76)",2,mbtiauth_5814
1731,"(22, 124, 64)",2,mbtiauth_5814
1732,"(22, 151, 3)",2,mbtiauth_5814
1733,"(22, 151, 15)",2,mbtiauth_5814
1734,"(22, 151, 32)",2,mbtiauth_5814
1735,"(22, 151, 52)",3,mbtiauth_5814
1736,"(22, 151, 76)",3,mbtiauth_5814
1737,"(22, 247, 32)",2,mbtiauth_5814
1738,"(22, 250, 76)",2,mbtiauth_5814
1739,"(22, 250, 251)",3,mbtiauth_5814
1740,"(22, 251, 76)",3,mbtiauth_5814
1741,"(22, 251, 484)",2,mbtiauth_5814
1742,"(22, 342, 1075)",2,mbtiauth_5814
1743,"(22, 557, 113)",2,mbtiauth_5814
1744,"(22, 868, 3)",3,mbtiauth_5814
1745,"(22, 868, 151)",2,mbtiauth_5814
1746,"(22, 1060, 76)",3,mbtiauth_5814
1747,"(22, 1079, 52)",2,mbtiauth_5814
1748,"(22, 1079, 76)",2,mbtiauth_5814
1749,"(22, 1914, 76)",2,mbtiauth_5814
1750,"(22, 2709, 52)",2,mbtiauth_5814
1751,"(22, 2709, 847)",2,mbtiauth_5814
1752,"(22, 14900, 32)",2,mbtiauth_5814
1753,"(22, 14900, 247)",2,mbtiauth_5814
1754,"(27, 3, 76)",2,mbtiauth_5814
1755,"(27, 41, 113)",2,mbtiauth_5814
1756,"(29, 52, 76)",2,mbtiauth_5814
1757,"(29, 52, 113)",2,mbtiauth_5814
1758,"(29, 52, 484)",2,mbtiauth_5814
1759,"(29, 76, 3)",2,mbtiauth_5814
1760,"(29, 76, 113)",2,mbtiauth_5814
1761,"(29, 76, 484)",2,mbtiauth_5814
1762,"(29, 141, 41)",2,mbtiauth_5814
1763,"(32, 3, 2)",2,mbtiauth_5814
1764,"(32, 3, 76)",3,mbtiauth_5814
1765,"(32, 3, 3529)",3,mbtiauth_5814
1766,"(32, 7, 3)",2,mbtiauth_5814
1767,"(32, 7, 52)",2,mbtiauth_5814
1768,"(32, 15, 41)",2,mbtiauth_5814
1769,"(32, 15, 141)",2,mbtiauth_5814
1770,"(32, 22, 32)",3,mbtiauth_5814
1771,"(32, 22, 52)",2,mbtiauth_5814
1772,"(32, 22, 76)",2,mbtiauth_5814
1773,"(32, 29, 52)",3,mbtiauth_5814
1774,"(32, 32, 41)",2,mbtiauth_5814
1775,"(32, 41, 3)",2,mbtiauth_5814
1776,"(32, 41, 7)",2,mbtiauth_5814
1777,"(32, 41, 76)",2,mbtiauth_5814
1778,"(32, 41, 113)",2,mbtiauth_5814
1779,"(32, 41, 141)",2,mbtiauth_5814
1780,"(32, 41, 160)",2,mbtiauth_5814
1781,"(32, 52, 76)",3,mbtiauth_5814
1782,"(32, 52, 847)",2,mbtiauth_5814
1783,"(32, 64, 3)",2,mbtiauth_5814
1784,"(32, 65, 76)",2,mbtiauth_5814
1785,"(32, 76, 3)",3,mbtiauth_5814
1786,"(32, 76, 7)",2,mbtiauth_5814
1787,"(32, 76, 32)",2,mbtiauth_5814
1788,"(32, 76, 41)",2,mbtiauth_5814
1789,"(32, 76, 65)",2,mbtiauth_5814
1790,"(32, 76, 77)",2,mbtiauth_5814
1791,"(32, 76, 113)",4,mbtiauth_5814
1792,"(32, 76, 342)",2,mbtiauth_5814
1793,"(32, 76, 484)",3,mbtiauth_5814
1794,"(32, 76, 497)",3,mbtiauth_5814
1795,"(32, 76, 557)",3,mbtiauth_5814
1796,"(32, 77, 65)",2,mbtiauth_5814
1797,"(32, 113, 3)",2,mbtiauth_5814
1798,"(32, 113, 65)",2,mbtiauth_5814
1799,"(32, 113, 160)",2,mbtiauth_5814
1800,"(32, 151, 3)",3,mbtiauth_5814
1801,"(32, 151, 15)",2,mbtiauth_5814
1802,"(32, 151, 41)",2,mbtiauth_5814
1803,"(32, 151, 76)",2,mbtiauth_5814
1804,"(32, 151, 141)",2,mbtiauth_5814
1805,"(32, 151, 3529)",3,mbtiauth_5814
1806,"(32, 213, 3)",2,mbtiauth_5814
1807,"(32, 213, 7)",2,mbtiauth_5814
1808,"(32, 213, 52)",2,mbtiauth_5814
1809,"(32, 213, 151)",2,mbtiauth_5814
1810,"(32, 250, 251)",3,mbtiauth_5814
1811,"(32, 352, 52)",2,mbtiauth_5814
1812,"(32, 484, 113)",3,mbtiauth_5814
1813,"(32, 847, 76)",2,mbtiauth_5814
1814,"(41, 52, 76)",2,mbtiauth_5814
1815,"(41, 65, 76)",2,mbtiauth_5814
1816,"(41, 76, 16)",2,mbtiauth_5814
1817,"(41, 76, 32)",2,mbtiauth_5814
1818,"(41, 76, 497)",2,mbtiauth_5814
1819,"(41, 113, 52)",2,mbtiauth_5814
1820,"(41, 113, 64)",2,mbtiauth_5814
1821,"(41, 113, 76)",2,mbtiauth_5814
1822,"(41, 160, 76)",2,mbtiauth_5814
1823,"(50, 22, 32)",2,mbtiauth_5814
1824,"(50, 32, 32)",2,mbtiauth_5814
1825,"(50, 52, 76)",3,mbtiauth_5814
1826,"(50, 52, 557)",2,mbtiauth_5814
1827,"(50, 76, 65)",2,mbtiauth_5814
1828,"(50, 76, 557)",2,mbtiauth_5814
1829,"(50, 205, 22)",2,mbtiauth_5814
1830,"(52, 3, 22)",2,mbtiauth_5814
1831,"(52, 3, 484)",2,mbtiauth_5814
1832,"(52, 76, 3)",3,mbtiauth_5814
1833,"(52, 76, 16)",2,mbtiauth_5814
1834,"(52, 76, 22)",3,mbtiauth_5814
1835,"(52, 76, 32)",2,mbtiauth_5814
1836,"(52, 76, 50)",2,mbtiauth_5814
1837,"(52, 76, 113)",2,mbtiauth_5814
1838,"(52, 76, 141)",2,mbtiauth_5814
1839,"(52, 76, 153)",2,mbtiauth_5814
1840,"(52, 76, 160)",2,mbtiauth_5814
1841,"(52, 76, 484)",4,mbtiauth_5814
1842,"(52, 76, 557)",2,mbtiauth_5814
1843,"(52, 113, 3)",2,mbtiauth_5814
1844,"(52, 151, 168)",2,mbtiauth_5814
1845,"(52, 160, 76)",2,mbtiauth_5814
1846,"(52, 205, 22)",2,mbtiauth_5814
1847,"(52, 250, 76)",2,mbtiauth_5814
1848,"(52, 342, 16)",2,mbtiauth_5814
1849,"(52, 484, 113)",2,mbtiauth_5814
1850,"(52, 847, 22)",2,mbtiauth_5814
1851,"(52, 847, 76)",2,mbtiauth_5814
1852,"(64, 2, 76)",2,mbtiauth_5814
1853,"(64, 2, 113)",2,mbtiauth_5814
1854,"(64, 2, 194)",2,mbtiauth_5814
1855,"(64, 3, 2)",2,mbtiauth_5814
1856,"(64, 3, 65)",2,mbtiauth_5814
1857,"(64, 3, 76)",4,mbtiauth_5814
1858,"(64, 3, 113)",3,mbtiauth_5814
1859,"(64, 3, 151)",2,mbtiauth_5814
1860,"(64, 3, 484)",2,mbtiauth_5814
1861,"(64, 10, 32)",2,mbtiauth_5814
1862,"(64, 10, 168)",2,mbtiauth_5814
1863,"(64, 10, 772)",2,mbtiauth_5814
1864,"(64, 22, 76)",2,mbtiauth_5814
1865,"(64, 22, 1060)",2,mbtiauth_5814
1866,"(64, 27, 41)",2,mbtiauth_5814
1867,"(64, 29, 3)",2,mbtiauth_5814
1868,"(64, 29, 76)",2,mbtiauth_5814
1869,"(64, 32, 22)",2,mbtiauth_5814
1870,"(64, 32, 41)",2,mbtiauth_5814
1871,"(64, 32, 76)",2,mbtiauth_5814
1872,"(64, 41, 3)",2,mbtiauth_5814
1873,"(64, 41, 76)",2,mbtiauth_5814
1874,"(64, 52, 76)",2,mbtiauth_5814
1875,"(64, 64, 3)",3,mbtiauth_5814
1876,"(64, 64, 76)",2,mbtiauth_5814
1877,"(64, 64, 113)",2,mbtiauth_5814
1878,"(64, 76, 3)",2,mbtiauth_5814
1879,"(64, 76, 22)",3,mbtiauth_5814
1880,"(64, 76, 65)",3,mbtiauth_5814
1881,"(64, 76, 113)",5,mbtiauth_5814
1882,"(64, 76, 151)",3,mbtiauth_5814
1883,"(64, 76, 194)",2,mbtiauth_5814
1884,"(64, 76, 497)",2,mbtiauth_5814
1885,"(64, 76, 557)",4,mbtiauth_5814
1886,"(64, 77, 22)",2,mbtiauth_5814
1887,"(64, 77, 32)",2,mbtiauth_5814
1888,"(64, 77, 77)",2,mbtiauth_5814
1889,"(64, 77, 1120)",2,mbtiauth_5814
1890,"(64, 113, 3)",2,mbtiauth_5814
1891,"(64, 113, 165)",2,mbtiauth_5814
1892,"(64, 113, 194)",2,mbtiauth_5814
1893,"(64, 148, 150)",2,mbtiauth_5814
1894,"(64, 160, 76)",2,mbtiauth_5814
1895,"(64, 160, 557)",2,mbtiauth_5814
1896,"(64, 168, 32)",2,mbtiauth_5814
1897,"(64, 248, 2)",2,mbtiauth_5814
1898,"(64, 250, 67)",2,mbtiauth_5814
1899,"(64, 250, 76)",2,mbtiauth_5814
1900,"(64, 557, 22)",2,mbtiauth_5814
1901,"(64, 772, 32)",2,mbtiauth_5814
1902,"(64, 772, 168)",2,mbtiauth_5814
1903,"(64, 1060, 76)",2,mbtiauth_5814
1904,"(64, 1120, 77)",2,mbtiauth_5814
1905,"(64, 1157, 22)",2,mbtiauth_5814
1906,"(64, 1157, 76)",2,mbtiauth_5814
1907,"(64, 1157, 1060)",2,mbtiauth_5814
1908,"(64, 1227, 65)",2,mbtiauth_5814
1909,"(64, 1227, 67)",2,mbtiauth_5814
1910,"(64, 1227, 250)",2,mbtiauth_5814
1911,"(64, 1745, 77)",2,mbtiauth_5814
1912,"(64, 3529, 77)",2,mbtiauth_5814
1913,"(65, 3, 113)",2,mbtiauth_5814
1914,"(65, 7, 3)",2,mbtiauth_5814
1915,"(65, 7, 64)",3,mbtiauth_5814
1916,"(65, 10, 32)",2,mbtiauth_5814
1917,"(65, 32, 3)",2,mbtiauth_5814
1918,"(65, 32, 7)",2,mbtiauth_5814
1919,"(65, 32, 64)",2,mbtiauth_5814
1920,"(65, 32, 213)",4,mbtiauth_5814
1921,"(65, 64, 7)",2,mbtiauth_5814
1922,"(65, 64, 41)",2,mbtiauth_5814
1923,"(65, 76, 50)",2,mbtiauth_5814
1924,"(65, 76, 113)",4,mbtiauth_5814
1925,"(65, 76, 484)",2,mbtiauth_5814
1926,"(65, 76, 497)",2,mbtiauth_5814
1927,"(65, 113, 3)",2,mbtiauth_5814
1928,"(65, 148, 150)",2,mbtiauth_5814
1929,"(65, 153, 50)",2,mbtiauth_5814
1930,"(65, 168, 50)",2,mbtiauth_5814
1931,"(65, 250, 67)",2,mbtiauth_5814
1932,"(65, 251, 160)",2,mbtiauth_5814
1933,"(65, 448, 3)",2,mbtiauth_5814
1934,"(65, 497, 3)",2,mbtiauth_5814
1935,"(65, 497, 113)",2,mbtiauth_5814
1936,"(65, 658, 3)",2,mbtiauth_5814
1937,"(65, 658, 7)",2,mbtiauth_5814
1938,"(65, 658, 64)",2,mbtiauth_5814
1939,"(65, 658, 113)",2,mbtiauth_5814
1940,"(65, 1100, 32)",3,mbtiauth_5814
1941,"(65, 1100, 64)",2,mbtiauth_5814
1942,"(65, 1100, 213)",3,mbtiauth_5814
1943,"(65, 1227, 67)",2,mbtiauth_5814
1944,"(65, 1227, 250)",2,mbtiauth_5814
1945,"(65, 2151, 648)",2,mbtiauth_5814
1946,"(65, 2636, 76)",2,mbtiauth_5814
1947,"(65, 3390, 64)",2,mbtiauth_5814
1948,"(69, 113, 77)",2,mbtiauth_5814
1949,"(69, 113, 250)",2,mbtiauth_5814
1950,"(69, 250, 77)",2,mbtiauth_5814
1951,"(69, 1277, 2050)",2,mbtiauth_5814
1952,"(72, 165, 113)",2,mbtiauth_5814
1953,"(76, 2, 3)",3,mbtiauth_5814
1954,"(76, 2, 15)",2,mbtiauth_5814
1955,"(76, 2, 22)",3,mbtiauth_5814
1956,"(76, 2, 50)",3,mbtiauth_5814
1957,"(76, 2, 113)",4,mbtiauth_5814
1958,"(76, 2, 149)",2,mbtiauth_5814
1959,"(76, 2, 161)",2,mbtiauth_5814
1960,"(76, 2, 194)",2,mbtiauth_5814
1961,"(76, 2, 201)",2,mbtiauth_5814
1962,"(76, 2, 484)",2,mbtiauth_5814
1963,"(76, 2, 1184)",2,mbtiauth_5814
1964,"(76, 3, 22)",2,mbtiauth_5814
1965,"(76, 3, 65)",5,mbtiauth_5814
1966,"(76, 3, 151)",2,mbtiauth_5814
1967,"(76, 3, 251)",2,mbtiauth_5814
1968,"(76, 3, 352)",2,mbtiauth_5814
1969,"(76, 3, 424)",2,mbtiauth_5814
1970,"(76, 3, 658)",2,mbtiauth_5814
1971,"(76, 3, 3529)",2,mbtiauth_5814
1972,"(76, 7, 32)",2,mbtiauth_5814
1973,"(76, 7, 527)",2,mbtiauth_5814
1974,"(76, 10, 168)",2,mbtiauth_5814
1975,"(76, 10, 772)",2,mbtiauth_5814
1976,"(76, 15, 3)",2,mbtiauth_5814
1977,"(76, 16, 1075)",2,mbtiauth_5814
1978,"(76, 22, 3)",5,mbtiauth_5814
1979,"(76, 22, 52)",2,mbtiauth_5814
1980,"(76, 22, 65)",2,mbtiauth_5814
1981,"(76, 22, 76)",2,mbtiauth_5814
1982,"(76, 22, 868)",3,mbtiauth_5814
1983,"(76, 22, 1079)",2,mbtiauth_5814
1984,"(76, 22, 2709)",2,mbtiauth_5814
1985,"(76, 32, 3)",2,mbtiauth_5814
1986,"(76, 32, 7)",2,mbtiauth_5814
1987,"(76, 32, 22)",3,mbtiauth_5814
1988,"(76, 32, 65)",2,mbtiauth_5814
1989,"(76, 32, 213)",3,mbtiauth_5814
1990,"(76, 32, 248)",2,mbtiauth_5814
1991,"(76, 32, 352)",2,mbtiauth_5814
1992,"(76, 50, 3)",2,mbtiauth_5814
1993,"(76, 50, 153)",2,mbtiauth_5814
1994,"(76, 50, 205)",2,mbtiauth_5814
1995,"(76, 65, 32)",4,mbtiauth_5814
1996,"(76, 65, 64)",2,mbtiauth_5814
1997,"(76, 65, 76)",2,mbtiauth_5814
1998,"(76, 65, 151)",3,mbtiauth_5814
1999,"(76, 65, 213)",3,mbtiauth_5814
2000,"(76, 65, 251)",2,mbtiauth_5814
2001,"(76, 65, 352)",2,mbtiauth_5814
2002,"(76, 65, 658)",2,mbtiauth_5814
2003,"(76, 65, 1100)",3,mbtiauth_5814
2004,"(76, 65, 3390)",2,mbtiauth_5814
2005,"(76, 76, 2)",5,mbtiauth_5814
2006,"(76, 76, 64)",2,mbtiauth_5814
2007,"(76, 76, 113)",2,mbtiauth_5814
2008,"(76, 76, 557)",3,mbtiauth_5814
2009,"(76, 77, 3)",3,mbtiauth_5814
2010,"(76, 77, 32)",2,mbtiauth_5814
2011,"(76, 77, 65)",4,mbtiauth_5814
2012,"(76, 77, 76)",2,mbtiauth_5814
2013,"(76, 77, 113)",2,mbtiauth_5814
2014,"(76, 77, 213)",2,mbtiauth_5814
2015,"(76, 77, 1100)",2,mbtiauth_5814
2016,"(76, 113, 2)",2,mbtiauth_5814
2017,"(76, 113, 3)",8,mbtiauth_5814
2018,"(76, 113, 7)",4,mbtiauth_5814
2019,"(76, 113, 15)",3,mbtiauth_5814
2020,"(76, 113, 22)",4,mbtiauth_5814
2021,"(76, 113, 31)",2,mbtiauth_5814
2022,"(76, 113, 32)",3,mbtiauth_5814
2023,"(76, 113, 50)",3,mbtiauth_5814
2024,"(76, 113, 64)",2,mbtiauth_5814
2025,"(76, 113, 65)",4,mbtiauth_5814
2026,"(76, 113, 76)",4,mbtiauth_5814
2027,"(76, 113, 113)",6,mbtiauth_5814
2028,"(76, 113, 118)",5,mbtiauth_5814
2029,"(76, 113, 141)",2,mbtiauth_5814
2030,"(76, 113, 149)",3,mbtiauth_5814
2031,"(76, 113, 151)",2,mbtiauth_5814
2032,"(76, 113, 160)",5,mbtiauth_5814
2033,"(76, 113, 161)",2,mbtiauth_5814
2034,"(76, 113, 194)",5,mbtiauth_5814
2035,"(76, 113, 213)",2,mbtiauth_5814
2036,"(76, 113, 224)",2,mbtiauth_5814
2037,"(76, 113, 248)",2,mbtiauth_5814
2038,"(76, 113, 250)",2,mbtiauth_5814
2039,"(76, 113, 256)",2,mbtiauth_5814
2040,"(76, 113, 364)",2,mbtiauth_5814
2041,"(76, 113, 484)",2,mbtiauth_5814
2042,"(76, 113, 527)",3,mbtiauth_5814
2043,"(76, 113, 1184)",2,mbtiauth_5814
2044,"(76, 113, 3529)",2,mbtiauth_5814
2045,"(76, 118, 113)",3,mbtiauth_5814
2046,"(76, 118, 194)",2,mbtiauth_5814
2047,"(76, 118, 364)",2,mbtiauth_5814
2048,"(76, 141, 484)",2,mbtiauth_5814
2049,"(76, 149, 3)",2,mbtiauth_5814
2050,"(76, 151, 3)",2,mbtiauth_5814
2051,"(76, 151, 113)",2,mbtiauth_5814
2052,"(76, 151, 527)",2,mbtiauth_5814
2053,"(76, 151, 3529)",2,mbtiauth_5814
2054,"(76, 154, 2)",2,mbtiauth_5814
2055,"(76, 160, 22)",3,mbtiauth_5814
2056,"(76, 160, 352)",2,mbtiauth_5814
2057,"(76, 160, 2709)",2,mbtiauth_5814
2058,"(76, 161, 3)",3,mbtiauth_5814
2059,"(76, 168, 32)",2,mbtiauth_5814
2060,"(76, 190, 3)",2,mbtiauth_5814
2061,"(76, 194, 3)",2,mbtiauth_5814
2062,"(76, 194, 113)",2,mbtiauth_5814
2063,"(76, 194, 149)",2,mbtiauth_5814
2064,"(76, 194, 161)",2,mbtiauth_5814
2065,"(76, 194, 364)",2,mbtiauth_5814
2066,"(76, 205, 22)",2,mbtiauth_5814
2067,"(76, 248, 2)",2,mbtiauth_5814
2068,"(76, 338, 32)",2,mbtiauth_5814
2069,"(76, 338, 65)",2,mbtiauth_5814
2070,"(76, 342, 16)",3,mbtiauth_5814
2071,"(76, 342, 65)",2,mbtiauth_5814
2072,"(76, 342, 76)",2,mbtiauth_5814
2073,"(76, 342, 1075)",3,mbtiauth_5814
2074,"(76, 375, 22)",2,mbtiauth_5814
2075,"(76, 424, 16)",3,mbtiauth_5814
2076,"(76, 484, 3)",2,mbtiauth_5814
2077,"(76, 484, 22)",2,mbtiauth_5814
2078,"(76, 484, 113)",5,mbtiauth_5814
2079,"(76, 484, 151)",2,mbtiauth_5814
2080,"(76, 484, 160)",3,mbtiauth_5814
2081,"(76, 484, 224)",3,mbtiauth_5814
2082,"(76, 497, 3)",5,mbtiauth_5814
2083,"(76, 497, 16)",2,mbtiauth_5814
2084,"(76, 497, 22)",5,mbtiauth_5814
2085,"(76, 497, 32)",5,mbtiauth_5814
2086,"(76, 497, 50)",2,mbtiauth_5814
2087,"(76, 497, 65)",2,mbtiauth_5814
2088,"(76, 497, 76)",2,mbtiauth_5814
2089,"(76, 497, 113)",5,mbtiauth_5814
2090,"(76, 497, 151)",4,mbtiauth_5814
2091,"(76, 497, 160)",2,mbtiauth_5814
2092,"(76, 497, 342)",2,mbtiauth_5814
2093,"(76, 497, 375)",2,mbtiauth_5814
2094,"(76, 497, 445)",2,mbtiauth_5814
2095,"(76, 497, 1079)",2,mbtiauth_5814
2096,"(76, 527, 3529)",2,mbtiauth_5814
2097,"(76, 557, 2)",2,mbtiauth_5814
2098,"(76, 557, 22)",4,mbtiauth_5814
2099,"(76, 557, 32)",2,mbtiauth_5814
2100,"(76, 557, 65)",2,mbtiauth_5814
2101,"(76, 557, 76)",2,mbtiauth_5814
2102,"(76, 557, 113)",7,mbtiauth_5814
2103,"(76, 557, 141)",2,mbtiauth_5814
2104,"(76, 557, 213)",2,mbtiauth_5814
2105,"(76, 557, 342)",2,mbtiauth_5814
2106,"(76, 635, 113)",2,mbtiauth_5814
2107,"(76, 635, 2050)",2,mbtiauth_5814
2108,"(76, 772, 168)",2,mbtiauth_5814
2109,"(76, 868, 3)",2,mbtiauth_5814
2110,"(76, 1097, 22)",2,mbtiauth_5814
2111,"(76, 1100, 32)",3,mbtiauth_5814
2112,"(76, 1100, 213)",3,mbtiauth_5814
2113,"(76, 1841, 113)",2,mbtiauth_5814
2114,"(76, 2050, 113)",2,mbtiauth_5814
2115,"(76, 4564, 3)",2,mbtiauth_5814
2116,"(76, 4564, 22)",3,mbtiauth_5814
2117,"(76, 4564, 868)",3,mbtiauth_5814
2118,"(76, 6631, 22)",2,mbtiauth_5814
2119,"(77, 2, 149)",2,mbtiauth_5814
2120,"(77, 3, 2)",2,mbtiauth_5814
2121,"(77, 3, 149)",3,mbtiauth_5814
2122,"(77, 32, 3)",2,mbtiauth_5814
2123,"(77, 32, 213)",2,mbtiauth_5814
2124,"(77, 41, 64)",2,mbtiauth_5814
2125,"(77, 41, 113)",2,mbtiauth_5814
2126,"(77, 65, 32)",2,mbtiauth_5814
2127,"(77, 65, 213)",2,mbtiauth_5814
2128,"(77, 65, 1100)",2,mbtiauth_5814
2129,"(77, 76, 113)",3,mbtiauth_5814
2130,"(77, 77, 463)",2,mbtiauth_5814
2131,"(77, 1100, 32)",2,mbtiauth_5814
2132,"(77, 1100, 213)",2,mbtiauth_5814
2133,"(77, 1120, 77)",2,mbtiauth_5814
2134,"(77, 1120, 463)",2,mbtiauth_5814
2135,"(113, 2, 113)",2,mbtiauth_5814
2136,"(113, 3, 2)",2,mbtiauth_5814
2137,"(113, 3, 3)",3,mbtiauth_5814
2138,"(113, 3, 22)",4,mbtiauth_5814
2139,"(113, 3, 65)",4,mbtiauth_5814
2140,"(113, 3, 76)",3,mbtiauth_5814
2141,"(113, 3, 77)",2,mbtiauth_5814
2142,"(113, 3, 100)",2,mbtiauth_5814
2143,"(113, 3, 113)",3,mbtiauth_5814
2144,"(113, 3, 141)",2,mbtiauth_5814
2145,"(113, 3, 149)",3,mbtiauth_5814
2146,"(113, 3, 161)",2,mbtiauth_5814
2147,"(113, 3, 484)",2,mbtiauth_5814
2148,"(113, 3, 497)",2,mbtiauth_5814
2149,"(113, 3, 527)",2,mbtiauth_5814
2150,"(113, 3, 1184)",2,mbtiauth_5814
2151,"(113, 3, 3529)",2,mbtiauth_5814
2152,"(113, 7, 3)",2,mbtiauth_5814
2153,"(113, 7, 32)",4,mbtiauth_5814
2154,"(113, 7, 64)",3,mbtiauth_5814
2155,"(113, 7, 65)",2,mbtiauth_5814
2156,"(113, 7, 76)",2,mbtiauth_5814
2157,"(113, 7, 113)",2,mbtiauth_5814
2158,"(113, 7, 160)",3,mbtiauth_5814
2159,"(113, 7, 250)",2,mbtiauth_5814
2160,"(113, 7, 527)",2,mbtiauth_5814
2161,"(113, 7, 635)",2,mbtiauth_5814
2162,"(113, 10, 76)",2,mbtiauth_5814
2163,"(113, 10, 497)",2,mbtiauth_5814
2164,"(113, 10, 772)",2,mbtiauth_5814
2165,"(113, 22, 32)",2,mbtiauth_5814
2166,"(113, 22, 151)",3,mbtiauth_5814
2167,"(113, 22, 868)",2,mbtiauth_5814
2168,"(113, 31, 76)",2,mbtiauth_5814
2169,"(113, 50, 3)",2,mbtiauth_5814
2170,"(113, 50, 52)",2,mbtiauth_5814
2171,"(113, 50, 76)",2,mbtiauth_5814
2172,"(113, 52, 3)",2,mbtiauth_5814
2173,"(113, 52, 65)",2,mbtiauth_5814
2174,"(113, 52, 76)",5,mbtiauth_5814
2175,"(113, 52, 113)",2,mbtiauth_5814
2176,"(113, 52, 160)",2,mbtiauth_5814
2177,"(113, 64, 3)",5,mbtiauth_5814
2178,"(113, 64, 52)",2,mbtiauth_5814
2179,"(113, 64, 65)",2,mbtiauth_5814
2180,"(113, 64, 76)",3,mbtiauth_5814
2181,"(113, 64, 77)",2,mbtiauth_5814
2182,"(113, 64, 148)",2,mbtiauth_5814
2183,"(113, 64, 153)",2,mbtiauth_5814
2184,"(113, 64, 160)",3,mbtiauth_5814
2185,"(113, 64, 1120)",2,mbtiauth_5814
2186,"(113, 65, 3)",2,mbtiauth_5814
2187,"(113, 65, 10)",2,mbtiauth_5814
2188,"(113, 65, 76)",2,mbtiauth_5814
2189,"(113, 65, 113)",2,mbtiauth_5814
2190,"(113, 65, 148)",2,mbtiauth_5814
2191,"(113, 65, 153)",2,mbtiauth_5814
2192,"(113, 65, 160)",2,mbtiauth_5814
2193,"(113, 65, 251)",2,mbtiauth_5814
2194,"(113, 65, 658)",2,mbtiauth_5814
2195,"(113, 76, 2)",2,mbtiauth_5814
2196,"(113, 76, 3)",3,mbtiauth_5814
2197,"(113, 76, 77)",2,mbtiauth_5814
2198,"(113, 76, 113)",6,mbtiauth_5814
2199,"(113, 76, 160)",2,mbtiauth_5814
2200,"(113, 76, 168)",2,mbtiauth_5814
2201,"(113, 76, 484)",2,mbtiauth_5814
2202,"(113, 76, 497)",6,mbtiauth_5814
2203,"(113, 76, 557)",2,mbtiauth_5814
2204,"(113, 77, 3)",3,mbtiauth_5814
2205,"(113, 77, 76)",2,mbtiauth_5814
2206,"(113, 77, 77)",2,mbtiauth_5814
2207,"(113, 77, 113)",2,mbtiauth_5814
2208,"(113, 77, 1120)",2,mbtiauth_5814
2209,"(113, 113, 3)",7,mbtiauth_5814
2210,"(113, 113, 7)",3,mbtiauth_5814
2211,"(113, 113, 22)",2,mbtiauth_5814
2212,"(113, 113, 50)",2,mbtiauth_5814
2213,"(113, 113, 64)",2,mbtiauth_5814
2214,"(113, 113, 65)",2,mbtiauth_5814
2215,"(113, 113, 77)",2,mbtiauth_5814
2216,"(113, 113, 151)",2,mbtiauth_5814
2217,"(113, 113, 160)",2,mbtiauth_5814
2218,"(113, 113, 200)",2,mbtiauth_5814
2219,"(113, 113, 250)",3,mbtiauth_5814
2220,"(113, 113, 256)",2,mbtiauth_5814
2221,"(113, 113, 364)",2,mbtiauth_5814
2222,"(113, 118, 3)",2,mbtiauth_5814
2223,"(113, 118, 50)",2,mbtiauth_5814
2224,"(113, 118, 64)",4,mbtiauth_5814
2225,"(113, 118, 76)",3,mbtiauth_5814
2226,"(113, 118, 113)",4,mbtiauth_5814
2227,"(113, 118, 124)",2,mbtiauth_5814
2228,"(113, 118, 194)",2,mbtiauth_5814
2229,"(113, 118, 224)",2,mbtiauth_5814
2230,"(113, 118, 326)",2,mbtiauth_5814
2231,"(113, 118, 364)",3,mbtiauth_5814
2232,"(113, 118, 641)",2,mbtiauth_5814
2233,"(113, 124, 64)",2,mbtiauth_5814
2234,"(113, 141, 484)",2,mbtiauth_5814
2235,"(113, 148, 150)",3,mbtiauth_5814
2236,"(113, 151, 3)",3,mbtiauth_5814
2237,"(113, 151, 7)",2,mbtiauth_5814
2238,"(113, 151, 113)",2,mbtiauth_5814
2239,"(113, 151, 3529)",2,mbtiauth_5814
2240,"(113, 155, 3)",2,mbtiauth_5814
2241,"(113, 155, 64)",3,mbtiauth_5814
2242,"(113, 160, 10)",2,mbtiauth_5814
2243,"(113, 160, 22)",3,mbtiauth_5814
2244,"(113, 160, 64)",2,mbtiauth_5814
2245,"(113, 160, 65)",2,mbtiauth_5814
2246,"(113, 160, 76)",4,mbtiauth_5814
2247,"(113, 160, 250)",2,mbtiauth_5814
2248,"(113, 160, 342)",2,mbtiauth_5814
2249,"(113, 160, 497)",2,mbtiauth_5814
2250,"(113, 160, 3529)",2,mbtiauth_5814
2251,"(113, 161, 3)",4,mbtiauth_5814
2252,"(113, 161, 22)",2,mbtiauth_5814
2253,"(113, 161, 50)",2,mbtiauth_5814
2254,"(113, 182, 113)",2,mbtiauth_5814
2255,"(113, 194, 3)",3,mbtiauth_5814
2256,"(113, 194, 77)",2,mbtiauth_5814
2257,"(113, 194, 113)",3,mbtiauth_5814
2258,"(113, 194, 115)",2,mbtiauth_5814
2259,"(113, 194, 149)",2,mbtiauth_5814
2260,"(113, 194, 161)",2,mbtiauth_5814
2261,"(113, 194, 364)",2,mbtiauth_5814
2262,"(113, 200, 76)",2,mbtiauth_5814
2263,"(113, 205, 22)",2,mbtiauth_5814
2264,"(113, 208, 113)",2,mbtiauth_5814
2265,"(113, 208, 497)",2,mbtiauth_5814
2266,"(113, 224, 7)",2,mbtiauth_5814
2267,"(113, 224, 64)",3,mbtiauth_5814
2268,"(113, 224, 113)",3,mbtiauth_5814
2269,"(113, 224, 250)",2,mbtiauth_5814
2270,"(113, 250, 3)",3,mbtiauth_5814
2271,"(113, 250, 64)",3,mbtiauth_5814
2272,"(113, 250, 76)",5,mbtiauth_5814
2273,"(113, 250, 77)",4,mbtiauth_5814
2274,"(113, 250, 113)",5,mbtiauth_5814
2275,"(113, 250, 214)",2,mbtiauth_5814
2276,"(113, 250, 248)",2,mbtiauth_5814
2277,"(113, 250, 251)",2,mbtiauth_5814
2278,"(113, 250, 497)",2,mbtiauth_5814
2279,"(113, 250, 635)",2,mbtiauth_5814
2280,"(113, 250, 2050)",2,mbtiauth_5814
2281,"(113, 250, 13966)",2,mbtiauth_5814
2282,"(113, 251, 113)",2,mbtiauth_5814
2283,"(113, 256, 32)",2,mbtiauth_5814
2284,"(113, 256, 65)",2,mbtiauth_5814
2285,"(113, 256, 113)",2,mbtiauth_5814
2286,"(113, 277, 113)",2,mbtiauth_5814
2287,"(113, 277, 182)",2,mbtiauth_5814
2288,"(113, 326, 64)",2,mbtiauth_5814
2289,"(113, 326, 224)",3,mbtiauth_5814
2290,"(113, 445, 3)",2,mbtiauth_5814
2291,"(113, 445, 7)",2,mbtiauth_5814
2292,"(113, 445, 113)",2,mbtiauth_5814
2293,"(113, 445, 250)",2,mbtiauth_5814
2294,"(113, 484, 113)",2,mbtiauth_5814
2295,"(113, 497, 113)",2,mbtiauth_5814
2296,"(113, 497, 160)",2,mbtiauth_5814
2297,"(113, 504, 113)",2,mbtiauth_5814
2298,"(113, 527, 3529)",2,mbtiauth_5814
2299,"(113, 557, 113)",2,mbtiauth_5814
2300,"(113, 598, 113)",2,mbtiauth_5814
2301,"(113, 699, 64)",2,mbtiauth_5814
2302,"(113, 1097, 118)",2,mbtiauth_5814
2303,"(113, 1120, 77)",2,mbtiauth_5814
2304,"(113, 1184, 497)",2,mbtiauth_5814
2305,"(113, 1631, 77)",2,mbtiauth_5814
2306,"(113, 2050, 77)",2,mbtiauth_5814
2307,"(113, 2050, 113)",3,mbtiauth_5814
2308,"(113, 2050, 635)",2,mbtiauth_5814
2309,"(113, 3529, 3)",2,mbtiauth_5814
2310,"(113, 3529, 64)",2,mbtiauth_5814
2311,"(113, 3529, 76)",3,mbtiauth_5814
2312,"(113, 3529, 77)",2,mbtiauth_5814
2313,"(113, 3529, 250)",2,mbtiauth_5814
2314,"(113, 13966, 77)",2,mbtiauth_5814
2315,"(113, 13966, 113)",2,mbtiauth_5814
2316,"(113, 16005, 160)",2,mbtiauth_5814
2317,"(115, 65, 64)",2,mbtiauth_5814
2318,"(115, 250, 64)",2,mbtiauth_5814
2319,"(115, 250, 65)",2,mbtiauth_5814
2320,"(115, 250, 1203)",2,mbtiauth_5814
2321,"(115, 1203, 64)",2,mbtiauth_5814
2322,"(115, 1203, 65)",2,mbtiauth_5814
2323,"(118, 3, 76)",2,mbtiauth_5814
2324,"(118, 76, 2)",2,mbtiauth_5814
2325,"(118, 76, 113)",3,mbtiauth_5814
2326,"(118, 113, 364)",2,mbtiauth_5814
2327,"(118, 124, 64)",2,mbtiauth_5814
2328,"(118, 194, 113)",2,mbtiauth_5814
2329,"(118, 194, 364)",2,mbtiauth_5814
2330,"(118, 326, 224)",2,mbtiauth_5814
2331,"(118, 641, 76)",2,mbtiauth_5814
2332,"(141, 484, 3)",2,mbtiauth_5814
2333,"(148, 76, 113)",2,mbtiauth_5814
2334,"(148, 150, 76)",2,mbtiauth_5814
2335,"(148, 150, 113)",3,mbtiauth_5814
2336,"(149, 113, 7)",2,mbtiauth_5814
2337,"(149, 1184, 76)",2,mbtiauth_5814
2338,"(150, 76, 113)",2,mbtiauth_5814
2339,"(151, 3, 65)",2,mbtiauth_5814
2340,"(151, 3, 205)",2,mbtiauth_5814
2341,"(151, 3, 3529)",2,mbtiauth_5814
2342,"(151, 7, 3)",2,mbtiauth_5814
2343,"(151, 15, 41)",2,mbtiauth_5814
2344,"(151, 15, 141)",2,mbtiauth_5814
2345,"(151, 16, 32)",2,mbtiauth_5814
2346,"(151, 16, 50)",2,mbtiauth_5814
2347,"(151, 16, 76)",2,mbtiauth_5814
2348,"(151, 16, 153)",2,mbtiauth_5814
2349,"(151, 16, 1075)",2,mbtiauth_5814
2350,"(151, 22, 3)",2,mbtiauth_5814
2351,"(151, 32, 77)",2,mbtiauth_5814
2352,"(151, 32, 153)",2,mbtiauth_5814
2353,"(151, 41, 141)",2,mbtiauth_5814
2354,"(151, 52, 76)",3,mbtiauth_5814
2355,"(151, 76, 2)",2,mbtiauth_5814
2356,"(151, 76, 77)",2,mbtiauth_5814
2357,"(151, 76, 497)",2,mbtiauth_5814
2358,"(151, 113, 3)",2,mbtiauth_5814
2359,"(151, 113, 10)",2,mbtiauth_5814
2360,"(151, 113, 76)",2,mbtiauth_5814
2361,"(151, 113, 250)",2,mbtiauth_5814
2362,"(151, 161, 3)",2,mbtiauth_5814
2363,"(151, 205, 22)",2,mbtiauth_5814
2364,"(151, 250, 3)",2,mbtiauth_5814
2365,"(151, 278, 50)",2,mbtiauth_5814
2366,"(151, 342, 16)",4,mbtiauth_5814
2367,"(151, 342, 32)",2,mbtiauth_5814
2368,"(151, 342, 50)",2,mbtiauth_5814
2369,"(151, 342, 76)",2,mbtiauth_5814
2370,"(151, 342, 153)",2,mbtiauth_5814
2371,"(151, 342, 1075)",2,mbtiauth_5814
2372,"(151, 1075, 50)",2,mbtiauth_5814
2373,"(151, 3529, 7)",2,mbtiauth_5814
2374,"(153, 50, 205)",2,mbtiauth_5814
2375,"(153, 76, 3)",2,mbtiauth_5814
2376,"(153, 76, 50)",2,mbtiauth_5814
2377,"(153, 76, 113)",2,mbtiauth_5814
2378,"(155, 64, 3)",2,mbtiauth_5814
2379,"(158, 113, 64)",2,mbtiauth_5814
2380,"(160, 2, 76)",2,mbtiauth_5814
2381,"(160, 22, 52)",2,mbtiauth_5814
2382,"(160, 22, 76)",2,mbtiauth_5814
2383,"(160, 22, 151)",2,mbtiauth_5814
2384,"(160, 22, 342)",2,mbtiauth_5814
2385,"(160, 22, 847)",2,mbtiauth_5814
2386,"(160, 22, 1075)",2,mbtiauth_5814
2387,"(160, 22, 2709)",2,mbtiauth_5814
2388,"(160, 32, 50)",2,mbtiauth_5814
2389,"(160, 52, 847)",2,mbtiauth_5814
2390,"(160, 64, 76)",3,mbtiauth_5814
2391,"(160, 64, 113)",4,mbtiauth_5814
2392,"(160, 65, 50)",2,mbtiauth_5814
2393,"(160, 76, 22)",2,mbtiauth_5814
2394,"(160, 76, 113)",3,mbtiauth_5814
2395,"(160, 76, 425)",2,mbtiauth_5814
2396,"(160, 76, 497)",3,mbtiauth_5814
2397,"(160, 76, 557)",3,mbtiauth_5814
2398,"(160, 113, 118)",2,mbtiauth_5814
2399,"(160, 250, 76)",2,mbtiauth_5814
2400,"(160, 342, 76)",2,mbtiauth_5814
2401,"(160, 342, 1075)",2,mbtiauth_5814
2402,"(160, 557, 22)",2,mbtiauth_5814
2403,"(160, 2709, 52)",2,mbtiauth_5814
2404,"(160, 2709, 847)",2,mbtiauth_5814
2405,"(160, 3529, 64)",4,mbtiauth_5814
2406,"(160, 3529, 76)",2,mbtiauth_5814
2407,"(160, 3529, 113)",4,mbtiauth_5814
2408,"(160, 6631, 76)",2,mbtiauth_5814
2409,"(161, 3, 22)",2,mbtiauth_5814
2410,"(161, 7, 52)",2,mbtiauth_5814
2411,"(165, 929, 7)",2,mbtiauth_5814
2412,"(168, 32, 7)",2,mbtiauth_5814
2413,"(168, 32, 41)",2,mbtiauth_5814
2414,"(168, 32, 52)",2,mbtiauth_5814
2415,"(168, 32, 65)",2,mbtiauth_5814
2416,"(168, 32, 76)",4,mbtiauth_5814
2417,"(168, 32, 113)",4,mbtiauth_5814
2418,"(168, 76, 3)",2,mbtiauth_5814
2419,"(168, 76, 113)",4,mbtiauth_5814
2420,"(168, 76, 497)",2,mbtiauth_5814
2421,"(168, 153, 76)",2,mbtiauth_5814
2422,"(168, 338, 32)",3,mbtiauth_5814
2423,"(168, 338, 76)",3,mbtiauth_5814
2424,"(168, 338, 113)",2,mbtiauth_5814
2425,"(182, 22, 32)",2,mbtiauth_5814
2426,"(182, 641, 22)",2,mbtiauth_5814
2427,"(182, 641, 32)",3,mbtiauth_5814
2428,"(182, 641, 151)",2,mbtiauth_5814
2429,"(194, 69, 1277)",2,mbtiauth_5814
2430,"(194, 69, 2050)",2,mbtiauth_5814
2431,"(194, 113, 113)",2,mbtiauth_5814
2432,"(194, 113, 250)",2,mbtiauth_5814
2433,"(194, 113, 256)",2,mbtiauth_5814
2434,"(194, 113, 364)",2,mbtiauth_5814
2435,"(194, 113, 2050)",2,mbtiauth_5814
2436,"(194, 161, 3)",2,mbtiauth_5814
2437,"(194, 250, 113)",2,mbtiauth_5814
2438,"(194, 250, 13966)",2,mbtiauth_5814
2439,"(194, 510, 250)",2,mbtiauth_5814
2440,"(194, 1277, 2050)",2,mbtiauth_5814
2441,"(194, 13966, 113)",2,mbtiauth_5814
2442,"(195, 76, 113)",2,mbtiauth_5814
2443,"(201, 52, 32)",2,mbtiauth_5814
2444,"(201, 52, 76)",3,mbtiauth_5814
2445,"(201, 76, 3)",2,mbtiauth_5814
2446,"(201, 76, 32)",2,mbtiauth_5814
2447,"(201, 76, 113)",3,mbtiauth_5814
2448,"(201, 76, 557)",3,mbtiauth_5814
2449,"(201, 557, 113)",2,mbtiauth_5814
2450,"(205, 3, 65)",2,mbtiauth_5814
2451,"(205, 22, 3)",2,mbtiauth_5814
2452,"(205, 22, 52)",2,mbtiauth_5814
2453,"(205, 22, 151)",3,mbtiauth_5814
2454,"(205, 50, 52)",2,mbtiauth_5814
2455,"(205, 50, 76)",3,mbtiauth_5814
2456,"(205, 50, 251)",2,mbtiauth_5814
2457,"(205, 52, 76)",3,mbtiauth_5814
2458,"(205, 76, 484)",2,mbtiauth_5814
2459,"(205, 151, 52)",2,mbtiauth_5814
2460,"(205, 151, 76)",2,mbtiauth_5814
2461,"(205, 151, 200)",2,mbtiauth_5814
2462,"(205, 190, 3)",2,mbtiauth_5814
2463,"(205, 251, 76)",4,mbtiauth_5814
2464,"(205, 251, 113)",2,mbtiauth_5814
2465,"(205, 251, 151)",2,mbtiauth_5814
2466,"(205, 251, 200)",2,mbtiauth_5814
2467,"(205, 251, 484)",2,mbtiauth_5814
2468,"(213, 52, 847)",2,mbtiauth_5814
2469,"(224, 7, 64)",2,mbtiauth_5814
2470,"(224, 32, 41)",2,mbtiauth_5814
2471,"(224, 64, 76)",2,mbtiauth_5814
2472,"(224, 113, 3)",2,mbtiauth_5814
2473,"(224, 113, 7)",3,mbtiauth_5814
2474,"(224, 113, 64)",2,mbtiauth_5814
2475,"(224, 113, 161)",2,mbtiauth_5814
2476,"(224, 250, 64)",2,mbtiauth_5814
2477,"(248, 2, 22)",2,mbtiauth_5814
2478,"(248, 2, 113)",2,mbtiauth_5814
2479,"(248, 76, 2)",3,mbtiauth_5814
2480,"(248, 76, 22)",2,mbtiauth_5814
2481,"(248, 76, 113)",2,mbtiauth_5814
2482,"(250, 3, 65)",2,mbtiauth_5814
2483,"(250, 32, 7)",2,mbtiauth_5814
2484,"(250, 32, 41)",2,mbtiauth_5814
2485,"(250, 32, 76)",2,mbtiauth_5814
2486,"(250, 52, 76)",3,mbtiauth_5814
2487,"(250, 64, 7)",2,mbtiauth_5814
2488,"(250, 64, 32)",2,mbtiauth_5814
2489,"(250, 64, 41)",2,mbtiauth_5814
2490,"(250, 64, 65)",2,mbtiauth_5814
2491,"(250, 64, 76)",2,mbtiauth_5814
2492,"(250, 64, 557)",2,mbtiauth_5814
2493,"(250, 64, 1227)",3,mbtiauth_5814
2494,"(250, 65, 7)",3,mbtiauth_5814
2495,"(250, 65, 32)",2,mbtiauth_5814
2496,"(250, 65, 64)",3,mbtiauth_5814
2497,"(250, 67, 76)",2,mbtiauth_5814
2498,"(250, 76, 27)",2,mbtiauth_5814
2499,"(250, 76, 32)",4,mbtiauth_5814
2500,"(250, 76, 64)",2,mbtiauth_5814
2501,"(250, 76, 65)",4,mbtiauth_5814
2502,"(250, 76, 77)",2,mbtiauth_5814
2503,"(250, 76, 113)",3,mbtiauth_5814
2504,"(250, 76, 224)",2,mbtiauth_5814
2505,"(250, 76, 484)",4,mbtiauth_5814
2506,"(250, 76, 497)",2,mbtiauth_5814
2507,"(250, 76, 557)",4,mbtiauth_5814
2508,"(250, 77, 3)",2,mbtiauth_5814
2509,"(250, 77, 65)",2,mbtiauth_5814
2510,"(250, 113, 3)",2,mbtiauth_5814
2511,"(250, 113, 65)",2,mbtiauth_5814
2512,"(250, 113, 77)",2,mbtiauth_5814
2513,"(250, 151, 76)",2,mbtiauth_5814
2514,"(250, 201, 52)",2,mbtiauth_5814
2515,"(250, 201, 76)",2,mbtiauth_5814
2516,"(250, 205, 52)",2,mbtiauth_5814
2517,"(250, 205, 76)",3,mbtiauth_5814
2518,"(250, 205, 151)",2,mbtiauth_5814
2519,"(250, 205, 251)",2,mbtiauth_5814
2520,"(250, 251, 65)",2,mbtiauth_5814
2521,"(250, 251, 76)",5,mbtiauth_5814
2522,"(250, 251, 113)",3,mbtiauth_5814
2523,"(250, 251, 151)",2,mbtiauth_5814
2524,"(250, 251, 484)",3,mbtiauth_5814
2525,"(250, 342, 65)",2,mbtiauth_5814
2526,"(250, 484, 113)",2,mbtiauth_5814
2527,"(250, 484, 224)",2,mbtiauth_5814
2528,"(250, 641, 32)",2,mbtiauth_5814
2529,"(250, 1203, 7)",2,mbtiauth_5814
2530,"(250, 1203, 64)",2,mbtiauth_5814
2531,"(250, 1203, 65)",2,mbtiauth_5814
2532,"(250, 2050, 113)",2,mbtiauth_5814
2533,"(250, 13966, 77)",2,mbtiauth_5814
2534,"(250, 13966, 113)",2,mbtiauth_5814
2535,"(251, 76, 10)",2,mbtiauth_5814
2536,"(251, 76, 64)",2,mbtiauth_5814
2537,"(251, 76, 65)",2,mbtiauth_5814
2538,"(251, 76, 113)",3,mbtiauth_5814
2539,"(251, 76, 484)",3,mbtiauth_5814
2540,"(251, 76, 497)",2,mbtiauth_5814
2541,"(251, 113, 10)",2,mbtiauth_5814
2542,"(251, 113, 65)",2,mbtiauth_5814
2543,"(251, 151, 76)",2,mbtiauth_5814
2544,"(251, 151, 200)",2,mbtiauth_5814
2545,"(277, 182, 113)",2,mbtiauth_5814
2546,"(307, 484, 113)",2,mbtiauth_5814
2547,"(326, 224, 64)",2,mbtiauth_5814
2548,"(338, 32, 76)",3,mbtiauth_5814
2549,"(338, 32, 113)",2,mbtiauth_5814
2550,"(338, 32, 497)",2,mbtiauth_5814
2551,"(338, 76, 113)",2,mbtiauth_5814
2552,"(338, 76, 497)",2,mbtiauth_5814
2553,"(340, 113, 3529)",2,mbtiauth_5814
2554,"(342, 16, 3)",2,mbtiauth_5814
2555,"(342, 16, 16)",2,mbtiauth_5814
2556,"(342, 16, 32)",3,mbtiauth_5814
2557,"(342, 16, 50)",3,mbtiauth_5814
2558,"(342, 16, 76)",4,mbtiauth_5814
2559,"(342, 16, 113)",4,mbtiauth_5814
2560,"(342, 16, 153)",3,mbtiauth_5814
2561,"(342, 16, 168)",2,mbtiauth_5814
2562,"(342, 16, 484)",2,mbtiauth_5814
2563,"(342, 16, 1075)",5,mbtiauth_5814
2564,"(342, 16, 3446)",2,mbtiauth_5814
2565,"(342, 22, 3)",2,mbtiauth_5814
2566,"(342, 32, 76)",3,mbtiauth_5814
2567,"(342, 32, 77)",2,mbtiauth_5814
2568,"(342, 32, 153)",2,mbtiauth_5814
2569,"(342, 32, 213)",3,mbtiauth_5814
2570,"(342, 32, 860)",2,mbtiauth_5814
2571,"(342, 50, 153)",2,mbtiauth_5814
2572,"(342, 64, 3)",2,mbtiauth_5814
2573,"(342, 64, 64)",2,mbtiauth_5814
2574,"(342, 64, 76)",2,mbtiauth_5814
2575,"(342, 64, 250)",2,mbtiauth_5814
2576,"(342, 64, 1227)",3,mbtiauth_5814
2577,"(342, 65, 32)",2,mbtiauth_5814
2578,"(342, 65, 64)",2,mbtiauth_5814
2579,"(342, 65, 213)",2,mbtiauth_5814
2580,"(342, 65, 250)",2,mbtiauth_5814
2581,"(342, 65, 1227)",2,mbtiauth_5814
2582,"(342, 69, 1277)",2,mbtiauth_5814
2583,"(342, 69, 2050)",2,mbtiauth_5814
2584,"(342, 76, 2)",3,mbtiauth_5814
2585,"(342, 76, 76)",3,mbtiauth_5814
2586,"(342, 76, 113)",2,mbtiauth_5814
2587,"(342, 76, 342)",2,mbtiauth_5814
2588,"(342, 76, 497)",2,mbtiauth_5814
2589,"(342, 76, 557)",2,mbtiauth_5814
2590,"(342, 113, 250)",2,mbtiauth_5814
2591,"(342, 113, 2050)",2,mbtiauth_5814
2592,"(342, 153, 76)",2,mbtiauth_5814
2593,"(342, 168, 32)",3,mbtiauth_5814
2594,"(342, 168, 76)",2,mbtiauth_5814
2595,"(342, 168, 338)",2,mbtiauth_5814
2596,"(342, 194, 50)",2,mbtiauth_5814
2597,"(342, 194, 69)",2,mbtiauth_5814
2598,"(342, 194, 113)",2,mbtiauth_5814
2599,"(342, 194, 250)",2,mbtiauth_5814
2600,"(342, 194, 510)",2,mbtiauth_5814
2601,"(342, 194, 635)",2,mbtiauth_5814
2602,"(342, 194, 1277)",2,mbtiauth_5814
2603,"(342, 194, 2050)",3,mbtiauth_5814
2604,"(342, 312, 76)",2,mbtiauth_5814
2605,"(342, 312, 497)",2,mbtiauth_5814
2606,"(342, 338, 32)",2,mbtiauth_5814
2607,"(342, 338, 76)",2,mbtiauth_5814
2608,"(342, 420, 76)",2,mbtiauth_5814
2609,"(342, 528, 22)",2,mbtiauth_5814
2610,"(342, 528, 32)",2,mbtiauth_5814
2611,"(342, 528, 76)",4,mbtiauth_5814
2612,"(342, 528, 420)",2,mbtiauth_5814
2613,"(342, 528, 557)",2,mbtiauth_5814
2614,"(342, 860, 76)",2,mbtiauth_5814
2615,"(342, 1075, 32)",2,mbtiauth_5814
2616,"(342, 1075, 50)",2,mbtiauth_5814
2617,"(342, 1075, 76)",2,mbtiauth_5814
2618,"(342, 1075, 113)",2,mbtiauth_5814
2619,"(342, 1075, 153)",2,mbtiauth_5814
2620,"(342, 1227, 250)",2,mbtiauth_5814
2621,"(342, 1277, 2050)",2,mbtiauth_5814
2622,"(342, 3446, 1075)",2,mbtiauth_5814
2623,"(342, 4263, 76)",2,mbtiauth_5814
2624,"(342, 33874, 76)",2,mbtiauth_5814
2625,"(352, 52, 847)",2,mbtiauth_5814
2626,"(375, 3, 3)",2,mbtiauth_5814
2627,"(375, 3, 278)",2,mbtiauth_5814
2628,"(375, 3, 342)",2,mbtiauth_5814
2629,"(375, 3, 636)",2,mbtiauth_5814
2630,"(375, 3, 1498)",2,mbtiauth_5814
2631,"(375, 22, 250)",2,mbtiauth_5814
2632,"(375, 32, 52)",2,mbtiauth_5814
2633,"(375, 32, 250)",2,mbtiauth_5814
2634,"(375, 52, 76)",2,mbtiauth_5814
2635,"(375, 76, 484)",2,mbtiauth_5814
2636,"(375, 201, 52)",2,mbtiauth_5814
2637,"(375, 201, 76)",2,mbtiauth_5814
2638,"(375, 250, 76)",2,mbtiauth_5814
2639,"(375, 278, 22)",2,mbtiauth_5814
2640,"(375, 636, 342)",2,mbtiauth_5814
2641,"(375, 814, 22)",2,mbtiauth_5814
2642,"(375, 814, 32)",3,mbtiauth_5814
2643,"(375, 814, 52)",2,mbtiauth_5814
2644,"(375, 814, 250)",2,mbtiauth_5814
2645,"(375, 1498, 3)",2,mbtiauth_5814
2646,"(380, 76, 113)",2,mbtiauth_5814
2647,"(384, 113, 7)",2,mbtiauth_5814
2648,"(420, 65, 3390)",2,mbtiauth_5814
2649,"(420, 76, 65)",2,mbtiauth_5814
2650,"(420, 76, 3390)",2,mbtiauth_5814
2651,"(424, 76, 557)",2,mbtiauth_5814
2652,"(448, 76, 113)",2,mbtiauth_5814
2653,"(451, 250, 32)",2,mbtiauth_5814
2654,"(484, 22, 3)",2,mbtiauth_5814
2655,"(484, 64, 160)",2,mbtiauth_5814
2656,"(484, 113, 3)",3,mbtiauth_5814
2657,"(484, 113, 7)",2,mbtiauth_5814
2658,"(484, 113, 10)",2,mbtiauth_5814
2659,"(484, 113, 64)",3,mbtiauth_5814
2660,"(484, 113, 118)",2,mbtiauth_5814
2661,"(484, 113, 160)",3,mbtiauth_5814
2662,"(484, 113, 161)",2,mbtiauth_5814
2663,"(484, 113, 224)",2,mbtiauth_5814
2664,"(484, 113, 3529)",3,mbtiauth_5814
2665,"(484, 151, 3)",2,mbtiauth_5814
2666,"(484, 151, 161)",2,mbtiauth_5814
2667,"(484, 160, 64)",2,mbtiauth_5814
2668,"(484, 160, 3529)",3,mbtiauth_5814
2669,"(484, 161, 3)",3,mbtiauth_5814
2670,"(484, 161, 22)",2,mbtiauth_5814
2671,"(484, 1184, 76)",2,mbtiauth_5814
2672,"(484, 1184, 160)",2,mbtiauth_5814
2673,"(484, 3529, 64)",2,mbtiauth_5814
2674,"(497, 3, 113)",2,mbtiauth_5814
2675,"(497, 3, 151)",2,mbtiauth_5814
2676,"(497, 16, 113)",2,mbtiauth_5814
2677,"(497, 22, 1079)",2,mbtiauth_5814
2678,"(497, 32, 22)",3,mbtiauth_5814
2679,"(497, 50, 3)",2,mbtiauth_5814
2680,"(497, 65, 151)",2,mbtiauth_5814
2681,"(497, 76, 342)",2,mbtiauth_5814
2682,"(497, 113, 3)",5,mbtiauth_5814
2683,"(497, 113, 7)",3,mbtiauth_5814
2684,"(497, 113, 64)",2,mbtiauth_5814
2685,"(497, 113, 113)",4,mbtiauth_5814
2686,"(497, 113, 151)",2,mbtiauth_5814
2687,"(497, 160, 22)",2,mbtiauth_5814
2688,"(497, 224, 3)",2,mbtiauth_5814
2689,"(497, 224, 113)",2,mbtiauth_5814
2690,"(497, 342, 1075)",2,mbtiauth_5814
2691,"(497, 375, 22)",2,mbtiauth_5814
2692,"(502, 76, 113)",2,mbtiauth_5814
2693,"(502, 113, 22)",2,mbtiauth_5814
2694,"(502, 113, 160)",2,mbtiauth_5814
2695,"(502, 160, 22)",2,mbtiauth_5814
2696,"(510, 250, 52)",2,mbtiauth_5814
2697,"(527, 3529, 64)",2,mbtiauth_5814
2698,"(528, 76, 557)",2,mbtiauth_5814
2699,"(528, 420, 76)",2,mbtiauth_5814
2700,"(557, 2, 484)",2,mbtiauth_5814
2701,"(557, 76, 2)",2,mbtiauth_5814
2702,"(557, 76, 484)",2,mbtiauth_5814
2703,"(557, 113, 113)",2,mbtiauth_5814
2704,"(557, 113, 213)",2,mbtiauth_5814
2705,"(598, 113, 7)",2,mbtiauth_5814
2706,"(635, 32, 76)",2,mbtiauth_5814
2707,"(635, 76, 32)",2,mbtiauth_5814
2708,"(635, 213, 2050)",2,mbtiauth_5814
2709,"(635, 2050, 113)",2,mbtiauth_5814
2710,"(636, 65, 32)",2,mbtiauth_5814
2711,"(636, 342, 32)",2,mbtiauth_5814
2712,"(636, 342, 65)",2,mbtiauth_5814
2713,"(641, 22, 32)",2,mbtiauth_5814
2714,"(641, 64, 41)",2,mbtiauth_5814
2715,"(641, 151, 7)",2,mbtiauth_5814
2716,"(641, 340, 65)",2,mbtiauth_5814
2717,"(648, 160, 76)",2,mbtiauth_5814
2718,"(658, 7, 64)",2,mbtiauth_5814
2719,"(772, 168, 32)",2,mbtiauth_5814
2720,"(772, 168, 113)",2,mbtiauth_5814
2721,"(814, 22, 250)",2,mbtiauth_5814
2722,"(814, 22, 251)",2,mbtiauth_5814
2723,"(814, 32, 52)",2,mbtiauth_5814
2724,"(814, 32, 76)",2,mbtiauth_5814
2725,"(814, 32, 250)",2,mbtiauth_5814
2726,"(814, 32, 251)",2,mbtiauth_5814
2727,"(814, 52, 76)",2,mbtiauth_5814
2728,"(814, 201, 52)",2,mbtiauth_5814
2729,"(814, 201, 76)",2,mbtiauth_5814
2730,"(814, 250, 251)",2,mbtiauth_5814
2731,"(860, 76, 497)",2,mbtiauth_5814
2732,"(1017, 342, 16)",2,mbtiauth_5814
2733,"(1036, 502, 113)",2,mbtiauth_5814
2734,"(1075, 50, 153)",2,mbtiauth_5814
2735,"(1079, 52, 76)",2,mbtiauth_5814
2736,"(1097, 76, 22)",2,mbtiauth_5814
2737,"(1100, 32, 213)",3,mbtiauth_5814
2738,"(1108, 149, 16)",2,mbtiauth_5814
2739,"(1120, 77, 463)",2,mbtiauth_5814
2740,"(1157, 22, 76)",3,mbtiauth_5814
2741,"(1157, 22, 113)",2,mbtiauth_5814
2742,"(1157, 22, 1060)",2,mbtiauth_5814
2743,"(1157, 1060, 76)",2,mbtiauth_5814
2744,"(1184, 64, 113)",2,mbtiauth_5814
2745,"(1184, 76, 497)",2,mbtiauth_5814
2746,"(1184, 113, 7)",2,mbtiauth_5814
2747,"(1184, 384, 7)",2,mbtiauth_5814
2748,"(1184, 384, 113)",2,mbtiauth_5814
2749,"(1184, 384, 497)",2,mbtiauth_5814
2750,"(1203, 65, 7)",2,mbtiauth_5814
2751,"(1203, 65, 64)",2,mbtiauth_5814
2752,"(1227, 65, 76)",2,mbtiauth_5814
2753,"(1227, 65, 2636)",2,mbtiauth_5814
2754,"(1227, 76, 65)",2,mbtiauth_5814
2755,"(1227, 76, 557)",2,mbtiauth_5814
2756,"(1227, 250, 67)",2,mbtiauth_5814
2757,"(1227, 557, 65)",2,mbtiauth_5814
2758,"(1227, 2636, 76)",2,mbtiauth_5814
2759,"(1615, 64, 2)",2,mbtiauth_5814
2760,"(1615, 64, 248)",2,mbtiauth_5814
2761,"(1615, 248, 2)",2,mbtiauth_5814
2762,"(1631, 388, 77)",2,mbtiauth_5814
2763,"(1635, 76, 76)",2,mbtiauth_5814
2764,"(1745, 77, 77)",2,mbtiauth_5814
2765,"(1913, 15, 6631)",2,mbtiauth_5814
2766,"(2050, 76, 77)",2,mbtiauth_5814
2767,"(2050, 113, 113)",2,mbtiauth_5814
2768,"(2448, 113, 64)",2,mbtiauth_5814
2769,"(2709, 52, 847)",2,mbtiauth_5814
2770,"(2920, 29, 52)",2,mbtiauth_5814
2771,"(2952, 160, 22)",2,mbtiauth_5814
2772,"(3390, 64, 77)",2,mbtiauth_5814
2773,"(3446, 2227, 76)",2,mbtiauth_5814
2774,"(3529, 3, 76)",2,mbtiauth_5814
2775,"(3529, 50, 76)",2,mbtiauth_5814
2776,"(3529, 50, 113)",2,mbtiauth_5814
2777,"(3529, 50, 251)",2,mbtiauth_5814
2778,"(3529, 64, 76)",4,mbtiauth_5814
2779,"(3529, 64, 113)",4,mbtiauth_5814
2780,"(3529, 76, 65)",2,mbtiauth_5814
2781,"(3529, 76, 113)",4,mbtiauth_5814
2782,"(3529, 76, 168)",2,mbtiauth_5814
2783,"(3529, 76, 497)",2,mbtiauth_5814
2784,"(3529, 77, 32)",3,mbtiauth_5814
2785,"(3529, 205, 50)",2,mbtiauth_5814
2786,"(3529, 205, 65)",2,mbtiauth_5814
2787,"(3529, 205, 76)",2,mbtiauth_5814
2788,"(3529, 205, 251)",2,mbtiauth_5814
2789,"(3529, 250, 65)",2,mbtiauth_5814
2790,"(3529, 250, 76)",3,mbtiauth_5814
2791,"(3699, 2, 6631)",2,mbtiauth_5814
2792,"(3699, 31, 22)",2,mbtiauth_5814
2793,"(3699, 31, 251)",2,mbtiauth_5814
2794,"(4564, 22, 3)",3,mbtiauth_5814
2795,"(4564, 22, 868)",3,mbtiauth_5814
2796,"(4564, 868, 3)",3,mbtiauth_5814
2797,"(6631, 113, 118)",2,mbtiauth_5814
2798,"(8496, 3, 65)",2,mbtiauth_5814
2799,"(13966, 77, 3)",2,mbtiauth_5814
2800,"(13966, 113, 3)",2,mbtiauth_5814
2801,"(13966, 113, 77)",2,mbtiauth_5814
2802,"(14900, 247, 32)",2,mbtiauth_5814
2803,"(16005, 1017, 113)",2,mbtiauth_5814
2804,"(16005, 1017, 342)",2,mbtiauth_5814
2805,"(20482, 76, 497)",2,mbtiauth_5814
2806,"(49464, 76, 113)",2,mbtiauth_5814
2807,"(2, 22, 76, 557)",2,mbtiauth_5814
2808,"(2, 113, 194, 149)",2,mbtiauth_5814
2809,"(2, 201, 76, 557)",2,mbtiauth_5814
2810,"(3, 29, 141, 41)",2,mbtiauth_5814
2811,"(3, 65, 658, 3)",2,mbtiauth_5814
2812,"(3, 65, 2151, 648)",2,mbtiauth_5814
2813,"(3, 76, 76, 2)",2,mbtiauth_5814
2814,"(3, 76, 113, 113)",2,mbtiauth_5814
2815,"(3, 76, 497, 22)",2,mbtiauth_5814
2816,"(3, 76, 497, 375)",2,mbtiauth_5814
2817,"(3, 76, 557, 2)",2,mbtiauth_5814
2818,"(3, 76, 557, 76)",2,mbtiauth_5814
2819,"(3, 151, 342, 16)",2,mbtiauth_5814
2820,"(3, 151, 3529, 7)",2,mbtiauth_5814
2821,"(3, 497, 113, 113)",2,mbtiauth_5814
2822,"(3, 557, 76, 2)",2,mbtiauth_5814
2823,"(3, 636, 342, 65)",2,mbtiauth_5814
2824,"(5, 76, 484, 113)",2,mbtiauth_5814
2825,"(7, 52, 160, 76)",2,mbtiauth_5814
2826,"(7, 76, 497, 22)",2,mbtiauth_5814
2827,"(10, 76, 497, 113)",2,mbtiauth_5814
2828,"(10, 772, 168, 32)",2,mbtiauth_5814
2829,"(10, 772, 168, 113)",2,mbtiauth_5814
2830,"(16, 32, 76, 113)",2,mbtiauth_5814
2831,"(16, 76, 113, 50)",2,mbtiauth_5814
2832,"(16, 168, 32, 76)",2,mbtiauth_5814
2833,"(16, 168, 32, 113)",2,mbtiauth_5814
2834,"(16, 168, 76, 113)",2,mbtiauth_5814
2835,"(16, 1075, 50, 153)",2,mbtiauth_5814
2836,"(22, 32, 29, 52)",2,mbtiauth_5814
2837,"(22, 32, 151, 15)",2,mbtiauth_5814
2838,"(22, 32, 250, 251)",2,mbtiauth_5814
2839,"(22, 76, 557, 113)",2,mbtiauth_5814
2840,"(22, 151, 52, 76)",2,mbtiauth_5814
2841,"(22, 250, 251, 76)",2,mbtiauth_5814
2842,"(22, 251, 76, 484)",2,mbtiauth_5814
2843,"(22, 1079, 52, 76)",2,mbtiauth_5814
2844,"(22, 2709, 52, 847)",2,mbtiauth_5814
2845,"(22, 14900, 247, 32)",2,mbtiauth_5814
2846,"(29, 52, 76, 113)",2,mbtiauth_5814
2847,"(29, 52, 76, 484)",2,mbtiauth_5814
2848,"(32, 15, 41, 141)",2,mbtiauth_5814
2849,"(32, 52, 847, 76)",2,mbtiauth_5814
2850,"(32, 76, 484, 113)",2,mbtiauth_5814
2851,"(32, 151, 3, 3529)",2,mbtiauth_5814
2852,"(32, 151, 15, 41)",2,mbtiauth_5814
2853,"(32, 151, 15, 141)",2,mbtiauth_5814
2854,"(32, 151, 41, 141)",2,mbtiauth_5814
2855,"(41, 113, 52, 76)",2,mbtiauth_5814
2856,"(50, 52, 76, 557)",2,mbtiauth_5814
2857,"(64, 2, 113, 194)",2,mbtiauth_5814
2858,"(64, 3, 76, 113)",2,mbtiauth_5814
2859,"(64, 10, 168, 32)",2,mbtiauth_5814
2860,"(64, 10, 772, 32)",2,mbtiauth_5814
2861,"(64, 10, 772, 168)",2,mbtiauth_5814
2862,"(64, 22, 1060, 76)",2,mbtiauth_5814
2863,"(64, 29, 76, 3)",2,mbtiauth_5814
2864,"(64, 64, 76, 113)",2,mbtiauth_5814
2865,"(64, 76, 113, 194)",2,mbtiauth_5814
2866,"(64, 76, 557, 22)",2,mbtiauth_5814
2867,"(64, 77, 1120, 77)",2,mbtiauth_5814
2868,"(64, 160, 76, 557)",2,mbtiauth_5814
2869,"(64, 772, 168, 32)",2,mbtiauth_5814
2870,"(64, 1157, 22, 76)",2,mbtiauth_5814
2871,"(64, 1157, 22, 1060)",2,mbtiauth_5814
2872,"(64, 1157, 1060, 76)",2,mbtiauth_5814
2873,"(64, 1227, 250, 67)",2,mbtiauth_5814
2874,"(65, 497, 113, 3)",2,mbtiauth_5814
2875,"(65, 658, 7, 64)",2,mbtiauth_5814
2876,"(65, 1100, 32, 213)",3,mbtiauth_5814
2877,"(65, 1227, 250, 67)",2,mbtiauth_5814
2878,"(69, 113, 250, 77)",2,mbtiauth_5814
2879,"(76, 2, 113, 3)",2,mbtiauth_5814
2880,"(76, 2, 113, 15)",2,mbtiauth_5814
2881,"(76, 2, 113, 194)",2,mbtiauth_5814
2882,"(76, 2, 161, 3)",2,mbtiauth_5814
2883,"(76, 2, 484, 3)",2,mbtiauth_5814
2884,"(76, 3, 65, 251)",2,mbtiauth_5814
2885,"(76, 3, 65, 658)",2,mbtiauth_5814
2886,"(76, 10, 772, 168)",2,mbtiauth_5814
2887,"(76, 22, 3, 65)",2,mbtiauth_5814
2888,"(76, 22, 868, 3)",2,mbtiauth_5814
2889,"(76, 65, 32, 213)",3,mbtiauth_5814
2890,"(76, 65, 1100, 32)",3,mbtiauth_5814
2891,"(76, 65, 1100, 213)",3,mbtiauth_5814
2892,"(76, 77, 32, 213)",2,mbtiauth_5814
2893,"(76, 77, 65, 32)",2,mbtiauth_5814
2894,"(76, 77, 65, 213)",2,mbtiauth_5814
2895,"(76, 77, 65, 1100)",2,mbtiauth_5814
2896,"(76, 77, 1100, 32)",2,mbtiauth_5814
2897,"(76, 77, 1100, 213)",2,mbtiauth_5814
2898,"(76, 113, 3, 22)",2,mbtiauth_5814
2899,"(76, 113, 3, 65)",2,mbtiauth_5814
2900,"(76, 113, 7, 32)",2,mbtiauth_5814
2901,"(76, 113, 7, 527)",2,mbtiauth_5814
2902,"(76, 113, 76, 2)",2,mbtiauth_5814
2903,"(76, 113, 113, 364)",2,mbtiauth_5814
2904,"(76, 113, 118, 113)",3,mbtiauth_5814
2905,"(76, 113, 118, 194)",2,mbtiauth_5814
2906,"(76, 113, 118, 364)",2,mbtiauth_5814
2907,"(76, 113, 161, 3)",2,mbtiauth_5814
2908,"(76, 113, 194, 3)",2,mbtiauth_5814
2909,"(76, 113, 194, 113)",2,mbtiauth_5814
2910,"(76, 113, 194, 149)",2,mbtiauth_5814
2911,"(76, 113, 194, 161)",2,mbtiauth_5814
2912,"(76, 113, 194, 364)",2,mbtiauth_5814
2913,"(76, 113, 527, 3529)",2,mbtiauth_5814
2914,"(76, 118, 113, 364)",2,mbtiauth_5814
2915,"(76, 118, 194, 113)",2,mbtiauth_5814
2916,"(76, 118, 194, 364)",2,mbtiauth_5814
2917,"(76, 160, 22, 2709)",2,mbtiauth_5814
2918,"(76, 194, 113, 364)",2,mbtiauth_5814
2919,"(76, 194, 161, 3)",2,mbtiauth_5814
2920,"(76, 342, 16, 1075)",2,mbtiauth_5814
2921,"(76, 484, 113, 160)",3,mbtiauth_5814
2922,"(76, 484, 113, 224)",2,mbtiauth_5814
2923,"(76, 497, 22, 1079)",2,mbtiauth_5814
2924,"(76, 497, 32, 22)",3,mbtiauth_5814
2925,"(76, 497, 50, 3)",2,mbtiauth_5814
2926,"(76, 497, 65, 151)",2,mbtiauth_5814
2927,"(76, 497, 113, 3)",3,mbtiauth_5814
2928,"(76, 497, 113, 113)",2,mbtiauth_5814
2929,"(76, 497, 113, 151)",2,mbtiauth_5814
2930,"(76, 497, 160, 22)",2,mbtiauth_5814
2931,"(76, 497, 375, 22)",2,mbtiauth_5814
2932,"(76, 557, 76, 2)",2,mbtiauth_5814
2933,"(76, 557, 113, 113)",2,mbtiauth_5814
2934,"(76, 557, 113, 213)",2,mbtiauth_5814
2935,"(76, 635, 2050, 113)",2,mbtiauth_5814
2936,"(76, 1100, 32, 213)",3,mbtiauth_5814
2937,"(76, 4564, 22, 3)",2,mbtiauth_5814
2938,"(76, 4564, 22, 868)",3,mbtiauth_5814
2939,"(76, 4564, 868, 3)",2,mbtiauth_5814
2940,"(77, 3, 2, 149)",2,mbtiauth_5814
2941,"(77, 65, 32, 213)",2,mbtiauth_5814
2942,"(77, 65, 1100, 32)",2,mbtiauth_5814
2943,"(77, 65, 1100, 213)",2,mbtiauth_5814
2944,"(77, 1100, 32, 213)",2,mbtiauth_5814
2945,"(77, 1120, 77, 463)",2,mbtiauth_5814
2946,"(113, 3, 76, 497)",2,mbtiauth_5814
2947,"(113, 50, 52, 76)",2,mbtiauth_5814
2948,"(113, 52, 76, 3)",2,mbtiauth_5814
2949,"(113, 52, 160, 76)",2,mbtiauth_5814
2950,"(113, 64, 52, 76)",2,mbtiauth_5814
2951,"(113, 64, 77, 77)",2,mbtiauth_5814
2952,"(113, 64, 77, 1120)",2,mbtiauth_5814
2953,"(113, 64, 1120, 77)",2,mbtiauth_5814
2954,"(113, 76, 2, 113)",2,mbtiauth_5814
2955,"(113, 76, 113, 3)",2,mbtiauth_5814
2956,"(113, 76, 497, 160)",2,mbtiauth_5814
2957,"(113, 76, 557, 113)",2,mbtiauth_5814
2958,"(113, 77, 1120, 77)",2,mbtiauth_5814
2959,"(113, 118, 76, 113)",2,mbtiauth_5814
2960,"(113, 118, 113, 364)",2,mbtiauth_5814
2961,"(113, 118, 124, 64)",2,mbtiauth_5814
2962,"(113, 118, 194, 113)",2,mbtiauth_5814
2963,"(113, 118, 194, 364)",2,mbtiauth_5814
2964,"(113, 118, 326, 224)",2,mbtiauth_5814
2965,"(113, 155, 64, 3)",2,mbtiauth_5814
2966,"(113, 160, 250, 76)",2,mbtiauth_5814
2967,"(113, 160, 3529, 64)",2,mbtiauth_5814
2968,"(113, 161, 3, 22)",2,mbtiauth_5814
2969,"(113, 194, 113, 364)",2,mbtiauth_5814
2970,"(113, 194, 161, 3)",2,mbtiauth_5814
2971,"(113, 224, 113, 7)",2,mbtiauth_5814
2972,"(113, 224, 250, 64)",2,mbtiauth_5814
2973,"(113, 250, 76, 77)",2,mbtiauth_5814
2974,"(113, 250, 76, 497)",2,mbtiauth_5814
2975,"(113, 250, 77, 3)",2,mbtiauth_5814
2976,"(113, 250, 113, 3)",2,mbtiauth_5814
2977,"(113, 250, 113, 77)",2,mbtiauth_5814
2978,"(113, 250, 251, 113)",2,mbtiauth_5814
2979,"(113, 250, 2050, 113)",2,mbtiauth_5814
2980,"(113, 250, 13966, 77)",2,mbtiauth_5814
2981,"(113, 250, 13966, 113)",2,mbtiauth_5814
2982,"(113, 277, 182, 113)",2,mbtiauth_5814
2983,"(113, 326, 224, 64)",2,mbtiauth_5814
2984,"(113, 3529, 250, 76)",2,mbtiauth_5814
2985,"(113, 13966, 113, 77)",2,mbtiauth_5814
2986,"(115, 250, 65, 64)",2,mbtiauth_5814
2987,"(115, 250, 1203, 64)",2,mbtiauth_5814
2988,"(115, 250, 1203, 65)",2,mbtiauth_5814
2989,"(115, 1203, 65, 64)",2,mbtiauth_5814
2990,"(118, 194, 113, 364)",2,mbtiauth_5814
2991,"(148, 150, 76, 113)",2,mbtiauth_5814
2992,"(151, 15, 41, 141)",2,mbtiauth_5814
2993,"(151, 16, 32, 153)",2,mbtiauth_5814
2994,"(151, 16, 1075, 50)",2,mbtiauth_5814
2995,"(151, 113, 250, 3)",2,mbtiauth_5814
2996,"(151, 342, 16, 32)",2,mbtiauth_5814
2997,"(151, 342, 16, 50)",2,mbtiauth_5814
2998,"(151, 342, 16, 76)",2,mbtiauth_5814
2999,"(151, 342, 16, 153)",2,mbtiauth_5814
3000,"(151, 342, 16, 1075)",2,mbtiauth_5814
3001,"(151, 342, 32, 153)",2,mbtiauth_5814
3002,"(151, 342, 1075, 50)",2,mbtiauth_5814
3003,"(160, 22, 52, 847)",2,mbtiauth_5814
3004,"(160, 22, 342, 1075)",2,mbtiauth_5814
3005,"(160, 22, 2709, 52)",2,mbtiauth_5814
3006,"(160, 22, 2709, 847)",2,mbtiauth_5814
3007,"(160, 64, 76, 113)",2,mbtiauth_5814
3008,"(160, 76, 557, 22)",2,mbtiauth_5814
3009,"(160, 2709, 52, 847)",2,mbtiauth_5814
3010,"(160, 3529, 64, 76)",2,mbtiauth_5814
3011,"(160, 3529, 64, 113)",4,mbtiauth_5814
3012,"(160, 3529, 76, 113)",2,mbtiauth_5814
3013,"(168, 32, 76, 113)",3,mbtiauth_5814
3014,"(168, 338, 32, 76)",3,mbtiauth_5814
3015,"(168, 338, 32, 113)",2,mbtiauth_5814
3016,"(168, 338, 76, 113)",2,mbtiauth_5814
3017,"(182, 641, 22, 32)",2,mbtiauth_5814
3018,"(194, 69, 1277, 2050)",2,mbtiauth_5814
3019,"(194, 250, 13966, 113)",2,mbtiauth_5814
3020,"(201, 52, 76, 32)",2,mbtiauth_5814
3021,"(201, 76, 557, 113)",2,mbtiauth_5814
3022,"(205, 22, 151, 52)",2,mbtiauth_5814
3023,"(205, 50, 52, 76)",2,mbtiauth_5814
3024,"(205, 251, 76, 484)",2,mbtiauth_5814
3025,"(205, 251, 151, 76)",2,mbtiauth_5814
3026,"(205, 251, 151, 200)",2,mbtiauth_5814
3027,"(224, 113, 7, 64)",2,mbtiauth_5814
3028,"(248, 76, 2, 113)",2,mbtiauth_5814
3029,"(250, 64, 32, 41)",2,mbtiauth_5814
3030,"(250, 64, 76, 557)",2,mbtiauth_5814
3031,"(250, 65, 32, 7)",2,mbtiauth_5814
3032,"(250, 65, 64, 7)",2,mbtiauth_5814
3033,"(250, 76, 77, 65)",2,mbtiauth_5814
3034,"(250, 76, 113, 65)",2,mbtiauth_5814
3035,"(250, 76, 484, 113)",2,mbtiauth_5814
3036,"(250, 76, 484, 224)",2,mbtiauth_5814
3037,"(250, 201, 52, 76)",2,mbtiauth_5814
3038,"(250, 205, 52, 76)",2,mbtiauth_5814
3039,"(250, 205, 151, 76)",2,mbtiauth_5814
3040,"(250, 205, 251, 76)",2,mbtiauth_5814
3041,"(250, 205, 251, 151)",2,mbtiauth_5814
3042,"(250, 251, 76, 65)",2,mbtiauth_5814
3043,"(250, 251, 76, 113)",2,mbtiauth_5814
3044,"(250, 251, 76, 484)",3,mbtiauth_5814
3045,"(250, 251, 113, 65)",2,mbtiauth_5814
3046,"(250, 251, 151, 76)",2,mbtiauth_5814
3047,"(250, 1203, 65, 7)",2,mbtiauth_5814
3048,"(250, 1203, 65, 64)",2,mbtiauth_5814
3049,"(250, 13966, 113, 77)",2,mbtiauth_5814
3050,"(251, 76, 113, 65)",2,mbtiauth_5814
3051,"(338, 32, 76, 113)",2,mbtiauth_5814
3052,"(338, 32, 76, 497)",2,mbtiauth_5814
3053,"(342, 16, 16, 113)",2,mbtiauth_5814
3054,"(342, 16, 32, 153)",2,mbtiauth_5814
3055,"(342, 16, 50, 153)",2,mbtiauth_5814
3056,"(342, 16, 76, 113)",2,mbtiauth_5814
3057,"(342, 16, 153, 76)",2,mbtiauth_5814
3058,"(342, 16, 168, 32)",2,mbtiauth_5814
3059,"(342, 16, 1075, 32)",2,mbtiauth_5814
3060,"(342, 16, 1075, 50)",2,mbtiauth_5814
3061,"(342, 16, 1075, 113)",2,mbtiauth_5814
3062,"(342, 16, 1075, 153)",2,mbtiauth_5814
3063,"(342, 16, 3446, 1075)",2,mbtiauth_5814
3064,"(342, 64, 1227, 250)",2,mbtiauth_5814
3065,"(342, 65, 32, 213)",2,mbtiauth_5814
3066,"(342, 65, 1227, 250)",2,mbtiauth_5814
3067,"(342, 69, 1277, 2050)",2,mbtiauth_5814
3068,"(342, 168, 32, 76)",2,mbtiauth_5814
3069,"(342, 168, 338, 32)",2,mbtiauth_5814
3070,"(342, 168, 338, 76)",2,mbtiauth_5814
3071,"(342, 194, 69, 1277)",2,mbtiauth_5814
3072,"(342, 194, 69, 2050)",2,mbtiauth_5814
3073,"(342, 194, 113, 250)",2,mbtiauth_5814
3074,"(342, 194, 113, 2050)",2,mbtiauth_5814
3075,"(342, 194, 1277, 2050)",2,mbtiauth_5814
3076,"(342, 338, 32, 76)",2,mbtiauth_5814
3077,"(342, 528, 76, 557)",2,mbtiauth_5814
3078,"(342, 528, 420, 76)",2,mbtiauth_5814
3079,"(342, 1075, 50, 153)",2,mbtiauth_5814
3080,"(375, 3, 636, 342)",2,mbtiauth_5814
3081,"(375, 3, 1498, 3)",2,mbtiauth_5814
3082,"(375, 201, 52, 76)",2,mbtiauth_5814
3083,"(375, 814, 22, 250)",2,mbtiauth_5814
3084,"(375, 814, 32, 52)",2,mbtiauth_5814
3085,"(375, 814, 32, 250)",2,mbtiauth_5814
3086,"(420, 76, 65, 3390)",2,mbtiauth_5814
3087,"(484, 113, 160, 3529)",2,mbtiauth_5814
3088,"(484, 113, 161, 3)",2,mbtiauth_5814
3089,"(484, 151, 161, 3)",2,mbtiauth_5814
3090,"(484, 160, 3529, 64)",2,mbtiauth_5814
3091,"(497, 113, 3, 113)",2,mbtiauth_5814
3092,"(497, 224, 113, 3)",2,mbtiauth_5814
3093,"(502, 113, 160, 22)",2,mbtiauth_5814
3094,"(557, 76, 2, 484)",2,mbtiauth_5814
3095,"(636, 342, 65, 32)",2,mbtiauth_5814
3096,"(814, 22, 250, 251)",2,mbtiauth_5814
3097,"(814, 32, 250, 251)",2,mbtiauth_5814
3098,"(814, 201, 52, 76)",2,mbtiauth_5814
3099,"(1157, 22, 1060, 76)",2,mbtiauth_5814
3100,"(1184, 384, 113, 7)",2,mbtiauth_5814
3101,"(1227, 65, 2636, 76)",2,mbtiauth_5814
3102,"(1227, 76, 557, 65)",2,mbtiauth_5814
3103,"(1615, 64, 248, 2)",2,mbtiauth_5814
3104,"(3529, 64, 76, 113)",2,mbtiauth_5814
3105,"(3529, 205, 50, 76)",2,mbtiauth_5814
3106,"(3529, 205, 50, 251)",2,mbtiauth_5814
3107,"(4564, 22, 868, 3)",3,mbtiauth_5814
3108,"(13966, 113, 77, 3)",2,mbtiauth_5814
3109,"(3, 76, 557, 76, 2)",2,mbtiauth_5814
3110,"(16, 168, 32, 76, 113)",2,mbtiauth_5814
3111,"(32, 151, 15, 41, 141)",2,mbtiauth_5814
3112,"(64, 10, 772, 168, 32)",2,mbtiauth_5814
3113,"(64, 1157, 22, 1060, 76)",2,mbtiauth_5814
3114,"(76, 65, 1100, 32, 213)",3,mbtiauth_5814
3115,"(76, 77, 65, 32, 213)",2,mbtiauth_5814
3116,"(76, 77, 65, 1100, 32)",2,mbtiauth_5814
3117,"(76, 77, 65, 1100, 213)",2,mbtiauth_5814
3118,"(76, 77, 1100, 32, 213)",2,mbtiauth_5814
3119,"(76, 113, 118, 113, 364)",2,mbtiauth_5814
3120,"(76, 113, 118, 194, 113)",2,mbtiauth_5814
3121,"(76, 113, 118, 194, 364)",2,mbtiauth_5814
3122,"(76, 113, 194, 113, 364)",2,mbtiauth_5814
3123,"(76, 113, 194, 161, 3)",2,mbtiauth_5814
3124,"(76, 118, 194, 113, 364)",2,mbtiauth_5814
3125,"(76, 4564, 22, 868, 3)",2,mbtiauth_5814
3126,"(77, 65, 1100, 32, 213)",2,mbtiauth_5814
3127,"(113, 64, 77, 1120, 77)",2,mbtiauth_5814
3128,"(113, 118, 194, 113, 364)",2,mbtiauth_5814
3129,"(113, 250, 13966, 113, 77)",2,mbtiauth_5814
3130,"(115, 250, 1203, 65, 64)",2,mbtiauth_5814
3131,"(151, 342, 16, 32, 153)",2,mbtiauth_5814
3132,"(151, 342, 16, 1075, 50)",2,mbtiauth_5814
3133,"(160, 22, 2709, 52, 847)",2,mbtiauth_5814
3134,"(160, 3529, 64, 76, 113)",2,mbtiauth_5814
3135,"(168, 338, 32, 76, 113)",2,mbtiauth_5814
3136,"(250, 205, 251, 151, 76)",2,mbtiauth_5814
3137,"(250, 251, 76, 113, 65)",2,mbtiauth_5814
3138,"(342, 16, 1075, 50, 153)",2,mbtiauth_5814
3139,"(342, 168, 338, 32, 76)",2,mbtiauth_5814
3140,"(342, 194, 69, 1277, 2050)",2,mbtiauth_5814
3141,"(76, 77, 65, 1100, 32, 213)",2,mbtiauth_5814
3142,"(76, 113, 118, 194, 113, 364)",2,mbtiauth_5814
