,pattern,sup,author
677,"(3, 3, 22)",2,mbtiauth_7176
678,"(3, 3, 32)",2,mbtiauth_7176
679,"(3, 3, 66)",2,mbtiauth_7176
680,"(3, 10, 22)",2,mbtiauth_7176
681,"(3, 10, 65)",2,mbtiauth_7176
682,"(3, 10, 76)",3,mbtiauth_7176
683,"(3, 15, 32)",2,mbtiauth_7176
684,"(3, 15, 76)",2,mbtiauth_7176
685,"(3, 22, 76)",3,mbtiauth_7176
686,"(3, 32, 76)",2,mbtiauth_7176
687,"(3, 64, 3)",2,mbtiauth_7176
688,"(3, 64, 32)",2,mbtiauth_7176
689,"(3, 64, 65)",2,mbtiauth_7176
690,"(3, 64, 150)",2,mbtiauth_7176
691,"(3, 64, 363)",2,mbtiauth_7176
692,"(3, 65, 76)",3,mbtiauth_7176
693,"(3, 65, 150)",2,mbtiauth_7176
694,"(3, 65, 348)",2,mbtiauth_7176
695,"(3, 66, 76)",2,mbtiauth_7176
696,"(3, 76, 10)",2,mbtiauth_7176
697,"(3, 76, 76)",2,mbtiauth_7176
698,"(3, 76, 224)",2,mbtiauth_7176
699,"(3, 76, 557)",4,mbtiauth_7176
700,"(3, 77, 76)",2,mbtiauth_7176
701,"(3, 148, 150)",2,mbtiauth_7176
702,"(3, 173, 76)",2,mbtiauth_7176
703,"(3, 272, 3)",2,mbtiauth_7176
704,"(3, 305, 10)",2,mbtiauth_7176
705,"(3, 706, 64)",2,mbtiauth_7176
706,"(3, 1975, 2)",2,mbtiauth_7176
707,"(7, 65, 32)",2,mbtiauth_7176
708,"(8, 26, 22)",2,mbtiauth_7176
709,"(8, 28, 22)",2,mbtiauth_7176
710,"(8, 28, 26)",2,mbtiauth_7176
711,"(10, 3, 2)",2,mbtiauth_7176
712,"(10, 22, 32)",2,mbtiauth_7176
713,"(10, 22, 76)",2,mbtiauth_7176
714,"(10, 22, 510)",2,mbtiauth_7176
715,"(10, 65, 76)",2,mbtiauth_7176
716,"(10, 76, 557)",2,mbtiauth_7176
717,"(15, 32, 76)",2,mbtiauth_7176
718,"(22, 3, 2)",2,mbtiauth_7176
719,"(22, 3, 65)",2,mbtiauth_7176
720,"(22, 22, 22)",2,mbtiauth_7176
721,"(22, 32, 22)",2,mbtiauth_7176
722,"(22, 76, 113)",2,mbtiauth_7176
723,"(22, 151, 65)",2,mbtiauth_7176
724,"(26, 22, 10)",2,mbtiauth_7176
725,"(28, 22, 10)",2,mbtiauth_7176
726,"(28, 26, 10)",2,mbtiauth_7176
727,"(28, 26, 22)",2,mbtiauth_7176
728,"(32, 76, 151)",2,mbtiauth_7176
729,"(41, 7, 65)",2,mbtiauth_7176
730,"(41, 305, 236)",2,mbtiauth_7176
731,"(50, 13, 76)",2,mbtiauth_7176
732,"(64, 3, 10)",2,mbtiauth_7176
733,"(64, 3, 22)",3,mbtiauth_7176
734,"(64, 3, 65)",3,mbtiauth_7176
735,"(64, 3, 76)",3,mbtiauth_7176
736,"(64, 3, 113)",2,mbtiauth_7176
737,"(64, 10, 22)",2,mbtiauth_7176
738,"(64, 10, 65)",2,mbtiauth_7176
739,"(64, 64, 3)",2,mbtiauth_7176
740,"(64, 65, 150)",2,mbtiauth_7176
741,"(64, 76, 76)",2,mbtiauth_7176
742,"(64, 76, 113)",2,mbtiauth_7176
743,"(64, 76, 557)",3,mbtiauth_7176
744,"(64, 113, 76)",2,mbtiauth_7176
745,"(64, 113, 557)",2,mbtiauth_7176
746,"(64, 363, 32)",2,mbtiauth_7176
747,"(65, 10, 65)",2,mbtiauth_7176
748,"(65, 32, 76)",2,mbtiauth_7176
749,"(65, 76, 7)",2,mbtiauth_7176
750,"(65, 76, 41)",2,mbtiauth_7176
751,"(65, 76, 557)",2,mbtiauth_7176
752,"(65, 340, 41)",2,mbtiauth_7176
753,"(69, 76, 22)",2,mbtiauth_7176
754,"(76, 3, 2)",2,mbtiauth_7176
755,"(76, 3, 10)",2,mbtiauth_7176
756,"(76, 3, 64)",2,mbtiauth_7176
757,"(76, 3, 65)",2,mbtiauth_7176
758,"(76, 7, 65)",3,mbtiauth_7176
759,"(76, 10, 22)",2,mbtiauth_7176
760,"(76, 16, 64)",2,mbtiauth_7176
761,"(76, 22, 3)",2,mbtiauth_7176
762,"(76, 41, 7)",2,mbtiauth_7176
763,"(76, 41, 22)",2,mbtiauth_7176
764,"(76, 41, 76)",2,mbtiauth_7176
765,"(76, 41, 194)",2,mbtiauth_7176
766,"(76, 64, 3)",2,mbtiauth_7176
767,"(76, 65, 10)",2,mbtiauth_7176
768,"(76, 76, 3)",2,mbtiauth_7176
769,"(76, 76, 22)",2,mbtiauth_7176
770,"(76, 76, 69)",2,mbtiauth_7176
771,"(76, 76, 342)",2,mbtiauth_7176
772,"(76, 76, 557)",3,mbtiauth_7176
773,"(76, 113, 2)",2,mbtiauth_7176
774,"(76, 113, 3)",2,mbtiauth_7176
775,"(76, 113, 10)",2,mbtiauth_7176
776,"(76, 113, 22)",3,mbtiauth_7176
777,"(76, 113, 1975)",2,mbtiauth_7176
778,"(76, 131, 3)",2,mbtiauth_7176
779,"(76, 151, 3)",2,mbtiauth_7176
780,"(76, 221, 64)",2,mbtiauth_7176
781,"(76, 224, 7)",2,mbtiauth_7176
782,"(76, 224, 41)",2,mbtiauth_7176
783,"(76, 224, 76)",3,mbtiauth_7176
784,"(76, 342, 64)",3,mbtiauth_7176
785,"(76, 484, 3)",2,mbtiauth_7176
786,"(76, 510, 41)",2,mbtiauth_7176
787,"(76, 557, 3)",2,mbtiauth_7176
788,"(76, 557, 41)",2,mbtiauth_7176
789,"(76, 557, 64)",2,mbtiauth_7176
790,"(76, 557, 131)",2,mbtiauth_7176
791,"(76, 557, 200)",2,mbtiauth_7176
792,"(76, 557, 340)",2,mbtiauth_7176
793,"(76, 557, 342)",2,mbtiauth_7176
794,"(76, 783, 151)",2,mbtiauth_7176
795,"(76, 1565, 7)",2,mbtiauth_7176
796,"(76, 1565, 65)",2,mbtiauth_7176
797,"(76, 1975, 2)",2,mbtiauth_7176
798,"(113, 3, 13)",2,mbtiauth_7176
799,"(113, 3, 64)",2,mbtiauth_7176
800,"(113, 3, 65)",2,mbtiauth_7176
801,"(113, 3, 76)",2,mbtiauth_7176
802,"(113, 7, 64)",2,mbtiauth_7176
803,"(113, 10, 76)",2,mbtiauth_7176
804,"(113, 64, 3)",2,mbtiauth_7176
805,"(113, 64, 76)",2,mbtiauth_7176
806,"(113, 64, 113)",2,mbtiauth_7176
807,"(113, 65, 76)",2,mbtiauth_7176
808,"(113, 69, 65)",3,mbtiauth_7176
809,"(113, 76, 76)",2,mbtiauth_7176
810,"(113, 76, 113)",2,mbtiauth_7176
811,"(113, 76, 158)",2,mbtiauth_7176
812,"(113, 76, 342)",2,mbtiauth_7176
813,"(113, 76, 557)",2,mbtiauth_7176
814,"(113, 113, 65)",2,mbtiauth_7176
815,"(113, 118, 10)",2,mbtiauth_7176
816,"(113, 118, 65)",2,mbtiauth_7176
817,"(113, 118, 69)",2,mbtiauth_7176
818,"(113, 124, 10)",2,mbtiauth_7176
819,"(113, 124, 165)",2,mbtiauth_7176
820,"(113, 194, 65)",2,mbtiauth_7176
821,"(113, 250, 3)",2,mbtiauth_7176
822,"(113, 272, 3)",2,mbtiauth_7176
823,"(113, 272, 22)",2,mbtiauth_7176
824,"(113, 340, 2)",2,mbtiauth_7176
825,"(113, 340, 92)",2,mbtiauth_7176
826,"(113, 340, 113)",2,mbtiauth_7176
827,"(113, 340, 165)",2,mbtiauth_7176
828,"(113, 340, 374)",2,mbtiauth_7176
829,"(113, 510, 64)",2,mbtiauth_7176
830,"(113, 557, 113)",2,mbtiauth_7176
831,"(113, 999, 76)",2,mbtiauth_7176
832,"(113, 1640, 65)",2,mbtiauth_7176
833,"(113, 1640, 69)",3,mbtiauth_7176
834,"(113, 1975, 2)",2,mbtiauth_7176
835,"(113, 14683, 1163)",2,mbtiauth_7176
836,"(115, 50, 64)",2,mbtiauth_7176
837,"(115, 50, 76)",2,mbtiauth_7176
838,"(115, 50, 113)",2,mbtiauth_7176
839,"(118, 69, 65)",2,mbtiauth_7176
840,"(131, 340, 32)",2,mbtiauth_7176
841,"(141, 41, 326)",2,mbtiauth_7176
842,"(141, 64, 3)",2,mbtiauth_7176
843,"(151, 3, 1554)",2,mbtiauth_7176
844,"(151, 208, 3)",2,mbtiauth_7176
845,"(182, 76, 22)",2,mbtiauth_7176
846,"(185, 312, 216)",2,mbtiauth_7176
847,"(187, 64, 3)",3,mbtiauth_7176
848,"(189, 305, 10)",2,mbtiauth_7176
849,"(194, 76, 3)",2,mbtiauth_7176
850,"(194, 76, 64)",2,mbtiauth_7176
851,"(194, 76, 65)",2,mbtiauth_7176
852,"(195, 224, 113)",2,mbtiauth_7176
853,"(200, 156, 64)",2,mbtiauth_7176
854,"(224, 41, 7)",2,mbtiauth_7176
855,"(224, 41, 76)",2,mbtiauth_7176
856,"(234, 272, 32)",2,mbtiauth_7176
857,"(236, 76, 41)",2,mbtiauth_7176
858,"(236, 76, 557)",2,mbtiauth_7176
859,"(236, 557, 41)",2,mbtiauth_7176
860,"(272, 3, 161)",2,mbtiauth_7176
861,"(273, 141, 41)",2,mbtiauth_7176
862,"(305, 3, 229)",2,mbtiauth_7176
863,"(305, 10, 76)",2,mbtiauth_7176
864,"(305, 10, 557)",2,mbtiauth_7176
865,"(305, 76, 557)",2,mbtiauth_7176
866,"(312, 76, 76)",2,mbtiauth_7176
867,"(340, 2, 131)",2,mbtiauth_7176
868,"(340, 41, 2)",2,mbtiauth_7176
869,"(340, 65, 2)",2,mbtiauth_7176
870,"(340, 3845, 3)",2,mbtiauth_7176
871,"(342, 10, 374)",2,mbtiauth_7176
872,"(342, 64, 22)",2,mbtiauth_7176
873,"(342, 76, 557)",2,mbtiauth_7176
874,"(342, 77, 113)",2,mbtiauth_7176
875,"(342, 363, 32)",2,mbtiauth_7176
876,"(342, 400, 76)",2,mbtiauth_7176
877,"(342, 400, 557)",2,mbtiauth_7176
878,"(342, 463, 64)",2,mbtiauth_7176
879,"(400, 76, 557)",2,mbtiauth_7176
880,"(484, 151, 3)",2,mbtiauth_7176
881,"(484, 151, 208)",2,mbtiauth_7176
882,"(484, 208, 3)",2,mbtiauth_7176
883,"(510, 41, 31)",2,mbtiauth_7176
884,"(510, 64, 3)",2,mbtiauth_7176
885,"(510, 187, 3)",2,mbtiauth_7176
886,"(510, 187, 64)",2,mbtiauth_7176
887,"(557, 41, 65)",2,mbtiauth_7176
888,"(557, 131, 3)",2,mbtiauth_7176
889,"(699, 64, 64)",2,mbtiauth_7176
890,"(786, 342, 10)",2,mbtiauth_7176
891,"(1565, 7, 65)",2,mbtiauth_7176
892,"(1640, 69, 65)",2,mbtiauth_7176
893,"(2049, 76, 22)",2,mbtiauth_7176
894,"(2726, 64, 3)",2,mbtiauth_7176
895,"(3845, 3, 64)",2,mbtiauth_7176
896,"(3, 10, 22, 76)",2,mbtiauth_7176
897,"(3, 15, 32, 76)",2,mbtiauth_7176
898,"(3, 64, 65, 150)",2,mbtiauth_7176
899,"(8, 28, 26, 22)",2,mbtiauth_7176
900,"(28, 26, 22, 10)",2,mbtiauth_7176
901,"(64, 3, 10, 22)",2,mbtiauth_7176
902,"(64, 113, 76, 557)",2,mbtiauth_7176
903,"(76, 113, 1975, 2)",2,mbtiauth_7176
904,"(76, 224, 41, 76)",2,mbtiauth_7176
905,"(76, 557, 131, 3)",2,mbtiauth_7176
906,"(76, 1565, 7, 65)",2,mbtiauth_7176
907,"(113, 76, 76, 342)",2,mbtiauth_7176
908,"(113, 118, 69, 65)",2,mbtiauth_7176
909,"(113, 1640, 69, 65)",2,mbtiauth_7176
910,"(236, 76, 557, 41)",2,mbtiauth_7176
911,"(305, 10, 76, 557)",2,mbtiauth_7176
912,"(342, 400, 76, 557)",2,mbtiauth_7176
913,"(484, 151, 208, 3)",2,mbtiauth_7176
914,"(510, 187, 64, 3)",2,mbtiauth_7176
