,pattern,sup,author
588,"(2, 22, 76)",2,mbtiauth_8566
589,"(2, 64, 113)",2,mbtiauth_8566
590,"(2, 64, 694)",2,mbtiauth_8566
591,"(2, 76, 113)",3,mbtiauth_8566
592,"(2, 113, 64)",2,mbtiauth_8566
593,"(2, 113, 113)",2,mbtiauth_8566
594,"(2, 148, 113)",2,mbtiauth_8566
595,"(2, 342, 64)",2,mbtiauth_8566
596,"(2, 342, 113)",3,mbtiauth_8566
597,"(2, 342, 694)",2,mbtiauth_8566
598,"(3, 41, 244)",3,mbtiauth_8566
599,"(3, 76, 340)",2,mbtiauth_8566
600,"(3, 182, 65)",2,mbtiauth_8566
601,"(7, 64, 7)",2,mbtiauth_8566
602,"(7, 64, 113)",2,mbtiauth_8566
603,"(7, 64, 895)",2,mbtiauth_8566
604,"(7, 65, 7)",2,mbtiauth_8566
605,"(7, 65, 64)",2,mbtiauth_8566
606,"(7, 65, 65)",2,mbtiauth_8566
607,"(7, 65, 113)",2,mbtiauth_8566
608,"(7, 65, 342)",2,mbtiauth_8566
609,"(7, 65, 463)",2,mbtiauth_8566
610,"(7, 65, 895)",2,mbtiauth_8566
611,"(7, 76, 65)",2,mbtiauth_8566
612,"(7, 113, 7)",2,mbtiauth_8566
613,"(7, 151, 999)",3,mbtiauth_8566
614,"(7, 151, 2078)",2,mbtiauth_8566
615,"(7, 342, 7)",2,mbtiauth_8566
616,"(7, 342, 64)",2,mbtiauth_8566
617,"(7, 342, 113)",2,mbtiauth_8566
618,"(7, 342, 463)",2,mbtiauth_8566
619,"(7, 342, 895)",2,mbtiauth_8566
620,"(7, 463, 7)",2,mbtiauth_8566
621,"(7, 463, 64)",2,mbtiauth_8566
622,"(7, 463, 113)",2,mbtiauth_8566
623,"(7, 463, 895)",2,mbtiauth_8566
624,"(7, 895, 7)",2,mbtiauth_8566
625,"(7, 895, 113)",2,mbtiauth_8566
626,"(7, 2078, 999)",2,mbtiauth_8566
627,"(8, 113, 571)",2,mbtiauth_8566
628,"(10, 3, 41)",2,mbtiauth_8566
629,"(10, 22, 16691)",2,mbtiauth_8566
630,"(10, 50, 747)",2,mbtiauth_8566
631,"(10, 76, 3)",2,mbtiauth_8566
632,"(10, 76, 41)",2,mbtiauth_8566
633,"(10, 571, 113)",2,mbtiauth_8566
634,"(22, 3, 41)",2,mbtiauth_8566
635,"(22, 65, 92)",2,mbtiauth_8566
636,"(22, 76, 3)",2,mbtiauth_8566
637,"(22, 76, 41)",2,mbtiauth_8566
638,"(22, 76, 418)",2,mbtiauth_8566
639,"(22, 76, 557)",2,mbtiauth_8566
640,"(22, 100, 76)",2,mbtiauth_8566
641,"(22, 113, 113)",2,mbtiauth_8566
642,"(22, 244, 29)",2,mbtiauth_8566
643,"(22, 250, 76)",2,mbtiauth_8566
644,"(22, 16691, 76)",2,mbtiauth_8566
645,"(22, 16691, 342)",2,mbtiauth_8566
646,"(41, 151, 999)",2,mbtiauth_8566
647,"(41, 151, 2078)",2,mbtiauth_8566
648,"(41, 242, 342)",2,mbtiauth_8566
649,"(41, 277, 999)",2,mbtiauth_8566
650,"(41, 277, 2078)",2,mbtiauth_8566
651,"(41, 340, 242)",2,mbtiauth_8566
652,"(41, 340, 342)",2,mbtiauth_8566
653,"(41, 342, 163)",2,mbtiauth_8566
654,"(41, 786, 242)",2,mbtiauth_8566
655,"(41, 786, 340)",2,mbtiauth_8566
656,"(41, 786, 342)",2,mbtiauth_8566
657,"(41, 2078, 999)",4,mbtiauth_8566
658,"(50, 484, 41)",2,mbtiauth_8566
659,"(64, 2, 342)",2,mbtiauth_8566
660,"(64, 7, 64)",2,mbtiauth_8566
661,"(64, 7, 65)",3,mbtiauth_8566
662,"(64, 7, 342)",2,mbtiauth_8566
663,"(64, 7, 463)",2,mbtiauth_8566
664,"(64, 64, 7)",2,mbtiauth_8566
665,"(64, 65, 64)",2,mbtiauth_8566
666,"(64, 65, 342)",2,mbtiauth_8566
667,"(64, 65, 463)",2,mbtiauth_8566
668,"(64, 76, 113)",2,mbtiauth_8566
669,"(64, 113, 7)",3,mbtiauth_8566
670,"(64, 113, 64)",3,mbtiauth_8566
671,"(64, 113, 65)",3,mbtiauth_8566
672,"(64, 113, 342)",3,mbtiauth_8566
673,"(64, 113, 463)",2,mbtiauth_8566
674,"(64, 148, 64)",2,mbtiauth_8566
675,"(64, 250, 620)",2,mbtiauth_8566
676,"(64, 342, 64)",2,mbtiauth_8566
677,"(64, 342, 463)",2,mbtiauth_8566
678,"(64, 463, 22)",2,mbtiauth_8566
679,"(64, 463, 64)",3,mbtiauth_8566
680,"(64, 463, 76)",2,mbtiauth_8566
681,"(64, 694, 2)",2,mbtiauth_8566
682,"(64, 694, 41)",2,mbtiauth_8566
683,"(64, 694, 76)",2,mbtiauth_8566
684,"(64, 694, 342)",2,mbtiauth_8566
685,"(64, 895, 7)",3,mbtiauth_8566
686,"(64, 895, 64)",2,mbtiauth_8566
687,"(64, 895, 65)",3,mbtiauth_8566
688,"(64, 895, 113)",3,mbtiauth_8566
689,"(64, 895, 342)",2,mbtiauth_8566
690,"(64, 895, 463)",2,mbtiauth_8566
691,"(65, 7, 65)",2,mbtiauth_8566
692,"(65, 64, 7)",2,mbtiauth_8566
693,"(65, 64, 65)",2,mbtiauth_8566
694,"(65, 64, 113)",2,mbtiauth_8566
695,"(65, 64, 895)",2,mbtiauth_8566
696,"(65, 65, 614)",3,mbtiauth_8566
697,"(65, 113, 7)",2,mbtiauth_8566
698,"(65, 113, 65)",2,mbtiauth_8566
699,"(65, 342, 7)",2,mbtiauth_8566
700,"(65, 342, 64)",3,mbtiauth_8566
701,"(65, 342, 65)",2,mbtiauth_8566
702,"(65, 342, 113)",3,mbtiauth_8566
703,"(65, 342, 463)",2,mbtiauth_8566
704,"(65, 342, 895)",2,mbtiauth_8566
705,"(65, 463, 7)",2,mbtiauth_8566
706,"(65, 463, 64)",2,mbtiauth_8566
707,"(65, 463, 65)",2,mbtiauth_8566
708,"(65, 463, 113)",2,mbtiauth_8566
709,"(65, 463, 895)",2,mbtiauth_8566
710,"(65, 614, 32)",2,mbtiauth_8566
711,"(65, 614, 65)",2,mbtiauth_8566
712,"(65, 614, 614)",2,mbtiauth_8566
713,"(65, 895, 7)",2,mbtiauth_8566
714,"(65, 895, 65)",2,mbtiauth_8566
715,"(65, 895, 113)",2,mbtiauth_8566
716,"(72, 2709, 903)",2,mbtiauth_8566
717,"(76, 2, 342)",2,mbtiauth_8566
718,"(76, 3, 41)",4,mbtiauth_8566
719,"(76, 3, 244)",2,mbtiauth_8566
720,"(76, 41, 244)",2,mbtiauth_8566
721,"(76, 63, 113)",2,mbtiauth_8566
722,"(76, 64, 41)",2,mbtiauth_8566
723,"(76, 64, 342)",2,mbtiauth_8566
724,"(76, 64, 694)",2,mbtiauth_8566
725,"(76, 76, 3)",2,mbtiauth_8566
726,"(76, 76, 41)",2,mbtiauth_8566
727,"(76, 113, 2)",3,mbtiauth_8566
728,"(76, 113, 3)",2,mbtiauth_8566
729,"(76, 113, 22)",2,mbtiauth_8566
730,"(76, 113, 76)",2,mbtiauth_8566
731,"(76, 113, 113)",4,mbtiauth_8566
732,"(76, 113, 151)",2,mbtiauth_8566
733,"(76, 113, 342)",2,mbtiauth_8566
734,"(76, 113, 2293)",2,mbtiauth_8566
735,"(76, 182, 76)",2,mbtiauth_8566
736,"(76, 342, 41)",2,mbtiauth_8566
737,"(76, 342, 64)",2,mbtiauth_8566
738,"(76, 364, 2329)",2,mbtiauth_8566
739,"(76, 418, 3)",2,mbtiauth_8566
740,"(76, 418, 41)",2,mbtiauth_8566
741,"(76, 418, 244)",2,mbtiauth_8566
742,"(76, 557, 113)",2,mbtiauth_8566
743,"(76, 615, 113)",2,mbtiauth_8566
744,"(76, 694, 41)",2,mbtiauth_8566
745,"(76, 1511, 41)",3,mbtiauth_8566
746,"(76, 1511, 64)",2,mbtiauth_8566
747,"(76, 1511, 694)",2,mbtiauth_8566
748,"(76, 2078, 999)",3,mbtiauth_8566
749,"(113, 2, 10)",2,mbtiauth_8566
750,"(113, 2, 22)",2,mbtiauth_8566
751,"(113, 2, 64)",2,mbtiauth_8566
752,"(113, 2, 76)",2,mbtiauth_8566
753,"(113, 2, 113)",2,mbtiauth_8566
754,"(113, 2, 342)",3,mbtiauth_8566
755,"(113, 3, 41)",2,mbtiauth_8566
756,"(113, 7, 22)",2,mbtiauth_8566
757,"(113, 7, 64)",2,mbtiauth_8566
758,"(113, 7, 65)",3,mbtiauth_8566
759,"(113, 7, 76)",2,mbtiauth_8566
760,"(113, 7, 113)",3,mbtiauth_8566
761,"(113, 7, 342)",2,mbtiauth_8566
762,"(113, 7, 463)",2,mbtiauth_8566
763,"(113, 7, 895)",2,mbtiauth_8566
764,"(113, 22, 3)",2,mbtiauth_8566
765,"(113, 22, 41)",2,mbtiauth_8566
766,"(113, 22, 76)",4,mbtiauth_8566
767,"(113, 22, 244)",2,mbtiauth_8566
768,"(113, 22, 484)",2,mbtiauth_8566
769,"(113, 22, 16691)",2,mbtiauth_8566
770,"(113, 29, 76)",2,mbtiauth_8566
771,"(113, 29, 1065)",2,mbtiauth_8566
772,"(113, 44, 377)",2,mbtiauth_8566
773,"(113, 50, 2)",2,mbtiauth_8566
774,"(113, 64, 2)",3,mbtiauth_8566
775,"(113, 64, 7)",2,mbtiauth_8566
776,"(113, 64, 76)",2,mbtiauth_8566
777,"(113, 64, 113)",3,mbtiauth_8566
778,"(113, 64, 463)",2,mbtiauth_8566
779,"(113, 64, 895)",2,mbtiauth_8566
780,"(113, 65, 64)",3,mbtiauth_8566
781,"(113, 65, 113)",2,mbtiauth_8566
782,"(113, 65, 342)",3,mbtiauth_8566
783,"(113, 65, 463)",2,mbtiauth_8566
784,"(113, 65, 614)",2,mbtiauth_8566
785,"(113, 65, 895)",2,mbtiauth_8566
786,"(113, 76, 3)",2,mbtiauth_8566
787,"(113, 76, 7)",2,mbtiauth_8566
788,"(113, 76, 41)",2,mbtiauth_8566
789,"(113, 76, 113)",4,mbtiauth_8566
790,"(113, 76, 484)",2,mbtiauth_8566
791,"(113, 113, 7)",2,mbtiauth_8566
792,"(113, 113, 22)",2,mbtiauth_8566
793,"(113, 113, 44)",2,mbtiauth_8566
794,"(113, 113, 76)",3,mbtiauth_8566
795,"(113, 113, 113)",3,mbtiauth_8566
796,"(113, 113, 141)",2,mbtiauth_8566
797,"(113, 113, 151)",2,mbtiauth_8566
798,"(113, 113, 185)",2,mbtiauth_8566
799,"(113, 113, 226)",2,mbtiauth_8566
800,"(113, 113, 273)",2,mbtiauth_8566
801,"(113, 113, 340)",2,mbtiauth_8566
802,"(113, 113, 1678)",2,mbtiauth_8566
803,"(113, 113, 2293)",2,mbtiauth_8566
804,"(113, 113, 4759)",2,mbtiauth_8566
805,"(113, 156, 2)",2,mbtiauth_8566
806,"(113, 156, 64)",3,mbtiauth_8566
807,"(113, 156, 76)",2,mbtiauth_8566
808,"(113, 156, 463)",2,mbtiauth_8566
809,"(113, 185, 76)",4,mbtiauth_8566
810,"(113, 185, 113)",2,mbtiauth_8566
811,"(113, 194, 113)",2,mbtiauth_8566
812,"(113, 226, 10)",2,mbtiauth_8566
813,"(113, 250, 76)",2,mbtiauth_8566
814,"(113, 250, 484)",2,mbtiauth_8566
815,"(113, 273, 364)",2,mbtiauth_8566
816,"(113, 308, 76)",2,mbtiauth_8566
817,"(113, 340, 29)",2,mbtiauth_8566
818,"(113, 340, 76)",2,mbtiauth_8566
819,"(113, 340, 250)",2,mbtiauth_8566
820,"(113, 340, 484)",2,mbtiauth_8566
821,"(113, 342, 64)",4,mbtiauth_8566
822,"(113, 342, 113)",2,mbtiauth_8566
823,"(113, 342, 463)",3,mbtiauth_8566
824,"(113, 342, 895)",2,mbtiauth_8566
825,"(113, 463, 7)",2,mbtiauth_8566
826,"(113, 463, 64)",3,mbtiauth_8566
827,"(113, 463, 76)",2,mbtiauth_8566
828,"(113, 463, 113)",3,mbtiauth_8566
829,"(113, 463, 895)",2,mbtiauth_8566
830,"(113, 571, 113)",2,mbtiauth_8566
831,"(113, 694, 29)",2,mbtiauth_8566
832,"(113, 694, 1065)",2,mbtiauth_8566
833,"(113, 895, 113)",2,mbtiauth_8566
834,"(113, 2078, 999)",2,mbtiauth_8566
835,"(113, 2293, 64)",2,mbtiauth_8566
836,"(113, 4759, 44)",2,mbtiauth_8566
837,"(113, 4759, 377)",2,mbtiauth_8566
838,"(141, 41, 277)",2,mbtiauth_8566
839,"(141, 41, 999)",3,mbtiauth_8566
840,"(141, 41, 2078)",3,mbtiauth_8566
841,"(141, 277, 999)",2,mbtiauth_8566
842,"(141, 277, 2078)",2,mbtiauth_8566
843,"(141, 2078, 999)",3,mbtiauth_8566
844,"(148, 50, 177)",2,mbtiauth_8566
845,"(148, 232, 113)",2,mbtiauth_8566
846,"(148, 232, 804)",2,mbtiauth_8566
847,"(148, 232, 2329)",2,mbtiauth_8566
848,"(148, 804, 2329)",2,mbtiauth_8566
849,"(151, 2078, 999)",3,mbtiauth_8566
850,"(156, 64, 2)",2,mbtiauth_8566
851,"(156, 64, 76)",2,mbtiauth_8566
852,"(156, 64, 113)",2,mbtiauth_8566
853,"(156, 64, 463)",2,mbtiauth_8566
854,"(156, 463, 76)",2,mbtiauth_8566
855,"(160, 148, 232)",2,mbtiauth_8566
856,"(160, 148, 804)",2,mbtiauth_8566
857,"(160, 148, 2329)",2,mbtiauth_8566
858,"(160, 232, 804)",2,mbtiauth_8566
859,"(160, 232, 2329)",2,mbtiauth_8566
860,"(160, 804, 2329)",2,mbtiauth_8566
861,"(179, 113, 76)",2,mbtiauth_8566
862,"(224, 41, 242)",2,mbtiauth_8566
863,"(224, 41, 340)",2,mbtiauth_8566
864,"(224, 41, 786)",2,mbtiauth_8566
865,"(224, 340, 242)",2,mbtiauth_8566
866,"(224, 786, 242)",2,mbtiauth_8566
867,"(224, 786, 340)",2,mbtiauth_8566
868,"(232, 804, 2329)",2,mbtiauth_8566
869,"(234, 747, 41)",2,mbtiauth_8566
870,"(242, 41, 340)",2,mbtiauth_8566
871,"(242, 41, 786)",2,mbtiauth_8566
872,"(242, 224, 41)",3,mbtiauth_8566
873,"(242, 224, 340)",2,mbtiauth_8566
874,"(242, 224, 786)",2,mbtiauth_8566
875,"(242, 342, 41)",3,mbtiauth_8566
876,"(242, 342, 224)",3,mbtiauth_8566
877,"(242, 342, 340)",2,mbtiauth_8566
878,"(242, 342, 786)",2,mbtiauth_8566
879,"(242, 342, 1175)",3,mbtiauth_8566
880,"(242, 342, 1583)",3,mbtiauth_8566
881,"(242, 342, 4754)",3,mbtiauth_8566
882,"(242, 786, 340)",2,mbtiauth_8566
883,"(242, 1175, 41)",3,mbtiauth_8566
884,"(242, 1175, 224)",3,mbtiauth_8566
885,"(242, 1175, 340)",2,mbtiauth_8566
886,"(242, 1175, 786)",2,mbtiauth_8566
887,"(242, 1175, 1583)",3,mbtiauth_8566
888,"(242, 1175, 4754)",3,mbtiauth_8566
889,"(242, 1583, 41)",3,mbtiauth_8566
890,"(242, 1583, 224)",3,mbtiauth_8566
891,"(242, 1583, 340)",2,mbtiauth_8566
892,"(242, 1583, 786)",2,mbtiauth_8566
893,"(242, 4754, 41)",3,mbtiauth_8566
894,"(242, 4754, 224)",3,mbtiauth_8566
895,"(242, 4754, 340)",2,mbtiauth_8566
896,"(242, 4754, 786)",2,mbtiauth_8566
897,"(242, 4754, 1583)",3,mbtiauth_8566
898,"(244, 22, 76)",2,mbtiauth_8566
899,"(244, 100, 76)",2,mbtiauth_8566
900,"(244, 250, 76)",2,mbtiauth_8566
901,"(250, 113, 2)",2,mbtiauth_8566
902,"(250, 113, 65)",2,mbtiauth_8566
903,"(250, 113, 213)",2,mbtiauth_8566
904,"(273, 3, 41)",2,mbtiauth_8566
905,"(273, 7, 151)",2,mbtiauth_8566
906,"(273, 7, 999)",2,mbtiauth_8566
907,"(273, 29, 1065)",2,mbtiauth_8566
908,"(273, 113, 29)",2,mbtiauth_8566
909,"(273, 113, 694)",2,mbtiauth_8566
910,"(273, 113, 1065)",2,mbtiauth_8566
911,"(273, 151, 999)",2,mbtiauth_8566
912,"(273, 364, 7)",2,mbtiauth_8566
913,"(273, 364, 151)",2,mbtiauth_8566
914,"(273, 364, 999)",2,mbtiauth_8566
915,"(273, 364, 2329)",2,mbtiauth_8566
916,"(273, 694, 29)",2,mbtiauth_8566
917,"(273, 694, 1065)",2,mbtiauth_8566
918,"(273, 2329, 7)",2,mbtiauth_8566
919,"(273, 2329, 151)",2,mbtiauth_8566
920,"(273, 2329, 999)",2,mbtiauth_8566
921,"(277, 2078, 999)",2,mbtiauth_8566
922,"(340, 29, 76)",2,mbtiauth_8566
923,"(340, 242, 342)",2,mbtiauth_8566
924,"(340, 242, 1175)",2,mbtiauth_8566
925,"(340, 242, 4754)",2,mbtiauth_8566
926,"(340, 250, 484)",2,mbtiauth_8566
927,"(340, 342, 1175)",2,mbtiauth_8566
928,"(340, 342, 4754)",2,mbtiauth_8566
929,"(340, 1175, 4754)",2,mbtiauth_8566
930,"(342, 7, 65)",3,mbtiauth_8566
931,"(342, 7, 342)",2,mbtiauth_8566
932,"(342, 41, 340)",2,mbtiauth_8566
933,"(342, 41, 786)",2,mbtiauth_8566
934,"(342, 64, 7)",3,mbtiauth_8566
935,"(342, 64, 64)",2,mbtiauth_8566
936,"(342, 64, 65)",3,mbtiauth_8566
937,"(342, 64, 113)",4,mbtiauth_8566
938,"(342, 64, 250)",2,mbtiauth_8566
939,"(342, 64, 342)",2,mbtiauth_8566
940,"(342, 64, 463)",2,mbtiauth_8566
941,"(342, 64, 620)",2,mbtiauth_8566
942,"(342, 64, 694)",3,mbtiauth_8566
943,"(342, 64, 895)",3,mbtiauth_8566
944,"(342, 65, 342)",3,mbtiauth_8566
945,"(342, 76, 113)",2,mbtiauth_8566
946,"(342, 113, 7)",3,mbtiauth_8566
947,"(342, 113, 64)",2,mbtiauth_8566
948,"(342, 113, 65)",3,mbtiauth_8566
949,"(342, 113, 342)",2,mbtiauth_8566
950,"(342, 113, 463)",2,mbtiauth_8566
951,"(342, 113, 694)",2,mbtiauth_8566
952,"(342, 179, 113)",2,mbtiauth_8566
953,"(342, 224, 41)",3,mbtiauth_8566
954,"(342, 224, 340)",2,mbtiauth_8566
955,"(342, 224, 786)",2,mbtiauth_8566
956,"(342, 244, 22)",2,mbtiauth_8566
957,"(342, 250, 620)",2,mbtiauth_8566
958,"(342, 463, 7)",3,mbtiauth_8566
959,"(342, 463, 64)",3,mbtiauth_8566
960,"(342, 463, 65)",3,mbtiauth_8566
961,"(342, 463, 113)",3,mbtiauth_8566
962,"(342, 463, 342)",2,mbtiauth_8566
963,"(342, 463, 895)",3,mbtiauth_8566
964,"(342, 786, 340)",2,mbtiauth_8566
965,"(342, 895, 7)",3,mbtiauth_8566
966,"(342, 895, 65)",3,mbtiauth_8566
967,"(342, 895, 113)",3,mbtiauth_8566
968,"(342, 895, 342)",2,mbtiauth_8566
969,"(342, 1175, 41)",3,mbtiauth_8566
970,"(342, 1175, 224)",3,mbtiauth_8566
971,"(342, 1175, 340)",2,mbtiauth_8566
972,"(342, 1175, 786)",2,mbtiauth_8566
973,"(342, 1175, 1583)",3,mbtiauth_8566
974,"(342, 1175, 4754)",3,mbtiauth_8566
975,"(342, 1583, 41)",3,mbtiauth_8566
976,"(342, 1583, 224)",3,mbtiauth_8566
977,"(342, 1583, 340)",2,mbtiauth_8566
978,"(342, 1583, 786)",2,mbtiauth_8566
979,"(342, 4754, 41)",3,mbtiauth_8566
980,"(342, 4754, 224)",3,mbtiauth_8566
981,"(342, 4754, 340)",2,mbtiauth_8566
982,"(342, 4754, 786)",2,mbtiauth_8566
983,"(342, 4754, 1583)",3,mbtiauth_8566
984,"(342, 126792, 76)",2,mbtiauth_8566
985,"(364, 7, 151)",2,mbtiauth_8566
986,"(364, 7, 999)",2,mbtiauth_8566
987,"(364, 151, 999)",2,mbtiauth_8566
988,"(364, 342, 163)",2,mbtiauth_8566
989,"(364, 2078, 999)",2,mbtiauth_8566
990,"(364, 2329, 7)",2,mbtiauth_8566
991,"(364, 2329, 151)",2,mbtiauth_8566
992,"(364, 2329, 999)",3,mbtiauth_8566
993,"(364, 2329, 2078)",2,mbtiauth_8566
994,"(418, 3, 41)",3,mbtiauth_8566
995,"(418, 3, 244)",3,mbtiauth_8566
996,"(418, 41, 244)",3,mbtiauth_8566
997,"(462, 64, 2)",2,mbtiauth_8566
998,"(462, 113, 2)",2,mbtiauth_8566
999,"(462, 113, 64)",2,mbtiauth_8566
1000,"(462, 113, 156)",2,mbtiauth_8566
1001,"(462, 156, 2)",2,mbtiauth_8566
1002,"(462, 156, 64)",2,mbtiauth_8566
1003,"(463, 7, 65)",3,mbtiauth_8566
1004,"(463, 7, 342)",2,mbtiauth_8566
1005,"(463, 7, 463)",2,mbtiauth_8566
1006,"(463, 64, 7)",3,mbtiauth_8566
1007,"(463, 64, 65)",3,mbtiauth_8566
1008,"(463, 64, 113)",3,mbtiauth_8566
1009,"(463, 64, 342)",2,mbtiauth_8566
1010,"(463, 64, 463)",2,mbtiauth_8566
1011,"(463, 64, 895)",3,mbtiauth_8566
1012,"(463, 65, 342)",2,mbtiauth_8566
1013,"(463, 65, 463)",2,mbtiauth_8566
1014,"(463, 113, 7)",3,mbtiauth_8566
1015,"(463, 113, 65)",3,mbtiauth_8566
1016,"(463, 113, 342)",2,mbtiauth_8566
1017,"(463, 113, 463)",2,mbtiauth_8566
1018,"(463, 342, 463)",2,mbtiauth_8566
1019,"(463, 895, 7)",3,mbtiauth_8566
1020,"(463, 895, 65)",3,mbtiauth_8566
1021,"(463, 895, 113)",3,mbtiauth_8566
1022,"(463, 895, 342)",2,mbtiauth_8566
1023,"(463, 895, 463)",2,mbtiauth_8566
1024,"(484, 41, 163)",2,mbtiauth_8566
1025,"(484, 41, 2078)",3,mbtiauth_8566
1026,"(484, 141, 41)",2,mbtiauth_8566
1027,"(484, 141, 2078)",2,mbtiauth_8566
1028,"(484, 364, 41)",2,mbtiauth_8566
1029,"(557, 484, 41)",2,mbtiauth_8566
1030,"(571, 113, 65)",2,mbtiauth_8566
1031,"(614, 65, 614)",2,mbtiauth_8566
1032,"(635, 64, 635)",2,mbtiauth_8566
1033,"(635, 148, 232)",2,mbtiauth_8566
1034,"(694, 29, 1065)",2,mbtiauth_8566
1035,"(694, 76, 364)",2,mbtiauth_8566
1036,"(694, 76, 2329)",2,mbtiauth_8566
1037,"(694, 364, 2329)",2,mbtiauth_8566
1038,"(747, 41, 113)",2,mbtiauth_8566
1039,"(747, 2078, 999)",2,mbtiauth_8566
1040,"(771, 76, 113)",2,mbtiauth_8566
1041,"(771, 113, 76)",2,mbtiauth_8566
1042,"(786, 242, 342)",2,mbtiauth_8566
1043,"(786, 242, 1175)",2,mbtiauth_8566
1044,"(786, 340, 242)",2,mbtiauth_8566
1045,"(786, 340, 342)",2,mbtiauth_8566
1046,"(786, 340, 1175)",2,mbtiauth_8566
1047,"(786, 342, 1175)",2,mbtiauth_8566
1048,"(895, 7, 64)",2,mbtiauth_8566
1049,"(895, 7, 65)",3,mbtiauth_8566
1050,"(895, 7, 342)",2,mbtiauth_8566
1051,"(895, 7, 463)",2,mbtiauth_8566
1052,"(895, 7, 895)",2,mbtiauth_8566
1053,"(895, 64, 895)",2,mbtiauth_8566
1054,"(895, 65, 64)",2,mbtiauth_8566
1055,"(895, 65, 342)",2,mbtiauth_8566
1056,"(895, 65, 463)",2,mbtiauth_8566
1057,"(895, 65, 895)",2,mbtiauth_8566
1058,"(895, 113, 7)",3,mbtiauth_8566
1059,"(895, 113, 64)",2,mbtiauth_8566
1060,"(895, 113, 65)",3,mbtiauth_8566
1061,"(895, 113, 342)",2,mbtiauth_8566
1062,"(895, 113, 463)",2,mbtiauth_8566
1063,"(895, 113, 895)",2,mbtiauth_8566
1064,"(895, 342, 64)",2,mbtiauth_8566
1065,"(895, 342, 463)",2,mbtiauth_8566
1066,"(895, 342, 895)",2,mbtiauth_8566
1067,"(895, 463, 64)",2,mbtiauth_8566
1068,"(895, 463, 895)",2,mbtiauth_8566
1069,"(999, 148, 232)",2,mbtiauth_8566
1070,"(999, 148, 804)",2,mbtiauth_8566
1071,"(999, 148, 2329)",2,mbtiauth_8566
1072,"(999, 160, 148)",2,mbtiauth_8566
1073,"(999, 160, 232)",2,mbtiauth_8566
1074,"(999, 160, 804)",2,mbtiauth_8566
1075,"(999, 160, 2329)",2,mbtiauth_8566
1076,"(999, 232, 804)",2,mbtiauth_8566
1077,"(999, 232, 2329)",2,mbtiauth_8566
1078,"(999, 804, 2329)",2,mbtiauth_8566
1079,"(1175, 41, 340)",2,mbtiauth_8566
1080,"(1175, 41, 786)",2,mbtiauth_8566
1081,"(1175, 224, 41)",3,mbtiauth_8566
1082,"(1175, 224, 340)",2,mbtiauth_8566
1083,"(1175, 224, 786)",2,mbtiauth_8566
1084,"(1175, 786, 340)",2,mbtiauth_8566
1085,"(1175, 1583, 41)",3,mbtiauth_8566
1086,"(1175, 1583, 224)",3,mbtiauth_8566
1087,"(1175, 1583, 340)",2,mbtiauth_8566
1088,"(1175, 1583, 786)",2,mbtiauth_8566
1089,"(1175, 4754, 41)",3,mbtiauth_8566
1090,"(1175, 4754, 224)",3,mbtiauth_8566
1091,"(1175, 4754, 340)",2,mbtiauth_8566
1092,"(1175, 4754, 786)",2,mbtiauth_8566
1093,"(1175, 4754, 1583)",3,mbtiauth_8566
1094,"(1511, 64, 41)",2,mbtiauth_8566
1095,"(1511, 64, 694)",2,mbtiauth_8566
1096,"(1511, 694, 41)",2,mbtiauth_8566
1097,"(1583, 41, 340)",2,mbtiauth_8566
1098,"(1583, 41, 786)",2,mbtiauth_8566
1099,"(1583, 224, 41)",3,mbtiauth_8566
1100,"(1583, 224, 340)",2,mbtiauth_8566
1101,"(1583, 224, 786)",2,mbtiauth_8566
1102,"(1583, 786, 340)",2,mbtiauth_8566
1103,"(2078, 148, 232)",2,mbtiauth_8566
1104,"(2078, 148, 804)",2,mbtiauth_8566
1105,"(2078, 148, 2329)",2,mbtiauth_8566
1106,"(2078, 160, 148)",2,mbtiauth_8566
1107,"(2078, 160, 232)",2,mbtiauth_8566
1108,"(2078, 160, 804)",2,mbtiauth_8566
1109,"(2078, 160, 2329)",2,mbtiauth_8566
1110,"(2078, 232, 804)",2,mbtiauth_8566
1111,"(2078, 232, 2329)",2,mbtiauth_8566
1112,"(2078, 804, 2329)",2,mbtiauth_8566
1113,"(2078, 999, 3)",2,mbtiauth_8566
1114,"(2078, 999, 148)",2,mbtiauth_8566
1115,"(2078, 999, 160)",2,mbtiauth_8566
1116,"(2078, 999, 232)",2,mbtiauth_8566
1117,"(2078, 999, 804)",2,mbtiauth_8566
1118,"(2078, 999, 2329)",3,mbtiauth_8566
1119,"(2329, 7, 151)",2,mbtiauth_8566
1120,"(2329, 7, 999)",2,mbtiauth_8566
1121,"(2329, 151, 999)",2,mbtiauth_8566
1122,"(2329, 2078, 999)",2,mbtiauth_8566
1123,"(4754, 41, 340)",2,mbtiauth_8566
1124,"(4754, 41, 786)",2,mbtiauth_8566
1125,"(4754, 224, 41)",3,mbtiauth_8566
1126,"(4754, 224, 340)",2,mbtiauth_8566
1127,"(4754, 224, 786)",2,mbtiauth_8566
1128,"(4754, 786, 340)",2,mbtiauth_8566
1129,"(4754, 1583, 41)",3,mbtiauth_8566
1130,"(4754, 1583, 224)",3,mbtiauth_8566
1131,"(4754, 1583, 340)",2,mbtiauth_8566
1132,"(4754, 1583, 786)",2,mbtiauth_8566
1133,"(4759, 44, 377)",2,mbtiauth_8566
1134,"(2, 342, 64, 113)",2,mbtiauth_8566
1135,"(2, 342, 64, 694)",2,mbtiauth_8566
1136,"(7, 64, 113, 7)",2,mbtiauth_8566
1137,"(7, 64, 895, 7)",2,mbtiauth_8566
1138,"(7, 64, 895, 113)",2,mbtiauth_8566
1139,"(7, 65, 64, 7)",2,mbtiauth_8566
1140,"(7, 65, 64, 113)",2,mbtiauth_8566
1141,"(7, 65, 64, 895)",2,mbtiauth_8566
1142,"(7, 65, 113, 7)",2,mbtiauth_8566
1143,"(7, 65, 342, 7)",2,mbtiauth_8566
1144,"(7, 65, 342, 64)",2,mbtiauth_8566
1145,"(7, 65, 342, 113)",2,mbtiauth_8566
1146,"(7, 65, 342, 463)",2,mbtiauth_8566
1147,"(7, 65, 342, 895)",2,mbtiauth_8566
1148,"(7, 65, 463, 7)",2,mbtiauth_8566
1149,"(7, 65, 463, 64)",2,mbtiauth_8566
1150,"(7, 65, 463, 113)",2,mbtiauth_8566
1151,"(7, 65, 463, 895)",2,mbtiauth_8566
1152,"(7, 65, 895, 7)",2,mbtiauth_8566
1153,"(7, 65, 895, 113)",2,mbtiauth_8566
1154,"(7, 151, 2078, 999)",2,mbtiauth_8566
1155,"(7, 342, 64, 7)",2,mbtiauth_8566
1156,"(7, 342, 64, 113)",2,mbtiauth_8566
1157,"(7, 342, 64, 895)",2,mbtiauth_8566
1158,"(7, 342, 113, 7)",2,mbtiauth_8566
1159,"(7, 342, 463, 7)",2,mbtiauth_8566
1160,"(7, 342, 463, 64)",2,mbtiauth_8566
1161,"(7, 342, 463, 113)",2,mbtiauth_8566
1162,"(7, 342, 463, 895)",2,mbtiauth_8566
1163,"(7, 342, 895, 7)",2,mbtiauth_8566
1164,"(7, 342, 895, 113)",2,mbtiauth_8566
1165,"(7, 463, 64, 7)",2,mbtiauth_8566
1166,"(7, 463, 64, 113)",2,mbtiauth_8566
1167,"(7, 463, 64, 895)",2,mbtiauth_8566
1168,"(7, 463, 113, 7)",2,mbtiauth_8566
1169,"(7, 463, 895, 7)",2,mbtiauth_8566
1170,"(7, 463, 895, 113)",2,mbtiauth_8566
1171,"(7, 895, 113, 7)",2,mbtiauth_8566
1172,"(10, 76, 3, 41)",2,mbtiauth_8566
1173,"(22, 76, 3, 41)",2,mbtiauth_8566
1174,"(41, 151, 2078, 999)",2,mbtiauth_8566
1175,"(41, 277, 2078, 999)",2,mbtiauth_8566
1176,"(41, 340, 242, 342)",2,mbtiauth_8566
1177,"(41, 786, 242, 342)",2,mbtiauth_8566
1178,"(41, 786, 340, 242)",2,mbtiauth_8566
1179,"(41, 786, 340, 342)",2,mbtiauth_8566
1180,"(64, 7, 65, 64)",2,mbtiauth_8566
1181,"(64, 7, 65, 342)",2,mbtiauth_8566
1182,"(64, 7, 65, 463)",2,mbtiauth_8566
1183,"(64, 7, 342, 64)",2,mbtiauth_8566
1184,"(64, 7, 342, 463)",2,mbtiauth_8566
1185,"(64, 7, 463, 64)",2,mbtiauth_8566
1186,"(64, 65, 342, 64)",2,mbtiauth_8566
1187,"(64, 65, 342, 463)",2,mbtiauth_8566
1188,"(64, 65, 463, 64)",2,mbtiauth_8566
1189,"(64, 113, 7, 64)",2,mbtiauth_8566
1190,"(64, 113, 7, 65)",3,mbtiauth_8566
1191,"(64, 113, 7, 342)",2,mbtiauth_8566
1192,"(64, 113, 7, 463)",2,mbtiauth_8566
1193,"(64, 113, 65, 64)",2,mbtiauth_8566
1194,"(64, 113, 65, 342)",2,mbtiauth_8566
1195,"(64, 113, 65, 463)",2,mbtiauth_8566
1196,"(64, 113, 342, 64)",2,mbtiauth_8566
1197,"(64, 113, 342, 463)",2,mbtiauth_8566
1198,"(64, 113, 463, 64)",2,mbtiauth_8566
1199,"(64, 342, 463, 64)",2,mbtiauth_8566
1200,"(64, 895, 7, 64)",2,mbtiauth_8566
1201,"(64, 895, 7, 65)",3,mbtiauth_8566
1202,"(64, 895, 7, 342)",2,mbtiauth_8566
1203,"(64, 895, 7, 463)",2,mbtiauth_8566
1204,"(64, 895, 65, 64)",2,mbtiauth_8566
1205,"(64, 895, 65, 342)",2,mbtiauth_8566
1206,"(64, 895, 65, 463)",2,mbtiauth_8566
1207,"(64, 895, 113, 7)",3,mbtiauth_8566
1208,"(64, 895, 113, 64)",2,mbtiauth_8566
1209,"(64, 895, 113, 65)",3,mbtiauth_8566
1210,"(64, 895, 113, 342)",2,mbtiauth_8566
1211,"(64, 895, 113, 463)",2,mbtiauth_8566
1212,"(64, 895, 342, 64)",2,mbtiauth_8566
1213,"(64, 895, 342, 463)",2,mbtiauth_8566
1214,"(64, 895, 463, 64)",2,mbtiauth_8566
1215,"(65, 64, 7, 65)",2,mbtiauth_8566
1216,"(65, 64, 113, 7)",2,mbtiauth_8566
1217,"(65, 64, 113, 65)",2,mbtiauth_8566
1218,"(65, 64, 895, 7)",2,mbtiauth_8566
1219,"(65, 64, 895, 65)",2,mbtiauth_8566
1220,"(65, 64, 895, 113)",2,mbtiauth_8566
1221,"(65, 113, 7, 65)",2,mbtiauth_8566
1222,"(65, 342, 7, 65)",2,mbtiauth_8566
1223,"(65, 342, 64, 7)",2,mbtiauth_8566
1224,"(65, 342, 64, 65)",2,mbtiauth_8566
1225,"(65, 342, 64, 113)",2,mbtiauth_8566
1226,"(65, 342, 64, 895)",2,mbtiauth_8566
1227,"(65, 342, 113, 7)",2,mbtiauth_8566
1228,"(65, 342, 113, 65)",2,mbtiauth_8566
1229,"(65, 342, 463, 7)",2,mbtiauth_8566
1230,"(65, 342, 463, 64)",2,mbtiauth_8566
1231,"(65, 342, 463, 65)",2,mbtiauth_8566
1232,"(65, 342, 463, 113)",2,mbtiauth_8566
1233,"(65, 342, 463, 895)",2,mbtiauth_8566
1234,"(65, 342, 895, 7)",2,mbtiauth_8566
1235,"(65, 342, 895, 65)",2,mbtiauth_8566
1236,"(65, 342, 895, 113)",2,mbtiauth_8566
1237,"(65, 463, 7, 65)",2,mbtiauth_8566
1238,"(65, 463, 64, 7)",2,mbtiauth_8566
1239,"(65, 463, 64, 65)",2,mbtiauth_8566
1240,"(65, 463, 64, 113)",2,mbtiauth_8566
1241,"(65, 463, 64, 895)",2,mbtiauth_8566
1242,"(65, 463, 113, 7)",2,mbtiauth_8566
1243,"(65, 463, 113, 65)",2,mbtiauth_8566
1244,"(65, 463, 895, 7)",2,mbtiauth_8566
1245,"(65, 463, 895, 65)",2,mbtiauth_8566
1246,"(65, 463, 895, 113)",2,mbtiauth_8566
1247,"(65, 614, 65, 614)",2,mbtiauth_8566
1248,"(65, 895, 7, 65)",2,mbtiauth_8566
1249,"(65, 895, 113, 7)",2,mbtiauth_8566
1250,"(65, 895, 113, 65)",2,mbtiauth_8566
1251,"(76, 3, 41, 244)",2,mbtiauth_8566
1252,"(76, 64, 694, 41)",2,mbtiauth_8566
1253,"(76, 113, 2, 342)",2,mbtiauth_8566
1254,"(76, 113, 113, 151)",2,mbtiauth_8566
1255,"(76, 418, 3, 41)",2,mbtiauth_8566
1256,"(76, 418, 3, 244)",2,mbtiauth_8566
1257,"(76, 418, 41, 244)",2,mbtiauth_8566
1258,"(76, 1511, 64, 41)",2,mbtiauth_8566
1259,"(76, 1511, 64, 694)",2,mbtiauth_8566
1260,"(76, 1511, 694, 41)",2,mbtiauth_8566
1261,"(113, 2, 22, 76)",2,mbtiauth_8566
1262,"(113, 2, 342, 64)",2,mbtiauth_8566
1263,"(113, 7, 64, 113)",2,mbtiauth_8566
1264,"(113, 7, 64, 895)",2,mbtiauth_8566
1265,"(113, 7, 65, 64)",2,mbtiauth_8566
1266,"(113, 7, 65, 113)",2,mbtiauth_8566
1267,"(113, 7, 65, 342)",2,mbtiauth_8566
1268,"(113, 7, 65, 463)",2,mbtiauth_8566
1269,"(113, 7, 65, 895)",2,mbtiauth_8566
1270,"(113, 7, 342, 64)",2,mbtiauth_8566
1271,"(113, 7, 342, 113)",2,mbtiauth_8566
1272,"(113, 7, 342, 463)",2,mbtiauth_8566
1273,"(113, 7, 342, 895)",2,mbtiauth_8566
1274,"(113, 7, 463, 64)",2,mbtiauth_8566
1275,"(113, 7, 463, 113)",2,mbtiauth_8566
1276,"(113, 7, 463, 895)",2,mbtiauth_8566
1277,"(113, 7, 895, 113)",2,mbtiauth_8566
1278,"(113, 22, 3, 41)",2,mbtiauth_8566
1279,"(113, 22, 76, 3)",2,mbtiauth_8566
1280,"(113, 22, 76, 41)",2,mbtiauth_8566
1281,"(113, 64, 113, 7)",2,mbtiauth_8566
1282,"(113, 64, 463, 76)",2,mbtiauth_8566
1283,"(113, 64, 895, 113)",2,mbtiauth_8566
1284,"(113, 65, 64, 113)",2,mbtiauth_8566
1285,"(113, 65, 64, 895)",2,mbtiauth_8566
1286,"(113, 65, 342, 64)",3,mbtiauth_8566
1287,"(113, 65, 342, 113)",2,mbtiauth_8566
1288,"(113, 65, 342, 463)",2,mbtiauth_8566
1289,"(113, 65, 342, 895)",2,mbtiauth_8566
1290,"(113, 65, 463, 64)",2,mbtiauth_8566
1291,"(113, 65, 463, 113)",2,mbtiauth_8566
1292,"(113, 65, 463, 895)",2,mbtiauth_8566
1293,"(113, 65, 895, 113)",2,mbtiauth_8566
1294,"(113, 76, 3, 41)",2,mbtiauth_8566
1295,"(113, 113, 4759, 44)",2,mbtiauth_8566
1296,"(113, 156, 64, 2)",2,mbtiauth_8566
1297,"(113, 156, 64, 76)",2,mbtiauth_8566
1298,"(113, 156, 64, 463)",2,mbtiauth_8566
1299,"(113, 156, 463, 76)",2,mbtiauth_8566
1300,"(113, 340, 29, 76)",2,mbtiauth_8566
1301,"(113, 340, 250, 484)",2,mbtiauth_8566
1302,"(113, 342, 64, 113)",2,mbtiauth_8566
1303,"(113, 342, 64, 895)",2,mbtiauth_8566
1304,"(113, 342, 463, 64)",3,mbtiauth_8566
1305,"(113, 342, 463, 113)",2,mbtiauth_8566
1306,"(113, 342, 463, 895)",2,mbtiauth_8566
1307,"(113, 342, 895, 113)",2,mbtiauth_8566
1308,"(113, 463, 64, 7)",2,mbtiauth_8566
1309,"(113, 463, 64, 113)",3,mbtiauth_8566
1310,"(113, 463, 64, 895)",2,mbtiauth_8566
1311,"(113, 463, 113, 7)",2,mbtiauth_8566
1312,"(113, 463, 895, 113)",2,mbtiauth_8566
1313,"(113, 694, 29, 1065)",2,mbtiauth_8566
1314,"(113, 4759, 44, 377)",2,mbtiauth_8566
1315,"(141, 41, 277, 999)",2,mbtiauth_8566
1316,"(141, 41, 277, 2078)",2,mbtiauth_8566
1317,"(141, 41, 2078, 999)",3,mbtiauth_8566
1318,"(141, 277, 2078, 999)",2,mbtiauth_8566
1319,"(148, 232, 804, 2329)",2,mbtiauth_8566
1320,"(156, 64, 463, 76)",2,mbtiauth_8566
1321,"(160, 148, 232, 804)",2,mbtiauth_8566
1322,"(160, 148, 232, 2329)",2,mbtiauth_8566
1323,"(160, 148, 804, 2329)",2,mbtiauth_8566
1324,"(160, 232, 804, 2329)",2,mbtiauth_8566
1325,"(224, 41, 340, 242)",2,mbtiauth_8566
1326,"(224, 41, 786, 242)",2,mbtiauth_8566
1327,"(224, 41, 786, 340)",2,mbtiauth_8566
1328,"(224, 786, 340, 242)",2,mbtiauth_8566
1329,"(242, 41, 786, 340)",2,mbtiauth_8566
1330,"(242, 224, 41, 340)",2,mbtiauth_8566
1331,"(242, 224, 41, 786)",2,mbtiauth_8566
1332,"(242, 224, 786, 340)",2,mbtiauth_8566
1333,"(242, 342, 41, 340)",2,mbtiauth_8566
1334,"(242, 342, 41, 786)",2,mbtiauth_8566
1335,"(242, 342, 224, 41)",3,mbtiauth_8566
1336,"(242, 342, 224, 340)",2,mbtiauth_8566
1337,"(242, 342, 224, 786)",2,mbtiauth_8566
1338,"(242, 342, 786, 340)",2,mbtiauth_8566
1339,"(242, 342, 1175, 41)",3,mbtiauth_8566
1340,"(242, 342, 1175, 224)",3,mbtiauth_8566
1341,"(242, 342, 1175, 340)",2,mbtiauth_8566
1342,"(242, 342, 1175, 786)",2,mbtiauth_8566
1343,"(242, 342, 1175, 1583)",3,mbtiauth_8566
1344,"(242, 342, 1175, 4754)",3,mbtiauth_8566
1345,"(242, 342, 1583, 41)",3,mbtiauth_8566
1346,"(242, 342, 1583, 224)",3,mbtiauth_8566
1347,"(242, 342, 1583, 340)",2,mbtiauth_8566
1348,"(242, 342, 1583, 786)",2,mbtiauth_8566
1349,"(242, 342, 4754, 41)",3,mbtiauth_8566
1350,"(242, 342, 4754, 224)",3,mbtiauth_8566
1351,"(242, 342, 4754, 340)",2,mbtiauth_8566
1352,"(242, 342, 4754, 786)",2,mbtiauth_8566
1353,"(242, 342, 4754, 1583)",3,mbtiauth_8566
1354,"(242, 1175, 41, 340)",2,mbtiauth_8566
1355,"(242, 1175, 41, 786)",2,mbtiauth_8566
1356,"(242, 1175, 224, 41)",3,mbtiauth_8566
1357,"(242, 1175, 224, 340)",2,mbtiauth_8566
1358,"(242, 1175, 224, 786)",2,mbtiauth_8566
1359,"(242, 1175, 786, 340)",2,mbtiauth_8566
1360,"(242, 1175, 1583, 41)",3,mbtiauth_8566
1361,"(242, 1175, 1583, 224)",3,mbtiauth_8566
1362,"(242, 1175, 1583, 340)",2,mbtiauth_8566
1363,"(242, 1175, 1583, 786)",2,mbtiauth_8566
1364,"(242, 1175, 4754, 41)",3,mbtiauth_8566
1365,"(242, 1175, 4754, 224)",3,mbtiauth_8566
1366,"(242, 1175, 4754, 340)",2,mbtiauth_8566
1367,"(242, 1175, 4754, 786)",2,mbtiauth_8566
1368,"(242, 1175, 4754, 1583)",3,mbtiauth_8566
1369,"(242, 1583, 41, 340)",2,mbtiauth_8566
1370,"(242, 1583, 41, 786)",2,mbtiauth_8566
1371,"(242, 1583, 224, 41)",3,mbtiauth_8566
1372,"(242, 1583, 224, 340)",2,mbtiauth_8566
1373,"(242, 1583, 224, 786)",2,mbtiauth_8566
1374,"(242, 1583, 786, 340)",2,mbtiauth_8566
1375,"(242, 4754, 41, 340)",2,mbtiauth_8566
1376,"(242, 4754, 41, 786)",2,mbtiauth_8566
1377,"(242, 4754, 224, 41)",3,mbtiauth_8566
1378,"(242, 4754, 224, 340)",2,mbtiauth_8566
1379,"(242, 4754, 224, 786)",2,mbtiauth_8566
1380,"(242, 4754, 786, 340)",2,mbtiauth_8566
1381,"(242, 4754, 1583, 41)",3,mbtiauth_8566
1382,"(242, 4754, 1583, 224)",3,mbtiauth_8566
1383,"(242, 4754, 1583, 340)",2,mbtiauth_8566
1384,"(242, 4754, 1583, 786)",2,mbtiauth_8566
1385,"(273, 7, 151, 999)",2,mbtiauth_8566
1386,"(273, 113, 29, 1065)",2,mbtiauth_8566
1387,"(273, 113, 694, 29)",2,mbtiauth_8566
1388,"(273, 113, 694, 1065)",2,mbtiauth_8566
1389,"(273, 364, 7, 151)",2,mbtiauth_8566
1390,"(273, 364, 7, 999)",2,mbtiauth_8566
1391,"(273, 364, 151, 999)",2,mbtiauth_8566
1392,"(273, 364, 2329, 7)",2,mbtiauth_8566
1393,"(273, 364, 2329, 151)",2,mbtiauth_8566
1394,"(273, 364, 2329, 999)",2,mbtiauth_8566
1395,"(273, 694, 29, 1065)",2,mbtiauth_8566
1396,"(273, 2329, 7, 151)",2,mbtiauth_8566
1397,"(273, 2329, 7, 999)",2,mbtiauth_8566
1398,"(273, 2329, 151, 999)",2,mbtiauth_8566
1399,"(340, 242, 342, 1175)",2,mbtiauth_8566
1400,"(340, 242, 342, 4754)",2,mbtiauth_8566
1401,"(340, 242, 1175, 4754)",2,mbtiauth_8566
1402,"(340, 342, 1175, 4754)",2,mbtiauth_8566
1403,"(342, 7, 65, 342)",2,mbtiauth_8566
1404,"(342, 41, 786, 340)",2,mbtiauth_8566
1405,"(342, 64, 7, 65)",3,mbtiauth_8566
1406,"(342, 64, 7, 342)",2,mbtiauth_8566
1407,"(342, 64, 65, 342)",2,mbtiauth_8566
1408,"(342, 64, 113, 7)",3,mbtiauth_8566
1409,"(342, 64, 113, 65)",3,mbtiauth_8566
1410,"(342, 64, 113, 342)",2,mbtiauth_8566
1411,"(342, 64, 250, 620)",2,mbtiauth_8566
1412,"(342, 64, 895, 7)",3,mbtiauth_8566
1413,"(342, 64, 895, 65)",3,mbtiauth_8566
1414,"(342, 64, 895, 113)",3,mbtiauth_8566
1415,"(342, 64, 895, 342)",2,mbtiauth_8566
1416,"(342, 113, 7, 65)",3,mbtiauth_8566
1417,"(342, 113, 7, 342)",2,mbtiauth_8566
1418,"(342, 113, 65, 342)",2,mbtiauth_8566
1419,"(342, 224, 41, 340)",2,mbtiauth_8566
1420,"(342, 224, 41, 786)",2,mbtiauth_8566
1421,"(342, 224, 786, 340)",2,mbtiauth_8566
1422,"(342, 463, 7, 65)",3,mbtiauth_8566
1423,"(342, 463, 7, 342)",2,mbtiauth_8566
1424,"(342, 463, 64, 7)",3,mbtiauth_8566
1425,"(342, 463, 64, 65)",3,mbtiauth_8566
1426,"(342, 463, 64, 113)",3,mbtiauth_8566
1427,"(342, 463, 64, 342)",2,mbtiauth_8566
1428,"(342, 463, 64, 895)",3,mbtiauth_8566
1429,"(342, 463, 65, 342)",2,mbtiauth_8566
1430,"(342, 463, 113, 7)",3,mbtiauth_8566
1431,"(342, 463, 113, 65)",3,mbtiauth_8566
1432,"(342, 463, 113, 342)",2,mbtiauth_8566
1433,"(342, 463, 895, 7)",3,mbtiauth_8566
1434,"(342, 463, 895, 65)",3,mbtiauth_8566
1435,"(342, 463, 895, 113)",3,mbtiauth_8566
1436,"(342, 463, 895, 342)",2,mbtiauth_8566
1437,"(342, 895, 7, 65)",3,mbtiauth_8566
1438,"(342, 895, 7, 342)",2,mbtiauth_8566
1439,"(342, 895, 65, 342)",2,mbtiauth_8566
1440,"(342, 895, 113, 7)",3,mbtiauth_8566
1441,"(342, 895, 113, 65)",3,mbtiauth_8566
1442,"(342, 895, 113, 342)",2,mbtiauth_8566
1443,"(342, 1175, 41, 340)",2,mbtiauth_8566
1444,"(342, 1175, 41, 786)",2,mbtiauth_8566
1445,"(342, 1175, 224, 41)",3,mbtiauth_8566
1446,"(342, 1175, 224, 340)",2,mbtiauth_8566
1447,"(342, 1175, 224, 786)",2,mbtiauth_8566
1448,"(342, 1175, 786, 340)",2,mbtiauth_8566
1449,"(342, 1175, 1583, 41)",3,mbtiauth_8566
1450,"(342, 1175, 1583, 224)",3,mbtiauth_8566
1451,"(342, 1175, 1583, 340)",2,mbtiauth_8566
1452,"(342, 1175, 1583, 786)",2,mbtiauth_8566
1453,"(342, 1175, 4754, 41)",3,mbtiauth_8566
1454,"(342, 1175, 4754, 224)",3,mbtiauth_8566
1455,"(342, 1175, 4754, 340)",2,mbtiauth_8566
1456,"(342, 1175, 4754, 786)",2,mbtiauth_8566
1457,"(342, 1175, 4754, 1583)",3,mbtiauth_8566
1458,"(342, 1583, 41, 340)",2,mbtiauth_8566
1459,"(342, 1583, 41, 786)",2,mbtiauth_8566
1460,"(342, 1583, 224, 41)",3,mbtiauth_8566
1461,"(342, 1583, 224, 340)",2,mbtiauth_8566
1462,"(342, 1583, 224, 786)",2,mbtiauth_8566
1463,"(342, 1583, 786, 340)",2,mbtiauth_8566
1464,"(342, 4754, 41, 340)",2,mbtiauth_8566
1465,"(342, 4754, 41, 786)",2,mbtiauth_8566
1466,"(342, 4754, 224, 41)",3,mbtiauth_8566
1467,"(342, 4754, 224, 340)",2,mbtiauth_8566
1468,"(342, 4754, 224, 786)",2,mbtiauth_8566
1469,"(342, 4754, 786, 340)",2,mbtiauth_8566
1470,"(342, 4754, 1583, 41)",3,mbtiauth_8566
1471,"(342, 4754, 1583, 224)",3,mbtiauth_8566
1472,"(342, 4754, 1583, 340)",2,mbtiauth_8566
1473,"(342, 4754, 1583, 786)",2,mbtiauth_8566
1474,"(364, 7, 151, 999)",2,mbtiauth_8566
1475,"(364, 2329, 7, 151)",2,mbtiauth_8566
1476,"(364, 2329, 7, 999)",2,mbtiauth_8566
1477,"(364, 2329, 151, 999)",2,mbtiauth_8566
1478,"(364, 2329, 2078, 999)",2,mbtiauth_8566
1479,"(418, 3, 41, 244)",3,mbtiauth_8566
1480,"(462, 113, 64, 2)",2,mbtiauth_8566
1481,"(462, 113, 156, 2)",2,mbtiauth_8566
1482,"(462, 113, 156, 64)",2,mbtiauth_8566
1483,"(462, 156, 64, 2)",2,mbtiauth_8566
1484,"(463, 7, 65, 342)",2,mbtiauth_8566
1485,"(463, 7, 65, 463)",2,mbtiauth_8566
1486,"(463, 7, 342, 463)",2,mbtiauth_8566
1487,"(463, 64, 7, 65)",3,mbtiauth_8566
1488,"(463, 64, 7, 342)",2,mbtiauth_8566
1489,"(463, 64, 7, 463)",2,mbtiauth_8566
1490,"(463, 64, 65, 342)",2,mbtiauth_8566
1491,"(463, 64, 65, 463)",2,mbtiauth_8566
1492,"(463, 64, 113, 7)",3,mbtiauth_8566
1493,"(463, 64, 113, 65)",3,mbtiauth_8566
1494,"(463, 64, 113, 342)",2,mbtiauth_8566
1495,"(463, 64, 113, 463)",2,mbtiauth_8566
1496,"(463, 64, 342, 463)",2,mbtiauth_8566
1497,"(463, 64, 895, 7)",3,mbtiauth_8566
1498,"(463, 64, 895, 65)",3,mbtiauth_8566
1499,"(463, 64, 895, 113)",3,mbtiauth_8566
1500,"(463, 64, 895, 342)",2,mbtiauth_8566
1501,"(463, 64, 895, 463)",2,mbtiauth_8566
1502,"(463, 65, 342, 463)",2,mbtiauth_8566
1503,"(463, 113, 7, 65)",3,mbtiauth_8566
1504,"(463, 113, 7, 342)",2,mbtiauth_8566
1505,"(463, 113, 7, 463)",2,mbtiauth_8566
1506,"(463, 113, 65, 342)",2,mbtiauth_8566
1507,"(463, 113, 65, 463)",2,mbtiauth_8566
1508,"(463, 113, 342, 463)",2,mbtiauth_8566
1509,"(463, 895, 7, 65)",3,mbtiauth_8566
1510,"(463, 895, 7, 342)",2,mbtiauth_8566
1511,"(463, 895, 7, 463)",2,mbtiauth_8566
1512,"(463, 895, 65, 342)",2,mbtiauth_8566
1513,"(463, 895, 65, 463)",2,mbtiauth_8566
1514,"(463, 895, 113, 7)",3,mbtiauth_8566
1515,"(463, 895, 113, 65)",3,mbtiauth_8566
1516,"(463, 895, 113, 342)",2,mbtiauth_8566
1517,"(463, 895, 113, 463)",2,mbtiauth_8566
1518,"(463, 895, 342, 463)",2,mbtiauth_8566
1519,"(484, 141, 41, 2078)",2,mbtiauth_8566
1520,"(694, 76, 364, 2329)",2,mbtiauth_8566
1521,"(786, 242, 342, 1175)",2,mbtiauth_8566
1522,"(786, 340, 242, 342)",2,mbtiauth_8566
1523,"(786, 340, 242, 1175)",2,mbtiauth_8566
1524,"(786, 340, 342, 1175)",2,mbtiauth_8566
1525,"(895, 7, 64, 895)",2,mbtiauth_8566
1526,"(895, 7, 65, 64)",2,mbtiauth_8566
1527,"(895, 7, 65, 342)",2,mbtiauth_8566
1528,"(895, 7, 65, 463)",2,mbtiauth_8566
1529,"(895, 7, 65, 895)",2,mbtiauth_8566
1530,"(895, 7, 342, 64)",2,mbtiauth_8566
1531,"(895, 7, 342, 463)",2,mbtiauth_8566
1532,"(895, 7, 342, 895)",2,mbtiauth_8566
1533,"(895, 7, 463, 64)",2,mbtiauth_8566
1534,"(895, 7, 463, 895)",2,mbtiauth_8566
1535,"(895, 65, 64, 895)",2,mbtiauth_8566
1536,"(895, 65, 342, 64)",2,mbtiauth_8566
1537,"(895, 65, 342, 463)",2,mbtiauth_8566
1538,"(895, 65, 342, 895)",2,mbtiauth_8566
1539,"(895, 65, 463, 64)",2,mbtiauth_8566
1540,"(895, 65, 463, 895)",2,mbtiauth_8566
1541,"(895, 113, 7, 64)",2,mbtiauth_8566
1542,"(895, 113, 7, 65)",3,mbtiauth_8566
1543,"(895, 113, 7, 342)",2,mbtiauth_8566
1544,"(895, 113, 7, 463)",2,mbtiauth_8566
1545,"(895, 113, 7, 895)",2,mbtiauth_8566
1546,"(895, 113, 64, 895)",2,mbtiauth_8566
1547,"(895, 113, 65, 64)",2,mbtiauth_8566
1548,"(895, 113, 65, 342)",2,mbtiauth_8566
1549,"(895, 113, 65, 463)",2,mbtiauth_8566
1550,"(895, 113, 65, 895)",2,mbtiauth_8566
1551,"(895, 113, 342, 64)",2,mbtiauth_8566
1552,"(895, 113, 342, 463)",2,mbtiauth_8566
1553,"(895, 113, 342, 895)",2,mbtiauth_8566
1554,"(895, 113, 463, 64)",2,mbtiauth_8566
1555,"(895, 113, 463, 895)",2,mbtiauth_8566
1556,"(895, 342, 64, 895)",2,mbtiauth_8566
1557,"(895, 342, 463, 64)",2,mbtiauth_8566
1558,"(895, 342, 463, 895)",2,mbtiauth_8566
1559,"(895, 463, 64, 895)",2,mbtiauth_8566
1560,"(999, 148, 232, 804)",2,mbtiauth_8566
1561,"(999, 148, 232, 2329)",2,mbtiauth_8566
1562,"(999, 148, 804, 2329)",2,mbtiauth_8566
1563,"(999, 160, 148, 232)",2,mbtiauth_8566
1564,"(999, 160, 148, 804)",2,mbtiauth_8566
1565,"(999, 160, 148, 2329)",2,mbtiauth_8566
1566,"(999, 160, 232, 804)",2,mbtiauth_8566
1567,"(999, 160, 232, 2329)",2,mbtiauth_8566
1568,"(999, 160, 804, 2329)",2,mbtiauth_8566
1569,"(999, 232, 804, 2329)",2,mbtiauth_8566
1570,"(1175, 41, 786, 340)",2,mbtiauth_8566
1571,"(1175, 224, 41, 340)",2,mbtiauth_8566
1572,"(1175, 224, 41, 786)",2,mbtiauth_8566
1573,"(1175, 224, 786, 340)",2,mbtiauth_8566
1574,"(1175, 1583, 41, 340)",2,mbtiauth_8566
1575,"(1175, 1583, 41, 786)",2,mbtiauth_8566
1576,"(1175, 1583, 224, 41)",3,mbtiauth_8566
1577,"(1175, 1583, 224, 340)",2,mbtiauth_8566
1578,"(1175, 1583, 224, 786)",2,mbtiauth_8566
1579,"(1175, 1583, 786, 340)",2,mbtiauth_8566
1580,"(1175, 4754, 41, 340)",2,mbtiauth_8566
1581,"(1175, 4754, 41, 786)",2,mbtiauth_8566
1582,"(1175, 4754, 224, 41)",3,mbtiauth_8566
1583,"(1175, 4754, 224, 340)",2,mbtiauth_8566
1584,"(1175, 4754, 224, 786)",2,mbtiauth_8566
1585,"(1175, 4754, 786, 340)",2,mbtiauth_8566
1586,"(1175, 4754, 1583, 41)",3,mbtiauth_8566
1587,"(1175, 4754, 1583, 224)",3,mbtiauth_8566
1588,"(1175, 4754, 1583, 340)",2,mbtiauth_8566
1589,"(1175, 4754, 1583, 786)",2,mbtiauth_8566
1590,"(1511, 64, 694, 41)",2,mbtiauth_8566
1591,"(1583, 41, 786, 340)",2,mbtiauth_8566
1592,"(1583, 224, 41, 340)",2,mbtiauth_8566
1593,"(1583, 224, 41, 786)",2,mbtiauth_8566
1594,"(1583, 224, 786, 340)",2,mbtiauth_8566
1595,"(2078, 148, 232, 804)",2,mbtiauth_8566
1596,"(2078, 148, 232, 2329)",2,mbtiauth_8566
1597,"(2078, 148, 804, 2329)",2,mbtiauth_8566
1598,"(2078, 160, 148, 232)",2,mbtiauth_8566
1599,"(2078, 160, 148, 804)",2,mbtiauth_8566
1600,"(2078, 160, 148, 2329)",2,mbtiauth_8566
1601,"(2078, 160, 232, 804)",2,mbtiauth_8566
1602,"(2078, 160, 232, 2329)",2,mbtiauth_8566
1603,"(2078, 160, 804, 2329)",2,mbtiauth_8566
1604,"(2078, 232, 804, 2329)",2,mbtiauth_8566
1605,"(2078, 999, 148, 232)",2,mbtiauth_8566
1606,"(2078, 999, 148, 804)",2,mbtiauth_8566
1607,"(2078, 999, 148, 2329)",2,mbtiauth_8566
1608,"(2078, 999, 160, 148)",2,mbtiauth_8566
1609,"(2078, 999, 160, 232)",2,mbtiauth_8566
1610,"(2078, 999, 160, 804)",2,mbtiauth_8566
1611,"(2078, 999, 160, 2329)",2,mbtiauth_8566
1612,"(2078, 999, 232, 804)",2,mbtiauth_8566
1613,"(2078, 999, 232, 2329)",2,mbtiauth_8566
1614,"(2078, 999, 804, 2329)",2,mbtiauth_8566
1615,"(2329, 7, 151, 999)",2,mbtiauth_8566
1616,"(4754, 41, 786, 340)",2,mbtiauth_8566
1617,"(4754, 224, 41, 340)",2,mbtiauth_8566
1618,"(4754, 224, 41, 786)",2,mbtiauth_8566
1619,"(4754, 224, 786, 340)",2,mbtiauth_8566
1620,"(4754, 1583, 41, 340)",2,mbtiauth_8566
1621,"(4754, 1583, 41, 786)",2,mbtiauth_8566
1622,"(4754, 1583, 224, 41)",3,mbtiauth_8566
1623,"(4754, 1583, 224, 340)",2,mbtiauth_8566
1624,"(4754, 1583, 224, 786)",2,mbtiauth_8566
1625,"(4754, 1583, 786, 340)",2,mbtiauth_8566
1626,"(7, 64, 895, 113, 7)",2,mbtiauth_8566
1627,"(7, 65, 64, 113, 7)",2,mbtiauth_8566
1628,"(7, 65, 64, 895, 7)",2,mbtiauth_8566
1629,"(7, 65, 64, 895, 113)",2,mbtiauth_8566
1630,"(7, 65, 342, 64, 7)",2,mbtiauth_8566
1631,"(7, 65, 342, 64, 113)",2,mbtiauth_8566
1632,"(7, 65, 342, 64, 895)",2,mbtiauth_8566
1633,"(7, 65, 342, 113, 7)",2,mbtiauth_8566
1634,"(7, 65, 342, 463, 7)",2,mbtiauth_8566
1635,"(7, 65, 342, 463, 64)",2,mbtiauth_8566
1636,"(7, 65, 342, 463, 113)",2,mbtiauth_8566
1637,"(7, 65, 342, 463, 895)",2,mbtiauth_8566
1638,"(7, 65, 342, 895, 7)",2,mbtiauth_8566
1639,"(7, 65, 342, 895, 113)",2,mbtiauth_8566
1640,"(7, 65, 463, 64, 7)",2,mbtiauth_8566
1641,"(7, 65, 463, 64, 113)",2,mbtiauth_8566
1642,"(7, 65, 463, 64, 895)",2,mbtiauth_8566
1643,"(7, 65, 463, 113, 7)",2,mbtiauth_8566
1644,"(7, 65, 463, 895, 7)",2,mbtiauth_8566
1645,"(7, 65, 463, 895, 113)",2,mbtiauth_8566
1646,"(7, 65, 895, 113, 7)",2,mbtiauth_8566
1647,"(7, 342, 64, 113, 7)",2,mbtiauth_8566
1648,"(7, 342, 64, 895, 7)",2,mbtiauth_8566
1649,"(7, 342, 64, 895, 113)",2,mbtiauth_8566
1650,"(7, 342, 463, 64, 7)",2,mbtiauth_8566
1651,"(7, 342, 463, 64, 113)",2,mbtiauth_8566
1652,"(7, 342, 463, 64, 895)",2,mbtiauth_8566
1653,"(7, 342, 463, 113, 7)",2,mbtiauth_8566
1654,"(7, 342, 463, 895, 7)",2,mbtiauth_8566
1655,"(7, 342, 463, 895, 113)",2,mbtiauth_8566
1656,"(7, 342, 895, 113, 7)",2,mbtiauth_8566
1657,"(7, 463, 64, 113, 7)",2,mbtiauth_8566
1658,"(7, 463, 64, 895, 7)",2,mbtiauth_8566
1659,"(7, 463, 64, 895, 113)",2,mbtiauth_8566
1660,"(7, 463, 895, 113, 7)",2,mbtiauth_8566
1661,"(41, 786, 340, 242, 342)",2,mbtiauth_8566
1662,"(64, 7, 65, 342, 64)",2,mbtiauth_8566
1663,"(64, 7, 65, 342, 463)",2,mbtiauth_8566
1664,"(64, 7, 65, 463, 64)",2,mbtiauth_8566
1665,"(64, 7, 342, 463, 64)",2,mbtiauth_8566
1666,"(64, 65, 342, 463, 64)",2,mbtiauth_8566
1667,"(64, 113, 7, 65, 64)",2,mbtiauth_8566
1668,"(64, 113, 7, 65, 342)",2,mbtiauth_8566
1669,"(64, 113, 7, 65, 463)",2,mbtiauth_8566
1670,"(64, 113, 7, 342, 64)",2,mbtiauth_8566
1671,"(64, 113, 7, 342, 463)",2,mbtiauth_8566
1672,"(64, 113, 7, 463, 64)",2,mbtiauth_8566
1673,"(64, 113, 65, 342, 64)",2,mbtiauth_8566
1674,"(64, 113, 65, 342, 463)",2,mbtiauth_8566
1675,"(64, 113, 65, 463, 64)",2,mbtiauth_8566
1676,"(64, 113, 342, 463, 64)",2,mbtiauth_8566
1677,"(64, 895, 7, 65, 64)",2,mbtiauth_8566
1678,"(64, 895, 7, 65, 342)",2,mbtiauth_8566
1679,"(64, 895, 7, 65, 463)",2,mbtiauth_8566
1680,"(64, 895, 7, 342, 64)",2,mbtiauth_8566
1681,"(64, 895, 7, 342, 463)",2,mbtiauth_8566
1682,"(64, 895, 7, 463, 64)",2,mbtiauth_8566
1683,"(64, 895, 65, 342, 64)",2,mbtiauth_8566
1684,"(64, 895, 65, 342, 463)",2,mbtiauth_8566
1685,"(64, 895, 65, 463, 64)",2,mbtiauth_8566
1686,"(64, 895, 113, 7, 64)",2,mbtiauth_8566
1687,"(64, 895, 113, 7, 65)",3,mbtiauth_8566
1688,"(64, 895, 113, 7, 342)",2,mbtiauth_8566
1689,"(64, 895, 113, 7, 463)",2,mbtiauth_8566
1690,"(64, 895, 113, 65, 64)",2,mbtiauth_8566
1691,"(64, 895, 113, 65, 342)",2,mbtiauth_8566
1692,"(64, 895, 113, 65, 463)",2,mbtiauth_8566
1693,"(64, 895, 113, 342, 64)",2,mbtiauth_8566
1694,"(64, 895, 113, 342, 463)",2,mbtiauth_8566
1695,"(64, 895, 113, 463, 64)",2,mbtiauth_8566
1696,"(64, 895, 342, 463, 64)",2,mbtiauth_8566
1697,"(65, 64, 113, 7, 65)",2,mbtiauth_8566
1698,"(65, 64, 895, 7, 65)",2,mbtiauth_8566
1699,"(65, 64, 895, 113, 7)",2,mbtiauth_8566
1700,"(65, 64, 895, 113, 65)",2,mbtiauth_8566
1701,"(65, 342, 64, 7, 65)",2,mbtiauth_8566
1702,"(65, 342, 64, 113, 7)",2,mbtiauth_8566
1703,"(65, 342, 64, 113, 65)",2,mbtiauth_8566
1704,"(65, 342, 64, 895, 7)",2,mbtiauth_8566
1705,"(65, 342, 64, 895, 65)",2,mbtiauth_8566
1706,"(65, 342, 64, 895, 113)",2,mbtiauth_8566
1707,"(65, 342, 113, 7, 65)",2,mbtiauth_8566
1708,"(65, 342, 463, 7, 65)",2,mbtiauth_8566
1709,"(65, 342, 463, 64, 7)",2,mbtiauth_8566
1710,"(65, 342, 463, 64, 65)",2,mbtiauth_8566
1711,"(65, 342, 463, 64, 113)",2,mbtiauth_8566
1712,"(65, 342, 463, 64, 895)",2,mbtiauth_8566
1713,"(65, 342, 463, 113, 7)",2,mbtiauth_8566
1714,"(65, 342, 463, 113, 65)",2,mbtiauth_8566
1715,"(65, 342, 463, 895, 7)",2,mbtiauth_8566
1716,"(65, 342, 463, 895, 65)",2,mbtiauth_8566
1717,"(65, 342, 463, 895, 113)",2,mbtiauth_8566
1718,"(65, 342, 895, 7, 65)",2,mbtiauth_8566
1719,"(65, 342, 895, 113, 7)",2,mbtiauth_8566
1720,"(65, 342, 895, 113, 65)",2,mbtiauth_8566
1721,"(65, 463, 64, 7, 65)",2,mbtiauth_8566
1722,"(65, 463, 64, 113, 7)",2,mbtiauth_8566
1723,"(65, 463, 64, 113, 65)",2,mbtiauth_8566
1724,"(65, 463, 64, 895, 7)",2,mbtiauth_8566
1725,"(65, 463, 64, 895, 65)",2,mbtiauth_8566
1726,"(65, 463, 64, 895, 113)",2,mbtiauth_8566
1727,"(65, 463, 113, 7, 65)",2,mbtiauth_8566
1728,"(65, 463, 895, 7, 65)",2,mbtiauth_8566
1729,"(65, 463, 895, 113, 7)",2,mbtiauth_8566
1730,"(65, 463, 895, 113, 65)",2,mbtiauth_8566
1731,"(65, 895, 113, 7, 65)",2,mbtiauth_8566
1732,"(76, 418, 3, 41, 244)",2,mbtiauth_8566
1733,"(76, 1511, 64, 694, 41)",2,mbtiauth_8566
1734,"(113, 7, 64, 895, 113)",2,mbtiauth_8566
1735,"(113, 7, 65, 64, 113)",2,mbtiauth_8566
1736,"(113, 7, 65, 64, 895)",2,mbtiauth_8566
1737,"(113, 7, 65, 342, 64)",2,mbtiauth_8566
1738,"(113, 7, 65, 342, 113)",2,mbtiauth_8566
1739,"(113, 7, 65, 342, 463)",2,mbtiauth_8566
1740,"(113, 7, 65, 342, 895)",2,mbtiauth_8566
1741,"(113, 7, 65, 463, 64)",2,mbtiauth_8566
1742,"(113, 7, 65, 463, 113)",2,mbtiauth_8566
1743,"(113, 7, 65, 463, 895)",2,mbtiauth_8566
1744,"(113, 7, 65, 895, 113)",2,mbtiauth_8566
1745,"(113, 7, 342, 64, 113)",2,mbtiauth_8566
1746,"(113, 7, 342, 64, 895)",2,mbtiauth_8566
1747,"(113, 7, 342, 463, 64)",2,mbtiauth_8566
1748,"(113, 7, 342, 463, 113)",2,mbtiauth_8566
1749,"(113, 7, 342, 463, 895)",2,mbtiauth_8566
1750,"(113, 7, 342, 895, 113)",2,mbtiauth_8566
1751,"(113, 7, 463, 64, 113)",2,mbtiauth_8566
1752,"(113, 7, 463, 64, 895)",2,mbtiauth_8566
1753,"(113, 7, 463, 895, 113)",2,mbtiauth_8566
1754,"(113, 22, 76, 3, 41)",2,mbtiauth_8566
1755,"(113, 65, 64, 895, 113)",2,mbtiauth_8566
1756,"(113, 65, 342, 64, 113)",2,mbtiauth_8566
1757,"(113, 65, 342, 64, 895)",2,mbtiauth_8566
1758,"(113, 65, 342, 463, 64)",2,mbtiauth_8566
1759,"(113, 65, 342, 463, 113)",2,mbtiauth_8566
1760,"(113, 65, 342, 463, 895)",2,mbtiauth_8566
1761,"(113, 65, 342, 895, 113)",2,mbtiauth_8566
1762,"(113, 65, 463, 64, 113)",2,mbtiauth_8566
1763,"(113, 65, 463, 64, 895)",2,mbtiauth_8566
1764,"(113, 65, 463, 895, 113)",2,mbtiauth_8566
1765,"(113, 156, 64, 463, 76)",2,mbtiauth_8566
1766,"(113, 342, 64, 895, 113)",2,mbtiauth_8566
1767,"(113, 342, 463, 64, 113)",2,mbtiauth_8566
1768,"(113, 342, 463, 64, 895)",2,mbtiauth_8566
1769,"(113, 342, 463, 895, 113)",2,mbtiauth_8566
1770,"(113, 463, 64, 113, 7)",2,mbtiauth_8566
1771,"(113, 463, 64, 895, 113)",2,mbtiauth_8566
1772,"(141, 41, 277, 2078, 999)",2,mbtiauth_8566
1773,"(160, 148, 232, 804, 2329)",2,mbtiauth_8566
1774,"(224, 41, 786, 340, 242)",2,mbtiauth_8566
1775,"(242, 224, 41, 786, 340)",2,mbtiauth_8566
1776,"(242, 342, 41, 786, 340)",2,mbtiauth_8566
1777,"(242, 342, 224, 41, 340)",2,mbtiauth_8566
1778,"(242, 342, 224, 41, 786)",2,mbtiauth_8566
1779,"(242, 342, 224, 786, 340)",2,mbtiauth_8566
1780,"(242, 342, 1175, 41, 340)",2,mbtiauth_8566
1781,"(242, 342, 1175, 41, 786)",2,mbtiauth_8566
1782,"(242, 342, 1175, 224, 41)",3,mbtiauth_8566
1783,"(242, 342, 1175, 224, 340)",2,mbtiauth_8566
1784,"(242, 342, 1175, 224, 786)",2,mbtiauth_8566
1785,"(242, 342, 1175, 786, 340)",2,mbtiauth_8566
1786,"(242, 342, 1175, 1583, 41)",3,mbtiauth_8566
1787,"(242, 342, 1175, 1583, 224)",3,mbtiauth_8566
1788,"(242, 342, 1175, 1583, 340)",2,mbtiauth_8566
1789,"(242, 342, 1175, 1583, 786)",2,mbtiauth_8566
1790,"(242, 342, 1175, 4754, 41)",3,mbtiauth_8566
1791,"(242, 342, 1175, 4754, 224)",3,mbtiauth_8566
1792,"(242, 342, 1175, 4754, 340)",2,mbtiauth_8566
1793,"(242, 342, 1175, 4754, 786)",2,mbtiauth_8566
1794,"(242, 342, 1175, 4754, 1583)",3,mbtiauth_8566
1795,"(242, 342, 1583, 41, 340)",2,mbtiauth_8566
1796,"(242, 342, 1583, 41, 786)",2,mbtiauth_8566
1797,"(242, 342, 1583, 224, 41)",3,mbtiauth_8566
1798,"(242, 342, 1583, 224, 340)",2,mbtiauth_8566
1799,"(242, 342, 1583, 224, 786)",2,mbtiauth_8566
1800,"(242, 342, 1583, 786, 340)",2,mbtiauth_8566
1801,"(242, 342, 4754, 41, 340)",2,mbtiauth_8566
1802,"(242, 342, 4754, 41, 786)",2,mbtiauth_8566
1803,"(242, 342, 4754, 224, 41)",3,mbtiauth_8566
1804,"(242, 342, 4754, 224, 340)",2,mbtiauth_8566
1805,"(242, 342, 4754, 224, 786)",2,mbtiauth_8566
1806,"(242, 342, 4754, 786, 340)",2,mbtiauth_8566
1807,"(242, 342, 4754, 1583, 41)",3,mbtiauth_8566
1808,"(242, 342, 4754, 1583, 224)",3,mbtiauth_8566
1809,"(242, 342, 4754, 1583, 340)",2,mbtiauth_8566
1810,"(242, 342, 4754, 1583, 786)",2,mbtiauth_8566
1811,"(242, 1175, 41, 786, 340)",2,mbtiauth_8566
1812,"(242, 1175, 224, 41, 340)",2,mbtiauth_8566
1813,"(242, 1175, 224, 41, 786)",2,mbtiauth_8566
1814,"(242, 1175, 224, 786, 340)",2,mbtiauth_8566
1815,"(242, 1175, 1583, 41, 340)",2,mbtiauth_8566
1816,"(242, 1175, 1583, 41, 786)",2,mbtiauth_8566
1817,"(242, 1175, 1583, 224, 41)",3,mbtiauth_8566
1818,"(242, 1175, 1583, 224, 340)",2,mbtiauth_8566
1819,"(242, 1175, 1583, 224, 786)",2,mbtiauth_8566
1820,"(242, 1175, 1583, 786, 340)",2,mbtiauth_8566
1821,"(242, 1175, 4754, 41, 340)",2,mbtiauth_8566
1822,"(242, 1175, 4754, 41, 786)",2,mbtiauth_8566
1823,"(242, 1175, 4754, 224, 41)",3,mbtiauth_8566
1824,"(242, 1175, 4754, 224, 340)",2,mbtiauth_8566
1825,"(242, 1175, 4754, 224, 786)",2,mbtiauth_8566
1826,"(242, 1175, 4754, 786, 340)",2,mbtiauth_8566
1827,"(242, 1175, 4754, 1583, 41)",3,mbtiauth_8566
1828,"(242, 1175, 4754, 1583, 224)",3,mbtiauth_8566
1829,"(242, 1175, 4754, 1583, 340)",2,mbtiauth_8566
1830,"(242, 1175, 4754, 1583, 786)",2,mbtiauth_8566
1831,"(242, 1583, 41, 786, 340)",2,mbtiauth_8566
1832,"(242, 1583, 224, 41, 340)",2,mbtiauth_8566
1833,"(242, 1583, 224, 41, 786)",2,mbtiauth_8566
1834,"(242, 1583, 224, 786, 340)",2,mbtiauth_8566
1835,"(242, 4754, 41, 786, 340)",2,mbtiauth_8566
1836,"(242, 4754, 224, 41, 340)",2,mbtiauth_8566
1837,"(242, 4754, 224, 41, 786)",2,mbtiauth_8566
1838,"(242, 4754, 224, 786, 340)",2,mbtiauth_8566
1839,"(242, 4754, 1583, 41, 340)",2,mbtiauth_8566
1840,"(242, 4754, 1583, 41, 786)",2,mbtiauth_8566
1841,"(242, 4754, 1583, 224, 41)",3,mbtiauth_8566
1842,"(242, 4754, 1583, 224, 340)",2,mbtiauth_8566
1843,"(242, 4754, 1583, 224, 786)",2,mbtiauth_8566
1844,"(242, 4754, 1583, 786, 340)",2,mbtiauth_8566
1845,"(273, 113, 694, 29, 1065)",2,mbtiauth_8566
1846,"(273, 364, 7, 151, 999)",2,mbtiauth_8566
1847,"(273, 364, 2329, 7, 151)",2,mbtiauth_8566
1848,"(273, 364, 2329, 7, 999)",2,mbtiauth_8566
1849,"(273, 364, 2329, 151, 999)",2,mbtiauth_8566
1850,"(273, 2329, 7, 151, 999)",2,mbtiauth_8566
1851,"(340, 242, 342, 1175, 4754)",2,mbtiauth_8566
1852,"(342, 64, 7, 65, 342)",2,mbtiauth_8566
1853,"(342, 64, 113, 7, 65)",3,mbtiauth_8566
1854,"(342, 64, 113, 7, 342)",2,mbtiauth_8566
1855,"(342, 64, 113, 65, 342)",2,mbtiauth_8566
1856,"(342, 64, 895, 7, 65)",3,mbtiauth_8566
1857,"(342, 64, 895, 7, 342)",2,mbtiauth_8566
1858,"(342, 64, 895, 65, 342)",2,mbtiauth_8566
1859,"(342, 64, 895, 113, 7)",3,mbtiauth_8566
1860,"(342, 64, 895, 113, 65)",3,mbtiauth_8566
1861,"(342, 64, 895, 113, 342)",2,mbtiauth_8566
1862,"(342, 113, 7, 65, 342)",2,mbtiauth_8566
1863,"(342, 224, 41, 786, 340)",2,mbtiauth_8566
1864,"(342, 463, 7, 65, 342)",2,mbtiauth_8566
1865,"(342, 463, 64, 7, 65)",3,mbtiauth_8566
1866,"(342, 463, 64, 7, 342)",2,mbtiauth_8566
1867,"(342, 463, 64, 65, 342)",2,mbtiauth_8566
1868,"(342, 463, 64, 113, 7)",3,mbtiauth_8566
1869,"(342, 463, 64, 113, 65)",3,mbtiauth_8566
1870,"(342, 463, 64, 113, 342)",2,mbtiauth_8566
1871,"(342, 463, 64, 895, 7)",3,mbtiauth_8566
1872,"(342, 463, 64, 895, 65)",3,mbtiauth_8566
1873,"(342, 463, 64, 895, 113)",3,mbtiauth_8566
1874,"(342, 463, 64, 895, 342)",2,mbtiauth_8566
1875,"(342, 463, 113, 7, 65)",3,mbtiauth_8566
1876,"(342, 463, 113, 7, 342)",2,mbtiauth_8566
1877,"(342, 463, 113, 65, 342)",2,mbtiauth_8566
1878,"(342, 463, 895, 7, 65)",3,mbtiauth_8566
1879,"(342, 463, 895, 7, 342)",2,mbtiauth_8566
1880,"(342, 463, 895, 65, 342)",2,mbtiauth_8566
1881,"(342, 463, 895, 113, 7)",3,mbtiauth_8566
1882,"(342, 463, 895, 113, 65)",3,mbtiauth_8566
1883,"(342, 463, 895, 113, 342)",2,mbtiauth_8566
1884,"(342, 895, 7, 65, 342)",2,mbtiauth_8566
1885,"(342, 895, 113, 7, 65)",3,mbtiauth_8566
1886,"(342, 895, 113, 7, 342)",2,mbtiauth_8566
1887,"(342, 895, 113, 65, 342)",2,mbtiauth_8566
1888,"(342, 1175, 41, 786, 340)",2,mbtiauth_8566
1889,"(342, 1175, 224, 41, 340)",2,mbtiauth_8566
1890,"(342, 1175, 224, 41, 786)",2,mbtiauth_8566
1891,"(342, 1175, 224, 786, 340)",2,mbtiauth_8566
1892,"(342, 1175, 1583, 41, 340)",2,mbtiauth_8566
1893,"(342, 1175, 1583, 41, 786)",2,mbtiauth_8566
1894,"(342, 1175, 1583, 224, 41)",3,mbtiauth_8566
1895,"(342, 1175, 1583, 224, 340)",2,mbtiauth_8566
1896,"(342, 1175, 1583, 224, 786)",2,mbtiauth_8566
1897,"(342, 1175, 1583, 786, 340)",2,mbtiauth_8566
1898,"(342, 1175, 4754, 41, 340)",2,mbtiauth_8566
1899,"(342, 1175, 4754, 41, 786)",2,mbtiauth_8566
1900,"(342, 1175, 4754, 224, 41)",3,mbtiauth_8566
1901,"(342, 1175, 4754, 224, 340)",2,mbtiauth_8566
1902,"(342, 1175, 4754, 224, 786)",2,mbtiauth_8566
1903,"(342, 1175, 4754, 786, 340)",2,mbtiauth_8566
1904,"(342, 1175, 4754, 1583, 41)",3,mbtiauth_8566
1905,"(342, 1175, 4754, 1583, 224)",3,mbtiauth_8566
1906,"(342, 1175, 4754, 1583, 340)",2,mbtiauth_8566
1907,"(342, 1175, 4754, 1583, 786)",2,mbtiauth_8566
1908,"(342, 1583, 41, 786, 340)",2,mbtiauth_8566
1909,"(342, 1583, 224, 41, 340)",2,mbtiauth_8566
1910,"(342, 1583, 224, 41, 786)",2,mbtiauth_8566
1911,"(342, 1583, 224, 786, 340)",2,mbtiauth_8566
1912,"(342, 4754, 41, 786, 340)",2,mbtiauth_8566
1913,"(342, 4754, 224, 41, 340)",2,mbtiauth_8566
1914,"(342, 4754, 224, 41, 786)",2,mbtiauth_8566
1915,"(342, 4754, 224, 786, 340)",2,mbtiauth_8566
1916,"(342, 4754, 1583, 41, 340)",2,mbtiauth_8566
1917,"(342, 4754, 1583, 41, 786)",2,mbtiauth_8566
1918,"(342, 4754, 1583, 224, 41)",3,mbtiauth_8566
1919,"(342, 4754, 1583, 224, 340)",2,mbtiauth_8566
1920,"(342, 4754, 1583, 224, 786)",2,mbtiauth_8566
1921,"(342, 4754, 1583, 786, 340)",2,mbtiauth_8566
1922,"(364, 2329, 7, 151, 999)",2,mbtiauth_8566
1923,"(462, 113, 156, 64, 2)",2,mbtiauth_8566
1924,"(463, 7, 65, 342, 463)",2,mbtiauth_8566
1925,"(463, 64, 7, 65, 342)",2,mbtiauth_8566
1926,"(463, 64, 7, 65, 463)",2,mbtiauth_8566
1927,"(463, 64, 7, 342, 463)",2,mbtiauth_8566
1928,"(463, 64, 65, 342, 463)",2,mbtiauth_8566
1929,"(463, 64, 113, 7, 65)",3,mbtiauth_8566
1930,"(463, 64, 113, 7, 342)",2,mbtiauth_8566
1931,"(463, 64, 113, 7, 463)",2,mbtiauth_8566
1932,"(463, 64, 113, 65, 342)",2,mbtiauth_8566
1933,"(463, 64, 113, 65, 463)",2,mbtiauth_8566
1934,"(463, 64, 113, 342, 463)",2,mbtiauth_8566
1935,"(463, 64, 895, 7, 65)",3,mbtiauth_8566
1936,"(463, 64, 895, 7, 342)",2,mbtiauth_8566
1937,"(463, 64, 895, 7, 463)",2,mbtiauth_8566
1938,"(463, 64, 895, 65, 342)",2,mbtiauth_8566
1939,"(463, 64, 895, 65, 463)",2,mbtiauth_8566
1940,"(463, 64, 895, 113, 7)",3,mbtiauth_8566
1941,"(463, 64, 895, 113, 65)",3,mbtiauth_8566
1942,"(463, 64, 895, 113, 342)",2,mbtiauth_8566
1943,"(463, 64, 895, 113, 463)",2,mbtiauth_8566
1944,"(463, 64, 895, 342, 463)",2,mbtiauth_8566
1945,"(463, 113, 7, 65, 342)",2,mbtiauth_8566
1946,"(463, 113, 7, 65, 463)",2,mbtiauth_8566
1947,"(463, 113, 7, 342, 463)",2,mbtiauth_8566
1948,"(463, 113, 65, 342, 463)",2,mbtiauth_8566
1949,"(463, 895, 7, 65, 342)",2,mbtiauth_8566
1950,"(463, 895, 7, 65, 463)",2,mbtiauth_8566
1951,"(463, 895, 7, 342, 463)",2,mbtiauth_8566
1952,"(463, 895, 65, 342, 463)",2,mbtiauth_8566
1953,"(463, 895, 113, 7, 65)",3,mbtiauth_8566
1954,"(463, 895, 113, 7, 342)",2,mbtiauth_8566
1955,"(463, 895, 113, 7, 463)",2,mbtiauth_8566
1956,"(463, 895, 113, 65, 342)",2,mbtiauth_8566
1957,"(463, 895, 113, 65, 463)",2,mbtiauth_8566
1958,"(463, 895, 113, 342, 463)",2,mbtiauth_8566
1959,"(786, 340, 242, 342, 1175)",2,mbtiauth_8566
1960,"(895, 7, 65, 64, 895)",2,mbtiauth_8566
1961,"(895, 7, 65, 342, 64)",2,mbtiauth_8566
1962,"(895, 7, 65, 342, 463)",2,mbtiauth_8566
1963,"(895, 7, 65, 342, 895)",2,mbtiauth_8566
1964,"(895, 7, 65, 463, 64)",2,mbtiauth_8566
1965,"(895, 7, 65, 463, 895)",2,mbtiauth_8566
1966,"(895, 7, 342, 64, 895)",2,mbtiauth_8566
1967,"(895, 7, 342, 463, 64)",2,mbtiauth_8566
1968,"(895, 7, 342, 463, 895)",2,mbtiauth_8566
1969,"(895, 7, 463, 64, 895)",2,mbtiauth_8566
1970,"(895, 65, 342, 64, 895)",2,mbtiauth_8566
1971,"(895, 65, 342, 463, 64)",2,mbtiauth_8566
1972,"(895, 65, 342, 463, 895)",2,mbtiauth_8566
1973,"(895, 65, 463, 64, 895)",2,mbtiauth_8566
1974,"(895, 113, 7, 64, 895)",2,mbtiauth_8566
1975,"(895, 113, 7, 65, 64)",2,mbtiauth_8566
1976,"(895, 113, 7, 65, 342)",2,mbtiauth_8566
1977,"(895, 113, 7, 65, 463)",2,mbtiauth_8566
1978,"(895, 113, 7, 65, 895)",2,mbtiauth_8566
1979,"(895, 113, 7, 342, 64)",2,mbtiauth_8566
1980,"(895, 113, 7, 342, 463)",2,mbtiauth_8566
1981,"(895, 113, 7, 342, 895)",2,mbtiauth_8566
1982,"(895, 113, 7, 463, 64)",2,mbtiauth_8566
1983,"(895, 113, 7, 463, 895)",2,mbtiauth_8566
1984,"(895, 113, 65, 64, 895)",2,mbtiauth_8566
1985,"(895, 113, 65, 342, 64)",2,mbtiauth_8566
1986,"(895, 113, 65, 342, 463)",2,mbtiauth_8566
1987,"(895, 113, 65, 342, 895)",2,mbtiauth_8566
1988,"(895, 113, 65, 463, 64)",2,mbtiauth_8566
1989,"(895, 113, 65, 463, 895)",2,mbtiauth_8566
1990,"(895, 113, 342, 64, 895)",2,mbtiauth_8566
1991,"(895, 113, 342, 463, 64)",2,mbtiauth_8566
1992,"(895, 113, 342, 463, 895)",2,mbtiauth_8566
1993,"(895, 113, 463, 64, 895)",2,mbtiauth_8566
1994,"(895, 342, 463, 64, 895)",2,mbtiauth_8566
1995,"(999, 148, 232, 804, 2329)",2,mbtiauth_8566
1996,"(999, 160, 148, 232, 804)",2,mbtiauth_8566
1997,"(999, 160, 148, 232, 2329)",2,mbtiauth_8566
1998,"(999, 160, 148, 804, 2329)",2,mbtiauth_8566
1999,"(999, 160, 232, 804, 2329)",2,mbtiauth_8566
2000,"(1175, 224, 41, 786, 340)",2,mbtiauth_8566
2001,"(1175, 1583, 41, 786, 340)",2,mbtiauth_8566
2002,"(1175, 1583, 224, 41, 340)",2,mbtiauth_8566
2003,"(1175, 1583, 224, 41, 786)",2,mbtiauth_8566
2004,"(1175, 1583, 224, 786, 340)",2,mbtiauth_8566
2005,"(1175, 4754, 41, 786, 340)",2,mbtiauth_8566
2006,"(1175, 4754, 224, 41, 340)",2,mbtiauth_8566
2007,"(1175, 4754, 224, 41, 786)",2,mbtiauth_8566
2008,"(1175, 4754, 224, 786, 340)",2,mbtiauth_8566
2009,"(1175, 4754, 1583, 41, 340)",2,mbtiauth_8566
2010,"(1175, 4754, 1583, 41, 786)",2,mbtiauth_8566
2011,"(1175, 4754, 1583, 224, 41)",3,mbtiauth_8566
2012,"(1175, 4754, 1583, 224, 340)",2,mbtiauth_8566
2013,"(1175, 4754, 1583, 224, 786)",2,mbtiauth_8566
2014,"(1175, 4754, 1583, 786, 340)",2,mbtiauth_8566
2015,"(1583, 224, 41, 786, 340)",2,mbtiauth_8566
2016,"(2078, 148, 232, 804, 2329)",2,mbtiauth_8566
2017,"(2078, 160, 148, 232, 804)",2,mbtiauth_8566
2018,"(2078, 160, 148, 232, 2329)",2,mbtiauth_8566
2019,"(2078, 160, 148, 804, 2329)",2,mbtiauth_8566
2020,"(2078, 160, 232, 804, 2329)",2,mbtiauth_8566
2021,"(2078, 999, 148, 232, 804)",2,mbtiauth_8566
2022,"(2078, 999, 148, 232, 2329)",2,mbtiauth_8566
2023,"(2078, 999, 148, 804, 2329)",2,mbtiauth_8566
2024,"(2078, 999, 160, 148, 232)",2,mbtiauth_8566
2025,"(2078, 999, 160, 148, 804)",2,mbtiauth_8566
2026,"(2078, 999, 160, 148, 2329)",2,mbtiauth_8566
2027,"(2078, 999, 160, 232, 804)",2,mbtiauth_8566
2028,"(2078, 999, 160, 232, 2329)",2,mbtiauth_8566
2029,"(2078, 999, 160, 804, 2329)",2,mbtiauth_8566
2030,"(2078, 999, 232, 804, 2329)",2,mbtiauth_8566
2031,"(4754, 224, 41, 786, 340)",2,mbtiauth_8566
2032,"(4754, 1583, 41, 786, 340)",2,mbtiauth_8566
2033,"(4754, 1583, 224, 41, 340)",2,mbtiauth_8566
2034,"(4754, 1583, 224, 41, 786)",2,mbtiauth_8566
2035,"(4754, 1583, 224, 786, 340)",2,mbtiauth_8566
2036,"(7, 65, 64, 895, 113, 7)",2,mbtiauth_8566
2037,"(7, 65, 342, 64, 113, 7)",2,mbtiauth_8566
2038,"(7, 65, 342, 64, 895, 7)",2,mbtiauth_8566
2039,"(7, 65, 342, 64, 895, 113)",2,mbtiauth_8566
2040,"(7, 65, 342, 463, 64, 7)",2,mbtiauth_8566
2041,"(7, 65, 342, 463, 64, 113)",2,mbtiauth_8566
2042,"(7, 65, 342, 463, 64, 895)",2,mbtiauth_8566
2043,"(7, 65, 342, 463, 113, 7)",2,mbtiauth_8566
2044,"(7, 65, 342, 463, 895, 7)",2,mbtiauth_8566
2045,"(7, 65, 342, 463, 895, 113)",2,mbtiauth_8566
2046,"(7, 65, 342, 895, 113, 7)",2,mbtiauth_8566
2047,"(7, 65, 463, 64, 113, 7)",2,mbtiauth_8566
2048,"(7, 65, 463, 64, 895, 7)",2,mbtiauth_8566
2049,"(7, 65, 463, 64, 895, 113)",2,mbtiauth_8566
2050,"(7, 65, 463, 895, 113, 7)",2,mbtiauth_8566
2051,"(7, 342, 64, 895, 113, 7)",2,mbtiauth_8566
2052,"(7, 342, 463, 64, 113, 7)",2,mbtiauth_8566
2053,"(7, 342, 463, 64, 895, 7)",2,mbtiauth_8566
2054,"(7, 342, 463, 64, 895, 113)",2,mbtiauth_8566
2055,"(7, 342, 463, 895, 113, 7)",2,mbtiauth_8566
2056,"(7, 463, 64, 895, 113, 7)",2,mbtiauth_8566
2057,"(64, 7, 65, 342, 463, 64)",2,mbtiauth_8566
2058,"(64, 113, 7, 65, 342, 64)",2,mbtiauth_8566
2059,"(64, 113, 7, 65, 342, 463)",2,mbtiauth_8566
2060,"(64, 113, 7, 65, 463, 64)",2,mbtiauth_8566
2061,"(64, 113, 7, 342, 463, 64)",2,mbtiauth_8566
2062,"(64, 113, 65, 342, 463, 64)",2,mbtiauth_8566
2063,"(64, 895, 7, 65, 342, 64)",2,mbtiauth_8566
2064,"(64, 895, 7, 65, 342, 463)",2,mbtiauth_8566
2065,"(64, 895, 7, 65, 463, 64)",2,mbtiauth_8566
2066,"(64, 895, 7, 342, 463, 64)",2,mbtiauth_8566
2067,"(64, 895, 65, 342, 463, 64)",2,mbtiauth_8566
2068,"(64, 895, 113, 7, 65, 64)",2,mbtiauth_8566
2069,"(64, 895, 113, 7, 65, 342)",2,mbtiauth_8566
2070,"(64, 895, 113, 7, 65, 463)",2,mbtiauth_8566
2071,"(64, 895, 113, 7, 342, 64)",2,mbtiauth_8566
2072,"(64, 895, 113, 7, 342, 463)",2,mbtiauth_8566
2073,"(64, 895, 113, 7, 463, 64)",2,mbtiauth_8566
2074,"(64, 895, 113, 65, 342, 64)",2,mbtiauth_8566
2075,"(64, 895, 113, 65, 342, 463)",2,mbtiauth_8566
2076,"(64, 895, 113, 65, 463, 64)",2,mbtiauth_8566
2077,"(64, 895, 113, 342, 463, 64)",2,mbtiauth_8566
2078,"(65, 64, 895, 113, 7, 65)",2,mbtiauth_8566
2079,"(65, 342, 64, 113, 7, 65)",2,mbtiauth_8566
2080,"(65, 342, 64, 895, 7, 65)",2,mbtiauth_8566
2081,"(65, 342, 64, 895, 113, 7)",2,mbtiauth_8566
2082,"(65, 342, 64, 895, 113, 65)",2,mbtiauth_8566
2083,"(65, 342, 463, 64, 7, 65)",2,mbtiauth_8566
2084,"(65, 342, 463, 64, 113, 7)",2,mbtiauth_8566
2085,"(65, 342, 463, 64, 113, 65)",2,mbtiauth_8566
2086,"(65, 342, 463, 64, 895, 7)",2,mbtiauth_8566
2087,"(65, 342, 463, 64, 895, 65)",2,mbtiauth_8566
2088,"(65, 342, 463, 64, 895, 113)",2,mbtiauth_8566
2089,"(65, 342, 463, 113, 7, 65)",2,mbtiauth_8566
2090,"(65, 342, 463, 895, 7, 65)",2,mbtiauth_8566
2091,"(65, 342, 463, 895, 113, 7)",2,mbtiauth_8566
2092,"(65, 342, 463, 895, 113, 65)",2,mbtiauth_8566
2093,"(65, 342, 895, 113, 7, 65)",2,mbtiauth_8566
2094,"(65, 463, 64, 113, 7, 65)",2,mbtiauth_8566
2095,"(65, 463, 64, 895, 7, 65)",2,mbtiauth_8566
2096,"(65, 463, 64, 895, 113, 7)",2,mbtiauth_8566
2097,"(65, 463, 64, 895, 113, 65)",2,mbtiauth_8566
2098,"(65, 463, 895, 113, 7, 65)",2,mbtiauth_8566
2099,"(113, 7, 65, 64, 895, 113)",2,mbtiauth_8566
2100,"(113, 7, 65, 342, 64, 113)",2,mbtiauth_8566
2101,"(113, 7, 65, 342, 64, 895)",2,mbtiauth_8566
2102,"(113, 7, 65, 342, 463, 64)",2,mbtiauth_8566
2103,"(113, 7, 65, 342, 463, 113)",2,mbtiauth_8566
2104,"(113, 7, 65, 342, 463, 895)",2,mbtiauth_8566
2105,"(113, 7, 65, 342, 895, 113)",2,mbtiauth_8566
2106,"(113, 7, 65, 463, 64, 113)",2,mbtiauth_8566
2107,"(113, 7, 65, 463, 64, 895)",2,mbtiauth_8566
2108,"(113, 7, 65, 463, 895, 113)",2,mbtiauth_8566
2109,"(113, 7, 342, 64, 895, 113)",2,mbtiauth_8566
2110,"(113, 7, 342, 463, 64, 113)",2,mbtiauth_8566
2111,"(113, 7, 342, 463, 64, 895)",2,mbtiauth_8566
2112,"(113, 7, 342, 463, 895, 113)",2,mbtiauth_8566
2113,"(113, 7, 463, 64, 895, 113)",2,mbtiauth_8566
2114,"(113, 65, 342, 64, 895, 113)",2,mbtiauth_8566
2115,"(113, 65, 342, 463, 64, 113)",2,mbtiauth_8566
2116,"(113, 65, 342, 463, 64, 895)",2,mbtiauth_8566
2117,"(113, 65, 342, 463, 895, 113)",2,mbtiauth_8566
2118,"(113, 65, 463, 64, 895, 113)",2,mbtiauth_8566
2119,"(113, 342, 463, 64, 895, 113)",2,mbtiauth_8566
2120,"(242, 342, 224, 41, 786, 340)",2,mbtiauth_8566
2121,"(242, 342, 1175, 41, 786, 340)",2,mbtiauth_8566
2122,"(242, 342, 1175, 224, 41, 340)",2,mbtiauth_8566
2123,"(242, 342, 1175, 224, 41, 786)",2,mbtiauth_8566
2124,"(242, 342, 1175, 224, 786, 340)",2,mbtiauth_8566
2125,"(242, 342, 1175, 1583, 41, 340)",2,mbtiauth_8566
2126,"(242, 342, 1175, 1583, 41, 786)",2,mbtiauth_8566
2127,"(242, 342, 1175, 1583, 224, 41)",3,mbtiauth_8566
2128,"(242, 342, 1175, 1583, 224, 340)",2,mbtiauth_8566
2129,"(242, 342, 1175, 1583, 224, 786)",2,mbtiauth_8566
2130,"(242, 342, 1175, 1583, 786, 340)",2,mbtiauth_8566
2131,"(242, 342, 1175, 4754, 41, 340)",2,mbtiauth_8566
2132,"(242, 342, 1175, 4754, 41, 786)",2,mbtiauth_8566
2133,"(242, 342, 1175, 4754, 224, 41)",3,mbtiauth_8566
2134,"(242, 342, 1175, 4754, 224, 340)",2,mbtiauth_8566
2135,"(242, 342, 1175, 4754, 224, 786)",2,mbtiauth_8566
2136,"(242, 342, 1175, 4754, 786, 340)",2,mbtiauth_8566
2137,"(242, 342, 1175, 4754, 1583, 41)",3,mbtiauth_8566
2138,"(242, 342, 1175, 4754, 1583, 224)",3,mbtiauth_8566
2139,"(242, 342, 1175, 4754, 1583, 340)",2,mbtiauth_8566
2140,"(242, 342, 1175, 4754, 1583, 786)",2,mbtiauth_8566
2141,"(242, 342, 1583, 41, 786, 340)",2,mbtiauth_8566
2142,"(242, 342, 1583, 224, 41, 340)",2,mbtiauth_8566
2143,"(242, 342, 1583, 224, 41, 786)",2,mbtiauth_8566
2144,"(242, 342, 1583, 224, 786, 340)",2,mbtiauth_8566
2145,"(242, 342, 4754, 41, 786, 340)",2,mbtiauth_8566
2146,"(242, 342, 4754, 224, 41, 340)",2,mbtiauth_8566
2147,"(242, 342, 4754, 224, 41, 786)",2,mbtiauth_8566
2148,"(242, 342, 4754, 224, 786, 340)",2,mbtiauth_8566
2149,"(242, 342, 4754, 1583, 41, 340)",2,mbtiauth_8566
2150,"(242, 342, 4754, 1583, 41, 786)",2,mbtiauth_8566
2151,"(242, 342, 4754, 1583, 224, 41)",3,mbtiauth_8566
2152,"(242, 342, 4754, 1583, 224, 340)",2,mbtiauth_8566
2153,"(242, 342, 4754, 1583, 224, 786)",2,mbtiauth_8566
2154,"(242, 342, 4754, 1583, 786, 340)",2,mbtiauth_8566
2155,"(242, 1175, 224, 41, 786, 340)",2,mbtiauth_8566
2156,"(242, 1175, 1583, 41, 786, 340)",2,mbtiauth_8566
2157,"(242, 1175, 1583, 224, 41, 340)",2,mbtiauth_8566
2158,"(242, 1175, 1583, 224, 41, 786)",2,mbtiauth_8566
2159,"(242, 1175, 1583, 224, 786, 340)",2,mbtiauth_8566
2160,"(242, 1175, 4754, 41, 786, 340)",2,mbtiauth_8566
2161,"(242, 1175, 4754, 224, 41, 340)",2,mbtiauth_8566
2162,"(242, 1175, 4754, 224, 41, 786)",2,mbtiauth_8566
2163,"(242, 1175, 4754, 224, 786, 340)",2,mbtiauth_8566
2164,"(242, 1175, 4754, 1583, 41, 340)",2,mbtiauth_8566
2165,"(242, 1175, 4754, 1583, 41, 786)",2,mbtiauth_8566
2166,"(242, 1175, 4754, 1583, 224, 41)",3,mbtiauth_8566
2167,"(242, 1175, 4754, 1583, 224, 340)",2,mbtiauth_8566
2168,"(242, 1175, 4754, 1583, 224, 786)",2,mbtiauth_8566
2169,"(242, 1175, 4754, 1583, 786, 340)",2,mbtiauth_8566
2170,"(242, 1583, 224, 41, 786, 340)",2,mbtiauth_8566
2171,"(242, 4754, 224, 41, 786, 340)",2,mbtiauth_8566
2172,"(242, 4754, 1583, 41, 786, 340)",2,mbtiauth_8566
2173,"(242, 4754, 1583, 224, 41, 340)",2,mbtiauth_8566
2174,"(242, 4754, 1583, 224, 41, 786)",2,mbtiauth_8566
2175,"(242, 4754, 1583, 224, 786, 340)",2,mbtiauth_8566
2176,"(273, 364, 2329, 7, 151, 999)",2,mbtiauth_8566
2177,"(342, 64, 113, 7, 65, 342)",2,mbtiauth_8566
2178,"(342, 64, 895, 7, 65, 342)",2,mbtiauth_8566
2179,"(342, 64, 895, 113, 7, 65)",3,mbtiauth_8566
2180,"(342, 64, 895, 113, 7, 342)",2,mbtiauth_8566
2181,"(342, 64, 895, 113, 65, 342)",2,mbtiauth_8566
2182,"(342, 463, 64, 7, 65, 342)",2,mbtiauth_8566
2183,"(342, 463, 64, 113, 7, 65)",3,mbtiauth_8566
2184,"(342, 463, 64, 113, 7, 342)",2,mbtiauth_8566
2185,"(342, 463, 64, 113, 65, 342)",2,mbtiauth_8566
2186,"(342, 463, 64, 895, 7, 65)",3,mbtiauth_8566
2187,"(342, 463, 64, 895, 7, 342)",2,mbtiauth_8566
2188,"(342, 463, 64, 895, 65, 342)",2,mbtiauth_8566
2189,"(342, 463, 64, 895, 113, 7)",3,mbtiauth_8566
2190,"(342, 463, 64, 895, 113, 65)",3,mbtiauth_8566
2191,"(342, 463, 64, 895, 113, 342)",2,mbtiauth_8566
2192,"(342, 463, 113, 7, 65, 342)",2,mbtiauth_8566
2193,"(342, 463, 895, 7, 65, 342)",2,mbtiauth_8566
2194,"(342, 463, 895, 113, 7, 65)",3,mbtiauth_8566
2195,"(342, 463, 895, 113, 7, 342)",2,mbtiauth_8566
2196,"(342, 463, 895, 113, 65, 342)",2,mbtiauth_8566
2197,"(342, 895, 113, 7, 65, 342)",2,mbtiauth_8566
2198,"(342, 1175, 224, 41, 786, 340)",2,mbtiauth_8566
2199,"(342, 1175, 1583, 41, 786, 340)",2,mbtiauth_8566
2200,"(342, 1175, 1583, 224, 41, 340)",2,mbtiauth_8566
2201,"(342, 1175, 1583, 224, 41, 786)",2,mbtiauth_8566
2202,"(342, 1175, 1583, 224, 786, 340)",2,mbtiauth_8566
2203,"(342, 1175, 4754, 41, 786, 340)",2,mbtiauth_8566
2204,"(342, 1175, 4754, 224, 41, 340)",2,mbtiauth_8566
2205,"(342, 1175, 4754, 224, 41, 786)",2,mbtiauth_8566
2206,"(342, 1175, 4754, 224, 786, 340)",2,mbtiauth_8566
2207,"(342, 1175, 4754, 1583, 41, 340)",2,mbtiauth_8566
2208,"(342, 1175, 4754, 1583, 41, 786)",2,mbtiauth_8566
2209,"(342, 1175, 4754, 1583, 224, 41)",3,mbtiauth_8566
2210,"(342, 1175, 4754, 1583, 224, 340)",2,mbtiauth_8566
2211,"(342, 1175, 4754, 1583, 224, 786)",2,mbtiauth_8566
2212,"(342, 1175, 4754, 1583, 786, 340)",2,mbtiauth_8566
2213,"(342, 1583, 224, 41, 786, 340)",2,mbtiauth_8566
2214,"(342, 4754, 224, 41, 786, 340)",2,mbtiauth_8566
2215,"(342, 4754, 1583, 41, 786, 340)",2,mbtiauth_8566
2216,"(342, 4754, 1583, 224, 41, 340)",2,mbtiauth_8566
2217,"(342, 4754, 1583, 224, 41, 786)",2,mbtiauth_8566
2218,"(342, 4754, 1583, 224, 786, 340)",2,mbtiauth_8566
2219,"(463, 64, 7, 65, 342, 463)",2,mbtiauth_8566
2220,"(463, 64, 113, 7, 65, 342)",2,mbtiauth_8566
2221,"(463, 64, 113, 7, 65, 463)",2,mbtiauth_8566
2222,"(463, 64, 113, 7, 342, 463)",2,mbtiauth_8566
2223,"(463, 64, 113, 65, 342, 463)",2,mbtiauth_8566
2224,"(463, 64, 895, 7, 65, 342)",2,mbtiauth_8566
2225,"(463, 64, 895, 7, 65, 463)",2,mbtiauth_8566
2226,"(463, 64, 895, 7, 342, 463)",2,mbtiauth_8566
2227,"(463, 64, 895, 65, 342, 463)",2,mbtiauth_8566
2228,"(463, 64, 895, 113, 7, 65)",3,mbtiauth_8566
2229,"(463, 64, 895, 113, 7, 342)",2,mbtiauth_8566
2230,"(463, 64, 895, 113, 7, 463)",2,mbtiauth_8566
2231,"(463, 64, 895, 113, 65, 342)",2,mbtiauth_8566
2232,"(463, 64, 895, 113, 65, 463)",2,mbtiauth_8566
2233,"(463, 64, 895, 113, 342, 463)",2,mbtiauth_8566
2234,"(463, 113, 7, 65, 342, 463)",2,mbtiauth_8566
2235,"(463, 895, 7, 65, 342, 463)",2,mbtiauth_8566
2236,"(463, 895, 113, 7, 65, 342)",2,mbtiauth_8566
2237,"(463, 895, 113, 7, 65, 463)",2,mbtiauth_8566
2238,"(463, 895, 113, 7, 342, 463)",2,mbtiauth_8566
2239,"(463, 895, 113, 65, 342, 463)",2,mbtiauth_8566
2240,"(895, 7, 65, 342, 64, 895)",2,mbtiauth_8566
2241,"(895, 7, 65, 342, 463, 64)",2,mbtiauth_8566
2242,"(895, 7, 65, 342, 463, 895)",2,mbtiauth_8566
2243,"(895, 7, 65, 463, 64, 895)",2,mbtiauth_8566
2244,"(895, 7, 342, 463, 64, 895)",2,mbtiauth_8566
2245,"(895, 65, 342, 463, 64, 895)",2,mbtiauth_8566
2246,"(895, 113, 7, 65, 64, 895)",2,mbtiauth_8566
2247,"(895, 113, 7, 65, 342, 64)",2,mbtiauth_8566
2248,"(895, 113, 7, 65, 342, 463)",2,mbtiauth_8566
2249,"(895, 113, 7, 65, 342, 895)",2,mbtiauth_8566
2250,"(895, 113, 7, 65, 463, 64)",2,mbtiauth_8566
2251,"(895, 113, 7, 65, 463, 895)",2,mbtiauth_8566
2252,"(895, 113, 7, 342, 64, 895)",2,mbtiauth_8566
2253,"(895, 113, 7, 342, 463, 64)",2,mbtiauth_8566
2254,"(895, 113, 7, 342, 463, 895)",2,mbtiauth_8566
2255,"(895, 113, 7, 463, 64, 895)",2,mbtiauth_8566
2256,"(895, 113, 65, 342, 64, 895)",2,mbtiauth_8566
2257,"(895, 113, 65, 342, 463, 64)",2,mbtiauth_8566
2258,"(895, 113, 65, 342, 463, 895)",2,mbtiauth_8566
2259,"(895, 113, 65, 463, 64, 895)",2,mbtiauth_8566
2260,"(895, 113, 342, 463, 64, 895)",2,mbtiauth_8566
2261,"(999, 160, 148, 232, 804, 2329)",2,mbtiauth_8566
2262,"(1175, 1583, 224, 41, 786, 340)",2,mbtiauth_8566
2263,"(1175, 4754, 224, 41, 786, 340)",2,mbtiauth_8566
2264,"(1175, 4754, 1583, 41, 786, 340)",2,mbtiauth_8566
2265,"(1175, 4754, 1583, 224, 41, 340)",2,mbtiauth_8566
2266,"(1175, 4754, 1583, 224, 41, 786)",2,mbtiauth_8566
2267,"(1175, 4754, 1583, 224, 786, 340)",2,mbtiauth_8566
2268,"(2078, 160, 148, 232, 804, 2329)",2,mbtiauth_8566
2269,"(2078, 999, 148, 232, 804, 2329)",2,mbtiauth_8566
2270,"(2078, 999, 160, 148, 232, 804)",2,mbtiauth_8566
2271,"(2078, 999, 160, 148, 232, 2329)",2,mbtiauth_8566
2272,"(2078, 999, 160, 148, 804, 2329)",2,mbtiauth_8566
2273,"(2078, 999, 160, 232, 804, 2329)",2,mbtiauth_8566
2274,"(4754, 1583, 224, 41, 786, 340)",2,mbtiauth_8566
2275,"(7, 65, 342, 64, 895, 113, 7)",2,mbtiauth_8566
2276,"(7, 65, 342, 463, 64, 113, 7)",2,mbtiauth_8566
2277,"(7, 65, 342, 463, 64, 895, 7)",2,mbtiauth_8566
2278,"(7, 65, 342, 463, 64, 895, 113)",2,mbtiauth_8566
2279,"(7, 65, 342, 463, 895, 113, 7)",2,mbtiauth_8566
2280,"(7, 65, 463, 64, 895, 113, 7)",2,mbtiauth_8566
2281,"(7, 342, 463, 64, 895, 113, 7)",2,mbtiauth_8566
2282,"(64, 113, 7, 65, 342, 463, 64)",2,mbtiauth_8566
2283,"(64, 895, 7, 65, 342, 463, 64)",2,mbtiauth_8566
2284,"(64, 895, 113, 7, 65, 342, 64)",2,mbtiauth_8566
2285,"(64, 895, 113, 7, 65, 342, 463)",2,mbtiauth_8566
2286,"(64, 895, 113, 7, 65, 463, 64)",2,mbtiauth_8566
2287,"(64, 895, 113, 7, 342, 463, 64)",2,mbtiauth_8566
2288,"(64, 895, 113, 65, 342, 463, 64)",2,mbtiauth_8566
2289,"(65, 342, 64, 895, 113, 7, 65)",2,mbtiauth_8566
2290,"(65, 342, 463, 64, 113, 7, 65)",2,mbtiauth_8566
2291,"(65, 342, 463, 64, 895, 7, 65)",2,mbtiauth_8566
2292,"(65, 342, 463, 64, 895, 113, 7)",2,mbtiauth_8566
2293,"(65, 342, 463, 64, 895, 113, 65)",2,mbtiauth_8566
2294,"(65, 342, 463, 895, 113, 7, 65)",2,mbtiauth_8566
2295,"(65, 463, 64, 895, 113, 7, 65)",2,mbtiauth_8566
2296,"(113, 7, 65, 342, 64, 895, 113)",2,mbtiauth_8566
2297,"(113, 7, 65, 342, 463, 64, 113)",2,mbtiauth_8566
2298,"(113, 7, 65, 342, 463, 64, 895)",2,mbtiauth_8566
2299,"(113, 7, 65, 342, 463, 895, 113)",2,mbtiauth_8566
2300,"(113, 7, 65, 463, 64, 895, 113)",2,mbtiauth_8566
2301,"(113, 7, 342, 463, 64, 895, 113)",2,mbtiauth_8566
2302,"(113, 65, 342, 463, 64, 895, 113)",2,mbtiauth_8566
2303,"(242, 342, 1175, 224, 41, 786, 340)",2,mbtiauth_8566
2304,"(242, 342, 1175, 1583, 41, 786, 340)",2,mbtiauth_8566
2305,"(242, 342, 1175, 1583, 224, 41, 340)",2,mbtiauth_8566
2306,"(242, 342, 1175, 1583, 224, 41, 786)",2,mbtiauth_8566
2307,"(242, 342, 1175, 1583, 224, 786, 340)",2,mbtiauth_8566
2308,"(242, 342, 1175, 4754, 41, 786, 340)",2,mbtiauth_8566
2309,"(242, 342, 1175, 4754, 224, 41, 340)",2,mbtiauth_8566
2310,"(242, 342, 1175, 4754, 224, 41, 786)",2,mbtiauth_8566
2311,"(242, 342, 1175, 4754, 224, 786, 340)",2,mbtiauth_8566
2312,"(242, 342, 1175, 4754, 1583, 41, 340)",2,mbtiauth_8566
2313,"(242, 342, 1175, 4754, 1583, 41, 786)",2,mbtiauth_8566
2314,"(242, 342, 1175, 4754, 1583, 224, 41)",3,mbtiauth_8566
2315,"(242, 342, 1175, 4754, 1583, 224, 340)",2,mbtiauth_8566
2316,"(242, 342, 1175, 4754, 1583, 224, 786)",2,mbtiauth_8566
2317,"(242, 342, 1175, 4754, 1583, 786, 340)",2,mbtiauth_8566
2318,"(242, 342, 1583, 224, 41, 786, 340)",2,mbtiauth_8566
2319,"(242, 342, 4754, 224, 41, 786, 340)",2,mbtiauth_8566
2320,"(242, 342, 4754, 1583, 41, 786, 340)",2,mbtiauth_8566
2321,"(242, 342, 4754, 1583, 224, 41, 340)",2,mbtiauth_8566
2322,"(242, 342, 4754, 1583, 224, 41, 786)",2,mbtiauth_8566
2323,"(242, 342, 4754, 1583, 224, 786, 340)",2,mbtiauth_8566
2324,"(242, 1175, 1583, 224, 41, 786, 340)",2,mbtiauth_8566
2325,"(242, 1175, 4754, 224, 41, 786, 340)",2,mbtiauth_8566
2326,"(242, 1175, 4754, 1583, 41, 786, 340)",2,mbtiauth_8566
2327,"(242, 1175, 4754, 1583, 224, 41, 340)",2,mbtiauth_8566
2328,"(242, 1175, 4754, 1583, 224, 41, 786)",2,mbtiauth_8566
2329,"(242, 1175, 4754, 1583, 224, 786, 340)",2,mbtiauth_8566
2330,"(242, 4754, 1583, 224, 41, 786, 340)",2,mbtiauth_8566
2331,"(342, 64, 895, 113, 7, 65, 342)",2,mbtiauth_8566
2332,"(342, 463, 64, 113, 7, 65, 342)",2,mbtiauth_8566
2333,"(342, 463, 64, 895, 7, 65, 342)",2,mbtiauth_8566
2334,"(342, 463, 64, 895, 113, 7, 65)",3,mbtiauth_8566
2335,"(342, 463, 64, 895, 113, 7, 342)",2,mbtiauth_8566
2336,"(342, 463, 64, 895, 113, 65, 342)",2,mbtiauth_8566
2337,"(342, 463, 895, 113, 7, 65, 342)",2,mbtiauth_8566
2338,"(342, 1175, 1583, 224, 41, 786, 340)",2,mbtiauth_8566
2339,"(342, 1175, 4754, 224, 41, 786, 340)",2,mbtiauth_8566
2340,"(342, 1175, 4754, 1583, 41, 786, 340)",2,mbtiauth_8566
2341,"(342, 1175, 4754, 1583, 224, 41, 340)",2,mbtiauth_8566
2342,"(342, 1175, 4754, 1583, 224, 41, 786)",2,mbtiauth_8566
2343,"(342, 1175, 4754, 1583, 224, 786, 340)",2,mbtiauth_8566
2344,"(342, 4754, 1583, 224, 41, 786, 340)",2,mbtiauth_8566
2345,"(463, 64, 113, 7, 65, 342, 463)",2,mbtiauth_8566
2346,"(463, 64, 895, 7, 65, 342, 463)",2,mbtiauth_8566
2347,"(463, 64, 895, 113, 7, 65, 342)",2,mbtiauth_8566
2348,"(463, 64, 895, 113, 7, 65, 463)",2,mbtiauth_8566
2349,"(463, 64, 895, 113, 7, 342, 463)",2,mbtiauth_8566
2350,"(463, 64, 895, 113, 65, 342, 463)",2,mbtiauth_8566
2351,"(463, 895, 113, 7, 65, 342, 463)",2,mbtiauth_8566
2352,"(895, 7, 65, 342, 463, 64, 895)",2,mbtiauth_8566
2353,"(895, 113, 7, 65, 342, 64, 895)",2,mbtiauth_8566
2354,"(895, 113, 7, 65, 342, 463, 64)",2,mbtiauth_8566
2355,"(895, 113, 7, 65, 342, 463, 895)",2,mbtiauth_8566
2356,"(895, 113, 7, 65, 463, 64, 895)",2,mbtiauth_8566
2357,"(895, 113, 7, 342, 463, 64, 895)",2,mbtiauth_8566
2358,"(895, 113, 65, 342, 463, 64, 895)",2,mbtiauth_8566
2359,"(1175, 4754, 1583, 224, 41, 786, 340)",2,mbtiauth_8566
2360,"(2078, 999, 160, 148, 232, 804, 2329)",2,mbtiauth_8566
2361,"(7, 65, 342, 463, 64, 895, 113, 7)",2,mbtiauth_8566
2362,"(64, 895, 113, 7, 65, 342, 463, 64)",2,mbtiauth_8566
2363,"(65, 342, 463, 64, 895, 113, 7, 65)",2,mbtiauth_8566
2364,"(113, 7, 65, 342, 463, 64, 895, 113)",2,mbtiauth_8566
2365,"(242, 342, 1175, 1583, 224, 41, 786, 340)",2,mbtiauth_8566
2366,"(242, 342, 1175, 4754, 224, 41, 786, 340)",2,mbtiauth_8566
2367,"(242, 342, 1175, 4754, 1583, 41, 786, 340)",2,mbtiauth_8566
2368,"(242, 342, 1175, 4754, 1583, 224, 41, 340)",2,mbtiauth_8566
2369,"(242, 342, 1175, 4754, 1583, 224, 41, 786)",2,mbtiauth_8566
2370,"(242, 342, 1175, 4754, 1583, 224, 786, 340)",2,mbtiauth_8566
2371,"(242, 342, 4754, 1583, 224, 41, 786, 340)",2,mbtiauth_8566
2372,"(242, 1175, 4754, 1583, 224, 41, 786, 340)",2,mbtiauth_8566
2373,"(342, 463, 64, 895, 113, 7, 65, 342)",2,mbtiauth_8566
2374,"(342, 1175, 4754, 1583, 224, 41, 786, 340)",2,mbtiauth_8566
2375,"(463, 64, 895, 113, 7, 65, 342, 463)",2,mbtiauth_8566
2376,"(895, 113, 7, 65, 342, 463, 64, 895)",2,mbtiauth_8566
2377,"(242, 342, 1175, 4754, 1583, 224, 41, 786, 340)",2,mbtiauth_8566
