,pattern,sup,author
613,"(2, 9, 26)",2,mbtiauth_3728
614,"(2, 9, 28)",2,mbtiauth_3728
615,"(2, 28, 26)",2,mbtiauth_3728
616,"(2, 66, 64)",2,mbtiauth_3728
617,"(2, 66, 113)",2,mbtiauth_3728
618,"(2, 76, 3)",2,mbtiauth_3728
619,"(2, 76, 64)",2,mbtiauth_3728
620,"(2, 76, 113)",3,mbtiauth_3728
621,"(2, 76, 118)",2,mbtiauth_3728
622,"(2, 113, 22)",2,mbtiauth_3728
623,"(2, 113, 64)",3,mbtiauth_3728
624,"(2, 113, 118)",2,mbtiauth_3728
625,"(2, 113, 200)",2,mbtiauth_3728
626,"(2, 182, 2710)",2,mbtiauth_3728
627,"(2, 200, 64)",2,mbtiauth_3728
628,"(3, 2, 113)",2,mbtiauth_3728
629,"(3, 7, 22)",2,mbtiauth_3728
630,"(3, 9, 26)",2,mbtiauth_3728
631,"(3, 9, 28)",2,mbtiauth_3728
632,"(3, 28, 26)",2,mbtiauth_3728
633,"(3, 64, 7)",2,mbtiauth_3728
634,"(3, 64, 50)",2,mbtiauth_3728
635,"(3, 64, 65)",2,mbtiauth_3728
636,"(3, 64, 76)",3,mbtiauth_3728
637,"(3, 64, 113)",3,mbtiauth_3728
638,"(3, 65, 10)",2,mbtiauth_3728
639,"(3, 65, 64)",2,mbtiauth_3728
640,"(3, 65, 113)",4,mbtiauth_3728
641,"(3, 65, 348)",2,mbtiauth_3728
642,"(3, 65, 557)",2,mbtiauth_3728
643,"(3, 66, 113)",2,mbtiauth_3728
644,"(3, 76, 113)",4,mbtiauth_3728
645,"(3, 76, 557)",2,mbtiauth_3728
646,"(3, 113, 7)",2,mbtiauth_3728
647,"(3, 113, 113)",3,mbtiauth_3728
648,"(3, 113, 182)",3,mbtiauth_3728
649,"(3, 113, 214)",2,mbtiauth_3728
650,"(3, 151, 113)",2,mbtiauth_3728
651,"(3, 250, 113)",2,mbtiauth_3728
652,"(3, 256, 76)",2,mbtiauth_3728
653,"(3, 312, 417)",2,mbtiauth_3728
654,"(3, 312, 1664)",2,mbtiauth_3728
655,"(3, 417, 7)",2,mbtiauth_3728
656,"(3, 417, 76)",2,mbtiauth_3728
657,"(3, 463, 113)",2,mbtiauth_3728
658,"(3, 557, 113)",3,mbtiauth_3728
659,"(3, 616, 113)",2,mbtiauth_3728
660,"(3, 616, 151)",2,mbtiauth_3728
661,"(3, 1664, 417)",2,mbtiauth_3728
662,"(7, 2, 113)",2,mbtiauth_3728
663,"(7, 65, 65)",2,mbtiauth_3728
664,"(7, 65, 658)",2,mbtiauth_3728
665,"(7, 76, 3)",2,mbtiauth_3728
666,"(7, 76, 557)",2,mbtiauth_3728
667,"(7, 658, 65)",2,mbtiauth_3728
668,"(9, 3, 64)",2,mbtiauth_3728
669,"(9, 9, 26)",3,mbtiauth_3728
670,"(9, 9, 28)",3,mbtiauth_3728
671,"(9, 26, 3)",2,mbtiauth_3728
672,"(9, 26, 9)",3,mbtiauth_3728
673,"(9, 26, 22)",2,mbtiauth_3728
674,"(9, 26, 26)",3,mbtiauth_3728
675,"(9, 26, 28)",3,mbtiauth_3728
676,"(9, 26, 64)",2,mbtiauth_3728
677,"(9, 26, 113)",4,mbtiauth_3728
678,"(9, 26, 250)",2,mbtiauth_3728
679,"(9, 28, 3)",2,mbtiauth_3728
680,"(9, 28, 9)",3,mbtiauth_3728
681,"(9, 28, 22)",2,mbtiauth_3728
682,"(9, 28, 26)",9,mbtiauth_3728
683,"(9, 28, 28)",3,mbtiauth_3728
684,"(9, 28, 64)",2,mbtiauth_3728
685,"(9, 28, 113)",4,mbtiauth_3728
686,"(9, 28, 250)",2,mbtiauth_3728
687,"(9, 113, 250)",2,mbtiauth_3728
688,"(10, 113, 64)",2,mbtiauth_3728
689,"(22, 32, 22)",3,mbtiauth_3728
690,"(22, 32, 50)",2,mbtiauth_3728
691,"(22, 113, 3)",3,mbtiauth_3728
692,"(22, 113, 64)",3,mbtiauth_3728
693,"(22, 113, 131)",2,mbtiauth_3728
694,"(22, 113, 250)",2,mbtiauth_3728
695,"(22, 131, 64)",2,mbtiauth_3728
696,"(22, 1769, 129)",2,mbtiauth_3728
697,"(26, 3, 64)",2,mbtiauth_3728
698,"(26, 9, 26)",3,mbtiauth_3728
699,"(26, 9, 28)",3,mbtiauth_3728
700,"(26, 28, 26)",3,mbtiauth_3728
701,"(26, 113, 250)",2,mbtiauth_3728
702,"(28, 3, 64)",2,mbtiauth_3728
703,"(28, 9, 26)",3,mbtiauth_3728
704,"(28, 9, 28)",3,mbtiauth_3728
705,"(28, 26, 3)",2,mbtiauth_3728
706,"(28, 26, 9)",3,mbtiauth_3728
707,"(28, 26, 10)",2,mbtiauth_3728
708,"(28, 26, 22)",2,mbtiauth_3728
709,"(28, 26, 26)",3,mbtiauth_3728
710,"(28, 26, 28)",3,mbtiauth_3728
711,"(28, 26, 64)",2,mbtiauth_3728
712,"(28, 26, 113)",4,mbtiauth_3728
713,"(28, 26, 250)",2,mbtiauth_3728
714,"(28, 28, 26)",3,mbtiauth_3728
715,"(28, 113, 250)",2,mbtiauth_3728
716,"(31, 113, 64)",2,mbtiauth_3728
717,"(32, 113, 64)",2,mbtiauth_3728
718,"(32, 113, 113)",2,mbtiauth_3728
719,"(41, 3, 64)",2,mbtiauth_3728
720,"(46, 76, 113)",2,mbtiauth_3728
721,"(46, 76, 557)",2,mbtiauth_3728
722,"(46, 557, 113)",2,mbtiauth_3728
723,"(50, 2, 7)",2,mbtiauth_3728
724,"(50, 3, 312)",2,mbtiauth_3728
725,"(50, 3, 1664)",2,mbtiauth_3728
726,"(50, 46, 76)",2,mbtiauth_3728
727,"(50, 76, 557)",2,mbtiauth_3728
728,"(50, 312, 1664)",2,mbtiauth_3728
729,"(50, 1664, 3)",2,mbtiauth_3728
730,"(50, 4483, 3)",3,mbtiauth_3728
731,"(50, 4483, 312)",2,mbtiauth_3728
732,"(50, 4483, 1664)",3,mbtiauth_3728
733,"(63, 76, 3)",2,mbtiauth_3728
734,"(64, 2, 22)",2,mbtiauth_3728
735,"(64, 2, 113)",2,mbtiauth_3728
736,"(64, 22, 32)",2,mbtiauth_3728
737,"(64, 22, 50)",2,mbtiauth_3728
738,"(64, 32, 22)",2,mbtiauth_3728
739,"(64, 32, 50)",2,mbtiauth_3728
740,"(64, 50, 13)",2,mbtiauth_3728
741,"(64, 76, 113)",3,mbtiauth_3728
742,"(64, 113, 151)",2,mbtiauth_3728
743,"(64, 187, 250)",2,mbtiauth_3728
744,"(64, 1198, 64)",2,mbtiauth_3728
745,"(65, 2, 113)",3,mbtiauth_3728
746,"(65, 32, 65)",2,mbtiauth_3728
747,"(65, 32, 113)",2,mbtiauth_3728
748,"(65, 64, 113)",2,mbtiauth_3728
749,"(65, 65, 658)",2,mbtiauth_3728
750,"(65, 76, 113)",2,mbtiauth_3728
751,"(65, 76, 151)",2,mbtiauth_3728
752,"(65, 76, 557)",2,mbtiauth_3728
753,"(65, 113, 3)",4,mbtiauth_3728
754,"(65, 113, 7)",2,mbtiauth_3728
755,"(65, 113, 64)",2,mbtiauth_3728
756,"(65, 113, 65)",3,mbtiauth_3728
757,"(65, 113, 113)",3,mbtiauth_3728
758,"(65, 113, 156)",2,mbtiauth_3728
759,"(65, 113, 242)",2,mbtiauth_3728
760,"(65, 113, 557)",2,mbtiauth_3728
761,"(65, 151, 113)",2,mbtiauth_3728
762,"(65, 247, 65)",2,mbtiauth_3728
763,"(65, 247, 113)",2,mbtiauth_3728
764,"(65, 557, 113)",3,mbtiauth_3728
765,"(65, 557, 151)",2,mbtiauth_3728
766,"(65, 658, 65)",2,mbtiauth_3728
767,"(65, 1325, 113)",2,mbtiauth_3728
768,"(66, 76, 64)",2,mbtiauth_3728
769,"(66, 113, 64)",2,mbtiauth_3728
770,"(76, 7, 65)",2,mbtiauth_3728
771,"(76, 22, 3)",2,mbtiauth_3728
772,"(76, 113, 2)",2,mbtiauth_3728
773,"(76, 113, 3)",3,mbtiauth_3728
774,"(76, 113, 64)",4,mbtiauth_3728
775,"(76, 113, 118)",2,mbtiauth_3728
776,"(76, 113, 182)",2,mbtiauth_3728
777,"(76, 113, 194)",2,mbtiauth_3728
778,"(76, 113, 200)",2,mbtiauth_3728
779,"(76, 113, 250)",2,mbtiauth_3728
780,"(76, 118, 3)",2,mbtiauth_3728
781,"(76, 118, 64)",2,mbtiauth_3728
782,"(76, 151, 113)",2,mbtiauth_3728
783,"(76, 194, 3)",2,mbtiauth_3728
784,"(76, 557, 3)",2,mbtiauth_3728
785,"(76, 557, 64)",2,mbtiauth_3728
786,"(76, 557, 113)",4,mbtiauth_3728
787,"(76, 557, 151)",2,mbtiauth_3728
788,"(76, 557, 182)",2,mbtiauth_3728
789,"(77, 65, 113)",2,mbtiauth_3728
790,"(77, 65, 1325)",2,mbtiauth_3728
791,"(77, 77, 113)",2,mbtiauth_3728
792,"(77, 113, 76)",2,mbtiauth_3728
793,"(113, 2, 22)",2,mbtiauth_3728
794,"(113, 2, 66)",2,mbtiauth_3728
795,"(113, 2, 113)",2,mbtiauth_3728
796,"(113, 2, 200)",2,mbtiauth_3728
797,"(113, 3, 7)",3,mbtiauth_3728
798,"(113, 3, 22)",3,mbtiauth_3728
799,"(113, 3, 64)",5,mbtiauth_3728
800,"(113, 3, 65)",4,mbtiauth_3728
801,"(113, 3, 66)",2,mbtiauth_3728
802,"(113, 3, 76)",2,mbtiauth_3728
803,"(113, 3, 113)",5,mbtiauth_3728
804,"(113, 3, 137)",3,mbtiauth_3728
805,"(113, 3, 151)",2,mbtiauth_3728
806,"(113, 3, 250)",3,mbtiauth_3728
807,"(113, 3, 256)",2,mbtiauth_3728
808,"(113, 3, 484)",2,mbtiauth_3728
809,"(113, 3, 509)",2,mbtiauth_3728
810,"(113, 3, 616)",2,mbtiauth_3728
811,"(113, 7, 22)",3,mbtiauth_3728
812,"(113, 7, 32)",2,mbtiauth_3728
813,"(113, 7, 64)",3,mbtiauth_3728
814,"(113, 7, 65)",2,mbtiauth_3728
815,"(113, 7, 76)",2,mbtiauth_3728
816,"(113, 7, 658)",2,mbtiauth_3728
817,"(113, 10, 64)",2,mbtiauth_3728
818,"(113, 10, 76)",2,mbtiauth_3728
819,"(113, 22, 64)",2,mbtiauth_3728
820,"(113, 32, 22)",2,mbtiauth_3728
821,"(113, 50, 35)",2,mbtiauth_3728
822,"(113, 64, 2)",2,mbtiauth_3728
823,"(113, 64, 22)",4,mbtiauth_3728
824,"(113, 64, 32)",2,mbtiauth_3728
825,"(113, 64, 113)",3,mbtiauth_3728
826,"(113, 64, 549)",2,mbtiauth_3728
827,"(113, 64, 17360)",2,mbtiauth_3728
828,"(113, 65, 2)",2,mbtiauth_3728
829,"(113, 65, 32)",3,mbtiauth_3728
830,"(113, 65, 64)",2,mbtiauth_3728
831,"(113, 65, 65)",2,mbtiauth_3728
832,"(113, 65, 76)",2,mbtiauth_3728
833,"(113, 65, 113)",3,mbtiauth_3728
834,"(113, 65, 151)",3,mbtiauth_3728
835,"(113, 65, 242)",2,mbtiauth_3728
836,"(113, 65, 247)",2,mbtiauth_3728
837,"(113, 65, 658)",2,mbtiauth_3728
838,"(113, 65, 1325)",2,mbtiauth_3728
839,"(113, 66, 113)",2,mbtiauth_3728
840,"(113, 76, 22)",3,mbtiauth_3728
841,"(113, 76, 76)",2,mbtiauth_3728
842,"(113, 76, 113)",4,mbtiauth_3728
843,"(113, 76, 151)",2,mbtiauth_3728
844,"(113, 76, 557)",3,mbtiauth_3728
845,"(113, 77, 65)",2,mbtiauth_3728
846,"(113, 77, 1325)",2,mbtiauth_3728
847,"(113, 113, 3)",5,mbtiauth_3728
848,"(113, 113, 7)",5,mbtiauth_3728
849,"(113, 113, 10)",2,mbtiauth_3728
850,"(113, 113, 22)",3,mbtiauth_3728
851,"(113, 113, 64)",3,mbtiauth_3728
852,"(113, 113, 76)",3,mbtiauth_3728
853,"(113, 113, 118)",3,mbtiauth_3728
854,"(113, 113, 141)",2,mbtiauth_3728
855,"(113, 113, 194)",3,mbtiauth_3728
856,"(113, 113, 200)",4,mbtiauth_3728
857,"(113, 113, 250)",2,mbtiauth_3728
858,"(113, 113, 636)",2,mbtiauth_3728
859,"(113, 113, 699)",2,mbtiauth_3728
860,"(113, 118, 10)",2,mbtiauth_3728
861,"(113, 118, 22)",2,mbtiauth_3728
862,"(113, 118, 64)",2,mbtiauth_3728
863,"(113, 118, 1856)",2,mbtiauth_3728
864,"(113, 131, 64)",2,mbtiauth_3728
865,"(113, 141, 182)",2,mbtiauth_3728
866,"(113, 151, 2)",2,mbtiauth_3728
867,"(113, 151, 113)",2,mbtiauth_3728
868,"(113, 151, 155)",2,mbtiauth_3728
869,"(113, 156, 64)",3,mbtiauth_3728
870,"(113, 182, 3)",3,mbtiauth_3728
871,"(113, 182, 75)",2,mbtiauth_3728
872,"(113, 194, 3)",5,mbtiauth_3728
873,"(113, 194, 22)",2,mbtiauth_3728
874,"(113, 194, 64)",2,mbtiauth_3728
875,"(113, 194, 76)",3,mbtiauth_3728
876,"(113, 194, 113)",2,mbtiauth_3728
877,"(113, 194, 182)",2,mbtiauth_3728
878,"(113, 194, 256)",2,mbtiauth_3728
879,"(113, 200, 2)",2,mbtiauth_3728
880,"(113, 200, 10)",2,mbtiauth_3728
881,"(113, 200, 22)",2,mbtiauth_3728
882,"(113, 200, 64)",3,mbtiauth_3728
883,"(113, 200, 118)",2,mbtiauth_3728
884,"(113, 200, 268)",2,mbtiauth_3728
885,"(113, 200, 388)",2,mbtiauth_3728
886,"(113, 200, 571)",2,mbtiauth_3728
887,"(113, 200, 1856)",2,mbtiauth_3728
888,"(113, 242, 113)",2,mbtiauth_3728
889,"(113, 247, 113)",2,mbtiauth_3728
890,"(113, 250, 113)",2,mbtiauth_3728
891,"(113, 250, 131)",2,mbtiauth_3728
892,"(113, 250, 305)",2,mbtiauth_3728
893,"(113, 256, 76)",3,mbtiauth_3728
894,"(113, 326, 113)",2,mbtiauth_3728
895,"(113, 340, 250)",2,mbtiauth_3728
896,"(113, 557, 7)",2,mbtiauth_3728
897,"(113, 557, 64)",2,mbtiauth_3728
898,"(113, 557, 113)",3,mbtiauth_3728
899,"(113, 557, 151)",2,mbtiauth_3728
900,"(113, 616, 151)",2,mbtiauth_3728
901,"(113, 636, 131)",2,mbtiauth_3728
902,"(113, 658, 65)",2,mbtiauth_3728
903,"(113, 699, 64)",3,mbtiauth_3728
904,"(113, 699, 17360)",2,mbtiauth_3728
905,"(113, 786, 10)",2,mbtiauth_3728
906,"(113, 1856, 10)",3,mbtiauth_3728
907,"(113, 1991, 3)",2,mbtiauth_3728
908,"(113, 1991, 113)",2,mbtiauth_3728
909,"(113, 1991, 182)",2,mbtiauth_3728
910,"(118, 22, 3)",2,mbtiauth_3728
911,"(118, 1856, 10)",2,mbtiauth_3728
912,"(131, 2, 113)",2,mbtiauth_3728
913,"(151, 22, 3)",2,mbtiauth_3728
914,"(151, 113, 64)",2,mbtiauth_3728
915,"(151, 113, 151)",2,mbtiauth_3728
916,"(151, 113, 182)",2,mbtiauth_3728
917,"(158, 113, 3)",2,mbtiauth_3728
918,"(158, 113, 113)",3,mbtiauth_3728
919,"(158, 113, 250)",2,mbtiauth_3728
920,"(194, 3, 64)",2,mbtiauth_3728
921,"(194, 3, 76)",2,mbtiauth_3728
922,"(194, 256, 76)",2,mbtiauth_3728
923,"(200, 118, 10)",2,mbtiauth_3728
924,"(200, 118, 1856)",2,mbtiauth_3728
925,"(200, 156, 64)",2,mbtiauth_3728
926,"(200, 1856, 10)",2,mbtiauth_3728
927,"(224, 113, 326)",2,mbtiauth_3728
928,"(247, 113, 65)",2,mbtiauth_3728
929,"(250, 3, 64)",2,mbtiauth_3728
930,"(250, 3, 65)",2,mbtiauth_3728
931,"(250, 3, 76)",2,mbtiauth_3728
932,"(250, 7, 3)",2,mbtiauth_3728
933,"(250, 41, 3)",2,mbtiauth_3728
934,"(250, 76, 3)",2,mbtiauth_3728
935,"(250, 76, 113)",2,mbtiauth_3728
936,"(250, 76, 557)",2,mbtiauth_3728
937,"(250, 113, 3)",3,mbtiauth_3728
938,"(250, 113, 182)",2,mbtiauth_3728
939,"(312, 1664, 76)",2,mbtiauth_3728
940,"(312, 1664, 417)",2,mbtiauth_3728
941,"(340, 10, 76)",2,mbtiauth_3728
942,"(340, 113, 10)",2,mbtiauth_3728
943,"(340, 113, 1856)",2,mbtiauth_3728
944,"(340, 509, 113)",2,mbtiauth_3728
945,"(340, 1856, 10)",2,mbtiauth_3728
946,"(342, 10, 160)",2,mbtiauth_3728
947,"(342, 64, 151)",2,mbtiauth_3728
948,"(342, 463, 64)",2,mbtiauth_3728
949,"(342, 463, 151)",2,mbtiauth_3728
950,"(348, 76, 113)",2,mbtiauth_3728
951,"(417, 76, 3)",2,mbtiauth_3728
952,"(463, 64, 76)",2,mbtiauth_3728
953,"(463, 64, 151)",3,mbtiauth_3728
954,"(463, 64, 250)",2,mbtiauth_3728
955,"(527, 76, 3)",2,mbtiauth_3728
956,"(557, 7, 64)",2,mbtiauth_3728
957,"(557, 113, 3)",2,mbtiauth_3728
958,"(557, 113, 7)",2,mbtiauth_3728
959,"(557, 113, 10)",2,mbtiauth_3728
960,"(557, 113, 64)",3,mbtiauth_3728
961,"(557, 113, 182)",2,mbtiauth_3728
962,"(557, 113, 1856)",2,mbtiauth_3728
963,"(557, 151, 113)",2,mbtiauth_3728
964,"(557, 1856, 10)",2,mbtiauth_3728
965,"(616, 151, 113)",2,mbtiauth_3728
966,"(699, 64, 17360)",2,mbtiauth_3728
967,"(786, 113, 10)",2,mbtiauth_3728
968,"(786, 113, 1856)",2,mbtiauth_3728
969,"(786, 340, 10)",2,mbtiauth_3728
970,"(786, 340, 113)",2,mbtiauth_3728
971,"(786, 340, 1856)",2,mbtiauth_3728
972,"(786, 1856, 10)",2,mbtiauth_3728
973,"(1198, 64, 372)",2,mbtiauth_3728
974,"(1991, 151, 113)",2,mbtiauth_3728
975,"(1991, 182, 3)",2,mbtiauth_3728
976,"(4483, 3, 312)",2,mbtiauth_3728
977,"(4483, 3, 417)",2,mbtiauth_3728
978,"(4483, 3, 1664)",2,mbtiauth_3728
979,"(4483, 312, 417)",2,mbtiauth_3728
980,"(4483, 312, 1664)",2,mbtiauth_3728
981,"(4483, 1664, 3)",2,mbtiauth_3728
982,"(4483, 1664, 417)",2,mbtiauth_3728
983,"(2, 9, 28, 26)",2,mbtiauth_3728
984,"(2, 66, 113, 64)",2,mbtiauth_3728
985,"(2, 76, 113, 64)",2,mbtiauth_3728
986,"(2, 76, 113, 118)",2,mbtiauth_3728
987,"(2, 113, 200, 64)",2,mbtiauth_3728
988,"(3, 9, 28, 26)",2,mbtiauth_3728
989,"(3, 64, 76, 113)",2,mbtiauth_3728
990,"(3, 65, 113, 113)",2,mbtiauth_3728
991,"(3, 65, 557, 113)",2,mbtiauth_3728
992,"(3, 76, 557, 113)",2,mbtiauth_3728
993,"(3, 312, 1664, 417)",2,mbtiauth_3728
994,"(3, 616, 151, 113)",2,mbtiauth_3728
995,"(7, 65, 658, 65)",2,mbtiauth_3728
996,"(9, 9, 28, 26)",3,mbtiauth_3728
997,"(9, 26, 3, 64)",2,mbtiauth_3728
998,"(9, 26, 9, 26)",3,mbtiauth_3728
999,"(9, 26, 9, 28)",3,mbtiauth_3728
1000,"(9, 26, 28, 26)",3,mbtiauth_3728
1001,"(9, 26, 113, 250)",2,mbtiauth_3728
1002,"(9, 28, 3, 64)",2,mbtiauth_3728
1003,"(9, 28, 9, 26)",3,mbtiauth_3728
1004,"(9, 28, 9, 28)",3,mbtiauth_3728
1005,"(9, 28, 26, 3)",2,mbtiauth_3728
1006,"(9, 28, 26, 9)",3,mbtiauth_3728
1007,"(9, 28, 26, 22)",2,mbtiauth_3728
1008,"(9, 28, 26, 26)",3,mbtiauth_3728
1009,"(9, 28, 26, 28)",3,mbtiauth_3728
1010,"(9, 28, 26, 64)",2,mbtiauth_3728
1011,"(9, 28, 26, 113)",4,mbtiauth_3728
1012,"(9, 28, 26, 250)",2,mbtiauth_3728
1013,"(9, 28, 28, 26)",3,mbtiauth_3728
1014,"(9, 28, 113, 250)",2,mbtiauth_3728
1015,"(22, 113, 131, 64)",2,mbtiauth_3728
1016,"(26, 9, 28, 26)",3,mbtiauth_3728
1017,"(28, 9, 28, 26)",3,mbtiauth_3728
1018,"(28, 26, 3, 64)",2,mbtiauth_3728
1019,"(28, 26, 9, 26)",3,mbtiauth_3728
1020,"(28, 26, 9, 28)",3,mbtiauth_3728
1021,"(28, 26, 28, 26)",3,mbtiauth_3728
1022,"(28, 26, 113, 250)",2,mbtiauth_3728
1023,"(46, 76, 557, 113)",2,mbtiauth_3728
1024,"(50, 3, 312, 1664)",2,mbtiauth_3728
1025,"(50, 4483, 3, 312)",2,mbtiauth_3728
1026,"(50, 4483, 3, 1664)",2,mbtiauth_3728
1027,"(50, 4483, 312, 1664)",2,mbtiauth_3728
1028,"(50, 4483, 1664, 3)",2,mbtiauth_3728
1029,"(64, 22, 32, 50)",2,mbtiauth_3728
1030,"(65, 76, 151, 113)",2,mbtiauth_3728
1031,"(65, 76, 557, 113)",2,mbtiauth_3728
1032,"(65, 76, 557, 151)",2,mbtiauth_3728
1033,"(65, 113, 113, 3)",2,mbtiauth_3728
1034,"(65, 113, 557, 113)",2,mbtiauth_3728
1035,"(65, 247, 113, 65)",2,mbtiauth_3728
1036,"(65, 557, 151, 113)",2,mbtiauth_3728
1037,"(76, 113, 194, 3)",2,mbtiauth_3728
1038,"(76, 557, 113, 64)",2,mbtiauth_3728
1039,"(76, 557, 113, 182)",2,mbtiauth_3728
1040,"(76, 557, 151, 113)",2,mbtiauth_3728
1041,"(113, 2, 113, 200)",2,mbtiauth_3728
1042,"(113, 3, 7, 22)",2,mbtiauth_3728
1043,"(113, 3, 616, 151)",2,mbtiauth_3728
1044,"(113, 7, 65, 65)",2,mbtiauth_3728
1045,"(113, 7, 65, 658)",2,mbtiauth_3728
1046,"(113, 7, 658, 65)",2,mbtiauth_3728
1047,"(113, 64, 2, 22)",2,mbtiauth_3728
1048,"(113, 64, 32, 22)",2,mbtiauth_3728
1049,"(113, 65, 247, 113)",2,mbtiauth_3728
1050,"(113, 65, 658, 65)",2,mbtiauth_3728
1051,"(113, 76, 557, 113)",2,mbtiauth_3728
1052,"(113, 76, 557, 151)",2,mbtiauth_3728
1053,"(113, 77, 65, 1325)",2,mbtiauth_3728
1054,"(113, 113, 7, 64)",2,mbtiauth_3728
1055,"(113, 113, 194, 3)",2,mbtiauth_3728
1056,"(113, 113, 200, 118)",2,mbtiauth_3728
1057,"(113, 118, 1856, 10)",2,mbtiauth_3728
1058,"(113, 194, 3, 64)",2,mbtiauth_3728
1059,"(113, 194, 3, 76)",2,mbtiauth_3728
1060,"(113, 194, 256, 76)",2,mbtiauth_3728
1061,"(113, 200, 118, 10)",2,mbtiauth_3728
1062,"(113, 200, 118, 1856)",2,mbtiauth_3728
1063,"(113, 200, 1856, 10)",2,mbtiauth_3728
1064,"(113, 557, 7, 64)",2,mbtiauth_3728
1065,"(113, 557, 113, 7)",2,mbtiauth_3728
1066,"(113, 557, 113, 64)",2,mbtiauth_3728
1067,"(113, 699, 64, 17360)",2,mbtiauth_3728
1068,"(113, 1991, 182, 3)",2,mbtiauth_3728
1069,"(200, 118, 1856, 10)",2,mbtiauth_3728
1070,"(340, 113, 1856, 10)",2,mbtiauth_3728
1071,"(342, 463, 64, 151)",2,mbtiauth_3728
1072,"(557, 113, 7, 64)",2,mbtiauth_3728
1073,"(557, 113, 1856, 10)",2,mbtiauth_3728
1074,"(786, 113, 1856, 10)",2,mbtiauth_3728
1075,"(786, 340, 113, 10)",2,mbtiauth_3728
1076,"(786, 340, 113, 1856)",2,mbtiauth_3728
1077,"(786, 340, 1856, 10)",2,mbtiauth_3728
1078,"(4483, 3, 312, 417)",2,mbtiauth_3728
1079,"(4483, 3, 312, 1664)",2,mbtiauth_3728
1080,"(4483, 3, 1664, 417)",2,mbtiauth_3728
1081,"(4483, 312, 1664, 417)",2,mbtiauth_3728
1082,"(9, 26, 9, 28, 26)",3,mbtiauth_3728
1083,"(9, 28, 9, 28, 26)",3,mbtiauth_3728
1084,"(9, 28, 26, 3, 64)",2,mbtiauth_3728
1085,"(9, 28, 26, 9, 26)",3,mbtiauth_3728
1086,"(9, 28, 26, 9, 28)",3,mbtiauth_3728
1087,"(9, 28, 26, 28, 26)",3,mbtiauth_3728
1088,"(9, 28, 26, 113, 250)",2,mbtiauth_3728
1089,"(28, 26, 9, 28, 26)",3,mbtiauth_3728
1090,"(50, 4483, 3, 312, 1664)",2,mbtiauth_3728
1091,"(65, 76, 557, 151, 113)",2,mbtiauth_3728
1092,"(113, 7, 65, 658, 65)",2,mbtiauth_3728
1093,"(113, 200, 118, 1856, 10)",2,mbtiauth_3728
1094,"(113, 557, 113, 7, 64)",2,mbtiauth_3728
1095,"(786, 340, 113, 1856, 10)",2,mbtiauth_3728
1096,"(4483, 3, 312, 1664, 417)",2,mbtiauth_3728
1097,"(9, 28, 26, 9, 28, 26)",3,mbtiauth_3728
