,pattern,sup,author
1108,"(2, 3, 64)",2,mbtiauth_369
1109,"(2, 3, 76)",5,mbtiauth_369
1110,"(2, 3, 113)",2,mbtiauth_369
1111,"(2, 3, 141)",2,mbtiauth_369
1112,"(2, 3, 250)",2,mbtiauth_369
1113,"(2, 7, 64)",2,mbtiauth_369
1114,"(2, 7, 141)",2,mbtiauth_369
1115,"(2, 7, 282)",2,mbtiauth_369
1116,"(2, 32, 76)",2,mbtiauth_369
1117,"(2, 64, 141)",3,mbtiauth_369
1118,"(2, 76, 3)",3,mbtiauth_369
1119,"(2, 76, 76)",2,mbtiauth_369
1120,"(2, 76, 113)",2,mbtiauth_369
1121,"(2, 76, 242)",2,mbtiauth_369
1122,"(2, 113, 3)",5,mbtiauth_369
1123,"(2, 113, 7)",2,mbtiauth_369
1124,"(2, 113, 64)",2,mbtiauth_369
1125,"(2, 113, 76)",2,mbtiauth_369
1126,"(2, 113, 113)",2,mbtiauth_369
1127,"(2, 113, 141)",2,mbtiauth_369
1128,"(2, 113, 214)",2,mbtiauth_369
1129,"(2, 113, 326)",3,mbtiauth_369
1130,"(2, 151, 3)",2,mbtiauth_369
1131,"(2, 151, 7)",2,mbtiauth_369
1132,"(2, 250, 3)",2,mbtiauth_369
1133,"(2, 282, 64)",2,mbtiauth_369
1134,"(2, 282, 141)",2,mbtiauth_369
1135,"(2, 326, 3)",2,mbtiauth_369
1136,"(2, 326, 141)",2,mbtiauth_369
1137,"(2, 340, 76)",2,mbtiauth_369
1138,"(2, 375, 2)",2,mbtiauth_369
1139,"(2, 424, 113)",2,mbtiauth_369
1140,"(2, 424, 686)",2,mbtiauth_369
1141,"(2, 686, 113)",2,mbtiauth_369
1142,"(2, 1434, 1334)",2,mbtiauth_369
1143,"(2, 3901, 431)",2,mbtiauth_369
1144,"(3, 2, 2)",4,mbtiauth_369
1145,"(3, 2, 3)",4,mbtiauth_369
1146,"(3, 2, 64)",2,mbtiauth_369
1147,"(3, 2, 131)",3,mbtiauth_369
1148,"(3, 2, 160)",2,mbtiauth_369
1149,"(3, 3, 2)",3,mbtiauth_369
1150,"(3, 3, 296)",2,mbtiauth_369
1151,"(3, 7, 64)",2,mbtiauth_369
1152,"(3, 7, 76)",2,mbtiauth_369
1153,"(3, 7, 141)",2,mbtiauth_369
1154,"(3, 7, 160)",2,mbtiauth_369
1155,"(3, 7, 282)",2,mbtiauth_369
1156,"(3, 15, 32)",2,mbtiauth_369
1157,"(3, 15, 131)",2,mbtiauth_369
1158,"(3, 16, 76)",2,mbtiauth_369
1159,"(3, 16, 113)",2,mbtiauth_369
1160,"(3, 16, 628)",2,mbtiauth_369
1161,"(3, 22, 76)",2,mbtiauth_369
1162,"(3, 31, 113)",3,mbtiauth_369
1163,"(3, 32, 3)",2,mbtiauth_369
1164,"(3, 32, 76)",2,mbtiauth_369
1165,"(3, 32, 131)",2,mbtiauth_369
1166,"(3, 41, 3)",2,mbtiauth_369
1167,"(3, 54, 76)",2,mbtiauth_369
1168,"(3, 64, 3)",2,mbtiauth_369
1169,"(3, 64, 76)",3,mbtiauth_369
1170,"(3, 64, 113)",3,mbtiauth_369
1171,"(3, 64, 141)",2,mbtiauth_369
1172,"(3, 64, 160)",3,mbtiauth_369
1173,"(3, 65, 3)",2,mbtiauth_369
1174,"(3, 65, 31)",2,mbtiauth_369
1175,"(3, 65, 41)",2,mbtiauth_369
1176,"(3, 65, 76)",5,mbtiauth_369
1177,"(3, 65, 113)",2,mbtiauth_369
1178,"(3, 65, 194)",2,mbtiauth_369
1179,"(3, 65, 296)",2,mbtiauth_369
1180,"(3, 65, 658)",2,mbtiauth_369
1181,"(3, 76, 2)",3,mbtiauth_369
1182,"(3, 76, 3)",7,mbtiauth_369
1183,"(3, 76, 22)",2,mbtiauth_369
1184,"(3, 76, 64)",3,mbtiauth_369
1185,"(3, 76, 113)",6,mbtiauth_369
1186,"(3, 76, 131)",2,mbtiauth_369
1187,"(3, 76, 208)",2,mbtiauth_369
1188,"(3, 76, 213)",2,mbtiauth_369
1189,"(3, 76, 242)",3,mbtiauth_369
1190,"(3, 76, 340)",2,mbtiauth_369
1191,"(3, 76, 424)",2,mbtiauth_369
1192,"(3, 76, 557)",3,mbtiauth_369
1193,"(3, 77, 22)",2,mbtiauth_369
1194,"(3, 77, 76)",3,mbtiauth_369
1195,"(3, 113, 2)",2,mbtiauth_369
1196,"(3, 113, 3)",3,mbtiauth_369
1197,"(3, 113, 32)",2,mbtiauth_369
1198,"(3, 113, 41)",2,mbtiauth_369
1199,"(3, 113, 64)",3,mbtiauth_369
1200,"(3, 113, 76)",2,mbtiauth_369
1201,"(3, 113, 113)",4,mbtiauth_369
1202,"(3, 113, 141)",2,mbtiauth_369
1203,"(3, 113, 151)",2,mbtiauth_369
1204,"(3, 113, 182)",2,mbtiauth_369
1205,"(3, 113, 340)",3,mbtiauth_369
1206,"(3, 115, 76)",2,mbtiauth_369
1207,"(3, 131, 3)",2,mbtiauth_369
1208,"(3, 141, 76)",4,mbtiauth_369
1209,"(3, 141, 160)",2,mbtiauth_369
1210,"(3, 141, 182)",2,mbtiauth_369
1211,"(3, 151, 3)",3,mbtiauth_369
1212,"(3, 151, 50)",2,mbtiauth_369
1213,"(3, 160, 76)",4,mbtiauth_369
1214,"(3, 182, 76)",2,mbtiauth_369
1215,"(3, 182, 484)",2,mbtiauth_369
1216,"(3, 200, 3)",2,mbtiauth_369
1217,"(3, 208, 308)",2,mbtiauth_369
1218,"(3, 242, 3)",2,mbtiauth_369
1219,"(3, 242, 32)",2,mbtiauth_369
1220,"(3, 242, 113)",2,mbtiauth_369
1221,"(3, 242, 131)",2,mbtiauth_369
1222,"(3, 282, 64)",2,mbtiauth_369
1223,"(3, 282, 141)",2,mbtiauth_369
1224,"(3, 282, 160)",2,mbtiauth_369
1225,"(3, 296, 179)",2,mbtiauth_369
1226,"(3, 557, 113)",4,mbtiauth_369
1227,"(3, 557, 182)",2,mbtiauth_369
1228,"(3, 557, 340)",3,mbtiauth_369
1229,"(3, 616, 2)",2,mbtiauth_369
1230,"(3, 644, 3)",2,mbtiauth_369
1231,"(3, 658, 76)",2,mbtiauth_369
1232,"(3, 1325, 76)",3,mbtiauth_369
1233,"(3, 1361, 3)",2,mbtiauth_369
1234,"(3, 1904, 3)",2,mbtiauth_369
1235,"(3, 1904, 76)",2,mbtiauth_369
1236,"(3, 2699, 113)",2,mbtiauth_369
1237,"(7, 3, 64)",2,mbtiauth_369
1238,"(7, 64, 32)",2,mbtiauth_369
1239,"(7, 64, 113)",2,mbtiauth_369
1240,"(7, 64, 141)",2,mbtiauth_369
1241,"(7, 64, 160)",2,mbtiauth_369
1242,"(7, 65, 3)",2,mbtiauth_369
1243,"(7, 65, 151)",2,mbtiauth_369
1244,"(7, 141, 160)",2,mbtiauth_369
1245,"(7, 282, 64)",2,mbtiauth_369
1246,"(7, 282, 141)",2,mbtiauth_369
1247,"(7, 282, 160)",2,mbtiauth_369
1248,"(15, 32, 3)",2,mbtiauth_369
1249,"(15, 32, 131)",2,mbtiauth_369
1250,"(15, 216, 3)",2,mbtiauth_369
1251,"(22, 2, 76)",2,mbtiauth_369
1252,"(22, 3, 76)",2,mbtiauth_369
1253,"(22, 76, 3)",2,mbtiauth_369
1254,"(22, 76, 113)",2,mbtiauth_369
1255,"(22, 628, 76)",2,mbtiauth_369
1256,"(27, 3, 3)",2,mbtiauth_369
1257,"(27, 41, 124)",2,mbtiauth_369
1258,"(27, 113, 141)",2,mbtiauth_369
1259,"(27, 141, 41)",3,mbtiauth_369
1260,"(27, 141, 113)",2,mbtiauth_369
1261,"(27, 141, 124)",2,mbtiauth_369
1262,"(27, 141, 141)",2,mbtiauth_369
1263,"(29, 3, 64)",2,mbtiauth_369
1264,"(29, 76, 3)",2,mbtiauth_369
1265,"(29, 76, 113)",2,mbtiauth_369
1266,"(31, 2, 113)",2,mbtiauth_369
1267,"(31, 29, 76)",2,mbtiauth_369
1268,"(31, 76, 3)",2,mbtiauth_369
1269,"(31, 76, 41)",2,mbtiauth_369
1270,"(31, 76, 76)",2,mbtiauth_369
1271,"(31, 113, 2)",2,mbtiauth_369
1272,"(31, 113, 3)",2,mbtiauth_369
1273,"(31, 113, 113)",3,mbtiauth_369
1274,"(31, 113, 401)",2,mbtiauth_369
1275,"(32, 3, 33)",2,mbtiauth_369
1276,"(32, 3, 113)",3,mbtiauth_369
1277,"(32, 3, 151)",2,mbtiauth_369
1278,"(32, 76, 32)",2,mbtiauth_369
1279,"(32, 76, 113)",2,mbtiauth_369
1280,"(32, 113, 3)",2,mbtiauth_369
1281,"(32, 113, 151)",2,mbtiauth_369
1282,"(32, 3126, 33)",2,mbtiauth_369
1283,"(33, 76, 3)",2,mbtiauth_369
1284,"(41, 2, 250)",2,mbtiauth_369
1285,"(41, 3, 76)",2,mbtiauth_369
1286,"(41, 3, 113)",2,mbtiauth_369
1287,"(41, 3, 296)",2,mbtiauth_369
1288,"(41, 7, 64)",2,mbtiauth_369
1289,"(41, 16, 182)",2,mbtiauth_369
1290,"(41, 22, 76)",2,mbtiauth_369
1291,"(41, 29, 76)",2,mbtiauth_369
1292,"(41, 31, 29)",2,mbtiauth_369
1293,"(41, 31, 76)",3,mbtiauth_369
1294,"(41, 41, 76)",2,mbtiauth_369
1295,"(41, 76, 3)",2,mbtiauth_369
1296,"(41, 76, 41)",3,mbtiauth_369
1297,"(41, 76, 113)",3,mbtiauth_369
1298,"(41, 76, 747)",2,mbtiauth_369
1299,"(41, 77, 64)",2,mbtiauth_369
1300,"(41, 113, 3)",3,mbtiauth_369
1301,"(41, 113, 76)",2,mbtiauth_369
1302,"(41, 113, 151)",2,mbtiauth_369
1303,"(41, 124, 226)",2,mbtiauth_369
1304,"(41, 141, 182)",2,mbtiauth_369
1305,"(41, 151, 151)",2,mbtiauth_369
1306,"(41, 156, 64)",2,mbtiauth_369
1307,"(41, 214, 76)",2,mbtiauth_369
1308,"(41, 747, 41)",2,mbtiauth_369
1309,"(50, 3, 151)",2,mbtiauth_369
1310,"(50, 3, 1101)",2,mbtiauth_369
1311,"(50, 29, 76)",2,mbtiauth_369
1312,"(50, 32, 317)",2,mbtiauth_369
1313,"(50, 32, 1186)",2,mbtiauth_369
1314,"(50, 76, 113)",3,mbtiauth_369
1315,"(50, 92, 41)",2,mbtiauth_369
1316,"(50, 113, 76)",2,mbtiauth_369
1317,"(50, 1203, 32)",2,mbtiauth_369
1318,"(50, 1203, 1186)",2,mbtiauth_369
1319,"(54, 76, 3)",2,mbtiauth_369
1320,"(54, 76, 41)",2,mbtiauth_369
1321,"(64, 2, 113)",4,mbtiauth_369
1322,"(64, 2, 214)",2,mbtiauth_369
1323,"(64, 3, 2)",2,mbtiauth_369
1324,"(64, 3, 41)",2,mbtiauth_369
1325,"(64, 29, 1632)",2,mbtiauth_369
1326,"(64, 64, 2)",2,mbtiauth_369
1327,"(64, 76, 2)",3,mbtiauth_369
1328,"(64, 76, 3)",2,mbtiauth_369
1329,"(64, 76, 64)",2,mbtiauth_369
1330,"(64, 76, 113)",6,mbtiauth_369
1331,"(64, 76, 340)",2,mbtiauth_369
1332,"(64, 76, 424)",2,mbtiauth_369
1333,"(64, 113, 2)",2,mbtiauth_369
1334,"(64, 113, 3)",2,mbtiauth_369
1335,"(64, 113, 32)",2,mbtiauth_369
1336,"(64, 113, 64)",3,mbtiauth_369
1337,"(64, 113, 76)",2,mbtiauth_369
1338,"(64, 113, 113)",4,mbtiauth_369
1339,"(64, 113, 214)",2,mbtiauth_369
1340,"(64, 113, 326)",2,mbtiauth_369
1341,"(64, 141, 2)",2,mbtiauth_369
1342,"(64, 141, 27)",2,mbtiauth_369
1343,"(64, 141, 113)",2,mbtiauth_369
1344,"(64, 141, 160)",2,mbtiauth_369
1345,"(64, 151, 3)",2,mbtiauth_369
1346,"(64, 160, 76)",2,mbtiauth_369
1347,"(64, 160, 113)",2,mbtiauth_369
1348,"(64, 424, 113)",2,mbtiauth_369
1349,"(64, 1193, 76)",2,mbtiauth_369
1350,"(64, 1193, 113)",2,mbtiauth_369
1351,"(65, 76, 3)",3,mbtiauth_369
1352,"(65, 658, 76)",2,mbtiauth_369
1353,"(69, 76, 76)",2,mbtiauth_369
1354,"(69, 76, 113)",2,mbtiauth_369
1355,"(69, 200, 76)",2,mbtiauth_369
1356,"(76, 2, 3)",3,mbtiauth_369
1357,"(76, 2, 32)",2,mbtiauth_369
1358,"(76, 2, 76)",3,mbtiauth_369
1359,"(76, 2, 113)",5,mbtiauth_369
1360,"(76, 2, 214)",2,mbtiauth_369
1361,"(76, 2, 375)",2,mbtiauth_369
1362,"(76, 3, 2)",4,mbtiauth_369
1363,"(76, 3, 3)",6,mbtiauth_369
1364,"(76, 3, 15)",2,mbtiauth_369
1365,"(76, 3, 16)",2,mbtiauth_369
1366,"(76, 3, 31)",3,mbtiauth_369
1367,"(76, 3, 32)",2,mbtiauth_369
1368,"(76, 3, 41)",3,mbtiauth_369
1369,"(76, 3, 64)",2,mbtiauth_369
1370,"(76, 3, 76)",10,mbtiauth_369
1371,"(76, 3, 81)",2,mbtiauth_369
1372,"(76, 3, 113)",6,mbtiauth_369
1373,"(76, 3, 131)",2,mbtiauth_369
1374,"(76, 3, 141)",2,mbtiauth_369
1375,"(76, 3, 150)",2,mbtiauth_369
1376,"(76, 3, 151)",2,mbtiauth_369
1377,"(76, 3, 163)",2,mbtiauth_369
1378,"(76, 3, 182)",2,mbtiauth_369
1379,"(76, 3, 234)",2,mbtiauth_369
1380,"(76, 3, 242)",2,mbtiauth_369
1381,"(76, 3, 296)",2,mbtiauth_369
1382,"(76, 3, 557)",3,mbtiauth_369
1383,"(76, 3, 1904)",2,mbtiauth_369
1384,"(76, 16, 3)",2,mbtiauth_369
1385,"(76, 16, 151)",2,mbtiauth_369
1386,"(76, 22, 3)",2,mbtiauth_369
1387,"(76, 22, 76)",3,mbtiauth_369
1388,"(76, 22, 151)",2,mbtiauth_369
1389,"(76, 27, 3)",2,mbtiauth_369
1390,"(76, 32, 76)",2,mbtiauth_369
1391,"(76, 41, 3)",3,mbtiauth_369
1392,"(76, 41, 41)",2,mbtiauth_369
1393,"(76, 41, 64)",2,mbtiauth_369
1394,"(76, 41, 76)",3,mbtiauth_369
1395,"(76, 41, 113)",2,mbtiauth_369
1396,"(76, 41, 141)",2,mbtiauth_369
1397,"(76, 41, 296)",2,mbtiauth_369
1398,"(76, 41, 326)",2,mbtiauth_369
1399,"(76, 50, 3)",2,mbtiauth_369
1400,"(76, 50, 46)",2,mbtiauth_369
1401,"(76, 64, 76)",3,mbtiauth_369
1402,"(76, 64, 113)",3,mbtiauth_369
1403,"(76, 64, 182)",2,mbtiauth_369
1404,"(76, 69, 148)",2,mbtiauth_369
1405,"(76, 76, 50)",2,mbtiauth_369
1406,"(76, 76, 76)",2,mbtiauth_369
1407,"(76, 76, 113)",2,mbtiauth_369
1408,"(76, 76, 242)",2,mbtiauth_369
1409,"(76, 76, 557)",2,mbtiauth_369
1410,"(76, 113, 2)",4,mbtiauth_369
1411,"(76, 113, 3)",9,mbtiauth_369
1412,"(76, 113, 16)",2,mbtiauth_369
1413,"(76, 113, 22)",2,mbtiauth_369
1414,"(76, 113, 29)",2,mbtiauth_369
1415,"(76, 113, 32)",4,mbtiauth_369
1416,"(76, 113, 41)",3,mbtiauth_369
1417,"(76, 113, 64)",3,mbtiauth_369
1418,"(76, 113, 76)",4,mbtiauth_369
1419,"(76, 113, 81)",2,mbtiauth_369
1420,"(76, 113, 113)",8,mbtiauth_369
1421,"(76, 113, 131)",4,mbtiauth_369
1422,"(76, 113, 141)",2,mbtiauth_369
1423,"(76, 113, 151)",2,mbtiauth_369
1424,"(76, 113, 182)",3,mbtiauth_369
1425,"(76, 113, 194)",4,mbtiauth_369
1426,"(76, 113, 208)",2,mbtiauth_369
1427,"(76, 113, 214)",3,mbtiauth_369
1428,"(76, 113, 234)",2,mbtiauth_369
1429,"(76, 113, 308)",2,mbtiauth_369
1430,"(76, 113, 326)",2,mbtiauth_369
1431,"(76, 113, 340)",3,mbtiauth_369
1432,"(76, 113, 424)",3,mbtiauth_369
1433,"(76, 113, 463)",2,mbtiauth_369
1434,"(76, 113, 557)",3,mbtiauth_369
1435,"(76, 113, 571)",2,mbtiauth_369
1436,"(76, 113, 608)",2,mbtiauth_369
1437,"(76, 113, 936)",3,mbtiauth_369
1438,"(76, 131, 3)",3,mbtiauth_369
1439,"(76, 131, 76)",2,mbtiauth_369
1440,"(76, 131, 163)",2,mbtiauth_369
1441,"(76, 141, 76)",2,mbtiauth_369
1442,"(76, 141, 182)",4,mbtiauth_369
1443,"(76, 141, 12349)",2,mbtiauth_369
1444,"(76, 148, 76)",2,mbtiauth_369
1445,"(76, 150, 76)",2,mbtiauth_369
1446,"(76, 151, 3)",2,mbtiauth_369
1447,"(76, 151, 50)",2,mbtiauth_369
1448,"(76, 151, 76)",2,mbtiauth_369
1449,"(76, 158, 113)",2,mbtiauth_369
1450,"(76, 182, 3)",4,mbtiauth_369
1451,"(76, 182, 113)",4,mbtiauth_369
1452,"(76, 182, 12349)",2,mbtiauth_369
1453,"(76, 194, 3)",3,mbtiauth_369
1454,"(76, 194, 113)",3,mbtiauth_369
1455,"(76, 194, 424)",2,mbtiauth_369
1456,"(76, 194, 557)",2,mbtiauth_369
1457,"(76, 200, 3)",2,mbtiauth_369
1458,"(76, 208, 3)",2,mbtiauth_369
1459,"(76, 213, 3)",2,mbtiauth_369
1460,"(76, 213, 76)",2,mbtiauth_369
1461,"(76, 224, 3)",2,mbtiauth_369
1462,"(76, 224, 424)",2,mbtiauth_369
1463,"(76, 234, 113)",2,mbtiauth_369
1464,"(76, 242, 3)",3,mbtiauth_369
1465,"(76, 242, 16)",2,mbtiauth_369
1466,"(76, 242, 113)",3,mbtiauth_369
1467,"(76, 242, 131)",3,mbtiauth_369
1468,"(76, 242, 141)",2,mbtiauth_369
1469,"(76, 242, 182)",2,mbtiauth_369
1470,"(76, 242, 208)",2,mbtiauth_369
1471,"(76, 308, 32)",2,mbtiauth_369
1472,"(76, 326, 151)",2,mbtiauth_369
1473,"(76, 340, 76)",2,mbtiauth_369
1474,"(76, 340, 148)",2,mbtiauth_369
1475,"(76, 340, 326)",2,mbtiauth_369
1476,"(76, 352, 3)",2,mbtiauth_369
1477,"(76, 424, 3)",2,mbtiauth_369
1478,"(76, 424, 22)",2,mbtiauth_369
1479,"(76, 424, 113)",4,mbtiauth_369
1480,"(76, 462, 16)",2,mbtiauth_369
1481,"(76, 462, 113)",2,mbtiauth_369
1482,"(76, 463, 64)",2,mbtiauth_369
1483,"(76, 484, 50)",2,mbtiauth_369
1484,"(76, 484, 113)",2,mbtiauth_369
1485,"(76, 557, 3)",2,mbtiauth_369
1486,"(76, 557, 113)",5,mbtiauth_369
1487,"(76, 557, 182)",2,mbtiauth_369
1488,"(76, 557, 340)",2,mbtiauth_369
1489,"(76, 616, 2)",2,mbtiauth_369
1490,"(76, 747, 41)",2,mbtiauth_369
1491,"(76, 1323, 32)",2,mbtiauth_369
1492,"(76, 1323, 76)",2,mbtiauth_369
1493,"(76, 1436, 33)",2,mbtiauth_369
1494,"(76, 1534, 3)",2,mbtiauth_369
1495,"(76, 1534, 113)",2,mbtiauth_369
1496,"(76, 1534, 182)",3,mbtiauth_369
1497,"(76, 1534, 571)",2,mbtiauth_369
1498,"(76, 2355, 76)",2,mbtiauth_369
1499,"(76, 3126, 33)",2,mbtiauth_369
1500,"(76, 3901, 431)",2,mbtiauth_369
1501,"(77, 76, 3)",2,mbtiauth_369
1502,"(77, 76, 22)",2,mbtiauth_369
1503,"(77, 76, 424)",2,mbtiauth_369
1504,"(92, 77, 50)",2,mbtiauth_369
1505,"(113, 2, 3)",3,mbtiauth_369
1506,"(113, 2, 76)",2,mbtiauth_369
1507,"(113, 2, 113)",4,mbtiauth_369
1508,"(113, 2, 131)",2,mbtiauth_369
1509,"(113, 2, 141)",2,mbtiauth_369
1510,"(113, 2, 326)",2,mbtiauth_369
1511,"(113, 2, 424)",2,mbtiauth_369
1512,"(113, 3, 2)",8,mbtiauth_369
1513,"(113, 3, 3)",3,mbtiauth_369
1514,"(113, 3, 7)",2,mbtiauth_369
1515,"(113, 3, 16)",3,mbtiauth_369
1516,"(113, 3, 31)",2,mbtiauth_369
1517,"(113, 3, 41)",2,mbtiauth_369
1518,"(113, 3, 64)",4,mbtiauth_369
1519,"(113, 3, 65)",4,mbtiauth_369
1520,"(113, 3, 76)",13,mbtiauth_369
1521,"(113, 3, 81)",2,mbtiauth_369
1522,"(113, 3, 113)",5,mbtiauth_369
1523,"(113, 3, 131)",3,mbtiauth_369
1524,"(113, 3, 141)",2,mbtiauth_369
1525,"(113, 3, 151)",2,mbtiauth_369
1526,"(113, 3, 160)",2,mbtiauth_369
1527,"(113, 3, 248)",2,mbtiauth_369
1528,"(113, 3, 250)",2,mbtiauth_369
1529,"(113, 3, 278)",2,mbtiauth_369
1530,"(113, 3, 296)",2,mbtiauth_369
1531,"(113, 3, 557)",3,mbtiauth_369
1532,"(113, 3, 791)",2,mbtiauth_369
1533,"(113, 3, 1099)",2,mbtiauth_369
1534,"(113, 3, 1325)",2,mbtiauth_369
1535,"(113, 3, 2699)",2,mbtiauth_369
1536,"(113, 7, 65)",2,mbtiauth_369
1537,"(113, 7, 76)",2,mbtiauth_369
1538,"(113, 7, 129)",2,mbtiauth_369
1539,"(113, 22, 2)",4,mbtiauth_369
1540,"(113, 22, 3)",2,mbtiauth_369
1541,"(113, 29, 76)",2,mbtiauth_369
1542,"(113, 29, 1632)",2,mbtiauth_369
1543,"(113, 31, 2)",3,mbtiauth_369
1544,"(113, 31, 113)",2,mbtiauth_369
1545,"(113, 32, 3)",2,mbtiauth_369
1546,"(113, 32, 50)",2,mbtiauth_369
1547,"(113, 32, 76)",3,mbtiauth_369
1548,"(113, 33, 151)",2,mbtiauth_369
1549,"(113, 41, 113)",2,mbtiauth_369
1550,"(113, 41, 151)",2,mbtiauth_369
1551,"(113, 50, 76)",2,mbtiauth_369
1552,"(113, 50, 113)",2,mbtiauth_369
1553,"(113, 64, 2)",5,mbtiauth_369
1554,"(113, 64, 76)",3,mbtiauth_369
1555,"(113, 64, 113)",4,mbtiauth_369
1556,"(113, 64, 141)",2,mbtiauth_369
1557,"(113, 64, 264)",2,mbtiauth_369
1558,"(113, 64, 326)",2,mbtiauth_369
1559,"(113, 64, 401)",2,mbtiauth_369
1560,"(113, 65, 2)",2,mbtiauth_369
1561,"(113, 65, 3)",2,mbtiauth_369
1562,"(113, 65, 41)",2,mbtiauth_369
1563,"(113, 65, 76)",4,mbtiauth_369
1564,"(113, 76, 2)",6,mbtiauth_369
1565,"(113, 76, 3)",3,mbtiauth_369
1566,"(113, 76, 50)",2,mbtiauth_369
1567,"(113, 76, 64)",2,mbtiauth_369
1568,"(113, 76, 113)",11,mbtiauth_369
1569,"(113, 76, 182)",4,mbtiauth_369
1570,"(113, 76, 242)",3,mbtiauth_369
1571,"(113, 76, 557)",4,mbtiauth_369
1572,"(113, 76, 593)",2,mbtiauth_369
1573,"(113, 76, 1534)",3,mbtiauth_369
1574,"(113, 77, 50)",2,mbtiauth_369
1575,"(113, 77, 76)",2,mbtiauth_369
1576,"(113, 92, 50)",2,mbtiauth_369
1577,"(113, 92, 77)",2,mbtiauth_369
1578,"(113, 113, 2)",5,mbtiauth_369
1579,"(113, 113, 3)",5,mbtiauth_369
1580,"(113, 113, 16)",2,mbtiauth_369
1581,"(113, 113, 41)",2,mbtiauth_369
1582,"(113, 113, 64)",3,mbtiauth_369
1583,"(113, 113, 76)",3,mbtiauth_369
1584,"(113, 113, 113)",4,mbtiauth_369
1585,"(113, 113, 141)",4,mbtiauth_369
1586,"(113, 113, 151)",3,mbtiauth_369
1587,"(113, 113, 182)",5,mbtiauth_369
1588,"(113, 113, 194)",2,mbtiauth_369
1589,"(113, 113, 213)",2,mbtiauth_369
1590,"(113, 113, 214)",2,mbtiauth_369
1591,"(113, 113, 326)",3,mbtiauth_369
1592,"(113, 113, 340)",3,mbtiauth_369
1593,"(113, 113, 401)",2,mbtiauth_369
1594,"(113, 113, 463)",2,mbtiauth_369
1595,"(113, 113, 557)",4,mbtiauth_369
1596,"(113, 113, 571)",2,mbtiauth_369
1597,"(113, 113, 836)",2,mbtiauth_369
1598,"(113, 113, 936)",2,mbtiauth_369
1599,"(113, 118, 29)",2,mbtiauth_369
1600,"(113, 118, 50)",2,mbtiauth_369
1601,"(113, 118, 64)",2,mbtiauth_369
1602,"(113, 118, 76)",5,mbtiauth_369
1603,"(113, 118, 77)",2,mbtiauth_369
1604,"(113, 118, 113)",2,mbtiauth_369
1605,"(113, 118, 131)",2,mbtiauth_369
1606,"(113, 118, 156)",2,mbtiauth_369
1607,"(113, 118, 182)",2,mbtiauth_369
1608,"(113, 118, 224)",2,mbtiauth_369
1609,"(113, 118, 326)",3,mbtiauth_369
1610,"(113, 118, 401)",2,mbtiauth_369
1611,"(113, 131, 16)",2,mbtiauth_369
1612,"(113, 131, 76)",3,mbtiauth_369
1613,"(113, 131, 131)",2,mbtiauth_369
1614,"(113, 131, 242)",2,mbtiauth_369
1615,"(113, 141, 31)",2,mbtiauth_369
1616,"(113, 141, 66)",2,mbtiauth_369
1617,"(113, 141, 76)",2,mbtiauth_369
1618,"(113, 141, 113)",3,mbtiauth_369
1619,"(113, 141, 182)",4,mbtiauth_369
1620,"(113, 148, 76)",2,mbtiauth_369
1621,"(113, 151, 2)",2,mbtiauth_369
1622,"(113, 151, 3)",3,mbtiauth_369
1623,"(113, 151, 76)",2,mbtiauth_369
1624,"(113, 151, 113)",3,mbtiauth_369
1625,"(113, 151, 182)",2,mbtiauth_369
1626,"(113, 151, 214)",2,mbtiauth_369
1627,"(113, 151, 340)",2,mbtiauth_369
1628,"(113, 156, 64)",4,mbtiauth_369
1629,"(113, 156, 401)",2,mbtiauth_369
1630,"(113, 160, 2)",2,mbtiauth_369
1631,"(113, 160, 76)",2,mbtiauth_369
1632,"(113, 160, 131)",2,mbtiauth_369
1633,"(113, 161, 3)",2,mbtiauth_369
1634,"(113, 161, 64)",2,mbtiauth_369
1635,"(113, 161, 76)",2,mbtiauth_369
1636,"(113, 161, 148)",2,mbtiauth_369
1637,"(113, 182, 2)",2,mbtiauth_369
1638,"(113, 182, 3)",3,mbtiauth_369
1639,"(113, 182, 31)",2,mbtiauth_369
1640,"(113, 182, 32)",2,mbtiauth_369
1641,"(113, 182, 65)",2,mbtiauth_369
1642,"(113, 182, 66)",2,mbtiauth_369
1643,"(113, 182, 76)",2,mbtiauth_369
1644,"(113, 182, 113)",4,mbtiauth_369
1645,"(113, 182, 182)",2,mbtiauth_369
1646,"(113, 194, 2)",3,mbtiauth_369
1647,"(113, 194, 3)",5,mbtiauth_369
1648,"(113, 194, 22)",4,mbtiauth_369
1649,"(113, 194, 41)",2,mbtiauth_369
1650,"(113, 194, 64)",2,mbtiauth_369
1651,"(113, 194, 76)",2,mbtiauth_369
1652,"(113, 194, 113)",3,mbtiauth_369
1653,"(113, 194, 424)",2,mbtiauth_369
1654,"(113, 194, 557)",3,mbtiauth_369
1655,"(113, 194, 635)",2,mbtiauth_369
1656,"(113, 208, 2)",2,mbtiauth_369
1657,"(113, 208, 16)",3,mbtiauth_369
1658,"(113, 208, 308)",2,mbtiauth_369
1659,"(113, 214, 3)",2,mbtiauth_369
1660,"(113, 224, 182)",2,mbtiauth_369
1661,"(113, 242, 113)",4,mbtiauth_369
1662,"(113, 248, 16)",2,mbtiauth_369
1663,"(113, 248, 32)",3,mbtiauth_369
1664,"(113, 248, 76)",2,mbtiauth_369
1665,"(113, 248, 156)",2,mbtiauth_369
1666,"(113, 278, 29)",2,mbtiauth_369
1667,"(113, 278, 50)",2,mbtiauth_369
1668,"(113, 278, 76)",3,mbtiauth_369
1669,"(113, 278, 593)",2,mbtiauth_369
1670,"(113, 308, 32)",2,mbtiauth_369
1671,"(113, 308, 76)",2,mbtiauth_369
1672,"(113, 326, 3)",2,mbtiauth_369
1673,"(113, 326, 29)",2,mbtiauth_369
1674,"(113, 326, 64)",2,mbtiauth_369
1675,"(113, 326, 76)",3,mbtiauth_369
1676,"(113, 326, 113)",3,mbtiauth_369
1677,"(113, 326, 141)",2,mbtiauth_369
1678,"(113, 326, 151)",2,mbtiauth_369
1679,"(113, 340, 2)",2,mbtiauth_369
1680,"(113, 340, 32)",2,mbtiauth_369
1681,"(113, 340, 50)",2,mbtiauth_369
1682,"(113, 340, 76)",2,mbtiauth_369
1683,"(113, 340, 113)",2,mbtiauth_369
1684,"(113, 340, 182)",2,mbtiauth_369
1685,"(113, 424, 557)",2,mbtiauth_369
1686,"(113, 463, 2)",2,mbtiauth_369
1687,"(113, 463, 64)",2,mbtiauth_369
1688,"(113, 484, 113)",2,mbtiauth_369
1689,"(113, 555, 214)",2,mbtiauth_369
1690,"(113, 557, 113)",3,mbtiauth_369
1691,"(113, 557, 182)",2,mbtiauth_369
1692,"(113, 635, 3)",2,mbtiauth_369
1693,"(113, 836, 141)",2,mbtiauth_369
1694,"(113, 936, 76)",2,mbtiauth_369
1695,"(113, 936, 113)",2,mbtiauth_369
1696,"(113, 1287, 3)",2,mbtiauth_369
1697,"(113, 1325, 76)",2,mbtiauth_369
1698,"(113, 1413, 160)",2,mbtiauth_369
1699,"(113, 1534, 113)",2,mbtiauth_369
1700,"(113, 1534, 182)",2,mbtiauth_369
1701,"(113, 2699, 182)",2,mbtiauth_369
1702,"(113, 2699, 557)",2,mbtiauth_369
1703,"(118, 64, 401)",2,mbtiauth_369
1704,"(118, 77, 76)",2,mbtiauth_369
1705,"(118, 131, 76)",2,mbtiauth_369
1706,"(118, 156, 64)",2,mbtiauth_369
1707,"(118, 156, 401)",2,mbtiauth_369
1708,"(118, 182, 3)",2,mbtiauth_369
1709,"(118, 224, 3)",2,mbtiauth_369
1710,"(118, 224, 182)",2,mbtiauth_369
1711,"(118, 326, 29)",2,mbtiauth_369
1712,"(124, 64, 65)",2,mbtiauth_369
1713,"(124, 113, 16)",2,mbtiauth_369
1714,"(124, 113, 208)",2,mbtiauth_369
1715,"(124, 208, 16)",2,mbtiauth_369
1716,"(131, 2, 32)",2,mbtiauth_369
1717,"(131, 3, 163)",2,mbtiauth_369
1718,"(131, 76, 131)",2,mbtiauth_369
1719,"(131, 76, 242)",2,mbtiauth_369
1720,"(131, 242, 131)",2,mbtiauth_369
1721,"(141, 16, 326)",2,mbtiauth_369
1722,"(141, 31, 2)",2,mbtiauth_369
1723,"(141, 41, 16)",2,mbtiauth_369
1724,"(141, 41, 124)",2,mbtiauth_369
1725,"(141, 41, 141)",2,mbtiauth_369
1726,"(141, 64, 65)",2,mbtiauth_369
1727,"(141, 76, 3)",2,mbtiauth_369
1728,"(141, 76, 113)",3,mbtiauth_369
1729,"(141, 76, 141)",3,mbtiauth_369
1730,"(141, 76, 182)",2,mbtiauth_369
1731,"(141, 113, 2)",2,mbtiauth_369
1732,"(141, 113, 113)",2,mbtiauth_369
1733,"(141, 113, 141)",3,mbtiauth_369
1734,"(141, 113, 182)",3,mbtiauth_369
1735,"(141, 124, 64)",2,mbtiauth_369
1736,"(141, 124, 65)",2,mbtiauth_369
1737,"(141, 141, 182)",3,mbtiauth_369
1738,"(141, 182, 2)",3,mbtiauth_369
1739,"(141, 182, 66)",2,mbtiauth_369
1740,"(141, 182, 76)",2,mbtiauth_369
1741,"(141, 182, 113)",2,mbtiauth_369
1742,"(141, 182, 12349)",2,mbtiauth_369
1743,"(141, 12349, 2)",2,mbtiauth_369
1744,"(148, 76, 76)",2,mbtiauth_369
1745,"(148, 76, 113)",2,mbtiauth_369
1746,"(149, 3, 16)",2,mbtiauth_369
1747,"(150, 3, 182)",2,mbtiauth_369
1748,"(150, 76, 150)",2,mbtiauth_369
1749,"(151, 2, 32)",2,mbtiauth_369
1750,"(151, 2, 131)",2,mbtiauth_369
1751,"(151, 3, 64)",2,mbtiauth_369
1752,"(151, 7, 65)",2,mbtiauth_369
1753,"(151, 7, 151)",2,mbtiauth_369
1754,"(151, 15, 214)",2,mbtiauth_369
1755,"(151, 65, 151)",2,mbtiauth_369
1756,"(151, 76, 50)",2,mbtiauth_369
1757,"(151, 76, 113)",2,mbtiauth_369
1758,"(151, 76, 557)",2,mbtiauth_369
1759,"(151, 113, 76)",2,mbtiauth_369
1760,"(151, 113, 182)",2,mbtiauth_369
1761,"(151, 113, 214)",2,mbtiauth_369
1762,"(151, 113, 340)",3,mbtiauth_369
1763,"(151, 151, 3)",2,mbtiauth_369
1764,"(151, 214, 3)",2,mbtiauth_369
1765,"(156, 64, 2)",2,mbtiauth_369
1766,"(156, 64, 3)",2,mbtiauth_369
1767,"(156, 64, 326)",2,mbtiauth_369
1768,"(156, 64, 401)",2,mbtiauth_369
1769,"(158, 64, 76)",2,mbtiauth_369
1770,"(158, 113, 113)",2,mbtiauth_369
1771,"(160, 2, 3)",2,mbtiauth_369
1772,"(160, 2, 76)",2,mbtiauth_369
1773,"(160, 76, 3)",4,mbtiauth_369
1774,"(160, 76, 113)",3,mbtiauth_369
1775,"(160, 76, 242)",3,mbtiauth_369
1776,"(160, 76, 424)",2,mbtiauth_369
1777,"(160, 113, 3)",2,mbtiauth_369
1778,"(160, 182, 3)",2,mbtiauth_369
1779,"(160, 242, 113)",2,mbtiauth_369
1780,"(161, 76, 113)",2,mbtiauth_369
1781,"(161, 148, 76)",2,mbtiauth_369
1782,"(161, 148, 113)",2,mbtiauth_369
1783,"(179, 99, 151)",2,mbtiauth_369
1784,"(179, 424, 99)",2,mbtiauth_369
1785,"(179, 424, 151)",2,mbtiauth_369
1786,"(182, 3, 2)",3,mbtiauth_369
1787,"(182, 3, 16)",2,mbtiauth_369
1788,"(182, 3, 31)",2,mbtiauth_369
1789,"(182, 3, 113)",4,mbtiauth_369
1790,"(182, 3, 151)",2,mbtiauth_369
1791,"(182, 3, 214)",2,mbtiauth_369
1792,"(182, 3, 644)",2,mbtiauth_369
1793,"(182, 31, 2)",2,mbtiauth_369
1794,"(182, 31, 113)",2,mbtiauth_369
1795,"(182, 32, 3)",2,mbtiauth_369
1796,"(182, 76, 3)",3,mbtiauth_369
1797,"(182, 76, 182)",3,mbtiauth_369
1798,"(182, 113, 2)",2,mbtiauth_369
1799,"(182, 113, 32)",2,mbtiauth_369
1800,"(182, 182, 3)",2,mbtiauth_369
1801,"(182, 12349, 2)",2,mbtiauth_369
1802,"(194, 3, 2)",2,mbtiauth_369
1803,"(194, 3, 76)",2,mbtiauth_369
1804,"(194, 3, 113)",3,mbtiauth_369
1805,"(194, 3, 557)",3,mbtiauth_369
1806,"(194, 22, 2)",2,mbtiauth_369
1807,"(194, 22, 3)",2,mbtiauth_369
1808,"(194, 64, 76)",2,mbtiauth_369
1809,"(194, 113, 3)",3,mbtiauth_369
1810,"(194, 113, 113)",2,mbtiauth_369
1811,"(194, 113, 557)",2,mbtiauth_369
1812,"(194, 557, 113)",3,mbtiauth_369
1813,"(194, 836, 22)",2,mbtiauth_369
1814,"(200, 3, 3)",2,mbtiauth_369
1815,"(200, 76, 3)",2,mbtiauth_369
1816,"(200, 113, 3)",2,mbtiauth_369
1817,"(208, 2, 113)",2,mbtiauth_369
1818,"(213, 3, 76)",2,mbtiauth_369
1819,"(213, 113, 3)",2,mbtiauth_369
1820,"(213, 242, 32)",2,mbtiauth_369
1821,"(213, 242, 113)",2,mbtiauth_369
1822,"(214, 2, 33)",2,mbtiauth_369
1823,"(224, 182, 3)",2,mbtiauth_369
1824,"(224, 826, 182)",2,mbtiauth_369
1825,"(234, 113, 151)",2,mbtiauth_369
1826,"(242, 3, 76)",2,mbtiauth_369
1827,"(242, 16, 326)",2,mbtiauth_369
1828,"(242, 32, 3)",2,mbtiauth_369
1829,"(242, 113, 16)",2,mbtiauth_369
1830,"(242, 113, 118)",2,mbtiauth_369
1831,"(242, 113, 131)",2,mbtiauth_369
1832,"(242, 141, 16)",2,mbtiauth_369
1833,"(242, 141, 326)",2,mbtiauth_369
1834,"(242, 208, 118)",2,mbtiauth_369
1835,"(248, 32, 76)",2,mbtiauth_369
1836,"(250, 76, 3)",2,mbtiauth_369
1837,"(250, 76, 182)",2,mbtiauth_369
1838,"(250, 182, 3)",2,mbtiauth_369
1839,"(250, 902, 3)",2,mbtiauth_369
1840,"(250, 902, 76)",2,mbtiauth_369
1841,"(264, 76, 179)",2,mbtiauth_369
1842,"(278, 76, 593)",2,mbtiauth_369
1843,"(282, 64, 141)",2,mbtiauth_369
1844,"(282, 64, 160)",2,mbtiauth_369
1845,"(282, 141, 160)",2,mbtiauth_369
1846,"(317, 76, 41)",2,mbtiauth_369
1847,"(326, 3, 7)",2,mbtiauth_369
1848,"(326, 3, 141)",2,mbtiauth_369
1849,"(326, 3, 282)",2,mbtiauth_369
1850,"(326, 7, 282)",2,mbtiauth_369
1851,"(326, 29, 76)",2,mbtiauth_369
1852,"(326, 76, 113)",3,mbtiauth_369
1853,"(326, 113, 182)",2,mbtiauth_369
1854,"(326, 113, 248)",2,mbtiauth_369
1855,"(326, 151, 3)",2,mbtiauth_369
1856,"(326, 182, 2)",2,mbtiauth_369
1857,"(326, 182, 3)",2,mbtiauth_369
1858,"(326, 224, 3)",2,mbtiauth_369
1859,"(326, 224, 149)",2,mbtiauth_369
1860,"(340, 2, 250)",2,mbtiauth_369
1861,"(340, 76, 2)",2,mbtiauth_369
1862,"(340, 148, 113)",2,mbtiauth_369
1863,"(340, 182, 32)",2,mbtiauth_369
1864,"(352, 3, 3)",2,mbtiauth_369
1865,"(385, 76, 3)",2,mbtiauth_369
1866,"(417, 3, 182)",2,mbtiauth_369
1867,"(417, 214, 33)",2,mbtiauth_369
1868,"(424, 99, 151)",2,mbtiauth_369
1869,"(424, 113, 3)",4,mbtiauth_369
1870,"(424, 113, 41)",2,mbtiauth_369
1871,"(424, 113, 113)",2,mbtiauth_369
1872,"(424, 151, 113)",2,mbtiauth_369
1873,"(424, 686, 3)",2,mbtiauth_369
1874,"(424, 686, 113)",3,mbtiauth_369
1875,"(462, 113, 131)",2,mbtiauth_369
1876,"(462, 113, 160)",2,mbtiauth_369
1877,"(462, 113, 1413)",2,mbtiauth_369
1878,"(462, 1413, 160)",2,mbtiauth_369
1879,"(463, 64, 76)",2,mbtiauth_369
1880,"(484, 50, 46)",2,mbtiauth_369
1881,"(484, 76, 3)",2,mbtiauth_369
1882,"(493, 22, 33)",2,mbtiauth_369
1883,"(504, 76, 3)",2,mbtiauth_369
1884,"(511, 3, 2)",2,mbtiauth_369
1885,"(557, 113, 113)",2,mbtiauth_369
1886,"(557, 113, 182)",2,mbtiauth_369
1887,"(557, 113, 340)",3,mbtiauth_369
1888,"(557, 182, 113)",3,mbtiauth_369
1889,"(593, 41, 836)",2,mbtiauth_369
1890,"(593, 194, 836)",2,mbtiauth_369
1891,"(635, 3, 65)",2,mbtiauth_369
1892,"(658, 76, 76)",2,mbtiauth_369
1893,"(686, 113, 3)",2,mbtiauth_369
1894,"(747, 29, 76)",2,mbtiauth_369
1895,"(747, 31, 29)",2,mbtiauth_369
1896,"(747, 31, 76)",2,mbtiauth_369
1897,"(747, 41, 29)",2,mbtiauth_369
1898,"(747, 41, 31)",2,mbtiauth_369
1899,"(747, 41, 41)",2,mbtiauth_369
1900,"(747, 41, 76)",3,mbtiauth_369
1901,"(747, 41, 747)",2,mbtiauth_369
1902,"(747, 76, 41)",2,mbtiauth_369
1903,"(747, 76, 747)",2,mbtiauth_369
1904,"(747, 747, 41)",2,mbtiauth_369
1905,"(902, 76, 3)",2,mbtiauth_369
1906,"(916, 64, 76)",2,mbtiauth_369
1907,"(916, 64, 113)",2,mbtiauth_369
1908,"(936, 113, 340)",2,mbtiauth_369
1909,"(975, 31, 113)",2,mbtiauth_369
1910,"(1053, 54, 76)",2,mbtiauth_369
1911,"(1088, 3, 2)",2,mbtiauth_369
1912,"(1088, 182, 3)",2,mbtiauth_369
1913,"(1101, 76, 3)",3,mbtiauth_369
1914,"(1101, 76, 22)",2,mbtiauth_369
1915,"(1101, 76, 113)",4,mbtiauth_369
1916,"(1101, 76, 194)",3,mbtiauth_369
1917,"(1101, 76, 424)",2,mbtiauth_369
1918,"(1101, 113, 3)",3,mbtiauth_369
1919,"(1101, 113, 41)",2,mbtiauth_369
1920,"(1101, 113, 113)",2,mbtiauth_369
1921,"(1101, 113, 194)",3,mbtiauth_369
1922,"(1101, 113, 424)",2,mbtiauth_369
1923,"(1101, 194, 3)",2,mbtiauth_369
1924,"(1101, 194, 113)",2,mbtiauth_369
1925,"(1101, 194, 424)",2,mbtiauth_369
1926,"(1193, 76, 113)",2,mbtiauth_369
1927,"(1203, 32, 1186)",2,mbtiauth_369
1928,"(1534, 113, 182)",2,mbtiauth_369
1929,"(1534, 182, 3)",2,mbtiauth_369
1930,"(1904, 76, 3)",2,mbtiauth_369
1931,"(2183, 5381, 76)",2,mbtiauth_369
1932,"(2699, 557, 182)",2,mbtiauth_369
1933,"(3126, 33, 76)",2,mbtiauth_369
1934,"(3226, 76, 2)",2,mbtiauth_369
1935,"(19911, 19911, 113)",2,mbtiauth_369
1936,"(2, 3, 76, 113)",2,mbtiauth_369
1937,"(2, 7, 64, 141)",2,mbtiauth_369
1938,"(2, 7, 282, 64)",2,mbtiauth_369
1939,"(2, 7, 282, 141)",2,mbtiauth_369
1940,"(2, 113, 3, 76)",2,mbtiauth_369
1941,"(2, 113, 3, 141)",2,mbtiauth_369
1942,"(2, 113, 326, 3)",2,mbtiauth_369
1943,"(2, 113, 326, 141)",2,mbtiauth_369
1944,"(2, 282, 64, 141)",2,mbtiauth_369
1945,"(2, 326, 3, 141)",2,mbtiauth_369
1946,"(2, 424, 686, 113)",2,mbtiauth_369
1947,"(3, 7, 64, 141)",2,mbtiauth_369
1948,"(3, 7, 64, 160)",2,mbtiauth_369
1949,"(3, 7, 141, 160)",2,mbtiauth_369
1950,"(3, 7, 282, 64)",2,mbtiauth_369
1951,"(3, 7, 282, 141)",2,mbtiauth_369
1952,"(3, 7, 282, 160)",2,mbtiauth_369
1953,"(3, 15, 32, 131)",2,mbtiauth_369
1954,"(3, 64, 141, 160)",2,mbtiauth_369
1955,"(3, 64, 160, 76)",2,mbtiauth_369
1956,"(3, 65, 76, 3)",2,mbtiauth_369
1957,"(3, 65, 658, 76)",2,mbtiauth_369
1958,"(3, 76, 113, 340)",2,mbtiauth_369
1959,"(3, 76, 242, 131)",2,mbtiauth_369
1960,"(3, 76, 557, 113)",3,mbtiauth_369
1961,"(3, 76, 557, 340)",2,mbtiauth_369
1962,"(3, 77, 76, 22)",2,mbtiauth_369
1963,"(3, 113, 113, 64)",2,mbtiauth_369
1964,"(3, 282, 64, 141)",2,mbtiauth_369
1965,"(3, 282, 64, 160)",2,mbtiauth_369
1966,"(3, 282, 141, 160)",2,mbtiauth_369
1967,"(3, 557, 113, 182)",2,mbtiauth_369
1968,"(3, 557, 113, 340)",3,mbtiauth_369
1969,"(3, 1904, 76, 3)",2,mbtiauth_369
1970,"(7, 64, 141, 160)",2,mbtiauth_369
1971,"(7, 282, 64, 141)",2,mbtiauth_369
1972,"(7, 282, 64, 160)",2,mbtiauth_369
1973,"(7, 282, 141, 160)",2,mbtiauth_369
1974,"(27, 141, 41, 124)",2,mbtiauth_369
1975,"(27, 141, 113, 141)",2,mbtiauth_369
1976,"(31, 113, 2, 113)",2,mbtiauth_369
1977,"(31, 113, 113, 3)",2,mbtiauth_369
1978,"(31, 113, 113, 401)",2,mbtiauth_369
1979,"(41, 31, 29, 76)",2,mbtiauth_369
1980,"(41, 76, 747, 41)",2,mbtiauth_369
1981,"(50, 1203, 32, 1186)",2,mbtiauth_369
1982,"(64, 2, 113, 214)",2,mbtiauth_369
1983,"(64, 76, 2, 113)",2,mbtiauth_369
1984,"(64, 76, 113, 64)",2,mbtiauth_369
1985,"(64, 76, 424, 113)",2,mbtiauth_369
1986,"(64, 113, 2, 113)",2,mbtiauth_369
1987,"(64, 1193, 76, 113)",2,mbtiauth_369
1988,"(76, 2, 113, 214)",2,mbtiauth_369
1989,"(76, 3, 2, 3)",2,mbtiauth_369
1990,"(76, 3, 76, 242)",2,mbtiauth_369
1991,"(76, 3, 76, 557)",2,mbtiauth_369
1992,"(76, 3, 113, 2)",2,mbtiauth_369
1993,"(76, 3, 113, 3)",2,mbtiauth_369
1994,"(76, 3, 141, 76)",2,mbtiauth_369
1995,"(76, 22, 3, 76)",2,mbtiauth_369
1996,"(76, 41, 3, 296)",2,mbtiauth_369
1997,"(76, 64, 113, 113)",2,mbtiauth_369
1998,"(76, 113, 2, 3)",2,mbtiauth_369
1999,"(76, 113, 2, 113)",2,mbtiauth_369
2000,"(76, 113, 3, 2)",2,mbtiauth_369
2001,"(76, 113, 3, 3)",3,mbtiauth_369
2002,"(76, 113, 3, 76)",3,mbtiauth_369
2003,"(76, 113, 3, 81)",2,mbtiauth_369
2004,"(76, 113, 3, 113)",2,mbtiauth_369
2005,"(76, 113, 3, 131)",2,mbtiauth_369
2006,"(76, 113, 3, 557)",2,mbtiauth_369
2007,"(76, 113, 64, 76)",2,mbtiauth_369
2008,"(76, 113, 113, 3)",3,mbtiauth_369
2009,"(76, 113, 113, 936)",2,mbtiauth_369
2010,"(76, 113, 141, 182)",2,mbtiauth_369
2011,"(76, 113, 194, 3)",3,mbtiauth_369
2012,"(76, 113, 194, 113)",3,mbtiauth_369
2013,"(76, 113, 194, 424)",2,mbtiauth_369
2014,"(76, 113, 194, 557)",2,mbtiauth_369
2015,"(76, 113, 308, 32)",2,mbtiauth_369
2016,"(76, 131, 3, 163)",2,mbtiauth_369
2017,"(76, 141, 182, 12349)",2,mbtiauth_369
2018,"(76, 158, 113, 113)",2,mbtiauth_369
2019,"(76, 182, 3, 113)",3,mbtiauth_369
2020,"(76, 194, 3, 557)",2,mbtiauth_369
2021,"(76, 194, 113, 3)",3,mbtiauth_369
2022,"(76, 213, 3, 76)",2,mbtiauth_369
2023,"(76, 242, 113, 131)",2,mbtiauth_369
2024,"(76, 352, 3, 3)",2,mbtiauth_369
2025,"(76, 424, 113, 3)",2,mbtiauth_369
2026,"(76, 557, 113, 340)",2,mbtiauth_369
2027,"(76, 557, 182, 113)",2,mbtiauth_369
2028,"(76, 1534, 113, 182)",2,mbtiauth_369
2029,"(76, 1534, 182, 3)",2,mbtiauth_369
2030,"(113, 2, 3, 76)",2,mbtiauth_369
2031,"(113, 2, 113, 326)",2,mbtiauth_369
2032,"(113, 3, 2, 3)",2,mbtiauth_369
2033,"(113, 3, 2, 131)",2,mbtiauth_369
2034,"(113, 3, 65, 76)",3,mbtiauth_369
2035,"(113, 3, 76, 2)",2,mbtiauth_369
2036,"(113, 3, 76, 113)",3,mbtiauth_369
2037,"(113, 3, 76, 557)",2,mbtiauth_369
2038,"(113, 3, 113, 2)",2,mbtiauth_369
2039,"(113, 3, 113, 3)",3,mbtiauth_369
2040,"(113, 3, 557, 113)",3,mbtiauth_369
2041,"(113, 3, 1325, 76)",2,mbtiauth_369
2042,"(113, 31, 113, 2)",2,mbtiauth_369
2043,"(113, 41, 113, 151)",2,mbtiauth_369
2044,"(113, 64, 2, 113)",3,mbtiauth_369
2045,"(113, 64, 76, 2)",3,mbtiauth_369
2046,"(113, 64, 76, 113)",2,mbtiauth_369
2047,"(113, 64, 113, 2)",2,mbtiauth_369
2048,"(113, 64, 113, 113)",2,mbtiauth_369
2049,"(113, 76, 2, 113)",2,mbtiauth_369
2050,"(113, 76, 113, 2)",2,mbtiauth_369
2051,"(113, 76, 113, 3)",2,mbtiauth_369
2052,"(113, 76, 113, 182)",2,mbtiauth_369
2053,"(113, 76, 242, 113)",2,mbtiauth_369
2054,"(113, 76, 557, 113)",2,mbtiauth_369
2055,"(113, 76, 1534, 113)",2,mbtiauth_369
2056,"(113, 76, 1534, 182)",2,mbtiauth_369
2057,"(113, 92, 77, 50)",2,mbtiauth_369
2058,"(113, 113, 2, 113)",2,mbtiauth_369
2059,"(113, 113, 3, 76)",2,mbtiauth_369
2060,"(113, 113, 3, 557)",3,mbtiauth_369
2061,"(113, 113, 76, 557)",3,mbtiauth_369
2062,"(113, 113, 194, 41)",2,mbtiauth_369
2063,"(113, 113, 340, 182)",2,mbtiauth_369
2064,"(113, 113, 836, 141)",2,mbtiauth_369
2065,"(113, 118, 64, 401)",2,mbtiauth_369
2066,"(113, 118, 77, 76)",2,mbtiauth_369
2067,"(113, 118, 131, 76)",2,mbtiauth_369
2068,"(113, 118, 156, 64)",2,mbtiauth_369
2069,"(113, 118, 156, 401)",2,mbtiauth_369
2070,"(113, 118, 224, 182)",2,mbtiauth_369
2071,"(113, 118, 326, 29)",2,mbtiauth_369
2072,"(113, 131, 76, 242)",2,mbtiauth_369
2073,"(113, 141, 76, 113)",2,mbtiauth_369
2074,"(113, 141, 182, 66)",2,mbtiauth_369
2075,"(113, 141, 182, 113)",2,mbtiauth_369
2076,"(113, 151, 113, 182)",2,mbtiauth_369
2077,"(113, 151, 113, 340)",2,mbtiauth_369
2078,"(113, 156, 64, 401)",2,mbtiauth_369
2079,"(113, 161, 148, 76)",2,mbtiauth_369
2080,"(113, 182, 76, 182)",2,mbtiauth_369
2081,"(113, 194, 3, 2)",2,mbtiauth_369
2082,"(113, 194, 3, 76)",2,mbtiauth_369
2083,"(113, 194, 3, 557)",3,mbtiauth_369
2084,"(113, 194, 22, 2)",2,mbtiauth_369
2085,"(113, 194, 22, 3)",2,mbtiauth_369
2086,"(113, 194, 64, 76)",2,mbtiauth_369
2087,"(113, 194, 113, 3)",3,mbtiauth_369
2088,"(113, 194, 113, 557)",2,mbtiauth_369
2089,"(113, 278, 76, 593)",2,mbtiauth_369
2090,"(113, 326, 3, 141)",2,mbtiauth_369
2091,"(113, 340, 182, 32)",2,mbtiauth_369
2092,"(113, 1534, 113, 182)",2,mbtiauth_369
2093,"(113, 2699, 557, 182)",2,mbtiauth_369
2094,"(118, 156, 64, 401)",2,mbtiauth_369
2095,"(118, 224, 182, 3)",2,mbtiauth_369
2096,"(124, 113, 208, 16)",2,mbtiauth_369
2097,"(131, 76, 242, 131)",2,mbtiauth_369
2098,"(141, 76, 113, 141)",2,mbtiauth_369
2099,"(141, 76, 113, 182)",2,mbtiauth_369
2100,"(141, 76, 141, 182)",2,mbtiauth_369
2101,"(141, 113, 141, 182)",3,mbtiauth_369
2102,"(141, 124, 64, 65)",2,mbtiauth_369
2103,"(141, 182, 12349, 2)",2,mbtiauth_369
2104,"(151, 7, 65, 151)",2,mbtiauth_369
2105,"(160, 76, 242, 113)",2,mbtiauth_369
2106,"(161, 148, 76, 113)",2,mbtiauth_369
2107,"(179, 424, 99, 151)",2,mbtiauth_369
2108,"(182, 3, 31, 113)",2,mbtiauth_369
2109,"(182, 76, 182, 3)",2,mbtiauth_369
2110,"(194, 3, 557, 113)",3,mbtiauth_369
2111,"(194, 113, 3, 113)",2,mbtiauth_369
2112,"(194, 113, 3, 557)",2,mbtiauth_369
2113,"(194, 113, 557, 113)",2,mbtiauth_369
2114,"(242, 141, 16, 326)",2,mbtiauth_369
2115,"(250, 76, 182, 3)",2,mbtiauth_369
2116,"(282, 64, 141, 160)",2,mbtiauth_369
2117,"(326, 3, 7, 282)",2,mbtiauth_369
2118,"(424, 686, 113, 3)",2,mbtiauth_369
2119,"(462, 113, 1413, 160)",2,mbtiauth_369
2120,"(557, 113, 182, 113)",2,mbtiauth_369
2121,"(747, 31, 29, 76)",2,mbtiauth_369
2122,"(747, 41, 29, 76)",2,mbtiauth_369
2123,"(747, 41, 31, 29)",2,mbtiauth_369
2124,"(747, 41, 31, 76)",2,mbtiauth_369
2125,"(747, 41, 76, 41)",2,mbtiauth_369
2126,"(747, 41, 76, 747)",2,mbtiauth_369
2127,"(747, 41, 747, 41)",2,mbtiauth_369
2128,"(747, 76, 747, 41)",2,mbtiauth_369
2129,"(1101, 76, 113, 3)",3,mbtiauth_369
2130,"(1101, 76, 113, 113)",2,mbtiauth_369
2131,"(1101, 76, 113, 194)",3,mbtiauth_369
2132,"(1101, 76, 113, 424)",2,mbtiauth_369
2133,"(1101, 76, 194, 3)",2,mbtiauth_369
2134,"(1101, 76, 194, 113)",2,mbtiauth_369
2135,"(1101, 76, 194, 424)",2,mbtiauth_369
2136,"(1101, 113, 194, 3)",2,mbtiauth_369
2137,"(1101, 113, 194, 113)",2,mbtiauth_369
2138,"(1101, 113, 194, 424)",2,mbtiauth_369
2139,"(2, 7, 282, 64, 141)",2,mbtiauth_369
2140,"(2, 113, 326, 3, 141)",2,mbtiauth_369
2141,"(3, 7, 64, 141, 160)",2,mbtiauth_369
2142,"(3, 7, 282, 64, 141)",2,mbtiauth_369
2143,"(3, 7, 282, 64, 160)",2,mbtiauth_369
2144,"(3, 7, 282, 141, 160)",2,mbtiauth_369
2145,"(3, 76, 557, 113, 340)",2,mbtiauth_369
2146,"(3, 282, 64, 141, 160)",2,mbtiauth_369
2147,"(7, 282, 64, 141, 160)",2,mbtiauth_369
2148,"(76, 113, 3, 2, 3)",2,mbtiauth_369
2149,"(76, 113, 3, 113, 3)",2,mbtiauth_369
2150,"(76, 113, 194, 3, 557)",2,mbtiauth_369
2151,"(76, 113, 194, 113, 3)",3,mbtiauth_369
2152,"(113, 3, 76, 557, 113)",2,mbtiauth_369
2153,"(113, 64, 113, 2, 113)",2,mbtiauth_369
2154,"(113, 76, 1534, 113, 182)",2,mbtiauth_369
2155,"(113, 113, 3, 76, 557)",2,mbtiauth_369
2156,"(113, 118, 156, 64, 401)",2,mbtiauth_369
2157,"(113, 194, 113, 3, 557)",2,mbtiauth_369
2158,"(141, 76, 113, 141, 182)",2,mbtiauth_369
2159,"(194, 113, 3, 557, 113)",2,mbtiauth_369
2160,"(747, 41, 31, 29, 76)",2,mbtiauth_369
2161,"(747, 41, 76, 747, 41)",2,mbtiauth_369
2162,"(1101, 76, 113, 194, 3)",2,mbtiauth_369
2163,"(1101, 76, 113, 194, 113)",2,mbtiauth_369
2164,"(1101, 76, 113, 194, 424)",2,mbtiauth_369
2165,"(3, 7, 282, 64, 141, 160)",2,mbtiauth_369
