,pattern,sup,author
847,"(2, 3, 2)",2,mbtiauth_8339
848,"(2, 3, 64)",2,mbtiauth_8339
849,"(2, 113, 2)",3,mbtiauth_8339
850,"(2, 113, 3)",2,mbtiauth_8339
851,"(2, 113, 131)",2,mbtiauth_8339
852,"(2, 469, 3)",2,mbtiauth_8339
853,"(2, 469, 7)",2,mbtiauth_8339
854,"(2, 636, 151)",2,mbtiauth_8339
855,"(3, 2, 3)",4,mbtiauth_8339
856,"(3, 2, 64)",3,mbtiauth_8339
857,"(3, 2, 65)",2,mbtiauth_8339
858,"(3, 2, 113)",2,mbtiauth_8339
859,"(3, 3, 2)",4,mbtiauth_8339
860,"(3, 3, 64)",2,mbtiauth_8339
861,"(3, 3, 137)",2,mbtiauth_8339
862,"(3, 7, 3)",2,mbtiauth_8339
863,"(3, 7, 7088)",2,mbtiauth_8339
864,"(3, 10, 2)",2,mbtiauth_8339
865,"(3, 10, 22)",2,mbtiauth_8339
866,"(3, 10, 65)",2,mbtiauth_8339
867,"(3, 10, 557)",2,mbtiauth_8339
868,"(3, 11, 3)",3,mbtiauth_8339
869,"(3, 11, 10)",3,mbtiauth_8339
870,"(3, 16, 3)",2,mbtiauth_8339
871,"(3, 16, 113)",2,mbtiauth_8339
872,"(3, 22, 11)",2,mbtiauth_8339
873,"(3, 22, 32)",2,mbtiauth_8339
874,"(3, 22, 557)",2,mbtiauth_8339
875,"(3, 29, 827)",2,mbtiauth_8339
876,"(3, 31, 385)",2,mbtiauth_8339
877,"(3, 31, 722)",2,mbtiauth_8339
878,"(3, 32, 2)",3,mbtiauth_8339
879,"(3, 32, 3)",2,mbtiauth_8339
880,"(3, 32, 50)",2,mbtiauth_8339
881,"(3, 33, 22)",2,mbtiauth_8339
882,"(3, 33, 250)",2,mbtiauth_8339
883,"(3, 33, 251)",2,mbtiauth_8339
884,"(3, 41, 3)",2,mbtiauth_8339
885,"(3, 50, 3539)",2,mbtiauth_8339
886,"(3, 64, 2)",2,mbtiauth_8339
887,"(3, 64, 3)",4,mbtiauth_8339
888,"(3, 64, 7)",3,mbtiauth_8339
889,"(3, 64, 31)",3,mbtiauth_8339
890,"(3, 64, 113)",3,mbtiauth_8339
891,"(3, 64, 312)",4,mbtiauth_8339
892,"(3, 64, 385)",2,mbtiauth_8339
893,"(3, 64, 722)",2,mbtiauth_8339
894,"(3, 64, 1057)",3,mbtiauth_8339
895,"(3, 64, 7088)",2,mbtiauth_8339
896,"(3, 65, 2)",2,mbtiauth_8339
897,"(3, 65, 3)",3,mbtiauth_8339
898,"(3, 65, 50)",2,mbtiauth_8339
899,"(3, 76, 2)",3,mbtiauth_8339
900,"(3, 113, 2)",3,mbtiauth_8339
901,"(3, 113, 3)",4,mbtiauth_8339
902,"(3, 113, 10)",2,mbtiauth_8339
903,"(3, 113, 364)",2,mbtiauth_8339
904,"(3, 139, 244)",2,mbtiauth_8339
905,"(3, 139, 312)",2,mbtiauth_8339
906,"(3, 148, 2)",2,mbtiauth_8339
907,"(3, 151, 2)",3,mbtiauth_8339
908,"(3, 151, 3)",5,mbtiauth_8339
909,"(3, 151, 41)",2,mbtiauth_8339
910,"(3, 151, 113)",2,mbtiauth_8339
911,"(3, 151, 137)",2,mbtiauth_8339
912,"(3, 151, 469)",2,mbtiauth_8339
913,"(3, 190, 3)",2,mbtiauth_8339
914,"(3, 244, 312)",2,mbtiauth_8339
915,"(3, 312, 3)",2,mbtiauth_8339
916,"(3, 312, 31)",2,mbtiauth_8339
917,"(3, 312, 385)",2,mbtiauth_8339
918,"(3, 312, 722)",2,mbtiauth_8339
919,"(3, 312, 1057)",4,mbtiauth_8339
920,"(3, 312, 1664)",2,mbtiauth_8339
921,"(3, 463, 7)",2,mbtiauth_8339
922,"(3, 463, 64)",4,mbtiauth_8339
923,"(3, 463, 7088)",2,mbtiauth_8339
924,"(3, 469, 2)",2,mbtiauth_8339
925,"(3, 469, 3)",2,mbtiauth_8339
926,"(3, 469, 7)",2,mbtiauth_8339
927,"(3, 469, 64)",2,mbtiauth_8339
928,"(3, 493, 10)",3,mbtiauth_8339
929,"(3, 493, 11)",3,mbtiauth_8339
930,"(3, 557, 3)",2,mbtiauth_8339
931,"(3, 557, 11)",2,mbtiauth_8339
932,"(3, 557, 113)",2,mbtiauth_8339
933,"(3, 722, 385)",3,mbtiauth_8339
934,"(3, 1057, 31)",2,mbtiauth_8339
935,"(3, 1057, 385)",2,mbtiauth_8339
936,"(3, 1057, 722)",2,mbtiauth_8339
937,"(3, 1283, 64)",2,mbtiauth_8339
938,"(3, 1283, 312)",2,mbtiauth_8339
939,"(3, 1283, 1057)",2,mbtiauth_8339
940,"(3, 4105, 64)",2,mbtiauth_8339
941,"(3, 4105, 312)",2,mbtiauth_8339
942,"(7, 3, 2)",2,mbtiauth_8339
943,"(7, 31, 2)",2,mbtiauth_8339
944,"(7, 31, 3)",2,mbtiauth_8339
945,"(7, 41, 3)",2,mbtiauth_8339
946,"(7, 65, 2)",2,mbtiauth_8339
947,"(7, 65, 3)",2,mbtiauth_8339
948,"(7, 65, 31)",3,mbtiauth_8339
949,"(10, 22, 2)",2,mbtiauth_8339
950,"(10, 65, 151)",2,mbtiauth_8339
951,"(11, 2, 113)",2,mbtiauth_8339
952,"(11, 3, 312)",2,mbtiauth_8339
953,"(11, 11, 10)",2,mbtiauth_8339
954,"(11, 493, 10)",2,mbtiauth_8339
955,"(11, 493, 11)",2,mbtiauth_8339
956,"(15, 32, 2)",2,mbtiauth_8339
957,"(16, 312, 3)",2,mbtiauth_8339
958,"(22, 3, 2)",2,mbtiauth_8339
959,"(22, 3, 22)",2,mbtiauth_8339
960,"(22, 3, 64)",3,mbtiauth_8339
961,"(22, 3, 76)",2,mbtiauth_8339
962,"(22, 3, 113)",2,mbtiauth_8339
963,"(22, 11, 3)",2,mbtiauth_8339
964,"(22, 31, 3)",2,mbtiauth_8339
965,"(22, 76, 64)",2,mbtiauth_8339
966,"(22, 113, 3)",2,mbtiauth_8339
967,"(22, 247, 32)",2,mbtiauth_8339
968,"(22, 417, 76)",2,mbtiauth_8339
969,"(22, 616, 32)",2,mbtiauth_8339
970,"(22, 616, 247)",2,mbtiauth_8339
971,"(22, 1159, 3)",2,mbtiauth_8339
972,"(27, 41, 2)",2,mbtiauth_8339
973,"(27, 113, 64)",2,mbtiauth_8339
974,"(31, 3, 151)",2,mbtiauth_8339
975,"(31, 41, 151)",2,mbtiauth_8339
976,"(31, 722, 385)",2,mbtiauth_8339
977,"(32, 2, 3)",2,mbtiauth_8339
978,"(32, 3, 16)",2,mbtiauth_8339
979,"(32, 31, 10)",2,mbtiauth_8339
980,"(32, 64, 113)",2,mbtiauth_8339
981,"(32, 65, 2)",2,mbtiauth_8339
982,"(32, 113, 3)",2,mbtiauth_8339
983,"(32, 113, 64)",2,mbtiauth_8339
984,"(32, 113, 113)",2,mbtiauth_8339
985,"(32, 417, 499)",2,mbtiauth_8339
986,"(33, 250, 251)",2,mbtiauth_8339
987,"(33, 251, 113)",2,mbtiauth_8339
988,"(41, 3, 2)",3,mbtiauth_8339
989,"(41, 3, 3)",2,mbtiauth_8339
990,"(41, 3, 10)",3,mbtiauth_8339
991,"(41, 3, 11)",2,mbtiauth_8339
992,"(41, 3, 29)",2,mbtiauth_8339
993,"(41, 3, 33)",2,mbtiauth_8339
994,"(41, 3, 64)",2,mbtiauth_8339
995,"(41, 3, 65)",4,mbtiauth_8339
996,"(41, 3, 463)",2,mbtiauth_8339
997,"(41, 7, 7088)",2,mbtiauth_8339
998,"(41, 11, 10)",2,mbtiauth_8339
999,"(41, 463, 64)",2,mbtiauth_8339
1000,"(50, 2, 3)",3,mbtiauth_8339
1001,"(50, 3, 2)",2,mbtiauth_8339
1002,"(50, 3, 3)",2,mbtiauth_8339
1003,"(50, 3, 151)",3,mbtiauth_8339
1004,"(50, 113, 2)",3,mbtiauth_8339
1005,"(50, 113, 3)",2,mbtiauth_8339
1006,"(50, 151, 2)",3,mbtiauth_8339
1007,"(50, 151, 3)",3,mbtiauth_8339
1008,"(50, 151, 113)",2,mbtiauth_8339
1009,"(64, 3, 2)",4,mbtiauth_8339
1010,"(64, 3, 64)",2,mbtiauth_8339
1011,"(64, 3, 148)",2,mbtiauth_8339
1012,"(64, 7, 7088)",2,mbtiauth_8339
1013,"(64, 22, 22)",2,mbtiauth_8339
1014,"(64, 31, 385)",2,mbtiauth_8339
1015,"(64, 31, 722)",2,mbtiauth_8339
1016,"(64, 32, 2)",3,mbtiauth_8339
1017,"(64, 32, 3)",2,mbtiauth_8339
1018,"(64, 113, 64)",2,mbtiauth_8339
1019,"(64, 148, 2)",2,mbtiauth_8339
1020,"(64, 312, 31)",2,mbtiauth_8339
1021,"(64, 312, 385)",2,mbtiauth_8339
1022,"(64, 312, 722)",2,mbtiauth_8339
1023,"(64, 312, 1057)",3,mbtiauth_8339
1024,"(64, 312, 1664)",2,mbtiauth_8339
1025,"(64, 417, 77)",2,mbtiauth_8339
1026,"(64, 617, 77)",2,mbtiauth_8339
1027,"(64, 617, 417)",2,mbtiauth_8339
1028,"(64, 722, 385)",2,mbtiauth_8339
1029,"(64, 1057, 31)",2,mbtiauth_8339
1030,"(64, 1057, 385)",2,mbtiauth_8339
1031,"(64, 1057, 722)",2,mbtiauth_8339
1032,"(65, 2, 3)",2,mbtiauth_8339
1033,"(65, 10, 65)",2,mbtiauth_8339
1034,"(65, 31, 2)",2,mbtiauth_8339
1035,"(65, 31, 3)",2,mbtiauth_8339
1036,"(65, 32, 3)",2,mbtiauth_8339
1037,"(65, 41, 3)",2,mbtiauth_8339
1038,"(65, 76, 3)",2,mbtiauth_8339
1039,"(65, 76, 113)",2,mbtiauth_8339
1040,"(65, 113, 3)",2,mbtiauth_8339
1041,"(65, 113, 194)",2,mbtiauth_8339
1042,"(65, 297, 65)",2,mbtiauth_8339
1043,"(65, 1100, 3)",2,mbtiauth_8339
1044,"(69, 113, 194)",2,mbtiauth_8339
1045,"(69, 163, 64)",2,mbtiauth_8339
1046,"(69, 363, 32)",2,mbtiauth_8339
1047,"(76, 113, 3)",2,mbtiauth_8339
1048,"(76, 113, 10)",2,mbtiauth_8339
1049,"(76, 113, 22)",2,mbtiauth_8339
1050,"(76, 113, 65)",3,mbtiauth_8339
1051,"(76, 113, 131)",2,mbtiauth_8339
1052,"(76, 113, 194)",2,mbtiauth_8339
1053,"(76, 113, 1498)",2,mbtiauth_8339
1054,"(76, 131, 76)",2,mbtiauth_8339
1055,"(113, 2, 65)",2,mbtiauth_8339
1056,"(113, 2, 113)",4,mbtiauth_8339
1057,"(113, 3, 2)",5,mbtiauth_8339
1058,"(113, 3, 3)",5,mbtiauth_8339
1059,"(113, 3, 10)",3,mbtiauth_8339
1060,"(113, 3, 16)",3,mbtiauth_8339
1061,"(113, 3, 22)",2,mbtiauth_8339
1062,"(113, 3, 64)",4,mbtiauth_8339
1063,"(113, 3, 65)",3,mbtiauth_8339
1064,"(113, 3, 77)",2,mbtiauth_8339
1065,"(113, 3, 113)",6,mbtiauth_8339
1066,"(113, 3, 115)",2,mbtiauth_8339
1067,"(113, 3, 148)",2,mbtiauth_8339
1068,"(113, 3, 160)",3,mbtiauth_8339
1069,"(113, 3, 182)",2,mbtiauth_8339
1070,"(113, 3, 312)",2,mbtiauth_8339
1071,"(113, 3, 469)",2,mbtiauth_8339
1072,"(113, 3, 557)",4,mbtiauth_8339
1073,"(113, 3, 1057)",2,mbtiauth_8339
1074,"(113, 3, 1159)",2,mbtiauth_8339
1075,"(113, 7, 3)",2,mbtiauth_8339
1076,"(113, 7, 65)",2,mbtiauth_8339
1077,"(113, 10, 65)",2,mbtiauth_8339
1078,"(113, 16, 64)",2,mbtiauth_8339
1079,"(113, 16, 557)",2,mbtiauth_8339
1080,"(113, 41, 3)",3,mbtiauth_8339
1081,"(113, 41, 65)",3,mbtiauth_8339
1082,"(113, 64, 2)",2,mbtiauth_8339
1083,"(113, 64, 3)",4,mbtiauth_8339
1084,"(113, 64, 32)",2,mbtiauth_8339
1085,"(113, 64, 113)",4,mbtiauth_8339
1086,"(113, 64, 148)",2,mbtiauth_8339
1087,"(113, 64, 312)",2,mbtiauth_8339
1088,"(113, 65, 76)",3,mbtiauth_8339
1089,"(113, 65, 113)",3,mbtiauth_8339
1090,"(113, 76, 76)",2,mbtiauth_8339
1091,"(113, 76, 113)",3,mbtiauth_8339
1092,"(113, 76, 131)",2,mbtiauth_8339
1093,"(113, 113, 2)",2,mbtiauth_8339
1094,"(113, 113, 3)",4,mbtiauth_8339
1095,"(113, 113, 131)",3,mbtiauth_8339
1096,"(113, 113, 571)",2,mbtiauth_8339
1097,"(113, 118, 3)",2,mbtiauth_8339
1098,"(113, 118, 194)",2,mbtiauth_8339
1099,"(113, 131, 2)",3,mbtiauth_8339
1100,"(113, 131, 3)",4,mbtiauth_8339
1101,"(113, 131, 76)",2,mbtiauth_8339
1102,"(113, 131, 131)",3,mbtiauth_8339
1103,"(113, 148, 2)",2,mbtiauth_8339
1104,"(113, 151, 2)",3,mbtiauth_8339
1105,"(113, 151, 3)",4,mbtiauth_8339
1106,"(113, 151, 32)",2,mbtiauth_8339
1107,"(113, 151, 41)",2,mbtiauth_8339
1108,"(113, 151, 113)",3,mbtiauth_8339
1109,"(113, 151, 469)",2,mbtiauth_8339
1110,"(113, 156, 2)",2,mbtiauth_8339
1111,"(113, 156, 3)",3,mbtiauth_8339
1112,"(113, 156, 64)",3,mbtiauth_8339
1113,"(113, 156, 148)",2,mbtiauth_8339
1114,"(113, 160, 2)",2,mbtiauth_8339
1115,"(113, 160, 65)",3,mbtiauth_8339
1116,"(113, 160, 131)",2,mbtiauth_8339
1117,"(113, 185, 364)",2,mbtiauth_8339
1118,"(113, 190, 3)",3,mbtiauth_8339
1119,"(113, 194, 2)",3,mbtiauth_8339
1120,"(113, 194, 3)",10,mbtiauth_8339
1121,"(113, 194, 10)",2,mbtiauth_8339
1122,"(113, 194, 41)",3,mbtiauth_8339
1123,"(113, 194, 64)",3,mbtiauth_8339
1124,"(113, 194, 65)",2,mbtiauth_8339
1125,"(113, 194, 113)",2,mbtiauth_8339
1126,"(113, 194, 151)",2,mbtiauth_8339
1127,"(113, 194, 160)",2,mbtiauth_8339
1128,"(113, 194, 182)",2,mbtiauth_8339
1129,"(113, 194, 185)",2,mbtiauth_8339
1130,"(113, 194, 190)",2,mbtiauth_8339
1131,"(113, 194, 393)",2,mbtiauth_8339
1132,"(113, 194, 836)",2,mbtiauth_8339
1133,"(113, 224, 3)",2,mbtiauth_8339
1134,"(113, 224, 7)",2,mbtiauth_8339
1135,"(113, 248, 557)",2,mbtiauth_8339
1136,"(113, 268, 113)",2,mbtiauth_8339
1137,"(113, 278, 1046)",2,mbtiauth_8339
1138,"(113, 326, 3)",2,mbtiauth_8339
1139,"(113, 340, 113)",2,mbtiauth_8339
1140,"(113, 463, 64)",2,mbtiauth_8339
1141,"(113, 557, 113)",2,mbtiauth_8339
1142,"(113, 692, 2)",3,mbtiauth_8339
1143,"(113, 692, 65)",2,mbtiauth_8339
1144,"(113, 692, 160)",2,mbtiauth_8339
1145,"(113, 814, 278)",2,mbtiauth_8339
1146,"(113, 814, 1046)",2,mbtiauth_8339
1147,"(113, 836, 557)",2,mbtiauth_8339
1148,"(113, 1057, 10)",2,mbtiauth_8339
1149,"(113, 1057, 113)",2,mbtiauth_8339
1150,"(118, 194, 3)",2,mbtiauth_8339
1151,"(131, 2, 160)",2,mbtiauth_8339
1152,"(131, 3, 2)",3,mbtiauth_8339
1153,"(131, 3, 160)",2,mbtiauth_8339
1154,"(131, 65, 1100)",2,mbtiauth_8339
1155,"(131, 76, 76)",2,mbtiauth_8339
1156,"(131, 131, 3)",2,mbtiauth_8339
1157,"(139, 244, 312)",2,mbtiauth_8339
1158,"(151, 2, 3)",2,mbtiauth_8339
1159,"(151, 3, 2)",3,mbtiauth_8339
1160,"(151, 3, 3)",2,mbtiauth_8339
1161,"(151, 3, 137)",2,mbtiauth_8339
1162,"(151, 3, 469)",2,mbtiauth_8339
1163,"(151, 41, 2)",4,mbtiauth_8339
1164,"(151, 41, 3)",3,mbtiauth_8339
1165,"(151, 113, 2)",3,mbtiauth_8339
1166,"(151, 113, 3)",4,mbtiauth_8339
1167,"(151, 113, 194)",3,mbtiauth_8339
1168,"(151, 113, 469)",2,mbtiauth_8339
1169,"(151, 151, 3)",2,mbtiauth_8339
1170,"(151, 194, 3)",2,mbtiauth_8339
1171,"(151, 194, 417)",2,mbtiauth_8339
1172,"(151, 312, 3)",2,mbtiauth_8339
1173,"(151, 469, 3)",2,mbtiauth_8339
1174,"(156, 3, 2)",3,mbtiauth_8339
1175,"(156, 3, 148)",2,mbtiauth_8339
1176,"(156, 64, 2)",3,mbtiauth_8339
1177,"(156, 64, 3)",3,mbtiauth_8339
1178,"(156, 64, 148)",2,mbtiauth_8339
1179,"(156, 148, 2)",2,mbtiauth_8339
1180,"(160, 65, 3)",2,mbtiauth_8339
1181,"(160, 131, 2)",2,mbtiauth_8339
1182,"(187, 31, 41)",2,mbtiauth_8339
1183,"(190, 3, 33)",2,mbtiauth_8339
1184,"(190, 3, 41)",2,mbtiauth_8339
1185,"(190, 3, 65)",2,mbtiauth_8339
1186,"(194, 3, 2)",3,mbtiauth_8339
1187,"(194, 3, 3)",3,mbtiauth_8339
1188,"(194, 3, 64)",2,mbtiauth_8339
1189,"(194, 3, 113)",2,mbtiauth_8339
1190,"(194, 3, 160)",2,mbtiauth_8339
1191,"(194, 3, 182)",2,mbtiauth_8339
1192,"(194, 3, 557)",2,mbtiauth_8339
1193,"(194, 41, 3)",2,mbtiauth_8339
1194,"(194, 41, 65)",2,mbtiauth_8339
1195,"(194, 151, 2)",2,mbtiauth_8339
1196,"(194, 151, 3)",2,mbtiauth_8339
1197,"(194, 190, 3)",2,mbtiauth_8339
1198,"(213, 32, 3)",2,mbtiauth_8339
1199,"(224, 41, 3)",2,mbtiauth_8339
1200,"(224, 41, 65)",2,mbtiauth_8339
1201,"(224, 190, 3)",2,mbtiauth_8339
1202,"(250, 3, 139)",2,mbtiauth_8339
1203,"(250, 3, 244)",2,mbtiauth_8339
1204,"(250, 3, 312)",2,mbtiauth_8339
1205,"(250, 3, 356)",2,mbtiauth_8339
1206,"(250, 139, 244)",2,mbtiauth_8339
1207,"(250, 139, 312)",2,mbtiauth_8339
1208,"(250, 244, 312)",2,mbtiauth_8339
1209,"(250, 251, 113)",2,mbtiauth_8339
1210,"(312, 3, 64)",2,mbtiauth_8339
1211,"(312, 3, 312)",2,mbtiauth_8339
1212,"(312, 3, 406)",2,mbtiauth_8339
1213,"(312, 7, 3)",2,mbtiauth_8339
1214,"(312, 31, 385)",2,mbtiauth_8339
1215,"(312, 31, 722)",2,mbtiauth_8339
1216,"(312, 64, 312)",2,mbtiauth_8339
1217,"(312, 722, 385)",2,mbtiauth_8339
1218,"(312, 997, 3)",2,mbtiauth_8339
1219,"(312, 1057, 31)",2,mbtiauth_8339
1220,"(312, 1057, 385)",2,mbtiauth_8339
1221,"(312, 1057, 722)",2,mbtiauth_8339
1222,"(326, 16, 22)",2,mbtiauth_8339
1223,"(342, 151, 417)",2,mbtiauth_8339
1224,"(342, 3390, 151)",2,mbtiauth_8339
1225,"(352, 3, 64)",2,mbtiauth_8339
1226,"(356, 76, 113)",2,mbtiauth_8339
1227,"(385, 113, 65)",2,mbtiauth_8339
1228,"(417, 3, 2)",2,mbtiauth_8339
1229,"(463, 7, 7088)",2,mbtiauth_8339
1230,"(463, 64, 7)",2,mbtiauth_8339
1231,"(463, 64, 7088)",2,mbtiauth_8339
1232,"(469, 3, 2)",2,mbtiauth_8339
1233,"(469, 7, 22)",2,mbtiauth_8339
1234,"(469, 64, 33)",2,mbtiauth_8339
1235,"(469, 340, 2)",2,mbtiauth_8339
1236,"(493, 11, 10)",3,mbtiauth_8339
1237,"(557, 11, 3)",2,mbtiauth_8339
1238,"(557, 11, 10)",2,mbtiauth_8339
1239,"(557, 113, 137)",2,mbtiauth_8339
1240,"(557, 493, 10)",2,mbtiauth_8339
1241,"(557, 493, 11)",2,mbtiauth_8339
1242,"(616, 247, 32)",2,mbtiauth_8339
1243,"(617, 417, 77)",2,mbtiauth_8339
1244,"(636, 151, 2)",2,mbtiauth_8339
1245,"(649, 76, 32)",2,mbtiauth_8339
1246,"(649, 76, 113)",2,mbtiauth_8339
1247,"(692, 31, 41)",2,mbtiauth_8339
1248,"(692, 160, 65)",2,mbtiauth_8339
1249,"(692, 187, 31)",2,mbtiauth_8339
1250,"(692, 187, 41)",2,mbtiauth_8339
1251,"(814, 278, 1046)",2,mbtiauth_8339
1252,"(1057, 3, 64)",2,mbtiauth_8339
1253,"(1057, 31, 385)",2,mbtiauth_8339
1254,"(1057, 31, 722)",2,mbtiauth_8339
1255,"(1057, 113, 3)",2,mbtiauth_8339
1256,"(1057, 722, 385)",2,mbtiauth_8339
1257,"(1139, 22, 11)",2,mbtiauth_8339
1258,"(1139, 22, 77)",2,mbtiauth_8339
1259,"(1283, 64, 312)",2,mbtiauth_8339
1260,"(1283, 64, 1057)",2,mbtiauth_8339
1261,"(1283, 312, 1057)",2,mbtiauth_8339
1262,"(4105, 64, 312)",2,mbtiauth_8339
1263,"(3, 2, 3, 64)",2,mbtiauth_8339
1264,"(3, 31, 722, 385)",2,mbtiauth_8339
1265,"(3, 32, 2, 3)",2,mbtiauth_8339
1266,"(3, 64, 7, 7088)",2,mbtiauth_8339
1267,"(3, 64, 31, 385)",2,mbtiauth_8339
1268,"(3, 64, 31, 722)",2,mbtiauth_8339
1269,"(3, 64, 312, 31)",2,mbtiauth_8339
1270,"(3, 64, 312, 385)",2,mbtiauth_8339
1271,"(3, 64, 312, 722)",2,mbtiauth_8339
1272,"(3, 64, 312, 1057)",3,mbtiauth_8339
1273,"(3, 64, 722, 385)",2,mbtiauth_8339
1274,"(3, 64, 1057, 31)",2,mbtiauth_8339
1275,"(3, 64, 1057, 385)",2,mbtiauth_8339
1276,"(3, 64, 1057, 722)",2,mbtiauth_8339
1277,"(3, 65, 2, 3)",2,mbtiauth_8339
1278,"(3, 139, 244, 312)",2,mbtiauth_8339
1279,"(3, 151, 3, 137)",2,mbtiauth_8339
1280,"(3, 151, 41, 3)",2,mbtiauth_8339
1281,"(3, 151, 469, 3)",2,mbtiauth_8339
1282,"(3, 312, 31, 385)",2,mbtiauth_8339
1283,"(3, 312, 31, 722)",2,mbtiauth_8339
1284,"(3, 312, 722, 385)",2,mbtiauth_8339
1285,"(3, 312, 1057, 31)",2,mbtiauth_8339
1286,"(3, 312, 1057, 385)",2,mbtiauth_8339
1287,"(3, 312, 1057, 722)",2,mbtiauth_8339
1288,"(3, 463, 7, 7088)",2,mbtiauth_8339
1289,"(3, 463, 64, 7)",2,mbtiauth_8339
1290,"(3, 463, 64, 7088)",2,mbtiauth_8339
1291,"(3, 493, 11, 10)",3,mbtiauth_8339
1292,"(3, 1057, 31, 385)",2,mbtiauth_8339
1293,"(3, 1057, 31, 722)",2,mbtiauth_8339
1294,"(3, 1057, 722, 385)",2,mbtiauth_8339
1295,"(3, 1283, 64, 312)",2,mbtiauth_8339
1296,"(3, 1283, 64, 1057)",2,mbtiauth_8339
1297,"(3, 1283, 312, 1057)",2,mbtiauth_8339
1298,"(3, 4105, 64, 312)",2,mbtiauth_8339
1299,"(7, 65, 31, 2)",2,mbtiauth_8339
1300,"(7, 65, 31, 3)",2,mbtiauth_8339
1301,"(11, 493, 11, 10)",2,mbtiauth_8339
1302,"(22, 616, 247, 32)",2,mbtiauth_8339
1303,"(41, 3, 11, 10)",2,mbtiauth_8339
1304,"(41, 3, 463, 64)",2,mbtiauth_8339
1305,"(50, 3, 151, 2)",2,mbtiauth_8339
1306,"(50, 3, 151, 3)",2,mbtiauth_8339
1307,"(50, 151, 2, 3)",2,mbtiauth_8339
1308,"(50, 151, 113, 2)",2,mbtiauth_8339
1309,"(64, 3, 148, 2)",2,mbtiauth_8339
1310,"(64, 31, 722, 385)",2,mbtiauth_8339
1311,"(64, 312, 31, 385)",2,mbtiauth_8339
1312,"(64, 312, 31, 722)",2,mbtiauth_8339
1313,"(64, 312, 722, 385)",2,mbtiauth_8339
1314,"(64, 312, 1057, 31)",2,mbtiauth_8339
1315,"(64, 312, 1057, 385)",2,mbtiauth_8339
1316,"(64, 312, 1057, 722)",2,mbtiauth_8339
1317,"(64, 617, 417, 77)",2,mbtiauth_8339
1318,"(64, 1057, 31, 385)",2,mbtiauth_8339
1319,"(64, 1057, 31, 722)",2,mbtiauth_8339
1320,"(64, 1057, 722, 385)",2,mbtiauth_8339
1321,"(113, 3, 2, 113)",2,mbtiauth_8339
1322,"(113, 3, 3, 2)",2,mbtiauth_8339
1323,"(113, 3, 64, 113)",2,mbtiauth_8339
1324,"(113, 3, 64, 312)",2,mbtiauth_8339
1325,"(113, 3, 148, 2)",2,mbtiauth_8339
1326,"(113, 64, 3, 2)",2,mbtiauth_8339
1327,"(113, 64, 3, 148)",2,mbtiauth_8339
1328,"(113, 64, 148, 2)",2,mbtiauth_8339
1329,"(113, 65, 76, 113)",2,mbtiauth_8339
1330,"(113, 76, 131, 76)",2,mbtiauth_8339
1331,"(113, 118, 194, 3)",2,mbtiauth_8339
1332,"(113, 131, 3, 2)",2,mbtiauth_8339
1333,"(113, 151, 113, 2)",2,mbtiauth_8339
1334,"(113, 151, 113, 3)",2,mbtiauth_8339
1335,"(113, 156, 3, 2)",2,mbtiauth_8339
1336,"(113, 156, 3, 148)",2,mbtiauth_8339
1337,"(113, 156, 64, 2)",2,mbtiauth_8339
1338,"(113, 156, 64, 3)",3,mbtiauth_8339
1339,"(113, 156, 64, 148)",2,mbtiauth_8339
1340,"(113, 156, 148, 2)",2,mbtiauth_8339
1341,"(113, 194, 3, 2)",2,mbtiauth_8339
1342,"(113, 194, 3, 3)",3,mbtiauth_8339
1343,"(113, 194, 3, 64)",2,mbtiauth_8339
1344,"(113, 194, 3, 113)",2,mbtiauth_8339
1345,"(113, 194, 3, 160)",2,mbtiauth_8339
1346,"(113, 194, 3, 182)",2,mbtiauth_8339
1347,"(113, 194, 41, 3)",2,mbtiauth_8339
1348,"(113, 194, 41, 65)",2,mbtiauth_8339
1349,"(113, 194, 151, 3)",2,mbtiauth_8339
1350,"(113, 194, 190, 3)",2,mbtiauth_8339
1351,"(113, 692, 160, 65)",2,mbtiauth_8339
1352,"(113, 814, 278, 1046)",2,mbtiauth_8339
1353,"(151, 113, 3, 469)",2,mbtiauth_8339
1354,"(156, 3, 148, 2)",2,mbtiauth_8339
1355,"(156, 64, 3, 2)",3,mbtiauth_8339
1356,"(156, 64, 3, 148)",2,mbtiauth_8339
1357,"(156, 64, 148, 2)",2,mbtiauth_8339
1358,"(194, 3, 3, 2)",2,mbtiauth_8339
1359,"(194, 151, 3, 2)",2,mbtiauth_8339
1360,"(250, 3, 139, 244)",2,mbtiauth_8339
1361,"(250, 3, 139, 312)",2,mbtiauth_8339
1362,"(250, 3, 244, 312)",2,mbtiauth_8339
1363,"(250, 139, 244, 312)",2,mbtiauth_8339
1364,"(312, 3, 64, 312)",2,mbtiauth_8339
1365,"(312, 31, 722, 385)",2,mbtiauth_8339
1366,"(312, 1057, 31, 385)",2,mbtiauth_8339
1367,"(312, 1057, 31, 722)",2,mbtiauth_8339
1368,"(312, 1057, 722, 385)",2,mbtiauth_8339
1369,"(463, 64, 7, 7088)",2,mbtiauth_8339
1370,"(557, 493, 11, 10)",2,mbtiauth_8339
1371,"(692, 187, 31, 41)",2,mbtiauth_8339
1372,"(1057, 31, 722, 385)",2,mbtiauth_8339
1373,"(1283, 64, 312, 1057)",2,mbtiauth_8339
1374,"(3, 64, 31, 722, 385)",2,mbtiauth_8339
1375,"(3, 64, 312, 31, 385)",2,mbtiauth_8339
1376,"(3, 64, 312, 31, 722)",2,mbtiauth_8339
1377,"(3, 64, 312, 722, 385)",2,mbtiauth_8339
1378,"(3, 64, 312, 1057, 31)",2,mbtiauth_8339
1379,"(3, 64, 312, 1057, 385)",2,mbtiauth_8339
1380,"(3, 64, 312, 1057, 722)",2,mbtiauth_8339
1381,"(3, 64, 1057, 31, 385)",2,mbtiauth_8339
1382,"(3, 64, 1057, 31, 722)",2,mbtiauth_8339
1383,"(3, 64, 1057, 722, 385)",2,mbtiauth_8339
1384,"(3, 312, 31, 722, 385)",2,mbtiauth_8339
1385,"(3, 312, 1057, 31, 385)",2,mbtiauth_8339
1386,"(3, 312, 1057, 31, 722)",2,mbtiauth_8339
1387,"(3, 312, 1057, 722, 385)",2,mbtiauth_8339
1388,"(3, 463, 64, 7, 7088)",2,mbtiauth_8339
1389,"(3, 1057, 31, 722, 385)",2,mbtiauth_8339
1390,"(3, 1283, 64, 312, 1057)",2,mbtiauth_8339
1391,"(64, 312, 31, 722, 385)",2,mbtiauth_8339
1392,"(64, 312, 1057, 31, 385)",2,mbtiauth_8339
1393,"(64, 312, 1057, 31, 722)",2,mbtiauth_8339
1394,"(64, 312, 1057, 722, 385)",2,mbtiauth_8339
1395,"(64, 1057, 31, 722, 385)",2,mbtiauth_8339
1396,"(113, 64, 3, 148, 2)",2,mbtiauth_8339
1397,"(113, 156, 3, 148, 2)",2,mbtiauth_8339
1398,"(113, 156, 64, 3, 2)",2,mbtiauth_8339
1399,"(113, 156, 64, 3, 148)",2,mbtiauth_8339
1400,"(113, 156, 64, 148, 2)",2,mbtiauth_8339
1401,"(156, 64, 3, 148, 2)",2,mbtiauth_8339
1402,"(250, 3, 139, 244, 312)",2,mbtiauth_8339
1403,"(312, 1057, 31, 722, 385)",2,mbtiauth_8339
1404,"(3, 64, 312, 31, 722, 385)",2,mbtiauth_8339
1405,"(3, 64, 312, 1057, 31, 385)",2,mbtiauth_8339
1406,"(3, 64, 312, 1057, 31, 722)",2,mbtiauth_8339
1407,"(3, 64, 312, 1057, 722, 385)",2,mbtiauth_8339
1408,"(3, 64, 1057, 31, 722, 385)",2,mbtiauth_8339
1409,"(3, 312, 1057, 31, 722, 385)",2,mbtiauth_8339
1410,"(64, 312, 1057, 31, 722, 385)",2,mbtiauth_8339
1411,"(113, 156, 64, 3, 148, 2)",2,mbtiauth_8339
1412,"(3, 64, 312, 1057, 31, 722, 385)",2,mbtiauth_8339
