,pattern,sup,author
210,"(2, 3, 65)",2,mbtiauth_1400
211,"(3, 3, 2)",2,mbtiauth_1400
212,"(3, 3, 32)",2,mbtiauth_1400
213,"(3, 64, 747)",2,mbtiauth_1400
214,"(3, 264, 64)",2,mbtiauth_1400
215,"(22, 3, 284)",2,mbtiauth_1400
216,"(27, 113, 3)",2,mbtiauth_1400
217,"(31, 2, 3)",2,mbtiauth_1400
218,"(31, 2, 65)",2,mbtiauth_1400
219,"(31, 3, 65)",2,mbtiauth_1400
220,"(31, 264, 3)",2,mbtiauth_1400
221,"(41, 3, 194)",2,mbtiauth_1400
222,"(64, 22, 64)",2,mbtiauth_1400
223,"(64, 149, 64)",2,mbtiauth_1400
224,"(64, 149, 113)",2,mbtiauth_1400
225,"(81, 64, 65)",2,mbtiauth_1400
226,"(113, 3, 2)",2,mbtiauth_1400
227,"(113, 3, 3)",4,mbtiauth_1400
228,"(113, 3, 32)",2,mbtiauth_1400
229,"(113, 3, 64)",2,mbtiauth_1400
230,"(113, 3, 118)",2,mbtiauth_1400
231,"(113, 3, 557)",2,mbtiauth_1400
232,"(113, 27, 113)",2,mbtiauth_1400
233,"(113, 64, 113)",2,mbtiauth_1400
234,"(113, 81, 64)",3,mbtiauth_1400
235,"(113, 118, 64)",2,mbtiauth_1400
236,"(113, 118, 66)",2,mbtiauth_1400
237,"(113, 149, 113)",2,mbtiauth_1400
238,"(113, 154, 64)",2,mbtiauth_1400
239,"(113, 161, 860)",2,mbtiauth_1400
240,"(113, 194, 3)",2,mbtiauth_1400
241,"(113, 208, 3)",2,mbtiauth_1400
242,"(113, 747, 65)",2,mbtiauth_1400
243,"(118, 64, 141)",2,mbtiauth_1400
244,"(118, 66, 64)",2,mbtiauth_1400
245,"(141, 113, 3)",2,mbtiauth_1400
246,"(149, 3, 64)",2,mbtiauth_1400
247,"(149, 113, 3)",2,mbtiauth_1400
248,"(149, 113, 64)",2,mbtiauth_1400
249,"(149, 113, 118)",2,mbtiauth_1400
250,"(151, 3, 692)",2,mbtiauth_1400
251,"(161, 860, 64)",2,mbtiauth_1400
252,"(224, 113, 182)",2,mbtiauth_1400
253,"(557, 113, 504)",2,mbtiauth_1400
254,"(692, 118, 64)",2,mbtiauth_1400
255,"(747, 65, 747)",2,mbtiauth_1400
256,"(860, 64, 149)",2,mbtiauth_1400
257,"(1330, 266, 208)",2,mbtiauth_1400
258,"(31, 2, 3, 65)",2,mbtiauth_1400
259,"(113, 3, 3, 2)",2,mbtiauth_1400
