,pattern,sup,author
925,"(2, 3, 22)",3,mbtiauth_6740
926,"(2, 7, 76)",2,mbtiauth_6740
927,"(2, 22, 32)",2,mbtiauth_6740
928,"(2, 22, 76)",3,mbtiauth_6740
929,"(2, 32, 76)",2,mbtiauth_6740
930,"(2, 32, 765)",2,mbtiauth_6740
931,"(2, 32, 2090)",2,mbtiauth_6740
932,"(2, 41, 10)",2,mbtiauth_6740
933,"(2, 41, 22)",2,mbtiauth_6740
934,"(2, 41, 76)",2,mbtiauth_6740
935,"(2, 64, 22)",2,mbtiauth_6740
936,"(2, 64, 41)",2,mbtiauth_6740
937,"(2, 64, 76)",2,mbtiauth_6740
938,"(2, 65, 566)",2,mbtiauth_6740
939,"(2, 72, 22)",2,mbtiauth_6740
940,"(2, 76, 2)",2,mbtiauth_6740
941,"(2, 76, 22)",3,mbtiauth_6740
942,"(2, 76, 32)",2,mbtiauth_6740
943,"(2, 76, 76)",3,mbtiauth_6740
944,"(2, 76, 557)",2,mbtiauth_6740
945,"(2, 76, 765)",2,mbtiauth_6740
946,"(2, 113, 3)",2,mbtiauth_6740
947,"(2, 113, 22)",3,mbtiauth_6740
948,"(2, 113, 76)",2,mbtiauth_6740
949,"(2, 113, 151)",2,mbtiauth_6740
950,"(2, 115, 22)",2,mbtiauth_6740
951,"(2, 151, 22)",2,mbtiauth_6740
952,"(2, 2090, 76)",2,mbtiauth_6740
953,"(3, 2, 22)",2,mbtiauth_6740
954,"(3, 3, 31)",3,mbtiauth_6740
955,"(3, 10, 6)",2,mbtiauth_6740
956,"(3, 10, 22)",2,mbtiauth_6740
957,"(3, 22, 3)",2,mbtiauth_6740
958,"(3, 22, 10)",2,mbtiauth_6740
959,"(3, 22, 32)",2,mbtiauth_6740
960,"(3, 22, 41)",2,mbtiauth_6740
961,"(3, 22, 50)",2,mbtiauth_6740
962,"(3, 22, 54)",2,mbtiauth_6740
963,"(3, 31, 10)",2,mbtiauth_6740
964,"(3, 31, 31)",2,mbtiauth_6740
965,"(3, 31, 32)",3,mbtiauth_6740
966,"(3, 31, 417)",2,mbtiauth_6740
967,"(3, 31, 530)",2,mbtiauth_6740
968,"(3, 32, 10)",2,mbtiauth_6740
969,"(3, 32, 417)",2,mbtiauth_6740
970,"(3, 50, 2)",2,mbtiauth_6740
971,"(3, 64, 2)",3,mbtiauth_6740
972,"(3, 64, 22)",2,mbtiauth_6740
973,"(3, 64, 41)",2,mbtiauth_6740
974,"(3, 64, 50)",2,mbtiauth_6740
975,"(3, 64, 76)",2,mbtiauth_6740
976,"(3, 64, 153)",2,mbtiauth_6740
977,"(3, 65, 2)",2,mbtiauth_6740
978,"(3, 65, 31)",2,mbtiauth_6740
979,"(3, 65, 32)",2,mbtiauth_6740
980,"(3, 65, 65)",2,mbtiauth_6740
981,"(3, 65, 113)",2,mbtiauth_6740
982,"(3, 76, 2)",4,mbtiauth_6740
983,"(3, 76, 50)",2,mbtiauth_6740
984,"(3, 76, 64)",2,mbtiauth_6740
985,"(3, 76, 76)",2,mbtiauth_6740
986,"(3, 76, 149)",2,mbtiauth_6740
987,"(3, 77, 31)",2,mbtiauth_6740
988,"(3, 81, 64)",2,mbtiauth_6740
989,"(3, 113, 31)",2,mbtiauth_6740
990,"(3, 113, 65)",2,mbtiauth_6740
991,"(3, 153, 2)",2,mbtiauth_6740
992,"(3, 153, 76)",2,mbtiauth_6740
993,"(3, 179, 76)",2,mbtiauth_6740
994,"(3, 201, 213)",2,mbtiauth_6740
995,"(3, 484, 64)",2,mbtiauth_6740
996,"(3, 530, 32)",2,mbtiauth_6740
997,"(3, 530, 417)",2,mbtiauth_6740
998,"(3, 602, 3)",2,mbtiauth_6740
999,"(3, 2877, 22)",2,mbtiauth_6740
1000,"(7, 10, 76)",2,mbtiauth_6740
1001,"(7, 41, 76)",2,mbtiauth_6740
1002,"(7, 65, 22)",2,mbtiauth_6740
1003,"(7, 76, 22)",2,mbtiauth_6740
1004,"(7, 115, 22)",2,mbtiauth_6740
1005,"(7, 160, 22)",2,mbtiauth_6740
1006,"(9, 9, 26)",3,mbtiauth_6740
1007,"(9, 9, 28)",3,mbtiauth_6740
1008,"(9, 26, 9)",3,mbtiauth_6740
1009,"(9, 26, 26)",3,mbtiauth_6740
1010,"(9, 26, 28)",3,mbtiauth_6740
1011,"(9, 28, 9)",3,mbtiauth_6740
1012,"(9, 28, 26)",5,mbtiauth_6740
1013,"(9, 28, 28)",3,mbtiauth_6740
1014,"(10, 2, 32)",2,mbtiauth_6740
1015,"(10, 2, 76)",2,mbtiauth_6740
1016,"(10, 2, 2090)",2,mbtiauth_6740
1017,"(10, 6, 76)",2,mbtiauth_6740
1018,"(10, 32, 76)",2,mbtiauth_6740
1019,"(10, 32, 2090)",2,mbtiauth_6740
1020,"(10, 50, 76)",2,mbtiauth_6740
1021,"(10, 76, 32)",2,mbtiauth_6740
1022,"(10, 76, 65)",2,mbtiauth_6740
1023,"(10, 76, 113)",2,mbtiauth_6740
1024,"(10, 76, 495)",2,mbtiauth_6740
1025,"(10, 2090, 76)",2,mbtiauth_6740
1026,"(22, 2, 22)",2,mbtiauth_6740
1027,"(22, 2, 495)",2,mbtiauth_6740
1028,"(22, 3, 76)",2,mbtiauth_6740
1029,"(22, 3, 149)",2,mbtiauth_6740
1030,"(22, 10, 76)",2,mbtiauth_6740
1031,"(22, 31, 32)",2,mbtiauth_6740
1032,"(22, 32, 2)",2,mbtiauth_6740
1033,"(22, 32, 13)",2,mbtiauth_6740
1034,"(22, 32, 22)",3,mbtiauth_6740
1035,"(22, 32, 487)",2,mbtiauth_6740
1036,"(22, 50, 3)",2,mbtiauth_6740
1037,"(22, 54, 3)",2,mbtiauth_6740
1038,"(22, 74, 487)",2,mbtiauth_6740
1039,"(22, 74, 602)",2,mbtiauth_6740
1040,"(22, 76, 2)",2,mbtiauth_6740
1041,"(22, 76, 3)",3,mbtiauth_6740
1042,"(22, 76, 65)",2,mbtiauth_6740
1043,"(22, 76, 75)",2,mbtiauth_6740
1044,"(22, 76, 113)",2,mbtiauth_6740
1045,"(22, 76, 149)",3,mbtiauth_6740
1046,"(22, 113, 3)",2,mbtiauth_6740
1047,"(22, 154, 76)",2,mbtiauth_6740
1048,"(22, 250, 76)",2,mbtiauth_6740
1049,"(22, 487, 2)",2,mbtiauth_6740
1050,"(22, 487, 495)",2,mbtiauth_6740
1051,"(22, 5267, 487)",2,mbtiauth_6740
1052,"(26, 9, 26)",3,mbtiauth_6740
1053,"(26, 9, 28)",3,mbtiauth_6740
1054,"(26, 28, 26)",3,mbtiauth_6740
1055,"(28, 9, 26)",3,mbtiauth_6740
1056,"(28, 9, 28)",3,mbtiauth_6740
1057,"(28, 26, 9)",3,mbtiauth_6740
1058,"(28, 26, 26)",3,mbtiauth_6740
1059,"(28, 26, 28)",3,mbtiauth_6740
1060,"(28, 26, 83456)",2,mbtiauth_6740
1061,"(28, 28, 26)",3,mbtiauth_6740
1062,"(29, 76, 76)",2,mbtiauth_6740
1063,"(29, 149, 76)",2,mbtiauth_6740
1064,"(31, 3, 32)",2,mbtiauth_6740
1065,"(31, 10, 76)",2,mbtiauth_6740
1066,"(31, 32, 76)",2,mbtiauth_6740
1067,"(31, 32, 417)",3,mbtiauth_6740
1068,"(31, 76, 76)",3,mbtiauth_6740
1069,"(31, 200, 340)",2,mbtiauth_6740
1070,"(31, 417, 76)",2,mbtiauth_6740
1071,"(31, 417, 340)",2,mbtiauth_6740
1072,"(31, 530, 32)",2,mbtiauth_6740
1073,"(31, 530, 417)",2,mbtiauth_6740
1074,"(32, 10, 76)",2,mbtiauth_6740
1075,"(32, 76, 41)",2,mbtiauth_6740
1076,"(32, 76, 232)",2,mbtiauth_6740
1077,"(32, 76, 557)",2,mbtiauth_6740
1078,"(32, 76, 872)",2,mbtiauth_6740
1079,"(32, 417, 41)",2,mbtiauth_6740
1080,"(32, 417, 76)",3,mbtiauth_6740
1081,"(32, 2090, 76)",2,mbtiauth_6740
1082,"(33, 224, 2)",2,mbtiauth_6740
1083,"(41, 7, 64)",2,mbtiauth_6740
1084,"(41, 10, 50)",2,mbtiauth_6740
1085,"(41, 10, 113)",2,mbtiauth_6740
1086,"(41, 22, 76)",2,mbtiauth_6740
1087,"(41, 41, 22)",2,mbtiauth_6740
1088,"(41, 64, 41)",2,mbtiauth_6740
1089,"(41, 64, 113)",2,mbtiauth_6740
1090,"(41, 65, 22)",2,mbtiauth_6740
1091,"(41, 65, 76)",2,mbtiauth_6740
1092,"(41, 76, 2)",2,mbtiauth_6740
1093,"(41, 76, 76)",2,mbtiauth_6740
1094,"(41, 76, 113)",2,mbtiauth_6740
1095,"(41, 76, 149)",2,mbtiauth_6740
1096,"(41, 113, 41)",2,mbtiauth_6740
1097,"(41, 151, 22)",2,mbtiauth_6740
1098,"(41, 151, 41)",2,mbtiauth_6740
1099,"(41, 205, 76)",2,mbtiauth_6740
1100,"(41, 205, 149)",2,mbtiauth_6740
1101,"(41, 205, 717)",2,mbtiauth_6740
1102,"(41, 224, 22)",2,mbtiauth_6740
1103,"(41, 717, 76)",2,mbtiauth_6740
1104,"(41, 717, 149)",2,mbtiauth_6740
1105,"(41, 786, 41)",2,mbtiauth_6740
1106,"(41, 786, 151)",2,mbtiauth_6740
1107,"(41, 1099, 278)",2,mbtiauth_6740
1108,"(50, 2, 3)",3,mbtiauth_6740
1109,"(50, 2, 113)",2,mbtiauth_6740
1110,"(50, 3, 76)",2,mbtiauth_6740
1111,"(50, 22, 32)",2,mbtiauth_6740
1112,"(50, 32, 22)",2,mbtiauth_6740
1113,"(50, 76, 2)",2,mbtiauth_6740
1114,"(50, 76, 3)",2,mbtiauth_6740
1115,"(50, 113, 3)",2,mbtiauth_6740
1116,"(64, 2, 22)",2,mbtiauth_6740
1117,"(64, 2, 113)",2,mbtiauth_6740
1118,"(64, 22, 2)",3,mbtiauth_6740
1119,"(64, 22, 22)",2,mbtiauth_6740
1120,"(64, 22, 32)",2,mbtiauth_6740
1121,"(64, 32, 22)",3,mbtiauth_6740
1122,"(64, 41, 22)",2,mbtiauth_6740
1123,"(64, 41, 76)",2,mbtiauth_6740
1124,"(64, 41, 224)",2,mbtiauth_6740
1125,"(64, 65, 160)",2,mbtiauth_6740
1126,"(64, 76, 2)",2,mbtiauth_6740
1127,"(64, 76, 113)",2,mbtiauth_6740
1128,"(64, 113, 41)",2,mbtiauth_6740
1129,"(64, 113, 64)",2,mbtiauth_6740
1130,"(64, 113, 76)",2,mbtiauth_6740
1131,"(64, 144, 41)",2,mbtiauth_6740
1132,"(64, 153, 2)",2,mbtiauth_6740
1133,"(64, 153, 76)",2,mbtiauth_6740
1134,"(64, 187, 2)",2,mbtiauth_6740
1135,"(64, 187, 76)",2,mbtiauth_6740
1136,"(65, 2, 64)",2,mbtiauth_6740
1137,"(65, 22, 2)",3,mbtiauth_6740
1138,"(65, 64, 2)",2,mbtiauth_6740
1139,"(65, 76, 31)",2,mbtiauth_6740
1140,"(65, 76, 50)",2,mbtiauth_6740
1141,"(65, 76, 64)",2,mbtiauth_6740
1142,"(65, 76, 76)",3,mbtiauth_6740
1143,"(65, 76, 342)",2,mbtiauth_6740
1144,"(65, 113, 65)",2,mbtiauth_6740
1145,"(65, 160, 64)",2,mbtiauth_6740
1146,"(65, 160, 76)",2,mbtiauth_6740
1147,"(65, 571, 64)",2,mbtiauth_6740
1148,"(69, 31, 31)",2,mbtiauth_6740
1149,"(69, 65, 32)",2,mbtiauth_6740
1150,"(74, 487, 495)",2,mbtiauth_6740
1151,"(76, 2, 3)",2,mbtiauth_6740
1152,"(76, 2, 22)",3,mbtiauth_6740
1153,"(76, 2, 32)",2,mbtiauth_6740
1154,"(76, 2, 65)",2,mbtiauth_6740
1155,"(76, 2, 76)",3,mbtiauth_6740
1156,"(76, 2, 182)",2,mbtiauth_6740
1157,"(76, 2, 566)",2,mbtiauth_6740
1158,"(76, 3, 3)",2,mbtiauth_6740
1159,"(76, 3, 22)",3,mbtiauth_6740
1160,"(76, 3, 31)",3,mbtiauth_6740
1161,"(76, 3, 32)",2,mbtiauth_6740
1162,"(76, 3, 64)",2,mbtiauth_6740
1163,"(76, 3, 312)",2,mbtiauth_6740
1164,"(76, 3, 506)",2,mbtiauth_6740
1165,"(76, 3, 530)",2,mbtiauth_6740
1166,"(76, 10, 76)",3,mbtiauth_6740
1167,"(76, 16, 10)",2,mbtiauth_6740
1168,"(76, 22, 3)",4,mbtiauth_6740
1169,"(76, 22, 31)",2,mbtiauth_6740
1170,"(76, 22, 561)",2,mbtiauth_6740
1171,"(76, 31, 22)",2,mbtiauth_6740
1172,"(76, 31, 32)",2,mbtiauth_6740
1173,"(76, 31, 76)",3,mbtiauth_6740
1174,"(76, 31, 530)",2,mbtiauth_6740
1175,"(76, 32, 2)",2,mbtiauth_6740
1176,"(76, 32, 765)",2,mbtiauth_6740
1177,"(76, 41, 64)",2,mbtiauth_6740
1178,"(76, 41, 65)",2,mbtiauth_6740
1179,"(76, 41, 76)",2,mbtiauth_6740
1180,"(76, 41, 783)",2,mbtiauth_6740
1181,"(76, 49, 22)",2,mbtiauth_6740
1182,"(76, 49, 76)",2,mbtiauth_6740
1183,"(76, 50, 64)",2,mbtiauth_6740
1184,"(76, 64, 22)",4,mbtiauth_6740
1185,"(76, 64, 41)",2,mbtiauth_6740
1186,"(76, 64, 50)",2,mbtiauth_6740
1187,"(76, 64, 141)",2,mbtiauth_6740
1188,"(76, 65, 41)",2,mbtiauth_6740
1189,"(76, 65, 76)",2,mbtiauth_6740
1190,"(76, 65, 566)",2,mbtiauth_6740
1191,"(76, 76, 2)",4,mbtiauth_6740
1192,"(76, 76, 3)",3,mbtiauth_6740
1193,"(76, 76, 22)",6,mbtiauth_6740
1194,"(76, 76, 32)",2,mbtiauth_6740
1195,"(76, 76, 64)",3,mbtiauth_6740
1196,"(76, 76, 65)",2,mbtiauth_6740
1197,"(76, 76, 76)",3,mbtiauth_6740
1198,"(76, 76, 113)",4,mbtiauth_6740
1199,"(76, 76, 160)",2,mbtiauth_6740
1200,"(76, 76, 214)",2,mbtiauth_6740
1201,"(76, 76, 557)",2,mbtiauth_6740
1202,"(76, 80, 64)",2,mbtiauth_6740
1203,"(76, 113, 3)",4,mbtiauth_6740
1204,"(76, 113, 41)",4,mbtiauth_6740
1205,"(76, 113, 50)",2,mbtiauth_6740
1206,"(76, 113, 64)",5,mbtiauth_6740
1207,"(76, 113, 75)",2,mbtiauth_6740
1208,"(76, 113, 118)",2,mbtiauth_6740
1209,"(76, 113, 155)",2,mbtiauth_6740
1210,"(76, 113, 160)",2,mbtiauth_6740
1211,"(76, 113, 194)",2,mbtiauth_6740
1212,"(76, 113, 506)",2,mbtiauth_6740
1213,"(76, 115, 3)",2,mbtiauth_6740
1214,"(76, 115, 22)",2,mbtiauth_6740
1215,"(76, 115, 49)",2,mbtiauth_6740
1216,"(76, 149, 22)",2,mbtiauth_6740
1217,"(76, 149, 64)",3,mbtiauth_6740
1218,"(76, 149, 182)",2,mbtiauth_6740
1219,"(76, 151, 3)",2,mbtiauth_6740
1220,"(76, 151, 113)",2,mbtiauth_6740
1221,"(76, 151, 506)",2,mbtiauth_6740
1222,"(76, 182, 32)",2,mbtiauth_6740
1223,"(76, 182, 64)",2,mbtiauth_6740
1224,"(76, 194, 41)",2,mbtiauth_6740
1225,"(76, 224, 41)",2,mbtiauth_6740
1226,"(76, 224, 65)",2,mbtiauth_6740
1227,"(76, 340, 64)",2,mbtiauth_6740
1228,"(76, 342, 76)",3,mbtiauth_6740
1229,"(76, 484, 64)",2,mbtiauth_6740
1230,"(76, 487, 2)",2,mbtiauth_6740
1231,"(76, 530, 32)",2,mbtiauth_6740
1232,"(76, 557, 3)",3,mbtiauth_6740
1233,"(76, 557, 10)",3,mbtiauth_6740
1234,"(76, 557, 22)",2,mbtiauth_6740
1235,"(76, 557, 31)",2,mbtiauth_6740
1236,"(76, 557, 41)",3,mbtiauth_6740
1237,"(76, 557, 65)",2,mbtiauth_6740
1238,"(76, 557, 76)",4,mbtiauth_6740
1239,"(76, 557, 113)",2,mbtiauth_6740
1240,"(76, 557, 118)",2,mbtiauth_6740
1241,"(76, 557, 783)",2,mbtiauth_6740
1242,"(76, 602, 3)",2,mbtiauth_6740
1243,"(76, 771, 76)",2,mbtiauth_6740
1244,"(76, 1046, 76)",2,mbtiauth_6740
1245,"(76, 1903, 64)",2,mbtiauth_6740
1246,"(76, 2419, 76)",2,mbtiauth_6740
1247,"(76, 2419, 14655)",3,mbtiauth_6740
1248,"(76, 14655, 76)",2,mbtiauth_6740
1249,"(81, 64, 2)",2,mbtiauth_6740
1250,"(81, 64, 187)",2,mbtiauth_6740
1251,"(81, 187, 2)",2,mbtiauth_6740
1252,"(113, 2, 32)",2,mbtiauth_6740
1253,"(113, 2, 76)",3,mbtiauth_6740
1254,"(113, 2, 2090)",2,mbtiauth_6740
1255,"(113, 3, 2)",2,mbtiauth_6740
1256,"(113, 3, 22)",4,mbtiauth_6740
1257,"(113, 3, 31)",3,mbtiauth_6740
1258,"(113, 3, 41)",2,mbtiauth_6740
1259,"(113, 3, 50)",3,mbtiauth_6740
1260,"(113, 3, 64)",3,mbtiauth_6740
1261,"(113, 3, 65)",2,mbtiauth_6740
1262,"(113, 3, 81)",2,mbtiauth_6740
1263,"(113, 3, 153)",3,mbtiauth_6740
1264,"(113, 3, 506)",2,mbtiauth_6740
1265,"(113, 3, 1287)",2,mbtiauth_6740
1266,"(113, 7, 3)",2,mbtiauth_6740
1267,"(113, 7, 10)",2,mbtiauth_6740
1268,"(113, 7, 22)",3,mbtiauth_6740
1269,"(113, 7, 76)",3,mbtiauth_6740
1270,"(113, 7, 160)",2,mbtiauth_6740
1271,"(113, 7, 250)",2,mbtiauth_6740
1272,"(113, 10, 2)",2,mbtiauth_6740
1273,"(113, 10, 22)",2,mbtiauth_6740
1274,"(113, 10, 32)",2,mbtiauth_6740
1275,"(113, 10, 76)",3,mbtiauth_6740
1276,"(113, 10, 2090)",2,mbtiauth_6740
1277,"(113, 22, 31)",2,mbtiauth_6740
1278,"(113, 22, 50)",2,mbtiauth_6740
1279,"(113, 31, 65)",2,mbtiauth_6740
1280,"(113, 32, 76)",3,mbtiauth_6740
1281,"(113, 32, 2090)",2,mbtiauth_6740
1282,"(113, 41, 10)",2,mbtiauth_6740
1283,"(113, 41, 76)",2,mbtiauth_6740
1284,"(113, 50, 64)",2,mbtiauth_6740
1285,"(113, 50, 76)",2,mbtiauth_6740
1286,"(113, 64, 41)",2,mbtiauth_6740
1287,"(113, 64, 50)",2,mbtiauth_6740
1288,"(113, 64, 76)",2,mbtiauth_6740
1289,"(113, 64, 113)",2,mbtiauth_6740
1290,"(113, 64, 153)",2,mbtiauth_6740
1291,"(113, 64, 187)",2,mbtiauth_6740
1292,"(113, 64, 504)",2,mbtiauth_6740
1293,"(113, 65, 22)",2,mbtiauth_6740
1294,"(113, 65, 75)",2,mbtiauth_6740
1295,"(113, 65, 1287)",2,mbtiauth_6740
1296,"(113, 72, 22)",2,mbtiauth_6740
1297,"(113, 76, 3)",2,mbtiauth_6740
1298,"(113, 76, 10)",3,mbtiauth_6740
1299,"(113, 76, 22)",2,mbtiauth_6740
1300,"(113, 76, 113)",2,mbtiauth_6740
1301,"(113, 76, 557)",3,mbtiauth_6740
1302,"(113, 81, 64)",2,mbtiauth_6740
1303,"(113, 113, 3)",2,mbtiauth_6740
1304,"(113, 118, 22)",2,mbtiauth_6740
1305,"(113, 144, 41)",2,mbtiauth_6740
1306,"(113, 151, 22)",2,mbtiauth_6740
1307,"(113, 154, 160)",2,mbtiauth_6740
1308,"(113, 155, 64)",2,mbtiauth_6740
1309,"(113, 160, 50)",2,mbtiauth_6740
1310,"(113, 160, 76)",3,mbtiauth_6740
1311,"(113, 160, 278)",2,mbtiauth_6740
1312,"(113, 182, 76)",4,mbtiauth_6740
1313,"(113, 182, 160)",2,mbtiauth_6740
1314,"(113, 187, 76)",2,mbtiauth_6740
1315,"(113, 194, 3)",3,mbtiauth_6740
1316,"(113, 194, 41)",2,mbtiauth_6740
1317,"(113, 278, 10)",2,mbtiauth_6740
1318,"(113, 278, 22)",2,mbtiauth_6740
1319,"(113, 278, 76)",2,mbtiauth_6740
1320,"(113, 557, 10)",2,mbtiauth_6740
1321,"(113, 927, 278)",2,mbtiauth_6740
1322,"(113, 2090, 76)",2,mbtiauth_6740
1323,"(113, 2295, 151)",2,mbtiauth_6740
1324,"(113, 4670, 182)",2,mbtiauth_6740
1325,"(115, 22, 32)",2,mbtiauth_6740
1326,"(115, 49, 22)",2,mbtiauth_6740
1327,"(141, 31, 41)",2,mbtiauth_6740
1328,"(141, 41, 151)",3,mbtiauth_6740
1329,"(141, 41, 786)",2,mbtiauth_6740
1330,"(141, 151, 41)",2,mbtiauth_6740
1331,"(141, 786, 151)",2,mbtiauth_6740
1332,"(149, 64, 22)",2,mbtiauth_6740
1333,"(149, 182, 22)",2,mbtiauth_6740
1334,"(151, 3, 22)",2,mbtiauth_6740
1335,"(151, 3, 506)",2,mbtiauth_6740
1336,"(151, 113, 3)",2,mbtiauth_6740
1337,"(151, 113, 506)",2,mbtiauth_6740
1338,"(151, 607, 182)",2,mbtiauth_6740
1339,"(153, 76, 2)",2,mbtiauth_6740
1340,"(154, 160, 76)",2,mbtiauth_6740
1341,"(160, 76, 3)",2,mbtiauth_6740
1342,"(160, 76, 22)",2,mbtiauth_6740
1343,"(160, 278, 2)",2,mbtiauth_6740
1344,"(182, 33, 224)",2,mbtiauth_6740
1345,"(182, 76, 3)",2,mbtiauth_6740
1346,"(182, 76, 872)",2,mbtiauth_6740
1347,"(182, 160, 76)",2,mbtiauth_6740
1348,"(187, 32, 76)",2,mbtiauth_6740
1349,"(187, 76, 2)",2,mbtiauth_6740
1350,"(200, 208, 65)",2,mbtiauth_6740
1351,"(200, 340, 65)",2,mbtiauth_6740
1352,"(205, 76, 149)",2,mbtiauth_6740
1353,"(205, 76, 182)",2,mbtiauth_6740
1354,"(205, 149, 182)",2,mbtiauth_6740
1355,"(205, 717, 76)",2,mbtiauth_6740
1356,"(205, 717, 149)",2,mbtiauth_6740
1357,"(205, 717, 182)",2,mbtiauth_6740
1358,"(216, 76, 22)",2,mbtiauth_6740
1359,"(216, 10363, 256)",2,mbtiauth_6740
1360,"(224, 2, 76)",2,mbtiauth_6740
1361,"(224, 41, 76)",2,mbtiauth_6740
1362,"(224, 65, 76)",2,mbtiauth_6740
1363,"(224, 113, 182)",2,mbtiauth_6740
1364,"(268, 12129, 5445)",2,mbtiauth_6740
1365,"(268, 12129, 23326)",2,mbtiauth_6740
1366,"(268, 23326, 5445)",2,mbtiauth_6740
1367,"(278, 76, 2)",2,mbtiauth_6740
1368,"(342, 65, 160)",2,mbtiauth_6740
1369,"(342, 76, 76)",2,mbtiauth_6740
1370,"(388, 76, 22)",2,mbtiauth_6740
1371,"(417, 76, 41)",2,mbtiauth_6740
1372,"(417, 208, 65)",2,mbtiauth_6740
1373,"(417, 256, 41)",2,mbtiauth_6740
1374,"(417, 340, 65)",2,mbtiauth_6740
1375,"(487, 2, 22)",2,mbtiauth_6740
1376,"(488, 76, 3)",2,mbtiauth_6740
1377,"(488, 76, 602)",2,mbtiauth_6740
1378,"(488, 602, 3)",2,mbtiauth_6740
1379,"(530, 32, 417)",2,mbtiauth_6740
1380,"(557, 10, 76)",2,mbtiauth_6740
1381,"(557, 41, 783)",2,mbtiauth_6740
1382,"(557, 113, 3)",2,mbtiauth_6740
1383,"(557, 118, 65)",2,mbtiauth_6740
1384,"(557, 256, 41)",2,mbtiauth_6740
1385,"(557, 417, 41)",2,mbtiauth_6740
1386,"(557, 417, 256)",2,mbtiauth_6740
1387,"(607, 76, 3)",2,mbtiauth_6740
1388,"(607, 76, 182)",2,mbtiauth_6740
1389,"(607, 182, 3)",2,mbtiauth_6740
1390,"(625, 76, 2)",2,mbtiauth_6740
1391,"(717, 76, 149)",2,mbtiauth_6740
1392,"(717, 76, 182)",2,mbtiauth_6740
1393,"(717, 149, 182)",2,mbtiauth_6740
1394,"(771, 76, 3)",2,mbtiauth_6740
1395,"(771, 76, 22)",2,mbtiauth_6740
1396,"(771, 76, 76)",3,mbtiauth_6740
1397,"(771, 76, 771)",3,mbtiauth_6740
1398,"(771, 771, 76)",2,mbtiauth_6740
1399,"(786, 151, 41)",2,mbtiauth_6740
1400,"(847, 3, 3308)",2,mbtiauth_6740
1401,"(2419, 14655, 76)",3,mbtiauth_6740
1402,"(4670, 160, 76)",2,mbtiauth_6740
1403,"(5267, 76, 495)",2,mbtiauth_6740
1404,"(12129, 23326, 5445)",2,mbtiauth_6740
1405,"(83452, 76, 76)",2,mbtiauth_6740
1406,"(83467, 268, 5445)",2,mbtiauth_6740
1407,"(83467, 268, 12129)",2,mbtiauth_6740
1408,"(83467, 268, 23326)",2,mbtiauth_6740
1409,"(83467, 12129, 5445)",2,mbtiauth_6740
1410,"(83467, 12129, 23326)",2,mbtiauth_6740
1411,"(83467, 23326, 5445)",2,mbtiauth_6740
1412,"(2, 32, 2090, 76)",2,mbtiauth_6740
1413,"(2, 76, 32, 765)",2,mbtiauth_6740
1414,"(2, 113, 151, 22)",2,mbtiauth_6740
1415,"(3, 31, 32, 417)",2,mbtiauth_6740
1416,"(3, 31, 530, 32)",2,mbtiauth_6740
1417,"(3, 31, 530, 417)",2,mbtiauth_6740
1418,"(3, 64, 76, 2)",2,mbtiauth_6740
1419,"(3, 64, 153, 2)",2,mbtiauth_6740
1420,"(3, 64, 153, 76)",2,mbtiauth_6740
1421,"(3, 65, 113, 65)",2,mbtiauth_6740
1422,"(3, 153, 76, 2)",2,mbtiauth_6740
1423,"(3, 530, 32, 417)",2,mbtiauth_6740
1424,"(9, 9, 28, 26)",3,mbtiauth_6740
1425,"(9, 26, 9, 26)",3,mbtiauth_6740
1426,"(9, 26, 9, 28)",3,mbtiauth_6740
1427,"(9, 26, 28, 26)",3,mbtiauth_6740
1428,"(9, 28, 9, 26)",3,mbtiauth_6740
1429,"(9, 28, 9, 28)",3,mbtiauth_6740
1430,"(9, 28, 26, 9)",3,mbtiauth_6740
1431,"(9, 28, 26, 26)",3,mbtiauth_6740
1432,"(9, 28, 26, 28)",3,mbtiauth_6740
1433,"(9, 28, 28, 26)",3,mbtiauth_6740
1434,"(10, 2, 32, 76)",2,mbtiauth_6740
1435,"(10, 2, 32, 2090)",2,mbtiauth_6740
1436,"(10, 2, 2090, 76)",2,mbtiauth_6740
1437,"(10, 32, 2090, 76)",2,mbtiauth_6740
1438,"(22, 3, 76, 149)",2,mbtiauth_6740
1439,"(26, 9, 28, 26)",3,mbtiauth_6740
1440,"(28, 9, 28, 26)",3,mbtiauth_6740
1441,"(28, 26, 9, 26)",3,mbtiauth_6740
1442,"(28, 26, 9, 28)",3,mbtiauth_6740
1443,"(28, 26, 28, 26)",3,mbtiauth_6740
1444,"(31, 32, 417, 76)",2,mbtiauth_6740
1445,"(31, 530, 32, 417)",2,mbtiauth_6740
1446,"(32, 417, 76, 41)",2,mbtiauth_6740
1447,"(41, 64, 113, 41)",2,mbtiauth_6740
1448,"(41, 205, 76, 149)",2,mbtiauth_6740
1449,"(41, 205, 717, 76)",2,mbtiauth_6740
1450,"(41, 205, 717, 149)",2,mbtiauth_6740
1451,"(41, 717, 76, 149)",2,mbtiauth_6740
1452,"(41, 786, 151, 41)",2,mbtiauth_6740
1453,"(50, 2, 113, 3)",2,mbtiauth_6740
1454,"(64, 22, 32, 22)",2,mbtiauth_6740
1455,"(64, 153, 76, 2)",2,mbtiauth_6740
1456,"(76, 2, 65, 566)",2,mbtiauth_6740
1457,"(76, 3, 31, 32)",2,mbtiauth_6740
1458,"(76, 3, 31, 530)",2,mbtiauth_6740
1459,"(76, 3, 530, 32)",2,mbtiauth_6740
1460,"(76, 31, 76, 76)",2,mbtiauth_6740
1461,"(76, 31, 530, 32)",2,mbtiauth_6740
1462,"(76, 76, 3, 22)",2,mbtiauth_6740
1463,"(76, 76, 64, 22)",2,mbtiauth_6740
1464,"(76, 113, 3, 506)",2,mbtiauth_6740
1465,"(76, 115, 49, 22)",2,mbtiauth_6740
1466,"(76, 149, 64, 22)",2,mbtiauth_6740
1467,"(76, 151, 3, 506)",2,mbtiauth_6740
1468,"(76, 151, 113, 3)",2,mbtiauth_6740
1469,"(76, 151, 113, 506)",2,mbtiauth_6740
1470,"(76, 557, 10, 76)",2,mbtiauth_6740
1471,"(76, 557, 41, 783)",2,mbtiauth_6740
1472,"(76, 557, 113, 3)",2,mbtiauth_6740
1473,"(76, 2419, 14655, 76)",2,mbtiauth_6740
1474,"(81, 64, 187, 2)",2,mbtiauth_6740
1475,"(113, 2, 32, 76)",2,mbtiauth_6740
1476,"(113, 2, 32, 2090)",2,mbtiauth_6740
1477,"(113, 2, 2090, 76)",2,mbtiauth_6740
1478,"(113, 3, 22, 50)",2,mbtiauth_6740
1479,"(113, 3, 64, 153)",2,mbtiauth_6740
1480,"(113, 3, 81, 64)",2,mbtiauth_6740
1481,"(113, 7, 10, 76)",2,mbtiauth_6740
1482,"(113, 10, 2, 32)",2,mbtiauth_6740
1483,"(113, 10, 2, 76)",2,mbtiauth_6740
1484,"(113, 10, 2, 2090)",2,mbtiauth_6740
1485,"(113, 10, 32, 76)",2,mbtiauth_6740
1486,"(113, 10, 32, 2090)",2,mbtiauth_6740
1487,"(113, 10, 2090, 76)",2,mbtiauth_6740
1488,"(113, 32, 2090, 76)",2,mbtiauth_6740
1489,"(113, 76, 557, 10)",2,mbtiauth_6740
1490,"(113, 182, 160, 76)",2,mbtiauth_6740
1491,"(141, 41, 786, 151)",2,mbtiauth_6740
1492,"(151, 113, 3, 506)",2,mbtiauth_6740
1493,"(205, 76, 149, 182)",2,mbtiauth_6740
1494,"(205, 717, 76, 149)",2,mbtiauth_6740
1495,"(205, 717, 76, 182)",2,mbtiauth_6740
1496,"(205, 717, 149, 182)",2,mbtiauth_6740
1497,"(268, 12129, 23326, 5445)",2,mbtiauth_6740
1498,"(488, 76, 602, 3)",2,mbtiauth_6740
1499,"(557, 417, 256, 41)",2,mbtiauth_6740
1500,"(717, 76, 149, 182)",2,mbtiauth_6740
1501,"(771, 76, 76, 22)",2,mbtiauth_6740
1502,"(771, 76, 771, 76)",2,mbtiauth_6740
1503,"(83467, 268, 12129, 5445)",2,mbtiauth_6740
1504,"(83467, 268, 12129, 23326)",2,mbtiauth_6740
1505,"(83467, 268, 23326, 5445)",2,mbtiauth_6740
1506,"(83467, 12129, 23326, 5445)",2,mbtiauth_6740
1507,"(3, 31, 530, 32, 417)",2,mbtiauth_6740
1508,"(3, 64, 153, 76, 2)",2,mbtiauth_6740
1509,"(9, 26, 9, 28, 26)",3,mbtiauth_6740
1510,"(9, 28, 9, 28, 26)",3,mbtiauth_6740
1511,"(9, 28, 26, 9, 26)",3,mbtiauth_6740
1512,"(9, 28, 26, 9, 28)",3,mbtiauth_6740
1513,"(9, 28, 26, 28, 26)",3,mbtiauth_6740
1514,"(10, 2, 32, 2090, 76)",2,mbtiauth_6740
1515,"(28, 26, 9, 28, 26)",3,mbtiauth_6740
1516,"(41, 205, 717, 76, 149)",2,mbtiauth_6740
1517,"(76, 3, 31, 530, 32)",2,mbtiauth_6740
1518,"(76, 151, 113, 3, 506)",2,mbtiauth_6740
1519,"(113, 2, 32, 2090, 76)",2,mbtiauth_6740
1520,"(113, 10, 2, 32, 76)",2,mbtiauth_6740
1521,"(113, 10, 2, 32, 2090)",2,mbtiauth_6740
1522,"(113, 10, 2, 2090, 76)",2,mbtiauth_6740
1523,"(113, 10, 32, 2090, 76)",2,mbtiauth_6740
1524,"(205, 717, 76, 149, 182)",2,mbtiauth_6740
1525,"(83467, 268, 12129, 23326, 5445)",2,mbtiauth_6740
1526,"(9, 28, 26, 9, 28, 26)",3,mbtiauth_6740
1527,"(113, 10, 2, 32, 2090, 76)",2,mbtiauth_6740
