,pattern,sup,author
875,"(2, 3, 22)",2,mbtiauth_7377
876,"(2, 3, 64)",2,mbtiauth_7377
877,"(2, 3, 66)",2,mbtiauth_7377
878,"(2, 3, 115)",2,mbtiauth_7377
879,"(2, 3, 394)",2,mbtiauth_7377
880,"(2, 22, 394)",2,mbtiauth_7377
881,"(2, 64, 113)",2,mbtiauth_7377
882,"(2, 76, 113)",3,mbtiauth_7377
883,"(2, 76, 445)",2,mbtiauth_7377
884,"(2, 113, 3)",3,mbtiauth_7377
885,"(2, 113, 10)",2,mbtiauth_7377
886,"(2, 113, 65)",2,mbtiauth_7377
887,"(2, 113, 76)",2,mbtiauth_7377
888,"(2, 113, 113)",3,mbtiauth_7377
889,"(2, 113, 141)",2,mbtiauth_7377
890,"(2, 113, 161)",2,mbtiauth_7377
891,"(2, 113, 182)",2,mbtiauth_7377
892,"(2, 113, 256)",2,mbtiauth_7377
893,"(2, 113, 445)",3,mbtiauth_7377
894,"(2, 113, 2847)",2,mbtiauth_7377
895,"(2, 113, 10419)",2,mbtiauth_7377
896,"(2, 182, 3)",2,mbtiauth_7377
897,"(2, 182, 7)",2,mbtiauth_7377
898,"(2, 182, 22)",2,mbtiauth_7377
899,"(2, 182, 64)",2,mbtiauth_7377
900,"(2, 445, 3)",2,mbtiauth_7377
901,"(3, 2, 3)",2,mbtiauth_7377
902,"(3, 16, 113)",2,mbtiauth_7377
903,"(3, 22, 32)",2,mbtiauth_7377
904,"(3, 22, 64)",2,mbtiauth_7377
905,"(3, 22, 72)",2,mbtiauth_7377
906,"(3, 22, 76)",2,mbtiauth_7377
907,"(3, 22, 113)",2,mbtiauth_7377
908,"(3, 22, 115)",3,mbtiauth_7377
909,"(3, 22, 394)",2,mbtiauth_7377
910,"(3, 27, 64)",2,mbtiauth_7377
911,"(3, 27, 76)",2,mbtiauth_7377
912,"(3, 27, 113)",2,mbtiauth_7377
913,"(3, 32, 76)",3,mbtiauth_7377
914,"(3, 32, 113)",3,mbtiauth_7377
915,"(3, 32, 1028)",2,mbtiauth_7377
916,"(3, 64, 3)",2,mbtiauth_7377
917,"(3, 64, 27)",2,mbtiauth_7377
918,"(3, 64, 32)",2,mbtiauth_7377
919,"(3, 64, 76)",2,mbtiauth_7377
920,"(3, 64, 113)",2,mbtiauth_7377
921,"(3, 64, 250)",2,mbtiauth_7377
922,"(3, 64, 504)",2,mbtiauth_7377
923,"(3, 76, 2)",3,mbtiauth_7377
924,"(3, 76, 3)",2,mbtiauth_7377
925,"(3, 76, 50)",2,mbtiauth_7377
926,"(3, 76, 113)",3,mbtiauth_7377
927,"(3, 113, 64)",3,mbtiauth_7377
928,"(3, 113, 76)",2,mbtiauth_7377
929,"(3, 113, 272)",2,mbtiauth_7377
930,"(3, 250, 3)",2,mbtiauth_7377
931,"(3, 394, 115)",2,mbtiauth_7377
932,"(3, 504, 76)",2,mbtiauth_7377
933,"(3, 601, 22)",2,mbtiauth_7377
934,"(3, 601, 115)",2,mbtiauth_7377
935,"(3, 706, 64)",2,mbtiauth_7377
936,"(3, 765, 32)",2,mbtiauth_7377
937,"(3, 765, 113)",2,mbtiauth_7377
938,"(3, 765, 1028)",2,mbtiauth_7377
939,"(3, 1028, 113)",2,mbtiauth_7377
940,"(3, 2548, 32)",2,mbtiauth_7377
941,"(7, 10, 76)",2,mbtiauth_7377
942,"(7, 10, 113)",2,mbtiauth_7377
943,"(7, 10, 305)",2,mbtiauth_7377
944,"(7, 10, 557)",2,mbtiauth_7377
945,"(7, 10, 1141)",2,mbtiauth_7377
946,"(7, 22, 22)",2,mbtiauth_7377
947,"(7, 64, 22)",2,mbtiauth_7377
948,"(7, 76, 22)",3,mbtiauth_7377
949,"(7, 76, 113)",2,mbtiauth_7377
950,"(7, 76, 557)",2,mbtiauth_7377
951,"(7, 113, 7)",2,mbtiauth_7377
952,"(7, 113, 64)",2,mbtiauth_7377
953,"(7, 160, 32)",2,mbtiauth_7377
954,"(7, 160, 50)",2,mbtiauth_7377
955,"(7, 527, 10)",2,mbtiauth_7377
956,"(7, 527, 113)",2,mbtiauth_7377
957,"(8, 26, 113)",2,mbtiauth_7377
958,"(8, 28, 26)",2,mbtiauth_7377
959,"(8, 28, 113)",2,mbtiauth_7377
960,"(10, 22, 113)",2,mbtiauth_7377
961,"(10, 50, 2)",2,mbtiauth_7377
962,"(10, 50, 32)",2,mbtiauth_7377
963,"(10, 76, 3)",2,mbtiauth_7377
964,"(10, 76, 113)",3,mbtiauth_7377
965,"(10, 76, 557)",2,mbtiauth_7377
966,"(10, 257, 374)",2,mbtiauth_7377
967,"(10, 557, 113)",2,mbtiauth_7377
968,"(22, 3, 3)",4,mbtiauth_7377
969,"(22, 3, 27)",3,mbtiauth_7377
970,"(22, 3, 64)",5,mbtiauth_7377
971,"(22, 3, 706)",2,mbtiauth_7377
972,"(22, 7, 160)",2,mbtiauth_7377
973,"(22, 10, 22)",2,mbtiauth_7377
974,"(22, 22, 3)",2,mbtiauth_7377
975,"(22, 27, 3)",2,mbtiauth_7377
976,"(22, 27, 64)",2,mbtiauth_7377
977,"(22, 32, 3)",3,mbtiauth_7377
978,"(22, 32, 22)",2,mbtiauth_7377
979,"(22, 32, 27)",2,mbtiauth_7377
980,"(22, 32, 64)",2,mbtiauth_7377
981,"(22, 32, 76)",4,mbtiauth_7377
982,"(22, 32, 113)",2,mbtiauth_7377
983,"(22, 32, 504)",2,mbtiauth_7377
984,"(22, 54, 3)",2,mbtiauth_7377
985,"(22, 64, 3)",3,mbtiauth_7377
986,"(22, 64, 151)",3,mbtiauth_7377
987,"(22, 64, 250)",3,mbtiauth_7377
988,"(22, 64, 447)",2,mbtiauth_7377
989,"(22, 64, 482)",2,mbtiauth_7377
990,"(22, 64, 3474)",2,mbtiauth_7377
991,"(22, 72, 113)",2,mbtiauth_7377
992,"(22, 76, 113)",4,mbtiauth_7377
993,"(22, 113, 3)",4,mbtiauth_7377
994,"(22, 113, 64)",3,mbtiauth_7377
995,"(22, 113, 182)",2,mbtiauth_7377
996,"(22, 113, 482)",2,mbtiauth_7377
997,"(22, 131, 115)",2,mbtiauth_7377
998,"(22, 151, 482)",2,mbtiauth_7377
999,"(22, 394, 22)",2,mbtiauth_7377
1000,"(22, 394, 64)",2,mbtiauth_7377
1001,"(22, 394, 115)",2,mbtiauth_7377
1002,"(22, 394, 569)",2,mbtiauth_7377
1003,"(22, 499, 76)",2,mbtiauth_7377
1004,"(22, 499, 182)",2,mbtiauth_7377
1005,"(22, 699, 64)",2,mbtiauth_7377
1006,"(22, 699, 447)",2,mbtiauth_7377
1007,"(22, 706, 64)",2,mbtiauth_7377
1008,"(22, 952, 64)",2,mbtiauth_7377
1009,"(22, 952, 3474)",2,mbtiauth_7377
1010,"(22, 1705, 3)",3,mbtiauth_7377
1011,"(27, 3, 64)",2,mbtiauth_7377
1012,"(27, 64, 504)",2,mbtiauth_7377
1013,"(27, 113, 64)",3,mbtiauth_7377
1014,"(27, 113, 76)",2,mbtiauth_7377
1015,"(27, 113, 141)",2,mbtiauth_7377
1016,"(27, 113, 504)",3,mbtiauth_7377
1017,"(28, 26, 113)",2,mbtiauth_7377
1018,"(29, 76, 22)",2,mbtiauth_7377
1019,"(30, 30, 30)",2,mbtiauth_7377
1020,"(31, 3, 250)",2,mbtiauth_7377
1021,"(31, 64, 3)",3,mbtiauth_7377
1022,"(31, 64, 250)",2,mbtiauth_7377
1023,"(31, 76, 2)",2,mbtiauth_7377
1024,"(32, 3, 3)",2,mbtiauth_7377
1025,"(32, 3, 64)",2,mbtiauth_7377
1026,"(32, 27, 113)",2,mbtiauth_7377
1027,"(32, 41, 113)",2,mbtiauth_7377
1028,"(32, 50, 46)",2,mbtiauth_7377
1029,"(32, 64, 113)",2,mbtiauth_7377
1030,"(32, 76, 76)",2,mbtiauth_7377
1031,"(32, 76, 113)",3,mbtiauth_7377
1032,"(32, 76, 151)",2,mbtiauth_7377
1033,"(32, 113, 3)",2,mbtiauth_7377
1034,"(32, 113, 272)",2,mbtiauth_7377
1035,"(32, 268, 76)",2,mbtiauth_7377
1036,"(32, 268, 151)",2,mbtiauth_7377
1037,"(32, 1028, 113)",2,mbtiauth_7377
1038,"(41, 3, 65)",2,mbtiauth_7377
1039,"(41, 41, 3)",2,mbtiauth_7377
1040,"(41, 64, 32)",2,mbtiauth_7377
1041,"(41, 64, 64)",2,mbtiauth_7377
1042,"(41, 64, 113)",3,mbtiauth_7377
1043,"(41, 64, 388)",2,mbtiauth_7377
1044,"(41, 64, 1533)",2,mbtiauth_7377
1045,"(41, 64, 2093)",2,mbtiauth_7377
1046,"(41, 76, 3)",2,mbtiauth_7377
1047,"(41, 76, 113)",2,mbtiauth_7377
1048,"(41, 113, 64)",3,mbtiauth_7377
1049,"(41, 113, 388)",2,mbtiauth_7377
1050,"(41, 113, 699)",2,mbtiauth_7377
1051,"(41, 113, 1533)",2,mbtiauth_7377
1052,"(41, 113, 2093)",2,mbtiauth_7377
1053,"(41, 182, 64)",2,mbtiauth_7377
1054,"(41, 504, 3)",2,mbtiauth_7377
1055,"(41, 504, 41)",2,mbtiauth_7377
1056,"(41, 504, 64)",2,mbtiauth_7377
1057,"(41, 504, 76)",2,mbtiauth_7377
1058,"(41, 504, 113)",3,mbtiauth_7377
1059,"(41, 504, 151)",2,mbtiauth_7377
1060,"(41, 504, 388)",2,mbtiauth_7377
1061,"(41, 504, 699)",2,mbtiauth_7377
1062,"(41, 504, 1533)",2,mbtiauth_7377
1063,"(41, 504, 2093)",2,mbtiauth_7377
1064,"(41, 663, 3)",2,mbtiauth_7377
1065,"(41, 663, 76)",2,mbtiauth_7377
1066,"(41, 699, 64)",3,mbtiauth_7377
1067,"(41, 699, 388)",2,mbtiauth_7377
1068,"(41, 699, 1533)",2,mbtiauth_7377
1069,"(41, 699, 2093)",2,mbtiauth_7377
1070,"(41, 1533, 64)",2,mbtiauth_7377
1071,"(41, 1533, 388)",2,mbtiauth_7377
1072,"(41, 1533, 2093)",2,mbtiauth_7377
1073,"(41, 2093, 64)",2,mbtiauth_7377
1074,"(41, 2093, 388)",2,mbtiauth_7377
1075,"(50, 2, 22)",2,mbtiauth_7377
1076,"(50, 2, 182)",2,mbtiauth_7377
1077,"(50, 3, 64)",2,mbtiauth_7377
1078,"(50, 3, 187)",2,mbtiauth_7377
1079,"(50, 46, 2)",2,mbtiauth_7377
1080,"(50, 76, 3)",2,mbtiauth_7377
1081,"(50, 76, 32)",2,mbtiauth_7377
1082,"(50, 182, 22)",2,mbtiauth_7377
1083,"(52, 3, 76)",2,mbtiauth_7377
1084,"(64, 2, 113)",2,mbtiauth_7377
1085,"(64, 2, 182)",2,mbtiauth_7377
1086,"(64, 3, 22)",2,mbtiauth_7377
1087,"(64, 3, 32)",3,mbtiauth_7377
1088,"(64, 3, 64)",2,mbtiauth_7377
1089,"(64, 3, 250)",2,mbtiauth_7377
1090,"(64, 7, 10)",2,mbtiauth_7377
1091,"(64, 22, 3)",2,mbtiauth_7377
1092,"(64, 22, 32)",2,mbtiauth_7377
1093,"(64, 22, 64)",2,mbtiauth_7377
1094,"(64, 22, 113)",2,mbtiauth_7377
1095,"(64, 22, 1705)",2,mbtiauth_7377
1096,"(64, 27, 113)",2,mbtiauth_7377
1097,"(64, 32, 3)",2,mbtiauth_7377
1098,"(64, 32, 22)",2,mbtiauth_7377
1099,"(64, 64, 388)",3,mbtiauth_7377
1100,"(64, 76, 2)",3,mbtiauth_7377
1101,"(64, 76, 22)",3,mbtiauth_7377
1102,"(64, 76, 113)",4,mbtiauth_7377
1103,"(64, 113, 3)",3,mbtiauth_7377
1104,"(64, 113, 7)",2,mbtiauth_7377
1105,"(64, 113, 22)",4,mbtiauth_7377
1106,"(64, 113, 32)",2,mbtiauth_7377
1107,"(64, 113, 64)",2,mbtiauth_7377
1108,"(64, 113, 76)",2,mbtiauth_7377
1109,"(64, 113, 113)",2,mbtiauth_7377
1110,"(64, 113, 182)",2,mbtiauth_7377
1111,"(64, 113, 598)",2,mbtiauth_7377
1112,"(64, 151, 482)",2,mbtiauth_7377
1113,"(64, 250, 3)",2,mbtiauth_7377
1114,"(64, 388, 151)",3,mbtiauth_7377
1115,"(64, 403, 187)",2,mbtiauth_7377
1116,"(64, 469, 76)",2,mbtiauth_7377
1117,"(64, 504, 22)",3,mbtiauth_7377
1118,"(64, 504, 76)",2,mbtiauth_7377
1119,"(64, 504, 113)",2,mbtiauth_7377
1120,"(64, 1533, 64)",3,mbtiauth_7377
1121,"(64, 1533, 388)",3,mbtiauth_7377
1122,"(64, 1533, 2093)",3,mbtiauth_7377
1123,"(64, 1705, 3)",2,mbtiauth_7377
1124,"(64, 2093, 64)",3,mbtiauth_7377
1125,"(64, 2093, 388)",3,mbtiauth_7377
1126,"(64, 3474, 32)",2,mbtiauth_7377
1127,"(65, 113, 64)",2,mbtiauth_7377
1128,"(66, 32, 76)",2,mbtiauth_7377
1129,"(76, 2, 32)",2,mbtiauth_7377
1130,"(76, 2, 76)",2,mbtiauth_7377
1131,"(76, 2, 113)",5,mbtiauth_7377
1132,"(76, 2, 151)",2,mbtiauth_7377
1133,"(76, 2, 161)",2,mbtiauth_7377
1134,"(76, 2, 250)",2,mbtiauth_7377
1135,"(76, 2, 256)",2,mbtiauth_7377
1136,"(76, 3, 10)",2,mbtiauth_7377
1137,"(76, 3, 22)",2,mbtiauth_7377
1138,"(76, 3, 32)",2,mbtiauth_7377
1139,"(76, 3, 64)",3,mbtiauth_7377
1140,"(76, 3, 65)",2,mbtiauth_7377
1141,"(76, 3, 2548)",2,mbtiauth_7377
1142,"(76, 7, 10)",3,mbtiauth_7377
1143,"(76, 7, 76)",4,mbtiauth_7377
1144,"(76, 10, 76)",3,mbtiauth_7377
1145,"(76, 10, 557)",2,mbtiauth_7377
1146,"(76, 22, 3)",2,mbtiauth_7377
1147,"(76, 22, 7)",2,mbtiauth_7377
1148,"(76, 22, 22)",2,mbtiauth_7377
1149,"(76, 22, 32)",2,mbtiauth_7377
1150,"(76, 22, 64)",3,mbtiauth_7377
1151,"(76, 22, 76)",2,mbtiauth_7377
1152,"(76, 22, 113)",3,mbtiauth_7377
1153,"(76, 22, 151)",2,mbtiauth_7377
1154,"(76, 27, 113)",2,mbtiauth_7377
1155,"(76, 31, 41)",2,mbtiauth_7377
1156,"(76, 41, 64)",3,mbtiauth_7377
1157,"(76, 41, 113)",3,mbtiauth_7377
1158,"(76, 41, 182)",2,mbtiauth_7377
1159,"(76, 41, 504)",4,mbtiauth_7377
1160,"(76, 64, 113)",2,mbtiauth_7377
1161,"(76, 65, 41)",2,mbtiauth_7377
1162,"(76, 66, 76)",2,mbtiauth_7377
1163,"(76, 76, 2)",2,mbtiauth_7377
1164,"(76, 76, 66)",2,mbtiauth_7377
1165,"(76, 76, 76)",3,mbtiauth_7377
1166,"(76, 76, 113)",5,mbtiauth_7377
1167,"(76, 76, 160)",3,mbtiauth_7377
1168,"(76, 76, 182)",2,mbtiauth_7377
1169,"(76, 76, 557)",2,mbtiauth_7377
1170,"(76, 77, 3)",2,mbtiauth_7377
1171,"(76, 77, 76)",2,mbtiauth_7377
1172,"(76, 77, 113)",2,mbtiauth_7377
1173,"(76, 113, 3)",2,mbtiauth_7377
1174,"(76, 113, 7)",4,mbtiauth_7377
1175,"(76, 113, 10)",2,mbtiauth_7377
1176,"(76, 113, 22)",3,mbtiauth_7377
1177,"(76, 113, 27)",2,mbtiauth_7377
1178,"(76, 113, 31)",2,mbtiauth_7377
1179,"(76, 113, 41)",3,mbtiauth_7377
1180,"(76, 113, 64)",4,mbtiauth_7377
1181,"(76, 113, 76)",7,mbtiauth_7377
1182,"(76, 113, 78)",2,mbtiauth_7377
1183,"(76, 113, 113)",5,mbtiauth_7377
1184,"(76, 113, 151)",2,mbtiauth_7377
1185,"(76, 113, 160)",2,mbtiauth_7377
1186,"(76, 113, 161)",3,mbtiauth_7377
1187,"(76, 113, 182)",3,mbtiauth_7377
1188,"(76, 113, 214)",2,mbtiauth_7377
1189,"(76, 113, 256)",2,mbtiauth_7377
1190,"(76, 113, 445)",3,mbtiauth_7377
1191,"(76, 113, 504)",2,mbtiauth_7377
1192,"(76, 113, 699)",2,mbtiauth_7377
1193,"(76, 113, 836)",2,mbtiauth_7377
1194,"(76, 113, 861)",2,mbtiauth_7377
1195,"(76, 113, 1157)",2,mbtiauth_7377
1196,"(76, 151, 3)",2,mbtiauth_7377
1197,"(76, 151, 113)",2,mbtiauth_7377
1198,"(76, 151, 699)",2,mbtiauth_7377
1199,"(76, 160, 22)",2,mbtiauth_7377
1200,"(76, 160, 32)",3,mbtiauth_7377
1201,"(76, 182, 3)",2,mbtiauth_7377
1202,"(76, 182, 22)",2,mbtiauth_7377
1203,"(76, 182, 64)",2,mbtiauth_7377
1204,"(76, 190, 3)",2,mbtiauth_7377
1205,"(76, 213, 76)",2,mbtiauth_7377
1206,"(76, 224, 113)",2,mbtiauth_7377
1207,"(76, 557, 113)",2,mbtiauth_7377
1208,"(76, 699, 64)",2,mbtiauth_7377
1209,"(77, 2, 113)",2,mbtiauth_7377
1210,"(77, 10, 76)",2,mbtiauth_7377
1211,"(77, 64, 113)",2,mbtiauth_7377
1212,"(77, 76, 2)",2,mbtiauth_7377
1213,"(77, 76, 113)",3,mbtiauth_7377
1214,"(77, 113, 64)",2,mbtiauth_7377
1215,"(77, 113, 76)",2,mbtiauth_7377
1216,"(77, 113, 113)",2,mbtiauth_7377
1217,"(113, 2, 3)",2,mbtiauth_7377
1218,"(113, 2, 113)",2,mbtiauth_7377
1219,"(113, 2, 151)",2,mbtiauth_7377
1220,"(113, 3, 2)",2,mbtiauth_7377
1221,"(113, 3, 3)",2,mbtiauth_7377
1222,"(113, 3, 22)",2,mbtiauth_7377
1223,"(113, 3, 32)",2,mbtiauth_7377
1224,"(113, 3, 64)",3,mbtiauth_7377
1225,"(113, 3, 66)",2,mbtiauth_7377
1226,"(113, 3, 76)",2,mbtiauth_7377
1227,"(113, 3, 113)",2,mbtiauth_7377
1228,"(113, 3, 201)",2,mbtiauth_7377
1229,"(113, 7, 7)",2,mbtiauth_7377
1230,"(113, 7, 10)",3,mbtiauth_7377
1231,"(113, 7, 22)",2,mbtiauth_7377
1232,"(113, 7, 65)",2,mbtiauth_7377
1233,"(113, 7, 76)",3,mbtiauth_7377
1234,"(113, 7, 77)",2,mbtiauth_7377
1235,"(113, 7, 113)",5,mbtiauth_7377
1236,"(113, 7, 160)",3,mbtiauth_7377
1237,"(113, 7, 165)",2,mbtiauth_7377
1238,"(113, 7, 527)",2,mbtiauth_7377
1239,"(113, 7, 557)",2,mbtiauth_7377
1240,"(113, 10, 7)",2,mbtiauth_7377
1241,"(113, 10, 22)",2,mbtiauth_7377
1242,"(113, 10, 76)",4,mbtiauth_7377
1243,"(113, 10, 113)",2,mbtiauth_7377
1244,"(113, 10, 557)",2,mbtiauth_7377
1245,"(113, 16, 76)",2,mbtiauth_7377
1246,"(113, 22, 22)",2,mbtiauth_7377
1247,"(113, 22, 64)",2,mbtiauth_7377
1248,"(113, 22, 76)",2,mbtiauth_7377
1249,"(113, 22, 113)",4,mbtiauth_7377
1250,"(113, 22, 151)",2,mbtiauth_7377
1251,"(113, 27, 113)",3,mbtiauth_7377
1252,"(113, 31, 22)",2,mbtiauth_7377
1253,"(113, 31, 64)",2,mbtiauth_7377
1254,"(113, 31, 1534)",2,mbtiauth_7377
1255,"(113, 31, 12124)",2,mbtiauth_7377
1256,"(113, 41, 504)",3,mbtiauth_7377
1257,"(113, 64, 2)",2,mbtiauth_7377
1258,"(113, 64, 3)",2,mbtiauth_7377
1259,"(113, 64, 22)",3,mbtiauth_7377
1260,"(113, 64, 64)",3,mbtiauth_7377
1261,"(113, 64, 76)",3,mbtiauth_7377
1262,"(113, 64, 113)",4,mbtiauth_7377
1263,"(113, 64, 151)",2,mbtiauth_7377
1264,"(113, 64, 388)",3,mbtiauth_7377
1265,"(113, 64, 504)",3,mbtiauth_7377
1266,"(113, 64, 1533)",3,mbtiauth_7377
1267,"(113, 64, 2093)",3,mbtiauth_7377
1268,"(113, 65, 32)",2,mbtiauth_7377
1269,"(113, 65, 160)",2,mbtiauth_7377
1270,"(113, 76, 2)",6,mbtiauth_7377
1271,"(113, 76, 3)",2,mbtiauth_7377
1272,"(113, 76, 22)",3,mbtiauth_7377
1273,"(113, 76, 77)",2,mbtiauth_7377
1274,"(113, 76, 113)",6,mbtiauth_7377
1275,"(113, 76, 151)",2,mbtiauth_7377
1276,"(113, 76, 182)",3,mbtiauth_7377
1277,"(113, 76, 200)",2,mbtiauth_7377
1278,"(113, 76, 224)",2,mbtiauth_7377
1279,"(113, 76, 557)",2,mbtiauth_7377
1280,"(113, 77, 2)",2,mbtiauth_7377
1281,"(113, 77, 76)",2,mbtiauth_7377
1282,"(113, 77, 113)",2,mbtiauth_7377
1283,"(113, 113, 7)",3,mbtiauth_7377
1284,"(113, 113, 22)",2,mbtiauth_7377
1285,"(113, 113, 161)",2,mbtiauth_7377
1286,"(113, 113, 214)",2,mbtiauth_7377
1287,"(113, 118, 22)",2,mbtiauth_7377
1288,"(113, 141, 76)",2,mbtiauth_7377
1289,"(113, 151, 50)",2,mbtiauth_7377
1290,"(113, 151, 113)",2,mbtiauth_7377
1291,"(113, 151, 250)",2,mbtiauth_7377
1292,"(113, 160, 7)",2,mbtiauth_7377
1293,"(113, 160, 27)",2,mbtiauth_7377
1294,"(113, 160, 32)",2,mbtiauth_7377
1295,"(113, 160, 113)",2,mbtiauth_7377
1296,"(113, 182, 2)",3,mbtiauth_7377
1297,"(113, 182, 3)",4,mbtiauth_7377
1298,"(113, 182, 22)",2,mbtiauth_7377
1299,"(113, 182, 64)",3,mbtiauth_7377
1300,"(113, 182, 66)",2,mbtiauth_7377
1301,"(113, 182, 76)",2,mbtiauth_7377
1302,"(113, 182, 182)",2,mbtiauth_7377
1303,"(113, 214, 113)",2,mbtiauth_7377
1304,"(113, 214, 160)",2,mbtiauth_7377
1305,"(113, 242, 3)",2,mbtiauth_7377
1306,"(113, 256, 50)",2,mbtiauth_7377
1307,"(113, 312, 216)",2,mbtiauth_7377
1308,"(113, 445, 3)",2,mbtiauth_7377
1309,"(113, 482, 76)",2,mbtiauth_7377
1310,"(113, 504, 76)",2,mbtiauth_7377
1311,"(113, 504, 113)",2,mbtiauth_7377
1312,"(113, 510, 1353)",2,mbtiauth_7377
1313,"(113, 527, 10)",2,mbtiauth_7377
1314,"(113, 527, 113)",2,mbtiauth_7377
1315,"(113, 699, 64)",4,mbtiauth_7377
1316,"(113, 699, 113)",2,mbtiauth_7377
1317,"(113, 699, 151)",2,mbtiauth_7377
1318,"(113, 699, 388)",3,mbtiauth_7377
1319,"(113, 699, 1533)",3,mbtiauth_7377
1320,"(113, 699, 2093)",3,mbtiauth_7377
1321,"(113, 1388, 1534)",2,mbtiauth_7377
1322,"(113, 1533, 64)",3,mbtiauth_7377
1323,"(113, 1533, 388)",3,mbtiauth_7377
1324,"(113, 1533, 2093)",3,mbtiauth_7377
1325,"(113, 2093, 64)",3,mbtiauth_7377
1326,"(113, 2093, 388)",3,mbtiauth_7377
1327,"(113, 2585, 31)",2,mbtiauth_7377
1328,"(113, 2585, 1388)",2,mbtiauth_7377
1329,"(113, 2585, 1534)",2,mbtiauth_7377
1330,"(113, 2585, 12124)",2,mbtiauth_7377
1331,"(137, 27, 113)",2,mbtiauth_7377
1332,"(141, 76, 113)",2,mbtiauth_7377
1333,"(151, 3, 76)",2,mbtiauth_7377
1334,"(151, 64, 64)",2,mbtiauth_7377
1335,"(151, 64, 388)",2,mbtiauth_7377
1336,"(151, 64, 1533)",2,mbtiauth_7377
1337,"(151, 64, 2093)",2,mbtiauth_7377
1338,"(151, 76, 64)",2,mbtiauth_7377
1339,"(151, 113, 64)",3,mbtiauth_7377
1340,"(151, 113, 76)",2,mbtiauth_7377
1341,"(151, 113, 388)",2,mbtiauth_7377
1342,"(151, 113, 699)",3,mbtiauth_7377
1343,"(151, 113, 1533)",2,mbtiauth_7377
1344,"(151, 113, 2093)",2,mbtiauth_7377
1345,"(151, 699, 64)",3,mbtiauth_7377
1346,"(151, 699, 388)",2,mbtiauth_7377
1347,"(151, 699, 1533)",2,mbtiauth_7377
1348,"(151, 699, 2093)",2,mbtiauth_7377
1349,"(151, 1533, 64)",2,mbtiauth_7377
1350,"(151, 1533, 388)",2,mbtiauth_7377
1351,"(151, 1533, 2093)",2,mbtiauth_7377
1352,"(151, 2093, 64)",2,mbtiauth_7377
1353,"(151, 2093, 388)",2,mbtiauth_7377
1354,"(160, 3, 64)",2,mbtiauth_7377
1355,"(160, 3, 76)",2,mbtiauth_7377
1356,"(160, 3, 113)",2,mbtiauth_7377
1357,"(160, 3, 504)",2,mbtiauth_7377
1358,"(160, 7, 76)",2,mbtiauth_7377
1359,"(160, 22, 32)",2,mbtiauth_7377
1360,"(160, 27, 113)",2,mbtiauth_7377
1361,"(160, 32, 22)",2,mbtiauth_7377
1362,"(160, 32, 76)",2,mbtiauth_7377
1363,"(160, 76, 22)",2,mbtiauth_7377
1364,"(160, 113, 64)",2,mbtiauth_7377
1365,"(160, 504, 76)",2,mbtiauth_7377
1366,"(182, 2, 3)",2,mbtiauth_7377
1367,"(182, 2, 22)",2,mbtiauth_7377
1368,"(182, 2, 113)",2,mbtiauth_7377
1369,"(182, 3, 22)",3,mbtiauth_7377
1370,"(182, 3, 64)",3,mbtiauth_7377
1371,"(182, 3, 115)",2,mbtiauth_7377
1372,"(182, 3, 394)",2,mbtiauth_7377
1373,"(182, 3, 601)",2,mbtiauth_7377
1374,"(182, 22, 115)",2,mbtiauth_7377
1375,"(182, 22, 394)",2,mbtiauth_7377
1376,"(182, 41, 64)",2,mbtiauth_7377
1377,"(182, 64, 113)",2,mbtiauth_7377
1378,"(182, 66, 22)",2,mbtiauth_7377
1379,"(182, 76, 76)",2,mbtiauth_7377
1380,"(182, 76, 113)",2,mbtiauth_7377
1381,"(182, 76, 182)",2,mbtiauth_7377
1382,"(182, 602, 113)",2,mbtiauth_7377
1383,"(194, 64, 250)",2,mbtiauth_7377
1384,"(200, 22, 3)",2,mbtiauth_7377
1385,"(213, 7, 10)",2,mbtiauth_7377
1386,"(213, 76, 113)",2,mbtiauth_7377
1387,"(216, 2, 3)",2,mbtiauth_7377
1388,"(216, 2, 10)",2,mbtiauth_7377
1389,"(224, 22, 76)",2,mbtiauth_7377
1390,"(224, 113, 50)",2,mbtiauth_7377
1391,"(224, 113, 256)",2,mbtiauth_7377
1392,"(224, 256, 50)",2,mbtiauth_7377
1393,"(229, 153, 41)",2,mbtiauth_7377
1394,"(229, 153, 64)",2,mbtiauth_7377
1395,"(232, 41, 2)",2,mbtiauth_7377
1396,"(234, 76, 3)",2,mbtiauth_7377
1397,"(250, 3, 2)",2,mbtiauth_7377
1398,"(250, 3, 32)",2,mbtiauth_7377
1399,"(250, 10, 13)",2,mbtiauth_7377
1400,"(250, 10, 76)",2,mbtiauth_7377
1401,"(250, 50, 3)",2,mbtiauth_7377
1402,"(250, 50, 76)",2,mbtiauth_7377
1403,"(250, 76, 2)",2,mbtiauth_7377
1404,"(250, 76, 3)",2,mbtiauth_7377
1405,"(250, 76, 10)",2,mbtiauth_7377
1406,"(250, 76, 76)",2,mbtiauth_7377
1407,"(250, 76, 113)",3,mbtiauth_7377
1408,"(250, 113, 76)",2,mbtiauth_7377
1409,"(257, 374, 76)",2,mbtiauth_7377
1410,"(268, 76, 151)",2,mbtiauth_7377
1411,"(304, 76, 213)",2,mbtiauth_7377
1412,"(342, 2, 113)",2,mbtiauth_7377
1413,"(375, 3, 10)",2,mbtiauth_7377
1414,"(417, 7, 10)",2,mbtiauth_7377
1415,"(417, 7, 1141)",2,mbtiauth_7377
1416,"(417, 10, 1141)",2,mbtiauth_7377
1417,"(499, 182, 76)",2,mbtiauth_7377
1418,"(504, 22, 3)",2,mbtiauth_7377
1419,"(504, 22, 64)",2,mbtiauth_7377
1420,"(504, 41, 3)",2,mbtiauth_7377
1421,"(504, 64, 64)",2,mbtiauth_7377
1422,"(504, 64, 76)",2,mbtiauth_7377
1423,"(504, 64, 113)",2,mbtiauth_7377
1424,"(504, 64, 388)",2,mbtiauth_7377
1425,"(504, 64, 1533)",2,mbtiauth_7377
1426,"(504, 64, 2093)",2,mbtiauth_7377
1427,"(504, 76, 3)",2,mbtiauth_7377
1428,"(504, 76, 22)",4,mbtiauth_7377
1429,"(504, 76, 64)",2,mbtiauth_7377
1430,"(504, 76, 113)",4,mbtiauth_7377
1431,"(504, 76, 151)",2,mbtiauth_7377
1432,"(504, 113, 22)",3,mbtiauth_7377
1433,"(504, 113, 64)",3,mbtiauth_7377
1434,"(504, 113, 388)",2,mbtiauth_7377
1435,"(504, 113, 699)",3,mbtiauth_7377
1436,"(504, 113, 1533)",2,mbtiauth_7377
1437,"(504, 113, 2093)",2,mbtiauth_7377
1438,"(504, 699, 64)",3,mbtiauth_7377
1439,"(504, 699, 388)",2,mbtiauth_7377
1440,"(504, 699, 1533)",2,mbtiauth_7377
1441,"(504, 699, 2093)",2,mbtiauth_7377
1442,"(504, 1533, 64)",2,mbtiauth_7377
1443,"(504, 1533, 388)",2,mbtiauth_7377
1444,"(504, 1533, 2093)",2,mbtiauth_7377
1445,"(504, 2093, 64)",2,mbtiauth_7377
1446,"(504, 2093, 388)",2,mbtiauth_7377
1447,"(527, 10, 113)",2,mbtiauth_7377
1448,"(527, 76, 557)",2,mbtiauth_7377
1449,"(557, 3, 22)",2,mbtiauth_7377
1450,"(557, 76, 187)",2,mbtiauth_7377
1451,"(602, 64, 113)",2,mbtiauth_7377
1452,"(602, 76, 113)",2,mbtiauth_7377
1453,"(663, 76, 3)",2,mbtiauth_7377
1454,"(691, 153, 41)",2,mbtiauth_7377
1455,"(691, 153, 64)",2,mbtiauth_7377
1456,"(691, 229, 41)",2,mbtiauth_7377
1457,"(691, 229, 64)",2,mbtiauth_7377
1458,"(691, 229, 153)",3,mbtiauth_7377
1459,"(691, 2455, 41)",2,mbtiauth_7377
1460,"(691, 2455, 64)",2,mbtiauth_7377
1461,"(691, 2455, 153)",3,mbtiauth_7377
1462,"(691, 2455, 229)",3,mbtiauth_7377
1463,"(699, 64, 64)",3,mbtiauth_7377
1464,"(699, 64, 113)",2,mbtiauth_7377
1465,"(699, 64, 151)",2,mbtiauth_7377
1466,"(699, 64, 388)",3,mbtiauth_7377
1467,"(699, 64, 447)",2,mbtiauth_7377
1468,"(699, 64, 1533)",3,mbtiauth_7377
1469,"(699, 64, 2093)",3,mbtiauth_7377
1470,"(699, 1533, 64)",3,mbtiauth_7377
1471,"(699, 1533, 388)",3,mbtiauth_7377
1472,"(699, 1533, 2093)",3,mbtiauth_7377
1473,"(699, 2093, 64)",3,mbtiauth_7377
1474,"(699, 2093, 388)",3,mbtiauth_7377
1475,"(747, 31, 76)",2,mbtiauth_7377
1476,"(765, 32, 113)",2,mbtiauth_7377
1477,"(765, 32, 1028)",2,mbtiauth_7377
1478,"(765, 1028, 113)",2,mbtiauth_7377
1479,"(786, 22, 64)",2,mbtiauth_7377
1480,"(786, 22, 447)",2,mbtiauth_7377
1481,"(786, 22, 699)",2,mbtiauth_7377
1482,"(786, 64, 447)",2,mbtiauth_7377
1483,"(786, 699, 64)",2,mbtiauth_7377
1484,"(786, 699, 447)",2,mbtiauth_7377
1485,"(861, 76, 3)",2,mbtiauth_7377
1486,"(952, 64, 3474)",2,mbtiauth_7377
1487,"(1123, 76, 22)",2,mbtiauth_7377
1488,"(1325, 10, 22)",2,mbtiauth_7377
1489,"(1533, 64, 151)",2,mbtiauth_7377
1490,"(1533, 64, 388)",3,mbtiauth_7377
1491,"(1533, 388, 151)",2,mbtiauth_7377
1492,"(1533, 2093, 64)",3,mbtiauth_7377
1493,"(1533, 2093, 151)",2,mbtiauth_7377
1494,"(1533, 2093, 388)",3,mbtiauth_7377
1495,"(2093, 64, 151)",2,mbtiauth_7377
1496,"(2093, 64, 388)",3,mbtiauth_7377
1497,"(2093, 388, 151)",2,mbtiauth_7377
1498,"(2310, 76, 113)",2,mbtiauth_7377
1499,"(2455, 153, 41)",2,mbtiauth_7377
1500,"(2455, 153, 64)",2,mbtiauth_7377
1501,"(2455, 229, 41)",2,mbtiauth_7377
1502,"(2455, 229, 64)",2,mbtiauth_7377
1503,"(2455, 229, 153)",3,mbtiauth_7377
1504,"(2548, 32, 113)",2,mbtiauth_7377
1505,"(2585, 31, 1534)",2,mbtiauth_7377
1506,"(2585, 31, 12124)",2,mbtiauth_7377
1507,"(2585, 1388, 1534)",2,mbtiauth_7377
1508,"(3099, 153, 41)",2,mbtiauth_7377
1509,"(3099, 153, 64)",2,mbtiauth_7377
1510,"(3099, 229, 41)",2,mbtiauth_7377
1511,"(3099, 229, 64)",2,mbtiauth_7377
1512,"(3099, 229, 153)",3,mbtiauth_7377
1513,"(3099, 691, 41)",2,mbtiauth_7377
1514,"(3099, 691, 64)",2,mbtiauth_7377
1515,"(3099, 691, 153)",3,mbtiauth_7377
1516,"(3099, 691, 229)",3,mbtiauth_7377
1517,"(3099, 691, 2455)",3,mbtiauth_7377
1518,"(3099, 2455, 41)",2,mbtiauth_7377
1519,"(3099, 2455, 64)",2,mbtiauth_7377
1520,"(3099, 2455, 153)",3,mbtiauth_7377
1521,"(3099, 2455, 229)",3,mbtiauth_7377
1522,"(38327, 38328, 3)",2,mbtiauth_7377
1523,"(2, 3, 22, 394)",2,mbtiauth_7377
1524,"(2, 76, 113, 445)",2,mbtiauth_7377
1525,"(2, 113, 113, 161)",2,mbtiauth_7377
1526,"(2, 113, 445, 3)",2,mbtiauth_7377
1527,"(2, 182, 3, 64)",2,mbtiauth_7377
1528,"(3, 22, 76, 113)",2,mbtiauth_7377
1529,"(3, 22, 394, 115)",2,mbtiauth_7377
1530,"(3, 27, 113, 76)",2,mbtiauth_7377
1531,"(3, 32, 76, 113)",2,mbtiauth_7377
1532,"(3, 32, 1028, 113)",2,mbtiauth_7377
1533,"(3, 765, 32, 113)",2,mbtiauth_7377
1534,"(3, 765, 32, 1028)",2,mbtiauth_7377
1535,"(3, 765, 1028, 113)",2,mbtiauth_7377
1536,"(7, 10, 76, 557)",2,mbtiauth_7377
1537,"(7, 527, 10, 113)",2,mbtiauth_7377
1538,"(8, 28, 26, 113)",2,mbtiauth_7377
1539,"(10, 76, 557, 113)",2,mbtiauth_7377
1540,"(22, 3, 706, 64)",2,mbtiauth_7377
1541,"(22, 27, 3, 64)",2,mbtiauth_7377
1542,"(22, 32, 3, 64)",2,mbtiauth_7377
1543,"(22, 64, 151, 482)",2,mbtiauth_7377
1544,"(22, 699, 64, 447)",2,mbtiauth_7377
1545,"(22, 952, 64, 3474)",2,mbtiauth_7377
1546,"(27, 113, 64, 504)",2,mbtiauth_7377
1547,"(31, 64, 3, 250)",2,mbtiauth_7377
1548,"(32, 268, 76, 151)",2,mbtiauth_7377
1549,"(41, 64, 64, 388)",2,mbtiauth_7377
1550,"(41, 64, 1533, 64)",2,mbtiauth_7377
1551,"(41, 64, 1533, 388)",2,mbtiauth_7377
1552,"(41, 64, 1533, 2093)",2,mbtiauth_7377
1553,"(41, 64, 2093, 64)",2,mbtiauth_7377
1554,"(41, 64, 2093, 388)",2,mbtiauth_7377
1555,"(41, 113, 64, 64)",2,mbtiauth_7377
1556,"(41, 113, 64, 388)",2,mbtiauth_7377
1557,"(41, 113, 64, 1533)",2,mbtiauth_7377
1558,"(41, 113, 64, 2093)",2,mbtiauth_7377
1559,"(41, 113, 699, 64)",2,mbtiauth_7377
1560,"(41, 113, 699, 388)",2,mbtiauth_7377
1561,"(41, 113, 699, 1533)",2,mbtiauth_7377
1562,"(41, 113, 699, 2093)",2,mbtiauth_7377
1563,"(41, 113, 1533, 64)",2,mbtiauth_7377
1564,"(41, 113, 1533, 388)",2,mbtiauth_7377
1565,"(41, 113, 1533, 2093)",2,mbtiauth_7377
1566,"(41, 113, 2093, 64)",2,mbtiauth_7377
1567,"(41, 113, 2093, 388)",2,mbtiauth_7377
1568,"(41, 504, 41, 3)",2,mbtiauth_7377
1569,"(41, 504, 64, 64)",2,mbtiauth_7377
1570,"(41, 504, 64, 388)",2,mbtiauth_7377
1571,"(41, 504, 64, 1533)",2,mbtiauth_7377
1572,"(41, 504, 64, 2093)",2,mbtiauth_7377
1573,"(41, 504, 113, 64)",2,mbtiauth_7377
1574,"(41, 504, 113, 388)",2,mbtiauth_7377
1575,"(41, 504, 113, 699)",2,mbtiauth_7377
1576,"(41, 504, 113, 1533)",2,mbtiauth_7377
1577,"(41, 504, 113, 2093)",2,mbtiauth_7377
1578,"(41, 504, 699, 64)",2,mbtiauth_7377
1579,"(41, 504, 699, 388)",2,mbtiauth_7377
1580,"(41, 504, 699, 1533)",2,mbtiauth_7377
1581,"(41, 504, 699, 2093)",2,mbtiauth_7377
1582,"(41, 504, 1533, 64)",2,mbtiauth_7377
1583,"(41, 504, 1533, 388)",2,mbtiauth_7377
1584,"(41, 504, 1533, 2093)",2,mbtiauth_7377
1585,"(41, 504, 2093, 64)",2,mbtiauth_7377
1586,"(41, 504, 2093, 388)",2,mbtiauth_7377
1587,"(41, 663, 76, 3)",2,mbtiauth_7377
1588,"(41, 699, 64, 64)",2,mbtiauth_7377
1589,"(41, 699, 64, 388)",2,mbtiauth_7377
1590,"(41, 699, 64, 1533)",2,mbtiauth_7377
1591,"(41, 699, 64, 2093)",2,mbtiauth_7377
1592,"(41, 699, 1533, 64)",2,mbtiauth_7377
1593,"(41, 699, 1533, 388)",2,mbtiauth_7377
1594,"(41, 699, 1533, 2093)",2,mbtiauth_7377
1595,"(41, 699, 2093, 64)",2,mbtiauth_7377
1596,"(41, 699, 2093, 388)",2,mbtiauth_7377
1597,"(41, 1533, 64, 388)",2,mbtiauth_7377
1598,"(41, 1533, 2093, 64)",2,mbtiauth_7377
1599,"(41, 1533, 2093, 388)",2,mbtiauth_7377
1600,"(41, 2093, 64, 388)",2,mbtiauth_7377
1601,"(50, 2, 182, 22)",2,mbtiauth_7377
1602,"(64, 22, 32, 3)",2,mbtiauth_7377
1603,"(64, 22, 113, 64)",2,mbtiauth_7377
1604,"(64, 76, 113, 22)",2,mbtiauth_7377
1605,"(64, 113, 3, 32)",2,mbtiauth_7377
1606,"(64, 504, 76, 22)",2,mbtiauth_7377
1607,"(64, 504, 76, 113)",2,mbtiauth_7377
1608,"(64, 1533, 64, 388)",3,mbtiauth_7377
1609,"(64, 1533, 2093, 64)",3,mbtiauth_7377
1610,"(64, 1533, 2093, 388)",3,mbtiauth_7377
1611,"(64, 2093, 64, 388)",3,mbtiauth_7377
1612,"(76, 2, 76, 113)",2,mbtiauth_7377
1613,"(76, 2, 113, 76)",2,mbtiauth_7377
1614,"(76, 2, 113, 113)",2,mbtiauth_7377
1615,"(76, 2, 113, 161)",2,mbtiauth_7377
1616,"(76, 2, 113, 256)",2,mbtiauth_7377
1617,"(76, 7, 10, 76)",2,mbtiauth_7377
1618,"(76, 76, 76, 76)",2,mbtiauth_7377
1619,"(76, 76, 113, 182)",2,mbtiauth_7377
1620,"(76, 113, 7, 10)",2,mbtiauth_7377
1621,"(76, 113, 7, 76)",2,mbtiauth_7377
1622,"(76, 113, 10, 76)",2,mbtiauth_7377
1623,"(76, 113, 22, 113)",2,mbtiauth_7377
1624,"(76, 113, 27, 113)",2,mbtiauth_7377
1625,"(76, 113, 41, 504)",2,mbtiauth_7377
1626,"(76, 113, 182, 64)",2,mbtiauth_7377
1627,"(76, 113, 699, 64)",2,mbtiauth_7377
1628,"(76, 160, 22, 32)",2,mbtiauth_7377
1629,"(77, 113, 76, 113)",2,mbtiauth_7377
1630,"(113, 3, 2, 3)",2,mbtiauth_7377
1631,"(113, 7, 10, 76)",2,mbtiauth_7377
1632,"(113, 7, 10, 113)",2,mbtiauth_7377
1633,"(113, 7, 10, 557)",2,mbtiauth_7377
1634,"(113, 7, 76, 113)",2,mbtiauth_7377
1635,"(113, 7, 76, 557)",2,mbtiauth_7377
1636,"(113, 7, 113, 7)",2,mbtiauth_7377
1637,"(113, 7, 527, 10)",2,mbtiauth_7377
1638,"(113, 7, 527, 113)",2,mbtiauth_7377
1639,"(113, 10, 76, 557)",2,mbtiauth_7377
1640,"(113, 64, 64, 388)",3,mbtiauth_7377
1641,"(113, 64, 76, 113)",2,mbtiauth_7377
1642,"(113, 64, 1533, 64)",3,mbtiauth_7377
1643,"(113, 64, 1533, 388)",3,mbtiauth_7377
1644,"(113, 64, 1533, 2093)",3,mbtiauth_7377
1645,"(113, 64, 2093, 64)",3,mbtiauth_7377
1646,"(113, 64, 2093, 388)",3,mbtiauth_7377
1647,"(113, 76, 2, 113)",2,mbtiauth_7377
1648,"(113, 76, 2, 151)",2,mbtiauth_7377
1649,"(113, 77, 76, 2)",2,mbtiauth_7377
1650,"(113, 160, 27, 113)",2,mbtiauth_7377
1651,"(113, 182, 3, 64)",2,mbtiauth_7377
1652,"(113, 504, 76, 113)",2,mbtiauth_7377
1653,"(113, 527, 10, 113)",2,mbtiauth_7377
1654,"(113, 699, 64, 64)",3,mbtiauth_7377
1655,"(113, 699, 64, 113)",2,mbtiauth_7377
1656,"(113, 699, 64, 151)",2,mbtiauth_7377
1657,"(113, 699, 64, 388)",3,mbtiauth_7377
1658,"(113, 699, 64, 1533)",3,mbtiauth_7377
1659,"(113, 699, 64, 2093)",3,mbtiauth_7377
1660,"(113, 699, 1533, 64)",3,mbtiauth_7377
1661,"(113, 699, 1533, 388)",3,mbtiauth_7377
1662,"(113, 699, 1533, 2093)",3,mbtiauth_7377
1663,"(113, 699, 2093, 64)",3,mbtiauth_7377
1664,"(113, 699, 2093, 388)",3,mbtiauth_7377
1665,"(113, 1533, 64, 388)",3,mbtiauth_7377
1666,"(113, 1533, 2093, 64)",3,mbtiauth_7377
1667,"(113, 1533, 2093, 388)",3,mbtiauth_7377
1668,"(113, 2093, 64, 388)",3,mbtiauth_7377
1669,"(113, 2585, 31, 1534)",2,mbtiauth_7377
1670,"(113, 2585, 31, 12124)",2,mbtiauth_7377
1671,"(113, 2585, 1388, 1534)",2,mbtiauth_7377
1672,"(151, 64, 64, 388)",2,mbtiauth_7377
1673,"(151, 64, 1533, 64)",2,mbtiauth_7377
1674,"(151, 64, 1533, 388)",2,mbtiauth_7377
1675,"(151, 64, 1533, 2093)",2,mbtiauth_7377
1676,"(151, 64, 2093, 64)",2,mbtiauth_7377
1677,"(151, 64, 2093, 388)",2,mbtiauth_7377
1678,"(151, 113, 64, 64)",2,mbtiauth_7377
1679,"(151, 113, 64, 388)",2,mbtiauth_7377
1680,"(151, 113, 64, 1533)",2,mbtiauth_7377
1681,"(151, 113, 64, 2093)",2,mbtiauth_7377
1682,"(151, 113, 699, 64)",3,mbtiauth_7377
1683,"(151, 113, 699, 388)",2,mbtiauth_7377
1684,"(151, 113, 699, 1533)",2,mbtiauth_7377
1685,"(151, 113, 699, 2093)",2,mbtiauth_7377
1686,"(151, 113, 1533, 64)",2,mbtiauth_7377
1687,"(151, 113, 1533, 388)",2,mbtiauth_7377
1688,"(151, 113, 1533, 2093)",2,mbtiauth_7377
1689,"(151, 113, 2093, 64)",2,mbtiauth_7377
1690,"(151, 113, 2093, 388)",2,mbtiauth_7377
1691,"(151, 699, 64, 64)",2,mbtiauth_7377
1692,"(151, 699, 64, 388)",2,mbtiauth_7377
1693,"(151, 699, 64, 1533)",2,mbtiauth_7377
1694,"(151, 699, 64, 2093)",2,mbtiauth_7377
1695,"(151, 699, 1533, 64)",2,mbtiauth_7377
1696,"(151, 699, 1533, 388)",2,mbtiauth_7377
1697,"(151, 699, 1533, 2093)",2,mbtiauth_7377
1698,"(151, 699, 2093, 64)",2,mbtiauth_7377
1699,"(151, 699, 2093, 388)",2,mbtiauth_7377
1700,"(151, 1533, 64, 388)",2,mbtiauth_7377
1701,"(151, 1533, 2093, 64)",2,mbtiauth_7377
1702,"(151, 1533, 2093, 388)",2,mbtiauth_7377
1703,"(151, 2093, 64, 388)",2,mbtiauth_7377
1704,"(160, 3, 113, 64)",2,mbtiauth_7377
1705,"(160, 3, 504, 76)",2,mbtiauth_7377
1706,"(182, 2, 3, 22)",2,mbtiauth_7377
1707,"(182, 3, 22, 115)",2,mbtiauth_7377
1708,"(182, 3, 22, 394)",2,mbtiauth_7377
1709,"(182, 76, 76, 113)",2,mbtiauth_7377
1710,"(224, 113, 256, 50)",2,mbtiauth_7377
1711,"(250, 50, 76, 3)",2,mbtiauth_7377
1712,"(250, 76, 113, 76)",2,mbtiauth_7377
1713,"(417, 7, 10, 1141)",2,mbtiauth_7377
1714,"(504, 64, 64, 388)",2,mbtiauth_7377
1715,"(504, 64, 1533, 64)",2,mbtiauth_7377
1716,"(504, 64, 1533, 388)",2,mbtiauth_7377
1717,"(504, 64, 1533, 2093)",2,mbtiauth_7377
1718,"(504, 64, 2093, 64)",2,mbtiauth_7377
1719,"(504, 64, 2093, 388)",2,mbtiauth_7377
1720,"(504, 76, 22, 64)",2,mbtiauth_7377
1721,"(504, 76, 113, 22)",3,mbtiauth_7377
1722,"(504, 76, 113, 64)",2,mbtiauth_7377
1723,"(504, 113, 64, 64)",2,mbtiauth_7377
1724,"(504, 113, 64, 388)",2,mbtiauth_7377
1725,"(504, 113, 64, 1533)",2,mbtiauth_7377
1726,"(504, 113, 64, 2093)",2,mbtiauth_7377
1727,"(504, 113, 699, 64)",3,mbtiauth_7377
1728,"(504, 113, 699, 388)",2,mbtiauth_7377
1729,"(504, 113, 699, 1533)",2,mbtiauth_7377
1730,"(504, 113, 699, 2093)",2,mbtiauth_7377
1731,"(504, 113, 1533, 64)",2,mbtiauth_7377
1732,"(504, 113, 1533, 388)",2,mbtiauth_7377
1733,"(504, 113, 1533, 2093)",2,mbtiauth_7377
1734,"(504, 113, 2093, 64)",2,mbtiauth_7377
1735,"(504, 113, 2093, 388)",2,mbtiauth_7377
1736,"(504, 699, 64, 64)",2,mbtiauth_7377
1737,"(504, 699, 64, 388)",2,mbtiauth_7377
1738,"(504, 699, 64, 1533)",2,mbtiauth_7377
1739,"(504, 699, 64, 2093)",2,mbtiauth_7377
1740,"(504, 699, 1533, 64)",2,mbtiauth_7377
1741,"(504, 699, 1533, 388)",2,mbtiauth_7377
1742,"(504, 699, 1533, 2093)",2,mbtiauth_7377
1743,"(504, 699, 2093, 64)",2,mbtiauth_7377
1744,"(504, 699, 2093, 388)",2,mbtiauth_7377
1745,"(504, 1533, 64, 388)",2,mbtiauth_7377
1746,"(504, 1533, 2093, 64)",2,mbtiauth_7377
1747,"(504, 1533, 2093, 388)",2,mbtiauth_7377
1748,"(504, 2093, 64, 388)",2,mbtiauth_7377
1749,"(691, 229, 153, 41)",2,mbtiauth_7377
1750,"(691, 229, 153, 64)",2,mbtiauth_7377
1751,"(691, 2455, 153, 41)",2,mbtiauth_7377
1752,"(691, 2455, 153, 64)",2,mbtiauth_7377
1753,"(691, 2455, 229, 41)",2,mbtiauth_7377
1754,"(691, 2455, 229, 64)",2,mbtiauth_7377
1755,"(691, 2455, 229, 153)",3,mbtiauth_7377
1756,"(699, 64, 64, 388)",3,mbtiauth_7377
1757,"(699, 64, 1533, 64)",3,mbtiauth_7377
1758,"(699, 64, 1533, 388)",3,mbtiauth_7377
1759,"(699, 64, 1533, 2093)",3,mbtiauth_7377
1760,"(699, 64, 2093, 64)",3,mbtiauth_7377
1761,"(699, 64, 2093, 388)",3,mbtiauth_7377
1762,"(699, 1533, 64, 388)",3,mbtiauth_7377
1763,"(699, 1533, 2093, 64)",3,mbtiauth_7377
1764,"(699, 1533, 2093, 388)",3,mbtiauth_7377
1765,"(699, 2093, 64, 388)",3,mbtiauth_7377
1766,"(765, 32, 1028, 113)",2,mbtiauth_7377
1767,"(786, 22, 64, 447)",2,mbtiauth_7377
1768,"(786, 22, 699, 64)",2,mbtiauth_7377
1769,"(786, 22, 699, 447)",2,mbtiauth_7377
1770,"(786, 699, 64, 447)",2,mbtiauth_7377
1771,"(1533, 64, 388, 151)",2,mbtiauth_7377
1772,"(1533, 2093, 64, 151)",2,mbtiauth_7377
1773,"(1533, 2093, 64, 388)",3,mbtiauth_7377
1774,"(1533, 2093, 388, 151)",2,mbtiauth_7377
1775,"(2093, 64, 388, 151)",2,mbtiauth_7377
1776,"(2455, 229, 153, 41)",2,mbtiauth_7377
1777,"(2455, 229, 153, 64)",2,mbtiauth_7377
1778,"(3099, 229, 153, 41)",2,mbtiauth_7377
1779,"(3099, 229, 153, 64)",2,mbtiauth_7377
1780,"(3099, 691, 153, 41)",2,mbtiauth_7377
1781,"(3099, 691, 153, 64)",2,mbtiauth_7377
1782,"(3099, 691, 229, 41)",2,mbtiauth_7377
1783,"(3099, 691, 229, 64)",2,mbtiauth_7377
1784,"(3099, 691, 229, 153)",3,mbtiauth_7377
1785,"(3099, 691, 2455, 41)",2,mbtiauth_7377
1786,"(3099, 691, 2455, 64)",2,mbtiauth_7377
1787,"(3099, 691, 2455, 153)",3,mbtiauth_7377
1788,"(3099, 691, 2455, 229)",3,mbtiauth_7377
1789,"(3099, 2455, 153, 41)",2,mbtiauth_7377
1790,"(3099, 2455, 153, 64)",2,mbtiauth_7377
1791,"(3099, 2455, 229, 41)",2,mbtiauth_7377
1792,"(3099, 2455, 229, 64)",2,mbtiauth_7377
1793,"(3099, 2455, 229, 153)",3,mbtiauth_7377
1794,"(3, 765, 32, 1028, 113)",2,mbtiauth_7377
1795,"(41, 64, 1533, 64, 388)",2,mbtiauth_7377
1796,"(41, 64, 1533, 2093, 64)",2,mbtiauth_7377
1797,"(41, 64, 1533, 2093, 388)",2,mbtiauth_7377
1798,"(41, 64, 2093, 64, 388)",2,mbtiauth_7377
1799,"(41, 113, 64, 64, 388)",2,mbtiauth_7377
1800,"(41, 113, 64, 1533, 64)",2,mbtiauth_7377
1801,"(41, 113, 64, 1533, 388)",2,mbtiauth_7377
1802,"(41, 113, 64, 1533, 2093)",2,mbtiauth_7377
1803,"(41, 113, 64, 2093, 64)",2,mbtiauth_7377
1804,"(41, 113, 64, 2093, 388)",2,mbtiauth_7377
1805,"(41, 113, 699, 64, 64)",2,mbtiauth_7377
1806,"(41, 113, 699, 64, 388)",2,mbtiauth_7377
1807,"(41, 113, 699, 64, 1533)",2,mbtiauth_7377
1808,"(41, 113, 699, 64, 2093)",2,mbtiauth_7377
1809,"(41, 113, 699, 1533, 64)",2,mbtiauth_7377
1810,"(41, 113, 699, 1533, 388)",2,mbtiauth_7377
1811,"(41, 113, 699, 1533, 2093)",2,mbtiauth_7377
1812,"(41, 113, 699, 2093, 64)",2,mbtiauth_7377
1813,"(41, 113, 699, 2093, 388)",2,mbtiauth_7377
1814,"(41, 113, 1533, 64, 388)",2,mbtiauth_7377
1815,"(41, 113, 1533, 2093, 64)",2,mbtiauth_7377
1816,"(41, 113, 1533, 2093, 388)",2,mbtiauth_7377
1817,"(41, 113, 2093, 64, 388)",2,mbtiauth_7377
1818,"(41, 504, 64, 64, 388)",2,mbtiauth_7377
1819,"(41, 504, 64, 1533, 64)",2,mbtiauth_7377
1820,"(41, 504, 64, 1533, 388)",2,mbtiauth_7377
1821,"(41, 504, 64, 1533, 2093)",2,mbtiauth_7377
1822,"(41, 504, 64, 2093, 64)",2,mbtiauth_7377
1823,"(41, 504, 64, 2093, 388)",2,mbtiauth_7377
1824,"(41, 504, 113, 64, 64)",2,mbtiauth_7377
1825,"(41, 504, 113, 64, 388)",2,mbtiauth_7377
1826,"(41, 504, 113, 64, 1533)",2,mbtiauth_7377
1827,"(41, 504, 113, 64, 2093)",2,mbtiauth_7377
1828,"(41, 504, 113, 699, 64)",2,mbtiauth_7377
1829,"(41, 504, 113, 699, 388)",2,mbtiauth_7377
1830,"(41, 504, 113, 699, 1533)",2,mbtiauth_7377
1831,"(41, 504, 113, 699, 2093)",2,mbtiauth_7377
1832,"(41, 504, 113, 1533, 64)",2,mbtiauth_7377
1833,"(41, 504, 113, 1533, 388)",2,mbtiauth_7377
1834,"(41, 504, 113, 1533, 2093)",2,mbtiauth_7377
1835,"(41, 504, 113, 2093, 64)",2,mbtiauth_7377
1836,"(41, 504, 113, 2093, 388)",2,mbtiauth_7377
1837,"(41, 504, 699, 64, 64)",2,mbtiauth_7377
1838,"(41, 504, 699, 64, 388)",2,mbtiauth_7377
1839,"(41, 504, 699, 64, 1533)",2,mbtiauth_7377
1840,"(41, 504, 699, 64, 2093)",2,mbtiauth_7377
1841,"(41, 504, 699, 1533, 64)",2,mbtiauth_7377
1842,"(41, 504, 699, 1533, 388)",2,mbtiauth_7377
1843,"(41, 504, 699, 1533, 2093)",2,mbtiauth_7377
1844,"(41, 504, 699, 2093, 64)",2,mbtiauth_7377
1845,"(41, 504, 699, 2093, 388)",2,mbtiauth_7377
1846,"(41, 504, 1533, 64, 388)",2,mbtiauth_7377
1847,"(41, 504, 1533, 2093, 64)",2,mbtiauth_7377
1848,"(41, 504, 1533, 2093, 388)",2,mbtiauth_7377
1849,"(41, 504, 2093, 64, 388)",2,mbtiauth_7377
1850,"(41, 699, 64, 64, 388)",2,mbtiauth_7377
1851,"(41, 699, 64, 1533, 64)",2,mbtiauth_7377
1852,"(41, 699, 64, 1533, 388)",2,mbtiauth_7377
1853,"(41, 699, 64, 1533, 2093)",2,mbtiauth_7377
1854,"(41, 699, 64, 2093, 64)",2,mbtiauth_7377
1855,"(41, 699, 64, 2093, 388)",2,mbtiauth_7377
1856,"(41, 699, 1533, 64, 388)",2,mbtiauth_7377
1857,"(41, 699, 1533, 2093, 64)",2,mbtiauth_7377
1858,"(41, 699, 1533, 2093, 388)",2,mbtiauth_7377
1859,"(41, 699, 2093, 64, 388)",2,mbtiauth_7377
1860,"(41, 1533, 2093, 64, 388)",2,mbtiauth_7377
1861,"(64, 1533, 2093, 64, 388)",3,mbtiauth_7377
1862,"(76, 113, 7, 10, 76)",2,mbtiauth_7377
1863,"(113, 7, 10, 76, 557)",2,mbtiauth_7377
1864,"(113, 7, 527, 10, 113)",2,mbtiauth_7377
1865,"(113, 64, 1533, 64, 388)",3,mbtiauth_7377
1866,"(113, 64, 1533, 2093, 64)",3,mbtiauth_7377
1867,"(113, 64, 1533, 2093, 388)",3,mbtiauth_7377
1868,"(113, 64, 2093, 64, 388)",3,mbtiauth_7377
1869,"(113, 699, 64, 64, 388)",3,mbtiauth_7377
1870,"(113, 699, 64, 1533, 64)",3,mbtiauth_7377
1871,"(113, 699, 64, 1533, 388)",3,mbtiauth_7377
1872,"(113, 699, 64, 1533, 2093)",3,mbtiauth_7377
1873,"(113, 699, 64, 2093, 64)",3,mbtiauth_7377
1874,"(113, 699, 64, 2093, 388)",3,mbtiauth_7377
1875,"(113, 699, 1533, 64, 388)",3,mbtiauth_7377
1876,"(113, 699, 1533, 2093, 64)",3,mbtiauth_7377
1877,"(113, 699, 1533, 2093, 388)",3,mbtiauth_7377
1878,"(113, 699, 2093, 64, 388)",3,mbtiauth_7377
1879,"(113, 1533, 2093, 64, 388)",3,mbtiauth_7377
1880,"(151, 64, 1533, 64, 388)",2,mbtiauth_7377
1881,"(151, 64, 1533, 2093, 64)",2,mbtiauth_7377
1882,"(151, 64, 1533, 2093, 388)",2,mbtiauth_7377
1883,"(151, 64, 2093, 64, 388)",2,mbtiauth_7377
1884,"(151, 113, 64, 64, 388)",2,mbtiauth_7377
1885,"(151, 113, 64, 1533, 64)",2,mbtiauth_7377
1886,"(151, 113, 64, 1533, 388)",2,mbtiauth_7377
1887,"(151, 113, 64, 1533, 2093)",2,mbtiauth_7377
1888,"(151, 113, 64, 2093, 64)",2,mbtiauth_7377
1889,"(151, 113, 64, 2093, 388)",2,mbtiauth_7377
1890,"(151, 113, 699, 64, 64)",2,mbtiauth_7377
1891,"(151, 113, 699, 64, 388)",2,mbtiauth_7377
1892,"(151, 113, 699, 64, 1533)",2,mbtiauth_7377
1893,"(151, 113, 699, 64, 2093)",2,mbtiauth_7377
1894,"(151, 113, 699, 1533, 64)",2,mbtiauth_7377
1895,"(151, 113, 699, 1533, 388)",2,mbtiauth_7377
1896,"(151, 113, 699, 1533, 2093)",2,mbtiauth_7377
1897,"(151, 113, 699, 2093, 64)",2,mbtiauth_7377
1898,"(151, 113, 699, 2093, 388)",2,mbtiauth_7377
1899,"(151, 113, 1533, 64, 388)",2,mbtiauth_7377
1900,"(151, 113, 1533, 2093, 64)",2,mbtiauth_7377
1901,"(151, 113, 1533, 2093, 388)",2,mbtiauth_7377
1902,"(151, 113, 2093, 64, 388)",2,mbtiauth_7377
1903,"(151, 699, 64, 64, 388)",2,mbtiauth_7377
1904,"(151, 699, 64, 1533, 64)",2,mbtiauth_7377
1905,"(151, 699, 64, 1533, 388)",2,mbtiauth_7377
1906,"(151, 699, 64, 1533, 2093)",2,mbtiauth_7377
1907,"(151, 699, 64, 2093, 64)",2,mbtiauth_7377
1908,"(151, 699, 64, 2093, 388)",2,mbtiauth_7377
1909,"(151, 699, 1533, 64, 388)",2,mbtiauth_7377
1910,"(151, 699, 1533, 2093, 64)",2,mbtiauth_7377
1911,"(151, 699, 1533, 2093, 388)",2,mbtiauth_7377
1912,"(151, 699, 2093, 64, 388)",2,mbtiauth_7377
1913,"(151, 1533, 2093, 64, 388)",2,mbtiauth_7377
1914,"(504, 64, 1533, 64, 388)",2,mbtiauth_7377
1915,"(504, 64, 1533, 2093, 64)",2,mbtiauth_7377
1916,"(504, 64, 1533, 2093, 388)",2,mbtiauth_7377
1917,"(504, 64, 2093, 64, 388)",2,mbtiauth_7377
1918,"(504, 113, 64, 64, 388)",2,mbtiauth_7377
1919,"(504, 113, 64, 1533, 64)",2,mbtiauth_7377
1920,"(504, 113, 64, 1533, 388)",2,mbtiauth_7377
1921,"(504, 113, 64, 1533, 2093)",2,mbtiauth_7377
1922,"(504, 113, 64, 2093, 64)",2,mbtiauth_7377
1923,"(504, 113, 64, 2093, 388)",2,mbtiauth_7377
1924,"(504, 113, 699, 64, 64)",2,mbtiauth_7377
1925,"(504, 113, 699, 64, 388)",2,mbtiauth_7377
1926,"(504, 113, 699, 64, 1533)",2,mbtiauth_7377
1927,"(504, 113, 699, 64, 2093)",2,mbtiauth_7377
1928,"(504, 113, 699, 1533, 64)",2,mbtiauth_7377
1929,"(504, 113, 699, 1533, 388)",2,mbtiauth_7377
1930,"(504, 113, 699, 1533, 2093)",2,mbtiauth_7377
1931,"(504, 113, 699, 2093, 64)",2,mbtiauth_7377
1932,"(504, 113, 699, 2093, 388)",2,mbtiauth_7377
1933,"(504, 113, 1533, 64, 388)",2,mbtiauth_7377
1934,"(504, 113, 1533, 2093, 64)",2,mbtiauth_7377
1935,"(504, 113, 1533, 2093, 388)",2,mbtiauth_7377
1936,"(504, 113, 2093, 64, 388)",2,mbtiauth_7377
1937,"(504, 699, 64, 64, 388)",2,mbtiauth_7377
1938,"(504, 699, 64, 1533, 64)",2,mbtiauth_7377
1939,"(504, 699, 64, 1533, 388)",2,mbtiauth_7377
1940,"(504, 699, 64, 1533, 2093)",2,mbtiauth_7377
1941,"(504, 699, 64, 2093, 64)",2,mbtiauth_7377
1942,"(504, 699, 64, 2093, 388)",2,mbtiauth_7377
1943,"(504, 699, 1533, 64, 388)",2,mbtiauth_7377
1944,"(504, 699, 1533, 2093, 64)",2,mbtiauth_7377
1945,"(504, 699, 1533, 2093, 388)",2,mbtiauth_7377
1946,"(504, 699, 2093, 64, 388)",2,mbtiauth_7377
1947,"(504, 1533, 2093, 64, 388)",2,mbtiauth_7377
1948,"(691, 2455, 229, 153, 41)",2,mbtiauth_7377
1949,"(691, 2455, 229, 153, 64)",2,mbtiauth_7377
1950,"(699, 64, 1533, 64, 388)",3,mbtiauth_7377
1951,"(699, 64, 1533, 2093, 64)",3,mbtiauth_7377
1952,"(699, 64, 1533, 2093, 388)",3,mbtiauth_7377
1953,"(699, 64, 2093, 64, 388)",3,mbtiauth_7377
1954,"(699, 1533, 2093, 64, 388)",3,mbtiauth_7377
1955,"(786, 22, 699, 64, 447)",2,mbtiauth_7377
1956,"(1533, 2093, 64, 388, 151)",2,mbtiauth_7377
1957,"(3099, 691, 229, 153, 41)",2,mbtiauth_7377
1958,"(3099, 691, 229, 153, 64)",2,mbtiauth_7377
1959,"(3099, 691, 2455, 153, 41)",2,mbtiauth_7377
1960,"(3099, 691, 2455, 153, 64)",2,mbtiauth_7377
1961,"(3099, 691, 2455, 229, 41)",2,mbtiauth_7377
1962,"(3099, 691, 2455, 229, 64)",2,mbtiauth_7377
1963,"(3099, 691, 2455, 229, 153)",3,mbtiauth_7377
1964,"(3099, 2455, 229, 153, 41)",2,mbtiauth_7377
1965,"(3099, 2455, 229, 153, 64)",2,mbtiauth_7377
1966,"(41, 64, 1533, 2093, 64, 388)",2,mbtiauth_7377
1967,"(41, 113, 64, 1533, 64, 388)",2,mbtiauth_7377
1968,"(41, 113, 64, 1533, 2093, 64)",2,mbtiauth_7377
1969,"(41, 113, 64, 1533, 2093, 388)",2,mbtiauth_7377
1970,"(41, 113, 64, 2093, 64, 388)",2,mbtiauth_7377
1971,"(41, 113, 699, 64, 64, 388)",2,mbtiauth_7377
1972,"(41, 113, 699, 64, 1533, 64)",2,mbtiauth_7377
1973,"(41, 113, 699, 64, 1533, 388)",2,mbtiauth_7377
1974,"(41, 113, 699, 64, 1533, 2093)",2,mbtiauth_7377
1975,"(41, 113, 699, 64, 2093, 64)",2,mbtiauth_7377
1976,"(41, 113, 699, 64, 2093, 388)",2,mbtiauth_7377
1977,"(41, 113, 699, 1533, 64, 388)",2,mbtiauth_7377
1978,"(41, 113, 699, 1533, 2093, 64)",2,mbtiauth_7377
1979,"(41, 113, 699, 1533, 2093, 388)",2,mbtiauth_7377
1980,"(41, 113, 699, 2093, 64, 388)",2,mbtiauth_7377
1981,"(41, 113, 1533, 2093, 64, 388)",2,mbtiauth_7377
1982,"(41, 504, 64, 1533, 64, 388)",2,mbtiauth_7377
1983,"(41, 504, 64, 1533, 2093, 64)",2,mbtiauth_7377
1984,"(41, 504, 64, 1533, 2093, 388)",2,mbtiauth_7377
1985,"(41, 504, 64, 2093, 64, 388)",2,mbtiauth_7377
1986,"(41, 504, 113, 64, 64, 388)",2,mbtiauth_7377
1987,"(41, 504, 113, 64, 1533, 64)",2,mbtiauth_7377
1988,"(41, 504, 113, 64, 1533, 388)",2,mbtiauth_7377
1989,"(41, 504, 113, 64, 1533, 2093)",2,mbtiauth_7377
1990,"(41, 504, 113, 64, 2093, 64)",2,mbtiauth_7377
1991,"(41, 504, 113, 64, 2093, 388)",2,mbtiauth_7377
1992,"(41, 504, 113, 699, 64, 64)",2,mbtiauth_7377
1993,"(41, 504, 113, 699, 64, 388)",2,mbtiauth_7377
1994,"(41, 504, 113, 699, 64, 1533)",2,mbtiauth_7377
1995,"(41, 504, 113, 699, 64, 2093)",2,mbtiauth_7377
1996,"(41, 504, 113, 699, 1533, 64)",2,mbtiauth_7377
1997,"(41, 504, 113, 699, 1533, 388)",2,mbtiauth_7377
1998,"(41, 504, 113, 699, 1533, 2093)",2,mbtiauth_7377
1999,"(41, 504, 113, 699, 2093, 64)",2,mbtiauth_7377
2000,"(41, 504, 113, 699, 2093, 388)",2,mbtiauth_7377
2001,"(41, 504, 113, 1533, 64, 388)",2,mbtiauth_7377
2002,"(41, 504, 113, 1533, 2093, 64)",2,mbtiauth_7377
2003,"(41, 504, 113, 1533, 2093, 388)",2,mbtiauth_7377
2004,"(41, 504, 113, 2093, 64, 388)",2,mbtiauth_7377
2005,"(41, 504, 699, 64, 64, 388)",2,mbtiauth_7377
2006,"(41, 504, 699, 64, 1533, 64)",2,mbtiauth_7377
2007,"(41, 504, 699, 64, 1533, 388)",2,mbtiauth_7377
2008,"(41, 504, 699, 64, 1533, 2093)",2,mbtiauth_7377
2009,"(41, 504, 699, 64, 2093, 64)",2,mbtiauth_7377
2010,"(41, 504, 699, 64, 2093, 388)",2,mbtiauth_7377
2011,"(41, 504, 699, 1533, 64, 388)",2,mbtiauth_7377
2012,"(41, 504, 699, 1533, 2093, 64)",2,mbtiauth_7377
2013,"(41, 504, 699, 1533, 2093, 388)",2,mbtiauth_7377
2014,"(41, 504, 699, 2093, 64, 388)",2,mbtiauth_7377
2015,"(41, 504, 1533, 2093, 64, 388)",2,mbtiauth_7377
2016,"(41, 699, 64, 1533, 64, 388)",2,mbtiauth_7377
2017,"(41, 699, 64, 1533, 2093, 64)",2,mbtiauth_7377
2018,"(41, 699, 64, 1533, 2093, 388)",2,mbtiauth_7377
2019,"(41, 699, 64, 2093, 64, 388)",2,mbtiauth_7377
2020,"(41, 699, 1533, 2093, 64, 388)",2,mbtiauth_7377
2021,"(113, 64, 1533, 2093, 64, 388)",3,mbtiauth_7377
2022,"(113, 699, 64, 1533, 64, 388)",3,mbtiauth_7377
2023,"(113, 699, 64, 1533, 2093, 64)",3,mbtiauth_7377
2024,"(113, 699, 64, 1533, 2093, 388)",3,mbtiauth_7377
2025,"(113, 699, 64, 2093, 64, 388)",3,mbtiauth_7377
2026,"(113, 699, 1533, 2093, 64, 388)",3,mbtiauth_7377
2027,"(151, 64, 1533, 2093, 64, 388)",2,mbtiauth_7377
2028,"(151, 113, 64, 1533, 64, 388)",2,mbtiauth_7377
2029,"(151, 113, 64, 1533, 2093, 64)",2,mbtiauth_7377
2030,"(151, 113, 64, 1533, 2093, 388)",2,mbtiauth_7377
2031,"(151, 113, 64, 2093, 64, 388)",2,mbtiauth_7377
2032,"(151, 113, 699, 64, 64, 388)",2,mbtiauth_7377
2033,"(151, 113, 699, 64, 1533, 64)",2,mbtiauth_7377
2034,"(151, 113, 699, 64, 1533, 388)",2,mbtiauth_7377
2035,"(151, 113, 699, 64, 1533, 2093)",2,mbtiauth_7377
2036,"(151, 113, 699, 64, 2093, 64)",2,mbtiauth_7377
2037,"(151, 113, 699, 64, 2093, 388)",2,mbtiauth_7377
2038,"(151, 113, 699, 1533, 64, 388)",2,mbtiauth_7377
2039,"(151, 113, 699, 1533, 2093, 64)",2,mbtiauth_7377
2040,"(151, 113, 699, 1533, 2093, 388)",2,mbtiauth_7377
2041,"(151, 113, 699, 2093, 64, 388)",2,mbtiauth_7377
2042,"(151, 113, 1533, 2093, 64, 388)",2,mbtiauth_7377
2043,"(151, 699, 64, 1533, 64, 388)",2,mbtiauth_7377
2044,"(151, 699, 64, 1533, 2093, 64)",2,mbtiauth_7377
2045,"(151, 699, 64, 1533, 2093, 388)",2,mbtiauth_7377
2046,"(151, 699, 64, 2093, 64, 388)",2,mbtiauth_7377
2047,"(151, 699, 1533, 2093, 64, 388)",2,mbtiauth_7377
2048,"(504, 64, 1533, 2093, 64, 388)",2,mbtiauth_7377
2049,"(504, 113, 64, 1533, 64, 388)",2,mbtiauth_7377
2050,"(504, 113, 64, 1533, 2093, 64)",2,mbtiauth_7377
2051,"(504, 113, 64, 1533, 2093, 388)",2,mbtiauth_7377
2052,"(504, 113, 64, 2093, 64, 388)",2,mbtiauth_7377
2053,"(504, 113, 699, 64, 64, 388)",2,mbtiauth_7377
2054,"(504, 113, 699, 64, 1533, 64)",2,mbtiauth_7377
2055,"(504, 113, 699, 64, 1533, 388)",2,mbtiauth_7377
2056,"(504, 113, 699, 64, 1533, 2093)",2,mbtiauth_7377
2057,"(504, 113, 699, 64, 2093, 64)",2,mbtiauth_7377
2058,"(504, 113, 699, 64, 2093, 388)",2,mbtiauth_7377
2059,"(504, 113, 699, 1533, 64, 388)",2,mbtiauth_7377
2060,"(504, 113, 699, 1533, 2093, 64)",2,mbtiauth_7377
2061,"(504, 113, 699, 1533, 2093, 388)",2,mbtiauth_7377
2062,"(504, 113, 699, 2093, 64, 388)",2,mbtiauth_7377
2063,"(504, 113, 1533, 2093, 64, 388)",2,mbtiauth_7377
2064,"(504, 699, 64, 1533, 64, 388)",2,mbtiauth_7377
2065,"(504, 699, 64, 1533, 2093, 64)",2,mbtiauth_7377
2066,"(504, 699, 64, 1533, 2093, 388)",2,mbtiauth_7377
2067,"(504, 699, 64, 2093, 64, 388)",2,mbtiauth_7377
2068,"(504, 699, 1533, 2093, 64, 388)",2,mbtiauth_7377
2069,"(699, 64, 1533, 2093, 64, 388)",3,mbtiauth_7377
2070,"(3099, 691, 2455, 229, 153, 41)",2,mbtiauth_7377
2071,"(3099, 691, 2455, 229, 153, 64)",2,mbtiauth_7377
2072,"(41, 113, 64, 1533, 2093, 64, 388)",2,mbtiauth_7377
2073,"(41, 113, 699, 64, 1533, 64, 388)",2,mbtiauth_7377
2074,"(41, 113, 699, 64, 1533, 2093, 64)",2,mbtiauth_7377
2075,"(41, 113, 699, 64, 1533, 2093, 388)",2,mbtiauth_7377
2076,"(41, 113, 699, 64, 2093, 64, 388)",2,mbtiauth_7377
2077,"(41, 113, 699, 1533, 2093, 64, 388)",2,mbtiauth_7377
2078,"(41, 504, 64, 1533, 2093, 64, 388)",2,mbtiauth_7377
2079,"(41, 504, 113, 64, 1533, 64, 388)",2,mbtiauth_7377
2080,"(41, 504, 113, 64, 1533, 2093, 64)",2,mbtiauth_7377
2081,"(41, 504, 113, 64, 1533, 2093, 388)",2,mbtiauth_7377
2082,"(41, 504, 113, 64, 2093, 64, 388)",2,mbtiauth_7377
2083,"(41, 504, 113, 699, 64, 64, 388)",2,mbtiauth_7377
2084,"(41, 504, 113, 699, 64, 1533, 64)",2,mbtiauth_7377
2085,"(41, 504, 113, 699, 64, 1533, 388)",2,mbtiauth_7377
2086,"(41, 504, 113, 699, 64, 1533, 2093)",2,mbtiauth_7377
2087,"(41, 504, 113, 699, 64, 2093, 64)",2,mbtiauth_7377
2088,"(41, 504, 113, 699, 64, 2093, 388)",2,mbtiauth_7377
2089,"(41, 504, 113, 699, 1533, 64, 388)",2,mbtiauth_7377
2090,"(41, 504, 113, 699, 1533, 2093, 64)",2,mbtiauth_7377
2091,"(41, 504, 113, 699, 1533, 2093, 388)",2,mbtiauth_7377
2092,"(41, 504, 113, 699, 2093, 64, 388)",2,mbtiauth_7377
2093,"(41, 504, 113, 1533, 2093, 64, 388)",2,mbtiauth_7377
2094,"(41, 504, 699, 64, 1533, 64, 388)",2,mbtiauth_7377
2095,"(41, 504, 699, 64, 1533, 2093, 64)",2,mbtiauth_7377
2096,"(41, 504, 699, 64, 1533, 2093, 388)",2,mbtiauth_7377
2097,"(41, 504, 699, 64, 2093, 64, 388)",2,mbtiauth_7377
2098,"(41, 504, 699, 1533, 2093, 64, 388)",2,mbtiauth_7377
2099,"(41, 699, 64, 1533, 2093, 64, 388)",2,mbtiauth_7377
2100,"(113, 699, 64, 1533, 2093, 64, 388)",3,mbtiauth_7377
2101,"(151, 113, 64, 1533, 2093, 64, 388)",2,mbtiauth_7377
2102,"(151, 113, 699, 64, 1533, 64, 388)",2,mbtiauth_7377
2103,"(151, 113, 699, 64, 1533, 2093, 64)",2,mbtiauth_7377
2104,"(151, 113, 699, 64, 1533, 2093, 388)",2,mbtiauth_7377
2105,"(151, 113, 699, 64, 2093, 64, 388)",2,mbtiauth_7377
2106,"(151, 113, 699, 1533, 2093, 64, 388)",2,mbtiauth_7377
2107,"(151, 699, 64, 1533, 2093, 64, 388)",2,mbtiauth_7377
2108,"(504, 113, 64, 1533, 2093, 64, 388)",2,mbtiauth_7377
2109,"(504, 113, 699, 64, 1533, 64, 388)",2,mbtiauth_7377
2110,"(504, 113, 699, 64, 1533, 2093, 64)",2,mbtiauth_7377
2111,"(504, 113, 699, 64, 1533, 2093, 388)",2,mbtiauth_7377
2112,"(504, 113, 699, 64, 2093, 64, 388)",2,mbtiauth_7377
2113,"(504, 113, 699, 1533, 2093, 64, 388)",2,mbtiauth_7377
2114,"(504, 699, 64, 1533, 2093, 64, 388)",2,mbtiauth_7377
2115,"(41, 113, 699, 64, 1533, 2093, 64, 388)",2,mbtiauth_7377
2116,"(41, 504, 113, 64, 1533, 2093, 64, 388)",2,mbtiauth_7377
2117,"(41, 504, 113, 699, 64, 1533, 64, 388)",2,mbtiauth_7377
2118,"(41, 504, 113, 699, 64, 1533, 2093, 64)",2,mbtiauth_7377
2119,"(41, 504, 113, 699, 64, 1533, 2093, 388)",2,mbtiauth_7377
2120,"(41, 504, 113, 699, 64, 2093, 64, 388)",2,mbtiauth_7377
2121,"(41, 504, 113, 699, 1533, 2093, 64, 388)",2,mbtiauth_7377
2122,"(41, 504, 699, 64, 1533, 2093, 64, 388)",2,mbtiauth_7377
2123,"(151, 113, 699, 64, 1533, 2093, 64, 388)",2,mbtiauth_7377
2124,"(504, 113, 699, 64, 1533, 2093, 64, 388)",2,mbtiauth_7377
2125,"(41, 504, 113, 699, 64, 1533, 2093, 64, 388)",2,mbtiauth_7377
