,pattern,sup,author
935,"(2, 2, 113)",2,mbtiauth_7884
936,"(2, 113, 113)",2,mbtiauth_7884
937,"(2, 1017, 113)",2,mbtiauth_7884
938,"(2, 2162, 113)",2,mbtiauth_7884
939,"(2, 2162, 1017)",2,mbtiauth_7884
940,"(2, 2162, 14551)",2,mbtiauth_7884
941,"(2, 14551, 113)",2,mbtiauth_7884
942,"(2, 14551, 1017)",2,mbtiauth_7884
943,"(3, 22, 3)",2,mbtiauth_7884
944,"(3, 65, 2144)",2,mbtiauth_7884
945,"(3, 113, 113)",2,mbtiauth_7884
946,"(3, 234, 424)",2,mbtiauth_7884
947,"(3, 312, 48)",2,mbtiauth_7884
948,"(3, 871, 5077)",2,mbtiauth_7884
949,"(3, 2144, 3)",2,mbtiauth_7884
950,"(3, 2144, 22)",2,mbtiauth_7884
951,"(3, 14551, 113)",2,mbtiauth_7884
952,"(15, 113, 113)",2,mbtiauth_7884
953,"(16, 113, 16)",2,mbtiauth_7884
954,"(16, 113, 113)",2,mbtiauth_7884
955,"(16, 113, 141)",3,mbtiauth_7884
956,"(16, 113, 194)",2,mbtiauth_7884
957,"(16, 141, 16)",2,mbtiauth_7884
958,"(16, 141, 113)",2,mbtiauth_7884
959,"(16, 151, 113)",2,mbtiauth_7884
960,"(16, 194, 113)",2,mbtiauth_7884
961,"(16, 248, 113)",2,mbtiauth_7884
962,"(16, 248, 141)",2,mbtiauth_7884
963,"(16, 248, 326)",2,mbtiauth_7884
964,"(16, 326, 113)",2,mbtiauth_7884
965,"(16, 326, 151)",2,mbtiauth_7884
966,"(16, 326, 182)",2,mbtiauth_7884
967,"(16, 815, 113)",2,mbtiauth_7884
968,"(16, 1088, 7550)",2,mbtiauth_7884
969,"(22, 54, 113)",2,mbtiauth_7884
970,"(22, 113, 3)",3,mbtiauth_7884
971,"(22, 113, 194)",2,mbtiauth_7884
972,"(22, 113, 232)",2,mbtiauth_7884
973,"(22, 394, 3)",2,mbtiauth_7884
974,"(22, 394, 113)",4,mbtiauth_7884
975,"(22, 394, 1088)",2,mbtiauth_7884
976,"(22, 394, 2144)",2,mbtiauth_7884
977,"(22, 714, 248)",2,mbtiauth_7884
978,"(22, 871, 1088)",2,mbtiauth_7884
979,"(22, 1088, 3)",2,mbtiauth_7884
980,"(22, 1088, 113)",2,mbtiauth_7884
981,"(22, 1088, 151)",2,mbtiauth_7884
982,"(31, 22, 54)",2,mbtiauth_7884
983,"(31, 64, 22)",3,mbtiauth_7884
984,"(31, 64, 54)",2,mbtiauth_7884
985,"(31, 64, 244)",2,mbtiauth_7884
986,"(31, 64, 773)",2,mbtiauth_7884
987,"(31, 64, 936)",2,mbtiauth_7884
988,"(31, 64, 941)",2,mbtiauth_7884
989,"(31, 66, 31)",2,mbtiauth_7884
990,"(31, 66, 113)",2,mbtiauth_7884
991,"(31, 66, 151)",2,mbtiauth_7884
992,"(31, 66, 1088)",2,mbtiauth_7884
993,"(31, 66, 55165)",2,mbtiauth_7884
994,"(31, 113, 22)",3,mbtiauth_7884
995,"(31, 113, 54)",2,mbtiauth_7884
996,"(31, 113, 64)",3,mbtiauth_7884
997,"(31, 113, 936)",2,mbtiauth_7884
998,"(31, 113, 2144)",2,mbtiauth_7884
999,"(31, 151, 31)",2,mbtiauth_7884
1000,"(31, 151, 113)",2,mbtiauth_7884
1001,"(31, 151, 1088)",2,mbtiauth_7884
1002,"(31, 151, 55165)",2,mbtiauth_7884
1003,"(31, 936, 22)",2,mbtiauth_7884
1004,"(31, 936, 54)",2,mbtiauth_7884
1005,"(31, 941, 773)",2,mbtiauth_7884
1006,"(31, 1088, 31)",2,mbtiauth_7884
1007,"(31, 1088, 113)",2,mbtiauth_7884
1008,"(31, 1088, 55165)",2,mbtiauth_7884
1009,"(31, 2144, 22)",2,mbtiauth_7884
1010,"(31, 55165, 31)",2,mbtiauth_7884
1011,"(31, 55165, 113)",2,mbtiauth_7884
1012,"(32, 22, 237)",2,mbtiauth_7884
1013,"(32, 22, 871)",2,mbtiauth_7884
1014,"(32, 22, 1088)",2,mbtiauth_7884
1015,"(32, 2144, 22)",2,mbtiauth_7884
1016,"(32, 2144, 871)",2,mbtiauth_7884
1017,"(32, 7360, 317)",2,mbtiauth_7884
1018,"(32, 7550, 317)",2,mbtiauth_7884
1019,"(32, 7550, 7360)",2,mbtiauth_7884
1020,"(44, 22, 3)",2,mbtiauth_7884
1021,"(50, 113, 340)",2,mbtiauth_7884
1022,"(50, 163, 352)",2,mbtiauth_7884
1023,"(50, 163, 132367)",2,mbtiauth_7884
1024,"(50, 182, 2144)",2,mbtiauth_7884
1025,"(50, 557, 113)",2,mbtiauth_7884
1026,"(50, 132367, 352)",2,mbtiauth_7884
1027,"(52, 7550, 7360)",2,mbtiauth_7884
1028,"(54, 31, 113)",2,mbtiauth_7884
1029,"(54, 80, 31)",2,mbtiauth_7884
1030,"(54, 80, 113)",2,mbtiauth_7884
1031,"(54, 714, 31)",2,mbtiauth_7884
1032,"(54, 714, 80)",2,mbtiauth_7884
1033,"(54, 714, 113)",2,mbtiauth_7884
1034,"(64, 22, 54)",2,mbtiauth_7884
1035,"(64, 22, 113)",2,mbtiauth_7884
1036,"(64, 54, 113)",2,mbtiauth_7884
1037,"(64, 113, 64)",2,mbtiauth_7884
1038,"(64, 113, 113)",2,mbtiauth_7884
1039,"(64, 113, 156)",2,mbtiauth_7884
1040,"(64, 113, 7592)",2,mbtiauth_7884
1041,"(64, 326, 3)",2,mbtiauth_7884
1042,"(64, 326, 224)",2,mbtiauth_7884
1043,"(64, 936, 22)",2,mbtiauth_7884
1044,"(64, 936, 54)",2,mbtiauth_7884
1045,"(64, 936, 113)",2,mbtiauth_7884
1046,"(64, 941, 773)",2,mbtiauth_7884
1047,"(64, 1088, 55165)",2,mbtiauth_7884
1048,"(64, 2144, 22)",2,mbtiauth_7884
1049,"(66, 151, 31)",2,mbtiauth_7884
1050,"(66, 151, 113)",2,mbtiauth_7884
1051,"(66, 151, 1088)",2,mbtiauth_7884
1052,"(66, 151, 55165)",2,mbtiauth_7884
1053,"(66, 1088, 31)",2,mbtiauth_7884
1054,"(66, 1088, 113)",2,mbtiauth_7884
1055,"(66, 1088, 55165)",2,mbtiauth_7884
1056,"(66, 55165, 31)",2,mbtiauth_7884
1057,"(66, 55165, 113)",2,mbtiauth_7884
1058,"(80, 31, 22)",3,mbtiauth_7884
1059,"(80, 31, 64)",4,mbtiauth_7884
1060,"(80, 31, 113)",3,mbtiauth_7884
1061,"(80, 31, 773)",2,mbtiauth_7884
1062,"(80, 31, 936)",2,mbtiauth_7884
1063,"(80, 31, 941)",2,mbtiauth_7884
1064,"(80, 64, 22)",3,mbtiauth_7884
1065,"(80, 64, 773)",2,mbtiauth_7884
1066,"(80, 64, 936)",2,mbtiauth_7884
1067,"(80, 64, 941)",2,mbtiauth_7884
1068,"(80, 113, 22)",3,mbtiauth_7884
1069,"(80, 113, 64)",3,mbtiauth_7884
1070,"(80, 113, 936)",2,mbtiauth_7884
1071,"(80, 936, 22)",2,mbtiauth_7884
1072,"(80, 941, 773)",2,mbtiauth_7884
1073,"(81, 714, 248)",2,mbtiauth_7884
1074,"(81, 15869, 248)",2,mbtiauth_7884
1075,"(81, 15869, 714)",2,mbtiauth_7884
1076,"(81, 15869, 15869)",2,mbtiauth_7884
1077,"(113, 2, 113)",2,mbtiauth_7884
1078,"(113, 3, 22)",2,mbtiauth_7884
1079,"(113, 3, 113)",3,mbtiauth_7884
1080,"(113, 3, 182)",2,mbtiauth_7884
1081,"(113, 3, 484)",2,mbtiauth_7884
1082,"(113, 3, 871)",2,mbtiauth_7884
1083,"(113, 3, 2144)",2,mbtiauth_7884
1084,"(113, 3, 7592)",2,mbtiauth_7884
1085,"(113, 3, 14551)",2,mbtiauth_7884
1086,"(113, 15, 2144)",2,mbtiauth_7884
1087,"(113, 16, 113)",4,mbtiauth_7884
1088,"(113, 16, 141)",4,mbtiauth_7884
1089,"(113, 16, 151)",2,mbtiauth_7884
1090,"(113, 16, 248)",3,mbtiauth_7884
1091,"(113, 16, 326)",3,mbtiauth_7884
1092,"(113, 22, 2)",2,mbtiauth_7884
1093,"(113, 22, 54)",2,mbtiauth_7884
1094,"(113, 22, 113)",4,mbtiauth_7884
1095,"(113, 22, 165)",3,mbtiauth_7884
1096,"(113, 22, 394)",4,mbtiauth_7884
1097,"(113, 22, 714)",2,mbtiauth_7884
1098,"(113, 22, 1088)",2,mbtiauth_7884
1099,"(113, 22, 3018)",2,mbtiauth_7884
1100,"(113, 31, 113)",2,mbtiauth_7884
1101,"(113, 31, 1088)",2,mbtiauth_7884
1102,"(113, 32, 22)",2,mbtiauth_7884
1103,"(113, 32, 54)",2,mbtiauth_7884
1104,"(113, 50, 3)",2,mbtiauth_7884
1105,"(113, 50, 113)",2,mbtiauth_7884
1106,"(113, 50, 773)",2,mbtiauth_7884
1107,"(113, 54, 113)",2,mbtiauth_7884
1108,"(113, 64, 22)",3,mbtiauth_7884
1109,"(113, 64, 54)",3,mbtiauth_7884
1110,"(113, 64, 113)",4,mbtiauth_7884
1111,"(113, 64, 326)",3,mbtiauth_7884
1112,"(113, 64, 786)",2,mbtiauth_7884
1113,"(113, 64, 936)",2,mbtiauth_7884
1114,"(113, 64, 7592)",2,mbtiauth_7884
1115,"(113, 65, 113)",2,mbtiauth_7884
1116,"(113, 80, 31)",3,mbtiauth_7884
1117,"(113, 80, 64)",2,mbtiauth_7884
1118,"(113, 80, 113)",2,mbtiauth_7884
1119,"(113, 113, 2)",2,mbtiauth_7884
1120,"(113, 113, 3)",2,mbtiauth_7884
1121,"(113, 113, 15)",2,mbtiauth_7884
1122,"(113, 113, 16)",2,mbtiauth_7884
1123,"(113, 113, 22)",4,mbtiauth_7884
1124,"(113, 113, 64)",2,mbtiauth_7884
1125,"(113, 113, 113)",3,mbtiauth_7884
1126,"(113, 113, 141)",5,mbtiauth_7884
1127,"(113, 113, 149)",2,mbtiauth_7884
1128,"(113, 113, 156)",3,mbtiauth_7884
1129,"(113, 113, 163)",2,mbtiauth_7884
1130,"(113, 113, 194)",3,mbtiauth_7884
1131,"(113, 113, 340)",3,mbtiauth_7884
1132,"(113, 141, 3)",2,mbtiauth_7884
1133,"(113, 141, 16)",5,mbtiauth_7884
1134,"(113, 141, 22)",2,mbtiauth_7884
1135,"(113, 141, 113)",5,mbtiauth_7884
1136,"(113, 141, 141)",4,mbtiauth_7884
1137,"(113, 141, 151)",3,mbtiauth_7884
1138,"(113, 141, 182)",2,mbtiauth_7884
1139,"(113, 141, 248)",3,mbtiauth_7884
1140,"(113, 141, 326)",3,mbtiauth_7884
1141,"(113, 141, 394)",2,mbtiauth_7884
1142,"(113, 141, 786)",2,mbtiauth_7884
1143,"(113, 151, 141)",3,mbtiauth_7884
1144,"(113, 156, 22)",2,mbtiauth_7884
1145,"(113, 156, 64)",3,mbtiauth_7884
1146,"(113, 156, 113)",2,mbtiauth_7884
1147,"(113, 156, 156)",2,mbtiauth_7884
1148,"(113, 156, 326)",3,mbtiauth_7884
1149,"(113, 182, 64)",2,mbtiauth_7884
1150,"(113, 182, 80)",2,mbtiauth_7884
1151,"(113, 182, 113)",2,mbtiauth_7884
1152,"(113, 182, 702)",2,mbtiauth_7884
1153,"(113, 182, 714)",2,mbtiauth_7884
1154,"(113, 182, 786)",2,mbtiauth_7884
1155,"(113, 182, 1088)",2,mbtiauth_7884
1156,"(113, 185, 317)",2,mbtiauth_7884
1157,"(113, 185, 17800)",2,mbtiauth_7884
1158,"(113, 194, 3)",4,mbtiauth_7884
1159,"(113, 194, 15)",3,mbtiauth_7884
1160,"(113, 194, 22)",3,mbtiauth_7884
1161,"(113, 194, 32)",2,mbtiauth_7884
1162,"(113, 194, 65)",2,mbtiauth_7884
1163,"(113, 194, 113)",6,mbtiauth_7884
1164,"(113, 194, 182)",2,mbtiauth_7884
1165,"(113, 194, 221)",2,mbtiauth_7884
1166,"(113, 194, 317)",2,mbtiauth_7884
1167,"(113, 194, 340)",2,mbtiauth_7884
1168,"(113, 194, 557)",2,mbtiauth_7884
1169,"(113, 194, 871)",3,mbtiauth_7884
1170,"(113, 200, 64)",2,mbtiauth_7884
1171,"(113, 200, 113)",2,mbtiauth_7884
1172,"(113, 200, 156)",2,mbtiauth_7884
1173,"(113, 200, 182)",3,mbtiauth_7884
1174,"(113, 200, 326)",3,mbtiauth_7884
1175,"(113, 200, 786)",2,mbtiauth_7884
1176,"(113, 221, 113)",2,mbtiauth_7884
1177,"(113, 224, 1088)",2,mbtiauth_7884
1178,"(113, 232, 22)",2,mbtiauth_7884
1179,"(113, 248, 22)",3,mbtiauth_7884
1180,"(113, 248, 113)",3,mbtiauth_7884
1181,"(113, 248, 141)",3,mbtiauth_7884
1182,"(113, 248, 182)",3,mbtiauth_7884
1183,"(113, 248, 248)",2,mbtiauth_7884
1184,"(113, 248, 326)",2,mbtiauth_7884
1185,"(113, 248, 340)",4,mbtiauth_7884
1186,"(113, 248, 2144)",2,mbtiauth_7884
1187,"(113, 312, 48)",2,mbtiauth_7884
1188,"(113, 317, 17800)",2,mbtiauth_7884
1189,"(113, 326, 3)",2,mbtiauth_7884
1190,"(113, 326, 113)",2,mbtiauth_7884
1191,"(113, 326, 141)",2,mbtiauth_7884
1192,"(113, 326, 151)",3,mbtiauth_7884
1193,"(113, 326, 182)",4,mbtiauth_7884
1194,"(113, 326, 224)",2,mbtiauth_7884
1195,"(113, 326, 643)",2,mbtiauth_7884
1196,"(113, 326, 14551)",2,mbtiauth_7884
1197,"(113, 340, 22)",3,mbtiauth_7884
1198,"(113, 340, 165)",2,mbtiauth_7884
1199,"(113, 340, 182)",2,mbtiauth_7884
1200,"(113, 340, 248)",2,mbtiauth_7884
1201,"(113, 340, 2144)",2,mbtiauth_7884
1202,"(113, 394, 113)",2,mbtiauth_7884
1203,"(113, 394, 1088)",2,mbtiauth_7884
1204,"(113, 557, 113)",3,mbtiauth_7884
1205,"(113, 571, 22)",2,mbtiauth_7884
1206,"(113, 714, 31)",2,mbtiauth_7884
1207,"(113, 714, 80)",2,mbtiauth_7884
1208,"(113, 714, 113)",2,mbtiauth_7884
1209,"(113, 786, 22)",3,mbtiauth_7884
1210,"(113, 786, 113)",3,mbtiauth_7884
1211,"(113, 786, 394)",2,mbtiauth_7884
1212,"(113, 786, 2500)",2,mbtiauth_7884
1213,"(113, 815, 113)",2,mbtiauth_7884
1214,"(113, 936, 22)",2,mbtiauth_7884
1215,"(113, 936, 54)",3,mbtiauth_7884
1216,"(113, 936, 113)",2,mbtiauth_7884
1217,"(113, 941, 50)",2,mbtiauth_7884
1218,"(113, 941, 773)",2,mbtiauth_7884
1219,"(113, 1088, 317)",2,mbtiauth_7884
1220,"(113, 1088, 55165)",2,mbtiauth_7884
1221,"(113, 1105, 113)",2,mbtiauth_7884
1222,"(113, 1105, 194)",2,mbtiauth_7884
1223,"(113, 2144, 22)",3,mbtiauth_7884
1224,"(113, 2144, 113)",2,mbtiauth_7884
1225,"(113, 2144, 141)",2,mbtiauth_7884
1226,"(113, 2144, 182)",2,mbtiauth_7884
1227,"(113, 2500, 113)",2,mbtiauth_7884
1228,"(113, 5077, 113)",2,mbtiauth_7884
1229,"(113, 5077, 141)",2,mbtiauth_7884
1230,"(113, 14551, 113)",3,mbtiauth_7884
1231,"(113, 14551, 643)",2,mbtiauth_7884
1232,"(113, 55165, 141)",2,mbtiauth_7884
1233,"(131, 141, 16)",2,mbtiauth_7884
1234,"(131, 557, 16)",2,mbtiauth_7884
1235,"(131, 557, 141)",2,mbtiauth_7884
1236,"(141, 16, 16)",3,mbtiauth_7884
1237,"(141, 16, 113)",4,mbtiauth_7884
1238,"(141, 16, 141)",5,mbtiauth_7884
1239,"(141, 16, 151)",2,mbtiauth_7884
1240,"(141, 16, 248)",3,mbtiauth_7884
1241,"(141, 16, 326)",2,mbtiauth_7884
1242,"(141, 16, 815)",2,mbtiauth_7884
1243,"(141, 16, 1088)",2,mbtiauth_7884
1244,"(141, 16, 7550)",2,mbtiauth_7884
1245,"(141, 22, 394)",2,mbtiauth_7884
1246,"(141, 113, 3)",2,mbtiauth_7884
1247,"(141, 113, 16)",2,mbtiauth_7884
1248,"(141, 113, 141)",2,mbtiauth_7884
1249,"(141, 113, 194)",2,mbtiauth_7884
1250,"(141, 113, 14551)",2,mbtiauth_7884
1251,"(141, 141, 16)",2,mbtiauth_7884
1252,"(141, 141, 113)",2,mbtiauth_7884
1253,"(141, 151, 113)",2,mbtiauth_7884
1254,"(141, 151, 141)",2,mbtiauth_7884
1255,"(141, 248, 113)",2,mbtiauth_7884
1256,"(141, 248, 141)",2,mbtiauth_7884
1257,"(141, 248, 326)",2,mbtiauth_7884
1258,"(141, 326, 113)",2,mbtiauth_7884
1259,"(141, 326, 141)",2,mbtiauth_7884
1260,"(141, 326, 151)",2,mbtiauth_7884
1261,"(141, 326, 182)",2,mbtiauth_7884
1262,"(141, 352, 1088)",2,mbtiauth_7884
1263,"(141, 557, 113)",2,mbtiauth_7884
1264,"(141, 786, 22)",2,mbtiauth_7884
1265,"(141, 786, 394)",2,mbtiauth_7884
1266,"(141, 815, 113)",2,mbtiauth_7884
1267,"(141, 1088, 7550)",2,mbtiauth_7884
1268,"(141, 3397, 557)",2,mbtiauth_7884
1269,"(141, 5077, 113)",2,mbtiauth_7884
1270,"(151, 31, 1088)",2,mbtiauth_7884
1271,"(151, 113, 1088)",2,mbtiauth_7884
1272,"(151, 113, 14551)",2,mbtiauth_7884
1273,"(151, 141, 113)",2,mbtiauth_7884
1274,"(151, 1088, 31)",2,mbtiauth_7884
1275,"(151, 1088, 113)",2,mbtiauth_7884
1276,"(151, 1088, 1088)",2,mbtiauth_7884
1277,"(151, 1088, 55165)",2,mbtiauth_7884
1278,"(151, 55165, 31)",2,mbtiauth_7884
1279,"(151, 55165, 113)",2,mbtiauth_7884
1280,"(151, 55165, 1088)",2,mbtiauth_7884
1281,"(156, 64, 3)",2,mbtiauth_7884
1282,"(156, 64, 224)",2,mbtiauth_7884
1283,"(156, 64, 326)",4,mbtiauth_7884
1284,"(156, 113, 156)",2,mbtiauth_7884
1285,"(156, 326, 3)",2,mbtiauth_7884
1286,"(156, 326, 224)",2,mbtiauth_7884
1287,"(160, 160, 50)",2,mbtiauth_7884
1288,"(160, 557, 50)",2,mbtiauth_7884
1289,"(160, 557, 160)",2,mbtiauth_7884
1290,"(163, 132367, 352)",2,mbtiauth_7884
1291,"(182, 44, 22)",2,mbtiauth_7884
1292,"(182, 80, 64)",2,mbtiauth_7884
1293,"(182, 113, 22)",2,mbtiauth_7884
1294,"(182, 317, 248)",2,mbtiauth_7884
1295,"(182, 714, 248)",2,mbtiauth_7884
1296,"(182, 1088, 511)",2,mbtiauth_7884
1297,"(182, 2144, 22)",2,mbtiauth_7884
1298,"(185, 317, 17800)",2,mbtiauth_7884
1299,"(190, 352, 1282)",2,mbtiauth_7884
1300,"(190, 3062, 352)",2,mbtiauth_7884
1301,"(190, 3062, 1282)",2,mbtiauth_7884
1302,"(194, 3, 113)",2,mbtiauth_7884
1303,"(194, 3, 871)",2,mbtiauth_7884
1304,"(194, 113, 15)",2,mbtiauth_7884
1305,"(194, 113, 208)",2,mbtiauth_7884
1306,"(194, 113, 340)",2,mbtiauth_7884
1307,"(194, 221, 113)",2,mbtiauth_7884
1308,"(200, 64, 326)",3,mbtiauth_7884
1309,"(200, 141, 16)",2,mbtiauth_7884
1310,"(200, 156, 64)",3,mbtiauth_7884
1311,"(200, 156, 326)",3,mbtiauth_7884
1312,"(200, 182, 786)",2,mbtiauth_7884
1313,"(200, 182, 1088)",2,mbtiauth_7884
1314,"(200, 224, 3)",2,mbtiauth_7884
1315,"(200, 326, 3)",2,mbtiauth_7884
1316,"(200, 326, 182)",2,mbtiauth_7884
1317,"(200, 326, 224)",2,mbtiauth_7884
1318,"(201, 643, 64)",2,mbtiauth_7884
1319,"(223, 113, 182)",2,mbtiauth_7884
1320,"(223, 3062, 113)",2,mbtiauth_7884
1321,"(223, 3062, 182)",2,mbtiauth_7884
1322,"(224, 511, 7550)",2,mbtiauth_7884
1323,"(224, 1088, 511)",2,mbtiauth_7884
1324,"(224, 1088, 7550)",2,mbtiauth_7884
1325,"(234, 113, 3)",2,mbtiauth_7884
1326,"(234, 113, 194)",2,mbtiauth_7884
1327,"(234, 113, 317)",2,mbtiauth_7884
1328,"(234, 194, 317)",2,mbtiauth_7884
1329,"(234, 424, 113)",2,mbtiauth_7884
1330,"(234, 424, 194)",2,mbtiauth_7884
1331,"(234, 424, 317)",2,mbtiauth_7884
1332,"(234, 424, 7592)",2,mbtiauth_7884
1333,"(234, 7592, 113)",2,mbtiauth_7884
1334,"(234, 7592, 194)",2,mbtiauth_7884
1335,"(234, 7592, 317)",2,mbtiauth_7884
1336,"(248, 22, 165)",2,mbtiauth_7884
1337,"(248, 113, 16)",2,mbtiauth_7884
1338,"(248, 113, 22)",2,mbtiauth_7884
1339,"(248, 113, 113)",2,mbtiauth_7884
1340,"(248, 113, 141)",2,mbtiauth_7884
1341,"(248, 113, 194)",2,mbtiauth_7884
1342,"(248, 113, 340)",2,mbtiauth_7884
1343,"(248, 141, 16)",3,mbtiauth_7884
1344,"(248, 182, 113)",2,mbtiauth_7884
1345,"(248, 194, 113)",2,mbtiauth_7884
1346,"(248, 248, 317)",2,mbtiauth_7884
1347,"(248, 317, 113)",3,mbtiauth_7884
1348,"(248, 317, 248)",2,mbtiauth_7884
1349,"(248, 317, 1083)",2,mbtiauth_7884
1350,"(248, 317, 7550)",2,mbtiauth_7884
1351,"(248, 326, 113)",2,mbtiauth_7884
1352,"(248, 340, 22)",3,mbtiauth_7884
1353,"(248, 340, 165)",2,mbtiauth_7884
1354,"(248, 340, 182)",2,mbtiauth_7884
1355,"(248, 340, 248)",2,mbtiauth_7884
1356,"(248, 340, 317)",2,mbtiauth_7884
1357,"(248, 340, 2144)",2,mbtiauth_7884
1358,"(248, 786, 22)",2,mbtiauth_7884
1359,"(248, 786, 2144)",2,mbtiauth_7884
1360,"(248, 1083, 113)",2,mbtiauth_7884
1361,"(248, 1083, 248)",2,mbtiauth_7884
1362,"(248, 1083, 7550)",2,mbtiauth_7884
1363,"(248, 2144, 113)",2,mbtiauth_7884
1364,"(248, 7550, 248)",2,mbtiauth_7884
1365,"(256, 16, 141)",2,mbtiauth_7884
1366,"(256, 3397, 16)",2,mbtiauth_7884
1367,"(256, 3397, 141)",2,mbtiauth_7884
1368,"(268, 182, 476)",2,mbtiauth_7884
1369,"(268, 510, 182)",2,mbtiauth_7884
1370,"(268, 510, 476)",2,mbtiauth_7884
1371,"(308, 5077, 113)",2,mbtiauth_7884
1372,"(312, 48, 182)",2,mbtiauth_7884
1373,"(312, 48, 326)",2,mbtiauth_7884
1374,"(317, 3, 113)",2,mbtiauth_7884
1375,"(317, 3, 871)",2,mbtiauth_7884
1376,"(317, 113, 3)",2,mbtiauth_7884
1377,"(317, 113, 52)",2,mbtiauth_7884
1378,"(317, 113, 113)",3,mbtiauth_7884
1379,"(317, 113, 194)",3,mbtiauth_7884
1380,"(317, 113, 871)",2,mbtiauth_7884
1381,"(317, 113, 1640)",2,mbtiauth_7884
1382,"(317, 194, 3)",2,mbtiauth_7884
1383,"(317, 194, 113)",2,mbtiauth_7884
1384,"(317, 194, 871)",2,mbtiauth_7884
1385,"(317, 221, 113)",2,mbtiauth_7884
1386,"(317, 557, 113)",2,mbtiauth_7884
1387,"(317, 1083, 113)",2,mbtiauth_7884
1388,"(317, 1083, 248)",2,mbtiauth_7884
1389,"(317, 1083, 7550)",2,mbtiauth_7884
1390,"(317, 7550, 248)",2,mbtiauth_7884
1391,"(326, 113, 3)",2,mbtiauth_7884
1392,"(326, 141, 3)",2,mbtiauth_7884
1393,"(326, 151, 208)",2,mbtiauth_7884
1394,"(326, 182, 3)",2,mbtiauth_7884
1395,"(326, 224, 3)",2,mbtiauth_7884
1396,"(326, 643, 3)",2,mbtiauth_7884
1397,"(326, 14551, 113)",2,mbtiauth_7884
1398,"(340, 22, 165)",2,mbtiauth_7884
1399,"(340, 248, 317)",2,mbtiauth_7884
1400,"(340, 2500, 3397)",2,mbtiauth_7884
1401,"(352, 3, 7592)",2,mbtiauth_7884
1402,"(352, 113, 182)",2,mbtiauth_7884
1403,"(352, 113, 194)",2,mbtiauth_7884
1404,"(352, 208, 64)",2,mbtiauth_7884
1405,"(394, 113, 3)",2,mbtiauth_7884
1406,"(394, 1088, 3)",2,mbtiauth_7884
1407,"(394, 1088, 113)",2,mbtiauth_7884
1408,"(406, 31, 64)",2,mbtiauth_7884
1409,"(406, 31, 113)",2,mbtiauth_7884
1410,"(406, 80, 31)",2,mbtiauth_7884
1411,"(406, 80, 64)",2,mbtiauth_7884
1412,"(406, 80, 113)",2,mbtiauth_7884
1413,"(406, 113, 64)",2,mbtiauth_7884
1414,"(424, 113, 194)",2,mbtiauth_7884
1415,"(424, 113, 317)",2,mbtiauth_7884
1416,"(424, 194, 317)",2,mbtiauth_7884
1417,"(424, 7592, 113)",2,mbtiauth_7884
1418,"(424, 7592, 194)",2,mbtiauth_7884
1419,"(424, 7592, 317)",2,mbtiauth_7884
1420,"(435, 3, 2)",2,mbtiauth_7884
1421,"(482, 76, 482)",2,mbtiauth_7884
1422,"(484, 113, 64)",2,mbtiauth_7884
1423,"(510, 182, 476)",2,mbtiauth_7884
1424,"(557, 113, 22)",2,mbtiauth_7884
1425,"(557, 113, 141)",2,mbtiauth_7884
1426,"(557, 113, 151)",2,mbtiauth_7884
1427,"(557, 141, 16)",2,mbtiauth_7884
1428,"(557, 160, 50)",2,mbtiauth_7884
1429,"(613, 113, 10)",2,mbtiauth_7884
1430,"(714, 31, 22)",2,mbtiauth_7884
1431,"(714, 31, 64)",3,mbtiauth_7884
1432,"(714, 31, 113)",3,mbtiauth_7884
1433,"(714, 31, 936)",2,mbtiauth_7884
1434,"(714, 64, 22)",2,mbtiauth_7884
1435,"(714, 64, 936)",2,mbtiauth_7884
1436,"(714, 80, 22)",2,mbtiauth_7884
1437,"(714, 80, 31)",3,mbtiauth_7884
1438,"(714, 80, 64)",3,mbtiauth_7884
1439,"(714, 80, 113)",3,mbtiauth_7884
1440,"(714, 80, 936)",2,mbtiauth_7884
1441,"(714, 113, 22)",2,mbtiauth_7884
1442,"(714, 113, 64)",3,mbtiauth_7884
1443,"(714, 113, 248)",2,mbtiauth_7884
1444,"(714, 113, 340)",2,mbtiauth_7884
1445,"(714, 113, 936)",2,mbtiauth_7884
1446,"(714, 165, 248)",2,mbtiauth_7884
1447,"(714, 248, 64)",2,mbtiauth_7884
1448,"(714, 248, 113)",2,mbtiauth_7884
1449,"(714, 248, 182)",2,mbtiauth_7884
1450,"(714, 248, 248)",2,mbtiauth_7884
1451,"(714, 248, 317)",2,mbtiauth_7884
1452,"(714, 248, 340)",2,mbtiauth_7884
1453,"(714, 248, 1083)",2,mbtiauth_7884
1454,"(714, 248, 1511)",2,mbtiauth_7884
1455,"(714, 248, 7550)",2,mbtiauth_7884
1456,"(714, 317, 248)",2,mbtiauth_7884
1457,"(714, 317, 1083)",2,mbtiauth_7884
1458,"(714, 317, 7550)",2,mbtiauth_7884
1459,"(714, 872, 113)",2,mbtiauth_7884
1460,"(714, 872, 248)",2,mbtiauth_7884
1461,"(714, 936, 22)",2,mbtiauth_7884
1462,"(714, 1083, 248)",2,mbtiauth_7884
1463,"(714, 1083, 7550)",2,mbtiauth_7884
1464,"(786, 22, 394)",2,mbtiauth_7884
1465,"(786, 1088, 113)",2,mbtiauth_7884
1466,"(786, 2500, 113)",2,mbtiauth_7884
1467,"(815, 113, 815)",2,mbtiauth_7884
1468,"(815, 1309, 113)",2,mbtiauth_7884
1469,"(815, 1309, 815)",2,mbtiauth_7884
1470,"(826, 2144, 814)",2,mbtiauth_7884
1471,"(872, 50, 113)",2,mbtiauth_7884
1472,"(872, 113, 16)",2,mbtiauth_7884
1473,"(872, 113, 22)",2,mbtiauth_7884
1474,"(872, 113, 141)",2,mbtiauth_7884
1475,"(872, 113, 2144)",2,mbtiauth_7884
1476,"(872, 141, 16)",2,mbtiauth_7884
1477,"(872, 248, 113)",2,mbtiauth_7884
1478,"(872, 248, 2144)",2,mbtiauth_7884
1479,"(894, 16, 113)",2,mbtiauth_7884
1480,"(936, 22, 54)",2,mbtiauth_7884
1481,"(936, 22, 113)",2,mbtiauth_7884
1482,"(936, 54, 113)",3,mbtiauth_7884
1483,"(941, 50, 773)",2,mbtiauth_7884
1484,"(1017, 2, 113)",2,mbtiauth_7884
1485,"(1083, 113, 113)",2,mbtiauth_7884
1486,"(1083, 113, 340)",2,mbtiauth_7884
1487,"(1083, 248, 340)",2,mbtiauth_7884
1488,"(1083, 248, 29749)",2,mbtiauth_7884
1489,"(1083, 7550, 22)",2,mbtiauth_7884
1490,"(1083, 7550, 248)",3,mbtiauth_7884
1491,"(1083, 7550, 29749)",2,mbtiauth_7884
1492,"(1088, 31, 1088)",2,mbtiauth_7884
1493,"(1088, 52, 317)",2,mbtiauth_7884
1494,"(1088, 113, 3)",3,mbtiauth_7884
1495,"(1088, 113, 151)",2,mbtiauth_7884
1496,"(1088, 113, 194)",3,mbtiauth_7884
1497,"(1088, 113, 248)",2,mbtiauth_7884
1498,"(1088, 113, 1088)",2,mbtiauth_7884
1499,"(1088, 113, 2144)",2,mbtiauth_7884
1500,"(1088, 141, 113)",2,mbtiauth_7884
1501,"(1088, 194, 3)",2,mbtiauth_7884
1502,"(1088, 326, 113)",2,mbtiauth_7884
1503,"(1088, 511, 7550)",2,mbtiauth_7884
1504,"(1088, 826, 2144)",2,mbtiauth_7884
1505,"(1088, 1088, 55165)",2,mbtiauth_7884
1506,"(1088, 2144, 1088)",2,mbtiauth_7884
1507,"(1088, 2144, 55165)",2,mbtiauth_7884
1508,"(1088, 55165, 31)",2,mbtiauth_7884
1509,"(1088, 55165, 113)",2,mbtiauth_7884
1510,"(1088, 55165, 151)",2,mbtiauth_7884
1511,"(1088, 55165, 1088)",3,mbtiauth_7884
1512,"(1088, 55165, 2144)",2,mbtiauth_7884
1513,"(1088, 55165, 55165)",2,mbtiauth_7884
1514,"(1105, 113, 194)",2,mbtiauth_7884
1515,"(1309, 113, 815)",2,mbtiauth_7884
1516,"(2050, 557, 151)",2,mbtiauth_7884
1517,"(2144, 22, 3)",2,mbtiauth_7884
1518,"(2144, 22, 394)",2,mbtiauth_7884
1519,"(2144, 22, 871)",2,mbtiauth_7884
1520,"(2144, 22, 1088)",3,mbtiauth_7884
1521,"(2144, 113, 22)",3,mbtiauth_7884
1522,"(2144, 113, 394)",2,mbtiauth_7884
1523,"(2144, 113, 1088)",2,mbtiauth_7884
1524,"(2144, 1088, 55165)",2,mbtiauth_7884
1525,"(2162, 2, 113)",2,mbtiauth_7884
1526,"(2162, 1017, 2)",2,mbtiauth_7884
1527,"(2162, 1017, 113)",2,mbtiauth_7884
1528,"(2162, 14551, 2)",2,mbtiauth_7884
1529,"(2162, 14551, 113)",2,mbtiauth_7884
1530,"(2162, 14551, 1017)",2,mbtiauth_7884
1531,"(2500, 16, 248)",2,mbtiauth_7884
1532,"(2500, 113, 16)",2,mbtiauth_7884
1533,"(2500, 113, 141)",2,mbtiauth_7884
1534,"(2500, 113, 248)",2,mbtiauth_7884
1535,"(2500, 131, 113)",2,mbtiauth_7884
1536,"(2500, 141, 16)",2,mbtiauth_7884
1537,"(2500, 141, 248)",2,mbtiauth_7884
1538,"(2500, 3397, 16)",2,mbtiauth_7884
1539,"(2500, 3397, 113)",2,mbtiauth_7884
1540,"(2500, 3397, 141)",2,mbtiauth_7884
1541,"(2500, 3397, 248)",2,mbtiauth_7884
1542,"(3062, 113, 182)",2,mbtiauth_7884
1543,"(3062, 352, 1282)",2,mbtiauth_7884
1544,"(3397, 16, 141)",2,mbtiauth_7884
1545,"(3397, 16, 248)",2,mbtiauth_7884
1546,"(3397, 113, 16)",2,mbtiauth_7884
1547,"(3397, 113, 141)",2,mbtiauth_7884
1548,"(3397, 113, 248)",2,mbtiauth_7884
1549,"(3397, 141, 16)",2,mbtiauth_7884
1550,"(3397, 141, 248)",2,mbtiauth_7884
1551,"(3397, 557, 16)",2,mbtiauth_7884
1552,"(3397, 557, 141)",2,mbtiauth_7884
1553,"(4067, 32, 7360)",2,mbtiauth_7884
1554,"(5077, 16, 248)",2,mbtiauth_7884
1555,"(5077, 113, 16)",2,mbtiauth_7884
1556,"(5077, 113, 141)",3,mbtiauth_7884
1557,"(5077, 113, 182)",2,mbtiauth_7884
1558,"(5077, 113, 248)",2,mbtiauth_7884
1559,"(5077, 141, 16)",2,mbtiauth_7884
1560,"(5077, 141, 248)",2,mbtiauth_7884
1561,"(7550, 113, 22)",2,mbtiauth_7884
1562,"(7550, 248, 29749)",2,mbtiauth_7884
1563,"(7550, 7360, 22)",2,mbtiauth_7884
1564,"(7550, 7360, 317)",2,mbtiauth_7884
1565,"(7592, 113, 194)",2,mbtiauth_7884
1566,"(7592, 113, 317)",2,mbtiauth_7884
1567,"(7592, 194, 317)",2,mbtiauth_7884
1568,"(14551, 2, 113)",2,mbtiauth_7884
1569,"(14551, 113, 113)",2,mbtiauth_7884
1570,"(14551, 151, 113)",2,mbtiauth_7884
1571,"(14551, 643, 64)",2,mbtiauth_7884
1572,"(14551, 1017, 2)",2,mbtiauth_7884
1573,"(14551, 1017, 113)",2,mbtiauth_7884
1574,"(15869, 64, 308)",2,mbtiauth_7884
1575,"(15869, 113, 113)",2,mbtiauth_7884
1576,"(15869, 248, 1511)",2,mbtiauth_7884
1577,"(15869, 714, 248)",2,mbtiauth_7884
1578,"(15869, 714, 1511)",2,mbtiauth_7884
1579,"(15869, 15869, 248)",2,mbtiauth_7884
1580,"(15869, 15869, 714)",2,mbtiauth_7884
1581,"(15869, 15869, 1511)",2,mbtiauth_7884
1582,"(30722, 15869, 317)",2,mbtiauth_7884
1583,"(48620, 31, 113)",2,mbtiauth_7884
1584,"(48620, 31, 2144)",2,mbtiauth_7884
1585,"(55165, 31, 1088)",2,mbtiauth_7884
1586,"(55165, 113, 1088)",2,mbtiauth_7884
1587,"(55165, 1088, 55165)",3,mbtiauth_7884
1588,"(55165, 2144, 1088)",2,mbtiauth_7884
1589,"(55165, 2144, 55165)",2,mbtiauth_7884
1590,"(2, 2162, 1017, 113)",2,mbtiauth_7884
1591,"(2, 2162, 14551, 113)",2,mbtiauth_7884
1592,"(2, 2162, 14551, 1017)",2,mbtiauth_7884
1593,"(2, 14551, 1017, 113)",2,mbtiauth_7884
1594,"(3, 2144, 22, 3)",2,mbtiauth_7884
1595,"(16, 113, 141, 16)",2,mbtiauth_7884
1596,"(16, 113, 194, 113)",2,mbtiauth_7884
1597,"(16, 248, 326, 113)",2,mbtiauth_7884
1598,"(22, 394, 113, 3)",2,mbtiauth_7884
1599,"(22, 394, 1088, 3)",2,mbtiauth_7884
1600,"(22, 394, 1088, 113)",2,mbtiauth_7884
1601,"(22, 1088, 113, 3)",2,mbtiauth_7884
1602,"(31, 64, 22, 54)",2,mbtiauth_7884
1603,"(31, 64, 936, 22)",2,mbtiauth_7884
1604,"(31, 64, 936, 54)",2,mbtiauth_7884
1605,"(31, 64, 941, 773)",2,mbtiauth_7884
1606,"(31, 66, 151, 31)",2,mbtiauth_7884
1607,"(31, 66, 151, 113)",2,mbtiauth_7884
1608,"(31, 66, 151, 1088)",2,mbtiauth_7884
1609,"(31, 66, 151, 55165)",2,mbtiauth_7884
1610,"(31, 66, 1088, 31)",2,mbtiauth_7884
1611,"(31, 66, 1088, 113)",2,mbtiauth_7884
1612,"(31, 66, 1088, 55165)",2,mbtiauth_7884
1613,"(31, 66, 55165, 31)",2,mbtiauth_7884
1614,"(31, 66, 55165, 113)",2,mbtiauth_7884
1615,"(31, 113, 22, 54)",2,mbtiauth_7884
1616,"(31, 113, 64, 22)",3,mbtiauth_7884
1617,"(31, 113, 64, 54)",2,mbtiauth_7884
1618,"(31, 113, 64, 936)",2,mbtiauth_7884
1619,"(31, 113, 936, 22)",2,mbtiauth_7884
1620,"(31, 113, 936, 54)",2,mbtiauth_7884
1621,"(31, 151, 1088, 31)",2,mbtiauth_7884
1622,"(31, 151, 1088, 113)",2,mbtiauth_7884
1623,"(31, 151, 1088, 55165)",2,mbtiauth_7884
1624,"(31, 151, 55165, 31)",2,mbtiauth_7884
1625,"(31, 151, 55165, 113)",2,mbtiauth_7884
1626,"(31, 936, 22, 54)",2,mbtiauth_7884
1627,"(31, 1088, 55165, 31)",2,mbtiauth_7884
1628,"(31, 1088, 55165, 113)",2,mbtiauth_7884
1629,"(32, 2144, 22, 871)",2,mbtiauth_7884
1630,"(32, 7550, 7360, 317)",2,mbtiauth_7884
1631,"(50, 163, 132367, 352)",2,mbtiauth_7884
1632,"(54, 80, 31, 113)",2,mbtiauth_7884
1633,"(54, 714, 31, 113)",2,mbtiauth_7884
1634,"(54, 714, 80, 31)",2,mbtiauth_7884
1635,"(54, 714, 80, 113)",2,mbtiauth_7884
1636,"(64, 22, 54, 113)",2,mbtiauth_7884
1637,"(64, 936, 22, 54)",2,mbtiauth_7884
1638,"(64, 936, 22, 113)",2,mbtiauth_7884
1639,"(64, 936, 54, 113)",2,mbtiauth_7884
1640,"(66, 151, 1088, 31)",2,mbtiauth_7884
1641,"(66, 151, 1088, 113)",2,mbtiauth_7884
1642,"(66, 151, 1088, 55165)",2,mbtiauth_7884
1643,"(66, 151, 55165, 31)",2,mbtiauth_7884
1644,"(66, 151, 55165, 113)",2,mbtiauth_7884
1645,"(66, 1088, 55165, 31)",2,mbtiauth_7884
1646,"(66, 1088, 55165, 113)",2,mbtiauth_7884
1647,"(80, 31, 64, 22)",3,mbtiauth_7884
1648,"(80, 31, 64, 773)",2,mbtiauth_7884
1649,"(80, 31, 64, 936)",2,mbtiauth_7884
1650,"(80, 31, 64, 941)",2,mbtiauth_7884
1651,"(80, 31, 113, 22)",3,mbtiauth_7884
1652,"(80, 31, 113, 64)",3,mbtiauth_7884
1653,"(80, 31, 113, 936)",2,mbtiauth_7884
1654,"(80, 31, 936, 22)",2,mbtiauth_7884
1655,"(80, 31, 941, 773)",2,mbtiauth_7884
1656,"(80, 64, 936, 22)",2,mbtiauth_7884
1657,"(80, 64, 941, 773)",2,mbtiauth_7884
1658,"(80, 113, 64, 22)",3,mbtiauth_7884
1659,"(80, 113, 64, 936)",2,mbtiauth_7884
1660,"(80, 113, 936, 22)",2,mbtiauth_7884
1661,"(81, 15869, 714, 248)",2,mbtiauth_7884
1662,"(81, 15869, 15869, 248)",2,mbtiauth_7884
1663,"(81, 15869, 15869, 714)",2,mbtiauth_7884
1664,"(113, 16, 113, 141)",2,mbtiauth_7884
1665,"(113, 16, 248, 141)",2,mbtiauth_7884
1666,"(113, 16, 248, 326)",2,mbtiauth_7884
1667,"(113, 22, 394, 113)",2,mbtiauth_7884
1668,"(113, 22, 394, 1088)",2,mbtiauth_7884
1669,"(113, 64, 22, 54)",2,mbtiauth_7884
1670,"(113, 64, 936, 22)",2,mbtiauth_7884
1671,"(113, 64, 936, 54)",2,mbtiauth_7884
1672,"(113, 80, 31, 113)",2,mbtiauth_7884
1673,"(113, 113, 141, 16)",2,mbtiauth_7884
1674,"(113, 141, 16, 113)",3,mbtiauth_7884
1675,"(113, 141, 16, 141)",3,mbtiauth_7884
1676,"(113, 141, 16, 151)",2,mbtiauth_7884
1677,"(113, 141, 16, 248)",3,mbtiauth_7884
1678,"(113, 141, 16, 326)",2,mbtiauth_7884
1679,"(113, 141, 22, 394)",2,mbtiauth_7884
1680,"(113, 141, 113, 3)",2,mbtiauth_7884
1681,"(113, 141, 151, 141)",2,mbtiauth_7884
1682,"(113, 141, 248, 141)",2,mbtiauth_7884
1683,"(113, 141, 248, 326)",2,mbtiauth_7884
1684,"(113, 141, 326, 141)",2,mbtiauth_7884
1685,"(113, 141, 326, 151)",2,mbtiauth_7884
1686,"(113, 141, 326, 182)",2,mbtiauth_7884
1687,"(113, 141, 786, 22)",2,mbtiauth_7884
1688,"(113, 141, 786, 394)",2,mbtiauth_7884
1689,"(113, 156, 64, 326)",3,mbtiauth_7884
1690,"(113, 156, 113, 156)",2,mbtiauth_7884
1691,"(113, 185, 317, 17800)",2,mbtiauth_7884
1692,"(113, 194, 3, 113)",2,mbtiauth_7884
1693,"(113, 194, 3, 871)",2,mbtiauth_7884
1694,"(113, 194, 113, 15)",2,mbtiauth_7884
1695,"(113, 194, 113, 340)",2,mbtiauth_7884
1696,"(113, 194, 221, 113)",2,mbtiauth_7884
1697,"(113, 200, 64, 326)",2,mbtiauth_7884
1698,"(113, 200, 156, 64)",2,mbtiauth_7884
1699,"(113, 200, 156, 326)",2,mbtiauth_7884
1700,"(113, 200, 182, 786)",2,mbtiauth_7884
1701,"(113, 200, 326, 182)",2,mbtiauth_7884
1702,"(113, 248, 113, 141)",2,mbtiauth_7884
1703,"(113, 248, 340, 22)",2,mbtiauth_7884
1704,"(113, 248, 340, 182)",2,mbtiauth_7884
1705,"(113, 248, 340, 248)",2,mbtiauth_7884
1706,"(113, 248, 340, 2144)",2,mbtiauth_7884
1707,"(113, 340, 22, 165)",2,mbtiauth_7884
1708,"(113, 714, 31, 113)",2,mbtiauth_7884
1709,"(113, 714, 80, 31)",2,mbtiauth_7884
1710,"(113, 714, 80, 113)",2,mbtiauth_7884
1711,"(113, 786, 22, 394)",2,mbtiauth_7884
1712,"(113, 936, 22, 54)",2,mbtiauth_7884
1713,"(113, 936, 54, 113)",2,mbtiauth_7884
1714,"(113, 941, 50, 773)",2,mbtiauth_7884
1715,"(113, 1105, 113, 194)",2,mbtiauth_7884
1716,"(131, 557, 141, 16)",2,mbtiauth_7884
1717,"(141, 16, 113, 16)",2,mbtiauth_7884
1718,"(141, 16, 113, 141)",2,mbtiauth_7884
1719,"(141, 16, 141, 16)",2,mbtiauth_7884
1720,"(141, 16, 141, 113)",2,mbtiauth_7884
1721,"(141, 16, 151, 113)",2,mbtiauth_7884
1722,"(141, 16, 248, 113)",2,mbtiauth_7884
1723,"(141, 16, 248, 141)",2,mbtiauth_7884
1724,"(141, 16, 248, 326)",2,mbtiauth_7884
1725,"(141, 16, 326, 113)",2,mbtiauth_7884
1726,"(141, 16, 815, 113)",2,mbtiauth_7884
1727,"(141, 16, 1088, 7550)",2,mbtiauth_7884
1728,"(141, 113, 141, 16)",2,mbtiauth_7884
1729,"(141, 248, 326, 113)",2,mbtiauth_7884
1730,"(141, 786, 22, 394)",2,mbtiauth_7884
1731,"(151, 1088, 31, 1088)",2,mbtiauth_7884
1732,"(151, 1088, 113, 1088)",2,mbtiauth_7884
1733,"(151, 1088, 55165, 31)",2,mbtiauth_7884
1734,"(151, 1088, 55165, 113)",2,mbtiauth_7884
1735,"(151, 1088, 55165, 1088)",2,mbtiauth_7884
1736,"(151, 55165, 31, 1088)",2,mbtiauth_7884
1737,"(151, 55165, 113, 1088)",2,mbtiauth_7884
1738,"(156, 64, 326, 3)",2,mbtiauth_7884
1739,"(156, 64, 326, 224)",2,mbtiauth_7884
1740,"(160, 557, 160, 50)",2,mbtiauth_7884
1741,"(190, 3062, 352, 1282)",2,mbtiauth_7884
1742,"(200, 156, 64, 326)",3,mbtiauth_7884
1743,"(200, 326, 224, 3)",2,mbtiauth_7884
1744,"(223, 3062, 113, 182)",2,mbtiauth_7884
1745,"(224, 1088, 511, 7550)",2,mbtiauth_7884
1746,"(234, 113, 194, 317)",2,mbtiauth_7884
1747,"(234, 424, 113, 194)",2,mbtiauth_7884
1748,"(234, 424, 113, 317)",2,mbtiauth_7884
1749,"(234, 424, 194, 317)",2,mbtiauth_7884
1750,"(234, 424, 7592, 113)",2,mbtiauth_7884
1751,"(234, 424, 7592, 194)",2,mbtiauth_7884
1752,"(234, 424, 7592, 317)",2,mbtiauth_7884
1753,"(234, 7592, 113, 194)",2,mbtiauth_7884
1754,"(234, 7592, 113, 317)",2,mbtiauth_7884
1755,"(234, 7592, 194, 317)",2,mbtiauth_7884
1756,"(248, 113, 141, 16)",2,mbtiauth_7884
1757,"(248, 113, 194, 113)",2,mbtiauth_7884
1758,"(248, 317, 1083, 113)",2,mbtiauth_7884
1759,"(248, 317, 1083, 248)",2,mbtiauth_7884
1760,"(248, 317, 1083, 7550)",2,mbtiauth_7884
1761,"(248, 340, 22, 165)",2,mbtiauth_7884
1762,"(248, 340, 248, 317)",2,mbtiauth_7884
1763,"(256, 3397, 16, 141)",2,mbtiauth_7884
1764,"(268, 510, 182, 476)",2,mbtiauth_7884
1765,"(317, 113, 3, 871)",2,mbtiauth_7884
1766,"(317, 113, 194, 3)",2,mbtiauth_7884
1767,"(317, 113, 194, 113)",2,mbtiauth_7884
1768,"(317, 113, 194, 871)",2,mbtiauth_7884
1769,"(317, 194, 3, 871)",2,mbtiauth_7884
1770,"(317, 1083, 7550, 248)",2,mbtiauth_7884
1771,"(394, 1088, 113, 3)",2,mbtiauth_7884
1772,"(406, 31, 113, 64)",2,mbtiauth_7884
1773,"(406, 80, 31, 64)",2,mbtiauth_7884
1774,"(406, 80, 31, 113)",2,mbtiauth_7884
1775,"(406, 80, 113, 64)",2,mbtiauth_7884
1776,"(424, 113, 194, 317)",2,mbtiauth_7884
1777,"(424, 7592, 113, 194)",2,mbtiauth_7884
1778,"(424, 7592, 113, 317)",2,mbtiauth_7884
1779,"(424, 7592, 194, 317)",2,mbtiauth_7884
1780,"(714, 31, 64, 22)",2,mbtiauth_7884
1781,"(714, 31, 64, 936)",2,mbtiauth_7884
1782,"(714, 31, 113, 22)",2,mbtiauth_7884
1783,"(714, 31, 113, 64)",3,mbtiauth_7884
1784,"(714, 31, 113, 936)",2,mbtiauth_7884
1785,"(714, 31, 936, 22)",2,mbtiauth_7884
1786,"(714, 64, 936, 22)",2,mbtiauth_7884
1787,"(714, 80, 31, 22)",2,mbtiauth_7884
1788,"(714, 80, 31, 64)",3,mbtiauth_7884
1789,"(714, 80, 31, 113)",3,mbtiauth_7884
1790,"(714, 80, 31, 936)",2,mbtiauth_7884
1791,"(714, 80, 64, 22)",2,mbtiauth_7884
1792,"(714, 80, 64, 936)",2,mbtiauth_7884
1793,"(714, 80, 113, 22)",2,mbtiauth_7884
1794,"(714, 80, 113, 64)",3,mbtiauth_7884
1795,"(714, 80, 113, 936)",2,mbtiauth_7884
1796,"(714, 80, 936, 22)",2,mbtiauth_7884
1797,"(714, 113, 64, 22)",2,mbtiauth_7884
1798,"(714, 113, 64, 936)",2,mbtiauth_7884
1799,"(714, 113, 248, 340)",2,mbtiauth_7884
1800,"(714, 113, 936, 22)",2,mbtiauth_7884
1801,"(714, 248, 317, 248)",2,mbtiauth_7884
1802,"(714, 248, 317, 1083)",2,mbtiauth_7884
1803,"(714, 248, 317, 7550)",2,mbtiauth_7884
1804,"(714, 248, 1083, 248)",2,mbtiauth_7884
1805,"(714, 248, 1083, 7550)",2,mbtiauth_7884
1806,"(714, 317, 1083, 248)",2,mbtiauth_7884
1807,"(714, 317, 1083, 7550)",2,mbtiauth_7884
1808,"(815, 1309, 113, 815)",2,mbtiauth_7884
1809,"(872, 113, 141, 16)",2,mbtiauth_7884
1810,"(936, 22, 54, 113)",2,mbtiauth_7884
1811,"(1083, 7550, 248, 29749)",2,mbtiauth_7884
1812,"(1088, 113, 194, 3)",2,mbtiauth_7884
1813,"(1088, 2144, 1088, 55165)",2,mbtiauth_7884
1814,"(1088, 55165, 31, 1088)",2,mbtiauth_7884
1815,"(1088, 55165, 113, 1088)",2,mbtiauth_7884
1816,"(1088, 55165, 1088, 55165)",2,mbtiauth_7884
1817,"(1088, 55165, 2144, 1088)",2,mbtiauth_7884
1818,"(1088, 55165, 2144, 55165)",2,mbtiauth_7884
1819,"(2144, 113, 22, 394)",2,mbtiauth_7884
1820,"(2162, 1017, 2, 113)",2,mbtiauth_7884
1821,"(2162, 14551, 2, 113)",2,mbtiauth_7884
1822,"(2162, 14551, 1017, 2)",2,mbtiauth_7884
1823,"(2162, 14551, 1017, 113)",2,mbtiauth_7884
1824,"(2500, 113, 16, 248)",2,mbtiauth_7884
1825,"(2500, 113, 141, 16)",2,mbtiauth_7884
1826,"(2500, 113, 141, 248)",2,mbtiauth_7884
1827,"(2500, 141, 16, 248)",2,mbtiauth_7884
1828,"(2500, 3397, 16, 248)",2,mbtiauth_7884
1829,"(2500, 3397, 113, 16)",2,mbtiauth_7884
1830,"(2500, 3397, 113, 141)",2,mbtiauth_7884
1831,"(2500, 3397, 113, 248)",2,mbtiauth_7884
1832,"(2500, 3397, 141, 16)",2,mbtiauth_7884
1833,"(2500, 3397, 141, 248)",2,mbtiauth_7884
1834,"(3397, 113, 16, 248)",2,mbtiauth_7884
1835,"(3397, 113, 141, 16)",2,mbtiauth_7884
1836,"(3397, 113, 141, 248)",2,mbtiauth_7884
1837,"(3397, 141, 16, 248)",2,mbtiauth_7884
1838,"(5077, 113, 16, 248)",2,mbtiauth_7884
1839,"(5077, 113, 141, 16)",2,mbtiauth_7884
1840,"(5077, 113, 141, 248)",2,mbtiauth_7884
1841,"(5077, 141, 16, 248)",2,mbtiauth_7884
1842,"(7592, 113, 194, 317)",2,mbtiauth_7884
1843,"(14551, 1017, 2, 113)",2,mbtiauth_7884
1844,"(15869, 714, 248, 1511)",2,mbtiauth_7884
1845,"(15869, 15869, 248, 1511)",2,mbtiauth_7884
1846,"(15869, 15869, 714, 248)",2,mbtiauth_7884
1847,"(15869, 15869, 714, 1511)",2,mbtiauth_7884
1848,"(55165, 2144, 1088, 55165)",2,mbtiauth_7884
1849,"(2, 2162, 14551, 1017, 113)",2,mbtiauth_7884
1850,"(22, 394, 1088, 113, 3)",2,mbtiauth_7884
1851,"(31, 64, 936, 22, 54)",2,mbtiauth_7884
1852,"(31, 66, 151, 1088, 31)",2,mbtiauth_7884
1853,"(31, 66, 151, 1088, 113)",2,mbtiauth_7884
1854,"(31, 66, 151, 1088, 55165)",2,mbtiauth_7884
1855,"(31, 66, 151, 55165, 31)",2,mbtiauth_7884
1856,"(31, 66, 151, 55165, 113)",2,mbtiauth_7884
1857,"(31, 66, 1088, 55165, 31)",2,mbtiauth_7884
1858,"(31, 66, 1088, 55165, 113)",2,mbtiauth_7884
1859,"(31, 113, 64, 22, 54)",2,mbtiauth_7884
1860,"(31, 113, 64, 936, 22)",2,mbtiauth_7884
1861,"(31, 113, 64, 936, 54)",2,mbtiauth_7884
1862,"(31, 113, 936, 22, 54)",2,mbtiauth_7884
1863,"(31, 151, 1088, 55165, 31)",2,mbtiauth_7884
1864,"(31, 151, 1088, 55165, 113)",2,mbtiauth_7884
1865,"(54, 714, 80, 31, 113)",2,mbtiauth_7884
1866,"(64, 936, 22, 54, 113)",2,mbtiauth_7884
1867,"(66, 151, 1088, 55165, 31)",2,mbtiauth_7884
1868,"(66, 151, 1088, 55165, 113)",2,mbtiauth_7884
1869,"(80, 31, 64, 936, 22)",2,mbtiauth_7884
1870,"(80, 31, 64, 941, 773)",2,mbtiauth_7884
1871,"(80, 31, 113, 64, 22)",3,mbtiauth_7884
1872,"(80, 31, 113, 64, 936)",2,mbtiauth_7884
1873,"(80, 31, 113, 936, 22)",2,mbtiauth_7884
1874,"(80, 113, 64, 936, 22)",2,mbtiauth_7884
1875,"(81, 15869, 15869, 714, 248)",2,mbtiauth_7884
1876,"(113, 64, 936, 22, 54)",2,mbtiauth_7884
1877,"(113, 141, 16, 248, 141)",2,mbtiauth_7884
1878,"(113, 141, 16, 248, 326)",2,mbtiauth_7884
1879,"(113, 141, 786, 22, 394)",2,mbtiauth_7884
1880,"(113, 200, 156, 64, 326)",2,mbtiauth_7884
1881,"(113, 714, 80, 31, 113)",2,mbtiauth_7884
1882,"(141, 16, 113, 141, 16)",2,mbtiauth_7884
1883,"(141, 16, 248, 326, 113)",2,mbtiauth_7884
1884,"(151, 1088, 55165, 31, 1088)",2,mbtiauth_7884
1885,"(151, 1088, 55165, 113, 1088)",2,mbtiauth_7884
1886,"(234, 424, 113, 194, 317)",2,mbtiauth_7884
1887,"(234, 424, 7592, 113, 194)",2,mbtiauth_7884
1888,"(234, 424, 7592, 113, 317)",2,mbtiauth_7884
1889,"(234, 424, 7592, 194, 317)",2,mbtiauth_7884
1890,"(234, 7592, 113, 194, 317)",2,mbtiauth_7884
1891,"(317, 113, 194, 3, 871)",2,mbtiauth_7884
1892,"(406, 80, 31, 113, 64)",2,mbtiauth_7884
1893,"(424, 7592, 113, 194, 317)",2,mbtiauth_7884
1894,"(714, 31, 64, 936, 22)",2,mbtiauth_7884
1895,"(714, 31, 113, 64, 22)",2,mbtiauth_7884
1896,"(714, 31, 113, 64, 936)",2,mbtiauth_7884
1897,"(714, 31, 113, 936, 22)",2,mbtiauth_7884
1898,"(714, 80, 31, 64, 22)",2,mbtiauth_7884
1899,"(714, 80, 31, 64, 936)",2,mbtiauth_7884
1900,"(714, 80, 31, 113, 22)",2,mbtiauth_7884
1901,"(714, 80, 31, 113, 64)",3,mbtiauth_7884
1902,"(714, 80, 31, 113, 936)",2,mbtiauth_7884
1903,"(714, 80, 31, 936, 22)",2,mbtiauth_7884
1904,"(714, 80, 64, 936, 22)",2,mbtiauth_7884
1905,"(714, 80, 113, 64, 22)",2,mbtiauth_7884
1906,"(714, 80, 113, 64, 936)",2,mbtiauth_7884
1907,"(714, 80, 113, 936, 22)",2,mbtiauth_7884
1908,"(714, 113, 64, 936, 22)",2,mbtiauth_7884
1909,"(714, 248, 317, 1083, 248)",2,mbtiauth_7884
1910,"(714, 248, 317, 1083, 7550)",2,mbtiauth_7884
1911,"(1088, 55165, 2144, 1088, 55165)",2,mbtiauth_7884
1912,"(2162, 14551, 1017, 2, 113)",2,mbtiauth_7884
1913,"(2500, 113, 141, 16, 248)",2,mbtiauth_7884
1914,"(2500, 3397, 113, 16, 248)",2,mbtiauth_7884
1915,"(2500, 3397, 113, 141, 16)",2,mbtiauth_7884
1916,"(2500, 3397, 113, 141, 248)",2,mbtiauth_7884
1917,"(2500, 3397, 141, 16, 248)",2,mbtiauth_7884
1918,"(3397, 113, 141, 16, 248)",2,mbtiauth_7884
1919,"(5077, 113, 141, 16, 248)",2,mbtiauth_7884
1920,"(15869, 15869, 714, 248, 1511)",2,mbtiauth_7884
1921,"(31, 66, 151, 1088, 55165, 31)",2,mbtiauth_7884
1922,"(31, 66, 151, 1088, 55165, 113)",2,mbtiauth_7884
1923,"(31, 113, 64, 936, 22, 54)",2,mbtiauth_7884
1924,"(80, 31, 113, 64, 936, 22)",2,mbtiauth_7884
1925,"(234, 424, 7592, 113, 194, 317)",2,mbtiauth_7884
1926,"(714, 31, 113, 64, 936, 22)",2,mbtiauth_7884
1927,"(714, 80, 31, 64, 936, 22)",2,mbtiauth_7884
1928,"(714, 80, 31, 113, 64, 22)",2,mbtiauth_7884
1929,"(714, 80, 31, 113, 64, 936)",2,mbtiauth_7884
1930,"(714, 80, 31, 113, 936, 22)",2,mbtiauth_7884
1931,"(714, 80, 113, 64, 936, 22)",2,mbtiauth_7884
1932,"(2500, 3397, 113, 141, 16, 248)",2,mbtiauth_7884
1933,"(714, 80, 31, 113, 64, 936, 22)",2,mbtiauth_7884
