,pattern,sup,author
1251,"(2, 7, 64)",2,mbtiauth_4429
1252,"(2, 33, 22)",2,mbtiauth_4429
1253,"(2, 50, 2)",2,mbtiauth_4429
1254,"(2, 64, 2)",2,mbtiauth_4429
1255,"(2, 64, 22)",2,mbtiauth_4429
1256,"(2, 76, 16)",2,mbtiauth_4429
1257,"(2, 76, 22)",2,mbtiauth_4429
1258,"(2, 76, 64)",2,mbtiauth_4429
1259,"(2, 76, 69)",2,mbtiauth_4429
1260,"(2, 76, 77)",2,mbtiauth_4429
1261,"(2, 76, 113)",5,mbtiauth_4429
1262,"(2, 76, 141)",2,mbtiauth_4429
1263,"(2, 76, 504)",2,mbtiauth_4429
1264,"(2, 113, 7)",2,mbtiauth_4429
1265,"(2, 113, 16)",2,mbtiauth_4429
1266,"(2, 113, 64)",4,mbtiauth_4429
1267,"(2, 113, 69)",2,mbtiauth_4429
1268,"(2, 113, 141)",3,mbtiauth_4429
1269,"(2, 113, 156)",2,mbtiauth_4429
1270,"(2, 113, 326)",2,mbtiauth_4429
1271,"(2, 141, 76)",2,mbtiauth_4429
1272,"(2, 156, 64)",2,mbtiauth_4429
1273,"(2, 160, 22)",2,mbtiauth_4429
1274,"(2, 187, 32)",2,mbtiauth_4429
1275,"(2, 213, 2)",2,mbtiauth_4429
1276,"(2, 232, 22)",2,mbtiauth_4429
1277,"(2, 232, 256)",2,mbtiauth_4429
1278,"(2, 758, 64)",2,mbtiauth_4429
1279,"(2, 758, 76)",2,mbtiauth_4429
1280,"(2, 758, 113)",2,mbtiauth_4429
1281,"(2, 60682, 32)",2,mbtiauth_4429
1282,"(2, 60682, 187)",2,mbtiauth_4429
1283,"(3, 2, 64)",4,mbtiauth_4429
1284,"(3, 2, 76)",3,mbtiauth_4429
1285,"(3, 2, 113)",3,mbtiauth_4429
1286,"(3, 3, 76)",2,mbtiauth_4429
1287,"(3, 3, 113)",3,mbtiauth_4429
1288,"(3, 7, 32)",2,mbtiauth_4429
1289,"(3, 22, 22)",2,mbtiauth_4429
1290,"(3, 22, 32)",2,mbtiauth_4429
1291,"(3, 22, 64)",2,mbtiauth_4429
1292,"(3, 22, 256)",2,mbtiauth_4429
1293,"(3, 31, 65)",4,mbtiauth_4429
1294,"(3, 33, 113)",2,mbtiauth_4429
1295,"(3, 33, 781)",2,mbtiauth_4429
1296,"(3, 50, 76)",2,mbtiauth_4429
1297,"(3, 64, 2)",2,mbtiauth_4429
1298,"(3, 64, 64)",2,mbtiauth_4429
1299,"(3, 64, 76)",2,mbtiauth_4429
1300,"(3, 65, 76)",3,mbtiauth_4429
1301,"(3, 65, 113)",2,mbtiauth_4429
1302,"(3, 65, 2000)",2,mbtiauth_4429
1303,"(3, 69, 65)",2,mbtiauth_4429
1304,"(3, 76, 2)",3,mbtiauth_4429
1305,"(3, 76, 3)",2,mbtiauth_4429
1306,"(3, 76, 32)",2,mbtiauth_4429
1307,"(3, 76, 65)",3,mbtiauth_4429
1308,"(3, 76, 69)",2,mbtiauth_4429
1309,"(3, 76, 113)",6,mbtiauth_4429
1310,"(3, 76, 161)",2,mbtiauth_4429
1311,"(3, 76, 194)",2,mbtiauth_4429
1312,"(3, 77, 182)",2,mbtiauth_4429
1313,"(3, 113, 2)",2,mbtiauth_4429
1314,"(3, 113, 3)",3,mbtiauth_4429
1315,"(3, 113, 7)",2,mbtiauth_4429
1316,"(3, 113, 16)",2,mbtiauth_4429
1317,"(3, 113, 32)",2,mbtiauth_4429
1318,"(3, 113, 64)",2,mbtiauth_4429
1319,"(3, 113, 76)",3,mbtiauth_4429
1320,"(3, 113, 113)",3,mbtiauth_4429
1321,"(3, 113, 141)",2,mbtiauth_4429
1322,"(3, 113, 194)",4,mbtiauth_4429
1323,"(3, 113, 256)",2,mbtiauth_4429
1324,"(3, 148, 150)",2,mbtiauth_4429
1325,"(3, 149, 3)",2,mbtiauth_4429
1326,"(3, 149, 76)",2,mbtiauth_4429
1327,"(3, 149, 113)",2,mbtiauth_4429
1328,"(3, 151, 3)",2,mbtiauth_4429
1329,"(3, 151, 22)",2,mbtiauth_4429
1330,"(3, 151, 1157)",2,mbtiauth_4429
1331,"(3, 160, 483)",2,mbtiauth_4429
1332,"(3, 161, 113)",2,mbtiauth_4429
1333,"(3, 224, 131)",2,mbtiauth_4429
1334,"(3, 224, 182)",2,mbtiauth_4429
1335,"(3, 234, 64)",2,mbtiauth_4429
1336,"(3, 250, 2)",2,mbtiauth_4429
1337,"(3, 250, 113)",2,mbtiauth_4429
1338,"(3, 264, 64)",2,mbtiauth_4429
1339,"(3, 312, 113)",3,mbtiauth_4429
1340,"(3, 781, 32)",2,mbtiauth_4429
1341,"(3, 1038, 32)",2,mbtiauth_4429
1342,"(3, 1038, 76)",3,mbtiauth_4429
1343,"(3, 4573, 64)",2,mbtiauth_4429
1344,"(7, 32, 113)",2,mbtiauth_4429
1345,"(7, 32, 182)",2,mbtiauth_4429
1346,"(7, 64, 32)",2,mbtiauth_4429
1347,"(7, 65, 2)",3,mbtiauth_4429
1348,"(7, 113, 10)",2,mbtiauth_4429
1349,"(7, 113, 214)",2,mbtiauth_4429
1350,"(7, 214, 10)",2,mbtiauth_4429
1351,"(7, 256, 32)",2,mbtiauth_4429
1352,"(7, 1020, 32)",2,mbtiauth_4429
1353,"(7, 1993, 32)",2,mbtiauth_4429
1354,"(7, 1993, 1020)",2,mbtiauth_4429
1355,"(10, 340, 76)",2,mbtiauth_4429
1356,"(16, 3, 22)",2,mbtiauth_4429
1357,"(16, 3, 113)",2,mbtiauth_4429
1358,"(16, 3, 557)",2,mbtiauth_4429
1359,"(16, 22, 113)",2,mbtiauth_4429
1360,"(16, 29, 76)",2,mbtiauth_4429
1361,"(16, 113, 64)",2,mbtiauth_4429
1362,"(16, 113, 76)",2,mbtiauth_4429
1363,"(16, 115, 76)",2,mbtiauth_4429
1364,"(16, 141, 76)",2,mbtiauth_4429
1365,"(16, 151, 76)",2,mbtiauth_4429
1366,"(16, 182, 3)",2,mbtiauth_4429
1367,"(16, 182, 77)",2,mbtiauth_4429
1368,"(16, 557, 113)",2,mbtiauth_4429
1369,"(22, 2, 2)",2,mbtiauth_4429
1370,"(22, 2, 64)",2,mbtiauth_4429
1371,"(22, 2, 113)",2,mbtiauth_4429
1372,"(22, 2, 256)",2,mbtiauth_4429
1373,"(22, 3, 76)",2,mbtiauth_4429
1374,"(22, 22, 22)",3,mbtiauth_4429
1375,"(22, 22, 32)",3,mbtiauth_4429
1376,"(22, 22, 1597)",2,mbtiauth_4429
1377,"(22, 31, 22)",2,mbtiauth_4429
1378,"(22, 32, 22)",3,mbtiauth_4429
1379,"(22, 32, 32)",2,mbtiauth_4429
1380,"(22, 32, 64)",2,mbtiauth_4429
1381,"(22, 32, 69)",2,mbtiauth_4429
1382,"(22, 32, 76)",2,mbtiauth_4429
1383,"(22, 32, 1597)",2,mbtiauth_4429
1384,"(22, 39, 3)",2,mbtiauth_4429
1385,"(22, 64, 2)",3,mbtiauth_4429
1386,"(22, 75, 2)",2,mbtiauth_4429
1387,"(22, 75, 76)",2,mbtiauth_4429
1388,"(22, 75, 182)",2,mbtiauth_4429
1389,"(22, 76, 2)",2,mbtiauth_4429
1390,"(22, 76, 64)",2,mbtiauth_4429
1391,"(22, 76, 69)",2,mbtiauth_4429
1392,"(22, 76, 113)",3,mbtiauth_4429
1393,"(22, 76, 151)",2,mbtiauth_4429
1394,"(22, 76, 182)",4,mbtiauth_4429
1395,"(22, 76, 224)",2,mbtiauth_4429
1396,"(22, 77, 182)",2,mbtiauth_4429
1397,"(22, 77, 224)",2,mbtiauth_4429
1398,"(22, 113, 2)",2,mbtiauth_4429
1399,"(22, 113, 3)",2,mbtiauth_4429
1400,"(22, 113, 76)",2,mbtiauth_4429
1401,"(22, 113, 118)",2,mbtiauth_4429
1402,"(22, 113, 182)",2,mbtiauth_4429
1403,"(22, 151, 22)",2,mbtiauth_4429
1404,"(22, 160, 2)",3,mbtiauth_4429
1405,"(22, 182, 2)",2,mbtiauth_4429
1406,"(22, 187, 32)",2,mbtiauth_4429
1407,"(22, 256, 2)",2,mbtiauth_4429
1408,"(22, 394, 22)",2,mbtiauth_4429
1409,"(22, 394, 69)",2,mbtiauth_4429
1410,"(22, 394, 76)",2,mbtiauth_4429
1411,"(22, 394, 244)",2,mbtiauth_4429
1412,"(22, 502, 2)",2,mbtiauth_4429
1413,"(22, 502, 75)",2,mbtiauth_4429
1414,"(22, 502, 76)",2,mbtiauth_4429
1415,"(22, 502, 182)",2,mbtiauth_4429
1416,"(22, 557, 113)",2,mbtiauth_4429
1417,"(22, 5620, 256)",2,mbtiauth_4429
1418,"(22, 7884, 32)",2,mbtiauth_4429
1419,"(27, 7, 3)",3,mbtiauth_4429
1420,"(27, 7, 22)",2,mbtiauth_4429
1421,"(27, 113, 3)",3,mbtiauth_4429
1422,"(27, 113, 64)",2,mbtiauth_4429
1423,"(27, 113, 76)",2,mbtiauth_4429
1424,"(31, 22, 75)",2,mbtiauth_4429
1425,"(31, 22, 76)",2,mbtiauth_4429
1426,"(31, 22, 113)",3,mbtiauth_4429
1427,"(31, 22, 182)",2,mbtiauth_4429
1428,"(31, 22, 502)",2,mbtiauth_4429
1429,"(31, 65, 22)",3,mbtiauth_4429
1430,"(31, 65, 113)",2,mbtiauth_4429
1431,"(31, 65, 149)",2,mbtiauth_4429
1432,"(31, 75, 76)",3,mbtiauth_4429
1433,"(31, 75, 182)",2,mbtiauth_4429
1434,"(31, 76, 65)",2,mbtiauth_4429
1435,"(31, 76, 113)",2,mbtiauth_4429
1436,"(31, 76, 182)",2,mbtiauth_4429
1437,"(31, 113, 64)",2,mbtiauth_4429
1438,"(31, 502, 75)",2,mbtiauth_4429
1439,"(31, 502, 76)",2,mbtiauth_4429
1440,"(31, 502, 182)",2,mbtiauth_4429
1441,"(32, 3, 76)",2,mbtiauth_4429
1442,"(32, 22, 113)",3,mbtiauth_4429
1443,"(32, 22, 1597)",2,mbtiauth_4429
1444,"(32, 64, 76)",2,mbtiauth_4429
1445,"(32, 64, 141)",2,mbtiauth_4429
1446,"(32, 66, 76)",2,mbtiauth_4429
1447,"(32, 76, 32)",3,mbtiauth_4429
1448,"(32, 76, 64)",2,mbtiauth_4429
1449,"(32, 76, 65)",2,mbtiauth_4429
1450,"(32, 76, 76)",2,mbtiauth_4429
1451,"(32, 76, 113)",5,mbtiauth_4429
1452,"(32, 113, 3)",2,mbtiauth_4429
1453,"(32, 113, 64)",4,mbtiauth_4429
1454,"(32, 113, 65)",2,mbtiauth_4429
1455,"(32, 113, 76)",3,mbtiauth_4429
1456,"(32, 113, 113)",2,mbtiauth_4429
1457,"(32, 113, 403)",2,mbtiauth_4429
1458,"(32, 182, 64)",2,mbtiauth_4429
1459,"(32, 187, 32)",2,mbtiauth_4429
1460,"(32, 484, 113)",2,mbtiauth_4429
1461,"(32, 557, 113)",2,mbtiauth_4429
1462,"(33, 22, 39)",2,mbtiauth_4429
1463,"(33, 22, 69)",2,mbtiauth_4429
1464,"(33, 22, 76)",3,mbtiauth_4429
1465,"(33, 22, 151)",2,mbtiauth_4429
1466,"(33, 22, 244)",2,mbtiauth_4429
1467,"(33, 22, 394)",2,mbtiauth_4429
1468,"(33, 22, 692)",2,mbtiauth_4429
1469,"(33, 182, 3)",2,mbtiauth_4429
1470,"(33, 250, 113)",2,mbtiauth_4429
1471,"(33, 394, 76)",2,mbtiauth_4429
1472,"(33, 394, 244)",2,mbtiauth_4429
1473,"(39, 22, 557)",2,mbtiauth_4429
1474,"(41, 7, 32)",2,mbtiauth_4429
1475,"(41, 7, 1020)",2,mbtiauth_4429
1476,"(41, 7, 1993)",2,mbtiauth_4429
1477,"(41, 76, 113)",2,mbtiauth_4429
1478,"(41, 113, 2)",2,mbtiauth_4429
1479,"(41, 504, 41)",2,mbtiauth_4429
1480,"(41, 1020, 32)",2,mbtiauth_4429
1481,"(41, 1993, 32)",2,mbtiauth_4429
1482,"(41, 1993, 1020)",2,mbtiauth_4429
1483,"(50, 3, 3)",3,mbtiauth_4429
1484,"(50, 3, 76)",3,mbtiauth_4429
1485,"(50, 3, 113)",3,mbtiauth_4429
1486,"(50, 50, 113)",2,mbtiauth_4429
1487,"(50, 54, 3)",2,mbtiauth_4429
1488,"(50, 64, 76)",2,mbtiauth_4429
1489,"(50, 65, 3)",2,mbtiauth_4429
1490,"(50, 75, 113)",2,mbtiauth_4429
1491,"(50, 76, 3)",2,mbtiauth_4429
1492,"(50, 76, 65)",2,mbtiauth_4429
1493,"(50, 76, 113)",5,mbtiauth_4429
1494,"(50, 113, 3)",2,mbtiauth_4429
1495,"(50, 149, 3)",2,mbtiauth_4429
1496,"(50, 304, 76)",2,mbtiauth_4429
1497,"(50, 304, 113)",2,mbtiauth_4429
1498,"(54, 3, 113)",2,mbtiauth_4429
1499,"(64, 2, 2)",2,mbtiauth_4429
1500,"(64, 2, 64)",3,mbtiauth_4429
1501,"(64, 2, 76)",2,mbtiauth_4429
1502,"(64, 2, 113)",3,mbtiauth_4429
1503,"(64, 2, 758)",2,mbtiauth_4429
1504,"(64, 3, 7)",2,mbtiauth_4429
1505,"(64, 3, 65)",2,mbtiauth_4429
1506,"(64, 3, 76)",3,mbtiauth_4429
1507,"(64, 3, 113)",2,mbtiauth_4429
1508,"(64, 3, 1038)",2,mbtiauth_4429
1509,"(64, 22, 2)",2,mbtiauth_4429
1510,"(64, 22, 32)",2,mbtiauth_4429
1511,"(64, 22, 65)",2,mbtiauth_4429
1512,"(64, 22, 113)",2,mbtiauth_4429
1513,"(64, 27, 113)",3,mbtiauth_4429
1514,"(64, 32, 3)",2,mbtiauth_4429
1515,"(64, 32, 76)",3,mbtiauth_4429
1516,"(64, 32, 113)",3,mbtiauth_4429
1517,"(64, 64, 2)",2,mbtiauth_4429
1518,"(64, 64, 141)",2,mbtiauth_4429
1519,"(64, 65, 76)",2,mbtiauth_4429
1520,"(64, 66, 76)",2,mbtiauth_4429
1521,"(64, 76, 3)",2,mbtiauth_4429
1522,"(64, 76, 65)",2,mbtiauth_4429
1523,"(64, 76, 69)",2,mbtiauth_4429
1524,"(64, 76, 113)",6,mbtiauth_4429
1525,"(64, 76, 224)",3,mbtiauth_4429
1526,"(64, 76, 504)",2,mbtiauth_4429
1527,"(64, 113, 3)",2,mbtiauth_4429
1528,"(64, 113, 7)",2,mbtiauth_4429
1529,"(64, 113, 64)",3,mbtiauth_4429
1530,"(64, 113, 65)",2,mbtiauth_4429
1531,"(64, 113, 69)",2,mbtiauth_4429
1532,"(64, 113, 76)",3,mbtiauth_4429
1533,"(64, 113, 111)",2,mbtiauth_4429
1534,"(64, 113, 113)",2,mbtiauth_4429
1535,"(64, 113, 141)",2,mbtiauth_4429
1536,"(64, 113, 504)",2,mbtiauth_4429
1537,"(64, 115, 113)",2,mbtiauth_4429
1538,"(64, 160, 113)",2,mbtiauth_4429
1539,"(64, 194, 113)",2,mbtiauth_4429
1540,"(64, 256, 65)",2,mbtiauth_4429
1541,"(64, 692, 113)",2,mbtiauth_4429
1542,"(64, 692, 115)",2,mbtiauth_4429
1543,"(64, 758, 76)",2,mbtiauth_4429
1544,"(64, 758, 113)",2,mbtiauth_4429
1545,"(64, 1038, 76)",2,mbtiauth_4429
1546,"(64, 1547, 64)",2,mbtiauth_4429
1547,"(65, 2, 22)",2,mbtiauth_4429
1548,"(65, 2, 32)",2,mbtiauth_4429
1549,"(65, 3, 76)",3,mbtiauth_4429
1550,"(65, 3, 141)",2,mbtiauth_4429
1551,"(65, 3, 224)",2,mbtiauth_4429
1552,"(65, 22, 113)",2,mbtiauth_4429
1553,"(65, 32, 113)",2,mbtiauth_4429
1554,"(65, 33, 22)",3,mbtiauth_4429
1555,"(65, 65, 2)",2,mbtiauth_4429
1556,"(65, 76, 113)",3,mbtiauth_4429
1557,"(65, 77, 3)",2,mbtiauth_4429
1558,"(65, 113, 64)",2,mbtiauth_4429
1559,"(65, 113, 65)",2,mbtiauth_4429
1560,"(65, 113, 113)",3,mbtiauth_4429
1561,"(65, 113, 786)",2,mbtiauth_4429
1562,"(65, 149, 64)",3,mbtiauth_4429
1563,"(65, 149, 113)",3,mbtiauth_4429
1564,"(65, 182, 3)",2,mbtiauth_4429
1565,"(65, 187, 32)",2,mbtiauth_4429
1566,"(65, 264, 64)",2,mbtiauth_4429
1567,"(65, 418, 3)",2,mbtiauth_4429
1568,"(65, 510, 65)",2,mbtiauth_4429
1569,"(65, 557, 113)",2,mbtiauth_4429
1570,"(65, 576, 64)",2,mbtiauth_4429
1571,"(65, 6159, 3)",2,mbtiauth_4429
1572,"(65, 6159, 76)",2,mbtiauth_4429
1573,"(66, 32, 22)",2,mbtiauth_4429
1574,"(66, 76, 22)",2,mbtiauth_4429
1575,"(66, 76, 32)",2,mbtiauth_4429
1576,"(66, 76, 50)",2,mbtiauth_4429
1577,"(66, 76, 182)",2,mbtiauth_4429
1578,"(69, 16, 113)",2,mbtiauth_4429
1579,"(69, 65, 113)",2,mbtiauth_4429
1580,"(69, 65, 557)",2,mbtiauth_4429
1581,"(69, 356, 151)",2,mbtiauth_4429
1582,"(69, 557, 113)",2,mbtiauth_4429
1583,"(75, 76, 2)",2,mbtiauth_4429
1584,"(75, 76, 113)",2,mbtiauth_4429
1585,"(75, 76, 141)",2,mbtiauth_4429
1586,"(75, 76, 182)",2,mbtiauth_4429
1587,"(75, 182, 2)",2,mbtiauth_4429
1588,"(76, 2, 76)",3,mbtiauth_4429
1589,"(76, 2, 113)",2,mbtiauth_4429
1590,"(76, 2, 232)",2,mbtiauth_4429
1591,"(76, 2, 256)",2,mbtiauth_4429
1592,"(76, 3, 3)",2,mbtiauth_4429
1593,"(76, 3, 22)",4,mbtiauth_4429
1594,"(76, 3, 33)",2,mbtiauth_4429
1595,"(76, 3, 64)",4,mbtiauth_4429
1596,"(76, 3, 76)",3,mbtiauth_4429
1597,"(76, 3, 77)",2,mbtiauth_4429
1598,"(76, 3, 113)",5,mbtiauth_4429
1599,"(76, 3, 148)",2,mbtiauth_4429
1600,"(76, 3, 150)",2,mbtiauth_4429
1601,"(76, 3, 151)",2,mbtiauth_4429
1602,"(76, 3, 161)",2,mbtiauth_4429
1603,"(76, 3, 1120)",2,mbtiauth_4429
1604,"(76, 3, 4573)",2,mbtiauth_4429
1605,"(76, 7, 22)",2,mbtiauth_4429
1606,"(76, 7, 65)",2,mbtiauth_4429
1607,"(76, 16, 76)",2,mbtiauth_4429
1608,"(76, 22, 31)",2,mbtiauth_4429
1609,"(76, 22, 32)",2,mbtiauth_4429
1610,"(76, 22, 76)",3,mbtiauth_4429
1611,"(76, 22, 113)",4,mbtiauth_4429
1612,"(76, 22, 213)",2,mbtiauth_4429
1613,"(76, 27, 3)",2,mbtiauth_4429
1614,"(76, 27, 7)",2,mbtiauth_4429
1615,"(76, 27, 22)",2,mbtiauth_4429
1616,"(76, 31, 22)",2,mbtiauth_4429
1617,"(76, 32, 22)",3,mbtiauth_4429
1618,"(76, 32, 76)",4,mbtiauth_4429
1619,"(76, 32, 113)",3,mbtiauth_4429
1620,"(76, 32, 557)",2,mbtiauth_4429
1621,"(76, 50, 76)",4,mbtiauth_4429
1622,"(76, 50, 304)",2,mbtiauth_4429
1623,"(76, 64, 2)",2,mbtiauth_4429
1624,"(76, 64, 76)",3,mbtiauth_4429
1625,"(76, 64, 113)",2,mbtiauth_4429
1626,"(76, 65, 3)",4,mbtiauth_4429
1627,"(76, 65, 22)",3,mbtiauth_4429
1628,"(76, 65, 76)",2,mbtiauth_4429
1629,"(76, 65, 781)",2,mbtiauth_4429
1630,"(76, 66, 76)",2,mbtiauth_4429
1631,"(76, 69, 16)",2,mbtiauth_4429
1632,"(76, 69, 22)",2,mbtiauth_4429
1633,"(76, 69, 65)",2,mbtiauth_4429
1634,"(76, 76, 66)",2,mbtiauth_4429
1635,"(76, 76, 76)",2,mbtiauth_4429
1636,"(76, 76, 113)",3,mbtiauth_4429
1637,"(76, 76, 224)",2,mbtiauth_4429
1638,"(76, 77, 76)",2,mbtiauth_4429
1639,"(76, 77, 113)",2,mbtiauth_4429
1640,"(76, 77, 182)",2,mbtiauth_4429
1641,"(76, 113, 2)",3,mbtiauth_4429
1642,"(76, 113, 3)",7,mbtiauth_4429
1643,"(76, 113, 7)",4,mbtiauth_4429
1644,"(76, 113, 10)",2,mbtiauth_4429
1645,"(76, 113, 16)",4,mbtiauth_4429
1646,"(76, 113, 22)",4,mbtiauth_4429
1647,"(76, 113, 29)",2,mbtiauth_4429
1648,"(76, 113, 32)",5,mbtiauth_4429
1649,"(76, 113, 33)",3,mbtiauth_4429
1650,"(76, 113, 50)",3,mbtiauth_4429
1651,"(76, 113, 64)",2,mbtiauth_4429
1652,"(76, 113, 65)",4,mbtiauth_4429
1653,"(76, 113, 69)",2,mbtiauth_4429
1654,"(76, 113, 76)",8,mbtiauth_4429
1655,"(76, 113, 113)",6,mbtiauth_4429
1656,"(76, 113, 118)",4,mbtiauth_4429
1657,"(76, 113, 131)",2,mbtiauth_4429
1658,"(76, 113, 141)",5,mbtiauth_4429
1659,"(76, 113, 161)",3,mbtiauth_4429
1660,"(76, 113, 182)",3,mbtiauth_4429
1661,"(76, 113, 187)",2,mbtiauth_4429
1662,"(76, 113, 194)",4,mbtiauth_4429
1663,"(76, 113, 208)",3,mbtiauth_4429
1664,"(76, 113, 214)",2,mbtiauth_4429
1665,"(76, 113, 221)",2,mbtiauth_4429
1666,"(76, 113, 224)",2,mbtiauth_4429
1667,"(76, 113, 232)",2,mbtiauth_4429
1668,"(76, 113, 250)",2,mbtiauth_4429
1669,"(76, 113, 256)",2,mbtiauth_4429
1670,"(76, 113, 272)",2,mbtiauth_4429
1671,"(76, 113, 308)",2,mbtiauth_4429
1672,"(76, 113, 493)",2,mbtiauth_4429
1673,"(76, 113, 504)",3,mbtiauth_4429
1674,"(76, 113, 811)",2,mbtiauth_4429
1675,"(76, 113, 5980)",2,mbtiauth_4429
1676,"(76, 118, 187)",2,mbtiauth_4429
1677,"(76, 131, 3)",3,mbtiauth_4429
1678,"(76, 141, 22)",2,mbtiauth_4429
1679,"(76, 141, 182)",2,mbtiauth_4429
1680,"(76, 148, 150)",2,mbtiauth_4429
1681,"(76, 149, 3)",2,mbtiauth_4429
1682,"(76, 151, 3)",3,mbtiauth_4429
1683,"(76, 151, 22)",2,mbtiauth_4429
1684,"(76, 151, 76)",3,mbtiauth_4429
1685,"(76, 151, 113)",2,mbtiauth_4429
1686,"(76, 160, 3)",2,mbtiauth_4429
1687,"(76, 182, 2)",2,mbtiauth_4429
1688,"(76, 182, 3)",4,mbtiauth_4429
1689,"(76, 182, 7)",2,mbtiauth_4429
1690,"(76, 182, 64)",2,mbtiauth_4429
1691,"(76, 182, 76)",2,mbtiauth_4429
1692,"(76, 182, 77)",3,mbtiauth_4429
1693,"(76, 182, 113)",3,mbtiauth_4429
1694,"(76, 182, 141)",2,mbtiauth_4429
1695,"(76, 182, 182)",2,mbtiauth_4429
1696,"(76, 182, 4573)",2,mbtiauth_4429
1697,"(76, 194, 3)",2,mbtiauth_4429
1698,"(76, 208, 22)",2,mbtiauth_4429
1699,"(76, 208, 32)",2,mbtiauth_4429
1700,"(76, 224, 33)",2,mbtiauth_4429
1701,"(76, 232, 76)",2,mbtiauth_4429
1702,"(76, 304, 76)",2,mbtiauth_4429
1703,"(76, 484, 113)",2,mbtiauth_4429
1704,"(76, 584, 113)",2,mbtiauth_4429
1705,"(76, 814, 65)",2,mbtiauth_4429
1706,"(76, 2000, 22)",2,mbtiauth_4429
1707,"(76, 4119, 225)",2,mbtiauth_4429
1708,"(76, 4573, 64)",2,mbtiauth_4429
1709,"(76, 5980, 504)",2,mbtiauth_4429
1710,"(77, 3, 76)",3,mbtiauth_4429
1711,"(77, 22, 113)",2,mbtiauth_4429
1712,"(77, 64, 76)",2,mbtiauth_4429
1713,"(77, 65, 76)",3,mbtiauth_4429
1714,"(77, 113, 3)",3,mbtiauth_4429
1715,"(77, 113, 65)",2,mbtiauth_4429
1716,"(77, 113, 76)",3,mbtiauth_4429
1717,"(77, 113, 141)",2,mbtiauth_4429
1718,"(77, 113, 194)",2,mbtiauth_4429
1719,"(77, 161, 76)",3,mbtiauth_4429
1720,"(77, 161, 257)",2,mbtiauth_4429
1721,"(77, 182, 65)",2,mbtiauth_4429
1722,"(77, 182, 76)",2,mbtiauth_4429
1723,"(77, 224, 76)",2,mbtiauth_4429
1724,"(111, 64, 141)",2,mbtiauth_4429
1725,"(113, 2, 7)",2,mbtiauth_4429
1726,"(113, 2, 16)",2,mbtiauth_4429
1727,"(113, 2, 64)",2,mbtiauth_4429
1728,"(113, 2, 76)",3,mbtiauth_4429
1729,"(113, 2, 113)",4,mbtiauth_4429
1730,"(113, 2, 141)",2,mbtiauth_4429
1731,"(113, 2, 256)",2,mbtiauth_4429
1732,"(113, 2, 758)",2,mbtiauth_4429
1733,"(113, 3, 2)",4,mbtiauth_4429
1734,"(113, 3, 10)",3,mbtiauth_4429
1735,"(113, 3, 16)",2,mbtiauth_4429
1736,"(113, 3, 22)",3,mbtiauth_4429
1737,"(113, 3, 32)",3,mbtiauth_4429
1738,"(113, 3, 33)",2,mbtiauth_4429
1739,"(113, 3, 65)",3,mbtiauth_4429
1740,"(113, 3, 76)",7,mbtiauth_4429
1741,"(113, 3, 113)",7,mbtiauth_4429
1742,"(113, 3, 148)",2,mbtiauth_4429
1743,"(113, 3, 150)",2,mbtiauth_4429
1744,"(113, 3, 151)",2,mbtiauth_4429
1745,"(113, 3, 161)",2,mbtiauth_4429
1746,"(113, 3, 194)",2,mbtiauth_4429
1747,"(113, 3, 264)",2,mbtiauth_4429
1748,"(113, 3, 312)",3,mbtiauth_4429
1749,"(113, 3, 781)",2,mbtiauth_4429
1750,"(113, 3, 1038)",3,mbtiauth_4429
1751,"(113, 7, 2)",3,mbtiauth_4429
1752,"(113, 7, 10)",2,mbtiauth_4429
1753,"(113, 7, 16)",2,mbtiauth_4429
1754,"(113, 7, 32)",3,mbtiauth_4429
1755,"(113, 7, 64)",3,mbtiauth_4429
1756,"(113, 7, 65)",3,mbtiauth_4429
1757,"(113, 7, 113)",3,mbtiauth_4429
1758,"(113, 7, 141)",2,mbtiauth_4429
1759,"(113, 7, 182)",2,mbtiauth_4429
1760,"(113, 7, 214)",2,mbtiauth_4429
1761,"(113, 7, 484)",2,mbtiauth_4429
1762,"(113, 16, 10)",2,mbtiauth_4429
1763,"(113, 16, 557)",2,mbtiauth_4429
1764,"(113, 16, 1534)",2,mbtiauth_4429
1765,"(113, 22, 32)",3,mbtiauth_4429
1766,"(113, 22, 64)",2,mbtiauth_4429
1767,"(113, 22, 160)",2,mbtiauth_4429
1768,"(113, 22, 557)",3,mbtiauth_4429
1769,"(113, 27, 113)",2,mbtiauth_4429
1770,"(113, 31, 113)",2,mbtiauth_4429
1771,"(113, 32, 66)",2,mbtiauth_4429
1772,"(113, 32, 76)",3,mbtiauth_4429
1773,"(113, 32, 113)",2,mbtiauth_4429
1774,"(113, 32, 182)",3,mbtiauth_4429
1775,"(113, 33, 2)",2,mbtiauth_4429
1776,"(113, 33, 113)",2,mbtiauth_4429
1777,"(113, 39, 3)",2,mbtiauth_4429
1778,"(113, 39, 16)",2,mbtiauth_4429
1779,"(113, 39, 22)",2,mbtiauth_4429
1780,"(113, 39, 182)",2,mbtiauth_4429
1781,"(113, 39, 557)",2,mbtiauth_4429
1782,"(113, 50, 65)",3,mbtiauth_4429
1783,"(113, 64, 2)",3,mbtiauth_4429
1784,"(113, 64, 3)",3,mbtiauth_4429
1785,"(113, 64, 22)",2,mbtiauth_4429
1786,"(113, 64, 27)",2,mbtiauth_4429
1787,"(113, 64, 31)",2,mbtiauth_4429
1788,"(113, 64, 32)",3,mbtiauth_4429
1789,"(113, 64, 64)",3,mbtiauth_4429
1790,"(113, 64, 65)",3,mbtiauth_4429
1791,"(113, 64, 76)",6,mbtiauth_4429
1792,"(113, 64, 113)",8,mbtiauth_4429
1793,"(113, 64, 115)",3,mbtiauth_4429
1794,"(113, 64, 141)",3,mbtiauth_4429
1795,"(113, 64, 160)",3,mbtiauth_4429
1796,"(113, 64, 256)",2,mbtiauth_4429
1797,"(113, 64, 312)",2,mbtiauth_4429
1798,"(113, 64, 692)",2,mbtiauth_4429
1799,"(113, 64, 1547)",2,mbtiauth_4429
1800,"(113, 65, 2)",3,mbtiauth_4429
1801,"(113, 65, 3)",2,mbtiauth_4429
1802,"(113, 65, 65)",2,mbtiauth_4429
1803,"(113, 65, 76)",2,mbtiauth_4429
1804,"(113, 65, 115)",2,mbtiauth_4429
1805,"(113, 66, 76)",2,mbtiauth_4429
1806,"(113, 75, 64)",2,mbtiauth_4429
1807,"(113, 76, 2)",3,mbtiauth_4429
1808,"(113, 76, 3)",3,mbtiauth_4429
1809,"(113, 76, 16)",2,mbtiauth_4429
1810,"(113, 76, 31)",2,mbtiauth_4429
1811,"(113, 76, 32)",2,mbtiauth_4429
1812,"(113, 76, 64)",2,mbtiauth_4429
1813,"(113, 76, 65)",4,mbtiauth_4429
1814,"(113, 76, 66)",2,mbtiauth_4429
1815,"(113, 76, 76)",3,mbtiauth_4429
1816,"(113, 76, 113)",8,mbtiauth_4429
1817,"(113, 76, 250)",2,mbtiauth_4429
1818,"(113, 77, 65)",2,mbtiauth_4429
1819,"(113, 77, 161)",3,mbtiauth_4429
1820,"(113, 111, 64)",2,mbtiauth_4429
1821,"(113, 111, 141)",2,mbtiauth_4429
1822,"(113, 113, 2)",3,mbtiauth_4429
1823,"(113, 113, 7)",2,mbtiauth_4429
1824,"(113, 113, 10)",2,mbtiauth_4429
1825,"(113, 113, 16)",2,mbtiauth_4429
1826,"(113, 113, 32)",2,mbtiauth_4429
1827,"(113, 113, 64)",2,mbtiauth_4429
1828,"(113, 113, 76)",4,mbtiauth_4429
1829,"(113, 113, 113)",2,mbtiauth_4429
1830,"(113, 113, 118)",2,mbtiauth_4429
1831,"(113, 113, 187)",2,mbtiauth_4429
1832,"(113, 113, 194)",2,mbtiauth_4429
1833,"(113, 113, 214)",3,mbtiauth_4429
1834,"(113, 113, 250)",3,mbtiauth_4429
1835,"(113, 113, 256)",2,mbtiauth_4429
1836,"(113, 113, 326)",2,mbtiauth_4429
1837,"(113, 113, 403)",2,mbtiauth_4429
1838,"(113, 113, 506)",2,mbtiauth_4429
1839,"(113, 115, 113)",2,mbtiauth_4429
1840,"(113, 118, 187)",2,mbtiauth_4429
1841,"(113, 141, 2)",2,mbtiauth_4429
1842,"(113, 141, 50)",2,mbtiauth_4429
1843,"(113, 141, 76)",2,mbtiauth_4429
1844,"(113, 141, 113)",2,mbtiauth_4429
1845,"(113, 141, 326)",2,mbtiauth_4429
1846,"(113, 148, 150)",2,mbtiauth_4429
1847,"(113, 151, 3)",2,mbtiauth_4429
1848,"(113, 155, 64)",2,mbtiauth_4429
1849,"(113, 155, 113)",2,mbtiauth_4429
1850,"(113, 155, 141)",2,mbtiauth_4429
1851,"(113, 156, 31)",2,mbtiauth_4429
1852,"(113, 156, 64)",5,mbtiauth_4429
1853,"(113, 156, 76)",2,mbtiauth_4429
1854,"(113, 156, 113)",3,mbtiauth_4429
1855,"(113, 156, 115)",2,mbtiauth_4429
1856,"(113, 161, 113)",2,mbtiauth_4429
1857,"(113, 182, 64)",2,mbtiauth_4429
1858,"(113, 182, 76)",2,mbtiauth_4429
1859,"(113, 182, 113)",2,mbtiauth_4429
1860,"(113, 194, 2)",2,mbtiauth_4429
1861,"(113, 194, 3)",3,mbtiauth_4429
1862,"(113, 194, 32)",2,mbtiauth_4429
1863,"(113, 194, 65)",2,mbtiauth_4429
1864,"(113, 194, 76)",2,mbtiauth_4429
1865,"(113, 194, 113)",4,mbtiauth_4429
1866,"(113, 194, 182)",2,mbtiauth_4429
1867,"(113, 201, 113)",2,mbtiauth_4429
1868,"(113, 208, 32)",2,mbtiauth_4429
1869,"(113, 214, 10)",2,mbtiauth_4429
1870,"(113, 214, 64)",3,mbtiauth_4429
1871,"(113, 232, 76)",2,mbtiauth_4429
1872,"(113, 250, 2)",2,mbtiauth_4429
1873,"(113, 250, 76)",2,mbtiauth_4429
1874,"(113, 256, 64)",2,mbtiauth_4429
1875,"(113, 256, 65)",3,mbtiauth_4429
1876,"(113, 256, 77)",2,mbtiauth_4429
1877,"(113, 282, 113)",2,mbtiauth_4429
1878,"(113, 282, 326)",2,mbtiauth_4429
1879,"(113, 312, 76)",2,mbtiauth_4429
1880,"(113, 312, 113)",3,mbtiauth_4429
1881,"(113, 326, 234)",2,mbtiauth_4429
1882,"(113, 340, 64)",3,mbtiauth_4429
1883,"(113, 340, 160)",2,mbtiauth_4429
1884,"(113, 356, 65)",2,mbtiauth_4429
1885,"(113, 388, 113)",2,mbtiauth_4429
1886,"(113, 403, 64)",2,mbtiauth_4429
1887,"(113, 403, 182)",2,mbtiauth_4429
1888,"(113, 445, 312)",2,mbtiauth_4429
1889,"(113, 463, 2)",2,mbtiauth_4429
1890,"(113, 506, 76)",2,mbtiauth_4429
1891,"(113, 590, 113)",2,mbtiauth_4429
1892,"(113, 590, 282)",2,mbtiauth_4429
1893,"(113, 590, 326)",2,mbtiauth_4429
1894,"(113, 598, 64)",2,mbtiauth_4429
1895,"(113, 598, 156)",2,mbtiauth_4429
1896,"(113, 602, 113)",2,mbtiauth_4429
1897,"(113, 692, 115)",3,mbtiauth_4429
1898,"(113, 786, 64)",2,mbtiauth_4429
1899,"(113, 786, 65)",2,mbtiauth_4429
1900,"(113, 904, 686)",2,mbtiauth_4429
1901,"(113, 1038, 76)",3,mbtiauth_4429
1902,"(113, 1547, 64)",2,mbtiauth_4429
1903,"(113, 2498, 64)",2,mbtiauth_4429
1904,"(113, 2498, 141)",2,mbtiauth_4429
1905,"(113, 2498, 155)",2,mbtiauth_4429
1906,"(113, 2997, 113)",2,mbtiauth_4429
1907,"(113, 5980, 504)",3,mbtiauth_4429
1908,"(115, 10, 75)",2,mbtiauth_4429
1909,"(115, 22, 2)",2,mbtiauth_4429
1910,"(115, 76, 3)",2,mbtiauth_4429
1911,"(115, 76, 182)",2,mbtiauth_4429
1912,"(115, 76, 2548)",2,mbtiauth_4429
1913,"(115, 113, 76)",2,mbtiauth_4429
1914,"(131, 3, 64)",2,mbtiauth_4429
1915,"(141, 76, 113)",2,mbtiauth_4429
1916,"(141, 76, 141)",2,mbtiauth_4429
1917,"(141, 76, 182)",3,mbtiauth_4429
1918,"(141, 76, 584)",2,mbtiauth_4429
1919,"(141, 113, 64)",2,mbtiauth_4429
1920,"(141, 326, 224)",2,mbtiauth_4429
1921,"(149, 3, 113)",2,mbtiauth_4429
1922,"(149, 22, 76)",2,mbtiauth_4429
1923,"(149, 64, 76)",2,mbtiauth_4429
1924,"(149, 76, 113)",3,mbtiauth_4429
1925,"(149, 113, 64)",2,mbtiauth_4429
1926,"(149, 576, 64)",2,mbtiauth_4429
1927,"(151, 3, 76)",2,mbtiauth_4429
1928,"(151, 22, 22)",3,mbtiauth_4429
1929,"(151, 22, 76)",2,mbtiauth_4429
1930,"(151, 22, 394)",2,mbtiauth_4429
1931,"(151, 22, 1287)",2,mbtiauth_4429
1932,"(151, 113, 76)",2,mbtiauth_4429
1933,"(154, 76, 22)",2,mbtiauth_4429
1934,"(155, 64, 141)",2,mbtiauth_4429
1935,"(156, 64, 31)",2,mbtiauth_4429
1936,"(156, 64, 76)",2,mbtiauth_4429
1937,"(156, 64, 113)",3,mbtiauth_4429
1938,"(156, 64, 115)",2,mbtiauth_4429
1939,"(156, 115, 113)",2,mbtiauth_4429
1940,"(158, 139, 76)",2,mbtiauth_4429
1941,"(160, 2, 64)",2,mbtiauth_4429
1942,"(160, 2, 113)",2,mbtiauth_4429
1943,"(160, 22, 113)",2,mbtiauth_4429
1944,"(160, 22, 213)",2,mbtiauth_4429
1945,"(160, 22, 232)",2,mbtiauth_4429
1946,"(160, 76, 113)",2,mbtiauth_4429
1947,"(160, 113, 64)",2,mbtiauth_4429
1948,"(160, 483, 232)",2,mbtiauth_4429
1949,"(161, 76, 2000)",2,mbtiauth_4429
1950,"(161, 224, 65)",2,mbtiauth_4429
1951,"(182, 3, 64)",2,mbtiauth_4429
1952,"(182, 3, 65)",2,mbtiauth_4429
1953,"(182, 3, 77)",2,mbtiauth_4429
1954,"(182, 3, 113)",2,mbtiauth_4429
1955,"(182, 3, 182)",2,mbtiauth_4429
1956,"(182, 3, 4573)",2,mbtiauth_4429
1957,"(182, 64, 76)",2,mbtiauth_4429
1958,"(182, 64, 131)",2,mbtiauth_4429
1959,"(182, 64, 342)",2,mbtiauth_4429
1960,"(182, 65, 113)",2,mbtiauth_4429
1961,"(182, 76, 3)",2,mbtiauth_4429
1962,"(182, 76, 113)",3,mbtiauth_4429
1963,"(182, 77, 65)",2,mbtiauth_4429
1964,"(182, 77, 182)",3,mbtiauth_4429
1965,"(182, 113, 3)",2,mbtiauth_4429
1966,"(182, 113, 141)",2,mbtiauth_4429
1967,"(182, 113, 182)",2,mbtiauth_4429
1968,"(182, 113, 194)",2,mbtiauth_4429
1969,"(182, 182, 65)",2,mbtiauth_4429
1970,"(182, 182, 76)",2,mbtiauth_4429
1971,"(182, 4573, 64)",2,mbtiauth_4429
1972,"(187, 32, 69)",2,mbtiauth_4429
1973,"(187, 32, 113)",2,mbtiauth_4429
1974,"(190, 22, 394)",2,mbtiauth_4429
1975,"(194, 3, 76)",2,mbtiauth_4429
1976,"(194, 3, 113)",2,mbtiauth_4429
1977,"(194, 27, 3)",2,mbtiauth_4429
1978,"(194, 76, 113)",2,mbtiauth_4429
1979,"(194, 113, 3)",2,mbtiauth_4429
1980,"(194, 113, 7)",2,mbtiauth_4429
1981,"(194, 113, 64)",2,mbtiauth_4429
1982,"(194, 113, 182)",2,mbtiauth_4429
1983,"(201, 113, 64)",2,mbtiauth_4429
1984,"(201, 113, 76)",2,mbtiauth_4429
1985,"(214, 41, 64)",2,mbtiauth_4429
1986,"(224, 41, 113)",2,mbtiauth_4429
1987,"(224, 65, 3)",2,mbtiauth_4429
1988,"(224, 65, 1068)",2,mbtiauth_4429
1989,"(224, 69, 65)",2,mbtiauth_4429
1990,"(224, 76, 22)",2,mbtiauth_4429
1991,"(224, 76, 69)",2,mbtiauth_4429
1992,"(224, 76, 160)",2,mbtiauth_4429
1993,"(224, 76, 272)",2,mbtiauth_4429
1994,"(224, 113, 113)",2,mbtiauth_4429
1995,"(224, 149, 224)",2,mbtiauth_4429
1996,"(224, 182, 3)",2,mbtiauth_4429
1997,"(232, 160, 483)",2,mbtiauth_4429
1998,"(234, 32, 22)",2,mbtiauth_4429
1999,"(234, 76, 113)",2,mbtiauth_4429
2000,"(250, 2, 113)",3,mbtiauth_4429
2001,"(250, 3, 113)",2,mbtiauth_4429
2002,"(250, 113, 7)",2,mbtiauth_4429
2003,"(250, 113, 64)",2,mbtiauth_4429
2004,"(256, 64, 7)",2,mbtiauth_4429
2005,"(256, 76, 113)",2,mbtiauth_4429
2006,"(256, 77, 113)",2,mbtiauth_4429
2007,"(264, 2, 76)",2,mbtiauth_4429
2008,"(264, 64, 2)",2,mbtiauth_4429
2009,"(264, 64, 76)",2,mbtiauth_4429
2010,"(264, 64, 113)",2,mbtiauth_4429
2011,"(264, 113, 64)",2,mbtiauth_4429
2012,"(264, 113, 113)",2,mbtiauth_4429
2013,"(264, 113, 115)",2,mbtiauth_4429
2014,"(268, 149, 224)",2,mbtiauth_4429
2015,"(282, 113, 326)",2,mbtiauth_4429
2016,"(312, 76, 113)",2,mbtiauth_4429
2017,"(340, 22, 502)",2,mbtiauth_4429
2018,"(340, 31, 22)",2,mbtiauth_4429
2019,"(340, 31, 502)",2,mbtiauth_4429
2020,"(340, 64, 115)",2,mbtiauth_4429
2021,"(340, 64, 160)",2,mbtiauth_4429
2022,"(340, 76, 113)",2,mbtiauth_4429
2023,"(340, 356, 244)",2,mbtiauth_4429
2024,"(342, 16, 3)",2,mbtiauth_4429
2025,"(342, 22, 76)",3,mbtiauth_4429
2026,"(342, 22, 182)",2,mbtiauth_4429
2027,"(342, 33, 22)",2,mbtiauth_4429
2028,"(342, 33, 76)",2,mbtiauth_4429
2029,"(342, 65, 113)",2,mbtiauth_4429
2030,"(342, 76, 182)",2,mbtiauth_4429
2031,"(342, 113, 16)",2,mbtiauth_4429
2032,"(342, 113, 64)",2,mbtiauth_4429
2033,"(342, 160, 182)",2,mbtiauth_4429
2034,"(403, 182, 64)",2,mbtiauth_4429
2035,"(418, 3, 76)",2,mbtiauth_4429
2036,"(484, 2, 758)",2,mbtiauth_4429
2037,"(484, 64, 2)",2,mbtiauth_4429
2038,"(484, 64, 758)",2,mbtiauth_4429
2039,"(484, 113, 64)",2,mbtiauth_4429
2040,"(493, 113, 65)",2,mbtiauth_4429
2041,"(497, 76, 22)",2,mbtiauth_4429
2042,"(502, 75, 2)",2,mbtiauth_4429
2043,"(502, 75, 76)",2,mbtiauth_4429
2044,"(502, 75, 141)",2,mbtiauth_4429
2045,"(502, 75, 182)",2,mbtiauth_4429
2046,"(502, 76, 2)",2,mbtiauth_4429
2047,"(502, 76, 141)",2,mbtiauth_4429
2048,"(502, 76, 182)",3,mbtiauth_4429
2049,"(502, 182, 2)",2,mbtiauth_4429
2050,"(510, 65, 32)",2,mbtiauth_4429
2051,"(510, 65, 64)",2,mbtiauth_4429
2052,"(510, 76, 22)",2,mbtiauth_4429
2053,"(510, 113, 64)",2,mbtiauth_4429
2054,"(510, 154, 22)",2,mbtiauth_4429
2055,"(510, 154, 76)",2,mbtiauth_4429
2056,"(590, 113, 326)",2,mbtiauth_4429
2057,"(590, 282, 113)",2,mbtiauth_4429
2058,"(590, 282, 326)",2,mbtiauth_4429
2059,"(598, 156, 64)",2,mbtiauth_4429
2060,"(600, 113, 64)",2,mbtiauth_4429
2061,"(692, 65, 3)",2,mbtiauth_4429
2062,"(692, 113, 64)",2,mbtiauth_4429
2063,"(692, 692, 113)",2,mbtiauth_4429
2064,"(702, 7, 22)",2,mbtiauth_4429
2065,"(758, 76, 113)",2,mbtiauth_4429
2066,"(763, 76, 113)",2,mbtiauth_4429
2067,"(771, 76, 3)",2,mbtiauth_4429
2068,"(771, 76, 113)",2,mbtiauth_4429
2069,"(771, 113, 3)",2,mbtiauth_4429
2070,"(1038, 76, 32)",2,mbtiauth_4429
2071,"(1182, 77, 131)",2,mbtiauth_4429
2072,"(1559, 8002, 1559)",2,mbtiauth_4429
2073,"(1926, 224, 149)",2,mbtiauth_4429
2074,"(1993, 1020, 32)",2,mbtiauth_4429
2075,"(2071, 22, 22)",2,mbtiauth_4429
2076,"(2498, 2, 113)",2,mbtiauth_4429
2077,"(2498, 64, 141)",2,mbtiauth_4429
2078,"(2498, 155, 64)",2,mbtiauth_4429
2079,"(2498, 155, 141)",2,mbtiauth_4429
2080,"(3325, 76, 113)",2,mbtiauth_4429
2081,"(4119, 225, 113)",2,mbtiauth_4429
2082,"(6159, 3, 76)",2,mbtiauth_4429
2083,"(21904, 7, 1993)",2,mbtiauth_4429
2084,"(21904, 41, 7)",2,mbtiauth_4429
2085,"(21904, 41, 1993)",2,mbtiauth_4429
2086,"(60682, 187, 32)",2,mbtiauth_4429
2087,"(2, 76, 113, 16)",2,mbtiauth_4429
2088,"(2, 76, 113, 69)",2,mbtiauth_4429
2089,"(2, 76, 113, 141)",2,mbtiauth_4429
2090,"(2, 113, 156, 64)",2,mbtiauth_4429
2091,"(2, 758, 76, 113)",2,mbtiauth_4429
2092,"(2, 60682, 187, 32)",2,mbtiauth_4429
2093,"(3, 76, 69, 65)",2,mbtiauth_4429
2094,"(3, 113, 7, 32)",2,mbtiauth_4429
2095,"(3, 250, 2, 113)",2,mbtiauth_4429
2096,"(3, 1038, 76, 32)",2,mbtiauth_4429
2097,"(7, 113, 214, 10)",2,mbtiauth_4429
2098,"(7, 1993, 1020, 32)",2,mbtiauth_4429
2099,"(22, 22, 32, 22)",2,mbtiauth_4429
2100,"(22, 32, 22, 1597)",2,mbtiauth_4429
2101,"(22, 75, 76, 2)",2,mbtiauth_4429
2102,"(22, 75, 76, 182)",2,mbtiauth_4429
2103,"(22, 75, 182, 2)",2,mbtiauth_4429
2104,"(22, 76, 113, 182)",2,mbtiauth_4429
2105,"(22, 76, 182, 2)",2,mbtiauth_4429
2106,"(22, 502, 75, 2)",2,mbtiauth_4429
2107,"(22, 502, 75, 76)",2,mbtiauth_4429
2108,"(22, 502, 75, 182)",2,mbtiauth_4429
2109,"(22, 502, 76, 2)",2,mbtiauth_4429
2110,"(22, 502, 76, 182)",2,mbtiauth_4429
2111,"(22, 502, 182, 2)",2,mbtiauth_4429
2112,"(31, 22, 75, 76)",2,mbtiauth_4429
2113,"(31, 22, 75, 182)",2,mbtiauth_4429
2114,"(31, 22, 76, 182)",2,mbtiauth_4429
2115,"(31, 22, 502, 75)",2,mbtiauth_4429
2116,"(31, 22, 502, 76)",2,mbtiauth_4429
2117,"(31, 22, 502, 182)",2,mbtiauth_4429
2118,"(31, 75, 76, 182)",2,mbtiauth_4429
2119,"(31, 502, 75, 76)",2,mbtiauth_4429
2120,"(31, 502, 75, 182)",2,mbtiauth_4429
2121,"(31, 502, 76, 182)",2,mbtiauth_4429
2122,"(32, 113, 3, 76)",2,mbtiauth_4429
2123,"(32, 113, 76, 76)",2,mbtiauth_4429
2124,"(32, 113, 113, 76)",2,mbtiauth_4429
2125,"(33, 22, 394, 76)",2,mbtiauth_4429
2126,"(33, 22, 394, 244)",2,mbtiauth_4429
2127,"(41, 7, 1020, 32)",2,mbtiauth_4429
2128,"(41, 7, 1993, 32)",2,mbtiauth_4429
2129,"(41, 7, 1993, 1020)",2,mbtiauth_4429
2130,"(41, 1993, 1020, 32)",2,mbtiauth_4429
2131,"(50, 3, 3, 76)",2,mbtiauth_4429
2132,"(50, 3, 76, 113)",2,mbtiauth_4429
2133,"(50, 3, 113, 3)",2,mbtiauth_4429
2134,"(64, 2, 76, 113)",2,mbtiauth_4429
2135,"(64, 2, 758, 76)",2,mbtiauth_4429
2136,"(64, 2, 758, 113)",2,mbtiauth_4429
2137,"(64, 3, 76, 65)",2,mbtiauth_4429
2138,"(64, 3, 1038, 76)",2,mbtiauth_4429
2139,"(64, 32, 113, 3)",2,mbtiauth_4429
2140,"(64, 32, 113, 76)",2,mbtiauth_4429
2141,"(64, 76, 113, 504)",2,mbtiauth_4429
2142,"(64, 113, 64, 141)",2,mbtiauth_4429
2143,"(64, 758, 76, 113)",2,mbtiauth_4429
2144,"(65, 6159, 3, 76)",2,mbtiauth_4429
2145,"(66, 76, 32, 22)",2,mbtiauth_4429
2146,"(69, 65, 557, 113)",2,mbtiauth_4429
2147,"(75, 76, 182, 2)",2,mbtiauth_4429
2148,"(76, 3, 113, 76)",3,mbtiauth_4429
2149,"(76, 3, 148, 150)",2,mbtiauth_4429
2150,"(76, 3, 4573, 64)",2,mbtiauth_4429
2151,"(76, 27, 7, 22)",2,mbtiauth_4429
2152,"(76, 32, 22, 113)",2,mbtiauth_4429
2153,"(76, 50, 304, 76)",2,mbtiauth_4429
2154,"(76, 64, 76, 113)",2,mbtiauth_4429
2155,"(76, 113, 3, 22)",2,mbtiauth_4429
2156,"(76, 113, 3, 33)",2,mbtiauth_4429
2157,"(76, 113, 3, 161)",2,mbtiauth_4429
2158,"(76, 113, 22, 32)",2,mbtiauth_4429
2159,"(76, 113, 65, 3)",2,mbtiauth_4429
2160,"(76, 113, 118, 187)",2,mbtiauth_4429
2161,"(76, 113, 208, 32)",2,mbtiauth_4429
2162,"(76, 113, 232, 76)",2,mbtiauth_4429
2163,"(76, 113, 5980, 504)",2,mbtiauth_4429
2164,"(76, 151, 3, 76)",2,mbtiauth_4429
2165,"(76, 151, 113, 76)",2,mbtiauth_4429
2166,"(76, 182, 3, 64)",2,mbtiauth_4429
2167,"(76, 182, 3, 77)",2,mbtiauth_4429
2168,"(76, 182, 3, 4573)",2,mbtiauth_4429
2169,"(76, 182, 77, 182)",2,mbtiauth_4429
2170,"(76, 182, 4573, 64)",2,mbtiauth_4429
2171,"(77, 113, 3, 76)",2,mbtiauth_4429
2172,"(113, 2, 76, 113)",2,mbtiauth_4429
2173,"(113, 2, 113, 7)",2,mbtiauth_4429
2174,"(113, 3, 65, 76)",2,mbtiauth_4429
2175,"(113, 3, 76, 65)",2,mbtiauth_4429
2176,"(113, 3, 76, 113)",3,mbtiauth_4429
2177,"(113, 3, 113, 194)",2,mbtiauth_4429
2178,"(113, 3, 148, 150)",2,mbtiauth_4429
2179,"(113, 3, 312, 113)",2,mbtiauth_4429
2180,"(113, 3, 1038, 76)",3,mbtiauth_4429
2181,"(113, 7, 32, 182)",2,mbtiauth_4429
2182,"(113, 7, 65, 2)",3,mbtiauth_4429
2183,"(113, 7, 113, 10)",2,mbtiauth_4429
2184,"(113, 7, 113, 214)",2,mbtiauth_4429
2185,"(113, 7, 214, 10)",2,mbtiauth_4429
2186,"(113, 39, 22, 557)",2,mbtiauth_4429
2187,"(113, 64, 3, 76)",2,mbtiauth_4429
2188,"(113, 64, 27, 113)",2,mbtiauth_4429
2189,"(113, 64, 32, 76)",2,mbtiauth_4429
2190,"(113, 64, 76, 113)",3,mbtiauth_4429
2191,"(113, 64, 113, 76)",2,mbtiauth_4429
2192,"(113, 64, 115, 113)",2,mbtiauth_4429
2193,"(113, 64, 256, 65)",2,mbtiauth_4429
2194,"(113, 64, 692, 115)",2,mbtiauth_4429
2195,"(113, 64, 1547, 64)",2,mbtiauth_4429
2196,"(113, 76, 76, 66)",2,mbtiauth_4429
2197,"(113, 76, 113, 16)",2,mbtiauth_4429
2198,"(113, 76, 113, 250)",2,mbtiauth_4429
2199,"(113, 111, 64, 141)",2,mbtiauth_4429
2200,"(113, 113, 214, 10)",2,mbtiauth_4429
2201,"(113, 113, 250, 2)",2,mbtiauth_4429
2202,"(113, 155, 64, 141)",2,mbtiauth_4429
2203,"(113, 156, 64, 31)",2,mbtiauth_4429
2204,"(113, 156, 64, 76)",2,mbtiauth_4429
2205,"(113, 156, 64, 113)",3,mbtiauth_4429
2206,"(113, 156, 64, 115)",2,mbtiauth_4429
2207,"(113, 156, 115, 113)",2,mbtiauth_4429
2208,"(113, 282, 113, 326)",2,mbtiauth_4429
2209,"(113, 312, 76, 113)",2,mbtiauth_4429
2210,"(113, 340, 64, 160)",2,mbtiauth_4429
2211,"(113, 403, 182, 64)",2,mbtiauth_4429
2212,"(113, 590, 113, 326)",2,mbtiauth_4429
2213,"(113, 590, 282, 113)",2,mbtiauth_4429
2214,"(113, 590, 282, 326)",2,mbtiauth_4429
2215,"(113, 598, 156, 64)",2,mbtiauth_4429
2216,"(113, 2498, 64, 141)",2,mbtiauth_4429
2217,"(113, 2498, 155, 64)",2,mbtiauth_4429
2218,"(113, 2498, 155, 141)",2,mbtiauth_4429
2219,"(156, 64, 115, 113)",2,mbtiauth_4429
2220,"(160, 2, 113, 64)",2,mbtiauth_4429
2221,"(182, 3, 4573, 64)",2,mbtiauth_4429
2222,"(182, 77, 182, 65)",2,mbtiauth_4429
2223,"(264, 113, 64, 113)",2,mbtiauth_4429
2224,"(340, 31, 22, 502)",2,mbtiauth_4429
2225,"(342, 22, 76, 182)",2,mbtiauth_4429
2226,"(342, 33, 22, 76)",2,mbtiauth_4429
2227,"(484, 64, 2, 758)",2,mbtiauth_4429
2228,"(502, 75, 76, 2)",2,mbtiauth_4429
2229,"(502, 75, 76, 141)",2,mbtiauth_4429
2230,"(502, 75, 76, 182)",2,mbtiauth_4429
2231,"(502, 75, 182, 2)",2,mbtiauth_4429
2232,"(502, 76, 182, 2)",2,mbtiauth_4429
2233,"(510, 154, 76, 22)",2,mbtiauth_4429
2234,"(590, 282, 113, 326)",2,mbtiauth_4429
2235,"(771, 76, 113, 3)",2,mbtiauth_4429
2236,"(2498, 155, 64, 141)",2,mbtiauth_4429
2237,"(21904, 41, 7, 1993)",2,mbtiauth_4429
2238,"(22, 75, 76, 182, 2)",2,mbtiauth_4429
2239,"(22, 502, 75, 76, 2)",2,mbtiauth_4429
2240,"(22, 502, 75, 76, 182)",2,mbtiauth_4429
2241,"(22, 502, 75, 182, 2)",2,mbtiauth_4429
2242,"(22, 502, 76, 182, 2)",2,mbtiauth_4429
2243,"(31, 22, 75, 76, 182)",2,mbtiauth_4429
2244,"(31, 22, 502, 75, 76)",2,mbtiauth_4429
2245,"(31, 22, 502, 75, 182)",2,mbtiauth_4429
2246,"(31, 22, 502, 76, 182)",2,mbtiauth_4429
2247,"(31, 502, 75, 76, 182)",2,mbtiauth_4429
2248,"(41, 7, 1993, 1020, 32)",2,mbtiauth_4429
2249,"(64, 2, 758, 76, 113)",2,mbtiauth_4429
2250,"(76, 182, 3, 4573, 64)",2,mbtiauth_4429
2251,"(113, 7, 113, 214, 10)",2,mbtiauth_4429
2252,"(113, 156, 64, 115, 113)",2,mbtiauth_4429
2253,"(113, 590, 282, 113, 326)",2,mbtiauth_4429
2254,"(113, 2498, 155, 64, 141)",2,mbtiauth_4429
2255,"(502, 75, 76, 182, 2)",2,mbtiauth_4429
2256,"(22, 502, 75, 76, 182, 2)",2,mbtiauth_4429
2257,"(31, 22, 502, 75, 76, 182)",2,mbtiauth_4429
