8164 -1 0 -1 118 -1 1097 -1 182 -1 2478 -1 1 -2
572 -1 0 -1 10 -1 2089 -1 3959 -1 1 -2
500 -1 1451 -1 298 -1 3464 -1 1 -1 3130 -1 2178 -1 780 -1 88 -1 228 -1 1838 -1 10 -1 3130 -1 1234 -1 21 -1 1 -2
135 -1 395 -1 329 -1 2324 -1 117 -1 235 -1 1 -2
2467 -1 0 -1 159 -1 3477 -1 90 -1 1 -2
1225 -1 102 -1 7524 -1 0 -1 187 -1 233 -1 1178 -1 1 -2
857 -1 118 -1 102 -1 0 -1 1 -2
106 -1 100 -1 189 -1 1 -2
88 -1 19 -1 1 -2
2089 -1 8165 -1 1 -1 1225 -1 0 -1 73 -1 851 -1 17 -1 1 -2
8166 -1 41 -1 1 -2
1799 -1 8167 -1 1700 -1 8169 -1 8168 -1 348 -1 1 -2
8170 -1 0 -1 102 -1 7524 -1 1 -2
73 -1 1199 -1 76 -1 523 -1 0 -1 271 -1 1049 -1 1 -2
106 -1 621 -1 1876 -1 1883 -1 1885 -1 964 -1 290 -1 1 -2
88 -1 25 -1 3518 -1 2111 -1 1 -2
169 -1 392 -1 391 -1 0 -1 8171 -1 8172 -1 853 -1 0 -1 271 -1 135 -1 2224 -1 3112 -1 1 -2
187 -1 2366 -1 38 -1 339 -1 7394 -1 783 -1 1 -2
190 -1 106 -1 2366 -1 584 -1 1 -2
3970 -1 1 -2
77 -1 55 -1 2087 -1 8173 -1 132 -2
187 -1 0 -1 171 -1 136 -1 132 -2
1114 -1 333 -1 8174 -1 0 -1 132 -2
306 -1 0 -1 1 -2
2157 -1 718 -1 8176 -1 5470 -1 248 -1 0 -1 146 -1 8175 -1 2685 -1 412 -1 1 -2
8177 -1 20 -1 1 -2
6236 -1 8178 -1 1 -2
1236 -1 1769 -1 1432 -1 1 -2
1533 -1 2813 -1 783 -1 641 -1 1382 -1 1128 -1 595 -1 1 -2
10 -1 187 -1 20 -1 2813 -1 1 -2
2918 -1 0 -1 5589 -1 132 -2
621 -1 88 -1 6266 -1 1097 -1 299 -1 2541 -1 1 -2
317 -1 8180 -1 8179 -1 1098 -1 125 -1 1 -2
10 -1 718 -1 1101 -1 314 -1 31 -1 8161 -1 0 -1 10 -1 2313 -1 118 -1 125 -1 1 -2
1215 -1 159 -1 1 -2
1215 -1 135 -1 8183 -1 938 -1 8181 -1 8182 -1 1 -2
169 -1 1033 -1 537 -1 118 -1 1 -2
127 -1 341 -1 853 -1 621 -1 689 -1 73 -1 155 -1 10 -1 1 -2
187 -1 600 -1 8185 -1 8184 -1 49 -1 7599 -1 1 -2
13 -1 1067 -1 135 -1 5932 -1 526 -1 8186 -1 5395 -1 1 -2
42 -1 0 -1 45 -1 1839 -1 10 -1 1978 -1 1 -2
1225 -1 271 -1 284 -1 77 -1 171 -1 1 -2
0 -1 217 -1 135 -1 171 -1 77 -1 10 -1 475 -1 167 -1 0 -1 1522 -1 3017 -1 1 -2
2015 -1 989 -1 2529 -1 1021 -1 102 -1 780 -1 1414 -1 2529 -1 70 -1 193 -1 8188 -1 8187 -1 1 -2
76 -1 152 -1 71 -1 1 -2
7615 -1 287 -2
1215 -1 135 -1 233 -1 70 -1 2089 -1 8189 -1 287 -2
8190 -1 0 -1 938 -1 222 -1 6430 -1 1 -2
70 -1 1 -2
76 -1 8191 -1 226 -1 6262 -1 435 -1 70 -1 21 -1 1 -2
58 -1 0 -1 154 -1 500 -1 167 -1 8192 -1 30 -1 307 -1 8193 -1 2422 -1 1 -2
156 -1 0 -1 106 -1 20 -1 1528 -1 0 -1 73 -1 30 -1 183 -1 8194 -1 849 -1 1745 -1 392 -1 49 -1 1 -2
135 -1 8195 -1 19 -1 1 -2
8196 -1 32 -1 0 -1 55 -1 109 -1 271 -1 2437 -1 146 -1 1 -2
1225 -1 169 -1 8197 -1 339 -1 872 -1 62 -1 280 -1 1222 -1 2195 -1 298 -1 8198 -1 1222 -1 1412 -1 1 -2
58 -1 0 -1 621 -1 3172 -1 1598 -1 1 -2
2598 -1 1 -2
572 -1 0 -1 0 -1 10 -1 600 -1 8199 -1 0 -1 417 -1 49 -1 73 -1 381 -1 392 -1 0 -1 106 -1 341 -1 33 -1 905 -1 0 -1 8200 -1 132 -2
2498 -1 730 -1 8202 -1 8201 -1 1598 -1 1385 -1 1 -2
1556 -1 0 -1 306 -1 0 -1 961 -1 132 -2
2429 -1 287 -2
55 -1 1201 -1 208 -1 287 -2
306 -1 0 -1 1 -2
306 -1 287 -2
1 -2
572 -1 1 -1 6381 -1 1 -2
106 -1 0 -1 264 -1 1 -2
55 -1 602 -1 98 -1 77 -1 134 -1 0 -1 98 -1 2195 -1 1396 -1 681 -1 3340 -1 1 -2
134 -1 98 -1 636 -1 13 -1 55 -1 329 -1 135 -1 839 -1 8204 -1 8203 -1 1 -2
2524 -1 8183 -1 1222 -1 508 -1 1 -2
8205 -1 1 -2
1 -2
10 -1 198 -1 73 -1 628 -1 500 -1 49 -1 10 -1 1 -2
738 -1 287 -2
1 -2
306 -1 0 -1 1 -2
8206 -1 8207 -1 49 -1 125 -1 49 -1 1 -2
7524 -1 7524 -1 7524 -1 1 -2
645 -1 0 -1 6455 -1 928 -1 2634 -1 6455 -1 4490 -1 135 -1 1551 -1 132 -2
10 -1 135 -1 155 -1 1520 -1 0 -1 928 -1 1638 -1 8209 -1 0 -1 271 -1 109 -1 8208 -1 1 -2
0 -1 55 -1 264 -1 2998 -1 255 -1 2634 -1 1 -2
187 -1 8210 -1 216 -1 2634 -1 3843 -1 1 -2
314 -1 198 -1 1012 -1 815 -1 171 -1 0 -1 190 -1 106 -1 8211 -1 1579 -1 222 -1 0 -1 1988 -1 1 -2
139 -1 10 -1 502 -1 1968 -1 0 -1 1595 -1 1160 -1 8212 -1 0 -1 135 -1 119 -1 247 -1 87 -1 1 -2
1182 -1 1 -2
106 -1 8213 -1 650 -1 106 -1 502 -1 1 -2
0 -1 62 -1 90 -1 8214 -1 1 -2
530 -1 0 -1 689 -1 8214 -1 109 -1 8210 -1 125 -1 55 -1 8210 -1 1609 -1 90 -1 1 -2
6424 -1 1 -2
10 -1 155 -1 351 -1 0 -1 58 -1 1 -2
2089 -1 3942 -1 118 -1 1 -2
26 -1 262 -1 1 -2
190 -1 1 -2
10 -1 34 -1 26 -1 4561 -1 0 -1 2094 -1 950 -1 33 -1 1391 -1 1 -2
1 -2
109 -1 106 -1 500 -1 281 -1 1 -2
205 -1 703 -1 128 -1 1 -2
3051 -1 1 -2
106 -1 152 -1 7394 -1 322 -1 8216 -1 8195 -1 1867 -1 8215 -1 1 -2
2190 -1 0 -1 13 -1 500 -1 1 -2
563 -1 1 -2
187 -1 1829 -1 1824 -1 10 -1 5234 -1 8217 -1 3367 -1 1 -2
187 -1 8218 -1 232 -1 234 -1 1048 -1 1619 -1 1849 -1 1380 -1 2694 -1 163 -1 6494 -1 49 -1 0 -1 271 -1 127 -1 2013 -1 1 -2
187 -1 1 -2
8219 -1 1 -2
808 -1 8220 -1 3747 -1 1380 -1 1 -2
718 -1 1 -2
42 -1 0 -1 136 -1 171 -1 0 -1 8222 -1 8221 -1 1 -2
4167 -1 1867 -1 8223 -1 8224 -1 2613 -1 2342 -1 1 -2
697 -1 530 -1 1 -2
1823 -1 1 -2
572 -1 0 -1 0 -1 10 -1 298 -1 3464 -1 1 -2
169 -1 101 -1 95 -1 936 -1 1 -2
563 -1 1 -2
308 -1 1 -2