897 -1 7736 -1 1 -2
55 -1 58 -1 73 -1 381 -1 500 -1 217 -1 106 -1 219 -1 588 -1 125 -1 1 -2
55 -1 58 -1 381 -1 765 -1 5618 -1 50 -1 6213 -1 7560 -1 155 -1 254 -1 1 -2
5978 -1 5463 -1 29 -1 19 -1 125 -1 1 -2
595 -1 1522 -1 38 -1 180 -1 239 -1 1 -2
139 -1 33 -1 178 -1 1 -2
499 -1 38 -1 261 -1 1182 -1 191 -1 7737 -1 706 -1 38 -1 1 -2
945 -1 1522 -1 38 -1 178 -1 1 -2
1450 -1 135 -1 38 -1 139 -1 219 -1 178 -1 7738 -1 1 -2
117 -1 2017 -1 1522 -1 198 -1 169 -1 1098 -1 2 -1 1 -2
73 -1 745 -1 503 -1 501 -1 91 -1 1 -2
790 -1 70 -1 1 -2
29 -1 70 -1 3365 -1 62 -1 1098 -1 274 -1 1 -2
109 -1 93 -1 2113 -1 1 -2
234 -1 280 -1 790 -1 70 -1 1 -2
541 -1 280 -1 2145 -1 262 -1 155 -1 70 -1 1 -2
7739 -1 208 -1 280 -1 55 -1 2430 -1 208 -1 1 -2
742 -1 1547 -1 77 -1 280 -1 540 -1 664 -1 1 -2
261 -1 274 -1 135 -1 1844 -1 7740 -1 4040 -1 1528 -1 742 -1 1 -2
139 -1 216 -1 329 -1 1172 -1 1456 -1 1 -2
284 -1 1456 -1 1 -2
40 -1 7013 -1 1 -1 176 -1 7741 -1 176 -1 85 -1 664 -1 1 -2
7013 -1 1 -1 7744 -1 1 -1 582 -1 7743 -1 31 -1 66 -1 10 -1 2293 -1 7742 -1 38 -1 529 -1 38 -1 1 -2
10 -1 1348 -1 234 -1 280 -1 2293 -1 7742 -1 1 -2
2414 -1 644 -1 789 -1 1 -2
31 -1 271 -1 280 -1 1206 -1 302 -1 322 -1 1 -2
2668 -1 110 -1 1420 -1 1 -2
106 -1 899 -1 7745 -1 55 -1 58 -1 57 -1 7746 -1 1 -2
139 -1 302 -1 2743 -1 963 -1 706 -1 1456 -1 38 -1 1 -2
169 -1 1801 -1 2012 -1 1 -2
159 -1 1 -2
88 -1 36 -1 7609 -1 58 -1 2662 -1 86 -1 159 -1 1 -2
1935 -1 36 -1 86 -1 339 -1 169 -1 1033 -1 1718 -1 1 -2
217 -1 10 -1 251 -1 31 -1 251 -1 1 -2
10 -1 14 -1 216 -1 109 -1 341 -1 3614 -1 251 -1 23 -1 876 -1 255 -1 1 -2
7747 -1 58 -1 5 -1 1751 -1 1 -2
645 -1 339 -1 7497 -1 545 -1 1 -2
109 -1 219 -1 3214 -1 545 -1 125 -1 36 -1 1 -2
88 -1 1164 -1 2904 -1 6090 -1 7748 -1 4626 -1 1 -2
169 -1 10 -1 3911 -1 1 -2
3136 -1 88 -1 1206 -1 98 -1 503 -1 501 -1 1 -2
217 -1 106 -1 291 -1 190 -1 11 -1 13 -1 1 -2
329 -1 939 -1 1 -2
92 -1 70 -1 515 -1 1 -2
58 -1 263 -1 750 -1 50 -1 1 -2
141 -1 1432 -1 1 -2
139 -1 13 -1 234 -1 34 -1 26 -1 1 -2
167 -1 1 -2
1523 -1 392 -1 417 -1 1 -2
159 -1 418 -1 169 -1 1560 -1 321 -1 1 -2
1 -2
217 -1 106 -1 38 -1 1 -2
308 -1 1 -2