0 -1 #SUP: 2
40 -1 #SUP: 2
41 -1 #SUP: 4
45 -1 #SUP: 2
55 -1 #SUP: 2
77 -1 #SUP: 4
109 -1 #SUP: 3
125 -1 #SUP: 2
135 -1 #SUP: 3
154 -1 #SUP: 2
159 -1 #SUP: 2
168 -1 #SUP: 2
187 -1 #SUP: 6
220 -1 #SUP: 2
262 -1 #SUP: 2
321 -1 #SUP: 3
329 -1 #SUP: 2
395 -1 #SUP: 5
500 -1 #SUP: 3
601 -1 #SUP: 2
1157 -1 #SUP: 2
1700 -1 #SUP: 2
2525 -1 #SUP: 2
3412 -1 #SUP: 2
7203 -1 #SUP: 2
7727 -1 #SUP: 2
7731 -1 #SUP: 3
45 -1 395 -1 #SUP: 2
187 -1 77 -1 #SUP: 2
187 -1 321 -1 #SUP: 2
187 -1 500 -1 #SUP: 2
395 -1 45 -1 #SUP: 2
395 -1 159 -1 #SUP: 2
395 -1 329 -1 #SUP: 2
395 -1 395 -1 #SUP: 2
395 -1 45 -1 395 -1 #SUP: 2
