2 -1 #SUP: 2
10 -1 #SUP: 4
55 -1 #SUP: 4
58 -1 #SUP: 3
73 -1 #SUP: 3
85 -1 #SUP: 2
88 -1 #SUP: 2
97 -1 #SUP: 2
135 -1 #SUP: 3
155 -1 #SUP: 3
180 -1 #SUP: 2
191 -1 #SUP: 2
327 -1 #SUP: 2
409 -1 #SUP: 2
435 -1 #SUP: 3
582 -1 #SUP: 2
1220 -1 #SUP: 2
1900 -1 #SUP: 2
2667 -1 #SUP: 5
3064 -1 #SUP: 2
3660 -1 #SUP: 3
10 -1 10 -1 #SUP: 2
10 -1 135 -1 #SUP: 3
10 -1 435 -1 #SUP: 2
10 -1 2667 -1 #SUP: 3
55 -1 10 -1 #SUP: 2
55 -1 55 -1 #SUP: 2
55 -1 409 -1 #SUP: 2
55 -1 435 -1 #SUP: 2
55 -1 3064 -1 #SUP: 2
73 -1 155 -1 #SUP: 2
85 -1 180 -1 #SUP: 2
88 -1 55 -1 #SUP: 2
88 -1 3064 -1 #SUP: 2
97 -1 1220 -1 #SUP: 2
135 -1 135 -1 #SUP: 2
135 -1 2667 -1 #SUP: 3
155 -1 58 -1 #SUP: 2
155 -1 85 -1 #SUP: 2
327 -1 55 -1 #SUP: 2
327 -1 58 -1 #SUP: 2
409 -1 3660 -1 #SUP: 2
435 -1 10 -1 #SUP: 2
435 -1 135 -1 #SUP: 2
435 -1 2667 -1 #SUP: 2
1220 -1 10 -1 #SUP: 2
1220 -1 435 -1 #SUP: 2
1220 -1 2667 -1 #SUP: 2
1900 -1 73 -1 #SUP: 2
1900 -1 155 -1 #SUP: 2
2667 -1 135 -1 #SUP: 2
2667 -1 582 -1 #SUP: 2
2667 -1 2667 -1 #SUP: 3
3064 -1 55 -1 #SUP: 2
3660 -1 97 -1 #SUP: 2
10 -1 135 -1 2667 -1 #SUP: 2
10 -1 435 -1 2667 -1 #SUP: 2
55 -1 3064 -1 55 -1 #SUP: 2
135 -1 2667 -1 2667 -1 #SUP: 2
435 -1 2667 -1 2667 -1 #SUP: 2
1900 -1 73 -1 155 -1 #SUP: 2
