0 -1 #SUP: 31
36 -1 #SUP: 2
55 -1 #SUP: 2
58 -1 #SUP: 3
125 -1 #SUP: 2
251 -1 #SUP: 2
272 -1 #SUP: 4
274 -1 #SUP: 2
314 -1 #SUP: 2
327 -1 #SUP: 2
381 -1 #SUP: 2
677 -1 #SUP: 2
839 -1 #SUP: 2
877 -1 #SUP: 2
1089 -1 #SUP: 2
1128 -1 #SUP: 2
1511 -1 #SUP: 3
1641 -1 #SUP: 7
1763 -1 #SUP: 14
1966 -1 #SUP: 2
2357 -1 #SUP: 3
4839 -1 #SUP: 2
5026 -1 #SUP: 4
6344 -1 #SUP: 2
6873 -1 #SUP: 2
0 -1 0 -1 #SUP: 11
0 -1 36 -1 #SUP: 2
0 -1 125 -1 #SUP: 2
0 -1 272 -1 #SUP: 4
0 -1 274 -1 #SUP: 2
0 -1 677 -1 #SUP: 2
0 -1 1511 -1 #SUP: 2
0 -1 1641 -1 #SUP: 4
0 -1 1763 -1 #SUP: 6
0 -1 4839 -1 #SUP: 2
0 -1 5026 -1 #SUP: 2
36 -1 0 -1 #SUP: 2
55 -1 58 -1 #SUP: 2
58 -1 0 -1 #SUP: 2
58 -1 1641 -1 #SUP: 2
125 -1 0 -1 #SUP: 2
272 -1 0 -1 #SUP: 2
272 -1 1641 -1 #SUP: 2
314 -1 0 -1 #SUP: 2
314 -1 1763 -1 #SUP: 2
327 -1 251 -1 #SUP: 2
877 -1 0 -1 #SUP: 2
1511 -1 0 -1 #SUP: 3
1511 -1 1763 -1 #SUP: 3
1641 -1 0 -1 #SUP: 3
1763 -1 0 -1 #SUP: 5
1763 -1 1763 -1 #SUP: 4
1763 -1 5026 -1 #SUP: 3
1763 -1 6873 -1 #SUP: 2
2357 -1 1641 -1 #SUP: 2
6344 -1 0 -1 #SUP: 2
0 -1 0 -1 0 -1 #SUP: 2
0 -1 0 -1 1763 -1 #SUP: 3
0 -1 36 -1 0 -1 #SUP: 2
0 -1 125 -1 0 -1 #SUP: 2
0 -1 272 -1 0 -1 #SUP: 2
0 -1 272 -1 1641 -1 #SUP: 2
0 -1 1511 -1 0 -1 #SUP: 2
0 -1 1511 -1 1763 -1 #SUP: 2
0 -1 1641 -1 0 -1 #SUP: 2
0 -1 1763 -1 0 -1 #SUP: 2
0 -1 1763 -1 1763 -1 #SUP: 2
0 -1 1763 -1 5026 -1 #SUP: 2
58 -1 0 -1 1641 -1 #SUP: 2
272 -1 1641 -1 0 -1 #SUP: 2
314 -1 0 -1 1763 -1 #SUP: 2
877 -1 0 -1 0 -1 #SUP: 2
1511 -1 0 -1 1763 -1 #SUP: 2
1511 -1 1763 -1 0 -1 #SUP: 2
1763 -1 0 -1 1763 -1 #SUP: 3
1763 -1 0 -1 5026 -1 #SUP: 2
6344 -1 0 -1 0 -1 #SUP: 2
0 -1 272 -1 1641 -1 0 -1 #SUP: 2
