1343 -1 217 -1 1313 -1 1810 -1 9042 -1 0 -1 1796 -1 0 -1 252 -1 0 -1 322 -1 1 -2
2590 -1 4328 -1 601 -1 0 -1 1285 -1 582 -1 340 -1 1 -2
217 -1 212 -1 159 -1 1458 -1 322 -1 1796 -1 1 -2
1373 -1 146 -1 329 -1 125 -1 664 -1 593 -1 17513 -1 0 -1 3443 -1 581 -1 839 -1 1251 -1 201 -1 447 -1 36 -1 125 -1 0 -1 1 -2
10738 -1 0 -1 17514 -1 2403 -1 195 -1 2618 -1 141 -1 1 -2
905 -1 17515 -1 17516 -1 133 -1 2504 -1 1447 -1 6303 -1 7738 -1 0 -1 1393 -1 209 -1 4958 -1 1649 -1 2055 -1 38 -1 1 -2
179 -1 1284 -1 18 -1 85 -1 1 -2
217 -1 0 -1 597 -1 0 -1 17517 -1 40 -1 1802 -1 17518 -1 0 -1 40 -1 2809 -1 1 -2
77 -1 762 -1 116 -1 141 -1 570 -1 1590 -1 937 -1 90 -1 70 -1 0 -1 1 -2
274 -1 1589 -1 327 -1 251 -1 70 -1 1802 -1 17520 -1 17519 -1 987 -1 90 -1 1 -2
0 -1 1450 -1 89 -1 0 -1 70 -1 2006 -1 1 -2
90 -1 70 -1 937 -1 274 -1 155 -1 85 -1 70 -1 1 -2
456 -1 274 -1 155 -1 8950 -1 523 -1 70 -1 247 -1 110 -1 0 -1 274 -1 365 -1 3650 -1 70 -1 0 -1 110 -1 0 -1 937 -1 233 -1 191 -1 2142 -1 18 -1 1 -2
274 -1 7869 -1 0 -1 182 -1 1182 -1 70 -1 1 -2
5468 -1 91 -1 110 -1 146 -1 9042 -1 4711 -1 1 -2
2101 -1 365 -1 3650 -1 1450 -1 0 -1 17521 -1 735 -1 0 -1 125 -1 35 -1 3109 -1 274 -1 116 -1 3996 -1 661 -1 1182 -1 365 -1 3650 -1 1 -2
3948 -1 2054 -1 0 -1 0 -1 2012 -1 0 -1 1755 -1 125 -1 0 -1 125 -1 667 -1 530 -1 272 -1 0 -1 4556 -1 566 -1 1430 -1 8460 -1 1 -2
217 -1 34 -1 40 -1 4328 -1 1802 -1 4713 -1 222 -1 141 -1 664 -1 0 -1 17522 -1 40 -1 1528 -1 17523 -1 1 -2