0 -1 #SUP: 17
5 -1 #SUP: 2
13 -1 #SUP: 2
70 -1 #SUP: 7
77 -1 #SUP: 2
92 -1 #SUP: 2
119 -1 #SUP: 2
125 -1 #SUP: 2
128 -1 #SUP: 2
160 -1 #SUP: 2
207 -1 #SUP: 2
211 -1 #SUP: 2
274 -1 #SUP: 6
329 -1 #SUP: 3
654 -1 #SUP: 2
664 -1 #SUP: 5
666 -1 #SUP: 3
667 -1 #SUP: 2
1511 -1 #SUP: 2
1908 -1 #SUP: 2
2270 -1 #SUP: 2
3421 -1 #SUP: 3
0 -1 0 -1 #SUP: 5
0 -1 70 -1 #SUP: 2
0 -1 92 -1 #SUP: 2
0 -1 329 -1 #SUP: 2
0 -1 664 -1 #SUP: 3
0 -1 666 -1 #SUP: 2
0 -1 667 -1 #SUP: 2
0 -1 3421 -1 #SUP: 2
5 -1 70 -1 #SUP: 2
70 -1 0 -1 #SUP: 3
70 -1 329 -1 #SUP: 2
119 -1 0 -1 #SUP: 2
125 -1 0 -1 #SUP: 2
125 -1 70 -1 #SUP: 2
160 -1 0 -1 #SUP: 2
274 -1 0 -1 #SUP: 3
274 -1 70 -1 #SUP: 2
274 -1 329 -1 #SUP: 2
274 -1 654 -1 #SUP: 2
329 -1 5 -1 #SUP: 2
329 -1 70 -1 #SUP: 2
666 -1 0 -1 #SUP: 2
125 -1 70 -1 0 -1 #SUP: 2
329 -1 5 -1 70 -1 #SUP: 2
