5 -1 0 -1 628 -1 681 -1 506 -1 8043 -1 23478 -1 4976 -1 171 -1 208 -1 4163 -1 23477 -1 1 -2
0 -1 109 -1 864 -1 5749 -1 1 -2
14918 -1 155 -1 8043 -1 32 -1 2036 -1 1 -2
851 -1 1299 -1 351 -1 649 -1 644 -1 1 -2
628 -1 177 -1 87 -1 329 -1 1904 -1 2098 -1 1061 -1 109 -1 224 -1 97 -1 1 -2
745 -1 1061 -1 0 -1 3278 -1 0 -1 215 -1 790 -1 4843 -1 1 -2
92 -1 139 -1 90 -1 125 -1 109 -1 1802 -1 135 -1 3671 -1 5577 -1 1 -2
329 -1 34 -1 522 -1 636 -1 0 -1 109 -1 118 -1 7264 -1 235 -1 329 -1 34 -1 7093 -1 27 -1 1 -2
0 -1 745 -1 1222 -1 40 -1 274 -1 329 -1 135 -1 274 -1 849 -1 659 -1 274 -1 11 -1 2020 -1 1 -2
92 -1 40 -1 57 -1 2098 -1 40 -1 644 -1 40 -1 274 -1 109 -1 13148 -1 1171 -1 1927 -1 1 -2
139 -1 968 -1 77 -1 1389 -1 1114 -1 5078 -1 71 -1 664 -1 1 -2
109 -1 18839 -1 34 -1 2969 -1 0 -1 857 -1 141 -1 0 -1 994 -1 667 -1 97 -1 1 -2
109 -1 5421 -1 400 -1 3661 -1 6200 -1 92 -1 519 -1 11678 -1 2541 -1 1 -2
109 -1 2550 -1 20886 -1 5401 -1 664 -1 145 -1 3099 -1 9416 -1 1 -2
805 -1 136 -1 11513 -1 6699 -1 1 -2
187 -1 274 -1 0 -1 329 -1 135 -1 0 -1 329 -1 87 -1 1 -2
97 -1 329 -1 2259 -1 70 -1 586 -1 435 -1 0 -1 58 -1 125 -1 0 -1 329 -1 135 -1 1902 -1 1 -2
245 -1 5056 -1 275 -1 1619 -1 664 -1 88 -1 2662 -1 275 -1 628 -1 4960 -1 4223 -1 1698 -1 664 -1 1 -2
97 -1 515 -1 0 -1 329 -1 939 -1 11196 -1 0 -1 217 -1 1376 -1 255 -1 1 -2
0 -1 329 -1 9223 -1 2809 -1 790 -1 1061 -1 1 -2
329 -1 499 -1 456 -1 122 -1 425 -1 790 -1 637 -1 23479 -1 0 -1 120 -1 566 -1 1 -2
195 -1 566 -1 1 -2
187 -1 3421 -1 1 -2
4076 -1 425 -1 526 -1 1802 -1 21650 -1 1619 -1 14314 -1 664 -1 1 -2
519 -1 0 -1 92 -1 3098 -1 19146 -1 77 -1 92 -1 1 -2
92 -1 2662 -1 3147 -1 0 -1 329 -1 135 -1 13 -1 92 -1 5 -1 628 -1 2662 -1 92 -1 5 -1 1 -2
23481 -1 2 -1 929 -1 13 -1 23480 -1 0 -2