0 -1 939 -1 1 -2
30 -1 515 -1 0 -1 300 -1 301 -1 1584 -1 1456 -1 644 -1 0 -1 1021 -1 2819 -1 1357 -1 551 -1 1 -2
92 -1 1021 -1 2819 -1 0 -1 146 -1 1 -2
190 -1 677 -1 1608 -1 3656 -1 404 -1 1 -1 4054 -1 0 -1 277 -1 59 -1 112 -1 1 -2
10096 -1 6287 -1 476 -1 1 -2
1802 -1 1463 -1 1894 -1 1623 -1 1 -2
116 -1 3559 -1 2132 -1 2174 -1 120 -1 1 -2
116 -1 2092 -1 1867 -1 1 -2
3366 -1 1212 -1 0 -1 76 -1 101 -1 0 -1 92 -1 1 -2
7466 -1 0 -1 22275 -1 408 -1 34 -1 107 -1 76 -1 1126 -1 1 -2
1463 -1 11443 -1 22276 -1 22277 -1 1 -2
945 -1 339 -1 857 -1 1847 -1 7463 -1 2698 -1 2174 -1 339 -1 0 -1 20705 -1 408 -1 107 -1 0 -1 685 -1 92 -1 132 -2
1463 -1 22278 -1 417 -1 1 -2
141 -1 2065 -1 0 -1 4110 -1 22279 -1 110 -1 417 -1 2396 -1 1 -2
4030 -1 166 -1 0 -1 945 -1 1539 -1 417 -1 1 -2
1153 -1 1446 -1 1450 -1 1 -2
1032 -1 2396 -1 595 -1 2076 -1 1463 -1 1465 -1 857 -1 908 -1 1572 -1 1539 -1 7377 -1 3348 -1 11044 -1 1 -2
12661 -1 10 -1 417 -1 1623 -1 0 -1 1501 -1 248 -1 0 -1 329 -1 409 -1 245 -1 0 -1 3211 -1 1 -2
329 -1 2006 -1 1 -2
2693 -1 1463 -1 12527 -1 7995 -1 513 -1 135 -1 1539 -1 1 -2
159 -1 1 -2
2 -1 329 -1 33 -1 13628 -1 9993 -1 2 -1 329 -1 660 -1 1 -2
58 -1 0 -1 908 -1 4866 -1 1 -2
937 -1 303 -1 937 -1 6333 -1 0 -1 1623 -1 0 -1 5 -1 0 -1 34 -1 9 -1 34 -1 49 -1 2541 -1 1 -2
3267 -1 2174 -1 5121 -1 1 -2
58 -1 76 -1 92 -1 2698 -1 0 -1 19247 -1 229 -1 112 -1 0 -1 92 -1 1 -2
875 -1 0 -1 667 -1 1 -2
136 -1 654 -1 4442 -1 2174 -1 2123 -1 0 -1 135 -1 22280 -1 1 -2
135 -1 2353 -1 93 -1 1 -2
654 -1 1589 -1 5432 -1 135 -1 311 -1 248 -1 594 -1 1 -2
865 -1 0 -1 55 -1 205 -1 135 -1 1198 -1 0 -1 7657 -1 597 -1 0 -1 152 -1 109 -1 4140 -1 4565 -1 664 -1 5 -1 1 -2
1002 -1 0 -1 1747 -1 579 -1 120 -1 141 -1 1 -2
120 -1 105 -1 0 -1 135 -1 10370 -1 2373 -1 77 -1 71 -1 977 -1 1 -2
2635 -1 1048 -1 2364 -1 58 -1 582 -1 18797 -1 0 -1 22281 -1 1 -2
135 -1 644 -1 1 -2
156 -1 85 -1 85 -1 0 -1 644 -1 706 -1 1887 -1 178 -1 0 -1 248 -1 649 -1 3735 -1 1 -2
141 -1 2065 -1 92 -1 4976 -1 85 -1 581 -1 0 -1 839 -1 21755 -1 1 -2
521 -1 1002 -1 228 -1 1739 -1 1 -2
120 -1 2234 -1 1 -2
135 -1 2220 -1 1 -2
22282 -1 1212 -1 1878 -1 0 -1 135 -1 322 -1 1 -2
119 -1 0 -1 76 -1 2640 -1 3278 -1 71 -1 251 -1 90 -1 1 -2
654 -1 8 -1 628 -1 141 -1 2357 -1 155 -1 90 -1 1 -2
29 -1 110 -1 262 -1 1589 -1 70 -1 0 -1 1199 -1 234 -1 1 -2
0 -1 82 -1 0 -1 1908 -1 122 -1 119 -1 668 -1 53 -1 1 -2
718 -1 976 -1 125 -1 67 -1 0 -1 135 -1 1511 -1 666 -1 1 -2
232 -1 1609 -1 977 -1 5177 -1 409 -1 460 -1 58 -1 4430 -1 4989 -1 4988 -1 7805 -1 105 -1 1 -2
89 -1 0 -1 156 -1 58 -1 6765 -1 67 -1 3072 -1 119 -1 1 -2
519 -1 595 -1 717 -1 3656 -1 1511 -1 21818 -1 675 -1 1 -2
767 -1 3656 -1 851 -1 2686 -1 2689 -1 395 -1 329 -1 159 -1 1867 -1 1 -2
167 -1 1810 -1 1623 -1 1 -2