3 -1 #SUP: 2
5 -1 #SUP: 2
7 -1 #SUP: 3
9 -1 #SUP: 2
19 -1 #SUP: 2
27 -1 #SUP: 2
29 -1 #SUP: 2
30 -1 #SUP: 6
33 -1 #SUP: 2
47 -1 #SUP: 2
48 -1 #SUP: 13
50 -1 #SUP: 71
55 -1 #SUP: 2
67 -1 #SUP: 2
114 -1 #SUP: 3
115 -1 #SUP: 3
117 -1 #SUP: 6
144 -1 #SUP: 3
148 -1 #SUP: 6
157 -1 #SUP: 9
172 -1 #SUP: 3
173 -1 #SUP: 3
197 -1 #SUP: 7
240 -1 #SUP: 5
255 -1 #SUP: 17
262 -1 #SUP: 13
271 -1 #SUP: 3
290 -1 #SUP: 2
345 -1 #SUP: 2
350 -1 #SUP: 2
393 -1 #SUP: 2
407 -1 #SUP: 2
408 -1 #SUP: 3
411 -1 #SUP: 3
413 -1 #SUP: 5
423 -1 #SUP: 3
432 -1 #SUP: 4
466 -1 #SUP: 3
471 -1 #SUP: 4
488 -1 #SUP: 5
498 -1 #SUP: 3
504 -1 #SUP: 2
506 -1 #SUP: 2
507 -1 #SUP: 3
520 -1 #SUP: 3
523 -1 #SUP: 2
535 -1 #SUP: 5
582 -1 #SUP: 3
595 -1 #SUP: 3
643 -1 #SUP: 3
656 -1 #SUP: 2
659 -1 #SUP: 2
662 -1 #SUP: 2
736 -1 #SUP: 5
775 -1 #SUP: 3
785 -1 #SUP: 2
928 -1 #SUP: 2
982 -1 #SUP: 2
986 -1 #SUP: 2
1018 -1 #SUP: 2
1019 -1 #SUP: 3
1059 -1 #SUP: 4
1122 -1 #SUP: 3
1151 -1 #SUP: 2
1175 -1 #SUP: 3
1228 -1 #SUP: 2
1265 -1 #SUP: 3
1358 -1 #SUP: 2
1360 -1 #SUP: 2
1404 -1 #SUP: 2
1498 -1 #SUP: 3
1538 -1 #SUP: 2
1673 -1 #SUP: 2
1674 -1 #SUP: 3
1675 -1 #SUP: 2
1690 -1 #SUP: 4
1862 -1 #SUP: 2
1899 -1 #SUP: 2
1931 -1 #SUP: 2
2067 -1 #SUP: 2
2113 -1 #SUP: 2
2284 -1 #SUP: 2
2601 -1 #SUP: 2
2610 -1 #SUP: 2
2850 -1 #SUP: 2
3079 -1 #SUP: 2
3108 -1 #SUP: 3
3339 -1 #SUP: 2
4029 -1 #SUP: 2
4106 -1 #SUP: 2
4334 -1 #SUP: 2
4858 -1 #SUP: 2
5049 -1 #SUP: 2
6523 -1 #SUP: 2
33381 -1 #SUP: 2
3 -1 50 -1 #SUP: 2
27 -1 50 -1 #SUP: 2
30 -1 50 -1 #SUP: 2
48 -1 50 -1 #SUP: 4
48 -1 255 -1 #SUP: 2
48 -1 1122 -1 #SUP: 2
50 -1 7 -1 #SUP: 3
50 -1 9 -1 #SUP: 2
50 -1 29 -1 #SUP: 2
50 -1 30 -1 #SUP: 5
50 -1 48 -1 #SUP: 5
50 -1 50 -1 #SUP: 18
50 -1 117 -1 #SUP: 2
50 -1 144 -1 #SUP: 3
50 -1 148 -1 #SUP: 3
50 -1 157 -1 #SUP: 2
50 -1 173 -1 #SUP: 2
50 -1 197 -1 #SUP: 4
50 -1 255 -1 #SUP: 4
50 -1 262 -1 #SUP: 5
50 -1 271 -1 #SUP: 2
50 -1 423 -1 #SUP: 2
50 -1 471 -1 #SUP: 3
50 -1 488 -1 #SUP: 2
50 -1 498 -1 #SUP: 2
50 -1 504 -1 #SUP: 2
50 -1 643 -1 #SUP: 2
50 -1 662 -1 #SUP: 2
50 -1 1122 -1 #SUP: 2
50 -1 1673 -1 #SUP: 2
50 -1 1862 -1 #SUP: 2
50 -1 3079 -1 #SUP: 2
115 -1 50 -1 #SUP: 3
115 -1 408 -1 #SUP: 2
115 -1 466 -1 #SUP: 2
117 -1 30 -1 #SUP: 2
117 -1 48 -1 #SUP: 2
117 -1 50 -1 #SUP: 2
144 -1 50 -1 #SUP: 2
148 -1 50 -1 #SUP: 4
148 -1 240 -1 #SUP: 2
148 -1 255 -1 #SUP: 3
157 -1 50 -1 #SUP: 5
197 -1 48 -1 #SUP: 2
197 -1 50 -1 #SUP: 3
197 -1 255 -1 #SUP: 2
240 -1 50 -1 #SUP: 3
255 -1 50 -1 #SUP: 8
255 -1 240 -1 #SUP: 2
255 -1 255 -1 #SUP: 3
255 -1 262 -1 #SUP: 2
255 -1 1122 -1 #SUP: 2
262 -1 50 -1 #SUP: 5
262 -1 157 -1 #SUP: 2
262 -1 736 -1 #SUP: 2
271 -1 262 -1 #SUP: 2
350 -1 50 -1 #SUP: 2
408 -1 50 -1 #SUP: 2
408 -1 466 -1 #SUP: 2
413 -1 255 -1 #SUP: 2
432 -1 50 -1 #SUP: 3
466 -1 50 -1 #SUP: 3
466 -1 1358 -1 #SUP: 2
488 -1 50 -1 #SUP: 2
498 -1 50 -1 #SUP: 2
520 -1 50 -1 #SUP: 2
535 -1 50 -1 #SUP: 3
535 -1 1931 -1 #SUP: 2
595 -1 50 -1 #SUP: 2
659 -1 48 -1 #SUP: 2
659 -1 50 -1 #SUP: 2
736 -1 30 -1 #SUP: 2
736 -1 50 -1 #SUP: 2
736 -1 982 -1 #SUP: 2
785 -1 50 -1 #SUP: 2
785 -1 1674 -1 #SUP: 2
982 -1 30 -1 #SUP: 2
982 -1 50 -1 #SUP: 2
1059 -1 50 -1 #SUP: 2
1175 -1 290 -1 #SUP: 2
1228 -1 255 -1 #SUP: 2
1228 -1 413 -1 #SUP: 2
1358 -1 50 -1 #SUP: 2
1538 -1 255 -1 #SUP: 2
1673 -1 50 -1 #SUP: 2
1674 -1 50 -1 #SUP: 2
1675 -1 50 -1 #SUP: 2
1690 -1 50 -1 #SUP: 4
1931 -1 50 -1 #SUP: 2
2284 -1 50 -1 #SUP: 2
2601 -1 50 -1 #SUP: 2
3108 -1 3108 -1 #SUP: 2
4106 -1 50 -1 #SUP: 2
5049 -1 50 -1 #SUP: 2
6523 -1 50 -1 #SUP: 2
33381 -1 50 -1 #SUP: 2
33381 -1 1675 -1 #SUP: 2
48 -1 50 -1 1122 -1 #SUP: 2
48 -1 255 -1 50 -1 #SUP: 2
48 -1 255 -1 1122 -1 #SUP: 2
50 -1 50 -1 7 -1 #SUP: 2
50 -1 50 -1 50 -1 #SUP: 6
50 -1 50 -1 262 -1 #SUP: 3
50 -1 148 -1 50 -1 #SUP: 2
50 -1 197 -1 50 -1 #SUP: 2
50 -1 255 -1 50 -1 #SUP: 3
115 -1 408 -1 50 -1 #SUP: 2
115 -1 408 -1 466 -1 #SUP: 2
115 -1 466 -1 50 -1 #SUP: 2
148 -1 255 -1 240 -1 #SUP: 2
157 -1 50 -1 50 -1 #SUP: 3
197 -1 255 -1 50 -1 #SUP: 2
255 -1 50 -1 50 -1 #SUP: 2
255 -1 50 -1 255 -1 #SUP: 2
255 -1 50 -1 1122 -1 #SUP: 2
262 -1 50 -1 50 -1 #SUP: 4
408 -1 466 -1 50 -1 #SUP: 2
466 -1 1358 -1 50 -1 #SUP: 2
535 -1 1931 -1 50 -1 #SUP: 2
736 -1 50 -1 30 -1 #SUP: 2
736 -1 982 -1 30 -1 #SUP: 2
785 -1 50 -1 50 -1 #SUP: 2
785 -1 1674 -1 50 -1 #SUP: 2
982 -1 30 -1 50 -1 #SUP: 2
1228 -1 413 -1 255 -1 #SUP: 2
1690 -1 50 -1 50 -1 #SUP: 2
6523 -1 50 -1 50 -1 #SUP: 2
33381 -1 1675 -1 50 -1 #SUP: 2
48 -1 255 -1 50 -1 1122 -1 #SUP: 2
50 -1 50 -1 50 -1 50 -1 #SUP: 2
115 -1 408 -1 466 -1 50 -1 #SUP: 2
