849 -1 412 -1 5266 -1 50 -1 91 -1 197 -1 48 -1 1373 -1 33390 -1 19 -2
3596 -1 17945 -1 680 -1 1615 -1 6857 -1 1137 -1 19 -2
262 -1 321 -1 16845 -1 1246 -1 50 -1 1373 -1 50 -1 240 -1 602 -1 890 -1 50 -1 7433 -1 2145 -1 255 -1 461 -1 254 -1 14770 -1 19 -2
2747 -1 1645 -1 545 -1 48 -1 890 -1 19 -2
197 -1 48 -1 3108 -1 788 -1 19 -2
515 -1 48 -1 864 -1 413 -1 216 -1 1027 -1 8057 -1 50 -1 5131 -1 161 -1 50 -1 4102 -1 51947 -1 19 -2
48 -1 3172 -1 3186 -1 49 -1 19 -2
1612 -1 6557 -1 1066 -1 115 -1 50 -1 6557 -1 1939 -1 19 -2
96 -1 1377 -1 32624 -1 1498 -1 4260 -1 50 -1 331 -1 1017 -1 49 -1 19 -2
621 -1 19 -2
240 -1 155 -1 255 -1 19 -2
91 -1 361 -1 11725 -1 109 -1 347 -1 50 -1 361 -1 155 -1 361 -1 11725 -1 109 -1 347 -1 50 -1 347 -1 19 -2
1452 -1 913 -1 50 -1 197 -1 19 -2
1151 -1 564 -1 3747 -1 3635 -1 1879 -1 19 -2
50 -1 3624 -1 255 -1 3736 -1 50 -1 48 -1 680 -1 107 -1 20206 -1 1867 -1 19 -2
1024 -1 117 -1 450 -1 2810 -1 9 -1 1676 -1 50 -1 155 -1 1125 -1 408 -1 520 -1 19 -2
914 -1 48 -1 50 -1 700 -1 19 -2
2083 -1 4310 -1 19 -2
117 -1 489 -1 466 -1 15704 -1 350 -1 9 -1 19 -2
3776 -1 50 -1 1612 -1 469 -1 7434 -1 1125 -1 19 -2
366 -1 9709 -1 1008 -1 19 -2
91 -1 1447 -1 2091 -1 1476 -1 19 -2
1125 -1 466 -1 49 -1 290 -1 50 -1 55347 -1 633 -1 67 -1 404 -1 124 -1 135 -1 201 -1 1476 -1 2552 -1 1395 -1 50 -1 19 -2
117 -1 45440 -1 37540 -1 8972 -1 19 -2
2687 -1 216 -1 155 -1 240 -1 50 -1 1220 -1 448 -1 50 -1 3947 -1 5332 -1 5985 -1 19 -2
240 -1 96 -1 117 -1 19 -2
565 -1 155 -1 50 -1 91 -1 1538 -1 19 -2
274 -1 4 -1 50 -1 748 -1 306 -1 449 -1 299 -1 19 -2
19 -2
52594 -1 1 -2
19281 -1 54 -1 1 -2
19 -2
488 -1 50 -1 403 -1 117 -1 3604 -1 10026 -1 3849 -1 169 -1 5259 -1 19 -2
155 -1 3859 -1 19 -2
413 -1 50 -1 285 -1 286 -1 74865 -1 74867 -1 50 -1 2034 -1 19 -2
7194 -1 50 -1 10508 -1 1018 -1 402 -1 1176 -1 50 -1 287 -1 715 -1 19 -1 19 -1 1151 -1 488 -1 23591 -1 893 -1 2131 -1 6922 -1 19 -2
437 -1 8138 -1 262 -1 122 -1 270 -1 19 -2
23601 -1 266 -1 1195 -1 8310 -1 19 -2
526 -1 5946 -1 7156 -1 962 -1 7834 -1 19 -2
1373 -1 50 -1 1703 -1 2059 -1 164 -1 8385 -1 38591 -1 19 -2
1703 -1 28127 -1 516 -2
1027 -1 50 -1 582 -1 50 -1 5609 -1 498 -1 3712 -1 522 -1 121 -1 117 -1 450 -1 8852 -1 6559 -1 50 -1 1650 -1 50 -1 19 -2
262 -1 42 -1 196 -2
1137 -1 4472 -1 50 -1 1538 -1 255 -1 262 -1 139 -1 3327 -1 19 -2
50 -1 91 -1 42 -1 735 -1 1018 -1 50 -1 1612 -1 254 -1 1101 -1 19 -2
114 -1 535 -1 1265 -1 2 -1 167 -1 365 -1 19 -2
1612 -1 3141 -1 50 -1 155 -1 24399 -1 451 -1 19 -2
1024 -1 91 -1 413 -1 255 -1 1 -2
209 -1 255 -1 6160 -1 471 -1 1892 -1 8138 -1 262 -1 12565 -1 19 -2
8138 -1 262 -1 879 -1 766 -1 3774 -1 121 -1 50 -1 744 -1 735 -1 19 -2
471 -1 1775 -1 6664 -1 2024 -1 216 -1 19 -2
23591 -1 255 -1 19 -2
240 -1 50 -1 117 -1 2349 -1 3518 -1 19 -2
1650 -1 6466 -1 9268 -1 50 -1 1015 -1 19 -2
1293 -1 2083 -1 24779 -1 28 -1 142 -1 50 -1 1071 -1 1 -2
1 -2
242 -1 240 -1 27 -1 6004 -1 19 -2
138 -1 196 -2
262 -1 11173 -1 1373 -1 155 -1 50 -1 155 -1 242 -1 240 -1 255 -1 142 -1 11173 -1 1 -1 19 -2
999 -1 50 -1 262 -1 11857 -1 488 -1 971 -1 19 -2
1111 -1 272 -1 3048 -1 19 -2
268 -1 306 -1 50 -1 75 -1 97264 -1 19 -2
752 -1 1018 -1 19 -2
262 -1 141 -1 285 -1 752 -1 1012 -1 118 -1 19 -2
10713 -1 7719 -1 97266 -1 97265 -1 197 -1 48 -1 1491 -1 3350 -1 19 -2
1377 -1 832 -1 19 -2
4037 -1 50 -1 1599 -1 50 -1 7966 -1 19 -2
48 -1 48 -1 1846 -1 19 -2
1377 -1 1521 -1 1 -2
675 -1 1373 -1 19 -2
306 -1 3623 -1 407 -1 121 -1 19 -2
255 -1 1484 -1 363 -1 19 -2
91 -1 1538 -1 255 -1 48 -1 1415 -1 122 -1 1076 -1 19 -2
91 -1 240 -1 1824 -1 148 -1 3743 -1 50 -1 5840 -1 121 -1 48 -1 6283 -1 19 -2
19 -2
10212 -1 6882 -1 1 -2
19 -2
3127 -1 1016 -1 1 -2
19 -2
197 -1 1162 -1 613 -1 3350 -1 4177 -1 1 -2
19 -2
1435 -1 125 -1 971 -1 19 -2
999 -1 196 -2
4757 -1 50 -1 6063 -1 6867 -1 36 -1 196 -2
167 -1 114 -1 50 -1 240 -1 1 -2
471 -1 662 -1 50 -1 3195 -1 757 -1 5479 -1 19 -2
50 -1 197 -1 48 -1 3195 -1 757 -1 50 -1 216 -1 1690 -1 255 -1 1228 -1 19 -2
471 -1 3127 -1 361 -1 7601 -1 49 -1 278 -1 3591 -1 453 -1 164 -1 6546 -1 530 -1 240 -1 50 -1 6224 -1 19 -2
114 -1 19 -2
155 -1 5164 -1 50 -1 1015 -1 8990 -1 5340 -1 649 -1 19 -2
95 -1 155 -1 5164 -1 881 -1 48 -1 2394 -1 19 -2
1262 -1 779 -1 779 -1 50 -1 48 -1 2394 -1 19 -2
1151 -1 97267 -1 19 -2
1805 -1 3240 -1 1502 -1 19 -2
262 -1 535 -1 50 -1 1495 -1 1538 -1 19 -2
361 -1 644 -1 1094 -1 19 -2
453 -1 197 -1 1162 -1 19 -2
50 -1 242 -1 361 -1 317 -1 19 -2
14893 -1 312 -1 1036 -1 50 -1 2103 -1 224 -1 1652 -1 19 -2
760 -1 50 -1 766 -1 752 -1 306 -1 19 -2
197 -1 19 -2
515 -1 19 -2
91 -1 240 -1 2446 -1 262 -1 1410 -1 4446 -1 879 -1 4446 -1 9 -1 4 -1 50 -1 148 -1 654 -1 55 -1 3009 -1 19 -2
2368 -1 1360 -1 19 -2
50 -1 242 -1 1278 -1 196 -2
3625 -1 19 -2
50 -1 8842 -1 50 -1 748 -1 306 -1 19 -2
278 -1 54 -1 19 -2
9287 -1 365 -1 3140 -1 2848 -1 155 -1 255 -1 50 -1 271 -1 19 -2
1690 -1 262 -1 2531 -1 2532 -1 5164 -1 50 -1 621 -1 3815 -1 19 -2
999 -1 982 -1 30 -1 262 -1 1410 -1 368 -1 288 -1 3 -1 19 -2
255 -1 24473 -1 24474 -1 19 -2
75 -1 50 -1 679 -1 272 -1 1018 -1 50 -1 117 -1 523 -1 849 -1 1043 -1 19 -2
1015 -1 32177 -1 19 -2
18656 -1 777 -1 50 -1 262 -1 5850 -1 19 -2
197 -1 1615 -1 11209 -1 13604 -1 19 -2
3776 -1 1018 -1 50 -1 1612 -1 63545 -1 9 -1 121 -1 19 -2
240 -1 3 -1 7491 -1 50 -1 141 -1 15275 -1 50 -1 141 -1 200 -1 200 -1 773 -1 1592 -1 141 -1 50 -1 361 -1 16446 -1 19 -2
1690 -1 50 -1 748 -1 1803 -1 306 -1 19 -2
262 -1 1220 -1 1083 -1 520 -1 48 -1 311 -1 670 -1 507 -1 50 -1 1137 -1 144 -1 1803 -1 33 -1 19 -2
3732 -1 19 -2
133 -1 1387 -1 50 -1 42 -1 6597 -1 8522 -1 19 -2
55 -1 1556 -1 476 -1 50 -1 1275 -1 451 -1 50 -1 240 -1 48 -1 3725 -1 19 -2
411 -1 19 -2
1015 -1 621 -1 19 -2
685 -1 1714 -1 19 -2
240 -1 1220 -1 550 -1 27 -1 1 -2
4029 -1 118 -1 2665 -1 3790 -1 19 -2
117 -1 520 -1 1225 -1 1136 -1 30140 -1 19 -2
545 -1 141 -1 50 -1 4639 -1 50 -1 1851 -1 50 -1 1487 -1 6116 -1 9 -1 1877 -1 19 -2
1071 -1 50 -1 27 -1 148 -1 1265 -1 19 -2
679 -1 50 -1 1612 -1 1483 -1 19 -2
48 -1 294 -1 2798 -1 50 -1 523 -1 1498 -1 50 -1 2685 -1 271 -1 2273 -1 19 -2
155 -1 1023 -1 488 -1 50 -1 2495 -1 19 -2
498 -1 1047 -1 19 -2
6330 -1 9 -1 50 -1 2705 -1 125 -1 700 -1 19 -2
167 -1 352 -1 50 -1 240 -1 19 -2
8138 -1 262 -1 3 -1 2525 -1 1675 -1 19 -2
1435 -1 144 -1 19 -2
466 -1 65 -1 155 -1 488 -1 50 -1 326 -1 167 -1 33 -1 50 -1 740 -1 33 -1 19 -2
602 -1 578 -1 125 -1 50 -1 1005 -1 2127 -1 3 -1 50 -1 914 -1 50 -1 19 -2
679 -1 1612 -1 19 -2
3491 -1 155 -1 1509 -1 896 -1 19 -2
3374 -1 50 -1 91 -1 1455 -1 3365 -1 117 -1 271 -1 3059 -1 19 -2
1615 -1 1508 -1 2657 -1 466 -1 19 -2
498 -1 999 -1 423 -1 879 -1 3825 -1 19 -2
50 -1 262 -1 13466 -1 50 -1 197 -1 50 -1 809 -1 19 -2
91 -1 156 -1 50 -1 409 -1 5243 -1 19 -2