3 -1 #SUP: 4
6 -1 #SUP: 3
7 -1 #SUP: 13
9 -1 #SUP: 6
17 -1 #SUP: 2
18 -1 #SUP: 2
27 -1 #SUP: 2
33 -1 #SUP: 3
47 -1 #SUP: 3
48 -1 #SUP: 13
49 -1 #SUP: 3
50 -1 #SUP: 64
55 -1 #SUP: 2
91 -1 #SUP: 2
116 -1 #SUP: 2
117 -1 #SUP: 2
121 -1 #SUP: 4
122 -1 #SUP: 3
133 -1 #SUP: 11
144 -1 #SUP: 5
153 -1 #SUP: 2
155 -1 #SUP: 2
240 -1 #SUP: 3
255 -1 #SUP: 4
262 -1 #SUP: 4
269 -1 #SUP: 2
271 -1 #SUP: 2
278 -1 #SUP: 2
279 -1 #SUP: 2
311 -1 #SUP: 2
312 -1 #SUP: 2
326 -1 #SUP: 2
341 -1 #SUP: 2
366 -1 #SUP: 3
408 -1 #SUP: 3
411 -1 #SUP: 4
415 -1 #SUP: 2
453 -1 #SUP: 5
456 -1 #SUP: 2
471 -1 #SUP: 4
488 -1 #SUP: 3
507 -1 #SUP: 2
512 -1 #SUP: 2
522 -1 #SUP: 3
546 -1 #SUP: 3
564 -1 #SUP: 2
643 -1 #SUP: 4
644 -1 #SUP: 2
656 -1 #SUP: 5
670 -1 #SUP: 7
679 -1 #SUP: 5
681 -1 #SUP: 3
700 -1 #SUP: 2
773 -1 #SUP: 2
822 -1 #SUP: 2
849 -1 #SUP: 2
928 -1 #SUP: 4
1018 -1 #SUP: 2
1024 -1 #SUP: 2
1049 -1 #SUP: 2
1122 -1 #SUP: 2
1146 -1 #SUP: 2
1172 -1 #SUP: 2
1175 -1 #SUP: 2
1188 -1 #SUP: 3
1198 -1 #SUP: 2
1229 -1 #SUP: 3
1278 -1 #SUP: 2
1438 -1 #SUP: 2
1498 -1 #SUP: 2
1538 -1 #SUP: 3
1675 -1 #SUP: 2
1678 -1 #SUP: 2
1687 -1 #SUP: 2
1690 -1 #SUP: 5
1692 -1 #SUP: 2
1714 -1 #SUP: 2
1760 -1 #SUP: 3
1957 -1 #SUP: 2
1991 -1 #SUP: 2
2032 -1 #SUP: 2
2083 -1 #SUP: 3
2287 -1 #SUP: 2
2289 -1 #SUP: 4
2610 -1 #SUP: 2
3114 -1 #SUP: 2
3138 -1 #SUP: 2
3500 -1 #SUP: 2
3880 -1 #SUP: 2
4090 -1 #SUP: 2
4143 -1 #SUP: 2
5151 -1 #SUP: 4
5284 -1 #SUP: 2
5405 -1 #SUP: 2
5655 -1 #SUP: 2
5800 -1 #SUP: 2
5818 -1 #SUP: 2
5926 -1 #SUP: 2
6231 -1 #SUP: 2
8711 -1 #SUP: 3
10019 -1 #SUP: 2
19506 -1 #SUP: 2
19515 -1 #SUP: 2
3 -1 7 -1 #SUP: 2
3 -1 50 -1 #SUP: 2
6 -1 17 -1 #SUP: 2
6 -1 18 -1 #SUP: 2
6 -1 2083 -1 #SUP: 2
6 -1 5151 -1 #SUP: 2
6 -1 5800 -1 #SUP: 2
6 -1 19506 -1 #SUP: 2
7 -1 50 -1 #SUP: 6
7 -1 471 -1 #SUP: 2
17 -1 2083 -1 #SUP: 2
17 -1 5151 -1 #SUP: 2
17 -1 5800 -1 #SUP: 2
17 -1 19506 -1 #SUP: 2
18 -1 17 -1 #SUP: 2
18 -1 2083 -1 #SUP: 2
18 -1 5151 -1 #SUP: 2
18 -1 5800 -1 #SUP: 2
18 -1 19506 -1 #SUP: 2
48 -1 33 -1 #SUP: 2
48 -1 50 -1 #SUP: 2
48 -1 10019 -1 #SUP: 2
49 -1 50 -1 #SUP: 2
50 -1 3 -1 #SUP: 2
50 -1 9 -1 #SUP: 2
50 -1 48 -1 #SUP: 6
50 -1 49 -1 #SUP: 2
50 -1 50 -1 #SUP: 11
50 -1 122 -1 #SUP: 2
50 -1 153 -1 #SUP: 2
50 -1 255 -1 #SUP: 2
50 -1 312 -1 #SUP: 2
50 -1 415 -1 #SUP: 2
50 -1 456 -1 #SUP: 2
50 -1 522 -1 #SUP: 2
50 -1 564 -1 #SUP: 2
50 -1 700 -1 #SUP: 2
50 -1 773 -1 #SUP: 2
50 -1 822 -1 #SUP: 2
50 -1 1018 -1 #SUP: 2
117 -1 50 -1 #SUP: 2
133 -1 7 -1 #SUP: 3
133 -1 50 -1 #SUP: 11
133 -1 928 -1 #SUP: 4
133 -1 1172 -1 #SUP: 2
133 -1 1678 -1 #SUP: 2
144 -1 50 -1 #SUP: 2
262 -1 411 -1 #SUP: 2
408 -1 50 -1 #SUP: 2
415 -1 48 -1 #SUP: 2
415 -1 50 -1 #SUP: 2
512 -1 50 -1 #SUP: 2
512 -1 849 -1 #SUP: 2
512 -1 1538 -1 #SUP: 2
670 -1 670 -1 #SUP: 3
679 -1 50 -1 #SUP: 4
681 -1 681 -1 #SUP: 2
849 -1 50 -1 #SUP: 2
849 -1 1538 -1 #SUP: 2
928 -1 50 -1 #SUP: 4
1172 -1 50 -1 #SUP: 2
1175 -1 50 -1 #SUP: 2
1188 -1 50 -1 #SUP: 2
1278 -1 48 -1 #SUP: 2
1278 -1 50 -1 #SUP: 2
1278 -1 415 -1 #SUP: 2
1538 -1 50 -1 #SUP: 3
1678 -1 50 -1 #SUP: 2
1678 -1 1172 -1 #SUP: 2
1690 -1 50 -1 #SUP: 2
1690 -1 1018 -1 #SUP: 2
1714 -1 366 -1 #SUP: 2
2083 -1 5151 -1 #SUP: 2
2083 -1 5800 -1 #SUP: 2
3138 -1 50 -1 #SUP: 2
5800 -1 5151 -1 #SUP: 2
5926 -1 50 -1 #SUP: 2
10019 -1 33 -1 #SUP: 2
19506 -1 2083 -1 #SUP: 2
19506 -1 5151 -1 #SUP: 2
19506 -1 5800 -1 #SUP: 2
6 -1 17 -1 2083 -1 #SUP: 2
6 -1 17 -1 5151 -1 #SUP: 2
6 -1 17 -1 5800 -1 #SUP: 2
6 -1 17 -1 19506 -1 #SUP: 2
6 -1 18 -1 17 -1 #SUP: 2
6 -1 18 -1 2083 -1 #SUP: 2
6 -1 18 -1 5151 -1 #SUP: 2
6 -1 18 -1 5800 -1 #SUP: 2
6 -1 18 -1 19506 -1 #SUP: 2
6 -1 2083 -1 5151 -1 #SUP: 2
6 -1 2083 -1 5800 -1 #SUP: 2
6 -1 5800 -1 5151 -1 #SUP: 2
6 -1 19506 -1 2083 -1 #SUP: 2
6 -1 19506 -1 5151 -1 #SUP: 2
6 -1 19506 -1 5800 -1 #SUP: 2
7 -1 50 -1 50 -1 #SUP: 2
17 -1 2083 -1 5151 -1 #SUP: 2
17 -1 2083 -1 5800 -1 #SUP: 2
17 -1 5800 -1 5151 -1 #SUP: 2
17 -1 19506 -1 2083 -1 #SUP: 2
17 -1 19506 -1 5151 -1 #SUP: 2
17 -1 19506 -1 5800 -1 #SUP: 2
18 -1 17 -1 2083 -1 #SUP: 2
18 -1 17 -1 5151 -1 #SUP: 2
18 -1 17 -1 5800 -1 #SUP: 2
18 -1 17 -1 19506 -1 #SUP: 2
18 -1 2083 -1 5151 -1 #SUP: 2
18 -1 2083 -1 5800 -1 #SUP: 2
18 -1 5800 -1 5151 -1 #SUP: 2
18 -1 19506 -1 2083 -1 #SUP: 2
18 -1 19506 -1 5151 -1 #SUP: 2
18 -1 19506 -1 5800 -1 #SUP: 2
48 -1 50 -1 50 -1 #SUP: 2
48 -1 10019 -1 33 -1 #SUP: 2
50 -1 48 -1 50 -1 #SUP: 2
50 -1 50 -1 48 -1 #SUP: 2
50 -1 50 -1 50 -1 #SUP: 3
50 -1 415 -1 48 -1 #SUP: 2
50 -1 415 -1 50 -1 #SUP: 2
133 -1 7 -1 50 -1 #SUP: 3
133 -1 50 -1 50 -1 #SUP: 5
133 -1 928 -1 50 -1 #SUP: 4
133 -1 1172 -1 50 -1 #SUP: 2
133 -1 1678 -1 50 -1 #SUP: 2
133 -1 1678 -1 1172 -1 #SUP: 2
415 -1 50 -1 48 -1 #SUP: 2
512 -1 849 -1 50 -1 #SUP: 2
512 -1 849 -1 1538 -1 #SUP: 2
512 -1 1538 -1 50 -1 #SUP: 2
670 -1 670 -1 670 -1 #SUP: 3
849 -1 1538 -1 50 -1 #SUP: 2
928 -1 50 -1 50 -1 #SUP: 2
1278 -1 50 -1 48 -1 #SUP: 2
1278 -1 50 -1 50 -1 #SUP: 2
1278 -1 50 -1 415 -1 #SUP: 2
1278 -1 415 -1 48 -1 #SUP: 2
1278 -1 415 -1 50 -1 #SUP: 2
1678 -1 1172 -1 50 -1 #SUP: 2
1690 -1 50 -1 1018 -1 #SUP: 2
2083 -1 5800 -1 5151 -1 #SUP: 2
19506 -1 2083 -1 5151 -1 #SUP: 2
19506 -1 2083 -1 5800 -1 #SUP: 2
19506 -1 5800 -1 5151 -1 #SUP: 2
6 -1 17 -1 2083 -1 5151 -1 #SUP: 2
6 -1 17 -1 2083 -1 5800 -1 #SUP: 2
6 -1 17 -1 5800 -1 5151 -1 #SUP: 2
6 -1 17 -1 19506 -1 2083 -1 #SUP: 2
6 -1 17 -1 19506 -1 5151 -1 #SUP: 2
6 -1 17 -1 19506 -1 5800 -1 #SUP: 2
6 -1 18 -1 17 -1 2083 -1 #SUP: 2
6 -1 18 -1 17 -1 5151 -1 #SUP: 2
6 -1 18 -1 17 -1 5800 -1 #SUP: 2
6 -1 18 -1 17 -1 19506 -1 #SUP: 2
6 -1 18 -1 2083 -1 5151 -1 #SUP: 2
6 -1 18 -1 2083 -1 5800 -1 #SUP: 2
6 -1 18 -1 5800 -1 5151 -1 #SUP: 2
6 -1 18 -1 19506 -1 2083 -1 #SUP: 2
6 -1 18 -1 19506 -1 5151 -1 #SUP: 2
6 -1 18 -1 19506 -1 5800 -1 #SUP: 2
6 -1 2083 -1 5800 -1 5151 -1 #SUP: 2
6 -1 19506 -1 2083 -1 5151 -1 #SUP: 2
6 -1 19506 -1 2083 -1 5800 -1 #SUP: 2
6 -1 19506 -1 5800 -1 5151 -1 #SUP: 2
17 -1 2083 -1 5800 -1 5151 -1 #SUP: 2
17 -1 19506 -1 2083 -1 5151 -1 #SUP: 2
17 -1 19506 -1 2083 -1 5800 -1 #SUP: 2
17 -1 19506 -1 5800 -1 5151 -1 #SUP: 2
18 -1 17 -1 2083 -1 5151 -1 #SUP: 2
18 -1 17 -1 2083 -1 5800 -1 #SUP: 2
18 -1 17 -1 5800 -1 5151 -1 #SUP: 2
18 -1 17 -1 19506 -1 2083 -1 #SUP: 2
18 -1 17 -1 19506 -1 5151 -1 #SUP: 2
18 -1 17 -1 19506 -1 5800 -1 #SUP: 2
18 -1 2083 -1 5800 -1 5151 -1 #SUP: 2
18 -1 19506 -1 2083 -1 5151 -1 #SUP: 2
18 -1 19506 -1 2083 -1 5800 -1 #SUP: 2
18 -1 19506 -1 5800 -1 5151 -1 #SUP: 2
50 -1 48 -1 50 -1 50 -1 #SUP: 2
50 -1 415 -1 50 -1 48 -1 #SUP: 2
133 -1 7 -1 50 -1 50 -1 #SUP: 2
133 -1 928 -1 50 -1 50 -1 #SUP: 2
133 -1 1678 -1 1172 -1 50 -1 #SUP: 2
512 -1 849 -1 1538 -1 50 -1 #SUP: 2
670 -1 670 -1 670 -1 670 -1 #SUP: 3
1278 -1 50 -1 50 -1 48 -1 #SUP: 2
1278 -1 50 -1 415 -1 48 -1 #SUP: 2
1278 -1 50 -1 415 -1 50 -1 #SUP: 2
1278 -1 415 -1 50 -1 48 -1 #SUP: 2
19506 -1 2083 -1 5800 -1 5151 -1 #SUP: 2
6 -1 17 -1 2083 -1 5800 -1 5151 -1 #SUP: 2
6 -1 17 -1 19506 -1 2083 -1 5151 -1 #SUP: 2
6 -1 17 -1 19506 -1 2083 -1 5800 -1 #SUP: 2
6 -1 17 -1 19506 -1 5800 -1 5151 -1 #SUP: 2
6 -1 18 -1 17 -1 2083 -1 5151 -1 #SUP: 2
6 -1 18 -1 17 -1 2083 -1 5800 -1 #SUP: 2
6 -1 18 -1 17 -1 5800 -1 5151 -1 #SUP: 2
6 -1 18 -1 17 -1 19506 -1 2083 -1 #SUP: 2
6 -1 18 -1 17 -1 19506 -1 5151 -1 #SUP: 2
6 -1 18 -1 17 -1 19506 -1 5800 -1 #SUP: 2
6 -1 18 -1 2083 -1 5800 -1 5151 -1 #SUP: 2
6 -1 18 -1 19506 -1 2083 -1 5151 -1 #SUP: 2
6 -1 18 -1 19506 -1 2083 -1 5800 -1 #SUP: 2
6 -1 18 -1 19506 -1 5800 -1 5151 -1 #SUP: 2
6 -1 19506 -1 2083 -1 5800 -1 5151 -1 #SUP: 2
17 -1 19506 -1 2083 -1 5800 -1 5151 -1 #SUP: 2
18 -1 17 -1 2083 -1 5800 -1 5151 -1 #SUP: 2
18 -1 17 -1 19506 -1 2083 -1 5151 -1 #SUP: 2
18 -1 17 -1 19506 -1 2083 -1 5800 -1 #SUP: 2
18 -1 17 -1 19506 -1 5800 -1 5151 -1 #SUP: 2
18 -1 19506 -1 2083 -1 5800 -1 5151 -1 #SUP: 2
670 -1 670 -1 670 -1 670 -1 670 -1 #SUP: 3
1278 -1 50 -1 415 -1 50 -1 48 -1 #SUP: 2
6 -1 17 -1 19506 -1 2083 -1 5800 -1 5151 -1 #SUP: 2
6 -1 18 -1 17 -1 2083 -1 5800 -1 5151 -1 #SUP: 2
6 -1 18 -1 17 -1 19506 -1 2083 -1 5151 -1 #SUP: 2
6 -1 18 -1 17 -1 19506 -1 2083 -1 5800 -1 #SUP: 2
6 -1 18 -1 17 -1 19506 -1 5800 -1 5151 -1 #SUP: 2
6 -1 18 -1 19506 -1 2083 -1 5800 -1 5151 -1 #SUP: 2
18 -1 17 -1 19506 -1 2083 -1 5800 -1 5151 -1 #SUP: 2
670 -1 670 -1 670 -1 670 -1 670 -1 670 -1 #SUP: 2
6 -1 18 -1 17 -1 19506 -1 2083 -1 5800 -1 5151 -1 #SUP: 2
