87399 -1 10067 -1 48 -1 144 -1 17197 -1 262 -1 2531 -1 2532 -1 535 -1 50 -1 197 -1 28914 -1 11946 -1 87400 -1 19 -2
1088 -1 21369 -1 19 -1 3735 -1 5135 -1 535 -1 37937 -1 7 -1 21369 -1 19 -1 9588 -1 1675 -1 1 -1 19 -2
1038 -1 1222 -1 1038 -1 1222 -1 1222 -1 6523 -1 26954 -1 1674 -1 19 -2
117 -1 506 -1 564 -1 550 -1 9393 -1 1012 -1 48 -1 117 -1 3908 -1 19 -2
1019 -1 50 -1 1111 -1 197 -1 413 -1 19 -2
1885 -1 581 -1 8615 -1 4665 -1 1591 -1 5070 -1 2692 -1 8806 -1 363 -1 10848 -1 1111 -1 19 -2
116 -1 262 -1 28210 -1 87402 -1 87401 -1 28210 -1 38192 -1 8374 -1 19 -2
48 -1 785 -1 329 -1 15297 -1 155 -1 4389 -1 9599 -1 3849 -1 19 -2
1677 -1 7124 -1 663 -1 15591 -1 1140 -1 1018 -1 3849 -1 1865 -1 169 -1 19 -2
5 -1 18 -1 17 -1 87403 -1 685 -1 196 -2
2062 -1 50 -1 11468 -1 19 -2
117 -1 3366 -1 253 -1 3288 -1 404 -1 155 -1 1704 -1 1005 -1 595 -1 19 -2
262 -1 278 -1 7655 -1 287 -1 537 -1 748 -1 255 -1 526 -1 5164 -1 679 -1 117 -1 748 -1 117 -1 12621 -1 806 -1 2394 -1 43 -1 19 -2
1435 -1 675 -1 6924 -1 6891 -1 5147 -1 19 -2
6471 -1 12538 -1 14814 -1 9826 -1 19173 -1 3439 -1 26505 -1 21594 -1 201 -1 15505 -1 3032 -1 2849 -1 4018 -1 1265 -1 1803 -1 33 -1 19 -2
5 -1 18 -1 17 -1 87404 -1 3395 -1 2916 -1 19 -1 19 -1 197 -1 1358 -1 3330 -1 1103 -1 5651 -1 48 -1 11770 -1 896 -1 9 -1 19 -2
597 -1 17426 -1 5817 -1 50 -1 4213 -1 1094 -1 50 -1 1633 -1 19 -2
48 -1 74 -1 19 -2
48 -1 6317 -1 45188 -1 19 -2
6764 -1 1270 -1 5070 -1 859 -1 1538 -1 5582 -1 462 -1 39642 -1 5730 -1 19 -2
1019 -1 50 -1 117 -1 7464 -1 19 -2
117 -1 10132 -1 2206 -1 1865 -1 50 -1 34376 -1 2378 -1 16338 -1 65726 -1 5015 -1 7032 -1 597 -1 1018 -1 5817 -1 19 -2
3761 -1 18783 -1 7249 -1 7754 -1 7758 -1 65240 -1 3735 -1 87406 -1 438 -1 40259 -1 7611 -1 23417 -1 50 -1 1928 -1 39045 -1 37708 -1 87405 -1 15505 -1 3032 -1 520 -1 2705 -1 8443 -1 240 -1 471 -1 254 -1 49645 -1 47 -1 8448 -1 34132 -1 19 -2
1862 -1 255 -1 1730 -1 6447 -1 22371 -1 19 -2
507 -1 8343 -1 1348 -1 2831 -1 535 -1 19 -2
11045 -1 50 -1 19 -2
148 -1 471 -1 3776 -1 3782 -1 5785 -1 197 -1 408 -1 934 -1 3695 -1 366 -1 681 -1 4668 -1 107 -1 1332 -1 50 -1 2583 -1 564 -1 792 -1 6759 -1 1140 -1 602 -1 6690 -1 5868 -1 19 -2
103 -1 122 -1 29 -1 103 -1 2814 -1 155 -1 103 -1 10005 -1 6900 -1 3683 -1 1018 -1 3683 -1 8916 -1 6178 -1 1024 -1 679 -1 50 -1 117 -1 1404 -1 1681 -1 10800 -1 7645 -1 262 -1 620 -1 3410 -1 14873 -1 19 -2
1754 -1 5785 -1 262 -1 773 -1 3414 -1 1419 -1 144 -1 19 -2
1241 -1 19 -2
498 -1 1047 -1 784 -1 19 -2
361 -1 1784 -1 1862 -1 7019 -1 8026 -1 19 -2
117 -1 4859 -1 50 -1 1089 -1 1265 -1 262 -1 5284 -1 40932 -1 33 -1 19 -2
19 -2
1865 -1 3097 -1 1723 -1 91 -1 3365 -1 33006 -1 105 -1 266 -1 20977 -1 19 -2
91 -1 555 -1 7027 -1 8363 -1 1024 -1 155 -1 4698 -1 287 -1 248 -1 6447 -1 20154 -1 12953 -1 19 -2
494 -1 87407 -1 7611 -1 613 -1 2480 -1 737 -1 19 -2
19 -2
197 -1 7916 -1 115 -1 48 -1 57447 -1 4902 -1 1623 -1 87408 -1 19 -2
17849 -1 114 -1 50 -1 1272 -1 248 -1 39187 -1 186 -1 50 -1 19 -2
404 -1 4195 -1 81 -1 520 -1 240 -1 10365 -1 24409 -1 1692 -1 2045 -1 94 -1 19435 -1 19 -2
197 -1 48 -1 7 -1 19 -2
144 -1 535 -1 197 -1 407 -1 986 -1 1894 -1 1520 -1 164 -1 50 -1 1520 -1 6270 -1 9706 -1 1036 -1 3007 -1 3919 -1 1576 -1 19 -2
13189 -1 15505 -1 3032 -1 11004 -1 13120 -1 19 -1 2949 -1 28258 -1 28261 -1 87409 -1 8447 -1 2838 -1 7434 -1 10087 -1 7249 -1 25893 -1 740 -1 867 -1 118 -1 122 -1 50 -1 122 -1 50 -1 49 -1 19 -2
3761 -1 18783 -1 306 -1 4554 -1 240 -1 19 -2
4328 -1 21662 -1 282 -1 19 -2
49 -1 2248 -1 8931 -1 19 -2
298 -1 287 -1 50 -1 4833 -1 74 -1 3395 -1 19 -2
48 -1 615 -1 196 -2
1038 -1 148 -1 498 -1 1088 -1 21369 -1 19 -1 3735 -1 5135 -1 36376 -1 19 -2
48 -1 1987 -1 2215 -1 2935 -1 1071 -1 81632 -1 19 -2
43339 -1 1516 -1 18781 -1 564 -1 19 -2
471 -1 2783 -1 5486 -1 1660 -1 262 -1 993 -1 148 -1 3589 -1 1947 -1 255 -1 148 -1 1377 -1 2010 -1 1879 -1 19 -2
853 -1 428 -1 19 -2
287 -1 50 -1 4833 -1 50 -1 404 -1 735 -1 19 -2
1572 -1 4638 -1 121 -1 595 -1 19 -2
1494 -1 507 -1 121 -1 19 -2
10409 -1 7924 -1 19 -2
118 -1 21622 -1 19 -2
271 -1 6729 -1 1584 -1 19 -2
602 -1 9520 -1 672 -1 19 -2
471 -1 322 -1 8775 -1 19 -2
471 -1 155 -1 471 -1 595 -1 19 -2
148 -1 255 -1 3777 -1 19 -2
4260 -1 19 -2
453 -1 214 -1 453 -1 6759 -1 4955 -1 713 -1 97 -1 290 -1 262 -1 1265 -1 1717 -1 1704 -1 19 -2
1538 -1 2936 -1 1602 -1 1838 -1 311 -1 181 -1 19 -2
117 -1 1036 -1 3368 -1 117 -1 738 -1 21289 -1 736 -1 7 -1 33 -1 1018 -1 546 -1 5068 -1 5775 -1 535 -1 167 -1 19 -2
351 -1 722 -1 2934 -1 19 -2
167 -1 3712 -1 1 -2
1928 -1 806 -1 3854 -1 19 -2
262 -1 507 -1 2800 -1 254 -1 506 -1 326 -1 1006 -1 1499 -1 300 -1 2495 -1 19 -2
775 -1 19 -2
999 -1 50 -1 262 -1 3732 -1 41 -1 4100 -1 91 -1 255 -1 1248 -1 344 -1 3376 -1 19 -2
48 -1 1910 -1 934 -1 8418 -1 155 -1 19 -2
328 -1 423 -1 467 -1 50 -1 545 -1 19 -2
1910 -1 5043 -1 9826 -1 19173 -1 879 -1 1029 -1 19 -2
3169 -1 286 -1 50 -1 48 -1 5042 -1 9113 -1 58857 -1 3918 -1 626 -1 299 -1 290 -1 2387 -1 6322 -1 19 -2
283 -1 50 -1 685 -1 19 -2
507 -1 25084 -1 196 -2
1094 -1 48 -1 1200 -1 353 -1 107 -1 1674 -1 7 -1 262 -1 564 -1 2289 -1 19 -2
5964 -1 18182 -1 2814 -1 520 -1 3687 -1 19 -2
262 -1 5113 -1 117 -1 1404 -1 1018 -1 3051 -1 6447 -1 4698 -1 287 -1 248 -1 19 -2
773 -1 508 -1 3088 -1 50 -1 48 -1 19 -2
1953 -1 155 -1 471 -1 287 -1 19 -2
19 -2
197 -1 48 -1 18819 -1 509 -1 2164 -1 122 -1 3015 -1 155 -1 18819 -1 1377 -1 297 -1 11731 -1 50 -1 361 -1 637 -1 1998 -1 262 -1 853 -1 50 -1 19 -2
784 -1 196 -2
117 -1 717 -1 3881 -1 50 -1 8855 -1 299 -1 504 -1 357 -1 1885 -1 390 -1 19 -2
117 -1 286 -1 23417 -1 6056 -1 6149 -1 19 -2
1111 -1 87410 -1 24286 -1 2324 -1 19 -2
197 -1 7001 -1 297 -1 12179 -1 19 -2
759 -1 10766 -1 29 -1 167 -1 115 -1 1525 -1 352 -1 544 -1 2751 -1 19 -2
50 -1 5526 -1 254 -1 6896 -1 34828 -1 1928 -1 114 -1 263 -1 1005 -1 19 -2
850 -1 19 -2
551 -1 181 -1 357 -1 196 -2
130 -1 31945 -1 196 -2
1910 -1 230 -1 50 -1 4981 -1 581 -1 113 -1 3221 -1 4100 -1 1103 -1 2013 -1 4177 -1 287 -1 19 -2
809 -1 255 -1 196 -2
15505 -1 3032 -1 28258 -1 28261 -1 19 -2
1019 -1 50 -1 1015 -1 1151 -1 1692 -1 8646 -1 1865 -1 50 -1 1595 -1 2662 -1 19 -2
48 -1 122 -1 240 -1 262 -1 3687 -1 196 -2
48 -1 507 -1 8904 -1 1033 -1 1005 -1 1905 -1 19 -2
289 -1 9 -1 50 -1 507 -1 5017 -1 19 -2
122 -1 29 -1 148 -1 112 -1 289 -1 3141 -1 33 -1 50 -1 271 -1 476 -1 4509 -1 19 -2