742 -1 390 -1 3135 -1 50 -1 117 -1 752 -1 2692 -1 50 -1 19 -2
602 -1 2759 -1 19 -2
3706 -1 50 -1 17653 -1 50 -1 7602 -1 1676 -1 466 -1 306 -1 19 -2
3695 -1 19 -2
117 -1 185 -1 1059 -1 2751 -1 755 -1 361 -1 50 -1 262 -1 773 -1 5262 -1 2273 -1 7744 -1 9 -1 1 -2
1537 -1 28863 -1 515 -1 9 -1 1 -2
6 -1 18 -1 17 -1 28865 -1 28864 -1 144 -1 2788 -1 169 -1 10387 -1 19 -2
48 -1 28866 -1 8292 -1 19 -2
345 -1 50 -1 679 -1 9825 -1 295 -1 19 -2
345 -1 50 -1 1519 -1 1024 -1 1151 -1 1678 -1 28868 -1 1426 -1 21840 -1 50 -1 1862 -1 535 -1 271 -1 763 -1 255 -1 670 -1 2565 -1 13256 -1 28867 -1 957 -1 2890 -1 3877 -1 390 -1 544 -1 1377 -1 552 -1 1255 -1 50 -1 1542 -1 91 -1 1377 -1 552 -1 50 -1 255 -1 1377 -1 357 -1 2447 -1 19 -2
1435 -1 28869 -1 821 -1 390 -1 5 -1 14279 -1 148 -1 6783 -1 76 -1 56 -1 28870 -1 1590 -1 11997 -1 399 -1 3107 -1 50 -1 1455 -1 775 -1 9340 -1 2697 -1 155 -1 50 -1 613 -1 3732 -1 1495 -1 1018 -1 1597 -1 19031 -1 266 -1 50 -1 327 -1 266 -1 451 -1 1996 -1 3263 -1 2166 -1 19 -2
3490 -1 266 -1 261 -1 896 -1 1509 -1 19 -2
117 -1 416 -1 5937 -1 1059 -1 20900 -1 139 -1 19 -2
66 -1 50 -1 3118 -1 28871 -1 19 -2
66 -1 412 -1 1018 -1 115 -1 19 -2
262 -1 1008 -1 7018 -1 50 -1 775 -1 5468 -1 356 -1 2692 -1 50 -1 1010 -1 363 -1 1855 -1 262 -1 879 -1 2793 -1 19 -2
6465 -1 5183 -1 2103 -1 25035 -1 25034 -1 1519 -1 19720 -1 50 -1 255 -1 5476 -1 50 -1 412 -1 3059 -1 4267 -1 416 -1 451 -1 3357 -1 396 -1 1131 -1 33 -1 19 -2
91 -1 240 -1 19 -2
1538 -1 48 -1 6910 -1 2565 -1 806 -1 394 -1 1115 -1 494 -1 105 -1 1047 -1 498 -1 50 -1 262 -1 306 -1 28873 -1 28054 -1 16304 -1 382 -1 3259 -1 28872 -1 3 -1 18265 -1 50 -1 50 -1 428 -1 19228 -1 91 -1 1489 -1 494 -1 348 -1 197 -1 700 -1 19 -2
494 -1 28874 -1 3546 -1 19 -2
420 -1 643 -1 4351 -1 28875 -1 50 -1 420 -1 614 -1 2894 -1 3770 -1 50 -1 777 -1 262 -1 4477 -1 737 -1 19 -2
6617 -1 3238 -1 19 -2
75 -1 314 -1 1757 -1 7449 -1 197 -1 121 -1 488 -1 11118 -1 2751 -1 29 -1 50 -1 1538 -1 552 -1 291 -1 49 -1 1151 -1 19 -2
1803 -1 33 -1 50 -1 1801 -1 50 -1 698 -1 19 -2
341 -1 1692 -1 1998 -1 19 -2
3824 -1 33 -1 2375 -1 2657 -1 19095 -1 19 -2
698 -1 1220 -1 19 -2
507 -1 6047 -1 262 -1 2531 -1 2532 -1 5164 -1 19 -2
48 -1 2692 -1 3435 -1 411 -1 7449 -1 148 -1 957 -1 3357 -1 19 -2
1225 -1 50 -1 1204 -1 1538 -1 748 -1 5625 -1 91 -1 50 -1 91 -1 1538 -1 255 -1 1619 -1 19 -2
240 -1 390 -1 288 -1 1016 -1 1393 -1 331 -1 399 -1 2671 -1 2871 -1 635 -1 802 -1 1 -2
96 -1 19 -2
28876 -1 500 -1 50 -1 2800 -1 28876 -1 50 -1 19 -2
7998 -1 5511 -1 1412 -1 4249 -1 1865 -1 4141 -1 50 -1 14872 -1 784 -1 50 -1 28877 -1 1412 -1 1894 -1 19 -2
3055 -1 19 -2
498 -1 19237 -1 50 -1 1645 -1 456 -1 595 -1 2010 -1 1538 -1 550 -1 1 -2
962 -1 3352 -1 50 -1 7998 -1 306 -1 1081 -1 2429 -1 1267 -1 1272 -1 1415 -1 19 -2
14420 -1 3832 -1 550 -1 494 -1 19 -2
614 -1 157 -1 13605 -1 30 -1 50 -1 1015 -1 3 -1 13605 -1 30 -1 1520 -1 552 -1 2803 -1 538 -1 14945 -1 4197 -1 5150 -1 19 -2
300 -1 28878 -1 7007 -1 20720 -1 158 -1 19173 -1 50 -1 3832 -1 550 -1 494 -1 110 -1 1760 -1 1076 -1 1228 -1 679 -1 20720 -1 7007 -1 498 -1 157 -1 1487 -1 1519 -1 1637 -1 1019 -1 785 -1 7007 -1 1599 -1 562 -1 3 -1 602 -1 1415 -1 50 -1 552 -1 50 -1 3293 -1 552 -1 50 -1 820 -1 153 -1 10826 -1 13273 -1 19 -2
665 -1 2788 -1 19 -2
5154 -1 263 -1 50 -1 91 -1 720 -1 2751 -1 19 -2
3792 -1 263 -1 153 -1 50 -1 91 -1 720 -1 2751 -1 19 -2
19 -2
2916 -1 91 -1 5400 -1 389 -1 50 -1 2788 -1 1538 -1 255 -1 50 -1 262 -1 509 -1 832 -1 48 -1 28879 -1 413 -1 50 -1 117 -1 8508 -1 117 -1 738 -1 4197 -1 19 -2
679 -1 19 -2
2005 -1 1953 -1 8749 -1 186 -1 289 -1 202 -1 16080 -1 679 -1 1846 -1 50 -1 289 -1 8025 -1 28880 -1 1220 -1 2005 -1 19 -2
1538 -1 255 -1 262 -1 216 -1 785 -1 1255 -1 50 -1 22707 -1 2378 -1 403 -1 50 -1 2044 -1 255 -1 50 -1 1220 -1 55 -1 412 -1 1538 -1 2380 -1 50 -1 1849 -1 50 -1 10 -1 19 -2
49 -1 2286 -1 10015 -1 2302 -1 954 -1 3589 -1 955 -1 299 -1 1225 -1 2286 -1 10015 -1 2302 -1 197 -1 4100 -1 50 -1 875 -1 7409 -1 50 -1 715 -1 155 -1 50 -1 91 -1 197 -1 1272 -1 19 -2
5 -1 1218 -1 28881 -1 5 -1 1218 -1 28882 -1 55 -1 1905 -1 1810 -1 875 -1 1973 -1 1043 -1 155 -1 50 -1 262 -1 3172 -1 1248 -1 2079 -1 50 -1 3546 -1 50 -1 456 -1 2158 -1 155 -1 19 -2
127 -1 898 -1 3099 -1 5511 -1 24179 -1 50 -1 716 -1 2772 -1 50 -1 766 -1 1704 -1 3079 -1 2671 -1 6930 -1 12740 -1 738 -1 1018 -1 9 -1 19 -2
413 -1 1415 -1 4 -1 2671 -1 6930 -1 12740 -1 19 -2
1690 -1 1803 -1 33 -1 2286 -1 10015 -1 2302 -1 172 -1 626 -1 2550 -1 96 -1 700 -1 121 -1 1255 -1 6357 -1 390 -1 155 -1 31 -1 19237 -1 118 -1 390 -1 122 -1 50 -1 3172 -1 456 -1 155 -1 7483 -1 242 -1 1495 -1 50 -1 297 -1 733 -1 28883 -1 201 -1 390 -2