809 -1 2083 -1 196 -2
122 -1 5724 -1 196 -2
1094 -1 1094 -1 1094 -1 50 -1 91 -1 50 -1 19 -2
50 -1 957 -1 50 -1 5359 -1 123366 -1 95 -1 14742 -1 50 -1 915 -1 1494 -1 50 -1 4421 -1 1248 -1 4292 -1 29765 -1 3108 -1 170 -1 19 -2
146 -1 1171 -1 13041 -1 138 -1 19 -2
225 -1 13041 -1 196 -2
255 -1 3128 -1 16018 -1 153 -1 583 -1 48 -1 493 -1 19 -2
5862 -1 1395 -1 19 -2
8007 -1 1024 -1 262 -1 449 -1 19 -2
449 -1 4106 -1 114 -1 4322 -1 894 -1 50 -1 656 -1 196 -2
117 -1 748 -1 255 -1 1692 -1 197 -1 898 -1 1760 -1 50 -1 48 -1 122 -1 853 -1 19 -2
48 -1 6057 -1 785 -1 2045 -1 1259 -1 299 -1 290 -1 50 -1 19 -2
96 -1 335 -1 1 -2
509 -1 1557 -1 4501 -1 387 -1 1 -2
50 -1 19 -2
335 -1 520 -1 155 -1 262 -1 864 -1 50 -1 1023 -1 1 -2
49 -1 19 -2
5 -1 18 -1 17 -1 123369 -1 5 -1 18 -1 17 -1 123368 -1 123367 -1 1076 -1 564 -1 1071 -1 19 -2
679 -1 50 -1 19 -2
2722 -1 507 -1 2915 -1 4162 -1 263 -1 1865 -1 775 -1 14881 -1 19 -2
33 -1 48 -1 2375 -1 19 -2
1763 -1 390 -1 4849 -1 1 -2
3015 -1 1 -2
1 -2
411 -1 1876 -1 19 -2
23189 -1 12425 -1 535 -1 19 -2
413 -1 10774 -1 37962 -1 50 -1 8514 -1 16993 -1 700 -1 155 -1 2791 -1 700 -1 3094 -1 19 -2
967 -1 520 -1 19 -2
2044 -1 3554 -1 181 -1 5 -1 4276 -1 535 -1 1227 -1 12251 -1 123370 -1 54065 -1 425 -1 1685 -1 1360 -1 48886 -1 413 -1 19 -2
50 -1 520 -1 3664 -1 9615 -1 148 -1 255 -1 778 -1 5865 -1 50 -1 1692 -1 4005 -1 1132 -1 50 -1 19 -2
262 -1 773 -1 3291 -1 1257 -1 153 -1 118 -1 19 -2
1111 -1 19 -2
1019 -1 1482 -1 1722 -1 946 -1 50 -1 100593 -1 19 -2
411 -1 583 -1 56442 -1 672 -1 19 -2
1094 -1 255 -1 19 -2
50 -1 19 -2
2692 -1 50 -1 100593 -1 85361 -1 2243 -1 123371 -1 63050 -1 19 -2
123372 -1 32590 -1 19 -2
411 -1 1019 -1 583 -1 164 -1 2044 -1 12262 -1 74 -1 1690 -1 240 -1 8527 -1 48 -1 10533 -1 1481 -1 411 -1 19 -2
19 -2
583 -1 7928 -1 123373 -1 1690 -1 19 -2
48 -1 1023 -1 407 -1 2705 -1 5827 -1 50 -1 216 -1 1 -2
1722 -1 4267 -1 752 -1 3 -1 535 -1 4267 -1 19 -2
560 -1 1018 -1 3232 -1 3 -1 4011 -1 19 -2
785 -1 1176 -1 4165 -1 50 -1 262 -1 509 -1 19 -2
5 -1 32174 -1 57 -1 9062 -1 123374 -1 9656 -1 593 -1 1 -2
96 -1 1 -1 19 -2
19430 -1 113 -1 453 -1 3186 -1 38 -1 9 -1 50 -1 356 -1 471 -1 19 -2
2436 -1 778 -1 2436 -1 19 -2
262 -1 506 -1 453 -1 773 -1 2280 -1 72728 -1 11366 -1 50 -1 4338 -1 2602 -1 12107 -1 10584 -1 19 -2
773 -1 5964 -1 5630 -1 40071 -1 95 -1 1662 -1 8330 -1 70358 -1 19 -2
679 -1 1692 -1 538 -1 8083 -1 17826 -1 1125 -1 20429 -1 19 -2
19 -2
583 -1 411 -1 692 -1 50 -1 197 -1 1080 -1 1094 -1 411 -1 1019 -1 286 -1 21405 -1 410 -1 462 -1 1892 -1 50 -1 3270 -1 2013 -1 19 -2
785 -1 5984 -1 8664 -1 350 -1 3366 -1 1441 -1 2013 -1 19 -2
583 -1 6989 -1 19 -2
91 -1 118 -1 2495 -1 3636 -1 60521 -1 411 -1 50 -1 10780 -1 60521 -1 326 -1 123375 -1 48 -1 6234 -1 12325 -1 7977 -1 50 -1 7977 -1 7970 -1 2569 -1 60521 -1 19 -2
498 -1 1920 -1 1004 -1 3179 -1 7613 -1 123376 -1 411 -1 1829 -1 2098 -1 19 -2
5454 -1 11653 -1 50 -1 3053 -1 1018 -1 28888 -1 15313 -1 123377 -1 19 -2
1499 -1 963 -1 225 -1 10182 -1 19 -2
390 -1 13373 -1 7626 -1 1876 -1 3625 -1 1094 -1 306 -1 19 -2
2616 -1 50 -1 1121 -1 50 -1 124 -1 50 -1 123378 -1 3649 -1 19 -2
453 -1 312 -1 19 -2
4503 -1 255 -1 3554 -1 181 -1 5 -1 4276 -1 535 -1 1227 -1 12251 -1 123379 -1 2312 -1 2150 -1 123380 -1 19 -2
2098 -1 103 -1 2189 -1 28241 -1 3051 -1 1 -2
28241 -1 1506 -1 19 -2
411 -1 388 -1 2268 -1 1176 -1 672 -1 2813 -1 2657 -1 8366 -1 405 -1 91 -1 240 -1 2813 -1 19 -2
1876 -1 19 -2
1019 -1 602 -1 6690 -1 1714 -1 19 -2
809 -1 48 -1 33276 -1 662 -1 96 -1 19 -2
4552 -1 1876 -1 1690 -1 137 -1 3820 -1 1061 -1 380 -1 390 -1 4267 -1 2807 -1 19 -2
1876 -1 2360 -1 3 -1 546 -1 19 -2
48 -1 255 -1 121 -1 255 -1 19 -2
1019 -1 50 -1 14902 -1 2151 -1 3779 -1 3 -1 946 -1 85231 -1 42 -1 1829 -1 23926 -1 50 -1 3490 -1 19 -2
471 -1 2610 -1 19 -2
91 -1 31425 -1 875 -1 196 -2
1019 -1 262 -1 2807 -1 216 -1 1690 -1 123381 -1 276 -1 411 -1 1829 -1 3270 -1 1094 -1 240 -1 50 -1 2044 -1 471 -1 306 -1 3 -1 5340 -1 2710 -1 19 -2
240 -1 48 -1 255 -1 48 -1 155 -1 9698 -1 19 -2
154 -1 201 -1 33 -1 50 -1 48 -1 130 -1 19 -2
403 -1 1018 -1 19 -2
48 -1 255 -1 2360 -1 91 -1 240 -1 50 -1 2560 -1 17909 -1 420 -1 19 -2
1876 -1 1586 -1 240 -1 19 -2
262 -1 509 -1 652 -1 155 -1 6014 -1 19 -2
48 -1 255 -1 130 -1 4790 -1 2022 -1 639 -1 1637 -1 1805 -1 50 -1 19 -2
118 -1 356 -1 376 -1 19 -2
262 -1 263 -1 672 -1 50 -1 614 -1 156 -1 19 -2
95 -1 453 -1 2044 -1 20898 -1 578 -1 274 -1 121 -1 19 -2
48 -1 125 -1 19 -2
8232 -1 50 -1 17275 -1 922 -1 4593 -1 4503 -1 19 -2
1876 -1 420 -1 361 -1 7370 -1 2610 -1 1 -2
138 -1 91 -1 197 -1 318 -1 504 -1 240 -1 19 -2
262 -1 7769 -1 19 -2
773 -1 3082 -1 318 -1 29 -1 50 -1 4728 -1 19 -2
2692 -1 50 -1 2616 -1 49 -1 19 -2
1094 -1 181 -1 793 -1 5303 -1 535 -1 8071 -1 50 -1 240 -1 3075 -1 2657 -1 19 -2
10612 -1 2961 -1 19 -2
48 -1 1353 -1 50 -1 19 -2
172 -1 19 -1 5950 -1 173 -1 19 -1 4034 -1 1 -2
1690 -1 583 -1 1019 -1 613 -1 10534 -1 123382 -1 19 -2
1876 -1 1019 -1 19 -2
48 -1 105 -1 3849 -1 50 -1 216 -1 1 -2
141 -1 50 -1 9326 -1 1744 -1 19 -2
2098 -1 19 -2
2657 -1 1068 -1 896 -1 3649 -1 19 -2
1455 -1 1470 -1 327 -1 4605 -1 2790 -1 605 -1 262 -1 1258 -1 9883 -1 1122 -1 19 -2
4 -1 48 -1 1173 -1 3832 -1 19 -2