679 -1 19 -2
1829 -1 9697 -1 19 -2
15661 -1 19 -2
19 -2
91 -1 240 -1 1204 -1 19 -2
117 -1 9697 -1 19 -2
516 -1 3603 -1 19 -2
1131 -1 917 -1 19 -2
498 -1 1047 -1 50 -1 679 -1 19 -2
1255 -1 48 -1 3075 -1 1538 -1 19 -2
117 -1 3517 -1 461 -1 555 -1 9 -1 19 -2
2724 -1 50 -1 6234 -1 10406 -1 10412 -1 19 -2
271 -1 1730 -1 50 -1 2301 -1 9464 -1 361 -1 262 -1 886 -1 10412 -1 19 -2
271 -1 225 -1 3093 -1 9807 -1 1246 -1 16776 -1 449 -1 355 -1 19 -2
2920 -1 50 -1 118 -1 918 -1 9567 -1 118 -1 1263 -1 2422 -1 1130 -1 19 -2
2274 -1 50 -1 19 -2
91 -1 255 -1 270 -1 10120 -1 19 -2
262 -1 652 -1 311 -1 363 -1 19 -2
262 -1 8658 -1 50 -1 23210 -1 19 -2
456 -1 19738 -1 262 -1 2545 -1 50 -1 453 -1 7052 -1 1173 -1 274 -1 4372 -1 254 -1 19 -2
48 -1 122 -1 1228 -1 19 -2
545 -1 890 -1 19 -2
700 -1 1437 -1 700 -1 3665 -1 19 -2
1130 -1 1455 -1 890 -1 5647 -1 896 -1 23320 -1 3773 -1 17122 -1 10640 -1 19 -2
19 -2
1412 -1 19 -2
5218 -1 2517 -1 6729 -1 4556 -1 19 -2
1412 -1 202 -1 918 -1 9577 -1 19 -2
134 -1 202 -1 368 -1 773 -1 3093 -1 9567 -1 19 -2
134 -1 202 -1 186 -1 19 -2
48 -1 3229 -1 118 -1 9567 -1 172 -1 713 -1 19243 -1 287 -1 329 -1 173 -1 19243 -1 6406 -1 4876 -1 172 -1 19243 -1 1585 -1 3899 -1 449 -1 19243 -1 1246 -1 1868 -1 672 -1 172 -1 3974 -1 19 -2
1019 -1 50 -1 1360 -1 748 -1 255 -1 3849 -1 19 -2
7346 -1 19 -1 6738 -1 19 -2
7888 -1 122 -1 1130 -1 19 -2
773 -1 523 -1 3996 -1 50 -1 4657 -1 19 -2
784 -1 1525 -1 7069 -1 9567 -1 19 -2
34766 -1 1115 -1 19 -2
197 -1 293 -1 19 -2
91 -1 197 -1 3731 -1 114 -1 19 -2
148 -1 118 -1 342 -1 3075 -1 255 -1 19 -2
134 -1 3736 -1 8961 -1 8312 -1 5336 -1 19 -2
48 -1 284 -1 629 -1 961 -1 1 -2
197 -1 3736 -1 2569 -1 408 -1 13905 -1 121 -1 172 -1 225 -1 368 -1 1386 -1 50 -1 285 -1 5662 -1 775 -1 19 -2
2274 -1 50 -1 240 -1 345 -1 19 -2
25787 -1 9607 -1 3880 -1 19 -2
1612 -1 407 -1 155 -1 169 -1 700 -1 19 -2
197 -1 19 -2
255 -1 19 -2
7464 -1 19 -2
679 -1 1484 -1 1276 -1 2215 -1 50 -1 48 -1 876 -1 19 -2
1692 -1 2626 -1 725 -1 1276 -1 19 -2
48 -1 50 -1 48 -1 2808 -1 559 -1 19 -2
685 -1 278 -1 358 -1 19 -2
1040 -1 605 -1 19 -2
155 -1 1262 -1 520 -1 19 -2
614 -1 484 -1 5865 -1 155 -1 50 -1 1012 -1 50 -1 117 -1 2545 -1 19 -2
262 -1 3273 -1 155 -1 19 -2
1987 -1 118 -1 609 -1 6466 -1 8138 -1 262 -1 3700 -1 1156 -1 19 -2
95 -1 16016 -1 1692 -1 118 -1 19 -2
21 -1 29 -1 489 -1 1068 -1 19 -2
582 -1 1 -2
122 -1 1204 -1 9 -1 759 -1 1650 -1 748 -1 543 -1 117 -1 3336 -1 642 -1 19 -2
1388 -1 19 -2
1690 -1 19 -2
75 -1 50 -1 1645 -1 19 -2
262 -1 7032 -1 389 -1 388 -1 1015 -1 5252 -1 30 -1 19 -2
1094 -1 19 -2
19 -1 19 -1 4724 -1 1 -2
148 -1 48 -1 510 -1 896 -1 19 -2
48 -1 53 -1 19 -2
5581 -1 368 -1 186 -1 289 -1 2596 -1 1018 -1 49 -1 853 -1 3743 -1 1489 -1 155 -1 17250 -1 3422 -1 4534 -1 19 -2
3170 -1 516 -1 875 -1 362 -1 155 -1 153 -1 91 -1 2235 -1 1767 -1 19 -2
1767 -1 8647 -1 19 -2
356 -1 896 -1 153 -1 107 -1 315 -1 19 -2
6535 -1 39012 -1 196 -2
471 -1 4927 -1 5400 -1 19 -2
759 -1 551 -1 287 -1 50 -1 48 -1 507 -1 461 -1 50 -1 326 -1 1 -2
148 -1 656 -1 3751 -1 19 -2
134 -1 734 -1 29480 -1 13614 -1 13617 -1 65839 -1 13614 -1 13617 -1 1150 -1 1166 -1 926 -1 153 -1 6368 -1 9523 -1 15108 -1 4724 -1 9232 -1 10180 -1 1925 -1 153 -1 3747 -1 801 -1 19 -2
91 -1 1538 -1 255 -1 8316 -1 2890 -1 255 -1 13084 -1 263 -1 3241 -1 521 -1 326 -1 1502 -1 19 -2
48 -1 19 -2
1645 -1 1373 -1 2890 -1 1024 -1 2273 -1 289 -1 298 -1 202 -1 19 -2
528 -1 520 -1 842 -1 118 -1 5865 -1 19 -2
5239 -1 255 -1 9 -1 19 -2
471 -1 583 -1 19 -2
3208 -1 196 -2
316 -1 255 -1 1438 -1 681 -1 19 -2
528 -1 3240 -1 2763 -1 118 -1 1246 -1 4 -1 7073 -1 530 -1 1024 -1 498 -1 6742 -1 19 -2
993 -1 19 -2
262 -1 1071 -1 1703 -1 19 -2
1690 -1 19 -2
565 -1 9 -1 278 -1 715 -1 4429 -1 19 -2
453 -1 565 -1 155 -1 9 -1 26 -1 32 -1 19 -2
19 -1 19 -1 2139 -1 29499 -1 6060 -1 19 -2
453 -1 7442 -1 13391 -1 735 -1 19 -2
326 -1 2616 -1 1148 -1 19 -2
818 -1 19 -2
197 -1 2228 -1 1590 -1 1612 -1 50080 -1 1018 -1 262 -1 1041 -1 2614 -1 19 -2
255 -1 19 -2
5261 -1 2158 -1 25898 -1 9001 -1 19 -2
5354 -1 2401 -1 3018 -1 2158 -1 2664 -1 155 -1 19 -2
5261 -1 1005 -1 20929 -1 19 -2
262 -1 507 -1 19 -2
5329 -1 4133 -1 1538 -1 5329 -1 19 -2
504 -1 312 -1 14720 -1 5336 -1 1296 -1 19968 -1 9752 -1 5336 -1 19 -2
822 -1 294 -1 555 -1 50 -1 5261 -1 20429 -1 19 -2
1024 -2
172 -1 19 -1 91 -1 1685 -1 3462 -1 19 -2
173 -1 19 -1 8473 -1 1156 -1 19 -2
225 -1 19 -1 578 -1 6496 -1 19 -2
3357 -1 19 -2
91 -1 1088 -1 1645 -1 19 -2
449 -1 19 -1 48 -1 524 -1 7579 -1 19 -2
511 -1 516 -1 1675 -1 928 -1 487 -1 535 -1 19 -2
347 -1 50 -1 973 -1 48 -1 91 -1 1455 -1 10381 -1 19 -2
255 -1 1867 -1 155 -1 1236 -1 19 -2
5653 -1 456 -1 1455 -1 1236 -1 50 -1 148 -1 19 -2
154 -1 105214 -1 113894 -1 3744 -1 19 -2
1676 -1 48 -1 41617 -1 47974 -1 3999 -1 2090 -1 3949 -1 732 -1 67 -1 999 -1 50 -1 262 -1 3687 -1 1115 -1 196 -2
1435 -1 365 -1 1487 -1 832 -1 535 -1 1426 -1 19 -2
1036 -1 9373 -1 1115 -1 4842 -1 19 -2
19 -2