411 -1 196 -2
48722 -1 196 -2
4978 -1 50 -1 3867 -1 2979 -1 2838 -1 42010 -1 760 -1 17371 -1 5 -1 5753 -1 48723 -1 48724 -1 1204 -1 19 -1 19 -1 1967 -1 50 -1 107 -1 197 -1 50 -1 117 -1 2065 -1 299 -1 50 -1 117 -1 1311 -1 1675 -1 1257 -1 50 -1 114 -1 19 -2
262 -1 3732 -1 50 -1 2446 -1 700 -1 3546 -1 19 -2
512 -1 535 -1 50 -1 437 -1 50 -1 1373 -1 50 -1 117 -1 1435 -1 512 -1 487 -1 29 -1 50 -1 7570 -1 19 -2
96 -1 675 -1 6991 -1 487 -1 9164 -1 19 -2
48725 -1 262 -1 993 -1 4100 -1 312 -1 14192 -1 181 -1 50 -1 3014 -1 1067 -1 6864 -1 50 -1 121 -1 551 -1 692 -1 50 -1 1036 -1 390 -1 809 -1 19 -2
42 -1 50 -1 240 -1 288 -1 181 -1 50 -1 13423 -1 19 -2
1677 -1 1678 -1 19 -2
67 -1 50 -1 4974 -1 50 -1 2803 -1 4165 -1 19 -2
50 -1 1148 -1 19 -2
411 -1 196 -2
583 -1 3484 -1 5946 -1 50 -1 240 -1 7011 -1 3697 -1 1018 -1 50 -1 48726 -1 3478 -1 50 -1 20095 -1 595 -1 1018 -1 2388 -1 12597 -1 50 -1 33050 -1 50 -1 19 -2
3484 -1 5946 -1 50 -1 240 -1 7011 -1 3697 -1 1018 -1 50 -1 48726 -1 3478 -1 50 -1 20095 -1 595 -1 1018 -1 2388 -1 12597 -1 50 -1 33050 -1 50 -1 19 -2
255 -1 48727 -1 19 -2
11651 -1 21352 -1 5252 -1 6646 -1 19 -2
48728 -1 196 -2
504 -1 6759 -1 19 -2
262 -1 1455 -1 2624 -1 121 -1 19 -2
1676 -1 3168 -1 48729 -1 50 -1 8074 -1 1148 -1 23088 -1 38132 -1 19 -2
1019 -1 50 -1 48 -1 2872 -1 19 -2
25781 -1 1 -2
3495 -1 7081 -1 48731 -1 48730 -1 1 -1 196 -2
20563 -1 20006 -1 23088 -1 2394 -1 1016 -1 19 -2
7270 -1 19 -2
3088 -1 50 -1 48 -1 964 -1 19 -2
48733 -1 48732 -1 48734 -1 1 -2
4527 -1 38541 -1 50 -1 1842 -1 48736 -1 1585 -1 50 -1 15640 -1 50 -1 36398 -1 50 -1 26129 -1 197 -1 50 -1 1540 -1 48735 -1 50 -1 14276 -1 48737 -1 9538 -1 456 -1 1016 -1 19 -2
19 -2
38183 -1 196 -2
48739 -1 48740 -1 48738 -1 196 -2
42 -1 19 -2
1487 -1 4590 -1 14748 -1 26858 -1 1 -1 196 -2
1910 -1 2473 -1 3091 -1 6326 -1 3077 -1 6535 -1 9901 -1 3395 -1 471 -1 4833 -1 2011 -1 2760 -1 19 -2
48741 -1 196 -2
4552 -1 117 -1 7161 -1 19640 -1 50 -1 9630 -1 2453 -1 1867 -1 155 -1 3605 -1 23088 -1 19 -2
5993 -1 420 -1 50 -1 1538 -1 42 -1 25647 -1 19 -2
7161 -1 19640 -1 953 -1 8335 -1 1623 -1 5808 -1 19 -2
1967 -1 196 -2
3383 -1 50 -1 1645 -1 530 -1 679 -1 50 -1 6882 -1 50 -1 48742 -1 196 -1 19 -2
48 -1 3816 -1 9447 -1 7102 -1 1662 -1 48743 -1 2201 -1 19 -2
3211 -1 1840 -1 13765 -1 672 -1 19 -2
13765 -1 13765 -1 50 -1 672 -1 50 -1 672 -1 19 -2
37560 -1 4341 -1 50 -1 2677 -1 29 -1 19 -2
414 -1 48744 -1 7 -1 7212 -1 240 -1 50 -1 13203 -1 4103 -1 50 -1 13970 -1 2794 -1 2848 -1 2900 -1 460 -1 19 -2
2495 -1 9315 -1 2691 -1 5 -1 1218 -1 48745 -1 1726 -1 19 -2
714 -1 196 -2
679 -1 50 -1 3687 -1 1151 -1 638 -1 91 -1 240 -1 4100 -1 50 -1 425 -1 552 -1 19 -2
1692 -1 565 -1 1156 -1 1318 -1 652 -1 47 -1 19 -2
4552 -1 19 -2
1328 -1 33 -1 19 -2
12997 -1 874 -1 306 -1 19 -2
3785 -1 2103 -1 535 -1 48746 -1 2665 -1 50 -1 4201 -1 7 -1 1673 -1 4192 -1 982 -1 1662 -1 48 -1 30 -1 50 -1 1674 -1 48747 -1 50 -1 262 -1 506 -1 1151 -1 196 -2
172 -1 19 -1 139 -1 1505 -1 50 -1 967 -1 13318 -1 1088 -1 48748 -1 240 -1 19 -2
117 -1 874 -1 425 -1 32524 -1 19 -2
2045 -1 917 -1 9390 -1 48749 -1 48750 -1 4717 -1 19 -2
35408 -1 748 -1 564 -1 1703 -1 3713 -1 50 -1 746 -1 19 -2
6393 -1 196 -2
3210 -1 412 -1 10501 -1 19 -2
6556 -1 1231 -1 15640 -1 48751 -1 1585 -1 32417 -1 26129 -1 19 -2
2525 -1 48 -1 50 -1 41334 -1 48752 -1 36398 -1 42438 -1 1585 -1 778 -1 3048 -1 50 -1 306 -1 19 -2
50 -1 1024 -1 6556 -1 1231 -1 15640 -1 48751 -1 1585 -1 32417 -1 26129 -1 19 -2
2525 -1 48 -1 50 -1 41334 -1 48752 -1 36398 -1 42438 -1 1585 -1 778 -1 3048 -1 50 -1 306 -1 19 -2
50 -1 1024 -1 1920 -1 50 -1 1757 -1 50 -1 48753 -1 42719 -1 4974 -1 196 -2
262 -1 9202 -1 2186 -1 300 -1 48754 -1 122 -1 50 -1 19 -2
155 -1 9928 -1 50 -1 300 -1 5404 -1 19 -2
2393 -1 196 -2
1495 -1 196 -2
262 -1 746 -1 7268 -1 42 -1 50 -1 48755 -1 3400 -1 196 -2
50 -1 429 -1 2131 -1 1010 -1 2483 -1 2724 -1 50 -1 2956 -1 3678 -1 19 -2
19 -2
3687 -1 849 -1 196 -2
3687 -1 1151 -1 19 -2
19 -2
14399 -1 196 -2
411 -1 1675 -1 2857 -1 1247 -1 2265 -1 19 -2
48756 -1 50 -1 48757 -1 1428 -1 1714 -1 50 -1 142 -1 50 -1 345 -1 10551 -1 14041 -1 516 -1 825 -1 1204 -1 595 -1 759 -1 19 -2
48 -1 7 -1 494 -1 50 -1 8006 -1 19 -2
27 -1 2301 -1 19 -2
544 -1 3732 -1 5180 -1 19 -2
19 -2
1974 -1 535 -1 609 -1 471 -1 155 -1 2301 -1 50 -1 4782 -1 1215 -1 19 -2
306 -1 326 -1 22611 -1 44078 -1 7 -1 1 -2
19 -2
8780 -1 50 -1 148 -1 255 -1 1983 -1 196 -2
6855 -1 4431 -1 50 -1 117 -1 31 -1 7611 -1 48758 -1 3099 -1 7 -1 535 -1 6864 -1 19 -2
2616 -1 4506 -1 7 -1 48759 -1 50 -1 19 -2
679 -1 50 -1 675 -1 216 -1 196 -2
547 -1 535 -1 1741 -1 1470 -1 2789 -1 1538 -1 5331 -1 1954 -1 50 -1 5850 -1 19 -2
48 -1 453 -1 2284 -1 451 -1 19 -2
4100 -1 19 -2
262 -1 42 -1 48760 -1 2916 -1 613 -1 1592 -1 11082 -1 957 -1 1862 -1 3 -1 13720 -1 196 -1 19 -2
1962 -1 515 -1 4100 -1 19 -2
19 -2
535 -1 512 -1 50 -1 361 -1 7 -1 3 -1 7212 -1 3734 -1 19 -2
515 -1 50 -1 1010 -1 3015 -1 50 -1 932 -1 6921 -1 2059 -1 2882 -1 1494 -1 801 -1 1774 -1 50 -1 19 -2
498 -1 133 -1 19 -2
262 -1 42 -1 48761 -1 19 -2
1559 -1 390 -1 50 -1 613 -1 993 -1 216 -1 33 -1 509 -1 3638 -1 700 -1 17725 -1 50 -1 3410 -1 996 -1 4 -1 19 -2
262 -1 993 -1 216 -1 605 -1 3638 -1 50 -1 4 -1 12481 -1 2882 -1 1675 -1 50 -1 1395 -1 1377 -1 19 -2
112 -1 143 -1 48762 -1 19 -2
7272 -1 196 -2
6855 -1 19 -2
96 -1 19 -2
3053 -1 8711 -1 50 -1 509 -1 312 -1 5399 -1 22363 -1 12449 -1 50 -1 1220 -1 10834 -1 21843 -1 8711 -1 19 -2
957 -1 50 -1 537 -1 4978 -1 50 -1 262 -1 993 -1 153 -1 3410 -1 50 -1 4974 -1 48 -1 2803 -1 1055 -1 116 -1 1285 -1 12449 -1 3449 -1 11025 -1 3614 -1 11998 -1 19 -2
91 -1 55 -1 408 -1 842 -1 1 -1 196 -1 19 -2
9720 -1 1470 -1 19 -2