520 -1 509 -1 86 -1 66 -1 368 -1 1730 -1 19 -2
1538 -1 582 -1 1 -2
155 -1 524 -1 1 -2
306 -1 524 -1 1 -2
5402 -1 19 -2
432 -1 2388 -1 1256 -1 5082 -1 7898 -2
4912 -1 21625 -1 50 -1 4912 -1 9840 -1 3649 -1 19 -1 1 -2
1537 -1 4217 -1 5119 -1 8850 -1 122721 -1 13115 -1 19 -2
5119 -1 197 -1 26497 -1 19 -2
2078 -1 8850 -1 19 -2
197 -1 3522 -1 19 -2
1685 -1 3373 -1 19 -2
6147 -1 3379 -1 19 -2
2045 -1 5745 -1 1366 -1 366 -1 255 -1 6816 -1 19 -2
1366 -1 1643 -1 784 -1 19 -2
6033 -1 55 -1 106 -1 19 -2
785 -1 1452 -1 5612 -1 792 -1 4177 -1 50 -1 1452 -1 19 -2
11952 -1 1121 -1 5612 -1 2984 -1 19 -2
853 -1 953 -1 240 -1 1228 -1 423 -1 582 -1 50 -1 1452 -1 5612 -1 1 -2
1121 -1 5612 -1 19 -1 1 -2
390 -1 3355 -1 453 -1 545 -1 19 -2
112 -1 1263 -1 216 -1 1263 -1 1590 -1 1 -2
1265 -1 1730 -1 1022 -1 2565 -1 9834 -1 197 -1 1162 -1 116 -1 112 -1 1263 -1 19 -2
413 -1 1 -2
262 -1 28210 -1 10412 -1 1043 -1 886 -1 10412 -1 19 -2
163 -1 413 -1 50 -1 820 -1 4108 -1 766 -1 14482 -1 785 -1 746 -1 19 -2
4108 -1 12152 -1 14482 -1 1 -2
2934 -1 255 -1 19 -2
488 -1 50 -1 9 -1 3445 -1 16430 -1 26589 -1 1 -2
117 -1 6208 -1 1441 -1 1487 -1 361 -1 19 -2
262 -1 19 -2
48 -1 582 -1 609 -1 1619 -1 520 -1 19 -2
971 -1 19 -2
197 -1 520 -1 3 -1 2872 -1 19 -2
3 -1 520 -1 197 -1 582 -1 1 -2
291 -1 2610 -1 197 -1 2610 -1 582 -1 1 -2
29 -1 197 -1 3 -1 4668 -1 197 -1 19 -2
263 -1 1601 -1 19 -2
760 -1 311 -1 415 -1 50 -1 523 -1 53 -1 19 -2
3366 -1 5937 -1 1010 -1 692 -1 19 -2
1140 -1 1538 -1 255 -1 262 -1 520 -1 818 -1 1248 -1 2079 -1 19 -2
1538 -1 255 -1 818 -1 1248 -1 2079 -1 300 -1 3816 -1 19 -2
3 -1 19 -2
3 -1 48 -1 9 -1 1433 -1 1 -2
262 -1 1520 -1 661 -1 122722 -1 3 -1 466 -1 49 -1 19 -2
784 -1 1 -2
411 -1 50 -1 122723 -1 196 -2
488 -1 19 -2
1586 -1 62701 -1 19 -2
240 -1 19 -2
411 -1 471 -1 155 -1 652 -1 700 -1 65818 -1 6251 -1 19 -2
398 -1 5989 -1 3419 -1 19 -2
1586 -1 122 -1 3345 -1 255 -1 453 -1 240 -1 520 -1 1518 -1 1137 -1 1518 -1 19 -2
197 -1 953 -1 2751 -1 216 -1 196 -2
144 -1 155 -1 197 -1 255 -1 551 -1 25 -1 654 -1 2099 -1 25 -1 19 -2
2751 -1 50 -1 493 -1 153 -1 520 -1 1571 -1 2326 -1 2166 -1 19 -2
524 -1 50 -1 262 -1 509 -1 51 -1 19 -2
240 -1 262 -1 1590 -1 2565 -1 12231 -1 2565 -1 19 -2
323 -1 50 -1 262 -1 2751 -1 262 -1 396 -1 2671 -1 240 -1 262 -1 396 -1 19 -2
2695 -1 19 -2
271 -1 254 -1 1036 -1 316 -1 19 -2
1874 -1 255 -1 1005 -1 2127 -1 49 -1 2908 -1 3143 -1 3186 -1 9238 -1 19 -2
1874 -1 255 -1 19 -2
33 -1 48 -1 3075 -1 197 -1 2890 -1 2301 -1 3462 -1 3815 -1 155 -1 19 -2
1983 -1 1228 -1 263 -1 3815 -1 953 -1 1612 -1 19 -2
48 -1 347 -1 194 -1 917 -1 2083 -1 700 -1 2076 -1 19 -2
471 -1 25 -1 361 -1 155 -1 785 -1 19 -2
524 -1 1011 -1 19 -2
453 -1 752 -1 50 -1 49 -1 91 -1 849 -1 48 -1 488 -1 19 -2
1038 -1 3684 -1 271 -1 1494 -1 524 -1 262 -1 114 -1 173 -1 61286 -1 820 -1 95 -1 262 -1 3 -1 1486 -1 352 -1 2751 -1 242 -1 240 -1 19 -2
262 -1 2289 -1 1987 -1 19 -2
3366 -1 509 -1 51 -1 1590 -1 2565 -1 50 -1 19 -2
453 -1 55 -1 20869 -1 2794 -1 20869 -1 101 -1 214 -1 6417 -1 19 -2
11751 -1 85 -1 9086 -1 11751 -1 216 -1 20869 -1 19 -2
10716 -1 1953 -1 21982 -1 216 -1 19 -2
122724 -1 488 -1 2657 -1 155 -1 255 -1 2657 -1 19 -2
405 -1 155 -1 4854 -1 773 -1 155 -1 240 -1 1645 -1 19 -2
122 -1 5724 -1 196 -2
240 -1 2751 -1 112 -1 67 -1 7025 -1 287 -1 2090 -1 2301 -1 1433 -1 633 -1 67 -1 262 -1 3141 -1 48 -1 515 -1 1228 -1 773 -1 2878 -1 4700 -1 54 -1 262 -1 2934 -1 413 -1 520 -1 197 -1 955 -1 1 -2
520 -1 197 -1 19 -2
163 -1 413 -1 196 -2
820 -1 785 -1 955 -1 255 -1 3186 -1 49 -1 413 -1 3172 -1 3365 -1 155 -1 1 -2
1112 -1 537 -1 2657 -1 29 -1 11165 -1 214 -1 917 -1 50 -1 1108 -1 1 -1 19 -2
3684 -1 1435 -1 3232 -1 2375 -1 19 -2
55 -1 1220 -1 181 -1 109 -1 50 -1 255 -1 240 -1 399 -1 19 -2
91 -1 19 -2
42 -1 19 -2
524 -1 42289 -1 19 -2
1112 -1 114 -1 2565 -1 1 -2
1 -2
50 -1 1676 -1 48 -1 3129 -1 19 -2
820 -1 1043 -1 3706 -1 3129 -1 1 -2
1874 -1 3747 -1 794 -1 881 -1 1166 -1 2525 -1 7545 -1 19 -2
114 -1 19 -2
22101 -1 411 -1 50 -1 48 -1 3075 -1 262 -1 155 -1 19 -2
1538 -1 582 -1 95 -1 2575 -1 448 -1 19 -2
122 -1 240 -1 2575 -1 19 -2
3075 -1 488 -1 19 -2
6315 -1 12087 -1 3141 -1 581 -1 595 -1 306 -1 19 -2
55 -1 240 -1 19 -2
4654 -1 49 -1 5865 -1 19 -2
968 -1 19 -2
262 -1 122 -1 1130 -1 19 -2
154 -1 1692 -1 254 -1 101 -1 90 -1 27 -1 19 -2
11864 -1 96 -1 509 -1 1879 -1 2324 -1 1529 -1 1684 -1 19 -2
1248 -1 216 -1 1542 -1 19 -2
1248 -1 766 -1 19 -2
114 -1 121 -1 19 -2
656 -1 381 -1 453 -1 240 -1 1010 -1 1094 -1 3445 -1 254 -1 19 -2
122 -1 4903 -1 262 -1 826 -1 19 -2
238 -1 19 -2
91 -1 240 -1 216 -1 155 -1 1151 -1 122725 -1 1645 -1 1489 -1 121 -1 634 -1 46638 -1 868 -1 54 -1 4426 -1 1704 -1 19 -2
53 -1 515 -1 403 -1 49 -1 19 -2
6922 -1 1278 -1 55 -1 1265 -1 19 -2
1377 -1 2557 -1 19 -2
1692 -1 238 -1 262 -1 773 -1 272 -1 2310 -1 19 -2
4530 -1 19 -2
4805 -1 677 -1 1 -2
993 -1 551 -1 1248 -1 155 -1 1094 -1 19 -2
656 -1 3355 -1 1004 -1 413 -1 19 -2
1040 -1 19 -2
7965 -1 1049 -1 9 -1 122726 -1 255 -1 1130 -1 91 -1 118 -1 733 -1 2287 -1 27 -1 19 -2
1024 -2