7 -1 #SUP: 3
30 -1 #SUP: 2
48 -1 #SUP: 4
50 -1 #SUP: 40
75 -1 #SUP: 2
91 -1 #SUP: 4
118 -1 #SUP: 7
122 -1 #SUP: 3
135 -1 #SUP: 2
155 -1 #SUP: 2
167 -1 #SUP: 3
197 -1 #SUP: 10
225 -1 #SUP: 4
240 -1 #SUP: 4
255 -1 #SUP: 7
263 -1 #SUP: 3
278 -1 #SUP: 3
306 -1 #SUP: 2
311 -1 #SUP: 2
361 -1 #SUP: 6
413 -1 #SUP: 2
471 -1 #SUP: 2
488 -1 #SUP: 3
509 -1 #SUP: 2
513 -1 #SUP: 2
602 -1 #SUP: 2
676 -1 #SUP: 2
685 -1 #SUP: 2
700 -1 #SUP: 2
713 -1 #SUP: 2
836 -1 #SUP: 2
849 -1 #SUP: 3
853 -1 #SUP: 2
938 -1 #SUP: 2
957 -1 #SUP: 2
1018 -1 #SUP: 2
1024 -1 #SUP: 2
1141 -1 #SUP: 2
1265 -1 #SUP: 2
1357 -1 #SUP: 2
1458 -1 #SUP: 2
1538 -1 #SUP: 2
1645 -1 #SUP: 2
1677 -1 #SUP: 2
1692 -1 #SUP: 5
1879 -1 #SUP: 2
1931 -1 #SUP: 2
2044 -1 #SUP: 2
2738 -1 #SUP: 2
2857 -1 #SUP: 2
2934 -1 #SUP: 2
3100 -1 #SUP: 2
3804 -1 #SUP: 3
5181 -1 #SUP: 2
5212 -1 #SUP: 2
5284 -1 #SUP: 2
5328 -1 #SUP: 2
5373 -1 #SUP: 2
5730 -1 #SUP: 3
6283 -1 #SUP: 2
7316 -1 #SUP: 2
8083 -1 #SUP: 2
8533 -1 #SUP: 2
9254 -1 #SUP: 2
9771 -1 #SUP: 2
10222 -1 #SUP: 4
11610 -1 #SUP: 2
22079 -1 #SUP: 3
68198 -1 #SUP: 2
113528 -1 #SUP: 2
7 -1 48 -1 #SUP: 2
48 -1 50 -1 #SUP: 3
48 -1 2857 -1 #SUP: 2
50 -1 50 -1 #SUP: 9
50 -1 75 -1 #SUP: 2
50 -1 91 -1 #SUP: 2
50 -1 118 -1 #SUP: 2
50 -1 122 -1 #SUP: 2
50 -1 135 -1 #SUP: 2
50 -1 197 -1 #SUP: 3
50 -1 225 -1 #SUP: 4
50 -1 278 -1 #SUP: 3
50 -1 306 -1 #SUP: 2
50 -1 311 -1 #SUP: 2
50 -1 413 -1 #SUP: 2
50 -1 509 -1 #SUP: 2
50 -1 853 -1 #SUP: 2
50 -1 1141 -1 #SUP: 2
50 -1 1265 -1 #SUP: 2
50 -1 1458 -1 #SUP: 2
50 -1 1538 -1 #SUP: 2
50 -1 1677 -1 #SUP: 2
50 -1 1692 -1 #SUP: 2
50 -1 3804 -1 #SUP: 2
50 -1 5730 -1 #SUP: 3
50 -1 6283 -1 #SUP: 2
50 -1 10222 -1 #SUP: 3
50 -1 22079 -1 #SUP: 2
75 -1 225 -1 #SUP: 2
91 -1 50 -1 #SUP: 3
91 -1 118 -1 #SUP: 3
118 -1 50 -1 #SUP: 3
122 -1 513 -1 #SUP: 2
167 -1 50 -1 #SUP: 2
197 -1 50 -1 #SUP: 5
240 -1 2738 -1 #SUP: 2
240 -1 5212 -1 #SUP: 2
255 -1 50 -1 #SUP: 3
278 -1 50 -1 #SUP: 2
311 -1 50 -1 #SUP: 2
361 -1 50 -1 #SUP: 3
361 -1 255 -1 #SUP: 2
361 -1 5284 -1 #SUP: 2
1265 -1 50 -1 #SUP: 2
1677 -1 50 -1 #SUP: 2
1677 -1 5730 -1 #SUP: 2
1692 -1 1692 -1 #SUP: 2
2738 -1 5212 -1 #SUP: 2
2934 -1 240 -1 #SUP: 2
2934 -1 2738 -1 #SUP: 2
2934 -1 5212 -1 #SUP: 2
5181 -1 5373 -1 #SUP: 2
5181 -1 7316 -1 #SUP: 2
5181 -1 11610 -1 #SUP: 2
5328 -1 50 -1 #SUP: 2
5730 -1 50 -1 #SUP: 2
6283 -1 50 -1 #SUP: 2
7316 -1 5373 -1 #SUP: 2
10222 -1 50 -1 #SUP: 3
10222 -1 836 -1 #SUP: 2
10222 -1 1692 -1 #SUP: 2
10222 -1 10222 -1 #SUP: 2
11610 -1 5373 -1 #SUP: 2
11610 -1 7316 -1 #SUP: 2
22079 -1 50 -1 #SUP: 3
22079 -1 10222 -1 #SUP: 2
22079 -1 113528 -1 #SUP: 2
113528 -1 50 -1 #SUP: 2
50 -1 50 -1 50 -1 #SUP: 5
50 -1 50 -1 91 -1 #SUP: 2
50 -1 50 -1 118 -1 #SUP: 2
50 -1 50 -1 122 -1 #SUP: 2
50 -1 50 -1 135 -1 #SUP: 2
50 -1 50 -1 509 -1 #SUP: 2
50 -1 50 -1 853 -1 #SUP: 2
50 -1 50 -1 1458 -1 #SUP: 2
50 -1 50 -1 1692 -1 #SUP: 2
50 -1 50 -1 10222 -1 #SUP: 3
50 -1 75 -1 225 -1 #SUP: 2
50 -1 91 -1 50 -1 #SUP: 2
50 -1 91 -1 118 -1 #SUP: 2
50 -1 118 -1 50 -1 #SUP: 2
50 -1 197 -1 50 -1 #SUP: 2
50 -1 278 -1 50 -1 #SUP: 2
50 -1 311 -1 50 -1 #SUP: 2
50 -1 1265 -1 50 -1 #SUP: 2
50 -1 1677 -1 50 -1 #SUP: 2
50 -1 1677 -1 5730 -1 #SUP: 2
50 -1 5730 -1 50 -1 #SUP: 2
50 -1 6283 -1 50 -1 #SUP: 2
50 -1 10222 -1 50 -1 #SUP: 2
50 -1 10222 -1 1692 -1 #SUP: 2
50 -1 10222 -1 10222 -1 #SUP: 2
50 -1 22079 -1 50 -1 #SUP: 2
91 -1 118 -1 50 -1 #SUP: 2
197 -1 50 -1 50 -1 #SUP: 2
240 -1 2738 -1 5212 -1 #SUP: 2
311 -1 50 -1 50 -1 #SUP: 2
1265 -1 50 -1 50 -1 #SUP: 2
1677 -1 5730 -1 50 -1 #SUP: 2
2934 -1 240 -1 2738 -1 #SUP: 2
2934 -1 240 -1 5212 -1 #SUP: 2
2934 -1 2738 -1 5212 -1 #SUP: 2
5181 -1 7316 -1 5373 -1 #SUP: 2
5181 -1 11610 -1 5373 -1 #SUP: 2
5181 -1 11610 -1 7316 -1 #SUP: 2
6283 -1 50 -1 50 -1 #SUP: 2
10222 -1 50 -1 50 -1 #SUP: 3
10222 -1 50 -1 10222 -1 #SUP: 2
11610 -1 7316 -1 5373 -1 #SUP: 2
22079 -1 50 -1 50 -1 #SUP: 3
22079 -1 50 -1 10222 -1 #SUP: 2
22079 -1 10222 -1 50 -1 #SUP: 2
22079 -1 113528 -1 50 -1 #SUP: 2
113528 -1 50 -1 50 -1 #SUP: 2
50 -1 50 -1 50 -1 50 -1 #SUP: 3
50 -1 50 -1 50 -1 10222 -1 #SUP: 3
50 -1 50 -1 91 -1 50 -1 #SUP: 2
50 -1 50 -1 91 -1 118 -1 #SUP: 2
50 -1 50 -1 118 -1 50 -1 #SUP: 2
50 -1 50 -1 10222 -1 50 -1 #SUP: 2
50 -1 50 -1 10222 -1 10222 -1 #SUP: 2
50 -1 91 -1 118 -1 50 -1 #SUP: 2
50 -1 1677 -1 5730 -1 50 -1 #SUP: 2
50 -1 10222 -1 50 -1 50 -1 #SUP: 2
50 -1 10222 -1 50 -1 10222 -1 #SUP: 2
50 -1 22079 -1 50 -1 50 -1 #SUP: 2
2934 -1 240 -1 2738 -1 5212 -1 #SUP: 2
5181 -1 11610 -1 7316 -1 5373 -1 #SUP: 2
10222 -1 50 -1 50 -1 50 -1 #SUP: 2
22079 -1 50 -1 50 -1 50 -1 #SUP: 2
22079 -1 50 -1 50 -1 10222 -1 #SUP: 2
22079 -1 50 -1 10222 -1 50 -1 #SUP: 2
22079 -1 113528 -1 50 -1 50 -1 #SUP: 2
50 -1 50 -1 50 -1 10222 -1 50 -1 #SUP: 2
50 -1 50 -1 91 -1 118 -1 50 -1 #SUP: 2
50 -1 50 -1 10222 -1 50 -1 50 -1 #SUP: 2
50 -1 50 -1 10222 -1 50 -1 10222 -1 #SUP: 2
22079 -1 50 -1 50 -1 10222 -1 50 -1 #SUP: 2
