851 -1 1005 -1 1113 -1 3169 -1 466 -1 49 -1 19 -2
48 -1 4177 -1 255 -1 4177 -1 19 -2
19 -2
3929 -1 7063 -1 155 -1 116 -1 19 -2
48 -1 2162 -1 915 -1 19 -2
3165 -1 32350 -1 4006 -1 32289 -1 50 -1 3659 -1 18417 -1 1228 -1 86 -1 363 -1 5494 -1 32350 -1 50 -1 91 -1 785 -1 2127 -1 19 -2
19 -2
460 -1 7481 -1 1877 -1 117 -1 3366 -1 859 -1 507 -1 1111 -1 55 -1 19 -2
262 -1 105 -1 693 -1 14341 -1 19 -2
262 -1 507 -1 10084 -1 7215 -1 255 -1 121 -1 32351 -1 19 -2
262 -1 321 -1 3167 -1 624 -1 2225 -1 19 -2
471 -1 50 -1 255 -1 50 -1 1679 -1 50 -1 8818 -1 12250 -1 122 -1 50 -1 3254 -1 7998 -1 1 -2
299 -1 19 -2
255 -1 197 -1 91 -1 7104 -1 50 -1 48 -1 1612 -1 609 -1 555 -1 1581 -1 300 -1 7104 -1 19 -2
32352 -1 19 -2
1616 -1 19 -2
9559 -1 5073 -1 1224 -1 49 -1 50 -1 19 -2
1650 -1 1116 -1 1572 -1 2687 -1 32354 -1 50 -1 1274 -1 2530 -1 121 -1 14271 -1 32353 -1 19 -2
48 -1 637 -1 6507 -1 121 -1 47 -1 19329 -1 50 -1 48 -1 1210 -1 300 -1 50 -1 14230 -1 50 -1 8541 -1 8096 -1 19745 -1 19 -2
1024 -1 461 -1 155 -1 50 -1 288 -1 2569 -1 50 -1 3859 -1 3018 -1 254 -1 506 -1 1011 -1 3781 -1 32355 -1 6407 -1 14537 -1 19 -2
118 -1 32356 -1 19 -2
50 -1 118 -1 4844 -1 19 -2
993 -1 50 -1 993 -1 993 -1 50 -1 50 -1 197 -1 3916 -1 19 -2
48 -1 953 -1 8374 -1 2025 -1 7433 -1 50 -1 4475 -1 126 -1 4721 -1 2552 -1 290 -1 19 -2
1312 -1 2241 -1 50 -1 1489 -1 32357 -1 21923 -1 32358 -1 17220 -1 50 -1 3902 -1 32359 -1 652 -1 49 -1 19 -2
3850 -1 45 -1 1241 -1 17493 -1 6455 -1 6423 -1 380 -1 19 -2
1572 -1 50 -1 7262 -1 28171 -1 1042 -1 50 -1 5173 -1 3095 -1 3291 -1 690 -1 50 -1 19 -2
50 -1 466 -1 50 -1 9647 -1 50 -1 48 -1 13261 -1 110 -1 19 -2
32360 -1 3752 -1 38 -1 9 -1 466 -1 1358 -1 824 -1 637 -1 3491 -1 19 -2
117 -1 1498 -1 262 -1 4782 -1 2454 -1 50 -1 2403 -1 155 -1 2612 -1 2436 -1 1834 -1 19 -2
255 -1 197 -1 2041 -1 19 -2
1103 -1 262 -1 2454 -1 19 -2
6 -1 1218 -1 32363 -1 713 -1 713 -1 10460 -1 32361 -1 117 -1 748 -1 266 -1 2831 -1 1982 -1 266 -1 261 -1 3163 -1 1732 -1 1529 -1 3613 -1 1986 -1 50 -1 91 -1 785 -1 118 -1 597 -1 1986 -1 1024 -1 32362 -1 32364 -1 2780 -1 946 -1 21021 -1 2299 -1 19 -2
8192 -1 121 -1 50 -1 3824 -1 50 -1 48 -1 1482 -1 2167 -1 9710 -1 1125 -1 621 -1 1538 -1 19 -2
197 -1 117 -1 5444 -1 1717 -1 898 -1 307 -1 1311 -1 890 -1 4241 -1 20984 -1 1033 -1 6509 -1 3727 -1 248 -1 936 -1 19 -2
9351 -1 9879 -1 169 -1 4241 -1 50 -1 19 -2
3375 -1 121 -1 9001 -1 19 -2
172 -1 19 -1 155 -1 31862 -1 32365 -1 19 -2
173 -1 19 -1 3854 -1 50 -1 1572 -1 4 -1 1008 -1 31862 -1 32365 -1 19 -2
3383 -1 19 -2
1321 -1 1793 -1 488 -1 167 -1 3554 -1 3151 -1 8514 -1 49 -1 50 -1 767 -1 27 -1 19 -2
408 -1 2170 -1 3410 -1 19 -2
50 -1 48 -1 32366 -1 1692 -1 272 -1 16567 -1 19 -2
1220 -1 2158 -1 10834 -1 7530 -1 2215 -1 19328 -1 8347 -1 4020 -1 295 -1 91 -1 118 -1 19 -2
117 -1 294 -1 142 -1 155 -1 8804 -1 8805 -1 50 -1 262 -1 506 -1 3186 -1 9 -1 3152 -1 19 -2
466 -1 1358 -1 50 -1 993 -1 2035 -1 8804 -1 19 -2
1704 -1 3079 -1 564 -1 50 -1 7917 -1 21715 -1 13176 -1 2611 -1 2436 -1 22525 -1 13041 -1 19 -2
1377 -1 13041 -1 19 -2
50 -1 1198 -1 2310 -1 19 -2
564 -1 19 -2
10897 -1 19 -2
2106 -1 15790 -1 157 -1 19 -2
3445 -1 1373 -1 356 -1 595 -1 50 -1 1010 -1 216 -1 535 -1 216 -1 157 -1 50 -1 8478 -1 4685 -1 2536 -1 14872 -1 19 -2
197 -1 1024 -1 16908 -1 50 -1 11991 -1 32367 -1 1473 -1 6581 -1 10972 -1 23619 -1 29012 -1 27427 -1 19 -2
5331 -1 11296 -1 19 -2
11205 -1 7022 -1 19 -2
3117 -1 2687 -1 19 -2
17664 -1 19389 -1 3854 -1 50 -1 783 -1 19 -2
114 -1 2910 -1 8379 -1 105 -1 3247 -1 19 -2
114 -1 4244 -1 2226 -1 19182 -1 1616 -1 3996 -1 50 -1 1782 -1 937 -1 488 -1 114 -1 30624 -1 50 -1 953 -1 306 -1 1018 -1 155 -1 1612 -1 197 -1 408 -1 306 -1 1495 -1 3850 -1 11613 -1 9580 -1 408 -1 306 -1 1495 -1 3850 -1 785 -1 19 -2
780 -1 1061 -1 19 -2
32190 -1 32368 -1 19 -2
1599 -1 28482 -1 32369 -1 262 -1 22705 -1 110 -1 27 -1 19 -2
24252 -1 8230 -1 19 -2
4500 -1 980 -1 19 -2
114 -1 110 -1 3165 -1 26131 -1 559 -1 866 -1 2583 -1 739 -1 266 -1 28059 -1 50 -1 466 -1 3336 -1 4058 -1 3488 -1 876 -1 1068 -1 17499 -1 19 -2
12472 -1 48 -1 8190 -1 32371 -1 32370 -1 5042 -1 2035 -1 50 -1 1682 -1 91 -1 23795 -1 48 -1 33 -1 6267 -1 5911 -1 50 -1 271 -1 19 -2
742 -1 19 -2
2427 -1 739 -1 9 -1 19 -2
8321 -1 523 -1 3701 -1 19 -2
271 -1 2418 -1 2809 -1 507 -1 3718 -1 19 -2
10766 -1 490 -1 19 -2
19 -2
6977 -1 50 -1 1888 -1 6063 -1 19 -2
3225 -1 50 -1 32372 -1 4162 -1 50 -1 2758 -1 32373 -1 6721 -1 19 -2
2576 -1 15458 -1 13585 -1 7798 -1 19 -2
148 -1 471 -1 11367 -1 2090 -1 15848 -1 1039 -1 32374 -1 19 -2
1259 -1 2090 -1 11296 -1 1106 -1 1894 -1 19 -2
15728 -1 11296 -1 12585 -1 2663 -1 19 -2
22007 -1 25664 -1 19 -2
110 -1 1502 -1 50 -1 1470 -1 11731 -1 21098 -1 1597 -1 20747 -1 2789 -1 19 -2
523 -1 1321 -1 2526 -1 9 -1 50 -1 155 -1 1328 -1 5423 -1 19 -2
262 -1 507 -1 993 -1 1435 -1 286 -1 476 -1 50 -1 504 -1 2282 -1 4584 -1 801 -1 22129 -1 4890 -1 16974 -1 2282 -1 225 -1 118 -1 361 -1 19 -2
9316 -1 1358 -1 50 -1 773 -1 1265 -1 50 -1 4100 -1 21923 -1 114 -1 117 -1 738 -1 1227 -1 2991 -1 775 -1 5951 -1 15651 -1 19 -2
114 -1 4244 -1 19 -2
780 -1 14630 -1 50 -1 979 -1 3892 -1 717 -1 266 -1 4380 -1 266 -1 28059 -1 50 -1 326 -1 2984 -1 1008 -1 1166 -1 391 -1 12978 -1 19 -2
535 -1 19 -2
271 -1 15848 -1 196 -2
7270 -1 263 -1 18276 -1 7044 -1 19 -2
453 -1 471 -1 6583 -1 50 -1 925 -1 50 -1 652 -1 1778 -1 32375 -1 15848 -1 19 -2
19 -2
67 -1 1623 -1 50 -1 537 -1 262 -1 1376 -1 48 -1 3517 -1 1910 -1 1227 -1 368 -1 1 -2
5634 -1 181 -1 506 -1 299 -1 117 -1 4752 -1 2134 -1 10214 -1 50 -1 48 -1 29925 -1 8015 -1 19 -2
2956 -1 50 -1 7147 -1 3397 -1 3693 -1 50 -1 6486 -1 2573 -1 50 -1 1313 -1 19 -2
593 -1 5693 -1 2894 -1 97 -1 32377 -1 23320 -1 26685 -1 18806 -1 32379 -1 5485 -1 32378 -1 27440 -1 3201 -1 1878 -1 32380 -1 32376 -1 23070 -1 5336 -1 1042 -1 2304 -1 27792 -1 19 -2
4156 -1 8433 -1 50 -1 3375 -1 262 -1 112 -1 1590 -1 262 -1 9001 -1 32381 -1 50 -1 735 -1 216 -1 345 -1 4137 -1 1560 -1 19 -2
2178 -1 1018 -1 121 -1 216 -1 11220 -1 19 -2
1004 -1 21379 -1 1004 -1 21379 -1 1356 -1 9681 -1 2484 -1 50 -1 6224 -1 19 -2
105 -1 255 -1 1482 -1 121 -1 122 -1 1272 -1 785 -1 1774 -1 2310 -1 32382 -1 50 -1 1610 -1 690 -1 50 -1 1557 -1 19 -2
32384 -1 32383 -1 11925 -1 49 -1 19 -2
117 -1 1116 -1 118 -1 9520 -1 4844 -1 6509 -1 255 -1 155 -1 19 -2
117 -1 1220 -1 2792 -1 3577 -1 425 -1 2552 -1 19 -2
2274 -1 50 -1 1502 -1 19 -2
1039 -1 117 -1 489 -1 10554 -1 32385 -1 530 -1 3585 -1 1395 -1 5152 -1 50 -1 489 -1 19 -2
407 -1 3511 -1 6781 -1 8363 -1 2808 -1 4103 -1 155 -1 2803 -1 117 -1 1200 -1 1054 -1 110 -1 690 -1 50 -1 956 -1 5756 -1 1258 -1 19 -2
1154 -1 4058 -1 295 -1 50 -1 1215 -1 356 -1 2156 -1 946 -1 1099 -1 4503 -1 1268 -1 4561 -1 50 -1 16051 -1 32386 -1 6509 -1 2083 -1 50 -1 48 -1 784 -1 19 -2
2418 -1 15487 -1 50 -1 117 -1 2657 -1 1018 -1 32387 -1 453 -1 3246 -1 792 -1 8146 -1 105 -1 5471 -1 33 -1 520 -1 50 -1 138 -1 3128 -1 19 -2
19 -2
8146 -1 30489 -1 50 -1 17344 -1 32392 -1 2228 -1 20137 -1 11189 -1 2305 -1 50 -1 32393 -1 50 -1 15848 -1 32390 -1 4501 -1 11695 -1 10959 -1 32394 -1 9447 -1 50 -1 15639 -1 32388 -1 2228 -1 32389 -1 387 -1 1650 -1 14382 -1 5626 -1 48 -1 14500 -1 6268 -1 32395 -1 4032 -1 50 -1 48 -1 32391 -1 6910 -1 19 -2
23542 -1 50 -1 3183 -1 50 -1 32395 -1 4032 -1 32396 -1 19 -1 1645 -1 1050 -1 3046 -1 2010 -1 19 -2