7 -1 #SUP: 4
19 -1 #SUP: 7
29 -1 #SUP: 2
30 -1 #SUP: 4
36 -1 #SUP: 4
48 -1 #SUP: 10
49 -1 #SUP: 2
50 -1 #SUP: 82
75 -1 #SUP: 4
81 -1 #SUP: 2
91 -1 #SUP: 4
114 -1 #SUP: 2
116 -1 #SUP: 2
133 -1 #SUP: 2
155 -1 #SUP: 4
172 -1 #SUP: 4
173 -1 #SUP: 2
225 -1 #SUP: 6
240 -1 #SUP: 4
255 -1 #SUP: 6
262 -1 #SUP: 12
306 -1 #SUP: 5
411 -1 #SUP: 2
433 -1 #SUP: 2
449 -1 #SUP: 2
471 -1 #SUP: 3
487 -1 #SUP: 2
506 -1 #SUP: 2
520 -1 #SUP: 2
535 -1 #SUP: 11
544 -1 #SUP: 2
602 -1 #SUP: 2
618 -1 #SUP: 3
626 -1 #SUP: 2
665 -1 #SUP: 4
698 -1 #SUP: 2
713 -1 #SUP: 2
735 -1 #SUP: 2
773 -1 #SUP: 5
785 -1 #SUP: 6
786 -1 #SUP: 2
806 -1 #SUP: 2
936 -1 #SUP: 2
1010 -1 #SUP: 2
1011 -1 #SUP: 2
1019 -1 #SUP: 3
1034 -1 #SUP: 3
1043 -1 #SUP: 2
1125 -1 #SUP: 2
1176 -1 #SUP: 3
1255 -1 #SUP: 3
1377 -1 #SUP: 3
1426 -1 #SUP: 3
1455 -1 #SUP: 3
1482 -1 #SUP: 2
1538 -1 #SUP: 5
1542 -1 #SUP: 2
1612 -1 #SUP: 2
1615 -1 #SUP: 3
1637 -1 #SUP: 2
1692 -1 #SUP: 2
1947 -1 #SUP: 2
2228 -1 #SUP: 2
2858 -1 #SUP: 2
3115 -1 #SUP: 2
3186 -1 #SUP: 2
3703 -1 #SUP: 2
4100 -1 #SUP: 2
5344 -1 #SUP: 2
6089 -1 #SUP: 2
6241 -1 #SUP: 2
6793 -1 #SUP: 2
7618 -1 #SUP: 2
8502 -1 #SUP: 2
11000 -1 #SUP: 2
17008 -1 #SUP: 2
21957 -1 #SUP: 2
33861 -1 #SUP: 2
7 -1 50 -1 #SUP: 2
7 -1 487 -1 #SUP: 2
19 -1 19 -1 #SUP: 3
19 -1 225 -1 #SUP: 2
30 -1 50 -1 #SUP: 2
36 -1 50 -1 #SUP: 3
36 -1 535 -1 #SUP: 3
36 -1 665 -1 #SUP: 3
48 -1 50 -1 #SUP: 4
48 -1 535 -1 #SUP: 2
50 -1 7 -1 #SUP: 3
50 -1 19 -1 #SUP: 2
50 -1 48 -1 #SUP: 6
50 -1 50 -1 #SUP: 21
50 -1 75 -1 #SUP: 2
50 -1 116 -1 #SUP: 2
50 -1 133 -1 #SUP: 2
50 -1 155 -1 #SUP: 2
50 -1 225 -1 #SUP: 2
50 -1 255 -1 #SUP: 2
50 -1 262 -1 #SUP: 4
50 -1 306 -1 #SUP: 2
50 -1 411 -1 #SUP: 2
50 -1 535 -1 #SUP: 7
50 -1 544 -1 #SUP: 2
50 -1 665 -1 #SUP: 4
50 -1 735 -1 #SUP: 2
50 -1 773 -1 #SUP: 3
50 -1 785 -1 #SUP: 4
50 -1 936 -1 #SUP: 2
50 -1 1125 -1 #SUP: 2
50 -1 1426 -1 #SUP: 3
50 -1 1542 -1 #SUP: 2
50 -1 1612 -1 #SUP: 2
50 -1 1615 -1 #SUP: 2
50 -1 3703 -1 #SUP: 2
50 -1 6089 -1 #SUP: 2
50 -1 8502 -1 #SUP: 2
50 -1 17008 -1 #SUP: 2
81 -1 29 -1 #SUP: 2
91 -1 50 -1 #SUP: 3
91 -1 255 -1 #SUP: 2
91 -1 262 -1 #SUP: 2
91 -1 1538 -1 #SUP: 2
133 -1 535 -1 #SUP: 2
133 -1 665 -1 #SUP: 2
155 -1 50 -1 #SUP: 3
172 -1 50 -1 #SUP: 2
172 -1 173 -1 #SUP: 2
172 -1 225 -1 #SUP: 2
172 -1 626 -1 #SUP: 2
173 -1 225 -1 #SUP: 2
173 -1 449 -1 #SUP: 2
225 -1 19 -1 #SUP: 3
225 -1 50 -1 #SUP: 3
225 -1 449 -1 #SUP: 2
225 -1 713 -1 #SUP: 2
240 -1 50 -1 #SUP: 2
240 -1 1176 -1 #SUP: 2
240 -1 1455 -1 #SUP: 2
240 -1 1947 -1 #SUP: 2
255 -1 50 -1 #SUP: 3
262 -1 50 -1 #SUP: 8
262 -1 262 -1 #SUP: 2
262 -1 306 -1 #SUP: 3
262 -1 535 -1 #SUP: 2
306 -1 50 -1 #SUP: 3
449 -1 19 -1 #SUP: 2
449 -1 713 -1 #SUP: 2
471 -1 50 -1 #SUP: 2
535 -1 30 -1 #SUP: 2
535 -1 50 -1 #SUP: 5
618 -1 29 -1 #SUP: 2
626 -1 50 -1 #SUP: 2
665 -1 535 -1 #SUP: 3
713 -1 19 -1 #SUP: 2
773 -1 50 -1 #SUP: 2
785 -1 1542 -1 #SUP: 2
806 -1 50 -1 #SUP: 2
1011 -1 50 -1 #SUP: 2
1019 -1 50 -1 #SUP: 3
1125 -1 50 -1 #SUP: 2
1176 -1 50 -1 #SUP: 2
1377 -1 50 -1 #SUP: 2
1455 -1 50 -1 #SUP: 2
1538 -1 50 -1 #SUP: 3
1538 -1 255 -1 #SUP: 2
1538 -1 1011 -1 #SUP: 2
1637 -1 50 -1 #SUP: 2
1692 -1 50 -1 #SUP: 2
1947 -1 50 -1 #SUP: 2
1947 -1 1176 -1 #SUP: 2
2228 -1 50 -1 #SUP: 2
2858 -1 535 -1 #SUP: 2
3703 -1 7 -1 #SUP: 2
3703 -1 6089 -1 #SUP: 2
6089 -1 7 -1 #SUP: 2
6793 -1 50 -1 #SUP: 2
7618 -1 50 -1 #SUP: 2
7618 -1 262 -1 #SUP: 2
11000 -1 50 -1 #SUP: 2
17008 -1 50 -1 #SUP: 2
21957 -1 7 -1 #SUP: 2
21957 -1 50 -1 #SUP: 2
21957 -1 3703 -1 #SUP: 2
21957 -1 6089 -1 #SUP: 2
33861 -1 11000 -1 #SUP: 2
33861 -1 17008 -1 #SUP: 2
19 -1 19 -1 19 -1 #SUP: 3
19 -1 225 -1 19 -1 #SUP: 2
36 -1 50 -1 535 -1 #SUP: 2
36 -1 50 -1 665 -1 #SUP: 2
36 -1 665 -1 535 -1 #SUP: 2
48 -1 50 -1 50 -1 #SUP: 2
48 -1 50 -1 535 -1 #SUP: 2
50 -1 48 -1 50 -1 #SUP: 4
50 -1 48 -1 535 -1 #SUP: 2
50 -1 50 -1 7 -1 #SUP: 2
50 -1 50 -1 50 -1 #SUP: 7
50 -1 50 -1 116 -1 #SUP: 2
50 -1 50 -1 262 -1 #SUP: 2
50 -1 50 -1 411 -1 #SUP: 2
50 -1 50 -1 535 -1 #SUP: 3
50 -1 50 -1 773 -1 #SUP: 3
50 -1 50 -1 785 -1 #SUP: 2
50 -1 50 -1 1426 -1 #SUP: 2
50 -1 50 -1 3703 -1 #SUP: 2
50 -1 50 -1 6089 -1 #SUP: 2
50 -1 133 -1 535 -1 #SUP: 2
50 -1 133 -1 665 -1 #SUP: 2
50 -1 155 -1 50 -1 #SUP: 2
50 -1 225 -1 19 -1 #SUP: 2
50 -1 262 -1 50 -1 #SUP: 2
50 -1 262 -1 262 -1 #SUP: 2
50 -1 665 -1 535 -1 #SUP: 3
50 -1 773 -1 50 -1 #SUP: 2
50 -1 1125 -1 50 -1 #SUP: 2
50 -1 3703 -1 7 -1 #SUP: 2
50 -1 3703 -1 6089 -1 #SUP: 2
50 -1 6089 -1 7 -1 #SUP: 2
133 -1 665 -1 535 -1 #SUP: 2
172 -1 173 -1 225 -1 #SUP: 2
172 -1 626 -1 50 -1 #SUP: 2
173 -1 225 -1 449 -1 #SUP: 2
225 -1 19 -1 19 -1 #SUP: 2
225 -1 449 -1 713 -1 #SUP: 2
240 -1 1455 -1 50 -1 #SUP: 2
240 -1 1947 -1 50 -1 #SUP: 2
240 -1 1947 -1 1176 -1 #SUP: 2
262 -1 50 -1 50 -1 #SUP: 3
262 -1 50 -1 262 -1 #SUP: 2
262 -1 50 -1 306 -1 #SUP: 2
262 -1 50 -1 535 -1 #SUP: 2
449 -1 713 -1 19 -1 #SUP: 2
535 -1 30 -1 50 -1 #SUP: 2
535 -1 50 -1 50 -1 #SUP: 3
1538 -1 1011 -1 50 -1 #SUP: 2
2228 -1 50 -1 50 -1 #SUP: 2
3703 -1 6089 -1 7 -1 #SUP: 2
21957 -1 50 -1 7 -1 #SUP: 2
21957 -1 50 -1 50 -1 #SUP: 2
21957 -1 50 -1 3703 -1 #SUP: 2
21957 -1 50 -1 6089 -1 #SUP: 2
21957 -1 3703 -1 7 -1 #SUP: 2
21957 -1 3703 -1 6089 -1 #SUP: 2
21957 -1 6089 -1 7 -1 #SUP: 2
19 -1 19 -1 19 -1 19 -1 #SUP: 2
19 -1 225 -1 19 -1 19 -1 #SUP: 2
50 -1 50 -1 50 -1 50 -1 #SUP: 2
50 -1 50 -1 50 -1 535 -1 #SUP: 2
50 -1 50 -1 3703 -1 7 -1 #SUP: 2
50 -1 50 -1 3703 -1 6089 -1 #SUP: 2
50 -1 50 -1 6089 -1 7 -1 #SUP: 2
50 -1 133 -1 665 -1 535 -1 #SUP: 2
50 -1 262 -1 50 -1 262 -1 #SUP: 2
50 -1 3703 -1 6089 -1 7 -1 #SUP: 2
225 -1 19 -1 19 -1 19 -1 #SUP: 2
262 -1 50 -1 50 -1 535 -1 #SUP: 2
21957 -1 50 -1 3703 -1 7 -1 #SUP: 2
21957 -1 50 -1 3703 -1 6089 -1 #SUP: 2
21957 -1 50 -1 6089 -1 7 -1 #SUP: 2
21957 -1 3703 -1 6089 -1 7 -1 #SUP: 2
19 -1 225 -1 19 -1 19 -1 19 -1 #SUP: 2
50 -1 50 -1 3703 -1 6089 -1 7 -1 #SUP: 2
21957 -1 50 -1 3703 -1 6089 -1 7 -1 #SUP: 2
