50 -1 6011 -1 5529 -1 19 -2
1677 -1 22174 -1 186 -1 289 -1 626 -1 4861 -1 50 -1 262 -1 1552 -1 2139 -1 48 -1 214 -1 289 -1 3349 -1 3665 -1 19 -2
6011 -1 3820 -1 19 -2
66 -1 112 -1 6025 -1 3093 -1 19 -2
407 -1 50 -1 1499 -1 4418 -1 502 -1 2135 -1 50 -1 1010 -1 1125 -1 5292 -1 3151 -1 3633 -1 6041 -1 1339 -1 19 -2
91 -1 255 -1 8064 -1 3487 -1 50 -1 19 -2
262 -1 364 -1 390 -1 8384 -1 1684 -1 545 -1 8436 -1 6250 -1 4240 -1 2523 -1 19 -2
42 -1 50 -1 7442 -1 19 -2
656 -1 10159 -1 19 -2
1049 -1 143 -1 7094 -1 7483 -1 242 -1 1586 -1 50 -1 1068 -1 41812 -1 423 -1 3154 -1 122 -1 680 -1 19 -2
3527 -1 12774 -1 19 -2
2049 -1 1042 -1 50 -1 7483 -1 242 -1 1774 -1 1196 -1 19 -2
12844 -1 32 -1 50 -1 262 -1 506 -1 2687 -1 451 -1 6484 -1 23369 -1 19 -2
9 -1 1355 -1 19 -2
262 -1 3800 -1 429 -1 19 -2
31684 -1 19 -2
1005 -1 1877 -1 50 -1 50 -1 1435 -1 19 -2
405 -1 121 -1 1006 -1 1 -2
2722 -1 1125 -1 19 -2
1019 -1 19 -2
262 -1 6690 -1 1473 -1 1011 -1 1068 -1 2745 -1 19 -2
4133 -1 1489 -1 240 -1 262 -1 1173 -1 19 -2
286 -1 1772 -1 19 -2
50 -1 197 -1 1637 -1 4879 -1 522 -1 4238 -1 18950 -1 1717 -1 19 -2
8915 -1 19 -2
41813 -1 8915 -1 2206 -1 50 -1 48 -1 19 -2
4879 -1 508 -1 255 -1 122 -1 6568 -1 50 -1 19 -2
1536 -1 50 -1 197 -1 99 -1 451 -1 2705 -1 19 -2
30 -1 29 -1 48 -1 3202 -1 368 -1 186 -1 289 -1 19 -2
2206 -1 50 -1 10305 -1 32 -1 9 -1 49 -1 50 -1 3296 -1 1629 -1 1387 -1 6815 -1 50 -1 19 -2
30 -1 29 -1 48 -1 3202 -1 368 -1 186 -1 289 -1 19 -2
2206 -1 50 -1 10305 -1 32 -1 9 -1 49 -1 50 -1 3296 -1 1629 -1 1387 -1 6815 -1 50 -1 19 -2
9270 -1 50 -1 4810 -1 613 -1 1248 -1 1125 -1 405 -1 488 -1 19 -2
509 -1 470 -1 41814 -1 12111 -1 7871 -1 19 -2
50 -1 19 -2
773 -1 291 -1 19 -2
197 -1 17012 -1 2622 -1 1229 -1 666 -1 306 -1 19 -2
6 -1 21341 -1 13749 -1 1671 -1 629 -1 20590 -1 41815 -1 41816 -1 1983 -1 1722 -1 216 -1 1 -2
1019 -1 19 -2
48 -1 934 -1 144 -1 551 -1 23218 -1 1332 -1 19 -2
278 -1 5818 -1 48 -1 303 -1 19 -2
48 -1 216 -1 50 -1 48 -1 1392 -1 19 -2
48 -1 1194 -1 19 -2
407 -1 50 -1 19 -2
5078 -1 3909 -1 2904 -1 19 -2
934 -1 19 -2
4143 -1 19 -2
3824 -1 50 -1 556 -1 1793 -1 19 -2
2045 -1 1023 -1 4670 -1 678 -1 12553 -1 546 -1 3773 -1 519 -1 136 -1 19 -2
613 -1 20106 -1 50 -1 1740 -1 516 -1 48 -1 1395 -1 4715 -1 181 -1 1 -2
1538 -1 48 -1 1188 -1 262 -1 38636 -1 74 -1 74 -1 19 -2
197 -1 1151 -1 5078 -1 3909 -1 278 -1 2904 -1 19 -2
2913 -1 19 -2
1692 -1 1491 -1 6745 -1 1167 -1 19 -2
13768 -1 19 -2
5266 -1 8486 -1 19 -2
937 -1 8032 -1 19 -2
1091 -1 773 -1 407 -1 2078 -1 3792 -1 17738 -1 5180 -1 8527 -1 19 -2
2934 -1 3149 -1 19 -2
1874 -1 9791 -1 19 -2
5131 -1 9791 -1 19 -2
1246 -1 1228 -1 19 -2
810 -1 155 -1 1 -2
6084 -1 117 -1 738 -1 986 -1 1029 -1 16026 -1 19 -2
5 -1 41821 -1 655 -1 1595 -1 41819 -1 41817 -1 41818 -1 41820 -1 5219 -1 3625 -1 19 -2
767 -1 50 -1 767 -1 19 -2
262 -1 506 -1 9756 -1 4278 -1 14906 -1 700 -1 3665 -1 19 -2
466 -1 733 -1 476 -1 8994 -1 50 -1 262 -1 122 -1 19 -1 19 -1 276 -1 19 -2
818 -1 262 -1 2349 -1 15085 -1 12226 -1 50 -1 453 -1 3776 -1 15085 -1 50 -1 20895 -1 19 -1 19 -1 41822 -1 1692 -1 595 -1 19 -2
3135 -1 666 -1 1246 -1 605 -1 110 -1 4912 -1 19 -2
15165 -1 25 -1 1801 -1 638 -1 19 -2
1763 -1 390 -1 4571 -1 19 -2
656 -1 8827 -1 19 -2
29924 -1 41823 -1 144 -1 405 -1 1242 -1 2527 -1 4703 -1 50 -1 155 -1 9176 -1 5147 -1 19488 -1 19 -2
197 -1 48 -1 1287 -1 19 -2
96 -1 50 -1 42 -1 1366 -1 1729 -1 155 -1 19 -2
50 -1 2539 -1 1005 -1 423 -1 122 -1 19 -2
488 -1 50 -1 1581 -1 368 -1 288 -1 6916 -1 19 -2
291 -1 19 -2
4421 -1 7970 -1 19 -2
91 -1 506 -1 122 -1 19 -2
41824 -1 1242 -1 4264 -1 181 -1 19 -2
4646 -1 19 -2
13108 -1 19 -2
50 -1 1151 -1 976 -1 19 -2
1088 -1 50 -1 361 -1 1216 -1 268 -1 9725 -1 23677 -1 7228 -1 1879 -1 2327 -1 19 -2
262 -1 268 -1 1842 -1 19 -2
390 -1 3905 -1 50 -1 2871 -1 203 -1 949 -1 48 -1 1754 -1 1071 -1 3957 -1 19 -2
3133 -1 10397 -1 1 -2
50 -1 240 -1 622 -1 3238 -1 91 -1 30384 -1 48 -1 661 -1 32315 -1 48 -1 139 -1 1 -2
91 -1 197 -1 1319 -1 5888 -1 19 -2
50 -1 155 -1 155 -1 1519 -1 50 -1 155 -1 1436 -1 50 -1 155 -1 6810 -1 19 -2
263 -1 1919 -1 19 -2
5797 -1 263 -1 331 -1 2972 -1 2972 -1 19 -2
4278 -1 5331 -1 118 -1 49 -1 3456 -1 3816 -1 19 -2
656 -1 4503 -1 19 -2
262 -1 6932 -1 48 -1 488 -1 6916 -1 50 -1 262 -1 5154 -1 5989 -1 19 -2
890 -1 4776 -1 26119 -1 1246 -1 9579 -1 255 -1 9577 -1 1 -2
255 -1 197 -1 262 -1 5658 -1 262 -1 5658 -1 5152 -1 50 -1 24603 -1 19 -2
49 -1 1996 -1 155 -1 50 -1 993 -1 19 -2
91 -1 2710 -1 50 -1 155 -1 240 -1 4278 -1 19 -2
117 -1 488 -1 679 -1 1 -2
591 -1 19 -2
1455 -1 50 -1 55 -1 18648 -1 3345 -1 7306 -1 644 -1 6277 -1 48 -1 1652 -1 3410 -1 19 -2
866 -1 19 -2
262 -1 114 -1 1005 -1 9533 -1 3693 -1 1877 -1 19 -2
255 -1 50 -1 2542 -1 8200 -1 33 -1 19 -2
2542 -1 19 -2
1762 -1 3690 -1 381 -1 12974 -1 50 -1 48 -1 11924 -1 19 -2
1499 -1 1242 -1 117 -1 4260 -1 3662 -1 752 -1 365 -1 19 -2
240 -1 581 -1 19 -2
41826 -1 41814 -1 30825 -1 33597 -1 41825 -1 1325 -1 5088 -1 39081 -1 7046 -1 567 -1 6506 -1 19 -2
41827 -1 1436 -1 86 -1 38036 -1 50 -1 48 -1 131 -1 19 -2
41828 -1 50 -1 33597 -1 41829 -1 1220 -1 638 -1 50 -1 1489 -1 50 -1 2657 -1 381 -1 19 -2
1140 -1 3687 -1 19 -2
2139 -1 894 -1 8805 -1 3636 -1 690 -1 50 -1 2385 -1 4141 -1 366 -1 968 -1 1 -2
1023 -1 6226 -1 19 -2
8440 -1 4141 -1 255 -1 1845 -1 19 -2
1498 -1 1370 -1 4857 -1 41830 -1 4127 -1 3693 -1 19 -2
1225 -1 19 -2
1019 -1 19 -2
8381 -1 390 -1 1033 -1 2492 -1 451 -1 1489 -1 3177 -1 4158 -1 3365 -1 38 -1 181 -1 19 -2
613 -1 506 -1 466 -1 6927 -1 1227 -1 1323 -1 19 -2