1572 -1 402 -1 128344 -1 1025 -1 1220 -1 2091 -1 2993 -1 9822 -1 4271 -1 4176 -1 50 -1 128345 -1 50 -1 327 -1 306 -1 1041 -1 50 -1 1637 -1 50 -1 19 -2
133 -1 18958 -1 2284 -1 50 -1 18668 -1 19 -2
506 -1 3274 -1 822 -1 2139 -1 23626 -1 2284 -1 19 -2
5 -1 3564 -1 128346 -1 5345 -1 1865 -1 979 -1 128347 -1 1854 -1 19 -2
5 -1 3564 -1 128348 -1 10941 -1 677 -1 1 -2
17745 -1 118 -1 2537 -1 4958 -1 3186 -1 48 -1 3693 -1 19 -2
32198 -1 118 -1 2537 -1 4958 -1 5743 -1 48 -1 3693 -1 19 -2
8912 -1 2044 -1 733 -1 1337 -1 14644 -1 201 -1 19 -2
91 -1 602 -1 20706 -1 128349 -1 22590 -1 50 -1 6882 -1 19 -2
818 -1 83811 -1 7048 -1 1997 -1 19 -2
1645 -1 50 -1 148 -1 122 -1 7199 -1 1508 -1 19 -2
128349 -1 128350 -1 25844 -1 19 -2
48 -1 57090 -1 50 -1 1005 -1 1538 -1 4692 -1 5266 -1 2657 -1 50 -1 19 -2
3900 -1 50 -1 27598 -1 216 -1 50 -1 155 -1 1519 -1 196 -2
18610 -1 19 -2
2370 -1 6085 -1 2310 -1 362 -1 2803 -1 4493 -1 48 -1 5717 -1 50 -1 6431 -1 1049 -1 3336 -1 4493 -1 380 -1 44309 -1 1047 -1 16267 -1 3070 -1 19 -2
33 -1 1613 -1 117 -1 24178 -1 50 -1 3900 -1 41 -1 155 -1 24356 -1 27598 -1 1455 -1 2321 -1 91 -1 118 -1 1016 -1 50 -1 19 -2
27406 -1 21474 -1 17617 -1 507 -1 6924 -1 542 -1 19 -2
262 -1 2139 -1 983 -1 91 -1 21006 -1 1048 -1 2171 -1 3511 -1 19 -2
1692 -1 50219 -1 3518 -1 48 -1 3511 -1 21006 -1 19 -2
785 -1 38072 -1 1692 -1 50 -1 61518 -1 27598 -1 19 -2
50 -1 91 -1 785 -1 602 -1 522 -1 148 -1 50 -1 12879 -1 50 -1 530 -1 55 -1 1016 -1 19 -2
3724 -1 38 -1 1 -2
91 -1 197 -1 1241 -1 19 -2
2848 -1 128351 -1 1832 -1 19 -2
1508 -1 1473 -1 8916 -1 155 -1 27598 -1 19 -2
785 -1 8916 -1 50 -1 118 -1 3900 -1 2956 -1 3720 -1 55 -1 522 -1 1482 -1 341 -1 516 -1 695 -1 255 -1 1088 -1 362 -1 126 -1 127 -1 1350 -1 3605 -1 1 -2
6527 -1 2226 -1 1076 -1 50 -1 6471 -1 50 -1 13259 -1 1578 -1 1 -2
6788 -1 3439 -1 20224 -1 6139 -1 5576 -1 19 -2
12250 -1 5078 -1 3240 -1 169 -1 8379 -1 2980 -1 50 -1 405 -1 5078 -1 2613 -1 1436 -1 1502 -1 19 -2
128352 -1 26530 -1 6423 -1 1010 -1 35600 -1 262 -1 48364 -1 1286 -1 404 -1 3640 -1 19 -2
48 -1 506 -1 5840 -1 1141 -1 1023 -1 1692 -1 142 -1 19 -2
622 -1 286 -1 19 -2
128353 -1 2783 -1 9984 -1 19 -2
1255 -1 5600 -1 50 -1 7629 -1 50 -1 12645 -1 50 -1 420 -1 50 -1 148 -1 255 -1 50 -1 9240 -1 5085 -1 18239 -1 25096 -1 363 -1 28466 -1 3724 -1 1241 -1 48 -1 19 -2
693 -1 572 -1 7500 -1 37310 -1 506 -1 24012 -1 6092 -1 4883 -1 2001 -1 3373 -1 18855 -1 50 -1 672 -1 8506 -1 50 -1 1874 -1 50 -1 5331 -1 326 -1 19 -2
1438 -1 2805 -1 453 -1 1438 -1 28002 -1 24603 -1 19 -2
1722 -1 48 -1 538 -1 19 -2
583 -1 1876 -1 774 -1 55922 -1 16437 -1 128354 -1 13263 -1 1754 -1 1435 -1 746 -1 1036 -1 3179 -1 128355 -1 3179 -1 35445 -1 498 -1 50 -1 3857 -1 395 -1 50 -1 1108 -1 1 -2
1998 -1 3240 -1 7438 -1 5068 -1 34014 -1 216 -1 545 -1 1508 -1 10937 -1 1 -2
3151 -1 1 -2
19 -2
262 -1 879 -1 1739 -1 49300 -1 216 -1 19 -2
1989 -1 19298 -1 115 -1 50 -1 2980 -1 1 -2
240 -1 91 -1 1068 -1 4265 -1 2626 -1 278 -1 19 -2
432 -1 1 -2
278 -1 21368 -1 1166 -1 1 -2
262 -1 3283 -1 19 -2
1029 -1 774 -1 412 -1 621 -1 50 -1 1692 -1 522 -1 19 -2
595 -1 6053 -1 50 -1 23203 -1 326 -1 746 -1 19 -2
121 -1 21722 -1 6084 -1 19 -2
16095 -1 29036 -1 442 -1 50 -1 17469 -1 50 -1 18051 -1 50 -1 19 -2
1033 -1 48 -1 7300 -1 6574 -1 5889 -1 196 -2
4819 -1 1528 -1 1619 -1 6574 -1 1417 -1 1319 -1 1068 -1 393 -1 254 -1 615 -1 148 -1 1 -2
95 -1 19 -2
50 -1 3003 -1 638 -1 1692 -1 50 -1 48 -1 1272 -1 3410 -1 1268 -1 48 -1 2304 -1 306 -1 4310 -1 216 -1 19 -2
700 -1 4058 -1 1723 -1 4120 -1 700 -1 358 -1 19 -2
356 -1 3999 -1 7678 -1 1083 -1 10920 -1 550 -1 880 -1 50 -1 1592 -1 1977 -1 1392 -1 1 -2
312 -1 2657 -1 2156 -1 9439 -1 12879 -1 4503 -1 1 -2
10920 -1 263 -1 1733 -1 1 -2
326 -1 13147 -1 4944 -1 1 -2
263 -1 19 -2
85 -1 2794 -1 1 -2
85 -1 45662 -1 1 -2
85 -1 3240 -1 700 -1 6832 -1 3790 -1 1 -2
10618 -1 1535 -1 3410 -1 13898 -1 953 -1 720 -1 1010 -1 6788 -1 50 -1 1071 -1 21776 -1 50 -1 640 -1 624 -1 4 -1 121 -1 522 -1 297 -1 121 -1 19 -2
95 -1 19 -2
262 -1 6788 -1 3179 -1 35445 -1 12465 -1 49 -1 19 -2
48 -1 2813 -1 4891 -1 1509 -1 56026 -1 155 -1 2139 -1 18515 -1 597 -1 792 -1 19 -2
713 -1 627 -1 1595 -1 148 -1 255 -1 616 -1 19 -2
48 -1 1321 -1 50 -1 6788 -1 50 -1 48 -1 3815 -1 3116 -1 9776 -1 50 -1 785 -1 66 -1 792 -1 19 -2
48 -1 2103 -1 1034 -1 4617 -1 700 -1 681 -1 19 -2
498 -1 1047 -1 50 -1 91 -1 1489 -1 128356 -1 5114 -1 19 -2
33 -1 12499 -1 1353 -1 17373 -1 12995 -1 934 -1 19 -2
2581 -1 51 -1 50 -1 5078 -1 19 -2
2044 -1 935 -1 19 -2
582 -1 508 -1 50 -1 361 -1 606 -1 872 -1 2394 -1 19 -2
12553 -1 34529 -1 14897 -1 1 -2
91 -1 240 -1 3075 -1 19 -2
643 -1 117 -1 1404 -1 564 -1 3955 -1 19 -2
1018 -1 53267 -1 50 -1 2790 -1 50 -1 1692 -1 1685 -1 974 -1 144 -1 255 -1 736 -1 19 -2
48 -1 216 -1 55 -1 1323 -1 50 -1 1024 -1 1019 -1 50 -1 31 -1 240 -1 157 -1 1227 -1 4178 -1 50 -1 2274 -1 5147 -1 16435 -1 1271 -1 1 -2
144 -1 50 -1 1151 -1 4031 -1 19 -2
609 -1 4178 -1 2557 -1 19 -2
2687 -1 1011 -1 661 -1 155 -1 405 -1 412 -1 775 -1 405 -1 48 -1 2694 -1 620 -1 19 -2
1039 -1 121 -1 19 -2
48 -1 819 -1 271 -1 19 -2
1525 -1 739 -1 917 -1 1071 -1 19 -2
390 -1 8011 -1 1227 -1 155 -1 785 -1 1071 -1 1126 -1 3636 -1 818 -1 19 -2
4552 -1 262 -1 13408 -1 42132 -1 1717 -1 740 -1 704 -1 19 -2
670 -1 785 -1 1494 -1 3511 -1 6607 -1 19 -2
6390 -1 1392 -1 1518 -1 917 -1 2083 -1 255 -1 5088 -1 19 -1 145 -1 809 -1 33726 -1 17682 -1 1225 -1 19 -2
89685 -1 793 -1 3183 -1 19 -2
240 -1 48 -1 1023 -1 196 -1 19 -2
471 -1 8571 -1 19 -2
161 -1 520 -1 523 -1 255 -1 7194 -1 24724 -1 1025 -1 288 -1 1 -2
43255 -1 602 -1 595 -1 19 -2
7882 -1 113 -1 736 -1 19 -2
262 -1 523 -1 11738 -1 1141 -1 19 -2
48 -1 122 -1 16961 -1 1248 -1 197 -1 1068 -1 155 -1 19 -2
148 -1 3241 -1 1419 -1 356 -1 19 -2
5238 -1 549 -1 4037 -1 784 -1 50 -1 8659 -1 784 -1 19 -2