32256 -1 30 -1 7 -1 50 -1 914 -1 50 -1 736 -1 2286 -1 7713 -1 2302 -1 4592 -1 928 -1 267 -1 3 -1 501 -1 1426 -1 157 -1 50 -1 535 -1 50 -1 1674 -1 2286 -1 7713 -1 2302 -1 1678 -1 9676 -1 10640 -1 4774 -1 2286 -1 7713 -1 2302 -1 504 -1 2401 -1 3517 -1 114 -1 9141 -1 16177 -1 2286 -1 7713 -1 2302 -1 535 -1 9676 -1 10640 -1 7009 -1 2286 -1 7713 -1 2302 -1 6544 -1 9676 -1 2380 -1 2286 -1 7713 -1 2302 -1 535 -1 9676 -1 32254 -1 2286 -1 7713 -1 2302 -1 736 -1 9676 -1 1059 -1 2286 -1 7713 -1 2302 -1 535 -1 9676 -1 2103 -1 8186 -1 2286 -1 7713 -1 2302 -1 928 -1 9676 -1 184 -1 263 -1 15733 -1 3127 -1 2603 -1 2603 -1 2286 -1 7713 -1 2302 -1 12740 -1 1674 -1 9676 -1 967 -1 49 -1 6292 -1 2286 -1 7713 -1 2302 -1 32257 -1 389 -1 2286 -1 7713 -1 2302 -1 32255 -1 2286 -1 7713 -1 2302 -1 736 -1 3 -1 9676 -1 1055 -1 2286 -1 7713 -1 2302 -1 157 -1 9676 -1 1571 -1 2492 -1 17059 -1 2397 -1 2286 -1 7713 -1 2302 -1 3754 -1 3126 -1 3996 -1 27 -1 1 -2
262 -1 2934 -1 1704 -1 629 -1 659 -1 19 -2
2286 -1 7713 -1 2302 -1 1674 -1 9676 -1 1377 -1 643 -1 2286 -1 7713 -1 2302 -1 1675 -1 9676 -1 2314 -1 6063 -1 2286 -1 7713 -1 2302 -1 32264 -1 2286 -1 7713 -1 2302 -1 6537 -1 9676 -1 3747 -1 6 -1 14308 -1 10424 -1 32258 -1 32259 -1 157 -1 9676 -1 11913 -1 2286 -1 7713 -1 2302 -1 928 -1 9676 -1 32262 -1 2286 -1 7713 -1 2302 -1 487 -1 9676 -1 32263 -1 3949 -1 5186 -1 2286 -1 7713 -1 2302 -1 3 -1 9676 -1 1515 -1 2286 -1 7713 -1 2302 -1 1426 -1 9676 -1 17594 -1 2286 -1 7713 -1 2302 -1 1678 -1 9676 -1 82 -1 17274 -1 2286 -1 7713 -1 2302 -1 1674 -1 9676 -1 5330 -1 263 -1 5330 -1 3589 -1 2872 -1 2286 -1 7713 -1 2302 -1 157 -1 9676 -1 254 -1 1208 -1 2286 -1 7713 -1 2302 -1 7 -1 9676 -1 32265 -1 2286 -1 7713 -1 2302 -1 1426 -1 9676 -1 15830 -1 204 -1 6772 -1 2286 -1 7713 -1 2302 -1 2601 -1 9676 -1 1285 -1 1292 -1 2286 -1 7713 -1 2302 -1 2837 -1 9676 -1 112 -1 11220 -1 2286 -1 7713 -1 2302 -1 7305 -1 9676 -1 545 -1 597 -1 112 -1 11220 -1 2286 -1 7713 -1 2302 -1 216 -1 1683 -1 740 -1 9676 -1 15153 -1 2286 -1 7713 -1 2302 -1 31 -1 2550 -1 54 -1 389 -1 9676 -1 390 -1 3232 -1 2286 -1 7713 -1 2302 -1 8634 -1 9676 -1 32260 -1 2286 -1 7713 -1 2302 -1 7305 -1 9676 -1 8286 -1 2286 -1 7713 -1 2302 -1 736 -1 9676 -1 1519 -1 14471 -1 15158 -1 2286 -1 7713 -1 2302 -1 2751 -1 9676 -1 1068 -1 8658 -1 2286 -1 7713 -1 2302 -1 487 -1 9676 -1 9360 -1 2286 -1 7713 -1 2302 -1 7305 -1 9676 -1 6523 -1 626 -1 700 -1 115 -1 2286 -1 7713 -1 2302 -1 2929 -1 9676 -1 356 -1 8349 -1 2286 -1 7713 -1 2302 -1 7 -1 9676 -1 1377 -1 2932 -1 2324 -1 2286 -1 7713 -1 2302 -1 3 -1 9676 -1 356 -1 1893 -1 2286 -1 7713 -1 2302 -1 10382 -1 9676 -1 356 -1 591 -1 3096 -1 968 -1 32261 -1 2286 -1 7713 -1 2302 -1 1678 -1 389 -1 9676 -1 458 -1 155 -1 25 -1 487 -1 1 -2
9676 -1 197 -1 114 -1 4525 -1 2286 -1 7713 -1 2302 -1 535 -1 9676 -1 114 -1 1059 -1 5465 -1 2286 -1 7713 -1 2302 -2