90541 -1 18819 -1 216 -1 50 -1 117 -1 1704 -1 3041 -1 240 -1 5212 -1 50 -1 679 -1 240 -1 48 -1 1846 -1 1584 -1 262 -1 4562 -1 509 -1 1508 -1 19 -2
19 -2
721 -1 50 -1 262 -1 535 -1 4691 -1 1686 -1 4857 -1 155 -1 173 -1 299 -1 50 -1 53 -1 50 -1 270 -1 3681 -1 50 -1 298 -1 2791 -1 50 -1 90542 -1 155 -1 9149 -1 2394 -1 19 -2
19 -2
262 -1 725 -1 50 -1 1090 -1 19 -2
2321 -1 2936 -1 3015 -1 1591 -1 299 -1 13864 -1 299 -1 117 -1 4955 -1 50 -1 118 -1 142 -1 3624 -1 197 -1 19 -2
9837 -1 50 -1 1249 -1 4654 -1 785 -1 1051 -1 49 -1 50 -1 148 -1 9837 -1 3006 -1 3518 -1 50 -1 49 -1 748 -1 255 -1 1392 -1 19 -2
656 -1 90543 -1 50 -1 216 -1 240 -1 48 -1 506 -1 50 -1 6173 -1 476 -1 520 -1 507 -1 122 -1 20556 -1 5865 -1 2808 -1 19 -2
262 -1 725 -1 50 -1 476 -1 520 -1 725 -1 50 -1 173 -1 225 -1 299 -1 290 -1 22127 -1 5611 -1 50 -1 476 -1 2814 -1 520 -1 1132 -1 713 -1 629 -1 449 -1 1851 -1 1435 -1 19 -2
56467 -1 2108 -1 1257 -1 872 -1 19 -2
19173 -1 812 -1 158 -1 50 -1 872 -1 420 -1 16882 -1 5191 -1 3877 -1 6816 -1 968 -1 1787 -1 1257 -1 19 -2
107 -1 19 -2
2957 -1 29 -1 50 -1 494 -1 29 -1 488 -1 872 -1 23572 -1 1257 -1 3101 -1 1018 -1 19 -2
6377 -1 713 -1 872 -1 8322 -1 19 -2
262 -1 13443 -1 50 -1 3237 -1 502 -1 131 -1 1729 -1 876 -1 25426 -1 1257 -1 19 -2
91 -1 1151 -1 2750 -1 1273 -1 9882 -1 50 -1 19 -2
2692 -1 48 -1 544 -1 50 -1 413 -1 1692 -1 2916 -1 181 -1 1538 -1 48 -1 3270 -1 17511 -1 48 -1 2657 -1 1258 -1 19 -2
1176 -1 19 -2
780 -1 538 -1 50 -1 19 -2
254 -1 6712 -1 11643 -1 18191 -1 8683 -1 3257 -1 19 -2
6759 -1 1009 -1 1257 -1 3124 -1 4882 -1 30892 -1 50 -1 1257 -1 1009 -1 872 -1 19 -2
262 -1 773 -1 506 -1 5774 -1 3237 -1 872 -1 24408 -1 523 -1 564 -1 19 -2
285 -1 752 -1 4551 -1 5663 -1 50 -1 197 -1 1257 -1 19 -2
242 -1 376 -1 349 -1 352 -1 3158 -1 3125 -1 50 -1 240 -1 107 -1 12052 -1 263 -1 2603 -1 19 -2
4032 -1 626 -1 299 -1 746 -1 19 -2
163 -1 23345 -1 50 -1 3375 -1 488 -1 793 -1 613 -1 2790 -1 819 -1 509 -1 50 -1 254 -1 407 -1 255 -1 288 -1 407 -1 50 -1 7595 -1 953 -1 262 -1 725 -1 3011 -1 1212 -1 10558 -1 19 -1 993 -1 1538 -1 50 -1 3908 -1 1169 -1 1866 -1 1620 -1 2054 -1 471 -1 19 -2
1498 -1 1487 -1 633 -1 361 -1 19 -2
42 -1 4595 -1 2956 -1 50 -1 390 -1 19 -2
1538 -1 3075 -1 255 -1 50 -1 48 -1 515 -1 285 -1 271 -1 350 -1 1369 -1 1538 -1 255 -1 262 -1 30498 -1 10062 -1 879 -1 1560 -1 4032 -1 50 -1 5421 -1 10180 -1 4300 -1 67776 -1 13697 -1 7017 -1 19 -2
19179 -1 672 -1 713 -1 299 -1 999 -1 19 -2
117 -1 3366 -1 1215 -1 121 -1 50 -1 2849 -1 148 -1 113 -1 7010 -1 2423 -1 1018 -1 1958 -1 50 -1 6759 -1 19 -2
33 -1 19 -2
271 -1 983 -1 2388 -1 50 -1 1111 -1 1009 -1 50 -1 3508 -1 9755 -1 91 -1 3365 -1 885 -1 19 -2
951 -1 289 -1 2523 -1 50 -1 4271 -1 1585 -1 50 -1 368 -1 50 -1 19 -2
262 -1 3722 -1 2523 -1 50 -1 9755 -1 50 -1 1520 -1 3736 -1 1637 -1 248 -1 595 -1 6151 -1 5916 -1 53 -1 2091 -1 2578 -1 595 -1 630 -1 1885 -1 767 -1 634 -1 626 -1 632 -1 666 -1 50 -1 2555 -1 19 -2
262 -1 2544 -1 4651 -1 4260 -1 50 -1 1704 -1 173 -1 299 -1 999 -1 466 -1 196 -2
2690 -1 2689 -1 322 -1 1198 -1 122 -1 3151 -1 1508 -1 50 -1 3011 -1 1212 -1 19 -2
262 -1 1857 -1 2552 -1 4162 -1 8855 -1 9 -1 19 -2
2197 -1 299 -1 634 -1 2070 -1 2808 -1 5774 -1 7823 -1 13281 -1 1696 -1 1772 -1 5774 -1 50 -1 19 -2
42 -1 1576 -1 2956 -1 595 -1 50 -1 48 -1 523 -1 13253 -1 2368 -1 19 -2
2692 -1 50 -1 1857 -1 288 -1 6712 -1 425 -1 54 -1 50 -1 629 -1 1175 -1 290 -1 49 -1 19 -2
117 -1 6120 -1 50 -1 509 -1 520 -1 33 -1 50 -1 9685 -1 537 -1 700 -1 5262 -1 13037 -1 2610 -1 3291 -1 50 -1 6759 -1 1969 -1 1879 -1 50 -1 1005 -1 2127 -1 1879 -1 1010 -1 19 -1 19 -1 408 -1 33 -1 1498 -1 155 -1 13180 -1 875 -1 9 -1 173 -1 299 -1 20459 -1 875 -1 713 -1 299 -1 48 -1 16286 -1 19 -2
2 -1 2567 -1 9794 -1 50 -1 197 -1 14658 -1 242 -1 122 -1 897 -1 515 -1 2310 -1 50 -1 957 -1 148 -1 2487 -1 132 -1 289 -1 19 -2
6759 -1 5519 -1 19 -2
91 -1 240 -1 288 -1 1220 -1 1009 -1 4767 -1 33 -1 117 -1 10200 -1 69086 -1 11350 -1 22782 -1 50 -1 54 -1 855 -1 19 -2
11631 -1 946 -1 19 -2
197 -1 48 -1 1055 -1 535 -1 50 -1 91 -1 2890 -1 96 -1 1156 -1 169 -1 19 -2
879 -1 169 -1 3816 -1 11906 -1 2015 -1 9 -1 19 -2
520 -1 2091 -1 19 -2
48 -1 3554 -1 263 -1 50 -1 6084 -1 693 -1 5972 -1 1595 -1 324 -1 5147 -1 28690 -1 546 -1 50 -1 6084 -1 19 -1 19 -1 117 -1 793 -1 148 -1 562 -1 535 -1 19 -2
535 -1 48 -1 471 -1 520 -1 50 -1 48 -1 1248 -1 520 -1 2710 -1 1580 -1 19 -2
240 -1 173 -1 3 -1 48 -1 1489 -1 19 -2
262 -1 1857 -1 1518 -1 54 -1 1784 -1 488 -1 117 -1 1404 -1 255 -1 50 -1 676 -1 50 -1 118 -1 19 -2
262 -1 1090 -1 50 -1 12099 -1 5122 -1 19 -2
1012 -1 117 -1 9603 -1 3283 -1 444 -1 19 -2
48 -1 50 -1 1692 -1 368 -1 9941 -1 5044 -1 50 -1 1137 -1 715 -1 4162 -1 3790 -1 19 -2
1121 -1 66 -1 3011 -1 19 -2
1495 -1 19 -2
262 -1 1857 -1 50 -1 271 -1 1584 -1 10435 -1 50 -1 551 -1 6447 -1 1525 -1 3738 -1 2388 -1 9768 -1 90544 -1 595 -1 7011 -1 7214 -1 50 -1 425 -1 299 -1 1024 -1 30977 -1 18112 -1 110 -1 6000 -1 8391 -1 19 -2
2113 -1 66 -1 50 -1 6149 -1 471 -1 50 -1 1015 -1 2113 -1 50 -1 544 -1 466 -1 1997 -1 121 -1 19 -2
17458 -1 3138 -1 9 -1 19 -2
26401 -1 1888 -1 155 -1 312 -1 1790 -1 50 -1 262 -1 1857 -1 1645 -1 324 -1 368 -1 2097 -1 5379 -1 505 -1 953 -1 117 -1 50 -1 629 -1 299 -1 290 -1 50 -1 1525 -1 173 -1 299 -1 469 -1 50 -1 2690 -1 5150 -1 1248 -1 523 -1 564 -1 4645 -1 5759 -1 2326 -1 19 -2
1225 -1 38210 -1 50 -1 19 -2
2692 -1 6294 -1 1310 -1 1306 -1 390 -1 50 -1 3831 -1 8122 -1 780 -1 91 -1 602 -1 752 -1 50 -1 48 -1 8915 -1 3365 -1 19 -2
66 -1 1111 -1 3 -1 19 -2
181 -1 2375 -1 50 -1 91 -1 1538 -1 262 -1 10937 -1 118 -1 19 -2
262 -1 506 -1 3776 -1 2616 -1 50 -1 48 -1 300 -1 19 -2
240 -1 272 -1 1018 -1 50 -1 216 -1 1974 -1 19 -2
1377 -1 3015 -1 50 -1 1377 -1 1220 -1 107 -1 5199 -1 19 -2
1377 -1 8328 -1 48 -1 306 -1 1395 -1 50 -1 1615 -1 142 -1 19 -2
999 -1 117 -1 812 -1 82358 -1 19 -2
1520 -1 66 -1 50 -1 879 -1 4387 -1 3 -1 31211 -1 4260 -1 7664 -1 471 -1 50 -1 2113 -1 271 -1 19 -2
2196 -1 2303 -1 2331 -1 1015 -1 17849 -1 2569 -1 1857 -1 50 -1 12896 -1 856 -1 50 -1 91 -1 2303 -1 50 -1 1167 -1 2303 -1 1690 -1 19 -2
361 -1 9090 -1 1137 -1 122 -1 263 -1 520 -1 3840 -1 50 -1 278 -1 50 -1 817 -1 50 -1 4833 -1 50 -1 347 -1 121 -1 793 -1 564 -1 6178 -1 555 -1 50 -1 19 -2
559 -1 50 -1 287 -1 1015 -1 50 -1 3815 -1 287 -1 572 -1 6283 -1 9019 -1 476 -1 5643 -1 50 -1 9423 -1 50 -1 1772 -1 853 -1 19 -2
759 -1 537 -1 3394 -1 144 -1 148 -1 274 -1 50 -1 780 -1 1990 -1 2034 -1 11236 -1 363 -1 1321 -1 8282 -1 48 -1 676 -1 1435 -1 50 -1 122 -1 6430 -1 19 -2
255 -1 19 -2
117 -1 122 -1 550 -1 1729 -1 3 -1 19 -2
148 -1 255 -1 597 -1 50 -1 197 -1 461 -1 1149 -1 216 -1 3 -1 535 -1 10871 -1 50 -1 48 -1 700 -1 50 -1 18497 -1 19 -2
197 -1 3693 -1 19 -2
937 -1 7413 -1 19 -2
240 -1 3 -1 50 -1 11572 -1 4955 -1 1520 -1 1929 -1 775 -1 50 -1 29 -1 1024 -2
1857 -1 225 -1 3015 -1 50 -1 8740 -1 172 -1 368 -1 50 -1 38 -1 629 -1 1175 -1 19 -2
117 -1 1591 -1 52399 -1 155 -1 50 -1 1645 -1 551 -1 4447 -1 602 -1 1731 -1 3376 -1 50 -1 91 -1 255 -1 19 -2
118 -1 41 -1 50 -1 773 -1 408 -1 3232 -1 117 -1 738 -1 19 -2
2274 -1 262 -1 105 -1 1090 -1 50 -1 3015 -1 117 -1 107 -1 595 -1 3411 -1 289 -1 50 -1 780 -1 19 -2
1462 -1 9090 -1 50 -1 759 -1 271 -1 1704 -1 853 -1 1220 -1 50 -1 19814 -1 50 -1 3770 -1 1834 -1 62 -1 50 -1 8436 -1 66 -1 3 -1 3770 -1 50 -1 19 -2