7 -1 #SUP: 2
19 -1 #SUP: 3
48 -1 #SUP: 3
50 -1 #SUP: 28
113 -1 #SUP: 2
117 -1 #SUP: 2
155 -1 #SUP: 2
172 -1 #SUP: 2
197 -1 #SUP: 4
271 -1 #SUP: 2
288 -1 #SUP: 3
289 -1 #SUP: 2
299 -1 #SUP: 2
368 -1 #SUP: 3
407 -1 #SUP: 2
417 -1 #SUP: 2
453 -1 #SUP: 2
471 -1 #SUP: 2
482 -1 #SUP: 2
595 -1 #SUP: 3
622 -1 #SUP: 2
692 -1 #SUP: 2
713 -1 #SUP: 3
785 -1 #SUP: 4
826 -1 #SUP: 2
1094 -1 #SUP: 2
1225 -1 #SUP: 2
1692 -1 #SUP: 2
3517 -1 #SUP: 2
4241 -1 #SUP: 2
6288 -1 #SUP: 2
12546 -1 #SUP: 3
14599 -1 #SUP: 2
48 -1 50 -1 #SUP: 2
50 -1 50 -1 #SUP: 5
50 -1 113 -1 #SUP: 2
50 -1 482 -1 #SUP: 2
197 -1 48 -1 #SUP: 2
197 -1 50 -1 #SUP: 2
271 -1 826 -1 #SUP: 2
368 -1 288 -1 #SUP: 2
417 -1 14599 -1 #SUP: 2
50 -1 50 -1 50 -1 #SUP: 3
50 -1 50 -1 50 -1 50 -1 #SUP: 3
50 -1 50 -1 50 -1 50 -1 50 -1 #SUP: 3
50 -1 50 -1 50 -1 50 -1 50 -1 50 -1 #SUP: 2
