9 -1 #SUP: 2
25 -1 #SUP: 8
30 -1 #SUP: 2
33 -1 #SUP: 2
48 -1 #SUP: 4
49 -1 #SUP: 5
50 -1 #SUP: 59
54 -1 #SUP: 2
75 -1 #SUP: 9
91 -1 #SUP: 6
95 -1 #SUP: 2
106 -1 #SUP: 2
109 -1 #SUP: 5
113 -1 #SUP: 2
115 -1 #SUP: 2
116 -1 #SUP: 3
121 -1 #SUP: 2
155 -1 #SUP: 8
197 -1 #SUP: 8
240 -1 #SUP: 3
255 -1 #SUP: 5
263 -1 #SUP: 4
266 -1 #SUP: 2
270 -1 #SUP: 2
278 -1 #SUP: 5
306 -1 #SUP: 2
327 -1 #SUP: 2
361 -1 #SUP: 2
362 -1 #SUP: 2
394 -1 #SUP: 2
396 -1 #SUP: 5
399 -1 #SUP: 2
407 -1 #SUP: 2
412 -1 #SUP: 2
431 -1 #SUP: 3
453 -1 #SUP: 3
461 -1 #SUP: 2
504 -1 #SUP: 2
522 -1 #SUP: 2
545 -1 #SUP: 2
564 -1 #SUP: 2
602 -1 #SUP: 2
633 -1 #SUP: 2
637 -1 #SUP: 2
793 -1 #SUP: 2
809 -1 #SUP: 3
890 -1 #SUP: 2
953 -1 #SUP: 2
957 -1 #SUP: 2
979 -1 #SUP: 4
993 -1 #SUP: 2
1010 -1 #SUP: 2
1094 -1 #SUP: 6
1125 -1 #SUP: 3
1151 -1 #SUP: 2
1228 -1 #SUP: 2
1396 -1 #SUP: 2
1415 -1 #SUP: 2
1482 -1 #SUP: 2
1493 -1 #SUP: 3
1494 -1 #SUP: 4
1520 -1 #SUP: 2
1538 -1 #SUP: 5
1585 -1 #SUP: 2
1637 -1 #SUP: 2
1675 -1 #SUP: 2
1692 -1 #SUP: 3
1731 -1 #SUP: 2
1739 -1 #SUP: 2
1862 -1 #SUP: 3
1865 -1 #SUP: 3
1876 -1 #SUP: 2
1896 -1 #SUP: 2
2032 -1 #SUP: 2
2139 -1 #SUP: 2
2394 -1 #SUP: 2
2460 -1 #SUP: 3
2657 -1 #SUP: 3
2662 -1 #SUP: 2
2751 -1 #SUP: 2
3075 -1 #SUP: 3
3410 -1 #SUP: 2
5937 -1 #SUP: 2
8798 -1 #SUP: 2
22430 -1 #SUP: 2
27825 -1 #SUP: 2
30 -1 50 -1 #SUP: 2
48 -1 637 -1 #SUP: 2
49 -1 50 -1 #SUP: 2
50 -1 9 -1 #SUP: 2
50 -1 48 -1 #SUP: 2
50 -1 49 -1 #SUP: 3
50 -1 50 -1 #SUP: 7
50 -1 91 -1 #SUP: 3
50 -1 109 -1 #SUP: 2
50 -1 116 -1 #SUP: 2
50 -1 155 -1 #SUP: 5
50 -1 197 -1 #SUP: 3
50 -1 240 -1 #SUP: 2
50 -1 263 -1 #SUP: 2
50 -1 278 -1 #SUP: 3
50 -1 564 -1 #SUP: 2
50 -1 637 -1 #SUP: 2
50 -1 1125 -1 #SUP: 3
50 -1 1493 -1 #SUP: 2
50 -1 1494 -1 #SUP: 2
50 -1 1520 -1 #SUP: 2
50 -1 1538 -1 #SUP: 3
50 -1 1692 -1 #SUP: 2
50 -1 1862 -1 #SUP: 3
50 -1 2460 -1 #SUP: 3
50 -1 2657 -1 #SUP: 2
50 -1 27825 -1 #SUP: 2
54 -1 50 -1 #SUP: 2
54 -1 1862 -1 #SUP: 2
54 -1 2657 -1 #SUP: 2
75 -1 25 -1 #SUP: 8
91 -1 50 -1 #SUP: 2
91 -1 3410 -1 #SUP: 2
95 -1 50 -1 #SUP: 2
106 -1 109 -1 #SUP: 2
155 -1 50 -1 #SUP: 2
197 -1 106 -1 #SUP: 2
197 -1 109 -1 #SUP: 3
255 -1 50 -1 #SUP: 2
263 -1 50 -1 #SUP: 2
278 -1 50 -1 #SUP: 2
396 -1 50 -1 #SUP: 2
453 -1 49 -1 #SUP: 2
504 -1 197 -1 #SUP: 2
793 -1 50 -1 #SUP: 2
793 -1 890 -1 #SUP: 2
793 -1 1731 -1 #SUP: 2
890 -1 1731 -1 #SUP: 2
957 -1 50 -1 #SUP: 2
1094 -1 50 -1 #SUP: 2
1094 -1 75 -1 #SUP: 2
1094 -1 91 -1 #SUP: 2
1494 -1 50 -1 #SUP: 2
1494 -1 407 -1 #SUP: 2
1862 -1 564 -1 #SUP: 2
1862 -1 2657 -1 #SUP: 2
50 -1 48 -1 637 -1 #SUP: 2
50 -1 50 -1 50 -1 #SUP: 5
50 -1 50 -1 27825 -1 #SUP: 2
50 -1 1862 -1 564 -1 #SUP: 2
50 -1 1862 -1 2657 -1 #SUP: 2
54 -1 50 -1 1862 -1 #SUP: 2
54 -1 50 -1 2657 -1 #SUP: 2
54 -1 1862 -1 2657 -1 #SUP: 2
197 -1 106 -1 109 -1 #SUP: 2
793 -1 890 -1 1731 -1 #SUP: 2
1094 -1 50 -1 91 -1 #SUP: 2
50 -1 50 -1 50 -1 50 -1 #SUP: 3
50 -1 50 -1 50 -1 27825 -1 #SUP: 2
54 -1 50 -1 1862 -1 2657 -1 #SUP: 2
50 -1 50 -1 50 -1 50 -1 50 -1 #SUP: 2
50 -1 50 -1 50 -1 50 -1 27825 -1 #SUP: 2
50 -1 50 -1 50 -1 50 -1 50 -1 27825 -1 #SUP: 2
