9 -1 #SUP: 2
19 -1 #SUP: 6
33 -1 #SUP: 3
47 -1 #SUP: 6
48 -1 #SUP: 14
49 -1 #SUP: 2
50 -1 #SUP: 82
54 -1 #SUP: 2
65 -1 #SUP: 2
67 -1 #SUP: 2
91 -1 #SUP: 4
107 -1 #SUP: 2
114 -1 #SUP: 4
117 -1 #SUP: 12
118 -1 #SUP: 7
121 -1 #SUP: 4
122 -1 #SUP: 5
133 -1 #SUP: 2
143 -1 #SUP: 2
148 -1 #SUP: 4
155 -1 #SUP: 7
164 -1 #SUP: 2
173 -1 #SUP: 2
181 -1 #SUP: 2
197 -1 #SUP: 10
240 -1 #SUP: 6
255 -1 #SUP: 7
262 -1 #SUP: 16
263 -1 #SUP: 3
266 -1 #SUP: 3
290 -1 #SUP: 2
294 -1 #SUP: 2
299 -1 #SUP: 4
306 -1 #SUP: 4
314 -1 #SUP: 2
321 -1 #SUP: 2
361 -1 #SUP: 5
381 -1 #SUP: 2
390 -1 #SUP: 2
394 -1 #SUP: 2
408 -1 #SUP: 5
453 -1 #SUP: 4
456 -1 #SUP: 2
488 -1 #SUP: 3
506 -1 #SUP: 2
507 -1 #SUP: 2
550 -1 #SUP: 3
564 -1 #SUP: 2
595 -1 #SUP: 2
602 -1 #SUP: 2
679 -1 #SUP: 4
748 -1 #SUP: 2
784 -1 #SUP: 3
839 -1 #SUP: 2
879 -1 #SUP: 2
881 -1 #SUP: 2
914 -1 #SUP: 8
953 -1 #SUP: 4
1039 -1 #SUP: 2
1085 -1 #SUP: 2
1116 -1 #SUP: 2
1220 -1 #SUP: 2
1223 -1 #SUP: 2
1242 -1 #SUP: 2
1262 -1 #SUP: 2
1265 -1 #SUP: 2
1373 -1 #SUP: 2
1404 -1 #SUP: 2
1482 -1 #SUP: 2
1499 -1 #SUP: 2
1519 -1 #SUP: 2
1538 -1 #SUP: 2
1612 -1 #SUP: 2
1637 -1 #SUP: 2
1673 -1 #SUP: 3
1692 -1 #SUP: 2
1760 -1 #SUP: 2
1912 -1 #SUP: 2
2000 -1 #SUP: 2
2331 -1 #SUP: 2
2533 -1 #SUP: 2
2601 -1 #SUP: 3
2775 -1 #SUP: 4
2777 -1 #SUP: 2
2788 -1 #SUP: 3
2894 -1 #SUP: 2
2957 -1 #SUP: 2
3329 -1 #SUP: 2
3734 -1 #SUP: 2
3889 -1 #SUP: 2
4617 -1 #SUP: 2
5354 -1 #SUP: 3
5406 -1 #SUP: 2
5486 -1 #SUP: 2
5889 -1 #SUP: 2
5919 -1 #SUP: 2
6283 -1 #SUP: 3
6810 -1 #SUP: 2
7999 -1 #SUP: 2
9585 -1 #SUP: 2
9908 -1 #SUP: 2
11729 -1 #SUP: 2
12643 -1 #SUP: 2
13526 -1 #SUP: 2
14332 -1 #SUP: 2
23850 -1 #SUP: 2
19 -1 19 -1 #SUP: 2
19 -1 48 -1 #SUP: 2
19 -1 50 -1 #SUP: 2
19 -1 240 -1 #SUP: 2
47 -1 50 -1 #SUP: 3
47 -1 408 -1 #SUP: 2
47 -1 914 -1 #SUP: 2
47 -1 1223 -1 #SUP: 2
47 -1 7999 -1 #SUP: 2
48 -1 48 -1 #SUP: 2
48 -1 50 -1 #SUP: 3
50 -1 48 -1 #SUP: 5
50 -1 49 -1 #SUP: 2
50 -1 50 -1 #SUP: 16
50 -1 114 -1 #SUP: 4
50 -1 117 -1 #SUP: 2
50 -1 118 -1 #SUP: 3
50 -1 122 -1 #SUP: 2
50 -1 133 -1 #SUP: 2
50 -1 148 -1 #SUP: 3
50 -1 155 -1 #SUP: 5
50 -1 240 -1 #SUP: 3
50 -1 255 -1 #SUP: 3
50 -1 262 -1 #SUP: 4
50 -1 263 -1 #SUP: 2
50 -1 361 -1 #SUP: 2
50 -1 453 -1 #SUP: 2
50 -1 488 -1 #SUP: 2
50 -1 550 -1 #SUP: 2
50 -1 881 -1 #SUP: 2
50 -1 914 -1 #SUP: 4
50 -1 953 -1 #SUP: 3
50 -1 1223 -1 #SUP: 2
50 -1 2533 -1 #SUP: 2
50 -1 2775 -1 #SUP: 2
50 -1 2777 -1 #SUP: 2
65 -1 118 -1 #SUP: 2
117 -1 1116 -1 #SUP: 2
118 -1 50 -1 #SUP: 3
121 -1 50 -1 #SUP: 2
121 -1 117 -1 #SUP: 2
133 -1 50 -1 #SUP: 2
155 -1 118 -1 #SUP: 2
197 -1 50 -1 #SUP: 2
197 -1 262 -1 #SUP: 2
240 -1 48 -1 #SUP: 2
240 -1 262 -1 #SUP: 2
262 -1 50 -1 #SUP: 4
262 -1 155 -1 #SUP: 2
262 -1 321 -1 #SUP: 2
262 -1 914 -1 #SUP: 2
262 -1 5406 -1 #SUP: 2
263 -1 50 -1 #SUP: 2
361 -1 50 -1 #SUP: 5
390 -1 50 -1 #SUP: 2
408 -1 47 -1 #SUP: 2
408 -1 50 -1 #SUP: 3
408 -1 361 -1 #SUP: 2
408 -1 394 -1 #SUP: 2
408 -1 914 -1 #SUP: 3
408 -1 7999 -1 #SUP: 2
679 -1 50 -1 #SUP: 2
679 -1 679 -1 #SUP: 2
784 -1 50 -1 #SUP: 2
914 -1 394 -1 #SUP: 2
953 -1 155 -1 #SUP: 2
953 -1 262 -1 #SUP: 2
1637 -1 50 -1 #SUP: 2
1673 -1 914 -1 #SUP: 2
2775 -1 50 -1 #SUP: 2
2775 -1 121 -1 #SUP: 2
2788 -1 5354 -1 #SUP: 2
2957 -1 50 -1 #SUP: 2
5486 -1 117 -1 #SUP: 2
5486 -1 121 -1 #SUP: 2
9585 -1 50 -1 #SUP: 2
13526 -1 143 -1 #SUP: 2
19 -1 19 -1 240 -1 #SUP: 2
19 -1 50 -1 50 -1 #SUP: 2
47 -1 50 -1 1223 -1 #SUP: 2
47 -1 408 -1 7999 -1 #SUP: 2
50 -1 50 -1 48 -1 #SUP: 2
50 -1 50 -1 50 -1 #SUP: 4
50 -1 50 -1 914 -1 #SUP: 2
50 -1 133 -1 50 -1 #SUP: 2
50 -1 361 -1 50 -1 #SUP: 2
50 -1 953 -1 155 -1 #SUP: 2
361 -1 50 -1 50 -1 #SUP: 2
408 -1 47 -1 50 -1 #SUP: 2
408 -1 47 -1 914 -1 #SUP: 2
408 -1 361 -1 50 -1 #SUP: 2
408 -1 914 -1 394 -1 #SUP: 2
2775 -1 121 -1 50 -1 #SUP: 2
5486 -1 121 -1 117 -1 #SUP: 2
50 -1 50 -1 50 -1 50 -1 #SUP: 2
