408 -1 1831 -1 121 -1 91 -1 849 -1 118 -1 272 -1 50 -1 121 -1 240 -1 9559 -1 366 -1 50 -1 121 -1 19291 -1 19 -1 19 -1 1455 -1 10516 -1 96 -1 506 -1 6419 -1 155 -1 255 -1 7684 -1 49 -1 50 -1 2224 -1 50 -1 91 -1 50 -1 154 -1 19 -2
169 -1 644 -1 1862 -1 5763 -1 5762 -1 19 -2
172 -1 19 -1 605 -1 563 -1 368 -1 288 -1 266 -1 1 -2
91 -1 1018 -1 605 -1 1857 -1 50 -1 48 -1 255 -1 240 -1 48 -1 19 -2
545 -1 7505 -1 289 -1 840 -1 3693 -1 50 -1 19 -2
471 -1 461 -1 853 -1 19 -2
91 -1 197 -1 695 -1 255 -1 471 -1 471 -1 50 -1 2915 -1 934 -1 720 -1 48 -1 466 -1 19 -2
19 -2
3642 -1 2882 -1 21166 -1 28065 -1 2970 -1 197 -1 48 -1 8343 -1 14563 -1 2024 -1 5044 -1 15312 -1 62 -1 523 -1 21108 -1 4029 -1 172 -1 12124 -1 19 -2
255 -1 9770 -1 1637 -1 19 -2
5910 -1 3188 -1 328 -1 1018 -1 53 -1 595 -1 3445 -1 853 -1 4758 -1 19 -2
262 -1 746 -1 50 -1 2306 -1 50 -1 595 -1 216 -1 19 -2
461 -1 390 -1 196 -2
10531 -1 5262 -1 546 -1 4593 -1 19 -2
2882 -1 50347 -1 3257 -1 467 -1 2621 -1 197 -1 240 -1 23125 -1 692 -1 172 -1 173 -1 19 -2
679 -1 19 -2
50 -1 1538 -1 255 -1 1538 -1 766 -1 34649 -1 1039 -1 451 -1 50 -1 773 -1 331 -1 1538 -1 278 -1 1456 -1 19 -2
48 -1 347 -1 74 -1 1113 -1 262 -1 1901 -1 50 -1 117 -1 3231 -1 748 -1 278 -1 49641 -1 19 -2
1113 -1 3419 -1 19 -2
408 -1 50 -1 672 -1 50 -1 197 -1 1874 -1 5096 -1 700 -1 155 -1 1540 -1 3001 -1 19 -2
197 -1 1018 -1 155 -1 8003 -1 853 -1 255 -1 19 -2
1061 -1 144 -1 7579 -1 50 -1 3138 -1 2022 -1 19 -2
48 -1 53 -1 1018 -1 9696 -1 50 -1 71545 -1 19 -2
155 -1 519 -1 130253 -1 36336 -1 31551 -1 1512 -1 52380 -1 19 -2
1986 -1 526 -1 773 -1 7763 -1 2176 -1 153 -1 50 -1 153 -1 49883 -1 19 -2
508 -1 255 -1 278 -1 23442 -1 395 -1 1005 -1 118 -1 555 -1 19 -2
819 -1 10405 -1 19 -2
412 -1 3625 -1 5910 -1 1519 -1 19 -2
537 -1 118 -1 545 -1 408 -1 29 -1 1687 -1 19 -2
48 -1 3825 -1 29 -1 3340 -1 306 -1 2882 -1 29 -1 50 -1 197 -1 633 -1 1865 -1 2869 -1 19 -2
508 -1 255 -1 19 -2
15633 -1 412 -1 1538 -1 255 -1 316 -1 1321 -1 1036 -1 19 -2
1111 -1 685 -1 2745 -1 3824 -1 968 -1 19 -2
656 -1 196 -2
1495 -1 196 -2
471 -1 28472 -1 19 -2
3687 -1 154 -1 21066 -1 16412 -1 507 -1 288 -1 74 -1 288 -1 11069 -1 1466 -1 115745 -1 278 -1 46368 -1 19 -2
1024 -1 7338 -1 299 -1 290 -1 1962 -1 49 -1 1537 -1 773 -1 408 -1 2802 -1 110 -1 19 -2
2523 -1 3644 -1 202 -1 1576 -1 19 -2
498 -1 3687 -1 196 -2
95 -1 285 -1 485 -1 37907 -1 299 -1 50 -1 471 -1 130254 -1 1034 -1 197 -1 64579 -1 408 -1 135 -1 19 -2
91 -1 240 -1 197 -1 19 -2
197 -1 95 -1 134 -1 33 -1 8889 -1 475 -1 1934 -1 25368 -1 2241 -1 874 -1 1246 -1 19 -2
3679 -1 8889 -1 1201 -1 23493 -1 17076 -1 10740 -1 19 -2
197 -1 155 -1 735 -1 114 -1 4244 -1 18164 -1 214 -1 1501 -1 278 -1 412 -1 775 -1 155 -1 595 -1 412 -1 775 -1 114 -1 109 -1 19 -2
197 -1 5344 -1 14239 -1 331 -1 186 -1 4097 -1 1513 -1 4190 -1 118 -1 2024 -1 2164 -1 19 -2
240 -1 5391 -1 2014 -1 19 -2
262 -1 1472 -1 453 -1 118 -1 523 -1 49 -1 7402 -1 595 -1 19 -2
48 -1 3556 -1 2004 -1 1018 -1 291 -1 306 -1 19 -2
19 -2
155 -1 1538 -1 255 -1 19 -2
22329 -1 19 -2
197 -1 48 -1 400 -1 255 -1 644 -1 934 -1 19 -2
262 -1 506 -1 14872 -1 83868 -1 809 -1 71747 -1 7067 -1 504 -1 543 -1 19 -2
278 -1 3141 -1 16756 -1 786 -1 50 -1 3361 -1 7012 -1 3501 -1 50 -1 644 -1 19 -2
96 -1 11518 -1 1 -2
3375 -1 19 -2
2212 -1 1749 -1 196 -2
1176 -1 1387 -1 2774 -1 1629 -1 2878 -1 306 -1 50 -1 144 -1 9287 -1 1711 -1 718 -1 9613 -1 105 -1 1151 -1 1018 -1 3007 -1 19 -2
118 -1 7924 -1 15954 -1 50 -1 153 -1 130255 -1 11735 -1 50 -1 46210 -1 738 -1 50 -1 2895 -1 1993 -1 27704 -1 652 -1 3240 -1 311 -1 3940 -1 19 -2
118 -1 19 -2
3126 -1 117 -1 485 -1 130256 -1 47660 -1 135 -1 50 -1 42735 -1 49 -1 2499 -1 50 -1 130257 -1 130258 -1 50 -1 5974 -1 43065 -1 55572 -1 423 -1 1548 -1 6339 -1 130259 -1 19 -2
48 -1 3945 -1 118 -1 3008 -1 19 -2
91 -1 197 -1 156 -1 3731 -1 114 -1 2689 -1 74 -1 255 -1 19 -2
3824 -1 2583 -1 1581 -1 2691 -1 361 -1 1581 -1 3682 -1 19 -2
240 -1 853 -1 507 -1 19 -2
1012 -1 117 -1 509 -1 197 -1 33 -1 156 -1 327 -1 1248 -1 678 -1 2758 -1 11941 -1 19 -2
721 -1 1024 -1 734 -1 49 -1 286 -1 498 -1 1047 -1 1846 -1 692 -1 255 -1 130261 -1 130263 -1 14644 -1 47816 -1 130260 -1 130264 -1 130262 -1 10235 -1 5253 -1 5626 -1 19 -2
96 -1 19 -2
155 -1 2775 -1 1 -2
4793 -1 1108 -1 19 -2
894 -1 19 -2
278 -1 266 -1 2831 -1 48 -1 125 -1 1907 -1 19 -2
1094 -1 11092 -1 56639 -1 620 -1 263 -1 11287 -1 3071 -1 1040 -1 1805 -1 1 -2
48 -1 255 -1 602 -1 1043 -1 45730 -1 19 -2
679 -1 50 -1 48 -1 96 -1 19 -2
656 -1 196 -2
2957 -1 1259 -1 2858 -1 11675 -1 2526 -1 8630 -1 19 -2
5479 -1 19 -2
1538 -1 255 -1 1917 -1 50 -1 582 -1 50 -1 262 -1 507 -1 993 -1 618 -1 19 -2
3126 -1 263 -1 50 -1 262 -1 45857 -1 201 -1 2473 -1 50 -1 775 -1 50 -1 2387 -1 19 -2
323 -1 201 -1 953 -1 1645 -1 1373 -1 1229 -1 197 -1 121 -1 7011 -1 405 -1 50 -1 7370 -1 467 -1 4 -1 255 -1 248 -1 19 -2
692 -1 19 -2
3345 -1 121 -1 1447 -1 2155 -1 50 -1 3744 -1 50 -1 200 -1 19 -2
859 -1 747 -1 27707 -1 8438 -1 311 -1 2616 -1 299 -1 1111 -1 19 -2
197 -1 19 -2
48 -1 898 -1 960 -1 22297 -1 1538 -1 19 -2
5 -1 18 -1 17 -1 130265 -1 1018 -1 10101 -1 9736 -1 287 -1 507 -1 19 -2
297 -1 9459 -1 5099 -1 5048 -1 19 -2
362 -1 2279 -1 1753 -1 453 -1 822 -1 99 -1 5048 -1 2279 -1 2723 -1 20344 -1 19 -2
117 -1 9236 -1 19 -2
3816 -1 1166 -1 1599 -1 107 -1 413 -1 9801 -1 4049 -1 50 -1 1005 -1 118 -1 49 -1 50 -1 968 -1 968 -1 19 -2
19 -2
262 -1 507 -1 5121 -1 925 -1 50 -1 121 -1 2495 -1 361 -1 967 -1 523 -1 2745 -1 50 -1 523 -1 522 -1 50 -1 1970 -1 19 -2
95 -1 412 -1 255 -1 3589 -1 19 -2
125 -1 118 -1 50 -1 700 -1 155 -1 700 -1 366 -1 1723 -1 2996 -1 5096 -1 19 -2
197 -1 1392 -1 19 -2
976 -1 50 -1 967 -1 617 -1 50 -1 54134 -1 6381 -1 773 -1 408 -1 605 -1 19 -2
148 -1 1645 -1 13714 -1 2624 -1 50 -1 2624 -1 186 -1 7723 -1 4179 -1 19 -2
507 -1 785 -1 1537 -1 153 -1 3481 -1 407 -1 255 -1 7242 -1 692 -1 50 -1 121 -1 154 -1 118 -1 785 -1 122 -1 7978 -1 19 -2
2284 -1 802 -1 2127 -1 7063 -1 27 -1 117 -1 1315 -1 19 -2
91 -1 595 -1 16007 -1 19 -2
17463 -1 49 -1 412 -1 1538 -1 12190 -1 1439 -1 9 -1 19 -2
22766 -1 19 -2
3095 -1 378 -1 1851 -1 19389 -1 30677 -1 19 -2
471 -1 19 -2
44 -1 240 -1 9309 -1 19 -2
5948 -1 19 -2
538 -1 18475 -1 692 -1 19 -2
255 -1 390 -1 19 -2
1983 -1 549 -1 1272 -1 638 -1 1 -2
197 -1 1373 -1 155 -1 4278 -1 15361 -1 19 -2
45 -1 3075 -1 1538 -1 652 -1 917 -1 5199 -1 690 -1 6104 -1 6109 -1 1018 -1 1610 -1 6821 -1 638 -1 2127 -1 19 -2
3230 -1 50 -1 16065 -1 792 -1 10131 -1 10367 -1 9439 -1 50 -1 95 -1 12103 -1 404 -1 6954 -1 19 -2
14888 -1 19 -2