,pattern,sup,author
64,"(0, 0, 0)",2,1997_752353
65,"(52, 42, 102)",2,1997_752353
66,"(84, 1359, 1599)",2,1997_752353
67,"(84, 1359, 1601)",2,1997_752353
68,"(84, 1599, 1601)",2,1997_752353
69,"(217, 84, 1359)",2,1997_752353
70,"(217, 84, 1599)",2,1997_752353
71,"(217, 84, 1601)",2,1997_752353
72,"(217, 1359, 1599)",2,1997_752353
73,"(217, 1359, 1601)",2,1997_752353
74,"(217, 1599, 1601)",2,1997_752353
75,"(1359, 1599, 1601)",2,1997_752353
76,"(84, 1359, 1599, 1601)",2,1997_752353
77,"(217, 84, 1359, 1599)",2,1997_752353
78,"(217, 84, 1359, 1601)",2,1997_752353
79,"(217, 84, 1599, 1601)",2,1997_752353
80,"(217, 1359, 1599, 1601)",2,1997_752353
81,"(217, 84, 1359, 1599, 1601)",2,1997_752353
