,pattern,sup,author
161,"(0, 0, 85)",2,1999_574545
162,"(0, 66, 5)",3,1999_574545
163,"(0, 372, 0)",2,1999_574545
164,"(5, 0, 0)",2,1999_574545
165,"(5, 0, 5)",2,1999_574545
166,"(5, 0, 23)",2,1999_574545
167,"(5, 0, 204)",2,1999_574545
168,"(5, 0, 385)",2,1999_574545
169,"(5, 66, 5)",2,1999_574545
170,"(5, 66, 73)",2,1999_574545
171,"(5, 308, 5)",2,1999_574545
172,"(10, 0, 204)",2,1999_574545
173,"(10, 5, 0)",2,1999_574545
174,"(23, 381, 383)",2,1999_574545
175,"(32, 150, 5)",2,1999_574545
176,"(44, 5, 5)",2,1999_574545
177,"(44, 5, 308)",2,1999_574545
178,"(66, 5, 0)",2,1999_574545
179,"(159, 0, 0)",2,1999_574545
180,"(176, 5, 0)",2,1999_574545
181,"(176, 39, 10)",2,1999_574545
182,"(176, 2249, 1229)",2,1999_574545
183,"(308, 1259, 308)",2,1999_574545
184,"(1116, 5, 0)",3,1999_574545
185,"(1116, 5, 5)",2,1999_574545
186,"(1116, 5, 66)",2,1999_574545
187,"(1116, 66, 5)",2,1999_574545
188,"(7930, 102, 230)",2,1999_574545
189,"(1116, 5, 66, 5)",2,1999_574545
