,pattern,sup,author
107,"(0, 0, 10)",2,2002_368760
108,"(0, 0, 42)",2,2002_368760
109,"(0, 52, 42)",5,2002_368760
110,"(0, 126, 0)",2,2002_368760
111,"(0, 147, 0)",2,2002_368760
112,"(0, 1260, 834)",2,2002_368760
113,"(10, 0, 52)",2,2002_368760
114,"(70, 0, 52)",2,2002_368760
115,"(85, 0, 0)",2,2002_368760
116,"(85, 147, 0)",2,2002_368760
117,"(85, 147, 991)",2,2002_368760
118,"(85, 264, 0)",2,2002_368760
119,"(85, 991, 0)",2,2002_368760
120,"(102, 0, 834)",2,2002_368760
121,"(102, 0, 1260)",2,2002_368760
122,"(102, 1260, 834)",2,2002_368760
123,"(147, 0, 0)",2,2002_368760
124,"(147, 0, 147)",2,2002_368760
125,"(147, 70, 0)",2,2002_368760
126,"(147, 991, 0)",2,2002_368760
127,"(592, 0, 834)",2,2002_368760
128,"(991, 0, 0)",2,2002_368760
129,"(1283, 0, 0)",2,2002_368760
130,"(1283, 0, 147)",2,2002_368760
131,"(1283, 147, 0)",2,2002_368760
132,"(1283, 180, 0)",2,2002_368760
133,"(85, 147, 991, 0)",2,2002_368760
134,"(102, 0, 1260, 834)",2,2002_368760
135,"(1283, 0, 147, 0)",2,2002_368760
