,pattern,sup,author
136,"(117, 126, 180)",2,2003_254
137,"(126, 117, 126)",2,2003_254
138,"(126, 117, 180)",2,2003_254
139,"(126, 126, 126)",2,2003_254
140,"(126, 126, 180)",2,2003_254
141,"(126, 135, 126)",2,2003_254
142,"(126, 991, 199)",2,2003_254
143,"(126, 1687, 135)",2,2003_254
144,"(589, 180, 117)",2,2003_254
145,"(126, 117, 126, 180)",2,2003_254
