0 -1 #SUP: 22
10 -1 #SUP: 13
13 -1 #SUP: 5
23 -1 #SUP: 2
35 -1 #SUP: 4
42 -1 #SUP: 6
50 -1 #SUP: 3
52 -1 #SUP: 7
64 -1 #SUP: 4
66 -1 #SUP: 7
70 -1 #SUP: 2
78 -1 #SUP: 2
82 -1 #SUP: 2
83 -1 #SUP: 2
85 -1 #SUP: 6
88 -1 #SUP: 2
102 -1 #SUP: 2
105 -1 #SUP: 7
117 -1 #SUP: 2
126 -1 #SUP: 9
127 -1 #SUP: 2
133 -1 #SUP: 3
143 -1 #SUP: 2
147 -1 #SUP: 3
179 -1 #SUP: 2
199 -1 #SUP: 2
204 -1 #SUP: 2
212 -1 #SUP: 2
231 -1 #SUP: 2
297 -1 #SUP: 2
308 -1 #SUP: 2
397 -1 #SUP: 2
475 -1 #SUP: 2
501 -1 #SUP: 4
524 -1 #SUP: 2
559 -1 #SUP: 3
585 -1 #SUP: 2
592 -1 #SUP: 3
633 -1 #SUP: 2
689 -1 #SUP: 2
712 -1 #SUP: 2
912 -1 #SUP: 4
1045 -1 #SUP: 2
1350 -1 #SUP: 2
1598 -1 #SUP: 2
1621 -1 #SUP: 2
1740 -1 #SUP: 3
2028 -1 #SUP: 2
2581 -1 #SUP: 2
4049 -1 #SUP: 2
9835 -1 #SUP: 6
17418 -1 #SUP: 2
17420 -1 #SUP: 3
0 -1 0 -1 #SUP: 5
0 -1 23 -1 #SUP: 2
0 -1 42 -1 #SUP: 2
0 -1 52 -1 #SUP: 2
0 -1 212 -1 #SUP: 2
0 -1 231 -1 #SUP: 2
0 -1 912 -1 #SUP: 2
0 -1 2028 -1 #SUP: 2
10 -1 0 -1 #SUP: 5
10 -1 35 -1 #SUP: 2
10 -1 126 -1 #SUP: 2
10 -1 133 -1 #SUP: 3
10 -1 1350 -1 #SUP: 2
13 -1 0 -1 #SUP: 2
13 -1 592 -1 #SUP: 2
42 -1 0 -1 #SUP: 3
52 -1 10 -1 #SUP: 2
52 -1 42 -1 #SUP: 2
52 -1 52 -1 #SUP: 2
52 -1 64 -1 #SUP: 2
52 -1 85 -1 #SUP: 3
52 -1 689 -1 #SUP: 2
52 -1 17420 -1 #SUP: 2
64 -1 17420 -1 #SUP: 3
66 -1 105 -1 #SUP: 2
66 -1 559 -1 #SUP: 2
66 -1 9835 -1 #SUP: 2
70 -1 0 -1 #SUP: 2
85 -1 10 -1 #SUP: 2
85 -1 64 -1 #SUP: 3
85 -1 689 -1 #SUP: 2
85 -1 17420 -1 #SUP: 3
126 -1 0 -1 #SUP: 2
143 -1 0 -1 #SUP: 2
143 -1 13 -1 #SUP: 2
559 -1 9835 -1 #SUP: 2
689 -1 64 -1 #SUP: 2
689 -1 17420 -1 #SUP: 2
1621 -1 308 -1 #SUP: 2
9835 -1 105 -1 #SUP: 3
9835 -1 4049 -1 #SUP: 2
17418 -1 308 -1 #SUP: 2
17418 -1 1621 -1 #SUP: 2
0 -1 0 -1 0 -1 #SUP: 3
52 -1 64 -1 17420 -1 #SUP: 2
52 -1 85 -1 10 -1 #SUP: 2
52 -1 85 -1 64 -1 #SUP: 2
52 -1 85 -1 689 -1 #SUP: 2
52 -1 85 -1 17420 -1 #SUP: 2
52 -1 689 -1 64 -1 #SUP: 2
52 -1 689 -1 17420 -1 #SUP: 2
66 -1 559 -1 9835 -1 #SUP: 2
70 -1 0 -1 0 -1 #SUP: 2
85 -1 64 -1 17420 -1 #SUP: 3
85 -1 689 -1 64 -1 #SUP: 2
85 -1 689 -1 17420 -1 #SUP: 2
143 -1 13 -1 0 -1 #SUP: 2
689 -1 64 -1 17420 -1 #SUP: 2
17418 -1 1621 -1 308 -1 #SUP: 2
52 -1 85 -1 64 -1 17420 -1 #SUP: 2
52 -1 85 -1 689 -1 64 -1 #SUP: 2
52 -1 85 -1 689 -1 17420 -1 #SUP: 2
52 -1 689 -1 64 -1 17420 -1 #SUP: 2
85 -1 689 -1 64 -1 17420 -1 #SUP: 2
52 -1 85 -1 689 -1 64 -1 17420 -1 #SUP: 2
