226 -1 380 -1 64 -1 33 -1 759 -1 635 -1 380 -1 78 -1 1 -2
501 -1 380 -1 78 -1 0 -1 1216 -1 816 -1 3333 -1 126 -1 1 -2
1073 -1 260 -2
3194 -1 1614 -1 6338 -1 861 -1 196 -1 380 -1 3837 -1 196 -1 1 -2
64 -1 5 -1 291 -1 0 -1 501 -1 119 -1 2251 -1 2251 -1 1645 -1 1 -2
33 -1 93 -1 0 -1 297 -1 1 -2
102 -1 10 -1 64 -1 1 -2
277 -1 249 -1 357 -1 581 -1 16180 -1 102 -1 1184 -1 581 -1 278 -1 339 -1 1985 -1 955 -1 5285 -1 266 -1 0 -1 43 -1 2044 -1 1352 -1 955 -1 1 -2
647 -1 81 -1 846 -1 2044 -1 2759 -1 78 -1 52 -1 462 -1 1353 -1 955 -1 891 -1 1072 -1 1 -2
535 -1 2549 -1 64 -1 297 -1 7118 -1 205 -1 102 -1 1555 -1 5 -1 161 -1 526 -1 161 -1 7530 -1 10 -1 66 -1 322 -1 164 -1 7930 -1 297 -1 126 -1 42 -1 145 -1 2340 -1 10 -1 1216 -1 14 -1 281 -1 94 -1 828 -1 7015 -1 29 -1 4 -1 2154 -1 1 -2
501 -1 388 -1 1 -2
159 -1 271 -1 119 -1 778 -1 237 -1 180 -1 64 -1 260 -2
749 -1 1298 -1 105 -1 5127 -1 8767 -1 78 -1 1 -2
1598 -1 70 -1 0 -1 78 -1 5394 -1 260 -2
82 -1 1677 -1 23678 -1 7246 -1 196 -1 1143 -1 0 -1 42 -1 105 -1 143 -1 567 -1 1285 -1 1 -2
102 -1 69 -1 80 -1 4105 -1 0 -1 42 -1 39 -1 277 -1 260 -2
245 -1 119 -1 94 -1 0 -1 1453 -1 0 -1 372 -1 245 -1 70 -1 6096 -1 94 -1 80 -1 23678 -1 7246 -1 196 -1 13 -1 34 -1 1000 -1 6096 -1 105 -1 237 -1 89 -1 5244 -1 6632 -1 838 -1 183 -1 89 -1 5244 -1 6632 -1 0 -1 102 -1 168 -1 6851 -1 12696 -1 1143 -1 5244 -1 48 -1 0 -1 179 -1 10 -1 126 -1 23679 -1 10 -1 254 -1 1 -2
126 -1 1740 -1 202 -1 260 -2
30 -1 1143 -1 89 -1 5244 -1 6632 -1 397 -1 260 -2
850 -1 785 -1 3330 -1 17760 -1 540 -1 5244 -1 0 -1 126 -1 5382 -1 1 -2
66 -1 102 -1 846 -1 16276 -1 10 -1 78 -1 0 -1 1660 -1 3343 -1 22776 -1 1703 -1 99 -1 85 -1 751 -1 1444 -1 79 -1 0 -1 126 -1 217 -1 47 -1 1163 -1 269 -1 57 -1 1163 -1 106 -1 751 -1 4066 -1 6408 -1 7681 -1 1 -2
102 -1 10 -1 768 -1 6944 -1 48 -1 2604 -1 372 -1 2018 -1 11 -1 711 -1 407 -1 751 -1 0 -1 126 -1 751 -1 13513 -1 0 -1 647 -1 81 -1 7048 -1 23680 -1 2960 -1 179 -1 4979 -1 2951 -1 1 -2
10 -1 133 -1 126 -1 4105 -1 1 -2
42 -1 513 -1 209 -1 73 -1 825 -1 1896 -1 260 -2
7530 -1 10 -1 126 -1 0 -1 83 -1 585 -1 1552 -1 117 -1 1 -2
159 -1 1 -2
102 -1 1 -2
52 -1 42 -1 1 -2
179 -1 1 -2
1554 -1 955 -1 30 -1 1352 -1 223 -1 955 -1 1556 -1 1 -2
2450 -1 33 -1 102 -1 541 -1 199 -1 212 -1 1 -2
52 -1 126 -1 117 -1 1985 -1 955 -1 528 -1 18823 -1 955 -1 84 -1 1 -2
297 -1 126 -1 66 -1 105 -1 922 -1 0 -1 2753 -1 955 -1 0 -1 360 -1 176 -1 955 -1 997 -1 955 -1 117 -1 1985 -1 955 -1 1 -2
450 -1 1283 -1 955 -1 238 -1 111 -1 237 -1 1298 -1 5 -1 124 -2
176 -1 955 -1 278 -1 1 -2
501 -1 72 -1 180 -1 253 -1 120 -1 1 -2
2334 -1 1000 -1 297 -1 126 -1 1615 -1 1 -2
40 -1 147 -1 1283 -1 70 -1 1 -2
102 -1 66 -1 1850 -1 3401 -1 1 -2
1732 -1 126 -1 66 -1 180 -1 70 -1 52 -1 42 -1 179 -1 26 -1 1283 -1 180 -1 1 -2
931 -1 19107 -1 102 -1 297 -1 1072 -1 84 -1 1 -2
297 -1 99 -1 1223 -1 70 -1 83 -1 1 -2
146 -1 66 -1 105 -1 180 -1 2210 -1 167 -1 10 -1 80 -1 5 -1 124 -2
204 -1 1317 -1 231 -1 1 -2
102 -1 2186 -1 30 -1 540 -1 13617 -1 1 -2
3451 -1 1 -2
176 -1 40 -1 2186 -1 7015 -1 102 -1 1352 -1 587 -1 6601 -1 2186 -1 1 -2
102 -1 1190 -1 239 -1 63 -1 235 -1 124 -2
179 -1 52 -1 42 -1 9722 -1 1136 -1 1531 -1 260 -2
22009 -1 954 -1 1 -2
102 -1 66 -1 532 -1 63 -1 225 -1 260 -2
2641 -1 846 -1 15348 -1 13 -1 64 -1 2935 -1 2186 -1 2055 -1 1550 -1 63 -1 1 -2
204 -1 10 -1 210 -1 159 -1 204 -1 102 -1 209 -1 73 -1 1211 -1 1 -2
203 -1 1281 -1 1 -2
10 -1 540 -1 126 -1 66 -1 126 -1 4439 -1 4438 -1 124 -2
52 -1 42 -1 10 -1 26 -1 13 -1 197 -1 70 -1 427 -1 126 -1 82 -1 713 -1 26 -1 1 -2
176 -1 10 -1 372 -1 124 -2
126 -1 20 -1 117 -1 180 -1 900 -1 55 -1 106 -1 85 -1 199 -1 2117 -1 137 -1 1 -2
117 -1 260 -2