0 -1 #SUP: 6
1 -1 #SUP: 2
4 -1 #SUP: 2
10 -1 #SUP: 4
13 -1 #SUP: 2
19 -1 #SUP: 3
30 -1 #SUP: 3
33 -1 #SUP: 3
35 -1 #SUP: 4
37 -1 #SUP: 4
40 -1 #SUP: 4
42 -1 #SUP: 12
45 -1 #SUP: 2
52 -1 #SUP: 7
62 -1 #SUP: 2
65 -1 #SUP: 2
69 -1 #SUP: 2
70 -1 #SUP: 11
78 -1 #SUP: 2
81 -1 #SUP: 11
85 -1 #SUP: 8
90 -1 #SUP: 3
97 -1 #SUP: 2
99 -1 #SUP: 2
102 -1 #SUP: 18
105 -1 #SUP: 5
110 -1 #SUP: 2
115 -1 #SUP: 2
117 -1 #SUP: 9
126 -1 #SUP: 5
130 -1 #SUP: 2
132 -1 #SUP: 2
143 -1 #SUP: 2
147 -1 #SUP: 3
157 -1 #SUP: 4
167 -1 #SUP: 5
168 -1 #SUP: 2
179 -1 #SUP: 4
183 -1 #SUP: 4
199 -1 #SUP: 3
203 -1 #SUP: 3
204 -1 #SUP: 7
230 -1 #SUP: 2
307 -1 #SUP: 3
322 -1 #SUP: 2
372 -1 #SUP: 2
381 -1 #SUP: 2
384 -1 #SUP: 2
397 -1 #SUP: 2
496 -1 #SUP: 2
501 -1 #SUP: 3
515 -1 #SUP: 2
526 -1 #SUP: 2
529 -1 #SUP: 2
534 -1 #SUP: 2
535 -1 #SUP: 2
540 -1 #SUP: 2
542 -1 #SUP: 2
592 -1 #SUP: 2
596 -1 #SUP: 2
604 -1 #SUP: 2
673 -1 #SUP: 3
749 -1 #SUP: 2
820 -1 #SUP: 2
1032 -1 #SUP: 2
1066 -1 #SUP: 2
1177 -1 #SUP: 2
1283 -1 #SUP: 2
1298 -1 #SUP: 2
1598 -1 #SUP: 2
1715 -1 #SUP: 2
2330 -1 #SUP: 2
3838 -1 #SUP: 2
0 -1 0 -1 #SUP: 2
10 -1 0 -1 #SUP: 2
42 -1 33 -1 #SUP: 2
42 -1 117 -1 #SUP: 3
42 -1 157 -1 #SUP: 2
42 -1 2330 -1 #SUP: 2
52 -1 42 -1 #SUP: 2
52 -1 102 -1 #SUP: 4
70 -1 102 -1 #SUP: 3
81 -1 167 -1 #SUP: 2
81 -1 307 -1 #SUP: 2
85 -1 592 -1 #SUP: 2
147 -1 70 -1 #SUP: 3
167 -1 307 -1 #SUP: 2
183 -1 70 -1 #SUP: 2
183 -1 102 -1 #SUP: 2
204 -1 85 -1 #SUP: 2
515 -1 1177 -1 #SUP: 2
596 -1 1 -1 #SUP: 2
1283 -1 70 -1 #SUP: 2
1598 -1 1298 -1 #SUP: 2
81 -1 167 -1 307 -1 #SUP: 2
183 -1 70 -1 102 -1 #SUP: 2
