1 -1 #SUP: 9
2 -1 #SUP: 18
5 -1 #SUP: 44
6 -1 #SUP: 13
10 -1 #SUP: 2
11 -1 #SUP: 2
17 -1 #SUP: 3
18 -1 #SUP: 3
21 -1 #SUP: 7
22 -1 #SUP: 14
28 -1 #SUP: 20
32 -1 #SUP: 10
33 -1 #SUP: 3
38 -1 #SUP: 6
39 -1 #SUP: 10
40 -1 #SUP: 16
42 -1 #SUP: 2
47 -1 #SUP: 20
49 -1 #SUP: 6
64 -1 #SUP: 6
66 -1 #SUP: 7
71 -1 #SUP: 2
72 -1 #SUP: 2
78 -1 #SUP: 7
81 -1 #SUP: 6
89 -1 #SUP: 3
92 -1 #SUP: 15
94 -1 #SUP: 4
102 -1 #SUP: 3
105 -1 #SUP: 3
106 -1 #SUP: 4
113 -1 #SUP: 3
119 -1 #SUP: 2
122 -1 #SUP: 9
124 -1 #SUP: 5
125 -1 #SUP: 11
128 -1 #SUP: 5
133 -1 #SUP: 2
142 -1 #SUP: 3
143 -1 #SUP: 2
157 -1 #SUP: 2
163 -1 #SUP: 2
171 -1 #SUP: 9
174 -1 #SUP: 4
175 -1 #SUP: 3
176 -1 #SUP: 2
177 -1 #SUP: 2
184 -1 #SUP: 2
187 -1 #SUP: 3
190 -1 #SUP: 5
200 -1 #SUP: 2
202 -1 #SUP: 2
203 -1 #SUP: 3
210 -1 #SUP: 4
214 -1 #SUP: 7
215 -1 #SUP: 3
224 -1 #SUP: 4
226 -1 #SUP: 6
234 -1 #SUP: 3
239 -1 #SUP: 2
265 -1 #SUP: 6
266 -1 #SUP: 2
270 -1 #SUP: 7
299 -1 #SUP: 5
308 -1 #SUP: 2
312 -1 #SUP: 2
325 -1 #SUP: 7
335 -1 #SUP: 2
344 -1 #SUP: 5
373 -1 #SUP: 2
374 -1 #SUP: 2
383 -1 #SUP: 2
392 -1 #SUP: 5
419 -1 #SUP: 2
445 -1 #SUP: 6
482 -1 #SUP: 6
493 -1 #SUP: 3
529 -1 #SUP: 2
538 -1 #SUP: 7
553 -1 #SUP: 4
569 -1 #SUP: 3
574 -1 #SUP: 2
597 -1 #SUP: 4
623 -1 #SUP: 4
659 -1 #SUP: 2
661 -1 #SUP: 2
728 -1 #SUP: 2
789 -1 #SUP: 4
800 -1 #SUP: 2
891 -1 #SUP: 2
897 -1 #SUP: 3
900 -1 #SUP: 2
966 -1 #SUP: 2
1050 -1 #SUP: 3
1081 -1 #SUP: 4
1109 -1 #SUP: 2
1581 -1 #SUP: 2
1596 -1 #SUP: 2
1630 -1 #SUP: 2
1743 -1 #SUP: 2
1762 -1 #SUP: 5
1764 -1 #SUP: 2
1810 -1 #SUP: 2
1987 -1 #SUP: 2
2023 -1 #SUP: 3
2079 -1 #SUP: 2
2428 -1 #SUP: 3
2826 -1 #SUP: 2
3024 -1 #SUP: 2
3589 -1 #SUP: 2
3863 -1 #SUP: 2
3966 -1 #SUP: 2
3973 -1 #SUP: 3
4355 -1 #SUP: 2
4504 -1 #SUP: 3
4508 -1 #SUP: 2
4514 -1 #SUP: 2
4704 -1 #SUP: 2
4952 -1 #SUP: 3
5715 -1 #SUP: 2
5884 -1 #SUP: 2
6178 -1 #SUP: 2
6191 -1 #SUP: 6
6573 -1 #SUP: 2
6948 -1 #SUP: 2
7568 -1 #SUP: 2
8023 -1 #SUP: 2
8102 -1 #SUP: 2
11141 -1 #SUP: 2
11161 -1 #SUP: 2
12472 -1 #SUP: 2
17661 -1 #SUP: 2
1 -1 2 -1 #SUP: 2
1 -1 28 -1 #SUP: 2
1 -1 39 -1 #SUP: 2
1 -1 210 -1 #SUP: 2
1 -1 1810 -1 #SUP: 2
1 -1 6191 -1 #SUP: 2
2 -1 5 -1 #SUP: 2
2 -1 21 -1 #SUP: 4
2 -1 28 -1 #SUP: 4
2 -1 47 -1 #SUP: 3
2 -1 64 -1 #SUP: 6
2 -1 78 -1 #SUP: 3
2 -1 94 -1 #SUP: 2
2 -1 122 -1 #SUP: 2
2 -1 171 -1 #SUP: 2
2 -1 200 -1 #SUP: 2
2 -1 210 -1 #SUP: 2
5 -1 1 -1 #SUP: 3
5 -1 2 -1 #SUP: 8
5 -1 5 -1 #SUP: 5
5 -1 6 -1 #SUP: 5
5 -1 17 -1 #SUP: 2
5 -1 18 -1 #SUP: 2
5 -1 21 -1 #SUP: 3
5 -1 22 -1 #SUP: 5
5 -1 28 -1 #SUP: 6
5 -1 32 -1 #SUP: 4
5 -1 39 -1 #SUP: 2
5 -1 40 -1 #SUP: 4
5 -1 47 -1 #SUP: 8
5 -1 49 -1 #SUP: 2
5 -1 64 -1 #SUP: 5
5 -1 78 -1 #SUP: 2
5 -1 81 -1 #SUP: 4
5 -1 92 -1 #SUP: 4
5 -1 102 -1 #SUP: 3
5 -1 106 -1 #SUP: 2
5 -1 122 -1 #SUP: 3
5 -1 124 -1 #SUP: 3
5 -1 125 -1 #SUP: 2
5 -1 157 -1 #SUP: 2
5 -1 171 -1 #SUP: 4
5 -1 174 -1 #SUP: 3
5 -1 187 -1 #SUP: 2
5 -1 190 -1 #SUP: 2
5 -1 202 -1 #SUP: 2
5 -1 214 -1 #SUP: 5
5 -1 226 -1 #SUP: 3
5 -1 265 -1 #SUP: 4
5 -1 270 -1 #SUP: 2
5 -1 299 -1 #SUP: 3
5 -1 325 -1 #SUP: 3
5 -1 392 -1 #SUP: 3
5 -1 482 -1 #SUP: 4
5 -1 493 -1 #SUP: 2
5 -1 529 -1 #SUP: 2
5 -1 538 -1 #SUP: 4
5 -1 659 -1 #SUP: 2
5 -1 1050 -1 #SUP: 2
5 -1 1762 -1 #SUP: 2
5 -1 3973 -1 #SUP: 2
5 -1 4508 -1 #SUP: 2
6 -1 22 -1 #SUP: 3
6 -1 28 -1 #SUP: 2
6 -1 39 -1 #SUP: 2
6 -1 66 -1 #SUP: 2
6 -1 174 -1 #SUP: 2
6 -1 226 -1 #SUP: 2
6 -1 270 -1 #SUP: 2
6 -1 538 -1 #SUP: 2
17 -1 28 -1 #SUP: 3
18 -1 28 -1 #SUP: 2
21 -1 47 -1 #SUP: 2
21 -1 270 -1 #SUP: 2
22 -1 47 -1 #SUP: 2
22 -1 234 -1 #SUP: 2
22 -1 270 -1 #SUP: 2
22 -1 597 -1 #SUP: 2
28 -1 1 -1 #SUP: 3
28 -1 22 -1 #SUP: 2
28 -1 28 -1 #SUP: 2
28 -1 38 -1 #SUP: 2
28 -1 47 -1 #SUP: 2
28 -1 122 -1 #SUP: 4
28 -1 171 -1 #SUP: 3
28 -1 270 -1 #SUP: 2
28 -1 482 -1 #SUP: 2
28 -1 569 -1 #SUP: 2
28 -1 891 -1 #SUP: 2
28 -1 2826 -1 #SUP: 2
32 -1 5 -1 #SUP: 3
32 -1 28 -1 #SUP: 2
32 -1 106 -1 #SUP: 2
32 -1 122 -1 #SUP: 2
32 -1 538 -1 #SUP: 2
33 -1 5 -1 #SUP: 2
38 -1 47 -1 #SUP: 2
38 -1 78 -1 #SUP: 2
38 -1 122 -1 #SUP: 2
39 -1 6 -1 #SUP: 2
39 -1 40 -1 #SUP: 2
39 -1 373 -1 #SUP: 2
39 -1 1810 -1 #SUP: 2
40 -1 6 -1 #SUP: 3
40 -1 28 -1 #SUP: 2
40 -1 47 -1 #SUP: 3
40 -1 125 -1 #SUP: 3
40 -1 373 -1 #SUP: 2
47 -1 21 -1 #SUP: 2
47 -1 32 -1 #SUP: 2
47 -1 47 -1 #SUP: 3
47 -1 122 -1 #SUP: 2
47 -1 124 -1 #SUP: 2
47 -1 270 -1 #SUP: 2
47 -1 392 -1 #SUP: 2
47 -1 538 -1 #SUP: 2
49 -1 2 -1 #SUP: 2
49 -1 22 -1 #SUP: 2
64 -1 21 -1 #SUP: 3
81 -1 2 -1 #SUP: 2
81 -1 5 -1 #SUP: 2
81 -1 6 -1 #SUP: 2
81 -1 40 -1 #SUP: 2
81 -1 124 -1 #SUP: 2
81 -1 226 -1 #SUP: 3
81 -1 270 -1 #SUP: 2
81 -1 538 -1 #SUP: 2
89 -1 6 -1 #SUP: 2
89 -1 187 -1 #SUP: 2
92 -1 5 -1 #SUP: 3
92 -1 128 -1 #SUP: 2
94 -1 122 -1 #SUP: 2
102 -1 106 -1 #SUP: 2
102 -1 265 -1 #SUP: 2
105 -1 38 -1 #SUP: 2
106 -1 5 -1 #SUP: 2
122 -1 28 -1 #SUP: 2
122 -1 47 -1 #SUP: 3
122 -1 1109 -1 #SUP: 2
124 -1 270 -1 #SUP: 2
124 -1 538 -1 #SUP: 3
125 -1 2 -1 #SUP: 2
125 -1 6 -1 #SUP: 4
125 -1 39 -1 #SUP: 2
125 -1 40 -1 #SUP: 2
125 -1 373 -1 #SUP: 2
133 -1 32 -1 #SUP: 2
142 -1 106 -1 #SUP: 2
143 -1 392 -1 #SUP: 2
171 -1 39 -1 #SUP: 3
171 -1 122 -1 #SUP: 2
171 -1 270 -1 #SUP: 2
174 -1 22 -1 #SUP: 4
187 -1 6 -1 #SUP: 2
190 -1 49 -1 #SUP: 2
190 -1 92 -1 #SUP: 2
203 -1 66 -1 #SUP: 2
210 -1 28 -1 #SUP: 2
214 -1 5 -1 #SUP: 2
214 -1 47 -1 #SUP: 4
215 -1 215 -1 #SUP: 2
224 -1 92 -1 #SUP: 2
226 -1 124 -1 #SUP: 2
265 -1 47 -1 #SUP: 2
265 -1 2428 -1 #SUP: 2
270 -1 122 -1 #SUP: 2
299 -1 2 -1 #SUP: 2
299 -1 40 -1 #SUP: 2
299 -1 47 -1 #SUP: 2
299 -1 81 -1 #SUP: 3
299 -1 308 -1 #SUP: 2
325 -1 32 -1 #SUP: 2
325 -1 47 -1 #SUP: 2
374 -1 5 -1 #SUP: 2
374 -1 482 -1 #SUP: 2
445 -1 40 -1 #SUP: 2
445 -1 92 -1 #SUP: 2
482 -1 2826 -1 #SUP: 2
493 -1 47 -1 #SUP: 3
493 -1 325 -1 #SUP: 2
538 -1 32 -1 #SUP: 2
553 -1 128 -1 #SUP: 2
891 -1 1 -1 #SUP: 2
897 -1 1762 -1 #SUP: 2
1050 -1 1 -1 #SUP: 3
1581 -1 1 -1 #SUP: 2
1581 -1 18 -1 #SUP: 2
1581 -1 28 -1 #SUP: 2
1764 -1 1762 -1 #SUP: 2
2023 -1 11161 -1 #SUP: 2
3863 -1 1 -1 #SUP: 2
4355 -1 8023 -1 #SUP: 2
6191 -1 2 -1 #SUP: 2
6191 -1 5 -1 #SUP: 2
6191 -1 21 -1 #SUP: 2
6191 -1 482 -1 #SUP: 2
6948 -1 5 -1 #SUP: 2
6948 -1 374 -1 #SUP: 2
6948 -1 482 -1 #SUP: 2
1 -1 2 -1 28 -1 #SUP: 2
1 -1 2 -1 210 -1 #SUP: 2
1 -1 39 -1 1810 -1 #SUP: 2
1 -1 210 -1 28 -1 #SUP: 2
2 -1 28 -1 171 -1 #SUP: 2
2 -1 64 -1 21 -1 #SUP: 3
2 -1 210 -1 28 -1 #SUP: 2
5 -1 2 -1 21 -1 #SUP: 3
5 -1 2 -1 47 -1 #SUP: 2
5 -1 2 -1 64 -1 #SUP: 5
5 -1 5 -1 22 -1 #SUP: 2
5 -1 5 -1 529 -1 #SUP: 2
5 -1 6 -1 22 -1 #SUP: 3
5 -1 6 -1 174 -1 #SUP: 2
5 -1 17 -1 28 -1 #SUP: 2
5 -1 28 -1 1 -1 #SUP: 2
5 -1 47 -1 124 -1 #SUP: 2
5 -1 47 -1 392 -1 #SUP: 2
5 -1 64 -1 21 -1 #SUP: 2
5 -1 81 -1 2 -1 #SUP: 2
5 -1 81 -1 124 -1 #SUP: 2
5 -1 102 -1 106 -1 #SUP: 2
5 -1 102 -1 265 -1 #SUP: 2
5 -1 124 -1 538 -1 #SUP: 2
5 -1 174 -1 22 -1 #SUP: 3
5 -1 214 -1 47 -1 #SUP: 4
5 -1 265 -1 47 -1 #SUP: 2
5 -1 299 -1 2 -1 #SUP: 2
5 -1 299 -1 40 -1 #SUP: 2
5 -1 299 -1 47 -1 #SUP: 2
5 -1 299 -1 81 -1 #SUP: 2
5 -1 493 -1 47 -1 #SUP: 2
5 -1 538 -1 32 -1 #SUP: 2
5 -1 1050 -1 1 -1 #SUP: 2
6 -1 174 -1 22 -1 #SUP: 2
28 -1 171 -1 122 -1 #SUP: 2
28 -1 171 -1 270 -1 #SUP: 2
28 -1 270 -1 122 -1 #SUP: 2
28 -1 482 -1 2826 -1 #SUP: 2
28 -1 891 -1 1 -1 #SUP: 2
38 -1 47 -1 122 -1 #SUP: 2
39 -1 40 -1 373 -1 #SUP: 2
40 -1 125 -1 6 -1 #SUP: 2
47 -1 124 -1 538 -1 #SUP: 2
81 -1 6 -1 226 -1 #SUP: 2
81 -1 124 -1 538 -1 #SUP: 2
89 -1 187 -1 6 -1 #SUP: 2
125 -1 39 -1 6 -1 #SUP: 2
125 -1 39 -1 40 -1 #SUP: 2
125 -1 39 -1 373 -1 #SUP: 2
125 -1 40 -1 373 -1 #SUP: 2
171 -1 270 -1 122 -1 #SUP: 2
299 -1 81 -1 2 -1 #SUP: 2
325 -1 47 -1 47 -1 #SUP: 2
374 -1 5 -1 482 -1 #SUP: 2
493 -1 47 -1 47 -1 #SUP: 2
493 -1 325 -1 47 -1 #SUP: 2
1581 -1 18 -1 28 -1 #SUP: 2
6948 -1 5 -1 482 -1 #SUP: 2
6948 -1 374 -1 5 -1 #SUP: 2
6948 -1 374 -1 482 -1 #SUP: 2
1 -1 2 -1 210 -1 28 -1 #SUP: 2
5 -1 2 -1 64 -1 21 -1 #SUP: 2
5 -1 6 -1 174 -1 22 -1 #SUP: 2
5 -1 299 -1 81 -1 2 -1 #SUP: 2
28 -1 171 -1 270 -1 122 -1 #SUP: 2
125 -1 39 -1 40 -1 373 -1 #SUP: 2
493 -1 325 -1 47 -1 47 -1 #SUP: 2
6948 -1 374 -1 5 -1 482 -1 #SUP: 2
