12 -1 61 -1 5 -1 214 -1 1115 -1 113 -1 47 -1 569 -1 538 -1 348 -1 2371 -1 33 -1 72 -1 0 -1 370 -1 2646 -1 47 -1 6108 -1 1699 -1 1 -2
5 -1 6 -1 17199 -1 40 -1 1817 -1 4 -1 17202 -1 1817 -1 2232 -1 13654 -1 218 -1 21 -1 187 -1 914 -1 131 -1 21 -1 47 -1 1817 -1 5 -1 18 -1 125 -1 17200 -1 4757 -1 68 -1 32 -1 376 -1 5 -1 6946 -1 122 -1 218 -1 17201 -1 9557 -1 137 -1 18 -1 226 -1 5 -1 225 -1 16 -1 1393 -1 131 -1 21 -1 224 -1 27 -1 14 -1 142 -1 368 -1 106 -1 38 -1 13398 -1 36 -1 113 -1 47 -1 251 -1 154 -1 3699 -1 176 -1 122 -1 13398 -1 15739 -1 5 -1 3390 -1 2 -1 7348 -1 21 -1 17197 -1 1625 -1 7348 -1 32 -1 5 -1 368 -1 1246 -1 367 -1 21 -1 153 -1 137 -1 3147 -1 38 -1 40 -1 1179 -1 3875 -1 122 -1 2 -1 200 -1 210 -1 32 -1 376 -1 33 -1 2 -1 17198 -1 170 -1 40 -1 1179 -1 3875 -1 5 -1 99 -1 283 -1 131 -1 32 -1 3761 -1 39 -1 154 -1 1 -2
40 -1 12981 -1 125 -1 22 -1 234 -1 569 -1 111 -1 538 -1 17203 -1 981 -1 28 -1 234 -1 840 -1 239 -1 125 -1 66 -1 15473 -1 239 -1 255 -1 637 -1 71 -1 234 -1 37 -1 255 -1 124 -1 53 -1 6 -1 774 -1 21 -1 7445 -1 727 -1 1 -2
124 -1 89 -1 1148 -1 1314 -1 210 -1 28 -1 144 -1 28 -1 1231 -1 5 -1 299 -1 81 -1 5 -1 298 -1 189 -1 12261 -1 550 -1 5 -1 17 -1 40 -1 12410 -1 5324 -1 86 -1 22 -1 1681 -1 14 -1 124 -1 89 -1 17205 -1 28 -1 586 -1 66 -1 5 -1 368 -1 172 -1 658 -1 47 -1 17204 -1 586 -1 6294 -1 14 -1 5 -1 18 -1 337 -1 768 -1 81 -1 267 -1 125 -1 162 -1 550 -1 5 -1 6 -1 25 -1 21 -1 1819 -1 47 -1 586 -1 1 -2
457 -1 5 -1 601 -1 270 -1 5 -1 214 -1 251 -1 28 -1 189 -1 2 -1 2989 -1 280 -1 957 -1 179 -1 948 -1 2406 -1 2405 -1 325 -1 47 -1 361 -1 32 -1 91 -1 40 -1 12981 -1 125 -1 981 -1 28 -1 128 -1 325 -1 250 -1 2 -1 588 -1 28 -1 110 -1 122 -1 234 -1 840 -1 328 -1 332 -1 3 -1 239 -1 1243 -1 106 -1 222 -1 21 -1 234 -1 407 -1 266 -1 116 -1 61 -1 66 -1 553 -1 351 -1 110 -1 38 -1 948 -1 182 -1 14 -1 5 -1 106 -1 92 -1 137 -1 343 -1 171 -1 267 -1 124 -1 797 -1 251 -1 123 -1 550 -1 5 -1 126 -1 61 -1 38 -1 201 -1 376 -1 553 -1 529 -1 110 -1 38 -1 40 -1 1231 -1 81 -1 553 -1 1647 -1 39 -1 343 -1 2479 -1 128 -1 308 -1 2 -1 330 -1 355 -1 5 -1 18 -1 176 -1 2620 -1 7314 -1 122 -1 850 -1 814 -1 32 -1 39 -1 849 -1 66 -1 163 -1 1112 -1 280 -1 89 -1 140 -1 727 -1 287 -1 12 -1 280 -1 661 -1 4 -1 1518 -1 9734 -1 111 -1 1 -2
280 -1 2802 -1 4280 -1 11 -1 38 -1 47 -1 753 -1 179 -1 132 -1 4 -1 17206 -1 66 -1 280 -1 18 -1 1518 -1 9734 -1 1 -2
5 -1 4220 -1 86 -1 92 -1 2753 -1 39 -1 49 -1 66 -1 598 -1 32 -1 66 -1 200 -1 1 -2
47 -1 2554 -1 3653 -1 94 -1 1 -2
124 -1 6 -1 402 -1 71 -1 328 -1 12021 -1 12021 -1 66 -1 39 -1 49 -1 284 -1 28 -1 190 -1 21 -1 133 -1 4703 -1 39 -1 86 -1 17208 -1 179 -1 1342 -1 766 -1 1848 -1 124 -1 568 -1 402 -1 3466 -1 32 -1 5 -1 102 -1 157 -1 133 -1 58 -1 559 -1 27 -1 13577 -1 3933 -1 187 -1 250 -1 592 -1 32 -1 17207 -1 1 -2
131 -1 21 -1 948 -1 2406 -1 2405 -1 4427 -1 32 -1 239 -1 60 -1 235 -1 17210 -1 32 -1 218 -1 21 -1 234 -1 2433 -1 3559 -1 203 -1 895 -1 234 -1 86 -1 429 -1 32 -1 5 -1 1619 -1 160 -1 239 -1 49 -1 251 -1 32 -1 239 -1 1061 -1 28 -1 218 -1 2236 -1 2237 -1 32 -1 239 -1 49 -1 251 -1 28 -1 661 -1 74 -1 749 -1 15208 -1 39 -1 441 -1 128 -1 299 -1 550 -1 19 -1 47 -1 611 -1 3 -1 21 -1 147 -1 32 -1 239 -1 489 -1 402 -1 2344 -1 435 -1 76 -1 17209 -1 14 -1 445 -1 12 -1 19 -1 41 -1 351 -1 844 -1 187 -1 40 -1 5069 -1 1 -2
270 -1 177 -1 125 -1 66 -1 1215 -1 1 -2
32 -1 239 -1 849 -1 66 -1 2204 -1 28 -1 239 -1 658 -1 71 -1 47 -1 6789 -1 822 -1 32 -1 5 -1 190 -1 239 -1 49 -1 22 -1 3842 -1 950 -1 111 -1 1 -2
32 -1 239 -1 489 -1 2 -1 10040 -1 21 -1 2 -1 840 -1 187 -1 349 -1 226 -1 92 -1 39 -1 849 -1 226 -1 1114 -1 489 -1 2 -1 840 -1 14 -1 128 -1 14 -1 93 -1 740 -1 5 -1 102 -1 151 -1 2 -1 355 -1 28 -1 422 -1 128 -1 463 -1 172 -1 406 -1 5 -1 99 -1 226 -1 2 -1 840 -1 5 -1 321 -1 368 -1 17 -1 131 -1 1273 -1 92 -1 125 -1 66 -1 598 -1 14 -1 93 -1 740 -1 1 -1 5 -1 1476 -1 2 -1 64 -1 21 -1 133 -1 4 -1 281 -1 147 -1 66 -1 1679 -1 12 -1 41 -1 2 -1 240 -1 64 -1 14 -1 93 -1 740 -1 1 -1 68 -1 203 -1 2 -1 420 -1 21 -1 753 -1 4 -1 4195 -1 61 -1 1583 -1 17211 -1 222 -1 125 -1 38 -1 270 -1 76 -1 111 -1 49 -1 526 -1 28 -1 661 -1 173 -1 128 -1 17216 -1 40 -1 17212 -1 22 -1 17215 -1 187 -1 349 -1 40 -1 334 -1 226 -1 17213 -1 128 -1 32 -1 1154 -1 128 -1 28 -1 171 -1 39 -1 113 -1 843 -1 175 -1 2 -1 1371 -1 5 -1 17 -1 337 -1 17214 -1 265 -1 553 -1 49 -1 981 -1 325 -1 32 -1 5 -1 886 -1 28 -1 171 -1 39 -1 1 -2
5 -1 119 -1 668 -1 5 -1 18 -1 66 -1 163 -1 28 -1 171 -1 255 -1 5 -1 18 -1 2 -1 64 -1 21 -1 822 -1 5 -1 392 -1 39 -1 99 -1 774 -1 21 -1 116 -1 226 -1 281 -1 147 -1 14 -1 5 -1 102 -1 190 -1 66 -1 5 -1 1476 -1 2 -1 420 -1 133 -1 204 -1 118 -1 92 -1 5 -1 106 -1 4 -1 4195 -1 39 -1 49 -1 89 -1 29 -1 493 -1 5 -1 82 -1 153 -1 32 -1 91 -1 32 -1 815 -1 153 -1 142 -1 529 -1 152 -1 71 -1 47 -1 746 -1 22 -1 17217 -1 550 -1 137 -1 2270 -1 204 -1 179 -1 17218 -1 38 -1 68 -1 2073 -1 32 -1 137 -1 140 -1 28 -1 76 -1 325 -1 657 -1 378 -1 439 -1 14 -1 92 -1 343 -1 83 -1 200 -1 1506 -1 224 -1 2344 -1 1823 -1 822 -1 445 -1 5 -1 190 -1 5 -1 151 -1 28 -1 946 -1 40 -1 10540 -1 352 -1 124 -1 41 -1 316 -1 445 -1 12 -1 1 -2
12 -1 5 -1 190 -1 40 -1 1256 -1 378 -1 125 -1 11 -1 32 -1 124 -1 325 -1 28 -1 749 -1 2266 -1 2795 -1 32 -1 131 -1 21 -1 40 -1 2635 -1 125 -1 38 -1 47 -1 361 -1 66 -1 5 -1 336 -1 5 -1 225 -1 430 -1 5248 -1 48 -1 239 -1 125 -1 35 -1 14 -1 1 -2
12 -1 78 -1 193 -1 1 -2