0 -1 #SUP: 6
2 -1 #SUP: 16
4 -1 #SUP: 3
5 -1 #SUP: 90
6 -1 #SUP: 4
9 -1 #SUP: 5
11 -1 #SUP: 7
14 -1 #SUP: 9
17 -1 #SUP: 6
18 -1 #SUP: 15
19 -1 #SUP: 2
21 -1 #SUP: 13
22 -1 #SUP: 7
27 -1 #SUP: 5
28 -1 #SUP: 52
32 -1 #SUP: 18
33 -1 #SUP: 3
38 -1 #SUP: 11
39 -1 #SUP: 19
40 -1 #SUP: 11
41 -1 #SUP: 7
47 -1 #SUP: 19
49 -1 #SUP: 12
61 -1 #SUP: 5
65 -1 #SUP: 4
66 -1 #SUP: 10
68 -1 #SUP: 5
69 -1 #SUP: 2
71 -1 #SUP: 9
75 -1 #SUP: 2
79 -1 #SUP: 3
81 -1 #SUP: 7
85 -1 #SUP: 2
86 -1 #SUP: 2
89 -1 #SUP: 9
92 -1 #SUP: 13
94 -1 #SUP: 3
99 -1 #SUP: 5
102 -1 #SUP: 4
105 -1 #SUP: 5
106 -1 #SUP: 7
111 -1 #SUP: 4
113 -1 #SUP: 4
116 -1 #SUP: 14
119 -1 #SUP: 2
122 -1 #SUP: 4
124 -1 #SUP: 12
125 -1 #SUP: 19
128 -1 #SUP: 14
133 -1 #SUP: 2
135 -1 #SUP: 4
137 -1 #SUP: 7
140 -1 #SUP: 8
142 -1 #SUP: 25
144 -1 #SUP: 4
147 -1 #SUP: 4
149 -1 #SUP: 3
157 -1 #SUP: 2
159 -1 #SUP: 4
160 -1 #SUP: 2
161 -1 #SUP: 2
162 -1 #SUP: 3
163 -1 #SUP: 3
171 -1 #SUP: 11
172 -1 #SUP: 3
174 -1 #SUP: 2
176 -1 #SUP: 2
179 -1 #SUP: 5
187 -1 #SUP: 8
189 -1 #SUP: 2
190 -1 #SUP: 12
193 -1 #SUP: 2
194 -1 #SUP: 3
198 -1 #SUP: 2
203 -1 #SUP: 10
210 -1 #SUP: 5
214 -1 #SUP: 4
222 -1 #SUP: 2
225 -1 #SUP: 6
226 -1 #SUP: 7
230 -1 #SUP: 6
251 -1 #SUP: 5
252 -1 #SUP: 3
265 -1 #SUP: 12
266 -1 #SUP: 5
267 -1 #SUP: 4
270 -1 #SUP: 11
272 -1 #SUP: 4
288 -1 #SUP: 2
299 -1 #SUP: 6
302 -1 #SUP: 2
303 -1 #SUP: 4
306 -1 #SUP: 2
316 -1 #SUP: 2
325 -1 #SUP: 3
329 -1 #SUP: 2
335 -1 #SUP: 3
336 -1 #SUP: 5
368 -1 #SUP: 5
376 -1 #SUP: 5
377 -1 #SUP: 7
383 -1 #SUP: 2
393 -1 #SUP: 2
402 -1 #SUP: 2
406 -1 #SUP: 2
407 -1 #SUP: 3
439 -1 #SUP: 2
445 -1 #SUP: 7
467 -1 #SUP: 2
470 -1 #SUP: 2
489 -1 #SUP: 2
493 -1 #SUP: 2
526 -1 #SUP: 6
550 -1 #SUP: 7
580 -1 #SUP: 3
597 -1 #SUP: 5
659 -1 #SUP: 2
661 -1 #SUP: 4
668 -1 #SUP: 2
686 -1 #SUP: 2
699 -1 #SUP: 3
756 -1 #SUP: 3
767 -1 #SUP: 3
804 -1 #SUP: 2
824 -1 #SUP: 2
830 -1 #SUP: 2
844 -1 #SUP: 2
849 -1 #SUP: 3
861 -1 #SUP: 2
908 -1 #SUP: 2
989 -1 #SUP: 2
1002 -1 #SUP: 2
1006 -1 #SUP: 3
1044 -1 #SUP: 3
1071 -1 #SUP: 2
1081 -1 #SUP: 2
1106 -1 #SUP: 3
1148 -1 #SUP: 3
1198 -1 #SUP: 2
1204 -1 #SUP: 2
1209 -1 #SUP: 2
1231 -1 #SUP: 3
1256 -1 #SUP: 2
1272 -1 #SUP: 2
1342 -1 #SUP: 2
1425 -1 #SUP: 2
2107 -1 #SUP: 2
3014 -1 #SUP: 2
4171 -1 #SUP: 3
4521 -1 #SUP: 3
5269 -1 #SUP: 3
6317 -1 #SUP: 3
7946 -1 #SUP: 2
8155 -1 #SUP: 2
10232 -1 #SUP: 2
10278 -1 #SUP: 2
11936 -1 #SUP: 2
21384 -1 #SUP: 2
21632 -1 #SUP: 2
2 -1 2 -1 #SUP: 3
2 -1 5 -1 #SUP: 3
2 -1 28 -1 #SUP: 3
2 -1 32 -1 #SUP: 2
2 -1 47 -1 #SUP: 2
2 -1 66 -1 #SUP: 2
2 -1 124 -1 #SUP: 2
2 -1 125 -1 #SUP: 3
2 -1 128 -1 #SUP: 2
2 -1 142 -1 #SUP: 2
2 -1 147 -1 #SUP: 2
2 -1 193 -1 #SUP: 2
2 -1 299 -1 #SUP: 2
2 -1 303 -1 #SUP: 2
2 -1 377 -1 #SUP: 2
2 -1 445 -1 #SUP: 3
2 -1 1006 -1 #SUP: 2
2 -1 1148 -1 #SUP: 2
2 -1 3014 -1 #SUP: 2
2 -1 5269 -1 #SUP: 2
2 -1 21632 -1 #SUP: 2
5 -1 2 -1 #SUP: 6
5 -1 4 -1 #SUP: 3
5 -1 5 -1 #SUP: 20
5 -1 6 -1 #SUP: 3
5 -1 9 -1 #SUP: 3
5 -1 11 -1 #SUP: 6
5 -1 14 -1 #SUP: 4
5 -1 17 -1 #SUP: 4
5 -1 18 -1 #SUP: 11
5 -1 21 -1 #SUP: 8
5 -1 22 -1 #SUP: 4
5 -1 27 -1 #SUP: 3
5 -1 28 -1 #SUP: 21
5 -1 32 -1 #SUP: 10
5 -1 38 -1 #SUP: 6
5 -1 39 -1 #SUP: 12
5 -1 40 -1 #SUP: 6
5 -1 41 -1 #SUP: 4
5 -1 47 -1 #SUP: 7
5 -1 49 -1 #SUP: 9
5 -1 61 -1 #SUP: 3
5 -1 65 -1 #SUP: 3
5 -1 66 -1 #SUP: 4
5 -1 68 -1 #SUP: 2
5 -1 71 -1 #SUP: 5
5 -1 75 -1 #SUP: 2
5 -1 79 -1 #SUP: 2
5 -1 81 -1 #SUP: 7
5 -1 86 -1 #SUP: 2
5 -1 89 -1 #SUP: 6
5 -1 92 -1 #SUP: 4
5 -1 99 -1 #SUP: 5
5 -1 102 -1 #SUP: 3
5 -1 105 -1 #SUP: 2
5 -1 106 -1 #SUP: 2
5 -1 111 -1 #SUP: 2
5 -1 113 -1 #SUP: 3
5 -1 116 -1 #SUP: 9
5 -1 119 -1 #SUP: 2
5 -1 124 -1 #SUP: 4
5 -1 125 -1 #SUP: 7
5 -1 128 -1 #SUP: 6
5 -1 133 -1 #SUP: 2
5 -1 135 -1 #SUP: 3
5 -1 137 -1 #SUP: 4
5 -1 140 -1 #SUP: 6
5 -1 142 -1 #SUP: 9
5 -1 144 -1 #SUP: 2
5 -1 147 -1 #SUP: 2
5 -1 157 -1 #SUP: 2
5 -1 160 -1 #SUP: 2
5 -1 163 -1 #SUP: 3
5 -1 171 -1 #SUP: 6
5 -1 172 -1 #SUP: 3
5 -1 174 -1 #SUP: 2
5 -1 179 -1 #SUP: 2
5 -1 187 -1 #SUP: 3
5 -1 189 -1 #SUP: 2
5 -1 190 -1 #SUP: 9
5 -1 194 -1 #SUP: 2
5 -1 198 -1 #SUP: 2
5 -1 203 -1 #SUP: 2
5 -1 210 -1 #SUP: 4
5 -1 214 -1 #SUP: 3
5 -1 225 -1 #SUP: 6
5 -1 226 -1 #SUP: 5
5 -1 230 -1 #SUP: 6
5 -1 251 -1 #SUP: 2
5 -1 252 -1 #SUP: 2
5 -1 265 -1 #SUP: 3
5 -1 266 -1 #SUP: 2
5 -1 267 -1 #SUP: 3
5 -1 270 -1 #SUP: 6
5 -1 299 -1 #SUP: 6
5 -1 302 -1 #SUP: 2
5 -1 303 -1 #SUP: 2
5 -1 325 -1 #SUP: 2
5 -1 335 -1 #SUP: 3
5 -1 336 -1 #SUP: 5
5 -1 368 -1 #SUP: 3
5 -1 376 -1 #SUP: 5
5 -1 377 -1 #SUP: 3
5 -1 383 -1 #SUP: 2
5 -1 406 -1 #SUP: 2
5 -1 407 -1 #SUP: 2
5 -1 445 -1 #SUP: 3
5 -1 526 -1 #SUP: 3
5 -1 550 -1 #SUP: 4
5 -1 597 -1 #SUP: 4
5 -1 767 -1 #SUP: 2
5 -1 849 -1 #SUP: 2
5 -1 908 -1 #SUP: 2
5 -1 989 -1 #SUP: 2
5 -1 1044 -1 #SUP: 3
5 -1 1081 -1 #SUP: 2
5 -1 1106 -1 #SUP: 3
5 -1 1148 -1 #SUP: 3
5 -1 1204 -1 #SUP: 2
5 -1 1209 -1 #SUP: 2
5 -1 1231 -1 #SUP: 2
5 -1 1256 -1 #SUP: 2
5 -1 4171 -1 #SUP: 3
5 -1 6317 -1 #SUP: 2
5 -1 8155 -1 #SUP: 2
5 -1 11936 -1 #SUP: 2
5 -1 21384 -1 #SUP: 2
5 -1 21632 -1 #SUP: 2
6 -1 68 -1 #SUP: 2
6 -1 71 -1 #SUP: 2
9 -1 5 -1 #SUP: 2
9 -1 39 -1 #SUP: 2
9 -1 61 -1 #SUP: 2
11 -1 28 -1 #SUP: 3
11 -1 32 -1 #SUP: 5
11 -1 38 -1 #SUP: 2
11 -1 66 -1 #SUP: 2
11 -1 124 -1 #SUP: 2
11 -1 270 -1 #SUP: 2
14 -1 5 -1 #SUP: 6
14 -1 28 -1 #SUP: 2
14 -1 47 -1 #SUP: 3
14 -1 66 -1 #SUP: 2
14 -1 106 -1 #SUP: 2
14 -1 116 -1 #SUP: 2
14 -1 137 -1 #SUP: 2
14 -1 142 -1 #SUP: 3
14 -1 266 -1 #SUP: 2
14 -1 376 -1 #SUP: 3
17 -1 5 -1 #SUP: 2
17 -1 11 -1 #SUP: 2
17 -1 28 -1 #SUP: 4
17 -1 66 -1 #SUP: 2
17 -1 79 -1 #SUP: 2
17 -1 128 -1 #SUP: 3
17 -1 226 -1 #SUP: 2
17 -1 1106 -1 #SUP: 2
18 -1 5 -1 #SUP: 4
18 -1 11 -1 #SUP: 2
18 -1 17 -1 #SUP: 3
18 -1 18 -1 #SUP: 2
18 -1 21 -1 #SUP: 3
18 -1 22 -1 #SUP: 3
18 -1 28 -1 #SUP: 5
18 -1 32 -1 #SUP: 2
18 -1 39 -1 #SUP: 4
18 -1 41 -1 #SUP: 2
18 -1 65 -1 #SUP: 2
18 -1 81 -1 #SUP: 3
18 -1 116 -1 #SUP: 2
18 -1 128 -1 #SUP: 3
18 -1 142 -1 #SUP: 2
18 -1 147 -1 #SUP: 2
18 -1 171 -1 #SUP: 2
18 -1 407 -1 #SUP: 3
18 -1 597 -1 #SUP: 2
18 -1 4171 -1 #SUP: 2
18 -1 8155 -1 #SUP: 2
19 -1 28 -1 #SUP: 2
21 -1 2 -1 #SUP: 3
21 -1 5 -1 #SUP: 5
21 -1 27 -1 #SUP: 2
21 -1 28 -1 #SUP: 6
21 -1 47 -1 #SUP: 2
21 -1 125 -1 #SUP: 2
21 -1 135 -1 #SUP: 3
21 -1 140 -1 #SUP: 2
21 -1 142 -1 #SUP: 2
21 -1 171 -1 #SUP: 2
21 -1 267 -1 #SUP: 2
21 -1 270 -1 #SUP: 2
21 -1 376 -1 #SUP: 2
21 -1 407 -1 #SUP: 2
22 -1 2 -1 #SUP: 3
22 -1 5 -1 #SUP: 2
22 -1 11 -1 #SUP: 2
22 -1 28 -1 #SUP: 2
22 -1 32 -1 #SUP: 2
22 -1 38 -1 #SUP: 2
22 -1 47 -1 #SUP: 3
22 -1 147 -1 #SUP: 2
22 -1 193 -1 #SUP: 2
27 -1 5 -1 #SUP: 2
27 -1 171 -1 #SUP: 3
27 -1 270 -1 #SUP: 2
28 -1 2 -1 #SUP: 4
28 -1 4 -1 #SUP: 3
28 -1 5 -1 #SUP: 15
28 -1 9 -1 #SUP: 2
28 -1 14 -1 #SUP: 4
28 -1 17 -1 #SUP: 2
28 -1 18 -1 #SUP: 2
28 -1 21 -1 #SUP: 6
28 -1 22 -1 #SUP: 2
28 -1 27 -1 #SUP: 2
28 -1 28 -1 #SUP: 10
28 -1 32 -1 #SUP: 3
28 -1 33 -1 #SUP: 2
28 -1 38 -1 #SUP: 6
28 -1 39 -1 #SUP: 6
28 -1 47 -1 #SUP: 5
28 -1 61 -1 #SUP: 3
28 -1 66 -1 #SUP: 3
28 -1 68 -1 #SUP: 2
28 -1 79 -1 #SUP: 2
28 -1 92 -1 #SUP: 5
28 -1 94 -1 #SUP: 2
28 -1 102 -1 #SUP: 2
28 -1 106 -1 #SUP: 3
28 -1 116 -1 #SUP: 11
28 -1 124 -1 #SUP: 2
28 -1 125 -1 #SUP: 5
28 -1 128 -1 #SUP: 4
28 -1 135 -1 #SUP: 3
28 -1 140 -1 #SUP: 4
28 -1 142 -1 #SUP: 10
28 -1 144 -1 #SUP: 3
28 -1 159 -1 #SUP: 2
28 -1 160 -1 #SUP: 2
28 -1 171 -1 #SUP: 3
28 -1 176 -1 #SUP: 2
28 -1 187 -1 #SUP: 4
28 -1 190 -1 #SUP: 3
28 -1 214 -1 #SUP: 3
28 -1 251 -1 #SUP: 2
28 -1 265 -1 #SUP: 3
28 -1 266 -1 #SUP: 3
28 -1 267 -1 #SUP: 2
28 -1 270 -1 #SUP: 6
28 -1 272 -1 #SUP: 2
28 -1 299 -1 #SUP: 2
28 -1 376 -1 #SUP: 3
28 -1 377 -1 #SUP: 4
28 -1 393 -1 #SUP: 2
28 -1 402 -1 #SUP: 2
28 -1 439 -1 #SUP: 2
28 -1 597 -1 #SUP: 2
28 -1 668 -1 #SUP: 2
28 -1 1044 -1 #SUP: 3
28 -1 1106 -1 #SUP: 2
28 -1 1231 -1 #SUP: 2
32 -1 2 -1 #SUP: 2
32 -1 5 -1 #SUP: 6
32 -1 9 -1 #SUP: 2
32 -1 21 -1 #SUP: 2
32 -1 28 -1 #SUP: 5
32 -1 32 -1 #SUP: 2
32 -1 39 -1 #SUP: 4
32 -1 41 -1 #SUP: 3
32 -1 47 -1 #SUP: 5
32 -1 66 -1 #SUP: 3
32 -1 68 -1 #SUP: 2
32 -1 71 -1 #SUP: 2
32 -1 99 -1 #SUP: 2
32 -1 116 -1 #SUP: 4
32 -1 119 -1 #SUP: 2
32 -1 124 -1 #SUP: 3
32 -1 125 -1 #SUP: 2
32 -1 163 -1 #SUP: 3
32 -1 172 -1 #SUP: 2
32 -1 187 -1 #SUP: 3
32 -1 190 -1 #SUP: 2
32 -1 210 -1 #SUP: 2
32 -1 270 -1 #SUP: 4
32 -1 526 -1 #SUP: 2
32 -1 550 -1 #SUP: 3
32 -1 1425 -1 #SUP: 2
38 -1 5 -1 #SUP: 4
38 -1 28 -1 #SUP: 3
38 -1 39 -1 #SUP: 3
38 -1 47 -1 #SUP: 3
38 -1 66 -1 #SUP: 2
38 -1 190 -1 #SUP: 2
38 -1 270 -1 #SUP: 2
38 -1 377 -1 #SUP: 2
38 -1 597 -1 #SUP: 2
39 -1 2 -1 #SUP: 2
39 -1 5 -1 #SUP: 3
39 -1 6 -1 #SUP: 2
39 -1 11 -1 #SUP: 3
39 -1 21 -1 #SUP: 2
39 -1 22 -1 #SUP: 3
39 -1 27 -1 #SUP: 2
39 -1 28 -1 #SUP: 5
39 -1 32 -1 #SUP: 2
39 -1 39 -1 #SUP: 2
39 -1 40 -1 #SUP: 2
39 -1 47 -1 #SUP: 3
39 -1 49 -1 #SUP: 2
39 -1 81 -1 #SUP: 2
39 -1 89 -1 #SUP: 2
39 -1 94 -1 #SUP: 2
39 -1 116 -1 #SUP: 2
39 -1 125 -1 #SUP: 5
39 -1 128 -1 #SUP: 3
39 -1 142 -1 #SUP: 2
39 -1 393 -1 #SUP: 2
39 -1 580 -1 #SUP: 3
39 -1 849 -1 #SUP: 3
40 -1 2 -1 #SUP: 2
40 -1 5 -1 #SUP: 6
40 -1 11 -1 #SUP: 2
40 -1 22 -1 #SUP: 2
40 -1 28 -1 #SUP: 5
40 -1 32 -1 #SUP: 4
40 -1 41 -1 #SUP: 2
40 -1 47 -1 #SUP: 3
40 -1 124 -1 #SUP: 2
40 -1 125 -1 #SUP: 2
40 -1 142 -1 #SUP: 2
40 -1 147 -1 #SUP: 2
40 -1 187 -1 #SUP: 2
40 -1 270 -1 #SUP: 2
40 -1 526 -1 #SUP: 2
40 -1 550 -1 #SUP: 2
40 -1 597 -1 #SUP: 2
40 -1 861 -1 #SUP: 2
41 -1 5 -1 #SUP: 3
41 -1 21 -1 #SUP: 2
41 -1 28 -1 #SUP: 5
41 -1 116 -1 #SUP: 3
41 -1 125 -1 #SUP: 2
41 -1 187 -1 #SUP: 2
41 -1 226 -1 #SUP: 2
41 -1 265 -1 #SUP: 3
41 -1 270 -1 #SUP: 2
41 -1 526 -1 #SUP: 3
41 -1 4521 -1 #SUP: 2
47 -1 5 -1 #SUP: 8
47 -1 14 -1 #SUP: 2
47 -1 18 -1 #SUP: 2
47 -1 21 -1 #SUP: 2
47 -1 22 -1 #SUP: 2
47 -1 28 -1 #SUP: 3
47 -1 32 -1 #SUP: 2
47 -1 38 -1 #SUP: 3
47 -1 39 -1 #SUP: 4
47 -1 47 -1 #SUP: 4
47 -1 66 -1 #SUP: 2
47 -1 89 -1 #SUP: 3
47 -1 94 -1 #SUP: 3
47 -1 116 -1 #SUP: 3
47 -1 125 -1 #SUP: 4
47 -1 137 -1 #SUP: 2
47 -1 140 -1 #SUP: 2
47 -1 149 -1 #SUP: 2
47 -1 187 -1 #SUP: 2
47 -1 210 -1 #SUP: 2
47 -1 270 -1 #SUP: 5
47 -1 376 -1 #SUP: 2
47 -1 550 -1 #SUP: 3
47 -1 756 -1 #SUP: 2
49 -1 2 -1 #SUP: 2
49 -1 5 -1 #SUP: 3
49 -1 6 -1 #SUP: 2
49 -1 22 -1 #SUP: 2
49 -1 28 -1 #SUP: 5
49 -1 38 -1 #SUP: 2
49 -1 39 -1 #SUP: 3
49 -1 40 -1 #SUP: 3
49 -1 66 -1 #SUP: 2
49 -1 92 -1 #SUP: 2
49 -1 142 -1 #SUP: 2
49 -1 179 -1 #SUP: 2
49 -1 251 -1 #SUP: 2
49 -1 377 -1 #SUP: 2
49 -1 1231 -1 #SUP: 2
61 -1 5 -1 #SUP: 3
65 -1 27 -1 #SUP: 2
65 -1 128 -1 #SUP: 2
65 -1 171 -1 #SUP: 2
65 -1 699 -1 #SUP: 2
66 -1 5 -1 #SUP: 4
66 -1 17 -1 #SUP: 2
66 -1 28 -1 #SUP: 4
66 -1 39 -1 #SUP: 2
66 -1 47 -1 #SUP: 2
66 -1 79 -1 #SUP: 2
66 -1 125 -1 #SUP: 3
66 -1 128 -1 #SUP: 2
66 -1 140 -1 #SUP: 2
66 -1 142 -1 #SUP: 3
66 -1 162 -1 #SUP: 2
66 -1 179 -1 #SUP: 2
66 -1 299 -1 #SUP: 2
66 -1 377 -1 #SUP: 2
66 -1 1148 -1 #SUP: 2
68 -1 28 -1 #SUP: 2
68 -1 71 -1 #SUP: 2
68 -1 272 -1 #SUP: 2
71 -1 5 -1 #SUP: 4
71 -1 32 -1 #SUP: 2
71 -1 47 -1 #SUP: 4
71 -1 210 -1 #SUP: 2
71 -1 21384 -1 #SUP: 2
79 -1 5 -1 #SUP: 2
79 -1 28 -1 #SUP: 2
81 -1 5 -1 #SUP: 3
81 -1 17 -1 #SUP: 2
81 -1 28 -1 #SUP: 6
81 -1 41 -1 #SUP: 2
81 -1 125 -1 #SUP: 2
81 -1 128 -1 #SUP: 5
81 -1 137 -1 #SUP: 2
81 -1 142 -1 #SUP: 2
81 -1 172 -1 #SUP: 2
81 -1 187 -1 #SUP: 2
85 -1 47 -1 #SUP: 2
89 -1 5 -1 #SUP: 3
89 -1 28 -1 #SUP: 2
89 -1 38 -1 #SUP: 2
89 -1 39 -1 #SUP: 2
89 -1 49 -1 #SUP: 2
89 -1 111 -1 #SUP: 2
89 -1 137 -1 #SUP: 2
89 -1 142 -1 #SUP: 2
89 -1 159 -1 #SUP: 2
89 -1 187 -1 #SUP: 2
89 -1 190 -1 #SUP: 2
89 -1 550 -1 #SUP: 2
92 -1 4 -1 #SUP: 2
92 -1 5 -1 #SUP: 6
92 -1 18 -1 #SUP: 2
92 -1 21 -1 #SUP: 3
92 -1 28 -1 #SUP: 6
92 -1 38 -1 #SUP: 2
92 -1 39 -1 #SUP: 3
92 -1 41 -1 #SUP: 2
92 -1 47 -1 #SUP: 3
92 -1 92 -1 #SUP: 3
92 -1 106 -1 #SUP: 2
92 -1 124 -1 #SUP: 2
92 -1 125 -1 #SUP: 3
92 -1 142 -1 #SUP: 2
92 -1 144 -1 #SUP: 2
92 -1 171 -1 #SUP: 2
92 -1 252 -1 #SUP: 2
92 -1 265 -1 #SUP: 2
92 -1 407 -1 #SUP: 2
92 -1 849 -1 #SUP: 2
92 -1 4521 -1 #SUP: 2
94 -1 39 -1 #SUP: 2
94 -1 47 -1 #SUP: 2
94 -1 125 -1 #SUP: 3
94 -1 270 -1 #SUP: 3
99 -1 5 -1 #SUP: 2
99 -1 18 -1 #SUP: 2
99 -1 28 -1 #SUP: 2
99 -1 116 -1 #SUP: 2
99 -1 163 -1 #SUP: 2
102 -1 5 -1 #SUP: 3
105 -1 5 -1 #SUP: 4
105 -1 22 -1 #SUP: 2
105 -1 28 -1 #SUP: 2
105 -1 32 -1 #SUP: 2
105 -1 39 -1 #SUP: 3
105 -1 49 -1 #SUP: 2
105 -1 368 -1 #SUP: 2
105 -1 377 -1 #SUP: 2
105 -1 661 -1 #SUP: 2
106 -1 5 -1 #SUP: 2
106 -1 18 -1 #SUP: 2
106 -1 28 -1 #SUP: 3
106 -1 47 -1 #SUP: 2
106 -1 142 -1 #SUP: 2
106 -1 144 -1 #SUP: 2
106 -1 377 -1 #SUP: 2
113 -1 5 -1 #SUP: 3
113 -1 47 -1 #SUP: 2
116 -1 5 -1 #SUP: 6
116 -1 14 -1 #SUP: 2
116 -1 18 -1 #SUP: 2
116 -1 21 -1 #SUP: 2
116 -1 28 -1 #SUP: 3
116 -1 33 -1 #SUP: 2
116 -1 38 -1 #SUP: 3
116 -1 39 -1 #SUP: 2
116 -1 61 -1 #SUP: 3
116 -1 66 -1 #SUP: 2
116 -1 68 -1 #SUP: 2
116 -1 102 -1 #SUP: 2
116 -1 122 -1 #SUP: 2
116 -1 190 -1 #SUP: 2
116 -1 265 -1 #SUP: 2
116 -1 597 -1 #SUP: 2
122 -1 5 -1 #SUP: 2
124 -1 5 -1 #SUP: 4
124 -1 28 -1 #SUP: 4
124 -1 41 -1 #SUP: 4
124 -1 47 -1 #SUP: 3
124 -1 61 -1 #SUP: 2
124 -1 66 -1 #SUP: 2
124 -1 68 -1 #SUP: 2
124 -1 92 -1 #SUP: 3
124 -1 124 -1 #SUP: 4
124 -1 125 -1 #SUP: 3
124 -1 128 -1 #SUP: 2
124 -1 187 -1 #SUP: 2
124 -1 222 -1 #SUP: 2
124 -1 265 -1 #SUP: 3
124 -1 270 -1 #SUP: 3
124 -1 272 -1 #SUP: 2
124 -1 316 -1 #SUP: 2
124 -1 526 -1 #SUP: 3
124 -1 1148 -1 #SUP: 3
124 -1 4521 -1 #SUP: 2
125 -1 2 -1 #SUP: 4
125 -1 5 -1 #SUP: 6
125 -1 11 -1 #SUP: 4
125 -1 21 -1 #SUP: 2
125 -1 22 -1 #SUP: 2
125 -1 28 -1 #SUP: 5
125 -1 32 -1 #SUP: 3
125 -1 39 -1 #SUP: 4
125 -1 40 -1 #SUP: 3
125 -1 47 -1 #SUP: 6
125 -1 66 -1 #SUP: 2
125 -1 89 -1 #SUP: 2
125 -1 94 -1 #SUP: 2
125 -1 122 -1 #SUP: 2
125 -1 125 -1 #SUP: 5
125 -1 128 -1 #SUP: 2
125 -1 140 -1 #SUP: 2
125 -1 142 -1 #SUP: 3
125 -1 162 -1 #SUP: 2
125 -1 171 -1 #SUP: 2
125 -1 172 -1 #SUP: 2
125 -1 179 -1 #SUP: 3
125 -1 187 -1 #SUP: 2
125 -1 265 -1 #SUP: 2
125 -1 270 -1 #SUP: 3
125 -1 299 -1 #SUP: 2
125 -1 445 -1 #SUP: 2
125 -1 580 -1 #SUP: 2
125 -1 824 -1 #SUP: 2
125 -1 1198 -1 #SUP: 2
128 -1 5 -1 #SUP: 6
128 -1 11 -1 #SUP: 2
128 -1 18 -1 #SUP: 3
128 -1 21 -1 #SUP: 3
128 -1 28 -1 #SUP: 4
128 -1 32 -1 #SUP: 2
128 -1 38 -1 #SUP: 2
128 -1 41 -1 #SUP: 3
128 -1 47 -1 #SUP: 2
128 -1 92 -1 #SUP: 3
128 -1 116 -1 #SUP: 2
128 -1 171 -1 #SUP: 3
128 -1 226 -1 #SUP: 2
128 -1 377 -1 #SUP: 2
135 -1 5 -1 #SUP: 3
135 -1 28 -1 #SUP: 2
135 -1 32 -1 #SUP: 2
137 -1 5 -1 #SUP: 2
137 -1 18 -1 #SUP: 2
137 -1 21 -1 #SUP: 2
137 -1 28 -1 #SUP: 3
137 -1 39 -1 #SUP: 2
137 -1 47 -1 #SUP: 2
137 -1 71 -1 #SUP: 2
137 -1 128 -1 #SUP: 3
137 -1 171 -1 #SUP: 2
137 -1 190 -1 #SUP: 2
140 -1 2 -1 #SUP: 2
140 -1 5 -1 #SUP: 3
140 -1 14 -1 #SUP: 2
140 -1 38 -1 #SUP: 2
140 -1 194 -1 #SUP: 2
140 -1 266 -1 #SUP: 2
140 -1 299 -1 #SUP: 2
140 -1 376 -1 #SUP: 2
140 -1 445 -1 #SUP: 2
140 -1 10278 -1 #SUP: 2
142 -1 2 -1 #SUP: 2
142 -1 4 -1 #SUP: 2
142 -1 5 -1 #SUP: 8
142 -1 9 -1 #SUP: 2
142 -1 11 -1 #SUP: 2
142 -1 17 -1 #SUP: 3
142 -1 18 -1 #SUP: 2
142 -1 28 -1 #SUP: 10
142 -1 32 -1 #SUP: 3
142 -1 38 -1 #SUP: 3
142 -1 41 -1 #SUP: 2
142 -1 47 -1 #SUP: 2
142 -1 49 -1 #SUP: 2
142 -1 66 -1 #SUP: 2
142 -1 71 -1 #SUP: 2
142 -1 106 -1 #SUP: 7
142 -1 111 -1 #SUP: 2
142 -1 116 -1 #SUP: 3
142 -1 128 -1 #SUP: 3
142 -1 135 -1 #SUP: 2
142 -1 142 -1 #SUP: 5
142 -1 144 -1 #SUP: 3
142 -1 159 -1 #SUP: 2
142 -1 190 -1 #SUP: 2
142 -1 226 -1 #SUP: 2
142 -1 251 -1 #SUP: 3
142 -1 288 -1 #SUP: 2
142 -1 377 -1 #SUP: 3
142 -1 467 -1 #SUP: 2
144 -1 5 -1 #SUP: 2
144 -1 28 -1 #SUP: 3
144 -1 47 -1 #SUP: 2
144 -1 116 -1 #SUP: 2
144 -1 142 -1 #SUP: 2
147 -1 32 -1 #SUP: 2
147 -1 193 -1 #SUP: 2
147 -1 597 -1 #SUP: 2
159 -1 28 -1 #SUP: 2
159 -1 111 -1 #SUP: 2
159 -1 142 -1 #SUP: 3
160 -1 28 -1 #SUP: 2
161 -1 5 -1 #SUP: 2
162 -1 179 -1 #SUP: 3
163 -1 5 -1 #SUP: 2
171 -1 5 -1 #SUP: 4
171 -1 28 -1 #SUP: 2
171 -1 39 -1 #SUP: 2
171 -1 92 -1 #SUP: 2
171 -1 142 -1 #SUP: 2
171 -1 171 -1 #SUP: 2
171 -1 210 -1 #SUP: 2
171 -1 270 -1 #SUP: 2
172 -1 28 -1 #SUP: 2
172 -1 125 -1 #SUP: 2
174 -1 32 -1 #SUP: 2
179 -1 125 -1 #SUP: 2
179 -1 142 -1 #SUP: 2
187 -1 5 -1 #SUP: 5
187 -1 21 -1 #SUP: 3
187 -1 27 -1 #SUP: 2
187 -1 28 -1 #SUP: 2
187 -1 39 -1 #SUP: 5
187 -1 41 -1 #SUP: 2
187 -1 47 -1 #SUP: 2
187 -1 125 -1 #SUP: 3
187 -1 140 -1 #SUP: 2
187 -1 265 -1 #SUP: 2
187 -1 270 -1 #SUP: 3
187 -1 550 -1 #SUP: 2
190 -1 5 -1 #SUP: 8
190 -1 9 -1 #SUP: 2
190 -1 17 -1 #SUP: 2
190 -1 18 -1 #SUP: 3
190 -1 21 -1 #SUP: 4
190 -1 28 -1 #SUP: 5
190 -1 32 -1 #SUP: 3
190 -1 33 -1 #SUP: 2
190 -1 39 -1 #SUP: 5
190 -1 81 -1 #SUP: 3
190 -1 99 -1 #SUP: 3
190 -1 119 -1 #SUP: 2
190 -1 128 -1 #SUP: 4
190 -1 135 -1 #SUP: 3
190 -1 142 -1 #SUP: 2
190 -1 190 -1 #SUP: 2
190 -1 225 -1 #SUP: 2
190 -1 267 -1 #SUP: 2
190 -1 376 -1 #SUP: 2
190 -1 1044 -1 #SUP: 2
190 -1 8155 -1 #SUP: 2
203 -1 5 -1 #SUP: 5
203 -1 14 -1 #SUP: 2
203 -1 28 -1 #SUP: 4
203 -1 38 -1 #SUP: 2
203 -1 39 -1 #SUP: 2
203 -1 47 -1 #SUP: 2
203 -1 116 -1 #SUP: 2
203 -1 137 -1 #SUP: 2
203 -1 142 -1 #SUP: 3
203 -1 149 -1 #SUP: 2
203 -1 171 -1 #SUP: 2
203 -1 187 -1 #SUP: 2
203 -1 203 -1 #SUP: 2
203 -1 270 -1 #SUP: 3
203 -1 1002 -1 #SUP: 2
210 -1 32 -1 #SUP: 3
210 -1 377 -1 #SUP: 2
210 -1 4171 -1 #SUP: 2
214 -1 5 -1 #SUP: 3
214 -1 28 -1 #SUP: 2
214 -1 116 -1 #SUP: 2
214 -1 1256 -1 #SUP: 2
222 -1 128 -1 #SUP: 2
225 -1 5 -1 #SUP: 2
225 -1 18 -1 #SUP: 2
225 -1 28 -1 #SUP: 3
225 -1 38 -1 #SUP: 2
225 -1 39 -1 #SUP: 3
225 -1 49 -1 #SUP: 2
225 -1 81 -1 #SUP: 2
225 -1 89 -1 #SUP: 3
225 -1 128 -1 #SUP: 2
225 -1 137 -1 #SUP: 2
225 -1 140 -1 #SUP: 2
225 -1 190 -1 #SUP: 2
225 -1 376 -1 #SUP: 2
225 -1 8155 -1 #SUP: 2
226 -1 2 -1 #SUP: 3
226 -1 5 -1 #SUP: 2
226 -1 14 -1 #SUP: 2
226 -1 32 -1 #SUP: 2
226 -1 116 -1 #SUP: 2
226 -1 203 -1 #SUP: 2
226 -1 377 -1 #SUP: 2
226 -1 3014 -1 #SUP: 2
226 -1 5269 -1 #SUP: 3
230 -1 2 -1 #SUP: 2
230 -1 5 -1 #SUP: 6
230 -1 17 -1 #SUP: 2
230 -1 28 -1 #SUP: 2
230 -1 38 -1 #SUP: 3
230 -1 99 -1 #SUP: 2
230 -1 140 -1 #SUP: 2
230 -1 190 -1 #SUP: 2
230 -1 225 -1 #SUP: 2
230 -1 226 -1 #SUP: 2
230 -1 302 -1 #SUP: 2
230 -1 376 -1 #SUP: 3
251 -1 28 -1 #SUP: 5
251 -1 39 -1 #SUP: 2
251 -1 142 -1 #SUP: 2
251 -1 171 -1 #SUP: 2
251 -1 439 -1 #SUP: 2
251 -1 1231 -1 #SUP: 2
252 -1 2 -1 #SUP: 2
252 -1 21 -1 #SUP: 2
265 -1 2 -1 #SUP: 2
265 -1 5 -1 #SUP: 5
265 -1 18 -1 #SUP: 2
265 -1 21 -1 #SUP: 2
265 -1 28 -1 #SUP: 4
265 -1 39 -1 #SUP: 2
265 -1 66 -1 #SUP: 2
265 -1 89 -1 #SUP: 2
265 -1 92 -1 #SUP: 2
265 -1 122 -1 #SUP: 2
265 -1 125 -1 #SUP: 5
265 -1 128 -1 #SUP: 2
265 -1 142 -1 #SUP: 3
265 -1 157 -1 #SUP: 2
265 -1 162 -1 #SUP: 3
265 -1 179 -1 #SUP: 4
265 -1 265 -1 #SUP: 2
265 -1 270 -1 #SUP: 2
265 -1 299 -1 #SUP: 2
265 -1 4521 -1 #SUP: 2
265 -1 6317 -1 #SUP: 2
266 -1 5 -1 #SUP: 2
266 -1 28 -1 #SUP: 3
266 -1 47 -1 #SUP: 2
266 -1 92 -1 #SUP: 2
266 -1 106 -1 #SUP: 2
266 -1 142 -1 #SUP: 2
267 -1 5 -1 #SUP: 3
267 -1 28 -1 #SUP: 2
267 -1 135 -1 #SUP: 2
267 -1 190 -1 #SUP: 2
270 -1 5 -1 #SUP: 2
270 -1 21 -1 #SUP: 2
270 -1 28 -1 #SUP: 3
270 -1 39 -1 #SUP: 4
270 -1 47 -1 #SUP: 3
270 -1 89 -1 #SUP: 2
270 -1 125 -1 #SUP: 4
270 -1 187 -1 #SUP: 3
270 -1 210 -1 #SUP: 2
270 -1 265 -1 #SUP: 2
270 -1 550 -1 #SUP: 2
270 -1 1198 -1 #SUP: 2
270 -1 10232 -1 #SUP: 2
272 -1 124 -1 #SUP: 2
288 -1 28 -1 #SUP: 2
288 -1 251 -1 #SUP: 2
299 -1 5 -1 #SUP: 2
299 -1 28 -1 #SUP: 3
299 -1 125 -1 #SUP: 2
299 -1 265 -1 #SUP: 2
303 -1 5 -1 #SUP: 2
325 -1 5 -1 #SUP: 2
325 -1 32 -1 #SUP: 3
325 -1 39 -1 #SUP: 2
325 -1 105 -1 #SUP: 2
335 -1 28 -1 #SUP: 2
335 -1 190 -1 #SUP: 2
336 -1 5 -1 #SUP: 2
336 -1 6 -1 #SUP: 2
336 -1 71 -1 #SUP: 2
368 -1 22 -1 #SUP: 2
368 -1 28 -1 #SUP: 3
368 -1 38 -1 #SUP: 2
368 -1 49 -1 #SUP: 3
368 -1 377 -1 #SUP: 2
376 -1 5 -1 #SUP: 4
376 -1 28 -1 #SUP: 2
376 -1 99 -1 #SUP: 2
377 -1 5 -1 #SUP: 2
377 -1 28 -1 #SUP: 3
377 -1 32 -1 #SUP: 2
377 -1 47 -1 #SUP: 2
377 -1 830 -1 #SUP: 2
383 -1 5 -1 #SUP: 2
383 -1 47 -1 #SUP: 2
383 -1 71 -1 #SUP: 2
383 -1 210 -1 #SUP: 2
402 -1 5 -1 #SUP: 2
407 -1 5 -1 #SUP: 2
445 -1 5 -1 #SUP: 2
445 -1 11 -1 #SUP: 2
445 -1 124 -1 #SUP: 2
445 -1 128 -1 #SUP: 2
445 -1 445 -1 #SUP: 3
467 -1 28 -1 #SUP: 2
467 -1 526 -1 #SUP: 2
470 -1 5 -1 #SUP: 2
470 -1 102 -1 #SUP: 2
493 -1 5 -1 #SUP: 2
493 -1 32 -1 #SUP: 2
493 -1 105 -1 #SUP: 2
493 -1 325 -1 #SUP: 2
526 -1 5 -1 #SUP: 2
526 -1 28 -1 #SUP: 6
526 -1 38 -1 #SUP: 2
526 -1 116 -1 #SUP: 3
526 -1 125 -1 #SUP: 2
526 -1 187 -1 #SUP: 2
526 -1 265 -1 #SUP: 3
526 -1 270 -1 #SUP: 2
550 -1 5 -1 #SUP: 5
550 -1 18 -1 #SUP: 2
550 -1 28 -1 #SUP: 3
550 -1 39 -1 #SUP: 2
550 -1 47 -1 #SUP: 2
550 -1 49 -1 #SUP: 2
550 -1 71 -1 #SUP: 2
550 -1 137 -1 #SUP: 2
550 -1 171 -1 #SUP: 2
550 -1 190 -1 #SUP: 2
550 -1 335 -1 #SUP: 2
597 -1 5 -1 #SUP: 2
661 -1 5 -1 #SUP: 2
661 -1 28 -1 #SUP: 2
661 -1 49 -1 #SUP: 2
661 -1 368 -1 #SUP: 2
661 -1 377 -1 #SUP: 2
668 -1 28 -1 #SUP: 2
668 -1 251 -1 #SUP: 2
699 -1 5 -1 #SUP: 2
699 -1 11 -1 #SUP: 2
699 -1 128 -1 #SUP: 3
756 -1 5 -1 #SUP: 3
756 -1 270 -1 #SUP: 2
767 -1 5 -1 #SUP: 2
767 -1 66 -1 #SUP: 2
767 -1 142 -1 #SUP: 2
767 -1 2107 -1 #SUP: 2
824 -1 28 -1 #SUP: 2
824 -1 39 -1 #SUP: 2
824 -1 125 -1 #SUP: 2
1006 -1 303 -1 #SUP: 3
1044 -1 597 -1 #SUP: 2
1071 -1 28 -1 #SUP: 2
1081 -1 5 -1 #SUP: 2
1106 -1 66 -1 #SUP: 2
1106 -1 79 -1 #SUP: 2
1148 -1 5 -1 #SUP: 2
1148 -1 47 -1 #SUP: 2
1198 -1 39 -1 #SUP: 2
1198 -1 125 -1 #SUP: 2
1204 -1 28 -1 #SUP: 2
1231 -1 5 -1 #SUP: 2
1231 -1 439 -1 #SUP: 2
1272 -1 32 -1 #SUP: 2
1272 -1 1425 -1 #SUP: 2
4171 -1 5 -1 #SUP: 2
4171 -1 32 -1 #SUP: 2
4171 -1 230 -1 #SUP: 2
4521 -1 2 -1 #SUP: 2
4521 -1 39 -1 #SUP: 2
4521 -1 125 -1 #SUP: 2
5269 -1 32 -1 #SUP: 2
5269 -1 3014 -1 #SUP: 2
6317 -1 5 -1 #SUP: 2
8155 -1 39 -1 #SUP: 2
8155 -1 81 -1 #SUP: 2
8155 -1 128 -1 #SUP: 2
10278 -1 194 -1 #SUP: 2
21384 -1 5 -1 #SUP: 2
21632 -1 2 -1 #SUP: 2
2 -1 5 -1 299 -1 #SUP: 2
2 -1 66 -1 1148 -1 #SUP: 2
2 -1 124 -1 66 -1 #SUP: 2
2 -1 124 -1 1148 -1 #SUP: 2
2 -1 147 -1 193 -1 #SUP: 2
2 -1 1006 -1 303 -1 #SUP: 2
2 -1 5269 -1 3014 -1 #SUP: 2
5 -1 2 -1 2 -1 #SUP: 2
5 -1 2 -1 5 -1 #SUP: 2
5 -1 2 -1 66 -1 #SUP: 2
5 -1 2 -1 124 -1 #SUP: 2
5 -1 2 -1 125 -1 #SUP: 2
5 -1 2 -1 445 -1 #SUP: 2
5 -1 2 -1 1148 -1 #SUP: 2
5 -1 2 -1 21632 -1 #SUP: 2
5 -1 5 -1 2 -1 #SUP: 4
5 -1 5 -1 5 -1 #SUP: 6
5 -1 5 -1 11 -1 #SUP: 2
5 -1 5 -1 17 -1 #SUP: 4
5 -1 5 -1 18 -1 #SUP: 6
5 -1 5 -1 21 -1 #SUP: 4
5 -1 5 -1 22 -1 #SUP: 2
5 -1 5 -1 28 -1 #SUP: 8
5 -1 5 -1 32 -1 #SUP: 3
5 -1 5 -1 38 -1 #SUP: 3
5 -1 5 -1 39 -1 #SUP: 4
5 -1 5 -1 47 -1 #SUP: 2
5 -1 5 -1 49 -1 #SUP: 3
5 -1 5 -1 65 -1 #SUP: 2
5 -1 5 -1 66 -1 #SUP: 3
5 -1 5 -1 71 -1 #SUP: 3
5 -1 5 -1 81 -1 #SUP: 3
5 -1 5 -1 89 -1 #SUP: 3
5 -1 5 -1 99 -1 #SUP: 4
5 -1 5 -1 102 -1 #SUP: 3
5 -1 5 -1 116 -1 #SUP: 3
5 -1 5 -1 119 -1 #SUP: 2
5 -1 5 -1 124 -1 #SUP: 2
5 -1 5 -1 128 -1 #SUP: 4
5 -1 5 -1 140 -1 #SUP: 3
5 -1 5 -1 171 -1 #SUP: 3
5 -1 5 -1 187 -1 #SUP: 2
5 -1 5 -1 190 -1 #SUP: 4
5 -1 5 -1 198 -1 #SUP: 2
5 -1 5 -1 225 -1 #SUP: 5
5 -1 5 -1 226 -1 #SUP: 2
5 -1 5 -1 230 -1 #SUP: 2
5 -1 5 -1 270 -1 #SUP: 2
5 -1 5 -1 302 -1 #SUP: 2
5 -1 5 -1 376 -1 #SUP: 3
5 -1 5 -1 550 -1 #SUP: 2
5 -1 5 -1 597 -1 #SUP: 3
5 -1 5 -1 1044 -1 #SUP: 2
5 -1 5 -1 1148 -1 #SUP: 2
5 -1 5 -1 1209 -1 #SUP: 2
5 -1 5 -1 1256 -1 #SUP: 2
5 -1 5 -1 8155 -1 #SUP: 2
5 -1 5 -1 21384 -1 #SUP: 2
5 -1 6 -1 71 -1 #SUP: 2
5 -1 9 -1 39 -1 #SUP: 2
5 -1 11 -1 32 -1 #SUP: 4
5 -1 11 -1 124 -1 #SUP: 2
5 -1 14 -1 5 -1 #SUP: 3
5 -1 14 -1 376 -1 #SUP: 3
5 -1 17 -1 11 -1 #SUP: 2
5 -1 17 -1 28 -1 #SUP: 3
5 -1 17 -1 66 -1 #SUP: 2
5 -1 17 -1 79 -1 #SUP: 2
5 -1 17 -1 128 -1 #SUP: 3
5 -1 17 -1 1106 -1 #SUP: 2
5 -1 18 -1 5 -1 #SUP: 2
5 -1 18 -1 11 -1 #SUP: 2
5 -1 18 -1 17 -1 #SUP: 3
5 -1 18 -1 21 -1 #SUP: 2
5 -1 18 -1 28 -1 #SUP: 4
5 -1 18 -1 32 -1 #SUP: 2
5 -1 18 -1 39 -1 #SUP: 3
5 -1 18 -1 65 -1 #SUP: 2
5 -1 18 -1 81 -1 #SUP: 3
5 -1 18 -1 128 -1 #SUP: 3
5 -1 18 -1 142 -1 #SUP: 2
5 -1 18 -1 407 -1 #SUP: 2
5 -1 18 -1 4171 -1 #SUP: 2
5 -1 18 -1 8155 -1 #SUP: 2
5 -1 21 -1 2 -1 #SUP: 2
5 -1 21 -1 5 -1 #SUP: 3
5 -1 21 -1 28 -1 #SUP: 5
5 -1 21 -1 135 -1 #SUP: 3
5 -1 21 -1 142 -1 #SUP: 2
5 -1 21 -1 267 -1 #SUP: 2
5 -1 21 -1 376 -1 #SUP: 2
5 -1 27 -1 5 -1 #SUP: 2
5 -1 27 -1 171 -1 #SUP: 3
5 -1 27 -1 270 -1 #SUP: 2
5 -1 28 -1 2 -1 #SUP: 2
5 -1 28 -1 4 -1 #SUP: 2
5 -1 28 -1 5 -1 #SUP: 6
5 -1 28 -1 9 -1 #SUP: 2
5 -1 28 -1 14 -1 #SUP: 2
5 -1 28 -1 21 -1 #SUP: 4
5 -1 28 -1 28 -1 #SUP: 4
5 -1 28 -1 32 -1 #SUP: 2
5 -1 28 -1 38 -1 #SUP: 3
5 -1 28 -1 39 -1 #SUP: 3
5 -1 28 -1 61 -1 #SUP: 2
5 -1 28 -1 66 -1 #SUP: 2
5 -1 28 -1 79 -1 #SUP: 2
5 -1 28 -1 92 -1 #SUP: 2
5 -1 28 -1 102 -1 #SUP: 2
5 -1 28 -1 116 -1 #SUP: 8
5 -1 28 -1 128 -1 #SUP: 2
5 -1 28 -1 135 -1 #SUP: 3
5 -1 28 -1 140 -1 #SUP: 2
5 -1 28 -1 142 -1 #SUP: 4
5 -1 28 -1 144 -1 #SUP: 2
5 -1 28 -1 160 -1 #SUP: 2
5 -1 28 -1 171 -1 #SUP: 2
5 -1 28 -1 190 -1 #SUP: 2
5 -1 28 -1 266 -1 #SUP: 2
5 -1 28 -1 376 -1 #SUP: 2
5 -1 28 -1 377 -1 #SUP: 2
5 -1 28 -1 597 -1 #SUP: 2
5 -1 28 -1 1044 -1 #SUP: 3
5 -1 28 -1 1106 -1 #SUP: 2
5 -1 32 -1 5 -1 #SUP: 4
5 -1 32 -1 9 -1 #SUP: 2
5 -1 32 -1 41 -1 #SUP: 2
5 -1 32 -1 119 -1 #SUP: 2
5 -1 32 -1 124 -1 #SUP: 3
5 -1 32 -1 172 -1 #SUP: 2
5 -1 32 -1 190 -1 #SUP: 2
5 -1 32 -1 270 -1 #SUP: 2
5 -1 32 -1 526 -1 #SUP: 2
5 -1 38 -1 5 -1 #SUP: 3
5 -1 38 -1 190 -1 #SUP: 2
5 -1 38 -1 597 -1 #SUP: 2
5 -1 39 -1 28 -1 #SUP: 2
5 -1 39 -1 49 -1 #SUP: 2
5 -1 39 -1 81 -1 #SUP: 2
5 -1 39 -1 128 -1 #SUP: 2
5 -1 39 -1 849 -1 #SUP: 2
5 -1 40 -1 5 -1 #SUP: 2
5 -1 40 -1 22 -1 #SUP: 2
5 -1 40 -1 28 -1 #SUP: 2
5 -1 40 -1 32 -1 #SUP: 3
5 -1 40 -1 41 -1 #SUP: 2
5 -1 40 -1 47 -1 #SUP: 2
5 -1 40 -1 124 -1 #SUP: 2
5 -1 40 -1 125 -1 #SUP: 2
5 -1 40 -1 526 -1 #SUP: 2
5 -1 40 -1 597 -1 #SUP: 2
5 -1 41 -1 526 -1 #SUP: 2
5 -1 47 -1 5 -1 #SUP: 5
5 -1 47 -1 89 -1 #SUP: 2
5 -1 47 -1 210 -1 #SUP: 2
5 -1 47 -1 270 -1 #SUP: 2
5 -1 49 -1 5 -1 #SUP: 2
5 -1 49 -1 22 -1 #SUP: 2
5 -1 49 -1 28 -1 #SUP: 5
5 -1 49 -1 38 -1 #SUP: 2
5 -1 49 -1 39 -1 #SUP: 2
5 -1 49 -1 142 -1 #SUP: 2
5 -1 49 -1 251 -1 #SUP: 2
5 -1 49 -1 377 -1 #SUP: 2
5 -1 49 -1 1231 -1 #SUP: 2
5 -1 65 -1 171 -1 #SUP: 2
5 -1 66 -1 5 -1 #SUP: 2
5 -1 66 -1 28 -1 #SUP: 2
5 -1 66 -1 79 -1 #SUP: 2
5 -1 66 -1 142 -1 #SUP: 2
5 -1 66 -1 1148 -1 #SUP: 2
5 -1 71 -1 5 -1 #SUP: 3
5 -1 71 -1 32 -1 #SUP: 2
5 -1 71 -1 47 -1 #SUP: 2
5 -1 71 -1 210 -1 #SUP: 2
5 -1 71 -1 21384 -1 #SUP: 2
5 -1 81 -1 5 -1 #SUP: 2
5 -1 81 -1 17 -1 #SUP: 2
5 -1 81 -1 28 -1 #SUP: 3
5 -1 81 -1 41 -1 #SUP: 2
5 -1 81 -1 125 -1 #SUP: 2
5 -1 81 -1 128 -1 #SUP: 5
5 -1 81 -1 137 -1 #SUP: 2
5 -1 81 -1 142 -1 #SUP: 2
5 -1 81 -1 172 -1 #SUP: 2
5 -1 89 -1 5 -1 #SUP: 2
5 -1 89 -1 49 -1 #SUP: 2
5 -1 89 -1 137 -1 #SUP: 2
5 -1 89 -1 550 -1 #SUP: 2
5 -1 92 -1 5 -1 #SUP: 2
5 -1 92 -1 28 -1 #SUP: 4
5 -1 92 -1 39 -1 #SUP: 2
5 -1 99 -1 5 -1 #SUP: 2
5 -1 99 -1 18 -1 #SUP: 2
5 -1 99 -1 28 -1 #SUP: 2
5 -1 99 -1 116 -1 #SUP: 2
5 -1 99 -1 163 -1 #SUP: 2
5 -1 102 -1 5 -1 #SUP: 3
5 -1 105 -1 5 -1 #SUP: 2
5 -1 113 -1 5 -1 #SUP: 2
5 -1 113 -1 47 -1 #SUP: 2
5 -1 116 -1 5 -1 #SUP: 3
5 -1 116 -1 21 -1 #SUP: 2
5 -1 116 -1 38 -1 #SUP: 2
5 -1 116 -1 61 -1 #SUP: 2
5 -1 116 -1 102 -1 #SUP: 2
5 -1 124 -1 5 -1 #SUP: 3
5 -1 124 -1 41 -1 #SUP: 2
5 -1 124 -1 66 -1 #SUP: 2
5 -1 124 -1 125 -1 #SUP: 2
5 -1 124 -1 526 -1 #SUP: 2
5 -1 124 -1 1148 -1 #SUP: 3
5 -1 125 -1 5 -1 #SUP: 2
5 -1 125 -1 28 -1 #SUP: 2
5 -1 125 -1 47 -1 #SUP: 2
5 -1 125 -1 172 -1 #SUP: 2
5 -1 128 -1 5 -1 #SUP: 2
5 -1 128 -1 41 -1 #SUP: 2
5 -1 135 -1 5 -1 #SUP: 2
5 -1 135 -1 28 -1 #SUP: 2
5 -1 137 -1 28 -1 #SUP: 2
5 -1 137 -1 128 -1 #SUP: 2
5 -1 140 -1 2 -1 #SUP: 2
5 -1 140 -1 5 -1 #SUP: 2
5 -1 140 -1 14 -1 #SUP: 2
5 -1 140 -1 376 -1 #SUP: 2
5 -1 140 -1 445 -1 #SUP: 2
5 -1 142 -1 5 -1 #SUP: 2
5 -1 142 -1 28 -1 #SUP: 2
5 -1 142 -1 32 -1 #SUP: 2
5 -1 142 -1 106 -1 #SUP: 2
5 -1 142 -1 128 -1 #SUP: 2
5 -1 142 -1 144 -1 #SUP: 2
5 -1 163 -1 5 -1 #SUP: 2
5 -1 171 -1 39 -1 #SUP: 2
5 -1 171 -1 210 -1 #SUP: 2
5 -1 171 -1 270 -1 #SUP: 2
5 -1 174 -1 32 -1 #SUP: 2
5 -1 179 -1 142 -1 #SUP: 2
5 -1 190 -1 5 -1 #SUP: 8
5 -1 190 -1 9 -1 #SUP: 2
5 -1 190 -1 17 -1 #SUP: 2
5 -1 190 -1 18 -1 #SUP: 3
5 -1 190 -1 21 -1 #SUP: 3
5 -1 190 -1 28 -1 #SUP: 5
5 -1 190 -1 32 -1 #SUP: 3
5 -1 190 -1 39 -1 #SUP: 4
5 -1 190 -1 81 -1 #SUP: 3
5 -1 190 -1 99 -1 #SUP: 2
5 -1 190 -1 119 -1 #SUP: 2
5 -1 190 -1 128 -1 #SUP: 3
5 -1 190 -1 135 -1 #SUP: 3
5 -1 190 -1 142 -1 #SUP: 2
5 -1 190 -1 190 -1 #SUP: 2
5 -1 190 -1 225 -1 #SUP: 2
5 -1 190 -1 267 -1 #SUP: 2
5 -1 190 -1 376 -1 #SUP: 2
5 -1 190 -1 1044 -1 #SUP: 2
5 -1 190 -1 8155 -1 #SUP: 2
5 -1 203 -1 171 -1 #SUP: 2
5 -1 210 -1 32 -1 #SUP: 2
5 -1 210 -1 4171 -1 #SUP: 2
5 -1 214 -1 5 -1 #SUP: 2
5 -1 214 -1 1256 -1 #SUP: 2
5 -1 225 -1 5 -1 #SUP: 2
5 -1 225 -1 18 -1 #SUP: 2
5 -1 225 -1 28 -1 #SUP: 3
5 -1 225 -1 38 -1 #SUP: 2
5 -1 225 -1 39 -1 #SUP: 3
5 -1 225 -1 49 -1 #SUP: 2
5 -1 225 -1 81 -1 #SUP: 2
5 -1 225 -1 89 -1 #SUP: 3
5 -1 225 -1 128 -1 #SUP: 2
5 -1 225 -1 137 -1 #SUP: 2
5 -1 225 -1 140 -1 #SUP: 2
5 -1 225 -1 190 -1 #SUP: 2
5 -1 225 -1 376 -1 #SUP: 2
5 -1 225 -1 8155 -1 #SUP: 2
5 -1 226 -1 2 -1 #SUP: 2
5 -1 230 -1 2 -1 #SUP: 2
5 -1 230 -1 5 -1 #SUP: 6
5 -1 230 -1 17 -1 #SUP: 2
5 -1 230 -1 28 -1 #SUP: 2
5 -1 230 -1 38 -1 #SUP: 2
5 -1 230 -1 99 -1 #SUP: 2
5 -1 230 -1 140 -1 #SUP: 2
5 -1 230 -1 190 -1 #SUP: 2
5 -1 230 -1 225 -1 #SUP: 2
5 -1 230 -1 302 -1 #SUP: 2
5 -1 230 -1 376 -1 #SUP: 3
5 -1 251 -1 28 -1 #SUP: 2
5 -1 251 -1 39 -1 #SUP: 2
5 -1 265 -1 5 -1 #SUP: 2
5 -1 265 -1 28 -1 #SUP: 2
5 -1 265 -1 157 -1 #SUP: 2
5 -1 267 -1 5 -1 #SUP: 2
5 -1 267 -1 28 -1 #SUP: 2
5 -1 267 -1 135 -1 #SUP: 2
5 -1 270 -1 47 -1 #SUP: 2
5 -1 270 -1 125 -1 #SUP: 2
5 -1 270 -1 210 -1 #SUP: 2
5 -1 299 -1 5 -1 #SUP: 2
5 -1 299 -1 28 -1 #SUP: 3
5 -1 299 -1 125 -1 #SUP: 2
5 -1 299 -1 265 -1 #SUP: 2
5 -1 325 -1 5 -1 #SUP: 2
5 -1 325 -1 32 -1 #SUP: 2
5 -1 325 -1 105 -1 #SUP: 2
5 -1 335 -1 28 -1 #SUP: 2
5 -1 335 -1 190 -1 #SUP: 2
5 -1 336 -1 5 -1 #SUP: 2
5 -1 336 -1 6 -1 #SUP: 2
5 -1 336 -1 71 -1 #SUP: 2
5 -1 368 -1 22 -1 #SUP: 2
5 -1 368 -1 28 -1 #SUP: 2
5 -1 368 -1 49 -1 #SUP: 2
5 -1 376 -1 5 -1 #SUP: 4
5 -1 376 -1 99 -1 #SUP: 2
5 -1 383 -1 5 -1 #SUP: 2
5 -1 383 -1 47 -1 #SUP: 2
5 -1 383 -1 71 -1 #SUP: 2
5 -1 445 -1 445 -1 #SUP: 2
5 -1 526 -1 28 -1 #SUP: 2
5 -1 526 -1 116 -1 #SUP: 2
5 -1 550 -1 5 -1 #SUP: 3
5 -1 550 -1 28 -1 #SUP: 2
5 -1 550 -1 49 -1 #SUP: 2
5 -1 550 -1 190 -1 #SUP: 2
5 -1 597 -1 5 -1 #SUP: 2
5 -1 1044 -1 597 -1 #SUP: 2
5 -1 1081 -1 5 -1 #SUP: 2
5 -1 1106 -1 66 -1 #SUP: 2
5 -1 1106 -1 79 -1 #SUP: 2
5 -1 1148 -1 5 -1 #SUP: 2
5 -1 1204 -1 28 -1 #SUP: 2
5 -1 4171 -1 5 -1 #SUP: 2
5 -1 4171 -1 32 -1 #SUP: 2
5 -1 4171 -1 230 -1 #SUP: 2
5 -1 8155 -1 39 -1 #SUP: 2
5 -1 8155 -1 81 -1 #SUP: 2
5 -1 8155 -1 128 -1 #SUP: 2
5 -1 21384 -1 5 -1 #SUP: 2
11 -1 32 -1 28 -1 #SUP: 2
11 -1 32 -1 66 -1 #SUP: 2
11 -1 32 -1 124 -1 #SUP: 2
11 -1 32 -1 270 -1 #SUP: 2
14 -1 5 -1 5 -1 #SUP: 2
14 -1 47 -1 5 -1 #SUP: 2
14 -1 142 -1 106 -1 #SUP: 2
14 -1 376 -1 5 -1 #SUP: 2
17 -1 28 -1 66 -1 #SUP: 2
17 -1 28 -1 79 -1 #SUP: 2
17 -1 28 -1 1106 -1 #SUP: 2
17 -1 66 -1 79 -1 #SUP: 2
17 -1 1106 -1 66 -1 #SUP: 2
17 -1 1106 -1 79 -1 #SUP: 2
18 -1 5 -1 28 -1 #SUP: 2
18 -1 11 -1 32 -1 #SUP: 2
18 -1 17 -1 128 -1 #SUP: 2
18 -1 21 -1 5 -1 #SUP: 2
18 -1 21 -1 28 -1 #SUP: 2
18 -1 21 -1 171 -1 #SUP: 2
18 -1 21 -1 407 -1 #SUP: 2
18 -1 39 -1 22 -1 #SUP: 2
18 -1 39 -1 81 -1 #SUP: 2
18 -1 39 -1 128 -1 #SUP: 2
18 -1 81 -1 17 -1 #SUP: 2
18 -1 81 -1 128 -1 #SUP: 3
18 -1 147 -1 597 -1 #SUP: 2
18 -1 407 -1 5 -1 #SUP: 2
18 -1 8155 -1 39 -1 #SUP: 2
18 -1 8155 -1 81 -1 #SUP: 2
18 -1 8155 -1 128 -1 #SUP: 2
21 -1 5 -1 2 -1 #SUP: 2
21 -1 5 -1 28 -1 #SUP: 2
21 -1 28 -1 5 -1 #SUP: 2
21 -1 28 -1 28 -1 #SUP: 3
21 -1 28 -1 135 -1 #SUP: 3
21 -1 28 -1 140 -1 #SUP: 2
21 -1 135 -1 5 -1 #SUP: 2
21 -1 135 -1 28 -1 #SUP: 2
21 -1 142 -1 28 -1 #SUP: 2
21 -1 267 -1 28 -1 #SUP: 2
21 -1 267 -1 135 -1 #SUP: 2
21 -1 270 -1 28 -1 #SUP: 2
22 -1 2 -1 147 -1 #SUP: 2
22 -1 2 -1 193 -1 #SUP: 2
22 -1 11 -1 32 -1 #SUP: 2
22 -1 28 -1 38 -1 #SUP: 2
22 -1 47 -1 5 -1 #SUP: 2
22 -1 47 -1 38 -1 #SUP: 2
22 -1 147 -1 193 -1 #SUP: 2
27 -1 5 -1 171 -1 #SUP: 2
27 -1 5 -1 270 -1 #SUP: 2
27 -1 171 -1 270 -1 #SUP: 2
28 -1 5 -1 2 -1 #SUP: 2
28 -1 5 -1 4 -1 #SUP: 2
28 -1 5 -1 5 -1 #SUP: 7
28 -1 5 -1 17 -1 #SUP: 2
28 -1 5 -1 21 -1 #SUP: 3
28 -1 5 -1 28 -1 #SUP: 5
28 -1 5 -1 39 -1 #SUP: 3
28 -1 5 -1 102 -1 #SUP: 2
28 -1 5 -1 116 -1 #SUP: 2
28 -1 5 -1 190 -1 #SUP: 3
28 -1 5 -1 214 -1 #SUP: 3
28 -1 5 -1 299 -1 #SUP: 2
28 -1 5 -1 1044 -1 #SUP: 2
28 -1 14 -1 5 -1 #SUP: 3
28 -1 14 -1 28 -1 #SUP: 2
28 -1 14 -1 47 -1 #SUP: 2
28 -1 14 -1 142 -1 #SUP: 2
28 -1 14 -1 266 -1 #SUP: 2
28 -1 14 -1 376 -1 #SUP: 2
28 -1 21 -1 28 -1 #SUP: 3
28 -1 21 -1 125 -1 #SUP: 2
28 -1 21 -1 270 -1 #SUP: 2
28 -1 28 -1 5 -1 #SUP: 4
28 -1 28 -1 9 -1 #SUP: 2
28 -1 28 -1 14 -1 #SUP: 2
28 -1 28 -1 28 -1 #SUP: 4
28 -1 28 -1 39 -1 #SUP: 2
28 -1 28 -1 92 -1 #SUP: 2
28 -1 28 -1 106 -1 #SUP: 2
28 -1 28 -1 116 -1 #SUP: 4
28 -1 28 -1 142 -1 #SUP: 3
28 -1 28 -1 251 -1 #SUP: 2
28 -1 28 -1 439 -1 #SUP: 2
28 -1 28 -1 1231 -1 #SUP: 2
28 -1 38 -1 5 -1 #SUP: 2
28 -1 38 -1 28 -1 #SUP: 2
28 -1 38 -1 39 -1 #SUP: 2
28 -1 38 -1 377 -1 #SUP: 2
28 -1 39 -1 5 -1 #SUP: 2
28 -1 39 -1 28 -1 #SUP: 2
28 -1 39 -1 125 -1 #SUP: 3
28 -1 39 -1 393 -1 #SUP: 2
28 -1 47 -1 5 -1 #SUP: 2
28 -1 47 -1 21 -1 #SUP: 2
28 -1 47 -1 28 -1 #SUP: 3
28 -1 47 -1 38 -1 #SUP: 2
28 -1 47 -1 39 -1 #SUP: 2
28 -1 47 -1 47 -1 #SUP: 2
28 -1 47 -1 94 -1 #SUP: 2
28 -1 47 -1 116 -1 #SUP: 2
28 -1 47 -1 125 -1 #SUP: 3
28 -1 47 -1 270 -1 #SUP: 3
28 -1 66 -1 28 -1 #SUP: 2
28 -1 66 -1 79 -1 #SUP: 2
28 -1 92 -1 5 -1 #SUP: 3
28 -1 92 -1 28 -1 #SUP: 2
28 -1 92 -1 39 -1 #SUP: 2
28 -1 92 -1 92 -1 #SUP: 2
28 -1 92 -1 106 -1 #SUP: 2
28 -1 92 -1 142 -1 #SUP: 2
28 -1 94 -1 39 -1 #SUP: 2
28 -1 94 -1 125 -1 #SUP: 2
28 -1 94 -1 270 -1 #SUP: 2
28 -1 102 -1 5 -1 #SUP: 2
28 -1 106 -1 28 -1 #SUP: 2
28 -1 106 -1 47 -1 #SUP: 2
28 -1 116 -1 5 -1 #SUP: 4
28 -1 116 -1 14 -1 #SUP: 2
28 -1 116 -1 21 -1 #SUP: 2
28 -1 116 -1 38 -1 #SUP: 2
28 -1 116 -1 61 -1 #SUP: 3
28 -1 116 -1 68 -1 #SUP: 2
28 -1 124 -1 5 -1 #SUP: 2
28 -1 125 -1 5 -1 #SUP: 2
28 -1 125 -1 28 -1 #SUP: 2
28 -1 125 -1 39 -1 #SUP: 2
28 -1 128 -1 5 -1 #SUP: 2
28 -1 128 -1 28 -1 #SUP: 2
28 -1 135 -1 5 -1 #SUP: 3
28 -1 135 -1 28 -1 #SUP: 2
28 -1 140 -1 5 -1 #SUP: 2
28 -1 140 -1 299 -1 #SUP: 2
28 -1 142 -1 5 -1 #SUP: 6
28 -1 142 -1 28 -1 #SUP: 6
28 -1 142 -1 38 -1 #SUP: 2
28 -1 142 -1 47 -1 #SUP: 2
28 -1 142 -1 106 -1 #SUP: 3
28 -1 142 -1 128 -1 #SUP: 2
28 -1 142 -1 135 -1 #SUP: 2
28 -1 142 -1 144 -1 #SUP: 2
28 -1 142 -1 159 -1 #SUP: 2
28 -1 144 -1 5 -1 #SUP: 2
28 -1 144 -1 28 -1 #SUP: 3
28 -1 144 -1 47 -1 #SUP: 2
28 -1 144 -1 116 -1 #SUP: 2
28 -1 144 -1 142 -1 #SUP: 2
28 -1 159 -1 28 -1 #SUP: 2
28 -1 160 -1 28 -1 #SUP: 2
28 -1 171 -1 28 -1 #SUP: 2
28 -1 171 -1 142 -1 #SUP: 2
28 -1 187 -1 39 -1 #SUP: 3
28 -1 187 -1 47 -1 #SUP: 2
28 -1 187 -1 125 -1 #SUP: 3
28 -1 187 -1 265 -1 #SUP: 2
28 -1 187 -1 270 -1 #SUP: 3
28 -1 190 -1 5 -1 #SUP: 2
28 -1 190 -1 1044 -1 #SUP: 2
28 -1 251 -1 28 -1 #SUP: 2
28 -1 265 -1 5 -1 #SUP: 2
28 -1 265 -1 39 -1 #SUP: 2
28 -1 265 -1 125 -1 #SUP: 2
28 -1 270 -1 28 -1 #SUP: 2
28 -1 270 -1 39 -1 #SUP: 3
28 -1 270 -1 125 -1 #SUP: 4
28 -1 376 -1 5 -1 #SUP: 2
28 -1 377 -1 28 -1 #SUP: 2
28 -1 402 -1 5 -1 #SUP: 2
28 -1 668 -1 28 -1 #SUP: 2
28 -1 668 -1 251 -1 #SUP: 2
28 -1 1044 -1 597 -1 #SUP: 2
28 -1 1106 -1 66 -1 #SUP: 2
28 -1 1106 -1 79 -1 #SUP: 2
28 -1 1231 -1 439 -1 #SUP: 2
32 -1 5 -1 5 -1 #SUP: 4
32 -1 5 -1 28 -1 #SUP: 2
32 -1 5 -1 39 -1 #SUP: 2
32 -1 5 -1 47 -1 #SUP: 2
32 -1 5 -1 71 -1 #SUP: 2
32 -1 5 -1 99 -1 #SUP: 2
32 -1 5 -1 119 -1 #SUP: 2
32 -1 5 -1 163 -1 #SUP: 2
32 -1 5 -1 190 -1 #SUP: 2
32 -1 5 -1 210 -1 #SUP: 2
32 -1 5 -1 270 -1 #SUP: 2
32 -1 5 -1 550 -1 #SUP: 2
32 -1 28 -1 47 -1 #SUP: 2
32 -1 28 -1 187 -1 #SUP: 2
32 -1 41 -1 28 -1 #SUP: 2
32 -1 41 -1 116 -1 #SUP: 2
32 -1 41 -1 526 -1 #SUP: 2
32 -1 47 -1 5 -1 #SUP: 2
32 -1 47 -1 66 -1 #SUP: 2
32 -1 47 -1 270 -1 #SUP: 2
32 -1 99 -1 163 -1 #SUP: 2
32 -1 124 -1 28 -1 #SUP: 2
32 -1 124 -1 41 -1 #SUP: 2
32 -1 124 -1 526 -1 #SUP: 2
32 -1 187 -1 39 -1 #SUP: 2
32 -1 187 -1 47 -1 #SUP: 2
32 -1 190 -1 28 -1 #SUP: 2
32 -1 270 -1 39 -1 #SUP: 2
32 -1 270 -1 125 -1 #SUP: 2
32 -1 270 -1 187 -1 #SUP: 2
32 -1 526 -1 28 -1 #SUP: 2
38 -1 5 -1 5 -1 #SUP: 2
38 -1 39 -1 28 -1 #SUP: 2
38 -1 190 -1 39 -1 #SUP: 2
38 -1 597 -1 5 -1 #SUP: 2
39 -1 11 -1 28 -1 #SUP: 2
39 -1 11 -1 32 -1 #SUP: 2
39 -1 39 -1 28 -1 #SUP: 2
39 -1 39 -1 580 -1 #SUP: 2
39 -1 47 -1 94 -1 #SUP: 2
39 -1 81 -1 128 -1 #SUP: 2
39 -1 125 -1 11 -1 #SUP: 2
39 -1 125 -1 28 -1 #SUP: 3
39 -1 125 -1 580 -1 #SUP: 2
40 -1 5 -1 2 -1 #SUP: 2
40 -1 5 -1 5 -1 #SUP: 2
40 -1 11 -1 32 -1 #SUP: 2
40 -1 28 -1 2 -1 #SUP: 2
40 -1 28 -1 5 -1 #SUP: 2
40 -1 28 -1 187 -1 #SUP: 2
40 -1 32 -1 28 -1 #SUP: 2
40 -1 32 -1 41 -1 #SUP: 2
40 -1 32 -1 124 -1 #SUP: 2
40 -1 32 -1 526 -1 #SUP: 2
40 -1 41 -1 28 -1 #SUP: 2
40 -1 41 -1 526 -1 #SUP: 2
40 -1 47 -1 5 -1 #SUP: 2
40 -1 124 -1 28 -1 #SUP: 2
40 -1 124 -1 41 -1 #SUP: 2
40 -1 124 -1 526 -1 #SUP: 2
40 -1 526 -1 28 -1 #SUP: 2
41 -1 5 -1 21 -1 #SUP: 2
41 -1 5 -1 28 -1 #SUP: 2
41 -1 28 -1 116 -1 #SUP: 2
41 -1 28 -1 187 -1 #SUP: 2
41 -1 28 -1 265 -1 #SUP: 2
41 -1 187 -1 265 -1 #SUP: 2
41 -1 265 -1 4521 -1 #SUP: 2
41 -1 270 -1 125 -1 #SUP: 2
41 -1 270 -1 265 -1 #SUP: 2
41 -1 526 -1 28 -1 #SUP: 3
41 -1 526 -1 187 -1 #SUP: 2
41 -1 526 -1 265 -1 #SUP: 2
47 -1 5 -1 5 -1 #SUP: 3
47 -1 5 -1 32 -1 #SUP: 2
47 -1 5 -1 89 -1 #SUP: 2
47 -1 5 -1 270 -1 #SUP: 2
47 -1 21 -1 125 -1 #SUP: 2
47 -1 38 -1 28 -1 #SUP: 2
47 -1 38 -1 47 -1 #SUP: 2
47 -1 39 -1 39 -1 #SUP: 2
47 -1 39 -1 125 -1 #SUP: 2
47 -1 47 -1 28 -1 #SUP: 2
47 -1 94 -1 39 -1 #SUP: 2
47 -1 94 -1 47 -1 #SUP: 2
47 -1 94 -1 125 -1 #SUP: 3
47 -1 94 -1 270 -1 #SUP: 3
47 -1 270 -1 39 -1 #SUP: 2
47 -1 270 -1 89 -1 #SUP: 2
47 -1 270 -1 125 -1 #SUP: 3
47 -1 376 -1 5 -1 #SUP: 2
49 -1 5 -1 2 -1 #SUP: 2
49 -1 28 -1 39 -1 #SUP: 2
49 -1 40 -1 5 -1 #SUP: 2
49 -1 251 -1 28 -1 #SUP: 2
49 -1 251 -1 39 -1 #SUP: 2
65 -1 699 -1 128 -1 #SUP: 2
66 -1 5 -1 5 -1 #SUP: 2
66 -1 5 -1 17 -1 #SUP: 2
66 -1 5 -1 28 -1 #SUP: 2
66 -1 5 -1 299 -1 #SUP: 2
66 -1 28 -1 142 -1 #SUP: 2
66 -1 47 -1 5 -1 #SUP: 2
66 -1 125 -1 28 -1 #SUP: 2
66 -1 125 -1 140 -1 #SUP: 2
66 -1 162 -1 179 -1 #SUP: 2
66 -1 377 -1 28 -1 #SUP: 2
71 -1 5 -1 5 -1 #SUP: 2
71 -1 5 -1 21384 -1 #SUP: 2
71 -1 32 -1 5 -1 #SUP: 2
71 -1 47 -1 5 -1 #SUP: 2
71 -1 47 -1 210 -1 #SUP: 2
71 -1 21384 -1 5 -1 #SUP: 2
79 -1 5 -1 5 -1 #SUP: 2
79 -1 5 -1 28 -1 #SUP: 2
79 -1 28 -1 5 -1 #SUP: 2
79 -1 28 -1 28 -1 #SUP: 2
81 -1 5 -1 28 -1 #SUP: 3
81 -1 17 -1 28 -1 #SUP: 2
81 -1 17 -1 128 -1 #SUP: 2
81 -1 28 -1 128 -1 #SUP: 2
81 -1 41 -1 5 -1 #SUP: 2
81 -1 41 -1 28 -1 #SUP: 2
81 -1 125 -1 28 -1 #SUP: 2
81 -1 125 -1 172 -1 #SUP: 2
81 -1 128 -1 5 -1 #SUP: 3
81 -1 128 -1 28 -1 #SUP: 3
81 -1 128 -1 41 -1 #SUP: 2
81 -1 137 -1 28 -1 #SUP: 2
81 -1 137 -1 128 -1 #SUP: 2
81 -1 142 -1 5 -1 #SUP: 2
81 -1 142 -1 28 -1 #SUP: 2
81 -1 142 -1 128 -1 #SUP: 2
81 -1 172 -1 28 -1 #SUP: 2
89 -1 39 -1 28 -1 #SUP: 2
89 -1 142 -1 111 -1 #SUP: 2
89 -1 159 -1 111 -1 #SUP: 2
89 -1 159 -1 142 -1 #SUP: 2
92 -1 5 -1 4 -1 #SUP: 2
92 -1 5 -1 28 -1 #SUP: 2
92 -1 21 -1 5 -1 #SUP: 2
92 -1 21 -1 407 -1 #SUP: 2
92 -1 28 -1 4 -1 #SUP: 2
92 -1 28 -1 39 -1 #SUP: 2
92 -1 28 -1 92 -1 #SUP: 2
92 -1 39 -1 849 -1 #SUP: 2
92 -1 41 -1 265 -1 #SUP: 2
92 -1 41 -1 4521 -1 #SUP: 2
92 -1 92 -1 4 -1 #SUP: 2
92 -1 92 -1 5 -1 #SUP: 2
92 -1 106 -1 28 -1 #SUP: 2
92 -1 106 -1 144 -1 #SUP: 2
92 -1 124 -1 41 -1 #SUP: 2
92 -1 124 -1 265 -1 #SUP: 2
92 -1 124 -1 4521 -1 #SUP: 2
92 -1 125 -1 5 -1 #SUP: 2
92 -1 125 -1 39 -1 #SUP: 2
92 -1 142 -1 28 -1 #SUP: 2
92 -1 142 -1 106 -1 #SUP: 2
92 -1 142 -1 144 -1 #SUP: 2
92 -1 265 -1 4521 -1 #SUP: 2
92 -1 407 -1 5 -1 #SUP: 2
94 -1 39 -1 39 -1 #SUP: 2
94 -1 39 -1 125 -1 #SUP: 2
94 -1 270 -1 39 -1 #SUP: 2
94 -1 270 -1 125 -1 #SUP: 2
105 -1 5 -1 39 -1 #SUP: 2
105 -1 5 -1 49 -1 #SUP: 2
105 -1 5 -1 377 -1 #SUP: 2
105 -1 49 -1 377 -1 #SUP: 2
105 -1 368 -1 49 -1 #SUP: 2
105 -1 368 -1 377 -1 #SUP: 2
105 -1 661 -1 5 -1 #SUP: 2
105 -1 661 -1 49 -1 #SUP: 2
105 -1 661 -1 368 -1 #SUP: 2
105 -1 661 -1 377 -1 #SUP: 2
113 -1 5 -1 5 -1 #SUP: 2
113 -1 47 -1 5 -1 #SUP: 2
116 -1 5 -1 5 -1 #SUP: 4
116 -1 5 -1 18 -1 #SUP: 2
116 -1 5 -1 28 -1 #SUP: 2
116 -1 5 -1 102 -1 #SUP: 2
116 -1 5 -1 190 -1 #SUP: 2
116 -1 14 -1 5 -1 #SUP: 2
116 -1 38 -1 5 -1 #SUP: 2
116 -1 102 -1 5 -1 #SUP: 2
116 -1 190 -1 5 -1 #SUP: 2
124 -1 28 -1 92 -1 #SUP: 2
124 -1 28 -1 187 -1 #SUP: 2
124 -1 28 -1 265 -1 #SUP: 2
124 -1 41 -1 28 -1 #SUP: 3
124 -1 41 -1 125 -1 #SUP: 2
124 -1 41 -1 187 -1 #SUP: 2
124 -1 41 -1 265 -1 #SUP: 3
124 -1 41 -1 270 -1 #SUP: 2
124 -1 41 -1 526 -1 #SUP: 3
124 -1 41 -1 4521 -1 #SUP: 2
124 -1 61 -1 5 -1 #SUP: 2
124 -1 66 -1 1148 -1 #SUP: 2
124 -1 92 -1 41 -1 #SUP: 2
124 -1 92 -1 124 -1 #SUP: 2
124 -1 92 -1 265 -1 #SUP: 2
124 -1 124 -1 41 -1 #SUP: 2
124 -1 124 -1 124 -1 #SUP: 2
124 -1 124 -1 125 -1 #SUP: 2
124 -1 124 -1 265 -1 #SUP: 2
124 -1 124 -1 4521 -1 #SUP: 2
124 -1 125 -1 5 -1 #SUP: 2
124 -1 125 -1 47 -1 #SUP: 2
124 -1 187 -1 265 -1 #SUP: 2
124 -1 222 -1 128 -1 #SUP: 2
124 -1 265 -1 4521 -1 #SUP: 2
124 -1 270 -1 125 -1 #SUP: 2
124 -1 270 -1 265 -1 #SUP: 2
124 -1 526 -1 28 -1 #SUP: 3
124 -1 526 -1 187 -1 #SUP: 2
124 -1 526 -1 265 -1 #SUP: 2
124 -1 1148 -1 5 -1 #SUP: 2
125 -1 5 -1 2 -1 #SUP: 2
125 -1 5 -1 11 -1 #SUP: 2
125 -1 5 -1 32 -1 #SUP: 2
125 -1 5 -1 125 -1 #SUP: 2
125 -1 5 -1 270 -1 #SUP: 2
125 -1 5 -1 299 -1 #SUP: 2
125 -1 11 -1 32 -1 #SUP: 3
125 -1 22 -1 11 -1 #SUP: 2
125 -1 22 -1 32 -1 #SUP: 2
125 -1 22 -1 47 -1 #SUP: 2
125 -1 28 -1 28 -1 #SUP: 2
125 -1 28 -1 39 -1 #SUP: 2
125 -1 28 -1 47 -1 #SUP: 2
125 -1 28 -1 94 -1 #SUP: 2
125 -1 28 -1 125 -1 #SUP: 3
125 -1 28 -1 142 -1 #SUP: 2
125 -1 28 -1 187 -1 #SUP: 2
125 -1 39 -1 28 -1 #SUP: 2
125 -1 39 -1 47 -1 #SUP: 2
125 -1 39 -1 89 -1 #SUP: 2
125 -1 39 -1 125 -1 #SUP: 3
125 -1 47 -1 47 -1 #SUP: 2
125 -1 47 -1 94 -1 #SUP: 2
125 -1 66 -1 162 -1 #SUP: 2
125 -1 66 -1 179 -1 #SUP: 2
125 -1 125 -1 28 -1 #SUP: 2
125 -1 128 -1 5 -1 #SUP: 2
125 -1 162 -1 179 -1 #SUP: 2
125 -1 172 -1 28 -1 #SUP: 2
125 -1 172 -1 125 -1 #SUP: 2
125 -1 179 -1 125 -1 #SUP: 2
125 -1 187 -1 47 -1 #SUP: 2
125 -1 265 -1 125 -1 #SUP: 2
125 -1 265 -1 179 -1 #SUP: 2
125 -1 270 -1 125 -1 #SUP: 2
125 -1 824 -1 28 -1 #SUP: 2
125 -1 824 -1 39 -1 #SUP: 2
125 -1 824 -1 125 -1 #SUP: 2
125 -1 1198 -1 125 -1 #SUP: 2
128 -1 5 -1 18 -1 #SUP: 2
128 -1 5 -1 28 -1 #SUP: 3
128 -1 5 -1 116 -1 #SUP: 2
128 -1 18 -1 21 -1 #SUP: 2
128 -1 18 -1 28 -1 #SUP: 2
128 -1 18 -1 171 -1 #SUP: 2
128 -1 21 -1 5 -1 #SUP: 2
128 -1 21 -1 171 -1 #SUP: 2
128 -1 28 -1 116 -1 #SUP: 2
128 -1 41 -1 5 -1 #SUP: 2
128 -1 41 -1 28 -1 #SUP: 2
128 -1 92 -1 18 -1 #SUP: 2
128 -1 92 -1 38 -1 #SUP: 2
137 -1 5 -1 18 -1 #SUP: 2
137 -1 71 -1 47 -1 #SUP: 2
140 -1 5 -1 299 -1 #SUP: 2
140 -1 14 -1 376 -1 #SUP: 2
140 -1 38 -1 5 -1 #SUP: 2
140 -1 445 -1 445 -1 #SUP: 2
140 -1 10278 -1 194 -1 #SUP: 2
142 -1 5 -1 4 -1 #SUP: 2
142 -1 5 -1 5 -1 #SUP: 2
142 -1 5 -1 17 -1 #SUP: 3
142 -1 5 -1 28 -1 #SUP: 4
142 -1 5 -1 49 -1 #SUP: 2
142 -1 5 -1 66 -1 #SUP: 2
142 -1 5 -1 190 -1 #SUP: 2
142 -1 11 -1 32 -1 #SUP: 2
142 -1 28 -1 4 -1 #SUP: 2
142 -1 28 -1 5 -1 #SUP: 3
142 -1 28 -1 28 -1 #SUP: 4
142 -1 28 -1 38 -1 #SUP: 2
142 -1 28 -1 47 -1 #SUP: 2
142 -1 28 -1 116 -1 #SUP: 3
142 -1 28 -1 142 -1 #SUP: 3
142 -1 28 -1 144 -1 #SUP: 2
142 -1 38 -1 377 -1 #SUP: 2
142 -1 49 -1 28 -1 #SUP: 2
142 -1 106 -1 5 -1 #SUP: 2
142 -1 106 -1 18 -1 #SUP: 2
142 -1 106 -1 28 -1 #SUP: 3
142 -1 106 -1 47 -1 #SUP: 2
142 -1 106 -1 142 -1 #SUP: 2
142 -1 106 -1 144 -1 #SUP: 2
142 -1 106 -1 377 -1 #SUP: 2
142 -1 128 -1 5 -1 #SUP: 3
142 -1 128 -1 28 -1 #SUP: 2
142 -1 128 -1 41 -1 #SUP: 2
142 -1 142 -1 28 -1 #SUP: 2
142 -1 142 -1 159 -1 #SUP: 2
142 -1 144 -1 28 -1 #SUP: 3
142 -1 144 -1 47 -1 #SUP: 2
142 -1 144 -1 142 -1 #SUP: 2
142 -1 159 -1 28 -1 #SUP: 2
142 -1 251 -1 28 -1 #SUP: 3
142 -1 288 -1 28 -1 #SUP: 2
142 -1 288 -1 251 -1 #SUP: 2
144 -1 28 -1 116 -1 #SUP: 2
144 -1 47 -1 116 -1 #SUP: 2
159 -1 142 -1 111 -1 #SUP: 2
171 -1 142 -1 28 -1 #SUP: 2
171 -1 270 -1 210 -1 #SUP: 2
172 -1 28 -1 125 -1 #SUP: 2
187 -1 21 -1 27 -1 #SUP: 2
187 -1 21 -1 28 -1 #SUP: 2
187 -1 39 -1 39 -1 #SUP: 2
187 -1 39 -1 125 -1 #SUP: 2
187 -1 41 -1 5 -1 #SUP: 2
187 -1 47 -1 39 -1 #SUP: 2
187 -1 47 -1 125 -1 #SUP: 2
187 -1 47 -1 270 -1 #SUP: 2
187 -1 125 -1 39 -1 #SUP: 2
187 -1 265 -1 39 -1 #SUP: 2
187 -1 265 -1 125 -1 #SUP: 2
187 -1 270 -1 39 -1 #SUP: 3
187 -1 270 -1 125 -1 #SUP: 3
187 -1 550 -1 5 -1 #SUP: 2
190 -1 5 -1 17 -1 #SUP: 2
190 -1 5 -1 18 -1 #SUP: 3
190 -1 5 -1 28 -1 #SUP: 2
190 -1 5 -1 39 -1 #SUP: 4
190 -1 5 -1 81 -1 #SUP: 3
190 -1 5 -1 99 -1 #SUP: 2
190 -1 5 -1 119 -1 #SUP: 2
190 -1 5 -1 128 -1 #SUP: 3
190 -1 5 -1 190 -1 #SUP: 2
190 -1 5 -1 225 -1 #SUP: 2
190 -1 5 -1 8155 -1 #SUP: 2
190 -1 17 -1 128 -1 #SUP: 2
190 -1 18 -1 17 -1 #SUP: 2
190 -1 18 -1 39 -1 #SUP: 2
190 -1 18 -1 81 -1 #SUP: 3
190 -1 18 -1 128 -1 #SUP: 3
190 -1 18 -1 8155 -1 #SUP: 2
190 -1 21 -1 5 -1 #SUP: 2
190 -1 21 -1 28 -1 #SUP: 3
190 -1 21 -1 135 -1 #SUP: 3
190 -1 21 -1 267 -1 #SUP: 2
190 -1 28 -1 5 -1 #SUP: 3
190 -1 28 -1 28 -1 #SUP: 2
190 -1 28 -1 32 -1 #SUP: 2
190 -1 28 -1 135 -1 #SUP: 3
190 -1 28 -1 190 -1 #SUP: 2
190 -1 28 -1 1044 -1 #SUP: 2
190 -1 32 -1 5 -1 #SUP: 2
190 -1 32 -1 9 -1 #SUP: 2
190 -1 32 -1 119 -1 #SUP: 2
190 -1 39 -1 28 -1 #SUP: 2
190 -1 39 -1 81 -1 #SUP: 2
190 -1 39 -1 128 -1 #SUP: 2
190 -1 81 -1 17 -1 #SUP: 2
190 -1 81 -1 128 -1 #SUP: 3
190 -1 135 -1 5 -1 #SUP: 2
190 -1 135 -1 28 -1 #SUP: 2
190 -1 225 -1 18 -1 #SUP: 2
190 -1 225 -1 39 -1 #SUP: 2
190 -1 225 -1 81 -1 #SUP: 2
190 -1 225 -1 128 -1 #SUP: 2
190 -1 225 -1 8155 -1 #SUP: 2
190 -1 267 -1 28 -1 #SUP: 2
190 -1 267 -1 135 -1 #SUP: 2
190 -1 376 -1 5 -1 #SUP: 2
190 -1 8155 -1 39 -1 #SUP: 2
190 -1 8155 -1 81 -1 #SUP: 2
190 -1 8155 -1 128 -1 #SUP: 2
203 -1 5 -1 39 -1 #SUP: 2
203 -1 5 -1 187 -1 #SUP: 2
203 -1 5 -1 270 -1 #SUP: 2
203 -1 14 -1 47 -1 #SUP: 2
203 -1 28 -1 5 -1 #SUP: 3
203 -1 28 -1 142 -1 #SUP: 2
203 -1 28 -1 270 -1 #SUP: 2
203 -1 47 -1 5 -1 #SUP: 2
203 -1 142 -1 5 -1 #SUP: 2
203 -1 142 -1 28 -1 #SUP: 2
210 -1 377 -1 32 -1 #SUP: 2
210 -1 4171 -1 32 -1 #SUP: 2
214 -1 5 -1 28 -1 #SUP: 2
214 -1 5 -1 116 -1 #SUP: 2
214 -1 28 -1 5 -1 #SUP: 2
214 -1 28 -1 116 -1 #SUP: 2
225 -1 18 -1 39 -1 #SUP: 2
225 -1 18 -1 81 -1 #SUP: 2
225 -1 18 -1 128 -1 #SUP: 2
225 -1 18 -1 8155 -1 #SUP: 2
225 -1 39 -1 28 -1 #SUP: 2
225 -1 39 -1 81 -1 #SUP: 2
225 -1 39 -1 128 -1 #SUP: 2
225 -1 81 -1 128 -1 #SUP: 2
225 -1 89 -1 49 -1 #SUP: 2
225 -1 137 -1 28 -1 #SUP: 2
225 -1 190 -1 28 -1 #SUP: 2
225 -1 376 -1 5 -1 #SUP: 2
225 -1 8155 -1 39 -1 #SUP: 2
225 -1 8155 -1 81 -1 #SUP: 2
225 -1 8155 -1 128 -1 #SUP: 2
226 -1 2 -1 3014 -1 #SUP: 2
226 -1 2 -1 5269 -1 #SUP: 2
226 -1 5269 -1 32 -1 #SUP: 2
226 -1 5269 -1 3014 -1 #SUP: 2
230 -1 5 -1 2 -1 #SUP: 2
230 -1 5 -1 5 -1 #SUP: 4
230 -1 5 -1 17 -1 #SUP: 2
230 -1 5 -1 28 -1 #SUP: 2
230 -1 5 -1 38 -1 #SUP: 3
230 -1 5 -1 99 -1 #SUP: 2
230 -1 5 -1 140 -1 #SUP: 2
230 -1 5 -1 190 -1 #SUP: 2
230 -1 5 -1 225 -1 #SUP: 2
230 -1 5 -1 226 -1 #SUP: 2
230 -1 5 -1 302 -1 #SUP: 2
230 -1 5 -1 376 -1 #SUP: 3
230 -1 38 -1 5 -1 #SUP: 2
230 -1 190 -1 28 -1 #SUP: 2
230 -1 225 -1 5 -1 #SUP: 2
230 -1 225 -1 140 -1 #SUP: 2
230 -1 225 -1 376 -1 #SUP: 2
230 -1 376 -1 5 -1 #SUP: 3
230 -1 376 -1 99 -1 #SUP: 2
251 -1 28 -1 28 -1 #SUP: 2
251 -1 28 -1 39 -1 #SUP: 2
251 -1 28 -1 142 -1 #SUP: 2
251 -1 28 -1 171 -1 #SUP: 2
251 -1 28 -1 439 -1 #SUP: 2
251 -1 28 -1 1231 -1 #SUP: 2
251 -1 142 -1 28 -1 #SUP: 2
251 -1 171 -1 28 -1 #SUP: 2
251 -1 171 -1 142 -1 #SUP: 2
251 -1 1231 -1 439 -1 #SUP: 2
265 -1 5 -1 299 -1 #SUP: 2
265 -1 28 -1 142 -1 #SUP: 2
265 -1 39 -1 89 -1 #SUP: 2
265 -1 66 -1 162 -1 #SUP: 2
265 -1 66 -1 179 -1 #SUP: 2
265 -1 125 -1 2 -1 #SUP: 2
265 -1 125 -1 5 -1 #SUP: 2
265 -1 125 -1 21 -1 #SUP: 2
265 -1 125 -1 39 -1 #SUP: 2
265 -1 125 -1 66 -1 #SUP: 2
265 -1 125 -1 89 -1 #SUP: 2
265 -1 125 -1 125 -1 #SUP: 2
265 -1 125 -1 162 -1 #SUP: 2
265 -1 125 -1 179 -1 #SUP: 2
265 -1 162 -1 179 -1 #SUP: 3
265 -1 179 -1 125 -1 #SUP: 2
265 -1 265 -1 125 -1 #SUP: 2
265 -1 270 -1 125 -1 #SUP: 2
266 -1 28 -1 47 -1 #SUP: 2
266 -1 28 -1 106 -1 #SUP: 2
266 -1 28 -1 142 -1 #SUP: 2
266 -1 106 -1 47 -1 #SUP: 2
266 -1 142 -1 47 -1 #SUP: 2
266 -1 142 -1 106 -1 #SUP: 2
267 -1 5 -1 190 -1 #SUP: 2
267 -1 28 -1 28 -1 #SUP: 2
267 -1 28 -1 135 -1 #SUP: 2
267 -1 135 -1 28 -1 #SUP: 2
270 -1 39 -1 39 -1 #SUP: 2
270 -1 39 -1 125 -1 #SUP: 2
270 -1 125 -1 28 -1 #SUP: 2
270 -1 125 -1 39 -1 #SUP: 2
270 -1 125 -1 47 -1 #SUP: 2
270 -1 125 -1 1198 -1 #SUP: 2
288 -1 28 -1 28 -1 #SUP: 2
288 -1 251 -1 28 -1 #SUP: 2
299 -1 125 -1 28 -1 #SUP: 2
299 -1 265 -1 28 -1 #SUP: 2
325 -1 5 -1 39 -1 #SUP: 2
325 -1 32 -1 5 -1 #SUP: 2
325 -1 32 -1 39 -1 #SUP: 2
325 -1 105 -1 5 -1 #SUP: 2
325 -1 105 -1 39 -1 #SUP: 2
335 -1 190 -1 28 -1 #SUP: 2
336 -1 5 -1 5 -1 #SUP: 2
336 -1 6 -1 71 -1 #SUP: 2
368 -1 49 -1 28 -1 #SUP: 2
368 -1 49 -1 377 -1 #SUP: 2
376 -1 5 -1 5 -1 #SUP: 3
376 -1 99 -1 5 -1 #SUP: 2
377 -1 28 -1 47 -1 #SUP: 2
383 -1 5 -1 47 -1 #SUP: 2
383 -1 5 -1 71 -1 #SUP: 2
383 -1 5 -1 210 -1 #SUP: 2
383 -1 47 -1 5 -1 #SUP: 2
383 -1 47 -1 210 -1 #SUP: 2
383 -1 71 -1 47 -1 #SUP: 2
383 -1 71 -1 210 -1 #SUP: 2
445 -1 445 -1 445 -1 #SUP: 2
467 -1 526 -1 28 -1 #SUP: 2
470 -1 5 -1 102 -1 #SUP: 2
493 -1 32 -1 5 -1 #SUP: 2
493 -1 105 -1 5 -1 #SUP: 2
493 -1 325 -1 5 -1 #SUP: 2
493 -1 325 -1 32 -1 #SUP: 2
493 -1 325 -1 105 -1 #SUP: 2
526 -1 28 -1 5 -1 #SUP: 2
526 -1 28 -1 38 -1 #SUP: 2
526 -1 28 -1 116 -1 #SUP: 3
526 -1 28 -1 125 -1 #SUP: 2
526 -1 28 -1 187 -1 #SUP: 2
526 -1 28 -1 265 -1 #SUP: 3
526 -1 28 -1 270 -1 #SUP: 2
526 -1 116 -1 38 -1 #SUP: 2
526 -1 187 -1 125 -1 #SUP: 2
526 -1 187 -1 265 -1 #SUP: 2
526 -1 187 -1 270 -1 #SUP: 2
526 -1 265 -1 5 -1 #SUP: 2
526 -1 265 -1 125 -1 #SUP: 2
526 -1 270 -1 125 -1 #SUP: 2
550 -1 5 -1 18 -1 #SUP: 2
550 -1 5 -1 28 -1 #SUP: 2
550 -1 5 -1 171 -1 #SUP: 2
550 -1 71 -1 5 -1 #SUP: 2
550 -1 137 -1 39 -1 #SUP: 2
550 -1 190 -1 28 -1 #SUP: 2
661 -1 5 -1 49 -1 #SUP: 2
661 -1 5 -1 377 -1 #SUP: 2
661 -1 49 -1 377 -1 #SUP: 2
661 -1 368 -1 49 -1 #SUP: 2
661 -1 368 -1 377 -1 #SUP: 2
668 -1 28 -1 28 -1 #SUP: 2
668 -1 28 -1 251 -1 #SUP: 2
668 -1 251 -1 28 -1 #SUP: 2
699 -1 5 -1 11 -1 #SUP: 2
699 -1 128 -1 11 -1 #SUP: 2
767 -1 66 -1 142 -1 #SUP: 2
824 -1 28 -1 39 -1 #SUP: 2
824 -1 28 -1 125 -1 #SUP: 2
824 -1 39 -1 125 -1 #SUP: 2
1106 -1 66 -1 79 -1 #SUP: 2
1198 -1 125 -1 39 -1 #SUP: 2
1272 -1 32 -1 1425 -1 #SUP: 2
4171 -1 5 -1 5 -1 #SUP: 2
4171 -1 5 -1 230 -1 #SUP: 2
4171 -1 230 -1 5 -1 #SUP: 2
4521 -1 125 -1 2 -1 #SUP: 2
4521 -1 125 -1 39 -1 #SUP: 2
8155 -1 39 -1 81 -1 #SUP: 2
8155 -1 39 -1 128 -1 #SUP: 2
8155 -1 81 -1 128 -1 #SUP: 2
21384 -1 5 -1 5 -1 #SUP: 2
2 -1 124 -1 66 -1 1148 -1 #SUP: 2
5 -1 2 -1 66 -1 1148 -1 #SUP: 2
5 -1 2 -1 124 -1 66 -1 #SUP: 2
5 -1 2 -1 124 -1 1148 -1 #SUP: 2
5 -1 5 -1 5 -1 5 -1 #SUP: 4
5 -1 5 -1 5 -1 65 -1 #SUP: 2
5 -1 5 -1 5 -1 89 -1 #SUP: 2
5 -1 5 -1 5 -1 230 -1 #SUP: 2
5 -1 5 -1 5 -1 550 -1 #SUP: 2
5 -1 5 -1 11 -1 32 -1 #SUP: 2
5 -1 5 -1 17 -1 28 -1 #SUP: 2
5 -1 5 -1 17 -1 128 -1 #SUP: 3
5 -1 5 -1 18 -1 17 -1 #SUP: 2
5 -1 5 -1 18 -1 21 -1 #SUP: 2
5 -1 5 -1 18 -1 28 -1 #SUP: 2
5 -1 5 -1 18 -1 39 -1 #SUP: 2
5 -1 5 -1 18 -1 81 -1 #SUP: 3
5 -1 5 -1 18 -1 128 -1 #SUP: 3
5 -1 5 -1 18 -1 8155 -1 #SUP: 2
5 -1 5 -1 28 -1 5 -1 #SUP: 2
5 -1 5 -1 28 -1 116 -1 #SUP: 2
5 -1 5 -1 38 -1 5 -1 #SUP: 3
5 -1 5 -1 39 -1 81 -1 #SUP: 2
5 -1 5 -1 39 -1 128 -1 #SUP: 2
5 -1 5 -1 47 -1 5 -1 #SUP: 2
5 -1 5 -1 71 -1 5 -1 #SUP: 2
5 -1 5 -1 81 -1 17 -1 #SUP: 2
5 -1 5 -1 81 -1 128 -1 #SUP: 3
5 -1 5 -1 99 -1 5 -1 #SUP: 2
5 -1 5 -1 99 -1 18 -1 #SUP: 2
5 -1 5 -1 99 -1 28 -1 #SUP: 2
5 -1 5 -1 99 -1 116 -1 #SUP: 2
5 -1 5 -1 124 -1 1148 -1 #SUP: 2
5 -1 5 -1 140 -1 2 -1 #SUP: 2
5 -1 5 -1 171 -1 270 -1 #SUP: 2
5 -1 5 -1 190 -1 5 -1 #SUP: 2
5 -1 5 -1 190 -1 21 -1 #SUP: 2
5 -1 5 -1 190 -1 28 -1 #SUP: 2
5 -1 5 -1 225 -1 5 -1 #SUP: 2
5 -1 5 -1 225 -1 18 -1 #SUP: 2
5 -1 5 -1 225 -1 28 -1 #SUP: 2
5 -1 5 -1 225 -1 39 -1 #SUP: 2
5 -1 5 -1 225 -1 81 -1 #SUP: 2
5 -1 5 -1 225 -1 89 -1 #SUP: 2
5 -1 5 -1 225 -1 128 -1 #SUP: 2
5 -1 5 -1 225 -1 140 -1 #SUP: 2
5 -1 5 -1 225 -1 376 -1 #SUP: 2
5 -1 5 -1 225 -1 8155 -1 #SUP: 2
5 -1 5 -1 230 -1 5 -1 #SUP: 2
5 -1 5 -1 376 -1 5 -1 #SUP: 3
5 -1 5 -1 376 -1 99 -1 #SUP: 2
5 -1 5 -1 550 -1 5 -1 #SUP: 2
5 -1 5 -1 1044 -1 597 -1 #SUP: 2
5 -1 5 -1 8155 -1 39 -1 #SUP: 2
5 -1 5 -1 8155 -1 81 -1 #SUP: 2
5 -1 5 -1 8155 -1 128 -1 #SUP: 2
5 -1 5 -1 21384 -1 5 -1 #SUP: 2
5 -1 11 -1 32 -1 124 -1 #SUP: 2
5 -1 14 -1 376 -1 5 -1 #SUP: 2
5 -1 17 -1 28 -1 66 -1 #SUP: 2
5 -1 17 -1 28 -1 79 -1 #SUP: 2
5 -1 17 -1 28 -1 1106 -1 #SUP: 2
5 -1 17 -1 66 -1 79 -1 #SUP: 2
5 -1 17 -1 1106 -1 66 -1 #SUP: 2
5 -1 17 -1 1106 -1 79 -1 #SUP: 2
5 -1 18 -1 11 -1 32 -1 #SUP: 2
5 -1 18 -1 17 -1 128 -1 #SUP: 2
5 -1 18 -1 21 -1 28 -1 #SUP: 2
5 -1 18 -1 39 -1 81 -1 #SUP: 2
5 -1 18 -1 39 -1 128 -1 #SUP: 2
5 -1 18 -1 81 -1 17 -1 #SUP: 2
5 -1 18 -1 81 -1 128 -1 #SUP: 3
5 -1 18 -1 8155 -1 39 -1 #SUP: 2
5 -1 18 -1 8155 -1 81 -1 #SUP: 2
5 -1 18 -1 8155 -1 128 -1 #SUP: 2
5 -1 21 -1 28 -1 5 -1 #SUP: 2
5 -1 21 -1 28 -1 28 -1 #SUP: 2
5 -1 21 -1 28 -1 135 -1 #SUP: 3
5 -1 21 -1 135 -1 5 -1 #SUP: 2
5 -1 21 -1 135 -1 28 -1 #SUP: 2
5 -1 21 -1 267 -1 28 -1 #SUP: 2
5 -1 21 -1 267 -1 135 -1 #SUP: 2
5 -1 27 -1 5 -1 171 -1 #SUP: 2
5 -1 27 -1 5 -1 270 -1 #SUP: 2
5 -1 27 -1 171 -1 270 -1 #SUP: 2
5 -1 28 -1 5 -1 21 -1 #SUP: 2
5 -1 28 -1 5 -1 102 -1 #SUP: 2
5 -1 28 -1 5 -1 190 -1 #SUP: 2
5 -1 28 -1 28 -1 5 -1 #SUP: 2
5 -1 28 -1 28 -1 116 -1 #SUP: 2
5 -1 28 -1 28 -1 142 -1 #SUP: 2
5 -1 28 -1 66 -1 79 -1 #SUP: 2
5 -1 28 -1 116 -1 5 -1 #SUP: 2
5 -1 28 -1 116 -1 21 -1 #SUP: 2
5 -1 28 -1 116 -1 61 -1 #SUP: 2
5 -1 28 -1 135 -1 5 -1 #SUP: 2
5 -1 28 -1 135 -1 28 -1 #SUP: 2
5 -1 28 -1 142 -1 144 -1 #SUP: 2
5 -1 28 -1 1044 -1 597 -1 #SUP: 2
5 -1 28 -1 1106 -1 66 -1 #SUP: 2
5 -1 28 -1 1106 -1 79 -1 #SUP: 2
5 -1 32 -1 5 -1 5 -1 #SUP: 2
5 -1 32 -1 5 -1 119 -1 #SUP: 2
5 -1 32 -1 5 -1 190 -1 #SUP: 2
5 -1 32 -1 41 -1 526 -1 #SUP: 2
5 -1 32 -1 124 -1 41 -1 #SUP: 2
5 -1 32 -1 124 -1 526 -1 #SUP: 2
5 -1 39 -1 81 -1 128 -1 #SUP: 2
5 -1 40 -1 32 -1 41 -1 #SUP: 2
5 -1 40 -1 32 -1 124 -1 #SUP: 2
5 -1 40 -1 32 -1 526 -1 #SUP: 2
5 -1 40 -1 41 -1 526 -1 #SUP: 2
5 -1 40 -1 124 -1 41 -1 #SUP: 2
5 -1 40 -1 124 -1 526 -1 #SUP: 2
5 -1 47 -1 5 -1 89 -1 #SUP: 2
5 -1 49 -1 28 -1 39 -1 #SUP: 2
5 -1 49 -1 251 -1 28 -1 #SUP: 2
5 -1 49 -1 251 -1 39 -1 #SUP: 2
5 -1 71 -1 5 -1 5 -1 #SUP: 2
5 -1 71 -1 5 -1 21384 -1 #SUP: 2
5 -1 71 -1 32 -1 5 -1 #SUP: 2
5 -1 71 -1 47 -1 210 -1 #SUP: 2
5 -1 71 -1 21384 -1 5 -1 #SUP: 2
5 -1 81 -1 17 -1 128 -1 #SUP: 2
5 -1 81 -1 28 -1 128 -1 #SUP: 2
5 -1 81 -1 125 -1 172 -1 #SUP: 2
5 -1 81 -1 128 -1 5 -1 #SUP: 2
5 -1 81 -1 128 -1 41 -1 #SUP: 2
5 -1 81 -1 137 -1 128 -1 #SUP: 2
5 -1 81 -1 142 -1 128 -1 #SUP: 2
5 -1 92 -1 5 -1 28 -1 #SUP: 2
5 -1 92 -1 28 -1 39 -1 #SUP: 2
5 -1 113 -1 47 -1 5 -1 #SUP: 2
5 -1 116 -1 5 -1 102 -1 #SUP: 2
5 -1 124 -1 41 -1 526 -1 #SUP: 2
5 -1 124 -1 66 -1 1148 -1 #SUP: 2
5 -1 124 -1 1148 -1 5 -1 #SUP: 2
5 -1 140 -1 14 -1 376 -1 #SUP: 2
5 -1 140 -1 445 -1 445 -1 #SUP: 2
5 -1 171 -1 270 -1 210 -1 #SUP: 2
5 -1 190 -1 5 -1 17 -1 #SUP: 2
5 -1 190 -1 5 -1 18 -1 #SUP: 3
5 -1 190 -1 5 -1 39 -1 #SUP: 3
5 -1 190 -1 5 -1 81 -1 #SUP: 3
5 -1 190 -1 5 -1 119 -1 #SUP: 2
5 -1 190 -1 5 -1 128 -1 #SUP: 3
5 -1 190 -1 5 -1 190 -1 #SUP: 2
5 -1 190 -1 5 -1 225 -1 #SUP: 2
5 -1 190 -1 5 -1 8155 -1 #SUP: 2
5 -1 190 -1 17 -1 128 -1 #SUP: 2
5 -1 190 -1 18 -1 17 -1 #SUP: 2
5 -1 190 -1 18 -1 39 -1 #SUP: 2
5 -1 190 -1 18 -1 81 -1 #SUP: 3
5 -1 190 -1 18 -1 128 -1 #SUP: 3
5 -1 190 -1 18 -1 8155 -1 #SUP: 2
5 -1 190 -1 21 -1 5 -1 #SUP: 2
5 -1 190 -1 21 -1 28 -1 #SUP: 3
5 -1 190 -1 21 -1 135 -1 #SUP: 3
5 -1 190 -1 21 -1 267 -1 #SUP: 2
5 -1 190 -1 28 -1 5 -1 #SUP: 3
5 -1 190 -1 28 -1 28 -1 #SUP: 2
5 -1 190 -1 28 -1 32 -1 #SUP: 2
5 -1 190 -1 28 -1 135 -1 #SUP: 3
5 -1 190 -1 28 -1 190 -1 #SUP: 2
5 -1 190 -1 28 -1 1044 -1 #SUP: 2
5 -1 190 -1 32 -1 5 -1 #SUP: 2
5 -1 190 -1 32 -1 9 -1 #SUP: 2
5 -1 190 -1 32 -1 119 -1 #SUP: 2
5 -1 190 -1 39 -1 28 -1 #SUP: 2
5 -1 190 -1 39 -1 81 -1 #SUP: 2
5 -1 190 -1 39 -1 128 -1 #SUP: 2
5 -1 190 -1 81 -1 17 -1 #SUP: 2
5 -1 190 -1 81 -1 128 -1 #SUP: 3
5 -1 190 -1 135 -1 5 -1 #SUP: 2
5 -1 190 -1 135 -1 28 -1 #SUP: 2
5 -1 190 -1 225 -1 18 -1 #SUP: 2
5 -1 190 -1 225 -1 39 -1 #SUP: 2
5 -1 190 -1 225 -1 81 -1 #SUP: 2
5 -1 190 -1 225 -1 128 -1 #SUP: 2
5 -1 190 -1 225 -1 8155 -1 #SUP: 2
5 -1 190 -1 267 -1 28 -1 #SUP: 2
5 -1 190 -1 267 -1 135 -1 #SUP: 2
5 -1 190 -1 376 -1 5 -1 #SUP: 2
5 -1 190 -1 8155 -1 39 -1 #SUP: 2
5 -1 190 -1 8155 -1 81 -1 #SUP: 2
5 -1 190 -1 8155 -1 128 -1 #SUP: 2
5 -1 210 -1 4171 -1 32 -1 #SUP: 2
5 -1 225 -1 18 -1 39 -1 #SUP: 2
5 -1 225 -1 18 -1 81 -1 #SUP: 2
5 -1 225 -1 18 -1 128 -1 #SUP: 2
5 -1 225 -1 18 -1 8155 -1 #SUP: 2
5 -1 225 -1 39 -1 28 -1 #SUP: 2
5 -1 225 -1 39 -1 81 -1 #SUP: 2
5 -1 225 -1 39 -1 128 -1 #SUP: 2
5 -1 225 -1 81 -1 128 -1 #SUP: 2
5 -1 225 -1 89 -1 49 -1 #SUP: 2
5 -1 225 -1 137 -1 28 -1 #SUP: 2
5 -1 225 -1 190 -1 28 -1 #SUP: 2
5 -1 225 -1 376 -1 5 -1 #SUP: 2
5 -1 225 -1 8155 -1 39 -1 #SUP: 2
5 -1 225 -1 8155 -1 81 -1 #SUP: 2
5 -1 225 -1 8155 -1 128 -1 #SUP: 2
5 -1 230 -1 5 -1 2 -1 #SUP: 2
5 -1 230 -1 5 -1 5 -1 #SUP: 4
5 -1 230 -1 5 -1 17 -1 #SUP: 2
5 -1 230 -1 5 -1 28 -1 #SUP: 2
5 -1 230 -1 5 -1 38 -1 #SUP: 2
5 -1 230 -1 5 -1 99 -1 #SUP: 2
5 -1 230 -1 5 -1 140 -1 #SUP: 2
5 -1 230 -1 5 -1 190 -1 #SUP: 2
5 -1 230 -1 5 -1 225 -1 #SUP: 2
5 -1 230 -1 5 -1 302 -1 #SUP: 2
5 -1 230 -1 5 -1 376 -1 #SUP: 3
5 -1 230 -1 38 -1 5 -1 #SUP: 2
5 -1 230 -1 190 -1 28 -1 #SUP: 2
5 -1 230 -1 225 -1 5 -1 #SUP: 2
5 -1 230 -1 225 -1 140 -1 #SUP: 2
5 -1 230 -1 225 -1 376 -1 #SUP: 2
5 -1 230 -1 376 -1 5 -1 #SUP: 3
5 -1 230 -1 376 -1 99 -1 #SUP: 2
5 -1 251 -1 28 -1 39 -1 #SUP: 2
5 -1 267 -1 28 -1 28 -1 #SUP: 2
5 -1 267 -1 28 -1 135 -1 #SUP: 2
5 -1 267 -1 135 -1 28 -1 #SUP: 2
5 -1 299 -1 125 -1 28 -1 #SUP: 2
5 -1 299 -1 265 -1 28 -1 #SUP: 2
5 -1 325 -1 32 -1 5 -1 #SUP: 2
5 -1 325 -1 105 -1 5 -1 #SUP: 2
5 -1 335 -1 190 -1 28 -1 #SUP: 2
5 -1 336 -1 5 -1 5 -1 #SUP: 2
5 -1 336 -1 6 -1 71 -1 #SUP: 2
5 -1 376 -1 99 -1 5 -1 #SUP: 2
5 -1 383 -1 5 -1 71 -1 #SUP: 2
5 -1 383 -1 47 -1 5 -1 #SUP: 2
5 -1 526 -1 28 -1 116 -1 #SUP: 2
5 -1 550 -1 190 -1 28 -1 #SUP: 2
5 -1 1106 -1 66 -1 79 -1 #SUP: 2
5 -1 4171 -1 5 -1 5 -1 #SUP: 2
5 -1 4171 -1 5 -1 230 -1 #SUP: 2
5 -1 4171 -1 230 -1 5 -1 #SUP: 2
5 -1 8155 -1 39 -1 81 -1 #SUP: 2
5 -1 8155 -1 39 -1 128 -1 #SUP: 2
5 -1 8155 -1 81 -1 128 -1 #SUP: 2
5 -1 21384 -1 5 -1 5 -1 #SUP: 2
17 -1 28 -1 66 -1 79 -1 #SUP: 2
17 -1 28 -1 1106 -1 66 -1 #SUP: 2
17 -1 28 -1 1106 -1 79 -1 #SUP: 2
17 -1 1106 -1 66 -1 79 -1 #SUP: 2
18 -1 39 -1 81 -1 128 -1 #SUP: 2
18 -1 81 -1 17 -1 128 -1 #SUP: 2
18 -1 8155 -1 39 -1 81 -1 #SUP: 2
18 -1 8155 -1 39 -1 128 -1 #SUP: 2
18 -1 8155 -1 81 -1 128 -1 #SUP: 2
21 -1 28 -1 135 -1 5 -1 #SUP: 2
21 -1 28 -1 135 -1 28 -1 #SUP: 2
21 -1 267 -1 28 -1 28 -1 #SUP: 2
21 -1 267 -1 28 -1 135 -1 #SUP: 2
21 -1 267 -1 135 -1 28 -1 #SUP: 2
22 -1 2 -1 147 -1 193 -1 #SUP: 2
27 -1 5 -1 171 -1 270 -1 #SUP: 2
28 -1 5 -1 5 -1 17 -1 #SUP: 2
28 -1 5 -1 5 -1 28 -1 #SUP: 2
28 -1 5 -1 28 -1 28 -1 #SUP: 2
28 -1 5 -1 28 -1 116 -1 #SUP: 2
28 -1 5 -1 102 -1 5 -1 #SUP: 2
28 -1 5 -1 190 -1 5 -1 #SUP: 2
28 -1 5 -1 190 -1 1044 -1 #SUP: 2
28 -1 21 -1 270 -1 28 -1 #SUP: 2
28 -1 28 -1 5 -1 28 -1 #SUP: 2
28 -1 28 -1 28 -1 439 -1 #SUP: 2
28 -1 28 -1 28 -1 1231 -1 #SUP: 2
28 -1 28 -1 142 -1 28 -1 #SUP: 2
28 -1 28 -1 142 -1 106 -1 #SUP: 2
28 -1 28 -1 251 -1 28 -1 #SUP: 2
28 -1 28 -1 1231 -1 439 -1 #SUP: 2
28 -1 39 -1 125 -1 28 -1 #SUP: 2
28 -1 47 -1 21 -1 125 -1 #SUP: 2
28 -1 47 -1 38 -1 28 -1 #SUP: 2
28 -1 47 -1 47 -1 28 -1 #SUP: 2
28 -1 47 -1 94 -1 39 -1 #SUP: 2
28 -1 47 -1 94 -1 125 -1 #SUP: 2
28 -1 47 -1 94 -1 270 -1 #SUP: 2
28 -1 47 -1 270 -1 39 -1 #SUP: 2
28 -1 47 -1 270 -1 125 -1 #SUP: 3
28 -1 92 -1 92 -1 5 -1 #SUP: 2
28 -1 92 -1 106 -1 28 -1 #SUP: 2
28 -1 92 -1 142 -1 28 -1 #SUP: 2
28 -1 92 -1 142 -1 106 -1 #SUP: 2
28 -1 94 -1 270 -1 39 -1 #SUP: 2
28 -1 94 -1 270 -1 125 -1 #SUP: 2
28 -1 116 -1 5 -1 5 -1 #SUP: 3
28 -1 116 -1 14 -1 5 -1 #SUP: 2
28 -1 140 -1 5 -1 299 -1 #SUP: 2
28 -1 142 -1 5 -1 28 -1 #SUP: 2
28 -1 142 -1 28 -1 5 -1 #SUP: 2
28 -1 142 -1 28 -1 28 -1 #SUP: 2
28 -1 142 -1 106 -1 28 -1 #SUP: 2
28 -1 142 -1 106 -1 47 -1 #SUP: 2
28 -1 142 -1 128 -1 5 -1 #SUP: 2
28 -1 142 -1 144 -1 28 -1 #SUP: 2
28 -1 142 -1 159 -1 28 -1 #SUP: 2
28 -1 144 -1 28 -1 116 -1 #SUP: 2
28 -1 144 -1 47 -1 116 -1 #SUP: 2
28 -1 171 -1 142 -1 28 -1 #SUP: 2
28 -1 187 -1 47 -1 39 -1 #SUP: 2
28 -1 187 -1 47 -1 125 -1 #SUP: 2
28 -1 187 -1 47 -1 270 -1 #SUP: 2
28 -1 187 -1 125 -1 39 -1 #SUP: 2
28 -1 187 -1 265 -1 39 -1 #SUP: 2
28 -1 187 -1 265 -1 125 -1 #SUP: 2
28 -1 187 -1 270 -1 39 -1 #SUP: 3
28 -1 187 -1 270 -1 125 -1 #SUP: 3
28 -1 265 -1 125 -1 39 -1 #SUP: 2
28 -1 270 -1 125 -1 39 -1 #SUP: 2
28 -1 668 -1 28 -1 28 -1 #SUP: 2
28 -1 668 -1 28 -1 251 -1 #SUP: 2
28 -1 668 -1 251 -1 28 -1 #SUP: 2
28 -1 1106 -1 66 -1 79 -1 #SUP: 2
32 -1 5 -1 5 -1 5 -1 #SUP: 3
32 -1 5 -1 5 -1 550 -1 #SUP: 2
32 -1 5 -1 47 -1 5 -1 #SUP: 2
32 -1 5 -1 99 -1 163 -1 #SUP: 2
32 -1 5 -1 190 -1 28 -1 #SUP: 2
32 -1 28 -1 187 -1 47 -1 #SUP: 2
32 -1 41 -1 526 -1 28 -1 #SUP: 2
32 -1 124 -1 41 -1 28 -1 #SUP: 2
32 -1 124 -1 41 -1 526 -1 #SUP: 2
32 -1 124 -1 526 -1 28 -1 #SUP: 2
40 -1 32 -1 41 -1 28 -1 #SUP: 2
40 -1 32 -1 41 -1 526 -1 #SUP: 2
40 -1 32 -1 124 -1 28 -1 #SUP: 2
40 -1 32 -1 124 -1 41 -1 #SUP: 2
40 -1 32 -1 124 -1 526 -1 #SUP: 2
40 -1 32 -1 526 -1 28 -1 #SUP: 2
40 -1 41 -1 526 -1 28 -1 #SUP: 2
40 -1 124 -1 41 -1 28 -1 #SUP: 2
40 -1 124 -1 41 -1 526 -1 #SUP: 2
40 -1 124 -1 526 -1 28 -1 #SUP: 2
41 -1 28 -1 187 -1 265 -1 #SUP: 2
41 -1 526 -1 28 -1 187 -1 #SUP: 2
41 -1 526 -1 28 -1 265 -1 #SUP: 2
41 -1 526 -1 187 -1 265 -1 #SUP: 2
47 -1 94 -1 39 -1 39 -1 #SUP: 2
47 -1 94 -1 39 -1 125 -1 #SUP: 2
47 -1 94 -1 270 -1 39 -1 #SUP: 2
47 -1 94 -1 270 -1 125 -1 #SUP: 2
47 -1 270 -1 39 -1 39 -1 #SUP: 2
47 -1 270 -1 39 -1 125 -1 #SUP: 2
49 -1 251 -1 28 -1 39 -1 #SUP: 2
71 -1 5 -1 21384 -1 5 -1 #SUP: 2
71 -1 32 -1 5 -1 5 -1 #SUP: 2
79 -1 28 -1 5 -1 5 -1 #SUP: 2
79 -1 28 -1 5 -1 28 -1 #SUP: 2
81 -1 41 -1 5 -1 28 -1 #SUP: 2
81 -1 125 -1 172 -1 28 -1 #SUP: 2
81 -1 128 -1 5 -1 28 -1 #SUP: 3
81 -1 128 -1 41 -1 5 -1 #SUP: 2
81 -1 128 -1 41 -1 28 -1 #SUP: 2
81 -1 142 -1 5 -1 28 -1 #SUP: 2
81 -1 142 -1 128 -1 5 -1 #SUP: 2
81 -1 142 -1 128 -1 28 -1 #SUP: 2
89 -1 159 -1 142 -1 111 -1 #SUP: 2
92 -1 41 -1 265 -1 4521 -1 #SUP: 2
92 -1 92 -1 5 -1 4 -1 #SUP: 2
92 -1 124 -1 41 -1 265 -1 #SUP: 2
92 -1 124 -1 41 -1 4521 -1 #SUP: 2
92 -1 124 -1 265 -1 4521 -1 #SUP: 2
92 -1 142 -1 106 -1 28 -1 #SUP: 2
92 -1 142 -1 106 -1 144 -1 #SUP: 2
94 -1 270 -1 39 -1 39 -1 #SUP: 2
94 -1 270 -1 39 -1 125 -1 #SUP: 2
105 -1 5 -1 49 -1 377 -1 #SUP: 2
105 -1 368 -1 49 -1 377 -1 #SUP: 2
105 -1 661 -1 5 -1 49 -1 #SUP: 2
105 -1 661 -1 5 -1 377 -1 #SUP: 2
105 -1 661 -1 49 -1 377 -1 #SUP: 2
105 -1 661 -1 368 -1 49 -1 #SUP: 2
105 -1 661 -1 368 -1 377 -1 #SUP: 2
116 -1 5 -1 5 -1 28 -1 #SUP: 2
116 -1 5 -1 102 -1 5 -1 #SUP: 2
116 -1 5 -1 190 -1 5 -1 #SUP: 2
124 -1 28 -1 187 -1 265 -1 #SUP: 2
124 -1 41 -1 28 -1 187 -1 #SUP: 2
124 -1 41 -1 28 -1 265 -1 #SUP: 2
124 -1 41 -1 187 -1 265 -1 #SUP: 2
124 -1 41 -1 265 -1 4521 -1 #SUP: 2
124 -1 41 -1 270 -1 125 -1 #SUP: 2
124 -1 41 -1 270 -1 265 -1 #SUP: 2
124 -1 41 -1 526 -1 28 -1 #SUP: 3
124 -1 41 -1 526 -1 187 -1 #SUP: 2
124 -1 41 -1 526 -1 265 -1 #SUP: 2
124 -1 92 -1 41 -1 265 -1 #SUP: 2
124 -1 92 -1 124 -1 41 -1 #SUP: 2
124 -1 92 -1 124 -1 265 -1 #SUP: 2
124 -1 124 -1 41 -1 265 -1 #SUP: 2
124 -1 526 -1 28 -1 187 -1 #SUP: 2
124 -1 526 -1 28 -1 265 -1 #SUP: 2
124 -1 526 -1 187 -1 265 -1 #SUP: 2
125 -1 5 -1 11 -1 32 -1 #SUP: 2
125 -1 22 -1 11 -1 32 -1 #SUP: 2
125 -1 28 -1 39 -1 125 -1 #SUP: 2
125 -1 28 -1 47 -1 94 -1 #SUP: 2
125 -1 28 -1 187 -1 47 -1 #SUP: 2
125 -1 39 -1 125 -1 28 -1 #SUP: 2
125 -1 66 -1 162 -1 179 -1 #SUP: 2
125 -1 172 -1 28 -1 125 -1 #SUP: 2
125 -1 824 -1 28 -1 39 -1 #SUP: 2
125 -1 824 -1 28 -1 125 -1 #SUP: 2
125 -1 824 -1 39 -1 125 -1 #SUP: 2
128 -1 5 -1 28 -1 116 -1 #SUP: 2
128 -1 18 -1 21 -1 171 -1 #SUP: 2
128 -1 41 -1 5 -1 28 -1 #SUP: 2
140 -1 445 -1 445 -1 445 -1 #SUP: 2
142 -1 5 -1 5 -1 17 -1 #SUP: 2
142 -1 5 -1 49 -1 28 -1 #SUP: 2
142 -1 28 -1 5 -1 4 -1 #SUP: 2
142 -1 28 -1 28 -1 116 -1 #SUP: 2
142 -1 28 -1 144 -1 47 -1 #SUP: 2
142 -1 128 -1 5 -1 28 -1 #SUP: 2
142 -1 142 -1 159 -1 28 -1 #SUP: 2
142 -1 288 -1 28 -1 28 -1 #SUP: 2
142 -1 288 -1 251 -1 28 -1 #SUP: 2
187 -1 47 -1 39 -1 39 -1 #SUP: 2
187 -1 47 -1 39 -1 125 -1 #SUP: 2
187 -1 47 -1 270 -1 39 -1 #SUP: 2
187 -1 47 -1 270 -1 125 -1 #SUP: 2
187 -1 265 -1 125 -1 39 -1 #SUP: 2
187 -1 270 -1 39 -1 39 -1 #SUP: 2
187 -1 270 -1 39 -1 125 -1 #SUP: 2
187 -1 270 -1 125 -1 39 -1 #SUP: 2
190 -1 5 -1 17 -1 128 -1 #SUP: 2
190 -1 5 -1 18 -1 17 -1 #SUP: 2
190 -1 5 -1 18 -1 39 -1 #SUP: 2
190 -1 5 -1 18 -1 81 -1 #SUP: 3
190 -1 5 -1 18 -1 128 -1 #SUP: 3
190 -1 5 -1 18 -1 8155 -1 #SUP: 2
190 -1 5 -1 39 -1 81 -1 #SUP: 2
190 -1 5 -1 39 -1 128 -1 #SUP: 2
190 -1 5 -1 81 -1 17 -1 #SUP: 2
190 -1 5 -1 81 -1 128 -1 #SUP: 3
190 -1 5 -1 225 -1 18 -1 #SUP: 2
190 -1 5 -1 225 -1 39 -1 #SUP: 2
190 -1 5 -1 225 -1 81 -1 #SUP: 2
190 -1 5 -1 225 -1 128 -1 #SUP: 2
190 -1 5 -1 225 -1 8155 -1 #SUP: 2
190 -1 5 -1 8155 -1 39 -1 #SUP: 2
190 -1 5 -1 8155 -1 81 -1 #SUP: 2
190 -1 5 -1 8155 -1 128 -1 #SUP: 2
190 -1 18 -1 17 -1 128 -1 #SUP: 2
190 -1 18 -1 39 -1 81 -1 #SUP: 2
190 -1 18 -1 39 -1 128 -1 #SUP: 2
190 -1 18 -1 81 -1 17 -1 #SUP: 2
190 -1 18 -1 81 -1 128 -1 #SUP: 3
190 -1 18 -1 8155 -1 39 -1 #SUP: 2
190 -1 18 -1 8155 -1 81 -1 #SUP: 2
190 -1 18 -1 8155 -1 128 -1 #SUP: 2
190 -1 21 -1 28 -1 5 -1 #SUP: 2
190 -1 21 -1 28 -1 28 -1 #SUP: 2
190 -1 21 -1 28 -1 135 -1 #SUP: 3
190 -1 21 -1 135 -1 5 -1 #SUP: 2
190 -1 21 -1 135 -1 28 -1 #SUP: 2
190 -1 21 -1 267 -1 28 -1 #SUP: 2
190 -1 21 -1 267 -1 135 -1 #SUP: 2
190 -1 28 -1 5 -1 190 -1 #SUP: 2
190 -1 28 -1 135 -1 5 -1 #SUP: 2
190 -1 28 -1 135 -1 28 -1 #SUP: 2
190 -1 32 -1 5 -1 119 -1 #SUP: 2
190 -1 39 -1 81 -1 128 -1 #SUP: 2
190 -1 81 -1 17 -1 128 -1 #SUP: 2
190 -1 225 -1 18 -1 39 -1 #SUP: 2
190 -1 225 -1 18 -1 81 -1 #SUP: 2
190 -1 225 -1 18 -1 128 -1 #SUP: 2
190 -1 225 -1 18 -1 8155 -1 #SUP: 2
190 -1 225 -1 39 -1 81 -1 #SUP: 2
190 -1 225 -1 39 -1 128 -1 #SUP: 2
190 -1 225 -1 81 -1 128 -1 #SUP: 2
190 -1 225 -1 8155 -1 39 -1 #SUP: 2
190 -1 225 -1 8155 -1 81 -1 #SUP: 2
190 -1 225 -1 8155 -1 128 -1 #SUP: 2
190 -1 267 -1 28 -1 28 -1 #SUP: 2
190 -1 267 -1 28 -1 135 -1 #SUP: 2
190 -1 267 -1 135 -1 28 -1 #SUP: 2
190 -1 8155 -1 39 -1 81 -1 #SUP: 2
190 -1 8155 -1 39 -1 128 -1 #SUP: 2
190 -1 8155 -1 81 -1 128 -1 #SUP: 2
203 -1 28 -1 142 -1 5 -1 #SUP: 2
214 -1 5 -1 28 -1 116 -1 #SUP: 2
225 -1 18 -1 39 -1 81 -1 #SUP: 2
225 -1 18 -1 39 -1 128 -1 #SUP: 2
225 -1 18 -1 81 -1 128 -1 #SUP: 2
225 -1 18 -1 8155 -1 39 -1 #SUP: 2
225 -1 18 -1 8155 -1 81 -1 #SUP: 2
225 -1 18 -1 8155 -1 128 -1 #SUP: 2
225 -1 39 -1 81 -1 128 -1 #SUP: 2
225 -1 8155 -1 39 -1 81 -1 #SUP: 2
225 -1 8155 -1 39 -1 128 -1 #SUP: 2
225 -1 8155 -1 81 -1 128 -1 #SUP: 2
226 -1 2 -1 5269 -1 3014 -1 #SUP: 2
230 -1 5 -1 38 -1 5 -1 #SUP: 2
230 -1 5 -1 190 -1 28 -1 #SUP: 2
230 -1 5 -1 225 -1 5 -1 #SUP: 2
230 -1 5 -1 225 -1 140 -1 #SUP: 2
230 -1 5 -1 225 -1 376 -1 #SUP: 2
230 -1 5 -1 376 -1 5 -1 #SUP: 3
230 -1 5 -1 376 -1 99 -1 #SUP: 2
230 -1 225 -1 376 -1 5 -1 #SUP: 2
251 -1 28 -1 142 -1 28 -1 #SUP: 2
251 -1 28 -1 171 -1 28 -1 #SUP: 2
251 -1 28 -1 171 -1 142 -1 #SUP: 2
251 -1 28 -1 1231 -1 439 -1 #SUP: 2
251 -1 171 -1 142 -1 28 -1 #SUP: 2
265 -1 66 -1 162 -1 179 -1 #SUP: 2
265 -1 125 -1 39 -1 89 -1 #SUP: 2
265 -1 125 -1 66 -1 162 -1 #SUP: 2
265 -1 125 -1 66 -1 179 -1 #SUP: 2
265 -1 125 -1 162 -1 179 -1 #SUP: 2
266 -1 28 -1 106 -1 47 -1 #SUP: 2
266 -1 28 -1 142 -1 47 -1 #SUP: 2
266 -1 28 -1 142 -1 106 -1 #SUP: 2
266 -1 142 -1 106 -1 47 -1 #SUP: 2
267 -1 28 -1 135 -1 28 -1 #SUP: 2
325 -1 32 -1 5 -1 39 -1 #SUP: 2
325 -1 105 -1 5 -1 39 -1 #SUP: 2
383 -1 5 -1 47 -1 210 -1 #SUP: 2
383 -1 5 -1 71 -1 47 -1 #SUP: 2
383 -1 5 -1 71 -1 210 -1 #SUP: 2
383 -1 71 -1 47 -1 210 -1 #SUP: 2
493 -1 325 -1 32 -1 5 -1 #SUP: 2
493 -1 325 -1 105 -1 5 -1 #SUP: 2
526 -1 28 -1 116 -1 38 -1 #SUP: 2
526 -1 28 -1 187 -1 125 -1 #SUP: 2
526 -1 28 -1 187 -1 265 -1 #SUP: 2
526 -1 28 -1 187 -1 270 -1 #SUP: 2
526 -1 28 -1 265 -1 5 -1 #SUP: 2
526 -1 28 -1 265 -1 125 -1 #SUP: 2
526 -1 28 -1 270 -1 125 -1 #SUP: 2
526 -1 187 -1 265 -1 125 -1 #SUP: 2
526 -1 187 -1 270 -1 125 -1 #SUP: 2
661 -1 5 -1 49 -1 377 -1 #SUP: 2
661 -1 368 -1 49 -1 377 -1 #SUP: 2
668 -1 28 -1 251 -1 28 -1 #SUP: 2
824 -1 28 -1 39 -1 125 -1 #SUP: 2
4171 -1 5 -1 5 -1 5 -1 #SUP: 2
4171 -1 5 -1 230 -1 5 -1 #SUP: 2
8155 -1 39 -1 81 -1 128 -1 #SUP: 2
21384 -1 5 -1 5 -1 5 -1 #SUP: 2
5 -1 2 -1 124 -1 66 -1 1148 -1 #SUP: 2
5 -1 5 -1 5 -1 230 -1 5 -1 #SUP: 2
5 -1 5 -1 5 -1 550 -1 5 -1 #SUP: 2
5 -1 5 -1 18 -1 17 -1 128 -1 #SUP: 2
5 -1 5 -1 18 -1 39 -1 81 -1 #SUP: 2
5 -1 5 -1 18 -1 39 -1 128 -1 #SUP: 2
5 -1 5 -1 18 -1 81 -1 17 -1 #SUP: 2
5 -1 5 -1 18 -1 81 -1 128 -1 #SUP: 3
5 -1 5 -1 18 -1 8155 -1 39 -1 #SUP: 2
5 -1 5 -1 18 -1 8155 -1 81 -1 #SUP: 2
5 -1 5 -1 18 -1 8155 -1 128 -1 #SUP: 2
5 -1 5 -1 39 -1 81 -1 128 -1 #SUP: 2
5 -1 5 -1 81 -1 17 -1 128 -1 #SUP: 2
5 -1 5 -1 190 -1 28 -1 5 -1 #SUP: 2
5 -1 5 -1 225 -1 18 -1 39 -1 #SUP: 2
5 -1 5 -1 225 -1 18 -1 81 -1 #SUP: 2
5 -1 5 -1 225 -1 18 -1 128 -1 #SUP: 2
5 -1 5 -1 225 -1 18 -1 8155 -1 #SUP: 2
5 -1 5 -1 225 -1 39 -1 81 -1 #SUP: 2
5 -1 5 -1 225 -1 39 -1 128 -1 #SUP: 2
5 -1 5 -1 225 -1 81 -1 128 -1 #SUP: 2
5 -1 5 -1 225 -1 376 -1 5 -1 #SUP: 2
5 -1 5 -1 225 -1 8155 -1 39 -1 #SUP: 2
5 -1 5 -1 225 -1 8155 -1 81 -1 #SUP: 2
5 -1 5 -1 225 -1 8155 -1 128 -1 #SUP: 2
5 -1 5 -1 8155 -1 39 -1 81 -1 #SUP: 2
5 -1 5 -1 8155 -1 39 -1 128 -1 #SUP: 2
5 -1 5 -1 8155 -1 81 -1 128 -1 #SUP: 2
5 -1 17 -1 28 -1 66 -1 79 -1 #SUP: 2
5 -1 17 -1 28 -1 1106 -1 66 -1 #SUP: 2
5 -1 17 -1 28 -1 1106 -1 79 -1 #SUP: 2
5 -1 17 -1 1106 -1 66 -1 79 -1 #SUP: 2
5 -1 18 -1 39 -1 81 -1 128 -1 #SUP: 2
5 -1 18 -1 81 -1 17 -1 128 -1 #SUP: 2
5 -1 18 -1 8155 -1 39 -1 81 -1 #SUP: 2
5 -1 18 -1 8155 -1 39 -1 128 -1 #SUP: 2
5 -1 18 -1 8155 -1 81 -1 128 -1 #SUP: 2
5 -1 21 -1 28 -1 135 -1 5 -1 #SUP: 2
5 -1 21 -1 28 -1 135 -1 28 -1 #SUP: 2
5 -1 21 -1 267 -1 28 -1 28 -1 #SUP: 2
5 -1 21 -1 267 -1 28 -1 135 -1 #SUP: 2
5 -1 21 -1 267 -1 135 -1 28 -1 #SUP: 2
5 -1 27 -1 5 -1 171 -1 270 -1 #SUP: 2
5 -1 28 -1 1106 -1 66 -1 79 -1 #SUP: 2
5 -1 32 -1 124 -1 41 -1 526 -1 #SUP: 2
5 -1 40 -1 32 -1 41 -1 526 -1 #SUP: 2
5 -1 40 -1 32 -1 124 -1 41 -1 #SUP: 2
5 -1 40 -1 32 -1 124 -1 526 -1 #SUP: 2
5 -1 40 -1 124 -1 41 -1 526 -1 #SUP: 2
5 -1 49 -1 251 -1 28 -1 39 -1 #SUP: 2
5 -1 71 -1 5 -1 21384 -1 5 -1 #SUP: 2
5 -1 71 -1 32 -1 5 -1 5 -1 #SUP: 2
5 -1 190 -1 5 -1 17 -1 128 -1 #SUP: 2
5 -1 190 -1 5 -1 18 -1 17 -1 #SUP: 2
5 -1 190 -1 5 -1 18 -1 39 -1 #SUP: 2
5 -1 190 -1 5 -1 18 -1 81 -1 #SUP: 3
5 -1 190 -1 5 -1 18 -1 128 -1 #SUP: 3
5 -1 190 -1 5 -1 18 -1 8155 -1 #SUP: 2
5 -1 190 -1 5 -1 39 -1 81 -1 #SUP: 2
5 -1 190 -1 5 -1 39 -1 128 -1 #SUP: 2
5 -1 190 -1 5 -1 81 -1 17 -1 #SUP: 2
5 -1 190 -1 5 -1 81 -1 128 -1 #SUP: 3
5 -1 190 -1 5 -1 225 -1 18 -1 #SUP: 2
5 -1 190 -1 5 -1 225 -1 39 -1 #SUP: 2
5 -1 190 -1 5 -1 225 -1 81 -1 #SUP: 2
5 -1 190 -1 5 -1 225 -1 128 -1 #SUP: 2
5 -1 190 -1 5 -1 225 -1 8155 -1 #SUP: 2
5 -1 190 -1 5 -1 8155 -1 39 -1 #SUP: 2
5 -1 190 -1 5 -1 8155 -1 81 -1 #SUP: 2
5 -1 190 -1 5 -1 8155 -1 128 -1 #SUP: 2
5 -1 190 -1 18 -1 17 -1 128 -1 #SUP: 2
5 -1 190 -1 18 -1 39 -1 81 -1 #SUP: 2
5 -1 190 -1 18 -1 39 -1 128 -1 #SUP: 2
5 -1 190 -1 18 -1 81 -1 17 -1 #SUP: 2
5 -1 190 -1 18 -1 81 -1 128 -1 #SUP: 3
5 -1 190 -1 18 -1 8155 -1 39 -1 #SUP: 2
5 -1 190 -1 18 -1 8155 -1 81 -1 #SUP: 2
5 -1 190 -1 18 -1 8155 -1 128 -1 #SUP: 2
5 -1 190 -1 21 -1 28 -1 5 -1 #SUP: 2
5 -1 190 -1 21 -1 28 -1 28 -1 #SUP: 2
5 -1 190 -1 21 -1 28 -1 135 -1 #SUP: 3
5 -1 190 -1 21 -1 135 -1 5 -1 #SUP: 2
5 -1 190 -1 21 -1 135 -1 28 -1 #SUP: 2
5 -1 190 -1 21 -1 267 -1 28 -1 #SUP: 2
5 -1 190 -1 21 -1 267 -1 135 -1 #SUP: 2
5 -1 190 -1 28 -1 5 -1 190 -1 #SUP: 2
5 -1 190 -1 28 -1 135 -1 5 -1 #SUP: 2
5 -1 190 -1 28 -1 135 -1 28 -1 #SUP: 2
5 -1 190 -1 32 -1 5 -1 119 -1 #SUP: 2
5 -1 190 -1 39 -1 81 -1 128 -1 #SUP: 2
5 -1 190 -1 81 -1 17 -1 128 -1 #SUP: 2
5 -1 190 -1 225 -1 18 -1 39 -1 #SUP: 2
5 -1 190 -1 225 -1 18 -1 81 -1 #SUP: 2
5 -1 190 -1 225 -1 18 -1 128 -1 #SUP: 2
5 -1 190 -1 225 -1 18 -1 8155 -1 #SUP: 2
5 -1 190 -1 225 -1 39 -1 81 -1 #SUP: 2
5 -1 190 -1 225 -1 39 -1 128 -1 #SUP: 2
5 -1 190 -1 225 -1 81 -1 128 -1 #SUP: 2
5 -1 190 -1 225 -1 8155 -1 39 -1 #SUP: 2
5 -1 190 -1 225 -1 8155 -1 81 -1 #SUP: 2
5 -1 190 -1 225 -1 8155 -1 128 -1 #SUP: 2
5 -1 190 -1 267 -1 28 -1 28 -1 #SUP: 2
5 -1 190 -1 267 -1 28 -1 135 -1 #SUP: 2
5 -1 190 -1 267 -1 135 -1 28 -1 #SUP: 2
5 -1 190 -1 8155 -1 39 -1 81 -1 #SUP: 2
5 -1 190 -1 8155 -1 39 -1 128 -1 #SUP: 2
5 -1 190 -1 8155 -1 81 -1 128 -1 #SUP: 2
5 -1 225 -1 18 -1 39 -1 81 -1 #SUP: 2
5 -1 225 -1 18 -1 39 -1 128 -1 #SUP: 2
5 -1 225 -1 18 -1 81 -1 128 -1 #SUP: 2
5 -1 225 -1 18 -1 8155 -1 39 -1 #SUP: 2
5 -1 225 -1 18 -1 8155 -1 81 -1 #SUP: 2
5 -1 225 -1 18 -1 8155 -1 128 -1 #SUP: 2
5 -1 225 -1 39 -1 81 -1 128 -1 #SUP: 2
5 -1 225 -1 8155 -1 39 -1 81 -1 #SUP: 2
5 -1 225 -1 8155 -1 39 -1 128 -1 #SUP: 2
5 -1 225 -1 8155 -1 81 -1 128 -1 #SUP: 2
5 -1 230 -1 5 -1 38 -1 5 -1 #SUP: 2
5 -1 230 -1 5 -1 190 -1 28 -1 #SUP: 2
5 -1 230 -1 5 -1 225 -1 5 -1 #SUP: 2
5 -1 230 -1 5 -1 225 -1 140 -1 #SUP: 2
5 -1 230 -1 5 -1 225 -1 376 -1 #SUP: 2
5 -1 230 -1 5 -1 376 -1 5 -1 #SUP: 3
5 -1 230 -1 5 -1 376 -1 99 -1 #SUP: 2
5 -1 230 -1 225 -1 376 -1 5 -1 #SUP: 2
5 -1 267 -1 28 -1 135 -1 28 -1 #SUP: 2
5 -1 4171 -1 5 -1 5 -1 5 -1 #SUP: 2
5 -1 4171 -1 5 -1 230 -1 5 -1 #SUP: 2
5 -1 8155 -1 39 -1 81 -1 128 -1 #SUP: 2
5 -1 21384 -1 5 -1 5 -1 5 -1 #SUP: 2
17 -1 28 -1 1106 -1 66 -1 79 -1 #SUP: 2
18 -1 8155 -1 39 -1 81 -1 128 -1 #SUP: 2
21 -1 267 -1 28 -1 135 -1 28 -1 #SUP: 2
28 -1 28 -1 28 -1 1231 -1 439 -1 #SUP: 2
28 -1 47 -1 94 -1 270 -1 39 -1 #SUP: 2
28 -1 47 -1 94 -1 270 -1 125 -1 #SUP: 2
28 -1 92 -1 142 -1 106 -1 28 -1 #SUP: 2
28 -1 187 -1 47 -1 270 -1 39 -1 #SUP: 2
28 -1 187 -1 47 -1 270 -1 125 -1 #SUP: 2
28 -1 187 -1 265 -1 125 -1 39 -1 #SUP: 2
28 -1 187 -1 270 -1 125 -1 39 -1 #SUP: 2
28 -1 668 -1 28 -1 251 -1 28 -1 #SUP: 2
32 -1 124 -1 41 -1 526 -1 28 -1 #SUP: 2
40 -1 32 -1 41 -1 526 -1 28 -1 #SUP: 2
40 -1 32 -1 124 -1 41 -1 28 -1 #SUP: 2
40 -1 32 -1 124 -1 41 -1 526 -1 #SUP: 2
40 -1 32 -1 124 -1 526 -1 28 -1 #SUP: 2
40 -1 124 -1 41 -1 526 -1 28 -1 #SUP: 2
41 -1 526 -1 28 -1 187 -1 265 -1 #SUP: 2
47 -1 94 -1 270 -1 39 -1 39 -1 #SUP: 2
47 -1 94 -1 270 -1 39 -1 125 -1 #SUP: 2
81 -1 128 -1 41 -1 5 -1 28 -1 #SUP: 2
81 -1 142 -1 128 -1 5 -1 28 -1 #SUP: 2
92 -1 124 -1 41 -1 265 -1 4521 -1 #SUP: 2
105 -1 661 -1 5 -1 49 -1 377 -1 #SUP: 2
105 -1 661 -1 368 -1 49 -1 377 -1 #SUP: 2
124 -1 41 -1 28 -1 187 -1 265 -1 #SUP: 2
124 -1 41 -1 526 -1 28 -1 187 -1 #SUP: 2
124 -1 41 -1 526 -1 28 -1 265 -1 #SUP: 2
124 -1 41 -1 526 -1 187 -1 265 -1 #SUP: 2
124 -1 92 -1 124 -1 41 -1 265 -1 #SUP: 2
124 -1 526 -1 28 -1 187 -1 265 -1 #SUP: 2
125 -1 824 -1 28 -1 39 -1 125 -1 #SUP: 2
187 -1 47 -1 270 -1 39 -1 39 -1 #SUP: 2
187 -1 47 -1 270 -1 39 -1 125 -1 #SUP: 2
190 -1 5 -1 18 -1 17 -1 128 -1 #SUP: 2
190 -1 5 -1 18 -1 39 -1 81 -1 #SUP: 2
190 -1 5 -1 18 -1 39 -1 128 -1 #SUP: 2
190 -1 5 -1 18 -1 81 -1 17 -1 #SUP: 2
190 -1 5 -1 18 -1 81 -1 128 -1 #SUP: 3
190 -1 5 -1 18 -1 8155 -1 39 -1 #SUP: 2
190 -1 5 -1 18 -1 8155 -1 81 -1 #SUP: 2
190 -1 5 -1 18 -1 8155 -1 128 -1 #SUP: 2
190 -1 5 -1 39 -1 81 -1 128 -1 #SUP: 2
190 -1 5 -1 81 -1 17 -1 128 -1 #SUP: 2
190 -1 5 -1 225 -1 18 -1 39 -1 #SUP: 2
190 -1 5 -1 225 -1 18 -1 81 -1 #SUP: 2
190 -1 5 -1 225 -1 18 -1 128 -1 #SUP: 2
190 -1 5 -1 225 -1 18 -1 8155 -1 #SUP: 2
190 -1 5 -1 225 -1 39 -1 81 -1 #SUP: 2
190 -1 5 -1 225 -1 39 -1 128 -1 #SUP: 2
190 -1 5 -1 225 -1 81 -1 128 -1 #SUP: 2
190 -1 5 -1 225 -1 8155 -1 39 -1 #SUP: 2
190 -1 5 -1 225 -1 8155 -1 81 -1 #SUP: 2
190 -1 5 -1 225 -1 8155 -1 128 -1 #SUP: 2
190 -1 5 -1 8155 -1 39 -1 81 -1 #SUP: 2
190 -1 5 -1 8155 -1 39 -1 128 -1 #SUP: 2
190 -1 5 -1 8155 -1 81 -1 128 -1 #SUP: 2
190 -1 18 -1 39 -1 81 -1 128 -1 #SUP: 2
190 -1 18 -1 81 -1 17 -1 128 -1 #SUP: 2
190 -1 18 -1 8155 -1 39 -1 81 -1 #SUP: 2
190 -1 18 -1 8155 -1 39 -1 128 -1 #SUP: 2
190 -1 18 -1 8155 -1 81 -1 128 -1 #SUP: 2
190 -1 21 -1 28 -1 135 -1 5 -1 #SUP: 2
190 -1 21 -1 28 -1 135 -1 28 -1 #SUP: 2
190 -1 21 -1 267 -1 28 -1 28 -1 #SUP: 2
190 -1 21 -1 267 -1 28 -1 135 -1 #SUP: 2
190 -1 21 -1 267 -1 135 -1 28 -1 #SUP: 2
190 -1 225 -1 18 -1 39 -1 81 -1 #SUP: 2
190 -1 225 -1 18 -1 39 -1 128 -1 #SUP: 2
190 -1 225 -1 18 -1 81 -1 128 -1 #SUP: 2
190 -1 225 -1 18 -1 8155 -1 39 -1 #SUP: 2
190 -1 225 -1 18 -1 8155 -1 81 -1 #SUP: 2
190 -1 225 -1 18 -1 8155 -1 128 -1 #SUP: 2
190 -1 225 -1 39 -1 81 -1 128 -1 #SUP: 2
190 -1 225 -1 8155 -1 39 -1 81 -1 #SUP: 2
190 -1 225 -1 8155 -1 39 -1 128 -1 #SUP: 2
190 -1 225 -1 8155 -1 81 -1 128 -1 #SUP: 2
190 -1 267 -1 28 -1 135 -1 28 -1 #SUP: 2
190 -1 8155 -1 39 -1 81 -1 128 -1 #SUP: 2
225 -1 18 -1 39 -1 81 -1 128 -1 #SUP: 2
225 -1 18 -1 8155 -1 39 -1 81 -1 #SUP: 2
225 -1 18 -1 8155 -1 39 -1 128 -1 #SUP: 2
225 -1 18 -1 8155 -1 81 -1 128 -1 #SUP: 2
225 -1 8155 -1 39 -1 81 -1 128 -1 #SUP: 2
230 -1 5 -1 225 -1 376 -1 5 -1 #SUP: 2
251 -1 28 -1 171 -1 142 -1 28 -1 #SUP: 2
265 -1 125 -1 66 -1 162 -1 179 -1 #SUP: 2
266 -1 28 -1 142 -1 106 -1 47 -1 #SUP: 2
383 -1 5 -1 71 -1 47 -1 210 -1 #SUP: 2
526 -1 28 -1 187 -1 265 -1 125 -1 #SUP: 2
526 -1 28 -1 187 -1 270 -1 125 -1 #SUP: 2
5 -1 5 -1 18 -1 39 -1 81 -1 128 -1 #SUP: 2
5 -1 5 -1 18 -1 81 -1 17 -1 128 -1 #SUP: 2
5 -1 5 -1 18 -1 8155 -1 39 -1 81 -1 #SUP: 2
5 -1 5 -1 18 -1 8155 -1 39 -1 128 -1 #SUP: 2
5 -1 5 -1 18 -1 8155 -1 81 -1 128 -1 #SUP: 2
5 -1 5 -1 225 -1 18 -1 39 -1 81 -1 #SUP: 2
5 -1 5 -1 225 -1 18 -1 39 -1 128 -1 #SUP: 2
5 -1 5 -1 225 -1 18 -1 81 -1 128 -1 #SUP: 2
5 -1 5 -1 225 -1 18 -1 8155 -1 39 -1 #SUP: 2
5 -1 5 -1 225 -1 18 -1 8155 -1 81 -1 #SUP: 2
5 -1 5 -1 225 -1 18 -1 8155 -1 128 -1 #SUP: 2
5 -1 5 -1 225 -1 39 -1 81 -1 128 -1 #SUP: 2
5 -1 5 -1 225 -1 8155 -1 39 -1 81 -1 #SUP: 2
5 -1 5 -1 225 -1 8155 -1 39 -1 128 -1 #SUP: 2
5 -1 5 -1 225 -1 8155 -1 81 -1 128 -1 #SUP: 2
5 -1 5 -1 8155 -1 39 -1 81 -1 128 -1 #SUP: 2
5 -1 17 -1 28 -1 1106 -1 66 -1 79 -1 #SUP: 2
5 -1 18 -1 8155 -1 39 -1 81 -1 128 -1 #SUP: 2
5 -1 21 -1 267 -1 28 -1 135 -1 28 -1 #SUP: 2
5 -1 40 -1 32 -1 124 -1 41 -1 526 -1 #SUP: 2
5 -1 190 -1 5 -1 18 -1 17 -1 128 -1 #SUP: 2
5 -1 190 -1 5 -1 18 -1 39 -1 81 -1 #SUP: 2
5 -1 190 -1 5 -1 18 -1 39 -1 128 -1 #SUP: 2
5 -1 190 -1 5 -1 18 -1 81 -1 17 -1 #SUP: 2
5 -1 190 -1 5 -1 18 -1 81 -1 128 -1 #SUP: 3
5 -1 190 -1 5 -1 18 -1 8155 -1 39 -1 #SUP: 2
5 -1 190 -1 5 -1 18 -1 8155 -1 81 -1 #SUP: 2
5 -1 190 -1 5 -1 18 -1 8155 -1 128 -1 #SUP: 2
5 -1 190 -1 5 -1 39 -1 81 -1 128 -1 #SUP: 2
5 -1 190 -1 5 -1 81 -1 17 -1 128 -1 #SUP: 2
5 -1 190 -1 5 -1 225 -1 18 -1 39 -1 #SUP: 2
5 -1 190 -1 5 -1 225 -1 18 -1 81 -1 #SUP: 2
5 -1 190 -1 5 -1 225 -1 18 -1 128 -1 #SUP: 2
5 -1 190 -1 5 -1 225 -1 18 -1 8155 -1 #SUP: 2
5 -1 190 -1 5 -1 225 -1 39 -1 81 -1 #SUP: 2
5 -1 190 -1 5 -1 225 -1 39 -1 128 -1 #SUP: 2
5 -1 190 -1 5 -1 225 -1 81 -1 128 -1 #SUP: 2
5 -1 190 -1 5 -1 225 -1 8155 -1 39 -1 #SUP: 2
5 -1 190 -1 5 -1 225 -1 8155 -1 81 -1 #SUP: 2
5 -1 190 -1 5 -1 225 -1 8155 -1 128 -1 #SUP: 2
5 -1 190 -1 5 -1 8155 -1 39 -1 81 -1 #SUP: 2
5 -1 190 -1 5 -1 8155 -1 39 -1 128 -1 #SUP: 2
5 -1 190 -1 5 -1 8155 -1 81 -1 128 -1 #SUP: 2
5 -1 190 -1 18 -1 39 -1 81 -1 128 -1 #SUP: 2
5 -1 190 -1 18 -1 81 -1 17 -1 128 -1 #SUP: 2
5 -1 190 -1 18 -1 8155 -1 39 -1 81 -1 #SUP: 2
5 -1 190 -1 18 -1 8155 -1 39 -1 128 -1 #SUP: 2
5 -1 190 -1 18 -1 8155 -1 81 -1 128 -1 #SUP: 2
5 -1 190 -1 21 -1 28 -1 135 -1 5 -1 #SUP: 2
5 -1 190 -1 21 -1 28 -1 135 -1 28 -1 #SUP: 2
5 -1 190 -1 21 -1 267 -1 28 -1 28 -1 #SUP: 2
5 -1 190 -1 21 -1 267 -1 28 -1 135 -1 #SUP: 2
5 -1 190 -1 21 -1 267 -1 135 -1 28 -1 #SUP: 2
5 -1 190 -1 225 -1 18 -1 39 -1 81 -1 #SUP: 2
5 -1 190 -1 225 -1 18 -1 39 -1 128 -1 #SUP: 2
5 -1 190 -1 225 -1 18 -1 81 -1 128 -1 #SUP: 2
5 -1 190 -1 225 -1 18 -1 8155 -1 39 -1 #SUP: 2
5 -1 190 -1 225 -1 18 -1 8155 -1 81 -1 #SUP: 2
5 -1 190 -1 225 -1 18 -1 8155 -1 128 -1 #SUP: 2
5 -1 190 -1 225 -1 39 -1 81 -1 128 -1 #SUP: 2
5 -1 190 -1 225 -1 8155 -1 39 -1 81 -1 #SUP: 2
5 -1 190 -1 225 -1 8155 -1 39 -1 128 -1 #SUP: 2
5 -1 190 -1 225 -1 8155 -1 81 -1 128 -1 #SUP: 2
5 -1 190 -1 267 -1 28 -1 135 -1 28 -1 #SUP: 2
5 -1 190 -1 8155 -1 39 -1 81 -1 128 -1 #SUP: 2
5 -1 225 -1 18 -1 39 -1 81 -1 128 -1 #SUP: 2
5 -1 225 -1 18 -1 8155 -1 39 -1 81 -1 #SUP: 2
5 -1 225 -1 18 -1 8155 -1 39 -1 128 -1 #SUP: 2
5 -1 225 -1 18 -1 8155 -1 81 -1 128 -1 #SUP: 2
5 -1 225 -1 8155 -1 39 -1 81 -1 128 -1 #SUP: 2
5 -1 230 -1 5 -1 225 -1 376 -1 5 -1 #SUP: 2
40 -1 32 -1 124 -1 41 -1 526 -1 28 -1 #SUP: 2
124 -1 41 -1 526 -1 28 -1 187 -1 265 -1 #SUP: 2
190 -1 5 -1 18 -1 39 -1 81 -1 128 -1 #SUP: 2
190 -1 5 -1 18 -1 81 -1 17 -1 128 -1 #SUP: 2
190 -1 5 -1 18 -1 8155 -1 39 -1 81 -1 #SUP: 2
190 -1 5 -1 18 -1 8155 -1 39 -1 128 -1 #SUP: 2
190 -1 5 -1 18 -1 8155 -1 81 -1 128 -1 #SUP: 2
190 -1 5 -1 225 -1 18 -1 39 -1 81 -1 #SUP: 2
190 -1 5 -1 225 -1 18 -1 39 -1 128 -1 #SUP: 2
190 -1 5 -1 225 -1 18 -1 81 -1 128 -1 #SUP: 2
190 -1 5 -1 225 -1 18 -1 8155 -1 39 -1 #SUP: 2
190 -1 5 -1 225 -1 18 -1 8155 -1 81 -1 #SUP: 2
190 -1 5 -1 225 -1 18 -1 8155 -1 128 -1 #SUP: 2
190 -1 5 -1 225 -1 39 -1 81 -1 128 -1 #SUP: 2
190 -1 5 -1 225 -1 8155 -1 39 -1 81 -1 #SUP: 2
190 -1 5 -1 225 -1 8155 -1 39 -1 128 -1 #SUP: 2
190 -1 5 -1 225 -1 8155 -1 81 -1 128 -1 #SUP: 2
190 -1 5 -1 8155 -1 39 -1 81 -1 128 -1 #SUP: 2
190 -1 18 -1 8155 -1 39 -1 81 -1 128 -1 #SUP: 2
190 -1 21 -1 267 -1 28 -1 135 -1 28 -1 #SUP: 2
190 -1 225 -1 18 -1 39 -1 81 -1 128 -1 #SUP: 2
190 -1 225 -1 18 -1 8155 -1 39 -1 81 -1 #SUP: 2
190 -1 225 -1 18 -1 8155 -1 39 -1 128 -1 #SUP: 2
190 -1 225 -1 18 -1 8155 -1 81 -1 128 -1 #SUP: 2
190 -1 225 -1 8155 -1 39 -1 81 -1 128 -1 #SUP: 2
225 -1 18 -1 8155 -1 39 -1 81 -1 128 -1 #SUP: 2
5 -1 5 -1 18 -1 8155 -1 39 -1 81 -1 128 -1 #SUP: 2
5 -1 5 -1 225 -1 18 -1 39 -1 81 -1 128 -1 #SUP: 2
5 -1 5 -1 225 -1 18 -1 8155 -1 39 -1 81 -1 #SUP: 2
5 -1 5 -1 225 -1 18 -1 8155 -1 39 -1 128 -1 #SUP: 2
5 -1 5 -1 225 -1 18 -1 8155 -1 81 -1 128 -1 #SUP: 2
5 -1 5 -1 225 -1 8155 -1 39 -1 81 -1 128 -1 #SUP: 2
5 -1 190 -1 5 -1 18 -1 39 -1 81 -1 128 -1 #SUP: 2
5 -1 190 -1 5 -1 18 -1 81 -1 17 -1 128 -1 #SUP: 2
5 -1 190 -1 5 -1 18 -1 8155 -1 39 -1 81 -1 #SUP: 2
5 -1 190 -1 5 -1 18 -1 8155 -1 39 -1 128 -1 #SUP: 2
5 -1 190 -1 5 -1 18 -1 8155 -1 81 -1 128 -1 #SUP: 2
5 -1 190 -1 5 -1 225 -1 18 -1 39 -1 81 -1 #SUP: 2
5 -1 190 -1 5 -1 225 -1 18 -1 39 -1 128 -1 #SUP: 2
5 -1 190 -1 5 -1 225 -1 18 -1 81 -1 128 -1 #SUP: 2
5 -1 190 -1 5 -1 225 -1 18 -1 8155 -1 39 -1 #SUP: 2
5 -1 190 -1 5 -1 225 -1 18 -1 8155 -1 81 -1 #SUP: 2
5 -1 190 -1 5 -1 225 -1 18 -1 8155 -1 128 -1 #SUP: 2
5 -1 190 -1 5 -1 225 -1 39 -1 81 -1 128 -1 #SUP: 2
5 -1 190 -1 5 -1 225 -1 8155 -1 39 -1 81 -1 #SUP: 2
5 -1 190 -1 5 -1 225 -1 8155 -1 39 -1 128 -1 #SUP: 2
5 -1 190 -1 5 -1 225 -1 8155 -1 81 -1 128 -1 #SUP: 2
5 -1 190 -1 5 -1 8155 -1 39 -1 81 -1 128 -1 #SUP: 2
5 -1 190 -1 18 -1 8155 -1 39 -1 81 -1 128 -1 #SUP: 2
5 -1 190 -1 21 -1 267 -1 28 -1 135 -1 28 -1 #SUP: 2
5 -1 190 -1 225 -1 18 -1 39 -1 81 -1 128 -1 #SUP: 2
5 -1 190 -1 225 -1 18 -1 8155 -1 39 -1 81 -1 #SUP: 2
5 -1 190 -1 225 -1 18 -1 8155 -1 39 -1 128 -1 #SUP: 2
5 -1 190 -1 225 -1 18 -1 8155 -1 81 -1 128 -1 #SUP: 2
5 -1 190 -1 225 -1 8155 -1 39 -1 81 -1 128 -1 #SUP: 2
5 -1 225 -1 18 -1 8155 -1 39 -1 81 -1 128 -1 #SUP: 2
190 -1 5 -1 18 -1 8155 -1 39 -1 81 -1 128 -1 #SUP: 2
190 -1 5 -1 225 -1 18 -1 39 -1 81 -1 128 -1 #SUP: 2
190 -1 5 -1 225 -1 18 -1 8155 -1 39 -1 81 -1 #SUP: 2
190 -1 5 -1 225 -1 18 -1 8155 -1 39 -1 128 -1 #SUP: 2
190 -1 5 -1 225 -1 18 -1 8155 -1 81 -1 128 -1 #SUP: 2
190 -1 5 -1 225 -1 8155 -1 39 -1 81 -1 128 -1 #SUP: 2
190 -1 225 -1 18 -1 8155 -1 39 -1 81 -1 128 -1 #SUP: 2
5 -1 5 -1 225 -1 18 -1 8155 -1 39 -1 81 -1 128 -1 #SUP: 2
5 -1 190 -1 5 -1 18 -1 8155 -1 39 -1 81 -1 128 -1 #SUP: 2
5 -1 190 -1 5 -1 225 -1 18 -1 39 -1 81 -1 128 -1 #SUP: 2
5 -1 190 -1 5 -1 225 -1 18 -1 8155 -1 39 -1 81 -1 #SUP: 2
5 -1 190 -1 5 -1 225 -1 18 -1 8155 -1 39 -1 128 -1 #SUP: 2
5 -1 190 -1 5 -1 225 -1 18 -1 8155 -1 81 -1 128 -1 #SUP: 2
5 -1 190 -1 5 -1 225 -1 8155 -1 39 -1 81 -1 128 -1 #SUP: 2
5 -1 190 -1 225 -1 18 -1 8155 -1 39 -1 81 -1 128 -1 #SUP: 2
190 -1 5 -1 225 -1 18 -1 8155 -1 39 -1 81 -1 128 -1 #SUP: 2
5 -1 190 -1 5 -1 225 -1 18 -1 8155 -1 39 -1 81 -1 128 -1 #SUP: 2
