39 -1 849 -1 226 -1 47 -1 713 -1 392 -1 6035 -1 38 -1 47 -1 74 -1 21 -1 40 -1 373 -1 32 -1 5 -1 285 -1 1859 -1 328 -1 69 -1 92 -1 392 -1 20901 -1 1 -2
5 -1 18 -1 1062 -1 2055 -1 11096 -1 0 -1 3530 -1 8865 -1 283 -1 2 -1 480 -1 0 -1 171 -1 218 -1 275 -1 86 -1 21 -1 40 -1 1817 -1 0 -1 170 -1 40 -1 177 -1 0 -1 171 -1 3137 -1 0 -1 1413 -1 40 -1 1272 -1 0 -1 283 -1 40 -1 303 -1 0 -1 11398 -1 122 -1 2 -1 2648 -1 123 -1 0 -1 5 -1 151 -1 185 -1 1 -2
5 -1 529 -1 3615 -1 265 -1 5 -1 151 -1 28 -1 171 -1 14 -1 175 -1 5 -1 140 -1 204 -1 28 -1 39 -1 0 -1 92 -1 392 -1 20901 -1 32 -1 39 -1 20902 -1 40 -1 566 -1 1 -2
5 -1 119 -1 566 -1 22 -1 58 -1 267 -1 428 -1 0 -1 756 -1 190 -1 325 -1 92 -1 131 -1 94 -1 1 -2
12 -1 0 -1 92 -1 131 -1 94 -1 125 -1 40 -1 840 -1 74 -1 123 -1 0 -1 32 -1 1081 -1 33 -1 39 -1 558 -1 1004 -1 0 -1 5 -1 190 -1 308 -1 47 -1 131 -1 124 -1 251 -1 28 -1 2209 -1 1 -2
270 -1 2697 -1 125 -1 6 -1 111 -1 78 -1 28 -1 1819 -1 0 -1 66 -1 5 -1 299 -1 325 -1 688 -1 2 -1 64 -1 1 -2
280 -1 18 -1 368 -1 17 -1 2 -1 838 -1 2876 -1 160 -1 280 -1 3500 -1 131 -1 143 -1 21 -1 58 -1 349 -1 162 -1 1 -2
5 -1 321 -1 75 -1 8827 -1 2 -1 240 -1 64 -1 65 -1 24 -1 553 -1 489 -1 75 -1 2 -1 2113 -1 21 -1 40 -1 844 -1 0 -1 5134 -1 550 -1 93 -1 47 -1 149 -1 554 -1 373 -1 4029 -1 32 -1 5 -1 20905 -1 18 -1 2 -1 3378 -1 28 -1 20903 -1 40 -1 303 -1 597 -1 7986 -1 32 -1 20904 -1 1 -2
5 -1 53 -1 18 -1 2 -1 256 -1 70 -1 4072 -1 699 -1 553 -1 912 -1 1 -2
14 -1 553 -1 290 -1 348 -1 3752 -1 178 -1 58 -1 70 -1 92 -1 308 -1 41 -1 809 -1 66 -1 1557 -1 38 -1 1 -2
5 -1 394 -1 1583 -1 0 -1 124 -1 72 -1 1150 -1 22 -1 688 -1 28 -1 297 -1 128 -1 2 -1 1170 -1 0 -1 1399 -1 0 -1 187 -1 853 -1 128 -1 2 -1 1413 -1 1 -2
5 -1 214 -1 2 -1 914 -1 4224 -1 227 -1 1 -2
5 -1 102 -1 226 -1 28 -1 1311 -1 86 -1 179 -1 47 -1 713 -1 133 -1 2 -1 64 -1 0 -1 32 -1 5 -1 102 -1 226 -1 28 -1 171 -1 2153 -1 70 -1 0 -1 148 -1 179 -1 1062 -1 133 -1 0 -1 2270 -1 28 -1 76 -1 179 -1 1062 -1 133 -1 0 -1 14 -1 5 -1 914 -1 67 -1 2 -1 3 -1 15172 -1 38 -1 2 -1 31 -1 2280 -1 31 -1 9871 -1 888 -1 179 -1 688 -1 699 -1 116 -1 154 -1 4 -1 688 -1 122 -1 2 -1 1371 -1 1 -2
9 -1 92 -1 125 -1 265 -1 5 -1 1413 -1 2618 -1 1 -2
5 -1 199 -1 17 -1 2 -1 1006 -1 303 -1 226 -1 688 -1 24 -1 5 -1 49 -1 863 -1 1 -1 5 -1 102 -1 190 -1 5 -1 99 -1 116 -1 493 -1 325 -1 688 -1 66 -1 163 -1 81 -1 553 -1 335 -1 126 -1 31 -1 62 -1 154 -1 1 -2
143 -1 94 -1 92 -1 5120 -1 128 -1 125 -1 47 -1 149 -1 5 -1 18 -1 4529 -1 40 -1 3271 -1 2320 -1 1 -2
5 -1 199 -1 89 -1 2799 -1 86 -1 2 -1 3014 -1 0 -1 124 -1 41 -1 172 -1 22 -1 2 -1 6446 -1 95 -1 1 -2
124 -1 189 -1 9998 -1 2859 -1 4390 -1 822 -1 6 -1 550 -1 92 -1 125 -1 265 -1 5 -1 226 -1 28 -1 430 -1 325 -1 14 -1 5 -1 102 -1 16 -1 859 -1 28 -1 18 -1 2 -1 231 -1 38 -1 2859 -1 4390 -1 1 -2
5 -1 226 -1 1685 -1 111 -1 0 -1 32 -1 5 -1 159 -1 28 -1 189 -1 65 -1 691 -1 0 -1 32 -1 302 -1 569 -1 1650 -1 822 -1 0 -1 172 -1 406 -1 5 -1 102 -1 859 -1 22 -1 2732 -1 38 -1 293 -1 21 -1 224 -1 1 -2
40 -1 3014 -1 125 -1 5400 -1 0 -1 565 -1 2438 -1 128 -1 28 -1 189 -1 2 -1 64 -1 21 -1 272 -1 32 -1 745 -1 822 -1 0 -1 32 -1 5 -1 1990 -1 417 -1 745 -1 1 -2
5 -1 1204 -1 28 -1 144 -1 28 -1 191 -1 550 -1 5 -1 1204 -1 28 -1 2931 -1 65 -1 1 -2
5 -1 226 -1 218 -1 21 -1 147 -1 38 -1 92 -1 5 -1 226 -1 28 -1 116 -1 65 -1 5353 -1 0 -1 1900 -1 32 -1 116 -1 14527 -1 28 -1 1743 -1 1889 -1 92 -1 5 -1 99 -1 18 -1 368 -1 392 -1 7860 -1 1 -2
14 -1 47 -1 149 -1 191 -1 884 -1 125 -1 792 -1 394 -1 28 -1 116 -1 22 -1 2 -1 95 -1 1531 -1 1042 -1 47 -1 5015 -1 2670 -1 1 -2
280 -1 203 -1 309 -1 38 -1 269 -1 28 -1 70 -1 1 -2
161 -1 119 -1 280 -1 2931 -1 6 -1 28 -1 2931 -1 1 -2
302 -1 5 -1 266 -1 116 -1 2 -1 2859 -1 1650 -1 3014 -1 1 -2