0 -1 #SUP: 5
2 -1 #SUP: 15
4 -1 #SUP: 3
5 -1 #SUP: 76
9 -1 #SUP: 9
10 -1 #SUP: 7
11 -1 #SUP: 4
12 -1 #SUP: 4
14 -1 #SUP: 10
16 -1 #SUP: 3
17 -1 #SUP: 3
18 -1 #SUP: 6
19 -1 #SUP: 6
21 -1 #SUP: 9
22 -1 #SUP: 2
27 -1 #SUP: 3
28 -1 #SUP: 28
29 -1 #SUP: 2
32 -1 #SUP: 42
33 -1 #SUP: 8
35 -1 #SUP: 2
38 -1 #SUP: 5
39 -1 #SUP: 17
40 -1 #SUP: 24
41 -1 #SUP: 3
47 -1 #SUP: 22
49 -1 #SUP: 13
51 -1 #SUP: 2
53 -1 #SUP: 5
60 -1 #SUP: 3
66 -1 #SUP: 9
69 -1 #SUP: 2
71 -1 #SUP: 3
72 -1 #SUP: 2
75 -1 #SUP: 3
78 -1 #SUP: 6
81 -1 #SUP: 6
83 -1 #SUP: 2
86 -1 #SUP: 4
89 -1 #SUP: 6
92 -1 #SUP: 12
93 -1 #SUP: 2
94 -1 #SUP: 2
99 -1 #SUP: 6
100 -1 #SUP: 2
102 -1 #SUP: 10
105 -1 #SUP: 2
106 -1 #SUP: 10
109 -1 #SUP: 2
111 -1 #SUP: 3
113 -1 #SUP: 3
116 -1 #SUP: 4
119 -1 #SUP: 2
122 -1 #SUP: 6
124 -1 #SUP: 8
125 -1 #SUP: 6
128 -1 #SUP: 20
131 -1 #SUP: 6
132 -1 #SUP: 3
133 -1 #SUP: 4
137 -1 #SUP: 7
140 -1 #SUP: 6
147 -1 #SUP: 5
149 -1 #SUP: 2
153 -1 #SUP: 3
160 -1 #SUP: 2
171 -1 #SUP: 5
172 -1 #SUP: 2
179 -1 #SUP: 4
190 -1 #SUP: 9
194 -1 #SUP: 2
203 -1 #SUP: 2
210 -1 #SUP: 4
218 -1 #SUP: 2
226 -1 #SUP: 6
227 -1 #SUP: 4
239 -1 #SUP: 3
241 -1 #SUP: 2
243 -1 #SUP: 3
247 -1 #SUP: 5
251 -1 #SUP: 5
261 -1 #SUP: 2
262 -1 #SUP: 2
263 -1 #SUP: 2
265 -1 #SUP: 2
266 -1 #SUP: 2
267 -1 #SUP: 3
270 -1 #SUP: 6
280 -1 #SUP: 6
292 -1 #SUP: 2
328 -1 #SUP: 4
331 -1 #SUP: 3
335 -1 #SUP: 3
336 -1 #SUP: 2
337 -1 #SUP: 2
343 -1 #SUP: 2
346 -1 #SUP: 2
348 -1 #SUP: 4
349 -1 #SUP: 3
357 -1 #SUP: 3
368 -1 #SUP: 5
373 -1 #SUP: 2
375 -1 #SUP: 4
376 -1 #SUP: 4
392 -1 #SUP: 3
417 -1 #SUP: 2
420 -1 #SUP: 2
422 -1 #SUP: 4
457 -1 #SUP: 2
463 -1 #SUP: 2
470 -1 #SUP: 3
489 -1 #SUP: 3
529 -1 #SUP: 5
550 -1 #SUP: 5
553 -1 #SUP: 7
554 -1 #SUP: 3
559 -1 #SUP: 2
584 -1 #SUP: 3
632 -1 #SUP: 3
684 -1 #SUP: 2
688 -1 #SUP: 2
699 -1 #SUP: 3
709 -1 #SUP: 2
768 -1 #SUP: 2
830 -1 #SUP: 3
860 -1 #SUP: 2
886 -1 #SUP: 4
892 -1 #SUP: 2
900 -1 #SUP: 2
961 -1 #SUP: 2
1006 -1 #SUP: 3
1047 -1 #SUP: 2
1061 -1 #SUP: 2
1062 -1 #SUP: 4
1106 -1 #SUP: 2
1114 -1 #SUP: 3
1204 -1 #SUP: 2
1243 -1 #SUP: 3
1272 -1 #SUP: 2
1425 -1 #SUP: 10
1462 -1 #SUP: 2
1476 -1 #SUP: 2
1569 -1 #SUP: 2
1615 -1 #SUP: 2
1654 -1 #SUP: 2
1674 -1 #SUP: 2
1710 -1 #SUP: 2
1715 -1 #SUP: 2
2047 -1 #SUP: 2
2056 -1 #SUP: 2
3080 -1 #SUP: 2
3431 -1 #SUP: 2
4670 -1 #SUP: 3
8563 -1 #SUP: 2
10854 -1 #SUP: 2
11442 -1 #SUP: 3
13074 -1 #SUP: 10
15816 -1 #SUP: 2
17730 -1 #SUP: 2
22610 -1 #SUP: 4
22620 -1 #SUP: 2
22626 -1 #SUP: 2
22628 -1 #SUP: 2
0 -1 5 -1 #SUP: 4
0 -1 33 -1 #SUP: 2
0 -1 78 -1 #SUP: 2
0 -1 128 -1 #SUP: 2
0 -1 270 -1 #SUP: 2
2 -1 2 -1 #SUP: 2
2 -1 5 -1 #SUP: 4
2 -1 9 -1 #SUP: 2
2 -1 21 -1 #SUP: 2
2 -1 27 -1 #SUP: 2
2 -1 28 -1 #SUP: 2
2 -1 32 -1 #SUP: 6
2 -1 40 -1 #SUP: 2
2 -1 41 -1 #SUP: 2
2 -1 47 -1 #SUP: 3
2 -1 78 -1 #SUP: 2
2 -1 227 -1 #SUP: 3
2 -1 376 -1 #SUP: 2
2 -1 420 -1 #SUP: 2
2 -1 550 -1 #SUP: 2
2 -1 709 -1 #SUP: 2
2 -1 900 -1 #SUP: 2
2 -1 2056 -1 #SUP: 2
2 -1 8563 -1 #SUP: 2
4 -1 21 -1 #SUP: 2
4 -1 40 -1 #SUP: 2
4 -1 131 -1 #SUP: 2
5 -1 0 -1 #SUP: 3
5 -1 2 -1 #SUP: 9
5 -1 4 -1 #SUP: 2
5 -1 5 -1 #SUP: 20
5 -1 9 -1 #SUP: 4
5 -1 10 -1 #SUP: 3
5 -1 11 -1 #SUP: 2
5 -1 14 -1 #SUP: 4
5 -1 17 -1 #SUP: 2
5 -1 18 -1 #SUP: 5
5 -1 19 -1 #SUP: 3
5 -1 21 -1 #SUP: 4
5 -1 27 -1 #SUP: 3
5 -1 28 -1 #SUP: 18
5 -1 32 -1 #SUP: 19
5 -1 33 -1 #SUP: 3
5 -1 35 -1 #SUP: 2
5 -1 38 -1 #SUP: 4
5 -1 39 -1 #SUP: 11
5 -1 40 -1 #SUP: 12
5 -1 41 -1 #SUP: 2
5 -1 47 -1 #SUP: 8
5 -1 49 -1 #SUP: 5
5 -1 53 -1 #SUP: 3
5 -1 60 -1 #SUP: 2
5 -1 66 -1 #SUP: 4
5 -1 71 -1 #SUP: 2
5 -1 78 -1 #SUP: 5
5 -1 81 -1 #SUP: 3
5 -1 89 -1 #SUP: 4
5 -1 92 -1 #SUP: 7
5 -1 93 -1 #SUP: 2
5 -1 99 -1 #SUP: 3
5 -1 102 -1 #SUP: 9
5 -1 105 -1 #SUP: 2
5 -1 106 -1 #SUP: 6
5 -1 113 -1 #SUP: 2
5 -1 116 -1 #SUP: 4
5 -1 122 -1 #SUP: 2
5 -1 124 -1 #SUP: 3
5 -1 125 -1 #SUP: 2
5 -1 128 -1 #SUP: 6
5 -1 131 -1 #SUP: 2
5 -1 132 -1 #SUP: 2
5 -1 133 -1 #SUP: 3
5 -1 140 -1 #SUP: 5
5 -1 147 -1 #SUP: 3
5 -1 153 -1 #SUP: 3
5 -1 171 -1 #SUP: 4
5 -1 179 -1 #SUP: 2
5 -1 190 -1 #SUP: 6
5 -1 194 -1 #SUP: 2
5 -1 210 -1 #SUP: 3
5 -1 226 -1 #SUP: 6
5 -1 227 -1 #SUP: 2
5 -1 247 -1 #SUP: 4
5 -1 251 -1 #SUP: 2
5 -1 262 -1 #SUP: 2
5 -1 266 -1 #SUP: 2
5 -1 267 -1 #SUP: 2
5 -1 270 -1 #SUP: 4
5 -1 336 -1 #SUP: 2
5 -1 337 -1 #SUP: 2
5 -1 343 -1 #SUP: 2
5 -1 348 -1 #SUP: 2
5 -1 368 -1 #SUP: 3
5 -1 375 -1 #SUP: 3
5 -1 376 -1 #SUP: 2
5 -1 392 -1 #SUP: 2
5 -1 417 -1 #SUP: 2
5 -1 422 -1 #SUP: 3
5 -1 457 -1 #SUP: 2
5 -1 463 -1 #SUP: 2
5 -1 470 -1 #SUP: 2
5 -1 529 -1 #SUP: 3
5 -1 550 -1 #SUP: 4
5 -1 584 -1 #SUP: 2
5 -1 632 -1 #SUP: 2
5 -1 688 -1 #SUP: 2
5 -1 768 -1 #SUP: 2
5 -1 886 -1 #SUP: 2
5 -1 1006 -1 #SUP: 2
5 -1 1106 -1 #SUP: 2
5 -1 1114 -1 #SUP: 2
5 -1 1204 -1 #SUP: 2
5 -1 1425 -1 #SUP: 4
5 -1 1615 -1 #SUP: 2
5 -1 1654 -1 #SUP: 2
5 -1 1674 -1 #SUP: 2
5 -1 1710 -1 #SUP: 2
5 -1 2047 -1 #SUP: 2
5 -1 3431 -1 #SUP: 2
5 -1 11442 -1 #SUP: 2
5 -1 13074 -1 #SUP: 5
5 -1 22610 -1 #SUP: 2
5 -1 22620 -1 #SUP: 2
5 -1 22626 -1 #SUP: 2
5 -1 22628 -1 #SUP: 2
9 -1 5 -1 #SUP: 3
9 -1 32 -1 #SUP: 3
9 -1 47 -1 #SUP: 2
9 -1 210 -1 #SUP: 2
9 -1 376 -1 #SUP: 2
10 -1 5 -1 #SUP: 2
10 -1 9 -1 #SUP: 4
10 -1 32 -1 #SUP: 2
10 -1 47 -1 #SUP: 2
10 -1 116 -1 #SUP: 2
10 -1 210 -1 #SUP: 2
10 -1 247 -1 #SUP: 2
10 -1 470 -1 #SUP: 2
12 -1 5 -1 #SUP: 2
12 -1 28 -1 #SUP: 3
12 -1 32 -1 #SUP: 2
12 -1 39 -1 #SUP: 2
14 -1 5 -1 #SUP: 5
14 -1 28 -1 #SUP: 3
14 -1 32 -1 #SUP: 2
14 -1 40 -1 #SUP: 2
14 -1 47 -1 #SUP: 2
14 -1 53 -1 #SUP: 3
14 -1 102 -1 #SUP: 2
14 -1 106 -1 #SUP: 2
14 -1 113 -1 #SUP: 2
14 -1 335 -1 #SUP: 2
14 -1 376 -1 #SUP: 2
14 -1 550 -1 #SUP: 2
17 -1 32 -1 #SUP: 2
17 -1 1062 -1 #SUP: 2
18 -1 2 -1 #SUP: 2
18 -1 32 -1 #SUP: 2
18 -1 128 -1 #SUP: 2
19 -1 5 -1 #SUP: 2
19 -1 28 -1 #SUP: 2
19 -1 29 -1 #SUP: 2
19 -1 102 -1 #SUP: 2
21 -1 5 -1 #SUP: 2
21 -1 14 -1 #SUP: 2
21 -1 32 -1 #SUP: 4
21 -1 33 -1 #SUP: 2
21 -1 40 -1 #SUP: 5
21 -1 47 -1 #SUP: 2
21 -1 153 -1 #SUP: 2
21 -1 247 -1 #SUP: 2
28 -1 2 -1 #SUP: 2
28 -1 5 -1 #SUP: 6
28 -1 9 -1 #SUP: 2
28 -1 18 -1 #SUP: 2
28 -1 21 -1 #SUP: 3
28 -1 28 -1 #SUP: 2
28 -1 32 -1 #SUP: 7
28 -1 39 -1 #SUP: 6
28 -1 40 -1 #SUP: 5
28 -1 47 -1 #SUP: 4
28 -1 66 -1 #SUP: 2
28 -1 89 -1 #SUP: 2
28 -1 92 -1 #SUP: 2
28 -1 128 -1 #SUP: 3
28 -1 133 -1 #SUP: 2
28 -1 140 -1 #SUP: 3
28 -1 171 -1 #SUP: 2
28 -1 179 -1 #SUP: 2
28 -1 190 -1 #SUP: 2
28 -1 270 -1 #SUP: 2
28 -1 343 -1 #SUP: 2
28 -1 375 -1 #SUP: 2
28 -1 457 -1 #SUP: 2
28 -1 550 -1 #SUP: 2
28 -1 900 -1 #SUP: 2
28 -1 1062 -1 #SUP: 4
28 -1 1715 -1 #SUP: 2
28 -1 2047 -1 #SUP: 2
28 -1 2056 -1 #SUP: 2
28 -1 3080 -1 #SUP: 2
32 -1 0 -1 #SUP: 2
32 -1 2 -1 #SUP: 3
32 -1 5 -1 #SUP: 9
32 -1 9 -1 #SUP: 2
32 -1 14 -1 #SUP: 3
32 -1 17 -1 #SUP: 2
32 -1 18 -1 #SUP: 2
32 -1 22 -1 #SUP: 2
32 -1 28 -1 #SUP: 7
32 -1 32 -1 #SUP: 8
32 -1 33 -1 #SUP: 2
32 -1 38 -1 #SUP: 3
32 -1 39 -1 #SUP: 6
32 -1 40 -1 #SUP: 5
32 -1 41 -1 #SUP: 2
32 -1 47 -1 #SUP: 6
32 -1 49 -1 #SUP: 6
32 -1 53 -1 #SUP: 2
32 -1 66 -1 #SUP: 2
32 -1 71 -1 #SUP: 2
32 -1 78 -1 #SUP: 2
32 -1 81 -1 #SUP: 2
32 -1 89 -1 #SUP: 3
32 -1 92 -1 #SUP: 6
32 -1 102 -1 #SUP: 2
32 -1 111 -1 #SUP: 2
32 -1 119 -1 #SUP: 2
32 -1 124 -1 #SUP: 2
32 -1 128 -1 #SUP: 6
32 -1 147 -1 #SUP: 2
32 -1 210 -1 #SUP: 2
32 -1 226 -1 #SUP: 3
32 -1 227 -1 #SUP: 3
32 -1 247 -1 #SUP: 3
32 -1 251 -1 #SUP: 3
32 -1 343 -1 #SUP: 2
32 -1 376 -1 #SUP: 3
32 -1 554 -1 #SUP: 2
32 -1 584 -1 #SUP: 3
32 -1 860 -1 #SUP: 2
32 -1 1047 -1 #SUP: 2
32 -1 1062 -1 #SUP: 3
32 -1 1425 -1 #SUP: 3
32 -1 1569 -1 #SUP: 2
32 -1 1674 -1 #SUP: 2
32 -1 3080 -1 #SUP: 2
32 -1 11442 -1 #SUP: 2
32 -1 13074 -1 #SUP: 2
32 -1 22628 -1 #SUP: 2
33 -1 5 -1 #SUP: 2
33 -1 33 -1 #SUP: 2
33 -1 102 -1 #SUP: 2
33 -1 128 -1 #SUP: 3
33 -1 137 -1 #SUP: 2
38 -1 2 -1 #SUP: 2
38 -1 32 -1 #SUP: 3
38 -1 40 -1 #SUP: 4
38 -1 147 -1 #SUP: 3
39 -1 5 -1 #SUP: 2
39 -1 11 -1 #SUP: 2
39 -1 14 -1 #SUP: 2
39 -1 19 -1 #SUP: 2
39 -1 21 -1 #SUP: 2
39 -1 28 -1 #SUP: 2
39 -1 32 -1 #SUP: 3
39 -1 47 -1 #SUP: 2
39 -1 49 -1 #SUP: 3
39 -1 66 -1 #SUP: 2
39 -1 1062 -1 #SUP: 2
40 -1 2 -1 #SUP: 2
40 -1 5 -1 #SUP: 5
40 -1 16 -1 #SUP: 2
40 -1 28 -1 #SUP: 6
40 -1 32 -1 #SUP: 7
40 -1 40 -1 #SUP: 4
40 -1 47 -1 #SUP: 2
40 -1 49 -1 #SUP: 4
40 -1 99 -1 #SUP: 2
40 -1 106 -1 #SUP: 2
40 -1 125 -1 #SUP: 2
40 -1 128 -1 #SUP: 2
40 -1 132 -1 #SUP: 2
40 -1 194 -1 #SUP: 2
40 -1 270 -1 #SUP: 2
40 -1 373 -1 #SUP: 2
40 -1 554 -1 #SUP: 3
40 -1 584 -1 #SUP: 2
40 -1 1006 -1 #SUP: 2
40 -1 1272 -1 #SUP: 2
40 -1 1425 -1 #SUP: 9
40 -1 1569 -1 #SUP: 2
40 -1 2056 -1 #SUP: 2
40 -1 3431 -1 #SUP: 2
47 -1 5 -1 #SUP: 4
47 -1 28 -1 #SUP: 4
47 -1 32 -1 #SUP: 7
47 -1 39 -1 #SUP: 4
47 -1 40 -1 #SUP: 2
47 -1 47 -1 #SUP: 4
47 -1 49 -1 #SUP: 3
47 -1 92 -1 #SUP: 3
47 -1 109 -1 #SUP: 2
47 -1 113 -1 #SUP: 2
47 -1 125 -1 #SUP: 3
47 -1 190 -1 #SUP: 2
47 -1 210 -1 #SUP: 4
47 -1 227 -1 #SUP: 2
47 -1 265 -1 #SUP: 2
47 -1 768 -1 #SUP: 2
47 -1 1062 -1 #SUP: 2
47 -1 2047 -1 #SUP: 2
47 -1 13074 -1 #SUP: 3
49 -1 5 -1 #SUP: 2
49 -1 17 -1 #SUP: 2
49 -1 28 -1 #SUP: 3
49 -1 32 -1 #SUP: 6
49 -1 47 -1 #SUP: 5
49 -1 49 -1 #SUP: 4
49 -1 89 -1 #SUP: 2
49 -1 1062 -1 #SUP: 2
53 -1 5 -1 #SUP: 2
53 -1 28 -1 #SUP: 3
53 -1 32 -1 #SUP: 2
53 -1 102 -1 #SUP: 2
53 -1 106 -1 #SUP: 2
53 -1 1062 -1 #SUP: 2
60 -1 2 -1 #SUP: 2
60 -1 32 -1 #SUP: 2
60 -1 49 -1 #SUP: 2
66 -1 5 -1 #SUP: 5
66 -1 21 -1 #SUP: 3
66 -1 28 -1 #SUP: 3
66 -1 32 -1 #SUP: 2
66 -1 39 -1 #SUP: 2
66 -1 40 -1 #SUP: 2
66 -1 92 -1 #SUP: 2
66 -1 99 -1 #SUP: 2
66 -1 128 -1 #SUP: 4
66 -1 13074 -1 #SUP: 2
69 -1 5 -1 #SUP: 2
69 -1 32 -1 #SUP: 2
72 -1 32 -1 #SUP: 2
72 -1 128 -1 #SUP: 2
72 -1 226 -1 #SUP: 2
78 -1 32 -1 #SUP: 2
78 -1 38 -1 #SUP: 2
78 -1 40 -1 #SUP: 2
78 -1 128 -1 #SUP: 2
78 -1 147 -1 #SUP: 2
81 -1 5 -1 #SUP: 4
81 -1 28 -1 #SUP: 3
81 -1 32 -1 #SUP: 3
81 -1 128 -1 #SUP: 2
81 -1 190 -1 #SUP: 2
81 -1 699 -1 #SUP: 2
83 -1 32 -1 #SUP: 2
86 -1 32 -1 #SUP: 2
89 -1 28 -1 #SUP: 2
89 -1 47 -1 #SUP: 2
92 -1 5 -1 #SUP: 4
92 -1 10 -1 #SUP: 2
92 -1 32 -1 #SUP: 3
92 -1 39 -1 #SUP: 2
92 -1 47 -1 #SUP: 3
92 -1 49 -1 #SUP: 2
92 -1 128 -1 #SUP: 2
92 -1 247 -1 #SUP: 2
92 -1 13074 -1 #SUP: 2
94 -1 28 -1 #SUP: 2
99 -1 16 -1 #SUP: 2
99 -1 47 -1 #SUP: 2
99 -1 92 -1 #SUP: 2
99 -1 128 -1 #SUP: 2
102 -1 5 -1 #SUP: 2
102 -1 28 -1 #SUP: 3
102 -1 106 -1 #SUP: 2
102 -1 140 -1 #SUP: 2
102 -1 226 -1 #SUP: 2
102 -1 243 -1 #SUP: 2
102 -1 1615 -1 #SUP: 2
106 -1 5 -1 #SUP: 4
106 -1 28 -1 #SUP: 2
106 -1 32 -1 #SUP: 4
106 -1 39 -1 #SUP: 4
106 -1 81 -1 #SUP: 2
106 -1 92 -1 #SUP: 2
106 -1 102 -1 #SUP: 2
106 -1 529 -1 #SUP: 2
113 -1 32 -1 #SUP: 2
113 -1 47 -1 #SUP: 2
113 -1 210 -1 #SUP: 2
122 -1 5 -1 #SUP: 4
122 -1 32 -1 #SUP: 2
122 -1 102 -1 #SUP: 2
122 -1 128 -1 #SUP: 2
122 -1 218 -1 #SUP: 2
122 -1 241 -1 #SUP: 2
124 -1 2 -1 #SUP: 2
124 -1 5 -1 #SUP: 3
124 -1 28 -1 #SUP: 2
124 -1 32 -1 #SUP: 3
124 -1 40 -1 #SUP: 2
124 -1 92 -1 #SUP: 2
124 -1 190 -1 #SUP: 2
124 -1 247 -1 #SUP: 2
124 -1 251 -1 #SUP: 3
124 -1 13074 -1 #SUP: 2
125 -1 5 -1 #SUP: 2
125 -1 32 -1 #SUP: 3
125 -1 47 -1 #SUP: 2
125 -1 92 -1 #SUP: 2
125 -1 13074 -1 #SUP: 2
128 -1 5 -1 #SUP: 8
128 -1 14 -1 #SUP: 3
128 -1 28 -1 #SUP: 3
128 -1 32 -1 #SUP: 4
128 -1 39 -1 #SUP: 2
128 -1 40 -1 #SUP: 2
128 -1 47 -1 #SUP: 3
128 -1 49 -1 #SUP: 3
128 -1 102 -1 #SUP: 3
128 -1 128 -1 #SUP: 3
128 -1 226 -1 #SUP: 3
128 -1 328 -1 #SUP: 2
128 -1 368 -1 #SUP: 2
128 -1 699 -1 #SUP: 2
128 -1 22628 -1 #SUP: 2
131 -1 2 -1 #SUP: 2
131 -1 5 -1 #SUP: 2
131 -1 21 -1 #SUP: 3
131 -1 40 -1 #SUP: 2
133 -1 5 -1 #SUP: 2
133 -1 32 -1 #SUP: 2
137 -1 128 -1 #SUP: 3
137 -1 137 -1 #SUP: 3
137 -1 190 -1 #SUP: 2
140 -1 32 -1 #SUP: 2
147 -1 32 -1 #SUP: 3
147 -1 40 -1 #SUP: 3
149 -1 5 -1 #SUP: 2
149 -1 92 -1 #SUP: 2
171 -1 28 -1 #SUP: 2
179 -1 47 -1 #SUP: 2
190 -1 5 -1 #SUP: 2
190 -1 10 -1 #SUP: 2
190 -1 32 -1 #SUP: 2
190 -1 33 -1 #SUP: 2
190 -1 78 -1 #SUP: 2
190 -1 102 -1 #SUP: 3
190 -1 128 -1 #SUP: 3
190 -1 137 -1 #SUP: 3
190 -1 203 -1 #SUP: 2
190 -1 699 -1 #SUP: 2
190 -1 13074 -1 #SUP: 2
194 -1 5 -1 #SUP: 2
194 -1 32 -1 #SUP: 2
203 -1 10 -1 #SUP: 2
218 -1 241 -1 #SUP: 2
226 -1 5 -1 #SUP: 2
226 -1 28 -1 #SUP: 2
239 -1 32 -1 #SUP: 2
239 -1 92 -1 #SUP: 2
239 -1 99 -1 #SUP: 2
247 -1 1654 -1 #SUP: 2
251 -1 28 -1 #SUP: 3
251 -1 32 -1 #SUP: 2
262 -1 40 -1 #SUP: 2
263 -1 280 -1 #SUP: 2
267 -1 128 -1 #SUP: 2
270 -1 5 -1 #SUP: 3
270 -1 32 -1 #SUP: 4
270 -1 125 -1 #SUP: 2
270 -1 251 -1 #SUP: 2
270 -1 3431 -1 #SUP: 2
280 -1 11 -1 #SUP: 2
280 -1 14 -1 #SUP: 2
280 -1 32 -1 #SUP: 2
280 -1 39 -1 #SUP: 2
280 -1 47 -1 #SUP: 2
280 -1 86 -1 #SUP: 2
280 -1 4670 -1 #SUP: 2
280 -1 13074 -1 #SUP: 2
292 -1 5 -1 #SUP: 2
292 -1 153 -1 #SUP: 2
331 -1 5 -1 #SUP: 2
331 -1 28 -1 #SUP: 2
331 -1 40 -1 #SUP: 2
335 -1 5 -1 #SUP: 2
335 -1 32 -1 #SUP: 2
335 -1 1674 -1 #SUP: 2
336 -1 5 -1 #SUP: 2
336 -1 140 -1 #SUP: 2
346 -1 86 -1 #SUP: 2
349 -1 5 -1 #SUP: 2
349 -1 28 -1 #SUP: 2
349 -1 32 -1 #SUP: 2
349 -1 247 -1 #SUP: 2
357 -1 32 -1 #SUP: 3
368 -1 5 -1 #SUP: 3
368 -1 28 -1 #SUP: 2
368 -1 47 -1 #SUP: 2
368 -1 128 -1 #SUP: 2
368 -1 226 -1 #SUP: 2
373 -1 28 -1 #SUP: 2
375 -1 40 -1 #SUP: 2
375 -1 22610 -1 #SUP: 2
392 -1 270 -1 #SUP: 2
420 -1 9 -1 #SUP: 2
420 -1 32 -1 #SUP: 2
420 -1 376 -1 #SUP: 2
420 -1 709 -1 #SUP: 2
420 -1 8563 -1 #SUP: 2
422 -1 47 -1 #SUP: 2
489 -1 128 -1 #SUP: 2
529 -1 5 -1 #SUP: 2
529 -1 28 -1 #SUP: 2
529 -1 39 -1 #SUP: 2
550 -1 5 -1 #SUP: 5
550 -1 28 -1 #SUP: 2
550 -1 32 -1 #SUP: 2
550 -1 39 -1 #SUP: 2
550 -1 47 -1 #SUP: 3
550 -1 49 -1 #SUP: 2
550 -1 457 -1 #SUP: 2
550 -1 2047 -1 #SUP: 2
553 -1 5 -1 #SUP: 3
553 -1 17 -1 #SUP: 2
553 -1 28 -1 #SUP: 2
553 -1 32 -1 #SUP: 4
553 -1 49 -1 #SUP: 2
553 -1 128 -1 #SUP: 3
553 -1 357 -1 #SUP: 2
553 -1 1243 -1 #SUP: 2
553 -1 22628 -1 #SUP: 2
554 -1 125 -1 #SUP: 2
559 -1 5 -1 #SUP: 2
632 -1 11 -1 #SUP: 2
684 -1 21 -1 #SUP: 2
699 -1 5 -1 #SUP: 2
709 -1 9 -1 #SUP: 2
709 -1 32 -1 #SUP: 2
709 -1 376 -1 #SUP: 2
886 -1 5 -1 #SUP: 2
886 -1 18 -1 #SUP: 2
886 -1 28 -1 #SUP: 3
886 -1 32 -1 #SUP: 3
886 -1 39 -1 #SUP: 3
886 -1 111 -1 #SUP: 2
900 -1 2056 -1 #SUP: 2
1061 -1 5 -1 #SUP: 2
1061 -1 92 -1 #SUP: 2
1062 -1 3080 -1 #SUP: 2
1114 -1 128 -1 #SUP: 2
1204 -1 28 -1 #SUP: 2
1272 -1 32 -1 #SUP: 2
1425 -1 5 -1 #SUP: 3
1425 -1 28 -1 #SUP: 3
1425 -1 32 -1 #SUP: 3
1425 -1 40 -1 #SUP: 2
1425 -1 47 -1 #SUP: 2
1425 -1 49 -1 #SUP: 3
1425 -1 125 -1 #SUP: 2
1425 -1 554 -1 #SUP: 3
1425 -1 584 -1 #SUP: 2
1425 -1 1569 -1 #SUP: 2
1569 -1 28 -1 #SUP: 2
1674 -1 5 -1 #SUP: 2
1710 -1 5 -1 #SUP: 2
1710 -1 32 -1 #SUP: 2
1710 -1 194 -1 #SUP: 2
3431 -1 5 -1 #SUP: 2
3431 -1 32 -1 #SUP: 2
8563 -1 9 -1 #SUP: 2
8563 -1 32 -1 #SUP: 2
8563 -1 376 -1 #SUP: 2
8563 -1 709 -1 #SUP: 2
10854 -1 261 -1 #SUP: 2
11442 -1 40 -1 #SUP: 2
11442 -1 128 -1 #SUP: 2
13074 -1 5 -1 #SUP: 5
13074 -1 32 -1 #SUP: 3
13074 -1 39 -1 #SUP: 2
13074 -1 47 -1 #SUP: 2
15816 -1 32 -1 #SUP: 2
22610 -1 5 -1 #SUP: 2
22610 -1 32 -1 #SUP: 2
22626 -1 32 -1 #SUP: 2
22626 -1 860 -1 #SUP: 2
22628 -1 5 -1 #SUP: 2
0 -1 5 -1 128 -1 #SUP: 2
0 -1 5 -1 270 -1 #SUP: 2
0 -1 33 -1 33 -1 #SUP: 2
2 -1 5 -1 5 -1 #SUP: 2
2 -1 9 -1 32 -1 #SUP: 2
2 -1 9 -1 376 -1 #SUP: 2
2 -1 28 -1 900 -1 #SUP: 2
2 -1 28 -1 2056 -1 #SUP: 2
2 -1 32 -1 41 -1 #SUP: 2
2 -1 32 -1 47 -1 #SUP: 2
2 -1 32 -1 376 -1 #SUP: 2
2 -1 420 -1 9 -1 #SUP: 2
2 -1 420 -1 32 -1 #SUP: 2
2 -1 420 -1 376 -1 #SUP: 2
2 -1 420 -1 709 -1 #SUP: 2
2 -1 420 -1 8563 -1 #SUP: 2
2 -1 550 -1 5 -1 #SUP: 2
2 -1 709 -1 9 -1 #SUP: 2
2 -1 709 -1 32 -1 #SUP: 2
2 -1 709 -1 376 -1 #SUP: 2
2 -1 900 -1 2056 -1 #SUP: 2
2 -1 8563 -1 9 -1 #SUP: 2
2 -1 8563 -1 32 -1 #SUP: 2
2 -1 8563 -1 376 -1 #SUP: 2
2 -1 8563 -1 709 -1 #SUP: 2
4 -1 21 -1 40 -1 #SUP: 2
4 -1 131 -1 21 -1 #SUP: 2
4 -1 131 -1 40 -1 #SUP: 2
5 -1 0 -1 5 -1 #SUP: 2
5 -1 0 -1 33 -1 #SUP: 2
5 -1 0 -1 78 -1 #SUP: 2
5 -1 2 -1 5 -1 #SUP: 2
5 -1 2 -1 21 -1 #SUP: 2
5 -1 2 -1 32 -1 #SUP: 3
5 -1 2 -1 41 -1 #SUP: 2
5 -1 2 -1 47 -1 #SUP: 2
5 -1 2 -1 78 -1 #SUP: 2
5 -1 2 -1 227 -1 #SUP: 2
5 -1 5 -1 2 -1 #SUP: 2
5 -1 5 -1 5 -1 #SUP: 2
5 -1 5 -1 28 -1 #SUP: 5
5 -1 5 -1 32 -1 #SUP: 4
5 -1 5 -1 33 -1 #SUP: 2
5 -1 5 -1 38 -1 #SUP: 2
5 -1 5 -1 39 -1 #SUP: 6
5 -1 5 -1 40 -1 #SUP: 2
5 -1 5 -1 47 -1 #SUP: 5
5 -1 5 -1 49 -1 #SUP: 3
5 -1 5 -1 92 -1 #SUP: 3
5 -1 5 -1 102 -1 #SUP: 4
5 -1 5 -1 106 -1 #SUP: 2
5 -1 5 -1 140 -1 #SUP: 4
5 -1 5 -1 190 -1 #SUP: 2
5 -1 5 -1 247 -1 #SUP: 2
5 -1 5 -1 529 -1 #SUP: 2
5 -1 5 -1 1114 -1 #SUP: 2
5 -1 9 -1 32 -1 #SUP: 2
5 -1 9 -1 47 -1 #SUP: 2
5 -1 9 -1 210 -1 #SUP: 2
5 -1 10 -1 32 -1 #SUP: 2
5 -1 10 -1 47 -1 #SUP: 2
5 -1 10 -1 116 -1 #SUP: 2
5 -1 10 -1 210 -1 #SUP: 2
5 -1 10 -1 247 -1 #SUP: 2
5 -1 14 -1 5 -1 #SUP: 4
5 -1 14 -1 28 -1 #SUP: 2
5 -1 14 -1 550 -1 #SUP: 2
5 -1 18 -1 2 -1 #SUP: 2
5 -1 18 -1 32 -1 #SUP: 2
5 -1 18 -1 128 -1 #SUP: 2
5 -1 19 -1 5 -1 #SUP: 2
5 -1 19 -1 28 -1 #SUP: 2
5 -1 19 -1 102 -1 #SUP: 2
5 -1 21 -1 40 -1 #SUP: 3
5 -1 28 -1 2 -1 #SUP: 2
5 -1 28 -1 5 -1 #SUP: 4
5 -1 28 -1 32 -1 #SUP: 5
5 -1 28 -1 39 -1 #SUP: 4
5 -1 28 -1 40 -1 #SUP: 3
5 -1 28 -1 47 -1 #SUP: 2
5 -1 28 -1 66 -1 #SUP: 2
5 -1 28 -1 133 -1 #SUP: 2
5 -1 28 -1 140 -1 #SUP: 2
5 -1 28 -1 179 -1 #SUP: 2
5 -1 28 -1 270 -1 #SUP: 2
5 -1 28 -1 457 -1 #SUP: 2
5 -1 32 -1 5 -1 #SUP: 7
5 -1 32 -1 28 -1 #SUP: 3
5 -1 32 -1 32 -1 #SUP: 3
5 -1 32 -1 39 -1 #SUP: 3
5 -1 32 -1 40 -1 #SUP: 3
5 -1 32 -1 41 -1 #SUP: 2
5 -1 32 -1 47 -1 #SUP: 2
5 -1 32 -1 49 -1 #SUP: 2
5 -1 32 -1 81 -1 #SUP: 2
5 -1 32 -1 89 -1 #SUP: 2
5 -1 32 -1 92 -1 #SUP: 2
5 -1 32 -1 102 -1 #SUP: 2
5 -1 32 -1 128 -1 #SUP: 2
5 -1 32 -1 226 -1 #SUP: 2
5 -1 32 -1 227 -1 #SUP: 2
5 -1 32 -1 247 -1 #SUP: 2
5 -1 32 -1 584 -1 #SUP: 2
5 -1 32 -1 1425 -1 #SUP: 2
5 -1 32 -1 11442 -1 #SUP: 2
5 -1 33 -1 33 -1 #SUP: 2
5 -1 38 -1 2 -1 #SUP: 2
5 -1 38 -1 32 -1 #SUP: 3
5 -1 38 -1 40 -1 #SUP: 3
5 -1 38 -1 147 -1 #SUP: 2
5 -1 39 -1 5 -1 #SUP: 2
5 -1 39 -1 19 -1 #SUP: 2
5 -1 39 -1 66 -1 #SUP: 2
5 -1 40 -1 2 -1 #SUP: 2
5 -1 40 -1 5 -1 #SUP: 3
5 -1 40 -1 28 -1 #SUP: 2
5 -1 40 -1 32 -1 #SUP: 4
5 -1 40 -1 49 -1 #SUP: 2
5 -1 40 -1 132 -1 #SUP: 2
5 -1 40 -1 270 -1 #SUP: 2
5 -1 40 -1 584 -1 #SUP: 2
5 -1 40 -1 1425 -1 #SUP: 4
5 -1 40 -1 3431 -1 #SUP: 2
5 -1 47 -1 5 -1 #SUP: 2
5 -1 47 -1 28 -1 #SUP: 2
5 -1 47 -1 32 -1 #SUP: 4
5 -1 47 -1 40 -1 #SUP: 2
5 -1 47 -1 92 -1 #SUP: 2
5 -1 47 -1 113 -1 #SUP: 2
5 -1 47 -1 210 -1 #SUP: 3
5 -1 47 -1 2047 -1 #SUP: 2
5 -1 49 -1 5 -1 #SUP: 2
5 -1 49 -1 32 -1 #SUP: 3
5 -1 53 -1 5 -1 #SUP: 2
5 -1 53 -1 28 -1 #SUP: 2
5 -1 53 -1 32 -1 #SUP: 2
5 -1 66 -1 5 -1 #SUP: 2
5 -1 66 -1 40 -1 #SUP: 2
5 -1 78 -1 32 -1 #SUP: 2
5 -1 78 -1 38 -1 #SUP: 2
5 -1 78 -1 40 -1 #SUP: 2
5 -1 78 -1 147 -1 #SUP: 2
5 -1 81 -1 5 -1 #SUP: 3
5 -1 92 -1 5 -1 #SUP: 3
5 -1 102 -1 5 -1 #SUP: 2
5 -1 102 -1 28 -1 #SUP: 2
5 -1 102 -1 106 -1 #SUP: 2
5 -1 102 -1 140 -1 #SUP: 2
5 -1 102 -1 226 -1 #SUP: 2
5 -1 102 -1 1615 -1 #SUP: 2
5 -1 106 -1 5 -1 #SUP: 3
5 -1 106 -1 28 -1 #SUP: 2
5 -1 106 -1 32 -1 #SUP: 2
5 -1 106 -1 39 -1 #SUP: 4
5 -1 106 -1 529 -1 #SUP: 2
5 -1 113 -1 32 -1 #SUP: 2
5 -1 124 -1 32 -1 #SUP: 2
5 -1 128 -1 5 -1 #SUP: 3
5 -1 131 -1 2 -1 #SUP: 2
5 -1 147 -1 32 -1 #SUP: 3
5 -1 147 -1 40 -1 #SUP: 2
5 -1 171 -1 28 -1 #SUP: 2
5 -1 190 -1 5 -1 #SUP: 2
5 -1 190 -1 32 -1 #SUP: 2
5 -1 190 -1 102 -1 #SUP: 3
5 -1 190 -1 128 -1 #SUP: 2
5 -1 194 -1 5 -1 #SUP: 2
5 -1 226 -1 5 -1 #SUP: 2
5 -1 226 -1 28 -1 #SUP: 2
5 -1 247 -1 1654 -1 #SUP: 2
5 -1 251 -1 28 -1 #SUP: 2
5 -1 251 -1 32 -1 #SUP: 2
5 -1 262 -1 40 -1 #SUP: 2
5 -1 270 -1 5 -1 #SUP: 2
5 -1 270 -1 32 -1 #SUP: 2
5 -1 270 -1 3431 -1 #SUP: 2
5 -1 336 -1 5 -1 #SUP: 2
5 -1 336 -1 140 -1 #SUP: 2
5 -1 368 -1 47 -1 #SUP: 2
5 -1 375 -1 40 -1 #SUP: 2
5 -1 529 -1 5 -1 #SUP: 2
5 -1 529 -1 28 -1 #SUP: 2
5 -1 529 -1 39 -1 #SUP: 2
5 -1 550 -1 5 -1 #SUP: 4
5 -1 550 -1 47 -1 #SUP: 3
5 -1 550 -1 457 -1 #SUP: 2
5 -1 886 -1 5 -1 #SUP: 2
5 -1 886 -1 28 -1 #SUP: 2
5 -1 886 -1 32 -1 #SUP: 2
5 -1 1204 -1 28 -1 #SUP: 2
5 -1 1425 -1 32 -1 #SUP: 2
5 -1 1425 -1 584 -1 #SUP: 2
5 -1 1674 -1 5 -1 #SUP: 2
5 -1 1710 -1 5 -1 #SUP: 2
5 -1 1710 -1 194 -1 #SUP: 2
5 -1 3431 -1 5 -1 #SUP: 2
5 -1 3431 -1 32 -1 #SUP: 2
5 -1 13074 -1 5 -1 #SUP: 3
5 -1 22610 -1 32 -1 #SUP: 2
5 -1 22626 -1 32 -1 #SUP: 2
5 -1 22628 -1 5 -1 #SUP: 2
9 -1 32 -1 376 -1 #SUP: 2
9 -1 47 -1 210 -1 #SUP: 2
10 -1 32 -1 247 -1 #SUP: 2
10 -1 47 -1 210 -1 #SUP: 2
12 -1 5 -1 5 -1 #SUP: 2
12 -1 5 -1 28 -1 #SUP: 2
14 -1 5 -1 5 -1 #SUP: 2
14 -1 5 -1 28 -1 #SUP: 2
14 -1 53 -1 28 -1 #SUP: 2
14 -1 53 -1 102 -1 #SUP: 2
14 -1 53 -1 106 -1 #SUP: 2
14 -1 102 -1 28 -1 #SUP: 2
14 -1 550 -1 5 -1 #SUP: 2
19 -1 5 -1 102 -1 #SUP: 2
21 -1 32 -1 14 -1 #SUP: 2
28 -1 5 -1 5 -1 #SUP: 2
28 -1 5 -1 190 -1 #SUP: 2
28 -1 21 -1 47 -1 #SUP: 2
28 -1 32 -1 5 -1 #SUP: 2
28 -1 32 -1 39 -1 #SUP: 2
28 -1 32 -1 47 -1 #SUP: 2
28 -1 32 -1 89 -1 #SUP: 2
28 -1 32 -1 92 -1 #SUP: 2
28 -1 32 -1 1062 -1 #SUP: 3
28 -1 32 -1 3080 -1 #SUP: 2
28 -1 39 -1 1062 -1 #SUP: 2
28 -1 40 -1 5 -1 #SUP: 2
28 -1 47 -1 1062 -1 #SUP: 2
28 -1 47 -1 2047 -1 #SUP: 2
28 -1 66 -1 5 -1 #SUP: 2
28 -1 128 -1 5 -1 #SUP: 2
28 -1 550 -1 5 -1 #SUP: 2
28 -1 900 -1 2056 -1 #SUP: 2
28 -1 1062 -1 3080 -1 #SUP: 2
32 -1 5 -1 0 -1 #SUP: 2
32 -1 5 -1 2 -1 #SUP: 2
32 -1 5 -1 5 -1 #SUP: 3
32 -1 5 -1 28 -1 #SUP: 2
32 -1 5 -1 32 -1 #SUP: 2
32 -1 5 -1 38 -1 #SUP: 2
32 -1 5 -1 39 -1 #SUP: 2
32 -1 5 -1 40 -1 #SUP: 2
32 -1 5 -1 49 -1 #SUP: 2
32 -1 5 -1 66 -1 #SUP: 2
32 -1 5 -1 92 -1 #SUP: 2
32 -1 5 -1 102 -1 #SUP: 2
32 -1 5 -1 226 -1 #SUP: 2
32 -1 5 -1 22628 -1 #SUP: 2
32 -1 17 -1 1062 -1 #SUP: 2
32 -1 28 -1 5 -1 #SUP: 2
32 -1 28 -1 18 -1 #SUP: 2
32 -1 28 -1 32 -1 #SUP: 2
32 -1 28 -1 39 -1 #SUP: 3
32 -1 28 -1 66 -1 #SUP: 2
32 -1 32 -1 2 -1 #SUP: 2
32 -1 32 -1 5 -1 #SUP: 3
32 -1 32 -1 28 -1 #SUP: 2
32 -1 32 -1 92 -1 #SUP: 2
32 -1 38 -1 2 -1 #SUP: 2
32 -1 38 -1 40 -1 #SUP: 2
32 -1 39 -1 1062 -1 #SUP: 2
32 -1 40 -1 28 -1 #SUP: 2
32 -1 40 -1 1425 -1 #SUP: 3
32 -1 40 -1 1569 -1 #SUP: 2
32 -1 47 -1 32 -1 #SUP: 2
32 -1 47 -1 210 -1 #SUP: 2
32 -1 47 -1 227 -1 #SUP: 2
32 -1 49 -1 28 -1 #SUP: 2
32 -1 49 -1 32 -1 #SUP: 2
32 -1 49 -1 47 -1 #SUP: 2
32 -1 81 -1 5 -1 #SUP: 2
32 -1 92 -1 128 -1 #SUP: 2
32 -1 128 -1 5 -1 #SUP: 3
32 -1 128 -1 22628 -1 #SUP: 2
32 -1 147 -1 40 -1 #SUP: 2
32 -1 251 -1 28 -1 #SUP: 2
32 -1 1062 -1 3080 -1 #SUP: 2
32 -1 1425 -1 28 -1 #SUP: 2
32 -1 1425 -1 1569 -1 #SUP: 2
32 -1 1569 -1 28 -1 #SUP: 2
33 -1 137 -1 128 -1 #SUP: 2
38 -1 32 -1 40 -1 #SUP: 2
38 -1 147 -1 32 -1 #SUP: 2
38 -1 147 -1 40 -1 #SUP: 3
40 -1 5 -1 28 -1 #SUP: 2
40 -1 5 -1 32 -1 #SUP: 3
40 -1 5 -1 40 -1 #SUP: 2
40 -1 28 -1 40 -1 #SUP: 2
40 -1 32 -1 5 -1 #SUP: 2
40 -1 32 -1 32 -1 #SUP: 3
40 -1 32 -1 49 -1 #SUP: 2
40 -1 270 -1 32 -1 #SUP: 2
40 -1 270 -1 3431 -1 #SUP: 2
40 -1 373 -1 28 -1 #SUP: 2
40 -1 1272 -1 32 -1 #SUP: 2
40 -1 1425 -1 5 -1 #SUP: 3
40 -1 1425 -1 28 -1 #SUP: 3
40 -1 1425 -1 32 -1 #SUP: 3
40 -1 1425 -1 40 -1 #SUP: 2
40 -1 1425 -1 47 -1 #SUP: 2
40 -1 1425 -1 49 -1 #SUP: 3
40 -1 1425 -1 125 -1 #SUP: 2
40 -1 1425 -1 554 -1 #SUP: 3
40 -1 1425 -1 584 -1 #SUP: 2
40 -1 1425 -1 1569 -1 #SUP: 2
40 -1 1569 -1 28 -1 #SUP: 2
40 -1 3431 -1 32 -1 #SUP: 2
47 -1 5 -1 32 -1 #SUP: 2
47 -1 5 -1 190 -1 #SUP: 2
47 -1 28 -1 39 -1 #SUP: 2
47 -1 32 -1 28 -1 #SUP: 2
47 -1 32 -1 32 -1 #SUP: 2
47 -1 32 -1 39 -1 #SUP: 3
47 -1 32 -1 49 -1 #SUP: 2
47 -1 32 -1 1062 -1 #SUP: 2
47 -1 39 -1 1062 -1 #SUP: 2
47 -1 47 -1 32 -1 #SUP: 3
47 -1 47 -1 39 -1 #SUP: 2
47 -1 49 -1 32 -1 #SUP: 3
47 -1 49 -1 47 -1 #SUP: 2
47 -1 49 -1 49 -1 #SUP: 2
47 -1 92 -1 5 -1 #SUP: 2
47 -1 113 -1 32 -1 #SUP: 2
49 -1 17 -1 1062 -1 #SUP: 2
49 -1 28 -1 32 -1 #SUP: 3
49 -1 28 -1 1062 -1 #SUP: 2
49 -1 32 -1 5 -1 #SUP: 2
49 -1 32 -1 17 -1 #SUP: 2
49 -1 32 -1 32 -1 #SUP: 3
49 -1 32 -1 47 -1 #SUP: 2
49 -1 32 -1 49 -1 #SUP: 3
49 -1 32 -1 1062 -1 #SUP: 2
49 -1 47 -1 32 -1 #SUP: 3
49 -1 47 -1 47 -1 #SUP: 2
49 -1 47 -1 49 -1 #SUP: 3
49 -1 49 -1 32 -1 #SUP: 3
49 -1 49 -1 47 -1 #SUP: 2
49 -1 49 -1 49 -1 #SUP: 2
53 -1 28 -1 1062 -1 #SUP: 2
53 -1 102 -1 28 -1 #SUP: 2
60 -1 32 -1 49 -1 #SUP: 2
66 -1 5 -1 5 -1 #SUP: 2
66 -1 5 -1 28 -1 #SUP: 2
66 -1 5 -1 39 -1 #SUP: 2
66 -1 5 -1 128 -1 #SUP: 3
66 -1 13074 -1 5 -1 #SUP: 2
66 -1 13074 -1 39 -1 #SUP: 2
69 -1 5 -1 32 -1 #SUP: 2
72 -1 32 -1 226 -1 #SUP: 2
78 -1 38 -1 32 -1 #SUP: 2
78 -1 38 -1 40 -1 #SUP: 2
78 -1 38 -1 147 -1 #SUP: 2
78 -1 147 -1 32 -1 #SUP: 2
78 -1 147 -1 40 -1 #SUP: 2
81 -1 5 -1 5 -1 #SUP: 2
81 -1 5 -1 28 -1 #SUP: 3
81 -1 5 -1 32 -1 #SUP: 2
81 -1 28 -1 5 -1 #SUP: 2
81 -1 32 -1 5 -1 #SUP: 2
81 -1 32 -1 128 -1 #SUP: 2
81 -1 190 -1 699 -1 #SUP: 2
92 -1 5 -1 32 -1 #SUP: 2
92 -1 5 -1 247 -1 #SUP: 2
102 -1 226 -1 5 -1 #SUP: 2
106 -1 5 -1 5 -1 #SUP: 2
106 -1 5 -1 28 -1 #SUP: 2
106 -1 5 -1 39 -1 #SUP: 2
106 -1 5 -1 102 -1 #SUP: 2
106 -1 32 -1 5 -1 #SUP: 2
106 -1 32 -1 39 -1 #SUP: 2
106 -1 32 -1 92 -1 #SUP: 2
106 -1 529 -1 5 -1 #SUP: 2
106 -1 529 -1 28 -1 #SUP: 2
113 -1 47 -1 210 -1 #SUP: 2
122 -1 5 -1 102 -1 #SUP: 2
122 -1 32 -1 5 -1 #SUP: 2
122 -1 218 -1 241 -1 #SUP: 2
124 -1 5 -1 247 -1 #SUP: 2
128 -1 5 -1 5 -1 #SUP: 6
128 -1 5 -1 14 -1 #SUP: 3
128 -1 5 -1 28 -1 #SUP: 3
128 -1 5 -1 32 -1 #SUP: 2
128 -1 5 -1 40 -1 #SUP: 2
128 -1 5 -1 49 -1 #SUP: 3
128 -1 5 -1 102 -1 #SUP: 3
128 -1 5 -1 226 -1 #SUP: 3
128 -1 5 -1 22628 -1 #SUP: 2
128 -1 14 -1 5 -1 #SUP: 2
128 -1 32 -1 5 -1 #SUP: 4
128 -1 40 -1 5 -1 #SUP: 2
128 -1 49 -1 5 -1 #SUP: 2
128 -1 49 -1 32 -1 #SUP: 2
128 -1 102 -1 5 -1 #SUP: 2
128 -1 102 -1 226 -1 #SUP: 2
128 -1 226 -1 5 -1 #SUP: 2
128 -1 368 -1 5 -1 #SUP: 2
128 -1 699 -1 5 -1 #SUP: 2
131 -1 21 -1 40 -1 #SUP: 2
133 -1 5 -1 32 -1 #SUP: 2
137 -1 190 -1 137 -1 #SUP: 2
149 -1 5 -1 5 -1 #SUP: 2
149 -1 92 -1 5 -1 #SUP: 2
190 -1 5 -1 102 -1 #SUP: 2
190 -1 33 -1 128 -1 #SUP: 2
190 -1 33 -1 137 -1 #SUP: 2
190 -1 137 -1 128 -1 #SUP: 2
190 -1 203 -1 10 -1 #SUP: 2
194 -1 5 -1 32 -1 #SUP: 2
194 -1 32 -1 5 -1 #SUP: 2
239 -1 32 -1 92 -1 #SUP: 2
251 -1 28 -1 32 -1 #SUP: 2
270 -1 5 -1 32 -1 #SUP: 2
270 -1 5 -1 251 -1 #SUP: 2
270 -1 32 -1 5 -1 #SUP: 2
270 -1 3431 -1 5 -1 #SUP: 2
270 -1 3431 -1 32 -1 #SUP: 2
292 -1 5 -1 153 -1 #SUP: 2
335 -1 5 -1 5 -1 #SUP: 2
335 -1 1674 -1 5 -1 #SUP: 2
336 -1 5 -1 140 -1 #SUP: 2
368 -1 128 -1 5 -1 #SUP: 2
420 -1 9 -1 32 -1 #SUP: 2
420 -1 9 -1 376 -1 #SUP: 2
420 -1 32 -1 376 -1 #SUP: 2
420 -1 709 -1 9 -1 #SUP: 2
420 -1 709 -1 32 -1 #SUP: 2
420 -1 709 -1 376 -1 #SUP: 2
420 -1 8563 -1 9 -1 #SUP: 2
420 -1 8563 -1 32 -1 #SUP: 2
420 -1 8563 -1 376 -1 #SUP: 2
420 -1 8563 -1 709 -1 #SUP: 2
529 -1 5 -1 28 -1 #SUP: 2
550 -1 5 -1 5 -1 #SUP: 2
550 -1 5 -1 28 -1 #SUP: 2
550 -1 5 -1 32 -1 #SUP: 2
550 -1 5 -1 39 -1 #SUP: 2
550 -1 5 -1 47 -1 #SUP: 3
550 -1 5 -1 49 -1 #SUP: 2
550 -1 5 -1 2047 -1 #SUP: 2
550 -1 47 -1 32 -1 #SUP: 2
550 -1 47 -1 2047 -1 #SUP: 2
553 -1 5 -1 5 -1 #SUP: 3
553 -1 5 -1 17 -1 #SUP: 2
553 -1 5 -1 32 -1 #SUP: 2
553 -1 5 -1 22628 -1 #SUP: 2
553 -1 32 -1 5 -1 #SUP: 3
553 -1 32 -1 32 -1 #SUP: 2
553 -1 128 -1 5 -1 #SUP: 2
553 -1 128 -1 32 -1 #SUP: 2
553 -1 128 -1 22628 -1 #SUP: 2
553 -1 357 -1 32 -1 #SUP: 2
709 -1 9 -1 32 -1 #SUP: 2
709 -1 9 -1 376 -1 #SUP: 2
709 -1 32 -1 376 -1 #SUP: 2
886 -1 28 -1 18 -1 #SUP: 2
886 -1 28 -1 32 -1 #SUP: 2
886 -1 28 -1 39 -1 #SUP: 2
886 -1 32 -1 39 -1 #SUP: 2
886 -1 39 -1 32 -1 #SUP: 2
1061 -1 5 -1 92 -1 #SUP: 2
1425 -1 5 -1 40 -1 #SUP: 2
1425 -1 32 -1 32 -1 #SUP: 2
1425 -1 1569 -1 28 -1 #SUP: 2
1710 -1 194 -1 5 -1 #SUP: 2
1710 -1 194 -1 32 -1 #SUP: 2
3431 -1 32 -1 5 -1 #SUP: 2
8563 -1 9 -1 32 -1 #SUP: 2
8563 -1 9 -1 376 -1 #SUP: 2
8563 -1 32 -1 376 -1 #SUP: 2
8563 -1 709 -1 9 -1 #SUP: 2
8563 -1 709 -1 32 -1 #SUP: 2
8563 -1 709 -1 376 -1 #SUP: 2
13074 -1 5 -1 32 -1 #SUP: 3
13074 -1 5 -1 39 -1 #SUP: 2
22626 -1 32 -1 860 -1 #SUP: 2
2 -1 9 -1 32 -1 376 -1 #SUP: 2
2 -1 28 -1 900 -1 2056 -1 #SUP: 2
2 -1 420 -1 9 -1 32 -1 #SUP: 2
2 -1 420 -1 9 -1 376 -1 #SUP: 2
2 -1 420 -1 32 -1 376 -1 #SUP: 2
2 -1 420 -1 709 -1 9 -1 #SUP: 2
2 -1 420 -1 709 -1 32 -1 #SUP: 2
2 -1 420 -1 709 -1 376 -1 #SUP: 2
2 -1 420 -1 8563 -1 9 -1 #SUP: 2
2 -1 420 -1 8563 -1 32 -1 #SUP: 2
2 -1 420 -1 8563 -1 376 -1 #SUP: 2
2 -1 420 -1 8563 -1 709 -1 #SUP: 2
2 -1 709 -1 9 -1 32 -1 #SUP: 2
2 -1 709 -1 9 -1 376 -1 #SUP: 2
2 -1 709 -1 32 -1 376 -1 #SUP: 2
2 -1 8563 -1 9 -1 32 -1 #SUP: 2
2 -1 8563 -1 9 -1 376 -1 #SUP: 2
2 -1 8563 -1 32 -1 376 -1 #SUP: 2
2 -1 8563 -1 709 -1 9 -1 #SUP: 2
2 -1 8563 -1 709 -1 32 -1 #SUP: 2
2 -1 8563 -1 709 -1 376 -1 #SUP: 2
4 -1 131 -1 21 -1 40 -1 #SUP: 2
5 -1 0 -1 33 -1 33 -1 #SUP: 2
5 -1 2 -1 32 -1 41 -1 #SUP: 2
5 -1 5 -1 28 -1 140 -1 #SUP: 2
5 -1 5 -1 33 -1 33 -1 #SUP: 2
5 -1 5 -1 47 -1 32 -1 #SUP: 2
5 -1 5 -1 529 -1 39 -1 #SUP: 2
5 -1 9 -1 47 -1 210 -1 #SUP: 2
5 -1 10 -1 32 -1 247 -1 #SUP: 2
5 -1 10 -1 47 -1 210 -1 #SUP: 2
5 -1 14 -1 5 -1 28 -1 #SUP: 2
5 -1 14 -1 550 -1 5 -1 #SUP: 2
5 -1 19 -1 5 -1 102 -1 #SUP: 2
5 -1 28 -1 32 -1 5 -1 #SUP: 2
5 -1 32 -1 5 -1 102 -1 #SUP: 2
5 -1 32 -1 28 -1 5 -1 #SUP: 2
5 -1 32 -1 32 -1 5 -1 #SUP: 2
5 -1 32 -1 40 -1 1425 -1 #SUP: 2
5 -1 32 -1 81 -1 5 -1 #SUP: 2
5 -1 32 -1 128 -1 5 -1 #SUP: 2
5 -1 38 -1 32 -1 40 -1 #SUP: 2
5 -1 38 -1 147 -1 32 -1 #SUP: 2
5 -1 38 -1 147 -1 40 -1 #SUP: 2
5 -1 40 -1 32 -1 5 -1 #SUP: 2
5 -1 40 -1 270 -1 3431 -1 #SUP: 2
5 -1 40 -1 1425 -1 32 -1 #SUP: 2
5 -1 40 -1 1425 -1 584 -1 #SUP: 2
5 -1 47 -1 5 -1 32 -1 #SUP: 2
5 -1 47 -1 113 -1 32 -1 #SUP: 2
5 -1 49 -1 32 -1 5 -1 #SUP: 2
5 -1 78 -1 38 -1 32 -1 #SUP: 2
5 -1 78 -1 38 -1 40 -1 #SUP: 2
5 -1 78 -1 38 -1 147 -1 #SUP: 2
5 -1 78 -1 147 -1 32 -1 #SUP: 2
5 -1 78 -1 147 -1 40 -1 #SUP: 2
5 -1 102 -1 226 -1 5 -1 #SUP: 2
5 -1 106 -1 5 -1 28 -1 #SUP: 2
5 -1 106 -1 5 -1 39 -1 #SUP: 2
5 -1 106 -1 32 -1 39 -1 #SUP: 2
5 -1 106 -1 529 -1 5 -1 #SUP: 2
5 -1 106 -1 529 -1 28 -1 #SUP: 2
5 -1 190 -1 5 -1 102 -1 #SUP: 2
5 -1 251 -1 28 -1 32 -1 #SUP: 2
5 -1 270 -1 32 -1 5 -1 #SUP: 2
5 -1 270 -1 3431 -1 5 -1 #SUP: 2
5 -1 270 -1 3431 -1 32 -1 #SUP: 2
5 -1 336 -1 5 -1 140 -1 #SUP: 2
5 -1 529 -1 5 -1 28 -1 #SUP: 2
5 -1 550 -1 5 -1 47 -1 #SUP: 3
5 -1 886 -1 28 -1 32 -1 #SUP: 2
5 -1 1710 -1 194 -1 5 -1 #SUP: 2
5 -1 3431 -1 32 -1 5 -1 #SUP: 2
12 -1 5 -1 5 -1 28 -1 #SUP: 2
14 -1 53 -1 102 -1 28 -1 #SUP: 2
28 -1 32 -1 39 -1 1062 -1 #SUP: 2
28 -1 32 -1 1062 -1 3080 -1 #SUP: 2
32 -1 5 -1 5 -1 92 -1 #SUP: 2
32 -1 5 -1 38 -1 2 -1 #SUP: 2
32 -1 28 -1 5 -1 5 -1 #SUP: 2
32 -1 32 -1 5 -1 5 -1 #SUP: 2
32 -1 40 -1 1425 -1 28 -1 #SUP: 2
32 -1 40 -1 1425 -1 1569 -1 #SUP: 2
32 -1 40 -1 1569 -1 28 -1 #SUP: 2
32 -1 128 -1 5 -1 5 -1 #SUP: 2
32 -1 128 -1 5 -1 22628 -1 #SUP: 2
32 -1 1425 -1 1569 -1 28 -1 #SUP: 2
40 -1 32 -1 5 -1 32 -1 #SUP: 2
40 -1 270 -1 3431 -1 32 -1 #SUP: 2
40 -1 1425 -1 5 -1 40 -1 #SUP: 2
40 -1 1425 -1 32 -1 32 -1 #SUP: 2
40 -1 1425 -1 1569 -1 28 -1 #SUP: 2
47 -1 32 -1 39 -1 1062 -1 #SUP: 2
47 -1 47 -1 32 -1 39 -1 #SUP: 2
49 -1 28 -1 32 -1 1062 -1 #SUP: 2
49 -1 32 -1 17 -1 1062 -1 #SUP: 2
49 -1 32 -1 49 -1 32 -1 #SUP: 2
49 -1 32 -1 49 -1 47 -1 #SUP: 2
49 -1 47 -1 32 -1 32 -1 #SUP: 2
49 -1 47 -1 32 -1 49 -1 #SUP: 2
49 -1 47 -1 49 -1 32 -1 #SUP: 3
49 -1 47 -1 49 -1 47 -1 #SUP: 2
49 -1 47 -1 49 -1 49 -1 #SUP: 2
66 -1 13074 -1 5 -1 39 -1 #SUP: 2
78 -1 38 -1 147 -1 32 -1 #SUP: 2
78 -1 38 -1 147 -1 40 -1 #SUP: 2
81 -1 5 -1 28 -1 5 -1 #SUP: 2
81 -1 5 -1 32 -1 5 -1 #SUP: 2
106 -1 529 -1 5 -1 28 -1 #SUP: 2
128 -1 5 -1 5 -1 49 -1 #SUP: 2
128 -1 5 -1 14 -1 5 -1 #SUP: 2
128 -1 5 -1 32 -1 5 -1 #SUP: 2
128 -1 5 -1 49 -1 5 -1 #SUP: 2
128 -1 5 -1 49 -1 32 -1 #SUP: 2
128 -1 5 -1 102 -1 5 -1 #SUP: 2
128 -1 5 -1 102 -1 226 -1 #SUP: 2
128 -1 5 -1 226 -1 5 -1 #SUP: 2
128 -1 49 -1 32 -1 5 -1 #SUP: 2
128 -1 102 -1 226 -1 5 -1 #SUP: 2
190 -1 33 -1 137 -1 128 -1 #SUP: 2
270 -1 3431 -1 32 -1 5 -1 #SUP: 2
420 -1 9 -1 32 -1 376 -1 #SUP: 2
420 -1 709 -1 9 -1 32 -1 #SUP: 2
420 -1 709 -1 9 -1 376 -1 #SUP: 2
420 -1 709 -1 32 -1 376 -1 #SUP: 2
420 -1 8563 -1 9 -1 32 -1 #SUP: 2
420 -1 8563 -1 9 -1 376 -1 #SUP: 2
420 -1 8563 -1 32 -1 376 -1 #SUP: 2
420 -1 8563 -1 709 -1 9 -1 #SUP: 2
420 -1 8563 -1 709 -1 32 -1 #SUP: 2
420 -1 8563 -1 709 -1 376 -1 #SUP: 2
550 -1 5 -1 5 -1 49 -1 #SUP: 2
550 -1 5 -1 47 -1 32 -1 #SUP: 2
550 -1 5 -1 47 -1 2047 -1 #SUP: 2
553 -1 5 -1 32 -1 5 -1 #SUP: 2
553 -1 32 -1 32 -1 5 -1 #SUP: 2
553 -1 128 -1 5 -1 5 -1 #SUP: 2
553 -1 128 -1 5 -1 22628 -1 #SUP: 2
553 -1 128 -1 32 -1 5 -1 #SUP: 2
709 -1 9 -1 32 -1 376 -1 #SUP: 2
8563 -1 9 -1 32 -1 376 -1 #SUP: 2
8563 -1 709 -1 9 -1 32 -1 #SUP: 2
8563 -1 709 -1 9 -1 376 -1 #SUP: 2
8563 -1 709 -1 32 -1 376 -1 #SUP: 2
2 -1 420 -1 9 -1 32 -1 376 -1 #SUP: 2
2 -1 420 -1 709 -1 9 -1 32 -1 #SUP: 2
2 -1 420 -1 709 -1 9 -1 376 -1 #SUP: 2
2 -1 420 -1 709 -1 32 -1 376 -1 #SUP: 2
2 -1 420 -1 8563 -1 9 -1 32 -1 #SUP: 2
2 -1 420 -1 8563 -1 9 -1 376 -1 #SUP: 2
2 -1 420 -1 8563 -1 32 -1 376 -1 #SUP: 2
2 -1 420 -1 8563 -1 709 -1 9 -1 #SUP: 2
2 -1 420 -1 8563 -1 709 -1 32 -1 #SUP: 2
2 -1 420 -1 8563 -1 709 -1 376 -1 #SUP: 2
2 -1 709 -1 9 -1 32 -1 376 -1 #SUP: 2
2 -1 8563 -1 9 -1 32 -1 376 -1 #SUP: 2
2 -1 8563 -1 709 -1 9 -1 32 -1 #SUP: 2
2 -1 8563 -1 709 -1 9 -1 376 -1 #SUP: 2
2 -1 8563 -1 709 -1 32 -1 376 -1 #SUP: 2
5 -1 78 -1 38 -1 147 -1 32 -1 #SUP: 2
5 -1 78 -1 38 -1 147 -1 40 -1 #SUP: 2
5 -1 106 -1 529 -1 5 -1 28 -1 #SUP: 2
5 -1 270 -1 3431 -1 32 -1 5 -1 #SUP: 2
32 -1 40 -1 1425 -1 1569 -1 28 -1 #SUP: 2
128 -1 5 -1 49 -1 32 -1 5 -1 #SUP: 2
128 -1 5 -1 102 -1 226 -1 5 -1 #SUP: 2
420 -1 709 -1 9 -1 32 -1 376 -1 #SUP: 2
420 -1 8563 -1 9 -1 32 -1 376 -1 #SUP: 2
420 -1 8563 -1 709 -1 9 -1 32 -1 #SUP: 2
420 -1 8563 -1 709 -1 9 -1 376 -1 #SUP: 2
420 -1 8563 -1 709 -1 32 -1 376 -1 #SUP: 2
8563 -1 709 -1 9 -1 32 -1 376 -1 #SUP: 2
2 -1 420 -1 709 -1 9 -1 32 -1 376 -1 #SUP: 2
2 -1 420 -1 8563 -1 9 -1 32 -1 376 -1 #SUP: 2
2 -1 420 -1 8563 -1 709 -1 9 -1 32 -1 #SUP: 2
2 -1 420 -1 8563 -1 709 -1 9 -1 376 -1 #SUP: 2
2 -1 420 -1 8563 -1 709 -1 32 -1 376 -1 #SUP: 2
2 -1 8563 -1 709 -1 9 -1 32 -1 376 -1 #SUP: 2
420 -1 8563 -1 709 -1 9 -1 32 -1 376 -1 #SUP: 2
2 -1 420 -1 8563 -1 709 -1 9 -1 32 -1 376 -1 #SUP: 2
