0 -1 #SUP: 31
2 -1 #SUP: 11
5 -1 #SUP: 74
6 -1 #SUP: 4
9 -1 #SUP: 4
10 -1 #SUP: 3
11 -1 #SUP: 5
14 -1 #SUP: 9
18 -1 #SUP: 8
21 -1 #SUP: 6
22 -1 #SUP: 2
28 -1 #SUP: 29
32 -1 #SUP: 29
35 -1 #SUP: 4
38 -1 #SUP: 11
39 -1 #SUP: 13
40 -1 #SUP: 16
41 -1 #SUP: 5
47 -1 #SUP: 13
49 -1 #SUP: 4
53 -1 #SUP: 5
61 -1 #SUP: 2
65 -1 #SUP: 3
66 -1 #SUP: 10
69 -1 #SUP: 5
70 -1 #SUP: 4
71 -1 #SUP: 4
76 -1 #SUP: 2
78 -1 #SUP: 2
81 -1 #SUP: 2
86 -1 #SUP: 6
91 -1 #SUP: 2
92 -1 #SUP: 15
102 -1 #SUP: 5
105 -1 #SUP: 4
106 -1 #SUP: 4
107 -1 #SUP: 2
111 -1 #SUP: 2
113 -1 #SUP: 7
116 -1 #SUP: 8
122 -1 #SUP: 4
123 -1 #SUP: 2
125 -1 #SUP: 17
128 -1 #SUP: 7
137 -1 #SUP: 3
140 -1 #SUP: 3
143 -1 #SUP: 2
144 -1 #SUP: 4
147 -1 #SUP: 2
151 -1 #SUP: 2
159 -1 #SUP: 4
161 -1 #SUP: 2
163 -1 #SUP: 4
171 -1 #SUP: 6
172 -1 #SUP: 2
179 -1 #SUP: 4
190 -1 #SUP: 2
194 -1 #SUP: 3
202 -1 #SUP: 3
203 -1 #SUP: 2
210 -1 #SUP: 5
214 -1 #SUP: 20
226 -1 #SUP: 5
234 -1 #SUP: 5
239 -1 #SUP: 4
250 -1 #SUP: 2
251 -1 #SUP: 5
254 -1 #SUP: 3
265 -1 #SUP: 3
266 -1 #SUP: 6
270 -1 #SUP: 5
273 -1 #SUP: 3
287 -1 #SUP: 2
298 -1 #SUP: 3
299 -1 #SUP: 2
313 -1 #SUP: 3
325 -1 #SUP: 2
328 -1 #SUP: 3
383 -1 #SUP: 2
406 -1 #SUP: 2
410 -1 #SUP: 2
422 -1 #SUP: 2
429 -1 #SUP: 3
437 -1 #SUP: 2
446 -1 #SUP: 2
470 -1 #SUP: 4
529 -1 #SUP: 2
541 -1 #SUP: 2
550 -1 #SUP: 3
553 -1 #SUP: 5
568 -1 #SUP: 2
586 -1 #SUP: 2
588 -1 #SUP: 2
601 -1 #SUP: 2
688 -1 #SUP: 3
692 -1 #SUP: 2
752 -1 #SUP: 2
769 -1 #SUP: 2
797 -1 #SUP: 4
799 -1 #SUP: 3
822 -1 #SUP: 2
823 -1 #SUP: 3
827 -1 #SUP: 2
830 -1 #SUP: 5
1106 -1 #SUP: 2
1151 -1 #SUP: 2
1413 -1 #SUP: 2
1418 -1 #SUP: 2
1597 -1 #SUP: 2
1940 -1 #SUP: 2
1966 -1 #SUP: 2
2496 -1 #SUP: 4
2708 -1 #SUP: 2
2815 -1 #SUP: 2
3933 -1 #SUP: 3
6247 -1 #SUP: 2
6769 -1 #SUP: 2
0 -1 0 -1 #SUP: 7
0 -1 2 -1 #SUP: 3
0 -1 5 -1 #SUP: 12
0 -1 6 -1 #SUP: 2
0 -1 14 -1 #SUP: 7
0 -1 18 -1 #SUP: 3
0 -1 28 -1 #SUP: 7
0 -1 32 -1 #SUP: 11
0 -1 38 -1 #SUP: 3
0 -1 39 -1 #SUP: 2
0 -1 40 -1 #SUP: 4
0 -1 41 -1 #SUP: 3
0 -1 49 -1 #SUP: 2
0 -1 53 -1 #SUP: 5
0 -1 61 -1 #SUP: 2
0 -1 66 -1 #SUP: 3
0 -1 70 -1 #SUP: 2
0 -1 86 -1 #SUP: 4
0 -1 92 -1 #SUP: 3
0 -1 113 -1 #SUP: 2
0 -1 116 -1 #SUP: 2
0 -1 122 -1 #SUP: 2
0 -1 125 -1 #SUP: 3
0 -1 128 -1 #SUP: 4
0 -1 144 -1 #SUP: 2
0 -1 210 -1 #SUP: 2
0 -1 214 -1 #SUP: 6
0 -1 266 -1 #SUP: 2
0 -1 541 -1 #SUP: 2
0 -1 553 -1 #SUP: 2
0 -1 797 -1 #SUP: 2
0 -1 830 -1 #SUP: 2
0 -1 2496 -1 #SUP: 2
0 -1 3933 -1 #SUP: 2
2 -1 0 -1 #SUP: 3
2 -1 5 -1 #SUP: 2
2 -1 21 -1 #SUP: 2
2 -1 32 -1 #SUP: 2
2 -1 38 -1 #SUP: 3
2 -1 47 -1 #SUP: 2
2 -1 125 -1 #SUP: 2
2 -1 210 -1 #SUP: 2
2 -1 254 -1 #SUP: 2
2 -1 586 -1 #SUP: 2
2 -1 692 -1 #SUP: 2
2 -1 799 -1 #SUP: 2
2 -1 830 -1 #SUP: 3
2 -1 2708 -1 #SUP: 2
5 -1 0 -1 #SUP: 13
5 -1 2 -1 #SUP: 6
5 -1 5 -1 #SUP: 17
5 -1 6 -1 #SUP: 3
5 -1 11 -1 #SUP: 3
5 -1 14 -1 #SUP: 5
5 -1 18 -1 #SUP: 8
5 -1 28 -1 #SUP: 18
5 -1 32 -1 #SUP: 11
5 -1 35 -1 #SUP: 3
5 -1 38 -1 #SUP: 3
5 -1 39 -1 #SUP: 6
5 -1 40 -1 #SUP: 6
5 -1 41 -1 #SUP: 2
5 -1 47 -1 #SUP: 8
5 -1 53 -1 #SUP: 3
5 -1 61 -1 #SUP: 2
5 -1 65 -1 #SUP: 3
5 -1 66 -1 #SUP: 6
5 -1 69 -1 #SUP: 5
5 -1 70 -1 #SUP: 4
5 -1 71 -1 #SUP: 3
5 -1 86 -1 #SUP: 4
5 -1 92 -1 #SUP: 7
5 -1 102 -1 #SUP: 4
5 -1 106 -1 #SUP: 4
5 -1 111 -1 #SUP: 2
5 -1 113 -1 #SUP: 4
5 -1 116 -1 #SUP: 4
5 -1 123 -1 #SUP: 2
5 -1 125 -1 #SUP: 5
5 -1 128 -1 #SUP: 4
5 -1 137 -1 #SUP: 3
5 -1 140 -1 #SUP: 3
5 -1 144 -1 #SUP: 4
5 -1 147 -1 #SUP: 2
5 -1 151 -1 #SUP: 2
5 -1 159 -1 #SUP: 4
5 -1 161 -1 #SUP: 2
5 -1 163 -1 #SUP: 3
5 -1 171 -1 #SUP: 6
5 -1 179 -1 #SUP: 4
5 -1 190 -1 #SUP: 2
5 -1 194 -1 #SUP: 3
5 -1 202 -1 #SUP: 3
5 -1 203 -1 #SUP: 2
5 -1 210 -1 #SUP: 5
5 -1 214 -1 #SUP: 15
5 -1 226 -1 #SUP: 4
5 -1 234 -1 #SUP: 2
5 -1 250 -1 #SUP: 2
5 -1 251 -1 #SUP: 5
5 -1 265 -1 #SUP: 2
5 -1 266 -1 #SUP: 2
5 -1 270 -1 #SUP: 3
5 -1 273 -1 #SUP: 3
5 -1 298 -1 #SUP: 2
5 -1 299 -1 #SUP: 2
5 -1 325 -1 #SUP: 2
5 -1 429 -1 #SUP: 2
5 -1 437 -1 #SUP: 2
5 -1 470 -1 #SUP: 2
5 -1 550 -1 #SUP: 3
5 -1 553 -1 #SUP: 2
5 -1 601 -1 #SUP: 2
5 -1 688 -1 #SUP: 3
5 -1 752 -1 #SUP: 2
5 -1 769 -1 #SUP: 2
5 -1 797 -1 #SUP: 3
5 -1 823 -1 #SUP: 2
5 -1 1106 -1 #SUP: 2
5 -1 1151 -1 #SUP: 2
5 -1 1418 -1 #SUP: 2
5 -1 2496 -1 #SUP: 3
6 -1 28 -1 #SUP: 2
6 -1 32 -1 #SUP: 2
6 -1 40 -1 #SUP: 2
6 -1 92 -1 #SUP: 3
9 -1 0 -1 #SUP: 2
9 -1 5 -1 #SUP: 2
10 -1 9 -1 #SUP: 3
11 -1 28 -1 #SUP: 2
11 -1 32 -1 #SUP: 2
14 -1 5 -1 #SUP: 5
14 -1 28 -1 #SUP: 4
14 -1 53 -1 #SUP: 3
14 -1 66 -1 #SUP: 2
14 -1 128 -1 #SUP: 2
14 -1 144 -1 #SUP: 2
14 -1 171 -1 #SUP: 3
18 -1 0 -1 #SUP: 2
18 -1 2 -1 #SUP: 3
18 -1 5 -1 #SUP: 2
18 -1 28 -1 #SUP: 5
18 -1 32 -1 #SUP: 3
18 -1 39 -1 #SUP: 2
18 -1 123 -1 #SUP: 2
18 -1 171 -1 #SUP: 2
18 -1 210 -1 #SUP: 2
18 -1 214 -1 #SUP: 2
21 -1 0 -1 #SUP: 2
21 -1 5 -1 #SUP: 2
21 -1 39 -1 #SUP: 2
21 -1 47 -1 #SUP: 2
21 -1 125 -1 #SUP: 2
21 -1 2708 -1 #SUP: 2
28 -1 0 -1 #SUP: 6
28 -1 2 -1 #SUP: 4
28 -1 5 -1 #SUP: 6
28 -1 14 -1 #SUP: 2
28 -1 18 -1 #SUP: 2
28 -1 21 -1 #SUP: 2
28 -1 28 -1 #SUP: 5
28 -1 32 -1 #SUP: 5
28 -1 38 -1 #SUP: 3
28 -1 39 -1 #SUP: 6
28 -1 47 -1 #SUP: 3
28 -1 65 -1 #SUP: 2
28 -1 70 -1 #SUP: 2
28 -1 116 -1 #SUP: 2
28 -1 125 -1 #SUP: 2
28 -1 144 -1 #SUP: 3
28 -1 171 -1 #SUP: 5
28 -1 214 -1 #SUP: 3
28 -1 410 -1 #SUP: 2
28 -1 550 -1 #SUP: 3
28 -1 2496 -1 #SUP: 2
32 -1 0 -1 #SUP: 7
32 -1 5 -1 #SUP: 11
32 -1 9 -1 #SUP: 2
32 -1 14 -1 #SUP: 4
32 -1 21 -1 #SUP: 3
32 -1 22 -1 #SUP: 2
32 -1 28 -1 #SUP: 5
32 -1 32 -1 #SUP: 3
32 -1 35 -1 #SUP: 3
32 -1 38 -1 #SUP: 3
32 -1 39 -1 #SUP: 3
32 -1 40 -1 #SUP: 2
32 -1 41 -1 #SUP: 2
32 -1 47 -1 #SUP: 6
32 -1 53 -1 #SUP: 3
32 -1 66 -1 #SUP: 3
32 -1 69 -1 #SUP: 2
32 -1 86 -1 #SUP: 2
32 -1 92 -1 #SUP: 2
32 -1 116 -1 #SUP: 3
32 -1 125 -1 #SUP: 4
32 -1 128 -1 #SUP: 3
32 -1 203 -1 #SUP: 2
32 -1 214 -1 #SUP: 6
32 -1 266 -1 #SUP: 2
32 -1 553 -1 #SUP: 2
32 -1 797 -1 #SUP: 2
32 -1 822 -1 #SUP: 2
32 -1 2815 -1 #SUP: 2
32 -1 3933 -1 #SUP: 2
38 -1 0 -1 #SUP: 4
38 -1 32 -1 #SUP: 4
38 -1 38 -1 #SUP: 2
38 -1 40 -1 #SUP: 2
38 -1 41 -1 #SUP: 3
38 -1 47 -1 #SUP: 3
38 -1 53 -1 #SUP: 2
38 -1 234 -1 #SUP: 2
38 -1 313 -1 #SUP: 2
38 -1 588 -1 #SUP: 2
38 -1 799 -1 #SUP: 2
38 -1 830 -1 #SUP: 2
39 -1 0 -1 #SUP: 3
39 -1 2 -1 #SUP: 2
39 -1 5 -1 #SUP: 3
39 -1 38 -1 #SUP: 3
39 -1 40 -1 #SUP: 2
39 -1 47 -1 #SUP: 4
39 -1 92 -1 #SUP: 2
39 -1 125 -1 #SUP: 6
39 -1 143 -1 #SUP: 2
39 -1 287 -1 #SUP: 2
39 -1 328 -1 #SUP: 2
39 -1 446 -1 #SUP: 2
40 -1 0 -1 #SUP: 6
40 -1 5 -1 #SUP: 3
40 -1 14 -1 #SUP: 3
40 -1 28 -1 #SUP: 5
40 -1 32 -1 #SUP: 3
40 -1 38 -1 #SUP: 4
40 -1 40 -1 #SUP: 2
40 -1 41 -1 #SUP: 2
40 -1 66 -1 #SUP: 2
40 -1 116 -1 #SUP: 2
40 -1 122 -1 #SUP: 3
40 -1 128 -1 #SUP: 2
40 -1 194 -1 #SUP: 2
40 -1 214 -1 #SUP: 2
40 -1 429 -1 #SUP: 2
40 -1 446 -1 #SUP: 2
40 -1 799 -1 #SUP: 2
40 -1 822 -1 #SUP: 2
40 -1 830 -1 #SUP: 2
41 -1 0 -1 #SUP: 2
41 -1 5 -1 #SUP: 2
41 -1 66 -1 #SUP: 2
41 -1 116 -1 #SUP: 2
41 -1 410 -1 #SUP: 2
47 -1 0 -1 #SUP: 5
47 -1 5 -1 #SUP: 6
47 -1 28 -1 #SUP: 2
47 -1 32 -1 #SUP: 4
47 -1 38 -1 #SUP: 2
47 -1 39 -1 #SUP: 2
47 -1 41 -1 #SUP: 2
47 -1 53 -1 #SUP: 2
47 -1 92 -1 #SUP: 3
47 -1 116 -1 #SUP: 2
47 -1 125 -1 #SUP: 2
47 -1 214 -1 #SUP: 4
47 -1 313 -1 #SUP: 2
47 -1 769 -1 #SUP: 2
47 -1 799 -1 #SUP: 2
47 -1 830 -1 #SUP: 2
53 -1 28 -1 #SUP: 2
53 -1 41 -1 #SUP: 2
65 -1 5 -1 #SUP: 2
65 -1 28 -1 #SUP: 2
66 -1 0 -1 #SUP: 2
66 -1 5 -1 #SUP: 5
66 -1 6 -1 #SUP: 2
66 -1 28 -1 #SUP: 4
66 -1 32 -1 #SUP: 4
66 -1 92 -1 #SUP: 2
66 -1 144 -1 #SUP: 2
66 -1 163 -1 #SUP: 4
66 -1 214 -1 #SUP: 3
69 -1 5 -1 #SUP: 3
69 -1 28 -1 #SUP: 4
69 -1 144 -1 #SUP: 2
69 -1 214 -1 #SUP: 3
69 -1 251 -1 #SUP: 2
70 -1 0 -1 #SUP: 4
70 -1 14 -1 #SUP: 2
70 -1 28 -1 #SUP: 2
70 -1 32 -1 #SUP: 3
70 -1 40 -1 #SUP: 2
70 -1 116 -1 #SUP: 2
71 -1 5 -1 #SUP: 2
71 -1 28 -1 #SUP: 3
71 -1 171 -1 #SUP: 2
76 -1 32 -1 #SUP: 2
81 -1 28 -1 #SUP: 2
86 -1 0 -1 #SUP: 3
86 -1 5 -1 #SUP: 2
86 -1 28 -1 #SUP: 2
86 -1 32 -1 #SUP: 2
86 -1 38 -1 #SUP: 2
86 -1 47 -1 #SUP: 2
86 -1 61 -1 #SUP: 2
92 -1 0 -1 #SUP: 2
92 -1 5 -1 #SUP: 3
92 -1 28 -1 #SUP: 3
92 -1 32 -1 #SUP: 3
92 -1 40 -1 #SUP: 4
92 -1 116 -1 #SUP: 2
92 -1 122 -1 #SUP: 2
92 -1 125 -1 #SUP: 3
92 -1 128 -1 #SUP: 2
92 -1 214 -1 #SUP: 2
92 -1 266 -1 #SUP: 2
102 -1 5 -1 #SUP: 2
102 -1 28 -1 #SUP: 2
102 -1 214 -1 #SUP: 2
102 -1 234 -1 #SUP: 2
105 -1 0 -1 #SUP: 2
105 -1 5 -1 #SUP: 2
105 -1 28 -1 #SUP: 2
105 -1 38 -1 #SUP: 2
105 -1 47 -1 #SUP: 2
105 -1 116 -1 #SUP: 3
105 -1 529 -1 #SUP: 2
106 -1 0 -1 #SUP: 2
106 -1 5 -1 #SUP: 2
106 -1 18 -1 #SUP: 2
106 -1 28 -1 #SUP: 3
106 -1 32 -1 #SUP: 2
106 -1 116 -1 #SUP: 2
106 -1 137 -1 #SUP: 2
113 -1 0 -1 #SUP: 3
113 -1 5 -1 #SUP: 3
113 -1 32 -1 #SUP: 2
113 -1 40 -1 #SUP: 2
113 -1 66 -1 #SUP: 2
116 -1 0 -1 #SUP: 4
116 -1 5 -1 #SUP: 3
116 -1 28 -1 #SUP: 3
116 -1 32 -1 #SUP: 2
116 -1 35 -1 #SUP: 2
116 -1 38 -1 #SUP: 2
116 -1 40 -1 #SUP: 2
116 -1 214 -1 #SUP: 3
116 -1 410 -1 #SUP: 2
116 -1 1966 -1 #SUP: 2
122 -1 35 -1 #SUP: 2
125 -1 0 -1 #SUP: 5
125 -1 2 -1 #SUP: 2
125 -1 5 -1 #SUP: 2
125 -1 21 -1 #SUP: 2
125 -1 28 -1 #SUP: 4
125 -1 32 -1 #SUP: 4
125 -1 38 -1 #SUP: 4
125 -1 40 -1 #SUP: 3
125 -1 47 -1 #SUP: 2
125 -1 66 -1 #SUP: 2
125 -1 128 -1 #SUP: 2
125 -1 287 -1 #SUP: 2
137 -1 0 -1 #SUP: 2
137 -1 147 -1 #SUP: 2
140 -1 5 -1 #SUP: 2
143 -1 40 -1 #SUP: 2
143 -1 92 -1 #SUP: 2
144 -1 5 -1 #SUP: 3
144 -1 28 -1 #SUP: 2
144 -1 171 -1 #SUP: 3
159 -1 28 -1 #SUP: 2
159 -1 550 -1 #SUP: 2
163 -1 5 -1 #SUP: 2
163 -1 32 -1 #SUP: 2
171 -1 5 -1 #SUP: 2
171 -1 28 -1 #SUP: 3
171 -1 32 -1 #SUP: 2
171 -1 70 -1 #SUP: 2
202 -1 32 -1 #SUP: 2
210 -1 179 -1 #SUP: 2
214 -1 0 -1 #SUP: 4
214 -1 2 -1 #SUP: 2
214 -1 5 -1 #SUP: 7
214 -1 14 -1 #SUP: 3
214 -1 18 -1 #SUP: 3
214 -1 28 -1 #SUP: 7
214 -1 35 -1 #SUP: 2
214 -1 39 -1 #SUP: 2
214 -1 40 -1 #SUP: 3
214 -1 41 -1 #SUP: 2
214 -1 65 -1 #SUP: 2
214 -1 66 -1 #SUP: 3
214 -1 86 -1 #SUP: 2
214 -1 92 -1 #SUP: 2
214 -1 144 -1 #SUP: 3
214 -1 171 -1 #SUP: 2
214 -1 179 -1 #SUP: 2
214 -1 214 -1 #SUP: 3
214 -1 251 -1 #SUP: 4
214 -1 265 -1 #SUP: 2
214 -1 266 -1 #SUP: 2
214 -1 325 -1 #SUP: 2
214 -1 1151 -1 #SUP: 2
214 -1 1418 -1 #SUP: 2
226 -1 0 -1 #SUP: 3
226 -1 14 -1 #SUP: 2
226 -1 40 -1 #SUP: 3
226 -1 92 -1 #SUP: 2
226 -1 128 -1 #SUP: 2
234 -1 234 -1 #SUP: 2
239 -1 32 -1 #SUP: 2
239 -1 38 -1 #SUP: 2
239 -1 234 -1 #SUP: 3
251 -1 2 -1 #SUP: 2
251 -1 28 -1 #SUP: 5
254 -1 21 -1 #SUP: 2
254 -1 2708 -1 #SUP: 2
265 -1 5 -1 #SUP: 3
265 -1 32 -1 #SUP: 2
266 -1 0 -1 #SUP: 3
266 -1 2 -1 #SUP: 2
266 -1 5 -1 #SUP: 2
266 -1 28 -1 #SUP: 2
266 -1 32 -1 #SUP: 2
266 -1 40 -1 #SUP: 2
266 -1 70 -1 #SUP: 2
266 -1 116 -1 #SUP: 2
266 -1 125 -1 #SUP: 2
266 -1 171 -1 #SUP: 2
266 -1 470 -1 #SUP: 2
266 -1 797 -1 #SUP: 3
270 -1 28 -1 #SUP: 3
273 -1 5 -1 #SUP: 3
298 -1 116 -1 #SUP: 2
299 -1 28 -1 #SUP: 2
313 -1 32 -1 #SUP: 2
325 -1 5 -1 #SUP: 2
325 -1 28 -1 #SUP: 2
328 -1 40 -1 #SUP: 2
328 -1 446 -1 #SUP: 2
328 -1 830 -1 #SUP: 2
422 -1 28 -1 #SUP: 2
470 -1 0 -1 #SUP: 2
470 -1 226 -1 #SUP: 2
529 -1 38 -1 #SUP: 2
529 -1 116 -1 #SUP: 2
541 -1 128 -1 #SUP: 2
550 -1 0 -1 #SUP: 2
550 -1 5 -1 #SUP: 2
550 -1 32 -1 #SUP: 2
550 -1 38 -1 #SUP: 2
550 -1 125 -1 #SUP: 2
553 -1 0 -1 #SUP: 2
553 -1 5 -1 #SUP: 2
553 -1 21 -1 #SUP: 2
553 -1 47 -1 #SUP: 2
553 -1 86 -1 #SUP: 2
553 -1 128 -1 #SUP: 2
568 -1 2 -1 #SUP: 2
586 -1 38 -1 #SUP: 2
586 -1 47 -1 #SUP: 2
586 -1 799 -1 #SUP: 2
588 -1 0 -1 #SUP: 2
588 -1 28 -1 #SUP: 2
797 -1 0 -1 #SUP: 3
797 -1 5 -1 #SUP: 2
799 -1 32 -1 #SUP: 2
823 -1 28 -1 #SUP: 3
823 -1 171 -1 #SUP: 2
830 -1 0 -1 #SUP: 3
830 -1 28 -1 #SUP: 2
830 -1 41 -1 #SUP: 2
830 -1 53 -1 #SUP: 2
1106 -1 28 -1 #SUP: 2
1418 -1 5 -1 #SUP: 2
1966 -1 28 -1 #SUP: 2
1966 -1 410 -1 #SUP: 2
2496 -1 28 -1 #SUP: 2
2496 -1 266 -1 #SUP: 2
2496 -1 1413 -1 #SUP: 2
3933 -1 0 -1 #SUP: 2
3933 -1 32 -1 #SUP: 2
6769 -1 38 -1 #SUP: 2
0 -1 0 -1 0 -1 #SUP: 3
0 -1 0 -1 14 -1 #SUP: 2
0 -1 0 -1 28 -1 #SUP: 2
0 -1 0 -1 32 -1 #SUP: 5
0 -1 0 -1 40 -1 #SUP: 2
0 -1 0 -1 41 -1 #SUP: 2
0 -1 0 -1 53 -1 #SUP: 3
0 -1 5 -1 2 -1 #SUP: 2
0 -1 5 -1 5 -1 #SUP: 5
0 -1 5 -1 6 -1 #SUP: 2
0 -1 5 -1 18 -1 #SUP: 3
0 -1 5 -1 28 -1 #SUP: 4
0 -1 5 -1 32 -1 #SUP: 2
0 -1 5 -1 39 -1 #SUP: 2
0 -1 5 -1 41 -1 #SUP: 2
0 -1 5 -1 53 -1 #SUP: 3
0 -1 5 -1 61 -1 #SUP: 2
0 -1 5 -1 86 -1 #SUP: 3
0 -1 5 -1 144 -1 #SUP: 2
0 -1 5 -1 210 -1 #SUP: 2
0 -1 5 -1 214 -1 #SUP: 6
0 -1 6 -1 28 -1 #SUP: 2
0 -1 6 -1 32 -1 #SUP: 2
0 -1 14 -1 5 -1 #SUP: 3
0 -1 14 -1 28 -1 #SUP: 2
0 -1 14 -1 53 -1 #SUP: 3
0 -1 14 -1 128 -1 #SUP: 2
0 -1 18 -1 2 -1 #SUP: 2
0 -1 28 -1 2 -1 #SUP: 2
0 -1 28 -1 144 -1 #SUP: 2
0 -1 32 -1 0 -1 #SUP: 3
0 -1 32 -1 5 -1 #SUP: 4
0 -1 32 -1 14 -1 #SUP: 2
0 -1 32 -1 28 -1 #SUP: 3
0 -1 32 -1 32 -1 #SUP: 2
0 -1 32 -1 38 -1 #SUP: 3
0 -1 32 -1 40 -1 #SUP: 2
0 -1 32 -1 41 -1 #SUP: 2
0 -1 32 -1 53 -1 #SUP: 3
0 -1 32 -1 128 -1 #SUP: 2
0 -1 32 -1 214 -1 #SUP: 2
0 -1 32 -1 553 -1 #SUP: 2
0 -1 38 -1 40 -1 #SUP: 2
0 -1 40 -1 5 -1 #SUP: 2
0 -1 40 -1 214 -1 #SUP: 2
0 -1 41 -1 116 -1 #SUP: 2
0 -1 53 -1 28 -1 #SUP: 2
0 -1 53 -1 41 -1 #SUP: 2
0 -1 66 -1 5 -1 #SUP: 2
0 -1 66 -1 6 -1 #SUP: 2
0 -1 66 -1 28 -1 #SUP: 2
0 -1 66 -1 32 -1 #SUP: 2
0 -1 70 -1 0 -1 #SUP: 2
0 -1 70 -1 28 -1 #SUP: 2
0 -1 70 -1 32 -1 #SUP: 2
0 -1 86 -1 38 -1 #SUP: 2
0 -1 86 -1 61 -1 #SUP: 2
0 -1 214 -1 28 -1 #SUP: 2
0 -1 214 -1 41 -1 #SUP: 2
0 -1 266 -1 797 -1 #SUP: 2
0 -1 541 -1 128 -1 #SUP: 2
0 -1 553 -1 128 -1 #SUP: 2
0 -1 830 -1 0 -1 #SUP: 2
0 -1 830 -1 41 -1 #SUP: 2
0 -1 830 -1 53 -1 #SUP: 2
0 -1 3933 -1 0 -1 #SUP: 2
0 -1 3933 -1 32 -1 #SUP: 2
2 -1 0 -1 5 -1 #SUP: 2
2 -1 21 -1 2708 -1 #SUP: 2
2 -1 32 -1 5 -1 #SUP: 2
2 -1 38 -1 0 -1 #SUP: 2
2 -1 38 -1 47 -1 #SUP: 2
2 -1 38 -1 799 -1 #SUP: 2
2 -1 47 -1 799 -1 #SUP: 2
2 -1 254 -1 21 -1 #SUP: 2
2 -1 254 -1 2708 -1 #SUP: 2
2 -1 586 -1 38 -1 #SUP: 2
2 -1 586 -1 47 -1 #SUP: 2
2 -1 586 -1 799 -1 #SUP: 2
2 -1 830 -1 0 -1 #SUP: 2
5 -1 0 -1 0 -1 #SUP: 3
5 -1 0 -1 5 -1 #SUP: 7
5 -1 0 -1 14 -1 #SUP: 4
5 -1 0 -1 28 -1 #SUP: 2
5 -1 0 -1 32 -1 #SUP: 7
5 -1 0 -1 38 -1 #SUP: 2
5 -1 0 -1 40 -1 #SUP: 2
5 -1 0 -1 70 -1 #SUP: 2
5 -1 0 -1 86 -1 #SUP: 3
5 -1 0 -1 92 -1 #SUP: 3
5 -1 0 -1 125 -1 #SUP: 2
5 -1 0 -1 128 -1 #SUP: 3
5 -1 0 -1 214 -1 #SUP: 2
5 -1 2 -1 210 -1 #SUP: 2
5 -1 5 -1 0 -1 #SUP: 2
5 -1 5 -1 2 -1 #SUP: 3
5 -1 5 -1 5 -1 #SUP: 5
5 -1 5 -1 14 -1 #SUP: 2
5 -1 5 -1 18 -1 #SUP: 2
5 -1 5 -1 28 -1 #SUP: 6
5 -1 5 -1 32 -1 #SUP: 2
5 -1 5 -1 40 -1 #SUP: 2
5 -1 5 -1 61 -1 #SUP: 2
5 -1 5 -1 66 -1 #SUP: 2
5 -1 5 -1 70 -1 #SUP: 2
5 -1 5 -1 86 -1 #SUP: 3
5 -1 5 -1 116 -1 #SUP: 2
5 -1 5 -1 144 -1 #SUP: 3
5 -1 5 -1 171 -1 #SUP: 3
5 -1 5 -1 210 -1 #SUP: 2
5 -1 5 -1 214 -1 #SUP: 9
5 -1 5 -1 251 -1 #SUP: 2
5 -1 5 -1 266 -1 #SUP: 2
5 -1 5 -1 270 -1 #SUP: 2
5 -1 5 -1 325 -1 #SUP: 2
5 -1 5 -1 437 -1 #SUP: 2
5 -1 5 -1 601 -1 #SUP: 2
5 -1 5 -1 797 -1 #SUP: 2
5 -1 6 -1 28 -1 #SUP: 2
5 -1 6 -1 32 -1 #SUP: 2
5 -1 6 -1 92 -1 #SUP: 2
5 -1 14 -1 5 -1 #SUP: 3
5 -1 14 -1 28 -1 #SUP: 2
5 -1 14 -1 128 -1 #SUP: 2
5 -1 18 -1 0 -1 #SUP: 2
5 -1 18 -1 2 -1 #SUP: 3
5 -1 18 -1 5 -1 #SUP: 2
5 -1 18 -1 28 -1 #SUP: 5
5 -1 18 -1 32 -1 #SUP: 3
5 -1 18 -1 39 -1 #SUP: 2
5 -1 18 -1 123 -1 #SUP: 2
5 -1 18 -1 171 -1 #SUP: 2
5 -1 18 -1 210 -1 #SUP: 2
5 -1 28 -1 0 -1 #SUP: 3
5 -1 28 -1 2 -1 #SUP: 3
5 -1 28 -1 5 -1 #SUP: 6
5 -1 28 -1 14 -1 #SUP: 2
5 -1 28 -1 18 -1 #SUP: 2
5 -1 28 -1 28 -1 #SUP: 5
5 -1 28 -1 32 -1 #SUP: 3
5 -1 28 -1 39 -1 #SUP: 5
5 -1 28 -1 47 -1 #SUP: 2
5 -1 28 -1 70 -1 #SUP: 2
5 -1 28 -1 116 -1 #SUP: 2
5 -1 28 -1 125 -1 #SUP: 2
5 -1 28 -1 144 -1 #SUP: 3
5 -1 28 -1 171 -1 #SUP: 4
5 -1 28 -1 214 -1 #SUP: 3
5 -1 28 -1 550 -1 #SUP: 3
5 -1 32 -1 5 -1 #SUP: 3
5 -1 32 -1 28 -1 #SUP: 2
5 -1 32 -1 38 -1 #SUP: 2
5 -1 32 -1 214 -1 #SUP: 2
5 -1 38 -1 32 -1 #SUP: 2
5 -1 39 -1 0 -1 #SUP: 2
5 -1 39 -1 5 -1 #SUP: 2
5 -1 39 -1 47 -1 #SUP: 2
5 -1 40 -1 0 -1 #SUP: 3
5 -1 40 -1 5 -1 #SUP: 2
5 -1 40 -1 14 -1 #SUP: 3
5 -1 40 -1 28 -1 #SUP: 2
5 -1 40 -1 32 -1 #SUP: 2
5 -1 40 -1 128 -1 #SUP: 2
5 -1 40 -1 194 -1 #SUP: 2
5 -1 40 -1 214 -1 #SUP: 2
5 -1 47 -1 0 -1 #SUP: 2
5 -1 47 -1 5 -1 #SUP: 3
5 -1 47 -1 214 -1 #SUP: 2
5 -1 47 -1 769 -1 #SUP: 2
5 -1 65 -1 5 -1 #SUP: 2
5 -1 65 -1 28 -1 #SUP: 2
5 -1 66 -1 5 -1 #SUP: 3
5 -1 66 -1 28 -1 #SUP: 2
5 -1 66 -1 32 -1 #SUP: 2
5 -1 66 -1 163 -1 #SUP: 3
5 -1 69 -1 5 -1 #SUP: 3
5 -1 69 -1 28 -1 #SUP: 3
5 -1 69 -1 214 -1 #SUP: 3
5 -1 69 -1 251 -1 #SUP: 2
5 -1 70 -1 0 -1 #SUP: 2
5 -1 70 -1 32 -1 #SUP: 3
5 -1 71 -1 5 -1 #SUP: 2
5 -1 71 -1 171 -1 #SUP: 2
5 -1 86 -1 61 -1 #SUP: 2
5 -1 92 -1 5 -1 #SUP: 2
5 -1 92 -1 32 -1 #SUP: 2
5 -1 102 -1 234 -1 #SUP: 2
5 -1 106 -1 0 -1 #SUP: 2
5 -1 106 -1 5 -1 #SUP: 2
5 -1 106 -1 18 -1 #SUP: 2
5 -1 106 -1 28 -1 #SUP: 3
5 -1 106 -1 32 -1 #SUP: 2
5 -1 106 -1 116 -1 #SUP: 2
5 -1 106 -1 137 -1 #SUP: 2
5 -1 116 -1 0 -1 #SUP: 4
5 -1 116 -1 5 -1 #SUP: 3
5 -1 116 -1 32 -1 #SUP: 2
5 -1 116 -1 214 -1 #SUP: 2
5 -1 125 -1 0 -1 #SUP: 2
5 -1 125 -1 28 -1 #SUP: 2
5 -1 125 -1 32 -1 #SUP: 2
5 -1 137 -1 0 -1 #SUP: 2
5 -1 137 -1 147 -1 #SUP: 2
5 -1 140 -1 5 -1 #SUP: 2
5 -1 144 -1 5 -1 #SUP: 3
5 -1 144 -1 28 -1 #SUP: 2
5 -1 144 -1 171 -1 #SUP: 2
5 -1 159 -1 28 -1 #SUP: 2
5 -1 159 -1 550 -1 #SUP: 2
5 -1 171 -1 5 -1 #SUP: 2
5 -1 171 -1 28 -1 #SUP: 3
5 -1 171 -1 32 -1 #SUP: 2
5 -1 171 -1 70 -1 #SUP: 2
5 -1 202 -1 32 -1 #SUP: 2
5 -1 210 -1 179 -1 #SUP: 2
5 -1 214 -1 0 -1 #SUP: 4
5 -1 214 -1 2 -1 #SUP: 2
5 -1 214 -1 5 -1 #SUP: 7
5 -1 214 -1 14 -1 #SUP: 3
5 -1 214 -1 18 -1 #SUP: 2
5 -1 214 -1 28 -1 #SUP: 7
5 -1 214 -1 35 -1 #SUP: 2
5 -1 214 -1 39 -1 #SUP: 2
5 -1 214 -1 40 -1 #SUP: 2
5 -1 214 -1 41 -1 #SUP: 2
5 -1 214 -1 65 -1 #SUP: 2
5 -1 214 -1 66 -1 #SUP: 3
5 -1 214 -1 86 -1 #SUP: 2
5 -1 214 -1 92 -1 #SUP: 2
5 -1 214 -1 144 -1 #SUP: 3
5 -1 214 -1 171 -1 #SUP: 2
5 -1 214 -1 214 -1 #SUP: 3
5 -1 214 -1 251 -1 #SUP: 4
5 -1 214 -1 265 -1 #SUP: 2
5 -1 214 -1 266 -1 #SUP: 2
5 -1 214 -1 325 -1 #SUP: 2
5 -1 214 -1 1151 -1 #SUP: 2
5 -1 214 -1 1418 -1 #SUP: 2
5 -1 226 -1 0 -1 #SUP: 2
5 -1 226 -1 14 -1 #SUP: 2
5 -1 226 -1 40 -1 #SUP: 2
5 -1 226 -1 92 -1 #SUP: 2
5 -1 226 -1 128 -1 #SUP: 2
5 -1 251 -1 2 -1 #SUP: 2
5 -1 251 -1 28 -1 #SUP: 5
5 -1 265 -1 5 -1 #SUP: 2
5 -1 266 -1 5 -1 #SUP: 2
5 -1 266 -1 28 -1 #SUP: 2
5 -1 266 -1 70 -1 #SUP: 2
5 -1 266 -1 171 -1 #SUP: 2
5 -1 270 -1 28 -1 #SUP: 2
5 -1 273 -1 5 -1 #SUP: 3
5 -1 299 -1 28 -1 #SUP: 2
5 -1 325 -1 5 -1 #SUP: 2
5 -1 550 -1 5 -1 #SUP: 2
5 -1 797 -1 5 -1 #SUP: 2
5 -1 823 -1 28 -1 #SUP: 2
5 -1 823 -1 171 -1 #SUP: 2
5 -1 1106 -1 28 -1 #SUP: 2
5 -1 1418 -1 5 -1 #SUP: 2
9 -1 0 -1 5 -1 #SUP: 2
9 -1 5 -1 5 -1 #SUP: 2
14 -1 5 -1 5 -1 #SUP: 2
14 -1 5 -1 28 -1 #SUP: 3
14 -1 5 -1 66 -1 #SUP: 2
14 -1 5 -1 144 -1 #SUP: 2
14 -1 5 -1 171 -1 #SUP: 3
14 -1 28 -1 5 -1 #SUP: 2
14 -1 28 -1 144 -1 #SUP: 2
14 -1 28 -1 171 -1 #SUP: 3
14 -1 53 -1 28 -1 #SUP: 2
18 -1 0 -1 32 -1 #SUP: 2
18 -1 5 -1 5 -1 #SUP: 2
18 -1 5 -1 214 -1 #SUP: 2
18 -1 28 -1 5 -1 #SUP: 2
18 -1 28 -1 28 -1 #SUP: 2
18 -1 28 -1 32 -1 #SUP: 2
18 -1 28 -1 39 -1 #SUP: 2
18 -1 28 -1 171 -1 #SUP: 2
18 -1 28 -1 214 -1 #SUP: 2
21 -1 5 -1 0 -1 #SUP: 2
21 -1 39 -1 0 -1 #SUP: 2
21 -1 47 -1 0 -1 #SUP: 2
21 -1 47 -1 5 -1 #SUP: 2
28 -1 0 -1 5 -1 #SUP: 2
28 -1 5 -1 0 -1 #SUP: 3
28 -1 5 -1 5 -1 #SUP: 3
28 -1 5 -1 28 -1 #SUP: 2
28 -1 5 -1 65 -1 #SUP: 2
28 -1 5 -1 171 -1 #SUP: 3
28 -1 5 -1 214 -1 #SUP: 3
28 -1 5 -1 2496 -1 #SUP: 2
28 -1 14 -1 5 -1 #SUP: 2
28 -1 28 -1 5 -1 #SUP: 4
28 -1 28 -1 14 -1 #SUP: 2
28 -1 28 -1 28 -1 #SUP: 2
28 -1 28 -1 2496 -1 #SUP: 2
28 -1 39 -1 0 -1 #SUP: 3
28 -1 39 -1 5 -1 #SUP: 2
28 -1 39 -1 47 -1 #SUP: 2
28 -1 70 -1 0 -1 #SUP: 2
28 -1 116 -1 0 -1 #SUP: 2
28 -1 116 -1 5 -1 #SUP: 2
28 -1 116 -1 214 -1 #SUP: 2
28 -1 144 -1 5 -1 #SUP: 3
28 -1 144 -1 171 -1 #SUP: 3
28 -1 550 -1 0 -1 #SUP: 2
28 -1 550 -1 5 -1 #SUP: 2
32 -1 0 -1 5 -1 #SUP: 2
32 -1 0 -1 14 -1 #SUP: 3
32 -1 0 -1 53 -1 #SUP: 2
32 -1 5 -1 0 -1 #SUP: 2
32 -1 5 -1 5 -1 #SUP: 5
32 -1 5 -1 14 -1 #SUP: 2
32 -1 5 -1 28 -1 #SUP: 3
32 -1 5 -1 35 -1 #SUP: 3
32 -1 5 -1 47 -1 #SUP: 5
32 -1 5 -1 66 -1 #SUP: 2
32 -1 5 -1 69 -1 #SUP: 2
32 -1 5 -1 86 -1 #SUP: 2
32 -1 5 -1 116 -1 #SUP: 2
32 -1 5 -1 203 -1 #SUP: 2
32 -1 5 -1 214 -1 #SUP: 6
32 -1 9 -1 0 -1 #SUP: 2
32 -1 9 -1 5 -1 #SUP: 2
32 -1 14 -1 5 -1 #SUP: 2
32 -1 14 -1 28 -1 #SUP: 2
32 -1 14 -1 53 -1 #SUP: 2
32 -1 28 -1 5 -1 #SUP: 2
32 -1 38 -1 40 -1 #SUP: 2
32 -1 39 -1 5 -1 #SUP: 2
32 -1 39 -1 47 -1 #SUP: 2
32 -1 47 -1 5 -1 #SUP: 2
32 -1 53 -1 41 -1 #SUP: 2
32 -1 69 -1 5 -1 #SUP: 2
32 -1 69 -1 214 -1 #SUP: 2
32 -1 116 -1 0 -1 #SUP: 2
32 -1 125 -1 128 -1 #SUP: 2
32 -1 214 -1 5 -1 #SUP: 2
32 -1 214 -1 14 -1 #SUP: 2
32 -1 214 -1 35 -1 #SUP: 2
32 -1 266 -1 797 -1 #SUP: 2
32 -1 553 -1 128 -1 #SUP: 2
32 -1 797 -1 0 -1 #SUP: 2
38 -1 0 -1 0 -1 #SUP: 2
38 -1 0 -1 32 -1 #SUP: 2
38 -1 0 -1 41 -1 #SUP: 2
38 -1 0 -1 53 -1 #SUP: 2
38 -1 0 -1 830 -1 #SUP: 2
38 -1 32 -1 41 -1 #SUP: 2
38 -1 32 -1 53 -1 #SUP: 2
38 -1 47 -1 0 -1 #SUP: 2
38 -1 47 -1 32 -1 #SUP: 2
38 -1 47 -1 41 -1 #SUP: 2
38 -1 47 -1 53 -1 #SUP: 2
38 -1 47 -1 799 -1 #SUP: 2
38 -1 47 -1 830 -1 #SUP: 2
38 -1 53 -1 41 -1 #SUP: 2
38 -1 588 -1 0 -1 #SUP: 2
38 -1 830 -1 0 -1 #SUP: 2
38 -1 830 -1 41 -1 #SUP: 2
38 -1 830 -1 53 -1 #SUP: 2
39 -1 0 -1 125 -1 #SUP: 2
39 -1 2 -1 38 -1 #SUP: 2
39 -1 40 -1 446 -1 #SUP: 2
39 -1 125 -1 38 -1 #SUP: 3
39 -1 125 -1 47 -1 #SUP: 2
39 -1 125 -1 287 -1 #SUP: 2
39 -1 328 -1 40 -1 #SUP: 2
39 -1 328 -1 446 -1 #SUP: 2
40 -1 0 -1 5 -1 #SUP: 2
40 -1 0 -1 14 -1 #SUP: 2
40 -1 0 -1 122 -1 #SUP: 2
40 -1 0 -1 128 -1 #SUP: 2
40 -1 5 -1 5 -1 #SUP: 3
40 -1 5 -1 66 -1 #SUP: 2
40 -1 5 -1 214 -1 #SUP: 2
40 -1 14 -1 128 -1 #SUP: 2
40 -1 28 -1 32 -1 #SUP: 2
40 -1 38 -1 0 -1 #SUP: 2
40 -1 214 -1 5 -1 #SUP: 2
40 -1 214 -1 66 -1 #SUP: 2
41 -1 0 -1 5 -1 #SUP: 2
41 -1 0 -1 66 -1 #SUP: 2
41 -1 5 -1 66 -1 #SUP: 2
41 -1 66 -1 5 -1 #SUP: 2
47 -1 0 -1 0 -1 #SUP: 3
47 -1 0 -1 5 -1 #SUP: 3
47 -1 0 -1 32 -1 #SUP: 3
47 -1 0 -1 41 -1 #SUP: 2
47 -1 0 -1 53 -1 #SUP: 2
47 -1 0 -1 92 -1 #SUP: 2
47 -1 0 -1 125 -1 #SUP: 2
47 -1 0 -1 214 -1 #SUP: 2
47 -1 0 -1 830 -1 #SUP: 2
47 -1 5 -1 0 -1 #SUP: 2
47 -1 5 -1 92 -1 #SUP: 2
47 -1 5 -1 125 -1 #SUP: 2
47 -1 5 -1 214 -1 #SUP: 4
47 -1 28 -1 0 -1 #SUP: 2
47 -1 32 -1 5 -1 #SUP: 2
47 -1 32 -1 41 -1 #SUP: 2
47 -1 32 -1 53 -1 #SUP: 2
47 -1 32 -1 214 -1 #SUP: 2
47 -1 53 -1 41 -1 #SUP: 2
47 -1 830 -1 0 -1 #SUP: 2
47 -1 830 -1 41 -1 #SUP: 2
47 -1 830 -1 53 -1 #SUP: 2
65 -1 5 -1 28 -1 #SUP: 2
66 -1 0 -1 32 -1 #SUP: 2
66 -1 5 -1 5 -1 #SUP: 2
66 -1 5 -1 6 -1 #SUP: 2
66 -1 5 -1 28 -1 #SUP: 4
66 -1 5 -1 32 -1 #SUP: 2
66 -1 5 -1 144 -1 #SUP: 2
66 -1 5 -1 214 -1 #SUP: 3
66 -1 6 -1 28 -1 #SUP: 2
66 -1 6 -1 32 -1 #SUP: 2
66 -1 28 -1 28 -1 #SUP: 2
66 -1 28 -1 144 -1 #SUP: 2
66 -1 32 -1 5 -1 #SUP: 2
66 -1 163 -1 5 -1 #SUP: 2
66 -1 163 -1 32 -1 #SUP: 2
66 -1 214 -1 28 -1 #SUP: 2
69 -1 5 -1 5 -1 #SUP: 2
69 -1 5 -1 28 -1 #SUP: 2
69 -1 5 -1 214 -1 #SUP: 3
69 -1 214 -1 28 -1 #SUP: 2
69 -1 251 -1 28 -1 #SUP: 2
70 -1 0 -1 0 -1 #SUP: 2
70 -1 0 -1 14 -1 #SUP: 2
70 -1 0 -1 28 -1 #SUP: 2
70 -1 0 -1 32 -1 #SUP: 2
70 -1 0 -1 40 -1 #SUP: 2
70 -1 32 -1 0 -1 #SUP: 2
70 -1 32 -1 14 -1 #SUP: 2
70 -1 32 -1 28 -1 #SUP: 2
70 -1 32 -1 116 -1 #SUP: 2
86 -1 0 -1 0 -1 #SUP: 2
86 -1 0 -1 28 -1 #SUP: 2
86 -1 0 -1 32 -1 #SUP: 2
86 -1 5 -1 0 -1 #SUP: 2
86 -1 5 -1 32 -1 #SUP: 2
92 -1 5 -1 28 -1 #SUP: 2
92 -1 5 -1 214 -1 #SUP: 2
102 -1 5 -1 214 -1 #SUP: 2
105 -1 47 -1 0 -1 #SUP: 2
105 -1 116 -1 0 -1 #SUP: 2
105 -1 116 -1 38 -1 #SUP: 2
105 -1 529 -1 38 -1 #SUP: 2
105 -1 529 -1 116 -1 #SUP: 2
106 -1 18 -1 32 -1 #SUP: 2
106 -1 28 -1 5 -1 #SUP: 2
106 -1 28 -1 116 -1 #SUP: 2
106 -1 116 -1 5 -1 #SUP: 2
106 -1 137 -1 0 -1 #SUP: 2
113 -1 0 -1 5 -1 #SUP: 2
113 -1 0 -1 66 -1 #SUP: 2
113 -1 5 -1 66 -1 #SUP: 2
113 -1 40 -1 0 -1 #SUP: 2
113 -1 40 -1 5 -1 #SUP: 2
116 -1 0 -1 5 -1 #SUP: 3
116 -1 0 -1 32 -1 #SUP: 2
116 -1 0 -1 214 -1 #SUP: 2
116 -1 5 -1 5 -1 #SUP: 2
116 -1 5 -1 214 -1 #SUP: 3
116 -1 28 -1 410 -1 #SUP: 2
116 -1 1966 -1 28 -1 #SUP: 2
116 -1 1966 -1 410 -1 #SUP: 2
125 -1 0 -1 5 -1 #SUP: 2
125 -1 0 -1 28 -1 #SUP: 2
125 -1 0 -1 32 -1 #SUP: 2
125 -1 32 -1 38 -1 #SUP: 2
125 -1 32 -1 40 -1 #SUP: 2
143 -1 92 -1 40 -1 #SUP: 2
144 -1 5 -1 5 -1 #SUP: 2
144 -1 5 -1 171 -1 #SUP: 3
144 -1 171 -1 5 -1 #SUP: 2
159 -1 28 -1 550 -1 #SUP: 2
171 -1 5 -1 5 -1 #SUP: 2
171 -1 5 -1 28 -1 #SUP: 2
171 -1 28 -1 5 -1 #SUP: 2
171 -1 70 -1 32 -1 #SUP: 2
214 -1 0 -1 5 -1 #SUP: 4
214 -1 0 -1 14 -1 #SUP: 2
214 -1 0 -1 40 -1 #SUP: 2
214 -1 5 -1 5 -1 #SUP: 3
214 -1 5 -1 18 -1 #SUP: 2
214 -1 5 -1 28 -1 #SUP: 3
214 -1 5 -1 40 -1 #SUP: 2
214 -1 5 -1 66 -1 #SUP: 2
214 -1 5 -1 171 -1 #SUP: 2
214 -1 5 -1 214 -1 #SUP: 3
214 -1 5 -1 266 -1 #SUP: 2
214 -1 14 -1 5 -1 #SUP: 3
214 -1 14 -1 28 -1 #SUP: 2
214 -1 28 -1 2 -1 #SUP: 2
214 -1 28 -1 5 -1 #SUP: 3
214 -1 28 -1 14 -1 #SUP: 2
214 -1 28 -1 18 -1 #SUP: 2
214 -1 28 -1 28 -1 #SUP: 2
214 -1 28 -1 144 -1 #SUP: 2
214 -1 66 -1 5 -1 #SUP: 2
214 -1 66 -1 28 -1 #SUP: 2
214 -1 92 -1 5 -1 #SUP: 2
214 -1 144 -1 5 -1 #SUP: 2
214 -1 144 -1 28 -1 #SUP: 2
214 -1 251 -1 2 -1 #SUP: 2
214 -1 251 -1 28 -1 #SUP: 4
214 -1 265 -1 5 -1 #SUP: 2
214 -1 266 -1 5 -1 #SUP: 2
214 -1 325 -1 5 -1 #SUP: 2
214 -1 1418 -1 5 -1 #SUP: 2
226 -1 0 -1 14 -1 #SUP: 2
226 -1 0 -1 128 -1 #SUP: 2
226 -1 14 -1 128 -1 #SUP: 2
226 -1 40 -1 0 -1 #SUP: 3
226 -1 40 -1 14 -1 #SUP: 2
226 -1 40 -1 128 -1 #SUP: 2
239 -1 38 -1 234 -1 #SUP: 2
239 -1 234 -1 234 -1 #SUP: 2
251 -1 28 -1 2 -1 #SUP: 2
254 -1 21 -1 2708 -1 #SUP: 2
265 -1 5 -1 5 -1 #SUP: 2
265 -1 5 -1 32 -1 #SUP: 2
266 -1 5 -1 70 -1 #SUP: 2
266 -1 28 -1 5 -1 #SUP: 2
266 -1 28 -1 70 -1 #SUP: 2
266 -1 32 -1 797 -1 #SUP: 2
266 -1 125 -1 0 -1 #SUP: 2
266 -1 171 -1 70 -1 #SUP: 2
266 -1 470 -1 0 -1 #SUP: 2
266 -1 797 -1 0 -1 #SUP: 2
325 -1 5 -1 5 -1 #SUP: 2
325 -1 5 -1 28 -1 #SUP: 2
328 -1 40 -1 446 -1 #SUP: 2
529 -1 116 -1 38 -1 #SUP: 2
550 -1 5 -1 0 -1 #SUP: 2
550 -1 5 -1 125 -1 #SUP: 2
553 -1 0 -1 5 -1 #SUP: 2
553 -1 86 -1 47 -1 #SUP: 2
586 -1 38 -1 47 -1 #SUP: 2
586 -1 38 -1 799 -1 #SUP: 2
586 -1 47 -1 799 -1 #SUP: 2
588 -1 0 -1 28 -1 #SUP: 2
797 -1 5 -1 0 -1 #SUP: 2
823 -1 28 -1 171 -1 #SUP: 2
830 -1 0 -1 28 -1 #SUP: 2
830 -1 0 -1 41 -1 #SUP: 2
830 -1 0 -1 53 -1 #SUP: 2
830 -1 53 -1 41 -1 #SUP: 2
1966 -1 28 -1 410 -1 #SUP: 2
3933 -1 32 -1 32 -1 #SUP: 2
0 -1 0 -1 0 -1 28 -1 #SUP: 2
0 -1 0 -1 14 -1 53 -1 #SUP: 2
0 -1 0 -1 32 -1 0 -1 #SUP: 2
0 -1 0 -1 32 -1 28 -1 #SUP: 2
0 -1 0 -1 32 -1 41 -1 #SUP: 2
0 -1 0 -1 32 -1 53 -1 #SUP: 2
0 -1 0 -1 53 -1 41 -1 #SUP: 2
0 -1 5 -1 5 -1 61 -1 #SUP: 2
0 -1 5 -1 5 -1 214 -1 #SUP: 2
0 -1 5 -1 6 -1 28 -1 #SUP: 2
0 -1 5 -1 6 -1 32 -1 #SUP: 2
0 -1 5 -1 18 -1 2 -1 #SUP: 2
0 -1 5 -1 28 -1 144 -1 #SUP: 2
0 -1 5 -1 86 -1 61 -1 #SUP: 2
0 -1 5 -1 214 -1 28 -1 #SUP: 2
0 -1 5 -1 214 -1 41 -1 #SUP: 2
0 -1 14 -1 53 -1 28 -1 #SUP: 2
0 -1 32 -1 0 -1 14 -1 #SUP: 2
0 -1 32 -1 0 -1 53 -1 #SUP: 2
0 -1 32 -1 5 -1 214 -1 #SUP: 2
0 -1 32 -1 14 -1 53 -1 #SUP: 2
0 -1 32 -1 38 -1 40 -1 #SUP: 2
0 -1 32 -1 53 -1 41 -1 #SUP: 2
0 -1 32 -1 553 -1 128 -1 #SUP: 2
0 -1 40 -1 5 -1 214 -1 #SUP: 2
0 -1 66 -1 5 -1 6 -1 #SUP: 2
0 -1 66 -1 5 -1 28 -1 #SUP: 2
0 -1 66 -1 5 -1 32 -1 #SUP: 2
0 -1 66 -1 6 -1 28 -1 #SUP: 2
0 -1 66 -1 6 -1 32 -1 #SUP: 2
0 -1 70 -1 0 -1 28 -1 #SUP: 2
0 -1 70 -1 0 -1 32 -1 #SUP: 2
0 -1 70 -1 32 -1 28 -1 #SUP: 2
0 -1 830 -1 0 -1 41 -1 #SUP: 2
0 -1 830 -1 0 -1 53 -1 #SUP: 2
0 -1 830 -1 53 -1 41 -1 #SUP: 2
0 -1 3933 -1 32 -1 32 -1 #SUP: 2
2 -1 38 -1 47 -1 799 -1 #SUP: 2
2 -1 254 -1 21 -1 2708 -1 #SUP: 2
2 -1 586 -1 38 -1 47 -1 #SUP: 2
2 -1 586 -1 38 -1 799 -1 #SUP: 2
2 -1 586 -1 47 -1 799 -1 #SUP: 2
5 -1 0 -1 0 -1 32 -1 #SUP: 3
5 -1 0 -1 5 -1 5 -1 #SUP: 2
5 -1 0 -1 5 -1 86 -1 #SUP: 2
5 -1 0 -1 5 -1 214 -1 #SUP: 2
5 -1 0 -1 14 -1 5 -1 #SUP: 2
5 -1 0 -1 14 -1 128 -1 #SUP: 2
5 -1 0 -1 32 -1 5 -1 #SUP: 2
5 -1 0 -1 32 -1 38 -1 #SUP: 2
5 -1 0 -1 40 -1 5 -1 #SUP: 2
5 -1 0 -1 70 -1 0 -1 #SUP: 2
5 -1 0 -1 70 -1 32 -1 #SUP: 2
5 -1 5 -1 0 -1 5 -1 #SUP: 2
5 -1 5 -1 5 -1 2 -1 #SUP: 2
5 -1 5 -1 5 -1 28 -1 #SUP: 2
5 -1 5 -1 5 -1 214 -1 #SUP: 2
5 -1 5 -1 5 -1 797 -1 #SUP: 2
5 -1 5 -1 18 -1 28 -1 #SUP: 2
5 -1 5 -1 28 -1 2 -1 #SUP: 2
5 -1 5 -1 28 -1 5 -1 #SUP: 2
5 -1 5 -1 28 -1 144 -1 #SUP: 3
5 -1 5 -1 32 -1 5 -1 #SUP: 2
5 -1 5 -1 116 -1 5 -1 #SUP: 2
5 -1 5 -1 214 -1 5 -1 #SUP: 2
5 -1 5 -1 214 -1 14 -1 #SUP: 2
5 -1 5 -1 214 -1 28 -1 #SUP: 3
5 -1 5 -1 214 -1 251 -1 #SUP: 2
5 -1 5 -1 251 -1 28 -1 #SUP: 2
5 -1 5 -1 325 -1 5 -1 #SUP: 2
5 -1 14 -1 5 -1 28 -1 #SUP: 2
5 -1 18 -1 0 -1 32 -1 #SUP: 2
5 -1 18 -1 5 -1 5 -1 #SUP: 2
5 -1 18 -1 28 -1 5 -1 #SUP: 2
5 -1 18 -1 28 -1 28 -1 #SUP: 2
5 -1 18 -1 28 -1 32 -1 #SUP: 2
5 -1 18 -1 28 -1 39 -1 #SUP: 2
5 -1 18 -1 28 -1 171 -1 #SUP: 2
5 -1 28 -1 0 -1 5 -1 #SUP: 2
5 -1 28 -1 5 -1 5 -1 #SUP: 3
5 -1 28 -1 5 -1 28 -1 #SUP: 2
5 -1 28 -1 5 -1 171 -1 #SUP: 2
5 -1 28 -1 5 -1 214 -1 #SUP: 3
5 -1 28 -1 14 -1 5 -1 #SUP: 2
5 -1 28 -1 28 -1 5 -1 #SUP: 3
5 -1 28 -1 28 -1 14 -1 #SUP: 2
5 -1 28 -1 39 -1 0 -1 #SUP: 2
5 -1 28 -1 39 -1 5 -1 #SUP: 2
5 -1 28 -1 39 -1 47 -1 #SUP: 2
5 -1 28 -1 116 -1 5 -1 #SUP: 2
5 -1 28 -1 116 -1 214 -1 #SUP: 2
5 -1 28 -1 144 -1 5 -1 #SUP: 3
5 -1 28 -1 144 -1 171 -1 #SUP: 2
5 -1 28 -1 550 -1 5 -1 #SUP: 2
5 -1 32 -1 5 -1 214 -1 #SUP: 2
5 -1 40 -1 0 -1 14 -1 #SUP: 2
5 -1 40 -1 0 -1 128 -1 #SUP: 2
5 -1 40 -1 5 -1 214 -1 #SUP: 2
5 -1 40 -1 14 -1 128 -1 #SUP: 2
5 -1 47 -1 5 -1 214 -1 #SUP: 2
5 -1 65 -1 5 -1 28 -1 #SUP: 2
5 -1 66 -1 5 -1 5 -1 #SUP: 2
5 -1 66 -1 5 -1 28 -1 #SUP: 2
5 -1 69 -1 5 -1 5 -1 #SUP: 2
5 -1 69 -1 5 -1 214 -1 #SUP: 3
5 -1 69 -1 251 -1 28 -1 #SUP: 2
5 -1 70 -1 0 -1 32 -1 #SUP: 2
5 -1 106 -1 18 -1 32 -1 #SUP: 2
5 -1 106 -1 28 -1 5 -1 #SUP: 2
5 -1 106 -1 28 -1 116 -1 #SUP: 2
5 -1 106 -1 137 -1 0 -1 #SUP: 2
5 -1 116 -1 0 -1 5 -1 #SUP: 3
5 -1 116 -1 0 -1 32 -1 #SUP: 2
5 -1 116 -1 5 -1 5 -1 #SUP: 2
5 -1 116 -1 5 -1 214 -1 #SUP: 2
5 -1 144 -1 5 -1 171 -1 #SUP: 2
5 -1 159 -1 28 -1 550 -1 #SUP: 2
5 -1 171 -1 5 -1 5 -1 #SUP: 2
5 -1 171 -1 5 -1 28 -1 #SUP: 2
5 -1 171 -1 70 -1 32 -1 #SUP: 2
5 -1 214 -1 0 -1 5 -1 #SUP: 4
5 -1 214 -1 0 -1 14 -1 #SUP: 2
5 -1 214 -1 5 -1 5 -1 #SUP: 2
5 -1 214 -1 5 -1 28 -1 #SUP: 3
5 -1 214 -1 5 -1 66 -1 #SUP: 2
5 -1 214 -1 5 -1 171 -1 #SUP: 2
5 -1 214 -1 5 -1 214 -1 #SUP: 3
5 -1 214 -1 5 -1 266 -1 #SUP: 2
5 -1 214 -1 14 -1 5 -1 #SUP: 3
5 -1 214 -1 14 -1 28 -1 #SUP: 2
5 -1 214 -1 28 -1 2 -1 #SUP: 2
5 -1 214 -1 28 -1 5 -1 #SUP: 2
5 -1 214 -1 28 -1 14 -1 #SUP: 2
5 -1 214 -1 28 -1 18 -1 #SUP: 2
5 -1 214 -1 28 -1 28 -1 #SUP: 2
5 -1 214 -1 28 -1 144 -1 #SUP: 2
5 -1 214 -1 66 -1 5 -1 #SUP: 2
5 -1 214 -1 66 -1 28 -1 #SUP: 2
5 -1 214 -1 92 -1 5 -1 #SUP: 2
5 -1 214 -1 144 -1 28 -1 #SUP: 2
5 -1 214 -1 251 -1 2 -1 #SUP: 2
5 -1 214 -1 251 -1 28 -1 #SUP: 4
5 -1 214 -1 265 -1 5 -1 #SUP: 2
5 -1 214 -1 325 -1 5 -1 #SUP: 2
5 -1 214 -1 1418 -1 5 -1 #SUP: 2
5 -1 226 -1 0 -1 14 -1 #SUP: 2
5 -1 226 -1 0 -1 128 -1 #SUP: 2
5 -1 226 -1 14 -1 128 -1 #SUP: 2
5 -1 226 -1 40 -1 0 -1 #SUP: 2
5 -1 226 -1 40 -1 14 -1 #SUP: 2
5 -1 226 -1 40 -1 128 -1 #SUP: 2
5 -1 251 -1 28 -1 2 -1 #SUP: 2
5 -1 265 -1 5 -1 5 -1 #SUP: 2
5 -1 266 -1 5 -1 70 -1 #SUP: 2
5 -1 266 -1 28 -1 70 -1 #SUP: 2
5 -1 266 -1 171 -1 70 -1 #SUP: 2
5 -1 325 -1 5 -1 5 -1 #SUP: 2
5 -1 823 -1 28 -1 171 -1 #SUP: 2
14 -1 5 -1 28 -1 5 -1 #SUP: 2
14 -1 5 -1 28 -1 144 -1 #SUP: 2
14 -1 5 -1 28 -1 171 -1 #SUP: 3
18 -1 5 -1 5 -1 214 -1 #SUP: 2
18 -1 28 -1 5 -1 5 -1 #SUP: 2
18 -1 28 -1 5 -1 214 -1 #SUP: 2
21 -1 47 -1 5 -1 0 -1 #SUP: 2
28 -1 5 -1 5 -1 214 -1 #SUP: 2
28 -1 5 -1 28 -1 5 -1 #SUP: 2
28 -1 28 -1 5 -1 28 -1 #SUP: 2
28 -1 28 -1 5 -1 2496 -1 #SUP: 2
28 -1 28 -1 14 -1 5 -1 #SUP: 2
28 -1 116 -1 5 -1 214 -1 #SUP: 2
28 -1 144 -1 5 -1 5 -1 #SUP: 2
28 -1 144 -1 5 -1 171 -1 #SUP: 3
28 -1 550 -1 5 -1 0 -1 #SUP: 2
32 -1 0 -1 14 -1 53 -1 #SUP: 2
32 -1 5 -1 5 -1 214 -1 #SUP: 3
32 -1 5 -1 14 -1 5 -1 #SUP: 2
32 -1 5 -1 28 -1 5 -1 #SUP: 2
32 -1 5 -1 47 -1 5 -1 #SUP: 2
32 -1 5 -1 69 -1 5 -1 #SUP: 2
32 -1 5 -1 69 -1 214 -1 #SUP: 2
32 -1 5 -1 116 -1 0 -1 #SUP: 2
32 -1 5 -1 214 -1 5 -1 #SUP: 2
32 -1 5 -1 214 -1 14 -1 #SUP: 2
32 -1 5 -1 214 -1 35 -1 #SUP: 2
32 -1 69 -1 5 -1 214 -1 #SUP: 2
32 -1 214 -1 14 -1 5 -1 #SUP: 2
38 -1 0 -1 0 -1 32 -1 #SUP: 2
38 -1 0 -1 0 -1 41 -1 #SUP: 2
38 -1 0 -1 0 -1 53 -1 #SUP: 2
38 -1 0 -1 32 -1 41 -1 #SUP: 2
38 -1 0 -1 32 -1 53 -1 #SUP: 2
38 -1 0 -1 53 -1 41 -1 #SUP: 2
38 -1 0 -1 830 -1 0 -1 #SUP: 2
38 -1 0 -1 830 -1 41 -1 #SUP: 2
38 -1 0 -1 830 -1 53 -1 #SUP: 2
38 -1 32 -1 53 -1 41 -1 #SUP: 2
38 -1 47 -1 0 -1 0 -1 #SUP: 2
38 -1 47 -1 0 -1 32 -1 #SUP: 2
38 -1 47 -1 0 -1 41 -1 #SUP: 2
38 -1 47 -1 0 -1 53 -1 #SUP: 2
38 -1 47 -1 0 -1 830 -1 #SUP: 2
38 -1 47 -1 32 -1 41 -1 #SUP: 2
38 -1 47 -1 32 -1 53 -1 #SUP: 2
38 -1 47 -1 53 -1 41 -1 #SUP: 2
38 -1 47 -1 830 -1 0 -1 #SUP: 2
38 -1 47 -1 830 -1 41 -1 #SUP: 2
38 -1 47 -1 830 -1 53 -1 #SUP: 2
38 -1 830 -1 0 -1 41 -1 #SUP: 2
38 -1 830 -1 0 -1 53 -1 #SUP: 2
38 -1 830 -1 53 -1 41 -1 #SUP: 2
39 -1 328 -1 40 -1 446 -1 #SUP: 2
40 -1 0 -1 14 -1 128 -1 #SUP: 2
40 -1 5 -1 5 -1 66 -1 #SUP: 2
40 -1 5 -1 214 -1 5 -1 #SUP: 2
40 -1 5 -1 214 -1 66 -1 #SUP: 2
40 -1 214 -1 5 -1 66 -1 #SUP: 2
47 -1 0 -1 0 -1 32 -1 #SUP: 3
47 -1 0 -1 0 -1 41 -1 #SUP: 2
47 -1 0 -1 0 -1 53 -1 #SUP: 2
47 -1 0 -1 5 -1 214 -1 #SUP: 2
47 -1 0 -1 32 -1 41 -1 #SUP: 2
47 -1 0 -1 32 -1 53 -1 #SUP: 2
47 -1 0 -1 53 -1 41 -1 #SUP: 2
47 -1 0 -1 830 -1 0 -1 #SUP: 2
47 -1 0 -1 830 -1 41 -1 #SUP: 2
47 -1 0 -1 830 -1 53 -1 #SUP: 2
47 -1 5 -1 0 -1 92 -1 #SUP: 2
47 -1 5 -1 0 -1 125 -1 #SUP: 2
47 -1 32 -1 5 -1 214 -1 #SUP: 2
47 -1 32 -1 53 -1 41 -1 #SUP: 2
47 -1 830 -1 0 -1 41 -1 #SUP: 2
47 -1 830 -1 0 -1 53 -1 #SUP: 2
47 -1 830 -1 53 -1 41 -1 #SUP: 2
66 -1 5 -1 5 -1 214 -1 #SUP: 2
66 -1 5 -1 6 -1 28 -1 #SUP: 2
66 -1 5 -1 6 -1 32 -1 #SUP: 2
66 -1 5 -1 28 -1 144 -1 #SUP: 2
66 -1 5 -1 214 -1 28 -1 #SUP: 2
69 -1 5 -1 5 -1 28 -1 #SUP: 2
69 -1 5 -1 214 -1 28 -1 #SUP: 2
70 -1 0 -1 0 -1 28 -1 #SUP: 2
70 -1 0 -1 32 -1 28 -1 #SUP: 2
70 -1 32 -1 0 -1 14 -1 #SUP: 2
86 -1 0 -1 0 -1 32 -1 #SUP: 2
86 -1 5 -1 0 -1 32 -1 #SUP: 2
105 -1 529 -1 116 -1 38 -1 #SUP: 2
106 -1 28 -1 116 -1 5 -1 #SUP: 2
116 -1 0 -1 5 -1 214 -1 #SUP: 2
116 -1 1966 -1 28 -1 410 -1 #SUP: 2
144 -1 5 -1 171 -1 5 -1 #SUP: 2
171 -1 5 -1 5 -1 5 -1 #SUP: 2
171 -1 5 -1 28 -1 5 -1 #SUP: 2
214 -1 0 -1 14 -1 5 -1 #SUP: 2
214 -1 5 -1 266 -1 5 -1 #SUP: 2
214 -1 14 -1 5 -1 28 -1 #SUP: 2
214 -1 28 -1 14 -1 5 -1 #SUP: 2
214 -1 28 -1 28 -1 5 -1 #SUP: 2
214 -1 28 -1 28 -1 14 -1 #SUP: 2
214 -1 28 -1 144 -1 5 -1 #SUP: 2
214 -1 251 -1 28 -1 2 -1 #SUP: 2
214 -1 265 -1 5 -1 5 -1 #SUP: 2
226 -1 0 -1 14 -1 128 -1 #SUP: 2
226 -1 40 -1 0 -1 14 -1 #SUP: 2
226 -1 40 -1 0 -1 128 -1 #SUP: 2
226 -1 40 -1 14 -1 128 -1 #SUP: 2
265 -1 5 -1 5 -1 32 -1 #SUP: 2
325 -1 5 -1 5 -1 28 -1 #SUP: 2
586 -1 38 -1 47 -1 799 -1 #SUP: 2
830 -1 0 -1 53 -1 41 -1 #SUP: 2
0 -1 0 -1 32 -1 53 -1 41 -1 #SUP: 2
0 -1 32 -1 0 -1 14 -1 53 -1 #SUP: 2
0 -1 66 -1 5 -1 6 -1 28 -1 #SUP: 2
0 -1 66 -1 5 -1 6 -1 32 -1 #SUP: 2
0 -1 70 -1 0 -1 32 -1 28 -1 #SUP: 2
0 -1 830 -1 0 -1 53 -1 41 -1 #SUP: 2
2 -1 586 -1 38 -1 47 -1 799 -1 #SUP: 2
5 -1 0 -1 70 -1 0 -1 32 -1 #SUP: 2
5 -1 5 -1 5 -1 28 -1 2 -1 #SUP: 2
5 -1 5 -1 214 -1 251 -1 28 -1 #SUP: 2
5 -1 18 -1 28 -1 5 -1 5 -1 #SUP: 2
5 -1 28 -1 28 -1 14 -1 5 -1 #SUP: 2
5 -1 28 -1 116 -1 5 -1 214 -1 #SUP: 2
5 -1 28 -1 144 -1 5 -1 171 -1 #SUP: 2
5 -1 40 -1 0 -1 14 -1 128 -1 #SUP: 2
5 -1 214 -1 0 -1 14 -1 5 -1 #SUP: 2
5 -1 214 -1 14 -1 5 -1 28 -1 #SUP: 2
5 -1 214 -1 28 -1 14 -1 5 -1 #SUP: 2
5 -1 214 -1 28 -1 28 -1 5 -1 #SUP: 2
5 -1 214 -1 28 -1 28 -1 14 -1 #SUP: 2
5 -1 214 -1 251 -1 28 -1 2 -1 #SUP: 2
5 -1 214 -1 265 -1 5 -1 5 -1 #SUP: 2
5 -1 226 -1 0 -1 14 -1 128 -1 #SUP: 2
5 -1 226 -1 40 -1 0 -1 14 -1 #SUP: 2
5 -1 226 -1 40 -1 0 -1 128 -1 #SUP: 2
5 -1 226 -1 40 -1 14 -1 128 -1 #SUP: 2
18 -1 28 -1 5 -1 5 -1 214 -1 #SUP: 2
32 -1 5 -1 69 -1 5 -1 214 -1 #SUP: 2
32 -1 5 -1 214 -1 14 -1 5 -1 #SUP: 2
38 -1 0 -1 0 -1 32 -1 41 -1 #SUP: 2
38 -1 0 -1 0 -1 32 -1 53 -1 #SUP: 2
38 -1 0 -1 0 -1 53 -1 41 -1 #SUP: 2
38 -1 0 -1 32 -1 53 -1 41 -1 #SUP: 2
38 -1 0 -1 830 -1 0 -1 41 -1 #SUP: 2
38 -1 0 -1 830 -1 0 -1 53 -1 #SUP: 2
38 -1 0 -1 830 -1 53 -1 41 -1 #SUP: 2
38 -1 47 -1 0 -1 0 -1 32 -1 #SUP: 2
38 -1 47 -1 0 -1 0 -1 41 -1 #SUP: 2
38 -1 47 -1 0 -1 0 -1 53 -1 #SUP: 2
38 -1 47 -1 0 -1 32 -1 41 -1 #SUP: 2
38 -1 47 -1 0 -1 32 -1 53 -1 #SUP: 2
38 -1 47 -1 0 -1 53 -1 41 -1 #SUP: 2
38 -1 47 -1 0 -1 830 -1 0 -1 #SUP: 2
38 -1 47 -1 0 -1 830 -1 41 -1 #SUP: 2
38 -1 47 -1 0 -1 830 -1 53 -1 #SUP: 2
38 -1 47 -1 32 -1 53 -1 41 -1 #SUP: 2
38 -1 47 -1 830 -1 0 -1 41 -1 #SUP: 2
38 -1 47 -1 830 -1 0 -1 53 -1 #SUP: 2
38 -1 47 -1 830 -1 53 -1 41 -1 #SUP: 2
38 -1 830 -1 0 -1 53 -1 41 -1 #SUP: 2
40 -1 5 -1 214 -1 5 -1 66 -1 #SUP: 2
47 -1 0 -1 0 -1 32 -1 41 -1 #SUP: 2
47 -1 0 -1 0 -1 32 -1 53 -1 #SUP: 2
47 -1 0 -1 0 -1 53 -1 41 -1 #SUP: 2
47 -1 0 -1 32 -1 53 -1 41 -1 #SUP: 2
47 -1 0 -1 830 -1 0 -1 41 -1 #SUP: 2
47 -1 0 -1 830 -1 0 -1 53 -1 #SUP: 2
47 -1 0 -1 830 -1 53 -1 41 -1 #SUP: 2
47 -1 830 -1 0 -1 53 -1 41 -1 #SUP: 2
214 -1 28 -1 28 -1 14 -1 5 -1 #SUP: 2
226 -1 40 -1 0 -1 14 -1 128 -1 #SUP: 2
5 -1 214 -1 28 -1 28 -1 14 -1 5 -1 #SUP: 2
5 -1 226 -1 40 -1 0 -1 14 -1 128 -1 #SUP: 2
38 -1 0 -1 0 -1 32 -1 53 -1 41 -1 #SUP: 2
38 -1 0 -1 830 -1 0 -1 53 -1 41 -1 #SUP: 2
38 -1 47 -1 0 -1 0 -1 32 -1 41 -1 #SUP: 2
38 -1 47 -1 0 -1 0 -1 32 -1 53 -1 #SUP: 2
38 -1 47 -1 0 -1 0 -1 53 -1 41 -1 #SUP: 2
38 -1 47 -1 0 -1 32 -1 53 -1 41 -1 #SUP: 2
38 -1 47 -1 0 -1 830 -1 0 -1 41 -1 #SUP: 2
38 -1 47 -1 0 -1 830 -1 0 -1 53 -1 #SUP: 2
38 -1 47 -1 0 -1 830 -1 53 -1 41 -1 #SUP: 2
38 -1 47 -1 830 -1 0 -1 53 -1 41 -1 #SUP: 2
47 -1 0 -1 0 -1 32 -1 53 -1 41 -1 #SUP: 2
47 -1 0 -1 830 -1 0 -1 53 -1 41 -1 #SUP: 2
38 -1 47 -1 0 -1 0 -1 32 -1 53 -1 41 -1 #SUP: 2
38 -1 47 -1 0 -1 830 -1 0 -1 53 -1 41 -1 #SUP: 2
