0 -1 #SUP: 7
2 -1 #SUP: 5
5 -1 #SUP: 39
12 -1 #SUP: 3
14 -1 #SUP: 5
18 -1 #SUP: 3
21 -1 #SUP: 4
22 -1 #SUP: 2
28 -1 #SUP: 15
31 -1 #SUP: 2
32 -1 #SUP: 4
33 -1 #SUP: 3
35 -1 #SUP: 2
38 -1 #SUP: 6
39 -1 #SUP: 6
47 -1 #SUP: 2
49 -1 #SUP: 4
51 -1 #SUP: 2
53 -1 #SUP: 2
66 -1 #SUP: 7
71 -1 #SUP: 2
75 -1 #SUP: 3
76 -1 #SUP: 2
81 -1 #SUP: 4
89 -1 #SUP: 2
92 -1 #SUP: 6
99 -1 #SUP: 2
100 -1 #SUP: 2
102 -1 #SUP: 3
106 -1 #SUP: 2
116 -1 #SUP: 6
119 -1 #SUP: 6
122 -1 #SUP: 2
125 -1 #SUP: 5
137 -1 #SUP: 8
140 -1 #SUP: 5
142 -1 #SUP: 2
147 -1 #SUP: 5
151 -1 #SUP: 2
153 -1 #SUP: 2
157 -1 #SUP: 2
163 -1 #SUP: 3
171 -1 #SUP: 2
190 -1 #SUP: 2
203 -1 #SUP: 2
226 -1 #SUP: 4
230 -1 #SUP: 4
233 -1 #SUP: 2
239 -1 #SUP: 3
251 -1 #SUP: 2
265 -1 #SUP: 2
266 -1 #SUP: 2
270 -1 #SUP: 3
335 -1 #SUP: 2
336 -1 #SUP: 8
368 -1 #SUP: 2
383 -1 #SUP: 2
417 -1 #SUP: 2
463 -1 #SUP: 2
470 -1 #SUP: 2
668 -1 #SUP: 4
746 -1 #SUP: 3
797 -1 #SUP: 2
823 -1 #SUP: 2
849 -1 #SUP: 2
1049 -1 #SUP: 2
1148 -1 #SUP: 2
1314 -1 #SUP: 10
1361 -1 #SUP: 3
1455 -1 #SUP: 5
4354 -1 #SUP: 3
0 -1 5 -1 #SUP: 3
0 -1 28 -1 #SUP: 2
0 -1 66 -1 #SUP: 2
0 -1 116 -1 #SUP: 2
0 -1 119 -1 #SUP: 2
0 -1 137 -1 #SUP: 2
0 -1 463 -1 #SUP: 2
0 -1 1314 -1 #SUP: 2
5 -1 0 -1 #SUP: 3
5 -1 2 -1 #SUP: 3
5 -1 5 -1 #SUP: 14
5 -1 14 -1 #SUP: 2
5 -1 18 -1 #SUP: 3
5 -1 21 -1 #SUP: 2
5 -1 28 -1 #SUP: 10
5 -1 33 -1 #SUP: 3
5 -1 35 -1 #SUP: 2
5 -1 38 -1 #SUP: 3
5 -1 39 -1 #SUP: 3
5 -1 49 -1 #SUP: 4
5 -1 51 -1 #SUP: 2
5 -1 66 -1 #SUP: 3
5 -1 81 -1 #SUP: 3
5 -1 89 -1 #SUP: 2
5 -1 92 -1 #SUP: 3
5 -1 99 -1 #SUP: 2
5 -1 102 -1 #SUP: 2
5 -1 106 -1 #SUP: 2
5 -1 116 -1 #SUP: 4
5 -1 119 -1 #SUP: 3
5 -1 125 -1 #SUP: 2
5 -1 140 -1 #SUP: 4
5 -1 147 -1 #SUP: 3
5 -1 151 -1 #SUP: 2
5 -1 163 -1 #SUP: 2
5 -1 171 -1 #SUP: 2
5 -1 230 -1 #SUP: 4
5 -1 270 -1 #SUP: 2
5 -1 335 -1 #SUP: 2
5 -1 336 -1 #SUP: 8
5 -1 417 -1 #SUP: 2
5 -1 470 -1 #SUP: 2
5 -1 668 -1 #SUP: 2
5 -1 746 -1 #SUP: 2
5 -1 1314 -1 #SUP: 5
5 -1 4354 -1 #SUP: 3
12 -1 28 -1 #SUP: 2
12 -1 39 -1 #SUP: 2
14 -1 5 -1 #SUP: 4
14 -1 33 -1 #SUP: 2
14 -1 102 -1 #SUP: 2
14 -1 163 -1 #SUP: 2
14 -1 336 -1 #SUP: 2
18 -1 28 -1 #SUP: 2
28 -1 2 -1 #SUP: 2
28 -1 21 -1 #SUP: 2
28 -1 32 -1 #SUP: 3
28 -1 38 -1 #SUP: 4
28 -1 116 -1 #SUP: 5
28 -1 137 -1 #SUP: 2
28 -1 140 -1 #SUP: 4
28 -1 147 -1 #SUP: 3
28 -1 265 -1 #SUP: 2
28 -1 746 -1 #SUP: 2
31 -1 100 -1 #SUP: 2
38 -1 28 -1 #SUP: 2
38 -1 147 -1 #SUP: 3
38 -1 265 -1 #SUP: 2
39 -1 28 -1 #SUP: 2
39 -1 116 -1 #SUP: 2
39 -1 266 -1 #SUP: 2
66 -1 0 -1 #SUP: 2
66 -1 28 -1 #SUP: 3
66 -1 116 -1 #SUP: 3
66 -1 147 -1 #SUP: 2
66 -1 163 -1 #SUP: 2
66 -1 463 -1 #SUP: 2
66 -1 823 -1 #SUP: 2
81 -1 5 -1 #SUP: 3
81 -1 49 -1 #SUP: 2
81 -1 270 -1 #SUP: 2
89 -1 140 -1 #SUP: 2
92 -1 5 -1 #SUP: 3
92 -1 28 -1 #SUP: 2
92 -1 38 -1 #SUP: 2
92 -1 125 -1 #SUP: 2
92 -1 1049 -1 #SUP: 2
92 -1 1361 -1 #SUP: 2
92 -1 4354 -1 #SUP: 2
99 -1 18 -1 #SUP: 2
102 -1 5 -1 #SUP: 2
102 -1 33 -1 #SUP: 2
116 -1 38 -1 #SUP: 3
116 -1 147 -1 #SUP: 2
119 -1 668 -1 #SUP: 4
119 -1 1314 -1 #SUP: 3
125 -1 5 -1 #SUP: 2
125 -1 28 -1 #SUP: 2
125 -1 47 -1 #SUP: 2
125 -1 746 -1 #SUP: 2
125 -1 1049 -1 #SUP: 2
125 -1 4354 -1 #SUP: 2
137 -1 2 -1 #SUP: 2
137 -1 28 -1 #SUP: 2
137 -1 66 -1 #SUP: 2
137 -1 137 -1 #SUP: 2
137 -1 823 -1 #SUP: 2
140 -1 2 -1 #SUP: 2
140 -1 21 -1 #SUP: 2
151 -1 21 -1 #SUP: 2
151 -1 28 -1 #SUP: 2
151 -1 140 -1 #SUP: 2
226 -1 137 -1 #SUP: 2
230 -1 5 -1 #SUP: 3
239 -1 47 -1 #SUP: 2
239 -1 125 -1 #SUP: 2
251 -1 28 -1 #SUP: 2
335 -1 171 -1 #SUP: 2
336 -1 2 -1 #SUP: 2
336 -1 5 -1 #SUP: 4
336 -1 28 -1 #SUP: 4
336 -1 38 -1 #SUP: 2
336 -1 39 -1 #SUP: 2
336 -1 116 -1 #SUP: 2
336 -1 140 -1 #SUP: 2
336 -1 1314 -1 #SUP: 3
336 -1 4354 -1 #SUP: 2
368 -1 2 -1 #SUP: 2
368 -1 28 -1 #SUP: 2
417 -1 5 -1 #SUP: 2
463 -1 28 -1 #SUP: 2
463 -1 116 -1 #SUP: 2
668 -1 1314 -1 #SUP: 2
1314 -1 75 -1 #SUP: 2
1455 -1 5 -1 #SUP: 4
1455 -1 92 -1 #SUP: 2
1455 -1 230 -1 #SUP: 2
0 -1 28 -1 116 -1 #SUP: 2
0 -1 66 -1 28 -1 #SUP: 2
0 -1 66 -1 116 -1 #SUP: 2
0 -1 66 -1 463 -1 #SUP: 2
0 -1 463 -1 28 -1 #SUP: 2
0 -1 463 -1 116 -1 #SUP: 2
5 -1 0 -1 5 -1 #SUP: 2
5 -1 5 -1 0 -1 #SUP: 2
5 -1 5 -1 5 -1 #SUP: 2
5 -1 5 -1 28 -1 #SUP: 4
5 -1 5 -1 33 -1 #SUP: 2
5 -1 5 -1 39 -1 #SUP: 2
5 -1 5 -1 49 -1 #SUP: 3
5 -1 5 -1 51 -1 #SUP: 2
5 -1 5 -1 116 -1 #SUP: 2
5 -1 5 -1 171 -1 #SUP: 2
5 -1 5 -1 270 -1 #SUP: 2
5 -1 5 -1 335 -1 #SUP: 2
5 -1 5 -1 746 -1 #SUP: 2
5 -1 5 -1 1314 -1 #SUP: 2
5 -1 5 -1 4354 -1 #SUP: 2
5 -1 18 -1 28 -1 #SUP: 2
5 -1 28 -1 21 -1 #SUP: 2
5 -1 28 -1 38 -1 #SUP: 2
5 -1 28 -1 116 -1 #SUP: 4
5 -1 28 -1 140 -1 #SUP: 3
5 -1 28 -1 147 -1 #SUP: 2
5 -1 38 -1 147 -1 #SUP: 2
5 -1 66 -1 28 -1 #SUP: 2
5 -1 66 -1 116 -1 #SUP: 2
5 -1 81 -1 5 -1 #SUP: 3
5 -1 81 -1 49 -1 #SUP: 2
5 -1 81 -1 270 -1 #SUP: 2
5 -1 89 -1 140 -1 #SUP: 2
5 -1 99 -1 18 -1 #SUP: 2
5 -1 102 -1 5 -1 #SUP: 2
5 -1 102 -1 33 -1 #SUP: 2
5 -1 119 -1 668 -1 #SUP: 2
5 -1 140 -1 21 -1 #SUP: 2
5 -1 151 -1 21 -1 #SUP: 2
5 -1 151 -1 28 -1 #SUP: 2
5 -1 151 -1 140 -1 #SUP: 2
5 -1 230 -1 5 -1 #SUP: 3
5 -1 335 -1 171 -1 #SUP: 2
5 -1 336 -1 2 -1 #SUP: 2
5 -1 336 -1 5 -1 #SUP: 4
5 -1 336 -1 28 -1 #SUP: 4
5 -1 336 -1 38 -1 #SUP: 2
5 -1 336 -1 39 -1 #SUP: 2
5 -1 336 -1 116 -1 #SUP: 2
5 -1 336 -1 140 -1 #SUP: 2
5 -1 336 -1 1314 -1 #SUP: 3
5 -1 336 -1 4354 -1 #SUP: 2
5 -1 417 -1 5 -1 #SUP: 2
14 -1 5 -1 5 -1 #SUP: 2
14 -1 5 -1 33 -1 #SUP: 2
14 -1 5 -1 102 -1 #SUP: 2
14 -1 5 -1 336 -1 #SUP: 2
14 -1 102 -1 5 -1 #SUP: 2
14 -1 102 -1 33 -1 #SUP: 2
28 -1 38 -1 147 -1 #SUP: 2
28 -1 116 -1 38 -1 #SUP: 2
28 -1 116 -1 147 -1 #SUP: 2
28 -1 140 -1 21 -1 #SUP: 2
66 -1 28 -1 116 -1 #SUP: 3
66 -1 28 -1 147 -1 #SUP: 2
66 -1 116 -1 147 -1 #SUP: 2
66 -1 463 -1 28 -1 #SUP: 2
66 -1 463 -1 116 -1 #SUP: 2
81 -1 5 -1 49 -1 #SUP: 2
81 -1 5 -1 270 -1 #SUP: 2
92 -1 5 -1 28 -1 #SUP: 2
92 -1 5 -1 4354 -1 #SUP: 2
92 -1 38 -1 28 -1 #SUP: 2
102 -1 5 -1 33 -1 #SUP: 2
119 -1 668 -1 1314 -1 #SUP: 2
125 -1 5 -1 4354 -1 #SUP: 2
137 -1 66 -1 823 -1 #SUP: 2
151 -1 28 -1 21 -1 #SUP: 2
151 -1 28 -1 140 -1 #SUP: 2
151 -1 140 -1 21 -1 #SUP: 2
239 -1 125 -1 47 -1 #SUP: 2
336 -1 5 -1 28 -1 #SUP: 3
336 -1 5 -1 116 -1 #SUP: 2
336 -1 28 -1 116 -1 #SUP: 2
368 -1 28 -1 2 -1 #SUP: 2
463 -1 28 -1 116 -1 #SUP: 2
1455 -1 5 -1 92 -1 #SUP: 2
1455 -1 5 -1 230 -1 #SUP: 2
0 -1 66 -1 28 -1 116 -1 #SUP: 2
0 -1 66 -1 463 -1 28 -1 #SUP: 2
0 -1 66 -1 463 -1 116 -1 #SUP: 2
0 -1 463 -1 28 -1 116 -1 #SUP: 2
5 -1 5 -1 28 -1 116 -1 #SUP: 2
5 -1 5 -1 335 -1 171 -1 #SUP: 2
5 -1 28 -1 140 -1 21 -1 #SUP: 2
5 -1 66 -1 28 -1 116 -1 #SUP: 2
5 -1 81 -1 5 -1 49 -1 #SUP: 2
5 -1 81 -1 5 -1 270 -1 #SUP: 2
5 -1 102 -1 5 -1 33 -1 #SUP: 2
5 -1 151 -1 28 -1 21 -1 #SUP: 2
5 -1 151 -1 28 -1 140 -1 #SUP: 2
5 -1 151 -1 140 -1 21 -1 #SUP: 2
5 -1 336 -1 5 -1 28 -1 #SUP: 3
5 -1 336 -1 5 -1 116 -1 #SUP: 2
5 -1 336 -1 28 -1 116 -1 #SUP: 2
14 -1 5 -1 5 -1 33 -1 #SUP: 2
14 -1 5 -1 102 -1 5 -1 #SUP: 2
14 -1 5 -1 102 -1 33 -1 #SUP: 2
14 -1 102 -1 5 -1 33 -1 #SUP: 2
66 -1 28 -1 116 -1 147 -1 #SUP: 2
66 -1 463 -1 28 -1 116 -1 #SUP: 2
151 -1 28 -1 140 -1 21 -1 #SUP: 2
336 -1 5 -1 28 -1 116 -1 #SUP: 2
0 -1 66 -1 463 -1 28 -1 116 -1 #SUP: 2
5 -1 151 -1 28 -1 140 -1 21 -1 #SUP: 2
5 -1 336 -1 5 -1 28 -1 116 -1 #SUP: 2
14 -1 5 -1 102 -1 5 -1 33 -1 #SUP: 2
