3369 -1 2247 -1 10142 -1 3109 -1 3369 -1 3622 -1 3266 -1 2100 -1 3369 -1 1478 -1 5472 -1 719 -1 6052 -1 4335 -1 5141 -1 3266 -1 4504 -1 650 -1 190 -1 50 -1 1071 -1 30 -2
165 -1 41 -1 1757 -1 154 -1 64 -1 67 -1 65 -1 3064 -1 887 -1 473 -1 1 -2
33711 -1 27 -1 548 -1 41 -1 286 -1 23693 -1 1 -2
123 -1 1745 -1 22 -1 473 -1 65 -1 401 -1 82 -1 1685 -1 123 -1 5620 -1 193 -1 165 -1 781 -1 222 -1 4964 -1 3620 -1 145 -1 76 -1 77 -1 936 -1 41 -1 499 -1 30 -2
133671 -1 133672 -1 133673 -1 823 -1 31 -1 22 -1 1001 -1 30 -2
123 -1 407 -1 3 -1 1869 -1 78 -1 11 -1 31 -1 65 -1 138 -1 189 -1 77 -1 599 -1 441 -1 7230 -1 1393 -1 536 -1 2 -1 4663 -1 755 -1 154 -1 77 -1 1103 -1 77 -1 2 -1 48 -1 30 -2
123 -1 407 -1 702 -1 938 -1 65 -1 62507 -1 32 -1 213 -1 3494 -1 520 -1 123 -1 593 -1 212 -1 835 -1 193 -1 2563 -1 283 -1 30 -2
22 -1 1801 -1 23626 -1 7507 -1 823 -1 520 -1 384 -1 283 -2
123 -1 407 -1 212 -1 3 -1 5534 -1 274 -1 262 -1 31 -1 65 -1 720 -1 2 -1 4180 -1 693 -1 2124 -1 2202 -1 30 -2
29 -1 1309 -1 206 -1 603 -1 638 -1 3956 -1 3786 -1 291 -1 22 -1 524 -1 3406 -1 2 -1 2297 -1 77 -1 1963 -1 664 -1 1914 -1 77 -1 70 -1 1211 -1 283 -2
123 -1 407 -1 1413 -1 650 -1 474 -1 65 -1 56979 -1 1219 -1 32 -1 82 -1 599 -1 16 -1 431 -1 937 -1 520 -1 123 -1 593 -1 441 -1 65 -1 499 -1 396 -1 189 -1 30 -2
1148 -1 123 -1 133676 -1 4444 -1 515 -1 133674 -1 1324 -1 2469 -1 133675 -1 30 -1 22 -1 1801 -1 23626 -1 7507 -1 2297 -1 77 -1 488 -1 1002 -1 30 -2
2 -1 1914 -1 77 -1 823 -1 283 -2
1945 -1 70 -1 3 -1 652 -1 804 -1 29401 -1 755 -1 22 -1 309 -1 31 -1 411 -1 77 -1 1996 -1 254 -1 738 -1 571 -1 520 -1 11960 -1 3710 -1 30 -2
246 -1 77 -1 256 -1 22 -1 1779 -1 3400 -1 256 -1 291 -1 886 -1 408 -1 397 -1 77 -1 123 -1 407 -1 30 -2
2634 -1 22717 -1 27 -1 548 -1 41 -1 765 -1 3150 -1 1 -2
1150 -1 77 -1 123 -1 407 -1 15594 -1 198 -1 20283 -1 254 -1 123 -1 120 -1 322 -1 175 -1 523 -1 10 -1 3285 -1 30 -2
599 -1 364 -1 3194 -1 77 -1 31 -1 650 -1 32 -1 41 -1 541 -1 566 -1 170 -1 65 -1 523 -1 3131 -1 77 -1 284 -1 41 -1 1066 -1 33 -1 285 -1 523 -1 9847 -1 2406 -1 10 -1 47 -1 241 -1 1 -2
52837 -1 1685 -1 41 -1 1313 -1 64 -1 67 -1 1030 -1 2314 -1 154 -1 3285 -1 170 -1 326 -1 11 -1 2 -1 123 -1 165 -1 1364 -1 520 -1 77 -1 285 -1 165 -1 41 -1 1841 -1 3285 -1 280 -1 4955 -1 32 -1 170 -1 262 -1 27 -1 70 -1 356 -1 64 -1 142 -1 64 -1 65 -1 3370 -1 1 -2
78 -1 30 -2
10452 -1 22741 -1 236 -1 26144 -1 2429 -1 198 -1 64 -1 67 -1 326 -1 1641 -1 77 -1 123 -1 226 -1 67 -1 4280 -1 6689 -1 78 -1 123 -1 391 -1 913 -1 326 -1 1641 -1 3376 -1 10 -1 1876 -1 77 -1 117 -1 124 -1 16 -1 154 -1 123 -1 340 -1 32 -1 30 -2
52837 -1 349 -1 1603 -1 222 -1 32 -1 22 -1 133677 -1 30 -2
52837 -1 642 -1 77 -1 212 -1 4651 -1 77 -1 749 -1 1900 -1 78 -1 5413 -1 64 -1 1641 -1 31 -1 19347 -1 1 -2
28589 -1 701 -1 4899 -1 16 -1 21046 -1 256 -1 22 -1 671 -1 707 -1 913 -1 32 -1 1214 -1 30 -2
2703 -1 22 -1 1241 -1 151 -1 11973 -1 484 -1 32 -1 22 -1 21935 -1 30 -2
823 -1 31 -1 30 -2
52837 -1 170 -1 201 -1 65 -1 524 -1 350 -1 32 -1 3285 -1 280 -1 3053 -1 22 -1 417 -1 566 -1 3201 -1 32 -1 2 -1 29277 -1 1166 -1 152 -1 144 -1 524 -1 3368 -1 1310 -1 16 -1 5194 -1 744 -1 64 -1 22 -1 417 -1 3285 -1 4461 -1 117 -1 66 -1 1 -2
63 -1 236 -1 22 -1 1441 -1 30 -2
52837 -1 170 -1 201 -1 65 -1 524 -1 350 -1 32 -1 3285 -1 280 -1 3053 -1 22 -1 417 -1 566 -1 3201 -1 32 -1 2 -1 29277 -1 1166 -1 152 -1 144 -1 524 -1 3368 -1 1310 -1 16 -1 5194 -1 744 -1 64 -1 22 -1 417 -1 3285 -1 4461 -1 117 -1 66 -1 1 -2
63 -1 236 -1 22 -1 1441 -1 30 -2
52837 -1 8689 -1 520 -1 154 -1 123 -1 220 -1 1034 -1 1223 -1 524 -1 151 -1 77 -1 284 -1 41 -1 1841 -1 285 -1 3285 -1 280 -1 205 -1 1306 -1 191 -1 520 -1 4506 -1 1223 -1 1 -2
529 -1 77 -1 236 -1 51990 -1 170 -1 326 -1 5726 -1 77 -1 123 -1 210 -1 765 -1 2849 -1 244 -1 30 -2
520 -1 117 -1 22 -1 71 -1 77 -1 123 -1 685 -1 10452 -1 5917 -1 672 -1 77 -1 334 -1 693 -1 1238 -1 158 -1 396 -1 30 -2
1650 -1 262 -1 519 -1 30 -2
533 -1 123 -1 120 -1 1902 -1 164 -1 683 -1 520 -1 384 -1 1685 -1 123 -1 120 -1 322 -1 384 -1 523 -1 77 -1 123 -1 1867 -1 48 -1 848 -1 711 -1 955 -1 30 -2
189 -1 364 -1 65 -1 720 -1 252 -1 252 -1 33 -1 1141 -1 30 -2
3285 -1 123 -1 220 -1 1034 -1 29 -1 851 -1 31 -1 526 -1 3131 -1 77 -1 599 -1 364 -1 16 -1 1191 -1 236 -1 47 -1 4728 -1 165 -1 67 -1 22 -1 1727 -1 1487 -1 30 -2
123 -1 1867 -1 22 -1 1065 -1 3406 -1 165 -1 67 -1 1223 -1 1541 -1 524 -1 599 -1 364 -1 16 -1 431 -1 1911 -1 164 -1 524 -1 77 -1 520 -1 30 -2
3064 -1 424 -1 2394 -1 1236 -1 77 -1 599 -1 123 -1 407 -1 3 -1 2277 -1 1685 -1 782 -1 1779 -1 30 -2
3285 -1 701 -1 356 -1 22 -1 15 -1 1483 -1 157 -1 31 -1 505 -1 441 -1 3 -1 11 -1 77 -1 911 -1 77 -1 2 -1 683 -1 30 -2
1150 -1 1314 -1 505 -1 78 -1 65 -1 1177 -1 3131 -1 77 -1 520 -1 1141 -1 30 -2
133678 -1 3399 -1 29 -1 1432 -1 291 -1 47 -1 3622 -1 77 -1 452 -1 3336 -1 27 -1 123 -1 205 -1 30 -2
47 -1 2248 -1 142 -1 3104 -1 520 -1 70934 -1 868 -1 1720 -1 32 -1 14495 -1 77 -1 2555 -1 256 -1 22 -1 213 -1 3494 -1 123 -1 407 -1 929 -1 30 -2
246 -1 77 -1 236 -1 566 -1 190 -1 1641 -1 78 -1 1166 -1 5020 -1 77 -1 566 -1 165 -1 67 -1 570 -1 531 -1 30 -2
123 -1 407 -1 223 -1 205 -1 47 -1 531 -1 206 -1 1241 -1 151 -1 3090 -1 153 -1 570 -1 77 -1 599 -1 244 -1 396 -1 77 -1 123 -1 407 -1 375 -1 65 -1 1409 -1 1480 -1 32 -1 141 -1 146 -1 520 -1 369 -1 30 -2
123 -1 407 -1 65 -1 1679 -1 77 -1 309 -1 5960 -1 77 -1 2 -1 65 -1 37638 -1 3670 -1 30 -2
2301 -1 64 -1 441 -1 65 -1 4018 -1 599 -1 638 -1 64 -1 781 -1 1214 -1 591 -1 254 -1 123 -1 206 -1 130 -1 30 -2
2390 -1 64 -1 423 -1 396 -1 5800 -1 4894 -1 2 -1 10455 -1 65 -1 4018 -1 152 -1 65 -1 2556 -1 30 -2
123 -1 120 -1 441 -1 1146 -1 123 -1 407 -1 826 -1 1030 -1 65 -1 401 -1 27 -1 326 -1 40284 -1 3494 -1 936 -1 10 -1 22 -1 1927 -1 30 -2
6281 -1 6821 -1 78 -1 11 -1 77 -1 599 -1 441 -1 223 -1 638 -1 693 -1 383 -1 32 -1 1039 -1 154 -1 364 -1 16 -1 1 -2
1487 -1 32 -1 3592 -1 4881 -1 1574 -1 396 -1 77 -1 30 -2
123 -1 220 -1 1034 -1 3169 -1 77 -1 599 -1 170 -1 201 -1 175 -1 2160 -1 1587 -1 41 -1 14931 -1 1641 -1 274 -1 683 -1 1 -2
749 -1 280 -1 274 -1 2469 -1 1 -2
937 -1 3 -1 1254 -1 140 -1 22 -1 637 -1 30 -2
22 -1 424 -1 2208 -1 4148 -1 22 -1 11412 -1 32 -1 3280 -1 3289 -1 174 -1 7692 -1 701 -1 151 -1 356 -1 65 -1 3221 -1 4512 -1 6753 -1 153 -1 596 -1 30 -2
364 -1 1245 -1 416 -1 326 -1 3150 -1 77 -1 599 -1 154 -1 1351 -1 936 -1 41 -1 499 -1 30 -2
520 -1 278 -1 7154 -1 31 -1 22 -1 33728 -1 2 -1 739 -1 19708 -1 2 -1 520 -1 384 -1 18185 -1 2 -1 13813 -1 2 -1 117287 -1 13209 -1 30 -2
126 -1 200 -1 220 -1 268 -1 655 -1 262 -1 5872 -1 32 -1 4199 -1 2 -1 670 -1 1 -1 30 -2
165 -1 3592 -1 171 -1 32 -1 22 -1 147 -1 28032 -1 936 -1 144 -1 175 -1 168 -1 10 -1 398 -1 1065 -1 50 -1 146 -1 1 -2
152 -1 170 -1 936 -1 65 -1 398 -1 417 -1 64 -1 144 -1 262 -1 1 -2
375 -1 1118 -1 22 -1 538 -1 76 -1 77 -1 2 -1 911 -1 22 -1 1294 -1 657 -1 170 -1 4441 -1 254 -1 523 -1 170 -1 1216 -1 16 -1 217 -1 50 -1 2813 -1 2807 -1 30 -2
1118 -1 206 -1 618 -1 3441 -1 533 -1 30 -2
63 -1 31 -1 22 -1 13973 -1 1001 -1 30 -2
236 -1 123 -1 174 -1 326 -1 1103 -1 77 -1 285 -1 165 -1 154 -1 524 -1 142 -1 237 -1 789 -1 1 -2
123 -1 340 -1 431 -1 671 -1 291 -1 524 -1 77 -1 2 -1 441 -1 223 -1 7947 -1 1223 -1 206 -1 4380 -1 50 -1 2813 -1 2807 -1 30 -2
1790 -1 164 -1 154 -1 77 -1 30 -2
123 -1 1216 -1 144 -1 159 -1 526 -1 10 -1 603 -1 10789 -1 77 -1 599 -1 22 -1 73 -1 1587 -1 123 -1 120 -1 477 -1 123 -1 965 -1 441 -1 526 -1 78 -1 171 -1 32 -1 50 -1 146 -1 170 -1 154 -1 123 -1 286 -1 70 -1 151 -1 32 -1 65 -1 2793 -1 4867 -1 153 -1 171 -1 280 -1 154 -1 72 -1 30 -2
15 -1 32 -1 30 -2
937 -1 77 -1 123 -1 407 -1 938 -1 4944 -1 154 -1 364 -1 151 -1 6285 -1 33 -1 1051 -1 64 -1 22 -1 1335 -1 154 -1 364 -1 181 -1 8899 -1 30 -2
123 -1 529 -1 2208 -1 151 -1 4444 -1 153 -1 123 -1 2280 -1 123 -1 441 -1 3600 -1 10 -1 22 -1 1927 -1 77 -1 2 -1 381 -1 10 -1 22 -1 30 -2
123 -1 391 -1 22681 -1 3 -1 2065 -1 10 -1 262 -1 1119 -1 31 -1 2886 -1 77 -1 599 -1 364 -1 16 -1 65 -1 1227 -1 1141 -1 30 -2
10 -1 22 -1 1927 -1 77 -1 123 -1 16371 -1 50 -1 156 -1 77 -1 3509 -1 193 -1 158 -1 64 -1 7605 -1 77 -1 599 -1 189 -1 70 -1 3088 -1 151 -1 32 -1 326 -1 7258 -1 999 -1 30 -1 30 -1 533 -1 123 -1 407 -1 567 -1 9850 -1 8040 -1 33 -1 35951 -1 280 -1 156 -1 2 -1 3546 -1 220 -1 16 -1 1178 -1 164 -1 41 -1 3502 -1 77 -1 123 -1 1099 -1 765 -1 154 -1 123 -1 144 -1 16 -1 477 -1 154 -1 29 -1 1288 -1 4072 -1 17350 -1 213 -1 157 -1 30 -2
364 -1 1191 -1 154 -1 213 -1 157 -1 220 -1 30 -2
441 -1 3 -1 6897 -1 22 -1 1236 -1 396 -1 1685 -1 364 -1 196 -1 4511 -1 64 -1 1974 -1 198 -1 628 -1 256 -1 50 -1 38943 -1 30 -2
22 -1 171 -1 364 -1 15 -1 3194 -1 291 -1 170 -1 749 -1 41 -1 6821 -1 133679 -1 78 -1 629 -1 30 -2
566 -1 701 -1 1103 -1 64 -1 222 -1 77 -1 152 -1 126 -1 30 -2
10001 -1 22 -1 27007 -1 3617 -1 4867 -1 30 -2
123 -1 407 -1 529 -1 667 -1 181 -1 32 -1 65 -1 9017 -1 224 -1 225 -1 77 -1 599 -1 236 -1 364 -1 10 -1 22 -1 2270 -1 32 -1 200 -1 364 -1 944 -1 10 -1 77 -1 50 -1 1476 -1 212 -1 383 -1 32 -1 133506 -1 33 -1 222 -1 77 -1 2 -1 22 -1 30 -2
45911 -1 5140 -1 16129 -1 1661 -1 3639 -1 133681 -1 116705 -1 97 -1 3639 -1 133680 -1 116705 -1 603 -1 637 -1 77 -1 538 -1 1348 -1 505 -1 10 -1 75390 -1 16343 -1 77 -1 2 -1 212 -1 938 -1 22 -1 2528 -1 65 -1 44 -1 397 -1 30 -2
123 -1 286 -1 416 -1 693 -1 405 -1 32 -1 342 -1 77 -1 126 -1 7605 -1 1 -2
989 -1 77 -1 2874 -1 326 -1 3108 -1 77 -1 2 -1 30 -2
642 -1 77 -1 70 -1 4852 -1 283 -2
856 -1 41 -1 77 -1 533 -1 77 -1 31 -1 22 -1 2202 -1 30 -2
2297 -1 77 -1 1121 -1 32 -1 22 -1 2071 -1 30 -2
26744 -1 660 -1 2 -1 715 -1 78 -1 171 -1 30 -2
488 -1 65 -1 7309 -1 30 -2
1051 -1 4852 -1 117 -1 22 -1 71 -1 30 -2
4470 -1 170 -1 936 -1 30 -2
295 -1 66 -1 196 -1 512 -1 936 -1 77 -1 533 -1 123 -1 593 -1 178 -1 154 -1 364 -1 652 -1 30 -2
1180 -1 1897 -1 1895 -1 2284 -1 1897 -1 33 -1 474 -1 599 -1 701 -1 151 -1 1103 -1 911 -1 64 -1 222 -1 1180 -1 701 -1 64 -1 2137 -1 22 -1 12622 -1 77 -1 7957 -1 3991 -1 30 -2
2773 -1 1205 -1 1313 -1 520 -1 1670 -1 1668 -1 77 -1 599 -1 566 -1 848 -1 441 -1 693 -1 30 -2
123 -1 4435 -1 12877 -1 1685 -1 123 -1 715 -1 78 -1 171 -1 77 -1 599 -1 10 -1 474 -1 77 -1 123 -1 268 -1 571 -1 12877 -1 2 -1 10706 -1 30 -2
212 -1 944 -1 10 -1 810 -1 1153 -1 2 -1 3276 -1 164 -1 213 -1 157 -1 30 -2
2858 -1 618 -1 46 -1 170 -1 171 -1 30 -2
268 -1 1790 -1 603 -1 77 -1 599 -1 123 -1 286 -1 154 -1 170 -1 1274 -1 530 -1 64 -1 22 -1 960 -1 154 -1 443 -1 441 -1 1184 -1 1397 -1 30 -2
220 -1 4386 -1 4591 -1 64 -1 222 -1 749 -1 35951 -1 446 -1 1103 -1 510 -1 153 -1 11 -1 1 -2
123 -1 322 -1 571 -1 157 -1 78 -1 9305 -1 1429 -1 30 -2
508 -1 364 -1 2210 -1 276 -1 1 -2
850 -1 283 -2
3336 -1 283 -2
123 -1 1364 -1 30 -2
123 -1 120 -1 322 -1 505 -1 78 -1 384 -1 32 -1 326 -1 622 -1 30 -2
3854 -1 133682 -1 5542 -1 356 -1 693 -1 10210 -1 77 -1 599 -1 364 -1 951 -1 13437 -1 936 -1 30 -2
223 -1 205 -1 35963 -1 206 -1 326 -1 1118 -1 2 -1 35962 -1 64 -1 67 -1 326 -1 1897 -1 30 -2
749 -1 210 -1 41 -1 156 -1 35963 -1 78 -1 326 -1 5 -1 1 -2
103 -1 30 -2
364 -1 65 -1 5141 -1 491 -1 394 -1 11 -1 77 -1 599 -1 123 -1 407 -1 1393 -1 655 -1 65 -1 608 -1 1306 -1 32 -1 1065 -1 50 -1 1261 -1 156 -1 77 -1 657 -1 39 -1 152 -1 39 -1 16 -1 1062 -1 217 -1 22 -1 51 -1 401 -1 408 -1 30 -2
2006 -1 571 -1 488 -1 3466 -1 520 -1 193 -1 1351 -1 33967 -1 285 -1 210 -1 41 -1 156 -1 35953 -1 78 -1 326 -1 1118 -1 1 -2
41 -1 529 -1 711 -1 65 -1 431 -1 14837 -1 1288 -1 3399 -1 22 -1 1819 -1 32 -1 35951 -1 381 -1 326 -1 11 -1 30 -2
123 -1 407 -1 9156 -1 22 -1 6857 -1 3604 -1 3856 -1 262 -1 417 -1 30 -2
599 -1 850 -1 77 -1 201 -1 441 -1 3 -1 7913 -1 32 -1 16353 -1 10 -1 657 -1 123 -1 407 -1 2527 -1 28834 -1 177 -1 15208 -1 30 -2
9 -1 6101 -1 65 -1 16110 -1 6100 -1 31071 -1 4779 -1 1156 -1 106332 -1 133683 -1 1949 -1 30 -2
70 -1 951 -1 529 -1 544 -1 64 -1 1688 -1 2378 -1 8124 -1 158 -1 10 -1 5753 -1 30 -2