123 -1 2301 -1 64 -1 1591 -1 2910 -1 33 -1 22 -1 3216 -1 2 -1 206 -1 510 -1 4226 -1 291 -1 193 -1 30 -2
599 -1 123 -1 1650 -1 22 -1 3465 -1 123 -1 756 -1 10 -1 65 -1 2173 -1 7568 -1 84206 -1 283 -2
1685 -1 2506 -1 262 -1 491 -1 30 -2
2 -1 123 -1 517 -1 638 -1 65 -1 663 -1 164 -1 22 -1 3216 -1 1685 -1 30 -2
123 -1 1294 -1 154 -1 30 -2
123 -1 120 -1 160 -1 64 -1 559 -1 12067 -1 152 -1 276 -1 77 -1 599 -1 123 -1 1705 -1 721 -1 1793 -1 22 -1 23131 -1 66 -1 140 -1 411 -1 30 -2
164 -1 213 -1 3022 -1 193 -1 701 -1 1429 -1 905 -1 22280 -1 31 -1 439 -1 152 -1 3021 -1 30 -2
123 -1 160 -1 64 -1 67 -1 326 -1 4911 -1 31026 -1 77 -1 2091 -1 32 -1 30433 -1 30 -2
123 -1 284 -1 233 -1 1078 -1 193 -1 117 -1 326 -1 6745 -1 30 -2
393 -1 3022 -1 183 -1 77 -1 31 -1 222 -1 77 -1 22 -1 15 -1 1081 -1 4450 -1 32 -1 1128 -1 30 -2
123 -1 1705 -1 721 -1 65 -1 151 -1 30 -2
15 -1 1300 -1 64 -1 67 -1 2851 -1 283 -2
123 -1 174 -1 520 -1 821 -1 64 -1 67 -1 2851 -1 283 -2
1276 -1 77 -1 123 -1 174 -1 326 -1 683 -1 369 -1 212 -1 937 -1 2120 -1 10 -1 2764 -1 42 -1 22 -1 8003 -1 2 -1 6702 -1 32 -1 13 -1 30 -2
123 -1 174 -1 2851 -1 30 -2
2 -1 27 -1 65 -1 2209 -1 154 -1 170 -1 283 -2
233 -1 11310 -1 30 -2
823 -1 31 -1 22 -1 855 -1 30 -2
653 -1 652 -1 384 -1 356 -1 50 -1 1314 -1 30 -2
2106 -1 123 -1 286 -1 77 -1 175 -1 1903 -1 10 -1 154 -1 2312 -1 170 -1 168 -1 30 -2
520 -1 850 -1 77 -1 236 -1 443 -1 441 -1 64 -1 499 -1 655 -1 65 -1 2189 -1 32 -1 3274 -1 1131 -1 5991 -1 154 -1 446 -1 15096 -1 443 -1 30 -2
126 -1 123 -1 174 -1 2210 -1 276 -1 77 -1 444 -1 334 -1 566 -1 4047 -1 291 -1 743 -1 591 -1 256 -1 47 -1 1084 -1 1 -2
965 -1 77 -1 674 -1 10 -1 65 -1 50208 -1 165 -1 67 -1 65 -1 22909 -1 1001 -1 30 -2
193 -1 2674 -1 22 -1 225 -1 10 -1 22 -1 1940 -1 154 -1 201 -1 183 -1 30 -2
123 -1 340 -1 32 -1 309 -1 260 -1 603 -1 628 -1 1183 -1 262 -1 861 -1 22 -1 45971 -1 24334 -1 657 -1 220 -1 67 -1 8095 -1 929 -1 31 -1 2192 -1 283 -2
22 -1 4734 -1 965 -1 1359 -1 176 -1 152 -1 1318 -1 1533 -1 175 -1 3962 -1 30 -2
2 -1 285 -1 30 -2
850 -1 32 -1 842 -1 193 -1 848 -1 77 -1 599 -1 520 -1 848 -1 5991 -1 117 -1 124 -1 567 -1 1748 -1 64 -1 1718 -1 5991 -1 206 -1 2192 -1 32 -1 29247 -1 30 -2
236 -1 41 -1 268 -1 154 -1 922 -1 1533 -1 693 -1 1845 -1 152 -1 10351 -1 3154 -1 167 -1 158 -1 193 -1 30 -2
123 -1 778 -1 847 -1 33 -1 154 -1 30 -2
90522 -1 529 -1 206 -1 1814 -1 64 -1 781 -1 1263 -1 13861 -1 922 -1 827 -1 77 -1 1685 -1 13106 -1 183 -1 373 -1 704 -1 19147 -1 30 -2
599 -1 22 -1 3812 -1 1417 -1 2 -1 443 -1 2068 -1 151 -1 2 -1 151 -1 356 -1 22 -1 30 -2
14201 -1 32 -1 22 -1 1755 -1 5991 -1 170 -1 22 -1 213 -1 1902 -1 32 -1 22 -1 132 -1 12807 -1 78 -1 10861 -1 30 -2
123 -1 765 -1 7192 -1 154 -1 12807 -1 77 -1 657 -1 170 -1 756 -1 77 -1 237 -1 65 -1 246 -1 2 -1 1164 -1 31 -1 326 -1 1856 -1 154 -1 446 -1 6285 -1 33 -1 756 -1 599 -1 33 -1 674 -1 246 -1 30 -1 30 -1 1837 -1 846 -1 283 -2
2 -1 964 -1 30 -2
3288 -1 170 -1 65 -1 259 -1 32 -1 222 -1 123 -1 778 -1 2547 -1 31 -1 175 -1 3962 -1 152 -1 161 -1 30 -2
123 -1 1275 -1 205 -1 193 -1 206 -1 2446 -1 2 -1 7 -1 64 -1 67 -1 19065 -1 77 -1 599 -1 567 -1 30 -2
599 -1 32 -1 842 -1 193 -1 3032 -1 268 -1 198 -1 30 -2
52367 -1 283 -2
20169 -1 189 -1 120 -1 711 -1 222 -1 1441 -1 50 -1 1720 -1 30 -2
1945 -1 965 -1 693 -1 1059 -1 356 -1 32960 -1 2 -1 693 -1 659 -1 664 -1 2 -1 693 -1 356 -1 153267 -1 30 -2
208 -1 27230 -1 4726 -1 4730 -1 30 -2
236 -1 123 -1 1328 -1 64 -1 197 -1 280 -1 805 -1 77 -1 55457 -1 30 -2
41 -1 183 -1 103 -1 30 -2
123 -1 951 -1 284 -1 499 -1 33 -1 2 -1 33 -1 291 -1 262 -1 30 -2
599 -1 41 -1 340 -1 27 -1 1 -2
154 -1 1205 -1 144 -1 384 -1 64 -1 6536 -1 193 -1 30 -2
193 -1 21424 -1 693 -1 1990 -1 936 -1 2 -1 201 -1 77 -1 599 -1 452 -1 193 -1 30 -2
193 -1 170 -1 150 -1 154 -1 123 -1 226 -1 1217 -1 30 -2
153268 -1 3925 -1 2022 -1 30 -2
123 -1 286 -1 193 -1 170 -1 1211 -1 31 -1 262 -1 263 -1 77 -1 1685 -1 29 -1 519 -1 826 -1 222 -1 1030 -1 1300 -1 30 -2
31 -1 693 -1 76 -1 123 -1 206 -1 1122 -1 3299 -1 254 -1 68 -1 23851 -1 32 -1 995 -1 77 -1 67 -1 193 -1 153269 -1 152 -1 213 -1 77 -1 701 -1 64 -1 67 -1 36094 -1 140 -1 6207 -1 152 -1 140 -1 1845 -1 2 -1 22 -1 1845 -1 233 -1 22561 -1 22 -1 995 -1 154 -1 170 -1 10 -1 1701 -1 20613 -1 77 -1 30 -2
123 -1 477 -1 41 -1 120 -1 483 -1 613 -1 2 -1 126 -1 41 -1 120 -1 233 -1 483 -1 65 -1 2256 -1 10 -1 13 -1 30 -2
613 -1 170 -1 276 -1 41 -1 144 -1 64 -1 2 -1 31 -1 786 -1 2 -1 153 -1 64 -1 31 -1 1166 -1 30 -2
520 -1 77 -1 538 -1 77 -1 67 -1 151 -1 3975 -1 64 -1 786 -1 30 -2
220 -1 1713 -1 30 -2
197 -1 8941 -1 222 -1 2978 -1 153 -1 123 -1 174 -1 364 -1 2100 -1 30 -1 65 -1 834 -1 7309 -1 1275 -1 5620 -1 154 -1 364 -1 323 -1 152 -1 2978 -1 30 -2
1275 -1 326 -1 1953 -1 1425 -1 2 -1 1214 -1 3856 -1 4455 -1 140 -1 164 -1 318 -1 9396 -1 2 -1 768 -1 1716 -1 1214 -1 4821 -1 64 -1 30 -2
123 -1 286 -1 123 -1 174 -1 652 -1 368 -1 3975 -1 308 -1 189 -1 30 -2
193 -1 446 -1 223 -1 356 -1 154 -1 77 -1 533 -1 30 -2
193 -1 170 -1 181 -1 714 -1 64 -1 613 -1 411 -1 30 -2
212 -1 144 -1 276 -1 168 -1 31 -1 222 -1 30 -2
31 -1 222 -1 262 -1 170 -1 20626 -1 77 -1 540 -1 23131 -1 22280 -1 77 -1 30 -2
364 -1 2100 -1 77 -1 189 -1 30 -2
2437 -1 323 -1 280 -1 123 -1 638 -1 50 -1 5418 -1 872 -1 2 -1 16371 -1 50 -1 69 -1 77 -1 1685 -1 244 -1 193 -1 170 -1 408 -1 2 -1 408 -1 32 -1 427 -1 50 -1 417 -1 32 -1 13 -1 2 -1 71433 -1 411 -1 30 -2
123 -1 11489 -1 65 -1 2630 -1 3906 -1 2 -1 1438 -1 536 -1 30 -2
18686 -1 153270 -1 56515 -1 30 -2
441 -1 41 -1 9917 -1 22 -1 153271 -1 153272 -1 32 -1 29 -1 29568 -1 1845 -1 1 -2
349 -1 441 -1 4874 -1 32 -1 21699 -1 369 -1 183 -1 437 -1 2192 -1 152 -1 441 -1 65 -1 2563 -1 3414 -1 698 -1 30 -2
123 -1 9917 -1 50 -1 153273 -1 30 -2
856 -1 41 -1 17473 -1 283 -2
123 -1 206 -1 1712 -1 31 -1 63557 -1 32 -1 11011 -1 599 -1 1705 -1 483 -1 193 -1 30 -2
309 -1 64 -1 1801 -1 11011 -1 65 -1 44 -1 653 -1 65 -1 720 -1 384 -1 31 -1 222 -1 77 -1 17597 -1 30 -2
233 -1 78 -1 65 -1 478 -1 87253 -1 2 -1 200 -1 369 -1 1045 -1 11011 -1 1225 -1 1401 -1 847 -1 162 -1 123 -1 938 -1 77 -1 599 -1 1099 -1 67 -1 1318 -1 309 -1 408 -1 397 -1 77 -1 162 -1 123 -1 2068 -1 3979 -1 30 -2
154 -1 206 -1 326 -1 714 -1 2098 -1 78 -1 123 -1 517 -1 260 -1 1674 -1 384 -1 6989 -1 2 -1 517 -1 1674 -1 1679 -1 30 -2
651 -1 31 -1 16149 -1 206 -1 2 -1 170 -1 1146 -1 123 -1 1797 -1 65 -1 9842 -1 693 -1 1246 -1 3722 -1 8426 -1 2 -1 566 -1 836 -1 630 -1 507 -1 30 -2
41 -1 220 -1 4047 -1 283 -2
10 -1 4798 -1 77 -1 533 -1 77 -1 520 -1 120 -1 521 -1 222 -1 33 -1 50 -1 1807 -1 1945 -1 30 -2
117 -1 395 -1 123 -1 638 -1 431 -1 168 -1 7359 -1 10 -1 4798 -1 30 -2
8891 -1 326 -1 22280 -1 4292 -1 30 -2
50 -1 4594 -1 691 -1 356 -1 556 -1 233 -1 533 -1 123 -1 789 -1 23131 -1 31 -1 309 -1 408 -1 599 -1 123 -1 1913 -1 1726 -1 540 -1 30 -2
123 -1 613 -1 41 -1 2222 -1 165 -1 212 -1 764 -1 224 -1 793 -1 153274 -1 126 -1 233 -1 212 -1 65 -1 12957 -1 77 -1 3993 -1 33 -1 27 -1 2326 -1 64 -1 774 -1 64 -1 774 -1 65 -1 2310 -1 7039 -1 2632 -1 1608 -1 2326 -1 3274 -1 445 -1 64 -1 835 -1 693 -1 628 -1 256 -1 18007 -1 1 -2
2 -1 3906 -1 693 -1 30 -2
123 -1 73 -1 340 -1 32 -1 22 -1 8363 -1 775 -1 3675 -1 3481 -1 3352 -1 30 -2
4397 -1 3661 -1 31 -1 33479 -1 153275 -1 280 -1 959 -1 33479 -1 140 -1 22 -1 417 -1 170 -1 22 -1 1607 -1 3267 -1 77 -1 193 -1 921 -1 67 -1 21831 -1 123 -1 206 -1 699 -1 117 -1 10300 -1 801 -1 50 -1 20294 -1 5622 -1 30 -2
408 -1 836 -1 123 -1 1438 -1 536 -1 64 -1 395 -1 64 -1 268 -1 50 -1 138085 -1 657 -1 183 -1 1160 -1 155 -1 408 -1 77 -1 10 -1 50 -1 851 -1 30 -2
154 -1 408 -1 123 -1 206 -1 544 -1 10 -1 292 -1 2 -1 544 -1 10 -1 10300 -1 164 -1 65 -1 3014 -1 30 -2
123 -1 1867 -1 4549 -1 77 -1 233 -1 533 -1 123 -1 937 -1 1650 -1 50 -1 613 -1 31 -1 393 -1 30 -2
249 -1 27 -1 170 -1 29 -1 184 -1 10127 -1 2809 -1 2630 -1 1 -2
10409 -1 599 -1 123 -1 174 -1 13495 -1 78 -1 65 -1 2183 -1 7828 -1 30 -2
250 -1 33 -1 65 -1 1131 -1 32 -1 249 -1 30 -1 78 -1 31 -1 22 -1 2074 -1 3962 -1 170 -1 212 -1 4040 -1 32 -1 545 -1 152 -1 871 -1 96 -1 24350 -1 164 -1 1342 -1 2 -1 671 -1 974 -1 8499 -1 33 -1 152 -1 31 -1 2468 -1 9738 -1 2 -1 62275 -1 10 -1 693 -1 5366 -1 2 -1 3962 -1 170 -1 65 -1 2994 -1 30 -2
262 -1 183 -1 22 -1 30 -2
10 -1 8617 -1 5622 -1 123 -1 114 -1 65 -1 4996 -1 657 -1 864 -1 31 -1 126 -1 793 -1 408 -1 30 -2
153 -1 123 -1 638 -1 65 -1 3251 -1 2857 -1 77 -1 1123 -1 2446 -1 77 -1 852 -1 32 -1 9066 -1 78 -1 123 -1 16371 -1 2 -1 1004 -1 725 -1 154 -1 4996 -1 30 -2
123 -1 31 -1 411 -1 441 -1 30 -2
123 -1 517 -1 673 -1 411 -1 78 -1 65 -1 9665 -1 2 -1 123 -1 951 -1 517 -1 226 -1 30 -2
1653 -1 123 -1 441 -1 3 -1 13721 -1 965 -1 123 -1 206 -1 631 -1 23076 -1 64 -1 67 -1 171 -1 33 -1 22 -1 469 -1 30 -2
285 -1 608 -1 441 -1 41 -1 3 -1 1296 -1 1 -2
2100 -1 408 -1 657 -1 529 -1 170 -1 50 -1 2817 -1 30 -2
183 -1 41 -1 5433 -1 64 -1 67 -1 1296 -1 1 -2
498 -1 850 -1 77 -1 498 -1 567 -1 30 -2
437 -1 567 -1 30 -2
285 -1 144 -1 41 -1 1758 -1 291 -1 381 -1 1296 -1 1 -2
117 -1 538 -1 30 -2
153277 -1 4132 -1 32 -1 30574 -1 6402 -1 153276 -1 1760 -1 64 -1 152566 -1 22 -1 13285 -1 1858 -1 1535 -1 77 -1 1151 -1 22 -1 1855 -1 32 -1 4664 -1 117 -1 111075 -1 701 -1 510 -1 13219 -1 30 -2
529 -1 123 -1 120 -1 340 -1 236 -1 123 -1 220 -1 734 -1 30 -2
154 -1 170 -1 964 -1 30 -2
3922 -1 4574 -1 41 -1 183 -1 2910 -1 64 -1 30 -2
4664 -1 170 -1 22 -1 677 -1 2189 -1 32 -1 5561 -1 30 -2
21900 -1 2 -1 78 -1 22 -1 18942 -1 755 -1 4041 -1 2 -1 1542 -1 170 -1 1760 -1 64 -1 1876 -1 26572 -1 152 -1 1264 -1 955 -1 2378 -1 6844 -1 140 -1 22 -1 3504 -1 123 -1 165 -1 510 -1 8587 -1 29 -1 30 -2
91927 -1 123 -1 477 -1 41 -1 441 -1 1169 -1 27 -1 50 -1 1441 -1 170 -1 152 -1 206 -1 30 -2
2 -1 123 -1 286 -1 41 -1 39 -1 431 -1 150 -1 67 -1 308 -1 10 -1 154 -1 123 -1 274 -1 2073 -1 262 -1 30 -2
2 -1 262 -1 1441 -1 39 -1 1313 -1 431 -1 787 -1 599 -1 154 -1 170 -1 30 -2
153278 -1 1019 -1 123 -1 174 -1 656 -1 64 -1 268 -1 151 -1 237 -1 3642 -1 164 -1 50 -1 3622 -1 30 -2
123 -1 174 -1 151 -1 152 -1 2134 -1 326 -1 6532 -1 84963 -1 30 -2
11559 -1 123 -1 529 -1 356 -1 154 -1 501 -1 30 -2
823 -1 31 -1 1937 -1 30 -2
57053 -1 57054 -1 262 -1 30 -2
144657 -1 123 -1 220 -1 1034 -1 27 -1 41 -1 765 -1 2 -1 193 -1 150 -1 170 -1 431 -1 964 -1 30 -2
599 -1 78 -1 223 -1 164 -1 3548 -1 32 -1 1693 -1 193 -1 170 -1 73 -1 259 -1 32 -1 193 -1 30 -2
32 -1 842 -1 201 -1 170 -1 326 -1 13082 -1 1309 -1 31 -1 1127 -1 443 -1 144 -1 30 -2
123 -1 260 -1 856 -1 41 -1 66 -1 31 -1 4858 -1 30 -2
1019 -1 50 -1 3622 -1 170 -1 65 -1 468 -1 54 -1 236 -1 193 -1 1752 -1 222 -1 27 -1 64 -1 144 -1 1533 -1 1309 -1 30 -2
1945 -1 126 -1 123 -1 174 -1 212 -1 3434 -1 64 -1 67 -1 691 -1 152 -1 64 -1 1022 -1 50 -1 1608 -1 396 -1 30 -2
823 -1 31 -1 29 -1 3396 -1 123 -1 174 -1 383 -1 32 -1 1245 -1 154 -1 193 -1 170 -1 1535 -1 193 -1 30 -2
123 -1 1275 -1 638 -1 65 -1 46 -1 154 -1 123 -1 2351 -1 356 -1 65 -1 1899 -1 123 -1 165 -1 441 -1 147 -1 50 -1 13 -1 236 -1 123 -1 638 -1 64 -1 2273 -1 47 -1 77 -1 520 -1 1123 -1 872 -1 123 -1 340 -1 193 -1 170 -1 30 -2
235 -1 201 -1 283 -2
123 -1 174 -1 431 -1 1123 -1 10 -1 20866 -1 2076 -1 308 -1 189 -1 30 -2
65 -1 401 -1 1388 -1 397 -1 123 -1 638 -1 22 -1 2551 -1 64 -1 5577 -1 65 -1 1219 -1 32 -1 225 -1 77 -1 147 -1 22 -1 3846 -1 77 -1 599 -1 123 -1 638 -1 567 -1 1524 -1 10 -1 154 -1 30 -2
123 -1 488 -1 441 -1 567 -1 668 -1 308 -1 30 -2
123 -1 160 -1 64 -1 3146 -1 10 -1 22 -1 628 -1 29 -1 3962 -1 152 -1 29 -1 13 -1 2 -1 22 -1 8185 -1 507 -1 10 -1 15387 -1 78 -1 349 -1 260 -1 2617 -1 222 -1 164 -1 50 -1 5386 -1 291 -1 3962 -1 30 -2
3962 -1 33 -1 2406 -1 7 -1 73 -1 22 -1 448 -1 32 -1 13 -1 1608 -1 30 -2
123 -1 356 -1 10300 -1 2 -1 7028 -1 64 -1 22 -1 1335 -1 32 -1 651 -1 64 -1 6745 -1 2 -1 3429 -1 10300 -1 538 -1 244 -1 10803 -1 64 -1 7028 -1 836 -1 30 -2
599 -1 123 -1 1313 -1 64 -1 67 -1 3547 -1 64 -1 9122 -1 2988 -1 1793 -1 30 -2
193 -1 170 -1 356 -1 50 -1 538 -1 30 -2
246 -1 77 -1 446 -1 262 -1 914 -1 487 -1 774 -1 33 -1 5753 -1 1 -2
22 -1 1261 -1 77 -1 4384 -1 2 -1 233 -1 22 -1 409 -1 886 -1 123 -1 3641 -1 183 -1 66 -1 291 -1 5753 -1 30 -2
236 -1 123 -1 2280 -1 3487 -1 4509 -1 630 -1 154 -1 5644 -1 446 -1 291 -1 1488 -1 30 -2
212 -1 64 -1 67 -1 1191 -1 41 -1 120 -1 160 -1 64 -1 765 -1 154 -1 1755 -1 408 -1 183 -1 65 -1 1485 -1 32 -1 76 -1 1 -2
254 -1 193 -1 446 -1 2 -1 212 -1 64 -1 67 -1 233 -1 151 -1 1191 -1 30588 -1 32 -1 1755 -1 408 -1 170 -1 31133 -1 308 -1 1 -2
254 -1 22 -1 8662 -1 30 -2
123 -1 220 -1 1713 -1 65 -1 1219 -1 30 -2
123 -1 1275 -1 11801 -1 65 -1 2411 -1 31 -1 1318 -1 50 -1 914 -1 13 -1 657 -1 1165 -1 356 -1 2306 -1 408 -1 152 -1 276 -1 64 -1 322 -1 567 -1 159 -1 64 -1 193 -1 10 -1 22 -1 1610 -1 30 -2
123 -1 153279 -1 50 -1 16297 -1 1779 -1 2809 -1 2 -1 1438 -1 30 -2
21844 -1 153284 -1 96960 -1 153285 -1 3538 -1 96961 -1 153281 -1 77 -1 153283 -1 77 -1 153282 -1 77 -1 107989 -1 77 -1 19072 -1 77 -1 153280 -1 85735 -1 153286 -1 5315 -1 30 -2
599 -1 8028 -1 364 -1 1238 -1 10 -1 2 -1 5115 -1 64 -1 1807 -1 151 -1 433 -1 30 -2
1099 -1 67 -1 254 -1 22 -1 30 -2
4798 -1 2 -1 1698 -1 32 -1 22 -1 20542 -1 123 -1 174 -1 16 -1 2658 -1 8448 -1 6184 -1 599 -1 123 -1 174 -1 3822 -1 2658 -1 175 -1 8448 -1 1648 -1 936 -1 10 -1 20042 -1 30 -2
12170 -1 32530 -1 356 -1 22 -1 1942 -1 17713 -1 15261 -1 30 -2