2 -1 #SUP: 25
3 -1 #SUP: 2
7 -1 #SUP: 4
10 -1 #SUP: 13
15 -1 #SUP: 6
16 -1 #SUP: 4
22 -1 #SUP: 40
27 -1 #SUP: 3
29 -1 #SUP: 2
30 -1 #SUP: 3
31 -1 #SUP: 12
32 -1 #SUP: 20
33 -1 #SUP: 6
41 -1 #SUP: 11
47 -1 #SUP: 3
50 -1 #SUP: 16
64 -1 #SUP: 34
65 -1 #SUP: 30
66 -1 #SUP: 3
67 -1 #SUP: 12
70 -1 #SUP: 2
73 -1 #SUP: 3
76 -1 #SUP: 5
77 -1 #SUP: 77
78 -1 #SUP: 6
117 -1 #SUP: 4
120 -1 #SUP: 3
123 -1 #SUP: 58
127 -1 #SUP: 2
134 -1 #SUP: 2
138 -1 #SUP: 3
140 -1 #SUP: 3
141 -1 #SUP: 2
144 -1 #SUP: 3
146 -1 #SUP: 3
150 -1 #SUP: 2
151 -1 #SUP: 2
152 -1 #SUP: 4
153 -1 #SUP: 2
154 -1 #SUP: 24
156 -1 #SUP: 3
158 -1 #SUP: 4
159 -1 #SUP: 2
162 -1 #SUP: 3
164 -1 #SUP: 8
165 -1 #SUP: 7
167 -1 #SUP: 2
170 -1 #SUP: 22
171 -1 #SUP: 8
174 -1 #SUP: 4
176 -1 #SUP: 2
183 -1 #SUP: 6
193 -1 #SUP: 22
198 -1 #SUP: 2
200 -1 #SUP: 2
201 -1 #SUP: 4
205 -1 #SUP: 2
206 -1 #SUP: 13
210 -1 #SUP: 3
212 -1 #SUP: 4
213 -1 #SUP: 3
220 -1 #SUP: 3
222 -1 #SUP: 6
223 -1 #SUP: 2
224 -1 #SUP: 2
226 -1 #SUP: 3
236 -1 #SUP: 3
241 -1 #SUP: 2
248 -1 #SUP: 2
249 -1 #SUP: 2
250 -1 #SUP: 3
254 -1 #SUP: 6
256 -1 #SUP: 4
260 -1 #SUP: 7
262 -1 #SUP: 10
263 -1 #SUP: 2
268 -1 #SUP: 3
285 -1 #SUP: 3
286 -1 #SUP: 7
291 -1 #SUP: 6
300 -1 #SUP: 2
318 -1 #SUP: 2
322 -1 #SUP: 3
326 -1 #SUP: 4
340 -1 #SUP: 3
349 -1 #SUP: 7
356 -1 #SUP: 4
364 -1 #SUP: 5
369 -1 #SUP: 2
375 -1 #SUP: 2
381 -1 #SUP: 5
384 -1 #SUP: 3
392 -1 #SUP: 2
394 -1 #SUP: 3
395 -1 #SUP: 3
407 -1 #SUP: 3
431 -1 #SUP: 3
441 -1 #SUP: 5
483 -1 #SUP: 3
491 -1 #SUP: 3
499 -1 #SUP: 3
501 -1 #SUP: 2
517 -1 #SUP: 2
519 -1 #SUP: 4
520 -1 #SUP: 8
566 -1 #SUP: 4
571 -1 #SUP: 2
596 -1 #SUP: 5
599 -1 #SUP: 12
618 -1 #SUP: 2
638 -1 #SUP: 2
652 -1 #SUP: 8
657 -1 #SUP: 3
668 -1 #SUP: 2
671 -1 #SUP: 2
701 -1 #SUP: 2
704 -1 #SUP: 2
716 -1 #SUP: 2
765 -1 #SUP: 3
789 -1 #SUP: 3
793 -1 #SUP: 2
871 -1 #SUP: 2
886 -1 #SUP: 4
951 -1 #SUP: 2
960 -1 #SUP: 2
965 -1 #SUP: 3
1034 -1 #SUP: 2
1105 -1 #SUP: 2
1148 -1 #SUP: 2
1190 -1 #SUP: 2
1193 -1 #SUP: 3
1211 -1 #SUP: 2
1235 -1 #SUP: 2
1263 -1 #SUP: 4
1294 -1 #SUP: 2
1310 -1 #SUP: 3
1440 -1 #SUP: 2
1441 -1 #SUP: 2
1478 -1 #SUP: 3
1533 -1 #SUP: 2
1610 -1 #SUP: 2
1650 -1 #SUP: 2
1716 -1 #SUP: 2
1745 -1 #SUP: 2
1758 -1 #SUP: 2
1807 -1 #SUP: 2
1898 -1 #SUP: 4
1899 -1 #SUP: 2
1940 -1 #SUP: 2
1953 -1 #SUP: 3
2059 -1 #SUP: 2
2173 -1 #SUP: 2
2280 -1 #SUP: 2
2307 -1 #SUP: 2
3569 -1 #SUP: 3
3714 -1 #SUP: 2
4313 -1 #SUP: 2
4511 -1 #SUP: 2
4550 -1 #SUP: 2
6575 -1 #SUP: 2
6729 -1 #SUP: 2
7725 -1 #SUP: 2
8963 -1 #SUP: 2
9898 -1 #SUP: 2
10378 -1 #SUP: 2
11100 -1 #SUP: 2
18812 -1 #SUP: 2
32098 -1 #SUP: 2
43432 -1 #SUP: 2
56412 -1 #SUP: 2
2 -1 10 -1 #SUP: 3
2 -1 22 -1 #SUP: 7
2 -1 32 -1 #SUP: 4
2 -1 50 -1 #SUP: 2
2 -1 64 -1 #SUP: 2
2 -1 65 -1 #SUP: 5
2 -1 76 -1 #SUP: 2
2 -1 77 -1 #SUP: 5
2 -1 123 -1 #SUP: 6
2 -1 154 -1 #SUP: 3
2 -1 193 -1 #SUP: 2
2 -1 212 -1 #SUP: 2
2 -1 291 -1 #SUP: 2
2 -1 375 -1 #SUP: 2
2 -1 652 -1 #SUP: 2
2 -1 1193 -1 #SUP: 2
2 -1 1310 -1 #SUP: 2
2 -1 4550 -1 #SUP: 2
3 -1 77 -1 #SUP: 2
7 -1 7 -1 #SUP: 2
7 -1 64 -1 #SUP: 2
7 -1 77 -1 #SUP: 2
10 -1 2 -1 #SUP: 3
10 -1 64 -1 #SUP: 3
10 -1 65 -1 #SUP: 3
10 -1 77 -1 #SUP: 6
10 -1 123 -1 #SUP: 2
10 -1 193 -1 #SUP: 3
10 -1 260 -1 #SUP: 2
10 -1 431 -1 #SUP: 2
10 -1 520 -1 #SUP: 2
10 -1 960 -1 #SUP: 2
10 -1 18812 -1 #SUP: 2
15 -1 22 -1 #SUP: 3
15 -1 64 -1 #SUP: 2
15 -1 77 -1 #SUP: 2
15 -1 254 -1 #SUP: 2
15 -1 11100 -1 #SUP: 2
16 -1 64 -1 #SUP: 2
16 -1 77 -1 #SUP: 2
16 -1 154 -1 #SUP: 2
16 -1 326 -1 #SUP: 2
16 -1 381 -1 #SUP: 2
16 -1 596 -1 #SUP: 2
16 -1 599 -1 #SUP: 2
16 -1 8963 -1 #SUP: 2
22 -1 2 -1 #SUP: 8
22 -1 10 -1 #SUP: 2
22 -1 15 -1 #SUP: 3
22 -1 22 -1 #SUP: 6
22 -1 31 -1 #SUP: 4
22 -1 32 -1 #SUP: 7
22 -1 33 -1 #SUP: 2
22 -1 50 -1 #SUP: 3
22 -1 64 -1 #SUP: 9
22 -1 65 -1 #SUP: 4
22 -1 67 -1 #SUP: 2
22 -1 76 -1 #SUP: 3
22 -1 77 -1 #SUP: 10
22 -1 123 -1 #SUP: 4
22 -1 154 -1 #SUP: 4
22 -1 170 -1 #SUP: 7
22 -1 171 -1 #SUP: 2
22 -1 193 -1 #SUP: 2
22 -1 222 -1 #SUP: 3
22 -1 226 -1 #SUP: 2
22 -1 254 -1 #SUP: 2
22 -1 263 -1 #SUP: 2
22 -1 286 -1 #SUP: 2
22 -1 364 -1 #SUP: 2
22 -1 381 -1 #SUP: 2
22 -1 566 -1 #SUP: 2
22 -1 599 -1 #SUP: 2
22 -1 657 -1 #SUP: 2
22 -1 793 -1 #SUP: 2
22 -1 1294 -1 #SUP: 2
22 -1 1610 -1 #SUP: 2
22 -1 2307 -1 #SUP: 2
22 -1 11100 -1 #SUP: 2
27 -1 41 -1 #SUP: 2
30 -1 64 -1 #SUP: 2
30 -1 67 -1 #SUP: 2
31 -1 2 -1 #SUP: 3
31 -1 22 -1 #SUP: 3
31 -1 65 -1 #SUP: 4
31 -1 77 -1 #SUP: 7
31 -1 123 -1 #SUP: 3
31 -1 154 -1 #SUP: 2
31 -1 285 -1 #SUP: 2
31 -1 286 -1 #SUP: 2
31 -1 322 -1 #SUP: 2
31 -1 657 -1 #SUP: 2
31 -1 1310 -1 #SUP: 2
32 -1 22 -1 #SUP: 3
32 -1 30 -1 #SUP: 2
32 -1 32 -1 #SUP: 4
32 -1 64 -1 #SUP: 7
32 -1 65 -1 #SUP: 3
32 -1 67 -1 #SUP: 4
32 -1 76 -1 #SUP: 2
32 -1 77 -1 #SUP: 5
32 -1 78 -1 #SUP: 2
32 -1 123 -1 #SUP: 2
32 -1 152 -1 #SUP: 2
32 -1 154 -1 #SUP: 2
32 -1 165 -1 #SUP: 2
32 -1 170 -1 #SUP: 4
32 -1 193 -1 #SUP: 3
32 -1 254 -1 #SUP: 2
32 -1 394 -1 #SUP: 2
32 -1 491 -1 #SUP: 2
32 -1 599 -1 #SUP: 3
33 -1 22 -1 #SUP: 2
33 -1 77 -1 #SUP: 3
33 -1 154 -1 #SUP: 2
33 -1 193 -1 #SUP: 2
41 -1 10 -1 #SUP: 2
41 -1 64 -1 #SUP: 2
41 -1 67 -1 #SUP: 2
41 -1 77 -1 #SUP: 3
41 -1 193 -1 #SUP: 2
50 -1 2 -1 #SUP: 5
50 -1 22 -1 #SUP: 3
50 -1 32 -1 #SUP: 2
50 -1 50 -1 #SUP: 5
50 -1 64 -1 #SUP: 3
50 -1 65 -1 #SUP: 3
50 -1 77 -1 #SUP: 6
50 -1 123 -1 #SUP: 5
50 -1 154 -1 #SUP: 2
50 -1 170 -1 #SUP: 2
50 -1 198 -1 #SUP: 2
50 -1 206 -1 #SUP: 2
50 -1 256 -1 #SUP: 2
50 -1 668 -1 #SUP: 2
50 -1 1898 -1 #SUP: 3
50 -1 1953 -1 #SUP: 3
64 -1 2 -1 #SUP: 4
64 -1 22 -1 #SUP: 9
64 -1 32 -1 #SUP: 4
64 -1 33 -1 #SUP: 2
64 -1 41 -1 #SUP: 2
64 -1 64 -1 #SUP: 4
64 -1 65 -1 #SUP: 3
64 -1 67 -1 #SUP: 6
64 -1 77 -1 #SUP: 10
64 -1 78 -1 #SUP: 2
64 -1 123 -1 #SUP: 3
64 -1 144 -1 #SUP: 2
64 -1 154 -1 #SUP: 3
64 -1 164 -1 #SUP: 3
64 -1 170 -1 #SUP: 3
64 -1 171 -1 #SUP: 2
64 -1 193 -1 #SUP: 5
64 -1 220 -1 #SUP: 2
64 -1 222 -1 #SUP: 2
64 -1 254 -1 #SUP: 2
64 -1 268 -1 #SUP: 2
64 -1 326 -1 #SUP: 2
64 -1 364 -1 #SUP: 3
64 -1 381 -1 #SUP: 2
64 -1 596 -1 #SUP: 2
64 -1 599 -1 #SUP: 3
64 -1 1034 -1 #SUP: 2
64 -1 1105 -1 #SUP: 2
64 -1 1610 -1 #SUP: 2
64 -1 1650 -1 #SUP: 2
64 -1 6729 -1 #SUP: 2
65 -1 2 -1 #SUP: 4
65 -1 16 -1 #SUP: 2
65 -1 22 -1 #SUP: 3
65 -1 30 -1 #SUP: 2
65 -1 32 -1 #SUP: 5
65 -1 64 -1 #SUP: 3
65 -1 65 -1 #SUP: 6
65 -1 67 -1 #SUP: 4
65 -1 77 -1 #SUP: 14
65 -1 117 -1 #SUP: 2
65 -1 123 -1 #SUP: 6
65 -1 152 -1 #SUP: 2
65 -1 154 -1 #SUP: 4
65 -1 158 -1 #SUP: 2
65 -1 165 -1 #SUP: 3
65 -1 170 -1 #SUP: 2
65 -1 193 -1 #SUP: 5
65 -1 206 -1 #SUP: 3
65 -1 220 -1 #SUP: 2
65 -1 286 -1 #SUP: 2
65 -1 326 -1 #SUP: 2
65 -1 381 -1 #SUP: 2
65 -1 394 -1 #SUP: 3
65 -1 491 -1 #SUP: 3
65 -1 520 -1 #SUP: 2
65 -1 599 -1 #SUP: 4
65 -1 652 -1 #SUP: 2
65 -1 1441 -1 #SUP: 2
65 -1 1745 -1 #SUP: 2
65 -1 9898 -1 #SUP: 2
67 -1 22 -1 #SUP: 5
67 -1 31 -1 #SUP: 2
67 -1 64 -1 #SUP: 2
67 -1 65 -1 #SUP: 2
67 -1 77 -1 #SUP: 4
67 -1 123 -1 #SUP: 2
67 -1 152 -1 #SUP: 2
67 -1 154 -1 #SUP: 2
67 -1 165 -1 #SUP: 2
67 -1 170 -1 #SUP: 2
67 -1 193 -1 #SUP: 3
67 -1 254 -1 #SUP: 2
67 -1 326 -1 #SUP: 2
67 -1 364 -1 #SUP: 2
67 -1 381 -1 #SUP: 2
67 -1 596 -1 #SUP: 2
76 -1 65 -1 #SUP: 2
76 -1 77 -1 #SUP: 3
77 -1 2 -1 #SUP: 16
77 -1 7 -1 #SUP: 2
77 -1 10 -1 #SUP: 3
77 -1 15 -1 #SUP: 3
77 -1 22 -1 #SUP: 17
77 -1 27 -1 #SUP: 2
77 -1 31 -1 #SUP: 2
77 -1 32 -1 #SUP: 11
77 -1 33 -1 #SUP: 2
77 -1 41 -1 #SUP: 4
77 -1 50 -1 #SUP: 6
77 -1 64 -1 #SUP: 15
77 -1 65 -1 #SUP: 12
77 -1 67 -1 #SUP: 4
77 -1 77 -1 #SUP: 13
77 -1 78 -1 #SUP: 3
77 -1 117 -1 #SUP: 2
77 -1 123 -1 #SUP: 16
77 -1 127 -1 #SUP: 2
77 -1 152 -1 #SUP: 2
77 -1 154 -1 #SUP: 6
77 -1 156 -1 #SUP: 3
77 -1 158 -1 #SUP: 2
77 -1 164 -1 #SUP: 4
77 -1 165 -1 #SUP: 2
77 -1 170 -1 #SUP: 6
77 -1 171 -1 #SUP: 4
77 -1 176 -1 #SUP: 2
77 -1 193 -1 #SUP: 12
77 -1 200 -1 #SUP: 2
77 -1 206 -1 #SUP: 5
77 -1 212 -1 #SUP: 2
77 -1 220 -1 #SUP: 3
77 -1 222 -1 #SUP: 4
77 -1 254 -1 #SUP: 5
77 -1 260 -1 #SUP: 4
77 -1 262 -1 #SUP: 2
77 -1 285 -1 #SUP: 2
77 -1 286 -1 #SUP: 4
77 -1 291 -1 #SUP: 2
77 -1 322 -1 #SUP: 2
77 -1 326 -1 #SUP: 2
77 -1 349 -1 #SUP: 3
77 -1 364 -1 #SUP: 2
77 -1 381 -1 #SUP: 3
77 -1 441 -1 #SUP: 2
77 -1 499 -1 #SUP: 2
77 -1 520 -1 #SUP: 4
77 -1 566 -1 #SUP: 2
77 -1 596 -1 #SUP: 2
77 -1 599 -1 #SUP: 10
77 -1 618 -1 #SUP: 2
77 -1 638 -1 #SUP: 2
77 -1 652 -1 #SUP: 3
77 -1 657 -1 #SUP: 3
77 -1 704 -1 #SUP: 2
77 -1 765 -1 #SUP: 2
77 -1 789 -1 #SUP: 2
77 -1 871 -1 #SUP: 2
77 -1 1190 -1 #SUP: 2
77 -1 1211 -1 #SUP: 2
77 -1 1310 -1 #SUP: 2
77 -1 1745 -1 #SUP: 2
77 -1 1898 -1 #SUP: 2
77 -1 2280 -1 #SUP: 2
77 -1 2307 -1 #SUP: 2
77 -1 3714 -1 #SUP: 2
77 -1 4313 -1 #SUP: 2
77 -1 8963 -1 #SUP: 2
77 -1 43432 -1 #SUP: 2
78 -1 22 -1 #SUP: 2
78 -1 78 -1 #SUP: 2
78 -1 193 -1 #SUP: 3
117 -1 22 -1 #SUP: 3
117 -1 77 -1 #SUP: 2
123 -1 2 -1 #SUP: 12
123 -1 10 -1 #SUP: 5
123 -1 15 -1 #SUP: 2
123 -1 22 -1 #SUP: 14
123 -1 31 -1 #SUP: 2
123 -1 32 -1 #SUP: 5
123 -1 41 -1 #SUP: 2
123 -1 50 -1 #SUP: 6
123 -1 64 -1 #SUP: 11
123 -1 65 -1 #SUP: 12
123 -1 67 -1 #SUP: 3
123 -1 77 -1 #SUP: 22
123 -1 117 -1 #SUP: 3
123 -1 120 -1 #SUP: 3
123 -1 123 -1 #SUP: 11
123 -1 154 -1 #SUP: 10
123 -1 158 -1 #SUP: 3
123 -1 159 -1 #SUP: 2
123 -1 164 -1 #SUP: 4
123 -1 165 -1 #SUP: 3
123 -1 170 -1 #SUP: 7
123 -1 171 -1 #SUP: 2
123 -1 174 -1 #SUP: 4
123 -1 183 -1 #SUP: 2
123 -1 193 -1 #SUP: 2
123 -1 198 -1 #SUP: 2
123 -1 205 -1 #SUP: 2
123 -1 206 -1 #SUP: 8
123 -1 210 -1 #SUP: 3
123 -1 212 -1 #SUP: 2
123 -1 213 -1 #SUP: 2
123 -1 222 -1 #SUP: 3
123 -1 223 -1 #SUP: 2
123 -1 224 -1 #SUP: 2
123 -1 256 -1 #SUP: 2
123 -1 260 -1 #SUP: 3
123 -1 262 -1 #SUP: 3
123 -1 285 -1 #SUP: 2
123 -1 286 -1 #SUP: 6
123 -1 291 -1 #SUP: 4
123 -1 322 -1 #SUP: 2
123 -1 340 -1 #SUP: 3
123 -1 364 -1 #SUP: 2
123 -1 392 -1 #SUP: 2
123 -1 407 -1 #SUP: 3
123 -1 431 -1 #SUP: 2
123 -1 441 -1 #SUP: 2
123 -1 519 -1 #SUP: 2
123 -1 520 -1 #SUP: 3
123 -1 596 -1 #SUP: 2
123 -1 599 -1 #SUP: 4
123 -1 652 -1 #SUP: 4
123 -1 716 -1 #SUP: 2
123 -1 765 -1 #SUP: 3
123 -1 789 -1 #SUP: 3
123 -1 965 -1 #SUP: 2
123 -1 1193 -1 #SUP: 2
123 -1 1235 -1 #SUP: 2
123 -1 1310 -1 #SUP: 2
123 -1 1478 -1 #SUP: 2
123 -1 1807 -1 #SUP: 2
123 -1 1898 -1 #SUP: 2
123 -1 1953 -1 #SUP: 2
123 -1 2059 -1 #SUP: 2
123 -1 2280 -1 #SUP: 2
123 -1 3569 -1 #SUP: 2
127 -1 193 -1 #SUP: 2
138 -1 2 -1 #SUP: 2
138 -1 77 -1 #SUP: 2
138 -1 123 -1 #SUP: 3
140 -1 65 -1 #SUP: 2
140 -1 77 -1 #SUP: 2
141 -1 146 -1 #SUP: 2
144 -1 77 -1 #SUP: 2
146 -1 10 -1 #SUP: 2
150 -1 64 -1 #SUP: 2
151 -1 153 -1 #SUP: 2
152 -1 41 -1 #SUP: 2
154 -1 2 -1 #SUP: 2
154 -1 10 -1 #SUP: 2
154 -1 22 -1 #SUP: 4
154 -1 32 -1 #SUP: 5
154 -1 50 -1 #SUP: 3
154 -1 64 -1 #SUP: 3
154 -1 65 -1 #SUP: 4
154 -1 67 -1 #SUP: 2
154 -1 77 -1 #SUP: 8
154 -1 123 -1 #SUP: 5
154 -1 154 -1 #SUP: 5
154 -1 164 -1 #SUP: 2
154 -1 165 -1 #SUP: 3
154 -1 170 -1 #SUP: 6
154 -1 183 -1 #SUP: 2
154 -1 206 -1 #SUP: 2
154 -1 260 -1 #SUP: 2
154 -1 262 -1 #SUP: 2
154 -1 384 -1 #SUP: 2
154 -1 599 -1 #SUP: 2
154 -1 765 -1 #SUP: 2
158 -1 50 -1 #SUP: 2
158 -1 77 -1 #SUP: 3
162 -1 123 -1 #SUP: 2
162 -1 206 -1 #SUP: 2
164 -1 22 -1 #SUP: 2
164 -1 32 -1 #SUP: 3
164 -1 64 -1 #SUP: 2
164 -1 65 -1 #SUP: 2
164 -1 67 -1 #SUP: 2
164 -1 77 -1 #SUP: 6
164 -1 152 -1 #SUP: 2
164 -1 193 -1 #SUP: 2
164 -1 381 -1 #SUP: 2
164 -1 596 -1 #SUP: 2
164 -1 599 -1 #SUP: 3
165 -1 22 -1 #SUP: 2
165 -1 67 -1 #SUP: 3
165 -1 77 -1 #SUP: 5
165 -1 123 -1 #SUP: 2
165 -1 193 -1 #SUP: 2
167 -1 349 -1 #SUP: 2
167 -1 517 -1 #SUP: 2
167 -1 1263 -1 #SUP: 2
167 -1 1716 -1 #SUP: 2
170 -1 2 -1 #SUP: 5
170 -1 22 -1 #SUP: 4
170 -1 31 -1 #SUP: 3
170 -1 32 -1 #SUP: 3
170 -1 50 -1 #SUP: 3
170 -1 64 -1 #SUP: 3
170 -1 65 -1 #SUP: 6
170 -1 76 -1 #SUP: 2
170 -1 77 -1 #SUP: 9
170 -1 123 -1 #SUP: 4
170 -1 154 -1 #SUP: 5
170 -1 156 -1 #SUP: 2
170 -1 158 -1 #SUP: 2
170 -1 193 -1 #SUP: 3
170 -1 222 -1 #SUP: 2
170 -1 381 -1 #SUP: 2
170 -1 599 -1 #SUP: 2
171 -1 32 -1 #SUP: 2
171 -1 64 -1 #SUP: 2
171 -1 76 -1 #SUP: 2
171 -1 170 -1 #SUP: 2
171 -1 171 -1 #SUP: 2
174 -1 77 -1 #SUP: 4
174 -1 599 -1 #SUP: 2
183 -1 15 -1 #SUP: 3
183 -1 22 -1 #SUP: 2
183 -1 32 -1 #SUP: 2
183 -1 11100 -1 #SUP: 2
193 -1 22 -1 #SUP: 4
193 -1 41 -1 #SUP: 2
193 -1 50 -1 #SUP: 2
193 -1 64 -1 #SUP: 2
193 -1 76 -1 #SUP: 2
193 -1 77 -1 #SUP: 4
193 -1 78 -1 #SUP: 2
193 -1 170 -1 #SUP: 3
193 -1 193 -1 #SUP: 3
193 -1 260 -1 #SUP: 2
198 -1 22 -1 #SUP: 2
200 -1 77 -1 #SUP: 2
201 -1 170 -1 #SUP: 3
205 -1 154 -1 #SUP: 2
206 -1 2 -1 #SUP: 2
206 -1 22 -1 #SUP: 2
206 -1 50 -1 #SUP: 4
206 -1 65 -1 #SUP: 4
206 -1 77 -1 #SUP: 6
206 -1 123 -1 #SUP: 3
206 -1 154 -1 #SUP: 3
206 -1 158 -1 #SUP: 2
206 -1 206 -1 #SUP: 3
206 -1 224 -1 #SUP: 2
206 -1 520 -1 #SUP: 2
206 -1 652 -1 #SUP: 2
210 -1 64 -1 #SUP: 2
210 -1 765 -1 #SUP: 2
212 -1 123 -1 #SUP: 2
213 -1 41 -1 #SUP: 2
213 -1 77 -1 #SUP: 2
213 -1 716 -1 #SUP: 2
220 -1 22 -1 #SUP: 3
220 -1 67 -1 #SUP: 2
222 -1 22 -1 #SUP: 2
222 -1 64 -1 #SUP: 2
223 -1 77 -1 #SUP: 2
224 -1 123 -1 #SUP: 2
236 -1 31 -1 #SUP: 2
236 -1 193 -1 #SUP: 2
241 -1 123 -1 #SUP: 2
250 -1 30 -1 #SUP: 2
250 -1 65 -1 #SUP: 2
250 -1 206 -1 #SUP: 2
250 -1 886 -1 #SUP: 2
254 -1 2 -1 #SUP: 2
254 -1 22 -1 #SUP: 4
254 -1 65 -1 #SUP: 2
254 -1 77 -1 #SUP: 2
254 -1 123 -1 #SUP: 2
254 -1 170 -1 #SUP: 2
254 -1 193 -1 #SUP: 3
254 -1 441 -1 #SUP: 2
256 -1 2 -1 #SUP: 2
256 -1 65 -1 #SUP: 2
260 -1 22 -1 #SUP: 2
260 -1 77 -1 #SUP: 3
260 -1 154 -1 #SUP: 2
260 -1 164 -1 #SUP: 2
260 -1 170 -1 #SUP: 2
260 -1 384 -1 #SUP: 2
260 -1 596 -1 #SUP: 2
260 -1 599 -1 #SUP: 2
262 -1 7 -1 #SUP: 2
262 -1 31 -1 #SUP: 2
262 -1 32 -1 #SUP: 2
262 -1 64 -1 #SUP: 3
262 -1 65 -1 #SUP: 5
262 -1 77 -1 #SUP: 5
262 -1 123 -1 #SUP: 2
262 -1 193 -1 #SUP: 3
262 -1 599 -1 #SUP: 3
262 -1 1440 -1 #SUP: 2
285 -1 77 -1 #SUP: 2
285 -1 123 -1 #SUP: 2
286 -1 22 -1 #SUP: 3
286 -1 64 -1 #SUP: 2
286 -1 67 -1 #SUP: 2
286 -1 123 -1 #SUP: 3
286 -1 154 -1 #SUP: 4
286 -1 165 -1 #SUP: 2
286 -1 170 -1 #SUP: 2
291 -1 2 -1 #SUP: 2
291 -1 77 -1 #SUP: 2
291 -1 123 -1 #SUP: 3
300 -1 65 -1 #SUP: 2
300 -1 77 -1 #SUP: 2
300 -1 123 -1 #SUP: 2
322 -1 77 -1 #SUP: 2
322 -1 285 -1 #SUP: 2
326 -1 41 -1 #SUP: 2
326 -1 65 -1 #SUP: 2
326 -1 8963 -1 #SUP: 2
349 -1 22 -1 #SUP: 2
349 -1 65 -1 #SUP: 2
349 -1 517 -1 #SUP: 2
349 -1 1263 -1 #SUP: 2
349 -1 1716 -1 #SUP: 2
356 -1 2 -1 #SUP: 2
356 -1 123 -1 #SUP: 2
364 -1 22 -1 #SUP: 2
364 -1 77 -1 #SUP: 3
364 -1 123 -1 #SUP: 2
364 -1 154 -1 #SUP: 3
364 -1 599 -1 #SUP: 2
381 -1 41 -1 #SUP: 2
381 -1 64 -1 #SUP: 2
381 -1 193 -1 #SUP: 2
381 -1 326 -1 #SUP: 3
381 -1 8963 -1 #SUP: 2
384 -1 22 -1 #SUP: 2
384 -1 77 -1 #SUP: 3
384 -1 123 -1 #SUP: 2
384 -1 599 -1 #SUP: 3
392 -1 22 -1 #SUP: 2
395 -1 2 -1 #SUP: 2
395 -1 77 -1 #SUP: 3
395 -1 193 -1 #SUP: 2
407 -1 2 -1 #SUP: 2
407 -1 22 -1 #SUP: 2
407 -1 77 -1 #SUP: 2
407 -1 392 -1 #SUP: 2
441 -1 77 -1 #SUP: 4
441 -1 123 -1 #SUP: 2
441 -1 384 -1 #SUP: 2
441 -1 599 -1 #SUP: 2
491 -1 394 -1 #SUP: 3
499 -1 2 -1 #SUP: 2
499 -1 64 -1 #SUP: 2
517 -1 1263 -1 #SUP: 2
517 -1 1716 -1 #SUP: 2
519 -1 65 -1 #SUP: 2
519 -1 77 -1 #SUP: 3
519 -1 123 -1 #SUP: 2
520 -1 50 -1 #SUP: 2
520 -1 64 -1 #SUP: 3
520 -1 77 -1 #SUP: 4
520 -1 123 -1 #SUP: 3
520 -1 154 -1 #SUP: 2
520 -1 193 -1 #SUP: 2
566 -1 65 -1 #SUP: 2
571 -1 2 -1 #SUP: 2
596 -1 15 -1 #SUP: 2
596 -1 22 -1 #SUP: 2
596 -1 77 -1 #SUP: 2
596 -1 193 -1 #SUP: 2
596 -1 599 -1 #SUP: 2
599 -1 7 -1 #SUP: 2
599 -1 15 -1 #SUP: 2
599 -1 22 -1 #SUP: 6
599 -1 32 -1 #SUP: 3
599 -1 64 -1 #SUP: 4
599 -1 65 -1 #SUP: 3
599 -1 67 -1 #SUP: 3
599 -1 77 -1 #SUP: 2
599 -1 123 -1 #SUP: 5
599 -1 127 -1 #SUP: 2
599 -1 165 -1 #SUP: 2
599 -1 170 -1 #SUP: 2
599 -1 193 -1 #SUP: 4
599 -1 262 -1 #SUP: 2
599 -1 286 -1 #SUP: 2
599 -1 381 -1 #SUP: 2
599 -1 4313 -1 #SUP: 2
599 -1 43432 -1 #SUP: 2
638 -1 123 -1 #SUP: 2
652 -1 22 -1 #SUP: 2
652 -1 50 -1 #SUP: 2
652 -1 64 -1 #SUP: 2
652 -1 77 -1 #SUP: 5
652 -1 123 -1 #SUP: 2
652 -1 193 -1 #SUP: 2
652 -1 222 -1 #SUP: 2
652 -1 599 -1 #SUP: 2
657 -1 170 -1 #SUP: 2
701 -1 64 -1 #SUP: 2
765 -1 64 -1 #SUP: 2
886 -1 167 -1 #SUP: 2
886 -1 349 -1 #SUP: 2
886 -1 517 -1 #SUP: 2
886 -1 1263 -1 #SUP: 2
886 -1 1716 -1 #SUP: 2
960 -1 77 -1 #SUP: 2
965 -1 22 -1 #SUP: 2
1148 -1 8963 -1 #SUP: 2
1211 -1 164 -1 #SUP: 2
1211 -1 193 -1 #SUP: 2
1310 -1 77 -1 #SUP: 2
1310 -1 123 -1 #SUP: 2
1440 -1 64 -1 #SUP: 2
1478 -1 2 -1 #SUP: 3
1478 -1 65 -1 #SUP: 2
1478 -1 77 -1 #SUP: 2
1478 -1 123 -1 #SUP: 2
1478 -1 291 -1 #SUP: 2
1716 -1 1263 -1 #SUP: 2
1758 -1 356 -1 #SUP: 2
1898 -1 77 -1 #SUP: 2
1898 -1 164 -1 #SUP: 2
1899 -1 77 -1 #SUP: 2
1899 -1 164 -1 #SUP: 2
1899 -1 1898 -1 #SUP: 2
1940 -1 31 -1 #SUP: 2
1940 -1 77 -1 #SUP: 2
1953 -1 1898 -1 #SUP: 2
3569 -1 2059 -1 #SUP: 2
4313 -1 127 -1 #SUP: 2
4313 -1 193 -1 #SUP: 2
7725 -1 33 -1 #SUP: 2
32098 -1 2 -1 #SUP: 2
32098 -1 4550 -1 #SUP: 2
43432 -1 127 -1 #SUP: 2
43432 -1 193 -1 #SUP: 2
43432 -1 4313 -1 #SUP: 2
56412 -1 64 -1 #SUP: 2
56412 -1 77 -1 #SUP: 2
2 -1 22 -1 32 -1 #SUP: 2
2 -1 22 -1 76 -1 #SUP: 2
2 -1 22 -1 77 -1 #SUP: 2
2 -1 65 -1 77 -1 #SUP: 2
2 -1 76 -1 77 -1 #SUP: 2
2 -1 77 -1 22 -1 #SUP: 2
2 -1 123 -1 22 -1 #SUP: 2
2 -1 154 -1 10 -1 #SUP: 2
7 -1 64 -1 77 -1 #SUP: 2
10 -1 77 -1 64 -1 #SUP: 2
10 -1 77 -1 77 -1 #SUP: 2
10 -1 77 -1 193 -1 #SUP: 2
10 -1 77 -1 260 -1 #SUP: 2
10 -1 960 -1 77 -1 #SUP: 2
15 -1 77 -1 254 -1 #SUP: 2
16 -1 64 -1 77 -1 #SUP: 2
16 -1 64 -1 596 -1 #SUP: 2
16 -1 64 -1 599 -1 #SUP: 2
16 -1 77 -1 599 -1 #SUP: 2
16 -1 326 -1 8963 -1 #SUP: 2
16 -1 381 -1 326 -1 #SUP: 2
16 -1 381 -1 8963 -1 #SUP: 2
16 -1 596 -1 77 -1 #SUP: 2
16 -1 596 -1 599 -1 #SUP: 2
22 -1 2 -1 22 -1 #SUP: 2
22 -1 2 -1 32 -1 #SUP: 2
22 -1 15 -1 22 -1 #SUP: 2
22 -1 15 -1 11100 -1 #SUP: 2
22 -1 22 -1 22 -1 #SUP: 2
22 -1 22 -1 64 -1 #SUP: 3
22 -1 22 -1 263 -1 #SUP: 2
22 -1 31 -1 77 -1 #SUP: 3
22 -1 31 -1 657 -1 #SUP: 2
22 -1 32 -1 64 -1 #SUP: 2
22 -1 32 -1 65 -1 #SUP: 2
22 -1 32 -1 170 -1 #SUP: 2
22 -1 33 -1 22 -1 #SUP: 2
22 -1 33 -1 77 -1 #SUP: 2
22 -1 50 -1 2 -1 #SUP: 2
22 -1 64 -1 32 -1 #SUP: 3
22 -1 64 -1 64 -1 #SUP: 2
22 -1 64 -1 154 -1 #SUP: 2
22 -1 64 -1 170 -1 #SUP: 2
22 -1 65 -1 65 -1 #SUP: 3
22 -1 65 -1 77 -1 #SUP: 3
22 -1 65 -1 170 -1 #SUP: 2
22 -1 67 -1 170 -1 #SUP: 2
22 -1 76 -1 77 -1 #SUP: 2
22 -1 77 -1 2 -1 #SUP: 3
22 -1 77 -1 22 -1 #SUP: 3
22 -1 77 -1 50 -1 #SUP: 3
22 -1 77 -1 65 -1 #SUP: 2
22 -1 77 -1 77 -1 #SUP: 2
22 -1 77 -1 123 -1 #SUP: 3
22 -1 77 -1 170 -1 #SUP: 2
22 -1 77 -1 254 -1 #SUP: 2
22 -1 77 -1 599 -1 #SUP: 2
22 -1 123 -1 2 -1 #SUP: 2
22 -1 123 -1 22 -1 #SUP: 2
22 -1 123 -1 50 -1 #SUP: 2
22 -1 123 -1 77 -1 #SUP: 3
22 -1 123 -1 123 -1 #SUP: 2
22 -1 123 -1 154 -1 #SUP: 2
22 -1 123 -1 286 -1 #SUP: 2
22 -1 154 -1 64 -1 #SUP: 2
22 -1 154 -1 170 -1 #SUP: 2
22 -1 170 -1 64 -1 #SUP: 2
22 -1 170 -1 65 -1 #SUP: 2
22 -1 170 -1 154 -1 #SUP: 3
31 -1 2 -1 22 -1 #SUP: 2
31 -1 2 -1 123 -1 #SUP: 2
31 -1 2 -1 1310 -1 #SUP: 2
31 -1 65 -1 77 -1 #SUP: 3
31 -1 65 -1 123 -1 #SUP: 2
31 -1 65 -1 286 -1 #SUP: 2
31 -1 77 -1 2 -1 #SUP: 3
31 -1 77 -1 22 -1 #SUP: 2
31 -1 77 -1 123 -1 #SUP: 2
31 -1 77 -1 285 -1 #SUP: 2
31 -1 77 -1 286 -1 #SUP: 2
31 -1 77 -1 322 -1 #SUP: 2
31 -1 77 -1 1310 -1 #SUP: 2
31 -1 123 -1 77 -1 #SUP: 2
31 -1 123 -1 286 -1 #SUP: 2
31 -1 322 -1 285 -1 #SUP: 2
32 -1 22 -1 64 -1 #SUP: 3
32 -1 22 -1 170 -1 #SUP: 2
32 -1 30 -1 67 -1 #SUP: 2
32 -1 64 -1 32 -1 #SUP: 2
32 -1 64 -1 65 -1 #SUP: 2
32 -1 64 -1 67 -1 #SUP: 2
32 -1 64 -1 77 -1 #SUP: 3
32 -1 64 -1 599 -1 #SUP: 2
32 -1 65 -1 32 -1 #SUP: 2
32 -1 65 -1 65 -1 #SUP: 2
32 -1 65 -1 67 -1 #SUP: 2
32 -1 65 -1 170 -1 #SUP: 2
32 -1 65 -1 394 -1 #SUP: 2
32 -1 65 -1 491 -1 #SUP: 2
32 -1 67 -1 77 -1 #SUP: 2
32 -1 67 -1 193 -1 #SUP: 2
32 -1 77 -1 32 -1 #SUP: 2
32 -1 77 -1 64 -1 #SUP: 2
32 -1 77 -1 65 -1 #SUP: 2
32 -1 77 -1 77 -1 #SUP: 2
32 -1 77 -1 170 -1 #SUP: 2
32 -1 77 -1 254 -1 #SUP: 2
32 -1 77 -1 599 -1 #SUP: 3
32 -1 123 -1 22 -1 #SUP: 2
32 -1 123 -1 64 -1 #SUP: 2
32 -1 123 -1 170 -1 #SUP: 2
32 -1 165 -1 67 -1 #SUP: 2
32 -1 165 -1 193 -1 #SUP: 2
32 -1 170 -1 64 -1 #SUP: 2
32 -1 170 -1 65 -1 #SUP: 2
32 -1 491 -1 394 -1 #SUP: 2
50 -1 2 -1 65 -1 #SUP: 2
50 -1 2 -1 123 -1 #SUP: 3
50 -1 50 -1 2 -1 #SUP: 2
50 -1 50 -1 65 -1 #SUP: 2
50 -1 50 -1 77 -1 #SUP: 2
50 -1 50 -1 123 -1 #SUP: 2
50 -1 50 -1 1898 -1 #SUP: 2
50 -1 50 -1 1953 -1 #SUP: 2
50 -1 64 -1 22 -1 #SUP: 2
50 -1 64 -1 77 -1 #SUP: 2
50 -1 64 -1 123 -1 #SUP: 2
50 -1 77 -1 2 -1 #SUP: 4
50 -1 77 -1 50 -1 #SUP: 2
50 -1 77 -1 65 -1 #SUP: 3
50 -1 77 -1 123 -1 #SUP: 3
50 -1 123 -1 50 -1 #SUP: 2
50 -1 123 -1 65 -1 #SUP: 2
50 -1 123 -1 77 -1 #SUP: 2
50 -1 170 -1 123 -1 #SUP: 2
50 -1 206 -1 50 -1 #SUP: 2
50 -1 1953 -1 1898 -1 #SUP: 2
64 -1 2 -1 193 -1 #SUP: 2
64 -1 22 -1 77 -1 #SUP: 3
64 -1 22 -1 123 -1 #SUP: 2
64 -1 22 -1 1610 -1 #SUP: 2
64 -1 64 -1 67 -1 #SUP: 2
64 -1 67 -1 22 -1 #SUP: 3
64 -1 67 -1 77 -1 #SUP: 3
64 -1 67 -1 326 -1 #SUP: 2
64 -1 67 -1 364 -1 #SUP: 2
64 -1 67 -1 381 -1 #SUP: 2
64 -1 77 -1 2 -1 #SUP: 2
64 -1 77 -1 22 -1 #SUP: 4
64 -1 77 -1 65 -1 #SUP: 2
64 -1 77 -1 67 -1 #SUP: 2
64 -1 77 -1 77 -1 #SUP: 3
64 -1 77 -1 78 -1 #SUP: 2
64 -1 77 -1 123 -1 #SUP: 2
64 -1 77 -1 193 -1 #SUP: 3
64 -1 77 -1 220 -1 #SUP: 2
64 -1 77 -1 254 -1 #SUP: 2
64 -1 77 -1 599 -1 #SUP: 3
64 -1 78 -1 78 -1 #SUP: 2
64 -1 123 -1 22 -1 #SUP: 2
64 -1 123 -1 77 -1 #SUP: 2
64 -1 164 -1 77 -1 #SUP: 3
64 -1 596 -1 77 -1 #SUP: 2
64 -1 596 -1 599 -1 #SUP: 2
64 -1 599 -1 67 -1 #SUP: 2
65 -1 16 -1 326 -1 #SUP: 2
65 -1 16 -1 381 -1 #SUP: 2
65 -1 32 -1 30 -1 #SUP: 2
65 -1 32 -1 65 -1 #SUP: 2
65 -1 32 -1 67 -1 #SUP: 2
65 -1 67 -1 77 -1 #SUP: 2
65 -1 67 -1 152 -1 #SUP: 2
65 -1 67 -1 193 -1 #SUP: 2
65 -1 77 -1 2 -1 #SUP: 4
65 -1 77 -1 22 -1 #SUP: 3
65 -1 77 -1 32 -1 #SUP: 2
65 -1 77 -1 65 -1 #SUP: 4
65 -1 77 -1 77 -1 #SUP: 2
65 -1 77 -1 123 -1 #SUP: 4
65 -1 77 -1 154 -1 #SUP: 2
65 -1 77 -1 158 -1 #SUP: 2
65 -1 77 -1 193 -1 #SUP: 3
65 -1 77 -1 206 -1 #SUP: 2
65 -1 77 -1 286 -1 #SUP: 2
65 -1 77 -1 326 -1 #SUP: 2
65 -1 77 -1 381 -1 #SUP: 2
65 -1 77 -1 599 -1 #SUP: 4
65 -1 77 -1 1745 -1 #SUP: 2
65 -1 117 -1 77 -1 #SUP: 2
65 -1 123 -1 32 -1 #SUP: 2
65 -1 123 -1 77 -1 #SUP: 4
65 -1 123 -1 154 -1 #SUP: 2
65 -1 123 -1 158 -1 #SUP: 2
65 -1 123 -1 286 -1 #SUP: 2
65 -1 154 -1 32 -1 #SUP: 3
65 -1 154 -1 65 -1 #SUP: 2
65 -1 154 -1 77 -1 #SUP: 2
65 -1 154 -1 154 -1 #SUP: 2
65 -1 165 -1 77 -1 #SUP: 2
65 -1 165 -1 193 -1 #SUP: 2
65 -1 170 -1 65 -1 #SUP: 2
65 -1 193 -1 77 -1 #SUP: 2
65 -1 206 -1 77 -1 #SUP: 2
65 -1 206 -1 520 -1 #SUP: 2
65 -1 220 -1 67 -1 #SUP: 2
65 -1 381 -1 326 -1 #SUP: 2
65 -1 491 -1 394 -1 #SUP: 3
65 -1 599 -1 123 -1 #SUP: 2
65 -1 652 -1 77 -1 #SUP: 2
67 -1 22 -1 31 -1 #SUP: 2
67 -1 22 -1 77 -1 #SUP: 2
67 -1 65 -1 77 -1 #SUP: 2
67 -1 77 -1 22 -1 #SUP: 2
67 -1 77 -1 65 -1 #SUP: 2
67 -1 77 -1 77 -1 #SUP: 2
67 -1 77 -1 123 -1 #SUP: 2
67 -1 77 -1 193 -1 #SUP: 2
67 -1 77 -1 254 -1 #SUP: 2
67 -1 193 -1 22 -1 #SUP: 2
67 -1 254 -1 193 -1 #SUP: 2
76 -1 65 -1 77 -1 #SUP: 2
76 -1 77 -1 65 -1 #SUP: 2
77 -1 2 -1 10 -1 #SUP: 2
77 -1 2 -1 22 -1 #SUP: 3
77 -1 2 -1 32 -1 #SUP: 2
77 -1 2 -1 50 -1 #SUP: 2
77 -1 2 -1 64 -1 #SUP: 2
77 -1 2 -1 65 -1 #SUP: 4
77 -1 2 -1 123 -1 #SUP: 4
77 -1 2 -1 154 -1 #SUP: 3
77 -1 2 -1 193 -1 #SUP: 2
77 -1 2 -1 291 -1 #SUP: 2
77 -1 2 -1 1310 -1 #SUP: 2
77 -1 10 -1 65 -1 #SUP: 2
77 -1 22 -1 15 -1 #SUP: 2
77 -1 22 -1 32 -1 #SUP: 6
77 -1 22 -1 64 -1 #SUP: 4
77 -1 22 -1 65 -1 #SUP: 3
77 -1 22 -1 77 -1 #SUP: 3
77 -1 22 -1 170 -1 #SUP: 2
77 -1 22 -1 171 -1 #SUP: 2
77 -1 22 -1 2307 -1 #SUP: 2
77 -1 31 -1 123 -1 #SUP: 2
77 -1 32 -1 22 -1 #SUP: 2
77 -1 32 -1 64 -1 #SUP: 2
77 -1 32 -1 65 -1 #SUP: 2
77 -1 32 -1 67 -1 #SUP: 2
77 -1 32 -1 77 -1 #SUP: 2
77 -1 50 -1 2 -1 #SUP: 2
77 -1 50 -1 22 -1 #SUP: 2
77 -1 50 -1 64 -1 #SUP: 2
77 -1 50 -1 123 -1 #SUP: 2
77 -1 64 -1 22 -1 #SUP: 3
77 -1 64 -1 32 -1 #SUP: 2
77 -1 64 -1 77 -1 #SUP: 3
77 -1 64 -1 164 -1 #SUP: 2
77 -1 64 -1 193 -1 #SUP: 2
77 -1 65 -1 22 -1 #SUP: 2
77 -1 65 -1 32 -1 #SUP: 2
77 -1 65 -1 67 -1 #SUP: 3
77 -1 65 -1 77 -1 #SUP: 3
77 -1 65 -1 154 -1 #SUP: 2
77 -1 65 -1 206 -1 #SUP: 2
77 -1 65 -1 220 -1 #SUP: 2
77 -1 67 -1 22 -1 #SUP: 2
77 -1 77 -1 2 -1 #SUP: 6
77 -1 77 -1 10 -1 #SUP: 2
77 -1 77 -1 22 -1 #SUP: 5
77 -1 77 -1 41 -1 #SUP: 2
77 -1 77 -1 50 -1 #SUP: 2
77 -1 77 -1 64 -1 #SUP: 2
77 -1 77 -1 77 -1 #SUP: 4
77 -1 77 -1 123 -1 #SUP: 3
77 -1 77 -1 171 -1 #SUP: 2
77 -1 77 -1 222 -1 #SUP: 2
77 -1 77 -1 520 -1 #SUP: 2
77 -1 77 -1 599 -1 #SUP: 2
77 -1 77 -1 704 -1 #SUP: 2
77 -1 78 -1 78 -1 #SUP: 2
77 -1 117 -1 22 -1 #SUP: 2
77 -1 123 -1 2 -1 #SUP: 4
77 -1 123 -1 22 -1 #SUP: 4
77 -1 123 -1 32 -1 #SUP: 3
77 -1 123 -1 50 -1 #SUP: 3
77 -1 123 -1 64 -1 #SUP: 5
77 -1 123 -1 65 -1 #SUP: 6
77 -1 123 -1 77 -1 #SUP: 4
77 -1 123 -1 123 -1 #SUP: 3
77 -1 123 -1 154 -1 #SUP: 4
77 -1 123 -1 158 -1 #SUP: 2
77 -1 123 -1 165 -1 #SUP: 2
77 -1 123 -1 171 -1 #SUP: 2
77 -1 123 -1 206 -1 #SUP: 3
77 -1 123 -1 260 -1 #SUP: 2
77 -1 123 -1 286 -1 #SUP: 3
77 -1 123 -1 765 -1 #SUP: 2
77 -1 123 -1 789 -1 #SUP: 2
77 -1 127 -1 193 -1 #SUP: 2
77 -1 154 -1 32 -1 #SUP: 2
77 -1 154 -1 50 -1 #SUP: 2
77 -1 154 -1 65 -1 #SUP: 3
77 -1 154 -1 123 -1 #SUP: 2
77 -1 154 -1 165 -1 #SUP: 2
77 -1 164 -1 77 -1 #SUP: 2
77 -1 164 -1 193 -1 #SUP: 2
77 -1 170 -1 22 -1 #SUP: 2
77 -1 170 -1 64 -1 #SUP: 2
77 -1 170 -1 65 -1 #SUP: 2
77 -1 171 -1 64 -1 #SUP: 2
77 -1 193 -1 22 -1 #SUP: 3
77 -1 193 -1 77 -1 #SUP: 2
77 -1 193 -1 193 -1 #SUP: 2
77 -1 193 -1 260 -1 #SUP: 2
77 -1 206 -1 65 -1 #SUP: 2
77 -1 220 -1 67 -1 #SUP: 2
77 -1 254 -1 2 -1 #SUP: 2
77 -1 254 -1 22 -1 #SUP: 4
77 -1 254 -1 65 -1 #SUP: 2
77 -1 254 -1 77 -1 #SUP: 2
77 -1 254 -1 170 -1 #SUP: 2
77 -1 254 -1 193 -1 #SUP: 3
77 -1 254 -1 441 -1 #SUP: 2
77 -1 286 -1 154 -1 #SUP: 2
77 -1 286 -1 165 -1 #SUP: 2
77 -1 322 -1 285 -1 #SUP: 2
77 -1 326 -1 8963 -1 #SUP: 2
77 -1 364 -1 77 -1 #SUP: 2
77 -1 381 -1 193 -1 #SUP: 2
77 -1 381 -1 326 -1 #SUP: 2
77 -1 381 -1 8963 -1 #SUP: 2
77 -1 441 -1 77 -1 #SUP: 2
77 -1 520 -1 64 -1 #SUP: 2
77 -1 599 -1 15 -1 #SUP: 2
77 -1 599 -1 22 -1 #SUP: 5
77 -1 599 -1 32 -1 #SUP: 3
77 -1 599 -1 64 -1 #SUP: 3
77 -1 599 -1 65 -1 #SUP: 3
77 -1 599 -1 67 -1 #SUP: 3
77 -1 599 -1 123 -1 #SUP: 4
77 -1 599 -1 127 -1 #SUP: 2
77 -1 599 -1 170 -1 #SUP: 2
77 -1 599 -1 193 -1 #SUP: 4
77 -1 599 -1 286 -1 #SUP: 2
77 -1 599 -1 381 -1 #SUP: 2
77 -1 599 -1 4313 -1 #SUP: 2
77 -1 599 -1 43432 -1 #SUP: 2
77 -1 638 -1 123 -1 #SUP: 2
77 -1 652 -1 64 -1 #SUP: 2
77 -1 652 -1 77 -1 #SUP: 2
77 -1 657 -1 170 -1 #SUP: 2
77 -1 1211 -1 164 -1 #SUP: 2
77 -1 1211 -1 193 -1 #SUP: 2
77 -1 1898 -1 164 -1 #SUP: 2
77 -1 4313 -1 127 -1 #SUP: 2
77 -1 4313 -1 193 -1 #SUP: 2
77 -1 43432 -1 127 -1 #SUP: 2
77 -1 43432 -1 193 -1 #SUP: 2
77 -1 43432 -1 4313 -1 #SUP: 2
78 -1 78 -1 193 -1 #SUP: 2
123 -1 2 -1 32 -1 #SUP: 2
123 -1 2 -1 50 -1 #SUP: 2
123 -1 2 -1 65 -1 #SUP: 2
123 -1 2 -1 123 -1 #SUP: 3
123 -1 2 -1 154 -1 #SUP: 2
123 -1 2 -1 1193 -1 #SUP: 2
123 -1 10 -1 77 -1 #SUP: 2
123 -1 22 -1 2 -1 #SUP: 4
123 -1 22 -1 32 -1 #SUP: 3
123 -1 22 -1 64 -1 #SUP: 4
123 -1 22 -1 67 -1 #SUP: 2
123 -1 22 -1 77 -1 #SUP: 3
123 -1 22 -1 154 -1 #SUP: 2
123 -1 22 -1 170 -1 #SUP: 4
123 -1 22 -1 171 -1 #SUP: 2
123 -1 50 -1 2 -1 #SUP: 2
123 -1 50 -1 22 -1 #SUP: 2
123 -1 50 -1 50 -1 #SUP: 2
123 -1 50 -1 77 -1 #SUP: 3
123 -1 50 -1 123 -1 #SUP: 2
123 -1 50 -1 1898 -1 #SUP: 2
123 -1 50 -1 1953 -1 #SUP: 2
123 -1 64 -1 22 -1 #SUP: 2
123 -1 64 -1 77 -1 #SUP: 2
123 -1 64 -1 170 -1 #SUP: 2
123 -1 65 -1 2 -1 #SUP: 2
123 -1 65 -1 77 -1 #SUP: 6
123 -1 65 -1 123 -1 #SUP: 5
123 -1 65 -1 154 -1 #SUP: 3
123 -1 65 -1 206 -1 #SUP: 2
123 -1 65 -1 286 -1 #SUP: 2
123 -1 65 -1 599 -1 #SUP: 2
123 -1 67 -1 154 -1 #SUP: 2
123 -1 77 -1 2 -1 #SUP: 7
123 -1 77 -1 22 -1 #SUP: 7
123 -1 77 -1 32 -1 #SUP: 3
123 -1 77 -1 50 -1 #SUP: 3
123 -1 77 -1 64 -1 #SUP: 5
123 -1 77 -1 77 -1 #SUP: 6
123 -1 77 -1 123 -1 #SUP: 8
123 -1 77 -1 154 -1 #SUP: 3
123 -1 77 -1 164 -1 #SUP: 2
123 -1 77 -1 222 -1 #SUP: 2
123 -1 77 -1 286 -1 #SUP: 3
123 -1 77 -1 520 -1 #SUP: 3
123 -1 77 -1 599 -1 #SUP: 4
123 -1 77 -1 2280 -1 #SUP: 2
123 -1 117 -1 22 -1 #SUP: 2
123 -1 123 -1 2 -1 #SUP: 2
123 -1 123 -1 22 -1 #SUP: 2
123 -1 123 -1 77 -1 #SUP: 4
123 -1 123 -1 123 -1 #SUP: 3
123 -1 123 -1 154 -1 #SUP: 5
123 -1 123 -1 174 -1 #SUP: 2
123 -1 123 -1 286 -1 #SUP: 3
123 -1 123 -1 652 -1 #SUP: 2
123 -1 154 -1 22 -1 #SUP: 3
123 -1 154 -1 32 -1 #SUP: 2
123 -1 154 -1 64 -1 #SUP: 2
123 -1 154 -1 65 -1 #SUP: 2
123 -1 154 -1 67 -1 #SUP: 2
123 -1 154 -1 123 -1 #SUP: 2
123 -1 154 -1 154 -1 #SUP: 2
123 -1 154 -1 165 -1 #SUP: 3
123 -1 154 -1 170 -1 #SUP: 3
123 -1 154 -1 206 -1 #SUP: 2
123 -1 158 -1 50 -1 #SUP: 2
123 -1 164 -1 77 -1 #SUP: 2
123 -1 165 -1 67 -1 #SUP: 2
123 -1 170 -1 2 -1 #SUP: 2
123 -1 170 -1 64 -1 #SUP: 2
123 -1 170 -1 77 -1 #SUP: 2
123 -1 170 -1 154 -1 #SUP: 2
123 -1 174 -1 77 -1 #SUP: 4
123 -1 174 -1 599 -1 #SUP: 2
123 -1 183 -1 15 -1 #SUP: 2
123 -1 198 -1 22 -1 #SUP: 2
123 -1 205 -1 154 -1 #SUP: 2
123 -1 206 -1 2 -1 #SUP: 2
123 -1 206 -1 50 -1 #SUP: 2
123 -1 206 -1 65 -1 #SUP: 4
123 -1 206 -1 77 -1 #SUP: 5
123 -1 206 -1 123 -1 #SUP: 2
123 -1 206 -1 154 -1 #SUP: 2
123 -1 206 -1 158 -1 #SUP: 2
123 -1 206 -1 206 -1 #SUP: 3
123 -1 206 -1 652 -1 #SUP: 2
123 -1 210 -1 64 -1 #SUP: 2
123 -1 210 -1 765 -1 #SUP: 2
123 -1 213 -1 716 -1 #SUP: 2
123 -1 222 -1 64 -1 #SUP: 2
123 -1 224 -1 123 -1 #SUP: 2
123 -1 262 -1 31 -1 #SUP: 2
123 -1 262 -1 65 -1 #SUP: 2
123 -1 262 -1 77 -1 #SUP: 2
123 -1 262 -1 123 -1 #SUP: 2
123 -1 286 -1 22 -1 #SUP: 3
123 -1 286 -1 64 -1 #SUP: 2
123 -1 286 -1 67 -1 #SUP: 2
123 -1 286 -1 123 -1 #SUP: 3
123 -1 286 -1 154 -1 #SUP: 4
123 -1 286 -1 165 -1 #SUP: 2
123 -1 286 -1 170 -1 #SUP: 2
123 -1 291 -1 2 -1 #SUP: 2
123 -1 291 -1 77 -1 #SUP: 2
123 -1 291 -1 123 -1 #SUP: 3
123 -1 392 -1 22 -1 #SUP: 2
123 -1 407 -1 2 -1 #SUP: 2
123 -1 407 -1 22 -1 #SUP: 2
123 -1 407 -1 77 -1 #SUP: 2
123 -1 407 -1 392 -1 #SUP: 2
123 -1 599 -1 22 -1 #SUP: 2
123 -1 599 -1 123 -1 #SUP: 3
123 -1 652 -1 50 -1 #SUP: 2
123 -1 652 -1 77 -1 #SUP: 3
123 -1 652 -1 123 -1 #SUP: 2
123 -1 765 -1 64 -1 #SUP: 2
123 -1 965 -1 22 -1 #SUP: 2
123 -1 1478 -1 2 -1 #SUP: 2
123 -1 1478 -1 123 -1 #SUP: 2
123 -1 1478 -1 291 -1 #SUP: 2
123 -1 1953 -1 1898 -1 #SUP: 2
123 -1 3569 -1 2059 -1 #SUP: 2
138 -1 77 -1 2 -1 #SUP: 2
138 -1 77 -1 123 -1 #SUP: 2
138 -1 123 -1 123 -1 #SUP: 2
140 -1 77 -1 65 -1 #SUP: 2
154 -1 22 -1 77 -1 #SUP: 2
154 -1 22 -1 170 -1 #SUP: 2
154 -1 32 -1 65 -1 #SUP: 2
154 -1 32 -1 77 -1 #SUP: 2
154 -1 65 -1 77 -1 #SUP: 2
154 -1 77 -1 32 -1 #SUP: 3
154 -1 77 -1 123 -1 #SUP: 2
154 -1 77 -1 154 -1 #SUP: 2
154 -1 77 -1 599 -1 #SUP: 2
154 -1 123 -1 765 -1 #SUP: 2
154 -1 154 -1 77 -1 #SUP: 2
154 -1 154 -1 123 -1 #SUP: 2
154 -1 154 -1 154 -1 #SUP: 2
154 -1 164 -1 77 -1 #SUP: 2
154 -1 165 -1 77 -1 #SUP: 2
154 -1 170 -1 77 -1 #SUP: 2
154 -1 170 -1 154 -1 #SUP: 2
154 -1 206 -1 77 -1 #SUP: 2
154 -1 206 -1 154 -1 #SUP: 2
154 -1 262 -1 77 -1 #SUP: 2
154 -1 384 -1 77 -1 #SUP: 2
154 -1 384 -1 599 -1 #SUP: 2
162 -1 123 -1 206 -1 #SUP: 2
164 -1 64 -1 67 -1 #SUP: 2
164 -1 77 -1 22 -1 #SUP: 2
164 -1 77 -1 32 -1 #SUP: 2
164 -1 77 -1 381 -1 #SUP: 2
164 -1 77 -1 599 -1 #SUP: 3
164 -1 596 -1 77 -1 #SUP: 2
164 -1 596 -1 599 -1 #SUP: 2
164 -1 599 -1 22 -1 #SUP: 2
164 -1 599 -1 381 -1 #SUP: 2
165 -1 67 -1 77 -1 #SUP: 2
167 -1 349 -1 517 -1 #SUP: 2
167 -1 349 -1 1263 -1 #SUP: 2
167 -1 349 -1 1716 -1 #SUP: 2
167 -1 517 -1 1263 -1 #SUP: 2
167 -1 517 -1 1716 -1 #SUP: 2
167 -1 1716 -1 1263 -1 #SUP: 2
170 -1 2 -1 65 -1 #SUP: 2
170 -1 2 -1 154 -1 #SUP: 2
170 -1 22 -1 31 -1 #SUP: 2
170 -1 22 -1 77 -1 #SUP: 2
170 -1 65 -1 2 -1 #SUP: 3
170 -1 65 -1 77 -1 #SUP: 4
170 -1 65 -1 193 -1 #SUP: 2
170 -1 77 -1 2 -1 #SUP: 5
170 -1 77 -1 22 -1 #SUP: 2
170 -1 77 -1 65 -1 #SUP: 2
170 -1 77 -1 77 -1 #SUP: 2
170 -1 77 -1 123 -1 #SUP: 2
170 -1 77 -1 154 -1 #SUP: 2
170 -1 77 -1 156 -1 #SUP: 2
170 -1 77 -1 193 -1 #SUP: 2
170 -1 77 -1 599 -1 #SUP: 2
170 -1 123 -1 50 -1 #SUP: 2
170 -1 154 -1 65 -1 #SUP: 2
170 -1 154 -1 123 -1 #SUP: 2
170 -1 193 -1 22 -1 #SUP: 2
170 -1 599 -1 193 -1 #SUP: 2
174 -1 77 -1 599 -1 #SUP: 2
183 -1 15 -1 11100 -1 #SUP: 2
183 -1 22 -1 15 -1 #SUP: 2
183 -1 22 -1 11100 -1 #SUP: 2
193 -1 77 -1 41 -1 #SUP: 2
193 -1 77 -1 193 -1 #SUP: 2
206 -1 65 -1 77 -1 #SUP: 2
206 -1 65 -1 123 -1 #SUP: 2
206 -1 65 -1 154 -1 #SUP: 2
206 -1 65 -1 206 -1 #SUP: 2
206 -1 65 -1 520 -1 #SUP: 2
206 -1 77 -1 50 -1 #SUP: 2
206 -1 123 -1 77 -1 #SUP: 2
206 -1 123 -1 154 -1 #SUP: 2
206 -1 158 -1 50 -1 #SUP: 2
206 -1 206 -1 50 -1 #SUP: 2
206 -1 206 -1 158 -1 #SUP: 2
206 -1 206 -1 520 -1 #SUP: 2
206 -1 224 -1 123 -1 #SUP: 2
206 -1 520 -1 50 -1 #SUP: 2
206 -1 652 -1 77 -1 #SUP: 2
210 -1 765 -1 64 -1 #SUP: 2
213 -1 41 -1 77 -1 #SUP: 2
220 -1 67 -1 22 -1 #SUP: 2
222 -1 64 -1 22 -1 #SUP: 2
254 -1 170 -1 22 -1 #SUP: 2
254 -1 193 -1 22 -1 #SUP: 3
254 -1 441 -1 77 -1 #SUP: 2
260 -1 77 -1 599 -1 #SUP: 2
260 -1 154 -1 77 -1 #SUP: 2
260 -1 164 -1 77 -1 #SUP: 2
260 -1 384 -1 77 -1 #SUP: 2
260 -1 384 -1 599 -1 #SUP: 2
260 -1 596 -1 22 -1 #SUP: 2
262 -1 64 -1 77 -1 #SUP: 2
262 -1 64 -1 599 -1 #SUP: 2
262 -1 65 -1 32 -1 #SUP: 2
262 -1 65 -1 77 -1 #SUP: 3
262 -1 65 -1 123 -1 #SUP: 2
262 -1 77 -1 32 -1 #SUP: 2
262 -1 77 -1 599 -1 #SUP: 3
262 -1 1440 -1 64 -1 #SUP: 2
285 -1 123 -1 77 -1 #SUP: 2
286 -1 22 -1 64 -1 #SUP: 2
286 -1 22 -1 67 -1 #SUP: 2
286 -1 22 -1 170 -1 #SUP: 2
286 -1 154 -1 22 -1 #SUP: 2
286 -1 154 -1 64 -1 #SUP: 2
286 -1 154 -1 67 -1 #SUP: 2
286 -1 154 -1 165 -1 #SUP: 2
286 -1 154 -1 170 -1 #SUP: 2
291 -1 2 -1 123 -1 #SUP: 2
291 -1 77 -1 123 -1 #SUP: 2
291 -1 123 -1 123 -1 #SUP: 2
300 -1 65 -1 77 -1 #SUP: 2
300 -1 65 -1 123 -1 #SUP: 2
300 -1 123 -1 77 -1 #SUP: 2
349 -1 517 -1 1263 -1 #SUP: 2
349 -1 517 -1 1716 -1 #SUP: 2
349 -1 1716 -1 1263 -1 #SUP: 2
364 -1 154 -1 22 -1 #SUP: 2
364 -1 599 -1 123 -1 #SUP: 2
381 -1 326 -1 41 -1 #SUP: 2
381 -1 326 -1 8963 -1 #SUP: 2
384 -1 77 -1 22 -1 #SUP: 2
384 -1 77 -1 123 -1 #SUP: 2
384 -1 77 -1 599 -1 #SUP: 3
384 -1 599 -1 22 -1 #SUP: 2
384 -1 599 -1 123 -1 #SUP: 2
395 -1 77 -1 193 -1 #SUP: 2
407 -1 392 -1 22 -1 #SUP: 2
441 -1 77 -1 77 -1 #SUP: 2
441 -1 77 -1 123 -1 #SUP: 2
441 -1 77 -1 599 -1 #SUP: 2
441 -1 384 -1 77 -1 #SUP: 2
441 -1 384 -1 123 -1 #SUP: 2
441 -1 384 -1 599 -1 #SUP: 2
441 -1 599 -1 123 -1 #SUP: 2
499 -1 64 -1 2 -1 #SUP: 2
517 -1 1716 -1 1263 -1 #SUP: 2
519 -1 65 -1 77 -1 #SUP: 2
519 -1 123 -1 77 -1 #SUP: 2
520 -1 123 -1 77 -1 #SUP: 2
596 -1 22 -1 15 -1 #SUP: 2
596 -1 77 -1 599 -1 #SUP: 2
599 -1 22 -1 15 -1 #SUP: 2
599 -1 22 -1 32 -1 #SUP: 2
599 -1 22 -1 64 -1 #SUP: 2
599 -1 32 -1 67 -1 #SUP: 2
599 -1 32 -1 165 -1 #SUP: 2
599 -1 65 -1 67 -1 #SUP: 2
599 -1 65 -1 165 -1 #SUP: 2
599 -1 123 -1 22 -1 #SUP: 2
599 -1 123 -1 64 -1 #SUP: 2
599 -1 123 -1 65 -1 #SUP: 2
599 -1 127 -1 193 -1 #SUP: 2
599 -1 381 -1 193 -1 #SUP: 2
599 -1 4313 -1 127 -1 #SUP: 2
599 -1 4313 -1 193 -1 #SUP: 2
599 -1 43432 -1 127 -1 #SUP: 2
599 -1 43432 -1 193 -1 #SUP: 2
599 -1 43432 -1 4313 -1 #SUP: 2
652 -1 77 -1 193 -1 #SUP: 2
652 -1 77 -1 222 -1 #SUP: 2
652 -1 77 -1 599 -1 #SUP: 2
886 -1 167 -1 349 -1 #SUP: 2
886 -1 167 -1 517 -1 #SUP: 2
886 -1 167 -1 1263 -1 #SUP: 2
886 -1 167 -1 1716 -1 #SUP: 2
886 -1 349 -1 517 -1 #SUP: 2
886 -1 349 -1 1263 -1 #SUP: 2
886 -1 349 -1 1716 -1 #SUP: 2
886 -1 517 -1 1263 -1 #SUP: 2
886 -1 517 -1 1716 -1 #SUP: 2
886 -1 1716 -1 1263 -1 #SUP: 2
965 -1 22 -1 22 -1 #SUP: 2
1211 -1 164 -1 193 -1 #SUP: 2
1478 -1 2 -1 123 -1 #SUP: 2
1478 -1 65 -1 2 -1 #SUP: 2
1478 -1 65 -1 77 -1 #SUP: 2
1478 -1 77 -1 2 -1 #SUP: 2
1478 -1 291 -1 2 -1 #SUP: 2
1478 -1 291 -1 123 -1 #SUP: 2
1899 -1 77 -1 164 -1 #SUP: 2
1899 -1 77 -1 1898 -1 #SUP: 2
1899 -1 1898 -1 164 -1 #SUP: 2
1940 -1 31 -1 77 -1 #SUP: 2
4313 -1 127 -1 193 -1 #SUP: 2
32098 -1 2 -1 4550 -1 #SUP: 2
43432 -1 127 -1 193 -1 #SUP: 2
43432 -1 4313 -1 127 -1 #SUP: 2
43432 -1 4313 -1 193 -1 #SUP: 2
56412 -1 77 -1 64 -1 #SUP: 2
2 -1 22 -1 76 -1 77 -1 #SUP: 2
16 -1 64 -1 77 -1 599 -1 #SUP: 2
16 -1 64 -1 596 -1 77 -1 #SUP: 2
16 -1 64 -1 596 -1 599 -1 #SUP: 2
16 -1 381 -1 326 -1 8963 -1 #SUP: 2
16 -1 596 -1 77 -1 599 -1 #SUP: 2
22 -1 32 -1 65 -1 65 -1 #SUP: 2
22 -1 32 -1 65 -1 170 -1 #SUP: 2
22 -1 32 -1 170 -1 65 -1 #SUP: 2
22 -1 65 -1 77 -1 65 -1 #SUP: 2
22 -1 65 -1 170 -1 65 -1 #SUP: 2
22 -1 77 -1 50 -1 2 -1 #SUP: 2
22 -1 77 -1 77 -1 2 -1 #SUP: 2
22 -1 77 -1 123 -1 2 -1 #SUP: 2
22 -1 77 -1 123 -1 50 -1 #SUP: 2
22 -1 77 -1 123 -1 77 -1 #SUP: 2
22 -1 123 -1 77 -1 2 -1 #SUP: 2
22 -1 123 -1 77 -1 123 -1 #SUP: 2
31 -1 65 -1 77 -1 123 -1 #SUP: 2
31 -1 65 -1 77 -1 286 -1 #SUP: 2
31 -1 65 -1 123 -1 286 -1 #SUP: 2
31 -1 77 -1 2 -1 1310 -1 #SUP: 2
31 -1 77 -1 123 -1 286 -1 #SUP: 2
31 -1 77 -1 322 -1 285 -1 #SUP: 2
32 -1 64 -1 77 -1 599 -1 #SUP: 2
32 -1 65 -1 170 -1 65 -1 #SUP: 2
32 -1 65 -1 491 -1 394 -1 #SUP: 2
32 -1 123 -1 22 -1 64 -1 #SUP: 2
32 -1 123 -1 22 -1 170 -1 #SUP: 2
50 -1 50 -1 2 -1 123 -1 #SUP: 2
50 -1 50 -1 77 -1 2 -1 #SUP: 2
50 -1 50 -1 77 -1 123 -1 #SUP: 2
50 -1 50 -1 1953 -1 1898 -1 #SUP: 2
50 -1 64 -1 123 -1 77 -1 #SUP: 2
50 -1 77 -1 2 -1 65 -1 #SUP: 2
50 -1 77 -1 2 -1 123 -1 #SUP: 2
50 -1 77 -1 123 -1 65 -1 #SUP: 2
64 -1 77 -1 77 -1 2 -1 #SUP: 2
64 -1 77 -1 78 -1 78 -1 #SUP: 2
64 -1 77 -1 599 -1 67 -1 #SUP: 2
64 -1 123 -1 77 -1 22 -1 #SUP: 2
64 -1 596 -1 77 -1 599 -1 #SUP: 2
65 -1 16 -1 381 -1 326 -1 #SUP: 2
65 -1 77 -1 123 -1 158 -1 #SUP: 2
65 -1 77 -1 123 -1 286 -1 #SUP: 2
65 -1 77 -1 381 -1 326 -1 #SUP: 2
65 -1 77 -1 599 -1 123 -1 #SUP: 2
65 -1 123 -1 154 -1 32 -1 #SUP: 2
65 -1 154 -1 32 -1 65 -1 #SUP: 2
67 -1 77 -1 65 -1 77 -1 #SUP: 2
67 -1 77 -1 254 -1 193 -1 #SUP: 2
77 -1 22 -1 32 -1 65 -1 #SUP: 2
77 -1 22 -1 64 -1 32 -1 #SUP: 2
77 -1 50 -1 2 -1 123 -1 #SUP: 2
77 -1 64 -1 164 -1 77 -1 #SUP: 2
77 -1 65 -1 77 -1 22 -1 #SUP: 2
77 -1 65 -1 220 -1 67 -1 #SUP: 2
77 -1 77 -1 2 -1 22 -1 #SUP: 3
77 -1 77 -1 77 -1 77 -1 #SUP: 3
77 -1 77 -1 123 -1 22 -1 #SUP: 2
77 -1 77 -1 599 -1 123 -1 #SUP: 2
77 -1 123 -1 2 -1 32 -1 #SUP: 2
77 -1 123 -1 2 -1 154 -1 #SUP: 2
77 -1 123 -1 22 -1 32 -1 #SUP: 3
77 -1 123 -1 22 -1 64 -1 #SUP: 2
77 -1 123 -1 22 -1 171 -1 #SUP: 2
77 -1 123 -1 77 -1 2 -1 #SUP: 2
77 -1 123 -1 77 -1 50 -1 #SUP: 2
77 -1 123 -1 77 -1 123 -1 #SUP: 2
77 -1 123 -1 154 -1 165 -1 #SUP: 2
77 -1 123 -1 206 -1 65 -1 #SUP: 2
77 -1 123 -1 286 -1 154 -1 #SUP: 2
77 -1 123 -1 286 -1 165 -1 #SUP: 2
77 -1 154 -1 32 -1 65 -1 #SUP: 2
77 -1 254 -1 170 -1 22 -1 #SUP: 2
77 -1 254 -1 193 -1 22 -1 #SUP: 3
77 -1 254 -1 441 -1 77 -1 #SUP: 2
77 -1 286 -1 154 -1 165 -1 #SUP: 2
77 -1 381 -1 326 -1 8963 -1 #SUP: 2
77 -1 599 -1 22 -1 15 -1 #SUP: 2
77 -1 599 -1 22 -1 32 -1 #SUP: 2
77 -1 599 -1 32 -1 67 -1 #SUP: 2
77 -1 599 -1 65 -1 67 -1 #SUP: 2
77 -1 599 -1 123 -1 22 -1 #SUP: 2
77 -1 599 -1 123 -1 64 -1 #SUP: 2
77 -1 599 -1 123 -1 65 -1 #SUP: 2
77 -1 599 -1 127 -1 193 -1 #SUP: 2
77 -1 599 -1 381 -1 193 -1 #SUP: 2
77 -1 599 -1 4313 -1 127 -1 #SUP: 2
77 -1 599 -1 4313 -1 193 -1 #SUP: 2
77 -1 599 -1 43432 -1 127 -1 #SUP: 2
77 -1 599 -1 43432 -1 193 -1 #SUP: 2
77 -1 599 -1 43432 -1 4313 -1 #SUP: 2
77 -1 1211 -1 164 -1 193 -1 #SUP: 2
77 -1 4313 -1 127 -1 193 -1 #SUP: 2
77 -1 43432 -1 127 -1 193 -1 #SUP: 2
77 -1 43432 -1 4313 -1 127 -1 #SUP: 2
77 -1 43432 -1 4313 -1 193 -1 #SUP: 2
123 -1 10 -1 77 -1 77 -1 #SUP: 2
123 -1 22 -1 64 -1 170 -1 #SUP: 2
123 -1 22 -1 170 -1 154 -1 #SUP: 2
123 -1 50 -1 50 -1 1898 -1 #SUP: 2
123 -1 50 -1 50 -1 1953 -1 #SUP: 2
123 -1 50 -1 77 -1 2 -1 #SUP: 2
123 -1 50 -1 77 -1 123 -1 #SUP: 2
123 -1 50 -1 1953 -1 1898 -1 #SUP: 2
123 -1 65 -1 77 -1 2 -1 #SUP: 2
123 -1 65 -1 77 -1 123 -1 #SUP: 4
123 -1 65 -1 77 -1 286 -1 #SUP: 2
123 -1 65 -1 77 -1 599 -1 #SUP: 2
123 -1 65 -1 123 -1 77 -1 #SUP: 3
123 -1 65 -1 123 -1 154 -1 #SUP: 2
123 -1 65 -1 123 -1 286 -1 #SUP: 2
123 -1 65 -1 599 -1 123 -1 #SUP: 2
123 -1 77 -1 2 -1 50 -1 #SUP: 2
123 -1 77 -1 2 -1 123 -1 #SUP: 2
123 -1 77 -1 64 -1 22 -1 #SUP: 2
123 -1 77 -1 77 -1 2 -1 #SUP: 2
123 -1 77 -1 77 -1 520 -1 #SUP: 2
123 -1 77 -1 123 -1 22 -1 #SUP: 2
123 -1 77 -1 123 -1 77 -1 #SUP: 2
123 -1 77 -1 123 -1 154 -1 #SUP: 3
123 -1 77 -1 123 -1 286 -1 #SUP: 3
123 -1 77 -1 286 -1 154 -1 #SUP: 2
123 -1 77 -1 599 -1 22 -1 #SUP: 2
123 -1 77 -1 599 -1 123 -1 #SUP: 3
123 -1 123 -1 174 -1 77 -1 #SUP: 2
123 -1 123 -1 286 -1 154 -1 #SUP: 2
123 -1 170 -1 77 -1 2 -1 #SUP: 2
123 -1 174 -1 77 -1 599 -1 #SUP: 2
123 -1 206 -1 65 -1 77 -1 #SUP: 2
123 -1 206 -1 65 -1 123 -1 #SUP: 2
123 -1 206 -1 65 -1 154 -1 #SUP: 2
123 -1 206 -1 65 -1 206 -1 #SUP: 2
123 -1 206 -1 123 -1 77 -1 #SUP: 2
123 -1 206 -1 158 -1 50 -1 #SUP: 2
123 -1 206 -1 206 -1 158 -1 #SUP: 2
123 -1 206 -1 652 -1 77 -1 #SUP: 2
123 -1 210 -1 765 -1 64 -1 #SUP: 2
123 -1 262 -1 65 -1 77 -1 #SUP: 2
123 -1 262 -1 65 -1 123 -1 #SUP: 2
123 -1 286 -1 22 -1 64 -1 #SUP: 2
123 -1 286 -1 22 -1 67 -1 #SUP: 2
123 -1 286 -1 22 -1 170 -1 #SUP: 2
123 -1 286 -1 154 -1 22 -1 #SUP: 2
123 -1 286 -1 154 -1 64 -1 #SUP: 2
123 -1 286 -1 154 -1 67 -1 #SUP: 2
123 -1 286 -1 154 -1 165 -1 #SUP: 2
123 -1 286 -1 154 -1 170 -1 #SUP: 2
123 -1 291 -1 2 -1 123 -1 #SUP: 2
123 -1 291 -1 77 -1 123 -1 #SUP: 2
123 -1 291 -1 123 -1 123 -1 #SUP: 2
123 -1 407 -1 392 -1 22 -1 #SUP: 2
123 -1 1478 -1 2 -1 123 -1 #SUP: 2
123 -1 1478 -1 291 -1 2 -1 #SUP: 2
123 -1 1478 -1 291 -1 123 -1 #SUP: 2
154 -1 384 -1 77 -1 599 -1 #SUP: 2
164 -1 77 -1 599 -1 22 -1 #SUP: 2
164 -1 77 -1 599 -1 381 -1 #SUP: 2
164 -1 596 -1 77 -1 599 -1 #SUP: 2
167 -1 349 -1 517 -1 1263 -1 #SUP: 2
167 -1 349 -1 517 -1 1716 -1 #SUP: 2
167 -1 349 -1 1716 -1 1263 -1 #SUP: 2
167 -1 517 -1 1716 -1 1263 -1 #SUP: 2
170 -1 65 -1 77 -1 2 -1 #SUP: 3
170 -1 77 -1 2 -1 65 -1 #SUP: 2
170 -1 77 -1 2 -1 154 -1 #SUP: 2
170 -1 77 -1 599 -1 193 -1 #SUP: 2
183 -1 22 -1 15 -1 11100 -1 #SUP: 2
206 -1 65 -1 123 -1 77 -1 #SUP: 2
206 -1 65 -1 206 -1 520 -1 #SUP: 2
206 -1 206 -1 158 -1 50 -1 #SUP: 2
260 -1 384 -1 77 -1 599 -1 #SUP: 2
262 -1 64 -1 77 -1 599 -1 #SUP: 2
349 -1 517 -1 1716 -1 1263 -1 #SUP: 2
384 -1 77 -1 599 -1 22 -1 #SUP: 2
384 -1 77 -1 599 -1 123 -1 #SUP: 2
441 -1 77 -1 599 -1 123 -1 #SUP: 2
441 -1 384 -1 77 -1 123 -1 #SUP: 2
441 -1 384 -1 77 -1 599 -1 #SUP: 2
441 -1 384 -1 599 -1 123 -1 #SUP: 2
599 -1 4313 -1 127 -1 193 -1 #SUP: 2
599 -1 43432 -1 127 -1 193 -1 #SUP: 2
599 -1 43432 -1 4313 -1 127 -1 #SUP: 2
599 -1 43432 -1 4313 -1 193 -1 #SUP: 2
886 -1 167 -1 349 -1 517 -1 #SUP: 2
886 -1 167 -1 349 -1 1263 -1 #SUP: 2
886 -1 167 -1 349 -1 1716 -1 #SUP: 2
886 -1 167 -1 517 -1 1263 -1 #SUP: 2
886 -1 167 -1 517 -1 1716 -1 #SUP: 2
886 -1 167 -1 1716 -1 1263 -1 #SUP: 2
886 -1 349 -1 517 -1 1263 -1 #SUP: 2
886 -1 349 -1 517 -1 1716 -1 #SUP: 2
886 -1 349 -1 1716 -1 1263 -1 #SUP: 2
886 -1 517 -1 1716 -1 1263 -1 #SUP: 2
1478 -1 65 -1 77 -1 2 -1 #SUP: 2
1478 -1 291 -1 2 -1 123 -1 #SUP: 2
1899 -1 77 -1 1898 -1 164 -1 #SUP: 2
43432 -1 4313 -1 127 -1 193 -1 #SUP: 2
16 -1 64 -1 596 -1 77 -1 599 -1 #SUP: 2
22 -1 32 -1 65 -1 170 -1 65 -1 #SUP: 2
22 -1 77 -1 123 -1 77 -1 2 -1 #SUP: 2
31 -1 65 -1 77 -1 123 -1 286 -1 #SUP: 2
50 -1 50 -1 77 -1 2 -1 123 -1 #SUP: 2
77 -1 77 -1 77 -1 77 -1 77 -1 #SUP: 2
77 -1 123 -1 286 -1 154 -1 165 -1 #SUP: 2
77 -1 599 -1 4313 -1 127 -1 193 -1 #SUP: 2
77 -1 599 -1 43432 -1 127 -1 193 -1 #SUP: 2
77 -1 599 -1 43432 -1 4313 -1 127 -1 #SUP: 2
77 -1 599 -1 43432 -1 4313 -1 193 -1 #SUP: 2
77 -1 43432 -1 4313 -1 127 -1 193 -1 #SUP: 2
123 -1 50 -1 50 -1 1953 -1 1898 -1 #SUP: 2
123 -1 65 -1 77 -1 123 -1 286 -1 #SUP: 2
123 -1 65 -1 77 -1 599 -1 123 -1 #SUP: 2
123 -1 77 -1 123 -1 286 -1 154 -1 #SUP: 2
123 -1 206 -1 65 -1 123 -1 77 -1 #SUP: 2
123 -1 1478 -1 291 -1 2 -1 123 -1 #SUP: 2
167 -1 349 -1 517 -1 1716 -1 1263 -1 #SUP: 2
441 -1 384 -1 77 -1 599 -1 123 -1 #SUP: 2
599 -1 43432 -1 4313 -1 127 -1 193 -1 #SUP: 2
886 -1 167 -1 349 -1 517 -1 1263 -1 #SUP: 2
886 -1 167 -1 349 -1 517 -1 1716 -1 #SUP: 2
886 -1 167 -1 349 -1 1716 -1 1263 -1 #SUP: 2
886 -1 167 -1 517 -1 1716 -1 1263 -1 #SUP: 2
886 -1 349 -1 517 -1 1716 -1 1263 -1 #SUP: 2
77 -1 599 -1 43432 -1 4313 -1 127 -1 193 -1 #SUP: 2
886 -1 167 -1 349 -1 517 -1 1716 -1 1263 -1 #SUP: 2
