2 -1 #SUP: 30
7 -1 #SUP: 4
10 -1 #SUP: 16
11 -1 #SUP: 12
13 -1 #SUP: 2
16 -1 #SUP: 11
22 -1 #SUP: 50
27 -1 #SUP: 6
29 -1 #SUP: 10
30 -1 #SUP: 3
31 -1 #SUP: 13
32 -1 #SUP: 27
33 -1 #SUP: 6
39 -1 #SUP: 2
41 -1 #SUP: 14
47 -1 #SUP: 3
50 -1 #SUP: 7
64 -1 #SUP: 49
65 -1 #SUP: 23
66 -1 #SUP: 2
67 -1 #SUP: 16
70 -1 #SUP: 6
76 -1 #SUP: 2
77 -1 #SUP: 56
78 -1 #SUP: 10
120 -1 #SUP: 5
123 -1 #SUP: 38
134 -1 #SUP: 3
140 -1 #SUP: 3
144 -1 #SUP: 5
146 -1 #SUP: 5
147 -1 #SUP: 3
150 -1 #SUP: 2
151 -1 #SUP: 2
152 -1 #SUP: 7
153 -1 #SUP: 2
154 -1 #SUP: 22
156 -1 #SUP: 2
157 -1 #SUP: 3
160 -1 #SUP: 4
162 -1 #SUP: 7
164 -1 #SUP: 4
165 -1 #SUP: 5
167 -1 #SUP: 4
170 -1 #SUP: 13
171 -1 #SUP: 4
183 -1 #SUP: 12
193 -1 #SUP: 18
198 -1 #SUP: 2
201 -1 #SUP: 2
206 -1 #SUP: 5
212 -1 #SUP: 2
213 -1 #SUP: 4
220 -1 #SUP: 7
222 -1 #SUP: 9
225 -1 #SUP: 4
226 -1 #SUP: 6
236 -1 #SUP: 3
246 -1 #SUP: 5
248 -1 #SUP: 2
249 -1 #SUP: 2
254 -1 #SUP: 5
256 -1 #SUP: 6
260 -1 #SUP: 3
262 -1 #SUP: 12
263 -1 #SUP: 4
268 -1 #SUP: 2
278 -1 #SUP: 2
280 -1 #SUP: 6
285 -1 #SUP: 5
286 -1 #SUP: 4
291 -1 #SUP: 4
317 -1 #SUP: 2
318 -1 #SUP: 2
322 -1 #SUP: 2
326 -1 #SUP: 7
334 -1 #SUP: 2
340 -1 #SUP: 2
349 -1 #SUP: 9
355 -1 #SUP: 2
356 -1 #SUP: 8
369 -1 #SUP: 2
376 -1 #SUP: 2
381 -1 #SUP: 4
384 -1 #SUP: 3
411 -1 #SUP: 2
417 -1 #SUP: 2
431 -1 #SUP: 2
439 -1 #SUP: 3
441 -1 #SUP: 7
446 -1 #SUP: 2
452 -1 #SUP: 2
474 -1 #SUP: 2
483 -1 #SUP: 3
498 -1 #SUP: 2
519 -1 #SUP: 2
520 -1 #SUP: 4
529 -1 #SUP: 2
531 -1 #SUP: 2
535 -1 #SUP: 2
548 -1 #SUP: 3
567 -1 #SUP: 6
590 -1 #SUP: 2
599 -1 #SUP: 13
638 -1 #SUP: 2
648 -1 #SUP: 2
650 -1 #SUP: 4
651 -1 #SUP: 2
654 -1 #SUP: 3
664 -1 #SUP: 2
693 -1 #SUP: 4
711 -1 #SUP: 5
765 -1 #SUP: 5
777 -1 #SUP: 3
782 -1 #SUP: 3
786 -1 #SUP: 2
789 -1 #SUP: 2
810 -1 #SUP: 4
842 -1 #SUP: 2
850 -1 #SUP: 3
871 -1 #SUP: 2
921 -1 #SUP: 4
955 -1 #SUP: 2
960 -1 #SUP: 3
1001 -1 #SUP: 2
1115 -1 #SUP: 2
1140 -1 #SUP: 2
1165 -1 #SUP: 2
1166 -1 #SUP: 3
1177 -1 #SUP: 2
1191 -1 #SUP: 3
1223 -1 #SUP: 2
1224 -1 #SUP: 2
1240 -1 #SUP: 2
1245 -1 #SUP: 2
1307 -1 #SUP: 2
1318 -1 #SUP: 2
1357 -1 #SUP: 3
1517 -1 #SUP: 2
1546 -1 #SUP: 2
1554 -1 #SUP: 2
1617 -1 #SUP: 2
1634 -1 #SUP: 2
1639 -1 #SUP: 2
1688 -1 #SUP: 2
1712 -1 #SUP: 2
1737 -1 #SUP: 3
1817 -1 #SUP: 2
1841 -1 #SUP: 2
1845 -1 #SUP: 2
1927 -1 #SUP: 2
1942 -1 #SUP: 5
1946 -1 #SUP: 2
2059 -1 #SUP: 2
2094 -1 #SUP: 2
2104 -1 #SUP: 2
2209 -1 #SUP: 2
2813 -1 #SUP: 3
2868 -1 #SUP: 2
3121 -1 #SUP: 4
3510 -1 #SUP: 2
4335 -1 #SUP: 2
4493 -1 #SUP: 2
5052 -1 #SUP: 2
5237 -1 #SUP: 2
5425 -1 #SUP: 2
5438 -1 #SUP: 2
5937 -1 #SUP: 2
8630 -1 #SUP: 2
8648 -1 #SUP: 2
8708 -1 #SUP: 2
8778 -1 #SUP: 2
9147 -1 #SUP: 2
10075 -1 #SUP: 2
11040 -1 #SUP: 2
17173 -1 #SUP: 2
24847 -1 #SUP: 3
24860 -1 #SUP: 2
31347 -1 #SUP: 2
43542 -1 #SUP: 2
100042 -1 #SUP: 2
2 -1 10 -1 #SUP: 2
2 -1 22 -1 #SUP: 5
2 -1 31 -1 #SUP: 3
2 -1 32 -1 #SUP: 3
2 -1 50 -1 #SUP: 2
2 -1 64 -1 #SUP: 7
2 -1 67 -1 #SUP: 3
2 -1 77 -1 #SUP: 4
2 -1 123 -1 #SUP: 2
2 -1 151 -1 #SUP: 2
2 -1 154 -1 #SUP: 4
2 -1 167 -1 #SUP: 2
2 -1 170 -1 #SUP: 3
2 -1 193 -1 #SUP: 5
2 -1 220 -1 #SUP: 2
2 -1 2813 -1 #SUP: 2
7 -1 22 -1 #SUP: 2
10 -1 2 -1 #SUP: 4
10 -1 13 -1 #SUP: 2
10 -1 22 -1 #SUP: 6
10 -1 32 -1 #SUP: 2
10 -1 64 -1 #SUP: 3
10 -1 77 -1 #SUP: 5
10 -1 123 -1 #SUP: 3
10 -1 154 -1 #SUP: 2
10 -1 183 -1 #SUP: 2
10 -1 441 -1 #SUP: 2
10 -1 599 -1 #SUP: 3
11 -1 11 -1 #SUP: 2
11 -1 22 -1 #SUP: 2
11 -1 32 -1 #SUP: 3
11 -1 64 -1 #SUP: 5
11 -1 67 -1 #SUP: 2
11 -1 77 -1 #SUP: 2
11 -1 146 -1 #SUP: 2
11 -1 193 -1 #SUP: 2
11 -1 356 -1 #SUP: 2
11 -1 1554 -1 #SUP: 2
11 -1 5438 -1 #SUP: 2
16 -1 2 -1 #SUP: 2
16 -1 16 -1 #SUP: 3
16 -1 22 -1 #SUP: 3
16 -1 67 -1 #SUP: 3
16 -1 77 -1 #SUP: 2
16 -1 78 -1 #SUP: 2
16 -1 154 -1 #SUP: 2
16 -1 170 -1 #SUP: 2
16 -1 254 -1 #SUP: 2
16 -1 24847 -1 #SUP: 2
22 -1 2 -1 #SUP: 9
22 -1 7 -1 #SUP: 2
22 -1 10 -1 #SUP: 6
22 -1 11 -1 #SUP: 5
22 -1 16 -1 #SUP: 3
22 -1 22 -1 #SUP: 11
22 -1 29 -1 #SUP: 3
22 -1 31 -1 #SUP: 4
22 -1 32 -1 #SUP: 10
22 -1 50 -1 #SUP: 3
22 -1 64 -1 #SUP: 9
22 -1 65 -1 #SUP: 5
22 -1 67 -1 #SUP: 3
22 -1 70 -1 #SUP: 2
22 -1 76 -1 #SUP: 2
22 -1 77 -1 #SUP: 13
22 -1 78 -1 #SUP: 4
22 -1 123 -1 #SUP: 4
22 -1 146 -1 #SUP: 4
22 -1 147 -1 #SUP: 2
22 -1 152 -1 #SUP: 2
22 -1 154 -1 #SUP: 7
22 -1 167 -1 #SUP: 2
22 -1 170 -1 #SUP: 3
22 -1 183 -1 #SUP: 3
22 -1 193 -1 #SUP: 4
22 -1 206 -1 #SUP: 2
22 -1 220 -1 #SUP: 5
22 -1 222 -1 #SUP: 2
22 -1 254 -1 #SUP: 2
22 -1 256 -1 #SUP: 3
22 -1 262 -1 #SUP: 2
22 -1 263 -1 #SUP: 2
22 -1 280 -1 #SUP: 3
22 -1 326 -1 #SUP: 2
22 -1 355 -1 #SUP: 2
22 -1 483 -1 #SUP: 2
22 -1 529 -1 #SUP: 2
22 -1 535 -1 #SUP: 2
22 -1 599 -1 #SUP: 4
22 -1 693 -1 #SUP: 3
22 -1 960 -1 #SUP: 2
22 -1 1140 -1 #SUP: 2
22 -1 1245 -1 #SUP: 2
22 -1 1357 -1 #SUP: 2
22 -1 1517 -1 #SUP: 2
22 -1 1546 -1 #SUP: 2
22 -1 1639 -1 #SUP: 2
22 -1 2813 -1 #SUP: 2
22 -1 2868 -1 #SUP: 2
22 -1 5425 -1 #SUP: 2
22 -1 17173 -1 #SUP: 2
27 -1 11 -1 #SUP: 2
27 -1 326 -1 #SUP: 2
27 -1 356 -1 #SUP: 2
27 -1 2104 -1 #SUP: 2
29 -1 2 -1 #SUP: 2
29 -1 22 -1 #SUP: 2
29 -1 77 -1 #SUP: 3
29 -1 170 -1 #SUP: 2
29 -1 2868 -1 #SUP: 2
31 -1 16 -1 #SUP: 2
31 -1 22 -1 #SUP: 3
31 -1 32 -1 #SUP: 2
31 -1 64 -1 #SUP: 2
31 -1 67 -1 #SUP: 2
31 -1 77 -1 #SUP: 4
31 -1 78 -1 #SUP: 2
31 -1 154 -1 #SUP: 2
31 -1 220 -1 #SUP: 2
32 -1 2 -1 #SUP: 7
32 -1 7 -1 #SUP: 2
32 -1 10 -1 #SUP: 4
32 -1 11 -1 #SUP: 4
32 -1 16 -1 #SUP: 2
32 -1 22 -1 #SUP: 10
32 -1 29 -1 #SUP: 2
32 -1 31 -1 #SUP: 2
32 -1 32 -1 #SUP: 2
32 -1 33 -1 #SUP: 2
32 -1 64 -1 #SUP: 4
32 -1 65 -1 #SUP: 4
32 -1 67 -1 #SUP: 2
32 -1 76 -1 #SUP: 2
32 -1 77 -1 #SUP: 7
32 -1 78 -1 #SUP: 2
32 -1 123 -1 #SUP: 2
32 -1 146 -1 #SUP: 3
32 -1 154 -1 #SUP: 2
32 -1 171 -1 #SUP: 2
32 -1 183 -1 #SUP: 2
32 -1 262 -1 #SUP: 2
32 -1 280 -1 #SUP: 3
32 -1 782 -1 #SUP: 2
32 -1 842 -1 #SUP: 2
32 -1 1357 -1 #SUP: 2
32 -1 1554 -1 #SUP: 2
32 -1 2813 -1 #SUP: 2
32 -1 5438 -1 #SUP: 2
33 -1 2 -1 #SUP: 4
33 -1 22 -1 #SUP: 4
33 -1 32 -1 #SUP: 2
33 -1 50 -1 #SUP: 2
33 -1 77 -1 #SUP: 3
33 -1 157 -1 #SUP: 2
33 -1 2813 -1 #SUP: 2
41 -1 2 -1 #SUP: 3
41 -1 10 -1 #SUP: 3
41 -1 29 -1 #SUP: 2
41 -1 64 -1 #SUP: 3
41 -1 77 -1 #SUP: 2
41 -1 144 -1 #SUP: 2
41 -1 154 -1 #SUP: 3
41 -1 170 -1 #SUP: 2
41 -1 183 -1 #SUP: 2
41 -1 193 -1 #SUP: 2
41 -1 225 -1 #SUP: 2
41 -1 262 -1 #SUP: 2
41 -1 291 -1 #SUP: 2
41 -1 599 -1 #SUP: 2
41 -1 921 -1 #SUP: 2
41 -1 8630 -1 #SUP: 2
47 -1 77 -1 #SUP: 2
50 -1 2 -1 #SUP: 3
50 -1 22 -1 #SUP: 4
50 -1 31 -1 #SUP: 2
50 -1 32 -1 #SUP: 3
50 -1 64 -1 #SUP: 3
50 -1 65 -1 #SUP: 2
50 -1 77 -1 #SUP: 3
50 -1 154 -1 #SUP: 2
50 -1 256 -1 #SUP: 2
50 -1 317 -1 #SUP: 2
50 -1 349 -1 #SUP: 2
50 -1 599 -1 #SUP: 2
50 -1 1946 -1 #SUP: 2
50 -1 2813 -1 #SUP: 2
50 -1 8708 -1 #SUP: 2
64 -1 2 -1 #SUP: 5
64 -1 10 -1 #SUP: 7
64 -1 11 -1 #SUP: 2
64 -1 13 -1 #SUP: 2
64 -1 16 -1 #SUP: 2
64 -1 22 -1 #SUP: 10
64 -1 29 -1 #SUP: 4
64 -1 31 -1 #SUP: 2
64 -1 32 -1 #SUP: 7
64 -1 47 -1 #SUP: 2
64 -1 50 -1 #SUP: 2
64 -1 64 -1 #SUP: 9
64 -1 65 -1 #SUP: 2
64 -1 67 -1 #SUP: 7
64 -1 77 -1 #SUP: 11
64 -1 123 -1 #SUP: 4
64 -1 134 -1 #SUP: 3
64 -1 146 -1 #SUP: 2
64 -1 160 -1 #SUP: 2
64 -1 193 -1 #SUP: 4
64 -1 220 -1 #SUP: 2
64 -1 222 -1 #SUP: 3
64 -1 254 -1 #SUP: 3
64 -1 256 -1 #SUP: 3
64 -1 262 -1 #SUP: 2
64 -1 356 -1 #SUP: 3
64 -1 441 -1 #SUP: 2
64 -1 483 -1 #SUP: 2
64 -1 567 -1 #SUP: 3
64 -1 599 -1 #SUP: 4
64 -1 1001 -1 #SUP: 2
64 -1 1554 -1 #SUP: 2
64 -1 1688 -1 #SUP: 2
64 -1 1841 -1 #SUP: 2
64 -1 5438 -1 #SUP: 2
65 -1 2 -1 #SUP: 8
65 -1 11 -1 #SUP: 4
65 -1 22 -1 #SUP: 5
65 -1 32 -1 #SUP: 8
65 -1 33 -1 #SUP: 3
65 -1 64 -1 #SUP: 3
65 -1 67 -1 #SUP: 2
65 -1 77 -1 #SUP: 7
65 -1 123 -1 #SUP: 2
65 -1 146 -1 #SUP: 3
65 -1 147 -1 #SUP: 3
65 -1 151 -1 #SUP: 2
65 -1 165 -1 #SUP: 2
65 -1 193 -1 #SUP: 2
65 -1 280 -1 #SUP: 2
65 -1 599 -1 #SUP: 2
65 -1 782 -1 #SUP: 2
65 -1 1942 -1 #SUP: 2
67 -1 2 -1 #SUP: 2
67 -1 11 -1 #SUP: 2
67 -1 22 -1 #SUP: 3
67 -1 30 -1 #SUP: 2
67 -1 32 -1 #SUP: 3
67 -1 64 -1 #SUP: 3
67 -1 152 -1 #SUP: 2
67 -1 280 -1 #SUP: 2
67 -1 1817 -1 #SUP: 2
67 -1 4335 -1 #SUP: 2
70 -1 22 -1 #SUP: 3
70 -1 32 -1 #SUP: 2
70 -1 64 -1 #SUP: 2
70 -1 65 -1 #SUP: 2
70 -1 77 -1 #SUP: 2
70 -1 146 -1 #SUP: 2
70 -1 529 -1 #SUP: 2
70 -1 599 -1 #SUP: 2
77 -1 2 -1 #SUP: 13
77 -1 10 -1 #SUP: 2
77 -1 11 -1 #SUP: 6
77 -1 16 -1 #SUP: 3
77 -1 22 -1 #SUP: 10
77 -1 29 -1 #SUP: 4
77 -1 31 -1 #SUP: 4
77 -1 32 -1 #SUP: 5
77 -1 47 -1 #SUP: 2
77 -1 50 -1 #SUP: 3
77 -1 64 -1 #SUP: 14
77 -1 65 -1 #SUP: 5
77 -1 67 -1 #SUP: 6
77 -1 77 -1 #SUP: 12
77 -1 78 -1 #SUP: 4
77 -1 123 -1 #SUP: 10
77 -1 134 -1 #SUP: 2
77 -1 146 -1 #SUP: 2
77 -1 152 -1 #SUP: 3
77 -1 154 -1 #SUP: 7
77 -1 160 -1 #SUP: 3
77 -1 167 -1 #SUP: 3
77 -1 170 -1 #SUP: 3
77 -1 183 -1 #SUP: 4
77 -1 193 -1 #SUP: 8
77 -1 206 -1 #SUP: 2
77 -1 220 -1 #SUP: 3
77 -1 246 -1 #SUP: 2
77 -1 254 -1 #SUP: 2
77 -1 256 -1 #SUP: 3
77 -1 262 -1 #SUP: 3
77 -1 280 -1 #SUP: 2
77 -1 318 -1 #SUP: 2
77 -1 349 -1 #SUP: 2
77 -1 356 -1 #SUP: 2
77 -1 441 -1 #SUP: 2
77 -1 529 -1 #SUP: 2
77 -1 548 -1 #SUP: 2
77 -1 567 -1 #SUP: 2
77 -1 599 -1 #SUP: 11
77 -1 648 -1 #SUP: 2
77 -1 711 -1 #SUP: 2
77 -1 765 -1 #SUP: 3
77 -1 955 -1 #SUP: 2
77 -1 1165 -1 #SUP: 2
77 -1 1166 -1 #SUP: 2
77 -1 1617 -1 #SUP: 2
77 -1 1946 -1 #SUP: 2
77 -1 8708 -1 #SUP: 2
77 -1 9147 -1 #SUP: 2
78 -1 2 -1 #SUP: 2
78 -1 16 -1 #SUP: 2
78 -1 22 -1 #SUP: 2
78 -1 32 -1 #SUP: 2
78 -1 65 -1 #SUP: 3
78 -1 77 -1 #SUP: 4
78 -1 154 -1 #SUP: 2
78 -1 183 -1 #SUP: 2
78 -1 193 -1 #SUP: 2
78 -1 246 -1 #SUP: 2
78 -1 326 -1 #SUP: 2
120 -1 22 -1 #SUP: 2
120 -1 77 -1 #SUP: 2
120 -1 123 -1 #SUP: 2
120 -1 144 -1 #SUP: 2
120 -1 262 -1 #SUP: 2
120 -1 286 -1 #SUP: 3
123 -1 2 -1 #SUP: 5
123 -1 10 -1 #SUP: 2
123 -1 11 -1 #SUP: 2
123 -1 16 -1 #SUP: 2
123 -1 22 -1 #SUP: 7
123 -1 27 -1 #SUP: 2
123 -1 29 -1 #SUP: 2
123 -1 31 -1 #SUP: 2
123 -1 32 -1 #SUP: 3
123 -1 33 -1 #SUP: 2
123 -1 41 -1 #SUP: 2
123 -1 50 -1 #SUP: 3
123 -1 64 -1 #SUP: 11
123 -1 65 -1 #SUP: 5
123 -1 67 -1 #SUP: 2
123 -1 77 -1 #SUP: 11
123 -1 78 -1 #SUP: 4
123 -1 120 -1 #SUP: 4
123 -1 123 -1 #SUP: 4
123 -1 144 -1 #SUP: 2
123 -1 154 -1 #SUP: 2
123 -1 164 -1 #SUP: 2
123 -1 165 -1 #SUP: 2
123 -1 167 -1 #SUP: 2
123 -1 193 -1 #SUP: 3
123 -1 206 -1 #SUP: 3
123 -1 220 -1 #SUP: 2
123 -1 226 -1 #SUP: 3
123 -1 236 -1 #SUP: 2
123 -1 256 -1 #SUP: 2
123 -1 262 -1 #SUP: 6
123 -1 263 -1 #SUP: 2
123 -1 286 -1 #SUP: 2
123 -1 322 -1 #SUP: 2
123 -1 326 -1 #SUP: 2
123 -1 355 -1 #SUP: 2
123 -1 356 -1 #SUP: 2
123 -1 411 -1 #SUP: 2
123 -1 441 -1 #SUP: 6
123 -1 599 -1 #SUP: 5
123 -1 638 -1 #SUP: 2
123 -1 711 -1 #SUP: 2
123 -1 765 -1 #SUP: 3
123 -1 777 -1 #SUP: 2
123 -1 810 -1 #SUP: 2
123 -1 2209 -1 #SUP: 2
123 -1 3121 -1 #SUP: 3
123 -1 8778 -1 #SUP: 2
140 -1 64 -1 #SUP: 2
140 -1 77 -1 #SUP: 2
144 -1 2 -1 #SUP: 2
144 -1 41 -1 #SUP: 2
144 -1 262 -1 #SUP: 2
146 -1 2 -1 #SUP: 2
146 -1 22 -1 #SUP: 2
146 -1 32 -1 #SUP: 2
146 -1 64 -1 #SUP: 2
146 -1 1554 -1 #SUP: 2
146 -1 5438 -1 #SUP: 2
150 -1 64 -1 #SUP: 2
152 -1 30 -1 #SUP: 2
152 -1 765 -1 #SUP: 2
152 -1 1817 -1 #SUP: 2
152 -1 4335 -1 #SUP: 2
154 -1 2 -1 #SUP: 6
154 -1 10 -1 #SUP: 4
154 -1 16 -1 #SUP: 3
154 -1 31 -1 #SUP: 2
154 -1 32 -1 #SUP: 2
154 -1 41 -1 #SUP: 3
154 -1 64 -1 #SUP: 7
154 -1 65 -1 #SUP: 5
154 -1 67 -1 #SUP: 3
154 -1 77 -1 #SUP: 5
154 -1 78 -1 #SUP: 2
154 -1 123 -1 #SUP: 2
154 -1 150 -1 #SUP: 2
154 -1 154 -1 #SUP: 3
154 -1 170 -1 #SUP: 4
154 -1 183 -1 #SUP: 4
154 -1 193 -1 #SUP: 3
154 -1 206 -1 #SUP: 2
154 -1 213 -1 #SUP: 2
154 -1 220 -1 #SUP: 5
154 -1 225 -1 #SUP: 2
154 -1 349 -1 #SUP: 3
154 -1 381 -1 #SUP: 2
154 -1 650 -1 #SUP: 2
154 -1 664 -1 #SUP: 2
154 -1 810 -1 #SUP: 2
157 -1 2 -1 #SUP: 3
160 -1 22 -1 #SUP: 2
160 -1 32 -1 #SUP: 2
160 -1 64 -1 #SUP: 4
160 -1 67 -1 #SUP: 2
162 -1 2 -1 #SUP: 3
162 -1 22 -1 #SUP: 2
162 -1 77 -1 #SUP: 2
162 -1 225 -1 #SUP: 2
162 -1 765 -1 #SUP: 2
164 -1 64 -1 #SUP: 2
164 -1 77 -1 #SUP: 3
164 -1 193 -1 #SUP: 2
165 -1 64 -1 #SUP: 3
165 -1 67 -1 #SUP: 4
167 -1 64 -1 #SUP: 2
170 -1 2 -1 #SUP: 3
170 -1 22 -1 #SUP: 2
170 -1 31 -1 #SUP: 3
170 -1 64 -1 #SUP: 4
170 -1 65 -1 #SUP: 4
170 -1 77 -1 #SUP: 2
170 -1 154 -1 #SUP: 2
170 -1 1307 -1 #SUP: 2
170 -1 10075 -1 #SUP: 2
170 -1 24847 -1 #SUP: 2
171 -1 67 -1 #SUP: 2
171 -1 152 -1 #SUP: 3
171 -1 226 -1 #SUP: 2
171 -1 280 -1 #SUP: 3
171 -1 1817 -1 #SUP: 2
171 -1 4335 -1 #SUP: 2
183 -1 2 -1 #SUP: 3
183 -1 16 -1 #SUP: 2
183 -1 22 -1 #SUP: 4
183 -1 31 -1 #SUP: 2
183 -1 32 -1 #SUP: 3
183 -1 64 -1 #SUP: 5
183 -1 77 -1 #SUP: 3
183 -1 154 -1 #SUP: 3
183 -1 170 -1 #SUP: 2
183 -1 183 -1 #SUP: 2
183 -1 1307 -1 #SUP: 2
193 -1 2 -1 #SUP: 2
193 -1 16 -1 #SUP: 2
193 -1 22 -1 #SUP: 2
193 -1 64 -1 #SUP: 6
193 -1 65 -1 #SUP: 2
193 -1 67 -1 #SUP: 3
193 -1 77 -1 #SUP: 3
193 -1 123 -1 #SUP: 2
193 -1 154 -1 #SUP: 4
193 -1 170 -1 #SUP: 4
193 -1 206 -1 #SUP: 2
193 -1 220 -1 #SUP: 3
193 -1 349 -1 #SUP: 2
193 -1 384 -1 #SUP: 2
193 -1 654 -1 #SUP: 2
201 -1 64 -1 #SUP: 2
206 -1 10 -1 #SUP: 2
206 -1 64 -1 #SUP: 4
206 -1 77 -1 #SUP: 4
206 -1 123 -1 #SUP: 2
206 -1 599 -1 #SUP: 2
220 -1 16 -1 #SUP: 3
220 -1 65 -1 #SUP: 2
220 -1 67 -1 #SUP: 4
220 -1 78 -1 #SUP: 2
220 -1 165 -1 #SUP: 2
222 -1 29 -1 #SUP: 2
222 -1 64 -1 #SUP: 3
222 -1 77 -1 #SUP: 3
225 -1 167 -1 #SUP: 2
225 -1 765 -1 #SUP: 2
226 -1 10 -1 #SUP: 2
226 -1 22 -1 #SUP: 2
226 -1 30 -1 #SUP: 2
226 -1 64 -1 #SUP: 2
226 -1 67 -1 #SUP: 2
226 -1 152 -1 #SUP: 2
226 -1 711 -1 #SUP: 2
226 -1 1817 -1 #SUP: 2
226 -1 4335 -1 #SUP: 2
246 -1 356 -1 #SUP: 2
249 -1 41 -1 #SUP: 2
254 -1 22 -1 #SUP: 3
254 -1 64 -1 #SUP: 4
254 -1 77 -1 #SUP: 2
254 -1 254 -1 #SUP: 2
256 -1 64 -1 #SUP: 2
262 -1 2 -1 #SUP: 4
262 -1 29 -1 #SUP: 2
262 -1 64 -1 #SUP: 4
262 -1 77 -1 #SUP: 5
262 -1 123 -1 #SUP: 3
262 -1 170 -1 #SUP: 2
262 -1 222 -1 #SUP: 2
263 -1 2 -1 #SUP: 2
263 -1 123 -1 #SUP: 2
278 -1 77 -1 #SUP: 2
278 -1 599 -1 #SUP: 2
280 -1 2 -1 #SUP: 2
280 -1 22 -1 #SUP: 2
280 -1 67 -1 #SUP: 2
280 -1 77 -1 #SUP: 2
280 -1 152 -1 #SUP: 2
285 -1 193 -1 #SUP: 3
285 -1 334 -1 #SUP: 2
286 -1 193 -1 #SUP: 2
291 -1 2 -1 #SUP: 2
291 -1 213 -1 #SUP: 3
318 -1 32 -1 #SUP: 2
326 -1 2 -1 #SUP: 2
326 -1 11 -1 #SUP: 5
326 -1 64 -1 #SUP: 4
326 -1 67 -1 #SUP: 3
326 -1 77 -1 #SUP: 2
326 -1 193 -1 #SUP: 2
326 -1 356 -1 #SUP: 2
326 -1 1942 -1 #SUP: 2
326 -1 3121 -1 #SUP: 2
340 -1 65 -1 #SUP: 2
340 -1 262 -1 #SUP: 2
349 -1 2 -1 #SUP: 2
349 -1 31 -1 #SUP: 2
349 -1 64 -1 #SUP: 2
349 -1 65 -1 #SUP: 2
349 -1 67 -1 #SUP: 2
349 -1 183 -1 #SUP: 3
356 -1 77 -1 #SUP: 2
356 -1 78 -1 #SUP: 2
369 -1 22 -1 #SUP: 2
369 -1 32 -1 #SUP: 2
369 -1 64 -1 #SUP: 2
369 -1 160 -1 #SUP: 2
381 -1 2 -1 #SUP: 2
381 -1 64 -1 #SUP: 2
381 -1 67 -1 #SUP: 2
381 -1 77 -1 #SUP: 2
417 -1 77 -1 #SUP: 2
439 -1 64 -1 #SUP: 2
439 -1 67 -1 #SUP: 2
441 -1 2 -1 #SUP: 2
441 -1 10 -1 #SUP: 2
441 -1 22 -1 #SUP: 2
441 -1 77 -1 #SUP: 4
441 -1 154 -1 #SUP: 2
441 -1 262 -1 #SUP: 2
441 -1 599 -1 #SUP: 2
474 -1 32 -1 #SUP: 2
474 -1 77 -1 #SUP: 2
483 -1 22 -1 #SUP: 2
498 -1 64 -1 #SUP: 2
519 -1 77 -1 #SUP: 2
519 -1 123 -1 #SUP: 2
519 -1 599 -1 #SUP: 2
529 -1 77 -1 #SUP: 2
567 -1 22 -1 #SUP: 2
567 -1 64 -1 #SUP: 2
567 -1 955 -1 #SUP: 2
590 -1 64 -1 #SUP: 2
599 -1 2 -1 #SUP: 4
599 -1 22 -1 #SUP: 2
599 -1 32 -1 #SUP: 2
599 -1 64 -1 #SUP: 5
599 -1 77 -1 #SUP: 3
599 -1 123 -1 #SUP: 5
599 -1 134 -1 #SUP: 2
599 -1 154 -1 #SUP: 3
599 -1 193 -1 #SUP: 2
599 -1 256 -1 #SUP: 2
599 -1 529 -1 #SUP: 2
599 -1 1165 -1 #SUP: 2
648 -1 64 -1 #SUP: 2
648 -1 160 -1 #SUP: 2
650 -1 10 -1 #SUP: 2
650 -1 32 -1 #SUP: 2
650 -1 154 -1 #SUP: 2
711 -1 22 -1 #SUP: 2
765 -1 120 -1 #SUP: 2
765 -1 167 -1 #SUP: 3
777 -1 65 -1 #SUP: 2
810 -1 64 -1 #SUP: 3
810 -1 183 -1 #SUP: 2
850 -1 22 -1 #SUP: 2
850 -1 77 -1 #SUP: 2
921 -1 262 -1 #SUP: 2
960 -1 65 -1 #SUP: 2
960 -1 154 -1 #SUP: 2
960 -1 170 -1 #SUP: 2
1001 -1 77 -1 #SUP: 2
1166 -1 65 -1 #SUP: 2
1223 -1 77 -1 #SUP: 2
1517 -1 154 -1 #SUP: 2
1517 -1 220 -1 #SUP: 2
1546 -1 22 -1 #SUP: 2
1546 -1 64 -1 #SUP: 2
1546 -1 77 -1 #SUP: 2
1546 -1 599 -1 #SUP: 2
1617 -1 2 -1 #SUP: 2
1634 -1 599 -1 #SUP: 2
1688 -1 10 -1 #SUP: 2
1817 -1 30 -1 #SUP: 2
1942 -1 11 -1 #SUP: 3
1946 -1 31 -1 #SUP: 2
2104 -1 356 -1 #SUP: 2
3121 -1 11 -1 #SUP: 2
4335 -1 30 -1 #SUP: 2
4335 -1 1817 -1 #SUP: 2
4493 -1 64 -1 #SUP: 2
5425 -1 256 -1 #SUP: 2
5425 -1 1357 -1 #SUP: 2
5438 -1 1554 -1 #SUP: 2
5937 -1 64 -1 #SUP: 2
5937 -1 222 -1 #SUP: 2
9147 -1 11 -1 #SUP: 2
10075 -1 64 -1 #SUP: 2
10075 -1 77 -1 #SUP: 2
17173 -1 32 -1 #SUP: 2
24847 -1 22 -1 #SUP: 2
24847 -1 64 -1 #SUP: 2
24847 -1 77 -1 #SUP: 3
24847 -1 10075 -1 #SUP: 2
31347 -1 16 -1 #SUP: 2
31347 -1 77 -1 #SUP: 2
31347 -1 78 -1 #SUP: 2
31347 -1 193 -1 #SUP: 2
2 -1 22 -1 77 -1 #SUP: 2
2 -1 22 -1 2813 -1 #SUP: 2
2 -1 32 -1 22 -1 #SUP: 2
2 -1 64 -1 22 -1 #SUP: 2
2 -1 77 -1 123 -1 #SUP: 2
2 -1 154 -1 64 -1 #SUP: 2
2 -1 154 -1 220 -1 #SUP: 2
2 -1 167 -1 64 -1 #SUP: 2
10 -1 2 -1 154 -1 #SUP: 2
10 -1 22 -1 64 -1 #SUP: 2
10 -1 64 -1 77 -1 #SUP: 2
10 -1 64 -1 441 -1 #SUP: 2
10 -1 77 -1 2 -1 #SUP: 2
10 -1 77 -1 22 -1 #SUP: 2
10 -1 77 -1 183 -1 #SUP: 2
10 -1 77 -1 599 -1 #SUP: 3
10 -1 123 -1 441 -1 #SUP: 2
11 -1 22 -1 32 -1 #SUP: 2
11 -1 32 -1 1554 -1 #SUP: 2
11 -1 32 -1 5438 -1 #SUP: 2
11 -1 64 -1 22 -1 #SUP: 2
11 -1 64 -1 32 -1 #SUP: 3
11 -1 64 -1 1554 -1 #SUP: 2
11 -1 64 -1 5438 -1 #SUP: 2
11 -1 5438 -1 1554 -1 #SUP: 2
16 -1 22 -1 2 -1 #SUP: 2
16 -1 22 -1 154 -1 #SUP: 2
16 -1 77 -1 154 -1 #SUP: 2
16 -1 170 -1 22 -1 #SUP: 2
16 -1 24847 -1 22 -1 #SUP: 2
22 -1 2 -1 77 -1 #SUP: 2
22 -1 2 -1 154 -1 #SUP: 2
22 -1 10 -1 77 -1 #SUP: 2
22 -1 10 -1 599 -1 #SUP: 2
22 -1 11 -1 64 -1 #SUP: 2
22 -1 16 -1 67 -1 #SUP: 2
22 -1 22 -1 10 -1 #SUP: 2
22 -1 22 -1 11 -1 #SUP: 2
22 -1 22 -1 32 -1 #SUP: 2
22 -1 22 -1 64 -1 #SUP: 3
22 -1 22 -1 77 -1 #SUP: 2
22 -1 22 -1 146 -1 #SUP: 2
22 -1 22 -1 183 -1 #SUP: 2
22 -1 22 -1 599 -1 #SUP: 2
22 -1 29 -1 2868 -1 #SUP: 2
22 -1 31 -1 220 -1 #SUP: 2
22 -1 32 -1 2 -1 #SUP: 2
22 -1 32 -1 10 -1 #SUP: 3
22 -1 32 -1 11 -1 #SUP: 3
22 -1 32 -1 16 -1 #SUP: 2
22 -1 32 -1 22 -1 #SUP: 5
22 -1 32 -1 31 -1 #SUP: 2
22 -1 32 -1 64 -1 #SUP: 3
22 -1 32 -1 77 -1 #SUP: 2
22 -1 32 -1 280 -1 #SUP: 2
22 -1 64 -1 10 -1 #SUP: 2
22 -1 64 -1 22 -1 #SUP: 4
22 -1 64 -1 77 -1 #SUP: 3
22 -1 64 -1 483 -1 #SUP: 2
22 -1 65 -1 11 -1 #SUP: 2
22 -1 65 -1 147 -1 #SUP: 2
22 -1 70 -1 22 -1 #SUP: 2
22 -1 77 -1 2 -1 #SUP: 4
22 -1 77 -1 22 -1 #SUP: 2
22 -1 77 -1 50 -1 #SUP: 2
22 -1 77 -1 64 -1 #SUP: 2
22 -1 77 -1 65 -1 #SUP: 3
22 -1 77 -1 67 -1 #SUP: 2
22 -1 77 -1 77 -1 #SUP: 4
22 -1 77 -1 123 -1 #SUP: 3
22 -1 77 -1 154 -1 #SUP: 2
22 -1 77 -1 193 -1 #SUP: 2
22 -1 77 -1 220 -1 #SUP: 2
22 -1 77 -1 256 -1 #SUP: 2
22 -1 77 -1 529 -1 #SUP: 2
22 -1 77 -1 599 -1 #SUP: 4
22 -1 78 -1 77 -1 #SUP: 3
22 -1 123 -1 77 -1 #SUP: 2
22 -1 154 -1 16 -1 #SUP: 3
22 -1 154 -1 65 -1 #SUP: 3
22 -1 154 -1 67 -1 #SUP: 2
22 -1 154 -1 77 -1 #SUP: 2
22 -1 154 -1 170 -1 #SUP: 2
22 -1 154 -1 183 -1 #SUP: 2
22 -1 154 -1 193 -1 #SUP: 2
22 -1 154 -1 220 -1 #SUP: 4
22 -1 170 -1 65 -1 #SUP: 2
22 -1 183 -1 22 -1 #SUP: 2
22 -1 183 -1 32 -1 #SUP: 2
22 -1 193 -1 65 -1 #SUP: 2
22 -1 193 -1 77 -1 #SUP: 2
22 -1 193 -1 220 -1 #SUP: 3
22 -1 206 -1 77 -1 #SUP: 2
22 -1 220 -1 16 -1 #SUP: 2
22 -1 220 -1 65 -1 #SUP: 2
22 -1 220 -1 67 -1 #SUP: 2
22 -1 254 -1 77 -1 #SUP: 2
22 -1 262 -1 2 -1 #SUP: 2
22 -1 280 -1 77 -1 #SUP: 2
22 -1 326 -1 11 -1 #SUP: 2
22 -1 483 -1 22 -1 #SUP: 2
22 -1 529 -1 77 -1 #SUP: 2
22 -1 599 -1 2 -1 #SUP: 2
22 -1 599 -1 77 -1 #SUP: 3
22 -1 599 -1 529 -1 #SUP: 2
22 -1 960 -1 65 -1 #SUP: 2
22 -1 960 -1 154 -1 #SUP: 2
22 -1 960 -1 170 -1 #SUP: 2
22 -1 1517 -1 154 -1 #SUP: 2
22 -1 1517 -1 220 -1 #SUP: 2
22 -1 1546 -1 64 -1 #SUP: 2
22 -1 1546 -1 77 -1 #SUP: 2
22 -1 1546 -1 599 -1 #SUP: 2
22 -1 5425 -1 256 -1 #SUP: 2
22 -1 5425 -1 1357 -1 #SUP: 2
22 -1 17173 -1 32 -1 #SUP: 2
27 -1 2104 -1 356 -1 #SUP: 2
29 -1 77 -1 170 -1 #SUP: 2
31 -1 16 -1 67 -1 #SUP: 2
31 -1 220 -1 16 -1 #SUP: 2
31 -1 220 -1 67 -1 #SUP: 2
32 -1 11 -1 64 -1 #SUP: 2
32 -1 11 -1 146 -1 #SUP: 2
32 -1 22 -1 2 -1 #SUP: 2
32 -1 22 -1 10 -1 #SUP: 2
32 -1 22 -1 11 -1 #SUP: 3
32 -1 22 -1 22 -1 #SUP: 2
32 -1 22 -1 29 -1 #SUP: 2
32 -1 22 -1 32 -1 #SUP: 2
32 -1 22 -1 64 -1 #SUP: 2
32 -1 22 -1 76 -1 #SUP: 2
32 -1 22 -1 77 -1 #SUP: 3
32 -1 22 -1 123 -1 #SUP: 2
32 -1 22 -1 146 -1 #SUP: 2
32 -1 33 -1 2 -1 #SUP: 2
32 -1 33 -1 77 -1 #SUP: 2
32 -1 64 -1 22 -1 #SUP: 2
32 -1 64 -1 32 -1 #SUP: 2
32 -1 65 -1 2 -1 #SUP: 3
32 -1 77 -1 2 -1 #SUP: 4
32 -1 77 -1 67 -1 #SUP: 2
32 -1 77 -1 77 -1 #SUP: 2
32 -1 77 -1 154 -1 #SUP: 2
32 -1 146 -1 2 -1 #SUP: 2
32 -1 171 -1 280 -1 #SUP: 2
32 -1 262 -1 2 -1 #SUP: 2
32 -1 5438 -1 1554 -1 #SUP: 2
33 -1 22 -1 2 -1 #SUP: 3
33 -1 32 -1 2813 -1 #SUP: 2
33 -1 50 -1 32 -1 #SUP: 2
33 -1 50 -1 2813 -1 #SUP: 2
33 -1 77 -1 2 -1 #SUP: 2
33 -1 157 -1 2 -1 #SUP: 2
41 -1 2 -1 193 -1 #SUP: 2
41 -1 10 -1 77 -1 #SUP: 2
41 -1 10 -1 599 -1 #SUP: 2
41 -1 77 -1 599 -1 #SUP: 2
41 -1 154 -1 183 -1 #SUP: 2
41 -1 921 -1 262 -1 #SUP: 2
50 -1 32 -1 2813 -1 #SUP: 2
50 -1 64 -1 2 -1 #SUP: 2
50 -1 64 -1 22 -1 #SUP: 2
50 -1 64 -1 64 -1 #SUP: 2
50 -1 77 -1 2 -1 #SUP: 2
50 -1 77 -1 77 -1 #SUP: 2
50 -1 77 -1 599 -1 #SUP: 2
64 -1 2 -1 64 -1 #SUP: 2
64 -1 2 -1 77 -1 #SUP: 2
64 -1 10 -1 13 -1 #SUP: 2
64 -1 10 -1 77 -1 #SUP: 2
64 -1 10 -1 123 -1 #SUP: 2
64 -1 22 -1 2 -1 #SUP: 2
64 -1 22 -1 10 -1 #SUP: 2
64 -1 22 -1 22 -1 #SUP: 2
64 -1 22 -1 32 -1 #SUP: 5
64 -1 22 -1 64 -1 #SUP: 2
64 -1 22 -1 77 -1 #SUP: 3
64 -1 22 -1 254 -1 #SUP: 2
64 -1 22 -1 256 -1 #SUP: 2
64 -1 32 -1 22 -1 #SUP: 2
64 -1 32 -1 1554 -1 #SUP: 2
64 -1 32 -1 5438 -1 #SUP: 2
64 -1 47 -1 77 -1 #SUP: 2
64 -1 64 -1 10 -1 #SUP: 2
64 -1 64 -1 22 -1 #SUP: 4
64 -1 64 -1 77 -1 #SUP: 3
64 -1 67 -1 32 -1 #SUP: 2
64 -1 77 -1 2 -1 #SUP: 2
64 -1 77 -1 10 -1 #SUP: 2
64 -1 77 -1 64 -1 #SUP: 3
64 -1 77 -1 77 -1 #SUP: 4
64 -1 77 -1 123 -1 #SUP: 4
64 -1 77 -1 134 -1 #SUP: 2
64 -1 77 -1 193 -1 #SUP: 3
64 -1 77 -1 256 -1 #SUP: 2
64 -1 77 -1 356 -1 #SUP: 2
64 -1 77 -1 599 -1 #SUP: 4
64 -1 160 -1 64 -1 #SUP: 2
64 -1 193 -1 77 -1 #SUP: 2
64 -1 254 -1 22 -1 #SUP: 2
64 -1 254 -1 64 -1 #SUP: 2
64 -1 254 -1 77 -1 #SUP: 2
64 -1 483 -1 22 -1 #SUP: 2
64 -1 567 -1 64 -1 #SUP: 2
64 -1 599 -1 123 -1 #SUP: 2
64 -1 599 -1 193 -1 #SUP: 2
64 -1 1001 -1 77 -1 #SUP: 2
64 -1 1688 -1 10 -1 #SUP: 2
64 -1 5438 -1 1554 -1 #SUP: 2
65 -1 2 -1 32 -1 #SUP: 2
65 -1 2 -1 151 -1 #SUP: 2
65 -1 11 -1 146 -1 #SUP: 2
65 -1 22 -1 2 -1 #SUP: 3
65 -1 22 -1 77 -1 #SUP: 2
65 -1 22 -1 146 -1 #SUP: 2
65 -1 32 -1 2 -1 #SUP: 2
65 -1 32 -1 22 -1 #SUP: 4
65 -1 32 -1 77 -1 #SUP: 2
65 -1 32 -1 146 -1 #SUP: 2
65 -1 32 -1 280 -1 #SUP: 2
65 -1 33 -1 2 -1 #SUP: 3
65 -1 33 -1 22 -1 #SUP: 3
65 -1 33 -1 77 -1 #SUP: 2
65 -1 64 -1 32 -1 #SUP: 2
65 -1 77 -1 2 -1 #SUP: 4
65 -1 77 -1 77 -1 #SUP: 2
65 -1 77 -1 123 -1 #SUP: 2
65 -1 77 -1 193 -1 #SUP: 2
65 -1 77 -1 599 -1 #SUP: 2
65 -1 146 -1 2 -1 #SUP: 2
65 -1 165 -1 64 -1 #SUP: 2
65 -1 165 -1 67 -1 #SUP: 2
65 -1 599 -1 123 -1 #SUP: 2
65 -1 1942 -1 11 -1 #SUP: 2
67 -1 22 -1 11 -1 #SUP: 2
67 -1 32 -1 11 -1 #SUP: 2
67 -1 32 -1 22 -1 #SUP: 2
67 -1 152 -1 30 -1 #SUP: 2
67 -1 152 -1 1817 -1 #SUP: 2
67 -1 152 -1 4335 -1 #SUP: 2
67 -1 1817 -1 30 -1 #SUP: 2
67 -1 4335 -1 30 -1 #SUP: 2
67 -1 4335 -1 1817 -1 #SUP: 2
70 -1 22 -1 77 -1 #SUP: 2
70 -1 22 -1 146 -1 #SUP: 2
70 -1 22 -1 529 -1 #SUP: 2
70 -1 22 -1 599 -1 #SUP: 2
70 -1 32 -1 22 -1 #SUP: 2
70 -1 32 -1 146 -1 #SUP: 2
70 -1 65 -1 22 -1 #SUP: 2
70 -1 65 -1 32 -1 #SUP: 2
70 -1 65 -1 146 -1 #SUP: 2
70 -1 77 -1 77 -1 #SUP: 2
70 -1 77 -1 529 -1 #SUP: 2
70 -1 77 -1 599 -1 #SUP: 2
70 -1 529 -1 77 -1 #SUP: 2
70 -1 599 -1 77 -1 #SUP: 2
70 -1 599 -1 529 -1 #SUP: 2
77 -1 2 -1 22 -1 #SUP: 2
77 -1 2 -1 31 -1 #SUP: 2
77 -1 2 -1 64 -1 #SUP: 3
77 -1 2 -1 77 -1 #SUP: 3
77 -1 2 -1 123 -1 #SUP: 2
77 -1 2 -1 154 -1 #SUP: 3
77 -1 2 -1 167 -1 #SUP: 2
77 -1 10 -1 123 -1 #SUP: 2
77 -1 11 -1 64 -1 #SUP: 2
77 -1 16 -1 67 -1 #SUP: 2
77 -1 22 -1 11 -1 #SUP: 3
77 -1 22 -1 22 -1 #SUP: 5
77 -1 22 -1 32 -1 #SUP: 2
77 -1 22 -1 64 -1 #SUP: 3
77 -1 22 -1 65 -1 #SUP: 2
77 -1 22 -1 77 -1 #SUP: 3
77 -1 22 -1 146 -1 #SUP: 2
77 -1 22 -1 154 -1 #SUP: 2
77 -1 22 -1 183 -1 #SUP: 2
77 -1 29 -1 77 -1 #SUP: 2
77 -1 31 -1 22 -1 #SUP: 2
77 -1 32 -1 11 -1 #SUP: 3
77 -1 32 -1 22 -1 #SUP: 4
77 -1 32 -1 280 -1 #SUP: 2
77 -1 50 -1 22 -1 #SUP: 2
77 -1 50 -1 1946 -1 #SUP: 2
77 -1 50 -1 8708 -1 #SUP: 2
77 -1 64 -1 2 -1 #SUP: 2
77 -1 64 -1 22 -1 #SUP: 4
77 -1 64 -1 32 -1 #SUP: 2
77 -1 64 -1 64 -1 #SUP: 3
77 -1 64 -1 67 -1 #SUP: 2
77 -1 64 -1 77 -1 #SUP: 3
77 -1 64 -1 123 -1 #SUP: 2
77 -1 65 -1 11 -1 #SUP: 2
77 -1 65 -1 32 -1 #SUP: 2
77 -1 65 -1 77 -1 #SUP: 2
77 -1 65 -1 280 -1 #SUP: 2
77 -1 67 -1 11 -1 #SUP: 2
77 -1 67 -1 22 -1 #SUP: 2
77 -1 67 -1 32 -1 #SUP: 2
77 -1 77 -1 2 -1 #SUP: 6
77 -1 77 -1 11 -1 #SUP: 2
77 -1 77 -1 22 -1 #SUP: 3
77 -1 77 -1 50 -1 #SUP: 2
77 -1 77 -1 77 -1 #SUP: 3
77 -1 77 -1 123 -1 #SUP: 3
77 -1 77 -1 154 -1 #SUP: 2
77 -1 77 -1 170 -1 #SUP: 2
77 -1 77 -1 356 -1 #SUP: 2
77 -1 77 -1 8708 -1 #SUP: 2
77 -1 77 -1 9147 -1 #SUP: 2
77 -1 78 -1 65 -1 #SUP: 2
77 -1 123 -1 2 -1 #SUP: 3
77 -1 123 -1 64 -1 #SUP: 2
77 -1 123 -1 77 -1 #SUP: 4
77 -1 123 -1 123 -1 #SUP: 2
77 -1 123 -1 262 -1 #SUP: 3
77 -1 123 -1 441 -1 #SUP: 2
77 -1 123 -1 765 -1 #SUP: 2
77 -1 154 -1 2 -1 #SUP: 2
77 -1 154 -1 16 -1 #SUP: 2
77 -1 154 -1 64 -1 #SUP: 4
77 -1 154 -1 65 -1 #SUP: 2
77 -1 154 -1 67 -1 #SUP: 2
77 -1 154 -1 183 -1 #SUP: 2
77 -1 160 -1 64 -1 #SUP: 3
77 -1 160 -1 67 -1 #SUP: 2
77 -1 167 -1 64 -1 #SUP: 2
77 -1 170 -1 154 -1 #SUP: 2
77 -1 183 -1 22 -1 #SUP: 3
77 -1 183 -1 64 -1 #SUP: 2
77 -1 193 -1 16 -1 #SUP: 2
77 -1 193 -1 64 -1 #SUP: 4
77 -1 193 -1 67 -1 #SUP: 3
77 -1 193 -1 77 -1 #SUP: 2
77 -1 193 -1 154 -1 #SUP: 4
77 -1 193 -1 170 -1 #SUP: 2
77 -1 206 -1 77 -1 #SUP: 2
77 -1 220 -1 16 -1 #SUP: 2
77 -1 220 -1 67 -1 #SUP: 3
77 -1 262 -1 2 -1 #SUP: 3
77 -1 262 -1 77 -1 #SUP: 3
77 -1 318 -1 32 -1 #SUP: 2
77 -1 441 -1 2 -1 #SUP: 2
77 -1 441 -1 77 -1 #SUP: 2
77 -1 441 -1 262 -1 #SUP: 2
77 -1 529 -1 77 -1 #SUP: 2
77 -1 567 -1 955 -1 #SUP: 2
77 -1 599 -1 2 -1 #SUP: 4
77 -1 599 -1 64 -1 #SUP: 4
77 -1 599 -1 77 -1 #SUP: 3
77 -1 599 -1 123 -1 #SUP: 4
77 -1 599 -1 154 -1 #SUP: 3
77 -1 599 -1 193 -1 #SUP: 2
77 -1 599 -1 256 -1 #SUP: 2
77 -1 599 -1 529 -1 #SUP: 2
77 -1 599 -1 1165 -1 #SUP: 2
77 -1 648 -1 64 -1 #SUP: 2
77 -1 648 -1 160 -1 #SUP: 2
77 -1 765 -1 167 -1 #SUP: 2
77 -1 1617 -1 2 -1 #SUP: 2
77 -1 9147 -1 11 -1 #SUP: 2
78 -1 22 -1 154 -1 #SUP: 2
78 -1 22 -1 183 -1 #SUP: 2
78 -1 65 -1 32 -1 #SUP: 2
78 -1 65 -1 77 -1 #SUP: 2
78 -1 77 -1 2 -1 #SUP: 2
78 -1 154 -1 183 -1 #SUP: 2
78 -1 193 -1 16 -1 #SUP: 2
120 -1 22 -1 77 -1 #SUP: 2
120 -1 22 -1 123 -1 #SUP: 2
120 -1 77 -1 123 -1 #SUP: 2
120 -1 144 -1 262 -1 #SUP: 2
123 -1 2 -1 77 -1 #SUP: 2
123 -1 22 -1 22 -1 #SUP: 2
123 -1 22 -1 77 -1 #SUP: 4
123 -1 22 -1 355 -1 #SUP: 2
123 -1 22 -1 599 -1 #SUP: 2
123 -1 32 -1 77 -1 #SUP: 2
123 -1 50 -1 77 -1 #SUP: 2
123 -1 50 -1 256 -1 #SUP: 2
123 -1 64 -1 16 -1 #SUP: 2
123 -1 64 -1 29 -1 #SUP: 2
123 -1 64 -1 64 -1 #SUP: 3
123 -1 64 -1 77 -1 #SUP: 2
123 -1 65 -1 77 -1 #SUP: 3
123 -1 77 -1 2 -1 #SUP: 2
123 -1 77 -1 78 -1 #SUP: 2
123 -1 77 -1 123 -1 #SUP: 3
123 -1 77 -1 599 -1 #SUP: 5
123 -1 78 -1 65 -1 #SUP: 3
123 -1 78 -1 77 -1 #SUP: 3
123 -1 120 -1 22 -1 #SUP: 2
123 -1 120 -1 77 -1 #SUP: 2
123 -1 120 -1 144 -1 #SUP: 2
123 -1 120 -1 286 -1 #SUP: 2
123 -1 144 -1 262 -1 #SUP: 2
123 -1 206 -1 64 -1 #SUP: 2
123 -1 206 -1 77 -1 #SUP: 2
123 -1 226 -1 64 -1 #SUP: 2
123 -1 226 -1 711 -1 #SUP: 2
123 -1 262 -1 2 -1 #SUP: 3
123 -1 262 -1 64 -1 #SUP: 2
123 -1 262 -1 77 -1 #SUP: 4
123 -1 262 -1 123 -1 #SUP: 2
123 -1 263 -1 2 -1 #SUP: 2
123 -1 326 -1 11 -1 #SUP: 2
123 -1 326 -1 3121 -1 #SUP: 2
123 -1 441 -1 2 -1 #SUP: 2
123 -1 441 -1 10 -1 #SUP: 2
123 -1 441 -1 22 -1 #SUP: 2
123 -1 441 -1 77 -1 #SUP: 4
123 -1 441 -1 262 -1 #SUP: 2
123 -1 441 -1 599 -1 #SUP: 2
123 -1 599 -1 123 -1 #SUP: 2
123 -1 765 -1 167 -1 #SUP: 2
123 -1 810 -1 64 -1 #SUP: 2
123 -1 3121 -1 11 -1 #SUP: 2
146 -1 22 -1 32 -1 #SUP: 2
146 -1 32 -1 22 -1 #SUP: 2
146 -1 32 -1 32 -1 #SUP: 2
146 -1 32 -1 64 -1 #SUP: 2
146 -1 32 -1 1554 -1 #SUP: 2
146 -1 32 -1 5438 -1 #SUP: 2
146 -1 64 -1 22 -1 #SUP: 2
146 -1 64 -1 32 -1 #SUP: 2
146 -1 5438 -1 1554 -1 #SUP: 2
152 -1 1817 -1 30 -1 #SUP: 2
152 -1 4335 -1 30 -1 #SUP: 2
152 -1 4335 -1 1817 -1 #SUP: 2
154 -1 2 -1 64 -1 #SUP: 2
154 -1 2 -1 154 -1 #SUP: 2
154 -1 10 -1 77 -1 #SUP: 2
154 -1 16 -1 67 -1 #SUP: 2
154 -1 41 -1 10 -1 #SUP: 2
154 -1 64 -1 77 -1 #SUP: 2
154 -1 65 -1 77 -1 #SUP: 2
154 -1 77 -1 2 -1 #SUP: 2
154 -1 77 -1 65 -1 #SUP: 2
154 -1 77 -1 77 -1 #SUP: 3
154 -1 77 -1 123 -1 #SUP: 2
154 -1 77 -1 206 -1 #SUP: 2
154 -1 150 -1 64 -1 #SUP: 2
154 -1 170 -1 2 -1 #SUP: 2
154 -1 170 -1 65 -1 #SUP: 3
154 -1 183 -1 2 -1 #SUP: 3
154 -1 183 -1 64 -1 #SUP: 2
154 -1 193 -1 65 -1 #SUP: 2
154 -1 193 -1 77 -1 #SUP: 2
154 -1 193 -1 123 -1 #SUP: 2
154 -1 193 -1 206 -1 #SUP: 2
154 -1 193 -1 220 -1 #SUP: 2
154 -1 206 -1 77 -1 #SUP: 2
154 -1 220 -1 16 -1 #SUP: 2
154 -1 220 -1 65 -1 #SUP: 2
154 -1 220 -1 67 -1 #SUP: 2
154 -1 220 -1 78 -1 #SUP: 2
154 -1 349 -1 2 -1 #SUP: 2
154 -1 349 -1 64 -1 #SUP: 2
160 -1 32 -1 22 -1 #SUP: 2
160 -1 64 -1 22 -1 #SUP: 2
160 -1 64 -1 32 -1 #SUP: 2
160 -1 64 -1 67 -1 #SUP: 2
162 -1 77 -1 2 -1 #SUP: 2
162 -1 77 -1 77 -1 #SUP: 2
162 -1 225 -1 765 -1 #SUP: 2
164 -1 77 -1 64 -1 #SUP: 2
164 -1 77 -1 193 -1 #SUP: 2
165 -1 67 -1 64 -1 #SUP: 2
170 -1 2 -1 64 -1 #SUP: 2
170 -1 22 -1 22 -1 #SUP: 2
170 -1 31 -1 64 -1 #SUP: 2
170 -1 10075 -1 64 -1 #SUP: 2
170 -1 24847 -1 64 -1 #SUP: 2
170 -1 24847 -1 10075 -1 #SUP: 2
171 -1 67 -1 152 -1 #SUP: 2
171 -1 67 -1 1817 -1 #SUP: 2
171 -1 67 -1 4335 -1 #SUP: 2
171 -1 152 -1 1817 -1 #SUP: 2
171 -1 152 -1 4335 -1 #SUP: 2
171 -1 226 -1 67 -1 #SUP: 2
171 -1 226 -1 152 -1 #SUP: 2
171 -1 226 -1 1817 -1 #SUP: 2
171 -1 226 -1 4335 -1 #SUP: 2
171 -1 280 -1 152 -1 #SUP: 2
171 -1 4335 -1 1817 -1 #SUP: 2
183 -1 2 -1 64 -1 #SUP: 2
183 -1 2 -1 154 -1 #SUP: 2
183 -1 16 -1 22 -1 #SUP: 2
183 -1 16 -1 77 -1 #SUP: 2
183 -1 16 -1 154 -1 #SUP: 2
183 -1 22 -1 32 -1 #SUP: 2
183 -1 22 -1 154 -1 #SUP: 2
183 -1 77 -1 154 -1 #SUP: 2
183 -1 154 -1 183 -1 #SUP: 2
183 -1 170 -1 1307 -1 #SUP: 2
193 -1 64 -1 2 -1 #SUP: 2
193 -1 77 -1 123 -1 #SUP: 2
193 -1 154 -1 64 -1 #SUP: 3
193 -1 206 -1 77 -1 #SUP: 2
193 -1 220 -1 65 -1 #SUP: 2
206 -1 10 -1 64 -1 #SUP: 2
206 -1 10 -1 77 -1 #SUP: 2
206 -1 64 -1 77 -1 #SUP: 3
206 -1 64 -1 123 -1 #SUP: 2
206 -1 77 -1 64 -1 #SUP: 2
206 -1 77 -1 123 -1 #SUP: 2
206 -1 77 -1 599 -1 #SUP: 2
206 -1 599 -1 64 -1 #SUP: 2
220 -1 16 -1 67 -1 #SUP: 3
220 -1 165 -1 67 -1 #SUP: 2
222 -1 77 -1 29 -1 #SUP: 2
226 -1 67 -1 30 -1 #SUP: 2
226 -1 67 -1 152 -1 #SUP: 2
226 -1 67 -1 1817 -1 #SUP: 2
226 -1 67 -1 4335 -1 #SUP: 2
226 -1 152 -1 30 -1 #SUP: 2
226 -1 152 -1 1817 -1 #SUP: 2
226 -1 152 -1 4335 -1 #SUP: 2
226 -1 1817 -1 30 -1 #SUP: 2
226 -1 4335 -1 30 -1 #SUP: 2
226 -1 4335 -1 1817 -1 #SUP: 2
254 -1 22 -1 64 -1 #SUP: 2
254 -1 22 -1 254 -1 #SUP: 2
254 -1 64 -1 22 -1 #SUP: 3
254 -1 64 -1 254 -1 #SUP: 2
262 -1 77 -1 2 -1 #SUP: 2
262 -1 77 -1 64 -1 #SUP: 2
262 -1 77 -1 123 -1 #SUP: 2
278 -1 77 -1 599 -1 #SUP: 2
326 -1 11 -1 64 -1 #SUP: 3
326 -1 11 -1 67 -1 #SUP: 2
326 -1 11 -1 193 -1 #SUP: 2
326 -1 3121 -1 11 -1 #SUP: 2
369 -1 32 -1 22 -1 #SUP: 2
369 -1 64 -1 22 -1 #SUP: 2
369 -1 64 -1 32 -1 #SUP: 2
369 -1 160 -1 22 -1 #SUP: 2
369 -1 160 -1 32 -1 #SUP: 2
369 -1 160 -1 64 -1 #SUP: 2
381 -1 77 -1 2 -1 #SUP: 2
441 -1 2 -1 77 -1 #SUP: 2
441 -1 22 -1 22 -1 #SUP: 2
441 -1 22 -1 77 -1 #SUP: 2
441 -1 77 -1 154 -1 #SUP: 2
441 -1 77 -1 599 -1 #SUP: 2
441 -1 262 -1 2 -1 #SUP: 2
441 -1 262 -1 77 -1 #SUP: 2
441 -1 599 -1 154 -1 #SUP: 2
519 -1 77 -1 123 -1 #SUP: 2
519 -1 77 -1 599 -1 #SUP: 2
519 -1 599 -1 123 -1 #SUP: 2
567 -1 64 -1 22 -1 #SUP: 2
599 -1 22 -1 64 -1 #SUP: 2
599 -1 64 -1 134 -1 #SUP: 2
599 -1 77 -1 2 -1 #SUP: 2
599 -1 123 -1 64 -1 #SUP: 3
599 -1 529 -1 77 -1 #SUP: 2
648 -1 160 -1 64 -1 #SUP: 2
850 -1 77 -1 22 -1 #SUP: 2
960 -1 154 -1 65 -1 #SUP: 2
960 -1 154 -1 170 -1 #SUP: 2
960 -1 170 -1 65 -1 #SUP: 2
1517 -1 154 -1 220 -1 #SUP: 2
1546 -1 64 -1 22 -1 #SUP: 2
1546 -1 64 -1 77 -1 #SUP: 2
1546 -1 77 -1 599 -1 #SUP: 2
1942 -1 11 -1 11 -1 #SUP: 2
4335 -1 1817 -1 30 -1 #SUP: 2
5937 -1 222 -1 64 -1 #SUP: 2
24847 -1 10075 -1 64 -1 #SUP: 2
24847 -1 10075 -1 77 -1 #SUP: 2
31347 -1 77 -1 193 -1 #SUP: 2
31347 -1 78 -1 193 -1 #SUP: 2
11 -1 32 -1 5438 -1 1554 -1 #SUP: 2
11 -1 64 -1 22 -1 32 -1 #SUP: 2
11 -1 64 -1 32 -1 1554 -1 #SUP: 2
11 -1 64 -1 32 -1 5438 -1 #SUP: 2
11 -1 64 -1 5438 -1 1554 -1 #SUP: 2
22 -1 10 -1 77 -1 599 -1 #SUP: 2
22 -1 22 -1 77 -1 599 -1 #SUP: 2
22 -1 32 -1 11 -1 64 -1 #SUP: 2
22 -1 32 -1 22 -1 10 -1 #SUP: 2
22 -1 32 -1 22 -1 11 -1 #SUP: 2
22 -1 32 -1 22 -1 64 -1 #SUP: 2
22 -1 64 -1 483 -1 22 -1 #SUP: 2
22 -1 77 -1 2 -1 154 -1 #SUP: 2
22 -1 77 -1 123 -1 77 -1 #SUP: 2
22 -1 77 -1 529 -1 77 -1 #SUP: 2
22 -1 77 -1 599 -1 2 -1 #SUP: 2
22 -1 77 -1 599 -1 77 -1 #SUP: 3
22 -1 77 -1 599 -1 529 -1 #SUP: 2
22 -1 154 -1 16 -1 67 -1 #SUP: 2
22 -1 154 -1 77 -1 65 -1 #SUP: 2
22 -1 154 -1 170 -1 65 -1 #SUP: 2
22 -1 154 -1 193 -1 65 -1 #SUP: 2
22 -1 154 -1 193 -1 220 -1 #SUP: 2
22 -1 154 -1 220 -1 16 -1 #SUP: 2
22 -1 154 -1 220 -1 65 -1 #SUP: 2
22 -1 154 -1 220 -1 67 -1 #SUP: 2
22 -1 183 -1 22 -1 32 -1 #SUP: 2
22 -1 193 -1 220 -1 65 -1 #SUP: 2
22 -1 220 -1 16 -1 67 -1 #SUP: 2
22 -1 599 -1 529 -1 77 -1 #SUP: 2
22 -1 960 -1 154 -1 65 -1 #SUP: 2
22 -1 960 -1 154 -1 170 -1 #SUP: 2
22 -1 960 -1 170 -1 65 -1 #SUP: 2
22 -1 1517 -1 154 -1 220 -1 #SUP: 2
22 -1 1546 -1 64 -1 77 -1 #SUP: 2
22 -1 1546 -1 77 -1 599 -1 #SUP: 2
31 -1 220 -1 16 -1 67 -1 #SUP: 2
32 -1 22 -1 77 -1 2 -1 #SUP: 2
32 -1 33 -1 77 -1 2 -1 #SUP: 2
32 -1 64 -1 22 -1 32 -1 #SUP: 2
32 -1 77 -1 77 -1 2 -1 #SUP: 2
33 -1 50 -1 32 -1 2813 -1 #SUP: 2
41 -1 10 -1 77 -1 599 -1 #SUP: 2
50 -1 77 -1 77 -1 2 -1 #SUP: 2
64 -1 22 -1 2 -1 77 -1 #SUP: 2
64 -1 22 -1 64 -1 77 -1 #SUP: 2
64 -1 22 -1 77 -1 256 -1 #SUP: 2
64 -1 22 -1 254 -1 77 -1 #SUP: 2
64 -1 32 -1 5438 -1 1554 -1 #SUP: 2
64 -1 77 -1 10 -1 123 -1 #SUP: 2
64 -1 77 -1 64 -1 77 -1 #SUP: 2
64 -1 77 -1 193 -1 77 -1 #SUP: 2
64 -1 77 -1 599 -1 123 -1 #SUP: 2
64 -1 77 -1 599 -1 193 -1 #SUP: 2
64 -1 254 -1 64 -1 22 -1 #SUP: 2
65 -1 22 -1 77 -1 2 -1 #SUP: 2
65 -1 32 -1 22 -1 2 -1 #SUP: 2
65 -1 32 -1 22 -1 77 -1 #SUP: 2
65 -1 32 -1 22 -1 146 -1 #SUP: 2
65 -1 32 -1 77 -1 2 -1 #SUP: 2
65 -1 33 -1 22 -1 2 -1 #SUP: 2
65 -1 33 -1 77 -1 2 -1 #SUP: 2
65 -1 77 -1 77 -1 2 -1 #SUP: 2
65 -1 77 -1 599 -1 123 -1 #SUP: 2
67 -1 32 -1 22 -1 11 -1 #SUP: 2
67 -1 152 -1 1817 -1 30 -1 #SUP: 2
67 -1 152 -1 4335 -1 30 -1 #SUP: 2
67 -1 152 -1 4335 -1 1817 -1 #SUP: 2
67 -1 4335 -1 1817 -1 30 -1 #SUP: 2
70 -1 22 -1 77 -1 77 -1 #SUP: 2
70 -1 22 -1 77 -1 529 -1 #SUP: 2
70 -1 22 -1 77 -1 599 -1 #SUP: 2
70 -1 22 -1 529 -1 77 -1 #SUP: 2
70 -1 22 -1 599 -1 77 -1 #SUP: 2
70 -1 22 -1 599 -1 529 -1 #SUP: 2
70 -1 32 -1 22 -1 146 -1 #SUP: 2
70 -1 65 -1 22 -1 146 -1 #SUP: 2
70 -1 65 -1 32 -1 22 -1 #SUP: 2
70 -1 65 -1 32 -1 146 -1 #SUP: 2
70 -1 77 -1 529 -1 77 -1 #SUP: 2
70 -1 77 -1 599 -1 77 -1 #SUP: 2
70 -1 77 -1 599 -1 529 -1 #SUP: 2
70 -1 599 -1 529 -1 77 -1 #SUP: 2
77 -1 2 -1 77 -1 123 -1 #SUP: 2
77 -1 2 -1 154 -1 64 -1 #SUP: 2
77 -1 2 -1 167 -1 64 -1 #SUP: 2
77 -1 22 -1 22 -1 11 -1 #SUP: 2
77 -1 22 -1 32 -1 11 -1 #SUP: 2
77 -1 22 -1 32 -1 22 -1 #SUP: 2
77 -1 22 -1 64 -1 22 -1 #SUP: 2
77 -1 22 -1 183 -1 22 -1 #SUP: 2
77 -1 32 -1 22 -1 11 -1 #SUP: 3
77 -1 64 -1 77 -1 123 -1 #SUP: 2
77 -1 65 -1 32 -1 280 -1 #SUP: 2
77 -1 67 -1 22 -1 11 -1 #SUP: 2
77 -1 67 -1 32 -1 11 -1 #SUP: 2
77 -1 67 -1 32 -1 22 -1 #SUP: 2
77 -1 77 -1 50 -1 8708 -1 #SUP: 2
77 -1 77 -1 9147 -1 11 -1 #SUP: 2
77 -1 123 -1 2 -1 77 -1 #SUP: 2
77 -1 123 -1 77 -1 2 -1 #SUP: 2
77 -1 123 -1 262 -1 2 -1 #SUP: 3
77 -1 123 -1 262 -1 77 -1 #SUP: 3
77 -1 123 -1 441 -1 2 -1 #SUP: 2
77 -1 123 -1 441 -1 77 -1 #SUP: 2
77 -1 123 -1 441 -1 262 -1 #SUP: 2
77 -1 160 -1 64 -1 67 -1 #SUP: 2
77 -1 193 -1 154 -1 64 -1 #SUP: 2
77 -1 220 -1 16 -1 67 -1 #SUP: 2
77 -1 262 -1 77 -1 2 -1 #SUP: 2
77 -1 441 -1 2 -1 77 -1 #SUP: 2
77 -1 441 -1 262 -1 2 -1 #SUP: 2
77 -1 441 -1 262 -1 77 -1 #SUP: 2
77 -1 599 -1 77 -1 2 -1 #SUP: 2
77 -1 599 -1 123 -1 64 -1 #SUP: 2
77 -1 599 -1 529 -1 77 -1 #SUP: 2
77 -1 648 -1 160 -1 64 -1 #SUP: 2
78 -1 22 -1 154 -1 183 -1 #SUP: 2
120 -1 22 -1 77 -1 123 -1 #SUP: 2
123 -1 22 -1 77 -1 599 -1 #SUP: 2
123 -1 77 -1 599 -1 123 -1 #SUP: 2
123 -1 78 -1 65 -1 77 -1 #SUP: 2
123 -1 120 -1 22 -1 77 -1 #SUP: 2
123 -1 262 -1 77 -1 2 -1 #SUP: 2
123 -1 262 -1 77 -1 123 -1 #SUP: 2
123 -1 326 -1 3121 -1 11 -1 #SUP: 2
123 -1 441 -1 2 -1 77 -1 #SUP: 2
123 -1 441 -1 22 -1 22 -1 #SUP: 2
123 -1 441 -1 22 -1 77 -1 #SUP: 2
123 -1 441 -1 77 -1 599 -1 #SUP: 2
123 -1 441 -1 262 -1 2 -1 #SUP: 2
123 -1 441 -1 262 -1 77 -1 #SUP: 2
146 -1 32 -1 22 -1 32 -1 #SUP: 2
146 -1 32 -1 64 -1 22 -1 #SUP: 2
146 -1 32 -1 64 -1 32 -1 #SUP: 2
146 -1 32 -1 5438 -1 1554 -1 #SUP: 2
146 -1 64 -1 22 -1 32 -1 #SUP: 2
152 -1 4335 -1 1817 -1 30 -1 #SUP: 2
154 -1 77 -1 65 -1 77 -1 #SUP: 2
154 -1 77 -1 206 -1 77 -1 #SUP: 2
154 -1 183 -1 2 -1 64 -1 #SUP: 2
154 -1 193 -1 77 -1 123 -1 #SUP: 2
154 -1 193 -1 206 -1 77 -1 #SUP: 2
154 -1 193 -1 220 -1 65 -1 #SUP: 2
154 -1 220 -1 16 -1 67 -1 #SUP: 2
160 -1 64 -1 32 -1 22 -1 #SUP: 2
170 -1 24847 -1 10075 -1 64 -1 #SUP: 2
171 -1 67 -1 152 -1 1817 -1 #SUP: 2
171 -1 67 -1 152 -1 4335 -1 #SUP: 2
171 -1 67 -1 4335 -1 1817 -1 #SUP: 2
171 -1 152 -1 4335 -1 1817 -1 #SUP: 2
171 -1 226 -1 67 -1 152 -1 #SUP: 2
171 -1 226 -1 67 -1 1817 -1 #SUP: 2
171 -1 226 -1 67 -1 4335 -1 #SUP: 2
171 -1 226 -1 152 -1 1817 -1 #SUP: 2
171 -1 226 -1 152 -1 4335 -1 #SUP: 2
171 -1 226 -1 4335 -1 1817 -1 #SUP: 2
183 -1 16 -1 22 -1 154 -1 #SUP: 2
183 -1 16 -1 77 -1 154 -1 #SUP: 2
206 -1 10 -1 64 -1 77 -1 #SUP: 2
206 -1 64 -1 77 -1 123 -1 #SUP: 2
206 -1 77 -1 599 -1 64 -1 #SUP: 2
226 -1 67 -1 152 -1 30 -1 #SUP: 2
226 -1 67 -1 152 -1 1817 -1 #SUP: 2
226 -1 67 -1 152 -1 4335 -1 #SUP: 2
226 -1 67 -1 1817 -1 30 -1 #SUP: 2
226 -1 67 -1 4335 -1 30 -1 #SUP: 2
226 -1 67 -1 4335 -1 1817 -1 #SUP: 2
226 -1 152 -1 1817 -1 30 -1 #SUP: 2
226 -1 152 -1 4335 -1 30 -1 #SUP: 2
226 -1 152 -1 4335 -1 1817 -1 #SUP: 2
226 -1 4335 -1 1817 -1 30 -1 #SUP: 2
254 -1 64 -1 22 -1 254 -1 #SUP: 2
369 -1 64 -1 32 -1 22 -1 #SUP: 2
369 -1 160 -1 32 -1 22 -1 #SUP: 2
369 -1 160 -1 64 -1 22 -1 #SUP: 2
369 -1 160 -1 64 -1 32 -1 #SUP: 2
441 -1 77 -1 599 -1 154 -1 #SUP: 2
519 -1 77 -1 599 -1 123 -1 #SUP: 2
960 -1 154 -1 170 -1 65 -1 #SUP: 2
11 -1 64 -1 32 -1 5438 -1 1554 -1 #SUP: 2
22 -1 77 -1 599 -1 529 -1 77 -1 #SUP: 2
22 -1 154 -1 193 -1 220 -1 65 -1 #SUP: 2
22 -1 154 -1 220 -1 16 -1 67 -1 #SUP: 2
22 -1 960 -1 154 -1 170 -1 65 -1 #SUP: 2
65 -1 32 -1 22 -1 77 -1 2 -1 #SUP: 2
67 -1 152 -1 4335 -1 1817 -1 30 -1 #SUP: 2
70 -1 22 -1 77 -1 529 -1 77 -1 #SUP: 2
70 -1 22 -1 77 -1 599 -1 77 -1 #SUP: 2
70 -1 22 -1 77 -1 599 -1 529 -1 #SUP: 2
70 -1 22 -1 599 -1 529 -1 77 -1 #SUP: 2
70 -1 65 -1 32 -1 22 -1 146 -1 #SUP: 2
70 -1 77 -1 599 -1 529 -1 77 -1 #SUP: 2
77 -1 22 -1 32 -1 22 -1 11 -1 #SUP: 2
77 -1 67 -1 32 -1 22 -1 11 -1 #SUP: 2
77 -1 123 -1 262 -1 77 -1 2 -1 #SUP: 2
77 -1 123 -1 441 -1 2 -1 77 -1 #SUP: 2
77 -1 123 -1 441 -1 262 -1 2 -1 #SUP: 2
77 -1 123 -1 441 -1 262 -1 77 -1 #SUP: 2
146 -1 32 -1 64 -1 22 -1 32 -1 #SUP: 2
171 -1 67 -1 152 -1 4335 -1 1817 -1 #SUP: 2
171 -1 226 -1 67 -1 152 -1 1817 -1 #SUP: 2
171 -1 226 -1 67 -1 152 -1 4335 -1 #SUP: 2
171 -1 226 -1 67 -1 4335 -1 1817 -1 #SUP: 2
171 -1 226 -1 152 -1 4335 -1 1817 -1 #SUP: 2
226 -1 67 -1 152 -1 1817 -1 30 -1 #SUP: 2
226 -1 67 -1 152 -1 4335 -1 30 -1 #SUP: 2
226 -1 67 -1 152 -1 4335 -1 1817 -1 #SUP: 2
226 -1 67 -1 4335 -1 1817 -1 30 -1 #SUP: 2
226 -1 152 -1 4335 -1 1817 -1 30 -1 #SUP: 2
369 -1 160 -1 64 -1 32 -1 22 -1 #SUP: 2
70 -1 22 -1 77 -1 599 -1 529 -1 77 -1 #SUP: 2
171 -1 226 -1 67 -1 152 -1 4335 -1 1817 -1 #SUP: 2
226 -1 67 -1 152 -1 4335 -1 1817 -1 30 -1 #SUP: 2
