2 -1 #SUP: 30
6 -1 #SUP: 2
7 -1 #SUP: 2
9 -1 #SUP: 2
10 -1 #SUP: 16
13 -1 #SUP: 2
15 -1 #SUP: 2
16 -1 #SUP: 14
22 -1 #SUP: 66
26 -1 #SUP: 2
27 -1 #SUP: 7
28 -1 #SUP: 2
30 -1 #SUP: 2
31 -1 #SUP: 12
32 -1 #SUP: 34
33 -1 #SUP: 6
41 -1 #SUP: 27
42 -1 #SUP: 2
50 -1 #SUP: 15
52 -1 #SUP: 3
54 -1 #SUP: 3
63 -1 #SUP: 2
64 -1 #SUP: 50
65 -1 #SUP: 35
66 -1 #SUP: 7
67 -1 #SUP: 15
70 -1 #SUP: 10
76 -1 #SUP: 4
77 -1 #SUP: 81
78 -1 #SUP: 10
117 -1 #SUP: 6
120 -1 #SUP: 12
123 -1 #SUP: 70
127 -1 #SUP: 4
132 -1 #SUP: 3
140 -1 #SUP: 4
144 -1 #SUP: 6
151 -1 #SUP: 2
152 -1 #SUP: 9
154 -1 #SUP: 35
158 -1 #SUP: 3
159 -1 #SUP: 2
160 -1 #SUP: 3
162 -1 #SUP: 9
164 -1 #SUP: 11
165 -1 #SUP: 2
167 -1 #SUP: 2
168 -1 #SUP: 2
170 -1 #SUP: 18
171 -1 #SUP: 8
174 -1 #SUP: 2
175 -1 #SUP: 5
183 -1 #SUP: 4
189 -1 #SUP: 2
193 -1 #SUP: 20
197 -1 #SUP: 2
198 -1 #SUP: 5
200 -1 #SUP: 4
201 -1 #SUP: 5
205 -1 #SUP: 2
206 -1 #SUP: 7
212 -1 #SUP: 6
213 -1 #SUP: 3
219 -1 #SUP: 5
220 -1 #SUP: 9
222 -1 #SUP: 9
223 -1 #SUP: 2
225 -1 #SUP: 6
226 -1 #SUP: 2
236 -1 #SUP: 8
237 -1 #SUP: 3
246 -1 #SUP: 5
248 -1 #SUP: 5
254 -1 #SUP: 5
256 -1 #SUP: 2
260 -1 #SUP: 2
262 -1 #SUP: 11
274 -1 #SUP: 3
278 -1 #SUP: 4
280 -1 #SUP: 5
284 -1 #SUP: 6
286 -1 #SUP: 9
291 -1 #SUP: 6
292 -1 #SUP: 2
293 -1 #SUP: 2
308 -1 #SUP: 2
317 -1 #SUP: 3
318 -1 #SUP: 3
322 -1 #SUP: 4
326 -1 #SUP: 10
334 -1 #SUP: 3
349 -1 #SUP: 3
356 -1 #SUP: 6
364 -1 #SUP: 11
365 -1 #SUP: 3
369 -1 #SUP: 8
381 -1 #SUP: 2
384 -1 #SUP: 4
407 -1 #SUP: 2
411 -1 #SUP: 5
417 -1 #SUP: 6
429 -1 #SUP: 2
431 -1 #SUP: 3
439 -1 #SUP: 4
441 -1 #SUP: 10
443 -1 #SUP: 3
446 -1 #SUP: 2
452 -1 #SUP: 2
477 -1 #SUP: 2
483 -1 #SUP: 6
488 -1 #SUP: 2
498 -1 #SUP: 2
499 -1 #SUP: 2
508 -1 #SUP: 4
517 -1 #SUP: 4
520 -1 #SUP: 7
524 -1 #SUP: 3
526 -1 #SUP: 2
529 -1 #SUP: 2
539 -1 #SUP: 2
541 -1 #SUP: 2
543 -1 #SUP: 2
567 -1 #SUP: 7
571 -1 #SUP: 2
593 -1 #SUP: 2
599 -1 #SUP: 21
630 -1 #SUP: 3
638 -1 #SUP: 3
646 -1 #SUP: 2
650 -1 #SUP: 3
651 -1 #SUP: 2
652 -1 #SUP: 5
654 -1 #SUP: 2
656 -1 #SUP: 2
663 -1 #SUP: 2
664 -1 #SUP: 2
693 -1 #SUP: 3
701 -1 #SUP: 2
704 -1 #SUP: 2
711 -1 #SUP: 5
715 -1 #SUP: 2
721 -1 #SUP: 2
739 -1 #SUP: 2
749 -1 #SUP: 4
756 -1 #SUP: 2
765 -1 #SUP: 3
782 -1 #SUP: 2
826 -1 #SUP: 3
851 -1 #SUP: 3
855 -1 #SUP: 2
921 -1 #SUP: 2
929 -1 #SUP: 2
955 -1 #SUP: 2
960 -1 #SUP: 2
964 -1 #SUP: 3
965 -1 #SUP: 2
999 -1 #SUP: 2
1034 -1 #SUP: 2
1039 -1 #SUP: 3
1050 -1 #SUP: 2
1062 -1 #SUP: 2
1082 -1 #SUP: 2
1107 -1 #SUP: 2
1129 -1 #SUP: 2
1164 -1 #SUP: 2
1174 -1 #SUP: 2
1178 -1 #SUP: 2
1205 -1 #SUP: 5
1206 -1 #SUP: 2
1216 -1 #SUP: 2
1225 -1 #SUP: 2
1242 -1 #SUP: 2
1256 -1 #SUP: 2
1303 -1 #SUP: 2
1306 -1 #SUP: 2
1313 -1 #SUP: 3
1335 -1 #SUP: 3
1367 -1 #SUP: 2
1429 -1 #SUP: 2
1461 -1 #SUP: 5
1475 -1 #SUP: 2
1478 -1 #SUP: 2
1533 -1 #SUP: 3
1572 -1 #SUP: 2
1607 -1 #SUP: 3
1610 -1 #SUP: 2
1630 -1 #SUP: 2
1650 -1 #SUP: 2
1669 -1 #SUP: 2
1685 -1 #SUP: 3
1688 -1 #SUP: 2
1720 -1 #SUP: 2
1736 -1 #SUP: 3
1757 -1 #SUP: 3
1758 -1 #SUP: 3
1837 -1 #SUP: 2
1913 -1 #SUP: 4
2124 -1 #SUP: 2
2134 -1 #SUP: 2
2301 -1 #SUP: 2
2349 -1 #SUP: 2
2366 -1 #SUP: 2
2748 -1 #SUP: 2
2784 -1 #SUP: 2
2910 -1 #SUP: 2
2978 -1 #SUP: 2
3053 -1 #SUP: 3
3070 -1 #SUP: 2
3256 -1 #SUP: 2
3369 -1 #SUP: 3
3389 -1 #SUP: 2
3547 -1 #SUP: 2
3947 -1 #SUP: 2
4817 -1 #SUP: 2
4957 -1 #SUP: 2
5118 -1 #SUP: 2
6869 -1 #SUP: 2
7181 -1 #SUP: 3
8592 -1 #SUP: 2
10378 -1 #SUP: 2
13779 -1 #SUP: 2
14904 -1 #SUP: 2
18063 -1 #SUP: 2
27000 -1 #SUP: 2
2 -1 10 -1 #SUP: 4
2 -1 22 -1 #SUP: 7
2 -1 41 -1 #SUP: 6
2 -1 64 -1 #SUP: 7
2 -1 65 -1 #SUP: 6
2 -1 66 -1 #SUP: 2
2 -1 67 -1 #SUP: 3
2 -1 77 -1 #SUP: 11
2 -1 78 -1 #SUP: 2
2 -1 117 -1 #SUP: 3
2 -1 120 -1 #SUP: 3
2 -1 123 -1 #SUP: 6
2 -1 154 -1 #SUP: 4
2 -1 160 -1 #SUP: 2
2 -1 170 -1 #SUP: 2
2 -1 171 -1 #SUP: 2
2 -1 175 -1 #SUP: 2
2 -1 193 -1 #SUP: 2
2 -1 213 -1 #SUP: 2
2 -1 222 -1 #SUP: 3
2 -1 223 -1 #SUP: 2
2 -1 317 -1 #SUP: 2
2 -1 326 -1 #SUP: 2
2 -1 441 -1 #SUP: 2
2 -1 599 -1 #SUP: 3
2 -1 782 -1 #SUP: 2
2 -1 826 -1 #SUP: 2
2 -1 3070 -1 #SUP: 2
9 -1 26 -1 #SUP: 2
9 -1 28 -1 #SUP: 2
10 -1 2 -1 #SUP: 2
10 -1 22 -1 #SUP: 7
10 -1 32 -1 #SUP: 2
10 -1 50 -1 #SUP: 2
10 -1 64 -1 #SUP: 2
10 -1 65 -1 #SUP: 2
10 -1 77 -1 #SUP: 5
10 -1 170 -1 #SUP: 2
10 -1 220 -1 #SUP: 2
10 -1 599 -1 #SUP: 2
10 -1 960 -1 #SUP: 2
10 -1 1607 -1 #SUP: 2
15 -1 32 -1 #SUP: 2
16 -1 2 -1 #SUP: 2
16 -1 22 -1 #SUP: 4
16 -1 65 -1 #SUP: 3
16 -1 77 -1 #SUP: 6
16 -1 78 -1 #SUP: 2
16 -1 152 -1 #SUP: 3
16 -1 170 -1 #SUP: 3
16 -1 200 -1 #SUP: 2
16 -1 223 -1 #SUP: 2
16 -1 599 -1 #SUP: 3
16 -1 1225 -1 #SUP: 2
22 -1 2 -1 #SUP: 8
22 -1 10 -1 #SUP: 4
22 -1 15 -1 #SUP: 2
22 -1 16 -1 #SUP: 3
22 -1 22 -1 #SUP: 16
22 -1 31 -1 #SUP: 3
22 -1 32 -1 #SUP: 19
22 -1 41 -1 #SUP: 3
22 -1 50 -1 #SUP: 4
22 -1 52 -1 #SUP: 2
22 -1 64 -1 #SUP: 12
22 -1 65 -1 #SUP: 8
22 -1 66 -1 #SUP: 3
22 -1 67 -1 #SUP: 4
22 -1 76 -1 #SUP: 2
22 -1 77 -1 #SUP: 19
22 -1 78 -1 #SUP: 3
22 -1 117 -1 #SUP: 3
22 -1 123 -1 #SUP: 11
22 -1 132 -1 #SUP: 3
22 -1 144 -1 #SUP: 2
22 -1 154 -1 #SUP: 8
22 -1 164 -1 #SUP: 4
22 -1 170 -1 #SUP: 10
22 -1 171 -1 #SUP: 2
22 -1 193 -1 #SUP: 3
22 -1 200 -1 #SUP: 2
22 -1 213 -1 #SUP: 2
22 -1 219 -1 #SUP: 4
22 -1 220 -1 #SUP: 3
22 -1 222 -1 #SUP: 3
22 -1 223 -1 #SUP: 2
22 -1 262 -1 #SUP: 4
22 -1 291 -1 #SUP: 4
22 -1 326 -1 #SUP: 2
22 -1 365 -1 #SUP: 2
22 -1 417 -1 #SUP: 2
22 -1 599 -1 #SUP: 6
22 -1 638 -1 #SUP: 2
22 -1 651 -1 #SUP: 2
22 -1 656 -1 #SUP: 2
22 -1 851 -1 #SUP: 2
22 -1 855 -1 #SUP: 2
22 -1 964 -1 #SUP: 3
22 -1 1039 -1 #SUP: 2
22 -1 1174 -1 #SUP: 2
22 -1 1242 -1 #SUP: 2
22 -1 1335 -1 #SUP: 2
22 -1 1429 -1 #SUP: 2
22 -1 1572 -1 #SUP: 2
22 -1 1669 -1 #SUP: 2
22 -1 1758 -1 #SUP: 2
22 -1 6869 -1 #SUP: 2
22 -1 10378 -1 #SUP: 2
27 -1 41 -1 #SUP: 3
27 -1 123 -1 #SUP: 2
28 -1 26 -1 #SUP: 2
31 -1 2 -1 #SUP: 3
31 -1 22 -1 #SUP: 3
31 -1 77 -1 #SUP: 6
31 -1 123 -1 #SUP: 2
31 -1 154 -1 #SUP: 4
31 -1 175 -1 #SUP: 2
31 -1 220 -1 #SUP: 2
31 -1 254 -1 #SUP: 2
31 -1 439 -1 #SUP: 2
32 -1 2 -1 #SUP: 3
32 -1 10 -1 #SUP: 3
32 -1 16 -1 #SUP: 2
32 -1 22 -1 #SUP: 10
32 -1 32 -1 #SUP: 5
32 -1 41 -1 #SUP: 2
32 -1 50 -1 #SUP: 4
32 -1 54 -1 #SUP: 2
32 -1 64 -1 #SUP: 6
32 -1 65 -1 #SUP: 5
32 -1 76 -1 #SUP: 2
32 -1 77 -1 #SUP: 8
32 -1 78 -1 #SUP: 3
32 -1 123 -1 #SUP: 3
32 -1 154 -1 #SUP: 4
32 -1 167 -1 #SUP: 2
32 -1 170 -1 #SUP: 4
32 -1 193 -1 #SUP: 2
32 -1 262 -1 #SUP: 2
32 -1 326 -1 #SUP: 3
32 -1 599 -1 #SUP: 3
32 -1 693 -1 #SUP: 2
32 -1 1206 -1 #SUP: 2
32 -1 1242 -1 #SUP: 2
32 -1 1306 -1 #SUP: 2
33 -1 22 -1 #SUP: 2
33 -1 67 -1 #SUP: 2
33 -1 77 -1 #SUP: 2
33 -1 154 -1 #SUP: 2
33 -1 193 -1 #SUP: 3
41 -1 2 -1 #SUP: 4
41 -1 10 -1 #SUP: 2
41 -1 22 -1 #SUP: 7
41 -1 32 -1 #SUP: 4
41 -1 41 -1 #SUP: 5
41 -1 50 -1 #SUP: 4
41 -1 64 -1 #SUP: 6
41 -1 65 -1 #SUP: 3
41 -1 77 -1 #SUP: 12
41 -1 78 -1 #SUP: 4
41 -1 117 -1 #SUP: 2
41 -1 123 -1 #SUP: 5
41 -1 144 -1 #SUP: 2
41 -1 154 -1 #SUP: 4
41 -1 198 -1 #SUP: 2
41 -1 220 -1 #SUP: 2
41 -1 226 -1 #SUP: 2
41 -1 248 -1 #SUP: 2
41 -1 326 -1 #SUP: 2
41 -1 334 -1 #SUP: 2
41 -1 441 -1 #SUP: 2
41 -1 599 -1 #SUP: 3
41 -1 654 -1 #SUP: 2
41 -1 711 -1 #SUP: 2
41 -1 1062 -1 #SUP: 2
41 -1 1164 -1 #SUP: 2
41 -1 1461 -1 #SUP: 2
41 -1 1688 -1 #SUP: 2
41 -1 1913 -1 #SUP: 2
42 -1 77 -1 #SUP: 2
50 -1 10 -1 #SUP: 2
50 -1 13 -1 #SUP: 2
50 -1 22 -1 #SUP: 2
50 -1 41 -1 #SUP: 2
50 -1 64 -1 #SUP: 5
50 -1 154 -1 #SUP: 5
50 -1 646 -1 #SUP: 2
52 -1 32 -1 #SUP: 2
63 -1 64 -1 #SUP: 2
64 -1 2 -1 #SUP: 5
64 -1 10 -1 #SUP: 3
64 -1 22 -1 #SUP: 12
64 -1 32 -1 #SUP: 7
64 -1 41 -1 #SUP: 8
64 -1 50 -1 #SUP: 3
64 -1 64 -1 #SUP: 7
64 -1 65 -1 #SUP: 7
64 -1 66 -1 #SUP: 2
64 -1 67 -1 #SUP: 5
64 -1 77 -1 #SUP: 19
64 -1 123 -1 #SUP: 7
64 -1 140 -1 #SUP: 2
64 -1 152 -1 #SUP: 3
64 -1 154 -1 #SUP: 8
64 -1 159 -1 #SUP: 2
64 -1 164 -1 #SUP: 4
64 -1 170 -1 #SUP: 2
64 -1 175 -1 #SUP: 2
64 -1 193 -1 #SUP: 2
64 -1 198 -1 #SUP: 2
64 -1 220 -1 #SUP: 2
64 -1 222 -1 #SUP: 4
64 -1 254 -1 #SUP: 2
64 -1 256 -1 #SUP: 2
64 -1 262 -1 #SUP: 3
64 -1 280 -1 #SUP: 2
64 -1 291 -1 #SUP: 2
64 -1 318 -1 #SUP: 3
64 -1 326 -1 #SUP: 2
64 -1 349 -1 #SUP: 2
64 -1 369 -1 #SUP: 3
64 -1 411 -1 #SUP: 2
64 -1 441 -1 #SUP: 4
64 -1 477 -1 #SUP: 2
64 -1 483 -1 #SUP: 2
64 -1 488 -1 #SUP: 2
64 -1 499 -1 #SUP: 2
64 -1 517 -1 #SUP: 3
64 -1 520 -1 #SUP: 2
64 -1 599 -1 #SUP: 11
64 -1 654 -1 #SUP: 2
64 -1 693 -1 #SUP: 2
64 -1 711 -1 #SUP: 3
64 -1 851 -1 #SUP: 2
64 -1 1129 -1 #SUP: 2
64 -1 1178 -1 #SUP: 2
64 -1 1242 -1 #SUP: 2
64 -1 1610 -1 #SUP: 2
64 -1 1669 -1 #SUP: 2
64 -1 1720 -1 #SUP: 2
64 -1 1758 -1 #SUP: 2
64 -1 4817 -1 #SUP: 2
65 -1 2 -1 #SUP: 4
65 -1 10 -1 #SUP: 2
65 -1 16 -1 #SUP: 2
65 -1 22 -1 #SUP: 7
65 -1 31 -1 #SUP: 3
65 -1 32 -1 #SUP: 6
65 -1 50 -1 #SUP: 2
65 -1 64 -1 #SUP: 7
65 -1 65 -1 #SUP: 5
65 -1 66 -1 #SUP: 2
65 -1 77 -1 #SUP: 14
65 -1 78 -1 #SUP: 2
65 -1 117 -1 #SUP: 2
65 -1 123 -1 #SUP: 4
65 -1 152 -1 #SUP: 4
65 -1 154 -1 #SUP: 5
65 -1 170 -1 #SUP: 3
65 -1 171 -1 #SUP: 2
65 -1 193 -1 #SUP: 6
65 -1 206 -1 #SUP: 2
65 -1 220 -1 #SUP: 3
65 -1 222 -1 #SUP: 3
65 -1 291 -1 #SUP: 2
65 -1 441 -1 #SUP: 2
65 -1 520 -1 #SUP: 2
65 -1 599 -1 #SUP: 2
65 -1 1736 -1 #SUP: 2
65 -1 1837 -1 #SUP: 2
66 -1 32 -1 #SUP: 2
66 -1 76 -1 #SUP: 2
66 -1 77 -1 #SUP: 2
66 -1 222 -1 #SUP: 2
67 -1 2 -1 #SUP: 2
67 -1 16 -1 #SUP: 2
67 -1 31 -1 #SUP: 2
67 -1 32 -1 #SUP: 2
67 -1 65 -1 #SUP: 2
67 -1 77 -1 #SUP: 3
67 -1 117 -1 #SUP: 2
67 -1 151 -1 #SUP: 2
67 -1 152 -1 #SUP: 2
67 -1 1050 -1 #SUP: 2
70 -1 2 -1 #SUP: 2
70 -1 22 -1 #SUP: 3
70 -1 32 -1 #SUP: 2
70 -1 64 -1 #SUP: 3
70 -1 123 -1 #SUP: 2
70 -1 154 -1 #SUP: 2
70 -1 193 -1 #SUP: 2
70 -1 326 -1 #SUP: 2
76 -1 22 -1 #SUP: 2
76 -1 77 -1 #SUP: 2
77 -1 2 -1 #SUP: 9
77 -1 10 -1 #SUP: 4
77 -1 16 -1 #SUP: 5
77 -1 22 -1 #SUP: 20
77 -1 27 -1 #SUP: 2
77 -1 31 -1 #SUP: 2
77 -1 32 -1 #SUP: 10
77 -1 33 -1 #SUP: 3
77 -1 41 -1 #SUP: 10
77 -1 50 -1 #SUP: 4
77 -1 64 -1 #SUP: 12
77 -1 65 -1 #SUP: 10
77 -1 66 -1 #SUP: 2
77 -1 67 -1 #SUP: 8
77 -1 70 -1 #SUP: 3
77 -1 76 -1 #SUP: 2
77 -1 77 -1 #SUP: 19
77 -1 78 -1 #SUP: 5
77 -1 117 -1 #SUP: 2
77 -1 120 -1 #SUP: 2
77 -1 123 -1 #SUP: 24
77 -1 144 -1 #SUP: 3
77 -1 152 -1 #SUP: 3
77 -1 154 -1 #SUP: 7
77 -1 159 -1 #SUP: 2
77 -1 160 -1 #SUP: 2
77 -1 162 -1 #SUP: 4
77 -1 164 -1 #SUP: 3
77 -1 167 -1 #SUP: 2
77 -1 170 -1 #SUP: 8
77 -1 171 -1 #SUP: 2
77 -1 174 -1 #SUP: 2
77 -1 183 -1 #SUP: 3
77 -1 193 -1 #SUP: 7
77 -1 198 -1 #SUP: 2
77 -1 201 -1 #SUP: 3
77 -1 206 -1 #SUP: 2
77 -1 220 -1 #SUP: 4
77 -1 222 -1 #SUP: 4
77 -1 236 -1 #SUP: 2
77 -1 248 -1 #SUP: 4
77 -1 254 -1 #SUP: 2
77 -1 256 -1 #SUP: 2
77 -1 262 -1 #SUP: 4
77 -1 274 -1 #SUP: 2
77 -1 280 -1 #SUP: 2
77 -1 284 -1 #SUP: 2
77 -1 291 -1 #SUP: 3
77 -1 317 -1 #SUP: 2
77 -1 318 -1 #SUP: 2
77 -1 322 -1 #SUP: 3
77 -1 326 -1 #SUP: 2
77 -1 334 -1 #SUP: 3
77 -1 417 -1 #SUP: 2
77 -1 439 -1 #SUP: 2
77 -1 483 -1 #SUP: 2
77 -1 488 -1 #SUP: 2
77 -1 499 -1 #SUP: 2
77 -1 517 -1 #SUP: 3
77 -1 520 -1 #SUP: 5
77 -1 567 -1 #SUP: 2
77 -1 593 -1 #SUP: 2
77 -1 599 -1 #SUP: 20
77 -1 638 -1 #SUP: 2
77 -1 701 -1 #SUP: 2
77 -1 711 -1 #SUP: 2
77 -1 749 -1 #SUP: 2
77 -1 765 -1 #SUP: 2
77 -1 851 -1 #SUP: 2
77 -1 921 -1 #SUP: 2
77 -1 964 -1 #SUP: 2
77 -1 1050 -1 #SUP: 2
77 -1 1062 -1 #SUP: 2
77 -1 1174 -1 #SUP: 2
77 -1 1225 -1 #SUP: 2
77 -1 1335 -1 #SUP: 3
77 -1 1461 -1 #SUP: 4
77 -1 1572 -1 #SUP: 2
77 -1 1607 -1 #SUP: 2
77 -1 1685 -1 #SUP: 2
77 -1 1688 -1 #SUP: 2
77 -1 1758 -1 #SUP: 2
77 -1 1913 -1 #SUP: 2
77 -1 4957 -1 #SUP: 2
77 -1 10378 -1 #SUP: 2
78 -1 10 -1 #SUP: 2
78 -1 22 -1 #SUP: 6
78 -1 41 -1 #SUP: 2
78 -1 64 -1 #SUP: 2
78 -1 65 -1 #SUP: 2
78 -1 77 -1 #SUP: 5
78 -1 117 -1 #SUP: 2
78 -1 123 -1 #SUP: 2
78 -1 154 -1 #SUP: 3
78 -1 170 -1 #SUP: 2
78 -1 171 -1 #SUP: 3
78 -1 599 -1 #SUP: 2
78 -1 1335 -1 #SUP: 2
117 -1 32 -1 #SUP: 2
117 -1 64 -1 #SUP: 2
117 -1 193 -1 #SUP: 2
120 -1 22 -1 #SUP: 3
120 -1 32 -1 #SUP: 2
120 -1 64 -1 #SUP: 4
120 -1 65 -1 #SUP: 4
120 -1 66 -1 #SUP: 2
120 -1 70 -1 #SUP: 4
120 -1 77 -1 #SUP: 4
120 -1 117 -1 #SUP: 2
120 -1 123 -1 #SUP: 3
120 -1 154 -1 #SUP: 2
120 -1 162 -1 #SUP: 2
120 -1 286 -1 #SUP: 4
120 -1 599 -1 #SUP: 3
120 -1 1757 -1 #SUP: 2
123 -1 2 -1 #SUP: 5
123 -1 10 -1 #SUP: 4
123 -1 13 -1 #SUP: 2
123 -1 16 -1 #SUP: 3
123 -1 22 -1 #SUP: 14
123 -1 27 -1 #SUP: 4
123 -1 32 -1 #SUP: 9
123 -1 33 -1 #SUP: 4
123 -1 41 -1 #SUP: 7
123 -1 50 -1 #SUP: 6
123 -1 52 -1 #SUP: 2
123 -1 64 -1 #SUP: 13
123 -1 65 -1 #SUP: 9
123 -1 66 -1 #SUP: 2
123 -1 67 -1 #SUP: 10
123 -1 70 -1 #SUP: 4
123 -1 77 -1 #SUP: 17
123 -1 117 -1 #SUP: 3
123 -1 120 -1 #SUP: 9
123 -1 123 -1 #SUP: 14
123 -1 127 -1 #SUP: 2
123 -1 132 -1 #SUP: 2
123 -1 144 -1 #SUP: 3
123 -1 151 -1 #SUP: 2
123 -1 152 -1 #SUP: 2
123 -1 154 -1 #SUP: 9
123 -1 160 -1 #SUP: 2
123 -1 162 -1 #SUP: 3
123 -1 164 -1 #SUP: 4
123 -1 165 -1 #SUP: 2
123 -1 170 -1 #SUP: 3
123 -1 174 -1 #SUP: 2
123 -1 175 -1 #SUP: 2
123 -1 193 -1 #SUP: 6
123 -1 198 -1 #SUP: 2
123 -1 200 -1 #SUP: 2
123 -1 206 -1 #SUP: 5
123 -1 220 -1 #SUP: 3
123 -1 222 -1 #SUP: 2
123 -1 225 -1 #SUP: 2
123 -1 237 -1 #SUP: 2
123 -1 248 -1 #SUP: 2
123 -1 262 -1 #SUP: 2
123 -1 274 -1 #SUP: 3
123 -1 278 -1 #SUP: 2
123 -1 284 -1 #SUP: 2
123 -1 286 -1 #SUP: 7
123 -1 291 -1 #SUP: 4
123 -1 293 -1 #SUP: 2
123 -1 318 -1 #SUP: 2
123 -1 322 -1 #SUP: 3
123 -1 326 -1 #SUP: 3
123 -1 334 -1 #SUP: 2
123 -1 356 -1 #SUP: 2
123 -1 364 -1 #SUP: 2
123 -1 365 -1 #SUP: 2
123 -1 369 -1 #SUP: 2
123 -1 381 -1 #SUP: 2
123 -1 407 -1 #SUP: 2
123 -1 411 -1 #SUP: 5
123 -1 417 -1 #SUP: 2
123 -1 431 -1 #SUP: 2
123 -1 441 -1 #SUP: 5
123 -1 483 -1 #SUP: 3
123 -1 488 -1 #SUP: 2
123 -1 498 -1 #SUP: 2
123 -1 520 -1 #SUP: 3
123 -1 593 -1 #SUP: 2
123 -1 599 -1 #SUP: 7
123 -1 638 -1 #SUP: 2
123 -1 652 -1 #SUP: 2
123 -1 715 -1 #SUP: 2
123 -1 765 -1 #SUP: 2
123 -1 1039 -1 #SUP: 2
123 -1 1050 -1 #SUP: 2
123 -1 1107 -1 #SUP: 2
123 -1 1256 -1 #SUP: 2
123 -1 1313 -1 #SUP: 2
123 -1 1461 -1 #SUP: 2
123 -1 1650 -1 #SUP: 2
123 -1 1688 -1 #SUP: 2
123 -1 1757 -1 #SUP: 2
123 -1 1758 -1 #SUP: 2
123 -1 1913 -1 #SUP: 2
123 -1 2910 -1 #SUP: 2
123 -1 2978 -1 #SUP: 2
123 -1 3547 -1 #SUP: 2
123 -1 4957 -1 #SUP: 2
123 -1 8592 -1 #SUP: 2
127 -1 10 -1 #SUP: 3
127 -1 22 -1 #SUP: 2
127 -1 77 -1 #SUP: 2
127 -1 154 -1 #SUP: 2
132 -1 32 -1 #SUP: 2
140 -1 154 -1 #SUP: 2
140 -1 369 -1 #SUP: 2
140 -1 1129 -1 #SUP: 2
140 -1 4817 -1 #SUP: 2
140 -1 13779 -1 #SUP: 2
144 -1 32 -1 #SUP: 2
144 -1 50 -1 #SUP: 2
144 -1 64 -1 #SUP: 2
144 -1 65 -1 #SUP: 2
144 -1 77 -1 #SUP: 2
144 -1 1461 -1 #SUP: 2
152 -1 10 -1 #SUP: 2
152 -1 22 -1 #SUP: 3
152 -1 65 -1 #SUP: 3
152 -1 77 -1 #SUP: 3
152 -1 170 -1 #SUP: 2
152 -1 851 -1 #SUP: 2
154 -1 2 -1 #SUP: 4
154 -1 10 -1 #SUP: 7
154 -1 16 -1 #SUP: 2
154 -1 22 -1 #SUP: 15
154 -1 31 -1 #SUP: 3
154 -1 32 -1 #SUP: 5
154 -1 41 -1 #SUP: 3
154 -1 50 -1 #SUP: 2
154 -1 64 -1 #SUP: 4
154 -1 65 -1 #SUP: 4
154 -1 67 -1 #SUP: 4
154 -1 70 -1 #SUP: 2
154 -1 77 -1 #SUP: 8
154 -1 120 -1 #SUP: 3
154 -1 123 -1 #SUP: 5
154 -1 144 -1 #SUP: 2
154 -1 152 -1 #SUP: 2
154 -1 154 -1 #SUP: 3
154 -1 170 -1 #SUP: 4
154 -1 175 -1 #SUP: 2
154 -1 193 -1 #SUP: 3
154 -1 200 -1 #SUP: 2
154 -1 220 -1 #SUP: 2
154 -1 248 -1 #SUP: 2
154 -1 284 -1 #SUP: 3
154 -1 291 -1 #SUP: 2
154 -1 308 -1 #SUP: 2
154 -1 326 -1 #SUP: 2
154 -1 365 -1 #SUP: 2
154 -1 369 -1 #SUP: 2
154 -1 417 -1 #SUP: 3
154 -1 439 -1 #SUP: 2
154 -1 599 -1 #SUP: 3
154 -1 855 -1 #SUP: 2
154 -1 960 -1 #SUP: 2
154 -1 1129 -1 #SUP: 2
154 -1 1758 -1 #SUP: 2
154 -1 4817 -1 #SUP: 2
154 -1 7181 -1 #SUP: 3
154 -1 27000 -1 #SUP: 2
158 -1 2 -1 #SUP: 2
158 -1 65 -1 #SUP: 2
158 -1 164 -1 #SUP: 2
159 -1 22 -1 #SUP: 2
159 -1 77 -1 #SUP: 2
160 -1 64 -1 #SUP: 2
162 -1 10 -1 #SUP: 2
162 -1 22 -1 #SUP: 3
162 -1 64 -1 #SUP: 3
162 -1 65 -1 #SUP: 4
162 -1 67 -1 #SUP: 2
162 -1 77 -1 #SUP: 6
162 -1 123 -1 #SUP: 6
162 -1 220 -1 #SUP: 2
162 -1 364 -1 #SUP: 2
164 -1 2 -1 #SUP: 2
164 -1 22 -1 #SUP: 5
164 -1 27 -1 #SUP: 3
164 -1 32 -1 #SUP: 4
164 -1 77 -1 #SUP: 3
164 -1 123 -1 #SUP: 2
164 -1 154 -1 #SUP: 2
164 -1 167 -1 #SUP: 2
164 -1 599 -1 #SUP: 2
170 -1 2 -1 #SUP: 4
170 -1 16 -1 #SUP: 4
170 -1 22 -1 #SUP: 7
170 -1 32 -1 #SUP: 4
170 -1 64 -1 #SUP: 3
170 -1 65 -1 #SUP: 5
170 -1 67 -1 #SUP: 2
170 -1 77 -1 #SUP: 9
170 -1 123 -1 #SUP: 2
170 -1 154 -1 #SUP: 3
170 -1 164 -1 #SUP: 2
170 -1 223 -1 #SUP: 2
170 -1 326 -1 #SUP: 2
170 -1 599 -1 #SUP: 3
170 -1 651 -1 #SUP: 2
170 -1 964 -1 #SUP: 2
170 -1 1206 -1 #SUP: 2
171 -1 2 -1 #SUP: 2
171 -1 10 -1 #SUP: 3
171 -1 22 -1 #SUP: 3
171 -1 32 -1 #SUP: 2
171 -1 64 -1 #SUP: 2
171 -1 65 -1 #SUP: 2
171 -1 77 -1 #SUP: 3
171 -1 170 -1 #SUP: 3
171 -1 213 -1 #SUP: 2
171 -1 280 -1 #SUP: 2
171 -1 3053 -1 #SUP: 2
175 -1 77 -1 #SUP: 3
175 -1 711 -1 #SUP: 2
183 -1 77 -1 #SUP: 2
193 -1 2 -1 #SUP: 3
193 -1 22 -1 #SUP: 2
193 -1 64 -1 #SUP: 3
193 -1 65 -1 #SUP: 2
193 -1 67 -1 #SUP: 3
193 -1 77 -1 #SUP: 6
193 -1 117 -1 #SUP: 2
193 -1 154 -1 #SUP: 4
193 -1 170 -1 #SUP: 2
193 -1 193 -1 #SUP: 4
193 -1 198 -1 #SUP: 2
193 -1 431 -1 #SUP: 2
193 -1 701 -1 #SUP: 2
193 -1 3369 -1 #SUP: 2
197 -1 10 -1 #SUP: 2
198 -1 22 -1 #SUP: 3
198 -1 77 -1 #SUP: 3
198 -1 599 -1 #SUP: 2
200 -1 67 -1 #SUP: 2
200 -1 77 -1 #SUP: 2
200 -1 170 -1 #SUP: 3
201 -1 32 -1 #SUP: 2
201 -1 67 -1 #SUP: 2
201 -1 77 -1 #SUP: 2
205 -1 154 -1 #SUP: 2
206 -1 22 -1 #SUP: 2
206 -1 32 -1 #SUP: 2
206 -1 65 -1 #SUP: 3
206 -1 77 -1 #SUP: 2
206 -1 123 -1 #SUP: 2
206 -1 206 -1 #SUP: 2
212 -1 2 -1 #SUP: 2
212 -1 22 -1 #SUP: 2
212 -1 65 -1 #SUP: 3
212 -1 77 -1 #SUP: 2
212 -1 158 -1 #SUP: 2
213 -1 64 -1 #SUP: 2
213 -1 77 -1 #SUP: 2
219 -1 64 -1 #SUP: 2
219 -1 65 -1 #SUP: 2
219 -1 77 -1 #SUP: 2
220 -1 10 -1 #SUP: 2
220 -1 67 -1 #SUP: 3
220 -1 78 -1 #SUP: 2
220 -1 117 -1 #SUP: 2
220 -1 123 -1 #SUP: 2
220 -1 193 -1 #SUP: 2
220 -1 293 -1 #SUP: 2
220 -1 431 -1 #SUP: 2
220 -1 7181 -1 #SUP: 2
222 -1 22 -1 #SUP: 5
222 -1 32 -1 #SUP: 2
222 -1 77 -1 #SUP: 5
222 -1 123 -1 #SUP: 3
222 -1 154 -1 #SUP: 4
222 -1 291 -1 #SUP: 2
222 -1 599 -1 #SUP: 2
225 -1 64 -1 #SUP: 2
225 -1 65 -1 #SUP: 2
225 -1 77 -1 #SUP: 3
225 -1 120 -1 #SUP: 2
225 -1 154 -1 #SUP: 2
225 -1 286 -1 #SUP: 2
225 -1 356 -1 #SUP: 2
225 -1 369 -1 #SUP: 2
236 -1 2 -1 #SUP: 2
236 -1 31 -1 #SUP: 3
236 -1 32 -1 #SUP: 2
236 -1 41 -1 #SUP: 3
236 -1 50 -1 #SUP: 2
236 -1 64 -1 #SUP: 4
236 -1 65 -1 #SUP: 2
236 -1 77 -1 #SUP: 6
236 -1 123 -1 #SUP: 3
236 -1 170 -1 #SUP: 2
236 -1 175 -1 #SUP: 2
236 -1 326 -1 #SUP: 2
236 -1 964 -1 #SUP: 2
236 -1 1256 -1 #SUP: 2
236 -1 1688 -1 #SUP: 2
236 -1 2784 -1 #SUP: 2
237 -1 22 -1 #SUP: 3
237 -1 64 -1 #SUP: 3
237 -1 77 -1 #SUP: 2
237 -1 123 -1 #SUP: 2
246 -1 2 -1 #SUP: 2
246 -1 22 -1 #SUP: 3
246 -1 77 -1 #SUP: 4
246 -1 123 -1 #SUP: 3
246 -1 154 -1 #SUP: 2
248 -1 1461 -1 #SUP: 2
254 -1 22 -1 #SUP: 2
254 -1 41 -1 #SUP: 2
254 -1 77 -1 #SUP: 4
254 -1 78 -1 #SUP: 2
254 -1 123 -1 #SUP: 2
260 -1 77 -1 #SUP: 2
262 -1 2 -1 #SUP: 5
262 -1 22 -1 #SUP: 5
262 -1 32 -1 #SUP: 4
262 -1 41 -1 #SUP: 2
262 -1 65 -1 #SUP: 5
262 -1 77 -1 #SUP: 5
262 -1 123 -1 #SUP: 2
262 -1 154 -1 #SUP: 3
262 -1 164 -1 #SUP: 3
262 -1 167 -1 #SUP: 2
262 -1 170 -1 #SUP: 3
262 -1 222 -1 #SUP: 2
262 -1 599 -1 #SUP: 2
262 -1 851 -1 #SUP: 2
274 -1 77 -1 #SUP: 3
278 -1 32 -1 #SUP: 2
278 -1 64 -1 #SUP: 3
278 -1 77 -1 #SUP: 2
278 -1 441 -1 #SUP: 2
278 -1 599 -1 #SUP: 2
280 -1 10 -1 #SUP: 3
280 -1 22 -1 #SUP: 3
280 -1 64 -1 #SUP: 2
280 -1 77 -1 #SUP: 2
280 -1 152 -1 #SUP: 2
284 -1 154 -1 #SUP: 2
284 -1 193 -1 #SUP: 2
284 -1 441 -1 #SUP: 2
286 -1 22 -1 #SUP: 3
286 -1 32 -1 #SUP: 3
286 -1 64 -1 #SUP: 2
286 -1 65 -1 #SUP: 3
286 -1 70 -1 #SUP: 4
286 -1 77 -1 #SUP: 3
286 -1 117 -1 #SUP: 2
286 -1 123 -1 #SUP: 3
286 -1 154 -1 #SUP: 4
286 -1 326 -1 #SUP: 2
291 -1 22 -1 #SUP: 3
291 -1 77 -1 #SUP: 3
291 -1 123 -1 #SUP: 4
292 -1 77 -1 #SUP: 2
322 -1 123 -1 #SUP: 2
322 -1 154 -1 #SUP: 2
326 -1 22 -1 #SUP: 3
326 -1 32 -1 #SUP: 5
326 -1 64 -1 #SUP: 2
326 -1 77 -1 #SUP: 2
326 -1 175 -1 #SUP: 2
326 -1 439 -1 #SUP: 2
334 -1 77 -1 #SUP: 2
356 -1 22 -1 #SUP: 2
356 -1 32 -1 #SUP: 2
356 -1 64 -1 #SUP: 2
356 -1 65 -1 #SUP: 3
356 -1 66 -1 #SUP: 2
356 -1 77 -1 #SUP: 3
356 -1 123 -1 #SUP: 2
356 -1 1461 -1 #SUP: 2
364 -1 2 -1 #SUP: 2
364 -1 10 -1 #SUP: 4
364 -1 16 -1 #SUP: 3
364 -1 22 -1 #SUP: 5
364 -1 31 -1 #SUP: 2
364 -1 41 -1 #SUP: 3
364 -1 50 -1 #SUP: 3
364 -1 64 -1 #SUP: 5
364 -1 77 -1 #SUP: 4
364 -1 123 -1 #SUP: 2
364 -1 154 -1 #SUP: 5
364 -1 200 -1 #SUP: 2
364 -1 220 -1 #SUP: 3
364 -1 483 -1 #SUP: 2
364 -1 599 -1 #SUP: 2
364 -1 2748 -1 #SUP: 2
369 -1 2 -1 #SUP: 2
369 -1 10 -1 #SUP: 2
369 -1 65 -1 #SUP: 2
369 -1 77 -1 #SUP: 2
369 -1 154 -1 #SUP: 3
369 -1 262 -1 #SUP: 2
369 -1 286 -1 #SUP: 2
369 -1 1129 -1 #SUP: 2
369 -1 4817 -1 #SUP: 2
381 -1 77 -1 #SUP: 2
381 -1 599 -1 #SUP: 2
384 -1 64 -1 #SUP: 2
384 -1 152 -1 #SUP: 2
411 -1 2 -1 #SUP: 2
411 -1 64 -1 #SUP: 2
411 -1 65 -1 #SUP: 3
411 -1 77 -1 #SUP: 3
411 -1 123 -1 #SUP: 3
411 -1 599 -1 #SUP: 2
417 -1 32 -1 #SUP: 2
417 -1 50 -1 #SUP: 2
417 -1 65 -1 #SUP: 2
417 -1 77 -1 #SUP: 4
417 -1 144 -1 #SUP: 2
417 -1 170 -1 #SUP: 2
439 -1 32 -1 #SUP: 2
439 -1 77 -1 #SUP: 2
441 -1 22 -1 #SUP: 5
441 -1 32 -1 #SUP: 2
441 -1 64 -1 #SUP: 4
441 -1 77 -1 #SUP: 3
441 -1 164 -1 #SUP: 3
443 -1 22 -1 #SUP: 3
443 -1 77 -1 #SUP: 2
446 -1 22 -1 #SUP: 2
452 -1 77 -1 #SUP: 2
477 -1 154 -1 #SUP: 2
483 -1 64 -1 #SUP: 5
483 -1 77 -1 #SUP: 2
483 -1 154 -1 #SUP: 2
483 -1 441 -1 #SUP: 2
483 -1 599 -1 #SUP: 2
488 -1 64 -1 #SUP: 2
488 -1 67 -1 #SUP: 2
508 -1 16 -1 #SUP: 2
508 -1 41 -1 #SUP: 2
517 -1 77 -1 #SUP: 3
517 -1 567 -1 #SUP: 2
520 -1 65 -1 #SUP: 2
520 -1 123 -1 #SUP: 2
520 -1 170 -1 #SUP: 2
520 -1 256 -1 #SUP: 2
520 -1 384 -1 #SUP: 2
524 -1 65 -1 #SUP: 2
524 -1 526 -1 #SUP: 2
541 -1 22 -1 #SUP: 2
543 -1 64 -1 #SUP: 2
599 -1 22 -1 #SUP: 8
599 -1 32 -1 #SUP: 3
599 -1 41 -1 #SUP: 5
599 -1 64 -1 #SUP: 3
599 -1 65 -1 #SUP: 2
599 -1 67 -1 #SUP: 4
599 -1 70 -1 #SUP: 2
599 -1 77 -1 #SUP: 6
599 -1 78 -1 #SUP: 3
599 -1 123 -1 #SUP: 7
599 -1 144 -1 #SUP: 2
599 -1 154 -1 #SUP: 3
599 -1 162 -1 #SUP: 2
599 -1 164 -1 #SUP: 2
599 -1 193 -1 #SUP: 3
599 -1 198 -1 #SUP: 2
599 -1 201 -1 #SUP: 3
599 -1 220 -1 #SUP: 3
599 -1 334 -1 #SUP: 2
599 -1 417 -1 #SUP: 2
599 -1 488 -1 #SUP: 2
599 -1 517 -1 #SUP: 4
599 -1 567 -1 #SUP: 2
599 -1 1461 -1 #SUP: 2
638 -1 64 -1 #SUP: 2
638 -1 65 -1 #SUP: 2
638 -1 77 -1 #SUP: 2
650 -1 369 -1 #SUP: 2
652 -1 64 -1 #SUP: 2
652 -1 77 -1 #SUP: 2
652 -1 384 -1 #SUP: 2
656 -1 32 -1 #SUP: 2
656 -1 64 -1 #SUP: 2
656 -1 66 -1 #SUP: 2
663 -1 22 -1 #SUP: 2
664 -1 64 -1 #SUP: 2
664 -1 77 -1 #SUP: 2
693 -1 198 -1 #SUP: 2
711 -1 2 -1 #SUP: 2
711 -1 41 -1 #SUP: 2
711 -1 65 -1 #SUP: 2
711 -1 66 -1 #SUP: 2
711 -1 154 -1 #SUP: 2
715 -1 27 -1 #SUP: 2
715 -1 164 -1 #SUP: 2
739 -1 77 -1 #SUP: 2
749 -1 67 -1 #SUP: 2
749 -1 201 -1 #SUP: 2
756 -1 193 -1 #SUP: 2
782 -1 22 -1 #SUP: 2
782 -1 77 -1 #SUP: 2
851 -1 22 -1 #SUP: 2
921 -1 67 -1 #SUP: 2
955 -1 32 -1 #SUP: 2
955 -1 77 -1 #SUP: 2
955 -1 123 -1 #SUP: 2
964 -1 77 -1 #SUP: 2
965 -1 77 -1 #SUP: 2
1034 -1 32 -1 #SUP: 2
1039 -1 32 -1 #SUP: 2
1107 -1 220 -1 #SUP: 2
1129 -1 4817 -1 #SUP: 2
1205 -1 2 -1 #SUP: 2
1205 -1 10 -1 #SUP: 2
1205 -1 22 -1 #SUP: 4
1205 -1 31 -1 #SUP: 2
1205 -1 41 -1 #SUP: 2
1205 -1 64 -1 #SUP: 2
1205 -1 154 -1 #SUP: 3
1256 -1 41 -1 #SUP: 2
1256 -1 50 -1 #SUP: 2
1256 -1 64 -1 #SUP: 2
1256 -1 77 -1 #SUP: 2
1256 -1 123 -1 #SUP: 2
1256 -1 1688 -1 #SUP: 2
1313 -1 64 -1 #SUP: 3
1313 -1 441 -1 #SUP: 2
1335 -1 22 -1 #SUP: 2
1335 -1 77 -1 #SUP: 2
1335 -1 1461 -1 #SUP: 2
1367 -1 22 -1 #SUP: 2
1367 -1 154 -1 #SUP: 2
1461 -1 22 -1 #SUP: 2
1461 -1 65 -1 #SUP: 2
1475 -1 349 -1 #SUP: 2
1533 -1 2 -1 #SUP: 3
1685 -1 22 -1 #SUP: 2
1685 -1 32 -1 #SUP: 2
1688 -1 41 -1 #SUP: 2
1736 -1 32 -1 #SUP: 3
1736 -1 50 -1 #SUP: 2
1736 -1 154 -1 #SUP: 2
1758 -1 22 -1 #SUP: 3
1758 -1 32 -1 #SUP: 2
1913 -1 32 -1 #SUP: 2
1913 -1 67 -1 #SUP: 2
2124 -1 32 -1 #SUP: 2
2124 -1 76 -1 #SUP: 2
2301 -1 22 -1 #SUP: 2
2910 -1 33 -1 #SUP: 2
3053 -1 64 -1 #SUP: 2
3256 -1 22 -1 #SUP: 2
3256 -1 77 -1 #SUP: 2
3547 -1 64 -1 #SUP: 2
6869 -1 31 -1 #SUP: 2
7181 -1 10 -1 #SUP: 2
14904 -1 18063 -1 #SUP: 2
2 -1 10 -1 22 -1 #SUP: 2
2 -1 22 -1 22 -1 #SUP: 2
2 -1 22 -1 41 -1 #SUP: 2
2 -1 22 -1 64 -1 #SUP: 3
2 -1 22 -1 77 -1 #SUP: 3
2 -1 22 -1 170 -1 #SUP: 2
2 -1 22 -1 213 -1 #SUP: 2
2 -1 41 -1 64 -1 #SUP: 2
2 -1 41 -1 77 -1 #SUP: 3
2 -1 64 -1 22 -1 #SUP: 2
2 -1 64 -1 67 -1 #SUP: 2
2 -1 64 -1 77 -1 #SUP: 2
2 -1 65 -1 22 -1 #SUP: 2
2 -1 65 -1 64 -1 #SUP: 2
2 -1 77 -1 22 -1 #SUP: 2
2 -1 77 -1 41 -1 #SUP: 2
2 -1 77 -1 64 -1 #SUP: 3
2 -1 77 -1 65 -1 #SUP: 3
2 -1 77 -1 77 -1 #SUP: 2
2 -1 77 -1 123 -1 #SUP: 3
2 -1 77 -1 599 -1 #SUP: 3
2 -1 120 -1 66 -1 #SUP: 2
2 -1 123 -1 41 -1 #SUP: 2
2 -1 123 -1 64 -1 #SUP: 2
2 -1 123 -1 66 -1 #SUP: 2
2 -1 123 -1 120 -1 #SUP: 2
2 -1 123 -1 123 -1 #SUP: 2
2 -1 123 -1 222 -1 #SUP: 2
2 -1 154 -1 22 -1 #SUP: 2
2 -1 154 -1 41 -1 #SUP: 2
2 -1 154 -1 77 -1 #SUP: 2
2 -1 213 -1 64 -1 #SUP: 2
2 -1 213 -1 77 -1 #SUP: 2
2 -1 599 -1 41 -1 #SUP: 2
2 -1 782 -1 77 -1 #SUP: 2
9 -1 28 -1 26 -1 #SUP: 2
10 -1 22 -1 2 -1 #SUP: 2
10 -1 22 -1 22 -1 #SUP: 4
10 -1 22 -1 32 -1 #SUP: 2
10 -1 22 -1 77 -1 #SUP: 2
10 -1 32 -1 22 -1 #SUP: 2
10 -1 77 -1 77 -1 #SUP: 2
10 -1 77 -1 220 -1 #SUP: 2
10 -1 77 -1 599 -1 #SUP: 2
10 -1 77 -1 1607 -1 #SUP: 2
16 -1 2 -1 223 -1 #SUP: 2
16 -1 22 -1 77 -1 #SUP: 2
16 -1 77 -1 599 -1 #SUP: 3
16 -1 77 -1 1225 -1 #SUP: 2
16 -1 170 -1 65 -1 #SUP: 2
22 -1 2 -1 10 -1 #SUP: 2
22 -1 2 -1 22 -1 #SUP: 2
22 -1 2 -1 77 -1 #SUP: 3
22 -1 10 -1 22 -1 #SUP: 2
22 -1 15 -1 32 -1 #SUP: 2
22 -1 16 -1 22 -1 #SUP: 2
22 -1 16 -1 77 -1 #SUP: 2
22 -1 22 -1 2 -1 #SUP: 2
22 -1 22 -1 22 -1 #SUP: 6
22 -1 22 -1 32 -1 #SUP: 6
22 -1 22 -1 64 -1 #SUP: 2
22 -1 22 -1 65 -1 #SUP: 2
22 -1 22 -1 77 -1 #SUP: 5
22 -1 22 -1 171 -1 #SUP: 2
22 -1 22 -1 10378 -1 #SUP: 2
22 -1 31 -1 77 -1 #SUP: 2
22 -1 32 -1 2 -1 #SUP: 2
22 -1 32 -1 10 -1 #SUP: 2
22 -1 32 -1 22 -1 #SUP: 7
22 -1 32 -1 32 -1 #SUP: 5
22 -1 32 -1 50 -1 #SUP: 3
22 -1 32 -1 64 -1 #SUP: 4
22 -1 32 -1 65 -1 #SUP: 3
22 -1 32 -1 77 -1 #SUP: 5
22 -1 32 -1 123 -1 #SUP: 3
22 -1 32 -1 154 -1 #SUP: 2
22 -1 32 -1 170 -1 #SUP: 2
22 -1 32 -1 193 -1 #SUP: 2
22 -1 32 -1 262 -1 #SUP: 2
22 -1 32 -1 1242 -1 #SUP: 2
22 -1 52 -1 32 -1 #SUP: 2
22 -1 64 -1 2 -1 #SUP: 2
22 -1 64 -1 22 -1 #SUP: 4
22 -1 64 -1 32 -1 #SUP: 3
22 -1 64 -1 65 -1 #SUP: 2
22 -1 64 -1 66 -1 #SUP: 2
22 -1 64 -1 67 -1 #SUP: 2
22 -1 64 -1 77 -1 #SUP: 6
22 -1 64 -1 123 -1 #SUP: 2
22 -1 64 -1 262 -1 #SUP: 2
22 -1 64 -1 599 -1 #SUP: 4
22 -1 64 -1 1242 -1 #SUP: 2
22 -1 65 -1 32 -1 #SUP: 3
22 -1 65 -1 64 -1 #SUP: 2
22 -1 65 -1 193 -1 #SUP: 2
22 -1 67 -1 77 -1 #SUP: 2
22 -1 67 -1 117 -1 #SUP: 2
22 -1 76 -1 77 -1 #SUP: 2
22 -1 77 -1 2 -1 #SUP: 4
22 -1 77 -1 22 -1 #SUP: 7
22 -1 77 -1 32 -1 #SUP: 2
22 -1 77 -1 41 -1 #SUP: 2
22 -1 77 -1 64 -1 #SUP: 2
22 -1 77 -1 65 -1 #SUP: 2
22 -1 77 -1 67 -1 #SUP: 3
22 -1 77 -1 77 -1 #SUP: 3
22 -1 77 -1 117 -1 #SUP: 2
22 -1 77 -1 123 -1 #SUP: 8
22 -1 77 -1 154 -1 #SUP: 3
22 -1 77 -1 170 -1 #SUP: 2
22 -1 77 -1 193 -1 #SUP: 2
22 -1 77 -1 220 -1 #SUP: 2
22 -1 77 -1 291 -1 #SUP: 2
22 -1 77 -1 599 -1 #SUP: 6
22 -1 77 -1 638 -1 #SUP: 2
22 -1 77 -1 964 -1 #SUP: 2
22 -1 77 -1 1758 -1 #SUP: 2
22 -1 117 -1 193 -1 #SUP: 2
22 -1 123 -1 50 -1 #SUP: 2
22 -1 123 -1 64 -1 #SUP: 2
22 -1 123 -1 67 -1 #SUP: 2
22 -1 123 -1 291 -1 #SUP: 2
22 -1 132 -1 32 -1 #SUP: 2
22 -1 154 -1 10 -1 #SUP: 2
22 -1 154 -1 22 -1 #SUP: 4
22 -1 154 -1 123 -1 #SUP: 2
22 -1 164 -1 32 -1 #SUP: 2
22 -1 170 -1 2 -1 #SUP: 2
22 -1 170 -1 16 -1 #SUP: 2
22 -1 170 -1 22 -1 #SUP: 4
22 -1 170 -1 32 -1 #SUP: 3
22 -1 170 -1 64 -1 #SUP: 3
22 -1 170 -1 65 -1 #SUP: 2
22 -1 170 -1 77 -1 #SUP: 5
22 -1 170 -1 154 -1 #SUP: 2
22 -1 170 -1 223 -1 #SUP: 2
22 -1 170 -1 326 -1 #SUP: 2
22 -1 171 -1 32 -1 #SUP: 2
22 -1 200 -1 170 -1 #SUP: 2
22 -1 213 -1 64 -1 #SUP: 2
22 -1 213 -1 77 -1 #SUP: 2
22 -1 219 -1 64 -1 #SUP: 2
22 -1 219 -1 65 -1 #SUP: 2
22 -1 219 -1 77 -1 #SUP: 2
22 -1 220 -1 67 -1 #SUP: 2
22 -1 220 -1 117 -1 #SUP: 2
22 -1 222 -1 22 -1 #SUP: 2
22 -1 222 -1 77 -1 #SUP: 2
22 -1 222 -1 123 -1 #SUP: 2
22 -1 222 -1 154 -1 #SUP: 2
22 -1 222 -1 599 -1 #SUP: 2
22 -1 262 -1 65 -1 #SUP: 2
22 -1 262 -1 77 -1 #SUP: 2
22 -1 291 -1 22 -1 #SUP: 3
22 -1 326 -1 32 -1 #SUP: 2
22 -1 417 -1 50 -1 #SUP: 2
22 -1 599 -1 22 -1 #SUP: 3
22 -1 599 -1 123 -1 #SUP: 3
22 -1 599 -1 154 -1 #SUP: 2
22 -1 656 -1 32 -1 #SUP: 2
22 -1 656 -1 64 -1 #SUP: 2
22 -1 656 -1 66 -1 #SUP: 2
22 -1 964 -1 77 -1 #SUP: 2
22 -1 1039 -1 32 -1 #SUP: 2
22 -1 1758 -1 22 -1 #SUP: 2
22 -1 6869 -1 31 -1 #SUP: 2
31 -1 77 -1 22 -1 #SUP: 2
31 -1 77 -1 77 -1 #SUP: 2
31 -1 77 -1 123 -1 #SUP: 2
31 -1 77 -1 254 -1 #SUP: 2
31 -1 175 -1 77 -1 #SUP: 2
31 -1 439 -1 77 -1 #SUP: 2
32 -1 10 -1 22 -1 #SUP: 2
32 -1 10 -1 170 -1 #SUP: 2
32 -1 22 -1 22 -1 #SUP: 2
32 -1 22 -1 77 -1 #SUP: 2
32 -1 32 -1 22 -1 #SUP: 3
32 -1 32 -1 77 -1 #SUP: 2
32 -1 64 -1 77 -1 #SUP: 4
32 -1 64 -1 123 -1 #SUP: 2
32 -1 64 -1 262 -1 #SUP: 2
32 -1 64 -1 599 -1 #SUP: 3
32 -1 64 -1 1242 -1 #SUP: 2
32 -1 77 -1 16 -1 #SUP: 2
32 -1 77 -1 22 -1 #SUP: 2
32 -1 77 -1 123 -1 #SUP: 2
32 -1 77 -1 170 -1 #SUP: 2
32 -1 77 -1 599 -1 #SUP: 3
32 -1 78 -1 10 -1 #SUP: 2
32 -1 78 -1 22 -1 #SUP: 2
32 -1 154 -1 10 -1 #SUP: 2
32 -1 154 -1 22 -1 #SUP: 3
33 -1 193 -1 67 -1 #SUP: 2
41 -1 2 -1 41 -1 #SUP: 2
41 -1 22 -1 32 -1 #SUP: 3
41 -1 22 -1 77 -1 #SUP: 2
41 -1 41 -1 123 -1 #SUP: 2
41 -1 50 -1 64 -1 #SUP: 2
41 -1 64 -1 22 -1 #SUP: 2
41 -1 64 -1 50 -1 #SUP: 2
41 -1 64 -1 77 -1 #SUP: 2
41 -1 77 -1 2 -1 #SUP: 2
41 -1 77 -1 22 -1 #SUP: 3
41 -1 77 -1 32 -1 #SUP: 2
41 -1 77 -1 41 -1 #SUP: 4
41 -1 77 -1 50 -1 #SUP: 2
41 -1 77 -1 64 -1 #SUP: 2
41 -1 77 -1 77 -1 #SUP: 2
41 -1 77 -1 78 -1 #SUP: 2
41 -1 77 -1 123 -1 #SUP: 3
41 -1 77 -1 220 -1 #SUP: 2
41 -1 77 -1 248 -1 #SUP: 2
41 -1 77 -1 599 -1 #SUP: 3
41 -1 77 -1 1062 -1 #SUP: 2
41 -1 77 -1 1461 -1 #SUP: 2
41 -1 77 -1 1688 -1 #SUP: 2
41 -1 77 -1 1913 -1 #SUP: 2
41 -1 78 -1 117 -1 #SUP: 2
41 -1 123 -1 41 -1 #SUP: 2
41 -1 123 -1 50 -1 #SUP: 2
41 -1 123 -1 64 -1 #SUP: 2
41 -1 123 -1 123 -1 #SUP: 2
41 -1 123 -1 1688 -1 #SUP: 2
41 -1 154 -1 77 -1 #SUP: 2
41 -1 154 -1 248 -1 #SUP: 2
41 -1 154 -1 599 -1 #SUP: 2
41 -1 220 -1 78 -1 #SUP: 2
41 -1 326 -1 32 -1 #SUP: 2
41 -1 599 -1 41 -1 #SUP: 2
41 -1 1688 -1 41 -1 #SUP: 2
50 -1 64 -1 41 -1 #SUP: 2
50 -1 64 -1 154 -1 #SUP: 2
50 -1 154 -1 22 -1 #SUP: 2
64 -1 2 -1 41 -1 #SUP: 2
64 -1 2 -1 64 -1 #SUP: 2
64 -1 2 -1 123 -1 #SUP: 2
64 -1 22 -1 22 -1 #SUP: 4
64 -1 22 -1 32 -1 #SUP: 4
64 -1 22 -1 77 -1 #SUP: 5
64 -1 22 -1 123 -1 #SUP: 2
64 -1 22 -1 291 -1 #SUP: 2
64 -1 22 -1 599 -1 #SUP: 2
64 -1 22 -1 1669 -1 #SUP: 2
64 -1 32 -1 65 -1 #SUP: 2
64 -1 32 -1 77 -1 #SUP: 2
64 -1 41 -1 22 -1 #SUP: 2
64 -1 41 -1 77 -1 #SUP: 3
64 -1 64 -1 22 -1 #SUP: 2
64 -1 64 -1 67 -1 #SUP: 2
64 -1 64 -1 77 -1 #SUP: 2
64 -1 65 -1 64 -1 #SUP: 2
64 -1 65 -1 77 -1 #SUP: 3
64 -1 65 -1 123 -1 #SUP: 2
64 -1 67 -1 77 -1 #SUP: 2
64 -1 77 -1 2 -1 #SUP: 2
64 -1 77 -1 10 -1 #SUP: 2
64 -1 77 -1 22 -1 #SUP: 6
64 -1 77 -1 32 -1 #SUP: 3
64 -1 77 -1 41 -1 #SUP: 4
64 -1 77 -1 64 -1 #SUP: 2
64 -1 77 -1 67 -1 #SUP: 3
64 -1 77 -1 77 -1 #SUP: 3
64 -1 77 -1 123 -1 #SUP: 5
64 -1 77 -1 222 -1 #SUP: 2
64 -1 77 -1 262 -1 #SUP: 2
64 -1 77 -1 488 -1 #SUP: 2
64 -1 77 -1 517 -1 #SUP: 3
64 -1 77 -1 520 -1 #SUP: 2
64 -1 77 -1 599 -1 #SUP: 11
64 -1 77 -1 851 -1 #SUP: 2
64 -1 123 -1 41 -1 #SUP: 2
64 -1 152 -1 22 -1 #SUP: 2
64 -1 152 -1 77 -1 #SUP: 2
64 -1 152 -1 851 -1 #SUP: 2
64 -1 154 -1 10 -1 #SUP: 2
64 -1 154 -1 22 -1 #SUP: 3
64 -1 154 -1 77 -1 #SUP: 2
64 -1 154 -1 123 -1 #SUP: 2
64 -1 154 -1 291 -1 #SUP: 2
64 -1 154 -1 1129 -1 #SUP: 2
64 -1 154 -1 1758 -1 #SUP: 2
64 -1 154 -1 4817 -1 #SUP: 2
64 -1 159 -1 22 -1 #SUP: 2
64 -1 159 -1 77 -1 #SUP: 2
64 -1 164 -1 22 -1 #SUP: 3
64 -1 164 -1 32 -1 #SUP: 2
64 -1 222 -1 22 -1 #SUP: 3
64 -1 222 -1 77 -1 #SUP: 2
64 -1 222 -1 123 -1 #SUP: 2
64 -1 222 -1 154 -1 #SUP: 2
64 -1 222 -1 291 -1 #SUP: 2
64 -1 291 -1 22 -1 #SUP: 2
64 -1 369 -1 154 -1 #SUP: 2
64 -1 369 -1 1129 -1 #SUP: 2
64 -1 369 -1 4817 -1 #SUP: 2
64 -1 441 -1 22 -1 #SUP: 2
64 -1 477 -1 154 -1 #SUP: 2
64 -1 483 -1 64 -1 #SUP: 2
64 -1 488 -1 64 -1 #SUP: 2
64 -1 488 -1 67 -1 #SUP: 2
64 -1 599 -1 22 -1 #SUP: 4
64 -1 599 -1 32 -1 #SUP: 2
64 -1 599 -1 41 -1 #SUP: 3
64 -1 599 -1 64 -1 #SUP: 2
64 -1 599 -1 67 -1 #SUP: 3
64 -1 599 -1 77 -1 #SUP: 2
64 -1 599 -1 123 -1 #SUP: 3
64 -1 599 -1 488 -1 #SUP: 2
64 -1 599 -1 517 -1 #SUP: 3
64 -1 1129 -1 4817 -1 #SUP: 2
64 -1 1758 -1 22 -1 #SUP: 2
65 -1 22 -1 77 -1 #SUP: 2
65 -1 31 -1 154 -1 #SUP: 2
65 -1 32 -1 193 -1 #SUP: 2
65 -1 64 -1 22 -1 #SUP: 3
65 -1 64 -1 77 -1 #SUP: 2
65 -1 64 -1 152 -1 #SUP: 2
65 -1 64 -1 170 -1 #SUP: 2
65 -1 77 -1 16 -1 #SUP: 2
65 -1 77 -1 22 -1 #SUP: 4
65 -1 77 -1 64 -1 #SUP: 3
65 -1 77 -1 65 -1 #SUP: 2
65 -1 77 -1 77 -1 #SUP: 3
65 -1 77 -1 123 -1 #SUP: 3
65 -1 77 -1 170 -1 #SUP: 2
65 -1 77 -1 193 -1 #SUP: 2
65 -1 77 -1 291 -1 #SUP: 2
65 -1 77 -1 520 -1 #SUP: 2
65 -1 77 -1 599 -1 #SUP: 2
65 -1 123 -1 64 -1 #SUP: 2
65 -1 152 -1 22 -1 #SUP: 2
65 -1 152 -1 65 -1 #SUP: 2
65 -1 152 -1 77 -1 #SUP: 3
65 -1 152 -1 170 -1 #SUP: 2
65 -1 154 -1 22 -1 #SUP: 3
65 -1 170 -1 65 -1 #SUP: 2
65 -1 193 -1 77 -1 #SUP: 2
65 -1 193 -1 154 -1 #SUP: 2
65 -1 193 -1 170 -1 #SUP: 2
65 -1 222 -1 22 -1 #SUP: 2
65 -1 222 -1 77 -1 #SUP: 2
65 -1 1736 -1 32 -1 #SUP: 2
70 -1 22 -1 64 -1 #SUP: 2
70 -1 154 -1 123 -1 #SUP: 2
77 -1 2 -1 41 -1 #SUP: 3
77 -1 2 -1 65 -1 #SUP: 2
77 -1 2 -1 77 -1 #SUP: 2
77 -1 2 -1 123 -1 #SUP: 2
77 -1 2 -1 154 -1 #SUP: 2
77 -1 10 -1 22 -1 #SUP: 2
77 -1 10 -1 32 -1 #SUP: 2
77 -1 16 -1 22 -1 #SUP: 2
77 -1 16 -1 77 -1 #SUP: 2
77 -1 22 -1 2 -1 #SUP: 2
77 -1 22 -1 22 -1 #SUP: 8
77 -1 22 -1 32 -1 #SUP: 6
77 -1 22 -1 41 -1 #SUP: 2
77 -1 22 -1 65 -1 #SUP: 2
77 -1 22 -1 76 -1 #SUP: 2
77 -1 22 -1 77 -1 #SUP: 7
77 -1 22 -1 78 -1 #SUP: 2
77 -1 22 -1 123 -1 #SUP: 2
77 -1 22 -1 154 -1 #SUP: 2
77 -1 22 -1 170 -1 #SUP: 4
77 -1 22 -1 1174 -1 #SUP: 2
77 -1 22 -1 1572 -1 #SUP: 2
77 -1 22 -1 10378 -1 #SUP: 2
77 -1 32 -1 22 -1 #SUP: 3
77 -1 32 -1 77 -1 #SUP: 2
77 -1 41 -1 22 -1 #SUP: 4
77 -1 41 -1 32 -1 #SUP: 2
77 -1 41 -1 77 -1 #SUP: 5
77 -1 41 -1 78 -1 #SUP: 2
77 -1 41 -1 123 -1 #SUP: 3
77 -1 41 -1 220 -1 #SUP: 2
77 -1 41 -1 334 -1 #SUP: 2
77 -1 41 -1 1062 -1 #SUP: 2
77 -1 64 -1 22 -1 #SUP: 3
77 -1 64 -1 65 -1 #SUP: 2
77 -1 64 -1 67 -1 #SUP: 3
77 -1 64 -1 77 -1 #SUP: 4
77 -1 64 -1 154 -1 #SUP: 2
77 -1 64 -1 599 -1 #SUP: 2
77 -1 65 -1 32 -1 #SUP: 2
77 -1 65 -1 65 -1 #SUP: 2
77 -1 65 -1 66 -1 #SUP: 2
77 -1 65 -1 77 -1 #SUP: 4
77 -1 65 -1 123 -1 #SUP: 2
77 -1 67 -1 77 -1 #SUP: 2
77 -1 67 -1 117 -1 #SUP: 2
77 -1 67 -1 1050 -1 #SUP: 2
77 -1 76 -1 77 -1 #SUP: 2
77 -1 77 -1 2 -1 #SUP: 2
77 -1 77 -1 16 -1 #SUP: 3
77 -1 77 -1 22 -1 #SUP: 4
77 -1 77 -1 50 -1 #SUP: 2
77 -1 77 -1 64 -1 #SUP: 3
77 -1 77 -1 65 -1 #SUP: 2
77 -1 77 -1 67 -1 #SUP: 3
77 -1 77 -1 77 -1 #SUP: 3
77 -1 77 -1 123 -1 #SUP: 2
77 -1 77 -1 154 -1 #SUP: 2
77 -1 77 -1 170 -1 #SUP: 2
77 -1 77 -1 220 -1 #SUP: 2
77 -1 77 -1 236 -1 #SUP: 2
77 -1 77 -1 599 -1 #SUP: 3
77 -1 77 -1 711 -1 #SUP: 2
77 -1 77 -1 1062 -1 #SUP: 2
77 -1 78 -1 77 -1 #SUP: 2
77 -1 78 -1 1335 -1 #SUP: 2
77 -1 123 -1 2 -1 #SUP: 2
77 -1 123 -1 22 -1 #SUP: 6
77 -1 123 -1 27 -1 #SUP: 2
77 -1 123 -1 32 -1 #SUP: 2
77 -1 123 -1 41 -1 #SUP: 5
77 -1 123 -1 50 -1 #SUP: 3
77 -1 123 -1 64 -1 #SUP: 9
77 -1 123 -1 65 -1 #SUP: 3
77 -1 123 -1 67 -1 #SUP: 4
77 -1 123 -1 77 -1 #SUP: 6
77 -1 123 -1 120 -1 #SUP: 2
77 -1 123 -1 123 -1 #SUP: 7
77 -1 123 -1 144 -1 #SUP: 3
77 -1 123 -1 154 -1 #SUP: 2
77 -1 123 -1 160 -1 #SUP: 2
77 -1 123 -1 164 -1 #SUP: 2
77 -1 123 -1 174 -1 #SUP: 2
77 -1 123 -1 193 -1 #SUP: 2
77 -1 123 -1 206 -1 #SUP: 2
77 -1 123 -1 222 -1 #SUP: 2
77 -1 123 -1 322 -1 #SUP: 2
77 -1 123 -1 334 -1 #SUP: 2
77 -1 123 -1 483 -1 #SUP: 2
77 -1 123 -1 488 -1 #SUP: 2
77 -1 123 -1 593 -1 #SUP: 2
77 -1 123 -1 599 -1 #SUP: 3
77 -1 123 -1 1461 -1 #SUP: 2
77 -1 123 -1 1688 -1 #SUP: 2
77 -1 123 -1 1758 -1 #SUP: 2
77 -1 144 -1 64 -1 #SUP: 2
77 -1 152 -1 22 -1 #SUP: 2
77 -1 152 -1 77 -1 #SUP: 2
77 -1 154 -1 22 -1 #SUP: 5
77 -1 154 -1 65 -1 #SUP: 2
77 -1 154 -1 77 -1 #SUP: 2
77 -1 154 -1 123 -1 #SUP: 2
77 -1 154 -1 170 -1 #SUP: 2
77 -1 154 -1 291 -1 #SUP: 2
77 -1 159 -1 22 -1 #SUP: 2
77 -1 162 -1 65 -1 #SUP: 3
77 -1 162 -1 77 -1 #SUP: 2
77 -1 162 -1 123 -1 #SUP: 3
77 -1 164 -1 22 -1 #SUP: 2
77 -1 164 -1 167 -1 #SUP: 2
77 -1 170 -1 16 -1 #SUP: 3
77 -1 170 -1 22 -1 #SUP: 3
77 -1 170 -1 32 -1 #SUP: 2
77 -1 170 -1 77 -1 #SUP: 3
77 -1 171 -1 65 -1 #SUP: 2
77 -1 193 -1 2 -1 #SUP: 3
77 -1 193 -1 67 -1 #SUP: 2
77 -1 193 -1 77 -1 #SUP: 2
77 -1 193 -1 701 -1 #SUP: 2
77 -1 201 -1 77 -1 #SUP: 2
77 -1 220 -1 67 -1 #SUP: 2
77 -1 220 -1 78 -1 #SUP: 2
77 -1 220 -1 117 -1 #SUP: 2
77 -1 220 -1 123 -1 #SUP: 2
77 -1 222 -1 22 -1 #SUP: 3
77 -1 222 -1 77 -1 #SUP: 2
77 -1 222 -1 154 -1 #SUP: 2
77 -1 222 -1 291 -1 #SUP: 2
77 -1 236 -1 77 -1 #SUP: 2
77 -1 248 -1 1461 -1 #SUP: 2
77 -1 262 -1 22 -1 #SUP: 3
77 -1 262 -1 167 -1 #SUP: 2
77 -1 274 -1 77 -1 #SUP: 2
77 -1 291 -1 22 -1 #SUP: 3
77 -1 291 -1 77 -1 #SUP: 2
77 -1 322 -1 123 -1 #SUP: 2
77 -1 326 -1 32 -1 #SUP: 2
77 -1 326 -1 439 -1 #SUP: 2
77 -1 334 -1 77 -1 #SUP: 2
77 -1 439 -1 32 -1 #SUP: 2
77 -1 488 -1 64 -1 #SUP: 2
77 -1 488 -1 67 -1 #SUP: 2
77 -1 517 -1 77 -1 #SUP: 2
77 -1 520 -1 123 -1 #SUP: 2
77 -1 520 -1 256 -1 #SUP: 2
77 -1 599 -1 22 -1 #SUP: 8
77 -1 599 -1 32 -1 #SUP: 3
77 -1 599 -1 41 -1 #SUP: 5
77 -1 599 -1 64 -1 #SUP: 3
77 -1 599 -1 65 -1 #SUP: 2
77 -1 599 -1 67 -1 #SUP: 4
77 -1 599 -1 70 -1 #SUP: 2
77 -1 599 -1 77 -1 #SUP: 5
77 -1 599 -1 78 -1 #SUP: 3
77 -1 599 -1 123 -1 #SUP: 7
77 -1 599 -1 144 -1 #SUP: 2
77 -1 599 -1 154 -1 #SUP: 2
77 -1 599 -1 162 -1 #SUP: 2
77 -1 599 -1 164 -1 #SUP: 2
77 -1 599 -1 193 -1 #SUP: 2
77 -1 599 -1 198 -1 #SUP: 2
77 -1 599 -1 201 -1 #SUP: 3
77 -1 599 -1 220 -1 #SUP: 3
77 -1 599 -1 334 -1 #SUP: 2
77 -1 599 -1 488 -1 #SUP: 2
77 -1 599 -1 517 -1 #SUP: 3
77 -1 599 -1 1461 -1 #SUP: 2
77 -1 921 -1 67 -1 #SUP: 2
77 -1 1335 -1 22 -1 #SUP: 2
77 -1 1335 -1 77 -1 #SUP: 2
77 -1 1335 -1 1461 -1 #SUP: 2
77 -1 1461 -1 22 -1 #SUP: 2
77 -1 1461 -1 65 -1 #SUP: 2
77 -1 1685 -1 22 -1 #SUP: 2
77 -1 1685 -1 32 -1 #SUP: 2
77 -1 1688 -1 41 -1 #SUP: 2
77 -1 1758 -1 22 -1 #SUP: 2
78 -1 10 -1 22 -1 #SUP: 2
78 -1 41 -1 22 -1 #SUP: 2
78 -1 41 -1 77 -1 #SUP: 2
78 -1 65 -1 171 -1 #SUP: 2
78 -1 77 -1 22 -1 #SUP: 4
78 -1 77 -1 599 -1 #SUP: 2
78 -1 154 -1 22 -1 #SUP: 3
78 -1 170 -1 65 -1 #SUP: 2
78 -1 171 -1 77 -1 #SUP: 2
78 -1 599 -1 22 -1 #SUP: 2
120 -1 70 -1 32 -1 #SUP: 2
120 -1 77 -1 65 -1 #SUP: 2
120 -1 77 -1 162 -1 #SUP: 2
120 -1 77 -1 599 -1 #SUP: 3
120 -1 162 -1 65 -1 #SUP: 2
120 -1 286 -1 32 -1 #SUP: 2
120 -1 286 -1 70 -1 #SUP: 3
120 -1 286 -1 117 -1 #SUP: 2
120 -1 286 -1 123 -1 #SUP: 2
120 -1 599 -1 65 -1 #SUP: 2
120 -1 599 -1 162 -1 #SUP: 2
123 -1 2 -1 22 -1 #SUP: 2
123 -1 2 -1 41 -1 #SUP: 2
123 -1 2 -1 65 -1 #SUP: 2
123 -1 2 -1 154 -1 #SUP: 2
123 -1 10 -1 77 -1 #SUP: 2
123 -1 22 -1 22 -1 #SUP: 2
123 -1 22 -1 32 -1 #SUP: 5
123 -1 22 -1 41 -1 #SUP: 2
123 -1 22 -1 64 -1 #SUP: 3
123 -1 22 -1 65 -1 #SUP: 2
123 -1 22 -1 77 -1 #SUP: 5
123 -1 22 -1 123 -1 #SUP: 4
123 -1 22 -1 132 -1 #SUP: 2
123 -1 22 -1 154 -1 #SUP: 2
123 -1 22 -1 291 -1 #SUP: 2
123 -1 22 -1 1039 -1 #SUP: 2
123 -1 32 -1 22 -1 #SUP: 2
123 -1 32 -1 65 -1 #SUP: 3
123 -1 32 -1 77 -1 #SUP: 2
123 -1 32 -1 154 -1 #SUP: 2
123 -1 32 -1 326 -1 #SUP: 2
123 -1 33 -1 67 -1 #SUP: 2
123 -1 33 -1 193 -1 #SUP: 2
123 -1 41 -1 41 -1 #SUP: 2
123 -1 41 -1 50 -1 #SUP: 2
123 -1 41 -1 64 -1 #SUP: 2
123 -1 41 -1 77 -1 #SUP: 3
123 -1 41 -1 123 -1 #SUP: 3
123 -1 41 -1 1688 -1 #SUP: 2
123 -1 50 -1 13 -1 #SUP: 2
123 -1 64 -1 64 -1 #SUP: 2
123 -1 64 -1 65 -1 #SUP: 2
123 -1 64 -1 67 -1 #SUP: 3
123 -1 64 -1 77 -1 #SUP: 3
123 -1 64 -1 123 -1 #SUP: 2
123 -1 64 -1 164 -1 #SUP: 2
123 -1 64 -1 318 -1 #SUP: 2
123 -1 64 -1 411 -1 #SUP: 2
123 -1 64 -1 599 -1 #SUP: 3
123 -1 65 -1 22 -1 #SUP: 3
123 -1 65 -1 32 -1 #SUP: 3
123 -1 65 -1 65 -1 #SUP: 2
123 -1 65 -1 77 -1 #SUP: 4
123 -1 65 -1 123 -1 #SUP: 2
123 -1 65 -1 206 -1 #SUP: 2
123 -1 65 -1 520 -1 #SUP: 2
123 -1 67 -1 151 -1 #SUP: 2
123 -1 67 -1 1050 -1 #SUP: 2
123 -1 70 -1 22 -1 #SUP: 2
123 -1 70 -1 32 -1 #SUP: 2
123 -1 77 -1 2 -1 #SUP: 2
123 -1 77 -1 16 -1 #SUP: 2
123 -1 77 -1 22 -1 #SUP: 2
123 -1 77 -1 41 -1 #SUP: 3
123 -1 77 -1 50 -1 #SUP: 3
123 -1 77 -1 64 -1 #SUP: 5
123 -1 77 -1 67 -1 #SUP: 3
123 -1 77 -1 77 -1 #SUP: 5
123 -1 77 -1 123 -1 #SUP: 7
123 -1 77 -1 144 -1 #SUP: 2
123 -1 77 -1 162 -1 #SUP: 3
123 -1 77 -1 193 -1 #SUP: 2
123 -1 77 -1 206 -1 #SUP: 2
123 -1 77 -1 520 -1 #SUP: 3
123 -1 77 -1 599 -1 #SUP: 7
123 -1 77 -1 1688 -1 #SUP: 2
123 -1 120 -1 22 -1 #SUP: 2
123 -1 120 -1 32 -1 #SUP: 2
123 -1 120 -1 64 -1 #SUP: 2
123 -1 120 -1 65 -1 #SUP: 3
123 -1 120 -1 66 -1 #SUP: 2
123 -1 120 -1 70 -1 #SUP: 3
123 -1 120 -1 77 -1 #SUP: 4
123 -1 120 -1 117 -1 #SUP: 2
123 -1 120 -1 123 -1 #SUP: 3
123 -1 120 -1 162 -1 #SUP: 2
123 -1 120 -1 286 -1 #SUP: 4
123 -1 120 -1 599 -1 #SUP: 3
123 -1 123 -1 32 -1 #SUP: 3
123 -1 123 -1 41 -1 #SUP: 2
123 -1 123 -1 50 -1 #SUP: 3
123 -1 123 -1 64 -1 #SUP: 5
123 -1 123 -1 65 -1 #SUP: 3
123 -1 123 -1 77 -1 #SUP: 4
123 -1 123 -1 123 -1 #SUP: 3
123 -1 123 -1 144 -1 #SUP: 3
123 -1 123 -1 206 -1 #SUP: 3
123 -1 123 -1 1688 -1 #SUP: 2
123 -1 127 -1 77 -1 #SUP: 2
123 -1 132 -1 32 -1 #SUP: 2
123 -1 144 -1 50 -1 #SUP: 2
123 -1 144 -1 64 -1 #SUP: 2
123 -1 154 -1 10 -1 #SUP: 2
123 -1 154 -1 22 -1 #SUP: 2
123 -1 154 -1 67 -1 #SUP: 3
123 -1 154 -1 77 -1 #SUP: 2
123 -1 154 -1 175 -1 #SUP: 2
123 -1 154 -1 193 -1 #SUP: 2
123 -1 162 -1 123 -1 #SUP: 2
123 -1 164 -1 27 -1 #SUP: 2
123 -1 193 -1 67 -1 #SUP: 3
123 -1 193 -1 431 -1 #SUP: 2
123 -1 200 -1 170 -1 #SUP: 2
123 -1 206 -1 22 -1 #SUP: 2
123 -1 206 -1 32 -1 #SUP: 2
123 -1 206 -1 65 -1 #SUP: 3
123 -1 206 -1 77 -1 #SUP: 2
123 -1 206 -1 123 -1 #SUP: 2
123 -1 206 -1 206 -1 #SUP: 2
123 -1 220 -1 67 -1 #SUP: 2
123 -1 220 -1 193 -1 #SUP: 2
123 -1 220 -1 431 -1 #SUP: 2
123 -1 237 -1 22 -1 #SUP: 2
123 -1 237 -1 64 -1 #SUP: 2
123 -1 274 -1 77 -1 #SUP: 2
123 -1 278 -1 64 -1 #SUP: 2
123 -1 286 -1 22 -1 #SUP: 3
123 -1 286 -1 32 -1 #SUP: 3
123 -1 286 -1 70 -1 #SUP: 4
123 -1 286 -1 77 -1 #SUP: 2
123 -1 286 -1 117 -1 #SUP: 2
123 -1 286 -1 123 -1 #SUP: 3
123 -1 286 -1 154 -1 #SUP: 2
123 -1 286 -1 326 -1 #SUP: 2
123 -1 291 -1 22 -1 #SUP: 2
123 -1 291 -1 123 -1 #SUP: 2
123 -1 322 -1 154 -1 #SUP: 2
123 -1 326 -1 32 -1 #SUP: 2
123 -1 381 -1 77 -1 #SUP: 2
123 -1 381 -1 599 -1 #SUP: 2
123 -1 411 -1 2 -1 #SUP: 2
123 -1 411 -1 64 -1 #SUP: 2
123 -1 411 -1 65 -1 #SUP: 3
123 -1 411 -1 77 -1 #SUP: 2
123 -1 411 -1 123 -1 #SUP: 2
123 -1 417 -1 50 -1 #SUP: 2
123 -1 441 -1 22 -1 #SUP: 2
123 -1 441 -1 64 -1 #SUP: 2
123 -1 483 -1 64 -1 #SUP: 2
123 -1 488 -1 64 -1 #SUP: 2
123 -1 488 -1 67 -1 #SUP: 2
123 -1 599 -1 64 -1 #SUP: 2
123 -1 599 -1 67 -1 #SUP: 2
123 -1 599 -1 123 -1 #SUP: 2
123 -1 599 -1 162 -1 #SUP: 2
123 -1 599 -1 193 -1 #SUP: 2
123 -1 638 -1 64 -1 #SUP: 2
123 -1 715 -1 27 -1 #SUP: 2
123 -1 715 -1 164 -1 #SUP: 2
123 -1 1039 -1 32 -1 #SUP: 2
123 -1 1256 -1 41 -1 #SUP: 2
123 -1 1256 -1 64 -1 #SUP: 2
123 -1 1256 -1 77 -1 #SUP: 2
123 -1 1256 -1 123 -1 #SUP: 2
123 -1 1256 -1 1688 -1 #SUP: 2
123 -1 1313 -1 64 -1 #SUP: 2
123 -1 1688 -1 41 -1 #SUP: 2
123 -1 1758 -1 22 -1 #SUP: 2
123 -1 2910 -1 33 -1 #SUP: 2
123 -1 3547 -1 64 -1 #SUP: 2
127 -1 10 -1 22 -1 #SUP: 2
127 -1 77 -1 77 -1 #SUP: 2
127 -1 154 -1 10 -1 #SUP: 2
127 -1 154 -1 22 -1 #SUP: 2
140 -1 154 -1 1129 -1 #SUP: 2
140 -1 154 -1 4817 -1 #SUP: 2
140 -1 369 -1 154 -1 #SUP: 2
140 -1 369 -1 1129 -1 #SUP: 2
140 -1 369 -1 4817 -1 #SUP: 2
140 -1 1129 -1 4817 -1 #SUP: 2
144 -1 1461 -1 65 -1 #SUP: 2
152 -1 65 -1 65 -1 #SUP: 2
152 -1 65 -1 170 -1 #SUP: 2
152 -1 170 -1 65 -1 #SUP: 2
154 -1 2 -1 10 -1 #SUP: 2
154 -1 2 -1 22 -1 #SUP: 2
154 -1 2 -1 64 -1 #SUP: 2
154 -1 10 -1 22 -1 #SUP: 2
154 -1 10 -1 960 -1 #SUP: 2
154 -1 22 -1 2 -1 #SUP: 2
154 -1 22 -1 10 -1 #SUP: 2
154 -1 22 -1 22 -1 #SUP: 3
154 -1 22 -1 32 -1 #SUP: 4
154 -1 22 -1 64 -1 #SUP: 3
154 -1 22 -1 65 -1 #SUP: 2
154 -1 22 -1 77 -1 #SUP: 2
154 -1 22 -1 123 -1 #SUP: 2
154 -1 22 -1 144 -1 #SUP: 2
154 -1 22 -1 154 -1 #SUP: 2
154 -1 22 -1 170 -1 #SUP: 3
154 -1 22 -1 291 -1 #SUP: 2
154 -1 22 -1 855 -1 #SUP: 2
154 -1 31 -1 2 -1 #SUP: 2
154 -1 31 -1 154 -1 #SUP: 2
154 -1 41 -1 22 -1 #SUP: 2
154 -1 41 -1 32 -1 #SUP: 2
154 -1 64 -1 22 -1 #SUP: 3
154 -1 67 -1 152 -1 #SUP: 2
154 -1 77 -1 32 -1 #SUP: 3
154 -1 77 -1 77 -1 #SUP: 2
154 -1 77 -1 123 -1 #SUP: 2
154 -1 77 -1 193 -1 #SUP: 2
154 -1 77 -1 326 -1 #SUP: 2
154 -1 77 -1 439 -1 #SUP: 2
154 -1 77 -1 599 -1 #SUP: 3
154 -1 123 -1 22 -1 #SUP: 2
154 -1 123 -1 32 -1 #SUP: 2
154 -1 170 -1 22 -1 #SUP: 2
154 -1 193 -1 67 -1 #SUP: 2
154 -1 220 -1 10 -1 #SUP: 2
154 -1 220 -1 7181 -1 #SUP: 2
154 -1 291 -1 22 -1 #SUP: 2
154 -1 291 -1 123 -1 #SUP: 2
154 -1 326 -1 32 -1 #SUP: 2
154 -1 326 -1 439 -1 #SUP: 2
154 -1 417 -1 50 -1 #SUP: 2
154 -1 439 -1 32 -1 #SUP: 2
154 -1 1129 -1 4817 -1 #SUP: 2
154 -1 1758 -1 22 -1 #SUP: 2
154 -1 7181 -1 10 -1 #SUP: 2
158 -1 65 -1 2 -1 #SUP: 2
159 -1 22 -1 77 -1 #SUP: 2
162 -1 10 -1 22 -1 #SUP: 2
162 -1 22 -1 67 -1 #SUP: 2
162 -1 22 -1 77 -1 #SUP: 2
162 -1 22 -1 123 -1 #SUP: 2
162 -1 64 -1 77 -1 #SUP: 2
162 -1 65 -1 77 -1 #SUP: 2
162 -1 77 -1 67 -1 #SUP: 2
162 -1 77 -1 123 -1 #SUP: 3
162 -1 77 -1 220 -1 #SUP: 2
162 -1 123 -1 64 -1 #SUP: 2
162 -1 123 -1 67 -1 #SUP: 2
162 -1 123 -1 77 -1 #SUP: 3
162 -1 123 -1 123 -1 #SUP: 3
162 -1 364 -1 10 -1 #SUP: 2
162 -1 364 -1 22 -1 #SUP: 2
164 -1 22 -1 32 -1 #SUP: 3
164 -1 32 -1 2 -1 #SUP: 2
164 -1 77 -1 22 -1 #SUP: 2
164 -1 77 -1 123 -1 #SUP: 2
164 -1 77 -1 599 -1 #SUP: 2
164 -1 599 -1 123 -1 #SUP: 2
170 -1 2 -1 77 -1 #SUP: 3
170 -1 2 -1 223 -1 #SUP: 2
170 -1 16 -1 77 -1 #SUP: 3
170 -1 22 -1 22 -1 #SUP: 2
170 -1 22 -1 32 -1 #SUP: 2
170 -1 22 -1 64 -1 #SUP: 2
170 -1 22 -1 77 -1 #SUP: 4
170 -1 22 -1 123 -1 #SUP: 2
170 -1 22 -1 164 -1 #SUP: 2
170 -1 22 -1 599 -1 #SUP: 2
170 -1 22 -1 651 -1 #SUP: 2
170 -1 64 -1 22 -1 #SUP: 2
170 -1 64 -1 77 -1 #SUP: 2
170 -1 77 -1 123 -1 #SUP: 2
170 -1 77 -1 599 -1 #SUP: 3
170 -1 154 -1 22 -1 #SUP: 2
170 -1 326 -1 32 -1 #SUP: 2
171 -1 2 -1 22 -1 #SUP: 2
171 -1 2 -1 64 -1 #SUP: 2
171 -1 2 -1 213 -1 #SUP: 2
171 -1 22 -1 64 -1 #SUP: 2
171 -1 22 -1 77 -1 #SUP: 2
171 -1 22 -1 170 -1 #SUP: 2
171 -1 22 -1 213 -1 #SUP: 2
171 -1 77 -1 170 -1 #SUP: 2
171 -1 213 -1 64 -1 #SUP: 2
175 -1 77 -1 77 -1 #SUP: 3
193 -1 64 -1 77 -1 #SUP: 2
193 -1 77 -1 2 -1 #SUP: 2
193 -1 77 -1 193 -1 #SUP: 3
193 -1 154 -1 77 -1 #SUP: 3
193 -1 193 -1 2 -1 #SUP: 2
198 -1 77 -1 22 -1 #SUP: 2
198 -1 77 -1 599 -1 #SUP: 2
200 -1 170 -1 67 -1 #SUP: 2
200 -1 170 -1 77 -1 #SUP: 2
206 -1 32 -1 65 -1 #SUP: 2
206 -1 123 -1 32 -1 #SUP: 2
206 -1 123 -1 65 -1 #SUP: 2
206 -1 123 -1 206 -1 #SUP: 2
206 -1 206 -1 32 -1 #SUP: 2
206 -1 206 -1 65 -1 #SUP: 2
212 -1 65 -1 2 -1 #SUP: 2
212 -1 158 -1 2 -1 #SUP: 2
212 -1 158 -1 65 -1 #SUP: 2
213 -1 64 -1 77 -1 #SUP: 2
220 -1 67 -1 117 -1 #SUP: 2
222 -1 22 -1 32 -1 #SUP: 2
222 -1 22 -1 77 -1 #SUP: 3
222 -1 22 -1 123 -1 #SUP: 2
222 -1 22 -1 291 -1 #SUP: 2
222 -1 77 -1 22 -1 #SUP: 2
222 -1 77 -1 123 -1 #SUP: 2
222 -1 77 -1 599 -1 #SUP: 2
222 -1 123 -1 22 -1 #SUP: 2
222 -1 154 -1 22 -1 #SUP: 3
222 -1 154 -1 123 -1 #SUP: 3
222 -1 154 -1 291 -1 #SUP: 2
222 -1 291 -1 22 -1 #SUP: 2
222 -1 291 -1 123 -1 #SUP: 2
222 -1 599 -1 22 -1 #SUP: 2
225 -1 286 -1 154 -1 #SUP: 2
225 -1 356 -1 77 -1 #SUP: 2
225 -1 369 -1 154 -1 #SUP: 2
225 -1 369 -1 286 -1 #SUP: 2
236 -1 2 -1 77 -1 #SUP: 2
236 -1 31 -1 175 -1 #SUP: 2
236 -1 41 -1 41 -1 #SUP: 2
236 -1 41 -1 77 -1 #SUP: 2
236 -1 41 -1 123 -1 #SUP: 2
236 -1 41 -1 1688 -1 #SUP: 2
236 -1 50 -1 41 -1 #SUP: 2
236 -1 50 -1 64 -1 #SUP: 2
236 -1 64 -1 41 -1 #SUP: 2
236 -1 65 -1 77 -1 #SUP: 2
236 -1 77 -1 41 -1 #SUP: 2
236 -1 77 -1 64 -1 #SUP: 2
236 -1 77 -1 77 -1 #SUP: 2
236 -1 77 -1 123 -1 #SUP: 3
236 -1 77 -1 1688 -1 #SUP: 2
236 -1 123 -1 41 -1 #SUP: 2
236 -1 123 -1 64 -1 #SUP: 2
236 -1 123 -1 77 -1 #SUP: 2
236 -1 123 -1 123 -1 #SUP: 2
236 -1 123 -1 1256 -1 #SUP: 2
236 -1 123 -1 1688 -1 #SUP: 2
236 -1 326 -1 32 -1 #SUP: 2
236 -1 964 -1 77 -1 #SUP: 2
236 -1 1256 -1 41 -1 #SUP: 2
236 -1 1256 -1 77 -1 #SUP: 2
236 -1 1256 -1 123 -1 #SUP: 2
236 -1 1256 -1 1688 -1 #SUP: 2
236 -1 1688 -1 41 -1 #SUP: 2
237 -1 22 -1 64 -1 #SUP: 3
237 -1 22 -1 77 -1 #SUP: 2
237 -1 22 -1 123 -1 #SUP: 2
237 -1 64 -1 77 -1 #SUP: 2
237 -1 77 -1 123 -1 #SUP: 2
246 -1 22 -1 2 -1 #SUP: 2
246 -1 22 -1 22 -1 #SUP: 2
246 -1 77 -1 2 -1 #SUP: 2
246 -1 77 -1 22 -1 #SUP: 3
246 -1 77 -1 77 -1 #SUP: 2
246 -1 77 -1 123 -1 #SUP: 3
246 -1 77 -1 154 -1 #SUP: 2
246 -1 123 -1 22 -1 #SUP: 2
246 -1 154 -1 22 -1 #SUP: 2
254 -1 77 -1 77 -1 #SUP: 2
254 -1 77 -1 78 -1 #SUP: 2
254 -1 123 -1 123 -1 #SUP: 2
262 -1 22 -1 2 -1 #SUP: 2
262 -1 22 -1 22 -1 #SUP: 3
262 -1 22 -1 32 -1 #SUP: 2
262 -1 22 -1 77 -1 #SUP: 2
262 -1 22 -1 164 -1 #SUP: 2
262 -1 22 -1 851 -1 #SUP: 2
262 -1 32 -1 2 -1 #SUP: 2
262 -1 65 -1 32 -1 #SUP: 2
262 -1 77 -1 2 -1 #SUP: 2
262 -1 77 -1 65 -1 #SUP: 2
262 -1 77 -1 123 -1 #SUP: 2
262 -1 77 -1 154 -1 #SUP: 2
262 -1 77 -1 599 -1 #SUP: 2
262 -1 164 -1 2 -1 #SUP: 2
262 -1 164 -1 32 -1 #SUP: 2
262 -1 170 -1 22 -1 #SUP: 2
262 -1 170 -1 77 -1 #SUP: 2
262 -1 170 -1 164 -1 #SUP: 2
262 -1 170 -1 599 -1 #SUP: 2
278 -1 64 -1 77 -1 #SUP: 2
278 -1 64 -1 441 -1 #SUP: 2
278 -1 64 -1 599 -1 #SUP: 2
278 -1 77 -1 599 -1 #SUP: 2
280 -1 10 -1 22 -1 #SUP: 2
280 -1 22 -1 22 -1 #SUP: 2
280 -1 64 -1 22 -1 #SUP: 2
280 -1 77 -1 10 -1 #SUP: 2
280 -1 152 -1 10 -1 #SUP: 2
286 -1 22 -1 32 -1 #SUP: 2
286 -1 22 -1 64 -1 #SUP: 2
286 -1 70 -1 22 -1 #SUP: 2
286 -1 70 -1 32 -1 #SUP: 2
286 -1 70 -1 64 -1 #SUP: 2
286 -1 154 -1 65 -1 #SUP: 2
286 -1 326 -1 32 -1 #SUP: 2
291 -1 22 -1 77 -1 #SUP: 2
291 -1 22 -1 123 -1 #SUP: 3
291 -1 77 -1 123 -1 #SUP: 3
326 -1 439 -1 32 -1 #SUP: 2
356 -1 77 -1 65 -1 #SUP: 2
356 -1 1461 -1 65 -1 #SUP: 2
364 -1 10 -1 22 -1 #SUP: 2
364 -1 10 -1 77 -1 #SUP: 2
364 -1 16 -1 22 -1 #SUP: 2
364 -1 16 -1 200 -1 #SUP: 2
364 -1 22 -1 77 -1 #SUP: 2
364 -1 22 -1 220 -1 #SUP: 2
364 -1 41 -1 77 -1 #SUP: 3
364 -1 50 -1 64 -1 #SUP: 2
364 -1 50 -1 154 -1 #SUP: 3
364 -1 64 -1 10 -1 #SUP: 2
364 -1 64 -1 41 -1 #SUP: 2
364 -1 64 -1 77 -1 #SUP: 3
364 -1 64 -1 154 -1 #SUP: 3
364 -1 64 -1 220 -1 #SUP: 2
364 -1 64 -1 599 -1 #SUP: 2
364 -1 77 -1 220 -1 #SUP: 2
364 -1 77 -1 599 -1 #SUP: 2
364 -1 154 -1 10 -1 #SUP: 2
364 -1 154 -1 22 -1 #SUP: 2
364 -1 483 -1 64 -1 #SUP: 2
364 -1 483 -1 154 -1 #SUP: 2
369 -1 154 -1 1129 -1 #SUP: 2
369 -1 154 -1 4817 -1 #SUP: 2
369 -1 262 -1 2 -1 #SUP: 2
369 -1 286 -1 154 -1 #SUP: 2
369 -1 1129 -1 4817 -1 #SUP: 2
381 -1 77 -1 599 -1 #SUP: 2
411 -1 2 -1 65 -1 #SUP: 2
411 -1 64 -1 65 -1 #SUP: 2
411 -1 64 -1 123 -1 #SUP: 2
411 -1 65 -1 123 -1 #SUP: 2
411 -1 77 -1 123 -1 #SUP: 3
411 -1 77 -1 599 -1 #SUP: 2
411 -1 123 -1 123 -1 #SUP: 2
411 -1 599 -1 123 -1 #SUP: 2
417 -1 77 -1 65 -1 #SUP: 2
441 -1 22 -1 32 -1 #SUP: 2
441 -1 64 -1 22 -1 #SUP: 2
441 -1 64 -1 164 -1 #SUP: 2
441 -1 164 -1 22 -1 #SUP: 3
441 -1 164 -1 32 -1 #SUP: 2
443 -1 77 -1 22 -1 #SUP: 2
483 -1 64 -1 77 -1 #SUP: 2
483 -1 64 -1 441 -1 #SUP: 2
483 -1 64 -1 599 -1 #SUP: 2
483 -1 77 -1 599 -1 #SUP: 2
488 -1 64 -1 67 -1 #SUP: 2
517 -1 77 -1 567 -1 #SUP: 2
520 -1 65 -1 65 -1 #SUP: 2
599 -1 22 -1 32 -1 #SUP: 2
599 -1 22 -1 77 -1 #SUP: 2
599 -1 32 -1 77 -1 #SUP: 2
599 -1 41 -1 22 -1 #SUP: 4
599 -1 41 -1 32 -1 #SUP: 2
599 -1 41 -1 77 -1 #SUP: 3
599 -1 41 -1 78 -1 #SUP: 2
599 -1 41 -1 220 -1 #SUP: 2
599 -1 41 -1 334 -1 #SUP: 2
599 -1 64 -1 67 -1 #SUP: 2
599 -1 77 -1 220 -1 #SUP: 2
599 -1 77 -1 567 -1 #SUP: 2
599 -1 123 -1 22 -1 #SUP: 3
599 -1 123 -1 64 -1 #SUP: 2
599 -1 123 -1 123 -1 #SUP: 3
599 -1 123 -1 144 -1 #SUP: 2
599 -1 123 -1 164 -1 #SUP: 2
599 -1 154 -1 22 -1 #SUP: 2
599 -1 154 -1 123 -1 #SUP: 2
599 -1 154 -1 417 -1 #SUP: 2
599 -1 162 -1 65 -1 #SUP: 2
599 -1 220 -1 78 -1 #SUP: 2
599 -1 488 -1 64 -1 #SUP: 2
599 -1 488 -1 67 -1 #SUP: 2
599 -1 517 -1 77 -1 #SUP: 3
599 -1 517 -1 567 -1 #SUP: 2
638 -1 64 -1 64 -1 #SUP: 2
638 -1 64 -1 77 -1 #SUP: 2
652 -1 384 -1 64 -1 #SUP: 2
656 -1 64 -1 32 -1 #SUP: 2
656 -1 64 -1 66 -1 #SUP: 2
711 -1 2 -1 41 -1 #SUP: 2
711 -1 65 -1 154 -1 #SUP: 2
715 -1 164 -1 27 -1 #SUP: 2
782 -1 77 -1 22 -1 #SUP: 2
955 -1 77 -1 123 -1 #SUP: 2
965 -1 77 -1 77 -1 #SUP: 2
1205 -1 2 -1 10 -1 #SUP: 2
1205 -1 22 -1 2 -1 #SUP: 2
1205 -1 22 -1 10 -1 #SUP: 2
1205 -1 22 -1 154 -1 #SUP: 2
1205 -1 31 -1 154 -1 #SUP: 2
1205 -1 64 -1 41 -1 #SUP: 2
1205 -1 154 -1 2 -1 #SUP: 2
1205 -1 154 -1 10 -1 #SUP: 2
1205 -1 154 -1 22 -1 #SUP: 2
1256 -1 41 -1 41 -1 #SUP: 2
1256 -1 41 -1 50 -1 #SUP: 2
1256 -1 41 -1 64 -1 #SUP: 2
1256 -1 41 -1 77 -1 #SUP: 2
1256 -1 41 -1 123 -1 #SUP: 2
1256 -1 41 -1 1688 -1 #SUP: 2
1256 -1 77 -1 41 -1 #SUP: 2
1256 -1 77 -1 50 -1 #SUP: 2
1256 -1 77 -1 64 -1 #SUP: 2
1256 -1 77 -1 123 -1 #SUP: 2
1256 -1 77 -1 1688 -1 #SUP: 2
1256 -1 123 -1 41 -1 #SUP: 2
1256 -1 123 -1 50 -1 #SUP: 2
1256 -1 123 -1 64 -1 #SUP: 2
1256 -1 123 -1 1688 -1 #SUP: 2
1256 -1 1688 -1 41 -1 #SUP: 2
1313 -1 64 -1 441 -1 #SUP: 2
1335 -1 77 -1 22 -1 #SUP: 2
1335 -1 1461 -1 22 -1 #SUP: 2
1367 -1 154 -1 22 -1 #SUP: 2
1685 -1 22 -1 32 -1 #SUP: 2
1736 -1 32 -1 50 -1 #SUP: 2
1736 -1 32 -1 154 -1 #SUP: 2
1758 -1 22 -1 32 -1 #SUP: 2
2124 -1 32 -1 76 -1 #SUP: 2
3256 -1 77 -1 22 -1 #SUP: 2
2 -1 10 -1 22 -1 22 -1 #SUP: 2
2 -1 22 -1 64 -1 77 -1 #SUP: 2
2 -1 22 -1 213 -1 64 -1 #SUP: 2
2 -1 22 -1 213 -1 77 -1 #SUP: 2
2 -1 77 -1 123 -1 64 -1 #SUP: 2
2 -1 77 -1 599 -1 41 -1 #SUP: 2
2 -1 123 -1 120 -1 66 -1 #SUP: 2
2 -1 213 -1 64 -1 77 -1 #SUP: 2
10 -1 22 -1 32 -1 22 -1 #SUP: 2
22 -1 10 -1 22 -1 22 -1 #SUP: 2
22 -1 22 -1 22 -1 32 -1 #SUP: 2
22 -1 22 -1 22 -1 171 -1 #SUP: 2
22 -1 22 -1 32 -1 22 -1 #SUP: 2
22 -1 22 -1 32 -1 32 -1 #SUP: 2
22 -1 22 -1 77 -1 22 -1 #SUP: 3
22 -1 22 -1 171 -1 32 -1 #SUP: 2
22 -1 32 -1 22 -1 22 -1 #SUP: 2
22 -1 32 -1 32 -1 22 -1 #SUP: 2
22 -1 32 -1 32 -1 77 -1 #SUP: 2
22 -1 32 -1 64 -1 77 -1 #SUP: 2
22 -1 32 -1 64 -1 123 -1 #SUP: 2
22 -1 32 -1 64 -1 262 -1 #SUP: 2
22 -1 32 -1 64 -1 1242 -1 #SUP: 2
22 -1 32 -1 77 -1 22 -1 #SUP: 2
22 -1 32 -1 77 -1 123 -1 #SUP: 2
22 -1 64 -1 32 -1 65 -1 #SUP: 2
22 -1 64 -1 67 -1 77 -1 #SUP: 2
22 -1 64 -1 77 -1 123 -1 #SUP: 2
22 -1 64 -1 77 -1 599 -1 #SUP: 4
22 -1 65 -1 32 -1 193 -1 #SUP: 2
22 -1 77 -1 67 -1 117 -1 #SUP: 2
22 -1 77 -1 123 -1 64 -1 #SUP: 2
22 -1 77 -1 123 -1 67 -1 #SUP: 2
22 -1 77 -1 154 -1 22 -1 #SUP: 2
22 -1 77 -1 154 -1 123 -1 #SUP: 2
22 -1 77 -1 220 -1 67 -1 #SUP: 2
22 -1 77 -1 220 -1 117 -1 #SUP: 2
22 -1 77 -1 291 -1 22 -1 #SUP: 2
22 -1 77 -1 599 -1 22 -1 #SUP: 3
22 -1 77 -1 599 -1 123 -1 #SUP: 3
22 -1 77 -1 599 -1 154 -1 #SUP: 2
22 -1 77 -1 1758 -1 22 -1 #SUP: 2
22 -1 170 -1 2 -1 77 -1 #SUP: 2
22 -1 170 -1 16 -1 77 -1 #SUP: 2
22 -1 170 -1 22 -1 77 -1 #SUP: 2
22 -1 170 -1 64 -1 22 -1 #SUP: 2
22 -1 170 -1 64 -1 77 -1 #SUP: 2
22 -1 170 -1 154 -1 22 -1 #SUP: 2
22 -1 170 -1 326 -1 32 -1 #SUP: 2
22 -1 213 -1 64 -1 77 -1 #SUP: 2
22 -1 220 -1 67 -1 117 -1 #SUP: 2
22 -1 222 -1 77 -1 599 -1 #SUP: 2
22 -1 222 -1 154 -1 123 -1 #SUP: 2
22 -1 599 -1 154 -1 123 -1 #SUP: 2
22 -1 656 -1 64 -1 32 -1 #SUP: 2
22 -1 656 -1 64 -1 66 -1 #SUP: 2
31 -1 175 -1 77 -1 77 -1 #SUP: 2
32 -1 64 -1 77 -1 123 -1 #SUP: 2
32 -1 64 -1 77 -1 599 -1 #SUP: 3
32 -1 78 -1 10 -1 22 -1 #SUP: 2
41 -1 77 -1 41 -1 123 -1 #SUP: 2
41 -1 77 -1 123 -1 41 -1 #SUP: 2
41 -1 77 -1 123 -1 50 -1 #SUP: 2
41 -1 77 -1 123 -1 64 -1 #SUP: 2
41 -1 77 -1 123 -1 123 -1 #SUP: 2
41 -1 77 -1 123 -1 1688 -1 #SUP: 2
41 -1 77 -1 220 -1 78 -1 #SUP: 2
41 -1 77 -1 599 -1 41 -1 #SUP: 2
41 -1 77 -1 1688 -1 41 -1 #SUP: 2
41 -1 123 -1 1688 -1 41 -1 #SUP: 2
41 -1 154 -1 77 -1 599 -1 #SUP: 2
64 -1 22 -1 22 -1 77 -1 #SUP: 2
64 -1 22 -1 77 -1 22 -1 #SUP: 2
64 -1 22 -1 77 -1 123 -1 #SUP: 2
64 -1 22 -1 77 -1 599 -1 #SUP: 2
64 -1 22 -1 291 -1 22 -1 #SUP: 2
64 -1 22 -1 599 -1 22 -1 #SUP: 2
64 -1 41 -1 22 -1 77 -1 #SUP: 2
64 -1 77 -1 22 -1 32 -1 #SUP: 2
64 -1 77 -1 22 -1 77 -1 #SUP: 2
64 -1 77 -1 41 -1 22 -1 #SUP: 2
64 -1 77 -1 41 -1 77 -1 #SUP: 2
64 -1 77 -1 64 -1 67 -1 #SUP: 2
64 -1 77 -1 488 -1 64 -1 #SUP: 2
64 -1 77 -1 488 -1 67 -1 #SUP: 2
64 -1 77 -1 599 -1 22 -1 #SUP: 4
64 -1 77 -1 599 -1 32 -1 #SUP: 2
64 -1 77 -1 599 -1 41 -1 #SUP: 3
64 -1 77 -1 599 -1 64 -1 #SUP: 2
64 -1 77 -1 599 -1 67 -1 #SUP: 3
64 -1 77 -1 599 -1 77 -1 #SUP: 2
64 -1 77 -1 599 -1 123 -1 #SUP: 3
64 -1 77 -1 599 -1 488 -1 #SUP: 2
64 -1 77 -1 599 -1 517 -1 #SUP: 3
64 -1 154 -1 291 -1 22 -1 #SUP: 2
64 -1 154 -1 1129 -1 4817 -1 #SUP: 2
64 -1 154 -1 1758 -1 22 -1 #SUP: 2
64 -1 159 -1 22 -1 77 -1 #SUP: 2
64 -1 164 -1 22 -1 32 -1 #SUP: 2
64 -1 222 -1 22 -1 77 -1 #SUP: 2
64 -1 222 -1 154 -1 22 -1 #SUP: 2
64 -1 222 -1 154 -1 123 -1 #SUP: 2
64 -1 222 -1 154 -1 291 -1 #SUP: 2
64 -1 222 -1 291 -1 22 -1 #SUP: 2
64 -1 369 -1 154 -1 1129 -1 #SUP: 2
64 -1 369 -1 154 -1 4817 -1 #SUP: 2
64 -1 369 -1 1129 -1 4817 -1 #SUP: 2
64 -1 488 -1 64 -1 67 -1 #SUP: 2
64 -1 599 -1 22 -1 77 -1 #SUP: 2
64 -1 599 -1 41 -1 22 -1 #SUP: 2
64 -1 599 -1 41 -1 77 -1 #SUP: 2
64 -1 599 -1 64 -1 67 -1 #SUP: 2
64 -1 599 -1 488 -1 64 -1 #SUP: 2
64 -1 599 -1 488 -1 67 -1 #SUP: 2
65 -1 64 -1 152 -1 77 -1 #SUP: 2
65 -1 77 -1 64 -1 22 -1 #SUP: 2
65 -1 77 -1 123 -1 64 -1 #SUP: 2
65 -1 152 -1 170 -1 65 -1 #SUP: 2
77 -1 2 -1 41 -1 77 -1 #SUP: 2
77 -1 2 -1 123 -1 41 -1 #SUP: 2
77 -1 10 -1 22 -1 22 -1 #SUP: 2
77 -1 10 -1 22 -1 32 -1 #SUP: 2
77 -1 10 -1 32 -1 22 -1 #SUP: 2
77 -1 22 -1 22 -1 22 -1 #SUP: 3
77 -1 22 -1 22 -1 32 -1 #SUP: 2
77 -1 22 -1 22 -1 77 -1 #SUP: 2
77 -1 22 -1 32 -1 22 -1 #SUP: 3
77 -1 22 -1 76 -1 77 -1 #SUP: 2
77 -1 22 -1 77 -1 22 -1 #SUP: 2
77 -1 22 -1 170 -1 22 -1 #SUP: 2
77 -1 41 -1 22 -1 32 -1 #SUP: 2
77 -1 41 -1 22 -1 77 -1 #SUP: 2
77 -1 41 -1 77 -1 1062 -1 #SUP: 2
77 -1 41 -1 220 -1 78 -1 #SUP: 2
77 -1 64 -1 22 -1 22 -1 #SUP: 2
77 -1 64 -1 77 -1 599 -1 #SUP: 2
77 -1 77 -1 123 -1 64 -1 #SUP: 2
77 -1 77 -1 154 -1 22 -1 #SUP: 2
77 -1 77 -1 236 -1 77 -1 #SUP: 2
77 -1 123 -1 22 -1 41 -1 #SUP: 2
77 -1 123 -1 22 -1 77 -1 #SUP: 2
77 -1 123 -1 22 -1 123 -1 #SUP: 2
77 -1 123 -1 41 -1 123 -1 #SUP: 2
77 -1 123 -1 64 -1 67 -1 #SUP: 3
77 -1 123 -1 64 -1 77 -1 #SUP: 2
77 -1 123 -1 64 -1 599 -1 #SUP: 2
77 -1 123 -1 77 -1 50 -1 #SUP: 2
77 -1 123 -1 77 -1 64 -1 #SUP: 2
77 -1 123 -1 77 -1 599 -1 #SUP: 3
77 -1 123 -1 144 -1 64 -1 #SUP: 2
77 -1 123 -1 488 -1 64 -1 #SUP: 2
77 -1 123 -1 488 -1 67 -1 #SUP: 2
77 -1 123 -1 1688 -1 41 -1 #SUP: 2
77 -1 123 -1 1758 -1 22 -1 #SUP: 2
77 -1 154 -1 22 -1 77 -1 #SUP: 2
77 -1 154 -1 22 -1 170 -1 #SUP: 2
77 -1 154 -1 123 -1 22 -1 #SUP: 2
77 -1 154 -1 291 -1 22 -1 #SUP: 2
77 -1 170 -1 22 -1 22 -1 #SUP: 2
77 -1 220 -1 67 -1 117 -1 #SUP: 2
77 -1 222 -1 22 -1 77 -1 #SUP: 2
77 -1 222 -1 154 -1 22 -1 #SUP: 2
77 -1 222 -1 154 -1 291 -1 #SUP: 2
77 -1 222 -1 291 -1 22 -1 #SUP: 2
77 -1 262 -1 22 -1 22 -1 #SUP: 2
77 -1 291 -1 22 -1 77 -1 #SUP: 2
77 -1 326 -1 439 -1 32 -1 #SUP: 2
77 -1 488 -1 64 -1 67 -1 #SUP: 2
77 -1 599 -1 22 -1 32 -1 #SUP: 2
77 -1 599 -1 22 -1 77 -1 #SUP: 2
77 -1 599 -1 32 -1 77 -1 #SUP: 2
77 -1 599 -1 41 -1 22 -1 #SUP: 4
77 -1 599 -1 41 -1 32 -1 #SUP: 2
77 -1 599 -1 41 -1 77 -1 #SUP: 3
77 -1 599 -1 41 -1 78 -1 #SUP: 2
77 -1 599 -1 41 -1 220 -1 #SUP: 2
77 -1 599 -1 41 -1 334 -1 #SUP: 2
77 -1 599 -1 64 -1 67 -1 #SUP: 2
77 -1 599 -1 77 -1 220 -1 #SUP: 2
77 -1 599 -1 123 -1 22 -1 #SUP: 3
77 -1 599 -1 123 -1 64 -1 #SUP: 2
77 -1 599 -1 123 -1 123 -1 #SUP: 3
77 -1 599 -1 123 -1 144 -1 #SUP: 2
77 -1 599 -1 123 -1 164 -1 #SUP: 2
77 -1 599 -1 154 -1 22 -1 #SUP: 2
77 -1 599 -1 154 -1 123 -1 #SUP: 2
77 -1 599 -1 162 -1 65 -1 #SUP: 2
77 -1 599 -1 220 -1 78 -1 #SUP: 2
77 -1 599 -1 488 -1 64 -1 #SUP: 2
77 -1 599 -1 488 -1 67 -1 #SUP: 2
77 -1 599 -1 517 -1 77 -1 #SUP: 2
77 -1 1335 -1 77 -1 22 -1 #SUP: 2
77 -1 1335 -1 1461 -1 22 -1 #SUP: 2
77 -1 1685 -1 22 -1 32 -1 #SUP: 2
78 -1 41 -1 77 -1 22 -1 #SUP: 2
78 -1 77 -1 599 -1 22 -1 #SUP: 2
120 -1 77 -1 162 -1 65 -1 #SUP: 2
120 -1 77 -1 599 -1 65 -1 #SUP: 2
120 -1 77 -1 599 -1 162 -1 #SUP: 2
120 -1 286 -1 70 -1 32 -1 #SUP: 2
120 -1 599 -1 162 -1 65 -1 #SUP: 2
123 -1 2 -1 154 -1 22 -1 #SUP: 2
123 -1 10 -1 77 -1 77 -1 #SUP: 2
123 -1 22 -1 32 -1 77 -1 #SUP: 2
123 -1 22 -1 64 -1 77 -1 #SUP: 2
123 -1 22 -1 77 -1 22 -1 #SUP: 2
123 -1 22 -1 77 -1 123 -1 #SUP: 2
123 -1 22 -1 132 -1 32 -1 #SUP: 2
123 -1 22 -1 1039 -1 32 -1 #SUP: 2
123 -1 33 -1 193 -1 67 -1 #SUP: 2
123 -1 41 -1 77 -1 41 -1 #SUP: 2
123 -1 41 -1 77 -1 50 -1 #SUP: 2
123 -1 41 -1 77 -1 64 -1 #SUP: 2
123 -1 41 -1 77 -1 123 -1 #SUP: 3
123 -1 41 -1 77 -1 1688 -1 #SUP: 2
123 -1 41 -1 123 -1 41 -1 #SUP: 2
123 -1 41 -1 123 -1 50 -1 #SUP: 2
123 -1 41 -1 123 -1 64 -1 #SUP: 2
123 -1 41 -1 123 -1 1688 -1 #SUP: 2
123 -1 41 -1 1688 -1 41 -1 #SUP: 2
123 -1 64 -1 77 -1 599 -1 #SUP: 3
123 -1 65 -1 77 -1 520 -1 #SUP: 2
123 -1 77 -1 2 -1 41 -1 #SUP: 2
123 -1 77 -1 64 -1 67 -1 #SUP: 2
123 -1 77 -1 123 -1 41 -1 #SUP: 2
123 -1 77 -1 123 -1 50 -1 #SUP: 2
123 -1 77 -1 123 -1 64 -1 #SUP: 4
123 -1 77 -1 123 -1 77 -1 #SUP: 2
123 -1 77 -1 123 -1 123 -1 #SUP: 3
123 -1 77 -1 123 -1 144 -1 #SUP: 2
123 -1 77 -1 123 -1 1688 -1 #SUP: 2
123 -1 77 -1 144 -1 64 -1 #SUP: 2
123 -1 77 -1 599 -1 64 -1 #SUP: 2
123 -1 77 -1 599 -1 67 -1 #SUP: 2
123 -1 77 -1 599 -1 123 -1 #SUP: 2
123 -1 77 -1 599 -1 162 -1 #SUP: 2
123 -1 77 -1 599 -1 193 -1 #SUP: 2
123 -1 77 -1 1688 -1 41 -1 #SUP: 2
123 -1 120 -1 70 -1 32 -1 #SUP: 2
123 -1 120 -1 77 -1 162 -1 #SUP: 2
123 -1 120 -1 77 -1 599 -1 #SUP: 3
123 -1 120 -1 286 -1 32 -1 #SUP: 2
123 -1 120 -1 286 -1 70 -1 #SUP: 3
123 -1 120 -1 286 -1 117 -1 #SUP: 2
123 -1 120 -1 286 -1 123 -1 #SUP: 2
123 -1 120 -1 599 -1 162 -1 #SUP: 2
123 -1 123 -1 32 -1 65 -1 #SUP: 2
123 -1 123 -1 144 -1 50 -1 #SUP: 2
123 -1 123 -1 144 -1 64 -1 #SUP: 2
123 -1 123 -1 206 -1 32 -1 #SUP: 2
123 -1 123 -1 206 -1 65 -1 #SUP: 2
123 -1 123 -1 1688 -1 41 -1 #SUP: 2
123 -1 127 -1 77 -1 77 -1 #SUP: 2
123 -1 206 -1 32 -1 65 -1 #SUP: 2
123 -1 206 -1 123 -1 32 -1 #SUP: 2
123 -1 206 -1 123 -1 65 -1 #SUP: 2
123 -1 206 -1 123 -1 206 -1 #SUP: 2
123 -1 206 -1 206 -1 32 -1 #SUP: 2
123 -1 206 -1 206 -1 65 -1 #SUP: 2
123 -1 237 -1 22 -1 64 -1 #SUP: 2
123 -1 286 -1 22 -1 32 -1 #SUP: 2
123 -1 286 -1 70 -1 22 -1 #SUP: 2
123 -1 286 -1 70 -1 32 -1 #SUP: 2
123 -1 286 -1 326 -1 32 -1 #SUP: 2
123 -1 381 -1 77 -1 599 -1 #SUP: 2
123 -1 411 -1 2 -1 65 -1 #SUP: 2
123 -1 411 -1 64 -1 65 -1 #SUP: 2
123 -1 411 -1 77 -1 123 -1 #SUP: 2
123 -1 488 -1 64 -1 67 -1 #SUP: 2
123 -1 638 -1 64 -1 64 -1 #SUP: 2
123 -1 715 -1 164 -1 27 -1 #SUP: 2
123 -1 1256 -1 41 -1 41 -1 #SUP: 2
123 -1 1256 -1 41 -1 64 -1 #SUP: 2
123 -1 1256 -1 41 -1 77 -1 #SUP: 2
123 -1 1256 -1 41 -1 123 -1 #SUP: 2
123 -1 1256 -1 41 -1 1688 -1 #SUP: 2
123 -1 1256 -1 77 -1 41 -1 #SUP: 2
123 -1 1256 -1 77 -1 64 -1 #SUP: 2
123 -1 1256 -1 77 -1 123 -1 #SUP: 2
123 -1 1256 -1 77 -1 1688 -1 #SUP: 2
123 -1 1256 -1 123 -1 41 -1 #SUP: 2
123 -1 1256 -1 123 -1 64 -1 #SUP: 2
123 -1 1256 -1 123 -1 1688 -1 #SUP: 2
123 -1 1256 -1 1688 -1 41 -1 #SUP: 2
127 -1 154 -1 10 -1 22 -1 #SUP: 2
140 -1 154 -1 1129 -1 4817 -1 #SUP: 2
140 -1 369 -1 154 -1 1129 -1 #SUP: 2
140 -1 369 -1 154 -1 4817 -1 #SUP: 2
140 -1 369 -1 1129 -1 4817 -1 #SUP: 2
152 -1 65 -1 170 -1 65 -1 #SUP: 2
154 -1 2 -1 22 -1 64 -1 #SUP: 2
154 -1 22 -1 2 -1 10 -1 #SUP: 2
154 -1 77 -1 326 -1 32 -1 #SUP: 2
154 -1 77 -1 326 -1 439 -1 #SUP: 2
154 -1 77 -1 439 -1 32 -1 #SUP: 2
154 -1 291 -1 22 -1 123 -1 #SUP: 2
154 -1 326 -1 439 -1 32 -1 #SUP: 2
162 -1 22 -1 77 -1 67 -1 #SUP: 2
162 -1 22 -1 77 -1 123 -1 #SUP: 2
162 -1 22 -1 123 -1 67 -1 #SUP: 2
162 -1 77 -1 123 -1 67 -1 #SUP: 2
162 -1 123 -1 77 -1 123 -1 #SUP: 2
162 -1 364 -1 10 -1 22 -1 #SUP: 2
164 -1 77 -1 599 -1 123 -1 #SUP: 2
170 -1 22 -1 77 -1 123 -1 #SUP: 2
170 -1 22 -1 77 -1 599 -1 #SUP: 2
171 -1 2 -1 22 -1 64 -1 #SUP: 2
171 -1 2 -1 22 -1 213 -1 #SUP: 2
171 -1 2 -1 213 -1 64 -1 #SUP: 2
171 -1 22 -1 213 -1 64 -1 #SUP: 2
193 -1 77 -1 193 -1 2 -1 #SUP: 2
206 -1 123 -1 32 -1 65 -1 #SUP: 2
206 -1 123 -1 206 -1 32 -1 #SUP: 2
206 -1 123 -1 206 -1 65 -1 #SUP: 2
206 -1 206 -1 32 -1 65 -1 #SUP: 2
212 -1 158 -1 65 -1 2 -1 #SUP: 2
222 -1 77 -1 599 -1 22 -1 #SUP: 2
222 -1 154 -1 22 -1 123 -1 #SUP: 2
222 -1 154 -1 22 -1 291 -1 #SUP: 2
222 -1 154 -1 123 -1 22 -1 #SUP: 2
222 -1 154 -1 291 -1 22 -1 #SUP: 2
222 -1 154 -1 291 -1 123 -1 #SUP: 2
222 -1 291 -1 22 -1 123 -1 #SUP: 2
225 -1 369 -1 286 -1 154 -1 #SUP: 2
236 -1 41 -1 77 -1 41 -1 #SUP: 2
236 -1 41 -1 77 -1 123 -1 #SUP: 2
236 -1 41 -1 77 -1 1688 -1 #SUP: 2
236 -1 41 -1 123 -1 41 -1 #SUP: 2
236 -1 41 -1 123 -1 1688 -1 #SUP: 2
236 -1 41 -1 1688 -1 41 -1 #SUP: 2
236 -1 50 -1 64 -1 41 -1 #SUP: 2
236 -1 77 -1 77 -1 123 -1 #SUP: 2
236 -1 77 -1 123 -1 41 -1 #SUP: 2
236 -1 77 -1 123 -1 64 -1 #SUP: 2
236 -1 77 -1 123 -1 1688 -1 #SUP: 2
236 -1 77 -1 1688 -1 41 -1 #SUP: 2
236 -1 123 -1 41 -1 41 -1 #SUP: 2
236 -1 123 -1 41 -1 77 -1 #SUP: 2
236 -1 123 -1 41 -1 123 -1 #SUP: 2
236 -1 123 -1 41 -1 1688 -1 #SUP: 2
236 -1 123 -1 77 -1 41 -1 #SUP: 2
236 -1 123 -1 77 -1 123 -1 #SUP: 2
236 -1 123 -1 77 -1 1688 -1 #SUP: 2
236 -1 123 -1 123 -1 41 -1 #SUP: 2
236 -1 123 -1 123 -1 1688 -1 #SUP: 2
236 -1 123 -1 1256 -1 41 -1 #SUP: 2
236 -1 123 -1 1256 -1 77 -1 #SUP: 2
236 -1 123 -1 1256 -1 123 -1 #SUP: 2
236 -1 123 -1 1256 -1 1688 -1 #SUP: 2
236 -1 123 -1 1688 -1 41 -1 #SUP: 2
236 -1 1256 -1 41 -1 41 -1 #SUP: 2
236 -1 1256 -1 41 -1 77 -1 #SUP: 2
236 -1 1256 -1 41 -1 123 -1 #SUP: 2
236 -1 1256 -1 41 -1 1688 -1 #SUP: 2
236 -1 1256 -1 77 -1 41 -1 #SUP: 2
236 -1 1256 -1 77 -1 123 -1 #SUP: 2
236 -1 1256 -1 77 -1 1688 -1 #SUP: 2
236 -1 1256 -1 123 -1 41 -1 #SUP: 2
236 -1 1256 -1 123 -1 1688 -1 #SUP: 2
236 -1 1256 -1 1688 -1 41 -1 #SUP: 2
237 -1 22 -1 64 -1 77 -1 #SUP: 2
237 -1 22 -1 77 -1 123 -1 #SUP: 2
246 -1 77 -1 22 -1 2 -1 #SUP: 2
246 -1 77 -1 22 -1 22 -1 #SUP: 2
246 -1 77 -1 123 -1 22 -1 #SUP: 2
246 -1 77 -1 154 -1 22 -1 #SUP: 2
262 -1 22 -1 22 -1 32 -1 #SUP: 2
262 -1 164 -1 32 -1 2 -1 #SUP: 2
262 -1 170 -1 22 -1 164 -1 #SUP: 2
262 -1 170 -1 77 -1 599 -1 #SUP: 2
278 -1 64 -1 77 -1 599 -1 #SUP: 2
286 -1 70 -1 22 -1 64 -1 #SUP: 2
291 -1 22 -1 77 -1 123 -1 #SUP: 2
364 -1 22 -1 77 -1 220 -1 #SUP: 2
364 -1 64 -1 41 -1 77 -1 #SUP: 2
364 -1 64 -1 77 -1 599 -1 #SUP: 2
364 -1 64 -1 154 -1 10 -1 #SUP: 2
369 -1 154 -1 1129 -1 4817 -1 #SUP: 2
411 -1 64 -1 65 -1 123 -1 #SUP: 2
411 -1 77 -1 123 -1 123 -1 #SUP: 2
411 -1 77 -1 599 -1 123 -1 #SUP: 2
441 -1 64 -1 164 -1 22 -1 #SUP: 2
441 -1 164 -1 22 -1 32 -1 #SUP: 2
483 -1 64 -1 77 -1 599 -1 #SUP: 2
599 -1 41 -1 22 -1 32 -1 #SUP: 2
599 -1 41 -1 22 -1 77 -1 #SUP: 2
599 -1 41 -1 220 -1 78 -1 #SUP: 2
599 -1 154 -1 123 -1 22 -1 #SUP: 2
599 -1 488 -1 64 -1 67 -1 #SUP: 2
599 -1 517 -1 77 -1 567 -1 #SUP: 2
1205 -1 22 -1 2 -1 10 -1 #SUP: 2
1205 -1 154 -1 2 -1 10 -1 #SUP: 2
1256 -1 41 -1 77 -1 41 -1 #SUP: 2
1256 -1 41 -1 77 -1 50 -1 #SUP: 2
1256 -1 41 -1 77 -1 64 -1 #SUP: 2
1256 -1 41 -1 77 -1 123 -1 #SUP: 2
1256 -1 41 -1 77 -1 1688 -1 #SUP: 2
1256 -1 41 -1 123 -1 41 -1 #SUP: 2
1256 -1 41 -1 123 -1 50 -1 #SUP: 2
1256 -1 41 -1 123 -1 64 -1 #SUP: 2
1256 -1 41 -1 123 -1 1688 -1 #SUP: 2
1256 -1 41 -1 1688 -1 41 -1 #SUP: 2
1256 -1 77 -1 123 -1 41 -1 #SUP: 2
1256 -1 77 -1 123 -1 50 -1 #SUP: 2
1256 -1 77 -1 123 -1 64 -1 #SUP: 2
1256 -1 77 -1 123 -1 1688 -1 #SUP: 2
1256 -1 77 -1 1688 -1 41 -1 #SUP: 2
1256 -1 123 -1 1688 -1 41 -1 #SUP: 2
2 -1 22 -1 213 -1 64 -1 77 -1 #SUP: 2
22 -1 32 -1 64 -1 77 -1 123 -1 #SUP: 2
22 -1 77 -1 220 -1 67 -1 117 -1 #SUP: 2
22 -1 77 -1 599 -1 154 -1 123 -1 #SUP: 2
41 -1 77 -1 123 -1 1688 -1 41 -1 #SUP: 2
64 -1 22 -1 77 -1 599 -1 22 -1 #SUP: 2
64 -1 77 -1 41 -1 22 -1 77 -1 #SUP: 2
64 -1 77 -1 488 -1 64 -1 67 -1 #SUP: 2
64 -1 77 -1 599 -1 22 -1 77 -1 #SUP: 2
64 -1 77 -1 599 -1 41 -1 22 -1 #SUP: 2
64 -1 77 -1 599 -1 41 -1 77 -1 #SUP: 2
64 -1 77 -1 599 -1 64 -1 67 -1 #SUP: 2
64 -1 77 -1 599 -1 488 -1 64 -1 #SUP: 2
64 -1 77 -1 599 -1 488 -1 67 -1 #SUP: 2
64 -1 222 -1 154 -1 291 -1 22 -1 #SUP: 2
64 -1 369 -1 154 -1 1129 -1 4817 -1 #SUP: 2
64 -1 599 -1 41 -1 22 -1 77 -1 #SUP: 2
64 -1 599 -1 488 -1 64 -1 67 -1 #SUP: 2
77 -1 10 -1 22 -1 32 -1 22 -1 #SUP: 2
77 -1 123 -1 64 -1 77 -1 599 -1 #SUP: 2
77 -1 123 -1 488 -1 64 -1 67 -1 #SUP: 2
77 -1 222 -1 154 -1 291 -1 22 -1 #SUP: 2
77 -1 599 -1 41 -1 22 -1 32 -1 #SUP: 2
77 -1 599 -1 41 -1 22 -1 77 -1 #SUP: 2
77 -1 599 -1 41 -1 220 -1 78 -1 #SUP: 2
77 -1 599 -1 154 -1 123 -1 22 -1 #SUP: 2
77 -1 599 -1 488 -1 64 -1 67 -1 #SUP: 2
120 -1 77 -1 599 -1 162 -1 65 -1 #SUP: 2
123 -1 41 -1 77 -1 123 -1 41 -1 #SUP: 2
123 -1 41 -1 77 -1 123 -1 50 -1 #SUP: 2
123 -1 41 -1 77 -1 123 -1 64 -1 #SUP: 2
123 -1 41 -1 77 -1 123 -1 1688 -1 #SUP: 2
123 -1 41 -1 77 -1 1688 -1 41 -1 #SUP: 2
123 -1 41 -1 123 -1 1688 -1 41 -1 #SUP: 2
123 -1 77 -1 123 -1 144 -1 64 -1 #SUP: 2
123 -1 77 -1 123 -1 1688 -1 41 -1 #SUP: 2
123 -1 120 -1 77 -1 599 -1 162 -1 #SUP: 2
123 -1 120 -1 286 -1 70 -1 32 -1 #SUP: 2
123 -1 123 -1 206 -1 32 -1 65 -1 #SUP: 2
123 -1 206 -1 123 -1 32 -1 65 -1 #SUP: 2
123 -1 206 -1 123 -1 206 -1 32 -1 #SUP: 2
123 -1 206 -1 123 -1 206 -1 65 -1 #SUP: 2
123 -1 206 -1 206 -1 32 -1 65 -1 #SUP: 2
123 -1 1256 -1 41 -1 77 -1 41 -1 #SUP: 2
123 -1 1256 -1 41 -1 77 -1 64 -1 #SUP: 2
123 -1 1256 -1 41 -1 77 -1 123 -1 #SUP: 2
123 -1 1256 -1 41 -1 77 -1 1688 -1 #SUP: 2
123 -1 1256 -1 41 -1 123 -1 41 -1 #SUP: 2
123 -1 1256 -1 41 -1 123 -1 64 -1 #SUP: 2
123 -1 1256 -1 41 -1 123 -1 1688 -1 #SUP: 2
123 -1 1256 -1 41 -1 1688 -1 41 -1 #SUP: 2
123 -1 1256 -1 77 -1 123 -1 41 -1 #SUP: 2
123 -1 1256 -1 77 -1 123 -1 64 -1 #SUP: 2
123 -1 1256 -1 77 -1 123 -1 1688 -1 #SUP: 2
123 -1 1256 -1 77 -1 1688 -1 41 -1 #SUP: 2
123 -1 1256 -1 123 -1 1688 -1 41 -1 #SUP: 2
140 -1 369 -1 154 -1 1129 -1 4817 -1 #SUP: 2
154 -1 77 -1 326 -1 439 -1 32 -1 #SUP: 2
162 -1 22 -1 77 -1 123 -1 67 -1 #SUP: 2
171 -1 2 -1 22 -1 213 -1 64 -1 #SUP: 2
206 -1 123 -1 206 -1 32 -1 65 -1 #SUP: 2
222 -1 154 -1 291 -1 22 -1 123 -1 #SUP: 2
236 -1 41 -1 77 -1 123 -1 41 -1 #SUP: 2
236 -1 41 -1 77 -1 123 -1 1688 -1 #SUP: 2
236 -1 41 -1 77 -1 1688 -1 41 -1 #SUP: 2
236 -1 41 -1 123 -1 1688 -1 41 -1 #SUP: 2
236 -1 77 -1 123 -1 1688 -1 41 -1 #SUP: 2
236 -1 123 -1 41 -1 77 -1 41 -1 #SUP: 2
236 -1 123 -1 41 -1 77 -1 123 -1 #SUP: 2
236 -1 123 -1 41 -1 77 -1 1688 -1 #SUP: 2
236 -1 123 -1 41 -1 123 -1 41 -1 #SUP: 2
236 -1 123 -1 41 -1 123 -1 1688 -1 #SUP: 2
236 -1 123 -1 41 -1 1688 -1 41 -1 #SUP: 2
236 -1 123 -1 77 -1 123 -1 41 -1 #SUP: 2
236 -1 123 -1 77 -1 123 -1 1688 -1 #SUP: 2
236 -1 123 -1 77 -1 1688 -1 41 -1 #SUP: 2
236 -1 123 -1 123 -1 1688 -1 41 -1 #SUP: 2
236 -1 123 -1 1256 -1 41 -1 41 -1 #SUP: 2
236 -1 123 -1 1256 -1 41 -1 77 -1 #SUP: 2
236 -1 123 -1 1256 -1 41 -1 123 -1 #SUP: 2
236 -1 123 -1 1256 -1 41 -1 1688 -1 #SUP: 2
236 -1 123 -1 1256 -1 77 -1 41 -1 #SUP: 2
236 -1 123 -1 1256 -1 77 -1 123 -1 #SUP: 2
236 -1 123 -1 1256 -1 77 -1 1688 -1 #SUP: 2
236 -1 123 -1 1256 -1 123 -1 41 -1 #SUP: 2
236 -1 123 -1 1256 -1 123 -1 1688 -1 #SUP: 2
236 -1 123 -1 1256 -1 1688 -1 41 -1 #SUP: 2
236 -1 1256 -1 41 -1 77 -1 41 -1 #SUP: 2
236 -1 1256 -1 41 -1 77 -1 123 -1 #SUP: 2
236 -1 1256 -1 41 -1 77 -1 1688 -1 #SUP: 2
236 -1 1256 -1 41 -1 123 -1 41 -1 #SUP: 2
236 -1 1256 -1 41 -1 123 -1 1688 -1 #SUP: 2
236 -1 1256 -1 41 -1 1688 -1 41 -1 #SUP: 2
236 -1 1256 -1 77 -1 123 -1 41 -1 #SUP: 2
236 -1 1256 -1 77 -1 123 -1 1688 -1 #SUP: 2
236 -1 1256 -1 77 -1 1688 -1 41 -1 #SUP: 2
236 -1 1256 -1 123 -1 1688 -1 41 -1 #SUP: 2
1256 -1 41 -1 77 -1 123 -1 41 -1 #SUP: 2
1256 -1 41 -1 77 -1 123 -1 50 -1 #SUP: 2
1256 -1 41 -1 77 -1 123 -1 64 -1 #SUP: 2
1256 -1 41 -1 77 -1 123 -1 1688 -1 #SUP: 2
1256 -1 41 -1 77 -1 1688 -1 41 -1 #SUP: 2
1256 -1 41 -1 123 -1 1688 -1 41 -1 #SUP: 2
1256 -1 77 -1 123 -1 1688 -1 41 -1 #SUP: 2
64 -1 77 -1 599 -1 41 -1 22 -1 77 -1 #SUP: 2
64 -1 77 -1 599 -1 488 -1 64 -1 67 -1 #SUP: 2
123 -1 41 -1 77 -1 123 -1 1688 -1 41 -1 #SUP: 2
123 -1 206 -1 123 -1 206 -1 32 -1 65 -1 #SUP: 2
123 -1 1256 -1 41 -1 77 -1 123 -1 41 -1 #SUP: 2
123 -1 1256 -1 41 -1 77 -1 123 -1 64 -1 #SUP: 2
123 -1 1256 -1 41 -1 77 -1 123 -1 1688 -1 #SUP: 2
123 -1 1256 -1 41 -1 77 -1 1688 -1 41 -1 #SUP: 2
123 -1 1256 -1 41 -1 123 -1 1688 -1 41 -1 #SUP: 2
123 -1 1256 -1 77 -1 123 -1 1688 -1 41 -1 #SUP: 2
236 -1 41 -1 77 -1 123 -1 1688 -1 41 -1 #SUP: 2
236 -1 123 -1 41 -1 77 -1 123 -1 41 -1 #SUP: 2
236 -1 123 -1 41 -1 77 -1 123 -1 1688 -1 #SUP: 2
236 -1 123 -1 41 -1 77 -1 1688 -1 41 -1 #SUP: 2
236 -1 123 -1 41 -1 123 -1 1688 -1 41 -1 #SUP: 2
236 -1 123 -1 77 -1 123 -1 1688 -1 41 -1 #SUP: 2
236 -1 123 -1 1256 -1 41 -1 77 -1 41 -1 #SUP: 2
236 -1 123 -1 1256 -1 41 -1 77 -1 123 -1 #SUP: 2
236 -1 123 -1 1256 -1 41 -1 77 -1 1688 -1 #SUP: 2
236 -1 123 -1 1256 -1 41 -1 123 -1 41 -1 #SUP: 2
236 -1 123 -1 1256 -1 41 -1 123 -1 1688 -1 #SUP: 2
236 -1 123 -1 1256 -1 41 -1 1688 -1 41 -1 #SUP: 2
236 -1 123 -1 1256 -1 77 -1 123 -1 41 -1 #SUP: 2
236 -1 123 -1 1256 -1 77 -1 123 -1 1688 -1 #SUP: 2
236 -1 123 -1 1256 -1 77 -1 1688 -1 41 -1 #SUP: 2
236 -1 123 -1 1256 -1 123 -1 1688 -1 41 -1 #SUP: 2
236 -1 1256 -1 41 -1 77 -1 123 -1 41 -1 #SUP: 2
236 -1 1256 -1 41 -1 77 -1 123 -1 1688 -1 #SUP: 2
236 -1 1256 -1 41 -1 77 -1 1688 -1 41 -1 #SUP: 2
236 -1 1256 -1 41 -1 123 -1 1688 -1 41 -1 #SUP: 2
236 -1 1256 -1 77 -1 123 -1 1688 -1 41 -1 #SUP: 2
1256 -1 41 -1 77 -1 123 -1 1688 -1 41 -1 #SUP: 2
123 -1 1256 -1 41 -1 77 -1 123 -1 1688 -1 41 -1 #SUP: 2
236 -1 123 -1 41 -1 77 -1 123 -1 1688 -1 41 -1 #SUP: 2
236 -1 123 -1 1256 -1 41 -1 77 -1 123 -1 41 -1 #SUP: 2
236 -1 123 -1 1256 -1 41 -1 77 -1 123 -1 1688 -1 #SUP: 2
236 -1 123 -1 1256 -1 41 -1 77 -1 1688 -1 41 -1 #SUP: 2
236 -1 123 -1 1256 -1 41 -1 123 -1 1688 -1 41 -1 #SUP: 2
236 -1 123 -1 1256 -1 77 -1 123 -1 1688 -1 41 -1 #SUP: 2
236 -1 1256 -1 41 -1 77 -1 123 -1 1688 -1 41 -1 #SUP: 2
236 -1 123 -1 1256 -1 41 -1 77 -1 123 -1 1688 -1 41 -1 #SUP: 2
