2 -1 #SUP: 26
3 -1 #SUP: 5
10 -1 #SUP: 20
13 -1 #SUP: 4
16 -1 #SUP: 3
22 -1 #SUP: 22
27 -1 #SUP: 4
29 -1 #SUP: 4
30 -1 #SUP: 6
31 -1 #SUP: 5
32 -1 #SUP: 12
33 -1 #SUP: 6
41 -1 #SUP: 18
48 -1 #SUP: 5
50 -1 #SUP: 21
64 -1 #SUP: 22
65 -1 #SUP: 14
66 -1 #SUP: 2
67 -1 #SUP: 5
73 -1 #SUP: 2
76 -1 #SUP: 2
77 -1 #SUP: 45
78 -1 #SUP: 13
117 -1 #SUP: 3
120 -1 #SUP: 2
123 -1 #SUP: 52
134 -1 #SUP: 3
140 -1 #SUP: 4
144 -1 #SUP: 4
146 -1 #SUP: 4
151 -1 #SUP: 2
152 -1 #SUP: 5
154 -1 #SUP: 5
156 -1 #SUP: 3
158 -1 #SUP: 5
160 -1 #SUP: 4
162 -1 #SUP: 3
164 -1 #SUP: 10
170 -1 #SUP: 6
171 -1 #SUP: 3
173 -1 #SUP: 2
174 -1 #SUP: 8
175 -1 #SUP: 4
183 -1 #SUP: 8
193 -1 #SUP: 12
198 -1 #SUP: 3
200 -1 #SUP: 2
201 -1 #SUP: 3
206 -1 #SUP: 6
212 -1 #SUP: 4
213 -1 #SUP: 2
220 -1 #SUP: 3
222 -1 #SUP: 9
224 -1 #SUP: 3
225 -1 #SUP: 4
226 -1 #SUP: 2
236 -1 #SUP: 11
237 -1 #SUP: 2
241 -1 #SUP: 3
243 -1 #SUP: 2
246 -1 #SUP: 2
256 -1 #SUP: 3
262 -1 #SUP: 5
263 -1 #SUP: 3
284 -1 #SUP: 4
285 -1 #SUP: 3
291 -1 #SUP: 3
318 -1 #SUP: 2
326 -1 #SUP: 7
340 -1 #SUP: 4
349 -1 #SUP: 2
357 -1 #SUP: 2
364 -1 #SUP: 8
365 -1 #SUP: 2
368 -1 #SUP: 2
381 -1 #SUP: 3
384 -1 #SUP: 3
407 -1 #SUP: 2
408 -1 #SUP: 2
411 -1 #SUP: 3
417 -1 #SUP: 5
431 -1 #SUP: 4
441 -1 #SUP: 8
465 -1 #SUP: 2
473 -1 #SUP: 4
517 -1 #SUP: 2
519 -1 #SUP: 2
520 -1 #SUP: 5
559 -1 #SUP: 2
564 -1 #SUP: 2
566 -1 #SUP: 2
567 -1 #SUP: 2
596 -1 #SUP: 2
599 -1 #SUP: 3
627 -1 #SUP: 2
638 -1 #SUP: 2
660 -1 #SUP: 2
670 -1 #SUP: 2
749 -1 #SUP: 2
753 -1 #SUP: 2
826 -1 #SUP: 2
845 -1 #SUP: 2
850 -1 #SUP: 2
856 -1 #SUP: 2
869 -1 #SUP: 2
911 -1 #SUP: 8
914 -1 #SUP: 2
929 -1 #SUP: 2
951 -1 #SUP: 2
955 -1 #SUP: 2
965 -1 #SUP: 2
986 -1 #SUP: 2
1069 -1 #SUP: 2
1166 -1 #SUP: 2
1193 -1 #SUP: 2
1318 -1 #SUP: 3
1459 -1 #SUP: 2
1461 -1 #SUP: 2
1533 -1 #SUP: 2
1630 -1 #SUP: 2
1653 -1 #SUP: 2
1741 -1 #SUP: 2
1845 -1 #SUP: 2
2109 -1 #SUP: 2
2340 -1 #SUP: 2
2378 -1 #SUP: 2
2418 -1 #SUP: 2
2910 -1 #SUP: 2
3060 -1 #SUP: 3
3116 -1 #SUP: 2
3649 -1 #SUP: 2
3661 -1 #SUP: 2
3800 -1 #SUP: 2
3986 -1 #SUP: 3
6302 -1 #SUP: 3
7076 -1 #SUP: 2
51747 -1 #SUP: 3
2 -1 2 -1 #SUP: 3
2 -1 22 -1 #SUP: 3
2 -1 27 -1 #SUP: 2
2 -1 41 -1 #SUP: 3
2 -1 50 -1 #SUP: 5
2 -1 64 -1 #SUP: 6
2 -1 67 -1 #SUP: 2
2 -1 73 -1 #SUP: 2
2 -1 77 -1 #SUP: 8
2 -1 78 -1 #SUP: 5
2 -1 123 -1 #SUP: 5
2 -1 134 -1 #SUP: 2
2 -1 140 -1 #SUP: 2
2 -1 144 -1 #SUP: 2
2 -1 174 -1 #SUP: 2
2 -1 183 -1 #SUP: 2
2 -1 193 -1 #SUP: 3
2 -1 224 -1 #SUP: 2
2 -1 236 -1 #SUP: 2
2 -1 262 -1 #SUP: 2
2 -1 284 -1 #SUP: 2
2 -1 291 -1 #SUP: 2
2 -1 318 -1 #SUP: 2
2 -1 381 -1 #SUP: 2
2 -1 407 -1 #SUP: 2
2 -1 749 -1 #SUP: 2
2 -1 911 -1 #SUP: 2
2 -1 1166 -1 #SUP: 2
3 -1 22 -1 #SUP: 2
3 -1 32 -1 #SUP: 2
3 -1 50 -1 #SUP: 2
10 -1 2 -1 #SUP: 4
10 -1 10 -1 #SUP: 4
10 -1 13 -1 #SUP: 2
10 -1 22 -1 #SUP: 4
10 -1 30 -1 #SUP: 2
10 -1 32 -1 #SUP: 3
10 -1 41 -1 #SUP: 2
10 -1 50 -1 #SUP: 7
10 -1 65 -1 #SUP: 4
10 -1 77 -1 #SUP: 2
10 -1 78 -1 #SUP: 3
10 -1 123 -1 #SUP: 2
10 -1 164 -1 #SUP: 3
10 -1 193 -1 #SUP: 2
10 -1 236 -1 #SUP: 3
10 -1 262 -1 #SUP: 2
10 -1 357 -1 #SUP: 2
10 -1 365 -1 #SUP: 2
10 -1 381 -1 #SUP: 2
10 -1 417 -1 #SUP: 2
22 -1 2 -1 #SUP: 4
22 -1 10 -1 #SUP: 2
22 -1 22 -1 #SUP: 5
22 -1 32 -1 #SUP: 4
22 -1 41 -1 #SUP: 5
22 -1 48 -1 #SUP: 2
22 -1 50 -1 #SUP: 6
22 -1 65 -1 #SUP: 2
22 -1 77 -1 #SUP: 3
22 -1 78 -1 #SUP: 2
22 -1 117 -1 #SUP: 2
22 -1 123 -1 #SUP: 3
22 -1 146 -1 #SUP: 2
22 -1 164 -1 #SUP: 3
22 -1 183 -1 #SUP: 2
22 -1 222 -1 #SUP: 2
22 -1 263 -1 #SUP: 3
22 -1 284 -1 #SUP: 2
22 -1 357 -1 #SUP: 2
22 -1 417 -1 #SUP: 3
22 -1 441 -1 #SUP: 2
22 -1 473 -1 #SUP: 2
22 -1 911 -1 #SUP: 2
22 -1 6302 -1 #SUP: 3
27 -1 41 -1 #SUP: 2
27 -1 77 -1 #SUP: 2
27 -1 156 -1 #SUP: 2
27 -1 183 -1 #SUP: 2
30 -1 30 -1 #SUP: 3
31 -1 77 -1 #SUP: 2
31 -1 222 -1 #SUP: 2
32 -1 2 -1 #SUP: 2
32 -1 10 -1 #SUP: 3
32 -1 22 -1 #SUP: 3
32 -1 41 -1 #SUP: 2
32 -1 50 -1 #SUP: 3
32 -1 123 -1 #SUP: 2
32 -1 175 -1 #SUP: 2
32 -1 193 -1 #SUP: 2
33 -1 10 -1 #SUP: 2
33 -1 13 -1 #SUP: 2
33 -1 22 -1 #SUP: 2
33 -1 32 -1 #SUP: 2
33 -1 50 -1 #SUP: 2
33 -1 77 -1 #SUP: 3
33 -1 364 -1 #SUP: 2
33 -1 911 -1 #SUP: 2
41 -1 3 -1 #SUP: 2
41 -1 22 -1 #SUP: 4
41 -1 27 -1 #SUP: 2
41 -1 29 -1 #SUP: 2
41 -1 41 -1 #SUP: 4
41 -1 48 -1 #SUP: 2
41 -1 77 -1 #SUP: 5
41 -1 123 -1 #SUP: 2
41 -1 146 -1 #SUP: 2
41 -1 183 -1 #SUP: 3
41 -1 869 -1 #SUP: 2
48 -1 22 -1 #SUP: 2
48 -1 77 -1 #SUP: 2
50 -1 2 -1 #SUP: 4
50 -1 10 -1 #SUP: 4
50 -1 13 -1 #SUP: 3
50 -1 22 -1 #SUP: 2
50 -1 67 -1 #SUP: 2
50 -1 78 -1 #SUP: 2
50 -1 123 -1 #SUP: 3
50 -1 164 -1 #SUP: 2
50 -1 170 -1 #SUP: 3
50 -1 193 -1 #SUP: 2
50 -1 262 -1 #SUP: 2
50 -1 357 -1 #SUP: 2
50 -1 417 -1 #SUP: 3
50 -1 911 -1 #SUP: 3
50 -1 3116 -1 #SUP: 2
64 -1 2 -1 #SUP: 3
64 -1 10 -1 #SUP: 5
64 -1 22 -1 #SUP: 4
64 -1 32 -1 #SUP: 4
64 -1 33 -1 #SUP: 5
64 -1 41 -1 #SUP: 2
64 -1 50 -1 #SUP: 5
64 -1 64 -1 #SUP: 3
64 -1 67 -1 #SUP: 2
64 -1 77 -1 #SUP: 7
64 -1 78 -1 #SUP: 2
64 -1 123 -1 #SUP: 3
64 -1 134 -1 #SUP: 3
64 -1 154 -1 #SUP: 2
64 -1 164 -1 #SUP: 2
64 -1 170 -1 #SUP: 3
64 -1 193 -1 #SUP: 5
64 -1 198 -1 #SUP: 2
64 -1 201 -1 #SUP: 2
64 -1 222 -1 #SUP: 4
64 -1 225 -1 #SUP: 2
64 -1 236 -1 #SUP: 3
64 -1 262 -1 #SUP: 3
64 -1 291 -1 #SUP: 2
64 -1 318 -1 #SUP: 2
64 -1 340 -1 #SUP: 2
64 -1 441 -1 #SUP: 2
64 -1 520 -1 #SUP: 2
64 -1 911 -1 #SUP: 2
64 -1 986 -1 #SUP: 2
65 -1 2 -1 #SUP: 6
65 -1 10 -1 #SUP: 2
65 -1 13 -1 #SUP: 3
65 -1 32 -1 #SUP: 2
65 -1 50 -1 #SUP: 5
65 -1 77 -1 #SUP: 5
65 -1 123 -1 #SUP: 3
65 -1 152 -1 #SUP: 2
65 -1 164 -1 #SUP: 2
65 -1 222 -1 #SUP: 2
65 -1 417 -1 #SUP: 2
65 -1 519 -1 #SUP: 2
77 -1 2 -1 #SUP: 9
77 -1 3 -1 #SUP: 2
77 -1 10 -1 #SUP: 4
77 -1 13 -1 #SUP: 4
77 -1 22 -1 #SUP: 6
77 -1 32 -1 #SUP: 4
77 -1 33 -1 #SUP: 2
77 -1 41 -1 #SUP: 4
77 -1 48 -1 #SUP: 2
77 -1 50 -1 #SUP: 8
77 -1 64 -1 #SUP: 5
77 -1 65 -1 #SUP: 4
77 -1 77 -1 #SUP: 6
77 -1 78 -1 #SUP: 3
77 -1 123 -1 #SUP: 10
77 -1 140 -1 #SUP: 2
77 -1 146 -1 #SUP: 3
77 -1 152 -1 #SUP: 2
77 -1 164 -1 #SUP: 2
77 -1 170 -1 #SUP: 2
77 -1 174 -1 #SUP: 3
77 -1 175 -1 #SUP: 2
77 -1 183 -1 #SUP: 3
77 -1 193 -1 #SUP: 3
77 -1 222 -1 #SUP: 4
77 -1 236 -1 #SUP: 3
77 -1 262 -1 #SUP: 2
77 -1 284 -1 #SUP: 2
77 -1 326 -1 #SUP: 2
77 -1 340 -1 #SUP: 2
77 -1 368 -1 #SUP: 2
77 -1 407 -1 #SUP: 2
77 -1 473 -1 #SUP: 2
77 -1 599 -1 #SUP: 2
77 -1 3986 -1 #SUP: 2
78 -1 2 -1 #SUP: 2
78 -1 22 -1 #SUP: 4
78 -1 32 -1 #SUP: 2
78 -1 41 -1 #SUP: 3
78 -1 48 -1 #SUP: 3
78 -1 77 -1 #SUP: 4
78 -1 78 -1 #SUP: 2
78 -1 246 -1 #SUP: 2
78 -1 381 -1 #SUP: 2
78 -1 599 -1 #SUP: 2
78 -1 911 -1 #SUP: 2
117 -1 22 -1 #SUP: 2
120 -1 78 -1 #SUP: 2
120 -1 123 -1 #SUP: 2
120 -1 520 -1 #SUP: 2
123 -1 2 -1 #SUP: 15
123 -1 3 -1 #SUP: 3
123 -1 10 -1 #SUP: 9
123 -1 13 -1 #SUP: 2
123 -1 22 -1 #SUP: 7
123 -1 27 -1 #SUP: 2
123 -1 32 -1 #SUP: 8
123 -1 33 -1 #SUP: 4
123 -1 41 -1 #SUP: 3
123 -1 48 -1 #SUP: 3
123 -1 50 -1 #SUP: 8
123 -1 64 -1 #SUP: 11
123 -1 65 -1 #SUP: 9
123 -1 77 -1 #SUP: 12
123 -1 78 -1 #SUP: 5
123 -1 120 -1 #SUP: 2
123 -1 123 -1 #SUP: 8
123 -1 134 -1 #SUP: 3
123 -1 140 -1 #SUP: 2
123 -1 144 -1 #SUP: 4
123 -1 152 -1 #SUP: 2
123 -1 160 -1 #SUP: 4
123 -1 162 -1 #SUP: 3
123 -1 164 -1 #SUP: 5
123 -1 170 -1 #SUP: 2
123 -1 171 -1 #SUP: 2
123 -1 174 -1 #SUP: 8
123 -1 183 -1 #SUP: 3
123 -1 193 -1 #SUP: 6
123 -1 206 -1 #SUP: 2
123 -1 212 -1 #SUP: 2
123 -1 220 -1 #SUP: 2
123 -1 224 -1 #SUP: 3
123 -1 225 -1 #SUP: 4
123 -1 236 -1 #SUP: 5
123 -1 256 -1 #SUP: 2
123 -1 284 -1 #SUP: 2
123 -1 285 -1 #SUP: 2
123 -1 291 -1 #SUP: 3
123 -1 318 -1 #SUP: 2
123 -1 326 -1 #SUP: 5
123 -1 340 -1 #SUP: 3
123 -1 364 -1 #SUP: 3
123 -1 365 -1 #SUP: 2
123 -1 368 -1 #SUP: 2
123 -1 407 -1 #SUP: 2
123 -1 408 -1 #SUP: 2
123 -1 411 -1 #SUP: 3
123 -1 431 -1 #SUP: 2
123 -1 441 -1 #SUP: 5
123 -1 520 -1 #SUP: 3
123 -1 559 -1 #SUP: 2
123 -1 564 -1 #SUP: 2
123 -1 567 -1 #SUP: 2
123 -1 599 -1 #SUP: 2
123 -1 627 -1 #SUP: 2
123 -1 638 -1 #SUP: 2
123 -1 826 -1 #SUP: 2
123 -1 845 -1 #SUP: 2
123 -1 911 -1 #SUP: 4
123 -1 914 -1 #SUP: 2
123 -1 955 -1 #SUP: 2
123 -1 1166 -1 #SUP: 2
123 -1 1193 -1 #SUP: 2
123 -1 1318 -1 #SUP: 3
123 -1 1459 -1 #SUP: 2
123 -1 1461 -1 #SUP: 2
123 -1 1741 -1 #SUP: 2
123 -1 3649 -1 #SUP: 2
123 -1 3986 -1 #SUP: 2
134 -1 318 -1 #SUP: 2
140 -1 77 -1 #SUP: 3
144 -1 22 -1 #SUP: 2
144 -1 77 -1 #SUP: 2
144 -1 123 -1 #SUP: 2
144 -1 193 -1 #SUP: 2
146 -1 2 -1 #SUP: 2
146 -1 22 -1 #SUP: 2
146 -1 146 -1 #SUP: 2
146 -1 473 -1 #SUP: 2
152 -1 10 -1 #SUP: 2
152 -1 77 -1 #SUP: 2
152 -1 222 -1 #SUP: 2
156 -1 22 -1 #SUP: 2
156 -1 41 -1 #SUP: 3
156 -1 77 -1 #SUP: 2
156 -1 183 -1 #SUP: 2
158 -1 50 -1 #SUP: 3
158 -1 164 -1 #SUP: 2
160 -1 33 -1 #SUP: 2
160 -1 64 -1 #SUP: 3
160 -1 1193 -1 #SUP: 2
162 -1 50 -1 #SUP: 2
164 -1 2 -1 #SUP: 2
164 -1 41 -1 #SUP: 2
164 -1 50 -1 #SUP: 3
164 -1 77 -1 #SUP: 3
164 -1 123 -1 #SUP: 2
164 -1 174 -1 #SUP: 2
164 -1 326 -1 #SUP: 2
170 -1 77 -1 #SUP: 2
170 -1 154 -1 #SUP: 2
170 -1 201 -1 #SUP: 2
171 -1 2 -1 #SUP: 2
171 -1 22 -1 #SUP: 2
174 -1 2 -1 #SUP: 2
174 -1 50 -1 #SUP: 2
174 -1 65 -1 #SUP: 2
174 -1 77 -1 #SUP: 3
174 -1 326 -1 #SUP: 3
174 -1 911 -1 #SUP: 2
174 -1 3986 -1 #SUP: 2
175 -1 22 -1 #SUP: 3
175 -1 32 -1 #SUP: 3
183 -1 3 -1 #SUP: 2
183 -1 22 -1 #SUP: 3
183 -1 41 -1 #SUP: 3
183 -1 77 -1 #SUP: 2
183 -1 441 -1 #SUP: 2
193 -1 2 -1 #SUP: 4
193 -1 10 -1 #SUP: 3
193 -1 33 -1 #SUP: 3
193 -1 41 -1 #SUP: 2
193 -1 50 -1 #SUP: 2
193 -1 64 -1 #SUP: 3
193 -1 77 -1 #SUP: 4
198 -1 77 -1 #SUP: 2
200 -1 64 -1 #SUP: 2
201 -1 154 -1 #SUP: 2
206 -1 50 -1 #SUP: 2
206 -1 64 -1 #SUP: 3
206 -1 65 -1 #SUP: 2
206 -1 77 -1 #SUP: 4
206 -1 123 -1 #SUP: 4
206 -1 164 -1 #SUP: 2
206 -1 411 -1 #SUP: 2
212 -1 16 -1 #SUP: 2
212 -1 50 -1 #SUP: 2
212 -1 64 -1 #SUP: 2
213 -1 77 -1 #SUP: 2
220 -1 2 -1 #SUP: 2
220 -1 27 -1 #SUP: 2
222 -1 2 -1 #SUP: 2
222 -1 77 -1 #SUP: 3
222 -1 222 -1 #SUP: 2
222 -1 2378 -1 #SUP: 2
225 -1 22 -1 #SUP: 2
225 -1 64 -1 #SUP: 2
225 -1 349 -1 #SUP: 2
225 -1 441 -1 #SUP: 2
225 -1 2910 -1 #SUP: 2
236 -1 2 -1 #SUP: 2
236 -1 32 -1 #SUP: 3
236 -1 41 -1 #SUP: 2
236 -1 50 -1 #SUP: 3
236 -1 64 -1 #SUP: 3
236 -1 77 -1 #SUP: 2
236 -1 123 -1 #SUP: 3
236 -1 134 -1 #SUP: 2
236 -1 164 -1 #SUP: 2
236 -1 170 -1 #SUP: 2
236 -1 200 -1 #SUP: 2
236 -1 441 -1 #SUP: 2
236 -1 638 -1 #SUP: 2
237 -1 77 -1 #SUP: 2
237 -1 123 -1 #SUP: 2
256 -1 10 -1 #SUP: 2
262 -1 77 -1 #SUP: 2
263 -1 22 -1 #SUP: 2
263 -1 50 -1 #SUP: 2
284 -1 67 -1 #SUP: 2
326 -1 2 -1 #SUP: 2
326 -1 48 -1 #SUP: 2
326 -1 77 -1 #SUP: 4
326 -1 123 -1 #SUP: 2
326 -1 174 -1 #SUP: 2
326 -1 193 -1 #SUP: 2
340 -1 22 -1 #SUP: 2
340 -1 170 -1 #SUP: 2
340 -1 753 -1 #SUP: 2
364 -1 10 -1 #SUP: 2
364 -1 50 -1 #SUP: 2
364 -1 64 -1 #SUP: 2
364 -1 77 -1 #SUP: 2
364 -1 262 -1 #SUP: 2
364 -1 911 -1 #SUP: 2
384 -1 29 -1 #SUP: 2
441 -1 2 -1 #SUP: 2
441 -1 3 -1 #SUP: 4
441 -1 10 -1 #SUP: 2
441 -1 22 -1 #SUP: 3
441 -1 32 -1 #SUP: 3
441 -1 50 -1 #SUP: 2
441 -1 65 -1 #SUP: 2
441 -1 77 -1 #SUP: 2
441 -1 175 -1 #SUP: 2
441 -1 183 -1 #SUP: 3
473 -1 2 -1 #SUP: 2
473 -1 78 -1 #SUP: 2
473 -1 911 -1 #SUP: 2
520 -1 10 -1 #SUP: 3
520 -1 78 -1 #SUP: 2
520 -1 123 -1 #SUP: 3
567 -1 236 -1 #SUP: 2
599 -1 50 -1 #SUP: 2
599 -1 123 -1 #SUP: 2
599 -1 162 -1 #SUP: 2
638 -1 32 -1 #SUP: 2
660 -1 77 -1 #SUP: 2
753 -1 77 -1 #SUP: 2
845 -1 77 -1 #SUP: 2
850 -1 77 -1 #SUP: 2
856 -1 41 -1 #SUP: 2
911 -1 2 -1 #SUP: 2
911 -1 10 -1 #SUP: 2
911 -1 50 -1 #SUP: 2
911 -1 77 -1 #SUP: 5
911 -1 78 -1 #SUP: 2
911 -1 660 -1 #SUP: 2
929 -1 41 -1 #SUP: 2
951 -1 78 -1 #SUP: 2
1166 -1 123 -1 #SUP: 2
1318 -1 64 -1 #SUP: 2
1459 -1 2 -1 #SUP: 2
1533 -1 2 -1 #SUP: 2
1533 -1 77 -1 #SUP: 2
1653 -1 77 -1 #SUP: 2
1653 -1 123 -1 #SUP: 2
2109 -1 77 -1 #SUP: 2
2910 -1 64 -1 #SUP: 2
3060 -1 77 -1 #SUP: 2
3661 -1 77 -1 #SUP: 2
3986 -1 50 -1 #SUP: 2
6302 -1 10 -1 #SUP: 2
6302 -1 41 -1 #SUP: 2
6302 -1 50 -1 #SUP: 2
6302 -1 357 -1 #SUP: 2
51747 -1 51747 -1 #SUP: 2
2 -1 22 -1 77 -1 #SUP: 2
2 -1 64 -1 50 -1 #SUP: 2
2 -1 64 -1 193 -1 #SUP: 3
2 -1 64 -1 291 -1 #SUP: 2
2 -1 64 -1 318 -1 #SUP: 2
2 -1 77 -1 2 -1 #SUP: 2
2 -1 77 -1 50 -1 #SUP: 2
2 -1 77 -1 123 -1 #SUP: 4
2 -1 77 -1 284 -1 #SUP: 2
2 -1 77 -1 407 -1 #SUP: 2
2 -1 78 -1 381 -1 #SUP: 2
2 -1 123 -1 407 -1 #SUP: 2
2 -1 134 -1 318 -1 #SUP: 2
2 -1 236 -1 50 -1 #SUP: 2
2 -1 911 -1 78 -1 #SUP: 2
10 -1 22 -1 2 -1 #SUP: 2
10 -1 22 -1 32 -1 #SUP: 3
10 -1 22 -1 65 -1 #SUP: 2
10 -1 30 -1 30 -1 #SUP: 2
10 -1 50 -1 10 -1 #SUP: 2
10 -1 50 -1 13 -1 #SUP: 2
10 -1 50 -1 357 -1 #SUP: 2
10 -1 65 -1 2 -1 #SUP: 3
22 -1 10 -1 50 -1 #SUP: 2
22 -1 10 -1 357 -1 #SUP: 2
22 -1 22 -1 417 -1 #SUP: 2
22 -1 50 -1 357 -1 #SUP: 2
22 -1 65 -1 2 -1 #SUP: 2
22 -1 117 -1 22 -1 #SUP: 2
22 -1 146 -1 2 -1 #SUP: 2
22 -1 164 -1 41 -1 #SUP: 2
22 -1 263 -1 22 -1 #SUP: 2
22 -1 263 -1 50 -1 #SUP: 2
22 -1 473 -1 2 -1 #SUP: 2
22 -1 911 -1 78 -1 #SUP: 2
22 -1 6302 -1 10 -1 #SUP: 2
22 -1 6302 -1 41 -1 #SUP: 2
22 -1 6302 -1 50 -1 #SUP: 2
22 -1 6302 -1 357 -1 #SUP: 2
27 -1 156 -1 41 -1 #SUP: 2
27 -1 156 -1 183 -1 #SUP: 2
27 -1 183 -1 41 -1 #SUP: 2
32 -1 10 -1 10 -1 #SUP: 2
32 -1 10 -1 50 -1 #SUP: 2
33 -1 10 -1 13 -1 #SUP: 2
33 -1 10 -1 50 -1 #SUP: 2
33 -1 50 -1 13 -1 #SUP: 2
33 -1 911 -1 77 -1 #SUP: 2
41 -1 22 -1 77 -1 #SUP: 2
41 -1 41 -1 22 -1 #SUP: 2
41 -1 41 -1 77 -1 #SUP: 2
41 -1 41 -1 183 -1 #SUP: 2
41 -1 41 -1 869 -1 #SUP: 2
41 -1 183 -1 22 -1 #SUP: 2
41 -1 183 -1 41 -1 #SUP: 2
50 -1 10 -1 262 -1 #SUP: 2
50 -1 10 -1 417 -1 #SUP: 2
64 -1 2 -1 64 -1 #SUP: 2
64 -1 2 -1 77 -1 #SUP: 2
64 -1 10 -1 50 -1 #SUP: 3
64 -1 10 -1 262 -1 #SUP: 2
64 -1 22 -1 222 -1 #SUP: 2
64 -1 22 -1 441 -1 #SUP: 2
64 -1 32 -1 10 -1 #SUP: 2
64 -1 32 -1 50 -1 #SUP: 2
64 -1 33 -1 10 -1 #SUP: 2
64 -1 33 -1 22 -1 #SUP: 2
64 -1 33 -1 50 -1 #SUP: 2
64 -1 33 -1 77 -1 #SUP: 2
64 -1 50 -1 10 -1 #SUP: 2
64 -1 50 -1 170 -1 #SUP: 2
64 -1 50 -1 262 -1 #SUP: 2
64 -1 64 -1 222 -1 #SUP: 2
64 -1 77 -1 10 -1 #SUP: 2
64 -1 77 -1 22 -1 #SUP: 2
64 -1 77 -1 33 -1 #SUP: 2
64 -1 77 -1 50 -1 #SUP: 2
64 -1 77 -1 123 -1 #SUP: 3
64 -1 134 -1 318 -1 #SUP: 2
64 -1 193 -1 10 -1 #SUP: 2
64 -1 193 -1 33 -1 #SUP: 2
64 -1 198 -1 77 -1 #SUP: 2
64 -1 222 -1 77 -1 #SUP: 2
64 -1 236 -1 32 -1 #SUP: 2
64 -1 340 -1 170 -1 #SUP: 2
64 -1 520 -1 123 -1 #SUP: 2
64 -1 911 -1 10 -1 #SUP: 2
64 -1 911 -1 77 -1 #SUP: 2
65 -1 2 -1 50 -1 #SUP: 2
65 -1 50 -1 13 -1 #SUP: 2
65 -1 77 -1 13 -1 #SUP: 2
65 -1 77 -1 77 -1 #SUP: 3
65 -1 77 -1 123 -1 #SUP: 2
65 -1 123 -1 50 -1 #SUP: 2
77 -1 2 -1 22 -1 #SUP: 2
77 -1 2 -1 50 -1 #SUP: 2
77 -1 2 -1 77 -1 #SUP: 2
77 -1 2 -1 140 -1 #SUP: 2
77 -1 10 -1 13 -1 #SUP: 2
77 -1 10 -1 22 -1 #SUP: 2
77 -1 10 -1 50 -1 #SUP: 3
77 -1 22 -1 2 -1 #SUP: 2
77 -1 22 -1 50 -1 #SUP: 2
77 -1 22 -1 77 -1 #SUP: 2
77 -1 22 -1 146 -1 #SUP: 2
77 -1 32 -1 50 -1 #SUP: 2
77 -1 50 -1 2 -1 #SUP: 2
77 -1 50 -1 13 -1 #SUP: 3
77 -1 64 -1 164 -1 #SUP: 2
77 -1 64 -1 340 -1 #SUP: 2
77 -1 65 -1 13 -1 #SUP: 2
77 -1 65 -1 77 -1 #SUP: 2
77 -1 65 -1 222 -1 #SUP: 2
77 -1 77 -1 2 -1 #SUP: 3
77 -1 77 -1 13 -1 #SUP: 2
77 -1 77 -1 77 -1 #SUP: 3
77 -1 123 -1 13 -1 #SUP: 2
77 -1 123 -1 50 -1 #SUP: 2
77 -1 123 -1 64 -1 #SUP: 2
77 -1 123 -1 174 -1 #SUP: 3
77 -1 123 -1 193 -1 #SUP: 2
77 -1 123 -1 326 -1 #SUP: 2
77 -1 123 -1 407 -1 #SUP: 2
77 -1 146 -1 2 -1 #SUP: 2
77 -1 146 -1 473 -1 #SUP: 2
77 -1 152 -1 10 -1 #SUP: 2
77 -1 236 -1 50 -1 #SUP: 2
78 -1 22 -1 48 -1 #SUP: 2
78 -1 41 -1 22 -1 #SUP: 2
78 -1 48 -1 77 -1 #SUP: 2
78 -1 77 -1 22 -1 #SUP: 2
78 -1 77 -1 599 -1 #SUP: 2
120 -1 520 -1 78 -1 #SUP: 2
120 -1 520 -1 123 -1 #SUP: 2
123 -1 2 -1 27 -1 #SUP: 2
123 -1 2 -1 50 -1 #SUP: 2
123 -1 2 -1 64 -1 #SUP: 5
123 -1 2 -1 77 -1 #SUP: 3
123 -1 2 -1 123 -1 #SUP: 2
123 -1 2 -1 134 -1 #SUP: 2
123 -1 2 -1 140 -1 #SUP: 2
123 -1 2 -1 144 -1 #SUP: 2
123 -1 2 -1 174 -1 #SUP: 2
123 -1 2 -1 183 -1 #SUP: 2
123 -1 2 -1 224 -1 #SUP: 2
123 -1 2 -1 236 -1 #SUP: 2
123 -1 2 -1 318 -1 #SUP: 2
123 -1 2 -1 1166 -1 #SUP: 2
123 -1 10 -1 2 -1 #SUP: 3
123 -1 10 -1 10 -1 #SUP: 2
123 -1 10 -1 22 -1 #SUP: 3
123 -1 10 -1 32 -1 #SUP: 3
123 -1 10 -1 50 -1 #SUP: 3
123 -1 10 -1 65 -1 #SUP: 2
123 -1 10 -1 78 -1 #SUP: 2
123 -1 10 -1 123 -1 #SUP: 2
123 -1 10 -1 164 -1 #SUP: 2
123 -1 10 -1 236 -1 #SUP: 2
123 -1 10 -1 365 -1 #SUP: 2
123 -1 22 -1 32 -1 #SUP: 3
123 -1 32 -1 2 -1 #SUP: 2
123 -1 50 -1 13 -1 #SUP: 2
123 -1 64 -1 2 -1 #SUP: 2
123 -1 64 -1 22 -1 #SUP: 2
123 -1 64 -1 32 -1 #SUP: 3
123 -1 64 -1 33 -1 #SUP: 3
123 -1 64 -1 64 -1 #SUP: 2
123 -1 64 -1 77 -1 #SUP: 3
123 -1 64 -1 78 -1 #SUP: 2
123 -1 64 -1 123 -1 #SUP: 2
123 -1 64 -1 134 -1 #SUP: 3
123 -1 64 -1 193 -1 #SUP: 2
123 -1 64 -1 225 -1 #SUP: 2
123 -1 64 -1 236 -1 #SUP: 2
123 -1 64 -1 318 -1 #SUP: 2
123 -1 64 -1 340 -1 #SUP: 2
123 -1 64 -1 520 -1 #SUP: 2
123 -1 65 -1 2 -1 #SUP: 5
123 -1 65 -1 32 -1 #SUP: 2
123 -1 65 -1 50 -1 #SUP: 3
123 -1 65 -1 77 -1 #SUP: 2
123 -1 65 -1 164 -1 #SUP: 2
123 -1 77 -1 2 -1 #SUP: 5
123 -1 77 -1 22 -1 #SUP: 2
123 -1 77 -1 32 -1 #SUP: 2
123 -1 77 -1 48 -1 #SUP: 2
123 -1 77 -1 77 -1 #SUP: 2
123 -1 77 -1 123 -1 #SUP: 4
123 -1 77 -1 140 -1 #SUP: 2
123 -1 77 -1 174 -1 #SUP: 2
123 -1 78 -1 22 -1 #SUP: 2
123 -1 120 -1 78 -1 #SUP: 2
123 -1 120 -1 123 -1 #SUP: 2
123 -1 120 -1 520 -1 #SUP: 2
123 -1 123 -1 2 -1 #SUP: 3
123 -1 123 -1 64 -1 #SUP: 3
123 -1 123 -1 77 -1 #SUP: 3
123 -1 123 -1 123 -1 #SUP: 4
123 -1 123 -1 174 -1 #SUP: 2
123 -1 134 -1 318 -1 #SUP: 2
123 -1 144 -1 22 -1 #SUP: 2
123 -1 144 -1 77 -1 #SUP: 2
123 -1 144 -1 123 -1 #SUP: 2
123 -1 144 -1 193 -1 #SUP: 2
123 -1 160 -1 33 -1 #SUP: 2
123 -1 160 -1 64 -1 #SUP: 3
123 -1 160 -1 1193 -1 #SUP: 2
123 -1 174 -1 2 -1 #SUP: 2
123 -1 174 -1 65 -1 #SUP: 2
123 -1 174 -1 77 -1 #SUP: 3
123 -1 174 -1 326 -1 #SUP: 3
123 -1 174 -1 911 -1 #SUP: 2
123 -1 193 -1 2 -1 #SUP: 3
123 -1 193 -1 64 -1 #SUP: 2
123 -1 206 -1 123 -1 #SUP: 2
123 -1 220 -1 2 -1 #SUP: 2
123 -1 220 -1 27 -1 #SUP: 2
123 -1 236 -1 50 -1 #SUP: 2
123 -1 256 -1 10 -1 #SUP: 2
123 -1 326 -1 2 -1 #SUP: 2
123 -1 326 -1 77 -1 #SUP: 2
123 -1 326 -1 193 -1 #SUP: 2
123 -1 441 -1 2 -1 #SUP: 2
123 -1 441 -1 3 -1 #SUP: 2
123 -1 441 -1 10 -1 #SUP: 2
123 -1 441 -1 65 -1 #SUP: 2
123 -1 441 -1 77 -1 #SUP: 2
123 -1 520 -1 78 -1 #SUP: 2
123 -1 520 -1 123 -1 #SUP: 3
123 -1 567 -1 236 -1 #SUP: 2
123 -1 599 -1 162 -1 #SUP: 2
123 -1 845 -1 77 -1 #SUP: 2
123 -1 911 -1 77 -1 #SUP: 3
123 -1 1318 -1 64 -1 #SUP: 2
123 -1 1459 -1 2 -1 #SUP: 2
123 -1 3986 -1 50 -1 #SUP: 2
146 -1 146 -1 473 -1 #SUP: 2
156 -1 22 -1 77 -1 #SUP: 2
156 -1 77 -1 22 -1 #SUP: 2
156 -1 77 -1 77 -1 #SUP: 2
156 -1 183 -1 41 -1 #SUP: 2
160 -1 64 -1 33 -1 #SUP: 2
164 -1 77 -1 123 -1 #SUP: 2
164 -1 77 -1 174 -1 #SUP: 2
164 -1 123 -1 174 -1 #SUP: 2
174 -1 77 -1 2 -1 #SUP: 2
174 -1 3986 -1 50 -1 #SUP: 2
175 -1 32 -1 22 -1 #SUP: 3
183 -1 77 -1 77 -1 #SUP: 2
183 -1 441 -1 3 -1 #SUP: 2
193 -1 2 -1 64 -1 #SUP: 2
193 -1 33 -1 77 -1 #SUP: 2
193 -1 77 -1 2 -1 #SUP: 2
206 -1 64 -1 77 -1 #SUP: 2
206 -1 65 -1 123 -1 #SUP: 2
206 -1 77 -1 123 -1 #SUP: 2
206 -1 123 -1 64 -1 #SUP: 2
206 -1 123 -1 164 -1 #SUP: 2
206 -1 123 -1 411 -1 #SUP: 2
220 -1 2 -1 27 -1 #SUP: 2
225 -1 2910 -1 64 -1 #SUP: 2
236 -1 50 -1 123 -1 #SUP: 2
236 -1 50 -1 170 -1 #SUP: 2
236 -1 64 -1 134 -1 #SUP: 2
236 -1 123 -1 64 -1 #SUP: 2
236 -1 123 -1 134 -1 #SUP: 2
236 -1 200 -1 64 -1 #SUP: 2
236 -1 638 -1 32 -1 #SUP: 2
237 -1 77 -1 123 -1 #SUP: 2
326 -1 77 -1 2 -1 #SUP: 2
326 -1 77 -1 123 -1 #SUP: 2
364 -1 911 -1 77 -1 #SUP: 2
441 -1 3 -1 22 -1 #SUP: 2
441 -1 3 -1 32 -1 #SUP: 2
441 -1 32 -1 22 -1 #SUP: 2
441 -1 65 -1 2 -1 #SUP: 2
441 -1 175 -1 22 -1 #SUP: 2
441 -1 175 -1 32 -1 #SUP: 2
441 -1 183 -1 22 -1 #SUP: 2
520 -1 123 -1 10 -1 #SUP: 2
599 -1 162 -1 50 -1 #SUP: 2
911 -1 77 -1 50 -1 #SUP: 2
911 -1 660 -1 77 -1 #SUP: 2
1533 -1 77 -1 2 -1 #SUP: 2
1653 -1 123 -1 77 -1 #SUP: 2
6302 -1 10 -1 50 -1 #SUP: 2
6302 -1 10 -1 357 -1 #SUP: 2
6302 -1 50 -1 357 -1 #SUP: 2
2 -1 77 -1 123 -1 407 -1 #SUP: 2
10 -1 22 -1 65 -1 2 -1 #SUP: 2
22 -1 10 -1 50 -1 357 -1 #SUP: 2
22 -1 6302 -1 10 -1 50 -1 #SUP: 2
22 -1 6302 -1 10 -1 357 -1 #SUP: 2
22 -1 6302 -1 50 -1 357 -1 #SUP: 2
27 -1 156 -1 183 -1 41 -1 #SUP: 2
33 -1 10 -1 50 -1 13 -1 #SUP: 2
64 -1 32 -1 10 -1 50 -1 #SUP: 2
64 -1 33 -1 10 -1 50 -1 #SUP: 2
64 -1 50 -1 10 -1 262 -1 #SUP: 2
64 -1 77 -1 10 -1 50 -1 #SUP: 2
65 -1 77 -1 77 -1 13 -1 #SUP: 2
77 -1 10 -1 50 -1 13 -1 #SUP: 2
77 -1 22 -1 146 -1 2 -1 #SUP: 2
77 -1 65 -1 77 -1 77 -1 #SUP: 2
77 -1 123 -1 50 -1 13 -1 #SUP: 2
123 -1 2 -1 64 -1 318 -1 #SUP: 2
123 -1 2 -1 77 -1 123 -1 #SUP: 2
123 -1 2 -1 134 -1 318 -1 #SUP: 2
123 -1 2 -1 236 -1 50 -1 #SUP: 2
123 -1 10 -1 22 -1 32 -1 #SUP: 3
123 -1 10 -1 65 -1 2 -1 #SUP: 2
123 -1 64 -1 2 -1 64 -1 #SUP: 2
123 -1 64 -1 77 -1 123 -1 #SUP: 2
123 -1 64 -1 134 -1 318 -1 #SUP: 2
123 -1 64 -1 520 -1 123 -1 #SUP: 2
123 -1 77 -1 2 -1 140 -1 #SUP: 2
123 -1 77 -1 77 -1 2 -1 #SUP: 2
123 -1 77 -1 123 -1 174 -1 #SUP: 2
123 -1 120 -1 520 -1 78 -1 #SUP: 2
123 -1 120 -1 520 -1 123 -1 #SUP: 2
123 -1 123 -1 2 -1 64 -1 #SUP: 2
123 -1 123 -1 123 -1 2 -1 #SUP: 2
123 -1 123 -1 123 -1 64 -1 #SUP: 2
123 -1 160 -1 64 -1 33 -1 #SUP: 2
123 -1 174 -1 77 -1 2 -1 #SUP: 2
123 -1 193 -1 2 -1 64 -1 #SUP: 2
123 -1 220 -1 2 -1 27 -1 #SUP: 2
123 -1 326 -1 77 -1 2 -1 #SUP: 2
123 -1 441 -1 65 -1 2 -1 #SUP: 2
156 -1 77 -1 22 -1 77 -1 #SUP: 2
164 -1 77 -1 123 -1 174 -1 #SUP: 2
236 -1 123 -1 64 -1 134 -1 #SUP: 2
441 -1 175 -1 32 -1 22 -1 #SUP: 2
6302 -1 10 -1 50 -1 357 -1 #SUP: 2
22 -1 6302 -1 10 -1 50 -1 357 -1 #SUP: 2
