2 -1 #SUP: 22
7 -1 #SUP: 2
9 -1 #SUP: 3
10 -1 #SUP: 4
11 -1 #SUP: 4
16 -1 #SUP: 6
22 -1 #SUP: 22
27 -1 #SUP: 7
30 -1 #SUP: 3
31 -1 #SUP: 8
32 -1 #SUP: 15
39 -1 #SUP: 2
41 -1 #SUP: 13
48 -1 #SUP: 3
50 -1 #SUP: 7
54 -1 #SUP: 3
57 -1 #SUP: 2
64 -1 #SUP: 22
65 -1 #SUP: 14
67 -1 #SUP: 4
70 -1 #SUP: 6
73 -1 #SUP: 5
76 -1 #SUP: 3
77 -1 #SUP: 24
78 -1 #SUP: 13
120 -1 #SUP: 4
123 -1 #SUP: 44
126 -1 #SUP: 2
132 -1 #SUP: 2
140 -1 #SUP: 2
144 -1 #SUP: 2
151 -1 #SUP: 4
152 -1 #SUP: 6
154 -1 #SUP: 16
156 -1 #SUP: 5
158 -1 #SUP: 2
162 -1 #SUP: 3
164 -1 #SUP: 9
165 -1 #SUP: 4
167 -1 #SUP: 2
170 -1 #SUP: 8
171 -1 #SUP: 7
177 -1 #SUP: 2
183 -1 #SUP: 8
193 -1 #SUP: 8
198 -1 #SUP: 2
201 -1 #SUP: 2
210 -1 #SUP: 2
212 -1 #SUP: 2
220 -1 #SUP: 2
222 -1 #SUP: 4
225 -1 #SUP: 2
228 -1 #SUP: 4
233 -1 #SUP: 4
236 -1 #SUP: 8
244 -1 #SUP: 4
246 -1 #SUP: 6
249 -1 #SUP: 4
250 -1 #SUP: 3
254 -1 #SUP: 2
262 -1 #SUP: 3
268 -1 #SUP: 2
280 -1 #SUP: 3
285 -1 #SUP: 4
286 -1 #SUP: 5
291 -1 #SUP: 7
322 -1 #SUP: 2
326 -1 #SUP: 10
340 -1 #SUP: 4
349 -1 #SUP: 3
356 -1 #SUP: 3
364 -1 #SUP: 3
381 -1 #SUP: 2
411 -1 #SUP: 4
417 -1 #SUP: 3
441 -1 #SUP: 4
452 -1 #SUP: 3
499 -1 #SUP: 2
520 -1 #SUP: 4
523 -1 #SUP: 5
524 -1 #SUP: 2
526 -1 #SUP: 4
528 -1 #SUP: 2
529 -1 #SUP: 3
531 -1 #SUP: 7
547 -1 #SUP: 2
567 -1 #SUP: 2
570 -1 #SUP: 2
571 -1 #SUP: 2
593 -1 #SUP: 2
599 -1 #SUP: 4
608 -1 #SUP: 2
618 -1 #SUP: 2
630 -1 #SUP: 3
650 -1 #SUP: 2
657 -1 #SUP: 2
671 -1 #SUP: 2
693 -1 #SUP: 2
734 -1 #SUP: 2
815 -1 #SUP: 2
831 -1 #SUP: 3
848 -1 #SUP: 2
866 -1 #SUP: 2
921 -1 #SUP: 2
1034 -1 #SUP: 2
1177 -1 #SUP: 3
1217 -1 #SUP: 2
1224 -1 #SUP: 2
1322 -1 #SUP: 2
1433 -1 #SUP: 2
1713 -1 #SUP: 2
1757 -1 #SUP: 3
1758 -1 #SUP: 3
1834 -1 #SUP: 3
1913 -1 #SUP: 3
2779 -1 #SUP: 2
2780 -1 #SUP: 2
2813 -1 #SUP: 2
2910 -1 #SUP: 2
2924 -1 #SUP: 5
3058 -1 #SUP: 2
3757 -1 #SUP: 2
3781 -1 #SUP: 3
3820 -1 #SUP: 2
20984 -1 #SUP: 2
21313 -1 #SUP: 2
41733 -1 #SUP: 6
2 -1 2 -1 #SUP: 5
2 -1 7 -1 #SUP: 2
2 -1 16 -1 #SUP: 2
2 -1 22 -1 #SUP: 2
2 -1 32 -1 #SUP: 2
2 -1 64 -1 #SUP: 3
2 -1 65 -1 #SUP: 4
2 -1 77 -1 #SUP: 3
2 -1 123 -1 #SUP: 4
2 -1 158 -1 #SUP: 2
2 -1 183 -1 #SUP: 2
2 -1 228 -1 #SUP: 2
2 -1 268 -1 #SUP: 2
2 -1 326 -1 #SUP: 3
2 -1 523 -1 #SUP: 2
2 -1 531 -1 #SUP: 4
2 -1 618 -1 #SUP: 2
2 -1 657 -1 #SUP: 2
2 -1 1758 -1 #SUP: 2
2 -1 1913 -1 #SUP: 2
2 -1 2924 -1 #SUP: 3
7 -1 567 -1 #SUP: 2
10 -1 65 -1 #SUP: 2
10 -1 78 -1 #SUP: 2
11 -1 77 -1 #SUP: 2
11 -1 78 -1 #SUP: 2
11 -1 193 -1 #SUP: 2
16 -1 65 -1 #SUP: 4
16 -1 78 -1 #SUP: 2
22 -1 2 -1 #SUP: 3
22 -1 22 -1 #SUP: 4
22 -1 32 -1 #SUP: 6
22 -1 64 -1 #SUP: 2
22 -1 77 -1 #SUP: 2
22 -1 78 -1 #SUP: 2
22 -1 123 -1 #SUP: 3
22 -1 132 -1 #SUP: 2
22 -1 154 -1 #SUP: 3
22 -1 170 -1 #SUP: 2
22 -1 183 -1 #SUP: 2
22 -1 225 -1 #SUP: 2
22 -1 326 -1 #SUP: 2
22 -1 381 -1 #SUP: 2
22 -1 523 -1 #SUP: 2
22 -1 531 -1 #SUP: 2
22 -1 3781 -1 #SUP: 2
27 -1 22 -1 #SUP: 2
27 -1 32 -1 #SUP: 3
27 -1 65 -1 #SUP: 2
27 -1 123 -1 #SUP: 3
27 -1 291 -1 #SUP: 2
27 -1 411 -1 #SUP: 2
27 -1 630 -1 #SUP: 2
27 -1 1177 -1 #SUP: 2
31 -1 22 -1 #SUP: 3
31 -1 32 -1 #SUP: 2
31 -1 64 -1 #SUP: 2
31 -1 65 -1 #SUP: 3
31 -1 76 -1 #SUP: 3
31 -1 77 -1 #SUP: 3
31 -1 154 -1 #SUP: 2
31 -1 411 -1 #SUP: 2
31 -1 608 -1 #SUP: 2
32 -1 2 -1 #SUP: 2
32 -1 10 -1 #SUP: 2
32 -1 16 -1 #SUP: 2
32 -1 22 -1 #SUP: 5
32 -1 32 -1 #SUP: 2
32 -1 64 -1 #SUP: 2
32 -1 65 -1 #SUP: 3
32 -1 77 -1 #SUP: 2
32 -1 78 -1 #SUP: 2
32 -1 120 -1 #SUP: 2
32 -1 123 -1 #SUP: 3
32 -1 154 -1 #SUP: 3
32 -1 170 -1 #SUP: 2
32 -1 381 -1 #SUP: 2
32 -1 411 -1 #SUP: 2
32 -1 524 -1 #SUP: 2
32 -1 531 -1 #SUP: 2
32 -1 650 -1 #SUP: 2
32 -1 3781 -1 #SUP: 2
32 -1 20984 -1 #SUP: 2
39 -1 22 -1 #SUP: 2
41 -1 22 -1 #SUP: 4
41 -1 32 -1 #SUP: 2
41 -1 41 -1 #SUP: 3
41 -1 65 -1 #SUP: 2
41 -1 77 -1 #SUP: 2
41 -1 123 -1 #SUP: 3
41 -1 193 -1 #SUP: 2
41 -1 262 -1 #SUP: 2
41 -1 291 -1 #SUP: 2
41 -1 630 -1 #SUP: 2
41 -1 1913 -1 #SUP: 2
41 -1 3781 -1 #SUP: 2
48 -1 67 -1 #SUP: 2
48 -1 228 -1 #SUP: 2
50 -1 22 -1 #SUP: 2
50 -1 50 -1 #SUP: 2
50 -1 64 -1 #SUP: 2
50 -1 170 -1 #SUP: 2
50 -1 520 -1 #SUP: 2
50 -1 831 -1 #SUP: 2
57 -1 9 -1 #SUP: 2
57 -1 77 -1 #SUP: 2
64 -1 2 -1 #SUP: 4
64 -1 10 -1 #SUP: 2
64 -1 22 -1 #SUP: 4
64 -1 32 -1 #SUP: 2
64 -1 64 -1 #SUP: 4
64 -1 65 -1 #SUP: 2
64 -1 77 -1 #SUP: 6
64 -1 78 -1 #SUP: 5
64 -1 123 -1 #SUP: 4
64 -1 152 -1 #SUP: 2
64 -1 154 -1 #SUP: 2
64 -1 158 -1 #SUP: 2
64 -1 164 -1 #SUP: 2
64 -1 193 -1 #SUP: 2
64 -1 222 -1 #SUP: 3
64 -1 228 -1 #SUP: 2
64 -1 236 -1 #SUP: 2
64 -1 246 -1 #SUP: 2
64 -1 249 -1 #SUP: 2
64 -1 326 -1 #SUP: 5
64 -1 599 -1 #SUP: 3
64 -1 1757 -1 #SUP: 2
65 -1 2 -1 #SUP: 2
65 -1 9 -1 #SUP: 2
65 -1 76 -1 #SUP: 3
65 -1 77 -1 #SUP: 4
65 -1 78 -1 #SUP: 3
65 -1 156 -1 #SUP: 2
65 -1 326 -1 #SUP: 2
65 -1 531 -1 #SUP: 2
65 -1 608 -1 #SUP: 2
65 -1 1913 -1 #SUP: 2
67 -1 64 -1 #SUP: 2
67 -1 326 -1 #SUP: 2
70 -1 2 -1 #SUP: 3
70 -1 77 -1 #SUP: 2
70 -1 123 -1 #SUP: 3
70 -1 411 -1 #SUP: 2
70 -1 531 -1 #SUP: 2
70 -1 2924 -1 #SUP: 2
73 -1 64 -1 #SUP: 2
73 -1 65 -1 #SUP: 2
73 -1 77 -1 #SUP: 2
73 -1 78 -1 #SUP: 2
73 -1 236 -1 #SUP: 2
77 -1 2 -1 #SUP: 4
77 -1 9 -1 #SUP: 3
77 -1 10 -1 #SUP: 2
77 -1 16 -1 #SUP: 3
77 -1 22 -1 #SUP: 3
77 -1 31 -1 #SUP: 2
77 -1 32 -1 #SUP: 2
77 -1 41 -1 #SUP: 2
77 -1 64 -1 #SUP: 3
77 -1 65 -1 #SUP: 4
77 -1 70 -1 #SUP: 2
77 -1 77 -1 #SUP: 4
77 -1 78 -1 #SUP: 5
77 -1 123 -1 #SUP: 4
77 -1 244 -1 #SUP: 2
77 -1 411 -1 #SUP: 3
77 -1 524 -1 #SUP: 2
77 -1 531 -1 #SUP: 2
77 -1 1757 -1 #SUP: 2
78 -1 22 -1 #SUP: 3
78 -1 31 -1 #SUP: 3
78 -1 32 -1 #SUP: 2
78 -1 64 -1 #SUP: 2
78 -1 65 -1 #SUP: 3
78 -1 77 -1 #SUP: 6
78 -1 78 -1 #SUP: 3
78 -1 152 -1 #SUP: 2
78 -1 154 -1 #SUP: 3
78 -1 246 -1 #SUP: 3
78 -1 326 -1 #SUP: 3
78 -1 523 -1 #SUP: 2
78 -1 531 -1 #SUP: 2
120 -1 32 -1 #SUP: 2
120 -1 183 -1 #SUP: 2
120 -1 349 -1 #SUP: 2
123 -1 2 -1 #SUP: 5
123 -1 10 -1 #SUP: 2
123 -1 16 -1 #SUP: 2
123 -1 22 -1 #SUP: 10
123 -1 27 -1 #SUP: 3
123 -1 31 -1 #SUP: 4
123 -1 32 -1 #SUP: 10
123 -1 50 -1 #SUP: 3
123 -1 64 -1 #SUP: 13
123 -1 65 -1 #SUP: 6
123 -1 70 -1 #SUP: 2
123 -1 73 -1 #SUP: 3
123 -1 76 -1 #SUP: 2
123 -1 77 -1 #SUP: 8
123 -1 78 -1 #SUP: 4
123 -1 120 -1 #SUP: 3
123 -1 123 -1 #SUP: 8
123 -1 144 -1 #SUP: 2
123 -1 151 -1 #SUP: 3
123 -1 154 -1 #SUP: 10
123 -1 156 -1 #SUP: 3
123 -1 162 -1 #SUP: 2
123 -1 164 -1 #SUP: 7
123 -1 165 -1 #SUP: 3
123 -1 170 -1 #SUP: 3
123 -1 171 -1 #SUP: 3
123 -1 183 -1 #SUP: 3
123 -1 193 -1 #SUP: 2
123 -1 198 -1 #SUP: 2
123 -1 210 -1 #SUP: 2
123 -1 222 -1 #SUP: 3
123 -1 233 -1 #SUP: 2
123 -1 236 -1 #SUP: 3
123 -1 246 -1 #SUP: 2
123 -1 254 -1 #SUP: 2
123 -1 262 -1 #SUP: 2
123 -1 285 -1 #SUP: 2
123 -1 286 -1 #SUP: 5
123 -1 291 -1 #SUP: 3
123 -1 322 -1 #SUP: 2
123 -1 326 -1 #SUP: 2
123 -1 340 -1 #SUP: 4
123 -1 349 -1 #SUP: 2
123 -1 381 -1 #SUP: 2
123 -1 411 -1 #SUP: 3
123 -1 441 -1 #SUP: 3
123 -1 452 -1 #SUP: 2
123 -1 499 -1 #SUP: 2
123 -1 520 -1 #SUP: 2
123 -1 524 -1 #SUP: 2
123 -1 528 -1 #SUP: 2
123 -1 531 -1 #SUP: 3
123 -1 570 -1 #SUP: 2
123 -1 593 -1 #SUP: 2
123 -1 599 -1 #SUP: 4
123 -1 608 -1 #SUP: 2
123 -1 1177 -1 #SUP: 2
123 -1 1217 -1 #SUP: 2
123 -1 1713 -1 #SUP: 2
123 -1 1757 -1 #SUP: 2
123 -1 1758 -1 #SUP: 2
123 -1 1834 -1 #SUP: 3
123 -1 1913 -1 #SUP: 2
123 -1 2910 -1 #SUP: 2
123 -1 2924 -1 #SUP: 2
123 -1 3058 -1 #SUP: 2
123 -1 3757 -1 #SUP: 2
123 -1 3781 -1 #SUP: 2
123 -1 3820 -1 #SUP: 2
123 -1 20984 -1 #SUP: 2
140 -1 154 -1 #SUP: 2
151 -1 233 -1 #SUP: 2
154 -1 2 -1 #SUP: 4
154 -1 22 -1 #SUP: 2
154 -1 32 -1 #SUP: 2
154 -1 41 -1 #SUP: 2
154 -1 64 -1 #SUP: 2
154 -1 77 -1 #SUP: 2
154 -1 123 -1 #SUP: 2
154 -1 170 -1 #SUP: 2
154 -1 183 -1 #SUP: 2
154 -1 233 -1 #SUP: 2
154 -1 326 -1 #SUP: 2
154 -1 417 -1 #SUP: 2
154 -1 523 -1 #SUP: 2
154 -1 2924 -1 #SUP: 2
156 -1 77 -1 #SUP: 2
162 -1 285 -1 #SUP: 2
162 -1 349 -1 #SUP: 2
164 -1 2 -1 #SUP: 2
164 -1 64 -1 #SUP: 2
164 -1 65 -1 #SUP: 2
164 -1 77 -1 #SUP: 3
164 -1 123 -1 #SUP: 2
164 -1 222 -1 #SUP: 2
164 -1 249 -1 #SUP: 2
164 -1 570 -1 #SUP: 2
164 -1 599 -1 #SUP: 2
165 -1 64 -1 #SUP: 4
165 -1 67 -1 #SUP: 2
165 -1 326 -1 #SUP: 2
170 -1 2 -1 #SUP: 2
170 -1 22 -1 #SUP: 4
170 -1 32 -1 #SUP: 2
170 -1 154 -1 #SUP: 3
170 -1 326 -1 #SUP: 2
170 -1 523 -1 #SUP: 2
171 -1 22 -1 #SUP: 3
171 -1 32 -1 #SUP: 2
171 -1 77 -1 #SUP: 2
171 -1 123 -1 #SUP: 2
171 -1 151 -1 #SUP: 2
171 -1 593 -1 #SUP: 2
171 -1 2813 -1 #SUP: 2
183 -1 2 -1 #SUP: 3
183 -1 22 -1 #SUP: 2
183 -1 123 -1 #SUP: 3
183 -1 151 -1 #SUP: 2
183 -1 618 -1 #SUP: 2
183 -1 866 -1 #SUP: 2
193 -1 64 -1 #SUP: 2
193 -1 77 -1 #SUP: 2
193 -1 78 -1 #SUP: 2
193 -1 152 -1 #SUP: 4
198 -1 32 -1 #SUP: 2
222 -1 64 -1 #SUP: 2
228 -1 65 -1 #SUP: 2
233 -1 162 -1 #SUP: 2
236 -1 2 -1 #SUP: 2
236 -1 22 -1 #SUP: 2
236 -1 64 -1 #SUP: 7
236 -1 73 -1 #SUP: 2
236 -1 77 -1 #SUP: 6
236 -1 78 -1 #SUP: 2
236 -1 123 -1 #SUP: 4
236 -1 171 -1 #SUP: 2
236 -1 244 -1 #SUP: 2
236 -1 441 -1 #SUP: 2
236 -1 452 -1 #SUP: 2
236 -1 499 -1 #SUP: 2
236 -1 593 -1 #SUP: 2
236 -1 1757 -1 #SUP: 2
246 -1 32 -1 #SUP: 2
246 -1 64 -1 #SUP: 2
246 -1 77 -1 #SUP: 2
246 -1 152 -1 #SUP: 2
246 -1 154 -1 #SUP: 2
246 -1 326 -1 #SUP: 3
246 -1 1322 -1 #SUP: 2
249 -1 2 -1 #SUP: 2
249 -1 32 -1 #SUP: 2
249 -1 123 -1 #SUP: 2
249 -1 349 -1 #SUP: 2
250 -1 2 -1 #SUP: 2
250 -1 123 -1 #SUP: 2
250 -1 618 -1 #SUP: 2
262 -1 77 -1 #SUP: 2
262 -1 520 -1 #SUP: 2
268 -1 2 -1 #SUP: 2
280 -1 356 -1 #SUP: 2
285 -1 22 -1 #SUP: 2
285 -1 41 -1 #SUP: 2
285 -1 1758 -1 #SUP: 2
286 -1 32 -1 #SUP: 4
286 -1 123 -1 #SUP: 3
286 -1 599 -1 #SUP: 2
286 -1 20984 -1 #SUP: 2
291 -1 10 -1 #SUP: 2
291 -1 22 -1 #SUP: 2
291 -1 27 -1 #SUP: 3
291 -1 32 -1 #SUP: 3
291 -1 41 -1 #SUP: 4
291 -1 65 -1 #SUP: 2
291 -1 77 -1 #SUP: 4
291 -1 162 -1 #SUP: 2
291 -1 630 -1 #SUP: 2
326 -1 2 -1 #SUP: 2
326 -1 7 -1 #SUP: 2
326 -1 48 -1 #SUP: 2
326 -1 67 -1 #SUP: 2
326 -1 77 -1 #SUP: 2
326 -1 326 -1 #SUP: 3
326 -1 523 -1 #SUP: 3
326 -1 526 -1 #SUP: 2
326 -1 531 -1 #SUP: 3
326 -1 567 -1 #SUP: 2
326 -1 2924 -1 #SUP: 3
340 -1 22 -1 #SUP: 2
340 -1 32 -1 #SUP: 2
340 -1 154 -1 #SUP: 2
340 -1 170 -1 #SUP: 2
349 -1 22 -1 #SUP: 2
411 -1 22 -1 #SUP: 2
411 -1 65 -1 #SUP: 2
411 -1 123 -1 #SUP: 2
411 -1 524 -1 #SUP: 2
411 -1 531 -1 #SUP: 2
441 -1 64 -1 #SUP: 3
499 -1 123 -1 #SUP: 2
523 -1 2 -1 #SUP: 3
523 -1 531 -1 #SUP: 2
526 -1 78 -1 #SUP: 2
529 -1 154 -1 #SUP: 2
531 -1 2 -1 #SUP: 3
531 -1 65 -1 #SUP: 2
531 -1 77 -1 #SUP: 2
531 -1 523 -1 #SUP: 2
531 -1 2924 -1 #SUP: 3
547 -1 154 -1 #SUP: 2
570 -1 65 -1 #SUP: 2
608 -1 76 -1 #SUP: 2
630 -1 22 -1 #SUP: 3
630 -1 32 -1 #SUP: 2
815 -1 156 -1 #SUP: 2
848 -1 152 -1 #SUP: 2
921 -1 2 -1 #SUP: 2
1034 -1 77 -1 #SUP: 2
1713 -1 65 -1 #SUP: 2
1713 -1 164 -1 #SUP: 2
1713 -1 570 -1 #SUP: 2
1757 -1 11 -1 #SUP: 2
1757 -1 77 -1 #SUP: 2
1834 -1 64 -1 #SUP: 3
1834 -1 123 -1 #SUP: 2
1913 -1 78 -1 #SUP: 2
1913 -1 531 -1 #SUP: 2
2779 -1 2780 -1 #SUP: 2
2813 -1 77 -1 #SUP: 2
2910 -1 291 -1 #SUP: 2
2924 -1 2 -1 #SUP: 2
2924 -1 7 -1 #SUP: 2
2924 -1 22 -1 #SUP: 2
2924 -1 32 -1 #SUP: 2
2924 -1 523 -1 #SUP: 2
2924 -1 567 -1 #SUP: 2
3058 -1 31 -1 #SUP: 2
3058 -1 65 -1 #SUP: 2
3058 -1 76 -1 #SUP: 2
3058 -1 608 -1 #SUP: 2
3781 -1 154 -1 #SUP: 2
3781 -1 183 -1 #SUP: 2
3820 -1 164 -1 #SUP: 2
41733 -1 22 -1 #SUP: 2
41733 -1 123 -1 #SUP: 2
41733 -1 164 -1 #SUP: 3
41733 -1 249 -1 #SUP: 2
2 -1 2 -1 2 -1 #SUP: 2
2 -1 123 -1 64 -1 #SUP: 2
2 -1 183 -1 123 -1 #SUP: 2
2 -1 268 -1 2 -1 #SUP: 2
2 -1 326 -1 7 -1 #SUP: 2
2 -1 326 -1 523 -1 #SUP: 2
2 -1 326 -1 531 -1 #SUP: 3
2 -1 326 -1 2924 -1 #SUP: 3
2 -1 531 -1 2 -1 #SUP: 2
2 -1 531 -1 65 -1 #SUP: 2
2 -1 531 -1 2924 -1 #SUP: 3
2 -1 2924 -1 7 -1 #SUP: 2
16 -1 78 -1 65 -1 #SUP: 2
22 -1 32 -1 154 -1 #SUP: 3
22 -1 32 -1 170 -1 #SUP: 2
22 -1 32 -1 381 -1 #SUP: 2
22 -1 32 -1 3781 -1 #SUP: 2
22 -1 170 -1 154 -1 #SUP: 2
22 -1 183 -1 2 -1 #SUP: 2
22 -1 326 -1 523 -1 #SUP: 2
27 -1 22 -1 32 -1 #SUP: 2
27 -1 32 -1 65 -1 #SUP: 2
27 -1 32 -1 411 -1 #SUP: 2
27 -1 123 -1 32 -1 #SUP: 2
27 -1 123 -1 65 -1 #SUP: 2
27 -1 123 -1 411 -1 #SUP: 2
27 -1 411 -1 65 -1 #SUP: 2
27 -1 630 -1 22 -1 #SUP: 2
27 -1 630 -1 32 -1 #SUP: 2
31 -1 65 -1 76 -1 #SUP: 3
31 -1 65 -1 608 -1 #SUP: 2
31 -1 77 -1 77 -1 #SUP: 2
31 -1 411 -1 22 -1 #SUP: 2
31 -1 608 -1 76 -1 #SUP: 2
32 -1 10 -1 65 -1 #SUP: 2
32 -1 10 -1 78 -1 #SUP: 2
32 -1 120 -1 32 -1 #SUP: 2
32 -1 123 -1 32 -1 #SUP: 2
32 -1 123 -1 120 -1 #SUP: 2
32 -1 170 -1 154 -1 #SUP: 2
32 -1 411 -1 65 -1 #SUP: 2
32 -1 411 -1 524 -1 #SUP: 2
32 -1 411 -1 531 -1 #SUP: 2
39 -1 22 -1 22 -1 #SUP: 2
41 -1 22 -1 32 -1 #SUP: 2
41 -1 41 -1 41 -1 #SUP: 2
41 -1 630 -1 22 -1 #SUP: 2
41 -1 630 -1 32 -1 #SUP: 2
50 -1 64 -1 22 -1 #SUP: 2
57 -1 77 -1 9 -1 #SUP: 2
64 -1 2 -1 158 -1 #SUP: 2
64 -1 22 -1 32 -1 #SUP: 2
64 -1 22 -1 154 -1 #SUP: 2
64 -1 32 -1 154 -1 #SUP: 2
64 -1 64 -1 228 -1 #SUP: 2
64 -1 77 -1 78 -1 #SUP: 3
64 -1 78 -1 77 -1 #SUP: 2
64 -1 78 -1 246 -1 #SUP: 2
64 -1 164 -1 123 -1 #SUP: 2
65 -1 2 -1 1913 -1 #SUP: 2
65 -1 78 -1 326 -1 #SUP: 2
65 -1 78 -1 531 -1 #SUP: 2
65 -1 608 -1 76 -1 #SUP: 2
67 -1 64 -1 326 -1 #SUP: 2
70 -1 2 -1 531 -1 #SUP: 2
70 -1 2 -1 2924 -1 #SUP: 2
70 -1 123 -1 123 -1 #SUP: 2
70 -1 411 -1 123 -1 #SUP: 2
70 -1 531 -1 2924 -1 #SUP: 2
73 -1 77 -1 78 -1 #SUP: 2
73 -1 236 -1 64 -1 #SUP: 2
77 -1 2 -1 2 -1 #SUP: 2
77 -1 10 -1 65 -1 #SUP: 2
77 -1 10 -1 78 -1 #SUP: 2
77 -1 32 -1 411 -1 #SUP: 2
77 -1 32 -1 524 -1 #SUP: 2
77 -1 32 -1 531 -1 #SUP: 2
77 -1 64 -1 1757 -1 #SUP: 2
77 -1 65 -1 77 -1 #SUP: 2
77 -1 70 -1 123 -1 #SUP: 2
77 -1 70 -1 411 -1 #SUP: 2
77 -1 77 -1 2 -1 #SUP: 2
77 -1 78 -1 65 -1 #SUP: 2
77 -1 123 -1 2 -1 #SUP: 2
77 -1 123 -1 32 -1 #SUP: 2
77 -1 123 -1 411 -1 #SUP: 2
77 -1 123 -1 524 -1 #SUP: 2
77 -1 123 -1 531 -1 #SUP: 2
77 -1 411 -1 123 -1 #SUP: 2
77 -1 411 -1 524 -1 #SUP: 2
77 -1 411 -1 531 -1 #SUP: 2
78 -1 65 -1 77 -1 #SUP: 2
78 -1 77 -1 22 -1 #SUP: 2
78 -1 77 -1 78 -1 #SUP: 2
78 -1 78 -1 246 -1 #SUP: 2
78 -1 154 -1 326 -1 #SUP: 2
78 -1 154 -1 523 -1 #SUP: 2
78 -1 246 -1 77 -1 #SUP: 2
78 -1 246 -1 154 -1 #SUP: 2
78 -1 246 -1 326 -1 #SUP: 2
78 -1 326 -1 523 -1 #SUP: 2
123 -1 2 -1 65 -1 #SUP: 2
123 -1 2 -1 531 -1 #SUP: 2
123 -1 22 -1 32 -1 #SUP: 4
123 -1 22 -1 64 -1 #SUP: 2
123 -1 22 -1 78 -1 #SUP: 2
123 -1 22 -1 154 -1 #SUP: 2
123 -1 31 -1 22 -1 #SUP: 2
123 -1 31 -1 32 -1 #SUP: 2
123 -1 31 -1 65 -1 #SUP: 2
123 -1 31 -1 76 -1 #SUP: 2
123 -1 31 -1 608 -1 #SUP: 2
123 -1 32 -1 22 -1 #SUP: 3
123 -1 32 -1 64 -1 #SUP: 2
123 -1 32 -1 65 -1 #SUP: 2
123 -1 32 -1 77 -1 #SUP: 2
123 -1 32 -1 123 -1 #SUP: 2
123 -1 32 -1 154 -1 #SUP: 2
123 -1 32 -1 411 -1 #SUP: 2
123 -1 32 -1 524 -1 #SUP: 2
123 -1 32 -1 531 -1 #SUP: 2
123 -1 32 -1 20984 -1 #SUP: 2
123 -1 50 -1 520 -1 #SUP: 2
123 -1 64 -1 2 -1 #SUP: 3
123 -1 64 -1 22 -1 #SUP: 3
123 -1 64 -1 32 -1 #SUP: 2
123 -1 64 -1 64 -1 #SUP: 3
123 -1 64 -1 77 -1 #SUP: 3
123 -1 64 -1 123 -1 #SUP: 3
123 -1 64 -1 154 -1 #SUP: 2
123 -1 64 -1 164 -1 #SUP: 2
123 -1 64 -1 222 -1 #SUP: 2
123 -1 64 -1 236 -1 #SUP: 2
123 -1 64 -1 326 -1 #SUP: 2
123 -1 64 -1 599 -1 #SUP: 3
123 -1 65 -1 76 -1 #SUP: 2
123 -1 65 -1 78 -1 #SUP: 2
123 -1 65 -1 608 -1 #SUP: 2
123 -1 73 -1 64 -1 #SUP: 2
123 -1 73 -1 77 -1 #SUP: 2
123 -1 73 -1 236 -1 #SUP: 2
123 -1 77 -1 2 -1 #SUP: 2
123 -1 77 -1 16 -1 #SUP: 2
123 -1 77 -1 64 -1 #SUP: 2
123 -1 77 -1 123 -1 #SUP: 2
123 -1 78 -1 32 -1 #SUP: 2
123 -1 78 -1 77 -1 #SUP: 2
123 -1 78 -1 246 -1 #SUP: 2
123 -1 120 -1 32 -1 #SUP: 2
123 -1 120 -1 349 -1 #SUP: 2
123 -1 123 -1 2 -1 #SUP: 2
123 -1 123 -1 32 -1 #SUP: 2
123 -1 123 -1 64 -1 #SUP: 2
123 -1 123 -1 123 -1 #SUP: 2
123 -1 123 -1 222 -1 #SUP: 2
123 -1 123 -1 286 -1 #SUP: 2
123 -1 123 -1 599 -1 #SUP: 3
123 -1 123 -1 1758 -1 #SUP: 2
123 -1 154 -1 2 -1 #SUP: 2
123 -1 154 -1 64 -1 #SUP: 2
123 -1 154 -1 77 -1 #SUP: 2
123 -1 154 -1 170 -1 #SUP: 2
123 -1 154 -1 183 -1 #SUP: 2
123 -1 164 -1 2 -1 #SUP: 2
123 -1 164 -1 65 -1 #SUP: 2
123 -1 164 -1 77 -1 #SUP: 2
123 -1 164 -1 123 -1 #SUP: 2
123 -1 164 -1 570 -1 #SUP: 2
123 -1 164 -1 599 -1 #SUP: 2
123 -1 165 -1 64 -1 #SUP: 3
123 -1 198 -1 32 -1 #SUP: 2
123 -1 233 -1 162 -1 #SUP: 2
123 -1 236 -1 64 -1 #SUP: 3
123 -1 236 -1 73 -1 #SUP: 2
123 -1 246 -1 77 -1 #SUP: 2
123 -1 285 -1 1758 -1 #SUP: 2
123 -1 286 -1 32 -1 #SUP: 4
123 -1 286 -1 123 -1 #SUP: 3
123 -1 286 -1 599 -1 #SUP: 2
123 -1 286 -1 20984 -1 #SUP: 2
123 -1 291 -1 162 -1 #SUP: 2
123 -1 340 -1 22 -1 #SUP: 2
123 -1 340 -1 32 -1 #SUP: 2
123 -1 340 -1 154 -1 #SUP: 2
123 -1 340 -1 170 -1 #SUP: 2
123 -1 411 -1 65 -1 #SUP: 2
123 -1 411 -1 524 -1 #SUP: 2
123 -1 411 -1 531 -1 #SUP: 2
123 -1 441 -1 64 -1 #SUP: 3
123 -1 499 -1 123 -1 #SUP: 2
123 -1 531 -1 65 -1 #SUP: 2
123 -1 570 -1 65 -1 #SUP: 2
123 -1 608 -1 76 -1 #SUP: 2
123 -1 1713 -1 65 -1 #SUP: 2
123 -1 1713 -1 164 -1 #SUP: 2
123 -1 1713 -1 570 -1 #SUP: 2
123 -1 1834 -1 64 -1 #SUP: 3
123 -1 1834 -1 123 -1 #SUP: 2
123 -1 2910 -1 291 -1 #SUP: 2
123 -1 2924 -1 22 -1 #SUP: 2
123 -1 2924 -1 32 -1 #SUP: 2
123 -1 3058 -1 31 -1 #SUP: 2
123 -1 3058 -1 65 -1 #SUP: 2
123 -1 3058 -1 76 -1 #SUP: 2
123 -1 3058 -1 608 -1 #SUP: 2
123 -1 3781 -1 154 -1 #SUP: 2
123 -1 3781 -1 183 -1 #SUP: 2
123 -1 3820 -1 164 -1 #SUP: 2
154 -1 326 -1 523 -1 #SUP: 2
164 -1 123 -1 222 -1 #SUP: 2
164 -1 570 -1 65 -1 #SUP: 2
165 -1 64 -1 64 -1 #SUP: 2
165 -1 64 -1 326 -1 #SUP: 2
165 -1 67 -1 64 -1 #SUP: 2
165 -1 67 -1 326 -1 #SUP: 2
170 -1 22 -1 22 -1 #SUP: 2
170 -1 326 -1 523 -1 #SUP: 2
171 -1 123 -1 593 -1 #SUP: 2
171 -1 2813 -1 77 -1 #SUP: 2
193 -1 64 -1 152 -1 #SUP: 2
193 -1 78 -1 152 -1 #SUP: 2
236 -1 64 -1 2 -1 #SUP: 2
236 -1 64 -1 64 -1 #SUP: 2
236 -1 64 -1 77 -1 #SUP: 4
236 -1 64 -1 78 -1 #SUP: 2
236 -1 64 -1 1757 -1 #SUP: 2
236 -1 73 -1 64 -1 #SUP: 2
236 -1 77 -1 64 -1 #SUP: 2
236 -1 77 -1 244 -1 #SUP: 2
236 -1 77 -1 1757 -1 #SUP: 2
236 -1 78 -1 77 -1 #SUP: 2
236 -1 123 -1 64 -1 #SUP: 3
236 -1 123 -1 77 -1 #SUP: 3
236 -1 123 -1 123 -1 #SUP: 2
236 -1 123 -1 441 -1 #SUP: 2
236 -1 123 -1 499 -1 #SUP: 2
236 -1 123 -1 593 -1 #SUP: 2
236 -1 171 -1 123 -1 #SUP: 2
236 -1 171 -1 593 -1 #SUP: 2
236 -1 441 -1 64 -1 #SUP: 2
236 -1 499 -1 123 -1 #SUP: 2
246 -1 64 -1 326 -1 #SUP: 2
250 -1 2 -1 618 -1 #SUP: 2
286 -1 32 -1 123 -1 #SUP: 2
286 -1 32 -1 20984 -1 #SUP: 2
286 -1 123 -1 599 -1 #SUP: 2
291 -1 10 -1 65 -1 #SUP: 2
291 -1 22 -1 32 -1 #SUP: 2
291 -1 27 -1 22 -1 #SUP: 2
291 -1 27 -1 32 -1 #SUP: 2
291 -1 27 -1 630 -1 #SUP: 2
291 -1 32 -1 10 -1 #SUP: 2
291 -1 32 -1 65 -1 #SUP: 2
291 -1 41 -1 22 -1 #SUP: 2
291 -1 41 -1 32 -1 #SUP: 2
291 -1 41 -1 77 -1 #SUP: 2
291 -1 41 -1 630 -1 #SUP: 2
291 -1 77 -1 10 -1 #SUP: 2
291 -1 77 -1 41 -1 #SUP: 2
291 -1 77 -1 65 -1 #SUP: 2
291 -1 630 -1 22 -1 #SUP: 2
291 -1 630 -1 32 -1 #SUP: 2
326 -1 7 -1 567 -1 #SUP: 2
326 -1 48 -1 67 -1 #SUP: 2
326 -1 523 -1 2 -1 #SUP: 2
326 -1 531 -1 2 -1 #SUP: 2
326 -1 531 -1 523 -1 #SUP: 2
326 -1 531 -1 2924 -1 #SUP: 2
326 -1 2924 -1 2 -1 #SUP: 2
326 -1 2924 -1 7 -1 #SUP: 2
326 -1 2924 -1 523 -1 #SUP: 2
326 -1 2924 -1 567 -1 #SUP: 2
340 -1 22 -1 32 -1 #SUP: 2
523 -1 2 -1 531 -1 #SUP: 2
531 -1 523 -1 2 -1 #SUP: 2
531 -1 2924 -1 2 -1 #SUP: 2
531 -1 2924 -1 523 -1 #SUP: 2
630 -1 22 -1 32 -1 #SUP: 2
1713 -1 164 -1 65 -1 #SUP: 2
1713 -1 164 -1 570 -1 #SUP: 2
1713 -1 570 -1 65 -1 #SUP: 2
1834 -1 64 -1 123 -1 #SUP: 2
1913 -1 78 -1 531 -1 #SUP: 2
2924 -1 7 -1 567 -1 #SUP: 2
2924 -1 523 -1 2 -1 #SUP: 2
3058 -1 31 -1 65 -1 #SUP: 2
3058 -1 31 -1 76 -1 #SUP: 2
3058 -1 31 -1 608 -1 #SUP: 2
3058 -1 65 -1 76 -1 #SUP: 2
3058 -1 65 -1 608 -1 #SUP: 2
3058 -1 608 -1 76 -1 #SUP: 2
3781 -1 154 -1 183 -1 #SUP: 2
2 -1 326 -1 531 -1 2924 -1 #SUP: 2
2 -1 326 -1 2924 -1 7 -1 #SUP: 2
22 -1 32 -1 170 -1 154 -1 #SUP: 2
27 -1 32 -1 411 -1 65 -1 #SUP: 2
27 -1 123 -1 32 -1 65 -1 #SUP: 2
27 -1 123 -1 32 -1 411 -1 #SUP: 2
27 -1 123 -1 411 -1 65 -1 #SUP: 2
27 -1 630 -1 22 -1 32 -1 #SUP: 2
31 -1 65 -1 608 -1 76 -1 #SUP: 2
32 -1 123 -1 120 -1 32 -1 #SUP: 2
41 -1 630 -1 22 -1 32 -1 #SUP: 2
64 -1 22 -1 32 -1 154 -1 #SUP: 2
70 -1 2 -1 531 -1 2924 -1 #SUP: 2
77 -1 32 -1 411 -1 524 -1 #SUP: 2
77 -1 32 -1 411 -1 531 -1 #SUP: 2
77 -1 70 -1 411 -1 123 -1 #SUP: 2
77 -1 123 -1 32 -1 411 -1 #SUP: 2
77 -1 123 -1 32 -1 524 -1 #SUP: 2
77 -1 123 -1 32 -1 531 -1 #SUP: 2
77 -1 123 -1 411 -1 524 -1 #SUP: 2
77 -1 123 -1 411 -1 531 -1 #SUP: 2
78 -1 154 -1 326 -1 523 -1 #SUP: 2
123 -1 2 -1 531 -1 65 -1 #SUP: 2
123 -1 22 -1 32 -1 154 -1 #SUP: 2
123 -1 31 -1 65 -1 76 -1 #SUP: 2
123 -1 31 -1 65 -1 608 -1 #SUP: 2
123 -1 31 -1 608 -1 76 -1 #SUP: 2
123 -1 32 -1 411 -1 65 -1 #SUP: 2
123 -1 32 -1 411 -1 524 -1 #SUP: 2
123 -1 32 -1 411 -1 531 -1 #SUP: 2
123 -1 64 -1 22 -1 32 -1 #SUP: 2
123 -1 64 -1 22 -1 154 -1 #SUP: 2
123 -1 64 -1 32 -1 154 -1 #SUP: 2
123 -1 64 -1 164 -1 123 -1 #SUP: 2
123 -1 65 -1 608 -1 76 -1 #SUP: 2
123 -1 73 -1 236 -1 64 -1 #SUP: 2
123 -1 77 -1 123 -1 2 -1 #SUP: 2
123 -1 78 -1 246 -1 77 -1 #SUP: 2
123 -1 123 -1 286 -1 32 -1 #SUP: 2
123 -1 164 -1 570 -1 65 -1 #SUP: 2
123 -1 165 -1 64 -1 64 -1 #SUP: 2
123 -1 236 -1 64 -1 64 -1 #SUP: 2
123 -1 236 -1 73 -1 64 -1 #SUP: 2
123 -1 286 -1 32 -1 123 -1 #SUP: 2
123 -1 286 -1 32 -1 20984 -1 #SUP: 2
123 -1 286 -1 123 -1 599 -1 #SUP: 2
123 -1 340 -1 22 -1 32 -1 #SUP: 2
123 -1 1713 -1 164 -1 65 -1 #SUP: 2
123 -1 1713 -1 164 -1 570 -1 #SUP: 2
123 -1 1713 -1 570 -1 65 -1 #SUP: 2
123 -1 1834 -1 64 -1 123 -1 #SUP: 2
123 -1 3058 -1 31 -1 65 -1 #SUP: 2
123 -1 3058 -1 31 -1 76 -1 #SUP: 2
123 -1 3058 -1 31 -1 608 -1 #SUP: 2
123 -1 3058 -1 65 -1 76 -1 #SUP: 2
123 -1 3058 -1 65 -1 608 -1 #SUP: 2
123 -1 3058 -1 608 -1 76 -1 #SUP: 2
123 -1 3781 -1 154 -1 183 -1 #SUP: 2
165 -1 67 -1 64 -1 326 -1 #SUP: 2
236 -1 64 -1 78 -1 77 -1 #SUP: 2
236 -1 77 -1 64 -1 1757 -1 #SUP: 2
236 -1 123 -1 441 -1 64 -1 #SUP: 2
236 -1 123 -1 499 -1 123 -1 #SUP: 2
236 -1 171 -1 123 -1 593 -1 #SUP: 2
291 -1 27 -1 22 -1 32 -1 #SUP: 2
291 -1 27 -1 630 -1 22 -1 #SUP: 2
291 -1 27 -1 630 -1 32 -1 #SUP: 2
291 -1 32 -1 10 -1 65 -1 #SUP: 2
291 -1 41 -1 22 -1 32 -1 #SUP: 2
291 -1 41 -1 630 -1 22 -1 #SUP: 2
291 -1 41 -1 630 -1 32 -1 #SUP: 2
291 -1 77 -1 10 -1 65 -1 #SUP: 2
291 -1 630 -1 22 -1 32 -1 #SUP: 2
326 -1 531 -1 523 -1 2 -1 #SUP: 2
326 -1 531 -1 2924 -1 2 -1 #SUP: 2
326 -1 531 -1 2924 -1 523 -1 #SUP: 2
326 -1 2924 -1 7 -1 567 -1 #SUP: 2
326 -1 2924 -1 523 -1 2 -1 #SUP: 2
531 -1 2924 -1 523 -1 2 -1 #SUP: 2
1713 -1 164 -1 570 -1 65 -1 #SUP: 2
3058 -1 31 -1 65 -1 76 -1 #SUP: 2
3058 -1 31 -1 65 -1 608 -1 #SUP: 2
3058 -1 31 -1 608 -1 76 -1 #SUP: 2
3058 -1 65 -1 608 -1 76 -1 #SUP: 2
27 -1 123 -1 32 -1 411 -1 65 -1 #SUP: 2
77 -1 123 -1 32 -1 411 -1 524 -1 #SUP: 2
77 -1 123 -1 32 -1 411 -1 531 -1 #SUP: 2
123 -1 31 -1 65 -1 608 -1 76 -1 #SUP: 2
123 -1 64 -1 22 -1 32 -1 154 -1 #SUP: 2
123 -1 1713 -1 164 -1 570 -1 65 -1 #SUP: 2
123 -1 3058 -1 31 -1 65 -1 76 -1 #SUP: 2
123 -1 3058 -1 31 -1 65 -1 608 -1 #SUP: 2
123 -1 3058 -1 31 -1 608 -1 76 -1 #SUP: 2
123 -1 3058 -1 65 -1 608 -1 76 -1 #SUP: 2
291 -1 27 -1 630 -1 22 -1 32 -1 #SUP: 2
291 -1 41 -1 630 -1 22 -1 32 -1 #SUP: 2
326 -1 531 -1 2924 -1 523 -1 2 -1 #SUP: 2
3058 -1 31 -1 65 -1 608 -1 76 -1 #SUP: 2
123 -1 3058 -1 31 -1 65 -1 608 -1 76 -1 #SUP: 2
