3 -1 909 -1 164 -1 50 -1 846 -1 1897 -1 2163 -1 31 -1 65 -1 671 -1 274 -1 321 -1 408 -1 189 -1 30 -2
123 -1 638 -1 50 -1 584 -1 10188 -1 3118 -1 82 -1 10 -1 871 -1 1125 -1 42 -1 154 -1 77 -1 2 -1 123 -1 407 -1 529 -1 10188 -1 693 -1 7456 -1 2 -1 826 -1 2253 -1 30 -2
8 -1 46001 -1 8250 -1 1817 -1 105 -1 113788 -1 321 -1 207 -1 113790 -1 113789 -1 123 -1 1757 -1 262 -1 171 -1 32 -1 50 -1 544 -1 32658 -1 518 -1 30 -1 123 -1 391 -1 3 -1 224 -1 936 -1 31 -1 65 -1 13257 -1 76 -1 254 -1 123 -1 638 -1 567 -1 76 -1 254 -1 32 -1 395 -1 2 -1 138 -1 1051 -1 50 -1 22802 -1 30 -2
65 -1 46 -1 32 -1 759 -1 206 -1 1321 -1 291 -1 241 -1 157 -1 937 -1 520 -1 123 -1 1252 -1 158 -1 936 -1 2 -1 30 -2
894 -1 14400 -1 77 -1 1700 -1 64 -1 758 -1 41 -1 283 -2
27 -1 383 -1 32 -1 393 -1 144 -1 41 -1 356 -1 2 -1 27 -1 4911 -1 144 -1 41 -1 789 -1 1 -2
103 -1 77 -1 441 -1 65 -1 603 -1 76 -1 224 -1 936 -1 1914 -1 77 -1 41 -1 1313 -1 468 -1 210 -1 364 -1 326 -1 48 -1 12877 -1 196 -1 283 -2
3002 -1 599 -1 123 -1 517 -1 638 -1 175 -1 1084 -1 164 -1 2937 -1 77 -1 657 -1 123 -1 174 -1 431 -1 1300 -1 291 -1 518 -1 27 -1 334 -1 41 -1 144 -1 64 -1 268 -1 237 -1 66 -1 650 -1 3863 -1 23988 -1 1 -2
518 -1 989 -1 103 -1 283 -2
63 -1 31 -1 22 -1 194 -1 1001 -1 77 -1 599 -1 64 -1 1281 -1 29 -1 1441 -1 364 -1 65 -1 109 -1 4332 -1 7309 -1 30 -2
364 -1 10 -1 50 -1 49 -1 491 -1 189 -1 57 -1 113791 -1 283 -2
693 -1 8753 -1 170 -1 223 -1 168 -1 123 -1 990 -1 1305 -1 441 -1 65 -1 603 -1 76 -1 224 -1 936 -1 283 -2
520 -1 77 -1 27 -1 144 -1 41 -1 144 -1 10 -1 1922 -1 13 -1 1 -2
57 -1 7549 -1 2 -1 529 -1 57 -1 113791 -1 283 -2
326 -1 1897 -1 154 -1 968 -1 64 -1 1537 -1 77 -1 192 -1 77 -1 154 -1 653 -1 176 -1 871 -1 256 -1 50 -1 1897 -1 3361 -1 30 -2
989 -1 103 -1 283 -2
285 -1 41 -1 1051 -1 1 -2
123 -1 212 -1 638 -1 326 -1 827 -1 608 -1 2226 -1 164 -1 50 -1 1226 -1 2 -1 233 -1 533 -1 123 -1 630 -1 2006 -1 192 -1 64 -1 1214 -1 77 -1 123 -1 1758 -1 520 -1 199 -1 364 -1 965 -1 431 -1 944 -1 10 -1 243 -1 29092 -1 77 -1 710 -1 77 -1 123 -1 1758 -1 356 -1 201 -1 170 -1 567 -1 686 -1 243 -1 3243 -1 2555 -1 30 -2
123 -1 1274 -1 159 -1 45 -1 77 -1 6568 -1 446 -1 260 -1 50 -1 54 -1 30 -2
123 -1 1034 -1 749 -1 41 -1 165 -1 160 -1 1146 -1 13695 -1 170 -1 1250 -1 31 -1 7787 -1 2 -1 42668 -1 2091 -1 77 -1 123 -1 392 -1 32 -1 15424 -1 599 -1 517 -1 1794 -1 64 -1 376 -1 193 -1 30 -2
123 -1 210 -1 356 -1 64 -1 376 -1 13695 -1 77 -1 599 -1 123 -1 441 -1 213 -1 4673 -1 31 -1 189 -1 30 -2
7440 -1 170 -1 16 -1 22 -1 132 -1 78 -1 30 -2
236 -1 248 -1 16 -1 260 -1 651 -1 31 -1 65 -1 21951 -1 2630 -1 77 -1 123 -1 4702 -1 1793 -1 208 -1 152 -1 7440 -1 2 -1 656 -1 198 -1 113792 -1 30 -2
193 -1 7 -1 65 -1 603 -1 3705 -1 2 -1 236 -1 41 -1 340 -1 693 -1 7410 -1 70 -1 1030 -1 714 -1 64 -1 711 -1 65 -1 65787 -1 30 -2
193 -1 701 -1 41 -1 529 -1 402 -1 65 -1 1219 -1 32 -1 7767 -1 283 -2
236 -1 3088 -1 65 -1 109 -1 5252 -1 170 -1 260 -1 27 -1 41 -1 160 -1 77 -1 123 -1 286 -1 70 -1 398 -1 64 -1 1611 -1 33 -1 7410 -1 77 -1 520 -1 41 -1 220 -1 711 -1 693 -1 17520 -1 2 -1 29417 -1 134 -1 33 -1 29 -1 30 -2
70 -1 631 -1 4946 -1 1072 -1 7883 -1 8 -1 113793 -1 2 -1 22 -1 538 -1 491 -1 170 -1 65 -1 1859 -1 491 -1 30 -2
443 -1 268 -1 113794 -1 46035 -1 4946 -1 919 -1 77 -1 916 -1 77 -1 21297 -1 77 -1 30 -2
123 -1 221 -1 871 -1 4181 -1 77 -1 599 -1 364 -1 27748 -1 151 -1 33 -1 37994 -1 7410 -1 1346 -1 77 -1 254 -1 123 -1 1758 -1 123 -1 220 -1 488 -1 376 -1 65 -1 1219 -1 291 -1 21160 -1 2805 -1 33 -1 50 -1 317 -1 77 -1 599 -1 31 -1 7410 -1 123 -1 356 -1 64 -1 441 -1 65 -1 4886 -1 1412 -1 164 -1 30 -2
894 -1 201 -1 283 -2
364 -1 65 -1 109 -1 4332 -1 7309 -1 2 -1 123 -1 588 -1 10 -1 50 -1 3079 -1 263 -1 2 -1 213 -1 3338 -1 154 -1 213 -1 225 -1 183 -1 944 -1 10 -1 262 -1 1079 -1 196 -1 77 -1 520 -1 123 -1 205 -1 749 -1 16 -1 1461 -1 65 -1 861 -1 291 -1 30 -2
1433 -1 2825 -1 1153 -1 164 -1 200 -1 10 -1 65 -1 1472 -1 1672 -1 1165 -1 41 -1 160 -1 65 -1 398 -1 75 -1 164 -1 134 -1 77 -1 520 -1 236 -1 248 -1 541 -1 154 -1 41 -1 1591 -1 29 -1 2773 -1 599 -1 1758 -1 1926 -1 291 -1 193 -1 77 -1 193 -1 2279 -1 548 -1 955 -1 30 -2
7092 -1 388 -1 77 -1 201 -1 183 -1 169 -1 65 -1 1219 -1 32 -1 97699 -1 10 -1 21160 -1 58406 -1 2 -1 2746 -1 58406 -1 170 -1 951 -1 171 -1 32 -1 22 -1 15 -1 804 -1 737 -1 2 -1 22 -1 15 -1 1320 -1 737 -1 30 -2
356 -1 123 -1 630 -1 77 -1 22 -1 5788 -1 30 -2
3336 -1 123 -1 517 -1 783 -1 326 -1 48 -1 10 -1 471 -1 13 -1 1141 -1 30 -2
171 -1 2771 -1 123 -1 638 -1 77 -1 123 -1 5456 -1 64 -1 67 -1 48 -1 77 -1 599 -1 32 -1 842 -1 364 -1 16 -1 1191 -1 117 -1 66 -1 30 -2
123 -1 638 -1 65 -1 260 -1 603 -1 7261 -1 164 -1 505 -1 77 -1 599 -1 1964 -1 123 -1 765 -1 154 -1 64 -1 30 -2
126 -1 70 -1 22 -1 156 -1 15 -1 150 -1 64 -1 543 -1 193 -1 158 -1 2 -1 221 -1 2910 -1 291 -1 241 -1 157 -1 1 -2
152 -1 126 -1 2006 -1 16 -1 1355 -1 117 -1 66 -1 77 -1 369 -1 1207 -1 1 -2
518 -1 1199 -1 77 -1 779 -1 77 -1 364 -1 326 -1 21405 -1 109 -1 7828 -1 5252 -1 196 -1 283 -2
210 -1 364 -1 529 -1 326 -1 4270 -1 21951 -1 123 -1 356 -1 193 -1 77 -1 599 -1 31 -1 222 -1 193 -1 170 -1 65 -1 2989 -1 64 -1 711 -1 167 -1 30 -2
123 -1 120 -1 221 -1 19981 -1 7410 -1 65 -1 1219 -1 31 -1 439 -1 77 -1 30 -2
3559 -1 77 -1 65 -1 4521 -1 7309 -1 283 -2
123 -1 2209 -1 144 -1 41 -1 376 -1 291 -1 241 -1 5644 -1 10 -1 65 -1 4521 -1 842 -1 1 -2
175 -1 213 -1 2193 -1 3074 -1 356 -1 64 -1 378 -1 164 -1 22 -1 219 -1 1 -2
210 -1 989 -1 77 -1 103 -1 834 -1 48 -1 30 -2
235 -1 201 -1 283 -2
520 -1 77 -1 27 -1 170 -1 193 -1 356 -1 64 -1 67 -1 65 -1 109 -1 4332 -1 7309 -1 30 -2
246 -1 77 -1 193 -1 951 -1 1126 -1 65 -1 1219 -1 256 -1 395 -1 64 -1 395 -1 77 -1 599 -1 70 -1 431 -1 3196 -1 30 -2
10 -1 704 -1 842 -1 77 -1 22 -1 3429 -1 777 -1 196 -1 804 -1 117 -1 30 -2
7092 -1 77 -1 248 -1 1216 -1 16 -1 1152 -1 164 -1 22 -1 735 -1 77 -1 364 -1 212 -1 319 -1 1874 -1 735 -1 518 -1 710 -1 77 -1 123 -1 268 -1 2301 -1 64 -1 735 -1 535 -1 65 -1 138 -1 30 -2
103 -1 283 -2
27 -1 183 -1 29 -1 2193 -1 1 -2
693 -1 431 -1 1700 -1 908 -1 936 -1 30 -2
651 -1 64 -1 378 -1 321 -1 31 -1 189 -1 9006 -1 38522 -1 50 -1 3474 -1 12647 -1 5654 -1 22 -1 3670 -1 113795 -1 66 -1 431 -1 3275 -1 908 -1 64 -1 657 -1 123 -1 990 -1 693 -1 220 -1 1713 -1 1809 -1 77 -1 1810 -1 77 -1 2673 -1 1177 -1 30 -1 1 -2
364 -1 651 -1 31 -1 65 -1 1810 -1 602 -1 117 -1 22 -1 71 -1 16 -1 22 -1 2132 -1 54 -1 154 -1 170 -1 520 -1 33932 -1 2016 -1 77 -1 599 -1 151 -1 356 -1 5421 -1 280 -1 77 -1 2083 -1 32 -1 22 -1 5595 -1 77 -1 152 -1 233 -1 65 -1 720 -1 356 -1 3117 -1 30 -2
1082 -1 3079 -1 283 -2
364 -1 529 -1 12897 -1 65 -1 720 -1 10 -1 241 -1 5644 -1 31 -1 22 -1 2144 -1 32 -1 2746 -1 6325 -1 364 -1 326 -1 21405 -1 109 -1 7828 -1 77 -1 2 -1 189 -1 41 -1 826 -1 222 -1 160 -1 64 -1 929 -1 151 -1 237 -1 262 -1 5096 -1 30 -2
364 -1 1211 -1 77 -1 856 -1 41 -1 30 -2
894 -1 201 -1 283 -2
364 -1 326 -1 48 -1 2 -1 50 -1 2163 -1 170 -1 326 -1 1897 -1 77 -1 520 -1 123 -1 990 -1 123 -1 220 -1 1281 -1 693 -1 32 -1 29 -1 1574 -1 30 -2
31 -1 1263 -1 77 -1 22 -1 75 -1 945 -1 198 -1 431 -1 246 -1 77 -1 599 -1 364 -1 652 -1 1634 -1 31 -1 326 -1 1817 -1 156 -1 2 -1 566 -1 220 -1 30 -2
123 -1 1386 -1 64 -1 65 -1 1219 -1 32 -1 167 -1 77 -1 599 -1 1274 -1 10860 -1 8019 -1 30 -2
1730 -1 8019 -1 196 -1 30 -2
6929 -1 1220 -1 31 -1 16998 -1 283 -2
210 -1 22 -1 538 -1 3553 -1 123 -1 938 -1 486 -1 190 -1 12647 -1 77 -1 16504 -1 12079 -1 2 -1 217 -1 14032 -1 30 -2
189 -1 123 -1 685 -1 1685 -1 41 -1 356 -1 5113 -1 98043 -1 4139 -1 520 -1 384 -1 123 -1 160 -1 64 -1 1442 -1 144 -1 41 -1 340 -1 22 -1 3309 -1 4656 -1 15617 -1 113796 -1 1 -2
443 -1 638 -1 64 -1 376 -1 65 -1 1219 -1 32 -1 47 -1 6068 -1 10 -1 1144 -1 395 -1 2 -1 123 -1 488 -1 613 -1 66 -1 22 -1 9723 -1 10 -1 47 -1 756 -1 30 -2
1914 -1 77 -1 567 -1 663 -1 117 -1 66 -1 30 -2
123 -1 1034 -1 22 -1 1039 -1 32 -1 22 -1 250 -1 8200 -1 3653 -1 65 -1 1219 -1 32 -1 48 -1 280 -1 1737 -1 65 -1 1219 -1 291 -1 225 -1 77 -1 160 -1 64 -1 670 -1 2 -1 781 -1 769 -1 30 -2
452 -1 276 -1 41 -1 3387 -1 2964 -1 164 -1 1146 -1 57 -1 834 -1 48 -1 283 -2
364 -1 529 -1 1030 -1 424 -1 936 -1 2 -1 123 -1 483 -1 193 -1 468 -1 285 -1 1184 -1 704 -1 24133 -1 183 -1 256 -1 29 -1 3079 -1 41 -1 559 -1 356 -1 65 -1 589 -1 8200 -1 64 -1 222 -1 77 -1 599 -1 452 -1 212 -1 65 -1 6352 -1 1867 -1 520 -1 123 -1 2366 -1 67 -1 30 -2
856 -1 41 -1 283 -2
33 -1 29 -1 1441 -1 364 -1 16 -1 1191 -1 123 -1 1034 -1 193 -1 176 -1 77 -1 599 -1 123 -1 286 -1 193 -1 260 -1 1126 -1 33 -1 22 -1 3070 -1 248 -1 10 -1 30 -2
117 -1 269 -1 395 -1 123 -1 206 -1 326 -1 6612 -1 77 -1 117 -1 6745 -1 123 -1 441 -1 22 -1 1039 -1 123 -1 2137 -1 30 -2
1914 -1 77 -1 66 -1 430 -1 167 -1 559 -1 520 -1 1713 -1 773 -1 283 -2
1884 -1 276 -1 113797 -1 30 -2
154 -1 648 -1 559 -1 308 -1 693 -1 167 -1 212 -1 559 -1 398 -1 10 -1 50 -1 972 -1 41 -1 340 -1 1 -2
1468 -1 7092 -1 77 -1 57 -1 41 -1 250 -1 283 -2
364 -1 652 -1 424 -1 936 -1 411 -1 196 -1 123 -1 206 -1 965 -1 13224 -1 693 -1 10233 -1 2864 -1 162 -1 123 -1 6172 -1 262 -1 1468 -1 989 -1 77 -1 567 -1 764 -1 64 -1 67 -1 3403 -1 77 -1 1363 -1 170 -1 431 -1 2097 -1 936 -1 520 -1 30 -2
246 -1 77 -1 443 -1 190 -1 965 -1 2910 -1 291 -1 65 -1 59601 -1 1648 -1 1388 -1 2115 -1 30 -2
117 -1 154 -1 1648 -1 197 -1 206 -1 1935 -1 197 -1 198 -1 425 -1 32 -1 1459 -1 77 -1 520 -1 443 -1 648 -1 260 -1 340 -1 145 -1 213 -1 30 -2
520 -1 1363 -1 206 -1 30 -2
520 -1 192 -1 64 -1 929 -1 291 -1 29 -1 2122 -1 283 -2
123 -1 433 -1 441 -1 356 -1 260 -1 739 -1 2122 -1 30 -2
22 -1 7870 -1 171 -1 3677 -1 222 -1 1433 -1 434 -1 164 -1 326 -1 2941 -1 94 -1 10 -1 65 -1 6673 -1 45936 -1 154 -1 2080 -1 9996 -1 46618 -1 30 -2
123 -1 340 -1 27 -1 30 -2
364 -1 212 -1 381 -1 411 -1 2 -1 381 -1 1700 -1 64 -1 225 -1 30 -2
10 -1 851 -1 32 -1 613 -1 1524 -1 77 -1 123 -1 83 -1 64 -1 2233 -1 154 -1 364 -1 944 -1 30 -2
1274 -1 140 -1 1321 -1 291 -1 3276 -1 30 -2
27 -1 383 -1 32 -1 6078 -1 144 -1 41 -1 356 -1 10 -1 1146 -1 123 -1 120 -1 322 -1 50 -1 544 -1 46 -1 433 -1 254 -1 443 -1 238 -1 10 -1 871 -1 9743 -1 30 -2
1685 -1 65 -1 401 -1 1388 -1 77 -1 2703 -1 375 -1 65 -1 424 -1 2163 -1 77 -1 599 -1 123 -1 924 -1 356 -1 768 -1 777 -1 1691 -1 222 -1 1127 -1 520 -1 123 -1 1438 -1 64 -1 65 -1 1440 -1 123 -1 340 -1 768 -1 30 -2
50 -1 75 -1 4520 -1 1914 -1 77 -1 70 -1 356 -1 326 -1 1271 -1 4396 -1 283 -2
637 -1 249 -1 443 -1 190 -1 909 -1 1685 -1 21383 -1 1220 -1 123 -1 340 -1 193 -1 653 -1 1352 -1 162 -1 443 -1 190 -1 2306 -1 566 -1 1716 -1 222 -1 123 -1 206 -1 151 -1 356 -1 65 -1 46 -1 64 -1 505 -1 30 -2
894 -1 201 -1 283 -2
364 -1 529 -1 424 -1 936 -1 520 -1 364 -1 212 -1 541 -1 57 -1 64 -1 22 -1 424 -1 225 -1 41 -1 479 -1 1807 -1 170 -1 16 -1 29 -1 4851 -1 1073 -1 77 -1 39 -1 123 -1 1442 -1 41 -1 444 -1 248 -1 256 -1 1 -2
221 -1 29 -1 76 -1 33 -1 22 -1 4547 -1 283 -2
210 -1 1914 -1 70 -1 468 -1 254 -1 123 -1 73 -1 340 -1 171 -1 1103 -1 10 -1 471 -1 13 -1 2 -1 416 -1 529 -1 171 -1 32 -1 22 -1 73 -1 737 -1 154 -1 1205 -1 499 -1 33 -1 45 -1 30 -2
566 -1 2301 -1 64 -1 599 -1 70 -1 212 -1 16 -1 47 -1 54 -1 30 -2
566 -1 16809 -1 47 -1 2800 -1 33 -1 113798 -1 2 -1 30 -2
7092 -1 856 -1 41 -1 283 -2
123 -1 648 -1 340 -1 109 -1 4332 -1 170 -1 326 -1 342 -1 18591 -1 10127 -1 77 -1 599 -1 22 -1 396 -1 77 -1 364 -1 488 -1 65 -1 7309 -1 30 -2
256 -1 27 -1 123 -1 407 -1 913 -1 202 -1 260 -1 65 -1 1219 -1 32 -1 9568 -1 283 -2
693 -1 32 -1 50 -1 668 -1 66 -1 30 -2
123 -1 407 -1 73 -1 937 -1 938 -1 12668 -1 10 -1 64 -1 430 -1 141 -1 146 -1 30 -2
753 -1 189 -1 123 -1 165 -1 1303 -1 154 -1 236 -1 41 -1 764 -1 64 -1 67 -1 1152 -1 64 -1 20832 -1 77 -1 3074 -1 67 -1 326 -1 3150 -1 77 -1 599 -1 22 -1 219 -1 170 -1 1662 -1 32 -1 17650 -1 283 -1 30 -2
8162 -1 77 -1 123 -1 375 -1 29 -1 1441 -1 1607 -1 77 -1 599 -1 123 -1 220 -1 1034 -1 154 -1 41 -1 165 -1 441 -1 65 -1 452 -1 16 -1 222 -1 117 -1 66 -1 283 -2
1039 -1 41 -1 559 -1 65 -1 1219 -1 356 -1 222 -1 283 -2
210 -1 364 -1 65 -1 109 -1 4332 -1 7309 -1 77 -1 2 -1 364 -1 1433 -1 262 -1 30 -2
291 -1 22 -1 1898 -1 54 -1 123 -1 73 -1 441 -1 171 -1 671 -1 1898 -1 2 -1 443 -1 441 -1 65 -1 613 -1 1591 -1 75 -1 30 -2
123 -1 286 -1 2703 -1 326 -1 1900 -1 77 -1 2 -1 22 -1 658 -1 663 -1 755 -1 1214 -1 2 -1 222 -1 170 -1 154 -1 123 -1 764 -1 50 -1 76 -1 1152 -1 2 -1 768 -1 212 -1 30 -2
517 -1 3 -1 431 -1 14328 -1 30 -2
123 -1 1867 -1 123 -1 702 -1 924 -1 871 -1 256 -1 50 -1 9773 -1 2 -1 123 -1 924 -1 567 -1 764 -1 117 -1 66 -1 64 -1 1998 -1 198 -1 151 -1 30 -2
123 -1 407 -1 73 -1 3 -1 12668 -1 237 -1 393 -1 117 -1 2306 -1 408 -1 394 -1 77 -1 2 -1 193 -1 206 -1 488 -1 652 -1 30 -2
364 -1 16 -1 1436 -1 599 -1 250 -1 408 -1 909 -1 164 -1 50 -1 4003 -1 1897 -1 2163 -1 2 -1 674 -1 17597 -1 909 -1 31 -1 274 -1 65 -1 491 -1 30 -2
2006 -1 488 -1 9053 -1 599 -1 5902 -1 951 -1 268 -1 1436 -1 535 -1 443 -1 571 -1 441 -1 65 -1 5185 -1 30 -2
894 -1 201 -1 834 -1 48 -1 283 -2
123 -1 120 -1 286 -1 123 -1 407 -1 260 -1 3783 -1 241 -1 599 -1 123 -1 538 -1 8970 -1 123 -1 206 -1 326 -1 48 -1 254 -1 364 -1 652 -1 1634 -1 30 -2
117 -1 154 -1 76 -1 123 -1 205 -1 1817 -1 2195 -1 41 -1 183 -1 176 -1 42665 -1 30 -2