547 -1 30 -2
2006 -1 16 -1 66 -1 237 -1 154 -1 2161 -1 1817 -1 102 -1 30 -2
443 -1 221 -1 704 -1 4836 -1 30 -2
123 -1 527 -1 268 -1 1024 -1 77 -1 599 -1 123 -1 1364 -1 164 -1 8012 -1 30 -2
123 -1 3631 -1 50 -1 863 -1 2 -1 123 -1 120 -1 10230 -1 10229 -1 30 -2
123 -1 441 -1 3 -1 922 -1 33 -1 10230 -1 48023 -1 167 -1 77 -1 599 -1 50 -1 668 -1 694 -1 222 -1 364 -1 488 -1 652 -1 6240 -1 30 -2
123 -1 212 -1 788 -1 117 -1 30 -2
276 -1 468 -1 64 -1 499 -1 1790 -1 164 -1 154 -1 30 -2
364 -1 3400 -1 326 -1 228 -1 2 -1 416 -1 5399 -1 64 -1 2034 -1 222 -1 815 -1 6057 -1 30 -2
123 -1 120 -1 286 -1 566 -1 1030 -1 1742 -1 154 -1 123 -1 499 -1 31 -1 6450 -1 167 -1 510 -1 153 -1 212 -1 815 -1 15174 -1 30 -2
123 -1 160 -1 65 -1 424 -1 5195 -1 35711 -1 11490 -1 77 -1 693 -1 37960 -1 39030 -1 77 -1 2 -1 6500 -1 3738 -1 4189 -1 30 -2
443 -1 1834 -1 64 -1 356 -1 6450 -1 167 -1 30 -2
67 -1 6988 -1 254 -1 443 -1 1310 -1 226 -1 2034 -1 193 -1 31 -1 2003 -1 236 -1 443 -1 30 -2
6842 -1 280 -1 183 -1 26436 -1 140 -1 308 -1 2 -1 1607 -1 77 -1 520 -1 70 -1 895 -1 12817 -1 154 -1 5635 -1 268 -1 4147 -1 3508 -1 349 -1 284 -1 4002 -1 193 -1 260 -1 246 -1 30 -2
175 -1 32 -1 22 -1 737 -1 123 -1 340 -1 989 -1 30 -2
123 -1 286 -1 22 -1 7585 -1 170 -1 154 -1 629 -1 280 -1 711 -1 158 -1 291 -1 793 -1 32 -1 22 -1 3191 -1 30 -2
236 -1 201 -1 183 -1 4790 -1 241 -1 157 -1 77 -1 443 -1 2453 -1 183 -1 22 -1 6291 -1 30 -2
629 -1 280 -1 1310 -1 73 -1 1717 -1 213 -1 11973 -1 629 -1 280 -1 77 -1 599 -1 30 -2
123 -1 1498 -1 64 -1 2325 -1 198 -1 30 -2
123 -1 764 -1 22 -1 6002 -1 283 -2
70 -1 16 -1 154 -1 123 -1 441 -1 65 -1 663 -1 164 -1 134 -1 7672 -1 222 -1 144 -1 1362 -1 123 -1 160 -1 77 -1 70 -1 154 -1 349 -1 744 -1 441 -1 567 -1 2041 -1 11766 -1 152 -1 1568 -1 30 -2
70 -1 356 -1 77 -1 246 -1 364 -1 899 -1 189 -1 30 -2
262 -1 170 -1 22 -1 544 -1 364 -1 2779 -1 2780 -1 268 -1 30 -2
567 -1 30 -2
248 -1 65 -1 4905 -1 30 -2
123 -1 286 -1 70 -1 151 -1 150 -1 154 -1 3074 -1 268 -1 579 -1 78 -1 65 -1 4905 -1 153 -1 65 -1 8963 -1 30 -2
1487 -1 32 -1 381 -1 579 -1 77 -1 123 -1 12804 -1 50 -1 4571 -1 237 -1 9819 -1 1568 -1 30 -2
1487 -1 32 -1 14635 -1 291 -1 27 -1 213 -1 30 -2
142 -1 64 -1 262 -1 6002 -1 3331 -1 30 -2
443 -1 183 -1 168 -1 117 -1 262 -1 30 -2
2987 -1 280 -1 356 -1 1587 -1 30 -2
236 -1 41 -1 220 -1 1375 -1 1587 -1 198 -1 596 -1 77 -1 41 -1 220 -1 2349 -1 30 -2
364 -1 326 -1 629 -1 30 -2
1707 -1 222 -1 694 -1 41 -1 22 -1 1580 -1 15978 -1 154 -1 142 -1 1790 -1 164 -1 154 -1 1069 -1 2 -1 10 -1 365 -1 30 -2
123 -1 174 -1 34824 -1 78 -1 65 -1 864 -1 158 -1 3120 -1 369 -1 1752 -1 197 -1 27 -1 64 -1 144 -1 30 -2
138 -1 262 -1 170 -1 964 -1 64 -1 326 -1 30 -2
123 -1 356 -1 134 -1 10 -1 1859 -1 30 -2
50 -1 3116 -1 2163 -1 206 -1 326 -1 1897 -1 2 -1 22 -1 73 -1 54 -1 154 -1 1794 -1 222 -1 206 -1 154 -1 566 -1 206 -1 2279 -1 432 -1 30 -2
431 -1 6295 -1 77 -1 16 -1 2835 -1 77 -1 16 -1 3986 -1 30 -2
566 -1 334 -1 1707 -1 222 -1 144 -1 1362 -1 1225 -1 50 -1 544 -1 46 -1 2 -1 11857 -1 170 -1 326 -1 1118 -1 2 -1 768 -1 10876 -1 22 -1 556 -1 198 -1 32 -1 222 -1 30 -2
2703 -1 212 -1 2279 -1 5383 -1 2 -1 1205 -1 1737 -1 291 -1 1214 -1 2217 -1 78 -1 384 -1 78 -1 123 -1 144 -1 2 -1 154 -1 9372 -1 222 -1 65 -1 671 -1 1389 -1 30 -2
599 -1 6825 -1 30 -2
629 -1 280 -1 441 -1 22 -1 1281 -1 30 -2
22 -1 1441 -1 170 -1 3510 -1 30 -2
171 -1 32 -1 50 -1 544 -1 668 -1 170 -1 1067 -1 5299 -1 2 -1 2279 -1 100821 -1 30 -2
989 -1 77 -1 262 -1 170 -1 1214 -1 6 -1 164 -1 22 -1 13506 -1 30 -2
520 -1 41 -1 549 -1 921 -1 340 -1 189 -1 154 -1 535 -1 50 -1 1980 -1 76730 -1 140 -1 6636 -1 77 -1 30 -2
70 -1 5071 -1 1906 -1 30 -2
642 -1 50 -1 30 -2
349 -1 441 -1 64 -1 67 -1 151 -1 4381 -1 153 -1 222 -1 2 -1 123 -1 441 -1 64 -1 67 -1 773 -1 64 -1 1717 -1 27 -1 349 -1 144 -1 77 -1 285 -1 349 -1 2338 -1 1166 -1 77 -1 285 -1 349 -1 654 -1 1737 -1 32 -1 744 -1 77 -1 2 -1 285 -1 237 -1 222 -1 349 -1 183 -1 30 -2
123 -1 1913 -1 708 -1 30 -2
123 -1 2301 -1 64 -1 5126 -1 2820 -1 2 -1 364 -1 1191 -1 123 -1 210 -1 2525 -1 65 -1 1459 -1 6745 -1 842 -1 384 -1 22 -1 132 -1 417 -1 30 -2
123 -1 268 -1 520 -1 1024 -1 162 -1 225 -1 183 -1 21080 -1 64 -1 50 -1 7554 -1 30 -2
364 -1 1672 -1 22 -1 171 -1 369 -1 4994 -1 134 -1 30 -2
9844 -1 30 -2
50 -1 11857 -1 170 -1 65 -1 1340 -1 3251 -1 2 -1 768 -1 170 -1 22 -1 395 -1 280 -1 1340 -1 20852 -1 30 -2
152 -1 41 -1 220 -1 223 -1 159 -1 29 -1 56523 -1 15324 -1 33 -1 65 -1 1700 -1 90 -1 10 -1 22 -1 292 -1 369 -1 170 -1 2378 -1 398 -1 7359 -1 30 -2
364 -1 651 -1 64 -1 67 -1 65 -1 18561 -1 262 -1 491 -1 283 -2
88620 -1 1 -2
123 -1 120 -1 322 -1 596 -1 123 -1 144 -1 78 -1 18046 -1 283 -2
123 -1 127 -1 77 -1 162 -1 364 -1 965 -1 656 -1 30 -2
547 -1 30 -2
599 -1 260 -1 77 -1 443 -1 756 -1 81 -1 64 -1 268 -1 167 -1 1326 -1 2 -1 64 -1 268 -1 134 -1 1326 -1 10 -1 22 -1 417 -1 154 -1 443 -1 160 -1 134 -1 30 -2
1220 -1 77 -1 364 -1 16 -1 171 -1 31 -1 5087 -1 117 -1 66 -1 65 -1 431 -1 1580 -1 8926 -1 31 -1 222 -1 64 -1 159 -1 30 -2
123 -1 322 -1 134 -1 78 -1 225 -1 369 -1 183 -1 212 -1 196 -1 4511 -1 152 -1 20791 -1 198 -1 152 -1 48519 -1 158 -1 64 -1 1737 -1 291 -1 596 -1 3018 -1 10 -1 348 -1 30 -2
2067 -1 30 -2
567 -1 30 -2
468 -1 154 -1 3074 -1 233 -1 1442 -1 30 -2
629 -1 123 -1 226 -1 27715 -1 291 -1 193 -1 31 -1 65 -1 138 -1 753 -1 123 -1 2643 -1 154 -1 2948 -1 65 -1 2137 -1 170 -1 651 -1 64 -1 144 -1 295 -1 64 -1 670 -1 50 -1 184 -1 1984 -1 77 -1 520 -1 244 -1 123 -1 268 -1 1193 -1 50 -1 1380 -1 2 -1 144 -1 276 -1 291 -1 193 -1 283 -2
138 -1 364 -1 52381 -1 77 -1 30 -2
41 -1 559 -1 356 -1 326 -1 4640 -1 7748 -1 283 -2
642 -1 2 -1 201 -1 170 -1 73 -1 171 -1 76 -1 32 -1 22 -1 1462 -1 154 -1 123 -1 2742 -1 237 -1 326 -1 10778 -1 2 -1 123 -1 499 -1 176 -1 1389 -1 2 -1 499 -1 33 -1 65 -1 13708 -1 44904 -1 3457 -1 30 -2
6163 -1 1205 -1 144 -1 193 -1 64 -1 222 -1 533 -1 30 -2
364 -1 65 -1 1300 -1 3063 -1 30 -2
50 -1 515 -1 1210 -1 198 -1 151 -1 2 -1 3257 -1 153 -1 123 -1 1672 -1 174 -1 30 -2
210 -1 547 -1 30 -2
236 -1 73 -1 123 -1 9688 -1 291 -1 262 -1 1984 -1 154 -1 384 -1 283 -2
123 -1 334 -1 5093 -1 50 -1 2544 -1 533 -1 30 -2
16 -1 31 -1 505 -1 533 -1 30 -2
123 -1 268 -1 1253 -1 78 -1 246 -1 30 -2
193 -1 548 -1 222 -1 286 -1 154 -1 225 -1 441 -1 100822 -1 10302 -1 30 -2
123 -1 127 -1 77 -1 123 -1 160 -1 64 -1 62 -1 3057 -1 256 -1 225 -1 154 -1 123 -1 993 -1 134 -1 256 -1 2 -1 256 -1 225 -1 369 -1 123 -1 1737 -1 291 -1 30 -2
123 -1 120 -1 260 -1 30 -2
123 -1 286 -1 3074 -1 483 -1 151 -1 629 -1 549 -1 153 -1 41 -1 165 -1 2010 -1 30 -2
349 -1 183 -1 1672 -1 22 -1 11088 -1 2 -1 32000 -1 10 -1 9424 -1 2 -1 3242 -1 2 -1 167 -1 32 -1 154 -1 1115 -1 30 -2
443 -1 221 -1 4222 -1 2 -1 2221 -1 64 -1 238 -1 158 -1 64 -1 30 -2
566 -1 597 -1 1707 -1 47 -1 2958 -1 800 -1 10 -1 65 -1 5383 -1 372 -1 30 -2
196 -1 384 -1 5630 -1 30 -2
1943 -1 29 -1 317 -1 152 -1 694 -1 505 -1 64 -1 6520 -1 200 -1 64 -1 5332 -1 22 -1 2326 -1 30 -2
547 -1 30 -2
368 -1 1655 -1 30 -2
162 -1 123 -1 206 -1 2978 -1 77 -1 123 -1 2301 -1 64 -1 286 -1 154 -1 123 -1 206 -1 5685 -1 140 -1 411 -1 2 -1 154 -1 123 -1 638 -1 64 -1 67 -1 33 -1 22 -1 100823 -1 64 -1 483 -1 50 -1 213 -1 484 -1 30 -2
535 -1 65 -1 401 -1 9682 -1 3276 -1 77 -1 254 -1 154 -1 1351 -1 789 -1 237 -1 22 -1 2446 -1 54 -1 30 -2
694 -1 505 -1 27 -1 566 -1 1379 -1 64 -1 62 -1 77 -1 248 -1 308 -1 30 -2
123 -1 174 -1 4013 -1 30 -2
123 -1 286 -1 123 -1 921 -1 3448 -1 151 -1 76 -1 1051 -1 167 -1 154 -1 711 -1 222 -1 1300 -1 30 -2
244 -1 789 -1 3164 -1 2 -1 441 -1 505 -1 9431 -1 30 -2
123 -1 1242 -1 193 -1 30 -2
123 -1 286 -1 262 -1 170 -1 749 -1 629 -1 280 -1 483 -1 954 -1 10 -1 167 -1 154 -1 183 -1 198 -1 32 -1 22 -1 6762 -1 167 -1 225 -1 144 -1 154 -1 443 -1 483 -1 198 -1 32 -1 22 -1 4274 -1 30 -2
1487 -1 32 -1 2378 -1 1962 -1 291 -1 167 -1 77 -1 443 -1 788 -1 291 -1 193 -1 30 -2
1220 -1 77 -1 443 -1 220 -1 30 -2
547 -1 30 -2
704 -1 613 -1 170 -1 276 -1 151 -1 1387 -1 153 -1 65 -1 1219 -1 32 -1 1817 -1 1351 -1 193 -1 170 -1 65 -1 7112 -1 77 -1 65 -1 8046 -1 30 -2
193 -1 1205 -1 543 -1 356 -1 443 -1 441 -1 471 -1 4121 -1 77 -1 2091 -1 650 -1 32 -1 1263 -1 369 -1 183 -1 2094 -1 4313 -1 280 -1 77 -1 599 -1 443 -1 30 -2
704 -1 955 -1 32 -1 954 -1 170 -1 1231 -1 2 -1 1506 -1 30 -2
431 -1 5899 -1 30 -2
2 -1 850 -1 77 -1 443 -1 144 -1 483 -1 954 -1 10 -1 167 -1 154 -1 183 -1 16 -1 1257 -1 30 -2
67 -1 194 -1 30 -2
123 -1 160 -1 64 -1 1734 -1 225 -1 369 -1 765 -1 738 -1 651 -1 64 -1 67 -1 1032 -1 2 -1 244 -1 349 -1 120 -1 1105 -1 158 -1 33 -1 76 -1 30 -2
27 -1 65 -1 1022 -1 32 -1 50 -1 76 -1 30 -2
547 -1 30 -2
50 -1 663 -1 170 -1 154 -1 50 -1 1476 -1 2 -1 50 -1 25768 -1 2226 -1 30 -2
1220 -1 30 -2
154 -1 2366 -1 441 -1 276 -1 64 -1 144 -1 164 -1 193 -1 30 -2
1707 -1 222 -1 20828 -1 285 -1 144 -1 123 -1 1743 -1 2134 -1 1269 -1 520 -1 154 -1 123 -1 220 -1 3811 -1 2134 -1 14423 -1 225 -1 1 -2
123 -1 286 -1 802 -1 630 -1 193 -1 544 -1 77 -1 67 -1 151 -1 3793 -1 30 -2
1192 -1 322 -1 285 -1 262 -1 171 -1 2319 -1 30 -2
17221 -1 34645 -1 77 -1 123 -1 613 -1 22 -1 100824 -1 283 -2
547 -1 30 -2
246 -1 123 -1 174 -1 326 -1 4023 -1 77 -1 2 -1 123 -1 226 -1 16 -1 441 -1 1489 -1 753 -1 123 -1 174 -1 3944 -1 5185 -1 30 -2
123 -1 286 -1 70 -1 259 -1 32 -1 3509 -1 50 -1 39050 -1 64 -1 441 -1 50 -1 317 -1 1489 -1 30 -2
4972 -1 3242 -1 12448 -1 2746 -1 2 -1 65 -1 168 -1 955 -1 32 -1 30 -2
123 -1 144 -1 16 -1 4141 -1 30 -2
567 -1 77 -1 123 -1 764 -1 64 -1 1062 -1 50 -1 417 -1 32 -1 1478 -1 30 -2
50 -1 1655 -1 663 -1 170 -1 27 -1 9895 -1 222 -1 64 -1 134 -1 254 -1 4336 -1 1707 -1 222 -1 144 -1 1362 -1 123 -1 160 -1 30 -2
123 -1 127 -1 77 -1 427 -1 2134 -1 14423 -1 1470 -1 170 -1 714 -1 77 -1 5866 -1 134 -1 2196 -1 30 -2
220 -1 41 -1 519 -1 65 -1 1331 -1 32 -1 27 -1 3336 -1 248 -1 2910 -1 291 -1 1 -2
16 -1 32 -1 326 -1 35670 -1 1 -2
520 -1 123 -1 206 -1 2910 -1 64 -1 50 -1 1226 -1 2 -1 1898 -1 35 -1 2 -1 443 -1 190 -1 2910 -1 291 -1 285 -1 22 -1 49 -1 401 -1 549 -1 154 -1 123 -1 407 -1 1393 -1 198 -1 164 -1 441 -1 3 -1 260 -1 14423 -1 30 -2
123 -1 286 -1 364 -1 1051 -1 262 -1 33 -1 2144 -1 520 -1 154 -1 349 -1 226 -1 30 -2
249 -1 3962 -1 548 -1 13 -1 65 -1 1219 -1 2636 -1 64 -1 4970 -1 65 -1 2958 -1 77 -1 2091 -1 78 -1 65 -1 1296 -1 3991 -1 30 -2
50 -1 1180 -1 8048 -1 222 -1 140 -1 363 -1 2 -1 2703 -1 65 -1 6769 -1 5933 -1 222 -1 64 -1 499 -1 64 -1 22 -1 544 -1 2815 -1 1214 -1 3962 -1 284 -1 6522 -1 77 -1 30 -2
123 -1 120 -1 286 -1 154 -1 278 -1 225 -1 1364 -1 27 -1 964 -1 613 -1 260 -1 170 -1 30 -2
123 -1 174 -1 65 -1 964 -1 20733 -1 30 -2
123 -1 441 -1 671 -1 64 -1 567 -1 3128 -1 154 -1 3276 -1 226 -1 49 -1 3784 -1 30 -2
6608 -1 65 -1 5604 -1 39050 -1 77 -1 33 -1 22 -1 213 -1 466 -1 77 -1 170 -1 30 -2
123 -1 340 -1 30 -2
123 -1 1108 -1 193 -1 30 -2