15151 -1 642 -1 30 -2
1474 -1 30 -2
123 -1 921 -1 441 -1 35514 -1 22 -1 5954 -1 42 -1 2065 -1 30 -2
183 -1 41 -1 3499 -1 154 -1 241 -1 157 -1 441 -1 65 -1 2160 -1 417 -1 32 -1 406 -1 4102 -1 1 -2
254 -1 154 -1 653 -1 33317 -1 30 -2
144 -1 175 -1 213 -1 572 -1 441 -1 326 -1 40769 -1 1673 -1 64 -1 9629 -1 1 -2
50 -1 658 -1 5069 -1 441 -1 66 -1 3 -1 9629 -1 2 -1 123 -1 286 -1 193 -1 170 -1 254 -1 32 -1 318 -1 977 -1 1115 -1 154 -1 123 -1 428 -1 2 -1 318 -1 5694 -1 154 -1 7 -1 64 -1 67 -1 30 -2
123 -1 174 -1 65 -1 1942 -1 30 -2
123 -1 1943 -1 693 -1 3029 -1 4403 -1 1397 -1 77 -1 78 -1 246 -1 30 -2
70 -1 65 -1 3439 -1 32 -1 5581 -1 22 -1 551 -1 30 -2
123 -1 206 -1 6540 -1 164 -1 3704 -1 10 -1 863 -1 77 -1 599 -1 1756 -1 22 -1 1720 -1 206 -1 759 -1 1228 -1 123 -1 2068 -1 171 -1 152 -1 30 -2
123 -1 1217 -1 291 -1 1084 -1 64 -1 1141 -1 65 -1 483 -1 65 -1 1583 -1 152 -1 207 -1 67 -1 1716 -1 364 -1 308 -1 30 -2
31 -1 22 -1 15 -1 259 -1 77 -1 117 -1 124 -1 30 -2
123 -1 593 -1 433 -1 1217 -1 291 -1 134 -1 212 -1 64 -1 268 -1 134 -1 198 -1 201 -1 77 -1 254 -1 123 -1 5389 -1 33 -1 134 -1 196 -1 384 -1 236 -1 1225 -1 123 -1 210 -1 765 -1 364 -1 151 -1 33 -1 22 -1 1148 -1 1902 -1 32 -1 22 -1 228 -1 5951 -1 30 -2
123 -1 120 -1 260 -1 356 -1 4088 -1 1217 -1 152 -1 409 -1 3070 -1 232 -1 152 -1 233 -1 381 -1 22 -1 2789 -1 32 -1 2109 -1 10 -1 65 -1 409 -1 3070 -1 32 -1 225 -1 30 -2
123 -1 10921 -1 77 -1 30 -2
123 -1 3451 -1 35 -1 154 -1 364 -1 25830 -1 140 -1 4106 -1 30 -2
2 -1 193 -1 1205 -1 711 -1 955 -1 64 -1 222 -1 154 -1 123 -1 174 -1 520 -1 762 -1 16766 -1 30 -2
6265 -1 193 -1 5846 -1 539 -1 164 -1 77 -1 32 -1 66 -1 167 -1 77 -1 2520 -1 30 -2
123 -1 286 -1 193 -1 7 -1 64 -1 144 -1 164 -1 22 -1 30 -2
29 -1 4832 -1 711 -1 222 -1 1758 -1 520 -1 30 -2
1257 -1 30 -2
210 -1 193 -1 1126 -1 33 -1 236 -1 41 -1 2212 -1 1851 -1 78 -1 276 -1 151 -1 618 -1 64 -1 17409 -1 152 -1 212 -1 78 -1 200 -1 369 -1 8061 -1 12622 -1 4334 -1 2221 -1 254 -1 32 -1 65 -1 1239 -1 10 -1 65 -1 1249 -1 30 -2
123 -1 286 -1 4313 -1 280 -1 165 -1 441 -1 65 -1 663 -1 164 -1 30 -2
364 -1 651 -1 655 -1 193 -1 308 -1 189 -1 77 -1 657 -1 170 -1 749 -1 123 -1 1332 -1 30 -2
821 -1 64 -1 322 -1 50 -1 6133 -1 1475 -1 11760 -1 30 -2
123 -1 6555 -1 174 -1 773 -1 64 -1 1798 -1 154 -1 364 -1 291 -1 64 -1 765 -1 276 -1 787 -1 198 -1 32 -1 1037 -1 30 -2
123 -1 1792 -1 31 -1 2010 -1 30 -2
285 -1 144 -1 41 -1 228 -1 280 -1 2877 -1 17220 -1 1 -2
144 -1 41 -1 268 -1 274 -1 193 -1 3064 -1 4497 -1 1 -2
236 -1 520 -1 77 -1 144 -1 41 -1 268 -1 274 -1 193 -1 2196 -1 538 -1 77 -1 152 -1 1670 -1 1 -2
364 -1 16 -1 1851 -1 77 -1 599 -1 123 -1 144 -1 477 -1 10 -1 1663 -1 22 -1 2198 -1 78 -1 50 -1 36834 -1 30 -2
123 -1 407 -1 2860 -1 14512 -1 718 -1 22 -1 355 -1 154 -1 1245 -1 1861 -1 2 -1 1357 -1 226 -1 268 -1 41 -1 10 -1 1249 -1 280 -1 168 -1 2901 -1 30 -2
123 -1 286 -1 154 -1 77 -1 78 -1 326 -1 30 -2
15589 -1 22 -1 6383 -1 238 -1 140 -1 6752 -1 10 -1 2848 -1 30 -2
41 -1 220 -1 1310 -1 483 -1 222 -1 10 -1 65 -1 4313 -1 2493 -1 2 -1 693 -1 48122 -1 11870 -1 30 -2
1968 -1 77 -1 302 -1 30 -2
123 -1 529 -1 1672 -1 2521 -1 65 -1 21923 -1 152 -1 65 -1 25745 -1 2 -1 171 -1 32 -1 650 -1 48123 -1 3456 -1 30 -2
123 -1 83 -1 64 -1 67 -1 1050 -1 77 -1 599 -1 19408 -1 30 -2
249 -1 27 -1 6086 -1 32 -1 29 -1 241 -1 826 -1 41 -1 2222 -1 32 -1 29 -1 156 -1 1 -2
123 -1 1713 -1 384 -1 398 -1 64 -1 228 -1 280 -1 2 -1 174 -1 1030 -1 3425 -1 1581 -1 10 -1 18146 -1 77 -1 599 -1 364 -1 529 -1 9108 -1 32 -1 1166 -1 2 -1 318 -1 30 -2
212 -1 3194 -1 78 -1 64 -1 27 -1 41 -1 549 -1 286 -1 326 -1 228 -1 369 -1 648 -1 3735 -1 505 -1 363 -1 165 -1 543 -1 356 -1 2208 -1 356 -1 3631 -1 356 -1 30 -2
70 -1 739 -1 64 -1 1442 -1 77 -1 599 -1 123 -1 212 -1 205 -1 193 -1 165 -1 67 -1 1224 -1 64 -1 322 -1 27 -1 41 -1 549 -1 441 -1 64 -1 30 -2
162 -1 41 -1 284 -1 67 -1 171 -1 32 -1 22 -1 544 -1 9053 -1 198 -1 201 -1 77 -1 599 -1 120 -1 144 -1 29 -1 544 -1 254 -1 248 -1 384 -1 151 -1 5560 -1 140 -1 22 -1 225 -1 224 -1 41 -1 153 -1 22 -1 395 -1 756 -1 30 -2
162 -1 41 -1 23047 -1 1537 -1 4547 -1 154 -1 30 -2
162 -1 225 -1 286 -1 248 -1 269 -1 254 -1 248 -1 2289 -1 8943 -1 22 -1 1819 -1 2 -1 7028 -1 32 -1 22 -1 6674 -1 6054 -1 30 -2
162 -1 41 -1 1823 -1 22 -1 1261 -1 1574 -1 254 -1 484 -1 32 -1 134 -1 183 -1 16 -1 12691 -1 30 -2
50 -1 2469 -1 2 -1 518 -1 190 -1 571 -1 3534 -1 152 -1 431 -1 3369 -1 30 -2
123 -1 1745 -1 22 -1 2043 -1 2040 -1 35 -1 30 -2
123 -1 375 -1 228 -1 30 -2
164 -1 73 -1 65 -1 6052 -1 1454 -1 64 -1 571 -1 515 -1 2 -1 664 -1 4313 -1 206 -1 1341 -1 22 -1 3230 -1 1454 -1 7020 -1 30 -2
1914 -1 30 -2
123 -1 174 -1 1433 -1 22 -1 132 -1 6174 -1 10 -1 5644 -1 30 -2
356 -1 77 -1 10638 -1 30 -2
952 -1 373 -1 22 -1 141 -1 146 -1 473 -1 77 -1 364 -1 326 -1 5 -1 30 -2
599 -1 77 -1 33 -1 22 -1 41658 -1 2 -1 213 -1 1069 -1 474 -1 77 -1 123 -1 268 -1 228 -1 77 -1 164 -1 22 -1 13816 -1 5 -1 30 -2
1225 -1 123 -1 151 -1 520 -1 2195 -1 22 -1 8696 -1 259 -1 32 -1 193 -1 30 -2
4096 -1 77 -1 364 -1 91 -1 381 -1 1141 -1 30 -2
123 -1 151 -1 212 -1 160 -1 64 -1 79 -1 198 -1 27 -1 123 -1 174 -1 254 -1 193 -1 165 -1 670 -1 222 -1 483 -1 411 -1 151 -1 64 -1 441 -1 65 -1 168 -1 355 -1 32 -1 50 -1 241 -1 30 -2
246 -1 77 -1 364 -1 373 -1 22 -1 1336 -1 1261 -1 4894 -1 77 -1 520 -1 123 -1 593 -1 67 -1 1191 -1 64 -1 694 -1 41 -1 549 -1 22 -1 1071 -1 30 -2
220 -1 41 -1 1066 -1 33 -1 262 -1 1 -2
2945 -1 77 -1 262 -1 170 -1 3715 -1 222 -1 2416 -1 30 -2
364 -1 5399 -1 64 -1 286 -1 154 -1 123 -1 174 -1 326 -1 228 -1 164 -1 65 -1 895 -1 667 -1 526 -1 30 -2
254 -1 123 -1 711 -1 2315 -1 3676 -1 33 -1 1235 -1 77 -1 599 -1 123 -1 174 -1 529 -1 9108 -1 32 -1 225 -1 280 -1 852 -1 162 -1 447 -1 30 -2
123 -1 2209 -1 236 -1 22 -1 4332 -1 32 -1 29 -1 141 -1 17519 -1 220 -1 67 -1 3615 -1 140 -1 285 -1 41 -1 190 -1 8048 -1 2 -1 27 -1 383 -1 32 -1 438 -1 41 -1 2070 -1 158 -1 10 -1 30 -2
2945 -1 77 -1 520 -1 77 -1 22 -1 1817 -1 2 -1 4313 -1 441 -1 64 -1 144 -1 164 -1 27 -1 41 -1 2707 -1 64 -1 159 -1 138 -1 1461 -1 5710 -1 1 -2
152 -1 164 -1 27 -1 41 -1 2418 -1 159 -1 64 -1 711 -1 5710 -1 1 -2
1220 -1 77 -1 154 -1 548 -1 955 -1 30 -2
27 -1 170 -1 22 -1 239 -1 3069 -1 755 -1 326 -1 1817 -1 156 -1 2 -1 65 -1 4313 -1 156 -1 1 -2
123 -1 407 -1 652 -1 384 -1 3926 -1 22 -1 355 -1 32 -1 381 -1 326 -1 3150 -1 30 -2
364 -1 1625 -1 30 -1 518 -1 1474 -1 30 -2
123 -1 433 -1 1834 -1 64 -1 7686 -1 167 -1 10747 -1 30 -2
63 -1 283 -2
952 -1 12220 -1 1238 -1 158 -1 33 -1 22 -1 141 -1 146 -1 77 -1 364 -1 717 -1 2205 -1 228 -1 164 -1 65 -1 895 -1 667 -1 526 -1 30 -2
123 -1 226 -1 441 -1 64 -1 4131 -1 151 -1 1832 -1 33 -1 430 -1 146 -1 117 -1 65 -1 76 -1 162 -1 364 -1 16 -1 78 -1 3537 -1 30 -2
2 -1 30 -2
123 -1 220 -1 1034 -1 154 -1 30 -2
364 -1 424 -1 64 -1 262 -1 241 -1 449 -1 102 -1 77 -1 2 -1 488 -1 3429 -1 193 -1 2 -1 7543 -1 693 -1 32 -1 22 -1 12560 -1 30 -2
364 -1 373 -1 22 -1 2043 -1 2040 -1 10 -1 50 -1 241 -1 4521 -1 292 -1 262 -1 51 -1 3340 -1 77 -1 520 -1 364 -1 5103 -1 64 -1 322 -1 22 -1 1071 -1 30 -2
246 -1 77 -1 123 -1 206 -1 1238 -1 158 -1 33 -1 22 -1 10703 -1 3856 -1 8592 -1 33 -1 262 -1 431 -1 1440 -1 77 -1 2 -1 138 -1 123 -1 1982 -1 1318 -1 66 -1 32 -1 22 -1 1578 -1 32 -1 22 -1 228 -1 77 -1 123 -1 2137 -1 22 -1 5 -1 7213 -1 30 -2
2 -1 123 -1 3374 -1 154 -1 77 -1 1685 -1 123 -1 2137 -1 22 -1 30 -2
123 -1 777 -1 6821 -1 78 -1 326 -1 5 -1 77 -1 599 -1 50 -1 1951 -1 241 -1 3927 -1 171 -1 64 -1 65 -1 664 -1 364 -1 189 -1 1625 -1 77 -1 1318 -1 5472 -1 30 -1 123 -1 441 -1 3 -1 374 -1 65 -1 1219 -1 32 -1 2001 -1 1212 -1 30 -2
5846 -1 32 -1 22 -1 368 -1 20885 -1 1115 -1 254 -1 123 -1 286 -1 291 -1 30 -2
285 -1 278 -1 32 -1 41 -1 549 -1 183 -1 3892 -1 2096 -1 31 -1 213 -1 225 -1 1 -2
123 -1 127 -1 77 -1 41 -1 260 -1 160 -1 64 -1 144 -1 168 -1 167 -1 31 -1 225 -1 2 -1 670 -1 134 -1 198 -1 30 -2
170 -1 193 -1 6064 -1 64 -1 1737 -1 10 -1 29 -1 805 -1 1 -2
364 -1 16 -1 45708 -1 30 -2
356 -1 77 -1 364 -1 1433 -1 65 -1 3958 -1 2861 -1 2857 -1 30 -2
364 -1 1478 -1 291 -1 1127 -1 65 -1 1219 -1 77 -1 1318 -1 2387 -1 274 -1 193 -1 30 -2
123 -1 340 -1 364 -1 326 -1 10703 -1 156 -1 77 -1 123 -1 212 -1 120 -1 340 -1 22 -1 213 -1 309 -1 1815 -1 30 -2
27299 -1 77 -1 10210 -1 701 -1 64 -1 2137 -1 30 -2
123 -1 407 -1 529 -1 1650 -1 411 -1 3088 -1 19756 -1 699 -1 2 -1 3649 -1 117 -1 4088 -1 1217 -1 77 -1 384 -1 9117 -1 64 -1 1537 -1 8596 -1 2340 -1 2058 -1 30 -2
144 -1 41 -1 144 -1 154 -1 77 -1 196 -1 1 -2
170 -1 262 -1 65 -1 1264 -1 48124 -1 1 -2
154 -1 170 -1 77 -1 4 -1 157 -1 1 -2
123 -1 407 -1 223 -1 3 -1 652 -1 10 -1 4212 -1 64 -1 225 -1 280 -1 525 -1 77 -1 117 -1 124 -1 445 -1 64 -1 3130 -1 2 -1 4104 -1 77 -1 2 -1 123 -1 2301 -1 64 -1 711 -1 66 -1 32 -1 50 -1 2315 -1 3676 -1 33 -1 30 -2
123 -1 286 -1 65 -1 1219 -1 32 -1 22 -1 5412 -1 31 -1 326 -1 342 -1 156 -1 64 -1 67 -1 65 -1 225 -1 9077 -1 170 -1 22 -1 1819 -1 154 -1 1305 -1 2231 -1 256 -1 22 -1 75 -1 30 -2
123 -1 286 -1 10 -1 1532 -1 32 -1 67 -1 168 -1 64 -1 1166 -1 2 -1 168 -1 226 -1 142 -1 536 -1 64 -1 41 -1 77 -1 30 -2
162 -1 22 -1 355 -1 32 -1 225 -1 170 -1 151 -1 1082 -1 153 -1 22 -1 225 -1 744 -1 30 -2
162 -1 41 -1 1913 -1 221 -1 22 -1 624 -1 48125 -1 254 -1 248 -1 1478 -1 196 -1 384 -1 291 -1 22 -1 2545 -1 3484 -1 32 -1 76 -1 3572 -1 30 -2
162 -1 30 -2
236 -1 41 -1 340 -1 27 -1 566 -1 1165 -1 30 -2
154 -1 443 -1 1913 -1 67 -1 3669 -1 30 -2
123 -1 206 -1 8048 -1 78 -1 326 -1 5 -1 77 -1 599 -1 2070 -1 237 -1 36502 -1 77 -1 520 -1 364 -1 431 -1 10 -1 4212 -1 164 -1 225 -1 2 -1 3906 -1 134 -1 65 -1 998 -1 6704 -1 162 -1 349 -1 764 -1 193 -1 77 -1 233 -1 5572 -1 134 -1 30 -2
193 -1 212 -1 548 -1 955 -1 30 -2
162 -1 41 -1 425 -1 65 -1 1537 -1 4251 -1 239 -1 8040 -1 170 -1 29 -1 805 -1 170 -1 1607 -1 30 -2
162 -1 22 -1 73 -1 1587 -1 248 -1 16 -1 65 -1 8793 -1 170 -1 254 -1 41 -1 286 -1 1305 -1 2231 -1 256 -1 22 -1 75 -1 30 -2
152 -1 254 -1 22 -1 213 -1 30 -2
2945 -1 77 -1 154 -1 206 -1 65 -1 3240 -1 77 -1 364 -1 16 -1 1712 -1 31 -1 50 -1 13 -1 3361 -1 30 -2
123 -1 174 -1 424 -1 936 -1 77 -1 533 -1 30 -2
78 -1 123 -1 630 -1 77 -1 364 -1 326 -1 911 -1 77 -1 599 -1 364 -1 652 -1 4064 -1 2 -1 220 -1 3130 -1 246 -1 30 -2
256 -1 50 -1 2023 -1 32 -1 241 -1 449 -1 77 -1 123 -1 3925 -1 162 -1 41 -1 286 -1 196 -1 384 -1 291 -1 1228 -1 248 -1 326 -1 1817 -1 152 -1 4313 -1 77 -1 2938 -1 919 -1 22 -1 3370 -1 154 -1 29 -1 489 -1 1655 -1 29 -1 525 -1 77 -1 2 -1 154 -1 77 -1 162 -1 16737 -1 22 -1 1441 -1 657 -1 5054 -1 41 -1 151 -1 972 -1 152 -1 30 -2