123 -1 2707 -1 381 -1 10 -1 22 -1 1079 -1 444 -1 123 -1 220 -1 756 -1 2745 -1 30 -2
1216 -1 3675 -1 16103 -1 123 -1 5033 -1 278 -1 408 -1 397 -1 2 -1 477 -1 5237 -1 921 -1 67 -1 22297 -1 253 -1 530 -1 64 -1 782 -1 294 -1 16143 -1 30 -2
233 -1 236 -1 41 -1 120 -1 1724 -1 77 -1 29 -1 488 -1 2114 -1 151 -1 31 -1 294 -1 1737 -1 64 -1 3395 -1 650 -1 369 -1 144 -1 30 -2
936 -1 41 -1 499 -1 1148 -1 3622 -1 531 -1 241 -1 8113 -1 29 -1 241 -1 156 -1 9045 -1 29 -1 22019 -1 32630 -1 10743 -1 123 -1 220 -1 6425 -1 236 -1 364 -1 374 -1 2001 -1 138 -1 1478 -1 77 -1 2906 -1 123 -1 1757 -1 27 -1 123 -1 144 -1 138 -1 1478 -1 152 -1 5520 -1 64 -1 67 -1 151 -1 32 -1 65 -1 10441 -1 30 -2
162 -1 2239 -1 77 -1 123 -1 220 -1 654 -1 431 -1 7516 -1 5579 -1 2897 -1 3949 -1 30 -2
140 -1 1051 -1 520 -1 77 -1 123 -1 483 -1 5763 -1 123 -1 441 -1 7205 -1 37773 -1 650 -1 2007 -1 2 -1 1574 -1 16737 -1 140 -1 1166 -1 398 -1 153 -1 349 -1 220 -1 30 -2
174 -1 123 -1 2210 -1 276 -1 936 -1 1 -2
49 -1 76 -1 123 -1 5207 -1 77 -1 716 -1 638 -1 523 -1 16 -1 531 -1 2 -1 154 -1 206 -1 326 -1 12306 -1 2813 -1 30 -2
13324 -1 5432 -1 30 -2
123 -1 206 -1 1436 -1 64 -1 171 -1 42 -1 123 -1 206 -1 773 -1 64 -1 711 -1 168 -1 50 -1 2426 -1 283 -2
477 -1 222 -1 162 -1 123 -1 765 -1 262 -1 77 -1 41 -1 120 -1 160 -1 326 -1 1900 -1 30 -2
19852 -1 2556 -1 30 -2
6901 -1 2 -1 14512 -1 30 -2
123 -1 756 -1 164 -1 65 -1 660 -1 11 -1 2 -1 162 -1 768 -1 1210 -1 158 -1 164 -1 326 -1 845 -1 1567 -1 355 -1 77 -1 768 -1 7 -1 65 -1 450 -1 154 -1 15141 -1 154 -1 32 -1 22 -1 11091 -1 2556 -1 283 -2
1913 -1 322 -1 293 -1 1292 -1 291 -1 321 -1 3190 -1 77 -1 520 -1 8111 -1 31 -1 756 -1 2 -1 9920 -1 31 -1 22 -1 9866 -1 30 -2
1052 -1 77 -1 222 -1 196 -1 30 -2
642 -1 50 -1 1249 -1 123 -1 929 -1 22 -1 301 -1 54 -1 2 -1 189 -1 50 -1 1476 -1 597 -1 1726 -1 1690 -1 283 -2
123 -1 441 -1 64 -1 1364 -1 164 -1 11162 -1 2 -1 10715 -1 15088 -1 77 -1 566 -1 848 -1 16 -1 559 -1 11 -1 117 -1 66 -1 30 -2
10 -1 960 -1 64 -1 222 -1 77 -1 566 -1 848 -1 16 -1 559 -1 1324 -1 117 -1 66 -1 30 -2
123 -1 286 -1 41 -1 212 -1 114 -1 22 -1 4151 -1 31 -1 22 -1 9044 -1 1296 -1 519 -1 33 -1 22 -1 11 -1 1440 -1 30 -2
67 -1 2563 -1 77 -1 6136 -1 77 -1 2 -1 3331 -1 64 -1 2267 -1 29 -1 1288 -1 2 -1 8022 -1 10 -1 2545 -1 2715 -1 30 -2
123 -1 322 -1 77 -1 2 -1 154 -1 418 -1 165 -1 67 -1 1 -2
189 -1 22 -1 716 -1 123 -1 756 -1 164 -1 369 -1 4047 -1 2258 -1 6393 -1 1110 -1 77 -1 165 -1 441 -1 2808 -1 142 -1 158 -1 164 -1 22 -1 1736 -1 32 -1 13875 -1 11002 -1 7920 -1 61861 -1 2 -1 7301 -1 326 -1 8455 -1 1344 -1 31 -1 571 -1 30 -2
2006 -1 651 -1 64 -1 441 -1 64 -1 30 -2
61862 -1 13875 -1 2630 -1 152 -1 10863 -1 1 -2
61863 -1 236 -1 248 -1 531 -1 1812 -1 77 -1 244 -1 154 -1 1281 -1 170 -1 951 -1 850 -1 30 -2
5038 -1 61864 -1 32 -1 1567 -1 283 -2
192 -1 749 -1 120 -1 41 -1 286 -1 32 -1 693 -1 1952 -1 41 -1 483 -1 10131 -1 2 -1 3448 -1 22 -1 2213 -1 5698 -1 171 -1 152 -1 151 -1 32 -1 134 -1 30 -2
5342 -1 2 -1 144 -1 27 -1 193 -1 451 -1 64 -1 268 -1 536 -1 10 -1 958 -1 164 -1 786 -1 30 -2
244 -1 41 -1 220 -1 756 -1 30 -2
41 -1 165 -1 951 -1 67 -1 4001 -1 78 -1 64 -1 285 -1 278 -1 225 -1 260 -1 144 -1 1737 -1 291 -1 41 -1 236 -1 41 -1 190 -1 64 -1 819 -1 158 -1 65 -1 671 -1 2 -1 543 -1 224 -1 30 -2
8 -1 28 -1 26 -1 61865 -1 201 -1 41 -1 499 -1 30 -2
1148 -1 3622 -1 531 -1 241 -1 8113 -1 755 -1 5167 -1 61866 -1 2 -1 61867 -1 77 -1 123 -1 407 -1 638 -1 64 -1 61868 -1 31 -1 51 -1 25963 -1 491 -1 77 -1 520 -1 22 -1 2688 -1 2104 -1 168 -1 31 -1 189 -1 30 -2
652 -1 384 -1 175 -1 839 -1 154 -1 1862 -1 205 -1 2 -1 7921 -1 6324 -1 1163 -1 78 -1 22 -1 973 -1 15964 -1 77 -1 32540 -1 46209 -1 77 -1 10823 -1 15174 -1 77 -1 61869 -1 4994 -1 77 -1 2765 -1 4994 -1 77 -1 61870 -1 77 -1 61871 -1 77 -1 2 -1 950 -1 23601 -1 30 -2
850 -1 123 -1 220 -1 1777 -1 158 -1 33 -1 650 -1 852 -1 2456 -1 77 -1 599 -1 167 -1 268 -1 3649 -1 236 -1 349 -1 543 -1 64 -1 222 -1 31 -1 670 -1 30 -2
5 -1 77 -1 228 -1 77 -1 2 -1 11 -1 22 -1 6611 -1 157 -1 226 -1 2938 -1 537 -1 41 -1 3532 -1 30 -2
48 -1 3276 -1 2 -1 3400 -1 4790 -1 241 -1 157 -1 15 -1 32 -1 22 -1 76 -1 123 -1 473 -1 11 -1 12877 -1 30 -2
22 -1 21219 -1 123 -1 473 -1 48 -1 12876 -1 30 -2
141 -1 1306 -1 1244 -1 32 -1 4332 -1 1454 -1 77 -1 1010 -1 2 -1 14213 -1 32 -1 159 -1 1147 -1 6611 -1 570 -1 61872 -1 2184 -1 1148 -1 6611 -1 528 -1 30 -2
123 -1 407 -1 564 -1 15 -1 32 -1 262 -1 3533 -1 222 -1 77 -1 599 -1 22 -1 1231 -1 1675 -1 170 -1 488 -1 65 -1 3688 -1 30 -2
154 -1 206 -1 65 -1 431 -1 25616 -1 3267 -1 77 -1 123 -1 260 -1 1108 -1 1238 -1 193 -1 283 -2
8 -1 28 -1 26 -1 61874 -1 61873 -1 123 -1 407 -1 826 -1 1184 -1 8708 -1 411 -1 30 -2
123 -1 340 -1 65 -1 401 -1 703 -1 369 -1 441 -1 1413 -1 1968 -1 10 -1 1021 -1 78 -1 65 -1 3439 -1 32 -1 19161 -1 10 -1 400 -1 2 -1 152 -1 4689 -1 3276 -1 30 -2
123 -1 1438 -1 655 -1 262 -1 411 -1 753 -1 123 -1 206 -1 773 -1 30 -2
1180 -1 170 -1 48 -1 1895 -1 170 -1 9446 -1 30 -2
2366 -1 67 -1 1897 -1 30 -2
162 -1 16737 -1 10 -1 154 -1 1349 -1 77 -1 123 -1 165 -1 441 -1 64 -1 765 -1 571 -1 30 -2
193 -1 165 -1 3438 -1 33 -1 22 -1 184 -1 1984 -1 30 -2
780 -1 77 -1 349 -1 183 -1 52 -1 2007 -1 77 -1 16 -1 1574 -1 30 -2
123 -1 756 -1 164 -1 326 -1 11 -1 1425 -1 589 -1 30501 -1 872 -1 212 -1 5242 -1 22 -1 61875 -1 30 -2
154 -1 206 -1 65 -1 431 -1 246 -1 1620 -1 2 -1 20114 -1 3267 -1 30 -2
123 -1 391 -1 913 -1 1214 -1 10 -1 828 -1 408 -1 77 -1 599 -1 226 -1 162 -1 123 -1 499 -1 95 -1 51 -1 1462 -1 30 -2
994 -1 123 -1 226 -1 67 -1 773 -1 64 -1 5398 -1 154 -1 244 -1 30 -2
65 -1 660 -1 46 -1 32 -1 759 -1 170 -1 6845 -1 755 -1 381 -1 683 -1 2 -1 48 -1 77 -1 599 -1 7 -1 326 -1 6962 -1 64 -1 519 -1 1922 -1 4549 -1 2007 -1 30 -2
144 -1 41 -1 286 -1 154 -1 165 -1 67 -1 151 -1 4083 -1 32 -1 326 -1 48 -1 152 -1 683 -1 1 -2
1902 -1 152 -1 536 -1 30 -2
123 -1 165 -1 441 -1 64 -1 499 -1 164 -1 703 -1 530 -1 64 -1 571 -1 381 -1 531 -1 1812 -1 30 -2
31 -1 124 -1 77 -1 123 -1 1777 -1 1900 -1 30 -2
123 -1 921 -1 340 -1 77 -1 123 -1 206 -1 1436 -1 64 -1 171 -1 2 -1 768 -1 4455 -1 222 -1 1389 -1 283 -2
536 -1 10 -1 269 -1 395 -1 123 -1 206 -1 10 -1 571 -1 22 -1 395 -1 280 -1 7956 -1 2 -1 10816 -1 6593 -1 30 -2
1653 -1 123 -1 441 -1 65 -1 888 -1 24751 -1 13628 -1 5777 -1 2 -1 23348 -1 7595 -1 3015 -1 77 -1 123 -1 441 -1 16 -1 638 -1 22 -1 76 -1 64 -1 819 -1 1141 -1 851 -1 10 -1 408 -1 30 -2
123 -1 483 -1 154 -1 123 -1 7871 -1 260 -1 246 -1 164 -1 2 -1 221 -1 22 -1 2270 -1 32 -1 703 -1 30 -2
9806 -1 77 -1 349 -1 183 -1 16 -1 260 -1 520 -1 871 -1 256 -1 810 -1 2 -1 183 -1 260 -1 773 -1 64 -1 1242 -1 2 -1 1034 -1 27 -1 548 -1 1263 -1 5276 -1 30 -2
50 -1 30 -2
850 -1 77 -1 599 -1 349 -1 183 -1 1241 -1 196 -1 29980 -1 64 -1 20151 -1 10 -1 5411 -1 30 -2
653 -1 356 -1 70 -1 76 -1 31 -1 1160 -1 13894 -1 5003 -1 30 -2