12624 -1 683 -1 11744 -1 1641 -1 123 -1 286 -1 430 -1 309 -1 1105 -1 22 -1 5400 -1 755 -1 1641 -1 683 -1 510 -1 246 -1 364 -1 2779 -1 2780 -1 67 -1 2560 -1 77 -1 123 -1 1705 -1 2280 -1 47 -1 2746 -1 431 -1 246 -1 520 -1 248 -1 951 -1 308 -1 547 -1 529 -1 651 -1 140 -1 2394 -1 1105 -1 7092 -1 25555 -1 1171 -1 1 -2
6574 -1 10670 -1 13673 -1 1641 -1 14400 -1 2849 -1 25475 -1 1900 -1 52624 -1 6749 -1 26426 -1 9928 -1 25555 -1 8939 -1 1 -2
6574 -1 10670 -1 13673 -1 1641 -1 6589 -1 3087 -1 1 -2
16 -1 1191 -1 26426 -1 9928 -1 22 -1 73 -1 171 -1 364 -1 2798 -1 1191 -1 291 -1 52624 -1 6749 -1 25475 -1 1900 -1 14400 -1 2849 -1 64566 -1 3094 -1 1 -2
1913 -1 2280 -1 47 -1 2746 -1 431 -1 30 -2
102549 -1 911 -1 76220 -1 3006 -1 102550 -1 32450 -1 2849 -1 24624 -1 1641 -1 102551 -1 3169 -1 2438 -1 911 -1 246 -1 630 -1 283 -2
32159 -1 123 -1 1164 -1 123 -1 206 -1 1214 -1 64 -1 67 -1 2560 -1 740 -1 132 -1 11724 -1 123 -1 2280 -1 50 -1 544 -1 46 -1 381 -1 7332 -1 2692 -1 164 -1 1214 -1 536 -1 10 -1 356 -1 6210 -1 912 -1 1945 -1 123 -1 73 -1 879 -1 1328 -1 64 -1 65 -1 561 -1 908 -1 123 -1 3660 -1 4903 -1 2 -1 123 -1 407 -1 913 -1 11233 -1 280 -1 32 -1 6360 -1 9176 -1 2 -1 193 -1 206 -1 779 -1 283 -2
123 -1 778 -1 1757 -1 411 -1 65 -1 2340 -1 2262 -1 599 -1 123 -1 2351 -1 193 -1 1945 -1 364 -1 16 -1 1191 -1 236 -1 123 -1 407 -1 879 -1 3660 -1 65 -1 1382 -1 16352 -1 30 -2
123 -1 1274 -1 212 -1 907 -1 10 -1 22 -1 536 -1 1551 -1 66 -1 22 -1 20434 -1 210 -1 51873 -1 123 -1 613 -1 41 -1 123 -1 210 -1 356 -1 64 -1 268 -1 64 -1 340 -1 225 -1 33 -1 262 -1 892 -1 398 -1 77 -1 520 -1 123 -1 205 -1 27 -1 398 -1 417 -1 64 -1 268 -1 64 -1 340 -1 225 -1 153 -1 140 -1 1935 -1 3551 -1 77 -1 815 -1 2074 -1 291 -1 134 -1 1 -2
123 -1 593 -1 499 -1 538 -1 30 -2
123 -1 441 -1 37703 -1 3104 -1 50 -1 30 -2
57 -1 834 -1 4846 -1 283 -2
123 -1 6472 -1 65 -1 561 -1 1388 -1 536 -1 488 -1 268 -1 2530 -1 274 -1 4898 -1 32 -1 102 -1 236 -1 123 -1 1664 -1 175 -1 10814 -1 77 -1 452 -1 66 -1 123 -1 1664 -1 193 -1 31 -1 2640 -1 364 -1 63 -1 740 -1 50 -1 2773 -1 2301 -1 64 -1 1664 -1 3940 -1 164 -1 50 -1 1898 -1 77 -1 599 -1 349 -1 2938 -1 1401 -1 1524 -1 9537 -1 642 -1 77 -1 123 -1 638 -1 567 -1 355 -1 740 -1 364 -1 16 -1 260 -1 1191 -1 369 -1 22 -1 225 -1 123 -1 340 -1 190 -1 7673 -1 90798 -1 6161 -1 198 -1 164 -1 1274 -1 5044 -1 10904 -1 2 -1 1121 -1 32 -1 1263 -1 260 -1 1737 -1 291 -1 3242 -1 1945 -1 501 -1 56683 -1 102552 -1 132 -1 283 -2
452 -1 749 -1 364 -1 517 -1 1672 -1 290 -1 22 -1 1382 -1 16352 -1 740 -1 3508 -1 70 -1 22 -1 15591 -1 1914 -1 364 -1 488 -1 16 -1 1030 -1 1191 -1 369 -1 233 -1 4783 -1 30 -2
8269 -1 123 -1 120 -1 340 -1 236 -1 349 -1 441 -1 134 -1 10 -1 13073 -1 77 -1 599 -1 444 -1 123 -1 238 -1 349 -1 1473 -1 430 -1 167 -1 631 -1 25532 -1 10 -1 65 -1 40904 -1 364 -1 16 -1 65 -1 2262 -1 32 -1 134 -1 1468 -1 123 -1 1438 -1 64 -1 50 -1 538 -1 3940 -1 109 -1 65 -1 561 -1 1388 -1 397 -1 2 -1 123 -1 206 -1 520 -1 2530 -1 1361 -1 22 -1 914 -1 33542 -1 1867 -1 364 -1 699 -1 117 -1 381 -1 14699 -1 21401 -1 123 -1 407 -1 517 -1 3 -1 431 -1 7757 -1 533 -1 30 -2
196 -1 10003 -1 31 -1 30 -2
123 -1 990 -1 193 -1 66 -1 2319 -1 246 -1 283 -2
123 -1 144 -1 154 -1 196 -1 30 -2
1835 -1 364 -1 224 -1 65 -1 637 -1 123 -1 356 -1 77 -1 123 -1 268 -1 520 -1 3253 -1 2 -1 102553 -1 3534 -1 3812 -1 32 -1 50 -1 72 -1 241 -1 1468 -1 9962 -1 452 -1 520 -1 5570 -1 283 -2
123 -1 1122 -1 990 -1 1127 -1 945 -1 198 -1 246 -1 210 -1 894 -1 57 -1 77 -1 212 -1 326 -1 5 -1 2662 -1 655 -1 2 -1 123 -1 212 -1 1320 -1 64 -1 765 -1 77 -1 123 -1 613 -1 911 -1 280 -1 210 -1 452 -1 66 -1 123 -1 3447 -1 205 -1 32 -1 22 -1 1648 -1 17170 -1 167 -1 77 -1 599 -1 22 -1 1021 -1 17170 -1 167 -1 183 -1 5359 -1 45540 -1 8898 -1 613 -1 8655 -1 779 -1 2 -1 14402 -1 398 -1 153 -1 759 -1 4303 -1 1914 -1 1700 -1 283 -2
210 -1 70 -1 50 -1 186 -1 1021 -1 210 -1 1035 -1 2344 -1 1 -2
20198 -1 536 -1 164 -1 65 -1 595 -1 1662 -1 32 -1 1805 -1 2 -1 65 -1 1300 -1 450 -1 3559 -1 1647 -1 789 -1 65 -1 109 -1 283 -2
78433 -1 30 -2
1192 -1 1648 -1 244 -1 9537 -1 4461 -1 356 -1 768 -1 1742 -1 1035 -1 651 -1 33 -1 30 -2
488 -1 2530 -1 78 -1 556 -1 2502 -1 422 -1 3038 -1 962 -1 364 -1 63 -1 77 -1 599 -1 364 -1 424 -1 64 -1 262 -1 2 -1 4096 -1 77 -1 364 -1 431 -1 2530 -1 30 -2
1035 -1 651 -1 33 -1 30 -1 1 -2
50 -1 544 -1 46 -1 170 -1 326 -1 683 -1 2 -1 123 -1 613 -1 41 -1 549 -1 283 -2
246 -1 77 -1 123 -1 613 -1 68 -1 156 -1 599 -1 123 -1 613 -1 41 -1 549 -1 65 -1 1219 -1 283 -2
856 -1 41 -1 31 -1 8754 -1 283 -2
171 -1 32 -1 50 -1 544 -1 668 -1 170 -1 326 -1 48 -1 2 -1 2703 -1 520 -1 384 -1 1224 -1 283 -2
6599 -1 283 -2
123 -1 2128 -1 158 -1 262 -1 982 -1 1039 -1 603 -1 2 -1 535 -1 34736 -1 536 -1 274 -1 262 -1 263 -1 77 -1 123 -1 1758 -1 520 -1 1300 -1 50 -1 959 -1 4109 -1 256 -1 5722 -1 520 -1 384 -1 210 -1 693 -1 32 -1 50 -1 7895 -1 183 -1 22 -1 28623 -1 3035 -1 77 -1 27674 -1 14338 -1 77 -1 22567 -1 77 -1 2 -1 32 -1 842 -1 77 -1 89050 -1 30 -2
965 -1 77 -1 175 -1 383 -1 32 -1 24301 -1 11596 -1 54 -1 30 -2
123 -1 613 -1 5017 -1 283 -2
210 -1 262 -1 170 -1 22 -1 11353 -1 263 -1 879 -1 3647 -1 1409 -1 123 -1 990 -1 193 -1 1061 -1 198 -1 210 -1 123 -1 1591 -1 652 -1 384 -1 1127 -1 291 -1 5 -1 280 -1 33 -1 552 -1 254 -1 1318 -1 66 -1 32 -1 134 -1 2330 -1 5 -1 280 -1 78 -1 2055 -1 123 -1 613 -1 10695 -1 520 -1 384 -1 364 -1 2779 -1 2780 -1 102554 -1 78870 -1 276 -1 102555 -1 283 -2
547 -1 520 -1 30 -2
123 -1 340 -1 171 -1 11 -1 77 -1 416 -1 652 -1 739 -1 77 -1 599 -1 468 -1 30 -2
443 -1 789 -1 173 -1 187 -1 164 -1 50 -1 8378 -1 77 -1 1103 -1 77 -1 2 -1 50 -1 544 -1 46 -1 77 -1 683 -1 30 -2
70 -1 326 -1 2180 -1 1259 -1 77 -1 599 -1 443 -1 441 -1 1224 -1 210 -1 123 -1 1164 -1 123 -1 783 -1 151 -1 11 -1 280 -1 50 -1 2817 -1 30 -2
894 -1 283 -2
5 -1 936 -1 283 -2
123 -1 206 -1 1002 -1 27 -1 213 -1 157 -1 286 -1 291 -1 3531 -1 4919 -1 283 -2
1758 -1 2192 -1 64 -1 1217 -1 291 -1 134 -1 2095 -1 77 -1 123 -1 613 -1 10726 -1 291 -1 102 -1 210 -1 6062 -1 123 -1 356 -1 285 -1 3986 -1 5 -1 280 -1 183 -1 77 -1 2 -1 285 -1 1310 -1 2097 -1 443 -1 183 -1 210 -1 6061 -1 123 -1 5434 -1 65 -1 1219 -1 164 -1 1824 -1 2 -1 9828 -1 32 -1 16 -1 381 -1 168 -1 445 -1 77 -1 154 -1 197 -1 965 -1 5816 -1 222 -1 349 -1 212 -1 659 -1 664 -1 22 -1 167 -1 123 -1 144 -1 22 -1 15 -1 183 -1 951 -1 123 -1 10751 -1 1166 -1 2031 -1 274 -1 759 -1 30 -2
123 -1 1758 -1 356 -1 123 -1 174 -1 1150 -1 14853 -1 31 -1 5638 -1 2031 -1 77 -1 2 -1 236 -1 1741 -1 170 -1 199 -1 77 -1 123 -1 1758 -1 356 -1 123 -1 400 -1 30 -2
41 -1 340 -1 30 -2
779 -1 283 -2
47 -1 2469 -1 206 -1 22 -1 171 -1 123 -1 206 -1 22 -1 124 -1 1191 -1 291 -1 520 -1 70 -1 168 -1 64 -1 62 -1 154 -1 41 -1 1364 -1 283 -2
123 -1 375 -1 326 -1 5 -1 4615 -1 162 -1 123 -1 538 -1 3660 -1 47 -1 4903 -1 77 -1 2 -1 123 -1 206 -1 3194 -1 236 -1 193 -1 206 -1 308 -1 30 -2
535 -1 6890 -1 290 -1 30 -2
102556 -1 11704 -1 78 -1 2849 -1 30 -2
22 -1 73 -1 2849 -1 123 -1 340 -1 170 -1 3561 -1 98682 -1 39 -1 16 -1 67 -1 308 -1 1914 -1 7282 -1 5 -1 30 -2
566 -1 3927 -1 1318 -1 68 -1 10868 -1 32 -1 326 -1 5 -1 77 -1 123 -1 120 -1 260 -1 322 -1 505 -1 78 -1 596 -1 1027 -1 690 -1 102557 -1 1103 -1 3665 -1 683 -1 30 -2
102558 -1 5 -1 17164 -1 15519 -1 1900 -1 152 -1 30 -2
123 -1 1150 -1 286 -1 7282 -1 170 -1 326 -1 5 -1 566 -1 212 -1 3927 -1 193 -1 520 -1 246 -1 77 -1 2 -1 1685 -1 5 -1 280 -1 183 -1 590 -1 31 -1 381 -1 3905 -1 77 -1 849 -1 2 -1 4087 -1 77 -1 123 -1 210 -1 765 -1 782 -1 65 -1 2066 -1 4185 -1 3665 -1 123 -1 322 -1 78 -1 326 -1 683 -1 30 -2
123 -1 965 -1 120 -1 340 -1 175 -1 1900 -1 280 -1 77 -1 520 -1 154 -1 171 -1 226 -1 67 -1 81 -1 31 -1 222 -1 64 -1 79 -1 198 -1 30 -2
123 -1 340 -1 65 -1 561 -1 225 -1 441 -1 564 -1 505 -1 872 -1 78 -1 65 -1 516 -1 599 -1 77 -1 6555 -1 77 -1 2858 -1 340 -1 285 -1 64 -1 5342 -1 77 -1 2 -1 349 -1 183 -1 4493 -1 30 -2
57 -1 834 -1 5 -1 280 -1 283 -2
123 -1 206 -1 1002 -1 27 -1 41 -1 66 -1 205 -1 7282 -1 280 -1 1261 -1 206 -1 30 -2
123 -1 835 -1 1738 -1 102 -1 541 -1 566 -1 170 -1 326 -1 5 -1 77 -1 2 -1 123 -1 4096 -1 220 -1 322 -1 193 -1 520 -1 246 -1 77 -1 599 -1 123 -1 1913 -1 694 -1 236 -1 70 -1 212 -1 20575 -1 30 -2
850 -1 283 -2
1192 -1 268 -1 262 -1 64 -1 1808 -1 283 -2
220 -1 123 -1 13683 -1 4898 -1 32 -1 1500 -1 167 -1 31 -1 193 -1 1 -2
3073 -2