63 -1 64 -1 5732 -1 65 -1 1465 -1 263 -1 77 -1 599 -1 856 -1 41 -1 197 -1 77 -1 2091 -1 7184 -1 2 -1 122090 -1 30 -2
123 -1 1411 -1 193 -1 65 -1 1219 -1 32 -1 205 -1 77 -1 599 -1 1756 -1 123 -1 120 -1 160 -1 64 -1 441 -1 64 -1 564 -1 33 -1 65 -1 1448 -1 32 -1 30217 -1 196 -1 384 -1 30 -2
894 -1 30 -2
63 -1 77 -1 364 -1 65 -1 671 -1 1161 -1 64 -1 929 -1 655 -1 29 -1 914 -1 263 -1 308 -1 189 -1 3430 -1 395 -1 16052 -1 50 -1 13 -1 77 -1 599 -1 212 -1 326 -1 1281 -1 64 -1 29 -1 7562 -1 1441 -1 50 -1 1896 -1 2163 -1 32 -1 274 -1 65 -1 491 -1 170 -1 1389 -1 445 -1 64 -1 30 -2
50 -1 241 -1 7 -1 3783 -1 16957 -1 1685 -1 123 -1 1438 -1 64 -1 3430 -1 395 -1 30 -2
123 -1 407 -1 1743 -1 520 -1 384 -1 151 -1 5438 -1 77 -1 123 -1 189 -1 1762 -1 1127 -1 77 -1 123 -1 16499 -1 30 -2
123 -1 120 -1 286 -1 364 -1 7318 -1 2107 -1 30 -2
364 -1 212 -1 5406 -1 30 -2
2555 -1 30 -2
690 -1 123 -1 120 -1 286 -1 50 -1 1896 -1 1025 -1 291 -1 76880 -1 32 -1 175 -1 405 -1 1390 -1 77 -1 7986 -1 77 -1 3917 -1 30 -2
8052 -1 64 -1 67 -1 384 -1 151 -1 5403 -1 291 -1 430 -1 167 -1 153 -1 566 -1 170 -1 123 -1 286 -1 193 -1 220 -1 756 -1 30 -2
364 -1 65 -1 5 -1 228 -1 2 -1 123 -1 407 -1 3 -1 3400 -1 326 -1 1896 -1 31 -1 1156 -1 1388 -1 189 -1 2 -1 707 -1 3 -1 2378 -1 1790 -1 603 -1 30 -2
533 -1 690 -1 364 -1 951 -1 151 -1 6538 -1 3147 -1 2 -1 4283 -1 2862 -1 153 -1 22 -1 696 -1 30 -2
123 -1 1386 -1 64 -1 66 -1 6135 -1 32 -1 908 -1 599 -1 1310 -1 364 -1 36504 -1 4153 -1 64 -1 22 -1 6286 -1 7318 -1 7317 -1 2730 -1 737 -1 356 -1 430 -1 2095 -1 30 -2
123 -1 407 -1 965 -1 3 -1 8303 -1 64 -1 66 -1 32 -1 22 -1 908 -1 2095 -1 31 -1 2800 -1 30 -2
5702 -1 30 -2
850 -1 70 -1 326 -1 1896 -1 54 -1 30 -2
50 -1 1896 -1 21973 -1 222 -1 30 -2
2 -1 50 -1 2958 -1 164 -1 6057 -1 233 -1 162 -1 123 -1 694 -1 505 -1 70 -1 16 -1 2239 -1 30 -2
50 -1 1896 -1 5092 -1 10 -1 8019 -1 8666 -1 164 -1 47 -1 668 -1 31 -1 1224 -1 30 -2
416 -1 168 -1 117 -1 193 -1 30 -2
508 -1 416 -1 16 -1 29 -1 696 -1 1896 -1 30 -2
1914 -1 30 -2
123 -1 340 -1 171 -1 32 -1 50 -1 3594 -1 23402 -1 183 -1 162 -1 225 -1 120 -1 765 -1 894 -1 152 -1 3893 -1 64 -1 505 -1 30 -2
850 -1 50 -1 1896 -1 206 -1 16 -1 1030 -1 4013 -1 77 -1 599 -1 212 -1 1310 -1 199 -1 42 -1 566 -1 1619 -1 222 -1 30 -2
189 -1 416 -1 5722 -1 66 -1 22 -1 76 -1 2 -1 170 -1 1310 -1 22 -1 3327 -1 77 -1 15 -1 168 -1 32007 -1 365 -1 123 -1 340 -1 30 -2
499 -1 79 -1 30 -2
894 -1 77 -1 364 -1 326 -1 5 -1 228 -1 3400 -1 326 -1 1896 -1 2 -1 123 -1 593 -1 83 -1 64 -1 1281 -1 262 -1 1760 -1 64 -1 27 -1 707 -1 3 -1 655 -1 30 -2
249 -1 30 -1 848 -1 193 -1 1322 -1 41 -1 236 -1 29 -1 5602 -1 46 -1 16809 -1 76 -1 164 -1 1166 -1 152 -1 2826 -1 64 -1 268 -1 618 -1 30 -2
285 -1 165 -1 123 -1 1715 -1 1 -2
222 -1 145654 -1 193 -1 283 -2
1192 -1 322 -1 8129 -1 3538 -1 10 -1 22 -1 1610 -1 30 -2
50 -1 1896 -1 165 -1 951 -1 654 -1 193 -1 78 -1 65 -1 3240 -1 2 -1 788 -1 3240 -1 291 -1 193 -1 30 -2
246 -1 364 -1 65 -1 5 -1 228 -1 3400 -1 326 -1 1896 -1 2 -1 66 -1 704 -1 668 -1 2 -1 2958 -1 286 -1 2006 -1 35039 -1 4000 -1 520 -1 123 -1 1880 -1 31 -1 154 -1 30 -2
533 -1 64 -1 67 -1 2560 -1 704 -1 3501 -1 170 -1 384 -1 151 -1 153 -1 1837 -1 1261 -1 156 -1 533 -1 30 -2
50 -1 1896 -1 170 -1 951 -1 151 -1 32 -1 65 -1 1755 -1 12780 -1 77 -1 73 -1 10 -1 65 -1 1245 -1 1984 -1 77 -1 236 -1 154 -1 1973 -1 175 -1 30 -2
50 -1 1896 -1 170 -1 326 -1 779 -1 7909 -1 533 -1 123 -1 220 -1 2279 -1 1713 -1 64 -1 27 -1 248 -1 541 -1 599 -1 10 -1 65 -1 871 -1 955 -1 416 -1 16 -1 520 -1 168 -1 117 -1 7156 -1 30 -2
520 -1 10 -1 154 -1 955 -1 77 -1 193 -1 39 -1 67 -1 3038 -1 1966 -1 599 -1 193 -1 701 -1 30 -2
520 -1 262 -1 170 -1 27 -1 50 -1 1896 -1 1884 -1 30 -2
183 -1 1896 -1 2134 -1 4989 -1 10896 -1 1 -2
236 -1 1051 -1 167 -1 68 -1 44 -1 170 -1 2134 -1 4989 -1 10896 -1 77 -1 123 -1 1867 -1 520 -1 30 -2
518 -1 183 -1 1896 -1 431 -1 3363 -1 1 -2
850 -1 30 -2
27 -1 183 -1 1896 -1 1351 -1 520 -1 123 -1 340 -1 202 -1 65 -1 720 -1 32 -1 65 -1 1073 -1 7206 -1 599 -1 233 -1 236 -1 123 -1 543 -1 1927 -1 154 -1 77 -1 123 -1 210 -1 765 -1 120 -1 499 -1 237 -1 262 -1 75 -1 30 -2
653 -1 356 -1 65 -1 1224 -1 456 -1 75 -1 77 -1 599 -1 65 -1 26576 -1 2161 -1 30 -2
2874 -1 50 -1 769 -1 30 -2
499 -1 5577 -1 171 -1 32 -1 650 -1 5 -1 156 -1 225 -1 77 -1 22 -1 1300 -1 499 -1 550 -1 2097 -1 4379 -1 157 -1 30 -2
443 -1 613 -1 64 -1 781 -1 198 -1 2996 -1 3057 -1 30 -2
70 -1 356 -1 704 -1 13 -1 30 -2
3400 -1 326 -1 1896 -1 31 -1 796 -1 1388 -1 30 -2
66906 -1 1220 -1 41 -1 340 -1 77 -1 123 -1 1913 -1 79 -1 198 -1 749 -1 202 -1 66 -1 262 -1 699 -1 5098 -1 291 -1 228 -1 1896 -1 3276 -1 30 -2
1191 -1 123 -1 286 -1 193 -1 284 -1 67 -1 65 -1 6803 -1 236 -1 22 -1 309 -1 648 -1 441 -1 22 -1 132 -1 485 -1 291 -1 167 -1 152 -1 132 -1 30 -2
5 -1 228 -1 3400 -1 1896 -1 31 -1 796 -1 1388 -1 936 -1 30 -2
520 -1 1241 -1 3501 -1 7 -1 3 -1 2327 -1 12670 -1 3873 -1 64 -1 66 -1 213 -1 241 -1 157 -1 123 -1 407 -1 3272 -1 48 -1 77 -1 11 -1 77 -1 1103 -1 77 -1 1641 -1 77 -1 911 -1 30 -2
3917 -1 30 -2
123 -1 284 -1 30 -2
364 -1 16 -1 326 -1 1896 -1 77 -1 599 -1 78 -1 326 -1 228 -1 5 -1 3400 -1 326 -1 1896 -1 1035 -1 3 -1 630 -1 170 -1 652 -1 384 -1 964 -1 30 -2
262 -1 1896 -1 7 -1 529 -1 2617 -1 1803 -1 65 -1 1219 -1 1837 -1 254 -1 416 -1 520 -1 383 -1 2 -1 47 -1 7569 -1 548 -1 222 -1 431 -1 4558 -1 64 -1 30 -2
364 -1 326 -1 5 -1 228 -1 452 -1 3400 -1 326 -1 1896 -1 533 -1 123 -1 543 -1 356 -1 326 -1 5 -1 77 -1 364 -1 951 -1 326 -1 228 -1 254 -1 123 -1 764 -1 326 -1 2545 -1 1309 -1 31 -1 845 -1 1127 -1 77 -1 1163 -1 78 -1 749 -1 262 -1 1896 -1 170 -1 6581 -1 222 -1 520 -1 30 -2
364 -1 2135 -1 452 -1 9236 -1 7317 -1 3986 -1 30 -2
123 -1 529 -1 613 -1 381 -1 224 -1 5697 -1 32 -1 849 -1 1300 -1 225 -1 30 -2
2140 -1 77 -1 2141 -1 77 -1 57066 -1 77 -1 11459 -1 77 -1 1115 -1 3492 -1 77 -1 2805 -1 3933 -1 77 -1 656 -1 276 -1 30 -2
965 -1 123 -1 2301 -1 64 -1 472 -1 1817 -1 33 -1 15 -1 32 -1 50 -1 474 -1 77 -1 599 -1 189 -1 123 -1 472 -1 1274 -1 664 -1 2 -1 22 -1 1441 -1 32 -1 77 -1 144 -1 123 -1 159 -1 50 -1 584 -1 152 -1 50 -1 972 -1 1 -2
123 -1 2301 -1 64 -1 5742 -1 159 -1 50 -1 972 -1 2 -1 3757 -1 852 -1 66 -1 909 -1 30 -2
189 -1 30 -2
894 -1 210 -1 520 -1 123 -1 407 -1 3 -1 3652 -1 262 -1 3784 -1 30 -2
5 -1 152 -1 228 -1 1 -2
123 -1 473 -1 198 -1 78 -1 571 -1 77 -1 3993 -1 33 -1 22 -1 473 -1 30 -2
571 -1 241 -1 4524 -1 2137 -1 222 -1 30 -2
123 -1 529 -1 334 -1 22 -1 141 -1 146 -1 473 -1 2 -1 533 -1 123 -1 1963 -1 664 -1 6349 -1 30 -2
965 -1 123 -1 1650 -1 198 -1 154 -1 365 -1 206 -1 326 -1 1896 -1 535 -1 1545 -1 505 -1 3118 -1 82 -1 1914 -1 30 -2
13685 -1 145655 -1 30 -2
15 -1 32 -1 22 -1 2858 -1 936 -1 1313 -1 64 -1 613 -1 703 -1 64 -1 4040 -1 599 -1 364 -1 536 -1 64 -1 22 -1 123 -1 120 -1 340 -1 236 -1 1225 -1 123 -1 1438 -1 64 -1 65 -1 17092 -1 5436 -1 35 -1 31 -1 50 -1 2771 -1 280 -1 4060 -1 30 -2
123 -1 648 -1 160 -1 64 -1 499 -1 77 -1 123 -1 648 -1 340 -1 505 -1 77 -1 599 -1 123 -1 1438 -1 989 -1 30 -2
50 -1 2771 -1 700 -1 158 -1 64 -1 22 -1 50831 -1 2 -1 938 -1 11979 -1 47 -1 13 -1 30 -2
123 -1 7037 -1 30 -2
1914 -1 30 -2
126 -1 262 -1 446 -1 4727 -1 64 -1 212 -1 7512 -1 30 -2
123 -1 340 -1 123 -1 260 -1 543 -1 356 -1 326 -1 228 -1 64 -1 22 -1 219 -1 3701 -1 77 -1 2545 -1 77 -1 26546 -1 30 -2
599 -1 244 -1 236 -1 41 -1 322 -1 222 -1 164 -1 225 -1 123 -1 734 -1 152 -1 3533 -1 5071 -1 10043 -1 1305 -1 30 -2
823 -1 31 -1 66 -1 22 -1 480 -1 283 -2
70 -1 260 -1 2617 -1 222 -1 1034 -1 262 -1 65 -1 720 -1 151 -1 30 -2
123 -1 407 -1 951 -1 3 -1 656 -1 64 -1 1034 -1 4844 -1 1127 -1 196 -1 384 -1 30 -2
599 -1 651 -1 536 -1 64 -1 449 -1 77 -1 123 -1 951 -1 30 -2
220 -1 200 -1 3060 -1 1841 -1 749 -1 50 -1 544 -1 2137 -1 241 -1 156 -1 48 -1 77 -1 170 -1 22 -1 156 -1 123 -1 3503 -1 164 -1 22 -1 15 -1 1 -2
8805 -1 77 -1 443 -1 921 -1 268 -1 1790 -1 32374 -1 283 -2
599 -1 162 -1 123 -1 758 -1 1336 -1 703 -1 123 -1 407 -1 1619 -1 291 -1 886 -1 30 -1 123 -1 212 -1 1619 -1 1160 -1 48 -1 30 -2
210 -1 123 -1 3783 -1 50 -1 863 -1 30 -2
145656 -1 14142 -1 3 -1 2910 -1 64 -1 262 -1 365 -1 31 -1 321 -1 3014 -1 2800 -1 189 -1 2 -1 31 -1 693 -1 1587 -1 123 -1 1913 -1 1726 -1 5722 -1 30 -2
738 -1 520 -1 30 -2
248 -1 846 -1 283 -2
5567 -1 30 -2
285 -1 848 -1 193 -1 756 -1 1 -2
246 -1 126 -1 70 -1 1727 -1 810 -1 441 -1 262 -1 2880 -1 23124 -1 2 -1 2858 -1 220 -1 1209 -1 655 -1 154 -1 30 -2
154 -1 2 -1 443 -1 441 -1 262 -1 5570 -1 77 -1 1300 -1 3244 -1 291 -1 1263 -1 154 -1 170 -1 520 -1 6307 -1 30 -2
3717 -1 1225 -1 39976 -1 30 -2
850 -1 123 -1 144 -1 30 -2
123 -1 144 -1 66 -1 32 -1 22 -1 2071 -1 30 -2
321 -1 5584 -1 77 -1 41405 -1 77 -1 10816 -1 30 -2
123 -1 233 -1 906 -1 2 -1 6267 -1 138 -1 1051 -1 66 -1 32 -1 22 -1 2071 -1 30 -2
210 -1 642 -1 850 -1 30 -2
246 -1 162 -1 123 -1 206 -1 2118 -1 123 -1 206 -1 326 -1 683 -1 911 -1 5548 -1 30 -2
189 -1 123 -1 407 -1 212 -1 147 -1 158 -1 33 -1 381 -1 2542 -1 2 -1 441 -1 1743 -1 326 -1 5 -1 228 -1 5548 -1 30 -2
25735 -1 123 -1 223 -1 3 -1 356 -1 65 -1 285 -1 123 -1 929 -1 193 -1 65 -1 671 -1 5143 -1 2012 -1 1 -2
749 -1 4645 -1 1225 -2
13675 -1 77 -1 123 -1 286 -1 123 -1 356 -1 134 -1 30 -2
123 -1 765 -1 154 -1 1727 -1 484 -1 32 -1 22 -1 737 -1 123 -1 340 -1 537 -1 222 -1 1389 -1 30 -2
10944 -1 349 -1 1313 -1 64 -1 441 -1 22 -1 7870 -1 1172 -1 32 -1 205 -1 879 -1 30 -2
599 -1 2335 -1 30 -2
212 -1 2335 -1 77 -1 123 -1 488 -1 260 -1 356 -1 30 -2
364 -1 212 -1 520 -1 1300 -1 283 -2
210 -1 567 -1 77 -1 567 -1 364 -1 16 -1 3063 -1 30 -2
364 -1 16 -1 269 -1 30 -2
364 -1 212 -1 1300 -1 77 -1 520 -1 1662 -1 32 -1 13 -1 283 -2
520 -1 1662 -1 32 -1 949 -1 283 -2
123 -1 206 -1 520 -1 1191 -1 262 -1 259 -1 32 -1 222 -1 638 -1 9318 -1 3784 -1 283 -2
520 -1 30 -2
27 -1 168 -1 54 -1 30 -2
27 -1 241 -1 4842 -1 152 -1 646 -1 9011 -1 144 -1 41 -1 5434 -1 64 -1 10770 -1 78 -1 326 -1 5 -1 1 -2
2502 -1 441 -1 19049 -1 32 -1 2158 -1 2446 -1 30 -2
193 -1 1210 -1 2 -1 2319 -1 30 -2
364 -1 16 -1 1191 -1 236 -1 70 -1 2468 -1 254 -1 32 -1 22 -1 28114 -1 30 -2
139 -1 596 -1 50 -1 629 -1 46 -1 1205 -1 356 -1 30 -2
518 -1 596 -1 739 -1 152 -1 13380 -1 356 -1 30 -2
154 -1 38256 -1 164 -1 65 -1 2340 -1 25425 -1 3534 -1 164 -1 17791 -1 2 -1 69729 -1 30 -2
123 -1 205 -1 154 -1 206 -1 652 -1 192 -1 77 -1 4096 -1 283 -2
1225 -1 162 -1 41 -1 1758 -1 520 -1 3013 -1 2 -1 1662 -1 64 -1 21000 -1 164 -1 2031 -1 256 -1 2080 -1 8630 -1 396 -1 154 -1 202 -1 520 -1 384 -1 41 -1 220 -1 144 -1 64 -1 711 -1 22 -1 219 -1 65 -1 398 -1 678 -1 30 -2
202 -1 520 -1 384 -1 41 -1 220 -1 144 -1 30 -2
567 -1 77 -1 349 -1 120 -1 283 -2
1092 -1 222 -1 30 -2
599 -1 126 -1 452 -1 1727 -1 364 -1 65 -1 7332 -1 5 -1 228 -1 1 -2
321 -1 123 -1 483 -1 738 -1 171 -1 32 -1 22 -1 401 -1 157 -1 154 -1 220 -1 835 -1 158 -1 164 -1 50 -1 205 -1 1306 -1 52694 -1 1537 -1 164 -1 222 -1 30 -2
50 -1 5532 -1 30 -2
123 -1 1164 -1 50 -1 2031 -1 29764 -1 165 -1 835 -1 9577 -1 158 -1 30 -2
321 -1 123 -1 613 -1 193 -1 30 -2
4216 -1 222 -1 1312 -1 2 -1 1300 -1 66 -1 123 -1 260 -1 764 -1 170 -1 171 -1 152 -1 65 -1 401 -1 225 -1 224 -1 222 -1 123 -1 220 -1 788 -1 67 -1 1352 -1 164 -1 30 -2
3925 -1 850 -1 123 -1 144 -1 30 -2
210 -1 123 -1 613 -1 1039 -1 283 -2
70 -1 603 -1 283 -2
498 -1 70 -1 256 -1 2158 -1 152 -1 2031 -1 30 -2
1672 -1 2031 -1 30 -2
321 -1 856 -1 41 -1 197 -1 283 -2
123 -1 1745 -1 29 -1 769 -1 2 -1 123 -1 212 -1 1745 -1 22 -1 301 -1 44 -1 1193 -1 31 -1 411 -1 35 -1 30 -2
210 -1 193 -1 206 -1 4003 -1 30 -2
381 -1 1152 -1 1533 -1 1433 -1 175 -1 297 -1 260 -1 2617 -1 30 -1 30 -1 520 -1 1300 -1 193 -1 1351 -1 520 -1 65 -1 491 -1 397 -1 123 -1 206 -1 66 -1 1300 -1 2 -1 7280 -1 30 -2
244 -1 66 -1 5440 -1 32 -1 167 -1 1417 -1 30 -2
123 -1 938 -1 3429 -1 31 -1 326 -1 10113 -1 64 -1 268 -1 237 -1 395 -1 31 -1 484 -1 65 -1 491 -1 2 -1 139 -1 7864 -1 411 -1 158 -1 10 -1 65 -1 7885 -1 31 -1 30 -2
16 -1 381 -1 243 -1 356 -1 651 -1 198 -1 2 -1 965 -1 2910 -1 64 -1 225 -1 31 -1 65 -1 138 -1 220 -1 260 -1 711 -1 222 -1 3992 -1 567 -1 2365 -1 27 -1 364 -1 1051 -1 30 -2
498 -1 6764 -1 411 -1 64 -1 499 -1 198 -1 2 -1 10772 -1 2 -1 5626 -1 164 -1 225 -1 30 -2
235 -1 145657 -1 30 -2
41 -1 183 -1 520 -1 890 -1 7179 -1 154 -1 70 -1 1318 -1 22940 -1 30 -2
533 -1 70 -1 529 -1 6879 -1 30 -2
123 -1 73 -1 3451 -1 50 -1 317 -1 3053 -1 535 -1 41 -1 2778 -1 198 -1 66 -1 29 -1 65167 -1 164 -1 2858 -1 30 -2
850 -1 77 -1 1225 -1 4898 -1 2 -1 4898 -1 2 -1 4898 -1 32 -1 2910 -1 283 -2
210 -1 2910 -1 138 -1 2739 -1 30 -2
2910 -1 535 -1 1551 -1 30 -2
2910 -1 2897 -1 693 -1 7934 -1 30 -2
152 -1 4102 -1 30 -2
4102 -1 170 -1 168 -1 196 -1 30 -2
520 -1 139 -1 276 -1 444 -1 123 -1 220 -1 159 -1 50 -1 30 -2
145658 -1 280 -1 519 -1 170 -1 308 -1 33 -1 30 -2
210 -1 123 -1 220 -1 694 -1 41 -1 652 -1 384 -1 452 -1 3336 -1 285 -1 193 -1 2319 -1 30 -2
1785 -1 183 -1 431 -1 2417 -1 30 -2
123 -1 613 -1 193 -1 1727 -1 123 -1 764 -1 6930 -1 7305 -1 154 -1 1205 -1 441 -1 596 -1 30 -2
235 -1 30 -2
210 -1 171 -1 32 -1 50 -1 5759 -1 668 -1 170 -1 326 -1 1641 -1 2 -1 443 -1 571 -1 1913 -1 721 -1 704 -1 1359 -1 1533 -1 171 -1 1160 -1 30 -2
364 -1 965 -1 2910 -1 64 -1 505 -1 308 -1 189 -1 2 -1 656 -1 64 -1 79 -1 198 -1 285 -1 64 -1 1281 -1 262 -1 1441 -1 31 -1 30 -2