1160 -1 1880 -1 31 -1 3769 -1 936 -1 77 -1 1653 -1 123 -1 120 -1 441 -1 384 -1 64 -1 2218 -1 64 -1 27 -1 1166 -1 441 -1 630 -1 30 -2
64 -1 70534 -1 33 -1 1160 -1 6532 -1 263 -1 308 -1 189 -1 3572 -1 170 -1 1160 -1 168 -1 76 -1 64 -1 3767 -1 77 -1 599 -1 364 -1 2134 -1 30 -2
4096 -1 77 -1 70 -1 951 -1 22 -1 105970 -1 3465 -1 123 -1 340 -1 32 -1 117 -1 22 -1 71 -1 30 -2
123 -1 212 -1 375 -1 536 -1 256 -1 65 -1 2732 -1 64 -1 10061 -1 2 -1 25106 -1 77 -1 2 -1 4096 -1 22 -1 105971 -1 1039 -1 32 -1 16986 -1 77 -1 463 -1 77 -1 2 -1 212 -1 1859 -1 30 -2
123 -1 174 -1 326 -1 9023 -1 117 -1 326 -1 2341 -1 7429 -1 30 -2
1216 -1 65 -1 2630 -1 77 -1 2 -1 16 -1 65 -1 2809 -1 193 -1 226 -1 441 -1 3 -1 309 -1 408 -1 262 -1 2688 -1 77 -1 2 -1 123 -1 593 -1 1004 -1 67 -1 198 -1 30 -2
193 -1 170 -1 65 -1 652 -1 7415 -1 438 -1 31 -1 326 -1 683 -1 77 -1 2 -1 22 -1 30 -2
364 -1 437 -1 886 -1 1388 -1 10 -1 117 -1 50 -1 2630 -1 922 -1 10 -1 65 -1 431 -1 156 -1 65 -1 77 -1 13859 -1 438 -1 30 -2
123 -1 286 -1 364 -1 2476 -1 117 -1 50 -1 2630 -1 77 -1 254 -1 364 -1 168 -1 164 -1 22 -1 1791 -1 2 -1 835 -1 65 -1 3701 -1 959 -1 5431 -1 211 -1 6486 -1 162 -1 30 -2
392 -1 262 -1 22 -1 213 -1 44 -1 77 -1 2 -1 193 -1 700 -1 64 -1 863 -1 162 -1 123 -1 929 -1 22 -1 6857 -1 78 -1 12669 -1 31 -1 4377 -1 30 -2
8 -1 28 -1 26 -1 105972 -1 8 -1 28 -1 26 -1 105973 -1 5019 -1 5017 -1 262 -1 173 -1 7 -1 638 -1 65 -1 8024 -1 3035 -1 33 -1 222 -1 1685 -1 123 -1 1348 -1 193 -1 309 -1 2800 -1 397 -1 30 -2
123 -1 407 -1 6108 -1 164 -1 2446 -1 31 -1 291 -1 155 -1 408 -1 189 -1 77 -1 2 -1 262 -1 7 -1 30 -2
536 -1 33 -1 861 -1 77 -1 535 -1 50 -1 3196 -1 2630 -1 262 -1 2688 -1 444 -1 123 -1 206 -1 3342 -1 2793 -1 237 -1 319 -1 1223 -1 10 -1 986 -1 64 -1 19002 -1 31 -1 411 -1 77 -1 123 -1 483 -1 411 -1 773 -1 64 -1 159 -1 1235 -1 384 -1 151 -1 10 -1 3915 -1 13 -1 77 -1 2 -1 1216 -1 520 -1 30 -2
4920 -1 140 -1 1127 -1 30 -2
2091 -1 140 -1 22 -1 99709 -1 32 -1 225 -1 154 -1 123 -1 441 -1 10 -1 50 -1 972 -1 77 -1 154 -1 223 -1 1313 -1 64 -1 18434 -1 22 -1 677 -1 851 -1 1443 -1 152 -1 67 -1 1024 -1 117 -1 222 -1 77 -1 162 -1 10 -1 471 -1 13 -1 167 -1 183 -1 433 -1 65 -1 2945 -1 30 -1 256 -1 27 -1 123 -1 220 -1 694 -1 117 -1 124 -1 77 -1 683 -1 1470 -1 1313 -1 64 -1 67 -1 384 -1 151 -1 32 -1 65 -1 585 -1 7573 -1 30 -2
10 -1 471 -1 13 -1 123 -1 1913 -1 5989 -1 175 -1 77 -1 2 -1 123 -1 893 -1 1166 -1 165 -1 260 -1 1798 -1 222 -1 753 -1 349 -1 638 -1 65 -1 2551 -1 64 -1 268 -1 64 -1 260 -1 30 -2
123 -1 174 -1 66 -1 430 -1 2 -1 262 -1 2366 -1 67 -1 171 -1 32 -1 22 -1 544 -1 3494 -1 879 -1 235 -1 66 -1 77 -1 520 -1 2874 -1 22 -1 708 -1 30 -2
10 -1 65 -1 1219 -1 32 -1 1125 -1 123 -1 223 -1 1758 -1 356 -1 364 -1 656 -1 64 -1 1040 -1 1245 -1 3521 -1 32 -1 411 -1 224 -1 1245 -1 225 -1 30 -2
41 -1 322 -1 77 -1 364 -1 117 -1 65 -1 3064 -1 23485 -1 395 -1 541 -1 262 -1 383 -1 32 -1 30 -2
364 -1 652 -1 1191 -1 123 -1 142 -1 1193 -1 78 -1 6930 -1 64 -1 225 -1 369 -1 120 -1 340 -1 222 -1 246 -1 77 -1 123 -1 2280 -1 1935 -1 193 -1 256 -1 65 -1 440 -1 10 -1 269 -1 395 -1 196 -1 30 -2
632 -1 162 -1 123 -1 965 -1 268 -1 12424 -1 224 -1 225 -1 364 -1 652 -1 3154 -1 30 -2
123 -1 356 -1 66 -1 6135 -1 32 -1 8769 -1 8770 -1 77 -1 3677 -1 693 -1 1995 -1 328 -1 77 -1 599 -1 951 -1 50 -1 186 -1 1119 -1 2206 -1 32 -1 1400 -1 206 -1 2435 -1 280 -1 5117 -1 19334 -1 30 -2
520 -1 278 -1 779 -1 18996 -1 938 -1 198 -1 244 -1 77 -1 2 -1 22 -1 1773 -1 183 -1 16701 -1 30 -2
2874 -1 171 -1 30 -2
123 -1 120 -1 1986 -1 154 -1 384 -1 2109 -1 64 -1 1553 -1 77 -1 212 -1 254 -1 193 -1 260 -1 548 -1 222 -1 1181 -1 285 -1 19448 -1 2 -1 309 -1 14622 -1 704 -1 10351 -1 183 -1 30 -2
154 -1 381 -1 630 -1 77 -1 123 -1 356 -1 505 -1 254 -1 566 -1 701 -1 64 -1 67 -1 151 -1 9075 -1 10 -1 30 -2
14480 -1 144 -1 41 -1 238 -1 1 -2
123 -1 120 -1 340 -1 236 -1 123 -1 407 -1 879 -1 1619 -1 1160 -1 683 -1 77 -1 1653 -1 2691 -1 50 -1 1859 -1 81235 -1 78 -1 64 -1 285 -1 123 -1 142 -1 1193 -1 64 -1 1166 -1 77 -1 123 -1 951 -1 778 -1 67 -1 196 -1 168 -1 117 -1 883 -1 65 -1 834 -1 30 -2
29 -1 889 -1 32 -1 786 -1 170 -1 652 -1 384 -1 2172 -1 33 -1 31 -1 222 -1 30 -2
123 -1 407 -1 223 -1 5503 -1 1461 -1 1352 -1 2253 -1 77 -1 2 -1 123 -1 593 -1 1672 -1 800 -1 64 -1 499 -1 274 -1 50 -1 473 -1 117 -1 124 -1 1275 -1 236 -1 76 -1 3619 -1 30 -2
123 -1 529 -1 14443 -1 50 -1 910 -1 30 -2
123 -1 176 -1 715 -1 164 -1 41 -1 77 -1 2 -1 364 -1 139 -1 10 -1 22 -1 2029 -1 132 -1 403 -1 78 -1 22 -1 1174 -1 30 -2
123 -1 206 -1 965 -1 651 -1 64 -1 425 -1 65 -1 263 -1 33 -1 14737 -1 2115 -1 35 -1 77 -1 11910 -1 154 -1 30 -2
520 -1 384 -1 64 -1 1289 -1 77 -1 599 -1 30 -2
94 -1 51 -1 3515 -1 78 -1 246 -1 77 -1 701 -1 64 -1 67 -1 326 -1 683 -1 54 -1 1914 -1 123 -1 1758 -1 22 -1 132 -1 417 -1 65 -1 1219 -1 77 -1 2091 -1 236 -1 364 -1 4920 -1 140 -1 693 -1 383 -1 32 -1 243 -1 1984 -1 77 -1 152 -1 50 -1 3534 -1 428 -1 32 -1 109 -1 1914 -1 30 -2
1913 -1 765 -1 123 -1 441 -1 175 -1 3620 -1 77 -1 599 -1 123 -1 441 -1 405 -1 32 -1 3374 -1 198 -1 749 -1 123 -1 1758 -1 356 -1 30 -2
123 -1 212 -1 638 -1 262 -1 2029 -1 1039 -1 205 -1 77 -1 212 -1 1478 -1 291 -1 285 -1 535 -1 262 -1 114 -1 32 -1 10289 -1 123 -1 593 -1 441 -1 6254 -1 155 -1 408 -1 32 -1 1459 -1 77 -1 2 -1 5431 -1 50 -1 2257 -1 164 -1 2379 -1 167 -1 356 -1 3933 -1 77 -1 1346 -1 77 -1 2 -1 30 -2
3661 -1 95442 -1 105974 -1 12804 -1 123 -1 1164 -1 123 -1 206 -1 201 -1 520 -1 1102 -1 308 -1 189 -1 123 -1 1913 -1 286 -1 32 -1 65 -1 3198 -1 154 -1 225 -1 284 -1 260 -1 16603 -1 222 -1 164 -1 77 -1 3508 -1 349 -1 190 -1 2335 -1 64 -1 296 -1 237 -1 50 -1 6303 -1 2 -1 4072 -1 105975 -1 222 -1 77 -1 244 -1 159 -1 50 -1 317 -1 489 -1 2 -1 4546 -1 64 -1 16603 -1 222 -1 77 -1 30 -2
235 -1 549 -1 77 -1 123 -1 340 -1 201 -1 183 -1 65 -1 1219 -1 32 -1 4377 -1 154 -1 441 -1 1650 -1 152 -1 183 -1 5269 -1 318 -1 6188 -1 655 -1 318 -1 9622 -1 77 -1 599 -1 27 -1 291 -1 650 -1 369 -1 17532 -1 193 -1 198 -1 10 -1 2061 -1 4986 -1 2528 -1 1346 -1 1 -2
123 -1 407 -1 114 -1 411 -1 158 -1 30 -2
364 -1 10 -1 50 -1 5480 -1 491 -1 32 -1 1459 -1 30 -2
12536 -1 491 -1 206 -1 652 -1 1224 -1 212 -1 254 -1 32 -1 66 -1 22 -1 424 -1 3653 -1 77 -1 599 -1 162 -1 154 -1 12983 -1 1193 -1 193 -1 2068 -1 65 -1 720 -1 1891 -1 30 -2
123 -1 1867 -1 364 -1 33 -1 65 -1 720 -1 32 -1 65 -1 4497 -1 5354 -1 2809 -1 3981 -1 77 -1 520 -1 30 -2
22 -1 171 -1 11 -1 123 -1 340 -1 10 -1 471 -1 13 -1 170 -1 433 -1 6286 -1 1408 -1 152 -1 1580 -1 77 -1 9674 -1 33 -1 1166 -1 1580 -1 695 -1 2 -1 433 -1 406 -1 164 -1 22 -1 2645 -1 154 -1 566 -1 284 -1 144 -1 398 -1 77 -1 212 -1 254 -1 566 -1 170 -1 568 -1 32 -1 30 -2
123 -1 1185 -1 15348 -1 101320 -1 77 -1 2091 -1 162 -1 123 -1 3572 -1 77 -1 123 -1 223 -1 83 -1 64 -1 268 -1 117 -1 124 -1 171 -1 13341 -1 3989 -1 32 -1 154 -1 2732 -1 152 -1 678 -1 30 -2
123 -1 613 -1 22 -1 737 -1 154 -1 543 -1 356 -1 213 -1 2179 -1 77 -1 356 -1 123 -1 441 -1 171 -1 30 -2
349 -1 183 -1 652 -1 1355 -1 31 -1 222 -1 937 -1 3873 -1 64 -1 961 -1 152 -1 1580 -1 2800 -1 77 -1 599 -1 1672 -1 123 -1 593 -1 1758 -1 65 -1 269 -1 212 -1 142 -1 198 -1 32 -1 3271 -1 30 -2
364 -1 384 -1 151 -1 243 -1 77 -1 441 -1 151 -1 32 -1 65 -1 7443 -1 10 -1 50 -1 1903 -1 77 -1 2 -1 212 -1 66 -1 30 -2
123 -1 441 -1 77 -1 2 -1 193 -1 652 -1 384 -1 13325 -1 222 -1 30 -2
123 -1 938 -1 64 -1 1591 -1 411 -1 77 -1 30699 -1 64 -1 136 -1 3061 -1 1948 -1 77 -1 2 -1 667 -1 326 -1 3561 -1 1314 -1 32 -1 1059 -1 154 -1 10522 -1 222 -1 64 -1 652 -1 384 -1 1688 -1 66 -1 3642 -1 164 -1 134 -1 30 -2
16 -1 30 -2
123 -1 120 -1 286 -1 201 -1 170 -1 596 -1 1607 -1 164 -1 381 -1 871 -1 2 -1 3175 -1 77 -1 193 -1 921 -1 67 -1 276 -1 154 -1 41 -1 2321 -1 30 -2
138 -1 1261 -1 2366 -1 1841 -1 65 -1 1219 -1 291 -1 29 -1 8951 -1 2 -1 3053 -1 77 -1 193 -1 848 -1 16 -1 60196 -1 30 -2
123 -1 407 -1 2087 -1 65 -1 1219 -1 32 -1 27 -1 248 -1 11979 -1 105976 -1 30 -2
364 -1 10 -1 50 -1 5480 -1 491 -1 32 -1 1459 -1 77 -1 3429 -1 5432 -1 117 -1 65 -1 431 -1 8707 -1 395 -1 30 -2
123 -1 407 -1 638 -1 2514 -1 260 -1 7672 -1 225 -1 10 -1 77 -1 2 -1 433 -1 1758 -1 30 -2
123 -1 220 -1 715 -1 164 -1 22 -1 852 -1 5460 -1 10 -1 262 -1 263 -1 77 -1 2798 -1 30 -1 123 -1 286 -1 10 -1 3274 -1 259 -1 193 -1 170 -1 530 -1 64 -1 704 -1 683 -1 4397 -1 31 -1 1693 -1 77 -1 22 -1 4397 -1 31 -1 704 -1 317 -1 678 -1 10 -1 22 -1 219 -1 444 -1 443 -1 2137 -1 2 -1 220 -1 7181 -1 10 -1 30 -2
165 -1 326 -1 683 -1 90 -1 22818 -1 154 -1 566 -1 968 -1 222 -1 599 -1 16 -1 2208 -1 952 -1 193 -1 1 -2
1442 -1 31 -1 50 -1 1736 -1 152 -1 276 -1 850 -1 77 -1 123 -1 144 -1 262 -1 66 -1 22 -1 76 -1 30 -2
2010 -1 123 -1 711 -1 465 -1 3642 -1 164 -1 66 -1 22 -1 76 -1 77 -1 443 -1 3030 -1 145 -1 213 -1 77 -1 117 -1 30 -2
123 -1 1364 -1 154 -1 443 -1 142 -1 1193 -1 78 -1 2450 -1 2 -1 65 -1 720 -1 10 -1 704 -1 317 -1 2639 -1 64 -1 2963 -1 77 -1 657 -1 170 -1 3132 -1 254 -1 193 -1 8052 -1 64 -1 537 -1 225 -1 591 -1 30 -2
123 -1 1867 -1 193 -1 548 -1 955 -1 31 -1 1263 -1 77 -1 1685 -1 443 -1 1475 -1 1382 -1 243 -1 30 -2
68 -1 76 -1 154 -1 123 -1 1209 -1 655 -1 65 -1 15448 -1 32 -1 2446 -1 201 -1 170 -1 171 -1 54 -1 10 -1 1264 -1 30 -2
123 -1 286 -1 154 -1 78 -1 4377 -1 443 -1 441 -1 65 -1 3145 -1 64 -1 268 -1 8124 -1 158 -1 10 -1 22 -1 409 -1 1331 -1 32 -1 13 -1 77 -1 599 -1 10934 -1 64 -1 22 -1 2267 -1 30 -2
123 -1 407 -1 638 -1 1184 -1 852 -1 64 -1 41 -1 31 -1 693 -1 76 -1 30 -2
27 -1 123 -1 407 -1 3451 -1 937 -1 206 -1 154 -1 77 -1 356 -1 105977 -1 630 -1 77 -1 193 -1 66 -1 1210 -1 872 -1 64 -1 5866 -1 786 -1 31 -1 369 -1 41 -1 183 -1 30 -2
31 -1 22 -1 9044 -1 76 -1 123 -1 648 -1 233 -1 30 -2
123 -1 1672 -1 286 -1 364 -1 2991 -1 10 -1 1478 -1 262 -1 77 -1 599 -1 364 -1 10 -1 22 -1 132 -1 5127 -1 30 -2
117 -1 124 -1 4380 -1 22 -1 549 -1 33 -1 50 -1 9181 -1 123 -1 210 -1 1757 -1 411 -1 4188 -1 168 -1 1712 -1 77 -1 599 -1 123 -1 391 -1 233 -1 938 -1 3466 -1 50 -1 30 -2
123 -1 1216 -1 3800 -1 164 -1 65 -1 1219 -1 32 -1 22 -1 852 -1 22 -1 1174 -1 973 -1 77 -1 2 -1 693 -1 32 -1 22 -1 4832 -1 520 -1 1241 -1 30 -2
123 -1 1164 -1 123 -1 284 -1 67 -1 151 -1 4444 -1 77 -1 151 -1 2545 -1 77 -1 151 -1 2316 -1 77 -1 2 -1 123 -1 286 -1 123 -1 1164 -1 123 -1 284 -1 441 -1 66 -1 30 -2
14050 -1 27563 -1 46034 -1 1216 -1 171 -1 32 -1 50 -1 186 -1 3553 -1 908 -1 879 -1 283 -2
1653 -1 123 -1 120 -1 441 -1 175 -1 17794 -1 64 -1 711 -1 291 -1 22 -1 173 -1 77 -1 123 -1 340 -1 295 -1 291 -1 703 -1 30 -2
123 -1 1150 -1 391 -1 77 -1 599 -1 123 -1 120 -1 340 -1 236 -1 201 -1 170 -1 1741 -1 198 -1 201 -1 154 -1 165 -1 64 -1 22 -1 4193 -1 41 -1 2009 -1 30 -2
508 -1 200 -1 369 -1 284 -1 3800 -1 164 -1 852 -1 32 -1 3123 -1 77 -1 1228 -1 256 -1 646 -1 30 -2
123 -1 2525 -1 591 -1 77 -1 5642 -1 349 -1 120 -1 7181 -1 77 -1 765 -1 3386 -1 167 -1 140 -1 8265 -1 1409 -1 212 -1 1210 -1 198 -1 32 -1 50 -1 595 -1 30 -2
236 -1 443 -1 711 -1 465 -1 3642 -1 123 -1 543 -1 591 -1 2808 -1 77 -1 657 -1 170 -1 65 -1 1465 -1 31500 -1 599 -1 529 -1 65 -1 1104 -1 30 -2
123 -1 210 -1 613 -1 64 -1 67 -1 10 -1 65 -1 3919 -1 75 -1 308 -1 189 -1 77 -1 2 -1 123 -1 1758 -1 356 -1 193 -1 165 -1 260 -1 5060 -1 22 -1 9464 -1 154 -1 7 -1 3 -1 10 -1 50 -1 13 -1 1685 -1 50 -1 49 -1 171 -1 1252 -1 309 -1 408 -1 397 -1 30 -2
1361 -1 269 -1 395 -1 2010 -1 700 -1 64 -1 30 -2
193 -1 2366 -1 67 -1 1184 -1 77 -1 951 -1 212 -1 151 -1 3731 -1 77 -1 2 -1 364 -1 2134 -1 150 -1 64 -1 6111 -1 3508 -1 200 -1 260 -1 1210 -1 535 -1 222 -1 30 -2
520 -1 123 -1 1867 -1 1220 -1 77 -1 193 -1 170 -1 65 -1 720 -1 871 -1 30 -2
123 -1 1438 -1 655 -1 65 -1 1184 -1 6 -1 262 -1 2688 -1 674 -1 164 -1 65 -1 46 -1 154 -1 123 -1 477 -1 64 -1 67 -1 326 -1 11 -1 30 -2
47 -1 2943 -1 458 -1 77 -1 1790 -1 164 -1 22 -1 960 -1 154 -1 443 -1 1674 -1 2470 -1 2 -1 6717 -1 909 -1 162 -1 443 -1 34105 -1 664 -1 212 -1 65 -1 5183 -1 1441 -1 31 -1 41 -1 549 -1 77 -1 183 -1 41 -1 773 -1 64 -1 11256 -1 29 -1 525 -1 256 -1 21593 -1 164 -1 8027 -1 1 -2
693 -1 2800 -1 77 -1 13026 -1 4292 -1 77 -1 123 -1 924 -1 1382 -1 38635 -1 77 -1 1127 -1 924 -1 356 -1 65 -1 2256 -1 77 -1 2 -1 1225 -1 123 -1 391 -1 1413 -1 22 -1 473 -1 64 -1 322 -1 27 -1 50 -1 4384 -1 170 -1 77 -1 599 -1 262 -1 170 -1 3336 -1 285 -1 123 -1 1758 -1 291 -1 13 -1 30 -2
193 -1 2284 -1 16714 -1 77 -1 2091 -1 1685 -1 123 -1 407 -1 1650 -1 193 -1 1486 -1 64 -1 7026 -1 430 -1 3379 -1 10 -1 1459 -1 153 -1 10 -1 30 -2
123 -1 220 -1 5480 -1 262 -1 30 -2
123 -1 1867 -1 123 -1 1313 -1 8789 -1 77 -1 2091 -1 674 -1 10 -1 21611 -1 77 -1 65 -1 1219 -1 32 -1 82 -1 123 -1 212 -1 1913 -1 2877 -1 66 -1 22 -1 880 -1 8613 -1 30 -2
693 -1 123 -1 340 -1 2 -1 520 -1 278 -1 1166 -1 123 -1 120 -1 77 -1 520 -1 123 -1 212 -1 176 -1 3573 -1 225 -1 30 -2
364 -1 437 -1 3429 -1 724 -1 5432 -1 2 -1 35100 -1 10 -1 13390 -1 30 -2
3956 -1 3812 -1 6113 -1 32 -1 22 -1 5951 -1 77 -1 364 -1 105978 -1 262 -1 3120 -1 31 -1 78 -1 608 -1 78 -1 123 -1 220 -1 42 -1 22 -1 7112 -1 170 -1 2793 -1 30 -2
117 -1 22 -1 30 -2
50 -1 602 -1 170 -1 4540 -1 12184 -1 77 -1 123 -1 593 -1 499 -1 655 -1 6739 -1 444 -1 123 -1 593 -1 2034 -1 65 -1 2186 -1 32 -1 9405 -1 17577 -1 4588 -1 77 -1 244 -1 2643 -1 154 -1 123 -1 441 -1 196 -1 278 -1 152 -1 1062 -1 50 -1 863 -1 2 -1 423 -1 5241 -1 65 -1 871 -1 602 -1 30 -2
3180 -1 50 -1 30 -2
123 -1 1364 -1 164 -1 652 -1 384 -1 66 -1 32 -1 262 -1 30 -2
78 -1 1166 -1 441 -1 973 -1 10 -1 213 -1 3494 -1 77 -1 193 -1 260 -1 701 -1 64 -1 67 -1 326 -1 5515 -1 154 -1 22 -1 2010 -1 123 -1 483 -1 3378 -1 19532 -1 30 -2
2515 -1 349 -1 1834 -1 64 -1 67 -1 2542 -1 152 -1 3403 -1 78 -1 30 -2
228 -1 170 -1 50 -1 544 -1 1867 -1 77 -1 65 -1 431 -1 2192 -1 7556 -1 94 -1 77 -1 193 -1 206 -1 14860 -1 30 -2