123 -1 286 -1 193 -1 170 -1 845 -1 2559 -1 154 -1 1318 -1 66 -1 48 -1 280 -1 441 -1 157615 -1 30 -2
2269 -1 193 -1 198 -1 22 -1 3107 -1 441 -1 193 -1 22 -1 157615 -1 465 -1 59522 -1 157616 -1 1896 -1 16945 -1 6025 -1 123 -1 1034 -1 27 -1 193 -1 866 -1 356 -1 30 -2
123 -1 223 -1 924 -1 356 -1 123 -1 206 -1 674 -1 10 -1 65 -1 4941 -1 2326 -1 2 -1 197 -1 2 -1 1127 -1 224 -1 222 -1 206 -1 540 -1 65 -1 259 -1 154 -1 123 -1 1705 -1 1364 -1 164 -1 30 -2
212 -1 340 -1 154 -1 1749 -1 326 -1 48 -1 30 -2
8 -1 4556 -1 2043 -1 2040 -1 1440 -1 157617 -1 25462 -1 2040 -1 644 -1 157618 -1 123 -1 334 -1 171 -1 77 -1 599 -1 123 -1 8621 -1 11320 -1 31 -1 228 -1 30 -2
1653 -1 77 -1 18154 -1 220 -1 1313 -1 91528 -1 196 -1 30 -2
70 -1 1486 -1 244 -1 193 -1 2104 -1 30 -2
41 -1 441 -1 11023 -1 78 -1 29 -1 2961 -1 4827 -1 2 -1 29 -1 3131 -1 1000 -1 170 -1 326 -1 12688 -1 11596 -1 65 -1 157619 -1 2338 -1 30 -2
126 -1 41 -1 212 -1 157620 -1 197 -1 164 -1 29 -1 9513 -1 147778 -1 2 -1 244 -1 23401 -1 164 -1 65 -1 10766 -1 30 -2
123 -1 165 -1 765 -1 7950 -1 170 -1 1672 -1 326 -1 228 -1 2 -1 3096 -1 326 -1 48 -1 30 -2
1653 -1 77 -1 123 -1 165 -1 441 -1 64 -1 3503 -1 154 -1 22 -1 1105 -1 220 -1 67 -1 9572 -1 164 -1 3062 -1 30 -2
7950 -1 701 -1 64 -1 1992 -1 755 -1 228 -1 2 -1 5 -1 30 -2
3096 -1 701 -1 64 -1 144 -1 30 -2
1039 -1 1166 -1 2031 -1 30 -2
123 -1 441 -1 3 -1 3801 -1 164 -1 262 -1 861 -1 31 -1 65 -1 138 -1 30 -2
123 -1 174 -1 656 -1 64 -1 268 -1 64 -1 22 -1 2913 -1 32 -1 50 -1 14195 -1 2 -1 50 -1 699 -1 4867 -1 32 -1 6773 -1 64 -1 22 -1 1607 -1 8957 -1 30 -2
50 -1 239 -1 1084 -1 183 -1 154 -1 123 -1 1672 -1 30 -2
29878 -1 38856 -1 2 -1 2062 -1 164 -1 47974 -1 113 -1 10 -1 22 -1 306 -1 30 -2
1914 -1 16817 -1 7215 -1 701 -1 356 -1 22 -1 686 -1 417 -1 64 -1 2009 -1 193 -1 283 -2
364 -1 517 -1 1030 -1 1191 -1 236 -1 50 -1 28661 -1 183 -1 308 -1 2 -1 225 -1 212 -1 8587 -1 318 -1 9737 -1 162 -1 123 -1 1335 -1 167 -1 157621 -1 236 -1 364 -1 11182 -1 30 -2
144 -1 213 -1 48 -1 280 -1 441 -1 262 -1 663 -1 1 -2
285 -1 144 -1 41 -1 268 -1 655 -1 193 -1 1 -2
157622 -1 50 -1 1249 -1 30 -2
154 -1 170 -1 571 -1 1649 -1 2 -1 5768 -1 30 -2
246 -1 77 -1 27051 -1 183 -1 4381 -1 1003 -1 154 -1 220 -1 8958 -1 318 -1 9276 -1 64 -1 268 -1 27 -1 349 -1 160 -1 30 -2
364 -1 821 -1 41 -1 1364 -1 164 -1 22 -1 1171 -1 889 -1 30 -2
123 -1 286 -1 349 -1 711 -1 603 -1 668 -1 283 -2
123 -1 391 -1 3272 -1 171 -1 520 -1 123 -1 1913 -1 3631 -1 291 -1 65 -1 2161 -1 75 -1 30 -2
869 -1 533 -1 77 -1 871 -1 2398 -1 32 -1 4333 -1 3035 -1 154 -1 1281 -1 164 -1 175 -1 156 -1 30 -2
193 -1 1126 -1 33 -1 285 -1 30 -2
228 -1 77 -1 683 -1 77 -1 1641 -1 77 -1 5 -1 123 -1 220 -1 1672 -1 268 -1 1790 -1 246 -1 164 -1 1741 -1 599 -1 123 -1 3387 -1 3322 -1 2205 -1 3567 -1 30 -2
78 -1 1241 -1 78 -1 1739 -1 499 -1 77 -1 1521 -1 1171 -1 280 -1 711 -1 222 -1 1758 -1 3013 -1 2 -1 36561 -1 30 -2
123 -1 120 -1 863 -1 381 -1 30 -2
123 -1 174 -1 529 -1 326 -1 29633 -1 77 -1 117 -1 538 -1 123 -1 648 -1 477 -1 193 -1 599 -1 193 -1 7 -1 1743 -1 1067 -1 2094 -1 2 -1 189 -1 364 -1 8969 -1 30 -2
49 -1 3340 -1 201 -1 206 -1 65 -1 269 -1 1244 -1 32 -1 2001 -1 2 -1 1824 -1 10 -1 50 -1 756 -1 438 -1 30 -2
123 -1 1150 -1 30 -2
262 -1 1417 -1 64 -1 222 -1 162 -1 123 -1 206 -1 3466 -1 50 -1 524 -1 30 -2
50 -1 526 -1 375 -1 2563 -1 54663 -1 17593 -1 2 -1 123 -1 938 -1 64 -1 1729 -1 50 -1 2156 -1 64 -1 1166 -1 30 -2
193 -1 1205 -1 49 -1 3784 -1 77 -1 599 -1 70 -1 276 -1 41 -1 226 -1 441 -1 64 -1 756 -1 30 -2
1574 -1 31 -1 703 -1 30 -2
285 -1 2456 -1 144 -1 41 -1 734 -1 225 -1 1 -2
206 -1 201 -1 175 -1 3411 -1 2250 -1 41 -1 183 -1 25325 -1 32 -1 225 -1 154 -1 826 -1 41 -1 5403 -1 1 -2
123 -1 527 -1 734 -1 1741 -1 176 -1 30 -2
193 -1 451 -1 65 -1 431 -1 608 -1 30 -2
123 -1 1758 -1 356 -1 123 -1 2151 -1 536 -1 2 -1 4663 -1 77 -1 657 -1 170 -1 143 -1 140 -1 50 -1 438 -1 30 -2
78 -1 65 -1 3856 -1 123 -1 206 -1 431 -1 384 -1 22 -1 526 -1 8960 -1 599 -1 189 -1 154 -1 123 -1 174 -1 10 -1 1459 -1 193 -1 170 -1 151 -1 1250 -1 64 -1 67 -1 531 -1 8960 -1 30 -2
123 -1 286 -1 66 -1 30 -2
123 -1 1713 -1 64 -1 262 -1 520 -1 384 -1 321 -1 123 -1 334 -1 171 -1 32 -1 430 -1 3676 -1 1193 -1 32 -1 276 -1 123 -1 1348 -1 1069 -1 30 -2
1432 -1 33 -1 157623 -1 123 -1 1797 -1 262 -1 198 -1 2 -1 123 -1 120 -1 340 -1 236 -1 70 -1 887 -1 31 -1 197 -1 30 -2
123 -1 165 -1 613 -1 2202 -1 30 -2
823 -1 283 -2
156 -1 4524 -1 48 -1 151420 -1 1264 -1 30 -2
856 -1 41 -1 262 -1 1973 -1 65 -1 1219 -1 30 -2
193 -1 548 -1 955 -1 30 -2
123 -1 1758 -1 356 -1 50 -1 3622 -1 1907 -1 64 -1 499 -1 655 -1 65 -1 4004 -1 26392 -1 1306 -1 30 -2
1737 -1 64 -1 1841 -1 2041 -1 1 -2
964 -1 30 -2
154 -1 848 -1 1313 -1 151 -1 1223 -1 153 -1 524 -1 30 -2
123 -1 407 -1 588 -1 154 -1 123 -1 441 -1 64 -1 405 -1 655 -1 2 -1 4922 -1 22 -1 1984 -1 8808 -1 64 -1 142 -1 64 -1 326 -1 887 -1 16138 -1 32 -1 27 -1 2057 -1 1271 -1 61 -1 30 -2
657 -1 170 -1 30 -2
123 -1 529 -1 441 -1 22 -1 1441 -1 32 -1 162 -1 64 -1 734 -1 29 -1 6794 -1 152 -1 16 -1 30 -2
123 -1 286 -1 236 -1 41 -1 183 -1 10 -1 65 -1 2314 -1 1845 -1 32 -1 863 -1 2 -1 268 -1 22 -1 1039 -1 154 -1 200 -1 170 -1 2910 -1 4199 -1 244 -1 41 -1 220 -1 734 -1 193 -1 30 -2
123 -1 174 -1 223 -1 1607 -1 30 -2
123 -1 286 -1 123 -1 441 -1 3 -1 5536 -1 1238 -1 1166 -1 525 -1 599 -1 123 -1 338 -1 8311 -1 154 -1 1475 -1 201 -1 30 -2
31 -1 439 -1 77 -1 123 -1 226 -1 2940 -1 237 -1 65 -1 372 -1 444 -1 225 -1 226 -1 67 -1 8671 -1 2 -1 123 -1 1758 -1 22 -1 4615 -1 2 -1 477 -1 30 -2
123 -1 286 -1 443 -1 144 -1 66 -1 1834 -1 64 -1 441 -1 65 -1 1245 -1 54175 -1 64 -1 704 -1 3107 -1 30 -2
262 -1 1331 -1 170 -1 65 -1 561 -1 408 -1 394 -1 599 -1 642 -1 246 -1 30 -2
3107 -1 120 -1 1062 -1 384 -1 157624 -1 146 -1 375 -1 692 -1 224 -1 77 -1 123 -1 764 -1 64 -1 425 -1 6506 -1 50 -1 756 -1 30 -2
498 -1 123 -1 3756 -1 657 -1 737 -1 441 -1 528 -1 1812 -1 2813 -1 30 -2
50 -1 1441 -1 13901 -1 30 -2
123 -1 441 -1 65 -1 804 -1 76 -1 1480 -1 1896 -1 30 -2
27 -1 848 -1 32909 -1 543 -1 356 -1 755 -1 22 -1 241 -1 157 -1 1 -2
123 -1 174 -1 2091 -1 944 -1 10 -1 285 -1 6611 -1 1812 -1 157 -1 1314 -1 22 -1 219 -1 535 -1 5115 -1 64 -1 318 -1 211 -1 2370 -1 2 -1 6233 -1 318 -1 317 -1 30 -2
123 -1 1913 -1 721 -1 326 -1 228 -1 796 -1 77 -1 599 -1 123 -1 286 -1 154 -1 22 -1 4384 -1 170 -1 22 -1 3366 -1 5492 -1 32 -1 241 -1 30 -2
596 -1 170 -1 1429 -1 30 -2
364 -1 326 -1 5562 -1 65 -1 3235 -1 65 -1 720 -1 32 -1 65 -1 11040 -1 584 -1 157625 -1 30 -2
452 -1 285 -1 123 -1 2195 -1 193 -1 30 -2
201 -1 170 -1 276 -1 512 -1 291 -1 228 -1 1351 -1 31 -1 381 -1 520 -1 4444 -1 77 -1 70 -1 356 -1 349 -1 835 -1 318 -1 1139 -1 13153 -1 2 -1 30 -2
452 -1 672 -1 77 -1 70 -1 8644 -1 30 -2
468 -1 77 -1 123 -1 1672 -1 356 -1 64 -1 752 -1 228 -1 280 -1 123032 -1 64 -1 835 -1 318 -1 2002 -1 2811 -1 30 -2
262 -1 539 -1 64 -1 67 -1 326 -1 1547 -1 30 -2
518 -1 50 -1 584 -1 5238 -1 3445 -1 123 -1 205 -1 154 -1 123 -1 5499 -1 693 -1 30 -2
1657 -1 1893 -1 30 -2
3655 -1 30 -1 1 -2
228 -1 280 -1 183 -1 10517 -1 20046 -1 33 -1 22 -1 2944 -1 599 -1 254 -1 201 -1 241 -1 170 -1 652 -1 384 -1 356 -1 262 -1 30 -2
4047 -1 27 -1 41 -1 4047 -1 30 -2
7924 -1 446 -1 291 -1 19088 -1 15936 -1 41 -1 2521 -1 29 -1 3775 -1 30 -2
123 -1 593 -1 2521 -1 759 -1 30 -2
22 -1 372 -1 44634 -1 77 -1 78 -1 443 -1 268 -1 3271 -1 30 -2
2681 -1 2 -1 18670 -1 3107 -1 32 -1 65 -1 3775 -1 77 -1 752 -1 22 -1 2343 -1 9 -1 16111 -1 46585 -1 6100 -1 29881 -1 157626 -1 9 -1 16111 -1 6119 -1 6100 -1 28935 -1 157627 -1 30 -2
10223 -1 170 -1 48 -1 283 -2
41 -1 559 -1 65 -1 720 -1 356 -1 326 -1 1896 -1 30 -2
364 -1 326 -1 526 -1 3131 -1 48 -1 30 -2
123 -1 174 -1 1002 -1 285 -1 1177 -1 945 -1 10 -1 1641 -1 1 -2
1177 -1 170 -1 171 -1 32 -1 22 -1 15 -1 804 -1 17519 -1 31 -1 222 -1 64 -1 9122 -1 30 -2
364 -1 431 -1 6268 -1 599 -1 123 -1 174 -1 529 -1 1067 -1 3045 -1 30 -2
322 -1 77 -1 123 -1 206 -1 212 -1 3045 -1 308 -1 201 -1 30 -2
48 -1 381 -1 3045 -1 30 -2
3466 -1 50 -1 524 -1 7 -1 2617 -1 463 -1 198 -1 50 -1 274 -1 1271 -1 4172 -1 30 -2
123 -1 2301 -1 64 -1 67 -1 30 -2
48 -1 280 -1 120 -1 3279 -1 10 -1 830 -1 30 -2
228 -1 280 -1 226 -1 1265 -1 2 -1 8272 -1 318 -1 6643 -1 30 -2
349 -1 183 -1 5820 -1 291 -1 27 -1 349 -1 483 -1 1485 -1 10 -1 30 -2
48 -1 280 -1 613 -1 64 -1 67 -1 16091 -1 77 -1 2091 -1 162 -1 349 -1 340 -1 213 -1 6643 -1 30 -1 283 -2
2006 -1 2422 -1 283 -2
210 -1 27 -1 291 -1 1263 -1 3028 -1 280 -1 164 -1 895 -1 667 -1 524 -1 157628 -1 286 -1 6808 -1 170 -1 22 -1 678 -1 30 -2
126 -1 3028 -1 280 -1 154 -1 28559 -1 5338 -1 384 -1 151 -1 1039 -1 7857 -1 152 -1 233 -1 7856 -1 31 -1 22 -1 3405 -1 30 -2
48 -1 6808 -1 11 -1 280 -1 2813 -1 33 -1 1160 -1 9983 -1 32 -1 1480 -1 30 -2
154 -1 384 -1 170 -1 1216 -1 964 -1 30 -2
70 -1 672 -1 123 -1 1758 -1 787 -1 117 -1 82 -1 196 -1 30 -2
123 -1 286 -1 29 -1 13193 -1 170 -1 189 -1 30 -2
202 -1 567 -1 764 -1 64 -1 636 -1 7657 -1 42 -1 29 -1 3473 -1 30 -2
123 -1 120 -1 286 -1 70 -1 1429 -1 30 -2
654 -1 65 -1 302 -1 154 -1 3535 -1 2897 -1 27029 -1 77 -1 193 -1 488 -1 30 -2
123 -1 511 -1 64 -1 1034 -1 411 -1 30 -2
123 -1 511 -1 64 -1 238 -1 164 -1 4126 -1 77 -1 7305 -1 2 -1 6246 -1 30 -2
123 -1 160 -1 64 -1 483 -1 65 -1 417 -1 64 -1 1737 -1 291 -1 1166 -1 1533 -1 2096 -1 27 -1 349 -1 286 -1 291 -1 222 -1 30 -2
123 -1 160 -1 64 -1 67 -1 2192 -1 256 -1 1824 -1 30 -2