2 -1 #SUP: 27
3 -1 #SUP: 2
5 -1 #SUP: 3
10 -1 #SUP: 19
13 -1 #SUP: 2
15 -1 #SUP: 3
16 -1 #SUP: 15
22 -1 #SUP: 34
27 -1 #SUP: 6
29 -1 #SUP: 6
31 -1 #SUP: 14
32 -1 #SUP: 26
33 -1 #SUP: 7
39 -1 #SUP: 3
41 -1 #SUP: 25
42 -1 #SUP: 2
46 -1 #SUP: 4
50 -1 #SUP: 20
54 -1 #SUP: 8
63 -1 #SUP: 2
64 -1 #SUP: 61
65 -1 #SUP: 26
66 -1 #SUP: 11
67 -1 #SUP: 8
68 -1 #SUP: 3
70 -1 #SUP: 16
73 -1 #SUP: 4
75 -1 #SUP: 2
76 -1 #SUP: 4
77 -1 #SUP: 46
78 -1 #SUP: 8
81 -1 #SUP: 3
117 -1 #SUP: 7
120 -1 #SUP: 8
123 -1 #SUP: 95
126 -1 #SUP: 3
132 -1 #SUP: 5
134 -1 #SUP: 4
138 -1 #SUP: 2
142 -1 #SUP: 4
144 -1 #SUP: 9
145 -1 #SUP: 2
147 -1 #SUP: 2
151 -1 #SUP: 5
152 -1 #SUP: 8
154 -1 #SUP: 37
158 -1 #SUP: 4
160 -1 #SUP: 2
162 -1 #SUP: 7
164 -1 #SUP: 17
165 -1 #SUP: 4
167 -1 #SUP: 6
168 -1 #SUP: 5
170 -1 #SUP: 16
171 -1 #SUP: 7
183 -1 #SUP: 13
189 -1 #SUP: 2
190 -1 #SUP: 2
193 -1 #SUP: 28
196 -1 #SUP: 5
198 -1 #SUP: 5
200 -1 #SUP: 7
205 -1 #SUP: 3
206 -1 #SUP: 11
212 -1 #SUP: 7
213 -1 #SUP: 4
220 -1 #SUP: 9
221 -1 #SUP: 2
222 -1 #SUP: 17
223 -1 #SUP: 3
224 -1 #SUP: 2
225 -1 #SUP: 9
226 -1 #SUP: 6
233 -1 #SUP: 3
236 -1 #SUP: 5
239 -1 #SUP: 2
243 -1 #SUP: 2
244 -1 #SUP: 3
246 -1 #SUP: 3
248 -1 #SUP: 2
252 -1 #SUP: 2
254 -1 #SUP: 8
256 -1 #SUP: 3
260 -1 #SUP: 3
262 -1 #SUP: 9
268 -1 #SUP: 8
274 -1 #SUP: 3
278 -1 #SUP: 4
280 -1 #SUP: 4
285 -1 #SUP: 6
286 -1 #SUP: 15
291 -1 #SUP: 8
308 -1 #SUP: 5
309 -1 #SUP: 2
318 -1 #SUP: 5
326 -1 #SUP: 17
334 -1 #SUP: 4
340 -1 #SUP: 9
349 -1 #SUP: 6
356 -1 #SUP: 15
364 -1 #SUP: 8
365 -1 #SUP: 4
381 -1 #SUP: 7
383 -1 #SUP: 2
384 -1 #SUP: 5
407 -1 #SUP: 5
416 -1 #SUP: 3
431 -1 #SUP: 8
441 -1 #SUP: 10
443 -1 #SUP: 5
452 -1 #SUP: 5
468 -1 #SUP: 2
483 -1 #SUP: 3
498 -1 #SUP: 4
499 -1 #SUP: 2
505 -1 #SUP: 5
517 -1 #SUP: 7
519 -1 #SUP: 3
520 -1 #SUP: 7
536 -1 #SUP: 5
538 -1 #SUP: 5
544 -1 #SUP: 2
547 -1 #SUP: 12
548 -1 #SUP: 5
566 -1 #SUP: 13
567 -1 #SUP: 2
571 -1 #SUP: 3
590 -1 #SUP: 2
591 -1 #SUP: 2
599 -1 #SUP: 32
613 -1 #SUP: 7
637 -1 #SUP: 5
638 -1 #SUP: 5
646 -1 #SUP: 2
648 -1 #SUP: 2
650 -1 #SUP: 2
652 -1 #SUP: 8
653 -1 #SUP: 2
654 -1 #SUP: 3
657 -1 #SUP: 2
668 -1 #SUP: 3
683 -1 #SUP: 5
686 -1 #SUP: 2
700 -1 #SUP: 3
711 -1 #SUP: 4
749 -1 #SUP: 2
753 -1 #SUP: 2
756 -1 #SUP: 4
765 -1 #SUP: 7
768 -1 #SUP: 4
778 -1 #SUP: 2
781 -1 #SUP: 2
804 -1 #SUP: 3
826 -1 #SUP: 2
845 -1 #SUP: 2
850 -1 #SUP: 2
852 -1 #SUP: 2
863 -1 #SUP: 4
872 -1 #SUP: 2
911 -1 #SUP: 2
921 -1 #SUP: 2
924 -1 #SUP: 2
951 -1 #SUP: 6
960 -1 #SUP: 2
964 -1 #SUP: 2
965 -1 #SUP: 2
1039 -1 #SUP: 2
1051 -1 #SUP: 2
1062 -1 #SUP: 2
1067 -1 #SUP: 3
1126 -1 #SUP: 2
1146 -1 #SUP: 3
1150 -1 #SUP: 2
1166 -1 #SUP: 5
1193 -1 #SUP: 5
1205 -1 #SUP: 3
1208 -1 #SUP: 2
1214 -1 #SUP: 4
1219 -1 #SUP: 2
1225 -1 #SUP: 3
1314 -1 #SUP: 2
1318 -1 #SUP: 2
1321 -1 #SUP: 2
1335 -1 #SUP: 2
1433 -1 #SUP: 4
1441 -1 #SUP: 2
1442 -1 #SUP: 2
1478 -1 #SUP: 3
1487 -1 #SUP: 2
1533 -1 #SUP: 2
1574 -1 #SUP: 2
1591 -1 #SUP: 2
1650 -1 #SUP: 2
1672 -1 #SUP: 4
1685 -1 #SUP: 4
1758 -1 #SUP: 4
1834 -1 #SUP: 3
1845 -1 #SUP: 2
1874 -1 #SUP: 2
1896 -1 #SUP: 2
1897 -1 #SUP: 2
1899 -1 #SUP: 4
1913 -1 #SUP: 4
1953 -1 #SUP: 2
2091 -1 #SUP: 4
2366 -1 #SUP: 2
2555 -1 #SUP: 2
2643 -1 #SUP: 2
2894 -1 #SUP: 2
2910 -1 #SUP: 2
2958 -1 #SUP: 2
3006 -1 #SUP: 3
3336 -1 #SUP: 2
3430 -1 #SUP: 2
4087 -1 #SUP: 3
4377 -1 #SUP: 4
4550 -1 #SUP: 2
7966 -1 #SUP: 2
8270 -1 #SUP: 2
8628 -1 #SUP: 2
8776 -1 #SUP: 2
2 -1 2 -1 #SUP: 2
2 -1 10 -1 #SUP: 4
2 -1 15 -1 #SUP: 2
2 -1 16 -1 #SUP: 2
2 -1 22 -1 #SUP: 8
2 -1 27 -1 #SUP: 2
2 -1 32 -1 #SUP: 4
2 -1 41 -1 #SUP: 2
2 -1 64 -1 #SUP: 8
2 -1 65 -1 #SUP: 2
2 -1 70 -1 #SUP: 5
2 -1 77 -1 #SUP: 4
2 -1 123 -1 #SUP: 4
2 -1 154 -1 #SUP: 2
2 -1 164 -1 #SUP: 2
2 -1 170 -1 #SUP: 2
2 -1 196 -1 #SUP: 2
2 -1 221 -1 #SUP: 2
2 -1 222 -1 #SUP: 2
2 -1 226 -1 #SUP: 2
2 -1 278 -1 #SUP: 2
2 -1 356 -1 #SUP: 2
2 -1 505 -1 #SUP: 2
2 -1 517 -1 #SUP: 2
2 -1 520 -1 #SUP: 2
2 -1 566 -1 #SUP: 3
2 -1 599 -1 #SUP: 2
2 -1 1166 -1 #SUP: 2
2 -1 1225 -1 #SUP: 2
5 -1 2 -1 #SUP: 2
10 -1 2 -1 #SUP: 2
10 -1 22 -1 #SUP: 4
10 -1 32 -1 #SUP: 4
10 -1 41 -1 #SUP: 2
10 -1 50 -1 #SUP: 2
10 -1 64 -1 #SUP: 2
10 -1 66 -1 #SUP: 2
10 -1 76 -1 #SUP: 2
10 -1 77 -1 #SUP: 3
10 -1 123 -1 #SUP: 4
10 -1 132 -1 #SUP: 2
10 -1 164 -1 #SUP: 2
10 -1 170 -1 #SUP: 2
10 -1 226 -1 #SUP: 3
10 -1 262 -1 #SUP: 2
10 -1 356 -1 #SUP: 2
10 -1 365 -1 #SUP: 2
10 -1 381 -1 #SUP: 2
10 -1 599 -1 #SUP: 2
10 -1 650 -1 #SUP: 2
10 -1 683 -1 #SUP: 2
10 -1 863 -1 #SUP: 2
10 -1 3430 -1 #SUP: 2
15 -1 32 -1 #SUP: 2
16 -1 22 -1 #SUP: 2
16 -1 50 -1 #SUP: 2
16 -1 64 -1 #SUP: 2
16 -1 66 -1 #SUP: 3
16 -1 77 -1 #SUP: 2
16 -1 154 -1 #SUP: 2
16 -1 183 -1 #SUP: 3
16 -1 246 -1 #SUP: 2
16 -1 599 -1 #SUP: 3
16 -1 960 -1 #SUP: 2
16 -1 4377 -1 #SUP: 2
22 -1 2 -1 #SUP: 4
22 -1 10 -1 #SUP: 2
22 -1 16 -1 #SUP: 4
22 -1 22 -1 #SUP: 6
22 -1 31 -1 #SUP: 3
22 -1 32 -1 #SUP: 6
22 -1 41 -1 #SUP: 3
22 -1 54 -1 #SUP: 3
22 -1 64 -1 #SUP: 11
22 -1 70 -1 #SUP: 3
22 -1 75 -1 #SUP: 2
22 -1 76 -1 #SUP: 3
22 -1 77 -1 #SUP: 5
22 -1 117 -1 #SUP: 2
22 -1 123 -1 #SUP: 7
22 -1 132 -1 #SUP: 3
22 -1 152 -1 #SUP: 2
22 -1 154 -1 #SUP: 6
22 -1 167 -1 #SUP: 2
22 -1 170 -1 #SUP: 4
22 -1 183 -1 #SUP: 3
22 -1 193 -1 #SUP: 3
22 -1 196 -1 #SUP: 2
22 -1 200 -1 #SUP: 3
22 -1 205 -1 #SUP: 2
22 -1 206 -1 #SUP: 2
22 -1 222 -1 #SUP: 3
22 -1 225 -1 #SUP: 2
22 -1 291 -1 #SUP: 3
22 -1 308 -1 #SUP: 2
22 -1 318 -1 #SUP: 2
22 -1 326 -1 #SUP: 3
22 -1 538 -1 #SUP: 2
22 -1 566 -1 #SUP: 2
22 -1 599 -1 #SUP: 3
22 -1 700 -1 #SUP: 2
22 -1 1314 -1 #SUP: 2
27 -1 2 -1 #SUP: 2
27 -1 22 -1 #SUP: 2
27 -1 39 -1 #SUP: 2
27 -1 41 -1 #SUP: 3
27 -1 77 -1 #SUP: 2
27 -1 334 -1 #SUP: 2
29 -1 13 -1 #SUP: 2
29 -1 64 -1 #SUP: 2
29 -1 154 -1 #SUP: 2
31 -1 2 -1 #SUP: 2
31 -1 64 -1 #SUP: 4
31 -1 65 -1 #SUP: 3
31 -1 138 -1 #SUP: 2
31 -1 154 -1 #SUP: 2
31 -1 164 -1 #SUP: 2
31 -1 222 -1 #SUP: 2
31 -1 268 -1 #SUP: 2
31 -1 1533 -1 #SUP: 2
32 -1 2 -1 #SUP: 3
32 -1 10 -1 #SUP: 2
32 -1 22 -1 #SUP: 6
32 -1 32 -1 #SUP: 3
32 -1 41 -1 #SUP: 5
32 -1 50 -1 #SUP: 3
32 -1 64 -1 #SUP: 9
32 -1 65 -1 #SUP: 2
32 -1 70 -1 #SUP: 2
32 -1 77 -1 #SUP: 7
32 -1 123 -1 #SUP: 5
32 -1 134 -1 #SUP: 3
32 -1 154 -1 #SUP: 3
32 -1 222 -1 #SUP: 6
32 -1 225 -1 #SUP: 2
32 -1 318 -1 #SUP: 2
32 -1 326 -1 #SUP: 4
32 -1 381 -1 #SUP: 2
32 -1 441 -1 #SUP: 3
32 -1 547 -1 #SUP: 3
32 -1 599 -1 #SUP: 4
32 -1 863 -1 #SUP: 2
32 -1 1062 -1 #SUP: 2
32 -1 1314 -1 #SUP: 2
33 -1 22 -1 #SUP: 3
33 -1 117 -1 #SUP: 2
33 -1 285 -1 #SUP: 2
33 -1 318 -1 #SUP: 2
41 -1 2 -1 #SUP: 2
41 -1 10 -1 #SUP: 4
41 -1 16 -1 #SUP: 2
41 -1 22 -1 #SUP: 2
41 -1 29 -1 #SUP: 2
41 -1 31 -1 #SUP: 2
41 -1 32 -1 #SUP: 4
41 -1 33 -1 #SUP: 2
41 -1 41 -1 #SUP: 5
41 -1 54 -1 #SUP: 2
41 -1 64 -1 #SUP: 5
41 -1 65 -1 #SUP: 2
41 -1 77 -1 #SUP: 4
41 -1 78 -1 #SUP: 3
41 -1 123 -1 #SUP: 3
41 -1 154 -1 #SUP: 2
41 -1 164 -1 #SUP: 2
41 -1 167 -1 #SUP: 2
41 -1 183 -1 #SUP: 2
41 -1 190 -1 #SUP: 2
41 -1 193 -1 #SUP: 2
41 -1 212 -1 #SUP: 2
41 -1 220 -1 #SUP: 2
41 -1 226 -1 #SUP: 2
41 -1 286 -1 #SUP: 2
41 -1 308 -1 #SUP: 2
41 -1 326 -1 #SUP: 3
41 -1 334 -1 #SUP: 2
41 -1 441 -1 #SUP: 2
41 -1 547 -1 #SUP: 2
41 -1 683 -1 #SUP: 2
41 -1 960 -1 #SUP: 2
41 -1 1214 -1 #SUP: 2
46 -1 65 -1 #SUP: 2
46 -1 154 -1 #SUP: 3
50 -1 2 -1 #SUP: 4
50 -1 5 -1 #SUP: 2
50 -1 10 -1 #SUP: 3
50 -1 31 -1 #SUP: 2
50 -1 32 -1 #SUP: 3
50 -1 50 -1 #SUP: 2
50 -1 64 -1 #SUP: 5
50 -1 65 -1 #SUP: 3
50 -1 77 -1 #SUP: 3
50 -1 123 -1 #SUP: 4
50 -1 126 -1 #SUP: 2
50 -1 154 -1 #SUP: 2
50 -1 164 -1 #SUP: 2
50 -1 170 -1 #SUP: 5
50 -1 193 -1 #SUP: 2
50 -1 206 -1 #SUP: 2
50 -1 268 -1 #SUP: 2
50 -1 326 -1 #SUP: 2
50 -1 566 -1 #SUP: 3
50 -1 599 -1 #SUP: 3
50 -1 863 -1 #SUP: 2
50 -1 1896 -1 #SUP: 2
50 -1 1899 -1 #SUP: 4
50 -1 1953 -1 #SUP: 2
50 -1 3430 -1 #SUP: 2
54 -1 64 -1 #SUP: 3
54 -1 123 -1 #SUP: 2
63 -1 648 -1 #SUP: 2
64 -1 2 -1 #SUP: 4
64 -1 10 -1 #SUP: 4
64 -1 16 -1 #SUP: 2
64 -1 22 -1 #SUP: 8
64 -1 29 -1 #SUP: 3
64 -1 31 -1 #SUP: 3
64 -1 32 -1 #SUP: 6
64 -1 33 -1 #SUP: 3
64 -1 41 -1 #SUP: 6
64 -1 50 -1 #SUP: 6
64 -1 64 -1 #SUP: 8
64 -1 65 -1 #SUP: 2
64 -1 67 -1 #SUP: 3
64 -1 70 -1 #SUP: 4
64 -1 77 -1 #SUP: 10
64 -1 120 -1 #SUP: 2
64 -1 123 -1 #SUP: 10
64 -1 134 -1 #SUP: 2
64 -1 152 -1 #SUP: 5
64 -1 154 -1 #SUP: 7
64 -1 162 -1 #SUP: 3
64 -1 164 -1 #SUP: 2
64 -1 167 -1 #SUP: 3
64 -1 171 -1 #SUP: 2
64 -1 183 -1 #SUP: 4
64 -1 193 -1 #SUP: 6
64 -1 196 -1 #SUP: 3
64 -1 200 -1 #SUP: 2
64 -1 206 -1 #SUP: 4
64 -1 220 -1 #SUP: 2
64 -1 222 -1 #SUP: 6
64 -1 224 -1 #SUP: 2
64 -1 225 -1 #SUP: 3
64 -1 254 -1 #SUP: 2
64 -1 262 -1 #SUP: 2
64 -1 268 -1 #SUP: 6
64 -1 274 -1 #SUP: 2
64 -1 285 -1 #SUP: 4
64 -1 326 -1 #SUP: 4
64 -1 340 -1 #SUP: 2
64 -1 349 -1 #SUP: 3
64 -1 356 -1 #SUP: 6
64 -1 381 -1 #SUP: 3
64 -1 384 -1 #SUP: 2
64 -1 441 -1 #SUP: 3
64 -1 505 -1 #SUP: 4
64 -1 517 -1 #SUP: 2
64 -1 536 -1 #SUP: 2
64 -1 547 -1 #SUP: 2
64 -1 566 -1 #SUP: 3
64 -1 591 -1 #SUP: 2
64 -1 599 -1 #SUP: 7
64 -1 613 -1 #SUP: 2
64 -1 652 -1 #SUP: 2
64 -1 756 -1 #SUP: 2
64 -1 863 -1 #SUP: 2
64 -1 872 -1 #SUP: 2
64 -1 1166 -1 #SUP: 2
64 -1 1193 -1 #SUP: 2
64 -1 1214 -1 #SUP: 3
64 -1 1314 -1 #SUP: 2
64 -1 1335 -1 #SUP: 2
64 -1 1433 -1 #SUP: 3
64 -1 1533 -1 #SUP: 2
64 -1 1758 -1 #SUP: 3
64 -1 2091 -1 #SUP: 2
64 -1 4377 -1 #SUP: 2
65 -1 2 -1 #SUP: 2
65 -1 10 -1 #SUP: 3
65 -1 16 -1 #SUP: 2
65 -1 22 -1 #SUP: 2
65 -1 32 -1 #SUP: 5
65 -1 46 -1 #SUP: 3
65 -1 64 -1 #SUP: 6
65 -1 65 -1 #SUP: 2
65 -1 66 -1 #SUP: 2
65 -1 67 -1 #SUP: 2
65 -1 77 -1 #SUP: 4
65 -1 78 -1 #SUP: 2
65 -1 117 -1 #SUP: 2
65 -1 123 -1 #SUP: 6
65 -1 138 -1 #SUP: 2
65 -1 154 -1 #SUP: 7
65 -1 168 -1 #SUP: 3
65 -1 170 -1 #SUP: 2
65 -1 193 -1 #SUP: 5
65 -1 222 -1 #SUP: 3
65 -1 225 -1 #SUP: 2
65 -1 254 -1 #SUP: 2
65 -1 326 -1 #SUP: 3
65 -1 340 -1 #SUP: 3
65 -1 381 -1 #SUP: 2
65 -1 547 -1 #SUP: 2
65 -1 548 -1 #SUP: 2
65 -1 566 -1 #SUP: 2
65 -1 599 -1 #SUP: 3
65 -1 637 -1 #SUP: 2
65 -1 1219 -1 #SUP: 2
66 -1 22 -1 #SUP: 6
66 -1 32 -1 #SUP: 2
66 -1 64 -1 #SUP: 2
66 -1 76 -1 #SUP: 2
66 -1 77 -1 #SUP: 2
66 -1 117 -1 #SUP: 2
66 -1 123 -1 #SUP: 2
66 -1 154 -1 #SUP: 3
66 -1 183 -1 #SUP: 3
66 -1 206 -1 #SUP: 2
66 -1 225 -1 #SUP: 2
66 -1 318 -1 #SUP: 2
67 -1 2 -1 #SUP: 2
67 -1 22 -1 #SUP: 2
67 -1 32 -1 #SUP: 2
67 -1 64 -1 #SUP: 3
67 -1 70 -1 #SUP: 2
67 -1 77 -1 #SUP: 2
67 -1 152 -1 #SUP: 2
67 -1 349 -1 #SUP: 2
67 -1 356 -1 #SUP: 3
67 -1 2091 -1 #SUP: 2
68 -1 77 -1 #SUP: 2
68 -1 547 -1 #SUP: 2
70 -1 22 -1 #SUP: 3
70 -1 32 -1 #SUP: 2
70 -1 41 -1 #SUP: 4
70 -1 64 -1 #SUP: 6
70 -1 77 -1 #SUP: 2
70 -1 162 -1 #SUP: 2
70 -1 183 -1 #SUP: 2
70 -1 200 -1 #SUP: 2
70 -1 274 -1 #SUP: 2
70 -1 326 -1 #SUP: 3
70 -1 356 -1 #SUP: 3
70 -1 517 -1 #SUP: 2
70 -1 652 -1 #SUP: 2
70 -1 1672 -1 #SUP: 2
76 -1 64 -1 #SUP: 3
76 -1 117 -1 #SUP: 2
76 -1 206 -1 #SUP: 2
77 -1 2 -1 #SUP: 4
77 -1 16 -1 #SUP: 3
77 -1 22 -1 #SUP: 6
77 -1 31 -1 #SUP: 3
77 -1 32 -1 #SUP: 3
77 -1 33 -1 #SUP: 4
77 -1 41 -1 #SUP: 6
77 -1 46 -1 #SUP: 2
77 -1 50 -1 #SUP: 3
77 -1 64 -1 #SUP: 9
77 -1 65 -1 #SUP: 4
77 -1 66 -1 #SUP: 4
77 -1 67 -1 #SUP: 2
77 -1 70 -1 #SUP: 5
77 -1 77 -1 #SUP: 5
77 -1 81 -1 #SUP: 2
77 -1 117 -1 #SUP: 2
77 -1 123 -1 #SUP: 10
77 -1 151 -1 #SUP: 2
77 -1 152 -1 #SUP: 2
77 -1 154 -1 #SUP: 6
77 -1 162 -1 #SUP: 2
77 -1 164 -1 #SUP: 3
77 -1 168 -1 #SUP: 2
77 -1 170 -1 #SUP: 2
77 -1 193 -1 #SUP: 5
77 -1 200 -1 #SUP: 3
77 -1 222 -1 #SUP: 2
77 -1 225 -1 #SUP: 3
77 -1 260 -1 #SUP: 2
77 -1 285 -1 #SUP: 3
77 -1 286 -1 #SUP: 2
77 -1 318 -1 #SUP: 3
77 -1 326 -1 #SUP: 3
77 -1 340 -1 #SUP: 2
77 -1 349 -1 #SUP: 2
77 -1 356 -1 #SUP: 3
77 -1 431 -1 #SUP: 3
77 -1 547 -1 #SUP: 5
77 -1 566 -1 #SUP: 2
77 -1 591 -1 #SUP: 2
77 -1 599 -1 #SUP: 5
77 -1 638 -1 #SUP: 2
77 -1 657 -1 #SUP: 2
77 -1 765 -1 #SUP: 2
77 -1 863 -1 #SUP: 2
77 -1 1214 -1 #SUP: 2
77 -1 2091 -1 #SUP: 3
78 -1 16 -1 #SUP: 2
78 -1 65 -1 #SUP: 3
78 -1 66 -1 #SUP: 3
78 -1 123 -1 #SUP: 3
78 -1 183 -1 #SUP: 2
78 -1 193 -1 #SUP: 3
78 -1 340 -1 #SUP: 2
81 -1 22 -1 #SUP: 2
81 -1 64 -1 #SUP: 2
120 -1 32 -1 #SUP: 3
120 -1 64 -1 #SUP: 3
120 -1 123 -1 #SUP: 4
120 -1 154 -1 #SUP: 2
120 -1 193 -1 #SUP: 2
120 -1 254 -1 #SUP: 2
120 -1 356 -1 #SUP: 2
120 -1 384 -1 #SUP: 2
120 -1 441 -1 #SUP: 3
123 -1 2 -1 #SUP: 10
123 -1 10 -1 #SUP: 5
123 -1 15 -1 #SUP: 2
123 -1 22 -1 #SUP: 13
123 -1 27 -1 #SUP: 2
123 -1 29 -1 #SUP: 3
123 -1 31 -1 #SUP: 9
123 -1 32 -1 #SUP: 11
123 -1 41 -1 #SUP: 4
123 -1 42 -1 #SUP: 2
123 -1 46 -1 #SUP: 4
123 -1 50 -1 #SUP: 12
123 -1 54 -1 #SUP: 5
123 -1 64 -1 #SUP: 25
123 -1 65 -1 #SUP: 11
123 -1 66 -1 #SUP: 3
123 -1 67 -1 #SUP: 5
123 -1 70 -1 #SUP: 5
123 -1 73 -1 #SUP: 3
123 -1 77 -1 #SUP: 11
123 -1 78 -1 #SUP: 4
123 -1 117 -1 #SUP: 3
123 -1 120 -1 #SUP: 5
123 -1 123 -1 #SUP: 21
123 -1 126 -1 #SUP: 2
123 -1 134 -1 #SUP: 3
123 -1 138 -1 #SUP: 2
123 -1 142 -1 #SUP: 3
123 -1 144 -1 #SUP: 3
123 -1 151 -1 #SUP: 3
123 -1 152 -1 #SUP: 5
123 -1 154 -1 #SUP: 18
123 -1 158 -1 #SUP: 2
123 -1 160 -1 #SUP: 2
123 -1 162 -1 #SUP: 3
123 -1 164 -1 #SUP: 8
123 -1 165 -1 #SUP: 3
123 -1 170 -1 #SUP: 6
123 -1 171 -1 #SUP: 3
123 -1 183 -1 #SUP: 5
123 -1 193 -1 #SUP: 15
123 -1 196 -1 #SUP: 2
123 -1 198 -1 #SUP: 2
123 -1 200 -1 #SUP: 3
123 -1 205 -1 #SUP: 3
123 -1 206 -1 #SUP: 6
123 -1 212 -1 #SUP: 2
123 -1 220 -1 #SUP: 7
123 -1 221 -1 #SUP: 2
123 -1 222 -1 #SUP: 8
123 -1 223 -1 #SUP: 2
123 -1 225 -1 #SUP: 2
123 -1 226 -1 #SUP: 3
123 -1 233 -1 #SUP: 3
123 -1 236 -1 #SUP: 2
123 -1 239 -1 #SUP: 2
123 -1 254 -1 #SUP: 6
123 -1 262 -1 #SUP: 4
123 -1 268 -1 #SUP: 5
123 -1 274 -1 #SUP: 2
123 -1 278 -1 #SUP: 2
123 -1 280 -1 #SUP: 3
123 -1 285 -1 #SUP: 3
123 -1 286 -1 #SUP: 13
123 -1 291 -1 #SUP: 3
123 -1 308 -1 #SUP: 3
123 -1 326 -1 #SUP: 13
123 -1 334 -1 #SUP: 2
123 -1 340 -1 #SUP: 4
123 -1 356 -1 #SUP: 4
123 -1 364 -1 #SUP: 2
123 -1 365 -1 #SUP: 2
123 -1 381 -1 #SUP: 3
123 -1 384 -1 #SUP: 2
123 -1 407 -1 #SUP: 5
123 -1 431 -1 #SUP: 2
123 -1 441 -1 #SUP: 6
123 -1 443 -1 #SUP: 2
123 -1 452 -1 #SUP: 3
123 -1 483 -1 #SUP: 2
123 -1 505 -1 #SUP: 5
123 -1 517 -1 #SUP: 2
123 -1 536 -1 #SUP: 3
123 -1 538 -1 #SUP: 3
123 -1 547 -1 #SUP: 5
123 -1 548 -1 #SUP: 4
123 -1 566 -1 #SUP: 6
123 -1 571 -1 #SUP: 2
123 -1 599 -1 #SUP: 13
123 -1 613 -1 #SUP: 5
123 -1 638 -1 #SUP: 2
123 -1 652 -1 #SUP: 3
123 -1 654 -1 #SUP: 2
123 -1 657 -1 #SUP: 2
123 -1 683 -1 #SUP: 3
123 -1 700 -1 #SUP: 3
123 -1 711 -1 #SUP: 2
123 -1 765 -1 #SUP: 4
123 -1 778 -1 #SUP: 2
123 -1 781 -1 #SUP: 2
123 -1 804 -1 #SUP: 2
123 -1 845 -1 #SUP: 2
123 -1 863 -1 #SUP: 3
123 -1 951 -1 #SUP: 2
123 -1 1051 -1 #SUP: 2
123 -1 1067 -1 #SUP: 2
123 -1 1146 -1 #SUP: 2
123 -1 1150 -1 #SUP: 2
123 -1 1166 -1 #SUP: 2
123 -1 1193 -1 #SUP: 4
123 -1 1219 -1 #SUP: 2
123 -1 1335 -1 #SUP: 2
123 -1 1533 -1 #SUP: 2
123 -1 1591 -1 #SUP: 2
123 -1 1672 -1 #SUP: 2
123 -1 1685 -1 #SUP: 3
123 -1 1758 -1 #SUP: 3
123 -1 1845 -1 #SUP: 2
123 -1 1899 -1 #SUP: 4
123 -1 1913 -1 #SUP: 3
123 -1 1953 -1 #SUP: 2
123 -1 2366 -1 #SUP: 2
123 -1 2555 -1 #SUP: 2
132 -1 22 -1 #SUP: 2
132 -1 32 -1 #SUP: 2
132 -1 123 -1 #SUP: 2
142 -1 65 -1 #SUP: 2
142 -1 66 -1 #SUP: 2
142 -1 78 -1 #SUP: 2
142 -1 193 -1 #SUP: 2
142 -1 340 -1 #SUP: 2
142 -1 1193 -1 #SUP: 4
144 -1 32 -1 #SUP: 3
144 -1 41 -1 #SUP: 2
144 -1 64 -1 #SUP: 2
144 -1 77 -1 #SUP: 3
144 -1 152 -1 #SUP: 2
144 -1 154 -1 #SUP: 3
144 -1 222 -1 #SUP: 2
144 -1 244 -1 #SUP: 2
144 -1 326 -1 #SUP: 2
144 -1 517 -1 #SUP: 2
144 -1 548 -1 #SUP: 2
144 -1 599 -1 #SUP: 2
144 -1 1214 -1 #SUP: 2
147 -1 222 -1 #SUP: 2
151 -1 32 -1 #SUP: 3
151 -1 123 -1 #SUP: 2
152 -1 64 -1 #SUP: 2
152 -1 77 -1 #SUP: 4
152 -1 123 -1 #SUP: 2
152 -1 154 -1 #SUP: 2
152 -1 193 -1 #SUP: 2
152 -1 222 -1 #SUP: 2
152 -1 254 -1 #SUP: 2
152 -1 547 -1 #SUP: 3
154 -1 10 -1 #SUP: 4
154 -1 22 -1 #SUP: 8
154 -1 31 -1 #SUP: 2
154 -1 32 -1 #SUP: 4
154 -1 41 -1 #SUP: 3
154 -1 46 -1 #SUP: 2
154 -1 50 -1 #SUP: 2
154 -1 64 -1 #SUP: 10
154 -1 65 -1 #SUP: 5
154 -1 66 -1 #SUP: 4
154 -1 70 -1 #SUP: 3
154 -1 77 -1 #SUP: 8
154 -1 78 -1 #SUP: 3
154 -1 123 -1 #SUP: 10
154 -1 134 -1 #SUP: 2
154 -1 152 -1 #SUP: 2
154 -1 154 -1 #SUP: 7
154 -1 162 -1 #SUP: 2
154 -1 164 -1 #SUP: 2
154 -1 170 -1 #SUP: 3
154 -1 183 -1 #SUP: 4
154 -1 193 -1 #SUP: 7
154 -1 196 -1 #SUP: 4
154 -1 200 -1 #SUP: 3
154 -1 206 -1 #SUP: 2
154 -1 213 -1 #SUP: 2
154 -1 222 -1 #SUP: 8
154 -1 226 -1 #SUP: 2
154 -1 236 -1 #SUP: 2
154 -1 254 -1 #SUP: 2
154 -1 268 -1 #SUP: 2
154 -1 286 -1 #SUP: 2
154 -1 326 -1 #SUP: 5
154 -1 340 -1 #SUP: 2
154 -1 349 -1 #SUP: 2
154 -1 356 -1 #SUP: 3
154 -1 548 -1 #SUP: 4
154 -1 566 -1 #SUP: 2
154 -1 571 -1 #SUP: 2
154 -1 590 -1 #SUP: 2
154 -1 599 -1 #SUP: 7
154 -1 613 -1 #SUP: 2
154 -1 683 -1 #SUP: 2
154 -1 826 -1 #SUP: 2
154 -1 863 -1 #SUP: 2
154 -1 2091 -1 #SUP: 2
154 -1 2555 -1 #SUP: 2
160 -1 64 -1 #SUP: 2
162 -1 22 -1 #SUP: 2
162 -1 32 -1 #SUP: 2
162 -1 64 -1 #SUP: 3
162 -1 77 -1 #SUP: 2
162 -1 123 -1 #SUP: 2
162 -1 154 -1 #SUP: 2
162 -1 193 -1 #SUP: 3
162 -1 285 -1 #SUP: 2
162 -1 765 -1 #SUP: 2
164 -1 2 -1 #SUP: 2
164 -1 22 -1 #SUP: 2
164 -1 32 -1 #SUP: 5
164 -1 64 -1 #SUP: 2
164 -1 65 -1 #SUP: 4
164 -1 68 -1 #SUP: 2
164 -1 77 -1 #SUP: 2
164 -1 123 -1 #SUP: 3
164 -1 151 -1 #SUP: 2
164 -1 171 -1 #SUP: 2
164 -1 213 -1 #SUP: 2
164 -1 225 -1 #SUP: 2
164 -1 262 -1 #SUP: 2
164 -1 547 -1 #SUP: 2
165 -1 64 -1 #SUP: 2
165 -1 183 -1 #SUP: 2
167 -1 41 -1 #SUP: 2
167 -1 77 -1 #SUP: 2
167 -1 117 -1 #SUP: 2
167 -1 711 -1 #SUP: 2
170 -1 2 -1 #SUP: 3
170 -1 5 -1 #SUP: 2
170 -1 10 -1 #SUP: 2
170 -1 16 -1 #SUP: 3
170 -1 22 -1 #SUP: 3
170 -1 31 -1 #SUP: 2
170 -1 32 -1 #SUP: 2
170 -1 50 -1 #SUP: 3
170 -1 54 -1 #SUP: 3
170 -1 64 -1 #SUP: 4
170 -1 65 -1 #SUP: 2
170 -1 66 -1 #SUP: 2
170 -1 77 -1 #SUP: 5
170 -1 117 -1 #SUP: 2
170 -1 123 -1 #SUP: 2
170 -1 154 -1 #SUP: 4
170 -1 164 -1 #SUP: 2
170 -1 183 -1 #SUP: 2
170 -1 193 -1 #SUP: 2
170 -1 326 -1 #SUP: 5
170 -1 431 -1 #SUP: 2
170 -1 599 -1 #SUP: 4
170 -1 683 -1 #SUP: 2
170 -1 1478 -1 #SUP: 2
170 -1 1897 -1 #SUP: 2
171 -1 123 -1 #SUP: 2
171 -1 170 -1 #SUP: 2
171 -1 326 -1 #SUP: 2
183 -1 10 -1 #SUP: 2
183 -1 22 -1 #SUP: 3
183 -1 64 -1 #SUP: 3
183 -1 66 -1 #SUP: 2
183 -1 77 -1 #SUP: 3
183 -1 132 -1 #SUP: 2
183 -1 154 -1 #SUP: 2
183 -1 183 -1 #SUP: 3
183 -1 318 -1 #SUP: 2
183 -1 652 -1 #SUP: 2
193 -1 22 -1 #SUP: 4
193 -1 31 -1 #SUP: 3
193 -1 33 -1 #SUP: 2
193 -1 64 -1 #SUP: 7
193 -1 66 -1 #SUP: 5
193 -1 77 -1 #SUP: 6
193 -1 78 -1 #SUP: 2
193 -1 117 -1 #SUP: 3
193 -1 123 -1 #SUP: 4
193 -1 170 -1 #SUP: 2
193 -1 193 -1 #SUP: 4
193 -1 206 -1 #SUP: 4
193 -1 222 -1 #SUP: 4
193 -1 268 -1 #SUP: 3
193 -1 285 -1 #SUP: 2
193 -1 291 -1 #SUP: 2
193 -1 308 -1 #SUP: 2
193 -1 340 -1 #SUP: 2
193 -1 505 -1 #SUP: 2
193 -1 548 -1 #SUP: 3
193 -1 566 -1 #SUP: 3
193 -1 599 -1 #SUP: 3
193 -1 638 -1 #SUP: 3
193 -1 1126 -1 #SUP: 2
193 -1 1758 -1 #SUP: 2
198 -1 54 -1 #SUP: 2
198 -1 123 -1 #SUP: 2
198 -1 326 -1 #SUP: 2
198 -1 683 -1 #SUP: 2
200 -1 22 -1 #SUP: 2
200 -1 41 -1 #SUP: 2
200 -1 65 -1 #SUP: 2
200 -1 78 -1 #SUP: 2
200 -1 340 -1 #SUP: 2
205 -1 67 -1 #SUP: 2
205 -1 123 -1 #SUP: 2
206 -1 64 -1 #SUP: 2
206 -1 65 -1 #SUP: 2
206 -1 77 -1 #SUP: 2
206 -1 123 -1 #SUP: 3
206 -1 154 -1 #SUP: 2
206 -1 193 -1 #SUP: 3
206 -1 206 -1 #SUP: 2
206 -1 638 -1 #SUP: 2
212 -1 64 -1 #SUP: 4
212 -1 77 -1 #SUP: 3
212 -1 193 -1 #SUP: 2
212 -1 262 -1 #SUP: 2
212 -1 547 -1 #SUP: 2
212 -1 1321 -1 #SUP: 2
220 -1 2 -1 #SUP: 2
220 -1 22 -1 #SUP: 2
220 -1 31 -1 #SUP: 2
220 -1 64 -1 #SUP: 2
220 -1 65 -1 #SUP: 2
220 -1 67 -1 #SUP: 3
220 -1 117 -1 #SUP: 2
220 -1 349 -1 #SUP: 2
220 -1 356 -1 #SUP: 2
220 -1 711 -1 #SUP: 2
220 -1 2091 -1 #SUP: 2
222 -1 2 -1 #SUP: 3
222 -1 10 -1 #SUP: 2
222 -1 31 -1 #SUP: 2
222 -1 50 -1 #SUP: 2
222 -1 64 -1 #SUP: 3
222 -1 65 -1 #SUP: 3
222 -1 66 -1 #SUP: 2
222 -1 77 -1 #SUP: 4
222 -1 123 -1 #SUP: 5
222 -1 134 -1 #SUP: 2
222 -1 152 -1 #SUP: 2
222 -1 154 -1 #SUP: 3
222 -1 164 -1 #SUP: 2
222 -1 168 -1 #SUP: 2
222 -1 206 -1 #SUP: 2
222 -1 547 -1 #SUP: 2
222 -1 566 -1 #SUP: 2
222 -1 599 -1 #SUP: 5
222 -1 613 -1 #SUP: 2
222 -1 1758 -1 #SUP: 2
222 -1 1874 -1 #SUP: 2
225 -1 16 -1 #SUP: 2
225 -1 64 -1 #SUP: 3
225 -1 77 -1 #SUP: 3
225 -1 123 -1 #SUP: 2
225 -1 134 -1 #SUP: 2
225 -1 144 -1 #SUP: 2
225 -1 154 -1 #SUP: 2
225 -1 318 -1 #SUP: 2
225 -1 349 -1 #SUP: 2
225 -1 356 -1 #SUP: 2
225 -1 517 -1 #SUP: 2
225 -1 599 -1 #SUP: 3
226 -1 32 -1 #SUP: 2
226 -1 120 -1 #SUP: 2
226 -1 123 -1 #SUP: 2
226 -1 441 -1 #SUP: 2
233 -1 547 -1 #SUP: 2
236 -1 154 -1 #SUP: 2
236 -1 326 -1 #SUP: 2
236 -1 548 -1 #SUP: 2
244 -1 77 -1 #SUP: 2
244 -1 123 -1 #SUP: 2
244 -1 193 -1 #SUP: 2
244 -1 222 -1 #SUP: 2
252 -1 2 -1 #SUP: 2
254 -1 32 -1 #SUP: 2
254 -1 50 -1 #SUP: 2
254 -1 64 -1 #SUP: 2
254 -1 123 -1 #SUP: 3
254 -1 193 -1 #SUP: 3
254 -1 222 -1 #SUP: 2
254 -1 223 -1 #SUP: 2
254 -1 285 -1 #SUP: 2
254 -1 547 -1 #SUP: 2
254 -1 548 -1 #SUP: 2
260 -1 765 -1 #SUP: 2
262 -1 77 -1 #SUP: 2
262 -1 123 -1 #SUP: 2
262 -1 164 -1 #SUP: 2
262 -1 547 -1 #SUP: 2
262 -1 637 -1 #SUP: 2
268 -1 64 -1 #SUP: 2
268 -1 77 -1 #SUP: 2
268 -1 123 -1 #SUP: 2
278 -1 32 -1 #SUP: 2
278 -1 1166 -1 #SUP: 3
285 -1 22 -1 #SUP: 2
285 -1 64 -1 #SUP: 2
285 -1 123 -1 #SUP: 3
286 -1 2 -1 #SUP: 2
286 -1 22 -1 #SUP: 4
286 -1 32 -1 #SUP: 5
286 -1 50 -1 #SUP: 4
286 -1 54 -1 #SUP: 4
286 -1 64 -1 #SUP: 4
286 -1 70 -1 #SUP: 3
286 -1 123 -1 #SUP: 3
286 -1 151 -1 #SUP: 2
286 -1 154 -1 #SUP: 4
286 -1 170 -1 #SUP: 4
286 -1 193 -1 #SUP: 3
286 -1 220 -1 #SUP: 2
286 -1 226 -1 #SUP: 2
286 -1 239 -1 #SUP: 2
286 -1 254 -1 #SUP: 2
286 -1 268 -1 #SUP: 3
286 -1 280 -1 #SUP: 2
286 -1 286 -1 #SUP: 2
286 -1 326 -1 #SUP: 5
286 -1 452 -1 #SUP: 2
286 -1 804 -1 #SUP: 2
291 -1 2 -1 #SUP: 3
291 -1 10 -1 #SUP: 3
291 -1 16 -1 #SUP: 2
291 -1 64 -1 #SUP: 2
291 -1 66 -1 #SUP: 2
308 -1 64 -1 #SUP: 2
308 -1 599 -1 #SUP: 2
308 -1 700 -1 #SUP: 2
318 -1 863 -1 #SUP: 2
326 -1 2 -1 #SUP: 2
326 -1 5 -1 #SUP: 2
326 -1 10 -1 #SUP: 4
326 -1 22 -1 #SUP: 2
326 -1 31 -1 #SUP: 2
326 -1 32 -1 #SUP: 3
326 -1 54 -1 #SUP: 3
326 -1 64 -1 #SUP: 2
326 -1 123 -1 #SUP: 3
326 -1 154 -1 #SUP: 4
326 -1 183 -1 #SUP: 2
326 -1 222 -1 #SUP: 3
326 -1 566 -1 #SUP: 2
326 -1 1845 -1 #SUP: 2
334 -1 64 -1 #SUP: 2
334 -1 123 -1 #SUP: 2
334 -1 262 -1 #SUP: 2
340 -1 22 -1 #SUP: 2
340 -1 41 -1 #SUP: 3
340 -1 64 -1 #SUP: 2
340 -1 66 -1 #SUP: 2
340 -1 77 -1 #SUP: 4
340 -1 170 -1 #SUP: 2
340 -1 193 -1 #SUP: 2
340 -1 356 -1 #SUP: 2
349 -1 39 -1 #SUP: 2
349 -1 64 -1 #SUP: 2
349 -1 356 -1 #SUP: 2
349 -1 571 -1 #SUP: 2
356 -1 22 -1 #SUP: 3
356 -1 32 -1 #SUP: 4
356 -1 41 -1 #SUP: 3
356 -1 64 -1 #SUP: 4
356 -1 77 -1 #SUP: 5
356 -1 152 -1 #SUP: 3
356 -1 154 -1 #SUP: 2
356 -1 183 -1 #SUP: 2
356 -1 349 -1 #SUP: 2
356 -1 356 -1 #SUP: 2
356 -1 599 -1 #SUP: 2
364 -1 5 -1 #SUP: 2
364 -1 10 -1 #SUP: 2
364 -1 31 -1 #SUP: 2
364 -1 33 -1 #SUP: 2
364 -1 50 -1 #SUP: 2
364 -1 64 -1 #SUP: 2
364 -1 326 -1 #SUP: 2
365 -1 22 -1 #SUP: 3
365 -1 117 -1 #SUP: 2
381 -1 326 -1 #SUP: 2
383 -1 77 -1 #SUP: 2
407 -1 31 -1 #SUP: 2
407 -1 64 -1 #SUP: 2
416 -1 77 -1 #SUP: 2
431 -1 77 -1 #SUP: 2
431 -1 164 -1 #SUP: 2
431 -1 340 -1 #SUP: 2
441 -1 2 -1 #SUP: 2
441 -1 10 -1 #SUP: 2
441 -1 22 -1 #SUP: 2
441 -1 32 -1 #SUP: 3
441 -1 46 -1 #SUP: 2
441 -1 64 -1 #SUP: 4
441 -1 65 -1 #SUP: 2
441 -1 70 -1 #SUP: 2
441 -1 123 -1 #SUP: 3
441 -1 154 -1 #SUP: 3
441 -1 171 -1 #SUP: 2
441 -1 236 -1 #SUP: 2
441 -1 326 -1 #SUP: 4
441 -1 547 -1 #SUP: 2
441 -1 566 -1 #SUP: 3
441 -1 567 -1 #SUP: 2
441 -1 599 -1 #SUP: 2
441 -1 1685 -1 #SUP: 2
443 -1 41 -1 #SUP: 2
443 -1 65 -1 #SUP: 2
443 -1 77 -1 #SUP: 2
443 -1 183 -1 #SUP: 2
443 -1 517 -1 #SUP: 2
452 -1 22 -1 #SUP: 2
452 -1 54 -1 #SUP: 2
452 -1 326 -1 #SUP: 2
483 -1 505 -1 #SUP: 2
483 -1 566 -1 #SUP: 2
498 -1 70 -1 #SUP: 3
499 -1 41 -1 #SUP: 2
499 -1 167 -1 #SUP: 2
505 -1 22 -1 #SUP: 2
505 -1 566 -1 #SUP: 2
517 -1 22 -1 #SUP: 2
517 -1 41 -1 #SUP: 3
517 -1 64 -1 #SUP: 3
517 -1 77 -1 #SUP: 3
517 -1 356 -1 #SUP: 2
517 -1 965 -1 #SUP: 2
519 -1 193 -1 #SUP: 2
520 -1 31 -1 #SUP: 2
520 -1 64 -1 #SUP: 2
520 -1 77 -1 #SUP: 2
520 -1 123 -1 #SUP: 2
520 -1 154 -1 #SUP: 4
520 -1 193 -1 #SUP: 2
520 -1 222 -1 #SUP: 3
536 -1 10 -1 #SUP: 2
536 -1 64 -1 #SUP: 2
536 -1 77 -1 #SUP: 2
536 -1 285 -1 #SUP: 2
538 -1 123 -1 #SUP: 2
538 -1 205 -1 #SUP: 2
538 -1 280 -1 #SUP: 2
538 -1 863 -1 #SUP: 2
548 -1 64 -1 #SUP: 2
548 -1 65 -1 #SUP: 2
548 -1 222 -1 #SUP: 4
566 -1 10 -1 #SUP: 2
566 -1 22 -1 #SUP: 2
566 -1 31 -1 #SUP: 2
566 -1 64 -1 #SUP: 2
566 -1 65 -1 #SUP: 3
566 -1 117 -1 #SUP: 2
566 -1 123 -1 #SUP: 3
566 -1 193 -1 #SUP: 2
566 -1 206 -1 #SUP: 3
566 -1 226 -1 #SUP: 2
566 -1 566 -1 #SUP: 2
566 -1 567 -1 #SUP: 2
566 -1 599 -1 #SUP: 3
566 -1 8776 -1 #SUP: 2
599 -1 10 -1 #SUP: 3
599 -1 16 -1 #SUP: 2
599 -1 22 -1 #SUP: 6
599 -1 31 -1 #SUP: 2
599 -1 32 -1 #SUP: 5
599 -1 50 -1 #SUP: 5
599 -1 64 -1 #SUP: 7
599 -1 65 -1 #SUP: 6
599 -1 66 -1 #SUP: 3
599 -1 67 -1 #SUP: 2
599 -1 70 -1 #SUP: 2
599 -1 77 -1 #SUP: 3
599 -1 78 -1 #SUP: 3
599 -1 117 -1 #SUP: 2
599 -1 120 -1 #SUP: 2
599 -1 123 -1 #SUP: 17
599 -1 142 -1 #SUP: 2
599 -1 154 -1 #SUP: 4
599 -1 162 -1 #SUP: 3
599 -1 168 -1 #SUP: 2
599 -1 193 -1 #SUP: 6
599 -1 206 -1 #SUP: 4
599 -1 222 -1 #SUP: 3
599 -1 226 -1 #SUP: 2
599 -1 254 -1 #SUP: 2
599 -1 286 -1 #SUP: 2
599 -1 326 -1 #SUP: 2
599 -1 340 -1 #SUP: 2
599 -1 356 -1 #SUP: 2
599 -1 381 -1 #SUP: 2
599 -1 407 -1 #SUP: 2
599 -1 538 -1 #SUP: 2
599 -1 566 -1 #SUP: 4
599 -1 613 -1 #SUP: 2
599 -1 652 -1 #SUP: 2
599 -1 700 -1 #SUP: 2
599 -1 845 -1 #SUP: 2
599 -1 863 -1 #SUP: 3
599 -1 1193 -1 #SUP: 2
599 -1 1205 -1 #SUP: 2
613 -1 32 -1 #SUP: 2
613 -1 64 -1 #SUP: 3
613 -1 77 -1 #SUP: 2
613 -1 193 -1 #SUP: 2
613 -1 222 -1 #SUP: 2
613 -1 225 -1 #SUP: 2
613 -1 599 -1 #SUP: 2
637 -1 123 -1 #SUP: 3
637 -1 206 -1 #SUP: 2
637 -1 340 -1 #SUP: 2
637 -1 566 -1 #SUP: 2
638 -1 2 -1 #SUP: 2
638 -1 22 -1 #SUP: 3
638 -1 64 -1 #SUP: 4
638 -1 123 -1 #SUP: 2
638 -1 599 -1 #SUP: 2
652 -1 77 -1 #SUP: 3
652 -1 123 -1 #SUP: 2
652 -1 154 -1 #SUP: 2
652 -1 193 -1 #SUP: 2
654 -1 32 -1 #SUP: 2
654 -1 65 -1 #SUP: 2
668 -1 164 -1 #SUP: 2
683 -1 22 -1 #SUP: 2
683 -1 54 -1 #SUP: 3
683 -1 123 -1 #SUP: 2
683 -1 132 -1 #SUP: 2
683 -1 286 -1 #SUP: 2
711 -1 77 -1 #SUP: 2
711 -1 117 -1 #SUP: 2
711 -1 222 -1 #SUP: 2
711 -1 566 -1 #SUP: 2
711 -1 753 -1 #SUP: 2
756 -1 2 -1 #SUP: 2
765 -1 41 -1 #SUP: 3
765 -1 64 -1 #SUP: 3
765 -1 77 -1 #SUP: 4
765 -1 154 -1 #SUP: 2
765 -1 164 -1 #SUP: 2
765 -1 183 -1 #SUP: 2
765 -1 262 -1 #SUP: 2
768 -1 41 -1 #SUP: 2
768 -1 64 -1 #SUP: 2
778 -1 200 -1 #SUP: 2
781 -1 64 -1 #SUP: 2
804 -1 22 -1 #SUP: 2
804 -1 64 -1 #SUP: 3
804 -1 70 -1 #SUP: 2
804 -1 268 -1 #SUP: 2
804 -1 274 -1 #SUP: 2
826 -1 64 -1 #SUP: 2
826 -1 222 -1 #SUP: 2
845 -1 613 -1 #SUP: 2
850 -1 77 -1 #SUP: 2
852 -1 1051 -1 #SUP: 2
872 -1 64 -1 #SUP: 2
921 -1 32 -1 #SUP: 2
951 -1 16 -1 #SUP: 2
951 -1 22 -1 #SUP: 2
951 -1 64 -1 #SUP: 2
951 -1 123 -1 #SUP: 3
951 -1 567 -1 #SUP: 2
951 -1 599 -1 #SUP: 4
951 -1 1685 -1 #SUP: 3
964 -1 77 -1 #SUP: 2
1039 -1 381 -1 #SUP: 2
1067 -1 2 -1 #SUP: 2
1067 -1 520 -1 #SUP: 2
1126 -1 22 -1 #SUP: 2
1126 -1 33 -1 #SUP: 2
1146 -1 123 -1 #SUP: 2
1150 -1 200 -1 #SUP: 2
1150 -1 778 -1 #SUP: 2
1166 -1 32 -1 #SUP: 2
1166 -1 123 -1 #SUP: 2
1166 -1 599 -1 #SUP: 2
1193 -1 65 -1 #SUP: 2
1193 -1 66 -1 #SUP: 2
1193 -1 78 -1 #SUP: 2
1193 -1 193 -1 #SUP: 2
1193 -1 340 -1 #SUP: 2
1205 -1 64 -1 #SUP: 2
1208 -1 32 -1 #SUP: 2
1208 -1 123 -1 #SUP: 2
1208 -1 286 -1 #SUP: 2
1214 -1 41 -1 #SUP: 2
1214 -1 77 -1 #SUP: 2
1219 -1 123 -1 #SUP: 2
1219 -1 599 -1 #SUP: 2
1225 -1 64 -1 #SUP: 2
1225 -1 123 -1 #SUP: 2
1314 -1 22 -1 #SUP: 2
1314 -1 64 -1 #SUP: 2
1433 -1 22 -1 #SUP: 2
1433 -1 32 -1 #SUP: 2
1433 -1 64 -1 #SUP: 4
1487 -1 32 -1 #SUP: 2
1487 -1 64 -1 #SUP: 2
1487 -1 77 -1 #SUP: 2
1574 -1 64 -1 #SUP: 2
1672 -1 10 -1 #SUP: 2
1685 -1 32 -1 #SUP: 2
1685 -1 567 -1 #SUP: 2
1685 -1 599 -1 #SUP: 2
1758 -1 22 -1 #SUP: 2
1758 -1 64 -1 #SUP: 2
1758 -1 123 -1 #SUP: 2
1758 -1 193 -1 #SUP: 2
1834 -1 64 -1 #SUP: 3
1896 -1 10 -1 #SUP: 2
1896 -1 3430 -1 #SUP: 2
1899 -1 2 -1 #SUP: 2
1899 -1 64 -1 #SUP: 2
1899 -1 123 -1 #SUP: 2
1899 -1 566 -1 #SUP: 2
1913 -1 64 -1 #SUP: 2
2091 -1 200 -1 #SUP: 2
2091 -1 349 -1 #SUP: 2
2366 -1 123 -1 #SUP: 2
2555 -1 22 -1 #SUP: 2
2555 -1 66 -1 #SUP: 2
2555 -1 123 -1 #SUP: 2
2894 -1 2 -1 #SUP: 2
2910 -1 16 -1 #SUP: 2
2910 -1 66 -1 #SUP: 2
2910 -1 291 -1 #SUP: 2
4377 -1 154 -1 #SUP: 3
4377 -1 349 -1 #SUP: 2
4377 -1 356 -1 #SUP: 2
4550 -1 31 -1 #SUP: 2
4550 -1 64 -1 #SUP: 2
2 -1 10 -1 164 -1 #SUP: 2
2 -1 10 -1 226 -1 #SUP: 2
2 -1 22 -1 32 -1 #SUP: 2
2 -1 27 -1 22 -1 #SUP: 2
2 -1 64 -1 22 -1 #SUP: 3
2 -1 64 -1 41 -1 #SUP: 2
2 -1 65 -1 64 -1 #SUP: 2
2 -1 70 -1 64 -1 #SUP: 2
2 -1 123 -1 22 -1 #SUP: 2
2 -1 123 -1 123 -1 #SUP: 3
2 -1 154 -1 64 -1 #SUP: 2
2 -1 278 -1 1166 -1 #SUP: 2
2 -1 505 -1 22 -1 #SUP: 2
2 -1 517 -1 22 -1 #SUP: 2
10 -1 66 -1 22 -1 #SUP: 2
10 -1 132 -1 22 -1 #SUP: 2
10 -1 599 -1 123 -1 #SUP: 2
16 -1 66 -1 22 -1 #SUP: 2
16 -1 66 -1 183 -1 #SUP: 2
16 -1 154 -1 183 -1 #SUP: 2
22 -1 2 -1 22 -1 #SUP: 3
22 -1 16 -1 183 -1 #SUP: 2
22 -1 22 -1 132 -1 #SUP: 2
22 -1 32 -1 64 -1 #SUP: 3
22 -1 32 -1 77 -1 #SUP: 2
22 -1 32 -1 326 -1 #SUP: 2
22 -1 54 -1 64 -1 #SUP: 2
22 -1 64 -1 22 -1 #SUP: 2
22 -1 64 -1 31 -1 #SUP: 2
22 -1 64 -1 77 -1 #SUP: 2
22 -1 64 -1 123 -1 #SUP: 3
22 -1 64 -1 167 -1 #SUP: 2
22 -1 64 -1 222 -1 #SUP: 2
22 -1 64 -1 326 -1 #SUP: 2
22 -1 64 -1 599 -1 #SUP: 2
22 -1 70 -1 64 -1 #SUP: 2
22 -1 70 -1 200 -1 #SUP: 2
22 -1 76 -1 64 -1 #SUP: 2
22 -1 76 -1 206 -1 #SUP: 2
22 -1 77 -1 123 -1 #SUP: 2
22 -1 123 -1 2 -1 #SUP: 2
22 -1 123 -1 31 -1 #SUP: 2
22 -1 123 -1 64 -1 #SUP: 2
22 -1 123 -1 123 -1 #SUP: 2
22 -1 123 -1 193 -1 #SUP: 2
22 -1 123 -1 291 -1 #SUP: 2
22 -1 123 -1 599 -1 #SUP: 2
22 -1 154 -1 64 -1 #SUP: 5
22 -1 154 -1 70 -1 #SUP: 2
22 -1 154 -1 196 -1 #SUP: 2
22 -1 170 -1 64 -1 #SUP: 3
22 -1 170 -1 154 -1 #SUP: 2
22 -1 183 -1 22 -1 #SUP: 2
22 -1 183 -1 132 -1 #SUP: 2
22 -1 222 -1 123 -1 #SUP: 2
22 -1 225 -1 64 -1 #SUP: 2
22 -1 225 -1 318 -1 #SUP: 2
22 -1 1314 -1 22 -1 #SUP: 2
22 -1 1314 -1 64 -1 #SUP: 2
29 -1 64 -1 154 -1 #SUP: 2
31 -1 64 -1 2 -1 #SUP: 2
31 -1 64 -1 64 -1 #SUP: 2
31 -1 64 -1 268 -1 #SUP: 2
31 -1 64 -1 1533 -1 #SUP: 2
31 -1 65 -1 138 -1 #SUP: 2
31 -1 222 -1 64 -1 #SUP: 2
32 -1 2 -1 2 -1 #SUP: 2
32 -1 22 -1 64 -1 #SUP: 3
32 -1 22 -1 77 -1 #SUP: 2
32 -1 22 -1 154 -1 #SUP: 2
32 -1 22 -1 1314 -1 #SUP: 2
32 -1 32 -1 441 -1 #SUP: 2
32 -1 41 -1 10 -1 #SUP: 2
32 -1 41 -1 77 -1 #SUP: 2
32 -1 64 -1 77 -1 #SUP: 3
32 -1 64 -1 123 -1 #SUP: 2
32 -1 64 -1 222 -1 #SUP: 3
32 -1 64 -1 441 -1 #SUP: 2
32 -1 77 -1 41 -1 #SUP: 2
32 -1 123 -1 134 -1 #SUP: 2
32 -1 154 -1 64 -1 #SUP: 3
32 -1 154 -1 222 -1 #SUP: 2
32 -1 222 -1 123 -1 #SUP: 3
32 -1 222 -1 134 -1 #SUP: 2
32 -1 222 -1 599 -1 #SUP: 2
32 -1 225 -1 123 -1 #SUP: 2
32 -1 225 -1 599 -1 #SUP: 2
32 -1 326 -1 222 -1 #SUP: 2
32 -1 599 -1 123 -1 #SUP: 2
41 -1 10 -1 41 -1 #SUP: 2
41 -1 10 -1 226 -1 #SUP: 2
41 -1 32 -1 41 -1 #SUP: 2
41 -1 41 -1 1214 -1 #SUP: 2
41 -1 64 -1 41 -1 #SUP: 3
41 -1 64 -1 77 -1 #SUP: 2
41 -1 65 -1 32 -1 #SUP: 2
41 -1 77 -1 33 -1 #SUP: 2
41 -1 77 -1 41 -1 #SUP: 2
41 -1 77 -1 1214 -1 #SUP: 2
41 -1 123 -1 54 -1 #SUP: 2
41 -1 123 -1 286 -1 #SUP: 2
41 -1 123 -1 326 -1 #SUP: 2
41 -1 286 -1 54 -1 #SUP: 2
41 -1 286 -1 326 -1 #SUP: 2
41 -1 326 -1 54 -1 #SUP: 2
46 -1 154 -1 65 -1 #SUP: 2
50 -1 2 -1 566 -1 #SUP: 2
50 -1 5 -1 2 -1 #SUP: 2
50 -1 10 -1 3430 -1 #SUP: 2
50 -1 65 -1 32 -1 #SUP: 2
50 -1 65 -1 64 -1 #SUP: 2
50 -1 123 -1 206 -1 #SUP: 2
50 -1 170 -1 2 -1 #SUP: 3
50 -1 170 -1 5 -1 #SUP: 2
50 -1 170 -1 50 -1 #SUP: 2
50 -1 170 -1 77 -1 #SUP: 2
50 -1 170 -1 326 -1 #SUP: 2
50 -1 326 -1 2 -1 #SUP: 2
50 -1 326 -1 5 -1 #SUP: 2
50 -1 1896 -1 10 -1 #SUP: 2
50 -1 1896 -1 3430 -1 #SUP: 2
50 -1 1899 -1 2 -1 #SUP: 2
50 -1 1899 -1 64 -1 #SUP: 2
50 -1 1899 -1 123 -1 #SUP: 2
50 -1 1899 -1 566 -1 #SUP: 2
64 -1 2 -1 64 -1 #SUP: 2
64 -1 2 -1 517 -1 #SUP: 2
64 -1 22 -1 32 -1 #SUP: 2
64 -1 22 -1 64 -1 #SUP: 3
64 -1 22 -1 70 -1 #SUP: 3
64 -1 22 -1 77 -1 #SUP: 2
64 -1 22 -1 1314 -1 #SUP: 2
64 -1 32 -1 22 -1 #SUP: 2
64 -1 32 -1 77 -1 #SUP: 2
64 -1 33 -1 285 -1 #SUP: 2
64 -1 41 -1 77 -1 #SUP: 2
64 -1 50 -1 206 -1 #SUP: 2
64 -1 50 -1 863 -1 #SUP: 2
64 -1 64 -1 2 -1 #SUP: 2
64 -1 64 -1 22 -1 #SUP: 3
64 -1 64 -1 70 -1 #SUP: 2
64 -1 64 -1 77 -1 #SUP: 2
64 -1 64 -1 152 -1 #SUP: 2
64 -1 64 -1 154 -1 #SUP: 2
64 -1 64 -1 193 -1 #SUP: 3
64 -1 70 -1 64 -1 #SUP: 2
64 -1 77 -1 22 -1 #SUP: 3
64 -1 77 -1 33 -1 #SUP: 2
64 -1 77 -1 41 -1 #SUP: 2
64 -1 77 -1 64 -1 #SUP: 3
64 -1 77 -1 70 -1 #SUP: 3
64 -1 77 -1 123 -1 #SUP: 2
64 -1 77 -1 152 -1 #SUP: 2
64 -1 77 -1 154 -1 #SUP: 2
64 -1 77 -1 193 -1 #SUP: 2
64 -1 77 -1 200 -1 #SUP: 2
64 -1 77 -1 285 -1 #SUP: 2
64 -1 77 -1 2091 -1 #SUP: 2
64 -1 120 -1 356 -1 #SUP: 2
64 -1 123 -1 64 -1 #SUP: 2
64 -1 123 -1 123 -1 #SUP: 3
64 -1 123 -1 152 -1 #SUP: 2
64 -1 123 -1 154 -1 #SUP: 2
64 -1 123 -1 206 -1 #SUP: 3
64 -1 123 -1 326 -1 #SUP: 2
64 -1 123 -1 356 -1 #SUP: 2
64 -1 123 -1 505 -1 #SUP: 2
64 -1 123 -1 599 -1 #SUP: 2
64 -1 152 -1 77 -1 #SUP: 2
64 -1 152 -1 193 -1 #SUP: 2
64 -1 154 -1 64 -1 #SUP: 3
64 -1 154 -1 162 -1 #SUP: 2
64 -1 154 -1 183 -1 #SUP: 2
64 -1 154 -1 196 -1 #SUP: 2
64 -1 154 -1 349 -1 #SUP: 2
64 -1 162 -1 64 -1 #SUP: 2
64 -1 167 -1 41 -1 #SUP: 2
64 -1 183 -1 64 -1 #SUP: 2
64 -1 193 -1 64 -1 #SUP: 2
64 -1 193 -1 123 -1 #SUP: 2
64 -1 193 -1 193 -1 #SUP: 2
64 -1 193 -1 599 -1 #SUP: 2
64 -1 222 -1 123 -1 #SUP: 3
64 -1 222 -1 154 -1 #SUP: 2
64 -1 222 -1 599 -1 #SUP: 3
64 -1 222 -1 613 -1 #SUP: 2
64 -1 222 -1 1758 -1 #SUP: 2
64 -1 225 -1 64 -1 #SUP: 2
64 -1 254 -1 193 -1 #SUP: 2
64 -1 268 -1 64 -1 #SUP: 2
64 -1 285 -1 64 -1 #SUP: 2
64 -1 285 -1 123 -1 #SUP: 2
64 -1 356 -1 22 -1 #SUP: 2
64 -1 356 -1 41 -1 #SUP: 2
64 -1 356 -1 64 -1 #SUP: 2
64 -1 356 -1 152 -1 #SUP: 2
64 -1 356 -1 154 -1 #SUP: 2
64 -1 356 -1 183 -1 #SUP: 2
64 -1 441 -1 64 -1 #SUP: 2
64 -1 566 -1 206 -1 #SUP: 2
64 -1 599 -1 123 -1 #SUP: 5
64 -1 599 -1 206 -1 #SUP: 2
64 -1 872 -1 64 -1 #SUP: 2
64 -1 1214 -1 41 -1 #SUP: 2
64 -1 1214 -1 77 -1 #SUP: 2
64 -1 1314 -1 64 -1 #SUP: 2
64 -1 1433 -1 64 -1 #SUP: 3
64 -1 2091 -1 200 -1 #SUP: 2
65 -1 46 -1 154 -1 #SUP: 2
65 -1 64 -1 67 -1 #SUP: 2
65 -1 64 -1 222 -1 #SUP: 2
65 -1 77 -1 64 -1 #SUP: 2
65 -1 123 -1 65 -1 #SUP: 2
65 -1 123 -1 193 -1 #SUP: 2
65 -1 123 -1 222 -1 #SUP: 2
65 -1 123 -1 548 -1 #SUP: 2
65 -1 154 -1 65 -1 #SUP: 2
65 -1 154 -1 123 -1 #SUP: 3
65 -1 154 -1 154 -1 #SUP: 2
65 -1 154 -1 193 -1 #SUP: 2
65 -1 154 -1 222 -1 #SUP: 2
65 -1 154 -1 326 -1 #SUP: 2
65 -1 154 -1 548 -1 #SUP: 2
65 -1 193 -1 66 -1 #SUP: 2
65 -1 193 -1 117 -1 #SUP: 2
65 -1 193 -1 222 -1 #SUP: 2
65 -1 193 -1 548 -1 #SUP: 2
65 -1 340 -1 66 -1 #SUP: 2
65 -1 340 -1 193 -1 #SUP: 2
65 -1 548 -1 222 -1 #SUP: 2
65 -1 599 -1 123 -1 #SUP: 2
65 -1 599 -1 193 -1 #SUP: 2
65 -1 1219 -1 123 -1 #SUP: 2
65 -1 1219 -1 599 -1 #SUP: 2
66 -1 22 -1 64 -1 #SUP: 2
66 -1 22 -1 76 -1 #SUP: 2
66 -1 22 -1 123 -1 #SUP: 2
66 -1 22 -1 154 -1 #SUP: 2
66 -1 22 -1 183 -1 #SUP: 2
66 -1 22 -1 206 -1 #SUP: 2
66 -1 22 -1 225 -1 #SUP: 2
66 -1 22 -1 318 -1 #SUP: 2
66 -1 32 -1 154 -1 #SUP: 2
66 -1 76 -1 206 -1 #SUP: 2
66 -1 225 -1 64 -1 #SUP: 2
66 -1 225 -1 318 -1 #SUP: 2
67 -1 2 -1 64 -1 #SUP: 2
67 -1 2 -1 70 -1 #SUP: 2
67 -1 2091 -1 349 -1 #SUP: 2
68 -1 77 -1 547 -1 #SUP: 2
70 -1 64 -1 22 -1 #SUP: 3
70 -1 64 -1 41 -1 #SUP: 2
70 -1 64 -1 274 -1 #SUP: 2
70 -1 326 -1 32 -1 #SUP: 2
70 -1 356 -1 41 -1 #SUP: 2
70 -1 356 -1 64 -1 #SUP: 2
70 -1 517 -1 41 -1 #SUP: 2
70 -1 517 -1 64 -1 #SUP: 2
77 -1 2 -1 64 -1 #SUP: 2
77 -1 16 -1 50 -1 #SUP: 2
77 -1 16 -1 66 -1 #SUP: 2
77 -1 22 -1 64 -1 #SUP: 2
77 -1 33 -1 285 -1 #SUP: 2
77 -1 41 -1 41 -1 #SUP: 2
77 -1 41 -1 64 -1 #SUP: 2
77 -1 64 -1 22 -1 #SUP: 3
77 -1 64 -1 154 -1 #SUP: 2
77 -1 64 -1 591 -1 #SUP: 2
77 -1 65 -1 46 -1 #SUP: 2
77 -1 66 -1 22 -1 #SUP: 2
77 -1 70 -1 41 -1 #SUP: 2
77 -1 70 -1 64 -1 #SUP: 2
77 -1 77 -1 77 -1 #SUP: 3
77 -1 77 -1 318 -1 #SUP: 2
77 -1 123 -1 22 -1 #SUP: 3
77 -1 123 -1 31 -1 #SUP: 2
77 -1 123 -1 64 -1 #SUP: 2
77 -1 123 -1 65 -1 #SUP: 3
77 -1 123 -1 67 -1 #SUP: 2
77 -1 123 -1 154 -1 #SUP: 3
77 -1 123 -1 193 -1 #SUP: 3
77 -1 123 -1 286 -1 #SUP: 2
77 -1 154 -1 31 -1 #SUP: 2
77 -1 154 -1 64 -1 #SUP: 2
77 -1 154 -1 65 -1 #SUP: 2
77 -1 154 -1 123 -1 #SUP: 2
77 -1 193 -1 31 -1 #SUP: 2
77 -1 193 -1 64 -1 #SUP: 2
77 -1 260 -1 765 -1 #SUP: 2
77 -1 285 -1 22 -1 #SUP: 2
77 -1 349 -1 356 -1 #SUP: 2
77 -1 599 -1 32 -1 #SUP: 2
77 -1 599 -1 123 -1 #SUP: 2
77 -1 638 -1 22 -1 #SUP: 2
77 -1 638 -1 64 -1 #SUP: 2
77 -1 2091 -1 200 -1 #SUP: 2
78 -1 16 -1 66 -1 #SUP: 2
78 -1 65 -1 66 -1 #SUP: 2
78 -1 65 -1 193 -1 #SUP: 2
78 -1 65 -1 340 -1 #SUP: 2
78 -1 193 -1 66 -1 #SUP: 2
78 -1 340 -1 66 -1 #SUP: 2
78 -1 340 -1 193 -1 #SUP: 2
120 -1 123 -1 32 -1 #SUP: 2
120 -1 441 -1 32 -1 #SUP: 2
120 -1 441 -1 123 -1 #SUP: 2
123 -1 2 -1 22 -1 #SUP: 4
123 -1 2 -1 27 -1 #SUP: 2
123 -1 2 -1 64 -1 #SUP: 3
123 -1 2 -1 566 -1 #SUP: 2
123 -1 10 -1 863 -1 #SUP: 2
123 -1 15 -1 32 -1 #SUP: 2
123 -1 22 -1 32 -1 #SUP: 3
123 -1 22 -1 54 -1 #SUP: 2
123 -1 22 -1 64 -1 #SUP: 3
123 -1 22 -1 70 -1 #SUP: 2
123 -1 22 -1 77 -1 #SUP: 2
123 -1 22 -1 152 -1 #SUP: 2
123 -1 22 -1 154 -1 #SUP: 2
123 -1 22 -1 170 -1 #SUP: 2
123 -1 22 -1 326 -1 #SUP: 2
123 -1 22 -1 700 -1 #SUP: 2
123 -1 31 -1 64 -1 #SUP: 4
123 -1 31 -1 65 -1 #SUP: 3
123 -1 31 -1 138 -1 #SUP: 2
123 -1 31 -1 164 -1 #SUP: 2
123 -1 31 -1 222 -1 #SUP: 2
123 -1 31 -1 1533 -1 #SUP: 2
123 -1 32 -1 22 -1 #SUP: 2
123 -1 32 -1 50 -1 #SUP: 2
123 -1 32 -1 64 -1 #SUP: 2
123 -1 32 -1 77 -1 #SUP: 2
123 -1 32 -1 123 -1 #SUP: 2
123 -1 32 -1 222 -1 #SUP: 2
123 -1 32 -1 326 -1 #SUP: 2
123 -1 32 -1 547 -1 #SUP: 2
123 -1 32 -1 599 -1 #SUP: 3
123 -1 32 -1 863 -1 #SUP: 2
123 -1 46 -1 154 -1 #SUP: 2
123 -1 50 -1 2 -1 #SUP: 2
123 -1 50 -1 32 -1 #SUP: 2
123 -1 50 -1 64 -1 #SUP: 4
123 -1 50 -1 65 -1 #SUP: 3
123 -1 50 -1 77 -1 #SUP: 2
123 -1 50 -1 123 -1 #SUP: 3
123 -1 50 -1 154 -1 #SUP: 2
123 -1 50 -1 170 -1 #SUP: 2
123 -1 50 -1 193 -1 #SUP: 2
123 -1 50 -1 206 -1 #SUP: 2
123 -1 50 -1 566 -1 #SUP: 2
123 -1 50 -1 863 -1 #SUP: 2
123 -1 50 -1 1899 -1 #SUP: 4
123 -1 54 -1 64 -1 #SUP: 2
123 -1 64 -1 22 -1 #SUP: 3
123 -1 64 -1 29 -1 #SUP: 2
123 -1 64 -1 31 -1 #SUP: 2
123 -1 64 -1 50 -1 #SUP: 3
123 -1 64 -1 64 -1 #SUP: 4
123 -1 64 -1 123 -1 #SUP: 4
123 -1 64 -1 152 -1 #SUP: 2
123 -1 64 -1 154 -1 #SUP: 3
123 -1 64 -1 193 -1 #SUP: 4
123 -1 64 -1 206 -1 #SUP: 2
123 -1 64 -1 222 -1 #SUP: 2
123 -1 64 -1 254 -1 #SUP: 2
123 -1 64 -1 268 -1 #SUP: 3
123 -1 64 -1 285 -1 #SUP: 2
123 -1 64 -1 326 -1 #SUP: 3
123 -1 64 -1 505 -1 #SUP: 2
123 -1 64 -1 566 -1 #SUP: 2
123 -1 64 -1 599 -1 #SUP: 3
123 -1 64 -1 1193 -1 #SUP: 2
123 -1 64 -1 1335 -1 #SUP: 2
123 -1 64 -1 1533 -1 #SUP: 2
123 -1 65 -1 46 -1 #SUP: 3
123 -1 65 -1 64 -1 #SUP: 3
123 -1 65 -1 123 -1 #SUP: 3
123 -1 65 -1 138 -1 #SUP: 2
123 -1 65 -1 154 -1 #SUP: 3
123 -1 65 -1 193 -1 #SUP: 3
123 -1 65 -1 222 -1 #SUP: 2
123 -1 65 -1 548 -1 #SUP: 2
123 -1 65 -1 599 -1 #SUP: 2
123 -1 65 -1 1219 -1 #SUP: 2
123 -1 66 -1 22 -1 #SUP: 2
123 -1 66 -1 77 -1 #SUP: 2
123 -1 67 -1 22 -1 #SUP: 2
123 -1 70 -1 64 -1 #SUP: 2
123 -1 70 -1 326 -1 #SUP: 3
123 -1 70 -1 1672 -1 #SUP: 2
123 -1 77 -1 22 -1 #SUP: 2
123 -1 77 -1 32 -1 #SUP: 2
123 -1 77 -1 123 -1 #SUP: 4
123 -1 77 -1 599 -1 #SUP: 3
123 -1 77 -1 657 -1 #SUP: 2
123 -1 78 -1 65 -1 #SUP: 2
123 -1 78 -1 123 -1 #SUP: 2
123 -1 120 -1 32 -1 #SUP: 3
123 -1 120 -1 64 -1 #SUP: 2
123 -1 120 -1 123 -1 #SUP: 4
123 -1 120 -1 193 -1 #SUP: 2
123 -1 120 -1 254 -1 #SUP: 2
123 -1 120 -1 384 -1 #SUP: 2
123 -1 120 -1 441 -1 #SUP: 3
123 -1 123 -1 22 -1 #SUP: 3
123 -1 123 -1 32 -1 #SUP: 2
123 -1 123 -1 64 -1 #SUP: 3
123 -1 123 -1 65 -1 #SUP: 3
123 -1 123 -1 123 -1 #SUP: 2
123 -1 123 -1 142 -1 #SUP: 2
123 -1 123 -1 154 -1 #SUP: 3
123 -1 123 -1 193 -1 #SUP: 3
123 -1 123 -1 206 -1 #SUP: 3
123 -1 123 -1 222 -1 #SUP: 2
123 -1 123 -1 280 -1 #SUP: 2
123 -1 123 -1 286 -1 #SUP: 4
123 -1 123 -1 326 -1 #SUP: 2
123 -1 123 -1 548 -1 #SUP: 2
123 -1 123 -1 1193 -1 #SUP: 2
123 -1 142 -1 1193 -1 #SUP: 3
123 -1 144 -1 32 -1 #SUP: 2
123 -1 144 -1 154 -1 #SUP: 2
123 -1 144 -1 326 -1 #SUP: 2
123 -1 144 -1 548 -1 #SUP: 2
123 -1 144 -1 599 -1 #SUP: 2
123 -1 152 -1 123 -1 #SUP: 2
123 -1 152 -1 254 -1 #SUP: 2
123 -1 154 -1 22 -1 #SUP: 2
123 -1 154 -1 46 -1 #SUP: 2
123 -1 154 -1 64 -1 #SUP: 5
123 -1 154 -1 65 -1 #SUP: 4
123 -1 154 -1 66 -1 #SUP: 3
123 -1 154 -1 77 -1 #SUP: 4
123 -1 154 -1 78 -1 #SUP: 2
123 -1 154 -1 123 -1 #SUP: 5
123 -1 154 -1 152 -1 #SUP: 2
123 -1 154 -1 154 -1 #SUP: 2
123 -1 154 -1 183 -1 #SUP: 2
123 -1 154 -1 193 -1 #SUP: 6
123 -1 154 -1 200 -1 #SUP: 2
123 -1 154 -1 222 -1 #SUP: 5
123 -1 154 -1 226 -1 #SUP: 2
123 -1 154 -1 254 -1 #SUP: 2
123 -1 154 -1 268 -1 #SUP: 2
123 -1 154 -1 326 -1 #SUP: 3
123 -1 154 -1 548 -1 #SUP: 3
123 -1 154 -1 566 -1 #SUP: 2
123 -1 154 -1 599 -1 #SUP: 3
123 -1 154 -1 2555 -1 #SUP: 2
123 -1 160 -1 64 -1 #SUP: 2
123 -1 162 -1 193 -1 #SUP: 2
123 -1 164 -1 2 -1 #SUP: 2
123 -1 164 -1 32 -1 #SUP: 3
123 -1 164 -1 65 -1 #SUP: 2
123 -1 164 -1 77 -1 #SUP: 2
123 -1 165 -1 183 -1 #SUP: 2
123 -1 170 -1 77 -1 #SUP: 2
123 -1 170 -1 154 -1 #SUP: 2
123 -1 170 -1 326 -1 #SUP: 3
123 -1 193 -1 22 -1 #SUP: 2
123 -1 193 -1 31 -1 #SUP: 2
123 -1 193 -1 64 -1 #SUP: 3
123 -1 193 -1 77 -1 #SUP: 4
123 -1 193 -1 78 -1 #SUP: 2
123 -1 193 -1 123 -1 #SUP: 2
123 -1 193 -1 206 -1 #SUP: 2
123 -1 193 -1 222 -1 #SUP: 4
123 -1 193 -1 268 -1 #SUP: 2
123 -1 193 -1 548 -1 #SUP: 3
123 -1 193 -1 599 -1 #SUP: 2
123 -1 198 -1 123 -1 #SUP: 2
123 -1 206 -1 193 -1 #SUP: 2
123 -1 220 -1 2 -1 #SUP: 2
123 -1 220 -1 22 -1 #SUP: 2
123 -1 220 -1 31 -1 #SUP: 2
123 -1 220 -1 64 -1 #SUP: 2
123 -1 220 -1 65 -1 #SUP: 2
123 -1 220 -1 67 -1 #SUP: 2
123 -1 222 -1 64 -1 #SUP: 2
123 -1 222 -1 65 -1 #SUP: 2
123 -1 222 -1 77 -1 #SUP: 2
123 -1 222 -1 566 -1 #SUP: 2
123 -1 222 -1 599 -1 #SUP: 3
123 -1 233 -1 547 -1 #SUP: 2
123 -1 254 -1 123 -1 #SUP: 2
123 -1 254 -1 193 -1 #SUP: 3
123 -1 254 -1 222 -1 #SUP: 2
123 -1 254 -1 548 -1 #SUP: 2
123 -1 286 -1 2 -1 #SUP: 2
123 -1 286 -1 22 -1 #SUP: 4
123 -1 286 -1 32 -1 #SUP: 3
123 -1 286 -1 50 -1 #SUP: 3
123 -1 286 -1 54 -1 #SUP: 4
123 -1 286 -1 64 -1 #SUP: 4
123 -1 286 -1 70 -1 #SUP: 3
123 -1 286 -1 123 -1 #SUP: 3
123 -1 286 -1 151 -1 #SUP: 2
123 -1 286 -1 154 -1 #SUP: 4
123 -1 286 -1 170 -1 #SUP: 4
123 -1 286 -1 193 -1 #SUP: 3
123 -1 286 -1 220 -1 #SUP: 2
123 -1 286 -1 226 -1 #SUP: 2
123 -1 286 -1 239 -1 #SUP: 2
123 -1 286 -1 254 -1 #SUP: 2
123 -1 286 -1 268 -1 #SUP: 3
123 -1 286 -1 280 -1 #SUP: 2
123 -1 286 -1 286 -1 #SUP: 2
123 -1 286 -1 326 -1 #SUP: 5
123 -1 286 -1 452 -1 #SUP: 2
123 -1 286 -1 804 -1 #SUP: 2
123 -1 308 -1 700 -1 #SUP: 2
123 -1 326 -1 10 -1 #SUP: 2
123 -1 326 -1 54 -1 #SUP: 2
123 -1 326 -1 123 -1 #SUP: 2
123 -1 326 -1 154 -1 #SUP: 2
123 -1 326 -1 183 -1 #SUP: 2
123 -1 326 -1 1845 -1 #SUP: 2
123 -1 340 -1 77 -1 #SUP: 2
123 -1 356 -1 22 -1 #SUP: 2
123 -1 364 -1 326 -1 #SUP: 2
123 -1 407 -1 31 -1 #SUP: 2
123 -1 407 -1 64 -1 #SUP: 2
123 -1 441 -1 32 -1 #SUP: 2
123 -1 441 -1 46 -1 #SUP: 2
123 -1 441 -1 64 -1 #SUP: 2
123 -1 441 -1 123 -1 #SUP: 2
123 -1 441 -1 154 -1 #SUP: 2
123 -1 441 -1 326 -1 #SUP: 3
123 -1 441 -1 547 -1 #SUP: 2
123 -1 441 -1 566 -1 #SUP: 2
123 -1 452 -1 54 -1 #SUP: 2
123 -1 452 -1 326 -1 #SUP: 2
123 -1 505 -1 22 -1 #SUP: 2
123 -1 505 -1 566 -1 #SUP: 2
123 -1 548 -1 222 -1 #SUP: 3
123 -1 566 -1 206 -1 #SUP: 2
123 -1 599 -1 10 -1 #SUP: 2
123 -1 599 -1 22 -1 #SUP: 4
123 -1 599 -1 32 -1 #SUP: 3
123 -1 599 -1 50 -1 #SUP: 2
123 -1 599 -1 64 -1 #SUP: 2
123 -1 599 -1 65 -1 #SUP: 2
123 -1 599 -1 123 -1 #SUP: 6
123 -1 599 -1 154 -1 #SUP: 2
123 -1 599 -1 206 -1 #SUP: 3
123 -1 599 -1 566 -1 #SUP: 3
123 -1 599 -1 700 -1 #SUP: 2
123 -1 599 -1 863 -1 #SUP: 3
123 -1 613 -1 64 -1 #SUP: 2
123 -1 613 -1 77 -1 #SUP: 2
123 -1 638 -1 22 -1 #SUP: 2
123 -1 652 -1 123 -1 #SUP: 2
123 -1 652 -1 154 -1 #SUP: 2
123 -1 683 -1 123 -1 #SUP: 2
123 -1 683 -1 286 -1 #SUP: 2
123 -1 711 -1 566 -1 #SUP: 2
123 -1 765 -1 154 -1 #SUP: 2
123 -1 765 -1 183 -1 #SUP: 2
123 -1 765 -1 262 -1 #SUP: 2
123 -1 778 -1 200 -1 #SUP: 2
123 -1 781 -1 64 -1 #SUP: 2
123 -1 804 -1 64 -1 #SUP: 2
123 -1 845 -1 613 -1 #SUP: 2
123 -1 951 -1 1685 -1 #SUP: 2
123 -1 1150 -1 200 -1 #SUP: 2
123 -1 1150 -1 778 -1 #SUP: 2
123 -1 1219 -1 123 -1 #SUP: 2
123 -1 1219 -1 599 -1 #SUP: 2
123 -1 1758 -1 193 -1 #SUP: 2
123 -1 1899 -1 2 -1 #SUP: 2
123 -1 1899 -1 64 -1 #SUP: 2
123 -1 1899 -1 566 -1 #SUP: 2
123 -1 1913 -1 64 -1 #SUP: 2
132 -1 123 -1 32 -1 #SUP: 2
142 -1 65 -1 66 -1 #SUP: 2
142 -1 65 -1 193 -1 #SUP: 2
142 -1 65 -1 340 -1 #SUP: 2
142 -1 78 -1 65 -1 #SUP: 2
142 -1 78 -1 66 -1 #SUP: 2
142 -1 78 -1 193 -1 #SUP: 2
142 -1 78 -1 340 -1 #SUP: 2
142 -1 193 -1 66 -1 #SUP: 2
142 -1 340 -1 66 -1 #SUP: 2
142 -1 340 -1 193 -1 #SUP: 2
142 -1 1193 -1 65 -1 #SUP: 2
142 -1 1193 -1 66 -1 #SUP: 2
142 -1 1193 -1 78 -1 #SUP: 2
142 -1 1193 -1 193 -1 #SUP: 2
142 -1 1193 -1 340 -1 #SUP: 2
144 -1 64 -1 1214 -1 #SUP: 2
144 -1 154 -1 154 -1 #SUP: 2
144 -1 154 -1 548 -1 #SUP: 2
151 -1 123 -1 32 -1 #SUP: 2
152 -1 77 -1 547 -1 #SUP: 2
154 -1 10 -1 22 -1 #SUP: 3
154 -1 22 -1 41 -1 #SUP: 2
154 -1 22 -1 77 -1 #SUP: 2
154 -1 22 -1 154 -1 #SUP: 2
154 -1 32 -1 22 -1 #SUP: 2
154 -1 32 -1 154 -1 #SUP: 2
154 -1 50 -1 863 -1 #SUP: 2
154 -1 64 -1 22 -1 #SUP: 2
154 -1 64 -1 50 -1 #SUP: 2
154 -1 64 -1 77 -1 #SUP: 2
154 -1 64 -1 164 -1 #SUP: 2
154 -1 64 -1 222 -1 #SUP: 3
154 -1 64 -1 863 -1 #SUP: 2
154 -1 65 -1 46 -1 #SUP: 2
154 -1 65 -1 123 -1 #SUP: 2
154 -1 65 -1 154 -1 #SUP: 2
154 -1 65 -1 193 -1 #SUP: 2
154 -1 66 -1 22 -1 #SUP: 3
154 -1 66 -1 77 -1 #SUP: 2
154 -1 70 -1 22 -1 #SUP: 2
154 -1 70 -1 64 -1 #SUP: 2
154 -1 77 -1 123 -1 #SUP: 4
154 -1 77 -1 193 -1 #SUP: 2
154 -1 77 -1 599 -1 #SUP: 2
154 -1 77 -1 2091 -1 #SUP: 2
154 -1 78 -1 65 -1 #SUP: 2
154 -1 123 -1 22 -1 #SUP: 2
154 -1 123 -1 32 -1 #SUP: 2
154 -1 123 -1 50 -1 #SUP: 2
154 -1 123 -1 64 -1 #SUP: 3
154 -1 123 -1 65 -1 #SUP: 3
154 -1 123 -1 77 -1 #SUP: 3
154 -1 123 -1 78 -1 #SUP: 2
154 -1 123 -1 123 -1 #SUP: 2
154 -1 123 -1 154 -1 #SUP: 3
154 -1 123 -1 193 -1 #SUP: 3
154 -1 123 -1 222 -1 #SUP: 2
154 -1 123 -1 286 -1 #SUP: 2
154 -1 123 -1 548 -1 #SUP: 2
154 -1 123 -1 599 -1 #SUP: 3
154 -1 154 -1 65 -1 #SUP: 2
154 -1 154 -1 123 -1 #SUP: 2
154 -1 154 -1 548 -1 #SUP: 2
154 -1 162 -1 64 -1 #SUP: 2
154 -1 193 -1 64 -1 #SUP: 3
154 -1 193 -1 77 -1 #SUP: 3
154 -1 193 -1 193 -1 #SUP: 2
154 -1 193 -1 222 -1 #SUP: 3
154 -1 193 -1 268 -1 #SUP: 2
154 -1 193 -1 548 -1 #SUP: 2
154 -1 222 -1 10 -1 #SUP: 2
154 -1 222 -1 65 -1 #SUP: 2
154 -1 222 -1 66 -1 #SUP: 2
154 -1 222 -1 77 -1 #SUP: 2
154 -1 222 -1 123 -1 #SUP: 2
154 -1 222 -1 566 -1 #SUP: 2
154 -1 222 -1 599 -1 #SUP: 3
154 -1 236 -1 154 -1 #SUP: 2
154 -1 236 -1 548 -1 #SUP: 2
154 -1 254 -1 64 -1 #SUP: 2
154 -1 254 -1 193 -1 #SUP: 2
154 -1 286 -1 32 -1 #SUP: 2
154 -1 326 -1 154 -1 #SUP: 2
154 -1 340 -1 77 -1 #SUP: 2
154 -1 340 -1 170 -1 #SUP: 2
154 -1 548 -1 65 -1 #SUP: 2
154 -1 548 -1 222 -1 #SUP: 2
154 -1 599 -1 22 -1 #SUP: 2
154 -1 599 -1 50 -1 #SUP: 2
154 -1 599 -1 64 -1 #SUP: 2
154 -1 599 -1 65 -1 #SUP: 2
154 -1 599 -1 123 -1 #SUP: 3
154 -1 599 -1 154 -1 #SUP: 3
154 -1 599 -1 566 -1 #SUP: 2
154 -1 613 -1 64 -1 #SUP: 2
154 -1 826 -1 64 -1 #SUP: 2
154 -1 826 -1 222 -1 #SUP: 2
154 -1 2555 -1 22 -1 #SUP: 2
154 -1 2555 -1 66 -1 #SUP: 2
162 -1 64 -1 22 -1 #SUP: 2
162 -1 77 -1 285 -1 #SUP: 2
162 -1 123 -1 154 -1 #SUP: 2
162 -1 193 -1 77 -1 #SUP: 2
162 -1 193 -1 285 -1 #SUP: 2
164 -1 32 -1 77 -1 #SUP: 2
164 -1 32 -1 547 -1 #SUP: 2
164 -1 65 -1 32 -1 #SUP: 2
164 -1 65 -1 123 -1 #SUP: 2
167 -1 711 -1 117 -1 #SUP: 2
170 -1 5 -1 2 -1 #SUP: 2
170 -1 16 -1 50 -1 #SUP: 2
170 -1 22 -1 54 -1 #SUP: 2
170 -1 32 -1 22 -1 #SUP: 2
170 -1 77 -1 599 -1 #SUP: 2
170 -1 154 -1 77 -1 #SUP: 2
170 -1 326 -1 2 -1 #SUP: 2
170 -1 326 -1 5 -1 #SUP: 2
170 -1 326 -1 10 -1 #SUP: 2
170 -1 599 -1 123 -1 #SUP: 2
170 -1 683 -1 54 -1 #SUP: 2
183 -1 10 -1 22 -1 #SUP: 2
183 -1 22 -1 132 -1 #SUP: 2
183 -1 183 -1 22 -1 #SUP: 2
183 -1 183 -1 132 -1 #SUP: 2
183 -1 183 -1 183 -1 #SUP: 2
193 -1 33 -1 22 -1 #SUP: 2
193 -1 64 -1 22 -1 #SUP: 2
193 -1 64 -1 64 -1 #SUP: 2
193 -1 64 -1 77 -1 #SUP: 3
193 -1 64 -1 268 -1 #SUP: 2
193 -1 77 -1 64 -1 #SUP: 2
193 -1 77 -1 66 -1 #SUP: 3
193 -1 77 -1 123 -1 #SUP: 2
193 -1 77 -1 285 -1 #SUP: 2
193 -1 78 -1 193 -1 #SUP: 2
193 -1 170 -1 117 -1 #SUP: 2
193 -1 193 -1 66 -1 #SUP: 2
193 -1 193 -1 77 -1 #SUP: 2
193 -1 268 -1 77 -1 #SUP: 2
193 -1 340 -1 77 -1 #SUP: 2
193 -1 548 -1 222 -1 #SUP: 3
193 -1 599 -1 123 -1 #SUP: 2
193 -1 1126 -1 22 -1 #SUP: 2
193 -1 1126 -1 33 -1 #SUP: 2
198 -1 326 -1 54 -1 #SUP: 2
198 -1 683 -1 54 -1 #SUP: 2
200 -1 78 -1 65 -1 #SUP: 2
206 -1 154 -1 123 -1 #SUP: 2
220 -1 2 -1 22 -1 #SUP: 2
220 -1 31 -1 65 -1 #SUP: 2
220 -1 2091 -1 349 -1 #SUP: 2
222 -1 10 -1 123 -1 #SUP: 2
222 -1 64 -1 164 -1 #SUP: 2
222 -1 65 -1 168 -1 #SUP: 2
222 -1 77 -1 123 -1 #SUP: 2
222 -1 77 -1 154 -1 #SUP: 2
222 -1 123 -1 134 -1 #SUP: 2
222 -1 566 -1 123 -1 #SUP: 2
222 -1 599 -1 123 -1 #SUP: 4
222 -1 599 -1 206 -1 #SUP: 2
222 -1 599 -1 566 -1 #SUP: 2
225 -1 144 -1 517 -1 #SUP: 2
225 -1 154 -1 134 -1 #SUP: 2
226 -1 123 -1 120 -1 #SUP: 2
226 -1 441 -1 32 -1 #SUP: 2
244 -1 123 -1 193 -1 #SUP: 2
244 -1 222 -1 77 -1 #SUP: 2
254 -1 123 -1 547 -1 #SUP: 2
254 -1 193 -1 64 -1 #SUP: 2
254 -1 193 -1 222 -1 #SUP: 2
254 -1 193 -1 548 -1 #SUP: 2
254 -1 548 -1 222 -1 #SUP: 2
262 -1 77 -1 547 -1 #SUP: 2
262 -1 637 -1 123 -1 #SUP: 2
286 -1 22 -1 54 -1 #SUP: 2
286 -1 22 -1 64 -1 #SUP: 2
286 -1 22 -1 154 -1 #SUP: 2
286 -1 22 -1 170 -1 #SUP: 2
286 -1 32 -1 22 -1 #SUP: 2
286 -1 32 -1 50 -1 #SUP: 2
286 -1 50 -1 170 -1 #SUP: 2
286 -1 64 -1 268 -1 #SUP: 2
286 -1 70 -1 64 -1 #SUP: 2
286 -1 70 -1 326 -1 #SUP: 2
286 -1 123 -1 286 -1 #SUP: 2
286 -1 154 -1 64 -1 #SUP: 3
286 -1 154 -1 193 -1 #SUP: 2
286 -1 154 -1 268 -1 #SUP: 2
286 -1 170 -1 154 -1 #SUP: 2
286 -1 170 -1 326 -1 #SUP: 2
286 -1 193 -1 268 -1 #SUP: 2
286 -1 254 -1 50 -1 #SUP: 2
286 -1 326 -1 32 -1 #SUP: 2
286 -1 326 -1 54 -1 #SUP: 2
286 -1 326 -1 123 -1 #SUP: 2
286 -1 452 -1 54 -1 #SUP: 2
286 -1 452 -1 326 -1 #SUP: 2
286 -1 804 -1 64 -1 #SUP: 2
291 -1 2 -1 64 -1 #SUP: 2
291 -1 16 -1 66 -1 #SUP: 2
308 -1 599 -1 64 -1 #SUP: 2
326 -1 5 -1 2 -1 #SUP: 2
326 -1 154 -1 10 -1 #SUP: 2
326 -1 154 -1 222 -1 #SUP: 2
340 -1 41 -1 64 -1 #SUP: 2
340 -1 77 -1 22 -1 #SUP: 2
340 -1 77 -1 41 -1 #SUP: 2
340 -1 193 -1 66 -1 #SUP: 2
340 -1 356 -1 22 -1 #SUP: 2
356 -1 41 -1 64 -1 #SUP: 2
356 -1 41 -1 77 -1 #SUP: 2
356 -1 64 -1 152 -1 #SUP: 2
356 -1 64 -1 183 -1 #SUP: 2
356 -1 77 -1 32 -1 #SUP: 2
356 -1 77 -1 599 -1 #SUP: 2
356 -1 152 -1 77 -1 #SUP: 2
365 -1 22 -1 117 -1 #SUP: 2
441 -1 2 -1 70 -1 #SUP: 2
441 -1 22 -1 64 -1 #SUP: 2
441 -1 46 -1 154 -1 #SUP: 2
441 -1 326 -1 123 -1 #SUP: 2
441 -1 566 -1 567 -1 #SUP: 2
441 -1 1685 -1 567 -1 #SUP: 2
483 -1 505 -1 566 -1 #SUP: 2
499 -1 167 -1 41 -1 #SUP: 2
517 -1 64 -1 41 -1 #SUP: 2
520 -1 77 -1 123 -1 #SUP: 2
520 -1 77 -1 193 -1 #SUP: 2
520 -1 123 -1 193 -1 #SUP: 2
520 -1 154 -1 64 -1 #SUP: 2
520 -1 154 -1 193 -1 #SUP: 2
520 -1 154 -1 222 -1 #SUP: 2
520 -1 222 -1 64 -1 #SUP: 2
536 -1 77 -1 285 -1 #SUP: 2
538 -1 123 -1 205 -1 #SUP: 2
548 -1 64 -1 222 -1 #SUP: 2
566 -1 206 -1 65 -1 #SUP: 2
566 -1 206 -1 123 -1 #SUP: 2
566 -1 206 -1 193 -1 #SUP: 2
566 -1 206 -1 206 -1 #SUP: 2
599 -1 10 -1 863 -1 #SUP: 2
599 -1 22 -1 64 -1 #SUP: 2
599 -1 22 -1 123 -1 #SUP: 2
599 -1 22 -1 538 -1 #SUP: 2
599 -1 22 -1 700 -1 #SUP: 2
599 -1 32 -1 22 -1 #SUP: 2
599 -1 32 -1 123 -1 #SUP: 2
599 -1 50 -1 863 -1 #SUP: 2
599 -1 64 -1 50 -1 #SUP: 3
599 -1 65 -1 66 -1 #SUP: 2
599 -1 65 -1 123 -1 #SUP: 3
599 -1 65 -1 154 -1 #SUP: 2
599 -1 65 -1 168 -1 #SUP: 2
599 -1 65 -1 193 -1 #SUP: 2
599 -1 65 -1 340 -1 #SUP: 2
599 -1 78 -1 65 -1 #SUP: 2
599 -1 78 -1 66 -1 #SUP: 2
599 -1 78 -1 193 -1 #SUP: 3
599 -1 78 -1 340 -1 #SUP: 2
599 -1 123 -1 22 -1 #SUP: 2
599 -1 123 -1 31 -1 #SUP: 2
599 -1 123 -1 32 -1 #SUP: 2
599 -1 123 -1 65 -1 #SUP: 3
599 -1 123 -1 120 -1 #SUP: 2
599 -1 123 -1 123 -1 #SUP: 2
599 -1 123 -1 154 -1 #SUP: 2
599 -1 123 -1 193 -1 #SUP: 2
599 -1 123 -1 206 -1 #SUP: 2
599 -1 123 -1 286 -1 #SUP: 2
599 -1 123 -1 407 -1 #SUP: 2
599 -1 123 -1 613 -1 #SUP: 2
599 -1 123 -1 845 -1 #SUP: 2
599 -1 142 -1 65 -1 #SUP: 2
599 -1 142 -1 66 -1 #SUP: 2
599 -1 142 -1 78 -1 #SUP: 2
599 -1 142 -1 193 -1 #SUP: 2
599 -1 142 -1 340 -1 #SUP: 2
599 -1 142 -1 1193 -1 #SUP: 2
599 -1 154 -1 65 -1 #SUP: 2
599 -1 154 -1 123 -1 #SUP: 2
599 -1 162 -1 32 -1 #SUP: 2
599 -1 193 -1 66 -1 #SUP: 2
599 -1 206 -1 123 -1 #SUP: 2
599 -1 222 -1 65 -1 #SUP: 2
599 -1 226 -1 123 -1 #SUP: 2
599 -1 286 -1 32 -1 #SUP: 2
599 -1 340 -1 66 -1 #SUP: 2
599 -1 340 -1 193 -1 #SUP: 2
599 -1 566 -1 123 -1 #SUP: 3
599 -1 566 -1 206 -1 #SUP: 2
599 -1 845 -1 613 -1 #SUP: 2
599 -1 1193 -1 65 -1 #SUP: 2
599 -1 1193 -1 66 -1 #SUP: 2
599 -1 1193 -1 78 -1 #SUP: 2
599 -1 1193 -1 193 -1 #SUP: 2
599 -1 1193 -1 340 -1 #SUP: 2
613 -1 64 -1 222 -1 #SUP: 2
613 -1 599 -1 32 -1 #SUP: 2
613 -1 599 -1 64 -1 #SUP: 2
638 -1 64 -1 22 -1 #SUP: 2
652 -1 123 -1 123 -1 #SUP: 2
652 -1 123 -1 154 -1 #SUP: 2
652 -1 154 -1 123 -1 #SUP: 2
654 -1 65 -1 32 -1 #SUP: 2
683 -1 22 -1 132 -1 #SUP: 2
683 -1 123 -1 54 -1 #SUP: 2
683 -1 123 -1 286 -1 #SUP: 2
683 -1 286 -1 54 -1 #SUP: 2
711 -1 222 -1 77 -1 #SUP: 2
765 -1 77 -1 41 -1 #SUP: 2
765 -1 154 -1 64 -1 #SUP: 2
765 -1 183 -1 64 -1 #SUP: 2
804 -1 64 -1 22 -1 #SUP: 2
804 -1 64 -1 268 -1 #SUP: 2
804 -1 64 -1 274 -1 #SUP: 2
804 -1 70 -1 22 -1 #SUP: 2
804 -1 70 -1 64 -1 #SUP: 2
951 -1 22 -1 64 -1 #SUP: 2
951 -1 22 -1 599 -1 #SUP: 2
951 -1 123 -1 599 -1 #SUP: 2
951 -1 599 -1 123 -1 #SUP: 2
951 -1 1685 -1 567 -1 #SUP: 2
951 -1 1685 -1 599 -1 #SUP: 2
1126 -1 33 -1 22 -1 #SUP: 2
1150 -1 778 -1 200 -1 #SUP: 2
1166 -1 32 -1 599 -1 #SUP: 2
1193 -1 65 -1 66 -1 #SUP: 2
1193 -1 65 -1 193 -1 #SUP: 2
1193 -1 65 -1 340 -1 #SUP: 2
1193 -1 78 -1 65 -1 #SUP: 2
1193 -1 78 -1 66 -1 #SUP: 2
1193 -1 78 -1 193 -1 #SUP: 2
1193 -1 78 -1 340 -1 #SUP: 2
1193 -1 193 -1 66 -1 #SUP: 2
1193 -1 340 -1 66 -1 #SUP: 2
1193 -1 340 -1 193 -1 #SUP: 2
1208 -1 123 -1 32 -1 #SUP: 2
1208 -1 286 -1 32 -1 #SUP: 2
1219 -1 599 -1 123 -1 #SUP: 2
1314 -1 64 -1 22 -1 #SUP: 2
1433 -1 32 -1 22 -1 #SUP: 2
1433 -1 64 -1 22 -1 #SUP: 2
1487 -1 32 -1 64 -1 #SUP: 2
1487 -1 32 -1 77 -1 #SUP: 2
1487 -1 64 -1 77 -1 #SUP: 2
1758 -1 64 -1 22 -1 #SUP: 2
1896 -1 10 -1 3430 -1 #SUP: 2
2555 -1 66 -1 22 -1 #SUP: 2
2910 -1 16 -1 66 -1 #SUP: 2
2910 -1 291 -1 16 -1 #SUP: 2
2910 -1 291 -1 66 -1 #SUP: 2
4377 -1 349 -1 356 -1 #SUP: 2
22 -1 32 -1 64 -1 77 -1 #SUP: 2
22 -1 64 -1 222 -1 123 -1 #SUP: 2
22 -1 154 -1 70 -1 64 -1 #SUP: 2
22 -1 183 -1 22 -1 132 -1 #SUP: 2
22 -1 1314 -1 64 -1 22 -1 #SUP: 2
32 -1 22 -1 154 -1 64 -1 #SUP: 2
32 -1 64 -1 222 -1 123 -1 #SUP: 2
32 -1 154 -1 64 -1 222 -1 #SUP: 2
32 -1 222 -1 123 -1 134 -1 #SUP: 2
41 -1 123 -1 286 -1 54 -1 #SUP: 2
41 -1 123 -1 286 -1 326 -1 #SUP: 2
41 -1 123 -1 326 -1 54 -1 #SUP: 2
41 -1 286 -1 326 -1 54 -1 #SUP: 2
50 -1 170 -1 5 -1 2 -1 #SUP: 2
50 -1 170 -1 326 -1 2 -1 #SUP: 2
50 -1 170 -1 326 -1 5 -1 #SUP: 2
50 -1 326 -1 5 -1 2 -1 #SUP: 2
50 -1 1896 -1 10 -1 3430 -1 #SUP: 2
64 -1 22 -1 1314 -1 64 -1 #SUP: 2
64 -1 77 -1 33 -1 285 -1 #SUP: 2
64 -1 77 -1 64 -1 22 -1 #SUP: 2
64 -1 77 -1 2091 -1 200 -1 #SUP: 2
64 -1 123 -1 599 -1 123 -1 #SUP: 2
64 -1 154 -1 162 -1 64 -1 #SUP: 2
64 -1 193 -1 599 -1 123 -1 #SUP: 2
64 -1 222 -1 599 -1 123 -1 #SUP: 2
64 -1 599 -1 123 -1 206 -1 #SUP: 2
65 -1 123 -1 193 -1 222 -1 #SUP: 2
65 -1 123 -1 193 -1 548 -1 #SUP: 2
65 -1 123 -1 548 -1 222 -1 #SUP: 2
65 -1 154 -1 193 -1 222 -1 #SUP: 2
65 -1 154 -1 193 -1 548 -1 #SUP: 2
65 -1 154 -1 548 -1 222 -1 #SUP: 2
65 -1 193 -1 548 -1 222 -1 #SUP: 2
65 -1 340 -1 193 -1 66 -1 #SUP: 2
65 -1 1219 -1 599 -1 123 -1 #SUP: 2
66 -1 22 -1 76 -1 206 -1 #SUP: 2
66 -1 22 -1 225 -1 64 -1 #SUP: 2
66 -1 22 -1 225 -1 318 -1 #SUP: 2
70 -1 517 -1 64 -1 41 -1 #SUP: 2
77 -1 77 -1 77 -1 77 -1 #SUP: 2
77 -1 77 -1 77 -1 318 -1 #SUP: 2
77 -1 154 -1 123 -1 65 -1 #SUP: 2
77 -1 638 -1 64 -1 22 -1 #SUP: 2
78 -1 65 -1 193 -1 66 -1 #SUP: 2
78 -1 65 -1 340 -1 66 -1 #SUP: 2
78 -1 65 -1 340 -1 193 -1 #SUP: 2
78 -1 340 -1 193 -1 66 -1 #SUP: 2
123 -1 2 -1 64 -1 22 -1 #SUP: 2
123 -1 22 -1 154 -1 64 -1 #SUP: 2
123 -1 31 -1 64 -1 1533 -1 #SUP: 2
123 -1 31 -1 65 -1 138 -1 #SUP: 2
123 -1 31 -1 222 -1 64 -1 #SUP: 2
123 -1 50 -1 1899 -1 2 -1 #SUP: 2
123 -1 50 -1 1899 -1 64 -1 #SUP: 2
123 -1 50 -1 1899 -1 566 -1 #SUP: 2
123 -1 64 -1 193 -1 599 -1 #SUP: 2
123 -1 64 -1 254 -1 193 -1 #SUP: 2
123 -1 65 -1 123 -1 193 -1 #SUP: 2
123 -1 65 -1 123 -1 222 -1 #SUP: 2
123 -1 65 -1 123 -1 548 -1 #SUP: 2
123 -1 65 -1 154 -1 193 -1 #SUP: 2
123 -1 65 -1 154 -1 222 -1 #SUP: 2
123 -1 65 -1 154 -1 548 -1 #SUP: 2
123 -1 65 -1 193 -1 222 -1 #SUP: 2
123 -1 65 -1 193 -1 548 -1 #SUP: 2
123 -1 65 -1 548 -1 222 -1 #SUP: 2
123 -1 65 -1 599 -1 123 -1 #SUP: 2
123 -1 65 -1 1219 -1 123 -1 #SUP: 2
123 -1 65 -1 1219 -1 599 -1 #SUP: 2
123 -1 77 -1 123 -1 22 -1 #SUP: 2
123 -1 77 -1 599 -1 32 -1 #SUP: 2
123 -1 120 -1 441 -1 32 -1 #SUP: 2
123 -1 120 -1 441 -1 123 -1 #SUP: 2
123 -1 123 -1 142 -1 1193 -1 #SUP: 2
123 -1 123 -1 193 -1 222 -1 #SUP: 2
123 -1 123 -1 193 -1 548 -1 #SUP: 2
123 -1 123 -1 286 -1 280 -1 #SUP: 2
123 -1 123 -1 548 -1 222 -1 #SUP: 2
123 -1 144 -1 154 -1 548 -1 #SUP: 2
123 -1 154 -1 65 -1 46 -1 #SUP: 2
123 -1 154 -1 65 -1 193 -1 #SUP: 2
123 -1 154 -1 66 -1 22 -1 #SUP: 2
123 -1 154 -1 78 -1 65 -1 #SUP: 2
123 -1 154 -1 123 -1 64 -1 #SUP: 2
123 -1 154 -1 123 -1 154 -1 #SUP: 2
123 -1 154 -1 123 -1 193 -1 #SUP: 2
123 -1 154 -1 123 -1 222 -1 #SUP: 2
123 -1 154 -1 123 -1 548 -1 #SUP: 2
123 -1 154 -1 193 -1 64 -1 #SUP: 2
123 -1 154 -1 193 -1 77 -1 #SUP: 2
123 -1 154 -1 193 -1 222 -1 #SUP: 3
123 -1 154 -1 193 -1 268 -1 #SUP: 2
123 -1 154 -1 193 -1 548 -1 #SUP: 2
123 -1 154 -1 222 -1 65 -1 #SUP: 2
123 -1 154 -1 222 -1 77 -1 #SUP: 2
123 -1 154 -1 222 -1 566 -1 #SUP: 2
123 -1 154 -1 222 -1 599 -1 #SUP: 2
123 -1 154 -1 254 -1 193 -1 #SUP: 2
123 -1 154 -1 548 -1 222 -1 #SUP: 2
123 -1 154 -1 599 -1 566 -1 #SUP: 2
123 -1 164 -1 32 -1 77 -1 #SUP: 2
123 -1 193 -1 548 -1 222 -1 #SUP: 3
123 -1 220 -1 2 -1 22 -1 #SUP: 2
123 -1 220 -1 31 -1 65 -1 #SUP: 2
123 -1 222 -1 599 -1 566 -1 #SUP: 2
123 -1 254 -1 193 -1 222 -1 #SUP: 2
123 -1 254 -1 193 -1 548 -1 #SUP: 2
123 -1 254 -1 548 -1 222 -1 #SUP: 2
123 -1 286 -1 22 -1 54 -1 #SUP: 2
123 -1 286 -1 22 -1 64 -1 #SUP: 2
123 -1 286 -1 22 -1 154 -1 #SUP: 2
123 -1 286 -1 22 -1 170 -1 #SUP: 2
123 -1 286 -1 32 -1 22 -1 #SUP: 2
123 -1 286 -1 50 -1 170 -1 #SUP: 2
123 -1 286 -1 64 -1 268 -1 #SUP: 2
123 -1 286 -1 70 -1 64 -1 #SUP: 2
123 -1 286 -1 70 -1 326 -1 #SUP: 2
123 -1 286 -1 123 -1 286 -1 #SUP: 2
123 -1 286 -1 154 -1 64 -1 #SUP: 3
123 -1 286 -1 154 -1 193 -1 #SUP: 2
123 -1 286 -1 154 -1 268 -1 #SUP: 2
123 -1 286 -1 170 -1 154 -1 #SUP: 2
123 -1 286 -1 170 -1 326 -1 #SUP: 2
123 -1 286 -1 193 -1 268 -1 #SUP: 2
123 -1 286 -1 326 -1 54 -1 #SUP: 2
123 -1 286 -1 326 -1 123 -1 #SUP: 2
123 -1 286 -1 452 -1 54 -1 #SUP: 2
123 -1 286 -1 452 -1 326 -1 #SUP: 2
123 -1 286 -1 804 -1 64 -1 #SUP: 2
123 -1 441 -1 46 -1 154 -1 #SUP: 2
123 -1 599 -1 10 -1 863 -1 #SUP: 2
123 -1 599 -1 22 -1 64 -1 #SUP: 2
123 -1 599 -1 22 -1 700 -1 #SUP: 2
123 -1 599 -1 50 -1 863 -1 #SUP: 2
123 -1 599 -1 123 -1 22 -1 #SUP: 2
123 -1 599 -1 566 -1 206 -1 #SUP: 2
123 -1 652 -1 123 -1 154 -1 #SUP: 2
123 -1 652 -1 154 -1 123 -1 #SUP: 2
123 -1 683 -1 123 -1 286 -1 #SUP: 2
123 -1 1150 -1 778 -1 200 -1 #SUP: 2
123 -1 1219 -1 599 -1 123 -1 #SUP: 2
142 -1 65 -1 193 -1 66 -1 #SUP: 2
142 -1 65 -1 340 -1 66 -1 #SUP: 2
142 -1 65 -1 340 -1 193 -1 #SUP: 2
142 -1 78 -1 65 -1 66 -1 #SUP: 2
142 -1 78 -1 65 -1 193 -1 #SUP: 2
142 -1 78 -1 65 -1 340 -1 #SUP: 2
142 -1 78 -1 193 -1 66 -1 #SUP: 2
142 -1 78 -1 340 -1 66 -1 #SUP: 2
142 -1 78 -1 340 -1 193 -1 #SUP: 2
142 -1 340 -1 193 -1 66 -1 #SUP: 2
142 -1 1193 -1 65 -1 66 -1 #SUP: 2
142 -1 1193 -1 65 -1 193 -1 #SUP: 2
142 -1 1193 -1 65 -1 340 -1 #SUP: 2
142 -1 1193 -1 78 -1 65 -1 #SUP: 2
142 -1 1193 -1 78 -1 66 -1 #SUP: 2
142 -1 1193 -1 78 -1 193 -1 #SUP: 2
142 -1 1193 -1 78 -1 340 -1 #SUP: 2
142 -1 1193 -1 193 -1 66 -1 #SUP: 2
142 -1 1193 -1 340 -1 66 -1 #SUP: 2
142 -1 1193 -1 340 -1 193 -1 #SUP: 2
154 -1 64 -1 50 -1 863 -1 #SUP: 2
154 -1 70 -1 64 -1 22 -1 #SUP: 2
154 -1 77 -1 599 -1 123 -1 #SUP: 2
154 -1 123 -1 77 -1 123 -1 #SUP: 2
154 -1 123 -1 78 -1 65 -1 #SUP: 2
154 -1 123 -1 193 -1 222 -1 #SUP: 2
154 -1 123 -1 193 -1 548 -1 #SUP: 2
154 -1 123 -1 286 -1 32 -1 #SUP: 2
154 -1 123 -1 548 -1 222 -1 #SUP: 2
154 -1 123 -1 599 -1 50 -1 #SUP: 2
154 -1 154 -1 548 -1 65 -1 #SUP: 2
154 -1 193 -1 193 -1 77 -1 #SUP: 2
154 -1 193 -1 548 -1 222 -1 #SUP: 2
154 -1 222 -1 599 -1 566 -1 #SUP: 2
154 -1 254 -1 193 -1 64 -1 #SUP: 2
154 -1 2555 -1 66 -1 22 -1 #SUP: 2
162 -1 193 -1 77 -1 285 -1 #SUP: 2
170 -1 326 -1 5 -1 2 -1 #SUP: 2
183 -1 183 -1 22 -1 132 -1 #SUP: 2
183 -1 183 -1 183 -1 22 -1 #SUP: 2
183 -1 183 -1 183 -1 132 -1 #SUP: 2
193 -1 64 -1 64 -1 77 -1 #SUP: 2
193 -1 1126 -1 33 -1 22 -1 #SUP: 2
222 -1 599 -1 566 -1 123 -1 #SUP: 2
254 -1 193 -1 548 -1 222 -1 #SUP: 2
286 -1 22 -1 154 -1 64 -1 #SUP: 2
286 -1 154 -1 193 -1 268 -1 #SUP: 2
520 -1 77 -1 123 -1 193 -1 #SUP: 2
599 -1 65 -1 154 -1 123 -1 #SUP: 2
599 -1 65 -1 193 -1 66 -1 #SUP: 2
599 -1 65 -1 340 -1 66 -1 #SUP: 2
599 -1 65 -1 340 -1 193 -1 #SUP: 2
599 -1 78 -1 65 -1 66 -1 #SUP: 2
599 -1 78 -1 65 -1 193 -1 #SUP: 2
599 -1 78 -1 65 -1 340 -1 #SUP: 2
599 -1 78 -1 193 -1 66 -1 #SUP: 2
599 -1 78 -1 340 -1 66 -1 #SUP: 2
599 -1 78 -1 340 -1 193 -1 #SUP: 2
599 -1 123 -1 286 -1 32 -1 #SUP: 2
599 -1 123 -1 845 -1 613 -1 #SUP: 2
599 -1 142 -1 65 -1 66 -1 #SUP: 2
599 -1 142 -1 65 -1 193 -1 #SUP: 2
599 -1 142 -1 65 -1 340 -1 #SUP: 2
599 -1 142 -1 78 -1 65 -1 #SUP: 2
599 -1 142 -1 78 -1 66 -1 #SUP: 2
599 -1 142 -1 78 -1 193 -1 #SUP: 2
599 -1 142 -1 78 -1 340 -1 #SUP: 2
599 -1 142 -1 193 -1 66 -1 #SUP: 2
599 -1 142 -1 340 -1 66 -1 #SUP: 2
599 -1 142 -1 340 -1 193 -1 #SUP: 2
599 -1 142 -1 1193 -1 65 -1 #SUP: 2
599 -1 142 -1 1193 -1 66 -1 #SUP: 2
599 -1 142 -1 1193 -1 78 -1 #SUP: 2
599 -1 142 -1 1193 -1 193 -1 #SUP: 2
599 -1 142 -1 1193 -1 340 -1 #SUP: 2
599 -1 340 -1 193 -1 66 -1 #SUP: 2
599 -1 566 -1 206 -1 123 -1 #SUP: 2
599 -1 1193 -1 65 -1 66 -1 #SUP: 2
599 -1 1193 -1 65 -1 193 -1 #SUP: 2
599 -1 1193 -1 65 -1 340 -1 #SUP: 2
599 -1 1193 -1 78 -1 65 -1 #SUP: 2
599 -1 1193 -1 78 -1 66 -1 #SUP: 2
599 -1 1193 -1 78 -1 193 -1 #SUP: 2
599 -1 1193 -1 78 -1 340 -1 #SUP: 2
599 -1 1193 -1 193 -1 66 -1 #SUP: 2
599 -1 1193 -1 340 -1 66 -1 #SUP: 2
599 -1 1193 -1 340 -1 193 -1 #SUP: 2
652 -1 123 -1 154 -1 123 -1 #SUP: 2
683 -1 123 -1 286 -1 54 -1 #SUP: 2
804 -1 70 -1 64 -1 22 -1 #SUP: 2
1193 -1 65 -1 193 -1 66 -1 #SUP: 2
1193 -1 65 -1 340 -1 66 -1 #SUP: 2
1193 -1 65 -1 340 -1 193 -1 #SUP: 2
1193 -1 78 -1 65 -1 66 -1 #SUP: 2
1193 -1 78 -1 65 -1 193 -1 #SUP: 2
1193 -1 78 -1 65 -1 340 -1 #SUP: 2
1193 -1 78 -1 193 -1 66 -1 #SUP: 2
1193 -1 78 -1 340 -1 66 -1 #SUP: 2
1193 -1 78 -1 340 -1 193 -1 #SUP: 2
1193 -1 340 -1 193 -1 66 -1 #SUP: 2
1487 -1 32 -1 64 -1 77 -1 #SUP: 2
2910 -1 291 -1 16 -1 66 -1 #SUP: 2
41 -1 123 -1 286 -1 326 -1 54 -1 #SUP: 2
50 -1 170 -1 326 -1 5 -1 2 -1 #SUP: 2
65 -1 123 -1 193 -1 548 -1 222 -1 #SUP: 2
65 -1 154 -1 193 -1 548 -1 222 -1 #SUP: 2
78 -1 65 -1 340 -1 193 -1 66 -1 #SUP: 2
123 -1 65 -1 123 -1 193 -1 222 -1 #SUP: 2
123 -1 65 -1 123 -1 193 -1 548 -1 #SUP: 2
123 -1 65 -1 123 -1 548 -1 222 -1 #SUP: 2
123 -1 65 -1 154 -1 193 -1 222 -1 #SUP: 2
123 -1 65 -1 154 -1 193 -1 548 -1 #SUP: 2
123 -1 65 -1 154 -1 548 -1 222 -1 #SUP: 2
123 -1 65 -1 193 -1 548 -1 222 -1 #SUP: 2
123 -1 65 -1 1219 -1 599 -1 123 -1 #SUP: 2
123 -1 123 -1 193 -1 548 -1 222 -1 #SUP: 2
123 -1 154 -1 123 -1 193 -1 222 -1 #SUP: 2
123 -1 154 -1 123 -1 193 -1 548 -1 #SUP: 2
123 -1 154 -1 123 -1 548 -1 222 -1 #SUP: 2
123 -1 154 -1 193 -1 548 -1 222 -1 #SUP: 2
123 -1 154 -1 222 -1 599 -1 566 -1 #SUP: 2
123 -1 254 -1 193 -1 548 -1 222 -1 #SUP: 2
123 -1 286 -1 22 -1 154 -1 64 -1 #SUP: 2
123 -1 286 -1 154 -1 193 -1 268 -1 #SUP: 2
142 -1 65 -1 340 -1 193 -1 66 -1 #SUP: 2
142 -1 78 -1 65 -1 193 -1 66 -1 #SUP: 2
142 -1 78 -1 65 -1 340 -1 66 -1 #SUP: 2
142 -1 78 -1 65 -1 340 -1 193 -1 #SUP: 2
142 -1 78 -1 340 -1 193 -1 66 -1 #SUP: 2
142 -1 1193 -1 65 -1 193 -1 66 -1 #SUP: 2
142 -1 1193 -1 65 -1 340 -1 66 -1 #SUP: 2
142 -1 1193 -1 65 -1 340 -1 193 -1 #SUP: 2
142 -1 1193 -1 78 -1 65 -1 66 -1 #SUP: 2
142 -1 1193 -1 78 -1 65 -1 193 -1 #SUP: 2
142 -1 1193 -1 78 -1 65 -1 340 -1 #SUP: 2
142 -1 1193 -1 78 -1 193 -1 66 -1 #SUP: 2
142 -1 1193 -1 78 -1 340 -1 66 -1 #SUP: 2
142 -1 1193 -1 78 -1 340 -1 193 -1 #SUP: 2
142 -1 1193 -1 340 -1 193 -1 66 -1 #SUP: 2
154 -1 123 -1 193 -1 548 -1 222 -1 #SUP: 2
183 -1 183 -1 183 -1 22 -1 132 -1 #SUP: 2
599 -1 65 -1 340 -1 193 -1 66 -1 #SUP: 2
599 -1 78 -1 65 -1 193 -1 66 -1 #SUP: 2
599 -1 78 -1 65 -1 340 -1 66 -1 #SUP: 2
599 -1 78 -1 65 -1 340 -1 193 -1 #SUP: 2
599 -1 78 -1 340 -1 193 -1 66 -1 #SUP: 2
599 -1 142 -1 65 -1 193 -1 66 -1 #SUP: 2
599 -1 142 -1 65 -1 340 -1 66 -1 #SUP: 2
599 -1 142 -1 65 -1 340 -1 193 -1 #SUP: 2
599 -1 142 -1 78 -1 65 -1 66 -1 #SUP: 2
599 -1 142 -1 78 -1 65 -1 193 -1 #SUP: 2
599 -1 142 -1 78 -1 65 -1 340 -1 #SUP: 2
599 -1 142 -1 78 -1 193 -1 66 -1 #SUP: 2
599 -1 142 -1 78 -1 340 -1 66 -1 #SUP: 2
599 -1 142 -1 78 -1 340 -1 193 -1 #SUP: 2
599 -1 142 -1 340 -1 193 -1 66 -1 #SUP: 2
599 -1 142 -1 1193 -1 65 -1 66 -1 #SUP: 2
599 -1 142 -1 1193 -1 65 -1 193 -1 #SUP: 2
599 -1 142 -1 1193 -1 65 -1 340 -1 #SUP: 2
599 -1 142 -1 1193 -1 78 -1 65 -1 #SUP: 2
599 -1 142 -1 1193 -1 78 -1 66 -1 #SUP: 2
599 -1 142 -1 1193 -1 78 -1 193 -1 #SUP: 2
599 -1 142 -1 1193 -1 78 -1 340 -1 #SUP: 2
599 -1 142 -1 1193 -1 193 -1 66 -1 #SUP: 2
599 -1 142 -1 1193 -1 340 -1 66 -1 #SUP: 2
599 -1 142 -1 1193 -1 340 -1 193 -1 #SUP: 2
599 -1 1193 -1 65 -1 193 -1 66 -1 #SUP: 2
599 -1 1193 -1 65 -1 340 -1 66 -1 #SUP: 2
599 -1 1193 -1 65 -1 340 -1 193 -1 #SUP: 2
599 -1 1193 -1 78 -1 65 -1 66 -1 #SUP: 2
599 -1 1193 -1 78 -1 65 -1 193 -1 #SUP: 2
599 -1 1193 -1 78 -1 65 -1 340 -1 #SUP: 2
599 -1 1193 -1 78 -1 193 -1 66 -1 #SUP: 2
599 -1 1193 -1 78 -1 340 -1 66 -1 #SUP: 2
599 -1 1193 -1 78 -1 340 -1 193 -1 #SUP: 2
599 -1 1193 -1 340 -1 193 -1 66 -1 #SUP: 2
1193 -1 65 -1 340 -1 193 -1 66 -1 #SUP: 2
1193 -1 78 -1 65 -1 193 -1 66 -1 #SUP: 2
1193 -1 78 -1 65 -1 340 -1 66 -1 #SUP: 2
1193 -1 78 -1 65 -1 340 -1 193 -1 #SUP: 2
1193 -1 78 -1 340 -1 193 -1 66 -1 #SUP: 2
123 -1 65 -1 123 -1 193 -1 548 -1 222 -1 #SUP: 2
123 -1 65 -1 154 -1 193 -1 548 -1 222 -1 #SUP: 2
123 -1 154 -1 123 -1 193 -1 548 -1 222 -1 #SUP: 2
142 -1 78 -1 65 -1 340 -1 193 -1 66 -1 #SUP: 2
142 -1 1193 -1 65 -1 340 -1 193 -1 66 -1 #SUP: 2
142 -1 1193 -1 78 -1 65 -1 193 -1 66 -1 #SUP: 2
142 -1 1193 -1 78 -1 65 -1 340 -1 66 -1 #SUP: 2
142 -1 1193 -1 78 -1 65 -1 340 -1 193 -1 #SUP: 2
142 -1 1193 -1 78 -1 340 -1 193 -1 66 -1 #SUP: 2
599 -1 78 -1 65 -1 340 -1 193 -1 66 -1 #SUP: 2
599 -1 142 -1 65 -1 340 -1 193 -1 66 -1 #SUP: 2
599 -1 142 -1 78 -1 65 -1 193 -1 66 -1 #SUP: 2
599 -1 142 -1 78 -1 65 -1 340 -1 66 -1 #SUP: 2
599 -1 142 -1 78 -1 65 -1 340 -1 193 -1 #SUP: 2
599 -1 142 -1 78 -1 340 -1 193 -1 66 -1 #SUP: 2
599 -1 142 -1 1193 -1 65 -1 193 -1 66 -1 #SUP: 2
599 -1 142 -1 1193 -1 65 -1 340 -1 66 -1 #SUP: 2
599 -1 142 -1 1193 -1 65 -1 340 -1 193 -1 #SUP: 2
599 -1 142 -1 1193 -1 78 -1 65 -1 66 -1 #SUP: 2
599 -1 142 -1 1193 -1 78 -1 65 -1 193 -1 #SUP: 2
599 -1 142 -1 1193 -1 78 -1 65 -1 340 -1 #SUP: 2
599 -1 142 -1 1193 -1 78 -1 193 -1 66 -1 #SUP: 2
599 -1 142 -1 1193 -1 78 -1 340 -1 66 -1 #SUP: 2
599 -1 142 -1 1193 -1 78 -1 340 -1 193 -1 #SUP: 2
599 -1 142 -1 1193 -1 340 -1 193 -1 66 -1 #SUP: 2
599 -1 1193 -1 65 -1 340 -1 193 -1 66 -1 #SUP: 2
599 -1 1193 -1 78 -1 65 -1 193 -1 66 -1 #SUP: 2
599 -1 1193 -1 78 -1 65 -1 340 -1 66 -1 #SUP: 2
599 -1 1193 -1 78 -1 65 -1 340 -1 193 -1 #SUP: 2
599 -1 1193 -1 78 -1 340 -1 193 -1 66 -1 #SUP: 2
1193 -1 78 -1 65 -1 340 -1 193 -1 66 -1 #SUP: 2
142 -1 1193 -1 78 -1 65 -1 340 -1 193 -1 66 -1 #SUP: 2
599 -1 142 -1 78 -1 65 -1 340 -1 193 -1 66 -1 #SUP: 2
599 -1 142 -1 1193 -1 65 -1 340 -1 193 -1 66 -1 #SUP: 2
599 -1 142 -1 1193 -1 78 -1 65 -1 193 -1 66 -1 #SUP: 2
599 -1 142 -1 1193 -1 78 -1 65 -1 340 -1 66 -1 #SUP: 2
599 -1 142 -1 1193 -1 78 -1 65 -1 340 -1 193 -1 #SUP: 2
599 -1 142 -1 1193 -1 78 -1 340 -1 193 -1 66 -1 #SUP: 2
599 -1 1193 -1 78 -1 65 -1 340 -1 193 -1 66 -1 #SUP: 2
599 -1 142 -1 1193 -1 78 -1 65 -1 340 -1 193 -1 66 -1 #SUP: 2
